Date,Open,High,Low,Close,Volume,Adj Close
2011-06-24,0.17292000000000002,0.17292000000000002,0.15995,0.17292000000000002,312200,0.17292000000000002
2011-06-27,0.17292000000000002,0.17292000000000002,0.16427,0.17292000000000002,313100,0.17292000000000002
2011-06-28,0.17292000000000002,0.17292000000000002,0.17292000000000002,0.17292000000000002,115600,0.17292000000000002
2011-06-29,0.17724,0.17724,0.17724,0.17724,37500,0.17724
2011-06-30,0.17292000000000002,0.17724,0.17292000000000002,0.17724,98300,0.17724
2011-07-01,0.17724,0.17724,0.17292000000000002,0.17292000000000002,193700,0.17292000000000002
2011-07-04,0.17724,0.18156,0.17724,0.17724,80900,0.17724
2011-07-05,0.18156,0.18156,0.18156,0.18156,115600,0.18156
2011-07-06,0.18156,0.18156,0.18156,0.18156,84400,0.18156
2011-07-07,0.18156,0.18156,0.18156,0.18156,31200,0.18156
2011-07-08,0.18156,0.18156,0.17724,0.18156,228400,0.18156
2011-07-11,0.18156,0.18588,0.18156,0.18588,191100,0.18588
2011-07-12,0.18588,0.18588,0.17292000000000002,0.17292000000000002,133200,0.17292000000000002
2011-07-14,0.17724,0.17724,0.17724,0.17724,57800,0.17724
2011-07-15,0.18156,0.18588,0.18156,0.18156,54900,0.18156
2011-07-19,0.18156,0.18156,0.18156,0.18156,28900,0.18156
2011-07-20,0.18156,0.19021,0.18156,0.19021,135000,0.19021
2011-07-21,0.18588,0.18588,0.18588,0.18588,28900,0.18588
2011-07-25,0.18588,0.19021,0.18588,0.19021,97100,0.19021
2011-07-26,0.19021,0.19885,0.19021,0.19885,73100,0.19885
2011-07-27,0.19021,0.19885,0.19021,0.19885,31600,0.19885
2011-07-28,0.18588,0.18588,0.18588,0.18588,40400,0.18588
2011-08-01,0.19021,0.19021,0.19021,0.19021,53600,0.19021
2011-08-02,0.19021,0.19885,0.19021,0.19885,49700,0.19885
2011-08-03,0.19021,0.19021,0.19021,0.19021,75100,0.19021
2011-08-04,0.19453,0.19453,0.19021,0.19021,178500,0.19021
2011-08-05,0.17292000000000002,0.17292000000000002,0.17292000000000002,0.17292000000000002,140500,0.17292000000000002
2011-08-08,0.15995,0.15995,0.15995,0.15995,115600,0.15995
2011-08-09,0.16427,0.16859000000000002,0.15562,0.15995,231300,0.15995
2011-08-10,0.17292000000000002,0.18156,0.17292000000000002,0.17292000000000002,216100,0.17292000000000002
2011-08-11,0.17292000000000002,0.17292000000000002,0.17292000000000002,0.17292000000000002,138900,0.17292000000000002
2011-08-12,0.17292000000000002,0.17292000000000002,0.17292000000000002,0.17292000000000002,20800,0.17292000000000002
2011-08-15,0.17292000000000002,0.17292000000000002,0.17292000000000002,0.17292000000000002,90600,0.17292000000000002
2011-08-17,0.17292000000000002,0.17292000000000002,0.16427,0.16427,86700,0.16427
2011-08-19,0.16427,0.16427,0.16427,0.16427,43600,0.16427
2011-08-22,0.15562,0.15562,0.15562,0.15562,28900,0.15562
2011-08-24,0.15995,0.17292000000000002,0.15562,0.15562,254400,0.15562
2011-08-25,0.15562,0.15562,0.15562,0.15562,69300,0.15562
2011-08-26,0.15562,0.15562,0.15562,0.15562,34600,0.15562
2011-08-29,0.15562,0.15562,0.15562,0.15562,31200,0.15562
2011-08-30,0.15562,0.15562,0.15562,0.15562,211600,0.15562
2011-08-31,0.15562,0.15562,0.15562,0.15562,33500,0.15562
2011-09-02,0.15562,0.15562,0.15562,0.15562,228400,0.15562
2011-09-07,0.15562,0.15562,0.15562,0.15562,92500,0.15562
2011-09-08,0.15562,0.15562,0.15562,0.15562,104000,0.15562
2011-09-09,0.15562,0.15562,0.15562,0.15562,254400,0.15562
2011-09-15,0.15562,0.15562,0.15562,0.15562,28900,0.15562
2011-09-16,0.15562,0.15562,0.14698,0.14698,427900,0.14698
2011-09-19,0.14698,0.16427,0.14698,0.16427,184600,0.16427
2011-09-20,0.15562,0.15562,0.1513,0.1513,42500,0.1513
2011-09-21,0.1513,0.1513,0.1513,0.1513,21000,0.1513
2011-09-23,0.15562,0.15562,0.1513,0.1513,13000,0.1513
2011-09-28,0.14698,0.15562,0.14698,0.15562,78600,0.15562
2011-09-29,0.15562,0.15562,0.15562,0.15562,11500,0.15562
2011-09-30,0.14698,0.14698,0.14698,0.14698,69300,0.14698
2011-10-05,0.14698,0.14698,0.14698,0.14698,8600,0.14698
2011-10-06,0.14698,0.16427,0.14698,0.14698,109300,0.14698
2011-10-07,0.14698,0.18588,0.14698,0.18588,555000,0.18588
2011-10-10,0.18588,0.18588,0.15562,0.18588,77100,0.18588
2011-10-11,0.16427,0.16427,0.16427,0.16427,83700,0.16427
2011-10-12,0.17292000000000002,0.17292000000000002,0.16427,0.16427,108800,0.16427
2011-10-13,0.17292000000000002,0.18156,0.16859000000000002,0.16859000000000002,401500,0.16859000000000002
2011-10-14,0.17292000000000002,0.17724,0.17292000000000002,0.17724,275000,0.17724
2011-10-17,0.17724,0.17724,0.17292000000000002,0.17292000000000002,324400,0.17292000000000002
2011-10-18,0.17292000000000002,0.17292000000000002,0.17292000000000002,0.17292000000000002,169200,0.17292000000000002
2011-10-19,0.19453,0.21615,0.19453,0.2075,708100,0.2075
2011-10-20,0.2075,0.21181999999999998,0.2075,0.21181999999999998,242800,0.21181999999999998
2011-10-21,0.2075,0.21615,0.2075,0.21615,584000,0.21615
2011-10-24,0.21615,0.21615,0.21615,0.21615,331300,0.21615
2011-10-25,0.21615,0.21615,0.2075,0.2075,75100,0.2075
2011-10-26,0.2075,0.22479000000000002,0.19453,0.21615,849700,0.21615
2011-10-27,0.21615,0.21615,0.21615,0.21615,74000,0.21615
2011-10-28,0.22046999999999997,0.22479000000000002,0.21615,0.22046999999999997,888200,0.22046999999999997
2011-10-31,0.22046999999999997,0.22479000000000002,0.21615,0.21615,670800,0.21615
2011-11-01,0.21615,0.22479000000000002,0.21615,0.21615,714500,0.21615
2011-11-02,0.22046999999999997,0.22479000000000002,0.21615,0.22046999999999997,539200,0.22046999999999997
2011-11-03,0.22479000000000002,0.25937,0.22479000000000002,0.23776,1332900,0.23776
2011-11-04,0.24208000000000002,0.25937,0.23344,0.24208000000000002,1195500,0.24208000000000002
2011-11-07,0.23344,0.23344,0.22479000000000002,0.22479000000000002,404800,0.22479000000000002
2011-11-08,0.23344,0.23776,0.22910999999999998,0.22910999999999998,346600,0.22910999999999998
2011-11-09,0.22910999999999998,0.24208000000000002,0.22910999999999998,0.22910999999999998,556700,0.22910999999999998
2011-11-10,0.22046999999999997,0.22479000000000002,0.2075,0.22479000000000002,270600,0.22479000000000002
2011-11-11,0.21181999999999998,0.21615,0.19885,0.21615,201900,0.21615
2011-11-14,0.21615,0.21615,0.21181999999999998,0.21615,163600,0.21615
2011-11-15,0.21615,0.21615,0.21615,0.21615,118800,0.21615
2011-11-16,0.21615,0.21615,0.13833,0.16859000000000002,824800,0.16859000000000002
2011-11-17,0.15562,0.16427,0.14698,0.14698,187200,0.14698
2011-11-18,0.14698,0.1513,0.14265999999999998,0.1513,333800,0.1513
2011-11-21,0.14265999999999998,0.14265999999999998,0.13833,0.13833,146200,0.13833
2011-11-22,0.13833,0.13833,0.13833,0.13833,0,0.13833
2011-11-23,0.13833,0.13833,0.12969,0.13833,65000,0.13833
2011-11-24,0.12969,0.13401,0.12969,0.13401,23100,0.13401
2011-11-25,0.13401,0.13401,0.12969,0.12969,134100,0.12969
2011-11-28,0.12536,0.12536,0.09078,0.1124,547300,0.1124
2011-11-29,0.12104000000000001,0.12969,0.12104000000000001,0.12969,73400,0.12969
2011-11-30,0.12969,0.13833,0.12969,0.13833,84000,0.13833
2011-12-01,0.12969,0.12969,0.12969,0.12969,43000,0.12969
2011-12-02,0.12969,0.12969,0.12969,0.12969,0,0.12969
2011-12-05,0.12104000000000001,0.12104000000000001,0.12104000000000001,0.12104000000000001,69300,0.12104000000000001
2011-12-06,0.12104000000000001,0.12104000000000001,0.12104000000000001,0.12104000000000001,34600,0.12104000000000001
2011-12-07,0.13833,0.1513,0.13833,0.1513,156100,0.1513
2011-12-08,0.15562,0.15562,0.13401,0.14698,143100,0.14698
2011-12-09,0.1513,0.1513,0.14698,0.14698,44600,0.14698
2011-12-12,0.1513,0.1513,0.1513,0.1513,29800,0.1513
2011-12-13,0.14698,0.14698,0.14698,0.14698,34000,0.14698
2011-12-14,0.14265999999999998,0.14265999999999998,0.13833,0.13833,138700,0.13833
2011-12-15,0.13833,0.13833,0.13833,0.13833,0,0.13833
2011-12-16,0.13401,0.13401,0.12536,0.12536,26100,0.12536
2011-12-19,0.12104000000000001,0.12104000000000001,0.12104000000000001,0.12104000000000001,11500,0.12104000000000001
2011-12-20,0.12104000000000001,0.12104000000000001,0.12104000000000001,0.12104000000000001,0,0.12104000000000001
2011-12-21,0.13833,0.13833,0.13833,0.13833,21300,0.13833
2011-12-22,0.13833,0.13833,0.13833,0.13833,0,0.13833
2011-12-23,0.13833,0.13833,0.13833,0.13833,0,0.13833
2011-12-26,0.13833,0.13833,0.13833,0.13833,0,0.13833
2011-12-27,0.13833,0.13833,0.13833,0.13833,0,0.13833
2011-12-28,0.13833,0.13833,0.13833,0.13833,0,0.13833
2011-12-29,0.13833,0.13833,0.13833,0.13833,0,0.13833
2011-12-30,0.13833,0.13833,0.13833,0.13833,0,0.13833
2012-01-02,0.13833,0.13833,0.13833,0.13833,0,0.13833
2012-01-03,0.12969,0.12969,0.12969,0.12969,21500,0.12969
2012-01-04,0.12969,0.12969,0.12969,0.12969,0,0.12969
2012-01-05,0.12969,0.12969,0.12969,0.12969,0,0.12969
2012-01-06,0.12969,0.12969,0.12969,0.12969,0,0.12969
2012-01-09,0.13833,0.13833,0.12969,0.12969,56300,0.12969
2012-01-10,0.13833,0.13833,0.12969,0.12969,45600,0.12969
2012-01-11,0.12969,0.12969,0.12969,0.12969,173400,0.12969
2012-01-12,0.12969,0.12969,0.12969,0.12969,0,0.12969
2012-01-13,0.12969,0.12969,0.12969,0.12969,0,0.12969
2012-01-16,0.12969,0.12969,0.12969,0.12969,0,0.12969
2012-01-17,0.12969,0.12969,0.12969,0.12969,9100,0.12969
2012-01-18,0.13401,0.13401,0.12969,0.12969,118100,0.12969
2012-01-19,0.12969,0.12969,0.12969,0.12969,0,0.12969
2012-01-20,0.14265999999999998,0.14698,0.14265999999999998,0.14698,37500,0.14698
2012-01-23,0.14698,0.15562,0.14698,0.14698,107600,0.14698
2012-01-24,0.14698,0.14698,0.14698,0.14698,0,0.14698
2012-01-25,0.14698,0.14698,0.14698,0.14698,0,0.14698
2012-01-26,0.14698,0.14698,0.14698,0.14698,0,0.14698
2012-01-27,0.14698,0.14698,0.14698,0.14698,0,0.14698
2012-01-31,0.16427,0.16427,0.16427,0.16427,109800,0.16427
2012-02-01,0.16427,0.16427,0.16427,0.16427,0,0.16427
2012-02-02,0.16427,0.16427,0.16427,0.16427,0,0.16427
2012-02-03,0.14698,0.14698,0.14265999999999998,0.14265999999999998,58800,0.14265999999999998
2012-02-06,0.14698,0.14698,0.14265999999999998,0.14265999999999998,75800,0.14265999999999998
2012-02-07,0.14265999999999998,0.14265999999999998,0.14265999999999998,0.14265999999999998,28900,0.14265999999999998
2012-02-08,0.13833,0.13833,0.13833,0.13833,23100,0.13833
2012-02-09,0.13833,0.13833,0.13833,0.13833,0,0.13833
2012-02-10,0.13833,0.13833,0.13833,0.13833,0,0.13833
2012-02-13,0.1513,0.15562,0.13833,0.13833,359200,0.13833
2012-02-14,0.13833,0.13833,0.13833,0.13833,14400,0.13833
2012-02-15,0.13833,0.13833,0.13833,0.13833,0,0.13833
2012-02-16,0.13833,0.14265999999999998,0.13833,0.14265999999999998,33400,0.14265999999999998
2012-02-17,0.14265999999999998,0.14265999999999998,0.14265999999999998,0.14265999999999998,0,0.14265999999999998
2012-02-20,0.14698,0.1513,0.14698,0.1513,58000,0.1513
2012-02-21,0.1513,0.1513,0.1513,0.1513,0,0.1513
2012-02-22,0.1513,0.1513,0.1513,0.1513,0,0.1513
2012-02-23,0.1513,0.16427,0.1513,0.15995,197700,0.15995
2012-02-24,0.15562,0.15562,0.15562,0.15562,38100,0.15562
2012-02-27,0.15562,0.15562,0.15562,0.15562,0,0.15562
2012-02-28,0.15562,0.15562,0.12969,0.13401,608900,0.13401
2012-02-29,0.14265999999999998,0.14698,0.13401,0.13401,37800,0.13401
2012-03-01,0.12104000000000001,0.12104000000000001,0.11672,0.11672,123700,0.11672
2012-03-02,0.11672,0.11672,0.11672,0.11672,0,0.11672
2012-03-05,0.12104000000000001,0.12104000000000001,0.11672,0.11672,52000,0.11672
2012-03-06,0.11672,0.11672,0.11672,0.11672,84500,0.11672
2012-03-07,0.1124,0.1124,0.1124,0.1124,124300,0.1124
2012-03-08,0.11672,0.11672,0.11672,0.11672,7900,0.11672
2012-03-09,0.11672,0.11672,0.11672,0.11672,38000,0.11672
2012-03-12,0.11672,0.11672,0.11672,0.11672,0,0.11672
2012-03-13,0.1124,0.1124,0.1124,0.1124,13900,0.1124
2012-03-14,0.12104000000000001,0.12104000000000001,0.12104000000000001,0.12104000000000001,11500,0.12104000000000001
2012-03-15,0.12536,0.12969,0.12536,0.12969,17300,0.12969
2012-03-16,0.12969,0.12969,0.12969,0.12969,0,0.12969
2012-03-19,0.11672,0.11672,0.11672,0.11672,8500,0.11672
2012-03-20,0.1124,0.1124,0.1124,0.1124,36900,0.1124
2012-03-21,0.1124,0.1124,0.1124,0.1124,0,0.1124
2012-03-22,0.10375,0.10375,0.10375,0.10375,34600,0.10375
2012-03-23,0.10375,0.10375,0.10375,0.10375,57800,0.10375
2012-03-26,0.10375,0.10375,0.10375,0.10375,0,0.10375
2012-03-27,0.10375,0.10375,0.10375,0.10375,23100,0.10375
2012-03-28,0.10375,0.10375,0.10375,0.10375,0,0.10375
2012-03-29,0.10375,0.10375,0.10375,0.10375,1800,0.10375
2012-03-30,0.10375,0.10375,0.10375,0.10375,0,0.10375
2012-04-02,0.09942999999999999,0.09942999999999999,0.08646000000000001,0.09942999999999999,115800,0.09942999999999999
2012-04-03,0.09942999999999999,0.09942999999999999,0.0951,0.0951,34600,0.0951
2012-04-04,0.0951,0.0951,0.08646000000000001,0.08646000000000001,10900,0.08646000000000001
2012-04-05,0.0951,0.0951,0.0951,0.0951,23100,0.0951
2012-04-06,0.0951,0.0951,0.0951,0.0951,0,0.0951
2012-04-09,0.0951,0.0951,0.0951,0.0951,0,0.0951
2012-04-10,0.08646000000000001,0.08646000000000001,0.08646000000000001,0.08646000000000001,49100,0.08646000000000001
2012-04-11,0.07781,0.08646000000000001,0.07781,0.08646000000000001,23100,0.08646000000000001
2012-04-12,0.08646000000000001,0.08646000000000001,0.08646000000000001,0.08646000000000001,68800,0.08646000000000001
2012-04-13,0.08646000000000001,0.08646000000000001,0.08646000000000001,0.08646000000000001,80900,0.08646000000000001
2012-04-16,0.08646000000000001,0.08646000000000001,0.08646000000000001,0.08646000000000001,0,0.08646000000000001
2012-04-17,0.08646000000000001,0.08646000000000001,0.08646000000000001,0.08646000000000001,0,0.08646000000000001
2012-04-18,0.08646000000000001,0.08646000000000001,0.08646000000000001,0.08646000000000001,0,0.08646000000000001
2012-04-19,0.08646000000000001,0.08646000000000001,0.08646000000000001,0.08646000000000001,0,0.08646000000000001
2012-04-20,0.08646000000000001,0.08646000000000001,0.08646000000000001,0.08646000000000001,0,0.08646000000000001
2012-04-23,0.08646000000000001,0.08646000000000001,0.08646000000000001,0.08646000000000001,0,0.08646000000000001
2012-04-24,0.08646000000000001,0.08646000000000001,0.08646000000000001,0.08646000000000001,0,0.08646000000000001
2012-04-25,0.08646000000000001,0.08646000000000001,0.08646000000000001,0.08646000000000001,0,0.08646000000000001
2012-04-26,0.08646000000000001,0.08646000000000001,0.08646000000000001,0.08646000000000001,0,0.08646000000000001
2012-04-27,0.07868,0.07868,0.07349,0.07349,8000,0.07349
2012-04-30,0.07349,0.07349,0.07349,0.07349,26000,0.07349
2012-05-01,0.07003,0.07003,0.07003,0.07003,8600,0.07003
2012-05-02,0.06917000000000001,0.06917000000000001,0.06484,0.06484,56700,0.06484
2012-05-03,0.06484,0.06484,0.06484,0.06484,39300,0.06484
2012-05-04,0.06484,0.06484,0.06484,0.06484,0,0.06484
2012-05-07,0.06484,0.06484,0.06484,0.06484,0,0.06484
2012-05-08,0.06484,0.06484,0.06484,0.06484,0,0.06484
2012-05-09,0.06484,0.06484,0.06484,0.06484,0,0.06484
2012-05-10,0.06484,0.06484,0.054470000000000005,0.054470000000000005,228400,0.054470000000000005
2012-05-11,0.06484,0.06484,0.06484,0.06484,205200,0.06484
2012-05-14,0.06484,0.06484,0.06484,0.06484,0,0.06484
2012-05-15,0.06484,0.06484,0.06484,0.06484,0,0.06484
2012-05-16,0.060520000000000004,0.060520000000000004,0.05706,0.057929999999999995,52100,0.057929999999999995
2012-05-17,0.060520000000000004,0.060520000000000004,0.060520000000000004,0.060520000000000004,115600,0.060520000000000004
2012-05-18,0.054470000000000005,0.054470000000000005,0.054470000000000005,0.054470000000000005,346900,0.054470000000000005
2012-05-21,0.054470000000000005,0.054470000000000005,0.051870000000000006,0.051870000000000006,173400,0.051870000000000006
2012-05-22,0.051870000000000006,0.051870000000000006,0.051870000000000006,0.051870000000000006,86800,0.051870000000000006
2012-05-23,0.051870000000000006,0.051870000000000006,0.051870000000000006,0.051870000000000006,0,0.051870000000000006
2012-05-24,0.051870000000000006,0.051870000000000006,0.051870000000000006,0.051870000000000006,49100,0.051870000000000006
2012-05-25,0.051870000000000006,0.051870000000000006,0.051870000000000006,0.051870000000000006,0,0.051870000000000006
2012-05-28,0.051870000000000006,0.051870000000000006,0.051870000000000006,0.051870000000000006,0,0.051870000000000006
2012-05-29,0.051870000000000006,0.051870000000000006,0.051870000000000006,0.051870000000000006,0,0.051870000000000006
2012-05-30,0.051870000000000006,0.051870000000000006,0.051870000000000006,0.051870000000000006,0,0.051870000000000006
2012-05-31,0.0562,0.0562,0.0562,0.0562,115600,0.0562
2012-06-01,0.051870000000000006,0.051870000000000006,0.051870000000000006,0.051870000000000006,2800,0.051870000000000006
2012-06-04,0.051870000000000006,0.051870000000000006,0.051870000000000006,0.051870000000000006,0,0.051870000000000006
2012-06-05,0.043230000000000005,0.043230000000000005,0.043230000000000005,0.043230000000000005,26000,0.043230000000000005
2012-06-06,0.043230000000000005,0.043230000000000005,0.043230000000000005,0.043230000000000005,115600,0.043230000000000005
2012-06-07,0.043230000000000005,0.043230000000000005,0.043230000000000005,0.043230000000000005,0,0.043230000000000005
2012-06-08,0.043230000000000005,0.043230000000000005,0.043230000000000005,0.043230000000000005,0,0.043230000000000005
2012-06-11,0.043230000000000005,0.043230000000000005,0.043230000000000005,0.043230000000000005,0,0.043230000000000005
2012-06-12,0.043230000000000005,0.043230000000000005,0.043230000000000005,0.043230000000000005,28200,0.043230000000000005
2012-06-13,0.04236,0.043230000000000005,0.04236,0.043230000000000005,114800,0.043230000000000005
2012-06-14,0.043230000000000005,0.043230000000000005,0.043230000000000005,0.043230000000000005,11500,0.043230000000000005
2012-06-15,0.043230000000000005,0.043230000000000005,0.043230000000000005,0.043230000000000005,0,0.043230000000000005
2012-06-18,0.04755,0.04755,0.04755,0.04755,23100,0.04755
2012-06-19,0.043230000000000005,0.043230000000000005,0.043230000000000005,0.043230000000000005,47000,0.043230000000000005
2012-06-20,0.03891,0.043230000000000005,0.03891,0.043230000000000005,166900,0.043230000000000005
2012-06-21,0.043230000000000005,0.043230000000000005,0.043230000000000005,0.043230000000000005,0,0.043230000000000005
2012-06-22,0.043230000000000005,0.043230000000000005,0.043230000000000005,0.043230000000000005,0,0.043230000000000005
2012-06-25,0.043230000000000005,0.043230000000000005,0.043230000000000005,0.043230000000000005,0,0.043230000000000005
2012-06-26,0.043230000000000005,0.043230000000000005,0.043230000000000005,0.043230000000000005,6500,0.043230000000000005
2012-06-27,0.043230000000000005,0.043230000000000005,0.043230000000000005,0.043230000000000005,0,0.043230000000000005
2012-06-28,0.043230000000000005,0.043230000000000005,0.043230000000000005,0.043230000000000005,0,0.043230000000000005
2012-06-29,0.043230000000000005,0.043230000000000005,0.043230000000000005,0.043230000000000005,0,0.043230000000000005
2012-07-02,0.043230000000000005,0.043230000000000005,0.043230000000000005,0.043230000000000005,0,0.043230000000000005
2012-07-03,0.02767,0.02767,0.02767,0.02767,57800,0.02767
2012-07-04,0.02767,0.02767,0.02767,0.02767,0,0.02767
2012-07-05,0.02767,0.02767,0.02767,0.02767,0,0.02767
2012-07-06,0.02767,0.02767,0.02767,0.02767,0,0.02767
2012-07-09,0.02767,0.02767,0.02767,0.02767,0,0.02767
2012-07-10,0.03631,0.03631,0.03631,0.03631,16100,0.03631
2012-07-11,0.03458,0.03631,0.03458,0.03458,80900,0.03458
2012-07-12,0.03458,0.03458,0.03458,0.03458,0,0.03458
2012-07-13,0.04236,0.043230000000000005,0.04236,0.043230000000000005,79400,0.043230000000000005
2012-07-16,0.043230000000000005,0.043230000000000005,0.043230000000000005,0.043230000000000005,0,0.043230000000000005
2012-07-17,0.043230000000000005,0.043230000000000005,0.043230000000000005,0.043230000000000005,0,0.043230000000000005
2012-07-18,0.043230000000000005,0.043230000000000005,0.043230000000000005,0.043230000000000005,700,0.043230000000000005
2012-07-19,0.04755,0.04755,0.04755,0.04755,9300,0.04755
2012-07-20,0.04755,0.04755,0.04755,0.04755,25700,0.04755
2012-07-23,0.04755,0.04755,0.04755,0.04755,3100,0.04755
2012-07-24,0.04755,0.04755,0.04755,0.04755,57800,0.04755
2012-07-25,0.04755,0.04755,0.04755,0.04755,57000,0.04755
2012-07-26,0.04755,0.04755,0.04755,0.04755,0,0.04755
2012-07-27,0.04755,0.04755,0.04755,0.04755,800,0.04755
2012-07-30,0.04755,0.04755,0.03458,0.03458,25700,0.03458
2012-07-31,0.03458,0.03458,0.03458,0.03458,0,0.03458
2012-08-01,0.03458,0.03458,0.03458,0.03458,0,0.03458
2012-08-02,0.03458,0.03458,0.03458,0.03458,0,0.03458
2012-08-03,0.03458,0.03458,0.03458,0.03458,28900,0.03458
2012-08-06,0.03458,0.03458,0.03458,0.03458,0,0.03458
2012-08-07,0.03458,0.03458,0.03458,0.03458,0,0.03458
2012-08-08,0.03458,0.03458,0.03458,0.03458,0,0.03458
2012-08-09,0.03458,0.03458,0.03458,0.03458,17300,0.03458
2012-08-10,0.03458,0.03458,0.03458,0.03458,0,0.03458
2012-08-13,0.03458,0.03458,0.03458,0.03458,0,0.03458
2012-08-14,0.03458,0.03458,0.03458,0.03458,0,0.03458
2012-08-15,0.03458,0.03458,0.03458,0.03458,0,0.03458
2012-08-16,0.03631,0.03631,0.03631,0.03631,57800,0.03631
2012-08-17,0.03631,0.03631,0.03631,0.03631,0,0.03631
2012-08-20,0.03631,0.03631,0.03631,0.03631,0,0.03631
2012-08-21,0.03631,0.03631,0.03631,0.03631,127200,0.03631
2012-08-22,0.03631,0.03631,0.03631,0.03631,0,0.03631
2012-08-23,0.03631,0.03631,0.03631,0.03631,0,0.03631
2012-08-24,0.03631,0.03631,0.03631,0.03631,0,0.03631
2012-08-27,0.03631,0.03631,0.03631,0.03631,0,0.03631
2012-08-28,0.03631,0.03631,0.03631,0.03631,0,0.03631
2012-08-29,0.03631,0.03631,0.03631,0.03631,0,0.03631
2012-08-30,0.03631,0.03631,0.03631,0.03631,0,0.03631
2012-08-31,0.03631,0.03631,0.03631,0.03631,0,0.03631
2012-09-03,0.03631,0.03631,0.03631,0.03631,0,0.03631
2012-09-04,0.0415,0.0415,0.0415,0.0415,23100,0.0415
2012-09-05,0.048,0.048,0.048,0.048,0,0.048
2012-09-06,0.048,0.048,0.048,0.048,0,0.048
2012-09-07,0.048,0.048,0.048,0.048,0,0.048
2012-09-10,0.048,0.048,0.048,0.048,0,0.048
2012-09-11,0.048,0.048,0.048,0.048,0,0.048
2012-09-12,0.048,0.048,0.048,0.048,0,0.048
2012-09-13,0.048,0.048,0.048,0.048,0,0.048
2012-09-14,0.048,0.048,0.048,0.048,0,0.048
2012-09-17,0.042,0.045,0.042,0.042,499700,0.042
2012-09-18,0.042,0.042,0.042,0.042,0,0.042
2012-09-19,0.042,0.042,0.042,0.042,0,0.042
2012-09-20,0.042,0.042,0.042,0.042,0,0.042
2012-09-21,0.042,0.042,0.042,0.042,0,0.042
2012-09-24,0.042,0.042,0.042,0.042,0,0.042
2012-09-25,0.042,0.042,0.042,0.042,0,0.042
2012-09-26,0.042,0.042,0.042,0.042,0,0.042
2012-09-27,0.042,0.042,0.042,0.042,0,0.042
2012-09-28,0.045,0.045,0.038,0.038,3700,0.038
2012-10-01,0.038,0.038,0.038,0.038,0,0.038
2012-10-02,0.038,0.038,0.038,0.038,0,0.038
2012-10-03,0.038,0.038,0.038,0.038,0,0.038
2012-10-04,0.038,0.038,0.038,0.038,0,0.038
2012-10-05,0.037000000000000005,0.037000000000000005,0.035,0.035,1259900,0.035
2012-10-08,0.035,0.05,0.035,0.05,266000,0.05
2012-10-09,0.05,0.05,0.05,0.05,0,0.05
2012-10-10,0.05,0.05,0.05,0.05,0,0.05
2012-10-11,0.05,0.05,0.05,0.05,0,0.05
2012-10-12,0.05,0.05,0.05,0.05,400000,0.05
2012-10-15,0.05,0.05,0.05,0.05,0,0.05
2012-10-16,0.05,0.05,0.05,0.05,0,0.05
2012-10-17,0.05,0.05,0.05,0.05,0,0.05
2012-10-18,0.05,0.05,0.05,0.05,0,0.05
2012-10-19,0.05,0.05,0.05,0.05,0,0.05
2012-10-22,0.05,0.05,0.05,0.05,0,0.05
2012-10-23,0.05,0.05,0.05,0.05,0,0.05
2012-10-24,0.05,0.05,0.05,0.05,0,0.05
2012-10-25,0.045,0.045,0.045,0.045,98000,0.045
2012-10-26,0.05,0.052000000000000005,0.05,0.052000000000000005,371000,0.052000000000000005
2012-10-29,0.052000000000000005,0.052000000000000005,0.052000000000000005,0.052000000000000005,0,0.052000000000000005
2012-10-30,0.052000000000000005,0.052000000000000005,0.05,0.05,350000,0.05
2012-10-31,0.05,0.05,0.05,0.05,0,0.05
2012-11-01,0.052000000000000005,0.052000000000000005,0.052000000000000005,0.052000000000000005,12000,0.052000000000000005
2012-11-02,0.052000000000000005,0.052000000000000005,0.052000000000000005,0.052000000000000005,0,0.052000000000000005
2012-11-05,0.052000000000000005,0.052000000000000005,0.052000000000000005,0.052000000000000005,0,0.052000000000000005
2012-11-06,0.052000000000000005,0.052000000000000005,0.052000000000000005,0.052000000000000005,0,0.052000000000000005
2012-11-07,0.052000000000000005,0.052000000000000005,0.052000000000000005,0.052000000000000005,0,0.052000000000000005
2012-11-08,0.045,0.045,0.04,0.04,580000,0.04
2012-11-09,0.04,0.04,0.04,0.04,0,0.04
2012-11-12,0.04,0.04,0.04,0.04,0,0.04
2012-11-13,0.04,0.04,0.04,0.04,116000,0.04
2012-11-14,0.04,0.04,0.04,0.04,0,0.04
2012-11-15,0.04,0.04,0.04,0.04,0,0.04
2012-11-16,0.045,0.047,0.045,0.047,50000,0.047
2012-11-19,0.047,0.047,0.047,0.047,0,0.047
2012-11-20,0.047,0.047,0.047,0.047,0,0.047
2012-11-21,0.047,0.048,0.047,0.048,30000,0.048
2012-11-22,0.048,0.048,0.048,0.048,0,0.048
2012-11-23,0.048,0.048,0.048,0.048,0,0.048
2012-11-26,0.048,0.048,0.048,0.048,0,0.048
2012-11-27,0.048,0.048,0.048,0.048,0,0.048
2012-11-28,0.04,0.04,0.04,0.04,59000,0.04
2012-11-29,0.04,0.04,0.04,0.04,226000,0.04
2012-11-30,0.04,0.04,0.04,0.04,114900,0.04
2012-12-03,0.04,0.04,0.04,0.04,0,0.04
2012-12-04,0.04,0.04,0.04,0.04,0,0.04
2012-12-05,0.04,0.04,0.04,0.04,0,0.04
2012-12-06,0.04,0.04,0.04,0.04,0,0.04
2012-12-07,0.04,0.04,0.04,0.04,0,0.04
2012-12-10,0.04,0.04,0.04,0.04,0,0.04
2012-12-11,0.04,0.04,0.04,0.04,0,0.04
2012-12-12,0.04,0.04,0.04,0.04,0,0.04
2012-12-13,0.038,0.038,0.038,0.038,100000,0.038
2012-12-14,0.038,0.039,0.038,0.039,40100,0.039
2012-12-17,0.039,0.039,0.039,0.039,0,0.039
2012-12-18,0.037000000000000005,0.037000000000000005,0.035,0.035,604900,0.035
2012-12-19,0.035,0.035,0.033,0.033,439900,0.033
2012-12-20,0.033,0.033,0.033,0.033,9800,0.033
2012-12-21,0.033,0.033,0.033,0.033,0,0.033
2012-12-24,0.033,0.033,0.033,0.033,0,0.033
2012-12-25,0.033,0.033,0.033,0.033,0,0.033
2012-12-26,0.033,0.033,0.033,0.033,0,0.033
2012-12-27,0.033,0.033,0.033,0.033,0,0.033
2012-12-28,0.033,0.033,0.033,0.033,0,0.033
2012-12-31,0.033,0.033,0.033,0.033,35400,0.033
2013-01-01,0.033,0.033,0.033,0.033,0,0.033
2013-01-02,0.033,0.033,0.033,0.033,85900,0.033
2013-01-03,0.033,0.033,0.033,0.033,0,0.033
2013-01-04,0.033,0.033,0.033,0.033,64900,0.033
2013-01-07,0.033,0.033,0.033,0.033,0,0.033
2013-01-08,0.033,0.033,0.033,0.033,0,0.033
2013-01-09,0.033,0.033,0.033,0.033,0,0.033
2013-01-10,0.033,0.033,0.033,0.033,0,0.033
2013-01-11,0.033,0.033,0.033,0.033,0,0.033
2013-01-14,0.033,0.033,0.033,0.033,0,0.033
2013-01-15,0.033,0.033,0.033,0.033,0,0.033
2013-01-16,0.033,0.033,0.033,0.033,0,0.033
2013-01-17,0.033,0.033,0.033,0.033,0,0.033
2013-01-18,0.035,0.035,0.035,0.035,95000,0.035
2013-01-21,0.035,0.035,0.035,0.035,0,0.035
2013-01-22,0.035,0.035,0.035,0.035,100000,0.035
2013-01-24,0.035,0.035,0.035,0.035,150000,0.035
2013-01-25,0.035,0.035,0.035,0.035,0,0.035
2013-01-28,0.035,0.035,0.035,0.035,0,0.035
2013-01-29,0.039,0.04,0.038,0.04,97100,0.04
2013-01-30,0.04,0.04,0.04,0.04,0,0.04
2013-01-31,0.04,0.04,0.04,0.04,0,0.04
2013-02-01,0.04,0.04,0.04,0.04,25000,0.04
2013-02-04,0.04,0.04,0.04,0.04,0,0.04
2013-02-05,0.04,0.04,0.04,0.04,0,0.04
2013-02-06,0.036000000000000004,0.036000000000000004,0.035,0.035,84900,0.035
2013-02-07,0.035,0.035,0.035,0.035,0,0.035
2013-02-08,0.035,0.035,0.035,0.035,0,0.035
2013-02-11,0.035,0.035,0.035,0.035,0,0.035
2013-02-12,0.035,0.035,0.035,0.035,0,0.035
2013-02-13,0.035,0.035,0.035,0.035,0,0.035
2013-02-14,0.035,0.035,0.035,0.035,0,0.035
2013-02-15,0.037000000000000005,0.037000000000000005,0.033,0.033,150000,0.033
2013-02-18,0.033,0.033,0.033,0.033,90000,0.033
2013-02-19,0.033,0.033,0.033,0.033,0,0.033
2013-02-20,0.033,0.033,0.033,0.033,0,0.033
2013-02-21,0.033,0.033,0.033,0.033,0,0.033
2013-02-22,0.036000000000000004,0.036000000000000004,0.035,0.035,100000,0.035
2013-02-25,0.035,0.035,0.035,0.035,0,0.035
2013-02-26,0.035,0.035,0.035,0.035,0,0.035
2013-02-27,0.035,0.035,0.035,0.035,0,0.035
2013-02-28,0.036000000000000004,0.036000000000000004,0.036000000000000004,0.036000000000000004,29800,0.036000000000000004
2013-03-01,0.036000000000000004,0.036000000000000004,0.036000000000000004,0.036000000000000004,0,0.036000000000000004
2013-03-04,0.036000000000000004,0.036000000000000004,0.036000000000000004,0.036000000000000004,120000,0.036000000000000004
2013-03-05,0.036000000000000004,0.036000000000000004,0.036000000000000004,0.036000000000000004,0,0.036000000000000004
2013-03-06,0.036000000000000004,0.036000000000000004,0.036000000000000004,0.036000000000000004,0,0.036000000000000004
2013-03-07,0.036000000000000004,0.036000000000000004,0.036000000000000004,0.036000000000000004,0,0.036000000000000004
2013-03-08,0.037000000000000005,0.037000000000000005,0.037000000000000005,0.037000000000000005,109000,0.037000000000000005
2013-03-11,0.037000000000000005,0.037000000000000005,0.035,0.035,2267600,0.035
2013-03-12,0.035,0.035,0.035,0.035,0,0.035
2013-03-13,0.035,0.035,0.035,0.035,0,0.035
2013-03-14,0.035,0.035,0.035,0.035,0,0.035
2013-03-15,0.035,0.035,0.035,0.035,10300,0.035
2013-03-18,0.035,0.035,0.035,0.035,0,0.035
2013-03-19,0.035,0.035,0.035,0.035,0,0.035
2013-03-20,0.035,0.035,0.035,0.035,50000,0.035
2013-03-21,0.035,0.035,0.035,0.035,0,0.035
2013-03-22,0.035,0.035,0.035,0.035,0,0.035
2013-03-25,0.033,0.033,0.03,0.03,333100,0.03
2013-03-26,0.031,0.031,0.03,0.03,203800,0.03
2013-03-27,0.03,0.03,0.03,0.03,0,0.03
2013-03-28,0.03,0.03,0.03,0.03,0,0.03
2013-03-29,0.03,0.03,0.03,0.03,0,0.03
2013-04-01,0.03,0.03,0.03,0.03,0,0.03
2013-04-02,0.03,0.03,0.03,0.03,0,0.03
2013-04-03,0.03,0.03,0.03,0.03,0,0.03
2013-04-04,0.03,0.03,0.03,0.03,0,0.03
2013-04-05,0.026000000000000002,0.026000000000000002,0.026000000000000002,0.026000000000000002,20000,0.026000000000000002
2013-04-08,0.026000000000000002,0.026000000000000002,0.026000000000000002,0.026000000000000002,0,0.026000000000000002
2013-04-09,0.024,0.024,0.023,0.023,326900,0.023
2013-04-10,0.023,0.023,0.023,0.023,0,0.023
2013-04-11,0.023,0.023,0.023,0.023,0,0.023
2013-04-12,0.023,0.023,0.023,0.023,0,0.023
2013-04-15,0.023,0.023,0.023,0.023,0,0.023
2013-04-16,0.023,0.023,0.023,0.023,0,0.023
2013-04-17,0.023,0.023,0.023,0.023,0,0.023
2013-04-18,0.023,0.023,0.023,0.023,0,0.023
2013-04-19,0.022000000000000002,0.022000000000000002,0.022000000000000002,0.022000000000000002,180000,0.022000000000000002
2013-04-22,0.022000000000000002,0.022000000000000002,0.022000000000000002,0.022000000000000002,83300,0.022000000000000002
2013-04-23,0.022000000000000002,0.022000000000000002,0.022000000000000002,0.022000000000000002,0,0.022000000000000002
2013-04-24,0.021,0.021,0.021,0.021,16000,0.021
2013-04-25,0.021,0.021,0.021,0.021,0,0.021
2013-04-26,0.021,0.021,0.021,0.021,100000,0.021
2013-04-29,0.021,0.021,0.021,0.021,0,0.021
2013-04-30,0.023,0.024,0.023,0.024,420000,0.024
2013-05-01,0.024,0.025,0.024,0.025,210000,0.025
2013-05-02,0.025,0.025,0.022000000000000002,0.025,721700,0.025
2013-05-03,0.025,0.025,0.025,0.025,0,0.025
2013-05-06,0.025,0.025,0.025,0.025,0,0.025
2013-05-07,0.028999999999999998,0.028999999999999998,0.028999999999999998,0.028999999999999998,78000,0.028999999999999998
2013-05-08,0.028999999999999998,0.028999999999999998,0.028999999999999998,0.028999999999999998,0,0.028999999999999998
2013-05-09,0.023,0.023,0.021,0.021,395000,0.021
2013-05-10,0.021,0.021,0.021,0.021,390000,0.021
2013-05-13,0.022000000000000002,0.022000000000000002,0.022000000000000002,0.022000000000000002,72900,0.022000000000000002
2013-05-14,0.022000000000000002,0.022000000000000002,0.022000000000000002,0.022000000000000002,100000,0.022000000000000002
2013-05-15,0.022000000000000002,0.022000000000000002,0.02,0.02,310000,0.02
2013-05-16,0.02,0.02,0.02,0.02,0,0.02
2013-05-17,0.02,0.02,0.02,0.02,0,0.02
2013-05-20,0.02,0.02,0.02,0.02,22500,0.02
2013-05-21,0.02,0.02,0.02,0.02,200000,0.02
2013-05-22,0.02,0.02,0.02,0.02,37800,0.02
2013-05-23,0.02,0.02,0.02,0.02,225000,0.02
2013-05-24,0.02,0.02,0.02,0.02,25400,0.02
2013-05-27,0.02,0.02,0.02,0.02,220000,0.02
2013-05-28,0.018000000000000002,0.018000000000000002,0.018000000000000002,0.018000000000000002,200000,0.018000000000000002
2013-05-29,0.021,0.021,0.018000000000000002,0.018000000000000002,303900,0.018000000000000002
2013-05-30,0.018000000000000002,0.018000000000000002,0.018000000000000002,0.018000000000000002,0,0.018000000000000002
2013-05-31,0.018000000000000002,0.018000000000000002,0.018000000000000002,0.018000000000000002,0,0.018000000000000002
2013-06-03,0.018000000000000002,0.018000000000000002,0.018000000000000002,0.018000000000000002,0,0.018000000000000002
2013-06-04,0.018000000000000002,0.018000000000000002,0.018000000000000002,0.018000000000000002,0,0.018000000000000002
2013-06-05,0.018000000000000002,0.018000000000000002,0.018000000000000002,0.018000000000000002,0,0.018000000000000002
2013-06-06,0.024,0.025,0.024,0.025,30000,0.025
2013-06-07,0.025,0.025,0.025,0.025,0,0.025
2013-06-10,0.025,0.025,0.025,0.025,0,0.025
2013-06-11,0.025,0.025,0.025,0.025,0,0.025
2013-06-12,0.025,0.025,0.025,0.025,0,0.025
2013-06-13,0.02,0.02,0.02,0.02,246700,0.02
2013-06-14,0.02,0.02,0.02,0.02,200000,0.02
2013-06-17,0.02,0.02,0.02,0.02,0,0.02
2013-06-18,0.02,0.02,0.02,0.02,0,0.02
2013-06-19,0.02,0.02,0.02,0.02,0,0.02
2013-06-20,0.019,0.019,0.019,0.019,147800,0.019
2013-06-21,0.019,0.019,0.019,0.019,18000,0.019
2013-06-24,0.019,0.019,0.019,0.019,0,0.019
2013-06-25,0.019,0.019,0.019,0.019,24000,0.019
2013-06-26,0.019,0.019,0.019,0.019,25000,0.019
2013-06-27,0.019,0.019,0.019,0.019,19100,0.019
2013-06-28,0.019,0.019,0.019,0.019,160000,0.019
2013-07-01,0.019,0.019,0.018000000000000002,0.018000000000000002,150000,0.018000000000000002
2013-07-02,0.018000000000000002,0.018000000000000002,0.018000000000000002,0.018000000000000002,0,0.018000000000000002
2013-07-03,0.018000000000000002,0.018000000000000002,0.018000000000000002,0.018000000000000002,0,0.018000000000000002
2013-07-04,0.018000000000000002,0.018000000000000002,0.018000000000000002,0.018000000000000002,0,0.018000000000000002
2013-07-05,0.018000000000000002,0.018000000000000002,0.018000000000000002,0.018000000000000002,0,0.018000000000000002
2013-07-08,0.016,0.016,0.013999999999999999,0.013999999999999999,394300,0.013999999999999999
2013-07-09,0.015,0.015,0.015,0.015,125000,0.015
2013-07-10,0.017,0.017,0.017,0.017,96000,0.017
2013-07-11,0.017,0.017,0.017,0.017,0,0.017
2013-07-12,0.017,0.017,0.017,0.017,0,0.017
2013-07-15,0.017,0.017,0.017,0.017,0,0.017
2013-07-16,0.017,0.017,0.017,0.017,0,0.017
2013-07-17,0.017,0.017,0.017,0.017,0,0.017
2013-07-18,0.017,0.017,0.017,0.017,0,0.017
2013-07-19,0.017,0.017,0.017,0.017,200000,0.017
2013-07-22,0.017,0.017,0.017,0.017,0,0.017
2013-07-23,0.018000000000000002,0.018000000000000002,0.018000000000000002,0.018000000000000002,49500,0.018000000000000002
2013-07-24,0.018000000000000002,0.018000000000000002,0.018000000000000002,0.018000000000000002,0,0.018000000000000002
2013-07-25,0.018000000000000002,0.018000000000000002,0.018000000000000002,0.018000000000000002,0,0.018000000000000002
2013-07-26,0.02,0.02,0.02,0.02,200000,0.02
2013-07-29,0.02,0.02,0.02,0.02,0,0.02
2013-07-30,0.02,0.02,0.02,0.02,0,0.02
2013-07-31,0.02,0.02,0.02,0.02,0,0.02
2013-08-01,0.02,0.02,0.02,0.02,0,0.02
2013-08-02,0.02,0.02,0.02,0.02,0,0.02
2013-08-05,0.021,0.021,0.02,0.02,400000,0.02
2013-08-06,0.02,0.02,0.02,0.02,0,0.02
2013-08-07,0.02,0.02,0.02,0.02,0,0.02
2013-08-08,0.02,0.02,0.02,0.02,350000,0.02
2013-08-09,0.02,0.02,0.02,0.02,50000,0.02
2013-08-12,0.02,0.02,0.02,0.02,27000,0.02
2013-08-13,0.02,0.02,0.02,0.02,30000,0.02
2013-08-14,0.02,0.02,0.02,0.02,0,0.02
2013-08-15,0.02,0.02,0.019,0.019,170000,0.019
2013-08-16,0.02,0.02,0.02,0.02,200000,0.02
2013-08-19,0.02,0.02,0.02,0.02,0,0.02
2013-08-20,0.02,0.02,0.02,0.02,0,0.02
2013-08-21,0.02,0.02,0.02,0.02,0,0.02
2013-08-22,0.02,0.02,0.02,0.02,0,0.02
2013-08-23,0.02,0.02,0.02,0.02,0,0.02
2013-08-26,0.02,0.02,0.02,0.02,0,0.02
2013-08-27,0.021,0.021,0.021,0.021,35000,0.021
2013-08-28,0.021,0.021,0.021,0.021,0,0.021
2013-08-29,0.021,0.021,0.021,0.021,0,0.021
2013-08-30,0.021,0.021,0.021,0.021,0,0.021
2013-09-02,0.021,0.021,0.021,0.021,0,0.021
2013-09-03,0.021,0.021,0.021,0.021,0,0.021
2013-09-04,0.024,0.024,0.024,0.024,21000,0.024
2013-09-05,0.024,0.024,0.024,0.024,0,0.024
2013-09-06,0.024,0.024,0.024,0.024,0,0.024
2013-09-09,0.024,0.024,0.024,0.024,0,0.024
2013-09-10,0.024,0.024,0.024,0.024,0,0.024
2013-09-11,0.024,0.024,0.024,0.024,0,0.024
2013-09-12,0.021,0.022000000000000002,0.021,0.022000000000000002,113900,0.022000000000000002
2013-09-13,0.022000000000000002,0.022000000000000002,0.022000000000000002,0.022000000000000002,0,0.022000000000000002
2013-09-16,0.022000000000000002,0.022000000000000002,0.022000000000000002,0.022000000000000002,0,0.022000000000000002
2013-09-17,0.022000000000000002,0.022000000000000002,0.022000000000000002,0.022000000000000002,0,0.022000000000000002
2013-09-18,0.022000000000000002,0.022000000000000002,0.022000000000000002,0.022000000000000002,12400,0.022000000000000002
2013-09-19,0.022000000000000002,0.022000000000000002,0.022000000000000002,0.022000000000000002,0,0.022000000000000002
2013-09-20,0.022000000000000002,0.022000000000000002,0.022000000000000002,0.022000000000000002,0,0.022000000000000002
2013-09-23,0.022000000000000002,0.022000000000000002,0.022000000000000002,0.022000000000000002,0,0.022000000000000002
2013-09-24,0.022000000000000002,0.022000000000000002,0.022000000000000002,0.022000000000000002,0,0.022000000000000002
2013-09-25,0.022000000000000002,0.022000000000000002,0.022000000000000002,0.022000000000000002,0,0.022000000000000002
2013-09-26,0.02,0.02,0.02,0.02,1500,0.02
2013-09-27,0.02,0.02,0.02,0.02,0,0.02
2013-09-30,0.02,0.02,0.02,0.02,0,0.02
2013-10-01,0.02,0.02,0.02,0.02,0,0.02
2013-10-02,0.02,0.02,0.02,0.02,80000,0.02
2013-10-03,0.02,0.02,0.02,0.02,0,0.02
2013-10-04,0.02,0.02,0.02,0.02,0,0.02
2013-10-07,0.02,0.02,0.02,0.02,0,0.02
2013-10-08,0.02,0.02,0.02,0.02,0,0.02
2013-10-09,0.02,0.02,0.02,0.02,0,0.02
2013-10-10,0.02,0.02,0.02,0.02,0,0.02
2013-10-11,0.02,0.02,0.019,0.019,20000,0.019
2013-10-14,0.019,0.019,0.019,0.019,0,0.019
2013-10-15,0.019,0.019,0.019,0.019,0,0.019
2013-10-16,0.019,0.019,0.019,0.019,0,0.019
2013-10-17,0.019,0.019,0.019,0.019,0,0.019
2013-10-18,0.019,0.019,0.019,0.019,0,0.019
2013-10-21,0.019,0.019,0.019,0.019,421300,0.019
2013-10-22,0.019,0.019,0.019,0.019,0,0.019
2013-10-23,0.019,0.019,0.019,0.019,0,0.019
2013-10-24,0.019,0.019,0.019,0.019,0,0.019
2013-10-25,0.019,0.019,0.019,0.019,0,0.019
2013-10-28,0.019,0.019,0.019,0.019,0,0.019
2013-10-29,0.019,0.019,0.019,0.019,0,0.019
2013-10-30,0.019,0.019,0.019,0.019,0,0.019
2013-10-31,0.019,0.019,0.019,0.019,0,0.019
2013-11-01,0.019,0.019,0.019,0.019,0,0.019
2013-11-04,0.019,0.019,0.019,0.019,0,0.019
2013-11-05,0.019,0.019,0.019,0.019,0,0.019
2013-11-06,0.019,0.019,0.019,0.019,0,0.019
2013-11-07,0.019,0.019,0.019,0.019,0,0.019
2013-11-08,0.019,0.019,0.019,0.019,0,0.019
2013-11-11,0.018000000000000002,0.018000000000000002,0.018000000000000002,0.018000000000000002,200000,0.018000000000000002
2013-11-12,0.018000000000000002,0.018000000000000002,0.018000000000000002,0.018000000000000002,0,0.018000000000000002
2013-11-13,0.019,0.019,0.018000000000000002,0.019,1600000,0.019
2013-11-14,0.019,0.019,0.019,0.019,0,0.019
2013-11-15,0.018000000000000002,0.019,0.018000000000000002,0.019,379400,0.019
2013-11-18,0.019,0.019,0.019,0.019,0,0.019
2013-11-19,0.018000000000000002,0.018000000000000002,0.018000000000000002,0.018000000000000002,119200,0.018000000000000002
2013-11-20,0.018000000000000002,0.018000000000000002,0.018000000000000002,0.018000000000000002,0,0.018000000000000002
2013-11-21,0.019,0.019,0.019,0.019,89200,0.019
2013-11-22,0.019,0.019,0.019,0.019,210700,0.019
2013-11-25,0.018000000000000002,0.018000000000000002,0.018000000000000002,0.018000000000000002,79100,0.018000000000000002
2013-11-26,0.018000000000000002,0.018000000000000002,0.018000000000000002,0.018000000000000002,0,0.018000000000000002
2013-11-27,0.018000000000000002,0.018000000000000002,0.018000000000000002,0.018000000000000002,0,0.018000000000000002
2013-11-28,0.018000000000000002,0.018000000000000002,0.018000000000000002,0.018000000000000002,0,0.018000000000000002
2013-11-29,0.018000000000000002,0.018000000000000002,0.018000000000000002,0.018000000000000002,100000,0.018000000000000002
2013-12-02,0.018000000000000002,0.018000000000000002,0.018000000000000002,0.018000000000000002,500000,0.018000000000000002
2013-12-03,0.017,0.017,0.017,0.017,75000,0.017
2013-12-04,0.017,0.017,0.017,0.017,100000,0.017
2013-12-05,0.017,0.017,0.017,0.017,0,0.017
2013-12-06,0.017,0.017,0.017,0.017,0,0.017
2013-12-09,0.017,0.017,0.017,0.017,0,0.017
2013-12-10,0.017,0.017,0.017,0.017,0,0.017
2013-12-11,0.017,0.017,0.017,0.017,0,0.017
2013-12-12,0.017,0.017,0.017,0.017,0,0.017
2013-12-13,0.017,0.017,0.017,0.017,0,0.017
2013-12-16,0.017,0.017,0.017,0.017,0,0.017
2013-12-17,0.017,0.017,0.017,0.017,638000,0.017
2013-12-18,0.018000000000000002,0.018000000000000002,0.018000000000000002,0.018000000000000002,500000,0.018000000000000002
2013-12-19,0.018000000000000002,0.018000000000000002,0.018000000000000002,0.018000000000000002,0,0.018000000000000002
2013-12-20,0.018000000000000002,0.018000000000000002,0.018000000000000002,0.018000000000000002,100000,0.018000000000000002
2013-12-23,0.018000000000000002,0.018000000000000002,0.018000000000000002,0.018000000000000002,0,0.018000000000000002
2013-12-24,0.018000000000000002,0.018000000000000002,0.018000000000000002,0.018000000000000002,0,0.018000000000000002
2013-12-25,0.018000000000000002,0.018000000000000002,0.018000000000000002,0.018000000000000002,0,0.018000000000000002
2013-12-26,0.018000000000000002,0.018000000000000002,0.018000000000000002,0.018000000000000002,0,0.018000000000000002
2013-12-27,0.018000000000000002,0.018000000000000002,0.018000000000000002,0.018000000000000002,0,0.018000000000000002
2013-12-30,0.018000000000000002,0.018000000000000002,0.018000000000000002,0.018000000000000002,0,0.018000000000000002
2013-12-31,0.019,0.019,0.019,0.019,300000,0.019
2014-01-01,0.019,0.019,0.019,0.019,0,0.019
2014-01-02,0.019,0.019,0.019,0.019,0,0.019
2014-01-03,0.019,0.019,0.019,0.019,0,0.019
2014-01-06,0.019,0.019,0.019,0.019,0,0.019
2014-01-07,0.019,0.019,0.019,0.019,0,0.019
2014-01-08,0.019,0.019,0.019,0.019,0,0.019
2014-01-09,0.019,0.019,0.019,0.019,0,0.019
2014-01-10,0.019,0.019,0.019,0.019,0,0.019
2014-01-13,0.018000000000000002,0.018000000000000002,0.018000000000000002,0.018000000000000002,200000,0.018000000000000002
2014-01-14,0.018000000000000002,0.018000000000000002,0.018000000000000002,0.018000000000000002,0,0.018000000000000002
2014-01-15,0.018000000000000002,0.018000000000000002,0.018000000000000002,0.018000000000000002,115000,0.018000000000000002
2014-01-16,0.018000000000000002,0.018000000000000002,0.018000000000000002,0.018000000000000002,0,0.018000000000000002
2014-01-17,0.018000000000000002,0.018000000000000002,0.018000000000000002,0.018000000000000002,0,0.018000000000000002
2014-01-20,0.018000000000000002,0.018000000000000002,0.018000000000000002,0.018000000000000002,0,0.018000000000000002
2014-01-21,0.018000000000000002,0.018000000000000002,0.018000000000000002,0.018000000000000002,50000,0.018000000000000002
2014-01-22,0.018000000000000002,0.018000000000000002,0.018000000000000002,0.018000000000000002,0,0.018000000000000002
2014-01-23,0.018000000000000002,0.018000000000000002,0.018000000000000002,0.018000000000000002,0,0.018000000000000002
2014-01-24,0.017,0.017,0.017,0.017,27000,0.017
2014-01-27,0.017,0.017,0.017,0.017,0,0.017
2014-01-28,0.017,0.017,0.017,0.017,0,0.017
2014-01-29,0.017,0.017,0.017,0.017,1100000,0.017
2014-01-30,0.017,0.017,0.017,0.017,0,0.017
2014-01-31,0.017,0.017,0.017,0.017,0,0.017
2014-02-03,0.017,0.017,0.017,0.017,0,0.017
2014-02-04,0.017,0.017,0.017,0.017,0,0.017
2014-02-05,0.017,0.017,0.017,0.017,0,0.017
2014-02-06,0.017,0.017,0.017,0.017,0,0.017
2014-02-07,0.017,0.017,0.017,0.017,0,0.017
2014-02-10,0.017,0.017,0.017,0.017,0,0.017
2014-02-11,0.017,0.017,0.017,0.017,0,0.017
2014-02-12,0.019,0.019,0.018000000000000002,0.018000000000000002,404000,0.018000000000000002
2014-02-13,0.018000000000000002,0.018000000000000002,0.018000000000000002,0.018000000000000002,0,0.018000000000000002
2014-02-14,0.018000000000000002,0.018000000000000002,0.018000000000000002,0.018000000000000002,0,0.018000000000000002
2014-02-17,0.018000000000000002,0.018000000000000002,0.018000000000000002,0.018000000000000002,394300,0.018000000000000002
2014-02-18,0.018000000000000002,0.018000000000000002,0.018000000000000002,0.018000000000000002,0,0.018000000000000002
2014-02-19,0.019,0.019,0.019,0.019,200000,0.019
2014-02-20,0.019,0.019,0.019,0.019,0,0.019
2014-02-21,0.019,0.019,0.019,0.019,0,0.019
2014-02-24,0.019,0.019,0.019,0.019,0,0.019
2014-02-25,0.019,0.019,0.019,0.019,0,0.019
2014-02-26,0.019,0.019,0.019,0.019,0,0.019
2014-02-27,0.019,0.019,0.019,0.019,0,0.019
2014-02-28,0.019,0.019,0.019,0.019,0,0.019
2014-03-03,0.019,0.019,0.019,0.019,0,0.019
2014-03-04,0.025,0.025,0.023,0.023,121000,0.023
2014-03-05,0.023,0.023,0.023,0.023,0,0.023
2014-03-06,0.023,0.023,0.022000000000000002,0.022000000000000002,60000,0.022000000000000002
2014-03-07,0.022000000000000002,0.022000000000000002,0.022000000000000002,0.022000000000000002,0,0.022000000000000002
2014-03-10,0.022000000000000002,0.022000000000000002,0.022000000000000002,0.022000000000000002,0,0.022000000000000002
2014-03-11,0.022000000000000002,0.022000000000000002,0.022000000000000002,0.022000000000000002,0,0.022000000000000002
2014-03-12,0.022000000000000002,0.022000000000000002,0.022000000000000002,0.022000000000000002,0,0.022000000000000002
2014-03-13,0.022000000000000002,0.022000000000000002,0.022000000000000002,0.022000000000000002,0,0.022000000000000002
2014-03-14,0.022000000000000002,0.022000000000000002,0.022000000000000002,0.022000000000000002,0,0.022000000000000002
2014-03-17,0.022000000000000002,0.022000000000000002,0.022000000000000002,0.022000000000000002,197100,0.022000000000000002
2014-03-18,0.022000000000000002,0.022000000000000002,0.022000000000000002,0.022000000000000002,0,0.022000000000000002
2014-03-19,0.022000000000000002,0.022000000000000002,0.022000000000000002,0.022000000000000002,0,0.022000000000000002
2014-03-20,0.022000000000000002,0.022000000000000002,0.022000000000000002,0.022000000000000002,0,0.022000000000000002
2014-03-21,0.024,0.025,0.024,0.025,350000,0.025
2014-03-24,0.025,0.025,0.025,0.025,0,0.025
2014-03-25,0.025,0.025,0.025,0.025,0,0.025
2014-03-26,0.025,0.025,0.025,0.025,0,0.025
2014-03-27,0.026000000000000002,0.026000000000000002,0.026000000000000002,0.026000000000000002,210000,0.026000000000000002
2014-03-28,0.027999999999999997,0.027999999999999997,0.027999999999999997,0.027999999999999997,4000,0.027999999999999997
2014-03-31,0.027999999999999997,0.027999999999999997,0.027999999999999997,0.027999999999999997,0,0.027999999999999997
2014-04-01,0.027999999999999997,0.027999999999999997,0.027999999999999997,0.027999999999999997,0,0.027999999999999997
2014-04-02,0.027999999999999997,0.027999999999999997,0.027999999999999997,0.027999999999999997,500000,0.027999999999999997
2014-04-03,0.027999999999999997,0.027999999999999997,0.027999999999999997,0.027999999999999997,0,0.027999999999999997
2014-04-04,0.027999999999999997,0.027999999999999997,0.027999999999999997,0.027999999999999997,0,0.027999999999999997
2014-04-07,0.027999999999999997,0.027999999999999997,0.027999999999999997,0.027999999999999997,0,0.027999999999999997
2014-04-08,0.027999999999999997,0.027999999999999997,0.027999999999999997,0.027999999999999997,61000,0.027999999999999997
2014-04-09,0.027999999999999997,0.027999999999999997,0.027999999999999997,0.027999999999999997,0,0.027999999999999997
2014-04-10,0.027999999999999997,0.027999999999999997,0.027999999999999997,0.027999999999999997,149000,0.027999999999999997
2014-04-11,0.027999999999999997,0.027999999999999997,0.027999999999999997,0.027999999999999997,0,0.027999999999999997
2014-04-14,0.027999999999999997,0.027999999999999997,0.027999999999999997,0.027999999999999997,0,0.027999999999999997
2014-04-15,0.027999999999999997,0.027999999999999997,0.027999999999999997,0.027999999999999997,99900,0.027999999999999997
2014-04-16,0.027999999999999997,0.027999999999999997,0.027999999999999997,0.027999999999999997,175000,0.027999999999999997
2014-04-17,0.027999999999999997,0.027999999999999997,0.027999999999999997,0.027999999999999997,38500,0.027999999999999997
2014-04-18,0.027999999999999997,0.027999999999999997,0.027999999999999997,0.027999999999999997,0,0.027999999999999997
2014-04-21,0.027999999999999997,0.027999999999999997,0.027999999999999997,0.027999999999999997,0,0.027999999999999997
2014-04-22,0.028999999999999998,0.028999999999999998,0.028999999999999998,0.028999999999999998,100000,0.028999999999999998
2014-04-23,0.028999999999999998,0.028999999999999998,0.028999999999999998,0.028999999999999998,0,0.028999999999999998
2014-04-24,0.028999999999999998,0.028999999999999998,0.028999999999999998,0.028999999999999998,0,0.028999999999999998
2014-04-25,0.028999999999999998,0.028999999999999998,0.028999999999999998,0.028999999999999998,0,0.028999999999999998
2014-04-28,0.028999999999999998,0.028999999999999998,0.028999999999999998,0.028999999999999998,0,0.028999999999999998
2014-04-29,0.03,0.03,0.03,0.03,77000,0.03
2014-04-30,0.03,0.03,0.03,0.03,0,0.03
2014-05-01,0.03,0.03,0.03,0.03,0,0.03
2014-05-02,0.03,0.03,0.03,0.03,0,0.03
2014-05-05,0.03,0.03,0.03,0.03,0,0.03
2014-05-06,0.03,0.03,0.028999999999999998,0.028999999999999998,150000,0.028999999999999998
2014-05-07,0.028999999999999998,0.028999999999999998,0.028999999999999998,0.028999999999999998,0,0.028999999999999998
2014-05-08,0.028999999999999998,0.028999999999999998,0.028999999999999998,0.028999999999999998,0,0.028999999999999998
2014-05-09,0.028999999999999998,0.028999999999999998,0.028999999999999998,0.028999999999999998,10000,0.028999999999999998
2014-05-12,0.028999999999999998,0.028999999999999998,0.028999999999999998,0.028999999999999998,0,0.028999999999999998
2014-05-13,0.028999999999999998,0.028999999999999998,0.028999999999999998,0.028999999999999998,0,0.028999999999999998
2014-05-14,0.028999999999999998,0.028999999999999998,0.028999999999999998,0.028999999999999998,0,0.028999999999999998
2014-05-15,0.028999999999999998,0.028999999999999998,0.028999999999999998,0.028999999999999998,0,0.028999999999999998
2014-05-16,0.028999999999999998,0.028999999999999998,0.027999999999999997,0.027999999999999997,513300,0.027999999999999997
2014-05-19,0.027999999999999997,0.027999999999999997,0.027999999999999997,0.027999999999999997,550000,0.027999999999999997
2014-05-20,0.027999999999999997,0.027999999999999997,0.027999999999999997,0.027999999999999997,0,0.027999999999999997
2014-05-21,0.027999999999999997,0.027999999999999997,0.027999999999999997,0.027999999999999997,0,0.027999999999999997
2014-05-22,0.027999999999999997,0.027999999999999997,0.027000000000000003,0.027999999999999997,1650000,0.027999999999999997
2014-05-23,0.027000000000000003,0.027000000000000003,0.027000000000000003,0.027000000000000003,350000,0.027000000000000003
2014-05-26,0.025,0.025,0.025,0.025,100000,0.025
2014-05-27,0.025,0.025,0.025,0.025,0,0.025
2014-05-28,0.025,0.025,0.025,0.025,0,0.025
2014-05-29,0.025,0.025,0.025,0.025,0,0.025
2014-05-30,0.025,0.025,0.025,0.025,0,0.025
2014-06-02,0.025,0.025,0.025,0.025,0,0.025
2014-06-03,0.025,0.025,0.025,0.025,0,0.025
2014-06-04,0.025,0.025,0.025,0.025,0,0.025
2014-06-05,0.025,0.025,0.025,0.025,0,0.025
2014-06-06,0.025,0.025,0.025,0.025,0,0.025
2014-06-09,0.025,0.025,0.025,0.025,0,0.025
2014-06-10,0.022000000000000002,0.022000000000000002,0.022000000000000002,0.022000000000000002,200000,0.022000000000000002
2014-06-11,0.022000000000000002,0.022000000000000002,0.022000000000000002,0.022000000000000002,5500,0.022000000000000002
2014-06-12,0.022000000000000002,0.022000000000000002,0.022000000000000002,0.022000000000000002,25000,0.022000000000000002
2014-06-13,0.022000000000000002,0.022000000000000002,0.022000000000000002,0.022000000000000002,64000,0.022000000000000002
2014-06-16,0.022000000000000002,0.022000000000000002,0.022000000000000002,0.022000000000000002,64200,0.022000000000000002
2014-06-17,0.021,0.022000000000000002,0.021,0.022000000000000002,912400,0.022000000000000002
2014-06-18,0.022000000000000002,0.022000000000000002,0.022000000000000002,0.022000000000000002,0,0.022000000000000002
2014-06-19,0.022000000000000002,0.022000000000000002,0.022000000000000002,0.022000000000000002,0,0.022000000000000002
2014-06-20,0.022000000000000002,0.022000000000000002,0.022000000000000002,0.022000000000000002,0,0.022000000000000002
2014-06-23,0.022000000000000002,0.022000000000000002,0.022000000000000002,0.022000000000000002,0,0.022000000000000002
2014-06-24,0.022000000000000002,0.022000000000000002,0.022000000000000002,0.022000000000000002,0,0.022000000000000002
2014-06-25,0.022000000000000002,0.022000000000000002,0.022000000000000002,0.022000000000000002,400000,0.022000000000000002
2014-06-26,0.022000000000000002,0.022000000000000002,0.022000000000000002,0.022000000000000002,0,0.022000000000000002
2014-06-27,0.022000000000000002,0.022000000000000002,0.022000000000000002,0.022000000000000002,0,0.022000000000000002
2014-06-30,0.022000000000000002,0.022000000000000002,0.022000000000000002,0.022000000000000002,0,0.022000000000000002
2014-07-01,0.022000000000000002,0.022000000000000002,0.022000000000000002,0.022000000000000002,0,0.022000000000000002
2014-07-02,0.022000000000000002,0.022000000000000002,0.022000000000000002,0.022000000000000002,10000,0.022000000000000002
2014-07-03,0.022000000000000002,0.022000000000000002,0.022000000000000002,0.022000000000000002,0,0.022000000000000002
2014-07-04,0.022000000000000002,0.022000000000000002,0.022000000000000002,0.022000000000000002,0,0.022000000000000002
2014-07-07,0.022000000000000002,0.022000000000000002,0.022000000000000002,0.022000000000000002,0,0.022000000000000002
2014-07-08,0.022000000000000002,0.022000000000000002,0.022000000000000002,0.022000000000000002,0,0.022000000000000002
2014-07-09,0.022000000000000002,0.022000000000000002,0.022000000000000002,0.022000000000000002,0,0.022000000000000002
2014-07-10,0.022000000000000002,0.022000000000000002,0.022000000000000002,0.022000000000000002,0,0.022000000000000002
2014-07-11,0.022000000000000002,0.022000000000000002,0.022000000000000002,0.022000000000000002,0,0.022000000000000002
2014-07-14,0.022000000000000002,0.022000000000000002,0.022000000000000002,0.022000000000000002,0,0.022000000000000002
2014-07-15,0.025,0.025,0.025,0.025,64000,0.025
2014-07-16,0.025,0.025,0.025,0.025,0,0.025
2014-07-17,0.025,0.025,0.025,0.025,0,0.025
2014-07-18,0.025,0.025,0.025,0.025,0,0.025
2014-07-21,0.025,0.025,0.025,0.025,0,0.025
2014-07-22,0.025,0.025,0.025,0.025,0,0.025
2014-07-23,0.022000000000000002,0.022000000000000002,0.022000000000000002,0.022000000000000002,50000,0.022000000000000002
2014-07-24,0.022000000000000002,0.022000000000000002,0.022000000000000002,0.022000000000000002,12700,0.022000000000000002
2014-07-25,0.022000000000000002,0.022000000000000002,0.022000000000000002,0.022000000000000002,200000,0.022000000000000002
2014-07-28,0.022000000000000002,0.022000000000000002,0.022000000000000002,0.022000000000000002,0,0.022000000000000002
2014-07-29,0.022000000000000002,0.022000000000000002,0.022000000000000002,0.022000000000000002,0,0.022000000000000002
2014-07-30,0.022000000000000002,0.022000000000000002,0.022000000000000002,0.022000000000000002,0,0.022000000000000002
2014-07-31,0.022000000000000002,0.022000000000000002,0.022000000000000002,0.022000000000000002,0,0.022000000000000002
2014-08-01,0.022000000000000002,0.022000000000000002,0.022000000000000002,0.022000000000000002,0,0.022000000000000002
2014-08-04,0.024,0.024,0.024,0.024,56000,0.024
2014-08-05,0.024,0.024,0.024,0.024,0,0.024
2014-08-06,0.024,0.024,0.024,0.024,0,0.024
2014-08-07,0.024,0.024,0.024,0.024,120400,0.024
2014-08-08,0.024,0.024,0.024,0.024,0,0.024
2014-08-11,0.024,0.024,0.024,0.024,0,0.024
2014-08-12,0.024,0.024,0.024,0.024,0,0.024
2014-08-13,0.024,0.024,0.024,0.024,0,0.024
2014-08-14,0.024,0.024,0.024,0.024,0,0.024
2014-08-15,0.024,0.024,0.024,0.024,0,0.024
2014-08-18,0.024,0.024,0.024,0.024,0,0.024
2014-08-19,0.024,0.024,0.024,0.024,0,0.024
2014-08-20,0.024,0.024,0.024,0.024,0,0.024
2014-08-21,0.024,0.024,0.024,0.024,0,0.024
2014-08-22,0.024,0.024,0.024,0.024,100000,0.024
2014-08-25,0.024,0.024,0.024,0.024,0,0.024
2014-08-26,0.024,0.024,0.024,0.024,270000,0.024
2014-08-27,0.024,0.024,0.024,0.024,0,0.024
2014-08-28,0.024,0.024,0.024,0.024,0,0.024
2014-08-29,0.024,0.024,0.024,0.024,200000,0.024
2014-09-01,0.024,0.024,0.024,0.024,200000,0.024
2014-09-02,0.024,0.024,0.024,0.024,0,0.024
2014-09-03,0.024,0.024,0.024,0.024,0,0.024
2014-09-04,0.024,0.024,0.024,0.024,0,0.024
2014-09-05,0.024,0.024,0.024,0.024,0,0.024
2014-09-08,0.024,0.024,0.024,0.024,0,0.024
2014-09-09,0.024,0.024,0.024,0.024,0,0.024
2014-09-10,0.024,0.024,0.024,0.024,0,0.024
2014-09-11,0.024,0.024,0.024,0.024,263100,0.024
2014-09-12,0.024,0.024,0.024,0.024,0,0.024
2014-09-15,0.024,0.024,0.024,0.024,0,0.024
2014-09-16,0.024,0.024,0.024,0.024,0,0.024
2014-09-17,0.024,0.024,0.024,0.024,250000,0.024
2014-09-18,0.024,0.024,0.024,0.024,112400,0.024
2014-09-19,0.024,0.024,0.024,0.024,0,0.024
2014-09-22,0.024,0.024,0.024,0.024,2000000,0.024
2014-09-23,0.024,0.024,0.024,0.024,985900,0.024
2014-09-24,0.024,0.024,0.024,0.024,0,0.024
2014-09-25,0.024,0.024,0.024,0.024,0,0.024
2014-09-26,0.024,0.024,0.024,0.024,0,0.024
2014-09-29,0.024,0.024,0.024,0.024,0,0.024
2014-09-30,0.024,0.024,0.023,0.023,420000,0.023
2014-10-01,0.023,0.023,0.023,0.023,0,0.023
2014-10-02,0.023,0.023,0.023,0.023,0,0.023
2014-10-03,0.023,0.023,0.023,0.023,0,0.023
2014-10-06,0.023,0.023,0.023,0.023,0,0.023
2014-10-07,0.023,0.023,0.023,0.023,0,0.023
2014-10-08,0.024,0.024,0.024,0.024,25500,0.024
2014-10-09,0.024,0.024,0.024,0.024,0,0.024
2014-10-10,0.024,0.024,0.024,0.024,0,0.024
2014-10-13,0.024,0.024,0.023,0.023,470000,0.023
2014-10-14,0.023,0.023,0.023,0.023,0,0.023
2014-10-15,0.023,0.023,0.023,0.023,0,0.023
2014-10-16,0.023,0.023,0.023,0.023,0,0.023
2014-10-17,0.023,0.023,0.023,0.023,0,0.023
2014-10-20,0.023,0.023,0.023,0.023,0,0.023
2014-10-21,0.023,0.023,0.023,0.023,60000,0.023
2014-10-22,0.023,0.023,0.023,0.023,0,0.023
2014-10-23,0.023,0.023,0.023,0.023,129300,0.023
2014-10-24,0.023,0.023,0.023,0.023,0,0.023
2014-10-27,0.023,0.023,0.023,0.023,0,0.023
2014-10-28,0.023,0.023,0.023,0.023,0,0.023
2014-10-29,0.023,0.023,0.023,0.023,0,0.023
2014-10-30,0.023,0.023,0.023,0.023,0,0.023
2014-10-31,0.023,0.023,0.023,0.023,0,0.023
2014-11-03,0.023,0.023,0.023,0.023,0,0.023
2014-11-04,0.023,0.023,0.023,0.023,0,0.023
2014-11-05,0.023,0.023,0.023,0.023,25000,0.023
2014-11-06,0.023,0.023,0.023,0.023,0,0.023
2014-11-07,0.023,0.023,0.023,0.023,0,0.023
2014-11-10,0.023,0.023,0.023,0.023,0,0.023
2014-11-11,0.023,0.023,0.023,0.023,0,0.023
2014-11-12,0.024,0.024,0.024,0.024,248100,0.024
2014-11-13,0.024,0.024,0.024,0.024,0,0.024
2014-11-14,0.025,0.025,0.025,0.025,100000,0.025
2014-11-17,0.025,0.025,0.025,0.025,0,0.025
2014-11-18,0.025,0.025,0.025,0.025,100000,0.025
2014-11-19,0.025,0.025,0.025,0.025,0,0.025
2014-11-20,0.025,0.025,0.025,0.025,0,0.025
2014-11-21,0.025,0.025,0.025,0.025,0,0.025
2014-11-24,0.025,0.025,0.025,0.025,0,0.025
2014-11-25,0.025,0.025,0.025,0.025,0,0.025
2014-11-26,0.021,0.021,0.021,0.021,525000,0.021
2014-11-27,0.021,0.021,0.021,0.021,0,0.021
2014-11-28,0.021,0.021,0.021,0.021,0,0.021
2014-12-01,0.021,0.021,0.021,0.021,0,0.021
2014-12-02,0.021,0.021,0.021,0.021,0,0.021
2014-12-03,0.021,0.021,0.021,0.021,0,0.021
2014-12-04,0.021,0.021,0.021,0.021,0,0.021
2014-12-05,0.021,0.021,0.021,0.021,0,0.021
2014-12-08,0.021,0.021,0.021,0.021,0,0.021
2014-12-09,0.021,0.021,0.021,0.021,0,0.021
2014-12-10,0.021,0.021,0.021,0.021,0,0.021
2014-12-11,0.021,0.021,0.021,0.021,0,0.021
2014-12-12,0.02,0.02,0.02,0.02,280000,0.02
2014-12-15,0.02,0.02,0.02,0.02,0,0.02
2014-12-16,0.02,0.02,0.02,0.02,0,0.02
2014-12-17,0.02,0.02,0.02,0.02,0,0.02
2014-12-18,0.02,0.02,0.02,0.02,0,0.02
2014-12-19,0.02,0.02,0.02,0.02,0,0.02
2014-12-22,0.02,0.02,0.02,0.02,0,0.02
2014-12-23,0.02,0.02,0.02,0.02,0,0.02
2014-12-24,0.02,0.02,0.02,0.02,0,0.02
2014-12-25,0.02,0.02,0.02,0.02,0,0.02
2014-12-26,0.02,0.02,0.02,0.02,0,0.02
2014-12-29,0.02,0.02,0.02,0.02,0,0.02
2014-12-30,0.02,0.02,0.02,0.02,0,0.02
2014-12-31,0.02,0.02,0.02,0.02,0,0.02
2015-01-01,0.02,0.02,0.02,0.02,0,0.02
2015-01-02,0.02,0.02,0.02,0.02,0,0.02
2015-01-05,0.02,0.02,0.02,0.02,0,0.02
2015-01-06,0.02,0.02,0.02,0.02,0,0.02
2015-01-07,0.02,0.02,0.02,0.02,0,0.02
2015-01-08,0.02,0.02,0.02,0.02,0,0.02
2015-01-09,0.02,0.02,0.02,0.02,0,0.02
2015-01-12,0.02,0.02,0.02,0.02,0,0.02
2015-01-13,0.02,0.02,0.02,0.02,0,0.02
2015-01-14,0.02,0.02,0.02,0.02,0,0.02
2015-01-15,0.02,0.02,0.02,0.02,0,0.02
2015-01-16,0.02,0.02,0.02,0.02,0,0.02
2015-01-19,0.02,0.02,0.02,0.02,0,0.02
2015-01-20,0.02,0.02,0.02,0.02,0,0.02
2015-01-21,0.02,0.02,0.02,0.02,0,0.02
2015-01-22,0.02,0.02,0.02,0.02,0,0.02
2015-01-23,0.018000000000000002,0.018000000000000002,0.018000000000000002,0.018000000000000002,10000,0.018000000000000002
2015-01-26,0.018000000000000002,0.018000000000000002,0.018000000000000002,0.018000000000000002,0,0.018000000000000002
2015-01-27,0.018000000000000002,0.018000000000000002,0.018000000000000002,0.018000000000000002,0,0.018000000000000002
2015-01-28,0.018000000000000002,0.018000000000000002,0.018000000000000002,0.018000000000000002,0,0.018000000000000002
2015-01-29,0.018000000000000002,0.018000000000000002,0.018000000000000002,0.018000000000000002,0,0.018000000000000002
2015-01-30,0.022000000000000002,0.025,0.022000000000000002,0.025,125000,0.025
2015-02-02,0.025,0.025,0.025,0.025,0,0.025
2015-02-03,0.025,0.025,0.025,0.025,0,0.025
2015-02-04,0.025,0.025,0.025,0.025,0,0.025
2015-02-05,0.025,0.025,0.025,0.025,0,0.025
2015-02-06,0.025,0.025,0.025,0.025,0,0.025
2015-02-09,0.025,0.025,0.025,0.025,0,0.025
2015-02-10,0.025,0.025,0.025,0.025,0,0.025
2015-02-11,0.025,0.025,0.025,0.025,0,0.025
2015-02-12,0.025,0.025,0.025,0.025,0,0.025
2015-02-13,0.025,0.025,0.025,0.025,0,0.025
2015-02-16,0.021,0.021,0.021,0.021,100000,0.021
2015-02-17,0.021,0.021,0.021,0.021,0,0.021
2015-02-18,0.021,0.021,0.021,0.021,0,0.021
2015-02-19,0.021,0.021,0.021,0.021,0,0.021
2015-02-20,0.021,0.021,0.021,0.021,200000,0.021
2015-02-23,0.021,0.021,0.021,0.021,0,0.021
2015-02-24,0.021,0.021,0.021,0.021,0,0.021
2015-02-25,0.023,0.031,0.023,0.031,32255000,0.031
2015-02-26,0.031,0.034,0.031,0.031,15332100,0.031
2015-02-27,0.032,0.034,0.032,0.034,392800,0.034
2015-03-02,0.034,0.04,0.034,0.04,190100,0.04
2015-03-03,0.035,0.037000000000000005,0.035,0.037000000000000005,571100,0.037000000000000005
2015-03-04,0.045,0.045,0.043,0.043,407000,0.043
2015-03-05,0.043,0.043,0.043,0.043,0,0.043
2015-03-06,0.04,0.04,0.04,0.04,441100,0.04
2015-03-09,0.04,0.04,0.037000000000000005,0.037000000000000005,463800,0.037000000000000005
2015-03-10,0.036000000000000004,0.036000000000000004,0.036000000000000004,0.036000000000000004,225000,0.036000000000000004
2015-03-11,0.037000000000000005,0.037000000000000005,0.037000000000000005,0.037000000000000005,100000,0.037000000000000005
2015-03-12,0.038,0.04,0.038,0.04,164400,0.04
2015-03-13,0.04,0.045,0.04,0.045,548400,0.045
2015-03-16,0.045,0.045,0.040999999999999995,0.040999999999999995,416900,0.040999999999999995
2015-03-17,0.039,0.039,0.039,0.039,250000,0.039
2015-03-18,0.04,0.04,0.038,0.04,740000,0.04
2015-03-19,0.04,0.04,0.04,0.04,0,0.04
2015-03-20,0.04,0.04,0.04,0.04,264800,0.04
2015-03-23,0.04,0.04,0.04,0.04,86700,0.04
2015-03-24,0.04,0.04,0.04,0.04,0,0.04
2015-03-25,0.04,0.042,0.04,0.042,330000,0.042
2015-03-26,0.042,0.042,0.042,0.042,100000,0.042
2015-03-27,0.042,0.042,0.042,0.042,0,0.042
2015-03-30,0.042,0.042,0.042,0.042,0,0.042
2015-03-31,0.044000000000000004,0.044000000000000004,0.044000000000000004,0.044000000000000004,89100,0.044000000000000004
2015-04-01,0.043,0.046,0.043,0.046,474000,0.046
2015-04-02,0.048,0.048,0.047,0.047,110000,0.047
2015-04-03,0.047,0.047,0.047,0.047,0,0.047
2015-04-06,0.047,0.047,0.047,0.047,0,0.047
2015-04-07,0.048,0.049,0.047,0.048,6606600,0.048
2015-04-08,0.048,0.048,0.048,0.048,0,0.048
2015-04-09,0.048,0.048,0.048,0.048,0,0.048
2015-04-10,0.047,0.047,0.047,0.047,100000,0.047
2015-04-13,0.045,0.045,0.043,0.043,124000,0.043
2015-04-14,0.043,0.043,0.043,0.043,40000,0.043
2015-04-15,0.043,0.043,0.043,0.043,57900,0.043
2015-04-16,0.043,0.043,0.043,0.043,100,0.043
2015-04-17,0.043,0.043,0.043,0.043,0,0.043
2015-04-20,0.040999999999999995,0.040999999999999995,0.040999999999999995,0.040999999999999995,89100,0.040999999999999995
2015-04-21,0.040999999999999995,0.040999999999999995,0.040999999999999995,0.040999999999999995,46600,0.040999999999999995
2015-04-22,0.040999999999999995,0.040999999999999995,0.04,0.04,480000,0.04
2015-04-23,0.04,0.04,0.04,0.04,0,0.04
2015-04-24,0.04,0.04,0.039,0.039,461900,0.039
2015-04-27,0.037000000000000005,0.037000000000000005,0.037000000000000005,0.037000000000000005,11400,0.037000000000000005
2015-04-28,0.039,0.04,0.039,0.04,127000,0.04
2015-04-29,0.037000000000000005,0.037000000000000005,0.037000000000000005,0.037000000000000005,26000,0.037000000000000005
2015-04-30,0.037000000000000005,0.037000000000000005,0.037000000000000005,0.037000000000000005,15000,0.037000000000000005
2015-05-01,0.037000000000000005,0.037000000000000005,0.037000000000000005,0.037000000000000005,0,0.037000000000000005
2015-05-04,0.037000000000000005,0.037000000000000005,0.037000000000000005,0.037000000000000005,25000,0.037000000000000005
2015-05-05,0.037000000000000005,0.037000000000000005,0.037000000000000005,0.037000000000000005,0,0.037000000000000005
2015-05-06,0.037000000000000005,0.037000000000000005,0.037000000000000005,0.037000000000000005,0,0.037000000000000005
2015-05-07,0.037000000000000005,0.037000000000000005,0.037000000000000005,0.037000000000000005,3300,0.037000000000000005
2015-05-08,0.037000000000000005,0.037000000000000005,0.035,0.035,535300,0.035
2015-05-11,0.035,0.035,0.035,0.035,0,0.035
2015-05-12,0.035,0.035,0.035,0.035,0,0.035
2015-05-13,0.035,0.035,0.035,0.035,0,0.035
2015-05-14,0.039,0.047,0.039,0.047,300000,0.047
2015-05-15,0.047,0.047,0.047,0.047,0,0.047
2015-05-18,0.049,0.049,0.043,0.049,213400,0.049
2015-05-19,0.049,0.049,0.049,0.049,0,0.049
2015-05-20,0.043,0.043,0.043,0.043,50000,0.043
2015-05-21,0.040999999999999995,0.040999999999999995,0.039,0.039,150000,0.039
2015-05-22,0.046,0.046,0.046,0.046,26000,0.046
2015-05-25,0.046,0.046,0.046,0.046,0,0.046
2015-05-26,0.040999999999999995,0.042,0.040999999999999995,0.042,200000,0.042
2015-05-27,0.04,0.042,0.04,0.042,60000,0.042
2015-05-28,0.039,0.039,0.039,0.039,50000,0.039
2015-05-29,0.039,0.040999999999999995,0.039,0.040999999999999995,150000,0.040999999999999995
2015-06-01,0.04,0.04,0.04,0.04,9100,0.04
2015-06-02,0.04,0.04,0.04,0.04,0,0.04
2015-06-03,0.040999999999999995,0.044000000000000004,0.040999999999999995,0.043,788500,0.043
2015-06-04,0.043,0.043,0.043,0.043,0,0.043
2015-06-05,0.043,0.043,0.043,0.043,0,0.043
2015-06-08,0.043,0.043,0.043,0.043,0,0.043
2015-06-09,0.045,0.045,0.042,0.042,500000,0.042
2015-06-10,0.042,0.042,0.042,0.042,0,0.042
2015-06-11,0.042,0.042,0.04,0.040999999999999995,1264000,0.040999999999999995
2015-06-12,0.040999999999999995,0.040999999999999995,0.040999999999999995,0.040999999999999995,13400,0.040999999999999995
2015-06-15,0.043,0.043,0.043,0.043,40000,0.043
2015-06-16,0.043,0.043,0.042,0.042,269000,0.042
2015-06-17,0.042,0.042,0.042,0.042,7500,0.042
2015-06-18,0.042,0.042,0.042,0.042,0,0.042
2015-06-19,0.042,0.042,0.042,0.042,0,0.042
2015-06-22,0.042,0.042,0.042,0.042,0,0.042
2015-06-23,0.046,0.046,0.045,0.045,425000,0.045
2015-06-24,0.045,0.045,0.045,0.045,0,0.045
2015-06-25,0.045,0.045,0.045,0.045,0,0.045
2015-06-26,0.045,0.045,0.042,0.042,100000,0.042
2015-06-29,0.043,0.043,0.040999999999999995,0.040999999999999995,418500,0.040999999999999995
2015-06-30,0.040999999999999995,0.040999999999999995,0.040999999999999995,0.040999999999999995,185600,0.040999999999999995
2015-07-01,0.040999999999999995,0.040999999999999995,0.040999999999999995,0.040999999999999995,25000,0.040999999999999995
2015-07-02,0.040999999999999995,0.040999999999999995,0.040999999999999995,0.040999999999999995,100000,0.040999999999999995
2015-07-03,0.04,0.04,0.04,0.04,250000,0.04
2015-07-06,0.04,0.04,0.04,0.04,0,0.04
2015-07-07,0.040999999999999995,0.040999999999999995,0.040999999999999995,0.040999999999999995,200000,0.040999999999999995
2015-07-08,0.040999999999999995,0.044000000000000004,0.040999999999999995,0.044000000000000004,680000,0.044000000000000004
2015-07-09,0.043,0.043,0.04,0.04,266000,0.04
2015-07-10,0.042,0.046,0.042,0.042,275000,0.042
2015-07-13,0.042,0.042,0.042,0.042,0,0.042
2015-07-14,0.047,0.048,0.047,0.048,194700,0.048
2015-07-15,0.053,0.055,0.05,0.055,255000,0.055
2015-07-16,0.055,0.055,0.055,0.055,299100,0.055
2015-07-17,0.057,0.057,0.054000000000000006,0.055,301000,0.055
2015-07-20,0.057999999999999996,0.057999999999999996,0.057999999999999996,0.057999999999999996,140000,0.057999999999999996
2015-07-21,0.054000000000000006,0.054000000000000006,0.052000000000000005,0.052000000000000005,400000,0.052000000000000005
2015-07-22,0.055,0.055,0.055,0.055,145800,0.055
2015-07-23,0.052000000000000005,0.052000000000000005,0.052000000000000005,0.052000000000000005,200000,0.052000000000000005
2015-07-24,0.052000000000000005,0.055,0.052000000000000005,0.053,218000,0.053
2015-07-27,0.052000000000000005,0.052000000000000005,0.052000000000000005,0.052000000000000005,10000,0.052000000000000005
2015-07-28,0.055,0.055,0.055,0.055,2013500,0.055
2015-07-29,0.055,0.06,0.055,0.055,2192900,0.055
2015-07-30,0.055999999999999994,0.055999999999999994,0.053,0.053,402900,0.053
2015-07-31,0.053,0.053,0.053,0.053,0,0.053
2015-08-03,0.057999999999999996,0.057999999999999996,0.054000000000000006,0.054000000000000006,297400,0.054000000000000006
2015-08-04,0.054000000000000006,0.057,0.054000000000000006,0.057,203300,0.057
2015-08-05,0.064,0.065,0.063,0.064,483100,0.064
2015-08-06,0.063,0.063,0.06,0.06,166700,0.06
2015-08-07,0.06,0.06,0.06,0.06,0,0.06
2015-08-10,0.06,0.06,0.057999999999999996,0.057999999999999996,120000,0.057999999999999996
2015-08-11,0.055999999999999994,0.055999999999999994,0.055,0.055,465000,0.055
2015-08-12,0.055,0.055,0.053,0.054000000000000006,318000,0.054000000000000006
2015-08-13,0.057999999999999996,0.057999999999999996,0.057,0.057,241000,0.057
2015-08-14,0.057,0.057,0.057,0.057,0,0.057
2015-08-17,0.057,0.057,0.057,0.057,0,0.057
2015-08-18,0.05,0.057,0.046,0.051,11242000,0.051
2015-08-19,0.053,0.069,0.052000000000000005,0.065,5010600,0.065
2015-08-20,0.065,0.065,0.057999999999999996,0.057999999999999996,1158600,0.057999999999999996
2015-08-21,0.055999999999999994,0.059000000000000004,0.055999999999999994,0.057999999999999996,1226600,0.057999999999999996
2015-08-24,0.055,0.055,0.045,0.047,3073500,0.047
2015-08-25,0.045,0.05,0.044000000000000004,0.049,832000,0.049
2015-08-26,0.049,0.051,0.047,0.051,800000,0.051
2015-08-27,0.051,0.051,0.051,0.051,399400,0.051
2015-08-28,0.05,0.065,0.05,0.062,1436700,0.062
2015-08-31,0.062,0.062,0.055,0.055,575000,0.055
2015-09-01,0.055999999999999994,0.061,0.055999999999999994,0.061,150000,0.061
2015-09-02,0.065,0.068,0.061,0.065,1665200,0.065
2015-09-03,0.065,0.065,0.065,0.065,0,0.065
2015-09-04,0.064,0.064,0.061,0.061,910000,0.061
2015-09-07,0.055,0.055,0.054000000000000006,0.054000000000000006,200000,0.054000000000000006
2015-09-08,0.057999999999999996,0.057999999999999996,0.057999999999999996,0.057999999999999996,22100,0.057999999999999996
2015-09-09,0.057999999999999996,0.057999999999999996,0.057999999999999996,0.057999999999999996,0,0.057999999999999996
2015-09-10,0.057999999999999996,0.057999999999999996,0.057999999999999996,0.057999999999999996,0,0.057999999999999996
2015-09-11,0.057999999999999996,0.057999999999999996,0.057999999999999996,0.057999999999999996,0,0.057999999999999996
2015-09-14,0.059000000000000004,0.059000000000000004,0.057999999999999996,0.057999999999999996,193800,0.057999999999999996
2015-09-15,0.057999999999999996,0.057999999999999996,0.057,0.057,103500,0.057
2015-09-16,0.055999999999999994,0.055999999999999994,0.055999999999999994,0.055999999999999994,47900,0.055999999999999994
2015-09-17,0.057,0.057999999999999996,0.057,0.057,72500,0.057
2015-09-18,0.057,0.057,0.057,0.057,0,0.057
2015-09-21,0.057,0.057,0.057,0.057,0,0.057
2015-09-22,0.057,0.057,0.057,0.057,0,0.057
2015-09-23,0.053,0.053,0.05,0.053,438900,0.053
2015-09-24,0.053,0.053,0.053,0.053,0,0.053
2015-09-25,0.053,0.053,0.053,0.053,100000,0.053
2015-09-28,0.053,0.053,0.053,0.053,23000,0.053
2015-09-29,0.053,0.055,0.053,0.055,78800,0.055
2015-09-30,0.055,0.055,0.055,0.055,132500,0.055
2015-10-01,0.053,0.053,0.051,0.052000000000000005,250000,0.052000000000000005
2015-10-02,0.052000000000000005,0.052000000000000005,0.052000000000000005,0.052000000000000005,0,0.052000000000000005
2015-10-05,0.053,0.053,0.052000000000000005,0.052000000000000005,60000,0.052000000000000005
2015-10-06,0.052000000000000005,0.052000000000000005,0.052000000000000005,0.052000000000000005,84000,0.052000000000000005
2015-10-07,0.052000000000000005,0.052000000000000005,0.052000000000000005,0.052000000000000005,0,0.052000000000000005
2015-10-08,0.052000000000000005,0.052000000000000005,0.052000000000000005,0.052000000000000005,46000,0.052000000000000005
2015-10-09,0.052000000000000005,0.052000000000000005,0.052000000000000005,0.052000000000000005,11600,0.052000000000000005
2015-10-12,0.051,0.051,0.05,0.05,444300,0.05
2015-10-13,0.05,0.05,0.049,0.049,496700,0.049
2015-10-14,0.049,0.049,0.047,0.047,450000,0.047
2015-10-15,0.047,0.051,0.047,0.049,634300,0.049
2015-10-16,0.049,0.049,0.047,0.047,213800,0.047
2015-10-19,0.047,0.047,0.045,0.045,223100,0.045
2015-10-20,0.045,0.045,0.045,0.045,0,0.045
2015-10-21,0.045,0.045,0.044000000000000004,0.044000000000000004,100000,0.044000000000000004
2015-10-22,0.044000000000000004,0.044000000000000004,0.044000000000000004,0.044000000000000004,0,0.044000000000000004
2015-10-23,0.044000000000000004,0.044000000000000004,0.044000000000000004,0.044000000000000004,22900,0.044000000000000004
2015-10-26,0.05,0.053,0.05,0.05,375000,0.05
2015-10-27,0.05,0.052000000000000005,0.05,0.05,450900,0.05
2015-10-28,0.05,0.055999999999999994,0.05,0.053,601200,0.053
2015-10-29,0.054000000000000006,0.055,0.054000000000000006,0.054000000000000006,256000,0.054000000000000006
2015-10-30,0.052000000000000005,0.052000000000000005,0.05,0.051,541500,0.051
2015-11-02,0.051,0.057,0.051,0.055,1080000,0.055
2015-11-03,0.055,0.055,0.055,0.055,460900,0.055
2015-11-04,0.055999999999999994,0.062,0.055999999999999994,0.062,1157000,0.062
2015-11-05,0.061,0.064,0.059000000000000004,0.062,988100,0.062
2015-11-06,0.062,0.063,0.059000000000000004,0.059000000000000004,275000,0.059000000000000004
2015-11-09,0.062,0.063,0.057999999999999996,0.06,833100,0.06
2015-11-10,0.06,0.06,0.06,0.06,437600,0.06
2015-11-11,0.061,0.061,0.055999999999999994,0.059000000000000004,627200,0.059000000000000004
2015-11-12,0.059000000000000004,0.059000000000000004,0.059000000000000004,0.059000000000000004,80600,0.059000000000000004
2015-11-13,0.057999999999999996,0.064,0.055999999999999994,0.064,1370100,0.064
2015-11-16,0.064,0.078,0.064,0.075,7537100,0.075
2015-11-17,0.078,0.078,0.07400000000000001,0.076,800100,0.076
2015-11-18,0.076,0.077,0.07400000000000001,0.077,1444200,0.077
2015-11-19,0.078,0.086,0.078,0.078,2746400,0.078
2015-11-20,0.08,0.08,0.071,0.07400000000000001,807900,0.07400000000000001
2015-11-23,0.07400000000000001,0.079,0.07400000000000001,0.076,396000,0.076
2015-11-24,0.075,0.075,0.07,0.07,502900,0.07
2015-11-25,0.07,0.07,0.064,0.065,788600,0.065
2015-11-26,0.07,0.07,0.067,0.067,284900,0.067
2015-11-27,0.068,0.068,0.06,0.061,1135400,0.061
2015-11-30,0.061,0.065,0.06,0.06,252300,0.06
2015-12-01,0.062,0.067,0.062,0.064,506900,0.064
2015-12-02,0.067,0.067,0.065,0.065,162500,0.065
2015-12-03,0.065,0.065,0.062,0.062,1253700,0.062
2015-12-04,0.062,0.062,0.06,0.06,1352400,0.06
2015-12-07,0.06,0.063,0.06,0.06,1046600,0.06
2015-12-08,0.057,0.059000000000000004,0.055,0.059000000000000004,814100,0.059000000000000004
2015-12-09,0.059000000000000004,0.06,0.059000000000000004,0.06,221600,0.06
2015-12-10,0.06,0.06,0.057,0.057,248000,0.057
2015-12-11,0.057,0.057,0.052000000000000005,0.055999999999999994,824200,0.055999999999999994
2015-12-14,0.055999999999999994,0.059000000000000004,0.055999999999999994,0.059000000000000004,198300,0.059000000000000004
2015-12-15,0.059000000000000004,0.059000000000000004,0.057,0.057,295100,0.057
2015-12-16,0.057,0.057,0.055999999999999994,0.057,668800,0.057
2015-12-17,0.057,0.057,0.057,0.057,350000,0.057
2015-12-18,0.057999999999999996,0.06,0.055999999999999994,0.055999999999999994,1613400,0.055999999999999994
2015-12-21,0.055999999999999994,0.055999999999999994,0.055999999999999994,0.055999999999999994,0,0.055999999999999994
2015-12-22,0.055999999999999994,0.055999999999999994,0.055999999999999994,0.055999999999999994,0,0.055999999999999994
2015-12-23,0.055999999999999994,0.055999999999999994,0.055999999999999994,0.055999999999999994,0,0.055999999999999994
2015-12-24,0.055999999999999994,0.055999999999999994,0.055999999999999994,0.055999999999999994,0,0.055999999999999994
2015-12-25,0.055999999999999994,0.055999999999999994,0.055999999999999994,0.055999999999999994,0,0.055999999999999994
2015-12-28,0.055999999999999994,0.055999999999999994,0.055999999999999994,0.055999999999999994,0,0.055999999999999994
2015-12-29,0.055999999999999994,0.055999999999999994,0.055999999999999994,0.055999999999999994,0,0.055999999999999994
2015-12-30,0.055999999999999994,0.055999999999999994,0.055999999999999994,0.055999999999999994,0,0.055999999999999994
2015-12-31,0.055999999999999994,0.055999999999999994,0.055999999999999994,0.055999999999999994,0,0.055999999999999994
2016-01-01,0.055999999999999994,0.055999999999999994,0.055999999999999994,0.055999999999999994,0,0.055999999999999994
2016-01-04,0.055999999999999994,0.055999999999999994,0.055999999999999994,0.055999999999999994,0,0.055999999999999994
2016-01-05,0.055999999999999994,0.055999999999999994,0.055999999999999994,0.055999999999999994,0,0.055999999999999994
2016-01-06,0.055999999999999994,0.055999999999999994,0.055999999999999994,0.055999999999999994,0,0.055999999999999994
2016-01-07,0.055999999999999994,0.055999999999999994,0.055999999999999994,0.055999999999999994,0,0.055999999999999994
2016-01-08,0.055999999999999994,0.055999999999999994,0.055999999999999994,0.055999999999999994,0,0.055999999999999994
2016-01-11,0.055999999999999994,0.055999999999999994,0.055999999999999994,0.055999999999999994,0,0.055999999999999994
2016-01-12,0.055999999999999994,0.055999999999999994,0.055999999999999994,0.055999999999999994,0,0.055999999999999994
2016-01-13,0.055999999999999994,0.055999999999999994,0.055999999999999994,0.055999999999999994,0,0.055999999999999994
2016-01-14,0.055999999999999994,0.055999999999999994,0.055999999999999994,0.055999999999999994,0,0.055999999999999994
2016-01-15,0.055999999999999994,0.055999999999999994,0.055999999999999994,0.055999999999999994,0,0.055999999999999994
2016-01-18,0.055999999999999994,0.055999999999999994,0.055999999999999994,0.055999999999999994,0,0.055999999999999994
2016-01-19,0.055999999999999994,0.055999999999999994,0.055999999999999994,0.055999999999999994,0,0.055999999999999994
2016-01-20,0.055999999999999994,0.055999999999999994,0.055999999999999994,0.055999999999999994,0,0.055999999999999994
2016-01-21,0.055999999999999994,0.055999999999999994,0.055999999999999994,0.055999999999999994,0,0.055999999999999994
2016-01-22,0.055999999999999994,0.055999999999999994,0.055999999999999994,0.055999999999999994,0,0.055999999999999994
2016-01-25,0.055999999999999994,0.055999999999999994,0.055999999999999994,0.055999999999999994,0,0.055999999999999994
2016-01-26,0.055999999999999994,0.055999999999999994,0.055999999999999994,0.055999999999999994,0,0.055999999999999994
2016-01-27,0.055999999999999994,0.055999999999999994,0.055999999999999994,0.055999999999999994,0,0.055999999999999994
2016-01-28,0.055999999999999994,0.055999999999999994,0.055999999999999994,0.055999999999999994,0,0.055999999999999994
2016-01-29,0.055999999999999994,0.055999999999999994,0.055999999999999994,0.055999999999999994,0,0.055999999999999994
2016-02-01,0.055999999999999994,0.055999999999999994,0.055999999999999994,0.055999999999999994,0,0.055999999999999994
2016-02-02,0.055999999999999994,0.055999999999999994,0.055999999999999994,0.055999999999999994,0,0.055999999999999994
2016-02-03,0.055999999999999994,0.055999999999999994,0.055999999999999994,0.055999999999999994,0,0.055999999999999994
2016-02-04,0.055999999999999994,0.055999999999999994,0.055999999999999994,0.055999999999999994,0,0.055999999999999994
2016-02-05,0.055999999999999994,0.055999999999999994,0.055999999999999994,0.055999999999999994,0,0.055999999999999994
2016-02-08,0.055999999999999994,0.055999999999999994,0.055999999999999994,0.055999999999999994,0,0.055999999999999994
2016-02-09,0.055999999999999994,0.055999999999999994,0.055999999999999994,0.055999999999999994,0,0.055999999999999994
2016-02-10,0.055999999999999994,0.055999999999999994,0.055999999999999994,0.055999999999999994,0,0.055999999999999994
2016-02-11,0.055999999999999994,0.055999999999999994,0.055999999999999994,0.055999999999999994,0,0.055999999999999994
2016-02-12,0.055999999999999994,0.055999999999999994,0.055999999999999994,0.055999999999999994,0,0.055999999999999994
2016-02-15,0.055999999999999994,0.055999999999999994,0.055999999999999994,0.055999999999999994,0,0.055999999999999994
2016-02-16,0.055999999999999994,0.055999999999999994,0.055999999999999994,0.055999999999999994,0,0.055999999999999994
2016-02-17,0.055999999999999994,0.055999999999999994,0.055999999999999994,0.055999999999999994,0,0.055999999999999994
2016-02-18,0.055999999999999994,0.055999999999999994,0.055999999999999994,0.055999999999999994,0,0.055999999999999994
2016-02-19,0.055999999999999994,0.055999999999999994,0.055999999999999994,0.055999999999999994,0,0.055999999999999994
2016-02-22,0.055999999999999994,0.055999999999999994,0.055999999999999994,0.055999999999999994,0,0.055999999999999994
2016-02-23,0.055999999999999994,0.055999999999999994,0.055999999999999994,0.055999999999999994,0,0.055999999999999994
2016-02-24,0.055999999999999994,0.055999999999999994,0.055999999999999994,0.055999999999999994,0,0.055999999999999994
2016-02-25,0.055999999999999994,0.055999999999999994,0.055999999999999994,0.055999999999999994,0,0.055999999999999994
2016-02-26,0.055999999999999994,0.055999999999999994,0.055999999999999994,0.055999999999999994,0,0.055999999999999994
2016-02-29,0.06,0.068,0.054000000000000006,0.054000000000000006,3163000,0.054000000000000006
2016-03-01,0.059000000000000004,0.059000000000000004,0.054000000000000006,0.054000000000000006,855700,0.054000000000000006
2016-03-02,0.054000000000000006,0.054000000000000006,0.05,0.05,1655800,0.05
2016-03-03,0.049,0.055999999999999994,0.049,0.054000000000000006,1109500,0.054000000000000006
2016-03-04,0.053,0.054000000000000006,0.05,0.05,1036600,0.05
2016-03-07,0.054000000000000006,0.065,0.053,0.062,3063800,0.062
2016-03-08,0.062,0.062,0.057999999999999996,0.057999999999999996,444400,0.057999999999999996
2016-03-09,0.055,0.06,0.055,0.06,249500,0.06
2016-03-10,0.059000000000000004,0.059000000000000004,0.055,0.055,883600,0.055
2016-03-11,0.059000000000000004,0.059000000000000004,0.054000000000000006,0.055999999999999994,235500,0.055999999999999994
2016-03-14,0.055,0.059000000000000004,0.055,0.059000000000000004,1478000,0.059000000000000004
2016-03-15,0.057999999999999996,0.057999999999999996,0.055,0.055999999999999994,857800,0.055999999999999994
2016-03-16,0.055999999999999994,0.065,0.055999999999999994,0.062,2459900,0.062
2016-03-17,0.063,0.064,0.055,0.059000000000000004,3136200,0.059000000000000004
2016-03-18,0.057999999999999996,0.059000000000000004,0.057999999999999996,0.057999999999999996,205000,0.057999999999999996
2016-03-21,0.057,0.057,0.052000000000000005,0.052000000000000005,977000,0.052000000000000005
2016-03-22,0.053,0.054000000000000006,0.053,0.053,530000,0.053
2016-03-23,0.055999999999999994,0.055999999999999994,0.05,0.053,2373800,0.053
2016-03-24,0.053,0.053,0.05,0.052000000000000005,1476900,0.052000000000000005
2016-03-25,0.052000000000000005,0.052000000000000005,0.052000000000000005,0.052000000000000005,0,0.052000000000000005
2016-03-28,0.052000000000000005,0.052000000000000005,0.052000000000000005,0.052000000000000005,0,0.052000000000000005
2016-03-29,0.052000000000000005,0.052000000000000005,0.051,0.051,1460600,0.051
2016-03-30,0.051,0.051,0.05,0.05,841200,0.05
2016-03-31,0.051,0.051,0.049,0.051,495000,0.051
2016-04-01,0.051,0.052000000000000005,0.05,0.051,782500,0.051
2016-04-04,0.051,0.053,0.051,0.053,598000,0.053
2016-04-05,0.053,0.053,0.051,0.051,856500,0.051
2016-04-06,0.05,0.052000000000000005,0.05,0.052000000000000005,869600,0.052000000000000005
2016-04-07,0.051,0.055,0.051,0.052000000000000005,921900,0.052000000000000005
2016-04-08,0.053,0.054000000000000006,0.053,0.054000000000000006,246900,0.054000000000000006
2016-04-11,0.054000000000000006,0.054000000000000006,0.05,0.053,1266500,0.053
2016-04-12,0.053,0.053,0.053,0.053,0,0.053
2016-04-13,0.052000000000000005,0.053,0.052000000000000005,0.053,294000,0.053
2016-04-14,0.052000000000000005,0.052000000000000005,0.051,0.052000000000000005,1206400,0.052000000000000005
2016-04-15,0.052000000000000005,0.053,0.052000000000000005,0.052000000000000005,463200,0.052000000000000005
2016-04-18,0.052000000000000005,0.053,0.052000000000000005,0.052000000000000005,1090000,0.052000000000000005
2016-04-19,0.052000000000000005,0.052000000000000005,0.051,0.051,1094000,0.051
2016-04-20,0.05,0.05,0.049,0.049,993800,0.049
2016-04-21,0.05,0.051,0.048,0.051,1947900,0.051
2016-04-22,0.05,0.05,0.05,0.05,70000,0.05
2016-04-25,0.05,0.05,0.05,0.05,0,0.05
2016-04-26,0.05,0.051,0.05,0.05,296600,0.05
2016-04-27,0.048,0.049,0.045,0.049,1145000,0.049
2016-04-28,0.049,0.049,0.049,0.049,0,0.049
2016-04-29,0.049,0.049,0.047,0.047,348000,0.047
2016-05-02,0.049,0.049,0.046,0.046,175600,0.046
2016-05-03,0.046,0.046,0.045,0.045,517600,0.045
2016-05-04,0.045,0.049,0.043,0.049,797000,0.049
2016-05-05,0.049,0.049,0.049,0.049,104200,0.049
2016-05-06,0.048,0.049,0.048,0.049,159400,0.049
2016-05-09,0.048,0.048,0.045,0.045,129500,0.045
2016-05-10,0.045,0.045,0.045,0.045,8500,0.045
2016-05-11,0.045,0.045,0.045,0.045,300000,0.045
2016-05-12,0.045,0.048,0.045,0.048,300500,0.048
2016-05-13,0.047,0.047,0.047,0.047,35400,0.047
2016-05-16,0.047,0.047,0.044000000000000004,0.044000000000000004,61800,0.044000000000000004
2016-05-17,0.044000000000000004,0.045,0.044000000000000004,0.045,195000,0.045
2016-05-18,0.045,0.045,0.045,0.045,0,0.045
2016-05-19,0.045,0.046,0.045,0.046,150000,0.046
2016-05-20,0.044000000000000004,0.044000000000000004,0.040999999999999995,0.044000000000000004,269000,0.044000000000000004
2016-05-23,0.044000000000000004,0.044000000000000004,0.042,0.042,290500,0.042
2016-05-24,0.042,0.042,0.038,0.042,1738500,0.042
2016-05-25,0.042,0.043,0.042,0.042,849500,0.042
2016-05-26,0.042,0.043,0.042,0.043,675500,0.043
2016-05-27,0.043,0.047,0.042,0.047,1819800,0.047
2016-05-30,0.05,0.057,0.048,0.048,7348400,0.048
2016-05-31,0.049,0.05,0.046,0.05,2621900,0.05
2016-06-01,0.05,0.053,0.049,0.051,3419200,0.051
2016-06-02,0.051,0.052000000000000005,0.046,0.048,1758300,0.048
2016-06-03,0.05,0.054000000000000006,0.048,0.048,3359300,0.048
2016-06-06,0.05,0.05,0.045,0.047,2121000,0.047
2016-06-07,0.049,0.049,0.047,0.047,322500,0.047
2016-06-08,0.047,0.047,0.046,0.046,208900,0.046
2016-06-09,0.046,0.047,0.045,0.047,409000,0.047
2016-06-10,0.046,0.046,0.046,0.046,50000,0.046
2016-06-13,0.046,0.046,0.046,0.046,0,0.046
2016-06-14,0.047,0.047,0.045,0.045,444600,0.045
2016-06-15,0.046,0.05,0.045,0.049,1105500,0.049
2016-06-16,0.048,0.048,0.044000000000000004,0.045,1003700,0.045
2016-06-17,0.046,0.046,0.043,0.043,1097500,0.043
2016-06-20,0.045,0.045,0.043,0.045,550000,0.045
2016-06-21,0.045,0.045,0.044000000000000004,0.044000000000000004,551700,0.044000000000000004
2016-06-22,0.043,0.045,0.043,0.043,352000,0.043
2016-06-23,0.044000000000000004,0.045,0.042,0.045,415100,0.045
2016-06-24,0.045,0.045,0.042,0.042,430200,0.042
2016-06-27,0.040999999999999995,0.043,0.040999999999999995,0.040999999999999995,1321100,0.040999999999999995
2016-06-28,0.040999999999999995,0.045,0.040999999999999995,0.043,585100,0.043
2016-06-29,0.043,0.043,0.043,0.043,113200,0.043
2016-06-30,0.042,0.044000000000000004,0.042,0.044000000000000004,1711100,0.044000000000000004
2016-07-01,0.045,0.045,0.045,0.045,89100,0.045
2016-07-04,0.045,0.045,0.045,0.045,40000,0.045
2016-07-05,0.045,0.048,0.045,0.047,2176000,0.047
2016-07-06,0.046,0.046,0.045,0.046,532200,0.046
2016-07-07,0.047,0.048,0.047,0.047,582300,0.047
2016-07-08,0.047,0.047,0.042,0.045,2362700,0.045
2016-07-11,0.043,0.043,0.040999999999999995,0.042,890100,0.042
2016-07-12,0.042,0.043,0.040999999999999995,0.042,1718800,0.042
2016-07-13,0.042,0.042,0.040999999999999995,0.040999999999999995,1978600,0.040999999999999995
2016-07-14,0.040999999999999995,0.040999999999999995,0.04,0.040999999999999995,1000200,0.040999999999999995
2016-07-15,0.040999999999999995,0.040999999999999995,0.040999999999999995,0.040999999999999995,384000,0.040999999999999995
2016-07-18,0.040999999999999995,0.042,0.039,0.039,1905000,0.039
2016-07-19,0.038,0.038,0.035,0.037000000000000005,1134900,0.037000000000000005
2016-07-20,0.035,0.038,0.035,0.038,617500,0.038
2016-07-21,0.038,0.04,0.036000000000000004,0.037000000000000005,1777100,0.037000000000000005
2016-07-22,0.036000000000000004,0.036000000000000004,0.035,0.035,261500,0.035
2016-07-25,0.036000000000000004,0.036000000000000004,0.035,0.035,25900,0.035
2016-07-26,0.036000000000000004,0.037000000000000005,0.035,0.037000000000000005,809900,0.037000000000000005
2016-07-27,0.038,0.042,0.038,0.039,1177700,0.039
2016-07-28,0.040999999999999995,0.047,0.040999999999999995,0.045,4668100,0.045
2016-07-29,0.045,0.046,0.044000000000000004,0.045,1913400,0.045
2016-08-01,0.048,0.049,0.047,0.047,3875100,0.047
2016-08-02,0.048,0.055,0.045,0.051,23147800,0.051
2016-08-03,0.051,0.051,0.047,0.047,11019200,0.047
2016-08-04,0.047,0.048,0.046,0.047,2839900,0.047
2016-08-05,0.049,0.055999999999999994,0.049,0.052000000000000005,26308100,0.052000000000000005
2016-08-08,0.055,0.055,0.052000000000000005,0.053,7681600,0.053
2016-08-09,0.053,0.054000000000000006,0.049,0.049,3826600,0.049
2016-08-10,0.049,0.05,0.048,0.049,3355700,0.049
2016-08-11,0.049,0.053,0.049,0.051,3646000,0.051
2016-08-12,0.052000000000000005,0.052000000000000005,0.046,0.047,5398100,0.047
2016-08-15,0.046,0.047,0.044000000000000004,0.044000000000000004,4334900,0.044000000000000004
2016-08-16,0.044000000000000004,0.045,0.042,0.043,2890000,0.043
2016-08-17,0.043,0.045,0.043,0.044000000000000004,1247200,0.044000000000000004
2016-08-18,0.045,0.048,0.045,0.047,2312000,0.047
2016-08-19,0.049,0.054000000000000006,0.048,0.054000000000000006,6802200,0.054000000000000006
2016-08-22,0.054000000000000006,0.057,0.052000000000000005,0.053,3905800,0.053
2016-08-23,0.052000000000000005,0.055,0.051,0.054000000000000006,7726700,0.054000000000000006
2016-08-24,0.054000000000000006,0.057999999999999996,0.054000000000000006,0.057,9993200,0.057
2016-08-25,0.057,0.057999999999999996,0.054000000000000006,0.055999999999999994,4946400,0.055999999999999994
2016-08-26,0.055999999999999994,0.062,0.054000000000000006,0.062,8730700,0.062
2016-08-29,0.06,0.066,0.059000000000000004,0.06,13952400,0.06
2016-08-30,0.06,0.061,0.057999999999999996,0.057999999999999996,5828700,0.057999999999999996
2016-08-31,0.057999999999999996,0.06,0.052000000000000005,0.054000000000000006,8289100,0.054000000000000006
2016-09-01,0.055999999999999994,0.06,0.054000000000000006,0.06,2593400,0.06
2016-09-02,0.06,0.06,0.055999999999999994,0.055999999999999994,4305600,0.055999999999999994
2016-09-05,0.057,0.064,0.055999999999999994,0.064,5202200,0.064
2016-09-06,0.065,0.069,0.063,0.069,9117800,0.069
2016-09-07,0.07,0.07,0.062,0.063,12558100,0.063
2016-09-08,0.062,0.068,0.061,0.067,12476200,0.067
2016-09-09,0.068,0.069,0.063,0.064,4518100,0.064
2016-09-12,0.062,0.062,0.06,0.06,3055100,0.06
2016-09-13,0.061,0.064,0.061,0.061,3460200,0.061
2016-09-14,0.061,0.065,0.061,0.063,2112300,0.063
2016-09-15,0.064,0.067,0.06,0.06,5002600,0.06
2016-09-16,0.061,0.061,0.059000000000000004,0.06,3576900,0.06
2016-09-19,0.06,0.06,0.059000000000000004,0.059000000000000004,1246400,0.059000000000000004
2016-09-20,0.057999999999999996,0.059000000000000004,0.057999999999999996,0.057999999999999996,999800,0.057999999999999996
2016-09-21,0.059000000000000004,0.062,0.059000000000000004,0.059000000000000004,3935700,0.059000000000000004
2016-09-22,0.06,0.065,0.055999999999999994,0.055999999999999994,8892500,0.055999999999999994
2016-09-23,0.055,0.06,0.055,0.059000000000000004,6019900,0.059000000000000004
2016-09-26,0.059000000000000004,0.062,0.057999999999999996,0.06,3140400,0.06
2016-09-27,0.06,0.062,0.06,0.06,1946800,0.06
2016-09-28,0.06,0.061,0.059000000000000004,0.061,2358400,0.061
2016-09-29,0.061,0.063,0.06,0.063,3405800,0.063
2016-09-30,0.064,0.066,0.063,0.064,3296600,0.064
2016-10-03,0.064,0.07,0.064,0.068,3127400,0.068
2016-10-04,0.068,0.068,0.064,0.067,3108100,0.067
2016-10-05,0.067,0.067,0.065,0.065,917100,0.065
2016-10-06,0.066,0.067,0.062,0.066,5470200,0.066
2016-10-07,0.066,0.067,0.063,0.067,2907800,0.067
2016-10-10,0.067,0.069,0.066,0.068,1287400,0.068
2016-10-11,0.069,0.075,0.068,0.07,10656800,0.07
2016-10-12,0.071,0.073,0.067,0.067,8279500,0.067
2016-10-13,0.068,0.068,0.066,0.068,2082600,0.068
2016-10-14,0.067,0.068,0.066,0.066,954800,0.066
2016-10-17,0.066,0.068,0.066,0.066,2135300,0.066
2016-10-18,0.068,0.068,0.063,0.065,3279600,0.065
2016-10-19,0.066,0.071,0.066,0.071,3598400,0.071
2016-10-20,0.07,0.07,0.067,0.067,6316000,0.067
2016-10-21,0.068,0.073,0.068,0.071,3945000,0.071
2016-10-24,0.073,0.077,0.073,0.077,5747800,0.077
2016-10-25,0.078,0.08,0.076,0.077,4631800,0.077
2016-10-26,0.078,0.08,0.076,0.08,5825700,0.08
2016-10-27,0.08199999999999999,0.09,0.08,0.09,12685300,0.09
2016-10-28,0.091,0.096,0.087,0.08900000000000001,10324500,0.08900000000000001
2016-10-31,0.092,0.09300000000000001,0.08800000000000001,0.091,2874500,0.091
2016-11-01,0.091,0.102,0.08900000000000001,0.1,10015600,0.1
2016-11-02,0.1,0.105,0.087,0.091,16163000,0.091
2016-11-03,0.091,0.094,0.087,0.092,5648800,0.092
2016-11-04,0.092,0.092,0.087,0.087,3591900,0.087
2016-11-07,0.087,0.098,0.087,0.096,3692000,0.096
2016-11-08,0.09699999999999999,0.098,0.095,0.096,2444400,0.096
2016-11-09,0.09699999999999999,0.105,0.084,0.087,10476100,0.087
2016-11-10,0.09300000000000001,0.11,0.09300000000000001,0.11,8389100,0.11
2016-11-11,0.11,0.115,0.1,0.105,3936600,0.105
2016-11-14,0.11,0.11,0.098,0.1,2960000,0.1
2016-11-15,0.11,0.115,0.105,0.115,4427000,0.115
2016-11-16,0.115,0.115,0.105,0.105,1961100,0.105
2016-11-17,0.11,0.115,0.105,0.11,2574900,0.11
2016-11-18,0.11,0.115,0.11,0.11,1800600,0.11
2016-11-21,0.115,0.12,0.11,0.11,3354600,0.11
2016-11-22,0.11,0.11,0.105,0.11,3333200,0.11
2016-11-23,0.11,0.13,0.11,0.13,10643900,0.13
2016-11-24,0.135,0.135,0.12,0.12,3624600,0.12
2016-11-25,0.125,0.125,0.115,0.12,2911800,0.12
2016-11-28,0.125,0.145,0.125,0.135,8042100,0.135
2016-11-29,0.135,0.145,0.125,0.13,6709300,0.13
2016-11-30,0.135,0.135,0.13,0.135,3110800,0.135
2016-12-01,0.135,0.135,0.13,0.13,1968000,0.13
2016-12-02,0.13,0.13,0.115,0.12,3180000,0.12
2016-12-05,0.12,0.12,0.105,0.115,5434200,0.115
2016-12-06,0.11,0.12,0.105,0.105,2032100,0.105
2016-12-07,0.11,0.11,0.105,0.11,2807400,0.11
2016-12-08,0.11,0.12,0.11,0.11,1648900,0.11
2016-12-09,0.11,0.11,0.105,0.105,1355500,0.105
2016-12-12,0.105,0.105,0.098,0.1,4816100,0.1
2016-12-13,0.1,0.115,0.1,0.105,2787800,0.105
2016-12-14,0.105,0.11,0.1,0.1,820800,0.1
2016-12-15,0.105,0.105,0.091,0.09300000000000001,5741700,0.09300000000000001
2016-12-16,0.09,0.1,0.09,0.098,5657400,0.098
2016-12-19,0.1,0.1,0.094,0.094,1175400,0.094
2016-12-20,0.09,0.094,0.09,0.094,2127400,0.094
2016-12-21,0.09300000000000001,0.09300000000000001,0.08900000000000001,0.09,716200,0.09
2016-12-22,0.09,0.091,0.08900000000000001,0.091,1902100,0.091
2016-12-23,0.08900000000000001,0.092,0.08800000000000001,0.092,747100,0.092
2016-12-26,0.092,0.092,0.092,0.092,0,0.092
2016-12-27,0.092,0.092,0.092,0.092,0,0.092
2016-12-28,0.091,0.091,0.086,0.086,922600,0.086
2016-12-29,0.086,0.08900000000000001,0.086,0.08900000000000001,668000,0.08900000000000001
2016-12-30,0.08900000000000001,0.08900000000000001,0.087,0.087,790500,0.087
