Date,Open,High,Low,Close,Volume,Adj Close
2011-05-30,0.14470999999999998,0.14470999999999998,0.14470999999999998,0.14470999999999998,36200,1.44712
2011-05-31,0.14470999999999998,0.14470999999999998,0.13230999999999998,0.14470999999999998,12600,1.44712
2011-06-01,0.14057999999999998,0.14057999999999998,0.12404000000000001,0.12404000000000001,13900,1.24038
2011-06-02,0.13644,0.13644,0.12404000000000001,0.12404000000000001,9600,1.24038
2011-06-03,0.12404000000000001,0.13230999999999998,0.12404000000000001,0.13230999999999998,2400,1.32308
2011-06-08,0.1199,0.1199,0.1199,0.1199,6600,1.1990399999999999
2011-06-09,0.1199,0.1199,0.1199,0.1199,1000,1.1990399999999999
2011-06-21,0.11577,0.11577,0.11164,0.11164,3700,1.11635
2011-06-24,0.09096,0.09096,0.08269,0.08269,32000,0.8269200000000001
2011-06-27,0.08269,0.08269,0.08269,0.08269,16900,0.8269200000000001
2011-06-29,0.09096,0.09096,0.09096,0.09096,3000,0.9096200000000001
2011-06-30,0.0951,0.0951,0.09096,0.09096,13300,0.9096200000000001
2011-07-05,0.1075,0.1075,0.1075,0.1075,16300,1.075
2011-07-06,0.11577,0.11577,0.11577,0.11577,3900,1.1576899999999999
2011-07-07,0.11577,0.11577,0.11577,0.11577,5900,1.1576899999999999
2011-07-08,0.12404000000000001,0.12404000000000001,0.11577,0.11577,11000,1.1576899999999999
2011-07-11,0.11577,0.11577,0.11577,0.11577,6800,1.1576899999999999
2011-07-12,0.11577,0.11577,0.11577,0.11577,6300,1.1576899999999999
2011-07-13,0.11577,0.11577,0.11577,0.11577,900,1.1576899999999999
2011-07-19,0.11577,0.11577,0.11577,0.11577,1200,1.1576899999999999
2011-07-20,0.11577,0.1199,0.11577,0.1199,13300,1.1990399999999999
2011-07-21,0.12404000000000001,0.12404000000000001,0.12404000000000001,0.12404000000000001,1700,1.24038
2011-07-25,0.11577,0.11577,0.11577,0.11577,6000,1.1576899999999999
2011-08-01,0.11577,0.11577,0.1075,0.1075,6400,1.075
2011-08-02,0.1075,0.1075,0.1075,0.1075,3900,1.075
2011-08-05,0.09923,0.09923,0.09923,0.09923,1500,0.99231
2011-08-10,0.09923,0.09923,0.09923,0.09923,1800,0.99231
2011-08-12,0.09923,0.09923,0.09923,0.09923,1200,0.99231
2011-08-15,0.09923,0.09923,0.09923,0.09923,300,0.99231
2011-09-01,0.1075,0.11577,0.1075,0.11577,13800,1.1576899999999999
2011-09-07,0.11577,0.11577,0.1075,0.1075,1500,1.075
2011-09-12,0.1075,0.1075,0.1075,0.1075,3600,1.075
2011-09-13,0.1075,0.1075,0.1075,0.1075,200,1.075
2011-09-14,0.12404000000000001,0.12404000000000001,0.12404000000000001,0.12404000000000001,0,1.24038
2011-09-16,0.1075,0.11577,0.1075,0.11577,1800,1.1576899999999999
2011-09-19,0.09923,0.09923,0.09923,0.09923,1800,0.99231
2011-09-20,0.08269,0.09923,0.08269,0.09923,6400,0.99231
2011-09-21,0.09923,0.09923,0.09923,0.09923,1200,0.99231
2011-09-22,0.10337,0.10337,0.10337,0.10337,200,1.03365
2011-10-13,0.08682999999999999,0.10337,0.08682999999999999,0.10337,1300,1.03365
2011-10-17,1.03365,1.03365,1.03365,1.03365,1000,10.3365
2011-10-18,0.10337,0.10337,0.10337,0.10337,1000,1.03365
2011-10-26,0.10337,0.10337,0.10337,0.10337,1200,1.03365
2011-10-28,0.10337,0.10337,0.10337,0.10337,700,1.03365
2011-10-31,0.10337,0.10337,0.10337,0.10337,1000,1.03365
2011-11-01,0.0951,0.0951,0.0951,0.0951,2400,0.95096
2011-11-02,0.09096,0.09096,0.08187,0.08187,4600,0.81865
2011-11-04,0.08104,0.08269,0.07112,0.07112,6000,0.71115
2011-11-07,0.07028999999999999,0.07028999999999999,0.06615,0.06615,2600,0.66154
2011-11-14,0.07442,0.07442,0.07442,0.07442,700,0.7442300000000001
2011-11-17,0.07442,0.07442,0.07442,0.07442,0,0.7442300000000001
2011-11-18,0.07442,0.07442,0.07442,0.07442,0,0.7442300000000001
2011-11-21,0.07856,0.07856,0.07856,0.07856,400,0.7855800000000001
2011-11-22,0.07856,0.07856,0.07856,0.07856,0,0.7855800000000001
2011-11-23,0.07856,0.07856,0.07856,0.07856,0,0.7855800000000001
2011-11-24,0.0951,0.1075,0.0951,0.1075,1500,1.075
2011-11-25,0.1075,0.1075,0.1075,0.1075,0,1.075
2011-11-28,0.1075,0.1075,0.1075,0.1075,0,1.075
2011-11-29,0.1075,0.1075,0.1075,0.1075,0,1.075
2011-11-30,0.1075,0.1075,0.1075,0.1075,0,1.075
2011-12-01,0.1075,0.1075,0.1075,0.1075,0,1.075
2011-12-02,0.1075,0.1075,0.1075,0.1075,0,1.075
2011-12-05,0.1075,0.1075,0.1075,0.1075,0,1.075
2011-12-06,0.1075,0.1075,0.1075,0.1075,0,1.075
2011-12-07,0.1075,0.1075,0.1075,0.1075,0,1.075
2011-12-08,0.1075,0.1075,0.1075,0.1075,0,1.075
2011-12-09,0.1075,0.1075,0.1075,0.1075,0,1.075
2011-12-12,0.1075,0.1075,0.1075,0.1075,0,1.075
2011-12-13,0.1075,0.1075,0.1075,0.1075,0,1.075
2011-12-14,0.1075,0.1075,0.1075,0.1075,0,1.075
2011-12-15,0.1075,0.1075,0.1075,0.1075,0,1.075
2011-12-16,0.1075,0.1075,0.1075,0.1075,0,1.075
2011-12-19,0.1075,0.1075,0.1075,0.1075,0,1.075
2011-12-20,0.1075,0.1075,0.1075,0.1075,0,1.075
2011-12-21,0.1075,0.1075,0.1075,0.1075,0,1.075
2011-12-22,0.1075,0.1075,0.1075,0.1075,0,1.075
2011-12-23,0.1075,0.1075,0.1075,0.1075,0,1.075
2011-12-26,0.1075,0.1075,0.1075,0.1075,0,1.075
2011-12-27,0.1075,0.1075,0.1075,0.1075,0,1.075
2011-12-28,0.08269,0.08269,0.08269,0.08269,2400,0.8269200000000001
2011-12-29,0.08269,0.08269,0.08269,0.08269,0,0.8269200000000001
2011-12-30,0.08269,0.08269,0.08269,0.08269,0,0.8269200000000001
2012-01-02,0.08269,0.08269,0.08269,0.08269,0,0.8269200000000001
2012-01-03,0.08269,0.08269,0.08269,0.08269,0,0.8269200000000001
2012-01-04,0.08269,0.08269,0.08269,0.08269,0,0.8269200000000001
2012-01-05,0.08269,0.08269,0.08269,0.08269,0,0.8269200000000001
2012-01-06,0.08269,0.08269,0.08269,0.08269,0,0.8269200000000001
2012-01-09,0.08269,0.08269,0.08269,0.08269,0,0.8269200000000001
2012-01-10,0.08269,0.08269,0.08269,0.08269,0,0.8269200000000001
2012-01-11,0.08269,0.08269,0.08269,0.08269,0,0.8269200000000001
2012-01-12,0.08269,0.08269,0.08269,0.08269,0,0.8269200000000001
2012-01-13,0.08269,0.08269,0.08269,0.08269,0,0.8269200000000001
2012-01-16,0.08269,0.08269,0.08269,0.08269,0,0.8269200000000001
2012-01-17,0.08269,0.08269,0.08269,0.08269,0,0.8269200000000001
2012-01-18,0.08269,0.08269,0.08269,0.08269,0,0.8269200000000001
2012-01-19,0.08269,0.08269,0.08269,0.08269,4800,0.8269200000000001
2012-01-20,0.08269,0.08269,0.08269,0.08269,1200,0.8269200000000001
2012-01-23,0.08269,0.08269,0.08269,0.08269,0,0.8269200000000001
2012-01-24,0.08269,0.08269,0.08269,0.08269,0,0.8269200000000001
2012-01-25,0.08269,0.08269,0.08269,0.08269,0,0.8269200000000001
2012-01-26,0.08269,0.08269,0.08269,0.08269,0,0.8269200000000001
2012-01-27,0.08269,0.08269,0.08269,0.08269,0,0.8269200000000001
2012-01-31,0.08269,0.08269,0.08269,0.08269,0,0.8269200000000001
2012-02-01,0.08269,0.08269,0.08269,0.08269,0,0.8269200000000001
2012-02-02,0.08269,0.08269,0.08269,0.08269,0,0.8269200000000001
2012-02-03,0.08269,0.08269,0.08269,0.08269,0,0.8269200000000001
2012-02-06,0.08269,0.08269,0.08269,0.08269,0,0.8269200000000001
2012-02-07,0.062020000000000006,0.062020000000000006,0.062020000000000006,0.062020000000000006,1800,0.62019
2012-02-08,0.062020000000000006,0.062020000000000006,0.062020000000000006,0.062020000000000006,0,0.62019
2012-02-09,0.062020000000000006,0.062020000000000006,0.062020000000000006,0.062020000000000006,0,0.62019
2012-02-10,0.062020000000000006,0.062020000000000006,0.062020000000000006,0.062020000000000006,0,0.62019
2012-02-13,0.062020000000000006,0.062020000000000006,0.062020000000000006,0.062020000000000006,0,0.62019
2012-02-14,0.062020000000000006,0.062020000000000006,0.062020000000000006,0.062020000000000006,0,0.62019
2012-02-15,0.062020000000000006,0.062020000000000006,0.062020000000000006,0.062020000000000006,0,0.62019
2012-02-16,0.062020000000000006,0.062020000000000006,0.062020000000000006,0.062020000000000006,0,0.62019
2012-02-17,0.062020000000000006,0.062020000000000006,0.062020000000000006,0.062020000000000006,0,0.62019
2012-02-20,0.062020000000000006,0.062020000000000006,0.062020000000000006,0.062020000000000006,0,0.62019
2012-02-21,0.062020000000000006,0.062020000000000006,0.062020000000000006,0.062020000000000006,31400,0.62019
2012-02-22,0.062020000000000006,0.062020000000000006,0.062020000000000006,0.062020000000000006,53200,0.62019
2012-02-23,0.062020000000000006,0.062020000000000006,0.062020000000000006,0.062020000000000006,0,0.62019
2012-02-24,0.062020000000000006,0.062020000000000006,0.062020000000000006,0.062020000000000006,0,0.62019
2012-02-27,0.062020000000000006,0.062020000000000006,0.062020000000000006,0.062020000000000006,0,0.62019
2012-02-28,0.062020000000000006,0.062020000000000006,0.062020000000000006,0.062020000000000006,0,0.62019
2012-02-29,0.062020000000000006,0.062020000000000006,0.062020000000000006,0.062020000000000006,0,0.62019
2012-03-01,0.062020000000000006,0.062020000000000006,0.062020000000000006,0.062020000000000006,0,0.62019
2012-03-02,0.062020000000000006,0.062020000000000006,0.062020000000000006,0.062020000000000006,0,0.62019
2012-03-05,0.062020000000000006,0.062020000000000006,0.062020000000000006,0.062020000000000006,0,0.62019
2012-03-06,0.062020000000000006,0.062020000000000006,0.062020000000000006,0.062020000000000006,0,0.62019
2012-03-07,0.062020000000000006,0.062020000000000006,0.062020000000000006,0.062020000000000006,0,0.62019
2012-03-08,0.062020000000000006,0.062020000000000006,0.062020000000000006,0.062020000000000006,0,0.62019
2012-03-09,0.062020000000000006,0.062020000000000006,0.062020000000000006,0.062020000000000006,0,0.62019
2012-03-12,0.07277,0.0736,0.07277,0.0736,1800,0.7359600000000001
2012-03-13,0.0736,0.0736,0.0736,0.0736,0,0.7359600000000001
2012-03-14,0.0736,0.0736,0.0736,0.0736,0,0.7359600000000001
2012-03-15,0.062020000000000006,0.062020000000000006,0.062020000000000006,0.062020000000000006,1200,0.62019
2012-03-16,0.062020000000000006,0.062020000000000006,0.062020000000000006,0.062020000000000006,0,0.62019
2012-03-19,0.062020000000000006,0.062020000000000006,0.062020000000000006,0.062020000000000006,0,0.62019
2012-03-20,0.062020000000000006,0.062020000000000006,0.062020000000000006,0.062020000000000006,0,0.62019
2012-03-21,0.062020000000000006,0.062020000000000006,0.062020000000000006,0.062020000000000006,0,0.62019
2012-03-22,0.062020000000000006,0.062020000000000006,0.062020000000000006,0.062020000000000006,4800,0.62019
2012-03-23,0.062020000000000006,0.062020000000000006,0.062020000000000006,0.062020000000000006,0,0.62019
2012-03-26,0.062020000000000006,0.062020000000000006,0.062020000000000006,0.062020000000000006,0,0.62019
2012-03-27,0.062020000000000006,0.062020000000000006,0.062020000000000006,0.062020000000000006,0,0.62019
2012-03-28,0.062020000000000006,0.062020000000000006,0.062020000000000006,0.062020000000000006,9100,0.62019
2012-03-29,0.05375,0.05375,0.05375,0.05375,900,0.5375
2012-03-30,0.05375,0.05375,0.05375,0.05375,900,0.5375
2012-04-02,0.05375,0.05375,0.05375,0.05375,0,0.5375
2012-04-03,0.05375,0.05375,0.05375,0.05375,0,0.5375
2012-04-04,0.05375,0.05375,0.05375,0.05375,0,0.5375
2012-04-05,0.05375,0.05375,0.05375,0.05375,0,0.5375
2012-04-06,0.05375,0.05375,0.05375,0.05375,0,0.5375
2012-04-09,0.05375,0.05375,0.05375,0.05375,0,0.5375
2012-04-10,0.05375,0.05375,0.05375,0.05375,0,0.5375
2012-04-11,0.05375,0.05375,0.05375,0.05375,0,0.5375
2012-04-12,0.05375,0.05375,0.05375,0.05375,0,0.5375
2012-04-13,0.05375,0.05375,0.05375,0.05375,0,0.5375
2012-04-16,0.04135,0.04135,0.04135,0.04135,1200,0.41346000000000005
2012-04-17,0.04135,0.04135,0.04135,0.04135,0,0.41346000000000005
2012-04-18,0.04135,0.04135,0.04135,0.04135,0,0.41346000000000005
2012-04-19,0.04135,0.04135,0.04135,0.04135,0,0.41346000000000005
2012-04-20,0.04135,0.04135,0.04135,0.04135,0,0.41346000000000005
2012-04-23,0.03308,0.03308,0.03308,0.03308,2500,0.33077
2012-04-24,0.04135,0.04135,0.04135,0.04135,3200,0.41346000000000005
2012-04-25,0.04135,0.04135,0.04135,0.04135,0,0.41346000000000005
2012-04-26,0.04135,0.04135,0.04135,0.04135,0,0.41346000000000005
2012-04-27,0.04135,0.04135,0.04135,0.04135,0,0.41346000000000005
2012-04-30,0.04135,0.04135,0.04135,0.04135,0,0.41346000000000005
2012-05-01,0.04135,0.04135,0.04135,0.04135,0,0.41346000000000005
2012-05-02,0.04135,0.04135,0.04135,0.04135,0,0.41346000000000005
2012-05-03,0.04135,0.04217,0.04135,0.04135,6000,0.41346000000000005
2012-05-04,0.04135,0.04135,0.04135,0.04135,1200,0.41346000000000005
2012-05-07,0.04135,0.04135,0.04135,0.04135,0,0.41346000000000005
2012-05-08,0.04135,0.04135,0.04135,0.04135,0,0.41346000000000005
2012-05-09,0.04135,0.04135,0.04135,0.04135,0,0.41346000000000005
2012-05-10,0.04135,0.04135,0.04135,0.04135,0,0.41346000000000005
2012-05-11,0.04135,0.04135,0.04135,0.04135,0,0.41346000000000005
2012-05-14,0.04135,0.04135,0.04135,0.04135,1200,0.41346000000000005
2012-05-15,0.04135,0.04135,0.04135,0.04135,0,0.41346000000000005
2012-05-16,0.04135,0.04135,0.04135,0.04135,1200,0.41346000000000005
2012-05-17,0.04135,0.04135,0.04135,0.04135,0,0.41346000000000005
2012-05-18,0.04135,0.04135,0.04135,0.04135,0,0.41346000000000005
2012-05-21,0.04135,0.04135,0.04135,0.04135,0,0.41346000000000005
2012-05-22,0.04135,0.04135,0.04135,0.04135,0,0.41346000000000005
2012-05-23,0.04135,0.04135,0.04135,0.04135,0,0.41346000000000005
2012-05-24,0.04135,0.04135,0.04135,0.04135,0,0.41346000000000005
2012-05-25,0.04135,0.04135,0.04135,0.04135,0,0.41346000000000005
2012-05-28,0.04135,0.04135,0.04135,0.04135,0,0.41346000000000005
2012-05-29,0.04135,0.04135,0.04135,0.04135,0,0.41346000000000005
2012-05-30,0.04135,0.04135,0.04135,0.04135,0,0.41346000000000005
2012-05-31,0.04135,0.04135,0.04135,0.04135,0,0.41346000000000005
2012-06-01,0.04135,0.04135,0.04135,0.04135,0,0.41346000000000005
2012-06-04,0.04135,0.04135,0.04135,0.04135,0,0.41346000000000005
2012-06-05,0.04135,0.04135,0.04135,0.04135,0,0.41346000000000005
2012-06-06,0.04135,0.04135,0.04135,0.04135,0,0.41346000000000005
2012-06-07,0.04135,0.04135,0.04135,0.04135,0,0.41346000000000005
2012-06-08,0.04135,0.04135,0.04135,0.04135,0,0.41346000000000005
2012-06-11,0.04135,0.04135,0.04135,0.04135,0,0.41346000000000005
2012-06-12,0.04135,0.04135,0.04135,0.04135,300,0.41346000000000005
2012-06-13,0.04135,0.04135,0.04135,0.04135,0,0.41346000000000005
2012-06-14,0.04135,0.04135,0.04135,0.04135,0,0.41346000000000005
2012-06-15,0.04135,0.04135,0.04135,0.04135,0,0.41346000000000005
2012-06-18,0.04135,0.04135,0.04135,0.04135,0,0.41346000000000005
2012-06-19,0.04052,0.04135,0.04052,0.04135,12000,0.41346000000000005
2012-06-20,0.04135,0.04135,0.04135,0.04135,21400,0.41346000000000005
2012-06-21,0.04135,0.04135,0.04135,0.04135,0,0.41346000000000005
2012-06-22,0.04135,0.04135,0.04135,0.04135,0,0.41346000000000005
2012-06-25,0.04135,0.04135,0.04135,0.04135,0,0.41346000000000005
2012-06-26,0.04135,0.04135,0.04135,0.04135,0,0.41346000000000005
2012-06-27,0.04135,0.04135,0.04135,0.04135,0,0.41346000000000005
2012-06-28,0.04135,0.04135,0.04135,0.04135,0,0.41346000000000005
2012-06-29,0.020669999999999997,0.0215,0.020669999999999997,0.0215,266600,0.215
2012-07-02,0.0215,0.0215,0.0215,0.0215,0,0.215
2012-07-03,0.0215,0.0215,0.0215,0.0215,0,0.215
2012-07-04,0.028939999999999997,0.028939999999999997,0.028939999999999997,0.028939999999999997,6000,0.28941999999999996
2012-07-05,0.028939999999999997,0.028939999999999997,0.028939999999999997,0.028939999999999997,0,0.28941999999999996
2012-07-06,0.028939999999999997,0.028939999999999997,0.028939999999999997,0.028939999999999997,0,0.28941999999999996
2012-07-09,0.03308,0.03308,0.03308,0.03308,6000,0.33077
2012-07-10,0.03308,0.03308,0.03308,0.03308,0,0.33077
2012-07-11,0.02481,0.02481,0.02481,0.02481,3000,0.24808000000000002
2012-07-12,0.02481,0.02481,0.02481,0.02481,0,0.24808000000000002
2012-07-13,0.02481,0.02481,0.02481,0.02481,0,0.24808000000000002
2012-07-16,0.02481,0.02481,0.02481,0.02481,0,0.24808000000000002
2012-07-17,0.02481,0.02481,0.02481,0.02481,0,0.24808000000000002
2012-07-18,0.02481,0.02481,0.02481,0.02481,0,0.24808000000000002
2012-07-19,0.02481,0.02481,0.02481,0.02481,9000,0.24808000000000002
2012-07-20,0.02481,0.02481,0.02481,0.02481,0,0.24808000000000002
2012-07-23,0.02481,0.02481,0.02481,0.02481,0,0.24808000000000002
2012-07-24,0.02481,0.02481,0.02481,0.02481,0,0.24808000000000002
2012-07-25,0.020669999999999997,0.020669999999999997,0.020669999999999997,0.020669999999999997,10900,0.20673000000000002
2012-07-26,0.020669999999999997,0.020669999999999997,0.020669999999999997,0.020669999999999997,2400,0.20673000000000002
2012-07-27,0.020669999999999997,0.020669999999999997,0.020669999999999997,0.020669999999999997,0,0.20673000000000002
2012-07-30,0.020669999999999997,0.020669999999999997,0.020669999999999997,0.020669999999999997,0,0.20673000000000002
2012-07-31,0.020669999999999997,0.020669999999999997,0.020669999999999997,0.020669999999999997,0,0.20673000000000002
2012-08-01,0.020669999999999997,0.020669999999999997,0.020669999999999997,0.020669999999999997,1100,0.20673000000000002
2012-08-02,0.020669999999999997,0.020669999999999997,0.020669999999999997,0.020669999999999997,0,0.20673000000000002
2012-08-03,0.020669999999999997,0.020669999999999997,0.020669999999999997,0.020669999999999997,0,0.20673000000000002
2012-08-06,0.020669999999999997,0.020669999999999997,0.020669999999999997,0.020669999999999997,0,0.20673000000000002
2012-08-07,0.020669999999999997,0.020669999999999997,0.020669999999999997,0.020669999999999997,0,0.20673000000000002
2012-08-08,0.020669999999999997,0.020669999999999997,0.020669999999999997,0.020669999999999997,0,0.20673000000000002
2012-08-09,0.020669999999999997,0.020669999999999997,0.020669999999999997,0.020669999999999997,0,0.20673000000000002
2012-08-10,0.020669999999999997,0.020669999999999997,0.020669999999999997,0.020669999999999997,0,0.20673000000000002
2012-08-13,0.020669999999999997,0.020669999999999997,0.020669999999999997,0.020669999999999997,0,0.20673000000000002
2012-08-14,0.020669999999999997,0.020669999999999997,0.020669999999999997,0.020669999999999997,0,0.20673000000000002
2012-08-15,0.020669999999999997,0.020669999999999997,0.020669999999999997,0.020669999999999997,0,0.20673000000000002
2012-08-16,0.020669999999999997,0.020669999999999997,0.020669999999999997,0.020669999999999997,0,0.20673000000000002
2012-08-17,0.020669999999999997,0.020669999999999997,0.020669999999999997,0.020669999999999997,0,0.20673000000000002
2012-08-20,0.020669999999999997,0.020669999999999997,0.020669999999999997,0.020669999999999997,0,0.20673000000000002
2012-08-21,0.020669999999999997,0.020669999999999997,0.020669999999999997,0.020669999999999997,0,0.20673000000000002
2012-08-22,0.020669999999999997,0.020669999999999997,0.020669999999999997,0.020669999999999997,0,0.20673000000000002
2012-08-23,0.020669999999999997,0.020669999999999997,0.020669999999999997,0.020669999999999997,0,0.20673000000000002
2012-08-24,0.022330000000000003,0.022330000000000003,0.022330000000000003,0.022330000000000003,1200,0.22326999999999997
2012-08-27,0.022330000000000003,0.022330000000000003,0.022330000000000003,0.022330000000000003,0,0.22326999999999997
2012-08-28,0.022330000000000003,0.022330000000000003,0.022330000000000003,0.022330000000000003,3600,0.22326999999999997
2012-08-29,0.022330000000000003,0.022330000000000003,0.022330000000000003,0.022330000000000003,0,0.22326999999999997
2012-08-30,0.022330000000000003,0.022330000000000003,0.022330000000000003,0.022330000000000003,0,0.22326999999999997
2012-08-31,0.022330000000000003,0.022330000000000003,0.022330000000000003,0.022330000000000003,0,0.22326999999999997
2012-09-03,0.022330000000000003,0.022330000000000003,0.022330000000000003,0.022330000000000003,0,0.22326999999999997
2012-09-04,0.022330000000000003,0.022330000000000003,0.022330000000000003,0.022330000000000003,0,0.22326999999999997
2012-09-05,0.022330000000000003,0.022330000000000003,0.022330000000000003,0.022330000000000003,0,0.22326999999999997
2012-09-06,0.022330000000000003,0.022330000000000003,0.022330000000000003,0.022330000000000003,0,0.22326999999999997
2012-09-07,0.022330000000000003,0.022330000000000003,0.022330000000000003,0.022330000000000003,0,0.22326999999999997
2012-09-10,0.022330000000000003,0.022330000000000003,0.022330000000000003,0.022330000000000003,0,0.22326999999999997
2012-09-11,0.022330000000000003,0.022330000000000003,0.022330000000000003,0.022330000000000003,0,0.22326999999999997
2012-09-12,0.022330000000000003,0.022330000000000003,0.022330000000000003,0.022330000000000003,0,0.22326999999999997
2012-09-13,0.022330000000000003,0.022330000000000003,0.022330000000000003,0.022330000000000003,0,0.22326999999999997
2012-09-14,0.022330000000000003,0.022330000000000003,0.022330000000000003,0.022330000000000003,0,0.22326999999999997
2012-09-17,0.022330000000000003,0.022330000000000003,0.022330000000000003,0.022330000000000003,0,0.22326999999999997
2012-09-18,0.022330000000000003,0.022330000000000003,0.022330000000000003,0.022330000000000003,0,0.22326999999999997
2012-09-19,0.022330000000000003,0.022330000000000003,0.022330000000000003,0.022330000000000003,0,0.22326999999999997
2012-09-20,0.02646,0.02646,0.02646,0.02646,1200,0.26461999999999997
2012-09-21,0.02646,0.02646,0.02646,0.02646,0,0.26461999999999997
2012-09-24,0.02646,0.02646,0.02646,0.02646,0,0.26461999999999997
2012-09-25,0.02646,0.02646,0.02646,0.02646,0,0.26461999999999997
2012-09-26,0.02646,0.02646,0.02646,0.02646,0,0.26461999999999997
2012-09-27,0.02646,0.02646,0.02646,0.02646,0,0.26461999999999997
2012-09-28,0.02646,0.02646,0.02646,0.02646,0,0.26461999999999997
2012-10-01,0.02646,0.02646,0.02646,0.02646,0,0.26461999999999997
2012-10-02,0.02646,0.02646,0.02646,0.02646,0,0.26461999999999997
2012-10-03,0.02646,0.02646,0.02646,0.02646,0,0.26461999999999997
2012-10-04,0.02646,0.02646,0.02646,0.02646,0,0.26461999999999997
2012-10-05,0.02646,0.02646,0.02646,0.02646,0,0.26461999999999997
2012-10-08,0.02646,0.02646,0.02646,0.02646,33200,0.26461999999999997
2012-10-09,0.02646,0.02646,0.02646,0.02646,0,0.26461999999999997
2012-10-10,0.02481,0.02481,0.02481,0.02481,10800,0.24808000000000002
2012-10-11,0.02481,0.02481,0.02481,0.02481,0,0.24808000000000002
2012-10-12,0.02481,0.02481,0.02481,0.02481,0,0.24808000000000002
2012-10-15,0.02481,0.02481,0.02481,0.02481,0,0.24808000000000002
2012-10-16,0.02481,0.02481,0.02481,0.02481,0,0.24808000000000002
2012-10-17,0.02481,0.02481,0.02481,0.02481,0,0.24808000000000002
2012-10-18,0.02481,0.02481,0.02481,0.02481,0,0.24808000000000002
2012-10-19,0.02481,0.02481,0.02481,0.02481,0,0.24808000000000002
2012-10-22,0.02481,0.02481,0.02481,0.02481,0,0.24808000000000002
2012-10-23,0.02481,0.02481,0.02481,0.02481,0,0.24808000000000002
2012-10-24,0.02481,0.02481,0.02481,0.02481,0,0.24808000000000002
2012-10-25,0.02481,0.02481,0.02481,0.02481,0,0.24808000000000002
2012-10-26,0.02481,0.02481,0.02481,0.02481,0,0.24808000000000002
2012-10-29,0.02481,0.02481,0.02481,0.02481,0,0.24808000000000002
2012-10-30,0.02481,0.02481,0.02481,0.02481,0,0.24808000000000002
2012-10-31,0.02481,0.02481,0.02481,0.02481,0,0.24808000000000002
2012-11-01,0.02481,0.02481,0.02481,0.02481,0,0.24808000000000002
2012-11-02,0.02481,0.02481,0.02481,0.02481,0,0.24808000000000002
2012-11-05,0.02481,0.02481,0.02481,0.02481,0,0.24808000000000002
2012-11-06,0.01902,0.01985,0.01902,0.01985,31800,0.19846
2012-11-07,0.01902,0.01902,0.01902,0.01902,6000,0.19019
2012-11-08,0.01902,0.01902,0.01902,0.01902,2500,0.19019
2012-11-09,0.01902,0.01902,0.01902,0.01902,0,0.19019
2012-11-12,0.01902,0.01902,0.01902,0.01902,0,0.19019
2012-11-13,0.01902,0.01902,0.01902,0.01902,12000,0.19019
2012-11-14,0.01902,0.01902,0.01902,0.01902,0,0.19019
2012-11-15,0.01902,0.01902,0.01902,0.01902,0,0.19019
2012-11-16,0.01902,0.01902,0.01902,0.01902,0,0.19019
2012-11-19,0.01902,0.01902,0.01902,0.01902,3000,0.19019
2012-11-20,0.01902,0.01902,0.01902,0.01902,0,0.19019
2012-11-21,0.01902,0.01902,0.01902,0.01902,0,0.19019
2012-11-22,0.01902,0.01902,0.01902,0.01902,0,0.19019
2012-11-23,0.01902,0.01902,0.01902,0.01902,0,0.19019
2012-11-26,0.01902,0.01902,0.01902,0.01902,0,0.19019
2012-11-27,0.01902,0.01902,0.01902,0.01902,0,0.19019
2012-11-28,0.01902,0.01902,0.01902,0.01902,0,0.19019
2012-11-29,0.01902,0.01902,0.01902,0.01902,0,0.19019
2012-11-30,0.01902,0.01902,0.01902,0.01902,0,0.19019
2012-12-03,0.01902,0.01902,0.01902,0.01902,0,0.19019
2012-12-04,0.01902,0.01902,0.01902,0.01902,0,0.19019
2012-12-05,0.01902,0.01902,0.01902,0.01902,0,0.19019
2012-12-06,0.01736,0.01736,0.01736,0.01736,12000,0.17365
2012-12-07,0.01736,0.01736,0.01736,0.01736,0,0.17365
2012-12-10,0.01736,0.01736,0.01736,0.01736,0,0.17365
2012-12-11,0.01736,0.01736,0.01736,0.01736,0,0.17365
2012-12-12,0.01736,0.01736,0.01736,0.01736,0,0.17365
2012-12-13,0.01736,0.01736,0.01736,0.01736,0,0.17365
2012-12-14,0.01736,0.01736,0.01736,0.01736,0,0.17365
2012-12-17,0.01736,0.01736,0.01736,0.01736,0,0.17365
2012-12-18,0.01736,0.01736,0.01736,0.01736,0,0.17365
2012-12-19,0.01736,0.01736,0.01736,0.01736,0,0.17365
2012-12-20,0.01736,0.01736,0.01736,0.01736,0,0.17365
2012-12-21,0.01736,0.01736,0.01736,0.01736,0,0.17365
2012-12-24,0.01736,0.01736,0.01736,0.01736,0,0.17365
2012-12-25,0.01736,0.01736,0.01736,0.01736,0,0.17365
2012-12-26,0.01736,0.01736,0.01736,0.01736,0,0.17365
2012-12-27,0.01736,0.01736,0.01736,0.01736,0,0.17365
2012-12-28,0.01736,0.01736,0.01736,0.01736,0,0.17365
2012-12-31,0.01736,0.01736,0.01736,0.01736,12000,0.17365
2013-01-01,0.01736,0.01736,0.01736,0.01736,0,0.17365
2013-01-02,0.01736,0.01736,0.01736,0.01736,0,0.17365
2013-01-03,0.01736,0.01736,0.01736,0.01736,0,0.17365
2013-01-04,0.01736,0.01736,0.01736,0.01736,0,0.17365
2013-01-07,0.01736,0.01736,0.01736,0.01736,0,0.17365
2013-01-08,0.01736,0.01736,0.01736,0.01736,0,0.17365
2013-01-09,0.01736,0.01736,0.01736,0.01736,0,0.17365
2013-01-10,0.01736,0.01736,0.01736,0.01736,0,0.17365
2013-01-11,0.01736,0.01736,0.01736,0.01736,0,0.17365
2013-01-14,0.01736,0.01736,0.01736,0.01736,0,0.17365
2013-01-15,0.01736,0.01736,0.01736,0.01736,0,0.17365
2013-01-16,0.01736,0.01736,0.01736,0.01736,0,0.17365
2013-01-17,0.01736,0.01736,0.01736,0.01736,0,0.17365
2013-01-18,0.01736,0.01736,0.01736,0.01736,0,0.17365
2013-01-21,0.01736,0.01736,0.01736,0.01736,0,0.17365
2013-01-22,0.01736,0.01736,0.01736,0.01736,0,0.17365
2013-01-23,0.01654,0.01654,0.01654,0.01654,1100,0.16538
2013-01-24,0.01654,0.01654,0.01654,0.01654,0,0.16538
2013-01-25,0.01654,0.01654,0.01654,0.01654,0,0.16538
2013-01-28,0.01654,0.01654,0.01654,0.01654,0,0.16538
2013-01-29,0.01654,0.01654,0.01654,0.01654,0,0.16538
2013-01-30,0.01654,0.01654,0.01654,0.01654,0,0.16538
2013-01-31,0.01654,0.01654,0.01654,0.01654,0,0.16538
2013-02-01,0.01654,0.01654,0.01654,0.01654,0,0.16538
2013-02-04,0.01654,0.01654,0.01654,0.01654,0,0.16538
2013-02-05,0.01488,0.01488,0.01488,0.01488,108800,0.14885
2013-02-06,0.01488,0.01488,0.01488,0.01488,0,0.14885
2013-02-07,0.01406,0.01406,0.01406,0.01406,12000,0.14057999999999998
2013-02-08,0.01406,0.01406,0.01406,0.01406,0,0.14057999999999998
2013-02-11,0.01406,0.01406,0.01406,0.01406,0,0.14057999999999998
2013-02-12,0.01406,0.01406,0.01406,0.01406,0,0.14057999999999998
2013-02-13,0.01406,0.01406,0.01406,0.01406,0,0.14057999999999998
2013-02-14,0.01406,0.01406,0.01406,0.01406,0,0.14057999999999998
2013-02-15,0.01654,0.01654,0.01654,0.01654,7800,0.16538
2013-02-18,0.020669999999999997,0.020669999999999997,0.020669999999999997,0.020669999999999997,33800,0.20673000000000002
2013-02-19,0.020669999999999997,0.020669999999999997,0.020669999999999997,0.020669999999999997,0,0.20673000000000002
2013-02-20,0.020669999999999997,0.020669999999999997,0.020669999999999997,0.020669999999999997,0,0.20673000000000002
2013-02-21,0.020669999999999997,0.020669999999999997,0.020669999999999997,0.020669999999999997,0,0.20673000000000002
2013-02-22,0.020669999999999997,0.020669999999999997,0.020669999999999997,0.020669999999999997,0,0.20673000000000002
2013-02-25,0.020669999999999997,0.020669999999999997,0.020669999999999997,0.020669999999999997,0,0.20673000000000002
2013-02-26,0.020669999999999997,0.020669999999999997,0.020669999999999997,0.020669999999999997,0,0.20673000000000002
2013-02-27,0.020669999999999997,0.020669999999999997,0.020669999999999997,0.020669999999999997,0,0.20673000000000002
2013-02-28,0.020669999999999997,0.020669999999999997,0.020669999999999997,0.020669999999999997,0,0.20673000000000002
2013-03-01,0.020669999999999997,0.020669999999999997,0.020669999999999997,0.020669999999999997,21100,0.20673000000000002
2013-03-04,0.020669999999999997,0.020669999999999997,0.020669999999999997,0.020669999999999997,0,0.20673000000000002
2013-03-05,0.020669999999999997,0.020669999999999997,0.020669999999999997,0.020669999999999997,0,0.20673000000000002
2013-03-06,0.020669999999999997,0.020669999999999997,0.020669999999999997,0.020669999999999997,0,0.20673000000000002
2013-03-07,0.020669999999999997,0.020669999999999997,0.020669999999999997,0.020669999999999997,0,0.20673000000000002
2013-03-08,0.020669999999999997,0.020669999999999997,0.020669999999999997,0.020669999999999997,0,0.20673000000000002
2013-03-11,0.020669999999999997,0.020669999999999997,0.020669999999999997,0.020669999999999997,0,0.20673000000000002
2013-03-12,0.020669999999999997,0.020669999999999997,0.020669999999999997,0.020669999999999997,0,0.20673000000000002
2013-03-13,0.01654,0.01654,0.01654,0.01654,5000,0.16538
2013-03-14,0.020669999999999997,0.020669999999999997,0.020669999999999997,0.020669999999999997,0,0.20673000000000002
2013-03-15,0.020669999999999997,0.020669999999999997,0.020669999999999997,0.020669999999999997,0,0.20673000000000002
2013-03-18,0.01654,0.01654,0.01654,0.01654,800,0.16538
2013-03-19,0.01654,0.01654,0.01654,0.01654,0,0.16538
2013-03-20,0.01654,0.01654,0.01654,0.01654,0,0.16538
2013-03-21,0.01654,0.01654,0.01654,0.01654,0,0.16538
2013-03-22,0.01654,0.01654,0.01654,0.01654,0,0.16538
2013-03-25,0.01654,0.01654,0.01654,0.01654,0,0.16538
2013-03-26,0.01571,0.01654,0.01571,0.01654,13200,0.16538
2013-03-27,0.0124,0.0124,0.0124,0.0124,8100,0.12404000000000001
2013-03-28,0.0091,0.0091,0.00827,0.00827,112700,0.08269
2013-03-29,0.00827,0.00827,0.00827,0.00827,0,0.08269
2013-04-01,0.00827,0.00827,0.00827,0.00827,0,0.08269
2013-04-02,0.00827,0.00827,0.00827,0.00827,114800,0.08269
2013-04-03,0.00827,0.00827,0.00827,0.00827,327300,0.08269
2013-04-04,0.00827,0.00827,0.00827,0.00827,0,0.08269
2013-04-05,0.00992,0.00992,0.00992,0.00992,12500,0.09923
2013-04-08,0.00992,0.00992,0.00992,0.00992,0,0.09923
2013-04-09,0.00992,0.00992,0.00992,0.00992,0,0.09923
2013-04-10,0.00992,0.00992,0.00992,0.00992,0,0.09923
2013-04-11,0.00992,0.00992,0.00992,0.00992,0,0.09923
2013-04-12,0.00992,0.00992,0.00992,0.00992,0,0.09923
2013-04-15,0.00992,0.00992,0.00992,0.00992,0,0.09923
2013-04-16,0.00992,0.00992,0.00992,0.00992,0,0.09923
2013-04-17,0.00992,0.00992,0.00992,0.00992,0,0.09923
2013-04-18,0.01075,0.01075,0.01075,0.01075,5400,0.1075
2013-04-19,0.01075,0.01075,0.01075,0.01075,0,0.1075
2013-04-22,0.01075,0.01075,0.01075,0.01075,0,0.1075
2013-04-23,0.01075,0.01075,0.01075,0.01075,0,0.1075
2013-04-24,0.01075,0.01075,0.01075,0.01075,0,0.1075
2013-04-25,0.01075,0.01075,0.01075,0.01075,0,0.1075
2013-04-26,0.01075,0.01075,0.01075,0.01075,0,0.1075
2013-04-29,0.01075,0.01075,0.01075,0.01075,0,0.1075
2013-04-30,0.01075,0.01075,0.01075,0.01075,0,0.1075
2013-05-01,0.01075,0.01075,0.01075,0.01075,0,0.1075
2013-05-02,0.01075,0.01075,0.01075,0.01075,0,0.1075
2013-05-03,0.01158,0.01158,0.01158,0.01158,1800,0.11577
2013-05-06,0.01158,0.01158,0.01158,0.01158,0,0.11577
2013-05-07,0.01158,0.01158,0.01158,0.01158,0,0.11577
2013-05-08,0.01158,0.01158,0.01158,0.01158,0,0.11577
2013-05-09,0.01158,0.01158,0.01158,0.01158,0,0.11577
2013-05-10,0.01158,0.01158,0.01158,0.01158,0,0.11577
2013-05-13,0.01158,0.01158,0.01158,0.01158,0,0.11577
2013-05-14,0.01158,0.01158,0.01158,0.01158,0,0.11577
2013-05-15,0.01158,0.01158,0.01158,0.01158,0,0.11577
2013-05-16,0.01158,0.01158,0.01158,0.01158,0,0.11577
2013-05-17,0.01158,0.01158,0.01158,0.01158,0,0.11577
2013-05-20,0.01075,0.01075,0.00992,0.00992,1200,0.09923
2013-05-21,0.00992,0.00992,0.00992,0.00992,0,0.09923
2013-05-22,0.00992,0.00992,0.00992,0.00992,1200,0.09923
2013-05-23,0.00992,0.00992,0.00992,0.00992,1500,0.09923
2013-05-24,0.00992,0.00992,0.00992,0.00992,0,0.09923
2013-05-27,0.0091,0.0091,0.0091,0.0091,13300,0.09096
2013-05-28,0.0091,0.0091,0.0091,0.0091,0,0.09096
2013-05-29,0.0091,0.0091,0.0091,0.0091,0,0.09096
2013-05-30,0.0091,0.0091,0.0091,0.0091,0,0.09096
2013-05-31,0.0091,0.0091,0.0091,0.0091,0,0.09096
2013-06-03,0.0091,0.0091,0.0091,0.0091,0,0.09096
2013-06-04,0.00827,0.00827,0.00827,0.00827,3000,0.08269
2013-06-05,0.00827,0.00827,0.00827,0.00827,0,0.08269
2013-06-06,0.00827,0.00827,0.00827,0.00827,69500,0.08269
2013-06-07,0.00827,0.00827,0.00827,0.00827,0,0.08269
2013-06-10,0.00827,0.00827,0.00827,0.00827,0,0.08269
2013-06-11,0.00827,0.00827,0.00827,0.00827,0,0.08269
2013-06-12,0.00662,0.00827,0.00662,0.00827,6600,0.08269
2013-06-13,0.00827,0.00827,0.00827,0.00827,0,0.08269
2013-06-14,0.0091,0.0091,0.0091,0.0091,4500,0.09096
2013-06-17,0.0091,0.0091,0.0091,0.0091,1500,0.09096
2013-06-18,0.0091,0.0091,0.0091,0.0091,0,0.09096
2013-06-19,0.0091,0.0091,0.0091,0.0091,0,0.09096
2013-06-20,0.0091,0.0091,0.0091,0.0091,0,0.09096
2013-06-21,0.0091,0.0091,0.0091,0.0091,0,0.09096
2013-06-24,0.0091,0.0091,0.0091,0.0091,0,0.09096
2013-06-25,0.00992,0.00992,0.00992,0.00992,21100,0.09923
2013-06-26,0.00992,0.00992,0.00992,0.00992,9000,0.09923
2013-06-27,0.00992,0.00992,0.00992,0.00992,59200,0.09923
2013-06-28,0.00992,0.00992,0.00992,0.00992,0,0.09923
2013-07-01,0.00992,0.00992,0.00992,0.00992,0,0.09923
2013-07-02,0.00992,0.00992,0.00992,0.00992,0,0.09923
2013-07-03,0.00992,0.00992,0.00992,0.00992,0,0.09923
2013-07-04,0.00992,0.00992,0.00992,0.00992,0,0.09923
2013-07-05,0.01406,0.01488,0.01406,0.01488,67300,0.14885
2013-07-08,0.01488,0.01488,0.01488,0.01488,0,0.14885
2013-07-09,0.01488,0.01488,0.01488,0.01488,0,0.14885
2013-07-10,0.01488,0.01488,0.01488,0.01488,0,0.14885
2013-07-11,0.01488,0.01488,0.01488,0.01488,0,0.14885
2013-07-12,0.01488,0.01488,0.01488,0.01488,0,0.14885
2013-07-15,0.01488,0.01488,0.01488,0.01488,0,0.14885
2013-07-16,0.01488,0.01488,0.01488,0.01488,0,0.14885
2013-07-17,0.01488,0.01488,0.01488,0.01488,0,0.14885
2013-07-18,0.01158,0.01158,0.01158,0.01158,1200,0.11577
2013-07-19,0.01158,0.01158,0.01158,0.01158,0,0.11577
2013-07-22,0.01075,0.01075,0.00992,0.00992,21100,0.09923
2013-07-23,0.00992,0.00992,0.00992,0.00992,0,0.09923
2013-07-24,0.00992,0.00992,0.00992,0.00992,0,0.09923
2013-07-25,0.00992,0.00992,0.00992,0.00992,0,0.09923
2013-07-26,0.00992,0.00992,0.00992,0.00992,0,0.09923
2013-07-29,0.00992,0.00992,0.00992,0.00992,1200,0.09923
2013-07-30,0.01158,0.01158,0.01158,0.01158,10600,0.11577
2013-07-31,0.01158,0.01158,0.01158,0.01158,0,0.11577
2013-08-01,0.01158,0.01158,0.01158,0.01158,0,0.11577
2013-08-02,0.01158,0.01158,0.01158,0.01158,0,0.11577
2013-08-05,0.01158,0.01158,0.01158,0.01158,0,0.11577
2013-08-06,0.01158,0.01158,0.01158,0.01158,0,0.11577
2013-08-07,0.01158,0.01158,0.01158,0.01158,0,0.11577
2013-08-08,0.01158,0.01158,0.01158,0.01158,0,0.11577
2013-08-09,0.01158,0.01158,0.01158,0.01158,0,0.11577
2013-08-12,0.01158,0.01158,0.01158,0.01158,0,0.11577
2013-08-13,0.01158,0.01158,0.01158,0.01158,0,0.11577
2013-08-14,0.01158,0.01158,0.01158,0.01158,0,0.11577
2013-08-15,0.01158,0.01158,0.01158,0.01158,0,0.11577
2013-08-16,0.01158,0.01158,0.01158,0.01158,0,0.11577
2013-08-19,0.01158,0.01158,0.01158,0.01158,0,0.11577
2013-08-20,0.01158,0.01158,0.01158,0.01158,0,0.11577
2013-08-21,0.01158,0.01158,0.01158,0.01158,0,0.11577
2013-08-22,0.01158,0.01158,0.01158,0.01158,0,0.11577
2013-08-23,0.01158,0.01158,0.01158,0.01158,0,0.11577
2013-08-26,0.01158,0.01158,0.01158,0.01158,0,0.11577
2013-08-27,0.01158,0.01158,0.01158,0.01158,0,0.11577
2013-08-28,0.01158,0.01158,0.01158,0.01158,0,0.11577
2013-08-29,0.01158,0.01158,0.01158,0.01158,0,0.11577
2013-08-30,0.01158,0.01158,0.01158,0.01158,0,0.11577
2013-09-02,0.01158,0.01158,0.01158,0.01158,0,0.11577
2013-09-03,0.01158,0.01158,0.01158,0.01158,0,0.11577
2013-09-04,0.01158,0.01158,0.01158,0.01158,0,0.11577
2013-09-05,0.01158,0.01158,0.01158,0.01158,0,0.11577
2013-09-06,0.01158,0.01158,0.01158,0.01158,0,0.11577
2013-09-09,0.01158,0.01158,0.01158,0.01158,0,0.11577
2013-09-10,0.01158,0.01158,0.01158,0.01158,0,0.11577
2013-09-11,0.01158,0.01158,0.01158,0.01158,0,0.11577
2013-09-12,0.01158,0.01158,0.01158,0.01158,0,0.11577
2013-09-13,0.01158,0.01158,0.01158,0.01158,0,0.11577
2013-09-16,0.01158,0.01158,0.01158,0.01158,0,0.11577
2013-09-17,0.01158,0.01158,0.01158,0.01158,0,0.11577
2013-09-18,0.01158,0.01158,0.01158,0.01158,0,0.11577
2013-09-19,0.01158,0.01158,0.01158,0.01158,0,0.11577
2013-09-20,0.01158,0.01158,0.01158,0.01158,0,0.11577
2013-09-23,0.01158,0.01158,0.01158,0.01158,0,0.11577
2013-09-24,0.01158,0.01158,0.01158,0.01158,0,0.11577
2013-09-25,0.01158,0.01158,0.01158,0.01158,0,0.11577
2013-09-26,0.01158,0.01158,0.01158,0.01158,0,0.11577
2013-09-27,0.01158,0.01158,0.01158,0.01158,0,0.11577
2013-09-30,0.01158,0.01158,0.01158,0.01158,0,0.11577
2013-10-01,0.01158,0.01158,0.01158,0.01158,0,0.11577
2013-10-02,0.01158,0.01158,0.01158,0.01158,0,0.11577
2013-10-03,0.01158,0.01158,0.01158,0.01158,0,0.11577
2013-10-04,0.01158,0.01158,0.01158,0.01158,0,0.11577
2013-10-07,0.01075,0.01075,0.01075,0.01075,6000,0.1075
2013-10-08,0.01075,0.01075,0.01075,0.01075,0,0.1075
2013-10-09,0.01075,0.01075,0.01075,0.01075,0,0.1075
2013-10-10,0.01075,0.01075,0.01075,0.01075,3900,0.1075
2013-10-11,0.00992,0.00992,0.00992,0.00992,120900,0.09923
2013-10-14,0.00992,0.00992,0.00992,0.00992,0,0.09923
2013-10-15,0.00992,0.00992,0.00992,0.00992,0,0.09923
2013-10-16,0.00992,0.00992,0.00992,0.00992,0,0.09923
2013-10-17,0.00992,0.00992,0.00992,0.00992,0,0.09923
2013-10-18,0.00992,0.00992,0.00992,0.00992,0,0.09923
2013-10-21,0.00827,0.00827,0.00827,0.00827,3400,0.08269
2013-10-22,0.00827,0.00827,0.00827,0.00827,2500,0.08269
2013-10-23,0.00827,0.00827,0.00827,0.00827,0,0.08269
2013-10-24,0.00827,0.00827,0.00827,0.00827,0,0.08269
2013-10-25,0.00827,0.00827,0.00827,0.00827,0,0.08269
2013-10-28,0.00827,0.00827,0.00827,0.00827,0,0.08269
2013-10-29,0.00827,0.00827,0.00827,0.00827,0,0.08269
2013-10-30,0.00827,0.00827,0.00827,0.00827,0,0.08269
2013-10-31,0.00827,0.00827,0.00827,0.00827,0,0.08269
2013-11-01,0.00827,0.00827,0.00827,0.00827,0,0.08269
2013-11-04,0.00827,0.00827,0.00827,0.00827,5400,0.08269
2013-11-05,0.00827,0.00827,0.00827,0.00827,0,0.08269
2013-11-06,0.00827,0.00827,0.00827,0.00827,0,0.08269
2013-11-07,0.00827,0.00827,0.00827,0.00827,0,0.08269
2013-11-08,0.00827,0.00827,0.00827,0.00827,0,0.08269
2013-11-11,0.00827,0.00827,0.00827,0.00827,0,0.08269
2013-11-12,0.00827,0.00827,0.00827,0.00827,0,0.08269
2013-11-13,0.00827,0.00827,0.00827,0.00827,0,0.08269
2013-11-14,0.00992,0.00992,0.00992,0.00992,9000,0.09923
2013-11-15,0.00992,0.00992,0.00992,0.00992,0,0.09923
2013-11-18,0.00992,0.00992,0.00992,0.00992,0,0.09923
2013-11-19,0.00992,0.00992,0.00992,0.00992,0,0.09923
2013-11-20,0.00992,0.00992,0.00992,0.00992,0,0.09923
2013-11-21,0.00992,0.00992,0.00992,0.00992,0,0.09923
2013-11-22,0.00992,0.00992,0.00992,0.00992,0,0.09923
2013-11-25,0.00992,0.00992,0.00992,0.00992,0,0.09923
2013-11-26,0.00992,0.00992,0.00992,0.00992,0,0.09923
2013-11-27,0.00992,0.00992,0.00992,0.00992,0,0.09923
2013-11-28,0.00992,0.00992,0.00992,0.00992,0,0.09923
2013-11-29,0.00992,0.00992,0.00992,0.00992,0,0.09923
2013-12-02,0.00992,0.00992,0.00992,0.00992,0,0.09923
2013-12-03,0.00992,0.00992,0.00992,0.00992,0,0.09923
2013-12-04,0.00992,0.00992,0.00992,0.00992,0,0.09923
2013-12-05,0.00992,0.00992,0.00992,0.00992,0,0.09923
2013-12-06,0.00992,0.00992,0.00992,0.00992,0,0.09923
2013-12-09,0.00992,0.00992,0.00992,0.00992,0,0.09923
2013-12-10,0.00992,0.00992,0.00992,0.00992,0,0.09923
2013-12-11,0.00992,0.00992,0.00992,0.00992,0,0.09923
2013-12-12,0.00992,0.00992,0.00992,0.00992,0,0.09923
2013-12-13,0.00992,0.00992,0.00992,0.00992,0,0.09923
2013-12-16,0.00992,0.00992,0.00992,0.00992,0,0.09923
2013-12-17,0.01075,0.01075,0.01075,0.01075,4200,0.1075
2013-12-18,0.01158,0.01158,0.01158,0.01158,1500,0.11577
2013-12-19,0.01158,0.01158,0.01158,0.01158,0,0.11577
2013-12-20,0.01158,0.01158,0.01158,0.01158,0,0.11577
2013-12-23,0.01158,0.01158,0.01158,0.01158,0,0.11577
2013-12-24,0.01158,0.01158,0.01158,0.01158,0,0.11577
2013-12-25,0.01158,0.01158,0.01158,0.01158,0,0.11577
2013-12-26,0.01158,0.01158,0.01158,0.01158,0,0.11577
2013-12-27,0.01158,0.01158,0.01158,0.01158,0,0.11577
2013-12-30,0.01158,0.01158,0.01158,0.01158,0,0.11577
2013-12-31,0.01158,0.01158,0.01158,0.01158,0,0.11577
2014-01-01,0.01158,0.01158,0.01158,0.01158,0,0.11577
2014-01-02,0.01158,0.01158,0.01158,0.01158,0,0.11577
2014-01-03,0.01158,0.01158,0.01158,0.01158,0,0.11577
2014-01-06,0.01158,0.01158,0.01158,0.01158,0,0.11577
2014-01-07,0.01158,0.01158,0.01158,0.01158,0,0.11577
2014-01-08,0.01158,0.01158,0.01158,0.01158,0,0.11577
2014-01-09,0.01158,0.01158,0.01158,0.01158,0,0.11577
2014-01-10,0.01158,0.01158,0.01158,0.01158,0,0.11577
2014-01-13,0.01158,0.01158,0.01158,0.01158,0,0.11577
2014-01-14,0.01158,0.01158,0.01158,0.01158,0,0.11577
2014-01-15,0.01158,0.01158,0.01158,0.01158,0,0.11577
2014-01-16,0.01158,0.01158,0.01158,0.01158,0,0.11577
2014-01-17,0.01654,0.01654,0.01654,0.01654,24100,0.16538
2014-01-20,0.01571,0.01571,0.01571,0.01571,6000,0.15712
2014-01-21,0.0124,0.0124,0.0124,0.0124,82500,0.12404000000000001
2014-01-22,0.0124,0.0124,0.0124,0.0124,0,0.12404000000000001
2014-01-23,0.01819,0.01819,0.01819,0.01819,36200,0.18192
2014-01-24,0.01819,0.01819,0.01819,0.01819,0,0.18192
2014-01-27,0.01819,0.01819,0.01819,0.01819,0,0.18192
2014-01-28,0.01819,0.01819,0.01819,0.01819,0,0.18192
2014-01-29,0.01819,0.01819,0.01819,0.01819,0,0.18192
2014-01-30,0.01819,0.01819,0.01819,0.01819,0,0.18192
2014-01-31,0.01819,0.01819,0.01819,0.01819,0,0.18192
2014-02-03,0.01819,0.01819,0.01819,0.01819,0,0.18192
2014-02-04,0.01819,0.01819,0.01819,0.01819,0,0.18192
2014-02-05,0.020669999999999997,0.020669999999999997,0.01819,0.01819,31500,0.18192
2014-02-06,0.01819,0.01819,0.01819,0.01819,0,0.18192
2014-02-07,0.01819,0.01819,0.01819,0.01819,48300,0.18192
2014-02-10,0.01819,0.01819,0.01819,0.01819,0,0.18192
2014-02-11,0.01819,0.01819,0.01819,0.01819,0,0.18192
2014-02-12,0.01819,0.01819,0.01819,0.01819,0,0.18192
2014-02-13,0.01819,0.01819,0.01819,0.01819,0,0.18192
2014-02-14,0.01819,0.01819,0.01819,0.01819,0,0.18192
2014-02-17,0.01819,0.01819,0.01819,0.01819,0,0.18192
2014-02-18,0.01819,0.01819,0.01819,0.01819,69200,0.18192
2014-02-19,0.01819,0.01819,0.01819,0.01819,0,0.18192
2014-02-20,0.01819,0.01819,0.01819,0.01819,0,0.18192
2014-02-21,0.01819,0.01819,0.01819,0.01819,0,0.18192
2014-02-24,0.01819,0.01819,0.01819,0.01819,0,0.18192
2014-02-25,0.01819,0.01819,0.01819,0.01819,0,0.18192
2014-02-26,0.01654,0.01654,0.01654,0.01654,3000,0.16538
2014-02-27,0.01654,0.01654,0.01654,0.01654,0,0.16538
2014-02-28,0.01654,0.01654,0.01654,0.01654,0,0.16538
2014-03-03,0.01654,0.01654,0.01654,0.01654,0,0.16538
2014-03-04,0.01654,0.01654,0.01654,0.01654,0,0.16538
2014-03-05,0.01654,0.01654,0.01654,0.01654,0,0.16538
2014-03-06,0.01654,0.01654,0.01654,0.01654,0,0.16538
2014-03-07,0.01654,0.01654,0.01654,0.01654,0,0.16538
2014-03-10,0.01654,0.01654,0.01654,0.01654,0,0.16538
2014-03-11,0.01654,0.01654,0.01654,0.01654,0,0.16538
2014-03-12,0.01654,0.01654,0.01654,0.01654,0,0.16538
2014-03-13,0.01654,0.01654,0.01654,0.01654,4800,0.16538
2014-03-14,0.01654,0.01654,0.01654,0.01654,0,0.16538
2014-03-17,0.01654,0.01654,0.01654,0.01654,0,0.16538
2014-03-18,0.01654,0.01654,0.01654,0.01654,0,0.16538
2014-03-19,0.01654,0.01654,0.01654,0.01654,0,0.16538
2014-03-20,0.01654,0.01654,0.01654,0.01654,0,0.16538
2014-03-21,0.01654,0.01654,0.01654,0.01654,0,0.16538
2014-03-24,0.01654,0.01654,0.01654,0.01654,0,0.16538
2014-03-25,0.01654,0.01654,0.01654,0.01654,0,0.16538
2014-03-26,0.01654,0.01654,0.01654,0.01654,0,0.16538
2014-03-27,0.01654,0.01654,0.01654,0.01654,0,0.16538
2014-03-28,0.01654,0.01654,0.01654,0.01654,0,0.16538
2014-03-31,0.01654,0.01654,0.01654,0.01654,0,0.16538
2014-04-01,0.01654,0.01654,0.01654,0.01654,0,0.16538
2014-04-02,0.01654,0.01654,0.01654,0.01654,0,0.16538
2014-04-03,0.01654,0.01654,0.01654,0.01654,0,0.16538
2014-04-04,0.01654,0.01654,0.01654,0.01654,0,0.16538
2014-04-07,0.01654,0.01654,0.01654,0.01654,0,0.16538
2014-04-08,0.01654,0.01654,0.01654,0.01654,0,0.16538
2014-04-09,0.01654,0.01654,0.01654,0.01654,0,0.16538
2014-04-10,0.01654,0.01654,0.01654,0.01654,0,0.16538
2014-04-11,0.01654,0.01654,0.01654,0.01654,0,0.16538
2014-04-14,0.01654,0.01654,0.01654,0.01654,0,0.16538
2014-04-15,0.01654,0.01654,0.01654,0.01654,0,0.16538
2014-04-16,0.01654,0.01654,0.01654,0.01654,0,0.16538
2014-04-17,0.01654,0.01654,0.01654,0.01654,0,0.16538
2014-04-18,0.01654,0.01654,0.01654,0.01654,0,0.16538
2014-04-21,0.01654,0.01654,0.01654,0.01654,0,0.16538
2014-04-22,0.01654,0.01654,0.01654,0.01654,0,0.16538
2014-04-23,0.01654,0.01654,0.01654,0.01654,0,0.16538
2014-04-24,0.01406,0.01488,0.01406,0.01488,10500,0.14885
2014-04-25,0.01488,0.01488,0.01488,0.01488,0,0.14885
2014-04-28,0.01488,0.01488,0.01488,0.01488,0,0.14885
2014-04-29,0.0124,0.0124,0.0124,0.0124,1200,0.12404000000000001
2014-04-30,0.0124,0.0124,0.0124,0.0124,0,0.12404000000000001
2014-05-01,0.0124,0.0124,0.0124,0.0124,0,0.12404000000000001
2014-05-02,0.0124,0.0124,0.0124,0.0124,0,0.12404000000000001
2014-05-05,0.0124,0.0124,0.0124,0.0124,0,0.12404000000000001
2014-05-06,0.0124,0.0124,0.0124,0.0124,0,0.12404000000000001
2014-05-07,0.0124,0.0124,0.0124,0.0124,0,0.12404000000000001
2014-05-08,0.0124,0.0124,0.0124,0.0124,0,0.12404000000000001
2014-05-09,0.0124,0.0124,0.0124,0.0124,0,0.12404000000000001
2014-05-12,0.0124,0.0124,0.0124,0.0124,0,0.12404000000000001
2014-05-13,0.0124,0.0124,0.0124,0.0124,0,0.12404000000000001
2014-05-14,0.0124,0.0124,0.0124,0.0124,0,0.12404000000000001
2014-05-15,0.0124,0.0124,0.0124,0.0124,0,0.12404000000000001
2014-05-16,0.0124,0.0124,0.0124,0.0124,0,0.12404000000000001
2014-05-19,0.0124,0.0124,0.0124,0.0124,0,0.12404000000000001
2014-05-20,0.01075,0.01075,0.01075,0.01075,119700,0.1075
2014-05-21,0.01075,0.01075,0.00827,0.00827,190400,0.08269
2014-05-22,0.00827,0.00827,0.00827,0.00827,0,0.08269
2014-05-23,0.00827,0.00827,0.00827,0.00827,0,0.08269
2014-05-26,0.00827,0.00827,0.00827,0.00827,1200,0.08269
2014-05-27,0.00827,0.00827,0.00827,0.00827,0,0.08269
2014-05-28,0.00827,0.00827,0.00827,0.00827,0,0.08269
2014-05-29,0.00827,0.00827,0.00827,0.00827,6000,0.08269
2014-05-30,0.00827,0.00827,0.00827,0.00827,0,0.08269
2014-06-02,0.00827,0.00827,0.00827,0.00827,22600,0.08269
2014-06-03,0.00827,0.00827,0.00827,0.00827,0,0.08269
2014-06-04,0.00827,0.00827,0.00827,0.00827,0,0.08269
2014-06-05,0.00827,0.00827,0.00827,0.00827,0,0.08269
2014-06-06,0.00827,0.00827,0.00827,0.00827,0,0.08269
2014-06-09,0.00827,0.00827,0.00827,0.00827,0,0.08269
2014-06-10,0.00827,0.00827,0.00827,0.00827,0,0.08269
2014-06-11,0.00827,0.00827,0.00827,0.00827,0,0.08269
2014-06-12,0.00827,0.00827,0.00827,0.00827,0,0.08269
2014-06-13,0.00827,0.00827,0.00827,0.00827,0,0.08269
2014-06-16,0.00827,0.00827,0.00827,0.00827,0,0.08269
2014-06-17,0.00827,0.00827,0.00827,0.00827,3600,0.08269
2014-06-18,0.00827,0.00827,0.00827,0.00827,0,0.08269
2014-06-19,0.00992,0.00992,0.00992,0.00992,17800,0.09923
2014-06-20,0.00992,0.00992,0.00992,0.00992,6300,0.09923
2014-06-23,0.00992,0.00992,0.00992,0.00992,0,0.09923
2014-06-24,0.00992,0.00992,0.00992,0.00992,0,0.09923
2014-06-25,0.00992,0.00992,0.00992,0.00992,0,0.09923
2014-06-26,0.00992,0.00992,0.00992,0.00992,0,0.09923
2014-06-27,0.00992,0.00992,0.00992,0.00992,0,0.09923
2014-06-30,0.00992,0.00992,0.00992,0.00992,0,0.09923
2014-07-01,0.00992,0.00992,0.00992,0.00992,0,0.09923
2014-07-02,0.00992,0.00992,0.00992,0.00992,0,0.09923
2014-07-03,0.00992,0.00992,0.00992,0.00992,0,0.09923
2014-07-04,0.00992,0.00992,0.00992,0.00992,0,0.09923
2014-07-07,0.00992,0.00992,0.00992,0.00992,0,0.09923
2014-07-08,0.00992,0.00992,0.00992,0.00992,0,0.09923
2014-07-09,0.00992,0.00992,0.00992,0.00992,0,0.09923
2014-07-10,0.00992,0.00992,0.00992,0.00992,0,0.09923
2014-07-11,0.00992,0.00992,0.00992,0.00992,0,0.09923
2014-07-14,0.00992,0.00992,0.00992,0.00992,0,0.09923
2014-07-15,0.00992,0.00992,0.00992,0.00992,0,0.09923
2014-07-16,0.00992,0.00992,0.00992,0.00992,0,0.09923
2014-07-17,0.00992,0.00992,0.00992,0.00992,0,0.09923
2014-07-18,0.00992,0.00992,0.00992,0.00992,0,0.09923
2014-07-21,0.00992,0.00992,0.00992,0.00992,0,0.09923
2014-07-22,0.00992,0.00992,0.00992,0.00992,0,0.09923
2014-07-23,0.00992,0.00992,0.00992,0.00992,0,0.09923
2014-07-24,0.00992,0.00992,0.00992,0.00992,0,0.09923
2014-07-25,0.00992,0.00992,0.00992,0.00992,0,0.09923
2014-07-28,0.00992,0.00992,0.00992,0.00992,0,0.09923
2014-07-29,0.00992,0.00992,0.00992,0.00992,0,0.09923
2014-07-30,0.00992,0.00992,0.00992,0.00992,0,0.09923
2014-07-31,0.00992,0.00992,0.00992,0.00992,0,0.09923
2014-08-01,0.00992,0.00992,0.00992,0.00992,0,0.09923
2014-08-04,0.00992,0.00992,0.00992,0.00992,0,0.09923
2014-08-05,0.01075,0.01075,0.01075,0.01075,12000,0.1075
2014-08-06,0.01075,0.01075,0.01075,0.01075,0,0.1075
2014-08-07,0.01075,0.01075,0.01075,0.01075,4300,0.1075
2014-08-08,0.01075,0.01075,0.01075,0.01075,0,0.1075
2014-08-11,0.01075,0.01075,0.01075,0.01075,0,0.1075
2014-08-12,0.01075,0.01075,0.01075,0.01075,0,0.1075
2014-08-13,0.01075,0.01075,0.01075,0.01075,0,0.1075
2014-08-14,0.01075,0.01075,0.01075,0.01075,0,0.1075
2014-08-15,0.01075,0.01075,0.01075,0.01075,0,0.1075
2014-08-18,0.01075,0.01075,0.01075,0.01075,0,0.1075
2014-08-19,0.01075,0.01075,0.01075,0.01075,0,0.1075
2014-08-20,0.01075,0.01075,0.01075,0.01075,0,0.1075
2014-08-21,0.01075,0.01075,0.01075,0.01075,0,0.1075
2014-08-22,0.01075,0.01075,0.01075,0.01075,0,0.1075
2014-08-25,0.01075,0.01075,0.01075,0.01075,0,0.1075
2014-08-26,0.01075,0.01075,0.01075,0.01075,0,0.1075
2014-08-27,0.01075,0.01075,0.01075,0.01075,0,0.1075
2014-08-28,0.01075,0.01075,0.01075,0.01075,0,0.1075
2014-08-29,0.01075,0.01075,0.01075,0.01075,0,0.1075
2014-09-01,0.01075,0.01075,0.01075,0.01075,0,0.1075
2014-09-02,0.01075,0.01075,0.01075,0.01075,0,0.1075
2014-09-03,0.01075,0.01075,0.01075,0.01075,0,0.1075
2014-09-04,0.01075,0.01075,0.01075,0.01075,0,0.1075
2014-09-05,0.01075,0.01075,0.01075,0.01075,0,0.1075
2014-09-08,0.01075,0.01075,0.01075,0.01075,0,0.1075
2014-09-09,0.01075,0.01075,0.01075,0.01075,0,0.1075
2014-09-10,0.01075,0.01075,0.01075,0.01075,0,0.1075
2014-09-11,0.01571,0.01571,0.01571,0.01571,24100,0.15712
2014-09-12,0.01571,0.01571,0.01571,0.01571,0,0.15712
2014-09-15,0.01571,0.01571,0.01571,0.01571,0,0.15712
2014-09-16,0.01571,0.01571,0.01571,0.01571,0,0.15712
2014-09-17,0.01571,0.01571,0.01571,0.01571,0,0.15712
2014-09-18,0.01571,0.01571,0.01571,0.01571,0,0.15712
2014-09-19,0.01571,0.01571,0.01571,0.01571,0,0.15712
2014-09-22,0.01571,0.01571,0.01571,0.01571,0,0.15712
2014-09-23,0.01571,0.01571,0.01571,0.01571,0,0.15712
2014-09-24,0.01571,0.01571,0.01571,0.01571,0,0.15712
2014-09-25,0.01571,0.01571,0.01571,0.01571,0,0.15712
2014-09-26,0.01571,0.01571,0.01571,0.01571,0,0.15712
2014-09-29,0.01571,0.01571,0.01571,0.01571,0,0.15712
2014-09-30,0.01571,0.01571,0.01571,0.01571,0,0.15712
2014-10-01,0.01571,0.01571,0.01571,0.01571,0,0.15712
2014-10-02,0.01571,0.01571,0.01571,0.01571,0,0.15712
2014-10-03,0.01571,0.01571,0.01571,0.01571,0,0.15712
2014-10-06,0.01571,0.01571,0.01571,0.01571,0,0.15712
2014-10-07,0.01571,0.01571,0.01571,0.01571,0,0.15712
2014-10-08,0.01571,0.01571,0.01571,0.01571,0,0.15712
2014-10-09,0.01571,0.01571,0.01571,0.01571,0,0.15712
2014-10-10,0.01571,0.01571,0.01571,0.01571,0,0.15712
2014-10-13,0.01571,0.01571,0.01571,0.01571,0,0.15712
2014-10-14,0.01571,0.01571,0.01571,0.01571,0,0.15712
2014-10-15,0.0124,0.0124,0.0124,0.0124,6000,0.12404000000000001
2014-10-16,0.0124,0.0124,0.0124,0.0124,0,0.12404000000000001
2014-10-17,0.0124,0.0124,0.0124,0.0124,0,0.12404000000000001
2014-10-20,0.0124,0.0124,0.0124,0.0124,0,0.12404000000000001
2014-10-21,0.0124,0.0124,0.0124,0.0124,1800,0.12404000000000001
2014-10-22,0.0124,0.0124,0.0124,0.0124,0,0.12404000000000001
2014-10-23,0.0124,0.0124,0.0124,0.0124,3000,0.12404000000000001
2014-10-24,0.0124,0.0124,0.0124,0.0124,0,0.12404000000000001
2014-10-27,0.0124,0.0124,0.0124,0.0124,0,0.12404000000000001
2014-10-28,0.0124,0.0124,0.0124,0.0124,0,0.12404000000000001
2014-10-29,0.0124,0.0124,0.0124,0.0124,0,0.12404000000000001
2014-10-30,0.0124,0.0124,0.0124,0.0124,1500,0.12404000000000001
2014-10-31,0.0124,0.0124,0.0124,0.0124,0,0.12404000000000001
2014-11-03,0.0124,0.0124,0.0124,0.0124,4800,0.12404000000000001
2014-11-04,0.0124,0.0124,0.0124,0.0124,0,0.12404000000000001
2014-11-05,0.0124,0.0124,0.0124,0.0124,0,0.12404000000000001
2014-11-06,0.0124,0.0124,0.0124,0.0124,0,0.12404000000000001
2014-11-07,0.0124,0.0124,0.0124,0.0124,0,0.12404000000000001
2014-11-10,0.0124,0.0124,0.0124,0.0124,13600,0.12404000000000001
2014-11-11,0.0124,0.0124,0.0124,0.0124,4500,0.12404000000000001
2014-11-12,0.0124,0.0124,0.0124,0.0124,0,0.12404000000000001
2014-11-13,0.0124,0.0124,0.0124,0.0124,0,0.12404000000000001
2014-11-14,0.0124,0.0124,0.0124,0.0124,0,0.12404000000000001
2014-11-17,0.01158,0.01158,0.01158,0.01158,6600,0.11577
2014-11-18,0.01158,0.01158,0.01158,0.01158,0,0.11577
2014-11-19,0.01406,0.01406,0.01158,0.01158,60600,0.11577
2014-11-20,0.01158,0.01158,0.01158,0.01158,0,0.11577
2014-11-21,0.01158,0.01158,0.01158,0.01158,0,0.11577
2014-11-24,0.01158,0.01158,0.01158,0.01158,0,0.11577
2014-11-25,0.01158,0.01158,0.01158,0.01158,0,0.11577
2014-11-26,0.01158,0.01158,0.01158,0.01158,0,0.11577
2014-11-27,0.01158,0.01158,0.01158,0.01158,0,0.11577
2014-11-28,0.01158,0.01158,0.01158,0.01158,0,0.11577
2014-12-01,0.01158,0.01158,0.01158,0.01158,0,0.11577
2014-12-02,0.01158,0.01158,0.01158,0.01158,0,0.11577
2014-12-03,0.01158,0.01158,0.01158,0.01158,0,0.11577
2014-12-04,0.01158,0.01158,0.01158,0.01158,0,0.11577
2014-12-05,0.01158,0.01158,0.01158,0.01158,12000,0.11577
2014-12-08,0.01158,0.01158,0.01158,0.01158,0,0.11577
2014-12-09,0.01158,0.01158,0.01158,0.01158,0,0.11577
2014-12-10,0.01158,0.01158,0.01158,0.01158,0,0.11577
2014-12-11,0.01158,0.01158,0.01158,0.01158,0,0.11577
2014-12-12,0.01158,0.01158,0.01158,0.01158,0,0.11577
2014-12-15,0.01158,0.01158,0.01158,0.01158,0,0.11577
2014-12-16,0.01158,0.01158,0.01158,0.01158,0,0.11577
2014-12-17,0.01158,0.01158,0.01158,0.01158,0,0.11577
2014-12-18,0.01158,0.01158,0.01158,0.01158,0,0.11577
2014-12-19,0.01158,0.01158,0.01158,0.01158,0,0.11577
2014-12-22,0.01158,0.01158,0.01158,0.01158,0,0.11577
2014-12-23,0.01158,0.01158,0.01158,0.01158,0,0.11577
2014-12-24,0.01158,0.01158,0.01158,0.01158,0,0.11577
2014-12-25,0.01158,0.01158,0.01158,0.01158,0,0.11577
2014-12-26,0.01158,0.01158,0.01158,0.01158,0,0.11577
2014-12-29,0.01158,0.01158,0.01158,0.01158,0,0.11577
2014-12-30,0.01158,0.01158,0.01158,0.01158,0,0.11577
2014-12-31,0.01158,0.01158,0.01158,0.01158,0,0.11577
2015-01-01,0.01158,0.01158,0.01158,0.01158,0,0.11577
2015-01-02,0.01158,0.01158,0.01158,0.01158,0,0.11577
2015-01-05,0.01158,0.01158,0.01158,0.01158,0,0.11577
2015-01-06,0.01158,0.01158,0.01158,0.01158,0,0.11577
2015-01-07,0.01158,0.01158,0.01158,0.01158,0,0.11577
2015-01-08,0.01158,0.01158,0.01158,0.01158,0,0.11577
2015-01-09,0.01158,0.01158,0.01158,0.01158,0,0.11577
2015-01-12,0.01158,0.01158,0.01158,0.01158,0,0.11577
2015-01-13,0.01158,0.01158,0.01158,0.01158,0,0.11577
2015-01-14,0.01158,0.01158,0.01158,0.01158,0,0.11577
2015-01-15,0.01158,0.01158,0.01158,0.01158,0,0.11577
2015-01-16,0.00827,0.00827,0.00827,0.00827,5100,0.08269
2015-01-19,0.00827,0.00827,0.00827,0.00827,0,0.08269
2015-01-20,0.00827,0.00827,0.00827,0.00827,0,0.08269
2015-01-21,0.00827,0.00827,0.00827,0.00827,0,0.08269
2015-01-22,0.00827,0.00827,0.00827,0.00827,0,0.08269
2015-01-23,0.00827,0.00827,0.00827,0.00827,0,0.08269
2015-01-26,0.00827,0.00827,0.00827,0.00827,0,0.08269
2015-01-27,0.00827,0.00827,0.00827,0.00827,0,0.08269
2015-01-28,0.00827,0.00827,0.00827,0.00827,0,0.08269
2015-01-29,0.00827,0.00827,0.00827,0.00827,0,0.08269
2015-01-30,0.00827,0.00827,0.00827,0.00827,0,0.08269
2015-02-02,0.00827,0.00827,0.00827,0.00827,0,0.08269
2015-02-03,0.0124,0.0124,0.0124,0.0124,26000,0.12404000000000001
2015-02-04,0.0124,0.0124,0.0124,0.0124,0,0.12404000000000001
2015-02-05,0.0124,0.0124,0.0124,0.0124,0,0.12404000000000001
2015-02-06,0.0124,0.0124,0.0124,0.0124,0,0.12404000000000001
2015-02-09,0.0124,0.0124,0.0124,0.0124,0,0.12404000000000001
2015-02-10,0.0124,0.0124,0.0124,0.0124,0,0.12404000000000001
2015-02-11,0.0124,0.0124,0.0124,0.0124,0,0.12404000000000001
2015-02-12,0.0124,0.0124,0.0124,0.0124,0,0.12404000000000001
2015-02-13,0.0124,0.0124,0.0124,0.0124,0,0.12404000000000001
2015-02-16,0.0124,0.0124,0.0124,0.0124,0,0.12404000000000001
2015-02-17,0.0124,0.0124,0.0124,0.0124,0,0.12404000000000001
2015-02-18,0.0124,0.0124,0.0124,0.0124,0,0.12404000000000001
2015-02-19,0.0124,0.0124,0.0124,0.0124,0,0.12404000000000001
2015-02-20,0.0124,0.0124,0.0124,0.0124,0,0.12404000000000001
2015-02-23,0.0124,0.0124,0.0124,0.0124,5100,0.12404000000000001
2015-02-24,0.0124,0.0124,0.0124,0.0124,0,0.12404000000000001
2015-02-25,0.0124,0.0124,0.0124,0.0124,0,0.12404000000000001
2015-02-26,0.01158,0.01158,0.01158,0.01158,7800,0.11577
2015-02-27,0.01158,0.01158,0.01158,0.01158,0,0.11577
2015-03-02,0.01158,0.01158,0.01158,0.01158,0,0.11577
2015-03-03,0.01158,0.01158,0.01158,0.01158,0,0.11577
2015-03-04,0.01158,0.01158,0.01158,0.01158,0,0.11577
2015-03-05,0.01158,0.01158,0.01158,0.01158,0,0.11577
2015-03-06,0.01158,0.01158,0.01158,0.01158,0,0.11577
2015-03-09,0.01158,0.01158,0.01158,0.01158,0,0.11577
2015-03-10,0.01158,0.01158,0.01158,0.01158,0,0.11577
2015-03-11,0.01158,0.01158,0.01158,0.01158,0,0.11577
2015-03-12,0.01158,0.01158,0.01158,0.01158,0,0.11577
2015-03-13,0.01158,0.01158,0.01158,0.01158,0,0.11577
2015-03-16,0.00992,0.00992,0.00992,0.00992,19300,0.09923
2015-03-17,0.00992,0.00992,0.00992,0.00992,0,0.09923
2015-03-18,0.00992,0.00992,0.00992,0.00992,0,0.09923
2015-03-19,0.00992,0.00992,0.00992,0.00992,0,0.09923
2015-03-20,0.00992,0.00992,0.00992,0.00992,0,0.09923
2015-03-23,0.00992,0.00992,0.00992,0.00992,0,0.09923
2015-03-24,0.00992,0.00992,0.00992,0.00992,0,0.09923
2015-03-25,0.00992,0.00992,0.00992,0.00992,0,0.09923
2015-03-26,0.00992,0.00992,0.00992,0.00992,0,0.09923
2015-03-27,0.00992,0.00992,0.00992,0.00992,0,0.09923
2015-03-30,0.00992,0.00992,0.00992,0.00992,0,0.09923
2015-03-31,0.00992,0.00992,0.00992,0.00992,0,0.09923
2015-04-01,0.00992,0.00992,0.00992,0.00992,0,0.09923
2015-04-02,0.00992,0.00992,0.00992,0.00992,0,0.09923
2015-04-03,0.00992,0.00992,0.00992,0.00992,0,0.09923
2015-04-06,0.00992,0.00992,0.00992,0.00992,0,0.09923
2015-04-07,0.00992,0.00992,0.00992,0.00992,0,0.09923
2015-04-08,0.00992,0.00992,0.00992,0.00992,0,0.09923
2015-04-09,0.00992,0.00992,0.00992,0.00992,0,0.09923
2015-04-10,0.00992,0.00992,0.00992,0.00992,0,0.09923
2015-04-13,0.0124,0.0124,0.0124,0.0124,54400,0.12404000000000001
2015-04-14,0.01406,0.01819,0.01406,0.01736,260000,0.17365
2015-04-15,0.01736,0.01736,0.01736,0.01736,0,0.17365
2015-04-16,0.01654,0.01654,0.01571,0.01571,119700,0.15712
2015-04-17,0.01571,0.01571,0.01571,0.01571,0,0.15712
2015-04-20,0.01571,0.01571,0.01571,0.01571,78700,0.15712
2015-04-21,0.01488,0.01488,0.01406,0.01406,11700,0.14057999999999998
2015-04-22,0.0124,0.0124,0.0124,0.0124,18000,0.12404000000000001
2015-04-23,0.01158,0.01323,0.01158,0.01323,72400,0.13230999999999998
2015-04-24,0.01571,0.01654,0.01571,0.01654,72500,0.16538
2015-04-27,0.01654,0.01654,0.01654,0.01654,0,0.16538
2015-04-28,0.01323,0.01323,0.01323,0.01323,78600,0.13230999999999998
2015-04-29,0.01323,0.01323,0.01323,0.01323,0,0.13230999999999998
2015-04-30,0.0124,0.0124,0.0124,0.0124,66500,0.12404000000000001
2015-05-01,0.0124,0.01323,0.0124,0.01323,18200,0.13230999999999998
2015-05-04,0.01323,0.01323,0.01323,0.01323,0,0.13230999999999998
2015-05-05,0.01323,0.01323,0.01323,0.01323,0,0.13230999999999998
2015-05-06,0.01323,0.01323,0.01323,0.01323,0,0.13230999999999998
2015-05-07,0.01075,0.01075,0.01075,0.01075,42200,0.1075
2015-05-08,0.01075,0.01075,0.00992,0.00992,12000,0.09923
2015-05-11,0.00992,0.00992,0.00992,0.00992,0,0.09923
2015-05-12,0.00992,0.00992,0.00992,0.00992,0,0.09923
2015-05-13,0.00992,0.00992,0.00992,0.00992,0,0.09923
2015-05-14,0.00992,0.00992,0.00992,0.00992,0,0.09923
2015-05-15,0.00992,0.00992,0.00992,0.00992,0,0.09923
2015-05-18,0.00992,0.00992,0.00992,0.00992,0,0.09923
2015-05-19,0.00992,0.00992,0.00992,0.00992,0,0.09923
2015-05-20,0.01075,0.01075,0.01075,0.01075,36200,0.1075
2015-05-21,0.01075,0.01075,0.01075,0.01075,0,0.1075
2015-05-22,0.01075,0.01075,0.01075,0.01075,0,0.1075
2015-05-25,0.01075,0.01075,0.01075,0.01075,0,0.1075
2015-05-26,0.01075,0.01075,0.01075,0.01075,0,0.1075
2015-05-27,0.0124,0.0124,0.0124,0.0124,18100,0.12404000000000001
2015-05-28,0.0124,0.0124,0.0124,0.0124,0,0.12404000000000001
2015-05-29,0.0124,0.0124,0.0124,0.0124,0,0.12404000000000001
2015-06-01,0.0124,0.0124,0.0124,0.0124,30200,0.12404000000000001
2015-06-02,0.0124,0.0124,0.0124,0.0124,0,0.12404000000000001
2015-06-03,0.0124,0.0124,0.0124,0.0124,0,0.12404000000000001
2015-06-04,0.0124,0.0124,0.0124,0.0124,11900,0.12404000000000001
2015-06-05,0.0124,0.0124,0.0124,0.0124,0,0.12404000000000001
2015-06-08,0.0124,0.0124,0.0124,0.0124,0,0.12404000000000001
2015-06-09,0.0124,0.0124,0.0124,0.0124,100,0.12404000000000001
2015-06-10,0.0124,0.0124,0.0124,0.0124,0,0.12404000000000001
2015-06-11,0.0124,0.0124,0.0124,0.0124,0,0.12404000000000001
2015-06-12,0.0124,0.0124,0.0124,0.0124,0,0.12404000000000001
2015-06-15,0.0124,0.0124,0.0124,0.0124,0,0.12404000000000001
2015-06-16,0.0124,0.0124,0.0124,0.0124,0,0.12404000000000001
2015-06-17,0.0124,0.0124,0.0124,0.0124,0,0.12404000000000001
2015-06-18,0.0091,0.0091,0.0091,0.0091,4800,0.09096
2015-06-19,0.0091,0.0091,0.0091,0.0091,1000,0.09096
2015-06-22,0.0091,0.0091,0.0091,0.0091,0,0.09096
2015-06-23,0.00992,0.00992,0.00992,0.00992,15100,0.09923
2015-06-24,0.00992,0.00992,0.00992,0.00992,0,0.09923
2015-06-25,0.00992,0.00992,0.00992,0.00992,0,0.09923
2015-06-26,0.0091,0.0091,0.0091,0.0091,1200,0.09096
2015-06-29,0.0091,0.0091,0.0091,0.0091,0,0.09096
2015-06-30,0.0091,0.0091,0.0091,0.0091,3000,0.09096
2015-07-01,0.0091,0.0091,0.0091,0.0091,0,0.09096
2015-07-02,0.0091,0.0091,0.0091,0.0091,0,0.09096
2015-07-03,0.0091,0.0091,0.0091,0.0091,0,0.09096
2015-07-06,0.0091,0.0091,0.0091,0.0091,0,0.09096
2015-07-07,0.0091,0.0091,0.0091,0.0091,18100,0.09096
2015-07-08,0.0091,0.0091,0.0091,0.0091,0,0.09096
2015-07-09,0.0091,0.0091,0.0091,0.0091,0,0.09096
2015-07-10,0.0091,0.0091,0.0091,0.0091,0,0.09096
2015-07-13,0.0091,0.0091,0.0091,0.0091,0,0.09096
2015-07-14,0.0091,0.0091,0.0091,0.0091,0,0.09096
2015-07-15,0.0091,0.0091,0.0091,0.0091,0,0.09096
2015-07-16,0.0091,0.0091,0.0091,0.0091,0,0.09096
2015-07-17,0.0091,0.0091,0.0091,0.0091,0,0.09096
2015-07-20,0.0091,0.0091,0.0091,0.0091,0,0.09096
2015-07-21,0.0091,0.0091,0.0091,0.0091,0,0.09096
2015-07-22,0.0091,0.0091,0.0091,0.0091,6000,0.09096
2015-07-23,0.0091,0.0091,0.0091,0.0091,0,0.09096
2015-07-24,0.0091,0.0091,0.0091,0.0091,0,0.09096
2015-07-27,0.0091,0.0091,0.0091,0.0091,0,0.09096
2015-07-28,0.0091,0.0091,0.0091,0.0091,0,0.09096
2015-07-29,0.0091,0.0091,0.0091,0.0091,0,0.09096
2015-07-30,0.0091,0.0091,0.0091,0.0091,0,0.09096
2015-07-31,0.0091,0.0091,0.0091,0.0091,0,0.09096
2015-08-03,0.0091,0.0091,0.0091,0.0091,24100,0.09096
2015-08-04,0.0091,0.0091,0.0091,0.0091,0,0.09096
2015-08-05,0.0091,0.0091,0.0091,0.0091,0,0.09096
2015-08-06,0.0091,0.0091,0.0091,0.0091,0,0.09096
2015-08-07,0.0091,0.0091,0.0091,0.0091,0,0.09096
2015-08-10,0.0091,0.0091,0.0091,0.0091,0,0.09096
2015-08-11,0.0091,0.0091,0.0091,0.0091,0,0.09096
2015-08-12,0.0091,0.0091,0.0091,0.0091,0,0.09096
2015-08-13,0.0091,0.0091,0.0091,0.0091,0,0.09096
2015-08-14,0.0091,0.0091,0.0091,0.0091,0,0.09096
2015-08-17,0.0091,0.0091,0.0091,0.0091,0,0.09096
2015-08-18,0.0091,0.0091,0.0091,0.0091,0,0.09096
2015-08-19,0.0091,0.0091,0.0091,0.0091,0,0.09096
2015-08-20,0.0091,0.0091,0.0091,0.0091,0,0.09096
2015-08-24,0.0091,0.0091,0.0091,0.0091,0,0.09096
2015-08-25,0.0091,0.0091,0.0091,0.0091,0,0.09096
2015-08-26,0.0091,0.0091,0.0091,0.0091,0,0.09096
2015-08-27,0.0091,0.0091,0.0091,0.0091,0,0.09096
2015-08-28,0.0091,0.0091,0.0091,0.0091,0,0.09096
2015-08-31,0.00992,0.00992,0.00992,0.00992,3000,0.09923
2015-09-01,0.00992,0.00992,0.00992,0.00992,0,0.09923
2015-09-02,0.00992,0.00992,0.00992,0.00992,6000,0.09923
2015-09-03,0.00992,0.00992,0.00992,0.00992,0,0.09923
2015-09-04,0.00992,0.00992,0.00992,0.00992,0,0.09923
2015-09-07,0.00992,0.00992,0.00992,0.00992,0,0.09923
2015-09-08,0.00992,0.00992,0.00992,0.00992,0,0.09923
2015-09-09,0.00992,0.00992,0.00992,0.00992,0,0.09923
2015-09-10,0.00992,0.00992,0.00992,0.00992,0,0.09923
2015-09-11,0.00992,0.00992,0.00992,0.00992,0,0.09923
2015-09-14,0.00992,0.00992,0.00992,0.00992,0,0.09923
2015-09-15,0.00992,0.00992,0.00992,0.00992,0,0.09923
2015-09-16,0.00992,0.00992,0.00992,0.00992,0,0.09923
2015-09-17,0.00992,0.00992,0.00992,0.00992,0,0.09923
2015-09-18,0.00992,0.00992,0.00992,0.00992,0,0.09923
2015-09-21,0.00992,0.00992,0.00992,0.00992,0,0.09923
2015-09-22,0.00992,0.00992,0.00992,0.00992,0,0.09923
2015-09-23,0.00744,0.00744,0.00744,0.00744,6000,0.07442
2015-09-24,0.00744,0.00744,0.00744,0.00744,0,0.07442
2015-09-25,0.00744,0.00744,0.00744,0.00744,0,0.07442
2015-09-28,0.00744,0.00744,0.00744,0.00744,12000,0.07442
2015-09-29,0.00744,0.00744,0.00744,0.00744,0,0.07442
2015-09-30,0.00744,0.00744,0.00744,0.00744,0,0.07442
2015-10-01,0.00744,0.00744,0.00744,0.00744,0,0.07442
2015-10-02,0.00744,0.00744,0.00744,0.00744,0,0.07442
2015-10-05,0.00744,0.00744,0.00744,0.00744,0,0.07442
2015-10-06,0.00744,0.00744,0.00744,0.00744,0,0.07442
2015-10-07,0.00744,0.00744,0.00744,0.00744,0,0.07442
2015-10-08,0.00744,0.00744,0.00744,0.00744,0,0.07442
2015-10-09,0.00744,0.00744,0.00744,0.00744,0,0.07442
2015-10-12,0.00744,0.00744,0.00744,0.00744,0,0.07442
2015-10-13,0.00744,0.00744,0.00744,0.00744,0,0.07442
2015-10-14,0.00744,0.00744,0.00744,0.00744,0,0.07442
2015-10-15,0.00744,0.00744,0.00744,0.00744,0,0.07442
2015-10-16,0.00744,0.00744,0.00744,0.00744,0,0.07442
2015-10-19,0.00744,0.00744,0.00744,0.00744,0,0.07442
2015-10-20,0.00744,0.00744,0.00744,0.00744,0,0.07442
2015-10-21,0.00744,0.00744,0.00744,0.00744,0,0.07442
2015-10-22,0.00744,0.00744,0.00744,0.00744,0,0.07442
2015-10-23,0.00744,0.00744,0.00744,0.00744,0,0.07442
2015-10-26,0.00744,0.00744,0.00744,0.00744,0,0.07442
2015-10-27,0.00744,0.00744,0.00744,0.00744,0,0.07442
2015-10-28,0.00744,0.00744,0.00744,0.00744,2400,0.07442
2015-10-29,0.00744,0.00744,0.00744,0.00744,0,0.07442
2015-10-30,0.00744,0.00744,0.00744,0.00744,0,0.07442
2015-11-02,0.00744,0.00744,0.00744,0.00744,0,0.07442
2015-11-03,0.00744,0.00744,0.00744,0.00744,0,0.07442
2015-11-04,0.00744,0.00744,0.00744,0.00744,0,0.07442
2015-11-05,0.00744,0.00744,0.00744,0.00744,0,0.07442
2015-11-06,0.00744,0.00744,0.00744,0.00744,0,0.07442
2015-11-09,0.00744,0.00744,0.00744,0.00744,0,0.07442
2015-11-10,0.00744,0.00744,0.00744,0.00744,0,0.07442
2015-11-11,0.00744,0.00744,0.00744,0.00744,0,0.07442
2015-11-12,0.00744,0.00744,0.00744,0.00744,0,0.07442
2015-11-13,0.00744,0.00744,0.00744,0.00744,0,0.07442
2015-11-16,0.00744,0.00744,0.00744,0.00744,0,0.07442
2015-11-17,0.00744,0.00744,0.00744,0.00744,0,0.07442
2015-11-18,0.00744,0.00744,0.00744,0.00744,0,0.07442
2015-11-19,0.00744,0.00744,0.00744,0.00744,0,0.07442
2015-11-20,0.00744,0.00744,0.00744,0.00744,0,0.07442
2015-11-23,0.00744,0.00744,0.00744,0.00744,0,0.07442
2015-11-24,0.00744,0.00744,0.00744,0.00744,0,0.07442
2015-11-25,0.00744,0.00744,0.00744,0.00744,0,0.07442
2015-11-26,0.00744,0.00744,0.00744,0.00744,0,0.07442
2015-11-27,0.00744,0.00744,0.00744,0.00744,0,0.07442
2015-11-30,0.00744,0.00744,0.00744,0.00744,0,0.07442
2015-12-01,0.00744,0.00744,0.00744,0.00744,0,0.07442
2015-12-02,0.00744,0.00744,0.00744,0.00744,0,0.07442
2015-12-03,0.00744,0.00744,0.00744,0.00744,0,0.07442
2015-12-04,0.00744,0.00744,0.00744,0.00744,0,0.07442
2015-12-07,0.00744,0.00744,0.00744,0.00744,0,0.07442
2015-12-08,0.00744,0.00744,0.00744,0.00744,0,0.07442
2015-12-09,0.00744,0.00744,0.00744,0.00744,0,0.07442
2015-12-10,0.00744,0.00744,0.00744,0.00744,0,0.07442
2015-12-11,0.00744,0.00744,0.00744,0.00744,0,0.07442
2015-12-14,0.00744,0.00744,0.00744,0.00744,0,0.07442
2015-12-15,0.00744,0.00744,0.00744,0.00744,0,0.07442
2015-12-16,0.00744,0.00744,0.00744,0.00744,0,0.07442
2015-12-17,0.00744,0.00744,0.00744,0.00744,0,0.07442
2015-12-18,0.00744,0.00744,0.00744,0.00744,0,0.07442
2015-12-21,0.00744,0.00744,0.00744,0.00744,0,0.07442
2015-12-22,0.00744,0.00744,0.00744,0.00744,0,0.07442
2015-12-23,0.00744,0.00744,0.00744,0.00744,0,0.07442
2015-12-24,0.00744,0.00744,0.00744,0.00744,0,0.07442
2015-12-25,0.00744,0.00744,0.00744,0.00744,0,0.07442
2015-12-28,0.00744,0.00744,0.00744,0.00744,0,0.07442
2015-12-29,0.00744,0.00744,0.00744,0.00744,0,0.07442
2015-12-30,0.00744,0.00744,0.00744,0.00744,0,0.07442
2015-12-31,0.00744,0.00744,0.00744,0.00744,0,0.07442
2016-01-01,0.00744,0.00744,0.00744,0.00744,0,0.07442
2016-01-04,0.00744,0.00744,0.00744,0.00744,0,0.07442
2016-01-05,0.00744,0.00744,0.00744,0.00744,0,0.07442
2016-01-06,0.00744,0.00744,0.00744,0.00744,0,0.07442
2016-01-07,0.00744,0.00744,0.00744,0.00744,0,0.07442
2016-01-08,0.00744,0.00744,0.00744,0.00744,0,0.07442
2016-01-11,0.00744,0.00744,0.00744,0.00744,0,0.07442
2016-01-12,0.00744,0.00744,0.00744,0.00744,0,0.07442
2016-01-13,0.00744,0.00744,0.00744,0.00744,0,0.07442
2016-01-14,0.00827,0.00827,0.00827,0.00827,8600,0.08269
2016-01-15,0.00744,0.00744,0.00744,0.00744,0,0.07442
2016-01-18,0.00744,0.00744,0.00744,0.00744,0,0.07442
2016-01-19,0.00744,0.00744,0.00744,0.00744,0,0.07442
2016-01-20,0.00744,0.00744,0.00744,0.00744,0,0.07442
2016-01-21,0.00744,0.00744,0.00744,0.00744,0,0.07442
2016-01-22,0.00744,0.00744,0.00744,0.00744,0,0.07442
2016-01-25,0.00744,0.00744,0.00744,0.00744,0,0.07442
2016-01-26,0.00744,0.00744,0.00744,0.00744,0,0.07442
2016-01-27,0.00744,0.00744,0.00744,0.00744,0,0.07442
2016-01-28,0.00744,0.00744,0.00744,0.00744,0,0.07442
2016-01-29,0.00744,0.00744,0.00744,0.00744,0,0.07442
2016-02-01,0.00744,0.00744,0.00744,0.00744,0,0.07442
2016-02-02,0.00744,0.00744,0.00744,0.00744,0,0.07442
2016-02-03,0.0091,0.0091,0.0091,0.0091,2400,0.09096
2016-02-04,0.0091,0.0091,0.0091,0.0091,0,0.09096
2016-02-05,0.0091,0.0091,0.0091,0.0091,0,0.09096
2016-02-08,0.01075,0.01075,0.01075,0.01075,55000,0.1075
2016-02-09,0.01075,0.01075,0.01075,0.01075,0,0.1075
2016-02-10,0.01075,0.01075,0.01075,0.01075,0,0.1075
2016-02-11,0.01075,0.01075,0.01075,0.01075,0,0.1075
2016-02-12,0.01075,0.01075,0.01075,0.01075,0,0.1075
2016-02-15,0.01075,0.01075,0.01075,0.01075,0,0.1075
2016-02-16,0.01075,0.01075,0.01075,0.01075,0,0.1075
2016-02-17,0.01075,0.01075,0.01075,0.01075,0,0.1075
2016-02-18,0.01075,0.01075,0.01075,0.01075,0,0.1075
2016-02-19,0.01075,0.01075,0.01075,0.01075,0,0.1075
2016-02-22,0.01075,0.01075,0.01075,0.01075,0,0.1075
2016-02-23,0.01075,0.01075,0.01075,0.01075,0,0.1075
2016-02-24,0.01075,0.01075,0.01075,0.01075,0,0.1075
2016-02-25,0.01075,0.01075,0.01075,0.01075,0,0.1075
2016-02-26,0.01075,0.01075,0.01075,0.01075,0,0.1075
2016-02-29,0.01075,0.01075,0.01075,0.01075,0,0.1075
2016-03-01,0.01075,0.01075,0.01075,0.01075,0,0.1075
2016-03-02,0.01075,0.01075,0.01075,0.01075,0,0.1075
2016-03-03,0.01075,0.01075,0.01075,0.01075,0,0.1075
2016-03-04,0.01075,0.01075,0.01075,0.01075,0,0.1075
2016-03-07,0.01075,0.01075,0.01075,0.01075,0,0.1075
2016-03-08,0.01075,0.01075,0.01075,0.01075,0,0.1075
2016-03-09,0.01075,0.01075,0.01075,0.01075,0,0.1075
2016-03-10,0.01075,0.01075,0.01075,0.01075,0,0.1075
2016-03-11,0.01075,0.01075,0.01075,0.01075,0,0.1075
2016-03-14,0.01075,0.01075,0.01075,0.01075,0,0.1075
2016-03-15,0.01075,0.01075,0.01075,0.01075,0,0.1075
2016-03-16,0.01075,0.01075,0.01075,0.01075,0,0.1075
2016-03-17,0.01075,0.01075,0.01075,0.01075,0,0.1075
2016-03-18,0.01075,0.01075,0.01075,0.01075,0,0.1075
2016-03-21,0.01,0.01,0.01,0.01,124000,0.1
2016-03-22,0.012,0.012,0.012,0.012,40000,0.12
2016-03-23,0.01,0.01,0.01,0.01,27900,0.1
2016-03-24,0.009000000000000001,0.01,0.009000000000000001,0.01,34800,0.1
2016-03-25,0.01,0.01,0.01,0.01,0,0.1
2016-03-28,0.01,0.01,0.01,0.01,0,0.1
2016-03-29,0.01,0.01,0.01,0.01,0,0.1
2016-03-30,0.008,0.008,0.008,0.008,2500,0.08
2016-03-31,0.008,0.008,0.008,0.008,0,0.08
2016-04-01,0.008,0.008,0.008,0.008,0,0.08
2016-04-04,0.008,0.008,0.008,0.008,0,0.08
2016-04-05,0.008,0.008,0.008,0.008,1000,0.08
2016-04-06,0.008,0.008,0.008,0.008,0,0.08
2016-04-07,0.008,0.008,0.008,0.008,0,0.08
2016-04-08,0.008,0.008,0.008,0.008,0,0.08
2016-04-11,0.008,0.008,0.008,0.008,0,0.08
2016-04-12,0.008,0.008,0.008,0.008,0,0.08
2016-04-13,0.008,0.008,0.008,0.008,30000,0.08
2016-04-14,0.008,0.008,0.008,0.008,0,0.08
2016-04-15,0.008,0.008,0.008,0.008,0,0.08
2016-04-18,0.008,0.008,0.008,0.008,0,0.08
2016-04-19,0.008,0.008,0.008,0.008,0,0.08
2016-04-20,0.008,0.008,0.008,0.008,0,0.08
2016-04-21,0.01,0.011000000000000001,0.01,0.011000000000000001,70000,0.11
2016-04-22,0.011000000000000001,0.011000000000000001,0.011000000000000001,0.011000000000000001,0,0.11
2016-04-25,0.011000000000000001,0.011000000000000001,0.011000000000000001,0.011000000000000001,0,0.11
2016-04-26,0.01,0.01,0.01,0.01,39900,0.1
2016-04-27,0.01,0.01,0.01,0.01,0,0.1
2016-04-28,0.01,0.01,0.01,0.01,0,0.1
2016-04-29,0.01,0.01,0.01,0.01,0,0.1
2016-05-02,0.01,0.01,0.01,0.01,0,0.1
2016-05-03,0.01,0.01,0.01,0.01,0,0.1
2016-05-04,0.01,0.01,0.01,0.01,10000,0.1
2016-05-05,0.01,0.011000000000000001,0.01,0.011000000000000001,227200,0.11
2016-05-06,0.012,0.012,0.012,0.012,10000,0.12
2016-05-09,0.012,0.012,0.012,0.012,0,0.12
2016-05-10,0.012,0.012,0.012,0.012,0,0.12
2016-05-11,0.012,0.012,0.012,0.012,0,0.12
2016-05-12,0.012,0.012,0.012,0.012,0,0.12
2016-05-13,0.012,0.012,0.012,0.012,0,0.12
2016-05-16,0.012,0.012,0.012,0.012,0,0.12
2016-05-17,0.012,0.012,0.012,0.012,0,0.12
2016-05-18,0.012,0.012,0.012,0.012,0,0.12
2016-05-19,0.012,0.012,0.012,0.012,0,0.12
2016-05-20,0.012,0.012,0.012,0.012,0,0.12
2016-05-23,0.012,0.012,0.012,0.012,0,0.12
2016-05-24,0.012,0.012,0.012,0.012,0,0.12
2016-05-25,0.006999999999999999,0.006999999999999999,0.006999999999999999,0.006999999999999999,1000,0.07
2016-05-26,0.006999999999999999,0.006999999999999999,0.006999999999999999,0.006999999999999999,0,0.07
2016-05-27,0.006999999999999999,0.006999999999999999,0.006999999999999999,0.006999999999999999,0,0.07
2016-05-30,0.006999999999999999,0.006999999999999999,0.006999999999999999,0.006999999999999999,0,0.07
2016-05-31,0.01,0.01,0.01,0.01,30000,0.1
2016-06-01,0.01,0.01,0.01,0.01,0,0.1
2016-06-02,0.01,0.01,0.01,0.01,21800,0.1
2016-06-03,0.01,0.01,0.01,0.01,0,0.1
2016-06-06,0.008,0.008,0.008,0.008,57400,0.08
2016-06-07,0.008,0.008,0.008,0.008,0,0.08
2016-06-08,0.008,0.008,0.008,0.008,0,0.08
2016-06-09,0.008,0.008,0.008,0.008,0,0.08
2016-06-10,0.01,0.01,0.01,0.01,20000,0.1
2016-06-13,0.01,0.01,0.01,0.01,0,0.1
2016-06-14,0.01,0.01,0.01,0.01,0,0.1
2016-06-15,0.01,0.01,0.01,0.01,0,0.1
2016-06-16,0.01,0.01,0.01,0.01,0,0.1
2016-06-17,0.01,0.01,0.01,0.01,0,0.1
2016-06-20,0.01,0.01,0.01,0.01,0,0.1
2016-06-21,0.01,0.01,0.01,0.01,0,0.1
2016-06-22,0.01,0.01,0.01,0.01,0,0.1
2016-06-23,0.01,0.01,0.01,0.01,0,0.1
2016-06-24,0.01,0.01,0.01,0.01,0,0.1
2016-06-27,0.01,0.01,0.01,0.01,0,0.1
2016-06-28,0.01,0.01,0.01,0.01,0,0.1
2016-06-29,0.006,0.006,0.006,0.006,1200,0.06
2016-06-30,0.01,0.01,0.01,0.01,55000,0.1
2016-07-01,0.01,0.01,0.01,0.01,0,0.1
2016-07-04,0.01,0.01,0.01,0.01,0,0.1
2016-07-05,0.01,0.01,0.01,0.01,172200,0.1
2016-07-06,0.01,0.01,0.01,0.01,0,0.1
2016-07-07,0.008,0.008,0.008,0.008,5000,0.08
2016-07-08,0.008,0.008,0.008,0.008,0,0.08
2016-07-11,0.011000000000000001,0.013999999999999999,0.011000000000000001,0.013000000000000001,1644400,0.13
2016-07-12,0.013000000000000001,0.013000000000000001,0.013000000000000001,0.013000000000000001,0,0.13
2016-07-13,0.013000000000000001,0.013000000000000001,0.013000000000000001,0.013000000000000001,0,0.13
2016-07-14,0.013000000000000001,0.013000000000000001,0.013000000000000001,0.013000000000000001,0,0.13
2016-07-15,0.013000000000000001,0.013000000000000001,0.013000000000000001,0.013000000000000001,0,0.13
2016-07-18,0.013000000000000001,0.013000000000000001,0.013000000000000001,0.013000000000000001,0,0.13
2016-07-19,0.013000000000000001,0.013000000000000001,0.013000000000000001,0.013000000000000001,0,0.13
2016-07-20,0.013000000000000001,0.013000000000000001,0.013000000000000001,0.013000000000000001,0,0.13
2016-07-21,0.013000000000000001,0.013000000000000001,0.013000000000000001,0.013000000000000001,0,0.13
2016-07-22,0.013000000000000001,0.013000000000000001,0.013000000000000001,0.013000000000000001,0,0.13
2016-07-25,0.013000000000000001,0.013000000000000001,0.013000000000000001,0.013000000000000001,0,0.13
2016-07-26,0.013000000000000001,0.013000000000000001,0.013000000000000001,0.013000000000000001,0,0.13
2016-07-27,0.013000000000000001,0.013000000000000001,0.013000000000000001,0.013000000000000001,0,0.13
2016-07-28,0.013000000000000001,0.013000000000000001,0.013000000000000001,0.013000000000000001,0,0.13
2016-07-29,0.013000000000000001,0.013000000000000001,0.013000000000000001,0.013000000000000001,0,0.13
2016-08-01,0.013000000000000001,0.013000000000000001,0.013000000000000001,0.013000000000000001,0,0.13
2016-08-02,0.013000000000000001,0.013000000000000001,0.013000000000000001,0.013000000000000001,0,0.13
2016-08-03,0.013000000000000001,0.013000000000000001,0.013000000000000001,0.013000000000000001,0,0.13
2016-08-04,0.013000000000000001,0.013000000000000001,0.013000000000000001,0.013000000000000001,0,0.13
2016-08-05,0.013000000000000001,0.013000000000000001,0.013000000000000001,0.013000000000000001,0,0.13
2016-08-08,0.013000000000000001,0.013000000000000001,0.013000000000000001,0.013000000000000001,0,0.13
2016-08-09,0.013000000000000001,0.013000000000000001,0.013000000000000001,0.013000000000000001,0,0.13
2016-08-10,0.013000000000000001,0.013000000000000001,0.013000000000000001,0.013000000000000001,0,0.13
2016-08-11,0.013000000000000001,0.013000000000000001,0.013000000000000001,0.013000000000000001,0,0.13
2016-08-12,0.013000000000000001,0.013000000000000001,0.013000000000000001,0.013000000000000001,0,0.13
2016-08-15,0.013000000000000001,0.013000000000000001,0.013000000000000001,0.013000000000000001,0,0.13
2016-08-16,0.013000000000000001,0.013000000000000001,0.013000000000000001,0.013000000000000001,0,0.13
2016-08-17,0.013000000000000001,0.013000000000000001,0.013000000000000001,0.013000000000000001,0,0.13
2016-08-18,0.013000000000000001,0.013000000000000001,0.013000000000000001,0.013000000000000001,0,0.13
2016-08-19,0.013000000000000001,0.013000000000000001,0.013000000000000001,0.013000000000000001,0,0.13
2016-08-22,0.013000000000000001,0.013000000000000001,0.013000000000000001,0.013000000000000001,0,0.13
2016-08-23,0.013000000000000001,0.013000000000000001,0.013000000000000001,0.013000000000000001,0,0.13
2016-08-24,0.013000000000000001,0.013000000000000001,0.013000000000000001,0.013000000000000001,0,0.13
2016-08-25,0.013000000000000001,0.013000000000000001,0.013000000000000001,0.013000000000000001,0,0.13
2016-08-26,0.013000000000000001,0.013000000000000001,0.013000000000000001,0.013000000000000001,0,0.13
2016-08-29,0.013000000000000001,0.013000000000000001,0.013000000000000001,0.013000000000000001,0,0.13
2016-08-30,0.013000000000000001,0.013000000000000001,0.013000000000000001,0.013000000000000001,0,0.13
2016-08-31,0.013000000000000001,0.013000000000000001,0.013000000000000001,0.013000000000000001,0,0.13
2016-09-01,0.013000000000000001,0.013000000000000001,0.013000000000000001,0.013000000000000001,0,0.13
2016-09-02,0.013000000000000001,0.013000000000000001,0.013000000000000001,0.013000000000000001,0,0.13
2016-09-05,0.013000000000000001,0.013000000000000001,0.013000000000000001,0.013000000000000001,0,0.13
2016-09-06,0.013000000000000001,0.013000000000000001,0.013000000000000001,0.013000000000000001,0,0.13
2016-09-07,0.013000000000000001,0.013000000000000001,0.013000000000000001,0.013000000000000001,0,0.13
2016-09-08,0.013000000000000001,0.013000000000000001,0.013000000000000001,0.013000000000000001,0,0.13
2016-09-09,0.013000000000000001,0.013000000000000001,0.013000000000000001,0.013000000000000001,0,0.13
2016-09-12,0.013000000000000001,0.013000000000000001,0.013000000000000001,0.013000000000000001,0,0.13
2016-09-13,0.013000000000000001,0.013000000000000001,0.013000000000000001,0.013000000000000001,0,0.13
2016-09-14,0.013000000000000001,0.013000000000000001,0.013000000000000001,0.013000000000000001,0,0.13
2016-09-15,0.013000000000000001,0.013000000000000001,0.013000000000000001,0.013000000000000001,0,0.13
2016-09-16,0.013000000000000001,0.013000000000000001,0.013000000000000001,0.013000000000000001,0,0.13
2016-09-19,0.013000000000000001,0.013000000000000001,0.013000000000000001,0.013000000000000001,0,0.13
2016-09-20,0.013000000000000001,0.013000000000000001,0.013000000000000001,0.013000000000000001,0,0.13
2016-09-21,0.013000000000000001,0.013000000000000001,0.013000000000000001,0.013000000000000001,0,0.13
2016-09-22,0.013000000000000001,0.013000000000000001,0.013000000000000001,0.013000000000000001,0,0.13
2016-09-23,0.013000000000000001,0.013000000000000001,0.013000000000000001,0.013000000000000001,0,0.13
2016-09-26,0.013000000000000001,0.013000000000000001,0.013000000000000001,0.013000000000000001,0,0.13
2016-09-27,0.013000000000000001,0.013000000000000001,0.013000000000000001,0.013000000000000001,0,0.13
2016-09-28,0.013000000000000001,0.013000000000000001,0.013000000000000001,0.013000000000000001,0,0.13
2016-09-29,0.013000000000000001,0.013000000000000001,0.013000000000000001,0.013000000000000001,0,0.13
2016-09-30,0.013000000000000001,0.013000000000000001,0.013000000000000001,0.013000000000000001,0,0.13
2016-10-03,0.013000000000000001,0.013000000000000001,0.013000000000000001,0.013000000000000001,0,0.13
2016-10-04,0.013000000000000001,0.013000000000000001,0.013000000000000001,0.013000000000000001,0,0.13
2016-10-05,0.013000000000000001,0.013000000000000001,0.013000000000000001,0.013000000000000001,0,0.13
2016-10-06,0.013000000000000001,0.013000000000000001,0.013000000000000001,0.013000000000000001,0,0.13
2016-10-07,0.013000000000000001,0.013000000000000001,0.013000000000000001,0.013000000000000001,0,0.13
2016-10-10,0.013000000000000001,0.013000000000000001,0.013000000000000001,0.013000000000000001,0,0.13
2016-10-11,0.013000000000000001,0.013000000000000001,0.013000000000000001,0.013000000000000001,0,0.13
2016-10-12,0.013000000000000001,0.013000000000000001,0.013000000000000001,0.013000000000000001,0,0.13
2016-10-13,0.013000000000000001,0.013000000000000001,0.013000000000000001,0.013000000000000001,0,0.13
2016-10-14,0.013000000000000001,0.013000000000000001,0.013000000000000001,0.013000000000000001,0,0.13
2016-10-17,0.013000000000000001,0.013000000000000001,0.013000000000000001,0.013000000000000001,0,0.13
2016-10-18,0.013000000000000001,0.013000000000000001,0.013000000000000001,0.013000000000000001,0,0.13
2016-10-19,0.013000000000000001,0.013000000000000001,0.013000000000000001,0.013000000000000001,0,0.13
2016-10-20,0.013000000000000001,0.013000000000000001,0.013000000000000001,0.013000000000000001,0,0.13
2016-10-21,0.013000000000000001,0.013000000000000001,0.013000000000000001,0.013000000000000001,0,0.13
2016-10-24,0.013000000000000001,0.013000000000000001,0.013000000000000001,0.013000000000000001,0,0.13
2016-10-25,0.013000000000000001,0.013000000000000001,0.013000000000000001,0.013000000000000001,0,0.13
2016-10-26,0.013000000000000001,0.013000000000000001,0.013000000000000001,0.013000000000000001,0,0.13
2016-10-27,0.013000000000000001,0.013000000000000001,0.013000000000000001,0.013000000000000001,0,0.13
2016-10-28,0.013000000000000001,0.013000000000000001,0.013000000000000001,0.013000000000000001,0,0.13
2016-10-31,0.013000000000000001,0.013000000000000001,0.013000000000000001,0.013000000000000001,0,0.13
2016-11-01,0.013000000000000001,0.013000000000000001,0.013000000000000001,0.013000000000000001,0,0.13
2016-11-02,0.013000000000000001,0.013000000000000001,0.013000000000000001,0.013000000000000001,0,0.13
2016-11-03,0.013000000000000001,0.013000000000000001,0.013000000000000001,0.013000000000000001,0,0.13
2016-11-04,0.013000000000000001,0.013000000000000001,0.013000000000000001,0.013000000000000001,0,0.13
2016-11-07,0.13,0.13,0.13,0.13,0,1.3
2016-11-08,0.13,0.13,0.13,0.13,0,1.3
2016-11-09,0.13,0.13,0.13,0.13,0,1.3
2016-11-10,0.13,0.13,0.13,0.13,0,1.3
2016-11-11,0.13,0.13,0.13,0.13,0,1.3
2016-11-14,0.13,0.13,0.13,0.13,0,1.3
2016-11-15,0.13,0.13,0.13,0.13,0,1.3
2016-11-16,0.13,0.13,0.13,0.13,0,1.3
2016-11-17,0.13,0.13,0.13,0.13,0,1.3
2016-11-18,0.13,0.13,0.13,0.13,0,1.3
2016-11-21,0.13,0.13,0.13,0.13,0,1.3
2016-11-22,0.13,0.13,0.13,0.13,0,1.3
2016-11-23,0.13,0.13,0.13,0.13,0,1.3
2016-11-24,0.13,0.13,0.13,0.13,0,1.3
2016-11-25,0.13,0.13,0.13,0.13,0,1.3
2016-11-28,0.13,0.13,0.13,0.13,0,1.3
2016-11-29,0.13,0.13,0.13,0.13,0,1.3
2016-11-30,0.13,0.13,0.13,0.13,0,1.3
2016-12-01,0.13,0.13,0.13,0.13,0,1.3
2016-12-02,0.13,0.13,0.13,0.13,0,1.3
2016-12-05,0.13,0.13,0.13,0.13,0,1.3
2016-12-06,0.13,0.13,0.13,0.13,0,1.3
2016-12-07,0.13,0.13,0.13,0.13,0,0.13
2016-12-08,0.13,0.13,0.13,0.13,0,0.13
2016-12-09,0.13,0.13,0.13,0.13,0,0.13
2016-12-12,0.13,0.13,0.13,0.13,0,0.13
2016-12-13,0.13,0.13,0.13,0.13,0,0.13
2016-12-14,0.13,0.13,0.13,0.13,0,0.13
2016-12-15,0.13,0.13,0.13,0.13,0,0.13
2016-12-16,0.13,0.13,0.13,0.13,0,0.13
2016-12-19,0.13,0.13,0.13,0.13,0,0.13
2016-12-20,0.13,0.13,0.13,0.13,0,0.13
2016-12-21,0.13,0.13,0.13,0.13,0,0.13
2016-12-22,0.13,0.13,0.13,0.13,0,0.13
2016-12-23,0.13,0.13,0.13,0.13,0,0.13
2016-12-26,0.13,0.13,0.13,0.13,0,0.13
2016-12-27,0.13,0.13,0.13,0.13,0,0.13
2016-12-28,0.13,0.13,0.13,0.13,0,0.13
2016-12-29,0.13,0.13,0.13,0.13,0,0.13
2016-12-30,0.13,0.13,0.13,0.13,0,0.13
