Date,Open,High,Low,Close,Volume,Adj Close
2010-12-08,0.20463,0.3274,0.20463,0.3274,555800,0.3274
2010-12-09,0.33559,0.40925,0.33559,0.39288,381500,0.39288
2010-12-10,0.40107,0.40107,0.37651,0.39288,143400,0.39288
2010-12-13,0.39288,0.40107,0.39288,0.40107,73400,0.40107
2010-12-14,0.40107,0.40925,0.40107,0.40107,144100,0.40107
2010-12-15,0.40925,0.40925,0.40107,0.40107,204100,0.40107
2010-12-16,0.40107,0.40107,0.40107,0.40107,52600,0.40107
2010-12-17,0.40925,0.40925,0.39288,0.39288,15200,0.39288
2010-12-20,0.39288,0.39288,0.36833,0.36833,16900,0.36833
2010-12-22,0.37651,0.37651,0.37242,0.37242,42700,0.37242
2010-12-23,0.37651,0.3847,0.37651,0.37651,17100,0.37651
2010-12-24,0.37651,0.37651,0.37651,0.37651,28100,0.37651
2010-12-30,0.37651,0.3847,0.37242,0.3847,45100,0.3847
2010-12-31,0.3847,0.40925,0.3847,0.40925,160400,0.40925
2011-01-04,0.41744,0.42562,0.41744,0.42562,28100,0.42562
2011-01-07,0.46245,0.46245,0.44608000000000003,0.45018,43900,0.45018
2011-01-10,0.46655,0.4911,0.46655,0.4911,6700,0.4911
2011-01-11,0.4911,0.4911,0.4911,0.4911,15800,0.4911
2011-01-12,0.4911,0.51566,0.4911,0.4911,100900,0.4911
2011-01-14,0.50338,0.50747,0.49928999999999996,0.49928999999999996,46400,0.49928999999999996
2011-01-17,0.51566,0.53203,0.51566,0.53203,42700,0.53203
2011-01-18,0.55658,0.58523,0.55658,0.56477,40500,0.56477
2011-01-19,0.58932,0.58932,0.58932,0.58932,13400,0.58932
2011-01-20,0.61388,0.61388,0.61388,0.61388,7900,0.61388
2011-01-21,0.60569,0.6548,0.60569,0.6548,71400,0.6548
2011-01-24,0.6548,0.6793600000000001,0.6548,0.6793600000000001,35400,0.6793600000000001
2011-01-25,0.6957300000000001,0.8839799999999999,0.6957300000000001,0.8839799999999999,138100,0.8839799999999999
2011-01-27,0.9740200000000001,1.00676,0.9412799999999999,0.96583,192900,0.96583
2011-01-28,0.96583,0.96583,0.8103199999999999,0.8185,152100,0.8185
2011-01-31,0.8185,0.8185,0.8185,0.8185,22700,0.8185
2011-02-01,0.8185,0.8185,0.8103199999999999,0.8103199999999999,5000,0.8103199999999999
2011-02-02,0.75302,0.75302,0.73665,0.73665,21300,0.73665
2011-02-03,0.72028,0.72028,0.72028,0.72028,1200,0.72028
2011-02-04,0.69163,0.69163,0.58114,0.6016,170900,0.6016
2011-02-07,0.58932,0.59751,0.57295,0.59341,91600,0.59341
2011-02-08,0.59751,0.61388,0.59341,0.59341,43900,0.59341
2011-02-09,0.59341,0.59341,0.58932,0.58932,59600,0.58932
2011-02-10,0.59341,0.59751,0.58932,0.59751,78800,0.59751
2011-02-11,0.59341,0.59341,0.56477,0.56477,85200,0.56477
2011-02-14,0.58114,0.58114,0.58114,0.58114,11900,0.58114
2011-02-15,0.57295,0.57295,0.57295,0.57295,10300,0.57295
2011-02-18,0.57295,0.58114,0.57295,0.57295,67100,0.57295
2011-02-21,0.5484,0.5484,0.5402100000000001,0.5402100000000001,20100,0.5402100000000001
2011-02-22,0.5402100000000001,0.56477,0.53203,0.53203,12800,0.53203
2011-02-28,0.5443,0.5443,0.52384,0.52384,2200,0.52384
2011-03-04,0.5484,0.55658,0.5484,0.5484,6100,0.5484
2011-03-07,0.52793,0.53203,0.4911,0.53203,32700,0.53203
2011-03-08,0.49928999999999996,0.57295,0.49928999999999996,0.53203,18300,0.53203
2011-03-10,0.4911,0.4911,0.4911,0.4911,7300,0.4911
2011-03-11,0.4911,0.49928999999999996,0.4911,0.4911,86400,0.4911
2011-03-16,0.45018,0.45018,0.45018,0.45018,33900,0.45018
2011-03-17,0.45018,0.45018,0.45018,0.45018,1300,0.45018
2011-03-22,0.44198999999999994,0.44198999999999994,0.44198999999999994,0.44198999999999994,7200,0.44198999999999994
2011-03-23,0.4911,0.4911,0.4911,0.4911,36600,0.4911
2011-03-24,0.52384,0.53203,0.4911,0.4911,88600,0.4911
2011-03-25,0.49518999999999996,0.49518999999999996,0.4911,0.4911,24400,0.4911
2011-03-28,0.49518999999999996,0.50747,0.49518999999999996,0.50747,48800,0.50747
2011-03-29,0.50747,0.50747,0.50747,0.50747,4200,0.50747
2011-03-30,0.50747,0.50747,0.50747,0.50747,7900,0.50747
2011-03-31,0.53203,0.55658,0.53203,0.55658,56200,0.55658
2011-04-05,0.55658,0.55658,0.55658,0.55658,1800,0.55658
2011-04-06,0.5484,0.5484,0.5402100000000001,0.5402100000000001,22600,0.5402100000000001
2011-04-07,0.5402100000000001,0.5484,0.5402100000000001,0.5484,12400,0.5484
2011-04-12,0.53203,0.53203,0.53203,0.53203,18300,0.53203
2011-04-13,0.53203,0.53203,0.53203,0.53203,13400,0.53203
2011-04-14,0.52384,0.52384,0.52384,0.52384,81000,0.52384
2011-04-15,0.52384,0.52384,0.52384,0.52384,900,0.52384
2011-04-18,0.53203,0.53203,0.52384,0.52384,51300,0.52384
2011-04-19,0.51975,0.51975,0.4911,0.4911,62800,0.4911
2011-05-02,0.45018,0.45018,0.41744,0.41744,33300,0.41744
2011-05-04,0.41744,0.41744,0.41744,0.41744,5600,0.41744
2011-05-09,0.37651,0.37651,0.37651,0.37651,4200,0.37651
2011-05-11,0.34376999999999996,0.34376999999999996,0.33968000000000004,0.34376999999999996,89800,0.34376999999999996
2011-05-12,0.33559,0.33559,0.33559,0.33559,1200,0.33559
2011-05-13,0.36833,0.41744,0.36833,0.41744,61000,0.41744
2011-05-16,0.40925,0.44198999999999994,0.40925,0.44198999999999994,28100,0.44198999999999994
2011-05-18,0.44198999999999994,0.44198999999999994,0.4379,0.4379,8000,0.4379
2011-05-20,0.40925,0.40925,0.40925,0.40925,61000,0.40925
2011-05-23,0.39288,0.40925,0.39288,0.40925,74500,0.40925
2011-05-24,0.40107,0.40107,0.39288,0.39288,46600,0.39288
2011-05-25,0.39288,0.39288,0.39288,0.39288,900,0.39288
2011-05-26,0.38879,0.38879,0.38879,0.38879,6100,0.38879
2011-05-27,0.38879,0.38879,0.38879,0.38879,1200,0.38879
2011-06-01,0.36833,0.36833,0.36833,0.36833,36600,0.36833
2011-06-02,0.39288,0.39288,0.36833,0.36833,58400,0.36833
2011-06-03,0.45,0.45,0.45,0.45,22000,0.45
2011-06-10,0.45,0.45,0.45,0.45,15000,0.45
2011-06-29,0.35,0.35,0.35,0.35,6000,0.35
2011-06-30,0.35,0.35,0.35,0.35,22500,0.35
2011-07-04,0.375,0.4,0.375,0.4,18000,0.4
2011-07-15,0.4,0.45,0.4,0.45,48600,0.45
2011-07-20,0.44,0.44,0.42,0.435,45000,0.435
2011-07-26,0.35,0.37,0.35,0.36,56500,0.36
2011-07-27,0.355,0.365,0.33,0.335,13400,0.335
2011-07-28,0.35,0.39,0.35,0.39,101000,0.39
2011-07-29,0.39,0.39,0.39,0.39,8500,0.39
2011-08-01,0.385,0.39,0.38,0.39,45000,0.39
2011-08-03,0.36,0.36,0.36,0.36,14000,0.36
2011-08-05,0.35,0.35,0.3,0.3,60500,0.3
2011-08-08,0.3,0.32,0.3,0.32,9400,0.32
2011-08-09,0.25,0.25,0.25,0.25,5800,0.25
2011-08-10,0.24,0.24,0.24,0.24,3000,0.24
2011-08-11,0.24,0.24,0.24,0.24,15100,0.24
2011-08-12,0.3,0.32,0.3,0.32,38000,0.32
2011-08-25,0.27,0.27,0.27,0.27,7000,0.27
2011-08-30,0.26,0.26,0.26,0.26,24500,0.26
2011-09-08,0.22,0.22,0.22,0.22,85000,0.22
2011-09-14,0.2,0.2,0.2,0.2,3000,0.2
2011-09-22,0.2,0.2,0.2,0.2,5000,0.2
2011-09-23,0.2,0.2,0.2,0.2,4000,0.2
2011-09-29,0.15,0.15,0.15,0.15,7500,0.15
2011-10-06,0.15,0.15,0.15,0.15,32500,0.15
2011-10-24,0.15,0.15,0.15,0.15,3500,0.15
2011-10-28,0.16,0.18,0.16,0.18,60000,0.18
2011-10-31,0.185,0.2,0.18,0.2,76000,0.2
2011-11-02,0.2,0.2,0.2,0.2,4000,0.2
2011-11-17,0.2,0.2,0.2,0.2,0,0.2
2011-11-18,0.2,0.2,0.2,0.2,0,0.2
2011-11-21,0.2,0.2,0.2,0.2,0,0.2
2011-11-22,0.2,0.2,0.2,0.2,0,0.2
2011-11-23,0.2,0.2,0.2,0.2,0,0.2
2011-11-24,0.16,0.16,0.16,0.16,50700,0.16
2011-11-25,0.16,0.16,0.16,0.16,0,0.16
2011-11-28,0.16,0.16,0.16,0.16,10800,0.16
2011-11-29,0.16,0.16,0.16,0.16,0,0.16
2011-11-30,0.16,0.16,0.16,0.16,0,0.16
2011-12-01,0.16,0.16,0.16,0.16,0,0.16
2011-12-02,0.16,0.16,0.16,0.16,0,0.16
2011-12-05,0.16,0.16,0.16,0.16,0,0.16
2011-12-06,0.18,0.18,0.18,0.18,7500,0.18
2011-12-07,0.18,0.18,0.18,0.18,15000,0.18
2011-12-08,0.2,0.2,0.2,0.2,7500,0.2
2011-12-09,0.2,0.2,0.2,0.2,0,0.2
2011-12-12,0.2,0.2,0.2,0.2,0,0.2
2011-12-13,0.2,0.2,0.2,0.2,0,0.2
2011-12-14,0.2,0.2,0.2,0.2,0,0.2
2011-12-15,0.2,0.2,0.2,0.2,0,0.2
2011-12-16,0.2,0.2,0.2,0.2,0,0.2
2011-12-19,0.2,0.2,0.2,0.2,0,0.2
2011-12-20,0.2,0.2,0.2,0.2,0,0.2
2011-12-21,0.2,0.2,0.2,0.2,0,0.2
2011-12-22,0.2,0.2,0.2,0.2,0,0.2
2011-12-23,0.17,0.17,0.17,0.17,15000,0.17
2011-12-26,0.2,0.2,0.2,0.2,0,0.2
2011-12-27,0.2,0.2,0.2,0.2,0,0.2
2011-12-28,0.2,0.2,0.2,0.2,0,0.2
2011-12-29,0.2,0.2,0.2,0.2,0,0.2
2011-12-30,0.2,0.2,0.2,0.2,0,0.2
2012-01-02,0.2,0.2,0.2,0.2,0,0.2
2012-01-03,0.2,0.2,0.2,0.2,0,0.2
2012-01-04,0.2,0.2,0.2,0.2,0,0.2
2012-01-05,0.2,0.2,0.2,0.2,0,0.2
2012-01-06,0.2,0.2,0.2,0.2,0,0.2
2012-01-09,0.2,0.2,0.2,0.2,0,0.2
2012-01-10,0.2,0.2,0.2,0.2,0,0.2
2012-01-11,0.2,0.2,0.2,0.2,0,0.2
2012-01-12,0.2,0.2,0.2,0.2,0,0.2
2012-01-13,0.2,0.2,0.2,0.2,0,0.2
2012-01-16,0.2,0.2,0.2,0.2,0,0.2
2012-01-17,0.2,0.2,0.2,0.2,0,0.2
2012-01-18,0.2,0.2,0.2,0.2,0,0.2
2012-01-19,0.2,0.2,0.2,0.2,0,0.2
2012-01-20,0.2,0.2,0.2,0.2,0,0.2
2012-01-23,0.16,0.16,0.16,0.16,10000,0.16
2012-01-24,0.16,0.16,0.16,0.16,0,0.16
2012-01-25,0.17,0.17,0.16,0.16,10000,0.16
2012-01-26,0.16,0.16,0.16,0.16,0,0.16
2012-01-27,0.16,0.16,0.16,0.16,0,0.16
2012-01-30,0.185,0.2,0.185,0.2,100500,0.2
2012-01-31,0.215,0.215,0.2,0.21,127400,0.21
2012-02-01,0.21,0.21,0.21,0.21,22500,0.21
2012-02-02,0.21,0.21,0.21,0.21,0,0.21
2012-02-03,0.21,0.21,0.21,0.21,0,0.21
2012-02-06,0.21,0.21,0.21,0.21,0,0.21
2012-02-07,0.21,0.21,0.21,0.21,0,0.21
2012-02-08,0.21,0.21,0.21,0.21,0,0.21
2012-02-09,0.21,0.21,0.21,0.21,10000,0.21
2012-02-10,0.215,0.215,0.215,0.215,5000,0.215
2012-02-13,0.215,0.215,0.21,0.21,10000,0.21
2012-02-14,0.21,0.21,0.21,0.21,0,0.21
2012-02-15,0.21,0.21,0.21,0.21,0,0.21
2012-02-16,0.21,0.21,0.21,0.21,0,0.21
2012-02-17,0.225,0.225,0.225,0.225,13000,0.225
2012-02-20,0.225,0.225,0.225,0.225,0,0.225
2012-02-21,0.225,0.225,0.225,0.225,0,0.225
2012-02-22,0.225,0.225,0.225,0.225,0,0.225
2012-02-23,0.225,0.225,0.225,0.225,1900,0.225
2012-02-24,0.225,0.225,0.225,0.225,0,0.225
2012-02-27,0.225,0.225,0.225,0.225,0,0.225
2012-02-28,0.225,0.225,0.225,0.225,0,0.225
2012-02-29,0.235,0.235,0.235,0.235,20000,0.235
2012-03-01,0.24,0.26,0.24,0.26,56300,0.26
2012-03-02,0.26,0.26,0.26,0.26,0,0.26
2012-03-05,0.26,0.26,0.26,0.26,0,0.26
2012-03-06,0.26,0.26,0.26,0.26,0,0.26
2012-03-07,0.25,0.25,0.25,0.25,60000,0.25
2012-03-08,0.26,0.26,0.26,0.26,0,0.26
2012-03-09,0.25,0.25,0.25,0.25,10000,0.25
2012-03-12,0.25,0.25,0.25,0.25,0,0.25
2012-03-13,0.25,0.25,0.25,0.25,0,0.25
2012-03-14,0.25,0.25,0.25,0.25,15000,0.25
2012-03-15,0.25,0.25,0.25,0.25,0,0.25
2012-03-16,0.235,0.235,0.235,0.235,30000,0.235
2012-03-19,0.215,0.215,0.215,0.215,9000,0.215
2012-03-20,0.215,0.215,0.215,0.215,0,0.215
2012-03-21,0.215,0.215,0.215,0.215,0,0.215
2012-03-22,0.215,0.215,0.215,0.215,0,0.215
2012-03-23,0.215,0.215,0.215,0.215,0,0.215
2012-03-26,0.215,0.215,0.215,0.215,0,0.215
2012-03-27,0.215,0.215,0.215,0.215,0,0.215
2012-03-28,0.215,0.215,0.215,0.215,0,0.215
2012-03-29,0.18,0.18,0.18,0.18,12500,0.18
2012-03-30,0.18,0.18,0.18,0.18,0,0.18
2012-04-02,0.17,0.17,0.17,0.17,5000,0.17
2012-04-03,0.17,0.17,0.17,0.17,0,0.17
2012-04-04,0.17,0.17,0.17,0.17,0,0.17
2012-04-05,0.17,0.17,0.17,0.17,0,0.17
2012-04-06,0.17,0.17,0.17,0.17,0,0.17
2012-04-09,0.17,0.17,0.17,0.17,0,0.17
2012-04-10,0.17,0.17,0.17,0.17,2500,0.17
2012-04-11,0.17,0.17,0.17,0.17,0,0.17
2012-04-12,0.17,0.17,0.17,0.17,0,0.17
2012-04-13,0.17,0.17,0.17,0.17,0,0.17
2012-04-16,0.17,0.17,0.17,0.17,0,0.17
2012-04-17,0.17,0.17,0.17,0.17,0,0.17
2012-04-18,0.17,0.17,0.17,0.17,0,0.17
2012-04-19,0.17,0.17,0.17,0.17,0,0.17
2012-04-20,0.17,0.17,0.17,0.17,0,0.17
2012-04-23,0.17,0.17,0.17,0.17,0,0.17
2012-04-24,0.17,0.17,0.17,0.17,0,0.17
2012-04-25,0.17,0.17,0.17,0.17,0,0.17
2012-04-26,0.17,0.17,0.13,0.13,1000,0.13
2012-04-27,0.14,0.14,0.14,0.14,6100,0.14
2012-04-30,0.14,0.14,0.14,0.14,0,0.14
2012-05-01,0.14,0.14,0.14,0.14,0,0.14
2012-05-02,0.14,0.14,0.14,0.14,0,0.14
2012-05-03,0.14,0.14,0.14,0.14,0,0.14
2012-05-04,0.14,0.14,0.14,0.14,0,0.14
2012-05-07,0.15,0.15,0.13,0.13,55800,0.13
2012-05-08,0.13,0.13,0.13,0.13,45200,0.13
2012-05-09,0.13,0.13,0.13,0.13,0,0.13
2012-05-10,0.13,0.13,0.13,0.13,0,0.13
2012-05-11,0.13,0.13,0.13,0.13,15000,0.13
2012-05-14,0.13,0.13,0.13,0.13,0,0.13
2012-05-15,0.13,0.13,0.13,0.13,0,0.13
2012-05-16,0.13,0.17,0.13,0.17,30500,0.17
2012-05-17,0.17,0.17,0.17,0.17,0,0.17
2012-05-18,0.18,0.18,0.18,0.18,10000,0.18
2012-05-21,0.18,0.18,0.18,0.18,0,0.18
2012-05-22,0.25,0.4,0.25,0.4,150000,0.4
2012-05-23,0.395,0.395,0.325,0.36,341800,0.36
2012-05-24,0.31,0.35,0.31,0.35,267300,0.35
2012-05-25,0.34,0.36,0.34,0.355,247600,0.355
2012-05-28,0.355,0.355,0.34,0.35,102200,0.35
2012-05-29,0.35,0.37,0.35,0.37,141700,0.37
2012-05-30,0.38,0.4,0.38,0.4,65000,0.4
2012-05-31,0.44,0.48,0.42,0.48,88700,0.48
2012-06-01,0.5,0.5,0.43,0.475,123500,0.475
2012-06-04,0.44,0.475,0.44,0.475,12000,0.475
2012-06-05,0.45,0.45,0.45,0.45,10000,0.45
2012-06-06,0.44,0.47,0.43,0.47,41000,0.47
2012-06-07,0.47,0.47,0.47,0.47,42000,0.47
2012-06-08,0.47,0.475,0.47,0.475,30000,0.475
2012-06-11,0.475,0.475,0.475,0.475,0,0.475
2012-06-12,0.42,0.42,0.42,0.42,47000,0.42
2012-06-13,0.42,0.42,0.42,0.42,0,0.42
2012-06-14,0.45,0.45,0.42,0.42,21900,0.42
2012-06-15,0.42,0.46,0.42,0.46,87200,0.46
2012-06-18,0.47,0.47,0.46,0.47,87000,0.47
2012-06-19,0.47,0.47,0.47,0.47,7500,0.47
2012-06-20,0.47,0.56,0.47,0.56,110700,0.56
2012-06-21,0.6,0.7,0.6,0.7,117500,0.7
2012-06-22,0.72,0.72,0.67,0.69,66700,0.69
2012-06-25,0.69,0.7,0.66,0.66,65600,0.66
2012-06-26,0.66,0.66,0.55,0.56,40000,0.56
2012-06-27,0.56,0.59,0.56,0.57,121300,0.57
2012-06-28,0.57,0.57,0.5,0.5,177600,0.5
2012-06-29,0.5,0.5,0.5,0.5,13400,0.5
2012-07-02,0.5,0.5,0.5,0.5,61200,0.5
2012-07-03,0.5,0.5,0.48,0.48,71000,0.48
2012-07-04,0.5,0.53,0.5,0.5,202500,0.5
2012-07-05,0.5,0.54,0.5,0.54,96700,0.54
2012-07-06,0.55,0.6,0.55,0.6,119500,0.6
2012-07-09,0.6,0.6,0.58,0.59,72100,0.59
2012-07-10,0.6,0.61,0.6,0.61,42800,0.61
2012-07-11,0.62,0.63,0.62,0.63,60000,0.63
2012-07-12,0.65,0.65,0.58,0.6,62400,0.6
2012-07-13,0.6,0.62,0.6,0.61,121000,0.61
2012-07-16,0.61,0.61,0.6,0.6,132200,0.6
2012-07-17,0.6,0.6,0.6,0.6,60700,0.6
2012-07-18,0.6,0.6,0.6,0.6,10600,0.6
2012-07-19,0.6,0.6,0.6,0.6,0,0.6
2012-07-20,0.6,0.6,0.56,0.6,13800,0.6
2012-07-23,0.6,0.62,0.6,0.62,60900,0.62
2012-07-24,0.63,0.63,0.6,0.6,20000,0.6
2012-07-25,0.6,0.6,0.56,0.56,50000,0.56
2012-07-26,0.6,0.6,0.6,0.6,1000,0.6
2012-07-27,0.56,0.6,0.55,0.6,34000,0.6
2012-07-30,0.6,0.6,0.6,0.6,0,0.6
2012-07-31,0.63,0.63,0.62,0.63,14500,0.63
2012-08-01,0.65,0.65,0.65,0.65,15000,0.65
2012-08-02,0.65,0.675,0.65,0.675,33200,0.675
2012-08-03,0.68,0.68,0.675,0.675,11300,0.675
2012-08-06,0.655,0.68,0.655,0.68,36600,0.68
2012-08-07,0.655,0.655,0.655,0.655,2000,0.655
2012-08-08,0.655,0.655,0.64,0.65,18000,0.65
2012-08-09,0.64,0.64,0.64,0.64,16800,0.64
2012-08-10,0.62,0.62,0.61,0.61,9200,0.61
2012-08-13,0.62,0.65,0.62,0.65,9700,0.65
2012-08-14,0.65,0.65,0.65,0.65,0,0.65
2012-08-15,0.65,0.65,0.65,0.65,0,0.65
2012-08-16,0.67,0.68,0.67,0.68,68000,0.68
2012-08-17,0.68,0.68,0.68,0.68,0,0.68
2012-08-20,0.65,0.68,0.65,0.68,33000,0.68
2012-08-21,0.68,0.68,0.65,0.65,24100,0.65
2012-08-22,0.62,0.62,0.6,0.61,80500,0.61
2012-08-23,0.62,0.62,0.62,0.62,8800,0.62
2012-08-24,0.62,0.62,0.62,0.62,0,0.62
2012-08-27,0.56,0.56,0.56,0.56,10000,0.56
2012-08-28,0.57,0.57,0.56,0.56,19200,0.56
2012-08-29,0.56,0.56,0.5,0.5,32000,0.5
2012-08-30,0.495,0.495,0.48,0.48,18600,0.48
2012-08-31,0.48,0.48,0.48,0.48,0,0.48
2012-09-03,0.5,0.5,0.48,0.48,93900,0.48
2012-09-04,0.48,0.48,0.48,0.48,0,0.48
2012-09-05,0.48,0.48,0.48,0.48,0,0.48
2012-09-06,0.48,0.48,0.48,0.48,0,0.48
2012-09-07,0.48,0.52,0.48,0.52,107600,0.52
2012-09-10,0.52,0.52,0.52,0.52,0,0.52
2012-09-11,0.52,0.52,0.52,0.52,0,0.52
2012-09-12,0.53,0.57,0.53,0.57,45900,0.57
2012-09-13,0.57,0.57,0.57,0.57,0,0.57
2012-09-14,0.57,0.57,0.54,0.54,128900,0.54
2012-09-17,0.57,0.57,0.56,0.56,23500,0.56
2012-09-18,0.54,0.54,0.5,0.5,98500,0.5
2012-09-19,0.5,0.5,0.5,0.5,59400,0.5
2012-09-20,0.49,0.5,0.49,0.5,105000,0.5
2012-09-21,0.5,0.5,0.5,0.5,0,0.5
2012-09-24,0.5,0.5,0.5,0.5,1900,0.5
2012-09-25,0.5,0.5,0.49,0.49,21100,0.49
2012-09-26,0.5,0.5,0.5,0.5,126200,0.5
2012-09-27,0.56,0.56,0.56,0.56,5900,0.56
2012-09-28,0.62,0.7,0.62,0.7,42000,0.7
2012-10-01,0.7,0.7,0.7,0.7,0,0.7
2012-10-02,0.66,0.66,0.62,0.62,18400,0.62
2012-10-03,0.62,0.62,0.62,0.62,8500,0.62
2012-10-04,0.62,0.62,0.62,0.62,0,0.62
2012-10-05,0.655,0.7,0.655,0.69,26500,0.69
2012-10-08,0.69,0.75,0.69,0.75,95500,0.75
2012-10-09,0.75,0.85,0.75,0.85,345100,0.85
2012-10-10,0.85,0.85,0.85,0.85,0,0.85
2012-10-11,0.85,0.85,0.85,0.85,0,0.85
2012-10-12,0.935,0.99,0.86,0.93,237300,0.93
2012-10-15,0.94,0.95,0.935,0.935,61600,0.935
2012-10-16,0.935,0.95,0.91,0.945,115300,0.945
2012-10-17,0.95,1.025,0.95,1.0,155800,1.0
2012-10-18,1.01,1.035,0.99,0.99,182300,0.99
2012-10-19,0.995,1.01,0.995,1.01,80200,1.01
2012-10-22,1.01,1.05,1.01,1.05,177400,1.05
2012-10-23,1.04,1.04,1.0,1.0,62400,1.0
2012-10-24,1.05,1.05,1.05,1.05,52500,1.05
2012-10-25,1.05,1.05,0.995,1.01,89900,1.01
2012-10-26,1.01,1.02,0.95,0.95,133300,0.95
2012-10-29,0.94,0.95,0.93,0.95,48900,0.95
2012-10-30,0.94,0.985,0.93,0.98,55100,0.98
2012-10-31,0.98,0.98,0.955,0.96,37100,0.96
2012-11-01,0.96,0.99,0.955,0.99,44200,0.99
2012-11-02,0.99,1.0,0.99,1.0,152700,1.0
2012-11-05,0.99,0.99,0.945,0.98,51400,0.98
2012-11-06,0.98,0.98,0.97,0.97,19500,0.97
2012-11-07,0.955,0.955,0.95,0.955,14500,0.955
2012-11-08,0.93,0.94,0.915,0.94,70400,0.94
2012-11-09,0.94,0.97,0.94,0.97,20500,0.97
2012-11-12,0.94,0.965,0.93,0.965,34500,0.965
2012-11-13,0.965,0.965,0.93,0.95,35000,0.95
2012-11-14,0.93,0.93,0.93,0.93,600,0.93
2012-11-15,0.95,0.955,0.94,0.95,23500,0.95
2012-11-16,0.95,0.95,0.95,0.95,44200,0.95
2012-11-19,0.96,0.985,0.96,0.985,5000,0.985
2012-11-20,0.985,1.0,0.985,1.0,44000,1.0
2012-11-21,0.99,0.99,0.95,0.985,23100,0.985
2012-11-22,0.955,0.96,0.95,0.95,42400,0.95
2012-11-23,0.96,0.99,0.96,0.99,103300,0.99
2012-11-26,0.99,0.99,0.965,0.965,32200,0.965
2012-11-27,0.965,0.975,0.95,0.95,48000,0.95
2012-11-28,0.955,0.955,0.94,0.95,65000,0.95
2012-11-29,0.95,0.95,0.915,0.915,56000,0.915
2012-11-30,0.93,0.95,0.93,0.95,19600,0.95
2012-12-03,1.0,1.0,1.0,1.0,24400,1.0
2012-12-04,1.0,1.0,1.0,1.0,0,1.0
2012-12-05,1.0,1.0,1.0,1.0,0,1.0
2012-12-06,1.0,1.0,1.0,1.0,0,1.0
2012-12-07,0.9,0.9,0.88,0.89,17500,0.89
2012-12-10,0.87,0.88,0.86,0.86,9000,0.86
2012-12-11,0.8,0.8,0.8,0.8,41700,0.8
2012-12-12,0.75,0.8,0.75,0.8,22400,0.8
2012-12-13,0.83,0.85,0.83,0.85,130600,0.85
2012-12-14,0.85,0.85,0.83,0.83,77800,0.83
2012-12-17,0.83,0.83,0.8,0.8,66200,0.8
2012-12-18,0.805,0.805,0.8,0.8,51100,0.8
2012-12-19,0.8,0.8,0.79,0.8,11500,0.8
2012-12-20,0.8,0.8,0.8,0.8,0,0.8
2012-12-21,0.79,0.79,0.79,0.79,42200,0.79
2012-12-24,0.79,0.79,0.79,0.79,0,0.79
2012-12-25,0.79,0.79,0.79,0.79,0,0.79
2012-12-26,0.79,0.79,0.79,0.79,0,0.79
2012-12-27,0.79,0.79,0.79,0.79,0,0.79
2012-12-28,0.78,0.78,0.78,0.78,10000,0.78
2012-12-31,0.78,0.78,0.78,0.78,0,0.78
2013-01-01,0.78,0.78,0.78,0.78,0,0.78
2013-01-02,0.78,0.8,0.78,0.8,22400,0.8
2013-01-03,0.78,0.8,0.78,0.8,10800,0.8
2013-01-04,0.8,0.8,0.8,0.8,0,0.8
2013-01-07,0.79,0.79,0.78,0.78,13500,0.78
2013-01-08,0.77,0.77,0.76,0.76,97500,0.76
2013-01-09,0.76,0.76,0.76,0.76,0,0.76
2013-01-10,0.75,0.76,0.75,0.75,34000,0.75
2013-01-11,0.75,0.75,0.75,0.75,0,0.75
2013-01-14,0.75,0.75,0.75,0.75,0,0.75
2013-01-15,0.71,0.71,0.65,0.65,19000,0.65
2013-01-16,0.65,0.65,0.65,0.65,44100,0.65
2013-01-17,0.66,0.66,0.63,0.63,282000,0.63
2013-01-18,0.63,0.64,0.63,0.63,55400,0.63
2013-01-21,0.635,0.64,0.615,0.64,135200,0.64
2013-01-22,0.64,0.65,0.64,0.64,109600,0.64
2013-01-23,0.64,0.65,0.635,0.635,86500,0.635
2013-01-24,0.65,0.7,0.63,0.695,229700,0.695
2013-01-25,0.7,0.735,0.695,0.7,55400,0.7
2013-01-28,0.7,0.7,0.7,0.7,0,0.7
2013-01-29,0.73,0.75,0.73,0.75,50800,0.75
2013-01-30,0.76,0.795,0.75,0.795,183900,0.795
2013-01-31,0.8,0.8,0.78,0.78,52000,0.78
2013-02-01,0.78,0.8,0.78,0.8,46200,0.8
2013-02-04,0.79,0.8,0.79,0.8,15000,0.8
2013-02-05,0.79,0.79,0.74,0.78,123900,0.78
2013-02-06,0.78,0.78,0.78,0.78,30500,0.78
2013-02-07,0.76,0.76,0.76,0.76,10000,0.76
2013-02-08,0.76,0.76,0.75,0.75,10000,0.75
2013-02-11,0.75,0.75,0.75,0.75,0,0.75
2013-02-12,0.78,0.8,0.78,0.8,40600,0.8
2013-02-13,0.8,0.8,0.8,0.8,0,0.8
2013-02-14,0.79,0.79,0.79,0.79,10000,0.79
2013-02-15,0.79,0.795,0.79,0.795,25000,0.795
2013-02-18,0.79,0.79,0.76,0.76,21500,0.76
2013-02-19,0.76,0.76,0.75,0.75,75000,0.75
2013-02-20,0.755,0.755,0.75,0.75,6900,0.75
2013-02-21,0.75,0.77,0.75,0.75,56900,0.75
2013-02-22,0.75,0.75,0.75,0.75,10000,0.75
2013-02-25,0.75,0.75,0.74,0.74,50500,0.74
2013-02-26,0.74,0.74,0.74,0.74,3000,0.74
2013-02-27,0.75,0.75,0.74,0.75,8100,0.75
2013-02-28,0.75,0.75,0.75,0.75,10000,0.75
2013-03-01,0.75,0.75,0.75,0.75,11000,0.75
2013-03-04,0.75,0.75,0.75,0.75,0,0.75
2013-03-05,0.77,0.77,0.75,0.75,39000,0.75
2013-03-06,0.75,0.75,0.75,0.75,0,0.75
2013-03-07,0.75,0.75,0.75,0.75,0,0.75
2013-03-08,0.7,0.7,0.7,0.7,21900,0.7
2013-03-11,0.7,0.7,0.7,0.7,0,0.7
2013-03-12,0.73,0.74,0.73,0.74,26800,0.74
2013-03-13,0.71,0.71,0.7,0.7,10000,0.7
2013-03-14,0.71,0.75,0.71,0.75,18000,0.75
2013-03-15,0.745,0.75,0.745,0.75,49700,0.75
2013-03-18,0.75,0.78,0.745,0.78,14200,0.78
2013-03-19,0.73,0.73,0.725,0.73,131600,0.73
2013-03-20,0.73,0.73,0.73,0.73,0,0.73
2013-03-21,0.74,0.74,0.705,0.705,9900,0.705
2013-03-22,0.71,0.71,0.705,0.705,16900,0.705
2013-03-25,0.71,0.71,0.71,0.71,1000,0.71
2013-03-26,0.71,0.71,0.71,0.71,0,0.71
2013-03-27,0.71,0.71,0.71,0.71,0,0.71
2013-03-28,0.71,0.71,0.71,0.71,0,0.71
2013-03-29,0.71,0.71,0.71,0.71,0,0.71
2013-04-01,0.71,0.71,0.71,0.71,0,0.71
2013-04-02,0.7,0.7,0.69,0.7,56900,0.7
2013-04-03,0.7,0.7,0.7,0.7,0,0.7
2013-04-04,0.7,0.7,0.7,0.7,100,0.7
2013-04-05,0.65,0.65,0.65,0.65,5000,0.65
2013-04-08,0.66,0.7,0.66,0.7,50100,0.7
2013-04-09,0.7,0.7,0.7,0.7,10400,0.7
2013-04-10,0.68,0.7,0.62,0.7,19500,0.7
2013-04-11,0.69,0.7,0.69,0.7,27000,0.7
2013-04-12,0.7,0.7,0.695,0.695,20000,0.695
2013-04-15,0.69,0.695,0.66,0.68,17100,0.68
2013-04-16,0.665,0.665,0.665,0.665,14800,0.665
2013-04-17,0.67,0.67,0.67,0.67,4800,0.67
2013-04-18,0.67,0.67,0.67,0.67,0,0.67
2013-04-19,0.67,0.67,0.67,0.67,0,0.67
2013-04-22,0.67,0.67,0.67,0.67,0,0.67
2013-04-23,0.67,0.67,0.67,0.67,0,0.67
2013-04-24,0.67,0.67,0.67,0.67,0,0.67
2013-04-25,0.67,0.67,0.67,0.67,0,0.67
2013-04-26,0.67,0.67,0.67,0.67,0,0.67
2013-04-29,0.67,0.67,0.67,0.67,0,0.67
2013-04-30,0.67,0.67,0.67,0.67,0,0.67
2013-05-01,0.67,0.67,0.67,0.67,0,0.67
2013-05-02,0.67,0.67,0.67,0.67,0,0.67
2013-05-03,0.67,0.67,0.67,0.67,0,0.67
2013-05-06,0.67,0.67,0.67,0.67,0,0.67
2013-05-07,0.67,0.67,0.67,0.67,0,0.67
2013-05-08,0.67,0.67,0.67,0.67,0,0.67
2013-05-09,0.67,0.67,0.67,0.67,0,0.67
2013-05-10,0.645,0.645,0.645,0.645,700,0.645
2013-05-13,0.645,0.645,0.645,0.645,0,0.645
2013-05-14,0.645,0.645,0.645,0.645,0,0.645
2013-05-15,0.62,0.62,0.62,0.62,11000,0.62
2013-05-16,0.62,0.62,0.62,0.62,0,0.62
2013-05-17,0.62,0.62,0.62,0.62,0,0.62
2013-05-20,0.55,0.55,0.52,0.52,48700,0.52
2013-05-21,0.52,0.52,0.52,0.52,7100,0.52
2013-05-22,0.51,0.51,0.51,0.51,14200,0.51
2013-05-23,0.52,0.52,0.5,0.5,25000,0.5
2013-05-24,0.5,0.5,0.5,0.5,1600,0.5
2013-05-27,0.5,0.5,0.5,0.5,0,0.5
2013-05-28,0.5,0.5,0.5,0.5,0,0.5
2013-05-29,0.5,0.5,0.5,0.5,0,0.5
2013-05-30,0.49,0.495,0.49,0.495,20000,0.495
2013-05-31,0.495,0.495,0.495,0.495,0,0.495
2013-06-03,0.49,0.49,0.49,0.49,10000,0.49
2013-06-04,0.49,0.49,0.49,0.49,0,0.49
2013-06-05,0.49,0.49,0.49,0.49,0,0.49
2013-06-06,0.49,0.49,0.49,0.49,0,0.49
2013-06-07,0.49,0.49,0.49,0.49,0,0.49
2013-06-10,0.49,0.49,0.49,0.49,0,0.49
2013-06-11,0.45,0.45,0.45,0.45,30000,0.45
2013-06-12,0.45,0.45,0.41,0.45,682500,0.45
2013-06-13,0.45,0.45,0.45,0.45,0,0.45
2013-06-14,0.45,0.45,0.45,0.45,5000,0.45
2013-06-17,0.45,0.45,0.45,0.45,9200,0.45
2013-06-18,0.45,0.45,0.45,0.45,0,0.45
2013-06-19,0.45,0.45,0.45,0.45,0,0.45
2013-06-20,0.45,0.45,0.45,0.45,0,0.45
2013-06-21,0.45,0.45,0.45,0.45,0,0.45
2013-06-24,0.45,0.45,0.45,0.45,18700,0.45
2013-06-25,0.45,0.45,0.42,0.45,28000,0.45
2013-06-26,0.45,0.45,0.45,0.45,5800,0.45
2013-06-27,0.45,0.45,0.44,0.44,10800,0.44
2013-06-28,0.44,0.44,0.44,0.44,0,0.44
2013-07-01,0.4,0.4,0.4,0.4,5500,0.4
2013-07-02,0.39,0.39,0.39,0.39,11500,0.39
2013-07-03,0.39,0.39,0.39,0.39,20000,0.39
2013-07-04,0.39,0.39,0.39,0.39,0,0.39
2013-07-05,0.39,0.39,0.39,0.39,64000,0.39
2013-07-08,0.39,0.39,0.39,0.39,0,0.39
2013-07-09,0.39,0.39,0.39,0.39,0,0.39
2013-07-10,0.39,0.39,0.39,0.39,0,0.39
2013-07-11,0.36,0.36,0.36,0.36,28800,0.36
2013-07-12,0.36,0.36,0.36,0.36,0,0.36
2013-07-15,0.36,0.36,0.36,0.36,0,0.36
2013-07-16,0.36,0.36,0.36,0.36,0,0.36
2013-07-17,0.36,0.36,0.36,0.36,0,0.36
2013-07-18,0.36,0.365,0.33,0.365,411100,0.365
2013-07-19,0.365,0.435,0.365,0.42,46800,0.42
2013-07-22,0.43,0.43,0.4,0.4,50000,0.4
2013-07-23,0.425,0.425,0.4,0.4,53900,0.4
2013-07-24,0.41,0.41,0.41,0.41,97300,0.41
2013-07-25,0.44,0.45,0.44,0.45,274500,0.45
2013-07-26,0.45,0.45,0.45,0.45,0,0.45
2013-07-29,0.41,0.41,0.39,0.39,20000,0.39
2013-07-30,0.39,0.41,0.375,0.41,34500,0.41
2013-07-31,0.41,0.41,0.395,0.4,179100,0.4
2013-08-01,0.4,0.4,0.4,0.4,3900,0.4
2013-08-02,0.4,0.4,0.4,0.4,59000,0.4
2013-08-05,0.4,0.4,0.4,0.4,0,0.4
2013-08-06,0.45,0.45,0.45,0.45,10000,0.45
2013-08-07,0.45,0.45,0.45,0.45,27500,0.45
2013-08-08,0.49,0.49,0.49,0.49,20000,0.49
2013-08-09,0.49,0.49,0.49,0.49,0,0.49
2013-08-12,0.47,0.47,0.45,0.45,16500,0.45
2013-08-13,0.47,0.54,0.47,0.49,106700,0.49
2013-08-14,0.46,0.46,0.46,0.46,29300,0.46
2013-08-15,0.46,0.51,0.46,0.51,105200,0.51
2013-08-16,0.48,0.52,0.46,0.52,111000,0.52
2013-08-19,0.53,0.53,0.53,0.53,5000,0.53
2013-08-20,0.53,0.53,0.53,0.53,13500,0.53
2013-08-21,0.57,0.57,0.57,0.57,38000,0.57
2013-08-22,0.59,0.59,0.59,0.59,10000,0.59
2013-08-23,0.59,0.6,0.59,0.6,14500,0.6
2013-08-26,0.6,0.6,0.6,0.6,30000,0.6
2013-08-27,0.58,0.58,0.58,0.58,25000,0.58
2013-08-28,0.58,0.58,0.58,0.58,0,0.58
2013-08-29,0.53,0.53,0.52,0.52,260000,0.52
2013-08-30,0.575,0.61,0.575,0.61,33000,0.61
2013-09-02,0.65,0.7,0.65,0.69,62000,0.69
2013-09-03,0.65,0.65,0.62,0.62,2200,0.62
2013-09-04,0.62,0.62,0.62,0.62,0,0.62
2013-09-05,0.65,0.65,0.65,0.65,2800,0.65
2013-09-06,0.64,0.64,0.62,0.62,30000,0.62
2013-09-09,0.635,0.64,0.635,0.64,7100,0.64
2013-09-10,0.68,0.7,0.68,0.69,47600,0.69
2013-09-11,0.69,0.69,0.69,0.69,0,0.69
2013-09-12,0.69,0.69,0.69,0.69,0,0.69
2013-09-13,0.66,0.69,0.66,0.68,85000,0.68
2013-09-16,0.68,0.68,0.68,0.68,0,0.68
2013-09-17,0.68,0.68,0.68,0.68,4200,0.68
2013-09-18,0.68,0.68,0.68,0.68,64600,0.68
2013-09-19,0.69,0.7,0.69,0.7,61300,0.7
2013-09-20,0.7,0.7,0.7,0.7,0,0.7
2013-09-23,0.7,0.7,0.7,0.7,0,0.7
2013-09-24,0.7,0.7,0.7,0.7,5000,0.7
2013-09-25,0.7,0.7,0.7,0.7,0,0.7
2013-09-26,0.7,0.7,0.7,0.7,0,0.7
2013-09-27,0.7,0.7,0.7,0.7,700,0.7
2013-09-30,0.7,0.7,0.7,0.7,4000,0.7
2013-10-01,0.7,0.7,0.7,0.7,5500,0.7
2013-10-02,0.7,0.7,0.7,0.7,10000,0.7
2013-10-03,0.7,0.7,0.7,0.7,0,0.7
2013-10-04,0.7,0.7,0.7,0.7,0,0.7
2013-10-07,0.7,0.7,0.7,0.7,50000,0.7
2013-10-08,0.7,0.7,0.7,0.7,21700,0.7
2013-10-09,0.7,0.7,0.7,0.7,0,0.7
2013-10-10,0.7,0.7,0.7,0.7,20000,0.7
2013-10-11,0.7,0.7,0.7,0.7,15900,0.7
2013-10-14,0.7,0.7,0.7,0.7,0,0.7
2013-10-15,0.625,0.625,0.6,0.6,164000,0.6
2013-10-16,0.6,0.6,0.6,0.6,0,0.6
2013-10-17,0.605,0.605,0.6,0.6,44400,0.6
2013-10-18,0.6,0.6,0.6,0.6,302900,0.6
2013-10-21,0.6,0.6,0.6,0.6,37700,0.6
2013-10-22,0.6,0.62,0.6,0.62,52200,0.62
2013-10-23,0.62,0.62,0.6,0.62,121600,0.62
2013-10-24,0.62,0.64,0.6,0.64,47000,0.64
2013-10-25,0.64,0.64,0.64,0.64,0,0.64
2013-10-28,0.64,0.64,0.64,0.64,46700,0.64
2013-10-29,0.64,0.64,0.64,0.64,20000,0.64
2013-10-30,0.64,0.64,0.64,0.64,0,0.64
2013-10-31,0.62,0.63,0.61,0.63,58800,0.63
2013-11-01,0.64,0.64,0.64,0.64,6000,0.64
2013-11-04,0.64,0.64,0.6,0.6,64800,0.6
2013-11-05,0.6,0.6,0.6,0.6,0,0.6
2013-11-06,0.6,0.62,0.59,0.6,62600,0.6
2013-11-07,0.6,0.6,0.6,0.6,0,0.6
2013-11-08,0.59,0.59,0.58,0.59,86000,0.59
2013-11-11,0.58,0.58,0.55,0.55,87300,0.55
2013-11-12,0.53,0.57,0.53,0.57,16800,0.57
2013-11-13,0.55,0.55,0.55,0.55,5000,0.55
2013-11-14,0.55,0.58,0.55,0.58,134400,0.58
2013-11-15,0.55,0.55,0.55,0.55,25000,0.55
2013-11-18,0.55,0.55,0.55,0.55,0,0.55
2013-11-19,0.545,0.55,0.54,0.54,55200,0.54
2013-11-20,0.54,0.54,0.54,0.54,20000,0.54
2013-11-21,0.53,0.55,0.48,0.55,94100,0.55
2013-11-22,0.57,0.57,0.55,0.57,199900,0.57
2013-11-25,0.57,0.57,0.57,0.57,0,0.57
2013-11-26,0.57,0.57,0.56,0.56,49700,0.56
2013-11-27,0.56,0.565,0.56,0.56,61200,0.56
2013-11-28,0.56,0.565,0.56,0.565,36200,0.565
2013-11-29,0.565,0.565,0.565,0.565,39200,0.565
2013-12-02,0.565,0.565,0.565,0.565,0,0.565
2013-12-03,0.565,0.565,0.565,0.565,0,0.565
2013-12-04,0.52,0.52,0.52,0.52,17300,0.52
2013-12-05,0.525,0.525,0.52,0.52,16100,0.52
2013-12-06,0.525,0.525,0.5,0.51,32000,0.51
2013-12-09,0.5,0.51,0.49,0.49,29700,0.49
2013-12-10,0.49,0.49,0.48,0.48,26800,0.48
2013-12-11,0.46,0.51,0.46,0.51,410500,0.51
2013-12-12,0.535,0.565,0.5,0.515,82800,0.515
2013-12-13,0.515,0.515,0.515,0.515,0,0.515
2013-12-16,0.515,0.515,0.515,0.515,0,0.515
2013-12-17,0.55,0.55,0.55,0.55,20000,0.55
2013-12-18,0.55,0.55,0.55,0.55,0,0.55
2013-12-19,0.505,0.505,0.5,0.5,110900,0.5
2013-12-20,0.5,0.5,0.5,0.5,0,0.5
2013-12-23,0.54,0.54,0.5,0.5,12500,0.5
2013-12-24,0.495,0.495,0.465,0.465,16000,0.465
2013-12-25,0.465,0.465,0.465,0.465,0,0.465
2013-12-26,0.465,0.465,0.465,0.465,0,0.465
2013-12-27,0.465,0.465,0.465,0.465,0,0.465
2013-12-30,0.465,0.465,0.465,0.465,0,0.465
2013-12-31,0.49,0.49,0.49,0.49,9000,0.49
2014-01-01,0.49,0.49,0.49,0.49,0,0.49
2014-01-02,0.49,0.49,0.49,0.49,0,0.49
2014-01-03,0.46,0.46,0.46,0.46,26200,0.46
2014-01-06,0.485,0.5,0.485,0.5,47000,0.5
2014-01-07,0.5,0.5,0.5,0.5,0,0.5
2014-01-08,0.46,0.5,0.46,0.5,21000,0.5
2014-01-09,0.5,0.5,0.5,0.5,0,0.5
2014-01-10,0.47,0.49,0.47,0.47,18000,0.47
2014-01-13,0.47,0.47,0.47,0.47,0,0.47
2014-01-14,0.48,0.48,0.47,0.47,109800,0.47
2014-01-15,0.47,0.47,0.47,0.47,10500,0.47
2014-01-16,0.47,0.47,0.47,0.47,39800,0.47
2014-01-17,0.47,0.47,0.47,0.47,0,0.47
2014-01-20,0.47,0.47,0.47,0.47,0,0.47
2014-01-21,0.47,0.47,0.46,0.46,45000,0.46
2014-01-22,0.46,0.47,0.46,0.47,62000,0.47
2014-01-23,0.47,0.47,0.47,0.47,26600,0.47
2014-01-24,0.47,0.495,0.47,0.495,5000,0.495
2014-01-27,0.495,0.495,0.495,0.495,0,0.495
2014-01-28,0.495,0.495,0.495,0.495,0,0.495
2014-01-29,0.495,0.495,0.495,0.495,0,0.495
2014-01-30,0.495,0.495,0.495,0.495,0,0.495
2014-01-31,0.495,0.495,0.495,0.495,0,0.495
2014-02-03,0.495,0.495,0.495,0.495,0,0.495
2014-02-04,0.495,0.495,0.495,0.495,0,0.495
2014-02-05,0.495,0.495,0.495,0.495,0,0.495
2014-02-06,0.495,0.495,0.495,0.495,0,0.495
2014-02-07,0.495,0.495,0.495,0.495,0,0.495
2014-02-10,0.45,0.45,0.45,0.45,50000,0.45
2014-02-11,0.45,0.45,0.45,0.45,0,0.45
2014-02-12,0.45,0.47,0.45,0.47,40000,0.47
2014-02-13,0.47,0.5,0.47,0.47,146000,0.47
2014-02-14,0.47,0.47,0.47,0.47,49300,0.47
2014-02-17,0.475,0.475,0.475,0.475,25000,0.475
2014-02-18,0.49,0.5,0.485,0.485,159500,0.485
2014-02-19,0.515,0.515,0.5,0.505,37000,0.505
2014-02-20,0.53,0.53,0.475,0.48,219100,0.48
2014-02-21,0.48,0.59,0.48,0.5,242300,0.5
2014-02-24,0.5,0.53,0.495,0.51,262500,0.51
2014-02-25,0.515,0.52,0.475,0.48,193800,0.48
2014-02-26,0.5,0.515,0.5,0.5,47000,0.5
2014-02-27,0.5,0.5,0.5,0.5,2200,0.5
2014-02-28,0.5,0.5,0.49,0.49,541700,0.49
2014-03-03,0.49,0.49,0.49,0.49,0,0.49
2014-03-04,0.48,0.48,0.45,0.45,143200,0.45
2014-03-05,0.445,0.45,0.445,0.45,46700,0.45
2014-03-06,0.45,0.46,0.45,0.46,13200,0.46
2014-03-07,0.445,0.445,0.445,0.445,1200,0.445
2014-03-10,0.44,0.44,0.435,0.435,32700,0.435
2014-03-11,0.435,0.435,0.435,0.435,0,0.435
2014-03-12,0.455,0.455,0.455,0.455,1000,0.455
2014-03-13,0.455,0.455,0.455,0.455,0,0.455
2014-03-14,0.455,0.455,0.455,0.455,0,0.455
2014-03-17,0.445,0.445,0.445,0.445,4000,0.445
2014-03-18,0.445,0.45,0.4,0.42,166700,0.42
2014-03-19,0.42,0.42,0.385,0.4,277500,0.4
2014-03-20,0.4,0.4,0.4,0.4,0,0.4
2014-03-21,0.4,0.4,0.4,0.4,0,0.4
2014-03-24,0.4,0.4,0.4,0.4,0,0.4
2014-03-25,0.4,0.4,0.4,0.4,0,0.4
2014-03-26,0.4,0.4,0.4,0.4,0,0.4
2014-03-27,0.4,0.42,0.4,0.42,77700,0.42
2014-03-28,0.42,0.42,0.4,0.4,21100,0.4
2014-03-31,0.4,0.415,0.395,0.41,14900,0.41
2014-04-01,0.41,0.41,0.41,0.41,0,0.41
2014-04-02,0.4,0.42,0.4,0.42,32500,0.42
2014-04-03,0.42,0.42,0.42,0.42,7000,0.42
2014-04-04,0.4,0.4,0.4,0.4,2300,0.4
2014-04-07,0.4,0.4,0.4,0.4,13000,0.4
2014-04-08,0.4,0.4,0.4,0.4,0,0.4
2014-04-09,0.4,0.42,0.4,0.42,25000,0.42
2014-04-10,0.42,0.42,0.42,0.42,6000,0.42
2014-04-11,0.42,0.42,0.42,0.42,0,0.42
2014-04-14,0.42,0.42,0.42,0.42,0,0.42
2014-04-15,0.39,0.39,0.39,0.39,6000,0.39
2014-04-16,0.4,0.4,0.4,0.4,2500,0.4
2014-04-17,0.4,0.4,0.4,0.4,98000,0.4
2014-04-18,0.4,0.4,0.4,0.4,0,0.4
2014-04-21,0.4,0.4,0.4,0.4,0,0.4
2014-04-22,0.4,0.4,0.4,0.4,51900,0.4
2014-04-23,0.385,0.385,0.385,0.385,2000,0.385
2014-04-24,0.385,0.385,0.385,0.385,8000,0.385
2014-04-25,0.385,0.385,0.385,0.385,0,0.385
2014-04-28,0.365,0.4,0.35,0.4,100300,0.4
2014-04-29,0.355,0.39,0.355,0.39,27400,0.39
2014-04-30,0.395,0.395,0.395,0.395,4700,0.395
2014-05-01,0.395,0.395,0.395,0.395,1500,0.395
2014-05-02,0.4,0.42,0.39,0.39,137500,0.39
2014-05-05,0.39,0.39,0.35,0.39,28000,0.39
2014-05-06,0.39,0.39,0.39,0.39,0,0.39
2014-05-07,0.4,0.4,0.38,0.4,15000,0.4
2014-05-08,0.35,0.4,0.35,0.4,113700,0.4
2014-05-09,0.4,0.4,0.4,0.4,0,0.4
2014-05-12,0.39,0.39,0.39,0.39,16500,0.39
2014-05-13,0.36,0.4,0.36,0.4,13500,0.4
2014-05-14,0.35,0.35,0.34,0.34,30000,0.34
2014-05-15,0.355,0.38,0.35,0.38,76000,0.38
2014-05-16,0.35,0.37,0.35,0.355,533000,0.355
2014-05-19,0.36,0.36,0.33,0.35,81100,0.35
2014-05-20,0.35,0.35,0.35,0.35,0,0.35
2014-05-21,0.335,0.36,0.33,0.36,237900,0.36
2014-05-22,0.36,0.36,0.36,0.36,0,0.36
2014-05-23,0.38,0.38,0.34,0.36,60000,0.36
2014-05-26,0.36,0.36,0.36,0.36,2700,0.36
2014-05-27,0.35,0.35,0.34,0.35,70000,0.35
2014-05-28,0.35,0.35,0.35,0.35,0,0.35
2014-05-29,0.35,0.35,0.35,0.35,0,0.35
2014-05-30,0.33,0.35,0.33,0.34,134600,0.34
2014-06-02,0.34,0.34,0.34,0.34,6000,0.34
2014-06-03,0.34,0.34,0.34,0.34,3900,0.34
2014-06-04,0.34,0.34,0.34,0.34,0,0.34
2014-06-05,0.32,0.33,0.305,0.33,36000,0.33
2014-06-06,0.33,0.33,0.33,0.33,3200,0.33
2014-06-09,0.33,0.33,0.33,0.33,0,0.33
2014-06-10,0.305,0.33,0.3,0.33,211500,0.33
2014-06-11,0.3,0.36,0.3,0.36,101500,0.36
2014-06-12,0.36,0.36,0.3,0.315,136200,0.315
2014-06-13,0.315,0.32,0.315,0.315,28700,0.315
2014-06-16,0.315,0.32,0.315,0.315,28000,0.315
2014-06-17,0.325,0.34,0.325,0.34,50000,0.34
2014-06-18,0.33,0.33,0.31,0.31,50000,0.31
2014-06-19,0.31,0.31,0.31,0.31,0,0.31
2014-06-20,0.295,0.33,0.295,0.33,56000,0.33
2014-06-23,0.33,0.33,0.31,0.32,159600,0.32
2014-06-24,0.32,0.32,0.3,0.3,143500,0.3
2014-06-25,0.3,0.32,0.3,0.32,97100,0.32
2014-06-26,0.31,0.35,0.31,0.35,99100,0.35
2014-06-27,0.34,0.38,0.34,0.37,59500,0.37
2014-06-30,0.37,0.38,0.36,0.38,73200,0.38
2014-07-01,0.38,0.38,0.38,0.38,10000,0.38
2014-07-02,0.38,0.39,0.38,0.39,88000,0.39
2014-07-03,0.39,0.39,0.37,0.37,65300,0.37
2014-07-04,0.36,0.36,0.36,0.36,1300,0.36
2014-07-07,0.35,0.35,0.345,0.35,114800,0.35
2014-07-08,0.35,0.35,0.35,0.35,2000,0.35
2014-07-09,0.35,0.395,0.35,0.395,60000,0.395
2014-07-10,0.395,0.395,0.395,0.395,0,0.395
2014-07-11,0.395,0.395,0.395,0.395,0,0.395
2014-07-14,0.37,0.37,0.36,0.36,27500,0.36
2014-07-15,0.36,0.36,0.35,0.35,64200,0.35
2014-07-16,0.34,0.35,0.34,0.35,38200,0.35
2014-07-17,0.35,0.35,0.35,0.35,0,0.35
2014-07-18,0.35,0.35,0.35,0.35,0,0.35
2014-07-21,0.37,0.37,0.34,0.34,25000,0.34
2014-07-22,0.355,0.355,0.355,0.355,30000,0.355
2014-07-23,0.355,0.355,0.34,0.34,37000,0.34
2014-07-24,0.34,0.34,0.34,0.34,0,0.34
2014-07-25,0.355,0.355,0.355,0.355,4500,0.355
2014-07-28,0.355,0.355,0.355,0.355,15000,0.355
2014-07-29,0.355,0.355,0.35,0.35,169400,0.35
2014-07-30,0.35,0.36,0.35,0.36,141000,0.36
2014-07-31,0.36,0.37,0.36,0.37,60000,0.37
2014-08-01,0.35,0.35,0.35,0.35,50000,0.35
2014-08-04,0.35,0.35,0.35,0.35,0,0.35
2014-08-05,0.36,0.36,0.36,0.36,18600,0.36
2014-08-06,0.35,0.35,0.35,0.35,4000,0.35
2014-08-07,0.35,0.35,0.35,0.35,0,0.35
2014-08-08,0.35,0.35,0.34,0.34,40000,0.34
2014-08-11,0.34,0.34,0.34,0.34,0,0.34
2014-08-12,0.345,0.345,0.34,0.34,5500,0.34
2014-08-13,0.34,0.34,0.34,0.34,0,0.34
2014-08-14,0.345,0.345,0.3,0.3,60000,0.3
2014-08-15,0.3,0.3,0.3,0.3,0,0.3
2014-08-18,0.34,0.34,0.34,0.34,14000,0.34
2014-08-19,0.335,0.34,0.335,0.34,53000,0.34
2014-08-20,0.34,0.34,0.34,0.34,8000,0.34
2014-08-21,0.34,0.34,0.34,0.34,100000,0.34
2014-08-22,0.34,0.34,0.32,0.32,15000,0.32
2014-08-25,0.34,0.34,0.34,0.34,4500,0.34
2014-08-26,0.35,0.35,0.35,0.35,101900,0.35
2014-08-27,0.35,0.35,0.34,0.34,5500,0.34
2014-08-28,0.355,0.355,0.35,0.35,21500,0.35
2014-08-29,0.35,0.35,0.34,0.34,40000,0.34
2014-09-01,0.355,0.36,0.35,0.35,13300,0.35
2014-09-02,0.35,0.35,0.345,0.345,40000,0.345
2014-09-03,0.345,0.345,0.345,0.345,0,0.345
2014-09-04,0.38,0.38,0.38,0.38,5000,0.38
2014-09-05,0.38,0.4,0.38,0.4,120000,0.4
2014-09-08,0.4,0.4,0.4,0.4,0,0.4
2014-09-09,0.4,0.4,0.4,0.4,0,0.4
2014-09-10,0.39,0.39,0.39,0.39,3600,0.39
2014-09-11,0.38,0.38,0.36,0.37,155400,0.37
2014-09-12,0.375,0.375,0.345,0.345,86600,0.345
2014-09-15,0.35,0.36,0.35,0.35,43900,0.35
2014-09-16,0.35,0.35,0.345,0.345,50000,0.345
2014-09-17,0.35,0.35,0.34,0.34,77000,0.34
2014-09-18,0.33,0.33,0.33,0.33,11200,0.33
2014-09-19,0.33,0.34,0.33,0.34,131000,0.34
2014-09-22,0.33,0.34,0.33,0.34,96000,0.34
2014-09-23,0.34,0.34,0.34,0.34,51700,0.34
2014-09-24,0.34,0.34,0.34,0.34,175000,0.34
2014-09-25,0.34,0.34,0.335,0.335,78000,0.335
2014-09-26,0.34,0.35,0.34,0.34,168000,0.34
2014-09-29,0.33,0.35,0.33,0.34,60000,0.34
2014-09-30,0.34,0.34,0.34,0.34,0,0.34
2014-10-01,0.34,0.34,0.34,0.34,0,0.34
2014-10-02,0.34,0.34,0.34,0.34,0,0.34
2014-10-03,0.34,0.34,0.34,0.34,0,0.34
2014-10-06,0.34,0.34,0.34,0.34,0,0.34
2014-10-07,0.33,0.33,0.3,0.3,273200,0.3
2014-10-08,0.305,0.315,0.305,0.315,3700,0.315
2014-10-09,0.315,0.315,0.315,0.315,7000,0.315
2014-10-10,0.315,0.32,0.31,0.32,112000,0.32
2014-10-13,0.32,0.32,0.32,0.32,0,0.32
2014-10-14,0.32,0.32,0.32,0.32,0,0.32
2014-10-15,0.32,0.32,0.31,0.31,17400,0.31
2014-10-16,0.31,0.31,0.3,0.3,25000,0.3
2014-10-17,0.3,0.32,0.28,0.28,145700,0.28
2014-10-20,0.25,0.28,0.25,0.28,42900,0.28
2014-10-21,0.28,0.28,0.28,0.28,8800,0.28
2014-10-22,0.28,0.28,0.28,0.28,10000,0.28
2014-10-23,0.28,0.28,0.28,0.28,12000,0.28
2014-10-24,0.28,0.28,0.28,0.28,0,0.28
2014-10-27,0.28,0.28,0.27,0.27,54200,0.27
2014-10-28,0.28,0.32,0.28,0.3,25400,0.3
2014-10-29,0.29,0.3,0.29,0.3,27000,0.3
2014-10-30,0.3,0.3,0.3,0.3,0,0.3
2014-10-31,0.3,0.3,0.3,0.3,123600,0.3
2014-11-03,0.32,0.32,0.295,0.295,132900,0.295
2014-11-04,0.3,0.3,0.3,0.3,12000,0.3
2014-11-05,0.31,0.31,0.3,0.3,58900,0.3
2014-11-06,0.3,0.31,0.29,0.29,26900,0.29
2014-11-07,0.295,0.295,0.295,0.295,15200,0.295
2014-11-10,0.29,0.29,0.26,0.26,71500,0.26
2014-11-11,0.26,0.295,0.26,0.295,8500,0.295
2014-11-12,0.295,0.295,0.295,0.295,0,0.295
2014-11-13,0.285,0.295,0.275,0.295,124900,0.295
2014-11-14,0.295,0.3,0.29,0.29,36000,0.29
2014-11-17,0.28,0.28,0.28,0.28,10000,0.28
2014-11-18,0.28,0.28,0.28,0.28,0,0.28
2014-11-19,0.28,0.28,0.28,0.28,30000,0.28
2014-11-20,0.28,0.28,0.28,0.28,0,0.28
2014-11-21,0.28,0.28,0.28,0.28,0,0.28
2014-11-24,0.335,0.37,0.3,0.3,798000,0.3
2014-11-25,0.295,0.32,0.29,0.3,416600,0.3
2014-11-26,0.3,0.3,0.29,0.29,464500,0.29
2014-11-27,0.29,0.29,0.29,0.29,50000,0.29
2014-11-28,0.29,0.29,0.28,0.28,91800,0.28
2014-12-01,0.28,0.3,0.255,0.26,80000,0.26
2014-12-02,0.26,0.26,0.25,0.25,140000,0.25
2014-12-03,0.25,0.29,0.25,0.29,55100,0.29
2014-12-04,0.285,0.29,0.28,0.28,107400,0.28
2014-12-05,0.28,0.28,0.28,0.28,30400,0.28
2014-12-08,0.28,0.295,0.28,0.295,48200,0.295
2014-12-09,0.275,0.275,0.265,0.265,30000,0.265
2014-12-10,0.265,0.265,0.265,0.265,0,0.265
2014-12-11,0.26,0.26,0.26,0.26,58700,0.26
2014-12-12,0.26,0.26,0.26,0.26,13800,0.26
2014-12-15,0.265,0.27,0.255,0.255,71800,0.255
2014-12-16,0.26,0.26,0.25,0.25,30000,0.25
2014-12-17,0.225,0.225,0.205,0.205,105200,0.205
2014-12-18,0.22,0.24,0.21,0.24,138300,0.24
2014-12-19,0.24,0.24,0.24,0.24,0,0.24
2014-12-22,0.25,0.27,0.25,0.27,40000,0.27
2014-12-23,0.27,0.27,0.27,0.27,0,0.27
2014-12-24,0.27,0.27,0.27,0.27,0,0.27
2014-12-25,0.27,0.27,0.27,0.27,0,0.27
2014-12-26,0.27,0.27,0.27,0.27,0,0.27
2014-12-29,0.27,0.27,0.27,0.27,0,0.27
2014-12-30,0.27,0.27,0.27,0.27,0,0.27
2014-12-31,0.26,0.265,0.26,0.265,36700,0.265
2015-01-01,0.265,0.265,0.265,0.265,0,0.265
2015-01-02,0.265,0.265,0.265,0.265,0,0.265
2015-01-05,0.265,0.265,0.265,0.265,15000,0.265
2015-01-06,0.265,0.265,0.265,0.265,0,0.265
2015-01-07,0.265,0.265,0.26,0.26,12000,0.26
2015-01-08,0.26,0.26,0.26,0.26,0,0.26
2015-01-09,0.26,0.26,0.26,0.26,0,0.26
2015-01-12,0.26,0.26,0.26,0.26,0,0.26
2015-01-13,0.28,0.28,0.28,0.28,13700,0.28
2015-01-14,0.265,0.265,0.26,0.26,158000,0.26
2015-01-15,0.28,0.28,0.28,0.28,85000,0.28
2015-01-16,0.28,0.28,0.28,0.28,0,0.28
2015-01-19,0.265,0.265,0.26,0.26,41400,0.26
2015-01-20,0.26,0.26,0.25,0.25,94000,0.25
2015-01-21,0.25,0.25,0.25,0.25,96400,0.25
2015-01-22,0.25,0.25,0.25,0.25,190000,0.25
2015-01-23,0.25,0.255,0.25,0.255,290800,0.255
2015-01-26,0.255,0.255,0.255,0.255,0,0.255
2015-01-27,0.255,0.255,0.25,0.25,272100,0.25
2015-01-28,0.25,0.25,0.25,0.25,0,0.25
2015-01-29,0.22,0.24,0.22,0.24,65200,0.24
2015-01-30,0.24,0.24,0.24,0.24,0,0.24
2015-02-02,0.25,0.25,0.25,0.25,25000,0.25
2015-02-03,0.25,0.25,0.25,0.25,0,0.25
2015-02-04,0.25,0.25,0.25,0.25,0,0.25
2015-02-05,0.24,0.24,0.24,0.24,4000,0.24
2015-02-06,0.23,0.23,0.23,0.23,10000,0.23
2015-02-09,0.235,0.24,0.235,0.24,60200,0.24
2015-02-10,0.24,0.24,0.24,0.24,0,0.24
2015-02-11,0.24,0.24,0.24,0.24,0,0.24
2015-02-12,0.2,0.2,0.2,0.2,65000,0.2
2015-02-13,0.21,0.25,0.21,0.25,32200,0.25
2015-02-16,0.25,0.25,0.235,0.235,103500,0.235
2015-02-17,0.235,0.235,0.235,0.235,0,0.235
2015-02-18,0.23,0.23,0.23,0.23,15000,0.23
2015-02-19,0.25,0.3,0.25,0.3,53400,0.3
2015-02-20,0.3,0.3,0.3,0.3,20000,0.3
2015-02-23,0.3,0.3,0.285,0.285,11200,0.285
2015-02-24,0.285,0.285,0.285,0.285,0,0.285
2015-02-25,0.285,0.285,0.285,0.285,0,0.285
2015-02-26,0.25,0.25,0.25,0.25,45000,0.25
2015-02-27,0.26,0.29,0.26,0.285,32700,0.285
2015-03-02,0.285,0.29,0.275,0.29,20000,0.29
2015-03-03,0.29,0.29,0.29,0.29,0,0.29
2015-03-04,0.29,0.29,0.29,0.29,0,0.29
2015-03-05,0.27,0.27,0.24,0.24,19000,0.24
2015-03-06,0.24,0.24,0.24,0.24,0,0.24
2015-03-09,0.24,0.24,0.24,0.24,52500,0.24
2015-03-10,0.24,0.24,0.24,0.24,82500,0.24
2015-03-11,0.24,0.24,0.24,0.24,0,0.24
2015-03-12,0.26,0.26,0.26,0.26,0,0.26
2015-03-13,0.26,0.26,0.26,0.26,0,0.26
2015-03-16,0.25,0.26,0.25,0.26,55000,0.26
2015-03-17,0.26,0.26,0.26,0.26,0,0.26
2015-03-18,0.23,0.23,0.23,0.23,28400,0.23
2015-03-19,0.23,0.23,0.21,0.21,39900,0.21
2015-03-20,0.21,0.21,0.2,0.2,107300,0.2
2015-03-23,0.19,0.19,0.185,0.185,70900,0.185
2015-03-24,0.185,0.185,0.185,0.185,27000,0.185
2015-03-25,0.185,0.185,0.185,0.185,0,0.185
2015-03-26,0.165,0.17,0.165,0.17,50000,0.17
2015-03-27,0.175,0.18,0.175,0.18,184000,0.18
2015-03-30,0.18,0.18,0.18,0.18,0,0.18
2015-03-31,0.17,0.17,0.16,0.16,50800,0.16
2015-04-01,0.16,0.16,0.16,0.16,0,0.16
2015-04-02,0.16,0.16,0.16,0.16,0,0.16
2015-04-03,0.16,0.16,0.16,0.16,0,0.16
2015-04-06,0.16,0.16,0.16,0.16,0,0.16
2015-04-07,0.16,0.16,0.16,0.16,0,0.16
2015-04-08,0.16,0.16,0.16,0.16,0,0.16
2015-04-09,0.16,0.16,0.16,0.16,0,0.16
2015-04-10,0.16,0.16,0.16,0.16,0,0.16
2015-04-13,0.16,0.16,0.16,0.16,0,0.16
2015-04-14,0.16,0.16,0.16,0.16,0,0.16
2015-04-15,0.16,0.16,0.16,0.16,0,0.16
2015-04-16,0.16,0.16,0.16,0.16,0,0.16
2015-04-17,0.16,0.16,0.16,0.16,0,0.16
2015-04-20,0.16,0.16,0.16,0.16,0,0.16
2015-04-21,0.16,0.16,0.16,0.16,0,0.16
2015-04-22,0.16,0.16,0.16,0.16,0,0.16
2015-04-23,0.16,0.16,0.16,0.16,0,0.16
2015-04-24,0.16,0.16,0.16,0.16,0,0.16
2015-04-27,0.16,0.16,0.16,0.16,0,0.16
2015-04-28,0.16,0.16,0.16,0.16,0,0.16
2015-04-29,0.16,0.16,0.16,0.16,0,0.16
2015-04-30,0.16,0.16,0.16,0.16,0,0.16
2015-05-01,0.16,0.16,0.16,0.16,0,0.16
2015-05-04,0.16,0.16,0.16,0.16,0,0.16
2015-05-05,0.16,0.16,0.16,0.16,0,0.16
2015-05-06,0.16,0.16,0.16,0.16,0,0.16
2015-05-07,0.16,0.16,0.16,0.16,0,0.16
2015-05-08,0.16,0.16,0.16,0.16,0,0.16
2015-05-11,0.16,0.16,0.16,0.16,0,0.16
2015-05-12,0.16,0.16,0.16,0.16,0,0.16
2015-05-13,0.16,0.16,0.16,0.16,0,0.16
2015-05-14,0.16,0.16,0.16,0.16,0,0.16
2015-05-15,0.16,0.16,0.16,0.16,0,0.16
2015-05-18,0.16,0.16,0.16,0.16,0,0.16
2015-05-19,0.16,0.16,0.16,0.16,0,0.16
2015-05-20,0.16,0.16,0.16,0.16,0,0.16
2015-05-21,0.16,0.16,0.16,0.16,0,0.16
2015-05-22,0.16,0.16,0.16,0.16,0,0.16
2015-05-25,0.16,0.16,0.16,0.16,0,0.16
2015-05-26,0.16,0.16,0.16,0.16,0,0.16
2015-05-27,0.16,0.16,0.16,0.16,0,0.16
2015-05-28,0.16,0.16,0.16,0.16,0,0.16
2015-05-29,0.16,0.16,0.16,0.16,0,0.16
2015-06-01,0.16,0.16,0.16,0.16,0,0.16
2015-06-02,0.16,0.16,0.16,0.16,0,0.16
2015-06-03,0.16,0.16,0.16,0.16,0,0.16
2015-06-04,0.16,0.16,0.16,0.16,0,0.16
2015-06-05,0.16,0.16,0.16,0.16,0,0.16
2015-06-08,0.16,0.16,0.16,0.16,0,0.16
2015-06-09,0.16,0.16,0.16,0.16,0,0.16
2015-06-10,0.16,0.16,0.16,0.16,0,0.16
2015-06-11,0.16,0.16,0.16,0.16,0,0.16
2015-06-12,0.16,0.16,0.16,0.16,0,0.16
2015-06-15,0.16,0.16,0.16,0.16,0,0.16
2015-06-16,0.16,0.16,0.16,0.16,0,0.16
2015-06-17,0.16,0.16,0.16,0.16,0,0.16
2015-06-18,0.16,0.16,0.16,0.16,0,0.16
2015-06-19,0.16,0.16,0.16,0.16,0,0.16
2015-06-22,0.16,0.16,0.16,0.16,0,0.16
2015-06-23,0.16,0.16,0.16,0.16,0,0.16
2015-06-24,0.16,0.16,0.16,0.16,0,0.16
2015-06-25,0.16,0.16,0.16,0.16,0,0.16
2015-06-26,0.16,0.16,0.16,0.16,0,0.16
2015-06-29,0.16,0.16,0.16,0.16,0,0.16
2015-06-30,0.16,0.16,0.16,0.16,0,0.16
2015-07-01,0.16,0.16,0.16,0.16,0,0.16
2015-07-02,0.16,0.16,0.16,0.16,0,0.16
2015-07-03,0.16,0.16,0.16,0.16,0,0.16
2015-07-06,0.16,0.16,0.16,0.16,0,0.16
2015-07-07,0.16,0.16,0.16,0.16,0,0.16
2015-07-08,0.16,0.16,0.16,0.16,0,0.16
2015-07-09,0.16,0.16,0.16,0.16,0,0.16
2015-07-10,0.16,0.16,0.16,0.16,0,0.16
2015-07-13,0.16,0.16,0.16,0.16,0,0.16
2015-07-14,0.16,0.16,0.16,0.16,0,0.16
2015-07-15,0.16,0.16,0.16,0.16,0,0.16
2015-07-16,0.16,0.16,0.16,0.16,0,0.16
2015-07-17,0.16,0.16,0.16,0.16,0,0.16
2015-07-20,0.16,0.16,0.16,0.16,0,0.16
2015-07-21,0.16,0.16,0.16,0.16,0,0.16
2015-07-22,0.16,0.16,0.16,0.16,0,0.16
2015-07-23,0.16,0.16,0.16,0.16,0,0.16
2015-07-24,0.16,0.16,0.16,0.16,0,0.16
2015-07-27,0.16,0.16,0.16,0.16,0,0.16
2015-07-28,0.16,0.16,0.16,0.16,0,0.16
2015-07-29,0.16,0.16,0.16,0.16,0,0.16
2015-07-30,0.16,0.16,0.16,0.16,0,0.16
2015-07-31,0.16,0.16,0.16,0.16,0,0.16
2015-08-03,0.16,0.16,0.16,0.16,0,0.16
2015-08-04,0.16,0.16,0.16,0.16,0,0.16
2015-08-05,0.16,0.16,0.16,0.16,0,0.16
2015-08-06,0.16,0.16,0.16,0.16,0,0.16
2015-08-07,0.16,0.16,0.16,0.16,0,0.16
2015-08-10,0.16,0.16,0.16,0.16,0,0.16
2015-08-11,0.16,0.16,0.16,0.16,0,0.16
2015-08-12,0.16,0.16,0.16,0.16,0,0.16
2015-08-13,0.16,0.16,0.16,0.16,0,0.16
2015-08-14,0.16,0.16,0.16,0.16,0,0.16
2015-08-17,0.16,0.16,0.16,0.16,0,0.16
2015-08-18,0.16,0.16,0.16,0.16,0,0.16
2015-08-19,0.16,0.16,0.16,0.16,0,0.16
2015-08-20,0.16,0.16,0.16,0.16,0,0.16
2015-08-24,0.16,0.16,0.16,0.16,0,0.16
2015-08-25,0.16,0.16,0.16,0.16,0,0.16
2015-08-26,0.16,0.16,0.16,0.16,0,0.16
2015-08-27,0.16,0.16,0.16,0.16,0,0.16
2015-08-28,0.16,0.16,0.16,0.16,0,0.16
2015-08-31,0.16,0.16,0.16,0.16,0,0.16
2015-09-01,0.16,0.16,0.16,0.16,0,0.16
2015-09-02,0.16,0.16,0.16,0.16,0,0.16
2015-09-03,0.16,0.16,0.16,0.16,0,0.16
2015-09-04,0.16,0.16,0.16,0.16,0,0.16
2015-09-07,0.16,0.16,0.16,0.16,0,0.16
2015-09-08,0.16,0.16,0.16,0.16,0,0.16
2015-09-09,0.16,0.16,0.16,0.16,0,0.16
2015-09-10,0.16,0.16,0.16,0.16,0,0.16
2015-09-11,0.16,0.16,0.16,0.16,0,0.16
2015-09-14,0.16,0.16,0.16,0.16,0,0.16
2015-09-15,0.16,0.16,0.16,0.16,0,0.16
2015-09-16,0.16,0.16,0.16,0.16,0,0.16
2015-09-17,0.16,0.16,0.16,0.16,0,0.16
2015-09-18,0.16,0.16,0.16,0.16,0,0.16
2015-09-21,0.16,0.16,0.16,0.16,0,0.16
2015-09-22,0.16,0.16,0.16,0.16,0,0.16
2015-09-23,0.16,0.16,0.16,0.16,0,0.16
2015-09-24,0.16,0.16,0.16,0.16,0,0.16
2015-09-25,0.16,0.16,0.16,0.16,0,0.16
2015-09-28,0.16,0.16,0.16,0.16,0,0.16
2015-09-29,0.16,0.16,0.16,0.16,0,0.16
2015-09-30,0.16,0.16,0.16,0.16,0,0.16
2015-10-01,0.16,0.16,0.16,0.16,0,0.16
2015-10-02,0.16,0.16,0.16,0.16,0,0.16
2015-10-05,0.16,0.16,0.16,0.16,0,0.16
2015-10-06,0.16,0.16,0.16,0.16,0,0.16
2015-10-07,0.16,0.16,0.16,0.16,0,0.16
2015-10-08,0.16,0.16,0.16,0.16,0,0.16
2015-10-09,0.16,0.16,0.16,0.16,0,0.16
2015-10-12,0.16,0.16,0.16,0.16,0,0.16
2015-10-13,0.16,0.16,0.16,0.16,0,0.16
2015-10-14,0.16,0.16,0.16,0.16,0,0.16
2015-10-15,0.16,0.16,0.16,0.16,0,0.16
2015-10-16,0.16,0.16,0.16,0.16,0,0.16
2015-10-19,0.16,0.16,0.16,0.16,0,0.16
2015-10-20,0.16,0.16,0.16,0.16,0,0.16
2015-10-21,0.16,0.16,0.16,0.16,0,0.16
2015-10-22,0.16,0.16,0.16,0.16,0,0.16
2015-10-23,0.16,0.16,0.16,0.16,0,0.16
2015-10-26,0.16,0.16,0.16,0.16,0,0.16
2015-10-27,0.16,0.16,0.16,0.16,0,0.16
2015-10-28,0.16,0.16,0.16,0.16,0,0.16
2015-10-29,0.16,0.16,0.16,0.16,0,0.16
2015-10-30,0.16,0.16,0.16,0.16,0,0.16
2015-11-02,0.16,0.16,0.16,0.16,0,0.16
2015-11-03,0.16,0.16,0.16,0.16,0,0.16
2015-11-04,0.16,0.16,0.16,0.16,0,0.16
2015-11-05,0.16,0.16,0.16,0.16,0,0.16
2015-11-06,0.16,0.16,0.16,0.16,0,0.16
2015-11-09,0.16,0.16,0.16,0.16,0,0.16
2015-11-10,0.16,0.16,0.16,0.16,0,0.16
2015-11-11,0.16,0.16,0.16,0.16,0,0.16
2015-11-12,0.16,0.16,0.16,0.16,0,0.16
2015-11-13,0.16,0.16,0.16,0.16,0,0.16
2015-11-16,0.16,0.16,0.16,0.16,0,0.16
2015-11-17,0.16,0.16,0.16,0.16,0,0.16
2015-11-18,0.16,0.16,0.16,0.16,0,0.16
2015-11-19,0.16,0.16,0.16,0.16,0,0.16
2015-11-20,0.16,0.16,0.16,0.16,0,0.16
2015-11-23,0.16,0.16,0.16,0.16,0,0.16
2015-11-24,0.16,0.16,0.16,0.16,0,0.16
2015-11-25,0.16,0.16,0.16,0.16,0,0.16
2015-11-26,0.16,0.16,0.16,0.16,0,0.16
2015-11-27,0.16,0.16,0.16,0.16,0,0.16
2015-11-30,0.16,0.16,0.16,0.16,0,0.16
2015-12-01,0.16,0.16,0.16,0.16,0,0.16
2015-12-02,0.16,0.16,0.16,0.16,0,0.16
2015-12-03,0.16,0.16,0.16,0.16,0,0.16
2015-12-04,0.16,0.16,0.16,0.16,0,0.16
2015-12-07,0.16,0.16,0.16,0.16,0,0.16
2015-12-08,0.16,0.16,0.16,0.16,0,0.16
2015-12-09,0.16,0.16,0.16,0.16,0,0.16
2015-12-10,0.16,0.16,0.16,0.16,0,0.16
2015-12-11,0.16,0.16,0.16,0.16,0,0.16
2015-12-14,0.16,0.16,0.16,0.16,0,0.16
2015-12-15,0.16,0.16,0.16,0.16,0,0.16
2015-12-16,0.16,0.16,0.16,0.16,0,0.16
2015-12-17,0.16,0.16,0.16,0.16,0,0.16
2015-12-18,0.16,0.16,0.16,0.16,0,0.16
2015-12-21,0.16,0.16,0.16,0.16,0,0.16
2015-12-22,0.16,0.16,0.16,0.16,0,0.16
2015-12-23,0.16,0.16,0.16,0.16,0,0.16
2015-12-24,0.16,0.16,0.16,0.16,0,0.16
2015-12-25,0.16,0.16,0.16,0.16,0,0.16
2015-12-28,0.16,0.16,0.16,0.16,0,0.16
2015-12-29,0.16,0.16,0.16,0.16,0,0.16
2015-12-30,0.16,0.16,0.16,0.16,0,0.16
2015-12-31,0.16,0.16,0.16,0.16,0,0.16
2016-01-01,0.16,0.16,0.16,0.16,0,0.16
2016-01-04,0.16,0.16,0.16,0.16,0,0.16
2016-01-05,0.16,0.16,0.16,0.16,0,0.16
2016-01-06,0.16,0.16,0.16,0.16,0,0.16
2016-01-07,0.16,0.16,0.16,0.16,0,0.16
2016-01-08,0.16,0.16,0.16,0.16,0,0.16
2016-01-11,0.16,0.16,0.16,0.16,0,0.16
2016-01-12,0.07,0.08,0.065,0.08,5392600,0.08
2016-01-13,0.08,0.081,0.075,0.081,979800,0.081
2016-01-14,0.078,0.081,0.077,0.081,181200,0.081
2016-01-15,0.08,0.08900000000000001,0.08,0.085,414300,0.085
2016-01-18,0.086,0.087,0.08,0.087,549100,0.087
2016-01-19,0.09,0.096,0.09,0.09300000000000001,846600,0.09300000000000001
2016-01-20,0.09699999999999999,0.115,0.09699999999999999,0.1,851500,0.1
2016-01-21,0.11,0.12,0.11,0.12,585100,0.12
2016-01-22,0.12,0.135,0.12,0.125,274800,0.125
2016-01-25,0.13,0.13,0.096,0.096,347400,0.096
2016-01-26,0.096,0.096,0.096,0.096,0,0.096
2016-01-27,0.096,0.096,0.094,0.095,536800,0.095
2016-01-28,0.095,0.095,0.095,0.095,540000,0.095
2016-01-29,0.094,0.095,0.091,0.091,240000,0.091
2016-02-01,0.091,0.095,0.091,0.095,355000,0.095
2016-02-02,0.095,0.095,0.09,0.09,252900,0.09
2016-02-03,0.09,0.09,0.08800000000000001,0.08800000000000001,460000,0.08800000000000001
2016-02-04,0.092,0.094,0.092,0.094,107800,0.094
2016-02-05,0.105,0.105,0.098,0.1,370000,0.1
2016-02-08,0.1,0.105,0.099,0.105,315500,0.105
2016-02-09,0.098,0.098,0.09699999999999999,0.09699999999999999,219400,0.09699999999999999
2016-02-10,0.098,0.13,0.098,0.13,478800,0.13
2016-02-11,0.15,0.15,0.14,0.14,694700,0.14
2016-02-12,0.14,0.14,0.14,0.14,0,0.14
2016-02-15,0.14,0.15,0.13,0.13,935600,0.13
2016-02-16,0.125,0.125,0.115,0.115,191000,0.115
2016-02-17,0.105,0.115,0.1,0.105,1460400,0.105
2016-02-18,0.1,0.105,0.1,0.1,1365000,0.1
2016-02-19,0.105,0.105,0.098,0.098,202800,0.098
2016-02-22,0.1,0.11,0.1,0.11,457500,0.11
2016-02-23,0.11,0.11,0.105,0.11,259300,0.11
2016-02-24,0.11,0.11,0.11,0.11,102500,0.11
2016-02-25,0.11,0.11,0.11,0.11,0,0.11
2016-02-26,0.105,0.11,0.105,0.11,255400,0.11
2016-02-29,0.12,0.14,0.12,0.12,525600,0.12
2016-03-01,0.125,0.125,0.11,0.11,55700,0.11
2016-03-02,0.12,0.125,0.11,0.11,179800,0.11
2016-03-03,0.11,0.11,0.095,0.1,634700,0.1
2016-03-04,0.1,0.1,0.09,0.095,1053500,0.095
2016-03-07,0.1,0.12,0.1,0.12,208800,0.12
2016-03-08,0.12,0.125,0.11,0.11,554200,0.11
2016-03-09,0.11,0.11,0.1,0.11,322600,0.11
2016-03-10,0.1,0.1,0.1,0.1,21000,0.1
2016-03-11,0.1,0.1,0.1,0.1,574000,0.1
2016-03-14,0.1,0.1,0.1,0.1,776500,0.1
2016-03-15,0.1,0.11,0.1,0.11,1155100,0.11
2016-03-16,0.12,0.14,0.12,0.135,494000,0.135
2016-03-17,0.135,0.15,0.13,0.15,854000,0.15
2016-03-18,0.15,0.15,0.147,0.15,857100,0.15
2016-03-21,0.15,0.15,0.135,0.135,181200,0.135
2016-03-22,0.135,0.15,0.135,0.145,393000,0.145
2016-03-23,0.15,0.15,0.14,0.14,362600,0.14
2016-03-24,0.14,0.155,0.14,0.15,733800,0.15
2016-03-25,0.15,0.15,0.15,0.15,0,0.15
2016-03-28,0.15,0.15,0.15,0.15,0,0.15
2016-03-29,0.155,0.155,0.145,0.15,321100,0.15
2016-03-30,0.155,0.155,0.155,0.155,200000,0.155
2016-03-31,0.155,0.155,0.155,0.155,20000,0.155
2016-04-01,0.16,0.17,0.16,0.17,1122000,0.17
2016-04-04,0.175,0.18,0.17,0.18,1062700,0.18
2016-04-05,0.18,0.18,0.17,0.17,73800,0.17
2016-04-06,0.17,0.17,0.155,0.17,203500,0.17
2016-04-07,0.165,0.165,0.165,0.165,2900,0.165
2016-04-08,0.16,0.16,0.155,0.16,45200,0.16
2016-04-11,0.155,0.16,0.15,0.16,215700,0.16
2016-04-12,0.15,0.15,0.145,0.145,49300,0.145
2016-04-13,0.15,0.15,0.145,0.145,240000,0.145
2016-04-14,0.145,0.15,0.145,0.145,60200,0.145
2016-04-15,0.15,0.15,0.15,0.15,126500,0.15
2016-04-18,0.15,0.16,0.15,0.16,75000,0.16
2016-04-19,0.16,0.175,0.16,0.175,461500,0.175
2016-04-20,0.17,0.17,0.165,0.165,219400,0.165
2016-04-21,0.165,0.165,0.155,0.155,219000,0.155
2016-04-22,0.165,0.17,0.165,0.165,395500,0.165
2016-04-25,0.165,0.165,0.165,0.165,0,0.165
2016-04-26,0.16,0.165,0.155,0.165,81600,0.165
2016-04-27,0.165,0.165,0.15,0.155,223000,0.155
2016-04-28,0.155,0.155,0.15,0.15,118700,0.15
2016-04-29,0.15,0.16,0.15,0.16,200800,0.16
2016-05-02,0.16,0.16,0.15,0.16,237900,0.16
2016-05-03,0.155,0.155,0.155,0.155,73700,0.155
2016-05-04,0.15,0.15,0.15,0.15,4500,0.15
2016-05-05,0.14,0.14,0.14,0.14,98000,0.14
2016-05-06,0.14,0.145,0.14,0.145,3400,0.145
2016-05-09,0.145,0.145,0.145,0.145,4000,0.145
2016-05-10,0.145,0.145,0.145,0.145,0,0.145
2016-05-11,0.145,0.145,0.145,0.145,0,0.145
2016-05-12,0.14,0.16,0.14,0.16,249300,0.16
2016-05-13,0.16,0.18,0.16,0.18,1426600,0.18
2016-05-16,0.18,0.19,0.165,0.165,657200,0.165
2016-05-17,0.165,0.175,0.165,0.175,84300,0.175
2016-05-18,0.175,0.2,0.175,0.19,1167700,0.19
2016-05-19,0.195,0.195,0.185,0.185,549600,0.185
2016-05-20,0.19,0.19,0.175,0.175,460300,0.175
2016-05-23,0.18,0.185,0.175,0.18,142500,0.18
2016-05-24,0.18,0.185,0.18,0.18,97200,0.18
2016-05-25,0.175,0.19,0.175,0.19,153800,0.19
2016-05-26,0.19,0.205,0.19,0.2,1293000,0.2
2016-05-27,0.205,0.205,0.19,0.2,544100,0.2
2016-05-30,0.2,0.215,0.2,0.205,578100,0.205
2016-05-31,0.2,0.21,0.2,0.2,280400,0.2
2016-06-01,0.2,0.2,0.195,0.195,63500,0.195
2016-06-02,0.195,0.195,0.195,0.195,0,0.195
2016-06-03,0.195,0.195,0.195,0.195,0,0.195
2016-06-06,0.195,0.195,0.195,0.195,0,0.195
2016-06-07,0.195,0.195,0.195,0.195,0,0.195
2016-06-08,0.195,0.195,0.195,0.195,0,0.195
2016-06-09,0.195,0.195,0.195,0.195,0,0.195
2016-06-10,0.195,0.195,0.195,0.195,0,0.195
2016-06-13,0.195,0.195,0.195,0.195,0,0.195
2016-06-14,0.195,0.195,0.195,0.195,0,0.195
2016-06-15,0.195,0.195,0.195,0.195,0,0.195
2016-06-16,0.195,0.195,0.195,0.195,0,0.195
2016-06-17,0.195,0.195,0.195,0.195,0,0.195
2016-06-20,0.195,0.195,0.195,0.195,0,0.195
2016-06-21,0.195,0.195,0.195,0.195,0,0.195
2016-06-22,0.195,0.195,0.195,0.195,0,0.195
2016-06-23,0.195,0.195,0.195,0.195,0,0.195
2016-06-24,0.195,0.195,0.195,0.195,0,0.195
2016-06-27,0.195,0.195,0.195,0.195,0,0.195
2016-06-28,0.195,0.195,0.195,0.195,0,0.195
2016-06-29,0.195,0.195,0.195,0.195,0,0.195
2016-06-30,0.195,0.195,0.195,0.195,0,0.195
2016-07-01,0.195,0.195,0.195,0.195,0,0.195
2016-07-04,0.195,0.195,0.195,0.195,0,0.195
2016-07-05,0.195,0.195,0.195,0.195,0,0.195
2016-07-06,0.195,0.195,0.195,0.195,0,0.195
2016-07-07,0.195,0.195,0.195,0.195,0,0.195
2016-07-08,0.195,0.195,0.195,0.195,0,0.195
2016-07-11,0.195,0.195,0.195,0.195,0,0.195
2016-07-12,0.195,0.195,0.195,0.195,0,0.195
2016-07-13,0.195,0.195,0.195,0.195,0,0.195
2016-07-14,0.195,0.195,0.195,0.195,0,0.195
2016-07-15,0.195,0.195,0.195,0.195,0,0.195
2016-07-18,0.195,0.195,0.195,0.195,0,0.195
2016-07-19,0.195,0.195,0.195,0.195,0,0.195
2016-07-20,0.195,0.195,0.195,0.195,0,0.195
2016-07-21,0.195,0.195,0.195,0.195,0,0.195
2016-07-22,0.195,0.195,0.195,0.195,0,0.195
2016-07-25,0.195,0.195,0.195,0.195,0,0.195
2016-07-26,0.195,0.195,0.195,0.195,0,0.195
2016-07-27,0.195,0.195,0.195,0.195,0,0.195
2016-07-28,0.195,0.195,0.195,0.195,0,0.195
2016-07-29,0.195,0.195,0.195,0.195,0,0.195
2016-08-01,0.195,0.195,0.195,0.195,0,0.195
2016-08-02,0.195,0.195,0.195,0.195,0,0.195
2016-08-03,0.195,0.195,0.195,0.195,0,0.195
2016-08-04,0.195,0.195,0.195,0.195,0,0.195
2016-08-05,0.195,0.195,0.195,0.195,0,0.195
2016-08-08,0.195,0.195,0.195,0.195,0,0.195
2016-08-09,0.195,0.195,0.195,0.195,0,0.195
2016-08-10,0.195,0.195,0.195,0.195,0,0.195
2016-08-11,0.195,0.195,0.195,0.195,0,0.195
2016-08-12,0.195,0.195,0.195,0.195,0,0.195
2016-08-15,0.195,0.195,0.195,0.195,0,0.195
2016-08-16,0.195,0.195,0.195,0.195,0,0.195
2016-08-17,0.195,0.195,0.195,0.195,0,0.195
2016-08-18,0.195,0.195,0.195,0.195,0,0.195
2016-08-19,0.195,0.195,0.195,0.195,0,0.195
2016-08-22,0.195,0.195,0.195,0.195,0,0.195
2016-08-23,0.195,0.195,0.195,0.195,0,0.195
2016-08-24,0.195,0.195,0.195,0.195,0,0.195
2016-08-25,0.195,0.195,0.195,0.195,0,0.195
2016-08-26,0.195,0.195,0.195,0.195,0,0.195
2016-08-29,0.195,0.195,0.195,0.195,0,0.195
2016-08-30,0.195,0.195,0.195,0.195,0,0.195
2016-08-31,0.195,0.195,0.195,0.195,0,0.195
2016-09-01,0.195,0.195,0.195,0.195,0,0.195
2016-09-02,0.195,0.195,0.195,0.195,0,0.195
2016-09-05,0.195,0.195,0.195,0.195,0,0.195
2016-09-06,0.195,0.195,0.195,0.195,0,0.195
2016-09-07,0.195,0.195,0.195,0.195,0,0.195
2016-09-08,0.195,0.195,0.195,0.195,0,0.195
2016-09-09,0.195,0.195,0.195,0.195,0,0.195
2016-09-12,0.195,0.195,0.195,0.195,0,0.195
2016-09-13,0.195,0.195,0.195,0.195,0,0.195
2016-09-14,0.195,0.195,0.195,0.195,0,0.195
2016-09-15,0.195,0.195,0.195,0.195,0,0.195
2016-09-16,0.195,0.195,0.195,0.195,0,0.195
2016-09-19,0.195,0.195,0.195,0.195,0,0.195
2016-09-20,0.195,0.195,0.195,0.195,0,0.195
2016-09-21,0.195,0.195,0.195,0.195,0,0.195
2016-09-22,0.195,0.195,0.195,0.195,0,0.195
2016-09-23,0.195,0.195,0.195,0.195,0,0.195
2016-09-26,0.195,0.195,0.195,0.195,0,0.195
2016-09-27,0.195,0.195,0.195,0.195,0,0.195
2016-09-28,0.195,0.195,0.195,0.195,0,0.195
2016-09-29,0.195,0.195,0.195,0.195,0,0.195
2016-09-30,0.195,0.195,0.195,0.195,0,0.195
2016-10-03,0.195,0.195,0.195,0.195,0,0.195
2016-10-04,0.195,0.195,0.195,0.195,0,0.195
2016-10-05,0.195,0.195,0.195,0.195,0,0.195
2016-10-06,0.195,0.195,0.195,0.195,0,0.195
2016-10-07,0.195,0.195,0.195,0.195,0,0.195
2016-10-10,0.195,0.195,0.195,0.195,0,0.195
2016-10-11,0.195,0.195,0.195,0.195,0,0.195
2016-10-12,0.195,0.195,0.195,0.195,0,0.195
2016-10-13,0.195,0.195,0.195,0.195,0,0.195
2016-10-14,0.195,0.195,0.195,0.195,0,0.195
2016-10-17,0.195,0.195,0.195,0.195,0,0.195
2016-10-18,0.195,0.195,0.195,0.195,0,0.195
2016-10-19,0.195,0.195,0.195,0.195,0,0.195
2016-10-20,0.195,0.195,0.195,0.195,0,0.195
2016-10-21,0.195,0.195,0.195,0.195,0,0.195
2016-10-24,0.195,0.195,0.195,0.195,0,0.195
2016-10-25,0.195,0.195,0.195,0.195,0,0.195
2016-10-26,0.195,0.195,0.195,0.195,0,0.195
2016-10-27,0.195,0.195,0.195,0.195,0,0.195
2016-10-28,0.195,0.195,0.195,0.195,0,0.195
2016-10-31,0.195,0.195,0.195,0.195,0,0.195
2016-11-01,0.195,0.195,0.195,0.195,0,0.195
2016-11-02,0.195,0.195,0.195,0.195,0,0.195
2016-11-03,0.195,0.195,0.195,0.195,0,0.195
2016-11-04,0.195,0.195,0.195,0.195,0,0.195
2016-11-07,0.195,0.195,0.195,0.195,0,0.195
2016-11-08,0.195,0.195,0.195,0.195,0,0.195
2016-11-09,0.195,0.195,0.195,0.195,0,0.195
2016-11-10,0.195,0.195,0.195,0.195,0,0.195
2016-11-11,0.195,0.195,0.195,0.195,0,0.195
2016-11-14,0.195,0.195,0.195,0.195,0,0.195
2016-11-15,0.195,0.195,0.195,0.195,0,0.195
2016-11-16,0.195,0.195,0.195,0.195,0,0.195
2016-11-17,0.195,0.195,0.195,0.195,0,0.195
2016-11-18,0.195,0.195,0.195,0.195,0,0.195
2016-11-21,0.195,0.195,0.195,0.195,0,0.195
2016-11-22,0.195,0.195,0.195,0.195,0,0.195
2016-11-23,0.195,0.195,0.195,0.195,0,0.195
2016-11-24,0.195,0.195,0.195,0.195,0,0.195
2016-11-25,0.195,0.195,0.195,0.195,0,0.195
2016-11-28,0.195,0.195,0.195,0.195,0,0.195
2016-11-29,0.195,0.195,0.195,0.195,0,0.195
2016-11-30,0.195,0.195,0.195,0.195,0,0.195
2016-12-01,0.195,0.195,0.195,0.195,0,0.195
2016-12-02,0.195,0.195,0.195,0.195,0,0.195
2016-12-05,0.195,0.195,0.195,0.195,0,0.195
2016-12-06,0.195,0.195,0.195,0.195,0,0.195
2016-12-07,0.195,0.195,0.195,0.195,0,0.195
2016-12-08,0.195,0.195,0.195,0.195,0,0.195
2016-12-09,0.195,0.195,0.195,0.195,0,0.195
2016-12-12,0.195,0.195,0.195,0.195,0,0.195
2016-12-13,0.195,0.195,0.195,0.195,0,0.195
2016-12-14,0.195,0.195,0.195,0.195,0,0.195
2016-12-15,0.195,0.195,0.195,0.195,0,0.195
2016-12-16,0.195,0.195,0.195,0.195,0,0.195
2016-12-19,0.195,0.195,0.195,0.195,0,0.195
2016-12-20,0.195,0.195,0.195,0.195,0,0.195
2016-12-21,0.195,0.195,0.195,0.195,0,0.195
2016-12-22,0.195,0.195,0.195,0.195,0,0.195
2016-12-23,0.195,0.195,0.195,0.195,0,0.195
2016-12-26,0.195,0.195,0.195,0.195,0,0.195
2016-12-27,0.195,0.195,0.195,0.195,0,0.195
2016-12-28,0.195,0.195,0.195,0.195,0,0.195
2016-12-29,0.195,0.195,0.195,0.195,0,0.195
2016-12-30,0.195,0.195,0.195,0.195,0,0.195
