Date,Open,High,Low,Close,Volume,Adj Close
2015-08-05,84.7,84.7,84.7,84.7,400,79.02
2015-08-06,84.71,84.71,84.71,84.71,1000,79.03
2015-08-07,84.71,84.71,84.71,84.71,0,79.03
2015-08-10,84.71,84.71,84.71,84.71,0,79.03
2015-08-11,84.71,84.71,84.71,84.71,0,79.03
2015-08-12,84.79,84.79,84.79,84.79,600,79.1
2015-08-13,84.81,84.81,84.81,84.81,0,79.12
2015-08-14,84.81,84.81,84.81,84.81,0,79.12
2015-08-17,84.81,84.81,84.81,84.81,0,79.12
2015-08-18,84.81,84.81,84.81,84.81,0,79.12
2015-08-19,84.24,84.24,84.24,84.24,100,78.59
2015-08-20,84.24,84.24,84.24,84.24,0,78.59
2015-08-24,84.34,84.34,84.34,84.34,100,78.68
2015-08-25,84.34,84.34,84.34,84.34,0,78.68
2015-08-26,84.34,84.34,84.34,84.34,0,78.68
2015-08-27,84.34,84.34,84.34,84.34,0,78.68
2015-08-28,84.34,84.34,84.34,84.34,0,78.68
2015-08-31,84.34,84.34,84.34,84.34,0,78.68
2015-09-01,84.34,84.44,84.34,84.44,1100,78.78
2015-09-02,84.46,84.46,84.46,84.46,600,78.79
2015-09-03,84.47,84.47,84.47,84.47,300,78.8
2015-09-04,84.48,84.48,84.48,84.48,300,78.81
2015-09-07,84.48,84.48,84.48,84.48,0,78.81
2015-09-08,84.48,84.48,84.48,84.48,0,78.81
2015-09-09,84.48,84.48,84.48,84.48,0,78.81
2015-09-10,84.56,84.56,84.56,84.56,400,78.89
2015-09-11,84.56,84.56,84.56,84.56,0,78.89
2015-09-14,84.56,84.56,84.56,84.56,0,78.89
2015-09-15,83.97,83.97,83.97,83.97,100,78.34
2015-09-16,83.97,83.97,83.97,83.97,0,78.34
2015-09-17,83.97,83.97,83.97,83.97,0,78.34
2015-09-18,84.01,84.01,84.01,84.01,200,78.38
2015-09-21,84.05,84.05,84.05,84.05,300,78.41
2015-09-22,84.05,84.05,84.05,84.05,100,78.41
2015-09-23,84.05,84.05,84.05,84.05,0,78.41
2015-09-24,84.09,84.09,84.09,84.09,100,78.45
2015-09-25,84.1,84.1,84.1,84.1,400,78.46
2015-09-28,84.1,84.1,84.1,84.1,0,78.46
2015-09-29,84.1,84.1,84.1,84.1,0,78.46
2015-09-30,84.1,84.1,84.1,84.1,0,78.46
2015-10-01,84.1,84.1,84.1,84.1,0,78.46
2015-10-02,84.1,84.1,84.1,84.1,0,78.46
2015-10-05,84.1,84.1,84.1,84.1,0,78.46
2015-10-06,84.1,84.1,84.1,84.1,0,78.46
2015-10-07,84.1,84.1,84.1,84.1,0,78.46
2015-10-08,84.1,84.1,84.1,84.1,0,78.46
2015-10-09,84.1,84.1,84.1,84.1,0,78.46
2015-10-12,84.1,84.1,84.1,84.1,0,78.46
2015-10-13,84.1,84.1,84.1,84.1,0,78.46
2015-10-14,84.1,84.1,84.1,84.1,0,78.46
2015-10-15,84.1,84.1,84.1,84.1,0,78.46
2015-10-16,84.1,84.1,84.1,84.1,0,78.46
2015-10-19,84.19,84.19,84.19,84.19,800,78.54
2015-10-20,84.2,84.2,84.2,84.2,0,78.55
2015-10-21,84.2,84.2,84.2,84.2,0,78.55
2015-10-22,84.2,84.2,84.2,84.2,0,78.55
2015-10-23,84.2,84.2,84.2,84.2,0,78.55
2015-10-26,84.2,84.2,84.2,84.2,0,78.55
2015-10-27,84.2,84.2,84.2,84.2,0,78.55
2015-10-28,84.2,84.2,84.2,84.2,0,78.55
2015-10-29,84.2,84.2,84.2,84.2,0,78.55
2015-10-30,84.2,84.2,84.2,84.2,0,78.55
2015-11-02,84.2,84.2,84.2,84.2,0,78.55
2015-11-03,84.2,84.2,84.2,84.2,0,78.55
2015-11-04,84.4,84.4,84.4,84.4,0,78.74
2015-11-05,84.4,84.4,84.4,84.4,0,78.74
2015-11-06,84.4,84.4,84.4,84.4,0,78.74
2015-11-09,84.4,84.4,84.4,84.4,0,78.74
2015-11-10,84.4,84.4,84.4,84.4,0,78.74
2015-11-11,84.4,84.4,84.4,84.4,0,78.74
2015-11-12,84.4,84.4,84.4,84.4,0,78.74
2015-11-13,84.4,84.4,84.4,84.4,0,78.74
2015-11-16,84.4,84.4,84.4,84.4,0,78.74
2015-11-17,84.4,84.4,84.4,84.4,0,78.74
2015-11-18,84.4,84.4,84.4,84.4,0,78.74
2015-11-19,84.4,84.4,84.4,84.4,0,78.74
2015-11-20,84.4,84.4,84.4,84.4,0,78.74
2015-11-23,84.16,84.16,84.16,84.16,200,78.51
2015-11-24,84.16,84.16,84.16,84.16,0,78.51
2015-11-25,84.16,84.16,84.16,84.16,0,78.51
2015-11-26,84.16,84.16,84.16,84.16,0,78.51
2015-11-27,84.16,84.16,84.16,84.16,0,78.51
2015-11-30,84.16,84.16,84.16,84.16,0,79.23
2015-12-01,84.16,84.16,84.16,84.16,0,79.23
2015-12-02,84.16,84.16,84.16,84.16,0,79.23
2015-12-03,84.16,84.16,84.16,84.16,0,79.23
2015-12-04,84.16,84.16,84.16,84.16,0,79.23
2015-12-07,81.27,81.27,81.27,81.27,0,76.51
2015-12-08,81.27,81.27,81.27,81.27,0,76.51
2015-12-09,81.27,81.27,81.27,81.27,0,76.51
2015-12-10,81.38,81.38,81.38,81.38,500,76.61
2015-12-11,81.38,81.38,81.38,81.38,0,76.61
2015-12-14,81.44,81.44,81.44,81.44,3300,76.67
2015-12-15,82.27,82.27,82.27,82.27,700,77.45
2015-12-16,82.29,82.29,82.28,82.29,4300,77.47
2015-12-17,82.29,82.29,82.29,82.29,0,77.47
2015-12-18,82.29,82.29,82.29,82.29,0,77.47
2015-12-21,82.29,82.29,82.29,82.29,0,77.47
2015-12-22,82.29,82.29,82.29,82.29,0,77.47
2015-12-23,82.29,82.29,82.29,82.29,0,77.47
2015-12-24,82.29,82.29,82.29,82.29,0,77.47
2015-12-25,82.29,82.29,82.29,82.29,0,77.47
2015-12-28,82.29,82.29,82.29,82.29,0,77.47
2015-12-29,82.29,82.29,82.29,82.29,0,77.47
2015-12-30,82.29,82.29,82.29,82.29,0,77.47
2015-12-31,82.29,82.29,82.29,82.29,0,77.47
2016-01-01,82.29,82.29,82.29,82.29,0,77.47
2016-01-04,82.29,82.29,82.29,82.29,0,77.47
2016-01-05,82.29,82.29,82.29,82.29,0,77.47
2016-01-06,82.29,82.29,82.29,82.29,0,77.47
2016-01-07,82.29,82.29,82.29,82.29,0,77.47
2016-01-08,82.58,82.58,82.58,82.58,300,77.74
2016-01-11,82.58,82.58,82.58,82.58,0,77.74
2016-01-12,82.58,82.58,82.58,82.58,0,77.74
2016-01-13,82.58,82.58,82.58,82.58,0,77.74
2016-01-14,82.58,82.58,82.58,82.58,0,77.74
2016-01-15,82.58,82.58,82.58,82.58,0,77.74
2016-01-18,82.58,82.58,82.58,82.58,0,77.74
2016-01-19,82.58,82.58,82.58,82.58,0,77.74
2016-01-20,82.58,82.58,82.58,82.58,0,77.74
2016-01-21,82.58,82.58,82.58,82.58,0,77.74
2016-01-22,82.58,82.58,82.58,82.58,0,77.74
2016-01-25,82.58,82.58,82.58,82.58,0,77.74
2016-01-26,82.58,82.58,82.58,82.58,0,77.74
2016-01-27,82.58,82.58,82.58,82.58,0,77.74
2016-01-28,82.58,82.58,82.58,82.58,0,77.74
2016-01-29,82.43,82.43,82.43,82.43,500,77.6
2016-02-01,82.43,82.43,82.43,82.43,0,77.6
2016-02-02,82.43,82.43,82.43,82.43,0,78.81
2016-02-03,74.21,74.21,74.21,74.21,600,70.96
2016-02-04,74.22,74.22,74.22,74.22,700,70.96
2016-02-05,74.22,74.22,74.22,74.22,0,70.96
2016-02-08,74.22,74.22,74.22,74.22,0,70.96
2016-02-09,74.22,74.22,74.22,74.22,0,70.96
2016-02-10,74.29,74.29,74.29,74.29,400,71.03
2016-02-11,74.29,74.29,74.29,74.29,0,71.03
2016-02-12,74.29,74.29,74.29,74.29,0,71.03
2016-02-15,74.29,74.29,74.29,74.29,0,71.03
2016-02-16,74.29,74.29,74.29,74.29,0,71.03
2016-02-17,73.91,73.91,73.91,73.91,200,70.67
2016-02-18,73.91,73.91,73.91,73.91,0,70.67
2016-02-19,73.91,73.91,73.91,73.91,0,70.67
2016-02-22,73.98,73.98,73.98,73.98,1300,70.74
2016-02-23,73.98,73.98,73.98,73.98,0,70.74
2016-02-24,73.98,73.98,73.98,73.98,0,70.74
2016-02-25,73.98,73.98,73.98,73.98,0,70.74
2016-02-26,73.98,73.98,73.98,73.98,0,70.74
2016-02-29,73.98,73.98,73.98,73.98,0,70.74
2016-03-01,73.98,73.98,73.98,73.98,0,70.74
2016-03-02,74.08,74.08,74.08,74.08,600,70.83
2016-03-03,74.08,74.08,74.08,74.08,0,70.83
2016-03-04,74.08,74.08,74.08,74.08,0,70.83
2016-03-07,74.08,74.08,74.08,74.08,100,70.83
2016-03-08,74.08,74.08,74.08,74.08,0,70.83
2016-03-09,74.15,74.15,74.15,74.15,200,70.9
2016-03-10,74.15,74.15,74.15,74.15,0,70.9
2016-03-11,74.15,74.15,74.15,74.15,0,70.9
2016-03-14,74.15,74.15,74.15,74.15,0,70.9
2016-03-15,74.15,74.15,74.15,74.15,0,70.9
2016-03-16,74.15,74.15,74.15,74.15,0,70.9
2016-03-17,74.15,74.15,74.15,74.15,0,70.9
2016-03-18,74.15,74.15,74.15,74.15,0,70.9
2016-03-21,74.15,74.15,74.15,74.15,0,70.9
2016-03-22,74.15,74.15,74.15,74.15,0,70.9
2016-03-23,74.15,74.15,74.15,74.15,0,70.9
2016-03-24,74.15,74.15,74.15,74.15,0,70.9
2016-03-25,74.15,74.15,74.15,74.15,0,70.9
2016-03-28,74.15,74.15,74.15,74.15,0,70.9
2016-03-29,74.15,74.15,74.15,74.15,0,70.9
2016-03-30,74.15,74.15,74.15,74.15,0,70.9
2016-03-31,74.15,74.15,74.15,74.15,0,70.9
2016-04-01,74.15,74.15,74.15,74.15,0,70.9
2016-04-04,74.15,74.15,74.15,74.15,0,70.9
2016-04-05,74.15,74.15,74.15,74.15,0,70.9
2016-04-06,73.0,73.0,73.0,73.0,100,69.8
2016-04-07,73.0,74.06,73.0,74.06,500,70.81
2016-04-08,74.06,74.06,74.06,74.06,0,70.81
2016-04-11,74.06,74.06,74.06,74.06,0,70.81
2016-04-12,74.06,74.06,74.06,74.06,0,70.81
2016-04-13,74.06,74.06,74.06,74.06,0,70.81
2016-04-14,74.06,74.06,74.06,74.06,0,70.81
2016-04-15,74.06,74.06,74.06,74.06,0,70.81
2016-04-18,74.06,74.06,74.06,74.06,0,70.81
2016-04-19,74.06,74.06,74.06,74.06,0,70.81
2016-04-20,74.05,74.06,74.05,74.06,1400,70.81
2016-04-21,74.06,74.06,74.06,74.06,0,70.81
2016-04-22,74.06,74.06,74.06,74.06,400,70.81
2016-04-25,74.06,74.06,74.06,74.06,0,70.81
2016-04-26,74.06,74.06,74.06,74.06,0,70.81
2016-04-27,74.06,74.12,74.06,74.12,600,70.87
2016-04-28,74.12,74.12,74.1,74.1,700,70.85
2016-04-29,74.1,74.29,74.1,74.29,1300,71.03
2016-05-02,74.29,74.29,74.29,74.29,0,71.03
2016-05-03,74.29,74.29,74.29,74.29,0,71.03
2016-05-04,74.29,74.29,74.29,74.29,0,71.03
2016-05-05,74.35,74.36,74.35,74.36,600,71.1
2016-05-06,74.37,74.37,74.37,74.37,100,71.11
2016-05-09,74.37,74.37,74.37,74.37,0,71.11
2016-05-10,74.37,74.37,74.37,74.37,0,71.11
2016-05-11,74.37,74.37,74.37,74.37,0,71.11
2016-05-12,74.37,74.37,74.37,74.37,0,71.11
2016-05-13,74.37,74.37,74.37,74.37,0,71.11
2016-05-16,74.37,74.37,74.37,74.37,0,71.11
2016-05-17,74.37,74.37,74.37,74.37,0,71.11
2016-05-18,73.97,73.97,73.97,73.97,500,71.4
2016-05-19,73.97,73.97,73.97,73.97,0,71.4
2016-05-20,73.97,73.97,73.97,73.97,0,71.4
2016-05-23,73.97,73.97,73.97,73.97,0,71.4
2016-05-24,74.03,74.03,74.03,74.03,200,71.46
2016-05-25,74.05,74.05,74.05,74.05,400,71.47
2016-05-26,74.05,74.05,74.05,74.05,0,71.47
2016-05-27,74.07,74.07,74.07,74.07,2000,71.49
2016-05-30,74.07,74.07,74.07,74.07,0,71.49
2016-05-31,74.07,74.07,74.07,74.07,0,71.49
2016-06-01,74.07,74.07,74.07,74.07,0,71.49
2016-06-02,74.07,74.07,74.07,74.07,0,71.49
2016-06-03,74.16,74.16,74.16,74.16,200,71.58
2016-06-06,74.16,74.16,74.16,74.16,0,71.58
2016-06-07,74.16,74.16,74.16,74.16,0,71.58
2016-06-08,74.16,74.16,74.16,74.16,0,71.58
2016-06-09,74.16,74.16,74.16,74.16,0,71.58
2016-06-10,74.16,74.16,74.16,74.16,0,71.58
2016-06-13,74.16,74.16,74.16,74.16,0,71.58
2016-06-14,74.16,74.16,74.16,74.16,0,71.58
2016-06-15,74.16,74.16,74.16,74.16,0,71.58
2016-06-16,74.69,74.69,74.69,74.69,100,72.09
2016-06-17,74.69,74.69,74.69,74.69,0,72.09
2016-06-20,74.69,74.69,74.69,74.69,0,72.09
2016-06-21,74.75,74.75,74.75,74.75,700,72.15
2016-06-22,74.75,74.75,74.75,74.75,0,72.15
2016-06-23,74.75,74.75,74.75,74.75,0,72.15
2016-06-24,74.78,74.78,74.78,74.78,100,72.18
2016-06-27,74.78,74.78,74.78,74.78,0,72.18
2016-06-28,74.78,74.78,74.78,74.78,0,72.18
2016-06-29,74.84,74.84,74.84,74.84,600,72.24
2016-06-30,74.84,74.84,74.84,74.84,0,72.24
2016-07-01,74.84,74.84,74.84,74.84,0,72.24
2016-07-04,74.84,74.84,74.84,74.84,0,72.24
2016-07-05,74.84,74.84,74.84,74.84,0,72.24
2016-07-06,74.84,74.84,74.84,74.84,0,72.24
2016-07-07,74.93,74.93,74.93,74.93,100,72.32
2016-07-08,74.93,74.93,74.93,74.93,0,72.32
2016-07-11,74.93,74.93,74.93,74.93,0,72.32
2016-07-12,74.93,74.93,74.93,74.93,0,72.32
2016-07-13,74.93,74.93,74.93,74.93,0,72.32
2016-07-14,74.93,74.93,74.93,74.93,0,72.32
2016-07-15,74.68,74.68,74.68,74.68,100,72.08
2016-07-18,74.71,74.71,74.71,74.71,300,72.11
2016-07-19,74.71,74.71,74.71,74.71,0,72.11
2016-07-20,74.71,74.71,74.71,74.71,0,72.11
2016-07-21,74.71,74.71,74.71,74.71,0,72.11
2016-07-22,74.71,74.71,74.71,74.71,0,72.11
2016-07-25,74.71,74.71,74.71,74.71,0,72.11
2016-07-26,74.8,74.8,74.8,74.8,600,72.2
2016-07-27,74.8,74.8,74.8,74.8,0,72.2
2016-07-28,74.83,74.83,74.83,74.83,500,72.23
2016-07-29,74.84,74.84,74.84,74.84,200,72.24
2016-08-01,74.84,74.84,74.84,74.84,0,72.24
2016-08-02,74.88,74.88,74.88,74.88,100,72.28
2016-08-03,74.88,74.88,74.88,74.88,0,72.28
2016-08-04,74.88,74.88,74.88,74.88,0,72.28
2016-08-05,74.88,74.88,74.88,74.88,0,73.27
2016-08-08,74.88,74.88,74.88,74.88,0,73.27
2016-08-09,74.88,74.88,74.88,74.88,0,73.27
2016-08-10,74.88,74.88,74.88,74.88,0,73.27
2016-08-11,74.88,74.88,74.88,74.88,0,73.27
2016-08-12,74.88,74.88,74.88,74.88,0,73.27
2016-08-15,74.88,74.88,74.88,74.88,0,73.27
2016-08-16,74.56,74.56,74.56,74.56,200,72.96
2016-08-17,74.57,74.57,74.57,74.57,200,72.97
2016-08-18,74.57,74.57,74.57,74.57,0,72.97
2016-08-19,74.57,74.57,74.57,74.57,100,72.97
2016-08-22,74.57,74.57,74.57,74.57,0,72.97
2016-08-23,74.57,74.57,74.57,74.57,0,72.97
2016-08-24,74.57,74.57,74.57,74.57,0,72.97
2016-08-25,74.66,74.66,74.66,74.66,300,73.05
2016-08-26,74.66,74.66,74.66,74.66,0,73.05
2016-08-29,74.66,74.66,74.66,74.66,200,73.05
2016-08-30,74.66,74.66,74.66,74.66,0,73.05
2016-08-31,74.66,74.66,74.66,74.66,0,73.05
2016-09-01,74.66,74.66,74.66,74.66,0,73.05
2016-09-02,74.66,74.66,74.66,74.66,0,73.05
2016-09-05,74.66,74.66,74.66,74.66,0,73.05
2016-09-06,74.66,74.66,74.66,74.66,0,73.05
2016-09-07,74.82,74.82,74.82,74.82,200,73.21
2016-09-08,74.82,74.82,74.82,74.82,0,73.21
2016-09-09,74.82,74.82,74.82,74.82,0,73.21
2016-09-12,74.82,74.82,74.82,74.82,0,73.21
2016-09-13,74.82,74.82,74.82,74.82,0,73.21
2016-09-14,74.82,74.82,74.82,74.82,0,73.21
2016-09-15,74.82,74.82,74.82,74.82,0,73.21
2016-09-16,74.82,74.82,74.82,74.82,0,73.21
2016-09-19,74.82,74.82,74.82,74.82,0,73.21
2016-09-20,74.82,74.82,74.82,74.82,0,73.21
2016-09-21,74.74,74.74,74.74,74.74,100,73.13
2016-09-22,74.74,74.74,74.74,74.74,0,73.13
2016-09-23,74.76,74.76,74.76,74.76,300,73.15
2016-09-26,74.76,74.76,74.76,74.76,0,73.15
2016-09-27,74.76,74.76,74.76,74.76,0,73.15
2016-09-28,74.76,74.76,74.76,74.76,0,73.15
2016-09-29,74.76,74.76,74.76,74.76,0,73.15
2016-09-30,74.76,74.76,74.76,74.76,0,73.15
2016-10-03,74.76,74.76,74.76,74.76,0,73.15
2016-10-04,74.89,74.89,74.89,74.89,100,73.28
2016-10-05,74.89,74.89,74.89,74.89,0,73.28
2016-10-06,74.89,74.89,74.89,74.89,0,73.28
2016-10-07,74.89,74.89,74.89,74.89,0,73.28
2016-10-10,74.89,74.89,74.89,74.89,0,73.28
2016-10-11,74.89,74.89,74.89,74.89,0,73.28
2016-10-12,74.89,74.89,74.89,74.89,0,73.28
2016-10-13,74.89,74.89,74.89,74.89,0,73.28
2016-10-14,74.89,74.89,74.89,74.89,0,73.28
2016-10-17,75.04,75.04,75.04,75.04,300,73.43
2016-10-18,75.04,75.04,75.04,75.04,0,73.43
2016-10-19,75.06,75.06,75.06,75.06,300,73.44
2016-10-20,75.06,75.06,75.06,75.06,0,73.44
2016-10-21,75.06,75.06,75.06,75.06,0,73.44
2016-10-24,75.06,75.06,75.06,75.06,0,73.44
2016-10-25,75.13,75.13,75.13,75.13,1800,73.51
2016-10-26,75.13,75.13,75.13,75.13,0,73.51
2016-10-27,75.13,75.13,75.13,75.13,0,73.51
2016-10-28,75.13,75.13,75.13,75.13,0,73.51
2016-10-31,75.13,75.13,75.13,75.13,0,73.51
2016-11-01,75.13,75.13,75.13,75.13,0,73.51
2016-11-02,75.13,75.13,75.13,75.13,0,73.51
2016-11-03,75.13,75.13,75.13,75.13,0,73.51
2016-11-04,75.13,75.13,75.13,75.13,0,73.51
2016-11-07,75.13,75.13,75.13,75.13,0,73.51
2016-11-08,75.13,75.13,75.13,75.13,0,73.51
2016-11-09,75.13,75.13,75.13,75.13,0,73.51
2016-11-10,75.13,75.13,75.13,75.13,0,73.51
2016-11-11,75.13,75.13,75.13,75.13,0,73.51
2016-11-14,75.13,75.13,75.13,75.13,0,73.51
2016-11-15,74.64,74.64,74.64,74.64,600,73.03
2016-11-16,74.64,74.64,74.64,74.64,0,73.03
2016-11-17,74.66,74.66,74.66,74.66,100,73.05
2016-11-18,74.13,74.13,74.13,74.13,2200,73.29
2016-11-21,74.17,74.17,74.17,74.17,1700,73.33
2016-11-22,74.17,74.17,74.17,74.17,0,73.33
2016-11-23,74.19,74.19,74.19,74.19,1700,73.35
2016-11-24,74.19,74.19,74.19,74.19,0,73.35
2016-11-25,74.19,74.21,74.19,74.21,1300,73.37
2016-11-28,74.21,74.21,74.21,74.21,0,73.37
2016-11-29,74.26,74.26,74.26,74.26,500,73.42
2016-11-30,74.26,74.26,74.26,74.26,0,73.42
2016-12-01,74.26,74.26,74.26,74.26,0,73.42
2016-12-02,74.26,74.26,74.26,74.26,0,73.42
2016-12-05,74.33,74.33,74.33,74.33,700,73.49
2016-12-06,74.34,74.34,74.34,74.34,600,73.5
2016-12-07,74.34,74.34,74.34,74.34,0,73.5
2016-12-08,74.36,74.36,74.36,74.36,200,73.52
2016-12-09,74.36,74.36,74.36,74.36,0,73.52
2016-12-12,74.41,74.41,74.41,74.41,800,73.57
2016-12-13,74.42,74.42,74.42,74.42,100,73.58
2016-12-14,74.42,74.42,74.42,74.42,0,73.58
2016-12-15,74.42,74.42,74.42,74.42,0,73.58
2016-12-16,74.42,74.42,74.42,74.42,0,73.58
2016-12-19,74.42,74.42,74.42,74.42,0,73.58
2016-12-20,74.42,74.42,74.42,74.42,0,73.58
2016-12-21,74.42,74.42,74.42,74.42,0,73.58
2016-12-22,74.42,74.42,74.42,74.42,0,73.58
2016-12-23,74.42,74.42,74.42,74.42,0,73.58
2016-12-26,74.42,74.42,74.42,74.42,0,73.58
2016-12-27,74.42,74.42,74.42,74.42,0,73.58
2016-12-28,74.42,74.42,74.42,74.42,0,73.58
2016-12-29,74.42,74.42,74.42,74.42,0,73.58
2016-12-30,74.42,74.42,74.42,74.42,0,73.58
