Date,Open,High,Low,Close,Volume,Adj Close
2014-06-17,1.00292,1.00292,0.99798,0.99798,5600,0.9546100000000001
2014-06-18,0.99798,1.00292,0.9881,0.9881,40800,0.94516
2014-06-19,0.9881,0.9881,0.9881,0.9881,2300,0.94516
2014-06-20,0.9881,0.99798,0.9881,0.9881,106700,0.94516
2014-06-23,0.9881,0.99798,0.9881,0.9881,12600,0.94516
2014-06-24,0.99798,0.99798,0.9881,0.9881,88400,0.94516
2014-06-25,0.99798,0.99798,0.99798,0.99798,7400,0.9546100000000001
2014-06-26,0.99798,0.99798,0.99798,0.99798,0,0.9546100000000001
2014-06-27,0.9881,0.9881,0.97821,0.97821,20200,0.9357
2014-06-30,0.9592,0.9592,0.9592,0.9592,0,0.91751
2014-07-01,0.9881,0.9881,0.9881,0.9881,70700,0.94516
2014-07-02,0.9881,0.99798,0.9881,0.9881,29600,0.94516
2014-07-03,0.9881,0.9930399999999999,0.98315,0.9881,17500,0.94516
2014-07-04,0.9881,0.9881,0.98315,0.9881,9100,0.94516
2014-07-07,0.9881,0.9881,0.9881,0.9881,30300,0.94516
2014-07-08,0.9881,0.9881,0.9881,0.9881,0,0.94516
2014-07-09,0.98315,0.98315,0.98315,0.98315,26900,0.94042
2014-07-10,0.97821,0.98315,0.9732700000000001,0.9732700000000001,17400,0.9309700000000001
2014-07-11,0.97821,0.98315,0.97821,0.97821,31100,0.9357
2014-07-14,0.97821,0.98315,0.97821,0.98315,30300,0.94042
2014-07-15,0.97821,0.98315,0.97821,0.98315,16800,0.94042
2014-07-16,0.97821,0.98315,0.9732700000000001,0.98315,115600,0.94042
2014-07-17,0.97821,0.9881,0.97821,0.97821,94100,0.9357
2014-07-18,0.97821,0.98315,0.95845,0.95845,47500,0.91679
2014-07-21,0.97821,0.98315,0.94857,0.98315,65800,0.94042
2014-07-22,0.98315,0.98315,0.98315,0.98315,0,0.94042
2014-07-23,0.9683299999999999,0.97821,0.9683299999999999,0.97821,55700,0.9357
2014-07-24,0.97821,0.98315,0.9732700000000001,0.98315,74200,0.94042
2014-07-25,0.98315,0.9881,0.97821,0.98315,158400,0.94042
2014-07-28,0.98315,0.9881,0.97821,0.97821,67100,0.9357
2014-07-29,0.97821,0.97821,0.97821,0.97821,55900,0.9357
2014-07-30,0.9683299999999999,0.9683299999999999,0.96339,0.96339,50600,0.9215200000000001
2014-07-31,0.9671,0.9671,0.9671,0.9671,0,0.9250700000000001
2014-08-01,0.95845,0.95845,0.9535100000000001,0.95845,60300,0.91679
2014-08-04,0.95845,0.95845,0.95845,0.95845,36200,0.91679
2014-08-05,0.95845,0.95845,0.95845,0.95845,40400,0.91679
2014-08-06,0.9535100000000001,0.9683299999999999,0.94857,0.9535100000000001,141700,0.91207
2014-08-07,0.97821,0.97821,0.9732700000000001,0.97821,33600,0.9357
2014-08-08,0.97821,0.97821,0.97821,0.97821,0,0.9357
2014-08-11,0.96339,0.9683299999999999,0.96339,0.9683299999999999,26800,0.92625
2014-08-12,0.96339,0.9683299999999999,0.96339,0.96339,55000,0.9215200000000001
2014-08-13,0.95845,0.95845,0.94857,0.94857,17700,0.9073399999999999
2014-08-14,0.94857,0.95845,0.94857,0.95845,63100,0.91679
2014-08-15,0.96339,0.96339,0.95845,0.95845,400,0.91679
2014-08-18,0.95845,0.96339,0.95845,0.95845,37900,0.91679
2014-08-19,0.94857,0.9683299999999999,0.94857,0.94857,76200,0.9073399999999999
2014-08-20,0.94857,0.9881,0.94857,0.9881,26100,0.94516
2014-08-21,0.94857,0.94857,0.94857,0.94857,10100,0.9073399999999999
2014-08-22,0.94857,0.94857,0.94857,0.94857,5000,0.9073399999999999
2014-08-25,0.94857,0.9683299999999999,0.94857,0.9683299999999999,45500,0.92625
2014-08-26,0.9683299999999999,0.9683299999999999,0.96339,0.96339,30600,0.9215200000000001
2014-08-27,0.96339,0.96339,0.95845,0.96339,16700,0.9215200000000001
2014-08-28,0.96339,0.9683299999999999,0.96339,0.9683299999999999,3400,0.92625
2014-08-29,0.95845,0.95845,0.94857,0.9535100000000001,55100,0.91207
2014-09-01,0.96339,0.9683299999999999,0.94857,0.94857,59400,0.9073399999999999
2014-09-02,0.9535100000000001,0.9535100000000001,0.94857,0.94857,20300,0.9073399999999999
2014-09-03,0.95845,0.9683299999999999,0.95845,0.95845,26700,0.91679
2014-09-04,0.95845,0.95845,0.94857,0.94857,24700,0.9073399999999999
2014-09-05,0.95845,0.95845,0.95845,0.95845,20200,0.91679
2014-09-08,0.9683299999999999,0.9683299999999999,0.95845,0.95845,24000,0.91679
2014-09-09,0.9683299999999999,0.9683299999999999,0.9683299999999999,0.9683299999999999,72800,0.92625
2014-09-10,0.9683299999999999,0.9683299999999999,0.95845,0.95845,88900,0.91679
2014-09-11,0.95845,0.95845,0.95845,0.95845,4000,0.91679
2014-09-12,0.9683299999999999,0.9683299999999999,0.9683299999999999,0.9683299999999999,1800,0.92625
2014-09-15,0.95845,0.95845,0.95845,0.95845,6800,0.91679
2014-09-16,0.95845,0.95845,0.95845,0.95845,15100,0.91679
2014-09-17,0.95845,0.95845,0.9535100000000001,0.95845,10100,0.91679
2014-09-18,0.95845,0.9683299999999999,0.95845,0.9683299999999999,16100,0.92625
2014-09-19,0.95845,0.95845,0.94363,0.94363,93100,0.9026200000000001
2014-09-22,0.94857,0.94857,0.94857,0.94857,3000,0.9073399999999999
2014-09-23,0.94857,0.9683299999999999,0.94857,0.96339,30100,0.9215200000000001
2014-09-24,0.96339,0.96339,0.96339,0.96339,0,0.9215200000000001
2014-09-25,0.94857,0.95845,0.94857,0.95845,12100,0.91679
2014-09-26,0.95845,0.95845,0.95845,0.95845,0,0.91679
2014-09-29,0.96339,0.96339,0.96339,0.96339,17700,0.9215200000000001
2014-09-30,0.9611,0.9611,0.9611,0.9611,0,0.91933
2014-10-01,0.94363,0.9683299999999999,0.94363,0.9683299999999999,34600,0.92625
2014-10-02,0.94363,0.96339,0.94363,0.9535100000000001,88400,0.91207
2014-10-03,0.94363,0.94363,0.90905,0.9386899999999999,16500,0.89789
2014-10-06,0.9189299999999999,0.9386899999999999,0.9189299999999999,0.9386899999999999,22900,0.89789
2014-10-07,0.9386899999999999,0.96339,0.9189299999999999,0.9189299999999999,31200,0.8789899999999999
2014-10-08,0.9189299999999999,0.9189299999999999,0.9189299999999999,0.9189299999999999,300,0.8789899999999999
2014-10-09,0.9189299999999999,0.93375,0.9189299999999999,0.93375,5000,0.89317
2014-10-10,0.9189299999999999,0.95845,0.9189299999999999,0.95845,21900,0.91679
2014-10-13,0.95845,0.95845,0.95845,0.95845,0,0.91679
2014-10-14,0.95845,0.95845,0.95845,0.95845,11600,0.91679
2014-10-15,0.9386899999999999,0.95845,0.9238700000000001,0.95845,13500,0.91679
2014-10-16,0.95845,0.95845,0.95845,0.95845,15300,0.91679
2014-10-17,0.95845,0.9683299999999999,0.95845,0.9683299999999999,15400,0.92625
2014-10-20,0.9683299999999999,0.9683299999999999,0.9386899999999999,0.9683299999999999,45500,0.92625
2014-10-21,0.9683299999999999,0.9683299999999999,0.9683299999999999,0.9683299999999999,4100,0.92625
2014-10-22,0.9683299999999999,0.9683299999999999,0.9683299999999999,0.9683299999999999,0,0.92625
2014-10-23,0.9683299999999999,0.9683299999999999,0.9683299999999999,0.9683299999999999,0,0.92625
2014-10-24,0.95845,0.95845,0.94857,0.94857,33700,0.9073399999999999
2014-10-27,0.95845,0.95845,0.95845,0.95845,5600,0.91679
2014-10-28,0.95845,0.9683299999999999,0.95845,0.9683299999999999,15900,0.92625
2014-10-29,0.95845,0.95845,0.9386899999999999,0.94857,86000,0.9073399999999999
2014-10-30,0.94857,0.94857,0.9386899999999999,0.9386899999999999,7000,0.89789
2014-10-31,0.9538,0.9538,0.9538,0.9538,0,0.91235
2014-11-03,0.94857,0.95845,0.9386899999999999,0.95845,16500,0.91679
2014-11-04,0.95845,0.95845,0.94857,0.95845,33300,0.91679
2014-11-05,0.94857,0.9535100000000001,0.9386899999999999,0.9535100000000001,87200,0.91207
2014-11-06,0.94857,0.94857,0.94857,0.94857,25400,0.9073399999999999
2014-11-07,0.9535100000000001,0.9535100000000001,0.94363,0.94857,101700,0.9073399999999999
2014-11-10,0.95845,0.95845,0.92881,0.9386899999999999,146000,0.89789
2014-11-11,0.9386899999999999,0.95845,0.9386899999999999,0.9535100000000001,24200,0.91207
2014-11-12,0.9535100000000001,0.9535100000000001,0.94363,0.94363,16300,0.9026200000000001
2014-11-13,0.94363,0.94363,0.93375,0.93375,9500,0.89317
2014-11-14,0.9386899999999999,0.9386899999999999,0.92881,0.92881,10700,0.88844
2014-11-17,0.92881,0.92881,0.91399,0.92881,73200,0.88844
2014-11-18,0.92881,0.92881,0.92881,0.92881,22800,0.88844
2014-11-19,0.92881,0.92881,0.92881,0.92881,50500,0.88844
2014-11-20,0.92881,0.92881,0.92881,0.92881,0,0.88844
2014-11-21,0.9189299999999999,0.9386899999999999,0.90905,0.9238700000000001,69200,0.8837200000000001
2014-11-24,0.9386899999999999,0.9535100000000001,0.9386899999999999,0.9535100000000001,24600,0.91207
2014-11-25,0.9535100000000001,0.9535100000000001,0.9535100000000001,0.9535100000000001,15100,0.91207
2014-11-26,0.9535100000000001,0.95845,0.9535100000000001,0.95845,14100,0.91679
2014-11-27,0.95845,0.9683299999999999,0.94363,0.96339,192400,0.9215200000000001
2014-11-28,0.96339,0.96339,0.94363,0.95845,28400,0.91679
2014-12-01,0.94363,0.94363,0.8892899999999999,0.8892899999999999,117800,0.85064
2014-12-02,0.94363,0.96339,0.94363,0.96339,43700,0.9215200000000001
2014-12-03,0.96339,0.9683299999999999,0.96339,0.96339,25200,0.9215200000000001
2014-12-04,0.9535100000000001,0.9535100000000001,0.94857,0.94857,20200,0.9073399999999999
2014-12-05,0.94857,0.9683299999999999,0.94857,0.9683299999999999,34400,0.92625
2014-12-08,0.94857,0.9535100000000001,0.9386899999999999,0.9386899999999999,33700,0.89789
2014-12-09,0.9386899999999999,0.9386899999999999,0.9386899999999999,0.9386899999999999,0,0.89789
2014-12-10,0.94857,0.95845,0.94857,0.95845,62000,0.91679
2014-12-11,0.95845,0.9683299999999999,0.95845,0.9683299999999999,121400,0.92625
2014-12-12,0.95845,0.9683299999999999,0.95845,0.9683299999999999,25800,0.92625
2014-12-15,0.9683299999999999,0.9683299999999999,0.94857,0.96339,25300,0.9215200000000001
2014-12-16,0.9386899999999999,0.9386899999999999,0.9386899999999999,0.9386899999999999,43500,0.89789
2014-12-17,0.9386899999999999,0.9386899999999999,0.9386899999999999,0.9386899999999999,37400,0.89789
2014-12-18,0.94857,0.94857,0.94857,0.94857,10100,0.9073399999999999
2014-12-19,0.9386899999999999,0.9535100000000001,0.9386899999999999,0.9386899999999999,105900,0.89789
2014-12-22,0.9386899999999999,0.94857,0.9386899999999999,0.94857,51900,0.9073399999999999
2014-12-23,0.9386899999999999,0.9386899999999999,0.9386899999999999,0.9386899999999999,64700,0.89789
2014-12-24,0.9386899999999999,0.9386899999999999,0.9386899999999999,0.9386899999999999,0,0.89789
2014-12-25,0.9386899999999999,0.9386899999999999,0.9386899999999999,0.9386899999999999,0,0.89789
2014-12-26,0.9386899999999999,0.9386899999999999,0.9386899999999999,0.9386899999999999,0,0.89789
2014-12-29,0.9386899999999999,0.95845,0.9386899999999999,0.95845,40100,0.91679
2014-12-30,0.9386899999999999,0.9386899999999999,0.93375,0.93375,50600,0.89317
2014-12-31,0.9578,0.9578,0.9578,0.9578,0,0.91617
2015-01-01,0.95845,0.95845,0.95845,0.95845,0,0.91679
2015-01-02,0.95845,0.95845,0.95845,0.95845,0,0.91679
2015-01-05,0.9535100000000001,0.9535100000000001,0.9386899999999999,0.9386899999999999,31700,0.89789
2015-01-06,0.9386899999999999,0.9535100000000001,0.9386899999999999,0.9386899999999999,86800,0.89789
2015-01-07,0.9386899999999999,0.9386899999999999,0.9386899999999999,0.9386899999999999,0,0.89789
2015-01-08,0.9386899999999999,0.9386899999999999,0.9386899999999999,0.9386899999999999,0,0.89789
2015-01-09,0.9386899999999999,0.9386899999999999,0.9386899999999999,0.9386899999999999,49500,0.89789
2015-01-12,0.93375,0.9386899999999999,0.93375,0.9386899999999999,16700,0.89789
2015-01-13,0.9386899999999999,0.9386899999999999,0.92881,0.9386899999999999,20500,0.89789
2015-01-14,0.9386899999999999,0.9386899999999999,0.9386899999999999,0.9386899999999999,99500,0.89789
2015-01-15,0.92881,0.92881,0.90905,0.90905,12600,0.86954
2015-01-16,0.90905,0.90905,0.90905,0.90905,0,0.86954
2015-01-19,0.90905,0.90905,0.90905,0.90905,0,0.86954
2015-01-20,0.92881,0.92881,0.92881,0.92881,50600,0.88844
2015-01-21,0.92881,0.92881,0.92881,0.92881,82800,0.88844
2015-01-22,0.92881,0.92881,0.92881,0.92881,0,0.88844
2015-01-23,0.89917,0.89917,0.8794,0.8794,5300,0.8411799999999999
2015-01-26,0.8794,0.8794,0.8794,0.8794,0,0.8411799999999999
2015-01-27,0.9189299999999999,0.9189299999999999,0.9189299999999999,0.9189299999999999,5000,0.8789899999999999
2015-01-28,0.89917,0.9189299999999999,0.89917,0.9189299999999999,15100,0.8789899999999999
2015-01-29,0.9189299999999999,0.95845,0.9189299999999999,0.95845,121000,0.91679
2015-01-30,0.92881,0.92881,0.92881,0.92881,7700,0.88844
2015-02-02,0.9189299999999999,0.9683299999999999,0.9189299999999999,0.9683299999999999,145600,0.92625
2015-02-03,0.9189299999999999,0.97821,0.9189299999999999,0.97821,42200,0.9357
2015-02-04,0.97821,1.02762,0.97821,1.02762,98900,0.9829600000000001
2015-02-05,1.0375,1.05726,1.0375,1.0375,109200,0.99241
2015-02-06,1.0375,1.06714,1.0375,1.06714,22700,1.0207600000000001
2015-02-09,1.05726,1.05726,1.0375,1.05726,6200,1.01131
2015-02-10,1.00786,1.00786,1.00786,1.00786,30300,0.96406
2015-02-11,1.05726,1.05726,1.05726,1.05726,13900,1.01131
2015-02-12,1.05726,1.05726,1.0177399999999999,1.05726,37900,1.01131
2015-02-13,1.05726,1.05726,1.05726,1.05726,10400,1.01131
2015-02-16,1.05726,1.05726,1.05726,1.05726,0,1.01131
2015-02-17,1.05726,1.05726,1.05726,1.05726,0,1.01131
2015-02-18,1.0128,1.04738,1.0128,1.04738,6200,1.00186
2015-02-19,1.0375,1.0375,1.02762,1.02762,3800,0.9829600000000001
2015-02-20,1.02762,1.02762,1.0128,1.0128,47400,0.96878
2015-02-23,1.0375,1.0375,1.0128,1.0128,51100,0.96878
2015-02-24,1.0128,1.0128,1.0128,1.0128,20300,0.96878
2015-02-25,1.0177399999999999,1.02762,1.0177399999999999,1.0177399999999999,80400,0.97351
2015-02-26,1.0177399999999999,1.04738,1.0177399999999999,1.04738,60100,1.00186
2015-02-27,1.0483,1.0483,1.0483,1.0483,0,1.00274
2015-03-02,1.04738,1.04738,1.0375,1.0375,204600,0.99241
2015-03-03,1.0375,1.0375,1.0128,1.02268,164100,0.9782299999999999
2015-03-04,1.0128,1.0177399999999999,1.00786,1.00786,33500,0.96406
2015-03-05,1.00786,1.02268,1.00786,1.02268,45400,0.9782299999999999
2015-03-06,1.02268,1.0375,1.02268,1.02762,43200,0.9829600000000001
2015-03-09,1.02268,1.0869,1.02268,1.0869,34800,1.03966
2015-03-10,1.07702,1.0869,1.05726,1.05726,51200,1.01131
2015-03-11,1.05726,1.05726,1.0375,1.0375,16000,0.99241
2015-03-12,1.0375,1.0375,1.02762,1.0375,33000,0.99241
2015-03-13,1.0375,1.0869,1.0375,1.0869,51400,1.03966
2015-03-16,1.0869,1.0869,1.0869,1.0869,10900,1.03966
2015-03-17,1.0869,1.13631,1.0869,1.13631,21100,1.08692
2015-03-18,1.13631,1.15113,1.06714,1.06714,25000,1.0207600000000001
2015-03-19,1.06714,1.06714,1.06714,1.06714,0,1.0207600000000001
2015-03-20,1.07702,1.0869,1.07702,1.07702,26000,1.03021
2015-03-23,1.07702,1.07702,1.05726,1.05726,25100,1.01131
2015-03-24,1.05726,1.05726,1.05726,1.05726,0,1.01131
2015-03-25,0.9861,0.9861,0.9861,0.9861,0,0.94324
2015-03-26,0.9861,0.9861,0.9861,0.9861,0,0.94324
2015-03-27,0.9861,0.9861,0.9861,0.9861,0,0.94324
2015-03-30,0.9861,0.9861,0.9861,0.9861,0,0.94324
2015-03-31,0.9963,0.9963,0.9963,0.9963,0,0.953
2015-04-01,0.9861,0.9861,0.9861,0.9861,0,0.94324
2015-04-02,1.1,1.1,1.1,1.1,9700,1.05219
2015-04-03,1.0869,1.0869,1.0869,1.0869,0,1.03966
2015-04-06,1.0869,1.0869,1.0869,1.0869,0,1.03966
2015-04-07,0.9861,0.9861,0.9861,0.9861,0,0.94324
2015-04-08,0.9861,0.9861,0.9861,0.9861,0,0.94324
2015-04-09,0.9861,0.9861,0.9861,0.9861,0,0.94324
2015-04-10,1.09,1.1,1.09,1.09,100100,1.04263
2015-04-13,0.9861,0.9861,0.9861,0.9861,0,0.94324
2015-04-14,0.9861,0.9861,0.9861,0.9861,0,0.94324
2015-04-15,0.9861,0.9861,0.9861,0.9861,0,0.94324
2015-04-16,0.9861,0.9861,0.9861,0.9861,0,0.94324
2015-04-17,0.9861,0.9861,0.9861,0.9861,0,0.94324
2015-04-20,0.9861,0.9861,0.9861,0.9861,0,0.94324
2015-04-21,1.05,1.05,1.02,1.02,45600,0.97567
2015-04-22,0.9861,0.9861,0.9861,0.9861,0,0.94324
2015-04-23,0.9861,0.9861,0.9861,0.9861,0,0.94324
2015-04-24,0.9861,0.9861,0.9861,0.9861,0,0.94324
2015-04-27,0.9861,0.9861,0.9861,0.9861,0,0.94324
2015-04-28,0.9861,0.9861,0.9861,0.9861,0,0.94324
2015-04-29,1.025,1.05,1.025,1.05,58900,1.00437
2015-04-30,0.99,0.99,0.99,0.99,0,0.9469700000000001
2015-05-01,0.9861,0.9861,0.9861,0.9861,0,0.94324
2015-05-04,0.9861,0.9861,0.9861,0.9861,0,0.94324
2015-05-05,0.9861,0.9861,0.9861,0.9861,0,0.94324
2015-05-06,0.9861,0.9861,0.9861,0.9861,0,0.94324
2015-05-07,0.9861,0.9861,0.9861,0.9861,0,0.94324
2015-05-08,0.9861,0.9861,0.9861,0.9861,0,0.94324
2015-05-11,0.9861,0.9861,0.9861,0.9861,0,0.94324
2015-05-12,0.9861,0.9861,0.9861,0.9861,0,0.94324
2015-05-13,0.9861,0.9861,0.9861,0.9861,0,0.94324
2015-05-14,0.9861,0.9861,0.9861,0.9861,0,0.94324
2015-05-15,0.9861,0.9861,0.9861,0.9861,0,0.94324
2015-05-18,0.9861,0.9861,0.9861,0.9861,0,0.94324
2015-05-19,0.9861,0.9861,0.9861,0.9861,0,0.94324
2015-05-20,0.9861,0.9861,0.9861,0.9861,0,0.94324
2015-05-21,0.9861,0.9861,0.9861,0.9861,0,0.94324
2015-05-22,0.9861,0.9861,0.9861,0.9861,0,0.94324
2015-05-25,0.9861,0.9861,0.9861,0.9861,0,0.94324
2015-05-26,0.9861,0.9861,0.9861,0.9861,0,0.94324
2015-05-27,0.9861,0.9861,0.9861,0.9861,0,0.94324
2015-05-28,0.9861,0.9861,0.9861,0.9861,0,0.94324
2015-05-29,1.0284,1.0284,1.0284,1.0284,0,0.9837
2015-06-01,0.9861,0.9861,0.9861,0.9861,0,0.94324
2015-06-02,0.9861,0.9861,0.9861,0.9861,0,0.94324
2015-06-03,0.9861,0.9861,0.9861,0.9861,0,0.94324
2015-06-04,0.9861,0.9861,0.9861,0.9861,0,0.94324
2015-06-05,0.97,0.98,0.97,0.98,17600,0.9374100000000001
2015-06-08,0.98,0.98,0.98,0.98,0,0.9374100000000001
2015-06-09,0.9861,0.9861,0.9861,0.9861,0,0.94324
2015-06-10,0.9861,0.9861,0.9861,0.9861,0,0.94324
2015-06-11,0.9861,0.9861,0.9861,0.9861,0,0.94324
2015-06-12,0.9861,0.9861,0.9861,0.9861,0,0.94324
2015-06-15,0.9861,0.9861,0.9861,0.9861,0,0.94324
2015-06-16,0.9861,0.9861,0.9861,0.9861,0,0.94324
2015-06-17,0.9861,0.9861,0.9861,0.9861,0,0.94324
2015-06-18,0.9861,0.9861,0.9861,0.9861,0,0.94324
2015-06-19,0.9861,0.9861,0.9861,0.9861,0,0.94324
2015-06-22,0.9861,0.9861,0.9861,0.9861,0,0.94324
2015-06-23,0.9861,0.9861,0.9861,0.9861,0,0.94324
2015-06-24,0.9861,0.9861,0.9861,0.9861,0,0.94324
2015-06-25,0.9861,0.9861,0.9861,0.9861,0,0.94324
2015-06-26,0.9861,0.9861,0.9861,0.9861,0,0.94324
2015-06-29,0.9861,0.9861,0.9861,0.9861,0,0.94324
2015-06-30,1.0408,1.0408,1.0408,1.0408,0,0.9955700000000001
2015-07-01,0.9861,0.9861,0.9861,0.9861,0,0.94324
2015-07-02,0.9861,0.9861,0.9861,0.9861,0,0.94324
2015-07-03,0.9861,0.9861,0.9861,0.9861,0,0.94324
2015-07-06,0.9861,0.9861,0.9861,0.9861,0,0.94324
2015-07-07,0.9861,0.9861,0.9861,0.9861,0,0.94324
2015-07-08,0.9861,0.9861,0.9861,0.9861,0,0.94324
2015-07-09,0.9861,0.9861,0.9861,0.9861,0,0.94324
2015-07-10,0.98,0.99,0.97,0.97,466700,0.92784
2015-07-13,0.9861,0.9861,0.9861,0.9861,0,0.94324
2015-07-14,0.9861,0.9861,0.9861,0.9861,0,0.94324
2015-07-15,0.9861,0.9861,0.9861,0.9861,0,0.94324
2015-07-16,0.9861,0.9861,0.9861,0.9861,0,0.94324
2015-07-17,1.01,1.01,1.0,1.0,9000,0.95654
2015-07-20,0.9861,0.9861,0.9861,0.9861,0,0.94324
2015-07-21,0.9861,0.9861,0.9861,0.9861,0,0.94324
2015-07-22,0.9861,0.9861,0.9861,0.9861,0,0.94324
2015-07-23,0.9861,0.9861,0.9861,0.9861,0,0.94324
2015-07-24,0.9861,0.9861,0.9861,0.9861,0,0.94324
2015-07-27,0.9861,0.9861,0.9861,0.9861,0,0.94324
2015-07-28,0.9861,0.9861,0.9861,0.9861,0,0.94324
2015-07-29,0.9861,0.9861,0.9861,0.9861,0,0.94324
2015-07-30,0.9861,0.9861,0.9861,0.9861,0,0.94324
2015-07-31,1.0552,1.0552,1.0552,1.0552,0,1.00934
2015-08-03,0.9861,0.9861,0.9861,0.9861,0,0.94324
2015-08-04,1.03,1.03,1.02,1.02,35000,0.97567
2015-08-05,0.9861,0.9861,0.9861,0.9861,0,0.94324
2015-08-06,0.9861,0.9861,0.9861,0.9861,0,0.94324
2015-08-07,0.9861,0.9861,0.9861,0.9861,0,0.94324
2015-08-10,0.9861,0.9861,0.9861,0.9861,0,0.94324
2015-08-11,0.9861,0.9861,0.9861,0.9861,0,0.94324
2015-08-12,0.9861,0.9861,0.9861,0.9861,0,0.94324
2015-08-13,0.9861,0.9861,0.9861,0.9861,0,0.94324
2015-08-14,0.9861,0.9861,0.9861,0.9861,0,0.94324
2015-08-17,0.9861,0.9861,0.9861,0.9861,0,0.94324
2015-08-18,0.9861,0.9861,0.9861,0.9861,0,0.94324
2015-08-19,0.9861,0.9861,0.9861,0.9861,0,0.94324
2015-08-20,0.9861,0.9861,0.9861,0.9861,0,0.94324
2015-08-21,0.9861,0.9861,0.9861,0.9861,0,0.94324
2015-08-24,0.9861,0.9861,0.9861,0.9861,0,0.94324
2015-08-25,0.9861,0.9861,0.9861,0.9861,0,0.94324
2015-08-26,0.9861,0.9861,0.9861,0.9861,0,0.94324
2015-08-27,0.9861,0.9861,0.9861,0.9861,0,0.94324
2015-08-28,0.9861,0.9861,0.9861,0.9861,0,0.94324
2015-08-31,1.063,1.063,1.063,1.063,0,1.0168
2015-09-01,0.9861,0.9861,0.9861,0.9861,0,0.94324
2015-09-02,0.9861,0.9861,0.9861,0.9861,0,0.94324
2015-09-03,0.9861,0.9861,0.9861,0.9861,0,0.94324
2015-09-04,0.9861,0.9861,0.9861,0.9861,0,0.94324
2015-09-07,0.9861,0.9861,0.9861,0.9861,0,0.94324
2015-09-08,0.9861,0.9861,0.9861,0.9861,0,0.94324
2015-09-09,0.9861,0.9861,0.9861,0.9861,0,0.94324
2015-09-10,0.9861,0.9861,0.9861,0.9861,0,0.94324
2015-09-11,0.9861,0.9861,0.9861,0.9861,0,0.94324
2015-09-14,0.9861,0.9861,0.9861,0.9861,0,0.94324
2015-09-15,0.9861,0.9861,0.9861,0.9861,0,0.94324
2015-09-16,0.9861,0.9861,0.9861,0.9861,0,0.94324
2015-09-17,0.9861,0.9861,0.9861,0.9861,0,0.94324
2015-09-18,0.9861,0.9861,0.9861,0.9861,0,0.94324
2015-09-21,0.9861,0.9861,0.9861,0.9861,0,0.94324
2015-09-22,0.9861,0.9861,0.9861,0.9861,0,0.94324
2015-09-23,0.9861,0.9861,0.9861,0.9861,0,0.94324
2015-09-24,0.9861,0.9861,0.9861,0.9861,0,0.94324
2015-09-25,0.9861,0.9861,0.9861,0.9861,0,0.94324
2015-09-28,0.9861,0.9861,0.9861,0.9861,0,0.94324
2015-09-29,0.9861,0.9861,0.9861,0.9861,0,0.94324
2015-09-30,1.0988,1.0988,1.0988,1.0988,0,1.05104
2015-10-01,1.03,1.03,1.02,1.03,112700,0.98524
2015-10-02,0.9861,0.9861,0.9861,0.9861,0,0.94324
2015-10-05,0.9861,0.9861,0.9861,0.9861,0,0.94324
2015-10-06,0.9861,0.9861,0.9861,0.9861,0,0.94324
2015-10-07,0.9861,0.9861,0.9861,0.9861,0,0.94324
2015-10-08,0.9861,0.9861,0.9861,0.9861,0,0.94324
2015-10-09,0.9861,0.9861,0.9861,0.9861,0,0.94324
2015-10-12,0.9861,0.9861,0.9861,0.9861,0,0.94324
2015-10-13,0.9861,0.9861,0.9861,0.9861,0,0.94324
2015-10-14,1.02,1.02,1.02,1.02,549100,0.97567
2015-10-15,0.9861,0.9861,0.9861,0.9861,0,0.94324
2015-10-16,0.9861,0.9861,0.9861,0.9861,0,0.94324
2015-10-19,0.9861,0.9861,0.9861,0.9861,0,0.94324
2015-10-20,0.9861,0.9861,0.9861,0.9861,0,0.9861
2015-10-21,0.9861,0.9861,0.9861,0.9861,0,0.9861
2015-10-22,0.9861,0.9861,0.9861,0.9861,0,0.9861
2015-10-23,0.9861,0.9861,0.9861,0.9861,0,0.9861
2015-10-26,0.9861,0.9861,0.9861,0.9861,0,0.9861
2015-10-27,0.9861,0.9861,0.9861,0.9861,0,0.9861
2015-10-28,0.9861,0.9861,0.9861,0.9861,0,0.9861
2015-10-29,0.9861,0.9861,0.9861,0.9861,0,0.9861
2015-10-30,0.9861,0.9861,0.9861,0.9861,0,0.9861
2015-11-02,0.9861,0.9861,0.9861,0.9861,0,0.9861
2015-11-03,0.9861,0.9861,0.9861,0.9861,0,0.9861
2015-11-04,0.9861,0.9861,0.9861,0.9861,0,0.9861
2015-11-05,0.9861,0.9861,0.9861,0.9861,0,0.9861
2015-11-06,0.9861,0.9861,0.9861,0.9861,0,0.9861
2015-11-09,0.9861,0.9861,0.9861,0.9861,0,0.9861
2015-11-10,0.9861,0.9861,0.9861,0.9861,0,0.9861
2015-11-11,0.9861,0.9861,0.9861,0.9861,0,0.9861
2015-11-12,0.9861,0.9861,0.9861,0.9861,0,0.9861
2015-11-13,0.9861,0.9861,0.9861,0.9861,0,0.9861
2015-11-16,0.9861,0.9861,0.9861,0.9861,0,0.9861
2015-11-17,0.9861,0.9861,0.9861,0.9861,0,0.9861
2015-11-18,0.9861,0.9861,0.9861,0.9861,0,0.9861
2015-11-19,1.04,1.045,1.03,1.04,237100,1.04
2015-11-20,0.9861,0.9861,0.9861,0.9861,0,0.9861
2015-11-23,0.9861,0.9861,0.9861,0.9861,0,0.9861
2015-11-24,0.9861,0.9861,0.9861,0.9861,0,0.9861
2015-11-25,0.9861,0.9861,0.9861,0.9861,0,0.9861
2015-11-26,0.9861,0.9861,0.9861,0.9861,0,0.9861
2015-11-27,0.9861,0.9861,0.9861,0.9861,0,0.9861
2015-11-30,1.0579,1.0579,1.0579,1.0579,0,1.0579
2015-12-01,0.9861,0.9861,0.9861,0.9861,0,0.9861
2015-12-02,0.9861,0.9861,0.9861,0.9861,0,0.9861
2015-12-03,0.9861,0.9861,0.9861,0.9861,0,0.9861
2015-12-04,0.9861,0.9861,0.9861,0.9861,0,0.9861
2015-12-07,0.9861,0.9861,0.9861,0.9861,0,0.9861
2015-12-08,0.9861,0.9861,0.9861,0.9861,0,0.9861
2015-12-09,0.9861,0.9861,0.9861,0.9861,0,0.9861
2015-12-10,0.9861,0.9861,0.9861,0.9861,0,0.9861
2015-12-11,0.9861,0.9861,0.9861,0.9861,0,0.9861
2015-12-14,0.9861,0.9861,0.9861,0.9861,0,0.9861
2015-12-15,0.9861,0.9861,0.9861,0.9861,0,0.9861
2015-12-16,0.9861,0.9861,0.9861,0.9861,0,0.9861
2015-12-17,0.9861,0.9861,0.9861,0.9861,0,0.9861
2015-12-18,0.9861,0.9861,0.9861,0.9861,0,0.9861
2015-12-21,0.9861,0.9861,0.9861,0.9861,0,0.9861
2015-12-22,0.9861,0.9861,0.9861,0.9861,0,0.9861
2015-12-23,0.9861,0.9861,0.9861,0.9861,0,0.9861
2015-12-24,1.01,1.01,1.01,1.01,50000,1.01
2015-12-25,1.01,1.01,1.01,1.01,0,1.01
2015-12-28,1.01,1.01,1.01,1.01,0,1.01
2015-12-29,0.9861,0.9861,0.9861,0.9861,0,0.9861
2015-12-30,1.01,1.01,1.0,1.0,73300,1.0
2015-12-31,1.0684,1.0684,1.0684,1.0684,0,1.0684
2016-01-01,0.9861,0.9861,0.9861,0.9861,0,0.9861
2016-01-04,0.9861,0.9861,0.9861,0.9861,0,0.9861
2016-01-05,0.9861,0.9861,0.9861,0.9861,0,0.9861
2016-01-06,0.9861,0.9861,0.9861,0.9861,0,0.9861
2016-01-07,0.9861,0.9861,0.9861,0.9861,0,0.9861
2016-01-08,0.9861,0.9861,0.9861,0.9861,0,0.9861
2016-01-11,0.9861,0.9861,0.9861,0.9861,0,0.9861
2016-01-12,0.9861,0.9861,0.9861,0.9861,0,0.9861
2016-01-13,0.9861,0.9861,0.9861,0.9861,0,0.9861
2016-01-14,0.9861,0.9861,0.9861,0.9861,0,0.9861
2016-01-15,0.9861,0.9861,0.9861,0.9861,0,0.9861
2016-01-18,0.9861,0.9861,0.9861,0.9861,0,0.9861
2016-01-19,0.9861,0.9861,0.9861,0.9861,0,0.9861
2016-01-20,0.9861,0.9861,0.9861,0.9861,0,0.9861
2016-01-21,0.9861,0.9861,0.9861,0.9861,0,0.9861
2016-01-22,0.9861,0.9861,0.9861,0.9861,0,0.9861
2016-01-25,0.98,0.99,0.98,0.99,169800,0.99
2016-01-26,0.9861,0.9861,0.9861,0.9861,0,0.9861
2016-01-27,0.9861,0.9861,0.9861,0.9861,0,0.9861
2016-01-28,0.9861,0.9861,0.9861,0.9861,0,0.9861
2016-01-29,0.9861,0.9861,0.9861,0.9861,0,0.9861
2016-02-01,0.9861,0.9861,0.9861,0.9861,0,0.9861
2016-02-02,0.9861,0.9861,0.9861,0.9861,0,0.9861
2016-02-03,0.9861,0.9861,0.9861,0.9861,0,0.9861
2016-02-04,0.9861,0.9861,0.9861,0.9861,0,0.9861
2016-02-05,0.9861,0.9861,0.9861,0.9861,0,0.9861
2016-02-08,0.9861,0.9861,0.9861,0.9861,0,0.9861
2016-02-09,0.9861,0.9861,0.9861,0.9861,0,0.9861
2016-02-10,0.9861,0.9861,0.9861,0.9861,0,0.9861
2016-02-11,0.9861,0.9861,0.9861,0.9861,0,0.9861
2016-02-12,0.9861,0.9861,0.9861,0.9861,0,0.9861
2016-02-15,0.9861,0.9861,0.9861,0.9861,0,0.9861
2016-02-16,0.9861,0.9861,0.9861,0.9861,0,0.9861
2016-02-17,0.9861,0.9861,0.9861,0.9861,0,0.9861
2016-02-18,0.9861,0.9861,0.9861,0.9861,0,0.9861
2016-02-19,0.9861,0.9861,0.9861,0.9861,0,0.9861
2016-02-22,0.9861,0.9861,0.9861,0.9861,0,0.9861
2016-02-23,0.9861,0.9861,0.9861,0.9861,0,0.9861
2016-02-24,0.9861,0.9861,0.9861,0.9861,0,0.9861
2016-02-25,0.9861,0.9861,0.9861,0.9861,0,0.9861
2016-02-26,0.9861,0.9861,0.9861,0.9861,0,0.9861
2016-02-29,1.0776,1.0776,1.0776,1.0776,0,1.0776
2016-03-01,0.9861,0.9861,0.9861,0.9861,0,0.9861
2016-03-02,0.9861,0.9861,0.9861,0.9861,0,0.9861
2016-03-03,0.9861,0.9861,0.9861,0.9861,0,0.9861
2016-03-04,0.9861,0.9861,0.9861,0.9861,0,0.9861
2016-03-07,0.9861,0.9861,0.9861,0.9861,0,0.9861
2016-03-08,0.9861,0.9861,0.9861,0.9861,0,0.9861
2016-03-09,0.9861,0.9861,0.9861,0.9861,0,0.9861
2016-03-10,0.9861,0.9861,0.9861,0.9861,0,0.9861
2016-03-11,0.9861,0.9861,0.9861,0.9861,0,0.9861
2016-03-14,0.9861,0.9861,0.9861,0.9861,0,0.9861
2016-03-15,0.9861,0.9861,0.9861,0.9861,0,0.9861
2016-03-16,0.9861,0.9861,0.9861,0.9861,0,0.9861
2016-03-17,0.9861,0.9861,0.9861,0.9861,0,0.9861
2016-03-18,0.9861,0.9861,0.9861,0.9861,0,0.9861
2016-03-21,0.9861,0.9861,0.9861,0.9861,0,0.9861
2016-03-22,0.9861,0.9861,0.9861,0.9861,0,0.9861
2016-03-23,0.9861,0.9861,0.9861,0.9861,0,0.9861
2016-03-24,1.015,1.015,1.01,1.015,8700,1.015
2016-03-25,0.9861,0.9861,0.9861,0.9861,0,0.9861
2016-03-28,0.9861,0.9861,0.9861,0.9861,0,0.9861
2016-03-29,0.9861,0.9861,0.9861,0.9861,0,0.9861
2016-03-30,0.9861,0.9861,0.9861,0.9861,0,0.9861
2016-03-31,1.0804,1.0804,1.0804,1.0804,0,1.0804
2016-04-01,0.9861,0.9861,0.9861,0.9861,0,0.9861
2016-04-04,0.9861,0.9861,0.9861,0.9861,0,0.9861
2016-04-05,0.9861,0.9861,0.9861,0.9861,0,0.9861
2016-04-06,0.9861,0.9861,0.9861,0.9861,0,0.9861
2016-04-07,0.9861,0.9861,0.9861,0.9861,0,0.9861
2016-04-08,0.9861,0.9861,0.9861,0.9861,0,0.9861
2016-04-11,0.9861,0.9861,0.9861,0.9861,0,0.9861
2016-04-12,0.9861,0.9861,0.9861,0.9861,0,0.9861
2016-04-13,0.9861,0.9861,0.9861,0.9861,0,0.9861
2016-04-14,0.9861,0.9861,0.9861,0.9861,0,0.9861
2016-04-15,0.9861,0.9861,0.9861,0.9861,0,0.9861
2016-04-18,0.9861,0.9861,0.9861,0.9861,0,0.9861
2016-04-19,0.9861,0.9861,0.9861,0.9861,0,0.9861
2016-04-20,0.9861,0.9861,0.9861,0.9861,0,0.9861
2016-04-21,0.9861,0.9861,0.9861,0.9861,0,0.9861
2016-04-22,1.04,1.04,1.025,1.04,238300,1.04
2016-04-25,0.9861,0.9861,0.9861,0.9861,0,0.9861
2016-04-26,0.9861,0.9861,0.9861,0.9861,0,0.9861
2016-04-27,0.9861,0.9861,0.9861,0.9861,0,0.9861
2016-04-28,0.9861,0.9861,0.9861,0.9861,0,0.9861
2016-04-29,0.9861,0.9861,0.9861,0.9861,0,0.9861
2016-05-02,0.9861,0.9861,0.9861,0.9861,0,0.9861
2016-05-03,0.9861,0.9861,0.9861,0.9861,0,0.9861
2016-05-04,0.9861,0.9861,0.9861,0.9861,0,0.9861
2016-05-05,0.9861,0.9861,0.9861,0.9861,0,0.9861
2016-05-06,0.9861,0.9861,0.9861,0.9861,0,0.9861
2016-05-09,0.9861,0.9861,0.9861,0.9861,0,0.9861
2016-05-10,0.9861,0.9861,0.9861,0.9861,0,0.9861
2016-05-11,0.9861,0.9861,0.9861,0.9861,0,0.9861
2016-05-12,0.9861,0.9861,0.9861,0.9861,0,0.9861
2016-05-13,0.9861,0.9861,0.9861,0.9861,0,0.9861
2016-05-16,0.9861,0.9861,0.9861,0.9861,0,0.9861
2016-05-17,0.9861,0.9861,0.9861,0.9861,0,0.9861
2016-05-18,0.9861,0.9861,0.9861,0.9861,0,0.9861
2016-05-19,0.9861,0.9861,0.9861,0.9861,0,0.9861
2016-05-20,0.9861,0.9861,0.9861,0.9861,0,0.9861
2016-05-23,0.9861,0.9861,0.9861,0.9861,0,0.9861
2016-05-24,0.9861,0.9861,0.9861,0.9861,0,0.9861
2016-05-25,0.9861,0.9861,0.9861,0.9861,0,0.9861
2016-05-26,0.9861,0.9861,0.9861,0.9861,0,0.9861
2016-05-27,0.9861,0.9861,0.9861,0.9861,0,0.9861
2016-05-30,0.9861,0.9861,0.9861,0.9861,0,0.9861
2016-05-31,1.0972,1.0972,1.0972,1.0972,0,1.0972
2016-06-01,0.9861,0.9861,0.9861,0.9861,0,0.9861
2016-06-02,0.9861,0.9861,0.9861,0.9861,0,0.9861
2016-06-03,0.9861,0.9861,0.9861,0.9861,0,0.9861
2016-06-06,0.9861,0.9861,0.9861,0.9861,0,0.9861
2016-06-07,0.9861,0.9861,0.9861,0.9861,0,0.9861
2016-06-08,0.9861,0.9861,0.9861,0.9861,0,0.9861
2016-06-09,0.9861,0.9861,0.9861,0.9861,0,0.9861
2016-06-10,1.155,1.18,1.155,1.16,70500,1.16
2016-06-13,0.9861,0.9861,0.9861,0.9861,0,0.9861
2016-06-14,0.9861,0.9861,0.9861,0.9861,0,0.9861
2016-06-15,0.9861,0.9861,0.9861,0.9861,0,0.9861
2016-06-16,0.9861,0.9861,0.9861,0.9861,0,0.9861
2016-06-17,0.9861,0.9861,0.9861,0.9861,0,0.9861
2016-06-20,0.9861,0.9861,0.9861,0.9861,0,0.9861
2016-06-21,0.9861,0.9861,0.9861,0.9861,0,0.9861
2016-06-22,0.9861,0.9861,0.9861,0.9861,0,0.9861
2016-06-23,0.9861,0.9861,0.9861,0.9861,0,0.9861
2016-06-24,0.9861,0.9861,0.9861,0.9861,0,0.9861
2016-06-27,0.9861,0.9861,0.9861,0.9861,0,0.9861
2016-06-28,0.9861,0.9861,0.9861,0.9861,0,0.9861
2016-06-29,0.9861,0.9861,0.9861,0.9861,0,0.9861
2016-06-30,1.1216,1.1216,1.1216,1.1216,0,1.1216
2016-07-01,0.9861,0.9861,0.9861,0.9861,0,0.9861
2016-07-04,0.9861,0.9861,0.9861,0.9861,0,0.9861
2016-07-05,0.9861,0.9861,0.9861,0.9861,0,0.9861
2016-07-06,0.9861,0.9861,0.9861,0.9861,0,0.9861
2016-07-07,0.9861,0.9861,0.9861,0.9861,0,0.9861
2016-07-08,0.9861,0.9861,0.9861,0.9861,0,0.9861
2016-07-11,0.9861,0.9861,0.9861,0.9861,0,0.9861
2016-07-12,0.9861,0.9861,0.9861,0.9861,0,0.9861
2016-07-13,0.9861,0.9861,0.9861,0.9861,0,0.9861
2016-07-14,0.9861,0.9861,0.9861,0.9861,0,0.9861
2016-07-15,0.9861,0.9861,0.9861,0.9861,0,0.9861
2016-07-18,0.9861,0.9861,0.9861,0.9861,0,0.9861
2016-07-19,0.9861,0.9861,0.9861,0.9861,0,0.9861
2016-07-20,0.9861,0.9861,0.9861,0.9861,0,0.9861
2016-07-21,0.9861,0.9861,0.9861,0.9861,0,0.9861
2016-07-22,0.9861,0.9861,0.9861,0.9861,0,0.9861
2016-07-25,0.9861,0.9861,0.9861,0.9861,0,0.9861
2016-07-26,0.9861,0.9861,0.9861,0.9861,0,0.9861
2016-07-27,0.9861,0.9861,0.9861,0.9861,0,0.9861
2016-07-28,0.9861,0.9861,0.9861,0.9861,0,0.9861
2016-07-29,0.9861,0.9861,0.9861,0.9861,0,0.9861
2016-08-01,0.9861,0.9861,0.9861,0.9861,0,0.9861
2016-08-02,0.9861,0.9861,0.9861,0.9861,0,0.9861
2016-08-03,0.9861,0.9861,0.9861,0.9861,0,0.9861
2016-08-04,0.9861,0.9861,0.9861,0.9861,0,0.9861
2016-08-05,0.9861,0.9861,0.9861,0.9861,0,0.9861
2016-08-08,0.9861,0.9861,0.9861,0.9861,0,0.9861
2016-08-09,0.9861,0.9861,0.9861,0.9861,0,0.9861
2016-08-10,0.9861,0.9861,0.9861,0.9861,0,0.9861
2016-08-11,0.9861,0.9861,0.9861,0.9861,0,0.9861
2016-08-12,0.9861,0.9861,0.9861,0.9861,0,0.9861
2016-08-15,0.9861,0.9861,0.9861,0.9861,0,0.9861
2016-08-16,0.9861,0.9861,0.9861,0.9861,0,0.9861
2016-08-17,1.245,1.25,1.23,1.25,60700,1.25
2016-08-18,1.23,1.255,1.23,1.25,69600,1.25
2016-08-19,1.235,1.25,1.19,1.24,171400,1.24
2016-08-22,0.9861,0.9861,0.9861,0.9861,0,0.9861
2016-08-23,0.9861,0.9861,0.9861,0.9861,0,0.9861
2016-08-24,0.9861,0.9861,0.9861,0.9861,0,0.9861
2016-08-25,1.24,1.26,1.24,1.25,132100,1.25
2016-08-26,1.27,1.27,1.25,1.27,253700,1.27
2016-08-29,1.25,1.27,1.25,1.26,86200,1.26
2016-08-30,1.26,1.26,1.225,1.225,296800,1.225
2016-08-31,1.23,1.235,1.23,1.23,87300,1.23
2016-09-01,1.19,1.215,1.18,1.2,108700,1.2
2016-09-02,1.2,1.22,1.2,1.22,112800,1.22
2016-09-05,0.9861,0.9861,0.9861,0.9861,0,0.9861
2016-09-06,1.23,1.255,1.215,1.22,102400,1.22
2016-09-07,0.9861,0.9861,0.9861,0.9861,0,0.9861
2016-09-08,1.25,1.27,1.25,1.27,163000,1.27
2016-09-09,1.25,1.26,1.24,1.25,136700,1.25
2016-09-12,1.24,1.25,1.24,1.24,18000,1.24
2016-09-13,0.9861,0.9861,0.9861,0.9861,0,0.9861
2016-09-14,1.24,1.25,1.22,1.22,45000,1.22
2016-09-15,1.22,1.25,1.22,1.25,179200,1.25
2016-09-16,1.24,1.24,1.24,1.24,54600,1.24
2016-09-19,1.24,1.24,1.205,1.21,211700,1.21
2016-09-20,1.24,1.24,1.19,1.195,179000,1.195
2016-09-21,1.195,1.22,1.19,1.22,120700,1.22
2016-09-22,1.215,1.235,1.195,1.235,137900,1.235
2016-09-23,1.235,1.24,1.2,1.235,84500,1.235
2016-09-26,1.235,1.235,1.205,1.225,169800,1.225
2016-09-27,1.205,1.215,1.195,1.195,130400,1.195
2016-09-28,1.215,1.215,1.2,1.21,54700,1.21
2016-09-29,0.9861,0.9861,0.9861,0.9861,0,0.9861
2016-09-30,1.19,1.21,1.19,1.21,29800,1.21
2016-10-03,1.2,1.21,1.2,1.21,18100,1.21
2016-10-04,1.195,1.21,1.185,1.195,98100,1.195
2016-10-05,1.19,1.195,1.19,1.19,60000,1.19
2016-10-06,1.19,1.205,1.19,1.19,312500,1.19
2016-10-07,1.19,1.2,1.19,1.19,73800,1.19
2016-10-10,1.19,1.2,1.185,1.2,191700,1.2
2016-10-11,0.9861,0.9861,0.9861,0.9861,0,0.9861
2016-10-12,1.18,1.2,1.18,1.2,76600,1.2
2016-10-13,1.2,1.2,1.15,1.15,243300,1.15
2016-10-14,1.15,1.21,1.12,1.18,192900,1.18
2016-10-17,0.9861,0.9861,0.9861,0.9861,0,0.9861
2016-10-18,0.9861,0.9861,0.9861,0.9861,0,0.9861
2016-10-19,0.9861,0.9861,0.9861,0.9861,0,0.9861
2016-10-20,0.9861,0.9861,0.9861,0.9861,0,0.9861
2016-10-21,1.135,1.14,1.13,1.14,68300,1.14
2016-10-24,1.14,1.14,1.125,1.13,55200,1.13
2016-10-25,1.13,1.135,1.125,1.13,70100,1.13
2016-10-26,1.13,1.14,1.125,1.13,36500,1.13
2016-10-27,1.125,1.125,1.12,1.12,82200,1.12
2016-10-28,1.12,1.12,1.12,1.12,51300,1.12
2016-10-31,1.12,1.13,1.105,1.105,86900,1.105
2016-11-01,1.13,1.13,1.11,1.125,129200,1.125
2016-11-02,1.125,1.13,1.105,1.125,106300,1.125
2016-11-03,1.12,1.125,1.1,1.1,150100,1.1
2016-11-04,1.1,1.14,1.09,1.13,512600,1.13
2016-11-07,1.13,1.13,1.1,1.1,112500,1.1
2016-11-08,1.12,1.13,1.12,1.12,18000,1.12
2016-11-09,1.12,1.125,1.08,1.095,251700,1.095
2016-11-10,1.1,1.12,1.1,1.12,321000,1.12
2016-11-11,1.11,1.14,1.1,1.14,166000,1.14
2016-11-14,1.13,1.16,1.13,1.15,141000,1.15
2016-11-15,1.16,1.17,1.13,1.13,165000,1.13
2016-11-16,1.14,1.165,1.14,1.14,43100,1.14
2016-11-17,1.15,1.17,1.15,1.16,155600,1.16
2016-11-18,1.17,1.2,1.17,1.18,224900,1.18
2016-11-21,1.18,1.19,1.155,1.175,294400,1.175
2016-11-22,1.185,1.185,1.175,1.185,317900,1.185
2016-11-23,1.185,1.185,1.185,1.185,157300,1.185
2016-11-24,0.9861,0.9861,0.9861,0.9861,0,0.9861
2016-11-25,1.185,1.2,1.16,1.16,211900,1.16
2016-11-28,1.16,1.16,1.145,1.145,174700,1.145
2016-11-29,1.15,1.15,1.14,1.15,208900,1.15
2016-11-30,1.15,1.165,1.15,1.15,86800,1.15
2016-12-01,1.15,1.18,1.15,1.18,254200,1.18
2016-12-02,1.16,1.19,1.16,1.18,2181100,1.18
2016-12-05,1.185,1.19,1.15,1.155,170400,1.155
2016-12-06,1.18,1.18,1.15,1.165,216500,1.165
2016-12-07,1.155,1.16,1.145,1.145,2953500,1.145
2016-12-08,1.15,1.16,1.14,1.145,418100,1.145
2016-12-09,1.155,1.155,1.145,1.155,217600,1.155
2016-12-12,1.155,1.16,1.135,1.135,207200,1.135
2016-12-13,1.145,1.155,1.14,1.14,162000,1.14
2016-12-14,1.145,1.15,1.135,1.145,294000,1.145
2016-12-15,1.14,1.145,1.135,1.145,206500,1.145
2016-12-16,1.145,1.145,1.135,1.135,121100,1.135
2016-12-19,1.135,1.145,1.135,1.135,108300,1.135
2016-12-20,1.135,1.15,1.135,1.15,273800,1.15
2016-12-21,1.14,1.15,1.135,1.135,229700,1.135
2016-12-22,1.145,1.175,1.14,1.14,422200,1.14
2016-12-23,1.15,1.15,1.14,1.145,153000,1.145
2016-12-26,0.9861,0.9861,0.9861,0.9861,0,0.9861
2016-12-27,0.9861,0.9861,0.9861,0.9861,0,0.9861
2016-12-28,1.14,1.145,1.135,1.135,100100,1.135
2016-12-29,1.135,1.14,1.13,1.13,208700,1.13
2016-12-30,1.13,1.14,1.13,1.14,42600,1.14
