Date,Open,High,Low,Close,Volume,Adj Close
2015-10-14,1.965,2.02,1.8,1.83,12283200,1.777
2015-10-15,1.84,1.92,1.84,1.9,2131100,1.844
2015-10-16,1.9,1.91,1.86,1.86,941200,1.806
2015-10-19,1.885,1.915,1.875,1.875,593200,1.82
2015-10-20,1.895,1.9,1.85,1.85,420400,1.796
2015-10-21,1.86,1.89,1.85,1.88,1070200,1.825
2015-10-22,1.88,1.895,1.87,1.885,150200,1.83
2015-10-23,1.885,1.885,1.85,1.855,142500,1.801
2015-10-26,1.89,1.89,1.86,1.86,352900,1.806
2015-10-27,1.865,1.88,1.83,1.83,227400,1.777
2015-10-28,1.84,1.875,1.83,1.85,414000,1.796
2015-10-29,1.855,1.875,1.85,1.87,156400,1.815
2015-10-30,1.87,1.9,1.87,1.9,580500,1.844
2015-11-02,1.88,2.08,1.88,2.05,284700,1.99
2015-11-03,2.07,2.19,2.05,2.06,3082700,2.0
2015-11-04,2.08,2.11,2.02,2.04,249200,1.98
2015-11-05,2.03,2.12,2.03,2.06,231700,2.0
2015-11-06,2.08,2.13,2.07,2.13,193700,2.068
2015-11-09,2.13,2.13,2.08,2.1,140600,2.039
2015-11-10,2.13,2.13,2.05,2.08,235200,2.019
2015-11-11,2.05,2.08,2.03,2.05,1364600,1.99
2015-11-12,2.04,2.08,2.02,2.05,294100,1.99
2015-11-13,2.05,2.05,2.0,2.05,76200,1.99
2015-11-16,2.05,2.06,1.96,2.01,251200,1.9509999999999998
2015-11-17,2.0,2.02,1.97,1.99,155500,1.932
2015-11-18,1.98,2.05,1.97,2.03,763100,1.9709999999999999
2015-11-19,2.02,2.14,2.02,2.12,473500,2.0580000000000003
2015-11-20,2.13,2.21,2.13,2.19,578400,2.126
2015-11-23,2.2,2.28,2.2,2.28,2080600,2.213
2015-11-24,2.29,2.35,2.26,2.35,481200,2.281
2015-11-25,2.37,2.38,2.24,2.29,435800,2.2230000000000003
2015-11-26,2.3,2.33,2.2,2.26,696200,2.194
2015-11-27,2.26,2.35,2.26,2.35,269300,2.281
2015-11-30,2.36,2.36,2.27,2.3,298500,2.233
2015-12-01,2.31,2.39,2.29,2.34,298500,2.272
2015-12-02,2.39,2.51,2.35,2.45,419500,2.378
2015-12-03,2.45,2.6,2.44,2.5,471400,2.427
2015-12-04,2.47,2.54,2.4,2.52,200100,2.4459999999999997
2015-12-07,2.55,2.58,2.45,2.5,509200,2.427
2015-12-08,2.5,2.5,2.42,2.42,476700,2.349
2015-12-09,2.46,2.49,2.44,2.45,328000,2.378
2015-12-10,2.44,2.44,2.36,2.37,326700,2.301
2015-12-11,2.36,2.38,2.32,2.37,402600,2.301
2015-12-14,2.37,2.39,2.195,2.39,589900,2.32
2015-12-15,2.39,2.49,2.39,2.46,500000,2.388
2015-12-16,2.47,2.5,2.47,2.47,479200,2.398
2015-12-17,2.5,2.5,2.47,2.47,213500,2.398
2015-12-18,2.47,2.5,2.41,2.48,316700,2.408
2015-12-21,2.45,2.45,2.34,2.45,177900,2.378
2015-12-22,2.42,2.45,2.39,2.39,123500,2.32
2015-12-23,2.39,2.45,2.38,2.38,173700,2.31
2015-12-24,2.39,2.45,2.34,2.42,65800,2.349
2015-12-25,2.42,2.42,2.42,2.42,0,2.349
2015-12-28,2.42,2.42,2.42,2.42,0,2.349
2015-12-29,2.42,2.59,2.42,2.47,126000,2.398
2015-12-30,2.49,2.5,2.4,2.4,79200,2.33
2015-12-31,2.4,2.41,2.38,2.39,50900,2.32
2016-01-01,2.39,2.39,2.39,2.39,0,2.32
2016-01-04,2.4,2.52,2.395,2.48,155800,2.408
2016-01-05,2.48,2.52,2.4,2.5,71100,2.427
2016-01-06,2.5,2.67,2.5,2.67,267400,2.592
2016-01-07,2.65,2.65,2.4,2.6,328100,2.524
2016-01-08,2.5,2.54,2.44,2.5,281900,2.427
2016-01-11,2.49,2.57,2.44,2.52,233600,2.4459999999999997
2016-01-12,2.53,2.54,2.47,2.5,109600,2.427
2016-01-13,2.57,2.64,2.52,2.57,201600,2.495
2016-01-14,2.55,2.57,2.48,2.51,274900,2.437
2016-01-15,2.51,2.55,2.45,2.49,64000,2.417
2016-01-18,2.45,2.56,2.4,2.54,277700,2.4659999999999997
2016-01-19,2.54,2.64,2.53,2.63,162200,2.553
2016-01-20,2.61,2.62,2.45,2.51,111700,2.437
2016-01-21,2.5,2.54,2.44,2.47,364400,2.398
2016-01-22,2.47,2.55,2.47,2.52,99000,2.4459999999999997
2016-01-25,2.52,2.55,2.47,2.55,187200,2.475
2016-01-26,2.55,2.55,2.55,2.55,0,2.475
2016-01-27,2.55,2.6,2.5,2.58,302100,2.505
2016-01-28,2.55,2.61,2.53,2.61,392900,2.5340000000000003
2016-01-29,2.61,2.65,2.58,2.64,344600,2.563
2016-02-01,2.64,2.64,2.47,2.5,219700,2.427
2016-02-02,2.55,2.58,2.48,2.5,721500,2.427
2016-02-03,2.5,2.6,2.49,2.55,204400,2.475
2016-02-04,2.56,2.57,2.49,2.52,315900,2.4459999999999997
2016-02-05,2.54,2.55,2.5,2.52,145400,2.4459999999999997
2016-02-08,2.52,2.53,2.44,2.53,618000,2.456
2016-02-09,2.5,2.55,2.45,2.47,518500,2.398
2016-02-10,2.5,2.53,2.4,2.42,361300,2.349
2016-02-11,2.42,2.5,2.4,2.5,235400,2.427
2016-02-12,2.68,2.74,2.42,2.52,1209800,2.4459999999999997
2016-02-15,2.55,2.55,2.4,2.43,2454200,2.359
2016-02-16,2.45,2.48,2.43,2.48,162400,2.408
2016-02-17,2.48,2.48,2.4,2.41,104200,2.34
2016-02-18,2.47,2.47,2.44,2.46,371800,2.388
2016-02-19,2.46,2.48,2.44,2.45,286700,2.378
2016-02-22,2.45,2.45,2.38,2.42,206200,2.349
2016-02-23,2.43,2.46,2.38,2.45,202100,2.378
2016-02-24,2.43,2.47,2.4,2.42,106400,2.349
2016-02-25,2.42,2.43,2.37,2.37,136500,2.301
2016-02-26,2.37,2.37,2.21,2.33,399600,2.262
2016-02-29,2.33,2.45,2.3,2.45,193100,2.378
2016-03-01,2.4,2.43,2.36,2.37,61400,2.301
2016-03-02,2.4,2.42,2.3,2.36,146700,2.291
2016-03-03,2.38,2.41,2.29,2.38,157100,2.31
2016-03-04,2.38,2.38,2.3,2.3,109300,2.233
2016-03-07,2.26,2.3,2.26,2.27,164600,2.204
2016-03-08,2.27,2.29,2.24,2.28,148100,2.213
2016-03-09,2.28,2.32,2.22,2.32,871700,2.252
2016-03-10,2.33,2.45,2.33,2.45,158400,2.378
2016-03-11,2.45,2.45,2.41,2.44,48500,2.369
2016-03-14,2.43,2.44,2.34,2.37,113100,2.301
2016-03-15,2.37,2.4,2.35,2.39,28500,2.32
2016-03-16,2.37,2.39,2.35,2.37,86200,2.301
2016-03-17,2.39,2.39,2.34,2.34,115400,2.272
2016-03-18,2.36,2.41,2.33,2.37,33900,2.301
2016-03-21,2.39,2.41,2.34,2.41,13600,2.34
2016-03-22,2.35,2.4,2.35,2.4,25500,2.33
2016-03-23,2.37,2.37,2.32,2.32,79500,2.252
2016-03-24,2.32,2.37,2.3,2.32,68900,2.252
2016-03-25,2.32,2.32,2.32,2.32,0,2.252
2016-03-28,2.32,2.32,2.32,2.32,0,2.252
2016-03-29,2.32,2.4,2.3,2.3,253300,2.233
2016-03-30,2.3,2.38,2.29,2.33,135700,2.262
2016-03-31,2.32,2.34,2.27,2.34,200800,2.272
2016-04-01,2.34,2.38,2.28,2.3,116500,2.233
2016-04-04,2.31,2.36,2.26,2.36,70800,2.291
2016-04-05,2.32,2.37,2.32,2.34,91100,2.272
2016-04-06,2.34,2.38,2.31,2.36,1082100,2.291
2016-04-07,2.35,2.35,2.27,2.27,67700,2.204
2016-04-08,2.27,2.3,2.25,2.28,93300,2.213
2016-04-11,2.29,2.29,2.23,2.26,93600,2.194
2016-04-12,2.26,2.34,2.21,2.26,99500,2.194
2016-04-13,2.26,2.34,2.26,2.34,454500,2.272
2016-04-14,2.34,2.37,2.3,2.35,2651000,2.281
2016-04-15,2.34,2.39,2.32,2.36,101200,2.291
2016-04-18,2.32,2.35,2.3,2.32,246000,2.252
2016-04-19,2.35,2.36,2.34,2.34,368300,2.272
2016-04-20,2.34,2.37,2.32,2.35,698800,2.281
2016-04-21,2.37,2.4,2.35,2.37,207300,2.301
2016-04-22,2.38,2.4,2.35,2.4,65700,2.33
2016-04-25,2.4,2.4,2.4,2.4,0,2.33
2016-04-26,2.37,2.4,2.35,2.35,99300,2.281
2016-04-27,2.36,2.39,2.35,2.35,106300,2.281
2016-04-28,2.35,2.39,2.35,2.39,83700,2.32
2016-04-29,2.39,2.41,2.38,2.4,205900,2.33
2016-05-02,2.39,2.45,2.39,2.42,116400,2.349
2016-05-03,2.42,2.49,2.42,2.48,295900,2.408
2016-05-04,2.48,2.54,2.42,2.47,443300,2.398
2016-05-05,2.47,2.47,2.33,2.41,244600,2.34
2016-05-06,2.41,2.49,2.4,2.47,69800,2.398
2016-05-09,2.4,2.49,2.38,2.43,67800,2.359
2016-05-10,2.42,2.53,2.4,2.47,51800,2.398
2016-05-11,2.46,2.49,2.45,2.45,63700,2.378
2016-05-12,2.48,2.48,2.42,2.43,48800,2.359
2016-05-13,2.43,2.45,2.37,2.38,64600,2.31
2016-05-16,2.38,2.48,2.38,2.46,95700,2.388
2016-05-17,2.47,2.5,2.45,2.5,632000,2.427
2016-05-18,2.48,2.49,2.38,2.39,344300,2.32
2016-05-19,2.4,2.42,2.35,2.35,143400,2.281
2016-05-20,2.36,2.41,2.32,2.33,40700,2.262
2016-05-23,2.35,2.37,2.32,2.32,91600,2.252
2016-05-24,2.33,2.4,2.32,2.33,47600,2.262
2016-05-25,2.35,2.38,2.33,2.33,44300,2.262
2016-05-26,2.33,2.34,2.28,2.3,64500,2.233
2016-05-27,2.31,2.39,2.3,2.38,190200,2.31
2016-05-30,2.36,2.37,2.31,2.37,100800,2.301
2016-05-31,2.38,2.43,2.38,2.41,52200,2.34
2016-06-01,2.41,2.41,2.38,2.4,49600,2.33
2016-06-02,2.39,2.39,2.35,2.37,38800,2.301
2016-06-03,2.36,2.4,2.32,2.38,83300,2.31
2016-06-06,2.4,2.41,2.35,2.37,21600,2.301
2016-06-07,2.41,2.41,2.31,2.35,102400,2.281
2016-06-08,2.33,2.4,2.33,2.38,91900,2.31
2016-06-09,2.38,2.45,2.37,2.42,188100,2.349
2016-06-10,2.44,2.45,2.4,2.45,44600,2.378
2016-06-13,2.45,2.45,2.45,2.45,0,2.378
2016-06-14,2.44,2.45,2.35,2.4,456500,2.33
2016-06-15,2.33,2.36,2.33,2.35,179400,2.281
2016-06-16,2.35,2.37,2.28,2.3,1075900,2.233
2016-06-17,2.3,2.32,2.28,2.3,2609900,2.233
2016-06-20,2.32,2.35,2.28,2.32,26500,2.252
2016-06-21,2.3,2.35,2.3,2.34,203400,2.272
2016-06-22,2.34,2.39,2.33,2.36,172600,2.291
2016-06-23,2.34,2.4,2.34,2.37,245400,2.301
2016-06-24,2.37,2.45,2.21,2.27,806800,2.204
2016-06-27,2.35,2.35,2.18,2.23,152000,2.165
2016-06-28,2.21,2.27,2.12,2.21,118900,2.145
2016-06-29,2.22,2.35,2.22,2.27,102700,2.204
2016-06-30,2.27,2.45,2.27,2.4,548500,2.33
2016-07-01,2.35,2.36,2.29,2.33,70300,2.262
2016-07-04,2.31,2.35,2.31,2.32,9200,2.252
2016-07-05,2.33,2.38,2.31,2.35,44500,2.281
2016-07-06,2.35,2.4,2.34,2.4,510800,2.33
2016-07-07,2.4,2.45,2.38,2.42,309900,2.349
2016-07-08,2.41,2.44,2.36,2.42,166800,2.349
2016-07-11,2.4,2.42,2.33,2.4,182600,2.33
2016-07-12,2.4,2.43,2.36,2.41,108900,2.34
2016-07-13,2.42,2.43,2.37,2.37,23600,2.301
2016-07-14,2.37,2.45,2.36,2.43,98700,2.359
2016-07-15,2.45,2.45,2.42,2.45,123900,2.378
2016-07-18,2.42,2.59,2.42,2.56,293500,2.485
2016-07-19,2.58,2.58,2.49,2.49,123900,2.417
2016-07-20,2.5,2.57,2.49,2.57,142300,2.495
2016-07-21,2.55,2.57,2.52,2.55,386300,2.475
2016-07-22,2.55,2.57,2.53,2.55,121400,2.475
2016-07-25,2.54,2.58,2.53,2.58,190000,2.505
2016-07-26,2.54,2.7,2.54,2.65,374000,2.573
2016-07-27,2.68,2.7,2.66,2.67,181100,2.592
2016-07-28,2.68,2.75,2.63,2.72,170800,2.641
2016-07-29,2.7,2.76,2.67,2.72,287300,2.641
2016-08-01,2.7,2.72,2.63,2.63,146000,2.553
2016-08-02,2.64,2.65,2.54,2.54,190200,2.4659999999999997
2016-08-03,2.52,2.54,2.41,2.46,180300,2.388
2016-08-04,2.45,2.58,2.45,2.57,38900,2.495
2016-08-05,2.58,2.6,2.51,2.57,52100,2.495
2016-08-08,2.53,2.6,2.53,2.58,67600,2.505
2016-08-09,2.58,2.69,2.58,2.66,162700,2.582
2016-08-10,2.66,2.78,2.625,2.77,164300,2.6889999999999996
2016-08-11,2.79,2.89,2.74,2.84,572300,2.7569999999999997
2016-08-12,2.98,3.18,2.95,3.06,1688900,2.971
2016-08-15,3.14,3.14,2.95,2.95,562800,2.864
2016-08-16,2.99,3.05,2.96,2.96,872500,2.8739999999999997
2016-08-17,3.0,3.03,2.87,2.88,382000,2.7960000000000003
2016-08-18,2.96,3.06,2.96,2.99,22842900,2.903
2016-08-19,3.01,3.19,2.97,3.1,805300,3.009
2016-08-22,3.11,3.21,3.1,3.17,433900,3.077
2016-08-23,3.15,3.15,3.08,3.11,153100,3.0189999999999997
2016-08-24,3.12,3.2,3.06,3.08,275700,2.99
2016-08-25,3.02,3.1,3.02,3.05,250000,3.05
2016-08-26,3.05,3.09,3.05,3.06,93300,3.06
2016-08-29,3.07,3.13,3.02,3.07,1153000,3.07
2016-08-30,3.06,3.1,3.02,3.05,182800,3.05
2016-08-31,3.04,3.05,2.96,3.01,239600,3.01
2016-09-01,3.01,3.06,2.98,3.03,98800,3.03
2016-09-02,3.03,3.04,2.97,3.0,178900,3.0
2016-09-05,3.0,3.07,2.99,3.02,204000,3.02
2016-09-06,3.03,3.035,2.99,3.02,580100,3.02
2016-09-07,3.03,3.04,3.01,3.03,233900,3.03
2016-09-08,3.0,3.03,2.99,3.03,75200,3.03
2016-09-09,3.01,3.025,3.0,3.01,86900,3.01
2016-09-12,2.99,3.0,2.94,2.98,190400,2.98
2016-09-13,2.98,3.02,2.97,2.99,128300,2.99
2016-09-14,2.93,3.0,2.92,2.95,107300,2.95
2016-09-15,2.93,2.99,2.92,2.95,204000,2.95
2016-09-16,2.95,3.0,2.93,2.99,1481100,2.99
2016-09-19,2.99,3.0,2.92,2.98,182500,2.98
2016-09-20,2.99,2.99,2.93,2.98,359400,2.98
2016-09-21,2.98,2.99,2.95,2.96,246900,2.96
2016-09-22,2.97,2.99,2.96,2.96,337500,2.96
2016-09-23,2.98,3.0,2.96,2.98,157600,2.98
2016-09-26,3.01,3.05,2.97,3.03,569900,3.03
2016-09-27,3.05,3.1,3.04,3.04,947500,3.04
2016-09-28,3.06,3.08,3.04,3.05,1774500,3.05
2016-09-29,3.07,3.07,3.03,3.03,1058900,3.03
2016-09-30,3.05,3.09,3.03,3.05,321700,3.05
2016-10-03,3.06,3.08,3.04,3.05,280500,3.05
2016-10-04,3.04,3.05,3.03,3.05,128100,3.05
2016-10-05,3.05,3.05,3.03,3.03,121700,3.03
2016-10-06,3.045,3.05,3.0,3.0,225800,3.0
2016-10-07,3.02,3.05,3.0,3.01,65200,3.01
2016-10-10,3.01,3.01,2.9,2.92,187300,2.92
2016-10-11,2.93,2.99,2.9,2.91,166500,2.91
2016-10-12,2.9,2.9,2.69,2.7,390500,2.7
2016-10-13,2.78,2.9,2.73,2.73,679000,2.73
2016-10-14,2.72,2.77,2.6,2.61,482400,2.61
2016-10-17,2.58,2.76,2.57,2.7,364000,2.7
2016-10-18,2.68,2.77,2.65,2.77,201900,2.77
2016-10-19,2.77,2.87,2.77,2.83,2588300,2.83
2016-10-20,2.84,2.84,2.795,2.8,356200,2.8
2016-10-21,2.8,2.84,2.65,2.72,310200,2.72
2016-10-24,2.75,2.81,2.72,2.8,617700,2.8
2016-10-25,2.78,2.85,2.72,2.75,233600,2.75
2016-10-26,2.75,2.81,2.74,2.78,138800,2.78
2016-10-27,2.79,2.83,2.73,2.73,470500,2.73
2016-10-28,2.73,2.77,2.7,2.76,88500,2.76
2016-10-31,2.72,2.73,2.65,2.7,185800,2.7
2016-11-01,2.69,2.69,2.66,2.66,51700,2.66
2016-11-02,2.67,2.8,2.61,2.72,207400,2.72
2016-11-03,2.71,2.71,2.65,2.68,93800,2.68
2016-11-04,2.68,2.7,2.59,2.6,308500,2.6
2016-11-07,2.65,2.75,2.64,2.72,145700,2.72
2016-11-08,2.73,2.83,2.73,2.79,128400,2.79
2016-11-09,2.77,2.81,2.61,2.68,142300,2.68
2016-11-10,2.73,2.77,2.64,2.74,108200,2.74
2016-11-11,2.75,2.75,2.66,2.7,52200,2.7
2016-11-14,2.71,2.71,2.635,2.64,388300,2.64
2016-11-15,2.65,2.66,2.61,2.63,355100,2.63
2016-11-16,2.62,2.73,2.61,2.64,92000,2.64
2016-11-17,2.61,2.78,2.59,2.75,92700,2.75
2016-11-18,2.76,2.77,2.7,2.75,99000,2.75
2016-11-21,2.89,2.9,2.77,2.88,317200,2.88
2016-11-22,2.86,2.86,2.81,2.83,265500,2.83
2016-11-23,2.83,2.84,2.75,2.78,122700,2.78
2016-11-24,2.73,2.75,2.61,2.65,288800,2.65
2016-11-25,2.65,2.66,2.62,2.63,111500,2.63
2016-11-28,2.64,2.64,2.6,2.6,731300,2.6
2016-11-29,2.53,2.59,2.48,2.48,220900,2.48
2016-11-30,2.47,2.48,2.33,2.45,1232400,2.45
2016-12-01,2.45,2.5,2.44,2.45,257000,2.45
2016-12-02,2.47,2.53,2.4,2.4,139700,2.4
2016-12-05,2.4,2.44,2.2,2.33,297700,2.33
2016-12-06,2.33,2.41,2.24,2.32,419800,2.32
2016-12-07,2.29,2.35,2.24,2.3,544600,2.3
2016-12-08,2.3,2.37,2.3,2.35,1783900,2.35
2016-12-09,2.34,2.35,2.25,2.3,600100,2.3
2016-12-12,2.24,2.26,2.17,2.2,1864800,2.2
2016-12-13,2.23,2.32,2.21,2.28,1414200,2.28
2016-12-14,2.28,2.32,2.25,2.27,290600,2.27
2016-12-15,2.27,2.27,2.2,2.23,249700,2.23
2016-12-16,2.25,2.31,2.22,2.31,1437100,2.31
2016-12-19,2.31,2.39,2.31,2.35,438600,2.35
2016-12-20,2.38,2.45,2.36,2.41,456600,2.41
2016-12-21,2.41,2.43,2.38,2.43,1341900,2.43
2016-12-22,2.43,2.45,2.395,2.42,664400,2.42
2016-12-23,2.43,2.465,2.4,2.4,669100,2.4
2016-12-26,2.4,2.4,2.4,2.4,0,2.4
2016-12-27,2.4,2.4,2.4,2.4,0,2.4
2016-12-28,2.45,2.45,2.35,2.37,150100,2.37
2016-12-29,2.37,2.42,2.36,2.36,145900,2.36
2016-12-30,2.37,2.45,2.35,2.43,247300,2.43
