Date,Open,High,Low,Close,Volume,Adj Close
2016-10-31,0.22,0.235,0.21,0.215,402000,0.215
2016-11-01,0.23,0.23,0.22,0.23,200000,0.23
2016-11-02,0.23,0.23,0.215,0.23,196700,0.23
2016-11-03,0.23,0.23,0.23,0.23,50000,0.23
2016-11-04,0.22,0.22,0.22,0.22,99000,0.22
2016-11-07,0.225,0.225,0.21,0.22,152300,0.22
2016-11-08,0.21,0.21,0.21,0.21,74000,0.21
2016-11-09,0.21,0.21,0.21,0.21,0,0.21
2016-11-10,0.2,0.21,0.2,0.2,145000,0.2
2016-11-11,0.2,0.2,0.2,0.2,0,0.2
2016-11-14,0.15,0.195,0.15,0.195,190000,0.195
2016-11-15,0.16,0.19,0.15,0.17,172900,0.17
2016-11-16,0.19,0.19,0.19,0.19,35000,0.19
2016-11-17,0.18,0.19,0.18,0.19,67000,0.19
2016-11-18,0.19,0.19,0.19,0.19,18500,0.19
2016-11-21,0.195,0.195,0.195,0.195,100000,0.195
2016-11-22,0.2,0.2,0.2,0.2,22600,0.2
2016-11-23,0.2,0.2,0.2,0.2,5000,0.2
2016-11-24,0.195,0.195,0.195,0.195,10000,0.195
2016-11-25,0.195,0.195,0.195,0.195,0,0.195
2016-11-28,0.195,0.195,0.195,0.195,0,0.195
2016-11-29,0.2,0.21,0.2,0.21,16000,0.21
2016-11-30,0.21,0.21,0.21,0.21,0,0.21
2016-12-01,0.205,0.205,0.18,0.18,50000,0.18
2016-12-02,0.18,0.18,0.18,0.18,0,0.18
2016-12-05,0.18,0.18,0.18,0.18,0,0.18
2016-12-06,0.18,0.18,0.18,0.18,0,0.18
2016-12-07,0.2,0.2,0.2,0.2,120000,0.2
2016-12-08,0.2,0.2,0.2,0.2,25000,0.2
2016-12-09,0.2,0.2,0.2,0.2,0,0.2
2016-12-12,0.2,0.2,0.2,0.2,0,0.2
2016-12-13,0.2,0.2,0.2,0.2,50000,0.2
2016-12-14,0.205,0.205,0.195,0.195,105100,0.195
2016-12-15,0.195,0.195,0.195,0.195,0,0.195
2016-12-16,0.195,0.195,0.195,0.195,0,0.195
2016-12-19,0.195,0.195,0.195,0.195,0,0.195
2016-12-20,0.2,0.2,0.2,0.2,40000,0.2
2016-12-21,0.2,0.2,0.2,0.2,20000,0.2
2016-12-22,0.195,0.195,0.195,0.195,5000,0.195
2016-12-23,0.195,0.195,0.195,0.195,0,0.195
2016-12-26,0.195,0.195,0.195,0.195,0,0.195
2016-12-27,0.195,0.195,0.195,0.195,0,0.195
2016-12-28,0.195,0.195,0.195,0.195,0,0.195
2016-12-29,0.195,0.195,0.195,0.195,0,0.195
2016-12-30,0.195,0.195,0.195,0.195,0,0.195
