Date,Open,High,Low,Close,Volume,Adj Close
2011-01-27,0.21,0.23,0.21,0.23,23700,4.6
2011-01-28,0.225,0.225,0.21,0.21,28400,4.2
2011-02-01,0.215,0.215,0.215,0.215,2400,4.3
2011-02-02,0.22,0.25,0.22,0.25,5900,5.0
2011-02-03,0.25,0.265,0.245,0.245,19500,4.9
2011-02-04,0.25,0.265,0.24,0.265,20000,5.3
2011-02-07,0.255,0.255,0.25,0.25,9700,5.0
2011-02-08,0.265,0.3,0.265,0.29,9800,5.8
2011-02-09,0.29,0.29,0.265,0.28,10200,5.6
2011-02-10,0.28,0.28,0.25,0.25,20500,5.0
2011-02-11,0.26,0.26,0.25,0.25,7500,5.0
2011-02-14,0.295,0.32,0.295,0.295,84400,5.9
2011-02-15,0.305,0.305,0.29,0.29,13900,5.8
2011-02-16,0.3,0.3,0.27,0.29,8200,5.8
2011-02-17,0.3,0.3,0.29,0.29,29000,5.8
2011-02-18,0.295,0.3,0.285,0.295,10400,5.9
2011-02-21,0.32,0.41,0.32,0.385,176500,7.7
2011-02-22,0.39,0.395,0.34,0.345,68400,6.9
2011-02-23,0.345,0.385,0.34,0.34,33700,6.8
2011-02-24,0.35,0.36,0.315,0.32,44700,6.4
2011-02-25,0.325,0.335,0.32,0.33,12800,6.6
2011-02-28,0.33,0.33,0.32,0.32,6700,6.4
2011-03-01,0.32,0.32,0.285,0.285,18400,5.7
2011-03-02,0.28,0.32,0.28,0.31,15900,6.2
2011-03-03,0.31,0.315,0.31,0.315,5800,6.3
2011-03-04,0.315,0.315,0.31,0.31,1700,6.2
2011-03-07,0.31,0.33,0.295,0.295,8000,5.9
2011-03-09,0.3,0.3,0.3,0.3,1800,6.0
2011-03-10,0.3,0.3,0.29,0.29,7700,5.8
2011-03-11,0.285,0.285,0.26,0.275,17500,5.5
2011-03-14,0.25,0.25,0.25,0.25,1400,5.0
2011-03-15,0.26,0.26,0.25,0.26,3900,5.2
2011-03-18,0.25,0.25,0.25,0.25,1000,5.0
2011-03-21,0.25,0.25,0.22,0.25,7000,5.0
2011-03-22,0.25,0.25,0.25,0.25,100,5.0
2011-03-23,0.25,0.25,0.24,0.24,400,4.8
2011-03-25,0.24,0.25,0.24,0.25,4300,5.0
2011-03-28,0.25,0.25,0.24,0.24,6200,4.8
2011-03-29,0.24,0.24,0.23,0.24,5400,4.8
2011-03-30,0.23,0.24,0.23,0.24,11000,4.8
2011-03-31,0.24,0.24,0.23,0.24,15900,4.8
2011-04-01,0.23,0.24,0.23,0.24,6500,4.8
2011-04-04,0.25,0.25,0.25,0.25,500,5.0
2011-04-05,0.24,0.24,0.22,0.22,10000,4.4
2011-04-06,0.24,0.27,0.24,0.27,11100,5.4
2011-04-07,0.27,0.27,0.26,0.26,3700,5.2
2011-04-08,0.26,0.26,0.26,0.26,5300,5.2
2011-04-12,0.235,0.24,0.23,0.23,1300,4.6
2011-04-13,0.24,0.24,0.24,0.24,500,4.8
2011-04-15,0.225,0.23,0.225,0.23,3400,4.6
2011-04-18,0.23,0.23,0.23,0.23,7300,4.6
2011-04-19,0.23,0.235,0.23,0.235,5100,4.7
2011-04-20,0.235,0.235,0.235,0.235,500,4.7
2011-04-21,0.235,0.235,0.23,0.23,300,4.6
2011-04-27,0.23,0.23,0.225,0.225,3600,4.5
2011-04-29,0.24,0.24,0.24,0.24,500,4.8
2011-05-02,0.24,0.24,0.24,0.24,300,4.8
2011-05-03,0.225,0.225,0.22,0.22,2100,4.4
2011-05-04,0.22,0.22,0.2,0.205,15300,4.1
2011-05-06,0.22,0.22,0.205,0.205,5000,4.1
2011-05-10,0.205,0.205,0.205,0.205,4900,4.1
2011-05-13,0.205,0.205,0.2,0.2,7700,4.0
2011-05-16,0.2,0.2,0.2,0.2,6500,4.0
2011-05-17,0.2,0.21,0.2,0.2,15200,4.0
2011-05-18,0.2,0.2,0.2,0.2,2400,4.0
2011-05-19,0.2,0.2,0.2,0.2,2000,4.0
2011-05-20,0.21,0.21,0.21,0.21,2500,4.2
2011-05-23,0.2,0.2,0.2,0.2,5000,4.0
2011-05-25,0.2,0.2,0.2,0.2,500,4.0
2011-05-26,0.2,0.22,0.2,0.215,11700,4.3
2011-05-27,0.215,0.215,0.21,0.21,3700,4.2
2011-05-30,0.21,0.21,0.21,0.21,7100,4.2
2011-06-01,0.245,0.245,0.245,0.245,1000,4.9
2011-06-02,0.22,0.22,0.22,0.22,800,4.4
2011-06-06,0.22,0.22,0.22,0.22,500,4.4
2011-06-07,0.22,0.22,0.22,0.22,8300,4.4
2011-06-10,0.22,0.22,0.22,0.22,1200,4.4
2011-06-14,0.22,0.22,0.205,0.205,1700,4.1
2011-06-16,0.2,0.2,0.2,0.2,1000,4.0
2011-06-17,0.2,0.2,0.2,0.2,700,4.0
2011-06-20,0.2,0.2,0.2,0.2,3700,4.0
2011-06-22,0.2,0.2,0.18,0.18,2000,3.6
2011-06-23,0.19,0.19,0.19,0.19,3400,3.8
2011-06-27,0.19,0.19,0.185,0.185,900,3.7
2011-06-29,0.185,0.185,0.185,0.185,1400,3.7
2011-07-01,0.19,0.2,0.19,0.2,300,4.0
2011-07-07,0.21,0.21,0.21,0.21,100,4.2
2011-07-08,0.22,0.23,0.22,0.23,500,4.6
2011-07-12,0.225,0.225,0.225,0.225,500,4.5
2011-07-14,0.225,0.225,0.215,0.215,1200,4.3
2011-07-19,0.22,0.22,0.22,0.22,100,4.4
2011-07-20,0.215,0.22,0.215,0.22,2700,4.4
2011-07-26,0.22,0.22,0.22,0.22,1900,4.4
2011-07-27,0.215,0.215,0.215,0.215,8500,4.3
2011-07-29,0.22,0.22,0.22,0.22,1700,4.4
2011-08-02,0.22,0.22,0.22,0.22,700,4.4
2011-08-03,0.215,0.215,0.215,0.215,1000,4.3
2011-08-05,0.205,0.205,0.205,0.205,500,4.1
2011-08-08,0.18,0.18,0.175,0.175,13000,3.5
2011-08-09,0.15,0.15,0.15,0.15,400,3.0
2011-08-11,0.15,0.15,0.15,0.15,600,3.0
2011-08-12,0.19,0.19,0.19,0.19,2200,3.8
2011-08-19,0.17,0.17,0.17,0.17,500,3.4
2011-08-22,0.17,0.17,0.17,0.17,45500,3.4
2011-08-24,0.16,0.17,0.16,0.17,1300,3.4
2011-08-25,0.175,0.175,0.175,0.175,200,3.5
2011-08-29,0.175,0.175,0.175,0.175,200,3.5
2011-08-30,0.175,0.175,0.175,0.175,700,3.5
2011-08-31,0.17,0.17,0.17,0.17,200,3.4
2011-09-01,0.18,0.18,0.18,0.18,300,3.6
2011-09-02,0.18,0.18,0.18,0.18,400,3.6
2011-09-09,0.18,0.18,0.17,0.17,3700,3.4
2011-09-14,0.17,0.17,0.17,0.17,13000,3.4
2011-09-19,0.16,0.16,0.16,0.16,400,3.2
2011-09-20,0.16,0.16,0.16,0.16,0,3.2
2011-09-26,0.15,0.15,0.15,0.15,12400,3.0
2011-09-30,0.145,0.145,0.145,0.145,600,2.9
2011-10-05,0.145,0.145,0.145,0.145,1400,2.9
2011-10-06,0.145,0.145,0.145,0.145,1800,2.9
2011-10-17,0.16,0.16,0.16,0.16,300,3.2
2011-10-26,0.165,0.165,0.165,0.165,1500,3.3
2011-11-07,0.18,0.18,0.175,0.175,800,3.5
2011-11-08,0.175,0.175,0.175,0.175,1200,3.5
2011-11-10,0.17,0.17,0.155,0.155,12500,3.1
2011-11-15,0.175,0.175,0.175,0.175,1500,3.5
2011-11-17,0.175,0.175,0.175,0.175,0,3.5
2011-11-18,0.175,0.175,0.175,0.175,0,3.5
2011-11-21,0.175,0.175,0.175,0.175,0,3.5
2011-11-22,0.15,0.15,0.15,0.15,6200,3.0
2011-11-23,0.15,0.15,0.15,0.15,0,3.0
2011-11-24,0.15,0.15,0.15,0.15,0,3.0
2011-11-25,0.15,0.15,0.15,0.15,0,3.0
2011-11-28,0.16,0.16,0.155,0.155,3400,3.1
2011-11-29,0.155,0.155,0.155,0.155,0,3.1
2011-11-30,0.155,0.155,0.155,0.155,0,3.1
2011-12-01,0.155,0.155,0.155,0.155,2300,3.1
2011-12-02,0.155,0.155,0.155,0.155,0,3.1
2011-12-05,0.155,0.155,0.155,0.155,0,3.1
2011-12-06,0.155,0.155,0.155,0.155,0,3.1
2011-12-07,0.15,0.16,0.15,0.155,10000,3.1
2011-12-08,0.155,0.155,0.155,0.155,0,3.1
2011-12-09,0.155,0.155,0.155,0.155,0,3.1
2011-12-12,0.155,0.155,0.155,0.155,0,3.1
2011-12-13,0.155,0.155,0.155,0.155,0,3.1
2011-12-14,0.155,0.155,0.15,0.15,4200,3.0
2011-12-15,0.16,0.19,0.16,0.17,4500,3.4
2011-12-16,0.17,0.17,0.17,0.17,0,3.4
2011-12-19,0.15,0.15,0.15,0.15,1000,3.0
2011-12-20,0.15,0.15,0.15,0.15,0,3.0
2011-12-21,0.15,0.15,0.15,0.15,100,3.0
2011-12-22,0.15,0.15,0.15,0.15,0,3.0
2011-12-23,0.15,0.15,0.15,0.15,0,3.0
2011-12-26,0.15,0.15,0.15,0.15,0,3.0
2011-12-27,0.15,0.15,0.15,0.15,0,3.0
2011-12-28,0.15,0.15,0.15,0.15,0,3.0
2011-12-29,0.15,0.15,0.15,0.15,0,3.0
2011-12-30,0.15,0.15,0.15,0.15,0,3.0
2012-01-02,0.15,0.15,0.15,0.15,0,3.0
2012-01-03,0.15,0.15,0.15,0.15,0,3.0
2012-01-04,0.15,0.15,0.15,0.15,0,3.0
2012-01-05,0.15,0.15,0.15,0.15,0,3.0
2012-01-06,0.155,0.155,0.15,0.15,6200,3.0
2012-01-09,0.15,0.15,0.15,0.15,0,3.0
2012-01-10,0.15,0.15,0.15,0.15,0,3.0
2012-01-11,0.15,0.15,0.15,0.15,3700,3.0
2012-01-12,0.15,0.15,0.15,0.15,0,3.0
2012-01-13,0.155,0.155,0.155,0.155,1700,3.1
2012-01-16,0.155,0.155,0.155,0.155,0,3.1
2012-01-17,0.155,0.155,0.155,0.155,0,3.1
2012-01-18,0.155,0.155,0.155,0.155,0,3.1
2012-01-19,0.15,0.15,0.15,0.15,4200,3.0
2012-01-20,0.15,0.15,0.15,0.15,7700,3.0
2012-01-23,0.15,0.15,0.15,0.15,0,3.0
2012-01-24,0.15,0.15,0.15,0.15,0,3.0
2012-01-25,0.14,0.14,0.14,0.14,2700,2.8
2012-01-26,0.14,0.14,0.14,0.14,0,2.8
2012-01-27,0.14,0.14,0.14,0.14,0,2.8
2012-01-31,0.14,0.14,0.14,0.14,0,2.8
2012-02-01,0.14,0.14,0.14,0.14,0,2.8
2012-02-02,0.14,0.14,0.14,0.14,0,2.8
2012-02-03,0.14,0.14,0.14,0.14,0,2.8
2012-02-06,0.14,0.14,0.14,0.14,0,2.8
2012-02-07,0.14,0.14,0.14,0.14,0,2.8
2012-02-08,0.14,0.14,0.14,0.14,0,2.8
2012-02-09,0.14,0.14,0.14,0.14,0,2.8
2012-02-10,0.14,0.14,0.14,0.14,0,2.8
2012-02-13,0.14,0.14,0.14,0.14,200,2.8
2012-02-14,0.14,0.14,0.14,0.14,300,2.8
2012-02-15,0.12,0.12,0.12,0.12,1000,2.4
2012-02-16,0.12,0.12,0.12,0.12,300,2.4
2012-02-17,0.12,0.12,0.12,0.12,0,2.4
2012-02-20,0.12,0.12,0.12,0.12,0,2.4
2012-02-21,0.12,0.12,0.12,0.12,0,2.4
2012-02-22,0.12,0.12,0.12,0.12,0,2.4
2012-02-23,0.12,0.12,0.12,0.12,0,2.4
2012-02-24,0.12,0.12,0.12,0.12,0,2.4
2012-02-27,0.12,0.12,0.12,0.12,0,2.4
2012-02-28,0.13,0.14,0.125,0.14,14100,2.8
2012-02-29,0.14,0.15,0.14,0.15,16800,3.0
2012-03-01,0.15,0.15,0.15,0.15,0,3.0
2012-03-02,0.15,0.15,0.15,0.15,0,3.0
2012-03-05,0.15,0.15,0.15,0.15,0,3.0
2012-03-06,0.15,0.15,0.15,0.15,0,3.0
2012-03-07,0.15,0.15,0.14,0.14,5000,2.8
2012-03-08,0.15,0.15,0.15,0.15,0,3.0
2012-03-09,0.15,0.15,0.15,0.15,0,3.0
2012-03-12,0.15,0.15,0.15,0.15,0,3.0
2012-03-13,0.15,0.15,0.15,0.15,0,3.0
2012-03-14,0.15,0.15,0.15,0.15,0,3.0
2012-03-15,0.14,0.14,0.14,0.14,2500,2.8
2012-03-16,0.14,0.14,0.14,0.14,0,2.8
2012-03-19,0.14,0.14,0.14,0.14,0,2.8
2012-03-20,0.15,0.15,0.15,0.15,2500,3.0
2012-03-21,0.15,0.15,0.15,0.15,0,3.0
2012-03-22,0.15,0.15,0.15,0.15,1800,3.0
2012-03-23,0.15,0.15,0.15,0.15,0,3.0
2012-03-26,0.15,0.15,0.15,0.15,600,3.0
2012-03-27,0.14,0.14,0.14,0.14,700,2.8
2012-03-28,0.14,0.14,0.14,0.14,0,2.8
2012-03-29,0.14,0.14,0.14,0.14,1400,2.8
2012-03-30,0.14,0.14,0.14,0.14,0,2.8
2012-04-02,0.14,0.14,0.14,0.14,0,2.8
2012-04-03,0.14,0.14,0.14,0.14,0,2.8
2012-04-04,0.15,0.15,0.15,0.15,3600,3.0
2012-04-05,0.15,0.15,0.15,0.15,0,3.0
2012-04-06,0.15,0.15,0.15,0.15,0,3.0
2012-04-09,0.15,0.15,0.15,0.15,0,3.0
2012-04-10,0.15,0.15,0.15,0.15,0,3.0
2012-04-11,0.15,0.15,0.15,0.15,0,3.0
2012-04-12,0.15,0.15,0.15,0.15,0,3.0
2012-04-13,0.15,0.15,0.15,0.15,0,3.0
2012-04-16,0.15,0.15,0.15,0.15,0,3.0
2012-04-17,0.15,0.15,0.15,0.15,0,3.0
2012-04-18,0.15,0.15,0.15,0.15,0,3.0
2012-04-19,0.13,0.13,0.13,0.13,500,2.6
2012-04-20,0.11,0.11,0.11,0.11,500,2.2
2012-04-23,0.13,0.13,0.13,0.13,700,2.6
2012-04-24,0.13,0.13,0.13,0.13,0,2.6
2012-04-25,0.13,0.13,0.13,0.13,0,2.6
2012-04-26,0.115,0.115,0.115,0.115,0,2.3
2012-04-27,0.115,0.115,0.115,0.115,0,2.3
2012-04-30,0.091,0.1,0.091,0.1,4500,2.0
2012-05-01,0.1,0.1,0.1,0.1,0,2.0
2012-05-02,0.1,0.1,0.1,0.1,0,2.0
2012-05-03,0.1,0.1,0.1,0.1,0,2.0
2012-05-04,0.1,0.1,0.1,0.1,0,2.0
2012-05-07,0.1,0.1,0.1,0.1,1500,2.0
2012-05-08,0.1,0.1,0.1,0.1,500,2.0
2012-05-09,0.1,0.1,0.1,0.1,500,2.0
2012-05-10,0.1,0.1,0.1,0.1,0,2.0
2012-05-11,0.1,0.1,0.1,0.1,0,2.0
2012-05-14,0.1,0.1,0.1,0.1,0,2.0
2012-05-15,0.1,0.1,0.1,0.1,0,2.0
2012-05-16,0.09,0.09,0.09,0.09,500,1.8
2012-05-17,0.1,0.1,0.1,0.1,500,2.0
2012-05-18,0.1,0.1,0.1,0.1,0,2.0
2012-05-21,0.1,0.1,0.1,0.1,200,2.0
2012-05-22,0.1,0.1,0.1,0.1,0,2.0
2012-05-23,0.1,0.1,0.1,0.1,0,2.0
2012-05-24,0.105,0.105,0.09,0.1,6500,2.0
2012-05-25,0.1,0.1,0.1,0.1,1000,2.0
2012-05-28,0.1,0.1,0.1,0.1,0,2.0
2012-05-29,0.095,0.095,0.09,0.09,1200,1.8
2012-05-30,0.09,0.09,0.09,0.09,0,1.8
2012-05-31,0.1,0.17,0.1,0.17,11700,3.4
2012-06-01,0.16,0.17,0.16,0.17,11400,3.4
2012-06-04,0.16,0.16,0.16,0.16,800,3.2
2012-06-05,0.145,0.145,0.14,0.14,2500,2.8
2012-06-06,0.14,0.14,0.14,0.14,0,2.8
2012-06-07,0.14,0.14,0.14,0.14,1400,2.8
2012-06-08,0.14,0.14,0.14,0.14,0,2.8
2012-06-11,0.14,0.14,0.14,0.14,0,2.8
2012-06-12,0.14,0.14,0.14,0.14,0,2.8
2012-06-13,0.14,0.14,0.14,0.14,0,2.8
2012-06-14,0.14,0.14,0.14,0.14,0,2.8
2012-06-15,0.14,0.14,0.14,0.14,0,2.8
2012-06-18,0.14,0.14,0.14,0.14,0,2.8
2012-06-19,0.14,0.14,0.14,0.14,0,2.8
2012-06-20,0.13,0.14,0.13,0.14,8600,2.8
2012-06-21,0.14,0.14,0.14,0.14,1400,2.8
2012-06-22,0.14,0.14,0.14,0.14,0,2.8
2012-06-25,0.14,0.14,0.14,0.14,0,2.8
2012-06-26,0.14,0.14,0.14,0.14,0,2.8
2012-06-27,0.14,0.14,0.14,0.14,0,2.8
2012-06-28,0.14,0.14,0.14,0.14,0,2.8
2012-06-29,0.1,0.1,0.1,0.1,2500,2.0
2012-07-02,0.11,0.11,0.11,0.11,0,2.2
2012-07-03,0.11,0.11,0.11,0.11,0,2.2
2012-07-04,0.11,0.11,0.11,0.11,0,2.2
2012-07-05,0.11,0.11,0.11,0.11,0,2.2
2012-07-06,0.11,0.11,0.11,0.11,0,2.2
2012-07-09,0.11,0.11,0.11,0.11,0,2.2
2012-07-10,0.13,0.135,0.125,0.125,15200,2.5
2012-07-11,0.13,0.13,0.13,0.13,700,2.6
2012-07-12,0.125,0.13,0.125,0.125,8200,2.5
2012-07-13,0.125,0.125,0.125,0.125,2500,2.5
2012-07-16,0.125,0.125,0.125,0.125,1200,2.5
2012-07-17,0.125,0.125,0.125,0.125,0,2.5
2012-07-18,0.125,0.125,0.125,0.125,0,2.5
2012-07-19,0.125,0.125,0.125,0.125,6600,2.5
2012-07-20,0.125,0.125,0.125,0.125,0,2.5
2012-07-23,0.125,0.125,0.125,0.125,0,2.5
2012-07-24,0.125,0.125,0.125,0.125,0,2.5
2012-07-25,0.125,0.125,0.125,0.125,0,2.5
2012-07-26,0.125,0.125,0.125,0.125,0,2.5
2012-07-27,0.125,0.125,0.125,0.125,0,2.5
2012-07-30,0.125,0.125,0.125,0.125,0,2.5
2012-07-31,0.125,0.125,0.125,0.125,0,2.5
2012-08-01,0.125,0.125,0.125,0.125,0,2.5
2012-08-02,0.125,0.125,0.125,0.125,0,2.5
2012-08-03,0.125,0.125,0.125,0.125,0,2.5
2012-08-06,0.125,0.125,0.125,0.125,0,2.5
2012-08-07,0.125,0.125,0.125,0.125,0,2.5
2012-08-08,0.125,0.125,0.125,0.125,0,2.5
2012-08-09,0.125,0.125,0.125,0.125,0,2.5
2012-08-10,0.125,0.125,0.125,0.125,0,2.5
2012-08-13,0.125,0.125,0.125,0.125,0,2.5
2012-08-14,0.125,0.125,0.125,0.125,0,2.5
2012-08-15,0.125,0.125,0.125,0.125,0,2.5
2012-08-16,0.1,0.1,0.1,0.1,2500,2.0
2012-08-17,0.1,0.11,0.1,0.11,19700,2.2
2012-08-20,0.12,0.135,0.12,0.135,14600,2.7
2012-08-21,0.135,0.135,0.135,0.135,0,2.7
2012-08-22,0.135,0.135,0.135,0.135,0,2.7
2012-08-23,0.155,0.155,0.155,0.155,2000,3.1
2012-08-24,0.155,0.155,0.145,0.145,6200,2.9
2012-08-27,0.145,0.145,0.145,0.145,0,2.9
2012-08-28,0.145,0.145,0.145,0.145,0,2.9
2012-08-29,0.155,0.16,0.155,0.16,5000,3.2
2012-08-30,0.17,0.17,0.17,0.17,1700,3.4
2012-08-31,0.17,0.17,0.17,0.17,0,3.4
2012-09-03,0.16,0.16,0.16,0.16,700,3.2
2012-09-04,0.16,0.16,0.16,0.16,100,3.2
2012-09-05,0.15,0.15,0.15,0.15,900,3.0
2012-09-06,0.15,0.15,0.15,0.15,0,3.0
2012-09-07,0.15,0.15,0.15,0.15,0,3.0
2012-09-10,0.15,0.15,0.15,0.15,2500,3.0
2012-09-11,0.15,0.15,0.15,0.15,3200,3.0
2012-09-12,0.15,0.15,0.15,0.15,2500,3.0
2012-09-13,0.15,0.15,0.15,0.15,2500,3.0
2012-09-14,0.15,0.15,0.15,0.15,0,3.0
2012-09-17,0.15,0.15,0.15,0.15,0,3.0
2012-09-18,0.15,0.15,0.15,0.15,0,3.0
2012-09-19,0.15,0.15,0.15,0.15,0,3.0
2012-09-20,0.15,0.15,0.15,0.15,13700,3.0
2012-09-21,0.15,0.15,0.14,0.15,7200,3.0
2012-09-24,0.15,0.15,0.15,0.15,3500,3.0
2012-09-25,0.15,0.15,0.15,0.15,3000,3.0
2012-09-26,0.15,0.15,0.15,0.15,0,3.0
2012-09-27,0.15,0.15,0.15,0.15,0,3.0
2012-09-28,0.15,0.15,0.15,0.15,0,3.0
2012-10-01,0.15,0.15,0.15,0.15,0,3.0
2012-10-02,0.15,0.15,0.15,0.15,0,3.0
2012-10-03,0.14,0.15,0.14,0.15,2500,3.0
2012-10-04,0.14,0.14,0.14,0.14,900,2.8
2012-10-05,0.14,0.14,0.14,0.14,0,2.8
2012-10-08,0.135,0.135,0.135,0.135,1200,2.7
2012-10-09,0.135,0.135,0.135,0.135,600,2.7
2012-10-10,0.135,0.135,0.135,0.135,3100,2.7
2012-10-11,0.135,0.135,0.135,0.135,0,2.7
2012-10-12,0.135,0.135,0.135,0.135,0,2.7
2012-10-15,0.135,0.135,0.135,0.135,0,2.7
2012-10-16,0.135,0.135,0.135,0.135,0,2.7
2012-10-17,0.135,0.135,0.135,0.135,0,2.7
2012-10-18,0.14,0.14,0.14,0.14,200,2.8
2012-10-19,0.14,0.14,0.14,0.14,0,2.8
2012-10-22,0.14,0.14,0.14,0.14,0,2.8
2012-10-23,0.14,0.14,0.14,0.14,0,2.8
2012-10-24,0.14,0.14,0.14,0.14,0,2.8
2012-10-25,0.14,0.14,0.14,0.14,300,2.8
2012-10-26,0.14,0.14,0.14,0.14,0,2.8
2012-10-29,0.14,0.14,0.14,0.14,0,2.8
2012-10-30,0.12,0.12,0.12,0.12,500,2.4
2012-10-31,0.12,0.12,0.12,0.12,0,2.4
2012-11-01,0.12,0.12,0.12,0.12,0,2.4
2012-11-02,0.12,0.14,0.12,0.14,7200,2.8
2012-11-05,0.14,0.14,0.14,0.14,0,2.8
2012-11-06,0.14,0.14,0.14,0.14,0,2.8
2012-11-07,0.14,0.14,0.14,0.14,0,2.8
2012-11-08,0.14,0.14,0.14,0.14,0,2.8
2012-11-09,0.14,0.14,0.14,0.14,0,2.8
2012-11-12,0.14,0.14,0.14,0.14,0,2.8
2012-11-13,0.14,0.14,0.14,0.14,0,2.8
2012-11-14,0.14,0.14,0.14,0.14,0,2.8
2012-11-15,0.14,0.14,0.14,0.14,0,2.8
2012-11-16,0.14,0.14,0.14,0.14,0,2.8
2012-11-19,0.14,0.14,0.14,0.14,0,2.8
2012-11-20,0.14,0.14,0.14,0.14,0,2.8
2012-11-21,0.14,0.14,0.14,0.14,0,2.8
2012-11-22,0.14,0.14,0.14,0.14,0,2.8
2012-11-23,0.14,0.14,0.14,0.14,0,2.8
2012-11-26,0.14,0.14,0.14,0.14,0,2.8
2012-11-27,0.14,0.14,0.14,0.14,0,2.8
2012-11-28,0.14,0.14,0.14,0.14,0,2.8
2012-11-29,0.14,0.14,0.14,0.14,0,2.8
2012-11-30,0.14,0.14,0.14,0.14,0,2.8
2012-12-03,0.14,0.14,0.14,0.14,0,2.8
2012-12-04,0.14,0.14,0.14,0.14,0,2.8
2012-12-05,0.14,0.14,0.14,0.14,0,2.8
2012-12-06,0.14,0.14,0.14,0.14,0,2.8
2012-12-07,0.14,0.14,0.14,0.14,0,2.8
2012-12-10,0.14,0.14,0.14,0.14,0,2.8
2012-12-11,0.14,0.14,0.14,0.14,0,2.8
2012-12-12,0.14,0.14,0.14,0.14,0,2.8
2012-12-13,0.14,0.14,0.14,0.14,0,2.8
2012-12-14,0.14,0.14,0.14,0.14,0,2.8
2012-12-17,0.14,0.14,0.14,0.14,0,2.8
2012-12-18,0.14,0.14,0.14,0.14,0,2.8
2012-12-19,0.14,0.14,0.14,0.14,0,2.8
2012-12-20,0.14,0.14,0.14,0.14,0,2.8
2012-12-21,0.14,0.14,0.14,0.14,0,2.8
2012-12-24,0.14,0.14,0.14,0.14,0,2.8
2012-12-25,0.14,0.14,0.14,0.14,0,2.8
2012-12-26,0.14,0.14,0.14,0.14,0,2.8
2012-12-27,0.14,0.14,0.14,0.14,0,2.8
2012-12-28,0.14,0.14,0.14,0.14,0,2.8
2012-12-31,0.14,0.14,0.14,0.14,0,2.8
2013-01-01,0.14,0.14,0.14,0.14,0,2.8
2013-01-02,0.14,0.14,0.14,0.14,0,2.8
2013-01-03,0.14,0.14,0.14,0.14,0,2.8
2013-01-04,0.14,0.14,0.14,0.14,0,2.8
2013-01-07,0.14,0.14,0.14,0.14,0,2.8
2013-01-08,0.14,0.14,0.14,0.14,0,2.8
2013-01-09,0.14,0.14,0.14,0.14,0,2.8
2013-01-10,0.14,0.14,0.14,0.14,0,2.8
2013-01-11,0.14,0.14,0.14,0.14,0,2.8
2013-01-14,0.14,0.14,0.14,0.14,0,2.8
2013-01-15,0.14,0.14,0.14,0.14,0,2.8
2013-01-16,0.14,0.14,0.14,0.14,0,2.8
2013-01-17,0.14,0.14,0.14,0.14,0,2.8
2013-01-18,0.14,0.14,0.14,0.14,0,2.8
2013-01-21,0.14,0.14,0.14,0.14,0,2.8
2013-01-22,0.14,0.14,0.14,0.14,0,2.8
2013-01-24,0.14,0.14,0.14,0.14,0,2.8
2013-01-25,0.14,0.14,0.14,0.14,0,2.8
2013-01-28,0.14,0.14,0.14,0.14,0,2.8
2013-01-29,0.14,0.14,0.14,0.14,0,2.8
2013-01-30,0.14,0.14,0.14,0.14,0,2.8
2013-01-31,0.14,0.14,0.14,0.14,0,2.8
2013-02-01,0.14,0.14,0.14,0.14,0,2.8
2013-02-04,0.14,0.14,0.14,0.14,0,2.8
2013-02-05,0.14,0.14,0.14,0.14,0,2.8
2013-02-06,0.14,0.14,0.14,0.14,0,2.8
2013-02-07,0.14,0.14,0.14,0.14,0,2.8
2013-02-08,0.1,0.1,0.1,0.1,700,2.0
2013-02-11,0.1,0.1,0.1,0.1,0,2.0
2013-02-12,0.1,0.1,0.1,0.1,0,2.0
2013-02-13,0.1,0.1,0.1,0.1,0,2.0
2013-02-14,0.1,0.1,0.1,0.1,0,2.0
2013-02-15,0.099,0.099,0.099,0.099,1100,1.98
2013-02-18,0.099,0.099,0.099,0.099,0,1.98
2013-02-19,0.099,0.099,0.099,0.099,0,1.98
2013-02-20,0.099,0.099,0.099,0.099,0,1.98
2013-02-21,0.099,0.099,0.099,0.099,0,1.98
2013-02-22,0.099,0.099,0.099,0.099,0,1.98
2013-02-25,0.08,0.08,0.08,0.08,1500,1.6
2013-02-26,0.08,0.08,0.08,0.08,0,1.6
2013-02-27,0.08,0.08,0.08,0.08,0,1.6
2013-02-28,0.08,0.08,0.08,0.08,0,1.6
2013-03-01,0.08,0.08,0.08,0.08,0,1.6
2013-03-04,0.08,0.08,0.08,0.08,800,1.6
2013-03-05,0.08,0.08,0.08,0.08,0,1.6
2013-03-06,0.08,0.08,0.08,0.08,0,1.6
2013-03-07,0.08,0.08,0.08,0.08,0,1.6
2013-03-08,0.08,0.08,0.08,0.08,0,1.6
2013-03-11,0.08,0.08,0.08,0.08,0,1.6
2013-03-12,0.08199999999999999,0.08199999999999999,0.08199999999999999,0.08199999999999999,500,1.64
2013-03-13,0.09,0.09,0.09,0.09,2000,1.8
2013-03-14,0.09,0.09,0.09,0.09,200,1.8
2013-03-15,0.09,0.09,0.09,0.09,0,1.8
2013-03-18,0.09,0.09,0.09,0.09,0,1.8
2013-03-19,0.09,0.09,0.09,0.09,0,1.8
2013-03-20,0.08,0.08,0.08,0.08,3000,1.6
2013-03-21,0.08,0.08,0.08,0.08,0,1.6
2013-03-22,0.08,0.08,0.08,0.08,0,1.6
2013-03-25,0.08,0.08,0.08,0.08,0,1.6
2013-03-26,0.08,0.08,0.08,0.08,0,1.6
2013-03-27,0.08,0.08,0.08,0.08,0,1.6
2013-03-28,0.08,0.08,0.08,0.08,0,1.6
2013-03-29,0.08,0.08,0.08,0.08,0,1.6
2013-04-01,0.08,0.08,0.08,0.08,0,1.6
2013-04-02,0.08,0.08,0.08,0.08,1200,1.6
2013-04-03,0.08,0.08,0.08,0.08,0,1.6
2013-04-04,0.08,0.08,0.08,0.08,0,1.6
2013-04-05,0.08,0.08,0.08,0.08,0,1.6
2013-04-08,0.08,0.08,0.08,0.08,0,1.6
2013-04-09,0.08,0.08,0.08,0.08,0,1.6
2013-04-10,0.08,0.08,0.08,0.08,0,1.6
2013-04-11,0.08,0.08,0.08,0.08,0,1.6
2013-04-12,0.08,0.08,0.08,0.08,0,1.6
2013-04-15,0.08,0.08,0.08,0.08,0,1.6
2013-04-16,0.08,0.08,0.08,0.08,0,1.6
2013-04-17,0.08,0.08,0.08,0.08,0,1.6
2013-04-18,0.08,0.08,0.08,0.08,0,1.6
2013-04-19,0.07,0.07,0.07,0.07,1500,1.4
2013-04-22,0.07,0.07,0.07,0.07,0,1.4
2013-04-23,0.07,0.07,0.07,0.07,0,1.4
2013-04-24,0.07,0.07,0.07,0.07,0,1.4
2013-04-25,0.07,0.07,0.07,0.07,0,1.4
2013-04-26,0.07,0.07,0.07,0.07,0,1.4
2013-04-29,0.07,0.07,0.07,0.07,0,1.4
2013-04-30,0.07,0.07,0.07,0.07,0,1.4
2013-05-01,0.07,0.07,0.07,0.07,0,1.4
2013-05-02,0.07,0.07,0.07,0.07,0,1.4
2013-05-03,0.07,0.07,0.07,0.07,0,1.4
2013-05-06,0.07,0.07,0.07,0.07,0,1.4
2013-05-07,0.07,0.07,0.07,0.07,0,1.4
2013-05-08,0.07,0.07,0.07,0.07,0,1.4
2013-05-09,0.07,0.07,0.07,0.07,0,1.4
2013-05-10,0.07,0.07,0.07,0.07,0,1.4
2013-05-13,0.07,0.07,0.07,0.07,0,1.4
2013-05-14,0.07,0.07,0.07,0.07,0,1.4
2013-05-15,0.07,0.07,0.07,0.07,0,1.4
2013-05-16,0.07,0.07,0.07,0.07,0,1.4
2013-05-17,0.07,0.07,0.07,0.07,0,1.4
2013-05-20,0.07,0.07,0.07,0.07,0,1.4
2013-05-21,0.07,0.07,0.07,0.07,0,1.4
2013-05-22,0.07,0.07,0.07,0.07,0,1.4
2013-05-23,0.07,0.07,0.07,0.07,0,1.4
2013-05-24,0.07,0.07,0.07,0.07,0,1.4
2013-05-27,0.07,0.07,0.07,0.07,0,1.4
2013-05-28,0.07,0.07,0.07,0.07,0,1.4
2013-05-29,0.07,0.07,0.07,0.07,0,1.4
2013-05-30,0.07,0.07,0.07,0.07,0,1.4
2013-05-31,0.07,0.07,0.07,0.07,0,1.4
2013-06-03,0.07,0.07,0.07,0.07,0,1.4
2013-06-04,0.07,0.07,0.07,0.07,0,1.4
2013-06-05,0.07,0.07,0.07,0.07,0,1.4
2013-06-06,0.07,0.07,0.07,0.07,0,1.4
2013-06-07,0.07,0.07,0.07,0.07,0,1.4
2013-06-10,0.07,0.07,0.07,0.07,0,1.4
2013-06-11,0.07,0.07,0.07,0.07,0,1.4
2013-06-12,0.07,0.07,0.07,0.07,0,1.4
2013-06-13,0.07,0.07,0.07,0.07,0,1.4
2013-06-14,0.07,0.07,0.07,0.07,0,1.4
2013-06-17,0.07,0.07,0.07,0.07,0,1.4
2013-06-18,0.07,0.07,0.07,0.07,0,1.4
2013-06-19,0.03,0.03,0.025,0.025,3800,0.5
2013-06-20,0.015,0.015,0.015,0.015,13500,0.3
2013-06-21,0.012,0.012,0.01,0.01,8700,0.2
2013-06-24,0.01,0.01,0.01,0.01,11000,0.2
2013-06-25,0.01,0.01,0.006,0.006,10100,0.12
2013-06-26,0.006999999999999999,0.006999999999999999,0.006999999999999999,0.006999999999999999,4500,0.14
2013-06-27,0.006,0.006,0.005,0.006,31200,0.12
2013-06-28,0.006,0.006,0.006,0.006,0,0.12
2013-07-01,0.006,0.006,0.006,0.006,5000,0.12
2013-07-02,0.005,0.005,0.005,0.005,3700,0.1
2013-07-03,0.005,0.005,0.005,0.005,0,0.1
2013-07-04,0.005,0.005,0.005,0.005,0,0.1
2013-07-05,0.005,0.005,0.005,0.005,0,0.1
2013-07-08,0.005,0.005,0.005,0.005,0,0.1
2013-07-09,0.005,0.005,0.005,0.005,0,0.1
2013-07-10,0.005,0.005,0.005,0.005,0,0.1
2013-07-11,0.005,0.005,0.005,0.005,0,0.1
2013-07-12,0.006,0.006,0.005,0.005,22100,0.1
2013-07-15,0.005,0.005,0.005,0.005,1400,0.1
2013-07-16,0.005,0.005,0.005,0.005,0,0.1
2013-07-17,0.005,0.005,0.005,0.005,0,0.1
2013-07-18,0.005,0.005,0.005,0.005,0,0.1
2013-07-19,0.004,0.004,0.004,0.004,5000,0.08
2013-07-22,0.004,0.004,0.004,0.004,0,0.08
2013-07-23,0.004,0.004,0.004,0.004,0,0.08
2013-07-24,0.004,0.004,0.004,0.004,0,0.08
2013-07-25,0.004,0.004,0.004,0.004,0,0.08
2013-07-26,0.004,0.004,0.004,0.004,0,0.08
2013-07-29,0.004,0.004,0.004,0.004,0,0.08
2013-07-30,0.004,0.004,0.004,0.004,0,0.08
2013-07-31,0.004,0.004,0.004,0.004,0,0.08
2013-08-01,0.004,0.004,0.004,0.004,0,0.08
2013-08-02,0.004,0.004,0.004,0.004,0,0.08
2013-08-05,0.004,0.004,0.004,0.004,0,0.08
2013-08-06,0.004,0.004,0.004,0.004,0,0.08
2013-08-07,0.004,0.004,0.004,0.004,0,0.08
2013-08-08,0.004,0.004,0.004,0.004,0,0.08
2013-08-09,0.004,0.004,0.004,0.004,0,0.08
2013-08-12,0.004,0.004,0.004,0.004,0,0.08
2013-08-13,0.004,0.004,0.004,0.004,0,0.08
2013-08-14,0.004,0.004,0.004,0.004,0,0.08
2013-08-15,0.004,0.004,0.004,0.004,0,0.08
2013-08-16,0.004,0.004,0.004,0.004,0,0.08
2013-08-19,0.004,0.004,0.004,0.004,0,0.08
2013-08-20,0.004,0.004,0.004,0.004,0,0.08
2013-08-21,0.004,0.004,0.004,0.004,0,0.08
2013-08-22,0.004,0.004,0.004,0.004,0,0.08
2013-08-23,0.004,0.004,0.004,0.004,0,0.08
2013-08-26,0.004,0.004,0.004,0.004,0,0.08
2013-08-27,0.004,0.004,0.004,0.004,0,0.08
2013-08-28,0.004,0.004,0.004,0.004,0,0.08
2013-08-29,0.004,0.004,0.004,0.004,0,0.08
2013-08-30,0.004,0.004,0.004,0.004,0,0.08
2013-09-02,0.004,0.004,0.004,0.004,0,0.08
2013-09-03,0.004,0.004,0.004,0.004,0,0.08
2013-09-04,0.004,0.004,0.004,0.004,0,0.08
2013-09-05,0.004,0.004,0.004,0.004,0,0.08
2013-09-06,0.004,0.004,0.004,0.004,0,0.08
2013-09-09,0.004,0.004,0.004,0.004,0,0.08
2013-09-10,0.004,0.004,0.004,0.004,0,0.08
2013-09-11,0.004,0.004,0.004,0.004,0,0.08
2013-09-12,0.004,0.004,0.004,0.004,0,0.08
2013-09-13,0.004,0.004,0.004,0.004,0,0.08
2013-09-16,0.004,0.004,0.004,0.004,0,0.08
2013-09-17,0.004,0.004,0.004,0.004,0,0.08
2013-09-18,0.004,0.004,0.004,0.004,0,0.08
2013-09-19,0.004,0.004,0.004,0.004,0,0.08
2013-09-20,0.004,0.004,0.004,0.004,0,0.08
2013-09-23,0.004,0.004,0.004,0.004,0,0.08
2013-09-24,0.004,0.004,0.004,0.004,0,0.08
2013-09-25,0.004,0.004,0.004,0.004,0,0.08
2013-09-26,0.004,0.004,0.004,0.004,0,0.08
2013-09-27,0.004,0.004,0.004,0.004,0,0.08
2013-09-30,0.004,0.004,0.004,0.004,0,0.08
2013-10-01,0.004,0.004,0.004,0.004,0,0.08
2013-10-02,0.004,0.004,0.004,0.004,0,0.08
2013-10-03,0.004,0.004,0.004,0.004,0,0.08
2013-10-04,0.004,0.004,0.004,0.004,0,0.08
2013-10-07,0.004,0.004,0.004,0.004,0,0.08
2013-10-08,0.004,0.004,0.004,0.004,0,0.08
2013-10-09,0.004,0.004,0.004,0.004,0,0.08
2013-10-10,0.004,0.004,0.004,0.004,0,0.08
2013-10-11,0.004,0.004,0.004,0.004,0,0.08
2013-10-14,0.004,0.004,0.004,0.004,0,0.08
2013-10-15,0.004,0.004,0.004,0.004,0,0.08
2013-10-16,0.004,0.004,0.004,0.004,0,0.08
2013-10-17,0.004,0.004,0.004,0.004,0,0.08
2013-10-18,0.004,0.004,0.004,0.004,0,0.08
2013-10-21,0.004,0.004,0.004,0.004,0,0.08
2013-10-22,0.004,0.004,0.004,0.004,0,0.08
2013-10-23,0.004,0.004,0.004,0.004,0,0.08
2013-10-24,0.004,0.004,0.004,0.004,0,0.08
2013-10-25,0.004,0.004,0.004,0.004,0,0.08
2013-10-28,0.004,0.004,0.004,0.004,0,0.08
2013-10-29,0.004,0.004,0.004,0.004,0,0.08
2013-10-30,0.004,0.004,0.004,0.004,0,0.08
2013-10-31,0.004,0.004,0.004,0.004,0,0.08
2013-11-01,0.004,0.004,0.004,0.004,0,0.08
2013-11-04,0.004,0.004,0.004,0.004,0,0.08
2013-11-05,0.004,0.004,0.004,0.004,0,0.08
2013-11-06,0.004,0.004,0.004,0.004,0,0.08
2013-11-07,0.004,0.004,0.004,0.004,0,0.08
2013-11-08,0.004,0.004,0.004,0.004,0,0.08
2013-11-11,0.004,0.004,0.004,0.004,0,0.08
2013-11-12,0.004,0.004,0.004,0.004,0,0.08
2013-11-13,0.004,0.004,0.004,0.004,0,0.08
2013-11-14,0.004,0.004,0.004,0.004,0,0.08
2013-11-15,0.004,0.004,0.004,0.004,0,0.08
2013-11-18,0.004,0.004,0.004,0.004,0,0.08
2013-11-19,0.004,0.004,0.004,0.004,0,0.08
2013-11-20,0.004,0.004,0.004,0.004,0,0.08
2013-11-21,0.004,0.004,0.004,0.004,0,0.08
2013-11-22,0.004,0.004,0.004,0.004,0,0.08
2013-11-25,0.004,0.004,0.004,0.004,0,0.08
2013-11-26,0.004,0.004,0.004,0.004,0,0.08
2013-11-27,0.004,0.004,0.004,0.004,0,0.08
2013-11-28,0.004,0.004,0.004,0.004,0,0.08
2013-11-29,0.004,0.004,0.004,0.004,0,0.08
2013-12-02,0.004,0.004,0.004,0.004,0,0.08
2013-12-03,0.004,0.004,0.004,0.004,0,0.08
2013-12-04,0.004,0.004,0.004,0.004,0,0.08
2013-12-05,0.004,0.004,0.004,0.004,0,0.08
2013-12-06,0.004,0.004,0.004,0.004,0,0.08
2013-12-09,0.004,0.004,0.004,0.004,0,0.08
2013-12-10,0.004,0.004,0.004,0.004,0,0.08
2013-12-11,0.004,0.004,0.004,0.004,0,0.08
2013-12-12,0.004,0.004,0.004,0.004,0,0.08
2013-12-13,0.004,0.004,0.004,0.004,0,0.08
2013-12-16,0.004,0.004,0.004,0.004,0,0.08
2013-12-17,0.004,0.004,0.004,0.004,0,0.08
2013-12-18,0.004,0.004,0.004,0.004,0,0.08
2013-12-19,0.004,0.004,0.004,0.004,0,0.08
2013-12-20,0.004,0.004,0.004,0.004,0,0.08
2013-12-23,0.004,0.004,0.004,0.004,0,0.08
2013-12-24,0.004,0.004,0.004,0.004,0,0.08
2013-12-25,0.004,0.004,0.004,0.004,0,0.08
2013-12-26,0.004,0.004,0.004,0.004,0,0.08
2013-12-27,0.004,0.004,0.004,0.004,0,0.08
2013-12-30,0.004,0.004,0.004,0.004,0,0.08
2013-12-31,0.004,0.004,0.004,0.004,0,0.08
2014-01-01,0.004,0.004,0.004,0.004,0,0.08
2014-01-02,0.004,0.004,0.004,0.004,0,0.08
2014-01-03,0.004,0.004,0.004,0.004,0,0.08
2014-01-06,0.004,0.004,0.004,0.004,0,0.08
2014-01-07,0.004,0.004,0.004,0.004,0,0.08
2014-01-08,0.004,0.004,0.004,0.004,0,0.08
2014-01-09,0.004,0.004,0.004,0.004,0,0.08
2014-01-10,0.004,0.004,0.004,0.004,0,0.08
2014-01-13,0.004,0.004,0.004,0.004,0,0.08
2014-01-14,0.004,0.004,0.004,0.004,0,0.08
2014-01-15,0.004,0.004,0.004,0.004,0,0.08
2014-01-16,0.004,0.004,0.004,0.004,0,0.08
2014-01-17,0.004,0.004,0.004,0.004,0,0.08
2014-01-20,0.004,0.004,0.004,0.004,0,0.08
2014-01-21,0.004,0.004,0.004,0.004,0,0.08
2014-01-22,0.004,0.004,0.004,0.004,0,0.08
2014-01-23,0.004,0.004,0.004,0.004,0,0.08
2014-01-24,0.004,0.004,0.004,0.004,0,0.08
2014-01-27,0.004,0.004,0.004,0.004,0,0.08
2014-01-28,0.004,0.004,0.004,0.004,0,0.08
2014-01-29,0.004,0.004,0.004,0.004,0,0.08
2014-01-30,0.004,0.004,0.004,0.004,0,0.08
2014-01-31,0.004,0.004,0.004,0.004,0,0.08
2014-02-03,0.004,0.004,0.004,0.004,0,0.08
2014-02-04,0.004,0.004,0.004,0.004,0,0.08
2014-02-05,0.004,0.004,0.004,0.004,0,0.08
2014-02-06,0.004,0.004,0.004,0.004,0,0.08
2014-02-07,0.004,0.004,0.004,0.004,0,0.08
2014-02-10,0.004,0.004,0.004,0.004,0,0.08
2014-02-11,0.004,0.004,0.004,0.004,0,0.08
2014-02-12,0.004,0.004,0.004,0.004,0,0.08
2014-02-13,0.004,0.004,0.004,0.004,0,0.08
2014-02-14,0.004,0.004,0.004,0.004,0,0.08
2014-02-17,0.004,0.004,0.004,0.004,0,0.08
2014-02-18,0.004,0.004,0.004,0.004,0,0.08
2014-02-19,0.004,0.004,0.004,0.004,0,0.08
2014-02-20,0.004,0.004,0.004,0.004,0,0.08
2014-02-21,0.004,0.004,0.004,0.004,0,0.08
2014-02-24,0.004,0.004,0.004,0.004,0,0.08
2014-02-25,0.004,0.004,0.004,0.004,0,0.08
2014-02-26,0.004,0.004,0.004,0.004,0,0.08
2014-02-27,0.004,0.004,0.004,0.004,0,0.08
2014-02-28,0.004,0.004,0.004,0.004,0,0.08
2014-03-03,0.004,0.004,0.004,0.004,0,0.08
2014-03-04,0.004,0.004,0.004,0.004,0,0.08
2014-03-05,0.004,0.004,0.004,0.004,0,0.08
2014-03-06,0.004,0.004,0.004,0.004,0,0.08
2014-03-07,0.004,0.004,0.004,0.004,0,0.08
2014-03-10,0.004,0.004,0.004,0.004,0,0.08
2014-03-11,0.004,0.004,0.004,0.004,0,0.08
2014-03-12,0.004,0.004,0.004,0.004,0,0.08
2014-03-13,0.004,0.004,0.004,0.004,0,0.08
2014-03-14,0.004,0.004,0.004,0.004,0,0.08
2014-03-17,0.004,0.004,0.004,0.004,0,0.08
2014-03-18,0.004,0.004,0.004,0.004,0,0.08
2014-03-19,0.004,0.004,0.004,0.004,0,0.08
2014-03-20,0.004,0.004,0.004,0.004,0,0.08
2014-03-21,0.004,0.004,0.004,0.004,0,0.08
2014-03-24,0.004,0.004,0.004,0.004,0,0.08
2014-03-25,0.004,0.004,0.004,0.004,0,0.08
2014-03-26,0.004,0.004,0.004,0.004,0,0.08
2014-03-27,0.004,0.004,0.004,0.004,0,0.08
2014-03-28,0.004,0.004,0.004,0.004,0,0.08
2014-03-31,0.004,0.004,0.004,0.004,0,0.08
2014-04-01,0.004,0.004,0.004,0.004,0,0.08
2014-04-02,0.004,0.004,0.004,0.004,0,0.08
2014-04-03,0.004,0.004,0.004,0.004,0,0.08
2014-04-04,0.004,0.004,0.004,0.004,0,0.08
2014-04-07,0.004,0.004,0.004,0.004,0,0.08
2014-04-08,0.004,0.004,0.004,0.004,0,0.08
2014-04-09,0.004,0.004,0.004,0.004,0,0.08
2014-04-10,0.004,0.004,0.004,0.004,0,0.08
2014-04-11,0.004,0.004,0.004,0.004,0,0.08
2014-04-14,0.004,0.004,0.004,0.004,0,0.08
2014-04-15,0.004,0.004,0.004,0.004,0,0.08
2014-04-16,0.004,0.004,0.004,0.004,0,0.08
2014-04-17,0.004,0.004,0.004,0.004,0,0.08
2014-04-18,0.004,0.004,0.004,0.004,0,0.08
2014-04-21,0.004,0.004,0.004,0.004,0,0.08
2014-04-22,0.004,0.004,0.004,0.004,0,0.08
2014-04-23,0.004,0.004,0.004,0.004,0,0.08
2014-04-24,0.004,0.004,0.004,0.004,0,0.08
2014-04-25,0.004,0.004,0.004,0.004,0,0.08
2014-04-28,0.004,0.004,0.004,0.004,0,0.08
2014-04-29,0.004,0.004,0.004,0.004,0,0.08
2014-04-30,0.004,0.004,0.004,0.004,0,0.08
2014-05-01,0.004,0.004,0.004,0.004,0,0.08
2014-05-02,0.004,0.004,0.004,0.004,0,0.08
2014-05-05,0.004,0.004,0.004,0.004,0,0.08
2014-05-06,0.004,0.004,0.004,0.004,0,0.08
2014-05-07,0.004,0.004,0.004,0.004,0,0.08
2014-05-08,0.004,0.004,0.004,0.004,0,0.08
2014-05-09,0.004,0.004,0.004,0.004,0,0.08
2014-05-12,0.004,0.004,0.004,0.004,0,0.08
2014-05-13,0.004,0.004,0.004,0.004,0,0.08
2014-05-14,0.004,0.004,0.004,0.004,0,0.08
2014-05-15,0.004,0.004,0.004,0.004,0,0.08
2014-05-16,0.004,0.004,0.004,0.004,0,0.08
2014-05-19,0.004,0.004,0.004,0.004,0,0.08
2014-05-20,0.004,0.004,0.004,0.004,0,0.08
2014-05-21,0.004,0.004,0.004,0.004,0,0.08
2014-05-22,0.004,0.004,0.004,0.004,0,0.08
2014-05-23,0.004,0.004,0.004,0.004,0,0.08
2014-05-26,0.004,0.004,0.004,0.004,0,0.08
2014-05-27,0.004,0.004,0.004,0.004,0,0.08
2014-05-28,0.004,0.004,0.004,0.004,0,0.08
2014-05-29,0.004,0.004,0.004,0.004,0,0.08
2014-05-30,0.004,0.004,0.004,0.004,0,0.08
2014-06-02,0.004,0.004,0.004,0.004,0,0.08
2014-06-03,0.004,0.004,0.004,0.004,0,0.08
2014-06-04,0.004,0.004,0.004,0.004,0,0.08
2014-06-05,0.004,0.004,0.004,0.004,0,0.08
2014-06-06,0.004,0.004,0.004,0.004,0,0.08
2014-06-09,0.004,0.004,0.004,0.004,0,0.08
2014-06-10,0.004,0.004,0.004,0.004,0,0.08
2014-06-11,0.004,0.004,0.004,0.004,0,0.08
2014-06-12,0.004,0.004,0.004,0.004,0,0.08
2014-06-13,0.004,0.004,0.004,0.004,0,0.08
2014-06-16,0.004,0.004,0.004,0.004,0,0.08
2014-06-17,0.004,0.004,0.004,0.004,0,0.08
2014-06-18,0.004,0.004,0.004,0.004,0,0.08
2014-06-19,0.004,0.004,0.004,0.004,0,0.08
2014-06-20,0.004,0.004,0.004,0.004,0,0.08
2014-06-23,0.004,0.004,0.004,0.004,0,0.08
2014-06-24,0.004,0.004,0.004,0.004,0,0.08
2014-06-25,0.004,0.004,0.004,0.004,0,0.08
2014-06-26,0.004,0.004,0.004,0.004,0,0.08
2014-06-27,0.004,0.004,0.004,0.004,0,0.08
2014-06-30,0.004,0.004,0.004,0.004,0,0.08
2014-07-01,0.004,0.004,0.004,0.004,0,0.08
2014-07-02,0.004,0.004,0.004,0.004,0,0.08
2014-07-03,0.004,0.004,0.004,0.004,0,0.08
2014-07-04,0.004,0.004,0.004,0.004,0,0.08
2014-07-07,0.004,0.004,0.004,0.004,0,0.08
2014-07-08,0.004,0.004,0.004,0.004,0,0.08
2014-07-09,0.004,0.004,0.004,0.004,0,0.08
2014-07-10,0.004,0.004,0.004,0.004,0,0.08
2014-07-11,0.004,0.004,0.004,0.004,0,0.08
2014-07-14,0.004,0.004,0.004,0.004,0,0.08
2014-07-15,0.004,0.004,0.004,0.004,0,0.08
2014-07-16,0.004,0.004,0.004,0.004,0,0.08
2014-07-17,0.004,0.004,0.004,0.004,0,0.08
2014-07-18,0.004,0.004,0.004,0.004,0,0.08
2014-07-21,0.004,0.004,0.004,0.004,0,0.08
2014-07-22,0.004,0.004,0.004,0.004,0,0.08
2014-07-23,0.004,0.004,0.004,0.004,0,0.08
2014-07-24,0.004,0.004,0.004,0.004,0,0.08
2014-07-25,0.004,0.004,0.004,0.004,0,0.08
2014-07-28,0.004,0.004,0.004,0.004,0,0.08
2014-07-29,0.004,0.004,0.004,0.004,0,0.08
2014-07-30,0.004,0.004,0.004,0.004,0,0.08
2014-07-31,0.004,0.004,0.004,0.004,0,0.08
2014-08-01,0.004,0.004,0.004,0.004,0,0.08
2014-08-04,0.004,0.004,0.004,0.004,0,0.08
2014-08-05,0.004,0.004,0.004,0.004,0,0.08
2014-08-06,0.004,0.004,0.004,0.004,0,0.08
2014-08-07,0.004,0.004,0.004,0.004,0,0.08
2014-08-08,0.004,0.004,0.004,0.004,0,0.08
2014-08-11,0.004,0.004,0.004,0.004,0,0.08
2014-08-12,0.004,0.004,0.004,0.004,0,0.08
2014-08-13,0.004,0.004,0.004,0.004,0,0.08
2014-08-14,0.004,0.004,0.004,0.004,0,0.08
2014-08-15,0.004,0.004,0.004,0.004,0,0.08
2014-08-18,0.004,0.004,0.004,0.004,0,0.08
2014-08-19,0.004,0.004,0.004,0.004,0,0.08
2014-08-20,0.004,0.004,0.004,0.004,0,0.08
2014-08-21,0.004,0.004,0.004,0.004,0,0.08
2014-08-22,0.004,0.004,0.004,0.004,0,0.08
2014-08-25,0.004,0.004,0.004,0.004,0,0.08
2014-08-26,0.004,0.004,0.004,0.004,0,0.08
2014-08-27,0.004,0.004,0.004,0.004,0,0.08
2014-08-28,0.004,0.004,0.004,0.004,0,0.08
2014-08-29,0.004,0.004,0.004,0.004,0,0.08
2014-09-01,0.004,0.004,0.004,0.004,0,0.08
2014-09-02,0.004,0.004,0.004,0.004,0,0.08
2014-09-03,0.004,0.004,0.004,0.004,0,0.08
2014-09-04,0.004,0.004,0.004,0.004,0,0.08
2014-09-05,0.004,0.004,0.004,0.004,0,0.08
2014-09-08,0.004,0.004,0.004,0.004,0,0.08
2014-09-09,0.004,0.004,0.004,0.004,0,0.08
2014-09-10,0.004,0.004,0.004,0.004,0,0.08
2014-09-11,0.004,0.004,0.004,0.004,0,0.08
2014-09-12,0.004,0.004,0.004,0.004,0,0.08
2014-09-15,0.004,0.004,0.004,0.004,0,0.08
2014-09-16,0.004,0.004,0.004,0.004,0,0.08
2014-09-17,0.004,0.004,0.004,0.004,0,0.08
2014-09-18,0.004,0.004,0.004,0.004,0,0.08
2014-09-19,0.004,0.004,0.004,0.004,0,0.08
2014-09-22,0.004,0.004,0.004,0.004,0,0.08
2014-09-23,0.004,0.004,0.004,0.004,0,0.08
2014-09-24,0.004,0.004,0.004,0.004,0,0.08
2014-09-25,0.004,0.004,0.004,0.004,0,0.08
2014-09-26,0.004,0.004,0.004,0.004,0,0.08
2014-09-29,0.004,0.004,0.004,0.004,0,0.08
2014-09-30,0.004,0.004,0.004,0.004,0,0.08
2014-10-01,0.004,0.004,0.004,0.004,0,0.08
2014-10-02,0.004,0.004,0.004,0.004,0,0.08
2014-10-03,0.004,0.004,0.004,0.004,0,0.08
2014-10-06,0.004,0.004,0.004,0.004,0,0.08
2014-10-07,0.004,0.004,0.004,0.004,0,0.08
2014-10-08,0.004,0.004,0.004,0.004,0,0.08
2014-10-09,0.004,0.004,0.004,0.004,0,0.08
2014-10-10,0.004,0.004,0.004,0.004,0,0.08
2014-10-13,0.004,0.004,0.004,0.004,0,0.08
2014-10-14,0.004,0.004,0.004,0.004,0,0.08
2014-10-15,0.004,0.004,0.004,0.004,0,0.08
2014-10-16,0.004,0.004,0.004,0.004,0,0.08
2014-10-17,0.004,0.004,0.004,0.004,0,0.08
2014-10-20,0.004,0.004,0.004,0.004,0,0.08
2014-10-21,0.004,0.004,0.004,0.004,0,0.08
2014-10-22,0.004,0.004,0.004,0.004,0,0.08
2014-10-23,0.004,0.004,0.004,0.004,0,0.08
2014-10-24,0.004,0.004,0.004,0.004,0,0.08
2014-10-27,0.004,0.004,0.004,0.004,0,0.08
2014-10-28,0.004,0.004,0.004,0.004,0,0.08
2014-10-29,0.004,0.004,0.004,0.004,0,0.08
2014-10-30,0.004,0.004,0.004,0.004,0,0.08
2014-10-31,0.004,0.004,0.004,0.004,0,0.08
2014-11-03,0.004,0.004,0.004,0.004,0,0.08
2014-11-04,0.004,0.004,0.004,0.004,0,0.08
2014-11-05,0.004,0.004,0.004,0.004,0,0.08
2014-11-06,0.004,0.004,0.004,0.004,0,0.08
2014-11-07,0.004,0.004,0.004,0.004,0,0.08
2014-11-10,0.004,0.004,0.004,0.004,0,0.08
2014-11-11,0.004,0.004,0.004,0.004,0,0.08
2014-11-12,0.004,0.004,0.004,0.004,0,0.08
2014-11-13,0.004,0.004,0.004,0.004,0,0.08
2014-11-14,0.004,0.004,0.004,0.004,0,0.08
2014-11-17,0.004,0.004,0.004,0.004,0,0.08
2014-11-18,0.004,0.004,0.004,0.004,0,0.08
2014-11-19,0.004,0.004,0.004,0.004,0,0.08
2014-11-20,0.004,0.004,0.004,0.004,0,0.08
2014-11-21,0.004,0.004,0.004,0.004,0,0.08
2014-11-24,0.004,0.004,0.004,0.004,0,0.08
2014-11-25,0.004,0.004,0.004,0.004,0,0.08
2014-11-26,0.004,0.004,0.004,0.004,0,0.08
2014-11-27,0.004,0.004,0.004,0.004,0,0.08
2014-11-28,0.004,0.004,0.004,0.004,0,0.08
2014-12-01,0.004,0.004,0.004,0.004,0,0.08
2014-12-02,0.004,0.004,0.004,0.004,0,0.08
2014-12-03,0.004,0.004,0.004,0.004,0,0.08
2014-12-04,0.004,0.004,0.004,0.004,0,0.08
2014-12-05,0.004,0.004,0.004,0.004,0,0.08
2014-12-08,0.004,0.004,0.004,0.004,0,0.08
2014-12-09,0.004,0.004,0.004,0.004,0,0.08
2014-12-10,0.004,0.004,0.004,0.004,0,0.08
2014-12-11,0.004,0.004,0.004,0.004,0,0.08
2014-12-12,0.004,0.004,0.004,0.004,0,0.08
2014-12-15,0.004,0.004,0.004,0.004,0,0.08
2014-12-16,0.004,0.004,0.004,0.004,0,0.08
2014-12-17,0.004,0.004,0.004,0.004,0,0.08
2014-12-18,0.004,0.004,0.004,0.004,0,0.08
2014-12-19,0.004,0.004,0.004,0.004,0,0.08
2014-12-22,0.004,0.004,0.004,0.004,0,0.08
2014-12-23,0.004,0.004,0.004,0.004,0,0.08
2014-12-24,0.004,0.004,0.004,0.004,0,0.08
2014-12-25,0.004,0.004,0.004,0.004,0,0.08
2014-12-26,0.004,0.004,0.004,0.004,0,0.08
2014-12-29,0.004,0.004,0.004,0.004,0,0.08
2014-12-30,0.004,0.004,0.004,0.004,0,0.08
2014-12-31,0.004,0.004,0.004,0.004,0,0.08
2015-01-01,0.004,0.004,0.004,0.004,0,0.08
2015-01-02,0.004,0.004,0.004,0.004,0,0.08
2015-01-05,0.004,0.004,0.004,0.004,0,0.08
2015-01-06,0.004,0.004,0.004,0.004,0,0.08
2015-01-07,0.004,0.004,0.004,0.004,0,0.08
2015-01-08,0.004,0.004,0.004,0.004,0,0.08
2015-01-09,0.004,0.004,0.004,0.004,0,0.08
2015-01-12,0.004,0.004,0.004,0.004,0,0.08
2015-01-13,0.004,0.004,0.004,0.004,0,0.08
2015-01-14,0.004,0.004,0.004,0.004,0,0.08
2015-01-15,0.004,0.004,0.004,0.004,0,0.08
2015-01-16,0.004,0.004,0.004,0.004,0,0.08
2015-01-19,0.004,0.004,0.004,0.004,0,0.08
2015-01-20,0.004,0.004,0.004,0.004,0,0.08
2015-01-21,0.004,0.004,0.004,0.004,0,0.08
2015-01-22,0.004,0.004,0.004,0.004,0,0.08
2015-01-23,0.004,0.004,0.004,0.004,0,0.08
2015-01-26,0.004,0.004,0.004,0.004,0,0.08
2015-01-27,0.004,0.004,0.004,0.004,0,0.08
2015-01-28,0.004,0.004,0.004,0.004,0,0.08
2015-01-29,0.004,0.004,0.004,0.004,0,0.08
2015-01-30,0.004,0.004,0.004,0.004,0,0.08
2015-02-02,0.004,0.004,0.004,0.004,0,0.08
2015-02-03,0.004,0.004,0.004,0.004,0,0.08
2015-02-04,0.004,0.004,0.004,0.004,0,0.08
2015-02-05,0.004,0.004,0.004,0.004,0,0.08
2015-02-06,0.004,0.004,0.004,0.004,0,0.08
2015-02-09,0.004,0.004,0.004,0.004,0,0.08
2015-02-10,0.004,0.004,0.004,0.004,0,0.08
2015-02-11,0.004,0.004,0.004,0.004,0,0.08
2015-02-12,0.004,0.004,0.004,0.004,0,0.08
2015-02-13,0.004,0.004,0.004,0.004,0,0.08
2015-02-16,0.004,0.004,0.004,0.004,0,0.08
2015-02-17,0.004,0.004,0.004,0.004,0,0.08
2015-02-18,0.004,0.004,0.004,0.004,0,0.08
2015-02-19,0.004,0.004,0.004,0.004,0,0.08
2015-02-20,0.004,0.004,0.004,0.004,0,0.08
2015-02-23,0.004,0.004,0.004,0.004,0,0.08
2015-02-24,0.004,0.004,0.004,0.004,0,0.08
2015-02-25,0.004,0.004,0.004,0.004,0,0.08
2015-02-26,0.004,0.004,0.004,0.004,0,0.08
2015-02-27,0.004,0.004,0.004,0.004,0,0.08
2015-03-02,0.004,0.004,0.004,0.004,0,0.08
2015-03-03,0.004,0.004,0.004,0.004,0,0.08
2015-03-04,0.004,0.004,0.004,0.004,0,0.08
2015-03-05,0.004,0.004,0.004,0.004,0,0.08
2015-03-06,0.004,0.004,0.004,0.004,0,0.08
2015-03-09,0.004,0.004,0.004,0.004,0,0.08
2015-03-10,0.004,0.004,0.004,0.004,0,0.08
2015-03-11,0.004,0.004,0.004,0.004,0,0.08
2015-03-12,0.004,0.004,0.004,0.004,0,0.08
2015-03-13,0.004,0.004,0.004,0.004,0,0.08
2015-03-16,0.004,0.004,0.004,0.004,0,0.08
2015-03-17,0.004,0.004,0.004,0.004,0,0.08
2015-03-18,0.004,0.004,0.004,0.004,0,0.08
2015-03-19,0.004,0.004,0.004,0.004,0,0.08
2015-03-20,0.004,0.004,0.004,0.004,0,0.08
2015-03-23,0.004,0.004,0.004,0.004,0,0.08
2015-03-24,0.004,0.004,0.004,0.004,0,0.08
2015-03-25,0.004,0.004,0.004,0.004,0,0.08
2015-03-26,0.004,0.004,0.004,0.004,0,0.08
2015-03-27,0.004,0.004,0.004,0.004,0,0.08
2015-03-30,0.004,0.004,0.004,0.004,0,0.08
2015-03-31,0.004,0.004,0.004,0.004,0,0.08
2015-04-01,0.004,0.004,0.004,0.004,0,0.08
2015-04-02,0.004,0.004,0.004,0.004,0,0.08
2015-04-03,0.004,0.004,0.004,0.004,0,0.08
2015-04-06,0.004,0.004,0.004,0.004,0,0.08
2015-04-07,0.004,0.004,0.004,0.004,0,0.08
2015-04-08,0.004,0.004,0.004,0.004,0,0.08
2015-04-09,0.004,0.004,0.004,0.004,0,0.08
2015-04-10,0.004,0.004,0.004,0.004,0,0.08
2015-04-13,0.004,0.004,0.004,0.004,0,0.08
2015-04-14,0.004,0.004,0.004,0.004,0,0.08
2015-04-15,0.004,0.004,0.004,0.004,0,0.08
2015-04-16,0.004,0.004,0.004,0.004,0,0.08
2015-04-17,0.004,0.004,0.004,0.004,0,0.08
2015-04-20,0.004,0.004,0.004,0.004,0,0.08
2015-04-21,0.004,0.004,0.004,0.004,0,0.08
2015-04-22,0.004,0.004,0.004,0.004,0,0.08
2015-04-23,0.004,0.004,0.004,0.004,0,0.08
2015-04-24,0.004,0.004,0.004,0.004,0,0.08
2015-04-27,0.004,0.004,0.004,0.004,0,0.08
2015-04-28,0.004,0.004,0.004,0.004,0,0.08
2015-04-29,0.004,0.004,0.004,0.004,0,0.08
2015-04-30,0.004,0.004,0.004,0.004,0,0.08
2015-05-01,0.004,0.004,0.004,0.004,0,0.08
2015-05-04,0.004,0.004,0.004,0.004,0,0.08
2015-05-05,0.004,0.004,0.004,0.004,0,0.08
2015-05-06,0.004,0.004,0.004,0.004,0,0.08
2015-05-07,0.004,0.004,0.004,0.004,0,0.08
2015-05-08,0.004,0.004,0.004,0.004,0,0.08
2015-05-11,0.004,0.004,0.004,0.004,0,0.08
2015-05-12,0.004,0.004,0.004,0.004,0,0.08
2015-05-13,0.004,0.004,0.004,0.004,0,0.08
2015-05-14,0.004,0.004,0.004,0.004,0,0.08
2015-05-15,0.004,0.004,0.004,0.004,0,0.08
2015-05-18,0.004,0.004,0.004,0.004,0,0.08
2015-05-19,0.004,0.004,0.004,0.004,0,0.08
2015-05-20,0.004,0.004,0.004,0.004,0,0.08
2015-05-21,0.004,0.004,0.004,0.004,0,0.08
2015-05-22,0.004,0.004,0.004,0.004,0,0.08
2015-05-25,0.004,0.004,0.004,0.004,0,0.08
2015-05-26,0.004,0.004,0.004,0.004,0,0.08
2015-05-27,0.004,0.004,0.004,0.004,0,0.08
2015-05-28,0.004,0.004,0.004,0.004,0,0.08
2015-05-29,0.004,0.004,0.004,0.004,0,0.08
2015-06-01,0.004,0.004,0.004,0.004,0,0.08
2015-06-02,0.004,0.006,0.004,0.005,720000,0.1
2015-06-03,0.005,0.005,0.005,0.005,120000,0.1
2015-06-04,0.005,0.005,0.005,0.005,56400,0.1
2015-06-05,0.006,0.006,0.005,0.005,100000,0.1
2015-06-08,0.005,0.005,0.005,0.005,0,0.1
2015-06-09,0.006,0.006,0.005,0.005,147600,0.1
2015-06-10,0.006,0.006,0.005,0.005,11900,0.1
2015-06-11,0.005,0.006,0.005,0.006,87600,0.12
2015-06-12,0.006,0.006,0.006,0.006,17500,0.12
2015-06-15,0.005,0.005,0.005,0.005,25000,0.1
2015-06-16,0.005,0.005,0.005,0.005,15000,0.1
2015-06-17,0.005,0.005,0.005,0.005,4900,0.1
2015-06-18,0.005,0.005,0.005,0.005,500,0.1
2015-06-19,0.005,0.005,0.005,0.005,0,0.1
2015-06-22,0.005,0.005,0.005,0.005,100000,0.1
2015-06-23,0.005,0.005,0.005,0.005,0,0.1
2015-06-24,0.005,0.005,0.005,0.005,126900,0.1
2015-06-25,0.006,0.006,0.006,0.006,85700,0.12
2015-06-26,0.005,0.005,0.005,0.005,1200,0.1
2015-06-29,0.005,0.005,0.005,0.005,125000,0.1
2015-06-30,0.005,0.005,0.005,0.005,0,0.1
2015-07-01,0.005,0.006,0.005,0.006,25500,0.12
2015-07-02,0.006,0.006,0.005,0.005,121200,0.1
2015-07-03,0.005,0.005,0.005,0.005,40000,0.1
2015-07-06,0.005,0.005,0.005,0.005,0,0.1
2015-07-07,0.005,0.005,0.005,0.005,0,0.1
2015-07-08,0.005,0.005,0.005,0.005,0,0.1
2015-07-09,0.004,0.005,0.004,0.005,413400,0.1
2015-07-10,0.005,0.005,0.005,0.005,0,0.1
2015-07-13,0.005,0.006,0.005,0.005,167500,0.1
2015-07-14,0.005,0.005,0.005,0.005,0,0.1
2015-07-15,0.005,0.005,0.004,0.005,250700,0.1
2015-07-16,0.005,0.005,0.005,0.005,0,0.1
2015-07-17,0.005,0.005,0.005,0.005,0,0.1
2015-07-20,0.006,0.006,0.006,0.006,25000,0.12
2015-07-21,0.006,0.006,0.006,0.006,50000,0.12
2015-07-22,0.006,0.006,0.005,0.005,329600,0.1
2015-07-23,0.005,0.005,0.005,0.005,0,0.1
2015-07-24,0.005,0.005,0.005,0.005,0,0.1
2015-07-27,0.006,0.006,0.006,0.006,50000,0.12
2015-07-28,0.006,0.006,0.006,0.006,50000,0.12
2015-07-29,0.005,0.005,0.005,0.005,82500,0.1
2015-07-30,0.005,0.005,0.005,0.005,0,0.1
2015-07-31,0.005,0.005,0.005,0.005,59000,0.1
2015-08-03,0.004,0.005,0.004,0.004,282000,0.08
2015-08-04,0.004,0.004,0.004,0.004,23900,0.08
2015-08-05,0.004,0.004,0.004,0.004,0,0.08
2015-08-06,0.004,0.004,0.004,0.004,0,0.08
2015-08-07,0.004,0.004,0.004,0.004,0,0.08
2015-08-10,0.004,0.004,0.004,0.004,0,0.08
2015-08-11,0.004,0.004,0.004,0.004,25000,0.08
2015-08-12,0.004,0.004,0.004,0.004,0,0.08
2015-08-13,0.004,0.004,0.004,0.004,0,0.08
2015-08-14,0.004,0.004,0.004,0.004,0,0.08
2015-08-17,0.005,0.005,0.005,0.005,6200,0.1
2015-08-18,0.005,0.005,0.005,0.005,0,0.1
2015-08-19,0.004,0.004,0.004,0.004,6000,0.08
2015-08-20,0.004,0.004,0.004,0.004,0,0.08
2015-08-24,0.004,0.004,0.004,0.004,0,0.08
2015-08-25,0.004,0.004,0.004,0.004,0,0.08
2015-08-26,0.004,0.004,0.004,0.004,0,0.08
2015-08-27,0.004,0.004,0.004,0.004,0,0.08
2015-08-28,0.004,0.004,0.004,0.004,0,0.08
2015-08-31,0.004,0.004,0.004,0.004,0,0.08
2015-09-01,0.004,0.004,0.004,0.004,0,0.08
2015-09-02,0.003,0.003,0.003,0.003,20000,0.06
2015-09-03,0.004,0.005,0.004,0.005,252700,0.1
2015-09-04,0.005,0.005,0.005,0.005,40000,0.1
2015-09-07,0.005,0.005,0.005,0.005,0,0.1
2015-09-08,0.005,0.005,0.005,0.005,0,0.1
2015-09-09,0.005,0.005,0.005,0.005,0,0.1
2015-09-10,0.005,0.005,0.005,0.005,41700,0.1
2015-09-11,0.005,0.005,0.005,0.005,0,0.1
2015-09-14,0.005,0.005,0.005,0.005,48200,0.1
2015-09-15,0.005,0.005,0.004,0.005,70000,0.1
2015-09-16,0.005,0.005,0.005,0.005,27500,0.1
2015-09-17,0.006,0.006,0.005,0.006,261000,0.12
2015-09-18,0.006,0.006,0.006,0.006,0,0.12
2015-09-21,0.006,0.006,0.006,0.006,125000,0.12
2015-09-22,0.006,0.006,0.006,0.006,99000,0.12
2015-09-23,0.006,0.006,0.006,0.006,0,0.12
2015-09-24,0.006,0.006,0.006,0.006,10000,0.12
2015-09-25,0.006,0.006999999999999999,0.006,0.006999999999999999,190000,0.14
2015-09-28,0.006999999999999999,0.006999999999999999,0.006,0.006999999999999999,205000,0.14
2015-09-29,0.006,0.006,0.006,0.006,5000,0.12
2015-09-30,0.006,0.006,0.006,0.006,0,0.12
2015-10-01,0.006,0.006,0.006,0.006,85000,0.12
2015-10-02,0.006,0.006,0.006,0.006,35000,0.12
2015-10-05,0.006,0.006,0.006,0.006,0,0.12
2015-10-06,0.006,0.006,0.006,0.006,0,0.12
2015-10-07,0.006999999999999999,0.006999999999999999,0.006,0.006,372200,0.12
2015-10-08,0.006999999999999999,0.006999999999999999,0.006,0.006999999999999999,291600,0.14
2015-10-09,0.006999999999999999,0.006999999999999999,0.006999999999999999,0.006999999999999999,769600,0.14
2015-10-12,0.006999999999999999,0.006999999999999999,0.006999999999999999,0.006999999999999999,297800,0.14
2015-10-13,0.008,0.008,0.008,0.008,372700,0.16
2015-10-14,0.008,0.008,0.008,0.008,288700,0.16
2015-10-15,0.008,0.009000000000000001,0.008,0.009000000000000001,1279500,0.18
2015-10-16,0.009000000000000001,0.009000000000000001,0.009000000000000001,0.009000000000000001,30200,0.18
2015-10-19,0.009000000000000001,0.009000000000000001,0.009000000000000001,0.009000000000000001,25700,0.18
2015-10-20,0.009000000000000001,0.009000000000000001,0.008,0.008,302500,0.16
2015-10-21,0.008,0.008,0.008,0.008,55000,0.16
2015-10-22,0.008,0.008,0.008,0.008,56600,0.16
2015-10-23,0.009000000000000001,0.009000000000000001,0.009000000000000001,0.009000000000000001,244500,0.18
2015-10-26,0.009000000000000001,0.009000000000000001,0.009000000000000001,0.009000000000000001,161900,0.18
2015-10-27,0.009000000000000001,0.009000000000000001,0.009000000000000001,0.009000000000000001,122500,0.18
2015-10-28,0.009000000000000001,0.009000000000000001,0.009000000000000001,0.009000000000000001,208300,0.18
2015-10-29,0.009000000000000001,0.009000000000000001,0.009000000000000001,0.009000000000000001,403800,0.18
2015-10-30,0.009000000000000001,0.01,0.009000000000000001,0.009000000000000001,420400,0.18
2015-11-02,0.01,0.01,0.01,0.01,289900,0.2
2015-11-03,0.01,0.01,0.01,0.01,126200,0.2
2015-11-04,0.01,0.01,0.009000000000000001,0.009000000000000001,237500,0.18
2015-11-05,0.009000000000000001,0.009000000000000001,0.009000000000000001,0.009000000000000001,0,0.18
2015-11-06,0.01,0.01,0.01,0.01,679300,0.2
2015-11-09,0.009000000000000001,0.009000000000000001,0.009000000000000001,0.009000000000000001,50000,0.18
2015-11-10,0.009000000000000001,0.01,0.009000000000000001,0.009000000000000001,636100,0.18
2015-11-11,0.009000000000000001,0.009000000000000001,0.009000000000000001,0.009000000000000001,121500,0.18
2015-11-12,0.01,0.01,0.009000000000000001,0.009000000000000001,64700,0.18
2015-11-13,0.01,0.01,0.01,0.01,75000,0.2
2015-11-16,0.009000000000000001,0.009000000000000001,0.009000000000000001,0.009000000000000001,245600,0.18
2015-11-17,0.01,0.01,0.009000000000000001,0.009000000000000001,81400,0.18
2015-11-18,0.009000000000000001,0.009000000000000001,0.009000000000000001,0.009000000000000001,143000,0.18
2015-11-19,0.009000000000000001,0.009000000000000001,0.009000000000000001,0.009000000000000001,195000,0.18
2015-11-20,0.009000000000000001,0.009000000000000001,0.009000000000000001,0.009000000000000001,65100,0.18
2015-11-23,0.009000000000000001,0.009000000000000001,0.009000000000000001,0.009000000000000001,0,0.18
2015-11-24,0.009000000000000001,0.009000000000000001,0.009000000000000001,0.009000000000000001,0,0.18
2015-11-25,0.018000000000000002,0.019,0.012,0.013000000000000001,5912100,0.26
2015-11-26,0.012,0.012,0.01,0.01,1152000,0.2
2015-11-27,0.01,0.01,0.009000000000000001,0.009000000000000001,1253300,0.18
2015-11-30,0.009000000000000001,0.009000000000000001,0.008,0.008,381000,0.16
2015-12-01,0.008,0.008,0.006999999999999999,0.006999999999999999,307000,0.14
2015-12-02,0.008,0.009000000000000001,0.008,0.008,270000,0.16
2015-12-03,0.009000000000000001,0.01,0.009000000000000001,0.009000000000000001,630700,0.18
2015-12-04,0.008,0.009000000000000001,0.008,0.009000000000000001,341700,0.18
2015-12-07,0.009000000000000001,0.009000000000000001,0.008,0.008,79100,0.16
2015-12-08,0.008,0.008,0.008,0.008,90000,0.16
2015-12-09,0.008,0.008,0.008,0.008,231600,0.16
2015-12-10,0.008,0.008,0.008,0.008,62500,0.16
2015-12-11,0.008,0.008,0.008,0.008,45100,0.16
2015-12-14,0.008,0.008,0.006999999999999999,0.006999999999999999,58400,0.14
2015-12-15,0.008,0.008,0.008,0.008,47500,0.16
2015-12-16,0.008,0.008,0.008,0.008,28000,0.16
2015-12-17,0.008,0.008,0.008,0.008,104900,0.16
2015-12-18,0.006999999999999999,0.006999999999999999,0.006999999999999999,0.006999999999999999,6000,0.14
2015-12-21,0.006999999999999999,0.006999999999999999,0.006999999999999999,0.006999999999999999,0,0.14
2015-12-22,0.006999999999999999,0.006999999999999999,0.006999999999999999,0.006999999999999999,0,0.14
2015-12-23,0.008,0.008,0.008,0.008,25000,0.16
2015-12-24,0.006999999999999999,0.006999999999999999,0.006999999999999999,0.006999999999999999,6000,0.14
2015-12-25,0.006999999999999999,0.006999999999999999,0.006999999999999999,0.006999999999999999,0,0.14
2015-12-28,0.006999999999999999,0.006999999999999999,0.006999999999999999,0.006999999999999999,0,0.14
2015-12-29,0.006999999999999999,0.006999999999999999,0.006,0.006,82200,0.12
2015-12-30,0.006,0.006,0.006,0.006,0,0.12
2015-12-31,0.006,0.006,0.006,0.006,112500,0.12
2016-01-01,0.006,0.006,0.006,0.006,0,0.12
2016-01-04,0.006999999999999999,0.006999999999999999,0.006999999999999999,0.006999999999999999,194500,0.14
2016-01-05,0.006999999999999999,0.006999999999999999,0.006999999999999999,0.006999999999999999,38500,0.14
2016-01-06,0.006999999999999999,0.006999999999999999,0.006999999999999999,0.006999999999999999,30200,0.14
2016-01-07,0.008,0.008,0.008,0.008,156200,0.16
2016-01-08,0.008,0.008,0.008,0.008,155900,0.16
2016-01-11,0.008,0.008,0.008,0.008,0,0.16
2016-01-12,0.008,0.008,0.008,0.008,0,0.16
2016-01-13,0.008,0.008,0.008,0.008,50000,0.16
2016-01-14,0.006999999999999999,0.006999999999999999,0.006999999999999999,0.006999999999999999,64200,0.14
2016-01-15,0.006999999999999999,0.006999999999999999,0.006999999999999999,0.006999999999999999,289200,0.14
2016-01-18,0.006999999999999999,0.006999999999999999,0.006999999999999999,0.006999999999999999,50000,0.14
2016-01-19,0.006999999999999999,0.006999999999999999,0.006,0.006,18300,0.12
2016-01-20,0.006,0.006,0.006,0.006,0,0.12
2016-01-21,0.006,0.006,0.006,0.006,0,0.12
2016-01-22,0.006999999999999999,0.006999999999999999,0.006999999999999999,0.006999999999999999,29100,0.14
2016-01-25,0.006999999999999999,0.006999999999999999,0.006999999999999999,0.006999999999999999,20000,0.14
2016-01-26,0.006999999999999999,0.006999999999999999,0.006999999999999999,0.006999999999999999,0,0.14
2016-01-27,0.006999999999999999,0.006999999999999999,0.006999999999999999,0.006999999999999999,300,0.14
2016-01-28,0.006999999999999999,0.006999999999999999,0.006999999999999999,0.006999999999999999,0,0.14
2016-01-29,0.006,0.006,0.006,0.006,17200,0.12
2016-02-01,0.006999999999999999,0.006999999999999999,0.006999999999999999,0.006999999999999999,75000,0.14
2016-02-02,0.006,0.006,0.006,0.006,125000,0.12
2016-02-03,0.006,0.006,0.006,0.006,50000,0.12
2016-02-04,0.006999999999999999,0.006999999999999999,0.006,0.006,44200,0.12
2016-02-05,0.006,0.006999999999999999,0.006,0.006999999999999999,135000,0.14
2016-02-08,0.006999999999999999,0.008,0.006999999999999999,0.008,281400,0.16
2016-02-09,0.008,0.008,0.006999999999999999,0.006999999999999999,318200,0.14
2016-02-10,0.006999999999999999,0.006999999999999999,0.006,0.006,258700,0.12
2016-02-11,0.006999999999999999,0.006999999999999999,0.006999999999999999,0.006999999999999999,30000,0.14
2016-02-12,0.008,0.008,0.006999999999999999,0.006999999999999999,56200,0.14
2016-02-15,0.006999999999999999,0.008,0.006999999999999999,0.008,53600,0.16
2016-02-16,0.008,0.008,0.006999999999999999,0.006999999999999999,21100,0.14
2016-02-17,0.006,0.006,0.006,0.006,87500,0.12
2016-02-18,0.006,0.006,0.006,0.006,33500,0.12
2016-02-19,0.006,0.006,0.006,0.006,105800,0.12
2016-02-22,0.006999999999999999,0.006999999999999999,0.006999999999999999,0.006999999999999999,40700,0.14
2016-02-23,0.006999999999999999,0.006999999999999999,0.006999999999999999,0.006999999999999999,108400,0.14
2016-02-24,0.006,0.006999999999999999,0.006,0.006999999999999999,137500,0.14
2016-02-25,0.006999999999999999,0.006999999999999999,0.006999999999999999,0.006999999999999999,0,0.14
2016-02-26,0.006999999999999999,0.006999999999999999,0.006999999999999999,0.006999999999999999,0,0.14
2016-02-29,0.006,0.006,0.006,0.006,10000,0.12
2016-03-01,0.006,0.006,0.006,0.006,0,0.12
2016-03-02,0.006999999999999999,0.006999999999999999,0.006999999999999999,0.006999999999999999,120000,0.14
2016-03-03,0.006999999999999999,0.006999999999999999,0.006999999999999999,0.006999999999999999,0,0.14
2016-03-04,0.006999999999999999,0.006999999999999999,0.006999999999999999,0.006999999999999999,0,0.14
2016-03-07,0.006999999999999999,0.006999999999999999,0.006999999999999999,0.006999999999999999,19300,0.14
2016-03-08,0.006999999999999999,0.008,0.006999999999999999,0.008,100000,0.16
2016-03-09,0.008,0.008,0.008,0.008,53100,0.16
2016-03-10,0.006999999999999999,0.006999999999999999,0.006999999999999999,0.006999999999999999,199300,0.14
2016-03-11,0.008,0.009000000000000001,0.008,0.009000000000000001,289000,0.18
2016-03-14,0.009000000000000001,0.009000000000000001,0.006999999999999999,0.006999999999999999,63200,0.14
2016-03-15,0.006999999999999999,0.008,0.006999999999999999,0.006999999999999999,366000,0.14
2016-03-16,0.008,0.008,0.008,0.008,100000,0.16
2016-03-17,0.008,0.008,0.008,0.008,34700,0.16
2016-03-18,0.006999999999999999,0.006999999999999999,0.006999999999999999,0.006999999999999999,148900,0.14
2016-03-21,0.008,0.008,0.006999999999999999,0.006999999999999999,149800,0.14
2016-03-22,0.006999999999999999,0.006999999999999999,0.006999999999999999,0.006999999999999999,155000,0.14
2016-03-23,0.006999999999999999,0.006999999999999999,0.006999999999999999,0.006999999999999999,50000,0.14
2016-03-24,0.006999999999999999,0.006999999999999999,0.006999999999999999,0.006999999999999999,0,0.14
2016-03-25,0.006999999999999999,0.006999999999999999,0.006999999999999999,0.006999999999999999,0,0.14
2016-03-28,0.006999999999999999,0.006999999999999999,0.006999999999999999,0.006999999999999999,0,0.14
2016-03-29,0.006999999999999999,0.006999999999999999,0.006999999999999999,0.006999999999999999,0,0.14
2016-03-30,0.006999999999999999,0.006999999999999999,0.006999999999999999,0.006999999999999999,0,0.14
2016-03-31,0.006999999999999999,0.006999999999999999,0.006999999999999999,0.006999999999999999,0,0.14
2016-04-01,0.006,0.006,0.006,0.006,37500,0.12
2016-04-04,0.006,0.006,0.006,0.006,0,0.12
2016-04-05,0.006999999999999999,0.006999999999999999,0.006,0.006,176600,0.12
2016-04-06,0.006999999999999999,0.006999999999999999,0.006999999999999999,0.006999999999999999,193000,0.14
2016-04-07,0.006999999999999999,0.006999999999999999,0.006999999999999999,0.006999999999999999,91400,0.14
2016-04-08,0.006999999999999999,0.006999999999999999,0.006999999999999999,0.006999999999999999,0,0.14
2016-04-11,0.006999999999999999,0.006999999999999999,0.006999999999999999,0.006999999999999999,3700,0.14
2016-04-12,0.006,0.006,0.006,0.006,70000,0.12
2016-04-13,0.006,0.006,0.006,0.006,0,0.12
2016-04-14,0.006,0.006,0.006,0.006,0,0.12
2016-04-15,0.006,0.006,0.006,0.006,1200,0.12
2016-04-18,0.006999999999999999,0.006999999999999999,0.006999999999999999,0.006999999999999999,65000,0.14
2016-04-19,0.006999999999999999,0.006999999999999999,0.006999999999999999,0.006999999999999999,110000,0.14
2016-04-20,0.006999999999999999,0.006999999999999999,0.006999999999999999,0.006999999999999999,0,0.14
2016-04-21,0.006999999999999999,0.006999999999999999,0.006999999999999999,0.006999999999999999,0,0.14
2016-04-22,0.006999999999999999,0.006999999999999999,0.006999999999999999,0.006999999999999999,4000,0.14
2016-04-25,0.006999999999999999,0.006999999999999999,0.006999999999999999,0.006999999999999999,0,0.14
2016-04-26,0.006999999999999999,0.006999999999999999,0.006999999999999999,0.006999999999999999,0,0.14
2016-04-27,0.006999999999999999,0.006999999999999999,0.006999999999999999,0.006999999999999999,0,0.14
2016-04-28,0.006999999999999999,0.006999999999999999,0.006999999999999999,0.006999999999999999,14200,0.14
2016-04-29,0.12,0.13,0.12,0.12,253300,2.4
2016-05-02,0.12,0.12,0.12,0.12,50000,2.4
2016-05-03,0.12,0.12,0.12,0.12,0,2.4
2016-05-04,0.12,0.12,0.12,0.12,0,2.4
2016-05-05,0.1,0.12,0.08,0.12,176200,2.4
2016-05-06,0.12,0.12,0.12,0.12,0,2.4
2016-05-09,0.12,0.12,0.12,0.12,0,2.4
2016-05-10,0.12,0.12,0.12,0.12,107900,2.4
2016-05-11,0.14,0.14,0.1,0.14,184600,2.8
2016-05-12,0.14,0.14,0.14,0.14,0,2.8
2016-05-13,0.14,0.14,0.14,0.14,0,2.8
2016-05-16,0.14,0.14,0.14,0.14,0,2.8
2016-05-17,0.14,0.14,0.14,0.14,0,2.8
2016-05-18,0.12,0.12,0.12,0.12,18100,2.4
2016-05-19,0.12,0.12,0.12,0.12,75000,2.4
2016-05-20,0.12,0.12,0.12,0.12,0,2.4
2016-05-23,0.12,0.12,0.12,0.12,0,2.4
2016-05-24,0.12,0.12,0.12,0.12,0,0.12
2016-05-25,0.12,0.12,0.12,0.12,0,0.12
2016-05-26,0.12,0.12,0.12,0.12,0,0.12
2016-05-27,0.12,0.12,0.12,0.12,0,0.12
2016-05-30,0.12,0.12,0.12,0.12,0,0.12
2016-05-31,0.12,0.12,0.12,0.12,0,0.12
2016-06-01,0.12,0.12,0.12,0.12,0,0.12
2016-06-02,0.12,0.12,0.12,0.12,0,0.12
2016-06-03,0.12,0.12,0.12,0.12,0,0.12
2016-06-06,0.12,0.12,0.12,0.12,0,0.12
2016-06-07,0.12,0.12,0.12,0.12,0,0.12
2016-06-08,0.12,0.12,0.12,0.12,0,0.12
2016-06-09,0.12,0.12,0.12,0.12,0,0.12
2016-06-10,0.12,0.12,0.12,0.12,0,0.12
2016-06-13,0.12,0.12,0.12,0.12,0,0.12
2016-06-14,0.12,0.12,0.12,0.12,0,0.12
2016-06-15,0.12,0.12,0.12,0.12,0,0.12
2016-06-16,0.12,0.12,0.12,0.12,0,0.12
2016-06-17,0.12,0.12,0.12,0.12,0,0.12
2016-06-20,0.12,0.12,0.12,0.12,0,0.12
2016-06-21,0.12,0.12,0.12,0.12,0,0.12
2016-06-22,0.12,0.12,0.12,0.12,0,0.12
2016-06-23,0.12,0.12,0.12,0.12,0,0.12
2016-06-24,0.12,0.12,0.12,0.12,0,0.12
2016-06-27,0.12,0.12,0.12,0.12,0,0.12
2016-06-28,0.12,0.12,0.12,0.12,0,0.12
2016-06-29,0.12,0.12,0.12,0.12,0,0.12
2016-06-30,0.12,0.12,0.12,0.12,0,0.12
2016-07-01,0.12,0.12,0.12,0.12,0,0.12
2016-07-04,0.12,0.12,0.12,0.12,0,0.12
2016-07-05,0.12,0.12,0.12,0.12,0,0.12
2016-07-06,0.12,0.12,0.12,0.12,0,0.12
2016-07-07,0.12,0.12,0.12,0.12,0,0.12
2016-07-08,0.12,0.12,0.12,0.12,0,0.12
2016-07-11,0.12,0.12,0.12,0.12,0,0.12
2016-07-12,0.12,0.12,0.12,0.12,0,0.12
2016-07-13,0.12,0.12,0.12,0.12,0,0.12
2016-07-14,0.12,0.12,0.12,0.12,0,0.12
2016-07-15,0.12,0.12,0.12,0.12,0,0.12
2016-07-18,0.12,0.12,0.12,0.12,0,0.12
2016-07-19,0.12,0.12,0.12,0.12,0,0.12
2016-07-20,0.11,0.12,0.1,0.11,7235300,0.11
2016-07-21,0.125,0.145,0.125,0.125,7638300,0.125
2016-07-22,0.13,0.13,0.12,0.12,1555200,0.12
2016-07-25,0.125,0.13,0.12,0.12,937500,0.12
2016-07-26,0.12,0.135,0.11,0.115,3561600,0.115
2016-07-27,0.115,0.115,0.105,0.11,476100,0.11
2016-07-28,0.105,0.105,0.096,0.102,1570500,0.102
2016-07-29,0.105,0.105,0.099,0.1,778300,0.1
2016-08-01,0.1,0.105,0.098,0.1,1014600,0.1
2016-08-02,0.099,0.099,0.092,0.094,767400,0.094
2016-08-03,0.092,0.09300000000000001,0.09,0.091,1146700,0.091
2016-08-04,0.091,0.095,0.09,0.09,929000,0.09
2016-08-05,0.09,0.094,0.09,0.094,371300,0.094
2016-08-08,0.091,0.092,0.09,0.092,1076800,0.092
2016-08-09,0.09,0.09,0.08,0.08,2919600,0.08
2016-08-10,0.08199999999999999,0.086,0.081,0.084,3387500,0.084
2016-08-11,0.087,0.087,0.084,0.084,914200,0.084
2016-08-12,0.086,0.08800000000000001,0.085,0.08800000000000001,491000,0.08800000000000001
2016-08-15,0.08900000000000001,0.08900000000000001,0.086,0.086,373100,0.086
2016-08-16,0.08199999999999999,0.08199999999999999,0.079,0.079,231800,0.079
2016-08-17,0.08,0.085,0.08,0.085,727300,0.085
2016-08-18,0.085,0.085,0.08,0.081,112000,0.081
2016-08-19,0.085,0.085,0.081,0.081,30000,0.081
2016-08-22,0.085,0.085,0.084,0.085,94100,0.085
2016-08-23,0.084,0.084,0.08199999999999999,0.08199999999999999,434300,0.08199999999999999
2016-08-24,0.081,0.081,0.08,0.08,135700,0.08
2016-08-25,0.08,0.08,0.078,0.08,254100,0.08
2016-08-26,0.08,0.08,0.08,0.08,0,0.08
2016-08-29,0.078,0.078,0.07,0.076,358900,0.076
2016-08-30,0.075,0.075,0.073,0.075,1561500,0.075
2016-08-31,0.073,0.073,0.07,0.07,1372200,0.07
2016-09-01,0.069,0.07,0.069,0.07,10000,0.07
2016-09-02,0.067,0.069,0.067,0.069,300800,0.069
2016-09-05,0.068,0.07,0.067,0.07,881700,0.07
2016-09-06,0.07,0.07,0.07,0.07,170400,0.07
2016-09-07,0.071,0.071,0.068,0.069,1306600,0.069
2016-09-08,0.068,0.068,0.068,0.068,579500,0.068
2016-09-09,0.07,0.07,0.068,0.068,323000,0.068
2016-09-12,0.067,0.067,0.059000000000000004,0.065,2321500,0.065
2016-09-13,0.065,0.065,0.064,0.065,616200,0.065
2016-09-14,0.065,0.065,0.065,0.065,100000,0.065
2016-09-15,0.065,0.066,0.065,0.066,705800,0.066
2016-09-16,0.065,0.065,0.065,0.065,130400,0.065
2016-09-19,0.065,0.065,0.065,0.065,451800,0.065
2016-09-20,0.065,0.065,0.064,0.064,126800,0.064
2016-09-21,0.065,0.066,0.065,0.065,87200,0.065
2016-09-22,0.065,0.065,0.065,0.065,565100,0.065
2016-09-23,0.069,0.069,0.069,0.069,114100,0.069
2016-09-26,0.069,0.069,0.069,0.069,20000,0.069
2016-09-27,0.069,0.069,0.069,0.069,0,0.069
2016-09-28,0.066,0.066,0.065,0.065,457600,0.065
2016-09-29,0.065,0.065,0.065,0.065,125000,0.065
2016-09-30,0.065,0.065,0.065,0.065,0,0.065
2016-10-03,0.065,0.065,0.065,0.065,0,0.065
2016-10-04,0.064,0.067,0.064,0.067,646300,0.067
2016-10-05,0.067,0.067,0.067,0.067,50000,0.067
2016-10-06,0.069,0.073,0.069,0.073,435800,0.073
2016-10-07,0.075,0.076,0.075,0.076,444500,0.076
2016-10-10,0.078,0.078,0.07400000000000001,0.075,336400,0.075
2016-10-11,0.075,0.075,0.07400000000000001,0.07400000000000001,106000,0.07400000000000001
2016-10-12,0.076,0.08,0.076,0.08,414800,0.08
2016-10-13,0.078,0.079,0.078,0.079,202800,0.079
2016-10-14,0.08,0.08,0.079,0.08,959100,0.08
2016-10-17,0.078,0.078,0.078,0.078,81500,0.078
2016-10-18,0.08,0.08,0.08,0.08,49100,0.08
2016-10-19,0.078,0.08199999999999999,0.076,0.08199999999999999,137400,0.08199999999999999
2016-10-20,0.083,0.09,0.083,0.08800000000000001,193300,0.08800000000000001
2016-10-21,0.08800000000000001,0.08900000000000001,0.08800000000000001,0.08800000000000001,407500,0.08800000000000001
2016-10-24,0.08800000000000001,0.08800000000000001,0.08800000000000001,0.08800000000000001,95000,0.08800000000000001
2016-10-25,0.085,0.085,0.085,0.085,10000,0.085
2016-10-26,0.086,0.086,0.08199999999999999,0.08199999999999999,110000,0.08199999999999999
2016-10-27,0.076,0.079,0.076,0.079,119100,0.079
2016-10-28,0.076,0.076,0.076,0.076,95000,0.076
2016-10-31,0.076,0.077,0.076,0.077,13900,0.077
2016-11-01,0.077,0.077,0.077,0.077,0,0.077
2016-11-02,0.071,0.071,0.065,0.07,443400,0.07
2016-11-03,0.07,0.07,0.066,0.066,370300,0.066
2016-11-04,0.065,0.065,0.065,0.065,70000,0.065
2016-11-07,0.065,0.065,0.064,0.064,200000,0.064
2016-11-08,0.075,0.078,0.07,0.078,514000,0.078
2016-11-09,0.075,0.075,0.07200000000000001,0.07200000000000001,42500,0.07200000000000001
2016-11-10,0.07200000000000001,0.07200000000000001,0.07200000000000001,0.07200000000000001,6100,0.07200000000000001
2016-11-11,0.07200000000000001,0.078,0.07200000000000001,0.07200000000000001,307200,0.07200000000000001
2016-11-14,0.07200000000000001,0.07200000000000001,0.071,0.071,66800,0.071
2016-11-15,0.071,0.071,0.071,0.071,0,0.071
2016-11-16,0.07,0.07,0.069,0.069,204900,0.069
2016-11-17,0.069,0.07,0.068,0.068,31100,0.068
2016-11-18,0.068,0.068,0.067,0.067,6900,0.067
2016-11-21,0.071,0.07200000000000001,0.071,0.07200000000000001,9400,0.07200000000000001
2016-11-22,0.071,0.071,0.068,0.07,36300,0.07
2016-11-23,0.07,0.076,0.07,0.07,28500,0.07
2016-11-24,0.071,0.071,0.071,0.071,30000,0.071
2016-11-25,0.07400000000000001,0.07400000000000001,0.07,0.071,42400,0.071
2016-11-28,0.07,0.07,0.07,0.07,311900,0.07
2016-11-29,0.07,0.07,0.07,0.07,0,0.07
2016-11-30,0.07,0.071,0.07,0.07,63300,0.07
2016-12-01,0.07400000000000001,0.076,0.07400000000000001,0.07400000000000001,290800,0.07400000000000001
2016-12-02,0.07400000000000001,0.076,0.07400000000000001,0.075,276500,0.075
2016-12-05,0.078,0.083,0.078,0.08,605400,0.08
2016-12-06,0.08,0.08,0.08,0.08,0,0.08
2016-12-07,0.08,0.08,0.08,0.08,0,0.08
2016-12-08,0.073,0.073,0.073,0.073,23600,0.073
2016-12-09,0.075,0.075,0.071,0.071,262000,0.071
2016-12-12,0.07,0.07,0.068,0.07,334600,0.07
2016-12-13,0.068,0.068,0.064,0.064,103300,0.064
2016-12-14,0.064,0.064,0.053,0.064,209500,0.064
2016-12-15,0.064,0.064,0.064,0.064,0,0.064
2016-12-16,0.065,0.065,0.065,0.065,29800,0.065
2016-12-19,0.068,0.068,0.064,0.065,117000,0.065
2016-12-20,0.064,0.064,0.055999999999999994,0.06,407200,0.06
2016-12-21,0.062,0.062,0.055999999999999994,0.055999999999999994,250000,0.055999999999999994
2016-12-22,0.055999999999999994,0.055999999999999994,0.055999999999999994,0.055999999999999994,0,0.055999999999999994
2016-12-23,0.055999999999999994,0.055999999999999994,0.055999999999999994,0.055999999999999994,0,0.055999999999999994
2016-12-26,0.055999999999999994,0.055999999999999994,0.055999999999999994,0.055999999999999994,0,0.055999999999999994
2016-12-27,0.055999999999999994,0.055999999999999994,0.055999999999999994,0.055999999999999994,0,0.055999999999999994
2016-12-28,0.057999999999999996,0.057999999999999996,0.057,0.057,225000,0.057
2016-12-29,0.057,0.057,0.057,0.057,0,0.057
2016-12-30,0.061,0.061,0.061,0.061,98900,0.061
