Date,Open,High,Low,Close,Volume,Adj Close
2012-01-24,0.9973700000000001,0.9973700000000001,0.9498700000000001,0.9498700000000001,40000,0.79899
2012-01-25,0.9498700000000001,0.9498700000000001,0.9498700000000001,0.9498700000000001,33600,0.79899
2012-01-27,0.9498700000000001,0.9498700000000001,0.9498700000000001,0.9498700000000001,5200,0.79899
2012-01-30,0.9498700000000001,0.9973700000000001,0.9498700000000001,0.9973700000000001,2700,0.83895
2012-02-07,0.9498700000000001,0.9498700000000001,0.9498700000000001,0.9498700000000001,2100,0.79899
2012-02-13,0.90238,0.90238,0.90238,0.90238,31500,0.75905
2012-03-16,0.90238,0.90238,0.90238,0.90238,2900,0.75905
2012-03-21,0.8548899999999999,0.9593700000000001,0.8548899999999999,0.9593700000000001,65200,0.80698
2012-03-22,0.90238,0.9498700000000001,0.90238,0.9498700000000001,24200,0.79899
2012-03-26,0.9498700000000001,0.9498700000000001,0.9498700000000001,0.9498700000000001,45200,0.79899
2012-03-27,0.90238,0.92138,0.8833799999999999,0.92138,24800,0.77503
2012-03-30,0.90238,0.90238,0.90238,0.90238,8600,0.75905
2012-04-02,0.90238,0.9308799999999999,0.90238,0.9308799999999999,10400,0.7830199999999999
2012-04-03,0.90238,0.90238,0.90238,0.90238,40900,0.75905
2012-04-12,0.90238,0.90238,0.90238,0.90238,21000,0.75905
2012-04-13,0.90238,0.90238,0.90238,0.90238,2700,0.75905
2012-04-16,0.8738799999999999,0.90238,0.8643799999999999,0.90238,11100,0.75905
2012-04-17,0.8643799999999999,0.8643799999999999,0.8643799999999999,0.8643799999999999,2100,0.7270800000000001
2012-04-19,0.8738799999999999,0.8738799999999999,0.8738799999999999,0.8738799999999999,5200,0.73507
2012-04-20,0.8548899999999999,0.8548899999999999,0.8548899999999999,0.8548899999999999,5200,0.7191
2012-04-23,0.84539,0.84539,0.84539,0.84539,15700,0.71111
2012-04-26,0.82639,0.82639,0.82639,0.82639,2100,0.69513
2012-04-30,0.82639,0.82639,0.82639,0.82639,3100,0.69513
2012-05-01,0.81689,0.81689,0.81689,0.81689,2200,0.68713
2012-05-02,0.81689,0.81689,0.81689,0.81689,10800,0.68713
2012-05-04,0.8548899999999999,0.90238,0.8548899999999999,0.90238,4000,0.75905
2012-05-17,0.8786299999999999,0.8786299999999999,0.8786299999999999,0.8786299999999999,2100,0.73907
2012-05-21,0.81689,0.81689,0.81689,0.81689,7300,0.68713
2012-05-22,0.8216399999999999,0.8216399999999999,0.81689,0.81689,3400,0.68713
2012-05-24,0.81689,0.81689,0.8073899999999999,0.8073899999999999,12100,0.67914
2012-05-30,0.8073899999999999,0.8073899999999999,0.8073899999999999,0.8073899999999999,2100,0.67914
2012-06-01,0.83114,0.8786299999999999,0.83114,0.8786299999999999,12600,0.73907
2012-06-15,0.7694,0.8073899999999999,0.7599,0.7599,25200,0.6392
2012-06-18,0.8073899999999999,0.8073899999999999,0.8073899999999999,0.8073899999999999,6300,0.67914
2012-06-21,0.7789,0.79789,0.7789,0.79789,1600,0.67115
2012-06-26,0.79789,0.79789,0.79789,0.79789,3500,0.67115
2012-06-29,0.7599,0.79789,0.7599,0.79789,3100,0.67115
2012-07-17,0.7599,0.7599,0.7599,0.7599,24400,0.6392
2012-07-18,0.7599,0.7599,0.7599,0.7599,71300,0.6392
2012-07-30,0.7599,0.7599,0.7599,0.7599,3600,0.6392
2012-08-02,0.7599,0.7599,0.7599,0.7599,8400,0.6392
2012-08-03,0.7599,0.7599,0.7599,0.7599,8900,0.6392
2012-08-07,0.7789,0.7789,0.7124,0.7124,2100,0.59924
2012-08-10,0.7789,0.8073899999999999,0.7789,0.7789,23200,0.65518
2012-08-14,0.82639,0.82639,0.82639,0.82639,6300,0.69513
2012-08-15,0.7789,0.7789,0.7789,0.7789,5200,0.65518
2012-08-21,0.82639,0.82639,0.82639,0.82639,32900,0.69513
2012-08-22,0.81689,0.82639,0.81689,0.82639,7500,0.69513
2012-08-23,0.82639,0.82639,0.81689,0.81689,5200,0.68713
2012-08-24,0.8738799999999999,0.9118799999999999,0.8738799999999999,0.9118799999999999,10700,0.7670399999999999
2012-08-27,0.9498700000000001,0.9498700000000001,0.9498700000000001,0.9498700000000001,10500,0.79899
2012-08-28,0.9688700000000001,0.9688700000000001,0.9688700000000001,0.9688700000000001,15700,0.81497
2012-08-30,0.9308799999999999,0.9308799999999999,0.9308799999999999,0.9308799999999999,2500,0.79315
2012-08-31,0.92138,0.9308799999999999,0.92138,0.9308799999999999,49700,0.79315
2012-09-06,0.8833799999999999,0.8928799999999999,0.8833799999999999,0.8928799999999999,5200,0.76077
2012-09-07,0.8833799999999999,0.92138,0.8833799999999999,0.92138,63100,0.7850600000000001
2012-09-18,0.82639,0.82639,0.82639,0.82639,4700,0.70412
2012-09-26,0.83114,0.83114,0.83114,0.83114,4200,0.70817
2012-10-01,0.83114,0.83114,0.8073899999999999,0.8073899999999999,15700,0.68793
2012-10-02,0.81689,0.81689,0.81689,0.81689,10500,0.69603
2012-10-03,0.8073899999999999,0.8073899999999999,0.8073899999999999,0.8073899999999999,16800,0.68793
2012-10-05,0.81689,0.81689,0.8073899999999999,0.8073899999999999,21000,0.68793
2012-10-08,0.8073899999999999,0.8073899999999999,0.8073899999999999,0.8073899999999999,31500,0.68793
2012-10-09,0.79789,0.79789,0.79789,0.79789,2100,0.67984
2012-10-10,0.79789,0.79789,0.79789,0.79789,10500,0.67984
2012-10-11,0.8073899999999999,0.8073899999999999,0.7883899999999999,0.7883899999999999,20000,0.67174
2012-10-16,0.8073899999999999,0.8073899999999999,0.8073899999999999,0.8073899999999999,21000,0.68793
2012-10-18,0.8406399999999999,0.8548899999999999,0.8406399999999999,0.8548899999999999,78900,0.7284
2012-10-22,0.79789,0.79789,0.79789,0.79789,2100,0.67984
2012-10-25,0.8026399999999999,0.8026399999999999,0.79789,0.79789,16800,0.67984
2012-11-02,0.81689,0.81689,0.81689,0.81689,7300,0.69603
2012-11-13,0.81689,0.81689,0.81689,0.81689,9400,0.69603
2012-11-16,0.7883899999999999,0.7883899999999999,0.7883899999999999,0.7883899999999999,5200,0.67174
2012-11-29,0.8026399999999999,0.8026399999999999,0.79789,0.79789,19500,0.67984
2012-12-06,0.81214,0.81214,0.79789,0.79789,15500,0.67984
2012-12-07,0.79789,0.79789,0.7883899999999999,0.7883899999999999,7400,0.67174
2012-12-10,0.7789,0.7789,0.7789,0.7789,2500,0.66366
2012-12-11,0.8073899999999999,0.8073899999999999,0.8073899999999999,0.8073899999999999,3200,0.68793
2012-12-13,0.7789,0.7789,0.7599,0.7599,5300,0.64747
2012-12-17,0.7504,0.7504,0.7124,0.7124,22700,0.607
2012-12-21,0.8358899999999999,0.8358899999999999,0.8358899999999999,0.8358899999999999,10200,0.71221
2013-01-04,0.8358899999999999,0.8358899999999999,0.8358899999999999,0.8358899999999999,4200,0.71221
2013-01-09,0.8358899999999999,0.8358899999999999,0.8358899999999999,0.8358899999999999,23100,0.71221
2013-01-14,0.7599,0.7599,0.7599,0.7599,4500,0.64747
2013-01-22,0.7789,0.7789,0.7599,0.7599,5200,0.64747
2013-01-23,0.8073899999999999,0.8073899999999999,0.8073899999999999,0.8073899999999999,21600,0.68793
2013-02-01,0.81689,0.90238,0.81689,0.90238,63100,0.7688699999999999
2013-02-04,0.8548899999999999,0.8548899999999999,0.8358899999999999,0.8358899999999999,25700,0.71221
2013-02-05,0.8358899999999999,0.8358899999999999,0.8358899999999999,0.8358899999999999,5200,0.71221
2013-02-07,0.8216399999999999,0.83114,0.81689,0.83114,6300,0.70817
2013-02-08,0.8833799999999999,0.8833799999999999,0.8833799999999999,0.8833799999999999,500,0.75268
2013-02-11,0.8548899999999999,0.8738799999999999,0.8548899999999999,0.8738799999999999,36800,0.74458
2013-02-19,0.8548899999999999,0.8548899999999999,0.8548899999999999,0.8548899999999999,15700,0.7284
2013-03-08,0.84539,0.84539,0.84539,0.84539,2100,0.72031
2013-03-14,0.8548899999999999,0.8833799999999999,0.8548899999999999,0.8833799999999999,17700,0.75268
2013-03-15,0.8833799999999999,0.90238,0.8833799999999999,0.90238,34700,0.7688699999999999
2013-03-19,0.9973700000000001,0.9973700000000001,0.9973700000000001,0.9973700000000001,2100,0.8498
2013-03-20,1.02586,1.02586,1.02586,1.02586,31500,0.87408
2013-03-22,0.9973700000000001,0.9973700000000001,0.9973700000000001,0.9973700000000001,3600,0.8498
2013-03-27,0.9498700000000001,0.9498700000000001,0.94037,0.94037,6800,0.80124
2013-04-04,0.9593700000000001,0.9593700000000001,0.9593700000000001,0.9593700000000001,10500,0.81742
2013-04-05,0.9783700000000001,0.9783700000000001,0.9783700000000001,0.9783700000000001,10500,0.8336100000000001
2013-04-08,1.0448600000000001,1.0448600000000001,1.02586,1.02586,5200,0.87408
2013-04-09,0.98787,0.98787,0.9641200000000001,0.9641200000000001,23100,0.82147
2013-04-10,0.98787,0.98787,0.9688700000000001,0.9688700000000001,13600,0.82552
2013-04-12,0.9688700000000001,0.9783700000000001,0.9641200000000001,0.9783700000000001,8400,0.8336100000000001
2013-04-16,0.9641200000000001,0.9641200000000001,0.9641200000000001,0.9641200000000001,13600,0.82147
2013-04-18,0.9641200000000001,0.9641200000000001,0.9593700000000001,0.9593700000000001,10500,0.81742
2013-04-19,0.9593700000000001,0.9593700000000001,0.9593700000000001,0.9593700000000001,9700,0.81742
2013-04-26,0.9118799999999999,0.9498700000000001,0.9118799999999999,0.9498700000000001,9400,0.80933
2013-04-30,0.94037,0.9688700000000001,0.94037,0.9688700000000001,19400,0.82552
2013-05-01,0.9973700000000001,0.9973700000000001,0.9973700000000001,0.9973700000000001,2600,0.8498
2013-05-03,0.98787,0.98787,0.9688700000000001,0.9688700000000001,6300,0.82552
2013-05-06,0.9973700000000001,0.9973700000000001,0.9973700000000001,0.9973700000000001,4700,0.8498
2013-05-07,1.0448600000000001,1.0448600000000001,1.0448600000000001,1.0448600000000001,7300,0.8902700000000001
2013-05-08,1.0448600000000001,1.0448600000000001,1.0068700000000002,1.0068700000000002,4200,0.8579
2013-05-16,1.06386,1.06386,1.06386,1.06386,3100,0.90645
2013-05-21,1.0448600000000001,1.0448600000000001,1.03536,1.03536,21000,0.8821700000000001
2013-05-22,1.0448600000000001,1.06386,1.03061,1.05436,60900,0.89836
2013-05-24,1.0448600000000001,1.0448600000000001,1.03536,1.03536,2100,0.8821700000000001
2013-06-12,1.13985,1.13985,1.13985,1.13985,10500,0.9712
2013-06-13,1.08286,1.13985,1.08286,1.13985,23100,0.9712
2013-06-14,1.13985,1.18734,1.13985,1.18734,15900,1.01167
2013-06-17,1.18734,1.18734,1.18734,1.18734,1200,1.01167
2013-06-20,1.18734,1.18734,1.18734,1.18734,400,1.01167
2013-06-27,1.18734,1.18734,1.18734,1.18734,1600,1.01167
2013-06-28,1.18734,1.18734,1.18734,1.18734,1400,1.01167
2013-07-01,1.18734,1.18734,1.18734,1.18734,7300,1.01167
2013-07-03,1.18734,1.18734,1.18734,1.18734,5200,1.01167
2013-07-04,1.20634,1.20634,1.20634,1.20634,1000,1.02785
2013-07-05,1.25383,1.25383,1.25383,1.25383,1200,1.0683200000000002
2013-07-10,1.28233,1.31082,1.27283,1.31082,10300,1.1168799999999999
2013-07-11,1.33457,1.33457,1.32982,1.32982,4700,1.13306
2013-07-12,1.32982,1.32982,1.32982,1.32982,500,1.13306
2013-07-22,1.31082,1.31082,1.31082,1.31082,10500,1.1168799999999999
2013-07-24,1.3203200000000002,1.3203200000000002,1.3203200000000002,1.3203200000000002,4700,1.12497
2013-07-31,1.33457,1.33457,1.33457,1.33457,5700,1.13711
2013-08-02,1.40581,1.40581,1.40581,1.40581,5200,1.19781
2013-08-05,1.4248100000000001,1.4248100000000001,1.4248100000000001,1.4248100000000001,2100,1.214
2013-08-14,1.4248100000000001,1.4248100000000001,1.4248100000000001,1.4248100000000001,30000,1.214
2013-08-15,1.4248100000000001,1.4723,1.4248100000000001,1.4723,16700,1.2544600000000001
2013-08-16,1.5198,1.5198,1.4723,1.4723,17800,1.2544600000000001
2013-08-19,1.5198,1.5293,1.5198,1.5198,8800,1.29494
2013-08-20,1.5008,1.5008,1.4723,1.4818,24200,1.2625600000000001
2013-08-21,1.4818,1.5008,1.4818,1.5008,35800,1.27875
2013-08-22,1.5008,1.5008,1.4818,1.4818,30600,1.2625600000000001
2013-08-23,1.4818,1.4913,1.4818,1.4818,86800,1.2625600000000001
2013-08-26,1.44381,1.44381,1.4248100000000001,1.4248100000000001,17400,1.214
2013-08-27,1.4248100000000001,1.4723,1.4248100000000001,1.45331,67700,1.2382799999999998
2013-08-28,1.4723,1.4818,1.4723,1.4818,13300,1.2625600000000001
2013-08-29,1.4723,1.4723,1.4723,1.4723,5200,1.2544600000000001
2013-08-30,1.4723,1.4723,1.44381,1.44381,14900,1.23019
2013-09-02,1.43431,1.44381,1.43431,1.44381,100900,1.23019
2013-09-03,1.45331,1.4628,1.44381,1.4628,15900,1.24637
2013-09-04,1.45331,1.4818,1.45331,1.4723,158700,1.2544600000000001
2013-09-05,1.46755,1.46755,1.45805,1.45805,38900,1.24232
2013-09-06,1.45331,1.46755,1.44381,1.4628,44400,1.24637
2013-09-09,1.37732,1.40581,1.37732,1.38681,48300,1.2551700000000001
2013-09-10,1.38681,1.38681,1.36782,1.36782,7800,1.2379799999999999
2013-09-11,1.38681,1.40581,1.38681,1.38681,25000,1.2551700000000001
2013-09-12,1.38681,1.40581,1.38681,1.40581,18800,1.27237
2013-09-16,1.33932,1.33932,1.33457,1.33457,120500,1.20789
2013-09-17,1.33457,1.33457,1.33457,1.33457,21000,1.20789
2013-09-19,1.3535700000000002,1.3535700000000002,1.3488200000000001,1.3488200000000001,1500,1.22079
2013-09-20,1.3488200000000001,1.3488200000000001,1.3488200000000001,1.3488200000000001,2400,1.22079
2013-09-23,1.3488200000000001,1.3488200000000001,1.32982,1.32982,41600,1.20359
2013-09-25,1.32982,1.32982,1.32982,1.32982,15700,1.20359
2013-09-27,1.3203200000000002,1.3203200000000002,1.3203200000000002,1.3203200000000002,369000,1.19499
2013-10-01,1.32982,1.33457,1.32982,1.32982,69400,1.20359
2013-10-02,1.32982,1.32982,1.29183,1.29183,232400,1.16921
2013-10-03,1.32982,1.32982,1.32982,1.32982,21000,1.20359
2013-10-04,1.32982,1.32982,1.32982,1.32982,116200,1.20359
2013-10-09,1.33932,1.33932,1.32982,1.32982,2100,1.20359
2013-10-14,1.32982,1.32982,1.32982,1.32982,11800,1.20359
2013-10-15,1.32982,1.32982,1.32982,1.32982,10500,1.20359
2013-10-18,1.33932,1.33932,1.33932,1.33932,492500,1.2121899999999999
2013-10-21,1.36782,1.36782,1.32982,1.32982,5200,1.20359
2013-10-22,1.41531,1.41531,1.41531,1.41531,10500,1.28096
2013-10-23,1.41531,1.41531,1.41531,1.41531,4500,1.28096
2013-10-25,1.3488200000000001,1.3488200000000001,1.3488200000000001,1.3488200000000001,2000,1.22079
2013-10-28,1.3488200000000001,1.40581,1.3488200000000001,1.40581,12700,1.27237
2013-10-29,1.41531,1.4723,1.41531,1.4723,6400,1.33254
2013-10-31,1.37732,1.37732,1.37732,1.37732,8900,1.24658
2013-11-04,1.39631,1.39631,1.39631,1.39631,3500,1.26377
2013-11-06,1.39631,1.39631,1.37732,1.37732,10500,1.24658
2013-11-11,1.44381,1.44381,1.44381,1.44381,8800,1.3067600000000001
2013-11-12,1.44381,1.4628,1.44381,1.4628,48800,1.32395
2013-11-14,1.4628,1.57679,1.4628,1.57679,58600,1.4271200000000002
2013-11-15,1.57679,1.66228,1.57679,1.66228,21200,1.5044899999999999
2013-11-18,1.63378,1.66228,1.63378,1.66228,24200,1.5044899999999999
2013-11-19,1.66228,1.7572599999999998,1.66228,1.7572599999999998,35400,1.59046
2013-11-21,1.7572599999999998,1.7572599999999998,1.66228,1.7572599999999998,27600,1.59046
2013-11-22,1.7857599999999998,1.7857599999999998,1.7857599999999998,1.7857599999999998,13800,1.61625
2013-11-25,1.77626,1.77626,1.77626,1.77626,5200,1.60765
2013-11-26,1.80476,1.80476,1.80476,1.80476,72100,1.63345
2013-11-27,1.80476,1.83325,1.80476,1.83325,107400,1.65923
2013-11-28,1.83325,1.83325,1.83325,1.83325,15500,1.65923
2013-11-29,1.80476,1.80476,1.80476,1.80476,7600,1.63345
2013-12-04,1.58659,1.58659,1.53701,1.53701,141100,1.39111
2013-12-05,1.53701,1.6163399999999999,1.53701,1.58659,477200,1.4359899999999999
2013-12-06,1.58659,1.6163399999999999,1.55684,1.58659,49700,1.4359899999999999
2013-12-09,1.5766799999999999,1.58659,1.5766799999999999,1.58659,22400,1.4359899999999999
2013-12-10,1.5766799999999999,1.6163399999999999,1.5766799999999999,1.6064200000000002,46800,1.45393
2013-12-11,1.6064200000000002,1.6361700000000001,1.6064200000000002,1.62626,46800,1.47189
2013-12-12,1.62626,1.6361700000000001,1.58659,1.58659,63700,1.4359899999999999
2013-12-13,1.58659,1.58659,1.55684,1.58659,35000,1.4359899999999999
2013-12-17,1.6064200000000002,1.6163399999999999,1.6064200000000002,1.6163399999999999,52800,1.46291
2013-12-18,1.6361700000000001,1.6758400000000002,1.59651,1.59651,56100,1.44496
2013-12-19,1.64609,1.64609,1.62626,1.64609,66200,1.48984
2013-12-20,1.6163399999999999,1.6758400000000002,1.6163399999999999,1.6758400000000002,16200,1.51676
2013-12-23,1.6758400000000002,1.78492,1.6758400000000002,1.7353299999999998,15100,1.57061
2013-12-24,1.6560099999999998,1.7353299999999998,1.6560099999999998,1.7353299999999998,1500,1.57061
2013-12-27,1.7353299999999998,1.7353299999999998,1.68575,1.68575,8600,1.52573
2013-12-30,1.7155,1.7353299999999998,1.7155,1.7353299999999998,31200,1.57061
2014-01-02,1.7353299999999998,1.83945,1.7353299999999998,1.8345,54700,1.6603599999999998
2014-01-03,1.78492,1.78492,1.7551700000000001,1.78492,15100,1.6154899999999999
2014-01-06,1.78492,1.81466,1.6758400000000002,1.78492,400100,1.6154899999999999
2014-01-07,1.78492,1.78492,1.76508,1.76508,12800,1.59753
2014-01-08,1.78492,1.78492,1.74525,1.74525,80200,1.57959
2014-01-09,1.74525,1.80475,1.74525,1.76013,55700,1.59305
2014-01-10,1.80475,1.85433,1.80475,1.85433,14700,1.6783099999999997
2014-01-13,1.88408,1.91383,1.86425,1.88904,202800,1.70973
2014-01-14,1.8791200000000001,1.8791200000000001,1.8345,1.8345,94300,1.6603599999999998
2014-01-15,1.8345,1.8345,1.78492,1.78492,29700,1.6154899999999999
2014-01-17,1.8444099999999999,1.93366,1.8444099999999999,1.93366,39400,1.7501099999999998
2014-01-20,1.93366,2.0427400000000002,1.93366,2.0427400000000002,64800,1.84884
2014-01-21,2.0427400000000002,2.07249,2.00307,2.0129900000000003,25900,1.82191
2014-01-22,2.0129900000000003,2.06257,2.0129900000000003,2.0229,62500,1.8308799999999998
2014-01-23,2.06257,2.17165,2.06257,2.17165,92800,1.9655099999999999
2014-01-24,2.13198,2.1815599999999997,2.11215,2.1815599999999997,50400,1.97448
2014-01-28,2.1419,2.1419,2.0427400000000002,2.07249,62300,1.8757599999999999
2014-01-29,2.11215,2.12207,2.0824,2.11215,54300,1.91166
2014-01-30,2.0824,2.1815599999999997,2.03282,2.17165,88200,1.9655099999999999
2014-01-31,2.1518200000000003,2.1518200000000003,2.1419,2.1419,6500,1.93858
2014-02-03,2.10223,2.12207,2.10223,2.12207,62600,1.9206400000000001
2014-02-04,2.12207,2.12207,2.05265,2.05265,69100,1.85781
2014-02-05,2.0824,2.0824,2.05265,2.0824,53100,1.88473
2014-02-06,2.0824,2.0824,2.06257,2.06257,57600,1.8667799999999999
2014-02-07,2.06257,2.0824,2.03282,2.0824,88800,1.88473
2014-02-10,2.06257,2.06257,1.94357,1.9832400000000001,54500,1.79498
2014-02-11,1.9832400000000001,1.9832400000000001,1.9832400000000001,1.9832400000000001,1700,1.79498
2014-02-12,1.9832400000000001,1.9832400000000001,1.94357,1.94357,366600,1.75908
2014-02-13,1.9832400000000001,1.9832400000000001,1.93366,1.93366,74500,1.7501099999999998
2014-02-14,1.97332,1.9832400000000001,1.97332,1.9832400000000001,54000,1.79498
2014-02-17,1.97332,1.9832400000000001,1.97332,1.9832400000000001,27200,1.79498
2014-02-18,1.97332,1.9832400000000001,1.97332,1.9832400000000001,54400,1.79498
2014-02-19,1.9832400000000001,1.9832400000000001,1.9832400000000001,1.9832400000000001,22800,1.79498
2014-02-20,1.9931599999999998,2.0229,1.9832400000000001,2.0229,19500,1.8308799999999998
2014-02-21,2.0229,2.07249,2.0229,2.07249,67100,1.8757599999999999
2014-02-24,2.07249,2.0824,2.06257,2.0824,51700,1.88473
2014-02-25,2.0824,2.0824,2.07249,2.0824,43100,1.88473
2014-02-26,2.0824,2.0824,2.0824,2.0824,400,1.88473
2014-02-27,2.07249,2.07249,2.07249,2.07249,99800,1.8757599999999999
2014-02-28,2.03282,2.06257,1.97332,1.97332,23900,1.7860099999999999
2014-03-03,2.0129900000000003,2.0129900000000003,2.00307,2.00307,2800,1.81293
2014-03-04,1.9931599999999998,2.00307,1.9931599999999998,2.00307,27300,1.81293
2014-03-05,1.9931599999999998,2.0427400000000002,1.9931599999999998,2.0427400000000002,66200,1.84884
2014-03-06,2.0824,2.10223,2.0824,2.0824,216900,1.88473
2014-03-07,2.10223,2.10223,2.10223,2.10223,6900,1.90268
2014-03-10,2.10223,2.11215,2.10223,2.10223,16100,1.90268
2014-03-11,2.10223,2.1419,2.09232,2.12207,48300,1.9206400000000001
2014-03-13,2.12207,2.1419,2.11215,2.1419,35200,1.93858
2014-03-14,2.1419,2.1419,2.0824,2.09232,43600,1.8937099999999998
2014-03-17,2.0824,2.0824,2.0427400000000002,2.0427400000000002,40200,1.84884
2014-03-18,2.0824,2.11215,2.0427400000000002,2.11215,26500,1.91166
2014-03-19,2.12207,2.1419,2.07249,2.11215,61400,1.91166
2014-03-20,2.11215,2.13198,2.07249,2.07249,35300,1.8757599999999999
2014-03-21,2.0824,2.12207,2.0824,2.0824,59900,1.88473
2014-03-24,2.0824,2.11215,2.0824,2.11215,22100,1.91166
2014-03-25,2.11215,2.16173,2.11215,2.13198,85900,1.9296099999999998
2014-03-26,2.16173,2.33031,2.16173,2.33031,179900,2.10911
2014-03-27,2.36997,2.47905,2.36997,2.4294700000000002,129900,2.19886
2014-03-28,2.39972,2.4294700000000002,2.28073,2.32039,49300,2.10013
2014-03-31,2.36006,2.3898,2.2906400000000002,2.37989,52600,2.15398
2014-04-01,2.37989,2.41955,2.35014,2.35014,45900,2.1270599999999997
2014-04-02,2.37989,2.37989,2.36006,2.37989,30800,2.15398
2014-04-03,2.37989,2.37989,2.35014,2.35014,22400,2.1270599999999997
2014-04-04,2.34022,2.39972,2.34022,2.36006,102900,2.13604
2014-04-07,2.31047,2.31047,2.2906400000000002,2.31047,26600,2.09115
2014-04-08,2.2906400000000002,2.2906400000000002,2.16173,2.2608900000000003,48700,2.04628
2014-04-09,2.2311400000000003,2.2311400000000003,2.17165,2.1815599999999997,28400,1.97448
2014-04-10,2.19148,2.2509799999999998,2.1815599999999997,2.2509799999999998,30100,2.0373099999999997
2014-04-11,2.19148,2.24106,2.1815599999999997,2.19148,67000,1.9834599999999998
2014-04-14,2.2014,2.2509799999999998,2.2014,2.2311400000000003,28600,2.01935
2014-04-15,2.2311400000000003,2.28073,2.22123,2.24106,24600,2.02833
2014-04-16,2.28073,2.30056,2.28073,2.30056,15700,2.08218
2014-04-17,2.30056,2.35014,2.30056,2.35014,8400,2.1270599999999997
2014-04-22,2.35014,2.3898,2.33031,2.37989,61000,2.15398
2014-04-23,2.37989,2.37989,2.37989,2.37989,12800,2.15398
2014-04-24,2.37989,2.37989,2.33031,2.33031,36000,2.10911
2014-04-28,2.36997,2.36997,2.35014,2.35014,39400,2.1270599999999997
2014-04-29,2.36006,2.36006,2.27081,2.27081,50200,2.0552599999999996
2014-04-30,2.28073,2.33031,2.28073,2.32039,15800,2.10013
2014-05-01,2.32039,2.32039,2.2608900000000003,2.32039,12400,2.10013
2014-05-02,2.28073,2.32039,2.28073,2.31047,3800,2.09115
2014-05-05,2.31047,2.31047,2.2311400000000003,2.28073,11100,2.0642400000000003
2014-05-06,2.28073,2.3898,2.28073,2.37989,137000,2.15398
2014-05-07,2.37989,2.37989,2.35014,2.37989,65800,2.15398
2014-05-08,2.37989,2.37989,2.34022,2.37989,1700,2.15398
2014-05-09,2.37989,2.3898,2.32039,2.32039,50300,2.10013
2014-05-12,2.32039,2.37989,2.32039,2.36997,53800,2.1450099999999996
2014-05-13,2.36997,2.4493,2.35014,2.40964,56400,2.18091
2014-05-14,2.36997,2.37989,2.36006,2.36006,19700,2.13604
2014-05-15,2.36006,2.41955,2.35014,2.41955,196300,2.18988
2014-05-16,2.61788,2.6773700000000002,2.54846,2.64762,226600,2.3963
2014-05-19,2.64762,2.70712,2.64762,2.6773700000000002,104700,2.4232299999999998
2014-05-20,2.6773700000000002,2.6773700000000002,2.58813,2.62779,42600,2.37835
2014-05-21,2.61788,2.61788,2.45922,2.48897,67500,2.25271
2014-05-22,2.5088,2.5683,2.5088,2.5683,97900,2.32451
2014-05-23,2.62779,2.62779,2.57821,2.58813,50000,2.34246
2014-05-26,2.58813,2.60796,2.58813,2.59804,67400,2.35143
2014-05-27,2.59804,2.60796,2.5683,2.5683,119200,2.32451
2014-05-28,2.57821,2.57821,2.54846,2.54846,83100,2.30655
2014-05-29,2.55838,2.57821,2.47905,2.47905,55300,2.24373
2014-05-30,2.48897,2.57821,2.47905,2.55838,43300,2.31553
2014-06-02,2.5683,2.5683,2.46913,2.46913,49600,2.23475
2014-06-03,2.48897,2.48897,2.46913,2.46913,19800,2.23475
2014-06-04,2.47905,2.61788,2.47905,2.61788,95100,2.36938
2014-06-05,2.57821,2.61788,2.5088,2.5088,64400,2.27066
2014-06-06,2.5286299999999997,2.5286299999999997,2.45922,2.45922,47800,2.22578
2014-06-09,2.45922,2.45922,2.45922,2.45922,0,2.22578
2014-06-10,2.4493,2.47905,2.4294700000000002,2.4493,49900,2.2168
2014-06-11,2.54846,2.54846,2.54846,2.54846,800,2.30655
2014-06-12,2.5286299999999997,2.5286299999999997,2.46913,2.5286299999999997,71200,2.2886
2014-06-13,2.51871,2.51871,2.47905,2.48897,28700,2.25271
2014-06-16,2.4294700000000002,2.47905,2.39972,2.4294700000000002,54200,2.19886
2014-06-17,2.4294700000000002,2.45922,2.3898,2.3898,45500,2.16295
2014-06-18,2.4294700000000002,2.46913,2.40964,2.40964,36300,2.18091
2014-06-19,2.3898,2.47905,2.3898,2.47905,34400,2.24373
2014-06-20,2.46913,2.48897,2.46913,2.47905,310200,2.24373
2014-06-23,2.46913,2.53855,2.46913,2.4988799999999998,25900,2.26168
2014-06-24,2.55838,2.61788,2.55838,2.57821,66300,2.3334799999999998
2014-06-25,2.57821,2.6773700000000002,2.55838,2.59804,80700,2.35143
2014-06-26,2.61788,2.7170400000000003,2.61788,2.7170400000000003,41700,2.45913
2014-06-27,2.6773700000000002,2.83107,2.6773700000000002,2.7467900000000003,46900,2.4860599999999997
2014-06-30,2.73687,2.92528,2.73687,2.92528,22200,2.6476
2014-07-01,2.8757,2.8757,2.7765400000000002,2.7765400000000002,17300,2.5129799999999998
2014-07-02,2.70712,2.8162,2.70712,2.7567,10600,2.49503
2014-07-03,2.72695,2.7467900000000003,2.70712,2.70712,37400,2.45015
2014-07-04,2.72695,2.72695,2.70712,2.70712,15100,2.45015
2014-07-07,2.70712,2.76662,2.70712,2.7467900000000003,36800,2.4860599999999997
2014-07-08,2.7567,2.79637,2.7567,2.79637,28000,2.53093
2014-07-09,2.79637,2.8162,2.79637,2.80628,8100,2.5399
2014-07-10,2.82612,2.9153599999999997,2.82612,2.9153599999999997,11500,2.63863
2014-07-11,2.89553,2.89553,2.8757,2.8757,11000,2.6027299999999998
2014-07-14,2.82612,2.8757,2.78645,2.82612,9300,2.55786
2014-07-15,2.80628,2.82612,2.80628,2.82612,10600,2.55786
2014-07-16,2.82612,2.90545,2.82612,2.90545,90500,2.62966
2014-07-17,2.90545,2.97486,2.8757,2.8757,74700,2.6027299999999998
2014-07-18,2.85587,2.97486,2.8162,2.97486,80500,2.6924799999999998
2014-07-21,2.97486,2.9847799999999998,2.92528,2.92528,56400,2.6476
2014-07-22,2.92528,2.92528,2.8757,2.90545,32700,2.62966
2014-07-23,2.92528,2.92528,2.80628,2.80628,20600,2.5399
2014-07-24,2.78645,2.9153599999999997,2.78645,2.86578,15100,2.59375
2014-07-25,2.82612,2.82612,2.7765400000000002,2.8162,58000,2.54888
2014-07-28,2.8757,2.8757,2.82612,2.84595,24800,2.5758
2014-07-29,2.84595,2.89553,2.84595,2.89553,33400,2.62068
2014-07-30,2.86578,2.86578,2.83603,2.83603,52300,2.56683
2014-07-31,2.83603,2.9153599999999997,2.83603,2.88561,175300,2.6117
2014-08-01,2.83603,2.8757,2.82612,2.82612,56400,2.55786
2014-08-04,2.82612,2.85587,2.80628,2.82612,47000,2.55786
2014-08-05,2.85587,2.85587,2.80628,2.80628,23100,2.5399
2014-08-06,2.79637,2.83603,2.76662,2.7765400000000002,17600,2.5129799999999998
2014-08-07,2.7467900000000003,2.7467900000000003,2.54846,2.5683,64200,2.32451
2014-08-08,2.58813,2.6972099999999997,2.58813,2.6972099999999997,31900,2.44118
2014-08-11,2.70712,2.70712,2.6377099999999998,2.6674599999999997,67600,2.41426
2014-08-12,2.6674599999999997,2.6972099999999997,2.6674599999999997,2.6773700000000002,85300,2.4232299999999998
2014-08-13,2.6773700000000002,2.7170400000000003,2.6674599999999997,2.7170400000000003,44800,2.45913
2014-08-14,2.76662,2.7765400000000002,2.7567,2.7765400000000002,59000,2.5129799999999998
2014-08-15,2.72695,2.72695,2.70712,2.72695,63200,2.4681
2014-08-18,2.72695,2.72695,2.70712,2.70712,40900,2.45015
2014-08-19,2.7170400000000003,2.7765400000000002,2.70712,2.7170400000000003,31200,2.45913
2014-08-20,2.7467900000000003,2.7467900000000003,2.70712,2.70712,78400,2.45015
2014-08-21,2.70712,2.7170400000000003,2.68729,2.6972099999999997,22300,2.44118
2014-08-22,2.70712,2.70712,2.6972099999999997,2.6972099999999997,5500,2.44118
2014-08-25,2.6972099999999997,2.6972099999999997,2.6972099999999997,2.6972099999999997,5900,2.44118
2014-08-26,2.7170400000000003,2.8162,2.6773700000000002,2.7765400000000002,110900,2.5129799999999998
2014-08-27,2.7765400000000002,2.82612,2.7567,2.82612,79300,2.55786
2014-08-28,2.82612,2.8757,2.79637,2.84595,85800,2.5758
2014-08-29,2.8757,2.88561,2.82612,2.83603,24700,2.56683
2014-09-01,2.84595,2.97486,2.84595,2.92528,76100,2.6476
2014-09-02,2.89553,2.9847799999999998,2.89553,2.97486,128500,2.6924799999999998
2014-09-03,2.97486,2.97486,2.92528,2.92528,28400,2.6476
2014-09-04,2.90545,3.00461,2.90545,2.90545,103700,2.62966
2014-09-05,2.89553,2.92528,2.88561,2.92528,38800,2.6476
2014-09-08,2.92528,2.92528,2.92528,2.92528,37900,2.6476
2014-09-09,2.92528,2.9649400000000004,2.92528,2.9649400000000004,39200,2.6835
2014-09-10,2.93519,2.93519,2.86578,2.8757,19800,2.69358
2014-09-11,2.8757,2.92528,2.8757,2.90545,31500,2.7214400000000003
2014-09-12,2.8757,2.8757,2.86578,2.8757,171900,2.69358
2014-09-15,2.8757,2.88561,2.8757,2.8757,105100,2.69358
2014-09-16,2.8757,2.92528,2.8757,2.89553,50300,2.71215
2014-09-17,2.9153599999999997,2.9153599999999997,2.78645,2.78645,27900,2.6099799999999997
2014-09-18,2.80628,2.8757,2.79637,2.8757,342200,2.69358
2014-09-19,2.8757,2.9153599999999997,2.86578,2.9153599999999997,32200,2.73073
2014-09-22,2.9153599999999997,2.9451099999999997,2.85587,2.93519,38500,2.7493
2014-09-23,2.8757,2.8757,2.8757,2.8757,61200,2.69358
2014-09-24,2.8757,2.93519,2.86578,2.86578,24200,2.6842900000000003
2014-09-25,2.85587,2.90545,2.85587,2.8757,126100,2.69358
2014-09-26,2.83603,2.83603,2.80628,2.80628,7000,2.62855
2014-09-29,2.86578,2.8757,2.86578,2.86578,4700,2.6842900000000003
2014-09-30,2.86578,2.86578,2.80628,2.86578,11500,2.6842900000000003
2014-10-01,2.86578,2.86578,2.85587,2.86578,2200,2.6842900000000003
2014-10-02,2.86578,2.86578,2.8162,2.8162,12000,2.63785
2014-10-03,2.8162,2.82612,2.7765400000000002,2.82612,19000,2.6471400000000003
2014-10-06,2.83107,2.86578,2.82612,2.84595,16300,2.66571
2014-10-07,2.84595,2.8757,2.82612,2.82612,251600,2.6471400000000003
2014-10-08,2.83603,2.83603,2.83603,2.83603,4700,2.6564200000000002
2014-10-09,2.82612,2.82612,2.7765400000000002,2.8162,17700,2.63785
2014-10-10,2.7765400000000002,2.78645,2.6773700000000002,2.7765400000000002,23100,2.6007
2014-10-13,2.7765400000000002,2.7765400000000002,2.72695,2.72695,5700,2.55425
2014-10-14,2.72695,2.73687,2.72695,2.73687,5500,2.56354
2014-10-15,2.73687,2.7765400000000002,2.72695,2.7765400000000002,220700,2.6007
2014-10-16,2.7765400000000002,2.7765400000000002,2.73687,2.76662,17200,2.5914099999999998
2014-10-17,2.76662,2.78645,2.76662,2.76662,45400,2.5914099999999998
2014-10-20,2.73687,2.78645,2.73687,2.7765400000000002,63100,2.6007
2014-10-21,2.78645,2.78645,2.7467900000000003,2.7765400000000002,11900,2.6007
2014-10-22,2.7765400000000002,2.7765400000000002,2.72695,2.7765400000000002,40300,2.6007
2014-10-23,2.7765400000000002,2.7765400000000002,2.76662,2.76662,9400,2.5914099999999998
2014-10-24,2.76662,2.7765400000000002,2.72695,2.72695,63800,2.55425
2014-10-27,2.6972099999999997,2.76662,2.6773700000000002,2.7467900000000003,22200,2.5728299999999997
2014-10-28,2.7467900000000003,2.7567,2.6972099999999997,2.7567,19800,2.5821099999999997
2014-10-29,2.76662,2.7765400000000002,2.7567,2.7765400000000002,22800,2.6007
2014-10-30,2.7765400000000002,2.78645,2.7765400000000002,2.7765400000000002,83300,2.6007
2014-10-31,2.7467900000000003,2.78645,2.7467900000000003,2.7765400000000002,11700,2.6007
2014-11-03,2.7765400000000002,2.78645,2.76662,2.78645,38400,2.6099799999999997
2014-11-04,2.7467900000000003,2.78645,2.7467900000000003,2.7467900000000003,48600,2.5728299999999997
2014-11-05,2.7467900000000003,2.7765400000000002,2.73687,2.7467900000000003,23600,2.5728299999999997
2014-11-06,2.7765400000000002,2.7765400000000002,2.7567,2.7765400000000002,27100,2.6007
2014-11-07,2.7765400000000002,2.78645,2.7567,2.7567,43600,2.5821099999999997
2014-11-10,2.7567,2.7765400000000002,2.7567,2.7765400000000002,23200,2.6007
2014-11-11,2.7765400000000002,2.7765400000000002,2.7567,2.7765400000000002,33100,2.6007
2014-11-12,2.7765400000000002,2.7765400000000002,2.7467900000000003,2.7765400000000002,30500,2.6007
2014-11-13,2.7765400000000002,2.7765400000000002,2.7567,2.7765400000000002,8400,2.6007
2014-11-14,2.7567,2.7765400000000002,2.72695,2.7765400000000002,51700,2.6007
2014-11-17,2.7765400000000002,2.7765400000000002,2.72695,2.7765400000000002,75800,2.6007
2014-11-18,2.76662,2.7765400000000002,2.7467900000000003,2.7765400000000002,10500,2.6007
2014-11-19,2.7765400000000002,2.7765400000000002,2.76662,2.7765400000000002,66800,2.6007
2014-11-20,2.76662,2.7765400000000002,2.76662,2.76662,50600,2.5914099999999998
2014-11-21,2.7765400000000002,2.78645,2.7765400000000002,2.78645,42000,2.6099799999999997
2014-11-24,2.7765400000000002,2.82612,2.76662,2.82612,82000,2.6471400000000003
2014-11-25,2.82612,2.82612,2.8162,2.8162,10000,2.63785
2014-11-26,2.78645,2.8162,2.78645,2.8162,9900,2.63785
2014-11-27,2.8162,2.8162,2.76662,2.78645,37200,2.6099799999999997
2014-11-28,2.7765400000000002,2.7765400000000002,2.76662,2.76662,39600,2.5914099999999998
2014-12-01,2.7467900000000003,2.76662,2.39972,2.58813,89400,2.42422
2014-12-02,2.58813,2.72695,2.58813,2.72695,36400,2.55425
2014-12-03,2.6773700000000002,2.7467900000000003,2.6773700000000002,2.7467900000000003,23800,2.5728299999999997
2014-12-04,2.7467900000000003,2.79637,2.7467900000000003,2.78645,62700,2.6099799999999997
2014-12-05,2.78645,2.79637,2.7765400000000002,2.79637,13800,2.61927
2014-12-08,2.76662,2.80628,2.76662,2.78645,55900,2.6099799999999997
2014-12-09,2.78645,2.78645,2.76662,2.7765400000000002,71900,2.6007
2014-12-10,2.7765400000000002,2.7765400000000002,2.73687,2.7765400000000002,173800,2.6007
2014-12-11,2.7765400000000002,2.82612,2.7765400000000002,2.8162,58600,2.63785
2014-12-12,2.78645,2.78645,2.78645,2.78645,6700,2.6099799999999997
2014-12-15,2.76662,2.78645,2.7467900000000003,2.7765400000000002,64000,2.6007
2014-12-16,2.7765400000000002,2.7765400000000002,2.7765400000000002,2.7765400000000002,0,2.6007
2014-12-17,2.76662,2.76662,2.65754,2.65754,5700,2.48923
2014-12-18,2.65754,2.76662,2.65754,2.65754,27100,2.48923
2014-12-19,2.64762,2.7467900000000003,2.62779,2.6773700000000002,58100,2.5078099999999997
2014-12-22,2.6773700000000002,2.7567,2.62779,2.7567,19400,2.5821099999999997
2014-12-23,2.7567,2.7567,2.7567,2.7567,0,2.5821099999999997
2014-12-24,2.73687,2.76662,2.72695,2.76662,1400,2.5914099999999998
2014-12-25,2.76662,2.76662,2.76662,2.76662,0,2.5914099999999998
2014-12-26,2.76662,2.76662,2.76662,2.76662,0,2.5914099999999998
2014-12-29,2.76662,2.76662,2.7467900000000003,2.7567,7900,2.5821099999999997
2014-12-30,2.7567,2.76662,2.70712,2.72695,44200,2.55425
2014-12-31,2.70712,2.72695,2.70712,2.72695,1900,2.55425
2015-01-01,2.72695,2.72695,2.72695,2.72695,0,2.55425
2015-01-02,2.68729,2.7567,2.68729,2.7567,8400,2.5821099999999997
2015-01-05,2.7567,2.7567,2.72695,2.7467900000000003,800,2.5728299999999997
2015-01-06,2.73687,2.7567,2.73687,2.7467900000000003,28400,2.5728299999999997
2015-01-07,2.7467900000000003,2.7567,2.73687,2.7567,13900,2.5821099999999997
2015-01-08,2.73687,2.7567,2.73687,2.7567,15700,2.5821099999999997
2015-01-09,2.7567,2.76662,2.7170400000000003,2.7567,53900,2.5821099999999997
2015-01-12,2.7765400000000002,2.78645,2.76662,2.7765400000000002,35500,2.6007
2015-01-13,2.76662,2.7765400000000002,2.6972099999999997,2.76662,31900,2.5914099999999998
2015-01-14,2.70712,2.7567,2.70712,2.7567,5000,2.5821099999999997
2015-01-15,2.7467900000000003,2.7765400000000002,2.73687,2.7765400000000002,28400,2.6007
2015-01-16,2.7765400000000002,2.7765400000000002,2.7467900000000003,2.7467900000000003,15200,2.5728299999999997
2015-01-19,2.7467900000000003,2.7467900000000003,2.7467900000000003,2.7467900000000003,1300,2.5728299999999997
2015-01-20,2.76662,2.76662,2.7567,2.76662,100,2.5914099999999998
2015-01-21,2.73687,2.76662,2.73687,2.76662,41400,2.5914099999999998
2015-01-22,2.73687,2.7765400000000002,2.73687,2.7765400000000002,66900,2.6007
2015-01-23,2.7765400000000002,2.7765400000000002,2.7567,2.7765400000000002,193100,2.6007
2015-01-26,2.7765400000000002,2.7765400000000002,2.7765400000000002,2.7765400000000002,0,2.6007
2015-01-27,2.80628,2.8757,2.79637,2.82612,63000,2.6471400000000003
2015-01-28,2.85587,2.92528,2.83603,2.8757,26100,2.69358
2015-01-29,2.8757,2.92528,2.85587,2.85587,44300,2.675
2015-01-30,2.8757,2.88561,2.85587,2.8757,67500,2.69358
2015-02-02,2.8757,2.92528,2.82612,2.92528,48500,2.74002
2015-02-03,2.92528,2.97486,2.92528,2.97486,27200,2.78646
2015-02-04,2.9946900000000003,3.14343,2.9946900000000003,3.11369,42300,2.91649
2015-02-05,3.15335,3.22276,3.11369,3.11369,48700,2.91649
2015-02-06,3.22276,3.22276,3.1632700000000002,3.1632700000000002,5700,2.96294
2015-02-09,3.20293,3.36159,3.1632700000000002,3.3219300000000005,38700,3.11155
2015-02-10,3.3219300000000005,3.35167,3.2326799999999998,3.2326799999999998,56700,3.02795
2015-02-11,3.2624299999999997,3.29218,3.22276,3.25251,67000,3.04652
2015-02-12,3.2624299999999997,3.33184,3.22276,3.22276,10400,3.0186599999999997
2015-02-13,3.28226,3.37151,3.28226,3.28226,57300,3.07439
2015-02-16,3.34176,3.52025,3.34176,3.431,114200,3.21371
2015-02-17,3.4409199999999998,3.4805900000000003,3.431,3.4706699999999997,92400,3.25087
2015-02-18,3.4706699999999997,3.5698300000000005,3.46075,3.52025,180100,3.29731
2015-02-19,3.4706699999999997,3.5599199999999995,3.431,3.4706699999999997,65000,3.25087
2015-02-20,3.4706699999999997,3.4706699999999997,3.4409199999999998,3.4409199999999998,59500,3.2230000000000003
2015-02-23,3.4508400000000004,3.4805900000000003,3.4012599999999997,3.4805900000000003,127900,3.26016
2015-02-24,3.46075,3.66899,3.4508400000000004,3.51033,210600,3.2880199999999995
2015-02-25,3.52025,3.81774,3.52025,3.70866,105100,3.47378
2015-02-26,3.7185699999999997,3.7582400000000002,3.66899,3.7582400000000002,141000,3.5202199999999997
2015-02-27,3.76816,3.9664800000000002,3.76816,3.9367300000000003,142500,3.68741
2015-03-02,3.9169,3.9268099999999997,3.88715,3.9169,39600,3.6688400000000003
2015-03-03,3.9169,3.9367300000000003,3.86732,3.8772300000000004,42800,3.6316800000000002
2015-03-04,3.9069800000000003,4.00614,3.9069800000000003,3.9268099999999997,116200,3.67812
2015-03-05,3.9664800000000002,4.0160599999999995,3.9069800000000003,3.9565599999999996,117400,3.7059800000000003
2015-03-06,3.9565599999999996,4.03589,3.9565599999999996,4.03589,55100,3.78029
2015-03-09,4.03589,4.09539,3.9664800000000002,4.09539,57200,3.8360199999999995
2015-03-10,4.11522,4.31355,4.09539,4.25405,142100,3.98463
2015-03-11,4.26397,4.31355,4.0557300000000005,4.09539,105300,3.8360199999999995
2015-03-12,4.09539,4.09539,3.9664800000000002,3.9664800000000002,79300,3.7152800000000004
2015-03-13,4.08547,4.1648,4.08547,4.1648,22900,3.90104
2015-03-16,4.19455,4.20447,3.99623,4.00614,58900,3.75242
2015-03-17,4.06564,4.11522,4.0458099999999995,4.0458099999999995,28300,3.7895800000000004
2015-03-18,4.11522,4.11522,4.0458099999999995,4.0458099999999995,49800,3.7895800000000004
2015-03-19,4.08547,4.1648,4.08547,4.1648,36900,3.90104
2015-03-20,4.1648,4.1648,4.08547,4.13505,60400,3.8731699999999996
2015-03-23,4.13505,4.13505,3.9764,3.98631,51000,3.73385
2015-03-24,4.0160599999999995,4.025980000000001,3.9664800000000002,3.9664800000000002,105200,3.7152800000000004
2015-03-25,3.9664800000000002,4.06564,3.9664800000000002,3.9764,50700,3.7245699999999995
2015-03-26,3.9764,4.12514,3.9764,4.07556,19200,3.81745
2015-03-27,3.9764,4.11522,3.9764,4.0160599999999995,10400,3.7617199999999995
2015-03-30,4.0160599999999995,4.11522,3.98631,3.98631,5300,3.73385
2015-03-31,4.0458099999999995,4.06564,4.00614,4.03589,31100,3.78029
2015-04-01,4.03589,4.13505,4.03589,4.11522,15200,3.8546
2015-04-02,4.11522,4.13505,4.06564,4.09539,28100,3.8360199999999995
2015-04-03,4.09539,4.09539,4.09539,4.09539,0,3.8360199999999995
2015-04-06,4.09539,4.09539,4.09539,4.09539,0,3.8360199999999995
2015-04-07,4.12514,4.1648,4.12514,4.15489,18700,3.89175
2015-04-08,4.15489,4.1648,4.10531,4.12514,25900,3.86389
2015-04-09,4.13505,4.14497,4.00614,4.08547,16300,3.8267300000000004
2015-04-10,4.00614,4.14497,4.00614,4.11522,42300,3.8546
2015-04-13,4.12514,4.12514,4.00614,4.03589,20200,3.78029
2015-04-14,4.03589,4.06564,3.9764,3.98631,28400,3.73385
2015-04-15,3.98631,4.11522,3.98631,4.08547,25500,3.8267300000000004
2015-04-16,4.09539,4.1648,4.09539,4.1648,46400,3.90104
2015-04-17,4.1648,4.21438,4.12514,4.13505,37700,3.8731699999999996
2015-04-20,4.14497,4.24413,4.13505,4.20447,75600,3.93819
2015-04-21,4.24413,4.30363,4.2243,4.2838,82200,4.0125
2015-04-22,4.36313,4.66061,4.36313,4.51187,152700,4.22613
2015-04-23,4.5317,4.71019,4.5317,4.71019,68100,4.4118900000000005
2015-04-24,4.71019,4.72011,4.69036,4.71019,40300,4.4118900000000005
2015-04-27,4.73994,4.938269999999999,4.73994,4.8986,152000,4.58836
2015-04-28,4.8986,4.8986,4.61103,4.64078,117800,4.34687
2015-04-29,4.64078,4.64078,4.3730400000000005,4.3730400000000005,92600,4.09609
2015-04-30,4.36313,4.39288,4.24413,4.31355,95000,4.040369999999999
2015-05-01,4.29371,4.31355,4.1648,4.24413,75000,3.97534
2015-05-04,4.23422,4.46229,4.23422,4.38296,49300,4.10538
2015-05-05,4.40279,4.66061,4.38296,4.51187,52200,4.22613
2015-05-06,4.51187,4.56145,4.41271,4.41271,51800,4.13325
2015-05-07,4.49204,4.51187,4.41271,4.46229,48600,4.17969
2015-05-08,4.46229,4.46229,4.26397,4.26397,21400,3.99393
2015-05-11,4.36313,4.44246,4.26892,4.41271,29400,4.13325
2015-05-12,4.41271,4.41271,4.25405,4.29371,5900,4.021780000000001
2015-05-13,4.27388,4.36313,4.26397,4.29371,29000,4.021780000000001
2015-05-14,4.41271,4.44246,4.38296,4.41271,10200,4.13325
2015-05-15,4.41271,4.44246,4.29371,4.422619999999999,25500,4.142530000000001
2015-05-18,4.422619999999999,4.422619999999999,4.3432900000000005,4.3432900000000005,18800,4.068219999999999
2015-05-19,4.35321,4.38296,4.33338,4.36313,54000,4.08681
2015-05-20,4.38296,4.41271,4.36313,4.36313,39300,4.08681
2015-05-21,4.41271,4.422619999999999,4.36313,4.36313,5600,4.08681
2015-05-22,4.41271,4.43254,4.40279,4.43254,23200,4.15182
2015-05-25,4.44246,4.44246,4.3730400000000005,4.3730400000000005,17600,4.09609
2015-05-26,4.38296,4.39288,4.36313,4.38296,12000,4.10538
2015-05-27,4.36313,4.38296,4.25405,4.29371,83600,4.021780000000001
2015-05-28,4.29371,4.29371,4.13505,4.2243,34300,3.9567699999999997
2015-05-29,4.20447,4.20447,4.0160599999999995,4.0160599999999995,45700,3.7617199999999995
2015-06-01,4.03589,4.13505,4.00614,4.0458099999999995,79700,3.7895800000000004
2015-06-02,4.025980000000001,4.11522,4.025980000000001,4.11522,31300,3.8546
2015-06-03,4.1648,4.29371,4.08547,4.2243,27200,3.9567699999999997
2015-06-04,4.23422,4.24413,4.15489,4.19455,9500,3.9289
2015-06-05,4.26397,4.26397,4.1648,4.21438,8300,3.94748
2015-06-08,4.21438,4.21438,4.21438,4.21438,0,3.94748
2015-06-09,4.21438,4.24413,4.20447,4.21438,10300,3.94748
2015-06-10,4.2243,4.2838,4.2243,4.2838,60100,4.0125
2015-06-11,4.31355,4.41271,4.31355,4.36313,9800,4.08681
2015-06-12,4.39288,4.40279,4.12514,4.15489,30100,3.89175
2015-06-15,4.1648,4.17472,4.08547,4.08547,24600,3.8267300000000004
2015-06-16,4.10531,4.14497,4.03589,4.06564,66500,3.80816
2015-06-17,4.09539,4.13505,4.06564,4.13505,16100,3.8731699999999996
2015-06-18,4.13505,4.1648,4.06564,4.13505,26500,3.8731699999999996
2015-06-19,4.1648,4.1648,4.06564,4.06564,34600,3.80816
2015-06-22,4.1648,4.17472,4.13505,4.17472,10300,3.91033
2015-06-23,4.21438,4.21438,4.07556,4.10531,26400,3.84531
2015-06-24,4.20447,4.27388,4.1648,4.23422,15800,3.9660599999999997
2015-06-25,4.1648,4.19455,4.1648,4.19455,4700,3.9289
2015-06-26,4.23422,4.26397,4.21438,4.21438,23400,3.94748
2015-06-29,4.25405,4.25405,4.07556,4.15489,5600,3.89175
2015-06-30,4.07556,4.08547,4.03589,4.07556,78400,3.81745
2015-07-01,4.11522,4.14497,4.03589,4.03589,14300,3.78029
2015-07-02,4.03589,4.18464,4.03589,4.1648,16700,3.90104
2015-07-03,4.07556,4.09539,4.06564,4.06564,4200,3.80816
2015-07-06,4.06564,4.15489,4.06564,4.11522,5200,3.8546
2015-07-07,4.15489,4.36313,4.10531,4.30363,14600,4.03107
2015-07-08,4.30363,4.30363,4.11522,4.26397,4800,3.99393
2015-07-09,4.0557300000000005,4.10531,3.9764,3.9764,19900,3.7245699999999995
2015-07-10,3.98631,4.10531,3.9664800000000002,4.00614,20200,3.75242
2015-07-13,4.0557300000000005,4.11026,3.86732,4.00614,27200,3.75242
2015-07-14,3.88715,4.06564,3.88715,4.06564,10800,3.80816
2015-07-15,4.06564,4.11522,4.06564,4.11522,6000,3.8546
2015-07-16,4.11522,4.31355,4.11522,4.11522,34800,3.8546
2015-07-17,4.24413,4.24413,4.0160599999999995,4.11522,13200,3.8546
2015-07-20,4.11522,4.26397,4.06564,4.26397,26400,3.99393
2015-07-21,4.26397,4.26397,4.14497,4.2243,30900,3.9567699999999997
2015-07-22,4.11522,4.21438,4.06564,4.06564,24100,3.80816
2015-07-23,4.09539,4.25405,4.09539,4.25405,7000,3.98463
2015-07-24,4.25405,4.26397,4.24413,4.25405,10600,3.98463
2015-07-27,4.23422,4.26397,4.18464,4.26397,9900,3.99393
2015-07-28,4.23422,4.24413,4.19455,4.24413,23100,3.97534
2015-07-29,4.26397,4.41271,4.26397,4.387919999999999,53200,4.11003
2015-07-30,4.35321,4.5912,4.35321,4.57137,69700,4.28186
2015-07-31,4.61103,4.75978,4.61103,4.71019,42400,4.4118900000000005
2015-08-03,4.80936,4.8291900000000005,4.6507,4.67053,101100,4.37474
2015-08-04,4.66061,4.73994,4.5912,4.71019,95200,4.4118900000000005
2015-08-05,4.66061,4.75978,4.60112,4.66061,41100,4.36545
2015-08-06,4.68045,4.73994,4.5912,4.71019,35400,4.4118900000000005
2015-08-07,4.71019,4.75978,4.71019,4.74986,69300,4.44904
2015-08-10,4.74986,4.74986,4.66061,4.66061,43900,4.36545
2015-08-11,4.67053,4.76473,4.67053,4.75978,57500,4.45834
2015-08-12,4.75978,4.92835,4.74986,4.75978,64600,4.45834
2015-08-13,4.75978,4.75978,4.66061,4.66061,23400,4.36545
2015-08-14,4.66061,4.69036,4.56145,4.67053,3400,4.37474
2015-08-17,4.67053,4.67053,4.47221,4.52179,26700,4.2354199999999995
2015-08-18,4.51187,4.56145,4.41271,4.41271,19800,4.13325
2015-08-19,4.48212,4.48212,4.44246,4.48212,16000,4.198259999999999
2015-08-20,4.43254,4.69036,4.38296,4.69036,19500,4.39331
2015-08-21,4.5317,4.69036,4.47221,4.60112,40600,4.3097199999999996
2015-08-24,4.60112,4.66061,4.39288,4.66061,106400,4.36545
2015-08-25,4.63086,4.6507,4.36313,4.57137,43700,4.28186
2015-08-26,4.54162,4.60112,4.41271,4.57137,45100,4.28186
2015-08-27,4.5812800000000005,4.80936,4.56145,4.74986,48200,4.44904
2015-08-28,4.80936,4.80936,4.46229,4.5912,25900,4.30043
2015-08-31,4.5912,4.5912,4.52179,4.56145,39500,4.27257
2015-09-01,4.56145,4.56145,4.48212,4.5515300000000005,22000,4.2632699999999994
2015-09-02,4.56145,4.5812800000000005,4.51187,4.52179,52700,4.2354199999999995
2015-09-03,4.54162,4.54162,4.46229,4.54162,25400,4.25399
2015-09-04,4.46229,4.54162,4.46229,4.54162,9500,4.25399
2015-09-07,4.54162,4.54162,4.36313,4.39288,115900,4.114669999999999
2015-09-08,4.39288,4.54162,4.39288,4.5317,26700,4.2447
2015-09-09,4.5317,4.76969,4.5317,4.73994,26600,4.59924
2015-09-10,4.66061,4.75978,4.64078,4.73003,5600,4.58962
2015-09-11,4.73003,4.75978,4.68045,4.71019,18900,4.57037
2015-09-14,4.72011,4.88869,4.72011,4.849019999999999,39400,4.705080000000001
2015-09-15,4.849019999999999,4.91843,4.8192699999999995,4.91843,64500,4.77243
2015-09-16,4.98785,4.98785,4.8589400000000005,4.948180000000001,92500,4.8013
2015-09-17,4.9581,5.13659,4.948180000000001,5.13659,61300,4.98411
2015-09-18,5.13659,5.60265,5.08701,5.50349,48700,5.34012
2015-09-21,5.49357,5.66215,5.4836599999999995,5.6324,58400,5.4652
2015-09-22,5.65223,5.92989,5.64232,5.64232,74500,5.47483
2015-09-23,5.64232,5.65223,5.39441,5.45391,25300,5.292009999999999
2015-09-24,5.463830000000001,5.61257,5.45391,5.45391,37300,5.292009999999999
2015-09-25,5.45391,5.45391,5.17626,5.2754199999999996,43800,5.1188199999999995
2015-09-28,5.28533,5.59274,5.28533,5.59274,15700,5.4267199999999995
2015-09-29,5.35475,5.70181,5.3051699999999995,5.70181,11300,5.53255
2015-09-30,5.70181,5.70181,5.2754199999999996,5.52332,24500,5.35936
2015-10-01,5.49357,5.49357,5.31508,5.31508,14500,5.1573
2015-10-02,5.31508,5.31508,5.16634,5.22584,89400,5.07071
2015-10-05,5.22584,5.28533,5.206,5.28533,41700,5.12844
2015-10-06,5.25559,5.2655,5.16634,5.16634,101300,5.012980000000001
2015-10-07,5.19609,5.40433,5.17626,5.40433,37900,5.2439
2015-10-08,5.28533,5.35475,5.25559,5.3051699999999995,26000,5.14769
2015-10-09,5.28533,5.33491,5.2655,5.2655,10500,5.1092
2015-10-12,5.3051699999999995,5.45391,5.2655,5.3051699999999995,38100,5.14769
2015-10-13,5.42416,5.42416,5.35475,5.35475,13200,5.1958
2015-10-14,5.41424,5.6324,5.35475,5.61257,59600,5.4459599999999995
2015-10-15,5.59274,5.59274,5.5134099999999995,5.5134099999999995,25400,5.34975
2015-10-16,5.52332,5.66215,5.52332,5.60265,42800,5.43634
2015-10-19,5.60265,5.77123,5.58282,5.77123,39800,5.5999099999999995
2015-10-20,5.77123,5.79106,5.70181,5.75139,48800,5.58066
2015-10-21,5.75139,5.79106,5.70181,5.79106,35400,5.61915
2015-10-22,5.75139,5.75139,5.62248,5.62248,27100,5.45558
2015-10-23,5.60265,5.77123,5.60265,5.71173,12800,5.54218
2015-10-26,5.77123,6.07367,5.75139,5.91005,95800,5.73461
2015-10-27,5.94972,6.15796,5.90014,6.15796,96300,5.97516
2015-10-28,6.14804,6.19762,6.09846,6.12821,139500,5.9463
2015-10-29,6.21746,6.2967900000000006,6.11829,6.12821,85400,5.9463
2015-10-30,6.12821,6.2472,6.12821,6.14804,71400,5.96554
2015-11-02,6.2472,6.33645,6.14804,6.2472,41900,6.06175
2015-11-03,6.22737,6.22737,5.9993,6.16788,26100,5.98479
2015-11-04,6.2472,6.475280000000001,6.20754,6.2472,50500,6.06175
2015-11-05,6.2472,6.33645,6.21746,6.22737,25700,6.04251
2015-11-06,6.22737,6.2967900000000006,5.95964,6.14804,47800,5.96554
2015-11-09,6.14804,6.14804,5.95964,6.14804,48400,5.96554
2015-11-10,6.14804,6.14804,5.95964,6.09846,32000,5.91743
2015-11-11,6.08855,6.32653,6.02905,6.2472,32700,6.06175
2015-11-12,6.2472,6.4653599999999996,6.14804,6.4653599999999996,61800,6.27344
2015-11-13,6.4653599999999996,6.69343,6.346369999999999,6.445530000000001,52400,6.2542
2015-11-16,6.39595,6.4951099999999995,6.35628,6.4951099999999995,24100,6.302309999999999
2015-11-17,6.64385,6.64385,6.524859999999999,6.54469,50500,6.35041
2015-11-18,6.54469,6.64385,6.53477,6.56452,25300,6.36966
2015-11-19,6.6141,7.09008,6.6141,6.802510000000001,77100,6.60058
2015-11-20,6.81243,6.8917600000000006,6.81243,6.8818399999999995,72700,6.677560000000001
2015-11-23,6.8917600000000006,7.09008,6.8917600000000006,6.8917600000000006,154500,6.687180000000001
2015-11-24,6.941339999999999,7.05042,6.8917600000000006,6.971089999999999,54900,6.76416
2015-11-25,6.99092,6.99092,6.4951099999999995,6.64385,53100,6.44663
2015-11-26,6.743010000000001,6.7926,6.64385,6.64385,35400,6.44663
2015-11-27,6.54469,6.70335,6.5050300000000005,6.64385,32900,6.44663
2015-11-30,6.65377,6.802510000000001,6.65377,6.7926,67000,6.590960000000001
2015-12-01,6.81243,6.941339999999999,6.802510000000001,6.84218,24900,6.639069999999999
2015-12-02,6.8917600000000006,6.95125,6.85209,6.941339999999999,96800,6.735289999999999
2015-12-03,6.941339999999999,6.99092,6.862010000000001,6.971089999999999,48500,6.76416
2015-12-04,7.01075,7.0405,6.941339999999999,7.02067,21700,6.81226
2015-12-07,7.0405,7.0405,6.84218,6.8917600000000006,50200,6.687180000000001
2015-12-08,6.8818399999999995,6.8818399999999995,6.64385,6.75293,39800,6.55247
2015-12-09,6.65377,6.901669999999999,6.64385,6.8917600000000006,76300,6.687180000000001
2015-12-10,6.8917600000000006,6.901669999999999,6.7926,6.832260000000001,29200,6.62945
2015-12-11,6.832260000000001,6.85209,6.69343,6.78268,66700,6.581339999999999
2015-12-14,6.65377,6.70335,6.45545,6.4653599999999996,57000,6.27344
2015-12-15,6.54469,6.743010000000001,6.4653599999999996,6.64385,43500,6.44663
2015-12-16,6.743010000000001,6.75293,6.62402,6.743010000000001,17500,6.54285
2015-12-17,6.743010000000001,6.9215100000000005,6.72318,6.8917600000000006,145900,6.687180000000001
2015-12-18,6.84218,6.896719999999999,6.59427,6.87193,34200,6.66794
2015-12-21,6.7926,6.85209,6.64385,6.82234,22300,6.61982
2015-12-22,6.69343,6.87193,6.663689999999999,6.87193,38400,6.66794
2015-12-23,6.862010000000001,6.862010000000001,6.802510000000001,6.862010000000001,79200,6.65831
2015-12-24,6.832260000000001,6.8917600000000006,6.7331,6.832260000000001,47100,6.62945
2015-12-25,6.832260000000001,6.832260000000001,6.832260000000001,6.832260000000001,0,6.62945
2015-12-28,6.832260000000001,6.832260000000001,6.832260000000001,6.832260000000001,0,6.62945
2015-12-29,6.7926,6.84218,6.64385,6.84218,14000,6.639069999999999
2015-12-30,6.832260000000001,6.84218,6.6736,6.743010000000001,41600,6.54285
2015-12-31,6.743010000000001,6.84218,6.743010000000001,6.7926,21800,6.590960000000001
2016-01-01,6.7926,6.7926,6.7926,6.7926,0,6.590960000000001
2016-01-04,6.72318,6.84218,6.6736,6.84218,32000,6.639069999999999
2016-01-05,6.75293,6.78268,6.72318,6.78268,4300,6.581339999999999
2016-01-06,6.7926,6.7926,6.6736,6.7926,19300,6.590960000000001
2016-01-07,6.772760000000001,6.7926,6.6736,6.7926,15200,6.590960000000001
2016-01-08,6.68352,6.743010000000001,6.65377,6.69343,25800,6.49474
2016-01-11,6.6736,6.6736,6.2472,6.26704,70100,6.08101
2016-01-12,6.27695,6.39595,6.2472,6.346369999999999,61700,6.15798
2016-01-13,6.2472,6.35628,6.2472,6.346369999999999,38600,6.15798
2016-01-14,6.35628,6.376119999999999,6.09846,6.376119999999999,60000,6.18685
2016-01-15,6.40586,6.633939999999999,6.3067,6.346369999999999,20700,6.15798
2016-01-18,6.19762,6.2472,5.45391,5.82081,189400,5.64802
2016-01-19,5.79106,5.79106,5.47374,5.70181,129500,5.53255
2016-01-20,5.64232,5.6919,5.45391,5.463830000000001,179200,5.30164
2016-01-21,5.463830000000001,5.70181,5.463830000000001,5.70181,97200,5.53255
2016-01-22,5.70181,6.08855,5.70181,6.06871,43400,5.88856
2016-01-25,6.09846,6.11829,5.76131,5.77123,49600,5.5999099999999995
2016-01-26,5.77123,5.77123,5.77123,5.77123,0,5.5999099999999995
2016-01-27,5.75139,5.91005,5.75139,5.80098,39700,5.62878
2016-01-28,5.8108900000000006,5.90014,5.77123,5.78114,17400,5.60953
2016-01-29,5.78114,5.8406400000000005,5.60265,5.60265,51800,5.43634
2016-02-01,5.65223,5.77123,5.65223,5.74148,19300,5.57105
2016-02-02,5.73156,5.74148,5.53324,5.53324,51300,5.36899
2016-02-03,5.53324,5.58282,5.25559,5.53324,124600,5.36899
2016-02-04,5.53324,5.54315,5.3051699999999995,5.49357,56600,5.3305
2016-02-05,5.41424,5.41424,5.17626,5.206,38000,5.05146
2016-02-08,5.15642,5.15642,4.9581,4.9581,112400,4.810919999999999
2016-02-09,4.9581,5.08701,4.9581,5.08701,79200,4.936
2016-02-10,5.057259999999999,5.09693,5.007680000000001,5.0671800000000005,66000,4.91676
2016-02-11,5.07709,5.08701,5.0374300000000005,5.07709,65100,4.92638
2016-02-12,5.07709,5.40433,5.07709,5.40433,49400,5.2439
2016-02-15,5.44399,5.4836599999999995,5.35475,5.4836599999999995,36300,5.320880000000001
2016-02-16,5.42416,6.06871,5.42416,5.94972,81800,5.77311
2016-02-17,5.94972,6.15796,5.94972,5.9993,57300,5.82121
2016-02-18,5.9993,6.17779,5.9993,6.14804,54000,5.96554
2016-02-19,6.18771,6.25712,5.95964,6.2472,75200,6.06175
2016-02-22,6.2472,6.27695,5.94972,6.17779,64400,5.99441
2016-02-23,6.2472,6.32653,5.9993,5.9993,50600,5.82121
2016-02-24,6.0588,6.2472,6.0588,6.15796,32500,5.97516
2016-02-25,6.14804,6.14804,6.00922,6.0488800000000005,40900,5.86932
2016-02-26,6.0488800000000005,6.0488800000000005,5.91005,5.91005,40900,5.73461
2016-02-29,5.91005,6.0488800000000005,5.91005,5.9993,3900,5.82121
2016-03-01,5.989380000000001,5.989380000000001,5.860469999999999,5.919969999999999,20800,5.7442400000000005
2016-03-02,5.90014,5.9993,5.5134099999999995,5.77123,48200,5.5999099999999995
2016-03-03,5.82081,6.0191300000000005,5.82081,6.0191300000000005,31000,5.84046
2016-03-04,6.0488800000000005,6.07863,5.860469999999999,5.860469999999999,15800,5.6865
2016-03-07,5.92989,6.038959999999999,5.76131,5.77123,44900,5.5999099999999995
2016-03-08,5.76131,5.90014,5.60265,5.60265,21000,5.43634
2016-03-09,5.75139,6.0488800000000005,5.75139,6.0488800000000005,44200,5.86932
2016-03-10,5.9993,6.07863,5.97947,6.00922,40900,5.83084
2016-03-11,6.00922,6.38603,5.9993,6.38603,196200,6.19646
2016-03-14,6.39595,6.59427,6.25712,6.54469,85900,6.35041
2016-03-15,6.524859999999999,6.64385,6.43561,6.54469,82800,6.35041
2016-03-16,6.64385,6.78268,6.54469,6.76285,141300,6.5621
2016-03-17,6.7926,6.93142,6.743010000000001,6.832260000000001,130100,6.62945
2016-03-18,6.862010000000001,7.01075,6.5794,7.01075,681300,6.802639999999999
2016-03-21,7.01075,7.09008,6.87193,7.06033,223200,6.85075
2016-03-22,7.12975,7.288410000000001,7.11983,7.18924,201200,6.97583
2016-03-23,7.23882,7.23882,6.95125,6.95125,57100,6.744910000000001
2016-03-24,7.02067,7.02067,6.7777199999999995,6.941339999999999,71400,6.735289999999999
2016-03-25,6.941339999999999,6.941339999999999,6.941339999999999,6.941339999999999,0,6.735289999999999
2016-03-28,6.941339999999999,6.941339999999999,6.941339999999999,6.941339999999999,0,6.735289999999999
2016-03-29,6.941339999999999,6.971089999999999,6.84218,6.8917600000000006,47800,6.687180000000001
2016-03-30,6.9215100000000005,6.96117,6.70335,6.96117,20600,6.75453
2016-03-31,6.95125,7.30824,6.8917600000000006,7.288410000000001,102500,7.0720600000000005
2016-04-01,7.288410000000001,7.73463,7.08017,7.2685699999999995,91700,7.052810000000001
2016-04-04,7.33799,7.397480000000001,7.09008,7.139660000000001,49400,6.92772
2016-04-05,7.139660000000001,7.23882,6.95125,7.06033,21700,6.85075
2016-04-06,6.941339999999999,6.99092,6.8917600000000006,6.96117,55500,6.75453
2016-04-07,6.96117,7.258660000000001,6.9264600000000005,7.139660000000001,27400,6.92772
2016-04-08,7.139660000000001,7.139660000000001,6.941339999999999,7.09008,29600,6.8796100000000004
2016-04-11,7.12975,7.12975,7.0405,7.09008,41100,6.8796100000000004
2016-04-12,7.09008,7.258660000000001,7.09008,7.228910000000001,34300,7.01432
2016-04-13,7.228910000000001,7.33799,7.20908,7.33799,70600,7.12016
2016-04-14,7.33799,7.352860000000001,7.27849,7.288410000000001,51600,7.0720600000000005
2016-04-15,7.288410000000001,7.3677399999999995,6.981,6.99092,48600,6.7834
2016-04-18,7.02067,7.11983,6.941339999999999,6.99092,31100,6.7834
2016-04-19,7.02067,7.0405,6.8917600000000006,6.9215100000000005,37400,6.71605
2016-04-20,6.95125,7.33799,6.837219999999999,7.0405,55100,6.831510000000001
2016-04-21,7.0405,7.1595,6.8917600000000006,6.941339999999999,27600,6.735289999999999
2016-04-22,6.9215100000000005,6.941339999999999,6.70335,6.7926,53100,6.590960000000001
2016-04-25,6.7926,6.7926,6.7926,6.7926,0,6.590960000000001
2016-04-26,6.78268,6.832260000000001,6.72318,6.76285,38000,6.5621
2016-04-27,6.743010000000001,6.832260000000001,6.54469,6.55461,53300,6.360040000000001
2016-04-28,6.59427,6.84218,6.59427,6.70335,45700,6.50436
2016-04-29,6.78268,6.93142,6.743010000000001,6.93142,29200,6.72566
2016-05-02,6.7926,6.832260000000001,6.58436,6.62402,44600,6.42739
2016-05-03,6.6141,6.82234,6.54469,6.64385,643400,6.44663
2016-05-04,6.9215100000000005,6.9215100000000005,6.64385,6.81243,8100,6.61021
2016-05-05,6.84218,6.901669999999999,6.743010000000001,6.901669999999999,12900,6.6968
2016-05-06,6.901669999999999,6.93142,6.84218,6.93142,6000,6.72566
2016-05-09,6.8917600000000006,7.0405,6.84218,7.0405,26700,6.831510000000001
2016-05-10,7.0405,7.139660000000001,6.93142,7.1,24200,6.889239999999999
2016-05-11,7.1,7.1,7.1,7.1,0,6.889239999999999
2016-05-12,7.1,7.1,7.1,7.1,0,6.889239999999999
2016-05-13,6.8,7.15,6.8,7.07,71700,6.860130000000001
2016-05-16,7.06,7.33,7.02,7.29,33000,7.0736
2016-05-17,7.36,7.715,7.33,7.5,119200,7.2773699999999995
2016-05-18,7.5,7.51,7.35,7.51,69400,7.28707
2016-05-19,7.5,7.5,7.34,7.4,79000,7.1803300000000005
2016-05-20,7.3,7.395,7.07,7.37,174900,7.1512199999999995
2016-05-23,7.35,7.37,7.22,7.37,159200,7.1512199999999995
2016-05-24,7.4,7.4,7.31,7.35,129800,7.131819999999999
2016-05-25,7.4,7.55,7.27,7.49,84000,7.26766
2016-05-26,7.49,7.5,7.42,7.44,86600,7.21915
2016-05-27,7.4,7.6,7.38,7.42,261600,7.199739999999999
2016-05-30,7.5,7.55,7.395,7.55,17700,7.325880000000001
2016-05-31,7.6,7.96,7.59,7.96,92600,7.7237100000000005
2016-06-01,8.0,8.08,7.92,8.0,62800,7.762519999999999
2016-06-02,8.0,8.37,7.95,8.24,70300,7.9954
2016-06-03,8.25,8.25,8.085,8.2,51200,7.956589999999999
2016-06-06,8.2,8.3,8.06,8.19,59100,7.94688
2016-06-07,8.35,8.35,7.9,8.0,34200,7.762519999999999
2016-06-08,8.19,8.2,7.74,7.88,16900,7.646089999999999
2016-06-09,7.88,7.98,7.78,7.91,31600,7.6752
2016-06-10,7.9,8.09,7.88,8.0,70100,7.762519999999999
2016-06-13,8.0,8.0,8.0,8.0,0,7.762519999999999
2016-06-14,7.98,7.99,7.725,7.89,70000,7.65579
2016-06-15,7.81,7.88,7.76,7.81,77600,7.5781600000000005
2016-06-16,7.88,8.02,7.76,7.83,52300,7.597569999999999
2016-06-17,7.95,8.0,7.78,7.9,43700,7.665489999999999
2016-06-20,7.86,8.08,7.86,8.07,25900,7.83045
2016-06-21,8.07,8.3,8.07,8.2,88900,7.956589999999999
2016-06-22,8.26,8.38,8.2,8.21,18300,7.966289999999999
2016-06-23,8.22,8.3,8.05,8.23,662400,7.9857
2016-06-24,8.3,8.45,7.91,8.1,93700,7.859560000000001
2016-06-27,8.0,8.0,7.64,7.68,59800,7.45202
2016-06-28,7.6,7.86,7.59,7.76,46900,7.52965
2016-06-29,8.0,8.0,7.68,7.82,17000,7.58787
2016-06-30,7.91,8.22,7.82,8.1,43400,7.859560000000001
2016-07-01,8.0,8.0,7.8,7.99,49700,7.75282
2016-07-04,8.0,8.0,7.76,7.8,7300,7.568460000000001
2016-07-05,7.84,7.84,7.59,7.67,27800,7.44232
2016-07-06,7.6,7.6,7.5,7.57,40300,7.345289999999999
2016-07-07,7.55,7.75,7.52,7.58,47800,7.354989999999999
2016-07-08,7.71,7.71,7.38,7.5,57800,7.2773699999999995
2016-07-11,7.58,8.0,7.58,7.9,25400,7.665489999999999
2016-07-12,7.9,7.91,7.42,7.9,61300,7.665489999999999
2016-07-13,7.65,7.99,7.65,7.85,48200,7.61698
2016-07-14,7.99,8.04,7.93,8.03,25200,7.7916300000000005
2016-07-15,8.02,8.1,7.85,8.0,19400,7.762519999999999
2016-07-18,8.09,8.09,7.95,8.0,31300,7.762519999999999
2016-07-19,8.05,8.07,7.85,7.9,53500,7.665489999999999
2016-07-20,7.9,7.99,7.89,7.92,198100,7.6849
2016-07-21,7.95,7.99,7.85,7.85,17400,7.61698
2016-07-22,7.86,7.99,7.8,7.9,39100,7.665489999999999
2016-07-25,7.89,8.1,7.89,8.03,48900,7.7916300000000005
2016-07-26,8.0,8.0,7.74,7.74,56400,7.51024
2016-07-27,7.86,7.925,7.73,7.74,49800,7.51024
2016-07-28,7.73,7.91,7.73,7.88,46500,7.646089999999999
2016-07-29,7.86,7.87,7.65,7.75,45600,7.519939999999999
2016-08-01,7.75,7.9,7.65,7.9,57100,7.665489999999999
2016-08-02,7.99,8.0,7.8,7.81,30800,7.5781600000000005
2016-08-03,7.85,8.05,7.68,7.97,47000,7.733410000000001
2016-08-04,8.0,8.11,7.9,8.08,67500,7.84015
2016-08-05,8.08,8.15,7.88,8.02,39900,7.78193
2016-08-08,8.06,8.1,7.97,8.08,18200,7.84015
2016-08-09,8.08,8.14,7.99,8.0,21200,7.762519999999999
2016-08-10,8.03,8.14,7.97,7.99,19000,7.75282
2016-08-11,7.97,8.1,7.96,8.1,19300,7.859560000000001
2016-08-12,8.1,8.44,8.09,8.4,50300,8.15065
2016-08-15,8.45,8.8,8.44,8.6,86400,8.344710000000001
2016-08-16,8.68,8.7,8.46,8.65,42500,8.39323
2016-08-17,8.6,8.67,8.44,8.67,57700,8.41264
2016-08-18,8.7,8.83,8.54,8.83,94600,8.56789
2016-08-19,8.85,8.99,7.4,7.58,1743400,7.354989999999999
2016-08-22,7.7,8.08,7.69,8.02,658400,7.78193
2016-08-23,8.11,8.55,8.11,8.45,193200,8.19917
2016-08-24,8.45,8.5,8.12,8.24,109300,7.9954
2016-08-25,8.17,8.25,8.05,8.16,78500,7.91777
2016-08-26,8.12,8.22,7.89,7.99,135600,7.75282
2016-08-29,7.95,7.98,7.61,7.69,178200,7.46173
2016-08-30,7.69,7.95,7.595,7.76,511100,7.52965
2016-08-31,7.84,7.9,7.69,7.7,293500,7.471430000000001
2016-09-01,7.59,7.99,7.39,7.98,268700,7.98
2016-09-02,7.85,7.955,7.75,7.8,92800,7.8
2016-09-05,7.8,7.88,7.78,7.8,69200,7.8
2016-09-06,7.78,7.85,7.72,7.78,49900,7.78
2016-09-07,7.79,7.9,7.63,7.84,66300,7.84
2016-09-08,7.84,7.91,7.74,7.89,63900,7.89
2016-09-09,7.76,7.9,7.7,7.79,50600,7.79
2016-09-12,7.65,7.66,7.145,7.3,275400,7.3
2016-09-13,7.37,7.65,7.37,7.45,199900,7.45
2016-09-14,7.43,7.63,7.38,7.63,162400,7.63
2016-09-15,7.76,7.76,7.48,7.54,195700,7.54
2016-09-16,7.52,7.73,7.52,7.73,1162600,7.73
2016-09-19,7.77,7.77,7.68,7.68,21100,7.68
2016-09-20,7.67,7.67,7.435,7.45,171500,7.45
2016-09-21,7.46,7.46,7.31,7.45,144800,7.45
2016-09-22,7.52,7.71,7.49,7.55,163300,7.55
2016-09-23,7.69,7.71,7.55,7.6,56500,7.6
2016-09-26,7.63,7.8,7.63,7.8,107000,7.8
2016-09-27,7.8,7.83,7.72,7.72,61400,7.72
2016-09-28,7.55,7.83,7.515,7.78,74900,7.78
2016-09-29,7.74,7.8,7.62,7.7,40400,7.7
2016-09-30,7.69,7.69,7.4,7.47,85700,7.47
2016-10-03,7.45,7.45,7.1,7.4,183400,7.4
2016-10-04,7.32,7.32,7.04,7.18,204700,7.18
2016-10-05,7.15,7.2,7.0,7.0,123000,7.0
2016-10-06,7.21,7.65,7.21,7.38,356600,7.38
2016-10-07,7.4,7.55,7.33,7.39,191800,7.39
2016-10-10,7.4,7.51,7.3,7.35,155900,7.35
2016-10-11,7.38,7.45,7.29,7.31,115300,7.31
2016-10-12,7.3,7.4,7.2,7.23,111800,7.23
2016-10-13,7.24,7.25,7.01,7.09,113500,7.09
2016-10-14,7.08,7.08,6.85,6.99,184500,6.99
2016-10-17,6.98,6.99,6.8,6.85,120900,6.85
2016-10-18,6.78,7.12,6.78,7.07,105500,7.07
2016-10-19,7.12,7.28,7.05,7.12,68400,7.12
2016-10-20,7.12,7.48,7.11,7.35,129600,7.35
2016-10-21,7.35,7.48,7.32,7.34,75000,7.34
2016-10-24,7.32,7.47,7.25,7.38,58200,7.38
2016-10-25,7.35,7.47,7.31,7.37,32700,7.37
2016-10-26,7.48,7.48,7.2,7.23,37800,7.23
2016-10-27,7.25,7.44,7.18,7.2,146000,7.2
2016-10-28,7.19,7.47,7.16,7.46,53600,7.46
2016-10-31,7.3,7.34,7.2,7.28,77700,7.28
2016-11-01,7.24,7.3,7.16,7.21,51300,7.21
2016-11-02,7.33,7.33,7.06,7.08,78900,7.08
2016-11-03,7.12,7.21,7.1,7.1,30500,7.1
2016-11-04,7.1,7.26,7.05,7.07,74400,7.07
2016-11-07,7.05,7.1,6.98,7.01,45100,7.01
2016-11-08,7.02,7.12,6.98,7.05,62900,7.05
2016-11-09,7.06,7.12,6.9,6.91,80500,6.91
2016-11-10,6.93,7.33,6.93,7.15,33500,7.15
2016-11-11,7.15,7.45,7.15,7.45,32000,7.45
2016-11-14,7.45,7.55,7.44,7.52,102200,7.52
2016-11-15,7.54,7.56,7.42,7.52,26700,7.52
2016-11-16,7.56,7.56,7.48,7.52,32000,7.52
2016-11-17,7.5,7.67,7.5,7.59,49400,7.59
2016-11-18,7.51,7.8,7.51,7.65,300000,7.65
2016-11-21,7.65,7.8,7.62,7.75,151100,7.75
2016-11-22,7.83,7.85,7.71,7.8,126600,7.8
2016-11-23,7.79,7.8,7.7,7.76,100900,7.76
2016-11-24,7.83,7.83,7.61,7.62,39900,7.62
2016-11-25,7.68,7.75,7.52,7.61,104800,7.61
2016-11-28,7.51,7.73,7.51,7.6,72300,7.6
2016-11-29,7.6,7.73,7.59,7.71,57400,7.71
2016-11-30,7.64,7.72,7.61,7.66,17200,7.66
2016-12-01,7.72,7.75,7.08,7.25,356800,7.25
2016-12-02,7.2,7.3,7.15,7.15,235500,7.15
2016-12-05,7.15,7.15,7.0,7.0,163100,7.0
2016-12-06,7.0,7.21,7.0,7.21,175700,7.21
2016-12-07,7.21,7.4,7.1,7.39,71400,7.39
2016-12-08,7.39,7.43,7.27,7.29,60700,7.29
2016-12-09,7.38,7.49,7.33,7.49,52600,7.49
2016-12-12,7.5,7.51,7.3,7.32,238200,7.32
2016-12-13,7.4,7.47,7.3,7.31,50400,7.31
2016-12-14,7.31,7.36,7.26,7.35,52200,7.35
2016-12-15,7.31,7.48,7.27,7.4,36600,7.4
2016-12-16,7.45,7.7,7.4,7.7,211900,7.7
2016-12-19,7.61,7.7,7.31,7.34,544400,7.34
2016-12-20,7.38,7.49,7.32,7.35,68700,7.35
2016-12-21,7.35,7.35,7.1,7.25,67800,7.25
2016-12-22,7.25,7.25,7.1,7.1,100100,7.1
2016-12-23,7.05,7.14,7.02,7.05,106000,7.05
2016-12-26,7.05,7.05,7.05,7.05,0,7.05
2016-12-27,7.05,7.05,7.05,7.05,0,7.05
2016-12-28,7.0,7.05,6.8,6.97,147000,6.97
2016-12-29,7.0,7.05,6.85,6.96,66100,6.96
2016-12-30,6.99,7.02,6.88,7.0,22900,7.0
