Date,Open,High,Low,Close,Volume,Adj Close
2014-09-09,1.0,1.0,0.96,0.99,298800,0.8859999999999999
2014-09-10,0.99,0.99,0.96,0.975,75600,0.873
2014-09-11,0.96,0.96,0.87,0.9,348700,0.8059999999999999
2014-09-12,0.88,0.91,0.88,0.9,178300,0.8059999999999999
2014-09-15,0.9,0.91,0.895,0.91,82400,0.815
2014-09-16,0.93,0.93,0.925,0.93,40700,0.833
2014-09-17,0.96,0.975,0.93,0.97,67300,0.868
2014-09-18,0.95,0.95,0.93,0.93,35300,0.833
2014-09-19,0.95,0.95,0.93,0.93,13100,0.833
2014-09-22,0.95,0.95,0.915,0.915,56800,0.8190000000000001
2014-09-23,0.92,0.92,0.9,0.9,59900,0.8059999999999999
2014-09-24,0.895,0.92,0.895,0.92,1100,0.8240000000000001
2014-09-25,0.92,0.92,0.92,0.92,2000,0.8240000000000001
2014-09-26,0.92,0.92,0.92,0.92,0,0.8240000000000001
2014-09-29,0.9,0.92,0.9,0.9,35100,0.8059999999999999
2014-09-30,0.9,0.9,0.9,0.9,0,0.8059999999999999
2014-10-01,0.9,0.9,0.9,0.9,7000,0.8059999999999999
2014-10-02,0.9,0.9,0.9,0.9,0,0.8059999999999999
2014-10-03,0.9,0.9,0.9,0.9,0,0.8059999999999999
2014-10-06,0.9,0.9,0.9,0.9,0,0.8059999999999999
2014-10-07,0.9,0.9,0.9,0.9,0,0.8059999999999999
2014-10-08,0.895,0.895,0.8,0.81,55800,0.725
2014-10-09,0.85,0.85,0.81,0.84,73800,0.752
2014-10-10,0.885,0.89,0.885,0.89,6600,0.797
2014-10-13,0.85,0.89,0.85,0.85,33700,0.7609999999999999
2014-10-14,0.83,0.83,0.8,0.81,129900,0.725
2014-10-15,0.8,0.8,0.8,0.8,500,0.716
2014-10-16,0.81,0.81,0.81,0.81,17000,0.725
2014-10-17,0.81,0.83,0.81,0.83,39400,0.743
2014-10-20,0.8,0.82,0.8,0.8,47700,0.716
2014-10-21,0.8,0.8,0.8,0.8,109100,0.716
2014-10-22,0.8,0.8,0.8,0.8,20000,0.716
2014-10-23,0.8,0.8,0.8,0.8,0,0.716
2014-10-24,0.79,0.8,0.79,0.8,90000,0.716
2014-10-27,0.8,0.8,0.8,0.8,37500,0.716
2014-10-28,0.805,0.82,0.805,0.82,44300,0.7340000000000001
2014-10-29,0.82,0.82,0.82,0.82,4000,0.7340000000000001
2014-10-30,0.82,0.82,0.81,0.82,38100,0.7340000000000001
2014-10-31,0.81,0.82,0.81,0.82,4800,0.7340000000000001
2014-11-03,0.82,0.82,0.82,0.82,0,0.7340000000000001
2014-11-04,0.81,0.82,0.81,0.82,13900,0.7340000000000001
2014-11-05,0.81,0.81,0.8,0.8,16300,0.716
2014-11-06,0.81,0.81,0.81,0.81,700,0.725
2014-11-07,0.82,0.82,0.82,0.82,1100,0.7340000000000001
2014-11-10,0.82,0.82,0.82,0.82,0,0.7340000000000001
2014-11-11,0.8,0.8,0.8,0.8,10000,0.716
2014-11-12,0.8,0.8,0.8,0.8,23500,0.716
2014-11-13,0.8,0.8,0.8,0.8,0,0.716
2014-11-14,0.8,0.8,0.8,0.8,0,0.716
2014-11-17,0.79,0.79,0.79,0.79,6900,0.7070000000000001
2014-11-18,0.79,0.79,0.79,0.79,0,0.7070000000000001
2014-11-19,0.79,0.79,0.79,0.79,2000,0.7070000000000001
2014-11-20,0.79,0.795,0.78,0.795,76100,0.7120000000000001
2014-11-21,0.78,0.78,0.78,0.78,2000,0.698
2014-11-24,0.78,0.78,0.78,0.78,0,0.698
2014-11-25,0.77,0.77,0.77,0.77,10000,0.6890000000000001
2014-11-26,0.77,0.785,0.77,0.785,31000,0.703
2014-11-27,0.78,0.78,0.78,0.78,5000,0.698
2014-11-28,0.8,0.82,0.8,0.82,204100,0.7340000000000001
2014-12-01,0.85,0.85,0.81,0.81,72500,0.725
2014-12-02,0.85,0.85,0.8,0.8,151900,0.716
2014-12-03,0.8,0.8,0.78,0.78,32500,0.698
2014-12-04,0.8,0.8,0.79,0.79,22300,0.7070000000000001
2014-12-05,0.77,0.8,0.77,0.77,54400,0.6890000000000001
2014-12-08,0.77,0.77,0.77,0.77,2000,0.6890000000000001
2014-12-09,0.8,0.8,0.8,0.8,35000,0.716
2014-12-10,0.78,0.78,0.78,0.78,10000,0.698
2014-12-11,0.78,0.78,0.78,0.78,0,0.698
2014-12-12,0.78,0.8,0.78,0.8,85700,0.716
2014-12-15,0.8,0.8,0.795,0.795,0,0.7120000000000001
2014-12-16,0.78,0.78,0.78,0.78,19500,0.698
2014-12-17,0.78,0.78,0.78,0.78,30400,0.698
2014-12-18,0.78,0.78,0.78,0.78,0,0.698
2014-12-19,0.78,0.78,0.78,0.78,9100,0.698
2014-12-22,0.795,0.795,0.795,0.795,4000,0.7120000000000001
2014-12-23,0.795,0.8,0.795,0.8,18600,0.716
2014-12-24,0.8,0.8,0.8,0.8,0,0.716
2014-12-25,0.8,0.8,0.8,0.8,0,0.716
2014-12-26,0.8,0.8,0.8,0.8,0,0.716
2014-12-29,0.8,0.8,0.8,0.8,0,0.716
2014-12-30,0.8,0.8,0.8,0.8,0,0.716
2014-12-31,0.78,0.78,0.78,0.78,700,0.698
2015-01-01,0.78,0.78,0.78,0.78,0,0.698
2015-01-02,0.78,0.78,0.78,0.78,0,0.698
2015-01-05,0.78,0.78,0.78,0.78,0,0.698
2015-01-06,0.78,0.78,0.74,0.74,15000,0.662
2015-01-07,0.74,0.74,0.74,0.74,0,0.662
2015-01-08,0.74,0.74,0.74,0.74,0,0.662
2015-01-09,0.75,0.76,0.75,0.76,3000,0.68
2015-01-12,0.76,0.76,0.76,0.76,0,0.68
2015-01-13,0.76,0.76,0.75,0.75,28500,0.6709999999999999
2015-01-14,0.75,0.75,0.75,0.75,0,0.6709999999999999
2015-01-15,0.75,0.75,0.75,0.75,0,0.6709999999999999
2015-01-16,0.72,0.75,0.72,0.75,50000,0.6709999999999999
2015-01-19,0.72,0.72,0.72,0.72,50000,0.645
2015-01-20,0.72,0.72,0.72,0.72,40000,0.645
2015-01-21,0.72,0.72,0.72,0.72,0,0.645
2015-01-22,0.72,0.72,0.72,0.72,16600,0.645
2015-01-23,0.72,0.72,0.7,0.72,106200,0.645
2015-01-26,0.72,0.72,0.72,0.72,0,0.645
2015-01-27,0.71,0.71,0.7,0.7,78800,0.627
2015-01-28,0.7,0.72,0.7,0.705,43600,0.631
2015-01-29,0.705,0.79,0.705,0.79,44500,0.7070000000000001
2015-01-30,0.79,0.815,0.79,0.79,55700,0.7070000000000001
2015-02-02,0.79,0.79,0.77,0.77,5000,0.6890000000000001
2015-02-03,0.77,0.77,0.77,0.77,0,0.6890000000000001
2015-02-04,0.81,0.815,0.81,0.815,17900,0.73
2015-02-05,0.81,0.85,0.81,0.85,31800,0.7609999999999999
2015-02-06,0.86,0.96,0.86,0.96,211100,0.8590000000000001
2015-02-09,0.9,0.9,0.85,0.85,145000,0.7609999999999999
2015-02-10,0.85,0.85,0.85,0.85,0,0.7609999999999999
2015-02-11,0.88,0.88,0.88,0.88,20000,0.7879999999999999
2015-02-12,0.88,0.88,0.865,0.865,10100,0.774
2015-02-13,0.865,0.865,0.865,0.865,0,0.774
2015-02-16,0.88,0.9,0.88,0.9,44900,0.8059999999999999
2015-02-17,0.9,0.9,0.9,0.9,0,0.8059999999999999
2015-02-18,0.88,0.88,0.88,0.88,8300,0.7879999999999999
2015-02-19,0.88,0.88,0.88,0.88,7700,0.7879999999999999
2015-02-20,0.88,0.88,0.87,0.87,11300,0.779
2015-02-23,0.87,0.87,0.87,0.87,800,0.779
2015-02-24,0.87,0.87,0.87,0.87,0,0.779
2015-02-25,0.87,0.87,0.87,0.87,2800,0.779
2015-02-26,0.87,0.87,0.87,0.87,0,0.779
2015-02-27,0.87,0.87,0.87,0.87,0,0.779
2015-03-02,0.87,0.87,0.86,0.87,313400,0.779
2015-03-03,0.86,0.86,0.86,0.86,38200,0.77
2015-03-04,0.86,0.86,0.86,0.86,3000,0.77
2015-03-05,0.86,0.86,0.86,0.86,0,0.77
2015-03-06,0.86,0.86,0.85,0.85,30000,0.7609999999999999
2015-03-09,0.85,0.85,0.85,0.85,0,0.7609999999999999
2015-03-10,0.86,0.9,0.86,0.9,340400,0.8059999999999999
2015-03-11,0.9,0.9,0.9,0.9,0,0.8059999999999999
2015-03-12,0.9,0.9,0.9,0.9,0,0.8059999999999999
2015-03-13,0.9,0.95,0.9,0.95,1727500,0.85
2015-03-16,0.94,0.94,0.91,0.91,24000,0.815
2015-03-17,0.91,0.91,0.91,0.91,0,0.815
2015-03-18,0.91,0.91,0.9,0.9,119300,0.8059999999999999
2015-03-19,0.9,0.94,0.9,0.9,1673700,0.8059999999999999
2015-03-20,0.9,0.9,0.9,0.9,72000,0.8059999999999999
2015-03-23,0.91,0.95,0.91,0.95,19000,0.85
2015-03-24,0.935,0.935,0.9,0.9,327200,0.8059999999999999
2015-03-25,0.905,0.905,0.902,0.905,45300,0.81
2015-03-26,0.905,0.905,0.905,0.905,62000,0.81
2015-03-27,0.905,0.91,0.905,0.905,33800,0.81
2015-03-30,0.91,0.965,0.91,0.965,70900,0.8640000000000001
2015-03-31,0.965,0.965,0.965,0.965,2000,0.885
2015-04-01,0.95,0.95,0.95,0.95,1100,0.871
2015-04-02,0.91,0.91,0.91,0.91,10000,0.8340000000000001
2015-04-03,0.91,0.91,0.91,0.91,0,0.8340000000000001
2015-04-06,0.91,0.91,0.91,0.91,0,0.8340000000000001
2015-04-07,0.91,0.91,0.91,0.91,0,0.8340000000000001
2015-04-08,0.91,0.91,0.91,0.91,0,0.8340000000000001
2015-04-09,0.9,0.9,0.9,0.9,8000,0.825
2015-04-10,0.9,0.9,0.9,0.9,11300,0.825
2015-04-13,0.88,0.9,0.88,0.9,22500,0.825
2015-04-14,0.9,0.9,0.9,0.9,134000,0.825
2015-04-15,0.9,0.9,0.9,0.9,4000,0.825
2015-04-16,0.9,0.9,0.9,0.9,0,0.825
2015-04-17,0.86,0.9,0.86,0.9,15500,0.825
2015-04-20,0.9,0.9,0.9,0.9,0,0.825
2015-04-21,0.86,0.9,0.86,0.9,37000,0.825
2015-04-22,0.9,0.9,0.9,0.9,0,0.825
2015-04-23,0.89,0.89,0.89,0.89,628200,0.816
2015-04-24,0.89,0.9,0.89,0.9,50100,0.825
2015-04-27,0.89,0.9,0.89,0.9,13200,0.825
2015-04-28,0.9,0.9,0.9,0.9,96300,0.825
2015-04-29,0.9,0.9,0.9,0.9,0,0.825
2015-04-30,0.9,0.9,0.9,0.9,0,0.825
2015-05-01,0.9,0.9,0.9,0.9,0,0.825
2015-05-04,0.9,0.9,0.9,0.9,0,0.825
2015-05-05,0.9,0.9,0.9,0.9,0,0.825
2015-05-06,0.9,0.9,0.9,0.9,0,0.825
2015-05-07,0.9,0.9,0.9,0.9,0,0.825
2015-05-08,0.86,0.86,0.85,0.85,12400,0.779
2015-05-11,0.85,0.85,0.85,0.85,0,0.779
2015-05-12,0.85,0.85,0.85,0.85,0,0.779
2015-05-13,0.85,0.85,0.85,0.85,0,0.779
2015-05-14,0.78,0.78,0.78,0.78,0,0.715
2015-05-15,0.8,0.8,0.78,0.78,56200,0.715
2015-05-18,0.78,0.78,0.78,0.78,0,0.715
2015-05-19,0.8,0.8,0.8,0.8,1000,0.733
2015-05-20,0.85,0.85,0.85,0.85,32000,0.779
2015-05-21,0.85,0.85,0.85,0.85,3900,0.779
2015-05-22,0.85,0.85,0.85,0.85,10000,0.779
2015-05-25,0.89,0.89,0.89,0.89,13000,0.816
2015-05-26,0.85,0.85,0.85,0.85,1100,0.779
2015-05-27,0.85,0.85,0.85,0.85,0,0.779
2015-05-28,0.85,0.85,0.85,0.85,0,0.779
2015-05-29,0.85,0.85,0.85,0.85,0,0.779
2015-06-01,0.85,0.85,0.85,0.85,0,0.779
2015-06-02,0.82,0.82,0.82,0.82,2800,0.752
2015-06-03,0.82,0.82,0.82,0.82,7100,0.752
2015-06-04,0.82,0.82,0.82,0.82,0,0.752
2015-06-05,0.82,0.82,0.82,0.82,0,0.752
2015-06-08,0.82,0.82,0.82,0.82,0,0.752
2015-06-09,0.82,0.82,0.82,0.82,1000,0.752
2015-06-10,0.82,0.84,0.82,0.84,12700,0.77
2015-06-11,0.84,0.87,0.835,0.87,500,0.797
2015-06-12,0.85,0.85,0.85,0.85,25600,0.779
2015-06-15,0.85,0.85,0.85,0.85,0,0.779
2015-06-16,0.85,0.85,0.85,0.85,0,0.779
2015-06-17,0.85,0.85,0.85,0.85,10200,0.779
2015-06-18,0.84,0.84,0.75,0.75,10200,0.687
2015-06-19,0.82,0.82,0.82,0.82,1500,0.752
2015-06-22,0.82,0.82,0.82,0.82,21000,0.752
2015-06-23,0.82,0.82,0.82,0.82,25300,0.752
2015-06-24,0.8,0.82,0.8,0.8,28700,0.733
2015-06-25,0.76,0.76,0.76,0.76,25000,0.6970000000000001
2015-06-26,0.775,0.775,0.775,0.775,2400,0.71
2015-06-29,0.78,0.78,0.775,0.775,10000,0.71
2015-06-30,0.8,0.84,0.8,0.84,22200,0.77
2015-07-01,0.84,0.84,0.84,0.84,0,0.77
2015-07-02,0.83,0.83,0.82,0.83,7000,0.7609999999999999
2015-07-03,0.83,0.86,0.83,0.84,78600,0.77
2015-07-06,0.835,0.84,0.835,0.835,15600,0.765
2015-07-07,0.83,0.83,0.83,0.83,8900,0.7609999999999999
2015-07-08,0.82,0.82,0.8,0.8,21700,0.733
2015-07-09,0.8,0.8,0.8,0.8,10000,0.733
2015-07-10,0.82,0.82,0.775,0.8,44800,0.733
2015-07-13,0.775,0.775,0.775,0.775,23800,0.71
2015-07-14,0.83,0.83,0.83,0.83,4000,0.7609999999999999
2015-07-15,0.83,0.83,0.83,0.83,8000,0.7609999999999999
2015-07-16,0.81,0.81,0.77,0.77,32100,0.706
2015-07-17,0.8,0.8,0.8,0.8,1000,0.733
2015-07-20,0.8,0.8,0.8,0.8,45000,0.733
2015-07-21,0.79,0.79,0.79,0.79,1700,0.7240000000000001
2015-07-22,0.79,0.79,0.79,0.79,8000,0.7240000000000001
2015-07-23,0.79,0.8,0.79,0.8,23200,0.733
2015-07-24,0.8,0.8,0.78,0.78,20000,0.715
2015-07-27,0.8,0.8,0.78,0.78,328700,0.715
2015-07-28,0.78,0.78,0.775,0.78,38400,0.715
2015-07-29,0.78,0.78,0.77,0.78,18500,0.715
2015-07-30,0.77,0.77,0.75,0.765,26100,0.701
2015-07-31,0.765,0.765,0.73,0.75,178100,0.687
2015-08-03,0.72,0.75,0.72,0.75,32100,0.687
2015-08-04,0.76,0.76,0.76,0.76,3200,0.6970000000000001
2015-08-05,0.73,0.745,0.73,0.745,30000,0.6829999999999999
2015-08-06,0.73,0.73,0.73,0.73,24000,0.669
2015-08-07,0.73,0.73,0.73,0.73,0,0.669
2015-08-10,0.72,0.72,0.7,0.72,129000,0.66
2015-08-11,0.7,0.7,0.68,0.7,80600,0.642
2015-08-12,0.7,0.7,0.7,0.7,161400,0.642
2015-08-13,0.7,0.7,0.7,0.7,32500,0.642
2015-08-14,0.72,0.73,0.695,0.73,32000,0.669
2015-08-17,0.73,0.73,0.73,0.73,38000,0.669
2015-08-18,0.74,0.75,0.74,0.75,19000,0.687
2015-08-19,0.75,0.75,0.75,0.75,0,0.687
2015-08-20,0.79,0.8,0.79,0.8,9500,0.733
2015-08-24,0.765,0.765,0.73,0.73,39400,0.669
2015-08-25,0.72,0.72,0.72,0.72,100,0.66
2015-08-26,0.69,0.69,0.69,0.69,5000,0.632
2015-08-27,0.72,0.73,0.72,0.73,12800,0.669
2015-08-28,0.76,0.825,0.76,0.78,406900,0.715
2015-08-31,0.805,0.805,0.75,0.75,72700,0.687
2015-09-01,0.75,0.75,0.75,0.75,0,0.687
2015-09-02,0.75,0.75,0.75,0.75,0,0.687
2015-09-03,0.78,0.8,0.77,0.77,56100,0.706
2015-09-04,0.77,0.77,0.77,0.77,0,0.706
2015-09-07,0.77,0.77,0.755,0.755,40400,0.6920000000000001
2015-09-08,0.755,0.755,0.755,0.755,0,0.6920000000000001
2015-09-09,0.76,0.8,0.755,0.8,39200,0.733
2015-09-10,0.79,0.8,0.79,0.8,27800,0.733
2015-09-11,0.82,0.91,0.805,0.83,219700,0.7609999999999999
2015-09-14,0.85,0.895,0.85,0.86,17100,0.7879999999999999
2015-09-15,0.86,0.86,0.86,0.86,0,0.7879999999999999
2015-09-16,0.895,0.895,0.89,0.89,69900,0.816
2015-09-17,0.895,0.9,0.895,0.9,153900,0.825
2015-09-18,0.9,0.94,0.9,0.94,786300,0.862
2015-09-21,0.94,0.94,0.9,0.9,68200,0.825
2015-09-22,0.92,0.94,0.91,0.91,232500,0.8340000000000001
2015-09-23,0.915,0.98,0.915,0.98,880300,0.898
2015-09-24,0.98,1.05,0.98,1.05,167000,0.9620000000000001
2015-09-25,1.04,1.08,1.015,1.07,60300,0.981
2015-09-28,1.07,1.07,1.05,1.06,126400,0.972
2015-09-29,1.06,1.06,1.0,1.06,140900,0.972
2015-09-30,1.06,1.06,1.06,1.06,0,1.002
2015-10-01,1.01,1.04,0.97,1.0,45800,0.946
2015-10-02,1.0,1.04,1.0,1.015,44500,0.96
2015-10-05,1.015,1.03,1.0,1.03,148300,0.9740000000000001
2015-10-06,1.025,1.025,1.02,1.02,34800,0.965
2015-10-07,1.04,1.05,1.02,1.02,48800,0.965
2015-10-08,1.0,1.0,1.0,1.0,14800,0.946
2015-10-09,0.99,1.03,0.99,1.03,99100,0.9740000000000001
2015-10-12,1.0,1.05,1.0,1.05,109500,0.993
2015-10-13,1.05,1.05,1.05,1.05,500,0.993
2015-10-14,1.02,1.04,1.02,1.04,61100,0.983
2015-10-15,1.05,1.05,1.04,1.04,13500,0.983
2015-10-16,1.04,1.04,1.0,1.01,50000,0.955
2015-10-19,1.02,1.02,1.01,1.01,43000,0.955
2015-10-20,1.01,1.055,1.01,1.035,98900,0.9790000000000001
2015-10-21,1.05,1.05,1.03,1.05,155900,0.993
2015-10-22,1.045,1.055,1.04,1.055,155500,0.998
2015-10-23,1.05,1.08,1.045,1.07,60600,1.012
2015-10-26,1.08,1.105,1.08,1.1,162200,1.04
2015-10-27,1.11,1.12,1.09,1.09,96400,1.031
2015-10-28,1.1,1.1,1.08,1.1,42500,1.04
2015-10-29,1.11,1.12,1.11,1.12,45700,1.0590000000000002
2015-10-30,1.12,1.125,1.1,1.12,63500,1.0590000000000002
2015-11-02,1.135,1.135,1.1,1.105,40200,1.045
2015-11-03,1.12,1.12,1.105,1.105,17100,1.045
2015-11-04,1.105,1.12,1.1,1.1,23100,1.04
2015-11-05,1.1,1.1,1.1,1.1,31000,1.04
2015-11-06,1.1,1.15,1.08,1.13,638500,1.069
2015-11-09,1.15,1.19,1.15,1.19,117700,1.125
2015-11-10,1.19,1.19,1.13,1.13,75300,1.069
2015-11-11,1.13,1.17,1.13,1.16,57500,1.097
2015-11-12,1.165,1.19,1.14,1.17,89400,1.1059999999999999
2015-11-13,1.18,1.18,1.15,1.15,69900,1.087
2015-11-16,1.15,1.18,1.15,1.18,39000,1.1159999999999999
2015-11-17,1.16,1.18,1.16,1.17,30700,1.1059999999999999
2015-11-18,1.18,1.21,1.17,1.175,158300,1.111
2015-11-19,1.18,1.19,1.175,1.185,78900,1.121
2015-11-20,1.185,1.22,1.185,1.2,276200,1.135
2015-11-23,1.22,1.27,1.22,1.255,49200,1.187
2015-11-24,1.28,1.315,1.28,1.3,86200,1.229
2015-11-25,1.3,1.3,1.22,1.23,38500,1.163
2015-11-26,1.28,1.28,1.26,1.28,42600,1.21
2015-11-27,1.27,1.28,1.27,1.28,22000,1.21
2015-11-30,1.27,1.28,1.215,1.215,76700,1.149
2015-12-01,1.22,1.22,1.195,1.2,114000,1.135
2015-12-02,1.25,1.27,1.2,1.27,101400,1.2009999999999998
2015-12-03,1.265,1.265,1.21,1.21,22700,1.1440000000000001
2015-12-04,1.23,1.25,1.22,1.25,30100,1.182
2015-12-07,1.235,1.25,1.235,1.24,52300,1.173
2015-12-08,1.24,1.24,1.2,1.215,54000,1.149
2015-12-09,1.2,1.21,1.195,1.21,3600,1.1440000000000001
2015-12-10,1.21,1.21,1.21,1.21,0,1.1440000000000001
2015-12-11,1.2,1.2,1.15,1.15,24600,1.087
2015-12-14,1.15,1.15,1.1,1.1,30300,1.04
2015-12-15,1.095,1.095,1.045,1.06,75700,1.002
2015-12-16,1.06,1.12,1.06,1.06,46200,1.002
2015-12-17,1.06,1.135,1.06,1.1,20500,1.04
2015-12-18,1.1,1.16,1.1,1.16,42500,1.097
2015-12-21,1.17,1.17,1.16,1.16,17000,1.097
2015-12-22,1.17,1.17,1.16,1.16,8300,1.097
2015-12-23,1.17,1.2,1.17,1.17,37100,1.1059999999999999
2015-12-24,1.185,1.19,1.185,1.19,6100,1.125
2015-12-25,1.19,1.19,1.19,1.19,0,1.125
2015-12-28,1.19,1.19,1.19,1.19,0,1.125
2015-12-29,1.16,1.18,1.15,1.18,36400,1.1159999999999999
2015-12-30,1.15,1.15,1.13,1.14,14800,1.078
2015-12-31,1.14,1.14,1.14,1.14,193000,1.078
2016-01-01,1.14,1.14,1.14,1.14,0,1.078
2016-01-04,1.14,1.16,1.14,1.16,9500,1.097
2016-01-05,1.175,1.175,1.16,1.16,5400,1.097
2016-01-06,1.16,1.16,1.16,1.16,0,1.097
2016-01-07,1.16,1.16,1.14,1.14,2200,1.078
2016-01-08,1.14,1.14,1.14,1.14,8000,1.078
2016-01-11,1.13,1.13,1.11,1.11,19300,1.05
2016-01-12,1.08,1.105,1.08,1.105,3000,1.045
2016-01-13,1.09,1.09,1.085,1.085,26500,1.026
2016-01-14,1.05,1.05,1.03,1.03,34700,0.9740000000000001
2016-01-15,0.98,0.99,0.95,0.99,78900,0.9359999999999999
2016-01-18,0.925,0.925,0.865,0.865,120900,0.818
2016-01-19,0.9,0.94,0.9,0.94,18400,0.889
2016-01-20,0.94,0.94,0.905,0.92,49300,0.87
2016-01-21,0.92,0.92,0.92,0.92,4400,0.87
2016-01-22,0.95,0.95,0.92,0.925,304000,0.875
2016-01-25,0.95,0.995,0.95,0.995,23400,0.941
2016-01-26,0.995,0.995,0.995,0.995,0,0.941
2016-01-27,0.995,1.015,0.955,1.015,12300,0.96
2016-01-28,0.98,0.98,0.98,0.98,19000,0.927
2016-01-29,0.99,0.99,0.99,0.99,20000,0.9359999999999999
2016-02-01,0.99,0.99,0.99,0.99,7500,0.9359999999999999
2016-02-02,0.995,1.06,0.955,0.955,62500,0.903
2016-02-03,0.955,0.955,0.94,0.94,17100,0.889
2016-02-04,0.965,0.97,0.94,0.97,21500,0.917
2016-02-05,0.97,1.0,0.97,1.0,46500,0.946
2016-02-08,1.0,1.0,0.97,1.0,93600,0.946
2016-02-09,1.05,1.05,0.995,1.0,64000,0.946
2016-02-10,1.02,1.02,1.0,1.02,38400,0.965
2016-02-11,1.02,1.05,1.01,1.01,38900,0.955
2016-02-12,1.01,1.01,1.0,1.0,58700,0.946
2016-02-15,1.0,1.0,1.0,1.0,0,0.946
2016-02-16,1.025,1.025,1.0,1.01,39700,0.955
2016-02-17,1.01,1.01,1.01,1.01,0,0.955
2016-02-18,1.01,1.01,1.01,1.01,4000,0.955
2016-02-19,1.01,1.01,0.97,0.97,15800,0.917
2016-02-22,0.97,0.97,0.93,0.93,78800,0.879
2016-02-23,0.95,0.95,0.95,0.95,1000,0.898
2016-02-24,0.92,0.935,0.86,0.87,200200,0.823
2016-02-25,0.87,0.87,0.8,0.8,78300,0.7559999999999999
2016-02-26,0.83,0.83,0.8,0.81,16900,0.7659999999999999
2016-02-29,0.85,0.87,0.85,0.86,23000,0.813
2016-03-01,0.87,0.87,0.86,0.87,51600,0.823
2016-03-02,0.87,0.87,0.87,0.87,0,0.823
2016-03-03,0.86,0.86,0.85,0.85,19000,0.804
2016-03-04,0.85,0.87,0.85,0.87,44600,0.823
2016-03-07,0.85,0.85,0.82,0.85,34500,0.804
2016-03-08,0.815,0.82,0.76,0.76,123000,0.7190000000000001
2016-03-09,0.78,0.86,0.75,0.81,74700,0.7659999999999999
2016-03-10,0.85,0.85,0.84,0.84,43900,0.794
2016-03-11,0.86,0.86,0.82,0.83,24400,0.785
2016-03-14,0.83,0.84,0.83,0.83,16500,0.785
2016-03-15,0.83,0.85,0.83,0.85,44400,0.804
2016-03-16,0.85,0.85,0.85,0.85,0,0.804
2016-03-17,0.86,0.86,0.85,0.85,4000,0.804
2016-03-18,0.84,0.86,0.84,0.86,23200,0.813
2016-03-21,0.9,0.9,0.825,0.825,84700,0.78
2016-03-22,0.825,0.825,0.81,0.81,50700,0.7659999999999999
2016-03-23,0.82,0.82,0.81,0.815,25000,0.7709999999999999
2016-03-24,0.84,0.84,0.83,0.84,8500,0.794
2016-03-25,0.84,0.84,0.84,0.84,0,0.794
2016-03-28,0.84,0.84,0.84,0.84,0,0.794
2016-03-29,0.83,0.84,0.81,0.81,32600,0.7659999999999999
2016-03-30,0.83,0.83,0.83,0.83,33200,0.785
2016-03-31,0.82,0.84,0.82,0.83,45700,0.785
2016-04-01,0.83,0.83,0.83,0.83,0,0.804
2016-04-04,0.81,0.81,0.8,0.8,21400,0.775
2016-04-05,0.8,0.8,0.8,0.8,8800,0.775
2016-04-06,0.8,0.83,0.8,0.8,54300,0.775
2016-04-07,0.8,0.83,0.8,0.83,3500,0.804
2016-04-08,0.83,0.83,0.83,0.83,16200,0.804
2016-04-11,0.82,0.82,0.82,0.82,5900,0.795
2016-04-12,0.82,0.85,0.82,0.85,9800,0.8240000000000001
2016-04-13,0.85,0.86,0.81,0.82,27100,0.795
2016-04-14,0.82,0.82,0.82,0.82,18000,0.795
2016-04-15,0.825,0.825,0.825,0.825,2400,0.799
2016-04-18,0.825,0.825,0.8,0.8,92400,0.775
2016-04-19,0.81,0.81,0.81,0.81,12500,0.785
2016-04-20,0.81,0.81,0.81,0.81,0,0.785
2016-04-21,0.83,0.85,0.83,0.85,14400,0.8240000000000001
2016-04-22,0.85,0.9,0.85,0.85,66200,0.8240000000000001
2016-04-25,0.85,0.85,0.85,0.85,0,0.8240000000000001
2016-04-26,0.86,0.87,0.84,0.84,2928500,0.8140000000000001
2016-04-27,0.85,0.85,0.84,0.84,25000,0.8140000000000001
2016-04-28,0.84,0.86,0.805,0.86,216000,0.833
2016-04-29,0.85,0.88,0.81,0.85,383900,0.8240000000000001
2016-05-02,0.83,0.85,0.83,0.85,38100,0.8240000000000001
2016-05-03,0.85,0.85,0.84,0.84,54100,0.8140000000000001
2016-05-04,0.84,0.85,0.84,0.84,48600,0.8140000000000001
2016-05-05,0.815,0.825,0.81,0.825,119000,0.799
2016-05-06,0.825,0.825,0.825,0.825,3000,0.799
2016-05-09,0.81,0.825,0.81,0.825,33900,0.799
2016-05-10,0.825,0.825,0.8,0.8,271500,0.775
2016-05-11,0.8,0.845,0.79,0.845,35400,0.8190000000000001
2016-05-12,0.845,0.845,0.845,0.845,5200,0.8190000000000001
2016-05-13,0.85,0.88,0.84,0.84,77700,0.8140000000000001
2016-05-16,0.82,0.82,0.82,0.82,36900,0.795
2016-05-17,0.82,0.82,0.82,0.82,2500,0.795
2016-05-18,0.79,0.825,0.79,0.82,49000,0.795
2016-05-19,0.8,0.8,0.775,0.775,43200,0.7509999999999999
2016-05-20,0.8,0.885,0.8,0.88,169800,0.853
2016-05-23,0.89,0.895,0.86,0.895,66800,0.867
2016-05-24,0.875,0.94,0.875,0.94,72100,0.9109999999999999
2016-05-25,0.975,1.03,0.97,0.98,207000,0.95
2016-05-26,1.0,1.02,1.0,1.02,83700,0.988
2016-05-27,1.02,1.03,0.995,1.0,106200,0.9690000000000001
2016-05-30,1.0,1.03,0.995,1.02,130800,0.988
2016-05-31,0.995,1.0,0.995,0.995,34900,0.9640000000000001
2016-06-01,1.0,1.01,0.995,1.0,92000,0.9690000000000001
2016-06-02,1.0,1.0,1.0,1.0,85100,0.9690000000000001
2016-06-03,1.01,1.01,0.995,1.0,55400,0.9690000000000001
2016-06-06,1.0,1.04,1.0,1.035,177500,1.003
2016-06-07,1.035,1.04,1.0,1.01,78100,0.9790000000000001
2016-06-08,1.0,1.02,0.95,0.95,35000,0.92
2016-06-09,1.01,1.01,1.01,1.01,178300,0.9790000000000001
2016-06-10,1.01,1.07,1.01,1.07,106700,1.037
2016-06-13,1.07,1.07,1.07,1.07,0,1.037
2016-06-14,1.07,1.07,1.01,1.01,54200,0.9790000000000001
2016-06-15,1.005,1.01,1.005,1.01,37100,0.9790000000000001
2016-06-16,1.0,1.01,1.0,1.01,23600,0.9790000000000001
2016-06-17,1.005,1.01,0.99,1.01,27300,0.9790000000000001
2016-06-20,0.99,0.99,0.99,0.99,1900,0.9590000000000001
2016-06-21,0.99,0.99,0.99,0.99,0,0.9590000000000001
2016-06-22,0.99,1.01,0.98,0.98,53100,0.95
2016-06-23,0.98,0.98,0.98,0.98,0,0.95
2016-06-24,0.98,0.98,0.97,0.97,12400,0.94
2016-06-27,0.97,1.0,0.97,0.985,23100,0.9540000000000001
2016-06-28,0.985,0.987,0.91,0.91,43200,0.882
2016-06-29,0.985,0.99,0.96,0.99,19700,0.9590000000000001
2016-06-30,0.99,0.99,0.975,0.99,15300,0.9590000000000001
2016-07-01,0.98,0.98,0.935,0.935,27500,0.9059999999999999
2016-07-04,0.96,0.96,0.91,0.92,30800,0.8909999999999999
2016-07-05,0.92,0.98,0.905,0.905,52900,0.877
2016-07-06,0.98,0.98,0.92,0.94,31000,0.9109999999999999
2016-07-07,0.94,0.95,0.925,0.94,46000,0.9109999999999999
2016-07-08,0.94,0.94,0.92,0.935,10100,0.9059999999999999
2016-07-11,0.935,0.935,0.915,0.93,19700,0.9009999999999999
2016-07-12,0.92,0.92,0.92,0.92,6400,0.8909999999999999
2016-07-13,0.93,0.96,0.93,0.96,53100,0.93
2016-07-14,0.98,0.99,0.96,0.99,150600,0.9590000000000001
2016-07-15,0.99,0.99,0.985,0.99,39400,0.9590000000000001
2016-07-18,0.99,1.01,0.99,1.01,60100,0.9790000000000001
2016-07-19,1.01,1.01,1.01,1.01,75000,0.9790000000000001
2016-07-20,1.01,1.03,1.01,1.03,27000,0.998
2016-07-21,1.03,1.05,1.025,1.03,52400,0.998
2016-07-22,1.025,1.05,1.02,1.05,59900,1.0170000000000001
2016-07-25,1.03,1.07,1.03,1.045,46000,1.013
2016-07-26,1.045,1.045,1.04,1.04,28000,1.008
2016-07-27,1.05,1.065,1.05,1.065,213300,1.032
2016-07-28,1.045,1.06,1.045,1.06,10500,1.0270000000000001
2016-07-29,1.05,1.05,1.02,1.03,90000,0.998
2016-08-01,1.03,1.03,1.01,1.01,67000,0.9790000000000001
2016-08-02,1.0,1.02,1.0,1.015,8700,0.983
2016-08-03,1.025,1.025,1.015,1.015,38800,0.983
2016-08-04,1.025,1.035,1.02,1.035,144400,1.003
2016-08-05,1.035,1.045,1.02,1.04,98000,1.008
2016-08-08,1.045,1.055,1.045,1.05,33400,1.0170000000000001
2016-08-09,1.045,1.045,1.025,1.025,58200,0.993
2016-08-10,1.025,1.025,1.025,1.025,0,0.993
2016-08-11,1.025,1.025,1.025,1.025,0,0.993
2016-08-12,1.025,1.025,0.97,0.985,179600,0.9540000000000001
2016-08-15,1.0,1.02,0.99,0.99,17800,0.9590000000000001
2016-08-16,0.99,0.995,0.96,0.96,1030100,0.93
2016-08-17,0.96,0.975,0.945,0.975,110000,0.945
2016-08-18,0.975,0.975,0.95,0.96,109900,0.93
2016-08-19,0.96,0.965,0.96,0.96,121400,0.93
2016-08-22,0.96,0.97,0.945,0.95,178900,0.92
2016-08-23,0.945,0.95,0.945,0.95,75000,0.92
2016-08-24,0.95,0.95,0.94,0.94,103700,0.9109999999999999
2016-08-25,0.955,0.955,0.955,0.955,27900,0.925
2016-08-26,0.94,0.94,0.94,0.94,8500,0.9109999999999999
2016-08-29,0.94,0.94,0.935,0.94,19000,0.9109999999999999
2016-08-30,0.935,0.955,0.935,0.955,160500,0.925
2016-08-31,0.94,0.95,0.94,0.95,83900,0.92
2016-09-01,0.945,0.95,0.945,0.945,52200,0.9159999999999999
2016-09-02,0.95,0.95,0.945,0.945,162800,0.9159999999999999
2016-09-05,0.94,0.945,0.92,0.94,119400,0.9109999999999999
2016-09-06,0.945,0.945,0.94,0.94,157600,0.9109999999999999
2016-09-07,0.94,0.94,0.94,0.94,80000,0.9109999999999999
2016-09-08,0.935,0.94,0.935,0.94,85000,0.9109999999999999
2016-09-09,0.94,0.94,0.93,0.93,75400,0.9009999999999999
2016-09-12,0.94,0.94,0.93,0.93,73100,0.9009999999999999
2016-09-13,0.925,0.935,0.925,0.93,146000,0.9009999999999999
2016-09-14,0.92,0.925,0.92,0.925,88500,0.8959999999999999
2016-09-15,0.92,0.92,0.915,0.917,271500,0.889
2016-09-16,0.915,0.925,0.912,0.915,282700,0.887
2016-09-19,0.915,0.915,0.915,0.915,0,0.887
2016-09-20,0.915,0.925,0.905,0.915,551900,0.887
2016-09-21,0.915,0.915,0.915,0.915,35000,0.887
2016-09-22,0.92,0.93,0.92,0.93,92600,0.9009999999999999
2016-09-23,0.935,0.94,0.92,0.935,87300,0.9059999999999999
2016-09-26,0.935,0.935,0.92,0.92,108200,0.8909999999999999
2016-09-27,0.915,0.915,0.915,0.915,37000,0.887
2016-09-28,0.92,0.92,0.92,0.92,42000,0.8909999999999999
2016-09-29,0.917,0.92,0.915,0.92,74700,0.8909999999999999
2016-09-30,0.92,0.92,0.92,0.92,0,0.92
2016-10-03,0.88,0.88,0.88,0.88,6000,0.88
2016-10-04,0.88,0.88,0.88,0.88,25000,0.88
2016-10-05,0.92,0.92,0.91,0.91,105800,0.91
2016-10-06,0.92,0.92,0.915,0.92,248800,0.92
2016-10-07,0.92,0.92,0.915,0.92,123000,0.92
2016-10-10,0.92,0.925,0.917,0.925,211500,0.925
2016-10-11,0.92,0.925,0.915,0.925,137200,0.925
2016-10-12,0.925,0.925,0.92,0.92,228300,0.92
2016-10-13,0.925,0.935,0.92,0.935,150800,0.935
2016-10-14,0.92,0.935,0.915,0.935,165000,0.935
2016-10-17,0.93,0.93,0.915,0.915,53000,0.915
2016-10-18,0.915,0.915,0.915,0.915,70500,0.915
2016-10-19,0.91,0.925,0.875,0.925,119800,0.925
2016-10-20,0.925,0.925,0.925,0.925,0,0.925
2016-10-21,0.9,0.92,0.89,0.9,231300,0.9
2016-10-24,0.88,0.88,0.87,0.87,71200,0.87
2016-10-25,0.88,0.88,0.86,0.86,28300,0.86
2016-10-26,0.875,0.875,0.875,0.875,2200,0.875
2016-10-27,0.95,0.98,0.925,0.94,1634900,0.94
2016-10-28,0.95,0.96,0.945,0.95,507100,0.95
2016-10-31,0.96,1.025,0.96,1.0,152600,1.0
2016-11-01,1.01,1.065,1.0,1.015,229900,1.015
2016-11-02,1.03,1.04,0.98,0.98,348900,0.98
2016-11-03,0.98,1.02,0.93,0.965,145100,0.965
2016-11-04,0.975,1.02,0.95,0.95,156600,0.95
2016-11-07,0.97,1.04,0.96,1.02,146600,1.02
2016-11-08,1.015,1.015,0.965,0.98,247400,0.98
2016-11-09,0.99,1.035,0.98,1.035,1785500,1.035
2016-11-10,1.03,1.065,1.03,1.065,269400,1.065
2016-11-11,1.065,1.065,1.045,1.06,30800,1.06
2016-11-14,1.055,1.06,1.055,1.06,22500,1.06
2016-11-15,1.055,1.055,1.0,1.0,23500,1.0
2016-11-16,1.05,1.06,1.02,1.04,68300,1.04
2016-11-17,1.04,1.04,1.04,1.04,0,1.04
2016-11-18,1.04,1.04,1.04,1.04,0,1.04
2016-11-21,1.01,1.03,0.99,1.0,47600,1.0
2016-11-22,0.99,1.0,0.97,1.0,63800,1.0
2016-11-23,1.0,1.0,1.0,1.0,1000,1.0
2016-11-24,0.97,0.97,0.96,0.965,12800,0.965
2016-11-25,1.0,1.0,0.975,1.0,77000,1.0
2016-11-28,1.02,1.02,0.955,1.0,59200,1.0
2016-11-29,0.98,0.99,0.98,0.99,26500,0.99
2016-11-30,0.99,1.03,0.98,1.02,200700,1.02
2016-12-01,1.005,1.005,0.98,0.98,6400,0.98
2016-12-02,0.99,0.99,0.99,0.99,15000,0.99
2016-12-05,1.01,1.03,1.01,1.01,2400,1.01
2016-12-06,0.98,0.98,0.975,0.975,11700,0.975
2016-12-07,0.96,0.99,0.94,0.99,13600,0.99
2016-12-08,0.95,0.99,0.95,0.95,4600,0.95
2016-12-09,0.95,0.95,0.95,0.95,0,0.95
2016-12-12,0.97,1.0,0.97,0.985,22300,0.985
2016-12-13,0.965,0.965,0.95,0.95,36600,0.95
2016-12-14,0.965,0.965,0.95,0.965,2000,0.965
2016-12-15,0.955,0.965,0.94,0.965,29000,0.965
2016-12-16,0.95,0.97,0.95,0.97,59300,0.97
2016-12-19,0.95,0.96,0.94,0.94,18200,0.94
2016-12-20,0.94,0.955,0.935,0.945,78900,0.945
2016-12-21,0.955,0.96,0.94,0.945,42200,0.945
2016-12-22,0.94,0.94,0.93,0.94,89300,0.94
2016-12-23,0.945,0.965,0.945,0.965,78900,0.965
2016-12-26,0.965,0.965,0.965,0.965,0,0.965
2016-12-27,0.965,0.965,0.965,0.965,0,0.965
2016-12-28,0.95,0.95,0.92,0.92,43600,0.92
2016-12-29,0.92,0.945,0.92,0.925,28100,0.925
2016-12-30,0.95,0.95,0.925,0.925,28500,0.925
