Date,Open,High,Low,Close,Volume,Adj Close
2014-08-14,1.05,1.05,1.05,1.05,10100,0.9940000000000001
2014-08-15,1.05,1.1,1.05,1.05,5500,0.9940000000000001
2014-08-18,1.035,1.035,1.035,1.035,3500,0.9798
2014-08-19,1.035,1.035,1.035,1.035,0,0.9798
2014-08-20,1.035,1.035,1.035,1.035,16500,0.9798
2014-08-21,1.035,1.035,1.035,1.035,0,0.9798
2014-08-22,1.035,1.035,1.035,1.035,0,0.9798
2014-08-25,1.035,1.035,1.035,1.035,0,0.9798
2014-08-26,1.04,1.05,1.04,1.05,50000,0.9940000000000001
2014-08-27,1.035,1.035,1.035,1.035,1500,0.9798
2014-08-28,1.035,1.035,1.035,1.035,1100,0.9798
2014-08-29,1.03,1.03,1.03,1.03,1100,0.9751
2014-09-01,1.03,1.03,1.03,1.03,0,0.9751
2014-09-02,1.03,1.03,1.03,1.03,0,0.9751
2014-09-03,1.03,1.03,1.03,1.03,0,0.9751
2014-09-04,1.03,1.03,1.03,1.03,0,0.9751
2014-09-05,1.03,1.03,1.03,1.03,0,0.9751
2014-09-08,1.01,1.01,1.01,1.01,4200,0.9562
2014-09-09,1.01,1.01,1.01,1.01,0,0.9562
2014-09-10,1.01,1.01,1.01,1.01,0,0.9562
2014-09-11,1.01,1.01,1.01,1.01,0,0.9562
2014-09-12,1.01,1.01,1.01,1.01,0,0.9562
2014-09-15,0.935,0.935,0.935,0.935,5000,0.8852
2014-09-16,0.98,0.98,0.98,0.98,1000,0.9278
2014-09-17,1.0,1.0,1.0,1.0,1500,0.9467
2014-09-18,1.0,1.0,1.0,1.0,0,0.9467
2014-09-19,1.0,1.0,1.0,1.0,0,0.9467
2014-09-22,1.0,1.0,1.0,1.0,0,0.9467
2014-09-23,1.0,1.0,1.0,1.0,5000,0.9467
2014-09-24,1.0,1.0,1.0,1.0,0,0.9467
2014-09-25,1.0,1.0,1.0,1.0,0,0.9467
2014-09-26,0.98,0.98,0.94,0.94,13300,0.8899
2014-09-29,0.94,0.94,0.94,0.94,0,0.8899
2014-09-30,0.94,0.94,0.94,0.94,0,0.8899
2014-10-01,0.94,0.94,0.94,0.94,0,0.8899
2014-10-02,0.95,0.95,0.95,0.95,31600,0.8994
2014-10-03,0.96,0.96,0.96,0.96,109300,0.9088
2014-10-06,0.96,0.97,0.96,0.97,145000,0.9183
2014-10-07,0.96,0.97,0.96,0.97,80000,0.9183
2014-10-08,0.97,0.97,0.97,0.97,0,0.9183
2014-10-09,0.96,0.97,0.96,0.97,100000,0.9183
2014-10-10,0.97,0.97,0.97,0.97,0,0.9183
2014-10-13,0.97,0.97,0.97,0.97,0,0.9183
2014-10-14,0.97,0.97,0.97,0.97,0,0.9183
2014-10-15,0.97,0.97,0.97,0.97,0,0.9183
2014-10-16,0.97,0.97,0.97,0.97,0,0.9183
2014-10-17,0.97,0.97,0.97,0.97,0,0.9183
2014-10-20,0.97,0.97,0.97,0.97,0,0.9183
2014-10-21,0.97,0.97,0.97,0.97,0,0.9183
2014-10-22,0.97,0.97,0.97,0.97,0,0.9183
2014-10-23,0.96,0.96,0.96,0.96,7700,0.9088
2014-10-24,0.96,0.96,0.96,0.96,5100,0.9088
2014-10-27,0.96,0.96,0.96,0.96,0,0.9088
2014-10-28,0.96,0.96,0.96,0.96,0,0.9088
2014-10-29,0.96,0.96,0.96,0.96,0,0.9088
2014-10-30,0.96,0.96,0.96,0.96,0,0.9088
2014-10-31,0.96,0.96,0.96,0.96,0,0.9088
2014-11-03,0.96,0.96,0.96,0.96,0,0.9088
2014-11-04,0.96,0.96,0.96,0.96,0,0.9088
2014-11-05,0.96,0.96,0.96,0.96,0,0.9088
2014-11-06,0.96,0.96,0.96,0.96,0,0.9088
2014-11-07,0.96,0.96,0.96,0.96,0,0.9088
2014-11-10,0.96,0.96,0.96,0.96,0,0.9088
2014-11-11,0.96,0.96,0.96,0.96,0,0.9088
2014-11-12,0.96,0.96,0.96,0.96,0,0.9088
2014-11-13,0.96,0.96,0.96,0.96,0,0.9088
2014-11-14,0.96,0.96,0.96,0.96,0,0.9088
2014-11-17,0.96,0.96,0.96,0.96,0,0.9088
2014-11-18,0.86,0.89,0.86,0.89,18000,0.8425
2014-11-19,0.89,0.89,0.89,0.89,10000,0.8425
2014-11-20,0.89,0.89,0.89,0.89,0,0.8425
2014-11-21,0.89,0.89,0.89,0.89,10000,0.8425
2014-11-24,0.89,0.89,0.89,0.89,0,0.8425
2014-11-25,0.86,0.87,0.86,0.87,11000,0.8236
2014-11-26,0.87,0.87,0.87,0.87,5000,0.8236
2014-11-27,0.86,0.86,0.86,0.86,10000,0.8141
2014-11-28,0.88,0.88,0.86,0.87,49000,0.8236
2014-12-01,0.86,0.86,0.83,0.83,11000,0.7857
2014-12-02,0.83,0.83,0.83,0.83,30000,0.7857
2014-12-03,0.83,0.83,0.83,0.83,0,0.7857
2014-12-04,0.83,0.85,0.83,0.85,30000,0.8047
2014-12-05,0.85,0.85,0.85,0.85,0,0.8047
2014-12-08,0.85,0.85,0.85,0.85,0,0.8047
2014-12-09,0.85,0.85,0.85,0.85,0,0.8047
2014-12-10,0.88,0.88,0.88,0.88,1000,0.8331
2014-12-11,0.83,0.84,0.83,0.83,14900,0.7857
2014-12-12,0.83,0.83,0.83,0.83,0,0.7857
2014-12-15,0.83,0.83,0.83,0.83,0,0.7857
2014-12-16,0.84,0.84,0.81,0.81,30000,0.7668
2014-12-17,0.835,0.835,0.835,0.835,4000,0.7905
2014-12-18,0.83,0.83,0.83,0.83,15000,0.7857
2014-12-19,0.83,0.83,0.83,0.83,0,0.7857
2014-12-22,0.84,0.9,0.84,0.9,38500,0.852
2014-12-23,0.9,0.9,0.9,0.9,0,0.852
2014-12-24,0.9,0.9,0.9,0.9,0,0.852
2014-12-25,0.9,0.9,0.9,0.9,0,0.852
2014-12-26,0.9,0.9,0.9,0.9,0,0.852
2014-12-29,0.9,0.9,0.9,0.9,0,0.852
2014-12-30,0.9,0.9,0.9,0.9,0,0.852
2014-12-31,0.9,0.9,0.9,0.9,0,0.852
2015-01-01,0.9,0.9,0.9,0.9,0,0.852
2015-01-02,0.9,0.9,0.9,0.9,0,0.852
2015-01-05,0.9,0.9,0.9,0.9,0,0.852
2015-01-06,0.9,0.9,0.9,0.9,0,0.852
2015-01-07,0.9,0.9,0.9,0.9,0,0.852
2015-01-08,0.9,0.9,0.9,0.9,0,0.852
2015-01-09,0.9,0.9,0.9,0.9,3300,0.852
2015-01-12,0.91,0.91,0.91,0.91,25000,0.8615
2015-01-13,0.94,0.94,0.94,0.94,10000,0.8899
2015-01-14,0.94,0.94,0.94,0.94,0,0.8899
2015-01-15,0.9,0.9,0.9,0.9,6000,0.852
2015-01-16,0.9,0.9,0.9,0.9,0,0.852
2015-01-19,0.9,0.9,0.9,0.9,0,0.852
2015-01-20,0.9,0.9,0.9,0.9,0,0.852
2015-01-21,0.9,0.9,0.9,0.9,600,0.852
2015-01-22,0.9,0.9,0.9,0.9,0,0.852
2015-01-23,0.9,0.9,0.9,0.9,0,0.852
2015-01-26,0.9,0.9,0.9,0.9,0,0.852
2015-01-27,0.9,0.9,0.9,0.9,9300,0.852
2015-01-28,0.85,0.85,0.85,0.85,21000,0.8047
2015-01-29,0.86,0.86,0.85,0.85,7700,0.8047
2015-01-30,0.85,0.85,0.85,0.85,0,0.8047
2015-02-02,0.85,0.85,0.85,0.85,0,0.8047
2015-02-03,0.92,0.92,0.86,0.86,30000,0.8141
2015-02-04,0.86,0.86,0.86,0.86,0,0.8141
2015-02-05,0.9,0.9,0.9,0.9,19000,0.852
2015-02-06,0.9,0.9,0.9,0.9,0,0.852
2015-02-09,0.9,0.9,0.9,0.9,0,0.852
2015-02-10,0.9,0.9,0.9,0.9,0,0.852
2015-02-11,0.9,0.9,0.9,0.9,0,0.852
2015-02-12,0.9,0.9,0.87,0.9,14400,0.852
2015-02-13,0.9,0.9,0.9,0.9,0,0.852
2015-02-16,0.9,0.9,0.9,0.9,0,0.852
2015-02-17,0.9,0.9,0.9,0.9,0,0.852
2015-02-18,0.9,0.9,0.9,0.9,0,0.852
2015-02-19,0.9,0.9,0.9,0.9,0,0.852
2015-02-20,0.9,0.9,0.9,0.9,0,0.852
2015-02-23,0.9,0.9,0.9,0.9,0,0.852
2015-02-24,0.9,0.91,0.9,0.9,14600,0.852
2015-02-25,0.9,0.9,0.9,0.9,0,0.852
2015-02-26,0.9,0.9,0.9,0.9,0,0.852
2015-02-27,0.85,0.85,0.85,0.85,30000,0.8047
2015-03-02,0.85,0.85,0.85,0.85,2500,0.8047
2015-03-03,0.85,0.85,0.85,0.85,0,0.8047
2015-03-04,0.86,0.86,0.83,0.83,10000,0.7857
2015-03-05,0.83,0.83,0.83,0.83,0,0.7857
2015-03-06,0.83,0.83,0.83,0.83,0,0.7857
2015-03-09,0.83,0.83,0.83,0.83,3500,0.7857
2015-03-10,0.83,0.83,0.83,0.83,0,0.7857
2015-03-11,0.83,0.83,0.83,0.83,0,0.7857
2015-03-12,0.83,0.83,0.83,0.83,0,0.7857
2015-03-13,0.83,0.83,0.83,0.83,0,0.7857
2015-03-16,0.835,0.835,0.83,0.83,10000,0.7857
2015-03-17,0.83,0.83,0.83,0.83,0,0.7857
2015-03-18,0.83,0.83,0.83,0.83,0,0.7857
2015-03-19,0.83,0.83,0.83,0.83,0,0.7857
2015-03-20,0.83,0.83,0.83,0.83,0,0.7857
2015-03-23,0.83,0.83,0.83,0.83,0,0.7857
2015-03-24,0.83,0.83,0.83,0.83,20000,0.7926
2015-03-25,0.85,0.85,0.85,0.85,17700,0.8117
2015-03-26,0.85,0.85,0.85,0.85,0,0.8117
2015-03-27,0.85,0.85,0.85,0.85,0,0.8117
2015-03-30,0.81,0.81,0.81,0.81,12000,0.7735
2015-03-31,0.82,0.84,0.82,0.84,11700,0.8021
2015-04-01,0.815,0.815,0.815,0.815,5000,0.7782
2015-04-02,0.83,0.83,0.83,0.83,2000,0.7926
2015-04-03,0.83,0.83,0.83,0.83,0,0.7926
2015-04-06,0.83,0.83,0.83,0.83,0,0.7926
2015-04-07,0.83,0.83,0.83,0.83,0,0.7926
2015-04-08,0.83,0.83,0.83,0.83,0,0.7926
2015-04-09,0.83,0.83,0.82,0.82,25000,0.7829999999999999
2015-04-10,0.82,0.82,0.82,0.82,0,0.7829999999999999
2015-04-13,0.82,0.82,0.82,0.82,0,0.7829999999999999
2015-04-14,0.83,0.83,0.83,0.83,10200,0.7926
2015-04-15,0.83,0.83,0.83,0.83,0,0.7926
2015-04-16,0.83,0.83,0.83,0.83,20000,0.7926
2015-04-17,0.83,0.83,0.83,0.83,20000,0.7926
2015-04-20,0.83,0.83,0.83,0.83,15000,0.7926
2015-04-21,0.85,0.9,0.85,0.87,42200,0.8308
2015-04-22,0.85,0.9,0.845,0.845,55400,0.8069
2015-04-23,0.83,0.83,0.83,0.83,10000,0.7926
2015-04-24,0.9,0.9,0.9,0.9,7500,0.8594
2015-04-27,0.84,0.84,0.83,0.83,50000,0.7926
2015-04-28,0.9,0.9,0.84,0.84,14000,0.8021
2015-04-29,0.88,0.88,0.83,0.83,27000,0.7926
2015-04-30,0.83,0.83,0.83,0.83,0,0.7926
2015-05-01,0.83,0.83,0.83,0.83,0,0.7926
2015-05-04,0.835,0.835,0.83,0.83,42900,0.7926
2015-05-05,0.9,0.9,0.9,0.9,1500,0.8594
2015-05-06,0.9,0.9,0.9,0.9,0,0.8594
2015-05-07,0.9,0.9,0.9,0.9,0,0.8594
2015-05-08,0.9,0.9,0.9,0.9,0,0.8594
2015-05-11,0.84,0.84,0.825,0.83,32000,0.7926
2015-05-12,0.845,0.86,0.845,0.86,1900,0.8212
2015-05-13,0.82,0.82,0.82,0.82,28000,0.7829999999999999
2015-05-14,0.825,0.825,0.82,0.82,40100,0.7829999999999999
2015-05-15,0.82,0.82,0.82,0.82,0,0.7829999999999999
2015-05-18,0.82,0.82,0.82,0.82,0,0.7829999999999999
2015-05-19,0.9,0.9,0.9,0.9,7000,0.8594
2015-05-20,0.9,0.9,0.9,0.9,0,0.8594
2015-05-21,0.9,0.9,0.9,0.9,0,0.8594
2015-05-22,0.9,0.9,0.9,0.9,0,0.8594
2015-05-25,0.9,0.9,0.9,0.9,0,0.8594
2015-05-26,0.89,0.89,0.89,0.89,20000,0.8499
2015-05-27,0.89,0.89,0.89,0.89,0,0.8499
2015-05-28,0.89,0.89,0.89,0.89,0,0.8499
2015-05-29,0.89,0.95,0.89,0.95,238900,0.9072
2015-06-01,0.95,0.95,0.95,0.95,0,0.9072
2015-06-02,0.9,0.9,0.86,0.86,10000,0.8212
2015-06-03,0.86,0.86,0.86,0.86,0,0.8212
2015-06-04,0.84,0.84,0.84,0.84,20000,0.8021
2015-06-05,0.84,0.84,0.84,0.84,0,0.8021
2015-06-08,0.84,0.84,0.84,0.84,0,0.8021
2015-06-09,0.84,0.84,0.84,0.84,0,0.8021
2015-06-10,0.84,0.84,0.84,0.84,0,0.8021
2015-06-11,0.9,0.9,0.9,0.9,5400,0.8594
2015-06-12,0.9,0.9,0.9,0.9,0,0.8594
2015-06-15,0.84,0.84,0.84,0.84,30000,0.8021
2015-06-16,0.84,0.84,0.84,0.84,0,0.8021
2015-06-17,0.85,0.85,0.835,0.835,31500,0.7973
2015-06-18,0.835,0.835,0.835,0.835,14000,0.7973
2015-06-19,0.87,0.87,0.87,0.87,10000,0.8308
2015-06-22,0.83,0.83,0.83,0.83,25000,0.7926
2015-06-23,0.825,0.825,0.825,0.825,25000,0.7878
2015-06-24,0.825,0.825,0.825,0.825,0,0.7878
2015-06-25,0.815,0.815,0.81,0.81,25000,0.7735
2015-06-26,0.815,0.815,0.815,0.815,7500,0.7782
2015-06-29,0.815,0.815,0.81,0.81,29800,0.7735
2015-06-30,0.8,0.8,0.8,0.8,36400,0.7639
2015-07-01,0.8,0.8,0.8,0.8,0,0.7639
2015-07-02,0.8,0.8,0.8,0.8,0,0.7639
2015-07-03,0.8,0.8,0.8,0.8,0,0.7639
2015-07-06,0.855,0.855,0.855,0.855,8000,0.8164
2015-07-07,0.85,0.85,0.85,0.85,5600,0.8117
2015-07-08,0.85,0.85,0.85,0.85,18200,0.8117
2015-07-09,0.85,0.85,0.85,0.85,0,0.8117
2015-07-10,0.85,0.85,0.85,0.85,0,0.8117
2015-07-13,0.85,0.85,0.85,0.85,0,0.8117
2015-07-14,0.83,0.83,0.81,0.81,12500,0.7735
2015-07-15,0.81,0.81,0.81,0.81,0,0.7735
2015-07-16,0.81,0.81,0.81,0.81,0,0.7735
2015-07-17,0.85,0.85,0.85,0.85,1700,0.8117
2015-07-20,0.85,0.85,0.85,0.85,16000,0.8117
2015-07-21,0.86,0.86,0.86,0.86,200,0.8212
2015-07-22,0.86,0.86,0.86,0.86,0,0.8212
2015-07-23,0.835,0.84,0.835,0.84,25800,0.8021
2015-07-24,0.84,0.84,0.835,0.835,20000,0.7973
2015-07-27,0.835,0.835,0.835,0.835,0,0.7973
2015-07-28,0.835,0.835,0.835,0.835,0,0.7973
2015-07-29,0.84,0.84,0.84,0.84,1000,0.8021
2015-07-30,0.835,0.835,0.83,0.83,10000,0.7926
2015-07-31,0.83,0.84,0.83,0.84,9500,0.8021
2015-08-03,0.835,0.835,0.835,0.835,10000,0.7973
2015-08-04,0.835,0.835,0.835,0.835,0,0.7973
2015-08-05,0.835,0.835,0.835,0.835,0,0.7973
2015-08-06,0.835,0.835,0.835,0.835,0,0.7973
2015-08-07,0.84,0.84,0.83,0.83,13600,0.7926
2015-08-10,0.82,0.82,0.82,0.82,44300,0.7829999999999999
2015-08-11,0.82,0.85,0.815,0.85,35600,0.8117
2015-08-12,0.85,0.85,0.85,0.85,0,0.8117
2015-08-13,0.85,0.85,0.85,0.85,5800,0.8117
2015-08-14,0.85,0.85,0.85,0.85,0,0.8117
2015-08-17,0.85,0.85,0.85,0.85,0,0.8117
2015-08-18,0.85,0.85,0.85,0.85,0,0.8117
2015-08-19,0.85,0.85,0.85,0.85,0,0.8117
2015-08-20,0.85,0.85,0.85,0.85,5800,0.8117
2015-08-24,0.85,0.85,0.81,0.81,15200,0.7735
2015-08-25,0.81,0.81,0.81,0.81,1000,0.7735
2015-08-26,0.81,0.81,0.81,0.81,0,0.7735
2015-08-27,0.81,0.81,0.81,0.81,15500,0.7735
2015-08-28,0.79,0.79,0.78,0.78,20000,0.7448
2015-08-31,0.78,0.78,0.78,0.78,0,0.7448
2015-09-01,0.78,0.78,0.78,0.78,0,0.7448
2015-09-02,0.78,0.78,0.78,0.78,0,0.7448
2015-09-03,0.78,0.78,0.78,0.78,0,0.7448
2015-09-04,0.77,0.77,0.74,0.74,15200,0.7066
2015-09-07,0.81,0.81,0.81,0.81,1600,0.7735
2015-09-08,0.81,0.81,0.81,0.81,0,0.7735
2015-09-09,0.81,0.81,0.81,0.81,0,0.7735
2015-09-10,0.81,0.81,0.81,0.81,0,0.7735
2015-09-11,0.81,0.81,0.81,0.81,0,0.7735
2015-09-14,0.81,0.81,0.81,0.81,0,0.7735
2015-09-15,0.81,0.81,0.81,0.81,0,0.7735
2015-09-16,0.83,0.85,0.83,0.85,14900,0.8117
2015-09-17,0.85,0.85,0.85,0.85,0,0.8117
2015-09-18,0.85,0.85,0.85,0.85,0,0.8117
2015-09-21,0.85,0.85,0.85,0.85,0,0.8117
2015-09-22,0.85,0.85,0.85,0.85,0,0.8117
2015-09-23,0.85,0.85,0.85,0.85,0,0.8185
2015-09-24,0.85,0.85,0.85,0.85,0,0.8185
2015-09-25,0.85,0.85,0.85,0.85,0,0.8185
2015-09-28,0.85,0.85,0.85,0.85,0,0.8185
2015-09-29,0.85,0.85,0.85,0.85,0,0.8185
2015-09-30,0.85,0.85,0.85,0.85,0,0.8185
2015-10-01,0.85,0.85,0.85,0.85,0,0.8185
2015-10-02,0.85,0.85,0.85,0.85,0,0.8185
2015-10-05,0.85,0.87,0.84,0.86,98100,0.8282
2015-10-06,0.875,0.875,0.875,0.875,2800,0.8426
2015-10-07,0.84,0.84,0.84,0.84,10000,0.8089
2015-10-08,0.85,0.86,0.85,0.85,30000,0.8185
2015-10-09,0.835,0.835,0.83,0.83,27100,0.7993
2015-10-12,0.865,0.87,0.865,0.87,25000,0.8378
2015-10-13,0.87,0.87,0.87,0.87,0,0.8378
2015-10-14,0.88,0.88,0.855,0.855,10700,0.8234
2015-10-15,0.865,0.865,0.865,0.865,1800,0.833
2015-10-16,0.865,0.865,0.865,0.865,0,0.833
2015-10-19,0.87,0.87,0.84,0.84,100000,0.8089
2015-10-20,0.86,0.87,0.86,0.87,30000,0.8378
2015-10-21,0.87,0.87,0.87,0.87,0,0.8378
2015-10-22,0.88,0.88,0.88,0.88,15000,0.8474
2015-10-23,0.89,0.9,0.89,0.9,1900,0.8667
2015-10-26,0.9,0.9,0.9,0.9,0,0.8667
2015-10-27,0.9,0.9,0.9,0.9,0,0.8667
2015-10-28,0.9,0.9,0.9,0.9,0,0.8667
2015-10-29,0.9,0.9,0.9,0.9,0,0.8667
2015-10-30,0.9,0.9,0.9,0.9,0,0.8667
2015-11-02,0.9,0.9,0.9,0.9,0,0.8667
2015-11-03,0.92,0.92,0.9,0.92,20600,0.8859999999999999
2015-11-04,0.92,0.92,0.92,0.92,0,0.8859999999999999
2015-11-05,0.92,0.92,0.92,0.92,0,0.8859999999999999
2015-11-06,0.92,0.92,0.92,0.92,0,0.8859999999999999
2015-11-09,0.92,0.92,0.92,0.92,0,0.8859999999999999
2015-11-10,0.87,0.87,0.87,0.87,3000,0.8378
2015-11-11,0.915,0.92,0.845,0.845,68000,0.8137
2015-11-12,0.87,0.91,0.87,0.91,61200,0.8763
2015-11-13,0.91,0.91,0.91,0.91,0,0.8763
2015-11-16,0.91,0.91,0.91,0.91,0,0.8763
2015-11-17,0.895,0.91,0.895,0.905,43300,0.8715
2015-11-18,0.905,0.905,0.905,0.905,0,0.8715
2015-11-19,0.92,0.955,0.92,0.955,30000,0.9197
2015-11-20,0.955,0.955,0.955,0.955,0,0.9197
2015-11-23,0.955,0.955,0.955,0.955,600,0.9197
2015-11-24,0.93,0.93,0.93,0.93,20000,0.8956
2015-11-25,0.93,0.93,0.93,0.93,0,0.8956
2015-11-26,0.915,0.94,0.915,0.915,92100,0.8811
2015-11-27,0.915,0.915,0.915,0.915,0,0.8811
2015-11-30,0.915,0.915,0.915,0.915,0,0.8811
2015-12-01,0.915,0.915,0.915,0.915,0,0.8811
2015-12-02,0.915,0.915,0.915,0.915,0,0.8811
2015-12-03,0.915,0.915,0.915,0.915,0,0.8811
2015-12-04,0.92,0.92,0.91,0.92,26500,0.8859999999999999
2015-12-07,0.92,0.92,0.92,0.92,0,0.8859999999999999
2015-12-08,0.925,0.965,0.92,0.92,11000,0.8859999999999999
2015-12-09,0.935,0.935,0.935,0.935,10600,0.9004
2015-12-10,0.935,0.935,0.935,0.935,100,0.9004
2015-12-11,0.935,0.935,0.935,0.935,0,0.9004
2015-12-14,0.935,0.935,0.935,0.935,0,0.9004
2015-12-15,0.935,0.935,0.935,0.935,0,0.9004
2015-12-16,0.95,0.95,0.95,0.95,5000,0.9148
2015-12-17,0.95,0.97,0.95,0.97,30300,0.9341
2015-12-18,0.97,0.97,0.97,0.97,0,0.9341
2015-12-21,0.97,0.97,0.97,0.97,0,0.9341
2015-12-22,0.97,0.97,0.97,0.97,0,0.9341
2015-12-23,0.985,0.99,0.985,0.99,5000,0.9534
2015-12-24,0.99,1.0,0.99,1.0,38100,0.963
2015-12-25,1.0,1.0,1.0,1.0,0,0.963
2015-12-28,1.0,1.0,1.0,1.0,0,0.963
2015-12-29,1.0,1.0,0.985,0.99,20300,0.9534
2015-12-30,0.995,0.995,0.995,0.995,5600,0.9582
2015-12-31,0.995,0.995,0.995,0.995,0,0.9582
2016-01-01,0.995,0.995,0.995,0.995,0,0.9582
2016-01-04,1.0,1.0,0.98,0.98,12000,0.9437
2016-01-05,0.98,0.98,0.98,0.98,0,0.9437
2016-01-06,0.98,0.98,0.98,0.98,0,0.9437
2016-01-07,0.95,0.95,0.905,0.905,25000,0.8715
2016-01-08,0.92,0.92,0.92,0.92,5000,0.8859999999999999
2016-01-11,0.92,0.92,0.92,0.92,0,0.8859999999999999
2016-01-12,0.93,0.93,0.93,0.93,1200,0.8956
2016-01-13,0.93,0.93,0.93,0.93,0,0.8956
2016-01-14,0.93,0.93,0.93,0.93,0,0.8956
2016-01-15,0.93,0.93,0.93,0.93,0,0.8956
2016-01-18,0.93,0.93,0.93,0.93,0,0.8956
2016-01-19,0.89,0.89,0.88,0.88,7700,0.8474
2016-01-20,0.89,0.89,0.83,0.83,30000,0.7993
2016-01-21,0.89,0.91,0.89,0.91,12000,0.8763
2016-01-22,0.91,0.91,0.91,0.91,5700,0.8763
2016-01-25,0.91,0.91,0.91,0.91,0,0.8763
2016-01-26,0.91,0.91,0.91,0.91,0,0.8763
2016-01-27,0.95,0.955,0.94,0.955,70100,0.9197
2016-01-28,0.96,0.965,0.925,0.925,3900,0.8908
2016-01-29,0.91,0.95,0.91,0.95,9900,0.9148
2016-02-01,0.95,0.95,0.95,0.95,0,0.9148
2016-02-02,0.95,0.95,0.95,0.95,0,0.9148
2016-02-03,0.96,0.96,0.94,0.94,46300,0.9052
2016-02-04,0.94,0.94,0.94,0.94,0,0.9052
2016-02-05,0.94,0.94,0.94,0.94,200,0.9052
2016-02-08,0.94,0.94,0.94,0.94,9800,0.9052
2016-02-09,0.94,0.94,0.94,0.94,0,0.9052
2016-02-10,0.92,0.925,0.92,0.925,5000,0.8908
2016-02-11,0.91,0.91,0.91,0.91,10000,0.8763
2016-02-12,0.935,0.945,0.935,0.945,15000,0.91
2016-02-15,0.945,0.945,0.945,0.945,0,0.91
2016-02-16,0.925,0.925,0.92,0.92,10300,0.8859999999999999
2016-02-17,0.925,0.925,0.92,0.92,5000,0.8859999999999999
2016-02-18,0.925,0.95,0.92,0.95,17200,0.9148
2016-02-19,0.95,0.95,0.95,0.95,0,0.9148
2016-02-22,0.94,0.94,0.925,0.925,25000,0.8908
2016-02-23,0.94,0.94,0.93,0.93,14000,0.8956
2016-02-24,0.93,0.93,0.93,0.93,0,0.8956
2016-02-25,0.93,0.93,0.93,0.93,0,0.8956
2016-02-26,0.93,0.93,0.93,0.93,0,0.8956
2016-02-29,0.93,0.93,0.93,0.93,12000,0.8956
2016-03-01,0.93,0.93,0.93,0.93,0,0.8956
2016-03-02,0.93,0.93,0.93,0.93,0,0.8956
2016-03-03,0.935,0.955,0.935,0.95,56300,0.9148
2016-03-04,0.95,0.95,0.95,0.95,0,0.9148
2016-03-07,0.95,0.95,0.95,0.95,0,0.9148
2016-03-08,0.95,0.95,0.95,0.95,0,0.9148
2016-03-09,0.95,0.95,0.95,0.95,0,0.9148
2016-03-10,0.95,0.95,0.95,0.95,0,0.9148
2016-03-11,0.955,0.955,0.95,0.95,17500,0.9148
2016-03-14,0.94,0.94,0.94,0.94,10100,0.9052
2016-03-15,0.94,0.94,0.91,0.91,20000,0.8763
2016-03-16,0.91,0.91,0.91,0.91,3500,0.8763
2016-03-17,0.91,0.91,0.91,0.91,0,0.8903
2016-03-18,0.91,0.91,0.91,0.91,0,0.8903
2016-03-21,0.91,0.91,0.91,0.91,0,0.8903
2016-03-22,0.91,0.91,0.91,0.91,0,0.8903
2016-03-23,0.91,0.91,0.91,0.91,0,0.8903
2016-03-24,0.92,0.92,0.92,0.92,2500,0.9001
2016-03-25,0.92,0.92,0.92,0.92,0,0.9001
2016-03-28,0.92,0.92,0.92,0.92,0,0.9001
2016-03-29,0.915,0.915,0.915,0.915,2000,0.8952
2016-03-30,0.915,0.915,0.915,0.915,0,0.8952
2016-03-31,0.915,0.915,0.915,0.915,0,0.8952
2016-04-01,0.91,0.91,0.905,0.905,11100,0.8854
2016-04-04,0.92,0.935,0.92,0.935,32700,0.9148
2016-04-05,0.93,0.93,0.93,0.93,20800,0.9099
2016-04-06,0.92,0.92,0.92,0.92,20000,0.9001
2016-04-07,0.91,0.91,0.91,0.91,5700,0.8903
2016-04-08,0.91,0.91,0.91,0.91,2700,0.8903
2016-04-11,0.91,0.91,0.91,0.91,0,0.8903
2016-04-12,0.9,0.9,0.88,0.88,20000,0.861
2016-04-13,0.88,0.925,0.88,0.925,21200,0.905
2016-04-14,0.925,0.925,0.925,0.925,0,0.905
2016-04-15,0.925,0.925,0.925,0.925,0,0.905
2016-04-18,0.925,0.925,0.925,0.925,0,0.905
2016-04-19,0.925,0.925,0.925,0.925,0,0.905
2016-04-20,0.91,0.915,0.91,0.915,16300,0.8952
2016-04-21,0.925,0.925,0.925,0.925,10800,0.905
2016-04-22,0.925,0.925,0.925,0.925,9100,0.905
2016-04-25,0.925,0.925,0.925,0.925,0,0.905
2016-04-26,0.93,0.93,0.93,0.93,22000,0.9099
2016-04-27,0.925,0.925,0.915,0.915,35800,0.8952
2016-04-28,0.915,0.915,0.885,0.9,147600,0.8805
2016-04-29,0.9,0.935,0.9,0.935,44500,0.9148
2016-05-02,0.935,0.935,0.935,0.935,0,0.9148
2016-05-03,0.935,0.955,0.935,0.955,36000,0.9343
2016-05-04,0.955,0.955,0.955,0.955,0,0.9343
2016-05-05,0.955,0.955,0.955,0.955,0,0.9343
2016-05-06,0.955,0.955,0.955,0.955,0,0.9343
2016-05-09,0.94,0.94,0.94,0.94,10600,0.9197
2016-05-10,0.94,0.94,0.94,0.94,0,0.9197
2016-05-11,0.93,0.93,0.93,0.93,2400,0.9099
2016-05-12,0.93,0.93,0.905,0.905,20000,0.8854
2016-05-13,0.91,0.91,0.89,0.89,15300,0.8707
2016-05-16,0.925,0.93,0.925,0.93,700,0.9099
2016-05-17,0.93,0.93,0.93,0.93,0,0.9099
2016-05-18,0.91,0.91,0.91,0.91,5000,0.8903
2016-05-19,0.91,0.91,0.91,0.91,0,0.8903
2016-05-20,0.93,0.93,0.93,0.93,1300,0.9099
2016-05-23,0.935,0.94,0.935,0.94,20000,0.9197
2016-05-24,0.92,0.92,0.92,0.92,600,0.9001
2016-05-25,0.93,0.93,0.92,0.92,2700,0.9001
2016-05-26,0.92,0.92,0.92,0.92,0,0.9001
2016-05-27,0.94,0.94,0.94,0.94,2800,0.9197
2016-05-30,0.94,0.95,0.94,0.95,8000,0.9294
2016-05-31,0.935,0.95,0.935,0.95,22100,0.9294
2016-06-01,0.935,0.935,0.935,0.935,700,0.9148
2016-06-02,0.935,0.935,0.935,0.935,0,0.9148
2016-06-03,0.935,0.935,0.935,0.935,0,0.9148
2016-06-06,0.93,0.94,0.93,0.94,61400,0.9197
2016-06-07,0.94,0.94,0.94,0.94,2200,0.9197
2016-06-08,0.925,0.93,0.925,0.93,21400,0.9099
2016-06-09,0.935,0.95,0.935,0.95,5000,0.9294
2016-06-10,0.935,0.935,0.935,0.935,3500,0.9148
2016-06-13,0.935,0.935,0.935,0.935,0,0.9148
2016-06-14,0.935,0.935,0.925,0.925,24500,0.905
2016-06-15,0.925,0.925,0.925,0.925,0,0.905
2016-06-16,0.925,0.925,0.925,0.925,700,0.905
2016-06-17,0.925,0.935,0.925,0.935,12100,0.9148
2016-06-20,0.94,0.94,0.93,0.93,28000,0.9099
2016-06-21,0.94,0.94,0.94,0.94,10000,0.9197
2016-06-22,0.93,0.93,0.93,0.93,300,0.9099
2016-06-23,0.93,0.93,0.93,0.93,0,0.9099
2016-06-24,0.93,0.93,0.91,0.91,26500,0.8903
2016-06-27,0.91,0.91,0.91,0.91,0,0.8903
2016-06-28,0.91,0.91,0.91,0.91,700,0.8903
2016-06-29,0.91,0.91,0.91,0.91,0,0.8903
2016-06-30,0.91,0.94,0.91,0.94,61000,0.9197
2016-07-01,0.94,0.94,0.94,0.94,0,0.9197
2016-07-04,0.94,0.94,0.94,0.94,0,0.9197
2016-07-05,0.91,0.92,0.91,0.91,20200,0.8903
2016-07-06,0.91,0.91,0.9,0.9,15100,0.8805
2016-07-07,0.89,0.89,0.89,0.89,9200,0.8707
2016-07-08,0.9,0.9,0.9,0.9,11500,0.8805
2016-07-11,0.9,0.9,0.9,0.9,6000,0.8805
2016-07-12,0.915,0.915,0.91,0.915,24500,0.8952
2016-07-13,0.915,0.915,0.915,0.915,0,0.8952
2016-07-14,0.915,0.915,0.91,0.91,29600,0.8903
2016-07-15,0.91,0.91,0.91,0.91,0,0.8903
2016-07-18,0.92,0.92,0.92,0.92,10000,0.9001
2016-07-19,0.94,0.95,0.94,0.95,9000,0.9294
2016-07-20,0.94,0.96,0.94,0.96,22000,0.9392
2016-07-21,0.96,0.96,0.96,0.96,0,0.9392
2016-07-22,0.96,0.96,0.96,0.96,0,0.9392
2016-07-25,0.945,0.975,0.94,0.975,11400,0.9539
2016-07-26,0.975,0.975,0.975,0.975,0,0.9539
2016-07-27,0.95,0.975,0.95,0.975,12000,0.9539
2016-07-28,0.975,0.975,0.975,0.975,0,0.9539
2016-07-29,0.975,0.985,0.975,0.985,51500,0.9637
2016-08-01,0.99,1.02,0.99,1.0,40000,0.9784
2016-08-02,1.0,1.0,1.0,1.0,1000,0.9784
2016-08-03,0.98,0.98,0.95,0.95,25700,0.9294
2016-08-04,0.99,1.0,0.99,1.0,14500,0.9784
2016-08-05,0.99,0.995,0.99,0.99,32100,0.9686
2016-08-08,0.99,0.995,0.98,0.98,38500,0.9588
2016-08-09,0.995,0.995,0.99,0.99,13400,0.9686
2016-08-10,0.99,0.99,0.99,0.99,11700,0.9686
2016-08-11,0.97,0.97,0.96,0.96,30000,0.9392
2016-08-12,0.98,0.98,0.975,0.975,13500,0.9539
2016-08-15,0.99,0.99,0.98,0.98,130000,0.9588
2016-08-16,0.98,0.995,0.97,0.97,72800,0.9490000000000001
2016-08-17,0.995,0.995,0.995,0.995,9300,0.9735
2016-08-18,0.98,0.995,0.98,0.995,19800,0.9735
2016-08-19,0.995,0.995,0.995,0.995,3000,0.9735
2016-08-22,0.995,1.01,0.995,1.0,50100,0.9784
2016-08-23,1.0,1.0,1.0,1.0,20000,0.9784
2016-08-24,1.01,1.015,1.01,1.015,56400,0.993
2016-08-25,1.01,1.015,1.01,1.015,71500,0.993
2016-08-26,1.015,1.015,1.015,1.015,3000,0.993
2016-08-29,1.0,1.0,1.0,1.0,77700,0.9784
2016-08-30,1.005,1.005,1.005,1.005,1900,0.9832
2016-08-31,1.0,1.0,0.99,0.99,57000,0.9686
2016-09-01,1.0,1.0,1.0,1.0,11000,0.9784
2016-09-02,1.0,1.01,0.99,1.01,31900,0.9881
2016-09-05,0.99,0.99,0.99,0.99,20000,0.9686
2016-09-06,0.99,0.99,0.99,0.99,0,0.99
2016-09-07,0.98,0.98,0.98,0.98,10000,0.98
2016-09-08,0.98,0.98,0.98,0.98,0,0.98
2016-09-09,1.0,1.0,0.97,1.0,32000,1.0
2016-09-12,0.96,0.96,0.955,0.955,48200,0.955
2016-09-13,0.96,0.96,0.96,0.96,7000,0.96
2016-09-14,0.98,0.98,0.98,0.98,900,0.98
2016-09-15,0.98,0.98,0.98,0.98,2000,0.98
2016-09-16,0.965,0.965,0.955,0.955,32000,0.955
2016-09-19,0.955,0.955,0.955,0.955,0,0.955
2016-09-20,0.95,0.95,0.95,0.95,10000,0.95
2016-09-21,0.95,0.95,0.95,0.95,0,0.95
2016-09-22,0.965,0.965,0.95,0.95,8700,0.95
2016-09-23,0.945,0.965,0.945,0.965,27000,0.965
2016-09-26,0.965,0.965,0.965,0.965,0,0.965
2016-09-27,0.975,0.975,0.975,0.975,10200,0.975
2016-09-28,0.975,0.975,0.975,0.975,0,0.975
2016-09-29,0.97,0.97,0.95,0.95,6000,0.95
2016-09-30,0.97,0.975,0.97,0.975,10200,0.975
2016-10-03,0.975,0.975,0.975,0.975,0,0.975
2016-10-04,0.98,0.99,0.955,0.99,42600,0.99
2016-10-05,0.96,0.96,0.96,0.96,33000,0.96
2016-10-06,0.97,0.98,0.97,0.975,85000,0.975
2016-10-07,0.96,0.98,0.96,0.98,35200,0.98
2016-10-10,0.955,0.965,0.955,0.965,35100,0.965
2016-10-11,0.96,0.96,0.955,0.955,15000,0.955
2016-10-12,0.955,0.955,0.955,0.955,0,0.955
2016-10-13,0.955,0.955,0.955,0.955,0,0.955
2016-10-14,0.955,0.955,0.955,0.955,0,0.955
2016-10-17,0.955,0.97,0.955,0.97,2300,0.97
2016-10-18,0.97,0.97,0.97,0.97,0,0.97
2016-10-19,0.97,0.97,0.97,0.97,0,0.97
2016-10-20,0.965,0.965,0.955,0.965,28000,0.965
2016-10-21,0.96,0.96,0.95,0.95,37500,0.95
2016-10-24,0.95,0.95,0.945,0.945,10000,0.945
2016-10-25,0.945,0.945,0.945,0.945,0,0.945
2016-10-26,0.95,0.95,0.93,0.93,28400,0.93
2016-10-27,0.93,0.93,0.93,0.93,0,0.93
2016-10-28,0.93,0.93,0.93,0.93,0,0.93
2016-10-31,0.92,0.92,0.92,0.92,7000,0.92
2016-11-01,0.92,0.92,0.91,0.91,21600,0.91
2016-11-02,0.905,0.905,0.905,0.905,2700,0.905
2016-11-03,0.895,0.895,0.885,0.89,10500,0.89
2016-11-04,0.895,0.895,0.88,0.895,66500,0.895
2016-11-07,0.895,0.9,0.895,0.9,30400,0.9
2016-11-28,0.915,0.915,0.915,0.915,2500,0.915
2016-11-29,1.12,1.12,1.12,1.12,0,1.12
2016-11-30,0.92,0.92,0.92,0.92,25000,0.92
2016-12-01,1.12,1.12,1.12,1.12,0,1.12
2016-12-02,0.925,0.925,0.925,0.925,5000,0.925
2016-12-05,1.12,1.12,1.12,1.12,0,1.12
2016-12-06,0.915,0.915,0.915,0.915,2000,0.915
2016-12-07,1.12,1.12,1.12,1.12,0,1.12
2016-12-08,1.12,1.12,1.12,1.12,0,1.12
2016-12-09,1.0582,1.0582,1.0582,1.0582,0,1.0582
2016-12-12,0.88,0.88,0.88,0.88,7500,0.88
2016-12-13,1.0582,1.0582,1.0582,1.0582,0,1.0582
2016-12-14,1.0582,1.0582,1.0582,1.0582,0,1.0582
2016-12-15,1.0582,1.0582,1.0582,1.0582,0,1.0582
2016-12-16,1.0582,1.0582,1.0582,1.0582,0,1.0582
2016-12-19,1.0582,1.0582,1.0582,1.0582,0,1.0582
2016-12-20,0.915,0.92,0.915,0.92,5400,0.92
2016-12-21,1.0582,1.0582,1.0582,1.0582,0,1.0582
2016-12-22,1.0582,1.0582,1.0582,1.0582,0,1.0582
2016-12-23,1.0582,1.0582,1.0582,1.0582,0,1.0582
2016-12-26,1.0582,1.0582,1.0582,1.0582,0,1.0582
2016-12-27,1.0582,1.0582,1.0582,1.0582,0,1.0582
2016-12-28,1.0582,1.0582,1.0582,1.0582,0,1.0582
2016-12-29,1.0582,1.0582,1.0582,1.0582,0,1.0582
2016-12-30,1.0582,1.0582,1.0582,1.0582,0,1.0582
