Date,Open,High,Low,Close,Volume,Adj Close
2010-11-03,0.225,0.225,0.2,0.205,610000,0.205
2010-11-04,0.205,0.215,0.205,0.215,280000,0.215
2010-11-05,0.215,0.215,0.21,0.21,61000,0.21
2010-11-08,0.21,0.215,0.21,0.21,48000,0.21
2010-11-09,0.21,0.215,0.21,0.215,56500,0.215
2010-11-10,0.21,0.215,0.21,0.21,120000,0.21
2010-11-11,0.22,0.22,0.22,0.22,0,0.22
2010-11-12,0.21,0.21,0.205,0.205,39000,0.205
2010-11-15,0.215,0.215,0.215,0.215,0,0.215
2010-11-16,0.21,0.21,0.21,0.21,45000,0.21
2010-11-17,0.21,0.21,0.205,0.205,20000,0.205
2010-11-18,0.205,0.205,0.2,0.2,119600,0.2
2010-11-19,0.205,0.22,0.205,0.215,325300,0.215
2010-11-22,0.21,0.21,0.205,0.205,35000,0.205
2010-11-23,0.21,0.21,0.21,0.21,25000,0.21
2010-11-24,0.21,0.21,0.21,0.21,23800,0.21
2010-11-25,0.205,0.205,0.205,0.205,23000,0.205
2010-11-26,0.205,0.205,0.2,0.2,155900,0.2
2010-11-29,0.205,0.21,0.205,0.21,10900,0.21
2010-11-30,0.205,0.21,0.2,0.2,85000,0.2
2010-12-01,0.205,0.205,0.205,0.205,10000,0.205
2010-12-02,0.215,0.215,0.215,0.215,0,0.215
2010-12-03,0.21,0.21,0.21,0.21,0,0.21
2010-12-06,0.205,0.205,0.205,0.205,50000,0.205
2010-12-07,0.205,0.205,0.2,0.2,65000,0.2
2010-12-08,0.205,0.205,0.205,0.205,0,0.205
2010-12-09,0.2,0.205,0.2,0.2,279000,0.2
2010-12-10,0.2,0.2,0.195,0.2,55000,0.2
2010-12-13,0.2,0.2,0.195,0.195,25000,0.195
2010-12-14,0.195,0.2,0.19,0.19,235000,0.19
2010-12-15,0.19,0.195,0.185,0.195,215000,0.195
2010-12-16,0.195,0.195,0.19,0.19,100000,0.19
2010-12-17,0.2,0.2,0.2,0.2,0,0.2
2010-12-20,0.195,0.195,0.19,0.19,75000,0.19
2010-12-21,0.195,0.195,0.195,0.195,0,0.195
2010-12-22,0.19,0.195,0.19,0.195,35000,0.195
2010-12-23,0.19,0.19,0.19,0.19,182500,0.19
2010-12-24,0.19,0.19,0.19,0.19,20000,0.19
2010-12-29,0.19,0.19,0.185,0.185,10000,0.185
2010-12-30,0.19,0.19,0.19,0.19,0,0.19
2010-12-31,0.19,0.19,0.19,0.19,0,0.19
2011-01-04,0.19,0.19,0.19,0.19,0,0.19
2011-01-05,0.185,0.195,0.18,0.19,347000,0.19
2011-01-06,0.195,0.195,0.195,0.195,600,0.195
2011-01-07,0.195,0.25,0.195,0.2,328600,0.2
2011-01-10,0.21,0.21,0.21,0.21,10000,0.21
2011-01-11,0.2,0.2,0.2,0.2,155000,0.2
2011-01-12,0.22,0.22,0.22,0.22,123500,0.22
2011-01-13,0.215,0.215,0.215,0.215,20000,0.215
2011-01-17,0.215,0.215,0.215,0.215,20000,0.215
2011-01-18,0.22,0.22,0.22,0.22,80000,0.22
2011-01-19,0.235,0.28,0.23,0.26,328400,0.26
2011-01-21,0.26,0.26,0.255,0.255,21800,0.255
2011-01-24,0.26,0.26,0.25,0.25,87700,0.25
2011-01-25,0.25,0.25,0.245,0.245,97000,0.245
2011-01-27,0.26,0.26,0.245,0.245,82000,0.245
2011-01-28,0.25,0.25,0.245,0.245,145000,0.245
2011-02-07,0.24,0.24,0.235,0.235,31500,0.235
2011-02-08,0.24,0.24,0.235,0.235,62500,0.235
2011-02-10,0.235,0.235,0.235,0.235,11000,0.235
2011-02-15,0.24,0.25,0.24,0.25,110800,0.25
2011-02-18,0.24,0.24,0.23,0.23,20000,0.23
2011-02-21,0.23,0.24,0.23,0.24,25100,0.24
2011-02-22,0.24,0.28,0.24,0.28,40200,0.28
2011-02-23,0.28,0.31,0.28,0.295,183000,0.295
2011-02-24,0.3,0.3,0.265,0.29,166900,0.29
2011-02-25,0.305,0.305,0.295,0.305,55000,0.305
2011-02-28,0.31,0.315,0.305,0.305,95000,0.305
2011-03-01,0.31,0.31,0.305,0.305,213600,0.305
2011-03-03,0.285,0.285,0.27,0.27,83500,0.27
2011-03-09,0.225,0.23,0.22,0.23,217300,0.23
2011-03-14,0.225,0.25,0.225,0.25,22500,0.25
2011-03-15,0.25,0.25,0.215,0.215,195300,0.215
2011-03-21,0.24,0.25,0.24,0.24,96500,0.24
2011-03-24,0.23,0.23,0.23,0.23,65000,0.23
2011-03-25,0.23,0.23,0.23,0.23,15000,0.23
2011-03-28,0.23,0.23,0.22,0.22,17300,0.22
2011-03-29,0.205,0.22,0.205,0.22,10000,0.22
2011-04-01,0.23,0.23,0.215,0.215,25000,0.215
2011-04-06,0.215,0.22,0.215,0.22,11200,0.22
2011-04-07,0.23,0.23,0.23,0.23,54200,0.23
2011-04-08,0.23,0.23,0.215,0.215,20000,0.215
2011-04-11,0.215,0.22,0.215,0.215,35000,0.215
2011-04-15,0.22,0.22,0.215,0.215,14900,0.215
2011-04-18,0.23,0.23,0.23,0.23,10000,0.23
2011-04-19,0.24,0.24,0.215,0.215,50600,0.215
2011-04-20,0.215,0.215,0.215,0.215,10000,0.215
2011-04-21,0.22,0.23,0.22,0.22,122500,0.22
2011-04-28,0.22,0.23,0.22,0.22,42000,0.22
2011-04-29,0.22,0.22,0.22,0.22,22500,0.22
2011-05-02,0.22,0.22,0.205,0.205,349900,0.205
2011-05-03,0.205,0.205,0.205,0.205,50000,0.205
2011-05-04,0.2,0.2,0.2,0.2,48700,0.2
2011-05-05,0.2,0.2,0.2,0.2,97000,0.2
2011-05-06,0.2,0.2,0.2,0.2,11300,0.2
2011-05-09,0.195,0.195,0.195,0.195,50700,0.195
2011-05-10,0.205,0.205,0.205,0.205,7000,0.205
2011-05-11,0.2,0.2,0.2,0.2,5000,0.2
2011-05-12,0.2,0.2,0.195,0.195,105000,0.195
2011-05-13,0.19,0.19,0.19,0.19,15000,0.19
2011-05-16,0.19,0.19,0.19,0.19,15000,0.19
2011-05-17,0.19,0.19,0.18,0.18,80000,0.18
2011-05-20,0.16,0.165,0.16,0.165,28000,0.165
2011-05-23,0.165,0.165,0.16,0.16,100000,0.16
2011-05-24,0.16,0.16,0.16,0.16,15000,0.16
2011-05-25,0.16,0.16,0.16,0.16,15000,0.16
2011-05-26,0.16,0.16,0.16,0.16,15000,0.16
2011-05-27,0.16,0.16,0.16,0.16,15000,0.16
2011-05-30,0.16,0.16,0.16,0.16,13000,0.16
2011-05-31,0.16,0.16,0.16,0.16,15000,0.16
2011-06-01,0.155,0.155,0.155,0.155,177500,0.155
2011-06-02,0.17,0.17,0.15,0.15,15000,0.15
2011-06-03,0.155,0.155,0.15,0.15,65000,0.15
2011-06-06,0.155,0.155,0.155,0.155,15000,0.155
2011-06-07,0.16,0.16,0.155,0.155,15000,0.155
2011-06-08,0.15,0.15,0.15,0.15,15000,0.15
2011-06-09,0.15,0.15,0.15,0.15,15000,0.15
2011-06-10,0.15,0.15,0.15,0.15,15000,0.15
2011-06-14,0.15,0.15,0.15,0.15,15000,0.15
2011-06-15,0.17,0.17,0.17,0.17,25000,0.17
2011-06-16,0.15,0.15,0.15,0.15,15000,0.15
2011-06-17,0.15,0.15,0.15,0.15,25000,0.15
2011-06-21,0.15,0.15,0.15,0.15,33000,0.15
2011-06-22,0.15,0.15,0.145,0.145,13900,0.145
2011-06-23,0.145,0.145,0.145,0.145,10000,0.145
2011-06-24,0.145,0.15,0.145,0.15,30000,0.15
2011-06-27,0.14,0.145,0.14,0.145,84500,0.145
2011-06-28,0.14,0.14,0.14,0.14,36900,0.14
2011-06-29,0.14,0.14,0.14,0.14,60000,0.14
2011-06-30,0.14,0.14,0.14,0.14,10000,0.14
2011-07-01,0.14,0.14,0.14,0.14,48000,0.14
2011-07-04,0.14,0.14,0.14,0.14,60000,0.14
2011-07-05,0.135,0.14,0.13,0.14,38000,0.14
2011-07-06,0.14,0.14,0.14,0.14,10000,0.14
2011-07-07,0.14,0.14,0.14,0.14,15000,0.14
2011-07-08,0.135,0.145,0.135,0.145,155000,0.145
2011-07-11,0.14,0.14,0.14,0.14,40000,0.14
2011-07-12,0.14,0.14,0.135,0.135,65000,0.135
2011-07-18,0.135,0.135,0.135,0.135,25000,0.135
2011-07-19,0.13,0.135,0.13,0.135,35000,0.135
2011-07-20,0.13,0.13,0.13,0.13,110000,0.13
2011-07-21,0.13,0.13,0.13,0.13,10000,0.13
2011-07-22,0.13,0.13,0.13,0.13,10000,0.13
2011-07-25,0.13,0.13,0.13,0.13,10000,0.13
2011-07-28,0.13,0.13,0.13,0.13,10000,0.13
2011-08-02,0.125,0.13,0.125,0.13,20000,0.13
2011-08-03,0.13,0.135,0.115,0.13,290000,0.13
2011-08-04,0.13,0.13,0.13,0.13,10000,0.13
2011-08-17,0.1,0.13,0.1,0.13,25000,0.13
2011-08-23,0.1,0.125,0.1,0.125,30000,0.125
2011-08-24,0.125,0.125,0.125,0.125,10000,0.125
2011-09-01,0.096,0.12,0.096,0.11,150000,0.11
2011-09-02,0.12,0.12,0.12,0.12,10000,0.12
2011-09-07,0.083,0.096,0.08199999999999999,0.096,200000,0.096
2011-09-12,0.096,0.096,0.096,0.096,5000,0.096
2011-09-13,0.096,0.096,0.096,0.096,5000,0.096
2011-09-15,0.096,0.096,0.096,0.096,15000,0.096
2011-09-16,0.086,0.09,0.084,0.087,107000,0.087
2011-09-20,0.09,0.09,0.09,0.09,25000,0.09
2011-10-10,0.07,0.08199999999999999,0.07,0.08199999999999999,60300,0.08199999999999999
2011-10-11,0.078,0.08,0.078,0.08,50000,0.08
2011-10-12,0.08,0.08,0.08,0.08,25000,0.08
2011-10-13,0.08,0.08,0.08,0.08,75000,0.08
2011-10-14,0.08,0.08,0.08,0.08,98600,0.08
2011-10-18,0.076,0.076,0.076,0.076,50000,0.076
2011-10-19,0.076,0.078,0.076,0.078,105000,0.078
2011-10-21,0.076,0.076,0.076,0.076,45000,0.076
2011-10-26,0.075,0.075,0.07,0.07,19000,0.07
2011-10-27,0.073,0.073,0.073,0.073,50000,0.073
2011-10-28,0.07400000000000001,0.075,0.07,0.075,235100,0.075
2011-10-31,0.07,0.071,0.07,0.071,82500,0.071
2011-11-07,0.075,0.075,0.075,0.075,50000,0.075
2011-11-15,0.076,0.076,0.075,0.076,153300,0.076
2011-11-16,0.076,0.076,0.076,0.076,205000,0.076
2011-11-17,0.076,0.076,0.076,0.076,0,0.076
2011-11-18,0.076,0.076,0.076,0.076,61000,0.076
2011-11-21,0.076,0.076,0.076,0.076,0,0.076
2011-11-22,0.076,0.076,0.076,0.076,30600,0.076
2011-11-23,0.076,0.076,0.076,0.076,0,0.076
2011-11-24,0.073,0.07400000000000001,0.07,0.07400000000000001,152800,0.07400000000000001
2011-11-25,0.07400000000000001,0.07400000000000001,0.07400000000000001,0.07400000000000001,0,0.07400000000000001
2011-11-28,0.075,0.075,0.075,0.075,10000,0.075
2011-11-29,0.075,0.075,0.075,0.075,0,0.075
2011-11-30,0.075,0.075,0.075,0.075,0,0.075
2011-12-01,0.075,0.075,0.075,0.075,0,0.075
2011-12-02,0.075,0.075,0.075,0.075,0,0.075
2011-12-05,0.075,0.075,0.075,0.075,0,0.075
2011-12-06,0.075,0.075,0.075,0.075,0,0.075
2011-12-07,0.07400000000000001,0.07400000000000001,0.07400000000000001,0.07400000000000001,6600,0.07400000000000001
2011-12-08,0.07400000000000001,0.07400000000000001,0.07400000000000001,0.07400000000000001,0,0.07400000000000001
2011-12-09,0.07400000000000001,0.07400000000000001,0.07400000000000001,0.07400000000000001,0,0.07400000000000001
2011-12-12,0.07400000000000001,0.07400000000000001,0.07400000000000001,0.07400000000000001,10000,0.07400000000000001
2011-12-13,0.07400000000000001,0.07400000000000001,0.07400000000000001,0.07400000000000001,0,0.07400000000000001
2011-12-14,0.07400000000000001,0.07400000000000001,0.07400000000000001,0.07400000000000001,0,0.07400000000000001
2011-12-15,0.075,0.075,0.075,0.075,80000,0.075
2011-12-16,0.075,0.075,0.075,0.075,0,0.075
2011-12-19,0.075,0.075,0.075,0.075,250000,0.075
2011-12-20,0.075,0.075,0.075,0.075,0,0.075
2011-12-21,0.075,0.075,0.075,0.075,0,0.075
2011-12-22,0.075,0.075,0.075,0.075,0,0.075
2011-12-23,0.075,0.075,0.075,0.075,0,0.075
2011-12-26,0.075,0.075,0.075,0.075,0,0.075
2011-12-27,0.075,0.075,0.075,0.075,0,0.075
2011-12-28,0.075,0.075,0.075,0.075,0,0.075
2011-12-29,0.075,0.075,0.075,0.075,0,0.075
2011-12-30,0.075,0.075,0.075,0.075,0,0.075
2012-01-02,0.075,0.075,0.075,0.075,0,0.075
2012-01-03,0.075,0.075,0.075,0.075,0,0.075
2012-01-04,0.075,0.075,0.075,0.075,52000,0.075
2012-01-05,0.075,0.075,0.075,0.075,0,0.075
2012-01-06,0.075,0.075,0.075,0.075,0,0.075
2012-01-09,0.07400000000000001,0.07400000000000001,0.071,0.071,45000,0.071
2012-01-10,0.071,0.071,0.071,0.071,0,0.071
2012-01-11,0.071,0.071,0.071,0.071,0,0.071
2012-01-12,0.071,0.071,0.071,0.071,0,0.071
2012-01-13,0.071,0.071,0.071,0.071,0,0.071
2012-01-16,0.071,0.071,0.071,0.071,0,0.071
2012-01-17,0.071,0.071,0.071,0.071,0,0.071
2012-01-18,0.071,0.071,0.071,0.071,0,0.071
2012-01-19,0.071,0.071,0.071,0.071,0,0.071
2012-01-20,0.071,0.071,0.071,0.071,0,0.071
2012-01-23,0.071,0.071,0.071,0.071,0,0.071
2012-01-24,0.071,0.071,0.071,0.071,0,0.071
2012-01-25,0.071,0.071,0.071,0.071,0,0.071
2012-01-26,0.071,0.071,0.071,0.071,0,0.071
2012-01-27,0.071,0.071,0.071,0.071,0,0.071
2012-01-31,0.071,0.071,0.071,0.071,0,0.071
2012-02-01,0.071,0.071,0.071,0.071,0,0.071
2012-02-02,0.071,0.071,0.071,0.071,0,0.071
2012-02-03,0.071,0.071,0.071,0.071,0,0.071
2012-02-06,0.073,0.073,0.07,0.07200000000000001,368500,0.07200000000000001
2012-02-07,0.07200000000000001,0.07200000000000001,0.07200000000000001,0.07200000000000001,0,0.07200000000000001
2012-02-08,0.07200000000000001,0.07200000000000001,0.07200000000000001,0.07200000000000001,0,0.07200000000000001
2012-02-09,0.07200000000000001,0.07200000000000001,0.07200000000000001,0.07200000000000001,0,0.07200000000000001
2012-02-10,0.07200000000000001,0.07200000000000001,0.07200000000000001,0.07200000000000001,0,0.07200000000000001
2012-02-13,0.07200000000000001,0.07200000000000001,0.07200000000000001,0.07200000000000001,0,0.07200000000000001
2012-02-14,0.07200000000000001,0.07200000000000001,0.07200000000000001,0.07200000000000001,0,0.07200000000000001
2012-02-15,0.07200000000000001,0.07200000000000001,0.07,0.07,162300,0.07
2012-02-16,0.07,0.07,0.07,0.07,100000,0.07
2012-02-17,0.07,0.07,0.07,0.07,0,0.07
2012-02-20,0.07,0.07,0.07,0.07,0,0.07
2012-02-21,0.07,0.07,0.07,0.07,0,0.07
2012-02-22,0.07,0.07,0.07,0.07,0,0.07
2012-02-23,0.07,0.07,0.07,0.07,0,0.07
2012-02-24,0.07,0.07,0.07,0.07,21000,0.07
2012-02-27,0.07,0.07,0.07,0.07,0,0.07
2012-02-28,0.07,0.07,0.07,0.07,29000,0.07
2012-02-29,0.07,0.07,0.07,0.07,0,0.07
2012-03-01,0.07,0.07,0.07,0.07,0,0.07
2012-03-02,0.07,0.07,0.07,0.07,0,0.07
2012-03-05,0.07,0.07,0.07,0.07,0,0.07
2012-03-06,0.07,0.07,0.07,0.07,0,0.07
2012-03-07,0.07,0.07,0.07,0.07,22800,0.07
2012-03-08,0.07,0.07,0.07,0.07,10000,0.07
2012-03-09,0.07,0.07,0.07,0.07,0,0.07
2012-03-12,0.07,0.07,0.07,0.07,0,0.07
2012-03-13,0.07,0.07,0.07,0.07,0,0.07
2012-03-14,0.07,0.07,0.07,0.07,0,0.07
2012-03-15,0.07,0.07,0.07,0.07,0,0.07
2012-03-16,0.07,0.07,0.07,0.07,0,0.07
2012-03-19,0.07,0.07,0.07,0.07,0,0.07
2012-03-20,0.07,0.07,0.07,0.07,0,0.07
2012-03-21,0.07,0.07,0.07,0.07,0,0.07
2012-03-22,0.07,0.07,0.07,0.07,0,0.07
2012-03-23,0.07,0.07,0.07,0.07,0,0.07
2012-03-26,0.07,0.07,0.07,0.07,20000,0.07
2012-03-27,0.07,0.07,0.07,0.07,0,0.07
2012-03-28,0.07,0.07,0.07,0.07,0,0.07
2012-03-29,0.07,0.07,0.07,0.07,0,0.07
2012-03-30,0.07,0.07,0.07,0.07,0,0.07
2012-04-02,0.07,0.07,0.07,0.07,0,0.07
2012-04-03,0.07,0.07,0.07,0.07,0,0.07
2012-04-04,0.07,0.07,0.07,0.07,0,0.07
2012-04-05,0.07,0.07,0.07,0.07,0,0.07
2012-04-06,0.07,0.07,0.07,0.07,0,0.07
2012-04-09,0.07,0.07,0.07,0.07,0,0.07
2012-04-10,0.07,0.07,0.07,0.07,0,0.07
2012-04-11,0.07,0.07,0.06,0.06,10000,0.06
2012-04-12,0.06,0.06,0.06,0.06,0,0.06
2012-04-13,0.06,0.06,0.06,0.06,0,0.06
2012-04-16,0.06,0.06,0.06,0.06,0,0.06
2012-04-17,0.06,0.06,0.06,0.06,0,0.06
2012-04-18,0.06,0.06,0.06,0.06,0,0.06
2012-04-19,0.06,0.06,0.06,0.06,0,0.06
2012-04-20,0.06,0.06,0.06,0.06,100000,0.06
2012-04-23,0.06,0.06,0.06,0.06,0,0.06
2012-04-24,0.06,0.06,0.06,0.06,0,0.06
2012-04-25,0.06,0.06,0.06,0.06,0,0.06
2012-04-26,0.065,0.065,0.065,0.065,12000,0.065
2012-04-27,0.065,0.065,0.065,0.065,0,0.065
2012-04-30,0.065,0.065,0.065,0.065,0,0.065
2012-05-01,0.065,0.065,0.055,0.06,750000,0.06
2012-05-02,0.06,0.06,0.06,0.06,50000,0.06
2012-05-03,0.06,0.06,0.06,0.06,175000,0.06
2012-05-04,0.06,0.06,0.06,0.06,75000,0.06
2012-05-07,0.06,0.06,0.06,0.06,115000,0.06
2012-05-08,0.06,0.06,0.06,0.06,0,0.06
2012-05-09,0.06,0.06,0.06,0.06,0,0.06
2012-05-10,0.06,0.06,0.06,0.06,0,0.06
2012-05-11,0.06,0.06,0.06,0.06,0,0.06
2012-05-14,0.06,0.06,0.06,0.06,35000,0.06
2012-05-15,0.06,0.06,0.06,0.06,65000,0.06
2012-05-16,0.06,0.06,0.06,0.06,0,0.06
2012-05-17,0.06,0.06,0.06,0.06,0,0.06
2012-05-18,0.06,0.06,0.06,0.06,0,0.06
2012-05-21,0.06,0.06,0.06,0.06,0,0.06
2012-05-22,0.06,0.06,0.06,0.06,15000,0.06
2012-05-23,0.06,0.06,0.06,0.06,0,0.06
2012-05-24,0.06,0.06,0.06,0.06,0,0.06
2012-05-25,0.06,0.06,0.06,0.06,15400,0.06
2012-05-28,0.06,0.06,0.06,0.06,10000,0.06
2012-05-29,0.06,0.065,0.06,0.065,375000,0.065
2012-05-30,0.065,0.065,0.06,0.062,964500,0.062
2012-05-31,0.062,0.062,0.062,0.062,220400,0.062
2012-06-01,0.062,0.062,0.062,0.062,0,0.062
2012-06-04,0.062,0.062,0.062,0.062,0,0.062
2012-06-05,0.062,0.062,0.062,0.062,0,0.062
2012-06-06,0.062,0.062,0.062,0.062,0,0.062
2012-06-07,0.062,0.062,0.062,0.062,0,0.062
2012-06-08,0.062,0.062,0.062,0.062,0,0.062
2012-06-11,0.062,0.062,0.062,0.062,0,0.062
2012-06-12,0.062,0.062,0.062,0.062,0,0.062
2012-06-13,0.062,0.062,0.062,0.062,0,0.062
2012-06-14,0.062,0.062,0.062,0.062,0,0.062
2012-06-15,0.062,0.062,0.062,0.062,0,0.062
2012-06-18,0.06,0.06,0.051,0.051,435400,0.051
2012-06-19,0.05,0.05,0.05,0.05,100000,0.05
2012-06-20,0.05,0.05,0.05,0.05,0,0.05
2012-06-21,0.05,0.05,0.05,0.05,0,0.05
2012-06-22,0.05,0.05,0.05,0.05,0,0.05
2012-06-25,0.05,0.05,0.05,0.05,0,0.05
2012-06-26,0.05,0.05,0.05,0.05,130000,0.05
2012-06-27,0.05,0.05,0.05,0.05,0,0.05
2012-06-28,0.05,0.05,0.05,0.05,0,0.05
2012-06-29,0.05,0.05,0.05,0.05,65500,0.05
2012-07-02,0.05,0.05,0.05,0.05,0,0.05
2012-07-03,0.05,0.05,0.05,0.05,0,0.05
2012-07-04,0.05,0.05,0.05,0.05,50000,0.05
2012-07-05,0.05,0.05,0.05,0.05,0,0.05
2012-07-06,0.05,0.05,0.05,0.05,490000,0.05
2012-07-09,0.05,0.05,0.05,0.05,0,0.05
2012-07-10,0.05,0.05,0.05,0.05,0,0.05
2012-07-11,0.05,0.05,0.05,0.05,10000,0.05
2012-07-12,0.05,0.05,0.05,0.05,151600,0.05
2012-07-13,0.05,0.05,0.05,0.05,0,0.05
2012-07-16,0.05,0.05,0.05,0.05,0,0.05
2012-07-17,0.05,0.05,0.05,0.05,0,0.05
2012-07-18,0.05,0.05,0.05,0.05,0,0.05
2012-07-19,0.05,0.05,0.05,0.05,0,0.05
2012-07-20,0.05,0.05,0.05,0.05,0,0.05
2012-07-23,0.05,0.05,0.05,0.05,20000,0.05
2012-07-24,0.05,0.05,0.05,0.05,0,0.05
2012-07-25,0.05,0.05,0.05,0.05,0,0.05
2012-07-26,0.05,0.05,0.05,0.05,0,0.05
2012-07-27,0.05,0.05,0.05,0.05,0,0.05
2012-07-30,0.05,0.05,0.05,0.05,0,0.05
2012-07-31,0.05,0.05,0.05,0.05,0,0.05
2012-08-01,0.05,0.05,0.05,0.05,0,0.05
2012-08-02,0.05,0.05,0.05,0.05,0,0.05
2012-08-03,0.05,0.05,0.05,0.05,0,0.05
2012-08-06,0.05,0.05,0.05,0.05,0,0.05
2012-08-07,0.05,0.05,0.05,0.05,0,0.05
2012-08-08,0.05,0.05,0.05,0.05,0,0.05
2012-08-09,0.05,0.05,0.05,0.05,0,0.05
2012-08-10,0.05,0.05,0.05,0.05,0,0.05
2012-08-13,0.05,0.05,0.05,0.05,0,0.05
2012-08-14,0.05,0.05,0.05,0.05,0,0.05
2012-08-15,0.05,0.05,0.05,0.05,0,0.05
2012-08-16,0.05,0.05,0.05,0.05,0,0.05
2012-08-17,0.05,0.05,0.05,0.05,0,0.05
2012-08-20,0.05,0.05,0.05,0.05,0,0.05
2012-08-21,0.05,0.05,0.05,0.05,0,0.05
2012-08-22,0.05,0.05,0.05,0.05,0,0.05
2012-08-23,0.05,0.05,0.05,0.05,8400,0.05
2012-08-24,0.05,0.05,0.05,0.05,0,0.05
2012-08-27,0.05,0.05,0.05,0.05,0,0.05
2012-08-28,0.05,0.05,0.05,0.05,0,0.05
2012-08-29,0.05,0.05,0.05,0.05,0,0.05
2012-08-30,0.05,0.05,0.05,0.05,20000,0.05
2012-08-31,0.05,0.05,0.05,0.05,0,0.05
2012-09-03,0.05,0.05,0.05,0.05,0,0.05
2012-09-04,0.05,0.05,0.05,0.05,0,0.05
2012-09-05,0.05,0.05,0.05,0.05,0,0.05
2012-09-06,0.05,0.05,0.05,0.05,0,0.05
2012-09-07,0.05,0.05,0.05,0.05,425000,0.05
2012-09-10,0.05,0.05,0.05,0.05,0,0.05
2012-09-11,0.05,0.05,0.05,0.05,1600,0.05
2012-09-12,0.05,0.05,0.05,0.05,0,0.05
2012-09-13,0.05,0.05,0.05,0.05,0,0.05
2012-09-14,0.05,0.05,0.05,0.05,0,0.05
2012-09-17,0.04,0.04,0.04,0.04,50400,0.04
2012-09-18,0.04,0.04,0.04,0.04,140000,0.04
2012-09-19,0.04,0.04,0.04,0.04,0,0.04
2012-09-20,0.04,0.04,0.04,0.04,0,0.04
2012-09-21,0.04,0.04,0.04,0.04,0,0.04
2012-09-24,0.04,0.04,0.04,0.04,0,0.04
2012-09-25,0.04,0.04,0.04,0.04,0,0.04
2012-09-26,0.04,0.04,0.04,0.04,0,0.04
2012-09-27,0.04,0.04,0.04,0.04,0,0.04
2012-09-28,0.04,0.04,0.04,0.04,0,0.04
2012-10-01,0.04,0.04,0.04,0.04,0,0.04
2012-10-02,0.04,0.04,0.04,0.04,0,0.04
2012-10-03,0.04,0.04,0.04,0.04,0,0.04
2012-10-04,0.04,0.04,0.04,0.04,0,0.04
2012-10-05,0.04,0.04,0.04,0.04,0,0.04
2012-10-08,0.04,0.04,0.04,0.04,209600,0.04
2012-10-09,0.04,0.04,0.04,0.04,40400,0.04
2012-10-10,0.04,0.04,0.04,0.04,0,0.04
2012-10-11,0.04,0.04,0.04,0.04,0,0.04
2012-10-12,0.04,0.04,0.04,0.04,0,0.04
2012-10-15,0.04,0.04,0.04,0.04,0,0.04
2012-10-16,0.04,0.04,0.04,0.04,0,0.04
2012-10-17,0.04,0.04,0.04,0.04,0,0.04
2012-10-18,0.04,0.04,0.04,0.04,0,0.04
2012-10-19,0.04,0.04,0.04,0.04,0,0.04
2012-10-22,0.04,0.04,0.04,0.04,0,0.04
2012-10-23,0.04,0.04,0.04,0.04,0,0.04
2012-10-24,0.04,0.04,0.04,0.04,0,0.04
2012-10-25,0.04,0.04,0.04,0.04,0,0.04
2012-10-26,0.04,0.04,0.04,0.04,0,0.04
2012-10-29,0.04,0.04,0.04,0.04,0,0.04
2012-10-30,0.04,0.04,0.04,0.04,0,0.04
2012-10-31,0.04,0.04,0.04,0.04,0,0.04
2012-11-01,0.04,0.04,0.04,0.04,0,0.04
2012-11-02,0.04,0.04,0.04,0.04,0,0.04
2012-11-05,0.04,0.04,0.04,0.04,0,0.04
2012-11-06,0.04,0.04,0.04,0.04,0,0.04
2012-11-07,0.04,0.04,0.04,0.04,0,0.04
2012-11-08,0.04,0.04,0.04,0.04,0,0.04
2012-11-09,0.04,0.04,0.04,0.04,25600,0.04
2012-11-12,0.04,0.04,0.04,0.04,0,0.04
2012-11-13,0.04,0.04,0.04,0.04,0,0.04
2012-11-14,0.04,0.04,0.04,0.04,0,0.04
2012-11-15,0.04,0.04,0.04,0.04,0,0.04
2012-11-16,0.04,0.04,0.04,0.04,0,0.04
2012-11-19,0.04,0.04,0.04,0.04,0,0.04
2012-11-20,0.04,0.04,0.04,0.04,0,0.04
2012-11-21,0.04,0.04,0.04,0.04,0,0.04
2012-11-22,0.04,0.04,0.04,0.04,0,0.04
2012-11-23,0.04,0.04,0.04,0.04,0,0.04
2012-11-26,0.04,0.04,0.04,0.04,0,0.04
2012-11-27,0.04,0.04,0.04,0.04,0,0.04
2012-11-28,0.04,0.04,0.04,0.04,0,0.04
2012-11-29,0.04,0.04,0.04,0.04,0,0.04
2012-11-30,0.05,0.05,0.04,0.04,35000,0.04
2012-12-03,0.04,0.04,0.04,0.04,0,0.04
2012-12-04,0.04,0.04,0.04,0.04,0,0.04
2012-12-05,0.04,0.04,0.04,0.04,0,0.04
2012-12-06,0.04,0.04,0.04,0.04,0,0.04
2012-12-07,0.04,0.04,0.04,0.04,0,0.04
2012-12-10,0.04,0.04,0.04,0.04,0,0.04
2012-12-11,0.04,0.04,0.04,0.04,25000,0.04
2012-12-12,0.017,0.037000000000000005,0.017,0.037000000000000005,1363000,0.037000000000000005
2012-12-13,0.037000000000000005,0.037000000000000005,0.02,0.035,802000,0.035
2012-12-14,0.035,0.035,0.035,0.035,150000,0.035
2012-12-17,0.026000000000000002,0.026000000000000002,0.026000000000000002,0.026000000000000002,350000,0.026000000000000002
2012-12-18,0.026000000000000002,0.026000000000000002,0.026000000000000002,0.026000000000000002,0,0.026000000000000002
2012-12-19,0.026000000000000002,0.026000000000000002,0.026000000000000002,0.026000000000000002,0,0.026000000000000002
2012-12-20,0.026000000000000002,0.026000000000000002,0.026000000000000002,0.026000000000000002,0,0.026000000000000002
2012-12-21,0.026000000000000002,0.026000000000000002,0.026000000000000002,0.026000000000000002,0,0.026000000000000002
2012-12-24,0.026000000000000002,0.026000000000000002,0.026000000000000002,0.026000000000000002,0,0.026000000000000002
2012-12-25,0.026000000000000002,0.026000000000000002,0.026000000000000002,0.026000000000000002,0,0.026000000000000002
2012-12-26,0.026000000000000002,0.026000000000000002,0.026000000000000002,0.026000000000000002,0,0.026000000000000002
2012-12-27,0.022000000000000002,0.025,0.02,0.025,425000,0.025
2012-12-28,0.021,0.023,0.021,0.021,183000,0.021
2012-12-31,0.021,0.021,0.021,0.021,0,0.021
2013-01-01,0.021,0.021,0.021,0.021,0,0.021
2013-01-02,0.021,0.021,0.021,0.021,0,0.021
2013-01-03,0.021,0.021,0.021,0.021,0,0.021
2013-01-04,0.021,0.021,0.021,0.021,0,0.021
2013-01-07,0.021,0.021,0.021,0.021,0,0.021
2013-01-08,0.021,0.021,0.021,0.021,0,0.021
2013-01-09,0.025,0.025,0.025,0.025,110000,0.025
2013-01-10,0.025,0.025,0.025,0.025,0,0.025
2013-01-11,0.025,0.025,0.025,0.025,0,0.025
2013-01-14,0.025,0.025,0.025,0.025,0,0.025
2013-01-15,0.027000000000000003,0.027000000000000003,0.027000000000000003,0.027000000000000003,50000,0.027000000000000003
2013-01-16,0.027000000000000003,0.027000000000000003,0.027000000000000003,0.027000000000000003,0,0.027000000000000003
2013-01-17,0.03,0.03,0.03,0.03,50000,0.03
2013-01-18,0.027000000000000003,0.027000000000000003,0.027000000000000003,0.027000000000000003,100000,0.027000000000000003
2013-01-21,0.027000000000000003,0.027000000000000003,0.027000000000000003,0.027000000000000003,0,0.027000000000000003
2013-01-22,0.027000000000000003,0.027000000000000003,0.027000000000000003,0.027000000000000003,0,0.027000000000000003
2013-01-24,0.027000000000000003,0.027000000000000003,0.027000000000000003,0.027000000000000003,0,0.027000000000000003
2013-01-25,0.027000000000000003,0.027000000000000003,0.027000000000000003,0.027000000000000003,0,0.027000000000000003
2013-01-28,0.027000000000000003,0.027000000000000003,0.027000000000000003,0.027000000000000003,0,0.027000000000000003
2013-01-29,0.027000000000000003,0.027000000000000003,0.027000000000000003,0.027000000000000003,0,0.027000000000000003
2013-01-30,0.032,0.033,0.032,0.033,134500,0.033
2013-01-31,0.034,0.034,0.034,0.034,100000,0.034
2013-02-01,0.035,0.036000000000000004,0.035,0.036000000000000004,75000,0.036000000000000004
2013-02-04,0.036000000000000004,0.036000000000000004,0.034,0.034,300000,0.034
2013-02-05,0.034,0.034,0.034,0.034,0,0.034
2013-02-06,0.035,0.035,0.035,0.035,100000,0.035
2013-02-07,0.035,0.035,0.035,0.035,0,0.035
2013-02-08,0.035,0.035,0.035,0.035,0,0.035
2013-02-11,0.035,0.035,0.035,0.035,0,0.035
2013-02-12,0.038,0.04,0.038,0.04,169200,0.04
2013-02-13,0.045,0.045,0.045,0.045,126900,0.045
2013-02-14,0.045,0.045,0.045,0.045,23000,0.045
2013-02-15,0.045,0.045,0.045,0.045,0,0.045
2013-02-18,0.045,0.045,0.036000000000000004,0.036000000000000004,252000,0.036000000000000004
2013-02-19,0.039,0.039,0.039,0.039,20000,0.039
2013-02-20,0.038,0.038,0.038,0.038,385600,0.038
2013-02-21,0.038,0.038,0.038,0.038,0,0.038
2013-02-22,0.038,0.038,0.038,0.038,0,0.038
2013-02-25,0.038,0.038,0.038,0.038,0,0.038
2013-02-26,0.038,0.038,0.038,0.038,0,0.038
2013-02-27,0.038,0.038,0.038,0.038,0,0.038
2013-02-28,0.038,0.038,0.038,0.038,0,0.038
2013-03-01,0.038,0.038,0.036000000000000004,0.036000000000000004,19900,0.036000000000000004
2013-03-04,0.036000000000000004,0.036000000000000004,0.036000000000000004,0.036000000000000004,0,0.036000000000000004
2013-03-05,0.036000000000000004,0.036000000000000004,0.036000000000000004,0.036000000000000004,0,0.036000000000000004
2013-03-06,0.036000000000000004,0.036000000000000004,0.036000000000000004,0.036000000000000004,0,0.036000000000000004
2013-03-07,0.036000000000000004,0.036000000000000004,0.036000000000000004,0.036000000000000004,0,0.036000000000000004
2013-03-08,0.036000000000000004,0.036000000000000004,0.036000000000000004,0.036000000000000004,7100,0.036000000000000004
2013-03-11,0.036000000000000004,0.036000000000000004,0.036000000000000004,0.036000000000000004,0,0.036000000000000004
2013-03-12,0.03,0.03,0.03,0.03,150000,0.03
2013-03-13,0.03,0.03,0.03,0.03,0,0.03
2013-03-14,0.03,0.036000000000000004,0.03,0.036000000000000004,472800,0.036000000000000004
2013-03-15,0.036000000000000004,0.036000000000000004,0.036000000000000004,0.036000000000000004,0,0.036000000000000004
2013-03-18,0.036000000000000004,0.036000000000000004,0.036000000000000004,0.036000000000000004,0,0.036000000000000004
2013-03-19,0.036000000000000004,0.036000000000000004,0.036000000000000004,0.036000000000000004,0,0.036000000000000004
2013-03-20,0.036000000000000004,0.036000000000000004,0.036000000000000004,0.036000000000000004,0,0.036000000000000004
2013-03-21,0.032,0.032,0.032,0.032,100000,0.032
2013-03-22,0.032,0.032,0.032,0.032,0,0.032
2013-03-25,0.032,0.032,0.032,0.032,6000,0.032
2013-03-26,0.032,0.032,0.032,0.032,0,0.032
2013-03-27,0.032,0.032,0.032,0.032,0,0.032
2013-03-28,0.032,0.032,0.032,0.032,0,0.032
2013-03-29,0.032,0.032,0.032,0.032,0,0.032
2013-04-01,0.032,0.032,0.032,0.032,0,0.032
2013-04-02,0.032,0.032,0.032,0.032,0,0.032
2013-04-03,0.032,0.032,0.032,0.032,0,0.032
2013-04-04,0.032,0.032,0.032,0.032,0,0.032
2013-04-05,0.032,0.032,0.032,0.032,0,0.032
2013-04-08,0.032,0.032,0.032,0.032,0,0.032
2013-04-09,0.032,0.032,0.032,0.032,0,0.032
2013-04-10,0.032,0.032,0.032,0.032,0,0.032
2013-04-11,0.032,0.032,0.032,0.032,0,0.032
2013-04-12,0.032,0.032,0.032,0.032,0,0.032
2013-04-15,0.032,0.032,0.032,0.032,0,0.032
2013-04-16,0.032,0.032,0.032,0.032,0,0.032
2013-04-17,0.032,0.032,0.032,0.032,0,0.032
2013-04-18,0.032,0.032,0.032,0.032,0,0.032
2013-04-19,0.032,0.032,0.032,0.032,0,0.032
2013-04-22,0.032,0.032,0.032,0.032,0,0.032
2013-04-23,0.027999999999999997,0.027999999999999997,0.027999999999999997,0.027999999999999997,28300,0.027999999999999997
2013-04-24,0.032,0.032,0.032,0.032,200000,0.032
2013-04-25,0.032,0.032,0.032,0.032,0,0.032
2013-04-26,0.032,0.032,0.032,0.032,18700,0.032
2013-04-29,0.032,0.034,0.032,0.034,238600,0.034
2013-04-30,0.034,0.034,0.034,0.034,1300,0.034
2013-05-01,0.034,0.034,0.034,0.034,0,0.034
2013-05-02,0.034,0.034,0.034,0.034,0,0.034
2013-05-03,0.034,0.034,0.034,0.034,0,0.034
2013-05-06,0.034,0.034,0.034,0.034,0,0.034
2013-05-07,0.034,0.034,0.034,0.034,0,0.034
2013-05-08,0.034,0.034,0.034,0.034,0,0.034
2013-05-09,0.034,0.034,0.034,0.034,0,0.034
2013-05-10,0.034,0.034,0.034,0.034,0,0.034
2013-05-13,0.034,0.034,0.034,0.034,0,0.034
2013-05-14,0.034,0.034,0.034,0.034,0,0.034
2013-05-15,0.034,0.034,0.034,0.034,0,0.034
2013-05-16,0.034,0.034,0.034,0.034,0,0.034
2013-05-17,0.027999999999999997,0.03,0.025,0.03,66600,0.03
2013-05-20,0.03,0.03,0.03,0.03,0,0.03
2013-05-21,0.03,0.03,0.03,0.03,0,0.03
2013-05-22,0.03,0.03,0.03,0.03,0,0.03
2013-05-23,0.03,0.03,0.03,0.03,0,0.03
2013-05-24,0.03,0.03,0.03,0.03,0,0.03
2013-05-27,0.03,0.03,0.03,0.03,0,0.03
2013-05-28,0.016,0.03,0.016,0.03,143300,0.03
2013-05-29,0.03,0.03,0.03,0.03,0,0.03
2013-05-30,0.03,0.03,0.03,0.03,0,0.03
2013-05-31,0.03,0.03,0.03,0.03,0,0.03
2013-06-03,0.03,0.03,0.03,0.03,0,0.03
2013-06-04,0.03,0.03,0.03,0.03,0,0.03
2013-06-05,0.03,0.03,0.03,0.03,0,0.03
2013-06-06,0.03,0.03,0.03,0.03,0,0.03
2013-06-07,0.03,0.03,0.03,0.03,0,0.03
2013-06-10,0.03,0.03,0.03,0.03,0,0.03
2013-06-11,0.03,0.03,0.03,0.03,0,0.03
2013-06-12,0.03,0.03,0.03,0.03,0,0.03
2013-06-13,0.03,0.03,0.03,0.03,0,0.03
2013-06-14,0.03,0.03,0.03,0.03,0,0.03
2013-06-17,0.03,0.03,0.03,0.03,0,0.03
2013-06-18,0.03,0.03,0.03,0.03,0,0.03
2013-06-19,0.03,0.03,0.03,0.03,0,0.03
2013-06-20,0.03,0.03,0.03,0.03,0,0.03
2013-06-21,0.03,0.03,0.03,0.03,0,0.03
2013-06-24,0.03,0.03,0.03,0.03,0,0.03
2013-06-25,0.03,0.03,0.03,0.03,0,0.03
2013-06-26,0.012,0.018000000000000002,0.011000000000000001,0.017,2883300,0.017
2013-06-27,0.011000000000000001,0.016,0.011000000000000001,0.016,110000,0.016
2013-06-28,0.016,0.016,0.016,0.016,0,0.016
2013-07-01,0.016,0.016,0.016,0.016,50000,0.016
2013-07-02,0.016,0.016,0.016,0.016,0,0.016
2013-07-03,0.016,0.016,0.016,0.016,0,0.016
2013-07-04,0.016,0.016,0.016,0.016,0,0.016
2013-07-05,0.016,0.016,0.016,0.016,0,0.016
2013-07-08,0.019,0.019,0.019,0.019,510000,0.019
2013-07-09,0.019,0.019,0.019,0.019,0,0.019
2013-07-10,0.015,0.018000000000000002,0.015,0.017,1125000,0.017
2013-07-11,0.017,0.017,0.017,0.017,0,0.017
2013-07-12,0.017,0.017,0.017,0.017,0,0.017
2013-07-15,0.017,0.017,0.017,0.017,0,0.017
2013-07-16,0.017,0.017,0.017,0.017,0,0.017
2013-07-17,0.017,0.017,0.017,0.017,0,0.017
2013-07-18,0.017,0.017,0.017,0.017,0,0.017
2013-07-19,0.012,0.015,0.012,0.015,460000,0.015
2013-07-22,0.015,0.015,0.015,0.015,0,0.015
2013-07-23,0.012,0.013999999999999999,0.011000000000000001,0.013999999999999999,965100,0.013999999999999999
2013-07-24,0.01,0.01,0.01,0.01,400000,0.01
2013-07-25,0.008,0.012,0.008,0.012,375000,0.012
2013-07-26,0.012,0.012,0.012,0.012,0,0.012
2013-07-29,0.012,0.012,0.012,0.012,35000,0.012
2013-07-30,0.012,0.012,0.012,0.012,0,0.012
2013-07-31,0.012,0.012,0.012,0.012,0,0.012
2013-08-01,0.013000000000000001,0.013000000000000001,0.013000000000000001,0.013000000000000001,35000,0.013000000000000001
2013-08-02,0.013000000000000001,0.013000000000000001,0.013000000000000001,0.013000000000000001,0,0.013000000000000001
2013-08-05,0.013000000000000001,0.013000000000000001,0.013000000000000001,0.013000000000000001,0,0.013000000000000001
2013-08-06,0.013000000000000001,0.013000000000000001,0.013000000000000001,0.013000000000000001,0,0.013000000000000001
2013-08-07,0.013000000000000001,0.013000000000000001,0.013000000000000001,0.013000000000000001,0,0.013000000000000001
2013-08-08,0.013000000000000001,0.013000000000000001,0.013000000000000001,0.013000000000000001,0,0.013000000000000001
2013-08-09,0.013000000000000001,0.013000000000000001,0.013000000000000001,0.013000000000000001,0,0.013000000000000001
2013-08-12,0.013000000000000001,0.013000000000000001,0.013000000000000001,0.013000000000000001,0,0.013000000000000001
2013-08-13,0.013000000000000001,0.013000000000000001,0.013000000000000001,0.013000000000000001,0,0.013000000000000001
2013-08-14,0.013000000000000001,0.013000000000000001,0.013000000000000001,0.013000000000000001,0,0.013000000000000001
2013-08-15,0.012,0.012,0.012,0.012,1350000,0.012
2013-08-16,0.012,0.012,0.012,0.012,0,0.012
2013-08-19,0.012,0.012,0.012,0.012,0,0.012
2013-08-20,0.012,0.012,0.012,0.012,0,0.012
2013-08-21,0.012,0.012,0.012,0.012,0,0.012
2013-08-22,0.012,0.012,0.012,0.012,0,0.012
2013-08-23,0.008,0.008,0.008,0.008,50000,0.008
2013-08-26,0.008,0.008,0.008,0.008,0,0.008
2013-08-27,0.008,0.008,0.008,0.008,1225000,0.008
2013-08-28,0.008,0.008,0.008,0.008,249000,0.008
2013-08-29,0.008,0.008,0.008,0.008,6000,0.008
2013-08-30,0.008,0.008,0.008,0.008,0,0.008
2013-09-02,0.008,0.008,0.008,0.008,0,0.008
2013-09-03,0.008,0.008,0.008,0.008,0,0.008
2013-09-04,0.008,0.008,0.008,0.008,0,0.008
2013-09-05,0.008,0.008,0.008,0.008,0,0.008
2013-09-06,0.008,0.008,0.008,0.008,0,0.008
2013-09-09,0.011000000000000001,0.012,0.011000000000000001,0.012,625000,0.012
2013-09-10,0.012,0.012,0.012,0.012,0,0.012
2013-09-11,0.012,0.012,0.012,0.012,0,0.012
2013-09-12,0.012,0.012,0.012,0.012,0,0.012
2013-09-13,0.012,0.012,0.012,0.012,0,0.012
2013-09-16,0.012,0.012,0.012,0.012,500000,0.012
2013-09-17,0.012,0.012,0.012,0.012,0,0.012
2013-09-18,0.012,0.012,0.012,0.012,0,0.012
2013-09-19,0.012,0.012,0.012,0.012,0,0.012
2013-09-20,0.012,0.012,0.012,0.012,0,0.012
2013-09-23,0.012,0.012,0.012,0.012,0,0.012
2013-09-24,0.01,0.01,0.01,0.01,500000,0.01
2013-09-25,0.01,0.01,0.01,0.01,0,0.01
2013-09-26,0.009000000000000001,0.009000000000000001,0.009000000000000001,0.009000000000000001,300000,0.009000000000000001
2013-09-27,0.009000000000000001,0.009000000000000001,0.009000000000000001,0.009000000000000001,0,0.009000000000000001
2013-09-30,0.009000000000000001,0.009000000000000001,0.009000000000000001,0.009000000000000001,0,0.009000000000000001
2013-10-01,0.009000000000000001,0.009000000000000001,0.009000000000000001,0.009000000000000001,0,0.009000000000000001
2013-10-02,0.009000000000000001,0.009000000000000001,0.009000000000000001,0.009000000000000001,0,0.009000000000000001
2013-10-03,0.009000000000000001,0.009000000000000001,0.009000000000000001,0.009000000000000001,0,0.009000000000000001
2013-10-04,0.009000000000000001,0.009000000000000001,0.009000000000000001,0.009000000000000001,0,0.009000000000000001
2013-10-07,0.008,0.009000000000000001,0.008,0.009000000000000001,274900,0.009000000000000001
2013-10-08,0.009000000000000001,0.009000000000000001,0.009000000000000001,0.009000000000000001,0,0.009000000000000001
2013-10-09,0.009000000000000001,0.009000000000000001,0.009000000000000001,0.009000000000000001,0,0.009000000000000001
2013-10-10,0.009000000000000001,0.009000000000000001,0.009000000000000001,0.009000000000000001,0,0.009000000000000001
2013-10-11,0.009000000000000001,0.009000000000000001,0.009000000000000001,0.009000000000000001,0,0.009000000000000001
2013-10-14,0.009000000000000001,0.009000000000000001,0.009000000000000001,0.009000000000000001,0,0.009000000000000001
2013-10-15,0.009000000000000001,0.009000000000000001,0.009000000000000001,0.009000000000000001,0,0.009000000000000001
2013-10-16,0.009000000000000001,0.009000000000000001,0.009000000000000001,0.009000000000000001,21200,0.009000000000000001
2013-10-17,0.009000000000000001,0.009000000000000001,0.009000000000000001,0.009000000000000001,0,0.009000000000000001
2013-10-18,0.009000000000000001,0.009000000000000001,0.009000000000000001,0.009000000000000001,0,0.009000000000000001
2013-10-21,0.009000000000000001,0.009000000000000001,0.009000000000000001,0.009000000000000001,0,0.009000000000000001
2013-10-22,0.009000000000000001,0.009000000000000001,0.009000000000000001,0.009000000000000001,0,0.009000000000000001
2013-10-23,0.01,0.01,0.01,0.01,90000,0.01
2013-10-24,0.01,0.01,0.01,0.01,0,0.01
2013-10-25,0.01,0.01,0.01,0.01,0,0.01
2013-10-28,0.01,0.01,0.01,0.01,0,0.01
2013-10-29,0.01,0.01,0.01,0.01,250000,0.01
2013-10-30,0.01,0.01,0.01,0.01,0,0.01
2013-10-31,0.01,0.01,0.01,0.01,0,0.01
2013-11-01,0.01,0.01,0.01,0.01,0,0.01
2013-11-04,0.01,0.01,0.01,0.01,0,0.01
2013-11-05,0.01,0.01,0.01,0.01,0,0.01
2013-11-06,0.01,0.01,0.01,0.01,0,0.01
2013-11-07,0.01,0.01,0.01,0.01,0,0.01
2013-11-08,0.01,0.01,0.01,0.01,0,0.01
2013-11-11,0.01,0.01,0.01,0.01,0,0.01
2013-11-12,0.01,0.01,0.01,0.01,0,0.01
2013-11-13,0.01,0.01,0.01,0.01,0,0.01
2013-11-14,0.01,0.01,0.01,0.01,0,0.01
2013-11-15,0.01,0.01,0.01,0.01,0,0.01
2013-11-18,0.01,0.01,0.01,0.01,0,0.01
2013-11-19,0.01,0.01,0.01,0.01,0,0.01
2013-11-20,0.01,0.01,0.01,0.01,0,0.01
2013-11-21,0.01,0.01,0.01,0.01,0,0.01
2013-11-22,0.01,0.01,0.01,0.01,0,0.01
2013-11-25,0.01,0.01,0.01,0.01,0,0.01
2013-11-26,0.01,0.01,0.01,0.01,0,0.01
2013-11-27,0.01,0.01,0.01,0.01,0,0.01
2013-11-28,0.01,0.01,0.01,0.01,0,0.01
2013-11-29,0.01,0.01,0.01,0.01,0,0.01
2013-12-02,0.01,0.01,0.01,0.01,0,0.01
2013-12-03,0.01,0.01,0.01,0.01,0,0.01
2013-12-04,0.01,0.01,0.01,0.01,0,0.01
2013-12-05,0.01,0.01,0.01,0.01,600000,0.01
2013-12-06,0.01,0.01,0.01,0.01,0,0.01
2013-12-09,0.01,0.01,0.01,0.01,0,0.01
2013-12-10,0.01,0.01,0.01,0.01,0,0.01
2013-12-11,0.01,0.01,0.01,0.01,0,0.01
2013-12-12,0.01,0.01,0.01,0.01,0,0.01
2013-12-13,0.01,0.01,0.01,0.01,0,0.01
2013-12-16,0.01,0.01,0.01,0.01,0,0.01
2013-12-17,0.01,0.01,0.01,0.01,0,0.01
2013-12-18,0.01,0.01,0.01,0.01,0,0.01
2013-12-19,0.01,0.01,0.01,0.01,0,0.01
2013-12-20,0.01,0.01,0.01,0.01,0,0.01
2013-12-23,0.01,0.01,0.01,0.01,0,0.01
2013-12-24,0.01,0.01,0.01,0.01,0,0.01
2013-12-25,0.01,0.01,0.01,0.01,0,0.01
2013-12-26,0.01,0.01,0.01,0.01,0,0.01
2013-12-27,0.01,0.01,0.01,0.01,0,0.01
2013-12-30,0.01,0.01,0.01,0.01,0,0.01
2013-12-31,0.01,0.01,0.01,0.01,0,0.01
2014-01-01,0.01,0.01,0.01,0.01,0,0.01
2014-01-02,0.01,0.01,0.01,0.01,0,0.01
2014-01-03,0.01,0.01,0.01,0.01,0,0.01
2014-01-06,0.01,0.01,0.01,0.01,0,0.01
2014-01-07,0.01,0.01,0.01,0.01,0,0.01
2014-01-08,0.01,0.01,0.01,0.01,0,0.01
2014-01-09,0.01,0.01,0.01,0.01,0,0.01
2014-01-10,0.01,0.01,0.01,0.01,0,0.01
2014-01-13,0.01,0.01,0.01,0.01,0,0.01
2014-01-14,0.01,0.01,0.01,0.01,0,0.01
2014-01-15,0.01,0.01,0.01,0.01,0,0.01
2014-01-16,0.01,0.01,0.01,0.01,0,0.01
2014-01-17,0.01,0.01,0.01,0.01,0,0.01
2014-01-20,0.01,0.01,0.01,0.01,0,0.01
2014-01-21,0.01,0.01,0.01,0.01,0,0.01
2014-01-22,0.01,0.01,0.01,0.01,0,0.01
2014-01-23,0.01,0.01,0.01,0.01,0,0.01
2014-01-24,0.01,0.01,0.01,0.01,0,0.01
2014-01-27,0.01,0.01,0.01,0.01,0,0.01
2014-01-28,0.01,0.01,0.01,0.01,0,0.01
2014-01-29,0.01,0.01,0.01,0.01,0,0.01
2014-01-30,0.01,0.01,0.01,0.01,0,0.01
2014-01-31,0.01,0.01,0.01,0.01,0,0.01
2014-02-03,0.01,0.01,0.01,0.01,0,0.01
2014-02-04,0.01,0.01,0.01,0.01,0,0.01
2014-02-05,0.01,0.01,0.01,0.01,100000,0.01
2014-02-06,0.01,0.01,0.01,0.01,150000,0.01
2014-02-07,0.01,0.011000000000000001,0.01,0.011000000000000001,420000,0.011000000000000001
2014-02-10,0.01,0.011000000000000001,0.01,0.011000000000000001,650000,0.011000000000000001
2014-02-11,0.01,0.011000000000000001,0.01,0.011000000000000001,750000,0.011000000000000001
2014-02-12,0.011000000000000001,0.011000000000000001,0.011000000000000001,0.011000000000000001,0,0.011000000000000001
2014-02-13,0.011000000000000001,0.011000000000000001,0.011000000000000001,0.011000000000000001,0,0.011000000000000001
2014-02-14,0.011000000000000001,0.011000000000000001,0.011000000000000001,0.011000000000000001,0,0.011000000000000001
2014-02-17,0.011000000000000001,0.011000000000000001,0.011000000000000001,0.011000000000000001,0,0.011000000000000001
2014-02-18,0.011000000000000001,0.011000000000000001,0.011000000000000001,0.011000000000000001,0,0.011000000000000001
2014-02-19,0.011000000000000001,0.011000000000000001,0.011000000000000001,0.011000000000000001,0,0.011000000000000001
2014-02-20,0.011000000000000001,0.011000000000000001,0.011000000000000001,0.011000000000000001,0,0.011000000000000001
2014-02-21,0.011000000000000001,0.011000000000000001,0.011000000000000001,0.011000000000000001,0,0.011000000000000001
2014-02-24,0.011000000000000001,0.011000000000000001,0.011000000000000001,0.011000000000000001,0,0.011000000000000001
2014-02-25,0.011000000000000001,0.011000000000000001,0.011000000000000001,0.011000000000000001,0,0.011000000000000001
2014-02-26,0.011000000000000001,0.011000000000000001,0.011000000000000001,0.011000000000000001,0,0.011000000000000001
2014-02-27,0.011000000000000001,0.011000000000000001,0.011000000000000001,0.011000000000000001,0,0.011000000000000001
2014-02-28,0.011000000000000001,0.011000000000000001,0.011000000000000001,0.011000000000000001,0,0.011000000000000001
2014-03-03,0.011000000000000001,0.011000000000000001,0.011000000000000001,0.011000000000000001,0,0.011000000000000001
2014-03-04,0.011000000000000001,0.011000000000000001,0.011000000000000001,0.011000000000000001,0,0.011000000000000001
2014-03-05,0.01,0.01,0.01,0.01,50000,0.01
2014-03-06,0.01,0.01,0.01,0.01,0,0.01
2014-03-07,0.011000000000000001,0.011000000000000001,0.011000000000000001,0.011000000000000001,224900,0.011000000000000001
2014-03-10,0.011000000000000001,0.011000000000000001,0.011000000000000001,0.011000000000000001,0,0.011000000000000001
2014-03-11,0.011000000000000001,0.011000000000000001,0.011000000000000001,0.011000000000000001,0,0.011000000000000001
2014-03-12,0.011000000000000001,0.011000000000000001,0.011000000000000001,0.011000000000000001,0,0.011000000000000001
2014-03-13,0.011000000000000001,0.011000000000000001,0.011000000000000001,0.011000000000000001,0,0.011000000000000001
2014-03-14,0.011000000000000001,0.011000000000000001,0.011000000000000001,0.011000000000000001,0,0.011000000000000001
2014-03-17,0.011000000000000001,0.011000000000000001,0.011000000000000001,0.011000000000000001,0,0.011000000000000001
2014-03-18,0.011000000000000001,0.011000000000000001,0.011000000000000001,0.011000000000000001,0,0.011000000000000001
2014-03-19,0.011000000000000001,0.011000000000000001,0.011000000000000001,0.011000000000000001,0,0.011000000000000001
2014-03-20,0.011000000000000001,0.011000000000000001,0.011000000000000001,0.011000000000000001,0,0.011000000000000001
2014-03-21,0.011000000000000001,0.011000000000000001,0.011000000000000001,0.011000000000000001,0,0.011000000000000001
2014-03-24,0.011000000000000001,0.011000000000000001,0.011000000000000001,0.011000000000000001,0,0.011000000000000001
2014-03-25,0.011000000000000001,0.011000000000000001,0.011000000000000001,0.011000000000000001,0,0.011000000000000001
2014-03-26,0.011000000000000001,0.011000000000000001,0.011000000000000001,0.011000000000000001,0,0.011000000000000001
2014-03-27,0.011000000000000001,0.011000000000000001,0.011000000000000001,0.011000000000000001,0,0.011000000000000001
2014-03-28,0.011000000000000001,0.011000000000000001,0.011000000000000001,0.011000000000000001,0,0.011000000000000001
2014-03-31,0.011000000000000001,0.011000000000000001,0.011000000000000001,0.011000000000000001,0,0.011000000000000001
2014-04-01,0.011000000000000001,0.011000000000000001,0.011000000000000001,0.011000000000000001,0,0.011000000000000001
2014-04-02,0.011000000000000001,0.011000000000000001,0.011000000000000001,0.011000000000000001,0,0.011000000000000001
2014-04-03,0.011000000000000001,0.011000000000000001,0.011000000000000001,0.011000000000000001,0,0.011000000000000001
2014-04-04,0.011000000000000001,0.011000000000000001,0.011000000000000001,0.011000000000000001,0,0.011000000000000001
2014-04-07,0.011000000000000001,0.011000000000000001,0.011000000000000001,0.011000000000000001,0,0.011000000000000001
2014-04-08,0.011000000000000001,0.011000000000000001,0.011000000000000001,0.011000000000000001,0,0.011000000000000001
2014-04-09,0.011000000000000001,0.011000000000000001,0.011000000000000001,0.011000000000000001,0,0.011000000000000001
2014-04-10,0.011000000000000001,0.011000000000000001,0.011000000000000001,0.011000000000000001,0,0.011000000000000001
2014-04-11,0.011000000000000001,0.011000000000000001,0.011000000000000001,0.011000000000000001,0,0.011000000000000001
2014-04-14,0.011000000000000001,0.011000000000000001,0.011000000000000001,0.011000000000000001,0,0.011000000000000001
2014-04-15,0.009000000000000001,0.009000000000000001,0.009000000000000001,0.009000000000000001,1000000,0.009000000000000001
2014-04-16,0.009000000000000001,0.009000000000000001,0.009000000000000001,0.009000000000000001,1000000,0.009000000000000001
2014-04-17,0.009000000000000001,0.009000000000000001,0.009000000000000001,0.009000000000000001,0,0.009000000000000001
2014-04-18,0.009000000000000001,0.009000000000000001,0.009000000000000001,0.009000000000000001,0,0.009000000000000001
2014-04-21,0.009000000000000001,0.009000000000000001,0.009000000000000001,0.009000000000000001,0,0.009000000000000001
2014-04-22,0.009000000000000001,0.009000000000000001,0.009000000000000001,0.009000000000000001,0,0.009000000000000001
2014-04-23,0.009000000000000001,0.009000000000000001,0.009000000000000001,0.009000000000000001,0,0.009000000000000001
2014-04-24,0.009000000000000001,0.009000000000000001,0.009000000000000001,0.009000000000000001,0,0.009000000000000001
2014-04-25,0.009000000000000001,0.009000000000000001,0.009000000000000001,0.009000000000000001,0,0.009000000000000001
2014-04-28,0.009000000000000001,0.009000000000000001,0.009000000000000001,0.009000000000000001,0,0.009000000000000001
2014-04-29,0.009000000000000001,0.009000000000000001,0.009000000000000001,0.009000000000000001,0,0.009000000000000001
2014-04-30,0.009000000000000001,0.009000000000000001,0.009000000000000001,0.009000000000000001,0,0.009000000000000001
2014-05-01,0.009000000000000001,0.009000000000000001,0.009000000000000001,0.009000000000000001,0,0.009000000000000001
2014-05-02,0.009000000000000001,0.009000000000000001,0.009000000000000001,0.009000000000000001,0,0.009000000000000001
2014-05-05,0.009000000000000001,0.009000000000000001,0.009000000000000001,0.009000000000000001,0,0.009000000000000001
2014-05-06,0.009000000000000001,0.009000000000000001,0.009000000000000001,0.009000000000000001,0,0.009000000000000001
2014-05-07,0.009000000000000001,0.009000000000000001,0.009000000000000001,0.009000000000000001,0,0.009000000000000001
2014-05-08,0.006999999999999999,0.006999999999999999,0.006999999999999999,0.006999999999999999,25000,0.006999999999999999
2014-05-09,0.006999999999999999,0.006999999999999999,0.006999999999999999,0.006999999999999999,0,0.006999999999999999
2014-05-12,0.006,0.006,0.006,0.006,475000,0.006
2014-05-13,0.006,0.006,0.006,0.006,0,0.006
2014-05-14,0.006,0.006,0.006,0.006,0,0.006
2014-05-15,0.006,0.006,0.006,0.006,0,0.006
2014-05-16,0.006,0.006,0.006,0.006,0,0.006
2014-05-19,0.005,0.005,0.005,0.005,500000,0.005
2014-05-20,0.005,0.005,0.004,0.005,3125000,0.005
2014-05-21,0.005,0.005,0.005,0.005,499000,0.005
2014-05-22,0.005,0.005,0.005,0.005,0,0.005
2014-05-23,0.005,0.005,0.005,0.005,0,0.005
2014-05-26,0.005,0.005,0.005,0.005,0,0.005
2014-05-27,0.005,0.005,0.005,0.005,0,0.005
2014-05-28,0.005,0.005,0.005,0.005,0,0.005
2014-05-29,0.005,0.005,0.005,0.005,0,0.005
2014-05-30,0.005,0.005,0.005,0.005,200000,0.005
2014-06-02,0.005,0.005,0.005,0.005,0,0.005
2014-06-03,0.005,0.005,0.005,0.005,0,0.005
2014-06-04,0.005,0.005,0.005,0.005,0,0.005
2014-06-05,0.005,0.005,0.005,0.005,0,0.005
2014-06-06,0.005,0.005,0.005,0.005,0,0.005
2014-06-09,0.005,0.005,0.005,0.005,0,0.005
2014-06-10,0.004,0.004,0.004,0.004,1000000,0.004
2014-06-11,0.004,0.004,0.004,0.004,1355000,0.004
2014-06-12,0.004,0.004,0.004,0.004,0,0.004
2014-06-13,0.004,0.004,0.004,0.004,0,0.004
2014-06-16,0.004,0.004,0.004,0.004,0,0.004
2014-06-17,0.004,0.004,0.004,0.004,0,0.004
2014-06-18,0.004,0.005,0.004,0.005,1855000,0.005
2014-06-19,0.006,0.006,0.005,0.005,2741000,0.005
2014-06-20,0.006,0.006,0.006,0.006,700000,0.006
2014-06-23,0.006,0.006,0.006,0.006,0,0.006
2014-06-24,0.006,0.006,0.006,0.006,1320500,0.006
2014-06-25,0.006,0.006,0.006,0.006,0,0.006
2014-06-26,0.006,0.006,0.005,0.006,2023000,0.006
2014-06-27,0.006,0.006,0.005,0.005,800000,0.005
2014-06-30,0.005,0.005,0.005,0.005,0,0.005
2014-07-01,0.005,0.005,0.005,0.005,0,0.005
2014-07-02,0.005,0.005,0.005,0.005,275000,0.005
2014-07-03,0.005,0.005,0.005,0.005,0,0.005
2014-07-04,0.006999999999999999,0.006999999999999999,0.006,0.006,150000,0.006
2014-07-07,0.006,0.006,0.006,0.006,0,0.006
2014-07-08,0.006999999999999999,0.006999999999999999,0.006999999999999999,0.006999999999999999,500000,0.006999999999999999
2014-07-09,0.006999999999999999,0.006999999999999999,0.006999999999999999,0.006999999999999999,0,0.006999999999999999
2014-07-10,0.006999999999999999,0.006999999999999999,0.006999999999999999,0.006999999999999999,270000,0.006999999999999999
2014-07-11,0.006999999999999999,0.006999999999999999,0.006999999999999999,0.006999999999999999,0,0.006999999999999999
2014-07-14,0.006999999999999999,0.006999999999999999,0.006,0.006,650000,0.006
2014-07-15,0.006,0.006,0.006,0.006,0,0.006
2014-07-16,0.006,0.006,0.006,0.006,0,0.006
2014-07-17,0.006,0.006,0.006,0.006,0,0.006
2014-07-18,0.006,0.006,0.006,0.006,0,0.006
2014-07-21,0.008,0.008,0.008,0.008,1029900,0.008
2014-07-22,0.008,0.008,0.008,0.008,0,0.008
2014-07-23,0.008,0.008,0.006999999999999999,0.006999999999999999,500000,0.006999999999999999
2014-07-24,0.006999999999999999,0.006999999999999999,0.006999999999999999,0.006999999999999999,0,0.006999999999999999
2014-07-25,0.006999999999999999,0.006999999999999999,0.006999999999999999,0.006999999999999999,0,0.006999999999999999
2014-07-28,0.006999999999999999,0.006999999999999999,0.006999999999999999,0.006999999999999999,0,0.006999999999999999
2014-07-29,0.006999999999999999,0.006999999999999999,0.006999999999999999,0.006999999999999999,100000,0.006999999999999999
2014-07-30,0.006999999999999999,0.006999999999999999,0.006999999999999999,0.006999999999999999,0,0.006999999999999999
2014-07-31,0.006999999999999999,0.006999999999999999,0.006999999999999999,0.006999999999999999,0,0.006999999999999999
2014-08-01,0.006999999999999999,0.006999999999999999,0.006999999999999999,0.006999999999999999,0,0.006999999999999999
2014-08-04,0.006999999999999999,0.006999999999999999,0.006999999999999999,0.006999999999999999,0,0.006999999999999999
2014-08-05,0.006999999999999999,0.006999999999999999,0.006999999999999999,0.006999999999999999,0,0.006999999999999999
2014-08-06,0.008,0.008,0.008,0.008,120000,0.008
2014-08-07,0.008,0.008,0.006999999999999999,0.006999999999999999,25000,0.006999999999999999
2014-08-08,0.006999999999999999,0.006999999999999999,0.006999999999999999,0.006999999999999999,0,0.006999999999999999
2014-08-11,0.006999999999999999,0.006999999999999999,0.006999999999999999,0.006999999999999999,0,0.006999999999999999
2014-08-12,0.006999999999999999,0.006999999999999999,0.006999999999999999,0.006999999999999999,0,0.006999999999999999
2014-08-13,0.006999999999999999,0.006999999999999999,0.006999999999999999,0.006999999999999999,0,0.006999999999999999
2014-08-14,0.006999999999999999,0.006999999999999999,0.006999999999999999,0.006999999999999999,0,0.006999999999999999
2014-08-15,0.008,0.008,0.008,0.008,100000,0.008
2014-08-18,0.008,0.008,0.006999999999999999,0.006999999999999999,450000,0.006999999999999999
2014-08-19,0.008,0.008,0.008,0.008,125000,0.008
2014-08-20,0.006999999999999999,0.006999999999999999,0.006999999999999999,0.006999999999999999,500000,0.006999999999999999
2014-08-21,0.006999999999999999,0.006999999999999999,0.006999999999999999,0.006999999999999999,0,0.006999999999999999
2014-08-22,0.006999999999999999,0.006999999999999999,0.006999999999999999,0.006999999999999999,500000,0.006999999999999999
2014-08-25,0.006999999999999999,0.006999999999999999,0.006999999999999999,0.006999999999999999,0,0.006999999999999999
2014-08-26,0.008,0.008,0.008,0.008,100000,0.008
2014-08-27,0.008,0.008,0.008,0.008,150000,0.008
2014-08-28,0.006999999999999999,0.008,0.006999999999999999,0.008,625000,0.008
2014-08-29,0.008,0.008,0.008,0.008,0,0.008
2014-09-01,0.008,0.008,0.008,0.008,0,0.008
2014-09-02,0.008,0.008,0.008,0.008,0,0.008
2014-09-03,0.008,0.008,0.008,0.008,0,0.008
2014-09-04,0.006999999999999999,0.006999999999999999,0.006999999999999999,0.006999999999999999,475000,0.006999999999999999
2014-09-05,0.006999999999999999,0.006999999999999999,0.006999999999999999,0.006999999999999999,0,0.006999999999999999
2014-09-08,0.006999999999999999,0.006999999999999999,0.006999999999999999,0.006999999999999999,0,0.006999999999999999
2014-09-09,0.006999999999999999,0.006999999999999999,0.006999999999999999,0.006999999999999999,0,0.006999999999999999
2014-09-10,0.006999999999999999,0.006999999999999999,0.006999999999999999,0.006999999999999999,0,0.006999999999999999
2014-09-11,0.006999999999999999,0.006999999999999999,0.006999999999999999,0.006999999999999999,0,0.006999999999999999
2014-09-12,0.006999999999999999,0.006999999999999999,0.006999999999999999,0.006999999999999999,0,0.006999999999999999
2014-09-15,0.006999999999999999,0.006999999999999999,0.006,0.006,1500000,0.006
2014-09-16,0.006,0.006,0.006,0.006,0,0.006
2014-09-17,0.006,0.006,0.006,0.006,0,0.006
2014-09-18,0.006,0.006,0.006,0.006,0,0.006
2014-09-19,0.006,0.006,0.006,0.006,0,0.006
2014-09-22,0.006,0.006,0.006,0.006,0,0.006
2014-09-23,0.006,0.006,0.006,0.006,0,0.006
2014-09-24,0.006,0.006,0.006,0.006,0,0.006
2014-09-25,0.006,0.006,0.006,0.006,0,0.006
2014-09-26,0.006,0.006,0.006,0.006,0,0.006
2014-09-29,0.006,0.006,0.006,0.006,0,0.006
2014-09-30,0.006,0.006,0.006,0.006,0,0.006
2014-10-01,0.006,0.006,0.006,0.006,0,0.006
2014-10-02,0.006,0.006,0.006,0.006,0,0.006
2014-10-03,0.006,0.006,0.006,0.006,0,0.006
2014-10-06,0.006,0.006,0.006,0.006,0,0.006
2014-10-07,0.006,0.006,0.006,0.006,0,0.006
2014-10-08,0.006,0.006,0.006,0.006,0,0.006
2014-10-09,0.006,0.006,0.006,0.006,0,0.006
2014-10-10,0.006,0.006,0.006,0.006,0,0.006
2014-10-13,0.006,0.006,0.006,0.006,0,0.006
2014-10-14,0.006,0.006,0.006,0.006,0,0.006
2014-10-15,0.006,0.006,0.006,0.006,0,0.006
2014-10-16,0.006,0.006,0.006,0.006,0,0.006
2014-10-17,0.006,0.006,0.006,0.006,0,0.006
2014-10-20,0.006,0.006,0.006,0.006,0,0.006
2014-10-21,0.006,0.006,0.006,0.006,0,0.006
2014-10-22,0.006,0.006,0.006,0.006,0,0.006
2014-10-23,0.006,0.006,0.006,0.006,0,0.006
2014-10-24,0.006,0.006,0.006,0.006,0,0.006
2014-10-27,0.006,0.006,0.006,0.006,0,0.006
2014-10-28,0.006,0.006,0.006,0.006,0,0.006
2014-10-29,0.006,0.006,0.006,0.006,0,0.006
2014-10-30,0.006,0.006,0.006,0.006,0,0.006
2014-10-31,0.006,0.006,0.006,0.006,0,0.006
2014-11-03,0.006,0.006,0.006,0.006,0,0.006
2014-11-04,0.006,0.006,0.006,0.006,0,0.006
2014-11-05,0.006,0.006,0.006,0.006,0,0.006
2014-11-06,0.006,0.006,0.006,0.006,0,0.006
2014-11-07,0.006,0.006,0.006,0.006,0,0.006
2014-11-10,0.006,0.006,0.006,0.006,0,0.006
2014-11-11,0.006,0.006,0.006,0.006,0,0.006
2014-11-12,0.006,0.006,0.006,0.006,0,0.006
2014-11-13,0.006,0.006,0.006,0.006,0,0.006
2014-11-14,0.006,0.006,0.006,0.006,0,0.006
2014-11-17,0.006,0.006,0.006,0.006,0,0.006
2014-11-18,0.006,0.006,0.006,0.006,0,0.006
2014-11-19,0.006,0.006,0.006,0.006,0,0.006
2014-11-20,0.006,0.006,0.006,0.006,0,0.006
2014-11-21,0.006,0.006,0.006,0.006,0,0.006
2014-11-24,0.006,0.006,0.006,0.006,0,0.006
2014-11-25,0.006,0.006,0.006,0.006,0,0.006
2014-11-26,0.006,0.006,0.006,0.006,0,0.006
2014-11-27,0.006,0.006,0.006,0.006,0,0.006
2014-11-28,0.006,0.006,0.006,0.006,0,0.006
2014-12-01,0.006,0.006,0.006,0.006,0,0.006
2014-12-02,0.006,0.006,0.006,0.006,0,0.006
2014-12-03,0.006,0.006,0.006,0.006,0,0.006
2014-12-04,0.006,0.006,0.006,0.006,0,0.006
2014-12-05,0.006,0.006,0.006,0.006,0,0.006
2014-12-08,0.006,0.006,0.006,0.006,0,0.006
2014-12-09,0.006,0.006,0.006,0.006,0,0.006
2014-12-10,0.006,0.006,0.006,0.006,0,0.006
2014-12-11,0.006,0.006,0.006,0.006,0,0.006
2014-12-12,0.006,0.006,0.006,0.006,0,0.006
2014-12-15,0.006,0.006,0.006,0.006,0,0.006
2014-12-16,0.006,0.006,0.006,0.006,0,0.006
2014-12-17,0.006,0.006,0.006,0.006,0,0.006
2014-12-18,0.006,0.006,0.006,0.006,0,0.006
2014-12-19,0.006,0.006,0.006,0.006,0,0.006
2014-12-22,0.006,0.006,0.006,0.006,0,0.006
2014-12-23,0.006,0.006,0.006,0.006,0,0.006
2014-12-24,0.006,0.006,0.006,0.006,0,0.006
2014-12-25,0.006,0.006,0.006,0.006,0,0.006
2014-12-26,0.006,0.006,0.006,0.006,0,0.006
2014-12-29,0.006,0.006,0.006,0.006,0,0.006
2014-12-30,0.006,0.006,0.006,0.006,0,0.006
2014-12-31,0.006,0.006,0.006,0.006,0,0.006
2015-01-01,0.006,0.006,0.006,0.006,0,0.006
2015-01-02,0.006,0.006,0.006,0.006,0,0.006
2015-01-05,0.006,0.006,0.006,0.006,0,0.006
2015-01-06,0.006,0.006,0.006,0.006,0,0.006
2015-01-07,0.006,0.006,0.006,0.006,0,0.006
2015-01-08,0.006,0.006,0.006,0.006,0,0.006
2015-01-09,0.006,0.006,0.006,0.006,0,0.006
2015-01-12,0.006,0.006,0.006,0.006,0,0.006
2015-01-13,0.006,0.006,0.006,0.006,0,0.006
2015-01-14,0.006,0.006,0.006,0.006,0,0.006
2015-01-15,0.006,0.006,0.006,0.006,0,0.006
2015-01-16,0.006,0.006,0.006,0.006,0,0.006
2015-01-19,0.006,0.006,0.006,0.006,0,0.006
2015-01-20,0.006,0.006,0.006,0.006,0,0.006
2015-01-21,0.006,0.006,0.006,0.006,0,0.006
2015-01-22,0.006,0.006,0.006,0.006,0,0.006
2015-01-23,0.006,0.006,0.006,0.006,0,0.006
2015-01-26,0.006,0.006,0.006,0.006,0,0.006
2015-01-27,0.006,0.006,0.006,0.006,0,0.006
2015-01-28,0.006,0.006,0.006,0.006,0,0.006
2015-01-29,0.006,0.006,0.006,0.006,0,0.006
2015-01-30,0.006,0.006,0.006,0.006,0,0.006
2015-02-02,0.006,0.006,0.006,0.006,0,0.006
2015-02-03,0.006,0.006,0.006,0.006,0,0.006
2015-02-04,0.006,0.006,0.006,0.006,0,0.006
2015-02-05,0.006,0.006,0.006,0.006,0,0.006
2015-02-06,0.006,0.006,0.006,0.006,0,0.006
2015-02-09,0.006,0.006,0.006,0.006,0,0.006
2015-02-10,0.006,0.006,0.006,0.006,0,0.006
2015-02-11,0.006,0.006,0.006,0.006,0,0.006
2015-02-12,0.006,0.006,0.006,0.006,0,0.006
2015-02-13,0.006,0.006,0.006,0.006,0,0.006
2015-02-16,0.006,0.006,0.006,0.006,0,0.006
2015-02-17,0.006,0.006,0.006,0.006,0,0.006
2015-02-18,0.006,0.006,0.006,0.006,0,0.006
2015-02-19,0.006,0.006,0.006,0.006,0,0.006
2015-02-20,0.006,0.006,0.006,0.006,0,0.006
2015-02-23,0.006,0.006,0.006,0.006,0,0.006
2015-02-24,0.006,0.006,0.006,0.006,0,0.006
2015-02-25,0.006,0.006,0.006,0.006,0,0.006
2015-02-26,0.006,0.006,0.006,0.006,0,0.006
2015-02-27,0.006,0.006,0.006,0.006,0,0.006
2015-03-02,0.006,0.006,0.006,0.006,0,0.006
2015-03-03,0.006,0.006,0.006,0.006,0,0.006
2015-03-04,0.006,0.006,0.006,0.006,0,0.006
2015-03-05,0.006,0.006,0.006,0.006,0,0.006
2015-03-06,0.006,0.006,0.006,0.006,0,0.006
2015-03-09,0.006,0.006,0.006,0.006,0,0.006
2015-03-10,0.006,0.006,0.006,0.006,0,0.006
2015-03-11,0.006,0.006,0.006,0.006,0,0.006
2015-03-12,0.006,0.006,0.006,0.006,0,0.006
2015-03-13,0.006,0.006,0.006,0.006,0,0.006
2015-03-16,0.006,0.006,0.006,0.006,0,0.006
2015-03-17,0.006,0.006,0.006,0.006,0,0.006
2015-03-18,0.006,0.006,0.006,0.006,0,0.006
2015-03-19,0.006,0.006,0.006,0.006,0,0.006
2015-03-20,0.006,0.006,0.006,0.006,0,0.006
2015-03-23,0.006,0.006,0.006,0.006,0,0.006
2015-03-24,0.006,0.006,0.006,0.006,0,0.006
2015-03-25,0.006,0.006,0.006,0.006,0,0.006
2015-03-26,0.006,0.006,0.006,0.006,0,0.006
2015-03-27,0.006,0.006,0.006,0.006,0,0.006
2015-03-30,0.006,0.006,0.006,0.006,0,0.006
2015-03-31,0.006,0.006,0.006,0.006,0,0.006
2015-04-01,0.006,0.006,0.006,0.006,0,0.006
2015-04-02,0.006,0.006,0.006,0.006,0,0.006
2015-04-03,0.006,0.006,0.006,0.006,0,0.006
2015-04-06,0.006,0.006,0.006,0.006,0,0.006
2015-04-07,0.006,0.006,0.006,0.006,0,0.006
2015-04-08,0.006,0.006,0.006,0.006,0,0.006
2015-04-09,0.006,0.006,0.006,0.006,0,0.006
2015-04-10,0.006,0.006,0.006,0.006,0,0.006
2015-04-13,0.006,0.006,0.006,0.006,0,0.006
2015-04-14,0.006,0.006,0.006,0.006,0,0.006
2015-04-15,0.006,0.006,0.006,0.006,0,0.006
2015-04-16,0.006,0.006,0.006,0.006,0,0.006
2015-04-17,0.006,0.006,0.006,0.006,0,0.006
2015-04-20,0.006,0.006,0.006,0.006,0,0.006
2015-04-21,0.006,0.006,0.006,0.006,0,0.006
2015-04-22,0.006,0.006,0.006,0.006,0,0.006
2015-04-23,0.006,0.006,0.006,0.006,0,0.006
2015-04-24,0.006,0.006,0.006,0.006,0,0.006
2015-04-27,0.006,0.006,0.006,0.006,0,0.006
2015-04-28,0.006,0.006,0.006,0.006,0,0.006
2015-04-29,0.006,0.006,0.006,0.006,0,0.006
2015-04-30,0.006,0.006,0.006,0.006,0,0.006
2015-05-01,0.006,0.006,0.006,0.006,0,0.006
2015-05-04,0.006,0.006,0.006,0.006,0,0.006
2015-05-05,0.006,0.006,0.006,0.006,0,0.006
2015-05-06,0.006,0.006,0.006,0.006,0,0.006
2015-05-07,0.006,0.006,0.006,0.006,0,0.006
2015-05-08,0.006,0.006,0.006,0.006,0,0.006
2015-05-11,0.006,0.006,0.006,0.006,0,0.006
2015-05-12,0.006,0.006,0.006,0.006,0,0.006
2015-05-13,0.006,0.006,0.006,0.006,0,0.006
2015-05-14,0.006,0.006,0.006,0.006,0,0.006
2015-05-15,0.006,0.006,0.006,0.006,0,0.006
2015-05-18,0.006,0.006,0.006,0.006,0,0.006
2015-05-19,0.006,0.006,0.006,0.006,0,0.006
2015-05-20,0.006,0.006,0.006,0.006,0,0.006
2015-05-21,0.006,0.006,0.006,0.006,0,0.006
2015-05-22,0.006,0.006,0.006,0.006,0,0.006
2015-05-25,0.006,0.006,0.006,0.006,0,0.006
2015-05-26,0.006,0.006,0.006,0.006,0,0.006
2015-05-27,0.006,0.006,0.006,0.006,0,0.006
2015-05-28,0.006,0.006,0.006,0.006,0,0.006
2015-05-29,0.006,0.006,0.006,0.006,0,0.006
2015-06-01,0.006,0.006,0.006,0.006,0,0.006
2015-06-02,0.006,0.006,0.006,0.006,0,0.006
2015-06-03,0.006,0.006,0.006,0.006,0,0.006
2015-06-04,0.006,0.006,0.006,0.006,0,0.006
2015-06-05,0.006,0.006,0.006,0.006,0,0.006
2015-06-08,0.006,0.006,0.006,0.006,0,0.006
2015-06-09,0.006,0.006,0.006,0.006,0,0.006
2015-06-10,0.006,0.006,0.006,0.006,0,0.006
2015-06-11,0.006,0.006,0.006,0.006,0,0.006
2015-06-12,0.006,0.006,0.006,0.006,0,0.006
2015-06-15,0.006,0.006,0.006,0.006,0,0.006
2015-06-16,0.006,0.006,0.006,0.006,0,0.006
2015-06-17,0.006,0.006,0.006,0.006,0,0.006
2015-06-18,0.006,0.006,0.006,0.006,0,0.006
2015-06-19,0.006,0.006,0.006,0.006,0,0.006
2015-06-22,0.006,0.006,0.006,0.006,0,0.006
2015-06-23,0.006,0.006,0.006,0.006,0,0.006
2015-06-24,0.006,0.006,0.006,0.006,0,0.006
2015-06-25,0.006,0.006,0.006,0.006,0,0.006
2015-06-26,0.006,0.006,0.006,0.006,0,0.006
2015-06-29,0.006,0.006,0.006,0.006,0,0.006
2015-06-30,0.006,0.006,0.006,0.006,0,0.006
2015-07-01,0.006,0.006,0.006,0.006,0,0.006
2015-07-02,0.006,0.006,0.006,0.006,0,0.006
2015-07-03,0.006,0.006,0.006,0.006,0,0.006
2015-07-06,0.006,0.006,0.006,0.006,0,0.006
2015-07-07,0.006,0.006,0.006,0.006,0,0.006
2015-07-08,0.006,0.006,0.006,0.006,0,0.006
2015-07-09,0.006,0.006,0.006,0.006,0,0.006
2015-07-10,0.006,0.006,0.006,0.006,0,0.006
2015-07-13,0.006,0.006,0.006,0.006,0,0.006
2015-07-14,0.006,0.006,0.006,0.006,0,0.006
2015-07-15,0.006,0.006,0.006,0.006,0,0.006
2015-07-16,0.006,0.006,0.006,0.006,0,0.006
2015-07-17,0.006,0.006,0.006,0.006,0,0.006
2015-07-20,0.006,0.006,0.006,0.006,0,0.006
2015-07-21,0.006,0.006,0.006,0.006,0,0.006
2015-07-22,0.006,0.006,0.006,0.006,0,0.006
2015-07-23,0.006,0.006,0.006,0.006,0,0.006
2015-07-24,0.006,0.006,0.006,0.006,0,0.006
2015-07-27,0.006,0.006,0.006,0.006,0,0.006
2015-07-28,0.006,0.006,0.006,0.006,0,0.006
2015-07-29,0.006,0.006,0.006,0.006,0,0.006
2015-07-30,0.006,0.006,0.006,0.006,0,0.006
2015-07-31,0.006,0.006,0.006,0.006,0,0.006
2015-08-03,0.006,0.006,0.006,0.006,0,0.006
2015-08-04,0.006,0.006,0.006,0.006,0,0.006
2015-08-05,0.006,0.006,0.006,0.006,0,0.006
2015-08-06,0.006,0.006,0.006,0.006,0,0.006
2015-08-07,0.006,0.006,0.006,0.006,0,0.006
2015-08-10,0.006,0.006,0.006,0.006,0,0.006
2015-08-11,0.006,0.006,0.006,0.006,0,0.006
2015-08-12,0.006,0.006,0.006,0.006,0,0.006
2015-08-13,0.006,0.006,0.006,0.006,0,0.006
2015-08-14,0.006,0.006,0.006,0.006,0,0.006
2015-08-17,0.006,0.006,0.006,0.006,0,0.006
2015-08-18,0.006,0.006,0.006,0.006,0,0.006
2015-08-19,0.006,0.006,0.006,0.006,0,0.006
2015-08-20,0.006,0.006,0.006,0.006,0,0.006
2015-08-24,0.006,0.006,0.006,0.006,0,0.006
2015-08-25,0.006,0.006,0.006,0.006,0,0.006
2015-08-26,0.006,0.006,0.006,0.006,0,0.006
2015-08-27,0.006,0.006,0.006,0.006,0,0.006
2015-08-28,0.006,0.006,0.006,0.006,0,0.006
2015-08-31,0.006,0.006,0.006,0.006,0,0.006
2015-09-01,0.006,0.006,0.006,0.006,0,0.006
2015-09-02,0.006,0.006,0.006,0.006,0,0.006
2015-09-03,0.006,0.006,0.006,0.006,0,0.006
2015-09-04,0.006,0.006,0.006,0.006,0,0.006
2015-09-07,0.006,0.006,0.006,0.006,0,0.006
2015-09-08,0.006,0.006,0.006,0.006,0,0.006
2015-09-09,0.006,0.006,0.006,0.006,0,0.006
2015-09-10,0.006,0.006,0.006,0.006,0,0.006
2015-09-11,0.006,0.006,0.006,0.006,0,0.006
2015-09-14,0.006,0.006,0.006,0.006,0,0.006
2015-09-15,0.006,0.006,0.006,0.006,0,0.006
2015-09-16,0.006,0.006,0.006,0.006,0,0.006
2015-09-17,0.006,0.006,0.006,0.006,0,0.006
2015-09-18,0.006,0.006,0.006,0.006,0,0.006
2015-09-21,0.006,0.006,0.006,0.006,0,0.006
2015-09-22,0.006,0.006,0.006,0.006,0,0.006
2015-09-23,0.006,0.006,0.006,0.006,0,0.006
2015-09-24,0.006,0.006,0.006,0.006,0,0.006
2015-09-25,0.006,0.006,0.006,0.006,0,0.006
2015-09-28,0.006,0.006,0.006,0.006,0,0.006
2015-09-29,0.006,0.006,0.006,0.006,0,0.006
2015-09-30,0.006,0.006,0.006,0.006,0,0.006
2015-10-01,0.006,0.006,0.006,0.006,0,0.006
2015-10-02,0.006,0.006,0.006,0.006,0,0.006
2015-10-05,0.006,0.006,0.006,0.006,0,0.006
2015-10-06,0.006,0.006,0.006,0.006,0,0.006
2015-10-07,0.006,0.006,0.006,0.006,0,0.006
2015-10-08,0.006,0.006,0.006,0.006,0,0.006
2015-10-09,0.006,0.006,0.006,0.006,0,0.006
2015-10-12,0.006,0.006,0.006,0.006,0,0.006
2015-10-13,0.006,0.006,0.006,0.006,0,0.006
2015-10-14,0.006,0.006,0.006,0.006,0,0.006
2015-10-15,0.006,0.006,0.006,0.006,0,0.006
2015-10-16,0.006,0.006,0.006,0.006,0,0.006
2015-10-19,0.006,0.006,0.006,0.006,0,0.006
2015-10-20,0.006,0.006,0.006,0.006,0,0.006
2015-10-21,0.006,0.006,0.006,0.006,0,0.006
2015-10-22,0.006,0.006,0.006,0.006,0,0.006
2015-10-23,0.006,0.006,0.006,0.006,0,0.006
2015-10-26,0.006,0.006,0.006,0.006,0,0.006
2015-10-27,0.006,0.006,0.006,0.006,0,0.006
2015-10-28,0.006,0.006,0.006,0.006,0,0.006
2015-10-29,0.006,0.006,0.006,0.006,0,0.006
2015-10-30,0.006,0.006,0.006,0.006,0,0.006
2015-11-02,0.006,0.006,0.006,0.006,0,0.006
2015-11-03,0.006,0.006,0.006,0.006,0,0.006
2015-11-04,0.006,0.006,0.006,0.006,0,0.006
2015-11-05,0.006,0.006,0.006,0.006,0,0.006
2015-11-06,0.006,0.006,0.006,0.006,0,0.006
2015-11-09,0.006,0.006,0.006,0.006,0,0.006
2015-11-10,0.006,0.006,0.006,0.006,0,0.006
2015-11-11,0.006,0.006,0.006,0.006,0,0.006
2015-11-12,0.006,0.006,0.006,0.006,0,0.006
2015-11-13,0.006,0.006,0.006,0.006,0,0.006
2015-11-16,0.006,0.006,0.006,0.006,0,0.006
2015-11-17,0.006,0.006,0.006,0.006,0,0.006
2015-11-18,0.006,0.006,0.006,0.006,0,0.006
2015-11-19,0.006,0.006,0.006,0.006,0,0.006
2015-11-20,0.006,0.006,0.006,0.006,0,0.006
2015-11-23,0.006,0.006,0.006,0.006,0,0.006
2015-11-24,0.006,0.006,0.006,0.006,0,0.006
2015-11-25,0.006,0.006,0.006,0.006,0,0.006
2015-11-26,0.006,0.006,0.006,0.006,0,0.006
2015-11-27,0.006,0.006,0.006,0.006,0,0.006
2015-11-30,0.006,0.006,0.006,0.006,0,0.006
2015-12-01,0.006,0.006,0.006,0.006,0,0.006
2015-12-02,0.006,0.006,0.006,0.006,0,0.006
2015-12-03,0.006,0.006,0.006,0.006,0,0.006
2015-12-04,0.006,0.006,0.006,0.006,0,0.006
2015-12-07,0.006,0.006,0.006,0.006,0,0.006
2015-12-08,0.006,0.006,0.006,0.006,0,0.006
2015-12-09,0.006,0.006,0.006,0.006,0,0.006
2015-12-10,0.006,0.006,0.006,0.006,0,0.006
2015-12-11,0.006,0.006,0.006,0.006,0,0.006
2015-12-14,0.006,0.006,0.006,0.006,0,0.006
2015-12-15,0.006,0.006,0.006,0.006,0,0.006
2015-12-16,0.006,0.006,0.006,0.006,0,0.006
2015-12-17,0.006,0.006,0.006,0.006,0,0.006
2015-12-18,0.006,0.006,0.006,0.006,0,0.006
2015-12-21,0.006,0.006,0.006,0.006,0,0.006
2015-12-22,0.006,0.006,0.006,0.006,0,0.006
2015-12-23,0.006,0.006,0.006,0.006,0,0.006
2015-12-24,0.006,0.006,0.006,0.006,0,0.006
2015-12-25,0.006,0.006,0.006,0.006,0,0.006
2015-12-28,0.006,0.006,0.006,0.006,0,0.006
2015-12-29,0.006,0.006,0.006,0.006,0,0.006
2015-12-30,0.006,0.006,0.006,0.006,0,0.006
2015-12-31,0.006,0.006,0.006,0.006,0,0.006
2016-01-01,0.006,0.006,0.006,0.006,0,0.006
2016-01-04,0.006,0.006,0.006,0.006,0,0.006
2016-01-05,0.006,0.006,0.006,0.006,0,0.006
2016-01-06,0.006,0.006,0.006,0.006,0,0.006
2016-01-07,0.006,0.006,0.006,0.006,0,0.006
2016-01-08,0.006,0.006,0.006,0.006,0,0.006
2016-01-11,0.006,0.006,0.006,0.006,0,0.006
2016-01-12,0.006,0.006,0.006,0.006,0,0.006
2016-01-13,0.006,0.006,0.006,0.006,0,0.006
2016-01-14,0.006,0.006,0.006,0.006,0,0.006
2016-01-15,0.006,0.006,0.006,0.006,0,0.006
2016-01-18,0.006,0.006,0.006,0.006,0,0.006
2016-01-19,0.006,0.006,0.006,0.006,0,0.006
2016-01-20,0.006,0.006,0.006,0.006,0,0.006
2016-01-21,0.006,0.006,0.006,0.006,0,0.006
2016-01-22,0.006,0.006,0.006,0.006,0,0.006
2016-01-25,0.006,0.006,0.006,0.006,0,0.006
2016-01-26,0.006,0.006,0.006,0.006,0,0.006
2016-01-27,0.006,0.006,0.006,0.006,0,0.006
2016-01-28,0.006,0.006,0.006,0.006,0,0.006
2016-01-29,0.006,0.006,0.006,0.006,0,0.006
2016-02-01,0.006,0.006,0.006,0.006,0,0.006
2016-02-02,0.006,0.006,0.006,0.006,0,0.006
2016-02-03,0.006,0.006,0.006,0.006,0,0.006
2016-02-04,0.006,0.006,0.006,0.006,0,0.006
2016-02-05,0.006,0.006,0.006,0.006,0,0.006
2016-02-08,0.006,0.006,0.006,0.006,0,0.006
2016-02-09,0.006,0.006,0.006,0.006,0,0.006
2016-02-10,0.006,0.006,0.006,0.006,0,0.006
2016-02-11,0.006,0.006,0.006,0.006,0,0.006
2016-02-12,0.006,0.006,0.006,0.006,0,0.006
2016-02-15,0.006,0.006,0.006,0.006,0,0.006
2016-02-16,0.006,0.006,0.006,0.006,0,0.006
2016-02-17,0.006,0.006,0.006,0.006,0,0.006
2016-02-18,0.006,0.006,0.006,0.006,0,0.006
2016-02-19,0.006,0.006,0.006,0.006,0,0.006
2016-02-22,0.006,0.006,0.006,0.006,0,0.006
2016-02-23,0.006,0.006,0.006,0.006,0,0.006
2016-02-24,0.006,0.006,0.006,0.006,0,0.006
2016-02-25,0.006,0.006,0.006,0.006,0,0.006
2016-02-26,0.006,0.006,0.006,0.006,0,0.006
2016-02-29,0.006,0.006,0.006,0.006,0,0.006
2016-03-01,0.006,0.006,0.006,0.006,0,0.006
2016-03-02,0.006,0.006,0.006,0.006,0,0.006
2016-03-03,0.006,0.006,0.006,0.006,0,0.006
2016-03-04,0.006,0.006,0.006,0.006,0,0.006
2016-03-07,0.006,0.006,0.006,0.006,0,0.006
2016-03-08,0.006,0.006,0.006,0.006,0,0.006
2016-03-09,0.006,0.006,0.006,0.006,0,0.006
2016-03-10,0.006,0.006,0.006,0.006,0,0.006
2016-03-11,0.006,0.006,0.006,0.006,0,0.006
2016-03-14,0.006,0.006,0.006,0.006,0,0.006
2016-03-15,0.006,0.006,0.006,0.006,0,0.006
2016-03-16,0.006,0.006,0.006,0.006,0,0.006
2016-03-17,0.006,0.006,0.006,0.006,0,0.006
2016-03-18,0.006,0.006,0.006,0.006,0,0.006
2016-03-21,0.006,0.006,0.006,0.006,0,0.006
2016-03-22,0.006,0.006,0.006,0.006,0,0.006
2016-03-23,0.006,0.006,0.006,0.006,0,0.006
2016-03-24,0.006,0.006,0.006,0.006,0,0.006
2016-03-25,0.006,0.006,0.006,0.006,0,0.006
2016-03-28,0.006,0.006,0.006,0.006,0,0.006
2016-03-29,0.006,0.006,0.006,0.006,0,0.006
2016-03-30,0.006,0.006,0.006,0.006,0,0.006
2016-03-31,0.006,0.006,0.006,0.006,0,0.006
2016-04-01,0.006,0.006,0.006,0.006,0,0.006
2016-04-04,0.006,0.006,0.006,0.006,0,0.006
2016-04-05,0.006,0.006,0.006,0.006,0,0.006
2016-04-06,0.006,0.006,0.006,0.006,0,0.006
2016-04-07,0.006,0.006,0.006,0.006,0,0.006
2016-04-08,0.006,0.006,0.006,0.006,0,0.006
2016-04-11,0.006,0.006,0.006,0.006,0,0.006
2016-04-12,0.006,0.006,0.006,0.006,0,0.006
2016-04-13,0.006,0.006,0.006,0.006,0,0.006
2016-04-14,0.006,0.006,0.006,0.006,0,0.006
2016-04-15,0.006,0.006,0.006,0.006,0,0.006
2016-04-18,0.006,0.006,0.006,0.006,0,0.006
2016-04-19,0.006,0.006,0.006,0.006,0,0.006
2016-04-20,0.006,0.006,0.006,0.006,0,0.006
2016-04-21,0.006,0.006,0.006,0.006,0,0.006
2016-04-22,0.006,0.006,0.006,0.006,0,0.006
2016-04-25,0.006,0.006,0.006,0.006,0,0.006
2016-04-26,0.006,0.006,0.006,0.006,0,0.006
2016-04-27,0.006,0.006,0.006,0.006,0,0.006
2016-04-28,0.006,0.006,0.006,0.006,0,0.006
2016-04-29,0.006,0.006,0.006,0.006,0,0.006
2016-05-02,0.006,0.006,0.006,0.006,0,0.006
2016-05-03,0.006,0.006,0.006,0.006,0,0.006
2016-05-04,0.006,0.006,0.006,0.006,0,0.006
2016-05-05,0.006,0.006,0.006,0.006,0,0.006
2016-05-06,0.006,0.006,0.006,0.006,0,0.006
2016-05-09,0.006,0.006,0.006,0.006,0,0.006
2016-05-10,0.006,0.006,0.006,0.006,0,0.006
2016-05-11,0.006,0.006,0.006,0.006,0,0.006
2016-05-12,0.006,0.006,0.006,0.006,0,0.006
2016-05-13,0.006,0.006,0.006,0.006,0,0.006
2016-05-16,0.006,0.006,0.006,0.006,0,0.006
2016-05-17,0.006,0.006,0.006,0.006,0,0.006
2016-05-18,0.006,0.006,0.006,0.006,0,0.006
2016-05-19,0.006,0.006,0.006,0.006,0,0.006
2016-05-20,0.006,0.006,0.006,0.006,0,0.006
2016-05-23,0.006,0.006,0.006,0.006,0,0.006
2016-05-24,0.006,0.006,0.006,0.006,0,0.006
2016-05-25,0.006,0.006,0.006,0.006,0,0.006
2016-05-26,0.006,0.006,0.006,0.006,0,0.006
2016-05-27,0.006,0.006,0.006,0.006,0,0.006
2016-05-30,0.006,0.006,0.006,0.006,0,0.006
2016-05-31,0.006,0.006,0.006,0.006,0,0.006
2016-06-01,0.006,0.006,0.006,0.006,0,0.006
2016-06-02,0.006,0.006,0.006,0.006,0,0.006
2016-06-03,0.006,0.006,0.006,0.006,0,0.006
2016-06-06,0.006,0.006,0.006,0.006,0,0.006
2016-06-07,0.006,0.006,0.006,0.006,0,0.006
2016-06-08,0.006,0.006,0.006,0.006,0,0.006
2016-06-09,0.006,0.006,0.006,0.006,0,0.006
2016-06-10,0.006,0.006,0.006,0.006,0,0.006
2016-06-13,0.006,0.006,0.006,0.006,0,0.006
2016-06-14,0.006,0.006,0.006,0.006,0,0.006
2016-06-15,0.006,0.006,0.006,0.006,0,0.006
2016-06-16,0.006,0.006,0.006,0.006,0,0.006
2016-06-17,0.006,0.006,0.006,0.006,0,0.006
2016-06-20,0.006,0.006,0.006,0.006,0,0.006
2016-06-21,0.006,0.006,0.006,0.006,0,0.006
2016-06-22,0.006,0.006,0.006,0.006,0,0.006
2016-06-23,0.006,0.006,0.006,0.006,0,0.006
2016-06-24,0.006,0.006,0.006,0.006,0,0.006
2016-06-27,0.006,0.006,0.006,0.006,0,0.006
2016-06-28,0.006,0.006,0.006,0.006,0,0.006
2016-06-29,0.006,0.006,0.006,0.006,0,0.006
2016-06-30,0.006,0.006,0.006,0.006,0,0.006
2016-07-01,0.006,0.006,0.006,0.006,0,0.006
2016-07-04,0.006,0.006,0.006,0.006,0,0.006
2016-07-05,0.006,0.006,0.006,0.006,0,0.006
2016-07-06,0.006,0.006,0.006,0.006,0,0.006
2016-07-07,0.006,0.006,0.006,0.006,0,0.006
2016-07-08,0.006,0.006,0.006,0.006,0,0.006
2016-07-11,0.006,0.006,0.006,0.006,0,0.006
2016-07-12,0.006,0.006,0.006,0.006,0,0.006
2016-07-13,0.006,0.006,0.006,0.006,0,0.006
2016-07-14,0.006,0.006,0.006,0.006,0,0.006
2016-07-15,0.006,0.006,0.006,0.006,0,0.006
2016-07-18,0.006,0.006,0.006,0.006,0,0.006
2016-07-19,0.006,0.006,0.006,0.006,0,0.006
2016-07-20,0.006,0.006,0.006,0.006,0,0.006
2016-07-21,0.006,0.006,0.006,0.006,0,0.006
2016-07-22,0.006,0.006,0.006,0.006,0,0.006
2016-07-25,0.006,0.006,0.006,0.006,0,0.006
2016-07-26,0.006,0.006,0.006,0.006,0,0.006
2016-07-27,0.006,0.006,0.006,0.006,0,0.006
2016-07-28,0.006,0.006,0.006,0.006,0,0.006
2016-07-29,0.006,0.006,0.006,0.006,0,0.006
2016-08-01,0.006,0.006,0.006,0.006,0,0.006
2016-08-02,0.006,0.006,0.006,0.006,0,0.006
2016-08-03,0.006,0.006,0.006,0.006,0,0.006
2016-08-04,0.006,0.006,0.006,0.006,0,0.006
2016-08-05,0.006,0.006,0.006,0.006,0,0.006
2016-08-08,0.006,0.006,0.006,0.006,0,0.006
2016-08-09,0.006,0.006,0.006,0.006,0,0.006
2016-08-10,0.006,0.006,0.006,0.006,0,0.006
2016-08-11,0.006,0.006,0.006,0.006,0,0.006
2016-08-12,0.006,0.006,0.006,0.006,0,0.006
2016-08-15,0.006,0.006,0.006,0.006,0,0.006
2016-08-16,0.006,0.006,0.006,0.006,0,0.006
2016-08-17,0.006,0.006,0.006,0.006,0,0.006
2016-08-18,0.006,0.006,0.006,0.006,0,0.006
2016-08-19,0.006,0.006,0.006,0.006,0,0.006
2016-08-22,0.006,0.006,0.006,0.006,0,0.006
2016-08-23,0.006,0.006,0.006,0.006,0,0.006
2016-08-24,0.006,0.006,0.006,0.006,0,0.006
2016-08-25,0.006,0.006,0.006,0.006,0,0.006
2016-08-26,0.006,0.006,0.006,0.006,0,0.006
2016-08-29,0.006,0.006,0.006,0.006,0,0.006
2016-08-30,0.006,0.006,0.006,0.006,0,0.006
2016-08-31,0.006,0.006,0.006,0.006,0,0.006
2016-09-01,0.006,0.006,0.006,0.006,0,0.006
2016-09-02,0.006,0.006,0.006,0.006,0,0.006
2016-09-05,0.006,0.006,0.006,0.006,0,0.006
2016-09-06,0.006,0.006,0.006,0.006,0,0.006
2016-09-07,0.006,0.006,0.006,0.006,0,0.006
2016-09-08,0.006,0.006,0.006,0.006,0,0.006
2016-09-09,0.006,0.006,0.006,0.006,0,0.006
2016-09-12,0.006,0.006,0.006,0.006,0,0.006
2016-09-13,0.006,0.006,0.006,0.006,0,0.006
2016-09-14,0.006,0.006,0.006,0.006,0,0.006
2016-09-15,0.006,0.006,0.006,0.006,0,0.006
2016-09-16,0.006,0.006,0.006,0.006,0,0.006
2016-09-19,0.006,0.006,0.006,0.006,0,0.006
2016-09-20,0.006,0.006,0.006,0.006,0,0.006
2016-09-21,0.006,0.006,0.006,0.006,0,0.006
2016-09-22,0.006,0.006,0.006,0.006,0,0.006
2016-09-23,0.006,0.006,0.006,0.006,0,0.006
2016-09-26,0.006,0.006,0.006,0.006,0,0.006
2016-09-27,0.006,0.006,0.006,0.006,0,0.006
2016-09-28,0.006,0.006,0.006,0.006,0,0.006
2016-09-29,0.006,0.006,0.006,0.006,0,0.006
2016-09-30,0.006,0.006,0.006,0.006,0,0.006
2016-10-03,0.006,0.006,0.006,0.006,0,0.006
2016-10-04,0.006,0.006,0.006,0.006,0,0.006
2016-10-05,0.006,0.006,0.006,0.006,0,0.006
2016-10-06,0.006,0.006,0.006,0.006,0,0.006
2016-10-07,0.006,0.006,0.006,0.006,0,0.006
2016-10-10,0.006,0.006,0.006,0.006,0,0.006
2016-10-11,0.006,0.006,0.006,0.006,0,0.006
2016-10-12,0.006,0.006,0.006,0.006,0,0.006
2016-10-13,0.006,0.006,0.006,0.006,0,0.006
2016-10-14,0.006,0.006,0.006,0.006,0,0.006
2016-10-17,0.006,0.006,0.006,0.006,0,0.006
2016-10-18,0.006,0.006,0.006,0.006,0,0.006
2016-10-19,0.006,0.006,0.006,0.006,0,0.006
2016-10-20,0.006,0.006,0.006,0.006,0,0.006
2016-10-21,0.006,0.006,0.006,0.006,0,0.006
2016-10-24,0.006,0.006,0.006,0.006,0,0.006
2016-10-25,0.006,0.006,0.006,0.006,0,0.006
2016-10-26,0.006,0.006,0.006,0.006,0,0.006
2016-10-27,0.006,0.006,0.006,0.006,0,0.006
2016-10-28,0.006,0.006,0.006,0.006,0,0.006
2016-10-31,0.006,0.006,0.006,0.006,0,0.006
2016-11-01,0.006,0.006,0.006,0.006,0,0.006
2016-11-02,0.006,0.006,0.006,0.006,0,0.006
2016-11-03,0.006,0.006,0.006,0.006,0,0.006
2016-11-04,0.006,0.006,0.006,0.006,0,0.006
2016-11-07,0.006,0.006,0.006,0.006,0,0.006
2016-11-08,0.006,0.006,0.006,0.006,0,0.006
2016-11-09,0.006,0.006,0.006,0.006,0,0.006
2016-11-10,0.006,0.006,0.006,0.006,0,0.006
2016-11-11,0.006,0.006,0.006,0.006,0,0.006
2016-11-14,0.006,0.006,0.006,0.006,0,0.006
2016-11-15,0.006,0.006,0.006,0.006,0,0.006
2016-11-16,0.006,0.006,0.006,0.006,0,0.006
2016-11-17,0.006,0.006,0.006,0.006,0,0.006
2016-11-18,0.006,0.006,0.006,0.006,0,0.006
2016-11-21,0.006,0.006,0.006,0.006,0,0.006
2016-11-22,0.006,0.006,0.006,0.006,0,0.006
2016-11-23,0.006,0.006,0.006,0.006,0,0.006
2016-11-24,0.006,0.006,0.006,0.006,0,0.006
2016-11-25,0.006,0.006,0.006,0.006,0,0.006
2016-11-28,0.006,0.006,0.006,0.006,0,0.006
2016-11-29,0.006,0.006,0.006,0.006,0,0.006
2016-11-30,0.006,0.006,0.006,0.006,0,0.006
2016-12-01,0.006,0.006,0.006,0.006,0,0.006
2016-12-02,0.006,0.006,0.006,0.006,0,0.006
2016-12-05,0.006,0.006,0.006,0.006,0,0.006
2016-12-06,0.006,0.006,0.006,0.006,0,0.006
2016-12-07,0.006,0.006,0.006,0.006,0,0.006
2016-12-08,0.006,0.006,0.006,0.006,0,0.006
2016-12-09,0.006,0.006,0.006,0.006,0,0.006
2016-12-12,0.006,0.006,0.006,0.006,0,0.006
2016-12-13,0.006,0.006,0.006,0.006,0,0.006
2016-12-14,0.006,0.006,0.006,0.006,0,0.006
2016-12-15,0.006,0.006,0.006,0.006,0,0.006
2016-12-16,0.006,0.006,0.006,0.006,0,0.006
2016-12-19,0.006,0.006,0.006,0.006,0,0.006
2016-12-20,0.006,0.006,0.006,0.006,0,0.006
2016-12-21,0.006,0.006,0.006,0.006,0,0.006
2016-12-22,0.006,0.006,0.006,0.006,0,0.006
2016-12-23,0.006,0.006,0.006,0.006,0,0.006
2016-12-26,0.006,0.006,0.006,0.006,0,0.006
2016-12-27,0.006,0.006,0.006,0.006,0,0.006
2016-12-28,0.006,0.006,0.006,0.006,0,0.006
2016-12-29,0.006,0.006,0.006,0.006,0,0.006
2016-12-30,0.006,0.006,0.006,0.006,0,0.006
