Date,Open,High,Low,Close,Volume,Adj Close
2011-08-17,0.14667,0.154,0.13932999999999998,0.13932999999999998,467000,0.13932999999999998
2011-08-18,0.14300000000000002,0.14300000000000002,0.13932999999999998,0.13932999999999998,122700,0.13932999999999998
2011-08-19,0.13932999999999998,0.13932999999999998,0.12467,0.12833,279500,0.12833
2011-08-22,0.11732999999999999,0.11732999999999999,0.11367000000000001,0.11732999999999999,150000,0.11732999999999999
2011-08-23,0.121,0.12833,0.121,0.12833,102200,0.12833
2011-08-24,0.12833,0.132,0.12833,0.132,255600,0.132
2011-08-26,0.12467,0.12467,0.12467,0.12467,34000,0.12467
2011-08-29,0.11732999999999999,0.11732999999999999,0.11732999999999999,0.11732999999999999,13600,0.11732999999999999
2011-08-30,0.12833,0.12833,0.12833,0.12833,68100,0.12833
2011-08-31,0.12467,0.12467,0.12467,0.12467,34000,0.12467
2011-09-01,0.121,0.12833,0.121,0.12833,40900,0.12833
2011-09-05,0.121,0.121,0.11367000000000001,0.11367000000000001,61300,0.11367000000000001
2011-09-06,0.11732999999999999,0.11732999999999999,0.11367000000000001,0.11367000000000001,37500,0.11367000000000001
2011-09-08,0.11732999999999999,0.11732999999999999,0.11732999999999999,0.11732999999999999,10200,0.11732999999999999
2011-09-12,0.11732999999999999,0.11732999999999999,0.11367000000000001,0.11367000000000001,37500,0.11367000000000001
2011-09-13,0.11732999999999999,0.11732999999999999,0.11732999999999999,0.11732999999999999,68100,0.11732999999999999
2011-09-16,0.11367000000000001,0.11367000000000001,0.11367000000000001,0.11367000000000001,27200,0.11367000000000001
2011-09-19,0.11732999999999999,0.11732999999999999,0.11367000000000001,0.11367000000000001,37400,0.11367000000000001
2011-09-26,0.11367000000000001,0.11367000000000001,0.11367000000000001,0.11367000000000001,61300,0.11367000000000001
2011-09-27,0.11367000000000001,0.11367000000000001,0.11367000000000001,0.11367000000000001,27200,0.11367000000000001
2011-10-03,0.11367000000000001,0.11367000000000001,0.11,0.11,73300,0.11
2011-10-05,0.11,0.11,0.11,0.11,76600,0.11
2011-10-07,0.11,0.11,0.11,0.11,13600,0.11
2011-10-10,0.11,0.11,0.10267000000000001,0.10633,340900,0.10633
2011-10-11,0.10267000000000001,0.10267000000000001,0.10267000000000001,0.10267000000000001,13600,0.10267000000000001
2011-10-17,0.10267000000000001,0.10267000000000001,0.10267000000000001,0.10267000000000001,136300,0.10267000000000001
2011-10-18,0.10267000000000001,0.10267000000000001,0.10267000000000001,0.10267000000000001,13600,0.10267000000000001
2011-10-19,0.10267000000000001,0.10267000000000001,0.10267000000000001,0.10267000000000001,13600,0.10267000000000001
2011-10-24,0.10267000000000001,0.10267000000000001,0.10267000000000001,0.10267000000000001,27200,0.10267000000000001
2011-10-26,0.10267000000000001,0.10267000000000001,0.10267000000000001,0.10267000000000001,13600,0.10267000000000001
2011-10-27,0.10267000000000001,0.10267000000000001,0.10267000000000001,0.10267000000000001,61300,0.10267000000000001
2011-10-28,0.10267000000000001,0.10267000000000001,0.10267000000000001,0.10267000000000001,13600,0.10267000000000001
2011-11-03,0.10267000000000001,0.10267000000000001,0.099,0.099,136300,0.099
2011-11-04,0.10267000000000001,0.10267000000000001,0.099,0.099,27200,0.099
2011-11-09,0.10267000000000001,0.10267000000000001,0.10267000000000001,0.10267000000000001,13600,0.10267000000000001
2011-11-11,0.10633,0.11367000000000001,0.10633,0.11367000000000001,231800,0.11367000000000001
2011-11-17,0.11,0.11367000000000001,0.11,0.11367000000000001,115900,0.11367000000000001
2011-11-18,0.11367000000000001,0.11367000000000001,0.11367000000000001,0.11367000000000001,0,0.11367000000000001
2011-11-21,0.11367000000000001,0.11367000000000001,0.10633,0.10633,197700,0.10633
2011-11-22,0.10633,0.10633,0.10633,0.10633,0,0.10633
2011-11-23,0.10633,0.10633,0.10633,0.10633,0,0.10633
2011-11-24,0.10633,0.10633,0.10633,0.10633,0,0.10633
2011-11-25,0.10633,0.10633,0.10633,0.10633,0,0.10633
2011-11-28,0.10633,0.10633,0.099,0.099,231800,0.099
2011-11-29,0.099,0.099,0.099,0.099,13600,0.099
2011-11-30,0.099,0.099,0.099,0.099,27200,0.099
2011-12-01,0.10267000000000001,0.10267000000000001,0.10267000000000001,0.10267000000000001,20400,0.10267000000000001
2011-12-02,0.10267000000000001,0.10267000000000001,0.10267000000000001,0.10267000000000001,34000,0.10267000000000001
2011-12-05,0.10267000000000001,0.10267000000000001,0.10267000000000001,0.10267000000000001,27200,0.10267000000000001
2011-12-06,0.10267000000000001,0.10267000000000001,0.10267000000000001,0.10267000000000001,0,0.10267000000000001
2011-12-07,0.10267000000000001,0.10267000000000001,0.10267000000000001,0.10267000000000001,0,0.10267000000000001
2011-12-08,0.08800000000000001,0.08800000000000001,0.08800000000000001,0.08800000000000001,41400,0.08800000000000001
2011-12-09,0.08800000000000001,0.08800000000000001,0.08800000000000001,0.08800000000000001,0,0.08800000000000001
2011-12-12,0.08800000000000001,0.08800000000000001,0.08800000000000001,0.08800000000000001,27200,0.08800000000000001
2011-12-13,0.08800000000000001,0.08800000000000001,0.08800000000000001,0.08800000000000001,0,0.08800000000000001
2011-12-14,0.09533,0.09533,0.09533,0.09533,22100,0.09533
2011-12-15,0.09533,0.09533,0.09533,0.09533,0,0.09533
2011-12-16,0.09533,0.09533,0.09533,0.09533,0,0.09533
2011-12-19,0.09533,0.09533,0.09533,0.09533,0,0.09533
2011-12-20,0.09533,0.09533,0.09533,0.09533,0,0.09533
2011-12-21,0.10633,0.10633,0.10633,0.10633,13600,0.10633
2011-12-22,0.09533,0.09533,0.09533,0.09533,13600,0.09533
2011-12-23,0.10267000000000001,0.10267000000000001,0.10267000000000001,0.10267000000000001,34000,0.10267000000000001
2011-12-26,0.09533,0.09533,0.09533,0.09533,0,0.09533
2011-12-27,0.09533,0.09533,0.09533,0.09533,0,0.09533
2011-12-28,0.09533,0.09533,0.09533,0.09533,0,0.09533
2011-12-29,0.09533,0.09533,0.09533,0.09533,0,0.09533
2011-12-30,0.09533,0.09533,0.09533,0.09533,0,0.09533
2012-01-02,0.09533,0.09533,0.09533,0.09533,0,0.09533
2012-01-03,0.09533,0.09533,0.09533,0.09533,0,0.09533
2012-01-04,0.09533,0.09533,0.09533,0.09533,0,0.09533
2012-01-05,0.09533,0.09533,0.09533,0.09533,0,0.09533
2012-01-06,0.09533,0.09533,0.09533,0.09533,0,0.09533
2012-01-09,0.099,0.10267000000000001,0.099,0.10267000000000001,136300,0.10267000000000001
2012-01-10,0.10267000000000001,0.10267000000000001,0.10267000000000001,0.10267000000000001,0,0.10267000000000001
2012-01-11,0.10267000000000001,0.10267000000000001,0.10267000000000001,0.10267000000000001,0,0.10267000000000001
2012-01-12,0.10267000000000001,0.10267000000000001,0.10267000000000001,0.10267000000000001,0,0.10267000000000001
2012-01-13,0.10267000000000001,0.10267000000000001,0.10267000000000001,0.10267000000000001,0,0.10267000000000001
2012-01-16,0.10267000000000001,0.10267000000000001,0.10267000000000001,0.10267000000000001,0,0.10267000000000001
2012-01-17,0.10267000000000001,0.10267000000000001,0.10267000000000001,0.10267000000000001,0,0.10267000000000001
2012-01-18,0.10267000000000001,0.10267000000000001,0.10267000000000001,0.10267000000000001,0,0.10267000000000001
2012-01-19,0.10267000000000001,0.10267000000000001,0.10267000000000001,0.10267000000000001,0,0.10267000000000001
2012-01-20,0.099,0.099,0.099,0.099,40900,0.099
2012-01-23,0.099,0.10267000000000001,0.099,0.10267000000000001,138200,0.10267000000000001
2012-01-24,0.10267000000000001,0.10267000000000001,0.10267000000000001,0.10267000000000001,0,0.10267000000000001
2012-01-25,0.11,0.11,0.11,0.11,146500,0.11
2012-01-26,0.11,0.11,0.11,0.11,0,0.11
2012-01-27,0.11,0.11,0.11,0.11,0,0.11
2012-01-31,0.11,0.11,0.11,0.11,0,0.11
2012-02-01,0.11,0.11,0.11,0.11,0,0.11
2012-02-02,0.11,0.11,0.11,0.11,0,0.11
2012-02-03,0.11,0.11,0.11,0.11,0,0.11
2012-02-06,0.11,0.11,0.11,0.11,13600,0.11
2012-02-07,0.11,0.11,0.11,0.11,0,0.11
2012-02-08,0.11,0.11,0.11,0.11,0,0.11
2012-02-09,0.11732999999999999,0.11732999999999999,0.11732999999999999,0.11732999999999999,68100,0.11732999999999999
2012-02-10,0.11732999999999999,0.11732999999999999,0.11732999999999999,0.11732999999999999,0,0.11732999999999999
2012-02-13,0.11732999999999999,0.11732999999999999,0.11732999999999999,0.11732999999999999,0,0.11732999999999999
2012-02-14,0.11732999999999999,0.11732999999999999,0.11732999999999999,0.11732999999999999,0,0.11732999999999999
2012-02-15,0.11,0.11,0.11,0.11,20400,0.11
2012-02-16,0.11,0.11,0.11,0.11,17000,0.11
2012-02-17,0.11,0.11,0.11,0.11,54500,0.11
2012-02-20,0.11,0.11,0.11,0.11,0,0.11
2012-02-21,0.11,0.11,0.11,0.11,0,0.11
2012-02-22,0.11,0.11,0.11,0.11,0,0.11
2012-02-23,0.11,0.11,0.11,0.11,145000,0.11
2012-02-24,0.11,0.11,0.11,0.11,0,0.11
2012-02-27,0.11,0.11,0.11,0.11,11700,0.11
2012-02-28,0.099,0.099,0.099,0.099,8600,0.099
2012-02-29,0.11,0.11,0.11,0.11,75000,0.11
2012-03-01,0.11,0.11,0.11,0.11,68100,0.11
2012-03-02,0.10633,0.10633,0.10267000000000001,0.10267000000000001,68100,0.10267000000000001
2012-03-05,0.10267000000000001,0.10267000000000001,0.10267000000000001,0.10267000000000001,0,0.10267000000000001
2012-03-06,0.10267000000000001,0.10267000000000001,0.10267000000000001,0.10267000000000001,20400,0.10267000000000001
2012-03-07,0.10267000000000001,0.10267000000000001,0.10267000000000001,0.10267000000000001,0,0.10267000000000001
2012-03-08,0.10267000000000001,0.10267000000000001,0.10267000000000001,0.10267000000000001,0,0.10267000000000001
2012-03-09,0.11367000000000001,0.11367000000000001,0.11367000000000001,0.11367000000000001,34000,0.11367000000000001
2012-03-12,0.11732999999999999,0.11732999999999999,0.11732999999999999,0.11732999999999999,68100,0.11732999999999999
2012-03-13,0.11732999999999999,0.11732999999999999,0.11732999999999999,0.11732999999999999,0,0.11732999999999999
2012-03-14,0.11732999999999999,0.11732999999999999,0.11732999999999999,0.11732999999999999,0,0.11732999999999999
2012-03-15,0.11732999999999999,0.11732999999999999,0.11732999999999999,0.11732999999999999,0,0.11732999999999999
2012-03-16,0.11732999999999999,0.11732999999999999,0.11732999999999999,0.11732999999999999,0,0.11732999999999999
2012-03-19,0.11,0.11,0.11,0.11,34000,0.11
2012-03-20,0.11367000000000001,0.11367000000000001,0.11367000000000001,0.11367000000000001,136300,0.11367000000000001
2012-03-21,0.11367000000000001,0.11367000000000001,0.11367000000000001,0.11367000000000001,0,0.11367000000000001
2012-03-22,0.11,0.11,0.10633,0.10633,71800,0.10633
2012-03-23,0.10633,0.10633,0.10633,0.10633,0,0.10633
2012-03-26,0.10633,0.10633,0.10633,0.10633,0,0.10633
2012-03-27,0.10633,0.10633,0.10633,0.10633,0,0.10633
2012-03-28,0.10633,0.10633,0.10633,0.10633,0,0.10633
2012-03-29,0.10633,0.10633,0.10633,0.10633,0,0.10633
2012-03-30,0.10633,0.10633,0.10633,0.10633,0,0.10633
2012-04-02,0.10633,0.10633,0.10633,0.10633,0,0.10633
2012-04-03,0.10633,0.10633,0.10633,0.10633,0,0.10633
2012-04-04,0.10633,0.10633,0.10633,0.10633,0,0.10633
2012-04-05,0.10633,0.10633,0.10633,0.10633,0,0.10633
2012-04-06,0.10633,0.10633,0.10633,0.10633,0,0.10633
2012-04-09,0.10633,0.10633,0.10633,0.10633,0,0.10633
2012-04-10,0.10633,0.10633,0.10633,0.10633,0,0.10633
2012-04-11,0.10267000000000001,0.10267000000000001,0.10267000000000001,0.10267000000000001,136300,0.10267000000000001
2012-04-12,0.099,0.099,0.099,0.099,88600,0.099
2012-04-13,0.099,0.099,0.099,0.099,0,0.099
2012-04-16,0.099,0.099,0.099,0.099,0,0.099
2012-04-17,0.099,0.099,0.099,0.099,0,0.099
2012-04-18,0.099,0.099,0.099,0.099,0,0.099
2012-04-19,0.10267000000000001,0.11,0.10267000000000001,0.11,286300,0.11
2012-04-20,0.11,0.11,0.11,0.11,0,0.11
2012-04-23,0.11,0.11,0.11,0.11,0,0.11
2012-04-24,0.11,0.11,0.11,0.11,0,0.11
2012-04-25,0.11,0.11,0.11,0.11,0,0.11
2012-04-26,0.11,0.132,0.11,0.132,252200,0.132
2012-04-27,0.132,0.132,0.132,0.132,0,0.132
2012-04-30,0.132,0.132,0.132,0.132,0,0.132
2012-05-01,0.132,0.132,0.132,0.132,0,0.132
2012-05-02,0.12833,0.12833,0.12833,0.12833,20400,0.12833
2012-05-03,0.12833,0.12833,0.12833,0.12833,0,0.12833
2012-05-04,0.11732999999999999,0.11732999999999999,0.11732999999999999,0.11732999999999999,27200,0.11732999999999999
2012-05-07,0.11732999999999999,0.11732999999999999,0.11732999999999999,0.11732999999999999,9900,0.11732999999999999
2012-05-08,0.11732999999999999,0.11732999999999999,0.11732999999999999,0.11732999999999999,0,0.11732999999999999
2012-05-09,0.11732999999999999,0.11732999999999999,0.11732999999999999,0.11732999999999999,0,0.11732999999999999
2012-05-10,0.11,0.11,0.09533,0.09533,34000,0.09533
2012-05-11,0.09533,0.09533,0.09533,0.09533,0,0.09533
2012-05-14,0.09533,0.09533,0.09533,0.09533,0,0.09533
2012-05-15,0.09533,0.09533,0.09533,0.09533,0,0.09533
2012-05-16,0.09533,0.09533,0.09533,0.09533,0,0.09533
2012-05-17,0.09533,0.09533,0.09533,0.09533,0,0.09533
2012-05-18,0.08433,0.08433,0.08433,0.08433,68100,0.08433
2012-05-21,0.08433,0.08433,0.08433,0.08433,0,0.08433
2012-05-22,0.08433,0.08433,0.08433,0.08433,0,0.08433
2012-05-23,0.08433,0.08433,0.08433,0.08433,0,0.08433
2012-05-24,0.08433,0.08433,0.08433,0.08433,0,0.08433
2012-05-25,0.08433,0.08433,0.08433,0.08433,0,0.08433
2012-05-28,0.08433,0.08433,0.08433,0.08433,0,0.08433
2012-05-29,0.08433,0.08433,0.08433,0.08433,0,0.08433
2012-05-30,0.08433,0.08433,0.08433,0.08433,0,0.08433
2012-05-31,0.08433,0.08433,0.08433,0.08433,0,0.08433
2012-06-01,0.08433,0.08433,0.08433,0.08433,0,0.08433
2012-06-04,0.08433,0.08433,0.08433,0.08433,0,0.08433
2012-06-05,0.08433,0.08433,0.08433,0.08433,0,0.08433
2012-06-06,0.08433,0.08433,0.08433,0.08433,0,0.08433
2012-06-07,0.09167,0.09167,0.09167,0.09167,13600,0.09167
2012-06-08,0.09167,0.09167,0.09167,0.09167,0,0.09167
2012-06-11,0.09167,0.09167,0.09167,0.09167,0,0.09167
2012-06-12,0.09167,0.09167,0.08800000000000001,0.08800000000000001,27200,0.08800000000000001
2012-06-13,0.08800000000000001,0.08800000000000001,0.08067,0.08067,13600,0.08067
2012-06-14,0.08067,0.08067,0.08067,0.08067,0,0.08067
2012-06-15,0.08067,0.08067,0.08067,0.08067,0,0.08067
2012-06-18,0.08067,0.08067,0.08067,0.08067,0,0.08067
2012-06-19,0.08067,0.08067,0.08067,0.08067,0,0.08067
2012-06-20,0.08067,0.08067,0.08067,0.08067,0,0.08067
2012-06-21,0.08067,0.08067,0.08067,0.08067,0,0.08067
2012-06-22,0.08433,0.08433,0.08433,0.08433,136300,0.08433
2012-06-25,0.08067,0.08067,0.08067,0.08067,13600,0.08067
2012-06-26,0.08067,0.08067,0.08067,0.08067,0,0.08067
2012-06-27,0.08067,0.08067,0.08067,0.08067,0,0.08067
2012-06-28,0.08067,0.08067,0.08067,0.08067,34000,0.08067
2012-06-29,0.08067,0.08067,0.07332999999999999,0.07332999999999999,27200,0.07332999999999999
2012-07-02,0.07332999999999999,0.07332999999999999,0.07332999999999999,0.07332999999999999,0,0.07332999999999999
2012-07-03,0.07332999999999999,0.07332999999999999,0.07332999999999999,0.07332999999999999,0,0.07332999999999999
2012-07-04,0.07332999999999999,0.07332999999999999,0.07332999999999999,0.07332999999999999,0,0.07332999999999999
2012-07-05,0.08067,0.08433,0.08067,0.08433,34000,0.08433
2012-07-06,0.08433,0.08433,0.08433,0.08433,6800,0.08433
2012-07-09,0.08433,0.08433,0.08433,0.08433,13600,0.08433
2012-07-10,0.08433,0.08433,0.08433,0.08433,0,0.08433
2012-07-11,0.08433,0.08433,0.08433,0.08433,0,0.08433
2012-07-12,0.08433,0.08433,0.08433,0.08433,0,0.08433
2012-07-13,0.08433,0.08433,0.08433,0.08433,0,0.08433
2012-07-16,0.08800000000000001,0.08800000000000001,0.08800000000000001,0.08800000000000001,27200,0.08800000000000001
2012-07-17,0.08800000000000001,0.08800000000000001,0.08800000000000001,0.08800000000000001,0,0.08800000000000001
2012-07-18,0.08800000000000001,0.08800000000000001,0.08067,0.08067,233500,0.08067
2012-07-19,0.08067,0.08067,0.08067,0.08067,0,0.08067
2012-07-20,0.08067,0.08067,0.08067,0.08067,0,0.08067
2012-07-23,0.08067,0.08067,0.08067,0.08067,0,0.08067
2012-07-24,0.066,0.066,0.062329999999999997,0.062329999999999997,34000,0.062329999999999997
2012-07-25,0.077,0.077,0.077,0.077,27200,0.077
2012-07-26,0.077,0.077,0.077,0.077,0,0.077
2012-07-27,0.077,0.077,0.077,0.077,0,0.077
2012-07-30,0.077,0.077,0.077,0.077,0,0.077
2012-07-31,0.077,0.077,0.077,0.077,0,0.077
2012-08-01,0.077,0.077,0.077,0.077,0,0.077
2012-08-02,0.077,0.077,0.077,0.077,0,0.077
2012-08-03,0.077,0.077,0.077,0.077,0,0.077
2012-08-06,0.077,0.077,0.077,0.077,0,0.077
2012-08-07,0.077,0.077,0.077,0.077,0,0.077
2012-08-08,0.077,0.077,0.077,0.077,0,0.077
2012-08-09,0.08800000000000001,0.08800000000000001,0.08800000000000001,0.08800000000000001,136300,0.08800000000000001
2012-08-10,0.08800000000000001,0.08800000000000001,0.08800000000000001,0.08800000000000001,0,0.08800000000000001
2012-08-13,0.08800000000000001,0.08800000000000001,0.08800000000000001,0.08800000000000001,47700,0.08800000000000001
2012-08-14,0.08800000000000001,0.08800000000000001,0.08800000000000001,0.08800000000000001,0,0.08800000000000001
2012-08-15,0.08800000000000001,0.08800000000000001,0.08800000000000001,0.08800000000000001,0,0.08800000000000001
2012-08-16,0.08800000000000001,0.08800000000000001,0.08800000000000001,0.08800000000000001,0,0.08800000000000001
2012-08-17,0.08800000000000001,0.08800000000000001,0.08800000000000001,0.08800000000000001,0,0.08800000000000001
2012-08-20,0.08800000000000001,0.08800000000000001,0.08800000000000001,0.08800000000000001,0,0.08800000000000001
2012-08-21,0.08800000000000001,0.08800000000000001,0.08800000000000001,0.08800000000000001,0,0.08800000000000001
2012-08-22,0.08800000000000001,0.08800000000000001,0.08800000000000001,0.08800000000000001,81800,0.08800000000000001
2012-08-23,0.08800000000000001,0.08800000000000001,0.08800000000000001,0.08800000000000001,54500,0.08800000000000001
2012-08-24,0.08800000000000001,0.08800000000000001,0.08800000000000001,0.08800000000000001,0,0.08800000000000001
2012-08-27,0.11732999999999999,0.14667,0.11732999999999999,0.13567,488100,0.13567
2012-08-28,0.132,0.154,0.132,0.14300000000000002,585600,0.14300000000000002
2012-08-29,0.13932999999999998,0.14300000000000002,0.13932999999999998,0.13932999999999998,428000,0.13932999999999998
2012-08-30,0.13567,0.13932999999999998,0.132,0.13567,211300,0.13567
2012-08-31,0.13567,0.13932999999999998,0.13567,0.13567,259000,0.13567
2012-09-03,0.12467,0.12467,0.12467,0.12467,136300,0.12467
2012-09-04,0.12467,0.13932999999999998,0.12467,0.13567,650900,0.13567
2012-09-05,0.12833,0.12833,0.12833,0.12833,13600,0.12833
2012-09-06,0.132,0.132,0.132,0.132,3500,0.132
2012-09-07,0.132,0.132,0.132,0.132,0,0.132
2012-09-10,0.132,0.13567,0.132,0.132,109000,0.132
2012-09-11,0.13567,0.13567,0.132,0.132,90000,0.132
2012-09-12,0.12833,0.12833,0.12833,0.12833,47700,0.12833
2012-09-13,0.132,0.13567,0.132,0.13567,340900,0.13567
2012-09-14,0.12467,0.12467,0.12467,0.12467,249200,0.12467
2012-09-17,0.132,0.132,0.132,0.132,340900,0.132
2012-09-18,0.132,0.132,0.132,0.132,13600,0.132
2012-09-19,0.132,0.15767,0.132,0.14667,490900,0.14667
2012-09-20,0.14300000000000002,0.14300000000000002,0.13567,0.13567,58700,0.13567
2012-09-21,0.13567,0.13567,0.13567,0.13567,0,0.13567
2012-09-24,0.132,0.13567,0.132,0.132,252200,0.132
2012-09-25,0.13567,0.14667,0.13567,0.14300000000000002,740300,0.14300000000000002
2012-09-26,0.14300000000000002,0.14300000000000002,0.14300000000000002,0.14300000000000002,593100,0.14300000000000002
2012-09-27,0.14300000000000002,0.154,0.14300000000000002,0.154,526600,0.154
2012-09-28,0.15767,0.16133,0.15033,0.154,514800,0.154
2012-10-01,0.15767,0.15767,0.154,0.154,234000,0.154
2012-10-02,0.154,0.154,0.14667,0.154,1012600,0.154
2012-10-03,0.154,0.15767,0.154,0.15767,296600,0.15767
2012-10-04,0.15767,0.15767,0.154,0.154,100000,0.154
2012-10-05,0.154,0.154,0.14667,0.15033,186500,0.15033
2012-10-08,0.14667,0.14667,0.14667,0.14667,68100,0.14667
2012-10-09,0.14667,0.14667,0.14667,0.14667,150000,0.14667
2012-10-10,0.14667,0.14667,0.14667,0.14667,0,0.14667
2012-10-11,0.14667,0.14667,0.14300000000000002,0.14300000000000002,395400,0.14300000000000002
2012-10-12,0.14300000000000002,0.14300000000000002,0.14300000000000002,0.14300000000000002,338100,0.14300000000000002
2012-10-15,0.132,0.132,0.132,0.132,64700,0.132
2012-10-16,0.132,0.13932999999999998,0.132,0.132,279500,0.132
2012-10-17,0.132,0.13932999999999998,0.132,0.13932999999999998,276500,0.13932999999999998
2012-10-18,0.13932999999999998,0.13932999999999998,0.13932999999999998,0.13932999999999998,58900,0.13932999999999998
2012-10-19,0.13932999999999998,0.13932999999999998,0.13932999999999998,0.13932999999999998,13600,0.13932999999999998
2012-10-22,0.13932999999999998,0.13932999999999998,0.13932999999999998,0.13932999999999998,75000,0.13932999999999998
2012-10-23,0.13932999999999998,0.13932999999999998,0.13932999999999998,0.13932999999999998,131400,0.13932999999999998
2012-10-24,0.13567,0.13932999999999998,0.13567,0.13932999999999998,145900,0.13932999999999998
2012-10-25,0.13932999999999998,0.13932999999999998,0.13567,0.13932999999999998,210000,0.13932999999999998
2012-10-26,0.14300000000000002,0.14300000000000002,0.14300000000000002,0.14300000000000002,204500,0.14300000000000002
2012-10-29,0.14300000000000002,0.14300000000000002,0.14300000000000002,0.14300000000000002,0,0.14300000000000002
2012-10-30,0.14300000000000002,0.14667,0.13932999999999998,0.14667,81800,0.14667
2012-10-31,0.13932999999999998,0.13932999999999998,0.13932999999999998,0.13932999999999998,95400,0.13932999999999998
2012-11-01,0.13932999999999998,0.13932999999999998,0.13932999999999998,0.13932999999999998,463600,0.13932999999999998
2012-11-02,0.13932999999999998,0.13932999999999998,0.13932999999999998,0.13932999999999998,0,0.13932999999999998
2012-11-05,0.13567,0.13567,0.13567,0.13567,6800,0.13567
2012-11-06,0.13567,0.13567,0.13567,0.13567,0,0.13567
2012-11-07,0.13567,0.13567,0.13567,0.13567,0,0.13567
2012-11-08,0.13567,0.13567,0.13567,0.13567,0,0.13567
2012-11-09,0.132,0.132,0.132,0.132,88600,0.132
2012-11-12,0.13932999999999998,0.13932999999999998,0.13932999999999998,0.13932999999999998,143100,0.13932999999999998
2012-11-13,0.14667,0.14667,0.14667,0.14667,231800,0.14667
2012-11-14,0.13932999999999998,0.13932999999999998,0.13932999999999998,0.13932999999999998,81800,0.13932999999999998
2012-11-15,0.13932999999999998,0.154,0.13932999999999998,0.154,685000,0.154
2012-11-16,0.15033,0.154,0.15033,0.154,201600,0.154
2012-11-19,0.154,0.154,0.154,0.154,0,0.154
2012-11-20,0.154,0.154,0.154,0.154,0,0.154
2012-11-21,0.154,0.154,0.154,0.154,0,0.154
2012-11-22,0.154,0.154,0.154,0.154,0,0.154
2012-11-23,0.154,0.154,0.154,0.154,0,0.154
2012-11-26,0.154,0.154,0.154,0.154,0,0.154
2012-11-27,0.154,0.154,0.154,0.154,0,0.154
2012-11-28,0.154,0.154,0.154,0.154,0,0.154
2012-11-29,0.154,0.154,0.154,0.154,0,0.154
2012-11-30,0.154,0.154,0.154,0.154,0,0.154
2012-12-03,0.154,0.154,0.154,0.154,0,0.154
2012-12-04,0.154,0.154,0.154,0.154,0,0.154
2012-12-05,0.154,0.154,0.154,0.154,0,0.154
2012-12-06,0.154,0.154,0.154,0.154,0,0.154
2012-12-07,0.154,0.154,0.154,0.154,0,0.154
2012-12-10,0.154,0.154,0.154,0.154,0,0.154
2012-12-11,0.154,0.154,0.154,0.154,0,0.154
2012-12-12,0.154,0.154,0.154,0.154,0,0.154
2012-12-13,0.154,0.154,0.154,0.154,0,0.154
2012-12-14,0.154,0.154,0.154,0.154,0,0.154
2012-12-17,0.154,0.154,0.154,0.154,0,0.154
2012-12-18,0.154,0.154,0.154,0.154,0,0.154
2012-12-19,0.154,0.154,0.154,0.154,0,0.154
2012-12-20,0.154,0.154,0.154,0.154,0,0.154
2012-12-21,0.154,0.154,0.154,0.154,0,0.154
2012-12-24,0.154,0.154,0.154,0.154,0,0.154
2012-12-25,0.154,0.154,0.154,0.154,0,0.154
2012-12-26,0.154,0.154,0.154,0.154,0,0.154
2012-12-27,0.154,0.154,0.154,0.154,0,0.154
2012-12-28,0.154,0.154,0.154,0.154,0,0.154
2012-12-31,0.154,0.154,0.154,0.154,0,0.154
2013-01-01,0.154,0.154,0.154,0.154,0,0.154
2013-01-02,0.154,0.154,0.154,0.154,0,0.154
2013-01-03,0.154,0.154,0.154,0.154,0,0.154
2013-01-04,0.154,0.154,0.154,0.154,0,0.154
2013-01-07,0.154,0.154,0.154,0.154,0,0.154
2013-01-08,0.154,0.154,0.154,0.154,0,0.154
2013-01-09,0.154,0.154,0.154,0.154,0,0.154
2013-01-10,0.154,0.154,0.154,0.154,0,0.154
2013-01-11,0.154,0.154,0.154,0.154,0,0.154
2013-01-14,0.154,0.154,0.154,0.154,0,0.154
2013-01-15,0.154,0.154,0.154,0.154,0,0.154
2013-01-16,0.154,0.154,0.154,0.154,0,0.154
2013-01-17,0.154,0.154,0.154,0.154,0,0.154
2013-01-18,0.154,0.154,0.154,0.154,0,0.154
2013-01-21,0.154,0.154,0.154,0.154,0,0.154
2013-01-22,0.154,0.154,0.154,0.154,0,0.154
2013-01-24,0.14300000000000002,0.14300000000000002,0.12467,0.12467,849500,0.12467
2013-01-25,0.12833,0.12833,0.11732999999999999,0.12833,475200,0.12833
2013-01-28,0.12833,0.12833,0.12833,0.12833,0,0.12833
2013-01-29,0.12467,0.12833,0.12467,0.12833,8100,0.12833
2013-01-30,0.11732999999999999,0.12467,0.11732999999999999,0.12467,13800,0.12467
2013-01-31,0.12467,0.12467,0.12467,0.12467,0,0.12467
2013-02-01,0.11732999999999999,0.12467,0.11732999999999999,0.12467,14000,0.12467
2013-02-04,0.12467,0.12467,0.12467,0.12467,0,0.12467
2013-02-05,0.12467,0.12467,0.12467,0.12467,0,0.12467
2013-02-06,0.12467,0.12467,0.12467,0.12467,0,0.12467
2013-02-07,0.12467,0.12467,0.12467,0.12467,0,0.12467
2013-02-08,0.12467,0.12467,0.12467,0.12467,0,0.12467
2013-02-11,0.12467,0.12467,0.12467,0.12467,0,0.12467
2013-02-12,0.12467,0.12467,0.12467,0.12467,0,0.12467
2013-02-13,0.11,0.11,0.11,0.11,13600,0.11
2013-02-14,0.11,0.11732999999999999,0.11,0.11732999999999999,108900,0.11732999999999999
2013-02-15,0.11732999999999999,0.11732999999999999,0.11732999999999999,0.11732999999999999,0,0.11732999999999999
2013-02-18,0.11732999999999999,0.11732999999999999,0.11732999999999999,0.11732999999999999,4900,0.11732999999999999
2013-02-19,0.11732999999999999,0.11732999999999999,0.11732999999999999,0.11732999999999999,0,0.11732999999999999
2013-02-20,0.11732999999999999,0.11732999999999999,0.11732999999999999,0.11732999999999999,0,0.11732999999999999
2013-02-21,0.11732999999999999,0.11732999999999999,0.11732999999999999,0.11732999999999999,0,0.11732999999999999
2013-02-22,0.08800000000000001,0.08800000000000001,0.08800000000000001,0.08800000000000001,15000,0.08800000000000001
2013-02-25,0.11,0.11,0.11,0.11,15000,0.11
2013-02-26,0.11,0.11,0.11,0.11,0,0.11
2013-02-27,0.11,0.11,0.11,0.11,0,0.11
2013-02-28,0.11,0.11,0.11,0.11,0,0.11
2013-03-01,0.11,0.11,0.11,0.11,0,0.11
2013-03-04,0.11,0.11,0.11,0.11,0,0.11
2013-03-05,0.11,0.11,0.11,0.11,0,0.11
2013-03-06,0.11,0.11,0.11,0.11,0,0.11
2013-03-07,0.11,0.11,0.11,0.11,0,0.11
2013-03-08,0.11,0.11,0.11,0.11,0,0.11
2013-03-11,0.08800000000000001,0.08800000000000001,0.08800000000000001,0.08800000000000001,136300,0.08800000000000001
2013-03-12,0.08800000000000001,0.08800000000000001,0.08800000000000001,0.08800000000000001,0,0.08800000000000001
2013-03-13,0.08800000000000001,0.08800000000000001,0.08800000000000001,0.08800000000000001,0,0.08800000000000001
2013-03-14,0.08800000000000001,0.08800000000000001,0.08800000000000001,0.08800000000000001,0,0.08800000000000001
2013-03-15,0.08800000000000001,0.08800000000000001,0.08800000000000001,0.08800000000000001,0,0.08800000000000001
2013-03-18,0.08800000000000001,0.08800000000000001,0.08800000000000001,0.08800000000000001,0,0.08800000000000001
2013-03-19,0.08800000000000001,0.08800000000000001,0.08800000000000001,0.08800000000000001,0,0.08800000000000001
2013-03-20,0.077,0.077,0.077,0.077,121300,0.077
2013-03-21,0.077,0.08800000000000001,0.07332999999999999,0.07332999999999999,794300,0.07332999999999999
2013-03-22,0.07332999999999999,0.09533,0.07332999999999999,0.07332999999999999,163600,0.07332999999999999
2013-03-25,0.07332999999999999,0.07332999999999999,0.07332999999999999,0.07332999999999999,0,0.07332999999999999
2013-03-26,0.07332999999999999,0.07332999999999999,0.07332999999999999,0.07332999999999999,0,0.07332999999999999
2013-03-27,0.07332999999999999,0.07332999999999999,0.07332999999999999,0.07332999999999999,0,0.07332999999999999
2013-03-28,0.07332999999999999,0.07332999999999999,0.07332999999999999,0.07332999999999999,0,0.07332999999999999
2013-03-29,0.07332999999999999,0.07332999999999999,0.07332999999999999,0.07332999999999999,0,0.07332999999999999
2013-04-01,0.07332999999999999,0.07332999999999999,0.07332999999999999,0.07332999999999999,0,0.07332999999999999
2013-04-02,0.07332999999999999,0.07332999999999999,0.07332999999999999,0.07332999999999999,68100,0.07332999999999999
2013-04-03,0.07332999999999999,0.07332999999999999,0.07332999999999999,0.07332999999999999,0,0.07332999999999999
2013-04-04,0.05867000000000001,0.066,0.05867000000000001,0.066,176500,0.066
2013-04-05,0.066,0.066,0.066,0.066,0,0.066
2013-04-08,0.066,0.066,0.066,0.066,0,0.066
2013-04-09,0.066,0.066,0.066,0.066,0,0.066
2013-04-10,0.066,0.066,0.066,0.066,0,0.066
2013-04-11,0.066,0.066,0.066,0.066,34000,0.066
2013-04-12,0.0682,0.0682,0.0682,0.0682,42300,0.0682
2013-04-15,0.0682,0.0682,0.0682,0.0682,0,0.0682
2013-04-16,0.0682,0.0682,0.0682,0.0682,0,0.0682
2013-04-17,0.0682,0.0682,0.0682,0.0682,0,0.0682
2013-04-18,0.0682,0.0682,0.0682,0.0682,0,0.0682
2013-04-19,0.0682,0.0682,0.0682,0.0682,0,0.0682
2013-04-22,0.0682,0.0682,0.0682,0.0682,0,0.0682
2013-04-23,0.0682,0.0682,0.0682,0.0682,0,0.0682
2013-04-24,0.0682,0.0682,0.0682,0.0682,0,0.0682
2013-04-25,0.0682,0.0682,0.0682,0.0682,0,0.0682
2013-04-26,0.0682,0.0682,0.0682,0.0682,0,0.0682
2013-04-29,0.0682,0.077,0.055,0.077,49000,0.077
2013-04-30,0.077,0.077,0.077,0.077,0,0.077
2013-05-01,0.077,0.077,0.077,0.077,0,0.077
2013-05-02,0.077,0.077,0.077,0.077,0,0.077
2013-05-03,0.077,0.077,0.077,0.077,0,0.077
2013-05-06,0.077,0.077,0.077,0.077,0,0.077
2013-05-07,0.077,0.077,0.077,0.077,0,0.077
2013-05-08,0.077,0.077,0.077,0.077,0,0.077
2013-05-09,0.055,0.07332999999999999,0.055,0.07332999999999999,70900,0.07332999999999999
2013-05-10,0.07332999999999999,0.07332999999999999,0.07332999999999999,0.07332999999999999,0,0.07332999999999999
2013-05-13,0.07332999999999999,0.07332999999999999,0.07332999999999999,0.07332999999999999,0,0.07332999999999999
2013-05-14,0.066,0.066,0.066,0.066,136300,0.066
2013-05-15,0.07332999999999999,0.07332999999999999,0.05867000000000001,0.05867000000000001,240000,0.05867000000000001
2013-05-16,0.07332999999999999,0.07332999999999999,0.07332999999999999,0.07332999999999999,1300,0.07332999999999999
2013-05-17,0.057929999999999995,0.066,0.057929999999999995,0.066,173100,0.066
2013-05-20,0.066,0.066,0.066,0.066,0,0.066
2013-05-21,0.062329999999999997,0.066,0.062329999999999997,0.066,177200,0.066
2013-05-22,0.066,0.066,0.066,0.066,0,0.066
2013-05-23,0.066,0.066,0.066,0.066,0,0.066
2013-05-24,0.062329999999999997,0.062329999999999997,0.062329999999999997,0.062329999999999997,1300,0.062329999999999997
2013-05-27,0.062329999999999997,0.062329999999999997,0.062329999999999997,0.062329999999999997,0,0.062329999999999997
2013-05-28,0.062329999999999997,0.062329999999999997,0.062329999999999997,0.062329999999999997,0,0.062329999999999997
2013-05-29,0.055,0.0594,0.055,0.0594,587700,0.0594
2013-05-30,0.055,0.055,0.055,0.055,1300,0.055
2013-05-31,0.055,0.055,0.055,0.055,0,0.055
2013-06-03,0.055,0.055,0.055,0.055,0,0.055
2013-06-04,0.055,0.055,0.055,0.055,0,0.055
2013-06-05,0.055,0.055,0.055,0.055,0,0.055
2013-06-06,0.055,0.055,0.055,0.055,0,0.055
2013-06-07,0.055,0.055,0.055,0.055,0,0.055
2013-06-10,0.055,0.055,0.055,0.055,0,0.055
2013-06-11,0.055,0.055,0.055,0.055,0,0.055
2013-06-12,0.055,0.055,0.055,0.055,0,0.055
2013-06-13,0.055,0.055,0.055,0.055,0,0.055
2013-06-14,0.051329999999999994,0.051329999999999994,0.051329999999999994,0.051329999999999994,818100,0.051329999999999994
2013-06-17,0.051329999999999994,0.051329999999999994,0.051329999999999994,0.051329999999999994,170400,0.051329999999999994
2013-06-18,0.051329999999999994,0.051329999999999994,0.051329999999999994,0.051329999999999994,0,0.051329999999999994
2013-06-19,0.044000000000000004,0.04987,0.044000000000000004,0.04987,344400,0.04987
2013-06-20,0.04987,0.04987,0.04987,0.04987,0,0.04987
2013-06-21,0.04987,0.04987,0.04987,0.04987,0,0.04987
2013-06-24,0.03667,0.03667,0.03667,0.03667,13600,0.03667
2013-06-25,0.04033,0.04033,0.04033,0.04033,136300,0.04033
2013-06-26,0.03667,0.03667,0.03667,0.03667,122700,0.03667
2013-06-27,0.03667,0.03667,0.03667,0.03667,0,0.03667
2013-06-28,0.03667,0.03667,0.03667,0.03667,0,0.03667
2013-07-01,0.03667,0.03667,0.03667,0.03667,122700,0.03667
2013-07-02,0.03667,0.03667,0.03667,0.03667,492200,0.03667
2013-07-03,0.03667,0.03667,0.03667,0.03667,19000,0.03667
2013-07-04,0.03667,0.03667,0.03667,0.03667,0,0.03667
2013-07-05,0.03667,0.03667,0.03667,0.03667,0,0.03667
2013-07-08,0.0352,0.0352,0.0352,0.0352,129500,0.0352
2013-07-09,0.0352,0.0352,0.0352,0.0352,0,0.0352
2013-07-10,0.0352,0.0352,0.0352,0.0352,0,0.0352
2013-07-11,0.0352,0.0352,0.0352,0.0352,0,0.0352
2013-07-12,0.0352,0.0352,0.0352,0.0352,0,0.0352
2013-07-15,0.0352,0.0352,0.0352,0.0352,0,0.0352
2013-07-16,0.0396,0.0396,0.0396,0.0396,6800,0.0396
2013-07-17,0.0396,0.0396,0.0396,0.0396,0,0.0396
2013-07-18,0.0396,0.0396,0.0396,0.0396,0,0.0396
2013-07-19,0.0396,0.0396,0.0396,0.0396,0,0.0396
2013-07-22,0.0396,0.0396,0.0396,0.0396,0,0.0396
2013-07-23,0.0396,0.0396,0.0396,0.0396,0,0.0396
2013-07-24,0.043269999999999996,0.043269999999999996,0.043269999999999996,0.043269999999999996,54500,0.043269999999999996
2013-07-25,0.043269999999999996,0.043269999999999996,0.043269999999999996,0.043269999999999996,0,0.043269999999999996
2013-07-26,0.043269999999999996,0.043269999999999996,0.043269999999999996,0.043269999999999996,0,0.043269999999999996
2013-07-29,0.043269999999999996,0.043269999999999996,0.043269999999999996,0.043269999999999996,0,0.043269999999999996
2013-07-30,0.043269999999999996,0.043269999999999996,0.043269999999999996,0.043269999999999996,0,0.043269999999999996
2013-07-31,0.043269999999999996,0.043269999999999996,0.043269999999999996,0.043269999999999996,0,0.043269999999999996
2013-08-01,0.043269999999999996,0.043269999999999996,0.043269999999999996,0.043269999999999996,0,0.043269999999999996
2013-08-02,0.043269999999999996,0.043269999999999996,0.043269999999999996,0.043269999999999996,0,0.043269999999999996
2013-08-05,0.043269999999999996,0.043269999999999996,0.043269999999999996,0.043269999999999996,0,0.043269999999999996
2013-08-06,0.043269999999999996,0.043269999999999996,0.043269999999999996,0.043269999999999996,0,0.043269999999999996
2013-08-07,0.043269999999999996,0.043269999999999996,0.043269999999999996,0.043269999999999996,0,0.043269999999999996
2013-08-08,0.043269999999999996,0.043269999999999996,0.043269999999999996,0.043269999999999996,0,0.043269999999999996
2013-08-09,0.043269999999999996,0.043269999999999996,0.043269999999999996,0.043269999999999996,0,0.043269999999999996
2013-08-12,0.04253,0.04253,0.04253,0.04253,2554100,0.04253
2013-08-13,0.04253,0.04253,0.04253,0.04253,0,0.04253
2013-08-14,0.04253,0.04253,0.04253,0.04253,0,0.04253
2013-08-15,0.04253,0.04253,0.04253,0.04253,0,0.04253
2013-08-16,0.04253,0.04253,0.04253,0.04253,0,0.04253
2013-08-19,0.04253,0.04253,0.04253,0.04253,0,0.04253
2013-08-20,0.04253,0.04253,0.04253,0.04253,0,0.04253
2013-08-21,0.04253,0.04253,0.04253,0.04253,0,0.04253
2013-08-22,0.04253,0.04253,0.04253,0.04253,0,0.04253
2013-08-23,0.04253,0.04253,0.04253,0.04253,0,0.04253
2013-08-26,0.04253,0.04253,0.04253,0.04253,0,0.04253
2013-08-27,0.04253,0.04253,0.04253,0.04253,0,0.04253
2013-08-28,0.04253,0.04253,0.04253,0.04253,115900,0.04253
2013-08-29,0.04253,0.043269999999999996,0.04253,0.043269999999999996,238600,0.043269999999999996
2013-08-30,0.0418,0.0418,0.0418,0.0418,634000,0.0418
2013-09-02,0.04033,0.04033,0.038130000000000004,0.04033,1173800,0.04033
2013-09-03,0.04033,0.04033,0.04033,0.04033,122700,0.04033
2013-09-04,0.04033,0.044000000000000004,0.04033,0.043269999999999996,1135600,0.043269999999999996
2013-09-05,0.04253,0.044000000000000004,0.04253,0.044000000000000004,401100,0.044000000000000004
2013-09-06,0.04693,0.04693,0.0462,0.0462,68100,0.0462
2013-09-09,0.04693,0.04693,0.044000000000000004,0.044000000000000004,716000,0.044000000000000004
2013-09-10,0.043269999999999996,0.044000000000000004,0.043269999999999996,0.044000000000000004,74200,0.044000000000000004
2013-09-11,0.044000000000000004,0.044000000000000004,0.044000000000000004,0.044000000000000004,0,0.044000000000000004
2013-09-12,0.044000000000000004,0.044000000000000004,0.04253,0.04253,10500,0.04253
2013-09-13,0.04253,0.04253,0.04253,0.04253,0,0.04253
2013-09-16,0.04253,0.04253,0.04253,0.04253,0,0.04253
2013-09-17,0.04253,0.04253,0.04253,0.04253,0,0.04253
2013-09-18,0.03667,0.03667,0.03667,0.03667,68100,0.03667
2013-09-19,0.03667,0.03667,0.03667,0.03667,0,0.03667
2013-09-20,0.03373,0.03667,0.03373,0.0352,204500,0.0352
2013-09-23,0.0352,0.0352,0.0352,0.0352,0,0.0352
2013-09-24,0.0352,0.0352,0.0352,0.0352,0,0.0352
2013-09-25,0.033,0.03667,0.033,0.03667,183800,0.03667
2013-09-26,0.03667,0.03667,0.03667,0.03667,0,0.03667
2013-09-27,0.041069999999999995,0.041069999999999995,0.041069999999999995,0.041069999999999995,200,0.041069999999999995
2013-09-30,0.041069999999999995,0.041069999999999995,0.041069999999999995,0.041069999999999995,0,0.041069999999999995
2013-10-01,0.041069999999999995,0.041069999999999995,0.041069999999999995,0.041069999999999995,0,0.041069999999999995
2013-10-02,0.041069999999999995,0.041069999999999995,0.041069999999999995,0.041069999999999995,0,0.041069999999999995
2013-10-03,0.041069999999999995,0.041069999999999995,0.041069999999999995,0.041069999999999995,0,0.041069999999999995
2013-10-04,0.041069999999999995,0.041069999999999995,0.041069999999999995,0.041069999999999995,0,0.041069999999999995
2013-10-07,0.041069999999999995,0.041069999999999995,0.041069999999999995,0.041069999999999995,0,0.041069999999999995
2013-10-08,0.041069999999999995,0.041069999999999995,0.041069999999999995,0.041069999999999995,0,0.041069999999999995
2013-10-09,0.041069999999999995,0.041069999999999995,0.041069999999999995,0.041069999999999995,0,0.041069999999999995
2013-10-10,0.033,0.033,0.033,0.033,27200,0.033
2013-10-11,0.033,0.033,0.033,0.033,0,0.033
2013-10-14,0.033,0.033,0.033,0.033,0,0.033
2013-10-15,0.0374,0.0374,0.035930000000000004,0.035930000000000004,61300,0.035930000000000004
2013-10-16,0.03373,0.03373,0.03373,0.03373,75000,0.03373
2013-10-17,0.0352,0.0352,0.033,0.033,68100,0.033
2013-10-18,0.033,0.033,0.033,0.033,0,0.033
2013-10-21,0.03447,0.03447,0.03447,0.03447,54500,0.03447
2013-10-22,0.033,0.033,0.033,0.033,88600,0.033
2013-10-23,0.033,0.033,0.033,0.033,0,0.033
2013-10-24,0.033,0.033,0.033,0.033,0,0.033
2013-10-25,0.033,0.033,0.033,0.033,0,0.033
2013-10-28,0.033,0.033,0.033,0.033,0,0.033
2013-10-29,0.033,0.033,0.033,0.033,0,0.033
2013-10-30,0.033,0.033,0.033,0.033,0,0.033
2013-10-31,0.033,0.033,0.033,0.033,0,0.033
2013-11-01,0.033,0.033,0.033,0.033,0,0.033
2013-11-04,0.033,0.033,0.033,0.033,0,0.033
2013-11-05,0.033,0.033,0.033,0.033,0,0.033
2013-11-06,0.033,0.033,0.033,0.033,0,0.033
2013-11-07,0.033,0.033,0.033,0.033,0,0.033
2013-11-08,0.033,0.033,0.033,0.033,0,0.033
2013-11-11,0.033,0.033,0.033,0.033,0,0.033
2013-11-12,0.033,0.033,0.033,0.033,0,0.033
2013-11-13,0.033,0.033,0.033,0.033,0,0.033
2013-11-14,0.033,0.033,0.033,0.033,0,0.033
2013-11-15,0.033,0.033,0.033,0.033,0,0.033
2013-11-18,0.033,0.033,0.033,0.033,0,0.033
2013-11-19,0.02567,0.02567,0.023469999999999998,0.023469999999999998,238600,0.023469999999999998
2013-11-20,0.023469999999999998,0.023469999999999998,0.023469999999999998,0.023469999999999998,0,0.023469999999999998
2013-11-21,0.023469999999999998,0.023469999999999998,0.023469999999999998,0.023469999999999998,0,0.023469999999999998
2013-11-22,0.023469999999999998,0.023469999999999998,0.023469999999999998,0.023469999999999998,0,0.023469999999999998
2013-11-25,0.022000000000000002,0.022000000000000002,0.014669999999999999,0.014669999999999999,1285200,0.014669999999999999
2013-11-26,0.014669999999999999,0.014669999999999999,0.014669999999999999,0.014669999999999999,0,0.014669999999999999
2013-11-27,0.014669999999999999,0.014669999999999999,0.014669999999999999,0.014669999999999999,0,0.014669999999999999
2013-11-28,0.014669999999999999,0.014669999999999999,0.014669999999999999,0.014669999999999999,0,0.014669999999999999
2013-11-29,0.014669999999999999,0.014669999999999999,0.014669999999999999,0.014669999999999999,0,0.014669999999999999
2013-12-02,0.014669999999999999,0.014669999999999999,0.014669999999999999,0.014669999999999999,0,0.014669999999999999
2013-12-03,0.014669999999999999,0.014669999999999999,0.014669999999999999,0.014669999999999999,0,0.014669999999999999
2013-12-04,0.014669999999999999,0.014669999999999999,0.014669999999999999,0.014669999999999999,0,0.014669999999999999
2013-12-05,0.014669999999999999,0.014669999999999999,0.014669999999999999,0.014669999999999999,0,0.014669999999999999
2013-12-06,0.014669999999999999,0.014669999999999999,0.014669999999999999,0.014669999999999999,0,0.014669999999999999
2013-12-09,0.014669999999999999,0.014669999999999999,0.014669999999999999,0.014669999999999999,0,0.014669999999999999
2013-12-10,0.014669999999999999,0.014669999999999999,0.014669999999999999,0.014669999999999999,0,0.014669999999999999
2013-12-11,0.0176,0.0176,0.0176,0.0176,27200,0.0176
2013-12-12,0.0176,0.0176,0.01687,0.01687,681800,0.01687
2013-12-13,0.01687,0.01687,0.01687,0.01687,0,0.01687
2013-12-16,0.01687,0.01687,0.01687,0.01687,27200,0.01687
2013-12-17,0.01687,0.01687,0.016130000000000002,0.016130000000000002,564400,0.016130000000000002
2013-12-18,0.0154,0.0154,0.0154,0.0154,7700,0.0154
2013-12-19,0.0154,0.0154,0.0154,0.0154,0,0.0154
2013-12-20,0.0154,0.0154,0.0154,0.0154,0,0.0154
2013-12-23,0.0154,0.0154,0.0154,0.0154,0,0.0154
2013-12-24,0.0154,0.0154,0.0154,0.0154,0,0.0154
2013-12-25,0.0154,0.0154,0.0154,0.0154,0,0.0154
2013-12-26,0.0154,0.0154,0.0154,0.0154,0,0.0154
2013-12-27,0.0154,0.0154,0.0154,0.0154,0,0.0154
2013-12-30,0.0154,0.0154,0.0154,0.0154,0,0.0154
2013-12-31,0.0154,0.0154,0.0154,0.0154,0,0.0154
2014-01-01,0.0154,0.0154,0.0154,0.0154,0,0.0154
2014-01-02,0.0154,0.0154,0.0154,0.0154,0,0.0154
2014-01-03,0.0154,0.0154,0.0154,0.0154,0,0.0154
2014-01-06,0.0154,0.0154,0.0154,0.0154,0,0.0154
2014-01-07,0.0154,0.0154,0.0154,0.0154,0,0.0154
2014-01-08,0.0154,0.0154,0.0154,0.0154,0,0.0154
2014-01-09,0.0154,0.0154,0.0154,0.0154,0,0.0154
2014-01-10,0.0154,0.0154,0.0154,0.0154,0,0.0154
2014-01-13,0.0154,0.0154,0.0154,0.0154,0,0.0154
2014-01-14,0.0154,0.0154,0.0154,0.0154,0,0.0154
2014-01-15,0.0154,0.0154,0.0154,0.0154,0,0.0154
2014-01-16,0.0176,0.0176,0.0176,0.0176,136300,0.0176
2014-01-17,0.0176,0.0176,0.0176,0.0176,0,0.0176
2014-01-20,0.0176,0.0176,0.0176,0.0176,0,0.0176
2014-01-21,0.0176,0.0176,0.016130000000000002,0.016130000000000002,136300,0.016130000000000002
2014-01-22,0.016130000000000002,0.016130000000000002,0.016130000000000002,0.016130000000000002,0,0.016130000000000002
2014-01-23,0.016130000000000002,0.016130000000000002,0.016130000000000002,0.016130000000000002,0,0.016130000000000002
2014-01-24,0.016130000000000002,0.016130000000000002,0.016130000000000002,0.016130000000000002,0,0.016130000000000002
2014-01-27,0.016130000000000002,0.016130000000000002,0.016130000000000002,0.016130000000000002,0,0.016130000000000002
2014-01-28,0.016130000000000002,0.016130000000000002,0.016130000000000002,0.016130000000000002,0,0.016130000000000002
2014-01-29,0.018330000000000003,0.018330000000000003,0.018330000000000003,0.018330000000000003,204500,0.018330000000000003
2014-01-30,0.018330000000000003,0.018330000000000003,0.018330000000000003,0.018330000000000003,286300,0.018330000000000003
2014-01-31,0.018330000000000003,0.018330000000000003,0.018330000000000003,0.018330000000000003,272700,0.018330000000000003
2014-02-03,0.018330000000000003,0.018330000000000003,0.018330000000000003,0.018330000000000003,0,0.018330000000000003
2014-02-04,0.018330000000000003,0.018330000000000003,0.018330000000000003,0.018330000000000003,0,0.018330000000000003
2014-02-05,0.018330000000000003,0.018330000000000003,0.018330000000000003,0.018330000000000003,0,0.018330000000000003
2014-02-06,0.018330000000000003,0.018330000000000003,0.018330000000000003,0.018330000000000003,0,0.018330000000000003
2014-02-07,0.01687,0.01687,0.01687,0.01687,13600,0.01687
2014-02-10,0.01687,0.01687,0.01687,0.01687,0,0.01687
2014-02-11,0.01907,0.01907,0.01907,0.01907,259000,0.01907
2014-02-12,0.01907,0.01907,0.01907,0.01907,0,0.01907
2014-02-13,0.01907,0.01907,0.01907,0.01907,0,0.01907
2014-02-14,0.01907,0.01907,0.01907,0.01907,0,0.01907
2014-02-17,0.022000000000000002,0.022000000000000002,0.022000000000000002,0.022000000000000002,13600,0.022000000000000002
2014-02-18,0.02493,0.02493,0.02493,0.02493,272700,0.02493
2014-02-19,0.02493,0.02493,0.02493,0.02493,0,0.02493
2014-02-20,0.02493,0.02493,0.02493,0.02493,0,0.02493
2014-02-21,0.0242,0.0242,0.0242,0.0242,27200,0.0242
2014-02-24,0.0242,0.0242,0.0242,0.0242,0,0.0242
2014-02-25,0.0242,0.0242,0.0242,0.0242,0,0.0242
2014-02-26,0.0242,0.02493,0.0242,0.02493,310900,0.02493
2014-02-27,0.02493,0.02493,0.02493,0.02493,300,0.02493
2014-02-28,0.02493,0.02493,0.02493,0.02493,0,0.02493
2014-03-03,0.02493,0.02493,0.02493,0.02493,0,0.02493
2014-03-04,0.0286,0.0286,0.02493,0.02493,426100,0.02493
2014-03-05,0.02493,0.02493,0.02493,0.02493,0,0.02493
2014-03-06,0.02493,0.02493,0.02493,0.02493,0,0.02493
2014-03-07,0.02493,0.02493,0.02493,0.02493,0,0.02493
2014-03-10,0.02493,0.02493,0.02493,0.02493,0,0.02493
2014-03-11,0.02493,0.02493,0.02493,0.02493,0,0.02493
2014-03-12,0.02493,0.02493,0.02493,0.02493,0,0.02493
2014-03-13,0.02493,0.02493,0.02493,0.02493,88600,0.02493
2014-03-14,0.0242,0.0242,0.01907,0.01907,143100,0.01907
2014-03-17,0.01907,0.01907,0.01907,0.01907,0,0.01907
2014-03-18,0.01907,0.01907,0.01907,0.01907,0,0.01907
2014-03-19,0.01907,0.01907,0.01907,0.01907,0,0.01907
2014-03-20,0.01907,0.01907,0.01907,0.01907,0,0.01907
2014-03-21,0.01907,0.01907,0.01907,0.01907,0,0.01907
2014-03-24,0.023469999999999998,0.0286,0.023469999999999998,0.0286,1299300,0.0286
2014-03-25,0.02787,0.0308,0.02787,0.0308,893100,0.0308
2014-03-26,0.03007,0.03007,0.03007,0.03007,136300,0.03007
2014-03-27,0.0286,0.03007,0.0286,0.0286,335500,0.0286
2014-03-28,0.029330000000000002,0.03447,0.029330000000000002,0.03447,190900,0.03447
2014-03-31,0.03373,0.03373,0.033,0.033,17700,0.033
2014-04-01,0.0352,0.03667,0.0352,0.03667,144500,0.03667
2014-04-02,0.033,0.03373,0.03153,0.03153,139100,0.03153
2014-04-03,0.03153,0.03153,0.03153,0.03153,0,0.03153
2014-04-04,0.03153,0.03153,0.03153,0.03153,0,0.03153
2014-04-07,0.03153,0.03153,0.03153,0.03153,0,0.03153
2014-04-08,0.02713,0.02713,0.02713,0.02713,68100,0.02713
2014-04-09,0.02713,0.02713,0.02713,0.02713,0,0.02713
2014-04-10,0.03153,0.03153,0.03153,0.03153,54500,0.03153
2014-04-11,0.03373,0.03373,0.03373,0.03373,27200,0.03373
2014-04-14,0.03373,0.0352,0.03373,0.0352,134400,0.0352
2014-04-15,0.0352,0.0352,0.0352,0.0352,4900,0.0352
2014-04-16,0.0352,0.0352,0.0352,0.0352,0,0.0352
2014-04-17,0.03667,0.03667,0.03667,0.03667,136300,0.03667
2014-04-18,0.03667,0.03667,0.03667,0.03667,0,0.03667
2014-04-21,0.03667,0.03667,0.03667,0.03667,0,0.03667
2014-04-22,0.03667,0.03667,0.03667,0.03667,130000,0.03667
2014-04-23,0.03667,0.03667,0.03667,0.03667,0,0.03667
2014-04-24,0.03667,0.03667,0.03667,0.03667,0,0.03667
2014-04-25,0.03667,0.03667,0.03667,0.03667,0,0.03667
2014-04-28,0.03667,0.03667,0.03667,0.03667,0,0.03667
2014-04-29,0.03667,0.03667,0.03667,0.03667,0,0.03667
2014-04-30,0.03667,0.03667,0.03667,0.03667,0,0.03667
2014-05-01,0.03667,0.03667,0.03667,0.03667,0,0.03667
2014-05-02,0.03667,0.03667,0.03667,0.03667,0,0.03667
2014-05-05,0.03667,0.03667,0.03667,0.03667,0,0.03667
2014-05-06,0.03667,0.03667,0.03667,0.03667,0,0.03667
2014-05-07,0.02787,0.02787,0.0264,0.0264,197100,0.0264
2014-05-08,0.0264,0.0264,0.0264,0.0264,19800,0.0264
2014-05-09,0.0264,0.0264,0.0264,0.0264,0,0.0264
2014-05-12,0.02567,0.0264,0.02567,0.0264,412700,0.0264
2014-05-13,0.0264,0.0264,0.0264,0.0264,136300,0.0264
2014-05-14,0.02787,0.0308,0.02787,0.0308,98100,0.0308
2014-05-15,0.033,0.038130000000000004,0.033,0.038130000000000004,170900,0.038130000000000004
2014-05-16,0.0374,0.044000000000000004,0.0374,0.044000000000000004,318900,0.044000000000000004
2014-05-19,0.04033,0.044000000000000004,0.03667,0.03667,439400,0.03667
2014-05-20,0.03667,0.043269999999999996,0.03667,0.04033,406300,0.04033
2014-05-21,0.041069999999999995,0.044000000000000004,0.04033,0.04033,802800,0.04033
2014-05-22,0.03887,0.04033,0.03667,0.04033,479200,0.04033
2014-05-23,0.04033,0.04033,0.0352,0.04033,597900,0.04033
2014-05-26,0.04033,0.04033,0.04033,0.04033,0,0.04033
2014-05-27,0.035930000000000004,0.035930000000000004,0.0352,0.0352,164100,0.0352
2014-05-28,0.0352,0.0352,0.029330000000000002,0.029330000000000002,409000,0.029330000000000002
2014-05-29,0.029330000000000002,0.029330000000000002,0.029330000000000002,0.029330000000000002,6800,0.029330000000000002
2014-05-30,0.033,0.03373,0.033,0.03373,83100,0.03373
2014-06-02,0.03373,0.03373,0.03373,0.03373,0,0.03373
2014-06-03,0.03373,0.03373,0.03227,0.03227,410200,0.03227
2014-06-04,0.03007,0.03007,0.03007,0.03007,141200,0.03007
2014-06-05,0.03007,0.03667,0.029330000000000002,0.029330000000000002,1041800,0.029330000000000002
2014-06-06,0.02787,0.02787,0.022000000000000002,0.022000000000000002,429500,0.022000000000000002
2014-06-09,0.022000000000000002,0.022000000000000002,0.022000000000000002,0.022000000000000002,0,0.022000000000000002
2014-06-10,0.022000000000000002,0.022000000000000002,0.022000000000000002,0.022000000000000002,180600,0.022000000000000002
2014-06-11,0.022000000000000002,0.022000000000000002,0.022000000000000002,0.022000000000000002,0,0.022000000000000002
2014-06-12,0.02787,0.02787,0.02787,0.02787,62700,0.02787
2014-06-13,0.023469999999999998,0.023469999999999998,0.022000000000000002,0.022000000000000002,234500,0.022000000000000002
2014-06-16,0.022000000000000002,0.02567,0.022000000000000002,0.02567,231800,0.02567
2014-06-17,0.02273,0.02273,0.01907,0.01907,768400,0.01907
2014-06-18,0.01907,0.01907,0.014669999999999999,0.014669999999999999,634500,0.014669999999999999
2014-06-19,0.0154,0.0154,0.014669999999999999,0.014669999999999999,204500,0.014669999999999999
2014-06-20,0.0176,0.0176,0.0176,0.0176,200700,0.0176
2014-06-23,0.018330000000000003,0.01907,0.018330000000000003,0.01907,122600,0.01907
2014-06-24,0.01907,0.01907,0.01907,0.01907,0,0.01907
2014-06-25,0.0176,0.0176,0.0176,0.0176,107300,0.0176
2014-06-26,0.0176,0.0176,0.0176,0.0176,0,0.0176
2014-06-27,0.0154,0.0154,0.0154,0.0154,204500,0.0154
2014-06-30,0.01687,0.0176,0.0154,0.0154,1140400,0.0154
2014-07-01,0.0154,0.0154,0.0154,0.0154,0,0.0154
2014-07-02,0.0154,0.0154,0.0154,0.0154,0,0.0154
2014-07-03,0.0154,0.0154,0.0154,0.0154,0,0.0154
2014-07-04,0.0154,0.0154,0.0154,0.0154,0,0.0154
2014-07-07,0.0154,0.0154,0.0154,0.0154,0,0.0154
2014-07-08,0.0154,0.0154,0.0154,0.0154,0,0.0154
2014-07-09,0.0154,0.0154,0.0154,0.0154,0,0.0154
2014-07-10,0.016130000000000002,0.0176,0.016130000000000002,0.0176,60000,0.0176
2014-07-11,0.0176,0.0176,0.0176,0.0176,0,0.0176
2014-07-14,0.0176,0.0176,0.01687,0.01687,61300,0.01687
2014-07-15,0.01687,0.01687,0.01687,0.01687,0,0.01687
2014-07-16,0.01687,0.01687,0.01687,0.01687,0,0.01687
2014-07-17,0.0154,0.0154,0.0154,0.0154,170400,0.0154
2014-07-18,0.0176,0.0176,0.0176,0.0176,28400,0.0176
2014-07-21,0.0176,0.0176,0.0176,0.0176,0,0.0176
2014-07-22,0.0176,0.0176,0.0154,0.0154,36800,0.0154
2014-07-23,0.0154,0.0154,0.0154,0.0154,0,0.0154
2014-07-24,0.0154,0.0154,0.0154,0.0154,0,0.0154
2014-07-25,0.02493,0.02567,0.02493,0.02567,177200,0.02567
2014-07-28,0.02567,0.0308,0.02567,0.0308,369500,0.0308
2014-07-29,0.029330000000000002,0.03373,0.029330000000000002,0.03373,569700,0.03373
2014-07-30,0.035930000000000004,0.03667,0.035930000000000004,0.03667,245400,0.03667
2014-07-31,0.03667,0.038130000000000004,0.03667,0.03667,75000,0.03667
2014-08-01,0.0352,0.0352,0.0352,0.0352,95400,0.0352
2014-08-04,0.03447,0.03447,0.03447,0.03447,70200,0.03447
2014-08-05,0.03447,0.03447,0.0308,0.0308,386400,0.0308
2014-08-06,0.0308,0.0308,0.0308,0.0308,580000,0.0308
2014-08-07,0.033,0.033,0.033,0.033,303000,0.033
2014-08-08,0.033,0.033,0.0308,0.0308,46900,0.0308
2014-08-11,0.0308,0.0308,0.0308,0.0308,0,0.0308
2014-08-12,0.0308,0.0308,0.0308,0.0308,0,0.0308
2014-08-13,0.0308,0.0308,0.0308,0.0308,76900,0.0308
2014-08-14,0.0308,0.0308,0.0308,0.0308,0,0.0308
2014-08-15,0.0308,0.0308,0.0308,0.0308,0,0.0308
2014-08-18,0.02273,0.02273,0.022000000000000002,0.022000000000000002,88600,0.022000000000000002
2014-08-19,0.02273,0.02273,0.022000000000000002,0.022000000000000002,78000,0.022000000000000002
2014-08-20,0.0264,0.0264,0.0264,0.0264,134100,0.0264
2014-08-21,0.0264,0.0264,0.0264,0.0264,0,0.0264
2014-08-22,0.0264,0.0264,0.0264,0.0264,0,0.0264
2014-08-25,0.0264,0.0264,0.0264,0.0264,0,0.0264
2014-08-26,0.03153,0.03447,0.03153,0.03447,461600,0.03447
2014-08-27,0.03447,0.0352,0.03447,0.0352,117600,0.0352
2014-08-28,0.0352,0.0352,0.0352,0.0352,18600,0.0352
2014-08-29,0.03667,0.03667,0.03667,0.03667,145900,0.03667
2014-09-01,0.04033,0.04033,0.04033,0.04033,13600,0.04033
2014-09-02,0.04033,0.04033,0.04033,0.04033,0,0.04033
2014-09-03,0.041069999999999995,0.041069999999999995,0.04033,0.04033,736300,0.04033
2014-09-04,0.04033,0.04033,0.04033,0.04033,0,0.04033
2014-09-05,0.04033,0.0418,0.03887,0.0418,877700,0.0418
2014-09-08,0.0418,0.0418,0.0418,0.0418,0,0.0418
2014-09-09,0.0418,0.0418,0.0418,0.0418,0,0.0418
2014-09-10,0.03667,0.03887,0.03667,0.03887,274000,0.03887
2014-09-11,0.03887,0.03887,0.03667,0.03887,476200,0.03887
2014-09-12,0.0396,0.0418,0.0396,0.0418,374900,0.0418
2014-09-15,0.0418,0.0418,0.04033,0.04033,281800,0.04033
2014-09-16,0.044000000000000004,0.04473,0.0396,0.0396,705800,0.0396
2014-09-17,0.03667,0.03667,0.03667,0.03667,136300,0.03667
2014-09-18,0.03667,0.03667,0.03667,0.03667,272700,0.03667
2014-09-19,0.03667,0.03667,0.03667,0.03667,0,0.03667
2014-09-22,0.03667,0.03667,0.03667,0.03667,0,0.03667
2014-09-23,0.03667,0.03667,0.03667,0.03667,68100,0.03667
2014-09-24,0.03667,0.04033,0.03667,0.04033,40900,0.04033
2014-09-25,0.03667,0.03667,0.03667,0.03667,125400,0.03667
2014-09-26,0.03667,0.03667,0.03667,0.03667,300000,0.03667
2014-09-29,0.05,0.05,0.05,0.05,0,0.05
2014-09-30,0.05,0.05,0.05,0.05,0,0.05
2014-10-01,0.05,0.05,0.05,0.05,0,0.05
2014-10-02,0.05,0.05,0.05,0.05,0,0.05
2014-10-03,0.05,0.05,0.05,0.05,0,0.05
2014-10-06,0.05,0.05,0.05,0.05,0,0.05
2014-10-07,0.044000000000000004,0.044000000000000004,0.044000000000000004,0.044000000000000004,226000,0.044000000000000004
2014-10-08,0.044000000000000004,0.044000000000000004,0.044000000000000004,0.044000000000000004,0,0.044000000000000004
2014-10-09,0.044000000000000004,0.044000000000000004,0.044000000000000004,0.044000000000000004,0,0.044000000000000004
2014-10-10,0.036000000000000004,0.036000000000000004,0.036000000000000004,0.036000000000000004,171000,0.036000000000000004
2014-10-13,0.036000000000000004,0.042,0.036000000000000004,0.042,339400,0.042
2014-10-14,0.039,0.042,0.039,0.042,324000,0.042
2014-10-15,0.046,0.046,0.046,0.046,682000,0.046
2014-10-16,0.046,0.047,0.046,0.047,199500,0.047
2014-10-17,0.05,0.05,0.05,0.05,400,0.05
2014-10-20,0.05,0.05,0.05,0.05,0,0.05
2014-10-21,0.05,0.05,0.05,0.05,0,0.05
2014-10-22,0.046,0.046,0.046,0.046,150000,0.046
2014-10-23,0.046,0.046,0.046,0.046,0,0.046
2014-10-24,0.046,0.046,0.046,0.046,0,0.046
2014-10-27,0.046,0.046,0.046,0.046,0,0.046
2014-10-28,0.046,0.046,0.046,0.046,0,0.046
2014-10-29,0.046,0.046,0.046,0.046,0,0.046
2014-10-30,0.046,0.046,0.046,0.046,0,0.046
2014-10-31,0.046,0.046,0.046,0.046,0,0.046
2014-11-03,0.046,0.046,0.046,0.046,0,0.046
2014-11-04,0.046,0.046,0.046,0.046,0,0.046
2014-11-05,0.045,0.045,0.045,0.045,150000,0.045
2014-11-06,0.045,0.045,0.045,0.045,0,0.045
2014-11-07,0.045,0.045,0.045,0.045,0,0.045
2014-11-10,0.045,0.045,0.045,0.045,18100,0.045
2014-11-11,0.045,0.045,0.045,0.045,0,0.045
2014-11-12,0.045,0.045,0.045,0.045,0,0.045
2014-11-13,0.045,0.045,0.045,0.045,0,0.045
2014-11-14,0.045,0.045,0.045,0.045,0,0.045
2014-11-17,0.045,0.045,0.045,0.045,0,0.045
2014-11-18,0.045,0.045,0.045,0.045,52600,0.045
2014-11-19,0.045,0.045,0.045,0.045,0,0.045
2014-11-20,0.045,0.045,0.045,0.045,42100,0.045
2014-11-21,0.045,0.045,0.045,0.045,0,0.045
2014-11-24,0.045,0.045,0.045,0.045,0,0.045
2014-11-25,0.045,0.045,0.045,0.045,0,0.045
2014-11-26,0.051,0.051,0.051,0.051,86300,0.051
2014-11-27,0.051,0.051,0.051,0.051,0,0.051
2014-11-28,0.051,0.051,0.051,0.051,0,0.051
2014-12-01,0.055,0.055,0.04,0.04,169200,0.04
2014-12-02,0.04,0.04,0.04,0.04,200000,0.04
2014-12-03,0.04,0.04,0.04,0.04,0,0.04
2014-12-04,0.042,0.042,0.042,0.042,150000,0.042
2014-12-05,0.042,0.042,0.042,0.042,0,0.042
2014-12-08,0.042,0.042,0.042,0.042,0,0.042
2014-12-09,0.042,0.042,0.042,0.042,0,0.042
2014-12-10,0.043,0.043,0.04,0.04,200000,0.04
2014-12-11,0.04,0.04,0.04,0.04,0,0.04
2014-12-12,0.04,0.04,0.04,0.04,0,0.04
2014-12-15,0.04,0.04,0.04,0.04,0,0.04
2014-12-16,0.04,0.04,0.04,0.04,0,0.04
2014-12-17,0.04,0.04,0.04,0.04,0,0.04
2014-12-18,0.042,0.042,0.038,0.038,220000,0.038
2014-12-19,0.038,0.038,0.038,0.038,15000,0.038
2014-12-22,0.038,0.038,0.038,0.038,0,0.038
2014-12-23,0.038,0.038,0.038,0.038,0,0.038
2014-12-24,0.038,0.038,0.038,0.038,0,0.038
2014-12-25,0.038,0.038,0.038,0.038,0,0.038
2014-12-26,0.038,0.038,0.038,0.038,0,0.038
2014-12-29,0.038,0.038,0.038,0.038,15000,0.038
2014-12-30,0.038,0.038,0.038,0.038,0,0.038
2014-12-31,0.038,0.038,0.038,0.038,0,0.038
2015-01-01,0.038,0.038,0.038,0.038,0,0.038
2015-01-02,0.038,0.038,0.038,0.038,0,0.038
2015-01-05,0.038,0.038,0.038,0.038,0,0.038
2015-01-06,0.038,0.038,0.038,0.038,0,0.038
2015-01-07,0.038,0.038,0.038,0.038,0,0.038
2015-01-08,0.038,0.038,0.038,0.038,0,0.038
2015-01-09,0.038,0.038,0.038,0.038,0,0.038
2015-01-12,0.055,0.055999999999999994,0.055,0.055,211200,0.055
2015-01-13,0.055,0.055,0.055,0.055,0,0.055
2015-01-14,0.055,0.055,0.055,0.055,0,0.055
2015-01-15,0.055,0.055,0.055,0.055,0,0.055
2015-01-16,0.055,0.055,0.055,0.055,0,0.055
2015-01-19,0.055,0.055,0.055,0.055,0,0.055
2015-01-20,0.055,0.055,0.055,0.055,0,0.055
2015-01-21,0.055,0.055,0.055,0.055,0,0.055
2015-01-22,0.055,0.055,0.055,0.055,0,0.055
2015-01-23,0.055,0.055,0.055,0.055,0,0.055
2015-01-26,0.055,0.055,0.055,0.055,0,0.055
2015-01-27,0.054000000000000006,0.055,0.054000000000000006,0.055,390700,0.055
2015-01-28,0.06,0.062,0.06,0.06,185000,0.06
2015-01-29,0.061,0.071,0.061,0.071,1089400,0.071
2015-01-30,0.062,0.065,0.062,0.065,60000,0.065
2015-02-02,0.071,0.075,0.071,0.075,145000,0.075
2015-02-03,0.087,0.08800000000000001,0.08199999999999999,0.08199999999999999,70500,0.08199999999999999
2015-02-04,0.086,0.086,0.08,0.08,60000,0.08
2015-02-05,0.085,0.09,0.085,0.09,155000,0.09
2015-02-06,0.09,0.09,0.09,0.09,0,0.09
2015-02-09,0.09,0.09,0.09,0.09,0,0.09
2015-02-10,0.08199999999999999,0.08800000000000001,0.08199999999999999,0.08800000000000001,50000,0.08800000000000001
2015-02-11,0.08800000000000001,0.08800000000000001,0.08800000000000001,0.08800000000000001,0,0.08800000000000001
2015-02-12,0.08800000000000001,0.08800000000000001,0.08800000000000001,0.08800000000000001,0,0.08800000000000001
2015-02-13,0.08800000000000001,0.08800000000000001,0.08800000000000001,0.08800000000000001,0,0.08800000000000001
2015-02-16,0.08800000000000001,0.08800000000000001,0.08800000000000001,0.08800000000000001,0,0.08800000000000001
2015-02-17,0.075,0.078,0.075,0.078,39000,0.078
2015-02-18,0.078,0.078,0.078,0.078,11000,0.078
2015-02-19,0.078,0.078,0.078,0.078,0,0.078
2015-02-20,0.071,0.071,0.069,0.069,57300,0.069
2015-02-23,0.069,0.069,0.069,0.069,0,0.069
2015-02-24,0.071,0.071,0.071,0.071,150000,0.071
2015-02-25,0.071,0.071,0.071,0.071,39000,0.071
2015-02-26,0.075,0.075,0.075,0.075,66000,0.075
2015-02-27,0.075,0.075,0.075,0.075,0,0.075
2015-03-02,0.075,0.075,0.075,0.075,0,0.075
2015-03-03,0.075,0.075,0.075,0.075,0,0.075
2015-03-04,0.075,0.075,0.075,0.075,0,0.075
2015-03-05,0.075,0.075,0.075,0.075,0,0.075
2015-03-06,0.075,0.075,0.075,0.075,0,0.075
2015-03-09,0.06,0.06,0.055,0.055,500000,0.055
2015-03-10,0.055,0.055,0.055,0.055,0,0.055
2015-03-11,0.055,0.055,0.055,0.055,0,0.055
2015-03-12,0.055,0.055,0.055,0.055,0,0.055
2015-03-13,0.055,0.055,0.055,0.055,0,0.055
2015-03-16,0.055,0.055,0.055,0.055,0,0.055
2015-03-17,0.068,0.068,0.068,0.068,50000,0.068
2015-03-18,0.068,0.068,0.068,0.068,0,0.068
2015-03-19,0.068,0.068,0.068,0.068,0,0.068
2015-03-20,0.067,0.07,0.067,0.07,140000,0.07
2015-03-23,0.07,0.07,0.07,0.07,0,0.07
2015-03-24,0.07,0.07,0.07,0.07,55000,0.07
2015-03-25,0.07,0.07,0.07,0.07,0,0.07
2015-03-26,0.07,0.07,0.07,0.07,0,0.07
2015-03-27,0.07,0.07,0.07,0.07,0,0.07
2015-03-30,0.07,0.07,0.07,0.07,110000,0.07
2015-03-31,0.07,0.07,0.07,0.07,0,0.07
2015-04-01,0.07,0.07,0.07,0.07,0,0.07
2015-04-02,0.07,0.07,0.07,0.07,28800,0.07
2015-04-03,0.07,0.07,0.07,0.07,0,0.07
2015-04-06,0.07,0.07,0.07,0.07,0,0.07
2015-04-07,0.07,0.07,0.07,0.07,0,0.07
2015-04-08,0.07,0.07,0.07,0.07,0,0.07
2015-04-09,0.07,0.07,0.07,0.07,0,0.07
2015-04-10,0.069,0.069,0.069,0.069,35000,0.069
2015-04-13,0.069,0.069,0.069,0.069,0,0.069
2015-04-14,0.069,0.069,0.069,0.069,0,0.069
2015-04-15,0.068,0.069,0.068,0.069,57800,0.069
2015-04-16,0.065,0.071,0.065,0.071,312000,0.071
2015-04-17,0.07400000000000001,0.08,0.065,0.065,413200,0.065
2015-04-20,0.075,0.08,0.075,0.08,270000,0.08
2015-04-21,0.077,0.078,0.075,0.075,81500,0.075
2015-04-22,0.075,0.075,0.075,0.075,0,0.075
2015-04-23,0.075,0.075,0.075,0.075,0,0.075
2015-04-24,0.075,0.075,0.075,0.075,0,0.075
2015-04-27,0.075,0.075,0.075,0.075,0,0.075
2015-04-28,0.07400000000000001,0.07400000000000001,0.07,0.07,42000,0.07
2015-04-29,0.065,0.065,0.065,0.065,10000,0.065
2015-04-30,0.065,0.065,0.065,0.065,0,0.065
2015-05-01,0.068,0.07,0.068,0.07,120000,0.07
2015-05-04,0.07,0.07,0.07,0.07,5000,0.07
2015-05-05,0.07,0.07,0.07,0.07,25000,0.07
2015-05-06,0.07,0.07,0.07,0.07,35000,0.07
2015-05-07,0.07,0.07,0.07,0.07,0,0.07
2015-05-08,0.068,0.068,0.068,0.068,10000,0.068
2015-05-11,0.068,0.068,0.068,0.068,20000,0.068
2015-05-12,0.07,0.07200000000000001,0.07,0.07200000000000001,130000,0.07200000000000001
2015-05-13,0.07200000000000001,0.07200000000000001,0.07200000000000001,0.07200000000000001,0,0.07200000000000001
2015-05-14,0.067,0.07,0.065,0.065,72000,0.065
2015-05-15,0.065,0.065,0.065,0.065,0,0.065
2015-05-18,0.063,0.064,0.063,0.064,103000,0.064
2015-05-19,0.064,0.064,0.064,0.064,0,0.064
2015-05-20,0.064,0.064,0.064,0.064,0,0.064
2015-05-21,0.064,0.064,0.064,0.064,0,0.064
2015-05-22,0.064,0.064,0.064,0.064,0,0.064
2015-05-25,0.064,0.064,0.064,0.064,0,0.064
2015-05-26,0.063,0.063,0.063,0.063,10000,0.063
2015-05-27,0.063,0.063,0.063,0.063,0,0.063
2015-05-28,0.063,0.063,0.063,0.063,0,0.063
2015-05-29,0.063,0.063,0.063,0.063,0,0.063
2015-06-01,0.063,0.063,0.063,0.063,0,0.063
2015-06-02,0.061,0.061,0.06,0.06,150000,0.06
2015-06-03,0.06,0.06,0.06,0.06,0,0.06
2015-06-04,0.06,0.06,0.06,0.06,0,0.06
2015-06-05,0.06,0.06,0.06,0.06,75000,0.06
2015-06-08,0.06,0.06,0.06,0.06,0,0.06
2015-06-09,0.06,0.06,0.06,0.06,10000,0.06
2015-06-10,0.06,0.06,0.06,0.06,10000,0.06
2015-06-11,0.06,0.06,0.06,0.06,0,0.06
2015-06-12,0.06,0.06,0.06,0.06,30000,0.06
2015-06-15,0.06,0.06,0.06,0.06,0,0.06
2015-06-16,0.055,0.06,0.052000000000000005,0.052000000000000005,267000,0.052000000000000005
2015-06-17,0.051,0.052000000000000005,0.051,0.052000000000000005,140400,0.052000000000000005
2015-06-18,0.052000000000000005,0.052000000000000005,0.052000000000000005,0.052000000000000005,0,0.052000000000000005
2015-06-19,0.052000000000000005,0.054000000000000006,0.052000000000000005,0.054000000000000006,80000,0.054000000000000006
2015-06-22,0.055,0.055,0.055,0.055,10000,0.055
2015-06-23,0.055,0.055,0.055,0.055,0,0.055
2015-06-24,0.055,0.055,0.055,0.055,0,0.055
2015-06-25,0.055,0.055,0.055,0.055,0,0.055
2015-06-26,0.055,0.055,0.055,0.055,50000,0.055
2015-06-29,0.051,0.051,0.05,0.05,150000,0.05
2015-06-30,0.05,0.05,0.05,0.05,0,0.05
2015-07-01,0.05,0.05,0.05,0.05,0,0.05
2015-07-02,0.068,0.07,0.068,0.07,93300,0.07
2015-07-03,0.07,0.071,0.06,0.06,850000,0.06
2015-07-06,0.07,0.07,0.07,0.07,487900,0.07
2015-07-07,0.07,0.07,0.07,0.07,0,0.07
2015-07-08,0.066,0.066,0.06,0.06,730300,0.06
2015-07-09,0.059000000000000004,0.059000000000000004,0.059000000000000004,0.059000000000000004,14900,0.059000000000000004
2015-07-10,0.06,0.06,0.06,0.06,1100,0.06
2015-07-13,0.06,0.06,0.06,0.06,200000,0.06
2015-07-14,0.06,0.06,0.06,0.06,105900,0.06
2015-07-15,0.065,0.066,0.062,0.065,545000,0.065
2015-07-16,0.07,0.07,0.065,0.065,544700,0.065
2015-07-17,0.065,0.069,0.065,0.069,75200,0.069
2015-07-20,0.065,0.065,0.065,0.065,100000,0.065
2015-07-21,0.065,0.065,0.065,0.065,0,0.065
2015-07-22,0.06,0.06,0.06,0.06,100000,0.06
2015-07-23,0.06,0.06,0.06,0.06,0,0.06
2015-07-24,0.064,0.065,0.061,0.061,220000,0.061
2015-07-27,0.061,0.061,0.061,0.061,0,0.061
2015-07-28,0.063,0.063,0.063,0.063,20000,0.063
2015-07-29,0.063,0.063,0.061,0.061,120000,0.061
2015-07-30,0.065,0.065,0.065,0.065,49700,0.065
2015-07-31,0.068,0.077,0.068,0.075,401600,0.075
2015-08-03,0.075,0.075,0.075,0.075,206500,0.075
2015-08-04,0.075,0.075,0.07,0.07,34000,0.07
2015-08-05,0.07,0.075,0.07,0.075,200800,0.075
2015-08-06,0.077,0.081,0.07,0.07,153100,0.07
2015-08-07,0.07,0.07,0.07,0.07,2700,0.07
2015-08-10,0.076,0.078,0.07400000000000001,0.076,199300,0.076
2015-08-11,0.075,0.08,0.075,0.08,116600,0.08
2015-08-12,0.08,0.08,0.08,0.08,31200,0.08
2015-08-13,0.08,0.087,0.08,0.087,278200,0.087
2015-08-14,0.095,0.095,0.085,0.085,15000,0.085
2015-08-17,0.085,0.085,0.085,0.085,0,0.085
2015-08-18,0.105,0.11,0.09300000000000001,0.1,1054800,0.1
2015-08-19,0.1,0.105,0.096,0.099,642400,0.099
2015-08-20,0.099,0.099,0.08199999999999999,0.095,255300,0.095
2015-08-21,0.095,0.1,0.095,0.1,335400,0.1
2015-08-24,0.099,0.11,0.099,0.11,776000,0.11
2015-08-25,0.1,0.105,0.1,0.105,162300,0.105
2015-08-26,0.1,0.1,0.091,0.095,519000,0.095
2015-08-27,0.095,0.095,0.095,0.095,0,0.095
2015-08-28,0.1,0.105,0.095,0.105,709600,0.105
2015-08-31,0.11,0.13,0.11,0.115,1046400,0.115
2015-09-01,0.11,0.12,0.105,0.11,722600,0.11
2015-09-02,0.11,0.115,0.105,0.11,177300,0.11
2015-09-03,0.105,0.105,0.1,0.1,352000,0.1
2015-09-04,0.1,0.105,0.1,0.1,65000,0.1
2015-09-07,0.105,0.105,0.105,0.105,155700,0.105
2015-09-08,0.105,0.11,0.105,0.105,247500,0.105
2015-09-09,0.105,0.11,0.095,0.105,726900,0.105
2015-09-10,0.1,0.1,0.09,0.1,373700,0.1
2015-09-11,0.105,0.11,0.105,0.11,406500,0.11
2015-09-14,0.11,0.11,0.11,0.11,56600,0.11
2015-09-15,0.11,0.11,0.11,0.11,0,0.11
2015-09-16,0.11,0.11,0.11,0.11,0,0.11
2015-09-17,0.11,0.11,0.11,0.11,0,0.11
2015-09-18,0.11,0.11,0.11,0.11,0,0.11
2015-09-21,0.11,0.12,0.1,0.11,5716400,0.11
2015-09-22,0.115,0.115,0.11,0.115,184700,0.115
2015-09-23,0.115,0.115,0.11,0.11,537400,0.11
2015-09-24,0.105,0.115,0.105,0.115,130000,0.115
2015-09-25,0.11,0.12,0.11,0.12,381000,0.12
2015-09-28,0.115,0.12,0.115,0.12,292800,0.12
2015-09-29,0.12,0.12,0.11,0.11,424400,0.11
2015-09-30,0.12,0.14,0.12,0.14,1708400,0.14
2015-10-01,0.14,0.15,0.13,0.135,707800,0.135
2015-10-02,0.135,0.14,0.135,0.135,343300,0.135
2015-10-05,0.14,0.14,0.12,0.135,477500,0.135
2015-10-06,0.125,0.13,0.12,0.13,125100,0.13
2015-10-07,0.13,0.135,0.125,0.135,91100,0.135
2015-10-08,0.135,0.14,0.135,0.14,82200,0.14
2015-10-09,0.14,0.14,0.14,0.14,337000,0.14
2015-10-12,0.14,0.15,0.14,0.15,630500,0.15
2015-10-13,0.15,0.155,0.145,0.155,834900,0.155
2015-10-14,0.15,0.155,0.145,0.155,870000,0.155
2015-10-15,0.15,0.15,0.14,0.15,377000,0.15
2015-10-16,0.14,0.145,0.14,0.14,31400,0.14
2015-10-19,0.15,0.165,0.15,0.165,1693800,0.165
2015-10-20,0.17,0.17,0.16,0.16,1208600,0.16
2015-10-21,0.165,0.17,0.165,0.17,463400,0.17
2015-10-22,0.165,0.17,0.155,0.17,300000,0.17
2015-10-23,0.155,0.165,0.155,0.165,348900,0.165
2015-10-26,0.16,0.16,0.14,0.15,953700,0.15
2015-10-27,0.15,0.15,0.145,0.145,478800,0.145
2015-10-28,0.145,0.145,0.14,0.14,1732300,0.14
2015-10-29,0.135,0.14,0.135,0.135,524400,0.135
2015-10-30,0.135,0.14,0.135,0.14,477900,0.14
2015-11-02,0.135,0.135,0.135,0.135,76800,0.135
2015-11-03,0.14,0.14,0.135,0.135,66600,0.135
2015-11-04,0.135,0.135,0.135,0.135,148100,0.135
2015-11-05,0.135,0.135,0.135,0.135,0,0.135
2015-11-06,0.135,0.135,0.135,0.135,220000,0.135
2015-11-09,0.135,0.135,0.135,0.135,351300,0.135
2015-11-10,0.135,0.135,0.125,0.125,376300,0.125
2015-11-11,0.125,0.125,0.125,0.125,0,0.125
2015-11-12,0.12,0.135,0.12,0.135,393300,0.135
2015-11-13,0.135,0.135,0.13,0.13,576100,0.13
2015-11-16,0.125,0.135,0.125,0.135,155300,0.135
2015-11-17,0.135,0.135,0.135,0.135,0,0.135
2015-11-18,0.125,0.135,0.125,0.135,168800,0.135
2015-11-19,0.135,0.155,0.135,0.14,932000,0.14
2015-11-20,0.145,0.155,0.14,0.15,1715900,0.15
2015-11-23,0.155,0.165,0.155,0.16,1638100,0.16
2015-11-24,0.16,0.16,0.155,0.16,384000,0.16
2015-11-25,0.16,0.16,0.16,0.16,339300,0.16
2015-11-26,0.16,0.16,0.15,0.155,651800,0.155
2015-11-27,0.155,0.16,0.15,0.16,744100,0.16
2015-11-30,0.155,0.155,0.145,0.15,828400,0.15
2015-12-01,0.15,0.155,0.15,0.155,361500,0.155
2015-12-02,0.165,0.175,0.16,0.175,1949300,0.175
2015-12-03,0.18,0.18,0.15,0.155,2355600,0.155
2015-12-04,0.16,0.16,0.15,0.16,555300,0.16
2015-12-07,0.165,0.165,0.15,0.15,409700,0.15
2015-12-08,0.15,0.15,0.145,0.15,310000,0.15
2015-12-09,0.145,0.145,0.145,0.145,133400,0.145
2015-12-10,0.145,0.145,0.145,0.145,112300,0.145
2015-12-11,0.15,0.155,0.145,0.15,262200,0.15
2015-12-14,0.15,0.15,0.15,0.15,0,0.15
2015-12-15,0.145,0.145,0.14,0.14,741700,0.14
2015-12-16,0.14,0.15,0.14,0.145,306000,0.145
2015-12-17,0.14,0.145,0.14,0.145,161200,0.145
2015-12-18,0.14,0.14,0.14,0.14,71400,0.14
2015-12-21,0.135,0.14,0.135,0.14,417400,0.14
2015-12-22,0.14,0.145,0.14,0.145,147300,0.145
2015-12-23,0.14,0.14,0.135,0.14,245000,0.14
2015-12-24,0.14,0.14,0.14,0.14,0,0.14
2015-12-25,0.14,0.14,0.14,0.14,0,0.14
2015-12-28,0.14,0.14,0.14,0.14,0,0.14
2015-12-29,0.135,0.14,0.135,0.14,46400,0.14
2015-12-30,0.135,0.14,0.135,0.14,30000,0.14
2015-12-31,0.14,0.14,0.14,0.14,0,0.14
2016-01-01,0.14,0.14,0.14,0.14,0,0.14
2016-01-04,0.135,0.135,0.135,0.135,13500,0.135
2016-01-05,0.13,0.135,0.13,0.135,160000,0.135
2016-01-06,0.135,0.135,0.135,0.135,95000,0.135
2016-01-07,0.145,0.15,0.14,0.15,307600,0.15
2016-01-08,0.145,0.145,0.145,0.145,600,0.145
2016-01-11,0.14,0.14,0.13,0.14,224300,0.14
2016-01-12,0.14,0.14,0.12,0.135,529200,0.135
2016-01-13,0.13,0.135,0.13,0.13,253000,0.13
2016-01-14,0.135,0.135,0.11,0.125,407900,0.125
2016-01-15,0.125,0.13,0.125,0.13,141400,0.13
2016-01-18,0.135,0.135,0.13,0.13,123300,0.13
2016-01-19,0.13,0.13,0.13,0.13,2900,0.13
2016-01-20,0.13,0.13,0.12,0.12,63000,0.12
2016-01-21,0.12,0.12,0.12,0.12,86900,0.12
2016-01-22,0.12,0.12,0.11,0.115,974400,0.115
2016-01-25,0.11,0.125,0.11,0.12,1067600,0.12
2016-01-26,0.12,0.12,0.12,0.12,0,0.12
2016-01-27,0.115,0.115,0.115,0.115,98700,0.115
2016-01-28,0.115,0.115,0.115,0.115,0,0.115
2016-01-29,0.12,0.125,0.115,0.12,295000,0.12
2016-02-01,0.115,0.12,0.115,0.12,150000,0.12
2016-02-02,0.12,0.12,0.11,0.11,85000,0.11
2016-02-03,0.11,0.11,0.11,0.11,0,0.11
2016-02-04,0.12,0.12,0.11,0.11,54000,0.11
2016-02-05,0.11,0.11,0.11,0.11,70000,0.11
2016-02-08,0.12,0.12,0.11,0.11,32000,0.11
2016-02-09,0.11,0.12,0.11,0.12,369300,0.12
2016-02-10,0.115,0.115,0.1,0.105,130900,0.105
2016-02-11,0.105,0.11,0.105,0.105,783900,0.105
2016-02-12,0.12,0.13,0.11,0.115,5051400,0.115
2016-02-15,0.11,0.11,0.099,0.105,969800,0.105
2016-02-16,0.105,0.115,0.105,0.115,1283000,0.115
2016-02-17,0.105,0.12,0.105,0.12,478900,0.12
2016-02-18,0.12,0.12,0.11,0.115,637600,0.115
2016-02-19,0.115,0.125,0.115,0.125,960000,0.125
2016-02-22,0.13,0.15,0.13,0.145,2668500,0.145
2016-02-23,0.14,0.15,0.135,0.135,2609700,0.135
2016-02-24,0.135,0.14,0.13,0.135,639900,0.135
2016-02-25,0.135,0.135,0.13,0.135,944000,0.135
2016-02-26,0.14,0.145,0.135,0.145,1072200,0.145
2016-02-29,0.145,0.145,0.145,0.145,0,0.145
2016-03-01,0.145,0.145,0.145,0.145,0,0.145
2016-03-02,0.135,0.14,0.135,0.14,2985300,0.14
2016-03-03,0.135,0.14,0.135,0.135,811500,0.135
2016-03-04,0.135,0.14,0.13,0.135,533900,0.135
2016-03-07,0.135,0.14,0.135,0.14,740000,0.14
2016-03-08,0.135,0.145,0.135,0.145,1676900,0.145
2016-03-09,0.14,0.14,0.13,0.14,389000,0.14
2016-03-10,0.14,0.14,0.13,0.13,615300,0.13
2016-03-11,0.135,0.145,0.135,0.145,1609200,0.145
2016-03-14,0.145,0.15,0.145,0.15,754200,0.15
2016-03-15,0.145,0.15,0.14,0.145,1649600,0.145
2016-03-16,0.145,0.15,0.145,0.15,172000,0.15
2016-03-17,0.15,0.16,0.15,0.155,1576800,0.155
2016-03-18,0.155,0.155,0.15,0.15,898600,0.15
2016-03-21,0.15,0.15,0.145,0.15,821600,0.15
2016-03-22,0.15,0.15,0.145,0.15,1957200,0.15
2016-03-23,0.15,0.155,0.145,0.15,994300,0.15
2016-03-24,0.15,0.152,0.145,0.152,640000,0.152
2016-03-25,0.152,0.152,0.152,0.152,0,0.152
2016-03-28,0.152,0.152,0.152,0.152,0,0.152
2016-03-29,0.152,0.155,0.145,0.145,1821100,0.145
2016-03-30,0.145,0.15,0.145,0.15,716100,0.15
2016-03-31,0.15,0.15,0.145,0.15,612500,0.15
2016-04-01,0.15,0.15,0.14,0.145,1169600,0.145
2016-04-04,0.15,0.15,0.145,0.15,240000,0.15
2016-04-05,0.15,0.15,0.15,0.15,361600,0.15
2016-04-06,0.155,0.155,0.152,0.155,453900,0.155
2016-04-07,0.155,0.155,0.15,0.15,1594000,0.15
2016-04-08,0.145,0.145,0.14,0.145,313300,0.145
2016-04-11,0.145,0.15,0.145,0.15,319200,0.15
2016-04-12,0.15,0.155,0.15,0.15,389500,0.15
2016-04-13,0.155,0.16,0.15,0.15,272100,0.15
2016-04-14,0.15,0.155,0.15,0.15,306800,0.15
2016-04-15,0.15,0.15,0.15,0.15,595400,0.15
2016-04-18,0.15,0.15,0.145,0.145,261300,0.145
2016-04-19,0.15,0.16,0.14,0.155,1217300,0.155
2016-04-20,0.16,0.175,0.16,0.17,2131600,0.17
2016-04-21,0.175,0.19,0.17,0.19,718000,0.19
2016-04-22,0.195,0.195,0.185,0.19,387500,0.19
2016-04-25,0.19,0.19,0.19,0.19,0,0.19
2016-04-26,0.185,0.19,0.175,0.175,725300,0.175
2016-04-27,0.18,0.18,0.17,0.17,641600,0.17
2016-04-28,0.17,0.175,0.165,0.17,308300,0.17
2016-04-29,0.185,0.19,0.18,0.19,1912900,0.19
2016-05-02,0.2,0.225,0.2,0.21,2635100,0.21
2016-05-03,0.215,0.225,0.205,0.205,1652300,0.205
2016-05-04,0.205,0.22,0.2,0.2,1126600,0.2
2016-05-05,0.21,0.225,0.21,0.225,770700,0.225
2016-05-06,0.24,0.24,0.225,0.23,1136700,0.23
2016-05-09,0.235,0.235,0.22,0.22,667600,0.22
2016-05-10,0.21,0.21,0.2,0.205,1080100,0.205
2016-05-11,0.205,0.21,0.2,0.21,589100,0.21
2016-05-12,0.21,0.23,0.21,0.225,1747400,0.225
2016-05-13,0.225,0.23,0.225,0.23,446600,0.23
2016-05-16,0.225,0.225,0.215,0.225,287300,0.225
2016-05-17,0.23,0.24,0.23,0.235,1667700,0.235
2016-05-18,0.245,0.245,0.235,0.235,364600,0.235
2016-05-19,0.23,0.23,0.21,0.215,604000,0.215
2016-05-20,0.22,0.22,0.21,0.215,411000,0.215
2016-05-23,0.215,0.215,0.2,0.205,769400,0.205
2016-05-24,0.2,0.205,0.2,0.205,277200,0.205
2016-05-25,0.19,0.19,0.18,0.19,632300,0.19
2016-05-26,0.19,0.195,0.185,0.19,1030900,0.19
2016-05-27,0.19,0.19,0.185,0.19,387900,0.19
2016-05-30,0.175,0.185,0.172,0.185,632400,0.185
2016-05-31,0.19,0.205,0.19,0.205,1135500,0.205
2016-06-01,0.2,0.205,0.195,0.2,760400,0.2
2016-06-02,0.2,0.2,0.19,0.2,198300,0.2
2016-06-03,0.205,0.205,0.185,0.2,181600,0.2
2016-06-06,0.21,0.21,0.205,0.21,955500,0.21
2016-06-07,0.215,0.225,0.21,0.21,996300,0.21
2016-06-08,0.23,0.23,0.22,0.22,314200,0.22
2016-06-09,0.225,0.225,0.21,0.22,254100,0.22
2016-06-10,0.225,0.225,0.22,0.225,278900,0.225
2016-06-13,0.225,0.225,0.225,0.225,0,0.225
2016-06-14,0.225,0.23,0.215,0.22,476800,0.22
2016-06-15,0.22,0.225,0.215,0.22,153800,0.22
2016-06-16,0.22,0.24,0.22,0.24,741100,0.24
2016-06-17,0.255,0.26,0.23,0.235,1636600,0.235
2016-06-20,0.23,0.24,0.225,0.235,576500,0.235
2016-06-21,0.24,0.245,0.235,0.24,549100,0.24
2016-06-22,0.235,0.24,0.23,0.24,251400,0.24
2016-06-23,0.24,0.25,0.235,0.24,478100,0.24
2016-06-24,0.24,0.255,0.24,0.255,548500,0.255
2016-06-27,0.25,0.255,0.25,0.255,564000,0.255
2016-06-28,0.27,0.3,0.265,0.29,2142800,0.29
2016-06-29,0.285,0.29,0.28,0.29,596000,0.29
2016-06-30,0.29,0.305,0.29,0.3,1184300,0.3
2016-07-01,0.3,0.3,0.29,0.3,354900,0.3
2016-07-04,0.305,0.33,0.305,0.32,855600,0.32
2016-07-05,0.305,0.315,0.3,0.31,818500,0.31
2016-07-06,0.31,0.335,0.31,0.325,1834800,0.325
2016-07-07,0.325,0.325,0.325,0.325,0,0.325
2016-07-08,0.325,0.325,0.325,0.325,0,0.325
2016-07-11,0.34,0.35,0.325,0.325,2213000,0.325
2016-07-12,0.33,0.34,0.33,0.33,1170200,0.33
2016-07-13,0.33,0.335,0.315,0.33,2304700,0.33
2016-07-14,0.33,0.37,0.33,0.34,1993100,0.34
2016-07-15,0.34,0.345,0.325,0.33,1293300,0.33
2016-07-18,0.33,0.33,0.32,0.32,2319300,0.32
2016-07-19,0.32,0.35,0.32,0.34,2587200,0.34
2016-07-20,0.345,0.345,0.34,0.34,1520400,0.34
2016-07-21,0.34,0.345,0.335,0.34,2664600,0.34
2016-07-22,0.35,0.38,0.35,0.375,1628000,0.375
2016-07-25,0.38,0.4,0.38,0.39,971500,0.39
2016-07-26,0.4,0.4,0.38,0.39,1458400,0.39
2016-07-27,0.395,0.435,0.38,0.38,2172000,0.38
2016-07-28,0.385,0.41,0.385,0.41,1568200,0.41
2016-07-29,0.42,0.455,0.42,0.455,1928700,0.455
2016-08-01,0.475,0.475,0.43,0.43,868700,0.43
2016-08-02,0.435,0.435,0.4,0.42,695600,0.42
2016-08-03,0.42,0.425,0.41,0.415,1050000,0.415
2016-08-04,0.41,0.42,0.41,0.42,188500,0.42
2016-08-05,0.42,0.445,0.42,0.44,990900,0.44
2016-08-08,0.43,0.435,0.425,0.425,1282100,0.425
2016-08-09,0.43,0.45,0.425,0.44,1717100,0.44
2016-08-10,0.435,0.44,0.425,0.44,986100,0.44
2016-08-11,0.445,0.445,0.435,0.44,621100,0.44
2016-08-12,0.45,0.46,0.45,0.46,1107700,0.46
2016-08-15,0.455,0.46,0.43,0.44,1680200,0.44
2016-08-16,0.445,0.46,0.435,0.46,4479000,0.46
2016-08-17,0.48,0.55,0.475,0.55,4940600,0.55
2016-08-18,0.55,0.57,0.53,0.56,1642700,0.56
2016-08-19,0.54,0.57,0.54,0.565,2549800,0.565
2016-08-22,0.56,0.56,0.535,0.54,817100,0.54
2016-08-23,0.535,0.535,0.5,0.52,1328000,0.52
2016-08-24,0.505,0.545,0.5,0.54,177300,0.54
2016-08-25,0.505,0.51,0.48,0.485,773800,0.485
2016-08-26,0.5,0.52,0.5,0.515,674800,0.515
2016-08-29,0.51,0.51,0.485,0.495,1230600,0.495
2016-08-30,0.495,0.5,0.475,0.48,327800,0.48
2016-08-31,0.465,0.475,0.43,0.46,1126800,0.46
2016-09-01,0.445,0.45,0.42,0.425,544100,0.425
2016-09-02,0.435,0.455,0.43,0.45,642200,0.45
2016-09-05,0.46,0.5,0.46,0.5,1675100,0.5
2016-09-06,0.5,0.517,0.49,0.515,1783000,0.515
2016-09-07,0.555,0.585,0.55,0.58,2811100,0.58
2016-09-08,0.585,0.5875,0.55,0.55,2119800,0.55
2016-09-09,0.55,0.575,0.545,0.575,1162500,0.575
2016-09-12,0.55,0.56,0.525,0.54,1215500,0.54
2016-09-13,0.555,0.595,0.545,0.55,1768700,0.55
2016-09-14,0.545,0.545,0.5,0.53,639900,0.53
2016-09-15,0.545,0.555,0.53,0.53,453200,0.53
2016-09-16,0.54,0.552,0.53,0.55,1467800,0.55
2016-09-19,0.54,0.555,0.53,0.555,310600,0.555
2016-09-20,0.55,0.57,0.55,0.56,729000,0.56
2016-09-21,0.57,0.6,0.5670000000000001,0.6,1594500,0.6
2016-09-22,0.65,0.685,0.635,0.68,2764000,0.68
2016-09-23,0.64,0.68,0.62,0.67,2094100,0.67
2016-09-26,0.67,0.72,0.66,0.7,991700,0.7
2016-09-27,0.69,0.695,0.675,0.685,2346200,0.685
2016-09-28,0.67,0.7,0.67,0.695,246000,0.695
2016-09-29,0.68,0.71,0.68,0.695,1371000,0.695
2016-09-30,0.695,0.705,0.662,0.69,868500,0.69
2016-10-03,0.685,0.685,0.675,0.68,548800,0.68
2016-10-04,0.66,0.665,0.65,0.655,495500,0.655
2016-10-05,0.625,0.65,0.585,0.65,2825300,0.65
2016-10-06,0.655,0.665,0.65,0.65,912400,0.65
2016-10-07,0.645,0.65,0.625,0.63,959600,0.63
2016-10-10,0.64,0.66,0.64,0.655,1284900,0.655
2016-10-11,0.66,0.67,0.655,0.66,347000,0.66
2016-10-12,0.645,0.65,0.64,0.6425,307100,0.6425
2016-10-13,0.645,0.68,0.63,0.68,749300,0.68
2016-10-14,0.67,0.68,0.652,0.675,626900,0.675
2016-10-17,0.67,0.67,0.63,0.635,327000,0.635
2016-10-18,0.635,0.66,0.632,0.66,851500,0.66
2016-10-19,0.68,0.7,0.68,0.695,800700,0.695
2016-10-20,0.7,0.72,0.69,0.705,835200,0.705
2016-10-21,0.72,0.75,0.705,0.74,535100,0.74
2016-10-24,0.75,0.77,0.742,0.765,970800,0.765
2016-10-25,0.755,0.76,0.72,0.73,1232700,0.73
2016-10-26,0.74,0.74,0.705,0.73,216800,0.73
2016-10-27,0.7,0.705,0.665,0.7,389000,0.7
2016-10-28,0.7,0.7,0.665,0.67,451600,0.67
2016-10-31,0.65,0.675,0.635,0.645,525400,0.645
2016-11-01,0.65,0.665,0.62,0.63,365700,0.63
2016-11-02,0.63,0.63,0.63,0.63,0,0.63
2016-11-03,0.63,0.63,0.63,0.63,0,0.63
2016-11-04,0.63,0.63,0.63,0.63,0,0.63
2016-11-07,0.7,0.7,0.335,0.35,13558000,0.35
2016-11-08,0.255,0.27,0.215,0.23,41903300,0.23
2016-11-09,0.225,0.255,0.225,0.24,14616100,0.24
2016-11-10,0.245,0.26,0.22,0.235,11975600,0.235
2016-11-11,0.235,0.24,0.195,0.205,7466900,0.205
2016-11-14,0.195,0.27,0.195,0.235,18100400,0.235
2016-11-15,0.24,0.265,0.235,0.255,6692200,0.255
2016-11-16,0.26,0.27,0.25,0.25,3725500,0.25
2016-11-17,0.26,0.275,0.25,0.255,2799900,0.255
2016-11-18,0.26,0.265,0.24,0.25,4282200,0.25
2016-11-21,0.25,0.26,0.245,0.25,1760200,0.25
2016-11-22,0.25,0.25,0.235,0.24,1227700,0.24
2016-11-23,0.24,0.245,0.23,0.24,1754900,0.24
2016-11-24,0.23,0.24,0.225,0.225,2700300,0.225
2016-11-25,0.225,0.235,0.225,0.23,1578900,0.23
2016-11-28,0.23,0.245,0.23,0.235,1106500,0.235
2016-11-29,0.235,0.245,0.235,0.24,624300,0.24
2016-11-30,0.235,0.245,0.23,0.24,1740500,0.24
2016-12-01,0.235,0.24,0.225,0.235,841100,0.235
2016-12-02,0.24,0.25,0.22,0.225,1829500,0.225
2016-12-05,0.225,0.24,0.225,0.24,663000,0.24
2016-12-06,0.235,0.235,0.225,0.225,720600,0.225
2016-12-07,0.23,0.235,0.225,0.23,607900,0.23
2016-12-08,0.23,0.23,0.225,0.23,303800,0.23
2016-12-09,0.23,0.235,0.23,0.235,110500,0.235
2016-12-12,0.23,0.235,0.22,0.23,571000,0.23
2016-12-13,0.23,0.23,0.225,0.225,367800,0.225
2016-12-14,0.225,0.225,0.22,0.225,403500,0.225
2016-12-15,0.22,0.225,0.215,0.215,932700,0.215
2016-12-16,0.21,0.225,0.2,0.225,1033000,0.225
2016-12-19,0.22,0.22,0.205,0.215,479400,0.215
2016-12-20,0.215,0.235,0.215,0.235,378700,0.235
2016-12-21,0.215,0.225,0.21,0.225,295400,0.225
2016-12-22,0.225,0.225,0.225,0.225,0,0.225
2016-12-23,0.215,0.215,0.215,0.215,35500,0.215
2016-12-26,0.215,0.215,0.215,0.215,0,0.215
2016-12-27,0.215,0.215,0.215,0.215,0,0.215
2016-12-28,0.22,0.22,0.22,0.22,37200,0.22
2016-12-29,0.22,0.225,0.215,0.225,221200,0.225
2016-12-30,0.22,0.24,0.22,0.24,77500,0.24
