Date,Open,High,Low,Close,Volume,Adj Close
2016-11-08,4.01,4.02,3.96,3.96,2276000,3.926
2016-11-09,3.97,3.98,3.82,3.97,4643200,3.9360000000000004
2016-11-10,3.97,3.99,3.88,3.89,1299300,3.8569999999999998
2016-11-11,3.9,3.9,3.8,3.84,886300,3.807
2016-11-14,3.84,3.86,3.82,3.86,333300,3.827
2016-11-15,3.86,3.86,3.8,3.84,529400,3.807
2016-11-16,3.86,3.86,3.73,3.76,415300,3.728
2016-11-17,3.75,3.8,3.6,3.63,399900,3.5989999999999998
2016-11-18,3.64,3.72,3.64,3.7,537000,3.6689999999999996
2016-11-21,3.7,3.74,3.65,3.67,355300,3.639
2016-11-22,3.69,3.7,3.66,3.67,278000,3.639
2016-11-23,3.66,3.77,3.66,3.68,237900,3.6489999999999996
2016-11-24,3.68,3.7,3.67,3.67,251700,3.639
2016-11-25,3.69,3.7,3.68,3.68,307500,3.6489999999999996
2016-11-28,3.7,3.71,3.68,3.68,299100,3.6489999999999996
2016-11-29,3.7,3.8,3.69,3.7,85300,3.6689999999999996
2016-11-30,3.72,3.87,3.72,3.8,92000,3.7680000000000002
2016-12-01,3.85,3.85,3.76,3.83,121600,3.798
2016-12-02,3.85,3.85,3.79,3.81,146300,3.778
2016-12-05,3.8,3.88,3.8,3.85,109600,3.8169999999999997
2016-12-06,3.875,3.93,3.85,3.91,190800,3.877
2016-12-07,3.9,3.93,3.87,3.92,75100,3.887
2016-12-08,3.89,3.96,3.89,3.95,181200,3.917
2016-12-09,3.93,3.96,3.9,3.93,173200,3.897
2016-12-12,3.92,3.94,3.9,3.9,71300,3.867
2016-12-13,3.9,3.91,3.89,3.9,381700,3.867
2016-12-14,3.89,3.92,3.87,3.9,337800,3.867
2016-12-15,3.88,3.93,3.87,3.93,265700,3.897
2016-12-16,3.93,4.06,3.89,4.06,1322300,4.026
2016-12-19,4.04,4.04,3.92,4.0,176100,3.966
2016-12-20,3.99,3.99,3.9,3.97,139300,3.9360000000000004
2016-12-21,3.97,4.01,3.96,3.98,530200,3.946
2016-12-22,3.99,4.0,3.95,4.0,292400,3.966
2016-12-23,4.0,4.0,3.98,4.0,260900,3.966
2016-12-26,4.0,4.0,4.0,4.0,0,3.966
2016-12-27,4.0,4.0,4.0,4.0,0,3.966
2016-12-28,4.0,4.01,3.98,4.01,100800,3.9760000000000004
2016-12-29,4.0,4.0,3.96,3.96,20600,3.96
2016-12-30,3.96,4.03,3.96,4.01,253900,4.01
