Date,Open,High,Low,Close,Volume,Adj Close
2016-09-16,1.085,1.1,1.08,1.1,82500,1.1
2016-09-19,1.095,1.095,1.09,1.09,26900,1.09
2016-09-20,1.09,1.09,1.02,1.02,123500,1.02
2016-09-21,1.03,1.04,1.03,1.04,23100,1.04
2016-09-22,1.04,1.075,1.04,1.07,9400,1.07
2016-09-23,1.07,1.07,1.04,1.04,81900,1.04
2016-09-26,1.055,1.055,1.055,1.055,500,1.055
2016-09-27,1.06,1.06,1.03,1.03,30000,1.03
2016-09-28,1.05,1.065,1.05,1.05,47300,1.05
2016-09-29,1.05,1.065,1.05,1.065,25000,1.065
2016-09-30,1.055,1.065,1.04,1.065,19900,1.065
2016-10-03,1.065,1.065,1.065,1.065,0,1.065
2016-10-04,1.04,1.04,1.035,1.04,40700,1.04
2016-10-05,1.04,1.065,1.04,1.05,29200,1.05
2016-10-06,1.05,1.05,1.05,1.05,2000,1.05
2016-10-07,1.04,1.04,1.04,1.04,75000,1.04
2016-10-10,1.04,1.06,1.04,1.06,48800,1.06
2016-10-11,1.045,1.05,1.045,1.05,21200,1.05
2016-10-12,1.05,1.05,1.05,1.05,9900,1.05
2016-10-13,1.04,1.06,1.04,1.06,17300,1.06
2016-10-14,1.045,1.05,1.035,1.05,32600,1.05
2016-10-17,1.04,1.06,1.035,1.06,120400,1.06
2016-10-18,1.06,1.06,1.06,1.06,0,1.06
2016-10-19,1.06,1.06,1.06,1.06,24900,1.06
2016-10-20,1.055,1.065,1.04,1.065,66300,1.065
2016-10-21,1.065,1.09,1.06,1.09,32300,1.09
2016-10-24,1.07,1.08,1.06,1.08,8600,1.08
2016-10-25,1.08,1.08,1.06,1.06,5300,1.06
2016-10-26,1.06,1.06,1.04,1.04,32500,1.04
2016-10-27,1.04,1.04,1.04,1.04,5000,1.04
2016-10-28,1.06,1.06,1.06,1.06,5000,1.06
2016-10-31,1.06,1.06,1.06,1.06,0,1.06
2016-11-01,1.04,1.05,1.04,1.05,15100,1.05
2016-11-02,1.04,1.04,1.02,1.02,26300,1.02
2016-11-03,1.02,1.02,1.02,1.02,0,1.02
2016-11-04,1.05,1.05,1.05,1.05,4100,1.05
2016-11-07,1.05,1.06,1.04,1.05,17800,1.05
2016-11-08,1.05,1.05,1.04,1.04,13700,1.04
2016-11-09,1.035,1.035,1.03,1.03,33100,1.03
2016-11-10,1.03,1.03,1.03,1.03,0,1.03
2016-11-11,1.03,1.03,1.03,1.03,0,1.03
2016-11-14,1.035,1.05,1.03,1.04,54800,1.04
2016-11-15,1.04,1.04,1.03,1.03,22100,1.03
2016-11-16,1.02,1.025,1.01,1.01,21000,1.01
2016-11-17,1.02,1.02,0.96,0.96,2300,0.96
2016-11-18,0.96,0.96,0.96,0.96,0,0.96
2016-11-21,0.975,1.02,0.97,1.02,66300,1.02
2016-11-22,0.99,1.055,0.99,1.02,36300,1.02
2016-11-23,1.02,1.055,1.02,1.055,19500,1.055
2016-11-24,1.0,1.04,1.0,1.04,13000,1.04
2016-11-25,1.04,1.04,1.04,1.04,14900,1.04
2016-11-28,1.05,1.06,1.03,1.03,43300,1.03
2016-11-29,1.02,1.02,1.02,1.02,23700,1.02
2016-11-30,1.0,1.015,0.98,0.98,80000,0.98
2016-12-01,0.98,0.98,0.96,0.96,15000,0.96
2016-12-02,0.98,0.98,0.975,0.975,24100,0.975
2016-12-05,0.975,0.975,0.975,0.975,0,0.975
2016-12-06,0.985,0.985,0.985,0.985,25300,0.985
2016-12-07,0.98,0.98,0.98,0.98,12600,0.98
2016-12-08,1.03,1.05,1.03,1.05,12000,1.05
2016-12-09,0.98,1.0,0.98,0.98,33600,0.98
2016-12-12,0.98,1.04,0.98,1.04,34600,1.04
2016-12-13,1.04,1.06,1.04,1.04,44900,1.04
2016-12-14,1.04,1.04,1.04,1.04,0,1.04
2016-12-15,1.06,1.06,1.06,1.06,14100,1.06
2016-12-16,1.05,1.05,1.02,1.02,30000,1.02
2016-12-19,1.02,1.08,0.985,1.08,28400,1.08
2016-12-20,1.08,1.08,1.08,1.08,0,1.08
2016-12-21,1.08,1.08,1.08,1.08,0,1.08
2016-12-22,1.07,1.07,1.07,1.07,400,1.07
2016-12-23,1.01,1.01,1.0,1.0,1600,1.0
2016-12-26,1.0,1.0,1.0,1.0,0,1.0
2016-12-27,1.0,1.0,1.0,1.0,0,1.0
2016-12-28,1.0,1.0,1.0,1.0,0,1.0
2016-12-29,1.0,1.0,1.0,1.0,0,1.0
2016-12-30,1.0,1.0,1.0,1.0,0,1.0
