Date,Open,High,Low,Close,Volume,Adj Close
2011-09-22,0.19,0.2,0.185,0.185,54400,0.185
2011-09-23,0.18,0.18,0.17,0.175,200700,0.175
2011-09-27,0.175,0.175,0.175,0.175,50000,0.175
2011-09-28,0.175,0.18,0.175,0.18,219200,0.18
2011-09-29,0.17,0.17,0.17,0.17,20000,0.17
2011-09-30,0.16,0.16,0.16,0.16,10000,0.16
2011-10-05,0.155,0.16,0.155,0.16,80000,0.16
2011-10-10,0.17,0.17,0.17,0.17,10000,0.17
2011-10-11,0.175,0.18,0.175,0.18,224000,0.18
2011-10-12,0.17,0.17,0.17,0.17,15000,0.17
2011-10-13,0.17,0.17,0.17,0.17,5000,0.17
2011-10-17,0.17,0.18,0.17,0.18,36000,0.18
2011-10-18,0.17,0.17,0.165,0.17,15000,0.17
2011-10-19,0.165,0.165,0.145,0.145,36800,0.145
2011-10-20,0.15,0.15,0.15,0.15,25000,0.15
2011-10-24,0.16,0.16,0.16,0.16,10000,0.16
2011-10-26,0.16,0.16,0.145,0.145,150000,0.145
2011-10-27,0.15,0.15,0.15,0.15,80000,0.15
2011-10-28,0.15,0.15,0.14,0.14,53300,0.14
2011-10-31,0.14,0.15,0.13,0.15,329100,0.15
2011-11-01,0.15,0.15,0.15,0.15,3500,0.15
2011-11-02,0.135,0.135,0.135,0.135,9900,0.135
2011-11-03,0.135,0.135,0.135,0.135,69900,0.135
2011-11-15,0.145,0.145,0.145,0.145,63500,0.145
2011-11-17,0.145,0.145,0.145,0.145,0,0.145
2011-11-18,0.145,0.145,0.145,0.145,0,0.145
2011-11-21,0.145,0.15,0.145,0.15,39600,0.15
2011-11-22,0.15,0.15,0.15,0.15,0,0.15
2011-11-23,0.15,0.15,0.15,0.15,40000,0.15
2011-11-24,0.15,0.15,0.15,0.15,10300,0.15
2011-11-25,0.14,0.14,0.14,0.14,25000,0.14
2011-11-28,0.14,0.14,0.14,0.14,0,0.14
2011-11-29,0.14,0.14,0.14,0.14,0,0.14
2011-11-30,0.14,0.14,0.14,0.14,50000,0.14
2011-12-01,0.15,0.15,0.15,0.15,37100,0.15
2011-12-02,0.15,0.15,0.15,0.15,0,0.15
2011-12-05,0.15,0.15,0.15,0.15,0,0.15
2011-12-06,0.15,0.15,0.15,0.15,87500,0.15
2011-12-07,0.15,0.15,0.15,0.15,0,0.15
2011-12-08,0.15,0.15,0.15,0.15,42500,0.15
2011-12-09,0.15,0.15,0.15,0.15,7000,0.15
2011-12-12,0.15,0.15,0.15,0.15,35000,0.15
2011-12-13,0.15,0.15,0.15,0.15,0,0.15
2011-12-14,0.14,0.14,0.14,0.14,10000,0.14
2011-12-15,0.14,0.14,0.14,0.14,15000,0.14
2011-12-16,0.15,0.15,0.15,0.15,9000,0.15
2011-12-19,0.14,0.14,0.14,0.14,6000,0.14
2011-12-20,0.14,0.14,0.14,0.14,0,0.14
2011-12-21,0.14,0.14,0.14,0.14,0,0.14
2011-12-22,0.14,0.14,0.14,0.14,0,0.14
2011-12-23,0.14,0.14,0.14,0.14,0,0.14
2011-12-26,0.14,0.14,0.14,0.14,0,0.14
2011-12-27,0.14,0.14,0.14,0.14,0,0.14
2011-12-28,0.14,0.14,0.14,0.14,0,0.14
2011-12-29,0.17,0.17,0.155,0.16,40000,0.16
2011-12-30,0.16,0.16,0.16,0.16,0,0.16
2012-01-02,0.16,0.16,0.16,0.16,0,0.16
2012-01-03,0.16,0.16,0.16,0.16,0,0.16
2012-01-04,0.16,0.16,0.16,0.16,0,0.16
2012-01-05,0.16,0.16,0.16,0.16,0,0.16
2012-01-06,0.16,0.16,0.16,0.16,0,0.16
2012-01-09,0.16,0.16,0.16,0.16,0,0.16
2012-01-10,0.16,0.16,0.16,0.16,0,0.16
2012-01-11,0.16,0.16,0.16,0.16,0,0.16
2012-01-12,0.16,0.16,0.16,0.16,0,0.16
2012-01-13,0.12,0.12,0.12,0.12,15000,0.12
2012-01-16,0.12,0.12,0.12,0.12,0,0.12
2012-01-17,0.12,0.12,0.12,0.12,0,0.12
2012-01-18,0.12,0.12,0.12,0.12,0,0.12
2012-01-19,0.12,0.12,0.12,0.12,0,0.12
2012-01-20,0.12,0.12,0.12,0.12,3000,0.12
2012-01-23,0.12,0.12,0.11,0.12,165000,0.12
2012-01-24,0.12,0.12,0.12,0.12,0,0.12
2012-01-25,0.12,0.12,0.12,0.12,9900,0.12
2012-01-26,0.12,0.12,0.12,0.12,0,0.12
2012-01-27,0.13,0.14,0.13,0.14,52000,0.14
2012-01-31,0.15,0.15,0.15,0.15,10000,0.15
2012-02-01,0.14,0.14,0.14,0.14,37500,0.14
2012-02-02,0.14,0.14,0.14,0.14,0,0.14
2012-02-03,0.14,0.14,0.14,0.14,0,0.14
2012-02-06,0.14,0.14,0.125,0.125,5300,0.125
2012-02-07,0.125,0.125,0.125,0.125,0,0.125
2012-02-08,0.125,0.125,0.125,0.125,0,0.125
2012-02-09,0.125,0.125,0.125,0.125,0,0.125
2012-02-10,0.13,0.13,0.13,0.13,20000,0.13
2012-02-13,0.13,0.14,0.13,0.14,14500,0.14
2012-02-14,0.14,0.14,0.14,0.14,300000,0.14
2012-02-15,0.14,0.14,0.14,0.14,42000,0.14
2012-02-16,0.14,0.14,0.14,0.14,0,0.14
2012-02-17,0.13,0.13,0.12,0.12,14000,0.12
2012-02-20,0.12,0.12,0.12,0.12,35000,0.12
2012-02-21,0.11,0.11,0.11,0.11,268500,0.11
2012-02-22,0.11,0.11,0.105,0.105,85000,0.105
2012-02-23,0.105,0.105,0.105,0.105,0,0.105
2012-02-24,0.11,0.12,0.11,0.12,345000,0.12
2012-02-27,0.12,0.12,0.12,0.12,100000,0.12
2012-02-28,0.12,0.12,0.12,0.12,0,0.12
2012-02-29,0.12,0.12,0.12,0.12,0,0.12
2012-03-01,0.13,0.13,0.13,0.13,18900,0.13
2012-03-02,0.135,0.135,0.13,0.135,35000,0.135
2012-03-05,0.135,0.135,0.135,0.135,0,0.135
2012-03-06,0.135,0.135,0.135,0.135,8400,0.135
2012-03-07,0.12,0.12,0.12,0.12,50000,0.12
2012-03-08,0.12,0.12,0.12,0.12,1500,0.12
2012-03-09,0.12,0.12,0.12,0.12,0,0.12
2012-03-12,0.12,0.12,0.12,0.12,0,0.12
2012-03-13,0.12,0.12,0.12,0.12,0,0.12
2012-03-14,0.12,0.12,0.12,0.12,0,0.12
2012-03-15,0.12,0.12,0.12,0.12,0,0.12
2012-03-16,0.12,0.12,0.12,0.12,0,0.12
2012-03-19,0.12,0.12,0.12,0.12,0,0.12
2012-03-20,0.12,0.12,0.12,0.12,0,0.12
2012-03-21,0.12,0.12,0.12,0.12,0,0.12
2012-03-22,0.12,0.12,0.12,0.12,0,0.12
2012-03-23,0.12,0.12,0.12,0.12,0,0.12
2012-03-26,0.125,0.125,0.125,0.125,60000,0.125
2012-03-27,0.125,0.125,0.125,0.125,0,0.125
2012-03-28,0.125,0.125,0.125,0.125,0,0.125
2012-03-29,0.125,0.125,0.125,0.125,0,0.125
2012-03-30,0.1,0.1,0.1,0.1,130000,0.1
2012-04-02,0.1,0.1,0.1,0.1,0,0.1
2012-04-03,0.105,0.105,0.105,0.105,10000,0.105
2012-04-04,0.11,0.11,0.11,0.11,70000,0.11
2012-04-05,0.11,0.11,0.11,0.11,0,0.11
2012-04-06,0.11,0.11,0.11,0.11,0,0.11
2012-04-09,0.11,0.11,0.11,0.11,0,0.11
2012-04-10,0.11,0.11,0.11,0.11,15000,0.11
2012-04-11,0.11,0.11,0.11,0.11,0,0.11
2012-04-12,0.11,0.11,0.11,0.11,0,0.11
2012-04-13,0.11,0.11,0.11,0.11,0,0.11
2012-04-16,0.11,0.11,0.11,0.11,0,0.11
2012-04-17,0.11,0.11,0.11,0.11,0,0.11
2012-04-18,0.11,0.11,0.11,0.11,0,0.11
2012-04-19,0.11,0.11,0.11,0.11,0,0.11
2012-04-20,0.11,0.11,0.11,0.11,0,0.11
2012-04-23,0.11,0.11,0.11,0.11,0,0.11
2012-04-24,0.11,0.11,0.11,0.11,0,0.11
2012-04-25,0.11,0.11,0.11,0.11,0,0.11
2012-04-26,0.105,0.105,0.105,0.105,35000,0.105
2012-04-27,0.105,0.105,0.105,0.105,0,0.105
2012-04-30,0.105,0.105,0.105,0.105,0,0.105
2012-05-01,0.11,0.11,0.11,0.11,18700,0.11
2012-05-02,0.11,0.11,0.09699999999999999,0.09699999999999999,81700,0.09699999999999999
2012-05-03,0.09699999999999999,0.09699999999999999,0.09699999999999999,0.09699999999999999,0,0.09699999999999999
2012-05-04,0.09699999999999999,0.09699999999999999,0.09699999999999999,0.09699999999999999,0,0.09699999999999999
2012-05-07,0.09699999999999999,0.09699999999999999,0.09699999999999999,0.09699999999999999,0,0.09699999999999999
2012-05-08,0.09699999999999999,0.09699999999999999,0.09699999999999999,0.09699999999999999,0,0.09699999999999999
2012-05-09,0.09699999999999999,0.09699999999999999,0.09699999999999999,0.09699999999999999,0,0.09699999999999999
2012-05-10,0.07,0.07,0.07,0.07,25000,0.07
2012-05-11,0.075,0.075,0.075,0.075,50000,0.075
2012-05-14,0.075,0.075,0.075,0.075,0,0.075
2012-05-15,0.075,0.075,0.075,0.075,0,0.075
2012-05-16,0.075,0.075,0.075,0.075,10000,0.075
2012-05-17,0.075,0.075,0.075,0.075,0,0.075
2012-05-18,0.075,0.075,0.075,0.075,0,0.075
2012-05-21,0.075,0.075,0.075,0.075,0,0.075
2012-05-22,0.065,0.065,0.065,0.065,25000,0.065
2012-05-23,0.065,0.065,0.065,0.065,0,0.065
2012-05-24,0.065,0.065,0.065,0.065,0,0.065
2012-05-25,0.065,0.065,0.065,0.065,0,0.065
2012-05-28,0.065,0.065,0.065,0.065,0,0.065
2012-05-29,0.065,0.065,0.065,0.065,0,0.065
2012-05-30,0.065,0.065,0.065,0.065,0,0.065
2012-05-31,0.065,0.065,0.065,0.065,0,0.065
2012-06-01,0.065,0.065,0.065,0.065,0,0.065
2012-06-04,0.065,0.065,0.065,0.065,0,0.065
2012-06-05,0.065,0.065,0.065,0.065,0,0.065
2012-06-06,0.065,0.065,0.065,0.065,0,0.065
2012-06-07,0.065,0.065,0.065,0.065,0,0.065
2012-06-08,0.065,0.065,0.065,0.065,0,0.065
2012-06-11,0.065,0.065,0.065,0.065,0,0.065
2012-06-12,0.062,0.062,0.062,0.062,50000,0.062
2012-06-13,0.062,0.062,0.062,0.062,0,0.062
2012-06-14,0.062,0.062,0.062,0.062,0,0.062
2012-06-15,0.057999999999999996,0.057999999999999996,0.057999999999999996,0.057999999999999996,20000,0.057999999999999996
2012-06-18,0.057999999999999996,0.06,0.057999999999999996,0.06,249600,0.06
2012-06-19,0.059000000000000004,0.059000000000000004,0.059000000000000004,0.059000000000000004,10000,0.059000000000000004
2012-06-20,0.05,0.05,0.05,0.05,25300,0.05
2012-06-21,0.05,0.05,0.05,0.05,0,0.05
2012-06-22,0.06,0.06,0.06,0.06,125000,0.06
2012-06-25,0.06,0.06,0.06,0.06,0,0.06
2012-06-26,0.06,0.06,0.06,0.06,0,0.06
2012-06-27,0.055,0.055,0.055,0.055,275800,0.055
2012-06-28,0.055,0.055,0.05,0.05,300000,0.05
2012-06-29,0.05,0.05,0.05,0.05,70000,0.05
2012-07-02,0.05,0.05,0.05,0.05,0,0.05
2012-07-03,0.06,0.06,0.06,0.06,239200,0.06
2012-07-04,0.06,0.06,0.06,0.06,0,0.06
2012-07-05,0.06,0.06,0.06,0.06,0,0.06
2012-07-06,0.06,0.06,0.06,0.06,0,0.06
2012-07-09,0.075,0.075,0.075,0.075,100000,0.075
2012-07-10,0.075,0.075,0.075,0.075,40000,0.075
2012-07-11,0.075,0.075,0.075,0.075,0,0.075
2012-07-12,0.066,0.066,0.066,0.066,50000,0.066
2012-07-13,0.066,0.066,0.066,0.066,0,0.066
2012-07-16,0.066,0.066,0.066,0.066,0,0.066
2012-07-17,0.066,0.066,0.066,0.066,0,0.066
2012-07-18,0.066,0.066,0.066,0.066,0,0.066
2012-07-19,0.068,0.068,0.066,0.068,201000,0.068
2012-07-20,0.068,0.068,0.068,0.068,0,0.068
2012-07-23,0.068,0.068,0.068,0.068,0,0.068
2012-07-24,0.068,0.068,0.068,0.068,0,0.068
2012-07-25,0.066,0.066,0.062,0.062,10000,0.062
2012-07-26,0.062,0.062,0.062,0.062,0,0.062
2012-07-27,0.062,0.062,0.06,0.06,20000,0.06
2012-07-30,0.06,0.06,0.06,0.06,0,0.06
2012-07-31,0.06,0.06,0.06,0.06,0,0.06
2012-08-01,0.06,0.06,0.06,0.06,0,0.06
2012-08-02,0.065,0.065,0.065,0.065,92400,0.065
2012-08-03,0.065,0.065,0.065,0.065,0,0.065
2012-08-06,0.065,0.065,0.065,0.065,30000,0.065
2012-08-07,0.065,0.065,0.065,0.065,200000,0.065
2012-08-08,0.065,0.065,0.065,0.065,200000,0.065
2012-08-09,0.065,0.065,0.065,0.065,0,0.065
2012-08-10,0.065,0.065,0.065,0.065,0,0.065
2012-08-13,0.065,0.065,0.065,0.065,75000,0.065
2012-08-14,0.065,0.065,0.065,0.065,0,0.065
2012-08-15,0.065,0.065,0.065,0.065,3500,0.065
2012-08-16,0.065,0.065,0.065,0.065,0,0.065
2012-08-17,0.07400000000000001,0.076,0.07400000000000001,0.076,30000,0.076
2012-08-20,0.075,0.075,0.075,0.075,70000,0.075
2012-08-21,0.075,0.075,0.075,0.075,0,0.075
2012-08-22,0.075,0.075,0.075,0.075,9000,0.075
2012-08-23,0.075,0.075,0.075,0.075,0,0.075
2012-08-24,0.075,0.075,0.075,0.075,0,0.075
2012-08-27,0.075,0.075,0.075,0.075,0,0.075
2012-08-28,0.075,0.075,0.075,0.075,0,0.075
2012-08-29,0.075,0.075,0.075,0.075,0,0.075
2012-08-30,0.075,0.075,0.075,0.075,0,0.075
2012-08-31,0.075,0.075,0.075,0.075,0,0.075
2012-09-03,0.075,0.075,0.075,0.075,0,0.075
2012-09-04,0.07,0.07,0.065,0.065,25000,0.065
2012-09-05,0.063,0.063,0.063,0.063,20000,0.063
2012-09-06,0.063,0.063,0.063,0.063,0,0.063
2012-09-07,0.063,0.063,0.063,0.063,0,0.063
2012-09-10,0.063,0.063,0.063,0.063,0,0.063
2012-09-11,0.063,0.063,0.063,0.063,0,0.063
2012-09-12,0.063,0.063,0.063,0.063,0,0.063
2012-09-13,0.075,0.075,0.07400000000000001,0.075,310000,0.075
2012-09-14,0.07400000000000001,0.075,0.071,0.071,81000,0.071
2012-09-17,0.071,0.071,0.071,0.071,0,0.071
2012-09-18,0.073,0.073,0.073,0.073,25000,0.073
2012-09-19,0.073,0.073,0.073,0.073,0,0.073
2012-09-20,0.079,0.079,0.079,0.079,10000,0.079
2012-09-21,0.073,0.073,0.07200000000000001,0.07200000000000001,30000,0.07200000000000001
2012-09-24,0.07,0.07,0.07,0.07,20000,0.07
2012-09-25,0.053,0.053,0.053,0.053,50000,0.053
2012-09-26,0.053,0.053,0.053,0.053,0,0.053
2012-09-27,0.053,0.053,0.053,0.053,0,0.053
2012-09-28,0.055,0.055,0.055,0.055,480000,0.055
2012-10-01,0.055,0.055,0.055,0.055,0,0.055
2012-10-02,0.055,0.055,0.055,0.055,0,0.055
2012-10-03,0.055,0.055,0.055,0.055,0,0.055
2012-10-04,0.055,0.055,0.055,0.055,0,0.055
2012-10-05,0.046,0.046,0.046,0.046,400000,0.046
2012-10-08,0.046,0.046,0.046,0.046,0,0.046
2012-10-09,0.047,0.047,0.047,0.047,20000,0.047
2012-10-10,0.046,0.049,0.046,0.049,159900,0.049
2012-10-11,0.049,0.049,0.049,0.049,0,0.049
2012-10-12,0.05,0.05,0.05,0.05,10000,0.05
2012-10-15,0.05,0.05,0.05,0.05,0,0.05
2012-10-16,0.046,0.046,0.046,0.046,10000,0.046
2012-10-17,0.051,0.051,0.051,0.051,83800,0.051
2012-10-18,0.051,0.051,0.051,0.051,10000,0.051
2012-10-19,0.051,0.051,0.051,0.051,0,0.051
2012-10-22,0.051,0.051,0.051,0.051,6200,0.051
2012-10-23,0.051,0.051,0.051,0.051,0,0.051
2012-10-24,0.05,0.05,0.05,0.05,100000,0.05
2012-10-25,0.05,0.05,0.05,0.05,150000,0.05
2012-10-26,0.05,0.05,0.05,0.05,0,0.05
2012-10-29,0.05,0.05,0.05,0.05,0,0.05
2012-10-30,0.05,0.05,0.05,0.05,0,0.05
2012-10-31,0.05,0.05,0.05,0.05,0,0.05
2012-11-01,0.05,0.05,0.05,0.05,0,0.05
2012-11-02,0.054000000000000006,0.054000000000000006,0.054000000000000006,0.054000000000000006,10000,0.054000000000000006
2012-11-05,0.054000000000000006,0.054000000000000006,0.054000000000000006,0.054000000000000006,0,0.054000000000000006
2012-11-06,0.055999999999999994,0.055999999999999994,0.055999999999999994,0.055999999999999994,18500,0.055999999999999994
2012-11-07,0.055999999999999994,0.055999999999999994,0.055999999999999994,0.055999999999999994,0,0.055999999999999994
2012-11-08,0.07,0.07,0.07,0.07,180000,0.07
2012-11-09,0.07,0.07,0.07,0.07,0,0.07
2012-11-12,0.07,0.07,0.07,0.07,0,0.07
2012-11-13,0.07,0.07,0.07,0.07,0,0.07
2012-11-14,0.07,0.07,0.07,0.07,0,0.07
2012-11-15,0.07,0.07,0.07,0.07,0,0.07
2012-11-16,0.07,0.07,0.07,0.07,0,0.07
2012-11-19,0.07,0.07,0.07,0.07,0,0.07
2012-11-20,0.07,0.07,0.07,0.07,0,0.07
2012-11-21,0.07,0.07,0.07,0.07,0,0.07
2012-11-22,0.07,0.07,0.07,0.07,0,0.07
2012-11-23,0.07,0.07,0.07,0.07,0,0.07
2012-11-26,0.07,0.07,0.07,0.07,0,0.07
2012-11-27,0.07,0.07,0.07,0.07,0,0.07
2012-11-28,0.07,0.07,0.07,0.07,0,0.07
2012-11-29,0.065,0.07,0.065,0.07,350000,0.07
2012-11-30,0.07,0.07,0.07,0.07,0,0.07
2012-12-03,0.07,0.07,0.07,0.07,0,0.07
2012-12-04,0.07,0.07,0.07,0.07,0,0.07
2012-12-05,0.07,0.07,0.07,0.07,0,0.07
2012-12-06,0.08,0.08,0.08,0.08,10000,0.08
2012-12-07,0.08,0.08,0.08,0.08,0,0.08
2012-12-10,0.08,0.08,0.08,0.08,0,0.08
2012-12-11,0.08,0.085,0.08,0.085,38000,0.085
2012-12-12,0.081,0.081,0.08,0.08,125900,0.08
2012-12-13,0.08,0.08,0.08,0.08,0,0.08
2012-12-14,0.08,0.08,0.08,0.08,0,0.08
2012-12-17,0.08,0.08,0.08,0.08,0,0.08
2012-12-18,0.08,0.08,0.08,0.08,0,0.08
2012-12-19,0.08,0.08,0.08,0.08,0,0.08
2012-12-20,0.08,0.08,0.08,0.08,0,0.08
2012-12-21,0.08,0.08,0.08,0.08,0,0.08
2012-12-24,0.08,0.08,0.08,0.08,0,0.08
2012-12-25,0.08,0.08,0.08,0.08,0,0.08
2012-12-26,0.08,0.08,0.08,0.08,0,0.08
2012-12-27,0.08,0.08,0.08,0.08,0,0.08
2012-12-28,0.08,0.08,0.08,0.08,0,0.08
2012-12-31,0.08,0.08,0.08,0.08,0,0.08
2013-01-01,0.08,0.08,0.08,0.08,0,0.08
2013-01-02,0.071,0.071,0.071,0.071,10000,0.071
2013-01-03,0.071,0.071,0.071,0.071,0,0.071
2013-01-04,0.071,0.071,0.071,0.071,0,0.071
2013-01-07,0.071,0.071,0.071,0.071,0,0.071
2013-01-08,0.071,0.071,0.071,0.071,0,0.071
2013-01-09,0.071,0.071,0.071,0.071,0,0.071
2013-01-10,0.071,0.071,0.071,0.071,0,0.071
2013-01-11,0.071,0.071,0.071,0.071,0,0.071
2013-01-14,0.071,0.071,0.071,0.071,0,0.071
2013-01-15,0.071,0.071,0.071,0.071,0,0.071
2013-01-16,0.071,0.071,0.071,0.071,0,0.071
2013-01-17,0.071,0.071,0.071,0.071,0,0.071
2013-01-18,0.071,0.071,0.071,0.071,0,0.071
2013-01-21,0.071,0.071,0.071,0.071,0,0.071
2013-01-22,0.071,0.071,0.071,0.071,0,0.071
2013-01-24,0.071,0.071,0.071,0.071,0,0.071
2013-01-25,0.071,0.071,0.071,0.071,0,0.071
2013-01-28,0.071,0.071,0.071,0.071,0,0.071
2013-01-29,0.071,0.071,0.071,0.071,0,0.071
2013-01-30,0.071,0.071,0.071,0.071,0,0.071
2013-01-31,0.071,0.071,0.071,0.071,0,0.071
2013-02-01,0.07,0.07,0.07,0.07,15000,0.07
2013-02-04,0.07,0.07,0.07,0.07,0,0.07
2013-02-05,0.07,0.07,0.07,0.07,0,0.07
2013-02-06,0.07,0.07,0.07,0.07,0,0.07
2013-02-07,0.07,0.07,0.07,0.07,0,0.07
2013-02-08,0.065,0.065,0.065,0.065,50000,0.065
2013-02-11,0.065,0.065,0.065,0.065,0,0.065
2013-02-12,0.065,0.065,0.065,0.065,0,0.065
2013-02-13,0.065,0.065,0.065,0.065,0,0.065
2013-02-14,0.065,0.065,0.065,0.065,0,0.065
2013-02-15,0.065,0.065,0.065,0.065,0,0.065
2013-02-18,0.065,0.065,0.065,0.065,0,0.065
2013-02-19,0.046,0.046,0.045,0.045,36500,0.045
2013-02-20,0.045,0.045,0.045,0.045,0,0.045
2013-02-21,0.046,0.065,0.046,0.065,84200,0.065
2013-02-22,0.065,0.065,0.065,0.065,0,0.065
2013-02-25,0.064,0.064,0.064,0.064,30000,0.064
2013-02-26,0.064,0.064,0.064,0.064,0,0.064
2013-02-27,0.064,0.064,0.064,0.064,0,0.064
2013-02-28,0.057999999999999996,0.057999999999999996,0.047,0.047,84600,0.047
2013-03-01,0.05,0.05,0.048,0.048,165300,0.048
2013-03-04,0.048,0.048,0.048,0.048,0,0.048
2013-03-05,0.048,0.048,0.048,0.048,0,0.048
2013-03-06,0.052000000000000005,0.052000000000000005,0.05,0.05,458800,0.05
2013-03-07,0.05,0.05,0.047,0.047,1301600,0.047
2013-03-08,0.05,0.05,0.05,0.05,193300,0.05
2013-03-11,0.05,0.05,0.05,0.05,0,0.05
2013-03-12,0.05,0.055,0.05,0.05,57200,0.05
2013-03-13,0.05,0.05,0.05,0.05,0,0.05
2013-03-14,0.049,0.049,0.049,0.049,15000,0.049
2013-03-15,0.048,0.049,0.048,0.049,74100,0.049
2013-03-18,0.049,0.049,0.049,0.049,0,0.049
2013-03-19,0.048,0.048,0.048,0.048,125000,0.048
2013-03-20,0.048,0.048,0.048,0.048,0,0.048
2013-03-21,0.048,0.048,0.048,0.048,0,0.048
2013-03-22,0.048,0.048,0.048,0.048,0,0.048
2013-03-25,0.048,0.048,0.048,0.048,0,0.048
2013-03-26,0.048,0.048,0.048,0.048,0,0.048
2013-03-27,0.048,0.048,0.048,0.048,0,0.048
2013-03-28,0.048,0.048,0.048,0.048,0,0.048
2013-03-29,0.048,0.048,0.048,0.048,0,0.048
2013-04-01,0.048,0.048,0.048,0.048,0,0.048
2013-04-02,0.048,0.048,0.048,0.048,0,0.048
2013-04-03,0.048,0.048,0.048,0.048,0,0.048
2013-04-04,0.048,0.048,0.048,0.048,0,0.048
2013-04-05,0.048,0.048,0.048,0.048,0,0.048
2013-04-08,0.048,0.048,0.048,0.048,0,0.048
2013-04-09,0.048,0.048,0.048,0.048,0,0.048
2013-04-10,0.048,0.048,0.048,0.048,0,0.048
2013-04-11,0.048,0.048,0.048,0.048,9900,0.048
2013-04-12,0.048,0.048,0.048,0.048,0,0.048
2013-04-15,0.048,0.048,0.048,0.048,0,0.048
2013-04-16,0.048,0.048,0.048,0.048,0,0.048
2013-04-17,0.048,0.048,0.048,0.048,0,0.048
2013-04-18,0.048,0.048,0.048,0.048,0,0.048
2013-04-19,0.048,0.048,0.048,0.048,0,0.048
2013-04-22,0.048,0.048,0.048,0.048,0,0.048
2013-04-23,0.048,0.048,0.048,0.048,0,0.048
2013-04-24,0.048,0.048,0.048,0.048,0,0.048
2013-04-25,0.048,0.048,0.048,0.048,0,0.048
2013-04-26,0.048,0.048,0.048,0.048,0,0.048
2013-04-29,0.048,0.048,0.048,0.048,0,0.048
2013-04-30,0.048,0.048,0.048,0.048,0,0.048
2013-05-01,0.048,0.048,0.048,0.048,0,0.048
2013-05-02,0.048,0.048,0.048,0.048,0,0.048
2013-05-03,0.048,0.048,0.048,0.048,0,0.048
2013-05-06,0.048,0.048,0.048,0.048,0,0.048
2013-05-07,0.048,0.048,0.048,0.048,0,0.048
2013-05-08,0.048,0.048,0.048,0.048,0,0.048
2013-05-09,0.045,0.054000000000000006,0.045,0.05,741500,0.05
2013-05-10,0.05,0.05,0.040999999999999995,0.05,110000,0.05
2013-05-13,0.05,0.05,0.05,0.05,10000,0.05
2013-05-14,0.044000000000000004,0.044000000000000004,0.044000000000000004,0.044000000000000004,40000,0.044000000000000004
2013-05-15,0.045,0.045,0.042,0.042,50000,0.042
2013-05-16,0.042,0.042,0.042,0.042,0,0.042
2013-05-17,0.042,0.042,0.04,0.04,295000,0.04
2013-05-20,0.04,0.04,0.04,0.04,44100,0.04
2013-05-21,0.04,0.04,0.04,0.04,190000,0.04
2013-05-22,0.04,0.04,0.04,0.04,0,0.04
2013-05-23,0.04,0.045,0.04,0.045,180000,0.045
2013-05-24,0.045,0.045,0.045,0.045,0,0.045
2013-05-27,0.045,0.045,0.045,0.045,34600,0.045
2013-05-28,0.045,0.045,0.045,0.045,0,0.045
2013-05-29,0.045,0.045,0.045,0.045,15300,0.045
2013-05-30,0.045,0.045,0.045,0.045,0,0.045
2013-05-31,0.05,0.05,0.05,0.05,20400,0.05
2013-06-03,0.05,0.05,0.05,0.05,0,0.05
2013-06-04,0.05,0.05,0.05,0.05,0,0.05
2013-06-05,0.05,0.05,0.05,0.05,0,0.05
2013-06-06,0.05,0.05,0.05,0.05,0,0.05
2013-06-07,0.05,0.05,0.05,0.05,0,0.05
2013-06-10,0.05,0.05,0.05,0.05,0,0.05
2013-06-11,0.05,0.05,0.05,0.05,0,0.05
2013-06-12,0.05,0.05,0.05,0.05,0,0.05
2013-06-13,0.05,0.05,0.05,0.05,0,0.05
2013-06-14,0.049,0.05,0.049,0.05,20100,0.05
2013-06-17,0.051,0.051,0.051,0.051,100,0.051
2013-06-18,0.051,0.051,0.051,0.051,0,0.051
2013-06-19,0.051,0.051,0.051,0.051,0,0.051
2013-06-20,0.051,0.051,0.051,0.051,0,0.051
2013-06-21,0.051,0.051,0.051,0.051,0,0.051
2013-06-24,0.051,0.051,0.051,0.051,0,0.051
2013-06-25,0.051,0.051,0.051,0.051,0,0.051
2013-06-26,0.051,0.051,0.051,0.051,0,0.051
2013-06-27,0.051,0.051,0.051,0.051,0,0.051
2013-06-28,0.051,0.051,0.051,0.051,0,0.051
2013-07-01,0.038,0.038,0.038,0.038,50000,0.038
2013-07-02,0.05,0.05,0.05,0.05,300000,0.05
2013-07-03,0.05,0.05,0.05,0.05,100000,0.05
2013-07-04,0.045,0.045,0.045,0.045,15000,0.045
2013-07-05,0.045,0.045,0.045,0.045,255000,0.045
2013-07-08,0.045,0.045,0.045,0.045,0,0.045
2013-07-09,0.045,0.045,0.045,0.045,0,0.045
2013-07-10,0.045,0.045,0.045,0.045,0,0.045
2013-07-11,0.045,0.045,0.045,0.045,0,0.045
2013-07-12,0.045,0.045,0.045,0.045,0,0.045
2013-07-15,0.045,0.045,0.045,0.045,24900,0.045
2013-07-16,0.045,0.045,0.045,0.045,18000,0.045
2013-07-17,0.045,0.045,0.045,0.045,0,0.045
2013-07-18,0.045,0.045,0.045,0.045,30000,0.045
2013-07-19,0.045,0.045,0.045,0.045,0,0.045
2013-07-22,0.045,0.045,0.045,0.045,170000,0.045
2013-07-23,0.045,0.045,0.045,0.045,0,0.045
2013-07-24,0.045,0.045,0.045,0.045,0,0.045
2013-07-25,0.045,0.045,0.045,0.045,0,0.045
2013-07-26,0.045,0.045,0.045,0.045,75000,0.045
2013-07-29,0.045,0.045,0.045,0.045,0,0.045
2013-07-30,0.045,0.045,0.045,0.045,0,0.045
2013-07-31,0.045,0.045,0.045,0.045,0,0.045
2013-08-01,0.045,0.045,0.045,0.045,0,0.045
2013-08-02,0.045,0.045,0.045,0.045,0,0.045
2013-08-05,0.045,0.045,0.045,0.045,0,0.045
2013-08-06,0.045,0.045,0.045,0.045,0,0.045
2013-08-07,0.045,0.045,0.045,0.045,0,0.045
2013-08-08,0.045,0.045,0.045,0.045,0,0.045
2013-08-09,0.045,0.045,0.045,0.045,25000,0.045
2013-08-12,0.045,0.045,0.045,0.045,0,0.045
2013-08-13,0.045,0.045,0.045,0.045,0,0.045
2013-08-14,0.045,0.045,0.045,0.045,0,0.045
2013-08-15,0.045,0.045,0.045,0.045,0,0.045
2013-08-16,0.045,0.045,0.045,0.045,0,0.045
2013-08-19,0.045,0.045,0.045,0.045,45000,0.045
2013-08-20,0.045,0.045,0.045,0.045,0,0.045
2013-08-21,0.045,0.045,0.045,0.045,0,0.045
2013-08-22,0.045,0.045,0.045,0.045,0,0.045
2013-08-23,0.046,0.046,0.045,0.046,146000,0.046
2013-08-26,0.046,0.046,0.046,0.046,0,0.046
2013-08-27,0.046,0.046,0.046,0.046,0,0.046
2013-08-28,0.046,0.046,0.046,0.046,0,0.046
2013-08-29,0.046,0.046,0.046,0.046,0,0.046
2013-08-30,0.046,0.046,0.046,0.046,0,0.046
2013-09-02,0.046,0.046,0.046,0.046,0,0.046
2013-09-03,0.046,0.046,0.046,0.046,0,0.046
2013-09-04,0.046,0.046,0.046,0.046,0,0.046
2013-09-05,0.046,0.046,0.046,0.046,0,0.046
2013-09-06,0.046,0.046,0.046,0.046,0,0.046
2013-09-09,0.046,0.046,0.046,0.046,0,0.046
2013-09-10,0.046,0.046,0.046,0.046,0,0.046
2013-09-11,0.046,0.046,0.046,0.046,0,0.046
2013-09-12,0.046,0.046,0.046,0.046,0,0.046
2013-09-13,0.046,0.046,0.046,0.046,0,0.046
2013-09-16,0.046,0.046,0.046,0.046,0,0.046
2013-09-17,0.046,0.046,0.046,0.046,0,0.046
2013-09-18,0.046,0.046,0.046,0.046,31900,0.046
2013-09-19,0.046,0.046,0.046,0.046,0,0.046
2013-09-20,0.046,0.046,0.046,0.046,0,0.046
2013-09-23,0.046,0.046,0.046,0.046,0,0.046
2013-09-24,0.046,0.046,0.046,0.046,0,0.046
2013-09-25,0.046,0.046,0.046,0.046,0,0.046
2013-09-26,0.046,0.046,0.046,0.046,0,0.046
2013-09-27,0.046,0.046,0.046,0.046,0,0.046
2013-09-30,0.046,0.046,0.046,0.046,0,0.046
2013-10-01,0.046,0.046,0.046,0.046,0,0.046
2013-10-02,0.046,0.046,0.046,0.046,0,0.046
2013-10-03,0.046,0.046,0.046,0.046,0,0.046
2013-10-04,0.046,0.046,0.046,0.046,0,0.046
2013-10-07,0.04,0.04,0.04,0.04,19500,0.04
2013-10-08,0.04,0.04,0.04,0.04,0,0.04
2013-10-09,0.04,0.04,0.04,0.04,0,0.04
2013-10-10,0.04,0.04,0.04,0.04,0,0.04
2013-10-11,0.04,0.04,0.04,0.04,0,0.04
2013-10-14,0.04,0.04,0.04,0.04,0,0.04
2013-10-15,0.04,0.04,0.04,0.04,0,0.04
2013-10-16,0.04,0.04,0.04,0.04,0,0.04
2013-10-17,0.04,0.04,0.04,0.04,0,0.04
2013-10-18,0.04,0.04,0.04,0.04,0,0.04
2013-10-21,0.04,0.04,0.04,0.04,0,0.04
2013-10-22,0.04,0.04,0.04,0.04,0,0.04
2013-10-23,0.03,0.03,0.03,0.03,100000,0.03
2013-10-24,0.027000000000000003,0.027000000000000003,0.027000000000000003,0.027000000000000003,31900,0.027000000000000003
2013-10-25,0.027000000000000003,0.027000000000000003,0.027000000000000003,0.027000000000000003,0,0.027000000000000003
2013-10-28,0.027000000000000003,0.027000000000000003,0.027000000000000003,0.027000000000000003,0,0.027000000000000003
2013-10-29,0.027000000000000003,0.027000000000000003,0.027000000000000003,0.027000000000000003,0,0.027000000000000003
2013-10-30,0.027000000000000003,0.027000000000000003,0.027000000000000003,0.027000000000000003,0,0.027000000000000003
2013-10-31,0.027000000000000003,0.027000000000000003,0.027000000000000003,0.027000000000000003,0,0.027000000000000003
2013-11-01,0.03,0.03,0.026000000000000002,0.026000000000000002,1021900,0.026000000000000002
2013-11-04,0.027000000000000003,0.027000000000000003,0.027000000000000003,0.027000000000000003,15700,0.027000000000000003
2013-11-05,0.027000000000000003,0.027000000000000003,0.027000000000000003,0.027000000000000003,0,0.027000000000000003
2013-11-06,0.027000000000000003,0.027000000000000003,0.027000000000000003,0.027000000000000003,0,0.027000000000000003
2013-11-07,0.03,0.03,0.03,0.03,154000,0.03
2013-11-08,0.03,0.03,0.03,0.03,195900,0.03
2013-11-11,0.03,0.03,0.03,0.03,0,0.03
2013-11-12,0.03,0.03,0.03,0.03,0,0.03
2013-11-13,0.03,0.03,0.03,0.03,2150000,0.03
2013-11-14,0.03,0.03,0.03,0.03,0,0.03
2013-11-15,0.035,0.04,0.035,0.04,210000,0.04
2013-11-18,0.042,0.042,0.040999999999999995,0.040999999999999995,22000,0.040999999999999995
2013-11-19,0.040999999999999995,0.040999999999999995,0.040999999999999995,0.040999999999999995,0,0.040999999999999995
2013-11-20,0.042,0.042,0.040999999999999995,0.040999999999999995,102100,0.040999999999999995
2013-11-21,0.040999999999999995,0.040999999999999995,0.040999999999999995,0.040999999999999995,0,0.040999999999999995
2013-11-22,0.040999999999999995,0.040999999999999995,0.040999999999999995,0.040999999999999995,0,0.040999999999999995
2013-11-25,0.040999999999999995,0.040999999999999995,0.040999999999999995,0.040999999999999995,0,0.040999999999999995
2013-11-26,0.04,0.04,0.037000000000000005,0.037000000000000005,247300,0.037000000000000005
2013-11-27,0.037000000000000005,0.037000000000000005,0.037000000000000005,0.037000000000000005,0,0.037000000000000005
2013-11-28,0.037000000000000005,0.037000000000000005,0.037000000000000005,0.037000000000000005,0,0.037000000000000005
2013-11-29,0.037000000000000005,0.037000000000000005,0.037000000000000005,0.037000000000000005,0,0.037000000000000005
2013-12-02,0.039,0.04,0.039,0.04,212500,0.04
2013-12-03,0.04,0.04,0.04,0.04,0,0.04
2013-12-04,0.04,0.04,0.04,0.04,0,0.04
2013-12-05,0.04,0.04,0.039,0.039,600000,0.039
2013-12-06,0.04,0.04,0.039,0.039,119200,0.039
2013-12-09,0.039,0.039,0.039,0.039,0,0.039
2013-12-10,0.039,0.039,0.039,0.039,0,0.039
2013-12-11,0.04,0.04,0.04,0.04,50000,0.04
2013-12-12,0.045,0.045,0.045,0.045,50000,0.045
2013-12-13,0.05,0.053,0.05,0.053,175800,0.053
2013-12-16,0.055,0.055,0.055,0.055,300000,0.055
2013-12-17,0.055,0.06,0.055,0.06,116300,0.06
2013-12-18,0.055,0.055,0.055,0.055,100000,0.055
2013-12-19,0.055,0.055,0.055,0.055,0,0.055
2013-12-20,0.055,0.055,0.051,0.051,650000,0.051
2013-12-23,0.053,0.06,0.053,0.06,269000,0.06
2013-12-24,0.059000000000000004,0.059000000000000004,0.045,0.045,767000,0.045
2013-12-25,0.045,0.045,0.045,0.045,0,0.045
2013-12-26,0.045,0.045,0.045,0.045,0,0.045
2013-12-27,0.045,0.045,0.045,0.045,61200,0.045
2013-12-30,0.045,0.045,0.045,0.045,200000,0.045
2013-12-31,0.045,0.045,0.045,0.045,0,0.045
2014-01-01,0.045,0.045,0.045,0.045,0,0.045
2014-01-02,0.045,0.045,0.045,0.045,0,0.045
2014-01-03,0.045,0.045,0.045,0.045,0,0.045
2014-01-06,0.045,0.045,0.045,0.045,0,0.045
2014-01-07,0.045,0.045,0.045,0.045,0,0.045
2014-01-08,0.045,0.045,0.045,0.045,0,0.045
2014-01-09,0.045,0.045,0.045,0.045,0,0.045
2014-01-10,0.045,0.045,0.045,0.045,0,0.045
2014-01-13,0.045,0.045,0.042,0.043,300600,0.043
2014-01-14,0.045,0.045,0.043,0.043,1000000,0.043
2014-01-15,0.043,0.043,0.043,0.043,0,0.043
2014-01-16,0.043,0.043,0.043,0.043,0,0.043
2014-01-17,0.051,0.051,0.051,0.051,50000,0.051
2014-01-20,0.051,0.057,0.051,0.057,39800,0.057
2014-01-21,0.06,0.071,0.06,0.071,940800,0.071
2014-01-22,0.071,0.071,0.07,0.07,634700,0.07
2014-01-23,0.07,0.07,0.067,0.067,175000,0.067
2014-01-24,0.07,0.07,0.07,0.07,310000,0.07
2014-01-27,0.07,0.07,0.07,0.07,0,0.07
2014-01-28,0.07,0.07,0.067,0.067,6000,0.067
2014-01-29,0.067,0.067,0.067,0.067,0,0.067
2014-01-30,0.067,0.067,0.067,0.067,0,0.067
2014-01-31,0.068,0.068,0.06,0.06,163300,0.06
2014-02-03,0.06,0.06,0.06,0.06,0,0.06
2014-02-04,0.06,0.06,0.06,0.06,0,0.06
2014-02-05,0.06,0.06,0.06,0.06,0,0.06
2014-02-06,0.06,0.06,0.06,0.06,0,0.06
2014-02-07,0.06,0.06,0.06,0.06,0,0.06
2014-02-10,0.06,0.06,0.06,0.06,0,0.06
2014-02-11,0.06,0.06,0.06,0.06,0,0.06
2014-02-12,0.06,0.06,0.06,0.06,0,0.06
2014-02-13,0.06,0.06,0.06,0.06,0,0.06
2014-02-14,0.06,0.06,0.06,0.06,0,0.06
2014-02-17,0.06,0.06,0.06,0.06,0,0.06
2014-02-18,0.06,0.06,0.06,0.06,2000,0.06
2014-02-19,0.055,0.055,0.055,0.055,8300,0.055
2014-02-20,0.055,0.055,0.055,0.055,0,0.055
2014-02-21,0.05,0.05,0.05,0.05,50000,0.05
2014-02-24,0.05,0.05,0.05,0.05,106600,0.05
2014-02-25,0.05,0.05,0.05,0.05,100000,0.05
2014-02-26,0.05,0.05,0.05,0.05,1300,0.05
2014-02-27,0.05,0.05,0.05,0.05,0,0.05
2014-02-28,0.045,0.052000000000000005,0.045,0.052000000000000005,498600,0.052000000000000005
2014-03-03,0.055,0.055,0.055,0.055,120000,0.055
2014-03-04,0.055,0.055,0.055,0.055,0,0.055
2014-03-05,0.05,0.054000000000000006,0.05,0.054000000000000006,110000,0.054000000000000006
2014-03-06,0.045,0.045,0.045,0.045,60000,0.045
2014-03-07,0.045,0.045,0.042,0.045,106700,0.045
2014-03-10,0.045,0.045,0.045,0.045,0,0.045
2014-03-11,0.045,0.045,0.045,0.045,0,0.045
2014-03-12,0.045,0.045,0.045,0.045,0,0.045
2014-03-13,0.045,0.045,0.045,0.045,0,0.045
2014-03-14,0.045,0.045,0.045,0.045,0,0.045
2014-03-17,0.045,0.045,0.045,0.045,0,0.045
2014-03-18,0.045,0.045,0.045,0.045,11000,0.045
2014-03-19,0.045,0.045,0.045,0.045,0,0.045
2014-03-20,0.045,0.045,0.045,0.045,0,0.045
2014-03-21,0.045,0.045,0.045,0.045,0,0.045
2014-03-24,0.05,0.05,0.05,0.05,50000,0.05
2014-03-25,0.047,0.05,0.047,0.05,12400,0.05
2014-03-26,0.05,0.05,0.045,0.045,147500,0.045
2014-03-27,0.045,0.045,0.045,0.045,0,0.045
2014-03-28,0.045,0.045,0.045,0.045,0,0.045
2014-03-31,0.039,0.039,0.036000000000000004,0.036000000000000004,292200,0.036000000000000004
2014-04-01,0.036000000000000004,0.036000000000000004,0.036000000000000004,0.036000000000000004,17000,0.036000000000000004
2014-04-02,0.036000000000000004,0.036000000000000004,0.036000000000000004,0.036000000000000004,0,0.036000000000000004
2014-04-03,0.036000000000000004,0.036000000000000004,0.036000000000000004,0.036000000000000004,0,0.036000000000000004
2014-04-04,0.036000000000000004,0.036000000000000004,0.036000000000000004,0.036000000000000004,10200,0.036000000000000004
2014-04-07,0.04,0.04,0.04,0.04,39900,0.04
2014-04-08,0.045,0.05,0.045,0.05,100000,0.05
2014-04-09,0.05,0.05,0.05,0.05,0,0.05
2014-04-10,0.05,0.05,0.05,0.05,0,0.05
2014-04-11,0.05,0.05,0.05,0.05,0,0.05
2014-04-14,0.05,0.05,0.05,0.05,0,0.05
2014-04-15,0.05,0.05,0.05,0.05,0,0.05
2014-04-16,0.04,0.04,0.04,0.04,10000,0.04
2014-04-17,0.04,0.04,0.04,0.04,0,0.04
2014-04-18,0.04,0.04,0.04,0.04,0,0.04
2014-04-21,0.04,0.04,0.04,0.04,0,0.04
2014-04-22,0.04,0.04,0.04,0.04,0,0.04
2014-04-23,0.04,0.04,0.04,0.04,0,0.04
2014-04-24,0.04,0.04,0.04,0.04,0,0.04
2014-04-25,0.04,0.04,0.04,0.04,0,0.04
2014-04-28,0.04,0.04,0.04,0.04,0,0.04
2014-04-29,0.031,0.031,0.031,0.031,150000,0.031
2014-04-30,0.031,0.031,0.031,0.031,162000,0.031
2014-05-01,0.031,0.031,0.031,0.031,0,0.031
2014-05-02,0.031,0.031,0.031,0.031,0,0.031
2014-05-05,0.031,0.031,0.031,0.031,0,0.031
2014-05-06,0.031,0.031,0.031,0.031,0,0.031
2014-05-07,0.031,0.031,0.031,0.031,0,0.031
2014-05-08,0.031,0.031,0.031,0.031,0,0.031
2014-05-09,0.03,0.03,0.03,0.03,95000,0.03
2014-05-12,0.03,0.03,0.03,0.03,0,0.03
2014-05-13,0.03,0.03,0.03,0.03,0,0.03
2014-05-14,0.03,0.03,0.03,0.03,0,0.03
2014-05-15,0.03,0.03,0.03,0.03,0,0.03
2014-05-16,0.03,0.03,0.03,0.03,0,0.03
2014-05-19,0.03,0.03,0.03,0.03,0,0.03
2014-05-20,0.03,0.03,0.03,0.03,0,0.03
2014-05-21,0.03,0.03,0.03,0.03,0,0.03
2014-05-22,0.03,0.03,0.03,0.03,0,0.03
2014-05-23,0.03,0.03,0.03,0.03,0,0.03
2014-05-26,0.03,0.03,0.03,0.03,0,0.03
2014-05-27,0.03,0.03,0.03,0.03,0,0.03
2014-05-28,0.03,0.03,0.03,0.03,0,0.03
2014-05-29,0.03,0.03,0.03,0.03,0,0.03
2014-05-30,0.03,0.03,0.03,0.03,0,0.03
2014-06-02,0.03,0.03,0.03,0.03,0,0.03
2014-06-03,0.03,0.03,0.03,0.03,0,0.03
2014-06-04,0.03,0.03,0.03,0.03,0,0.03
2014-06-05,0.03,0.03,0.03,0.03,0,0.03
2014-06-06,0.03,0.03,0.03,0.03,0,0.03
2014-06-09,0.03,0.03,0.03,0.03,0,0.03
2014-06-10,0.03,0.03,0.03,0.03,0,0.03
2014-06-11,0.03,0.03,0.03,0.03,0,0.03
2014-06-12,0.03,0.03,0.03,0.03,0,0.03
2014-06-13,0.03,0.03,0.03,0.03,0,0.03
2014-06-16,0.03,0.03,0.03,0.03,0,0.03
2014-06-17,0.03,0.03,0.03,0.03,0,0.03
2014-06-18,0.03,0.03,0.03,0.03,0,0.03
2014-06-19,0.03,0.03,0.03,0.03,0,0.03
2014-06-20,0.03,0.03,0.03,0.03,0,0.03
2014-06-23,0.03,0.03,0.03,0.03,0,0.03
2014-06-24,0.006,0.006,0.006,0.006,194000,0.006
2014-06-25,0.012,0.015,0.011000000000000001,0.015,209000,0.015
2014-06-26,0.016,0.018000000000000002,0.016,0.018000000000000002,80600,0.018000000000000002
2014-06-27,0.018000000000000002,0.022000000000000002,0.018000000000000002,0.022000000000000002,338000,0.022000000000000002
2014-06-30,0.025,0.037000000000000005,0.025,0.036000000000000004,555700,0.036000000000000004
2014-07-01,0.034,0.034,0.025,0.025,280000,0.025
2014-07-02,0.03,0.03,0.025,0.025,394700,0.025
2014-07-03,0.027000000000000003,0.027000000000000003,0.027000000000000003,0.027000000000000003,500000,0.027000000000000003
2014-07-04,0.027000000000000003,0.027000000000000003,0.027000000000000003,0.027000000000000003,0,0.027000000000000003
2014-07-07,0.027000000000000003,0.027000000000000003,0.027000000000000003,0.027000000000000003,0,0.027000000000000003
2014-07-08,0.027000000000000003,0.036000000000000004,0.027000000000000003,0.036000000000000004,316600,0.036000000000000004
2014-07-09,0.031,0.031,0.03,0.03,306900,0.03
2014-07-10,0.03,0.040999999999999995,0.03,0.040999999999999995,348300,0.040999999999999995
2014-07-11,0.04,0.048,0.04,0.046,1380600,0.046
2014-07-14,0.052000000000000005,0.06,0.052000000000000005,0.057,3359500,0.057
2014-07-15,0.057999999999999996,0.057999999999999996,0.045,0.051,777000,0.051
2014-07-16,0.048,0.048,0.046,0.046,247000,0.046
2014-07-17,0.043,0.043,0.04,0.04,200000,0.04
2014-07-18,0.039,0.045,0.038,0.044000000000000004,2048500,0.044000000000000004
2014-07-21,0.043,0.047,0.043,0.043,1215300,0.043
2014-07-22,0.042,0.045,0.039,0.039,1317000,0.039
2014-07-23,0.04,0.04,0.036000000000000004,0.037000000000000005,1283700,0.037000000000000005
2014-07-24,0.037000000000000005,0.043,0.037000000000000005,0.042,575100,0.042
2014-07-25,0.040999999999999995,0.042,0.038,0.039,115500,0.039
2014-07-28,0.039,0.039,0.028999999999999998,0.03,664900,0.03
2014-07-29,0.028999999999999998,0.039,0.027000000000000003,0.039,510300,0.039
2014-07-30,0.036000000000000004,0.036000000000000004,0.031,0.035,477800,0.035
2014-07-31,0.032,0.032,0.03,0.03,476800,0.03
2014-08-01,0.03,0.03,0.028999999999999998,0.03,217700,0.03
2014-08-04,0.031,0.031,0.027999999999999997,0.027999999999999997,200000,0.027999999999999997
2014-08-05,0.027999999999999997,0.027999999999999997,0.027000000000000003,0.027000000000000003,336700,0.027000000000000003
2014-08-06,0.027000000000000003,0.027000000000000003,0.027000000000000003,0.027000000000000003,100000,0.027000000000000003
2014-08-07,0.027999999999999997,0.027999999999999997,0.027999999999999997,0.027999999999999997,45000,0.027999999999999997
2014-08-08,0.027999999999999997,0.027999999999999997,0.027000000000000003,0.027999999999999997,92500,0.027999999999999997
2014-08-11,0.027999999999999997,0.027999999999999997,0.027999999999999997,0.027999999999999997,50000,0.027999999999999997
2014-08-12,0.027999999999999997,0.027999999999999997,0.027999999999999997,0.027999999999999997,40000,0.027999999999999997
2014-08-13,0.027999999999999997,0.027999999999999997,0.027999999999999997,0.027999999999999997,0,0.027999999999999997
2014-08-14,0.027999999999999997,0.027999999999999997,0.027000000000000003,0.027000000000000003,165100,0.027000000000000003
2014-08-15,0.025,0.025,0.025,0.025,275000,0.025
2014-08-18,0.025,0.025,0.025,0.025,15000,0.025
2014-08-19,0.025,0.025,0.021,0.021,194000,0.021
2014-08-20,0.021,0.021,0.021,0.021,0,0.021
2014-08-21,0.021,0.021,0.021,0.021,0,0.021
2014-08-22,0.025,0.025,0.024,0.025,1007700,0.025
2014-08-25,0.026000000000000002,0.027999999999999997,0.022000000000000002,0.022000000000000002,302300,0.022000000000000002
2014-08-26,0.022000000000000002,0.022000000000000002,0.022000000000000002,0.022000000000000002,0,0.022000000000000002
2014-08-27,0.022000000000000002,0.022000000000000002,0.02,0.02,424800,0.02
2014-08-28,0.02,0.02,0.02,0.02,0,0.02
2014-08-29,0.02,0.02,0.02,0.02,0,0.02
2014-09-01,0.022000000000000002,0.022000000000000002,0.022000000000000002,0.022000000000000002,375000,0.022000000000000002
2014-09-02,0.024,0.025,0.022000000000000002,0.025,409200,0.025
2014-09-03,0.025,0.025,0.025,0.025,45000,0.025
2014-09-04,0.025,0.025,0.025,0.025,0,0.025
2014-09-05,0.024,0.025,0.024,0.025,61300,0.025
2014-09-08,0.022000000000000002,0.027999999999999997,0.022000000000000002,0.027999999999999997,152000,0.027999999999999997
2014-09-09,0.027999999999999997,0.03,0.027999999999999997,0.028999999999999998,309700,0.028999999999999998
2014-09-10,0.028999999999999998,0.028999999999999998,0.028999999999999998,0.028999999999999998,0,0.028999999999999998
2014-09-11,0.028999999999999998,0.028999999999999998,0.028999999999999998,0.028999999999999998,0,0.028999999999999998
2014-09-12,0.028999999999999998,0.028999999999999998,0.028999999999999998,0.028999999999999998,0,0.028999999999999998
2014-09-15,0.028999999999999998,0.028999999999999998,0.028999999999999998,0.028999999999999998,0,0.028999999999999998
2014-09-16,0.022000000000000002,0.027999999999999997,0.022000000000000002,0.023,908600,0.023
2014-09-17,0.023,0.023,0.023,0.023,37000,0.023
2014-09-18,0.023,0.023,0.023,0.023,0,0.023
2014-09-19,0.023,0.023,0.023,0.023,0,0.023
2014-09-22,0.023,0.023,0.023,0.023,0,0.023
2014-09-23,0.023,0.023,0.023,0.023,0,0.023
2014-09-24,0.023,0.023,0.023,0.023,40000,0.023
2014-09-25,0.023,0.023,0.023,0.023,176500,0.023
2014-09-26,0.022000000000000002,0.022000000000000002,0.022000000000000002,0.022000000000000002,672700,0.022000000000000002
2014-09-29,0.022000000000000002,0.022000000000000002,0.022000000000000002,0.022000000000000002,0,0.022000000000000002
2014-09-30,0.022000000000000002,0.022000000000000002,0.022000000000000002,0.022000000000000002,0,0.022000000000000002
2014-10-01,0.022000000000000002,0.022000000000000002,0.021,0.021,125400,0.021
2014-10-02,0.021,0.021,0.02,0.02,477100,0.02
2014-10-03,0.021,0.021,0.021,0.021,207000,0.021
2014-10-06,0.021,0.021,0.021,0.021,0,0.021
2014-10-07,0.021,0.021,0.021,0.021,0,0.021
2014-10-08,0.021,0.021,0.021,0.021,30000,0.021
2014-10-09,0.027999999999999997,0.027999999999999997,0.022000000000000002,0.022000000000000002,406800,0.022000000000000002
2014-10-10,0.022000000000000002,0.022000000000000002,0.022000000000000002,0.022000000000000002,0,0.022000000000000002
2014-10-13,0.017,0.017,0.015,0.015,647400,0.015
2014-10-14,0.015,0.015,0.015,0.015,0,0.015
2014-10-15,0.015,0.015,0.015,0.015,0,0.015
2014-10-16,0.015,0.015,0.015,0.015,0,0.015
2014-10-17,0.017,0.017,0.017,0.017,34200,0.017
2014-10-20,0.017,0.017,0.017,0.017,0,0.017
2014-10-21,0.017,0.017,0.017,0.017,195200,0.017
2014-10-22,0.017,0.017,0.017,0.017,120000,0.017
2014-10-23,0.017,0.017,0.017,0.017,100000,0.017
2014-10-24,0.017,0.017,0.016,0.016,60000,0.016
2014-10-27,0.016,0.02,0.016,0.02,165000,0.02
2014-10-28,0.02,0.02,0.02,0.02,260800,0.02
2014-10-29,0.019,0.02,0.018000000000000002,0.02,196300,0.02
2014-10-30,0.02,0.02,0.019,0.019,566900,0.019
2014-10-31,0.019,0.019,0.019,0.019,0,0.019
2014-11-03,0.019,0.019,0.019,0.019,0,0.019
2014-11-04,0.019,0.019,0.019,0.019,0,0.019
2014-11-05,0.019,0.019,0.019,0.019,0,0.019
2014-11-06,0.019,0.019,0.019,0.019,190800,0.019
2014-11-07,0.019,0.019,0.019,0.019,20000,0.019
2014-11-10,0.019,0.019,0.019,0.019,55000,0.019
2014-11-11,0.019,0.019,0.019,0.019,40000,0.019
2014-11-12,0.019,0.019,0.019,0.019,2100,0.019
2014-11-13,0.019,0.019,0.016,0.016,75000,0.016
2014-11-14,0.016,0.016,0.016,0.016,0,0.016
2014-11-17,0.016,0.016,0.016,0.016,425000,0.016
2014-11-18,0.016,0.016,0.013999999999999999,0.013999999999999999,300000,0.013999999999999999
2014-11-19,0.013999999999999999,0.013999999999999999,0.013999999999999999,0.013999999999999999,0,0.013999999999999999
2014-11-20,0.013999999999999999,0.013999999999999999,0.013999999999999999,0.013999999999999999,0,0.013999999999999999
2014-11-21,0.013999999999999999,0.013999999999999999,0.013999999999999999,0.013999999999999999,0,0.013999999999999999
2014-11-24,0.013000000000000001,0.013000000000000001,0.013000000000000001,0.013000000000000001,310000,0.013000000000000001
2014-11-25,0.013000000000000001,0.013000000000000001,0.013000000000000001,0.013000000000000001,50300,0.013000000000000001
2014-11-26,0.013000000000000001,0.013000000000000001,0.013000000000000001,0.013000000000000001,0,0.013000000000000001
2014-11-27,0.013000000000000001,0.013000000000000001,0.013000000000000001,0.013000000000000001,0,0.013000000000000001
2014-11-28,0.013000000000000001,0.013000000000000001,0.013000000000000001,0.013000000000000001,0,0.013000000000000001
2014-12-01,0.013000000000000001,0.013000000000000001,0.013000000000000001,0.013000000000000001,0,0.013000000000000001
2014-12-02,0.013000000000000001,0.013000000000000001,0.013000000000000001,0.013000000000000001,0,0.013000000000000001
2014-12-03,0.013000000000000001,0.013000000000000001,0.013000000000000001,0.013000000000000001,0,0.013000000000000001
2014-12-04,0.013000000000000001,0.013000000000000001,0.013000000000000001,0.013000000000000001,0,0.013000000000000001
2014-12-05,0.01,0.01,0.01,0.01,35200,0.01
2014-12-08,0.01,0.01,0.01,0.01,0,0.01
2014-12-09,0.01,0.01,0.01,0.01,260000,0.01
2014-12-10,0.01,0.01,0.01,0.01,335700,0.01
2014-12-11,0.01,0.01,0.01,0.01,0,0.01
2014-12-12,0.01,0.01,0.01,0.01,0,0.01
2014-12-15,0.01,0.01,0.01,0.01,0,0.01
2014-12-16,0.01,0.01,0.01,0.01,0,0.01
2014-12-17,0.006999999999999999,0.01,0.006999999999999999,0.01,297200,0.01
2014-12-18,0.01,0.01,0.01,0.01,0,0.01
2014-12-19,0.01,0.01,0.01,0.01,0,0.01
2014-12-22,0.01,0.01,0.01,0.01,0,0.01
2014-12-23,0.01,0.01,0.01,0.01,0,0.01
2014-12-24,0.01,0.01,0.01,0.01,0,0.01
2014-12-25,0.01,0.01,0.01,0.01,0,0.01
2014-12-26,0.01,0.01,0.01,0.01,0,0.01
2014-12-29,0.01,0.01,0.01,0.01,247200,0.01
2014-12-30,0.01,0.01,0.01,0.01,0,0.01
2014-12-31,0.01,0.01,0.01,0.01,0,0.01
2015-01-01,0.01,0.01,0.01,0.01,0,0.01
2015-01-02,0.01,0.01,0.01,0.01,0,0.01
2015-01-05,0.01,0.01,0.01,0.01,0,0.01
2015-01-06,0.01,0.01,0.01,0.01,0,0.01
2015-01-07,0.01,0.01,0.01,0.01,0,0.01
2015-01-08,0.01,0.01,0.01,0.01,52700,0.01
2015-01-09,0.01,0.01,0.01,0.01,0,0.01
2015-01-12,0.01,0.01,0.01,0.01,0,0.01
2015-01-13,0.01,0.01,0.01,0.01,0,0.01
2015-01-14,0.01,0.01,0.01,0.01,0,0.01
2015-01-15,0.01,0.01,0.01,0.01,0,0.01
2015-01-16,0.005,0.005,0.005,0.005,5200,0.005
2015-01-19,0.005,0.005,0.005,0.005,0,0.005
2015-01-20,0.005,0.005,0.005,0.005,0,0.005
2015-01-21,0.005,0.005,0.005,0.005,0,0.005
2015-01-22,0.005,0.005,0.005,0.005,0,0.005
2015-01-23,0.005,0.005,0.005,0.005,0,0.005
2015-01-26,0.005,0.005,0.005,0.005,0,0.005
2015-01-27,0.005,0.005,0.005,0.005,0,0.005
2015-01-28,0.005,0.005,0.005,0.005,0,0.005
2015-01-29,0.005,0.005,0.005,0.005,0,0.005
2015-01-30,0.006999999999999999,0.006999999999999999,0.006,0.006,545000,0.006
2015-02-02,0.006,0.006,0.006,0.006,0,0.006
2015-02-03,0.006,0.006,0.006,0.006,0,0.006
2015-02-04,0.006999999999999999,0.006999999999999999,0.006999999999999999,0.006999999999999999,120000,0.006999999999999999
2015-02-05,0.006999999999999999,0.006999999999999999,0.006999999999999999,0.006999999999999999,0,0.006999999999999999
2015-02-06,0.006999999999999999,0.006999999999999999,0.006999999999999999,0.006999999999999999,0,0.006999999999999999
2015-02-09,0.006999999999999999,0.006999999999999999,0.006999999999999999,0.006999999999999999,170000,0.006999999999999999
2015-02-10,0.006999999999999999,0.006999999999999999,0.006999999999999999,0.006999999999999999,0,0.006999999999999999
2015-02-11,0.006999999999999999,0.006999999999999999,0.006999999999999999,0.006999999999999999,0,0.006999999999999999
2015-02-12,0.006999999999999999,0.006999999999999999,0.006999999999999999,0.006999999999999999,0,0.006999999999999999
2015-02-13,0.01,0.01,0.01,0.01,70000,0.01
2015-02-16,0.01,0.01,0.01,0.01,0,0.01
2015-02-17,0.009000000000000001,0.009000000000000001,0.009000000000000001,0.009000000000000001,97000,0.009000000000000001
2015-02-18,0.009000000000000001,0.009000000000000001,0.009000000000000001,0.009000000000000001,0,0.009000000000000001
2015-02-19,0.009000000000000001,0.009000000000000001,0.009000000000000001,0.009000000000000001,0,0.009000000000000001
2015-02-20,0.009000000000000001,0.009000000000000001,0.009000000000000001,0.009000000000000001,0,0.009000000000000001
2015-02-23,0.009000000000000001,0.009000000000000001,0.009000000000000001,0.009000000000000001,0,0.009000000000000001
2015-02-24,0.009000000000000001,0.009000000000000001,0.009000000000000001,0.009000000000000001,0,0.009000000000000001
2015-02-25,0.009000000000000001,0.009000000000000001,0.009000000000000001,0.009000000000000001,0,0.009000000000000001
2015-02-26,0.01,0.01,0.01,0.01,100000,0.01
2015-02-27,0.01,0.01,0.01,0.01,0,0.01
2015-03-02,0.01,0.01,0.01,0.01,1500,0.01
2015-03-03,0.01,0.01,0.01,0.01,0,0.01
2015-03-04,0.01,0.01,0.01,0.01,0,0.01
2015-03-05,0.01,0.01,0.01,0.01,0,0.01
2015-03-06,0.01,0.01,0.01,0.01,0,0.01
2015-03-09,0.01,0.01,0.01,0.01,0,0.01
2015-03-10,0.01,0.01,0.01,0.01,0,0.01
2015-03-11,0.01,0.01,0.01,0.01,0,0.01
2015-03-12,0.01,0.01,0.01,0.01,0,0.01
2015-03-13,0.01,0.01,0.01,0.01,0,0.01
2015-03-16,0.01,0.01,0.01,0.01,0,0.01
2015-03-17,0.01,0.01,0.01,0.01,0,0.01
2015-03-18,0.01,0.01,0.01,0.01,0,0.01
2015-03-19,0.01,0.01,0.01,0.01,0,0.01
2015-03-20,0.01,0.01,0.01,0.01,0,0.01
2015-03-23,0.01,0.01,0.01,0.01,0,0.01
2015-03-24,0.01,0.01,0.01,0.01,0,0.01
2015-03-25,0.01,0.01,0.01,0.01,0,0.01
2015-03-26,0.01,0.01,0.01,0.01,0,0.01
2015-03-27,0.01,0.01,0.01,0.01,0,0.01
2015-03-30,0.01,0.01,0.01,0.01,0,0.01
2015-03-31,0.01,0.01,0.01,0.01,0,0.01
2015-04-01,0.009000000000000001,0.01,0.009000000000000001,0.01,279000,0.01
2015-04-02,0.01,0.01,0.01,0.01,0,0.01
2015-04-03,0.01,0.01,0.01,0.01,0,0.01
2015-04-06,0.01,0.01,0.01,0.01,0,0.01
2015-04-07,0.008,0.008,0.008,0.008,221000,0.008
2015-04-08,0.006999999999999999,0.006999999999999999,0.006999999999999999,0.006999999999999999,298500,0.006999999999999999
2015-04-09,0.006999999999999999,0.006999999999999999,0.006999999999999999,0.006999999999999999,0,0.006999999999999999
2015-04-10,0.006999999999999999,0.006999999999999999,0.006999999999999999,0.006999999999999999,0,0.006999999999999999
2015-04-13,0.009000000000000001,0.009000000000000001,0.009000000000000001,0.009000000000000001,100000,0.009000000000000001
2015-04-14,0.009000000000000001,0.009000000000000001,0.009000000000000001,0.009000000000000001,0,0.009000000000000001
2015-04-15,0.009000000000000001,0.009000000000000001,0.009000000000000001,0.009000000000000001,0,0.009000000000000001
2015-04-16,0.009000000000000001,0.009000000000000001,0.009000000000000001,0.009000000000000001,0,0.009000000000000001
2015-04-17,0.009000000000000001,0.009000000000000001,0.009000000000000001,0.009000000000000001,0,0.009000000000000001
2015-04-20,0.009000000000000001,0.009000000000000001,0.009000000000000001,0.009000000000000001,0,0.009000000000000001
2015-04-21,0.009000000000000001,0.009000000000000001,0.009000000000000001,0.009000000000000001,0,0.009000000000000001
2015-04-22,0.009000000000000001,0.009000000000000001,0.009000000000000001,0.009000000000000001,0,0.009000000000000001
2015-04-23,0.009000000000000001,0.009000000000000001,0.009000000000000001,0.009000000000000001,0,0.009000000000000001
2015-04-24,0.006,0.006,0.006,0.006,45000,0.006
2015-04-27,0.006,0.006,0.006,0.006,0,0.006
2015-04-28,0.006,0.006,0.006,0.006,0,0.006
2015-04-29,0.006,0.006,0.006,0.006,17000,0.006
2015-04-30,0.006,0.006,0.005,0.005,488800,0.005
2015-05-01,0.006,0.006,0.006,0.006,200000,0.006
2015-05-04,0.006,0.006,0.006,0.006,57400,0.006
2015-05-05,0.006,0.006,0.006,0.006,0,0.006
2015-05-06,0.006,0.006,0.006,0.006,0,0.006
2015-05-07,0.006,0.006,0.006,0.006,100000,0.006
2015-05-08,0.006,0.006,0.006,0.006,0,0.006
2015-05-11,0.006,0.008,0.006,0.006999999999999999,563000,0.006999999999999999
2015-05-12,0.006999999999999999,0.006999999999999999,0.006999999999999999,0.006999999999999999,250000,0.006999999999999999
2015-05-13,0.006999999999999999,0.006999999999999999,0.006999999999999999,0.006999999999999999,0,0.006999999999999999
2015-05-14,0.006999999999999999,0.006999999999999999,0.006999999999999999,0.006999999999999999,0,0.006999999999999999
2015-05-15,0.006999999999999999,0.006999999999999999,0.006999999999999999,0.006999999999999999,0,0.006999999999999999
2015-05-18,0.006999999999999999,0.006999999999999999,0.006999999999999999,0.006999999999999999,0,0.006999999999999999
2015-05-19,0.006999999999999999,0.006999999999999999,0.006999999999999999,0.006999999999999999,0,0.006999999999999999
2015-05-20,0.006999999999999999,0.006999999999999999,0.006999999999999999,0.006999999999999999,0,0.006999999999999999
2015-05-21,0.006999999999999999,0.006999999999999999,0.006999999999999999,0.006999999999999999,0,0.006999999999999999
2015-05-22,0.006999999999999999,0.006999999999999999,0.006999999999999999,0.006999999999999999,6500,0.006999999999999999
2015-05-25,0.005,0.005,0.005,0.005,85500,0.005
2015-05-26,0.005,0.005,0.005,0.005,41500,0.005
2015-05-27,0.005,0.005,0.005,0.005,12500,0.005
2015-05-28,0.005,0.005,0.005,0.005,0,0.005
2015-05-29,0.005,0.005,0.005,0.005,179000,0.005
2015-06-01,0.005,0.005,0.005,0.005,0,0.005
2015-06-02,0.005,0.005,0.005,0.005,0,0.005
2015-06-03,0.005,0.005,0.005,0.005,50000,0.005
2015-06-04,0.005,0.005,0.005,0.005,50000,0.005
2015-06-05,0.005,0.005,0.005,0.005,5700,0.005
2015-06-08,0.005,0.005,0.005,0.005,0,0.005
2015-06-09,0.005,0.005,0.005,0.005,140000,0.005
2015-06-10,0.005,0.005,0.005,0.005,64400,0.005
2015-06-11,0.005,0.005,0.005,0.005,0,0.005
2015-06-12,0.005,0.005,0.005,0.005,60000,0.005
2015-06-15,0.005,0.005,0.005,0.005,110000,0.005
2015-06-16,0.005,0.005,0.005,0.005,0,0.005
2015-06-17,0.005,0.005,0.004,0.004,328300,0.004
2015-06-18,0.005,0.005,0.005,0.005,100000,0.005
2015-06-19,0.005,0.005,0.005,0.005,150000,0.005
2015-06-22,0.005,0.005,0.005,0.005,5000,0.005
2015-06-23,0.005,0.005,0.004,0.004,54600,0.004
2015-06-24,0.004,0.004,0.004,0.004,0,0.004
2015-06-25,0.005,0.005,0.005,0.005,30000,0.005
2015-06-26,0.005,0.005,0.005,0.005,50000,0.005
2015-06-29,0.005,0.005,0.005,0.005,25000,0.005
2015-06-30,0.005,0.005,0.005,0.005,299700,0.005
2015-07-01,0.005,0.005,0.005,0.005,0,0.005
2015-07-02,0.005,0.005,0.005,0.005,25000,0.005
2015-07-03,0.005,0.005,0.005,0.005,0,0.005
2015-07-06,0.005,0.005,0.005,0.005,0,0.005
2015-07-07,0.005,0.005,0.005,0.005,0,0.005
2015-07-08,0.005,0.005,0.005,0.005,0,0.005
2015-07-09,0.005,0.005,0.005,0.005,0,0.005
2015-07-10,0.005,0.005,0.005,0.005,0,0.005
2015-07-13,0.005,0.005,0.005,0.005,0,0.005
2015-07-14,0.005,0.005,0.005,0.005,0,0.005
2015-07-15,0.005,0.005,0.005,0.005,0,0.005
2015-07-16,0.005,0.005,0.005,0.005,25000,0.005
2015-07-17,0.005,0.005,0.005,0.005,0,0.005
2015-07-20,0.005,0.005,0.005,0.005,0,0.005
2015-07-21,0.005,0.005,0.005,0.005,0,0.005
2015-07-22,0.005,0.005,0.005,0.005,0,0.005
2015-07-23,0.005,0.005,0.005,0.005,0,0.005
2015-07-24,0.005,0.005,0.005,0.005,0,0.005
2015-07-27,0.005,0.005,0.005,0.005,0,0.005
2015-07-28,0.005,0.005,0.005,0.005,0,0.005
2015-07-29,0.006,0.006,0.006,0.006,109700,0.006
2015-07-30,0.006,0.006,0.006,0.006,0,0.006
2015-07-31,0.006,0.006,0.006,0.006,0,0.006
2015-08-03,0.006,0.006,0.006,0.006,0,0.006
2015-08-04,0.006,0.006,0.006,0.006,0,0.006
2015-08-05,0.006,0.006,0.006,0.006,0,0.006
2015-08-06,0.006,0.006,0.006,0.006,0,0.006
2015-08-07,0.006,0.006,0.005,0.005,373600,0.005
2015-08-10,0.005,0.005,0.005,0.005,0,0.005
2015-08-11,0.005,0.005,0.005,0.005,0,0.005
2015-08-12,0.005,0.005,0.005,0.005,0,0.005
2015-08-13,0.005,0.005,0.005,0.005,0,0.005
2015-08-14,0.005,0.005,0.005,0.005,540000,0.005
2015-08-17,0.005,0.005,0.005,0.005,0,0.005
2015-08-18,0.005,0.005,0.005,0.005,0,0.005
2015-08-19,0.005,0.005,0.005,0.005,0,0.005
2015-08-20,0.005,0.005,0.005,0.005,0,0.005
2015-08-21,0.005,0.005,0.005,0.005,10000,0.005
2015-08-24,0.005,0.005,0.005,0.005,256600,0.005
2015-08-25,0.005,0.005,0.005,0.005,0,0.005
2015-08-26,0.005,0.005,0.004,0.004,576000,0.004
2015-08-27,0.004,0.004,0.004,0.004,0,0.004
2015-08-28,0.004,0.004,0.004,0.004,2500,0.004
2015-08-31,0.004,0.004,0.004,0.004,0,0.004
2015-09-01,0.004,0.004,0.004,0.004,0,0.004
2015-09-02,0.004,0.004,0.004,0.004,0,0.004
2015-09-03,0.004,0.004,0.004,0.004,0,0.004
2015-09-04,0.004,0.004,0.004,0.004,0,0.004
2015-09-07,0.004,0.004,0.004,0.004,0,0.004
2015-09-08,0.004,0.004,0.004,0.004,0,0.004
2015-09-09,0.004,0.004,0.004,0.004,0,0.004
2015-09-10,0.005,0.005,0.005,0.005,205000,0.005
2015-09-11,0.005,0.005,0.005,0.005,295000,0.005
2015-09-14,0.005,0.005,0.005,0.005,0,0.005
2015-09-15,0.004,0.005,0.004,0.004,199500,0.004
2015-09-16,0.004,0.004,0.004,0.004,0,0.004
2015-09-17,0.004,0.004,0.004,0.004,105000,0.004
2015-09-18,0.004,0.004,0.004,0.004,0,0.004
2015-09-21,0.004,0.004,0.004,0.004,0,0.004
2015-09-22,0.004,0.004,0.004,0.004,0,0.004
2015-09-23,0.004,0.004,0.004,0.004,0,0.004
2015-09-24,0.004,0.004,0.004,0.004,0,0.004
2015-09-25,0.004,0.004,0.004,0.004,0,0.004
2015-09-28,0.004,0.004,0.004,0.004,0,0.004
2015-09-29,0.004,0.004,0.004,0.004,0,0.004
2015-09-30,0.004,0.004,0.004,0.004,0,0.004
2015-10-01,0.006,0.006,0.006,0.006,55500,0.006
2015-10-02,0.006,0.006,0.006,0.006,0,0.006
2015-10-05,0.006,0.006,0.006,0.006,94500,0.006
2015-10-06,0.005,0.005,0.005,0.005,10000,0.005
2015-10-07,0.005,0.005,0.005,0.005,5000,0.005
2015-10-08,0.005,0.005,0.005,0.005,0,0.005
2015-10-09,0.005,0.005,0.005,0.005,0,0.005
2015-10-12,0.005,0.005,0.005,0.005,0,0.005
2015-10-13,0.005,0.005,0.005,0.005,22200,0.005
2015-10-14,0.005,0.005,0.005,0.005,0,0.005
2015-10-15,0.005,0.005,0.005,0.005,30000,0.005
2015-10-16,0.005,0.005,0.005,0.005,0,0.005
2015-10-19,0.005,0.005,0.005,0.005,0,0.005
2015-10-20,0.005,0.005,0.005,0.005,0,0.005
2015-10-21,0.005,0.005,0.005,0.005,0,0.005
2015-10-22,0.006,0.006,0.006,0.006,5500,0.006
2015-10-23,0.005,0.005,0.005,0.005,228900,0.005
2015-10-26,0.005,0.005,0.005,0.005,0,0.005
2015-10-27,0.005,0.005,0.005,0.005,0,0.005
2015-10-28,0.005,0.005,0.005,0.005,0,0.005
2015-10-29,0.005,0.005,0.005,0.005,0,0.005
2015-10-30,0.005,0.005,0.005,0.005,7800,0.005
2015-11-02,0.005,0.005,0.005,0.005,0,0.005
2015-11-03,0.005,0.005,0.005,0.005,0,0.005
2015-11-04,0.005,0.005,0.005,0.005,0,0.005
2015-11-05,0.005,0.005,0.005,0.005,0,0.005
2015-11-06,0.005,0.005,0.005,0.005,0,0.005
2015-11-09,0.005,0.005,0.005,0.005,0,0.005
2015-11-10,0.005,0.005,0.005,0.005,0,0.005
2015-11-11,0.005,0.005,0.005,0.005,0,0.005
2015-11-12,0.005,0.005,0.005,0.005,2095900,0.005
2015-11-13,0.004,0.004,0.004,0.004,16000,0.004
2015-11-16,0.004,0.004,0.004,0.004,0,0.004
2015-11-17,0.004,0.004,0.004,0.004,0,0.004
2015-11-18,0.004,0.004,0.004,0.004,0,0.004
2015-11-19,0.004,0.004,0.004,0.004,5000,0.004
2015-11-20,0.004,0.004,0.004,0.004,0,0.004
2015-11-23,0.004,0.004,0.004,0.004,0,0.004
2015-11-24,0.004,0.004,0.004,0.004,0,0.004
2015-11-25,0.004,0.004,0.004,0.004,0,0.004
2015-11-26,0.004,0.004,0.004,0.004,0,0.004
2015-11-27,0.004,0.004,0.004,0.004,0,0.004
2015-11-30,0.004,0.004,0.004,0.004,0,0.004
2015-12-01,0.005,0.005,0.005,0.005,368000,0.005
2015-12-02,0.005,0.005,0.005,0.005,0,0.005
2015-12-03,0.005,0.005,0.005,0.005,0,0.005
2015-12-04,0.005,0.005,0.005,0.005,0,0.005
2015-12-07,0.004,0.004,0.004,0.004,25000,0.004
2015-12-08,0.004,0.004,0.004,0.004,0,0.004
2015-12-09,0.004,0.004,0.004,0.004,0,0.004
2015-12-10,0.004,0.004,0.004,0.004,0,0.004
2015-12-11,0.004,0.004,0.004,0.004,0,0.004
2015-12-14,0.005,0.005,0.005,0.005,1435400,0.005
2015-12-15,0.006,0.006,0.006,0.006,791500,0.006
2015-12-16,0.006,0.006,0.006,0.006,0,0.006
2015-12-17,0.006,0.006,0.006,0.006,0,0.006
2015-12-18,0.006,0.006,0.006,0.006,0,0.006
2015-12-21,0.006,0.006,0.006,0.006,0,0.006
2015-12-22,0.006,0.006,0.006,0.006,0,0.006
2015-12-23,0.005,0.005,0.005,0.005,4470500,0.005
2015-12-24,0.006,0.006999999999999999,0.006,0.006999999999999999,1036900,0.006999999999999999
2015-12-25,0.006999999999999999,0.006999999999999999,0.006999999999999999,0.006999999999999999,0,0.006999999999999999
2015-12-28,0.006999999999999999,0.006999999999999999,0.006999999999999999,0.006999999999999999,0,0.006999999999999999
2015-12-29,0.006,0.006,0.006,0.006,236900,0.006
2015-12-30,0.006,0.006,0.006,0.006,130000,0.006
2015-12-31,0.006,0.006,0.006,0.006,0,0.006
2016-01-01,0.006,0.006,0.006,0.006,0,0.006
2016-01-04,0.006,0.006,0.006,0.006,758400,0.006
2016-01-05,0.006,0.006,0.005,0.005,402400,0.005
2016-01-06,0.005,0.005,0.005,0.005,0,0.005
2016-01-07,0.005,0.005,0.005,0.005,0,0.005
2016-01-08,0.005,0.005,0.005,0.005,0,0.005
2016-01-11,0.005,0.005,0.005,0.005,0,0.005
2016-01-12,0.005,0.005,0.005,0.005,0,0.005
2016-01-13,0.005,0.005,0.005,0.005,0,0.005
2016-01-14,0.005,0.005,0.005,0.005,0,0.005
2016-01-15,0.006,0.006999999999999999,0.006,0.006999999999999999,300000,0.006999999999999999
2016-01-18,0.008,0.008,0.008,0.008,250000,0.008
2016-01-19,0.008,0.008,0.008,0.008,0,0.008
2016-01-20,0.008,0.008,0.008,0.008,0,0.008
2016-01-21,0.008,0.008,0.008,0.008,0,0.008
2016-01-22,0.006,0.006,0.006,0.006,25000,0.006
2016-01-25,0.006,0.006,0.006,0.006,0,0.006
2016-01-26,0.006,0.006,0.006,0.006,0,0.006
2016-01-27,0.006,0.006,0.006,0.006,0,0.006
2016-01-28,0.006,0.006,0.006,0.006,0,0.006
2016-01-29,0.006,0.006,0.006,0.006,0,0.006
2016-02-01,0.006,0.006,0.006,0.006,0,0.006
2016-02-02,0.006,0.006,0.006,0.006,0,0.006
2016-02-03,0.006,0.006,0.006,0.006,0,0.006
2016-02-04,0.006,0.006,0.006,0.006,0,0.006
2016-02-05,0.006,0.006,0.006,0.006,0,0.006
2016-02-08,0.006,0.006,0.006,0.006,0,0.006
2016-02-09,0.006,0.006,0.006,0.006,0,0.006
2016-02-10,0.006,0.006,0.006,0.006,0,0.006
2016-02-11,0.006,0.006,0.006,0.006,0,0.006
2016-02-12,0.006,0.006,0.006,0.006,0,0.006
2016-02-15,0.006,0.006,0.006,0.006,0,0.006
2016-02-16,0.006,0.006,0.006,0.006,0,0.006
2016-02-17,0.006,0.006,0.006,0.006,0,0.006
2016-02-18,0.006,0.006,0.006,0.006,0,0.006
2016-02-19,0.006,0.006,0.006,0.006,490000,0.006
2016-02-22,0.006,0.006,0.006,0.006,0,0.006
2016-02-23,0.006,0.006,0.006,0.006,0,0.006
2016-02-24,0.006,0.006,0.006,0.006,0,0.006
2016-02-25,0.006,0.006,0.006,0.006,0,0.006
2016-02-26,0.006,0.006,0.006,0.006,0,0.006
2016-02-29,0.006,0.006,0.006,0.006,0,0.006
2016-03-01,0.006,0.006,0.006,0.006,0,0.006
2016-03-02,0.006,0.006,0.006,0.006,0,0.006
2016-03-03,0.006,0.006,0.006,0.006,0,0.006
2016-03-04,0.006,0.006,0.006,0.006,0,0.006
2016-03-07,0.006,0.006,0.006,0.006,0,0.006
2016-03-08,0.006,0.006,0.006,0.006,0,0.006
2016-03-09,0.006,0.006,0.006,0.006,0,0.006
2016-03-10,0.006,0.006,0.006,0.006,0,0.006
2016-03-11,0.006,0.006,0.006,0.006,0,0.006
2016-03-14,0.005,0.005,0.005,0.005,66000,0.005
2016-03-15,0.005,0.005,0.005,0.005,0,0.005
2016-03-16,0.005,0.005,0.005,0.005,0,0.005
2016-03-17,0.005,0.005,0.005,0.005,310000,0.005
2016-03-18,0.005,0.005,0.005,0.005,0,0.005
2016-03-21,0.005,0.005,0.005,0.005,0,0.005
2016-03-22,0.005,0.005,0.005,0.005,0,0.005
2016-03-23,0.005,0.005,0.005,0.005,0,0.005
2016-03-24,0.005,0.005,0.005,0.005,0,0.005
2016-03-25,0.005,0.005,0.005,0.005,0,0.005
2016-03-28,0.005,0.005,0.005,0.005,0,0.005
2016-03-29,0.006999999999999999,0.006999999999999999,0.006999999999999999,0.006999999999999999,65000,0.006999999999999999
2016-03-30,0.006999999999999999,0.006999999999999999,0.006999999999999999,0.006999999999999999,0,0.006999999999999999
2016-03-31,0.006999999999999999,0.006999999999999999,0.006999999999999999,0.006999999999999999,0,0.006999999999999999
2016-04-01,0.006999999999999999,0.006999999999999999,0.006999999999999999,0.006999999999999999,0,0.006999999999999999
2016-04-04,0.006999999999999999,0.006999999999999999,0.006999999999999999,0.006999999999999999,0,0.006999999999999999
2016-04-05,0.006999999999999999,0.006999999999999999,0.006999999999999999,0.006999999999999999,0,0.006999999999999999
2016-04-06,0.006999999999999999,0.006999999999999999,0.006999999999999999,0.006999999999999999,0,0.006999999999999999
2016-04-07,0.005,0.005,0.005,0.005,65000,0.005
2016-04-08,0.005,0.005,0.005,0.005,0,0.005
2016-04-11,0.005,0.005,0.005,0.005,0,0.005
2016-04-12,0.005,0.005,0.005,0.005,0,0.005
2016-04-13,0.005,0.005,0.005,0.005,0,0.005
2016-04-14,0.005,0.005,0.005,0.005,45000,0.005
2016-04-15,0.005,0.005,0.005,0.005,0,0.005
2016-04-18,0.005,0.005,0.005,0.005,0,0.005
2016-04-19,0.005,0.005,0.005,0.005,0,0.005
2016-04-20,0.005,0.006999999999999999,0.005,0.006999999999999999,362000,0.006999999999999999
2016-04-21,0.006999999999999999,0.006999999999999999,0.006999999999999999,0.006999999999999999,0,0.006999999999999999
2016-04-22,0.006999999999999999,0.006999999999999999,0.006999999999999999,0.006999999999999999,0,0.006999999999999999
2016-04-25,0.006999999999999999,0.006999999999999999,0.006999999999999999,0.006999999999999999,0,0.006999999999999999
2016-04-26,0.006999999999999999,0.006999999999999999,0.006999999999999999,0.006999999999999999,0,0.006999999999999999
2016-04-27,0.006999999999999999,0.006999999999999999,0.006999999999999999,0.006999999999999999,0,0.006999999999999999
2016-04-28,0.006999999999999999,0.006999999999999999,0.006999999999999999,0.006999999999999999,95000,0.006999999999999999
2016-04-29,0.006999999999999999,0.006999999999999999,0.006999999999999999,0.006999999999999999,0,0.006999999999999999
2016-05-02,0.006999999999999999,0.006999999999999999,0.006999999999999999,0.006999999999999999,0,0.006999999999999999
2016-05-03,0.006999999999999999,0.006999999999999999,0.006999999999999999,0.006999999999999999,160000,0.006999999999999999
2016-05-04,0.008,0.008,0.008,0.008,283200,0.008
2016-05-05,0.008,0.008,0.008,0.008,166600,0.008
2016-05-06,0.01,0.01,0.01,0.01,40000,0.01
2016-05-09,0.009000000000000001,0.01,0.009000000000000001,0.01,147200,0.01
2016-05-10,0.01,0.01,0.01,0.01,0,0.01
2016-05-11,0.01,0.01,0.01,0.01,0,0.01
2016-05-12,0.012,0.012,0.012,0.012,50000,0.012
2016-05-13,0.01,0.01,0.01,0.01,403700,0.01
2016-05-16,0.01,0.01,0.01,0.01,40000,0.01
2016-05-17,0.012,0.018000000000000002,0.011000000000000001,0.011000000000000001,477000,0.011000000000000001
2016-05-18,0.011000000000000001,0.011000000000000001,0.011000000000000001,0.011000000000000001,0,0.011000000000000001
2016-05-19,0.015,0.015,0.01,0.01,170000,0.01
2016-05-20,0.01,0.012,0.01,0.012,1395000,0.012
2016-05-23,0.012,0.012,0.012,0.012,2000,0.012
2016-05-24,0.012,0.012,0.012,0.012,203700,0.012
2016-05-25,0.013000000000000001,0.013000000000000001,0.013000000000000001,0.013000000000000001,100000,0.013000000000000001
2016-05-26,0.013000000000000001,0.013000000000000001,0.013000000000000001,0.013000000000000001,0,0.013000000000000001
2016-05-27,0.013000000000000001,0.013000000000000001,0.013000000000000001,0.013000000000000001,160200,0.013000000000000001
2016-05-30,0.013000000000000001,0.013000000000000001,0.013000000000000001,0.013000000000000001,0,0.013000000000000001
2016-05-31,0.013000000000000001,0.013000000000000001,0.013000000000000001,0.013000000000000001,0,0.013000000000000001
2016-06-01,0.013000000000000001,0.013000000000000001,0.013000000000000001,0.013000000000000001,59100,0.013000000000000001
2016-06-02,0.013000000000000001,0.013000000000000001,0.013000000000000001,0.013000000000000001,22000,0.013000000000000001
2016-06-03,0.015,0.015,0.015,0.015,50000,0.015
2016-06-06,0.016,0.016,0.016,0.016,100000,0.016
2016-06-07,0.016,0.017,0.016,0.017,392200,0.017
2016-06-08,0.017,0.017,0.017,0.017,0,0.017
2016-06-09,0.017,0.017,0.017,0.017,0,0.017
2016-06-10,0.017,0.017,0.015,0.015,229400,0.015
2016-06-13,0.015,0.015,0.015,0.015,0,0.015
2016-06-14,0.015,0.015,0.015,0.015,0,0.015
2016-06-15,0.015,0.015,0.013999999999999999,0.013999999999999999,145300,0.013999999999999999
2016-06-16,0.013999999999999999,0.013999999999999999,0.013999999999999999,0.013999999999999999,0,0.013999999999999999
2016-06-17,0.013999999999999999,0.013999999999999999,0.013999999999999999,0.013999999999999999,0,0.013999999999999999
2016-06-20,0.013999999999999999,0.013999999999999999,0.013999999999999999,0.013999999999999999,0,0.013999999999999999
2016-06-21,0.015,0.015,0.013999999999999999,0.013999999999999999,100000,0.013999999999999999
2016-06-22,0.013999999999999999,0.013999999999999999,0.013999999999999999,0.013999999999999999,10000,0.013999999999999999
2016-06-23,0.013999999999999999,0.013999999999999999,0.013999999999999999,0.013999999999999999,0,0.013999999999999999
2016-06-24,0.013999999999999999,0.013999999999999999,0.013999999999999999,0.013999999999999999,0,0.013999999999999999
2016-06-27,0.013999999999999999,0.013999999999999999,0.013000000000000001,0.013000000000000001,70000,0.013000000000000001
2016-06-28,0.013000000000000001,0.013000000000000001,0.013000000000000001,0.013000000000000001,0,0.013000000000000001
2016-06-29,0.013000000000000001,0.013000000000000001,0.013000000000000001,0.013000000000000001,0,0.013000000000000001
2016-06-30,0.012,0.012,0.012,0.012,108400,0.012
2016-07-01,0.012,0.012,0.012,0.012,0,0.012
2016-07-04,0.012,0.012,0.012,0.012,0,0.012
2016-07-05,0.012,0.012,0.012,0.012,0,0.012
2016-07-06,0.012,0.012,0.012,0.012,0,0.012
2016-07-07,0.012,0.012,0.012,0.012,0,0.012
2016-07-08,0.012,0.012,0.012,0.012,0,0.012
2016-07-11,0.016,0.022000000000000002,0.016,0.022000000000000002,504100,0.022000000000000002
2016-07-12,0.02,0.02,0.019,0.019,183000,0.019
2016-07-13,0.02,0.02,0.019,0.019,353200,0.019
2016-07-14,0.021,0.021,0.021,0.021,250000,0.021
2016-07-15,0.022000000000000002,0.023,0.022000000000000002,0.023,213000,0.023
2016-07-18,0.02,0.02,0.02,0.02,85000,0.02
2016-07-19,0.02,0.023,0.02,0.023,1023300,0.023
2016-07-20,0.021,0.021,0.021,0.021,341500,0.021
2016-07-21,0.021,0.021,0.02,0.02,191400,0.02
2016-07-22,0.02,0.02,0.016,0.016,313700,0.016
2016-07-25,0.016,0.016,0.016,0.016,0,0.016
2016-07-26,0.016,0.016,0.016,0.016,0,0.016
2016-07-27,0.016,0.016,0.016,0.016,0,0.016
2016-07-28,0.016,0.016,0.016,0.016,0,0.016
2016-07-29,0.016,0.016,0.016,0.016,0,0.016
2016-08-01,0.016,0.016,0.015,0.015,206500,0.015
2016-08-02,0.015,0.015,0.015,0.015,400000,0.015
2016-08-03,0.015,0.015,0.015,0.015,0,0.015
2016-08-04,0.015,0.015,0.015,0.015,0,0.015
2016-08-05,0.015,0.015,0.015,0.015,0,0.015
2016-08-08,0.015,0.015,0.015,0.015,0,0.015
2016-08-09,0.015,0.015,0.015,0.015,0,0.015
2016-08-10,0.015,0.015,0.015,0.015,75000,0.015
2016-08-11,0.013000000000000001,0.013000000000000001,0.013000000000000001,0.013000000000000001,54000,0.013000000000000001
2016-08-12,0.013000000000000001,0.013000000000000001,0.013000000000000001,0.013000000000000001,40000,0.013000000000000001
2016-08-15,0.013000000000000001,0.013000000000000001,0.013000000000000001,0.013000000000000001,20000,0.013000000000000001
2016-08-16,0.013000000000000001,0.013000000000000001,0.013000000000000001,0.013000000000000001,0,0.013000000000000001
2016-08-17,0.013000000000000001,0.013000000000000001,0.013000000000000001,0.013000000000000001,0,0.013000000000000001
2016-08-18,0.016,0.016,0.013999999999999999,0.013999999999999999,260000,0.013999999999999999
2016-08-19,0.013999999999999999,0.013999999999999999,0.013999999999999999,0.013999999999999999,0,0.013999999999999999
2016-08-22,0.013999999999999999,0.013999999999999999,0.013999999999999999,0.013999999999999999,0,0.013999999999999999
2016-08-23,0.013999999999999999,0.013999999999999999,0.013999999999999999,0.013999999999999999,0,0.013999999999999999
2016-08-24,0.013999999999999999,0.013999999999999999,0.013999999999999999,0.013999999999999999,0,0.013999999999999999
2016-08-25,0.013999999999999999,0.013999999999999999,0.013999999999999999,0.013999999999999999,140000,0.013999999999999999
2016-08-26,0.015,0.016,0.015,0.016,45000,0.016
2016-08-29,0.016,0.016,0.016,0.016,0,0.016
2016-08-30,0.015,0.015,0.015,0.015,45000,0.015
2016-08-31,0.015,0.015,0.015,0.015,0,0.015
2016-09-01,0.015,0.019,0.015,0.019,124800,0.019
2016-09-02,0.019,0.019,0.019,0.019,0,0.019
2016-09-05,0.018000000000000002,0.018000000000000002,0.018000000000000002,0.018000000000000002,30000,0.018000000000000002
2016-09-06,0.018000000000000002,0.018000000000000002,0.018000000000000002,0.018000000000000002,0,0.018000000000000002
2016-09-07,0.018000000000000002,0.018000000000000002,0.018000000000000002,0.018000000000000002,0,0.018000000000000002
2016-09-08,0.018000000000000002,0.018000000000000002,0.018000000000000002,0.018000000000000002,0,0.018000000000000002
2016-09-09,0.018000000000000002,0.018000000000000002,0.018000000000000002,0.018000000000000002,0,0.018000000000000002
2016-09-12,0.018000000000000002,0.018000000000000002,0.018000000000000002,0.018000000000000002,0,0.018000000000000002
2016-09-13,0.018000000000000002,0.018000000000000002,0.018000000000000002,0.018000000000000002,0,0.018000000000000002
2016-09-14,0.018000000000000002,0.018000000000000002,0.018000000000000002,0.018000000000000002,0,0.018000000000000002
2016-09-15,0.017,0.017,0.017,0.017,1800,0.017
2016-09-16,0.017,0.017,0.017,0.017,0,0.017
2016-09-19,0.017,0.017,0.017,0.017,0,0.017
2016-09-20,0.017,0.017,0.016,0.016,537600,0.016
2016-09-21,0.016,0.016,0.016,0.016,70000,0.016
2016-09-22,0.016,0.016,0.016,0.016,0,0.016
2016-09-23,0.016,0.016,0.013999999999999999,0.013999999999999999,130700,0.013999999999999999
2016-09-26,0.013999999999999999,0.013999999999999999,0.013000000000000001,0.013999999999999999,83200,0.013999999999999999
2016-09-27,0.013999999999999999,0.013999999999999999,0.013999999999999999,0.013999999999999999,0,0.013999999999999999
2016-09-28,0.013999999999999999,0.013999999999999999,0.013999999999999999,0.013999999999999999,0,0.013999999999999999
2016-09-29,0.015,0.015,0.015,0.015,200000,0.015
2016-09-30,0.015,0.015,0.015,0.015,0,0.015
2016-10-03,0.016,0.016,0.016,0.016,180000,0.016
2016-10-04,0.013000000000000001,0.013000000000000001,0.013000000000000001,0.013000000000000001,4800,0.013000000000000001
2016-10-05,0.013000000000000001,0.013000000000000001,0.013000000000000001,0.013000000000000001,0,0.013000000000000001
2016-10-06,0.013000000000000001,0.013000000000000001,0.013000000000000001,0.013000000000000001,0,0.013000000000000001
2016-10-07,0.013000000000000001,0.013000000000000001,0.012,0.012,100000,0.012
2016-10-10,0.012,0.012,0.012,0.012,15000,0.012
2016-10-11,0.012,0.012,0.012,0.012,0,0.012
2016-10-12,0.012,0.012,0.012,0.012,0,0.012
2016-10-13,0.012,0.012,0.012,0.012,0,0.012
2016-10-14,0.012,0.012,0.012,0.012,120500,0.012
2016-10-17,0.012,0.012,0.012,0.012,0,0.012
2016-10-18,0.012,0.012,0.012,0.012,50000,0.012
2016-10-19,0.012,0.012,0.012,0.012,0,0.012
2016-10-20,0.012,0.012,0.012,0.012,0,0.012
2016-10-21,0.012,0.012,0.012,0.012,0,0.012
2016-10-24,0.012,0.012,0.012,0.012,0,0.012
2016-10-25,0.012,0.012,0.012,0.012,0,0.012
2016-10-26,0.012,0.012,0.012,0.012,0,0.012
2016-10-27,0.012,0.012,0.012,0.012,0,0.012
2016-10-28,0.012,0.012,0.012,0.012,0,0.012
2016-10-31,0.013999999999999999,0.013999999999999999,0.013999999999999999,0.013999999999999999,67200,0.013999999999999999
2016-11-01,0.013999999999999999,0.013999999999999999,0.012,0.012,46300,0.012
2016-11-02,0.012,0.012,0.012,0.012,0,0.012
2016-11-03,0.012,0.012,0.012,0.012,0,0.012
2016-11-04,0.012,0.012,0.012,0.012,0,0.012
2016-11-07,0.012,0.012,0.012,0.012,0,0.012
2016-11-08,0.012,0.012,0.012,0.012,0,0.012
2016-11-09,0.012,0.012,0.012,0.012,0,0.012
2016-11-10,0.012,0.012,0.012,0.012,10000,0.012
2016-11-11,0.012,0.012,0.011000000000000001,0.011000000000000001,200000,0.011000000000000001
2016-11-14,0.011000000000000001,0.011000000000000001,0.011000000000000001,0.011000000000000001,0,0.011000000000000001
2016-11-15,0.011000000000000001,0.011000000000000001,0.011000000000000001,0.011000000000000001,0,0.011000000000000001
2016-11-16,0.011000000000000001,0.011000000000000001,0.01,0.01,135000,0.01
2016-11-17,0.01,0.01,0.01,0.01,0,0.01
2016-11-18,0.01,0.01,0.01,0.01,7300,0.01
2016-11-21,0.01,0.01,0.01,0.01,0,0.01
2016-11-22,0.01,0.01,0.01,0.01,0,0.01
2016-11-23,0.01,0.01,0.01,0.01,0,0.01
2016-11-24,0.01,0.01,0.01,0.01,0,0.01
2016-11-25,0.01,0.01,0.01,0.01,0,0.01
2016-11-28,0.01,0.01,0.01,0.01,0,0.01
2016-11-29,0.01,0.01,0.01,0.01,0,0.01
2016-11-30,0.01,0.01,0.01,0.01,0,0.01
2016-12-01,0.01,0.01,0.01,0.01,0,0.01
2016-12-02,0.012,0.012,0.012,0.012,30000,0.012
2016-12-05,0.012,0.012,0.012,0.012,0,0.012
2016-12-06,0.012,0.012,0.012,0.012,0,0.012
2016-12-07,0.012,0.012,0.012,0.012,0,0.012
2016-12-08,0.012,0.012,0.012,0.012,0,0.012
2016-12-09,0.012,0.012,0.012,0.012,0,0.012
2016-12-12,0.012,0.012,0.012,0.012,0,0.012
2016-12-13,0.012,0.012,0.012,0.012,0,0.012
2016-12-14,0.012,0.012,0.012,0.012,159900,0.012
2016-12-15,0.012,0.012,0.012,0.012,0,0.012
2016-12-16,0.012,0.012,0.012,0.012,0,0.012
2016-12-19,0.012,0.012,0.012,0.012,0,0.012
2016-12-20,0.012,0.012,0.012,0.012,0,0.012
2016-12-21,0.012,0.012,0.012,0.012,0,0.012
2016-12-22,0.012,0.012,0.012,0.012,0,0.012
2016-12-23,0.012,0.012,0.012,0.012,0,0.012
2016-12-26,0.012,0.012,0.012,0.012,0,0.012
2016-12-27,0.012,0.012,0.012,0.012,0,0.012
2016-12-28,0.012,0.012,0.012,0.012,0,0.012
2016-12-29,0.012,0.012,0.012,0.012,0,0.012
2016-12-30,0.006,0.006,0.006,0.006,360700,0.006
