Date,Open,High,Low,Close,Volume,Adj Close
2016-03-03,0.49,0.72,0.475,0.72,297500,0.72
2016-03-04,0.7,0.7,0.48,0.6,38100,0.6
2016-03-07,0.5,0.59,0.42,0.59,71400,0.59
2016-03-08,0.58,0.58,0.42,0.42,18500,0.42
2016-03-09,0.48,0.48,0.35,0.41,24200,0.41
2016-03-10,0.37,0.375,0.36,0.37,12500,0.37
2016-03-11,0.335,0.34,0.33,0.33,8600,0.33
2016-03-14,0.335,0.365,0.335,0.365,20600,0.365
2016-03-15,0.31,0.44,0.31,0.44,31700,0.44
2016-03-16,0.4,0.41,0.38,0.38,15700,0.38
2016-03-17,0.38,0.38,0.38,0.38,0,0.38
2016-03-18,0.36,0.45,0.36,0.45,27000,0.45
2016-03-21,0.445,0.47,0.4,0.4,38700,0.4
2016-03-22,0.455,0.455,0.41,0.41,7200,0.41
2016-03-23,0.41,0.465,0.4,0.465,9600,0.465
2016-03-24,0.42,0.48,0.42,0.48,12000,0.48
2016-03-25,0.48,0.48,0.48,0.48,0,0.48
2016-03-28,0.48,0.48,0.48,0.48,0,0.48
2016-03-29,0.48,0.5,0.47,0.5,52100,0.5
2016-03-30,0.5,0.59,0.5,0.5,63300,0.5
2016-03-31,0.55,0.65,0.55,0.65,28300,0.65
2016-04-01,0.645,0.65,0.62,0.65,43600,0.65
2016-04-04,0.68,0.78,0.68,0.78,25000,0.78
2016-04-05,0.77,0.78,0.77,0.78,13300,0.78
2016-04-06,0.7,0.7,0.64,0.7,19300,0.7
2016-04-07,0.66,0.7,0.63,0.7,59300,0.7
2016-04-08,0.7,0.71,0.63,0.63,21400,0.63
2016-04-11,0.65,0.67,0.65,0.67,5000,0.67
2016-04-12,0.675,0.69,0.67,0.69,6300,0.69
2016-04-13,0.71,0.775,0.71,0.775,9400,0.775
2016-04-14,0.75,0.775,0.7,0.775,24800,0.775
2016-04-15,0.775,0.8,0.775,0.8,21000,0.8
2016-04-18,0.795,0.82,0.795,0.82,9600,0.82
2016-04-19,0.82,0.83,0.82,0.83,13100,0.83
2016-04-20,0.83,0.83,0.8,0.8,3000,0.8
2016-04-21,0.8,0.8,0.8,0.8,1100,0.8
2016-04-22,0.8,0.825,0.8,0.825,5400,0.825
2016-04-25,0.825,0.825,0.825,0.825,0,0.825
2016-04-26,0.825,0.825,0.775,0.775,16100,0.775
2016-04-27,0.775,0.79,0.775,0.775,9600,0.775
2016-04-28,0.775,0.775,0.775,0.775,0,0.775
2016-04-29,0.8,0.81,0.775,0.79,15300,0.79
2016-05-02,0.78,0.78,0.78,0.78,3300,0.78
2016-05-03,0.78,0.78,0.78,0.78,3000,0.78
2016-05-04,0.775,0.79,0.775,0.79,3300,0.79
2016-05-05,0.79,0.8,0.79,0.8,6300,0.8
2016-05-06,0.79,0.79,0.79,0.79,0,0.79
2016-05-09,0.79,0.83,0.775,0.83,5000,0.83
2016-05-10,0.83,0.83,0.83,0.83,0,0.83
2016-05-11,0.775,0.8,0.77,0.8,3300,0.8
2016-05-12,0.8,0.8,0.8,0.8,3300,0.8
2016-05-13,0.8,0.8,0.8,0.8,0,0.8
2016-05-16,0.765,0.81,0.75,0.77,13600,0.77
2016-05-17,0.77,0.83,0.765,0.83,6800,0.83
2016-05-18,0.83,0.83,0.83,0.83,0,0.83
2016-05-19,0.83,0.83,0.83,0.83,0,0.83
2016-05-20,0.83,0.83,0.83,0.83,0,0.83
2016-05-23,0.83,0.83,0.83,0.83,0,0.83
2016-05-24,0.83,0.83,0.83,0.83,0,0.83
2016-05-25,0.83,0.83,0.83,0.83,0,0.83
2016-05-26,0.82,0.83,0.82,0.83,4000,0.83
2016-05-27,0.83,0.83,0.83,0.83,0,0.83
2016-05-30,0.83,0.83,0.83,0.83,0,0.83
2016-05-31,0.81,0.81,0.8,0.8,7900,0.8
2016-06-01,0.8,0.8,0.795,0.795,17000,0.795
2016-06-02,0.795,0.795,0.795,0.795,0,0.795
2016-06-03,0.795,0.795,0.795,0.795,0,0.795
2016-06-06,0.8,0.8,0.8,0.8,2000,0.8
2016-06-07,0.8,0.8,0.8,0.8,0,0.8
2016-06-08,0.8,0.8,0.8,0.8,0,0.8
2016-06-09,0.8,0.8,0.8,0.8,0,0.8
2016-06-10,0.8,0.8,0.8,0.8,0,0.8
2016-06-13,0.8,0.8,0.8,0.8,0,0.8
2016-06-14,0.8,0.8,0.8,0.8,0,0.8
2016-06-15,0.8,0.8,0.8,0.8,0,0.8
2016-06-16,0.8,0.8,0.8,0.8,0,0.8
2016-06-17,0.8,0.8,0.8,0.8,0,0.8
2016-06-20,0.8,0.8,0.8,0.8,0,0.8
2016-06-21,0.8,0.8,0.8,0.8,0,0.8
2016-06-22,0.8,0.8,0.8,0.8,0,0.8
2016-06-23,0.8,0.8,0.8,0.8,0,0.8
2016-06-24,0.8,0.8,0.8,0.8,0,0.8
2016-06-27,0.8,0.8,0.8,0.8,0,0.8
2016-06-28,0.8,0.8,0.8,0.8,0,0.8
2016-06-29,0.8,0.8,0.8,0.8,0,0.8
2016-06-30,0.8,0.8,0.8,0.8,0,0.8
2016-07-01,0.8,0.8,0.8,0.8,0,0.8
2016-07-04,0.8,0.8,0.8,0.8,0,0.8
2016-07-05,0.8,0.8,0.8,0.8,0,0.8
2016-07-06,0.8,0.8,0.8,0.8,0,0.8
2016-07-07,0.8,0.8,0.8,0.8,0,0.8
2016-07-08,0.66,0.66,0.6,0.6,6600,0.6
2016-07-11,0.65,0.695,0.65,0.695,23000,0.695
2016-07-12,0.695,0.695,0.695,0.695,0,0.695
2016-07-13,0.665,0.68,0.665,0.68,9000,0.68
2016-07-14,0.68,0.68,0.68,0.68,0,0.68
2016-07-15,0.68,0.68,0.68,0.68,0,0.68
2016-07-18,0.68,0.68,0.68,0.68,0,0.68
2016-07-19,0.6,0.65,0.6,0.65,5600,0.65
2016-07-20,0.65,0.655,0.65,0.65,6500,0.65
2016-07-21,0.655,0.655,0.655,0.655,3000,0.655
2016-07-22,0.655,0.69,0.655,0.69,10700,0.69
2016-07-25,0.675,0.69,0.675,0.69,75700,0.69
2016-07-26,0.7,0.7,0.69,0.7,32600,0.7
2016-07-27,0.7,0.72,0.68,0.68,19900,0.68
2016-07-28,0.7,0.72,0.7,0.72,24600,0.72
2016-07-29,0.7,0.725,0.66,0.725,70400,0.725
2016-08-01,0.71,0.72,0.68,0.685,63200,0.685
2016-08-02,0.685,0.71,0.685,0.71,21000,0.71
2016-08-03,0.7,0.7,0.65,0.65,23500,0.65
2016-08-04,0.68,0.685,0.65,0.685,31500,0.685
2016-08-05,0.685,0.7,0.685,0.7,82200,0.7
2016-08-08,0.7,0.7,0.66,0.69,7900,0.69
2016-08-09,0.67,0.67,0.64,0.66,30800,0.66
2016-08-10,0.66,0.72,0.65,0.65,60300,0.65
2016-08-11,0.66,0.68,0.65,0.67,29800,0.67
2016-08-12,0.68,0.705,0.68,0.705,89500,0.705
2016-08-15,0.715,0.715,0.66,0.695,51100,0.695
2016-08-16,0.695,0.705,0.67,0.705,34100,0.705
2016-08-17,0.7,0.7,0.69,0.695,28300,0.695
2016-08-18,0.695,0.71,0.695,0.71,30000,0.71
2016-08-19,0.705,0.715,0.705,0.715,26000,0.715
2016-08-22,0.69,0.71,0.69,0.71,52000,0.71
2016-08-23,0.7,0.7,0.7,0.7,10000,0.7
2016-08-24,0.7,0.705,0.7,0.705,30000,0.705
2016-08-25,0.68,0.68,0.66,0.68,34000,0.68
2016-08-26,0.67,0.68,0.65,0.68,39000,0.68
2016-08-29,0.675,0.675,0.65,0.67,58200,0.67
2016-08-30,0.66,0.66,0.65,0.655,61500,0.655
2016-08-31,0.655,0.665,0.655,0.66,84300,0.66
2016-09-01,0.66,0.67,0.65,0.665,96300,0.665
2016-09-02,0.665,0.68,0.66,0.68,110800,0.68
2016-09-05,0.69,0.7,0.685,0.7,105200,0.7
2016-09-06,0.695,0.7,0.695,0.7,84700,0.7
2016-09-07,0.695,0.695,0.67,0.68,92100,0.68
2016-09-08,0.68,0.695,0.68,0.695,92500,0.695
2016-09-09,0.68,0.695,0.68,0.695,111000,0.695
2016-09-12,0.65,0.715,0.65,0.71,188900,0.71
2016-09-13,0.69,0.72,0.69,0.72,116000,0.72
2016-09-14,0.71,0.725,0.71,0.725,131700,0.725
2016-09-15,0.725,0.8,0.725,0.8,106200,0.8
2016-09-16,0.725,0.78,0.725,0.78,96500,0.78
2016-09-19,0.75,0.85,0.75,0.835,208200,0.835
2016-09-20,0.82,0.85,0.81,0.845,138600,0.845
2016-09-21,0.83,0.845,0.83,0.83,86700,0.83
2016-09-22,0.82,0.825,0.77,0.8,109100,0.8
2016-09-23,0.79,0.795,0.71,0.745,130500,0.745
2016-09-26,0.73,0.745,0.725,0.745,91400,0.745
2016-09-27,0.735,0.735,0.715,0.715,93900,0.715
2016-09-28,0.71,0.725,0.68,0.725,100500,0.725
2016-09-29,0.68,0.73,0.68,0.73,95500,0.73
2016-09-30,0.68,0.715,0.655,0.715,101900,0.715
2016-10-03,0.65,0.8,0.65,0.8,228200,0.8
2016-10-04,0.72,0.75,0.715,0.75,44300,0.75
2016-10-05,0.73,0.74,0.73,0.74,12000,0.74
2016-10-06,0.71,0.71,0.655,0.67,54000,0.67
2016-10-07,0.68,0.71,0.68,0.71,48600,0.71
2016-10-10,0.67,0.69,0.65,0.68,91000,0.68
2016-10-11,0.66,0.685,0.655,0.68,35800,0.68
2016-10-12,0.66,0.68,0.63,0.68,38900,0.68
2016-10-13,0.65,0.68,0.61,0.65,84800,0.65
2016-10-14,0.65,0.69,0.62,0.69,56000,0.69
2016-10-17,0.68,0.69,0.65,0.69,21300,0.69
2016-10-18,0.65,0.68,0.65,0.68,87400,0.68
2016-10-19,0.685,0.69,0.65,0.65,18500,0.65
2016-10-20,0.655,0.685,0.655,0.685,12000,0.685
2016-10-21,0.655,0.69,0.655,0.69,30300,0.69
2016-10-24,0.685,0.685,0.655,0.68,28600,0.68
2016-10-25,0.655,0.685,0.65,0.685,49300,0.685
2016-10-26,0.655,0.685,0.655,0.685,61600,0.685
2016-10-27,0.66,0.68,0.65,0.675,50100,0.675
2016-10-28,0.63,0.675,0.62,0.675,74100,0.675
2016-10-31,0.63,0.65,0.625,0.65,85200,0.65
2016-11-01,0.62,0.65,0.62,0.65,13900,0.65
2016-11-02,0.64,0.645,0.64,0.64,52000,0.64
2016-11-03,0.64,0.64,0.6,0.6,63000,0.6
2016-11-04,0.6,0.62,0.58,0.605,54100,0.605
2016-11-07,0.6,0.61,0.6,0.61,50600,0.61
2016-11-08,0.605,0.615,0.605,0.615,50000,0.615
2016-11-09,0.605,0.65,0.605,0.65,90000,0.65
2016-11-10,0.6,0.63,0.6,0.6,70300,0.6
2016-11-11,0.6,0.63,0.6,0.63,45000,0.63
2016-11-14,0.61,0.62,0.6,0.6,92000,0.6
2016-11-15,0.6,0.605,0.6,0.605,100000,0.605
2016-11-16,0.61,0.61,0.575,0.605,101400,0.605
2016-11-17,0.605,0.605,0.55,0.575,101700,0.575
2016-11-18,0.575,0.575,0.502,0.52,118600,0.52
2016-11-21,0.52,0.52,0.52,0.52,0,0.52
2016-11-22,0.48,0.515,0.48,0.515,100300,0.515
2016-11-23,0.51,0.53,0.5,0.525,119500,0.525
2016-11-24,0.525,0.56,0.5,0.545,162700,0.545
2016-11-25,0.555,0.6,0.555,0.59,114500,0.59
2016-11-28,0.52,0.55,0.52,0.53,111600,0.53
2016-11-29,0.51,0.525,0.49,0.49,107800,0.49
2016-11-30,0.495,0.505,0.45,0.475,104700,0.475
2016-12-01,0.485,0.485,0.455,0.455,100000,0.455
2016-12-02,0.45,0.465,0.45,0.46,100000,0.46
2016-12-05,0.46,0.465,0.425,0.465,121800,0.465
2016-12-06,0.465,0.475,0.465,0.47,100000,0.47
2016-12-07,0.48,0.51,0.48,0.5,137700,0.5
2016-12-08,0.5,0.5,0.5,0.5,0,0.5
2016-12-09,0.52,0.55,0.52,0.55,54000,0.55
2016-12-12,0.555,0.555,0.555,0.555,20000,0.555
2016-12-13,0.48,0.5,0.48,0.5,9000,0.5
2016-12-14,0.5,0.5,0.5,0.5,0,0.5
2016-12-15,0.47,0.47,0.47,0.47,17800,0.47
2016-12-16,0.46,0.46,0.46,0.46,5200,0.46
2016-12-19,0.46,0.46,0.46,0.46,0,0.46
2016-12-20,0.44,0.44,0.42,0.43,31000,0.43
2016-12-21,0.43,0.43,0.39,0.39,18500,0.39
2016-12-22,0.385,0.395,0.385,0.395,19000,0.395
2016-12-23,0.395,0.395,0.395,0.395,0,0.395
2016-12-26,0.395,0.395,0.395,0.395,0,0.395
2016-12-27,0.395,0.395,0.395,0.395,0,0.395
2016-12-28,0.395,0.395,0.395,0.395,0,0.395
2016-12-29,0.395,0.395,0.395,0.395,0,0.395
2016-12-30,0.395,0.395,0.395,0.395,0,0.395
