Date,Open,High,Low,Close,Volume,Adj Close
2011-10-13,1.3,1.315,1.3,1.3,44000,1.03
2011-10-14,1.3,1.3,1.23,1.265,23500,1.002
2011-10-17,1.265,1.265,1.24,1.24,10300,0.982
2011-10-18,1.23,1.23,1.23,1.23,4500,0.9740000000000001
2011-10-19,1.22,1.22,1.2,1.2,10000,0.95
2011-10-21,1.225,1.225,1.22,1.22,4100,0.966
2011-10-24,1.22,1.22,1.22,1.22,10700,0.966
2011-10-26,1.22,1.22,1.22,1.22,4000,0.966
2011-10-28,1.22,1.25,1.22,1.25,15200,0.99
2011-11-01,1.24,1.25,1.24,1.25,33000,0.99
2011-11-04,1.25,1.25,1.23,1.25,17800,0.99
2011-11-07,1.22,1.22,1.22,1.22,4000,0.966
2011-11-08,1.22,1.24,1.22,1.24,12000,0.982
2011-11-11,1.22,1.22,1.22,1.22,9000,0.966
2011-11-14,1.22,1.22,1.22,1.22,31000,0.966
2011-11-16,1.23,1.25,1.23,1.25,83500,0.99
2011-11-17,1.265,1.265,1.25,1.25,47800,0.99
2011-11-18,1.265,1.265,1.25,1.25,47000,0.99
2011-11-21,1.25,1.265,1.25,1.265,29000,1.002
2011-11-22,1.265,1.29,1.265,1.29,13200,1.022
2011-11-23,1.28,1.29,1.28,1.28,16300,1.014
2011-11-24,1.27,1.27,1.25,1.25,36600,0.99
2011-11-25,1.25,1.25,1.25,1.25,12800,0.99
2011-11-28,1.245,1.245,1.24,1.24,6000,0.982
2011-11-29,1.24,1.24,1.24,1.24,0,0.982
2011-11-30,1.23,1.23,1.22,1.22,26000,0.966
2011-12-01,1.22,1.22,1.22,1.22,0,0.966
2011-12-02,1.26,1.26,1.24,1.24,10000,0.982
2011-12-05,1.245,1.245,1.24,1.245,55000,0.986
2011-12-06,1.24,1.24,1.24,1.24,84600,0.982
2011-12-07,1.24,1.24,1.22,1.22,28000,0.966
2011-12-08,1.2,1.2,1.2,1.2,9100,0.95
2011-12-09,1.2,1.2,1.2,1.2,0,0.95
2011-12-12,1.17,1.2,1.17,1.2,10000,0.95
2011-12-13,1.18,1.18,1.17,1.17,4800,0.927
2011-12-14,1.17,1.17,1.17,1.17,0,0.927
2011-12-15,1.17,1.17,1.17,1.17,0,0.927
2011-12-16,1.175,1.175,1.17,1.17,10500,0.927
2011-12-19,1.17,1.17,1.17,1.17,0,0.927
2011-12-20,1.15,1.15,1.15,1.15,5000,0.9109999999999999
2011-12-21,1.15,1.15,1.15,1.15,0,0.9109999999999999
2011-12-22,1.16,1.2,1.16,1.2,25000,0.95
2011-12-23,1.2,1.2,1.2,1.2,10000,0.95
2011-12-26,1.2,1.2,1.2,1.2,0,0.95
2011-12-27,1.2,1.2,1.2,1.2,0,0.95
2011-12-28,1.2,1.2,1.2,1.2,0,0.95
2011-12-29,1.2,1.2,1.2,1.2,0,0.95
2011-12-30,1.2,1.2,1.2,1.2,0,0.95
2012-01-02,1.2,1.2,1.2,1.2,0,0.95
2012-01-03,1.2,1.2,1.2,1.2,0,0.95
2012-01-04,1.25,1.25,1.25,1.25,21700,0.99
2012-01-05,1.25,1.25,1.25,1.25,10300,0.99
2012-01-06,1.25,1.27,1.25,1.27,23800,1.006
2012-01-09,1.28,1.35,1.26,1.3,56500,1.03
2012-01-10,1.32,1.35,1.32,1.35,7000,1.069
2012-01-11,1.35,1.35,1.35,1.35,0,1.069
2012-01-12,1.36,1.36,1.315,1.315,8500,1.042
2012-01-13,1.315,1.315,1.315,1.315,0,1.042
2012-01-16,1.38,1.4,1.38,1.4,65000,1.109
2012-01-17,1.4,1.5,1.4,1.5,52300,1.188
2012-01-18,1.45,1.46,1.45,1.46,10500,1.156
2012-01-19,1.46,1.46,1.46,1.46,0,1.156
2012-01-20,1.5,1.5,1.47,1.47,32500,1.1640000000000001
2012-01-23,1.48,1.48,1.48,1.48,500,1.172
2012-01-24,1.51,1.6,1.51,1.6,12700,1.2670000000000001
2012-01-25,1.625,1.7,1.625,1.7,12200,1.3459999999999999
2012-01-26,1.7,1.7,1.7,1.7,0,1.3459999999999999
2012-01-27,1.65,1.75,1.65,1.725,13700,1.3659999999999999
2012-01-30,1.66,1.66,1.65,1.65,8400,1.307
2012-01-31,1.65,1.7,1.6,1.7,16200,1.3459999999999999
2012-02-01,1.7,1.72,1.69,1.69,31700,1.339
2012-02-02,1.65,1.65,1.61,1.625,45600,1.287
2012-02-03,1.61,1.65,1.6,1.6,34000,1.2670000000000001
2012-02-06,1.7,1.75,1.7,1.74,72300,1.3780000000000001
2012-02-07,1.73,1.73,1.7,1.7,3300,1.3459999999999999
2012-02-08,1.7,1.7,1.7,1.7,15800,1.3459999999999999
2012-02-09,1.7,1.74,1.7,1.74,41700,1.3780000000000001
2012-02-10,1.68,1.68,1.68,1.68,1000,1.331
2012-02-13,1.7,1.7,1.7,1.7,12200,1.3459999999999999
2012-02-14,1.69,1.7,1.69,1.695,14100,1.3430000000000002
2012-02-15,1.695,1.695,1.695,1.695,5400,1.3430000000000002
2012-02-16,1.695,1.695,1.68,1.695,7100,1.3430000000000002
2012-02-17,1.7,1.7,1.66,1.66,30500,1.315
2012-02-20,1.66,1.695,1.66,1.695,29400,1.3430000000000002
2012-02-21,1.695,1.7,1.695,1.7,50900,1.3459999999999999
2012-02-22,1.7,1.74,1.7,1.74,71200,1.42
2012-02-23,1.74,1.74,1.735,1.74,4600,1.42
2012-02-24,1.75,1.75,1.74,1.74,1500,1.42
2012-02-27,1.75,1.75,1.7,1.7,50000,1.3869999999999998
2012-02-28,1.7,1.7,1.7,1.7,32900,1.3869999999999998
2012-02-29,1.7,1.74,1.7,1.74,11900,1.42
2012-03-01,1.74,1.75,1.74,1.75,19500,1.4280000000000002
2012-03-02,1.75,1.75,1.735,1.75,13700,1.4280000000000002
2012-03-05,1.75,1.75,1.75,1.75,0,1.4280000000000002
2012-03-06,1.795,1.8,1.795,1.795,7000,1.465
2012-03-07,1.795,1.8,1.79,1.79,16000,1.46
2012-03-08,1.79,1.8,1.77,1.8,17700,1.469
2012-03-09,1.8,1.8,1.75,1.8,80000,1.469
2012-03-12,1.8,1.85,1.8,1.85,9000,1.5090000000000001
2012-03-13,1.85,1.85,1.77,1.77,6600,1.444
2012-03-14,1.77,1.88,1.77,1.88,63200,1.534
2012-03-15,1.945,1.95,1.945,1.945,25600,1.587
2012-03-16,1.945,1.945,1.94,1.94,22200,1.5830000000000002
2012-03-19,1.94,1.94,1.94,1.94,0,1.5830000000000002
2012-03-20,1.99,2.0,1.94,1.94,27000,1.5830000000000002
2012-03-21,1.94,1.94,1.94,1.94,6000,1.5830000000000002
2012-03-22,1.94,1.95,1.94,1.95,21400,1.591
2012-03-23,1.95,1.95,1.93,1.95,25700,1.591
2012-03-26,1.9,1.95,1.9,1.95,1000,1.591
2012-03-27,1.92,1.95,1.92,1.95,10900,1.591
2012-03-28,1.92,1.92,1.92,1.92,8400,1.567
2012-03-29,1.92,1.94,1.92,1.94,2100,1.5830000000000002
2012-03-30,1.92,1.92,1.9,1.9,30300,1.55
2012-04-02,1.9,1.9,1.88,1.88,11700,1.534
2012-04-03,1.9,1.9,1.86,1.86,3200,1.518
2012-04-04,1.85,1.85,1.85,1.85,19000,1.5090000000000001
2012-04-05,1.85,1.85,1.8,1.8,31800,1.469
2012-04-06,1.8,1.8,1.8,1.8,0,1.469
2012-04-09,1.8,1.8,1.8,1.8,0,1.469
2012-04-10,1.8,1.8,1.8,1.8,12700,1.469
2012-04-11,1.8,1.8,1.8,1.8,0,1.469
2012-04-12,1.8,1.8,1.75,1.75,27000,1.4280000000000002
2012-04-13,1.78,1.78,1.78,1.78,2500,1.452
2012-04-16,1.8,1.8,1.8,1.8,14900,1.469
2012-04-17,1.82,1.83,1.78,1.78,18100,1.452
2012-04-18,1.72,1.75,1.72,1.75,11000,1.4280000000000002
2012-04-19,1.78,1.78,1.78,1.78,2800,1.452
2012-04-20,1.78,1.78,1.78,1.78,400,1.452
2012-04-23,1.78,1.78,1.78,1.78,300,1.452
2012-04-24,1.83,1.88,1.83,1.88,7200,1.534
2012-04-25,1.88,1.88,1.88,1.88,0,1.534
2012-04-26,1.88,1.88,1.84,1.84,10500,1.501
2012-04-27,1.84,1.84,1.84,1.84,0,1.501
2012-04-30,1.87,1.87,1.87,1.87,33300,1.526
2012-05-01,1.87,1.95,1.87,1.95,17600,1.591
2012-05-02,1.93,1.94,1.9,1.94,54000,1.5830000000000002
2012-05-03,1.94,1.94,1.94,1.94,0,1.5830000000000002
2012-05-04,1.85,1.85,1.765,1.85,54600,1.5090000000000001
2012-05-07,1.85,1.85,1.85,1.85,0,1.5090000000000001
2012-05-08,1.8,1.8,1.8,1.8,22000,1.469
2012-05-09,1.8,1.8,1.8,1.8,19900,1.469
2012-05-10,1.84,1.84,1.84,1.84,5000,1.501
2012-05-11,1.84,1.84,1.84,1.84,0,1.501
2012-05-14,1.84,1.84,1.84,1.84,0,1.501
2012-05-15,1.845,1.845,1.845,1.845,2000,1.505
2012-05-16,1.84,1.84,1.795,1.795,1500,1.465
2012-05-17,1.795,1.795,1.795,1.795,0,1.465
2012-05-18,1.795,1.795,1.75,1.76,41100,1.436
2012-05-21,1.765,1.795,1.765,1.795,4000,1.465
2012-05-22,1.795,1.8,1.795,1.8,2200,1.469
2012-05-23,1.8,1.8,1.8,1.8,2000,1.469
2012-05-24,1.765,1.765,1.765,1.765,2000,1.44
2012-05-25,1.765,1.765,1.765,1.765,2000,1.44
2012-05-28,1.765,1.765,1.765,1.765,0,1.44
2012-05-29,1.765,1.765,1.765,1.765,0,1.44
2012-05-30,1.765,1.765,1.765,1.765,0,1.44
2012-05-31,1.765,1.765,1.765,1.765,0,1.44
2012-06-01,1.78,1.78,1.74,1.74,19800,1.42
2012-06-04,1.74,1.76,1.74,1.76,25000,1.436
2012-06-05,1.76,1.76,1.76,1.76,0,1.436
2012-06-06,1.76,1.76,1.76,1.76,0,1.436
2012-06-07,1.76,1.8,1.745,1.8,53200,1.469
2012-06-08,1.8,1.8,1.8,1.8,0,1.469
2012-06-11,1.8,1.8,1.8,1.8,0,1.469
2012-06-12,1.725,1.725,1.7,1.7,53500,1.3869999999999998
2012-06-13,1.7,1.7,1.7,1.7,0,1.3869999999999998
2012-06-14,1.78,1.78,1.78,1.78,2500,1.452
2012-06-15,1.78,1.78,1.78,1.78,0,1.452
2012-06-18,1.78,1.78,1.78,1.78,0,1.452
2012-06-19,1.78,1.78,1.78,1.78,0,1.452
2012-06-20,1.78,1.78,1.78,1.78,10000,1.452
2012-06-21,1.735,1.735,1.735,1.735,3000,1.416
2012-06-22,1.735,1.735,1.735,1.735,0,1.416
2012-06-25,1.75,1.75,1.75,1.75,17500,1.4280000000000002
2012-06-26,1.725,1.725,1.725,1.725,13500,1.4069999999999998
2012-06-27,1.735,1.75,1.735,1.75,32300,1.4280000000000002
2012-06-28,1.78,1.78,1.78,1.78,10000,1.452
2012-06-29,1.765,1.765,1.765,1.765,2000,1.44
2012-07-02,1.78,1.78,1.78,1.78,6000,1.452
2012-07-03,1.78,1.79,1.78,1.79,17800,1.46
2012-07-04,1.75,1.75,1.74,1.74,31400,1.42
2012-07-05,1.78,1.78,1.78,1.78,2500,1.452
2012-07-06,1.75,1.78,1.75,1.78,13300,1.452
2012-07-09,1.78,1.78,1.78,1.78,29000,1.452
2012-07-10,1.78,1.79,1.78,1.79,16400,1.46
2012-07-11,1.78,1.79,1.78,1.78,25400,1.452
2012-07-12,1.79,1.795,1.79,1.795,16500,1.465
2012-07-13,1.79,1.79,1.79,1.79,10900,1.46
2012-07-16,1.78,1.81,1.78,1.81,32500,1.4769999999999999
2012-07-17,1.82,1.82,1.82,1.82,5800,1.485
2012-07-18,1.82,1.83,1.82,1.83,3200,1.493
2012-07-19,1.84,1.91,1.84,1.91,5300,1.558
2012-07-20,1.845,1.845,1.84,1.84,8500,1.501
2012-07-23,1.84,1.84,1.84,1.84,0,1.501
2012-07-24,1.82,1.84,1.785,1.84,21900,1.501
2012-07-25,1.84,1.85,1.84,1.85,8000,1.5090000000000001
2012-07-26,1.85,1.85,1.85,1.85,0,1.5090000000000001
2012-07-27,1.9,1.9,1.9,1.9,5000,1.55
2012-07-30,1.9,1.95,1.9,1.95,19900,1.591
2012-07-31,1.92,1.98,1.92,1.95,36600,1.591
2012-08-01,1.95,1.95,1.85,1.85,81500,1.5090000000000001
2012-08-02,1.85,1.87,1.85,1.85,152300,1.5090000000000001
2012-08-03,1.85,1.85,1.85,1.85,32400,1.5090000000000001
2012-08-06,1.85,1.85,1.85,1.85,29800,1.5090000000000001
2012-08-07,1.83,1.85,1.83,1.85,10800,1.5090000000000001
2012-08-08,1.86,1.86,1.8,1.8,14000,1.469
2012-08-09,1.83,1.83,1.83,1.83,5800,1.493
2012-08-10,1.9,1.915,1.895,1.9,33600,1.55
2012-08-13,1.9,1.9,1.9,1.9,28100,1.55
2012-08-14,1.9,1.9,1.9,1.9,112000,1.55
2012-08-15,1.9,1.9,1.9,1.9,56100,1.55
2012-08-16,1.9,1.96,1.9,1.96,25300,1.599
2012-08-17,1.945,1.945,1.945,1.945,5000,1.587
2012-08-20,1.99,1.99,1.95,1.95,30600,1.591
2012-08-21,1.95,1.95,1.95,1.95,5500,1.591
2012-08-22,2.05,2.09,2.04,2.05,187800,1.673
2012-08-23,2.06,2.09,2.06,2.09,16200,1.705
2012-08-24,2.09,2.09,2.08,2.09,27200,1.705
2012-08-27,2.25,2.25,2.12,2.12,46400,1.775
2012-08-28,2.14,2.19,2.14,2.19,55300,1.8330000000000002
2012-08-29,2.21,2.21,2.15,2.15,48700,1.8
2012-08-30,2.16,2.16,2.15,2.15,15800,1.8
2012-08-31,2.16,2.23,2.14,2.23,48900,1.867
2012-09-03,2.23,2.25,2.23,2.25,43000,1.8840000000000001
2012-09-04,2.24,2.24,2.21,2.21,14500,1.85
2012-09-05,2.24,2.24,2.24,2.24,10000,1.875
2012-09-06,2.29,2.29,2.25,2.25,20300,1.8840000000000001
2012-09-07,2.28,2.3,2.25,2.29,56200,1.9169999999999998
2012-09-10,2.3,2.31,2.25,2.3,112800,1.926
2012-09-11,2.3,2.3,2.28,2.3,26300,1.926
2012-09-12,2.3,2.35,2.3,2.34,41300,1.959
2012-09-13,2.35,2.41,2.35,2.41,164000,2.0180000000000002
2012-09-14,2.5,2.5,2.4,2.44,137100,2.043
2012-09-17,2.5,2.5,2.47,2.49,169300,2.085
2012-09-18,2.49,2.49,2.45,2.45,26400,2.051
2012-09-19,2.48,2.48,2.44,2.45,60800,2.051
2012-09-20,2.45,2.45,2.45,2.45,28500,2.051
2012-09-21,2.45,2.47,2.42,2.42,83900,2.026
2012-09-24,2.45,2.45,2.43,2.43,11000,2.0340000000000003
2012-09-25,2.41,2.45,2.39,2.42,75600,2.026
2012-09-26,2.45,2.45,2.4,2.4,20800,2.009
2012-09-27,2.41,2.42,2.4,2.41,13100,2.0180000000000002
2012-09-28,2.43,2.43,2.42,2.43,8200,2.0340000000000003
2012-10-01,2.43,2.43,2.39,2.39,5700,2.001
2012-10-02,2.4,2.4,2.38,2.38,6600,1.993
2012-10-03,2.38,2.42,2.38,2.42,31000,2.026
2012-10-04,2.41,2.41,2.4,2.4,7400,2.009
2012-10-05,2.39,2.42,2.39,2.4,62700,2.009
2012-10-08,2.4,2.41,2.35,2.36,35500,1.976
2012-10-09,2.36,2.36,2.23,2.24,63000,1.875
2012-10-10,2.24,2.3,2.24,2.3,68800,1.926
2012-10-11,2.3,2.35,2.3,2.35,1027800,1.9669999999999999
2012-10-12,2.34,2.36,2.31,2.34,86100,1.959
2012-10-15,2.39,2.39,2.39,2.39,1500,2.001
2012-10-16,2.4,2.4,2.4,2.4,2900,2.009
2012-10-17,2.4,2.4,2.37,2.4,37100,2.009
2012-10-18,2.4,2.43,2.4,2.4,92600,2.009
2012-10-19,2.39,2.4,2.3,2.4,427300,2.009
2012-10-22,2.4,2.4,2.38,2.38,17100,1.993
2012-10-23,2.37,2.4,2.34,2.38,35500,1.993
2012-10-24,2.39,2.4,2.35,2.35,30300,1.9669999999999999
2012-10-25,2.35,2.37,2.35,2.37,24400,1.984
2012-10-26,2.35,2.35,2.3,2.3,11000,1.926
2012-10-29,2.3,2.31,2.3,2.3,15200,1.926
2012-10-30,2.3,2.3,2.3,2.3,1600,1.926
2012-10-31,2.32,2.34,2.32,2.34,33100,1.959
2012-11-01,2.33,2.33,2.3,2.33,22400,1.9509999999999998
2012-11-02,2.33,2.35,2.33,2.35,19600,1.9669999999999999
2012-11-05,2.35,2.45,2.35,2.42,24900,2.026
2012-11-06,2.49,2.6,2.47,2.49,53500,2.085
2012-11-07,2.45,2.53,2.45,2.49,17000,2.085
2012-11-08,2.54,2.6,2.5,2.6,825000,2.177
2012-11-09,2.6,2.66,2.6,2.6,23400,2.177
2012-11-12,2.6,2.6,2.59,2.6,83300,2.177
2012-11-13,2.62,2.69,2.6,2.69,286900,2.252
2012-11-14,2.7,2.88,2.69,2.7,38700,2.26
2012-11-15,2.7,2.7,2.65,2.65,3300,2.219
2012-11-16,2.66,2.66,2.65,2.65,46900,2.219
2012-11-19,2.62,2.63,2.56,2.62,259500,2.193
2012-11-20,2.64,2.65,2.64,2.64,43100,2.21
2012-11-21,2.64,2.65,2.64,2.65,107800,2.219
2012-11-22,2.65,2.65,2.64,2.65,53300,2.219
2012-11-23,2.64,2.7,2.64,2.7,105500,2.26
2012-11-26,2.7,2.75,2.65,2.75,160000,2.302
2012-11-27,2.83,2.91,2.83,2.89,68500,2.419
2012-11-28,2.9,2.96,2.8,2.88,201100,2.411
2012-11-29,2.94,3.0,2.94,2.99,38500,2.503
2012-11-30,3.0,3.0,2.96,3.0,88400,2.512
2012-12-03,3.01,3.1,3.0,3.05,323400,2.553
2012-12-04,3.05,3.2,3.05,3.1,131900,2.595
2012-12-05,3.09,3.11,3.05,3.1,88800,2.595
2012-12-06,3.1,3.15,3.1,3.1,46000,2.595
2012-12-07,3.11,3.14,3.04,3.11,50300,2.6039999999999996
2012-12-10,3.13,3.14,3.04,3.05,92800,2.553
2012-12-11,3.09,3.11,3.06,3.1,208600,2.595
2012-12-12,3.1,3.14,3.1,3.1,49900,2.595
2012-12-13,3.11,3.25,3.1,3.24,69000,2.713
2012-12-14,3.24,3.47,3.15,3.47,61800,2.905
2012-12-17,3.46,3.47,3.41,3.42,37600,2.863
2012-12-18,3.37,3.4,3.26,3.26,25400,2.7289999999999996
2012-12-19,3.28,3.41,3.28,3.36,40900,2.813
2012-12-20,3.36,3.36,3.33,3.35,56500,2.805
2012-12-21,3.36,3.36,3.2,3.2,42500,2.679
2012-12-24,3.26,3.36,3.26,3.36,7200,2.813
2012-12-25,3.36,3.36,3.36,3.36,0,2.813
2012-12-26,3.36,3.36,3.36,3.36,0,2.813
2012-12-27,3.32,3.36,3.26,3.36,11600,2.813
2012-12-28,3.36,3.36,3.3,3.3,5300,2.763
2012-12-31,3.28,3.28,3.28,3.28,7100,2.7460000000000004
2013-01-01,3.28,3.28,3.28,3.28,0,2.7460000000000004
2013-01-02,3.28,3.35,3.28,3.35,42700,2.805
2013-01-03,3.4,3.44,3.4,3.4,71100,2.846
2013-01-04,3.42,3.47,3.41,3.42,28600,2.863
2013-01-07,3.48,3.55,3.45,3.45,65100,2.888
2013-01-08,3.47,3.51,3.45,3.45,37400,2.888
2013-01-09,3.48,3.48,3.41,3.41,6400,2.855
2013-01-10,3.43,3.43,3.33,3.36,28600,2.813
2013-01-11,3.47,3.5,3.37,3.5,22700,2.93
2013-01-14,3.48,3.48,3.4,3.46,19400,2.897
2013-01-15,3.46,3.48,3.44,3.46,46200,2.897
2013-01-16,3.46,3.49,3.46,3.48,16300,2.9130000000000003
2013-01-17,3.48,3.49,3.47,3.47,50200,2.905
2013-01-18,3.48,3.48,3.47,3.48,25200,2.9130000000000003
2013-01-21,3.47,3.48,3.45,3.48,30400,2.9130000000000003
2013-01-22,3.48,3.49,3.47,3.48,22300,2.9130000000000003
2013-01-23,3.48,3.48,3.47,3.47,15000,2.905
2013-01-24,3.47,3.47,3.45,3.46,20500,2.897
2013-01-25,3.44,3.55,3.14,3.49,164400,2.9219999999999997
2013-01-28,3.49,3.49,3.49,3.49,0,2.9219999999999997
2013-01-29,3.46,3.46,3.3,3.35,69700,2.805
2013-01-30,3.36,3.36,3.03,3.08,263900,2.5789999999999997
2013-01-31,3.07,3.43,3.07,3.39,323000,2.838
2013-02-01,3.35,3.39,3.35,3.38,1800,2.83
2013-02-04,3.38,3.48,3.38,3.45,47700,2.888
2013-02-05,3.4,3.43,3.32,3.35,25800,2.805
2013-02-06,3.33,3.34,3.2,3.25,34400,2.721
2013-02-07,3.25,3.31,3.25,3.31,15500,2.7710000000000004
2013-02-08,3.27,3.34,3.22,3.34,38300,2.7960000000000003
2013-02-11,3.34,3.52,3.33,3.5,83700,2.93
2013-02-12,3.5,3.53,3.5,3.53,13500,2.955
2013-02-13,3.5,3.5,3.33,3.4,55000,2.846
2013-02-14,3.34,3.5,3.3,3.5,92700,2.93
2013-02-15,3.48,3.5,3.4,3.5,46500,2.93
2013-02-18,3.47,3.49,3.45,3.49,15100,2.9219999999999997
2013-02-19,3.45,3.45,2.9,3.13,248700,2.62
2013-02-20,3.07,3.23,2.98,3.23,137600,2.7039999999999997
2013-02-21,3.23,3.29,3.13,3.22,47700,2.696
2013-02-22,3.23,3.26,3.2,3.2,4000,2.722
2013-02-25,3.0,3.05,2.75,3.02,89400,2.569
2013-02-26,3.03,3.2,2.99,3.2,109500,2.722
2013-02-27,3.1,3.3,3.1,3.3,139600,2.807
2013-02-28,3.25,3.63,3.25,3.63,238500,3.088
2013-03-01,3.56,3.56,3.45,3.45,6900,2.935
2013-03-04,3.4,3.4,3.3,3.31,10100,2.815
2013-03-05,3.3,3.3,3.3,3.3,19600,2.807
2013-03-06,3.3,3.3,3.3,3.3,0,2.807
2013-03-07,3.3,3.3,3.3,3.3,0,2.807
2013-03-08,3.3,3.3,3.2,3.2,12900,2.722
2013-03-11,3.14,3.15,3.12,3.12,26600,2.654
2013-03-12,3.15,3.15,3.13,3.14,15800,2.6710000000000003
2013-03-13,3.06,3.06,2.91,2.99,119600,2.543
2013-03-14,2.99,3.05,2.94,3.05,87200,2.594
2013-03-15,3.06,3.12,3.06,3.08,537200,2.62
2013-03-18,3.08,3.13,3.08,3.09,62900,2.628
2013-03-19,3.08,3.08,3.0,3.05,67600,2.594
2013-03-20,3.05,3.05,3.0,3.0,18800,2.552
2013-03-21,3.0,3.1,2.99,3.1,58400,2.637
2013-03-22,3.05,3.05,3.0,3.05,16200,2.594
2013-03-25,3.0,3.05,3.0,3.05,6700,2.594
2013-03-26,3.05,3.05,3.05,3.05,47200,2.594
2013-03-27,3.1,3.25,3.1,3.25,73200,2.764
2013-03-28,3.27,3.3,3.25,3.25,103800,2.764
2013-03-29,3.25,3.25,3.25,3.25,0,2.764
2013-04-01,3.25,3.25,3.25,3.25,0,2.764
2013-04-02,3.06,3.08,3.04,3.08,24700,2.62
2013-04-03,3.08,3.08,3.05,3.05,37200,2.594
2013-04-04,3.05,3.08,3.02,3.02,26200,2.569
2013-04-05,3.02,3.02,3.02,3.02,0,2.569
2013-04-08,3.02,3.02,2.99,3.0,7800,2.552
2013-04-09,3.0,3.02,3.0,3.02,116800,2.569
2013-04-10,3.0,3.0,3.0,3.0,1500,2.552
2013-04-11,3.02,3.02,3.0,3.0,1800,2.552
2013-04-12,3.0,3.09,3.0,3.09,73200,2.628
2013-04-15,3.0,3.0,3.0,3.0,500,2.552
2013-04-16,3.0,3.0,3.0,3.0,5000,2.552
2013-04-17,3.0,3.0,3.0,3.0,157500,2.552
2013-04-18,3.01,3.03,3.0,3.0,503800,2.552
2013-04-19,3.0,3.1,3.0,3.1,116200,2.637
2013-04-22,3.1,3.1,3.1,3.1,0,2.637
2013-04-23,3.1,3.15,3.1,3.15,17300,2.679
2013-04-24,3.15,3.15,3.15,3.15,0,2.679
2013-04-25,3.15,3.15,3.15,3.15,0,2.679
2013-04-26,3.1,3.1,3.09,3.09,2400,2.628
2013-04-29,3.06,3.13,3.06,3.13,41900,2.662
2013-04-30,3.13,3.25,3.12,3.25,76200,2.764
2013-05-01,3.25,3.25,3.1,3.1,14200,2.637
2013-05-02,3.1,3.1,3.08,3.08,9200,2.62
2013-05-03,3.1,3.1,3.08,3.08,258000,2.62
2013-05-06,3.08,3.1,3.08,3.08,64100,2.62
2013-05-07,3.08,3.08,3.08,3.08,500,2.62
2013-05-08,3.08,3.08,3.07,3.07,41300,2.611
2013-05-09,3.1,3.12,3.1,3.12,16500,2.654
2013-05-10,3.13,3.13,3.13,3.13,471100,2.662
2013-05-13,3.11,3.11,3.08,3.11,4200,2.645
2013-05-14,3.08,3.11,3.08,3.11,7000,2.645
2013-05-15,3.08,3.08,3.08,3.08,3000,2.62
2013-05-16,3.08,3.08,3.08,3.08,5000,2.62
2013-05-17,3.08,3.08,3.08,3.08,16300,2.62
2013-05-20,3.08,3.11,3.08,3.11,20000,2.645
2013-05-21,3.11,3.11,3.09,3.1,14500,2.637
2013-05-22,3.1,3.11,3.1,3.11,16200,2.645
2013-05-23,3.11,3.11,3.09,3.09,46500,2.628
2013-05-24,3.11,3.12,3.08,3.12,31600,2.654
2013-05-27,3.08,3.08,3.08,3.08,265600,2.62
2013-05-28,3.1,3.1,3.1,3.1,5000,2.637
2013-05-29,3.1,3.11,3.1,3.11,1600,2.645
2013-05-30,3.11,3.11,3.1,3.1,6500,2.637
2013-05-31,3.1,3.17,3.1,3.17,72500,2.696
2013-06-03,3.15,3.15,3.1,3.1,8700,2.637
2013-06-04,3.1,3.1,3.1,3.1,0,2.637
2013-06-05,3.12,3.12,3.1,3.1,2500,2.637
2013-06-06,3.08,3.08,3.0,3.04,199200,2.5860000000000003
2013-06-07,3.1,3.1,3.0,3.07,815900,2.611
2013-06-10,3.07,3.07,3.07,3.07,0,2.611
2013-06-11,3.09,3.09,3.09,3.09,5800,2.628
2013-06-12,3.08,3.08,3.08,3.08,2400,2.62
2013-06-13,3.08,3.08,3.08,3.08,0,2.62
2013-06-14,3.07,3.07,3.07,3.07,1600,2.611
2013-06-17,3.05,3.05,3.0,3.0,13800,2.552
2013-06-18,2.97,2.97,2.97,2.97,2000,2.526
2013-06-19,2.97,2.97,2.97,2.97,1400,2.526
2013-06-20,2.97,2.97,2.97,2.97,0,2.526
2013-06-21,2.98,2.98,2.96,2.96,3000,2.5180000000000002
2013-06-24,2.96,2.96,2.96,2.96,0,2.5180000000000002
2013-06-25,2.98,3.02,2.9,3.02,185600,2.569
2013-06-26,3.02,3.02,3.02,3.02,0,2.569
2013-06-27,2.99,3.02,2.99,3.02,219400,2.569
2013-06-28,3.01,3.01,3.0,3.0,16900,2.552
2013-07-01,3.0,3.0,2.88,2.88,30300,2.45
2013-07-02,2.88,2.88,2.78,2.78,30600,2.365
2013-07-03,2.77,2.77,2.7,2.71,19000,2.305
2013-07-04,2.7,2.7,2.7,2.7,4600,2.2969999999999997
2013-07-05,2.7,2.74,2.7,2.74,28800,2.331
2013-07-08,2.78,2.78,2.7,2.7,19500,2.2969999999999997
2013-07-09,2.7,2.7,2.7,2.7,0,2.2969999999999997
2013-07-10,2.88,2.88,2.82,2.82,7000,2.399
2013-07-11,2.88,2.9,2.88,2.9,9200,2.467
2013-07-12,2.9,2.9,2.85,2.85,9100,2.424
2013-07-15,2.9,2.9,2.9,2.9,16600,2.467
2013-07-16,2.9,2.9,2.85,2.85,537300,2.424
2013-07-17,2.85,2.85,2.85,2.85,500,2.424
2013-07-18,2.92,2.92,2.9,2.9,4300,2.467
2013-07-19,2.9,2.9,2.88,2.88,51000,2.45
2013-07-22,2.9,2.9,2.9,2.9,220600,2.467
2013-07-23,2.9,2.91,2.88,2.89,50500,2.458
2013-07-24,2.89,2.89,2.89,2.89,0,2.458
2013-07-25,2.9,2.9,2.9,2.9,13500,2.467
2013-07-26,2.89,2.89,2.88,2.88,27900,2.45
2013-07-29,2.85,2.9,2.85,2.9,246000,2.467
2013-07-30,2.94,2.94,2.94,2.94,500,2.501
2013-07-31,2.9,2.91,2.9,2.9,28100,2.467
2013-08-01,2.9,2.9,2.8,2.85,95000,2.424
2013-08-02,2.82,2.82,2.82,2.82,2500,2.399
2013-08-05,2.86,2.9,2.85,2.9,13400,2.467
2013-08-06,2.88,2.88,2.88,2.88,13000,2.45
2013-08-07,2.86,2.89,2.86,2.89,14800,2.458
2013-08-08,2.88,2.88,2.88,2.88,4000,2.45
2013-08-09,2.88,2.9,2.86,2.86,18200,2.4330000000000003
2013-08-12,2.86,2.86,2.86,2.86,0,2.4330000000000003
2013-08-13,2.87,2.88,2.86,2.87,17900,2.441
2013-08-14,2.89,2.9,2.89,2.9,19000,2.467
2013-08-15,2.9,2.9,2.9,2.9,124200,2.467
2013-08-16,2.9,2.9,2.9,2.9,0,2.467
2013-08-19,2.96,3.05,2.96,3.05,7300,2.594
2013-08-20,3.25,3.3,3.21,3.26,132100,2.773
2013-08-21,3.26,3.26,3.24,3.25,96200,2.764
2013-08-22,3.26,3.26,3.22,3.24,7500,2.7560000000000002
2013-08-23,3.25,3.26,3.23,3.23,17100,2.747
2013-08-26,3.26,3.26,3.22,3.22,64500,2.802
2013-08-27,3.24,3.36,3.24,3.36,1035600,2.924
2013-08-28,3.41,3.41,3.37,3.37,35200,2.9330000000000003
2013-08-29,3.35,3.4,3.31,3.37,48500,2.9330000000000003
2013-08-30,3.38,3.38,3.35,3.37,18300,2.9330000000000003
2013-09-02,3.4,3.4,3.36,3.36,15300,2.924
2013-09-03,3.36,3.36,3.3,3.3,23300,2.872
2013-09-04,3.35,3.35,3.32,3.32,4000,2.889
2013-09-05,3.32,3.32,3.3,3.3,9100,2.872
2013-09-06,3.38,3.4,3.38,3.4,6600,2.9589999999999996
2013-09-09,3.42,3.6,3.42,3.52,24000,3.063
2013-09-10,3.58,3.58,3.54,3.58,15500,3.115
2013-09-11,3.56,3.56,3.51,3.51,17800,3.054
2013-09-12,3.57,3.58,3.57,3.58,4900,3.115
2013-09-13,3.6,3.7,3.6,3.7,42000,3.22
2013-09-16,3.7,3.72,3.6,3.61,27400,3.141
2013-09-17,3.65,3.65,3.59,3.59,319000,3.1239999999999997
2013-09-18,3.59,3.59,3.55,3.55,1200,3.089
2013-09-19,3.56,3.56,3.55,3.55,4000,3.089
2013-09-20,3.56,3.72,3.56,3.71,8900,3.2289999999999996
2013-09-23,3.7,3.7,3.67,3.67,7300,3.194
2013-09-24,3.7,3.7,3.7,3.7,6900,3.22
2013-09-25,3.7,3.78,3.7,3.77,44300,3.281
2013-09-26,3.75,3.75,3.66,3.75,14200,3.263
2013-09-27,3.75,3.81,3.7,3.8,119000,3.307
2013-09-30,3.88,3.99,3.88,3.88,30300,3.3760000000000003
2013-10-01,3.92,3.99,3.92,3.98,6100,3.463
2013-10-02,3.96,4.1,3.96,3.97,27000,3.455
2013-10-03,3.97,4.01,3.94,3.94,11200,3.429
2013-10-04,3.9,3.9,3.89,3.9,91900,3.3939999999999997
2013-10-07,3.94,3.95,3.9,3.95,29800,3.437
2013-10-08,3.9,3.9,3.81,3.9,13600,3.3939999999999997
2013-10-09,3.9,3.9,3.75,3.85,6600,3.35
2013-10-10,3.87,3.87,3.73,3.73,6600,3.2460000000000004
2013-10-11,3.83,3.86,3.83,3.86,9100,3.359
2013-10-14,3.83,3.83,3.75,3.82,10900,3.324
2013-10-15,3.73,3.73,3.72,3.72,6000,3.237
2013-10-16,3.77,3.85,3.77,3.85,5600,3.35
2013-10-17,3.85,3.85,3.75,3.77,11600,3.281
2013-10-18,3.77,3.77,3.75,3.75,5300,3.263
2013-10-21,3.77,3.8,3.72,3.72,14900,3.237
2013-10-22,3.72,3.83,3.72,3.83,56600,3.333
2013-10-23,3.83,3.85,3.79,3.79,118700,3.298
2013-10-24,3.83,3.83,3.79,3.83,323700,3.333
2013-10-25,3.83,3.87,3.83,3.83,134200,3.333
2013-10-28,3.86,3.9,3.85,3.9,5900,3.3939999999999997
2013-10-29,3.9,3.95,3.9,3.94,15100,3.429
2013-10-30,3.94,3.95,3.92,3.92,13900,3.411
2013-10-31,3.97,4.0,3.92,3.98,88000,3.463
2013-11-01,4.0,4.1,3.98,4.0,26200,3.4810000000000003
2013-11-04,4.0,4.0,3.95,4.0,28200,3.4810000000000003
2013-11-05,4.0,4.0,3.95,3.95,13800,3.437
2013-11-06,3.93,3.95,3.85,3.9,38400,3.3939999999999997
2013-11-07,3.95,3.99,3.95,3.98,7100,3.463
2013-11-08,3.98,3.98,3.94,3.98,255500,3.463
2013-11-11,3.98,3.98,3.94,3.94,125100,3.429
2013-11-12,3.95,3.95,3.95,3.95,79700,3.437
2013-11-13,3.99,4.0,3.99,4.0,632600,3.4810000000000003
2013-11-14,4.05,4.18,4.05,4.15,451200,3.611
2013-11-15,4.15,4.25,4.15,4.25,16800,3.698
2013-11-18,4.25,4.35,4.2,4.2,115600,3.655
2013-11-19,4.2,4.2,4.15,4.15,6900,3.611
2013-11-20,4.13,4.15,4.13,4.14,2500,3.603
2013-11-21,4.14,4.15,4.14,4.15,14100,3.611
2013-11-22,4.2,4.25,4.2,4.2,324700,3.655
2013-11-25,4.25,4.25,4.2,4.2,17000,3.655
2013-11-26,4.2,4.25,4.2,4.25,12700,3.698
2013-11-27,4.24,4.24,4.2,4.2,16500,3.655
2013-11-28,4.24,4.24,4.2,4.24,10500,3.69
2013-11-29,4.24,4.25,4.24,4.25,13400,3.698
2013-12-02,4.2,4.23,4.2,4.2,34800,3.655
2013-12-03,4.2,4.21,4.2,4.21,27000,3.6639999999999997
2013-12-04,4.2,4.21,4.2,4.2,13100,3.655
2013-12-05,4.2,4.2,4.2,4.2,1900,3.655
2013-12-06,4.2,4.21,4.2,4.21,27100,3.6639999999999997
2013-12-09,4.12,4.12,4.0,4.0,40300,3.4810000000000003
2013-12-10,4.0,4.05,4.0,4.03,130400,3.5069999999999997
2013-12-11,4.02,4.03,4.0,4.01,30400,3.49
2013-12-12,4.0,4.04,3.91,3.95,34000,3.437
2013-12-13,3.95,3.96,3.92,3.95,65400,3.437
2013-12-16,3.95,3.97,3.95,3.97,17000,3.455
2013-12-17,3.97,3.97,3.97,3.97,0,3.455
2013-12-18,3.95,4.0,3.95,3.95,6900,3.437
2013-12-19,4.0,4.05,3.95,4.02,22300,3.498
2013-12-20,3.7,3.7,3.16,3.26,365300,2.8369999999999997
2013-12-23,3.26,3.34,3.26,3.29,26800,2.863
2013-12-24,3.38,3.38,3.26,3.33,21500,2.898
2013-12-25,3.33,3.33,3.33,3.33,0,2.898
2013-12-26,3.33,3.33,3.33,3.33,0,2.898
2013-12-27,3.33,3.38,3.31,3.32,13100,2.889
2013-12-30,3.32,3.33,3.3,3.32,5000,2.889
2013-12-31,3.32,3.32,3.3,3.3,1500,2.872
2014-01-01,3.3,3.3,3.3,3.3,0,2.872
2014-01-02,3.31,3.39,3.31,3.39,102700,2.95
2014-01-03,3.39,3.4,3.36,3.36,7900,2.924
2014-01-06,3.4,3.4,3.38,3.38,2300,2.9410000000000003
2014-01-07,3.4,3.43,3.38,3.38,4700,2.9410000000000003
2014-01-08,3.4,3.44,3.38,3.38,12300,2.9410000000000003
2014-01-09,3.38,3.38,3.31,3.31,9200,2.88
2014-01-10,3.32,3.32,3.3,3.3,5300,2.872
2014-01-13,3.32,3.39,3.32,3.33,7400,2.898
2014-01-14,3.33,3.33,3.33,3.33,3400,2.898
2014-01-15,3.35,3.35,3.33,3.35,80100,2.915
2014-01-16,3.39,3.45,3.37,3.4,72600,2.9589999999999996
2014-01-17,3.41,3.51,3.41,3.51,19900,3.054
2014-01-20,3.56,3.7,3.56,3.7,62600,3.22
2014-01-21,3.7,3.7,3.6,3.61,8000,3.141
2014-01-22,3.61,3.61,3.6,3.6,10600,3.133
2014-01-23,3.6,3.65,3.6,3.65,1600,3.176
2014-01-24,3.65,3.65,3.65,3.65,0,3.176
2014-01-27,3.65,3.65,3.65,3.65,0,3.176
2014-01-28,3.65,3.65,3.45,3.48,22300,3.028
2014-01-29,3.55,3.6,3.48,3.59,12200,3.1239999999999997
2014-01-30,3.59,3.59,3.59,3.59,0,3.1239999999999997
2014-01-31,3.5,3.5,3.48,3.48,39900,3.028
2014-02-03,3.48,3.48,3.45,3.45,57100,3.002
2014-02-04,3.45,3.45,3.42,3.45,2300,3.002
2014-02-05,3.42,3.49,3.38,3.4,116200,2.9589999999999996
2014-02-06,3.4,3.4,3.4,3.4,4500,2.9589999999999996
2014-02-07,3.4,3.4,3.39,3.4,13500,2.9589999999999996
2014-02-10,3.39,3.39,3.39,3.39,1200,2.95
2014-02-11,3.39,3.39,3.39,3.39,10500,2.95
2014-02-12,3.39,3.39,3.39,3.39,12300,2.95
2014-02-13,3.39,3.39,3.32,3.32,13400,2.889
2014-02-14,3.32,3.35,3.3,3.35,13700,2.915
2014-02-17,3.35,3.35,3.3,3.35,10700,2.915
2014-02-18,3.35,3.35,3.26,3.26,109200,2.8369999999999997
2014-02-19,3.25,3.25,3.18,3.18,60100,2.767
2014-02-20,3.15,3.2,3.11,3.18,60400,2.767
2014-02-21,3.18,3.2,3.12,3.12,64900,2.761
2014-02-24,3.14,3.14,3.12,3.13,17000,2.77
2014-02-25,3.13,3.15,3.1,3.15,23000,2.7880000000000003
2014-02-26,3.15,3.15,3.15,3.15,6600,2.7880000000000003
2014-02-27,3.12,3.12,3.11,3.11,59200,2.753
2014-02-28,3.11,3.11,3.01,3.01,41800,2.6639999999999997
2014-03-03,3.02,3.08,3.02,3.05,21500,2.699
2014-03-04,3.05,3.08,3.05,3.08,15400,2.7260000000000004
2014-03-05,3.08,3.08,3.05,3.05,21500,2.699
2014-03-06,3.02,3.03,3.0,3.03,72600,2.682
2014-03-07,2.97,3.0,2.97,2.99,35200,2.6460000000000004
2014-03-10,3.0,3.08,3.0,3.04,171800,2.6910000000000003
2014-03-11,3.07,3.07,3.05,3.05,24000,2.699
2014-03-12,3.06,3.06,3.03,3.03,28700,2.682
2014-03-13,3.03,3.05,3.03,3.05,9100,2.699
2014-03-14,3.14,3.15,3.1,3.15,14500,2.7880000000000003
2014-03-17,3.21,3.38,3.21,3.38,20600,2.991
2014-03-18,3.44,3.44,3.3,3.38,34900,2.991
2014-03-19,3.32,3.38,3.3,3.3,5600,2.9210000000000003
2014-03-20,3.31,3.31,3.3,3.3,5800,2.9210000000000003
2014-03-21,3.3,3.31,3.28,3.29,7000,2.912
2014-03-24,3.35,3.4,3.35,3.39,22800,3.0
2014-03-25,3.39,3.4,3.39,3.4,203000,3.009
2014-03-26,3.41,3.41,3.41,3.41,10100,3.0180000000000002
2014-03-27,3.41,3.41,3.41,3.41,0,3.0180000000000002
2014-03-28,3.4,3.43,3.38,3.43,4500,3.036
2014-03-31,3.4,3.46,3.4,3.46,10300,3.062
2014-04-01,3.46,3.5,3.46,3.5,5200,3.0980000000000003
2014-04-02,3.5,3.64,3.5,3.6,69500,3.1860000000000004
2014-04-03,3.58,3.6,3.58,3.6,3300,3.1860000000000004
2014-04-04,3.7,3.8,3.7,3.8,14400,3.363
2014-04-07,3.8,3.8,3.62,3.78,38500,3.345
2014-04-08,3.68,3.74,3.68,3.7,33200,3.275
2014-04-09,3.735,3.77,3.735,3.77,800,3.3369999999999997
2014-04-10,3.77,3.77,3.72,3.75,1700,3.319
2014-04-11,3.735,3.75,3.72,3.75,3300,3.319
2014-04-14,3.7,3.73,3.68,3.73,6300,3.301
2014-04-15,3.73,3.75,3.68,3.72,3400,3.292
2014-04-16,3.7,3.75,3.7,3.75,23500,3.319
2014-04-17,3.72,3.75,3.7,3.75,276900,3.319
2014-04-18,3.75,3.75,3.75,3.75,0,3.319
2014-04-21,3.75,3.75,3.75,3.75,0,3.319
2014-04-22,3.75,3.75,3.7,3.75,6500,3.319
2014-04-23,3.75,3.75,3.7,3.7,6800,3.275
2014-04-24,3.7,3.7,3.7,3.7,500,3.275
2014-04-25,3.7,3.7,3.7,3.7,0,3.275
2014-04-28,3.6,3.6,3.6,3.6,900,3.1860000000000004
2014-04-29,3.6,3.6,3.55,3.55,3600,3.142
2014-04-30,3.52,3.55,3.52,3.55,17000,3.142
2014-05-01,3.55,3.55,3.55,3.55,0,3.142
2014-05-02,3.55,3.55,3.55,3.55,8000,3.142
2014-05-05,3.55,3.6,3.55,3.55,23100,3.142
2014-05-06,3.55,3.55,3.55,3.55,0,3.142
2014-05-07,3.4,3.5,3.4,3.5,2400,3.0980000000000003
2014-05-08,3.5,3.5,3.5,3.5,0,3.0980000000000003
2014-05-09,3.41,3.48,3.4,3.48,6000,3.08
2014-05-12,3.4,3.48,3.4,3.48,9600,3.08
2014-05-13,3.44,3.44,3.3,3.39,3200,3.0
2014-05-14,3.3,3.33,3.26,3.33,33200,2.947
2014-05-15,3.33,3.33,3.33,3.33,1300,2.947
2014-05-16,3.42,3.42,3.35,3.35,56000,2.965
2014-05-19,3.34,3.34,3.34,3.34,7400,2.9560000000000004
2014-05-20,3.29,3.29,3.29,3.29,800,2.912
2014-05-21,3.35,3.35,3.33,3.33,8700,2.947
2014-05-22,3.35,3.35,3.22,3.35,20600,2.965
2014-05-23,3.31,3.35,3.31,3.35,1200,2.965
2014-05-26,3.41,3.41,3.38,3.41,21700,3.0180000000000002
2014-05-27,3.41,3.41,3.41,3.41,2500,3.0180000000000002
2014-05-28,3.41,3.41,3.39,3.4,11400,3.009
2014-05-29,3.41,3.41,3.4,3.41,124200,3.0180000000000002
2014-05-30,3.44,3.44,3.4,3.4,200,3.009
2014-06-02,3.4,3.44,3.39,3.39,27700,3.0
2014-06-03,3.39,3.39,3.38,3.38,5500,2.991
2014-06-04,3.38,3.38,3.35,3.35,10200,2.965
2014-06-05,3.35,3.37,3.35,3.35,4600,2.965
2014-06-06,3.22,3.35,3.22,3.34,13800,2.9560000000000004
2014-06-09,3.34,3.34,3.34,3.34,0,2.9560000000000004
2014-06-10,3.29,3.29,3.23,3.23,14600,2.859
2014-06-11,3.23,3.23,3.17,3.18,4500,2.8139999999999996
2014-06-12,3.12,3.12,3.0,3.05,45000,2.699
2014-06-13,3.08,3.08,3.05,3.05,6300,2.699
2014-06-16,3.05,3.05,3.0,3.03,7900,2.682
2014-06-17,3.03,3.1,3.0,3.01,4800,2.6639999999999997
2014-06-18,3.06,3.06,3.06,3.06,2000,2.708
2014-06-19,3.1,3.1,3.1,3.1,1500,2.7439999999999998
2014-06-20,3.14,3.14,3.14,3.14,800,2.779
2014-06-23,3.19,3.25,3.19,3.25,800,2.8760000000000003
2014-06-24,3.25,3.35,3.2,3.35,11300,2.965
2014-06-25,3.35,3.35,3.35,3.35,10600,2.965
2014-06-26,3.34,3.34,3.27,3.27,418100,2.8939999999999997
2014-06-27,3.27,3.27,3.27,3.27,257600,2.8939999999999997
2014-06-30,3.27,3.28,3.15,3.15,6300,2.7880000000000003
2014-07-01,3.15,3.15,3.15,3.15,0,2.7880000000000003
2014-07-02,3.15,3.15,3.1,3.1,3000,2.7439999999999998
2014-07-03,3.17,3.18,3.17,3.18,1400,2.8139999999999996
2014-07-04,3.21,3.21,3.06,3.06,202200,2.708
2014-07-07,3.1,3.1,3.06,3.06,2600,2.708
2014-07-08,3.07,3.07,3.05,3.05,7200,2.699
2014-07-09,3.1,3.1,3.06,3.06,3900,2.708
2014-07-10,3.06,3.06,3.06,3.06,1500,2.708
2014-07-11,3.06,3.1,3.05,3.1,4700,2.7439999999999998
2014-07-14,3.15,3.15,3.15,3.15,3900,2.7880000000000003
2014-07-15,3.24,3.24,3.15,3.15,3900,2.7880000000000003
2014-07-16,3.16,3.17,3.15,3.17,18200,2.806
2014-07-17,3.16,3.16,3.15,3.15,1300,2.7880000000000003
2014-07-18,3.15,3.15,3.09,3.09,41600,2.735
2014-07-21,3.09,3.09,3.09,3.09,8200,2.735
2014-07-22,3.09,3.09,3.09,3.09,0,2.735
2014-07-23,3.09,3.09,3.09,3.09,0,2.735
2014-07-24,3.1,3.1,3.03,3.07,45200,2.717
2014-07-25,3.07,3.07,3.07,3.07,8400,2.717
2014-07-28,3.07,3.07,3.05,3.07,13300,2.717
2014-07-29,3.05,3.1,3.03,3.03,16100,2.682
2014-07-30,3.04,3.05,3.03,3.05,6000,2.699
2014-07-31,3.05,3.15,3.05,3.15,29100,2.7880000000000003
2014-08-01,3.15,3.15,3.15,3.15,9900,2.7880000000000003
2014-08-04,3.12,3.12,3.1,3.1,23700,2.7439999999999998
2014-08-05,3.1,3.1,3.1,3.1,0,2.7439999999999998
2014-08-06,3.04,3.07,3.03,3.07,6100,2.717
2014-08-07,3.04,3.04,3.04,3.04,5000,2.6910000000000003
2014-08-08,3.07,3.07,3.03,3.03,22000,2.682
2014-08-11,3.0,3.03,3.0,3.03,5000,2.682
2014-08-12,3.03,3.03,3.0,3.0,4400,2.655
2014-08-13,3.03,3.04,3.0,3.0,4200,2.655
2014-08-14,3.0,3.04,2.95,2.95,5700,2.611
2014-08-15,2.95,2.95,2.95,2.95,0,2.611
2014-08-18,3.03,3.03,2.95,2.95,12600,2.611
2014-08-19,3.01,3.01,2.63,2.67,744100,2.363
2014-08-20,2.74,2.9,2.7,2.7,576700,2.39
2014-08-21,2.76,2.76,2.74,2.75,69100,2.434
2014-08-22,2.75,2.82,2.75,2.8,82100,2.478
2014-08-25,2.81,2.85,2.81,2.85,15400,2.522
2014-08-26,2.9,2.9,2.76,2.79,22300,2.515
2014-08-27,2.79,2.9,2.79,2.8,39800,2.524
2014-08-28,2.85,2.92,2.85,2.92,34100,2.6319999999999997
2014-08-29,2.95,3.1,2.95,3.01,18000,2.713
2014-09-01,3.15,3.15,3.08,3.08,11200,2.7760000000000002
2014-09-02,3.09,3.11,3.08,3.09,30400,2.785
2014-09-03,3.09,3.09,3.09,3.09,600,2.785
2014-09-04,3.09,3.09,3.09,3.09,0,2.785
2014-09-05,3.06,3.06,3.0,3.0,21000,2.7039999999999997
2014-09-08,3.0,3.0,2.96,2.97,7100,2.677
2014-09-09,3.0,3.0,2.97,3.0,4200,2.7039999999999997
2014-09-10,2.96,2.96,2.96,2.96,3900,2.668
2014-09-11,2.95,2.95,2.85,2.85,46600,2.569
2014-09-12,2.84,2.84,2.84,2.84,3400,2.56
2014-09-15,2.84,2.9,2.84,2.88,7300,2.596
2014-09-16,2.84,2.84,2.75,2.75,12500,2.479
2014-09-17,2.79,2.79,2.75,2.76,8900,2.488
2014-09-18,2.79,2.85,2.79,2.85,19800,2.569
2014-09-19,2.92,2.95,2.8,2.8,7300,2.524
2014-09-22,2.8,2.8,2.8,2.8,700,2.524
2014-09-23,2.83,2.83,2.82,2.82,15500,2.542
2014-09-24,2.82,2.82,2.82,2.82,1700,2.542
2014-09-25,2.82,2.82,2.77,2.79,29700,2.515
2014-09-26,2.79,2.85,2.75,2.75,7600,2.479
2014-09-29,2.75,2.77,2.75,2.76,25800,2.488
2014-09-30,2.79,2.8,2.79,2.8,1100,2.524
2014-10-01,2.75,2.79,2.71,2.79,4900,2.515
2014-10-02,2.79,2.79,2.79,2.79,10700,2.515
2014-10-03,2.79,2.79,2.79,2.79,0,2.515
2014-10-06,2.71,2.75,2.7,2.7,10200,2.434
2014-10-07,2.75,2.8,2.75,2.8,146300,2.524
2014-10-08,2.76,2.89,2.7,2.88,18400,2.596
2014-10-09,2.88,2.9,2.88,2.9,5700,2.614
2014-10-10,2.88,2.88,2.8,2.8,1200,2.524
2014-10-13,2.8,2.8,2.8,2.8,0,2.524
2014-10-14,2.8,2.8,2.8,2.8,0,2.524
2014-10-15,2.8,2.8,2.75,2.75,6600,2.479
2014-10-16,2.8,2.8,2.8,2.8,4900,2.524
2014-10-17,2.88,2.88,2.8,2.88,1900,2.596
2014-10-20,2.8,2.88,2.8,2.88,5200,2.596
2014-10-21,2.88,2.88,2.88,2.88,0,2.596
2014-10-22,2.88,2.88,2.8,2.8,900,2.524
2014-10-23,2.68,2.69,2.68,2.68,14200,2.416
2014-10-24,2.7,2.79,2.69,2.69,14300,2.425
2014-10-27,2.7,2.72,2.7,2.7,21600,2.434
2014-10-28,2.71,2.75,2.7,2.72,9900,2.452
2014-10-29,2.71,2.84,2.71,2.73,2900,2.461
2014-10-30,2.75,2.75,2.69,2.74,5000,2.47
2014-10-31,2.74,2.74,2.74,2.74,0,2.47
2014-11-03,2.74,2.74,2.73,2.73,5200,2.461
2014-11-04,2.8,2.8,2.79,2.8,7200,2.524
2014-11-05,2.74,2.75,2.73,2.73,2900,2.461
2014-11-06,2.73,2.73,2.73,2.73,156300,2.461
2014-11-07,2.69,2.69,2.64,2.67,4800,2.407
2014-11-10,2.65,2.65,2.64,2.64,400,2.38
2014-11-11,2.64,2.64,2.64,2.64,0,2.38
2014-11-12,2.58,2.58,2.51,2.51,127300,2.263
2014-11-13,2.5,2.51,2.45,2.5,16900,2.254
2014-11-14,2.5,2.5,2.48,2.49,20100,2.244
2014-11-17,2.48,2.48,2.48,2.48,200,2.235
2014-11-18,2.48,2.49,2.45,2.45,6000,2.208
2014-11-19,2.41,2.43,2.32,2.34,28400,2.109
2014-11-20,2.34,2.35,2.25,2.25,50800,2.028
2014-11-21,2.24,2.24,2.12,2.2,132400,1.983
2014-11-24,2.17,2.2,2.1,2.11,331700,1.902
2014-11-25,2.11,2.11,2.1,2.1,10000,1.893
2014-11-26,2.05,2.08,2.03,2.05,14100,1.848
2014-11-27,2.05,2.11,1.9,2.11,54700,1.902
2014-11-28,2.18,2.24,2.15,2.24,105600,2.019
2014-12-01,2.15,2.15,2.15,2.15,6100,1.9380000000000002
2014-12-02,2.17,2.2,2.17,2.2,68200,1.983
2014-12-03,2.18,2.2,2.17,2.2,24900,1.983
2014-12-04,2.2,2.22,2.18,2.22,140800,2.001
2014-12-05,2.25,2.25,2.25,2.25,3900,2.028
2014-12-08,2.29,2.3,2.29,2.3,7300,2.073
2014-12-09,2.35,2.52,2.35,2.51,9600,2.263
2014-12-10,2.51,2.51,2.3,2.3,4700,2.073
2014-12-11,2.3,2.3,2.3,2.3,0,2.073
2014-12-12,2.31,2.31,2.3,2.3,12000,2.073
2014-12-15,2.3,2.3,2.3,2.3,2500,2.073
2014-12-16,2.3,2.3,2.3,2.3,0,2.073
2014-12-17,2.33,2.33,2.31,2.31,2500,2.082
2014-12-18,2.31,2.31,2.31,2.31,0,2.082
2014-12-19,2.31,2.31,2.3,2.3,4400,2.073
2014-12-22,2.25,2.25,2.25,2.25,1400,2.028
2014-12-23,2.25,2.28,2.17,2.24,17300,2.019
2014-12-24,2.24,2.24,2.24,2.24,0,2.019
2014-12-25,2.24,2.24,2.24,2.24,0,2.019
2014-12-26,2.24,2.24,2.24,2.24,0,2.019
2014-12-29,2.24,2.24,2.24,2.24,7600,2.019
2014-12-30,2.31,2.31,2.31,2.31,26400,2.082
2014-12-31,2.4,2.4,2.4,2.4,2900,2.1630000000000003
2015-01-01,2.4,2.4,2.4,2.4,0,2.1630000000000003
2015-01-02,2.4,2.4,2.4,2.4,300,2.1630000000000003
2015-01-05,2.35,2.36,2.35,2.35,6300,2.1180000000000003
2015-01-06,2.35,2.35,2.35,2.35,9900,2.1180000000000003
2015-01-07,2.35,2.35,2.35,2.35,0,2.1180000000000003
2015-01-08,2.4,2.5,2.4,2.5,11400,2.254
2015-01-09,2.43,2.5,2.43,2.5,2500,2.254
2015-01-12,2.5,2.52,2.5,2.52,11100,2.272
2015-01-13,2.6,2.72,2.6,2.72,3000,2.452
2015-01-14,2.7,2.7,2.7,2.7,18100,2.434
2015-01-15,2.7,2.74,2.7,2.74,8000,2.47
2015-01-16,2.74,2.74,2.74,2.74,17000,2.47
2015-01-19,2.75,2.8,2.75,2.75,900,2.479
2015-01-20,2.75,2.8,2.74,2.75,11100,2.479
2015-01-21,2.75,2.75,2.72,2.72,8500,2.452
2015-01-22,2.73,2.73,2.71,2.72,18500,2.452
2015-01-23,2.7,2.7,2.7,2.7,100,2.434
2015-01-26,2.7,2.7,2.7,2.7,0,2.434
2015-01-27,2.78,2.78,2.7,2.7,6700,2.434
2015-01-28,2.74,2.8,2.74,2.8,0,2.524
2015-01-29,2.76,2.76,2.68,2.71,4700,2.443
2015-01-30,2.72,2.72,2.71,2.71,11000,2.443
2015-02-02,2.71,2.71,2.71,2.71,100,2.443
2015-02-03,2.71,2.71,2.71,2.71,0,2.443
2015-02-04,2.71,2.71,2.71,2.71,0,2.443
2015-02-05,2.7,2.7,2.52,2.6,12500,2.344
2015-02-06,2.6,2.6,2.6,2.6,0,2.344
2015-02-09,2.45,2.45,2.43,2.43,8200,2.19
2015-02-10,2.3,2.3,2.15,2.15,67900,1.9380000000000002
2015-02-11,2.04,2.05,1.95,2.05,36900,1.848
2015-02-12,2.05,2.05,1.965,1.965,20200,1.771
2015-02-13,1.965,2.04,1.965,2.02,33200,1.821
2015-02-16,2.03,2.03,2.03,2.03,8700,1.83
2015-02-17,2.0,2.02,2.0,2.02,36200,1.821
2015-02-18,2.03,2.03,2.0,2.03,51800,1.83
2015-02-19,2.03,2.03,2.01,2.01,19500,1.8119999999999998
2015-02-20,2.01,2.03,2.0,2.03,46100,1.83
2015-02-23,2.02,2.03,2.01,2.03,868800,1.83
2015-02-24,2.01,2.03,1.96,1.96,547100,1.767
2015-02-25,1.95,1.95,1.92,1.92,21800,1.764
2015-02-26,1.92,1.95,1.92,1.935,3800,1.778
2015-02-27,1.9,1.9,1.85,1.9,8500,1.746
2015-03-02,1.85,1.855,1.85,1.855,2900,1.704
2015-03-03,1.87,1.9,1.87,1.9,19200,1.746
2015-03-04,1.87,1.87,1.86,1.86,7600,1.709
2015-03-05,1.86,1.86,1.86,1.86,0,1.709
2015-03-06,1.9,1.9,1.9,1.9,9500,1.746
2015-03-09,1.86,1.9,1.84,1.9,15200,1.746
2015-03-10,1.84,1.84,1.84,1.84,12400,1.69
2015-03-11,1.84,1.84,1.72,1.72,12700,1.58
2015-03-12,1.71,1.71,1.66,1.69,94400,1.5530000000000002
2015-03-13,1.695,1.695,1.69,1.69,800,1.5530000000000002
2015-03-16,1.72,1.72,1.72,1.72,5700,1.58
2015-03-17,1.72,1.75,1.7,1.7,42500,1.5619999999999998
2015-03-18,1.7,1.7,1.7,1.7,0,1.5619999999999998
2015-03-19,1.72,1.79,1.72,1.79,5200,1.645
2015-03-20,1.79,1.79,1.79,1.79,0,1.645
2015-03-23,1.8,1.8,1.8,1.8,5100,1.6540000000000001
2015-03-24,1.75,1.75,1.7,1.7,33300,1.5619999999999998
2015-03-25,1.72,1.72,1.72,1.72,2000,1.58
2015-03-26,1.72,1.72,1.72,1.72,0,1.58
2015-03-27,1.72,1.72,1.72,1.72,0,1.58
2015-03-30,1.8,1.8,1.8,1.8,7600,1.6540000000000001
2015-03-31,1.8,1.8,1.8,1.8,0,1.6540000000000001
2015-04-01,1.78,1.79,1.78,1.79,7600,1.645
2015-04-02,1.79,1.79,1.79,1.79,0,1.645
2015-04-03,1.79,1.79,1.79,1.79,0,1.645
2015-04-06,1.79,1.79,1.79,1.79,0,1.645
2015-04-07,1.78,1.78,1.78,1.78,3500,1.635
2015-04-08,1.8,1.8,1.8,1.8,8900,1.6540000000000001
2015-04-09,1.81,1.81,1.81,1.81,3000,1.663
2015-04-10,1.81,1.81,1.81,1.81,0,1.663
2015-04-13,1.83,1.85,1.83,1.85,14100,1.7
2015-04-14,1.85,1.94,1.85,1.92,71000,1.764
2015-04-15,1.94,1.98,1.92,1.98,19000,1.819
2015-04-16,1.98,1.98,1.98,1.98,0,1.819
2015-04-17,1.96,1.96,1.96,1.96,1000,1.801
2015-04-20,1.92,1.92,1.92,1.92,9900,1.764
2015-04-21,1.9,1.98,1.9,1.98,26300,1.819
2015-04-22,1.98,1.98,1.97,1.97,10000,1.81
2015-04-23,1.92,1.92,1.92,1.92,3000,1.764
2015-04-24,1.93,1.96,1.93,1.96,9000,1.801
2015-04-27,1.98,2.0,1.98,2.0,8000,1.837
2015-04-28,2.0,2.05,2.0,2.05,104600,1.883
2015-04-29,2.05,2.05,2.05,2.05,0,1.883
2015-04-30,2.0,2.02,2.0,2.02,110400,1.8559999999999999
2015-05-01,2.0,2.01,2.0,2.01,5100,1.847
2015-05-04,2.01,2.05,2.0,2.0,65500,1.837
2015-05-05,2.0,2.0,1.98,1.98,175000,1.819
2015-05-06,1.98,1.98,1.98,1.98,0,1.819
2015-05-07,1.98,1.98,1.98,1.98,0,1.819
2015-05-08,1.98,1.98,1.98,1.98,7000,1.819
2015-05-11,1.98,1.98,1.98,1.98,10000,1.819
2015-05-12,1.5,1.5,1.18,1.265,169200,1.162
2015-05-13,1.295,1.3,1.25,1.275,15300,1.171
2015-05-14,1.26,1.26,1.205,1.205,35000,1.107
2015-05-15,1.205,1.205,1.11,1.11,59400,1.02
2015-05-18,1.155,1.205,1.15,1.2,81800,1.102
2015-05-19,1.25,1.31,1.25,1.25,24700,1.148
2015-05-20,1.27,1.32,1.25,1.32,15900,1.213
2015-05-21,1.34,1.425,1.34,1.42,27200,1.305
2015-05-22,1.42,1.43,1.4,1.43,26700,1.314
2015-05-25,1.4,1.4,1.35,1.35,25300,1.24
2015-05-26,1.35,1.35,1.345,1.345,5000,1.236
2015-05-27,1.34,1.34,1.29,1.29,28800,1.185
2015-05-28,1.29,1.29,1.29,1.29,0,1.185
2015-05-29,1.29,1.29,1.29,1.29,0,1.185
2015-06-01,1.25,1.25,1.25,1.25,1600,1.148
2015-06-02,1.25,1.25,1.17,1.17,87200,1.075
2015-06-03,1.15,1.2,1.15,1.15,14800,1.057
2015-06-04,1.15,1.16,1.13,1.16,68000,1.0659999999999998
2015-06-05,1.15,1.2,1.1,1.1,87000,1.011
2015-06-08,1.1,1.1,1.1,1.1,0,1.011
2015-06-09,1.115,1.13,1.1,1.1,12000,1.011
2015-06-10,1.1,1.1,1.1,1.1,1300,1.011
2015-06-11,1.12,1.12,1.12,1.12,2500,1.0290000000000001
2015-06-12,1.14,1.14,1.105,1.14,600,1.047
2015-06-15,1.13,1.14,1.12,1.14,3000,1.047
2015-06-16,1.12,1.15,1.115,1.15,10100,1.057
2015-06-17,1.15,1.15,1.15,1.15,0,1.057
2015-06-18,1.12,1.12,1.1,1.1,26900,1.011
2015-06-19,1.15,1.15,1.1,1.1,400,1.011
2015-06-22,1.11,1.11,1.1,1.1,11100,1.011
2015-06-23,1.08,1.08,1.0,1.0,12900,0.919
2015-06-24,1.0,1.0,1.0,1.0,36500,0.919
2015-06-25,1.0,1.1,0.98,1.1,21500,1.011
2015-06-26,1.1,1.1,1.1,1.1,0,1.011
2015-06-29,1.0,1.0,0.9,0.99,325400,0.91
2015-06-30,0.99,0.99,0.92,0.92,42300,0.845
2015-07-01,0.92,0.92,0.92,0.92,5000,0.845
2015-07-02,0.92,0.92,0.92,0.92,0,0.845
2015-07-03,0.96,0.96,0.96,0.96,11600,0.882
2015-07-06,0.96,0.96,0.96,0.96,2000,0.882
2015-07-07,0.95,0.97,0.95,0.97,8600,0.8909999999999999
2015-07-08,0.95,0.95,0.95,0.95,5200,0.873
2015-07-09,0.95,0.95,0.95,0.95,0,0.873
2015-07-10,0.95,0.965,0.95,0.965,900,0.887
2015-07-13,0.95,0.95,0.95,0.95,20000,0.873
2015-07-14,0.96,0.96,0.96,0.96,5000,0.882
2015-07-15,0.96,0.965,0.96,0.965,13300,0.887
2015-07-16,0.99,1.05,0.99,1.05,7400,0.965
2015-07-17,1.05,1.05,1.05,1.05,10700,0.965
2015-07-20,1.05,1.09,1.02,1.02,16500,0.937
2015-07-21,1.06,1.1,1.05,1.05,8300,0.965
2015-07-22,1.05,1.06,1.05,1.05,36400,0.965
2015-07-23,1.05,1.05,1.05,1.05,18600,0.965
2015-07-24,1.02,1.1,1.02,1.05,50700,0.965
2015-07-27,1.05,1.05,1.05,1.05,0,0.965
2015-07-28,1.1,1.1,1.1,1.1,20000,1.011
2015-07-29,1.09,1.1,1.09,1.1,2000,1.011
2015-07-30,1.09,1.09,1.05,1.05,17000,0.965
2015-07-31,1.05,1.07,1.05,1.07,9100,0.983
2015-08-03,1.1,1.1,1.1,1.1,9800,1.011
2015-08-04,1.1,1.1,1.08,1.08,47000,0.992
2015-08-05,1.08,1.08,1.08,1.08,0,0.992
2015-08-06,1.1,1.1,1.05,1.05,23200,0.965
2015-08-07,1.1,1.1,1.1,1.1,6800,1.011
2015-08-10,1.1,1.1,1.1,1.1,0,1.011
2015-08-11,1.06,1.1,1.06,1.06,20900,0.9740000000000001
2015-08-12,1.1,1.1,1.085,1.085,9300,0.997
2015-08-13,1.085,1.085,1.085,1.085,0,0.997
2015-08-14,1.15,1.15,1.15,1.15,1600,1.057
2015-08-17,1.155,1.16,1.155,1.155,5200,1.061
2015-08-18,1.16,1.16,1.16,1.16,300,1.0659999999999998
2015-08-19,1.165,1.175,1.165,1.175,24300,1.08
2015-08-20,1.2,1.22,1.17,1.22,37600,1.121
2015-08-21,1.22,1.24,1.22,1.24,2200,1.139
2015-08-24,1.26,1.26,1.26,1.26,3000,1.172
2015-08-25,1.26,1.26,1.2,1.2,5500,1.1159999999999999
2015-08-26,1.2,1.25,1.2,1.25,43500,1.163
2015-08-27,1.25,1.25,1.205,1.205,21000,1.121
2015-08-28,1.205,1.21,1.205,1.205,3600,1.121
2015-08-31,1.205,1.205,1.2,1.205,40200,1.121
2015-09-01,1.155,1.165,1.15,1.15,16500,1.07
2015-09-02,1.15,1.15,1.15,1.15,0,1.07
2015-09-03,1.15,1.15,1.15,1.15,0,1.07
2015-09-04,1.15,1.15,1.15,1.15,0,1.07
2015-09-07,1.17,1.17,1.17,1.17,5000,1.088
2015-09-08,1.17,1.17,1.14,1.14,26300,1.06
2015-09-09,1.14,1.15,1.14,1.15,10500,1.07
2015-09-10,1.14,1.14,1.14,1.14,2900,1.06
2015-09-11,1.15,1.15,1.15,1.15,700,1.07
2015-09-14,1.17,1.17,1.17,1.17,9300,1.088
2015-09-15,1.15,1.15,1.14,1.14,4600,1.06
2015-09-16,1.14,1.14,1.14,1.14,200,1.06
2015-09-17,1.14,1.14,1.14,1.14,0,1.06
2015-09-18,1.14,1.14,1.14,1.14,0,1.06
2015-09-21,1.14,1.14,1.135,1.135,37900,1.056
2015-09-22,1.14,1.14,1.14,1.14,7900,1.06
2015-09-23,1.14,1.14,1.135,1.135,19500,1.056
2015-09-24,1.15,1.15,1.15,1.15,6300,1.07
2015-09-25,1.15,1.15,1.15,1.15,0,1.07
2015-09-28,1.16,1.16,1.16,1.16,2100,1.079
2015-09-29,1.19,1.19,1.19,1.19,0,1.107
2015-09-30,1.19,1.19,1.17,1.17,9200,1.088
2015-10-01,1.2,1.2,1.2,1.2,200,1.1159999999999999
2015-10-02,1.23,1.25,1.23,1.25,8900,1.163
2015-10-05,1.23,1.25,1.23,1.23,7200,1.1440000000000001
2015-10-06,1.23,1.23,1.21,1.21,17100,1.125
2015-10-07,1.22,1.22,1.22,1.22,3500,1.135
2015-10-08,1.22,1.22,1.22,1.22,1800,1.135
2015-10-09,1.22,1.22,1.22,1.22,0,1.135
2015-10-12,1.23,1.235,1.22,1.22,3500,1.135
2015-10-13,1.165,1.165,1.16,1.16,30000,1.079
2015-10-14,1.16,1.16,1.16,1.16,0,1.079
2015-10-15,1.175,1.175,1.175,1.175,1700,1.093
2015-10-16,1.185,1.185,1.175,1.175,2400,1.093
2015-10-19,1.18,1.18,1.18,1.18,400,1.0979999999999999
2015-10-20,1.2,1.25,1.2,1.21,5000,1.125
2015-10-21,1.21,1.26,1.205,1.26,13200,1.172
2015-10-22,1.25,1.25,1.25,1.25,6400,1.163
2015-10-23,1.235,1.235,1.21,1.21,8200,1.125
2015-10-26,1.215,1.25,1.21,1.25,63200,1.163
2015-10-27,1.25,1.26,1.25,1.26,10100,1.172
2015-10-28,1.29,1.3,1.29,1.3,9000,1.209
2015-10-29,1.3,1.3,1.3,1.3,0,1.209
2015-10-30,1.3,1.3,1.3,1.3,0,1.209
2015-11-02,1.3,1.3,1.3,1.3,0,1.209
2015-11-03,1.3,1.3,1.3,1.3,0,1.209
2015-11-04,1.3,1.3,1.3,1.3,0,1.209
2015-11-05,1.34,1.34,1.3,1.34,12500,1.246
2015-11-06,1.34,1.34,1.34,1.34,0,1.246
2015-11-09,1.3,1.3,1.27,1.27,20000,1.181
2015-11-10,1.27,1.27,1.27,1.27,0,1.181
2015-11-11,1.3,1.33,1.3,1.33,4600,1.237
2015-11-12,1.27,1.27,1.25,1.25,25300,1.163
2015-11-13,1.25,1.25,1.25,1.25,0,1.163
2015-11-16,1.25,1.25,1.25,1.25,0,1.163
2015-11-17,1.25,1.25,1.25,1.25,100,1.163
2015-11-18,1.25,1.25,1.25,1.25,0,1.163
2015-11-19,1.25,1.25,1.25,1.25,0,1.163
2015-11-20,1.25,1.25,1.23,1.23,23000,1.1440000000000001
2015-11-23,1.23,1.23,1.23,1.23,400,1.1440000000000001
2015-11-24,1.23,1.23,1.23,1.23,0,1.1440000000000001
2015-11-25,1.2,1.2,1.2,1.2,4200,1.1159999999999999
2015-11-26,1.2,1.2,1.2,1.2,0,1.1159999999999999
2015-11-27,1.15,1.15,1.15,1.15,1700,1.07
2015-11-30,1.1,1.1,1.1,1.1,1000,1.023
2015-12-01,1.1,1.1,1.1,1.1,23900,1.023
2015-12-02,1.1,1.1,1.1,1.1,0,1.023
2015-12-03,1.1,1.1,1.1,1.1,0,1.023
2015-12-04,1.1,1.1,1.1,1.1,0,1.023
2015-12-07,1.1,1.1,1.1,1.1,1500,1.023
2015-12-08,1.15,1.15,1.1,1.1,21100,1.023
2015-12-09,1.1,1.13,1.1,1.13,5100,1.051
2015-12-10,1.1,1.1,1.05,1.05,12500,0.977
2015-12-11,1.05,1.06,1.05,1.06,2800,0.986
2015-12-14,1.06,1.06,1.06,1.06,0,0.986
2015-12-15,1.06,1.06,1.06,1.06,500,0.986
2015-12-16,1.05,1.05,1.0,1.05,20800,0.977
2015-12-17,1.01,1.01,1.01,1.01,0,0.9390000000000001
2015-12-18,1.01,1.01,1.01,1.01,3100,0.9390000000000001
2015-12-21,1.01,1.01,1.01,1.01,7000,0.9390000000000001
2015-12-22,1.01,1.01,1.01,1.01,0,0.9390000000000001
2015-12-23,1.01,1.01,1.01,1.01,0,0.9390000000000001
2015-12-24,1.01,1.01,1.01,1.01,0,0.9390000000000001
2015-12-25,1.01,1.01,1.01,1.01,0,0.9390000000000001
2015-12-28,1.01,1.01,1.01,1.01,0,0.9390000000000001
2015-12-29,1.01,1.01,1.01,1.01,1400,0.9390000000000001
2015-12-30,1.01,1.01,1.01,1.01,0,0.9390000000000001
2015-12-31,1.05,1.05,1.015,1.03,9600,0.958
2016-01-01,1.03,1.03,1.03,1.03,0,0.958
2016-01-04,1.035,1.05,1.035,1.05,2100,0.977
2016-01-05,1.1,1.1,1.1,1.1,300,1.023
2016-01-06,1.05,1.05,1.015,1.015,5300,0.9440000000000001
2016-01-07,1.015,1.015,1.015,1.015,0,0.9440000000000001
2016-01-08,1.04,1.04,1.04,1.04,0,0.9670000000000001
2016-01-11,1.05,1.05,0.985,0.985,14500,0.9159999999999999
2016-01-12,0.98,0.98,0.98,0.98,0,0.912
2016-01-13,0.98,0.98,0.98,0.98,0,0.912
2016-01-14,0.98,0.98,0.96,0.96,11100,0.893
2016-01-15,1.0,1.0,0.96,0.96,1500,0.893
2016-01-18,0.96,0.96,0.96,0.96,0,0.893
2016-01-19,0.96,0.96,0.92,0.92,3600,0.856
2016-01-20,0.93,0.93,0.885,0.885,2600,0.823
2016-01-21,0.885,0.885,0.885,0.885,0,0.823
2016-01-22,0.89,0.89,0.89,0.89,2000,0.828
2016-01-25,0.89,0.89,0.89,0.89,0,0.828
2016-01-26,0.89,0.89,0.89,0.89,0,0.828
2016-01-27,0.905,0.905,0.9,0.9,15200,0.8370000000000001
2016-01-28,0.9,0.9,0.9,0.9,18000,0.8370000000000001
2016-01-29,0.9,0.9,0.9,0.9,0,0.8370000000000001
2016-02-01,0.81,0.83,0.81,0.83,10000,0.772
2016-02-02,0.84,0.84,0.84,0.84,6200,0.7809999999999999
2016-02-03,0.84,0.84,0.84,0.84,0,0.7809999999999999
2016-02-04,0.85,0.85,0.85,0.85,11200,0.7909999999999999
2016-02-05,0.86,0.9,0.86,0.9,3800,0.8370000000000001
2016-02-08,0.86,0.86,0.86,0.86,2500,0.8
2016-02-09,0.86,0.86,0.86,0.86,0,0.8
2016-02-10,0.86,0.86,0.86,0.86,0,0.8
2016-02-11,0.86,0.86,0.86,0.86,5600,0.8
2016-02-12,0.86,0.86,0.86,0.86,0,0.8
2016-02-15,0.8,0.8,0.8,0.8,2800,0.7440000000000001
2016-02-16,0.8,0.8,0.8,0.8,0,0.7440000000000001
2016-02-17,0.795,0.795,0.795,0.795,6200,0.7390000000000001
2016-02-18,0.78,0.78,0.75,0.75,6300,0.698
2016-02-19,0.75,0.75,0.75,0.75,1800,0.698
2016-02-22,0.75,0.79,0.75,0.79,24600,0.735
2016-02-23,0.79,0.79,0.79,0.79,4500,0.735
2016-02-24,0.79,0.79,0.79,0.79,0,0.735
2016-02-25,0.75,0.75,0.74,0.74,12500,0.688
2016-02-26,0.78,0.93,0.78,0.93,73200,0.865
2016-02-29,1.01,1.12,1.01,1.12,29300,1.042
2016-03-01,1.12,1.2,1.12,1.2,18600,1.1159999999999999
2016-03-02,1.15,1.15,1.15,1.15,60200,1.107
2016-03-03,1.15,1.15,1.15,1.15,1000,1.107
2016-03-04,1.15,1.15,1.15,1.15,0,1.107
2016-03-07,1.2,1.2,1.2,1.2,4000,1.155
2016-03-08,1.2,1.2,1.2,1.2,19200,1.155
2016-03-09,1.2,1.25,1.2,1.25,16800,1.203
2016-03-10,1.25,1.25,1.205,1.205,5200,1.159
2016-03-11,1.25,1.35,1.25,1.3,245000,1.251
2016-03-14,1.345,1.345,1.3,1.345,54700,1.294
2016-03-15,1.345,1.345,1.345,1.345,0,1.294
2016-03-16,1.35,1.38,1.35,1.38,602500,1.328
2016-03-17,1.35,1.35,1.35,1.35,3600,1.2990000000000002
2016-03-18,1.35,1.35,1.35,1.35,0,1.2990000000000002
2016-03-21,1.39,1.39,1.39,1.39,300,1.337
2016-03-22,1.39,1.39,1.39,1.39,0,1.337
2016-03-23,1.39,1.39,1.39,1.39,0,1.337
2016-03-24,1.39,1.39,1.39,1.39,0,1.337
2016-03-25,1.39,1.39,1.39,1.39,0,1.337
2016-03-28,1.39,1.39,1.39,1.39,0,1.337
2016-03-29,1.39,1.39,1.39,1.39,0,1.337
2016-03-30,1.31,1.31,1.31,1.31,2000,1.26
2016-03-31,1.25,1.26,1.25,1.25,21500,1.203
2016-04-01,1.25,1.26,1.25,1.26,8200,1.212
2016-04-04,1.25,1.26,1.25,1.26,2800,1.212
2016-04-05,1.26,1.26,1.26,1.26,7600,1.212
2016-04-06,1.3,1.3,1.26,1.26,0,1.212
2016-04-07,1.26,1.26,1.25,1.25,59600,1.203
2016-04-08,1.25,1.25,1.25,1.25,0,1.203
2016-04-11,1.25,1.25,1.25,1.25,0,1.203
2016-04-12,1.25,1.28,1.25,1.28,2100,1.232
2016-04-13,1.25,1.3,1.25,1.3,53400,1.251
2016-04-14,1.3,1.3,1.3,1.3,4800,1.251
2016-04-15,1.3,1.3,1.3,1.3,0,1.251
2016-04-18,1.25,1.28,1.25,1.25,5500,1.203
2016-04-19,1.25,1.25,1.25,1.25,12000,1.203
2016-04-20,1.25,1.25,1.25,1.25,2500,1.203
2016-04-21,1.25,1.25,1.25,1.25,7000,1.203
2016-04-22,1.25,1.25,1.25,1.25,0,1.203
2016-04-25,1.25,1.25,1.25,1.25,0,1.203
2016-04-26,1.25,1.25,1.25,1.25,400,1.203
2016-04-27,1.25,1.25,1.25,1.25,0,1.203
2016-04-28,1.25,1.25,1.25,1.25,0,1.203
2016-04-29,1.29,1.3,1.29,1.3,15000,1.251
2016-05-02,1.25,1.25,1.235,1.235,7400,1.188
2016-05-03,1.235,1.235,1.235,1.235,0,1.188
2016-05-04,1.235,1.29,1.235,1.29,1800,1.2409999999999999
2016-05-05,1.235,1.29,1.235,1.29,3000,1.2409999999999999
2016-05-06,1.29,1.29,1.29,1.29,200,1.2409999999999999
2016-05-09,1.235,1.235,1.225,1.225,9000,1.179
2016-05-10,1.225,1.225,1.225,1.225,0,1.179
2016-05-11,1.225,1.225,1.225,1.225,6800,1.179
2016-05-12,1.225,1.225,1.225,1.225,11000,1.179
2016-05-13,1.225,1.225,1.225,1.225,0,1.179
2016-05-16,1.24,1.24,1.24,1.24,0,1.193
2016-05-17,1.24,1.24,1.24,1.24,0,1.193
2016-05-18,1.155,1.16,1.155,1.16,5000,1.1159999999999999
2016-05-19,1.16,1.16,1.16,1.16,0,1.1159999999999999
2016-05-20,1.16,1.16,1.16,1.16,0,1.1159999999999999
2016-05-23,1.155,1.155,1.155,1.155,1200,1.111
2016-05-24,1.155,1.155,1.155,1.155,0,1.111
2016-05-25,1.16,1.16,1.16,1.16,2600,1.1159999999999999
2016-05-26,1.2,1.2,1.2,1.2,0,1.155
2016-05-27,1.2,1.2,1.2,1.2,300,1.155
2016-05-30,1.2,1.2,1.2,1.2,0,1.155
2016-05-31,1.2,1.2,1.16,1.16,4400,1.1159999999999999
2016-06-01,1.195,1.195,1.195,1.195,100,1.15
2016-06-02,1.195,1.195,1.195,1.195,0,1.15
2016-06-03,1.17,1.17,1.17,1.17,800,1.126
2016-06-06,1.17,1.17,1.17,1.17,0,1.126
2016-06-07,1.17,1.195,1.16,1.195,260000,1.15
2016-06-08,1.195,1.25,1.195,1.25,17900,1.203
2016-06-09,1.25,1.25,1.2,1.2,12100,1.155
2016-06-10,1.2,1.205,1.165,1.2,89000,1.155
2016-06-13,1.2,1.2,1.2,1.2,0,1.155
2016-06-14,1.2,1.2,1.2,1.2,0,1.155
2016-06-15,1.155,1.155,1.155,1.155,9000,1.111
2016-06-16,1.155,1.155,1.155,1.155,0,1.111
2016-06-17,1.185,1.205,1.185,1.2,435900,1.155
2016-06-20,1.2,1.2,1.2,1.2,0,1.155
2016-06-21,1.2,1.2,1.2,1.2,0,1.155
2016-06-22,1.2,1.2,1.18,1.18,300,1.135
2016-06-23,1.185,1.185,1.18,1.18,52100,1.135
2016-06-24,1.185,1.21,1.18,1.2,31000,1.155
2016-06-27,1.16,1.16,1.15,1.15,9300,1.107
2016-06-28,1.055,1.055,1.055,1.055,4200,1.015
2016-06-29,1.055,1.055,1.055,1.055,0,1.015
2016-06-30,1.11,1.195,1.11,1.18,17100,1.135
2016-07-01,1.18,1.21,1.18,1.21,2300,1.1640000000000001
2016-07-04,1.21,1.21,1.21,1.21,5400,1.1640000000000001
2016-07-05,1.15,1.15,1.11,1.11,8600,1.068
2016-07-06,1.11,1.11,1.11,1.11,0,1.068
2016-07-07,1.11,1.11,1.11,1.11,0,1.068
2016-07-08,1.11,1.11,1.085,1.085,900,1.044
2016-07-11,1.09,1.09,1.08,1.08,14200,1.0390000000000001
2016-07-12,1.08,1.15,1.05,1.05,27000,1.01
2016-07-13,1.03,1.03,1.03,1.03,4000,0.991
2016-07-14,1.05,1.1,1.05,1.05,0,1.01
2016-07-15,1.1,1.1,1.06,1.06,3000,1.02
2016-07-18,1.06,1.06,1.06,1.06,0,1.02
2016-07-19,1.06,1.06,1.06,1.06,0,1.02
2016-07-20,1.06,1.075,1.06,1.075,14000,1.034
2016-07-21,1.075,1.075,1.05,1.05,21300,1.01
2016-07-22,1.09,1.1,1.09,1.1,900,1.058
2016-07-25,1.1,1.135,1.1,1.135,1500,1.092
2016-07-26,1.135,1.14,1.13,1.14,18500,1.097
2016-07-27,1.125,1.15,1.125,1.15,10500,1.107
2016-07-28,1.15,1.15,1.15,1.15,0,1.107
2016-07-29,1.13,1.13,1.07,1.075,4000,1.034
2016-08-01,1.075,1.15,1.075,1.12,17000,1.078
2016-08-02,1.12,1.12,1.12,1.12,0,1.078
2016-08-03,1.15,1.15,1.15,1.15,600,1.107
2016-08-04,1.195,1.2,1.19,1.2,7200,1.155
2016-08-05,1.155,1.2,1.155,1.2,22100,1.155
2016-08-08,1.22,1.33,1.2,1.33,8500,1.28
2016-08-09,1.325,1.325,1.325,1.325,400,1.275
2016-08-10,1.315,1.315,1.315,1.315,0,1.265
2016-08-11,1.315,1.315,1.315,1.315,4500,1.265
2016-08-12,1.315,1.315,1.315,1.315,0,1.265
2016-08-15,1.315,1.315,1.255,1.255,1500,1.208
2016-08-16,1.25,1.25,1.25,1.25,3700,1.203
2016-08-17,1.25,1.25,1.25,1.25,0,1.203
2016-08-18,1.315,1.385,1.205,1.205,132500,1.159
2016-08-19,1.215,1.27,1.215,1.25,33100,1.203
2016-08-22,1.27,1.3,1.23,1.3,2225100,1.251
2016-08-23,1.3,1.33,1.3,1.33,909400,1.28
2016-08-24,1.33,1.4,1.33,1.4,81200,1.4
2016-08-25,1.37,1.4,1.37,1.4,4600,1.4
2016-08-26,1.4,1.4,1.365,1.365,2700,1.365
2016-08-29,1.365,1.365,1.365,1.365,8400,1.365
2016-08-30,1.365,1.41,1.365,1.41,1900,1.41
2016-08-31,1.36,1.4,1.36,1.36,43100,1.36
2016-09-01,1.35,1.4,1.35,1.4,3600,1.4
2016-09-02,1.36,1.36,1.325,1.35,762000,1.35
2016-09-05,1.35,1.35,1.35,1.35,0,1.35
2016-09-06,1.3,1.3,1.3,1.3,6400,1.3
2016-09-07,1.31,1.33,1.31,1.33,9200,1.33
2016-09-08,1.33,1.35,1.33,1.33,6100,1.33
2016-09-09,1.35,1.35,1.35,1.35,36000,1.35
2016-09-12,1.35,1.35,1.35,1.35,0,1.35
2016-09-13,1.36,1.38,1.36,1.375,1900,1.375
2016-09-14,1.375,1.375,1.375,1.375,2900,1.375
2016-09-15,1.375,1.375,1.33,1.33,9700,1.33
2016-09-16,1.33,1.4,1.33,1.35,103600,1.35
2016-09-19,1.35,1.35,1.35,1.35,0,1.35
2016-09-20,1.36,1.4,1.33,1.4,3100,1.4
2016-09-21,1.4,1.4,1.4,1.4,2000,1.4
2016-09-22,1.42,1.42,1.36,1.36,4000,1.36
2016-09-23,1.4,1.4,1.4,1.4,78100,1.4
2016-09-26,1.43,1.5,1.43,1.5,60300,1.5
2016-09-27,1.5,1.5,1.5,1.5,100,1.5
2016-09-28,1.48,1.48,1.48,1.48,21700,1.48
2016-09-29,1.46,1.46,1.46,1.46,37000,1.46
2016-09-30,1.49,1.49,1.49,1.49,7000,1.49
2016-10-03,1.505,1.54,1.505,1.54,20000,1.54
2016-10-04,1.54,1.54,1.52,1.52,3600,1.52
2016-10-05,1.52,1.52,1.52,1.52,16500,1.52
2016-10-06,1.46,1.46,1.46,1.46,8300,1.46
2016-10-07,1.46,1.46,1.46,1.46,0,1.46
2016-10-10,1.48,1.52,1.47,1.52,23500,1.52
2016-10-11,1.52,1.52,1.49,1.49,19500,1.49
2016-10-12,1.51,1.52,1.51,1.51,2700,1.51
2016-10-13,1.51,1.51,1.51,1.51,0,1.51
2016-10-14,1.5,1.52,1.49,1.52,12000,1.52
2016-10-17,1.52,1.53,1.52,1.53,20000,1.53
2016-10-18,1.53,1.53,1.53,1.53,0,1.53
2016-10-19,1.54,1.65,1.54,1.65,51800,1.65
2016-10-20,1.64,1.64,1.64,1.64,100,1.64
2016-10-21,1.64,1.7,1.64,1.7,10600,1.7
2016-10-24,1.7,1.8,1.7,1.71,42700,1.71
2016-10-25,1.75,1.75,1.75,1.75,600,1.75
2016-10-26,1.735,1.735,1.73,1.73,6000,1.73
2016-10-27,1.71,1.71,1.71,1.71,2800,1.71
2016-10-28,1.76,1.76,1.76,1.76,1000,1.76
2016-10-31,1.53,1.53,1.05,1.1,89500,1.1
2016-11-01,1.16,1.16,1.1,1.1,31300,1.1
2016-11-02,1.1,1.11,1.1,1.1,31700,1.1
2016-11-03,1.1,1.1,1.1,1.1,0,1.1
2016-11-04,1.03,1.1,1.03,1.1,2600,1.1
2016-11-07,1.1,1.13,1.1,1.1,41800,1.1
2016-11-08,1.1,1.14,1.1,1.14,47300,1.14
2016-11-09,1.115,1.115,1.1,1.1,25300,1.1
2016-11-10,1.1,1.1,1.1,1.1,0,1.1
2016-11-11,1.1,1.1,1.1,1.1,0,1.1
2016-11-14,1.1,1.1,1.1,1.1,25000,1.1
2016-11-15,1.05,1.05,1.05,1.05,7200,1.05
2016-11-16,1.05,1.05,1.05,1.05,800,1.05
2016-11-17,1.1,1.1,1.1,1.1,10700,1.1
2016-11-18,1.1,1.1,1.1,1.1,5200,1.1
2016-11-21,1.1,1.1,1.1,1.1,0,1.1
2016-11-22,1.1,1.105,1.1,1.1,31400,1.1
2016-11-23,1.1,1.1,1.1,1.1,4000,1.1
2016-11-24,1.1,1.1,1.1,1.1,0,1.1
2016-11-25,1.1,1.1,1.05,1.05,68500,1.05
2016-11-28,1.07,1.1,1.05,1.05,7300,1.05
2016-11-29,1.05,1.05,1.05,1.05,13500,1.05
2016-11-30,1.06,1.06,1.05,1.05,11000,1.05
2016-12-01,1.05,1.05,1.05,1.05,0,1.05
2016-12-02,1.05,1.1,1.05,1.1,14200,1.1
2016-12-05,1.1,1.1,1.1,1.1,0,1.1
2016-12-06,1.1,1.1,1.1,1.1,0,1.1
2016-12-07,1.1,1.1,1.1,1.1,0,1.1
2016-12-08,1.1,1.1,1.1,1.1,10000,1.1
2016-12-09,1.1,1.1,1.1,1.1,0,1.1
2016-12-12,1.1,1.1,1.1,1.1,0,1.1
2016-12-13,1.1,1.1,1.1,1.1,0,1.1
2016-12-14,1.1,1.1,1.1,1.1,0,1.1
2016-12-15,1.1,1.1,1.1,1.1,0,1.1
2016-12-16,1.1,1.1,1.1,1.1,100,1.1
2016-12-19,1.0,1.0,0.97,0.97,4100,0.97
2016-12-20,0.97,0.97,0.97,0.97,0,0.97
2016-12-21,0.98,0.98,0.98,0.98,3000,0.98
2016-12-22,0.98,0.98,0.98,0.98,0,0.98
2016-12-23,0.98,0.98,0.98,0.98,800,0.98
2016-12-26,0.98,0.98,0.98,0.98,0,0.98
2016-12-27,0.98,0.98,0.98,0.98,0,0.98
2016-12-28,0.985,0.985,0.98,0.98,3600,0.98
2016-12-29,0.98,0.98,0.98,0.98,0,0.98
2016-12-30,0.98,0.98,0.98,0.98,0,0.98
