Date,Open,High,Low,Close,Volume,Adj Close
2016-09-13,0.25,0.32,0.25,0.3,1211800,0.3
2016-09-14,0.32,0.32,0.3,0.3,720100,0.3
2016-09-15,0.285,0.29,0.285,0.29,29400,0.29
2016-09-16,0.29,0.3,0.28,0.29,226400,0.29
2016-09-19,0.3,0.3,0.28,0.28,126500,0.28
2016-09-20,0.28,0.285,0.28,0.285,159900,0.285
2016-09-21,0.27,0.27,0.27,0.27,7600,0.27
2016-09-22,0.27,0.27,0.27,0.27,127400,0.27
2016-09-23,0.27,0.28,0.27,0.27,178700,0.27
2016-09-26,0.27,0.27,0.27,0.27,0,0.27
2016-09-27,0.28,0.285,0.28,0.28,305000,0.28
2016-09-28,0.275,0.28,0.27,0.275,77900,0.275
2016-09-29,0.275,0.275,0.275,0.275,39000,0.275
2016-09-30,0.275,0.275,0.275,0.275,0,0.275
2016-10-03,0.275,0.275,0.275,0.275,0,0.275
2016-10-04,0.27,0.27,0.27,0.27,103500,0.27
2016-10-05,0.27,0.27,0.27,0.27,113900,0.27
2016-10-06,0.275,0.275,0.275,0.275,20000,0.275
2016-10-07,0.275,0.275,0.27,0.27,30000,0.27
2016-10-10,0.27,0.27,0.27,0.27,0,0.27
2016-10-11,0.27,0.27,0.27,0.27,0,0.27
2016-10-12,0.27,0.27,0.27,0.27,10000,0.27
2016-10-13,0.27,0.27,0.27,0.27,0,0.27
2016-10-14,0.3,0.3,0.3,0.3,57500,0.3
2016-10-17,0.3,0.3,0.3,0.3,0,0.3
2016-10-18,0.3,0.315,0.3,0.315,42800,0.315
2016-10-19,0.315,0.315,0.315,0.315,76600,0.315
2016-10-20,0.315,0.315,0.315,0.315,0,0.315
2016-10-21,0.325,0.335,0.325,0.325,172800,0.325
2016-10-24,0.335,0.335,0.335,0.335,34000,0.335
2016-10-25,0.34,0.34,0.34,0.34,109200,0.34
2016-10-26,0.34,0.34,0.335,0.335,103400,0.335
2016-10-27,0.315,0.335,0.315,0.335,121800,0.335
2016-10-28,0.335,0.335,0.335,0.335,0,0.335
2016-10-31,0.335,0.335,0.335,0.335,0,0.335
2016-11-01,0.335,0.335,0.335,0.335,0,0.335
2016-11-02,0.335,0.335,0.335,0.335,0,0.335
2016-11-03,0.335,0.335,0.335,0.335,0,0.335
2016-11-04,0.335,0.335,0.335,0.335,0,0.335
2016-11-07,0.335,0.335,0.335,0.335,0,0.335
2016-11-08,0.335,0.335,0.335,0.335,0,0.335
2016-11-09,0.335,0.335,0.335,0.335,0,0.335
2016-11-10,0.335,0.335,0.335,0.335,0,0.335
2016-11-11,0.335,0.335,0.335,0.335,0,0.335
2016-11-14,0.32,0.32,0.32,0.32,15000,0.32
2016-11-15,0.3,0.32,0.3,0.32,64200,0.32
2016-11-16,0.3,0.3,0.3,0.3,87500,0.3
2016-11-17,0.3,0.3,0.3,0.3,0,0.3
2016-11-18,0.3,0.3,0.3,0.3,0,0.3
2016-11-21,0.3,0.3,0.3,0.3,26500,0.3
2016-11-22,0.3,0.3,0.3,0.3,0,0.3
2016-11-23,0.3,0.3,0.29,0.29,56800,0.29
2016-11-24,0.29,0.29,0.29,0.29,0,0.29
2016-11-25,0.29,0.29,0.29,0.29,0,0.29
2016-11-28,0.29,0.31,0.29,0.3,456300,0.3
2016-11-29,0.31,0.315,0.31,0.31,284600,0.31
2016-11-30,0.315,0.315,0.3,0.3,218000,0.3
2016-12-01,0.295,0.3,0.29,0.29,436200,0.29
2016-12-02,0.29,0.295,0.29,0.29,71500,0.29
2016-12-05,0.28,0.28,0.275,0.275,99000,0.275
2016-12-06,0.275,0.275,0.27,0.27,75500,0.27
2016-12-07,0.27,0.27,0.27,0.27,0,0.27
2016-12-08,0.27,0.27,0.27,0.27,0,0.27
2016-12-09,0.265,0.265,0.25,0.27,35000,0.27
2016-12-12,0.27,0.27,0.27,0.27,44300,0.27
2016-12-13,0.27,0.27,0.27,0.27,10900,0.27
2016-12-14,0.27,0.27,0.27,0.27,0,0.27
2016-12-15,0.27,0.27,0.27,0.27,0,0.27
2016-12-16,0.22,0.25,0.22,0.25,174900,0.25
2016-12-19,0.25,0.25,0.25,0.25,47700,0.25
2016-12-20,0.25,0.25,0.25,0.25,44500,0.25
2016-12-21,0.25,0.25,0.25,0.25,25000,0.25
2016-12-22,0.25,0.25,0.25,0.25,113900,0.25
2016-12-23,0.25,0.25,0.25,0.25,0,0.25
2016-12-26,0.25,0.25,0.25,0.25,0,0.25
2016-12-27,0.25,0.25,0.25,0.25,0,0.25
2016-12-28,0.25,0.25,0.25,0.25,0,0.25
2016-12-29,0.25,0.25,0.25,0.25,2000,0.25
2016-12-30,0.25,0.25,0.25,0.25,0,0.25
