Date,Open,High,Low,Close,Volume,Adj Close
2014-10-20,1.0,1.01,1.0,1.01,52000,0.9670000000000001
2014-10-21,1.01,1.025,1.01,1.025,18400,0.982
2014-10-22,1.025,1.025,1.025,1.025,28200,0.982
2014-10-23,1.015,1.015,1.015,1.015,20000,0.972
2014-10-24,1.02,1.02,1.02,1.02,29400,0.977
2014-10-27,1.02,1.05,1.02,1.04,40500,0.996
2014-10-28,1.03,1.03,1.03,1.03,2800,0.986
2014-10-29,1.05,1.1,1.05,1.07,31700,1.025
2014-10-30,1.07,1.09,1.07,1.08,238400,1.034
2014-10-31,1.08,1.09,1.075,1.085,227300,1.0390000000000001
2014-11-03,1.085,1.085,1.085,1.085,0,1.0390000000000001
2014-11-04,1.06,1.06,1.05,1.05,114000,1.006
2014-11-05,1.05,1.07,1.05,1.05,50000,1.006
2014-11-06,1.05,1.05,1.05,1.05,0,1.006
2014-11-07,1.07,1.08,1.07,1.08,19500,1.034
2014-11-10,1.08,1.08,1.06,1.06,36500,1.015
2014-11-11,1.07,1.095,1.07,1.08,169200,1.034
2014-11-12,1.07,1.08,1.07,1.08,137800,1.034
2014-11-13,1.065,1.065,1.06,1.06,47400,1.015
2014-11-14,1.05,1.055,1.05,1.055,11300,1.01
2014-11-17,1.055,1.055,1.055,1.055,0,1.01
2014-11-18,1.095,1.1,1.05,1.05,38200,1.006
2014-11-19,1.05,1.05,1.05,1.05,0,1.006
2014-11-20,1.05,1.05,1.05,1.05,12000,1.006
2014-11-21,1.05,1.08,1.05,1.08,102000,1.034
2014-11-24,1.06,1.06,1.06,1.06,20000,1.015
2014-11-25,1.05,1.05,1.045,1.05,56400,1.006
2014-11-26,1.05,1.05,1.04,1.04,54000,0.996
2014-11-27,1.05,1.09,1.05,1.09,70900,1.044
2014-11-28,1.07,1.07,1.07,1.07,20000,1.025
2014-12-01,1.07,1.07,1.07,1.07,0,1.025
2014-12-02,1.07,1.07,1.05,1.06,46000,1.015
2014-12-03,1.06,1.06,1.05,1.05,66900,1.006
2014-12-04,1.06,1.06,1.055,1.055,30000,1.01
2014-12-05,1.06,1.07,1.06,1.06,50900,1.015
2014-12-08,1.07,1.08,1.07,1.08,73900,1.034
2014-12-09,1.07,1.1,1.07,1.1,151000,1.053
2014-12-10,1.1,1.1,1.1,1.1,0,1.053
2014-12-11,1.08,1.1,1.075,1.1,30000,1.053
2014-12-12,1.08,1.08,1.075,1.075,9700,1.03
2014-12-15,1.075,1.075,1.075,1.075,0,1.03
2014-12-16,1.08,1.1,1.065,1.1,104400,1.053
2014-12-17,1.15,1.15,1.1,1.1,57700,1.053
2014-12-18,1.12,1.12,1.08,1.08,30000,1.034
2014-12-19,1.12,1.12,1.12,1.12,12000,1.073
2014-12-22,1.1,1.12,1.1,1.12,30200,1.073
2014-12-23,1.12,1.12,1.12,1.12,107000,1.073
2014-12-24,1.12,1.12,1.12,1.12,0,1.073
2014-12-25,1.12,1.12,1.12,1.12,0,1.073
2014-12-26,1.12,1.12,1.12,1.12,0,1.073
2014-12-29,1.12,1.12,1.12,1.12,0,1.073
2014-12-30,1.12,1.12,1.12,1.12,0,1.073
2014-12-31,1.14,1.14,1.14,1.14,4000,1.092
2015-01-01,1.14,1.14,1.14,1.14,0,1.092
2015-01-02,1.14,1.15,1.14,1.15,32800,1.101
2015-01-05,1.16,1.17,1.16,1.17,25000,1.121
2015-01-06,1.17,1.17,1.17,1.17,0,1.121
2015-01-07,1.14,1.14,1.14,1.14,15000,1.092
2015-01-08,1.13,1.13,1.1,1.1,75100,1.053
2015-01-09,1.11,1.15,1.1,1.15,186200,1.101
2015-01-12,1.15,1.15,1.14,1.15,104500,1.101
2015-01-13,1.16,1.17,1.15,1.17,29000,1.121
2015-01-14,1.15,1.15,1.14,1.15,43000,1.101
2015-01-15,1.12,1.15,1.12,1.15,22600,1.101
2015-01-16,1.15,1.15,1.13,1.13,34700,1.082
2015-01-19,1.13,1.16,1.12,1.12,103200,1.073
2015-01-20,1.13,1.15,1.11,1.11,22000,1.063
2015-01-21,1.11,1.12,1.11,1.11,60400,1.063
2015-01-22,1.11,1.11,1.1,1.1,50000,1.053
2015-01-23,1.1,1.1,1.1,1.1,0,1.053
2015-01-26,1.1,1.1,1.1,1.1,0,1.053
2015-01-27,1.13,1.13,1.1,1.1,50000,1.053
2015-01-28,1.11,1.14,1.11,1.14,17900,1.092
2015-01-29,1.14,1.14,1.14,1.14,0,1.092
2015-01-30,1.14,1.14,1.12,1.12,17800,1.073
2015-02-02,1.14,1.17,1.14,1.15,141700,1.101
2015-02-03,1.16,1.16,1.15,1.16,98000,1.111
2015-02-04,1.16,1.17,1.16,1.17,48300,1.121
2015-02-05,1.16,1.17,1.16,1.16,118500,1.111
2015-02-06,1.17,1.18,1.16,1.18,34600,1.13
2015-02-09,1.18,1.18,1.17,1.18,56300,1.13
2015-02-10,1.18,1.18,1.18,1.18,0,1.13
2015-02-11,1.165,1.19,1.165,1.19,52000,1.14
2015-02-12,1.18,1.19,1.18,1.19,40000,1.14
2015-02-13,1.19,1.19,1.19,1.19,0,1.14
2015-02-16,1.17,1.17,1.17,1.17,47500,1.121
2015-02-17,1.16,1.16,1.14,1.16,36000,1.111
2015-02-18,1.16,1.17,1.16,1.17,107600,1.121
2015-02-19,1.17,1.17,1.15,1.15,119900,1.101
2015-02-20,1.14,1.15,1.14,1.15,70000,1.101
2015-02-23,1.15,1.155,1.15,1.155,54100,1.1059999999999999
2015-02-24,1.17,1.17,1.17,1.17,29300,1.121
2015-02-25,1.155,1.155,1.15,1.15,10000,1.101
2015-02-26,1.15,1.16,1.14,1.14,83200,1.092
2015-02-27,1.17,1.17,1.16,1.16,33600,1.111
2015-03-02,1.15,1.18,1.15,1.18,95500,1.13
2015-03-03,1.17,1.17,1.16,1.16,16800,1.111
2015-03-04,1.15,1.15,1.15,1.15,15000,1.101
2015-03-05,1.15,1.15,1.15,1.15,14000,1.101
2015-03-06,1.14,1.15,1.14,1.15,8000,1.101
2015-03-09,1.15,1.16,1.15,1.16,20000,1.111
2015-03-10,1.16,1.16,1.16,1.16,0,1.111
2015-03-11,1.16,1.16,1.16,1.16,0,1.111
2015-03-12,1.16,1.16,1.16,1.16,7000,1.111
2015-03-13,1.15,1.15,1.15,1.15,17000,1.101
2015-03-16,1.15,1.15,1.14,1.14,35000,1.092
2015-03-17,1.14,1.14,1.14,1.14,3000,1.092
2015-03-18,1.14,1.14,1.14,1.14,0,1.092
2015-03-19,1.135,1.135,1.13,1.13,47000,1.082
2015-03-20,1.11,1.11,1.1,1.1,40000,1.053
2015-03-23,1.1,1.1,1.1,1.1,10500,1.053
2015-03-24,1.105,1.14,1.1,1.14,42000,1.092
2015-03-25,1.14,1.14,1.14,1.14,0,1.092
2015-03-26,1.14,1.18,1.14,1.16,108500,1.111
2015-03-27,1.155,1.155,1.155,1.155,6900,1.1059999999999999
2015-03-30,1.155,1.155,1.155,1.155,0,1.1059999999999999
2015-03-31,1.155,1.155,1.155,1.155,8500,1.1059999999999999
2015-04-01,1.155,1.155,1.155,1.155,20000,1.1059999999999999
2015-04-02,1.12,1.13,1.11,1.13,72500,1.082
2015-04-03,1.13,1.13,1.13,1.13,0,1.082
2015-04-06,1.13,1.13,1.13,1.13,0,1.082
2015-04-07,1.13,1.13,1.13,1.13,50000,1.082
2015-04-08,1.13,1.145,1.13,1.135,64400,1.087
2015-04-09,1.135,1.135,1.13,1.13,80000,1.082
2015-04-10,1.13,1.13,1.13,1.13,15000,1.082
2015-04-13,1.13,1.145,1.13,1.145,6000,1.097
2015-04-14,1.145,1.145,1.13,1.145,65000,1.097
2015-04-15,1.145,1.15,1.145,1.15,35800,1.101
2015-04-16,1.15,1.15,1.15,1.15,0,1.101
2015-04-17,1.14,1.15,1.14,1.15,99000,1.101
2015-04-20,1.125,1.125,1.12,1.12,15000,1.073
2015-04-21,1.125,1.15,1.12,1.15,109500,1.101
2015-04-22,1.15,1.15,1.14,1.14,150000,1.092
2015-04-23,1.15,1.15,1.15,1.15,25000,1.101
2015-04-24,1.15,1.15,1.15,1.15,120000,1.101
2015-04-27,1.15,1.15,1.15,1.15,41700,1.101
2015-04-28,1.15,1.16,1.14,1.15,193900,1.101
2015-04-29,1.16,1.16,1.15,1.16,174600,1.111
2015-04-30,1.16,1.16,1.15,1.16,149700,1.111
2015-05-01,1.15,1.17,1.15,1.17,77600,1.121
2015-05-04,1.15,1.15,1.15,1.15,11000,1.101
2015-05-05,1.15,1.16,1.15,1.15,78000,1.101
2015-05-06,1.15,1.15,1.15,1.15,0,1.101
2015-05-07,1.15,1.17,1.15,1.17,55800,1.121
2015-05-08,1.17,1.17,1.17,1.17,10900,1.121
2015-05-11,1.17,1.17,1.17,1.17,0,1.121
2015-05-12,1.16,1.16,1.16,1.16,40000,1.111
2015-05-13,1.16,1.165,1.155,1.16,30000,1.111
2015-05-14,1.16,1.16,1.16,1.16,0,1.111
2015-05-15,1.16,1.16,1.16,1.16,7400,1.111
2015-05-18,1.16,1.16,1.16,1.16,0,1.111
2015-05-19,1.165,1.165,1.15,1.15,75000,1.101
2015-05-20,1.155,1.155,1.155,1.155,5000,1.1059999999999999
2015-05-21,1.17,1.2,1.17,1.18,152300,1.13
2015-05-22,1.25,1.25,1.17,1.18,76700,1.13
2015-05-25,1.19,1.25,1.19,1.25,43900,1.197
2015-05-26,1.235,1.235,1.19,1.19,123400,1.14
2015-05-27,1.19,1.195,1.19,1.195,63000,1.1440000000000001
2015-05-28,1.195,1.2,1.19,1.19,52700,1.14
2015-05-29,1.2,1.205,1.185,1.185,133900,1.135
2015-06-01,1.19,1.2,1.19,1.2,82900,1.149
2015-06-02,1.21,1.23,1.19,1.2,197600,1.149
2015-06-03,1.2,1.2,1.19,1.19,13500,1.14
2015-06-04,1.2,1.21,1.19,1.19,66600,1.14
2015-06-05,1.185,1.185,1.17,1.17,51400,1.121
2015-06-08,1.17,1.17,1.17,1.17,0,1.121
2015-06-09,1.165,1.175,1.165,1.165,74000,1.1159999999999999
2015-06-10,1.165,1.165,1.16,1.16,131000,1.111
2015-06-11,1.16,1.17,1.16,1.16,48800,1.111
2015-06-12,1.16,1.16,1.16,1.16,0,1.111
2015-06-15,1.16,1.16,1.16,1.16,10000,1.111
2015-06-16,1.16,1.16,1.16,1.16,20800,1.111
2015-06-17,1.155,1.155,1.15,1.15,24100,1.101
2015-06-18,1.15,1.15,1.15,1.15,0,1.101
2015-06-19,1.16,1.16,1.16,1.16,22500,1.111
2015-06-22,1.16,1.16,1.16,1.16,4500,1.111
2015-06-23,1.16,1.16,1.15,1.15,60300,1.101
2015-06-24,1.16,1.16,1.16,1.16,25300,1.111
2015-06-25,1.16,1.16,1.16,1.16,0,1.111
2015-06-26,1.15,1.16,1.15,1.16,16800,1.111
2015-06-29,1.15,1.15,1.135,1.135,98500,1.087
2015-06-30,1.135,1.16,1.135,1.15,144300,1.101
2015-07-01,1.15,1.15,1.15,1.15,57000,1.101
2015-07-02,1.14,1.15,1.135,1.15,97900,1.101
2015-07-03,1.15,1.15,1.15,1.15,7200,1.101
2015-07-06,1.15,1.15,1.15,1.15,57000,1.101
2015-07-07,1.15,1.15,1.14,1.14,16700,1.092
2015-07-08,1.14,1.14,1.14,1.14,0,1.092
2015-07-09,1.14,1.15,1.14,1.15,6000,1.101
2015-07-10,1.15,1.15,1.15,1.15,0,1.101
2015-07-13,1.14,1.14,1.14,1.14,15000,1.092
2015-07-14,1.16,1.17,1.15,1.17,41600,1.121
2015-07-15,1.17,1.18,1.16,1.175,19200,1.125
2015-07-16,1.18,1.18,1.18,1.18,15000,1.13
2015-07-17,1.18,1.185,1.17,1.18,13800,1.13
2015-07-20,1.18,1.18,1.18,1.18,1000,1.13
2015-07-21,1.18,1.18,1.18,1.18,8400,1.13
2015-07-22,1.18,1.19,1.18,1.19,42000,1.14
2015-07-23,1.18,1.18,1.17,1.17,20900,1.121
2015-07-24,1.17,1.2,1.165,1.165,27000,1.1159999999999999
2015-07-27,1.16,1.18,1.16,1.17,25000,1.121
2015-07-28,1.17,1.17,1.17,1.17,5300,1.121
2015-07-29,1.17,1.17,1.17,1.17,12700,1.121
2015-07-30,1.17,1.18,1.14,1.145,95000,1.097
2015-07-31,1.15,1.15,1.15,1.15,5000,1.101
2015-08-03,1.15,1.15,1.15,1.15,0,1.101
2015-08-04,1.15,1.17,1.15,1.17,2200,1.121
2015-08-05,1.15,1.15,1.14,1.14,62400,1.092
2015-08-06,1.14,1.14,1.14,1.14,0,1.092
2015-08-07,1.15,1.19,1.14,1.18,81100,1.13
2015-08-10,1.18,1.18,1.18,1.18,0,1.13
2015-08-11,1.18,1.18,1.14,1.14,71200,1.092
2015-08-12,1.155,1.155,1.15,1.15,20000,1.101
2015-08-13,1.15,1.15,1.15,1.15,0,1.101
2015-08-14,1.16,1.165,1.15,1.15,16700,1.101
2015-08-17,1.15,1.15,1.15,1.15,0,1.101
2015-08-18,1.14,1.14,1.14,1.14,15500,1.092
2015-08-19,1.135,1.135,1.135,1.135,5000,1.087
2015-08-20,1.135,1.135,1.12,1.12,7000,1.073
2015-08-24,1.07,1.1,1.04,1.09,44800,1.044
2015-08-25,1.08,1.08,1.06,1.08,40500,1.034
2015-08-26,1.08,1.1,1.08,1.1,51600,1.053
2015-08-27,1.08,1.08,1.07,1.07,29400,1.025
2015-08-28,1.1,1.1,1.1,1.1,10600,1.053
2015-08-31,1.08,1.1,1.05,1.08,122200,1.034
2015-09-01,1.08,1.09,1.08,1.09,27500,1.044
2015-09-02,1.09,1.09,1.09,1.09,0,1.044
2015-09-03,1.06,1.075,1.06,1.075,27800,1.03
2015-09-04,1.075,1.075,1.075,1.075,8300,1.03
2015-09-07,1.075,1.075,1.075,1.075,0,1.03
2015-09-08,1.075,1.075,1.075,1.075,0,1.03
2015-09-09,1.06,1.06,1.06,1.06,4000,1.015
2015-09-10,1.05,1.08,1.05,1.08,12000,1.034
2015-09-11,1.065,1.065,1.065,1.065,9300,1.02
2015-09-14,1.065,1.065,1.065,1.065,4300,1.02
2015-09-15,1.065,1.065,1.065,1.065,0,1.02
2015-09-16,1.05,1.05,1.04,1.04,29700,0.996
2015-09-17,1.04,1.04,1.04,1.04,0,1.01
2015-09-18,1.05,1.05,1.05,1.05,200,1.02
2015-09-21,1.1,1.1,1.01,1.01,43300,0.981
2015-09-22,1.025,1.025,1.02,1.02,74000,0.99
2015-09-23,1.02,1.02,1.02,1.02,0,0.99
2015-09-24,1.05,1.05,1.03,1.03,10000,1.0
2015-09-25,1.03,1.03,1.03,1.03,0,1.0
2015-09-28,1.07,1.07,1.06,1.06,8900,1.0290000000000001
2015-09-29,1.06,1.09,1.06,1.09,10000,1.058
2015-09-30,1.09,1.09,1.09,1.09,0,1.058
2015-10-01,1.06,1.06,1.05,1.05,7300,1.02
2015-10-02,1.05,1.05,1.05,1.05,11600,1.02
2015-10-05,1.04,1.07,1.02,1.02,30000,0.99
2015-10-06,1.04,1.04,1.04,1.04,1900,1.01
2015-10-07,1.03,1.03,1.02,1.02,176600,0.99
2015-10-08,1.02,1.02,1.02,1.02,0,0.99
2015-10-09,1.03,1.03,1.025,1.03,41500,1.0
2015-10-12,1.03,1.03,1.025,1.025,35700,0.995
2015-10-13,1.02,1.02,1.02,1.02,65300,0.99
2015-10-14,1.02,1.02,1.02,1.02,600,0.99
2015-10-15,1.02,1.03,1.02,1.02,17000,0.99
2015-10-16,1.02,1.02,1.01,1.01,203300,0.981
2015-10-19,1.015,1.015,1.015,1.015,5000,0.986
2015-10-20,1.015,1.03,1.015,1.015,35900,0.986
2015-10-21,1.03,1.03,1.03,1.03,49500,1.0
2015-10-22,1.03,1.03,1.03,1.03,0,1.0
2015-10-23,1.07,1.1,1.07,1.08,130200,1.0490000000000002
2015-10-26,1.085,1.09,1.085,1.09,11000,1.058
2015-10-27,1.09,1.09,1.09,1.09,12900,1.058
2015-10-28,1.09,1.09,1.09,1.09,4700,1.058
2015-10-29,1.08,1.08,1.075,1.075,21400,1.044
2015-10-30,1.09,1.09,1.075,1.075,19900,1.044
2015-11-02,1.075,1.075,1.075,1.075,0,1.044
2015-11-03,1.06,1.06,1.06,1.06,35000,1.0290000000000001
2015-11-04,1.06,1.075,1.06,1.075,90000,1.044
2015-11-05,1.07,1.1,1.07,1.1,98000,1.068
2015-11-06,1.1,1.12,1.1,1.12,48200,1.088
2015-11-09,1.1,1.1,1.1,1.1,105000,1.068
2015-11-10,1.12,1.12,1.06,1.12,80900,1.088
2015-11-11,1.1,1.12,1.1,1.1,29600,1.068
2015-11-12,1.1,1.1,1.1,1.1,19800,1.068
2015-11-13,1.06,1.06,1.06,1.06,5000,1.0290000000000001
2015-11-16,1.06,1.06,1.06,1.06,0,1.0290000000000001
2015-11-17,1.06,1.06,1.06,1.06,0,1.0290000000000001
2015-11-18,1.06,1.06,1.06,1.06,0,1.0290000000000001
2015-11-19,1.06,1.06,1.06,1.06,0,1.0290000000000001
2015-11-20,1.06,1.06,1.06,1.06,0,1.0290000000000001
2015-11-23,1.06,1.06,1.06,1.06,10000,1.0290000000000001
2015-11-24,1.06,1.06,1.06,1.06,46000,1.0290000000000001
2015-11-25,1.06,1.06,1.06,1.06,24700,1.0290000000000001
2015-11-26,1.09,1.09,1.09,1.09,1000,1.058
2015-11-27,1.09,1.09,1.09,1.09,0,1.058
2015-11-30,1.09,1.09,1.08,1.08,14900,1.0490000000000002
2015-12-01,1.07,1.07,1.06,1.065,86800,1.034
2015-12-02,1.07,1.07,1.07,1.07,15000,1.0390000000000001
2015-12-03,1.08,1.08,1.08,1.08,6900,1.0490000000000002
2015-12-04,1.08,1.08,1.08,1.08,0,1.0490000000000002
2015-12-07,1.08,1.08,1.03,1.03,49200,1.0
2015-12-08,1.03,1.03,1.03,1.03,17600,1.0
2015-12-09,1.05,1.08,1.05,1.08,45000,1.0490000000000002
2015-12-10,1.08,1.08,1.08,1.08,0,1.0490000000000002
2015-12-11,1.08,1.08,1.08,1.08,0,1.0490000000000002
2015-12-14,1.025,1.03,1.025,1.03,11500,1.0
2015-12-15,1.025,1.075,1.025,1.075,26600,1.044
2015-12-16,1.075,1.075,1.075,1.075,0,1.044
2015-12-17,1.075,1.075,1.015,1.06,47600,1.0290000000000001
2015-12-18,1.045,1.045,1.03,1.03,12000,1.0
2015-12-21,1.02,1.025,1.02,1.025,63100,0.995
2015-12-22,1.025,1.05,1.02,1.05,53700,1.02
2015-12-23,1.05,1.05,1.05,1.05,0,1.02
2015-12-24,1.05,1.05,1.05,1.05,0,1.02
2015-12-25,1.05,1.05,1.05,1.05,0,1.02
2015-12-28,1.05,1.05,1.05,1.05,0,1.02
2015-12-29,1.03,1.04,1.03,1.04,45000,1.01
2015-12-30,1.04,1.04,1.04,1.04,0,1.01
2015-12-31,1.05,1.05,1.05,1.05,10000,1.02
2016-01-01,1.05,1.05,1.05,1.05,0,1.02
2016-01-04,1.055,1.055,1.03,1.03,80000,1.0
2016-01-05,1.06,1.06,1.06,1.06,28500,1.0290000000000001
2016-01-06,1.06,1.12,1.06,1.12,89600,1.088
2016-01-07,1.12,1.12,1.12,1.12,0,1.088
2016-01-08,1.04,1.04,1.03,1.03,64200,1.0
2016-01-11,1.03,1.03,1.015,1.03,156800,1.0
2016-01-12,1.01,1.02,0.99,0.99,70700,0.961
2016-01-13,1.0,1.0,1.0,1.0,6000,0.971
2016-01-14,1.0,1.0,1.0,1.0,0,0.971
2016-01-15,1.0,1.0,0.99,0.99,50000,0.961
2016-01-18,0.98,0.98,0.97,0.97,15300,0.9420000000000001
2016-01-19,0.97,0.97,0.97,0.97,0,0.9420000000000001
2016-01-20,0.975,0.975,0.975,0.975,5000,0.9470000000000001
2016-01-21,0.91,0.91,0.9,0.9,7500,0.8740000000000001
2016-01-22,0.93,0.93,0.93,0.93,17500,0.903
2016-01-25,0.93,0.95,0.93,0.95,24500,0.922
2016-01-26,0.95,0.95,0.95,0.95,0,0.922
2016-01-27,0.95,0.95,0.93,0.93,12200,0.903
2016-01-28,0.93,0.95,0.93,0.95,32900,0.922
2016-01-29,0.95,0.95,0.95,0.95,0,0.922
2016-02-01,0.95,0.95,0.95,0.95,0,0.922
2016-02-02,0.95,0.95,0.94,0.94,7000,0.9129999999999999
2016-02-03,0.94,0.94,0.94,0.94,0,0.9129999999999999
2016-02-04,0.95,0.95,0.93,0.93,21600,0.903
2016-02-05,0.93,0.93,0.93,0.93,0,0.903
2016-02-08,0.93,0.93,0.91,0.91,72700,0.884
2016-02-09,0.91,0.91,0.91,0.91,0,0.884
2016-02-10,0.925,0.925,0.91,0.91,21600,0.884
2016-02-11,0.92,0.92,0.92,0.92,34500,0.893
2016-02-12,0.92,0.92,0.92,0.92,0,0.893
2016-02-15,0.92,0.92,0.92,0.92,0,0.893
2016-02-16,0.94,0.96,0.94,0.96,10500,0.932
2016-02-17,0.96,0.96,0.96,0.96,0,0.932
2016-02-18,0.96,0.97,0.96,0.97,42500,0.9420000000000001
2016-02-19,0.97,0.97,0.97,0.97,0,0.9420000000000001
2016-02-22,0.97,0.97,0.97,0.97,0,0.9420000000000001
2016-02-23,0.95,0.95,0.95,0.95,2000,0.922
2016-02-24,0.95,0.95,0.95,0.95,0,0.922
2016-02-25,0.95,0.95,0.95,0.95,0,0.922
2016-02-26,0.95,0.95,0.95,0.95,0,0.922
2016-02-29,0.95,0.95,0.95,0.95,0,0.922
2016-03-01,0.95,0.95,0.95,0.95,0,0.922
2016-03-02,0.95,0.95,0.95,0.95,0,0.922
2016-03-03,0.95,0.95,0.95,0.95,0,0.922
2016-03-04,0.975,0.975,0.975,0.975,60000,0.9470000000000001
2016-03-07,0.975,0.975,0.975,0.975,0,0.9470000000000001
2016-03-08,0.975,0.975,0.975,0.975,17500,0.9470000000000001
2016-03-09,0.975,0.975,0.975,0.975,3500,0.9470000000000001
2016-03-10,0.975,0.98,0.97,0.98,30600,0.9520000000000001
2016-03-11,0.97,0.97,0.97,0.97,75000,0.956
2016-03-14,0.97,0.97,0.97,0.97,0,0.956
2016-03-15,0.96,0.96,0.96,0.96,70000,0.946
2016-03-16,0.96,0.96,0.96,0.96,0,0.946
2016-03-17,0.96,0.96,0.96,0.96,0,0.946
2016-03-18,0.96,0.96,0.96,0.96,0,0.946
2016-03-21,0.96,0.96,0.94,0.94,20000,0.9259999999999999
2016-03-22,0.94,0.94,0.94,0.94,0,0.9259999999999999
2016-03-23,0.94,0.94,0.94,0.94,0,0.9259999999999999
2016-03-24,0.94,0.94,0.94,0.94,5000,0.9259999999999999
2016-03-25,0.94,0.94,0.94,0.94,0,0.9259999999999999
2016-03-28,0.94,0.94,0.94,0.94,0,0.9259999999999999
2016-03-29,0.95,0.95,0.94,0.94,15900,0.9259999999999999
2016-03-30,0.94,0.95,0.94,0.94,27400,0.9259999999999999
2016-03-31,0.935,0.95,0.93,0.95,59800,0.9359999999999999
2016-04-01,0.95,0.95,0.95,0.95,26000,0.9359999999999999
2016-04-04,0.96,0.96,0.95,0.95,50000,0.9359999999999999
2016-04-05,0.95,0.95,0.95,0.95,0,0.9359999999999999
2016-04-06,0.95,0.95,0.94,0.94,20000,0.9259999999999999
2016-04-07,0.94,0.94,0.94,0.94,14700,0.9259999999999999
2016-04-08,0.94,0.94,0.94,0.94,0,0.9259999999999999
2016-04-11,0.94,0.95,0.94,0.95,28600,0.9359999999999999
2016-04-12,0.94,0.95,0.94,0.95,60000,0.9359999999999999
2016-04-13,0.94,0.94,0.94,0.94,100,0.9259999999999999
2016-04-14,0.94,0.94,0.94,0.94,0,0.9259999999999999
2016-04-15,0.94,0.945,0.94,0.94,72300,0.9259999999999999
2016-04-18,0.94,0.94,0.91,0.91,253000,0.897
2016-04-19,0.91,0.91,0.91,0.91,0,0.897
2016-04-20,0.94,0.95,0.94,0.95,17500,0.9359999999999999
2016-04-21,0.955,0.98,0.95,0.96,76000,0.946
2016-04-22,0.96,0.98,0.96,0.96,18400,0.946
2016-04-25,0.96,0.96,0.96,0.96,0,0.946
2016-04-26,0.96,0.96,0.96,0.96,55000,0.946
2016-04-27,0.96,0.96,0.95,0.95,102700,0.9359999999999999
2016-04-28,0.955,0.96,0.955,0.96,10500,0.946
2016-04-29,0.96,0.96,0.96,0.96,9200,0.946
2016-05-02,0.96,0.97,0.96,0.96,40500,0.946
2016-05-03,0.96,0.975,0.96,0.975,233900,0.961
2016-05-04,0.975,0.98,0.975,0.98,36100,0.966
2016-05-05,0.985,0.985,0.98,0.98,120000,0.966
2016-05-06,0.98,0.985,0.98,0.985,25800,0.971
2016-05-09,0.97,0.99,0.97,0.99,50600,0.976
2016-05-10,0.975,1.0,0.965,1.0,117100,0.985
2016-05-11,0.99,0.99,0.99,0.99,30200,0.976
2016-05-12,0.97,0.97,0.965,0.965,30000,0.951
2016-05-13,0.97,0.97,0.97,0.97,20000,0.956
2016-05-16,0.97,0.97,0.97,0.97,0,0.956
2016-05-17,0.97,0.97,0.96,0.96,105000,0.946
2016-05-18,0.985,0.985,0.975,0.975,25700,0.961
2016-05-19,0.975,1.0,0.975,1.0,24400,0.985
2016-05-20,0.965,0.965,0.965,0.965,16500,0.951
2016-05-23,0.965,0.975,0.94,0.975,38900,0.961
2016-05-24,0.95,0.95,0.95,0.95,154700,0.9359999999999999
2016-05-25,0.97,0.99,0.97,0.99,43200,0.976
2016-05-26,0.97,0.97,0.945,0.95,196500,0.9359999999999999
2016-05-27,0.94,0.94,0.94,0.94,65000,0.9259999999999999
2016-05-30,0.94,0.94,0.94,0.94,0,0.9259999999999999
2016-05-31,0.94,0.94,0.94,0.94,0,0.9259999999999999
2016-06-01,0.935,0.95,0.93,0.93,184600,0.9159999999999999
2016-06-02,0.94,0.94,0.92,0.94,80300,0.9259999999999999
2016-06-03,0.94,0.97,0.94,0.96,99700,0.946
2016-06-06,0.96,0.97,0.92,0.92,307700,0.907
2016-06-07,0.95,0.97,0.95,0.965,140700,0.951
2016-06-08,0.965,0.965,0.965,0.965,0,0.951
2016-06-09,0.965,0.965,0.965,0.965,0,0.951
2016-06-10,0.95,0.95,0.95,0.95,15700,0.9359999999999999
2016-06-13,0.95,0.95,0.95,0.95,0,0.9359999999999999
2016-06-14,0.95,0.95,0.95,0.95,0,0.9359999999999999
2016-06-15,0.95,0.95,0.93,0.93,34100,0.9159999999999999
2016-06-16,0.925,0.925,0.925,0.925,22100,0.912
2016-06-17,0.925,0.925,0.91,0.91,85900,0.897
2016-06-20,0.92,0.92,0.92,0.92,40000,0.907
2016-06-21,0.93,0.95,0.93,0.935,75000,0.9209999999999999
2016-06-22,0.935,0.935,0.93,0.93,15100,0.9159999999999999
2016-06-23,0.93,0.93,0.93,0.93,36000,0.9159999999999999
2016-06-24,0.92,0.935,0.91,0.935,43000,0.9209999999999999
2016-06-27,0.91,0.91,0.91,0.91,10000,0.897
2016-06-28,0.91,0.91,0.91,0.91,9800,0.897
2016-06-29,0.91,0.91,0.91,0.91,16100,0.897
2016-06-30,0.905,0.915,0.905,0.915,27700,0.902
2016-07-01,0.915,0.935,0.91,0.935,71800,0.9209999999999999
2016-07-04,0.935,0.935,0.935,0.935,13100,0.9209999999999999
2016-07-05,0.92,0.93,0.92,0.93,64900,0.9159999999999999
2016-07-06,0.91,0.91,0.9,0.9,40900,0.887
2016-07-07,0.9,0.91,0.9,0.91,105000,0.897
2016-07-08,0.91,0.92,0.91,0.91,27400,0.897
2016-07-11,0.9,0.91,0.9,0.91,112100,0.897
2016-07-12,0.92,0.92,0.91,0.92,25000,0.907
2016-07-13,0.92,0.92,0.92,0.92,9700,0.907
2016-07-14,0.91,0.94,0.91,0.94,32600,0.9259999999999999
2016-07-15,0.94,0.94,0.94,0.94,5400,0.9259999999999999
2016-07-18,0.94,0.94,0.94,0.94,15000,0.9259999999999999
2016-07-19,0.95,0.98,0.95,0.98,25400,0.966
2016-07-20,0.97,0.995,0.96,0.995,61400,0.98
2016-07-21,0.98,0.98,0.96,0.96,50100,0.946
2016-07-22,0.96,0.96,0.96,0.96,50000,0.946
2016-07-25,0.96,1.0,0.96,1.0,139300,0.985
2016-07-26,0.95,0.95,0.95,0.95,9200,0.9359999999999999
2016-07-27,0.95,0.95,0.95,0.95,6000,0.9359999999999999
2016-07-28,0.955,0.955,0.95,0.95,50000,0.9359999999999999
2016-07-29,0.98,0.99,0.98,0.99,60600,0.976
2016-08-01,0.975,0.975,0.975,0.975,10900,0.961
2016-08-02,0.98,0.99,0.965,0.965,118000,0.951
2016-08-03,0.965,0.965,0.925,0.925,153400,0.912
2016-08-04,0.94,0.99,0.93,0.99,169700,0.976
2016-08-05,0.99,0.99,0.99,0.99,0,0.976
2016-08-08,0.97,0.98,0.97,0.98,32000,0.966
2016-08-09,0.98,0.98,0.94,0.94,252100,0.9259999999999999
2016-08-10,0.945,0.95,0.94,0.94,41000,0.9259999999999999
2016-08-11,0.95,0.99,0.95,0.99,86400,0.976
2016-08-12,0.99,0.99,0.99,0.99,3700,0.976
2016-08-15,0.97,0.99,0.97,0.99,33000,0.976
2016-08-16,0.99,0.99,0.99,0.99,10000,0.976
2016-08-17,0.99,0.99,0.99,0.99,28800,0.976
2016-08-18,0.985,0.99,0.985,0.99,75600,0.976
2016-08-19,0.98,0.985,0.975,0.985,37000,0.971
2016-08-22,0.97,0.97,0.97,0.97,10000,0.956
2016-08-23,0.985,0.99,0.97,0.97,90600,0.956
2016-08-24,0.97,0.97,0.97,0.97,0,0.956
2016-08-25,0.985,0.985,0.985,0.985,40500,0.971
2016-08-26,0.985,0.99,0.98,0.98,78600,0.966
2016-08-29,0.985,0.985,0.985,0.985,26200,0.971
2016-08-30,0.995,1.0,0.995,1.0,155000,0.985
2016-08-31,0.995,0.995,0.99,0.995,60400,0.98
2016-09-01,0.99,0.99,0.99,0.99,145300,0.976
2016-09-02,0.99,0.99,0.98,0.98,102300,0.966
2016-09-05,0.97,0.97,0.97,0.97,25700,0.97
2016-09-06,0.965,0.99,0.965,0.99,90000,0.99
2016-09-07,0.98,0.98,0.98,0.98,101900,0.98
2016-09-08,0.98,0.98,0.98,0.98,50900,0.98
2016-09-09,0.965,0.965,0.965,0.965,8000,0.965
2016-09-12,0.97,0.98,0.97,0.98,80000,0.98
2016-09-13,0.98,0.99,0.97,0.97,103100,0.97
2016-09-14,0.965,0.965,0.965,0.965,36000,0.965
2016-09-15,0.97,0.97,0.97,0.97,25000,0.97
2016-09-16,0.97,0.98,0.965,0.98,202300,0.98
2016-09-19,0.97,0.97,0.97,0.97,25000,0.97
2016-09-20,0.965,0.965,0.965,0.965,42000,0.965
2016-09-21,0.97,0.97,0.96,0.96,87000,0.96
2016-09-22,0.97,0.97,0.965,0.97,101800,0.97
2016-09-23,0.96,0.96,0.96,0.96,40000,0.96
2016-09-26,0.96,0.96,0.96,0.96,0,0.96
2016-09-27,0.97,0.98,0.955,0.955,19200,0.955
2016-09-28,0.97,0.97,0.97,0.97,30500,0.97
2016-09-29,0.975,0.98,0.96,0.98,116100,0.98
2016-09-30,0.98,0.98,0.98,0.98,0,0.98
2016-10-03,0.99,0.99,0.99,0.99,25200,0.99
2016-10-04,1.0,1.02,0.99,0.99,15200,0.99
2016-10-05,0.99,1.02,0.99,1.0,35300,1.0
2016-10-06,1.0,1.0,1.0,1.0,59500,1.0
2016-10-07,1.0,1.0,1.0,1.0,69900,1.0
2016-10-10,0.99,0.99,0.99,0.99,0,0.99
2016-10-11,1.0,1.02,1.0,1.02,44300,1.02
2016-10-12,1.02,1.02,1.02,1.02,0,1.02
2016-10-13,1.0,1.01,1.0,1.01,27500,1.01
2016-10-14,1.0,1.01,1.0,1.0,48300,1.0
2016-10-17,1.01,1.01,1.0,1.0,24300,1.0
2016-10-18,1.0,1.0,0.99,0.99,72100,0.99
2016-10-19,0.99,0.99,0.98,0.985,37000,0.985
2016-10-20,0.99,0.99,0.99,0.99,9500,0.99
2016-10-21,0.985,0.99,0.98,0.99,51900,0.99
2016-10-24,0.98,1.0,0.97,0.99,47400,0.99
2016-10-25,1.0,1.01,1.0,1.01,49700,1.01
2016-10-26,1.0,1.005,0.99,0.99,94700,0.99
2016-10-27,1.01,1.01,1.0,1.0,49700,1.0
2016-10-28,1.01,1.01,1.0,1.0,17200,1.0
2016-10-31,0.995,0.995,0.995,0.995,32500,0.995
2016-11-01,0.995,0.995,0.995,0.995,41200,0.995
2016-11-02,0.995,0.995,0.995,0.995,93700,0.995
2016-11-03,0.995,1.0,0.99,1.0,94900,1.0
2016-11-04,0.99,1.0,0.99,1.0,161800,1.0
2016-11-07,1.01,1.02,1.01,1.01,30000,1.01
2016-11-08,1.01,1.01,1.01,1.01,0,1.01
2016-11-09,1.0,1.0,0.99,0.99,55100,0.99
2016-11-10,0.99,0.99,0.99,0.99,0,0.99
2016-11-11,0.99,0.99,0.99,0.99,0,0.99
2016-11-14,1.0,1.0,1.0,1.0,6600,1.0
2016-11-15,1.0,1.0,1.0,1.0,0,1.0
2016-11-16,1.01,1.01,1.01,1.01,19700,1.01
2016-11-17,1.0,1.0,0.99,0.99,124900,0.99
2016-11-18,0.995,1.0,0.99,0.99,135000,0.99
2016-11-21,1.0,1.0,0.98,1.0,247400,1.0
2016-11-22,1.0,1.01,1.0,1.01,72800,1.01
2016-11-23,1.01,1.02,1.01,1.01,55000,1.01
2016-11-24,1.01,1.05,0.98,0.99,102600,0.99
2016-11-25,1.035,1.05,1.035,1.05,72200,1.05
2016-11-28,1.0,1.0,0.975,0.98,134400,0.98
2016-11-29,0.98,0.985,0.98,0.98,107500,0.98
2016-11-30,1.015,1.05,1.015,1.05,39100,1.05
2016-12-01,0.985,0.985,0.985,0.985,17500,0.985
2016-12-02,0.985,0.985,0.985,0.985,10000,0.985
2016-12-05,0.985,0.985,0.985,0.985,0,0.985
2016-12-06,1.0,1.0,1.0,1.0,89900,1.0
2016-12-07,1.0,1.0,1.0,1.0,86800,1.0
2016-12-08,0.99,1.0,0.99,0.995,113200,0.995
2016-12-09,0.995,0.995,0.995,0.995,0,0.995
2016-12-12,0.995,0.995,0.995,0.995,85500,0.995
2016-12-13,0.99,0.99,0.99,0.99,35300,0.99
2016-12-14,0.98,0.98,0.98,0.98,94000,0.98
2016-12-15,0.98,0.98,0.98,0.98,15700,0.98
2016-12-16,0.98,0.99,0.98,0.99,44700,0.99
2016-12-19,0.995,1.0,0.99,0.99,43300,0.99
2016-12-20,0.99,0.99,0.98,0.98,119000,0.98
2016-12-21,0.98,0.98,0.98,0.98,35200,0.98
2016-12-22,0.955,0.955,0.955,0.955,2700,0.955
2016-12-23,0.955,0.955,0.955,0.955,0,0.955
2016-12-26,0.955,0.955,0.955,0.955,0,0.955
2016-12-27,0.955,0.955,0.955,0.955,0,0.955
2016-12-28,0.955,0.955,0.955,0.955,0,0.955
2016-12-29,0.955,0.955,0.955,0.955,0,0.955
2016-12-30,0.97,0.97,0.965,0.965,25000,0.965
