Date,Open,High,Low,Close,Volume,Adj Close
2015-10-30,0.4,0.4,0.33,0.34,3936500,0.34
2015-11-02,0.34,0.345,0.34,0.345,38200,0.345
2015-11-03,0.36,0.37,0.35,0.35,20400,0.35
2015-11-04,0.35,0.35,0.35,0.35,64900,0.35
2015-11-05,0.35,0.35,0.34,0.34,19800,0.34
2015-11-06,0.34,0.34,0.34,0.34,13500,0.34
2015-11-09,0.34,0.34,0.34,0.34,0,0.34
2015-11-10,0.315,0.315,0.3,0.3,46000,0.3
2015-11-11,0.32,0.35,0.32,0.35,9300,0.35
2015-11-12,0.35,0.35,0.33,0.33,32200,0.33
2015-11-13,0.33,0.33,0.33,0.33,0,0.33
2015-11-16,0.33,0.33,0.33,0.33,104200,0.33
2015-11-17,0.33,0.33,0.33,0.33,0,0.33
2015-11-18,0.33,0.33,0.33,0.33,0,0.33
2015-11-19,0.32,0.32,0.32,0.32,55000,0.32
2015-11-20,0.33,0.35,0.33,0.35,115000,0.35
2015-11-23,0.35,0.35,0.35,0.35,160000,0.35
2015-11-24,0.34,0.34,0.34,0.34,160000,0.34
2015-11-25,0.34,0.34,0.34,0.34,0,0.34
2015-11-26,0.31,0.31,0.305,0.305,8100,0.305
2015-11-27,0.32,0.32,0.32,0.32,200000,0.32
2015-11-30,0.35,0.35,0.3,0.3,31900,0.3
2015-12-01,0.3,0.34,0.3,0.34,13900,0.34
2015-12-02,0.34,0.34,0.34,0.34,0,0.34
2015-12-03,0.34,0.34,0.34,0.34,0,0.34
2015-12-04,0.34,0.34,0.34,0.34,0,0.34
2015-12-07,0.34,0.34,0.34,0.34,0,0.34
2015-12-08,0.34,0.34,0.34,0.34,0,0.34
2015-12-09,0.325,0.325,0.325,0.325,1500,0.325
2015-12-10,0.325,0.325,0.325,0.325,0,0.325
2015-12-11,0.325,0.325,0.325,0.325,0,0.325
2015-12-14,0.31,0.31,0.3,0.3,21500,0.3
2015-12-15,0.3,0.3,0.3,0.3,0,0.3
2015-12-16,0.31,0.31,0.3,0.3,99600,0.3
2015-12-17,0.3,0.3,0.3,0.3,0,0.3
2015-12-18,0.295,0.32,0.295,0.3,260400,0.3
2015-12-21,0.275,0.275,0.275,0.275,5000,0.275
2015-12-22,0.28,0.28,0.28,0.28,198000,0.28
2015-12-23,0.3,0.3,0.3,0.3,69000,0.3
2015-12-24,0.355,0.365,0.34,0.34,383300,0.34
2015-12-25,0.34,0.34,0.34,0.34,0,0.34
2015-12-28,0.34,0.34,0.34,0.34,0,0.34
2015-12-29,0.345,0.35,0.32,0.32,17300,0.32
2015-12-30,0.32,0.32,0.32,0.32,0,0.32
2015-12-31,0.34,0.34,0.34,0.34,23100,0.34
2016-01-01,0.34,0.34,0.34,0.34,0,0.34
2016-01-04,0.34,0.34,0.34,0.34,0,0.34
2016-01-05,0.34,0.365,0.34,0.34,76900,0.34
2016-01-06,0.34,0.34,0.34,0.34,0,0.34
2016-01-07,0.34,0.34,0.335,0.335,6400,0.335
2016-01-08,0.33,0.33,0.3,0.3,143100,0.3
2016-01-11,0.3,0.3,0.3,0.3,0,0.3
2016-01-12,0.3,0.3,0.3,0.3,0,0.3
2016-01-13,0.3,0.3,0.3,0.3,0,0.3
2016-01-14,0.32,0.33,0.3,0.3,302100,0.3
2016-01-15,0.31,0.31,0.31,0.31,30000,0.31
2016-01-18,0.31,0.31,0.31,0.31,0,0.31
2016-01-19,0.305,0.305,0.305,0.305,3000,0.305
2016-01-20,0.305,0.305,0.3,0.3,15000,0.3
2016-01-21,0.3,0.3,0.3,0.3,0,0.3
2016-01-22,0.3,0.3,0.275,0.275,9000,0.275
2016-01-25,0.275,0.275,0.275,0.275,0,0.275
2016-01-26,0.275,0.275,0.275,0.275,0,0.275
2016-01-27,0.275,0.275,0.275,0.275,0,0.275
2016-01-28,0.275,0.275,0.275,0.275,0,0.275
2016-01-29,0.275,0.275,0.275,0.275,4400,0.275
2016-02-01,0.275,0.275,0.275,0.275,0,0.275
2016-02-02,0.275,0.275,0.275,0.275,43100,0.275
2016-02-03,0.275,0.275,0.275,0.275,5000,0.275
2016-02-04,0.275,0.275,0.275,0.275,0,0.275
2016-02-05,0.25,0.25,0.25,0.25,9000,0.25
2016-02-08,0.24,0.245,0.24,0.245,36800,0.245
2016-02-09,0.245,0.245,0.245,0.245,0,0.245
2016-02-10,0.245,0.245,0.245,0.245,0,0.245
2016-02-11,0.25,0.25,0.245,0.245,30000,0.245
2016-02-12,0.245,0.245,0.245,0.245,3500,0.245
2016-02-15,0.245,0.245,0.215,0.215,6200,0.215
2016-02-16,0.225,0.225,0.22,0.22,28500,0.22
2016-02-17,0.24,0.24,0.24,0.24,55000,0.24
2016-02-18,0.24,0.24,0.24,0.24,56200,0.24
2016-02-19,0.24,0.26,0.23,0.26,75000,0.26
2016-02-22,0.26,0.28,0.26,0.28,39100,0.28
2016-02-23,0.3,0.3,0.29,0.3,76000,0.3
2016-02-24,0.3,0.3,0.3,0.3,0,0.3
2016-02-25,0.3,0.3,0.3,0.3,30000,0.3
2016-02-26,0.3,0.3,0.3,0.3,5600,0.3
2016-02-29,0.3,0.3,0.3,0.3,25800,0.3
2016-03-01,0.32,0.34,0.32,0.34,214300,0.34
2016-03-02,0.34,0.34,0.34,0.34,12000,0.34
2016-03-03,0.34,0.34,0.34,0.34,50000,0.34
2016-03-04,0.33,0.33,0.32,0.32,147800,0.32
2016-03-07,0.32,0.32,0.32,0.32,130000,0.32
2016-03-08,0.32,0.32,0.32,0.32,18000,0.32
2016-03-09,0.32,0.32,0.32,0.32,0,0.32
2016-03-10,0.31,0.31,0.31,0.31,319000,0.31
2016-03-11,0.31,0.31,0.31,0.31,100900,0.31
2016-03-14,0.335,0.36,0.335,0.335,113000,0.335
2016-03-15,0.345,0.345,0.345,0.345,15000,0.345
2016-03-16,0.355,0.37,0.355,0.37,459900,0.37
2016-03-17,0.36,0.36,0.36,0.36,7700,0.36
2016-03-18,0.36,0.36,0.36,0.36,0,0.36
2016-03-21,0.36,0.36,0.36,0.36,0,0.36
2016-03-22,0.36,0.36,0.36,0.36,0,0.36
2016-03-23,0.345,0.345,0.345,0.345,28300,0.345
2016-03-24,0.345,0.345,0.345,0.345,0,0.345
2016-03-25,0.345,0.345,0.345,0.345,0,0.345
2016-03-28,0.345,0.345,0.345,0.345,0,0.345
2016-03-29,0.345,0.345,0.345,0.345,0,0.345
2016-03-30,0.345,0.345,0.345,0.345,0,0.345
2016-03-31,0.345,0.345,0.345,0.345,0,0.345
2016-04-01,0.27,0.29,0.27,0.27,72000,0.27
2016-04-04,0.27,0.27,0.27,0.27,0,0.27
2016-04-05,0.265,0.265,0.26,0.26,51800,0.26
2016-04-06,0.26,0.26,0.26,0.26,0,0.26
2016-04-07,0.26,0.26,0.26,0.26,10000,0.26
2016-04-08,0.26,0.26,0.26,0.26,0,0.26
2016-04-11,0.25,0.25,0.245,0.245,20000,0.245
2016-04-12,0.24,0.25,0.24,0.25,35800,0.25
2016-04-13,0.25,0.25,0.23,0.23,95000,0.23
2016-04-14,0.23,0.23,0.23,0.23,0,0.23
2016-04-15,0.23,0.23,0.23,0.23,0,0.23
2016-04-18,0.23,0.23,0.23,0.23,5000,0.23
2016-04-19,0.23,0.23,0.23,0.23,3000,0.23
2016-04-20,0.23,0.23,0.23,0.23,0,0.23
2016-04-21,0.25,0.25,0.25,0.25,5000,0.25
2016-04-22,0.28,0.28,0.28,0.28,9400,0.28
2016-04-25,0.28,0.28,0.28,0.28,0,0.28
2016-04-26,0.28,0.28,0.28,0.28,0,0.28
2016-04-27,0.3,0.3,0.3,0.3,65500,0.3
2016-04-28,0.3,0.33,0.3,0.3,124900,0.3
2016-04-29,0.33,0.33,0.33,0.33,139800,0.33
2016-05-02,0.32,0.32,0.32,0.32,30000,0.32
2016-05-03,0.32,0.32,0.32,0.32,0,0.32
2016-05-04,0.31,0.31,0.31,0.31,100000,0.31
2016-05-05,0.31,0.31,0.31,0.31,50000,0.31
2016-05-06,0.31,0.31,0.31,0.31,0,0.31
2016-05-09,0.3,0.3,0.3,0.3,49200,0.3
2016-05-10,0.31,0.31,0.31,0.31,1300,0.31
2016-05-11,0.32,0.33,0.32,0.33,37000,0.33
2016-05-12,0.33,0.33,0.33,0.33,0,0.33
2016-05-13,0.34,0.345,0.34,0.345,37500,0.345
2016-05-16,0.355,0.355,0.355,0.355,110000,0.355
2016-05-17,0.35,0.35,0.325,0.325,43600,0.325
2016-05-18,0.325,0.34,0.325,0.325,63000,0.325
2016-05-19,0.325,0.325,0.325,0.325,0,0.325
2016-05-20,0.325,0.325,0.325,0.325,0,0.325
2016-05-23,0.325,0.325,0.325,0.325,0,0.325
2016-05-24,0.325,0.325,0.325,0.325,0,0.325
2016-05-25,0.325,0.325,0.325,0.325,0,0.325
2016-05-26,0.32,0.32,0.32,0.32,55000,0.32
2016-05-27,0.32,0.32,0.32,0.32,0,0.32
2016-05-30,0.32,0.32,0.32,0.32,0,0.32
2016-05-31,0.24,0.24,0.24,0.24,1400,0.24
2016-06-01,0.27,0.27,0.27,0.27,1900,0.27
2016-06-02,0.27,0.27,0.26,0.26,16800,0.26
2016-06-03,0.26,0.27,0.26,0.27,59000,0.27
2016-06-06,0.27,0.27,0.27,0.27,0,0.27
2016-06-07,0.27,0.27,0.27,0.27,0,0.27
2016-06-08,0.27,0.27,0.27,0.27,0,0.27
2016-06-09,0.27,0.27,0.27,0.27,0,0.27
2016-06-10,0.27,0.35,0.27,0.325,386500,0.325
2016-06-13,0.325,0.325,0.325,0.325,0,0.325
2016-06-14,0.31,0.31,0.305,0.305,59200,0.305
2016-06-15,0.275,0.275,0.275,0.275,18100,0.275
2016-06-16,0.27,0.27,0.27,0.27,7900,0.27
2016-06-17,0.29,0.3,0.29,0.3,14600,0.3
2016-06-20,0.3,0.3,0.3,0.3,10000,0.3
2016-06-21,0.3,0.3,0.3,0.3,300,0.3
2016-06-22,0.3,0.3,0.3,0.3,0,0.3
2016-06-23,0.3,0.3,0.3,0.3,20000,0.3
2016-06-24,0.29,0.29,0.28,0.28,42000,0.28
2016-06-27,0.28,0.28,0.28,0.28,0,0.28
2016-06-28,0.28,0.28,0.28,0.28,0,0.28
2016-06-29,0.3,0.31,0.3,0.3,40000,0.3
2016-06-30,0.3,0.3,0.3,0.3,0,0.3
2016-07-01,0.3,0.3,0.3,0.3,0,0.3
2016-07-04,0.3,0.3,0.3,0.3,0,0.3
2016-07-05,0.3,0.3,0.3,0.3,0,0.3
2016-07-06,0.3,0.3,0.3,0.3,0,0.3
2016-07-07,0.3,0.3,0.3,0.3,0,0.3
2016-07-08,0.3,0.3,0.3,0.3,0,0.3
2016-07-11,0.3,0.3,0.3,0.3,0,0.3
2016-07-12,0.25,0.25,0.25,0.25,6500,0.25
2016-07-13,0.25,0.25,0.25,0.25,0,0.25
2016-07-14,0.25,0.25,0.25,0.25,55400,0.25
2016-07-15,0.25,0.25,0.25,0.25,95900,0.25
2016-07-18,0.295,0.295,0.295,0.295,34000,0.295
2016-07-19,0.295,0.295,0.295,0.295,6000,0.295
2016-07-20,0.295,0.295,0.295,0.295,0,0.295
2016-07-21,0.295,0.295,0.295,0.295,0,0.295
2016-07-22,0.295,0.295,0.295,0.295,0,0.295
2016-07-25,0.295,0.295,0.295,0.295,0,0.295
2016-07-26,0.295,0.295,0.295,0.295,0,0.295
2016-07-27,0.295,0.295,0.295,0.295,0,0.295
2016-07-28,0.295,0.295,0.295,0.295,0,0.295
2016-07-29,0.295,0.295,0.295,0.295,0,0.295
2016-08-01,0.295,0.295,0.295,0.295,0,0.295
2016-08-02,0.24,0.24,0.24,0.24,5000,0.24
2016-08-03,0.25,0.25,0.25,0.25,1500,0.25
2016-08-04,0.25,0.25,0.25,0.25,3000,0.25
2016-08-05,0.245,0.245,0.245,0.245,12000,0.245
2016-08-08,0.245,0.245,0.245,0.245,0,0.245
2016-08-09,0.25,0.25,0.25,0.25,20000,0.25
2016-08-10,0.25,0.25,0.25,0.25,0,0.25
2016-08-11,0.25,0.25,0.25,0.25,100000,0.25
2016-08-12,0.25,0.25,0.25,0.25,100000,0.25
2016-08-15,0.25,0.25,0.25,0.25,0,0.25
2016-08-16,0.25,0.25,0.25,0.25,0,0.25
2016-08-17,0.25,0.25,0.25,0.25,0,0.25
2016-08-18,0.25,0.25,0.25,0.25,0,0.25
2016-08-19,0.25,0.25,0.25,0.25,0,0.25
2016-08-22,0.25,0.25,0.25,0.25,0,0.25
2016-08-23,0.25,0.25,0.25,0.25,0,0.25
2016-08-24,0.25,0.25,0.25,0.25,0,0.25
2016-08-25,0.25,0.25,0.25,0.25,0,0.25
2016-08-26,0.25,0.25,0.25,0.25,0,0.25
2016-08-29,0.25,0.25,0.25,0.25,0,0.25
2016-08-30,0.22,0.22,0.22,0.22,5000,0.22
2016-08-31,0.22,0.22,0.22,0.22,15000,0.22
2016-09-01,0.22,0.22,0.22,0.22,0,0.22
2016-09-02,0.22,0.22,0.22,0.22,0,0.22
2016-09-05,0.23,0.23,0.225,0.225,50000,0.225
2016-09-06,0.225,0.225,0.225,0.225,2200,0.225
2016-09-07,0.225,0.225,0.225,0.225,17700,0.225
2016-09-08,0.225,0.225,0.225,0.225,0,0.225
2016-09-09,0.25,0.25,0.25,0.25,2400,0.25
2016-09-12,0.25,0.25,0.25,0.25,0,0.25
2016-09-13,0.25,0.25,0.25,0.25,0,0.25
2016-09-14,0.25,0.25,0.25,0.25,0,0.25
2016-09-15,0.22,0.22,0.22,0.22,25000,0.22
2016-09-16,0.22,0.25,0.22,0.25,35000,0.25
2016-09-19,0.25,0.25,0.25,0.25,0,0.25
2016-09-20,0.24,0.24,0.24,0.24,10000,0.24
2016-09-21,0.23,0.23,0.23,0.23,31500,0.23
2016-09-22,0.23,0.23,0.23,0.23,10000,0.23
2016-09-23,0.23,0.23,0.23,0.23,0,0.23
2016-09-26,0.25,0.26,0.25,0.26,31400,0.26
2016-09-27,0.27,0.27,0.27,0.27,43500,0.27
2016-09-28,0.27,0.28,0.27,0.28,20000,0.28
2016-09-29,0.28,0.3,0.28,0.3,230000,0.3
2016-09-30,0.3,0.3,0.3,0.3,7000,0.3
2016-10-03,0.31,0.31,0.3,0.31,61500,0.31
2016-10-04,0.3,0.3,0.23,0.25,114400,0.25
2016-10-05,0.25,0.25,0.25,0.25,30000,0.25
2016-10-06,0.27,0.27,0.27,0.27,4400,0.27
2016-10-07,0.27,0.27,0.27,0.27,0,0.27
2016-10-10,0.27,0.27,0.27,0.27,2400,0.27
2016-10-11,0.27,0.27,0.27,0.27,3100,0.27
2016-10-12,0.27,0.27,0.27,0.27,0,0.27
2016-10-13,0.27,0.27,0.27,0.27,0,0.27
2016-10-14,0.27,0.27,0.27,0.27,0,0.27
2016-10-17,0.27,0.27,0.27,0.27,0,0.27
2016-10-18,0.245,0.245,0.245,0.245,20000,0.245
2016-10-19,0.245,0.245,0.245,0.245,0,0.245
2016-10-20,0.26,0.26,0.26,0.26,60000,0.26
2016-10-21,0.265,0.275,0.265,0.275,105000,0.275
2016-10-24,0.275,0.275,0.275,0.275,125000,0.275
2016-10-25,0.275,0.275,0.275,0.275,0,0.275
2016-10-26,0.275,0.275,0.275,0.275,0,0.275
2016-10-27,0.275,0.275,0.275,0.275,0,0.275
2016-10-28,0.25,0.25,0.25,0.25,25000,0.25
2016-10-31,0.25,0.25,0.25,0.25,0,0.25
2016-11-01,0.25,0.25,0.25,0.25,0,0.25
2016-11-02,0.25,0.25,0.25,0.25,0,0.25
2016-11-03,0.25,0.25,0.25,0.25,0,0.25
2016-11-04,0.25,0.25,0.25,0.25,0,0.25
2016-11-07,0.25,0.25,0.25,0.25,0,0.25
2016-11-08,0.25,0.25,0.25,0.25,0,0.25
2016-11-09,0.25,0.25,0.25,0.25,0,0.25
2016-11-10,0.25,0.25,0.25,0.25,30000,0.25
2016-11-11,0.24,0.24,0.24,0.24,25000,0.24
2016-11-14,0.24,0.24,0.24,0.24,0,0.24
2016-11-15,0.27,0.28,0.27,0.28,125000,0.28
2016-11-16,0.28,0.28,0.28,0.28,0,0.28
2016-11-17,0.28,0.28,0.28,0.28,0,0.28
2016-11-18,0.28,0.28,0.28,0.28,0,0.28
2016-11-21,0.28,0.28,0.28,0.28,0,0.28
2016-11-22,0.28,0.28,0.28,0.28,0,0.28
2016-11-23,0.24,0.24,0.24,0.24,41000,0.24
2016-11-24,0.235,0.235,0.235,0.235,45000,0.235
2016-11-25,0.235,0.235,0.235,0.235,0,0.235
2016-11-28,0.215,0.215,0.215,0.215,5000,0.215
2016-11-29,0.215,0.215,0.215,0.215,0,0.215
2016-11-30,0.215,0.215,0.215,0.215,0,0.215
2016-12-01,0.215,0.215,0.215,0.215,0,0.215
2016-12-02,0.215,0.215,0.215,0.215,5000,0.215
2016-12-05,0.215,0.215,0.215,0.215,0,0.215
2016-12-06,0.215,0.215,0.215,0.215,0,0.215
2016-12-07,0.215,0.215,0.215,0.215,0,0.215
2016-12-08,0.215,0.215,0.215,0.215,0,0.215
2016-12-09,0.215,0.215,0.215,0.215,0,0.215
2016-12-12,0.215,0.215,0.215,0.215,0,0.215
2016-12-13,0.215,0.215,0.215,0.215,0,0.215
2016-12-14,0.215,0.215,0.215,0.215,0,0.215
2016-12-15,0.215,0.215,0.215,0.215,0,0.215
2016-12-16,0.215,0.215,0.215,0.215,0,0.215
2016-12-19,0.215,0.215,0.215,0.215,0,0.215
2016-12-20,0.215,0.215,0.215,0.215,0,0.215
2016-12-21,0.215,0.215,0.215,0.215,6200,0.215
2016-12-22,0.215,0.215,0.215,0.215,0,0.215
2016-12-23,0.215,0.215,0.215,0.215,0,0.215
2016-12-26,0.215,0.215,0.215,0.215,0,0.215
2016-12-27,0.215,0.215,0.215,0.215,0,0.215
2016-12-28,0.215,0.215,0.215,0.215,0,0.215
2016-12-29,0.235,0.235,0.235,0.235,18900,0.235
2016-12-30,0.235,0.235,0.235,0.235,0,0.235
