Date,Open,High,Low,Close,Volume,Adj Close
2014-12-05,1.0,1.02,1.0,1.015,10567000,0.9390000000000001
2014-12-08,1.0,1.0,0.98,0.99,118200,0.9159999999999999
2014-12-09,0.985,0.985,0.985,0.985,42300,0.912
2014-12-10,0.97,0.975,0.97,0.972,7609000,0.899
2014-12-11,0.98,0.985,0.98,0.98,391600,0.907
2014-12-12,0.98,0.98,0.98,0.98,0,0.907
2014-12-15,0.98,0.98,0.98,0.98,0,0.907
2014-12-16,0.98,0.985,0.98,0.985,472500,0.912
2014-12-17,0.985,0.985,0.985,0.985,0,0.912
2014-12-18,0.985,0.985,0.985,0.985,0,0.912
2014-12-19,0.985,0.985,0.985,0.985,0,0.912
2014-12-22,0.99,1.0,0.99,1.0,46000,0.925
2014-12-23,1.0,1.0,1.0,1.0,0,0.925
2014-12-24,1.0,1.0,1.0,1.0,0,0.925
2014-12-25,1.0,1.0,1.0,1.0,0,0.925
2014-12-26,1.0,1.0,1.0,1.0,0,0.925
2014-12-29,1.0,1.0,1.0,1.0,0,0.925
2014-12-30,1.0,1.0,1.0,1.0,0,0.925
2014-12-31,1.0,1.0,1.0,1.0,0,0.925
2015-01-01,1.0,1.0,1.0,1.0,0,0.925
2015-01-02,1.0,1.0,1.0,1.0,0,0.925
2015-01-05,1.0,1.0,1.0,1.0,0,0.925
2015-01-06,1.0,1.0,1.0,1.0,0,0.925
2015-01-07,1.0,1.0,1.0,1.0,0,0.925
2015-01-08,1.0,1.0,1.0,1.0,0,0.925
2015-01-09,1.0,1.0,1.0,1.0,0,0.925
2015-01-12,1.0,1.0,1.0,1.0,0,0.925
2015-01-13,1.0,1.0,1.0,1.0,0,0.925
2015-01-14,0.99,0.99,0.99,0.99,102500,0.9159999999999999
2015-01-15,0.99,0.99,0.99,0.99,0,0.9159999999999999
2015-01-16,0.98,0.98,0.98,0.98,15000,0.907
2015-01-19,0.98,0.98,0.98,0.98,0,0.907
2015-01-20,0.98,0.98,0.98,0.98,0,0.907
2015-01-21,0.98,0.98,0.98,0.98,0,0.907
2015-01-22,0.98,0.98,0.98,0.98,0,0.907
2015-01-23,0.98,0.98,0.98,0.98,0,0.907
2015-01-26,0.98,0.98,0.98,0.98,0,0.907
2015-01-27,0.98,0.98,0.98,0.98,100,0.907
2015-01-28,0.98,0.98,0.98,0.98,0,0.907
2015-01-29,0.98,0.98,0.98,0.98,0,0.907
2015-01-30,0.99,0.99,0.98,0.98,170000,0.907
2015-02-02,0.99,1.0,0.99,1.0,4600,0.925
2015-02-03,1.0,1.0,0.98,0.99,15500,0.9159999999999999
2015-02-04,0.99,0.99,0.99,0.99,312800,0.9159999999999999
2015-02-05,0.99,0.99,0.99,0.99,10000,0.9159999999999999
2015-02-06,0.99,0.99,0.99,0.99,0,0.9159999999999999
2015-02-09,0.99,0.99,0.99,0.99,0,0.9159999999999999
2015-02-10,1.0,1.02,1.0,1.02,10300,0.9440000000000001
2015-02-11,1.02,1.02,1.02,1.02,0,0.9440000000000001
2015-02-12,1.02,1.02,1.02,1.02,0,0.9440000000000001
2015-02-13,1.03,1.03,1.03,1.03,15000,0.953
2015-02-16,1.05,1.1,1.05,1.1,1055000,1.018
2015-02-17,1.1,1.1,1.1,1.1,0,1.018
2015-02-18,1.1,1.1,1.1,1.1,0,1.018
2015-02-19,1.1,1.1,1.1,1.1,0,1.018
2015-02-20,1.1,1.1,1.1,1.1,0,1.018
2015-02-23,1.1,1.1,1.1,1.1,0,1.018
2015-02-24,1.08,1.08,1.08,1.08,29700,0.9990000000000001
2015-02-25,1.1,1.1,1.1,1.1,18500,1.018
2015-02-26,1.1,1.1,1.1,1.1,22000,1.018
2015-02-27,1.09,1.095,1.09,1.095,208000,1.013
2015-03-02,1.08,1.08,1.08,1.08,12000,0.9990000000000001
2015-03-03,1.08,1.08,1.08,1.08,0,0.9990000000000001
2015-03-04,1.08,1.08,1.08,1.08,0,0.9990000000000001
2015-03-05,1.08,1.08,1.08,1.08,0,0.9990000000000001
2015-03-06,1.08,1.08,1.08,1.08,0,0.9990000000000001
2015-03-09,1.08,1.08,1.08,1.08,0,0.9990000000000001
2015-03-10,1.08,1.08,1.08,1.08,0,0.9990000000000001
2015-03-11,1.08,1.08,1.08,1.08,0,0.9990000000000001
2015-03-12,1.08,1.08,1.08,1.08,0,0.9990000000000001
2015-03-13,1.08,1.08,1.08,1.08,0,0.9990000000000001
2015-03-16,1.08,1.08,1.08,1.08,0,0.9990000000000001
2015-03-17,1.08,1.08,1.08,1.08,0,0.9990000000000001
2015-03-18,1.08,1.08,1.08,1.08,0,0.9990000000000001
2015-03-19,1.08,1.08,1.08,1.08,0,0.9990000000000001
2015-03-20,1.06,1.06,1.06,1.06,500,0.981
2015-03-23,1.06,1.06,1.06,1.06,0,0.981
2015-03-24,1.06,1.06,1.06,1.06,0,0.981
2015-03-25,1.06,1.06,1.06,1.06,0,0.981
2015-03-26,1.08,1.08,1.08,1.08,1000,0.9990000000000001
2015-03-27,1.08,1.08,1.08,1.08,0,0.9990000000000001
2015-03-30,1.08,1.08,1.08,1.08,0,0.9990000000000001
2015-03-31,1.08,1.08,1.08,1.08,0,0.9990000000000001
2015-04-01,1.08,1.08,1.08,1.08,0,0.9990000000000001
2015-04-02,1.07,1.07,1.05,1.05,22300,0.972
2015-04-03,1.05,1.05,1.05,1.05,0,0.972
2015-04-06,1.05,1.05,1.05,1.05,0,0.972
2015-04-07,0.99,0.99,0.99,0.99,3900,0.9159999999999999
2015-04-08,0.99,0.99,0.99,0.99,26500,0.9159999999999999
2015-04-09,0.975,0.975,0.975,0.975,600,0.902
2015-04-10,0.975,0.975,0.975,0.975,0,0.902
2015-04-13,0.975,0.975,0.975,0.975,0,0.902
2015-04-14,0.975,0.975,0.975,0.975,0,0.902
2015-04-15,0.975,0.975,0.975,0.975,0,0.902
2015-04-16,1.04,1.04,1.04,1.04,6000,0.9620000000000001
2015-04-17,1.04,1.04,1.04,1.04,0,0.9620000000000001
2015-04-20,1.04,1.04,1.04,1.04,0,0.9620000000000001
2015-04-21,1.045,1.045,1.045,1.045,500,0.9670000000000001
2015-04-22,1.045,1.045,1.045,1.045,0,0.9670000000000001
2015-04-23,1.045,1.045,1.045,1.045,0,0.9670000000000001
2015-04-24,1.035,1.035,1.035,1.035,2000,0.958
2015-04-27,1.035,1.035,1.035,1.035,0,0.958
2015-04-28,1.035,1.035,1.035,1.035,0,0.958
2015-04-29,1.035,1.035,1.035,1.035,0,0.958
2015-04-30,1.0,1.0,1.0,1.0,137100,0.925
2015-05-01,1.0,1.0,1.0,1.0,0,0.925
2015-05-04,1.0,1.0,1.0,1.0,0,0.925
2015-05-05,1.0,1.0,1.0,1.0,0,0.925
2015-05-06,1.0,1.0,1.0,1.0,0,0.925
2015-05-07,1.0,1.0,1.0,1.0,0,0.925
2015-05-08,1.0,1.0,1.0,1.0,0,0.925
2015-05-11,1.0,1.0,1.0,1.0,0,0.925
2015-05-12,1.0,1.0,1.0,1.0,0,0.925
2015-05-13,1.0,1.0,1.0,1.0,0,0.925
2015-05-14,1.0,1.0,1.0,1.0,0,0.925
2015-05-15,1.0,1.01,0.99,0.99,2100,0.9159999999999999
2015-05-18,0.99,0.99,0.99,0.99,0,0.9159999999999999
2015-05-19,0.99,0.99,0.99,0.99,0,0.9159999999999999
2015-05-20,0.99,0.99,0.99,0.99,0,0.9159999999999999
2015-05-21,0.99,0.99,0.99,0.99,0,0.9159999999999999
2015-05-22,0.99,0.99,0.99,0.99,0,0.9159999999999999
2015-05-25,0.96,0.96,0.96,0.96,200000,0.888
2015-05-26,0.96,0.96,0.96,0.96,0,0.888
2015-05-27,0.99,0.99,0.95,0.95,111000,0.879
2015-05-28,0.99,0.995,0.99,0.995,47800,0.9209999999999999
2015-05-29,0.99,0.99,0.98,0.98,55800,0.907
2015-06-01,0.98,0.98,0.98,0.98,0,0.907
2015-06-02,1.0,1.0,1.0,1.0,130000,0.925
2015-06-03,1.0,1.0,1.0,1.0,0,0.925
2015-06-04,1.0,1.0,1.0,1.0,0,0.925
2015-06-05,1.0,1.0,1.0,1.0,0,0.925
2015-06-08,1.0,1.0,1.0,1.0,0,0.925
2015-06-09,1.02,1.02,1.02,1.02,271100,0.9440000000000001
2015-06-10,1.02,1.02,1.02,1.02,0,0.9440000000000001
2015-06-11,1.0,1.0,1.0,1.0,3100,0.925
2015-06-12,1.0,1.0,1.0,1.0,0,0.925
2015-06-15,1.0,1.0,1.0,1.0,0,0.925
2015-06-16,1.0,1.0,1.0,1.0,0,0.925
2015-06-17,1.0,1.0,1.0,1.0,0,0.925
2015-06-18,1.0,1.0,1.0,1.0,0,0.925
2015-06-19,0.955,0.955,0.955,0.955,150000,0.884
2015-06-22,0.96,0.96,0.96,0.96,42200,0.888
2015-06-23,0.96,0.96,0.96,0.96,0,0.888
2015-06-24,0.96,0.96,0.96,0.96,0,0.888
2015-06-25,0.96,0.96,0.96,0.96,0,0.888
2015-06-26,0.95,0.95,0.95,0.92,31000,0.851
2015-06-29,0.9,0.9,0.9,0.9,72400,0.833
2015-06-30,0.9,0.9,0.9,0.9,279000,0.833
2015-07-01,0.9,0.9,0.9,0.9,0,0.833
2015-07-02,0.88,0.88,0.88,0.88,11700,0.8140000000000001
2015-07-03,0.88,0.88,0.88,0.88,0,0.8140000000000001
2015-07-06,0.88,0.88,0.88,0.88,0,0.8140000000000001
2015-07-07,0.88,0.88,0.88,0.88,0,0.8140000000000001
2015-07-08,0.88,0.88,0.88,0.88,0,0.8140000000000001
2015-07-09,0.88,0.88,0.88,0.88,0,0.8140000000000001
2015-07-10,0.88,0.88,0.88,0.88,0,0.8140000000000001
2015-07-13,0.88,0.88,0.88,0.88,0,0.8140000000000001
2015-07-14,0.88,0.88,0.88,0.88,0,0.8140000000000001
2015-07-15,0.88,0.88,0.88,0.88,0,0.8140000000000001
2015-07-16,0.88,0.88,0.88,0.88,0,0.8140000000000001
2015-07-17,0.85,0.85,0.85,0.85,10000,0.787
2015-07-20,0.85,0.85,0.85,0.85,0,0.787
2015-07-21,0.89,0.89,0.89,0.89,700,0.8240000000000001
2015-07-22,0.84,0.84,0.84,0.84,55000,0.777
2015-07-23,0.84,0.84,0.84,0.84,0,0.777
2015-07-24,0.84,0.84,0.84,0.84,0,0.777
2015-07-27,0.84,0.84,0.84,0.84,0,0.777
2015-07-28,0.84,0.84,0.84,0.84,0,0.777
2015-07-29,0.8,0.8,0.8,0.8,700,0.74
2015-07-30,0.8,0.8,0.8,0.8,0,0.74
2015-07-31,0.8,0.8,0.8,0.8,1600,0.74
2015-08-03,0.8,0.8,0.8,0.8,0,0.74
2015-08-04,0.8,0.8,0.8,0.8,0,0.74
2015-08-05,0.8,0.8,0.8,0.8,0,0.74
2015-08-06,0.82,0.82,0.82,0.82,4900,0.759
2015-08-07,0.83,0.83,0.83,0.83,5100,0.768
2015-08-10,0.83,0.83,0.83,0.83,0,0.768
2015-08-11,0.82,0.82,0.82,0.82,25000,0.759
2015-08-12,0.82,0.82,0.82,0.82,0,0.759
2015-08-13,0.82,0.82,0.82,0.82,0,0.759
2015-08-14,0.82,0.82,0.82,0.82,0,0.759
2015-08-17,0.82,0.82,0.82,0.82,0,0.759
2015-08-18,0.82,0.82,0.82,0.82,0,0.759
2015-08-19,0.82,0.82,0.82,0.82,0,0.759
2015-08-20,0.82,0.82,0.82,0.82,0,0.759
2015-08-24,0.82,0.82,0.82,0.82,0,0.759
2015-08-25,0.82,0.82,0.82,0.82,0,0.759
2015-08-26,0.82,0.82,0.82,0.82,0,0.759
2015-08-27,0.82,0.82,0.82,0.82,0,0.759
2015-08-28,0.82,0.82,0.82,0.82,0,0.759
2015-08-31,0.82,0.82,0.82,0.82,0,0.759
2015-09-01,0.77,0.77,0.77,0.77,700,0.713
2015-09-02,0.77,0.77,0.77,0.77,0,0.713
2015-09-03,0.8,0.8,0.8,0.8,2200,0.74
2015-09-04,0.8,0.8,0.8,0.8,0,0.74
2015-09-07,0.8,0.8,0.8,0.8,0,0.74
2015-09-08,0.8,0.8,0.8,0.8,0,0.74
2015-09-09,0.8,0.8,0.8,0.8,0,0.74
2015-09-10,0.8,0.8,0.8,0.8,2800,0.74
2015-09-11,0.8,0.8,0.8,0.8,0,0.74
2015-09-14,0.8,0.8,0.8,0.8,0,0.74
2015-09-15,0.8,0.8,0.8,0.8,0,0.74
2015-09-16,0.8,0.8,0.8,0.8,0,0.74
2015-09-17,0.8,0.8,0.8,0.8,0,0.74
2015-09-18,0.7,0.7,0.7,0.7,22800,0.648
2015-09-21,0.7,0.7,0.7,0.7,0,0.648
2015-09-22,0.8,0.8,0.8,0.8,102200,0.74
2015-09-23,0.8,0.8,0.8,0.8,0,0.74
2015-09-24,0.8,0.8,0.8,0.8,0,0.74
2015-09-25,0.79,0.79,0.79,0.79,14000,0.731
2015-09-28,0.79,0.79,0.79,0.79,0,0.731
2015-09-29,0.79,0.79,0.79,0.79,0,0.731
2015-09-30,0.79,0.79,0.79,0.79,100,0.731
2015-10-01,0.79,0.79,0.79,0.79,0,0.731
2015-10-02,0.79,0.79,0.79,0.79,15000,0.731
2015-10-05,0.79,0.79,0.79,0.79,0,0.731
2015-10-06,0.79,0.79,0.79,0.79,0,0.731
2015-10-07,0.79,0.79,0.79,0.79,0,0.731
2015-10-08,0.79,0.79,0.79,0.79,0,0.731
2015-10-09,0.79,0.79,0.79,0.79,0,0.731
2015-10-12,0.79,0.79,0.79,0.79,0,0.731
2015-10-13,0.79,0.79,0.79,0.79,0,0.731
2015-10-14,0.79,0.79,0.79,0.79,0,0.731
2015-10-15,0.79,0.79,0.79,0.79,0,0.731
2015-10-16,0.79,0.79,0.79,0.79,0,0.731
2015-10-19,0.79,0.79,0.79,0.79,0,0.731
2015-10-20,0.79,0.79,0.79,0.79,0,0.731
2015-10-21,0.79,0.79,0.79,0.79,45000,0.731
2015-10-22,0.79,0.79,0.7,0.75,7391500,0.6940000000000001
2015-10-23,0.75,0.75,0.75,0.75,0,0.6940000000000001
2015-10-26,0.72,0.73,0.72,0.73,110000,0.6759999999999999
2015-10-27,0.75,0.76,0.75,0.76,104300,0.703
2015-10-28,0.76,0.76,0.76,0.76,0,0.703
2015-10-29,0.76,0.76,0.76,0.76,0,0.703
2015-10-30,0.76,0.76,0.76,0.76,0,0.703
2015-11-02,0.76,0.76,0.76,0.76,0,0.703
2015-11-03,0.76,0.76,0.76,0.76,0,0.703
2015-11-04,0.76,0.76,0.76,0.76,0,0.703
2015-11-05,0.76,0.76,0.76,0.76,0,0.703
2015-11-06,0.76,0.76,0.76,0.76,0,0.703
2015-11-09,0.76,0.76,0.76,0.76,0,0.703
2015-11-10,0.76,0.76,0.76,0.76,0,0.703
2015-11-11,0.76,0.76,0.76,0.76,0,0.703
2015-11-12,0.76,0.76,0.76,0.76,0,0.703
2015-11-13,0.76,0.76,0.76,0.76,0,0.703
2015-11-16,0.76,0.76,0.76,0.76,0,0.703
2015-11-17,0.76,0.76,0.76,0.76,0,0.703
2015-11-18,0.76,0.76,0.76,0.76,0,0.703
2015-11-19,0.76,0.76,0.76,0.76,0,0.703
2015-11-20,0.76,0.76,0.76,0.76,0,0.703
2015-11-23,0.85,0.85,0.85,0.85,55000,0.787
2015-11-24,0.85,0.85,0.85,0.85,0,0.787
2015-11-25,0.85,0.85,0.85,0.85,0,0.787
2015-11-26,0.85,0.85,0.85,0.85,0,0.787
2015-11-27,0.85,0.85,0.85,0.85,0,0.787
2015-11-30,0.85,0.85,0.85,0.85,0,0.787
2015-12-01,0.85,0.85,0.85,0.85,0,0.787
2015-12-02,0.85,0.85,0.85,0.85,0,0.787
2015-12-03,0.85,0.85,0.85,0.85,0,0.787
2015-12-04,0.85,0.85,0.85,0.85,0,0.8079999999999999
2015-12-07,0.85,0.85,0.85,0.85,0,0.8079999999999999
2015-12-08,0.85,0.85,0.85,0.85,0,0.8079999999999999
2015-12-09,0.85,0.85,0.85,0.85,0,0.8079999999999999
2015-12-10,0.85,0.85,0.85,0.85,0,0.8079999999999999
2015-12-11,0.85,0.85,0.85,0.85,0,0.8079999999999999
2015-12-14,0.85,0.85,0.85,0.85,0,0.8079999999999999
2015-12-15,0.85,0.85,0.85,0.85,0,0.8079999999999999
2015-12-16,0.85,0.85,0.85,0.85,0,0.8079999999999999
2015-12-17,0.85,0.85,0.85,0.85,0,0.8079999999999999
2015-12-18,0.85,0.85,0.85,0.85,0,0.8079999999999999
2015-12-21,0.85,0.85,0.85,0.85,0,0.8079999999999999
2015-12-22,0.85,0.85,0.85,0.85,0,0.8079999999999999
2015-12-23,0.85,0.85,0.85,0.85,0,0.8079999999999999
2015-12-24,0.85,0.85,0.85,0.85,0,0.8079999999999999
2015-12-25,0.85,0.85,0.85,0.85,0,0.8079999999999999
2015-12-28,0.85,0.85,0.85,0.85,0,0.8079999999999999
2015-12-29,0.85,0.85,0.85,0.85,0,0.8079999999999999
2015-12-30,0.85,0.85,0.85,0.85,0,0.8079999999999999
2015-12-31,0.85,0.85,0.85,0.85,0,0.8079999999999999
2016-01-01,0.85,0.85,0.85,0.85,0,0.8079999999999999
2016-01-04,0.85,0.85,0.85,0.85,0,0.8079999999999999
2016-01-05,0.85,0.85,0.85,0.85,0,0.8079999999999999
2016-01-06,0.85,0.85,0.85,0.85,0,0.8079999999999999
2016-01-07,0.85,0.85,0.85,0.85,0,0.8079999999999999
2016-01-08,0.99,0.99,0.95,0.95,21100,0.903
2016-01-11,0.95,0.95,0.95,0.95,0,0.903
2016-01-12,0.95,0.95,0.95,0.95,0,0.903
2016-01-13,0.95,0.95,0.95,0.95,0,0.903
2016-01-14,0.95,0.95,0.95,0.95,0,0.903
2016-01-15,0.95,0.95,0.95,0.95,0,0.903
2016-01-18,0.95,0.95,0.95,0.95,0,0.903
2016-01-19,0.995,0.995,0.99,0.995,0,0.945
2016-01-20,0.995,0.995,0.995,0.995,400,0.945
2016-01-21,0.995,0.995,0.995,0.995,0,0.945
2016-01-22,0.995,0.995,0.995,0.995,0,0.945
2016-01-25,0.995,0.995,0.995,0.995,0,0.945
2016-01-26,0.995,0.995,0.995,0.995,0,0.945
2016-01-27,0.995,0.995,0.995,0.995,0,0.945
2016-01-28,0.995,0.995,0.995,0.995,0,0.945
2016-01-29,0.995,0.995,0.995,0.995,0,0.945
2016-02-01,0.995,0.995,0.995,0.995,0,0.945
2016-02-02,0.995,0.995,0.995,0.995,0,0.945
2016-02-03,0.995,0.995,0.995,0.995,0,0.945
2016-02-04,0.995,0.995,0.995,0.995,0,0.945
2016-02-05,0.93,0.93,0.93,0.93,100,0.884
2016-02-08,0.93,0.93,0.93,0.93,0,0.884
2016-02-09,0.93,0.93,0.93,0.93,0,0.884
2016-02-10,0.93,0.93,0.93,0.93,0,0.884
2016-02-11,0.93,0.93,0.93,0.93,0,0.884
2016-02-12,0.93,0.93,0.93,0.93,0,0.884
2016-02-15,0.93,0.93,0.93,0.93,0,0.884
2016-02-16,0.93,0.93,0.93,0.93,0,0.884
2016-02-17,0.93,0.93,0.93,0.93,0,0.884
2016-02-18,0.93,0.93,0.93,0.93,0,0.884
2016-02-19,0.93,0.93,0.93,0.93,0,0.884
2016-02-22,0.93,0.93,0.93,0.93,0,0.884
2016-02-23,0.905,0.905,0.9,0.9,173000,0.855
2016-02-24,0.9,0.9,0.9,0.9,0,0.855
2016-02-25,0.9,0.9,0.9,0.9,0,0.855
2016-02-26,0.9,0.9,0.9,0.9,0,0.855
2016-02-29,0.9,0.9,0.9,0.9,0,0.855
2016-03-01,0.9,0.9,0.9,0.9,0,0.855
2016-03-02,0.9,0.9,0.9,0.9,0,0.855
2016-03-03,0.9,0.9,0.9,0.9,0,0.855
2016-03-04,0.9,0.9,0.9,0.9,0,0.855
2016-03-07,0.9,0.9,0.9,0.9,0,0.855
2016-03-08,0.9,0.9,0.9,0.9,70000,0.855
2016-03-09,0.9,0.9,0.9,0.9,0,0.855
2016-03-10,0.9,0.9,0.9,0.9,0,0.855
2016-03-11,0.9,0.9,0.9,0.9,0,0.855
2016-03-14,0.9,0.9,0.9,0.9,0,0.855
2016-03-15,0.9,0.9,0.9,0.9,0,0.855
2016-03-16,0.9,0.9,0.9,0.9,0,0.855
2016-03-17,0.9,0.9,0.9,0.9,0,0.855
2016-03-18,0.9,0.9,0.9,0.9,0,0.855
2016-03-21,0.9,0.9,0.9,0.9,0,0.855
2016-03-22,0.9,0.9,0.9,0.9,0,0.855
2016-03-23,0.9,0.9,0.9,0.9,0,0.855
2016-03-24,0.9,0.9,0.9,0.9,0,0.855
2016-03-25,0.9,0.9,0.9,0.9,0,0.855
2016-03-28,0.9,0.9,0.9,0.9,0,0.855
2016-03-29,0.9,0.9,0.9,0.9,0,0.855
2016-03-30,0.9,0.9,0.9,0.9,0,0.855
2016-03-31,0.9,0.9,0.9,0.9,0,0.855
2016-04-01,0.9,0.9,0.9,0.9,0,0.855
2016-04-04,0.9,0.9,0.9,0.9,0,0.855
2016-04-05,0.9,0.9,0.9,0.9,0,0.855
2016-04-06,0.9,0.9,0.9,0.9,0,0.855
2016-04-07,0.9,0.9,0.9,0.9,0,0.855
2016-04-08,0.9,0.9,0.9,0.9,0,0.855
2016-04-11,0.9,0.9,0.9,0.9,0,0.855
2016-04-12,0.9,0.9,0.9,0.9,0,0.855
2016-04-13,0.9,0.9,0.9,0.9,200,0.855
2016-04-14,0.9,0.9,0.9,0.9,0,0.855
2016-04-15,0.9,0.9,0.9,0.9,0,0.855
2016-04-18,0.9,0.9,0.9,0.9,0,0.855
2016-04-19,0.9,0.9,0.9,0.9,0,0.855
2016-04-20,0.9,0.9,0.9,0.9,0,0.855
2016-04-21,0.9,0.9,0.9,0.9,0,0.855
2016-04-22,0.9,0.9,0.9,0.9,0,0.855
2016-04-25,0.9,0.9,0.9,0.9,0,0.855
2016-04-26,0.9,0.9,0.9,0.9,0,0.855
2016-04-27,0.9,0.9,0.9,0.9,0,0.855
2016-04-28,0.92,0.92,0.92,0.92,25000,0.8740000000000001
2016-04-29,0.92,0.92,0.92,0.92,0,0.8740000000000001
2016-05-02,0.92,0.92,0.92,0.92,0,0.8740000000000001
2016-05-03,0.92,0.92,0.92,0.92,0,0.8740000000000001
2016-05-04,0.92,0.92,0.92,0.92,0,0.8740000000000001
2016-05-05,0.92,0.92,0.92,0.92,0,0.8740000000000001
2016-05-06,0.92,0.92,0.92,0.92,218500,0.8740000000000001
2016-05-09,0.92,0.92,0.92,0.92,0,0.8740000000000001
2016-05-10,0.92,0.92,0.92,0.92,0,0.8740000000000001
2016-05-11,0.92,0.92,0.92,0.92,0,0.8740000000000001
2016-05-12,0.92,0.92,0.92,0.92,0,0.8740000000000001
2016-05-13,0.92,0.92,0.92,0.92,0,0.8740000000000001
2016-05-16,0.92,0.92,0.92,0.92,0,0.8740000000000001
2016-05-17,0.92,0.92,0.92,0.92,0,0.8740000000000001
2016-05-18,0.92,0.92,0.92,0.92,0,0.8740000000000001
2016-05-19,0.92,0.92,0.92,0.92,0,0.8740000000000001
2016-05-20,0.92,0.92,0.92,0.92,0,0.8740000000000001
2016-05-23,0.96,0.96,0.96,0.96,0,0.912
2016-05-24,0.96,0.96,0.96,0.96,0,0.912
2016-05-25,0.92,0.92,0.92,0.92,27300,0.8740000000000001
2016-05-26,0.94,0.94,0.94,0.94,10000,0.893
2016-05-27,0.93,0.93,0.84,0.84,14300,0.7979999999999999
2016-05-30,0.91,0.91,0.89,0.89,344100,0.846
2016-05-31,0.89,0.89,0.885,0.885,800,0.841
2016-06-01,0.885,0.885,0.885,0.885,0,0.841
2016-06-02,0.885,0.885,0.885,0.885,0,0.841
2016-06-03,0.885,0.885,0.885,0.885,0,0.841
2016-06-06,0.87,0.87,0.87,0.87,8000,0.8270000000000001
2016-06-07,0.87,0.87,0.87,0.87,0,0.848
2016-06-08,0.87,0.87,0.87,0.87,0,0.848
2016-06-09,0.75,0.85,0.75,0.85,14600,0.8290000000000001
2016-06-10,0.85,0.85,0.85,0.85,0,0.8290000000000001
2016-06-13,0.85,0.85,0.85,0.85,0,0.8290000000000001
2016-06-14,0.85,0.85,0.85,0.85,13000,0.8290000000000001
2016-06-15,0.85,0.85,0.85,0.85,0,0.8290000000000001
2016-06-16,0.85,0.85,0.85,0.85,0,0.8290000000000001
2016-06-17,0.85,0.85,0.85,0.85,0,0.8290000000000001
2016-06-20,0.85,0.85,0.85,0.85,0,0.8290000000000001
2016-06-21,0.85,0.85,0.85,0.85,0,0.8290000000000001
2016-06-22,0.86,0.86,0.86,0.86,14600,0.8390000000000001
2016-06-23,0.86,0.86,0.86,0.86,0,0.8390000000000001
2016-06-24,0.86,0.86,0.86,0.86,0,0.8390000000000001
2016-06-27,0.86,0.86,0.86,0.86,0,0.8390000000000001
2016-06-28,0.86,0.86,0.86,0.86,0,0.8390000000000001
2016-06-29,0.86,0.86,0.86,0.86,0,0.8390000000000001
2016-06-30,0.86,0.86,0.86,0.86,0,0.8390000000000001
2016-07-01,0.86,0.86,0.86,0.86,0,0.8390000000000001
2016-07-04,0.86,0.86,0.86,0.86,0,0.8390000000000001
2016-07-05,0.86,0.86,0.86,0.86,0,0.8390000000000001
2016-07-06,0.86,0.86,0.86,0.86,0,0.8390000000000001
2016-07-07,0.86,0.86,0.86,0.86,0,0.8390000000000001
2016-07-08,0.86,0.86,0.86,0.86,0,0.8390000000000001
2016-07-11,0.86,0.86,0.86,0.86,0,0.8390000000000001
2016-07-12,0.86,0.86,0.86,0.86,0,0.8390000000000001
2016-07-13,0.86,0.86,0.86,0.86,0,0.8390000000000001
2016-07-14,0.86,0.86,0.86,0.86,0,0.8390000000000001
2016-07-15,0.86,0.86,0.86,0.86,0,0.8390000000000001
2016-07-18,0.86,0.86,0.86,0.86,0,0.8390000000000001
2016-07-19,0.86,0.86,0.86,0.86,0,0.8390000000000001
2016-07-20,0.86,0.86,0.86,0.86,0,0.8390000000000001
2016-07-21,0.86,0.86,0.86,0.86,5000,0.8390000000000001
2016-07-22,0.86,0.86,0.86,0.86,0,0.8390000000000001
2016-07-25,0.88,0.88,0.88,0.88,1500,0.858
2016-07-26,0.88,0.88,0.88,0.88,0,0.858
2016-07-27,0.88,0.88,0.88,0.88,0,0.858
2016-07-28,0.88,0.88,0.88,0.88,0,0.858
2016-07-29,0.88,0.88,0.88,0.88,0,0.858
2016-08-01,0.88,0.88,0.88,0.88,0,0.858
2016-08-02,0.88,0.88,0.88,0.88,0,0.858
2016-08-03,0.895,0.895,0.895,0.895,1500,0.873
2016-08-04,0.895,0.895,0.895,0.895,0,0.873
2016-08-05,0.895,0.895,0.895,0.895,0,0.873
2016-08-08,0.895,0.895,0.895,0.895,0,0.873
2016-08-09,0.895,0.895,0.895,0.895,0,0.873
2016-08-10,0.895,0.895,0.895,0.895,0,0.873
2016-08-11,0.895,0.895,0.895,0.895,0,0.873
2016-08-12,0.895,0.895,0.895,0.895,0,0.873
2016-08-15,0.895,0.895,0.895,0.895,0,0.873
2016-08-16,0.895,0.895,0.895,0.895,0,0.873
2016-08-17,0.895,0.895,0.895,0.895,0,0.873
2016-08-18,0.895,0.895,0.895,0.895,0,0.873
2016-08-19,0.88,0.88,0.88,0.88,11400,0.858
2016-08-22,0.88,0.88,0.88,0.88,0,0.858
2016-08-23,0.88,0.88,0.88,0.88,0,0.858
2016-08-24,0.88,0.88,0.88,0.88,0,0.858
2016-08-25,0.88,0.88,0.88,0.88,0,0.858
2016-08-26,0.88,0.88,0.88,0.88,0,0.858
2016-08-29,0.88,0.88,0.88,0.88,0,0.858
2016-08-30,0.88,0.88,0.88,0.88,0,0.858
2016-08-31,0.88,0.88,0.88,0.88,0,0.858
2016-09-01,0.88,0.88,0.88,0.88,0,0.858
2016-09-02,0.91,0.91,0.91,0.91,3300,0.887
2016-09-05,0.91,0.91,0.91,0.91,0,0.887
2016-09-06,0.91,0.91,0.91,0.91,0,0.887
2016-09-07,0.91,0.91,0.91,0.91,0,0.887
2016-09-08,0.91,0.91,0.91,0.91,0,0.887
2016-09-09,0.9,0.9,0.9,0.9,7600,0.878
2016-09-12,0.9,0.9,0.9,0.9,0,0.878
2016-09-13,0.9,0.9,0.9,0.9,0,0.878
2016-09-14,0.9,0.9,0.9,0.9,0,0.878
2016-09-15,0.9,0.9,0.9,0.9,0,0.878
2016-09-16,0.9,0.9,0.9,0.9,0,0.878
2016-09-19,0.9,0.9,0.9,0.9,0,0.878
2016-09-20,0.9,0.9,0.9,0.9,0,0.878
2016-09-21,0.9,0.9,0.9,0.9,0,0.878
2016-09-22,0.9,0.9,0.9,0.9,0,0.878
2016-09-23,0.9,0.9,0.9,0.9,0,0.878
2016-09-26,0.9,0.9,0.9,0.9,0,0.878
2016-09-27,0.9,0.9,0.9,0.9,0,0.878
2016-09-28,0.9,0.9,0.9,0.9,0,0.878
2016-09-29,0.9,0.9,0.9,0.9,0,0.878
2016-09-30,0.95,0.95,0.95,0.95,8000,0.9259999999999999
2016-10-03,0.95,0.95,0.95,0.95,0,0.9259999999999999
2016-10-04,0.95,0.95,0.95,0.95,0,0.9259999999999999
2016-10-05,0.95,0.95,0.95,0.95,0,0.9259999999999999
2016-10-06,0.95,0.95,0.95,0.95,0,0.9259999999999999
2016-10-07,0.95,0.95,0.95,0.95,0,0.9259999999999999
2016-10-10,0.9,0.9,0.9,0.9,500,0.878
2016-10-11,0.9,0.9,0.9,0.9,0,0.878
2016-10-12,0.9,0.9,0.9,0.9,0,0.878
2016-10-13,0.9,0.9,0.9,0.9,0,0.878
2016-10-14,0.9,0.9,0.9,0.9,0,0.878
2016-10-17,0.9,0.9,0.9,0.9,0,0.878
2016-10-18,0.9,0.9,0.9,0.9,0,0.878
2016-10-19,0.9,0.9,0.9,0.9,0,0.878
2016-10-20,0.9,0.9,0.9,0.9,0,0.878
2016-10-21,0.9,0.9,0.9,0.9,0,0.878
2016-10-24,0.9,0.9,0.9,0.9,0,0.878
2016-10-25,0.9,0.9,0.9,0.9,0,0.878
2016-10-26,0.9,0.9,0.9,0.9,0,0.878
2016-10-27,0.9,0.9,0.9,0.9,0,0.878
2016-10-28,0.9,0.9,0.9,0.9,0,0.878
2016-10-31,0.9,0.9,0.9,0.9,0,0.878
2016-11-01,0.9,0.9,0.9,0.9,0,0.878
2016-11-02,0.9,0.9,0.9,0.9,0,0.878
2016-11-03,0.9,0.9,0.9,0.9,0,0.878
2016-11-04,0.9,0.9,0.9,0.9,0,0.878
2016-11-07,0.85,0.85,0.85,0.85,500,0.8290000000000001
2016-11-08,0.85,0.85,0.85,0.85,0,0.8290000000000001
2016-11-09,0.905,0.905,0.9,0.9,5900,0.878
2016-11-10,0.9,0.9,0.9,0.9,0,0.878
2016-11-11,0.9,0.9,0.9,0.9,0,0.878
2016-11-14,0.9,0.9,0.9,0.9,0,0.878
2016-11-15,0.9,0.9,0.9,0.9,0,0.878
2016-11-16,0.9,0.9,0.9,0.9,0,0.878
2016-11-17,0.9,0.9,0.9,0.9,0,0.878
2016-11-18,0.9,0.9,0.9,0.9,0,0.878
2016-11-21,0.9,0.9,0.9,0.9,0,0.878
2016-11-22,0.9,0.9,0.9,0.9,0,0.878
2016-11-23,0.92,0.97,0.92,0.97,136700,0.946
2016-11-24,0.97,0.97,0.97,0.97,0,0.946
2016-11-25,0.97,0.97,0.97,0.97,0,0.946
2016-11-28,1.0,1.0,1.0,1.0,10000,0.975
2016-11-29,1.0,1.0,1.0,1.0,0,0.975
2016-11-30,0.96,0.96,0.96,0.96,5000,0.9359999999999999
2016-12-01,0.96,0.96,0.96,0.96,0,0.9359999999999999
2016-12-02,0.96,0.96,0.96,0.96,0,0.9359999999999999
2016-12-05,0.96,0.96,0.96,0.96,0,0.96
2016-12-06,0.96,0.96,0.96,0.96,0,0.96
2016-12-07,0.96,0.96,0.96,0.96,0,0.96
2016-12-08,0.96,0.96,0.96,0.96,0,0.96
2016-12-09,0.96,0.96,0.96,0.96,0,0.96
2016-12-12,0.96,0.96,0.96,0.96,0,0.96
2016-12-13,0.96,0.96,0.96,0.96,0,0.96
2016-12-14,0.96,0.96,0.96,0.96,0,0.96
2016-12-15,0.96,0.96,0.96,0.96,0,0.96
2016-12-16,0.95,0.95,0.95,0.95,1000,0.95
2016-12-19,0.95,0.95,0.95,0.95,0,0.95
2016-12-20,0.95,0.95,0.95,0.95,0,0.95
2016-12-21,0.95,0.95,0.95,0.95,0,0.95
2016-12-22,0.96,0.96,0.96,0.96,2007500,0.96
2016-12-23,0.96,0.96,0.96,0.96,0,0.96
2016-12-26,0.96,0.96,0.96,0.96,0,0.96
2016-12-27,0.96,0.96,0.96,0.96,0,0.96
2016-12-28,0.96,0.96,0.96,0.96,0,0.96
2016-12-29,0.96,0.96,0.96,0.96,0,0.96
2016-12-30,0.96,0.96,0.96,0.96,0,0.96
