Date,Open,High,Low,Close,Volume,Adj Close
2016-08-26,0.55,0.59,0.5,0.51,7703500,0.51
2016-08-29,0.51,0.54,0.51,0.54,928300,0.54
2016-08-30,0.55,0.55,0.53,0.53,271300,0.53
2016-08-31,0.53,0.53,0.5,0.53,3460200,0.53
2016-09-01,0.53,0.53,0.53,0.53,2000,0.53
2016-09-02,0.53,0.53,0.53,0.53,0,0.53
2016-09-05,0.52,0.52,0.5,0.5,90200,0.5
2016-09-06,0.5,0.51,0.5,0.51,505700,0.51
2016-09-07,0.5,0.515,0.5,0.51,431200,0.51
2016-09-08,0.5,0.505,0.5,0.5,121400,0.5
2016-09-09,0.505,0.505,0.5,0.5,409700,0.5
2016-09-12,0.49,0.49,0.48,0.49,55800,0.49
2016-09-13,0.49,0.49,0.49,0.49,0,0.49
2016-09-14,0.47,0.48,0.465,0.48,106400,0.48
2016-09-15,0.47,0.47,0.46,0.46,30000,0.46
2016-09-16,0.46,0.46,0.46,0.46,20000,0.46
2016-09-19,0.45,0.48,0.45,0.48,34700,0.48
2016-09-20,0.48,0.485,0.48,0.48,75700,0.48
2016-09-21,0.48,0.48,0.475,0.48,50000,0.48
2016-09-22,0.5,0.5,0.5,0.5,5000,0.5
2016-09-23,0.48,0.5,0.48,0.5,142000,0.5
2016-09-26,0.5,0.505,0.49,0.49,66100,0.49
2016-09-27,0.49,0.5,0.46,0.5,142900,0.5
2016-09-28,0.5,0.5,0.5,0.5,12700,0.5
2016-09-29,0.5,0.52,0.5,0.52,240000,0.52
2016-09-30,0.515,0.525,0.515,0.525,47500,0.525
2016-10-03,0.525,0.525,0.5,0.5,11100,0.5
2016-10-04,0.5,0.5,0.5,0.5,29200,0.5
2016-10-05,0.5,0.51,0.5,0.51,258200,0.51
2016-10-06,0.51,0.51,0.51,0.51,1649100,0.51
2016-10-07,0.5,0.5,0.5,0.5,60000,0.5
2016-10-10,0.5,0.5,0.5,0.5,0,0.5
2016-10-11,0.5,0.5,0.5,0.5,240000,0.5
2016-10-12,0.5,0.5,0.5,0.5,0,0.5
2016-10-13,0.5,0.5,0.5,0.5,0,0.5
2016-10-14,0.5,0.5,0.5,0.5,0,0.5
2016-10-17,0.5,0.51,0.5,0.51,81500,0.51
2016-10-18,0.51,0.51,0.51,0.51,0,0.51
2016-10-19,0.5,0.5,0.46,0.5,51900,0.5
2016-10-20,0.5,0.5,0.5,0.5,44500,0.5
2016-10-21,0.5,0.505,0.5,0.505,149000,0.505
2016-10-24,0.505,0.505,0.505,0.505,0,0.505
2016-10-25,0.5,0.5,0.5,0.5,170000,0.5
2016-10-26,0.485,0.485,0.485,0.485,10000,0.485
2016-10-27,0.5,0.51,0.49,0.505,304000,0.505
2016-10-28,0.51,0.51,0.505,0.505,50000,0.505
2016-10-31,0.5,0.51,0.5,0.51,105000,0.51
2016-11-01,0.51,0.51,0.51,0.51,0,0.51
2016-11-02,0.51,0.51,0.51,0.51,0,0.51
2016-11-03,0.46,0.48,0.46,0.48,30000,0.48
2016-11-04,0.48,0.5,0.46,0.5,357400,0.5
2016-11-07,0.5,0.5,0.5,0.5,46400,0.5
2016-11-08,0.505,0.51,0.5,0.5,88900,0.5
2016-11-09,0.5,0.5,0.5,0.5,0,0.5
2016-11-10,0.46,0.51,0.46,0.51,385200,0.51
2016-11-11,0.52,0.55,0.52,0.545,162900,0.545
2016-11-14,0.54,0.545,0.525,0.545,137300,0.545
2016-11-15,0.54,0.545,0.535,0.535,80300,0.535
2016-11-16,0.5,0.5,0.5,0.5,10000,0.5
2016-11-17,0.48,0.48,0.48,0.48,30000,0.48
2016-11-18,0.5,0.51,0.48,0.5,16900,0.5
2016-11-21,0.5,0.5,0.5,0.5,0,0.5
2016-11-22,0.5,0.5,0.5,0.5,0,0.5
2016-11-23,0.495,0.495,0.48,0.48,10000,0.48
2016-11-24,0.48,0.5,0.48,0.5,12000,0.5
2016-11-25,0.5,0.5,0.5,0.5,0,0.5
2016-11-28,0.5,0.5,0.5,0.5,1900,0.5
2016-11-29,0.48,0.5,0.48,0.5,97800,0.5
2016-11-30,0.49,0.5,0.49,0.5,15900,0.5
2016-12-01,0.5,0.5,0.5,0.5,0,0.5
2016-12-02,0.49,0.49700000000000005,0.49,0.495,10300,0.495
2016-12-05,0.49,0.49,0.49,0.49,2000,0.49
2016-12-06,0.46,0.46,0.46,0.46,26100,0.46
2016-12-07,0.46,0.46,0.46,0.46,0,0.46
2016-12-08,0.46,0.46,0.46,0.46,0,0.46
2016-12-09,0.46,0.46,0.46,0.46,8000,0.46
2016-12-12,0.46,0.46,0.46,0.46,80000,0.46
2016-12-13,0.46,0.46,0.46,0.46,2000,0.46
2016-12-14,0.46,0.46,0.46,0.46,0,0.46
2016-12-15,0.46,0.46,0.46,0.46,0,0.46
2016-12-16,0.46,0.46,0.46,0.46,112400,0.46
2016-12-19,0.46,0.46,0.46,0.46,120000,0.46
2016-12-20,0.46,0.46,0.46,0.46,0,0.46
2016-12-21,0.46,0.46,0.46,0.46,260700,0.46
2016-12-22,0.46,0.46,0.455,0.455,156600,0.455
2016-12-23,0.455,0.455,0.45,0.455,147000,0.455
2016-12-26,0.455,0.455,0.455,0.455,0,0.455
2016-12-27,0.455,0.455,0.455,0.455,0,0.455
2016-12-28,0.455,0.455,0.455,0.455,0,0.455
2016-12-29,0.455,0.455,0.455,0.455,0,0.455
2016-12-30,0.43,0.49,0.43,0.49,86000,0.49
