Date,Open,High,Low,Close,Volume,Adj Close
2012-02-07,0.3,0.3,0.3,0.3,35000,0.3
2012-02-08,0.255,0.28,0.25,0.28,100000,0.28
2012-02-09,0.28,0.28,0.28,0.28,0,0.28
2012-02-10,0.28,0.28,0.28,0.28,0,0.28
2012-02-13,0.25,0.25,0.24,0.24,25000,0.24
2012-02-14,0.24,0.24,0.24,0.24,0,0.24
2012-02-15,0.24,0.24,0.24,0.24,0,0.24
2012-02-16,0.235,0.235,0.23,0.23,55000,0.23
2012-02-17,0.23,0.23,0.23,0.23,0,0.23
2012-02-20,0.23,0.23,0.23,0.23,0,0.23
2012-02-21,0.23,0.23,0.23,0.23,0,0.23
2012-02-22,0.225,0.225,0.22,0.22,75000,0.22
2012-02-23,0.22,0.22,0.22,0.22,0,0.22
2012-02-24,0.22,0.22,0.22,0.22,0,0.22
2012-02-27,0.22,0.22,0.22,0.22,20000,0.22
2012-02-28,0.22,0.22,0.22,0.22,15000,0.22
2012-02-29,0.22,0.22,0.22,0.22,0,0.22
2012-03-01,0.22,0.24,0.22,0.24,37000,0.24
2012-03-02,0.24,0.24,0.24,0.24,0,0.24
2012-03-05,0.24,0.24,0.24,0.24,0,0.24
2012-03-06,0.23,0.23,0.22,0.22,45000,0.22
2012-03-07,0.24,0.24,0.24,0.24,0,0.24
2012-03-08,0.24,0.24,0.24,0.24,0,0.24
2012-03-09,0.24,0.24,0.24,0.24,0,0.24
2012-03-12,0.24,0.24,0.24,0.24,0,0.24
2012-03-13,0.24,0.24,0.24,0.24,0,0.24
2012-03-14,0.24,0.24,0.24,0.24,0,0.24
2012-03-15,0.22,0.22,0.21,0.21,150000,0.21
2012-03-16,0.21,0.21,0.21,0.21,0,0.21
2012-03-19,0.21,0.21,0.21,0.21,0,0.21
2012-03-20,0.21,0.21,0.21,0.21,10000,0.21
2012-03-21,0.21,0.21,0.21,0.21,0,0.21
2012-03-22,0.21,0.21,0.21,0.21,0,0.21
2012-03-23,0.21,0.21,0.21,0.21,0,0.21
2012-03-26,0.22,0.22,0.22,0.22,18000,0.22
2012-03-27,0.22,0.22,0.22,0.22,0,0.22
2012-03-28,0.22,0.22,0.22,0.22,0,0.22
2012-03-29,0.24,0.24,0.24,0.24,20000,0.24
2012-03-30,0.22,0.22,0.22,0.22,50000,0.22
2012-04-02,0.22,0.22,0.22,0.22,0,0.22
2012-04-03,0.22,0.22,0.22,0.22,90000,0.22
2012-04-04,0.22,0.22,0.22,0.22,0,0.22
2012-04-05,0.22,0.22,0.22,0.22,0,0.22
2012-04-06,0.22,0.22,0.22,0.22,0,0.22
2012-04-09,0.22,0.22,0.22,0.22,0,0.22
2012-04-10,0.22,0.22,0.22,0.22,0,0.22
2012-04-11,0.22,0.22,0.22,0.22,150000,0.22
2012-04-12,0.22,0.22,0.22,0.22,0,0.22
2012-04-13,0.22,0.22,0.22,0.22,0,0.22
2012-04-16,0.22,0.22,0.215,0.215,105000,0.215
2012-04-17,0.215,0.215,0.215,0.215,0,0.215
2012-04-18,0.215,0.215,0.215,0.215,20000,0.215
2012-04-19,0.215,0.215,0.215,0.215,0,0.215
2012-04-20,0.215,0.215,0.215,0.215,0,0.215
2012-04-23,0.215,0.215,0.215,0.215,0,0.215
2012-04-24,0.215,0.215,0.215,0.215,0,0.215
2012-04-25,0.215,0.215,0.215,0.215,0,0.215
2012-04-26,0.2,0.2,0.2,0.2,50000,0.2
2012-04-27,0.2,0.2,0.2,0.2,0,0.2
2012-04-30,0.2,0.2,0.2,0.2,0,0.2
2012-05-01,0.2,0.2,0.2,0.2,95000,0.2
2012-05-02,0.2,0.2,0.2,0.2,0,0.2
2012-05-03,0.2,0.2,0.2,0.2,0,0.2
2012-05-04,0.2,0.2,0.2,0.2,0,0.2
2012-05-07,0.2,0.2,0.2,0.2,0,0.2
2012-05-08,0.2,0.2,0.2,0.2,0,0.2
2012-05-09,0.2,0.2,0.2,0.2,0,0.2
2012-05-10,0.2,0.2,0.2,0.2,0,0.2
2012-05-11,0.2,0.2,0.2,0.2,0,0.2
2012-05-14,0.2,0.2,0.2,0.2,0,0.2
2012-05-15,0.2,0.2,0.2,0.2,0,0.2
2012-05-16,0.2,0.2,0.2,0.2,0,0.2
2012-05-17,0.2,0.2,0.2,0.2,0,0.2
2012-05-18,0.2,0.2,0.2,0.2,0,0.2
2012-05-21,0.2,0.2,0.2,0.2,0,0.2
2012-05-22,0.2,0.2,0.2,0.2,0,0.2
2012-05-23,0.2,0.2,0.2,0.2,0,0.2
2012-05-24,0.2,0.2,0.2,0.2,0,0.2
2012-05-25,0.2,0.2,0.2,0.2,0,0.2
2012-05-28,0.2,0.2,0.2,0.2,0,0.2
2012-05-29,0.2,0.2,0.2,0.2,0,0.2
2012-05-30,0.2,0.2,0.2,0.2,0,0.2
2012-05-31,0.2,0.2,0.2,0.2,0,0.2
2012-06-01,0.2,0.2,0.2,0.2,0,0.2
2012-06-04,0.2,0.2,0.2,0.2,0,0.2
2012-06-05,0.2,0.2,0.2,0.2,0,0.2
2012-06-06,0.2,0.2,0.2,0.2,0,0.2
2012-06-07,0.2,0.2,0.2,0.2,0,0.2
2012-06-08,0.2,0.2,0.2,0.2,0,0.2
2012-06-11,0.2,0.2,0.2,0.2,0,0.2
2012-06-12,0.2,0.2,0.2,0.2,0,0.2
2012-06-13,0.2,0.2,0.2,0.2,0,0.2
2012-06-14,0.2,0.2,0.2,0.2,0,0.2
2012-06-15,0.2,0.2,0.2,0.2,0,0.2
2012-06-18,0.2,0.2,0.2,0.2,0,0.2
2012-06-19,0.2,0.2,0.2,0.2,0,0.2
2012-06-20,0.2,0.2,0.2,0.2,0,0.2
2012-06-21,0.2,0.2,0.2,0.2,0,0.2
2012-06-22,0.2,0.2,0.2,0.2,0,0.2
2012-06-25,0.2,0.2,0.2,0.2,0,0.2
2012-06-26,0.2,0.2,0.2,0.2,0,0.2
2012-06-27,0.2,0.2,0.2,0.2,0,0.2
2012-06-28,0.19,0.19,0.19,0.19,26000,0.19
2012-06-29,0.19,0.19,0.19,0.19,0,0.19
2012-07-02,0.19,0.19,0.19,0.19,0,0.19
2012-07-03,0.19,0.19,0.19,0.19,0,0.19
2012-07-04,0.19,0.19,0.19,0.19,0,0.19
2012-07-05,0.19,0.19,0.19,0.19,0,0.19
2012-07-06,0.19,0.19,0.19,0.19,5000,0.19
2012-07-09,0.19,0.19,0.19,0.19,0,0.19
2012-07-10,0.19,0.19,0.19,0.19,0,0.19
2012-07-11,0.19,0.19,0.19,0.19,0,0.19
2012-07-12,0.19,0.19,0.19,0.19,0,0.19
2012-07-13,0.19,0.19,0.19,0.19,0,0.19
2012-07-16,0.19,0.19,0.19,0.19,0,0.19
2012-07-17,0.19,0.19,0.19,0.19,0,0.19
2012-07-18,0.19,0.19,0.19,0.19,0,0.19
2012-07-19,0.19,0.19,0.19,0.19,0,0.19
2012-07-20,0.19,0.19,0.19,0.19,0,0.19
2012-07-23,0.19,0.19,0.19,0.19,0,0.19
2012-07-24,0.16,0.16,0.15,0.15,140000,0.15
2012-07-25,0.15,0.15,0.15,0.15,100000,0.15
2012-07-26,0.15,0.15,0.15,0.15,0,0.15
2012-07-27,0.15,0.15,0.15,0.15,0,0.15
2012-07-30,0.15,0.15,0.15,0.15,0,0.15
2012-07-31,0.15,0.15,0.15,0.15,0,0.15
2012-08-01,0.15,0.15,0.15,0.15,0,0.15
2012-08-02,0.15,0.15,0.15,0.15,0,0.15
2012-08-03,0.15,0.15,0.15,0.15,0,0.15
2012-08-06,0.15,0.15,0.15,0.15,0,0.15
2012-08-07,0.15,0.15,0.15,0.15,0,0.15
2012-08-08,0.15,0.15,0.15,0.15,0,0.15
2012-08-09,0.15,0.15,0.15,0.15,0,0.15
2012-08-10,0.15,0.15,0.15,0.15,0,0.15
2012-08-13,0.2,0.2,0.18,0.195,380000,0.195
2012-08-14,0.2,0.21,0.19,0.19,125000,0.19
2012-08-15,0.19,0.19,0.19,0.19,15000,0.19
2012-08-16,0.15,0.15,0.15,0.15,40000,0.15
2012-08-17,0.15,0.15,0.15,0.15,0,0.15
2012-08-20,0.15,0.15,0.15,0.15,0,0.15
2012-08-21,0.16,0.16,0.16,0.16,20000,0.16
2012-08-22,0.18,0.2,0.18,0.2,107500,0.2
2012-08-23,0.22,0.22,0.22,0.22,105000,0.22
2012-08-24,0.22,0.22,0.22,0.22,20000,0.22
2012-08-27,0.22,0.22,0.22,0.22,180000,0.22
2012-08-28,0.22,0.22,0.22,0.22,0,0.22
2012-08-29,0.22,0.22,0.22,0.22,7500,0.22
2012-08-30,0.22,0.22,0.22,0.22,93000,0.22
2012-08-31,0.21,0.21,0.2,0.2,193000,0.2
2012-09-03,0.195,0.195,0.195,0.195,100000,0.195
2012-09-04,0.195,0.195,0.195,0.195,0,0.195
2012-09-05,0.195,0.195,0.195,0.195,0,0.195
2012-09-06,0.16,0.17,0.13,0.17,37000,0.17
2012-09-07,0.17,0.17,0.17,0.17,0,0.17
2012-09-10,0.17,0.17,0.17,0.17,0,0.17
2012-09-11,0.18,0.19,0.18,0.19,70000,0.19
2012-09-12,0.19,0.19,0.19,0.19,0,0.19
2012-09-13,0.19,0.19,0.19,0.19,0,0.19
2012-09-14,0.2,0.2,0.2,0.2,125000,0.2
2012-09-17,0.2,0.2,0.2,0.2,65000,0.2
2012-09-18,0.22,0.22,0.2,0.2,250000,0.2
2012-09-19,0.2,0.22,0.2,0.22,200000,0.22
2012-09-20,0.21,0.21,0.21,0.21,10000,0.21
2012-09-21,0.21,0.22,0.21,0.22,31900,0.22
2012-09-24,0.22,0.22,0.22,0.22,0,0.22
2012-09-25,0.22,0.23,0.22,0.23,53600,0.23
2012-09-26,0.23,0.23,0.23,0.23,86300,0.23
2012-09-27,0.23,0.23,0.23,0.23,0,0.23
2012-09-28,0.23,0.23,0.23,0.23,0,0.23
2012-10-01,0.23,0.23,0.23,0.23,0,0.23
2012-10-02,0.24,0.24,0.24,0.24,25000,0.24
2012-10-03,0.24,0.24,0.23,0.24,137600,0.24
2012-10-04,0.23,0.23,0.23,0.23,100000,0.23
2012-10-05,0.23,0.23,0.23,0.23,0,0.23
2012-10-08,0.23,0.23,0.23,0.23,17300,0.23
2012-10-09,0.24,0.24,0.23,0.23,50000,0.23
2012-10-10,0.23,0.23,0.23,0.23,0,0.23
2012-10-11,0.26,0.26,0.26,0.26,2000,0.26
2012-10-12,0.26,0.26,0.26,0.26,0,0.26
2012-10-15,0.26,0.26,0.26,0.26,0,0.26
2012-10-16,0.245,0.245,0.245,0.245,75000,0.245
2012-10-17,0.245,0.245,0.245,0.245,25000,0.245
2012-10-18,0.24,0.24,0.24,0.24,11600,0.24
2012-10-19,0.24,0.24,0.24,0.24,0,0.24
2012-10-22,0.24,0.24,0.24,0.24,0,0.24
2012-10-23,0.24,0.24,0.24,0.24,0,0.24
2012-10-24,0.25,0.25,0.25,0.25,75000,0.25
2012-10-25,0.25,0.25,0.25,0.25,0,0.25
2012-10-26,0.275,0.275,0.275,0.275,10000,0.275
2012-10-29,0.275,0.275,0.275,0.275,0,0.275
2012-10-30,0.275,0.275,0.275,0.275,0,0.275
2012-10-31,0.25,0.25,0.25,0.25,30000,0.25
2012-11-01,0.28,0.28,0.28,0.28,1900,0.28
2012-11-02,0.26,0.26,0.26,0.26,7500,0.26
2012-11-05,0.26,0.26,0.26,0.26,0,0.26
2012-11-06,0.26,0.26,0.26,0.26,80500,0.26
2012-11-07,0.28,0.28,0.28,0.28,50000,0.28
2012-11-08,0.27,0.27,0.27,0.27,51500,0.27
2012-11-09,0.27,0.3,0.27,0.3,60000,0.3
2012-11-12,0.3,0.3,0.3,0.3,0,0.3
2012-11-13,0.3,0.3,0.3,0.3,0,0.3
2012-11-14,0.3,0.3,0.3,0.3,51000,0.3
2012-11-15,0.3,0.3,0.3,0.3,0,0.3
2012-11-16,0.3,0.3,0.3,0.3,0,0.3
2012-11-19,0.3,0.3,0.3,0.3,0,0.3
2012-11-20,0.3,0.3,0.3,0.3,0,0.3
2012-11-21,0.3,0.3,0.3,0.3,0,0.3
2012-11-22,0.275,0.275,0.275,0.275,34000,0.275
2012-11-23,0.275,0.275,0.27,0.27,50000,0.27
2012-11-26,0.27,0.27,0.27,0.27,0,0.27
2012-11-27,0.27,0.27,0.27,0.27,0,0.27
2012-11-28,0.27,0.27,0.27,0.27,0,0.27
2012-11-29,0.27,0.27,0.27,0.27,11000,0.27
2012-11-30,0.265,0.265,0.265,0.265,49000,0.265
2012-12-03,0.265,0.265,0.265,0.265,11000,0.265
2012-12-04,0.26,0.26,0.26,0.26,69400,0.26
2012-12-05,0.26,0.26,0.26,0.26,0,0.26
2012-12-06,0.255,0.26,0.255,0.26,45000,0.26
2012-12-07,0.26,0.26,0.26,0.26,0,0.26
2012-12-10,0.26,0.26,0.26,0.26,0,0.26
2012-12-11,0.26,0.26,0.26,0.26,0,0.26
2012-12-12,0.26,0.26,0.26,0.26,0,0.26
2012-12-13,0.26,0.26,0.26,0.26,0,0.26
2012-12-14,0.26,0.26,0.26,0.26,0,0.26
2012-12-17,0.26,0.26,0.26,0.26,0,0.26
2012-12-18,0.26,0.26,0.26,0.26,0,0.26
2012-12-19,0.26,0.26,0.26,0.26,0,0.26
2012-12-20,0.26,0.26,0.26,0.26,0,0.26
2012-12-21,0.26,0.26,0.26,0.26,0,0.26
2012-12-24,0.26,0.26,0.26,0.26,0,0.26
2012-12-25,0.26,0.26,0.26,0.26,0,0.26
2012-12-26,0.26,0.26,0.26,0.26,0,0.26
2012-12-27,0.26,0.26,0.26,0.26,0,0.26
2012-12-28,0.25,0.25,0.25,0.25,2800,0.25
2012-12-31,0.25,0.25,0.25,0.25,0,0.25
2013-01-01,0.25,0.25,0.25,0.25,0,0.25
2013-01-02,0.25,0.25,0.25,0.25,0,0.25
2013-01-03,0.25,0.25,0.25,0.25,9600,0.25
2013-01-04,0.24,0.245,0.24,0.245,127000,0.245
2013-01-07,0.245,0.245,0.245,0.245,0,0.245
2013-01-08,0.24,0.24,0.24,0.24,97500,0.24
2013-01-09,0.24,0.24,0.24,0.24,10000,0.24
2013-01-10,0.25,0.25,0.25,0.25,100000,0.25
2013-01-11,0.25,0.25,0.25,0.25,0,0.25
2013-01-14,0.26,0.26,0.26,0.26,12800,0.26
2013-01-15,0.27,0.27,0.27,0.27,75000,0.27
2013-01-16,0.27,0.27,0.27,0.27,0,0.27
2013-01-17,0.285,0.29,0.285,0.29,45600,0.29
2013-01-18,0.3,0.3,0.3,0.3,67000,0.3
2013-01-21,0.3,0.3,0.3,0.3,143000,0.3
2013-01-22,0.3,0.3,0.3,0.3,0,0.3
2013-01-24,0.3,0.3,0.3,0.3,0,0.3
2013-01-25,0.3,0.3,0.3,0.3,0,0.3
2013-01-28,0.3,0.3,0.3,0.3,0,0.3
2013-01-29,0.285,0.285,0.285,0.285,115000,0.285
2013-01-30,0.27,0.27,0.27,0.27,25000,0.27
2013-01-31,0.27,0.27,0.27,0.27,0,0.27
2013-02-01,0.27,0.27,0.27,0.27,50000,0.27
2013-02-04,0.27,0.27,0.27,0.27,0,0.27
2013-02-05,0.27,0.27,0.27,0.27,0,0.27
2013-02-06,0.27,0.27,0.27,0.27,0,0.27
2013-02-07,0.27,0.27,0.26,0.26,250000,0.26
2013-02-08,0.26,0.26,0.26,0.26,0,0.26
2013-02-11,0.26,0.26,0.26,0.26,0,0.26
2013-02-12,0.265,0.265,0.26,0.26,51100,0.26
2013-02-13,0.25,0.25,0.25,0.25,100000,0.25
2013-02-14,0.25,0.25,0.25,0.25,0,0.25
2013-02-15,0.255,0.26,0.255,0.26,74600,0.26
2013-02-18,0.26,0.26,0.26,0.26,0,0.26
2013-02-19,0.27,0.27,0.27,0.27,50000,0.27
2013-02-20,0.27,0.27,0.27,0.27,3300,0.27
2013-02-21,0.27,0.27,0.27,0.27,0,0.27
2013-02-22,0.265,0.265,0.255,0.255,67500,0.255
2013-02-25,0.255,0.255,0.255,0.255,100000,0.255
2013-02-26,0.255,0.255,0.255,0.255,66600,0.255
2013-02-27,0.255,0.255,0.255,0.255,0,0.255
2013-02-28,0.255,0.255,0.255,0.255,0,0.255
2013-03-01,0.26,0.26,0.23,0.23,450000,0.23
2013-03-04,0.23,0.23,0.23,0.23,0,0.23
2013-03-05,0.23,0.23,0.23,0.23,0,0.23
2013-03-06,0.23,0.23,0.23,0.23,0,0.23
2013-03-07,0.22,0.22,0.22,0.22,200000,0.22
2013-03-08,0.22,0.22,0.22,0.22,0,0.22
2013-03-11,0.22,0.22,0.22,0.22,0,0.22
2013-03-12,0.22,0.22,0.22,0.22,0,0.22
2013-03-13,0.235,0.235,0.23,0.23,150000,0.23
2013-03-14,0.23,0.23,0.23,0.23,0,0.23
2013-03-15,0.23,0.23,0.23,0.23,26200,0.23
2013-03-18,0.23,0.23,0.23,0.23,0,0.23
2013-03-19,0.23,0.23,0.23,0.23,0,0.23
2013-03-20,0.215,0.23,0.215,0.23,114000,0.23
2013-03-21,0.23,0.23,0.23,0.23,50000,0.23
2013-03-22,0.23,0.23,0.23,0.23,35000,0.23
2013-03-25,0.23,0.23,0.23,0.23,0,0.23
2013-03-26,0.23,0.23,0.23,0.23,0,0.23
2013-03-27,0.23,0.23,0.23,0.23,0,0.23
2013-03-28,0.23,0.23,0.23,0.23,0,0.23
2013-03-29,0.23,0.23,0.23,0.23,0,0.23
2013-04-01,0.23,0.23,0.23,0.23,0,0.23
2013-04-02,0.23,0.23,0.23,0.23,0,0.23
2013-04-03,0.23,0.23,0.23,0.23,0,0.23
2013-04-04,0.23,0.23,0.23,0.23,0,0.23
2013-04-05,0.23,0.23,0.23,0.23,0,0.23
2013-04-08,0.23,0.23,0.23,0.23,15000,0.23
2013-04-09,0.23,0.23,0.23,0.23,0,0.23
2013-04-10,0.23,0.23,0.23,0.23,0,0.23
2013-04-11,0.23,0.23,0.23,0.23,0,0.23
2013-04-12,0.23,0.23,0.23,0.23,0,0.23
2013-04-15,0.23,0.23,0.23,0.23,0,0.23
2013-04-16,0.23,0.23,0.23,0.23,0,0.23
2013-04-17,0.23,0.23,0.23,0.23,100000,0.23
2013-04-18,0.265,0.27,0.24,0.24,115800,0.24
2013-04-19,0.24,0.24,0.24,0.24,0,0.24
2013-04-22,0.25,0.27,0.25,0.25,160000,0.25
2013-04-23,0.25,0.25,0.25,0.25,0,0.25
2013-04-24,0.25,0.25,0.25,0.25,0,0.25
2013-04-25,0.25,0.25,0.25,0.25,0,0.25
2013-04-26,0.25,0.25,0.25,0.25,0,0.25
2013-04-29,0.25,0.25,0.25,0.25,0,0.25
2013-04-30,0.25,0.25,0.25,0.25,0,0.25
2013-05-01,0.255,0.255,0.255,0.255,25400,0.255
2013-05-02,0.27,0.27,0.27,0.27,378500,0.27
2013-05-03,0.3,0.3,0.3,0.3,131400,0.3
2013-05-06,0.3,0.3,0.3,0.3,0,0.3
2013-05-07,0.3,0.3,0.3,0.3,0,0.3
2013-05-08,0.3,0.3,0.3,0.3,0,0.3
2013-05-09,0.305,0.305,0.3,0.3,178600,0.3
2013-05-10,0.28,0.28,0.28,0.28,289300,0.28
2013-05-13,0.28,0.28,0.28,0.28,0,0.28
2013-05-14,0.33,0.33,0.33,0.33,40000,0.33
2013-05-15,0.31,0.31,0.31,0.31,48700,0.31
2013-05-16,0.3,0.3,0.3,0.3,25000,0.3
2013-05-17,0.3,0.3,0.3,0.3,0,0.3
2013-05-20,0.3,0.3,0.3,0.3,1200,0.3
2013-05-21,0.3,0.3,0.3,0.3,0,0.3
2013-05-22,0.305,0.305,0.3,0.3,75000,0.3
2013-05-23,0.3,0.3,0.3,0.3,100000,0.3
2013-05-24,0.3,0.3,0.3,0.3,0,0.3
2013-05-27,0.3,0.3,0.3,0.3,10000,0.3
2013-05-28,0.3,0.3,0.3,0.3,91000,0.3
2013-05-29,0.3,0.3,0.3,0.3,15000,0.3
2013-05-30,0.3,0.3,0.3,0.3,1225000,0.3
2013-05-31,0.3,0.3,0.3,0.3,11000,0.3
2013-06-03,0.3,0.3,0.28,0.28,200000,0.28
2013-06-04,0.28,0.28,0.28,0.28,0,0.28
2013-06-05,0.28,0.28,0.28,0.28,0,0.28
2013-06-06,0.285,0.285,0.285,0.285,33000,0.285
2013-06-07,0.3,0.3,0.3,0.3,25800,0.3
2013-06-10,0.3,0.3,0.3,0.3,0,0.3
2013-06-11,0.285,0.285,0.285,0.285,70000,0.285
2013-06-12,0.285,0.285,0.285,0.285,30000,0.285
2013-06-13,0.285,0.285,0.285,0.285,0,0.285
2013-06-14,0.29,0.3,0.28,0.3,157500,0.3
2013-06-17,0.3,0.3,0.3,0.3,0,0.3
2013-06-18,0.29,0.3,0.29,0.3,39100,0.3
2013-06-19,0.32,0.35,0.32,0.35,104000,0.35
2013-06-20,0.35,0.355,0.35,0.35,120000,0.35
2013-06-21,0.35,0.35,0.35,0.35,0,0.35
2013-06-24,0.36,0.36,0.36,0.36,75000,0.36
2013-06-25,0.36,0.36,0.36,0.36,0,0.36
2013-06-26,0.36,0.36,0.36,0.36,25000,0.36
2013-06-27,0.36,0.36,0.36,0.36,55500,0.36
2013-06-28,0.36,0.36,0.34,0.34,65000,0.34
2013-07-01,0.34,0.34,0.34,0.34,0,0.34
2013-07-02,0.34,0.34,0.34,0.34,0,0.34
2013-07-03,0.34,0.34,0.34,0.34,0,0.34
2013-07-04,0.34,0.34,0.34,0.34,0,0.34
2013-07-05,0.34,0.34,0.34,0.34,0,0.34
2013-07-08,0.34,0.34,0.34,0.34,0,0.34
2013-07-09,0.36,0.36,0.35,0.35,145600,0.35
2013-07-10,0.35,0.41,0.35,0.41,20600,0.41
2013-07-11,0.43,0.44,0.42,0.44,168800,0.44
2013-07-12,0.37,0.37,0.36,0.36,200000,0.36
2013-07-15,0.375,0.375,0.36,0.36,805000,0.36
2013-07-16,0.36,0.36,0.36,0.36,0,0.36
2013-07-17,0.36,0.36,0.36,0.36,0,0.36
2013-07-18,0.4,0.4,0.4,0.4,63700,0.4
2013-07-19,0.39,0.4,0.39,0.4,78000,0.4
2013-07-22,0.42,0.42,0.42,0.42,21200,0.42
2013-07-23,0.42,0.42,0.42,0.42,0,0.42
2013-07-24,0.47,0.47,0.47,0.47,22000,0.47
2013-07-25,0.5,0.51,0.5,0.505,60000,0.505
2013-07-26,0.51,0.58,0.485,0.575,1059000,0.575
2013-07-29,0.55,0.61,0.545,0.585,155000,0.585
2013-07-30,0.585,0.6,0.585,0.6,95800,0.6
2013-07-31,0.56,0.56,0.4,0.48,432500,0.48
2013-08-01,0.465,0.47,0.43,0.445,108000,0.445
2013-08-02,0.45,0.45,0.425,0.425,37800,0.425
2013-08-05,0.425,0.425,0.425,0.425,40000,0.425
2013-08-06,0.425,0.445,0.425,0.43,51300,0.43
2013-08-07,0.43,0.43,0.43,0.43,10000,0.43
2013-08-08,0.465,0.47,0.465,0.47,40500,0.47
2013-08-09,0.465,0.465,0.465,0.465,25000,0.465
2013-08-12,0.465,0.465,0.46,0.46,12500,0.46
2013-08-13,0.45,0.5,0.43,0.5,270800,0.5
2013-08-14,0.51,0.51,0.51,0.51,10000,0.51
2013-08-15,0.51,0.51,0.51,0.51,22500,0.51
2013-08-16,0.495,0.495,0.495,0.495,13000,0.495
2013-08-19,0.495,0.495,0.49,0.495,46600,0.495
2013-08-20,0.495,0.495,0.495,0.495,0,0.495
2013-08-21,0.495,0.495,0.495,0.495,32100,0.495
2013-08-22,0.495,0.5,0.495,0.5,28900,0.5
2013-08-23,0.5,0.51,0.5,0.5,54500,0.5
2013-08-26,0.485,0.485,0.48,0.48,26700,0.48
2013-08-27,0.48,0.48,0.48,0.48,2100,0.48
2013-08-28,0.48,0.48,0.48,0.48,0,0.48
2013-08-29,0.48,0.48,0.48,0.48,0,0.48
2013-08-30,0.48,0.485,0.48,0.485,43500,0.485
2013-09-02,0.485,0.5,0.485,0.5,142400,0.5
2013-09-03,0.52,0.52,0.5,0.5,187500,0.5
2013-09-04,0.53,0.53,0.53,0.53,1000,0.53
2013-09-05,0.555,0.57,0.55,0.55,203500,0.55
2013-09-06,0.52,0.52,0.5,0.5,424000,0.5
2013-09-09,0.5,0.5,0.5,0.5,119500,0.5
2013-09-10,0.5,0.5,0.5,0.5,0,0.5
2013-09-11,0.53,0.53,0.53,0.53,55000,0.53
2013-09-12,0.505,0.505,0.505,0.505,200000,0.505
2013-09-13,0.51,0.52,0.51,0.52,38000,0.52
2013-09-16,0.53,0.53,0.53,0.53,5000,0.53
2013-09-17,0.52,0.52,0.52,0.52,80000,0.52
2013-09-18,0.52,0.53,0.505,0.505,66000,0.505
2013-09-19,0.505,0.505,0.49,0.49,121200,0.49
2013-09-20,0.49,0.49,0.49,0.49,11200,0.49
2013-09-23,0.49,0.49,0.49,0.49,0,0.49
2013-09-24,0.49,0.49,0.49,0.49,0,0.49
2013-09-25,0.49,0.49,0.49,0.49,20400,0.49
2013-09-26,0.49,0.49,0.49,0.49,0,0.49
2013-09-27,0.49,0.49,0.49,0.49,0,0.49
2013-09-30,0.49,0.49,0.49,0.49,0,0.49
2013-10-01,0.45,0.45,0.45,0.45,58000,0.45
2013-10-02,0.49,0.49,0.49,0.49,1100,0.49
2013-10-03,0.48,0.48,0.48,0.48,2000,0.48
2013-10-04,0.45,0.45,0.43,0.43,31900,0.43
2013-10-07,0.43,0.43,0.43,0.43,0,0.43
2013-10-08,0.43,0.43,0.43,0.43,0,0.43
2013-10-09,0.4,0.4,0.4,0.4,170000,0.4
2013-10-10,0.4,0.41,0.4,0.41,5000,0.41
2013-10-11,0.41,0.41,0.41,0.41,0,0.41
2013-10-14,0.41,0.41,0.41,0.41,1100,0.41
2013-10-15,0.41,0.41,0.4,0.4,105900,0.4
2013-10-16,0.4,0.4,0.4,0.4,68700,0.4
2013-10-17,0.4,0.4,0.4,0.4,13700,0.4
2013-10-18,0.4,0.4,0.4,0.4,0,0.4
2013-10-21,0.37,0.38,0.37,0.37,68700,0.37
2013-10-22,0.4,0.4,0.4,0.4,27700,0.4
2013-10-23,0.38,0.38,0.36,0.38,33500,0.38
2013-10-24,0.35,0.38,0.35,0.38,296500,0.38
2013-10-25,0.38,0.38,0.37,0.38,134600,0.38
2013-10-28,0.38,0.4,0.38,0.4,119400,0.4
2013-10-29,0.385,0.385,0.38,0.38,144400,0.38
2013-10-30,0.37,0.38,0.37,0.38,119900,0.38
2013-10-31,0.38,0.38,0.38,0.38,10000,0.38
2013-11-01,0.38,0.38,0.38,0.38,0,0.38
2013-11-04,0.38,0.38,0.38,0.38,10000,0.38
2013-11-05,0.38,0.38,0.38,0.38,0,0.38
2013-11-06,0.37,0.37,0.37,0.37,1000,0.37
2013-11-07,0.38,0.38,0.38,0.38,13000,0.38
2013-11-08,0.37,0.37,0.35,0.35,65000,0.35
2013-11-11,0.35,0.35,0.35,0.35,0,0.35
2013-11-12,0.35,0.36,0.35,0.36,31500,0.36
2013-11-13,0.36,0.36,0.36,0.36,0,0.36
2013-11-14,0.36,0.36,0.35,0.35,70000,0.35
2013-11-15,0.35,0.35,0.35,0.35,0,0.35
2013-11-18,0.35,0.35,0.35,0.35,0,0.35
2013-11-19,0.35,0.36,0.35,0.36,184000,0.36
2013-11-20,0.36,0.38,0.36,0.375,97000,0.375
2013-11-21,0.375,0.375,0.375,0.375,0,0.375
2013-11-22,0.375,0.375,0.35,0.35,47100,0.35
2013-11-25,0.35,0.35,0.35,0.35,670500,0.35
2013-11-26,0.35,0.35,0.35,0.35,80000,0.35
2013-11-27,0.345,0.35,0.34,0.35,65700,0.35
2013-11-28,0.34,0.34,0.33,0.33,332300,0.33
2013-11-29,0.34,0.34,0.34,0.34,10000,0.34
2013-12-02,0.38,0.38,0.38,0.38,40000,0.38
2013-12-03,0.38,0.4,0.38,0.4,68000,0.4
2013-12-04,0.395,0.395,0.38,0.38,110000,0.38
2013-12-05,0.38,0.4,0.38,0.4,123900,0.4
2013-12-06,0.4,0.4,0.4,0.4,0,0.4
2013-12-09,0.38,0.38,0.38,0.38,50000,0.38
2013-12-10,0.39,0.4,0.39,0.4,20000,0.4
2013-12-11,0.4,0.4,0.4,0.4,0,0.4
2013-12-12,0.4,0.4,0.4,0.4,0,0.4
2013-12-13,0.38,0.38,0.36,0.36,52200,0.36
2013-12-16,0.36,0.36,0.36,0.36,0,0.36
2013-12-17,0.36,0.36,0.36,0.36,0,0.36
2013-12-18,0.36,0.36,0.36,0.36,7800,0.36
2013-12-19,0.36,0.36,0.36,0.36,0,0.36
2013-12-20,0.36,0.36,0.35,0.35,7500,0.35
2013-12-23,0.35,0.36,0.35,0.35,33800,0.35
2013-12-24,0.35,0.35,0.35,0.35,50000,0.35
2013-12-25,0.35,0.35,0.35,0.35,0,0.35
2013-12-26,0.35,0.35,0.35,0.35,0,0.35
2013-12-27,0.33,0.33,0.33,0.33,10000,0.33
2013-12-30,0.33,0.33,0.33,0.33,0,0.33
2013-12-31,0.33,0.33,0.33,0.33,0,0.33
2014-01-01,0.33,0.33,0.33,0.33,0,0.33
2014-01-02,0.33,0.33,0.33,0.33,0,0.33
2014-01-03,0.33,0.33,0.33,0.33,0,0.33
2014-01-06,0.33,0.38,0.33,0.38,67100,0.38
2014-01-07,0.38,0.38,0.38,0.38,0,0.38
2014-01-08,0.34,0.34,0.34,0.34,28000,0.34
2014-01-09,0.34,0.34,0.34,0.34,0,0.34
2014-01-10,0.34,0.34,0.34,0.34,0,0.34
2014-01-13,0.37,0.37,0.37,0.37,2000,0.37
2014-01-14,0.37,0.37,0.37,0.37,0,0.37
2014-01-15,0.37,0.37,0.37,0.37,0,0.37
2014-01-16,0.37,0.37,0.37,0.37,93300,0.37
2014-01-17,0.37,0.37,0.37,0.37,0,0.37
2014-01-20,0.37,0.37,0.37,0.37,0,0.37
2014-01-21,0.37,0.37,0.37,0.37,0,0.37
2014-01-22,0.37,0.37,0.37,0.37,342000,0.37
2014-01-23,0.4,0.4,0.4,0.4,40000,0.4
2014-01-24,0.4,0.4,0.4,0.4,101000,0.4
2014-01-27,0.4,0.4,0.4,0.4,0,0.4
2014-01-28,0.38,0.38,0.38,0.38,150000,0.38
2014-01-29,0.38,0.38,0.38,0.38,1900,0.38
2014-01-30,0.4,0.4,0.4,0.4,39000,0.4
2014-01-31,0.4,0.4,0.395,0.395,103000,0.395
2014-02-03,0.4,0.4,0.38,0.38,67500,0.38
2014-02-04,0.38,0.38,0.38,0.38,0,0.38
2014-02-05,0.38,0.38,0.38,0.38,0,0.38
2014-02-06,0.38,0.38,0.38,0.38,0,0.38
2014-02-07,0.395,0.4,0.38,0.38,85700,0.38
2014-02-10,0.38,0.38,0.38,0.38,0,0.38
2014-02-11,0.38,0.38,0.38,0.38,0,0.38
2014-02-12,0.4,0.405,0.4,0.4,134700,0.4
2014-02-13,0.4,0.4,0.4,0.4,0,0.4
2014-02-14,0.4,0.4,0.4,0.4,0,0.4
2014-02-17,0.4,0.4,0.4,0.4,218200,0.4
2014-02-18,0.4,0.4,0.4,0.4,0,0.4
2014-02-19,0.4,0.4,0.38,0.38,1535300,0.38
2014-02-20,0.38,0.38,0.38,0.38,0,0.38
2014-02-21,0.38,0.38,0.38,0.38,0,0.38
2014-02-24,0.38,0.4,0.38,0.4,90000,0.4
2014-02-25,0.4,0.4,0.4,0.4,11500,0.4
2014-02-26,0.4,0.4,0.4,0.4,0,0.4
2014-02-27,0.4,0.4,0.4,0.4,58500,0.4
2014-02-28,0.4,0.42,0.4,0.42,27000,0.42
2014-03-03,0.42,0.42,0.42,0.42,0,0.42
2014-03-04,0.42,0.42,0.42,0.42,0,0.42
2014-03-05,0.42,0.42,0.42,0.42,30000,0.42
2014-03-06,0.42,0.42,0.42,0.42,0,0.42
2014-03-07,0.42,0.42,0.42,0.42,0,0.42
2014-03-10,0.42,0.42,0.42,0.42,0,0.42
2014-03-11,0.42,0.42,0.42,0.42,0,0.42
2014-03-12,0.43,0.43,0.43,0.43,1200,0.43
2014-03-13,0.43,0.43,0.43,0.43,3700,0.43
2014-03-14,0.43,0.43,0.43,0.43,0,0.43
2014-03-17,0.43,0.43,0.43,0.43,0,0.43
2014-03-18,0.405,0.405,0.405,0.405,24100,0.405
2014-03-19,0.405,0.405,0.405,0.405,0,0.405
2014-03-20,0.405,0.405,0.405,0.405,0,0.405
2014-03-21,0.405,0.405,0.405,0.405,0,0.405
2014-03-24,0.39,0.4,0.385,0.4,112000,0.4
2014-03-25,0.4,0.4,0.385,0.385,50000,0.385
2014-03-26,0.385,0.385,0.385,0.385,0,0.385
2014-03-27,0.385,0.385,0.385,0.385,0,0.385
2014-03-28,0.375,0.385,0.375,0.385,25900,0.385
2014-03-31,0.385,0.4,0.385,0.4,100000,0.4
2014-04-01,0.4,0.4,0.4,0.4,0,0.4
2014-04-02,0.39,0.39,0.38,0.38,198100,0.38
2014-04-03,0.37,0.37,0.37,0.37,25000,0.37
2014-04-04,0.37,0.37,0.37,0.37,0,0.37
2014-04-07,0.38,0.38,0.38,0.38,80000,0.38
2014-04-08,0.38,0.38,0.38,0.38,0,0.38
2014-04-09,0.37,0.37,0.37,0.37,45000,0.37
2014-04-10,0.365,0.365,0.35,0.35,37500,0.35
2014-04-11,0.35,0.35,0.35,0.35,48300,0.35
2014-04-14,0.35,0.35,0.35,0.35,0,0.35
2014-04-15,0.355,0.36,0.35,0.355,678800,0.355
2014-04-16,0.38,0.4,0.36,0.37,481400,0.37
2014-04-17,0.38,0.38,0.38,0.38,19900,0.38
2014-04-18,0.38,0.38,0.38,0.38,0,0.38
2014-04-21,0.38,0.38,0.38,0.38,0,0.38
2014-04-22,0.385,0.39,0.385,0.39,125000,0.39
2014-04-23,0.39,0.4,0.38,0.38,2550800,0.38
2014-04-24,0.39,0.39,0.38,0.38,1026500,0.38
2014-04-25,0.38,0.38,0.38,0.38,0,0.38
2014-04-28,0.38,0.38,0.38,0.38,0,0.38
2014-04-29,0.38,0.38,0.38,0.38,38000,0.38
2014-04-30,0.39,0.39,0.39,0.39,750700,0.39
2014-05-01,0.38,0.38,0.38,0.38,67000,0.38
2014-05-02,0.39,0.39,0.385,0.385,430200,0.385
2014-05-05,0.38,0.39,0.38,0.39,78500,0.39
2014-05-06,0.385,0.39,0.38,0.39,1439900,0.39
2014-05-07,0.4,0.41,0.39,0.41,1130000,0.41
2014-05-08,0.42,0.43,0.42,0.43,27500,0.43
2014-05-09,0.43,0.43,0.415,0.415,138500,0.415
2014-05-12,0.445,0.445,0.415,0.415,384000,0.415
2014-05-13,0.445,0.45,0.445,0.445,120000,0.445
2014-05-14,0.455,0.495,0.455,0.46,390100,0.46
2014-05-15,0.465,0.5,0.465,0.5,545700,0.5
2014-05-16,0.59,0.63,0.545,0.63,517100,0.63
2014-05-19,0.63,0.68,0.56,0.58,378400,0.58
2014-05-20,0.6,0.62,0.56,0.56,1328300,0.56
2014-05-21,0.555,0.56,0.53,0.53,205500,0.53
2014-05-22,0.53,0.54,0.5,0.54,468200,0.54
2014-05-23,0.54,0.55,0.51,0.51,309400,0.51
2014-05-26,0.485,0.5,0.485,0.49,253700,0.49
2014-05-27,0.495,0.5,0.495,0.5,586800,0.5
2014-05-28,0.495,0.495,0.475,0.485,126500,0.485
2014-05-29,0.485,0.51,0.485,0.51,155100,0.51
2014-05-30,0.505,0.52,0.5,0.5,192500,0.5
2014-06-02,0.51,0.53,0.5,0.52,1870400,0.52
2014-06-03,0.52,0.52,0.51,0.51,130400,0.51
2014-06-04,0.52,0.52,0.52,0.52,136500,0.52
2014-06-05,0.52,0.52,0.475,0.495,305900,0.495
2014-06-06,0.52,0.52,0.5,0.52,55800,0.52
2014-06-09,0.52,0.52,0.52,0.52,0,0.52
2014-06-10,0.52,0.52,0.52,0.52,0,0.52
2014-06-11,0.52,0.52,0.52,0.52,0,0.52
2014-06-12,0.52,0.52,0.52,0.52,0,0.52
2014-06-13,0.54,0.55,0.54,0.55,65000,0.55
2014-06-16,0.575,0.575,0.545,0.55,123900,0.55
2014-06-17,0.55,0.55,0.535,0.535,139000,0.535
2014-06-18,0.54,0.56,0.53,0.56,286100,0.56
2014-06-19,0.58,0.61,0.58,0.6,859100,0.6
2014-06-20,0.6,0.6,0.575,0.58,777900,0.58
2014-06-23,0.59,0.6,0.575,0.58,404400,0.58
2014-06-24,0.58,0.585,0.56,0.56,224000,0.56
2014-06-25,0.57,0.57,0.52,0.53,436500,0.53
2014-06-26,0.55,0.58,0.55,0.555,279200,0.555
2014-06-27,0.575,0.575,0.55,0.56,1090000,0.56
2014-06-30,0.56,0.58,0.56,0.575,248600,0.575
2014-07-01,0.59,0.62,0.585,0.61,794600,0.61
2014-07-02,0.61,0.61,0.6,0.6,153500,0.6
2014-07-03,0.6,0.65,0.595,0.615,1043000,0.615
2014-07-04,0.62,0.63,0.61,0.61,298400,0.61
2014-07-07,0.61,0.61,0.59,0.6,212100,0.6
2014-07-08,0.6,0.62,0.6,0.6,1074000,0.6
2014-07-09,0.61,0.645,0.61,0.64,424700,0.64
2014-07-10,0.645,0.68,0.625,0.625,624700,0.625
2014-07-11,0.635,0.635,0.625,0.625,139500,0.625
2014-07-14,0.64,0.64,0.615,0.625,56400,0.625
2014-07-15,0.62,0.65,0.62,0.62,147400,0.62
2014-07-16,0.63,0.63,0.6,0.6,343100,0.6
2014-07-17,0.61,0.645,0.61,0.63,265000,0.63
2014-07-18,0.625,0.65,0.62,0.65,386300,0.65
2014-07-21,0.65,0.65,0.65,0.65,73900,0.65
2014-07-22,0.66,0.665,0.645,0.65,943400,0.65
2014-07-23,0.645,0.66,0.645,0.66,179000,0.66
2014-07-24,0.66,0.66,0.645,0.65,3234000,0.65
2014-07-25,0.65,0.66,0.65,0.65,73300,0.65
2014-07-28,0.65,0.66,0.645,0.655,92900,0.655
2014-07-29,0.66,0.665,0.65,0.66,177100,0.66
2014-07-30,0.665,0.69,0.665,0.68,503800,0.68
2014-07-31,0.675,0.72,0.675,0.7,637900,0.7
2014-08-01,0.72,0.78,0.695,0.76,386800,0.76
2014-08-04,0.785,0.79,0.76,0.775,693400,0.775
2014-08-05,0.785,0.79,0.735,0.74,223400,0.74
2014-08-06,0.73,0.73,0.685,0.695,689700,0.695
2014-08-07,0.695,0.72,0.695,0.72,265600,0.72
2014-08-08,0.72,0.72,0.695,0.7,249600,0.7
2014-08-11,0.7,0.725,0.7,0.7,351000,0.7
2014-08-12,0.7,0.7,0.675,0.675,182800,0.675
2014-08-13,0.67,0.67,0.66,0.66,381600,0.66
2014-08-14,0.66,0.68,0.655,0.655,233800,0.655
2014-08-15,0.67,0.672,0.65,0.67,362800,0.67
2014-08-18,0.66,0.67,0.615,0.63,528700,0.63
2014-08-19,0.63,0.65,0.63,0.635,887000,0.635
2014-08-20,0.635,0.65,0.635,0.65,317900,0.65
2014-08-21,0.66,0.685,0.655,0.685,283000,0.685
2014-08-22,0.69,0.73,0.685,0.72,464700,0.72
2014-08-25,0.71,0.72,0.675,0.705,333400,0.705
2014-08-26,0.71,0.71,0.71,0.71,19400,0.71
2014-08-27,0.715,0.715,0.685,0.71,347800,0.71
2014-08-28,0.72,0.74,0.72,0.735,241000,0.735
2014-08-29,0.73,0.73,0.7,0.7,396600,0.7
2014-09-01,0.7,0.7,0.65,0.69,224600,0.69
2014-09-02,0.685,0.69,0.68,0.68,73700,0.68
2014-09-03,0.66,0.68,0.63,0.655,110800,0.655
2014-09-04,0.66,0.67,0.65,0.65,164400,0.65
2014-09-05,0.655,0.655,0.64,0.65,175300,0.65
2014-09-08,0.635,0.64,0.627,0.63,405900,0.63
2014-09-09,0.63,0.64,0.63,0.63,183900,0.63
2014-09-10,0.64,0.645,0.63,0.63,348000,0.63
2014-09-11,0.63,0.64,0.63,0.63,136300,0.63
2014-09-12,0.63,0.655,0.62,0.655,452200,0.655
2014-09-15,0.64,0.68,0.64,0.64,758200,0.64
2014-09-16,0.64,0.65,0.64,0.64,306600,0.64
2014-09-17,0.65,0.655,0.63,0.65,1245700,0.65
2014-09-18,0.65,0.65,0.58,0.62,1277000,0.62
2014-09-19,0.62,0.64,0.615,0.62,1162000,0.62
2014-09-22,0.605,0.66,0.605,0.635,202900,0.635
2014-09-23,0.64,0.64,0.625,0.63,358900,0.63
2014-09-24,0.635,0.64,0.625,0.625,255200,0.625
2014-09-25,0.625,0.63,0.615,0.62,312800,0.62
2014-09-26,0.62,0.64,0.62,0.62,121900,0.62
2014-09-29,0.625,0.65,0.625,0.63,124300,0.63
2014-09-30,0.64,0.64,0.605,0.62,994900,0.62
2014-10-01,0.6,0.62,0.6,0.61,18700,0.61
2014-10-02,0.605,0.605,0.605,0.605,51800,0.605
2014-10-03,0.61,0.615,0.61,0.615,111200,0.615
2014-10-06,0.615,0.615,0.61,0.61,44800,0.61
2014-10-07,0.61,0.615,0.59,0.59,196500,0.59
2014-10-08,0.59,0.6,0.58,0.59,674100,0.59
2014-10-09,0.6,0.605,0.595,0.6,187100,0.6
2014-10-10,0.59,0.59,0.58,0.585,247100,0.585
2014-10-13,0.585,0.59,0.58,0.59,168300,0.59
2014-10-14,0.58,0.5920000000000001,0.575,0.59,127800,0.59
2014-10-15,0.6,0.62,0.6,0.62,114400,0.62
2014-10-16,0.62,0.63,0.61,0.61,228000,0.61
2014-10-17,0.61,0.62,0.6,0.6,140500,0.6
2014-10-20,0.605,0.62,0.605,0.62,54400,0.62
2014-10-21,0.615,0.615,0.615,0.615,10600,0.615
2014-10-22,0.615,0.64,0.615,0.635,206300,0.635
2014-10-23,0.635,0.635,0.635,0.635,900,0.635
2014-10-24,0.64,0.67,0.64,0.65,130600,0.65
2014-10-27,0.65,0.65,0.64,0.645,590300,0.645
2014-10-28,0.63,0.63,0.62,0.62,335400,0.62
2014-10-29,0.61,0.61,0.6,0.61,164400,0.61
2014-10-30,0.615,0.62,0.61,0.61,79200,0.61
2014-10-31,0.62,0.62,0.61,0.62,58900,0.62
2014-11-03,0.62,0.62,0.61,0.61,91600,0.61
2014-11-04,0.61,0.61,0.61,0.61,0,0.61
2014-11-05,0.59,0.595,0.56,0.59,228700,0.59
2014-11-06,0.59,0.6,0.59,0.6,184000,0.6
2014-11-07,0.6,0.61,0.6,0.61,240000,0.61
2014-11-10,0.61,0.63,0.61,0.61,198500,0.61
2014-11-11,0.61,0.61,0.61,0.61,0,0.61
2014-11-12,0.61,0.61,0.6,0.61,128800,0.61
2014-11-13,0.61,0.62,0.61,0.62,100000,0.62
2014-11-14,0.62,0.62,0.61,0.61,82000,0.61
2014-11-17,0.605,0.62,0.6,0.62,119300,0.62
2014-11-18,0.62,0.62,0.6,0.6,66500,0.6
2014-11-19,0.6,0.6,0.59,0.59,26600,0.59
2014-11-20,0.59,0.59,0.55,0.55,165000,0.55
2014-11-21,0.59,0.6,0.59,0.6,51800,0.6
2014-11-24,0.6,0.615,0.595,0.61,155000,0.61
2014-11-25,0.6,0.6,0.6,0.6,24800,0.6
2014-11-26,0.6,0.6,0.5820000000000001,0.5820000000000001,208100,0.5820000000000001
2014-11-27,0.58,0.585,0.58,0.58,304100,0.58
2014-11-28,0.575,0.6,0.575,0.6,46000,0.6
2014-12-01,0.575,0.575,0.56,0.56,214000,0.56
2014-12-02,0.57,0.57,0.55,0.55,101800,0.55
2014-12-03,0.55,0.56,0.55,0.56,149900,0.56
2014-12-04,0.56,0.56,0.54,0.54,110100,0.54
2014-12-05,0.54,0.55,0.51,0.55,92600,0.55
2014-12-08,0.54,0.55,0.52,0.55,42000,0.55
2014-12-09,0.55,0.55,0.55,0.55,0,0.55
2014-12-10,0.545,0.545,0.53,0.53,82500,0.53
2014-12-11,0.525,0.53,0.52,0.52,270300,0.52
2014-12-12,0.52,0.52,0.52,0.52,0,0.52
2014-12-15,0.51,0.52,0.505,0.52,85300,0.52
2014-12-16,0.53,0.55,0.53,0.55,43000,0.55
2014-12-17,0.54,0.54,0.54,0.54,20000,0.54
2014-12-18,0.54,0.58,0.54,0.58,47800,0.58
2014-12-19,0.58,0.59,0.58,0.59,10500,0.59
2014-12-22,0.58,0.58,0.58,0.58,20000,0.58
2014-12-23,0.58,0.58,0.58,0.58,70000,0.58
2014-12-24,0.58,0.58,0.58,0.58,0,0.58
2014-12-25,0.58,0.58,0.58,0.58,0,0.58
2014-12-26,0.58,0.58,0.58,0.58,0,0.58
2014-12-29,0.59,0.63,0.59,0.63,215300,0.63
2014-12-30,0.62,0.64,0.62,0.64,27600,0.64
2014-12-31,0.62,0.63,0.62,0.63,67000,0.63
2015-01-01,0.63,0.63,0.63,0.63,0,0.63
2015-01-02,0.63,0.63,0.63,0.63,75100,0.63
2015-01-05,0.62,0.64,0.62,0.635,270900,0.635
2015-01-06,0.67,0.68,0.65,0.68,39800,0.68
2015-01-07,0.7,0.7,0.67,0.7,242500,0.7
2015-01-08,0.71,0.71,0.69,0.69,99000,0.69
2015-01-09,0.7,0.7,0.67,0.68,93900,0.68
2015-01-12,0.71,0.77,0.71,0.74,157500,0.74
2015-01-13,0.75,0.75,0.725,0.725,26200,0.725
2015-01-14,0.725,0.725,0.725,0.725,0,0.725
2015-01-15,0.71,0.71,0.68,0.68,96000,0.68
2015-01-16,0.68,0.68,0.67,0.68,196600,0.68
2015-01-19,0.7,0.7,0.69,0.7,75800,0.7
2015-01-20,0.73,0.74,0.73,0.74,21400,0.74
2015-01-21,0.735,0.735,0.71,0.71,96200,0.71
2015-01-22,0.72,0.725,0.7,0.7,135500,0.7
2015-01-23,0.72,0.72,0.69,0.72,81700,0.72
2015-01-26,0.72,0.72,0.72,0.72,0,0.72
2015-01-27,0.72,0.72,0.71,0.71,29800,0.71
2015-01-28,0.73,0.73,0.72,0.72,40000,0.72
2015-01-29,0.73,0.795,0.73,0.755,735200,0.755
2015-01-30,0.77,0.8,0.77,0.77,240500,0.77
2015-02-02,0.77,0.79,0.76,0.79,187500,0.79
2015-02-03,0.79,0.83,0.78,0.82,268100,0.82
2015-02-04,0.825,0.83,0.81,0.83,320400,0.83
2015-02-05,0.82,0.82,0.8,0.815,268800,0.815
2015-02-06,0.82,0.82,0.81,0.815,207500,0.815
2015-02-09,0.82,0.82,0.8,0.82,1181700,0.82
2015-02-10,0.82,0.82,0.8,0.81,449400,0.81
2015-02-11,0.8,0.81,0.8,0.81,41000,0.81
2015-02-12,0.81,0.825,0.8,0.825,132700,0.825
2015-02-13,0.83,0.87,0.83,0.86,505900,0.86
2015-02-16,0.89,0.9,0.88,0.9,240200,0.9
2015-02-17,0.9,0.91,0.87,0.9,182600,0.9
2015-02-18,0.9,0.9,0.89,0.9,103900,0.9
2015-02-19,0.9,0.9,0.885,0.885,138800,0.885
2015-02-20,0.9,0.9,0.89,0.9,407900,0.9
2015-02-23,0.9,0.9,0.89,0.9,268300,0.9
2015-02-24,0.895,0.9,0.86,0.9,895700,0.9
2015-02-25,0.9,0.9,0.87,0.9,109800,0.9
2015-02-26,0.9,0.9,0.87,0.87,43200,0.87
2015-02-27,0.9,0.9,0.9,0.9,270000,0.9
2015-03-02,0.9,0.9,0.87,0.87,51200,0.87
2015-03-03,0.86,0.89,0.86,0.89,1321000,0.89
2015-03-04,0.89,0.94,0.89,0.94,402500,0.94
2015-03-05,0.935,0.945,0.935,0.94,99100,0.94
2015-03-06,0.95,1.02,0.95,1.01,609900,1.01
2015-03-09,1.01,1.01,0.975,0.98,127800,0.98
2015-03-10,0.985,1.03,0.985,1.02,240100,1.02
2015-03-11,1.03,1.04,1.0,1.02,432600,1.02
2015-03-12,1.03,1.05,1.025,1.03,837100,1.03
2015-03-13,1.03,1.05,1.03,1.05,327500,1.05
2015-03-16,1.05,1.055,1.04,1.05,557400,1.05
2015-03-17,1.1,1.105,1.03,1.05,423900,1.05
2015-03-18,1.05,1.09,1.04,1.09,373200,1.09
2015-03-19,1.11,1.15,1.095,1.14,658700,1.14
2015-03-20,1.14,1.15,1.13,1.14,332500,1.14
2015-03-23,1.15,1.21,1.15,1.16,438700,1.16
2015-03-24,1.165,1.19,1.155,1.16,619800,1.16
2015-03-25,1.175,1.28,1.175,1.28,1064900,1.28
2015-03-26,1.28,1.4,1.28,1.39,895200,1.39
2015-03-27,1.39,1.4,1.18,1.37,965700,1.37
2015-03-30,1.37,1.38,1.3,1.335,514600,1.335
2015-03-31,1.36,1.485,1.36,1.46,2324200,1.46
2015-04-01,1.48,1.54,1.46,1.5,1440500,1.5
2015-04-02,1.52,1.65,1.5,1.62,1191800,1.62
2015-04-03,1.62,1.62,1.62,1.62,0,1.62
2015-04-06,1.62,1.62,1.62,1.62,0,1.62
2015-04-07,1.75,1.76,1.655,1.7,2037600,1.7
2015-04-08,1.71,1.735,1.655,1.71,6712700,1.71
2015-04-09,1.69,1.72,1.67,1.72,703600,1.72
2015-04-10,1.74,1.745,1.62,1.63,500700,1.63
2015-04-13,1.6,1.6,1.435,1.55,1129700,1.55
2015-04-14,1.53,1.53,1.47,1.5,979000,1.5
2015-04-15,1.47,1.54,1.46,1.52,442500,1.52
2015-04-16,1.55,1.65,1.55,1.62,798000,1.62
2015-04-17,1.65,1.675,1.63,1.67,477200,1.67
2015-04-20,1.7,1.74,1.67,1.67,705000,1.67
2015-04-21,1.72,1.77,1.71,1.76,428600,1.76
2015-04-22,1.8,1.85,1.79,1.85,662300,1.85
2015-04-23,1.88,1.93,1.71,1.715,594300,1.715
2015-04-24,1.67,1.82,1.67,1.815,616400,1.815
2015-04-27,1.83,1.85,1.8,1.845,1267400,1.845
2015-04-28,1.85,1.85,1.81,1.82,243500,1.82
2015-04-29,1.825,1.825,1.73,1.81,171000,1.81
2015-04-30,1.79,1.79,1.74,1.79,138600,1.79
2015-05-01,1.8,1.85,1.77,1.835,346600,1.835
2015-05-04,1.89,1.94,1.89,1.915,568600,1.915
2015-05-05,1.96,2.08,1.96,2.08,704600,2.08
2015-05-06,2.06,2.06,1.96,1.975,819400,1.975
2015-05-07,1.975,1.975,1.975,1.975,0,1.975
2015-05-08,1.975,1.975,1.975,1.975,0,1.975
2015-05-11,1.84,1.85,1.795,1.8,8264800,1.8
2015-05-12,1.8,1.8,1.74,1.775,1037200,1.775
2015-05-13,1.775,1.775,1.665,1.7,1505700,1.7
2015-05-14,1.68,1.75,1.66,1.735,3052600,1.735
2015-05-15,1.705,1.76,1.69,1.7,715600,1.7
2015-05-18,1.7,1.715,1.655,1.675,573000,1.675
2015-05-19,1.675,1.685,1.62,1.635,236900,1.635
2015-05-20,1.65,1.65,1.58,1.585,537300,1.585
2015-05-21,1.57,1.65,1.52,1.64,2331700,1.64
2015-05-22,1.65,1.67,1.59,1.59,431800,1.59
2015-05-25,1.595,1.645,1.565,1.575,225000,1.575
2015-05-26,1.595,1.595,1.475,1.49,1717100,1.49
2015-05-27,1.465,1.47,1.365,1.38,3748400,1.38
2015-05-28,1.41,1.49,1.405,1.48,1440100,1.48
2015-05-29,1.5,1.55,1.49,1.49,1433200,1.49
2015-06-01,1.515,1.52,1.455,1.48,552600,1.48
2015-06-02,1.495,1.51,1.48,1.5,447700,1.5
2015-06-03,1.525,1.57,1.505,1.555,898600,1.555
2015-06-04,1.575,1.62,1.525,1.555,564000,1.555
2015-06-05,1.53,1.55,1.52,1.545,117200,1.545
2015-06-08,1.545,1.545,1.545,1.545,0,1.545
2015-06-09,1.52,1.6,1.52,1.52,366900,1.52
2015-06-10,1.54,1.55,1.48,1.5,252300,1.5
2015-06-11,1.54,1.54,1.49,1.52,192300,1.52
2015-06-12,1.52,1.535,1.48,1.49,264600,1.49
2015-06-15,1.5,1.55,1.49,1.5,225900,1.5
2015-06-16,1.5,1.505,1.465,1.49,107100,1.49
2015-06-17,1.49,1.51,1.48,1.49,210800,1.49
2015-06-18,1.5,1.525,1.475,1.52,381500,1.52
2015-06-19,1.51,1.59,1.48,1.52,641300,1.52
2015-06-22,1.54,1.545,1.5,1.535,128200,1.535
2015-06-23,1.535,1.545,1.52,1.52,146000,1.52
2015-06-24,1.5,1.535,1.485,1.51,652700,1.51
2015-06-25,1.49,1.535,1.485,1.515,159300,1.515
2015-06-26,1.53,1.59,1.53,1.56,250300,1.56
2015-06-29,1.55,1.55,1.385,1.46,661300,1.46
2015-06-30,1.43,1.49,1.4,1.48,368700,1.48
2015-07-01,1.46,1.49,1.42,1.46,447800,1.46
2015-07-02,1.48,1.5,1.465,1.475,145300,1.475
2015-07-03,1.5,1.5,1.455,1.48,117800,1.48
2015-07-06,1.475,1.5,1.465,1.465,94300,1.465
2015-07-07,1.47,1.49,1.405,1.44,97900,1.44
2015-07-08,1.44,1.45,1.39,1.43,249400,1.43
2015-07-09,1.415,1.415,1.33,1.335,414900,1.335
2015-07-10,1.32,1.37,1.29,1.37,211200,1.37
2015-07-13,1.39,1.47,1.37,1.44,199700,1.44
2015-07-14,1.44,1.485,1.42,1.475,269400,1.475
2015-07-15,1.48,1.56,1.455,1.535,434200,1.535
2015-07-16,1.55,1.55,1.5,1.51,203500,1.51
2015-07-17,1.51,1.51,1.45,1.485,264600,1.485
2015-07-20,1.485,1.5,1.44,1.45,317000,1.45
2015-07-21,1.45,1.465,1.365,1.455,136500,1.455
2015-07-22,1.44,1.455,1.39,1.445,245300,1.445
2015-07-23,1.44,1.445,1.35,1.37,548300,1.37
2015-07-24,1.39,1.39,1.34,1.365,556800,1.365
2015-07-27,1.365,1.385,1.3,1.34,477400,1.34
2015-07-28,1.35,1.35,1.25,1.28,561500,1.28
2015-07-29,1.28,1.31,1.21,1.27,944900,1.27
2015-07-30,1.27,1.3,1.26,1.29,214500,1.29
2015-07-31,1.31,1.35,1.285,1.35,364600,1.35
2015-08-03,1.34,1.34,1.28,1.31,313900,1.31
2015-08-04,1.3,1.31,1.28,1.305,456500,1.305
2015-08-05,1.305,1.32,1.28,1.29,467400,1.29
2015-08-06,1.3,1.315,1.28,1.295,375900,1.295
2015-08-07,1.3,1.305,1.27,1.3,264700,1.3
2015-08-10,1.3,1.305,1.275,1.295,102900,1.295
2015-08-11,1.3,1.31,1.26,1.26,680100,1.26
2015-08-12,1.26,1.26,1.18,1.185,390700,1.185
2015-08-13,1.18,1.195,1.12,1.16,396900,1.16
2015-08-14,1.185,1.235,1.145,1.165,489000,1.165
2015-08-17,1.165,1.182,1.03,1.08,1345700,1.08
2015-08-18,1.07,1.14,1.07,1.14,1099000,1.14
2015-08-19,1.145,1.16,1.1,1.15,320600,1.15
2015-08-20,1.13,1.19,1.11,1.165,458300,1.165
2015-08-21,1.16,1.29,1.155,1.28,1073500,1.28
2015-08-24,1.23,1.285,1.21,1.28,502700,1.28
2015-08-25,1.2,1.27,1.17,1.27,499100,1.27
2015-08-26,1.25,1.27,1.2,1.24,260800,1.24
2015-08-27,1.28,1.4,1.255,1.35,797200,1.35
2015-08-28,1.37,1.45,1.37,1.425,666600,1.425
2015-08-31,1.425,1.5,1.4,1.44,518400,1.44
2015-09-01,1.48,1.515,1.44,1.485,507500,1.485
2015-09-02,1.475,1.485,1.392,1.48,588200,1.48
2015-09-03,1.52,1.595,1.52,1.58,888100,1.58
2015-09-04,1.58,1.6,1.54,1.6,1207400,1.6
2015-09-07,1.57,1.57,1.38,1.49,391200,1.49
2015-09-08,1.52,1.545,1.46,1.51,409900,1.51
2015-09-09,1.56,1.58,1.53,1.57,358400,1.57
2015-09-10,1.59,1.6,1.565,1.59,645600,1.59
2015-09-11,1.59,1.59,1.535,1.545,346600,1.545
2015-09-14,1.57,1.57,1.53,1.555,359300,1.555
2015-09-15,1.55,1.58,1.54,1.56,432300,1.56
2015-09-16,1.55,1.57,1.53,1.57,472300,1.57
2015-09-17,1.575,1.595,1.53,1.595,573700,1.595
2015-09-18,1.555,1.62,1.55,1.595,7575600,1.595
2015-09-21,1.595,1.62,1.55,1.59,256600,1.59
2015-09-22,1.6,1.6,1.53,1.54,164500,1.54
2015-09-23,1.54,1.575,1.45,1.47,482600,1.47
2015-09-24,1.48,1.5,1.45,1.465,281300,1.465
2015-09-25,1.43,1.46,1.4,1.46,298300,1.46
2015-09-28,1.45,1.485,1.42,1.46,294200,1.46
2015-09-29,1.45,1.45,1.39,1.415,352200,1.415
2015-09-30,1.43,1.43,1.29,1.37,485500,1.37
2015-10-01,1.385,1.4,1.34,1.36,316200,1.36
2015-10-02,1.38,1.38,1.29,1.305,192700,1.305
2015-10-05,1.275,1.3,1.23,1.26,601200,1.26
2015-10-06,1.26,1.29,1.235,1.235,453900,1.235
2015-10-07,1.24,1.3,1.24,1.25,412300,1.25
2015-10-08,1.27,1.4,1.27,1.35,502800,1.35
2015-10-09,1.35,1.41,1.325,1.33,637400,1.33
2015-10-12,1.375,1.425,1.33,1.395,368600,1.395
2015-10-13,1.38,1.405,1.35,1.365,113700,1.365
2015-10-14,1.36,1.43,1.35,1.42,234800,1.42
2015-10-15,1.44,1.455,1.405,1.445,334400,1.445
2015-10-16,1.42,1.44,1.36,1.36,505100,1.36
2015-10-19,1.37,1.42,1.3,1.36,654500,1.36
2015-10-20,1.345,1.395,1.3,1.395,277600,1.395
2015-10-21,1.37,1.465,1.36,1.45,295600,1.45
2015-10-22,1.45,1.45,1.44,1.44,150300,1.44
2015-10-23,1.45,1.49,1.45,1.465,285500,1.465
2015-10-26,1.45,1.53,1.45,1.52,507100,1.52
2015-10-27,1.52,1.56,1.51,1.56,760200,1.56
2015-10-28,1.55,1.57,1.445,1.5,443000,1.5
2015-10-29,1.55,1.55,1.46,1.51,82200,1.51
2015-10-30,1.52,1.58,1.52,1.55,211500,1.55
2015-11-02,1.55,1.58,1.54,1.54,262300,1.54
2015-11-03,1.55,1.575,1.54,1.545,78300,1.545
2015-11-04,1.58,1.58,1.545,1.56,38600,1.56
2015-11-05,1.55,1.56,1.49,1.54,86600,1.54
2015-11-06,1.54,1.54,1.49,1.54,135000,1.54
2015-11-09,1.5,1.54,1.48,1.54,107500,1.54
2015-11-10,1.52,1.52,1.46,1.52,114700,1.52
2015-11-11,1.51,1.52,1.48,1.49,96800,1.49
2015-11-12,1.5,1.54,1.485,1.54,108300,1.54
2015-11-13,1.53,1.53,1.48,1.495,83800,1.495
2015-11-16,1.495,1.495,1.39,1.45,247800,1.45
2015-11-17,1.5,1.57,1.49,1.51,699600,1.51
2015-11-18,1.5,1.6,1.5,1.57,390100,1.57
2015-11-19,1.605,1.605,1.55,1.595,332600,1.595
2015-11-20,1.6,1.6,1.49,1.51,254800,1.51
2015-11-23,1.54,1.54,1.46,1.51,157700,1.51
2015-11-24,1.52,1.52,1.455,1.46,122200,1.46
2015-11-25,1.465,1.515,1.45,1.465,305100,1.465
2015-11-26,1.47,1.52,1.445,1.445,156700,1.445
2015-11-27,1.425,1.515,1.425,1.48,1365000,1.48
2015-11-30,1.48,1.615,1.48,1.57,718300,1.57
2015-12-01,1.56,1.63,1.555,1.565,440300,1.565
2015-12-02,1.55,1.57,1.5,1.52,533600,1.52
2015-12-03,1.52,1.57,1.46,1.46,739500,1.46
2015-12-04,1.46,1.525,1.46,1.52,205800,1.52
2015-12-07,1.475,1.56,1.46,1.53,2130700,1.53
2015-12-08,1.53,1.53,1.45,1.47,433100,1.47
2015-12-09,1.455,1.495,1.41,1.485,1310100,1.485
2015-12-10,1.47,1.47,1.405,1.43,333600,1.43
2015-12-11,1.43,1.485,1.43,1.47,288800,1.47
2015-12-14,1.45,1.48,1.42,1.43,502700,1.43
2015-12-15,1.44,1.48,1.41,1.45,523100,1.45
2015-12-16,1.45,1.48,1.42,1.42,245900,1.42
2015-12-17,1.435,1.45,1.405,1.425,232000,1.425
2015-12-18,1.435,1.495,1.415,1.495,394800,1.495
2015-12-21,1.43,1.465,1.43,1.45,90200,1.45
2015-12-22,1.46,1.475,1.435,1.45,149400,1.45
2015-12-23,1.46,1.5,1.455,1.5,159100,1.5
2015-12-24,1.5,1.545,1.5,1.52,119200,1.52
2015-12-25,1.52,1.52,1.52,1.52,0,1.52
2015-12-28,1.52,1.52,1.52,1.52,0,1.52
2015-12-29,1.545,1.59,1.5,1.555,469400,1.555
2015-12-30,1.58,1.685,1.55,1.64,567300,1.64
2015-12-31,1.625,1.65,1.62,1.62,185100,1.62
2016-01-01,1.62,1.62,1.62,1.62,0,1.62
2016-01-04,1.64,1.75,1.635,1.69,396900,1.69
2016-01-05,1.7,1.7,1.64,1.7,190500,1.7
2016-01-06,1.69,1.695,1.635,1.64,167800,1.64
2016-01-07,1.64,1.65,1.45,1.5,1636100,1.5
2016-01-08,1.46,1.555,1.46,1.53,153000,1.53
2016-01-11,1.51,1.53,1.5,1.53,55300,1.53
2016-01-12,1.53,1.565,1.495,1.52,285400,1.52
2016-01-13,1.52,1.54,1.5,1.54,296500,1.54
2016-01-14,1.52,1.575,1.515,1.55,78700,1.55
2016-01-15,1.55,1.65,1.55,1.63,368200,1.63
2016-01-18,1.6,1.6,1.52,1.6,124400,1.6
2016-01-19,1.65,1.7,1.635,1.68,364100,1.68
2016-01-20,1.7,1.785,1.7,1.75,425800,1.75
2016-01-21,1.745,1.77,1.68,1.69,285600,1.69
2016-01-22,1.71,1.75,1.705,1.72,192300,1.72
2016-01-25,1.75,1.775,1.72,1.73,237100,1.73
2016-01-26,1.73,1.73,1.73,1.73,0,1.73
2016-01-27,1.75,1.84,1.73,1.815,443800,1.815
2016-01-28,1.83,1.94,1.8,1.92,954700,1.92
2016-01-29,1.91,2.04,1.9,1.905,1153700,1.905
2016-02-01,1.95,1.955,1.87,1.89,520800,1.89
2016-02-02,1.92,1.92,1.85,1.85,221100,1.85
2016-02-03,1.875,1.875,1.75,1.75,510200,1.75
2016-02-04,1.75,1.84,1.75,1.825,253200,1.825
2016-02-05,1.83,1.87,1.83,1.86,121600,1.86
2016-02-08,1.87,1.87,1.82,1.845,159100,1.845
2016-02-09,1.85,1.86,1.775,1.84,283000,1.84
2016-02-10,1.83,1.9,1.815,1.86,489500,1.86
2016-02-11,1.855,1.89,1.72,1.745,470600,1.745
2016-02-12,1.75,1.795,1.665,1.755,623800,1.755
2016-02-15,1.715,1.775,1.69,1.69,408100,1.69
2016-02-16,1.67,1.745,1.635,1.735,539900,1.735
2016-02-17,1.75,1.775,1.73,1.75,207000,1.75
2016-02-18,1.77,1.83,1.765,1.795,209600,1.795
2016-02-19,1.8,1.875,1.78,1.83,293800,1.83
2016-02-22,1.83,1.845,1.81,1.83,900800,1.83
2016-02-23,1.86,1.875,1.81,1.875,281300,1.875
2016-02-24,1.87,1.88,1.835,1.86,216500,1.86
2016-02-25,1.85,1.88,1.845,1.85,452300,1.85
2016-02-26,1.88,1.9,1.865,1.87,268700,1.87
2016-02-29,1.87,1.88,1.835,1.855,196000,1.855
2016-03-01,1.86,1.87,1.85,1.87,107000,1.87
2016-03-02,1.85,1.87,1.81,1.83,550200,1.83
2016-03-03,1.84,1.85,1.81,1.835,293600,1.835
2016-03-04,1.83,1.84,1.8,1.835,303600,1.835
2016-03-07,1.835,1.89,1.83,1.855,316100,1.855
2016-03-08,1.865,1.9,1.815,1.86,730400,1.86
2016-03-09,1.83,1.85,1.71,1.72,923100,1.72
2016-03-10,1.72,1.77,1.64,1.665,3659700,1.665
2016-03-11,1.67,1.695,1.64,1.64,351300,1.64
2016-03-14,1.68,1.725,1.65,1.67,527000,1.67
2016-03-15,1.66,1.67,1.63,1.64,435400,1.64
2016-03-16,1.65,1.7,1.625,1.645,407400,1.645
2016-03-17,1.645,1.67,1.625,1.64,463500,1.64
2016-03-18,1.625,1.64,1.3,1.48,3735700,1.48
2016-03-21,1.415,1.415,1.18,1.21,2990000,1.21
2016-03-22,1.32,1.45,1.29,1.38,1496600,1.38
2016-03-23,1.395,1.395,1.31,1.34,1165500,1.34
2016-03-24,1.37,1.37,1.205,1.235,1702100,1.235
2016-03-25,1.235,1.235,1.235,1.235,0,1.235
2016-03-28,1.235,1.235,1.235,1.235,0,1.235
2016-03-29,1.255,1.285,1.165,1.19,1577200,1.19
2016-03-30,1.2,1.26,1.2,1.24,832700,1.24
2016-03-31,1.245,1.247,1.205,1.22,1247700,1.22
2016-04-01,1.22,1.225,1.165,1.18,438500,1.18
2016-04-04,1.19,1.22,1.155,1.17,2177900,1.17
2016-04-05,1.16,1.17,1.1,1.14,936200,1.14
2016-04-06,1.155,1.2,1.1520000000000001,1.18,727000,1.18
2016-04-07,1.2,1.335,1.195,1.28,1118200,1.28
2016-04-08,1.26,1.31,1.25,1.26,583500,1.26
2016-04-11,1.265,1.36,1.265,1.335,856100,1.335
2016-04-12,1.34,1.35,1.295,1.3,395500,1.3
2016-04-13,1.33,1.355,1.31,1.31,235700,1.31
2016-04-14,1.32,1.415,1.32,1.39,836300,1.39
2016-04-15,1.395,1.4,1.36,1.39,130500,1.39
2016-04-18,1.37,1.395,1.35,1.38,171900,1.38
2016-04-19,1.38,1.38,1.32,1.375,384500,1.375
2016-04-20,1.37,1.39,1.33,1.34,300600,1.34
2016-04-21,1.35,1.415,1.33,1.39,550300,1.39
2016-04-22,1.39,1.49,1.385,1.455,356800,1.455
2016-04-25,1.455,1.455,1.455,1.455,0,1.455
2016-04-26,1.46,1.465,1.39,1.43,292300,1.43
2016-04-27,1.42,1.43,1.395,1.42,297700,1.42
2016-04-28,1.41,1.41,1.325,1.39,148000,1.39
2016-04-29,1.43,1.43,1.39,1.4,144200,1.4
2016-05-02,1.415,1.43,1.38,1.425,127100,1.425
2016-05-03,1.43,1.45,1.405,1.42,364500,1.42
2016-05-04,1.42,1.42,1.375,1.41,169500,1.41
2016-05-05,1.405,1.45,1.38,1.41,2022900,1.41
2016-05-06,1.4,1.41,1.325,1.39,259100,1.39
2016-05-09,1.4,1.4,1.3,1.35,133200,1.35
2016-05-10,1.34,1.34,1.285,1.305,334000,1.305
2016-05-11,1.31,1.33,1.29,1.3,190900,1.3
2016-05-12,1.28,1.325,1.25,1.295,313000,1.295
2016-05-13,1.29,1.3,1.235,1.245,367200,1.245
2016-05-16,1.285,1.325,1.25,1.31,205200,1.31
2016-05-17,1.335,1.345,1.29,1.31,418400,1.31
2016-05-18,1.3,1.35,1.285,1.315,218700,1.315
2016-05-19,1.3,1.32,1.25,1.29,83400,1.29
2016-05-20,1.285,1.3,1.26,1.3,135000,1.3
2016-05-23,1.3,1.335,1.29,1.32,239900,1.32
2016-05-24,1.32,1.325,1.3,1.32,260000,1.32
2016-05-25,1.32,1.34,1.305,1.32,216200,1.32
2016-05-26,1.31,1.35,1.27,1.35,475700,1.35
2016-05-27,1.34,1.495,1.34,1.48,520000,1.48
2016-05-30,1.485,1.485,1.45,1.485,154000,1.485
2016-05-31,1.47,1.52,1.46,1.505,371400,1.505
2016-06-01,1.48,1.505,1.42,1.465,256500,1.465
2016-06-02,1.5,1.51,1.465,1.475,870100,1.475
2016-06-03,1.495,1.5,1.47,1.49,364700,1.49
2016-06-06,1.48,1.54,1.475,1.5,1731600,1.5
2016-06-07,1.5,1.525,1.49,1.49,18800,1.49
2016-06-08,1.485,1.52,1.47,1.51,249000,1.51
2016-06-09,1.52,1.58,1.52,1.545,132100,1.545
2016-06-10,1.55,1.57,1.52,1.56,83700,1.56
2016-06-13,1.56,1.56,1.56,1.56,0,1.56
2016-06-14,1.55,1.55,1.52,1.545,80700,1.545
2016-06-15,1.55,1.55,1.52,1.55,176700,1.55
2016-06-16,1.53,1.545,1.49,1.515,138600,1.515
2016-06-17,1.48,1.54,1.415,1.525,562000,1.525
2016-06-20,1.525,1.545,1.45,1.505,203900,1.505
2016-06-21,1.49,1.49,1.45,1.475,953000,1.475
2016-06-22,1.47,1.485,1.44,1.45,1415400,1.45
2016-06-23,1.44,1.47,1.43,1.455,454400,1.455
2016-06-24,1.485,1.5,1.305,1.4,665800,1.4
2016-06-27,1.4,1.405,1.345,1.35,255500,1.35
2016-06-28,1.35,1.355,1.33,1.34,250300,1.34
2016-06-29,1.355,1.39,1.33,1.34,390000,1.34
2016-06-30,1.37,1.425,1.365,1.375,222600,1.375
2016-07-01,1.43,1.435,1.39,1.435,63500,1.435
2016-07-04,1.43,1.44,1.405,1.425,136600,1.425
2016-07-05,1.425,1.45,1.385,1.39,113800,1.39
2016-07-06,1.385,1.41,1.385,1.4,90500,1.4
2016-07-07,1.4,1.4,1.305,1.33,482000,1.33
2016-07-08,1.38,1.38,1.29,1.31,217100,1.31
2016-07-11,1.31,1.31,1.22,1.25,595500,1.25
2016-07-12,1.26,1.355,1.18,1.355,559500,1.355
2016-07-13,1.38,1.38,1.315,1.36,272100,1.36
2016-07-14,1.375,1.405,1.31,1.405,298200,1.405
2016-07-15,1.41,1.42,1.37,1.42,183100,1.42
2016-07-18,1.45,1.45,1.4,1.43,149700,1.43
2016-07-19,1.45,1.45,1.41,1.42,240200,1.42
2016-07-20,1.425,1.45,1.42,1.45,138400,1.45
2016-07-21,1.46,1.5,1.45,1.485,50800,1.485
2016-07-22,1.475,1.49,1.465,1.48,41000,1.48
2016-07-25,1.48,1.48,1.43,1.46,108500,1.46
2016-07-26,1.47,1.49,1.405,1.405,84200,1.405
2016-07-27,1.46,1.46,1.405,1.405,136100,1.405
2016-07-28,1.44,1.45,1.39,1.435,90000,1.435
2016-07-29,1.44,1.44,1.405,1.405,56800,1.405
2016-08-01,1.41,1.49,1.41,1.455,78900,1.455
2016-08-02,1.47,1.47,1.325,1.365,247300,1.365
2016-08-03,1.425,1.425,1.295,1.3,82900,1.3
2016-08-04,1.34,1.345,1.275,1.29,502700,1.29
2016-08-05,1.29,1.335,1.28,1.315,74600,1.315
2016-08-08,1.3,1.345,1.3,1.32,109400,1.32
2016-08-09,1.35,1.35,1.305,1.32,77700,1.32
2016-08-10,1.32,1.37,1.315,1.32,70800,1.32
2016-08-11,1.36,1.4,1.33,1.4,418500,1.4
2016-08-12,1.41,1.435,1.41,1.41,152400,1.41
2016-08-15,1.41,1.435,1.4,1.42,214300,1.42
2016-08-16,1.44,1.44,1.4069999999999998,1.425,128300,1.425
2016-08-17,1.4,1.44,1.38,1.44,386000,1.44
2016-08-18,1.45,1.45,1.4,1.45,67200,1.45
2016-08-19,1.46,1.462,1.41,1.445,329300,1.445
2016-08-22,1.42,1.45,1.365,1.38,2044200,1.38
2016-08-23,1.375,1.38,1.335,1.36,851300,1.36
2016-08-24,1.345,1.4,1.34,1.345,319900,1.345
2016-08-25,1.33,1.35,1.32,1.35,118700,1.35
2016-08-26,1.35,1.37,1.32,1.33,307300,1.33
2016-08-29,1.33,1.345,1.295,1.32,161500,1.32
2016-08-30,1.305,1.365,1.305,1.345,651600,1.345
2016-08-31,1.335,1.37,1.325,1.365,254400,1.365
2016-09-01,1.33,1.34,1.28,1.295,315600,1.295
2016-09-02,1.285,1.325,1.25,1.25,56800,1.25
2016-09-05,1.265,1.305,1.26,1.3,9900,1.3
2016-09-06,1.3,1.325,1.285,1.32,139400,1.32
2016-09-07,1.315,1.317,1.27,1.31,164600,1.31
2016-09-08,1.33,1.37,1.26,1.295,123900,1.295
2016-09-09,1.29,1.29,1.225,1.25,89900,1.25
2016-09-12,1.25,1.25,1.205,1.225,96500,1.225
2016-09-13,1.225,1.225,1.192,1.2,120700,1.2
2016-09-14,1.21,1.21,1.135,1.18,340500,1.18
2016-09-15,1.17,1.17,1.095,1.145,147900,1.145
2016-09-16,1.15,1.15,0.965,0.985,1754300,0.985
2016-09-19,1.01,1.08,0.97,1.01,200100,1.01
2016-09-20,1.015,1.1,1.015,1.1,395400,1.1
2016-09-21,1.12,1.1420000000000001,1.085,1.085,234300,1.085
2016-09-22,1.09,1.15,1.08,1.1,145800,1.1
2016-09-23,1.1,1.145,1.09,1.14,249300,1.14
2016-09-26,1.12,1.21,1.117,1.21,161400,1.21
2016-09-27,1.21,1.3,1.21,1.28,348300,1.28
2016-09-28,1.26,1.28,1.245,1.28,146600,1.28
2016-09-29,1.28,1.32,1.272,1.32,195400,1.32
2016-09-30,1.32,1.33,1.28,1.28,54000,1.28
2016-10-03,1.29,1.33,1.29,1.3,68900,1.3
2016-10-04,1.27,1.295,1.22,1.26,38700,1.26
2016-10-05,1.21,1.27,1.21,1.245,83400,1.245
2016-10-06,1.245,1.28,1.22,1.22,92300,1.22
2016-10-07,1.205,1.255,1.2,1.25,100800,1.25
2016-10-10,1.25,1.27,1.24,1.245,241200,1.245
2016-10-11,1.24,1.245,1.215,1.227,19400,1.227
2016-10-12,1.22,1.32,1.2,1.28,592900,1.28
2016-10-13,1.275,1.275,1.23,1.23,299600,1.23
2016-10-14,1.25,1.25,1.19,1.23,138700,1.23
2016-10-17,1.235,1.235,1.175,1.18,141200,1.18
2016-10-18,1.18,1.19,1.13,1.13,210800,1.13
2016-10-19,1.14,1.145,1.11,1.13,315000,1.13
2016-10-20,1.1,1.1,1.06,1.07,122800,1.07
2016-10-21,1.09,1.125,1.08,1.08,145200,1.08
2016-10-24,1.18,1.2,1.16,1.16,305900,1.16
2016-10-25,1.16,1.2,1.16,1.18,315600,1.18
2016-10-26,1.17,1.175,1.16,1.16,140100,1.16
2016-10-27,1.16,1.18,1.12,1.16,208400,1.16
2016-10-28,1.17,1.17,1.13,1.13,66400,1.13
2016-10-31,1.13,1.17,1.12,1.14,103800,1.14
2016-11-01,1.14,1.17,1.13,1.15,278800,1.15
2016-11-02,1.15,1.175,1.1,1.135,285900,1.135
2016-11-03,1.15,1.15,1.1,1.125,803900,1.125
2016-11-04,1.125,1.125,1.09,1.1,72900,1.1
2016-11-07,1.1,1.1,1.07,1.075,77600,1.075
2016-11-08,1.085,1.12,1.085,1.1,76100,1.1
2016-11-09,1.1,1.11,1.0,1.01,453600,1.01
2016-11-10,1.085,1.17,1.085,1.135,215600,1.135
2016-11-11,1.135,1.26,1.135,1.25,416300,1.25
2016-11-14,1.27,1.28,1.2,1.22,169800,1.22
2016-11-15,1.215,1.25,1.17,1.25,123200,1.25
2016-11-16,1.23,1.29,1.2,1.21,162500,1.21
2016-11-17,1.21,1.24,1.2,1.235,84300,1.235
2016-11-18,1.24,1.25,1.2,1.25,163500,1.25
2016-11-21,1.23,1.285,1.22,1.285,136300,1.285
2016-11-22,1.285,1.39,1.255,1.34,328500,1.34
2016-11-23,1.34,1.36,1.23,1.23,458200,1.23
2016-11-24,1.24,1.33,1.24,1.33,121400,1.33
2016-11-25,1.255,1.345,1.255,1.3,131400,1.3
2016-11-28,1.26,1.32,1.25,1.26,83900,1.26
2016-11-29,1.275,1.275,1.23,1.235,54200,1.235
2016-11-30,1.24,1.3,1.24,1.3,11000,1.3
2016-12-01,1.29,1.32,1.25,1.3,163800,1.3
2016-12-02,1.31,1.39,1.3,1.39,126100,1.39
2016-12-05,1.39,1.4,1.34,1.39,44800,1.39
2016-12-06,1.37,1.41,1.32,1.35,107100,1.35
2016-12-07,1.35,1.41,1.32,1.4,241500,1.4
2016-12-08,1.395,1.46,1.35,1.46,707700,1.46
2016-12-09,1.46,1.54,1.435,1.48,554600,1.48
2016-12-12,1.495,1.505,1.395,1.4,375000,1.4
2016-12-13,1.455,1.455,1.35,1.355,124700,1.355
2016-12-14,1.34,1.345,1.295,1.32,453300,1.32
2016-12-15,1.32,1.325,1.25,1.25,275900,1.25
2016-12-16,1.25,1.315,1.25,1.26,520600,1.26
2016-12-19,1.26,1.3,1.25,1.27,116500,1.27
2016-12-20,1.28,1.365,1.27,1.34,482600,1.34
2016-12-21,1.36,1.4,1.36,1.395,1304700,1.395
2016-12-22,1.36,1.395,1.33,1.33,657700,1.33
2016-12-23,1.33,1.335,1.28,1.305,172300,1.305
2016-12-26,1.305,1.305,1.305,1.305,0,1.305
2016-12-27,1.305,1.305,1.305,1.305,0,1.305
2016-12-28,1.305,1.38,1.305,1.345,199600,1.345
2016-12-29,1.31,1.345,1.31,1.34,3100,1.34
2016-12-30,1.34,1.345,1.28,1.33,142000,1.33
