Date,Open,High,Low,Close,Volume,Adj Close
2015-10-21,1.94,1.94,1.8,1.83,2345400,1.7682
2015-10-22,1.83,1.95,1.83,1.912,1406300,1.8474
2015-10-23,1.95,1.955,1.93,1.94,1156600,1.8745
2015-10-26,1.95,1.98,1.92,1.935,299300,1.8696
2015-10-27,1.935,1.98,1.9,1.95,209800,1.8841
2015-10-28,1.9,1.9,1.82,1.825,596100,1.7633
2015-10-29,1.825,1.825,1.765,1.765,961600,1.7054
2015-10-30,1.76,1.8,1.75,1.795,1323900,1.7344
2015-11-02,1.8,1.92,1.8,1.86,58000,1.7972
2015-11-03,1.88,1.9,1.81,1.815,147000,1.7537
2015-11-04,1.815,1.815,1.75,1.8,1159900,1.7392
2015-11-05,1.805,1.805,1.8,1.8,5000,1.7392
2015-11-06,1.83,1.88,1.83,1.84,1416700,1.7778
2015-11-09,1.84,1.92,1.84,1.91,390000,1.8455
2015-11-10,1.905,1.905,1.88,1.88,5200,1.8165
2015-11-11,1.82,1.86,1.82,1.82,46900,1.7585
2015-11-12,1.82,1.84,1.8,1.83,66200,1.7682
2015-11-13,1.8,1.805,1.79,1.79,699100,1.7295
2015-11-16,1.78,1.78,1.77,1.77,28900,1.7102
2015-11-17,1.77,1.78,1.76,1.76,204000,1.7005
2015-11-18,1.75,1.76,1.71,1.76,1318200,1.7005
2015-11-19,1.77,1.83,1.76,1.8,161700,1.7392
2015-11-20,1.8,1.84,1.8,1.82,1165000,1.7585
2015-11-23,1.82,1.845,1.8,1.82,69100,1.7585
2015-11-24,1.805,1.83,1.785,1.8,435600,1.7392
2015-11-25,1.785,1.83,1.785,1.82,167800,1.7585
2015-11-26,1.82,1.82,1.8,1.8,122900,1.7392
2015-11-27,1.8,1.84,1.8,1.82,28800,1.7585
2015-11-30,1.8,1.84,1.79,1.835,48100,1.7730000000000001
2015-12-01,1.8,1.805,1.8,1.8,170900,1.7392
2015-12-02,1.8,1.82,1.8,1.82,59000,1.7585
2015-12-03,1.78,1.78,1.775,1.78,26600,1.7199
2015-12-04,1.777,1.79,1.77,1.79,71100,1.7295
2015-12-07,1.8,1.85,1.8,1.84,90500,1.7778
2015-12-08,1.82,1.88,1.8,1.85,67000,1.7875
2015-12-09,1.87,1.87,1.85,1.865,4077000,1.8019999999999998
2015-12-10,1.865,1.865,1.81,1.82,36800,1.7585
2015-12-11,1.82,1.85,1.82,1.85,743600,1.7875
2015-12-14,1.83,1.84,1.81,1.84,55200,1.7778
2015-12-15,1.84,1.84,1.77,1.77,128500,1.7102
2015-12-16,1.75,1.75,1.465,1.645,619700,1.5894
2015-12-17,1.555,1.635,1.555,1.58,158300,1.5266
2015-12-18,1.585,1.72,1.585,1.68,272000,1.6232
2015-12-21,1.68,1.68,1.63,1.665,39400,1.6087
2015-12-22,1.65,1.665,1.63,1.66,43000,1.6039
2015-12-23,1.64,1.64,1.6,1.63,72100,1.5749
2015-12-24,1.64,1.66,1.63,1.64,20000,1.5846
2015-12-25,1.64,1.64,1.64,1.64,0,1.5846
2015-12-28,1.64,1.64,1.64,1.64,0,1.5846
2015-12-29,1.6569999999999998,1.6575,1.655,1.655,6100,1.5991
2015-12-30,1.66,1.68,1.63,1.66,19900,1.6039
2015-12-31,1.66,1.7,1.635,1.655,50400,1.5991
2016-01-01,1.655,1.655,1.655,1.655,0,1.5991
2016-01-04,1.655,1.655,1.64,1.64,41300,1.5846
2016-01-05,1.65,1.685,1.65,1.675,6800,1.6184
2016-01-06,1.66,1.66,1.64,1.64,19800,1.5846
2016-01-07,1.64,1.64,1.6,1.635,5100,1.5798
2016-01-08,1.61,1.635,1.61,1.62,124100,1.5653
2016-01-11,1.61,1.655,1.61,1.655,13300,1.5991
2016-01-12,1.64,1.655,1.63,1.65,4000,1.5943
2016-01-13,1.63,1.63,1.6,1.62,37700,1.5653
2016-01-14,1.62,1.62,1.57,1.57,48600,1.517
2016-01-15,1.57,1.58,1.57,1.58,16700,1.5266
2016-01-18,1.58,1.58,1.58,1.58,0,1.5266
2016-01-19,1.58,1.61,1.58,1.61,14100,1.5556
2016-01-20,1.61,1.61,1.61,1.61,0,1.5556
2016-01-21,1.57,1.62,1.555,1.565,31400,1.5121
2016-01-22,1.565,1.62,1.54,1.62,26300,1.5653
2016-01-25,1.55,1.55,1.475,1.55,36600,1.4976
2016-01-26,1.55,1.55,1.55,1.55,0,1.4976
2016-01-27,1.6,1.6,1.52,1.52,7200,1.4686
2016-01-28,1.52,1.52,1.47,1.47,199400,1.4203
2016-01-29,1.47,1.49,1.47,1.49,151100,1.4397
2016-02-01,1.515,1.52,1.49,1.52,24000,1.4686
2016-02-02,1.59,1.59,1.59,1.59,100,1.5363
2016-02-03,1.525,1.525,1.52,1.52,13000,1.4686
2016-02-04,1.52,1.525,1.5,1.52,6200,1.4686
2016-02-05,1.54,1.54,1.49,1.52,33800,1.4686
2016-02-08,1.52,1.52,1.47,1.47,26300,1.4203
2016-02-09,1.45,1.45,1.45,1.45,21200,1.401
2016-02-10,1.45,1.46,1.4,1.41,39300,1.3624
2016-02-11,1.41,1.41,1.4,1.4,30500,1.3527
2016-02-12,1.4,1.4,1.4,1.4,13000,1.3527
2016-02-15,1.42,1.42,1.415,1.42,24800,1.3719999999999999
2016-02-16,1.42,1.45,1.4,1.45,22200,1.401
2016-02-17,1.4,1.4,1.4,1.4,15100,1.3527
2016-02-18,1.45,1.55,1.4,1.4,3080400,1.3527
2016-02-19,1.4,1.415,1.4,1.41,600,1.3624
2016-02-22,1.4,1.4,1.34,1.34,2160500,1.2947
2016-02-23,1.34,1.5,1.34,1.5,33600,1.4493
2016-02-24,1.35,1.39,1.35,1.39,62700,1.3430000000000002
2016-02-25,1.39,1.39,1.35,1.39,3100,1.3430000000000002
2016-02-26,1.35,1.38,1.345,1.36,58300,1.314
2016-02-29,1.345,1.36,1.3,1.31,2031400,1.2657
2016-03-01,1.31,1.31,1.3,1.3,760900,1.2561
2016-03-02,1.3,1.3,1.26,1.26,11200,1.2174
2016-03-03,1.28,1.3,1.26,1.27,33700,1.2271
2016-03-04,1.27,1.32,1.26,1.3,65700,1.2561
2016-03-07,1.3,1.35,1.3,1.35,52400,1.3044
2016-03-08,1.38,1.39,1.36,1.36,3083300,1.314
2016-03-09,1.36,1.36,1.27,1.32,30100,1.2754
2016-03-10,1.325,1.36,1.32,1.36,10700,1.314
2016-03-11,1.32,1.39,1.32,1.355,18800,1.3092
2016-03-14,1.39,1.39,1.385,1.385,500,1.3382
2016-03-15,1.37,1.39,1.33,1.335,1760700,1.2899
2016-03-16,1.335,1.385,1.335,1.38,20600,1.3334
2016-03-17,1.38,1.38,1.335,1.34,27700,1.2947
2016-03-18,1.34,1.34,1.34,1.34,29500,1.2947
2016-03-21,1.355,1.39,1.355,1.39,46900,1.3430000000000002
2016-03-22,1.39,1.395,1.36,1.36,121800,1.314
2016-03-23,1.36,1.375,1.36,1.36,76400,1.314
2016-03-24,1.375,1.375,1.375,1.375,2534100,1.3285
2016-03-25,1.375,1.375,1.375,1.375,0,1.3285
2016-03-28,1.375,1.375,1.375,1.375,0,1.3285
2016-03-29,1.38,1.38,1.37,1.37,10700,1.3237
2016-03-30,1.375,1.39,1.37,1.39,60200,1.3430000000000002
2016-03-31,1.39,1.39,1.36,1.365,10900,1.3189
2016-04-01,1.38,1.38,1.37,1.37,18800,1.3237
2016-04-04,1.39,1.39,1.39,1.39,100,1.3430000000000002
2016-04-05,1.38,1.39,1.37,1.37,420300,1.3237
2016-04-06,1.37,1.37,1.32,1.33,37100,1.2851
2016-04-07,1.355,1.365,1.33,1.33,50600,1.2851
2016-04-08,1.36,1.37,1.35,1.35,11000,1.3044
2016-04-11,1.36,1.36,1.33,1.33,395200,1.2851
2016-04-12,1.36,1.36,1.32,1.345,50600,1.2996
2016-04-13,1.36,1.36,1.335,1.335,43400,1.2899
2016-04-14,1.35,1.36,1.29,1.36,297800,1.314
2016-04-15,1.35,1.35,1.33,1.35,49900,1.3044
2016-04-18,1.35,1.39,1.34,1.39,136600,1.3430000000000002
2016-04-19,1.39,1.39,1.36,1.39,34500,1.3430000000000002
2016-04-20,1.4,1.425,1.39,1.4,65100,1.3527
2016-04-21,1.4,1.45,1.4,1.45,19400,1.401
2016-04-22,1.465,1.5,1.455,1.49,118900,1.4397
2016-04-25,1.49,1.49,1.49,1.49,0,1.4397
2016-04-26,1.49,1.49,1.465,1.47,8600,1.4203
2016-04-27,1.485,1.505,1.465,1.47,74000,1.4203
2016-04-28,1.54,1.54,1.47,1.5,34500,1.4493
2016-04-29,1.5,1.5,1.5,1.5,0,1.4493
2016-05-02,1.475,1.475,1.43,1.43,1034000,1.3817
2016-05-03,1.43,1.4469999999999998,1.41,1.41,54600,1.3624
2016-05-04,1.41,1.41,1.41,1.41,0,1.3624
2016-05-05,1.435,1.435,1.39,1.41,35400,1.3624
2016-05-06,1.41,1.41,1.4,1.4,535600,1.3527
2016-05-09,1.4,1.41,1.39,1.4,70500,1.3527
2016-05-10,1.39,1.4,1.36,1.37,1606800,1.3237
2016-05-11,1.37,1.41,1.37,1.38,111600,1.3334
2016-05-12,1.38,1.41,1.38,1.41,250100,1.3624
2016-05-13,1.41,1.475,1.41,1.46,1303400,1.4107
2016-05-16,1.52,1.525,1.505,1.525,185700,1.4735
2016-05-17,1.525,1.53,1.495,1.515,454600,1.4638
2016-05-18,1.52,1.54,1.5,1.5,419000,1.4493
2016-05-19,1.5,1.5,1.49,1.5,249400,1.4493
2016-05-20,1.505,1.545,1.505,1.545,79900,1.4928
2016-05-23,1.545,1.55,1.52,1.545,56600,1.4928
2016-05-24,1.545,1.5575,1.515,1.55,285200,1.4976
2016-05-25,1.58,1.58,1.49,1.505,116400,1.4542
2016-05-26,1.505,1.59,1.5,1.58,91600,1.5266
2016-05-27,1.575,1.58,1.52,1.58,48400,1.5266
2016-05-30,1.58,1.65,1.58,1.615,17000,1.5604
2016-05-31,1.655,1.655,1.53,1.56,22600,1.5073
2016-06-01,1.55,1.585,1.55,1.58,204500,1.5266
2016-06-02,1.57,1.62,1.57,1.62,35300,1.5653
2016-06-03,1.555,1.6,1.555,1.6,21000,1.5459
2016-06-06,1.6,1.6,1.555,1.595,24800,1.5411
2016-06-07,1.555,1.555,1.51,1.54,15800,1.4880000000000002
2016-06-08,1.51,1.51,1.465,1.48,40600,1.43
2016-06-09,1.48,1.5,1.41,1.49,19700,1.4397
2016-06-10,1.465,1.48,1.465,1.48,600,1.43
2016-06-13,1.48,1.48,1.48,1.48,0,1.43
2016-06-14,1.49,1.49,1.43,1.49,54400,1.4397
2016-06-15,1.48,1.495,1.41,1.48,272500,1.43
2016-06-16,1.48,1.48,1.41,1.47,69200,1.4203
2016-06-17,1.43,1.48,1.43,1.48,764700,1.43
2016-06-20,1.48,1.48,1.44,1.47,800,1.4203
2016-06-21,1.46,1.46,1.415,1.45,27700,1.401
2016-06-22,1.48,1.48,1.42,1.43,21400,1.3817
2016-06-23,1.43,1.47,1.415,1.45,13700,1.401
2016-06-24,1.43,1.435,1.38,1.4,20500,1.3527
2016-06-27,1.4,1.405,1.37,1.4,97400,1.3527
2016-06-28,1.4,1.432,1.37,1.4,52100,1.3527
2016-06-29,1.38,1.46,1.37,1.46,63000,1.4107
2016-06-30,1.46,1.46,1.42,1.45,53100,1.401
2016-07-01,1.47,1.525,1.445,1.445,25200,1.3962
2016-07-04,1.5,1.51,1.47,1.49,47900,1.4397
2016-07-05,1.43,1.5,1.43,1.46,18900,1.4107
2016-07-06,1.45,1.54,1.45,1.5,105100,1.4493
2016-07-07,1.495,1.5,1.47,1.5,28300,1.4493
2016-07-08,1.48,1.49,1.48,1.49,1200,1.4397
2016-07-11,1.48,1.485,1.47,1.48,325100,1.43
2016-07-12,1.525,1.53,1.525,1.53,19400,1.4783
2016-07-13,1.53,1.545,1.525,1.545,55800,1.4928
2016-07-14,1.535,1.55,1.535,1.55,8300,1.4976
2016-07-15,1.63,1.63,1.63,1.63,4800,1.5749
2016-07-18,1.62,1.65,1.57,1.65,58000,1.5943
2016-07-19,1.64,1.64,1.6,1.6,12300,1.5459
2016-07-20,1.58,1.6,1.58,1.6,60800,1.5459
2016-07-21,1.6,1.72,1.6,1.72,92400,1.6619
2016-07-22,1.705,1.705,1.65,1.65,14800,1.5943
2016-07-25,1.6,1.68,1.6,1.63,66900,1.5749
2016-07-26,1.63,1.715,1.61,1.69,56000,1.6329
2016-07-27,1.615,1.615,1.61,1.61,30700,1.5556
2016-07-28,1.62,1.675,1.62,1.67,3600,1.6136
2016-07-29,1.69,1.7,1.63,1.7,111500,1.6426
2016-08-01,1.69,1.7,1.6,1.68,205100,1.6232
2016-08-02,1.62,1.62,1.62,1.62,205700,1.5653
2016-08-03,1.6,1.62,1.59,1.62,8300,1.5653
2016-08-04,1.62,1.655,1.62,1.65,20400,1.5943
2016-08-05,1.65,1.7,1.635,1.69,56800,1.6329
2016-08-08,1.67,1.69,1.67,1.69,15400,1.6329
2016-08-09,1.685,1.69,1.67,1.69,23200,1.6329
2016-08-10,1.67,1.67,1.66,1.66,11900,1.6039
2016-08-11,1.66,1.66,1.65,1.65,16000,1.5943
2016-08-12,1.66,1.665,1.66,1.665,1500,1.6087
2016-08-15,1.66,1.69,1.66,1.66,5200,1.6039
2016-08-16,1.7,1.765,1.695,1.735,443000,1.6764
2016-08-17,1.72,1.73,1.7,1.7,109300,1.6426
2016-08-18,1.7,1.73,1.69,1.705,115600,1.6474
2016-08-19,1.74,1.79,1.72,1.75,384000,1.6909
2016-08-22,1.75,1.77,1.74,1.75,35500,1.6909
2016-08-23,1.75,1.75,1.71,1.72,86000,1.6619
2016-08-24,1.74,1.76,1.74,1.76,73800,1.7005
2016-08-25,1.78,1.8,1.73,1.73,101300,1.6715
2016-08-26,1.73,1.735,1.65,1.67,250200,1.6136
2016-08-29,1.68,1.69,1.65,1.69,123700,1.6329
2016-08-30,1.68,1.69,1.65,1.69,421500,1.6329
2016-08-31,1.67,1.675,1.6,1.63,114800,1.63
2016-09-01,1.63,1.65,1.63,1.65,23500,1.65
2016-09-02,1.63,1.64,1.59,1.615,47100,1.615
2016-09-05,1.615,1.64,1.55,1.57,508500,1.57
2016-09-06,1.57,1.6,1.565,1.57,11000,1.57
2016-09-07,1.58,1.6,1.52,1.55,2518400,1.55
2016-09-08,1.58,1.58,1.5619999999999998,1.565,871600,1.565
2016-09-09,1.565,1.58,1.555,1.58,41300,1.58
2016-09-12,1.57,1.57,1.555,1.56,9800,1.56
2016-09-13,1.6,1.6,1.565,1.59,12200,1.59
2016-09-14,1.585,1.585,1.565,1.58,2100,1.58
2016-09-15,1.56,1.57,1.54,1.54,80100,1.54
2016-09-16,1.54,1.6,1.52,1.6,112100,1.6
2016-09-19,1.6,1.6,1.6,1.6,0,1.6
2016-09-20,1.59,1.59,1.5,1.56,1918200,1.56
2016-09-21,1.56,1.56,1.52,1.56,51500,1.56
2016-09-22,1.55,1.55,1.54,1.55,2600,1.55
2016-09-23,1.54,1.58,1.54,1.57,18100,1.57
2016-09-26,1.565,1.6,1.56,1.6,50600,1.6
2016-09-27,1.59,1.5975,1.54,1.54,78200,1.54
2016-09-28,1.55,1.55,1.5,1.5,93800,1.5
2016-09-29,1.515,1.6,1.51,1.54,39600,1.54
2016-09-30,1.59,1.59,1.525,1.575,7800,1.575
2016-10-03,1.57,1.59,1.51,1.54,10200,1.54
2016-10-04,1.53,1.6,1.53,1.59,28400,1.59
2016-10-05,1.585,1.59,1.55,1.57,7400,1.57
2016-10-06,1.55,1.59,1.54,1.54,57200,1.54
2016-10-07,1.55,1.6,1.55,1.55,11100,1.55
2016-10-10,1.6,1.6,1.545,1.545,7400,1.545
2016-10-11,1.55,1.56,1.55,1.55,11300,1.55
2016-10-12,1.55,1.57,1.55,1.555,1500,1.555
2016-10-13,1.555,1.59,1.555,1.57,212800,1.57
2016-10-14,1.565,1.6,1.55,1.6,121900,1.6
2016-10-17,1.595,1.6,1.58,1.6,200,1.6
2016-10-18,1.595,1.64,1.55,1.64,14300,1.64
2016-10-19,1.64,1.65,1.6,1.605,45000,1.605
2016-10-20,1.6,1.605,1.55,1.58,64300,1.58
2016-10-21,1.575,1.6,1.55,1.55,4500,1.55
2016-10-24,1.55,1.58,1.55,1.565,26800,1.565
2016-10-25,1.565,1.565,1.54,1.54,192200,1.54
2016-10-26,1.54,1.55,1.54,1.55,66200,1.55
2016-10-27,1.6,1.6,1.545,1.58,78600,1.58
2016-10-28,1.55,1.61,1.55,1.61,158600,1.61
2016-10-31,1.61,1.65,1.605,1.62,31400,1.62
2016-11-01,1.65,1.65,1.65,1.65,5000,1.65
2016-11-02,1.65,1.69,1.615,1.65,247000,1.65
2016-11-03,1.65,1.65,1.65,1.65,0,1.65
2016-11-04,1.63,1.63,1.6,1.6119999999999999,125200,1.6119999999999999
2016-11-07,1.6,1.63,1.6,1.63,16600,1.63
2016-11-08,1.61,1.63,1.6,1.6,243800,1.6
2016-11-09,1.6,1.605,1.55,1.56,134500,1.56
2016-11-10,1.58,1.585,1.55,1.57,126200,1.57
2016-11-11,1.59,1.59,1.575,1.59,6700,1.59
2016-11-14,1.56,1.57,1.555,1.56,71000,1.56
2016-11-15,1.56,1.56,1.5,1.51,116000,1.51
2016-11-16,1.55,1.555,1.52,1.52,73500,1.52
2016-11-17,1.5,1.5,1.48,1.48,247300,1.48
2016-11-18,1.3,1.345,1.23,1.27,421700,1.27
2016-11-21,1.27,1.27,1.12,1.16,406000,1.16
2016-11-22,1.175,1.225,1.17,1.185,599600,1.185
2016-11-23,1.185,1.2,1.185,1.195,460900,1.195
2016-11-24,1.195,1.23,1.187,1.195,1652200,1.195
2016-11-25,1.22,1.25,1.2,1.25,36400,1.25
2016-11-28,1.26,1.26,1.23,1.24,19100,1.24
2016-11-29,1.245,1.245,1.17,1.17,621300,1.17
2016-11-30,1.18,1.195,1.18,1.19,27400,1.19
2016-12-01,1.17,1.175,1.17,1.17,28700,1.17
2016-12-02,1.175,1.2,1.16,1.18,115900,1.18
2016-12-05,1.17,1.17,1.15,1.15,78100,1.15
2016-12-06,1.17,1.17,1.14,1.147,235200,1.147
2016-12-07,1.15,1.165,1.14,1.145,366900,1.145
2016-12-08,1.14,1.14,1.1320000000000001,1.135,85200,1.135
2016-12-09,1.135,1.15,1.135,1.135,130500,1.135
2016-12-12,1.145,1.15,1.13,1.13,296000,1.13
2016-12-13,1.14,1.16,1.13,1.135,103800,1.135
2016-12-14,1.155,1.175,1.14,1.17,345700,1.17
2016-12-15,1.17,1.225,1.155,1.21,154600,1.21
2016-12-16,1.21,1.35,1.21,1.23,107800,1.23
2016-12-19,1.23,1.23,1.23,1.23,2001500,1.23
2016-12-20,1.235,1.26,1.21,1.23,1613500,1.23
2016-12-21,1.25,1.26,1.22,1.23,198200,1.23
2016-12-22,1.23,1.26,1.23,1.26,236600,1.26
2016-12-23,1.24,1.24,1.215,1.215,28100,1.215
2016-12-26,1.215,1.215,1.215,1.215,0,1.215
2016-12-27,1.215,1.215,1.215,1.215,0,1.215
2016-12-28,1.22,1.22,1.22,1.22,1000,1.22
2016-12-29,1.235,1.235,1.215,1.215,10500,1.215
2016-12-30,1.23,1.23,1.215,1.215,22800,1.215
