Date,Open,High,Low,Close,Volume,Adj Close
2011-05-24,1.45,1.45,1.45,1.45,2000,1.13
2011-06-01,1.46,1.46,1.45,1.45,6300,1.15
2011-06-07,1.45,1.45,1.45,1.45,300,1.15
2011-06-08,1.3,1.3,1.3,1.3,300,1.03
2011-07-14,1.45,1.45,1.45,1.45,600,1.15
2011-10-05,1.45,1.45,1.45,1.45,30800,1.15
2011-11-17,1.45,1.45,1.45,1.45,0,1.15
2011-11-18,1.45,1.45,1.45,1.45,0,1.15
2011-11-21,1.45,1.45,1.45,1.45,0,1.15
2011-11-22,1.45,1.45,1.45,1.45,0,1.15
2011-11-23,1.45,1.45,1.45,1.45,0,1.15
2011-11-24,1.45,1.45,1.45,1.45,0,1.15
2011-11-25,1.45,1.45,1.45,1.45,0,1.15
2011-11-28,1.45,1.45,1.45,1.45,0,1.18
2011-11-29,1.45,1.45,1.45,1.45,0,1.18
2011-11-30,1.45,1.45,1.45,1.45,0,1.18
2011-12-01,1.45,1.45,1.45,1.45,0,1.18
2011-12-02,1.45,1.45,1.45,1.45,0,1.18
2011-12-05,1.45,1.45,1.45,1.45,0,1.18
2011-12-06,1.45,1.45,1.45,1.45,0,1.18
2011-12-07,1.45,1.45,1.45,1.45,0,1.18
2011-12-08,1.45,1.45,1.45,1.45,0,1.18
2011-12-09,1.45,1.45,1.45,1.45,0,1.18
2011-12-12,1.45,1.45,1.45,1.45,0,1.18
2011-12-13,1.45,1.45,1.45,1.45,0,1.18
2011-12-14,1.45,1.45,1.45,1.45,0,1.18
2011-12-15,1.45,1.45,1.45,1.45,0,1.18
2011-12-16,1.45,1.45,1.45,1.45,0,1.18
2011-12-19,1.45,1.45,1.45,1.45,0,1.18
2011-12-20,1.45,1.45,1.45,1.45,0,1.18
2011-12-21,1.45,1.45,1.45,1.45,0,1.18
2011-12-22,1.45,1.45,1.45,1.45,0,1.18
2011-12-23,1.45,1.45,1.45,1.45,0,1.18
2011-12-26,1.45,1.45,1.45,1.45,0,1.18
2011-12-27,1.45,1.45,1.45,1.45,0,1.18
2011-12-28,1.45,1.45,1.45,1.45,0,1.18
2011-12-29,1.45,1.45,1.45,1.45,0,1.18
2011-12-30,1.45,1.45,1.45,1.45,0,1.18
2012-01-02,1.45,1.45,1.45,1.45,0,1.18
2012-01-03,1.45,1.45,1.45,1.45,0,1.18
2012-01-04,1.45,1.45,1.45,1.45,0,1.18
2012-01-05,1.45,1.45,1.45,1.45,0,1.18
2012-01-06,1.45,1.45,1.45,1.45,0,1.18
2012-01-09,1.45,1.45,1.45,1.45,0,1.18
2012-01-10,1.45,1.45,1.45,1.45,0,1.18
2012-01-11,1.45,1.45,1.45,1.45,0,1.18
2012-01-12,1.45,1.45,1.45,1.45,0,1.18
2012-01-13,1.45,1.45,1.45,1.45,0,1.18
2012-01-16,1.45,1.45,1.45,1.45,0,1.18
2012-01-17,1.45,1.45,1.45,1.45,0,1.18
2012-01-18,1.45,1.45,1.45,1.45,0,1.18
2012-01-19,1.45,1.45,1.45,1.45,0,1.18
2012-01-20,1.45,1.45,1.45,1.45,0,1.18
2012-01-23,1.45,1.45,1.45,1.45,0,1.18
2012-01-24,1.45,1.45,1.45,1.45,0,1.18
2012-01-25,1.45,1.45,1.45,1.45,0,1.18
2012-01-26,1.45,1.45,1.45,1.45,0,1.18
2012-01-27,1.45,1.45,1.45,1.45,0,1.18
2012-01-31,1.45,1.45,1.45,1.45,0,1.18
2012-02-01,1.45,1.45,1.45,1.45,0,1.18
2012-02-02,1.45,1.45,1.45,1.45,0,1.18
2012-02-03,1.45,1.45,1.45,1.45,0,1.18
2012-02-06,1.45,1.45,1.45,1.45,0,1.18
2012-02-07,1.45,1.45,1.45,1.45,0,1.18
2012-02-08,1.45,1.45,1.45,1.45,0,1.18
2012-02-09,1.45,1.45,1.45,1.45,0,1.18
2012-02-10,1.45,1.45,1.45,1.45,0,1.18
2012-02-13,1.45,1.45,1.45,1.45,0,1.18
2012-02-14,1.42,1.42,1.42,1.42,500,1.16
2012-02-15,1.42,1.42,1.42,1.42,0,1.16
2012-02-16,1.42,1.42,1.42,1.42,0,1.16
2012-02-17,1.42,1.42,1.42,1.42,0,1.16
2012-02-20,1.42,1.42,1.42,1.42,0,1.16
2012-02-21,1.42,1.42,1.42,1.42,0,1.16
2012-02-22,1.42,1.42,1.42,1.42,0,1.16
2012-02-23,1.42,1.42,1.42,1.42,0,1.16
2012-02-24,1.42,1.42,1.42,1.42,0,1.16
2012-02-27,1.42,1.42,1.42,1.42,0,1.16
2012-02-28,1.42,1.42,1.42,1.42,0,1.16
2012-02-29,1.42,1.42,1.42,1.42,0,1.16
2012-03-01,1.42,1.42,1.42,1.42,0,1.16
2012-03-02,1.42,1.42,1.42,1.42,0,1.16
2012-03-05,1.42,1.42,1.42,1.42,0,1.16
2012-03-06,1.42,1.42,1.42,1.42,0,1.16
2012-03-07,1.42,1.42,1.42,1.42,0,1.16
2012-03-08,1.42,1.42,1.42,1.42,0,1.16
2012-03-09,1.42,1.42,1.42,1.42,0,1.16
2012-03-12,1.42,1.42,1.42,1.42,0,1.16
2012-03-13,1.42,1.42,1.42,1.42,0,1.16
2012-03-14,1.42,1.42,1.42,1.42,0,1.16
2012-03-15,1.42,1.42,1.42,1.42,0,1.16
2012-03-16,1.42,1.42,1.42,1.42,0,1.16
2012-03-19,1.42,1.42,1.42,1.42,0,1.16
2012-03-20,1.42,1.42,1.42,1.42,0,1.16
2012-03-21,1.42,1.42,1.42,1.42,0,1.16
2012-03-22,1.42,1.42,1.42,1.42,0,1.16
2012-03-23,1.42,1.42,1.42,1.42,0,1.16
2012-03-26,1.42,1.42,1.42,1.42,0,1.16
2012-03-27,1.42,1.42,1.42,1.42,0,1.16
2012-03-28,1.42,1.42,1.42,1.42,0,1.16
2012-03-29,1.42,1.42,1.42,1.42,0,1.16
2012-03-30,1.42,1.42,1.42,1.42,0,1.16
2012-04-02,1.42,1.42,1.42,1.42,0,1.16
2012-04-03,1.42,1.42,1.42,1.42,0,1.16
2012-04-04,1.42,1.42,1.42,1.42,0,1.16
2012-04-05,1.42,1.42,1.42,1.42,0,1.16
2012-04-06,1.42,1.42,1.42,1.42,0,1.16
2012-04-09,1.42,1.42,1.42,1.42,0,1.16
2012-04-10,1.42,1.42,1.42,1.42,0,1.16
2012-04-11,1.42,1.42,1.42,1.42,0,1.16
2012-04-12,1.42,1.42,1.42,1.42,0,1.16
2012-04-13,1.42,1.42,1.42,1.42,0,1.16
2012-04-16,1.42,1.42,1.42,1.42,0,1.16
2012-04-17,1.42,1.42,1.42,1.42,0,1.16
2012-04-18,1.42,1.42,1.42,1.42,0,1.16
2012-04-19,1.42,1.42,1.42,1.42,0,1.16
2012-04-20,1.42,1.42,1.42,1.42,0,1.16
2012-04-23,1.42,1.42,1.42,1.42,0,1.16
2012-04-24,1.42,1.42,1.42,1.42,0,1.16
2012-04-25,1.42,1.42,1.42,1.42,0,1.16
2012-04-26,1.42,1.42,1.42,1.42,0,1.16
2012-04-27,1.42,1.42,1.42,1.42,0,1.16
2012-04-30,1.42,1.42,1.42,1.42,0,1.16
2012-05-01,1.42,1.42,1.42,1.42,0,1.16
2012-05-02,1.42,1.42,1.42,1.42,0,1.16
2012-05-03,1.42,1.42,1.42,1.42,0,1.16
2012-05-04,1.42,1.42,1.42,1.42,0,1.16
2012-05-07,1.42,1.42,1.42,1.42,0,1.16
2012-05-08,1.42,1.42,1.42,1.42,0,1.16
2012-05-09,1.42,1.42,1.42,1.42,0,1.16
2012-05-10,1.42,1.42,1.42,1.42,0,1.16
2012-05-11,1.42,1.42,1.42,1.42,0,1.16
2012-05-14,1.42,1.42,1.42,1.42,0,1.16
2012-05-15,1.42,1.42,1.42,1.42,0,1.16
2012-05-16,1.42,1.42,1.42,1.42,0,1.16
2012-05-17,1.42,1.42,1.42,1.42,0,1.16
2012-05-18,1.42,1.42,1.42,1.42,0,1.16
2012-05-21,1.42,1.42,1.42,1.42,0,1.16
2012-05-22,1.42,1.42,1.42,1.42,0,1.16
2012-05-23,1.42,1.42,1.42,1.42,0,1.16
2012-05-24,1.42,1.42,1.42,1.42,0,1.16
2012-05-25,1.42,1.42,1.42,1.42,0,1.16
2012-05-28,1.42,1.42,1.42,1.42,0,1.2
2012-05-29,1.42,1.42,1.42,1.42,0,1.2
2012-05-30,1.42,1.42,1.42,1.42,0,1.2
2012-05-31,1.42,1.42,1.42,1.42,0,1.2
2012-06-01,1.42,1.42,1.42,1.42,0,1.2
2012-06-04,1.42,1.42,1.42,1.42,0,1.2
2012-06-05,1.42,1.42,1.42,1.42,0,1.2
2012-06-06,1.42,1.42,1.42,1.42,0,1.2
2012-06-07,1.42,1.42,1.42,1.42,0,1.2
2012-06-08,1.42,1.42,1.42,1.42,0,1.2
2012-06-11,1.42,1.42,1.42,1.42,0,1.2
2012-06-12,1.42,1.42,1.42,1.42,0,1.2
2012-06-13,1.42,1.42,1.42,1.42,0,1.2
2012-06-14,1.42,1.42,1.42,1.42,0,1.2
2012-06-15,1.42,1.42,1.42,1.42,0,1.2
2012-06-18,1.42,1.42,1.42,1.42,0,1.2
2012-06-19,1.42,1.42,1.42,1.42,0,1.2
2012-06-20,1.42,1.42,1.42,1.42,0,1.2
2012-06-21,1.42,1.42,1.42,1.42,0,1.2
2012-06-22,1.42,1.42,1.42,1.42,0,1.2
2012-06-25,1.42,1.42,1.42,1.42,0,1.2
2012-06-26,1.42,1.42,1.42,1.42,0,1.2
2012-06-27,1.42,1.42,1.42,1.42,0,1.2
2012-06-28,1.42,1.42,1.42,1.42,0,1.2
2012-06-29,1.42,1.42,1.42,1.42,0,1.2
2012-07-02,1.42,1.42,1.42,1.42,0,1.2
2012-07-03,1.42,1.42,1.42,1.42,0,1.2
2012-07-04,1.42,1.42,1.42,1.42,0,1.2
2012-07-05,1.42,1.42,1.42,1.42,0,1.2
2012-07-06,1.42,1.42,1.42,1.42,0,1.2
2012-07-09,1.42,1.42,1.42,1.42,0,1.2
2012-07-10,1.42,1.42,1.42,1.42,0,1.2
2012-07-11,1.42,1.42,1.42,1.42,0,1.2
2012-07-12,1.42,1.42,1.42,1.42,0,1.2
2012-07-13,1.42,1.42,1.42,1.42,0,1.2
2012-07-16,1.42,1.42,1.42,1.42,0,1.2
2012-07-17,1.42,1.42,1.42,1.42,0,1.2
2012-07-18,1.42,1.42,1.42,1.42,0,1.2
2012-07-19,1.42,1.42,1.42,1.42,0,1.2
2012-07-20,1.42,1.42,1.42,1.42,0,1.2
2012-07-23,1.42,1.42,1.42,1.42,0,1.2
2012-07-24,1.42,1.42,1.42,1.42,0,1.2
2012-07-25,1.42,1.42,1.42,1.42,0,1.2
2012-07-26,1.42,1.42,1.42,1.42,0,1.2
2012-07-27,1.42,1.42,1.42,1.42,0,1.2
2012-07-30,1.42,1.42,1.42,1.42,0,1.2
2012-07-31,1.42,1.42,1.42,1.42,0,1.2
2012-08-01,1.42,1.42,1.42,1.42,0,1.2
2012-08-02,1.42,1.42,1.42,1.42,0,1.2
2012-08-03,1.42,1.42,1.42,1.42,0,1.2
2012-08-06,1.42,1.42,1.42,1.42,0,1.2
2012-08-07,1.42,1.42,1.42,1.42,0,1.2
2012-08-08,1.42,1.42,1.42,1.42,0,1.2
2012-08-09,1.42,1.42,1.42,1.42,0,1.2
2012-08-10,1.42,1.42,1.42,1.42,0,1.2
2012-08-13,1.42,1.42,1.42,1.42,0,1.2
2012-08-14,1.42,1.42,1.42,1.42,0,1.2
2012-08-15,1.42,1.42,1.42,1.42,0,1.2
2012-08-16,1.42,1.42,1.42,1.42,0,1.2
2012-08-17,1.42,1.42,1.42,1.42,0,1.2
2012-08-20,1.42,1.42,1.42,1.42,0,1.2
2012-08-21,1.42,1.42,1.42,1.42,0,1.2
2012-08-22,1.42,1.42,1.42,1.42,0,1.2
2012-08-23,1.42,1.42,1.42,1.42,0,1.2
2012-08-24,1.42,1.42,1.42,1.42,0,1.2
2012-08-27,1.42,1.42,1.42,1.42,0,1.2
2012-08-28,1.42,1.42,1.42,1.42,0,1.2
2012-08-29,1.42,1.42,1.42,1.42,0,1.2
2012-08-30,1.42,1.42,1.42,1.42,0,1.2
2012-08-31,1.42,1.42,1.42,1.42,0,1.2
2012-09-03,1.42,1.42,1.42,1.42,0,1.2
2012-09-04,1.42,1.42,1.42,1.42,0,1.2
2012-09-05,1.42,1.42,1.42,1.42,0,1.2
2012-09-06,1.42,1.42,1.42,1.42,0,1.2
2012-09-07,1.42,1.42,1.42,1.42,0,1.2
2012-09-10,1.42,1.42,1.42,1.42,0,1.2
2012-09-11,1.42,1.42,1.42,1.42,0,1.2
2012-09-12,1.42,1.42,1.42,1.42,0,1.2
2012-09-13,1.42,1.42,1.42,1.42,0,1.2
2012-09-14,1.42,1.42,1.42,1.42,0,1.2
2012-09-17,1.42,1.42,1.42,1.42,0,1.2
2012-09-18,1.42,1.42,1.42,1.42,0,1.2
2012-09-19,1.42,1.42,1.42,1.42,0,1.2
2012-09-20,1.42,1.42,1.42,1.42,0,1.2
2012-09-21,1.42,1.42,1.42,1.42,0,1.2
2012-09-24,1.42,1.42,1.42,1.42,0,1.2
2012-09-25,1.42,1.42,1.42,1.42,0,1.2
2012-09-26,1.42,1.42,1.42,1.42,0,1.2
2012-09-27,1.42,1.42,1.42,1.42,0,1.2
2012-09-28,1.42,1.42,1.42,1.42,0,1.2
2012-10-01,1.42,1.42,1.42,1.42,0,1.2
2012-10-02,1.42,1.42,1.42,1.42,0,1.2
2012-10-03,1.42,1.42,1.42,1.42,0,1.2
2012-10-04,1.42,1.42,1.42,1.42,0,1.2
2012-10-05,1.42,1.42,1.42,1.42,0,1.2
2012-10-08,1.42,1.42,1.42,1.42,0,1.2
2012-10-09,1.42,1.42,1.42,1.42,0,1.2
2012-10-10,1.42,1.42,1.42,1.42,0,1.2
2012-10-11,1.42,1.42,1.42,1.42,0,1.2
2012-10-12,1.42,1.42,1.42,1.42,0,1.2
2012-10-15,1.42,1.42,1.42,1.42,0,1.2
2012-10-16,1.42,1.42,1.42,1.42,0,1.2
2012-10-17,1.42,1.42,1.42,1.42,0,1.2
2012-10-18,1.42,1.42,1.42,1.42,0,1.2
2012-10-19,1.42,1.42,1.42,1.42,0,1.2
2012-10-22,1.42,1.42,1.42,1.42,0,1.2
2012-10-23,1.42,1.42,1.42,1.42,0,1.2
2012-10-24,1.42,1.42,1.42,1.42,0,1.2
2012-10-25,1.42,1.42,1.42,1.42,0,1.2
2012-10-26,1.42,1.42,1.42,1.42,0,1.2
2012-10-29,1.42,1.42,1.42,1.42,0,1.2
2012-10-30,1.42,1.42,1.42,1.42,0,1.2
2012-10-31,1.42,1.42,1.42,1.42,0,1.2
2012-11-01,1.42,1.42,1.42,1.42,0,1.2
2012-11-02,1.42,1.42,1.42,1.42,0,1.2
2012-11-05,1.42,1.42,1.42,1.42,0,1.2
2012-11-06,1.42,1.42,1.42,1.42,0,1.2
2012-11-07,1.42,1.42,1.42,1.42,0,1.2
2012-11-08,1.42,1.42,1.42,1.42,0,1.2
2012-11-09,1.42,1.42,1.42,1.42,0,1.2
2012-11-12,1.42,1.42,1.42,1.42,0,1.2
2012-11-13,1.42,1.42,1.42,1.42,0,1.2
2012-11-14,1.42,1.42,1.42,1.42,0,1.2
2012-11-15,1.42,1.42,1.42,1.42,0,1.2
2012-11-16,1.42,1.42,1.42,1.42,0,1.2
2012-11-19,1.42,1.42,1.42,1.42,0,1.2
2012-11-20,1.42,1.42,1.42,1.42,0,1.2
2012-11-21,1.42,1.42,1.42,1.42,0,1.2
2012-11-22,1.42,1.42,1.42,1.42,0,1.2
2012-11-23,1.42,1.42,1.42,1.42,0,1.2
2012-11-26,1.42,1.42,1.42,1.42,0,1.23
2012-11-27,1.42,1.42,1.42,1.42,0,1.23
2012-11-28,1.42,1.42,1.42,1.42,0,1.23
2012-11-29,1.42,1.42,1.42,1.42,0,1.23
2012-11-30,1.42,1.42,1.42,1.42,0,1.23
2012-12-03,1.42,1.42,1.42,1.42,0,1.23
2012-12-04,1.42,1.42,1.42,1.42,0,1.23
2012-12-05,1.42,1.42,1.42,1.42,0,1.23
2012-12-06,1.42,1.42,1.42,1.42,0,1.23
2012-12-07,1.42,1.42,1.42,1.42,0,1.23
2012-12-10,1.42,1.42,1.42,1.42,0,1.23
2012-12-11,1.42,1.42,1.42,1.42,0,1.23
2012-12-12,1.42,1.42,1.42,1.42,0,1.23
2012-12-13,1.42,1.42,1.42,1.42,0,1.23
2012-12-14,1.42,1.42,1.42,1.42,0,1.23
2012-12-17,1.42,1.42,1.42,1.42,0,1.23
2012-12-18,1.42,1.42,1.42,1.42,0,1.23
2012-12-19,1.42,1.42,1.42,1.42,0,1.23
2012-12-20,1.42,1.42,1.42,1.42,0,1.23
2012-12-21,1.42,1.42,1.42,1.42,0,1.23
2012-12-24,1.42,1.42,1.42,1.42,0,1.23
2012-12-25,1.42,1.42,1.42,1.42,0,1.23
2012-12-26,1.42,1.42,1.42,1.42,0,1.23
2012-12-27,1.42,1.42,1.42,1.42,0,1.23
2012-12-28,1.42,1.42,1.42,1.42,0,1.23
2012-12-31,1.42,1.42,1.42,1.42,0,1.23
2013-01-01,1.42,1.42,1.42,1.42,0,1.23
2013-01-02,1.42,1.42,1.42,1.42,0,1.23
2013-01-03,1.42,1.42,1.42,1.42,0,1.23
2013-01-04,1.42,1.42,1.42,1.42,0,1.23
2013-01-07,1.42,1.42,1.42,1.42,0,1.23
2013-01-08,1.42,1.42,1.42,1.42,0,1.23
2013-01-09,1.42,1.42,1.42,1.42,0,1.23
2013-01-10,1.42,1.42,1.42,1.42,0,1.23
2013-01-11,1.42,1.42,1.42,1.42,0,1.23
2013-01-14,1.42,1.42,1.42,1.42,0,1.23
2013-01-15,1.42,1.42,1.42,1.42,0,1.23
2013-01-16,1.42,1.42,1.42,1.42,0,1.23
2013-01-17,1.42,1.42,1.42,1.42,0,1.23
2013-01-18,1.42,1.42,1.42,1.42,0,1.23
2013-01-21,1.42,1.42,1.42,1.42,0,1.23
2013-01-22,1.42,1.42,1.42,1.42,0,1.23
2013-01-24,1.42,1.42,1.42,1.42,0,1.23
2013-01-25,1.42,1.42,1.42,1.42,0,1.23
2013-01-28,1.42,1.42,1.42,1.42,0,1.23
2013-01-29,1.42,1.42,1.42,1.42,0,1.23
2013-01-30,1.42,1.42,1.42,1.42,0,1.23
2013-01-31,1.42,1.42,1.42,1.42,0,1.23
2013-02-01,1.42,1.42,1.42,1.42,0,1.23
2013-02-04,1.42,1.42,1.42,1.42,0,1.23
2013-02-05,1.42,1.42,1.42,1.42,0,1.23
2013-02-06,1.42,1.42,1.42,1.42,0,1.23
2013-02-07,1.42,1.42,1.42,1.42,0,1.23
2013-02-08,1.42,1.42,1.42,1.42,0,1.23
2013-02-11,1.42,1.42,1.42,1.42,0,1.23
2013-02-12,1.42,1.42,1.42,1.42,0,1.23
2013-02-13,1.42,1.42,1.42,1.42,0,1.23
2013-02-14,1.42,1.42,1.42,1.42,0,1.23
2013-02-15,1.42,1.42,1.42,1.42,0,1.23
2013-02-18,1.42,1.42,1.42,1.42,0,1.23
2013-02-19,1.42,1.42,1.42,1.42,0,1.23
2013-02-20,1.42,1.42,1.42,1.42,0,1.23
2013-02-21,1.42,1.42,1.42,1.42,0,1.23
2013-02-22,1.42,1.42,1.42,1.42,0,1.23
2013-02-25,1.42,1.42,1.42,1.42,0,1.23
2013-02-26,1.42,1.42,1.42,1.42,0,1.23
2013-02-27,1.42,1.42,1.42,1.42,0,1.23
2013-02-28,1.42,1.42,1.42,1.42,0,1.23
2013-03-01,1.42,1.42,1.42,1.42,0,1.23
2013-03-04,1.42,1.42,1.42,1.42,0,1.23
2013-03-05,1.42,1.42,1.42,1.42,0,1.23
2013-03-06,1.42,1.42,1.42,1.42,0,1.23
2013-03-07,1.42,1.42,1.42,1.42,0,1.23
2013-03-08,1.42,1.42,1.42,1.42,0,1.23
2013-03-11,1.42,1.42,1.42,1.42,0,1.23
2013-03-12,1.42,1.42,1.42,1.42,0,1.23
2013-03-13,1.42,1.42,1.42,1.42,0,1.23
2013-03-14,1.42,1.42,1.42,1.42,0,1.23
2013-03-15,1.42,1.42,1.42,1.42,0,1.23
2013-03-18,1.42,1.42,1.42,1.42,0,1.23
2013-03-19,1.42,1.42,1.42,1.42,0,1.23
2013-03-20,1.42,1.42,1.42,1.42,0,1.23
2013-03-21,1.42,1.42,1.42,1.42,0,1.23
2013-03-22,1.42,1.42,1.42,1.42,0,1.23
2013-03-25,1.42,1.42,1.42,1.42,0,1.23
2013-03-26,1.42,1.42,1.42,1.42,0,1.23
2013-03-27,1.42,1.42,1.42,1.42,0,1.23
2013-03-28,1.42,1.42,1.42,1.42,0,1.23
2013-03-29,1.42,1.42,1.42,1.42,0,1.23
2013-04-01,1.42,1.42,1.42,1.42,0,1.23
2013-04-02,1.42,1.42,1.42,1.42,0,1.23
2013-04-03,1.42,1.42,1.42,1.42,0,1.23
2013-04-04,1.42,1.42,1.42,1.42,0,1.23
2013-04-05,1.42,1.42,1.42,1.42,0,1.23
2013-04-08,1.42,1.42,1.42,1.42,0,1.23
2013-04-09,1.9,1.9,1.9,1.9,24000,1.64
2013-04-10,1.9,1.9,1.9,1.9,0,1.64
2013-04-11,1.9,1.9,1.9,1.9,0,1.64
2013-04-12,1.9,1.9,1.9,1.9,0,1.64
2013-04-15,1.9,1.9,1.9,1.9,0,1.64
2013-04-16,1.9,1.9,1.9,1.9,0,1.64
2013-04-17,1.9,1.9,1.9,1.9,0,1.64
2013-04-18,1.9,1.9,1.9,1.9,0,1.64
2013-04-19,1.9,1.9,1.9,1.9,0,1.64
2013-04-22,1.9,1.9,1.9,1.9,0,1.64
2013-04-23,1.9,1.9,1.9,1.9,200,1.64
2013-04-24,1.9,1.9,1.9,1.9,0,1.64
2013-04-25,1.9,1.9,1.9,1.9,0,1.64
2013-04-26,1.9,1.9,1.9,1.9,0,1.64
2013-04-29,1.9,1.9,1.9,1.9,0,1.64
2013-04-30,1.9,1.9,1.9,1.9,0,1.64
2013-05-01,1.9,1.9,1.9,1.9,0,1.64
2013-05-02,1.9,1.9,1.9,1.9,0,1.64
2013-05-03,1.9,1.9,1.9,1.9,0,1.64
2013-05-06,1.9,1.9,1.9,1.9,0,1.64
2013-05-07,1.9,1.9,1.9,1.9,0,1.64
2013-05-08,1.9,1.9,1.9,1.9,0,1.64
2013-05-09,1.9,1.9,1.9,1.9,0,1.64
2013-05-10,1.9,1.9,1.9,1.9,0,1.64
2013-05-13,1.9,1.9,1.9,1.9,0,1.64
2013-05-14,2.15,2.15,2.15,2.15,500,1.86
2013-05-15,2.15,2.15,2.15,2.15,0,1.86
2013-05-16,2.15,2.15,2.15,2.15,0,1.86
2013-05-17,2.15,2.15,2.15,2.15,0,1.86
2013-05-20,2.15,2.15,2.15,2.15,0,1.86
2013-05-21,2.15,2.15,2.14,2.14,1900,1.85
2013-05-22,2.14,2.14,2.14,2.14,0,1.85
2013-05-23,2.15,2.15,2.15,2.15,0,1.86
2013-05-24,2.15,2.15,2.15,2.15,4400,1.86
2013-05-27,2.15,2.15,2.15,2.15,0,1.91
2013-05-28,2.15,2.15,2.15,2.15,0,1.91
2013-05-29,2.15,2.15,2.15,2.15,0,1.91
2013-05-30,2.15,2.15,2.15,2.15,0,1.91
2013-05-31,2.15,2.15,2.15,2.15,0,1.91
2013-06-03,2.03,2.03,2.03,2.03,6200,1.81
2013-06-04,2.03,2.03,2.03,2.03,0,1.81
2013-06-05,2.03,2.03,2.03,2.03,0,1.81
2013-06-06,2.03,2.03,2.03,2.03,0,1.81
2013-06-07,2.03,2.03,2.03,2.03,0,1.81
2013-06-10,2.03,2.03,2.03,2.03,0,1.81
2013-06-11,2.03,2.03,2.03,2.03,0,1.81
2013-06-12,2.03,2.03,2.03,2.03,0,1.81
2013-06-13,2.03,2.03,2.03,2.03,0,1.81
2013-06-14,2.03,2.03,2.03,2.03,0,1.81
2013-06-17,2.03,2.03,2.03,2.03,0,1.81
2013-06-18,2.03,2.03,2.03,2.03,0,1.81
2013-06-19,2.03,2.03,2.03,2.03,0,1.81
2013-06-20,2.03,2.03,2.03,2.03,0,1.81
2013-06-21,2.03,2.03,2.03,2.03,0,1.81
2013-06-24,2.03,2.03,2.03,2.03,0,1.81
2013-06-25,2.03,2.03,2.03,2.03,0,1.81
2013-06-26,2.03,2.03,2.03,2.03,0,1.81
2013-06-27,2.03,2.03,2.03,2.03,0,1.81
2013-06-28,2.03,2.03,2.03,2.03,0,1.81
2013-07-01,2.03,2.03,2.03,2.03,0,1.81
2013-07-02,2.03,2.03,2.03,2.03,0,1.81
2013-07-03,2.03,2.03,2.03,2.03,0,1.81
2013-07-04,2.03,2.03,2.03,2.03,0,1.81
2013-07-05,2.03,2.03,2.03,2.03,0,1.81
2013-07-08,2.03,2.03,2.03,2.03,0,1.81
2013-07-09,2.03,2.03,2.03,2.03,0,1.81
2013-07-10,2.03,2.03,2.03,2.03,0,1.81
2013-07-11,2.03,2.03,2.03,2.03,0,1.81
2013-07-12,2.03,2.03,2.03,2.03,0,1.81
2013-07-15,2.03,2.03,2.03,2.03,0,1.81
2013-07-16,2.03,2.03,2.03,2.03,0,1.81
2013-07-17,2.03,2.03,2.03,2.03,0,1.81
2013-07-18,2.03,2.03,2.03,2.03,0,1.81
2013-07-19,2.03,2.03,2.03,2.03,0,1.81
2013-07-22,2.03,2.03,2.03,2.03,0,1.81
2013-07-23,2.03,2.03,2.03,2.03,0,1.81
2013-07-24,2.03,2.03,2.03,2.03,0,1.81
2013-07-25,2.03,2.03,2.03,2.03,0,1.81
2013-07-26,2.03,2.03,2.03,2.03,0,1.81
2013-07-29,2.03,2.03,2.03,2.03,0,1.81
2013-07-30,2.03,2.03,2.03,2.03,0,1.81
2013-07-31,2.03,2.03,2.03,2.03,0,1.81
2013-08-01,2.03,2.03,2.03,2.03,0,1.81
2013-08-02,2.03,2.03,2.03,2.03,0,1.81
2013-08-05,2.03,2.03,2.03,2.03,0,1.81
2013-08-06,2.03,2.03,2.03,2.03,0,1.81
2013-08-07,2.03,2.03,2.03,2.03,0,1.81
2013-08-08,2.03,2.03,2.03,2.03,0,1.81
2013-08-09,2.03,2.03,2.03,2.03,0,1.81
2013-08-12,2.03,2.03,2.03,2.03,0,1.81
2013-08-13,2.03,2.03,2.03,2.03,0,1.81
2013-08-14,2.03,2.03,2.03,2.03,0,1.81
2013-08-15,2.03,2.03,2.03,2.03,0,1.81
2013-08-16,2.03,2.03,2.03,2.03,0,1.81
2013-08-19,2.03,2.03,2.03,2.03,0,1.81
2013-08-20,2.03,2.03,2.03,2.03,0,1.81
2013-08-21,2.03,2.03,2.03,2.03,0,1.81
2013-08-22,2.03,2.03,2.03,2.03,0,1.81
2013-08-23,2.03,2.03,2.03,2.03,0,1.81
2013-08-26,2.03,2.03,2.03,2.03,0,1.81
2013-08-27,2.03,2.03,2.03,2.03,0,1.81
2013-08-28,2.03,2.03,2.03,2.03,0,1.81
2013-08-29,2.03,2.03,2.03,2.03,0,1.81
2013-08-30,2.03,2.03,2.03,2.03,0,1.81
2013-09-02,2.03,2.03,2.03,2.03,0,1.81
2013-09-03,2.03,2.03,2.03,2.03,0,1.81
2013-09-04,2.03,2.03,2.03,2.03,0,1.81
2013-09-05,2.03,2.03,2.03,2.03,0,1.81
2013-09-06,2.03,2.03,2.03,2.03,0,1.81
2013-09-09,2.03,2.03,2.03,2.03,0,1.81
2013-09-10,2.03,2.03,2.03,2.03,0,1.81
2013-09-11,2.03,2.03,2.03,2.03,0,1.81
2013-09-12,2.03,2.03,2.03,2.03,0,1.81
2013-09-13,2.03,2.03,2.03,2.03,0,1.81
2013-09-16,2.03,2.03,2.03,2.03,0,1.81
2013-09-17,2.03,2.03,2.03,2.03,0,1.81
2013-09-18,2.03,2.03,2.03,2.03,0,1.81
2013-09-19,2.03,2.03,2.03,2.03,0,1.81
2013-09-20,2.1,2.1,2.1,2.1,6300,1.87
2013-09-23,2.1,2.1,2.1,2.1,0,1.87
2013-09-24,2.1,2.1,2.1,2.1,0,1.87
2013-09-25,2.1,2.1,2.1,2.1,0,1.87
2013-09-26,2.1,2.1,2.1,2.1,0,1.87
2013-09-27,2.1,2.1,2.1,2.1,0,1.87
2013-09-30,2.1,2.1,2.1,2.1,0,1.87
2013-10-01,2.1,2.1,2.1,2.1,0,1.87
2013-10-02,2.1,2.1,2.1,2.1,0,1.87
2013-10-03,2.1,2.1,2.1,2.1,0,1.87
2013-10-04,2.1,2.1,2.1,2.1,0,1.87
2013-10-07,2.1,2.1,2.1,2.1,0,1.87
2013-10-08,2.1,2.1,2.1,2.1,0,1.87
2013-10-09,2.1,2.1,2.1,2.1,0,1.87
2013-10-10,2.1,2.1,2.1,2.1,0,1.87
2013-10-11,2.1,2.1,2.1,2.1,0,1.87
2013-10-14,2.1,2.1,2.1,2.1,0,1.87
2013-10-15,2.1,2.1,2.1,2.1,0,1.87
2013-10-16,2.1,2.1,2.1,2.1,0,1.87
2013-10-17,2.1,2.1,2.1,2.1,0,1.87
2013-10-18,2.1,2.1,2.1,2.1,0,1.87
2013-10-21,2.1,2.1,2.1,2.1,0,1.87
2013-10-22,2.1,2.1,2.1,2.1,0,1.87
2013-10-23,2.1,2.1,2.1,2.1,0,1.87
2013-10-24,2.1,2.1,2.1,2.1,0,1.87
2013-10-25,2.1,2.1,2.1,2.1,0,1.87
2013-10-28,2.1,2.1,2.1,2.1,0,1.87
2013-10-29,2.1,2.1,2.1,2.1,0,1.87
2013-10-30,2.1,2.1,2.1,2.1,0,1.87
2013-10-31,2.1,2.1,2.1,2.1,0,1.87
2013-11-01,2.1,2.1,2.1,2.1,0,1.87
2013-11-04,2.1,2.1,2.1,2.1,0,1.87
2013-11-05,2.1,2.1,2.1,2.1,0,1.87
2013-11-06,2.1,2.1,2.1,2.1,0,1.87
2013-11-07,2.1,2.1,2.1,2.1,0,1.87
2013-11-08,2.1,2.1,2.1,2.1,0,1.87
2013-11-11,2.1,2.1,2.1,2.1,0,1.87
2013-11-12,2.1,2.1,2.1,2.1,0,1.87
2013-11-13,2.1,2.1,2.1,2.1,0,1.87
2013-11-14,2.1,2.1,2.1,2.1,0,1.87
2013-11-15,2.1,2.1,2.1,2.1,0,1.87
2013-11-18,2.1,2.1,2.1,2.1,0,1.87
2013-11-19,2.1,2.1,2.1,2.1,0,1.87
2013-11-20,2.1,2.1,2.1,2.1,0,1.87
2013-11-21,2.1,2.1,2.1,2.1,0,1.87
2013-11-22,2.1,2.1,2.1,2.1,0,1.87
2013-11-25,2.1,2.1,2.1,2.1,0,1.87
2013-11-26,2.1,2.1,2.1,2.1,0,1.87
2013-11-27,2.1,2.1,2.1,2.1,0,1.87
2013-11-28,2.1,2.1,2.1,2.1,0,1.87
2013-11-29,2.1,2.1,2.1,2.1,0,1.87
2013-12-02,2.1,2.1,2.1,2.1,0,1.87
2013-12-03,2.1,2.1,2.1,2.1,0,1.87
2013-12-04,2.1,2.1,2.1,2.1,0,1.87
2013-12-05,2.1,2.1,2.1,2.1,0,1.87
2013-12-06,2.1,2.1,2.1,2.1,0,1.87
2013-12-09,2.1,2.1,2.1,2.1,0,1.87
2013-12-10,2.1,2.1,2.1,2.1,0,1.87
2013-12-11,2.1,2.1,2.1,2.1,0,1.87
2013-12-12,2.1,2.1,2.1,2.1,0,1.87
2013-12-13,2.1,2.1,2.1,2.1,0,1.87
2013-12-16,2.1,2.1,2.1,2.1,0,1.87
2013-12-17,2.1,2.1,2.1,2.1,0,1.87
2013-12-18,2.1,2.1,2.1,2.1,0,1.87
2013-12-19,2.1,2.1,2.1,2.1,0,1.87
2013-12-20,2.1,2.1,2.1,2.1,0,1.87
2013-12-23,2.1,2.1,2.1,2.1,0,1.87
2013-12-24,2.1,2.1,2.1,2.1,0,1.87
2013-12-25,2.1,2.1,2.1,2.1,0,1.87
2013-12-26,2.1,2.1,2.1,2.1,0,1.87
2013-12-27,2.1,2.1,2.1,2.1,0,1.87
2013-12-30,2.1,2.1,2.1,2.1,0,1.87
2013-12-31,2.1,2.1,2.1,2.1,0,1.87
2014-01-01,2.1,2.1,2.1,2.1,0,1.87
2014-01-02,2.1,2.1,2.1,2.1,0,1.87
2014-01-03,2.1,2.1,2.1,2.1,0,1.87
2014-01-06,2.1,2.1,2.1,2.1,0,1.87
2014-01-07,2.1,2.1,2.1,2.1,0,1.87
2014-01-08,2.1,2.1,2.1,2.1,0,1.87
2014-01-09,2.1,2.1,2.1,2.1,0,1.87
2014-01-10,2.1,2.1,2.1,2.1,0,1.87
2014-01-13,2.13,2.13,2.13,2.13,2000,1.9
2014-01-14,2.13,2.13,2.13,2.13,0,1.9
2014-01-15,2.13,2.13,2.13,2.13,0,1.9
2014-01-16,2.13,2.13,2.13,2.13,0,1.9
2014-01-17,2.13,2.13,2.13,2.13,0,1.9
2014-01-20,2.13,2.13,2.13,2.13,0,1.9
2014-01-21,2.13,2.13,2.13,2.13,0,1.9
2014-01-22,2.13,2.13,2.13,2.13,0,1.9
2014-01-23,2.13,2.13,2.13,2.13,0,1.9
2014-01-24,2.13,2.13,2.13,2.13,0,1.9
2014-01-27,2.13,2.13,2.13,2.13,0,1.9
2014-01-28,2.13,2.13,2.13,2.13,0,1.9
2014-01-29,2.13,2.13,2.13,2.13,0,1.9
2014-01-30,2.13,2.13,2.13,2.13,0,1.9
2014-01-31,2.05,2.05,2.05,2.05,6000,1.83
2014-02-03,2.05,2.05,2.05,2.05,0,1.83
2014-02-04,2.05,2.05,2.05,2.05,0,1.83
2014-02-05,2.05,2.05,2.05,2.05,0,1.83
2014-02-06,2.05,2.05,2.05,2.05,0,1.83
2014-02-07,2.05,2.05,2.05,2.05,0,1.83
2014-02-10,2.05,2.05,2.05,2.05,0,1.83
2014-02-11,2.05,2.05,2.05,2.05,0,1.83
2014-02-12,2.05,2.05,2.05,2.05,0,1.83
2014-02-13,2.05,2.05,2.05,2.05,0,1.83
2014-02-14,2.05,2.05,2.05,2.05,0,1.83
2014-02-17,2.05,2.05,2.05,2.05,0,1.83
2014-02-18,2.05,2.05,2.05,2.05,0,1.83
2014-02-19,2.05,2.05,2.05,2.05,0,1.83
2014-02-20,2.05,2.05,2.05,2.05,0,1.83
2014-02-21,2.05,2.05,2.05,2.05,0,1.83
2014-02-24,2.05,2.05,2.05,2.05,0,1.83
2014-02-25,2.05,2.05,2.05,2.05,3000,1.83
2014-02-26,2.05,2.05,2.05,2.05,0,1.83
2014-02-27,2.05,2.05,2.05,2.05,0,1.83
2014-02-28,2.05,2.05,2.05,2.05,0,1.83
2014-03-03,2.05,2.05,2.05,2.05,0,1.83
2014-03-04,2.05,2.05,2.05,2.05,0,1.83
2014-03-05,2.05,2.05,2.05,2.05,0,1.83
2014-03-06,2.05,2.05,2.05,2.05,0,1.83
2014-03-07,2.05,2.05,2.05,2.05,0,1.83
2014-03-10,2.05,2.05,2.05,2.05,0,1.83
2014-03-11,2.05,2.05,2.05,2.05,0,1.83
2014-03-12,2.05,2.05,2.05,2.05,0,1.83
2014-03-13,2.05,2.05,2.05,2.05,0,1.83
2014-03-14,2.05,2.05,2.05,2.05,0,1.83
2014-03-17,2.05,2.05,2.05,2.05,0,1.83
2014-03-18,2.05,2.05,2.05,2.05,0,1.83
2014-03-19,2.05,2.05,2.05,2.05,0,1.83
2014-03-20,2.05,2.05,2.05,2.05,0,1.83
2014-03-21,2.05,2.05,2.05,2.05,0,1.83
2014-03-24,2.05,2.05,2.05,2.05,0,1.83
2014-03-25,2.05,2.05,2.05,2.05,0,1.83
2014-03-26,2.05,2.05,2.05,2.05,0,1.83
2014-03-27,2.05,2.05,2.05,2.05,0,1.83
2014-03-28,2.05,2.05,2.05,2.05,0,1.83
2014-03-31,2.05,2.05,2.05,2.05,0,1.83
2014-04-01,2.05,2.05,2.05,2.05,0,1.83
2014-04-02,2.05,2.05,2.05,2.05,0,1.83
2014-04-03,2.05,2.05,2.05,2.05,0,1.83
2014-04-04,2.05,2.05,2.05,2.05,0,1.83
2014-04-07,2.05,2.05,2.05,2.05,0,1.83
2014-04-08,2.05,2.05,2.05,2.05,0,1.83
2014-04-09,2.05,2.05,2.05,2.05,0,1.83
2014-04-10,2.05,2.05,2.05,2.05,0,1.83
2014-04-11,2.05,2.05,2.05,2.05,0,1.83
2014-04-14,2.05,2.05,2.05,2.05,0,1.83
2014-04-15,2.05,2.05,2.05,2.05,0,1.83
2014-04-16,2.05,2.05,2.05,2.05,0,1.83
2014-04-17,2.05,2.05,2.05,2.05,0,1.83
2014-04-18,2.05,2.05,2.05,2.05,0,1.83
2014-04-21,2.05,2.05,2.05,2.05,0,1.83
2014-04-22,2.05,2.05,2.05,2.05,0,1.83
2014-04-23,2.05,2.05,2.05,2.05,0,1.83
2014-04-24,2.05,2.05,2.05,2.05,0,1.83
2014-04-25,2.05,2.05,2.05,2.05,0,1.83
2014-04-28,2.05,2.05,2.05,2.05,0,1.83
2014-04-29,2.05,2.05,2.05,2.05,0,1.83
2014-04-30,2.05,2.05,2.05,2.05,0,1.83
2014-05-01,2.05,2.05,2.05,2.05,0,1.83
2014-05-02,2.05,2.05,2.05,2.05,0,1.83
2014-05-05,2.05,2.05,2.05,2.05,0,1.83
2014-05-06,2.05,2.05,2.05,2.05,0,1.83
2014-05-07,2.05,2.05,2.05,2.05,0,1.83
2014-05-08,2.05,2.05,2.05,2.05,0,1.83
2014-05-09,2.05,2.05,2.05,2.05,0,1.83
2014-05-12,2.05,2.05,2.05,2.05,0,1.83
2014-05-13,2.05,2.05,2.05,2.05,0,1.83
2014-05-14,2.05,2.05,2.05,2.05,0,1.83
2014-05-15,2.05,2.05,2.05,2.05,0,1.83
2014-05-16,2.05,2.05,2.05,2.05,0,1.83
2014-05-19,2.05,2.05,2.05,2.05,0,1.83
2014-05-20,2.05,2.05,2.05,2.05,0,1.83
2014-05-21,2.05,2.05,2.05,2.05,0,1.83
2014-05-22,2.05,2.05,2.05,2.05,0,1.83
2014-05-23,2.05,2.05,2.05,2.05,0,1.83
2014-05-26,2.05,2.05,2.05,2.05,0,1.83
2014-05-27,2.05,2.05,2.05,2.05,0,1.84
2014-05-28,2.05,2.05,2.05,2.05,0,1.84
2014-05-29,2.05,2.05,2.05,2.05,0,1.84
2014-05-30,2.05,2.05,2.05,2.05,0,1.84
2014-06-02,2.05,2.05,2.05,2.05,0,1.84
2014-06-03,2.05,2.05,2.05,2.05,0,1.84
2014-06-04,2.05,2.05,2.05,2.05,0,1.84
2014-06-05,2.1,2.1,2.1,2.1,200,1.89
2014-06-06,2.1,2.1,2.1,2.1,0,1.89
2014-06-09,2.1,2.1,2.1,2.1,0,1.89
2014-06-11,2.1,2.1,2.1,2.1,0,1.89
2014-06-12,2.1,2.1,2.1,2.1,0,1.89
2014-06-13,2.1,2.1,2.1,2.1,0,1.89
2014-06-16,2.1,2.1,2.1,2.1,0,1.89
2014-06-17,2.1,2.1,2.1,2.1,0,1.89
2014-06-18,2.1,2.1,2.1,2.1,0,1.89
2014-06-19,2.1,2.1,2.1,2.1,0,1.89
2014-06-20,2.1,2.1,2.1,2.1,0,1.89
2014-06-23,2.1,2.1,2.1,2.1,0,1.89
2014-06-24,2.1,2.1,2.1,2.1,0,1.89
2014-06-25,2.1,2.1,2.1,2.1,0,1.89
2014-06-26,2.1,2.1,2.1,2.1,0,1.89
2014-06-27,2.1,2.1,2.1,2.1,0,1.89
2014-06-30,2.1,2.1,2.1,2.1,0,1.89
2014-07-01,2.1,2.1,2.1,2.1,0,1.89
2014-07-02,2.1,2.1,2.1,2.1,0,1.89
2014-07-03,2.1,2.1,2.1,2.1,0,1.89
2014-07-04,2.1,2.1,2.1,2.1,0,1.89
2014-07-07,2.1,2.1,2.1,2.1,0,1.89
2014-07-08,2.1,2.1,2.1,2.1,0,1.89
2014-07-09,2.1,2.1,2.1,2.1,0,1.89
2014-07-10,2.1,2.1,2.1,2.1,0,1.89
2014-07-11,2.1,2.1,2.1,2.1,0,1.89
2014-07-14,2.1,2.1,2.1,2.1,0,1.89
2014-07-15,2.1,2.1,2.1,2.1,0,1.89
2014-07-16,2.1,2.1,2.1,2.1,0,1.89
2014-07-17,2.1,2.1,2.1,2.1,0,1.89
2014-07-18,2.1,2.1,2.1,2.1,0,1.89
2014-07-21,2.1,2.1,2.1,2.1,0,1.89
2014-07-22,2.1,2.1,2.1,2.1,0,1.89
2014-07-23,2.1,2.1,2.1,2.1,0,1.89
2014-07-24,2.1,2.1,2.1,2.1,0,1.89
2014-07-25,2.1,2.1,2.1,2.1,0,1.89
2014-07-28,2.1,2.1,2.1,2.1,0,1.89
2014-07-29,2.1,2.1,2.1,2.1,0,1.89
2014-07-30,2.1,2.1,2.1,2.1,0,1.89
2014-07-31,2.1,2.1,2.1,2.1,0,1.89
2014-08-01,2.1,2.1,2.1,2.1,0,1.89
2014-08-04,2.1,2.1,2.1,2.1,0,1.89
2014-08-05,2.1,2.1,2.1,2.1,0,1.89
2014-08-06,2.1,2.1,2.1,2.1,0,1.89
2014-08-07,2.1,2.1,2.1,2.1,0,1.89
2014-08-08,2.1,2.1,2.1,2.1,0,1.89
2014-08-11,2.1,2.1,2.1,2.1,0,1.89
2014-08-12,2.1,2.1,2.1,2.1,0,1.89
2014-08-13,2.1,2.1,2.1,2.1,0,1.89
2014-08-14,2.1,2.1,2.1,2.1,0,1.89
2014-08-15,2.1,2.1,2.1,2.1,0,1.89
2014-08-18,2.1,2.1,2.1,2.1,0,1.89
2014-08-19,2.1,2.1,2.1,2.1,0,1.89
2014-08-20,2.1,2.1,2.1,2.1,0,1.89
2014-08-21,2.1,2.1,2.1,2.1,0,1.89
2014-08-22,2.1,2.1,2.1,2.1,0,1.89
2014-08-25,2.1,2.1,2.1,2.1,0,1.89
2014-08-26,2.1,2.1,2.1,2.1,0,1.89
2014-08-27,2.1,2.1,2.1,2.1,0,1.89
2014-08-28,2.1,2.1,2.1,2.1,0,1.89
2014-08-29,2.17,2.17,2.16,2.16,11100,1.94
2014-09-01,2.16,2.16,2.16,2.16,0,1.94
2014-09-02,2.16,2.16,2.16,2.16,0,1.94
2014-09-03,2.16,2.16,2.16,2.16,0,1.94
2014-09-04,2.16,2.16,2.16,2.16,1900,1.94
2014-09-05,2.16,2.16,2.16,2.16,0,1.94
2014-09-08,2.16,2.16,2.16,2.16,0,1.94
2014-09-09,2.16,2.16,2.16,2.16,0,1.94
2014-09-10,2.16,2.16,2.16,2.16,0,1.94
2014-09-11,2.16,2.16,2.16,2.16,0,1.94
2014-09-12,2.16,2.16,2.16,2.16,0,1.94
2014-09-15,2.16,2.16,2.16,2.16,0,1.94
2014-09-16,2.16,2.16,2.16,2.16,0,1.94
2014-09-17,2.16,2.16,2.16,2.16,0,1.94
2014-09-18,2.3,2.3,2.3,2.3,2000,2.07
2014-09-19,2.3,2.3,2.3,2.3,0,2.07
2014-09-22,2.3,2.3,2.3,2.3,0,2.07
2014-09-23,2.3,2.3,2.3,2.3,0,2.07
2014-09-24,2.3,2.3,2.3,2.3,0,2.07
2014-09-25,2.3,2.3,2.3,2.3,0,2.07
2014-09-26,2.3,2.3,2.3,2.3,0,2.07
2014-09-29,2.3,2.3,2.3,2.3,0,2.07
2014-09-30,2.3,2.3,2.3,2.3,0,2.07
2014-10-01,2.3,2.3,2.3,2.3,0,2.07
2014-10-02,2.3,2.3,2.3,2.3,0,2.07
2014-10-03,2.3,2.3,2.3,2.3,0,2.07
2014-10-06,2.3,2.3,2.3,2.3,0,2.07
2014-10-07,2.3,2.3,2.3,2.3,0,2.07
2014-10-08,2.3,2.3,2.3,2.3,0,2.07
2014-10-09,2.3,2.3,2.3,2.3,0,2.07
2014-10-10,2.3,2.3,2.3,2.3,0,2.07
2014-10-13,2.3,2.3,2.3,2.3,0,2.07
2014-10-14,2.3,2.3,2.3,2.3,0,2.07
2014-10-15,2.3,2.3,2.3,2.3,0,2.07
2014-10-16,2.3,2.3,2.3,2.3,0,2.07
2014-10-17,2.3,2.3,2.3,2.3,0,2.07
2014-10-20,2.3,2.3,2.3,2.3,0,2.07
2014-10-21,2.3,2.3,2.3,2.3,0,2.07
2014-10-22,2.3,2.3,2.3,2.3,0,2.07
2014-10-23,2.3,2.3,2.3,2.3,0,2.07
2014-10-24,2.3,2.3,2.3,2.3,0,2.07
2014-10-27,2.3,2.3,2.3,2.3,0,2.07
2014-10-28,2.3,2.3,2.3,2.3,0,2.07
2014-10-29,2.3,2.3,2.3,2.3,0,2.07
2014-10-30,2.3,2.3,2.3,2.3,0,2.07
2014-10-31,2.3,2.3,2.3,2.3,0,2.07
2014-11-03,2.3,2.3,2.3,2.3,0,2.07
2014-11-04,2.3,2.3,2.3,2.3,0,2.07
2014-11-05,2.3,2.3,2.3,2.3,0,2.07
2014-11-06,2.3,2.3,2.3,2.3,0,2.07
2014-11-07,2.3,2.3,2.3,2.3,0,2.07
2014-11-10,2.3,2.3,2.3,2.3,0,2.07
2014-11-11,2.35,2.35,2.35,2.35,200,2.11
2014-11-12,2.35,2.35,2.35,2.35,0,2.11
2014-11-13,2.35,2.35,2.35,2.35,0,2.11
2014-11-14,2.35,2.35,2.35,2.35,0,2.11
2014-11-17,2.35,2.35,2.35,2.35,0,2.11
2014-11-18,2.35,2.35,2.35,2.35,0,2.11
2014-11-19,2.35,2.35,2.35,2.35,0,2.11
2014-11-20,2.35,2.35,2.35,2.35,0,2.11
2014-11-21,2.35,2.35,2.35,2.35,0,2.11
2014-11-24,2.35,2.35,2.35,2.35,0,2.11
2014-11-25,2.35,2.35,2.35,2.35,0,2.11
2014-11-26,2.35,2.35,2.35,2.35,0,2.15
2014-11-27,2.35,2.35,2.35,2.35,0,2.15
2014-11-28,2.35,2.35,2.35,2.35,0,2.15
2014-12-01,2.35,2.35,2.35,2.35,0,2.15
2014-12-02,2.35,2.35,2.35,2.35,0,2.15
2014-12-03,2.35,2.35,2.35,2.35,0,2.15
2014-12-04,2.35,2.35,2.35,2.35,0,2.15
2014-12-05,2.35,2.35,2.35,2.35,0,2.15
2014-12-08,2.35,2.35,2.35,2.35,0,2.15
2014-12-09,2.35,2.35,2.35,2.35,0,2.15
2014-12-10,2.35,2.35,2.35,2.35,0,2.15
2014-12-11,2.35,2.35,2.35,2.35,0,2.15
2014-12-12,2.35,2.35,2.35,2.35,0,2.15
2014-12-15,2.35,2.35,2.35,2.35,0,2.15
2014-12-16,2.35,2.35,2.35,2.35,0,2.15
2014-12-17,2.35,2.35,2.35,2.35,0,2.15
2014-12-18,2.35,2.35,2.35,2.35,0,2.15
2014-12-19,2.35,2.35,2.35,2.35,0,2.15
2014-12-22,2.35,2.35,2.35,2.35,0,2.15
2014-12-23,2.35,2.35,2.35,2.35,0,2.15
2014-12-24,2.35,2.35,2.35,2.35,0,2.15
2014-12-25,2.35,2.35,2.35,2.35,0,2.15
2014-12-26,2.35,2.35,2.35,2.35,0,2.15
2014-12-29,2.35,2.35,2.35,2.35,0,2.15
2014-12-30,2.35,2.35,2.35,2.35,0,2.15
2014-12-31,2.35,2.35,2.35,2.35,0,2.15
2015-01-01,2.35,2.35,2.35,2.35,0,2.15
2015-01-02,2.35,2.35,2.35,2.35,0,2.15
2015-01-05,2.35,2.35,2.35,2.35,0,2.15
2015-01-06,2.35,2.35,2.35,2.35,0,2.15
2015-01-07,2.35,2.35,2.35,2.35,0,2.15
2015-01-08,2.35,2.35,2.35,2.35,0,2.15
2015-01-09,2.6,2.6,2.6,2.6,300,2.38
2015-01-12,2.65,2.65,2.65,2.65,200,2.43
2015-01-13,2.65,2.65,2.65,2.65,0,2.43
2015-01-14,2.65,2.65,2.65,2.65,0,2.43
2015-01-15,2.65,2.65,2.65,2.65,0,2.43
2015-01-16,2.65,2.65,2.65,2.65,0,2.43
2015-01-19,2.65,2.65,2.65,2.65,0,2.43
2015-01-20,2.65,2.65,2.65,2.65,0,2.43
2015-01-21,2.65,2.65,2.65,2.65,0,2.43
2015-01-22,2.65,2.65,2.65,2.65,0,2.43
2015-01-23,2.65,2.65,2.65,2.65,0,2.43
2015-01-26,2.65,2.65,2.65,2.65,0,2.43
2015-01-27,2.65,2.65,2.65,2.65,0,2.43
2015-01-28,2.65,2.65,2.65,2.65,0,2.43
2015-01-29,2.65,2.65,2.65,2.65,0,2.43
2015-01-30,2.65,2.65,2.65,2.65,0,2.43
2015-02-02,2.65,2.65,2.65,2.65,0,2.43
2015-02-03,2.65,2.65,2.65,2.65,0,2.43
2015-02-04,2.86,2.86,2.8,2.8,6200,2.56
2015-02-05,2.8,2.8,2.8,2.8,0,2.56
2015-02-06,2.8,2.8,2.8,2.8,0,2.56
2015-02-09,2.8,2.8,2.8,2.8,0,2.56
2015-02-10,2.8,2.8,2.8,2.8,0,2.56
2015-02-11,2.8,2.8,2.8,2.8,0,2.56
2015-02-12,2.8,2.8,2.8,2.8,0,2.56
2015-02-13,2.8,2.8,2.8,2.8,0,2.56
2015-02-16,2.8,2.8,2.8,2.8,0,2.56
2015-02-17,2.8,2.8,2.8,2.8,0,2.56
2015-02-18,2.8,2.8,2.8,2.8,0,2.56
2015-02-19,2.8,2.8,2.8,2.8,0,2.56
2015-02-20,2.8,2.8,2.8,2.8,0,2.56
2015-02-23,2.8,2.8,2.8,2.8,0,2.56
2015-02-24,2.8,2.8,2.8,2.8,0,2.56
2015-02-25,2.8,2.8,2.8,2.8,0,2.56
2015-02-26,2.8,2.8,2.8,2.8,0,2.56
2015-02-27,2.8,2.8,2.8,2.8,0,2.56
2015-03-02,2.8,2.8,2.8,2.8,0,2.56
2015-03-03,2.8,2.8,2.8,2.8,0,2.56
2015-03-04,2.8,2.8,2.8,2.8,0,2.56
2015-03-05,2.8,2.8,2.8,2.8,0,2.56
2015-03-06,2.8,2.8,2.8,2.8,0,2.56
2015-03-09,2.8,2.8,2.8,2.8,0,2.56
2015-03-10,2.8,2.8,2.8,2.8,0,2.56
2015-03-11,2.8,2.8,2.8,2.8,0,2.56
2015-03-12,2.8,2.8,2.8,2.8,0,2.56
2015-03-13,2.8,2.8,2.8,2.8,0,2.56
2015-03-16,2.8,2.8,2.8,2.8,0,2.56
2015-03-17,2.8,2.8,2.8,2.8,0,2.56
2015-03-18,2.8,2.8,2.8,2.8,0,2.56
2015-03-19,2.8,2.8,2.8,2.8,0,2.56
2015-03-20,2.8,2.8,2.8,2.8,0,2.56
2015-03-23,2.8,2.8,2.8,2.8,0,2.56
2015-03-24,2.8,2.8,2.8,2.8,0,2.56
2015-03-25,2.8,2.8,2.8,2.8,0,2.56
2015-03-26,2.8,2.8,2.8,2.8,0,2.56
2015-03-27,2.8,2.8,2.8,2.8,0,2.56
2015-03-30,2.8,2.8,2.8,2.8,0,2.56
2015-03-31,2.8,2.8,2.8,2.8,0,2.56
2015-04-01,2.8,2.8,2.8,2.8,0,2.56
2015-04-02,2.8,2.8,2.8,2.8,0,2.56
2015-04-03,2.8,2.8,2.8,2.8,0,2.56
2015-04-06,2.8,2.8,2.8,2.8,0,2.56
2015-04-07,2.8,2.8,2.8,2.8,0,2.56
2015-04-08,2.8,2.8,2.8,2.8,0,2.56
2015-04-09,2.8,2.8,2.8,2.8,0,2.56
2015-04-10,2.8,2.8,2.8,2.8,0,2.56
2015-04-13,2.8,2.8,2.8,2.8,0,2.56
2015-04-14,2.8,2.8,2.8,2.8,0,2.56
2015-04-15,2.8,2.8,2.8,2.8,0,2.56
2015-04-16,2.8,2.8,2.8,2.8,0,2.56
2015-04-17,2.8,2.8,2.8,2.8,0,2.56
2015-04-20,2.8,2.8,2.8,2.8,0,2.56
2015-04-21,2.8,2.8,2.8,2.8,0,2.56
2015-04-22,2.8,2.8,2.8,2.8,0,2.56
2015-04-23,2.8,2.8,2.8,2.8,0,2.56
2015-04-24,2.8,2.8,2.8,2.8,0,2.56
2015-04-27,2.8,2.8,2.8,2.8,0,2.56
2015-04-28,2.8,2.8,2.8,2.8,0,2.56
2015-04-29,3.0,3.0,3.0,3.0,10300,2.75
2015-04-30,3.0,3.03,2.99,2.99,3700,2.74
2015-05-01,2.99,2.99,2.99,2.99,0,2.74
2015-05-04,3.0,3.0,3.0,3.0,4200,2.75
2015-05-05,3.03,3.03,3.03,3.03,200,2.77
2015-05-06,3.03,3.03,3.03,3.03,0,2.77
2015-05-07,3.03,3.03,3.03,3.03,0,2.77
2015-05-08,3.0,3.0,3.0,3.0,300,2.75
2015-05-11,3.0,3.0,3.0,3.0,0,2.75
2015-05-12,3.0,3.0,3.0,3.0,0,2.75
2015-05-13,3.0,3.0,3.0,3.0,3000,2.75
2015-05-14,3.0,3.0,3.0,3.0,500,2.75
2015-05-15,3.0,3.0,3.0,3.0,3000,2.75
2015-05-18,2.9,2.9,2.9,2.9,3000,2.66
2015-05-19,3.0,3.02,3.0,3.0,10400,2.75
2015-05-20,3.0,3.0,3.0,3.0,0,2.75
2015-05-21,3.0,3.0,3.0,3.0,1300,2.75
2015-05-22,3.0,3.0,3.0,3.0,0,2.75
2015-05-25,3.0,3.0,3.0,3.0,0,2.75
2015-05-26,3.0,3.0,3.0,3.0,0,2.75
2015-05-27,3.0,3.0,3.0,3.0,0,2.75
2015-05-28,3.0,3.0,3.0,3.0,0,2.75
2015-05-29,3.0,3.0,3.0,3.0,0,2.75
2015-06-01,3.0,3.0,3.0,3.0,0,2.75
2015-06-02,3.0,3.0,3.0,3.0,0,2.75
2015-06-03,3.0,3.0,3.0,3.0,0,2.81
2015-06-04,3.0,3.0,3.0,3.0,0,2.81
2015-06-05,3.0,3.0,3.0,3.0,0,2.81
2015-06-08,3.0,3.0,3.0,3.0,0,2.81
2015-06-09,3.0,3.0,2.99,2.99,800,2.81
2015-06-10,2.99,2.99,2.99,2.99,1800,2.81
2015-06-11,2.95,2.95,2.95,2.95,500,2.77
2015-06-12,2.95,2.95,2.95,2.95,0,2.77
2015-06-15,2.95,2.95,2.95,2.95,0,2.77
2015-06-16,2.9,2.9,2.9,2.9,500,2.72
2015-06-17,2.9,2.9,2.8,2.8,1600,2.63
2015-06-18,2.8,2.8,2.8,2.8,0,2.63
2015-06-19,2.8,2.8,2.8,2.8,0,2.63
2015-06-22,2.8,2.8,2.8,2.8,0,2.63
2015-06-23,2.8,2.8,2.8,2.8,0,2.63
2015-06-24,2.8,2.8,2.8,2.8,0,2.63
2015-06-25,2.8,2.8,2.8,2.8,0,2.63
2015-06-26,2.8,2.8,2.8,2.8,0,2.63
2015-06-29,2.8,2.8,2.8,2.8,5800,2.63
2015-06-30,2.8,2.8,2.8,2.8,0,2.63
2015-07-01,2.8,2.8,2.8,2.8,0,2.63
2015-07-02,2.8,2.8,2.8,2.8,0,2.63
2015-07-03,2.8,2.8,2.8,2.8,300,2.63
2015-07-06,2.8,2.8,2.8,2.8,0,2.63
2015-07-07,2.8,2.8,2.8,2.8,0,2.63
2015-07-08,2.8,2.8,2.8,2.8,0,2.63
2015-07-09,2.8,2.8,2.8,2.8,0,2.63
2015-07-10,2.8,2.8,2.8,2.8,0,2.63
2015-07-13,2.8,2.8,2.8,2.8,0,2.63
2015-07-14,2.8,2.8,2.8,2.8,0,2.63
2015-07-15,2.8,2.8,2.8,2.8,0,2.63
2015-07-16,2.8,2.8,2.8,2.8,0,2.63
2015-07-17,2.8,2.8,2.8,2.8,0,2.63
2015-07-20,2.8,2.8,2.8,2.8,0,2.63
2015-07-21,2.8,2.8,2.8,2.8,0,2.63
2015-07-22,2.8,2.8,2.8,2.8,0,2.63
2015-07-23,2.8,2.8,2.8,2.8,0,2.63
2015-07-24,2.8,2.8,2.8,2.8,0,2.63
2015-07-27,2.8,2.8,2.8,2.8,0,2.63
2015-07-28,2.8,2.8,2.8,2.8,0,2.63
2015-07-29,2.8,2.8,2.8,2.8,0,2.63
2015-07-30,2.8,2.8,2.8,2.8,0,2.63
2015-07-31,2.8,2.8,2.8,2.8,0,2.63
2015-08-03,2.8,2.8,2.8,2.8,0,2.63
2015-08-04,2.8,2.8,2.8,2.8,0,2.63
2015-08-05,2.8,2.8,2.8,2.8,0,2.63
2015-08-06,2.8,2.8,2.8,2.8,0,2.63
2015-08-07,2.8,2.8,2.8,2.8,0,2.63
2015-08-10,2.8,2.8,2.8,2.8,0,2.63
2015-08-11,2.8,2.8,2.8,2.8,0,2.63
2015-08-12,2.8,2.8,2.8,2.8,0,2.63
2015-08-13,2.8,2.8,2.8,2.8,0,2.63
2015-08-14,2.8,2.8,2.8,2.8,0,2.63
2015-08-17,2.8,2.8,2.8,2.8,0,2.63
2015-08-18,2.8,2.8,2.8,2.8,0,2.63
2015-08-19,2.8,2.8,2.8,2.8,0,2.63
2015-08-20,2.8,2.8,2.8,2.8,0,2.63
2015-08-24,2.8,2.8,2.8,2.8,0,2.63
2015-08-25,2.8,2.8,2.8,2.8,0,2.63
2015-08-26,2.8,2.8,2.8,2.8,0,2.63
2015-08-27,2.85,2.85,2.85,2.85,3900,2.67
2015-08-28,2.85,2.85,2.85,2.85,0,2.67
2015-08-31,2.85,2.85,2.85,2.85,0,2.67
2015-09-01,2.85,2.85,2.85,2.85,0,2.67
2015-09-02,2.85,2.85,2.85,2.85,0,2.67
2015-09-03,2.85,2.85,2.85,2.85,0,2.67
2015-09-04,2.85,2.85,2.85,2.85,0,2.67
2015-09-07,2.85,2.85,2.85,2.85,0,2.67
2015-09-08,2.85,2.85,2.85,2.85,0,2.67
2015-09-09,2.85,2.85,2.85,2.85,0,2.67
2015-09-10,2.85,2.85,2.85,2.85,0,2.67
2015-09-11,2.85,2.85,2.85,2.85,0,2.67
2015-09-14,2.85,2.85,2.85,2.85,0,2.67
2015-09-15,2.85,2.85,2.85,2.85,3500,2.67
2015-09-16,2.85,2.85,2.85,2.85,0,2.67
2015-09-17,2.85,2.85,2.85,2.85,0,2.67
2015-09-18,2.9,2.9,2.88,2.88,2200,2.7
2015-09-21,2.88,2.88,2.88,2.88,0,2.7
2015-09-22,2.88,2.88,2.88,2.88,0,2.7
2015-09-23,2.88,2.88,2.88,2.88,0,2.7
2015-09-24,2.88,2.88,2.88,2.88,0,2.7
2015-09-25,2.88,2.88,2.88,2.88,0,2.7
2015-09-28,2.88,2.88,2.88,2.88,0,2.7
2015-09-29,2.88,2.88,2.88,2.88,0,2.7
2015-09-30,2.88,2.88,2.88,2.88,0,2.7
2015-10-01,2.84,2.84,2.83,2.83,1100,2.66
2015-10-02,2.83,2.83,2.83,2.83,0,2.66
2015-10-05,2.83,2.83,2.83,2.83,0,2.66
2015-10-06,2.83,2.83,2.83,2.83,0,2.66
2015-10-07,2.83,2.83,2.83,2.83,0,2.66
2015-10-08,2.83,2.83,2.83,2.83,0,2.66
2015-10-09,2.83,2.83,2.83,2.83,0,2.66
2015-10-12,2.8,2.8,2.8,2.8,200,2.63
2015-10-13,2.8,2.8,2.8,2.8,0,2.63
2015-10-14,2.8,2.8,2.8,2.8,0,2.63
2015-10-15,2.8,2.8,2.8,2.8,0,2.63
2015-10-16,2.8,2.8,2.8,2.8,0,2.63
2015-10-19,2.8,2.8,2.8,2.8,0,2.63
2015-10-20,2.8,2.8,2.8,2.8,0,2.63
2015-10-21,2.8,2.8,2.8,2.8,0,2.63
2015-10-22,2.8,2.8,2.8,2.8,0,2.63
2015-10-23,2.8,2.8,2.8,2.8,0,2.63
2015-10-26,2.8,2.8,2.8,2.8,0,2.63
2015-10-27,2.8,2.8,2.8,2.8,0,2.63
2015-10-28,2.8,2.8,2.8,2.8,0,2.63
2015-10-29,2.8,2.8,2.8,2.8,0,2.63
2015-10-30,2.8,2.8,2.8,2.8,0,2.63
2015-11-02,2.8,2.8,2.8,2.8,0,2.63
2015-11-03,2.8,2.8,2.8,2.8,0,2.63
2015-11-04,2.8,2.8,2.8,2.8,0,2.63
2015-11-05,2.9,2.9,2.9,2.9,2000,2.72
2015-11-06,2.9,2.9,2.9,2.9,0,2.72
2015-11-09,2.9,2.9,2.9,2.9,0,2.72
2015-11-10,2.9,2.9,2.9,2.9,0,2.72
2015-11-11,2.9,2.9,2.9,2.9,0,2.72
2015-11-12,2.95,2.95,2.95,2.95,2500,2.77
2015-11-13,2.95,2.95,2.95,2.95,0,2.77
2015-11-16,2.95,2.95,2.95,2.95,0,2.77
2015-11-17,2.95,2.95,2.95,2.95,0,2.77
2015-11-18,2.95,2.95,2.95,2.95,0,2.77
2015-11-19,2.95,2.95,2.95,2.95,0,2.77
2015-11-20,2.95,2.95,2.95,2.95,0,2.77
2015-11-23,2.95,2.95,2.95,2.95,0,2.77
2015-11-24,2.95,2.95,2.95,2.95,0,2.77
2015-11-25,2.95,2.95,2.95,2.95,0,2.81
2015-11-26,2.95,2.95,2.95,2.95,0,2.81
2015-11-27,2.95,2.95,2.95,2.95,0,2.81
2015-11-30,2.95,2.95,2.95,2.95,0,2.81
2015-12-01,2.95,2.95,2.95,2.95,0,2.81
2015-12-02,2.95,2.95,2.95,2.95,0,2.81
2015-12-03,2.95,2.95,2.95,2.95,0,2.81
2015-12-04,2.95,2.95,2.95,2.95,0,2.81
2015-12-07,2.95,2.95,2.95,2.95,0,2.81
2015-12-08,2.95,2.95,2.95,2.95,0,2.81
2015-12-09,2.95,2.95,2.95,2.95,0,2.81
2015-12-10,2.95,2.95,2.95,2.95,0,2.81
2015-12-11,2.95,2.95,2.95,2.95,0,2.81
2015-12-14,2.95,2.95,2.95,2.95,0,2.81
2015-12-15,2.95,2.95,2.95,2.95,0,2.81
2015-12-16,2.95,2.95,2.95,2.95,0,2.81
2015-12-17,2.95,2.95,2.95,2.95,0,2.81
2015-12-18,2.95,2.95,2.95,2.95,0,2.81
2015-12-21,2.95,2.95,2.95,2.95,0,2.81
2015-12-22,2.95,2.95,2.95,2.95,0,2.81
2015-12-23,2.95,2.95,2.95,2.95,0,2.81
2015-12-24,2.95,2.95,2.95,2.95,0,2.81
2015-12-25,2.95,2.95,2.95,2.95,0,2.81
2015-12-28,2.95,2.95,2.95,2.95,0,2.81
2015-12-29,2.95,2.95,2.95,2.95,0,2.81
2015-12-30,2.95,2.95,2.95,2.95,0,2.81
2015-12-31,2.95,2.95,2.95,2.95,0,2.81
2016-01-01,2.95,2.95,2.95,2.95,0,2.81
2016-01-04,2.95,2.95,2.95,2.95,0,2.81
2016-01-05,2.95,2.95,2.95,2.95,0,2.81
2016-01-06,2.95,2.95,2.95,2.95,0,2.81
2016-01-07,2.95,2.95,2.95,2.95,0,2.81
2016-01-08,2.95,2.95,2.95,2.95,0,2.81
2016-01-11,2.95,2.95,2.95,2.95,0,2.81
2016-01-12,2.95,2.95,2.95,2.95,0,2.81
2016-01-13,2.95,2.95,2.95,2.95,0,2.81
2016-01-14,2.95,2.95,2.95,2.95,0,2.81
2016-01-15,2.95,2.95,2.95,2.95,0,2.81
2016-01-18,2.95,2.95,2.95,2.95,0,2.81
2016-01-19,2.95,2.95,2.95,2.95,0,2.81
2016-01-20,2.95,2.95,2.95,2.95,0,2.81
2016-01-21,2.95,2.95,2.95,2.95,0,2.81
2016-01-22,2.95,2.95,2.95,2.95,0,2.81
2016-01-25,2.98,2.98,2.98,2.98,2300,2.84
2016-01-26,2.98,2.98,2.98,2.98,0,2.84
2016-01-27,2.98,2.98,2.98,2.98,0,2.84
2016-01-28,2.98,2.98,2.98,2.98,0,2.84
2016-01-29,2.98,2.98,2.98,2.98,0,2.84
2016-02-01,2.98,2.98,2.98,2.98,0,2.84
2016-02-02,2.98,2.98,2.98,2.98,0,2.84
2016-02-03,2.98,2.98,2.98,2.98,0,2.84
2016-02-04,2.98,2.98,2.98,2.98,0,2.84
2016-02-05,2.98,2.98,2.98,2.98,0,2.84
2016-02-08,2.98,2.98,2.98,2.98,0,2.84
2016-02-09,2.98,2.98,2.98,2.98,0,2.84
2016-02-10,2.98,2.98,2.98,2.98,0,2.84
2016-02-11,2.98,2.98,2.98,2.98,0,2.84
2016-02-12,2.98,2.98,2.98,2.98,0,2.84
2016-02-15,2.98,2.98,2.98,2.98,0,2.84
2016-02-16,3.0,3.0,3.0,3.0,1000,2.86
2016-02-17,3.0,3.0,3.0,3.0,0,2.86
2016-02-18,3.0,3.0,3.0,3.0,0,2.86
2016-02-19,3.0,3.0,3.0,3.0,0,2.86
2016-02-22,3.0,3.0,3.0,3.0,0,2.86
2016-02-23,3.0,3.0,3.0,3.0,0,2.86
2016-02-24,3.0,3.0,3.0,3.0,0,2.86
2016-02-25,3.0,3.0,3.0,3.0,0,2.86
2016-02-26,3.0,3.0,3.0,3.0,0,2.86
2016-02-29,3.0,3.0,3.0,3.0,0,2.86
2016-03-01,3.0,3.0,3.0,3.0,0,2.86
2016-03-02,3.0,3.0,3.0,3.0,0,2.86
2016-03-03,3.0,3.0,3.0,3.0,0,2.86
2016-03-04,3.0,3.0,3.0,3.0,0,2.86
2016-03-07,3.0,3.0,3.0,3.0,0,2.86
2016-03-08,3.0,3.0,3.0,3.0,0,2.86
2016-03-09,3.0,3.0,3.0,3.0,0,2.86
2016-03-10,3.0,3.0,3.0,3.0,0,2.86
2016-03-11,3.0,3.0,3.0,3.0,0,2.86
2016-03-14,3.0,3.0,3.0,3.0,0,2.86
2016-03-15,3.0,3.0,3.0,3.0,0,2.86
2016-03-16,3.0,3.0,3.0,3.0,0,2.86
2016-03-17,3.0,3.0,3.0,3.0,0,2.86
2016-03-18,3.0,3.0,3.0,3.0,0,2.86
2016-03-21,3.0,3.0,3.0,3.0,0,2.86
2016-03-22,3.0,3.0,3.0,3.0,0,2.86
2016-03-23,3.0,3.0,3.0,3.0,0,2.86
2016-03-24,3.0,3.0,3.0,3.0,0,2.86
2016-03-25,3.0,3.0,3.0,3.0,0,2.86
2016-03-28,3.0,3.0,3.0,3.0,0,2.86
2016-03-29,3.0,3.0,3.0,3.0,0,2.86
2016-03-30,3.0,3.0,3.0,3.0,0,2.86
2016-03-31,3.0,3.0,3.0,3.0,0,2.86
2016-04-01,3.0,3.0,3.0,3.0,0,2.86
2016-04-04,3.0,3.0,3.0,3.0,0,2.86
2016-04-05,3.0,3.0,3.0,3.0,0,2.86
2016-04-06,3.0,3.0,3.0,3.0,0,2.86
2016-04-07,3.0,3.0,3.0,3.0,5000,2.86
2016-04-08,3.0,3.0,3.0,3.0,0,2.86
2016-04-11,3.0,3.0,3.0,3.0,0,2.86
2016-04-12,3.0,3.0,3.0,3.0,0,2.86
2016-04-13,3.05,3.05,3.05,3.05,900,2.91
2016-04-14,3.0,3.0,3.0,3.0,2500,2.86
2016-04-15,3.0,3.0,3.0,3.0,0,2.86
2016-04-18,3.0,3.0,3.0,3.0,0,2.86
2016-04-19,3.0,3.0,3.0,3.0,0,2.86
2016-04-20,3.05,3.05,3.05,3.05,900,2.91
2016-04-21,3.05,3.05,3.05,3.05,4000,2.91
2016-04-22,3.05,3.05,3.05,3.05,0,2.91
2016-04-25,3.05,3.05,3.05,3.05,0,2.91
2016-04-26,3.05,3.05,3.05,3.05,0,2.91
2016-04-27,3.05,3.05,3.05,3.05,0,2.91
2016-04-28,3.06,3.06,3.06,3.06,2000,2.92
2016-04-29,3.06,3.06,3.06,3.06,0,2.92
2016-05-02,3.06,3.06,3.06,3.06,0,2.92
2016-05-03,3.0,3.0,3.0,3.0,2000,2.86
2016-05-04,3.0,3.0,3.0,3.0,3000,2.86
2016-05-05,3.0,3.0,3.0,3.0,0,2.86
2016-05-06,3.0,3.0,3.0,3.0,0,2.86
2016-05-09,3.0,3.0,3.0,3.0,0,2.86
2016-05-10,3.02,3.03,3.01,3.01,3900,2.87
2016-05-11,3.01,3.01,3.01,3.01,0,2.87
2016-05-12,3.01,3.01,3.01,3.01,0,2.87
2016-05-13,3.01,3.01,3.01,3.01,0,2.87
2016-05-16,3.01,3.01,3.01,3.01,0,2.87
2016-05-17,3.01,3.01,3.01,3.01,0,2.87
2016-05-18,3.01,3.01,3.01,3.01,0,2.87
2016-05-19,3.15,3.15,3.11,3.11,9500,2.97
2016-05-20,3.06,3.06,3.06,3.06,2000,2.92
2016-05-23,3.13,3.13,3.13,3.13,22500,2.98
2016-05-24,3.11,3.11,3.11,3.11,3300,2.97
2016-05-25,3.11,3.11,3.11,3.11,0,2.97
2016-05-26,3.11,3.11,3.11,3.11,0,2.97
2016-05-27,3.11,3.11,3.11,3.11,0,2.97
2016-05-30,3.11,3.11,3.11,3.11,0,2.97
2016-05-31,3.11,3.11,3.11,3.11,0,2.97
2016-06-01,3.11,3.11,3.11,3.11,0,3.05
2016-06-02,3.11,3.11,3.11,3.11,0,3.05
2016-06-03,3.11,3.11,3.11,3.11,0,3.05
2016-06-06,3.11,3.11,3.11,3.11,3200,3.05
2016-06-07,3.11,3.11,3.11,3.11,0,3.05
2016-06-08,3.11,3.11,3.11,3.11,1900,3.05
2016-06-09,3.11,3.11,3.11,3.11,0,3.05
2016-06-10,3.11,3.11,3.11,3.11,0,3.05
2016-06-13,3.11,3.11,3.11,3.11,0,3.05
2016-06-14,3.11,3.11,3.11,3.11,0,3.05
2016-06-15,3.12,3.12,3.12,3.12,9600,3.06
2016-06-16,3.12,3.12,3.12,3.12,0,3.06
2016-06-17,3.05,3.05,3.05,3.05,500,2.99
2016-06-20,3.05,3.05,3.05,3.05,0,2.99
2016-06-21,3.05,3.05,3.05,3.05,0,2.99
2016-06-22,3.05,3.05,3.05,3.05,0,2.99
2016-06-23,3.05,3.05,2.95,2.95,200,2.89
2016-06-24,2.95,2.95,2.95,2.95,0,2.89
2016-06-27,2.95,2.95,2.95,2.95,0,2.89
2016-06-28,2.95,2.95,2.95,2.95,0,2.89
2016-06-29,2.95,2.95,2.95,2.95,0,2.89
2016-06-30,2.95,2.95,2.95,2.95,0,2.89
2016-07-01,2.95,2.95,2.95,2.95,5900,2.89
2016-07-04,2.95,2.95,2.95,2.95,0,2.89
2016-07-05,2.98,2.98,2.98,2.98,2000,2.92
2016-07-06,2.98,2.98,2.98,2.98,0,2.92
2016-07-07,2.98,2.98,2.98,2.98,0,2.92
2016-07-08,2.98,2.98,2.98,2.98,0,2.92
2016-07-11,2.98,2.98,2.98,2.98,0,2.92
2016-07-12,2.98,2.98,2.98,2.98,0,2.92
2016-07-13,2.98,2.98,2.98,2.98,0,2.92
2016-07-14,2.98,2.98,2.98,2.98,0,2.92
2016-07-15,2.98,2.98,2.98,2.98,0,2.92
2016-07-18,2.98,2.98,2.98,2.98,0,2.92
2016-07-19,3.1,3.1,3.1,3.1,2000,3.04
2016-07-20,3.1,3.1,3.1,3.1,0,3.04
2016-07-21,3.1,3.1,3.1,3.1,0,3.04
2016-07-22,3.1,3.1,3.1,3.1,0,3.04
2016-07-25,3.1,3.1,3.1,3.1,0,3.04
2016-07-26,3.1,3.1,3.1,3.1,0,3.04
2016-07-27,3.1,3.1,3.1,3.1,0,3.04
2016-07-28,3.1,3.1,3.1,3.1,0,3.04
2016-07-29,3.1,3.1,3.1,3.1,0,3.04
2016-08-01,3.1,3.1,3.1,3.1,0,3.04
2016-08-02,3.1,3.1,3.1,3.1,0,3.04
2016-08-03,3.09,3.09,3.09,3.09,3200,3.03
2016-08-04,3.15,3.15,3.15,3.15,1500,3.09
2016-08-05,3.2,3.2,3.2,3.2,12500,3.14
2016-08-08,3.2,3.2,3.2,3.2,0,3.14
2016-08-09,3.2,3.2,3.2,3.2,1000,3.14
2016-08-10,3.2,3.2,3.2,3.2,0,3.14
2016-08-11,3.15,3.15,3.15,3.15,600,3.09
2016-08-12,3.15,3.15,3.15,3.15,0,3.09
2016-08-15,3.15,3.15,3.15,3.15,0,3.09
2016-08-16,3.15,3.15,3.15,3.15,0,3.09
2016-08-17,3.15,3.15,3.15,3.15,0,3.09
2016-08-18,3.15,3.15,3.15,3.15,0,3.09
2016-08-19,3.15,3.15,3.15,3.15,0,3.09
2016-08-22,3.15,3.15,3.15,3.15,0,3.09
2016-08-23,3.15,3.15,3.15,3.15,0,3.09
2016-08-24,3.15,3.15,3.15,3.15,0,3.09
2016-08-25,3.15,3.15,3.15,3.15,0,3.09
2016-08-26,3.25,3.25,3.25,3.25,5000,3.18
2016-08-29,3.25,3.25,3.25,3.25,0,3.18
2016-08-30,3.25,3.25,3.25,3.25,0,3.18
2016-08-31,3.25,3.25,3.25,3.25,0,3.18
2016-09-01,3.25,3.25,3.25,3.25,0,3.18
2016-09-02,3.25,3.25,3.25,3.25,0,3.18
2016-09-05,3.25,3.25,3.25,3.25,0,3.18
2016-09-06,3.25,3.25,3.25,3.25,300,3.18
2016-09-07,3.25,3.25,3.25,3.25,0,3.18
2016-09-08,3.25,3.25,3.25,3.25,1500,3.18
2016-09-09,3.25,3.25,3.25,3.25,0,3.18
2016-09-12,3.25,3.25,3.25,3.25,0,3.18
2016-09-13,3.25,3.25,3.25,3.25,0,3.18
2016-09-14,3.25,3.25,3.25,3.25,0,3.18
2016-09-15,3.25,3.25,3.25,3.25,100,3.18
2016-09-16,3.25,3.25,3.25,3.25,0,3.18
2016-09-19,3.25,3.25,3.25,3.25,0,3.18
2016-09-20,3.25,3.25,3.25,3.25,0,3.18
2016-09-21,3.25,3.25,3.25,3.25,3100,3.18
2016-09-22,3.23,3.23,3.23,3.23,5500,3.16
2016-09-23,3.25,3.25,3.11,3.11,6000,3.05
2016-09-26,3.1,3.1,3.1,3.1,3000,3.04
2016-09-27,3.1,3.1,3.1,3.1,0,3.04
2016-09-28,3.05,3.05,3.0,3.0,7300,2.94
2016-09-29,3.02,3.02,3.02,3.02,1500,2.96
2016-09-30,3.02,3.02,3.02,3.02,0,2.96
2016-10-03,3.02,3.02,3.02,3.02,0,2.96
2016-10-04,3.02,3.02,3.02,3.02,0,2.96
2016-10-05,3.1,3.1,3.0,3.0,12300,2.94
2016-10-06,3.0,3.0,3.0,3.0,0,2.94
2016-10-07,3.0,3.0,3.0,3.0,0,2.94
2016-10-10,3.0,3.0,3.0,3.0,0,2.94
2016-10-11,3.0,3.0,3.0,3.0,0,2.94
2016-10-12,3.0,3.0,3.0,3.0,2000,2.94
2016-10-13,3.0,3.0,3.0,3.0,0,2.94
2016-10-14,3.0,3.0,3.0,3.0,0,2.94
2016-10-17,3.0,3.0,3.0,3.0,0,2.94
2016-10-18,2.85,2.85,2.85,2.85,3000,2.79
2016-10-19,2.85,3.0,2.85,3.0,1800,2.94
2016-10-20,3.0,3.0,3.0,3.0,0,2.94
2016-10-21,3.0,3.0,3.0,3.0,0,2.94
2016-10-24,3.0,3.0,3.0,3.0,0,2.94
2016-10-25,2.8,2.85,2.8,2.85,12800,2.79
2016-10-26,2.8,2.8,2.66,2.66,11400,2.61
2016-10-27,2.66,2.66,2.66,2.66,0,2.61
2016-10-28,2.66,2.66,2.66,2.66,0,2.61
2016-10-31,2.66,2.66,2.66,2.66,0,2.61
2016-11-01,2.66,2.66,2.66,2.66,0,2.61
2016-11-02,2.66,2.66,2.66,2.66,0,2.61
2016-11-03,2.66,2.66,2.66,2.66,0,2.61
2016-11-04,2.66,2.66,2.66,2.66,0,2.61
2016-11-07,2.66,2.66,2.66,2.66,0,2.61
2016-11-08,2.9,2.9,2.8,2.8,5000,2.74
2016-11-09,2.8,2.8,2.8,2.8,0,2.74
2016-11-10,2.8,2.8,2.8,2.8,4000,2.74
2016-11-11,2.75,2.75,2.75,2.75,8700,2.69
2016-11-14,2.72,2.72,2.66,2.66,16100,2.61
2016-11-15,2.66,2.66,2.6,2.6,5300,2.55
2016-11-16,2.6,2.6,2.6,2.6,0,2.55
2016-11-17,2.6,2.6,2.6,2.6,0,2.55
2016-11-18,2.6,2.6,2.6,2.6,0,2.55
2016-11-21,2.6,2.6,2.6,2.6,0,2.55
2016-11-22,2.6,2.6,2.6,2.6,0,2.55
2016-11-23,2.6,2.6,2.6,2.6,0,2.55
2016-11-24,2.6,2.7,2.6,2.7,17700,2.65
2016-11-25,2.65,2.67,2.62,2.62,16500,2.62
2016-11-28,2.62,2.62,2.62,2.62,0,2.62
2016-11-29,2.62,2.62,2.62,2.62,0,2.62
2016-11-30,2.7,2.7,2.7,2.7,600,2.7
2016-12-01,2.7,2.7,2.7,2.7,0,2.7
2016-12-02,2.7,2.7,2.7,2.7,0,2.7
2016-12-05,2.7,2.7,2.7,2.7,0,2.7
2016-12-06,2.57,2.79,2.57,2.79,1400,2.79
2016-12-07,2.79,2.79,2.79,2.79,0,2.79
2016-12-08,2.74,2.74,2.74,2.74,9000,2.74
2016-12-09,2.74,2.74,2.74,2.74,0,2.74
2016-12-12,2.74,2.74,2.74,2.74,0,2.74
2016-12-13,2.65,2.65,2.53,2.56,8900,2.56
2016-12-14,2.56,2.56,2.56,2.56,0,2.56
2016-12-15,2.56,2.56,2.56,2.56,0,2.56
2016-12-16,2.56,2.56,2.56,2.56,0,2.56
2016-12-19,2.56,2.56,2.56,2.56,0,2.56
2016-12-20,2.6,2.6,2.6,2.6,700,2.6
2016-12-21,2.6,2.6,2.6,2.6,0,2.6
2016-12-22,2.65,2.7,2.65,2.65,103000,2.65
2016-12-23,2.65,2.65,2.65,2.65,0,2.65
2016-12-26,2.65,2.65,2.65,2.65,0,2.65
2016-12-27,2.65,2.65,2.65,2.65,0,2.65
2016-12-28,2.62,2.62,2.61,2.61,0,2.61
2016-12-29,2.61,2.61,2.61,2.61,0,2.61
2016-12-30,2.61,2.61,2.61,2.61,0,2.61
