Date,Open,High,Low,Close,Volume,Adj Close
2015-12-16,1.955,2.0,1.85,1.99,3287700,1.88182
2015-12-17,2.0,2.07,2.0,2.03,871100,1.91965
2015-12-18,2.03,2.03,1.99,2.0,818900,1.8912799999999999
2015-12-21,2.0,2.0,1.99,2.0,359100,1.8912799999999999
2015-12-22,2.0,2.0,1.99,1.99,244600,1.88182
2015-12-23,1.99,2.0,1.985,2.0,98700,1.8912799999999999
2015-12-24,1.99,2.0,1.99,2.0,108900,1.8912799999999999
2015-12-25,2.0,2.0,2.0,2.0,0,1.8912799999999999
2015-12-28,2.0,2.0,2.0,2.0,0,1.8912799999999999
2015-12-29,2.0,2.01,2.0,2.01,101800,1.90073
2015-12-30,2.01,2.02,2.01,2.02,37500,1.91019
2015-12-31,2.02,2.02,2.0,2.0,86400,1.8912799999999999
2016-01-01,2.0,2.0,2.0,2.0,0,1.8912799999999999
2016-01-04,2.0,2.0,2.0,2.0,7500,1.8912799999999999
2016-01-05,2.0,2.0,1.96,1.98,363100,1.8723599999999998
2016-01-06,1.98,1.98,1.98,1.98,55000,1.8723599999999998
2016-01-07,2.0,2.0,1.96,1.98,78400,1.8723599999999998
2016-01-08,1.95,1.98,1.95,1.98,48700,1.8723599999999998
2016-01-11,1.95,1.99,1.94,1.99,101500,1.88182
2016-01-12,1.96,1.98,1.955,1.96,209400,1.85345
2016-01-13,1.95,1.95,1.93,1.95,161900,1.844
2016-01-14,1.94,1.95,1.9,1.9,40000,1.7967099999999998
2016-01-15,1.92,1.92,1.9,1.9,29000,1.7967099999999998
2016-01-18,1.89,1.94,1.88,1.93,78900,1.82508
2016-01-19,1.9,1.93,1.9,1.93,24800,1.82508
2016-01-20,1.9,1.9,1.9,1.9,53400,1.7967099999999998
2016-01-21,1.88,1.995,1.855,1.995,970700,1.88655
2016-01-22,2.0,2.01,1.98,1.99,560300,1.88182
2016-01-25,1.99,1.99,1.97,1.98,23000,1.8723599999999998
2016-01-26,1.98,1.98,1.98,1.98,0,1.8723599999999998
2016-01-27,1.98,2.0,1.98,2.0,258100,1.8912799999999999
2016-01-28,1.99,2.0,1.9869999999999999,2.0,173300,1.8912799999999999
2016-01-29,2.0,2.04,1.985,1.985,310400,1.8770900000000001
2016-02-01,1.99,2.0,1.99,2.0,128000,1.8912799999999999
2016-02-02,2.0,2.02,1.98,2.0,334800,1.8912799999999999
2016-02-03,2.0,2.01,1.99,1.995,67800,1.88655
2016-02-04,1.995,2.04,1.99,2.03,332200,1.91965
2016-02-05,2.03,2.04,2.02,2.03,116600,1.91965
2016-02-08,2.04,2.04,2.02,2.04,107400,1.9291
2016-02-09,2.02,2.02,1.985,1.985,126300,1.8770900000000001
2016-02-10,2.0,2.0,1.985,2.0,170500,1.8912799999999999
2016-02-11,2.0,2.0,2.0,2.0,27400,1.8912799999999999
2016-02-12,2.02,2.02,1.98,1.98,90600,1.8723599999999998
2016-02-15,1.98,2.01,1.975,2.0,130900,1.8912799999999999
2016-02-16,1.985,2.0,1.985,2.0,30300,1.8912799999999999
2016-02-17,2.0,2.0,1.99,2.0,29800,1.8912799999999999
2016-02-18,2.0,2.01,2.0,2.01,52700,1.90073
2016-02-19,2.0,2.0,1.975,2.0,76600,1.8912799999999999
2016-02-22,2.01,2.03,1.98,2.0,51300,1.8912799999999999
2016-02-23,1.99,1.99,1.98,1.98,32300,1.8723599999999998
2016-02-24,2.01,2.01,1.97,2.0,185500,1.8912799999999999
2016-02-25,2.03,2.04,1.995,2.0,1661100,1.8912799999999999
2016-02-26,2.01,2.02,2.0,2.02,100700,1.91019
2016-02-29,2.01,2.03,2.01,2.01,41600,1.90073
2016-03-01,2.01,2.02,1.995,2.01,170500,1.90073
2016-03-02,2.02,2.03,2.0,2.03,60800,1.91965
2016-03-03,2.03,2.03,2.0,2.0,81100,1.8912799999999999
2016-03-04,2.01,2.02,2.0,2.02,92200,1.91019
2016-03-07,2.02,2.02,2.0,2.0,75000,1.8912799999999999
2016-03-08,2.0,2.05,2.0,2.04,295600,1.9291
2016-03-09,2.03,2.04,2.0,2.01,1081800,1.90073
2016-03-10,2.01,2.03,2.0,2.03,183700,1.91965
2016-03-11,2.01,2.04,2.01,2.01,82900,1.90073
2016-03-14,2.0,2.03,2.0,2.0,22400,1.8912799999999999
2016-03-15,2.03,2.03,2.0,2.0,21300,1.8912799999999999
2016-03-16,2.0,2.03,2.0,2.03,9100,1.91965
2016-03-17,2.03,2.03,2.03,2.03,0,1.91965
2016-03-18,1.99,2.05,1.985,2.01,148000,1.90073
2016-03-21,2.02,2.03,2.01,2.01,15000,1.90073
2016-03-22,2.01,2.01,2.0,2.01,25500,1.90073
2016-03-23,2.01,2.01,1.995,2.01,68200,1.90073
2016-03-24,2.01,2.04,2.01,2.02,50800,1.91019
2016-03-25,2.02,2.02,2.02,2.02,0,1.91019
2016-03-28,2.02,2.02,2.02,2.02,0,1.91019
2016-03-29,1.995,2.0,1.95,1.98,129200,1.8723599999999998
2016-03-30,2.005,2.01,2.005,2.01,20100,1.90073
2016-03-31,2.01,2.01,2.01,2.01,0,1.90073
2016-04-01,2.01,2.01,2.0,2.0,59000,1.8912799999999999
2016-04-04,2.0,2.0,2.0,2.0,25400,1.8912799999999999
2016-04-05,2.0,2.0,1.99,1.99,23800,1.88182
2016-04-06,1.99,2.0,1.99,2.0,22500,1.8912799999999999
2016-04-07,2.0,2.01,2.0,2.0,127400,1.8912799999999999
2016-04-08,2.0,2.01,2.0,2.0,22100,1.8912799999999999
2016-04-11,2.0,2.0,1.99,1.995,35900,1.88655
2016-04-12,2.0,2.0,1.99,2.0,47300,1.8912799999999999
2016-04-13,1.98,2.0,1.98,2.0,20500,1.8912799999999999
2016-04-14,2.0,2.01,2.0,2.01,84000,1.90073
2016-04-15,2.02,2.03,2.01,2.03,102400,1.91965
2016-04-18,2.0,2.05,2.0,2.02,25300,1.91019
2016-04-19,2.05,2.14,2.05,2.14,69900,2.02367
2016-04-20,2.13,2.14,2.08,2.1,57400,1.98584
2016-04-21,2.105,2.15,2.105,2.15,138400,2.0331200000000003
2016-04-22,2.15,2.15,2.15,2.15,58600,2.0331200000000003
2016-04-25,2.15,2.15,2.15,2.15,0,2.0331200000000003
2016-04-26,2.1,2.14,2.08,2.09,28400,1.97638
2016-04-27,2.14,2.14,2.13,2.13,26000,2.01421
2016-04-28,2.08,2.09,2.08,2.09,23500,1.97638
2016-04-29,2.09,2.12,2.06,2.06,78000,1.94802
2016-05-02,2.06,2.07,2.06,2.06,69700,1.94802
2016-05-03,2.03,2.05,2.03,2.03,37700,1.91965
2016-05-04,2.03,2.03,2.03,2.03,0,1.91965
2016-05-05,2.06,2.06,2.05,2.05,50000,1.9385599999999998
2016-05-06,2.05,2.05,2.04,2.04,65500,1.9291
2016-05-09,2.04,2.04,2.03,2.03,44800,1.91965
2016-05-10,2.03,2.03,2.03,2.03,3500,1.91965
2016-05-11,2.07,2.09,2.05,2.05,37300,1.9385599999999998
2016-05-12,2.07,2.07,2.04,2.04,49500,1.9291
2016-05-13,2.04,2.04,2.04,2.04,0,1.9291
2016-05-16,2.04,2.04,2.03,2.03,52800,1.91965
2016-05-17,2.03,2.07,2.03,2.07,13000,1.95747
2016-05-18,2.07,2.1,2.07,2.09,86800,1.97638
2016-05-19,2.1,2.11,2.08,2.09,459200,1.97638
2016-05-20,2.09,2.09,2.07,2.08,67700,1.9669299999999998
2016-05-23,2.09,2.09,2.09,2.09,504700,1.97638
2016-05-24,2.13,2.14,2.12,2.14,38000,2.02367
2016-05-25,2.14,2.16,2.14,2.16,54000,2.04258
2016-05-26,2.17,2.19,2.17,2.18,90500,2.06149
2016-05-27,2.19,2.21,2.18,2.21,201200,2.08986
2016-05-30,2.21,2.4,2.21,2.3,102000,2.17497
2016-05-31,2.3,2.34,2.27,2.3,414900,2.17497
2016-06-01,2.3,2.3,2.25,2.26,67500,2.13714
2016-06-02,2.26,2.3,2.23,2.24,27800,2.11823
2016-06-03,2.28,2.28,2.24,2.28,29400,2.1560599999999996
2016-06-06,2.24,2.29,2.24,2.25,74000,2.1276900000000003
2016-06-07,2.25,2.25,2.25,2.25,1000,2.1276900000000003
2016-06-08,2.25,2.26,2.24,2.25,52800,2.1276900000000003
2016-06-09,2.25,2.25,2.2,2.24,70400,2.11823
2016-06-10,2.25,2.25,2.2,2.2,65500,2.0804
2016-06-13,2.2,2.2,2.2,2.2,0,2.0804
2016-06-14,2.24,2.24,2.2,2.2,25300,2.0804
2016-06-15,2.2,2.2,2.16,2.2,46800,2.0804
2016-06-16,2.2,2.21,2.13,2.2,191300,2.0804
2016-06-17,2.2,2.23,2.2,2.23,36200,2.1087700000000003
2016-06-20,2.24,2.29,2.2,2.22,20400,2.09932
2016-06-21,2.22,2.22,2.22,2.22,10000,2.09932
2016-06-22,2.29,2.3,2.2,2.29,39000,2.16551
2016-06-23,2.29,2.3,2.29,2.29,79700,2.16551
2016-06-24,2.25,2.25,2.15,2.18,60300,2.06149
2016-06-27,2.18,2.22,2.18,2.19,82000,2.07095
2016-06-28,2.19,2.19,2.15,2.15,44900,2.0331200000000003
2016-06-29,2.195,2.2,2.16,2.2,42700,2.0804
2016-06-30,2.2,2.21,2.15,2.2,65100,2.0804
2016-07-01,2.2,2.2,2.2,2.2,0,2.0804
2016-07-04,2.2,2.2,2.2,2.2,7800,2.0804
2016-07-05,2.2,2.2,2.2,2.2,13800,2.0804
2016-07-06,2.2,2.25,2.2,2.2,4900,2.0804
2016-07-07,2.2,2.2,2.2,2.2,0,2.0804
2016-07-08,2.2,2.2,2.15,2.15,115200,2.0331200000000003
2016-07-11,2.21,2.21,2.15,2.15,1100,2.0331200000000003
2016-07-12,2.15,2.17,2.15,2.16,46900,2.04258
2016-07-13,2.16,2.17,2.16,2.17,48400,2.0520400000000003
2016-07-14,2.18,2.24,2.18,2.18,34800,2.06149
2016-07-15,2.18,2.18,2.18,2.18,13800,2.06149
2016-07-18,2.18,2.2,2.18,2.19,6100,2.07095
2016-07-19,2.2,2.25,2.19,2.25,8000,2.1276900000000003
2016-07-20,2.25,2.25,2.2,2.2,74700,2.0804
2016-07-21,2.2,2.2,2.18,2.2,60000,2.0804
2016-07-22,2.18,2.18,2.15,2.15,50000,2.0331200000000003
2016-07-25,2.15,2.15,2.15,2.15,0,2.0331200000000003
2016-07-26,2.24,2.24,2.2,2.2,7000,2.0804
2016-07-27,2.17,2.17,2.16,2.16,50300,2.04258
2016-07-28,2.18,2.18,2.15,2.16,84300,2.04258
2016-07-29,2.16,2.24,2.16,2.16,30800,2.04258
2016-08-01,2.2,2.2,2.18,2.18,16700,2.06149
2016-08-02,2.18,2.18,2.18,2.18,0,2.06149
2016-08-03,2.2,2.22,2.19,2.22,0,2.09932
2016-08-04,2.21,2.22,2.2,2.2,84100,2.0804
2016-08-05,2.18,2.22,2.18,2.22,12000,2.09932
2016-08-08,2.22,2.22,2.2,2.2,237800,2.0804
2016-08-09,2.18,2.2,2.15,2.16,40300,2.04258
2016-08-10,2.16,2.2,2.16,2.19,44500,2.07095
2016-08-11,2.19,2.19,2.15,2.15,41200,2.0331200000000003
2016-08-12,2.16,2.2,2.16,2.19,11300,2.07095
2016-08-15,2.18,2.2,2.16,2.16,38400,2.04258
2016-08-16,2.17,2.22,2.16,2.16,39600,2.04258
2016-08-17,2.16,2.16,2.16,2.16,0,2.04258
2016-08-18,2.16,2.16,2.16,2.16,16300,2.04258
2016-08-19,2.16,2.16,2.16,2.16,900,2.04258
2016-08-22,2.2,2.2,2.2,2.2,21200,2.0804
2016-08-23,2.2,2.2,2.17,2.17,102800,2.0520400000000003
2016-08-24,2.17,2.17,2.17,2.17,19500,2.0520400000000003
2016-08-25,2.15,2.15,2.15,2.15,20000,2.0331200000000003
2016-08-26,2.18,2.18,2.12,2.12,31000,2.00475
2016-08-29,2.2,2.23,2.13,2.2,198500,2.0804
2016-08-30,2.2,2.3,2.2,2.25,358700,2.1276900000000003
2016-08-31,2.27,2.27,2.19,2.2,394800,2.0804
2016-09-01,2.2,2.2,2.19,2.2,112400,2.0804
2016-09-02,2.2,2.25,2.11,2.15,17193000,2.0331200000000003
2016-09-05,2.2,2.22,2.16,2.18,449800,2.06149
2016-09-06,2.19,2.2,2.18,2.19,393200,2.07095
2016-09-07,2.19,2.28,2.19,2.25,483800,2.1276900000000003
2016-09-08,2.25,2.26,2.22,2.23,101400,2.1087700000000003
2016-09-09,2.24,2.26,2.22,2.25,636500,2.1276900000000003
2016-09-12,2.24,2.26,2.2,2.26,83000,2.13714
2016-09-13,2.22,2.23,2.15,2.15,23900,2.15
2016-09-14,2.16,2.19,2.16,2.19,11700,2.19
2016-09-15,2.16,2.17,2.15,2.17,30200,2.17
2016-09-16,2.24,2.24,2.2,2.24,208700,2.24
2016-09-19,2.24,2.24,2.24,2.24,0,2.24
2016-09-20,2.23,2.23,2.16,2.17,974300,2.17
2016-09-21,2.17,2.23,2.17,2.19,513300,2.19
2016-09-22,2.2,2.23,2.17,2.2,58300,2.2
2016-09-23,2.2,2.2,2.18,2.2,8300,2.2
2016-09-26,2.195,2.2,2.19,2.2,5500,2.2
2016-09-27,2.195,2.2,2.17,2.18,1965200,2.18
2016-09-28,2.19,2.2,2.17,2.2,762700,2.2
2016-09-29,2.2,2.2,2.15,2.19,378700,2.19
2016-09-30,2.19,2.19,2.16,2.17,75800,2.17
2016-10-03,2.18,2.19,2.17,2.19,19500,2.19
2016-10-04,2.19,2.19,2.17,2.17,52300,2.17
2016-10-05,2.17,2.19,2.15,2.17,52300,2.17
2016-10-06,2.18,2.19,2.16,2.18,560600,2.18
2016-10-07,2.16,2.19,2.15,2.15,606000,2.15
2016-10-10,2.18,2.18,2.12,2.16,39000,2.16
2016-10-11,2.15,2.17,2.13,2.15,535200,2.15
2016-10-12,2.15,2.15,2.13,2.15,13100,2.15
2016-10-13,2.15,2.15,2.11,2.15,33400,2.15
2016-10-14,2.13,2.16,2.1,2.15,95000,2.15
2016-10-17,2.15,2.15,2.12,2.13,23600,2.13
2016-10-18,2.15,2.15,2.12,2.12,36200,2.12
2016-10-19,2.12,2.15,2.11,2.15,70400,2.15
2016-10-20,2.14,2.15,2.13,2.15,27300,2.15
2016-10-21,2.15,2.15,2.12,2.13,22500,2.13
2016-10-24,2.15,2.15,2.12,2.13,50300,2.13
2016-10-25,2.13,2.14,2.11,2.11,36500,2.11
2016-10-26,2.1,2.14,2.1,2.13,410500,2.13
2016-10-27,2.12,2.13,2.1,2.13,29000,2.13
2016-10-28,2.14,2.18,2.12,2.13,26100,2.13
2016-10-31,2.14,2.14,2.1,2.11,129900,2.11
2016-11-01,2.11,2.14,2.1,2.11,59800,2.11
2016-11-02,2.1,2.11,2.08,2.1,129800,2.1
2016-11-03,2.1,2.1,2.07,2.1,69700,2.1
2016-11-04,2.1,2.1,2.05,2.05,77600,2.05
2016-11-07,2.05,2.09,2.05,2.07,42100,2.07
2016-11-08,2.06,2.07,2.02,2.05,41600,2.05
2016-11-09,2.1,2.1,2.0,2.0,73500,2.0
2016-11-10,2.05,2.08,2.0,2.05,95000,2.05
2016-11-11,2.06,2.07,2.01,2.02,43700,2.02
2016-11-14,2.03,2.04,2.01,2.03,65200,2.03
2016-11-15,2.02,2.03,2.01,2.01,126800,2.01
2016-11-16,2.02,2.03,1.995,2.0,580500,2.0
2016-11-17,2.0,2.02,2.0,2.01,46600,2.01
2016-11-18,2.0,2.02,2.0,2.02,28400,2.02
2016-11-21,2.02,2.11,2.02,2.1,52000,2.1
2016-11-22,2.095,2.1,2.03,2.03,104200,2.03
2016-11-23,2.04,2.09,2.03,2.06,72800,2.06
2016-11-24,2.06,2.07,2.03,2.06,114500,2.06
2016-11-25,2.07,2.075,2.04,2.05,59500,2.05
2016-11-28,2.06,2.08,2.04,2.04,62000,2.04
2016-11-29,2.09,2.12,2.05,2.05,13000,2.05
2016-11-30,2.09,2.1,2.03,2.08,94100,2.08
2016-12-01,2.06,2.1,2.06,2.07,230600,2.07
2016-12-02,2.07,2.1,2.07,2.07,20100,2.07
2016-12-05,2.07,2.07,2.07,2.07,0,2.07
2016-12-06,2.0629299999999997,2.0629299999999997,2.0629299999999997,2.0629299999999997,0,2.0629299999999997
2016-12-07,2.1,2.15,2.1,2.14,439200,2.14
2016-12-08,2.16,2.17,2.15,2.16,206100,2.16
2016-12-09,2.16,2.16,2.14,2.14,8000,2.14
2016-12-12,2.14,2.15,2.12,2.14,38900,2.14
2016-12-13,2.14,2.14,2.06,2.1,405300,2.1
2016-12-14,2.11,2.15,2.1,2.14,135400,2.14
2016-12-15,2.12,2.14,2.1,2.14,28400,2.14
2016-12-16,2.11,2.12,2.04,2.11,46400,2.11
2016-12-19,2.07,2.1,2.07,2.09,246200,2.09
2016-12-20,2.09,2.13,2.05,2.08,51200,2.08
2016-12-21,2.05,2.1,2.05,2.09,53700,2.09
2016-12-22,2.08,2.1,2.05,2.05,455100,2.05
2016-12-23,2.06,2.07,2.03,2.03,63200,2.03
2016-12-26,2.03,2.03,2.03,2.03,0,2.03
2016-12-27,2.03,2.03,2.03,2.03,0,2.03
2016-12-28,2.03,2.05,2.03,2.05,67400,2.05
2016-12-29,2.03,2.07,2.03,2.05,61700,2.05
2016-12-30,2.05,2.06,2.05,2.06,4300,2.06
