Date,Open,High,Low,Close,Volume,Adj Close
2007-11-15,25.4,25.4,25.4,25.4,0,22.49
2007-11-16,25.4,25.4,24.55,24.55,2700,21.74
2007-11-19,24.19,24.19,24.17,24.18,1100,21.41
2007-11-20,23.96,23.96,23.48,23.72,2900,21.0
2007-11-21,24.12,24.12,23.74,23.74,2500,21.02
2007-11-22,23.89,23.89,23.89,23.89,900,21.15
2007-11-23,23.32,23.32,23.32,23.32,500,20.65
2007-11-26,23.7,24.31,23.7,24.31,600,21.53
2007-11-27,23.54,24.11,23.54,24.11,800,21.35
2007-11-28,23.79,24.24,23.77,24.06,1300,21.3
2007-11-29,25.35,25.35,25.35,25.35,100,22.45
2007-11-30,25.54,25.76,25.52,25.76,1000,22.81
2007-12-03,26.04,26.04,25.9,25.9,1500,22.93
2007-12-04,25.92,26.17,25.92,26.17,1000,23.17
2007-12-05,25.9,26.18,25.9,26.18,900,23.18
2007-12-06,26.62,27.09,26.62,27.09,2500,23.99
2007-12-07,26.75,26.75,26.75,26.75,0,23.69
2007-12-10,26.01,26.01,25.25,25.91,10700,22.94
2007-12-11,25.91,26.09,25.91,26.09,5000,23.1
2007-12-12,25.69,25.96,25.69,25.76,1200,22.81
2007-12-13,25.87,25.87,25.76,25.76,500,22.81
2007-12-14,25.5,25.5,25.5,25.5,0,22.58
2007-12-17,25.77,25.78,25.05,25.05,3000,22.18
2007-12-18,24.67,24.75,24.41,24.75,1200,21.92
2007-12-19,24.97,25.01,24.97,25.01,200,22.15
2007-12-20,25.4,25.4,25.36,25.36,400,22.46
2007-12-21,25.55,25.57,25.46,25.56,1600,22.63
2007-12-24,25.94,25.94,25.94,25.94,0,22.97
2007-12-27,25.59,25.59,25.59,25.59,0,22.66
2007-12-28,25.12,25.12,25.12,25.12,0,22.24
2007-12-31,24.59,25.01,24.59,25.01,500,22.15
2008-01-02,25.28,25.28,25.28,25.28,100,22.39
2008-01-03,24.93,24.93,24.79,24.8,1500,21.96
2008-01-04,25.04,25.23,25.04,25.23,700,22.34
2008-01-07,24.8,24.8,23.89,24.09,3900,21.33
2008-01-08,25.42,25.42,25.42,25.42,100,22.51
2008-01-09,24.8,24.81,24.8,24.8,1000,21.96
2008-01-10,25.09,25.09,25.09,25.09,0,22.22
2008-01-11,25.06,25.06,24.81,24.81,6400,21.97
2008-01-14,24.8,24.8,24.13,24.13,400,21.37
2008-01-15,23.71,23.71,23.71,23.71,0,20.99
2008-01-16,23.01,23.01,23.01,23.01,200,20.38
2008-01-17,23.03,23.03,23.03,23.03,500,20.39
2008-01-18,22.56,22.57,22.54,22.55,5500,19.97
2008-01-21,22.95,22.95,22.64,22.64,1000,20.05
2008-01-22,21.41,21.41,21.41,21.41,0,18.96
2008-01-23,22.7,22.95,22.7,22.95,600,20.32
2008-01-24,22.99,23.27,22.71,23.27,9600,20.61
2008-01-25,22.86,23.23,22.86,23.06,6000,20.42
2008-01-29,22.83,22.83,22.46,22.7,2400,20.1
2008-01-30,22.49,22.49,22.49,22.49,0,19.91
2008-01-31,22.3,22.3,22.3,22.3,0,19.75
2008-02-01,22.2,22.2,22.2,22.2,0,19.66
2008-02-04,22.34,22.34,22.34,22.34,0,19.78
2008-02-05,22.0,22.0,22.0,22.0,400,19.48
2008-02-06,21.37,21.37,21.0,21.0,1700,18.6
2008-02-07,21.1,21.1,21.1,21.1,0,18.68
2008-02-08,21.14,21.14,21.14,21.14,0,18.72
2008-02-11,21.25,21.25,21.25,21.25,300,18.82
2008-02-12,20.94,20.94,20.94,20.94,500,18.54
2008-02-13,21.1,21.12,21.1,21.1,3700,18.68
2008-02-14,21.49,21.5,21.49,21.5,700,19.04
2008-02-15,21.0,21.0,21.0,21.0,500,18.6
2008-02-18,21.28,21.28,21.0,21.0,1000,18.6
2008-02-19,21.06,21.06,21.06,21.06,200,18.65
2008-02-20,20.89,20.89,20.75,20.75,200,18.37
2008-02-21,20.86,20.86,20.86,20.86,500,18.47
2008-02-22,20.24,20.24,20.24,20.24,0,17.92
2008-02-25,20.3,20.3,20.14,20.14,900,17.83
2008-02-26,20.07,20.07,20.07,20.07,500,17.77
2008-02-27,20.61,20.61,20.61,20.61,0,18.25
2008-02-28,20.51,20.51,20.51,20.51,0,18.16
2008-02-29,20.1,20.22,19.88,20.22,2000,17.9
2008-03-03,19.83,20.04,19.52,20.04,6000,17.75
2008-03-04,20.16,20.16,19.89,19.89,500,17.61
2008-03-05,20.03,20.03,20.03,20.03,2000,17.74
2008-03-06,19.87,19.97,19.87,19.97,2000,17.68
2008-03-07,19.32,19.35,19.19,19.19,1500,16.99
2008-03-10,18.71,19.0,18.71,19.0,500,16.82
2008-03-11,19.45,19.45,19.45,19.45,0,17.22
2008-03-12,20.26,20.26,20.26,20.26,1000,17.94
2008-03-13,19.21,19.21,19.21,19.21,0,17.01
2008-03-14,18.65,18.65,18.65,18.65,0,16.51
2008-03-17,18.18,18.18,18.14,18.15,2000,16.07
2008-03-18,18.0,18.0,18.0,18.0,1500,15.94
2008-03-19,19.1,19.1,19.1,19.1,500,16.91
2008-03-20,18.39,18.39,18.39,18.39,0,16.28
2008-03-25,19.17,19.17,19.16,19.16,0,16.97
2008-03-26,19.39,19.39,19.39,19.39,0,17.17
2008-03-27,19.39,19.39,19.35,19.35,100,17.13
2008-03-28,19.77,19.77,19.77,19.77,0,17.51
2008-03-31,19.75,19.75,19.75,19.75,0,17.49
2008-04-01,19.97,19.97,19.97,19.97,100,17.68
2008-04-02,20.77,20.77,20.77,20.77,0,18.39
2008-04-03,20.35,20.35,20.35,20.35,0,18.02
2008-04-04,20.77,21.08,20.77,21.08,13200,18.67
2008-04-07,20.79,20.92,20.7,20.7,37600,18.33
2008-04-08,20.5,20.5,20.3,20.3,1500,17.98
2008-04-09,20.49,20.49,20.06,20.06,800,17.76
2008-04-10,20.04,20.04,20.04,20.04,0,17.75
2008-04-11,19.97,19.97,19.97,19.97,200,17.68
2008-04-14,19.83,19.83,19.83,19.83,0,17.56
2008-04-15,19.8,19.8,19.8,19.8,0,17.53
2008-04-16,20.0,20.0,20.0,20.0,500,17.71
2008-04-17,20.03,20.03,19.91,19.91,500,17.63
2008-04-18,19.92,19.92,19.88,19.88,600,17.6
2008-04-21,20.13,20.13,20.08,20.08,1000,17.78
2008-04-22,20.14,20.14,20.14,20.14,0,17.83
2008-04-23,20.16,20.16,20.15,20.15,500,17.84
2008-04-24,20.47,20.62,20.47,20.62,2500,18.26
2008-04-28,20.93,20.96,20.85,20.85,3400,18.46
2008-04-29,20.92,20.92,20.92,20.92,0,18.52
2008-04-30,20.96,20.96,20.96,20.96,0,18.56
2008-05-01,21.0,21.0,20.97,20.97,1500,18.57
2008-05-02,21.41,21.45,21.41,21.44,1400,18.98
2008-05-05,21.51,21.53,21.48,21.53,2300,19.06
2008-05-06,21.31,21.31,21.31,21.31,0,18.87
2008-05-07,21.25,21.25,20.97,20.97,2100,18.57
2008-05-08,20.93,20.96,20.85,20.85,1200,18.46
2008-05-09,20.68,20.7,20.68,20.7,400,18.33
2008-05-12,20.51,20.51,20.51,20.51,1400,18.16
2008-05-13,20.52,20.52,20.52,20.52,0,18.17
2008-05-14,20.75,20.75,20.75,20.75,0,18.37
2008-05-15,21.27,21.27,21.18,21.18,1000,18.75
2008-05-16,21.21,21.21,21.07,21.07,1000,18.66
2008-05-19,21.05,21.05,20.95,20.95,1200,18.55
2008-05-20,20.4,20.4,20.4,20.4,200,18.06
2008-05-21,20.05,20.05,20.05,20.05,200,17.75
2008-05-22,19.86,19.86,19.86,19.86,400,17.59
2008-05-23,20.29,20.29,20.29,20.29,0,17.97
2008-05-26,19.88,19.94,19.79,19.94,2900,17.66
2008-05-27,19.83,19.83,19.83,19.83,500,17.56
2008-05-28,20.1,20.1,20.1,20.1,0,17.8
2008-05-29,20.1,20.11,20.1,20.1,1500,17.8
2008-05-30,20.16,20.16,20.16,20.16,0,17.85
2008-06-02,20.36,20.36,20.36,20.36,3100,18.03
2008-06-03,20.15,20.15,20.15,20.15,500,17.84
2008-06-04,20.18,20.18,20.18,20.18,0,17.87
2008-06-05,20.32,20.32,20.32,20.32,0,17.99
2008-06-06,20.32,20.32,20.32,20.32,3100,17.99
2008-06-10,20.2,20.2,19.44,19.52,6900,17.28
2008-06-11,19.57,19.57,19.57,19.57,0,17.33
2008-06-12,19.23,19.4,19.18,19.4,1700,17.18
2008-06-13,19.4,19.4,19.4,19.4,0,17.18
2008-06-16,19.5,19.53,19.49,19.53,9000,17.29
2008-06-17,19.4,19.4,19.4,19.4,0,17.18
2008-06-18,19.35,19.5,19.35,19.5,4500,17.27
2008-06-19,19.15,19.15,19.15,19.15,0,16.96
2008-06-20,18.91,19.22,18.91,18.91,0,16.74
2008-06-23,18.52,18.67,18.52,18.67,5000,16.53
2008-06-24,18.62,18.67,18.62,18.67,2900,16.53
2008-06-25,18.51,18.51,18.5,18.5,6700,16.38
2008-06-26,18.3,18.3,18.2,18.2,1200,16.12
2008-06-27,17.66,17.67,17.66,17.66,3200,15.64
2008-06-30,17.82,17.82,17.82,17.82,0,15.78
2008-07-01,17.74,17.95,17.74,17.74,0,15.71
2008-07-02,17.75,17.75,17.75,17.75,0,15.72
2008-07-03,17.16,17.16,17.16,17.16,200,15.19
2008-07-04,17.31,17.31,17.31,17.31,0,15.33
2008-07-07,17.2,17.35,17.2,17.35,2200,15.36
2008-07-08,17.18,17.18,16.92,16.92,900,14.98
2008-07-09,17.62,17.62,17.62,17.62,500,15.6
2008-07-10,17.25,17.25,17.25,17.25,300,15.27
2008-07-11,17.19,17.19,17.19,17.19,0,15.22
2008-07-14,17.3,17.3,17.09,17.1,4200,15.14
2008-07-15,16.75,16.75,16.44,16.44,9100,14.56
2008-07-16,16.44,16.44,16.44,16.44,600,14.56
2008-07-17,16.93,16.93,16.72,16.72,1200,14.81
2008-07-18,16.85,16.85,16.85,16.85,0,14.92
2008-07-21,17.09,17.24,17.09,17.24,1100,15.27
2008-07-22,17.15,17.15,17.15,17.15,1000,15.19
2008-07-23,17.46,17.61,17.46,17.61,2800,15.59
2008-07-24,18.02,18.02,17.94,17.94,1800,15.89
2008-07-25,17.64,17.65,17.53,17.53,7000,15.52
2008-07-28,17.77,17.77,17.77,17.77,500,15.74
2008-07-29,17.77,17.77,17.25,17.26,10100,15.28
2008-07-30,17.84,17.86,17.84,17.86,900,15.81
2008-07-31,17.78,17.78,17.78,17.78,0,15.74
2008-08-01,17.8,17.8,17.8,17.8,1000,15.76
2008-08-04,18.01,18.01,18.01,18.01,0,15.95
2008-08-05,17.84,17.84,17.84,17.84,0,15.8
2008-08-06,18.23,18.23,18.08,18.08,1200,16.01
2008-08-07,17.43,18.04,17.43,17.43,0,15.43
2008-08-08,17.75,17.75,17.75,17.75,1000,15.72
2008-08-11,18.59,18.59,18.59,18.59,1000,16.46
2008-08-12,18.62,18.91,18.62,18.91,900,16.74
2008-08-13,18.77,18.77,18.77,18.77,0,16.62
2008-08-14,18.72,18.72,18.65,18.65,900,16.51
2008-08-15,19.03,19.03,18.66,18.66,2200,16.52
2008-08-18,18.27,18.27,18.27,18.27,700,16.18
2008-08-19,17.94,17.94,17.94,17.94,700,15.89
2008-08-20,17.97,17.97,17.97,17.97,1000,15.91
2008-08-21,17.89,17.89,17.71,17.71,6000,15.68
2008-08-22,17.39,17.39,17.39,17.39,700,15.4
2008-08-25,18.07,18.19,18.07,18.19,900,16.11
2008-08-26,18.32,18.32,18.32,18.32,0,16.22
2008-08-27,18.34,18.34,18.34,18.34,0,16.24
2008-08-28,18.24,18.24,18.24,18.24,0,16.15
2008-08-29,18.47,18.47,18.42,18.42,4000,16.31
2008-09-01,18.42,18.42,18.42,18.42,6000,16.31
2008-09-02,18.48,18.48,18.4,18.4,1200,16.29
2008-09-03,18.7,18.83,18.7,18.72,2100,16.58
2008-09-04,18.62,18.62,18.62,18.62,0,16.49
2008-09-05,18.46,18.46,18.46,18.46,0,16.35
2008-09-08,18.78,18.87,18.78,18.87,3000,16.71
2008-09-09,19.29,19.29,19.29,19.29,0,17.08
2008-09-10,18.89,18.89,18.89,18.89,2000,16.73
2008-09-11,18.79,18.79,18.79,18.79,0,16.64
2008-09-12,18.72,18.72,18.72,18.72,3000,16.58
2008-09-15,17.72,17.72,17.7,17.71,9500,15.68
2008-09-16,17.6,17.6,17.59,17.59,500,15.58
2008-09-17,18.09,18.1,18.02,18.02,6000,15.96
2008-09-18,17.15,17.15,17.07,17.07,2200,15.12
2008-09-19,18.4,18.4,17.5,17.53,2800,15.52
2008-09-22,17.63,17.63,17.27,17.56,2000,15.55
2008-09-23,16.93,16.93,16.92,16.92,400,14.98
2008-09-24,16.62,16.62,16.62,16.62,200,14.72
2008-09-25,16.55,16.55,16.55,16.55,200,14.65
2008-09-26,16.8,16.8,16.6,16.6,1300,14.7
2008-09-29,16.36,16.36,16.36,16.36,0,14.49
2008-09-30,15.85,16.08,15.61,16.08,53000,14.24
2008-10-01,16.53,16.53,16.47,16.47,2200,14.58
2008-10-02,16.99,16.99,16.2,16.24,2100,14.38
2008-10-03,16.39,16.39,16.39,16.39,0,14.51
2008-10-06,16.24,16.24,16.24,16.24,1000,14.38
2008-10-07,16.46,16.79,16.46,16.79,3400,14.87
2008-10-08,16.02,16.02,16.02,16.02,600,14.19
2008-10-09,16.79,16.79,16.79,16.79,200,14.87
2008-10-10,16.02,16.02,15.7,15.86,2900,14.04
2008-10-13,16.34,16.34,16.34,16.34,0,14.47
2008-10-14,18.06,18.06,17.0,17.0,24300,15.05
2008-10-15,17.02,17.16,17.02,17.14,1100,15.18
2008-10-16,15.65,16.04,15.65,16.04,100,14.2
2008-10-17,15.72,15.72,15.72,15.72,1000,13.92
2008-10-20,15.57,15.57,15.57,15.57,0,13.79
2008-10-21,15.83,16.69,15.83,15.83,0,14.02
2008-10-22,16.03,16.03,16.03,16.03,1000,14.19
2008-10-23,15.57,15.57,15.33,15.33,900,13.57
2008-10-24,15.4,15.4,15.4,15.4,200,13.64
2008-10-27,15.4,15.4,15.4,15.4,0,13.64
2008-10-28,14.39,14.39,14.39,14.39,200,12.74
2008-10-29,15.54,15.54,15.25,15.25,1300,13.5
2008-10-30,15.22,15.25,15.22,15.25,1300,13.5
2008-10-31,16.21,16.27,15.77,15.86,7900,14.04
2008-11-03,16.0,16.03,15.61,15.87,8400,14.05
2008-11-04,15.74,16.0,15.74,16.0,4000,14.17
2008-11-05,16.05,16.09,16.05,16.09,2500,14.25
2008-11-06,15.36,15.42,15.28,15.42,2500,13.65
2008-11-07,15.57,15.65,15.56,15.65,5000,13.86
2008-11-10,16.55,16.7,16.55,16.7,10500,14.79
2008-11-11,16.06,16.12,15.88,15.88,11500,14.06
2008-11-12,15.7,15.7,15.41,15.45,2300,13.68
2008-11-13,15.45,15.45,15.45,15.45,0,13.68
2008-11-14,14.98,16.34,14.98,14.98,0,13.26
2008-11-17,15.45,15.45,15.45,15.45,1000,13.68
2008-11-18,14.83,14.83,14.83,14.83,100,13.13
2008-11-19,14.68,14.75,14.63,14.63,1700,12.95
2008-11-20,14.63,14.63,14.63,14.63,0,12.95
2008-11-21,14.36,16.07,14.36,14.36,0,12.72
2008-11-24,14.73,14.76,14.7,14.76,5900,13.07
2008-11-25,15.09,15.65,15.09,15.54,9500,13.76
2008-11-26,14.9,14.93,14.9,14.93,3000,13.22
2008-11-27,15.92,15.92,15.47,15.47,600,13.7
2008-11-28,15.57,15.57,15.57,15.57,400,13.79
2008-12-01,15.65,16.03,15.65,16.03,22500,14.19
2008-12-02,15.9,15.9,15.33,15.37,4700,13.61
2008-12-03,15.41,15.41,15.39,15.39,2000,13.63
2008-12-04,15.23,15.27,15.23,15.27,2000,13.52
2008-12-05,14.99,15.23,14.84,15.23,1200,13.49
2008-12-08,16.14,16.22,16.14,16.22,500,14.36
2008-12-09,16.16,16.16,16.01,16.01,2200,14.18
2008-12-10,16.1,16.1,16.1,16.1,100,14.26
2008-12-11,16.73,16.74,16.58,16.66,4500,14.75
2008-12-12,16.47,16.47,15.95,15.95,4300,14.12
2008-12-15,16.0,16.62,16.0,16.53,5000,14.64
2008-12-16,16.34,16.34,16.34,16.34,100,14.47
2008-12-17,15.98,15.98,15.98,15.98,2000,14.15
2008-12-18,15.98,15.98,15.98,15.98,0,14.15
2008-12-19,15.65,16.15,15.62,16.15,3900,14.3
2008-12-22,15.73,16.14,15.73,15.73,0,13.93
2008-12-23,16.15,16.15,16.15,16.15,0,14.3
2008-12-24,14.93,14.93,14.93,14.93,500,13.22
2008-12-29,15.0,15.0,15.0,15.0,3900,13.28
2008-12-30,15.0,15.0,15.0,15.0,0,13.28
2008-12-31,15.0,15.0,15.0,15.0,0,13.28
2009-01-02,15.0,15.0,15.0,15.0,0,13.28
2009-01-05,15.0,15.0,15.0,15.0,0,13.28
2009-01-06,15.0,15.0,15.0,15.0,0,13.28
2009-01-07,15.0,15.0,15.0,15.0,0,13.28
2009-01-08,15.02,15.02,15.02,15.02,200,13.3
2009-01-09,15.19,15.19,15.19,15.19,100,13.45
2009-01-12,15.36,15.36,15.36,15.36,600,13.6
2009-01-13,15.36,15.36,15.36,15.36,0,13.6
2009-01-14,15.36,15.36,15.36,15.36,0,13.6
2009-01-15,15.05,15.05,15.01,15.01,200,13.29
2009-01-16,14.75,14.75,14.75,14.75,0,13.06
2009-01-19,14.75,14.75,14.75,14.75,1800,13.06
2009-01-20,14.73,14.73,14.73,14.73,100,13.04
2009-01-21,14.75,14.79,14.75,14.79,5000,13.1
2009-01-22,14.79,14.79,14.79,14.79,0,13.1
2009-01-23,14.6,14.6,14.6,14.6,100,12.93
2009-01-27,14.6,14.6,14.6,14.6,0,12.93
2009-01-28,14.6,14.6,14.6,14.6,0,12.93
2009-01-29,14.6,14.6,14.6,14.6,0,12.93
2009-01-30,15.22,15.22,15.22,15.22,1500,13.48
2009-02-02,15.75,15.9,15.73,15.73,5500,13.93
2009-02-03,15.84,15.9,15.55,15.55,9800,13.77
2009-02-04,15.32,15.32,15.32,15.32,0,13.57
2009-02-05,15.46,15.46,15.46,15.46,1000,13.69
2009-02-06,15.46,15.46,15.46,15.46,0,13.69
2009-02-09,15.09,15.09,15.09,15.09,300,13.36
2009-02-10,15.09,15.09,15.09,15.09,0,13.36
2009-02-11,15.09,15.09,15.09,15.09,0,13.36
2009-02-12,15.17,15.17,15.17,15.17,4000,13.43
2009-02-13,15.17,15.17,15.17,15.17,0,13.43
2009-02-16,15.17,15.17,15.17,15.17,0,13.43
2009-02-17,15.17,15.17,15.17,15.17,0,13.43
2009-02-18,14.93,14.93,14.93,14.93,600,13.22
2009-02-19,14.93,14.93,14.93,14.93,0,13.22
2009-02-20,14.93,14.93,14.93,14.93,0,13.22
2009-02-23,15.05,15.05,15.05,15.05,1000,13.33
2009-02-24,14.77,14.82,14.72,14.82,10000,13.12
2009-02-25,14.82,14.82,14.82,14.82,0,13.12
2009-02-26,14.82,14.82,14.82,14.82,0,13.12
2009-02-27,14.82,14.82,14.82,14.82,0,13.12
2009-03-02,14.9,15.12,14.83,14.83,3800,13.13
2009-03-03,14.83,14.83,14.83,14.83,0,13.13
2009-03-04,14.37,14.37,14.37,14.37,2100,12.72
2009-03-05,14.69,14.69,14.56,14.56,1800,12.89
2009-03-06,14.56,14.56,14.56,14.56,0,12.89
2009-03-09,14.56,14.56,14.56,14.56,0,12.89
2009-03-10,14.15,14.15,14.05,14.05,2300,12.44
2009-03-11,14.36,14.36,14.36,14.36,300,12.72
2009-03-12,14.36,14.36,14.36,14.36,0,12.72
2009-03-13,14.36,14.36,14.36,14.36,0,12.72
2009-03-16,14.36,14.36,14.36,14.36,0,12.72
2009-03-17,14.36,14.36,14.36,14.36,0,12.72
2009-03-18,14.36,14.36,14.36,14.36,0,12.72
2009-03-19,14.36,14.36,14.36,14.36,0,12.72
2009-03-20,14.36,14.36,14.36,14.36,0,12.72
2009-03-23,14.36,14.36,14.36,14.36,0,12.72
2009-03-24,14.36,14.36,14.36,14.36,0,12.72
2009-03-25,15.06,15.06,15.06,15.06,100,13.34
2009-03-26,15.19,15.19,15.02,15.02,600,13.3
2009-03-27,15.28,15.28,15.11,15.11,4000,13.38
2009-03-30,15.11,15.11,15.11,15.11,0,13.38
2009-03-31,15.02,15.02,14.99,14.99,2000,13.27
2009-04-01,14.62,14.8,14.62,14.8,4000,13.11
2009-04-02,14.85,14.85,14.85,14.85,1000,13.15
2009-04-03,15.34,15.49,15.21,15.3,5900,13.55
2009-04-06,15.65,16.27,15.65,15.65,0,13.86
2009-04-07,15.82,15.82,15.82,15.82,2200,14.01
2009-04-08,15.63,15.63,15.55,15.55,1300,13.77
2009-04-09,15.8,15.8,15.8,15.8,7900,13.99
2009-04-14,15.72,15.8,15.69,15.8,8000,13.99
2009-04-15,16.05,16.05,16.05,16.05,200,14.21
2009-04-16,15.95,16.19,15.95,16.07,8900,14.23
2009-04-17,16.13,16.58,16.13,16.55,5500,14.65
2009-04-20,16.3,16.3,16.29,16.29,3600,14.42
2009-04-21,16.4,16.4,16.2,16.29,7000,14.42
2009-04-22,16.29,16.29,16.29,16.29,0,14.42
2009-04-23,16.26,16.26,16.26,16.26,0,14.4
2009-04-24,16.24,16.32,16.24,16.32,2000,14.45
2009-04-27,16.2,16.2,16.2,16.2,0,14.34
2009-04-28,16.14,16.14,16.14,16.14,1000,14.29
2009-04-29,15.9,16.05,15.9,15.97,6000,14.14
2009-04-30,16.15,16.38,15.73,16.08,31200,14.24
2009-05-01,16.24,16.27,16.23,16.25,10000,14.39
2009-05-04,16.42,16.42,16.35,16.35,1400,14.48
2009-05-05,16.97,16.97,16.97,16.97,300,15.03
2009-05-06,17.07,17.07,17.07,17.07,2100,15.12
2009-05-07,17.44,17.44,17.3,17.31,900,15.33
2009-05-08,17.3,17.3,17.2,17.2,300,15.23
2009-05-11,17.0,17.19,17.0,17.19,1700,15.22
2009-05-12,16.85,16.85,16.85,16.85,500,14.92
2009-05-13,16.85,16.85,16.85,16.85,0,14.92
2009-05-14,16.85,16.85,16.85,16.85,0,14.92
2009-05-15,16.93,16.93,16.93,16.93,300,14.99
2009-05-18,16.93,16.93,16.93,16.93,0,14.99
2009-05-19,17.34,17.34,17.17,17.17,0,15.2
2009-05-20,17.09,17.09,17.09,17.09,100,15.13
2009-05-21,16.85,16.94,16.85,16.94,4200,15.0
2009-05-22,16.52,16.52,16.52,16.52,400,14.63
2009-05-25,16.52,16.52,16.52,16.52,0,14.63
2009-05-26,16.57,16.94,16.54,16.93,16500,14.99
2009-05-27,17.18,17.49,17.18,17.38,3900,15.39
2009-05-28,17.6,17.69,17.57,17.69,5700,15.66
2009-05-29,17.5,17.5,17.5,17.5,100,15.5
2009-06-01,17.85,17.94,17.76,17.94,8500,15.89
2009-06-02,17.95,17.95,17.76,17.82,12900,15.78
2009-06-03,17.73,17.73,17.73,17.73,200,15.7
2009-06-04,17.86,17.94,17.73,17.94,9100,15.89
2009-06-05,18.04,18.04,18.04,18.04,1600,15.97
2009-06-09,18.0,18.0,18.0,18.0,500,15.94
2009-06-10,17.77,17.77,17.77,17.77,300,15.74
2009-06-11,17.77,17.77,17.77,17.77,0,15.74
2009-06-12,17.66,17.66,17.66,17.66,800,15.64
2009-06-15,17.66,17.66,17.66,17.66,0,15.64
2009-06-16,17.66,17.66,17.66,17.66,0,15.64
2009-06-17,17.66,17.66,17.66,17.66,0,15.64
2009-06-18,16.96,16.96,16.96,16.96,100,15.02
2009-06-19,16.96,16.96,16.96,16.96,0,15.02
2009-06-22,17.18,17.18,17.18,17.18,100,15.21
2009-06-23,16.9,16.9,16.9,16.9,1500,14.96
2009-06-24,16.9,16.9,16.9,16.9,3000,14.96
2009-06-25,17.03,17.07,16.92,16.95,4000,15.01
2009-06-26,17.12,17.2,17.12,17.2,800,15.23
2009-06-29,17.33,17.33,17.33,17.33,1300,15.35
2009-06-30,17.44,17.44,17.38,17.38,1200,15.39
2009-07-01,17.05,17.05,17.05,17.05,1000,15.1
2009-07-02,17.23,17.32,17.23,17.32,31500,15.34
2009-07-03,17.05,17.05,16.93,17.01,6400,15.06
2009-07-06,17.0,17.0,17.0,17.0,300,15.05
2009-07-07,17.0,17.0,17.0,17.0,0,15.05
2009-07-08,16.97,16.97,16.97,16.97,0,15.03
2009-07-09,16.8,16.8,16.8,16.8,0,14.88
2009-07-10,16.8,16.8,16.8,16.8,0,14.88
2009-07-13,16.82,16.82,16.71,16.71,11300,14.8
2009-07-14,16.82,16.82,16.82,16.82,300,14.89
2009-07-15,16.97,17.08,16.97,17.05,0,15.1
2009-07-16,17.61,17.61,17.61,17.61,100,15.59
2009-07-17,17.4,17.55,17.38,17.55,2800,15.54
2009-07-20,17.79,17.79,17.79,17.79,300,15.75
2009-07-21,18.0,18.3,17.89,18.06,3800,15.99
2009-07-22,18.25,18.4,18.11,18.14,1700,16.06
2009-07-23,18.02,18.34,18.02,18.34,5700,16.24
2009-07-24,18.6,18.76,18.41,18.55,4200,16.43
2009-07-27,18.58,18.66,18.57,18.61,35400,16.48
2009-07-28,18.68,18.78,18.43,18.43,3300,16.32
2009-07-29,18.59,18.59,18.59,18.59,200,16.46
2009-07-30,18.4,18.4,18.4,18.4,3200,16.29
2009-07-31,18.68,18.74,18.68,18.69,200,16.55
2009-08-03,19.07,19.07,18.45,18.56,300,16.43
2009-08-04,18.86,18.94,18.45,18.45,8000,16.34
2009-08-05,18.58,18.61,18.43,18.43,3900,16.32
2009-08-06,18.11,18.2,18.11,18.17,1000,16.09
2009-08-07,17.96,17.96,17.93,17.93,5800,15.88
2009-08-10,18.05,18.05,18.05,18.05,4100,15.98
2009-08-11,18.04,18.17,18.04,18.17,3100,16.09
2009-08-12,18.25,18.47,17.1,18.33,21800,16.23
2009-08-13,18.26,18.3,18.26,18.29,2300,16.2
2009-08-14,17.9,18.0,17.9,18.0,1300,15.94
2009-08-17,18.26,18.32,18.1,18.32,7100,16.22
2009-08-18,17.85,18.03,17.85,18.0,1600,15.94
2009-08-19,18.21,18.21,18.21,18.21,1000,16.12
2009-08-20,17.96,18.17,17.92,18.17,12200,16.09
2009-08-21,18.07,18.09,18.04,18.04,6500,15.97
2009-08-24,18.29,18.41,18.26,18.32,13100,16.22
2009-08-25,18.18,18.18,18.09,18.09,5100,16.02
2009-08-26,18.19,18.19,18.19,18.19,1000,16.11
2009-08-27,18.47,18.47,18.19,18.34,22600,16.24
2009-08-28,17.87,17.87,17.87,17.87,100,15.82
2009-08-31,17.63,17.63,17.34,17.4,4900,15.41
2009-09-01,17.13,17.13,17.13,17.13,200,15.17
2009-09-02,17.13,17.13,17.13,17.13,0,15.17
2009-09-03,17.13,17.13,17.13,17.13,0,15.17
2009-09-04,17.35,17.35,17.35,17.35,4600,15.36
2009-09-07,17.35,17.35,17.35,17.35,0,15.36
2009-09-08,17.63,17.67,17.52,17.67,2400,15.65
2009-09-09,17.75,17.75,17.75,17.75,4600,15.72
2009-09-10,17.86,18.19,17.86,18.19,7700,16.11
2009-09-11,18.19,18.19,18.19,18.19,0,16.11
2009-09-14,17.94,18.0,17.85,17.85,12000,15.81
2009-09-15,17.85,17.85,17.85,17.85,0,15.81
2009-09-16,17.89,17.89,17.89,17.89,100,15.84
2009-09-17,18.0,18.08,17.94,17.94,600,15.89
2009-09-18,18.2,18.2,18.0,18.0,3500,15.94
2009-09-21,17.97,18.0,17.97,18.0,6200,15.94
2009-09-22,17.85,17.85,17.83,17.83,1900,15.79
2009-09-23,17.96,17.98,17.85,17.85,1700,15.81
2009-09-24,17.83,17.83,17.83,17.83,1400,15.79
2009-09-25,17.67,17.68,17.67,17.68,4000,15.66
2009-09-28,17.68,17.68,17.68,17.68,0,15.66
2009-09-29,17.7,17.7,17.56,17.56,1600,15.55
2009-09-30,17.56,17.56,17.56,17.56,0,15.55
2009-10-01,17.58,17.61,17.58,17.6,2700,15.58
2009-10-02,17.55,17.57,17.54,17.54,5800,15.53
2009-10-05,17.54,17.54,17.54,17.54,0,15.53
2009-10-06,17.18,17.28,17.18,17.28,6000,15.3
2009-10-07,17.33,17.34,17.33,17.34,6600,15.35
2009-10-08,17.34,17.34,17.34,17.34,0,15.35
2009-10-09,17.37,17.37,17.37,17.37,2000,15.38
2009-10-12,17.57,17.57,17.48,17.48,1900,15.48
2009-10-13,17.24,17.37,17.2,17.3,7300,15.32
2009-10-14,17.38,17.38,17.35,17.35,1200,15.36
2009-10-15,17.59,17.59,17.46,17.5,1000,15.5
2009-10-16,17.26,17.26,17.26,17.26,0,15.28
2009-10-19,17.26,17.5,17.24,17.5,3600,15.5
2009-10-20,17.46,17.54,17.46,17.54,3500,15.53
2009-10-21,17.84,17.84,17.84,17.84,1400,15.8
2009-10-22,17.58,17.7,17.52,17.7,4300,15.67
2009-10-23,17.75,17.8,17.75,17.8,3200,15.76
2009-10-26,17.75,17.78,17.75,17.78,21500,15.74
2009-10-27,17.61,17.61,17.52,17.56,6400,15.55
2009-10-28,17.54,17.54,17.52,17.52,3000,15.51
2009-10-29,17.38,17.38,17.36,17.36,2300,15.37
2009-10-30,17.4,17.44,17.4,17.44,18500,15.44
2009-11-02,17.44,17.44,17.44,17.44,0,15.44
2009-11-03,17.4,17.4,17.4,17.4,4600,15.41
2009-11-04,17.42,17.65,17.42,17.65,12600,15.63
2009-11-05,17.39,17.4,17.27,17.33,11400,15.35
2009-11-06,17.4,17.5,17.4,17.5,9600,15.5
2009-11-09,17.29,17.29,17.22,17.24,3800,15.27
2009-11-10,17.5,17.52,17.34,17.34,10100,15.35
2009-11-11,17.34,17.34,17.34,17.34,0,15.35
2009-11-12,17.34,17.34,17.2,17.25,1200,15.27
2009-11-13,17.33,17.38,17.33,17.38,3100,15.39
2009-11-16,17.34,17.34,17.34,17.34,0,15.35
2009-11-17,17.51,17.51,17.51,17.51,100,15.5
2009-11-18,17.53,17.53,17.26,17.26,15200,15.28
2009-11-19,17.41,17.41,17.36,17.36,3400,15.37
2009-11-20,17.4,17.4,17.31,17.36,13400,15.37
2009-11-23,17.38,17.38,17.38,17.38,0,15.39
2009-11-24,17.3,17.3,17.3,17.3,0,15.32
2009-11-25,17.3,17.3,17.3,17.3,3400,15.32
2009-11-26,17.38,17.41,17.38,17.41,1400,15.42
2009-11-27,17.35,17.35,17.27,17.27,18000,15.29
2009-11-30,17.21,17.27,17.2,17.23,12400,15.26
2009-12-01,17.27,17.27,17.21,17.21,9800,15.24
2009-12-02,17.49,17.49,17.45,17.49,14200,15.49
2009-12-03,17.49,17.49,17.49,17.49,0,15.49
2009-12-04,17.7,17.7,17.63,17.63,1400,15.61
2009-12-07,17.9,17.9,17.87,17.87,5800,15.82
2009-12-08,17.87,17.87,17.87,17.87,0,15.82
2009-12-09,17.79,17.79,17.79,17.79,1400,15.75
2009-12-10,17.76,17.76,17.54,17.54,13000,15.53
2009-12-11,17.67,17.77,17.67,17.77,6800,15.74
2009-12-14,17.79,17.79,17.79,17.79,1400,15.75
2009-12-15,18.2,18.2,18.2,18.2,200,16.12
2009-12-16,17.72,18.02,17.72,18.02,2000,15.96
2009-12-17,17.75,17.75,17.75,17.75,100,15.72
2009-12-18,17.67,17.67,17.67,17.67,1400,15.65
2009-12-21,17.7,17.7,17.7,17.7,400,15.67
2009-12-22,17.66,17.75,17.66,17.75,5800,15.72
2009-12-23,17.5,17.5,17.47,17.47,2500,15.47
2009-12-24,18.22,18.22,18.21,18.21,0,16.12
2009-12-29,17.68,17.68,17.68,17.68,3000,15.66
2009-12-30,17.49,17.49,17.46,17.48,4500,15.48
2009-12-31,17.61,17.62,17.61,17.61,7200,15.59
2010-01-04,17.61,17.61,17.61,17.61,0,15.59
2010-01-05,17.62,17.69,17.58,17.66,7400,15.64
2010-01-06,17.83,17.86,17.83,17.84,5300,15.8
2010-01-07,17.7,17.7,17.7,17.7,100,15.67
2010-01-08,17.7,17.7,17.7,17.7,0,15.67
2010-01-11,17.68,17.74,17.59,17.7,11900,15.67
2010-01-12,17.55,17.55,17.55,17.55,100,15.54
2010-01-13,17.5,17.5,17.46,17.46,16500,15.46
2010-01-14,17.33,17.33,17.28,17.28,3400,15.3
2010-01-15,17.01,17.01,17.01,17.01,0,15.06
2010-01-18,17.1,17.17,17.1,17.17,300,15.2
2010-01-19,17.18,17.18,17.04,17.04,3400,15.09
2010-01-20,17.04,17.04,17.04,17.04,0,15.09
2010-01-21,17.12,17.12,17.02,17.02,2400,15.07
2010-01-22,16.61,16.62,16.61,16.62,200,14.72
2010-01-25,16.58,16.77,16.58,16.77,5100,14.85
2010-01-27,16.65,16.65,16.65,16.65,200,14.74
2010-01-28,16.72,16.72,16.66,16.66,1400,14.75
2010-01-29,16.35,16.65,16.35,16.65,12600,14.74
2010-02-01,16.55,16.63,16.45,16.55,20100,14.65
2010-02-02,16.96,16.96,16.96,16.96,0,15.02
2010-02-03,16.96,16.96,16.96,16.96,0,15.02
2010-02-04,17.24,17.24,17.08,17.08,1700,15.12
2010-02-05,16.88,17.21,16.88,16.97,13100,15.03
2010-02-08,16.97,16.97,16.97,16.97,500,15.03
2010-02-09,16.7,17.01,16.7,17.01,6300,15.06
2010-02-10,16.91,16.91,16.88,16.9,10000,14.96
2010-02-11,16.89,16.89,16.89,16.89,500,14.96
2010-02-12,16.89,16.89,16.89,16.89,0,14.96
2010-02-15,16.89,16.89,16.89,16.89,0,14.96
2010-02-16,16.9,16.98,16.9,16.98,1000,15.04
2010-02-17,17.06,17.1,17.05,17.1,13000,15.14
2010-02-18,17.11,17.11,16.97,17.09,9400,15.13
2010-02-19,16.93,16.93,16.76,16.76,1000,14.84
2010-02-22,16.9,16.9,16.9,16.9,0,14.96
2010-02-23,16.87,17.01,16.87,16.97,11400,15.03
2010-02-24,16.94,17.12,16.94,17.12,5100,15.16
2010-02-25,17.1,17.22,17.1,17.22,1400,15.25
2010-02-26,17.34,17.34,17.34,17.34,1000,15.35
2010-03-01,17.3,17.42,17.3,17.42,1500,15.43
2010-03-02,17.47,17.48,17.33,17.48,11200,15.48
2010-03-03,17.47,17.47,17.37,17.37,1500,15.38
2010-03-04,17.4,17.4,17.34,17.34,2000,15.35
2010-03-05,17.46,17.57,17.46,17.57,10700,15.56
2010-03-08,17.47,17.47,17.47,17.47,100,15.47
2010-03-09,17.47,17.47,17.47,17.47,0,15.47
2010-03-10,17.53,17.53,17.53,17.53,1200,15.52
2010-03-11,17.5,17.53,17.5,17.53,4800,15.52
2010-03-12,17.55,17.55,17.55,17.55,300,15.54
2010-03-15,17.57,17.57,17.57,17.57,700,15.56
2010-03-16,17.68,17.68,17.68,17.68,100,15.66
2010-03-17,17.54,17.77,17.54,17.77,300,15.74
2010-03-18,17.75,17.75,17.75,17.75,400,15.72
2010-03-19,17.75,17.75,17.75,17.75,0,15.72
2010-03-22,17.75,17.75,17.75,17.75,0,15.72
2010-03-23,17.7,17.7,17.7,17.7,0,15.67
2010-03-24,17.76,17.76,17.76,17.76,0,15.73
2010-03-25,17.76,17.76,17.76,17.76,0,15.73
2010-03-26,17.82,17.82,17.82,17.82,0,15.78
2010-03-29,18.07,18.07,18.07,18.07,0,16.0
2010-03-30,17.84,17.84,17.84,17.84,0,15.8
2010-03-31,18.09,18.09,18.09,18.09,0,16.02
2010-04-01,17.73,17.96,17.73,17.96,700,15.9
2010-04-06,18.2,18.2,17.96,17.96,8200,15.9
2010-04-07,17.87,17.99,17.81,17.99,2400,15.93
2010-04-08,17.91,17.91,17.76,17.77,500,15.74
2010-04-09,17.97,17.97,17.97,17.97,1400,15.91
2010-04-12,17.91,17.94,17.91,17.94,1500,15.89
2010-04-13,17.94,17.94,17.94,17.94,0,15.89
2010-04-14,17.94,17.94,17.94,17.94,0,15.89
2010-04-15,17.94,17.94,17.94,17.94,0,15.89
2010-04-16,17.8,17.8,17.74,17.74,200,15.71
2010-04-19,17.68,17.68,17.68,17.68,5000,15.66
2010-04-20,17.65,17.7,17.61,17.61,10000,15.59
2010-04-21,17.55,17.55,17.55,17.55,2000,15.54
2010-04-22,17.5,17.5,17.5,17.5,1500,15.5
2010-04-23,17.47,17.5,17.47,17.5,2600,15.5
2010-04-27,17.34,17.34,17.31,17.31,800,15.33
2010-04-28,17.17,17.33,17.17,17.33,2100,15.35
2010-04-29,17.23,17.23,17.23,17.23,1400,15.26
2010-04-30,17.06,17.06,17.06,17.06,2000,15.11
2010-05-03,17.0,17.0,17.0,17.0,600,15.05
2010-05-04,16.92,16.92,16.92,16.92,900,14.98
2010-05-05,16.9,16.9,16.65,16.9,8800,14.96
2010-05-06,16.87,16.87,16.85,16.85,2300,14.92
2010-05-07,16.54,16.99,16.54,16.95,3400,15.01
2010-05-10,16.88,16.88,16.79,16.85,7400,14.92
2010-05-11,17.0,17.0,17.0,17.0,100,15.05
2010-05-12,17.0,17.0,17.0,17.0,0,15.05
2010-05-13,17.0,17.0,17.0,17.0,0,15.05
2010-05-14,16.92,17.09,16.92,17.09,500,15.13
2010-05-17,17.09,17.09,17.09,17.09,0,15.13
2010-05-18,17.0,17.0,17.0,17.0,100,15.05
2010-05-19,17.0,17.1,17.0,17.1,10000,15.14
2010-05-20,17.1,17.1,17.1,17.1,0,15.14
2010-05-21,17.31,17.75,17.31,17.75,2600,15.72
2010-05-24,17.6,17.9,17.6,17.9,4800,15.85
2010-05-25,17.9,17.9,17.9,17.9,0,15.85
2010-05-26,17.52,17.52,17.52,17.52,100,15.51
2010-05-27,17.52,17.52,17.5,17.5,0,15.5
2010-05-28,17.47,17.47,17.47,17.47,1400,15.47
2010-05-31,17.57,17.57,17.51,17.51,100,15.5
2010-06-01,17.45,17.64,17.45,17.51,2300,15.5
2010-06-02,17.51,17.51,17.51,17.51,0,15.5
2010-06-03,17.59,17.59,17.59,17.59,22000,15.58
2010-06-04,17.67,17.68,17.66,17.68,0,15.66
2010-06-07,17.75,17.75,17.75,17.75,3000,15.72
2010-06-08,17.79,17.79,17.79,17.79,100,15.75
2010-06-09,17.79,17.79,17.79,17.79,0,15.75
2010-06-10,17.79,17.79,17.79,17.79,0,15.75
2010-06-11,17.79,17.79,17.79,17.79,0,15.75
2010-06-15,17.53,17.53,17.53,17.53,200,15.52
2010-06-16,17.8,17.8,17.77,17.77,900,15.74
2010-06-17,17.72,17.72,17.61,17.61,6600,15.59
2010-06-18,17.73,17.73,17.57,17.57,27500,15.56
2010-06-21,17.89,17.89,17.89,17.89,5000,15.84
2010-06-22,18.03,18.1,18.03,18.1,200,16.03
2010-06-23,18.04,18.05,18.04,18.04,0,15.97
2010-06-24,17.55,17.77,17.55,17.77,700,15.74
2010-06-25,17.77,17.77,17.77,17.77,0,15.74
2010-06-28,17.65,17.65,17.6,17.63,100,15.61
2010-06-29,17.54,17.59,17.54,17.59,0,15.58
2010-06-30,17.7,17.7,17.64,17.66,0,15.64
2010-07-01,17.66,17.66,17.66,17.66,0,15.64
2010-07-02,17.67,17.7,17.58,17.59,500,15.58
2010-07-05,17.67,17.72,17.59,17.59,100,15.58
2010-07-06,17.66,17.83,17.63,17.83,5300,15.79
2010-07-07,17.83,17.83,17.83,17.83,0,15.79
2010-07-08,17.83,17.83,17.83,17.83,0,15.79
2010-07-09,17.25,17.25,17.25,17.25,500,15.27
2010-07-12,17.5,17.5,17.5,17.5,1000,15.5
2010-07-13,17.5,17.5,17.5,17.5,0,15.5
2010-07-14,17.5,17.5,17.5,17.5,0,15.5
2010-07-15,17.4,17.56,17.4,17.56,200,15.55
2010-07-16,17.45,17.47,17.39,17.45,0,15.45
2010-07-19,17.45,17.45,17.45,17.45,0,15.45
2010-07-20,17.3,17.56,17.3,17.5,4100,15.5
2010-07-21,17.5,17.5,17.5,17.5,0,15.5
2010-07-22,17.4,17.4,17.4,17.4,900,15.41
2010-07-23,17.58,17.58,17.58,17.58,0,15.57
2010-07-26,17.58,17.58,17.58,17.58,0,15.57
2010-07-27,17.66,17.66,17.38,17.38,8000,15.39
2010-07-28,17.38,17.38,17.38,17.38,0,15.39
2010-07-29,17.38,17.38,17.38,17.38,0,15.39
2010-07-30,17.6,17.69,17.59,17.69,17800,15.66
2010-08-02,17.56,17.56,17.56,17.56,0,15.55
2010-08-03,17.81,17.81,17.81,17.81,0,15.77
2010-08-04,17.81,17.81,17.81,17.81,0,15.77
2010-08-05,17.81,17.81,17.81,17.81,0,15.77
2010-08-06,17.83,17.83,17.83,17.83,0,15.79
2010-08-09,18.03,18.03,18.03,18.03,0,15.97
2010-08-10,18.1,18.15,18.08,18.1,200,16.03
2010-08-11,18.08,18.08,18.08,18.08,500,16.01
2010-08-12,18.1,18.1,18.1,18.1,5000,16.03
2010-08-13,18.1,18.1,18.1,18.1,3500,16.03
2010-08-17,17.94,17.94,17.82,17.82,200,15.78
2010-08-18,17.97,18.08,17.9,17.95,1200,15.89
2010-08-19,18.15,18.15,18.15,18.15,4000,16.07
2010-08-20,17.99,18.12,17.99,18.07,1200,16.0
2010-08-23,18.23,18.23,18.13,18.15,200,16.07
2010-08-24,17.82,17.82,17.82,17.82,0,15.78
2010-08-25,17.82,17.82,17.82,17.82,100,15.78
2010-08-26,17.82,17.82,17.82,17.82,0,15.78
2010-08-27,18.0,18.0,18.0,18.0,0,15.94
2010-08-30,18.0,18.0,18.0,18.0,0,15.94
2010-08-31,17.95,17.95,17.82,17.95,1700,15.89
2010-09-01,17.9,17.9,17.9,17.9,200,15.85
2010-09-02,18.03,18.03,18.0,18.0,5800,15.94
2010-09-06,17.97,18.0,17.97,18.0,100,15.94
2010-09-07,18.22,18.41,18.22,18.41,400,16.3
2010-09-13,18.24,18.31,18.17,18.31,16800,16.21
2010-09-14,18.34,18.34,18.22,18.34,1000,16.24
2010-09-15,18.31,18.31,18.31,18.31,200,16.21
2010-09-16,18.45,18.45,18.45,18.45,500,16.34
2010-09-17,18.36,18.36,18.36,18.36,2000,16.26
2010-09-20,18.61,18.61,18.6,18.6,100,16.47
2010-09-21,18.59,18.59,18.59,18.59,100,16.46
2010-09-22,18.59,18.59,18.59,18.59,100,16.46
2010-09-23,18.47,18.47,18.47,18.47,600,16.35
2010-09-24,18.58,18.7,18.58,18.7,7400,16.56
2010-09-27,19.0,19.0,19.0,19.0,300,16.82
2010-09-28,18.83,18.83,18.83,18.83,200,16.67
2010-09-29,18.6,18.76,18.6,18.66,3300,16.52
2010-10-01,18.7,18.7,18.7,18.7,500,16.56
2010-10-04,18.73,19.02,18.73,19.02,500,16.84
2010-10-06,19.0,19.21,19.0,19.12,500,16.93
2010-10-08,18.99,19.0,18.99,18.99,1100,16.82
2010-10-11,19.2,19.26,19.2,19.25,300,17.05
2010-10-13,19.4,19.4,19.18,19.19,2700,16.99
2010-10-14,19.29,19.29,19.2,19.22,1100,17.02
2010-10-20,19.52,19.52,19.45,19.45,5000,17.22
2010-10-21,19.44,19.44,19.19,19.19,100,16.99
2010-10-22,19.39,19.39,19.39,19.39,400,17.17
2010-10-25,19.38,19.38,19.35,19.37,1100,17.15
2010-10-26,19.31,19.31,19.31,19.31,500,17.1
2010-10-29,19.07,19.07,18.91,18.91,0,16.74
2010-11-01,19.13,19.13,19.11,19.13,6200,16.94
2010-11-02,19.48,19.48,19.23,19.25,100,17.05
2010-11-03,19.5,19.5,19.5,19.5,100,17.27
2010-11-05,19.84,19.84,19.72,19.72,11700,17.46
2010-11-08,19.84,19.84,19.84,19.84,200,17.57
2010-11-09,19.99,19.99,19.85,19.98,5800,17.69
2010-11-10,19.84,20.0,19.84,20.0,0,17.71
2010-11-11,20.01,20.06,20.01,20.06,700,17.76
2010-11-12,19.86,20.12,19.86,20.12,0,17.82
2010-11-15,19.91,20.1,19.91,20.1,1300,17.8
2010-11-16,19.94,19.98,19.92,19.96,100,17.67
2010-11-17,19.85,19.85,19.8,19.8,5600,17.53
2010-11-19,19.75,19.75,19.56,19.56,700,17.32
2010-11-22,19.5,19.5,19.5,19.5,0,17.27
2010-11-23,19.31,19.31,19.19,19.21,1000,17.01
2010-11-24,19.3,19.35,19.28,19.34,1600,17.13
2010-11-25,19.46,19.5,19.46,19.48,0,17.25
2010-11-26,19.29,19.41,19.29,19.4,600,17.18
2010-12-01,19.73,19.73,19.73,19.73,0,17.47
2010-12-02,20.0,20.14,20.0,20.06,600,17.76
2010-12-03,19.92,19.92,19.92,19.92,200,17.64
2010-12-07,19.51,19.51,19.51,19.51,1100,17.28
2010-12-08,19.64,19.76,19.64,19.76,1000,17.5
2010-12-09,19.4,19.49,19.4,19.49,5600,17.26
2010-12-10,19.53,19.53,19.38,19.39,1300,17.17
2010-12-13,19.6,19.6,19.6,19.6,100,17.36
2010-12-14,19.39,19.43,19.39,19.41,300,17.19
2010-12-15,19.4,19.4,19.4,19.4,400,17.18
2010-12-16,19.25,19.25,19.25,19.25,500,17.05
2010-12-17,18.93,19.03,18.93,19.01,6300,16.83
2010-12-20,19.19,19.19,18.96,18.98,25000,16.81
2010-12-21,18.98,18.98,18.98,18.98,200,16.81
2010-12-22,19.04,19.04,19.04,19.04,5000,16.86
2010-12-23,18.98,19.09,18.98,19.0,200,16.82
2010-12-24,18.88,18.88,18.88,18.88,0,16.72
2010-12-29,18.66,18.74,18.47,18.74,800,16.59
2011-01-04,19.12,19.45,19.12,19.45,5700,17.22
2011-01-07,20.05,20.05,20.05,20.05,200,17.75
2011-01-10,19.77,19.88,19.77,19.83,1000,17.56
2011-01-11,19.75,19.75,19.75,19.75,0,17.49
2011-01-12,20.27,20.27,20.21,20.21,1000,17.9
2011-01-13,20.01,20.01,20.01,20.01,100,17.72
2011-01-14,19.95,19.99,19.86,19.99,700,17.7
2011-01-17,20.11,20.12,20.11,20.12,0,17.82
2011-01-18,20.07,20.14,20.07,20.14,6100,17.83
2011-01-19,19.99,19.99,19.91,19.92,0,17.64
2011-01-20,20.0,20.0,19.93,19.93,800,17.65
2011-01-21,20.13,20.13,20.06,20.13,100,17.82
2011-01-24,19.86,19.96,19.86,19.96,0,17.67
2011-01-25,19.86,19.87,19.83,19.87,16000,17.59
2011-01-27,19.74,19.85,19.64,19.85,800,17.58
2011-01-28,19.76,19.76,19.76,19.76,1200,17.5
2011-02-02,19.2,19.2,19.2,19.2,2500,17.0
2011-02-03,19.24,19.37,19.24,19.37,1400,17.15
2011-02-04,19.11,19.23,19.11,19.23,500,17.03
2011-02-07,19.45,19.45,19.45,19.45,100,17.22
2011-02-08,19.25,19.25,18.89,18.92,900,16.75
2011-02-09,18.91,18.91,18.69,18.78,2600,16.63
2011-02-11,18.4,18.4,18.32,18.32,2200,16.22
2011-02-14,18.65,18.65,18.5,18.65,1800,16.51
2011-02-15,18.59,18.59,18.59,18.59,300,16.46
2011-02-17,18.65,18.65,18.5,18.56,1300,16.43
2011-02-21,18.53,18.63,18.53,18.6,500,16.47
2011-02-23,18.26,18.42,18.26,18.42,2600,16.31
2011-02-28,18.05,18.14,18.05,18.07,500,16.0
2011-03-01,18.35,18.5,18.35,18.5,400,16.38
2011-03-02,18.35,18.38,18.35,18.38,600,16.28
2011-03-03,18.25,18.39,18.25,18.39,1100,16.28
2011-03-04,18.61,18.61,18.61,18.61,0,16.48
2011-03-07,18.47,18.47,18.47,18.47,300,16.35
2011-03-08,18.42,18.57,18.4,18.57,10200,16.44
2011-03-09,18.89,18.91,18.89,18.91,100,16.74
2011-03-10,18.96,18.96,18.83,18.93,800,16.76
2011-03-11,18.8,18.8,18.68,18.68,5000,16.54
2011-03-14,18.45,18.45,18.4,18.4,4700,16.29
2011-03-15,18.42,18.42,17.86,17.86,13400,15.81
2011-03-21,18.1,18.16,18.07,18.14,1800,16.06
2011-03-25,18.2,18.2,18.15,18.15,3000,16.07
2011-03-28,18.15,18.15,17.88,18.02,400,15.96
2011-03-29,18.0,18.0,18.0,18.0,0,15.94
2011-03-30,18.18,18.18,18.18,18.18,0,16.1
2011-03-31,18.29,18.29,18.19,18.22,16900,16.13
2011-04-04,18.36,18.54,18.36,18.54,5300,16.42
2011-04-07,18.79,18.79,18.79,18.79,10000,16.64
2011-04-08,18.52,18.52,18.46,18.5,500,16.38
2011-04-11,18.5,18.5,18.5,18.5,500,16.38
2011-04-12,18.47,18.53,18.47,18.53,100,16.41
2011-04-13,18.36,18.54,18.33,18.54,10900,16.42
2011-04-15,18.45,18.45,18.45,18.45,900,16.34
2011-04-18,18.58,18.61,18.53,18.53,11000,16.41
2011-04-19,18.4,18.4,18.29,18.29,1200,16.2
2011-04-21,18.08,18.08,18.08,18.08,2500,16.01
2011-04-27,17.93,17.93,17.93,17.93,100,15.88
2011-04-28,17.81,17.81,17.81,17.81,300,15.77
2011-04-29,17.74,17.74,17.62,17.62,500,15.6
2011-05-02,17.7,17.7,17.7,17.7,0,15.67
2011-05-04,17.68,17.68,17.68,17.68,1700,15.66
2011-05-06,17.64,17.64,17.64,17.64,0,15.62
2011-05-09,17.8,17.88,17.8,17.88,900,15.83
2011-05-12,17.92,17.92,17.92,17.92,300,15.87
2011-05-17,17.8,17.94,17.8,17.94,800,15.89
2011-05-19,17.96,18.05,17.96,17.97,6400,15.91
2011-05-25,17.8,17.8,17.8,17.8,1000,15.76
2011-05-26,17.79,17.85,17.79,17.85,500,15.81
2011-05-27,17.66,17.66,17.66,17.66,300,15.64
2011-05-30,17.69,17.69,17.69,17.69,100,15.66
2011-05-31,17.98,18.0,17.98,18.0,1100,15.94
2011-06-08,17.62,17.62,17.62,17.62,1600,15.6
2011-06-09,17.63,17.63,17.63,17.63,500,15.61
2011-06-14,17.62,17.62,17.62,17.62,0,15.6
2011-06-15,17.36,17.36,17.36,17.36,500,15.37
2011-06-16,17.33,17.33,17.33,17.33,2900,15.35
2011-06-17,17.19,17.19,17.19,17.19,500,15.22
2011-06-20,17.14,17.14,17.14,17.14,0,15.18
2011-06-22,17.1,17.1,17.09,17.09,1000,15.13
2011-06-23,16.83,16.83,16.83,16.83,200,14.9
2011-06-24,17.15,17.15,17.15,17.15,0,15.19
2011-06-27,17.05,17.2,17.05,17.2,0,15.23
2011-06-28,17.17,17.17,17.17,17.17,500,15.2
2011-06-29,17.18,17.18,17.18,17.18,200,15.21
2011-06-30,17.01,17.1,17.01,17.1,1100,15.14
2011-07-05,17.52,17.52,17.49,17.49,10300,15.49
2011-07-13,17.06,17.06,17.06,17.06,0,15.11
2011-07-14,16.85,16.85,16.85,16.85,0,14.92
2011-07-15,16.87,16.87,16.87,16.87,0,14.94
2011-07-18,17.15,17.15,17.01,17.01,0,15.06
2011-07-19,17.02,17.02,17.02,17.02,100,15.07
2011-07-20,16.97,16.97,16.97,16.97,1100,15.03
2011-07-21,16.9,16.91,16.9,16.91,1700,14.97
2011-07-25,17.03,17.03,17.03,17.03,1100,15.08
2011-07-28,16.92,16.92,16.92,16.92,100,14.98
2011-08-01,17.23,17.23,17.23,17.23,5000,15.26
2011-08-02,17.29,17.29,17.29,17.29,600,15.31
2011-08-03,17.29,17.29,17.29,17.29,0,15.31
2011-08-04,17.27,17.27,17.27,17.27,0,15.29
2011-08-05,17.07,17.1,16.63,16.78,5400,14.86
2011-08-08,16.0,16.0,16.0,16.0,300,14.17
2011-08-09,15.95,16.34,15.95,16.2,8100,14.34
2011-08-10,16.44,16.47,16.3,16.3,1000,14.43
2011-08-12,16.32,16.32,16.32,16.32,500,14.45
2011-08-16,16.39,16.41,16.31,16.31,1900,14.44
2011-08-22,16.0,16.0,16.0,16.0,100,14.17
2011-08-23,15.99,15.99,15.99,15.99,0,14.16
2011-08-24,16.1,16.1,16.05,16.07,1400,14.23
2011-08-26,16.15,16.15,16.03,16.03,1800,14.19
2011-08-29,16.1,16.1,16.1,16.1,1200,14.26
2011-08-30,16.19,16.19,16.19,16.19,300,14.34
2011-08-31,16.21,16.21,16.21,16.21,5000,14.35
2011-09-05,16.0,16.0,16.0,16.0,2300,14.17
2011-09-06,15.83,15.83,15.83,15.83,0,14.02
2011-09-07,16.14,16.14,16.14,16.14,2100,14.29
2011-09-12,15.94,16.04,15.94,16.04,20000,14.2
2011-09-15,16.05,16.05,16.05,16.05,700,14.21
2011-09-16,16.1,16.1,16.09,16.09,5800,14.25
2011-09-21,15.73,15.73,15.73,15.73,100,13.93
2011-09-23,15.5,15.5,15.47,15.47,1200,13.7
2011-09-28,15.25,15.25,15.25,15.25,0,13.5
2011-09-30,15.35,15.36,15.16,15.16,2200,13.42
2011-10-04,14.68,14.77,14.67,14.7,18000,13.02
2011-10-05,14.51,14.51,14.47,14.47,200,12.81
2011-10-06,14.58,14.6,14.58,14.6,10000,12.93
2011-10-10,15.36,15.37,15.27,15.27,7000,13.52
2011-10-11,15.48,15.48,15.48,15.48,0,13.71
2011-10-12,15.47,15.47,15.45,15.45,8000,13.68
2011-10-18,15.45,15.45,15.45,15.45,0,13.68
2011-10-19,15.24,15.24,15.24,15.24,0,13.49
2011-10-20,15.06,15.06,15.06,15.06,400,13.34
2011-10-27,15.44,15.45,15.44,15.45,400,13.68
2011-10-28,15.66,15.66,15.66,15.66,200,13.87
2011-10-31,15.66,15.76,15.66,15.76,300,13.96
2011-11-01,15.2,15.38,15.2,15.38,20800,13.62
2011-11-02,15.8,15.82,15.64,15.64,44500,13.85
2011-11-03,16.14,16.15,15.9,15.94,25200,14.11
2011-11-04,16.06,16.06,15.88,15.88,11200,14.06
2011-11-07,15.96,15.96,15.96,15.96,5000,14.13
2011-11-08,16.13,16.13,16.04,16.08,12900,14.24
2011-11-09,16.3,16.3,16.11,16.11,2000,14.27
2011-11-11,15.8,15.8,15.8,15.8,0,13.99
2011-11-14,15.67,15.67,15.67,15.67,0,13.88
2011-11-15,15.72,15.72,15.72,15.72,2000,13.92
2011-11-16,15.91,15.91,15.72,15.72,200,13.92
2011-11-17,15.43,15.43,15.43,15.43,100,13.66
2011-11-21,15.36,15.36,15.36,15.36,200,13.6
2011-11-24,15.52,15.52,15.52,15.52,0,13.74
2011-11-25,15.43,15.6,15.43,15.6,100,13.81
2011-11-28,15.41,15.53,15.41,15.52,10000,13.74
2011-12-01,15.65,15.65,15.65,15.65,2500,13.86
2011-12-05,15.65,15.65,15.65,15.65,400,13.86
2011-12-06,15.53,15.53,15.53,15.53,200,13.75
2011-12-09,15.4,15.41,15.4,15.41,1100,13.65
2011-12-16,15.34,15.34,15.34,15.34,0,13.58
2011-12-20,15.31,15.36,15.31,15.36,45800,13.6
2011-12-22,15.19,15.19,15.19,15.19,0,13.45
2011-12-28,15.19,15.19,15.19,15.19,0,13.45
2012-01-03,15.35,15.35,15.35,15.35,300,13.59
2012-01-09,15.03,15.03,15.03,15.03,500,13.31
2012-01-10,15.27,15.27,15.27,15.27,200,13.52
2012-01-17,15.37,15.37,15.37,15.37,0,13.61
2012-01-18,15.46,15.47,15.43,15.47,1500,13.7
2012-01-19,15.66,15.66,15.66,15.66,200,13.87
2012-02-06,16.03,16.03,15.66,15.66,5100,13.87
2012-02-09,15.67,16.0,15.67,15.96,4500,14.13
2012-02-10,16.05,16.09,16.03,16.09,16500,14.25
2012-02-13,16.08,16.08,16.08,16.08,200,14.24
2012-02-16,16.72,16.72,16.72,16.72,0,14.81
2012-02-20,16.68,16.68,16.68,16.68,0,14.77
2012-02-21,16.78,16.78,16.78,16.78,5000,14.86
2012-02-22,16.79,16.79,16.79,16.79,0,14.87
2012-02-23,16.72,16.72,16.72,16.72,100,14.81
2012-02-24,16.79,16.79,16.79,16.79,200,14.87
2012-02-27,16.92,16.96,16.92,16.96,12400,15.02
2012-02-28,16.67,16.78,16.67,16.78,1900,14.86
2012-02-29,16.92,16.92,16.92,16.92,400,14.98
2012-03-01,17.05,17.05,17.05,17.05,1400,15.1
2012-03-05,16.94,16.94,16.94,16.94,5000,15.0
2012-03-06,16.86,16.86,16.86,16.86,4000,14.93
2012-03-07,16.54,16.66,16.54,16.66,5300,14.75
2012-03-08,16.75,16.75,16.75,16.75,100,14.83
2012-03-09,16.85,16.85,16.85,16.85,1700,14.92
2012-03-12,16.88,16.88,16.81,16.81,300,14.89
2012-03-14,17.38,17.45,17.38,17.45,5400,15.45
2012-03-15,17.43,17.82,17.35,17.35,16000,15.36
2012-03-16,17.17,17.36,17.17,17.36,100,15.37
2012-03-19,17.11,17.11,17.11,17.11,800,15.15
2012-03-21,17.07,17.07,17.07,17.07,400,15.12
2012-03-23,16.99,16.99,16.99,16.99,1200,15.04
2012-03-26,16.74,16.74,16.74,16.74,300,14.82
2012-03-28,17.11,17.23,17.11,17.19,10300,15.22
2012-03-30,16.8,16.89,16.8,16.88,8000,14.95
2012-04-02,16.87,16.87,16.87,16.87,1100,14.94
2012-04-03,16.87,16.87,16.87,16.87,600,14.94
2012-04-05,16.9,16.98,16.9,16.98,300,15.04
2012-04-13,16.86,16.86,16.86,16.86,4000,14.93
2012-04-16,16.76,16.76,16.76,16.76,3000,14.84
2012-04-23,17.04,17.04,17.04,17.04,0,15.09
2012-04-24,16.86,16.86,16.86,16.86,500,14.93
2012-04-26,16.97,16.98,16.97,16.98,3600,15.04
2012-04-27,16.97,16.97,16.97,16.97,4000,15.03
2012-04-30,16.88,16.88,16.88,16.88,0,14.95
2012-05-02,17.29,17.29,17.29,17.29,1000,15.31
2012-05-04,17.29,17.29,17.22,17.22,1900,15.25
2012-05-08,17.0,17.0,17.0,17.0,0,15.05
2012-05-09,16.95,16.95,16.95,16.95,5600,15.01
2012-05-11,16.76,16.76,16.62,16.62,400,14.72
2012-05-14,16.81,16.81,16.81,16.81,0,14.89
2012-05-16,16.47,16.47,16.47,16.47,0,14.58
2012-05-18,16.07,16.07,16.07,16.07,2900,14.23
2012-06-01,16.27,16.27,16.27,16.27,500,14.41
2012-06-04,16.03,16.03,16.03,16.03,1000,14.19
2012-06-05,16.06,16.06,16.0,16.0,63400,14.17
2012-06-06,16.07,16.07,16.07,16.07,100,14.23
2012-06-12,16.24,16.27,16.24,16.27,1000,14.41
2012-06-18,16.38,16.38,16.38,16.38,0,14.5
2012-06-19,16.26,16.26,16.14,16.14,1500,14.29
2012-06-22,15.82,15.82,15.82,15.82,2000,14.28
2012-06-25,15.85,15.85,15.85,15.85,0,14.31
2012-06-26,15.84,15.84,15.84,15.84,0,14.3
2012-06-27,15.87,15.87,15.87,15.87,200,14.33
2012-06-28,15.89,15.89,15.84,15.84,1600,14.3
2012-07-02,16.1,16.1,16.1,16.1,1000,14.53
2012-07-11,16.04,16.04,16.04,16.04,400,14.48
2012-07-12,16.18,16.18,16.18,16.18,0,14.61
2012-07-13,16.12,16.14,16.07,16.07,3100,14.51
2012-07-16,16.03,16.1,15.93,15.93,500,14.38
2012-07-17,16.5,16.5,16.5,16.5,0,14.9
2012-07-19,16.1,16.16,16.1,16.16,1300,14.59
2012-07-20,16.1,16.1,16.1,16.1,0,14.53
2012-07-23,15.99,16.0,15.99,16.0,16100,14.44
2012-07-30,15.87,15.87,15.87,15.87,3800,14.33
2012-08-02,16.11,16.11,16.03,16.03,1400,14.47
2012-08-03,15.9,15.9,15.85,15.85,5200,14.31
2012-08-06,16.1,16.1,16.09,16.09,5500,14.53
2012-08-08,16.29,16.33,16.29,16.33,1300,14.74
2012-08-14,16.28,16.28,16.28,16.28,1700,14.7
2012-08-15,16.3,16.3,16.3,16.3,8700,14.72
2012-08-21,16.36,16.36,16.36,16.36,1400,14.77
2012-08-28,16.44,16.44,16.44,16.44,0,14.84
2012-09-03,16.44,16.44,16.44,16.44,0,14.84
2012-09-04,16.44,16.57,16.44,16.54,800,14.93
2012-09-07,16.45,16.45,16.45,16.45,400,14.85
2012-09-10,16.73,16.73,16.73,16.73,100,15.1
2012-09-17,17.2,17.27,17.2,17.27,500,15.59
2012-09-18,17.35,17.35,17.35,17.35,0,15.66
2012-09-21,17.35,17.35,17.35,17.35,500,15.66
2012-09-24,17.35,17.35,17.35,17.35,0,15.66
2012-09-25,17.26,17.26,17.26,17.26,0,15.58
2012-09-27,17.35,17.35,17.33,17.33,500,15.65
2012-10-01,17.36,17.36,17.36,17.36,0,15.67
2012-10-02,17.57,17.7,17.57,17.7,12600,15.98
2012-10-03,17.86,17.99,17.86,17.98,1000,16.23
2012-10-05,17.98,17.98,17.98,17.98,0,16.23
2012-10-08,18.09,18.12,18.09,18.12,2600,16.36
2012-10-09,18.0,18.0,18.0,18.0,700,16.25
2012-10-10,17.93,17.93,17.93,17.93,400,16.19
2012-10-11,17.8,17.8,17.8,17.8,400,16.07
2012-10-15,17.79,17.79,17.79,17.79,3800,16.06
2012-10-16,17.81,17.83,17.81,17.83,3900,16.1
2012-10-17,17.79,17.79,17.79,17.79,1200,16.06
2012-10-19,17.8,17.8,17.76,17.76,100,16.03
2012-10-22,17.69,17.86,17.69,17.8,5600,16.07
2012-10-23,17.96,17.96,17.96,17.96,200,16.21
2012-10-24,18.16,18.24,18.16,18.24,1900,16.47
2012-10-25,18.2,18.2,18.17,18.17,2500,16.4
2012-10-26,18.09,18.09,18.09,18.09,600,16.33
2012-10-29,17.89,17.89,17.8,17.8,2400,16.07
2012-11-01,18.01,18.01,18.01,18.01,1200,16.26
2012-11-02,18.15,18.15,18.15,18.15,500,16.39
2012-11-07,18.14,18.14,18.11,18.11,15800,16.35
2012-11-08,18.19,18.19,18.19,18.19,0,16.42
2012-11-13,18.2,18.2,18.2,18.2,100,16.43
2012-11-14,17.7,17.83,17.7,17.83,800,16.1
2012-11-15,17.8,17.83,17.7,17.83,300,16.1
2012-11-16,17.83,17.83,17.83,17.83,1200,16.1
2012-11-22,18.07,18.07,18.07,18.07,100,16.31
2012-11-23,18.16,18.37,18.16,18.37,600,16.58
2012-11-30,18.42,18.43,18.42,18.43,400,16.64
2012-12-03,18.26,18.44,18.26,18.44,1000,16.65
2012-12-11,18.45,18.45,18.29,18.29,0,16.51
2012-12-13,18.44,18.44,18.44,18.44,0,16.65
2012-12-17,18.44,18.44,18.44,18.44,7200,16.65
2012-12-18,18.34,18.34,18.22,18.34,3500,16.56
2012-12-19,18.22,18.22,18.22,18.22,300,16.56
2012-12-20,18.3,18.3,18.3,18.3,0,16.63
2012-12-21,18.0,18.0,18.0,18.0,0,16.36
2012-12-24,18.3,18.3,18.3,18.3,800,16.63
2012-12-28,18.5,18.5,18.5,18.5,0,16.82
2013-01-02,18.5,18.5,18.5,18.5,0,16.82
2013-01-03,18.72,18.72,18.72,18.72,500,17.02
2013-01-04,18.81,18.81,18.69,18.69,500,16.99
2013-01-08,18.75,18.75,18.75,18.75,0,17.04
2013-01-09,18.65,18.88,18.65,18.88,3000,17.16
2013-01-11,19.04,19.04,19.04,19.04,0,17.31
2013-01-14,18.85,18.85,18.85,18.85,0,17.13
2013-01-15,18.9,18.9,18.85,18.85,2100,17.13
2013-01-16,18.92,18.92,18.82,18.82,2600,17.11
2013-01-17,18.9,19.15,18.87,18.87,7800,17.15
2013-01-21,19.31,19.31,19.16,19.16,2100,17.42
2013-01-24,19.2,19.2,19.2,19.2,1600,17.45
2013-01-25,19.31,19.45,19.31,19.45,1600,17.68
2013-01-29,19.34,19.34,19.34,19.34,1500,17.58
2013-01-31,19.45,19.45,19.45,19.45,700,17.68
2013-02-04,19.45,19.45,19.45,19.45,300,17.68
2013-02-05,19.12,19.23,19.12,19.2,3300,17.45
2013-02-06,19.25,19.25,19.25,19.25,300,17.5
2013-02-07,19.37,19.37,19.29,19.29,2000,17.53
2013-02-11,19.7,19.7,19.7,19.7,0,17.91
2013-02-12,19.59,19.85,19.59,19.85,700,18.04
2013-02-13,19.49,19.74,19.49,19.74,1200,17.94
2013-02-14,19.4,19.5,19.4,19.5,1900,17.73
2013-02-15,19.5,19.5,19.5,19.5,200,17.73
2013-02-18,19.54,19.54,19.54,19.54,1300,17.76
2013-02-20,19.5,19.57,19.48,19.57,2100,17.79
2013-02-21,19.58,19.58,19.47,19.47,1200,17.7
2013-02-25,19.2,19.35,19.09,19.31,11900,17.55
2013-02-27,19.1,19.38,19.09,19.38,1800,17.62
2013-02-28,19.5,19.67,19.5,19.67,100,17.88
2013-03-01,19.81,19.81,19.62,19.62,3100,17.83
2013-03-05,19.4,19.4,19.4,19.4,1500,17.63
2013-03-07,19.5,19.5,19.5,19.5,100,17.73
2013-03-11,19.85,19.85,19.85,19.85,600,18.04
2013-03-14,19.0,19.0,19.0,19.0,1000,17.27
2013-03-15,19.22,19.22,19.22,19.22,0,17.47
2013-03-18,18.99,18.99,18.61,18.61,600,16.92
2013-03-19,18.64,18.64,18.64,18.64,300,16.94
2013-03-21,18.82,18.82,18.82,18.82,2600,17.11
2013-03-22,18.85,18.85,18.85,18.85,200,17.13
2013-03-26,18.5,18.69,18.5,18.69,500,16.99
2013-03-27,18.74,18.74,18.74,18.74,0,17.03
2013-03-28,18.86,18.86,18.86,18.86,1200,17.14
2013-04-04,18.9,18.9,18.81,18.81,3100,17.1
2013-04-08,18.66,18.66,18.66,18.66,1300,16.96
2013-04-09,18.6,18.6,18.56,18.56,2000,16.87
2013-04-12,18.7,18.7,18.7,18.7,1000,17.0
2013-04-16,18.78,18.83,18.78,18.83,1400,17.12
2013-04-17,18.89,18.89,18.89,18.89,1000,17.17
2013-04-19,19.03,19.04,18.99,18.99,1600,17.26
2013-04-22,19.15,19.15,19.15,19.15,0,17.41
2013-04-23,19.33,19.33,19.33,19.33,900,17.57
2013-04-29,19.63,19.69,19.63,19.69,1000,17.9
2013-04-30,19.8,19.8,19.8,19.8,1200,18.0
2013-05-01,19.81,19.81,19.81,19.81,0,18.01
2013-05-02,19.91,19.91,19.91,19.91,500,18.1
2013-05-06,19.98,19.98,19.9,19.9,800,18.09
2013-05-07,20.15,20.15,20.15,20.15,300,18.32
2013-05-08,20.47,20.47,20.29,20.29,300,18.44
2013-05-09,20.26,20.26,20.13,20.13,0,18.3
2013-05-10,20.55,20.55,20.45,20.45,5500,18.59
2013-05-13,20.67,20.7,20.67,20.67,1800,18.79
2013-05-15,20.87,20.99,20.86,20.99,2500,19.08
2013-05-16,20.95,20.97,20.95,20.97,300,19.06
2013-05-17,21.35,21.35,21.35,21.35,100,19.41
2013-05-20,21.52,21.52,21.46,21.46,1100,19.51
2013-05-21,21.55,21.55,21.43,21.43,0,19.48
2013-05-22,21.38,21.38,21.38,21.38,700,19.43
2013-05-23,21.61,21.61,21.61,21.61,200,19.64
2013-05-28,21.27,21.27,21.27,21.27,200,19.33
2013-05-29,21.28,21.28,21.28,21.28,100,19.34
2013-05-30,20.96,20.96,20.56,20.56,1200,18.69
2013-05-31,20.72,20.72,20.71,20.71,5000,18.82
2013-06-04,20.43,20.43,20.33,20.33,1700,18.48
2013-06-05,21.0,21.0,20.26,20.26,200,18.42
2013-06-12,20.17,20.17,20.17,20.17,400,18.33
2013-06-14,20.0,20.0,20.0,20.0,1500,18.18
2013-06-18,20.31,20.31,20.25,20.25,8600,18.41
2013-06-21,19.98,20.1,19.95,20.1,2700,18.27
2013-06-24,19.94,19.94,19.94,19.94,200,18.13
2013-06-25,19.6,19.6,19.6,19.6,3200,17.82
2013-06-26,19.94,19.94,19.94,19.94,0,18.13
2013-06-27,20.09,20.26,20.09,20.26,200,18.42
2013-07-01,20.14,20.14,20.14,20.14,1000,18.63
2013-07-02,20.14,20.14,20.14,20.14,0,18.63
2013-07-03,19.94,19.94,19.94,19.94,1000,18.44
2013-07-04,20.0,20.13,20.0,20.13,200,18.62
2013-07-08,20.17,20.17,20.17,20.17,300,18.65
2013-07-09,20.14,20.14,20.14,20.14,0,18.63
2013-07-11,20.27,20.34,20.26,20.34,15600,18.81
2013-07-16,20.65,20.65,20.55,20.55,1300,19.01
2013-07-18,20.43,20.43,20.43,20.43,400,18.89
2013-07-19,20.27,20.35,20.27,20.35,1200,18.82
2013-07-22,20.31,20.31,20.31,20.31,0,18.78
2013-07-25,20.98,20.98,20.98,20.98,100,19.4
2013-07-29,21.22,21.22,21.22,21.22,0,19.62
2013-07-30,21.07,21.07,21.07,21.07,100,19.49
2013-07-31,21.29,21.29,21.29,21.29,1100,19.69
2013-08-02,22.06,22.06,21.94,21.94,500,20.29
2013-08-05,21.95,22.06,21.95,22.06,200,20.4
2013-08-06,21.95,21.95,21.76,21.76,200,20.12
2013-08-08,21.38,21.38,21.38,21.38,1000,19.77
2013-08-09,21.07,21.07,21.07,21.07,2400,19.49
2013-08-13,21.55,21.55,21.48,21.48,300,19.87
2013-08-14,21.75,21.75,21.75,21.75,100,20.11
2013-08-15,21.6,21.68,21.55,21.55,1100,19.93
2013-08-19,21.21,21.24,21.21,21.24,2500,19.64
2013-08-20,21.37,21.37,21.37,21.37,300,19.76
2013-08-21,20.94,20.94,20.94,20.94,1000,19.37
2013-08-22,20.92,20.98,20.92,20.98,2500,19.4
2013-08-29,20.84,20.84,20.84,20.84,400,19.27
2013-09-02,21.34,21.34,21.34,21.34,1000,19.74
2013-09-03,21.55,21.55,21.51,21.51,700,19.89
2013-09-06,21.37,21.37,21.37,21.37,100,19.76
2013-09-09,21.34,21.34,21.34,21.34,1000,19.74
2013-09-16,21.15,21.15,21.15,21.15,100,19.56
2013-09-19,21.54,21.54,21.41,21.43,300,19.82
2013-09-23,21.61,21.61,21.61,21.61,400,19.99
2013-09-26,21.42,21.42,21.42,21.42,0,19.81
2013-09-30,21.68,21.68,21.68,21.68,300,20.05
2013-10-02,21.53,21.53,21.53,21.53,0,19.91
2013-10-09,21.33,21.5,21.33,21.5,900,19.88
2013-10-14,21.64,21.64,21.58,21.58,800,19.96
2013-10-15,21.52,21.52,21.52,21.52,1300,19.9
2013-10-17,21.45,21.5,21.45,21.5,1500,19.88
2013-10-18,21.34,21.34,21.34,21.34,0,19.74
2013-10-21,21.45,21.45,21.45,21.45,100,19.84
2013-10-22,21.35,21.35,21.35,21.35,1100,19.75
2013-10-25,21.24,21.26,21.19,21.26,3600,19.66
2013-10-29,21.29,21.34,21.15,21.15,2600,19.56
2013-10-31,21.64,21.64,21.64,21.64,1400,20.01
2013-11-01,21.52,21.52,21.52,21.52,400,19.9
2013-11-04,21.74,21.74,21.57,21.57,1300,19.95
2013-11-05,21.6,21.6,21.34,21.34,900,19.74
2013-11-07,21.27,21.32,21.21,21.32,800,19.72
2013-11-11,21.39,21.62,21.36,21.36,20100,19.75
2013-11-15,21.59,21.59,21.59,21.59,400,19.97
2013-11-18,21.64,21.64,21.64,21.64,500,20.01
2013-11-19,21.88,21.88,21.88,21.88,400,20.24
2013-11-22,22.3,22.37,22.3,22.37,900,20.69
2013-11-25,22.52,22.52,22.52,22.52,0,20.83
2013-11-28,22.98,22.98,22.75,22.75,400,21.04
2013-12-02,22.77,22.77,22.77,22.77,100,21.06
2013-12-09,22.72,22.72,22.72,22.72,400,21.01
2013-12-11,22.65,22.65,22.37,22.37,600,20.69
2013-12-16,22.71,22.76,22.71,22.76,900,21.05
2013-12-19,23.2,23.2,23.01,23.01,700,21.67
2013-12-20,22.74,22.74,22.74,22.74,0,21.41
2013-12-23,22.74,22.74,22.74,22.74,100,21.41
2013-12-31,22.88,23.0,22.88,23.0,300,21.66
2014-01-02,23.18,23.18,23.18,23.18,800,21.83
2014-01-06,22.37,22.39,22.37,22.39,800,21.09
2014-01-09,22.87,22.94,22.87,22.94,3700,21.6
2014-01-13,22.73,22.73,22.37,22.37,2400,21.07
2014-01-14,22.37,22.55,22.37,22.55,1300,21.24
2014-01-15,22.75,22.75,22.68,22.68,500,21.36
2014-01-16,22.96,22.96,22.96,22.96,100,21.62
2014-01-17,23.35,23.35,23.35,23.35,1100,21.99
2014-01-20,23.36,23.44,23.34,23.44,600,22.07
2014-01-21,23.37,23.37,23.27,23.27,1200,21.91
2014-01-22,23.12,23.12,23.07,23.07,700,21.73
2014-01-23,22.72,22.72,22.72,22.72,700,21.4
2014-01-29,22.18,22.18,22.03,22.03,1300,20.75
2014-01-31,21.77,21.81,21.77,21.79,300,20.52
2014-02-03,21.82,21.82,21.82,21.82,600,20.55
2014-02-05,21.39,21.39,21.3,21.3,1000,20.06
2014-02-06,21.05,21.05,21.05,21.05,1000,19.82
2014-02-07,21.42,21.45,21.34,21.34,600,20.1
2014-02-10,21.46,21.46,21.46,21.46,1300,20.21
2014-02-11,21.5,21.5,21.5,21.5,400,20.25
2014-02-12,21.61,21.61,21.61,21.61,200,20.35
2014-02-13,22.04,22.04,22.04,22.04,200,20.76
2014-02-18,21.56,21.56,21.56,21.56,200,20.3
2014-02-19,21.89,21.92,21.89,21.92,600,20.64
2014-02-20,22.05,22.05,21.94,21.94,2000,20.66
2014-02-21,21.94,21.94,21.94,21.94,0,20.66
2014-02-28,22.53,22.53,22.53,22.53,0,21.22
2014-03-03,22.53,22.53,22.51,22.51,1400,21.2
2014-03-07,22.34,22.34,22.34,22.34,900,21.04
2014-03-10,22.05,22.05,22.05,22.05,100,20.76
2014-03-12,22.06,22.17,22.06,22.17,1700,20.88
2014-03-13,21.9,21.9,21.9,21.9,500,20.62
2014-03-14,21.5,21.59,21.43,21.59,1900,20.33
2014-03-18,21.35,21.35,21.35,21.35,1800,20.11
2014-03-25,21.18,21.27,21.18,21.27,1300,20.03
2014-03-27,21.15,21.15,21.15,21.15,100,19.92
2014-04-01,21.36,21.36,21.36,21.36,7000,20.12
2014-04-03,22.24,22.24,22.24,22.24,1000,20.94
2014-04-04,22.32,22.32,22.32,22.32,1100,21.02
2014-04-07,22.09,22.09,21.9,21.9,200,20.62
2014-04-09,21.96,21.96,21.96,21.96,6500,20.68
2014-04-11,22.12,22.66,22.12,22.66,0,21.34
2014-04-15,22.5,22.5,22.31,22.31,1100,21.01
2014-04-17,22.3,22.3,22.3,22.3,0,21.0
2014-04-22,22.35,22.35,22.35,22.35,0,21.05
2014-04-23,22.38,22.38,22.38,22.38,300,21.08
2014-04-24,22.38,22.38,22.38,22.38,600,21.08
2014-04-28,21.9,21.9,21.9,21.9,800,20.62
2014-04-29,22.0,22.12,22.0,22.12,400,20.83
2014-05-01,21.98,21.98,21.98,21.98,200,20.7
2014-05-02,22.0,22.07,22.0,22.07,500,20.78
2014-05-05,22.07,22.07,22.07,22.07,0,20.78
2014-05-14,22.04,22.04,22.04,22.04,4000,20.76
2014-05-15,22.03,22.06,22.03,22.06,2100,20.77
2014-05-16,21.98,21.98,21.98,21.98,1400,20.7
2014-05-21,22.53,22.53,22.53,22.53,500,21.22
2014-05-23,22.75,22.75,22.75,22.75,0,21.42
2014-05-27,22.78,22.78,22.65,22.65,700,21.33
2014-05-28,22.62,22.62,22.62,22.62,1100,21.3
2014-06-02,22.89,22.89,22.89,22.89,800,21.56
2014-06-03,23.19,23.19,23.19,23.19,100,21.84
2014-06-04,23.1,23.1,23.1,23.1,2000,21.75
2014-06-10,22.65,22.65,22.65,22.65,900,21.33
2014-06-11,22.5,22.5,22.5,22.5,1000,21.19
2014-06-13,22.56,22.56,22.56,22.56,300,21.25
2014-06-16,22.6,22.6,22.6,22.6,800,21.28
2014-06-20,22.55,22.55,22.55,22.55,400,21.24
2014-06-24,22.09,22.3,22.09,22.3,600,21.0
2014-06-25,22.53,22.53,22.53,22.53,1000,21.77
2014-06-26,21.94,22.06,21.94,22.06,400,21.32
2014-06-27,22.2,22.2,22.05,22.18,3400,21.44
2014-07-01,22.23,22.23,22.21,22.21,1000,21.47
2014-07-03,22.63,22.63,22.63,22.63,0,21.87
2014-07-04,22.7,22.7,22.7,22.7,1200,21.94
2014-07-08,22.66,22.66,22.66,22.66,200,21.9
2014-07-09,22.32,22.35,22.32,22.35,1800,21.6
2014-07-10,22.35,22.35,22.34,22.34,1300,21.59
2014-07-14,22.38,22.38,22.31,22.32,3400,21.57
2014-07-15,22.45,22.45,22.45,22.45,0,21.7
2014-07-16,22.53,22.6,22.53,22.6,2000,21.84
2014-07-17,22.58,22.58,22.58,22.58,200,21.82
2014-07-21,22.53,22.53,22.41,22.5,1400,21.75
2014-07-23,23.0,23.0,23.0,23.0,300,22.23
2014-07-24,22.84,22.84,22.67,22.71,1600,21.95
2014-07-25,22.85,23.0,22.85,22.93,3100,22.16
2014-07-28,23.15,23.15,23.03,23.03,3200,22.26
2014-07-29,23.09,23.09,23.09,23.09,200,22.32
2014-08-04,23.55,23.57,23.55,23.57,6700,22.78
2014-08-05,23.59,23.59,23.29,23.29,3400,22.51
2014-08-06,23.01,23.44,23.01,23.39,1100,22.61
2014-08-07,23.42,23.45,23.21,23.45,2500,22.66
2014-08-08,23.39,23.41,23.35,23.4,7100,22.62
2014-08-11,23.5,23.5,23.5,23.5,200,22.71
2014-08-12,23.64,23.64,23.48,23.49,3600,22.7
2014-08-13,23.57,23.57,23.55,23.55,1000,22.76
2014-08-14,23.81,23.81,23.81,23.81,500,23.01
2014-08-15,23.72,23.72,23.72,23.72,100,22.92
2014-08-19,23.75,23.75,23.73,23.75,2300,22.95
2014-08-20,24.26,24.34,24.1,24.34,2900,23.52
2014-08-21,24.44,24.44,24.24,24.24,3500,23.43
2014-08-22,24.2,24.3,24.1,24.1,1700,23.29
2014-08-25,24.14,24.14,24.14,24.14,200,23.33
2014-08-26,24.17,24.18,24.17,24.18,1200,23.37
2014-08-27,24.15,24.15,23.95,23.95,1600,23.15
2014-08-28,23.86,23.86,23.86,23.86,300,23.06
2014-08-29,23.54,23.54,23.5,23.5,200,22.71
2014-09-01,23.63,23.63,23.63,23.63,400,22.84
2014-09-02,23.6,23.7,23.6,23.7,2100,22.91
2014-09-03,23.92,23.92,23.92,23.92,2500,23.12
2014-09-04,23.94,23.94,23.78,23.8,8000,23.0
2014-09-08,23.68,23.68,23.68,23.68,800,22.89
2014-09-09,23.84,23.84,23.84,23.84,1300,23.04
2014-09-10,23.9,23.9,23.85,23.85,1100,23.05
2014-09-11,23.87,23.89,23.85,23.86,12500,23.06
2014-09-12,23.9,24.06,23.9,24.06,5200,23.25
2014-09-15,24.16,24.21,24.05,24.21,5000,23.4
2014-09-16,23.82,23.97,23.82,23.96,7300,23.16
2014-09-17,23.85,23.85,23.82,23.82,1400,23.02
2014-09-18,23.9,23.9,23.82,23.82,9500,23.02
2014-09-19,23.87,23.91,23.83,23.91,3400,23.11
2014-09-22,23.76,23.76,23.76,23.76,0,22.96
2014-09-23,23.8,23.87,23.8,23.86,3500,23.06
2014-09-24,23.8,23.81,23.8,23.81,1600,23.01
2014-09-25,23.89,23.9,23.89,23.9,2000,23.1
2014-09-26,23.71,23.71,23.66,23.66,3000,22.87
2014-09-29,23.67,23.67,23.67,23.67,700,22.88
2014-09-30,23.4,23.4,23.3,23.3,800,22.52
2014-10-01,23.35,23.43,23.35,23.43,2000,22.64
2014-10-02,23.24,23.24,22.79,22.79,900,22.03
2014-10-03,22.69,23.05,22.69,23.05,5400,22.28
2014-10-06,23.61,23.77,23.61,23.76,14000,22.96
2014-10-07,23.76,23.94,23.76,23.94,4000,23.14
2014-10-08,23.63,23.64,23.59,23.59,8700,22.8
2014-10-09,23.73,23.82,23.73,23.75,5000,22.95
2014-10-10,23.86,23.88,23.86,23.88,5200,23.08
2014-10-13,23.51,23.61,23.44,23.61,3500,22.82
2014-10-17,23.76,23.76,23.76,23.76,200,22.96
2014-10-20,24.32,24.32,24.32,24.32,200,23.5
2014-10-21,23.72,23.72,23.72,23.72,0,22.92
2014-10-22,24.08,24.09,23.98,24.09,3700,23.28
2014-10-24,24.23,24.24,24.12,24.13,6300,23.32
2014-10-27,23.81,23.81,23.78,23.78,1000,22.98
2014-10-28,23.88,23.91,23.88,23.91,11100,23.11
2014-10-29,24.24,24.28,24.24,24.28,1100,23.47
2014-10-30,24.37,24.5,24.37,24.5,1500,23.68
2014-11-06,24.85,24.85,24.79,24.79,1500,23.96
2014-11-07,25.01,25.03,24.75,24.98,6300,24.14
2014-11-10,24.48,24.71,24.48,24.71,1200,23.88
2014-11-11,24.97,25.06,24.97,25.06,3000,24.22
2014-11-13,25.0,25.18,24.78,25.18,3400,24.34
2014-11-17,25.53,25.53,25.16,25.19,3000,24.35
2014-11-20,25.01,25.01,25.01,25.01,300,24.17
2014-11-25,25.34,25.45,25.26,25.45,1700,24.6
2014-11-26,25.6,25.61,25.57,25.61,1000,24.75
2014-12-03,25.45,25.45,25.45,25.45,400,24.6
2014-12-04,25.36,25.36,25.24,25.26,5000,24.41
2014-12-05,25.23,25.61,25.23,25.45,1300,24.6
2014-12-08,25.85,25.89,25.85,25.89,1800,25.02
2014-12-09,25.33,26.0,25.33,25.85,1900,24.98
2014-12-10,25.64,25.64,25.64,25.64,1700,24.78
2014-12-11,25.16,25.16,25.0,25.14,3000,24.3
2014-12-12,25.24,25.24,25.2,25.2,1100,24.36
2014-12-16,25.16,25.16,24.98,24.98,10900,24.14
2014-12-17,24.9,24.9,24.69,24.81,10800,23.98
2014-12-18,24.85,24.95,24.69,24.81,5700,24.2
2014-12-19,24.92,24.92,24.92,24.92,0,24.31
2014-12-22,24.95,25.0,24.89,24.89,2300,24.28
2014-12-29,25.55,25.69,25.55,25.69,2100,25.06
2014-12-30,25.66,25.66,25.43,25.43,4300,24.8
2015-01-05,25.25,25.69,25.25,25.69,2400,25.06
2015-01-06,25.44,25.44,24.85,24.85,1200,24.24
2015-01-07,25.08,25.08,25.08,25.08,900,24.46
2015-01-08,25.17,25.45,25.17,25.26,1800,24.64
2015-01-09,25.35,25.4,25.35,25.4,3100,24.77
2015-01-12,25.42,25.42,25.42,25.42,700,24.79
2015-01-14,25.93,25.94,25.93,25.94,800,25.3
2015-01-15,25.97,25.97,25.7,25.7,2500,25.07
2015-01-16,25.75,25.77,25.73,25.77,900,25.14
2015-01-20,25.8,25.83,25.52,25.52,1100,24.89
2015-01-22,26.29,26.37,26.22,26.35,600,25.7
2015-01-23,26.74,26.74,26.69,26.69,1300,26.03
2015-01-27,27.48,27.48,27.29,27.38,2500,26.71
2015-01-28,27.5,27.79,27.28,27.39,9100,26.72
2015-01-29,27.67,27.67,27.56,27.64,1000,26.96
2015-01-30,28.37,28.37,28.16,28.16,2400,27.47
2015-02-02,27.85,28.15,27.8,28.15,1400,27.46
2015-02-03,28.15,28.34,28.15,28.34,2500,27.64
2015-02-04,28.16,28.16,27.84,27.84,6500,27.15
2015-02-05,28.11,28.2,27.99,27.99,17300,27.3
2015-02-06,27.97,27.97,27.7,27.7,1400,27.02
2015-02-09,27.99,27.99,27.81,27.9,1900,27.21
2015-02-10,27.62,27.62,27.6,27.6,2800,26.92
2015-02-11,28.11,28.11,27.71,27.76,10300,27.08
2015-02-13,27.82,27.97,27.78,27.78,9900,27.1
2015-02-16,27.96,28.0,27.96,27.96,1300,27.27
2015-02-17,27.79,28.04,27.79,28.04,7600,27.35
2015-02-18,28.06,28.06,27.92,27.92,1000,27.23
2015-02-19,28.03,28.03,28.03,28.03,300,27.34
2015-02-23,27.97,27.97,27.86,27.93,800,27.24
2015-02-24,27.93,27.93,27.93,27.93,0,27.24
2015-02-26,27.86,27.86,27.82,27.82,1600,27.14
2015-02-27,27.78,28.13,27.78,28.13,5000,27.44
2015-03-02,28.05,28.13,28.0,28.0,4600,27.31
2015-03-04,27.89,28.0,27.89,28.0,1300,27.31
2015-03-05,27.93,27.93,27.8,27.8,200,27.12
2015-03-06,27.66,27.7,27.66,27.66,8300,26.98
2015-03-09,27.77,27.77,27.77,27.77,300,27.09
2015-03-10,27.97,27.97,27.97,27.97,400,27.28
2015-03-11,27.7,28.01,27.6,28.01,1400,27.32
2015-03-12,27.65,27.81,27.65,27.81,1200,27.13
2015-03-13,27.45,27.47,27.38,27.47,200,26.79
2015-03-16,27.46,27.46,27.46,27.46,200,26.78
2015-03-17,27.47,27.67,27.37,27.4,1800,26.73
2015-03-18,27.5,27.68,27.4,27.68,15500,27.0
2015-03-19,27.25,27.54,27.17,27.54,5600,26.86
2015-03-20,27.94,28.13,27.75,27.78,2900,27.1
2015-03-23,27.77,27.77,27.14,27.14,3400,26.47
2015-03-24,27.11,27.22,27.11,27.2,9500,26.53
2015-03-25,27.5,27.5,27.28,27.49,4400,26.81
2015-03-26,27.76,27.76,27.51,27.51,17900,26.83
2015-03-27,27.66,27.66,27.66,27.66,0,26.98
2015-03-31,28.73,28.75,28.52,28.74,11000,28.03
2015-04-01,28.75,28.77,28.6,28.62,33000,27.92
2015-04-02,29.38,29.38,29.04,29.13,3100,28.41
2015-04-07,29.2,29.97,28.94,28.94,8500,28.23
2015-04-08,29.34,29.64,29.15,29.6,7600,28.87
2015-04-09,30.29,31.22,30.26,30.71,362200,29.95
2015-04-10,31.7,31.94,30.52,30.56,389900,29.81
2015-04-14,31.83,31.83,31.28,31.67,18300,30.89
2015-04-15,31.67,31.7,31.34,31.4,58100,30.63
2015-04-16,31.62,31.62,30.54,30.65,15400,29.9
2015-04-17,30.65,30.65,30.4,30.58,13300,29.83
2015-04-20,30.49,30.5,29.75,29.92,51200,29.18
2015-04-21,30.45,30.51,30.34,30.51,11000,29.76
2015-04-22,30.6,30.93,30.33,30.33,6700,29.58
2015-04-23,30.6,30.74,30.57,30.68,41400,29.92
2015-04-24,30.6,30.6,30.41,30.41,3900,29.66
2015-04-27,30.54,30.79,30.54,30.7,64300,29.94
2015-04-28,30.65,30.71,30.31,30.31,17000,29.56
2015-04-29,30.09,30.1,29.78,29.81,9300,29.08
2015-04-30,29.82,29.9,29.69,29.9,25400,29.16
2015-05-01,30.68,30.68,30.01,30.26,4500,29.52
2015-05-04,31.0,31.0,30.67,30.8,4400,30.04
2015-05-05,30.82,30.82,30.05,30.09,11400,29.35
2015-05-06,29.98,30.17,29.98,30.17,1100,29.43
2015-05-07,29.9,29.9,29.6,29.6,1600,28.87
2015-05-08,30.08,30.08,29.86,29.86,1200,29.13
2015-05-11,30.2,30.2,29.95,29.95,2800,29.21
2015-05-12,29.99,30.03,29.84,29.85,8000,29.12
2015-05-13,29.5,29.56,29.4,29.4,5600,28.68
2015-05-14,29.3,29.3,28.71,28.8,25500,28.09
2015-05-15,29.05,29.48,29.05,29.38,4400,28.66
2015-05-18,30.25,30.25,29.77,29.77,12400,29.04
2015-05-19,29.99,30.01,29.9,29.9,9300,29.16
2015-05-20,30.12,30.13,30.04,30.06,11100,29.32
2015-05-21,30.35,30.35,30.2,30.29,5800,29.54
2015-05-22,30.46,30.59,30.46,30.59,3000,29.84
2015-05-25,31.47,31.52,31.27,31.46,23600,30.69
2015-05-26,31.32,31.46,31.3,31.45,6600,30.68
2015-05-27,31.58,32.27,31.41,31.46,34500,30.69
2015-05-28,31.46,31.51,31.09,31.13,23700,30.36
2015-05-29,31.18,31.31,31.18,31.3,6500,30.53
2015-06-01,31.0,31.42,30.95,31.42,10000,30.65
2015-06-02,31.12,31.38,30.9,30.9,6900,30.14
2015-06-03,30.9,31.02,30.9,30.98,300,30.22
2015-06-04,30.8,30.8,30.58,30.64,7600,29.89
2015-06-05,31.15,31.17,31.13,31.13,1300,30.36
2015-06-09,30.94,30.94,30.15,30.18,126000,29.44
2015-06-10,30.06,30.5,30.06,30.5,9400,29.75
2015-06-11,30.08,30.08,29.83,29.83,2100,29.1
2015-06-15,30.16,30.47,30.16,30.24,6300,29.5
2015-06-16,30.25,30.25,29.86,29.86,1200,29.13
2015-06-17,30.04,30.04,29.86,30.03,4500,29.29
2015-06-18,30.1,30.33,29.9,30.33,2700,29.58
2015-06-19,30.14,30.51,30.14,30.51,1700,29.76
2015-06-22,30.39,30.39,30.3,30.3,600,29.55
2015-06-23,30.69,30.89,30.69,30.89,3200,30.13
2015-06-24,31.0,31.6,30.78,30.85,1700,30.09
2015-06-26,30.22,30.22,29.8,29.8,200,29.46
2015-06-29,29.85,29.85,29.47,29.47,10700,29.14
2015-06-30,29.4,29.6,29.07,29.58,10600,29.24
2015-07-01,29.25,29.4,29.22,29.39,11000,29.06
2015-07-02,29.55,30.24,29.55,30.24,15900,29.9
2015-07-03,30.27,30.31,30.27,30.31,900,29.97
2015-07-06,30.3,30.3,29.08,29.13,2600,28.8
2015-07-07,29.51,29.7,29.24,29.24,40500,28.91
2015-07-08,29.1,29.1,28.27,28.65,27900,28.32
2015-07-09,28.1,28.62,27.7,28.62,13000,28.29
2015-07-10,29.23,29.48,29.23,29.43,7600,29.1
2015-07-13,29.72,29.76,29.2,29.55,1800,29.21
2015-07-14,30.05,30.16,29.96,30.16,1300,29.82
2015-07-15,30.11,30.16,29.8,29.8,56900,29.46
2015-07-16,30.44,30.45,30.44,30.45,5100,30.1
2015-07-20,30.65,30.85,30.65,30.85,2600,30.5
2015-07-21,30.62,30.85,30.62,30.82,9000,30.47
2015-07-22,30.42,30.42,30.3,30.3,7600,29.96
2015-07-23,30.35,30.78,30.35,30.76,8200,30.41
2015-07-24,30.76,30.88,30.74,30.88,2000,30.53
2015-07-27,30.77,30.77,30.16,30.16,1900,29.82
2015-07-28,30.13,30.7,30.04,30.7,6000,30.35
2015-07-29,30.14,30.24,30.11,30.15,4000,29.81
2015-07-30,30.6,30.63,30.28,30.28,8000,29.94
2015-07-31,30.28,30.65,30.28,30.65,2300,30.3
2015-08-03,30.45,30.45,30.18,30.19,2000,29.85
2015-08-04,30.14,30.19,29.88,29.88,900,29.54
2015-08-05,29.99,30.01,29.8,30.01,900,29.67
2015-08-06,30.07,30.07,29.8,29.8,400,29.46
2015-08-07,29.8,30.07,29.8,30.07,8000,29.73
2015-08-10,29.96,29.96,29.5,29.5,700,29.16
2015-08-11,29.81,30.23,29.81,30.23,500,29.89
2015-08-12,29.86,29.9,29.86,29.9,600,29.56
2015-08-13,29.15,29.15,28.94,29.12,5600,28.79
2015-08-14,28.6,28.6,28.6,28.6,400,28.28
2015-08-17,29.07,29.07,29.07,29.07,100,28.74
2015-08-18,28.88,28.88,28.88,28.88,300,28.55
2015-08-19,28.5,28.5,28.25,28.25,1400,27.93
2015-08-20,27.7,27.75,27.55,27.55,4400,27.24
2015-08-21,27.2,27.2,26.86,27.03,7500,26.72
2015-08-24,26.55,26.55,26.07,26.31,14500,26.01
2015-08-25,25.32,26.84,25.32,26.54,21100,26.24
2015-08-26,26.83,27.01,26.56,27.01,16300,26.7
2015-08-27,27.31,27.31,27.0,27.1,13800,26.79
2015-08-28,27.42,27.42,27.32,27.42,5000,27.11
2015-08-31,27.24,27.24,26.9,26.9,1400,26.59
2015-09-01,27.04,27.04,27.0,27.0,800,26.69
2015-09-02,26.77,27.03,26.75,26.84,7400,26.54
2015-09-03,26.8,26.8,26.78,26.78,600,26.48
2015-09-07,27.07,27.11,26.82,27.1,2500,26.79
2015-09-08,27.06,27.12,26.83,27.02,9300,26.71
2015-09-09,27.77,28.3,27.77,28.3,1300,27.98
2015-09-10,28.24,28.24,28.05,28.05,5700,27.73
2015-09-11,27.89,28.15,27.86,28.15,4100,27.83
2015-09-14,27.72,27.72,27.62,27.71,800,27.4
2015-09-15,27.26,27.5,27.24,27.24,800,26.93
2015-09-16,27.53,27.53,27.49,27.49,2300,27.18
2015-09-17,27.84,27.84,27.78,27.78,400,27.46
2015-09-18,27.58,27.68,27.58,27.68,1400,27.37
2015-09-21,27.64,27.64,27.64,27.64,0,27.33
2015-09-22,27.97,27.97,27.97,27.97,0,27.65
2015-09-23,27.75,27.81,27.3,27.38,6600,27.07
2015-09-24,27.59,27.59,27.4,27.4,1900,27.09
2015-09-25,27.4,27.4,27.37,27.39,16800,27.08
2015-09-28,27.44,27.44,27.42,27.42,100,27.11
2015-09-29,27.24,27.24,27.24,27.24,500,26.93
2015-09-30,26.9,26.99,26.9,26.99,400,26.68
2015-10-01,27.08,27.38,27.05,27.38,5400,27.07
2015-10-02,27.38,27.38,27.38,27.38,0,27.07
2015-10-05,28.02,28.02,28.02,28.02,100,27.7
2015-10-06,28.0,28.0,27.8,27.8,2800,27.48
2015-10-08,27.95,28.01,27.95,28.01,6100,27.69
2015-10-09,28.01,28.01,27.84,27.88,5600,27.56
2015-10-12,27.42,27.67,27.42,27.67,900,27.36
2015-10-13,27.5,27.72,27.5,27.56,40300,27.25
2015-10-14,27.76,28.02,27.76,28.02,3100,27.7
2015-10-15,27.65,28.13,27.65,28.13,200,27.81
2015-10-16,28.49,28.5,28.49,28.5,100,28.18
2015-10-19,28.66,28.66,28.66,28.66,100,28.33
2015-10-20,28.61,28.61,28.28,28.42,21700,28.1
2015-10-22,28.41,28.64,28.41,28.64,300,28.31
2015-10-23,28.97,28.97,28.89,28.97,2400,28.64
2015-10-26,29.29,29.29,29.2,29.2,100,28.87
2015-10-27,28.93,28.93,28.66,28.75,900,28.42
2015-10-28,29.0,29.42,29.0,29.42,3800,29.09
2015-10-29,29.35,29.35,29.35,29.35,100,29.02
2015-10-30,29.11,29.11,29.1,29.1,400,28.77
2015-11-02,28.86,28.86,28.5,28.55,800,28.23
2015-11-03,28.65,28.74,28.65,28.74,1200,28.41
2015-11-04,29.0,29.1,29.0,29.1,7100,28.77
2015-11-05,29.03,29.2,29.03,29.2,3100,28.87
2015-11-06,29.16,29.16,28.84,28.95,1500,28.62
2015-11-09,29.17,29.36,29.17,29.28,23500,28.95
2015-11-10,29.0,29.0,28.68,28.76,35900,28.43
2015-11-11,28.6,28.71,28.53,28.53,10800,28.21
2015-11-12,28.55,28.57,28.55,28.57,300,28.25
2015-11-13,28.6,28.6,28.6,28.6,100,28.28
2015-11-16,28.36,28.36,28.36,28.36,0,28.04
2015-11-18,28.4,28.47,28.4,28.47,700,28.15
2015-11-19,28.51,28.67,28.47,28.67,9700,28.34
2015-11-20,28.35,28.35,28.2,28.2,9900,27.88
2015-11-23,28.8,28.8,28.8,28.8,600,28.47
2015-11-24,28.64,28.64,28.64,28.64,1100,28.31
2015-11-25,28.2,28.2,28.0,28.0,800,27.68
2015-11-26,28.45,28.45,28.45,28.45,0,28.13
2015-11-27,27.8,27.8,27.8,27.8,0,27.48
2015-11-30,27.8,27.8,27.8,27.8,200,27.48
2015-12-01,27.85,27.85,27.68,27.68,1300,27.37
2015-12-02,27.62,27.62,27.62,27.62,1800,27.31
2015-12-03,27.76,27.76,27.76,27.76,300,27.44
2015-12-04,27.52,27.52,27.52,27.52,300,27.21
2015-12-07,27.96,27.96,27.74,27.74,300,27.42
2015-12-08,27.9,27.93,27.53,27.53,200,27.22
2015-12-09,27.54,27.54,27.54,27.54,800,27.23
2015-12-10,27.52,27.52,27.39,27.39,700,27.08
2015-12-11,27.27,27.27,27.27,27.27,100,26.96
2015-12-14,27.26,27.26,27.0,27.13,6000,26.82
2015-12-15,26.83,26.83,26.83,26.83,300,26.53
2015-12-16,27.42,27.42,27.42,27.42,0,27.11
2015-12-17,27.5,27.74,27.5,27.66,2400,27.35
2015-12-18,27.94,27.94,27.94,27.94,500,27.62
2015-12-21,27.65,27.65,27.65,27.65,900,27.34
2015-12-23,27.46,27.46,27.45,27.45,1300,27.45
2015-12-24,27.52,27.52,27.52,27.52,0,27.52
2015-12-29,27.21,27.21,27.18,27.18,300,27.18
2015-12-30,27.41,27.41,27.41,27.41,100,27.41
2016-01-04,27.41,27.41,27.41,27.41,700,27.41
2016-01-05,26.95,27.13,26.95,26.99,1000,26.99
2016-01-06,27.09,27.09,27.09,27.09,2200,27.09
2016-01-07,27.12,27.12,26.73,26.8,1500,26.8
2016-01-08,26.75,26.75,26.75,26.75,200,26.75
2016-01-12,26.25,26.36,26.25,26.36,400,26.36
2016-01-13,26.26,26.46,26.13,26.46,3600,26.46
2016-01-14,26.37,26.37,26.05,26.12,4400,26.12
2016-01-15,26.11,26.18,26.11,26.18,2100,26.18
2016-01-18,25.96,25.97,25.56,25.68,7200,25.68
2016-01-19,25.74,25.77,25.74,25.75,1200,25.75
2016-01-20,25.81,25.81,25.44,25.46,5400,25.46
2016-01-21,25.09,25.3,24.84,25.28,4100,25.28
2016-01-22,25.46,25.46,24.51,24.53,1800,24.53
2016-01-25,25.15,25.26,25.12,25.13,14400,25.13
2016-01-27,24.94,24.95,24.9,24.9,9300,24.9
2016-01-28,24.88,24.88,24.88,24.88,400,24.88
2016-01-29,24.75,25.08,24.72,25.08,1900,25.08
2016-02-01,25.48,25.48,25.35,25.35,3300,25.35
2016-02-03,24.96,24.96,24.55,24.55,7600,24.55
2016-02-04,24.53,24.67,24.53,24.67,1000,24.67
2016-02-05,24.09,24.52,24.05,24.45,10400,24.45
2016-02-10,24.0,24.0,23.83,23.83,1100,23.83
2016-02-11,23.5,24.0,23.5,24.0,300,24.0
2016-02-12,23.77,23.77,23.77,23.77,400,23.77
2016-02-16,24.49,24.49,24.49,24.49,400,24.49
2016-02-17,24.75,24.84,24.75,24.82,4700,24.82
2016-02-18,24.77,24.9,24.77,24.9,0,24.9
2016-02-19,24.82,25.23,24.61,25.23,100,25.23
2016-02-22,24.95,25.1,24.95,25.1,3000,25.1
2016-02-23,25.2,25.2,24.98,24.98,600,24.98
2016-02-25,25.16,25.3,25.16,25.3,4200,25.3
2016-02-26,24.8,24.86,24.8,24.86,100,24.86
2016-02-29,25.3,25.4,25.28,25.28,800,25.28
2016-03-02,25.86,25.86,25.86,25.86,200,25.86
2016-03-03,25.64,25.64,25.56,25.56,2300,25.56
2016-03-04,25.55,25.56,25.47,25.47,1600,25.47
2016-03-07,25.75,25.75,25.43,25.43,800,25.43
2016-03-08,25.08,25.08,25.08,25.08,100,25.08
2016-03-11,25.22,25.25,25.22,25.25,4300,25.25
2016-03-14,25.05,25.18,25.05,25.18,400,25.18
2016-03-15,25.47,25.47,25.28,25.28,2300,25.28
2016-03-18,25.25,25.25,25.25,25.25,0,25.25
2016-03-21,25.71,25.71,25.71,25.71,200,25.71
2016-03-22,25.75,25.95,25.53,25.53,1200,25.53
2016-03-23,25.48,25.65,25.48,25.65,0,25.65
2016-03-24,25.69,25.69,25.55,25.55,700,25.55
2016-03-29,25.4,25.5,25.4,25.5,4100,25.5
2016-03-30,25.69,25.69,25.69,25.69,200,25.69
2016-04-01,25.69,25.69,25.67,25.68,1500,25.68
2016-04-05,25.35,25.39,25.33,25.33,3800,25.33
2016-04-06,25.36,25.36,25.36,25.36,2200,25.36
2016-04-07,25.63,25.63,25.63,25.63,300,25.63
2016-04-08,25.65,25.65,25.65,25.65,0,25.65
2016-04-11,25.65,25.95,25.6,25.95,1300,25.95
2016-04-12,25.76,25.76,25.76,25.76,400,25.76
2016-04-13,25.8,26.0,25.8,26.0,1900,26.0
2016-04-14,26.4,26.58,26.38,26.38,2500,26.38
2016-04-15,26.18,26.2,26.18,26.18,3200,26.18
2016-04-19,26.0,26.08,25.88,25.88,1800,25.88
2016-04-21,26.09,26.11,26.09,26.11,400,26.11
2016-04-26,26.2,26.2,26.04,26.06,6900,26.06
2016-04-27,26.0,26.34,26.0,26.34,3900,26.34
2016-04-28,26.52,26.8,26.52,26.8,100,26.8
2016-04-29,26.19,26.19,25.99,25.99,400,25.99
2016-05-03,25.84,26.0,25.84,26.0,2300,26.0
2016-05-04,25.91,25.98,25.91,25.98,600,25.98
2016-05-05,25.98,26.04,25.98,26.0,3100,26.0
2016-05-09,26.28,26.28,26.28,26.28,2200,26.28
2016-05-10,26.18,26.42,26.18,26.42,2000,26.42
2016-05-11,26.46,26.5,26.46,26.5,2500,26.5
2016-05-13,25.87,25.91,25.87,25.91,2200,25.91
2016-05-16,25.92,25.96,25.92,25.96,1000,25.96
2016-05-17,26.04,26.04,25.76,25.79,500,25.79
2016-05-18,25.85,25.85,25.85,25.85,600,25.85
2016-05-19,25.96,26.13,25.96,26.13,2700,26.13
2016-05-20,25.9,25.93,25.9,25.93,600,25.93
2016-05-23,26.18,26.18,26.18,26.18,900,26.18
2016-05-25,26.6,26.7,26.6,26.7,200,26.7
2016-05-26,26.79,26.9,26.79,26.8,1400,26.8
2016-05-30,27.3,27.3,27.3,27.3,200,27.3
2016-05-31,27.42,27.42,27.42,27.42,100,27.42
2016-06-01,27.23,27.23,27.06,27.06,600,27.06
2016-06-02,27.11,27.31,27.11,27.31,0,27.31
2016-06-06,27.22,27.22,27.22,27.22,200,27.22
2016-06-07,27.25,27.25,27.04,27.04,1000,27.04
2016-06-08,27.04,27.04,27.04,27.04,1500,27.04
2016-06-10,27.1,27.1,27.1,27.1,200,27.1
2016-06-14,26.39,26.52,26.39,26.4,3300,26.4
2016-06-15,26.15,26.63,26.15,26.63,1100,26.63
2016-06-16,25.94,25.94,25.94,25.94,100,25.94
2016-06-20,26.2,26.2,26.2,26.2,1500,26.2
2016-06-21,26.17,26.17,26.17,26.17,1500,26.17
2016-06-22,26.32,26.32,26.32,26.32,0,26.32
2016-06-23,25.72,25.72,25.69,25.69,900,25.69
2016-06-24,25.99,26.02,25.99,26.02,700,26.02
2016-06-27,25.17,25.26,25.16,25.26,4800,25.26
2016-06-28,25.26,25.26,25.26,25.26,0,25.26
2016-06-30,25.74,26.0,25.74,26.0,1000,26.0
2016-07-05,26.15,26.15,26.1,26.11,12800,26.11
2016-07-06,26.0,26.0,26.0,26.0,300,26.0
2016-07-07,26.05,26.05,25.87,25.87,800,25.87
2016-07-11,25.96,25.96,25.96,25.96,400,25.96
2016-07-12,26.15,26.15,25.96,25.96,900,25.96
2016-07-14,26.2,26.2,26.2,26.2,4100,26.2
2016-07-18,26.75,26.75,26.75,26.75,300,26.75
2016-07-19,26.98,27.17,26.98,27.17,600,27.17
2016-07-20,27.5,27.5,27.5,27.5,1100,27.5
2016-07-21,27.85,27.85,27.81,27.82,1500,27.82
2016-07-22,27.66,27.74,27.63,27.63,1700,27.63
2016-07-25,27.68,27.68,27.68,27.68,600,27.68
2016-07-26,28.0,28.07,28.0,28.0,9400,28.0
2016-07-27,28.15,28.15,27.91,27.91,100,27.91
2016-07-29,27.9,27.9,27.9,27.9,200,27.9
2016-08-01,27.77,27.78,27.54,27.78,13000,27.78
2016-08-02,27.68,27.68,27.68,27.68,800,27.68
2016-08-03,27.24,27.24,27.24,27.24,200,27.24
2016-08-04,27.02,27.02,27.02,27.02,2500,27.02
2016-08-08,27.68,27.68,27.68,27.68,200,27.68
2016-08-09,27.56,27.7,27.56,27.6,900,27.6
2016-08-10,27.5,27.5,27.47,27.47,1300,27.47
2016-08-12,27.74,27.8,27.46,27.46,8600,27.46
2016-08-15,27.74,27.86,27.74,27.84,2800,27.84
2016-08-16,27.76,27.78,27.76,27.76,2900,27.76
2016-08-17,27.6,27.6,27.6,27.6,800,27.6
2016-08-18,27.64,27.68,27.52,27.52,10200,27.52
2016-08-19,27.62,27.62,27.35,27.35,300,27.35
2016-08-22,27.51,27.51,27.4,27.5,600,27.5
2016-08-23,27.53,27.53,27.38,27.5,17200,27.5
2016-08-24,27.54,27.54,27.5,27.5,600,27.5
2016-08-26,27.55,27.6,27.55,27.6,20000,27.6
2016-08-30,27.7,27.74,27.7,27.74,2000,27.74
2016-08-31,28.0,28.05,27.87,27.9,4600,27.9
2016-09-01,27.92,27.92,27.84,27.84,2500,27.84
2016-09-05,28.73,28.73,28.44,28.52,30600,28.52
2016-09-06,28.52,28.54,28.36,28.42,23200,28.42
2016-09-08,28.46,28.46,28.28,28.37,21400,28.37
2016-09-09,29.0,29.09,29.0,29.09,2200,29.09
2016-09-12,28.91,29.0,28.9,28.9,1700,28.9
2016-09-13,28.88,28.88,28.88,28.88,18000,28.88
2016-09-14,28.8,28.96,28.8,28.95,9200,28.95
2016-09-15,28.94,28.94,28.94,28.94,500,28.94
2016-09-16,29.09,29.09,29.09,29.09,100,29.09
2016-09-19,28.96,28.96,28.96,28.96,2000,28.96
2016-09-20,28.98,29.0,28.98,29.0,2200,29.0
2016-09-21,29.09,29.09,29.09,29.09,1200,29.09
2016-09-26,28.99,28.99,28.72,28.72,3500,28.72
2016-09-27,28.58,28.58,28.55,28.55,1400,28.55
2016-09-28,28.54,28.54,28.54,28.54,0,28.54
2016-09-29,28.7,28.72,28.62,28.7,1500,28.7
2016-10-03,28.7,29.0,28.7,28.94,3000,28.94
2016-10-06,29.08,29.2,28.95,29.2,1600,29.2
2016-10-07,29.07,29.18,29.06,29.18,3000,29.18
2016-10-10,29.12,29.12,29.12,29.12,200,29.12
2016-10-11,28.95,28.95,28.95,28.95,200,28.95
2016-10-12,28.95,28.95,28.54,28.56,15900,28.56
2016-10-14,28.43,28.46,28.19,28.19,22400,28.19
2016-10-19,28.43,28.43,28.43,28.43,500,28.43
2016-10-20,28.22,28.22,28.22,28.22,0,28.22
2016-10-21,28.55,28.55,28.55,28.55,200,28.55
2016-10-24,28.77,28.77,28.76,28.76,2000,28.76
2016-10-25,29.0,29.0,28.88,28.88,1900,28.88
2016-10-26,28.52,28.54,28.52,28.54,4000,28.54
2016-10-31,28.75,28.75,28.34,28.34,0,28.34
2016-11-02,28.23,28.24,28.2,28.2,7600,28.2
2016-11-03,28.01,28.03,27.97,28.03,8600,28.03
2016-11-04,27.87,27.87,27.85,27.85,300,27.85
2016-11-07,27.5,27.67,27.5,27.67,800,27.67
2016-11-08,27.56,27.56,27.56,27.56,500,27.56
2016-11-09,27.6,27.6,27.08,27.08,1700,27.08
2016-11-10,27.53,27.53,27.53,27.53,1900,27.53
2016-11-11,27.78,27.78,27.78,27.78,0,27.78
2016-11-14,27.33,27.33,27.32,27.32,2600,27.32
2016-11-15,27.32,27.32,27.32,27.32,400,27.32
2016-11-17,27.21,27.51,27.21,27.51,500,27.51
2016-11-18,27.88,27.88,27.88,27.88,200,27.88
2016-11-21,28.51,28.51,28.51,28.51,0,28.51
2016-11-22,28.51,28.51,28.15,28.39,400,28.39
2016-11-23,28.31,28.31,28.31,28.31,300,28.31
2016-11-25,28.17,28.17,28.13,28.13,3800,28.13
2016-11-28,28.0,28.33,28.0,28.33,200,28.33
2016-12-02,28.33,28.33,28.1,28.18,36000,28.18
2016-12-05,28.18,28.18,27.82,28.08,1300,28.08
2016-12-06,27.98,28.01,27.98,28.01,500,28.01
2016-12-07,28.47,28.47,27.97,27.97,400,27.97
2016-12-08,27.82,28.0,27.82,27.82,1200,27.82
2016-12-09,27.69,27.69,27.69,27.69,600,27.69
2016-12-12,27.69,27.69,27.46,27.46,200,27.46
2016-12-13,27.46,27.46,27.44,27.44,600,27.44
2016-12-14,27.56,27.56,27.55,27.55,900,27.55
2016-12-16,27.41,27.41,27.41,27.41,0,27.41
2016-12-19,27.24,27.24,27.24,27.24,100,27.24
2016-12-20,27.5,27.5,27.27,27.27,2000,27.27
2016-12-21,27.49,27.49,27.32,27.32,300,27.32
2016-12-22,27.32,27.32,27.32,27.32,0,27.32
2016-12-23,27.09,27.09,27.09,27.09,400,27.09
2016-12-28,27.09,27.09,27.09,27.09,0,27.09
2016-12-29,27.09,27.09,26.97,26.97,100,26.97
2016-12-30,26.93,26.93,26.93,26.93,100,26.93
