Date,Open,High,Low,Close,Volume,Adj Close
2016-04-22,45.2,45.75,45.2,45.37,92200,44.93600000000001
2016-04-25,45.37,45.37,45.37,45.37,0,44.93600000000001
2016-04-26,46.19,46.48,46.02,46.06,81200,45.619
2016-04-27,47.09,47.6,46.5,47.06,185100,46.61
2016-04-28,48.5,48.5,47.79,48.06,324100,47.6
2016-04-29,49.02,49.02,47.8,48.4,210900,47.937
2016-05-02,47.96,50.26,47.86,50.26,1894100,49.778999999999996
2016-05-03,47.97,49.43,47.8,48.9,638300,48.431999999999995
2016-05-04,49.25,49.36,48.68,49.15,748400,48.68
2016-05-05,49.03,49.55,49.03,49.4,1034000,48.928000000000004
2016-05-06,49.31,50.65,49.31,50.5,708800,50.016999999999996
2016-05-09,51.0,51.69,51.0,51.69,328900,51.196000000000005
2016-05-10,51.69,52.21,51.56,51.96,563200,51.463
2016-05-11,51.46,51.88,51.44,51.44,263600,50.948
2016-05-12,50.65,51.22,50.0,51.22,219500,50.73
2016-05-13,51.87,52.47,51.84,52.04,192600,51.542
2016-05-16,50.9,52.48,50.9,52.2,82600,51.701
2016-05-17,52.0,52.37,51.56,51.94,146600,51.443000000000005
2016-05-18,51.65,51.65,51.01,51.22,112600,50.73
2016-05-19,49.01,50.08,49.01,50.03,281100,49.552
2016-05-20,50.14,50.29,49.91,50.0,199200,49.522
2016-05-23,49.9,50.01,49.43,49.6,165200,49.126000000000005
2016-05-24,49.1,50.15,49.1,49.8,114700,49.324
2016-05-25,50.87,51.32,50.82,50.91,115300,50.423
2016-05-26,50.5,50.96,50.44,50.9,261400,50.413000000000004
2016-05-27,50.82,51.05,50.64,50.75,62900,50.265
2016-05-30,51.23,51.55,51.1,51.24,52600,50.75
2016-05-31,51.09,51.24,50.57,50.57,79900,50.086000000000006
2016-06-01,49.02,50.51,49.02,50.0,110400,49.522
2016-06-02,50.0,50.49,50.0,50.44,61600,49.958
2016-06-03,50.56,51.21,50.27,50.35,50200,49.868
2016-06-06,49.84,50.35,49.68,49.86,180000,49.383
2016-06-07,49.27,49.98,49.2,49.2,162300,48.729
2016-06-08,49.05,49.58,49.03,49.18,40800,48.71
2016-06-09,49.24,49.67,49.1,49.3,215900,48.828
2016-06-10,49.81,50.2,49.59,49.97,85300,49.492
2016-06-13,49.97,49.97,49.97,49.97,0,49.492
2016-06-14,51.32,51.64,51.12,51.13,108000,50.641000000000005
2016-06-15,51.56,51.74,51.4,51.4,172000,50.908
2016-06-16,51.78,51.9,51.64,51.8,160700,51.305
2016-06-17,51.87,52.0,51.66,52.0,115600,51.503
2016-06-20,51.67,51.88,51.28,51.87,43500,51.373999999999995
2016-06-21,51.24,51.69,50.8,51.61,47800,51.11600000000001
2016-06-22,51.5,51.5,51.06,51.2,45100,50.71
2016-06-23,51.01,51.58,51.01,51.1,33600,50.611000000000004
2016-06-24,51.04,51.44,49.78,50.35,83700,49.868
2016-06-27,50.27,51.08,50.25,51.01,43700,50.522
2016-06-28,51.1,51.78,51.1,51.41,487500,50.918
2016-06-29,51.77,52.47,51.77,52.47,93500,51.968
2016-06-30,52.98,53.54,52.81,52.85,83500,52.345
2016-07-01,53.08,53.5,52.75,52.82,94500,52.315
2016-07-04,53.25,53.62,53.12,53.53,29400,53.018
2016-07-05,53.52,53.52,52.9,53.13,30700,52.622
2016-07-06,53.61,54.53,53.1,54.23,303600,53.711000000000006
2016-07-07,53.35,53.45,52.91,53.39,33200,52.879
2016-07-08,52.85,52.85,52.37,52.6,44100,52.097
2016-07-11,52.7,53.15,52.6,53.14,62800,52.632
2016-07-12,53.97,53.97,53.55,53.6,75500,53.086999999999996
2016-07-13,53.6,54.0,53.6,53.95,32900,53.434
2016-07-14,53.69,53.74,53.19,53.39,70200,52.879
2016-07-15,53.05,53.23,52.52,53.05,61100,52.543
2016-07-18,52.5,52.65,52.26,52.35,97400,51.849
2016-07-19,52.4,53.0,52.34,53.0,55100,52.493
2016-07-20,53.44,53.67,53.21,53.43,339400,52.919
2016-07-21,53.86,53.95,52.83,53.55,92100,53.038000000000004
2016-07-22,53.52,53.99,53.39,53.56,78700,53.048
2016-07-25,54.67,55.38,54.57,54.67,51800,54.147
2016-07-26,54.83,55.25,54.4,54.49,146100,53.968999999999994
2016-07-27,54.66,55.62,54.56,55.54,56800,55.00899999999999
2016-07-28,54.64,55.12,54.64,54.7,82000,54.177
2016-07-29,54.89,55.24,54.84,55.02,71700,54.494
2016-08-01,54.75,55.08,54.55,54.85,26900,54.325
2016-08-02,54.99,54.99,54.36,54.85,69800,54.325
2016-08-03,53.4,53.8,53.09,53.6,84700,53.086999999999996
2016-08-04,53.62,53.66,52.95,53.45,60800,52.93899999999999
2016-08-05,52.0,52.0,49.72,50.3,447600,49.818999999999996
2016-08-08,49.99,49.99,49.26,49.6,177300,49.126000000000005
2016-08-09,48.45,48.5,47.9,48.29,106900,47.828
2016-08-10,48.0,48.02,47.62,47.75,84800,47.293
2016-08-11,47.41,49.07,47.39,49.05,329200,48.581
2016-08-12,48.5,48.65,48.22,48.65,359500,48.185
2016-08-15,48.65,48.94,48.35,48.35,28800,47.888000000000005
2016-08-16,48.35,48.59,48.16,48.25,83700,47.788999999999994
2016-08-17,48.58,48.58,48.11,48.4,66300,47.937
2016-08-18,48.64,48.64,47.88,48.08,41600,47.62
2016-08-19,48.3,49.3,48.08,49.23,28600,48.75899999999999
2016-08-22,49.4,49.97,49.23,49.57,429400,49.096000000000004
2016-08-23,49.69,49.955,49.42,49.58,155700,49.106
2016-08-24,49.97,50.4,49.82,50.29,215900,49.809
2016-08-25,50.26,50.7,50.26,50.48,175200,49.997
2016-08-26,50.26,50.48,50.26,50.33,34800,49.849
2016-08-29,50.38,50.9,50.26,50.45,35900,49.967
2016-08-30,50.73,51.0,50.27,50.27,122600,49.788999999999994
2016-08-31,50.26,50.92,50.26,50.8,93300,50.31399999999999
2016-09-01,50.8,51.32,50.62,50.78,42500,50.294
2016-09-02,49.51,51.01,48.85,50.65,143700,50.166000000000004
2016-09-05,50.31,51.24,50.31,50.98,12700,50.492
2016-09-06,50.66,50.99,50.56,50.81,25000,50.324
2016-09-07,50.75,51.5,50.49,50.71,117600,50.225
2016-09-08,51.0,51.59,51.0,51.29,128900,51.29
2016-09-09,49.01,50.24,49.01,49.6,81500,49.6
2016-09-12,47.36,48.45,47.36,47.92,67100,47.92
2016-09-13,48.1,48.54,48.1,48.34,69300,48.34
2016-09-14,48.09,48.51,48.01,48.51,71000,48.51
2016-09-15,47.45,47.73,47.08,47.4,154100,47.4
2016-09-16,47.78,48.04,47.485,47.73,80500,47.73
2016-09-19,47.8,48.1,47.62,47.73,5000,47.73
2016-09-20,47.74,48.42,47.74,48.24,88400,48.24
2016-09-21,48.24,48.83,48.2,48.45,94000,48.45
2016-09-22,47.7,48.47,47.7,47.91,68700,47.91
2016-09-23,49.05,49.19,48.79,48.85,110300,48.85
2016-09-26,48.9,49.47,48.9,49.47,94900,49.47
2016-09-27,49.14,49.5,49.1,49.31,138000,49.31
2016-09-28,49.55,49.58,49.14,49.3,111100,49.3
2016-09-29,49.71,50.12,49.6,49.77,44100,49.77
2016-09-30,49.36,49.65,48.28,49.0,100500,49.0
2016-10-03,49.4,50.2,48.81,48.91,24600,48.91
2016-10-04,47.87,47.87,47.29,47.48,48100,47.48
2016-10-05,47.05,47.05,46.21,46.47,67600,46.47
2016-10-06,46.32,46.57,45.11,45.31,92900,45.31
2016-10-07,45.3,45.3,44.31,44.42,262900,44.42
2016-10-10,44.18,44.7,44.18,44.32,178100,44.32
2016-10-11,44.55,44.98,44.52,44.85,117100,44.85
2016-10-12,44.85,44.92,44.43,44.64,33000,44.64
2016-10-13,44.64,45.64,44.51,45.29,78100,45.29
2016-10-14,46.3,46.59,46.25,46.41,59800,46.41
2016-10-17,45.4,45.4,44.85,44.85,52800,44.85
2016-10-18,44.88,44.93,44.45,44.65,64900,44.65
2016-10-19,44.81,44.81,44.3,44.52,25900,44.52
2016-10-20,44.21,44.6,44.12,44.54,50400,44.54
2016-10-21,44.44,44.91,44.36,44.57,29300,44.57
2016-10-24,44.45,44.68,44.2,44.4,53400,44.4
2016-10-25,44.42,45.07,44.31,44.69,145100,44.69
2016-10-26,44.0,44.53,44.0,44.2,64900,44.2
2016-10-27,44.02,44.32,43.99,44.11,75800,44.11
2016-10-28,43.66,43.66,42.92,42.97,34100,42.97
2016-10-31,42.7,43.18,42.7,43.06,65200,43.06
2016-11-01,37.49,44.27,37.49,44.27,45600,44.27
2016-11-02,43.21,43.41,42.69,43.3,71900,43.3
2016-11-03,42.65,42.65,41.19,41.19,66500,41.19
2016-11-04,41.1,41.78,41.1,41.5,38500,41.5
2016-11-07,41.6,42.62,41.51,42.55,94800,42.55
2016-11-08,42.83,43.26,42.335,43.04,80100,43.04
2016-11-09,43.36,43.71,40.04,41.71,89700,41.71
2016-11-10,42.3,44.75,42.3,42.66,94100,42.66
2016-11-11,42.66,42.66,40.74,41.06,171300,41.06
2016-11-14,40.71,41.95,40.71,41.62,495200,41.62
2016-11-15,41.62,42.06,41.54,41.71,230300,41.71
2016-11-16,41.89,42.26,41.56,41.77,104500,41.77
2016-11-17,42.96,43.21,42.52,42.84,81800,42.84
2016-11-18,42.2,42.95,42.19,42.93,83100,42.93
2016-11-21,42.93,43.02,42.0,42.86,25400,42.86
2016-11-22,43.57,44.25,43.52,44.12,63400,44.12
2016-11-23,44.25,44.9,44.25,44.8,36300,44.8
2016-11-24,45.14,45.15,44.52,45.1,37000,45.1
2016-11-25,45.84,45.84,44.85,45.32,65500,45.32
2016-11-28,45.49,45.55,45.02,45.12,24200,45.12
2016-11-29,45.02,45.17,44.18,44.38,100600,44.38
2016-11-30,45.12,45.26,44.8,45.05,84200,45.05
2016-12-01,45.05,45.5,44.54,44.8,103200,44.8
2016-12-02,44.06,45.5,43.73,43.76,61200,43.76
2016-12-05,43.66,45.19,43.65,44.56,59000,44.56
2016-12-06,44.74,45.78,42.21,45.39,108300,45.39
2016-12-07,45.16,45.36,44.58,45.12,55800,45.12
2016-12-08,46.15,46.43,45.98,46.06,44500,46.06
2016-12-09,46.06,47.0,46.06,46.45,89800,46.45
2016-12-12,46.59,46.75,44.89,45.26,315600,45.26
2016-12-13,45.38,45.38,44.25,44.51,421300,44.51
2016-12-14,44.4,44.4,43.67,43.9,331800,43.9
2016-12-15,43.41,44.01,42.51,42.79,559500,42.79
2016-12-16,43.06,43.35,42.62,43.0,2122100,43.0
2016-12-19,44.51,44.86,43.5,43.6,944800,43.6
2016-12-20,44.24,44.31,43.53,43.71,322900,43.71
2016-12-21,43.71,44.01,43.22,43.98,185100,43.98
2016-12-22,44.5,44.63,44.27,44.46,126300,44.46
2016-12-23,45.0,45.16,44.62,45.16,42700,45.16
2016-12-26,45.16,45.16,45.16,45.16,0,45.16
2016-12-27,45.16,45.16,45.16,45.16,0,45.16
2016-12-28,45.16,45.49,45.03,45.3,26800,45.3
2016-12-29,44.97,44.97,43.69,44.73,88500,44.73
2016-12-30,44.76,45.07,44.47,44.47,86800,44.47
