Date,Open,High,Low,Close,Volume,Adj Close
2011-01-28,0.23,0.23,0.18,0.19,169300,0.38
2011-02-02,0.19,0.19,0.19,0.19,2600,0.38
2011-02-04,0.19,0.19,0.19,0.19,24800,0.38
2011-02-07,0.195,0.21,0.195,0.205,497200,0.41
2011-02-08,0.21,0.22,0.21,0.21,237500,0.42
2011-02-09,0.21,0.21,0.21,0.21,7500,0.42
2011-02-10,0.215,0.22,0.2,0.2,41900,0.4
2011-02-14,0.205,0.205,0.205,0.205,12700,0.41
2011-02-15,0.205,0.21,0.205,0.21,24500,0.42
2011-02-16,0.205,0.205,0.2,0.2,15000,0.4
2011-02-17,0.2,0.205,0.2,0.2,36400,0.4
2011-02-18,0.2,0.2,0.195,0.195,8800,0.39
2011-02-21,0.2,0.2,0.2,0.2,2000,0.4
2011-02-22,0.2,0.205,0.19,0.19,7300,0.38
2011-02-23,0.19,0.19,0.19,0.19,10300,0.38
2011-02-25,0.19,0.19,0.19,0.19,12500,0.38
2011-03-04,0.195,0.2,0.195,0.2,42300,0.4
2011-03-08,0.19,0.21,0.19,0.21,96600,0.42
2011-03-11,0.175,0.175,0.17,0.17,32500,0.34
2011-03-14,0.175,0.175,0.175,0.175,30700,0.35
2011-03-17,0.175,0.175,0.175,0.175,10000,0.35
2011-03-18,0.18,0.18,0.18,0.18,6100,0.36
2011-03-24,0.2,0.2,0.2,0.2,25000,0.4
2011-03-28,0.2,0.205,0.2,0.205,14700,0.41
2011-03-29,0.205,0.205,0.17,0.17,2700,0.34
2011-03-30,0.175,0.18,0.175,0.18,10000,0.36
2011-03-31,0.175,0.175,0.175,0.175,37500,0.35
2011-04-01,0.175,0.175,0.175,0.175,1500,0.35
2011-04-04,0.17,0.17,0.17,0.17,33500,0.34
2011-04-05,0.19,0.19,0.19,0.19,7300,0.38
2011-04-06,0.19,0.19,0.19,0.19,11400,0.38
2011-04-11,0.18,0.18,0.18,0.18,5000,0.36
2011-04-12,0.175,0.175,0.16,0.16,21500,0.32
2011-04-13,0.155,0.17,0.155,0.17,8200,0.34
2011-04-14,0.17,0.17,0.17,0.17,19600,0.34
2011-04-18,0.16,0.16,0.16,0.16,3000,0.32
2011-04-19,0.16,0.16,0.16,0.16,31100,0.32
2011-04-20,0.16,0.16,0.155,0.155,13200,0.31
2011-04-28,0.155,0.155,0.155,0.155,8000,0.31
2011-04-29,0.155,0.155,0.155,0.155,5500,0.31
2011-05-03,0.155,0.155,0.155,0.155,10000,0.31
2011-05-10,0.16,0.16,0.16,0.16,50000,0.32
2011-05-12,0.155,0.155,0.155,0.155,35000,0.31
2011-05-13,0.16,0.16,0.16,0.16,50000,0.32
2011-05-19,0.155,0.155,0.15,0.15,10700,0.3
2011-05-20,0.15,0.15,0.15,0.15,3600,0.3
2011-05-24,0.135,0.135,0.135,0.135,11300,0.27
2011-05-26,0.13,0.14,0.13,0.14,3000,0.28
2011-06-01,0.13,0.135,0.13,0.135,13800,0.27
2011-06-02,0.125,0.125,0.105,0.12,75000,0.24
2011-06-06,0.12,0.135,0.12,0.135,5500,0.27
2011-06-09,0.115,0.12,0.115,0.12,23000,0.24
2011-06-10,0.11,0.125,0.105,0.125,63000,0.25
2011-06-14,0.125,0.125,0.125,0.125,9400,0.25
2011-06-27,0.1,0.1,0.081,0.085,110500,0.17
2011-06-28,0.085,0.085,0.085,0.085,5000,0.17
2011-06-29,0.083,0.084,0.083,0.084,25000,0.168
2011-06-30,0.084,0.086,0.08199999999999999,0.08199999999999999,56300,0.16399999999999998
2011-07-04,0.086,0.086,0.084,0.084,50000,0.168
2011-07-07,0.087,0.087,0.084,0.084,27500,0.168
2011-07-08,0.081,0.081,0.081,0.081,25000,0.162
2011-07-11,0.087,0.087,0.087,0.087,10000,0.174
2011-07-13,0.087,0.087,0.087,0.087,50000,0.174
2011-07-14,0.08900000000000001,0.09,0.08900000000000001,0.09,22500,0.18
2011-07-18,0.08800000000000001,0.08800000000000001,0.08800000000000001,0.08800000000000001,5000,0.17600000000000002
2011-07-20,0.08800000000000001,0.09,0.086,0.09,23400,0.18
2011-07-22,0.095,0.095,0.095,0.095,5000,0.19
2011-07-26,0.096,0.096,0.095,0.095,25000,0.19
2011-07-28,0.096,0.096,0.095,0.095,17500,0.19
2011-08-02,0.095,0.095,0.09,0.09,20000,0.18
2011-08-03,0.095,0.095,0.09,0.09,17500,0.18
2011-08-05,0.085,0.085,0.085,0.085,30600,0.17
2011-08-11,0.078,0.078,0.078,0.078,12500,0.156
2011-08-12,0.079,0.11,0.079,0.1,62700,0.2
2011-08-16,0.1,0.1,0.1,0.1,10000,0.2
2011-08-24,0.099,0.1,0.099,0.1,44900,0.2
2011-08-25,0.1,0.1,0.1,0.1,5000,0.2
2011-09-12,0.079,0.08199999999999999,0.075,0.08199999999999999,410500,0.16399999999999998
2011-09-14,0.08,0.08,0.08,0.08,5000,0.16
2011-09-19,0.077,0.077,0.075,0.075,140000,0.15
2011-09-23,0.075,0.075,0.075,0.075,35000,0.15
2011-09-28,0.1,0.1,0.08,0.083,172500,0.166
2011-09-29,0.08,0.08,0.07,0.07,55600,0.14
2011-10-04,0.07,0.07,0.07,0.07,2500,0.14
2011-10-07,0.073,0.075,0.073,0.075,18000,0.15
2011-10-10,0.073,0.073,0.073,0.073,40000,0.146
2011-10-31,0.075,0.075,0.075,0.075,10000,0.15
2011-11-01,0.075,0.075,0.075,0.075,8000,0.15
2011-11-04,0.07,0.075,0.07,0.075,13300,0.15
2011-11-08,0.07,0.07,0.07,0.07,12500,0.14
2011-11-10,0.07,0.07,0.07,0.07,14500,0.14
2011-11-11,0.06,0.06,0.06,0.06,73500,0.12
2011-11-16,0.06,0.06,0.06,0.06,50000,0.12
2011-11-17,0.06,0.06,0.06,0.06,0,0.12
2011-11-18,0.06,0.06,0.06,0.06,0,0.12
2011-11-21,0.06,0.06,0.06,0.06,0,0.12
2011-11-22,0.06,0.06,0.06,0.06,0,0.12
2011-11-23,0.05,0.05,0.05,0.05,75000,0.1
2011-11-24,0.05,0.05,0.05,0.05,0,0.1
2011-11-25,0.05,0.05,0.05,0.05,0,0.1
2011-11-28,0.05,0.05,0.05,0.05,0,0.1
2011-11-29,0.05,0.05,0.05,0.05,0,0.1
2011-11-30,0.05,0.05,0.05,0.05,0,0.1
2011-12-01,0.05,0.05,0.05,0.05,0,0.1
2011-12-02,0.05,0.05,0.05,0.05,0,0.1
2011-12-05,0.05,0.05,0.05,0.05,0,0.1
2011-12-06,0.05,0.06,0.05,0.06,7500,0.12
2011-12-07,0.06,0.06,0.06,0.06,0,0.12
2011-12-08,0.06,0.06,0.06,0.06,0,0.12
2011-12-09,0.06,0.06,0.06,0.06,0,0.12
2011-12-12,0.06,0.06,0.06,0.06,0,0.12
2011-12-13,0.06,0.06,0.06,0.06,0,0.12
2011-12-14,0.06,0.06,0.06,0.06,0,0.12
2011-12-15,0.05,0.05,0.05,0.05,20000,0.1
2011-12-16,0.048,0.048,0.048,0.048,19000,0.096
2011-12-19,0.048,0.048,0.048,0.048,0,0.096
2011-12-20,0.048,0.048,0.048,0.048,0,0.096
2011-12-21,0.048,0.048,0.048,0.048,0,0.096
2011-12-22,0.048,0.048,0.048,0.048,0,0.096
2011-12-23,0.048,0.048,0.048,0.048,0,0.096
2011-12-26,0.048,0.048,0.048,0.048,0,0.096
2011-12-27,0.048,0.048,0.048,0.048,0,0.096
2011-12-28,0.048,0.048,0.048,0.048,0,0.096
2011-12-29,0.048,0.048,0.045,0.045,6500,0.09
2011-12-30,0.045,0.045,0.045,0.045,0,0.09
2012-01-02,0.045,0.045,0.045,0.045,0,0.09
2012-01-03,0.045,0.045,0.045,0.045,0,0.09
2012-01-04,0.045,0.045,0.045,0.045,0,0.09
2012-01-05,0.045,0.045,0.045,0.045,0,0.09
2012-01-06,0.045,0.045,0.045,0.045,0,0.09
2012-01-09,0.045,0.045,0.045,0.045,0,0.09
2012-01-10,0.045,0.045,0.045,0.045,0,0.09
2012-01-11,0.045,0.045,0.045,0.045,100000,0.09
2012-01-12,0.045,0.045,0.045,0.045,0,0.09
2012-01-13,0.045,0.045,0.045,0.045,0,0.09
2012-01-16,0.048,0.048,0.048,0.048,17500,0.096
2012-01-17,0.048,0.048,0.048,0.048,0,0.096
2012-01-18,0.048,0.048,0.048,0.048,0,0.096
2012-01-19,0.048,0.048,0.048,0.048,0,0.096
2012-01-20,0.048,0.048,0.048,0.048,0,0.096
2012-01-23,0.048,0.048,0.048,0.048,0,0.096
2012-01-24,0.042,0.042,0.042,0.042,25000,0.084
2012-01-25,0.042,0.042,0.042,0.042,0,0.084
2012-01-26,0.042,0.042,0.042,0.042,0,0.084
2012-01-27,0.042,0.042,0.042,0.042,0,0.084
2012-01-30,0.043,0.043,0.043,0.043,36000,0.086
2012-01-31,0.043,0.044000000000000004,0.043,0.044000000000000004,54500,0.08800000000000001
2012-02-01,0.044000000000000004,0.044000000000000004,0.044000000000000004,0.044000000000000004,0,0.08800000000000001
2012-02-02,0.044000000000000004,0.044000000000000004,0.044000000000000004,0.044000000000000004,0,0.08800000000000001
2012-02-03,0.045,0.045,0.045,0.045,2500,0.09
2012-02-06,0.04,0.04,0.039,0.039,10000,0.078
2012-02-07,0.039,0.039,0.039,0.039,21200,0.078
2012-02-08,0.039,0.039,0.039,0.039,0,0.078
2012-02-09,0.036000000000000004,0.036000000000000004,0.036000000000000004,0.036000000000000004,25000,0.07200000000000001
2012-02-10,0.036000000000000004,0.036000000000000004,0.036000000000000004,0.036000000000000004,0,0.07200000000000001
2012-02-13,0.036000000000000004,0.036000000000000004,0.036000000000000004,0.036000000000000004,0,0.07200000000000001
2012-02-14,0.036000000000000004,0.036000000000000004,0.036000000000000004,0.036000000000000004,0,0.07200000000000001
2012-02-15,0.036000000000000004,0.036000000000000004,0.036000000000000004,0.036000000000000004,0,0.07200000000000001
2012-02-16,0.036000000000000004,0.036000000000000004,0.036000000000000004,0.036000000000000004,0,0.07200000000000001
2012-02-17,0.036000000000000004,0.036000000000000004,0.036000000000000004,0.036000000000000004,0,0.07200000000000001
2012-02-20,0.036000000000000004,0.036000000000000004,0.036000000000000004,0.036000000000000004,0,0.07200000000000001
2012-02-21,0.036000000000000004,0.036000000000000004,0.036000000000000004,0.036000000000000004,0,0.07200000000000001
2012-02-22,0.036000000000000004,0.036000000000000004,0.036000000000000004,0.036000000000000004,0,0.07200000000000001
2012-02-23,0.036000000000000004,0.036000000000000004,0.036000000000000004,0.036000000000000004,35000,0.07200000000000001
2012-02-24,0.036000000000000004,0.036000000000000004,0.036000000000000004,0.036000000000000004,0,0.07200000000000001
2012-02-27,0.036000000000000004,0.036000000000000004,0.036000000000000004,0.036000000000000004,0,0.07200000000000001
2012-02-28,0.036000000000000004,0.036000000000000004,0.036000000000000004,0.036000000000000004,0,0.07200000000000001
2012-02-29,0.036000000000000004,0.036000000000000004,0.036000000000000004,0.036000000000000004,0,0.07200000000000001
2012-03-01,0.036000000000000004,0.036000000000000004,0.036000000000000004,0.036000000000000004,0,0.07200000000000001
2012-03-02,0.036000000000000004,0.036000000000000004,0.036000000000000004,0.036000000000000004,0,0.07200000000000001
2012-03-05,0.036000000000000004,0.04,0.036000000000000004,0.04,235600,0.08
2012-03-06,0.036000000000000004,0.036000000000000004,0.035,0.035,100000,0.07
2012-03-07,0.038,0.043,0.038,0.043,40000,0.086
2012-03-08,0.036000000000000004,0.036000000000000004,0.036000000000000004,0.036000000000000004,0,0.07200000000000001
2012-03-09,0.036000000000000004,0.036000000000000004,0.036000000000000004,0.036000000000000004,0,0.07200000000000001
2012-03-12,0.043,0.05,0.043,0.05,20000,0.1
2012-03-13,0.05,0.05,0.05,0.05,0,0.1
2012-03-14,0.05,0.05,0.05,0.05,0,0.1
2012-03-15,0.05,0.05,0.05,0.05,0,0.1
2012-03-16,0.05,0.05,0.05,0.05,0,0.1
2012-03-19,0.05,0.05,0.05,0.05,0,0.1
2012-03-20,0.05,0.05,0.05,0.05,0,0.1
2012-03-21,0.05,0.05,0.05,0.05,0,0.1
2012-03-22,0.05,0.05,0.05,0.05,0,0.1
2012-03-23,0.045,0.05,0.045,0.05,5000,0.1
2012-03-26,0.05,0.05,0.05,0.05,0,0.1
2012-03-27,0.05,0.05,0.05,0.05,0,0.1
2012-03-28,0.05,0.05,0.05,0.05,0,0.1
2012-03-29,0.05,0.05,0.05,0.05,0,0.1
2012-03-30,0.04,0.04,0.04,0.04,25000,0.08
2012-04-02,0.04,0.04,0.04,0.04,75000,0.08
2012-04-03,0.04,0.04,0.04,0.04,0,0.08
2012-04-04,0.04,0.04,0.04,0.04,60000,0.08
2012-04-05,0.04,0.04,0.04,0.04,0,0.08
2012-04-06,0.04,0.04,0.04,0.04,0,0.08
2012-04-09,0.04,0.04,0.04,0.04,0,0.08
2012-04-10,0.036000000000000004,0.036000000000000004,0.036000000000000004,0.036000000000000004,3500,0.07200000000000001
2012-04-11,0.036000000000000004,0.036000000000000004,0.036000000000000004,0.036000000000000004,0,0.07200000000000001
2012-04-12,0.036000000000000004,0.036000000000000004,0.036000000000000004,0.036000000000000004,0,0.07200000000000001
2012-04-13,0.036000000000000004,0.036000000000000004,0.036000000000000004,0.036000000000000004,0,0.07200000000000001
2012-04-16,0.036000000000000004,0.036000000000000004,0.036000000000000004,0.036000000000000004,0,0.07200000000000001
2012-04-17,0.04,0.045,0.04,0.045,29700,0.09
2012-04-18,0.048,0.048,0.045,0.045,17500,0.09
2012-04-19,0.045,0.045,0.045,0.045,0,0.09
2012-04-20,0.045,0.045,0.045,0.045,12500,0.09
2012-04-23,0.049,0.049,0.045,0.045,480000,0.09
2012-04-24,0.045,0.045,0.045,0.045,0,0.09
2012-04-25,0.045,0.045,0.045,0.045,0,0.09
2012-04-26,0.045,0.045,0.045,0.045,0,0.09
2012-04-27,0.047,0.047,0.046,0.047,1020000,0.094
2012-04-30,0.049,0.049,0.049,0.049,7500,0.098
2012-05-01,0.047,0.047,0.047,0.047,63900,0.094
2012-05-02,0.047,0.047,0.047,0.047,0,0.094
2012-05-03,0.047,0.047,0.047,0.047,0,0.094
2012-05-04,0.047,0.047,0.047,0.047,0,0.094
2012-05-07,0.05,0.05,0.046,0.046,186500,0.092
2012-05-08,0.046,0.046,0.046,0.046,0,0.092
2012-05-09,0.048,0.048,0.048,0.048,17500,0.096
2012-05-10,0.048,0.048,0.048,0.048,9600,0.096
2012-05-11,0.048,0.048,0.048,0.048,0,0.096
2012-05-14,0.048,0.048,0.048,0.048,0,0.096
2012-05-15,0.048,0.048,0.048,0.048,0,0.096
2012-05-16,0.048,0.048,0.048,0.048,0,0.096
2012-05-17,0.048,0.048,0.048,0.048,0,0.096
2012-05-18,0.05,0.05,0.05,0.05,5000,0.1
2012-05-21,0.055,0.055,0.048,0.048,109600,0.096
2012-05-22,0.048,0.048,0.048,0.048,0,0.096
2012-05-23,0.048,0.048,0.048,0.048,0,0.096
2012-05-24,0.048,0.048,0.048,0.048,0,0.096
2012-05-25,0.05,0.05,0.05,0.05,5000,0.1
2012-05-28,0.059000000000000004,0.059000000000000004,0.059000000000000004,0.059000000000000004,55600,0.11800000000000001
2012-05-29,0.059000000000000004,0.059000000000000004,0.059000000000000004,0.059000000000000004,0,0.11800000000000001
2012-05-30,0.06,0.06,0.06,0.06,37500,0.12
2012-05-31,0.059000000000000004,0.059000000000000004,0.049,0.049,1631300,0.098
2012-06-01,0.049,0.049,0.049,0.049,130500,0.098
2012-06-04,0.049,0.049,0.049,0.049,4800,0.098
2012-06-05,0.048,0.048,0.048,0.048,20000,0.096
2012-06-06,0.048,0.048,0.048,0.048,0,0.096
2012-06-07,0.048,0.048,0.048,0.048,0,0.096
2012-06-08,0.048,0.048,0.048,0.048,0,0.096
2012-06-11,0.048,0.048,0.048,0.048,0,0.096
2012-06-12,0.048,0.048,0.048,0.048,0,0.096
2012-06-13,0.048,0.048,0.048,0.048,0,0.096
2012-06-14,0.048,0.048,0.048,0.048,0,0.096
2012-06-15,0.048,0.048,0.048,0.048,0,0.096
2012-06-18,0.048,0.048,0.048,0.048,0,0.096
2012-06-19,0.048,0.048,0.048,0.048,0,0.096
2012-06-20,0.048,0.048,0.048,0.048,0,0.096
2012-06-21,0.046,0.046,0.045,0.045,291100,0.09
2012-06-22,0.045,0.045,0.045,0.045,58800,0.09
2012-06-25,0.045,0.045,0.045,0.045,0,0.09
2012-06-26,0.045,0.045,0.045,0.045,0,0.09
2012-06-27,0.045,0.045,0.045,0.045,0,0.09
2012-06-28,0.042,0.042,0.042,0.042,80800,0.084
2012-06-29,0.042,0.042,0.042,0.042,0,0.084
2012-07-02,0.042,0.042,0.042,0.042,0,0.084
2012-07-03,0.042,0.042,0.042,0.042,0,0.084
2012-07-04,0.042,0.042,0.042,0.042,0,0.084
2012-07-05,0.042,0.042,0.042,0.042,0,0.084
2012-07-06,0.05,0.05,0.05,0.05,57200,0.1
2012-07-09,0.05,0.05,0.05,0.05,0,0.1
2012-07-10,0.05,0.05,0.05,0.05,0,0.1
2012-07-11,0.051,0.051,0.051,0.051,5000,0.102
2012-07-12,0.051,0.051,0.047,0.047,22800,0.094
2012-07-13,0.05,0.05,0.047,0.047,37500,0.094
2012-07-16,0.05,0.05,0.049,0.049,12500,0.098
2012-07-17,0.049,0.049,0.049,0.049,0,0.098
2012-07-18,0.049,0.049,0.049,0.049,0,0.098
2012-07-19,0.049,0.049,0.049,0.049,0,0.098
2012-07-20,0.049,0.049,0.049,0.049,0,0.098
2012-07-23,0.049,0.049,0.049,0.049,0,0.098
2012-07-24,0.049,0.049,0.049,0.049,5000,0.098
2012-07-25,0.049,0.049,0.049,0.049,0,0.098
2012-07-26,0.049,0.049,0.049,0.049,0,0.098
2012-07-27,0.049,0.049,0.049,0.049,50000,0.098
2012-07-30,0.049,0.049,0.049,0.049,0,0.098
2012-07-31,0.049,0.049,0.049,0.049,0,0.098
2012-08-01,0.049,0.049,0.049,0.049,0,0.098
2012-08-02,0.049,0.049,0.049,0.049,0,0.098
2012-08-03,0.048,0.048,0.048,0.048,3000,0.096
2012-08-06,0.046,0.046,0.046,0.046,50000,0.092
2012-08-07,0.046,0.046,0.046,0.046,0,0.092
2012-08-08,0.046,0.046,0.046,0.046,100000,0.092
2012-08-09,0.046,0.046,0.046,0.046,0,0.092
2012-08-10,0.046,0.046,0.046,0.046,0,0.092
2012-08-13,0.046,0.046,0.046,0.046,0,0.092
2012-08-14,0.047,0.047,0.047,0.047,50000,0.094
2012-08-15,0.047,0.047,0.047,0.047,0,0.094
2012-08-16,0.046,0.046,0.046,0.046,90000,0.092
2012-08-17,0.049,0.049,0.049,0.049,51000,0.098
2012-08-20,0.049,0.049,0.046,0.046,73400,0.092
2012-08-21,0.046,0.046,0.046,0.046,0,0.092
2012-08-22,0.046,0.046,0.046,0.046,0,0.092
2012-08-23,0.046,0.046,0.046,0.046,15000,0.092
2012-08-24,0.046,0.046,0.046,0.046,0,0.092
2012-08-27,0.046,0.046,0.046,0.046,0,0.092
2012-08-28,0.046,0.046,0.046,0.046,0,0.092
2012-08-29,0.046,0.046,0.046,0.046,0,0.092
2012-08-30,0.046,0.046,0.046,0.046,0,0.092
2012-08-31,0.046,0.046,0.046,0.046,5000,0.092
2012-09-03,0.046,0.046,0.046,0.046,10000,0.092
2012-09-04,0.046,0.046,0.046,0.046,37500,0.092
2012-09-05,0.046,0.046,0.046,0.046,17500,0.092
2012-09-06,0.046,0.046,0.046,0.046,0,0.092
2012-09-07,0.046,0.046,0.046,0.046,0,0.092
2012-09-10,0.05,0.05,0.05,0.05,5000,0.1
2012-09-11,0.05,0.05,0.05,0.05,5000,0.1
2012-09-12,0.05,0.05,0.05,0.05,75000,0.1
2012-09-13,0.046,0.046,0.046,0.046,5000,0.092
2012-09-14,0.046,0.046,0.045,0.045,260000,0.09
2012-09-17,0.045,0.045,0.045,0.045,0,0.09
2012-09-18,0.045,0.045,0.045,0.045,0,0.09
2012-09-19,0.047,0.047,0.045,0.045,25000,0.09
2012-09-20,0.045,0.045,0.045,0.045,0,0.09
2012-09-21,0.045,0.045,0.045,0.045,0,0.09
2012-09-24,0.045,0.045,0.045,0.045,0,0.09
2012-09-25,0.045,0.045,0.045,0.045,0,0.09
2012-09-26,0.045,0.045,0.045,0.045,0,0.09
2012-09-27,0.045,0.045,0.045,0.045,0,0.09
2012-09-28,0.045,0.045,0.045,0.045,0,0.09
2012-10-01,0.045,0.045,0.045,0.045,0,0.09
2012-10-02,0.045,0.045,0.043,0.043,5000,0.086
2012-10-03,0.043,0.043,0.043,0.043,0,0.086
2012-10-04,0.043,0.043,0.043,0.043,0,0.086
2012-10-05,0.043,0.043,0.043,0.043,0,0.086
2012-10-08,0.044000000000000004,0.046,0.044000000000000004,0.046,10100,0.092
2012-10-09,0.046,0.046,0.046,0.046,0,0.092
2012-10-10,0.040999999999999995,0.040999999999999995,0.04,0.04,250000,0.08
2012-10-11,0.04,0.04,0.04,0.04,0,0.08
2012-10-12,0.04,0.04,0.04,0.04,0,0.08
2012-10-15,0.04,0.04,0.04,0.04,0,0.08
2012-10-16,0.04,0.04,0.04,0.04,0,0.08
2012-10-17,0.04,0.04,0.04,0.04,0,0.08
2012-10-18,0.04,0.04,0.04,0.04,0,0.08
2012-10-19,0.04,0.04,0.04,0.04,0,0.08
2012-10-22,0.04,0.04,0.04,0.04,0,0.08
2012-10-23,0.04,0.04,0.04,0.04,0,0.08
2012-10-24,0.04,0.04,0.04,0.04,0,0.08
2012-10-25,0.04,0.04,0.04,0.04,0,0.08
2012-10-26,0.04,0.04,0.04,0.04,0,0.08
2012-10-29,0.04,0.04,0.04,0.04,0,0.08
2012-10-30,0.04,0.04,0.04,0.04,0,0.08
2012-10-31,0.04,0.04,0.04,0.04,0,0.08
2012-11-01,0.04,0.04,0.04,0.04,0,0.08
2012-11-02,0.04,0.04,0.04,0.04,0,0.08
2012-11-05,0.04,0.04,0.04,0.04,0,0.08
2012-11-06,0.04,0.04,0.04,0.04,0,0.08
2012-11-07,0.04,0.04,0.04,0.04,0,0.08
2012-11-08,0.04,0.04,0.04,0.04,0,0.08
2012-11-09,0.04,0.04,0.04,0.04,0,0.08
2012-11-12,0.04,0.04,0.04,0.04,0,0.08
2012-11-13,0.04,0.04,0.04,0.04,0,0.08
2012-11-14,0.04,0.04,0.04,0.04,0,0.08
2012-11-15,0.04,0.04,0.04,0.04,0,0.08
2012-11-16,0.04,0.04,0.04,0.04,6200,0.08
2012-11-19,0.04,0.04,0.04,0.04,0,0.08
2012-11-20,0.04,0.04,0.04,0.04,0,0.08
2012-11-21,0.04,0.04,0.04,0.04,0,0.08
2012-11-22,0.04,0.04,0.04,0.04,0,0.08
2012-11-23,0.04,0.04,0.04,0.04,0,0.08
2012-11-26,0.04,0.04,0.04,0.04,0,0.08
2012-11-27,0.04,0.04,0.04,0.04,0,0.08
2012-11-28,0.04,0.04,0.04,0.04,0,0.08
2012-11-29,0.04,0.04,0.04,0.04,0,0.08
2012-11-30,0.04,0.04,0.04,0.04,0,0.08
2012-12-03,0.04,0.04,0.04,0.04,0,0.08
2012-12-04,0.039,0.039,0.036000000000000004,0.036000000000000004,16800,0.07200000000000001
2012-12-05,0.036000000000000004,0.036000000000000004,0.036000000000000004,0.036000000000000004,0,0.07200000000000001
2012-12-06,0.036000000000000004,0.039,0.036000000000000004,0.039,7200,0.078
2012-12-07,0.039,0.039,0.039,0.039,0,0.078
2012-12-10,0.039,0.039,0.039,0.039,0,0.078
2012-12-11,0.039,0.039,0.039,0.039,0,0.078
2012-12-12,0.039,0.039,0.039,0.039,0,0.078
2012-12-13,0.039,0.039,0.039,0.039,0,0.078
2012-12-14,0.039,0.039,0.039,0.039,0,0.078
2012-12-17,0.039,0.039,0.039,0.039,0,0.078
2012-12-18,0.039,0.039,0.039,0.039,0,0.078
2012-12-19,0.039,0.039,0.039,0.039,0,0.078
2012-12-20,0.039,0.039,0.039,0.039,0,0.078
2012-12-21,0.039,0.039,0.039,0.039,0,0.078
2012-12-24,0.039,0.039,0.039,0.039,0,0.078
2012-12-25,0.039,0.039,0.039,0.039,0,0.078
2012-12-26,0.039,0.039,0.039,0.039,0,0.078
2012-12-27,0.039,0.039,0.039,0.039,0,0.078
2012-12-28,0.039,0.039,0.039,0.039,0,0.078
2012-12-31,0.039,0.039,0.039,0.039,0,0.078
2013-01-01,0.039,0.039,0.039,0.039,0,0.078
2013-01-02,0.039,0.039,0.039,0.039,0,0.078
2013-01-03,0.039,0.039,0.039,0.039,0,0.078
2013-01-04,0.025,0.025,0.025,0.025,300400,0.05
2013-01-07,0.024,0.024,0.024,0.024,12500,0.048
2013-01-08,0.024,0.024,0.024,0.024,0,0.048
2013-01-09,0.024,0.024,0.024,0.024,0,0.048
2013-01-10,0.024,0.024,0.024,0.024,0,0.048
2013-01-11,0.024,0.024,0.024,0.024,0,0.048
2013-01-14,0.024,0.024,0.024,0.024,0,0.048
2013-01-15,0.024,0.024,0.024,0.024,0,0.048
2013-01-16,0.024,0.024,0.024,0.024,0,0.048
2013-01-17,0.024,0.024,0.024,0.024,1000,0.048
2013-01-18,0.024,0.024,0.024,0.024,0,0.048
2013-01-21,0.024,0.024,0.024,0.024,0,0.048
2013-01-22,0.024,0.024,0.024,0.024,0,0.048
2013-01-24,0.024,0.024,0.024,0.024,0,0.048
2013-01-25,0.024,0.024,0.024,0.024,0,0.048
2013-01-28,0.024,0.024,0.024,0.024,0,0.048
2013-01-29,0.024,0.024,0.024,0.024,0,0.048
2013-01-30,0.024,0.024,0.024,0.024,21700,0.048
2013-01-31,0.024,0.024,0.024,0.024,0,0.048
2013-02-01,0.024,0.024,0.024,0.024,0,0.048
2013-02-04,0.024,0.024,0.024,0.024,34500,0.048
2013-02-05,0.024,0.024,0.024,0.024,0,0.048
2013-02-06,0.025,0.027999999999999997,0.025,0.027999999999999997,55500,0.055999999999999994
2013-02-07,0.027999999999999997,0.027999999999999997,0.027999999999999997,0.027999999999999997,0,0.055999999999999994
2013-02-08,0.027999999999999997,0.027999999999999997,0.027999999999999997,0.027999999999999997,0,0.055999999999999994
2013-02-11,0.027999999999999997,0.027999999999999997,0.027999999999999997,0.027999999999999997,0,0.055999999999999994
2013-02-12,0.027999999999999997,0.027999999999999997,0.027999999999999997,0.027999999999999997,0,0.055999999999999994
2013-02-13,0.027999999999999997,0.027999999999999997,0.027999999999999997,0.027999999999999997,0,0.055999999999999994
2013-02-14,0.027999999999999997,0.027999999999999997,0.027999999999999997,0.027999999999999997,0,0.055999999999999994
2013-02-15,0.027999999999999997,0.027999999999999997,0.027999999999999997,0.027999999999999997,0,0.055999999999999994
2013-02-18,0.027999999999999997,0.027999999999999997,0.027999999999999997,0.027999999999999997,0,0.055999999999999994
2013-02-19,0.023,0.023,0.023,0.023,10000,0.046
2013-02-20,0.023,0.023,0.023,0.023,0,0.046
2013-02-21,0.019,0.019,0.019,0.019,17500,0.038
2013-02-22,0.019,0.019,0.019,0.019,0,0.038
2013-02-25,0.019,0.019,0.019,0.019,0,0.038
2013-02-26,0.019,0.019,0.019,0.019,0,0.038
2013-02-27,0.019,0.019,0.019,0.019,0,0.038
2013-02-28,0.019,0.019,0.019,0.019,0,0.038
2013-03-01,0.019,0.019,0.019,0.019,0,0.038
2013-03-04,0.019,0.019,0.019,0.019,0,0.038
2013-03-05,0.019,0.019,0.019,0.019,0,0.038
2013-03-06,0.019,0.019,0.019,0.019,0,0.038
2013-03-07,0.019,0.019,0.019,0.019,0,0.038
2013-03-08,0.019,0.019,0.019,0.019,0,0.038
2013-03-11,0.018000000000000002,0.018000000000000002,0.018000000000000002,0.018000000000000002,28000,0.036000000000000004
2013-03-12,0.018000000000000002,0.018000000000000002,0.018000000000000002,0.018000000000000002,0,0.036000000000000004
2013-03-13,0.018000000000000002,0.018000000000000002,0.018000000000000002,0.018000000000000002,0,0.036000000000000004
2013-03-14,0.01,0.01,0.01,0.01,25000,0.02
2013-03-15,0.01,0.01,0.01,0.01,0,0.02
2013-03-18,0.01,0.01,0.01,0.01,0,0.02
2013-03-19,0.01,0.01,0.01,0.01,0,0.02
2013-03-20,0.01,0.01,0.01,0.01,0,0.02
2013-03-21,0.01,0.01,0.01,0.01,0,0.02
2013-03-22,0.01,0.01,0.01,0.01,0,0.02
2013-03-25,0.01,0.01,0.01,0.01,0,0.02
2013-03-26,0.01,0.01,0.01,0.01,0,0.02
2013-03-27,0.01,0.01,0.01,0.01,0,0.02
2013-03-28,0.011000000000000001,0.011000000000000001,0.011000000000000001,0.011000000000000001,1800,0.022000000000000002
2013-03-29,0.011000000000000001,0.011000000000000001,0.011000000000000001,0.011000000000000001,0,0.022000000000000002
2013-04-01,0.011000000000000001,0.011000000000000001,0.011000000000000001,0.011000000000000001,0,0.022000000000000002
2013-04-02,0.011000000000000001,0.011000000000000001,0.011000000000000001,0.011000000000000001,0,0.022000000000000002
2013-04-03,0.011000000000000001,0.011000000000000001,0.011000000000000001,0.011000000000000001,0,0.022000000000000002
2013-04-04,0.011000000000000001,0.011000000000000001,0.011000000000000001,0.011000000000000001,0,0.022000000000000002
2013-04-05,0.011000000000000001,0.011000000000000001,0.011000000000000001,0.011000000000000001,0,0.022000000000000002
2013-04-08,0.011000000000000001,0.011000000000000001,0.011000000000000001,0.011000000000000001,0,0.022000000000000002
2013-04-09,0.011000000000000001,0.011000000000000001,0.011000000000000001,0.011000000000000001,12900,0.022000000000000002
2013-04-10,0.011000000000000001,0.011000000000000001,0.011000000000000001,0.011000000000000001,0,0.022000000000000002
2013-04-11,0.011000000000000001,0.011000000000000001,0.011000000000000001,0.011000000000000001,0,0.022000000000000002
2013-04-12,0.011000000000000001,0.011000000000000001,0.011000000000000001,0.011000000000000001,0,0.022000000000000002
2013-04-15,0.011000000000000001,0.011000000000000001,0.011000000000000001,0.011000000000000001,0,0.022000000000000002
2013-04-16,0.011000000000000001,0.011000000000000001,0.011000000000000001,0.011000000000000001,0,0.022000000000000002
2013-04-17,0.011000000000000001,0.011000000000000001,0.011000000000000001,0.011000000000000001,0,0.022000000000000002
2013-04-18,0.011000000000000001,0.011000000000000001,0.011000000000000001,0.011000000000000001,0,0.022000000000000002
2013-04-19,0.011000000000000001,0.011000000000000001,0.011000000000000001,0.011000000000000001,0,0.022000000000000002
2013-04-22,0.011000000000000001,0.011000000000000001,0.011000000000000001,0.011000000000000001,0,0.022000000000000002
2013-04-23,0.011000000000000001,0.011000000000000001,0.011000000000000001,0.011000000000000001,0,0.022000000000000002
2013-04-24,0.011000000000000001,0.011000000000000001,0.011000000000000001,0.011000000000000001,0,0.022000000000000002
2013-04-25,0.011000000000000001,0.011000000000000001,0.011000000000000001,0.011000000000000001,0,0.022000000000000002
2013-04-26,0.011000000000000001,0.011000000000000001,0.011000000000000001,0.011000000000000001,0,0.022000000000000002
2013-04-29,0.011000000000000001,0.011000000000000001,0.011000000000000001,0.011000000000000001,0,0.022000000000000002
2013-04-30,0.011000000000000001,0.011000000000000001,0.011000000000000001,0.011000000000000001,0,0.022000000000000002
2013-05-01,0.011000000000000001,0.011000000000000001,0.011000000000000001,0.011000000000000001,0,0.022000000000000002
2013-05-02,0.011000000000000001,0.011000000000000001,0.011000000000000001,0.011000000000000001,0,0.022000000000000002
2013-05-03,0.011000000000000001,0.011000000000000001,0.011000000000000001,0.011000000000000001,0,0.022000000000000002
2013-05-06,0.011000000000000001,0.011000000000000001,0.011000000000000001,0.011000000000000001,0,0.022000000000000002
2013-05-07,0.011000000000000001,0.011000000000000001,0.011000000000000001,0.011000000000000001,0,0.022000000000000002
2013-05-08,0.011000000000000001,0.011000000000000001,0.011000000000000001,0.011000000000000001,0,0.022000000000000002
2013-05-09,0.011000000000000001,0.011000000000000001,0.011000000000000001,0.011000000000000001,0,0.022000000000000002
2013-05-10,0.011000000000000001,0.011000000000000001,0.011000000000000001,0.011000000000000001,0,0.022000000000000002
2013-05-13,0.011000000000000001,0.011000000000000001,0.011000000000000001,0.011000000000000001,0,0.022000000000000002
2013-05-14,0.011000000000000001,0.011000000000000001,0.011000000000000001,0.011000000000000001,0,0.022000000000000002
2013-05-15,0.011000000000000001,0.011000000000000001,0.011000000000000001,0.011000000000000001,0,0.022000000000000002
2013-05-16,0.015,0.015,0.015,0.015,10000,0.03
2013-05-17,0.015,0.015,0.015,0.015,0,0.03
2013-05-20,0.015,0.015,0.015,0.015,0,0.03
2013-05-21,0.015,0.015,0.015,0.015,0,0.03
2013-05-22,0.015,0.015,0.015,0.015,0,0.03
2013-05-23,0.018000000000000002,0.018000000000000002,0.018000000000000002,0.018000000000000002,14500,0.036000000000000004
2013-05-24,0.018000000000000002,0.018000000000000002,0.018000000000000002,0.018000000000000002,0,0.036000000000000004
2013-05-27,0.018000000000000002,0.018000000000000002,0.018000000000000002,0.018000000000000002,0,0.036000000000000004
2013-05-28,0.018000000000000002,0.018000000000000002,0.018000000000000002,0.018000000000000002,0,0.036000000000000004
2013-05-29,0.018000000000000002,0.018000000000000002,0.018000000000000002,0.018000000000000002,0,0.036000000000000004
2013-05-30,0.018000000000000002,0.018000000000000002,0.018000000000000002,0.018000000000000002,0,0.036000000000000004
2013-05-31,0.019,0.019,0.019,0.019,73300,0.038
2013-06-03,0.019,0.019,0.019,0.019,0,0.038
2013-06-04,0.019,0.019,0.019,0.019,0,0.038
2013-06-05,0.019,0.019,0.019,0.019,0,0.038
2013-06-06,0.019,0.019,0.019,0.019,0,0.038
2013-06-07,0.019,0.019,0.019,0.019,0,0.038
2013-06-10,0.019,0.019,0.019,0.019,0,0.038
2013-06-11,0.019,0.019,0.019,0.019,0,0.038
2013-06-12,0.019,0.019,0.019,0.019,0,0.038
2013-06-13,0.019,0.019,0.019,0.019,0,0.038
2013-06-14,0.019,0.019,0.019,0.019,0,0.038
2013-06-17,0.019,0.019,0.019,0.019,0,0.038
2013-06-18,0.019,0.019,0.019,0.019,0,0.038
2013-06-19,0.019,0.019,0.019,0.019,0,0.038
2013-06-20,0.019,0.019,0.019,0.019,0,0.038
2013-06-21,0.019,0.019,0.019,0.019,0,0.038
2013-06-24,0.019,0.019,0.019,0.019,0,0.038
2013-06-25,0.019,0.019,0.019,0.019,0,0.038
2013-06-26,0.01,0.01,0.01,0.01,13400,0.02
2013-06-27,0.012,0.012,0.012,0.012,5000,0.024
2013-06-28,0.012,0.012,0.012,0.012,5000,0.024
2013-07-01,0.012,0.012,0.012,0.012,0,0.024
2013-07-02,0.012,0.012,0.012,0.012,0,0.024
2013-07-03,0.012,0.012,0.012,0.012,0,0.024
2013-07-04,0.012,0.012,0.012,0.012,0,0.024
2013-07-05,0.012,0.012,0.012,0.012,0,0.024
2013-07-08,0.012,0.012,0.012,0.012,0,0.024
2013-07-09,0.012,0.012,0.012,0.012,0,0.024
2013-07-10,0.012,0.012,0.012,0.012,0,0.024
2013-07-11,0.012,0.012,0.012,0.012,0,0.024
2013-07-12,0.012,0.012,0.012,0.012,0,0.024
2013-07-15,0.012,0.012,0.012,0.012,0,0.024
2013-07-16,0.012,0.012,0.012,0.012,2500,0.024
2013-07-17,0.012,0.012,0.012,0.012,0,0.024
2013-07-18,0.012,0.012,0.012,0.012,0,0.024
2013-07-19,0.012,0.012,0.012,0.012,0,0.024
2013-07-22,0.012,0.012,0.012,0.012,0,0.024
2013-07-23,0.012,0.012,0.012,0.012,0,0.024
2013-07-24,0.012,0.012,0.012,0.012,0,0.024
2013-07-25,0.012,0.012,0.012,0.012,0,0.024
2013-07-26,0.012,0.012,0.012,0.012,0,0.024
2013-07-29,0.012,0.012,0.012,0.012,0,0.024
2013-07-30,0.012,0.012,0.012,0.012,0,0.024
2013-07-31,0.012,0.012,0.012,0.012,0,0.024
2013-08-01,0.012,0.012,0.012,0.012,0,0.024
2013-08-02,0.012,0.012,0.012,0.012,0,0.024
2013-08-05,0.012,0.012,0.012,0.012,0,0.024
2013-08-06,0.012,0.012,0.012,0.012,2500,0.024
2013-08-07,0.012,0.012,0.012,0.012,0,0.024
2013-08-08,0.012,0.012,0.012,0.012,0,0.024
2013-08-09,0.012,0.012,0.012,0.012,0,0.024
2013-08-12,0.012,0.012,0.012,0.012,0,0.024
2013-08-13,0.012,0.012,0.012,0.012,0,0.024
2013-08-14,0.012,0.012,0.012,0.012,0,0.024
2013-08-15,0.012,0.012,0.012,0.012,0,0.024
2013-08-16,0.012,0.012,0.012,0.012,0,0.024
2013-08-19,0.012,0.012,0.012,0.012,0,0.024
2013-08-20,0.012,0.012,0.012,0.012,0,0.024
2013-08-21,0.013999999999999999,0.013999999999999999,0.013999999999999999,0.013999999999999999,13400,0.027999999999999997
2013-08-22,0.013999999999999999,0.013999999999999999,0.013999999999999999,0.013999999999999999,0,0.027999999999999997
2013-08-23,0.013999999999999999,0.013999999999999999,0.013999999999999999,0.013999999999999999,0,0.027999999999999997
2013-08-26,0.013999999999999999,0.013999999999999999,0.013999999999999999,0.013999999999999999,0,0.027999999999999997
2013-08-27,0.013999999999999999,0.013999999999999999,0.013999999999999999,0.013999999999999999,0,0.027999999999999997
2013-08-28,0.013999999999999999,0.013999999999999999,0.013999999999999999,0.013999999999999999,0,0.027999999999999997
2013-08-29,0.013999999999999999,0.013999999999999999,0.013999999999999999,0.013999999999999999,0,0.027999999999999997
2013-08-30,0.013999999999999999,0.013999999999999999,0.013999999999999999,0.013999999999999999,0,0.027999999999999997
2013-09-02,0.013999999999999999,0.013999999999999999,0.013999999999999999,0.013999999999999999,0,0.027999999999999997
2013-09-03,0.013999999999999999,0.013999999999999999,0.013999999999999999,0.013999999999999999,0,0.027999999999999997
2013-09-04,0.013999999999999999,0.013999999999999999,0.013999999999999999,0.013999999999999999,0,0.027999999999999997
2013-09-05,0.013999999999999999,0.013999999999999999,0.013999999999999999,0.013999999999999999,0,0.027999999999999997
2013-09-06,0.013999999999999999,0.013999999999999999,0.013999999999999999,0.013999999999999999,0,0.027999999999999997
2013-09-09,0.013999999999999999,0.013999999999999999,0.013999999999999999,0.013999999999999999,0,0.027999999999999997
2013-09-10,0.013999999999999999,0.013999999999999999,0.013999999999999999,0.013999999999999999,0,0.027999999999999997
2013-09-11,0.013999999999999999,0.013999999999999999,0.013999999999999999,0.013999999999999999,0,0.027999999999999997
2013-09-12,0.013999999999999999,0.013999999999999999,0.013999999999999999,0.013999999999999999,0,0.027999999999999997
2013-09-13,0.013999999999999999,0.013999999999999999,0.013999999999999999,0.013999999999999999,0,0.027999999999999997
2013-09-16,0.013999999999999999,0.013999999999999999,0.013999999999999999,0.013999999999999999,0,0.027999999999999997
2013-09-17,0.013999999999999999,0.013999999999999999,0.013999999999999999,0.013999999999999999,0,0.027999999999999997
2013-09-18,0.013999999999999999,0.013999999999999999,0.013999999999999999,0.013999999999999999,0,0.027999999999999997
2013-09-19,0.013999999999999999,0.013999999999999999,0.013999999999999999,0.013999999999999999,0,0.027999999999999997
2013-09-20,0.013999999999999999,0.013999999999999999,0.013999999999999999,0.013999999999999999,0,0.027999999999999997
2013-09-23,0.013999999999999999,0.013999999999999999,0.013999999999999999,0.013999999999999999,0,0.027999999999999997
2013-09-24,0.013999999999999999,0.013999999999999999,0.013999999999999999,0.013999999999999999,0,0.027999999999999997
2013-09-25,0.013999999999999999,0.013999999999999999,0.013999999999999999,0.013999999999999999,0,0.027999999999999997
2013-09-26,0.013999999999999999,0.013999999999999999,0.013999999999999999,0.013999999999999999,0,0.027999999999999997
2013-09-27,0.013999999999999999,0.013999999999999999,0.013999999999999999,0.013999999999999999,0,0.027999999999999997
2013-09-30,0.013999999999999999,0.013999999999999999,0.013999999999999999,0.013999999999999999,0,0.027999999999999997
2013-10-01,0.013999999999999999,0.013999999999999999,0.013999999999999999,0.013999999999999999,0,0.027999999999999997
2013-10-02,0.013999999999999999,0.013999999999999999,0.013999999999999999,0.013999999999999999,0,0.027999999999999997
2013-10-03,0.013000000000000001,0.013000000000000001,0.013000000000000001,0.013000000000000001,30000,0.026000000000000002
2013-10-04,0.013000000000000001,0.013000000000000001,0.013000000000000001,0.013000000000000001,0,0.026000000000000002
2013-10-07,0.013000000000000001,0.013000000000000001,0.013000000000000001,0.013000000000000001,0,0.026000000000000002
2013-10-08,0.013000000000000001,0.013000000000000001,0.013000000000000001,0.013000000000000001,0,0.026000000000000002
2013-10-09,0.013000000000000001,0.013000000000000001,0.013000000000000001,0.013000000000000001,0,0.026000000000000002
2013-10-10,0.013000000000000001,0.013000000000000001,0.013000000000000001,0.013000000000000001,0,0.026000000000000002
2013-10-11,0.013000000000000001,0.013000000000000001,0.013000000000000001,0.013000000000000001,0,0.026000000000000002
2013-10-14,0.013000000000000001,0.013000000000000001,0.013000000000000001,0.013000000000000001,0,0.026000000000000002
2013-10-15,0.01,0.01,0.01,0.01,20000,0.02
2013-10-16,0.01,0.01,0.01,0.01,0,0.02
2013-10-17,0.01,0.01,0.01,0.01,0,0.02
2013-10-18,0.01,0.01,0.01,0.01,0,0.02
2013-10-21,0.01,0.012,0.01,0.012,12200,0.024
2013-10-22,0.012,0.012,0.012,0.012,0,0.024
2013-10-23,0.012,0.012,0.012,0.012,2500,0.024
2013-10-24,0.012,0.012,0.012,0.012,0,0.024
2013-10-25,0.012,0.012,0.012,0.012,0,0.024
2013-10-28,0.012,0.012,0.012,0.012,73600,0.024
2013-10-29,0.013000000000000001,0.013000000000000001,0.013000000000000001,0.013000000000000001,79900,0.026000000000000002
2013-10-30,0.013000000000000001,0.013000000000000001,0.013000000000000001,0.013000000000000001,0,0.026000000000000002
2013-10-31,0.013000000000000001,0.013000000000000001,0.013000000000000001,0.013000000000000001,0,0.026000000000000002
2013-11-01,0.013000000000000001,0.013000000000000001,0.013000000000000001,0.013000000000000001,0,0.026000000000000002
2013-11-04,0.013000000000000001,0.013000000000000001,0.013000000000000001,0.013000000000000001,0,0.026000000000000002
2013-11-05,0.013000000000000001,0.013000000000000001,0.013000000000000001,0.013000000000000001,0,0.026000000000000002
2013-11-06,0.013000000000000001,0.013000000000000001,0.013000000000000001,0.013000000000000001,0,0.026000000000000002
2013-11-07,0.011000000000000001,0.011000000000000001,0.011000000000000001,0.011000000000000001,5000,0.022000000000000002
2013-11-08,0.011000000000000001,0.011000000000000001,0.011000000000000001,0.011000000000000001,10000,0.022000000000000002
2013-11-11,0.011000000000000001,0.011000000000000001,0.011000000000000001,0.011000000000000001,0,0.022000000000000002
2013-11-12,0.011000000000000001,0.011000000000000001,0.011000000000000001,0.011000000000000001,0,0.022000000000000002
2013-11-13,0.011000000000000001,0.011000000000000001,0.011000000000000001,0.011000000000000001,0,0.022000000000000002
2013-11-14,0.011000000000000001,0.011000000000000001,0.011000000000000001,0.011000000000000001,0,0.022000000000000002
2013-11-15,0.011000000000000001,0.011000000000000001,0.011000000000000001,0.011000000000000001,0,0.022000000000000002
2013-11-18,0.011000000000000001,0.011000000000000001,0.011000000000000001,0.011000000000000001,0,0.022000000000000002
2013-11-19,0.011000000000000001,0.011000000000000001,0.011000000000000001,0.011000000000000001,0,0.022000000000000002
2013-11-20,0.011000000000000001,0.011000000000000001,0.011000000000000001,0.011000000000000001,0,0.022000000000000002
2013-11-21,0.011000000000000001,0.011000000000000001,0.011000000000000001,0.011000000000000001,0,0.022000000000000002
2013-11-22,0.011000000000000001,0.011000000000000001,0.011000000000000001,0.011000000000000001,0,0.022000000000000002
2013-11-25,0.011000000000000001,0.011000000000000001,0.011000000000000001,0.011000000000000001,0,0.022000000000000002
2013-11-26,0.011000000000000001,0.011000000000000001,0.011000000000000001,0.011000000000000001,0,0.022000000000000002
2013-11-27,0.011000000000000001,0.011000000000000001,0.011000000000000001,0.011000000000000001,0,0.022000000000000002
2013-11-28,0.011000000000000001,0.011000000000000001,0.011000000000000001,0.011000000000000001,0,0.022000000000000002
2013-11-29,0.011000000000000001,0.011000000000000001,0.011000000000000001,0.011000000000000001,0,0.022000000000000002
2013-12-02,0.011000000000000001,0.011000000000000001,0.011000000000000001,0.011000000000000001,0,0.022000000000000002
2013-12-03,0.011000000000000001,0.011000000000000001,0.011000000000000001,0.011000000000000001,0,0.022000000000000002
2013-12-04,0.011000000000000001,0.011000000000000001,0.011000000000000001,0.011000000000000001,0,0.022000000000000002
2013-12-05,0.011000000000000001,0.011000000000000001,0.011000000000000001,0.011000000000000001,0,0.022000000000000002
2013-12-06,0.011000000000000001,0.011000000000000001,0.011000000000000001,0.011000000000000001,0,0.022000000000000002
2013-12-09,0.011000000000000001,0.011000000000000001,0.011000000000000001,0.011000000000000001,0,0.022000000000000002
2013-12-10,0.011000000000000001,0.011000000000000001,0.011000000000000001,0.011000000000000001,0,0.022000000000000002
2013-12-11,0.011000000000000001,0.011000000000000001,0.011000000000000001,0.011000000000000001,0,0.022000000000000002
2013-12-12,0.011000000000000001,0.011000000000000001,0.011000000000000001,0.011000000000000001,0,0.022000000000000002
2013-12-13,0.011000000000000001,0.011000000000000001,0.011000000000000001,0.011000000000000001,0,0.022000000000000002
2013-12-16,0.011000000000000001,0.011000000000000001,0.011000000000000001,0.011000000000000001,0,0.022000000000000002
2013-12-17,0.011000000000000001,0.011000000000000001,0.011000000000000001,0.011000000000000001,0,0.022000000000000002
2013-12-18,0.011000000000000001,0.011000000000000001,0.011000000000000001,0.011000000000000001,0,0.022000000000000002
2013-12-19,0.011000000000000001,0.011000000000000001,0.011000000000000001,0.011000000000000001,0,0.022000000000000002
2013-12-20,0.011000000000000001,0.011000000000000001,0.011000000000000001,0.011000000000000001,0,0.022000000000000002
2013-12-23,0.011000000000000001,0.011000000000000001,0.011000000000000001,0.011000000000000001,0,0.022000000000000002
2013-12-24,0.011000000000000001,0.011000000000000001,0.011000000000000001,0.011000000000000001,0,0.022000000000000002
2013-12-25,0.011000000000000001,0.011000000000000001,0.011000000000000001,0.011000000000000001,0,0.022000000000000002
2013-12-26,0.011000000000000001,0.011000000000000001,0.011000000000000001,0.011000000000000001,0,0.022000000000000002
2013-12-27,0.011000000000000001,0.011000000000000001,0.011000000000000001,0.011000000000000001,0,0.022000000000000002
2013-12-30,0.011000000000000001,0.011000000000000001,0.011000000000000001,0.011000000000000001,0,0.022000000000000002
2013-12-31,0.011000000000000001,0.011000000000000001,0.011000000000000001,0.011000000000000001,0,0.022000000000000002
2014-01-01,0.011000000000000001,0.011000000000000001,0.011000000000000001,0.011000000000000001,0,0.022000000000000002
2014-01-02,0.011000000000000001,0.011000000000000001,0.011000000000000001,0.011000000000000001,0,0.022000000000000002
2014-01-03,0.011000000000000001,0.011000000000000001,0.011000000000000001,0.011000000000000001,0,0.022000000000000002
2014-01-06,0.011000000000000001,0.011000000000000001,0.011000000000000001,0.011000000000000001,0,0.022000000000000002
2014-01-07,0.011000000000000001,0.011000000000000001,0.011000000000000001,0.011000000000000001,0,0.022000000000000002
2014-01-08,0.011000000000000001,0.011000000000000001,0.011000000000000001,0.011000000000000001,0,0.022000000000000002
2014-01-09,0.011000000000000001,0.011000000000000001,0.011000000000000001,0.011000000000000001,0,0.022000000000000002
2014-01-10,0.011000000000000001,0.011000000000000001,0.011000000000000001,0.011000000000000001,0,0.022000000000000002
2014-01-13,0.011000000000000001,0.011000000000000001,0.011000000000000001,0.011000000000000001,0,0.022000000000000002
2014-01-14,0.011000000000000001,0.011000000000000001,0.011000000000000001,0.011000000000000001,0,0.022000000000000002
2014-01-15,0.011000000000000001,0.011000000000000001,0.011000000000000001,0.011000000000000001,0,0.022000000000000002
2014-01-16,0.011000000000000001,0.011000000000000001,0.011000000000000001,0.011000000000000001,0,0.022000000000000002
2014-01-17,0.011000000000000001,0.011000000000000001,0.011000000000000001,0.011000000000000001,0,0.022000000000000002
2014-01-20,0.011000000000000001,0.011000000000000001,0.011000000000000001,0.011000000000000001,0,0.022000000000000002
2014-01-21,0.011000000000000001,0.011000000000000001,0.011000000000000001,0.011000000000000001,0,0.022000000000000002
2014-01-22,0.011000000000000001,0.011000000000000001,0.011000000000000001,0.011000000000000001,0,0.022000000000000002
2014-01-23,0.011000000000000001,0.011000000000000001,0.011000000000000001,0.011000000000000001,0,0.022000000000000002
2014-01-24,0.011000000000000001,0.011000000000000001,0.011000000000000001,0.011000000000000001,0,0.022000000000000002
2014-01-27,0.011000000000000001,0.011000000000000001,0.011000000000000001,0.011000000000000001,0,0.022000000000000002
2014-01-28,0.011000000000000001,0.011000000000000001,0.011000000000000001,0.011000000000000001,0,0.022000000000000002
2014-01-29,0.011000000000000001,0.011000000000000001,0.011000000000000001,0.011000000000000001,0,0.022000000000000002
2014-01-30,0.011000000000000001,0.011000000000000001,0.011000000000000001,0.011000000000000001,0,0.022000000000000002
2014-01-31,0.011000000000000001,0.011000000000000001,0.011000000000000001,0.011000000000000001,0,0.022000000000000002
2014-02-03,0.011000000000000001,0.011000000000000001,0.011000000000000001,0.011000000000000001,0,0.022000000000000002
2014-02-04,0.011000000000000001,0.011000000000000001,0.011000000000000001,0.011000000000000001,0,0.022000000000000002
2014-02-05,0.011000000000000001,0.011000000000000001,0.011000000000000001,0.011000000000000001,0,0.022000000000000002
2014-02-06,0.011000000000000001,0.011000000000000001,0.011000000000000001,0.011000000000000001,0,0.022000000000000002
2014-02-07,0.011000000000000001,0.011000000000000001,0.011000000000000001,0.011000000000000001,0,0.022000000000000002
2014-02-10,0.011000000000000001,0.011000000000000001,0.011000000000000001,0.011000000000000001,0,0.022000000000000002
2014-02-11,0.011000000000000001,0.011000000000000001,0.011000000000000001,0.011000000000000001,0,0.022000000000000002
2014-02-12,0.011000000000000001,0.011000000000000001,0.011000000000000001,0.011000000000000001,0,0.022000000000000002
2014-02-13,0.011000000000000001,0.011000000000000001,0.011000000000000001,0.011000000000000001,0,0.022000000000000002
2014-02-14,0.01,0.01,0.01,0.01,7500,0.02
2014-02-17,0.01,0.01,0.01,0.01,0,0.02
2014-02-18,0.01,0.01,0.01,0.01,0,0.02
2014-02-19,0.01,0.01,0.01,0.01,0,0.02
2014-02-20,0.01,0.01,0.01,0.01,0,0.02
2014-02-21,0.01,0.01,0.01,0.01,0,0.02
2014-02-24,0.01,0.01,0.01,0.01,0,0.02
2014-02-25,0.01,0.01,0.01,0.01,0,0.02
2014-02-26,0.01,0.01,0.01,0.01,0,0.02
2014-02-27,0.01,0.01,0.01,0.01,0,0.02
2014-02-28,0.01,0.01,0.01,0.01,0,0.02
2014-03-03,0.01,0.01,0.01,0.01,0,0.02
2014-03-04,0.01,0.01,0.01,0.01,0,0.02
2014-03-05,0.01,0.01,0.01,0.01,0,0.02
2014-03-06,0.01,0.01,0.01,0.01,0,0.02
2014-03-07,0.01,0.01,0.01,0.01,0,0.02
2014-03-10,0.01,0.01,0.01,0.01,0,0.02
2014-03-11,0.01,0.01,0.01,0.01,0,0.02
2014-03-12,0.01,0.01,0.01,0.01,0,0.02
2014-03-13,0.01,0.01,0.01,0.01,0,0.02
2014-03-14,0.01,0.01,0.01,0.01,0,0.02
2014-03-17,0.01,0.01,0.01,0.01,0,0.02
2014-03-18,0.01,0.01,0.01,0.01,0,0.02
2014-03-19,0.01,0.01,0.01,0.01,0,0.02
2014-03-20,0.01,0.01,0.01,0.01,0,0.02
2014-03-21,0.01,0.01,0.01,0.01,0,0.02
2014-03-24,0.01,0.01,0.01,0.01,0,0.02
2014-03-25,0.01,0.01,0.01,0.01,0,0.02
2014-03-26,0.01,0.01,0.01,0.01,0,0.02
2014-03-27,0.01,0.01,0.01,0.01,0,0.02
2014-03-28,0.01,0.01,0.01,0.01,0,0.02
2014-03-31,0.01,0.01,0.01,0.01,0,0.02
2014-04-01,0.01,0.01,0.01,0.01,0,0.02
2014-04-02,0.01,0.01,0.01,0.01,0,0.02
2014-04-03,0.01,0.01,0.01,0.01,0,0.02
2014-04-04,0.01,0.01,0.01,0.01,0,0.02
2014-04-07,0.01,0.01,0.01,0.01,0,0.02
2014-04-08,0.01,0.01,0.01,0.01,0,0.02
2014-04-09,0.01,0.01,0.01,0.01,0,0.02
2014-04-10,0.01,0.01,0.01,0.01,0,0.02
2014-04-11,0.01,0.01,0.01,0.01,0,0.02
2014-04-14,0.01,0.01,0.01,0.01,7500,0.02
2014-04-15,0.01,0.01,0.01,0.01,0,0.02
2014-04-16,0.01,0.01,0.01,0.01,0,0.02
2014-04-17,0.01,0.01,0.01,0.01,0,0.02
2014-04-18,0.01,0.01,0.01,0.01,0,0.02
2014-04-21,0.01,0.01,0.01,0.01,0,0.02
2014-04-22,0.01,0.01,0.01,0.01,0,0.02
2014-04-23,0.006,0.006,0.006,0.006,49500,0.012
2014-04-24,0.006,0.006,0.006,0.006,0,0.012
2014-04-25,0.006,0.006,0.006,0.006,0,0.012
2014-04-28,0.006,0.006,0.006,0.006,0,0.012
2014-04-29,0.006,0.006,0.006,0.006,0,0.012
2014-04-30,0.006,0.006,0.006,0.006,0,0.012
2014-05-01,0.006,0.006,0.006,0.006,0,0.012
2014-05-02,0.006,0.006,0.006,0.006,0,0.012
2014-05-05,0.006,0.006,0.006,0.006,0,0.012
2014-05-06,0.005,0.005,0.005,0.005,7500,0.01
2014-05-07,0.005,0.005,0.005,0.005,0,0.01
2014-05-08,0.005,0.005,0.005,0.005,0,0.01
2014-05-09,0.005,0.005,0.005,0.005,0,0.01
2014-05-12,0.005,0.005,0.005,0.005,0,0.01
2014-05-13,0.005,0.005,0.005,0.005,0,0.01
2014-05-14,0.005,0.005,0.005,0.005,0,0.01
2014-05-15,0.005,0.005,0.005,0.005,0,0.01
2014-05-16,0.005,0.005,0.005,0.005,0,0.01
2014-05-19,0.005,0.005,0.005,0.005,0,0.01
2014-05-20,0.005,0.005,0.005,0.005,0,0.01
2014-05-21,0.005,0.005,0.005,0.005,0,0.01
2014-05-22,0.005,0.005,0.005,0.005,0,0.01
2014-05-23,0.005,0.005,0.005,0.005,0,0.01
2014-05-26,0.005,0.005,0.005,0.005,0,0.01
2014-05-27,0.005,0.005,0.005,0.005,0,0.01
2014-05-28,0.005,0.005,0.005,0.005,0,0.01
2014-05-29,0.005,0.005,0.005,0.005,0,0.01
2014-05-30,0.005,0.005,0.005,0.005,0,0.01
2014-06-02,0.005,0.005,0.005,0.005,0,0.01
2014-06-03,0.005,0.005,0.005,0.005,0,0.01
2014-06-04,0.005,0.005,0.005,0.005,0,0.01
2014-06-05,0.005,0.005,0.005,0.005,0,0.01
2014-06-06,0.005,0.005,0.005,0.005,0,0.01
2014-06-09,0.005,0.005,0.005,0.005,0,0.01
2014-06-10,0.01,0.01,0.01,0.01,5000,0.02
2014-06-11,0.01,0.01,0.01,0.01,0,0.02
2014-06-12,0.01,0.01,0.01,0.01,0,0.02
2014-06-13,0.006999999999999999,0.006999999999999999,0.006999999999999999,0.006999999999999999,5000,0.013999999999999999
2014-06-16,0.006999999999999999,0.006999999999999999,0.006999999999999999,0.006999999999999999,0,0.013999999999999999
2014-06-17,0.006999999999999999,0.006999999999999999,0.006999999999999999,0.006999999999999999,0,0.013999999999999999
2014-06-18,0.006999999999999999,0.006999999999999999,0.006999999999999999,0.006999999999999999,0,0.013999999999999999
2014-06-19,0.006999999999999999,0.006999999999999999,0.006999999999999999,0.006999999999999999,0,0.013999999999999999
2014-06-20,0.006999999999999999,0.006999999999999999,0.006999999999999999,0.006999999999999999,0,0.013999999999999999
2014-06-23,0.006999999999999999,0.006999999999999999,0.006999999999999999,0.006999999999999999,5000,0.013999999999999999
2014-06-24,0.006999999999999999,0.006999999999999999,0.006999999999999999,0.006999999999999999,0,0.013999999999999999
2014-06-25,0.006999999999999999,0.006999999999999999,0.006999999999999999,0.006999999999999999,300000,0.013999999999999999
2014-06-26,0.008,0.008,0.006999999999999999,0.006999999999999999,8891600,0.013999999999999999
2014-06-27,0.009000000000000001,0.009000000000000001,0.009000000000000001,0.009000000000000001,505000,0.018000000000000002
2014-06-30,0.01,0.011000000000000001,0.01,0.011000000000000001,1032500,0.022000000000000002
2014-07-01,0.011000000000000001,0.012,0.011000000000000001,0.012,200000,0.024
2014-07-02,0.012,0.012,0.012,0.012,0,0.024
2014-07-03,0.012,0.012,0.012,0.012,0,0.024
2014-07-04,0.012,0.012,0.012,0.012,0,0.024
2014-07-07,0.012,0.012,0.012,0.012,0,0.024
2014-07-08,0.012,0.012,0.012,0.012,0,0.024
2014-07-09,0.012,0.013999999999999999,0.012,0.013999999999999999,1120000,0.027999999999999997
2014-07-10,0.013999999999999999,0.013999999999999999,0.013999999999999999,0.013999999999999999,0,0.027999999999999997
2014-07-11,0.013999999999999999,0.013999999999999999,0.013999999999999999,0.013999999999999999,0,0.027999999999999997
2014-07-14,0.013999999999999999,0.013999999999999999,0.013999999999999999,0.013999999999999999,0,0.027999999999999997
2014-07-15,0.013999999999999999,0.013999999999999999,0.013999999999999999,0.013999999999999999,0,0.027999999999999997
2014-07-16,0.013999999999999999,0.013999999999999999,0.013999999999999999,0.013999999999999999,0,0.027999999999999997
2014-07-17,0.013999999999999999,0.013999999999999999,0.013999999999999999,0.013999999999999999,0,0.027999999999999997
2014-07-18,0.013999999999999999,0.013999999999999999,0.013999999999999999,0.013999999999999999,0,0.027999999999999997
2014-07-21,0.013999999999999999,0.015,0.013999999999999999,0.015,380000,0.03
2014-07-22,0.015,0.015,0.015,0.015,0,0.03
2014-07-23,0.015,0.015,0.015,0.015,0,0.03
2014-07-24,0.015,0.015,0.015,0.015,0,0.03
2014-07-25,0.015,0.015,0.015,0.015,0,0.03
2014-07-28,0.015,0.015,0.015,0.015,0,0.03
2014-07-29,0.015,0.015,0.015,0.015,0,0.03
2014-07-30,0.015,0.015,0.015,0.015,0,0.03
2014-07-31,0.015,0.015,0.015,0.015,0,0.03
2014-08-01,0.015,0.015,0.015,0.015,0,0.03
2014-08-04,0.015,0.015,0.015,0.015,0,0.03
2014-08-05,0.015,0.015,0.015,0.015,0,0.03
2014-08-06,0.015,0.015,0.015,0.015,0,0.03
2014-08-07,0.015,0.015,0.015,0.015,0,0.03
2014-08-08,0.015,0.015,0.015,0.015,0,0.03
2014-08-11,0.015,0.015,0.015,0.015,0,0.03
2014-08-12,0.016,0.017,0.016,0.017,100000,0.034
2014-08-13,0.015,0.015,0.015,0.015,25000,0.03
2014-08-14,0.015,0.015,0.015,0.015,0,0.03
2014-08-15,0.015,0.015,0.015,0.015,0,0.03
2014-08-18,0.015,0.015,0.015,0.015,0,0.03
2014-08-19,0.015,0.015,0.015,0.015,0,0.03
2014-08-20,0.015,0.015,0.015,0.015,0,0.03
2014-08-21,0.015,0.015,0.015,0.015,0,0.03
2014-08-22,0.015,0.015,0.015,0.015,0,0.03
2014-08-25,0.016,0.016,0.016,0.016,50000,0.032
2014-08-26,0.016,0.016,0.016,0.016,0,0.032
2014-08-27,0.016,0.016,0.016,0.016,0,0.032
2014-08-28,0.016,0.016,0.016,0.016,0,0.032
2014-08-29,0.016,0.016,0.016,0.016,0,0.032
2014-09-01,0.016,0.016,0.016,0.016,0,0.032
2014-09-02,0.013000000000000001,0.013000000000000001,0.013000000000000001,0.013000000000000001,5000,0.026000000000000002
2014-09-03,0.013000000000000001,0.013000000000000001,0.013000000000000001,0.013000000000000001,0,0.026000000000000002
2014-09-04,0.013000000000000001,0.013000000000000001,0.013000000000000001,0.013000000000000001,0,0.026000000000000002
2014-09-05,0.013000000000000001,0.013000000000000001,0.013000000000000001,0.013000000000000001,0,0.026000000000000002
2014-09-08,0.013000000000000001,0.013000000000000001,0.013000000000000001,0.013000000000000001,0,0.026000000000000002
2014-09-09,0.013000000000000001,0.013000000000000001,0.013000000000000001,0.013000000000000001,0,0.026000000000000002
2014-09-10,0.016,0.016,0.016,0.016,5000,0.032
2014-09-11,0.016,0.016,0.016,0.016,0,0.032
2014-09-12,0.016,0.016,0.016,0.016,0,0.032
2014-09-15,0.016,0.016,0.016,0.016,0,0.032
2014-09-16,0.016,0.016,0.016,0.016,0,0.032
2014-09-17,0.016,0.016,0.016,0.016,0,0.032
2014-09-18,0.016,0.016,0.016,0.016,0,0.032
2014-09-19,0.016,0.016,0.016,0.016,0,0.032
2014-09-22,0.016,0.016,0.016,0.016,0,0.032
2014-09-23,0.016,0.016,0.016,0.016,0,0.032
2014-09-24,0.016,0.016,0.016,0.016,0,0.032
2014-09-25,0.016,0.016,0.016,0.016,0,0.032
2014-09-26,0.016,0.016,0.016,0.016,0,0.032
2014-09-29,0.016,0.016,0.016,0.016,0,0.032
2014-09-30,0.013000000000000001,0.013000000000000001,0.013000000000000001,0.013000000000000001,6200,0.026000000000000002
2014-10-01,0.013000000000000001,0.013000000000000001,0.013000000000000001,0.013000000000000001,0,0.026000000000000002
2014-10-02,0.013000000000000001,0.013000000000000001,0.013000000000000001,0.013000000000000001,0,0.026000000000000002
2014-10-03,0.013000000000000001,0.013000000000000001,0.013000000000000001,0.013000000000000001,0,0.026000000000000002
2014-10-06,0.013000000000000001,0.013000000000000001,0.013000000000000001,0.013000000000000001,0,0.026000000000000002
2014-10-07,0.013000000000000001,0.013000000000000001,0.013000000000000001,0.013000000000000001,0,0.026000000000000002
2014-10-08,0.013000000000000001,0.013000000000000001,0.013000000000000001,0.013000000000000001,0,0.026000000000000002
2014-10-09,0.013000000000000001,0.013000000000000001,0.013000000000000001,0.013000000000000001,0,0.026000000000000002
2014-10-10,0.013000000000000001,0.013000000000000001,0.013000000000000001,0.013000000000000001,0,0.026000000000000002
2014-10-13,0.013000000000000001,0.013000000000000001,0.013000000000000001,0.013000000000000001,0,0.026000000000000002
2014-10-14,0.016,0.016,0.016,0.016,57500,0.032
2014-10-15,0.016,0.016,0.016,0.016,0,0.032
2014-10-16,0.016,0.016,0.016,0.016,0,0.032
2014-10-17,0.016,0.016,0.016,0.016,0,0.032
2014-10-20,0.013000000000000001,0.013000000000000001,0.013000000000000001,0.013000000000000001,12500,0.026000000000000002
2014-10-21,0.013000000000000001,0.013000000000000001,0.013000000000000001,0.013000000000000001,0,0.026000000000000002
2014-10-22,0.013000000000000001,0.013000000000000001,0.013000000000000001,0.013000000000000001,0,0.026000000000000002
2014-10-23,0.013000000000000001,0.013000000000000001,0.013000000000000001,0.013000000000000001,0,0.026000000000000002
2014-10-24,0.013000000000000001,0.013000000000000001,0.013000000000000001,0.013000000000000001,0,0.026000000000000002
2014-10-27,0.013000000000000001,0.013000000000000001,0.013000000000000001,0.013000000000000001,0,0.026000000000000002
2014-10-28,0.013000000000000001,0.013000000000000001,0.013000000000000001,0.013000000000000001,0,0.026000000000000002
2014-10-29,0.013000000000000001,0.013000000000000001,0.013000000000000001,0.013000000000000001,0,0.026000000000000002
2014-10-30,0.013000000000000001,0.013000000000000001,0.013000000000000001,0.013000000000000001,0,0.026000000000000002
2014-10-31,0.013000000000000001,0.013000000000000001,0.013000000000000001,0.013000000000000001,0,0.026000000000000002
2014-11-03,0.013000000000000001,0.013000000000000001,0.013000000000000001,0.013000000000000001,0,0.026000000000000002
2014-11-04,0.013000000000000001,0.013000000000000001,0.013000000000000001,0.013000000000000001,0,0.026000000000000002
2014-11-05,0.013000000000000001,0.013000000000000001,0.013000000000000001,0.013000000000000001,0,0.026000000000000002
2014-11-06,0.013000000000000001,0.013000000000000001,0.013000000000000001,0.013000000000000001,0,0.026000000000000002
2014-11-07,0.013000000000000001,0.013000000000000001,0.013000000000000001,0.013000000000000001,0,0.026000000000000002
2014-11-10,0.013000000000000001,0.013000000000000001,0.013000000000000001,0.013000000000000001,0,0.026000000000000002
2014-11-11,0.013000000000000001,0.013000000000000001,0.013000000000000001,0.013000000000000001,0,0.026000000000000002
2014-11-12,0.013000000000000001,0.013000000000000001,0.013000000000000001,0.013000000000000001,0,0.026000000000000002
2014-11-13,0.013000000000000001,0.013000000000000001,0.013000000000000001,0.013000000000000001,0,0.026000000000000002
2014-11-14,0.013000000000000001,0.013000000000000001,0.013000000000000001,0.013000000000000001,0,0.026000000000000002
2014-11-17,0.013000000000000001,0.013000000000000001,0.013000000000000001,0.013000000000000001,0,0.026000000000000002
2014-11-18,0.012,0.012,0.012,0.012,100000,0.024
2014-11-19,0.012,0.012,0.012,0.012,0,0.024
2014-11-20,0.012,0.012,0.012,0.012,0,0.024
2014-11-21,0.012,0.012,0.012,0.012,0,0.024
2014-11-24,0.012,0.013999999999999999,0.012,0.013999999999999999,79900,0.027999999999999997
2014-11-25,0.013999999999999999,0.013999999999999999,0.013999999999999999,0.013999999999999999,0,0.027999999999999997
2014-11-26,0.015,0.015,0.01,0.01,361600,0.02
2014-11-27,0.01,0.01,0.01,0.01,0,0.02
2014-11-28,0.01,0.01,0.01,0.01,0,0.02
2014-12-01,0.01,0.01,0.01,0.01,0,0.02
2014-12-02,0.01,0.01,0.01,0.01,0,0.02
2014-12-03,0.01,0.01,0.01,0.01,0,0.02
2014-12-04,0.01,0.01,0.01,0.01,0,0.02
2014-12-05,0.01,0.01,0.01,0.01,0,0.02
2014-12-08,0.01,0.01,0.01,0.01,0,0.02
2014-12-09,0.01,0.01,0.01,0.01,0,0.02
2014-12-10,0.01,0.01,0.01,0.01,0,0.02
2014-12-11,0.01,0.01,0.01,0.01,0,0.02
2014-12-12,0.01,0.01,0.01,0.01,0,0.02
2014-12-15,0.009000000000000001,0.009000000000000001,0.006999999999999999,0.006999999999999999,1408000,0.013999999999999999
2014-12-16,0.006999999999999999,0.006999999999999999,0.006,0.006,125000,0.012
2014-12-17,0.006,0.006,0.006,0.006,0,0.012
2014-12-18,0.006,0.006,0.006,0.006,0,0.012
2014-12-19,0.006,0.006,0.006,0.006,0,0.012
2014-12-22,0.006,0.006,0.006,0.006,0,0.012
2014-12-23,0.01,0.01,0.01,0.01,100000,0.02
2014-12-24,0.01,0.01,0.01,0.01,0,0.02
2014-12-25,0.01,0.01,0.01,0.01,0,0.02
2014-12-26,0.01,0.01,0.01,0.01,0,0.02
2014-12-29,0.012,0.012,0.012,0.012,100000,0.024
2014-12-30,0.012,0.012,0.012,0.012,0,0.024
2014-12-31,0.012,0.012,0.012,0.012,0,0.024
2015-01-01,0.012,0.012,0.012,0.012,0,0.024
2015-01-02,0.012,0.012,0.012,0.012,0,0.024
2015-01-05,0.012,0.012,0.012,0.012,0,0.024
2015-01-06,0.012,0.012,0.012,0.012,0,0.024
2015-01-07,0.012,0.012,0.012,0.012,0,0.024
2015-01-08,0.012,0.012,0.012,0.012,0,0.024
2015-01-09,0.012,0.012,0.012,0.012,0,0.024
2015-01-12,0.012,0.012,0.012,0.012,0,0.024
2015-01-13,0.012,0.012,0.012,0.012,0,0.024
2015-01-14,0.012,0.012,0.012,0.012,0,0.024
2015-01-15,0.012,0.012,0.012,0.012,0,0.024
2015-01-16,0.012,0.012,0.012,0.012,0,0.024
2015-01-19,0.012,0.012,0.012,0.012,0,0.024
2015-01-20,0.012,0.012,0.012,0.012,0,0.024
2015-01-21,0.012,0.012,0.012,0.012,0,0.024
2015-01-22,0.012,0.012,0.012,0.012,0,0.024
2015-01-23,0.012,0.012,0.012,0.012,0,0.024
2015-01-26,0.012,0.012,0.012,0.012,0,0.024
2015-01-27,0.012,0.012,0.012,0.012,0,0.024
2015-01-28,0.012,0.012,0.012,0.012,0,0.024
2015-01-29,0.012,0.012,0.012,0.012,0,0.024
2015-01-30,0.012,0.012,0.012,0.012,0,0.024
2015-02-02,0.012,0.012,0.012,0.012,0,0.024
2015-02-03,0.012,0.012,0.012,0.012,0,0.024
2015-02-04,0.012,0.012,0.012,0.012,0,0.024
2015-02-05,0.012,0.012,0.012,0.012,0,0.024
2015-02-06,0.012,0.012,0.012,0.012,0,0.024
2015-02-09,0.012,0.012,0.012,0.012,0,0.024
2015-02-10,0.012,0.012,0.012,0.012,0,0.024
2015-02-11,0.012,0.012,0.012,0.012,0,0.024
2015-02-12,0.012,0.012,0.012,0.012,0,0.024
2015-02-13,0.012,0.012,0.012,0.012,0,0.024
2015-02-16,0.012,0.012,0.012,0.012,0,0.024
2015-02-17,0.012,0.012,0.012,0.012,0,0.024
2015-02-18,0.012,0.012,0.012,0.012,0,0.024
2015-02-19,0.012,0.012,0.012,0.012,0,0.024
2015-02-20,0.011000000000000001,0.011000000000000001,0.011000000000000001,0.011000000000000001,12500,0.022000000000000002
2015-02-23,0.011000000000000001,0.011000000000000001,0.011000000000000001,0.011000000000000001,0,0.022000000000000002
2015-02-24,0.012,0.012,0.012,0.012,50000,0.024
2015-02-25,0.013000000000000001,0.013000000000000001,0.013000000000000001,0.013000000000000001,165000,0.026000000000000002
2015-02-26,0.013000000000000001,0.013000000000000001,0.013000000000000001,0.013000000000000001,0,0.026000000000000002
2015-02-27,0.013000000000000001,0.013000000000000001,0.013000000000000001,0.013000000000000001,0,0.026000000000000002
2015-03-02,0.013000000000000001,0.013000000000000001,0.013000000000000001,0.013000000000000001,0,0.026000000000000002
2015-03-03,0.013000000000000001,0.013000000000000001,0.013000000000000001,0.013000000000000001,0,0.026000000000000002
2015-03-04,0.013000000000000001,0.013000000000000001,0.013000000000000001,0.013000000000000001,0,0.026000000000000002
2015-03-05,0.013000000000000001,0.013000000000000001,0.013000000000000001,0.013000000000000001,0,0.026000000000000002
2015-03-06,0.013000000000000001,0.013000000000000001,0.013000000000000001,0.013000000000000001,0,0.026000000000000002
2015-03-09,0.013000000000000001,0.013000000000000001,0.013000000000000001,0.013000000000000001,0,0.026000000000000002
2015-03-10,0.013000000000000001,0.013000000000000001,0.013000000000000001,0.013000000000000001,0,0.026000000000000002
2015-03-11,0.013000000000000001,0.013000000000000001,0.013000000000000001,0.013000000000000001,0,0.026000000000000002
2015-03-12,0.013000000000000001,0.013000000000000001,0.013000000000000001,0.013000000000000001,0,0.026000000000000002
2015-03-13,0.013000000000000001,0.013000000000000001,0.013000000000000001,0.013000000000000001,0,0.026000000000000002
2015-03-16,0.013000000000000001,0.013000000000000001,0.013000000000000001,0.013000000000000001,0,0.026000000000000002
2015-03-17,0.013000000000000001,0.013000000000000001,0.013000000000000001,0.013000000000000001,0,0.026000000000000002
2015-03-18,0.013000000000000001,0.013000000000000001,0.013000000000000001,0.013000000000000001,0,0.026000000000000002
2015-03-19,0.008,0.008,0.008,0.008,12500,0.016
2015-03-20,0.008,0.008,0.008,0.008,0,0.016
2015-03-23,0.008,0.008,0.008,0.008,0,0.016
2015-03-24,0.008,0.008,0.008,0.008,0,0.016
2015-03-25,0.008,0.008,0.008,0.008,0,0.016
2015-03-26,0.008,0.008,0.008,0.008,0,0.016
2015-03-27,0.008,0.008,0.008,0.008,0,0.016
2015-03-30,0.008,0.008,0.008,0.008,0,0.016
2015-03-31,0.008,0.008,0.008,0.008,0,0.016
2015-04-01,0.008,0.008,0.008,0.008,0,0.016
2015-04-02,0.013000000000000001,0.013000000000000001,0.013000000000000001,0.013000000000000001,75000,0.026000000000000002
2015-04-03,0.013000000000000001,0.013000000000000001,0.013000000000000001,0.013000000000000001,0,0.026000000000000002
2015-04-06,0.013000000000000001,0.013000000000000001,0.013000000000000001,0.013000000000000001,0,0.026000000000000002
2015-04-07,0.013000000000000001,0.013000000000000001,0.013000000000000001,0.013000000000000001,0,0.026000000000000002
2015-04-08,0.013000000000000001,0.013000000000000001,0.013000000000000001,0.013000000000000001,0,0.026000000000000002
2015-04-09,0.013000000000000001,0.013000000000000001,0.013000000000000001,0.013000000000000001,0,0.026000000000000002
2015-04-10,0.013000000000000001,0.013000000000000001,0.013000000000000001,0.013000000000000001,0,0.026000000000000002
2015-04-13,0.013000000000000001,0.013000000000000001,0.013000000000000001,0.013000000000000001,0,0.026000000000000002
2015-04-14,0.012,0.012,0.012,0.012,5000,0.024
2015-04-15,0.012,0.012,0.012,0.012,0,0.024
2015-04-16,0.012,0.012,0.012,0.012,0,0.024
2015-04-17,0.012,0.012,0.012,0.012,0,0.024
2015-04-20,0.012,0.012,0.012,0.012,0,0.024
2015-04-21,0.012,0.012,0.012,0.012,0,0.024
2015-04-22,0.012,0.012,0.012,0.012,0,0.024
2015-04-23,0.012,0.012,0.012,0.012,0,0.024
2015-04-24,0.012,0.012,0.012,0.012,0,0.024
2015-04-27,0.012,0.012,0.012,0.012,0,0.024
2015-04-28,0.012,0.012,0.012,0.012,0,0.024
2015-04-29,0.012,0.012,0.012,0.012,0,0.024
2015-04-30,0.012,0.012,0.012,0.012,0,0.024
2015-05-01,0.012,0.012,0.012,0.012,0,0.024
2015-05-04,0.012,0.012,0.012,0.012,0,0.024
2015-05-05,0.012,0.012,0.012,0.012,0,0.024
2015-05-06,0.012,0.012,0.012,0.012,0,0.024
2015-05-07,0.012,0.012,0.012,0.012,0,0.024
2015-05-08,0.012,0.012,0.012,0.012,0,0.024
2015-05-11,0.012,0.012,0.012,0.012,0,0.024
2015-05-12,0.012,0.012,0.012,0.012,0,0.024
2015-05-13,0.008,0.008,0.006999999999999999,0.006999999999999999,625000,0.013999999999999999
2015-05-14,0.006999999999999999,0.006999999999999999,0.006999999999999999,0.006999999999999999,0,0.013999999999999999
2015-05-15,0.006999999999999999,0.006999999999999999,0.006999999999999999,0.006999999999999999,0,0.013999999999999999
2015-05-18,0.006999999999999999,0.006999999999999999,0.006999999999999999,0.006999999999999999,0,0.013999999999999999
2015-05-19,0.006999999999999999,0.006999999999999999,0.006999999999999999,0.006999999999999999,0,0.013999999999999999
2015-05-20,0.006999999999999999,0.006999999999999999,0.006999999999999999,0.006999999999999999,0,0.013999999999999999
2015-05-21,0.006999999999999999,0.006999999999999999,0.006999999999999999,0.006999999999999999,0,0.013999999999999999
2015-05-22,0.006999999999999999,0.006999999999999999,0.006999999999999999,0.006999999999999999,0,0.013999999999999999
2015-05-25,0.006999999999999999,0.006999999999999999,0.006999999999999999,0.006999999999999999,0,0.013999999999999999
2015-05-26,0.006999999999999999,0.006999999999999999,0.006999999999999999,0.006999999999999999,0,0.013999999999999999
2015-05-27,0.006999999999999999,0.006999999999999999,0.006999999999999999,0.006999999999999999,0,0.013999999999999999
2015-05-28,0.006999999999999999,0.006999999999999999,0.006999999999999999,0.006999999999999999,0,0.013999999999999999
2015-05-29,0.006999999999999999,0.006999999999999999,0.006999999999999999,0.006999999999999999,0,0.013999999999999999
2015-06-01,0.006999999999999999,0.006999999999999999,0.006999999999999999,0.006999999999999999,0,0.013999999999999999
2015-06-02,0.006999999999999999,0.006999999999999999,0.006999999999999999,0.006999999999999999,0,0.013999999999999999
2015-06-03,0.006999999999999999,0.006999999999999999,0.006999999999999999,0.006999999999999999,0,0.013999999999999999
2015-06-04,0.006999999999999999,0.006999999999999999,0.006999999999999999,0.006999999999999999,0,0.013999999999999999
2015-06-05,0.006999999999999999,0.006999999999999999,0.006999999999999999,0.006999999999999999,0,0.013999999999999999
2015-06-08,0.006999999999999999,0.006999999999999999,0.006999999999999999,0.006999999999999999,0,0.013999999999999999
2015-06-09,0.006999999999999999,0.006999999999999999,0.006999999999999999,0.006999999999999999,0,0.013999999999999999
2015-06-10,0.006999999999999999,0.006999999999999999,0.006999999999999999,0.006999999999999999,0,0.013999999999999999
2015-06-11,0.006999999999999999,0.006999999999999999,0.006999999999999999,0.006999999999999999,0,0.013999999999999999
2015-06-12,0.006999999999999999,0.006999999999999999,0.006999999999999999,0.006999999999999999,0,0.013999999999999999
2015-06-15,0.006999999999999999,0.006999999999999999,0.006999999999999999,0.006999999999999999,0,0.013999999999999999
2015-06-16,0.006999999999999999,0.006999999999999999,0.006999999999999999,0.006999999999999999,0,0.013999999999999999
2015-06-17,0.006999999999999999,0.006999999999999999,0.006999999999999999,0.006999999999999999,0,0.013999999999999999
2015-06-18,0.006999999999999999,0.006999999999999999,0.006999999999999999,0.006999999999999999,0,0.013999999999999999
2015-06-19,0.006999999999999999,0.006999999999999999,0.006999999999999999,0.006999999999999999,0,0.013999999999999999
2015-06-22,0.006999999999999999,0.006999999999999999,0.006999999999999999,0.006999999999999999,0,0.013999999999999999
2015-06-23,0.009000000000000001,0.009000000000000001,0.009000000000000001,0.009000000000000001,5000,0.018000000000000002
2015-06-24,0.011000000000000001,0.011000000000000001,0.009000000000000001,0.009000000000000001,57500,0.018000000000000002
2015-06-25,0.009000000000000001,0.009000000000000001,0.009000000000000001,0.009000000000000001,0,0.018000000000000002
2015-06-26,0.009000000000000001,0.009000000000000001,0.009000000000000001,0.009000000000000001,12500,0.018000000000000002
2015-06-29,0.009000000000000001,0.009000000000000001,0.009000000000000001,0.009000000000000001,0,0.018000000000000002
2015-06-30,0.009000000000000001,0.009000000000000001,0.009000000000000001,0.009000000000000001,0,0.018000000000000002
2015-07-01,0.009000000000000001,0.009000000000000001,0.009000000000000001,0.009000000000000001,35000,0.018000000000000002
2015-07-02,0.009000000000000001,0.009000000000000001,0.009000000000000001,0.009000000000000001,0,0.018000000000000002
2015-07-03,0.009000000000000001,0.009000000000000001,0.009000000000000001,0.009000000000000001,0,0.018000000000000002
2015-07-06,0.009000000000000001,0.009000000000000001,0.009000000000000001,0.009000000000000001,0,0.018000000000000002
2015-07-07,0.009000000000000001,0.009000000000000001,0.009000000000000001,0.009000000000000001,0,0.018000000000000002
2015-07-08,0.009000000000000001,0.009000000000000001,0.009000000000000001,0.009000000000000001,0,0.018000000000000002
2015-07-09,0.009000000000000001,0.009000000000000001,0.009000000000000001,0.009000000000000001,0,0.018000000000000002
2015-07-10,0.009000000000000001,0.009000000000000001,0.009000000000000001,0.009000000000000001,0,0.018000000000000002
2015-07-13,0.009000000000000001,0.009000000000000001,0.009000000000000001,0.009000000000000001,0,0.018000000000000002
2015-07-14,0.009000000000000001,0.009000000000000001,0.009000000000000001,0.009000000000000001,0,0.018000000000000002
2015-07-15,0.009000000000000001,0.009000000000000001,0.009000000000000001,0.009000000000000001,0,0.018000000000000002
2015-07-16,0.009000000000000001,0.009000000000000001,0.009000000000000001,0.009000000000000001,0,0.018000000000000002
2015-07-17,0.009000000000000001,0.009000000000000001,0.009000000000000001,0.009000000000000001,0,0.018000000000000002
2015-07-20,0.009000000000000001,0.009000000000000001,0.009000000000000001,0.009000000000000001,0,0.018000000000000002
2015-07-21,0.009000000000000001,0.009000000000000001,0.009000000000000001,0.009000000000000001,0,0.018000000000000002
2015-07-22,0.012,0.012,0.009000000000000001,0.011000000000000001,260000,0.022000000000000002
2015-07-23,0.011000000000000001,0.011000000000000001,0.011000000000000001,0.011000000000000001,0,0.022000000000000002
2015-07-24,0.011000000000000001,0.011000000000000001,0.011000000000000001,0.011000000000000001,0,0.022000000000000002
2015-07-27,0.011000000000000001,0.011000000000000001,0.011000000000000001,0.011000000000000001,0,0.022000000000000002
2015-07-28,0.011000000000000001,0.011000000000000001,0.011000000000000001,0.011000000000000001,0,0.022000000000000002
2015-07-29,0.011000000000000001,0.011000000000000001,0.011000000000000001,0.011000000000000001,0,0.022000000000000002
2015-07-30,0.011000000000000001,0.011000000000000001,0.011000000000000001,0.011000000000000001,0,0.022000000000000002
2015-07-31,0.011000000000000001,0.011000000000000001,0.011000000000000001,0.011000000000000001,0,0.022000000000000002
2015-08-03,0.011000000000000001,0.011000000000000001,0.011000000000000001,0.011000000000000001,0,0.022000000000000002
2015-08-04,0.011000000000000001,0.011000000000000001,0.011000000000000001,0.011000000000000001,0,0.022000000000000002
2015-08-05,0.012,0.012,0.01,0.01,320000,0.02
2015-08-06,0.011000000000000001,0.011000000000000001,0.011000000000000001,0.011000000000000001,155000,0.022000000000000002
2015-08-07,0.011000000000000001,0.011000000000000001,0.011000000000000001,0.011000000000000001,0,0.022000000000000002
2015-08-10,0.011000000000000001,0.011000000000000001,0.011000000000000001,0.011000000000000001,0,0.022000000000000002
2015-08-11,0.011000000000000001,0.011000000000000001,0.011000000000000001,0.011000000000000001,0,0.022000000000000002
2015-08-12,0.011000000000000001,0.011000000000000001,0.011000000000000001,0.011000000000000001,0,0.022000000000000002
2015-08-13,0.011000000000000001,0.011000000000000001,0.011000000000000001,0.011000000000000001,0,0.022000000000000002
2015-08-14,0.011000000000000001,0.011000000000000001,0.011000000000000001,0.011000000000000001,0,0.022000000000000002
2015-08-17,0.011000000000000001,0.011000000000000001,0.011000000000000001,0.011000000000000001,0,0.022000000000000002
2015-08-18,0.011000000000000001,0.011000000000000001,0.011000000000000001,0.011000000000000001,0,0.022000000000000002
2015-08-19,0.011000000000000001,0.011000000000000001,0.011000000000000001,0.011000000000000001,0,0.022000000000000002
2015-08-20,0.011000000000000001,0.011000000000000001,0.011000000000000001,0.011000000000000001,12500,0.022000000000000002
2015-08-21,0.01,0.01,0.01,0.01,7500,0.02
2015-08-24,0.01,0.01,0.01,0.01,0,0.02
2015-08-25,0.01,0.01,0.01,0.01,0,0.02
2015-08-26,0.01,0.01,0.01,0.01,0,0.02
2015-08-27,0.01,0.01,0.01,0.01,0,0.02
2015-08-28,0.01,0.01,0.01,0.01,0,0.02
2015-08-31,0.01,0.01,0.01,0.01,0,0.02
2015-09-01,0.01,0.01,0.01,0.01,0,0.02
2015-09-02,0.01,0.01,0.01,0.01,0,0.02
2015-09-03,0.01,0.01,0.01,0.01,0,0.02
2015-09-04,0.01,0.01,0.01,0.01,0,0.02
2015-09-07,0.01,0.01,0.01,0.01,0,0.02
2015-09-08,0.008,0.008,0.008,0.008,25000,0.016
2015-09-09,0.008,0.008,0.008,0.008,0,0.016
2015-09-10,0.009000000000000001,0.012,0.009000000000000001,0.012,1062500,0.024
2015-09-11,0.012,0.012,0.012,0.012,162500,0.024
2015-09-14,0.012,0.012,0.012,0.012,0,0.024
2015-09-15,0.012,0.012,0.012,0.012,0,0.024
2015-09-16,0.012,0.012,0.012,0.012,495000,0.024
2015-09-17,0.012,0.012,0.012,0.012,0,0.024
2015-09-18,0.012,0.012,0.012,0.012,92500,0.024
2015-09-21,0.012,0.012,0.012,0.012,0,0.024
2015-09-22,0.026000000000000002,0.042,0.024,0.027999999999999997,26883000,0.055999999999999994
2015-09-23,0.028999999999999998,0.032,0.027000000000000003,0.028999999999999998,4383200,0.057999999999999996
2015-09-24,0.027999999999999997,0.027999999999999997,0.026000000000000002,0.026000000000000002,811300,0.052000000000000005
2015-09-25,0.026000000000000002,0.026000000000000002,0.023,0.023,79300,0.046
2015-09-28,0.022000000000000002,0.022000000000000002,0.017,0.017,820500,0.034
2015-09-29,0.017,0.017,0.015,0.016,414900,0.032
2015-09-30,0.015,0.016,0.013999999999999999,0.016,252100,0.032
2015-10-01,0.016,0.016,0.015,0.015,562500,0.03
2015-10-02,0.016,0.016,0.016,0.016,375000,0.032
2015-10-05,0.016,0.016,0.013999999999999999,0.013999999999999999,97100,0.027999999999999997
2015-10-06,0.013999999999999999,0.017,0.013000000000000001,0.017,1311800,0.034
2015-10-07,0.017,0.017,0.017,0.017,0,0.034
2015-10-08,0.016,0.017,0.013999999999999999,0.013999999999999999,428500,0.027999999999999997
2015-10-09,0.016,0.016,0.016,0.016,62500,0.032
2015-10-12,0.015,0.017,0.015,0.017,162500,0.034
2015-10-13,0.019,0.021,0.019,0.019,703100,0.038
2015-10-14,0.02,0.021,0.02,0.021,157400,0.042
2015-10-15,0.02,0.02,0.02,0.02,217500,0.04
2015-10-16,0.018000000000000002,0.02,0.017,0.02,352600,0.04
2015-10-19,0.02,0.02,0.02,0.02,0,0.04
2015-10-20,0.018000000000000002,0.02,0.018000000000000002,0.02,150000,0.04
2015-10-21,0.019,0.02,0.019,0.019,87400,0.038
2015-10-22,0.019,0.019,0.019,0.019,0,0.038
2015-10-23,0.02,0.021,0.02,0.021,892500,0.042
2015-10-26,0.018000000000000002,0.021,0.018000000000000002,0.021,1044600,0.042
2015-10-27,0.021,0.021,0.021,0.021,0,0.042
2015-10-28,0.019,0.021,0.017,0.021,243000,0.042
2015-10-29,0.02,0.022000000000000002,0.02,0.022000000000000002,500000,0.044000000000000004
2015-10-30,0.017,0.021,0.017,0.021,138700,0.042
2015-11-02,0.02,0.02,0.02,0.02,50000,0.04
2015-11-03,0.02,0.02,0.018000000000000002,0.018000000000000002,488700,0.036000000000000004
2015-11-04,0.02,0.02,0.018000000000000002,0.019,1951800,0.038
2015-11-05,0.017,0.017,0.017,0.017,166900,0.034
2015-11-06,0.017,0.021,0.017,0.017,4654500,0.034
2015-11-09,0.018000000000000002,0.018000000000000002,0.017,0.018000000000000002,1463300,0.036000000000000004
2015-11-10,0.018000000000000002,0.018000000000000002,0.018000000000000002,0.018000000000000002,0,0.036000000000000004
2015-11-11,0.018000000000000002,0.018000000000000002,0.018000000000000002,0.018000000000000002,0,0.036000000000000004
2015-11-12,0.018000000000000002,0.018000000000000002,0.018000000000000002,0.018000000000000002,0,0.036000000000000004
2015-11-13,0.018000000000000002,0.018000000000000002,0.018000000000000002,0.018000000000000002,0,0.036000000000000004
2015-11-16,0.018000000000000002,0.018000000000000002,0.018000000000000002,0.018000000000000002,0,0.036000000000000004
2015-11-17,0.019,0.021,0.017,0.018000000000000002,1978600,0.036000000000000004
2015-11-18,0.018000000000000002,0.018000000000000002,0.017,0.017,1232500,0.034
2015-11-19,0.018000000000000002,0.019,0.017,0.019,348500,0.038
2015-11-20,0.02,0.02,0.018000000000000002,0.019,527000,0.038
2015-11-23,0.018000000000000002,0.02,0.018000000000000002,0.02,1454400,0.04
2015-11-24,0.02,0.026000000000000002,0.02,0.024,4001700,0.048
2015-11-25,0.025,0.025,0.022000000000000002,0.024,2025100,0.048
2015-11-26,0.023,0.025,0.023,0.025,640700,0.05
2015-11-27,0.023,0.024,0.022000000000000002,0.024,1470300,0.048
2015-11-30,0.024,0.024,0.024,0.024,0,0.048
2015-12-01,0.021,0.021,0.02,0.02,583000,0.04
2015-12-02,0.02,0.021,0.018000000000000002,0.021,1038000,0.042
2015-12-03,0.02,0.022000000000000002,0.02,0.02,300900,0.04
2015-12-04,0.02,0.022000000000000002,0.02,0.021,430100,0.042
2015-12-07,0.02,0.025,0.02,0.023,1963900,0.046
2015-12-08,0.023,0.023,0.022000000000000002,0.022000000000000002,2561100,0.044000000000000004
2015-12-09,0.022000000000000002,0.023,0.021,0.021,935400,0.042
2015-12-10,0.023,0.023,0.023,0.023,187600,0.046
2015-12-11,0.023,0.023,0.023,0.023,46700,0.046
2015-12-14,0.021,0.021,0.021,0.021,71700,0.042
2015-12-15,0.021,0.022000000000000002,0.021,0.021,397500,0.042
2015-12-16,0.02,0.02,0.02,0.02,58600,0.04
2015-12-17,0.02,0.02,0.02,0.02,822100,0.04
2015-12-18,0.02,0.02,0.019,0.019,385600,0.038
2015-12-21,0.019,0.019,0.019,0.019,11000,0.038
2015-12-22,0.019,0.019,0.019,0.019,77800,0.038
2015-12-23,0.019,0.019,0.019,0.019,0,0.038
2015-12-24,0.018000000000000002,0.018000000000000002,0.018000000000000002,0.018000000000000002,45000,0.036000000000000004
2015-12-25,0.018000000000000002,0.018000000000000002,0.018000000000000002,0.018000000000000002,0,0.036000000000000004
2015-12-28,0.018000000000000002,0.018000000000000002,0.018000000000000002,0.018000000000000002,0,0.036000000000000004
2015-12-29,0.02,0.02,0.02,0.02,10000,0.04
2015-12-30,0.02,0.021,0.02,0.021,125000,0.042
2015-12-31,0.02,0.021,0.02,0.021,25000,0.042
2016-01-01,0.021,0.021,0.021,0.021,0,0.042
2016-01-04,0.019,0.019,0.018000000000000002,0.019,183300,0.038
2016-01-05,0.018000000000000002,0.018000000000000002,0.018000000000000002,0.018000000000000002,59600,0.036000000000000004
2016-01-06,0.018000000000000002,0.018000000000000002,0.018000000000000002,0.018000000000000002,0,0.036000000000000004
2016-01-07,0.019,0.02,0.019,0.02,26000,0.04
2016-01-08,0.02,0.02,0.018000000000000002,0.02,369000,0.04
2016-01-11,0.02,0.021,0.019,0.02,477500,0.04
2016-01-12,0.02,0.02,0.02,0.02,337500,0.04
2016-01-13,0.038,0.038,0.038,0.038,50000,0.076
2016-01-14,0.038,0.038,0.038,0.038,0,0.076
2016-01-15,0.038,0.038,0.038,0.038,0,0.076
2016-01-18,0.038,0.038,0.038,0.038,0,0.076
2016-01-19,0.038,0.038,0.038,0.038,0,0.038
2016-01-20,0.038,0.038,0.038,0.038,0,0.038
2016-01-21,0.038,0.038,0.038,0.038,0,0.038
2016-01-22,0.038,0.038,0.038,0.038,0,0.038
2016-01-25,0.038,0.038,0.038,0.038,0,0.038
2016-01-26,0.038,0.038,0.038,0.038,0,0.038
2016-01-27,0.038,0.038,0.038,0.038,0,0.038
2016-01-28,0.038,0.038,0.038,0.038,0,0.038
2016-01-29,0.038,0.038,0.038,0.038,0,0.038
2016-02-01,0.038,0.038,0.038,0.038,0,0.038
2016-02-02,0.038,0.038,0.038,0.038,0,0.038
2016-02-03,0.038,0.038,0.038,0.038,0,0.038
2016-02-04,0.038,0.038,0.038,0.038,0,0.038
2016-02-05,0.038,0.038,0.038,0.038,0,0.038
2016-02-08,0.038,0.038,0.038,0.038,0,0.038
2016-02-09,0.038,0.038,0.038,0.038,0,0.038
2016-02-10,0.038,0.038,0.038,0.038,0,0.038
2016-02-11,0.038,0.038,0.038,0.038,0,0.038
2016-02-12,0.038,0.038,0.038,0.038,0,0.038
2016-02-15,0.038,0.038,0.038,0.038,0,0.038
2016-02-16,0.038,0.038,0.038,0.038,0,0.038
2016-02-17,0.038,0.038,0.038,0.038,0,0.038
2016-02-18,0.038,0.038,0.038,0.038,0,0.038
2016-02-19,0.038,0.038,0.038,0.038,0,0.038
2016-02-22,0.038,0.038,0.038,0.038,0,0.038
2016-02-23,0.038,0.038,0.038,0.038,0,0.038
2016-02-24,0.038,0.038,0.038,0.038,0,0.038
2016-02-25,0.038,0.038,0.038,0.038,0,0.038
2016-02-26,0.038,0.038,0.038,0.038,0,0.038
2016-02-29,0.038,0.038,0.038,0.038,0,0.038
2016-03-01,0.038,0.038,0.038,0.038,0,0.038
2016-03-02,0.038,0.038,0.038,0.038,0,0.038
2016-03-03,0.038,0.038,0.038,0.038,0,0.038
2016-03-04,0.038,0.038,0.038,0.038,0,0.038
2016-03-07,0.038,0.038,0.038,0.038,0,0.038
2016-03-08,0.038,0.038,0.038,0.038,0,0.038
2016-03-09,0.038,0.038,0.038,0.038,0,0.038
2016-03-10,0.038,0.038,0.038,0.038,0,0.038
2016-03-11,0.038,0.038,0.038,0.038,0,0.038
2016-03-14,0.038,0.038,0.038,0.038,0,0.038
2016-03-15,0.038,0.038,0.038,0.038,0,0.038
2016-03-16,0.038,0.038,0.038,0.038,0,0.038
2016-03-17,0.038,0.038,0.038,0.038,0,0.038
2016-03-18,0.038,0.038,0.038,0.038,0,0.038
2016-03-21,0.038,0.038,0.038,0.038,0,0.038
2016-03-22,0.038,0.038,0.038,0.038,0,0.038
2016-03-23,0.038,0.038,0.038,0.038,0,0.038
2016-03-24,0.032,0.032,0.025,0.026000000000000002,17149200,0.026000000000000002
2016-03-25,0.026000000000000002,0.026000000000000002,0.026000000000000002,0.026000000000000002,0,0.026000000000000002
2016-03-28,0.026000000000000002,0.026000000000000002,0.026000000000000002,0.026000000000000002,0,0.026000000000000002
2016-03-29,0.027000000000000003,0.027000000000000003,0.023,0.024,6569300,0.024
2016-03-30,0.025,0.026000000000000002,0.022000000000000002,0.026000000000000002,4695100,0.026000000000000002
2016-03-31,0.027999999999999997,0.027999999999999997,0.023,0.024,12800300,0.024
2016-04-01,0.024,0.025,0.023,0.024,4565400,0.024
2016-04-04,0.024,0.024,0.022000000000000002,0.022000000000000002,7897300,0.022000000000000002
2016-04-05,0.02,0.022000000000000002,0.019,0.021,9065600,0.021
2016-04-06,0.021,0.023,0.021,0.021,2243300,0.021
2016-04-07,0.022000000000000002,0.022000000000000002,0.021,0.021,812500,0.021
2016-04-08,0.022000000000000002,0.022000000000000002,0.02,0.02,2185100,0.02
2016-04-11,0.021,0.0215,0.02,0.021,3365000,0.021
2016-04-12,0.021,0.021,0.019,0.019,4596800,0.019
2016-04-13,0.02,0.02,0.019,0.019,4123400,0.019
2016-04-14,0.02,0.02,0.019,0.019,1823000,0.019
2016-04-15,0.023,0.0255,0.022000000000000002,0.024,44071200,0.024
2016-04-18,0.025,0.026000000000000002,0.024,0.026000000000000002,15619700,0.026000000000000002
2016-04-19,0.027000000000000003,0.027999999999999997,0.024,0.024,14818200,0.024
2016-04-20,0.024,0.025,0.023,0.023,2500800,0.023
2016-04-21,0.024,0.026000000000000002,0.024,0.025,7235700,0.025
2016-04-22,0.027000000000000003,0.040999999999999995,0.026000000000000002,0.037000000000000005,151591600,0.037000000000000005
2016-04-25,0.037000000000000005,0.037000000000000005,0.037000000000000005,0.037000000000000005,0,0.037000000000000005
2016-04-26,0.039,0.044000000000000004,0.038,0.04,96790400,0.04
2016-04-27,0.040999999999999995,0.040999999999999995,0.036000000000000004,0.039,17168400,0.039
2016-04-28,0.039,0.057999999999999996,0.039,0.057999999999999996,137089200,0.057999999999999996
2016-04-29,0.055999999999999994,0.064,0.049,0.051,108205300,0.051
2016-05-02,0.053,0.054000000000000006,0.043,0.045,44863800,0.045
2016-05-03,0.047,0.083,0.045,0.075,257058100,0.075
2016-05-04,0.07200000000000001,0.076,0.065,0.07200000000000001,88538400,0.07200000000000001
2016-05-05,0.07200000000000001,0.098,0.07,0.087,233369400,0.087
2016-05-06,0.086,0.09699999999999999,0.084,0.09699999999999999,73529300,0.09699999999999999
2016-05-09,0.1,0.115,0.09699999999999999,0.115,60110100,0.115
2016-05-10,0.125,0.18,0.12,0.15,76455100,0.15
2016-05-11,0.155,0.17,0.125,0.13,30834000,0.13
2016-05-12,0.13,0.155,0.13,0.15,27659000,0.15
2016-05-13,0.155,0.16,0.14,0.14,24537400,0.14
2016-05-16,0.14,0.14,0.11,0.11,37340700,0.11
2016-05-17,0.135,0.14,0.09699999999999999,0.098,36182900,0.098
2016-05-18,0.09300000000000001,0.11,0.086,0.105,46735000,0.105
2016-05-19,0.11,0.115,0.099,0.099,11790900,0.099
2016-05-20,0.11,0.12,0.105,0.11,8257500,0.11
2016-05-23,0.11,0.12,0.105,0.105,9165900,0.105
2016-05-24,0.105,0.105,0.09699999999999999,0.09699999999999999,9679900,0.09699999999999999
2016-05-25,0.09699999999999999,0.105,0.095,0.096,6502200,0.096
2016-05-26,0.09699999999999999,0.11,0.096,0.099,12563200,0.099
2016-05-27,0.1,0.105,0.099,0.1,8100100,0.1
2016-05-30,0.1,0.1125,0.1,0.11,9146400,0.11
2016-05-31,0.12,0.12,0.105,0.105,8306600,0.105
2016-06-01,0.11,0.115,0.11,0.115,7619700,0.115
2016-06-02,0.11,0.11,0.1,0.1,7102200,0.1
2016-06-03,0.1,0.1,0.096,0.09699999999999999,8263200,0.09699999999999999
2016-06-06,0.105,0.105,0.087,0.087,13803600,0.087
2016-06-07,0.086,0.087,0.075,0.078,18609900,0.078
2016-06-08,0.078,0.105,0.078,0.096,39999100,0.096
2016-06-09,0.096,0.096,0.087,0.09,7774300,0.09
2016-06-10,0.091,0.1,0.091,0.09699999999999999,12183500,0.09699999999999999
2016-06-13,0.09699999999999999,0.09699999999999999,0.09699999999999999,0.09699999999999999,0,0.09699999999999999
2016-06-14,0.099,0.099,0.091,0.091,6504300,0.091
2016-06-15,0.095,0.105,0.09300000000000001,0.105,20771600,0.105
2016-06-16,0.105,0.11,0.1,0.1,6228300,0.1
2016-06-17,0.105,0.105,0.096,0.098,7276000,0.098
2016-06-20,0.11,0.125,0.105,0.115,25407400,0.115
2016-06-21,0.11,0.11,0.105,0.105,7388600,0.105
2016-06-22,0.105,0.107,0.1,0.1,8247300,0.1
2016-06-23,0.105,0.11199999999999999,0.102,0.105,7290900,0.105
2016-06-24,0.11,0.11,0.098,0.1,13814200,0.1
2016-06-27,0.105,0.12,0.1,0.12,15578400,0.12
2016-06-28,0.115,0.1275,0.098,0.1,28710300,0.1
2016-06-29,0.1,0.1025,0.092,0.092,12528700,0.092
2016-06-30,0.09300000000000001,0.09699999999999999,0.09,0.09300000000000001,9102700,0.09300000000000001
2016-07-01,0.091,0.091,0.086,0.08800000000000001,12040000,0.08800000000000001
2016-07-04,0.08800000000000001,0.08800000000000001,0.08800000000000001,0.08800000000000001,0,0.08800000000000001
2016-07-05,0.08800000000000001,0.08800000000000001,0.08800000000000001,0.08800000000000001,0,0.08800000000000001
2016-07-06,0.079,0.085,0.077,0.08199999999999999,24229500,0.08199999999999999
2016-07-07,0.081,0.08199999999999999,0.075,0.077,5865500,0.077
2016-07-08,0.077,0.078,0.07400000000000001,0.077,5027800,0.077
2016-07-11,0.08,0.08,0.077,0.077,4780600,0.077
2016-07-12,0.077,0.079,0.07400000000000001,0.07400000000000001,6254700,0.07400000000000001
2016-07-13,0.075,0.075,0.07400000000000001,0.07400000000000001,2884900,0.07400000000000001
2016-07-14,0.07400000000000001,0.07400000000000001,0.069,0.071,12175900,0.071
2016-07-15,0.073,0.073,0.067,0.069,14428900,0.069
2016-07-18,0.069,0.071,0.068,0.069,5084100,0.069
2016-07-19,0.069,0.069,0.066,0.066,4536500,0.066
2016-07-20,0.067,0.07200000000000001,0.064,0.065,28005000,0.065
2016-07-21,0.066,0.066,0.055999999999999994,0.057999999999999996,25093500,0.057999999999999996
2016-07-22,0.057999999999999996,0.059000000000000004,0.055,0.055999999999999994,18140200,0.055999999999999994
2016-07-25,0.055999999999999994,0.057999999999999996,0.055,0.057,8045000,0.057
2016-07-26,0.057,0.063,0.057,0.063,18219600,0.063
2016-07-27,0.063,0.063,0.057,0.057,7528200,0.057
2016-07-28,0.059000000000000004,0.061,0.057,0.057999999999999996,10176200,0.057999999999999996
2016-07-29,0.057,0.059000000000000004,0.055999999999999994,0.055999999999999994,11577300,0.055999999999999994
2016-08-01,0.049,0.052000000000000005,0.044000000000000004,0.045,46986600,0.045
2016-08-02,0.045,0.049,0.043,0.044000000000000004,34776700,0.044000000000000004
2016-08-03,0.043,0.043,0.040999999999999995,0.042,11043000,0.042
2016-08-04,0.042,0.045,0.042,0.043,4642600,0.043
2016-08-05,0.045,0.048,0.045,0.046,11259800,0.046
2016-08-08,0.047,0.052000000000000005,0.046,0.049,35560400,0.049
2016-08-09,0.049,0.049,0.045,0.045,11919400,0.045
2016-08-10,0.045,0.046,0.043,0.044000000000000004,8114200,0.044000000000000004
2016-08-11,0.044000000000000004,0.045,0.040999999999999995,0.040999999999999995,11772700,0.040999999999999995
2016-08-12,0.040999999999999995,0.040999999999999995,0.039,0.039,6748800,0.039
2016-08-15,0.039,0.044000000000000004,0.039,0.042,23923700,0.042
2016-08-16,0.042,0.045,0.038,0.039,32604900,0.039
2016-08-17,0.039,0.039,0.036000000000000004,0.037000000000000005,7975600,0.037000000000000005
2016-08-18,0.038,0.042,0.037000000000000005,0.04,12803300,0.04
2016-08-19,0.04,0.042,0.039,0.039,7588300,0.039
2016-08-22,0.039,0.039,0.027999999999999997,0.03,46415700,0.03
2016-08-23,0.03,0.03,0.027999999999999997,0.027999999999999997,13532100,0.027999999999999997
2016-08-24,0.027999999999999997,0.031,0.027999999999999997,0.03,13646200,0.03
2016-08-25,0.031,0.031,0.024,0.025,17061600,0.025
2016-08-26,0.025,0.028999999999999998,0.025,0.027999999999999997,11714600,0.027999999999999997
2016-08-29,0.028999999999999998,0.028999999999999998,0.027000000000000003,0.027000000000000003,7922400,0.027000000000000003
2016-08-30,0.027000000000000003,0.027999999999999997,0.027000000000000003,0.027000000000000003,3930700,0.027000000000000003
2016-08-31,0.032,0.036000000000000004,0.027000000000000003,0.027999999999999997,60050600,0.027999999999999997
2016-09-01,0.027000000000000003,0.027999999999999997,0.026000000000000002,0.026000000000000002,12038900,0.026000000000000002
2016-09-02,0.027000000000000003,0.03,0.027000000000000003,0.028999999999999998,7854900,0.028999999999999998
2016-09-05,0.03,0.031,0.03,0.031,1829200,0.031
2016-09-06,0.031,0.031,0.03,0.03,540100,0.03
2016-09-07,0.028999999999999998,0.032,0.028999999999999998,0.032,2277400,0.032
2016-09-08,0.032,0.034,0.03,0.03,6668800,0.03
2016-09-09,0.03,0.03,0.027999999999999997,0.027999999999999997,7518700,0.027999999999999997
2016-09-12,0.027999999999999997,0.028999999999999998,0.027000000000000003,0.027999999999999997,1723200,0.027999999999999997
2016-09-13,0.027999999999999997,0.027999999999999997,0.027000000000000003,0.027000000000000003,1702800,0.027000000000000003
2016-09-14,0.027999999999999997,0.027999999999999997,0.026000000000000002,0.026000000000000002,4696500,0.026000000000000002
2016-09-15,0.026000000000000002,0.027000000000000003,0.026000000000000002,0.027000000000000003,350500,0.027000000000000003
2016-09-16,0.026000000000000002,0.027000000000000003,0.026000000000000002,0.026000000000000002,1897100,0.026000000000000002
2016-09-19,0.026000000000000002,0.026000000000000002,0.026000000000000002,0.026000000000000002,0,0.026000000000000002
2016-09-20,0.027000000000000003,0.027999999999999997,0.025,0.025,11990900,0.025
2016-09-21,0.025,0.025,0.021,0.022000000000000002,25056100,0.022000000000000002
2016-09-22,0.022000000000000002,0.0225,0.021,0.022000000000000002,4437900,0.022000000000000002
2016-09-23,0.022000000000000002,0.023,0.022000000000000002,0.023,3730300,0.023
2016-09-26,0.023,0.027999999999999997,0.022000000000000002,0.025,14181400,0.025
2016-09-27,0.026000000000000002,0.027999999999999997,0.026000000000000002,0.026000000000000002,6036300,0.026000000000000002
2016-09-28,0.026000000000000002,0.0305,0.025,0.028999999999999998,13946200,0.028999999999999998
2016-09-29,0.03,0.034,0.027999999999999997,0.027999999999999997,20324200,0.027999999999999997
2016-09-30,0.027999999999999997,0.032,0.027999999999999997,0.032,5096800,0.032
2016-10-03,0.033,0.036000000000000004,0.032,0.036000000000000004,8106600,0.036000000000000004
2016-10-04,0.037000000000000005,0.037000000000000005,0.031,0.033,15096800,0.033
2016-10-05,0.033,0.033,0.027999999999999997,0.03,12111600,0.03
2016-10-06,0.031,0.032,0.03,0.03,3186200,0.03
2016-10-07,0.031,0.031,0.028999999999999998,0.028999999999999998,1309600,0.028999999999999998
2016-10-10,0.028999999999999998,0.031,0.028999999999999998,0.028999999999999998,4197200,0.028999999999999998
2016-10-11,0.028999999999999998,0.03,0.028999999999999998,0.028999999999999998,1506700,0.028999999999999998
2016-10-12,0.03,0.031,0.027000000000000003,0.027000000000000003,7611700,0.027000000000000003
2016-10-13,0.027000000000000003,0.027999999999999997,0.025,0.026000000000000002,4327100,0.026000000000000002
2016-10-14,0.025,0.025,0.024,0.024,5787200,0.024
2016-10-17,0.024,0.025,0.024,0.025,1418700,0.025
2016-10-18,0.025,0.026000000000000002,0.025,0.025,1662900,0.025
2016-10-19,0.025,0.025,0.024,0.024,1782800,0.024
2016-10-20,0.025,0.026000000000000002,0.023,0.024,5140400,0.024
2016-10-21,0.025,0.025,0.024,0.024,361800,0.024
2016-10-24,0.025,0.025,0.024,0.024,265000,0.024
2016-10-25,0.025,0.025,0.024,0.024,1199600,0.024
2016-10-26,0.025,0.025,0.024,0.024,1428100,0.024
2016-10-27,0.024,0.025,0.024,0.024,1084100,0.024
2016-10-28,0.024,0.024,0.024,0.024,1023800,0.024
2016-10-31,0.026000000000000002,0.027999999999999997,0.025,0.025,6068600,0.025
2016-11-01,0.026000000000000002,0.026000000000000002,0.025,0.026000000000000002,566800,0.026000000000000002
2016-11-02,0.026000000000000002,0.026000000000000002,0.025,0.025,797600,0.025
2016-11-03,0.025,0.026000000000000002,0.024,0.024,1306400,0.024
2016-11-04,0.025,0.025,0.023,0.024,1198500,0.024
2016-11-07,0.024,0.025,0.024,0.024,874900,0.024
2016-11-08,0.025,0.0255,0.025,0.025,1221000,0.025
2016-11-09,0.025,0.025,0.021,0.022000000000000002,5302800,0.022000000000000002
2016-11-10,0.025,0.032,0.025,0.028999999999999998,30917900,0.028999999999999998
2016-11-11,0.03,0.03,0.026000000000000002,0.026000000000000002,3593200,0.026000000000000002
2016-11-14,0.026000000000000002,0.026000000000000002,0.024,0.025,2769200,0.025
2016-11-15,0.025,0.026000000000000002,0.025,0.026000000000000002,1108100,0.026000000000000002
2016-11-16,0.026000000000000002,0.038,0.026000000000000002,0.036000000000000004,78102400,0.036000000000000004
2016-11-17,0.035,0.037000000000000005,0.031,0.034,44980100,0.034
2016-11-18,0.034,0.034,0.031,0.031,11371400,0.031
2016-11-21,0.032,0.038,0.032,0.034,33512500,0.034
2016-11-22,0.035,0.036000000000000004,0.034,0.035,11673900,0.035
2016-11-23,0.035,0.037000000000000005,0.032,0.032,13278400,0.032
2016-11-24,0.032,0.033,0.032,0.032,3271200,0.032
2016-11-25,0.033,0.033,0.031,0.031,2394400,0.031
2016-11-28,0.032,0.033,0.032,0.032,1914900,0.032
2016-11-29,0.032,0.035,0.032,0.035,3001300,0.035
2016-11-30,0.034,0.040999999999999995,0.034,0.040999999999999995,25494200,0.040999999999999995
2016-12-01,0.04,0.042,0.038,0.038,16775900,0.038
2016-12-02,0.039,0.04,0.037000000000000005,0.039,4527200,0.039
2016-12-05,0.039,0.045,0.038,0.045,16369700,0.045
2016-12-06,0.045,0.046,0.040999999999999995,0.040999999999999995,25382600,0.040999999999999995
2016-12-07,0.044000000000000004,0.048,0.042,0.042,44794600,0.042
2016-12-08,0.044000000000000004,0.045,0.040999999999999995,0.044000000000000004,18056300,0.044000000000000004
2016-12-09,0.045,0.045,0.040999999999999995,0.040999999999999995,7029000,0.040999999999999995
2016-12-12,0.040999999999999995,0.044000000000000004,0.040999999999999995,0.042,3254700,0.042
2016-12-13,0.042,0.043,0.040999999999999995,0.040999999999999995,2989700,0.040999999999999995
2016-12-14,0.042,0.044000000000000004,0.040999999999999995,0.040999999999999995,5642700,0.040999999999999995
2016-12-15,0.040999999999999995,0.040999999999999995,0.037000000000000005,0.037000000000000005,7344100,0.037000000000000005
2016-12-16,0.037000000000000005,0.038,0.035,0.035,8896400,0.035
2016-12-19,0.035,0.035,0.034,0.034,720500,0.034
2016-12-20,0.034,0.034,0.032,0.032,3712400,0.032
2016-12-21,0.032,0.032,0.031,0.031,2705200,0.031
2016-12-22,0.031,0.035,0.031,0.035,1104900,0.035
2016-12-23,0.035,0.035,0.033,0.033,58000,0.033
2016-12-26,0.033,0.033,0.033,0.033,0,0.033
2016-12-27,0.033,0.033,0.033,0.033,0,0.033
2016-12-28,0.033,0.034,0.032,0.032,563900,0.032
2016-12-29,0.032,0.032,0.032,0.032,1485700,0.032
2016-12-30,0.032,0.033,0.032,0.032,601100,0.032
