Date,Open,High,Low,Close,Volume,Adj Close
2016-07-07,1.15,1.25,1.15,1.25,65300,1.225
2016-07-08,1.2,1.25,1.18,1.2,173200,1.176
2016-07-11,1.21,1.22,1.175,1.2,78000,1.176
2016-07-12,1.19,1.19,1.16,1.17,179400,1.146
2016-07-13,1.19,1.225,1.185,1.22,2617200,1.195
2016-07-14,1.22,1.26,1.22,1.26,337100,1.234
2016-07-15,1.285,1.285,1.265,1.28,803200,1.254
2016-07-18,1.275,1.28,1.23,1.24,161200,1.215
2016-07-19,1.26,1.26,1.245,1.25,753800,1.225
2016-07-20,1.26,1.285,1.24,1.28,1052700,1.254
2016-07-21,1.27,1.3,1.26,1.3,1611600,1.274
2016-07-22,1.31,1.36,1.31,1.35,707700,1.3230000000000002
2016-07-25,1.34,1.34,1.3,1.34,237900,1.3130000000000002
2016-07-26,1.36,1.385,1.34,1.36,246200,1.3319999999999999
2016-07-27,1.37,1.395,1.365,1.395,431700,1.367
2016-07-28,1.4,1.48,1.39,1.46,1476300,1.43
2016-07-29,1.455,1.48,1.455,1.475,330700,1.445
2016-08-01,1.485,1.49,1.48,1.48,277800,1.45
2016-08-02,1.47,1.56,1.47,1.48,155700,1.45
2016-08-03,1.5,1.5,1.43,1.445,241400,1.416
2016-08-04,1.45,1.47,1.39,1.43,496100,1.401
2016-08-05,1.43,1.45,1.41,1.42,408500,1.391
2016-08-08,1.4,1.45,1.34,1.43,851500,1.401
2016-08-09,1.43,1.45,1.42,1.43,564500,1.401
2016-08-10,1.44,1.465,1.43,1.43,457800,1.401
2016-08-11,1.45,1.45,1.405,1.42,312200,1.391
2016-08-12,1.42,1.45,1.42,1.445,214800,1.416
2016-08-15,1.45,1.46,1.435,1.455,828400,1.425
2016-08-16,1.455,1.46,1.425,1.425,309000,1.396
2016-08-17,1.46,1.49,1.43,1.46,309000,1.43
2016-08-18,1.48,1.485,1.46,1.46,682900,1.43
2016-08-19,1.46,1.51,1.46,1.495,1450400,1.465
2016-08-22,1.495,1.56,1.495,1.545,884000,1.514
2016-08-23,1.55,1.6,1.55,1.575,528500,1.5430000000000001
2016-08-24,1.59,1.61,1.545,1.58,1115200,1.548
2016-08-25,1.6,1.695,1.6,1.62,725800,1.587
2016-08-26,1.66,1.67,1.63,1.66,1125600,1.626
2016-08-29,1.67,1.68,1.64,1.655,2630100,1.621
2016-08-30,1.64,1.64,1.62,1.62,50200,1.587
2016-08-31,1.62,1.73,1.62,1.69,1547000,1.656
2016-09-01,1.7,1.7,1.68,1.685,311000,1.651
2016-09-02,1.685,1.78,1.68,1.705,905900,1.67
2016-09-05,1.7,1.75,1.695,1.73,468800,1.695
2016-09-06,1.76,1.79,1.7,1.76,248500,1.724
2016-09-07,1.755,1.755,1.73,1.74,341200,1.74
2016-09-08,1.725,1.74,1.69,1.705,660000,1.705
2016-09-09,1.72,1.76,1.7,1.7,191100,1.7
2016-09-12,1.67,1.68,1.585,1.64,823900,1.64
2016-09-13,1.625,1.675,1.625,1.655,324500,1.655
2016-09-14,1.63,1.63,1.52,1.6,273800,1.6
2016-09-15,1.605,1.66,1.6,1.65,596200,1.65
2016-09-16,1.66,1.73,1.66,1.715,866300,1.715
2016-09-19,1.72,1.825,1.7,1.73,201100,1.73
2016-09-20,1.75,1.78,1.73,1.775,368000,1.775
2016-09-21,1.775,1.775,1.71,1.74,230000,1.74
2016-09-22,1.74,1.75,1.73,1.74,271800,1.74
2016-09-23,1.74,1.74,1.675,1.705,154600,1.705
2016-09-26,1.68,1.7,1.655,1.68,62800,1.68
2016-09-27,1.66,1.665,1.585,1.61,345200,1.61
2016-09-28,1.61,1.66,1.61,1.635,196600,1.635
2016-09-29,1.63,1.64,1.595,1.6,136000,1.6
2016-09-30,1.605,1.61,1.595,1.6,132600,1.6
2016-10-03,1.6,1.625,1.59,1.62,55400,1.62
2016-10-04,1.61,1.63,1.58,1.61,125000,1.61
2016-10-05,1.5919999999999999,1.625,1.585,1.595,40300,1.595
2016-10-06,1.59,1.69,1.59,1.675,166300,1.675
2016-10-07,1.66,1.695,1.65,1.65,61800,1.65
2016-10-10,1.65,1.67,1.59,1.61,54700,1.61
2016-10-11,1.625,1.665,1.59,1.61,806600,1.61
2016-10-12,1.595,1.635,1.59,1.6,180800,1.6
2016-10-13,1.585,1.64,1.585,1.605,16232700,1.605
2016-10-14,1.62,1.64,1.61,1.64,476000,1.64
2016-10-17,1.63,1.652,1.605,1.65,273600,1.65
2016-10-18,1.64,1.66,1.63,1.64,271600,1.64
2016-10-19,1.64,1.67,1.64,1.67,79200,1.67
2016-10-20,1.65,1.67,1.625,1.67,130600,1.67
2016-10-21,1.65,1.66,1.6,1.63,293200,1.63
2016-10-24,1.645,1.665,1.63,1.665,51600,1.665
2016-10-25,1.63,1.65,1.585,1.64,195700,1.64
2016-10-26,1.6,1.64,1.595,1.62,156700,1.62
2016-10-27,1.63,1.63,1.55,1.625,214100,1.625
2016-10-28,1.6,1.6,1.565,1.57,891200,1.57
2016-10-31,1.57,1.625,1.565,1.595,336100,1.595
2016-11-01,1.6,1.61,1.58,1.6,641400,1.6
2016-11-02,1.6,1.63,1.51,1.54,90100,1.54
2016-11-03,1.515,1.535,1.475,1.51,129500,1.51
2016-11-04,1.49,1.5,1.435,1.485,193100,1.485
2016-11-07,1.48,1.54,1.425,1.52,231400,1.52
2016-11-08,1.53,1.53,1.5,1.515,564700,1.515
2016-11-09,1.5,1.52,1.425,1.44,284900,1.44
2016-11-10,1.45,1.5,1.44,1.5,168300,1.5
2016-11-11,1.51,1.52,1.45,1.495,749700,1.495
2016-11-14,1.5,1.5,1.42,1.47,358000,1.47
2016-11-15,1.48,1.55,1.48,1.51,721600,1.51
2016-11-16,1.49,1.51,1.455,1.51,92500,1.51
2016-11-17,1.485,1.55,1.485,1.525,635100,1.525
2016-11-18,1.485,1.595,1.48,1.585,242200,1.585
2016-11-21,1.585,1.59,1.54,1.59,185600,1.59
2016-11-22,1.575,1.64,1.55,1.63,195000,1.63
2016-11-23,1.62,1.64,1.555,1.585,340000,1.585
2016-11-24,1.58,1.595,1.545,1.58,182800,1.58
2016-11-25,1.555,1.555,1.505,1.53,377000,1.53
2016-11-28,1.54,1.58,1.537,1.58,358500,1.58
2016-11-29,1.565,1.58,1.54,1.57,546800,1.57
2016-11-30,1.56,1.58,1.495,1.495,2577300,1.495
2016-12-01,1.52,1.525,1.33,1.355,389500,1.355
2016-12-02,1.35,1.375,1.27,1.325,628600,1.325
2016-12-05,1.32,1.325,1.25,1.31,872800,1.31
2016-12-06,1.305,1.315,1.29,1.305,151900,1.305
2016-12-07,1.315,1.345,1.295,1.305,206400,1.305
2016-12-08,1.315,1.4,1.305,1.33,99800,1.33
2016-12-09,1.33,1.375,1.31,1.33,76100,1.33
2016-12-12,1.325,1.34,1.29,1.31,138800,1.31
2016-12-13,1.295,1.345,1.2919999999999998,1.32,14100,1.32
2016-12-14,1.3,1.31,1.29,1.31,554500,1.31
2016-12-15,1.31,1.31,1.265,1.265,213600,1.265
2016-12-16,1.315,1.315,1.24,1.29,40800,1.29
2016-12-19,1.28,1.29,1.24,1.285,271600,1.285
2016-12-20,1.3,1.32,1.24,1.24,66200,1.24
2016-12-21,1.265,1.27,1.215,1.23,32700,1.23
2016-12-22,1.235,1.295,1.21,1.21,167600,1.21
2016-12-23,1.25,1.25,1.2,1.23,100400,1.23
2016-12-26,1.23,1.23,1.23,1.23,0,1.23
2016-12-27,1.23,1.23,1.23,1.23,0,1.23
2016-12-28,1.23,1.295,1.23,1.255,11700,1.255
2016-12-29,1.25,1.28,1.23,1.27,39300,1.27
2016-12-30,1.295,1.295,1.23,1.265,41900,1.265
