Date,Open,High,Low,Close,Volume,Adj Close
2014-11-25,2.22,2.23,2.14,2.14,450943700,1.956
2014-11-26,2.14,2.15,2.08,2.1,129664700,1.92
2014-11-27,2.11,2.18,2.1,2.18,58417300,1.993
2014-11-28,2.17,2.19,2.14,2.17,32804600,1.984
2014-12-01,2.15,2.16,2.13,2.13,18660200,1.9469999999999998
2014-12-02,2.13,2.14,2.12,2.14,14911100,1.956
2014-12-03,2.14,2.15,2.13,2.15,22873800,1.966
2014-12-04,2.15,2.16,2.14,2.16,27162100,1.975
2014-12-05,2.16,2.16,2.14,2.15,20147300,1.966
2014-12-08,2.16,2.19,2.15,2.19,235572000,2.002
2014-12-09,2.17,2.22,2.17,2.22,34591700,2.03
2014-12-10,2.21,2.25,2.2,2.24,23885100,2.048
2014-12-11,2.24,2.3,2.22,2.26,63629300,2.066
2014-12-12,2.27,2.3,2.27,2.28,24702000,2.084
2014-12-15,2.28,2.3,2.26,2.3,31298000,2.103
2014-12-16,2.3,2.31,2.27,2.29,14287000,2.094
2014-12-17,2.29,2.29,2.26,2.28,16079000,2.084
2014-12-18,2.29,2.3,2.28,2.3,15918500,2.103
2014-12-19,2.3,2.3,2.28,2.29,11318000,2.094
2014-12-22,2.29,2.3,2.28,2.3,7966400,2.103
2014-12-23,2.3,2.32,2.29,2.31,11075900,2.112
2014-12-24,2.32,2.38,2.31,2.38,7360900,2.176
2014-12-25,2.38,2.38,2.38,2.38,0,2.176
2014-12-26,2.38,2.38,2.38,2.38,0,2.176
2014-12-29,2.38,2.4,2.36,2.39,8424900,2.185
2014-12-30,2.4,2.44,2.39,2.41,12922000,2.2030000000000003
2014-12-31,2.42,2.43,2.41,2.41,4022600,2.2030000000000003
2015-01-01,2.41,2.41,2.41,2.41,0,2.2030000000000003
2015-01-02,2.41,2.43,2.39,2.43,4714400,2.222
2015-01-05,2.42,2.43,2.35,2.39,24195800,2.185
2015-01-06,2.34,2.35,2.31,2.35,14458900,2.148
2015-01-07,2.35,2.39,2.34,2.39,11495400,2.185
2015-01-08,2.39,2.4,2.38,2.39,10413600,2.185
2015-01-09,2.39,2.4,2.39,2.4,7645700,2.194
2015-01-12,2.39,2.4,2.38,2.4,6464400,2.194
2015-01-13,2.38,2.39,2.37,2.38,6591800,2.176
2015-01-14,2.37,2.37,2.33,2.35,15881600,2.148
2015-01-15,2.34,2.36,2.32,2.35,5602400,2.148
2015-01-16,2.35,2.35,2.31,2.31,5840600,2.112
2015-01-19,2.32,2.36,2.32,2.36,5195100,2.158
2015-01-20,2.36,2.37,2.32,2.32,5152500,2.121
2015-01-21,2.33,2.37,2.32,2.37,10788200,2.167
2015-01-22,2.37,2.37,2.33,2.35,9185100,2.148
2015-01-23,2.36,2.36,2.33,2.34,6642400,2.1390000000000002
2015-01-26,2.34,2.34,2.34,2.34,0,2.1390000000000002
2015-01-27,2.34,2.35,2.33,2.33,4145000,2.13
2015-01-28,2.33,2.37,2.32,2.37,13529600,2.167
2015-01-29,2.36,2.37,2.34,2.35,6799000,2.148
2015-01-30,2.35,2.38,2.35,2.38,9227100,2.176
2015-02-02,2.37,2.4,2.355,2.4,8469500,2.194
2015-02-03,2.4,2.42,2.39,2.42,13967800,2.2119999999999997
2015-02-04,2.42,2.43,2.37,2.4,12135400,2.194
2015-02-05,2.38,2.41,2.375,2.39,10200700,2.185
2015-02-06,2.4,2.42,2.39,2.39,10508200,2.185
2015-02-09,2.39,2.41,2.38,2.41,6928800,2.2030000000000003
2015-02-10,2.4,2.45,2.39,2.45,13987000,2.24
2015-02-11,2.46,2.5,2.45,2.5,10138400,2.286
2015-02-12,2.5,2.53,2.48,2.5,15702600,2.286
2015-02-13,2.49,2.53,2.47,2.52,7832700,2.3040000000000003
2015-02-16,2.52,2.54,2.49,2.53,6943700,2.313
2015-02-17,2.51,2.54,2.51,2.52,7987000,2.3040000000000003
2015-02-18,2.51,2.57,2.5,2.54,12276800,2.322
2015-02-19,2.55,2.59,2.54,2.56,14537900,2.34
2015-02-20,2.56,2.56,2.37,2.47,34135900,2.258
2015-02-23,2.45,2.5,2.42,2.46,14641300,2.249
2015-02-24,2.44,2.45,2.395,2.42,16204900,2.2119999999999997
2015-02-25,2.42,2.505,2.42,2.48,21162500,2.267
2015-02-26,2.48,2.5,2.46,2.46,8154400,2.249
2015-02-27,2.46,2.56,2.45,2.56,24280600,2.34
2015-03-02,2.55,2.565,2.51,2.55,17079200,2.331
2015-03-03,2.53,2.54,2.47,2.47,110779700,2.258
2015-03-04,2.48,2.53,2.48,2.51,18802500,2.295
2015-03-05,2.5,2.505,2.44,2.46,14986800,2.249
2015-03-06,2.47,2.48,2.46,2.48,8302900,2.267
2015-03-09,2.47,2.47,2.43,2.43,6510900,2.222
2015-03-10,2.44,2.47,2.44,2.46,9233000,2.249
2015-03-11,2.43,2.44,2.41,2.43,9070600,2.222
2015-03-12,2.42,2.45,2.42,2.44,8388500,2.231
2015-03-13,2.44,2.45,2.42,2.42,6053600,2.2119999999999997
2015-03-16,2.41,2.43,2.41,2.42,5398800,2.2119999999999997
2015-03-17,2.43,2.435,2.4,2.42,11107900,2.2119999999999997
2015-03-18,2.41,2.41,2.325,2.34,21936400,2.1390000000000002
2015-03-19,2.33,2.36,2.31,2.33,18962100,2.13
2015-03-20,2.33,2.38,2.32,2.38,71433500,2.176
2015-03-23,2.39,2.395,2.36,2.37,12058500,2.167
2015-03-24,2.36,2.39,2.35,2.38,7211400,2.176
2015-03-25,2.38,2.39,2.33,2.34,9830100,2.1390000000000002
2015-03-26,2.33,2.37,2.32,2.35,7488100,2.148
2015-03-27,2.34,2.35,2.33,2.34,6085100,2.1390000000000002
2015-03-30,2.32,2.325,2.275,2.28,13336100,2.084
2015-03-31,2.31,2.32,2.29,2.32,7346600,2.121
2015-04-01,2.3,2.38,2.3,2.37,10787900,2.167
2015-04-02,2.36,2.38,2.36,2.38,5039800,2.176
2015-04-03,2.38,2.38,2.38,2.38,0,2.176
2015-04-06,2.38,2.38,2.38,2.38,0,2.176
2015-04-07,2.39,2.395,2.35,2.38,5710600,2.176
2015-04-08,2.36,2.39,2.35,2.38,5653200,2.176
2015-04-09,2.38,2.4,2.36,2.37,5205100,2.167
2015-04-10,2.38,2.39,2.365,2.39,4653300,2.185
2015-04-13,2.39,2.39,2.37,2.38,3636300,2.176
2015-04-14,2.37,2.375,2.34,2.36,7596400,2.158
2015-04-15,2.35,2.35,2.32,2.32,6482500,2.121
2015-04-16,2.33,2.37,2.31,2.36,6201000,2.158
2015-04-17,2.36,2.37,2.3,2.32,10082600,2.121
2015-04-20,2.31,2.31,2.26,2.28,10958500,2.084
2015-04-21,2.3,2.3,2.23,2.24,12432500,2.048
2015-04-22,2.24,2.25,2.18,2.19,12657000,2.002
2015-04-23,2.19,2.24,2.18,2.21,14432100,2.02
2015-04-24,2.21,2.25,2.21,2.24,7752800,2.048
2015-04-27,2.24,2.29,2.23,2.29,10940000,2.094
2015-04-28,2.28,2.285,2.24,2.25,7324700,2.057
2015-04-29,2.26,2.27,2.22,2.22,7263400,2.03
2015-04-30,2.22,2.23,2.2,2.21,9593600,2.02
2015-05-01,2.2,2.21,2.165,2.18,13888700,1.993
2015-05-04,2.18,2.19,2.135,2.15,16859800,1.966
2015-05-05,2.15,2.22,2.145,2.18,17287900,1.993
2015-05-06,2.16,2.17,2.14,2.16,8627300,1.975
2015-05-07,2.15,2.195,2.13,2.18,13758800,1.993
2015-05-08,2.18,2.195,2.15,2.15,10103000,1.966
2015-05-11,2.16,2.19,2.16,2.17,6420700,1.984
2015-05-12,2.16,2.17,2.13,2.15,10277200,1.966
2015-05-13,2.12,2.16,2.095,2.15,17577000,1.966
2015-05-14,2.14,2.16,2.14,2.16,11691400,1.975
2015-05-15,2.16,2.17,2.15,2.16,8137300,1.975
2015-05-18,2.15,2.17,2.13,2.13,10173000,1.9469999999999998
2015-05-19,2.13,2.135,2.1,2.1,13936300,1.92
2015-05-20,2.1,2.18,2.095,2.17,13576900,1.984
2015-05-21,2.16,2.23,2.155,2.22,15225200,2.03
2015-05-22,2.22,2.22,2.16,2.18,6705200,1.993
2015-05-25,2.18,2.21,2.16,2.18,5945000,1.993
2015-05-26,2.19,2.2,2.15,2.19,6562500,2.002
2015-05-27,2.18,2.2,2.15,2.17,9712400,1.984
2015-05-28,2.18,2.2,2.15,2.15,7852600,1.966
2015-05-29,2.15,2.18,2.13,2.14,47751400,1.956
2015-06-01,2.13,2.14,2.08,2.08,14674700,1.902
2015-06-02,2.08,2.09,2.03,2.05,19241100,1.874
2015-06-03,2.05,2.06,2.04,2.05,9291000,1.874
2015-06-04,2.05,2.07,2.03,2.05,12526900,1.874
2015-06-05,2.05,2.07,2.04,2.06,9894300,1.883
2015-06-08,2.06,2.06,2.06,2.06,0,1.883
2015-06-09,2.06,2.07,2.04,2.04,7164200,1.865
2015-06-10,2.04,2.05,2.04,2.05,5963000,1.874
2015-06-11,2.06,2.105,2.06,2.1,11016300,1.92
2015-06-12,2.1,2.14,2.1,2.13,8211900,1.9469999999999998
2015-06-15,2.12,2.12,2.08,2.09,6226000,1.911
2015-06-16,2.08,2.11,2.08,2.1,6709500,1.92
2015-06-17,2.11,2.11,2.07,2.09,9161400,1.911
2015-06-18,2.08,2.1,2.07,2.08,12217100,1.902
2015-06-19,2.08,2.09,2.06,2.07,16735400,1.892
2015-06-22,2.06,2.07,2.06,2.07,3146000,1.892
2015-06-23,2.08,2.1,2.07,2.08,10034900,1.902
2015-06-24,2.09,2.09,2.06,2.06,8302000,1.883
2015-06-25,2.05,2.06,2.03,2.04,14025700,1.865
2015-06-26,2.04,2.05,2.03,2.03,6883400,1.8559999999999999
2015-06-29,2.02,2.025,2.01,2.01,6432400,1.838
2015-06-30,2.0,2.03,2.0,2.01,9973000,1.838
2015-07-01,2.03,2.08,2.025,2.07,10008200,1.892
2015-07-02,2.08,2.1,2.07,2.1,8791100,1.92
2015-07-03,2.08,2.1,2.06,2.1,7224500,1.92
2015-07-06,2.06,2.1,2.06,2.1,7485800,1.92
2015-07-07,2.1,2.11,2.08,2.1,7259400,1.92
2015-07-08,2.08,2.1,2.07,2.09,10021500,1.911
2015-07-09,2.08,2.1,2.045,2.09,9551800,1.911
2015-07-10,2.1,2.1,2.07,2.09,7455400,1.911
2015-07-13,2.08,2.1,2.05,2.07,7104300,1.892
2015-07-14,2.09,2.11,2.08,2.11,8145700,1.929
2015-07-15,2.11,2.14,2.1,2.13,10670600,1.9469999999999998
2015-07-16,2.13,2.14,2.1,2.12,15722200,1.9380000000000002
2015-07-17,2.12,2.12,2.05,2.07,16932800,1.892
2015-07-20,2.07,2.07,2.04,2.06,6873900,1.883
2015-07-21,2.05,2.1,2.05,2.09,12265400,1.911
2015-07-22,2.08,2.09,2.07,2.09,7377100,1.911
2015-07-23,2.08,2.085,2.05,2.05,6827800,1.874
2015-07-24,2.05,2.07,2.02,2.03,11004500,1.8559999999999999
2015-07-27,2.02,2.05,2.02,2.04,7356100,1.865
2015-07-28,2.03,2.06,2.025,2.06,12286400,1.883
2015-07-29,2.07,2.1,2.065,2.08,8256700,1.902
2015-07-30,2.09,2.1,2.08,2.1,4744800,1.92
2015-07-31,2.1,2.12,2.09,2.09,12188200,1.911
2015-08-03,2.1,2.11,2.09,2.11,5173600,1.929
2015-08-04,2.1,2.12,2.09,2.11,7293600,1.929
2015-08-05,2.11,2.12,2.105,2.11,10036900,1.929
2015-08-06,2.11,2.14,2.09,2.09,8171100,1.911
2015-08-07,2.09,2.1,2.05,2.05,9336600,1.874
2015-08-10,2.04,2.06,2.035,2.04,5122800,1.865
2015-08-11,2.06,2.07,2.035,2.04,7585400,1.865
2015-08-12,2.05,2.08,2.04,2.04,7602900,1.865
2015-08-13,2.05,2.09,2.04,2.06,5706100,1.883
2015-08-14,2.05,2.05,2.01,2.01,11796200,1.838
2015-08-17,2.02,2.045,2.01,2.02,6178000,1.847
2015-08-18,2.02,2.03,1.99,1.99,13329200,1.819
2015-08-19,2.01,2.02,2.0,2.02,6996200,1.847
2015-08-20,2.01,2.02,2.005,2.01,7987900,1.838
2015-08-21,2.2,2.39,2.18,2.28,88967200,2.084
2015-08-24,2.22,2.32,2.195,2.26,37693300,2.066
2015-08-25,2.24,2.34,2.23,2.34,33265600,2.1390000000000002
2015-08-26,2.29,2.39,2.29,2.39,22700300,2.185
2015-08-27,2.39,2.4,2.31,2.37,20561400,2.167
2015-08-28,2.34,2.38,2.33,2.36,8742600,2.158
2015-08-31,2.35,2.35,2.31,2.33,21313900,2.13
2015-09-01,2.32,2.38,2.31,2.36,22458400,2.158
2015-09-02,2.35,2.39,2.34,2.36,23009900,2.158
2015-09-03,2.31,2.32,2.24,2.25,18167600,2.125
2015-09-04,2.25,2.28,2.21,2.24,20187400,2.116
2015-09-07,2.23,2.24,2.21,2.24,18244700,2.116
2015-09-08,2.23,2.28,2.23,2.28,14042100,2.154
2015-09-09,2.27,2.32,2.27,2.31,11372900,2.182
2015-09-10,2.26,2.3,2.26,2.29,12529000,2.1630000000000003
2015-09-11,2.29,2.32,2.275,2.32,10803500,2.191
2015-09-14,2.33,2.35,2.315,2.33,9198400,2.201
2015-09-15,2.33,2.34,2.28,2.31,7788100,2.182
2015-09-16,2.31,2.35,2.31,2.34,15842200,2.21
2015-09-17,2.38,2.39,2.36,2.38,14187900,2.248
2015-09-18,2.38,2.41,2.325,2.41,28313500,2.276
2015-09-21,2.36,2.375,2.315,2.35,11149600,2.22
2015-09-22,2.34,2.36,2.31,2.34,16818200,2.21
2015-09-23,2.32,2.38,2.32,2.36,8757100,2.229
2015-09-24,2.38,2.41,2.37,2.41,10179700,2.276
2015-09-25,2.4,2.41,2.38,2.38,7221500,2.248
2015-09-28,2.36,2.43,2.36,2.42,7098200,2.286
2015-09-29,2.39,2.42,2.38,2.38,8386900,2.248
2015-09-30,2.38,2.425,2.37,2.42,10116300,2.286
2015-10-01,2.41,2.46,2.4,2.46,10122400,2.324
2015-10-02,2.46,2.48,2.44,2.48,7097800,2.342
2015-10-05,2.48,2.5,2.48,2.5,5082000,2.3609999999999998
2015-10-06,2.5,2.54,2.49,2.52,9365400,2.38
2015-10-07,2.53,2.54,2.49,2.52,12479100,2.38
2015-10-08,2.5,2.53,2.47,2.51,8847500,2.371
2015-10-09,2.52,2.53,2.5,2.52,4426300,2.38
2015-10-12,2.5,2.52,2.45,2.46,26673600,2.324
2015-10-13,2.45,2.51,2.44,2.51,11385500,2.371
2015-10-14,2.5,2.51,2.475,2.51,19659900,2.371
2015-10-15,2.5,2.505,2.47,2.48,7312000,2.342
2015-10-16,2.49,2.53,2.49,2.5,6591700,2.3609999999999998
2015-10-19,2.5,2.54,2.5,2.52,8440000,2.38
2015-10-20,2.51,2.55,2.48,2.55,12917500,2.4090000000000003
2015-10-21,2.53,2.545,2.49,2.49,26616100,2.352
2015-10-22,2.45,2.45,2.41,2.42,46531000,2.286
2015-10-23,2.44,2.47,2.43,2.44,11067000,2.305
2015-10-26,2.44,2.45,2.425,2.44,10210700,2.305
2015-10-27,2.44,2.45,2.38,2.42,21098100,2.286
2015-10-28,2.42,2.46,2.41,2.42,19690000,2.286
2015-10-29,2.41,2.43,2.37,2.4,10623300,2.267
2015-10-30,2.4,2.4,2.35,2.36,12805400,2.229
2015-11-02,2.36,2.39,2.335,2.34,13144200,2.21
2015-11-03,2.37,2.37,2.33,2.35,5107400,2.22
2015-11-04,2.37,2.4,2.35,2.36,9578300,2.229
2015-11-05,2.37,2.38,2.33,2.36,7830200,2.229
2015-11-06,2.36,2.4,2.36,2.39,10433300,2.2569999999999997
2015-11-09,2.38,2.39,2.32,2.35,7724700,2.22
2015-11-10,2.34,2.36,2.315,2.36,9873400,2.229
2015-11-11,2.35,2.38,2.34,2.36,6962100,2.229
2015-11-12,2.35,2.35,2.32,2.33,7229200,2.201
2015-11-13,2.31,2.32,2.28,2.3,9108500,2.1719999999999997
2015-11-16,2.28,2.335,2.28,2.33,7125800,2.201
2015-11-17,2.34,2.34,2.29,2.33,11849900,2.201
2015-11-18,2.31,2.34,2.3,2.33,5370500,2.201
2015-11-19,2.34,2.345,2.31,2.33,8639600,2.201
2015-11-20,2.33,2.365,2.32,2.34,10851900,2.21
2015-11-23,2.35,2.375,2.32,2.33,8566400,2.201
2015-11-24,2.31,2.33,2.3,2.3,11450900,2.1719999999999997
2015-11-25,2.3,2.31,2.26,2.26,13551900,2.135
2015-11-26,2.27,2.3,2.27,2.28,6414000,2.154
2015-11-27,2.29,2.315,2.27,2.29,17489300,2.1630000000000003
2015-11-30,2.29,2.32,2.27,2.32,26708800,2.191
2015-12-01,2.3,2.4,2.3,2.38,21427300,2.248
2015-12-02,2.37,2.39,2.33,2.36,12177000,2.229
2015-12-03,2.33,2.35,2.3,2.34,10862400,2.21
2015-12-04,2.31,2.32,2.25,2.28,20563400,2.154
2015-12-07,2.3,2.31,2.23,2.23,64963900,2.106
2015-12-08,2.22,2.3,2.205,2.28,17002600,2.154
2015-12-09,2.28,2.28,2.195,2.22,21449900,2.097
2015-12-10,2.19,2.195,2.14,2.15,21008000,2.031
2015-12-11,2.16,2.2,2.13,2.16,20590600,2.04
2015-12-14,2.14,2.15,2.105,2.12,15043400,2.002
2015-12-15,2.11,2.12,2.06,2.06,11237400,1.946
2015-12-16,2.08,2.13,2.08,2.13,11465800,2.012
2015-12-17,2.15,2.155,2.1,2.13,11119400,2.012
2015-12-18,2.1,2.14,2.09,2.14,11160900,2.021
2015-12-21,2.12,2.13,2.09,2.11,6147500,1.993
2015-12-22,2.13,2.14,2.105,2.14,8492900,2.021
2015-12-23,2.15,2.15,2.11,2.12,3975000,2.002
2015-12-24,2.12,2.13,2.105,2.12,2812100,2.002
2015-12-25,2.12,2.12,2.12,2.12,0,2.002
2015-12-28,2.12,2.12,2.12,2.12,0,2.002
2015-12-29,2.13,2.17,2.11,2.17,4387800,2.05
2015-12-30,2.19,2.19,2.15,2.15,5337000,2.031
2015-12-31,2.17,2.17,2.15,2.15,1808700,2.031
2016-01-01,2.15,2.15,2.15,2.15,0,2.031
2016-01-04,2.16,2.21,2.15,2.2,5954000,2.0780000000000003
2016-01-05,2.2,2.2,2.15,2.16,6045400,2.04
2016-01-06,2.15,2.17,2.12,2.14,6594300,2.021
2016-01-07,2.13,2.15,2.1,2.11,10424000,1.993
2016-01-08,2.1,2.15,2.08,2.14,19009300,2.021
2016-01-11,2.1,2.14,2.095,2.13,9062000,2.012
2016-01-12,2.13,2.165,2.11,2.15,14411600,2.031
2016-01-13,2.14,2.2,2.125,2.19,8208500,2.069
2016-01-14,2.14,2.18,2.13,2.16,8484200,2.04
2016-01-15,2.17,2.185,2.13,2.15,8076700,2.031
2016-01-18,2.11,2.17,2.1,2.16,9370100,2.04
2016-01-19,2.14,2.19,2.125,2.17,8065700,2.05
2016-01-20,2.16,2.2,2.15,2.18,10131100,2.059
2016-01-21,2.2,2.25,2.19,2.24,10821200,2.116
2016-01-22,2.48,2.7,2.44,2.5,38951600,2.3609999999999998
2016-01-25,2.46,2.56,2.43,2.52,22933500,2.38
2016-01-26,2.52,2.52,2.52,2.52,0,2.38
2016-01-27,2.5,2.51,2.47,2.5,19384800,2.3609999999999998
2016-01-28,2.49,2.52,2.46,2.5,14328100,2.3609999999999998
2016-01-29,2.49,2.55,2.48,2.51,16859300,2.371
2016-02-01,2.52,2.55,2.47,2.49,17966200,2.352
2016-02-02,2.46,2.48,2.42,2.46,16042300,2.324
2016-02-03,2.44,2.48,2.43,2.45,13785000,2.314
2016-02-04,2.45,2.49,2.44,2.44,8237400,2.305
2016-02-05,2.44,2.52,2.42,2.46,17141700,2.324
2016-02-08,2.44,2.51,2.42,2.49,11740500,2.352
2016-02-09,2.45,2.48,2.415,2.42,14007600,2.286
2016-02-10,2.42,2.44,2.36,2.42,14496600,2.286
2016-02-11,2.42,2.46,2.395,2.44,9936800,2.305
2016-02-12,2.4,2.45,2.39,2.44,8756200,2.305
2016-02-15,2.45,2.45,2.41,2.44,7480200,2.305
2016-02-16,2.44,2.515,2.44,2.51,13736100,2.371
2016-02-17,2.51,2.51,2.45,2.48,12235900,2.342
2016-02-18,2.5,2.53,2.49,2.5,43881000,2.3609999999999998
2016-02-19,2.52,2.58,2.47,2.48,21269900,2.342
2016-02-22,2.47,2.51,2.46,2.5,8099800,2.3609999999999998
2016-02-23,2.49,2.51,2.48,2.5,9171800,2.3609999999999998
2016-02-24,2.48,2.5,2.45,2.49,12520700,2.352
2016-02-25,2.5,2.53,2.48,2.53,13733500,2.39
2016-02-26,2.53,2.54,2.49,2.51,11851400,2.371
2016-02-29,2.49,2.54,2.49,2.52,14649200,2.38
2016-03-01,2.53,2.58,2.505,2.58,19284900,2.437
2016-03-02,2.6,2.78,2.6,2.78,34627800,2.6260000000000003
2016-03-03,2.76,2.86,2.725,2.86,18841900,2.701
2016-03-04,2.79,2.8,2.67,2.8,19241300,2.7119999999999997
2016-03-07,2.77,2.84,2.76,2.82,12249000,2.7319999999999998
2016-03-08,2.77,2.81,2.725,2.74,29346700,2.654
2016-03-09,2.74,2.81,2.73,2.8,14142700,2.7119999999999997
2016-03-10,2.8,2.82,2.765,2.79,5998700,2.7030000000000003
2016-03-11,2.77,2.79,2.74,2.76,11510900,2.674
2016-03-14,2.75,2.775,2.73,2.73,6906700,2.645
2016-03-15,2.73,2.73,2.65,2.68,15897600,2.596
2016-03-16,2.68,2.73,2.67,2.73,14163200,2.645
2016-03-17,2.75,2.76,2.7,2.74,12720200,2.654
2016-03-18,2.73,2.76,2.72,2.74,7739600,2.654
2016-03-21,2.74,2.77,2.71,2.74,4131100,2.654
2016-03-22,2.73,2.775,2.73,2.77,5182000,2.6830000000000003
2016-03-23,2.75,2.79,2.74,2.79,5224100,2.7030000000000003
2016-03-24,2.75,2.85,2.75,2.84,7459100,2.7510000000000003
2016-03-25,2.84,2.84,2.84,2.84,0,2.7510000000000003
2016-03-28,2.84,2.84,2.84,2.84,0,2.7510000000000003
2016-03-29,2.83,2.85,2.79,2.85,13068600,2.761
2016-03-30,2.85,2.88,2.825,2.88,13143800,2.79
2016-03-31,2.88,2.935,2.87,2.93,12032100,2.838
2016-04-01,2.9,2.9,2.86,2.9,6086900,2.8089999999999997
2016-04-04,2.9,2.97,2.89,2.92,8948300,2.8289999999999997
2016-04-05,2.9,2.93,2.88,2.91,7360300,2.819
2016-04-06,2.89,2.94,2.89,2.94,6127100,2.8480000000000003
2016-04-07,2.92,2.93,2.87,2.9,6857700,2.8089999999999997
2016-04-08,2.85,2.94,2.85,2.94,7298000,2.8480000000000003
2016-04-11,2.93,2.945,2.9,2.93,6074800,2.838
2016-04-12,2.92,2.97,2.91,2.95,7356000,2.858
2016-04-13,2.95,3.065,2.95,3.04,11004500,2.945
2016-04-14,3.03,3.05,2.99,3.01,21521300,2.9160000000000004
2016-04-15,3.01,3.1,3.0,3.1,8422200,3.003
2016-04-18,3.05,3.08,3.04,3.06,6591500,2.964
2016-04-19,3.08,3.09,3.03,3.03,8495100,2.935
2016-04-20,3.05,3.08,3.03,3.06,8299000,2.964
2016-04-21,3.08,3.2,3.06,3.17,15793300,3.071
2016-04-22,3.15,3.2,3.13,3.13,7076800,3.032
2016-04-25,3.13,3.13,3.13,3.13,0,3.032
2016-04-26,3.13,3.17,3.03,3.07,11922300,2.9739999999999998
2016-04-27,3.08,3.18,3.07,3.16,12734600,3.0610000000000004
2016-04-28,3.16,3.17,3.12,3.14,27221000,3.042
2016-04-29,3.13,3.14,3.11,3.14,6664500,3.042
2016-05-02,3.11,3.17,3.11,3.17,6521100,3.071
2016-05-03,3.16,3.25,3.16,3.25,10990700,3.148
2016-05-04,3.25,3.28,3.22,3.23,8062800,3.1289999999999996
2016-05-05,3.27,3.32,3.24,3.28,8992500,3.177
2016-05-06,3.17,3.18,3.07,3.1,23491000,3.003
2016-05-09,3.11,3.21,3.1,3.21,12798800,3.11
2016-05-10,3.18,3.19,3.115,3.16,13209900,3.0610000000000004
2016-05-11,3.16,3.2,3.13,3.16,7231700,3.0610000000000004
2016-05-12,3.15,3.16,3.12,3.15,4668000,3.051
2016-05-13,3.13,3.15,3.1,3.14,5921800,3.042
2016-05-16,3.11,3.17,3.075,3.11,11298900,3.013
2016-05-17,3.13,3.14,3.09,3.11,28843400,3.013
2016-05-18,3.11,3.15,3.11,3.11,11581000,3.013
2016-05-19,3.14,3.14,3.05,3.07,9691400,2.9739999999999998
2016-05-20,3.06,3.11,3.06,3.08,6628100,2.984
2016-05-23,3.07,3.09,3.03,3.07,7796100,2.9739999999999998
2016-05-24,3.05,3.11,3.05,3.06,5923000,2.964
2016-05-25,3.11,3.14,3.09,3.09,9515800,2.9930000000000003
2016-05-26,3.11,3.135,3.09,3.11,5976900,3.013
2016-05-27,3.14,3.18,3.125,3.17,9320900,3.071
2016-05-30,3.17,3.195,3.15,3.18,5362600,3.0810000000000004
2016-05-31,3.16,3.22,3.145,3.2,70633900,3.1
2016-06-01,3.17,3.2,3.16,3.19,5791700,3.09
2016-06-02,3.2,3.275,3.19,3.21,11530800,3.11
2016-06-03,3.23,3.25,3.2,3.24,4889200,3.139
2016-06-06,3.23,3.25,3.195,3.23,8081600,3.1289999999999996
2016-06-07,3.23,3.24,3.17,3.19,7415700,3.09
2016-06-08,3.19,3.2,3.15,3.17,5378300,3.071
2016-06-09,3.17,3.19,3.16,3.18,5296500,3.0810000000000004
2016-06-10,3.16,3.19,3.15,3.17,3816700,3.071
2016-06-13,3.17,3.17,3.17,3.17,0,3.071
2016-06-14,3.13,3.15,3.055,3.12,18759900,3.022
2016-06-15,3.1,3.11,3.07,3.08,9774600,2.984
2016-06-16,2.9,2.94,2.835,2.91,44525500,2.819
2016-06-17,2.83,2.96,2.82,2.94,30144600,2.8480000000000003
2016-06-20,2.95,3.02,2.925,2.95,8687800,2.858
2016-06-21,2.94,3.01,2.93,2.98,9509300,2.887
2016-06-22,2.99,3.045,2.98,2.99,8184200,2.8960000000000004
2016-06-23,2.98,3.02,2.97,2.99,5138600,2.8960000000000004
2016-06-24,3.0,3.02,2.87,2.9,14468200,2.8089999999999997
2016-06-27,2.88,2.97,2.875,2.94,5535300,2.8480000000000003
2016-06-28,2.89,2.93,2.855,2.86,9483800,2.7710000000000004
2016-06-29,2.89,2.93,2.885,2.91,5829400,2.819
2016-06-30,2.93,2.97,2.92,2.95,6187800,2.858
2016-07-01,2.97,2.97,2.935,2.95,25675200,2.858
2016-07-04,2.92,2.97,2.9,2.97,6486900,2.877
2016-07-05,2.97,2.99,2.93,2.95,3691200,2.858
2016-07-06,2.93,2.955,2.9,2.94,4255000,2.8480000000000003
2016-07-07,2.95,2.97,2.935,2.94,5978700,2.8480000000000003
2016-07-08,2.94,2.96,2.93,2.93,3123100,2.838
2016-07-11,2.96,2.98,2.95,2.98,3645000,2.887
2016-07-12,2.98,3.02,2.97,3.02,5976100,2.926
2016-07-13,3.02,3.03,3.01,3.03,7436000,2.935
2016-07-14,3.04,3.06,3.025,3.04,5833400,2.945
2016-07-15,3.08,3.09,3.06,3.07,4674000,2.9739999999999998
2016-07-18,3.08,3.12,3.065,3.12,4603200,3.022
2016-07-19,3.1,3.11,2.98,3.0,30197100,2.906
2016-07-20,3.0,3.06,2.99,3.01,13409900,2.9160000000000004
2016-07-21,3.05,3.05,2.99,3.01,86085800,2.9160000000000004
2016-07-22,3.0,3.035,2.99,3.01,6334000,2.9160000000000004
2016-07-25,3.03,3.04,2.99,2.99,5449400,2.8960000000000004
2016-07-26,3.05,3.13,3.025,3.12,17976000,3.022
2016-07-27,3.12,3.13,3.045,3.05,10203300,2.955
2016-07-28,3.07,3.11,3.05,3.06,10403000,2.964
2016-07-29,3.06,3.09,3.05,3.07,6625100,2.9739999999999998
2016-08-01,3.07,3.08,3.06,3.08,5436900,2.984
2016-08-02,3.06,3.08,3.04,3.06,5761800,2.964
2016-08-03,3.04,3.045,3.0,3.02,27959500,2.926
2016-08-04,3.02,3.04,3.01,3.03,5667600,2.935
2016-08-05,3.02,3.08,3.02,3.05,5555100,2.955
2016-08-08,3.07,3.08,3.05,3.06,4678700,2.964
2016-08-09,3.05,3.06,3.02,3.04,6714300,2.945
2016-08-10,3.03,3.04,3.0,3.03,4605400,2.935
2016-08-11,3.03,3.06,3.025,3.05,2914800,2.955
2016-08-12,3.08,3.08,3.04,3.07,6398000,2.9739999999999998
2016-08-15,3.05,3.09,3.05,3.08,2469900,2.984
2016-08-16,3.07,3.07,3.04,3.04,5065400,2.945
2016-08-17,3.05,3.06,2.98,2.99,12709200,2.8960000000000004
2016-08-18,3.0,3.0,2.97,2.98,9216800,2.887
2016-08-19,2.84,2.86,2.79,2.84,35970600,2.7510000000000003
2016-08-22,2.8,2.81,2.705,2.72,27231900,2.635
2016-08-23,2.71,2.74,2.685,2.72,15637200,2.635
2016-08-24,2.73,2.78,2.72,2.74,11766500,2.654
2016-08-25,2.73,2.775,2.73,2.75,7158600,2.6639999999999997
2016-08-26,2.75,2.77,2.74,2.74,5910500,2.654
2016-08-29,2.75,2.77,2.72,2.74,6045800,2.654
2016-08-30,2.76,2.76,2.73,2.73,5433900,2.645
2016-08-31,2.74,2.74,2.68,2.69,10811700,2.6060000000000003
2016-09-01,2.69,2.75,2.685,2.74,8385900,2.654
2016-09-02,2.72,2.745,2.71,2.71,7664100,2.625
2016-09-05,2.72,2.76,2.71,2.74,27225600,2.654
2016-09-06,2.67,2.675,2.63,2.65,12044300,2.65
2016-09-07,2.62,2.64,2.54,2.57,26746100,2.57
2016-09-08,2.55,2.56,2.49,2.53,25710500,2.53
2016-09-09,2.5,2.56,2.49,2.51,20102500,2.51
2016-09-12,2.49,2.5,2.46,2.48,12109100,2.48
2016-09-13,2.5,2.53,2.5,2.52,12065100,2.52
2016-09-14,2.52,2.59,2.515,2.56,17003300,2.56
2016-09-15,2.54,2.54,2.51,2.52,11004100,2.52
2016-09-16,2.51,2.55,2.51,2.53,12445800,2.53
2016-09-19,2.56,2.56,2.53,2.53,1166700,2.53
2016-09-20,2.53,2.54,2.495,2.51,13521800,2.51
2016-09-21,2.53,2.58,2.505,2.51,16826600,2.51
2016-09-22,2.52,2.56,2.515,2.54,7631900,2.54
2016-09-23,2.52,2.545,2.485,2.53,12117800,2.53
2016-09-26,2.53,2.53,2.49,2.51,5119700,2.51
2016-09-27,2.48,2.48,2.4,2.41,27752400,2.41
2016-09-28,2.42,2.44,2.375,2.39,19154200,2.39
2016-09-29,2.4,2.42,2.36,2.4,18212100,2.4
2016-09-30,2.41,2.485,2.405,2.48,18452300,2.48
2016-10-03,2.49,2.5,2.45,2.46,4644000,2.46
2016-10-04,2.45,2.46,2.42,2.43,8780600,2.43
2016-10-05,2.43,2.465,2.42,2.44,12033400,2.44
2016-10-06,2.44,2.46,2.43,2.43,18947500,2.43
2016-10-07,2.43,2.46,2.42,2.45,11065800,2.45
2016-10-10,2.47,2.51,2.46,2.5,8397600,2.5
2016-10-11,2.5,2.53,2.5,2.51,33653000,2.51
2016-10-12,2.5,2.56,2.485,2.54,15320900,2.54
2016-10-13,2.55,2.6,2.54,2.59,11386200,2.59
2016-10-14,2.59,2.6,2.55,2.57,7196300,2.57
2016-10-17,2.57,2.61,2.555,2.58,15326900,2.58
2016-10-18,2.58,2.6,2.56,2.57,9454000,2.57
2016-10-19,2.56,2.58,2.54,2.57,8624200,2.57
2016-10-20,2.55,2.58,2.54,2.56,7661400,2.56
2016-10-21,2.55,2.64,2.545,2.63,11364100,2.63
2016-10-24,2.63,2.65,2.59,2.63,8647900,2.63
2016-10-25,2.63,2.66,2.63,2.63,6227100,2.63
2016-10-26,2.6,2.615,2.56,2.58,11434100,2.58
2016-10-27,2.57,2.605,2.57,2.58,6492900,2.58
2016-10-28,2.57,2.58,2.53,2.56,10725400,2.56
2016-10-31,2.55,2.595,2.54,2.58,7117600,2.58
2016-11-01,2.56,2.59,2.56,2.57,4480000,2.57
2016-11-02,2.54,2.55,2.505,2.54,9227300,2.54
2016-11-03,2.51,2.525,2.48,2.51,7314500,2.51
2016-11-04,2.5,2.52,2.48,2.49,5876500,2.49
2016-11-07,2.5,2.54,2.5,2.51,5320200,2.51
2016-11-08,2.51,2.565,2.51,2.55,8552600,2.55
2016-11-09,2.51,2.57,2.43,2.45,24295900,2.45
2016-11-10,2.49,2.5,2.405,2.45,13158100,2.45
2016-11-11,2.45,2.47,2.43,2.47,4780300,2.47
2016-11-14,2.47,2.5,2.45,2.49,4949300,2.49
2016-11-15,2.48,2.53,2.475,2.52,10116000,2.52
2016-11-16,2.5,2.55,2.48,2.55,12370700,2.55
2016-11-17,2.51,2.54,2.5,2.51,11274600,2.51
2016-11-18,2.5,2.53,2.485,2.49,4974400,2.49
2016-11-21,2.49,2.54,2.48,2.52,5778300,2.52
2016-11-22,2.53,2.555,2.525,2.54,5807800,2.54
2016-11-23,2.53,2.55,2.52,2.55,5337500,2.55
2016-11-24,2.56,2.57,2.53,2.56,3543700,2.56
2016-11-25,2.57,2.59,2.56,2.58,4972000,2.58
2016-11-28,2.58,2.6,2.57,2.59,4680600,2.59
2016-11-29,2.59,2.6,2.575,2.6,4291600,2.6
2016-11-30,2.58,2.6,2.535,2.6,20227800,2.6
2016-12-01,2.56,2.64,2.53,2.64,14881000,2.64
2016-12-02,2.6,2.63,2.585,2.59,7184100,2.59
2016-12-05,2.6,2.7,2.6,2.69,8956200,2.69
2016-12-06,2.69,2.715,2.64,2.68,8031400,2.68
2016-12-07,2.68,2.76,2.67,2.74,10695200,2.74
2016-12-08,2.77,2.785,2.73,2.76,6311200,2.76
2016-12-09,2.75,2.76,2.725,2.75,5147600,2.75
2016-12-12,2.73,2.76,2.71,2.75,6582500,2.75
2016-12-13,2.73,2.765,2.7,2.74,4957000,2.74
2016-12-14,2.74,2.795,2.735,2.78,6863500,2.78
2016-12-15,2.8,2.8,2.76,2.76,5537400,2.76
2016-12-16,2.75,2.76,2.7,2.76,5512100,2.76
2016-12-19,2.76,2.8,2.75,2.8,5218200,2.8
2016-12-20,2.78,2.8,2.76,2.77,5032300,2.77
2016-12-21,2.78,2.8,2.76,2.8,3873700,2.8
2016-12-22,2.77,2.79,2.76,2.79,3592000,2.79
2016-12-23,2.78,2.785,2.76,2.78,3698000,2.78
2016-12-26,2.78,2.78,2.78,2.78,0,2.78
2016-12-27,2.78,2.78,2.78,2.78,0,2.78
2016-12-28,2.78,2.8,2.76,2.8,3308000,2.8
2016-12-29,2.8,2.82,2.79,2.82,2588600,2.82
2016-12-30,2.81,2.84,2.8,2.82,2664700,2.82
