Date,Open,High,Low,Close,Volume,Adj Close
2015-12-22,0.53,0.625,0.53,0.6,1875200,0.6
2015-12-23,0.6,0.6,0.55,0.57,702500,0.57
2015-12-24,0.575,0.58,0.575,0.575,41600,0.575
2015-12-25,0.575,0.575,0.575,0.575,0,0.575
2015-12-28,0.575,0.575,0.575,0.575,0,0.575
2015-12-29,0.57,0.6,0.565,0.6,245500,0.6
2015-12-30,0.59,0.59,0.58,0.58,35600,0.58
2015-12-31,0.575,0.58,0.57,0.58,70800,0.58
2016-01-01,0.58,0.58,0.58,0.58,0,0.58
2016-01-04,0.58,0.58,0.55,0.56,159100,0.56
2016-01-05,0.55,0.55,0.53,0.55,213100,0.55
2016-01-06,0.56,0.56,0.54,0.54,26000,0.54
2016-01-07,0.54,0.54,0.505,0.535,52100,0.535
2016-01-08,0.51,0.51,0.505,0.505,19500,0.505
2016-01-11,0.505,0.505,0.5,0.5,55000,0.5
2016-01-12,0.5,0.5,0.48,0.5,64400,0.5
2016-01-13,0.485,0.485,0.485,0.485,6000,0.485
2016-01-14,0.49,0.49,0.46,0.48,38600,0.48
2016-01-15,0.48,0.48,0.48,0.48,0,0.48
2016-01-18,0.46,0.46,0.42,0.42,114000,0.42
2016-01-19,0.42,0.46,0.42,0.46,32000,0.46
2016-01-20,0.49,0.5,0.49,0.5,5600,0.5
2016-01-21,0.5,0.5,0.5,0.5,0,0.5
2016-01-22,0.5,0.5,0.5,0.5,0,0.5
2016-01-25,0.475,0.5,0.475,0.5,7000,0.5
2016-01-26,0.5,0.5,0.5,0.5,0,0.5
2016-01-27,0.485,0.485,0.48,0.48,24200,0.48
2016-01-28,0.48,0.48,0.48,0.48,0,0.48
2016-01-29,0.46,0.49,0.45,0.49,41700,0.49
2016-02-01,0.47,0.47,0.47,0.47,1100,0.47
2016-02-02,0.47,0.47,0.47,0.47,28900,0.47
2016-02-03,0.47,0.47,0.47,0.47,0,0.47
2016-02-04,0.47,0.47,0.47,0.47,0,0.47
2016-02-05,0.49,0.49,0.46,0.46,6000,0.46
2016-02-08,0.46,0.46,0.46,0.46,0,0.46
2016-02-09,0.415,0.415,0.405,0.405,16100,0.405
2016-02-10,0.425,0.425,0.42,0.42,22900,0.42
2016-02-11,0.42,0.42,0.42,0.42,0,0.42
2016-02-12,0.43,0.43,0.405,0.405,30000,0.405
2016-02-15,0.41,0.415,0.405,0.405,75900,0.405
2016-02-16,0.405,0.405,0.405,0.405,0,0.405
2016-02-17,0.405,0.405,0.405,0.405,0,0.405
2016-02-18,0.415,0.415,0.4,0.4,111100,0.4
2016-02-19,0.4,0.4,0.4,0.4,139800,0.4
2016-02-22,0.445,0.445,0.445,0.445,46600,0.445
2016-02-23,0.445,0.445,0.445,0.445,0,0.445
2016-02-24,0.445,0.445,0.445,0.445,0,0.445
2016-02-25,0.44,0.445,0.44,0.445,22300,0.445
2016-02-26,0.42,0.42,0.405,0.405,70000,0.405
2016-02-29,0.405,0.43,0.4,0.43,48000,0.43
2016-03-01,0.435,0.44,0.435,0.44,57200,0.44
2016-03-02,0.425,0.425,0.425,0.425,40000,0.425
2016-03-03,0.435,0.445,0.435,0.445,122800,0.445
2016-03-04,0.45,0.45,0.45,0.45,13500,0.45
2016-03-07,0.45,0.45,0.45,0.45,28000,0.45
2016-03-08,0.45,0.47,0.45,0.47,8000,0.47
2016-03-09,0.45,0.455,0.45,0.45,26000,0.45
2016-03-10,0.465,0.465,0.465,0.465,1300,0.465
2016-03-11,0.45,0.45,0.45,0.45,42200,0.45
2016-03-14,0.445,0.445,0.425,0.43,41700,0.43
2016-03-15,0.43,0.43,0.43,0.43,0,0.43
2016-03-16,0.43,0.43,0.43,0.43,0,0.43
2016-03-17,0.43,0.43,0.43,0.43,0,0.43
2016-03-18,0.43,0.43,0.43,0.43,20000,0.43
2016-03-21,0.43,0.43,0.43,0.43,0,0.43
2016-03-22,0.42,0.43,0.42,0.43,25000,0.43
2016-03-23,0.43,0.465,0.43,0.46,80300,0.46
2016-03-24,0.46,0.5,0.46,0.5,51000,0.5
2016-03-25,0.5,0.5,0.5,0.5,0,0.5
2016-03-28,0.5,0.5,0.5,0.5,0,0.5
2016-03-29,0.5,0.5,0.49,0.49,20000,0.49
2016-03-30,0.49,0.49,0.49,0.49,23100,0.49
2016-03-31,0.49,0.49,0.49,0.49,0,0.49
2016-04-01,0.49,0.49,0.49,0.49,2000,0.49
2016-04-04,0.47,0.47,0.47,0.47,87700,0.47
2016-04-05,0.47,0.47,0.45,0.45,9000,0.45
2016-04-06,0.455,0.455,0.455,0.455,10000,0.455
2016-04-07,0.455,0.455,0.455,0.455,0,0.455
2016-04-08,0.45,0.45,0.43,0.43,14000,0.43
2016-04-11,0.43,0.43,0.43,0.43,0,0.43
2016-04-12,0.43,0.43,0.43,0.43,0,0.43
2016-04-13,0.44,0.44,0.44,0.44,1835000,0.44
2016-04-14,0.44,0.44,0.44,0.44,0,0.44
2016-04-15,0.45,0.46,0.45,0.45,24100,0.45
2016-04-18,0.45,0.45,0.45,0.45,105300,0.45
2016-04-19,0.445,0.445,0.445,0.445,100000,0.445
2016-04-20,0.45,0.45,0.45,0.45,10500,0.45
2016-04-21,0.44,0.44,0.44,0.44,15000,0.44
2016-04-22,0.44,0.44,0.44,0.44,7500,0.44
2016-04-25,0.44,0.44,0.44,0.44,0,0.44
2016-04-26,0.42,0.42,0.415,0.415,20000,0.415
2016-04-27,0.415,0.415,0.415,0.415,0,0.415
2016-04-28,0.43,0.435,0.43,0.435,14600,0.435
2016-04-29,0.42,0.42,0.415,0.415,6000,0.415
2016-05-02,0.415,0.43,0.405,0.43,58500,0.43
2016-05-03,0.415,0.43,0.415,0.43,10000,0.43
2016-05-04,0.43,0.43,0.43,0.43,0,0.43
2016-05-05,0.42,0.42,0.42,0.42,7500,0.42
2016-05-06,0.42,0.42,0.42,0.42,10000,0.42
2016-05-09,0.42,0.42,0.42,0.42,10000,0.42
2016-05-10,0.41,0.41,0.405,0.405,37000,0.405
2016-05-11,0.405,0.405,0.405,0.405,18900,0.405
2016-05-12,0.405,0.405,0.405,0.405,0,0.405
2016-05-13,0.41,0.41,0.41,0.41,4000,0.41
2016-05-16,0.41,0.42,0.41,0.42,50000,0.42
2016-05-17,0.42,0.42,0.42,0.42,0,0.42
2016-05-18,0.42,0.42,0.42,0.42,0,0.42
2016-05-19,0.41,0.41,0.39,0.39,20000,0.39
2016-05-20,0.4,0.4,0.4,0.4,10000,0.4
2016-05-23,0.4,0.4,0.4,0.4,0,0.4
2016-05-24,0.4,0.4,0.4,0.4,40000,0.4
2016-05-25,0.39,0.4,0.39,0.4,50000,0.4
2016-05-26,0.39,0.4,0.39,0.4,19500,0.4
2016-05-27,0.395,0.4,0.395,0.4,59000,0.4
2016-05-30,0.4,0.4,0.39,0.39,28500,0.39
2016-05-31,0.39,0.395,0.39,0.395,69400,0.395
2016-06-01,0.395,0.395,0.395,0.395,0,0.395
2016-06-02,0.395,0.395,0.395,0.395,0,0.395
2016-06-03,0.395,0.395,0.395,0.395,5000,0.395
2016-06-06,0.39,0.39,0.385,0.385,10000,0.385
2016-06-07,0.385,0.385,0.37,0.37,36600,0.37
2016-06-08,0.37,0.37,0.37,0.37,23500,0.37
2016-06-09,0.36,0.38,0.36,0.38,120100,0.38
2016-06-10,0.39,0.39,0.38,0.38,12500,0.38
2016-06-13,0.38,0.38,0.38,0.38,0,0.38
2016-06-14,0.38,0.38,0.36,0.36,24600,0.36
2016-06-15,0.37,0.37,0.34,0.34,126300,0.34
2016-06-16,0.34,0.35,0.34,0.35,55400,0.35
2016-06-17,0.35,0.35,0.35,0.35,40000,0.35
2016-06-20,0.34,0.34,0.34,0.34,20000,0.34
2016-06-21,0.34,0.34,0.33,0.34,125000,0.34
2016-06-22,0.335,0.34,0.335,0.34,11000,0.34
2016-06-23,0.33,0.335,0.32,0.32,120300,0.32
2016-06-24,0.335,0.335,0.335,0.335,2000,0.335
2016-06-27,0.32,0.32,0.305,0.31,334000,0.31
2016-06-28,0.31,0.31,0.31,0.31,0,0.31
2016-06-29,0.31,0.31,0.31,0.31,6500,0.31
2016-06-30,0.3,0.31,0.295,0.3,517000,0.3
2016-07-01,0.31,0.31,0.31,0.31,15100,0.31
2016-07-04,0.3,0.31,0.29,0.3,265500,0.3
2016-07-05,0.31,0.31,0.295,0.295,16500,0.295
2016-07-06,0.31,0.31,0.3,0.3,243600,0.3
2016-07-07,0.31,0.31,0.3,0.3,187900,0.3
2016-07-08,0.305,0.305,0.295,0.295,148900,0.295
2016-07-11,0.305,0.305,0.3,0.305,389200,0.305
2016-07-12,0.305,0.305,0.305,0.305,0,0.305
2016-07-13,0.305,0.305,0.29,0.29,112900,0.29
2016-07-14,0.29,0.29,0.29,0.29,0,0.29
2016-07-15,0.305,0.305,0.305,0.305,7500,0.305
2016-07-18,0.305,0.305,0.305,0.305,0,0.305
2016-07-19,0.31,0.315,0.31,0.315,31200,0.315
2016-07-20,0.32,0.32,0.305,0.305,25700,0.305
2016-07-21,0.305,0.305,0.305,0.305,21000,0.305
2016-07-22,0.32,0.34,0.295,0.295,112000,0.295
2016-07-25,0.31,0.31,0.31,0.31,14500,0.31
2016-07-26,0.3,0.3,0.3,0.3,41100,0.3
2016-07-27,0.32,0.33,0.32,0.33,65000,0.33
2016-07-28,0.33,0.33,0.325,0.325,60000,0.325
2016-07-29,0.355,0.375,0.35,0.36,354800,0.36
2016-08-01,0.36,0.36,0.36,0.36,194700,0.36
2016-08-02,0.36,0.36,0.32,0.32,62100,0.32
2016-08-03,0.325,0.35,0.325,0.34,79900,0.34
2016-08-04,0.36,0.37,0.36,0.36,126900,0.36
2016-08-05,0.36,0.36,0.36,0.36,68100,0.36
2016-08-08,0.36,0.36,0.36,0.36,55500,0.36
2016-08-09,0.36,0.37,0.36,0.37,84500,0.37
2016-08-10,0.4,0.4,0.37,0.37,100400,0.37
2016-08-11,0.4,0.42,0.4,0.42,228700,0.42
2016-08-12,0.415,0.44,0.4,0.4,125000,0.4
2016-08-15,0.405,0.405,0.4,0.4,43900,0.4
2016-08-16,0.4,0.4,0.4,0.4,0,0.4
2016-08-17,0.4,0.4,0.4,0.4,0,0.4
2016-08-18,0.4,0.4,0.4,0.4,0,0.4
2016-08-19,0.39,0.39,0.375,0.375,66200,0.375
2016-08-22,0.36,0.36,0.36,0.36,46000,0.36
2016-08-23,0.37,0.37,0.36,0.36,50000,0.36
2016-08-24,0.36,0.36,0.36,0.36,0,0.36
2016-08-25,0.36,0.36,0.35,0.35,11200,0.35
2016-08-26,0.365,0.37,0.33,0.33,157500,0.33
2016-08-29,0.34,0.42,0.34,0.42,91600,0.42
2016-08-30,0.4,0.4,0.382,0.39,10600,0.39
2016-08-31,0.395,0.395,0.395,0.395,4100,0.395
2016-09-01,0.382,0.395,0.382,0.395,15000,0.395
2016-09-02,0.395,0.395,0.395,0.395,0,0.395
2016-09-05,0.37,0.37,0.37,0.37,6100,0.37
2016-09-06,0.38,0.38,0.38,0.38,2000,0.38
2016-09-07,0.375,0.375,0.35,0.35,132900,0.35
2016-09-08,0.36,0.36,0.36,0.36,18300,0.36
2016-09-09,0.36,0.36,0.35,0.36,115000,0.36
2016-09-12,0.37,0.39,0.37,0.39,16800,0.39
2016-09-13,0.395,0.395,0.38,0.38,72100,0.38
2016-09-14,0.39,0.39,0.39,0.39,9000,0.39
2016-09-15,0.375,0.375,0.375,0.375,6600,0.375
2016-09-16,0.38,0.38,0.34,0.34,42300,0.34
2016-09-19,0.36,0.375,0.36,0.375,125000,0.375
2016-09-20,0.38,0.38,0.345,0.345,202200,0.345
2016-09-21,0.35,0.36,0.35,0.36,14000,0.36
2016-09-22,0.35,0.355,0.35,0.355,5500,0.355
2016-09-23,0.355,0.355,0.355,0.355,0,0.355
2016-09-26,0.38,0.38,0.38,0.38,10000,0.38
2016-09-27,0.385,0.385,0.385,0.385,23900,0.385
2016-09-28,0.385,0.39,0.36,0.36,52900,0.36
2016-09-29,0.365,0.37,0.355,0.355,110100,0.355
2016-09-30,0.355,0.355,0.35,0.35,10700,0.35
2016-10-03,0.355,0.36,0.355,0.36,25000,0.36
2016-10-04,0.36,0.36,0.36,0.36,4300,0.36
2016-10-05,0.375,0.38,0.375,0.38,5700,0.38
2016-10-06,0.39,0.39,0.37,0.39,27300,0.39
2016-10-07,0.38,0.4,0.38,0.4,19900,0.4
2016-10-10,0.395,0.4,0.395,0.395,81000,0.395
2016-10-11,0.395,0.395,0.395,0.395,0,0.395
2016-10-12,0.395,0.45,0.395,0.45,94300,0.45
2016-10-13,0.445,0.445,0.445,0.445,9100,0.445
2016-10-14,0.44,0.44,0.44,0.44,19000,0.44
2016-10-17,0.44,0.44,0.44,0.44,2800,0.44
2016-10-18,0.44,0.44,0.44,0.44,55400,0.44
2016-10-19,0.445,0.45,0.445,0.445,107700,0.445
2016-10-20,0.445,0.445,0.435,0.435,101400,0.435
2016-10-21,0.445,0.46,0.44,0.46,142000,0.46
2016-10-24,0.46,0.47,0.45,0.45,52100,0.45
2016-10-25,0.47,0.48,0.47,0.47,107000,0.47
2016-10-26,0.48,0.48,0.445,0.445,140400,0.445
2016-10-27,0.445,0.445,0.445,0.445,0,0.445
2016-10-28,0.46,0.47,0.45,0.47,267800,0.47
2016-10-31,0.475,0.48,0.47,0.47,74600,0.47
2016-11-01,0.47,0.47,0.47,0.47,126300,0.47
2016-11-02,0.47,0.47,0.445,0.445,157400,0.445
2016-11-03,0.445,0.45,0.445,0.45,27700,0.45
2016-11-04,0.46,0.465,0.46,0.46,83000,0.46
2016-11-07,0.45,0.455,0.445,0.445,57300,0.445
2016-11-08,0.445,0.445,0.445,0.445,102600,0.445
2016-11-09,0.445,0.46,0.445,0.45,21600,0.45
2016-11-10,0.445,0.45,0.445,0.45,50700,0.45
2016-11-11,0.45,0.515,0.45,0.51,281900,0.51
2016-11-14,0.51,0.52,0.5,0.51,187600,0.51
2016-11-15,0.505,0.517,0.5,0.5,129000,0.5
2016-11-16,0.5,0.5,0.495,0.495,54000,0.495
2016-11-17,0.49,0.495,0.49,0.495,47000,0.495
2016-11-18,0.49,0.49,0.485,0.485,100000,0.485
2016-11-21,0.49,0.505,0.485,0.505,189200,0.505
2016-11-22,0.5,0.505,0.5,0.505,60400,0.505
2016-11-23,0.515,0.52,0.515,0.52,184500,0.52
2016-11-24,0.52,0.535,0.52,0.52,518600,0.52
2016-11-25,0.535,0.54,0.53,0.535,141200,0.535
2016-11-28,0.54,0.57,0.54,0.57,648300,0.57
2016-11-29,0.57,0.575,0.55,0.55,184100,0.55
2016-11-30,0.56,0.56,0.53,0.54,269900,0.54
2016-12-01,0.525,0.54,0.52,0.53,118100,0.53
2016-12-02,0.53,0.53,0.49,0.5,69200,0.5
2016-12-05,0.54,0.54,0.5,0.5,120800,0.5
2016-12-06,0.55,0.55,0.5,0.54,42200,0.54
2016-12-07,0.53,0.53,0.51,0.51,357500,0.51
2016-12-08,0.51,0.53,0.5,0.5,182100,0.5
2016-12-09,0.5,0.5,0.5,0.5,0,0.5
2016-12-12,0.505,0.515,0.5,0.51,100900,0.51
2016-12-13,0.51,0.51,0.5,0.5,64400,0.5
2016-12-14,0.5,0.5,0.49,0.5,154400,0.5
2016-12-15,0.5,0.5,0.485,0.485,43500,0.485
2016-12-16,0.485,0.5,0.485,0.5,135800,0.5
2016-12-19,0.5,0.5,0.5,0.5,101000,0.5
2016-12-20,0.5,0.5,0.5,0.5,2200,0.5
2016-12-21,0.495,0.495,0.48,0.48,52500,0.48
2016-12-22,0.48,0.5,0.475,0.5,20700,0.5
2016-12-23,0.495,0.495,0.495,0.495,9800,0.495
2016-12-26,0.495,0.495,0.495,0.495,0,0.495
2016-12-27,0.495,0.495,0.495,0.495,0,0.495
2016-12-28,0.475,0.475,0.475,0.475,3200,0.475
2016-12-29,0.495,0.495,0.485,0.485,22000,0.485
2016-12-30,0.485,0.485,0.485,0.485,0,0.485
