Date,Open,High,Low,Close,Volume,Adj Close
2012-06-14,0.24,0.25,0.24,0.25,21800,0.25
2012-06-15,0.25,0.25,0.25,0.25,0,0.25
2012-06-18,0.25,0.25,0.25,0.25,0,0.25
2012-06-19,0.25,0.25,0.25,0.25,0,0.25
2012-06-20,0.25,0.25,0.25,0.25,14500,0.25
2012-06-21,0.25,0.25,0.25,0.25,0,0.25
2012-06-22,0.25,0.25,0.25,0.25,0,0.25
2012-06-25,0.25,0.25,0.25,0.25,25000,0.25
2012-06-26,0.25,0.25,0.25,0.25,4000,0.25
2012-06-27,0.25,0.25,0.25,0.25,0,0.25
2012-06-28,0.25,0.25,0.25,0.25,0,0.25
2012-06-29,0.26,0.265,0.26,0.265,16000,0.265
2012-07-02,0.265,0.265,0.265,0.265,10000,0.265
2012-07-03,0.265,0.265,0.265,0.265,0,0.265
2012-07-04,0.265,0.265,0.265,0.265,0,0.265
2012-07-05,0.265,0.265,0.265,0.265,0,0.265
2012-07-06,0.265,0.265,0.265,0.265,0,0.265
2012-07-09,0.265,0.265,0.265,0.265,0,0.265
2012-07-10,0.265,0.265,0.265,0.265,0,0.265
2012-07-11,0.265,0.265,0.265,0.265,0,0.265
2012-07-12,0.265,0.265,0.265,0.265,0,0.265
2012-07-13,0.265,0.265,0.265,0.265,0,0.265
2012-07-16,0.265,0.265,0.265,0.265,0,0.265
2012-07-17,0.265,0.265,0.265,0.265,0,0.265
2012-07-18,0.265,0.265,0.265,0.265,0,0.265
2012-07-19,0.265,0.265,0.265,0.265,0,0.265
2012-07-20,0.265,0.265,0.265,0.265,0,0.265
2012-07-23,0.265,0.265,0.265,0.265,0,0.265
2012-07-24,0.265,0.265,0.265,0.265,0,0.265
2012-07-25,0.27,0.27,0.27,0.27,7400,0.27
2012-07-26,0.27,0.27,0.27,0.27,0,0.27
2012-07-27,0.27,0.27,0.27,0.27,0,0.27
2012-07-30,0.27,0.27,0.27,0.27,18400,0.27
2012-07-31,0.27,0.27,0.27,0.27,4100,0.27
2012-08-01,0.27,0.27,0.27,0.27,0,0.27
2012-08-02,0.27,0.27,0.27,0.27,0,0.27
2012-08-03,0.27,0.27,0.27,0.27,0,0.27
2012-08-06,0.27,0.27,0.27,0.27,0,0.27
2012-08-07,0.27,0.27,0.27,0.27,0,0.27
2012-08-08,0.27,0.27,0.27,0.27,0,0.27
2012-08-09,0.275,0.275,0.275,0.275,1800,0.275
2012-08-10,0.275,0.275,0.275,0.275,0,0.275
2012-08-13,0.275,0.275,0.275,0.275,5000,0.275
2012-08-14,0.275,0.275,0.275,0.275,0,0.275
2012-08-15,0.275,0.275,0.275,0.275,0,0.275
2012-08-16,0.275,0.275,0.27,0.27,12200,0.27
2012-08-17,0.27,0.27,0.27,0.27,0,0.27
2012-08-20,0.27,0.27,0.27,0.27,0,0.27
2012-08-21,0.27,0.27,0.27,0.27,1900,0.27
2012-08-22,0.27,0.27,0.27,0.27,0,0.27
2012-08-23,0.27,0.27,0.27,0.27,0,0.27
2012-08-24,0.27,0.27,0.27,0.27,0,0.27
2012-08-27,0.27,0.27,0.27,0.27,0,0.27
2012-08-28,0.27,0.27,0.27,0.27,0,0.27
2012-08-29,0.27,0.27,0.27,0.27,0,0.27
2012-08-30,0.27,0.27,0.27,0.27,0,0.27
2012-08-31,0.27,0.27,0.27,0.27,0,0.27
2012-09-03,0.27,0.27,0.27,0.27,0,0.27
2012-09-04,0.27,0.27,0.27,0.27,0,0.27
2012-09-05,0.27,0.27,0.27,0.27,0,0.27
2012-09-06,0.27,0.27,0.27,0.27,0,0.27
2012-09-07,0.27,0.27,0.27,0.27,5000,0.27
2012-09-10,0.27,0.27,0.27,0.27,0,0.27
2012-09-11,0.27,0.27,0.27,0.27,0,0.27
2012-09-12,0.27,0.27,0.27,0.27,0,0.27
2012-09-13,0.27,0.27,0.27,0.27,0,0.27
2012-09-14,0.27,0.27,0.27,0.27,0,0.27
2012-09-17,0.27,0.27,0.27,0.27,0,0.27
2012-09-18,0.27,0.27,0.27,0.27,0,0.27
2012-09-19,0.27,0.27,0.27,0.27,0,0.27
2012-09-20,0.27,0.27,0.27,0.27,0,0.27
2012-09-21,0.27,0.27,0.27,0.27,0,0.27
2012-09-24,0.27,0.27,0.27,0.27,0,0.27
2012-09-25,0.27,0.27,0.27,0.27,0,0.27
2012-09-26,0.27,0.27,0.27,0.27,0,0.27
2012-09-27,0.27,0.27,0.27,0.27,0,0.27
2012-09-28,0.27,0.27,0.27,0.27,0,0.27
2012-10-01,0.27,0.27,0.27,0.27,0,0.27
2012-10-02,0.27,0.27,0.27,0.27,0,0.27
2012-10-03,0.27,0.27,0.27,0.27,0,0.27
2012-10-04,0.27,0.27,0.27,0.27,0,0.27
2012-10-05,0.27,0.27,0.27,0.27,0,0.27
2012-10-08,0.27,0.27,0.27,0.27,0,0.27
2012-10-09,0.27,0.27,0.27,0.27,0,0.27
2012-10-10,0.28,0.28,0.28,0.28,10000,0.28
2012-10-11,0.28,0.28,0.28,0.28,0,0.28
2012-10-12,0.28,0.28,0.28,0.28,0,0.28
2012-10-15,0.28,0.28,0.28,0.28,0,0.28
2012-10-16,0.28,0.28,0.28,0.28,0,0.28
2012-10-17,0.285,0.285,0.285,0.285,4000,0.285
2012-10-18,0.285,0.285,0.285,0.285,0,0.285
2012-10-19,0.285,0.285,0.285,0.285,0,0.285
2012-10-22,0.285,0.285,0.285,0.285,0,0.285
2012-10-23,0.285,0.285,0.285,0.285,0,0.285
2012-10-24,0.285,0.285,0.285,0.285,6000,0.285
2012-10-25,0.285,0.285,0.285,0.285,4000,0.285
2012-10-26,0.285,0.285,0.285,0.285,0,0.285
2012-10-29,0.285,0.285,0.285,0.285,0,0.285
2012-10-30,0.285,0.285,0.285,0.285,7200,0.285
2012-10-31,0.285,0.285,0.285,0.285,0,0.285
2012-11-01,0.285,0.285,0.285,0.285,3800,0.285
2012-11-02,0.285,0.285,0.285,0.285,0,0.285
2012-11-05,0.285,0.285,0.285,0.285,0,0.285
2012-11-06,0.285,0.285,0.285,0.285,0,0.285
2012-11-07,0.285,0.285,0.285,0.285,0,0.285
2012-11-08,0.285,0.285,0.285,0.285,0,0.285
2012-11-09,0.285,0.285,0.285,0.285,0,0.285
2012-11-12,0.285,0.285,0.285,0.285,0,0.285
2012-11-13,0.285,0.285,0.285,0.285,0,0.285
2012-11-14,0.285,0.285,0.285,0.285,0,0.285
2012-11-15,0.285,0.285,0.285,0.285,0,0.285
2012-11-16,0.285,0.285,0.285,0.285,0,0.285
2012-11-19,0.285,0.285,0.285,0.285,0,0.285
2012-11-20,0.285,0.285,0.285,0.285,0,0.285
2012-11-21,0.285,0.285,0.285,0.285,0,0.285
2012-11-22,0.285,0.285,0.285,0.285,0,0.285
2012-11-23,0.28,0.28,0.28,0.28,3300,0.28
2012-11-26,0.285,0.285,0.285,0.285,6700,0.285
2012-11-27,0.285,0.285,0.285,0.285,0,0.285
2012-11-28,0.285,0.285,0.285,0.285,0,0.285
2012-11-29,0.285,0.285,0.285,0.285,0,0.285
2012-11-30,0.285,0.285,0.285,0.285,0,0.285
2012-12-03,0.285,0.285,0.285,0.285,0,0.285
2012-12-04,0.285,0.285,0.285,0.285,0,0.285
2012-12-05,0.285,0.285,0.285,0.285,0,0.285
2012-12-06,0.285,0.285,0.285,0.285,0,0.285
2012-12-07,0.285,0.285,0.285,0.285,0,0.285
2012-12-10,0.285,0.285,0.285,0.285,0,0.285
2012-12-11,0.285,0.285,0.285,0.285,0,0.285
2012-12-12,0.275,0.275,0.275,0.275,1800,0.275
2012-12-13,0.275,0.275,0.275,0.275,0,0.275
2012-12-14,0.275,0.275,0.275,0.275,0,0.275
2012-12-17,0.275,0.275,0.275,0.275,0,0.275
2012-12-18,0.275,0.275,0.275,0.275,0,0.275
2012-12-19,0.275,0.275,0.275,0.275,0,0.275
2012-12-20,0.275,0.275,0.275,0.275,0,0.275
2012-12-21,0.275,0.275,0.275,0.275,0,0.275
2012-12-24,0.275,0.275,0.275,0.275,0,0.275
2012-12-25,0.275,0.275,0.275,0.275,0,0.275
2012-12-26,0.275,0.275,0.275,0.275,0,0.275
2012-12-27,0.275,0.275,0.275,0.275,0,0.275
2012-12-28,0.275,0.275,0.275,0.275,0,0.275
2012-12-31,0.275,0.275,0.275,0.275,0,0.275
2013-01-01,0.275,0.275,0.275,0.275,0,0.275
2013-01-02,0.275,0.275,0.275,0.275,0,0.275
2013-01-03,0.275,0.275,0.275,0.275,0,0.275
2013-01-04,0.275,0.275,0.275,0.275,0,0.275
2013-01-07,0.275,0.275,0.275,0.275,0,0.275
2013-01-08,0.275,0.275,0.275,0.275,0,0.275
2013-01-09,0.275,0.275,0.275,0.275,0,0.275
2013-01-10,0.275,0.275,0.275,0.275,0,0.275
2013-01-11,0.275,0.275,0.275,0.275,0,0.275
2013-01-14,0.275,0.275,0.275,0.275,0,0.275
2013-01-15,0.275,0.275,0.275,0.275,0,0.275
2013-01-16,0.275,0.275,0.275,0.275,0,0.275
2013-01-17,0.275,0.275,0.275,0.275,0,0.275
2013-01-18,0.275,0.275,0.275,0.275,0,0.275
2013-01-21,0.275,0.275,0.275,0.275,0,0.275
2013-01-22,0.275,0.275,0.275,0.275,0,0.275
2013-01-24,0.275,0.275,0.275,0.275,0,0.275
2013-01-25,0.275,0.275,0.275,0.275,0,0.275
2013-01-28,0.275,0.275,0.275,0.275,0,0.275
2013-01-29,0.275,0.275,0.275,0.275,0,0.275
2013-01-30,0.275,0.275,0.275,0.275,0,0.275
2013-01-31,0.275,0.275,0.275,0.275,0,0.275
2013-02-01,0.27,0.27,0.27,0.27,30000,0.27
2013-02-04,0.27,0.27,0.27,0.27,0,0.27
2013-02-05,0.27,0.27,0.27,0.27,0,0.27
2013-02-06,0.27,0.27,0.27,0.27,0,0.27
2013-02-07,0.27,0.27,0.27,0.27,0,0.27
2013-02-08,0.27,0.27,0.27,0.27,0,0.27
2013-02-11,0.27,0.27,0.27,0.27,0,0.27
2013-02-12,0.27,0.27,0.27,0.27,0,0.27
2013-02-13,0.27,0.27,0.27,0.27,0,0.27
2013-02-14,0.27,0.27,0.27,0.27,0,0.27
2013-02-15,0.27,0.27,0.27,0.27,0,0.27
2013-02-18,0.27,0.27,0.27,0.27,0,0.27
2013-02-19,0.27,0.27,0.27,0.27,0,0.27
2013-02-20,0.27,0.27,0.27,0.27,0,0.27
2013-02-21,0.27,0.27,0.27,0.27,0,0.27
2013-02-22,0.27,0.27,0.27,0.27,0,0.27
2013-02-25,0.27,0.27,0.27,0.27,0,0.27
2013-02-26,0.27,0.27,0.27,0.27,0,0.27
2013-02-27,0.27,0.27,0.27,0.27,0,0.27
2013-02-28,0.28,0.28,0.28,0.28,10000,0.28
2013-03-01,0.28,0.28,0.28,0.28,0,0.28
2013-03-04,0.28,0.28,0.28,0.28,0,0.28
2013-03-05,0.28,0.28,0.28,0.28,0,0.28
2013-03-06,0.28,0.28,0.28,0.28,0,0.28
2013-03-07,0.28,0.28,0.28,0.28,0,0.28
2013-03-08,0.28,0.28,0.28,0.28,0,0.28
2013-03-11,0.28,0.28,0.28,0.28,0,0.28
2013-03-12,0.28,0.28,0.28,0.28,0,0.28
2013-03-13,0.28,0.28,0.28,0.28,0,0.28
2013-03-14,0.28,0.28,0.28,0.28,0,0.28
2013-03-15,0.28,0.28,0.28,0.28,0,0.28
2013-03-18,0.28,0.28,0.28,0.28,0,0.28
2013-03-19,0.28,0.28,0.28,0.28,0,0.28
2013-03-20,0.28,0.28,0.28,0.28,0,0.28
2013-03-21,0.28,0.28,0.28,0.28,0,0.28
2013-03-22,0.28,0.28,0.28,0.28,0,0.28
2013-03-25,0.28,0.28,0.28,0.28,0,0.28
2013-03-26,0.28,0.28,0.28,0.28,0,0.28
2013-03-27,0.28,0.28,0.28,0.28,0,0.28
2013-03-28,0.28,0.28,0.28,0.28,0,0.28
2013-03-29,0.28,0.28,0.28,0.28,0,0.28
2013-04-01,0.28,0.28,0.28,0.28,0,0.28
2013-04-02,0.28,0.28,0.28,0.28,0,0.28
2013-04-03,0.28,0.28,0.28,0.28,0,0.28
2013-04-04,0.28,0.28,0.28,0.28,0,0.28
2013-04-05,0.28,0.28,0.28,0.28,10000,0.28
2013-04-08,0.28,0.28,0.28,0.28,8400,0.28
2013-04-09,0.28,0.28,0.28,0.28,0,0.28
2013-04-10,0.28,0.28,0.28,0.28,0,0.28
2013-04-11,0.28,0.28,0.28,0.28,0,0.28
2013-04-12,0.28,0.28,0.28,0.28,0,0.28
2013-04-15,0.28,0.28,0.28,0.28,0,0.28
2013-04-16,0.28,0.28,0.28,0.28,0,0.28
2013-04-17,0.28,0.28,0.28,0.28,0,0.28
2013-04-18,0.28,0.28,0.28,0.28,0,0.28
2013-04-19,0.29,0.29,0.29,0.29,1500,0.29
2013-04-22,0.29,0.29,0.29,0.29,0,0.29
2013-04-23,0.29,0.29,0.29,0.29,0,0.29
2013-04-24,0.29,0.29,0.29,0.29,0,0.29
2013-04-25,0.29,0.29,0.29,0.29,0,0.29
2013-04-26,0.29,0.29,0.29,0.29,0,0.29
2013-04-29,0.29,0.29,0.29,0.29,0,0.29
2013-04-30,0.29,0.29,0.29,0.29,0,0.29
2013-05-01,0.29,0.29,0.29,0.29,0,0.29
2013-05-02,0.29,0.29,0.29,0.29,0,0.29
2013-05-03,0.29,0.29,0.29,0.29,0,0.29
2013-05-06,0.29,0.29,0.29,0.29,0,0.29
2013-05-07,0.29,0.29,0.29,0.29,0,0.29
2013-05-08,0.29,0.29,0.29,0.29,0,0.29
2013-05-09,0.29,0.29,0.29,0.29,0,0.29
2013-05-10,0.29,0.29,0.29,0.29,0,0.29
2013-05-13,0.29,0.29,0.29,0.29,0,0.29
2013-05-14,0.29,0.29,0.29,0.29,0,0.29
2013-05-15,0.29,0.29,0.29,0.29,0,0.29
2013-05-16,0.29,0.29,0.29,0.29,0,0.29
2013-05-17,0.29,0.29,0.29,0.29,0,0.29
2013-05-20,0.29,0.29,0.29,0.29,0,0.29
2013-05-21,0.29,0.29,0.29,0.29,0,0.29
2013-05-22,0.29,0.29,0.29,0.29,0,0.29
2013-05-23,0.29,0.29,0.29,0.29,0,0.29
2013-05-24,0.29,0.29,0.29,0.29,0,0.29
2013-05-27,0.29,0.29,0.29,0.29,0,0.29
2013-05-28,0.29,0.29,0.29,0.29,0,0.29
2013-05-29,0.29,0.29,0.29,0.29,0,0.29
2013-05-30,0.29,0.29,0.29,0.29,0,0.29
2013-05-31,0.29,0.29,0.29,0.29,0,0.29
2013-06-03,0.29,0.29,0.29,0.29,0,0.29
2013-06-04,0.29,0.29,0.29,0.29,0,0.29
2013-06-05,0.29,0.29,0.29,0.29,0,0.29
2013-06-06,0.29,0.29,0.29,0.29,0,0.29
2013-06-07,0.29,0.29,0.29,0.29,0,0.29
2013-06-10,0.29,0.29,0.29,0.29,0,0.29
2013-06-11,0.29,0.29,0.29,0.29,0,0.29
2013-06-12,0.29,0.29,0.29,0.29,0,0.29
2013-06-13,0.29,0.29,0.29,0.29,0,0.29
2013-06-14,0.29,0.29,0.29,0.29,0,0.29
2013-06-17,0.29,0.29,0.29,0.29,0,0.29
2013-06-18,0.29,0.29,0.29,0.29,0,0.29
2013-06-19,0.29,0.29,0.29,0.29,0,0.29
2013-06-20,0.29,0.29,0.29,0.29,0,0.29
2013-06-21,0.29,0.29,0.29,0.29,0,0.29
2013-06-24,0.29,0.29,0.29,0.29,0,0.29
2013-06-25,0.29,0.29,0.29,0.29,0,0.29
2013-06-26,0.29,0.29,0.29,0.29,0,0.29
2013-06-27,0.29,0.29,0.29,0.29,0,0.29
2013-06-28,0.29,0.29,0.29,0.29,0,0.29
2013-07-01,0.29,0.29,0.29,0.29,0,0.29
2013-07-02,0.29,0.29,0.29,0.29,0,0.29
2013-07-03,0.29,0.29,0.29,0.29,0,0.29
2013-07-04,0.29,0.29,0.29,0.29,0,0.29
2013-07-05,0.29,0.29,0.29,0.29,0,0.29
2013-07-08,0.29,0.29,0.29,0.29,0,0.29
2013-07-09,0.29,0.29,0.29,0.29,0,0.29
2013-07-10,0.29,0.29,0.29,0.29,0,0.29
2013-07-11,0.29,0.29,0.29,0.29,0,0.29
2013-07-12,0.29,0.29,0.29,0.29,0,0.29
2013-07-15,0.29,0.29,0.29,0.29,0,0.29
2013-07-16,0.29,0.29,0.29,0.29,0,0.29
2013-07-17,0.29,0.29,0.29,0.29,0,0.29
2013-07-18,0.29,0.29,0.29,0.29,0,0.29
2013-07-19,0.29,0.29,0.29,0.29,0,0.29
2013-07-22,0.29,0.29,0.29,0.29,0,0.29
2013-07-23,0.29,0.29,0.29,0.29,0,0.29
2013-07-24,0.29,0.29,0.29,0.29,0,0.29
2013-07-25,0.29,0.29,0.29,0.29,0,0.29
2013-07-26,0.29,0.29,0.29,0.29,0,0.29
2013-07-29,0.29,0.29,0.29,0.29,0,0.29
2013-07-30,0.29,0.29,0.29,0.29,0,0.29
2013-07-31,0.29,0.29,0.29,0.29,0,0.29
2013-08-01,0.29,0.29,0.29,0.29,0,0.29
2013-08-02,0.29,0.29,0.29,0.29,0,0.29
2013-08-05,0.29,0.29,0.29,0.29,0,0.29
2013-08-06,0.29,0.29,0.29,0.29,0,0.29
2013-08-07,0.29,0.29,0.29,0.29,0,0.29
2013-08-08,0.29,0.29,0.29,0.29,10000,0.29
2013-08-09,0.29,0.29,0.29,0.29,0,0.29
2013-08-12,0.29,0.29,0.29,0.29,0,0.29
2013-08-13,0.29,0.29,0.29,0.29,0,0.29
2013-08-14,0.29,0.29,0.29,0.29,0,0.29
2013-08-15,0.29,0.29,0.29,0.29,0,0.29
2013-08-16,0.29,0.29,0.29,0.29,0,0.29
2013-08-19,0.29,0.29,0.29,0.29,0,0.29
2013-08-20,0.29,0.29,0.29,0.29,0,0.29
2013-08-21,0.29,0.29,0.29,0.29,0,0.29
2013-08-22,0.29,0.29,0.29,0.29,0,0.29
2013-08-23,0.29,0.29,0.29,0.29,0,0.29
2013-08-26,0.29,0.29,0.29,0.29,0,0.29
2013-08-27,0.29,0.29,0.29,0.29,0,0.29
2013-08-28,0.29,0.29,0.29,0.29,0,0.29
2013-08-29,0.29,0.29,0.29,0.29,0,0.29
2013-08-30,0.29,0.29,0.29,0.29,0,0.29
2013-09-02,0.29,0.29,0.29,0.29,0,0.29
2013-09-03,0.29,0.29,0.29,0.29,0,0.29
2013-09-04,0.29,0.29,0.29,0.29,0,0.29
2013-09-05,0.29,0.29,0.29,0.29,0,0.29
2013-09-06,0.29,0.29,0.29,0.29,0,0.29
2013-09-09,0.29,0.29,0.29,0.29,0,0.29
2013-09-10,0.29,0.29,0.29,0.29,0,0.29
2013-09-11,0.29,0.29,0.29,0.29,0,0.29
2013-09-12,0.29,0.29,0.29,0.29,0,0.29
2013-09-13,0.29,0.29,0.29,0.29,0,0.29
2013-09-16,0.29,0.29,0.29,0.29,0,0.29
2013-09-17,0.29,0.29,0.29,0.29,0,0.29
2013-09-18,0.29,0.29,0.29,0.29,0,0.29
2013-09-19,0.29,0.29,0.29,0.29,0,0.29
2013-09-20,0.29,0.29,0.29,0.29,0,0.29
2013-09-23,0.29,0.29,0.29,0.29,0,0.29
2013-09-24,0.29,0.29,0.29,0.29,0,0.29
2013-09-25,0.29,0.29,0.29,0.29,0,0.29
2013-09-26,0.29,0.29,0.29,0.29,0,0.29
2013-09-27,0.29,0.29,0.29,0.29,0,0.29
2013-09-30,0.29,0.29,0.29,0.29,0,0.29
2013-10-01,0.29,0.29,0.29,0.29,0,0.29
2013-10-02,0.29,0.29,0.29,0.29,0,0.29
2013-10-03,0.29,0.29,0.29,0.29,0,0.29
2013-10-04,0.29,0.29,0.29,0.29,0,0.29
2013-10-07,0.29,0.29,0.29,0.29,0,0.29
2013-10-08,0.29,0.29,0.29,0.29,0,0.29
2013-10-09,0.29,0.29,0.29,0.29,0,0.29
2013-10-10,0.29,0.29,0.29,0.29,0,0.29
2013-10-11,0.29,0.29,0.29,0.29,0,0.29
2013-10-14,0.29,0.29,0.29,0.29,0,0.29
2013-10-15,0.29,0.29,0.29,0.29,0,0.29
2013-10-16,0.29,0.29,0.29,0.29,0,0.29
2013-10-17,0.29,0.29,0.29,0.29,0,0.29
2013-10-18,0.29,0.29,0.29,0.29,0,0.29
2013-10-21,0.29,0.29,0.29,0.29,0,0.29
2013-10-22,0.29,0.29,0.29,0.29,0,0.29
2013-10-23,0.29,0.29,0.29,0.29,0,0.29
2013-10-24,0.29,0.29,0.29,0.29,0,0.29
2013-10-25,0.29,0.29,0.29,0.29,0,0.29
2013-10-28,0.29,0.29,0.29,0.29,0,0.29
2013-10-29,0.29,0.29,0.29,0.29,0,0.29
2013-10-30,0.29,0.29,0.29,0.29,0,0.29
2013-10-31,0.29,0.29,0.29,0.29,0,0.29
2013-11-01,0.29,0.29,0.29,0.29,0,0.29
2013-11-04,0.29,0.29,0.29,0.29,0,0.29
2013-11-05,0.29,0.29,0.29,0.29,0,0.29
2013-11-06,0.29,0.29,0.29,0.29,0,0.29
2013-11-07,0.22,0.22,0.22,0.22,2000,0.22
2013-11-08,0.285,0.285,0.285,0.285,2000,0.285
2013-11-11,0.285,0.285,0.285,0.285,16000,0.285
2013-11-12,0.285,0.285,0.285,0.285,0,0.285
2013-11-13,0.285,0.285,0.285,0.285,0,0.285
2013-11-14,0.285,0.285,0.285,0.285,0,0.285
2013-11-15,0.285,0.285,0.285,0.285,0,0.285
2013-11-18,0.285,0.285,0.285,0.285,0,0.285
2013-11-19,0.285,0.285,0.285,0.285,0,0.285
2013-11-20,0.285,0.285,0.285,0.285,0,0.285
2013-11-21,0.285,0.285,0.285,0.285,0,0.285
2013-11-22,0.285,0.285,0.285,0.285,0,0.285
2013-11-25,0.285,0.285,0.285,0.285,0,0.285
2013-11-26,0.285,0.285,0.285,0.285,0,0.285
2013-11-27,0.285,0.285,0.285,0.285,0,0.285
2013-11-28,0.285,0.285,0.285,0.285,0,0.285
2013-11-29,0.285,0.285,0.285,0.285,0,0.285
2013-12-02,0.285,0.285,0.285,0.285,10000,0.285
2013-12-03,0.285,0.29,0.285,0.29,25000,0.29
2013-12-04,0.29,0.29,0.29,0.29,0,0.29
2013-12-05,0.29,0.29,0.29,0.29,30000,0.29
2013-12-06,0.29,0.29,0.29,0.29,0,0.29
2013-12-09,0.29,0.29,0.29,0.29,0,0.29
2013-12-10,0.29,0.29,0.29,0.29,0,0.29
2013-12-11,0.29,0.29,0.29,0.29,0,0.29
2013-12-12,0.29,0.29,0.29,0.29,0,0.29
2013-12-13,0.29,0.29,0.29,0.29,0,0.29
2013-12-16,0.29,0.29,0.29,0.29,0,0.29
2013-12-17,0.29,0.29,0.29,0.29,0,0.29
2013-12-18,0.29,0.29,0.29,0.29,0,0.29
2013-12-19,0.29,0.29,0.29,0.29,0,0.29
2013-12-20,0.29,0.29,0.29,0.29,0,0.29
2013-12-23,0.29,0.29,0.29,0.29,0,0.29
2013-12-24,0.29,0.29,0.29,0.29,0,0.29
2013-12-25,0.29,0.29,0.29,0.29,0,0.29
2013-12-26,0.29,0.29,0.29,0.29,0,0.29
2013-12-27,0.29,0.29,0.29,0.29,0,0.29
2013-12-30,0.29,0.29,0.29,0.29,0,0.29
2013-12-31,0.29,0.29,0.29,0.29,0,0.29
2014-01-01,0.29,0.29,0.29,0.29,0,0.29
2014-01-02,0.29,0.29,0.29,0.29,0,0.29
2014-01-03,0.29,0.29,0.29,0.29,0,0.29
2014-01-06,0.29,0.29,0.29,0.29,0,0.29
2014-01-07,0.285,0.285,0.285,0.285,3300,0.285
2014-01-08,0.285,0.285,0.285,0.285,0,0.285
2014-01-09,0.285,0.285,0.285,0.285,0,0.285
2014-01-10,0.285,0.285,0.285,0.285,0,0.285
2014-01-13,0.285,0.285,0.285,0.285,0,0.285
2014-01-14,0.285,0.285,0.285,0.285,0,0.285
2014-01-15,0.285,0.285,0.285,0.285,0,0.285
2014-01-16,0.285,0.285,0.285,0.285,0,0.285
2014-01-17,0.285,0.285,0.285,0.285,0,0.285
2014-01-20,0.285,0.285,0.285,0.285,0,0.285
2014-01-21,0.285,0.285,0.285,0.285,0,0.285
2014-01-22,0.285,0.285,0.285,0.285,0,0.285
2014-01-23,0.285,0.285,0.285,0.285,0,0.285
2014-01-24,0.285,0.285,0.285,0.285,0,0.285
2014-01-27,0.285,0.285,0.285,0.285,0,0.285
2014-01-28,0.285,0.285,0.285,0.285,0,0.285
2014-01-29,0.285,0.285,0.285,0.285,0,0.285
2014-01-30,0.285,0.285,0.285,0.285,0,0.285
2014-01-31,0.285,0.285,0.285,0.285,0,0.285
2014-02-03,0.285,0.285,0.285,0.285,0,0.285
2014-02-04,0.285,0.285,0.285,0.285,0,0.285
2014-02-05,0.285,0.285,0.285,0.285,0,0.285
2014-02-06,0.285,0.285,0.285,0.285,0,0.285
2014-02-07,0.285,0.285,0.285,0.285,0,0.285
2014-02-10,0.285,0.285,0.285,0.285,0,0.285
2014-02-11,0.285,0.285,0.285,0.285,0,0.285
2014-02-12,0.285,0.285,0.285,0.285,0,0.285
2014-02-13,0.285,0.285,0.285,0.285,0,0.285
2014-02-14,0.285,0.285,0.285,0.285,0,0.285
2014-02-17,0.285,0.285,0.285,0.285,0,0.285
2014-02-18,0.285,0.285,0.285,0.285,0,0.285
2014-02-19,0.285,0.285,0.285,0.285,0,0.285
2014-02-20,0.285,0.285,0.285,0.285,0,0.285
2014-02-21,0.235,0.235,0.235,0.235,16000,0.235
2014-02-24,0.275,0.285,0.275,0.285,10000,0.285
2014-02-25,0.285,0.285,0.285,0.285,0,0.285
2014-02-26,0.285,0.285,0.285,0.285,0,0.285
2014-02-27,0.285,0.285,0.285,0.285,0,0.285
2014-02-28,0.285,0.285,0.285,0.285,0,0.285
2014-03-03,0.285,0.285,0.285,0.285,0,0.285
2014-03-04,0.285,0.285,0.285,0.285,0,0.285
2014-03-05,0.285,0.285,0.285,0.285,0,0.285
2014-03-06,0.28,0.31,0.28,0.31,12000,0.31
2014-03-07,0.31,0.31,0.31,0.31,0,0.31
2014-03-10,0.31,0.31,0.31,0.31,0,0.31
2014-03-11,0.31,0.31,0.31,0.31,0,0.31
2014-03-12,0.31,0.31,0.31,0.31,0,0.31
2014-03-13,0.31,0.31,0.31,0.31,0,0.31
2014-03-14,0.31,0.31,0.31,0.31,0,0.31
2014-03-17,0.31,0.31,0.31,0.31,0,0.31
2014-03-18,0.31,0.31,0.31,0.31,0,0.31
2014-03-19,0.31,0.31,0.31,0.31,0,0.31
2014-03-20,0.31,0.31,0.31,0.31,0,0.31
2014-03-21,0.31,0.31,0.31,0.31,0,0.31
2014-03-24,0.31,0.31,0.31,0.31,0,0.31
2014-03-25,0.31,0.31,0.31,0.31,0,0.31
2014-03-26,0.31,0.31,0.31,0.31,0,0.31
2014-03-27,0.31,0.31,0.31,0.31,0,0.31
2014-03-28,0.31,0.31,0.31,0.31,0,0.31
2014-03-31,0.31,0.31,0.31,0.31,0,0.31
2014-04-01,0.31,0.31,0.31,0.31,0,0.31
2014-04-02,0.31,0.31,0.31,0.31,0,0.31
2014-04-03,0.31,0.31,0.31,0.31,0,0.31
2014-04-04,0.31,0.31,0.31,0.31,0,0.31
2014-04-07,0.31,0.31,0.31,0.31,0,0.31
2014-04-08,0.31,0.31,0.31,0.31,0,0.31
2014-04-09,0.31,0.31,0.31,0.31,0,0.31
2014-04-10,0.31,0.31,0.31,0.31,0,0.31
2014-04-11,0.31,0.31,0.31,0.31,0,0.31
2014-04-14,0.31,0.31,0.31,0.31,0,0.31
2014-04-15,0.31,0.31,0.31,0.31,0,0.31
2014-04-16,0.31,0.31,0.31,0.31,0,0.31
2014-04-17,0.31,0.31,0.31,0.31,0,0.31
2014-04-18,0.31,0.31,0.31,0.31,0,0.31
2014-04-21,0.31,0.31,0.31,0.31,0,0.31
2014-04-22,0.31,0.31,0.31,0.31,0,0.31
2014-04-23,0.31,0.31,0.31,0.31,0,0.31
2014-04-24,0.31,0.31,0.31,0.31,0,0.31
2014-04-25,0.31,0.31,0.31,0.31,0,0.31
2014-04-28,0.31,0.31,0.31,0.31,0,0.31
2014-04-29,0.33,0.33,0.33,0.33,5000,0.33
2014-04-30,0.33,0.33,0.33,0.33,0,0.33
2014-05-01,0.335,0.335,0.335,0.335,13100,0.335
2014-05-02,0.335,0.335,0.335,0.335,0,0.335
2014-05-05,0.335,0.335,0.335,0.335,0,0.335
2014-05-06,0.335,0.335,0.335,0.335,0,0.335
2014-05-07,0.335,0.335,0.335,0.335,0,0.335
2014-05-08,0.335,0.335,0.335,0.335,0,0.335
2014-05-09,0.335,0.335,0.335,0.335,0,0.335
2014-05-12,0.335,0.335,0.335,0.335,0,0.335
2014-05-13,0.335,0.335,0.335,0.335,0,0.335
2014-05-14,0.335,0.335,0.335,0.335,0,0.335
2014-05-15,0.335,0.335,0.335,0.335,0,0.335
2014-05-16,0.35,0.35,0.35,0.35,6800,0.35
2014-05-19,0.35,0.35,0.35,0.35,0,0.35
2014-05-20,0.35,0.35,0.35,0.35,0,0.35
2014-05-21,0.35,0.35,0.35,0.35,0,0.35
2014-05-22,0.35,0.35,0.35,0.35,0,0.35
2014-05-23,0.35,0.35,0.35,0.35,0,0.35
2014-05-26,0.36,0.36,0.335,0.335,160000,0.335
2014-05-27,0.335,0.335,0.335,0.335,0,0.335
2014-05-28,0.335,0.335,0.335,0.335,0,0.335
2014-05-29,0.335,0.335,0.335,0.335,0,0.335
2014-05-30,0.335,0.335,0.335,0.335,0,0.335
2014-06-02,0.335,0.335,0.335,0.335,0,0.335
2014-06-03,0.335,0.335,0.335,0.335,0,0.335
2014-06-04,0.335,0.335,0.335,0.335,0,0.335
2014-06-05,0.335,0.335,0.335,0.335,0,0.335
2014-06-06,0.32,0.32,0.32,0.32,10000,0.32
2014-06-09,0.32,0.32,0.32,0.32,0,0.32
2014-06-10,0.32,0.32,0.32,0.32,0,0.32
2014-06-11,0.32,0.32,0.32,0.32,0,0.32
2014-06-12,0.32,0.32,0.32,0.32,0,0.32
2014-06-13,0.32,0.32,0.32,0.32,0,0.32
2014-06-16,0.32,0.32,0.32,0.32,0,0.32
2014-06-17,0.32,0.32,0.32,0.32,0,0.32
2014-06-18,0.32,0.32,0.32,0.32,0,0.32
2014-06-19,0.28,0.28,0.28,0.28,7100,0.28
2014-06-20,0.28,0.28,0.28,0.28,0,0.28
2014-06-23,0.28,0.28,0.28,0.28,0,0.28
2014-06-24,0.28,0.28,0.28,0.28,0,0.28
2014-06-25,0.28,0.28,0.28,0.28,0,0.28
2014-06-26,0.28,0.28,0.28,0.28,0,0.28
2014-06-27,0.28,0.28,0.28,0.28,0,0.28
2014-06-30,0.28,0.28,0.28,0.28,0,0.28
2014-07-01,0.28,0.28,0.28,0.28,0,0.28
2014-07-02,0.28,0.28,0.28,0.28,0,0.28
2014-07-03,0.28,0.28,0.28,0.28,0,0.28
2014-07-04,0.28,0.28,0.28,0.28,0,0.28
2014-07-07,0.305,0.32,0.3,0.32,54000,0.32
2014-07-08,0.34,0.34,0.34,0.34,5000,0.34
2014-07-09,0.34,0.34,0.34,0.34,55000,0.34
2014-07-10,0.35,0.35,0.35,0.35,27500,0.35
2014-07-11,0.35,0.35,0.35,0.35,3100,0.35
2014-07-14,0.35,0.35,0.35,0.35,0,0.35
2014-07-15,0.35,0.35,0.35,0.35,0,0.35
2014-07-16,0.35,0.35,0.35,0.35,0,0.35
2014-07-17,0.35,0.35,0.35,0.35,0,0.35
2014-07-18,0.36,0.36,0.36,0.36,9300,0.36
2014-07-21,0.37,0.37,0.37,0.37,7000,0.37
2014-07-22,0.37,0.39,0.37,0.39,38000,0.39
2014-07-23,0.39,0.39,0.39,0.39,8000,0.39
2014-07-24,0.39,0.39,0.39,0.39,0,0.39
2014-07-25,0.39,0.39,0.39,0.39,0,0.39
2014-07-28,0.39,0.395,0.39,0.395,7000,0.395
2014-07-29,0.395,0.395,0.395,0.395,0,0.395
2014-07-30,0.4,0.4,0.4,0.4,20600,0.4
2014-07-31,0.4,0.4,0.4,0.4,0,0.4
2014-08-01,0.4,0.4,0.4,0.4,1200,0.4
2014-08-04,0.39,0.39,0.39,0.39,1200,0.39
2014-08-05,0.39,0.39,0.39,0.39,0,0.39
2014-08-06,0.39,0.39,0.39,0.39,0,0.39
2014-08-07,0.39,0.39,0.39,0.39,0,0.39
2014-08-08,0.39,0.39,0.39,0.39,0,0.39
2014-08-11,0.39,0.39,0.39,0.39,0,0.39
2014-08-12,0.39,0.39,0.39,0.39,0,0.39
2014-08-13,0.39,0.39,0.39,0.39,0,0.39
2014-08-14,0.4,0.4,0.4,0.4,23000,0.4
2014-08-15,0.43,0.45,0.43,0.45,15000,0.45
2014-08-18,0.47,0.48,0.46,0.46,30000,0.46
2014-08-19,0.46,0.46,0.46,0.46,0,0.46
2014-08-20,0.48,0.52,0.48,0.52,49200,0.52
2014-08-21,0.52,0.52,0.51,0.52,120000,0.52
2014-08-22,0.52,0.52,0.52,0.52,0,0.52
2014-08-25,0.52,0.52,0.52,0.52,0,0.52
2014-08-26,0.5,0.52,0.5,0.52,2700,0.52
2014-08-27,0.52,0.52,0.52,0.52,0,0.52
2014-08-28,0.48,0.48,0.48,0.48,2000,0.48
2014-08-29,0.405,0.48,0.405,0.48,30000,0.48
2014-09-01,0.46,0.46,0.44,0.44,36800,0.44
2014-09-02,0.45,0.45,0.45,0.45,44100,0.45
2014-09-03,0.45,0.45,0.43,0.435,271100,0.435
2014-09-04,0.43,0.43,0.4,0.425,28900,0.425
2014-09-05,0.425,0.435,0.42,0.425,46900,0.425
2014-09-08,0.425,0.44,0.425,0.435,266400,0.435
2014-09-09,0.435,0.44,0.435,0.44,79500,0.44
2014-09-10,0.44,0.48,0.44,0.48,153300,0.48
2014-09-11,0.52,0.55,0.515,0.53,383200,0.53
2014-09-12,0.55,0.6,0.55,0.6,322200,0.6
2014-09-15,0.61,0.65,0.55,0.63,272800,0.63
2014-09-16,0.63,0.64,0.625,0.625,71800,0.625
2014-09-17,0.7,0.7,0.68,0.68,305000,0.68
2014-09-18,0.69,0.7,0.69,0.695,110200,0.695
2014-09-19,0.695,0.7,0.685,0.69,86600,0.69
2014-09-22,0.68,0.68,0.68,0.68,4600,0.68
2014-09-23,0.655,0.655,0.635,0.655,16500,0.655
2014-09-24,0.635,0.66,0.6,0.66,208900,0.66
2014-09-25,0.68,0.8,0.68,0.78,189700,0.78
2014-09-26,0.75,0.76,0.735,0.75,19100,0.75
2014-09-29,0.75,0.75,0.73,0.73,1600,0.73
2014-09-30,0.73,0.73,0.7,0.7,6000,0.7
2014-10-01,0.71,0.71,0.665,0.69,47700,0.69
2014-10-02,0.67,0.67,0.61,0.61,42300,0.61
2014-10-03,0.625,0.66,0.61,0.65,88500,0.65
2014-10-06,0.65,0.65,0.65,0.65,0,0.65
2014-10-07,0.64,0.64,0.62,0.62,5200,0.62
2014-10-08,0.61,0.62,0.585,0.6,93900,0.6
2014-10-09,0.6,0.6,0.59,0.59,84100,0.59
2014-10-10,0.6,0.6,0.59,0.6,17300,0.6
2014-10-13,0.6,0.6,0.58,0.58,225700,0.58
2014-10-14,0.575,0.595,0.57,0.595,47000,0.595
2014-10-15,0.595,0.6,0.59,0.6,58600,0.6
2014-10-16,0.59,0.61,0.58,0.61,132900,0.61
2014-10-17,0.62,0.64,0.62,0.64,40700,0.64
2014-10-20,0.635,0.68,0.635,0.65,114500,0.65
2014-10-21,0.66,0.68,0.66,0.68,5600,0.68
2014-10-22,0.68,0.68,0.68,0.68,21000,0.68
2014-10-23,0.68,0.68,0.68,0.68,0,0.68
2014-10-24,0.65,0.65,0.605,0.605,20300,0.605
2014-10-27,0.605,0.605,0.605,0.605,0,0.605
2014-10-28,0.61,0.62,0.605,0.615,12000,0.615
2014-10-29,0.61,0.645,0.6,0.625,58000,0.625
2014-10-30,0.62,0.62,0.6,0.6,53400,0.6
2014-10-31,0.62,0.63,0.6,0.63,33100,0.63
2014-11-03,0.61,0.62,0.6,0.62,9900,0.62
2014-11-04,0.595,0.62,0.595,0.62,19800,0.62
2014-11-05,0.62,0.62,0.62,0.62,0,0.62
2014-11-06,0.595,0.6,0.595,0.6,19800,0.6
2014-11-07,0.6,0.62,0.595,0.62,20000,0.62
2014-11-10,0.62,0.62,0.62,0.62,0,0.62
2014-11-11,0.62,0.62,0.62,0.62,0,0.62
2014-11-12,0.59,0.6,0.59,0.6,39900,0.6
2014-11-13,0.595,0.595,0.57,0.57,10500,0.57
2014-11-14,0.55,0.55,0.55,0.55,10000,0.55
2014-11-17,0.51,0.53,0.51,0.53,25000,0.53
2014-11-18,0.54,0.56,0.54,0.54,130000,0.54
2014-11-19,0.54,0.58,0.54,0.58,70600,0.58
2014-11-20,0.58,0.595,0.58,0.595,34300,0.595
2014-11-21,0.595,0.595,0.595,0.595,0,0.595
2014-11-24,0.595,0.595,0.595,0.595,0,0.595
2014-11-25,0.56,0.56,0.56,0.56,10000,0.56
2014-11-26,0.56,0.56,0.56,0.56,0,0.56
2014-11-27,0.54,0.55,0.505,0.505,15000,0.505
2014-11-28,0.505,0.505,0.505,0.505,0,0.505
2014-12-01,0.5,0.5,0.5,0.5,20000,0.5
2014-12-02,0.495,0.495,0.495,0.495,6500,0.495
2014-12-03,0.495,0.495,0.495,0.495,0,0.495
2014-12-04,0.48,0.48,0.48,0.48,25000,0.48
2014-12-05,0.48,0.48,0.48,0.48,7000,0.48
2014-12-08,0.48,0.48,0.48,0.48,6200,0.48
2014-12-09,0.5,0.5,0.5,0.5,200,0.5
2014-12-10,0.5,0.5,0.5,0.5,0,0.5
2014-12-11,0.45,0.5,0.45,0.5,67300,0.5
2014-12-12,0.51,0.51,0.51,0.51,2000,0.51
2014-12-15,0.48,0.5,0.48,0.5,11300,0.5
2014-12-16,0.5,0.5,0.5,0.5,0,0.5
2014-12-17,0.5,0.5,0.5,0.5,0,0.5
2014-12-18,0.5,0.5,0.5,0.5,0,0.5
2014-12-19,0.49,0.49,0.49,0.49,1400,0.49
2014-12-22,0.5,0.5,0.5,0.5,39600,0.5
2014-12-23,0.51,0.51,0.5,0.5,25000,0.5
2014-12-24,0.53,0.53,0.53,0.53,400,0.53
2014-12-25,0.53,0.53,0.53,0.53,0,0.53
2014-12-26,0.53,0.53,0.53,0.53,0,0.53
2014-12-29,0.53,0.53,0.53,0.53,0,0.53
2014-12-30,0.53,0.53,0.53,0.53,0,0.53
2014-12-31,0.53,0.53,0.53,0.53,0,0.53
2015-01-01,0.53,0.53,0.53,0.53,0,0.53
2015-01-02,0.5,0.5,0.5,0.5,10000,0.5
2015-01-05,0.5,0.5,0.5,0.5,0,0.5
2015-01-06,0.55,0.55,0.55,0.55,2000,0.55
2015-01-07,0.55,0.57,0.55,0.57,20000,0.57
2015-01-08,0.57,0.57,0.57,0.57,0,0.57
2015-01-09,0.57,0.57,0.57,0.57,0,0.57
2015-01-12,0.57,0.57,0.57,0.57,0,0.57
2015-01-13,0.57,0.57,0.57,0.57,0,0.57
2015-01-14,0.57,0.57,0.57,0.57,0,0.57
2015-01-15,0.57,0.57,0.57,0.57,2000,0.57
2015-01-16,0.57,0.57,0.57,0.57,0,0.57
2015-01-19,0.57,0.6,0.57,0.6,72000,0.6
2015-01-20,0.6,0.635,0.6,0.635,28200,0.635
2015-01-21,0.64,0.65,0.63,0.65,39700,0.65
2015-01-22,0.65,0.65,0.65,0.65,0,0.65
2015-01-23,0.65,0.65,0.65,0.65,0,0.65
2015-01-26,0.65,0.65,0.65,0.65,0,0.65
2015-01-27,0.63,0.64,0.63,0.64,7000,0.64
2015-01-28,0.65,0.65,0.63,0.65,15700,0.65
2015-01-29,0.65,0.65,0.65,0.65,9600,0.65
2015-01-30,0.65,0.65,0.64,0.65,25500,0.65
2015-02-02,0.66,0.66,0.65,0.65,108100,0.65
2015-02-03,0.64,0.66,0.58,0.66,33800,0.66
2015-02-04,0.65,0.67,0.65,0.67,31700,0.67
2015-02-05,0.67,0.68,0.67,0.68,34200,0.68
2015-02-06,0.68,0.72,0.68,0.72,153600,0.72
2015-02-09,0.72,0.72,0.72,0.72,0,0.72
2015-02-10,0.73,0.73,0.73,0.73,4000,0.73
2015-02-11,0.72,0.72,0.7,0.7,10000,0.7
2015-02-12,0.7,0.78,0.7,0.78,18800,0.78
2015-02-13,0.78,0.78,0.78,0.78,0,0.78
2015-02-16,0.74,0.76,0.72,0.76,39600,0.76
2015-02-17,0.72,0.74,0.72,0.73,28000,0.73
2015-02-18,0.72,0.73,0.72,0.73,20000,0.73
2015-02-19,0.72,0.73,0.68,0.72,55000,0.72
2015-02-20,0.72,0.72,0.72,0.72,27000,0.72
2015-02-23,0.66,0.71,0.66,0.7,16000,0.7
2015-02-24,0.7,0.71,0.7,0.71,11000,0.71
2015-02-25,0.7,0.7,0.7,0.7,1200,0.7
2015-02-26,0.7,0.7,0.7,0.7,3800,0.7
2015-02-27,0.7,0.7,0.7,0.7,0,0.7
2015-03-02,0.7,0.74,0.7,0.74,59200,0.74
2015-03-03,0.72,0.72,0.72,0.72,11000,0.72
2015-03-04,0.71,0.71,0.65,0.67,41900,0.67
2015-03-05,0.67,0.67,0.66,0.67,60500,0.67
2015-03-06,0.67,0.67,0.65,0.65,38500,0.65
2015-03-09,0.67,0.67,0.67,0.67,24000,0.67
2015-03-10,0.65,0.66,0.62,0.66,153100,0.66
2015-03-11,0.65,0.67,0.63,0.64,218500,0.64
2015-03-12,0.65,0.66,0.63,0.66,70500,0.66
2015-03-13,0.67,0.67,0.67,0.67,5000,0.67
2015-03-16,0.7,0.7,0.7,0.7,17300,0.7
2015-03-17,0.71,0.71,0.67,0.67,47600,0.67
2015-03-18,0.69,0.69,0.69,0.69,5000,0.69
2015-03-19,0.71,0.71,0.71,0.71,10700,0.71
2015-03-20,0.71,0.71,0.71,0.71,0,0.71
2015-03-23,0.72,0.72,0.72,0.72,33500,0.72
2015-03-24,0.72,0.72,0.69,0.69,26600,0.69
2015-03-25,0.69,0.69,0.69,0.69,1600,0.69
2015-03-26,0.7,0.7,0.7,0.7,10000,0.7
2015-03-27,0.71,0.72,0.71,0.72,25000,0.72
2015-03-30,0.74,0.76,0.74,0.76,921500,0.76
2015-03-31,0.77,0.83,0.77,0.83,86300,0.83
2015-04-01,0.82,0.86,0.815,0.825,238500,0.825
2015-04-02,0.86,0.865,0.86,0.865,25000,0.865
2015-04-03,0.865,0.865,0.865,0.865,0,0.865
2015-04-06,0.865,0.865,0.865,0.865,0,0.865
2015-04-07,0.865,0.865,0.86,0.86,8000,0.86
2015-04-08,0.865,0.865,0.865,0.865,200,0.865
2015-04-09,0.865,0.87,0.85,0.85,60000,0.85
2015-04-10,0.87,0.87,0.85,0.87,98000,0.87
2015-04-13,0.87,0.89,0.87,0.87,310300,0.87
2015-04-14,0.88,0.88,0.865,0.865,49200,0.865
2015-04-15,0.865,0.87,0.86,0.87,3560000,0.87
2015-04-16,0.9,0.91,0.88,0.89,384200,0.89
2015-04-17,0.9,0.91,0.89,0.91,172400,0.91
2015-04-20,0.935,0.98,0.92,0.98,193300,0.98
2015-04-21,0.97,1.03,0.97,1.01,318900,1.01
2015-04-22,1.01,1.01,1.0,1.0,35500,1.0
2015-04-23,0.99,1.0,0.98,1.0,11300,1.0
2015-04-24,1.0,1.0,1.0,1.0,0,1.0
2015-04-27,1.0,1.03,1.0,1.02,108800,1.02
2015-04-28,1.01,1.02,1.01,1.01,29100,1.01
2015-04-29,1.0,1.0,1.0,1.0,8700,1.0
2015-04-30,0.98,0.98,0.98,0.98,34000,0.98
2015-05-01,1.0,1.0,1.0,1.0,2500,1.0
2015-05-04,0.975,0.975,0.97,0.97,39700,0.97
2015-05-05,0.98,0.98,0.97,0.97,11500,0.97
2015-05-06,0.97,0.97,0.97,0.97,0,0.97
2015-05-07,0.985,0.985,0.98,0.98,9800,0.98
2015-05-08,0.97,0.97,0.96,0.96,23900,0.96
2015-05-11,0.965,0.965,0.94,0.94,17800,0.94
2015-05-12,0.965,0.97,0.965,0.97,14800,0.97
2015-05-13,0.97,0.99,0.965,0.965,17100,0.965
2015-05-14,0.96,0.98,0.96,0.98,55000,0.98
2015-05-15,0.97,0.98,0.97,0.98,48000,0.98
2015-05-18,0.99,0.99,0.98,0.99,19000,0.99
2015-05-19,0.99,0.99,0.99,0.99,4000,0.99
2015-05-20,0.99,0.99,0.985,0.985,100500,0.985
2015-05-21,0.98,0.98,0.95,0.95,13000,0.95
2015-05-22,0.94,0.95,0.94,0.95,10700,0.95
2015-05-25,0.96,0.96,0.96,0.96,5000,0.96
2015-05-26,0.96,0.97,0.96,0.96,11500,0.96
2015-05-27,0.96,0.96,0.95,0.96,110300,0.96
2015-05-28,0.955,0.955,0.955,0.955,40000,0.955
2015-05-29,0.945,0.955,0.94,0.955,90000,0.955
2015-06-01,0.955,0.955,0.955,0.955,0,0.955
2015-06-02,0.945,0.945,0.945,0.945,55000,0.945
2015-06-03,0.945,0.945,0.93,0.93,56000,0.93
2015-06-04,0.925,0.925,0.9,0.92,45300,0.92
2015-06-05,0.92,0.93,0.92,0.92,445000,0.92
2015-06-08,0.92,0.92,0.92,0.92,0,0.92
2015-06-09,0.915,0.92,0.87,0.92,101600,0.92
2015-06-10,0.91,0.915,0.91,0.915,91000,0.915
2015-06-11,0.91,0.91,0.91,0.91,1000,0.91
2015-06-12,0.9,0.915,0.9,0.915,213700,0.915
2015-06-15,0.91,0.91,0.91,0.91,11000,0.91
2015-06-16,0.91,0.91,0.91,0.91,12000,0.91
2015-06-17,0.91,0.91,0.9,0.9,11700,0.9
2015-06-18,0.92,0.93,0.92,0.925,45000,0.925
2015-06-19,0.94,0.94,0.93,0.935,23900,0.935
2015-06-22,0.92,0.92,0.92,0.92,5000,0.92
2015-06-23,0.92,0.92,0.92,0.92,0,0.92
2015-06-24,0.92,0.92,0.92,0.92,0,0.92
2015-06-25,0.92,0.92,0.9,0.92,11000,0.92
2015-06-26,0.9,0.9,0.9,0.9,700,0.9
2015-06-29,0.9,0.9,0.9,0.9,0,0.9
2015-06-30,0.895,0.895,0.89,0.89,2500,0.89
2015-07-01,0.89,0.9,0.89,0.9,74600,0.9
2015-07-02,0.9,0.9,0.9,0.9,17000,0.9
2015-07-03,0.9,0.9,0.9,0.9,0,0.9
2015-07-06,0.91,0.93,0.91,0.91,11800,0.91
2015-07-07,0.925,0.925,0.92,0.92,2300,0.92
2015-07-08,0.9,0.915,0.9,0.9,4100,0.9
2015-07-09,0.895,0.9,0.89,0.9,6300,0.9
2015-07-10,0.9,0.9,0.9,0.9,0,0.9
2015-07-13,0.9,0.9,0.9,0.9,0,0.9
2015-07-14,0.895,0.9,0.895,0.9,700,0.9
2015-07-15,0.895,0.895,0.89,0.89,1500,0.89
2015-07-16,0.885,0.885,0.885,0.885,200,0.885
2015-07-17,0.885,0.89,0.88,0.89,1200,0.89
2015-07-20,0.885,0.89,0.885,0.89,1200,0.89
2015-07-21,0.885,0.885,0.8,0.86,160100,0.86
2015-07-22,0.855,0.855,0.855,0.855,1200,0.855
2015-07-23,0.855,0.855,0.855,0.855,4200,0.855
2015-07-24,0.855,0.86,0.85,0.855,28300,0.855
2015-07-27,0.85,0.85,0.85,0.85,300,0.85
2015-07-28,0.82,0.89,0.815,0.84,61400,0.84
2015-07-29,0.85,0.86,0.85,0.86,24000,0.86
2015-07-30,0.84,0.84,0.84,0.84,17000,0.84
2015-07-31,0.85,0.85,0.85,0.85,7100,0.85
2015-08-03,0.85,0.85,0.835,0.835,8100,0.835
2015-08-04,0.835,0.85,0.82,0.82,6000,0.82
2015-08-05,0.85,0.85,0.83,0.85,6000,0.85
2015-08-06,0.845,0.845,0.845,0.845,500,0.845
2015-08-07,0.835,0.85,0.835,0.85,4000,0.85
2015-08-10,0.84,0.845,0.84,0.84,12500,0.84
2015-08-11,0.84,0.84,0.84,0.84,0,0.84
2015-08-12,0.845,0.845,0.845,0.845,400,0.845
2015-08-13,0.845,0.845,0.845,0.845,0,0.845
2015-08-14,0.845,0.845,0.845,0.845,0,0.845
2015-08-17,0.845,0.845,0.845,0.845,0,0.845
2015-08-18,0.845,0.845,0.83,0.835,32500,0.835
2015-08-19,0.835,0.835,0.8,0.82,75100,0.82
2015-08-20,0.82,0.82,0.82,0.82,0,0.82
2015-08-21,0.82,0.82,0.82,0.82,3200,0.82
2015-08-24,0.85,0.85,0.85,0.85,2000,0.85
2015-08-25,0.85,0.85,0.85,0.85,0,0.85
2015-08-26,0.85,0.85,0.85,0.85,0,0.85
2015-08-27,0.85,0.85,0.85,0.85,0,0.85
2015-08-28,0.85,0.85,0.85,0.85,0,0.85
2015-08-31,0.85,0.85,0.85,0.85,0,0.85
2015-09-01,0.85,0.85,0.85,0.85,0,0.85
2015-09-02,0.85,0.85,0.85,0.85,0,0.85
2015-09-03,0.85,0.85,0.85,0.85,0,0.85
2015-09-04,0.85,0.85,0.85,0.85,0,0.85
2015-09-07,0.85,0.85,0.85,0.85,0,0.85
2015-09-08,0.85,0.85,0.85,0.85,0,0.85
2015-09-09,0.85,0.85,0.85,0.85,0,0.85
2015-09-10,0.85,0.85,0.85,0.85,0,0.85
2015-09-11,0.85,0.85,0.85,0.85,0,0.85
2015-09-14,0.85,0.85,0.85,0.85,0,0.85
2015-09-15,0.85,0.85,0.85,0.85,0,0.85
2015-09-16,0.85,0.85,0.85,0.85,0,0.85
2015-09-17,0.85,0.85,0.85,0.85,0,0.85
2015-09-18,0.85,0.85,0.85,0.85,0,0.85
2015-09-21,0.85,0.85,0.85,0.85,0,0.85
2015-09-22,0.85,0.85,0.85,0.85,0,0.85
2015-09-23,0.75,0.83,0.75,0.81,22000,0.81
2015-09-24,0.81,0.85,0.81,0.835,17700,0.835
2015-09-25,0.85,0.85,0.82,0.82,1000,0.82
2015-09-28,0.81,0.81,0.81,0.81,2000,0.81
2015-09-29,0.81,0.835,0.81,0.83,7100,0.83
2015-09-30,0.85,0.85,0.85,0.85,1200,0.85
2015-10-01,0.85,0.85,0.85,0.85,1500,0.85
2015-10-02,0.85,0.85,0.85,0.85,1900,0.85
2015-10-05,0.85,0.85,0.85,0.85,1500,0.85
2015-10-06,0.85,0.85,0.85,0.85,0,0.85
2015-10-07,0.85,0.85,0.85,0.85,0,0.85
2015-10-08,0.85,0.85,0.85,0.85,3500,0.85
2015-10-09,0.85,0.85,0.85,0.85,0,0.85
2015-10-12,0.84,0.85,0.84,0.85,8800,0.85
2015-10-13,0.85,0.85,0.85,0.85,0,0.85
2015-10-14,0.85,0.85,0.85,0.85,0,0.85
2015-10-15,0.85,0.85,0.85,0.85,0,0.85
2015-10-16,0.85,0.85,0.85,0.85,0,0.85
2015-10-19,0.85,0.85,0.85,0.85,0,0.85
2015-10-20,0.85,0.85,0.85,0.85,0,0.85
2015-10-21,0.825,0.835,0.825,0.835,3500,0.835
2015-10-22,0.835,0.835,0.835,0.835,0,0.835
2015-10-23,0.835,0.835,0.835,0.835,0,0.835
2015-10-26,0.835,0.835,0.835,0.835,0,0.835
2015-10-27,0.85,0.85,0.85,0.85,2000,0.85
2015-10-28,0.85,0.85,0.85,0.85,0,0.85
2015-10-29,0.85,0.85,0.85,0.85,2700,0.85
2015-10-30,0.85,0.85,0.85,0.85,0,0.85
2015-11-02,0.85,0.88,0.85,0.88,17000,0.88
2015-11-03,0.88,0.88,0.88,0.88,0,0.88
2015-11-04,0.88,0.88,0.88,0.88,0,0.88
2015-11-05,0.88,0.88,0.88,0.88,0,0.88
2015-11-06,0.88,0.88,0.88,0.88,0,0.88
2015-11-09,0.88,0.88,0.88,0.88,0,0.88
2015-11-10,0.88,0.88,0.88,0.88,0,0.88
2015-11-11,0.88,0.88,0.88,0.88,0,0.88
2015-11-12,0.88,0.88,0.88,0.88,0,0.88
2015-11-13,0.88,0.88,0.88,0.88,0,0.88
2015-11-16,0.88,0.88,0.88,0.88,0,0.88
2015-11-17,0.88,0.88,0.88,0.88,0,0.88
2015-11-18,0.84,0.84,0.84,0.84,2700,0.84
2015-11-19,0.84,0.84,0.84,0.84,0,0.84
2015-11-20,0.84,0.84,0.84,0.84,0,0.84
2015-11-23,0.84,0.84,0.84,0.84,0,0.84
2015-11-24,0.85,0.85,0.85,0.85,2000,0.85
2015-11-25,0.85,0.85,0.85,0.85,0,0.85
2015-11-26,0.85,0.85,0.85,0.85,0,0.85
2015-11-27,0.85,0.85,0.85,0.85,0,0.85
2015-11-30,0.85,0.85,0.85,0.85,0,0.85
2015-12-01,0.85,0.85,0.85,0.85,0,0.85
2015-12-02,0.85,0.85,0.85,0.85,0,0.85
2015-12-03,0.85,0.85,0.85,0.85,0,0.85
2015-12-04,0.85,0.85,0.85,0.85,0,0.85
2015-12-07,0.85,0.85,0.85,0.85,0,0.85
2015-12-08,0.85,0.85,0.85,0.85,0,0.85
2015-12-09,0.815,0.82,0.815,0.82,1500,0.82
2015-12-10,0.82,0.82,0.82,0.82,0,0.82
2015-12-11,0.82,0.82,0.82,0.82,0,0.82
2015-12-14,0.82,0.82,0.82,0.82,0,0.82
2015-12-15,0.82,0.82,0.82,0.82,0,0.82
2015-12-16,0.82,0.82,0.82,0.82,0,0.82
2015-12-17,0.82,0.82,0.82,0.82,0,0.82
2015-12-18,0.77,0.775,0.77,0.775,31000,0.775
2015-12-21,0.775,0.775,0.775,0.775,0,0.775
2015-12-22,0.775,0.775,0.775,0.775,0,0.775
2015-12-23,0.775,0.775,0.775,0.775,0,0.775
2015-12-24,0.775,0.775,0.775,0.775,0,0.775
2015-12-25,0.775,0.775,0.775,0.775,0,0.775
2015-12-28,0.775,0.775,0.775,0.775,0,0.775
2015-12-29,0.765,0.765,0.765,0.765,1000,0.765
2015-12-30,0.765,0.765,0.765,0.765,0,0.765
2015-12-31,0.765,0.765,0.765,0.765,0,0.765
2016-01-01,0.765,0.765,0.765,0.765,0,0.765
2016-01-04,0.765,0.765,0.765,0.765,0,0.765
2016-01-05,0.765,0.765,0.765,0.765,0,0.765
2016-01-06,0.765,0.765,0.765,0.765,0,0.765
2016-01-07,0.765,0.765,0.765,0.765,0,0.765
2016-01-08,0.765,0.765,0.765,0.765,0,0.765
2016-01-11,0.765,0.765,0.765,0.765,0,0.765
2016-01-12,0.765,0.765,0.765,0.765,0,0.765
2016-01-13,0.765,0.765,0.765,0.765,0,0.765
2016-01-14,0.765,0.765,0.765,0.765,0,0.765
2016-01-15,0.765,0.765,0.765,0.765,0,0.765
2016-01-18,0.765,0.765,0.765,0.765,0,0.765
2016-01-19,0.765,0.765,0.765,0.765,0,0.765
2016-01-20,0.765,0.765,0.765,0.765,0,0.765
2016-01-21,0.765,0.765,0.765,0.765,0,0.765
2016-01-22,0.765,0.765,0.765,0.765,0,0.765
2016-01-25,0.765,0.765,0.765,0.765,0,0.765
2016-01-26,0.765,0.765,0.765,0.765,0,0.765
2016-01-27,0.765,0.765,0.765,0.765,0,0.765
2016-01-28,0.765,0.765,0.765,0.765,0,0.765
2016-01-29,0.765,0.765,0.765,0.765,0,0.765
2016-02-01,0.765,0.765,0.765,0.765,0,0.765
2016-02-02,0.765,0.765,0.765,0.765,0,0.765
2016-02-03,0.765,0.765,0.765,0.765,0,0.765
2016-02-04,0.765,0.765,0.765,0.765,0,0.765
2016-02-05,0.765,0.765,0.765,0.765,0,0.765
2016-02-08,0.765,0.765,0.765,0.765,0,0.765
2016-02-09,0.765,0.765,0.765,0.765,0,0.765
2016-02-10,0.765,0.765,0.765,0.765,0,0.765
2016-02-11,0.765,0.765,0.765,0.765,0,0.765
2016-02-12,0.765,0.765,0.765,0.765,0,0.765
2016-02-15,0.765,0.765,0.765,0.765,0,0.765
2016-02-16,0.765,0.765,0.765,0.765,0,0.765
2016-02-17,0.765,0.765,0.765,0.765,0,0.765
2016-02-18,0.765,0.765,0.765,0.765,0,0.765
2016-02-19,0.765,0.765,0.765,0.765,0,0.765
2016-02-22,0.765,0.765,0.765,0.765,0,0.765
2016-02-23,0.765,0.765,0.765,0.765,0,0.765
2016-02-24,0.765,0.765,0.765,0.765,0,0.765
2016-02-25,0.765,0.765,0.765,0.765,0,0.765
2016-02-26,0.765,0.765,0.765,0.765,0,0.765
2016-02-29,0.765,0.765,0.765,0.765,0,0.765
2016-03-01,0.765,0.765,0.765,0.765,0,0.765
2016-03-02,0.765,0.765,0.765,0.765,0,0.765
2016-03-03,0.765,0.765,0.765,0.765,0,0.765
2016-03-04,0.575,0.58,0.575,0.58,9300,0.58
2016-03-07,0.555,0.56,0.555,0.555,14000,0.555
2016-03-08,0.555,0.555,0.555,0.555,0,0.555
2016-03-09,0.555,0.555,0.555,0.555,0,0.555
2016-03-10,0.555,0.555,0.555,0.555,0,0.555
2016-03-11,0.555,0.555,0.555,0.555,0,0.555
2016-03-14,0.555,0.555,0.555,0.555,0,0.555
2016-03-15,0.555,0.555,0.555,0.555,0,0.555
2016-03-16,0.555,0.555,0.555,0.555,0,0.555
2016-03-17,0.555,0.555,0.555,0.555,0,0.555
2016-03-18,0.555,0.555,0.555,0.555,0,0.555
2016-03-21,0.57,0.57,0.57,0.57,200,0.57
2016-03-22,0.57,0.57,0.57,0.57,0,0.57
2016-03-23,0.57,0.57,0.57,0.57,0,0.57
2016-03-24,0.57,0.57,0.57,0.57,0,0.57
2016-03-25,0.57,0.57,0.57,0.57,0,0.57
2016-03-28,0.57,0.57,0.57,0.57,0,0.57
2016-03-29,0.57,0.57,0.57,0.57,0,0.57
2016-03-30,0.57,0.57,0.57,0.57,0,0.57
2016-03-31,0.57,0.57,0.57,0.57,0,0.57
2016-04-01,0.57,0.57,0.57,0.57,0,0.57
2016-04-04,0.57,0.57,0.57,0.57,0,0.57
2016-04-05,0.57,0.57,0.57,0.57,0,0.57
2016-04-06,0.57,0.57,0.57,0.57,0,0.57
2016-04-07,0.57,0.57,0.57,0.57,0,0.57
2016-04-08,0.565,0.565,0.565,0.565,2800,0.565
2016-04-11,0.565,0.565,0.565,0.565,0,0.565
2016-04-12,0.565,0.565,0.565,0.565,0,0.565
2016-04-13,0.565,0.565,0.565,0.565,0,0.565
2016-04-14,0.565,0.565,0.565,0.565,0,0.565
2016-04-15,0.565,0.565,0.565,0.565,0,0.565
2016-04-18,0.565,0.565,0.565,0.565,0,0.565
2016-04-19,0.565,0.565,0.565,0.565,0,0.565
2016-04-20,0.565,0.565,0.565,0.565,0,0.565
2016-04-21,0.565,0.565,0.565,0.565,0,0.565
2016-04-22,0.565,0.565,0.565,0.565,0,0.565
2016-04-25,0.565,0.565,0.565,0.565,0,0.565
2016-04-26,0.565,0.565,0.565,0.565,0,0.565
2016-04-27,0.565,0.565,0.565,0.565,0,0.565
2016-04-28,0.565,0.565,0.565,0.565,0,0.565
2016-04-29,0.565,0.565,0.565,0.565,0,0.565
2016-05-02,0.5,0.5,0.5,0.5,5000,0.5
2016-05-03,0.5,0.5,0.5,0.5,0,0.5
2016-05-04,0.5,0.5,0.5,0.5,0,0.5
2016-05-05,0.5,0.5,0.5,0.5,0,0.5
2016-05-06,0.5,0.5,0.5,0.5,0,0.5
2016-05-09,0.5,0.5,0.5,0.5,0,0.5
2016-05-10,0.45,0.45,0.45,0.45,2000,0.45
2016-05-11,0.45,0.45,0.45,0.45,3000,0.45
2016-05-12,0.45,0.45,0.45,0.45,0,0.45
2016-05-13,0.45,0.45,0.45,0.45,0,0.45
2016-05-16,0.395,0.395,0.395,0.395,14100,0.395
2016-05-17,0.365,0.365,0.35,0.35,16700,0.35
2016-05-18,0.355,0.355,0.35,0.35,21400,0.35
2016-05-19,0.385,0.39,0.385,0.39,2000,0.39
2016-05-20,0.375,0.38,0.375,0.38,5000,0.38
2016-05-23,0.38,0.38,0.38,0.38,0,0.38
2016-05-24,0.38,0.38,0.38,0.38,0,0.38
2016-05-25,0.38,0.38,0.38,0.38,0,0.38
2016-05-26,0.38,0.38,0.38,0.38,0,0.38
2016-05-27,0.38,0.38,0.38,0.38,5000,0.38
2016-05-30,0.38,0.38,0.38,0.38,0,0.38
2016-05-31,0.38,0.38,0.38,0.38,0,0.38
2016-06-01,0.38,0.38,0.38,0.38,0,0.38
2016-06-02,0.38,0.38,0.38,0.38,0,0.38
2016-06-03,0.38,0.38,0.38,0.38,0,0.38
2016-06-06,0.38,0.38,0.38,0.38,0,0.38
2016-06-07,0.38,0.38,0.38,0.38,0,0.38
2016-06-08,0.38,0.38,0.38,0.38,0,0.38
2016-06-09,0.39,0.39,0.39,0.39,2000,0.39
2016-06-10,0.39,0.39,0.39,0.39,0,0.39
2016-06-13,0.39,0.39,0.39,0.39,0,0.39
2016-06-14,0.39,0.39,0.39,0.39,0,0.39
2016-06-15,0.39,0.39,0.39,0.39,0,0.39
2016-06-16,0.375,0.4,0.375,0.4,21000,0.4
2016-06-17,0.4,0.4,0.4,0.4,0,0.4
2016-06-20,0.395,0.395,0.395,0.395,10000,0.395
2016-06-21,0.395,0.395,0.395,0.395,0,0.395
2016-06-22,0.395,0.395,0.395,0.395,0,0.395
2016-06-23,0.395,0.395,0.395,0.395,0,0.395
2016-06-24,0.395,0.395,0.395,0.395,0,0.395
2016-06-27,0.395,0.395,0.395,0.395,0,0.395
2016-06-28,0.395,0.395,0.395,0.395,0,0.395
2016-06-29,0.395,0.395,0.395,0.395,0,0.395
2016-06-30,0.395,0.395,0.395,0.395,0,0.395
2016-07-01,0.395,0.395,0.395,0.395,0,0.395
2016-07-04,0.395,0.395,0.395,0.395,0,0.395
2016-07-05,0.395,0.395,0.395,0.395,0,0.395
2016-07-06,0.395,0.395,0.395,0.395,0,0.395
2016-07-07,0.395,0.395,0.395,0.395,0,0.395
2016-07-08,0.395,0.395,0.395,0.395,0,0.395
2016-07-11,0.395,0.395,0.395,0.395,0,0.395
2016-07-12,0.395,0.395,0.395,0.395,0,0.395
2016-07-13,0.395,0.395,0.395,0.395,0,0.395
2016-07-14,0.395,0.395,0.395,0.395,0,0.395
2016-07-15,0.395,0.395,0.395,0.395,0,0.395
2016-07-18,0.395,0.395,0.395,0.395,0,0.395
2016-07-19,0.395,0.395,0.395,0.395,0,0.395
2016-07-20,0.395,0.395,0.395,0.395,0,0.395
2016-07-21,0.395,0.395,0.395,0.395,0,0.395
2016-07-22,0.395,0.395,0.395,0.395,0,0.395
2016-07-25,0.395,0.395,0.395,0.395,0,0.395
2016-07-26,0.395,0.395,0.395,0.395,0,0.395
2016-07-27,0.395,0.395,0.395,0.395,0,0.395
2016-07-28,0.395,0.395,0.395,0.395,0,0.395
2016-07-29,0.395,0.395,0.395,0.395,0,0.395
2016-08-01,0.395,0.395,0.395,0.395,0,0.395
2016-08-02,0.32,0.35,0.32,0.35,17200,0.35
2016-08-03,0.35,0.35,0.35,0.35,0,0.35
2016-08-04,0.35,0.35,0.35,0.35,0,0.35
2016-08-05,0.35,0.35,0.35,0.35,0,0.35
2016-08-08,0.35,0.35,0.35,0.35,0,0.35
2016-08-09,0.345,0.345,0.345,0.345,15000,0.345
2016-08-10,0.34,0.34,0.33,0.33,18200,0.33
2016-08-11,0.33,0.33,0.33,0.33,0,0.33
2016-08-12,0.33,0.33,0.33,0.33,0,0.33
2016-08-15,0.345,0.345,0.345,0.345,25000,0.345
2016-08-16,0.345,0.345,0.345,0.345,0,0.345
2016-08-17,0.345,0.345,0.345,0.345,0,0.345
2016-08-18,0.345,0.345,0.345,0.345,0,0.345
2016-08-19,0.345,0.345,0.345,0.345,0,0.345
2016-08-22,0.345,0.345,0.345,0.345,0,0.345
2016-08-23,0.345,0.345,0.345,0.345,0,0.345
2016-08-24,0.345,0.345,0.345,0.345,0,0.345
2016-08-25,0.345,0.345,0.345,0.345,0,0.345
2016-08-26,0.345,0.345,0.345,0.345,0,0.345
2016-08-29,0.345,0.345,0.345,0.345,0,0.345
2016-08-30,0.345,0.345,0.345,0.345,0,0.345
2016-08-31,0.345,0.345,0.345,0.345,0,0.345
2016-09-01,0.345,0.345,0.345,0.345,0,0.345
2016-09-02,0.345,0.345,0.345,0.345,0,0.345
2016-09-05,0.25,0.25,0.25,0.25,10000,0.25
2016-09-06,0.3,0.33,0.3,0.33,7000,0.33
2016-09-07,0.33,0.33,0.33,0.33,0,0.33
2016-09-08,0.33,0.33,0.33,0.33,0,0.33
2016-09-09,0.33,0.33,0.33,0.33,0,0.33
2016-09-12,0.33,0.33,0.33,0.33,0,0.33
2016-09-13,0.33,0.33,0.33,0.33,0,0.33
2016-09-14,0.33,0.33,0.33,0.33,0,0.33
2016-09-15,0.33,0.33,0.33,0.33,0,0.33
2016-09-16,0.3,0.3,0.3,0.3,1800,0.3
2016-09-19,0.3,0.3,0.3,0.3,7400,0.3
2016-09-20,0.3,0.325,0.295,0.325,21500,0.325
2016-09-21,0.325,0.325,0.325,0.325,0,0.325
2016-09-22,0.325,0.325,0.325,0.325,0,0.325
2016-09-23,0.325,0.325,0.325,0.325,0,0.325
2016-09-26,0.325,0.325,0.325,0.325,0,0.325
2016-09-27,0.325,0.325,0.325,0.325,0,0.325
2016-09-28,0.3,0.3,0.3,0.3,3500,0.3
2016-09-29,0.295,0.295,0.295,0.295,3600,0.295
2016-09-30,0.295,0.295,0.295,0.295,0,0.295
2016-10-03,0.295,0.295,0.295,0.295,0,0.295
2016-10-04,0.295,0.295,0.295,0.295,0,0.295
2016-10-05,0.295,0.3,0.295,0.3,10000,0.3
2016-10-06,0.3,0.3,0.3,0.3,0,0.3
2016-10-07,0.3,0.3,0.3,0.3,0,0.3
2016-10-10,0.3,0.3,0.3,0.3,0,0.3
2016-10-11,0.325,0.325,0.325,0.325,500,0.325
2016-10-12,0.3,0.3,0.3,0.3,2000,0.3
2016-10-13,0.3,0.3,0.3,0.3,0,0.3
2016-10-14,0.28,0.28,0.28,0.28,2000,0.28
2016-10-17,0.28,0.28,0.28,0.28,0,0.28
2016-10-18,0.295,0.295,0.295,0.295,4000,0.295
2016-10-19,0.295,0.295,0.295,0.295,0,0.295
2016-10-20,0.295,0.295,0.295,0.295,0,0.295
2016-10-21,0.28,0.28,0.28,0.28,10000,0.28
2016-10-24,0.28,0.28,0.28,0.28,0,0.28
2016-10-25,0.28,0.28,0.28,0.28,0,0.28
2016-10-26,0.28,0.28,0.28,0.28,12000,0.28
2016-10-27,0.28,0.28,0.28,0.28,0,0.28
2016-10-28,0.28,0.28,0.28,0.28,0,0.28
2016-10-31,0.3,0.3,0.3,0.3,9400,0.3
2016-11-01,0.3,0.3,0.3,0.3,0,0.3
2016-11-02,0.3,0.3,0.3,0.3,30000,0.3
2016-11-03,0.3,0.3,0.3,0.3,30000,0.3
2016-11-04,0.3,0.3,0.3,0.3,0,0.3
2016-11-07,0.3,0.3,0.3,0.3,0,0.3
2016-11-08,0.32,0.32,0.32,0.32,1000,0.32
2016-11-09,0.315,0.315,0.315,0.315,5000,0.315
2016-11-10,0.3,0.3,0.3,0.3,2500,0.3
2016-11-11,0.3,0.3,0.3,0.3,0,0.3
2016-11-14,0.28,0.295,0.28,0.295,15600,0.295
2016-11-15,0.3,0.3,0.295,0.295,1400,0.295
2016-11-16,0.31,0.31,0.31,0.31,7000,0.31
2016-11-17,0.33,0.33,0.33,0.33,3000,0.33
2016-11-18,0.31,0.31,0.31,0.31,500,0.31
2016-11-21,0.31,0.31,0.31,0.31,0,0.31
2016-11-22,0.31,0.31,0.31,0.31,0,0.31
2016-11-23,0.31,0.31,0.31,0.31,9000,0.31
2016-11-24,0.315,0.315,0.315,0.315,3000,0.315
2016-11-25,0.315,0.315,0.315,0.315,6000,0.315
2016-11-28,0.31,0.33,0.31,0.33,17000,0.33
2016-11-29,0.325,0.325,0.325,0.325,7000,0.325
2016-11-30,0.325,0.325,0.325,0.325,5000,0.325
2016-12-01,0.315,0.315,0.315,0.315,7000,0.315
2016-12-02,0.31,0.31,0.31,0.31,7500,0.31
2016-12-05,0.315,0.315,0.315,0.315,6000,0.315
2016-12-06,0.315,0.315,0.315,0.315,0,0.315
2016-12-07,0.32,0.32,0.32,0.32,500,0.32
2016-12-08,0.32,0.32,0.32,0.32,500,0.32
2016-12-09,0.32,0.32,0.32,0.32,500,0.32
2016-12-12,0.32,0.32,0.32,0.32,500,0.32
2016-12-13,0.3,0.315,0.3,0.3,6500,0.3
2016-12-14,0.3,0.3,0.3,0.3,500,0.3
2016-12-15,0.295,0.295,0.295,0.295,3000,0.295
2016-12-16,0.295,0.295,0.295,0.295,0,0.295
2016-12-19,0.3,0.3,0.25,0.25,8700,0.25
2016-12-20,0.25,0.25,0.25,0.25,0,0.25
2016-12-21,0.25,0.25,0.25,0.25,0,0.25
2016-12-22,0.25,0.25,0.25,0.25,0,0.25
2016-12-23,0.25,0.25,0.25,0.25,0,0.25
2016-12-26,0.25,0.25,0.25,0.25,0,0.25
2016-12-27,0.25,0.25,0.25,0.25,0,0.25
2016-12-28,0.25,0.25,0.25,0.25,0,0.25
2016-12-29,0.25,0.25,0.25,0.25,0,0.25
2016-12-30,0.25,0.25,0.25,0.25,0,0.25
