Date,Open,High,Low,Close,Volume,Adj Close
2011-08-04,0.21,0.21,0.21,0.21,11200,0.28
2011-08-12,0.19,0.19,0.19,0.19,75000,0.25333
2011-08-31,0.18,0.18,0.18,0.18,7500,0.24
2011-09-05,0.18,0.18,0.18,0.18,7500,0.24
2011-09-06,0.185,0.19,0.185,0.19,41200,0.25333
2011-09-15,0.18,0.18,0.18,0.18,3700,0.24
2011-09-27,0.15,0.15,0.15,0.15,18700,0.2
2011-09-28,0.18,0.18,0.18,0.18,15000,0.24
2011-09-29,0.15,0.15,0.15,0.15,18700,0.2
2011-10-03,0.15,0.15,0.15,0.15,56200,0.2
2011-11-02,0.13,0.15,0.13,0.15,15000,0.2
2011-11-11,0.15,0.15,0.15,0.15,11200,0.2
2011-11-15,0.15,0.15,0.15,0.15,7500,0.2
2011-11-17,0.15,0.15,0.15,0.15,63700,0.2
2011-11-18,0.15,0.15,0.15,0.15,0,0.2
2011-11-21,0.15,0.15,0.15,0.15,0,0.2
2011-11-22,0.15,0.15,0.15,0.15,0,0.2
2011-11-23,0.15,0.15,0.15,0.15,0,0.2
2011-11-24,0.16,0.16,0.16,0.16,7500,0.21333000000000002
2011-11-25,0.16,0.16,0.16,0.16,0,0.21333000000000002
2011-11-28,0.16,0.16,0.16,0.16,0,0.21333000000000002
2011-11-29,0.16,0.16,0.16,0.16,0,0.21333000000000002
2011-11-30,0.16,0.16,0.16,0.16,0,0.21333000000000002
2011-12-01,0.16,0.16,0.16,0.16,0,0.21333000000000002
2011-12-02,0.16,0.16,0.16,0.16,0,0.21333000000000002
2011-12-05,0.16,0.16,0.16,0.16,0,0.21333000000000002
2011-12-06,0.16,0.16,0.16,0.16,0,0.21333000000000002
2011-12-07,0.16,0.16,0.16,0.16,0,0.21333000000000002
2011-12-08,0.16,0.16,0.16,0.16,0,0.21333000000000002
2011-12-09,0.16,0.16,0.16,0.16,0,0.21333000000000002
2011-12-12,0.15,0.15,0.15,0.15,18700,0.2
2011-12-13,0.15,0.15,0.15,0.15,0,0.2
2011-12-14,0.15,0.15,0.15,0.15,0,0.2
2011-12-15,0.15,0.15,0.15,0.15,18700,0.2
2011-12-16,0.15,0.15,0.15,0.15,0,0.2
2011-12-19,0.15,0.15,0.15,0.15,0,0.2
2011-12-20,0.15,0.15,0.15,0.15,18700,0.2
2011-12-21,0.15,0.15,0.15,0.15,7500,0.2
2011-12-22,0.15,0.15,0.15,0.15,0,0.2
2011-12-23,0.15,0.15,0.15,0.15,0,0.2
2011-12-26,0.15,0.15,0.15,0.15,0,0.2
2011-12-27,0.15,0.15,0.15,0.15,0,0.2
2011-12-28,0.13,0.13,0.13,0.13,15000,0.17332999999999998
2011-12-29,0.13,0.13,0.13,0.13,0,0.17332999999999998
2011-12-30,0.13,0.13,0.13,0.13,0,0.17332999999999998
2012-01-02,0.13,0.13,0.13,0.13,0,0.17332999999999998
2012-01-03,0.13,0.13,0.13,0.13,0,0.17332999999999998
2012-01-04,0.13,0.13,0.13,0.13,0,0.17332999999999998
2012-01-05,0.13,0.13,0.13,0.13,0,0.17332999999999998
2012-01-06,0.13,0.13,0.13,0.13,0,0.17332999999999998
2012-01-09,0.14,0.14,0.14,0.14,18700,0.18667
2012-01-10,0.14,0.14,0.14,0.14,0,0.18667
2012-01-11,0.14,0.14,0.14,0.14,0,0.18667
2012-01-12,0.13,0.13,0.13,0.13,7500,0.17332999999999998
2012-01-13,0.13,0.13,0.13,0.13,0,0.17332999999999998
2012-01-16,0.13,0.13,0.13,0.13,0,0.17332999999999998
2012-01-17,0.13,0.13,0.13,0.13,0,0.17332999999999998
2012-01-18,0.13,0.13,0.13,0.13,0,0.17332999999999998
2012-01-19,0.13,0.13,0.13,0.13,0,0.17332999999999998
2012-01-20,0.13,0.13,0.13,0.13,0,0.17332999999999998
2012-01-23,0.13,0.13,0.13,0.13,0,0.17332999999999998
2012-01-24,0.13,0.13,0.13,0.13,0,0.17332999999999998
2012-01-25,0.13,0.13,0.13,0.13,0,0.17332999999999998
2012-01-26,0.13,0.13,0.13,0.13,0,0.17332999999999998
2012-01-27,0.13,0.13,0.13,0.13,0,0.17332999999999998
2012-01-31,0.13,0.13,0.13,0.13,0,0.17332999999999998
2012-02-01,0.14,0.14,0.14,0.14,37500,0.18667
2012-02-02,0.14,0.14,0.14,0.14,0,0.18667
2012-02-03,0.14,0.14,0.14,0.14,0,0.18667
2012-02-06,0.14,0.14,0.14,0.14,0,0.18667
2012-02-07,0.14,0.14,0.14,0.14,0,0.18667
2012-02-08,0.14,0.14,0.14,0.14,0,0.18667
2012-02-09,0.14,0.14,0.14,0.14,0,0.18667
2012-02-10,0.14,0.14,0.14,0.14,0,0.18667
2012-02-13,0.14,0.14,0.14,0.14,0,0.18667
2012-02-14,0.14,0.14,0.14,0.14,0,0.18667
2012-02-15,0.14,0.14,0.14,0.14,0,0.18667
2012-02-16,0.14,0.14,0.14,0.14,0,0.18667
2012-02-17,0.14,0.14,0.14,0.14,0,0.18667
2012-02-20,0.14,0.14,0.14,0.14,0,0.18667
2012-02-21,0.16,0.16,0.16,0.16,18300,0.21333000000000002
2012-02-22,0.16,0.16,0.16,0.16,0,0.21333000000000002
2012-02-23,0.16,0.16,0.16,0.16,0,0.21333000000000002
2012-02-24,0.16,0.16,0.16,0.16,0,0.21333000000000002
2012-02-27,0.16,0.16,0.16,0.16,0,0.21333000000000002
2012-02-28,0.16,0.16,0.16,0.16,0,0.21333000000000002
2012-02-29,0.16,0.16,0.16,0.16,0,0.21333000000000002
2012-03-01,0.16,0.16,0.16,0.16,0,0.21333000000000002
2012-03-02,0.16,0.16,0.16,0.16,0,0.21333000000000002
2012-03-05,0.16,0.16,0.16,0.16,7500,0.21333000000000002
2012-03-06,0.16,0.16,0.16,0.16,0,0.21333000000000002
2012-03-07,0.16,0.16,0.16,0.16,0,0.21333000000000002
2012-03-08,0.16,0.16,0.16,0.16,0,0.21333000000000002
2012-03-09,0.16,0.16,0.16,0.16,0,0.21333000000000002
2012-03-12,0.16,0.16,0.16,0.16,0,0.21333000000000002
2012-03-13,0.16,0.16,0.16,0.16,0,0.21333000000000002
2012-03-14,0.16,0.16,0.16,0.16,0,0.21333000000000002
2012-03-15,0.16,0.16,0.15,0.15,26200,0.2
2012-03-16,0.15,0.15,0.15,0.15,0,0.2
2012-03-19,0.155,0.155,0.155,0.155,7500,0.20667
2012-03-20,0.155,0.155,0.155,0.155,0,0.20667
2012-03-21,0.155,0.155,0.155,0.155,0,0.20667
2012-03-22,0.155,0.155,0.155,0.155,7500,0.20667
2012-03-23,0.155,0.155,0.155,0.155,82500,0.20667
2012-03-26,0.155,0.155,0.155,0.155,0,0.20667
2012-03-27,0.155,0.155,0.155,0.155,0,0.20667
2012-03-28,0.155,0.155,0.155,0.155,0,0.20667
2012-03-29,0.155,0.155,0.155,0.155,0,0.20667
2012-03-30,0.15,0.15,0.15,0.15,3700,0.2
2012-04-02,0.15,0.15,0.15,0.15,0,0.2
2012-04-03,0.15,0.15,0.15,0.15,0,0.2
2012-04-04,0.15,0.15,0.15,0.15,0,0.2
2012-04-05,0.16,0.16,0.16,0.16,22500,0.21333000000000002
2012-04-06,0.16,0.16,0.16,0.16,0,0.21333000000000002
2012-04-09,0.16,0.16,0.16,0.16,0,0.21333000000000002
2012-04-10,0.16,0.16,0.16,0.16,0,0.21333000000000002
2012-04-11,0.16,0.16,0.16,0.16,0,0.21333000000000002
2012-04-12,0.16,0.16,0.16,0.16,0,0.21333000000000002
2012-04-13,0.16,0.16,0.16,0.16,0,0.21333000000000002
2012-04-16,0.16,0.16,0.16,0.16,0,0.21333000000000002
2012-04-17,0.125,0.135,0.125,0.135,21400,0.18
2012-04-18,0.135,0.135,0.135,0.135,0,0.18
2012-04-19,0.135,0.135,0.135,0.135,0,0.18
2012-04-20,0.135,0.135,0.135,0.135,0,0.18
2012-04-23,0.135,0.135,0.135,0.135,0,0.18
2012-04-24,0.125,0.125,0.125,0.125,11200,0.16667
2012-04-25,0.125,0.125,0.125,0.125,0,0.16667
2012-04-26,0.135,0.135,0.135,0.135,7500,0.18
2012-04-27,0.135,0.135,0.135,0.135,0,0.18
2012-04-30,0.135,0.135,0.135,0.135,0,0.18
2012-05-01,0.135,0.135,0.135,0.135,0,0.18
2012-05-02,0.135,0.135,0.135,0.135,0,0.18
2012-05-03,0.135,0.135,0.135,0.135,0,0.18
2012-05-04,0.15,0.15,0.15,0.15,7500,0.2
2012-05-07,0.15,0.15,0.15,0.15,0,0.2
2012-05-08,0.15,0.15,0.15,0.15,0,0.2
2012-05-09,0.135,0.135,0.135,0.135,5600,0.18
2012-05-10,0.135,0.135,0.135,0.135,0,0.18
2012-05-11,0.135,0.135,0.135,0.135,0,0.18
2012-05-14,0.135,0.135,0.135,0.135,0,0.18
2012-05-15,0.135,0.135,0.135,0.135,0,0.18
2012-05-16,0.135,0.135,0.135,0.135,0,0.18
2012-05-17,0.135,0.135,0.135,0.135,0,0.18
2012-05-18,0.135,0.135,0.135,0.135,0,0.18
2012-05-21,0.135,0.135,0.135,0.135,0,0.18
2012-05-22,0.135,0.135,0.135,0.135,0,0.18
2012-05-23,0.135,0.135,0.135,0.135,0,0.18
2012-05-24,0.135,0.135,0.135,0.135,0,0.18
2012-05-25,0.135,0.135,0.135,0.135,0,0.18
2012-05-28,0.135,0.135,0.135,0.135,0,0.18
2012-05-29,0.135,0.135,0.135,0.135,0,0.18
2012-05-30,0.135,0.135,0.135,0.135,0,0.18
2012-05-31,0.135,0.135,0.135,0.135,0,0.18
2012-06-01,0.135,0.135,0.135,0.135,0,0.18
2012-06-04,0.135,0.135,0.135,0.135,0,0.18
2012-06-05,0.12,0.12,0.12,0.12,28100,0.16
2012-06-06,0.12,0.12,0.12,0.12,9300,0.16
2012-06-07,0.12,0.12,0.12,0.12,0,0.16
2012-06-08,0.12,0.12,0.12,0.12,0,0.16
2012-06-11,0.12,0.12,0.12,0.12,0,0.16
2012-06-12,0.12,0.12,0.12,0.12,0,0.16
2012-06-13,0.12,0.12,0.12,0.12,0,0.16
2012-06-14,0.12,0.165,0.12,0.165,78700,0.22
2012-06-15,0.165,0.165,0.165,0.165,0,0.22
2012-06-18,0.165,0.165,0.165,0.165,0,0.22
2012-06-19,0.165,0.165,0.165,0.165,0,0.22
2012-06-20,0.165,0.165,0.165,0.165,0,0.22
2012-06-21,0.165,0.165,0.165,0.165,0,0.22
2012-06-22,0.165,0.165,0.165,0.165,0,0.22
2012-06-25,0.165,0.165,0.165,0.165,0,0.22
2012-06-26,0.165,0.165,0.165,0.165,0,0.22
2012-06-27,0.165,0.165,0.165,0.165,0,0.22
2012-06-28,0.165,0.165,0.165,0.165,0,0.22
2012-06-29,0.165,0.165,0.165,0.165,0,0.22
2012-07-02,0.165,0.165,0.165,0.165,0,0.22
2012-07-03,0.165,0.165,0.165,0.165,0,0.22
2012-07-04,0.165,0.165,0.165,0.165,0,0.22
2012-07-05,0.165,0.165,0.165,0.165,0,0.22
2012-07-06,0.165,0.165,0.165,0.165,0,0.22
2012-07-09,0.165,0.165,0.165,0.165,0,0.22
2012-07-10,0.165,0.165,0.165,0.165,0,0.22
2012-07-11,0.165,0.165,0.165,0.165,0,0.22
2012-07-12,0.165,0.165,0.165,0.165,0,0.22
2012-07-13,0.165,0.165,0.165,0.165,0,0.22
2012-07-16,0.165,0.165,0.165,0.165,0,0.22
2012-07-17,0.165,0.165,0.165,0.165,0,0.22
2012-07-18,0.165,0.165,0.165,0.165,0,0.22
2012-07-19,0.165,0.165,0.165,0.165,0,0.22
2012-07-20,0.165,0.165,0.165,0.165,0,0.22
2012-07-23,0.165,0.165,0.165,0.165,0,0.22
2012-07-24,0.165,0.165,0.165,0.165,0,0.22
2012-07-25,0.165,0.165,0.165,0.165,0,0.22
2012-07-26,0.165,0.165,0.165,0.165,0,0.22
2012-07-27,0.165,0.165,0.165,0.165,0,0.22
2012-07-30,0.165,0.165,0.165,0.165,0,0.22
2012-07-31,0.165,0.165,0.165,0.165,0,0.22
2012-08-01,0.165,0.165,0.165,0.165,0,0.22
2012-08-02,0.165,0.165,0.165,0.165,0,0.22
2012-08-03,0.165,0.165,0.165,0.165,0,0.22
2012-08-06,0.165,0.165,0.165,0.165,0,0.22
2012-08-07,0.165,0.165,0.165,0.165,0,0.22
2012-08-08,0.165,0.165,0.165,0.165,0,0.22
2012-08-09,0.165,0.165,0.165,0.165,0,0.22
2012-08-10,0.165,0.165,0.165,0.165,0,0.22
2012-08-13,0.165,0.165,0.165,0.165,0,0.22
2012-08-14,0.165,0.165,0.165,0.165,0,0.22
2012-08-15,0.165,0.165,0.165,0.165,0,0.22
2012-08-16,0.165,0.165,0.165,0.165,0,0.22
2012-08-17,0.165,0.165,0.165,0.165,0,0.22
2012-08-20,0.165,0.165,0.165,0.165,0,0.22
2012-08-21,0.165,0.165,0.165,0.165,0,0.22
2012-08-22,0.165,0.165,0.165,0.165,0,0.22
2012-08-23,0.15,0.15,0.15,0.15,18700,0.2
2012-08-24,0.15,0.15,0.15,0.15,0,0.2
2012-08-27,0.15,0.15,0.15,0.15,0,0.2
2012-08-28,0.15,0.15,0.15,0.15,0,0.2
2012-08-29,0.15,0.15,0.15,0.15,0,0.2
2012-08-30,0.15,0.15,0.15,0.15,0,0.2
2012-08-31,0.15,0.15,0.15,0.15,0,0.2
2012-09-03,0.15,0.15,0.15,0.15,0,0.2
2012-09-04,0.15,0.15,0.15,0.15,0,0.2
2012-09-05,0.15,0.15,0.15,0.15,0,0.2
2012-09-06,0.15,0.15,0.15,0.15,0,0.2
2012-09-07,0.15,0.15,0.15,0.15,0,0.2
2012-09-10,0.11,0.11,0.1,0.1,50600,0.13333
2012-09-11,0.1,0.1,0.1,0.1,0,0.13333
2012-09-12,0.1,0.1,0.1,0.1,0,0.13333
2012-09-13,0.1,0.1,0.1,0.1,75000,0.13333
2012-09-14,0.1,0.1,0.1,0.1,0,0.13333
2012-09-17,0.1,0.1,0.1,0.1,0,0.13333
2012-09-18,0.12,0.12,0.12,0.12,37500,0.16
2012-09-19,0.1,0.1,0.1,0.1,491200,0.13333
2012-09-20,0.1,0.1,0.1,0.1,0,0.13333
2012-09-21,0.1,0.1,0.1,0.1,0,0.13333
2012-09-24,0.1,0.1,0.1,0.1,0,0.13333
2012-09-25,0.1,0.1,0.1,0.1,0,0.13333
2012-09-26,0.11,0.11,0.11,0.11,18700,0.14667
2012-09-27,0.1,0.1,0.1,0.1,7500,0.13333
2012-09-28,0.1,0.1,0.1,0.1,0,0.13333
2012-10-01,0.1,0.1,0.1,0.1,0,0.13333
2012-10-02,0.1,0.1,0.1,0.1,0,0.13333
2012-10-03,0.1,0.1,0.1,0.1,0,0.13333
2012-10-04,0.1,0.1,0.1,0.1,0,0.13333
2012-10-05,0.1,0.1,0.1,0.1,0,0.13333
2012-10-08,0.1,0.1,0.1,0.1,0,0.13333
2012-10-09,0.1,0.1,0.1,0.1,0,0.13333
2012-10-10,0.1,0.1,0.1,0.1,3700,0.13333
2012-10-11,0.1,0.1,0.1,0.1,0,0.13333
2012-10-12,0.12,0.12,0.12,0.12,18700,0.16
2012-10-15,0.12,0.12,0.12,0.12,0,0.16
2012-10-16,0.12,0.12,0.12,0.12,0,0.16
2012-10-17,0.12,0.12,0.12,0.12,0,0.16
2012-10-18,0.12,0.12,0.12,0.12,0,0.16
2012-10-19,0.12,0.12,0.12,0.12,18700,0.16
2012-10-22,0.12,0.12,0.12,0.12,7500,0.16
2012-10-23,0.12,0.12,0.12,0.12,26200,0.16
2012-10-24,0.12,0.12,0.12,0.12,0,0.16
2012-10-25,0.12,0.12,0.12,0.12,0,0.16
2012-10-26,0.12,0.12,0.12,0.12,0,0.16
2012-10-29,0.12,0.12,0.12,0.12,0,0.16
2012-10-30,0.12,0.12,0.12,0.12,0,0.16
2012-10-31,0.12,0.12,0.12,0.12,0,0.16
2012-11-01,0.12,0.12,0.12,0.12,0,0.16
2012-11-02,0.12,0.12,0.12,0.12,0,0.16
2012-11-05,0.12,0.12,0.12,0.12,0,0.16
2012-11-06,0.12,0.12,0.12,0.12,0,0.16
2012-11-07,0.12,0.12,0.12,0.12,0,0.16
2012-11-08,0.12,0.12,0.12,0.12,0,0.16
2012-11-09,0.12,0.12,0.12,0.12,0,0.16
2012-11-12,0.12,0.12,0.12,0.12,37500,0.16
2012-11-13,0.12,0.12,0.12,0.12,0,0.16
2012-11-14,0.12,0.12,0.12,0.12,0,0.16
2012-11-15,0.12,0.12,0.12,0.12,5600,0.16
2012-11-16,0.12,0.12,0.12,0.12,0,0.16
2012-11-19,0.13,0.13,0.13,0.13,56200,0.17332999999999998
2012-11-20,0.13,0.13,0.13,0.13,0,0.17332999999999998
2012-11-21,0.13,0.13,0.13,0.13,7500,0.17332999999999998
2012-11-22,0.13,0.13,0.13,0.13,0,0.17332999999999998
2012-11-23,0.13,0.13,0.13,0.13,0,0.17332999999999998
2012-11-26,0.13,0.13,0.13,0.13,0,0.17332999999999998
2012-11-27,0.13,0.13,0.13,0.13,0,0.17332999999999998
2012-11-28,0.13,0.13,0.13,0.13,0,0.17332999999999998
2012-11-29,0.13,0.13,0.13,0.13,0,0.17332999999999998
2012-11-30,0.13,0.13,0.13,0.13,0,0.17332999999999998
2012-12-03,0.13,0.13,0.13,0.13,0,0.17332999999999998
2012-12-04,0.13,0.13,0.13,0.13,0,0.17332999999999998
2012-12-05,0.13,0.13,0.13,0.13,0,0.17332999999999998
2012-12-06,0.13,0.13,0.13,0.13,0,0.17332999999999998
2012-12-07,0.13,0.13,0.13,0.13,0,0.17332999999999998
2012-12-10,0.13,0.13,0.13,0.13,0,0.17332999999999998
2012-12-11,0.13,0.13,0.13,0.13,0,0.17332999999999998
2012-12-12,0.13,0.13,0.13,0.13,0,0.17332999999999998
2012-12-13,0.13,0.13,0.13,0.13,0,0.17332999999999998
2012-12-14,0.13,0.13,0.13,0.13,0,0.17332999999999998
2012-12-17,0.13,0.13,0.125,0.125,15000,0.16667
2012-12-18,0.125,0.125,0.125,0.125,0,0.16667
2012-12-19,0.125,0.125,0.125,0.125,0,0.16667
2012-12-20,0.155,0.19,0.155,0.175,484300,0.23333
2012-12-21,0.17,0.175,0.165,0.165,82500,0.22
2012-12-24,0.165,0.165,0.16,0.16,50500,0.21333000000000002
2012-12-25,0.16,0.16,0.16,0.16,0,0.21333000000000002
2012-12-26,0.16,0.16,0.16,0.16,0,0.21333000000000002
2012-12-27,0.16,0.16,0.16,0.16,3700,0.21333000000000002
2012-12-28,0.18,0.19,0.18,0.18,69200,0.24
2012-12-31,0.18,0.18,0.18,0.18,0,0.24
2013-01-01,0.18,0.18,0.18,0.18,0,0.24
2013-01-02,0.18,0.18,0.18,0.18,0,0.24
2013-01-03,0.18,0.18,0.18,0.18,0,0.24
2013-01-04,0.18,0.18,0.18,0.18,0,0.24
2013-01-07,0.18,0.18,0.18,0.18,0,0.24
2013-01-08,0.18,0.18,0.18,0.18,162300,0.24
2013-01-09,0.18,0.18,0.18,0.18,0,0.24
2013-01-10,0.18,0.19,0.18,0.19,153800,0.25333
2013-01-11,0.185,0.185,0.185,0.185,1900,0.24666999999999997
2013-01-14,0.185,0.19,0.185,0.185,470500,0.24666999999999997
2013-01-15,0.185,0.185,0.185,0.185,75000,0.24666999999999997
2013-01-16,0.185,0.185,0.185,0.185,0,0.24666999999999997
2013-01-17,0.18,0.185,0.18,0.185,204400,0.24666999999999997
2013-01-18,0.185,0.185,0.185,0.185,0,0.24666999999999997
2013-01-21,0.185,0.19,0.18,0.19,67500,0.25333
2013-01-22,0.19,0.19,0.19,0.19,0,0.25333
2013-01-24,0.19,0.19,0.19,0.19,0,0.19
2013-01-25,0.19,0.19,0.19,0.19,0,0.19
2013-01-28,0.19,0.19,0.19,0.19,0,0.19
2013-01-29,0.19,0.19,0.19,0.19,0,0.19
2013-01-30,0.19,0.19,0.19,0.19,0,0.19
2013-01-31,0.19,0.19,0.19,0.19,0,0.19
2013-02-01,0.19,0.19,0.19,0.19,0,0.19
2013-02-04,0.19,0.19,0.19,0.19,0,0.19
2013-02-05,0.19,0.19,0.19,0.19,0,0.19
2013-02-06,0.19,0.19,0.19,0.19,0,0.19
2013-02-07,0.19,0.19,0.19,0.19,0,0.19
2013-02-08,0.19,0.19,0.19,0.19,0,0.19
2013-02-11,0.19,0.19,0.19,0.19,0,0.19
2013-02-12,0.19,0.19,0.19,0.19,0,0.19
2013-02-13,0.19,0.19,0.19,0.19,0,0.19
2013-02-14,0.19,0.19,0.19,0.19,0,0.19
2013-02-15,0.19,0.19,0.19,0.19,0,0.19
2013-02-18,0.19,0.19,0.19,0.19,0,0.19
2013-02-19,0.19,0.19,0.19,0.19,0,0.19
2013-02-20,0.19,0.19,0.19,0.19,0,0.19
2013-02-21,0.19,0.19,0.19,0.19,0,0.19
2013-02-22,0.19,0.19,0.19,0.19,0,0.19
2013-02-25,0.19,0.19,0.19,0.19,0,0.19
2013-02-26,0.19,0.19,0.19,0.19,0,0.19
2013-02-27,0.19,0.19,0.19,0.19,0,0.19
2013-02-28,0.19,0.19,0.19,0.19,0,0.19
2013-03-01,0.19,0.19,0.19,0.19,0,0.19
2013-03-04,0.19,0.19,0.19,0.19,0,0.19
2013-03-05,0.19,0.19,0.19,0.19,0,0.19
2013-03-06,0.19,0.19,0.19,0.19,0,0.19
2013-03-07,0.19,0.19,0.19,0.19,0,0.19
2013-03-08,0.19,0.19,0.19,0.19,0,0.19
2013-03-11,0.19,0.19,0.19,0.19,0,0.19
2013-03-12,0.19,0.19,0.19,0.19,0,0.19
2013-03-13,0.19,0.19,0.19,0.19,0,0.19
2013-03-14,0.22,0.23,0.19,0.195,1400000,0.195
2013-03-15,0.2,0.2,0.195,0.195,202500,0.195
2013-03-18,0.2,0.2,0.195,0.195,392600,0.195
2013-03-19,0.2,0.2,0.19,0.19,414200,0.19
2013-03-20,0.19,0.19,0.19,0.19,0,0.19
2013-03-21,0.195,0.195,0.195,0.195,4600,0.195
2013-03-22,0.195,0.2,0.195,0.195,100000,0.195
2013-03-25,0.195,0.195,0.195,0.195,0,0.195
2013-03-26,0.19,0.2,0.19,0.2,150000,0.2
2013-03-27,0.2,0.2,0.2,0.2,160000,0.2
2013-03-28,0.2,0.2,0.2,0.2,442500,0.2
2013-03-29,0.2,0.2,0.2,0.2,0,0.2
2013-04-01,0.2,0.2,0.2,0.2,0,0.2
2013-04-02,0.2,0.2,0.2,0.2,0,0.2
2013-04-03,0.195,0.195,0.185,0.185,406300,0.185
2013-04-04,0.185,0.185,0.185,0.185,99200,0.185
2013-04-05,0.19,0.19,0.19,0.19,50000,0.19
2013-04-08,0.185,0.185,0.185,0.185,700,0.185
2013-04-09,0.185,0.185,0.185,0.185,0,0.185
2013-04-10,0.185,0.19,0.185,0.19,100000,0.19
2013-04-11,0.185,0.185,0.18,0.185,365500,0.185
2013-04-12,0.19,0.19,0.185,0.19,286900,0.19
2013-04-15,0.185,0.185,0.18,0.18,87500,0.18
2013-04-16,0.175,0.175,0.175,0.175,4000,0.175
2013-04-17,0.175,0.175,0.175,0.175,0,0.175
2013-04-18,0.175,0.175,0.175,0.175,0,0.175
2013-04-19,0.175,0.175,0.175,0.175,0,0.175
2013-04-22,0.175,0.175,0.175,0.175,0,0.175
2013-04-23,0.175,0.175,0.175,0.175,0,0.175
2013-04-24,0.16,0.175,0.16,0.16,102200,0.16
2013-04-25,0.16,0.16,0.16,0.16,0,0.16
2013-04-26,0.17,0.17,0.155,0.155,107000,0.155
2013-04-29,0.15,0.15,0.15,0.15,20000,0.15
2013-04-30,0.15,0.15,0.15,0.15,0,0.15
2013-05-01,0.15,0.15,0.15,0.15,0,0.15
2013-05-02,0.15,0.15,0.15,0.15,0,0.15
2013-05-03,0.13,0.13,0.13,0.13,150000,0.13
2013-05-06,0.12,0.12,0.11,0.11,360000,0.11
2013-05-07,0.11,0.11,0.095,0.095,375000,0.095
2013-05-08,0.1,0.11,0.1,0.1,522500,0.1
2013-05-09,0.11,0.11,0.11,0.11,20000,0.11
2013-05-10,0.12,0.12,0.11,0.11,872600,0.11
2013-05-13,0.11,0.11,0.11,0.11,0,0.11
2013-05-14,0.11,0.11,0.11,0.11,0,0.11
2013-05-15,0.12,0.12,0.12,0.12,100000,0.12
2013-05-16,0.12,0.12,0.12,0.12,200000,0.12
2013-05-17,0.12,0.12,0.12,0.12,0,0.12
2013-05-20,0.115,0.115,0.11,0.11,231200,0.11
2013-05-21,0.11,0.11,0.11,0.11,20000,0.11
2013-05-22,0.11,0.11,0.11,0.11,88000,0.11
2013-05-23,0.11,0.11,0.105,0.11,309300,0.11
2013-05-24,0.11,0.11,0.11,0.11,218100,0.11
2013-05-27,0.105,0.105,0.105,0.105,9300,0.105
2013-05-28,0.105,0.105,0.1,0.1,1013300,0.1
2013-05-29,0.095,0.11,0.095,0.11,24100,0.11
2013-05-30,0.11,0.11,0.11,0.11,200000,0.11
2013-05-31,0.11,0.11,0.11,0.11,62500,0.11
2013-06-03,0.11,0.11,0.11,0.11,0,0.11
2013-06-04,0.098,0.1,0.098,0.1,261200,0.1
2013-06-05,0.098,0.1,0.098,0.1,167500,0.1
2013-06-06,0.1,0.1,0.1,0.1,11200,0.1
2013-06-07,0.1,0.1,0.1,0.1,0,0.1
2013-06-10,0.1,0.1,0.1,0.1,0,0.1
2013-06-11,0.1,0.1,0.1,0.1,19500,0.1
2013-06-12,0.105,0.105,0.095,0.095,125000,0.095
2013-06-13,0.1,0.1,0.1,0.1,93200,0.1
2013-06-14,0.1,0.1,0.1,0.1,0,0.1
2013-06-17,0.1,0.1,0.1,0.1,0,0.1
2013-06-18,0.1,0.1,0.1,0.1,0,0.1
2013-06-19,0.1,0.1,0.1,0.1,0,0.1
2013-06-20,0.1,0.1,0.1,0.1,50000,0.1
2013-06-21,0.1,0.1,0.095,0.095,36900,0.095
2013-06-24,0.09,0.09,0.09,0.09,3000,0.09
2013-06-25,0.09,0.09,0.09,0.09,0,0.09
2013-06-26,0.11,0.11,0.11,0.11,110000,0.11
2013-06-27,0.11,0.11,0.11,0.11,0,0.11
2013-06-28,0.09,0.09,0.09,0.09,150000,0.09
2013-07-01,0.09,0.09,0.09,0.09,0,0.09
2013-07-02,0.095,0.095,0.095,0.095,100000,0.095
2013-07-03,0.095,0.095,0.095,0.095,0,0.095
2013-07-04,0.095,0.095,0.09,0.09,47500,0.09
2013-07-05,0.08,0.08,0.08,0.08,202400,0.08
2013-07-08,0.08,0.08,0.08,0.08,0,0.08
2013-07-09,0.08,0.08,0.08,0.08,200000,0.08
2013-07-10,0.08,0.08,0.08,0.08,0,0.08
2013-07-11,0.08,0.08,0.08,0.08,0,0.08
2013-07-12,0.08,0.08,0.08,0.08,0,0.08
2013-07-15,0.08,0.08,0.08,0.08,9300,0.08
2013-07-16,0.08,0.08,0.08,0.08,0,0.08
2013-07-17,0.085,0.085,0.085,0.085,11200,0.085
2013-07-18,0.085,0.085,0.085,0.085,0,0.085
2013-07-19,0.085,0.085,0.085,0.085,0,0.085
2013-07-22,0.085,0.085,0.085,0.085,0,0.085
2013-07-23,0.095,0.095,0.095,0.095,100000,0.095
2013-07-24,0.095,0.095,0.09,0.09,77500,0.09
2013-07-25,0.09,0.09,0.08,0.08,195200,0.08
2013-07-26,0.09,0.09,0.085,0.085,100000,0.085
2013-07-29,0.08199999999999999,0.08199999999999999,0.08,0.08199999999999999,14100,0.08199999999999999
2013-07-30,0.08199999999999999,0.08199999999999999,0.08199999999999999,0.08199999999999999,43800,0.08199999999999999
2013-07-31,0.08199999999999999,0.08199999999999999,0.08199999999999999,0.08199999999999999,0,0.08199999999999999
2013-08-01,0.08199999999999999,0.08199999999999999,0.08199999999999999,0.08199999999999999,0,0.08199999999999999
2013-08-02,0.08199999999999999,0.08199999999999999,0.08199999999999999,0.08199999999999999,0,0.08199999999999999
2013-08-05,0.08,0.08,0.07,0.08,380000,0.08
2013-08-06,0.07,0.07,0.07,0.07,100000,0.07
2013-08-07,0.062,0.066,0.062,0.062,37500,0.062
2013-08-08,0.07,0.07,0.07,0.07,1004600,0.07
2013-08-09,0.07,0.07,0.07,0.07,4600,0.07
2013-08-12,0.07,0.07,0.07,0.07,0,0.07
2013-08-13,0.07,0.07,0.07,0.07,0,0.07
2013-08-14,0.075,0.075,0.075,0.075,100000,0.075
2013-08-15,0.071,0.071,0.071,0.071,18700,0.071
2013-08-16,0.071,0.071,0.071,0.071,0,0.071
2013-08-19,0.071,0.071,0.071,0.071,0,0.071
2013-08-20,0.07400000000000001,0.07400000000000001,0.073,0.073,38700,0.073
2013-08-21,0.079,0.08,0.079,0.08,115500,0.08
2013-08-22,0.08,0.08,0.08,0.08,0,0.08
2013-08-23,0.08,0.08,0.079,0.079,7500,0.079
2013-08-26,0.079,0.079,0.079,0.079,0,0.079
2013-08-27,0.079,0.079,0.078,0.078,29800,0.078
2013-08-28,0.08,0.08,0.08,0.08,57000,0.08
2013-08-29,0.08,0.08,0.08,0.08,120000,0.08
2013-08-30,0.08,0.08,0.08,0.08,126000,0.08
2013-09-02,0.08,0.08,0.08,0.08,0,0.08
2013-09-03,0.08,0.08,0.08,0.08,0,0.08
2013-09-04,0.08,0.08,0.08,0.08,0,0.08
2013-09-05,0.08,0.08,0.08,0.08,323900,0.08
2013-09-06,0.08,0.08,0.08,0.08,0,0.08
2013-09-09,0.08,0.08,0.08,0.08,0,0.08
2013-09-10,0.085,0.085,0.085,0.085,100000,0.085
2013-09-11,0.08,0.08,0.08,0.08,22500,0.08
2013-09-12,0.08,0.08,0.08,0.08,0,0.08
2013-09-13,0.08,0.08,0.08,0.08,0,0.08
2013-09-16,0.08,0.08,0.08,0.08,0,0.08
2013-09-17,0.08,0.08,0.08,0.08,0,0.08
2013-09-18,0.08,0.08,0.08,0.08,0,0.08
2013-09-19,0.084,0.084,0.084,0.084,15000,0.084
2013-09-20,0.08,0.08,0.08,0.08,57500,0.08
2013-09-23,0.08,0.08,0.08,0.08,0,0.08
2013-09-24,0.08,0.08,0.08,0.08,0,0.08
2013-09-25,0.08,0.08,0.08,0.08,0,0.08
2013-09-26,0.08,0.08,0.08,0.08,99900,0.08
2013-09-27,0.08,0.08,0.08,0.08,0,0.08
2013-09-30,0.08,0.08,0.08,0.08,0,0.08
2013-10-01,0.08,0.08,0.08,0.08,0,0.08
2013-10-02,0.08,0.08,0.08,0.08,0,0.08
2013-10-03,0.08,0.08,0.078,0.078,49800,0.078
2013-10-04,0.078,0.078,0.077,0.077,50000,0.077
2013-10-07,0.077,0.077,0.077,0.077,0,0.077
2013-10-08,0.077,0.077,0.077,0.077,0,0.077
2013-10-09,0.077,0.077,0.076,0.076,45000,0.076
2013-10-10,0.076,0.076,0.076,0.076,0,0.076
2013-10-11,0.076,0.076,0.075,0.075,7500,0.075
2013-10-14,0.075,0.075,0.075,0.075,0,0.075
2013-10-15,0.075,0.075,0.075,0.075,0,0.075
2013-10-16,0.075,0.075,0.075,0.075,50000,0.075
2013-10-17,0.075,0.075,0.075,0.075,0,0.075
2013-10-18,0.075,0.075,0.075,0.075,0,0.075
2013-10-21,0.075,0.075,0.075,0.075,18700,0.075
2013-10-22,0.075,0.075,0.075,0.075,0,0.075
2013-10-23,0.075,0.075,0.075,0.075,0,0.075
2013-10-24,0.075,0.075,0.075,0.075,0,0.075
2013-10-25,0.075,0.075,0.075,0.075,1550000,0.075
2013-10-28,0.075,0.075,0.075,0.075,0,0.075
2013-10-29,0.075,0.075,0.075,0.075,0,0.075
2013-10-30,0.075,0.075,0.075,0.075,30000,0.075
2013-10-31,0.075,0.075,0.075,0.075,0,0.075
2013-11-01,0.075,0.075,0.075,0.075,0,0.075
2013-11-04,0.075,0.075,0.075,0.075,97500,0.075
2013-11-05,0.073,0.073,0.071,0.071,100000,0.071
2013-11-06,0.071,0.071,0.071,0.071,0,0.071
2013-11-07,0.071,0.071,0.071,0.071,0,0.071
2013-11-08,0.071,0.071,0.07,0.07,75000,0.07
2013-11-11,0.07,0.07,0.07,0.07,18700,0.07
2013-11-12,0.07,0.07,0.07,0.07,0,0.07
2013-11-13,0.07,0.07,0.07,0.07,337500,0.07
2013-11-14,0.07,0.07,0.07,0.07,0,0.07
2013-11-15,0.07,0.07,0.07,0.07,0,0.07
2013-11-18,0.07,0.07,0.07,0.07,0,0.07
2013-11-19,0.06,0.065,0.06,0.065,20000,0.065
2013-11-20,0.07,0.07,0.065,0.07,142500,0.07
2013-11-21,0.075,0.075,0.075,0.075,100000,0.075
2013-11-22,0.075,0.075,0.075,0.075,0,0.075
2013-11-25,0.075,0.075,0.075,0.075,0,0.075
2013-11-26,0.075,0.075,0.075,0.075,0,0.075
2013-11-27,0.075,0.075,0.075,0.075,0,0.075
2013-11-28,0.075,0.075,0.075,0.075,0,0.075
2013-11-29,0.075,0.075,0.075,0.075,0,0.075
2013-12-02,0.075,0.075,0.075,0.075,0,0.075
2013-12-03,0.075,0.075,0.075,0.075,0,0.075
2013-12-04,0.075,0.075,0.075,0.075,0,0.075
2013-12-05,0.075,0.075,0.075,0.075,0,0.075
2013-12-06,0.075,0.075,0.075,0.075,0,0.075
2013-12-09,0.075,0.075,0.075,0.075,0,0.075
2013-12-10,0.075,0.075,0.075,0.075,0,0.075
2013-12-11,0.075,0.075,0.075,0.075,0,0.075
2013-12-12,0.068,0.068,0.068,0.068,18700,0.068
2013-12-13,0.068,0.068,0.068,0.068,75000,0.068
2013-12-16,0.068,0.068,0.068,0.068,0,0.068
2013-12-17,0.068,0.068,0.068,0.068,0,0.068
2013-12-18,0.068,0.068,0.068,0.068,0,0.068
2013-12-19,0.068,0.068,0.068,0.068,0,0.068
2013-12-20,0.068,0.068,0.068,0.068,0,0.068
2013-12-23,0.068,0.068,0.068,0.068,0,0.068
2013-12-24,0.068,0.068,0.068,0.068,0,0.068
2013-12-25,0.068,0.068,0.068,0.068,0,0.068
2013-12-26,0.068,0.068,0.068,0.068,0,0.068
2013-12-27,0.068,0.068,0.068,0.068,0,0.068
2013-12-30,0.068,0.068,0.068,0.068,0,0.068
2013-12-31,0.068,0.068,0.068,0.068,0,0.068
2014-01-01,0.068,0.068,0.068,0.068,0,0.068
2014-01-02,0.068,0.068,0.068,0.068,0,0.068
2014-01-03,0.068,0.068,0.068,0.068,0,0.068
2014-01-06,0.068,0.068,0.068,0.068,0,0.068
2014-01-07,0.068,0.068,0.068,0.068,0,0.068
2014-01-08,0.068,0.068,0.068,0.068,0,0.068
2014-01-09,0.068,0.068,0.068,0.068,0,0.068
2014-01-10,0.068,0.068,0.068,0.068,0,0.068
2014-01-13,0.068,0.068,0.068,0.068,0,0.068
2014-01-14,0.068,0.068,0.068,0.068,37500,0.068
2014-01-15,0.068,0.068,0.068,0.068,12500,0.068
2014-01-16,0.068,0.068,0.068,0.068,25000,0.068
2014-01-17,0.068,0.068,0.068,0.068,0,0.068
2014-01-20,0.068,0.068,0.068,0.068,0,0.068
2014-01-21,0.066,0.066,0.066,0.066,120000,0.066
2014-01-22,0.066,0.066,0.066,0.066,0,0.066
2014-01-23,0.065,0.08,0.065,0.08,1354900,0.08
2014-01-24,0.08,0.08,0.08,0.08,0,0.08
2014-01-27,0.08,0.08,0.08,0.08,0,0.08
2014-01-28,0.08,0.08,0.08,0.08,0,0.08
2014-01-29,0.08,0.08,0.08,0.08,0,0.08
2014-01-30,0.08,0.08,0.08,0.08,0,0.08
2014-01-31,0.08,0.08,0.08,0.08,0,0.08
2014-02-03,0.08,0.08,0.08,0.08,0,0.08
2014-02-04,0.08,0.08,0.08,0.08,0,0.08
2014-02-05,0.08,0.08,0.08,0.08,0,0.08
2014-02-06,0.08,0.08,0.08,0.08,0,0.08
2014-02-07,0.08,0.08,0.08,0.08,0,0.08
2014-02-10,0.08,0.08,0.08,0.08,0,0.08
2014-02-11,0.08,0.08,0.08,0.08,0,0.08
2014-02-12,0.08,0.08,0.08,0.08,0,0.08
2014-02-13,0.08,0.08,0.08,0.08,0,0.08
2014-02-14,0.08,0.08,0.08,0.08,0,0.08
2014-02-17,0.08,0.08,0.08,0.08,0,0.08
2014-02-18,0.08,0.08,0.08,0.08,0,0.08
2014-02-19,0.08,0.08,0.08,0.08,0,0.08
2014-02-20,0.08,0.08,0.08,0.08,0,0.08
2014-02-21,0.08,0.08,0.08,0.08,0,0.08
2014-02-24,0.07,0.071,0.07,0.071,320000,0.071
2014-02-25,0.07,0.07,0.07,0.07,307500,0.07
2014-02-26,0.07200000000000001,0.07200000000000001,0.07200000000000001,0.07200000000000001,50000,0.07200000000000001
2014-02-27,0.07200000000000001,0.07200000000000001,0.07200000000000001,0.07200000000000001,0,0.07200000000000001
2014-02-28,0.07200000000000001,0.07200000000000001,0.07200000000000001,0.07200000000000001,0,0.07200000000000001
2014-03-03,0.07200000000000001,0.07200000000000001,0.07200000000000001,0.07200000000000001,0,0.07200000000000001
2014-03-04,0.073,0.073,0.071,0.071,100000,0.071
2014-03-05,0.071,0.071,0.071,0.071,0,0.071
2014-03-06,0.071,0.071,0.071,0.071,0,0.071
2014-03-07,0.07,0.07,0.07,0.07,25000,0.07
2014-03-10,0.07,0.07,0.07,0.07,0,0.07
2014-03-11,0.07,0.07,0.07,0.07,0,0.07
2014-03-12,0.07,0.07,0.07,0.07,0,0.07
2014-03-13,0.075,0.075,0.075,0.075,35000,0.075
2014-03-14,0.075,0.075,0.075,0.075,0,0.075
2014-03-17,0.075,0.075,0.075,0.075,0,0.075
2014-03-18,0.075,0.075,0.075,0.075,0,0.075
2014-03-19,0.068,0.068,0.068,0.068,50000,0.068
2014-03-20,0.068,0.068,0.068,0.068,0,0.068
2014-03-21,0.07,0.07,0.07,0.07,305000,0.07
2014-03-24,0.07,0.07,0.07,0.07,18700,0.07
2014-03-25,0.07,0.07,0.07,0.07,0,0.07
2014-03-26,0.07,0.07,0.07,0.07,0,0.07
2014-03-27,0.07,0.07,0.07,0.07,0,0.07
2014-03-28,0.07,0.07,0.07,0.07,0,0.07
2014-03-31,0.07,0.07,0.07,0.07,0,0.07
2014-04-01,0.075,0.075,0.075,0.075,60000,0.075
2014-04-02,0.075,0.075,0.075,0.075,0,0.075
2014-04-03,0.075,0.075,0.075,0.075,0,0.075
2014-04-04,0.075,0.075,0.075,0.075,0,0.075
2014-04-07,0.075,0.075,0.075,0.075,0,0.075
2014-04-08,0.075,0.075,0.075,0.075,0,0.075
2014-04-09,0.075,0.075,0.075,0.075,0,0.075
2014-04-10,0.075,0.075,0.075,0.075,0,0.075
2014-04-11,0.075,0.075,0.075,0.075,5100,0.075
2014-04-14,0.075,0.075,0.075,0.075,0,0.075
2014-04-15,0.075,0.075,0.075,0.075,0,0.075
2014-04-16,0.075,0.075,0.075,0.075,18700,0.075
2014-04-17,0.075,0.08,0.075,0.08,66100,0.08
2014-04-18,0.08,0.08,0.08,0.08,0,0.08
2014-04-21,0.08,0.08,0.08,0.08,0,0.08
2014-04-22,0.08,0.08,0.08,0.08,0,0.08
2014-04-23,0.08,0.08,0.08,0.08,0,0.08
2014-04-24,0.09,0.09,0.09,0.09,150000,0.09
2014-04-25,0.09,0.09,0.09,0.09,0,0.09
2014-04-28,0.09,0.09,0.09,0.09,0,0.09
2014-04-29,0.09,0.09,0.09,0.09,0,0.09
2014-04-30,0.08,0.08,0.08,0.08,50000,0.08
2014-05-01,0.08,0.08,0.08,0.08,0,0.08
2014-05-02,0.08,0.08,0.08,0.08,0,0.08
2014-05-05,0.08,0.08,0.08,0.08,0,0.08
2014-05-06,0.08,0.08,0.08,0.08,0,0.08
2014-05-07,0.08,0.08,0.08,0.08,0,0.08
2014-05-08,0.08,0.08,0.08,0.08,0,0.08
2014-05-09,0.08,0.08,0.08,0.08,0,0.08
2014-05-12,0.08,0.08,0.08,0.08,0,0.08
2014-05-13,0.08,0.08,0.08,0.08,0,0.08
2014-05-14,0.08,0.08,0.08,0.08,0,0.08
2014-05-15,0.08,0.08,0.08,0.08,0,0.08
2014-05-16,0.079,0.079,0.079,0.079,169900,0.079
2014-05-19,0.07,0.07,0.07,0.07,135000,0.07
2014-05-20,0.07,0.07,0.07,0.07,0,0.07
2014-05-21,0.065,0.065,0.065,0.065,50000,0.065
2014-05-22,0.065,0.065,0.065,0.065,0,0.065
2014-05-23,0.06,0.06,0.06,0.06,137500,0.06
2014-05-26,0.06,0.06,0.06,0.06,0,0.06
2014-05-27,0.057999999999999996,0.06,0.057,0.06,225000,0.06
2014-05-28,0.06,0.06,0.06,0.06,0,0.06
2014-05-29,0.055,0.055,0.055,0.055,50000,0.055
2014-05-30,0.055,0.055,0.055,0.055,0,0.055
2014-06-02,0.055,0.055,0.055,0.055,0,0.055
2014-06-03,0.052000000000000005,0.052000000000000005,0.052000000000000005,0.052000000000000005,120000,0.052000000000000005
2014-06-04,0.052000000000000005,0.052000000000000005,0.052000000000000005,0.052000000000000005,105000,0.052000000000000005
2014-06-05,0.052000000000000005,0.052000000000000005,0.052000000000000005,0.052000000000000005,0,0.052000000000000005
2014-06-06,0.052000000000000005,0.052000000000000005,0.052000000000000005,0.052000000000000005,32000,0.052000000000000005
2014-06-09,0.052000000000000005,0.052000000000000005,0.052000000000000005,0.052000000000000005,0,0.052000000000000005
2014-06-10,0.053,0.0545,0.053,0.054000000000000006,71200,0.054000000000000006
2014-06-11,0.055,0.055,0.055,0.055,1936000,0.055
2014-06-12,0.055999999999999994,0.055999999999999994,0.054000000000000006,0.054000000000000006,58700,0.054000000000000006
2014-06-13,0.054000000000000006,0.054000000000000006,0.054000000000000006,0.054000000000000006,31200,0.054000000000000006
2014-06-16,0.053,0.053,0.053,0.053,7500,0.053
2014-06-17,0.053,0.053,0.053,0.053,35000,0.053
2014-06-18,0.054000000000000006,0.054000000000000006,0.054000000000000006,0.054000000000000006,6200,0.054000000000000006
2014-06-19,0.055,0.055,0.054000000000000006,0.055,1711300,0.055
2014-06-20,0.055,0.055,0.055,0.055,4000000,0.055
2014-06-23,0.055,0.055,0.055,0.055,150000,0.055
2014-06-24,0.055,0.055,0.055,0.055,0,0.055
2014-06-25,0.055,0.055,0.055,0.055,0,0.055
2014-06-26,0.057,0.057,0.057,0.057,15000,0.057
2014-06-27,0.057,0.057,0.057,0.057,0,0.057
2014-06-30,0.057,0.057,0.057,0.057,330000,0.057
2014-07-01,0.057,0.057,0.057,0.057,0,0.057
2014-07-02,0.059000000000000004,0.059000000000000004,0.057999999999999996,0.057999999999999996,48700,0.057999999999999996
2014-07-03,0.057999999999999996,0.057999999999999996,0.057999999999999996,0.057999999999999996,0,0.057999999999999996
2014-07-04,0.06,0.06,0.06,0.06,100000,0.06
2014-07-07,0.06,0.06,0.06,0.06,0,0.06
2014-07-08,0.06,0.06,0.06,0.06,0,0.06
2014-07-09,0.057,0.057,0.057,0.057,100000,0.057
2014-07-10,0.057,0.057,0.057,0.057,0,0.057
2014-07-11,0.057,0.057,0.057,0.057,0,0.057
2014-07-14,0.057,0.057,0.057,0.057,0,0.057
2014-07-15,0.057999999999999996,0.057999999999999996,0.057999999999999996,0.057999999999999996,30000,0.057999999999999996
2014-07-16,0.06,0.06,0.057999999999999996,0.057999999999999996,107500,0.057999999999999996
2014-07-17,0.057999999999999996,0.057999999999999996,0.057999999999999996,0.057999999999999996,0,0.057999999999999996
2014-07-18,0.057999999999999996,0.057999999999999996,0.057999999999999996,0.057999999999999996,0,0.057999999999999996
2014-07-21,0.057999999999999996,0.057999999999999996,0.057999999999999996,0.057999999999999996,0,0.057999999999999996
2014-07-22,0.057999999999999996,0.057999999999999996,0.057999999999999996,0.057999999999999996,0,0.057999999999999996
2014-07-23,0.061,0.061,0.06,0.06,100000,0.06
2014-07-24,0.06,0.06,0.06,0.06,90000,0.06
2014-07-25,0.06,0.06,0.06,0.06,0,0.06
2014-07-28,0.06,0.06,0.06,0.06,0,0.06
2014-07-29,0.06,0.06,0.06,0.06,75000,0.06
2014-07-30,0.065,0.065,0.065,0.065,100000,0.065
2014-07-31,0.065,0.065,0.065,0.065,100000,0.065
2014-08-01,0.061,0.061,0.061,0.061,18700,0.061
2014-08-04,0.061,0.061,0.061,0.061,0,0.061
2014-08-05,0.064,0.065,0.064,0.065,207500,0.065
2014-08-06,0.065,0.065,0.065,0.065,200000,0.065
2014-08-07,0.065,0.065,0.065,0.065,63700,0.065
2014-08-08,0.065,0.07,0.065,0.065,72400,0.065
2014-08-11,0.065,0.065,0.065,0.065,0,0.065
2014-08-12,0.065,0.065,0.065,0.065,19900,0.065
2014-08-13,0.065,0.065,0.065,0.065,0,0.065
2014-08-14,0.065,0.065,0.065,0.065,0,0.065
2014-08-15,0.065,0.065,0.065,0.065,0,0.065
2014-08-18,0.065,0.065,0.065,0.065,115300,0.065
2014-08-19,0.065,0.065,0.065,0.065,0,0.065
2014-08-20,0.065,0.065,0.065,0.065,0,0.065
2014-08-21,0.061,0.061,0.061,0.061,20000,0.061
2014-08-22,0.061,0.061,0.061,0.061,0,0.061
2014-08-25,0.061,0.061,0.061,0.061,0,0.061
2014-08-26,0.061,0.061,0.061,0.061,0,0.061
2014-08-27,0.061,0.062,0.061,0.061,547200,0.061
2014-08-28,0.061,0.061,0.061,0.061,0,0.061
2014-08-29,0.061,0.061,0.061,0.061,0,0.061
2014-09-01,0.062,0.062,0.061,0.061,311200,0.061
2014-09-02,0.063,0.063,0.062,0.063,295400,0.063
2014-09-03,0.063,0.063,0.063,0.063,0,0.063
2014-09-04,0.063,0.063,0.063,0.063,45000,0.063
2014-09-05,0.063,0.063,0.063,0.063,0,0.063
2014-09-08,0.063,0.063,0.063,0.063,0,0.063
2014-09-09,0.063,0.063,0.063,0.063,0,0.063
2014-09-10,0.063,0.063,0.063,0.063,0,0.063
2014-09-11,0.063,0.063,0.063,0.063,0,0.063
2014-09-12,0.062,0.062,0.062,0.062,136200,0.062
2014-09-15,0.062,0.062,0.062,0.062,0,0.062
2014-09-16,0.063,0.063,0.063,0.063,250000,0.063
2014-09-17,0.063,0.063,0.063,0.063,0,0.063
2014-09-18,0.063,0.063,0.063,0.063,0,0.063
2014-09-19,0.062,0.062,0.062,0.062,11200,0.062
2014-09-22,0.062,0.062,0.062,0.062,182500,0.062
2014-09-23,0.062,0.062,0.061,0.061,70000,0.061
2014-09-24,0.061,0.061,0.061,0.061,0,0.061
2014-09-25,0.061,0.061,0.061,0.061,190000,0.061
2014-09-26,0.061,0.061,0.061,0.061,0,0.061
2014-09-29,0.06,0.06,0.06,0.06,100000,0.06
2014-09-30,0.06,0.06,0.06,0.06,0,0.06
2014-10-01,0.06,0.06,0.06,0.06,0,0.06
2014-10-02,0.06,0.06,0.06,0.06,0,0.06
2014-10-03,0.06,0.06,0.06,0.06,0,0.06
2014-10-06,0.06,0.06,0.06,0.06,0,0.06
2014-10-07,0.06,0.06,0.06,0.06,0,0.06
2014-10-08,0.06,0.06,0.06,0.06,0,0.06
2014-10-09,0.06,0.06,0.06,0.06,0,0.06
2014-10-10,0.06,0.06,0.06,0.06,0,0.06
2014-10-13,0.06,0.06,0.06,0.06,0,0.06
2014-10-14,0.06,0.06,0.06,0.06,0,0.06
2014-10-15,0.06,0.06,0.06,0.06,0,0.06
2014-10-16,0.06,0.06,0.06,0.06,0,0.06
2014-10-17,0.06,0.06,0.06,0.06,0,0.06
2014-10-20,0.06,0.06,0.06,0.06,0,0.06
2014-10-21,0.06,0.06,0.06,0.06,0,0.06
2014-10-22,0.06,0.06,0.06,0.06,0,0.06
2014-10-23,0.06,0.06,0.06,0.06,0,0.06
2014-10-24,0.06,0.06,0.06,0.06,0,0.06
2014-10-27,0.06,0.06,0.06,0.06,0,0.06
2014-10-28,0.06,0.06,0.06,0.06,0,0.06
2014-10-29,0.06,0.06,0.06,0.06,0,0.06
2014-10-30,0.06,0.06,0.06,0.06,0,0.06
2014-10-31,0.055,0.055,0.055,0.055,18700,0.055
2014-11-03,0.055,0.055,0.055,0.055,0,0.055
2014-11-04,0.055,0.055,0.055,0.055,100000,0.055
2014-11-05,0.055,0.055,0.055,0.055,100000,0.055
2014-11-06,0.055,0.055,0.055,0.055,0,0.055
2014-11-07,0.053,0.053,0.053,0.053,7500,0.053
2014-11-10,0.053,0.053,0.053,0.053,0,0.053
2014-11-11,0.053,0.053,0.053,0.053,0,0.053
2014-11-12,0.059000000000000004,0.059000000000000004,0.059000000000000004,0.059000000000000004,16500,0.059000000000000004
2014-11-13,0.059000000000000004,0.059000000000000004,0.059000000000000004,0.059000000000000004,0,0.059000000000000004
2014-11-14,0.059000000000000004,0.059000000000000004,0.059000000000000004,0.059000000000000004,0,0.059000000000000004
2014-11-17,0.057999999999999996,0.057999999999999996,0.057,0.057,275000,0.057
2014-11-18,0.057,0.057,0.057,0.057,0,0.057
2014-11-19,0.057,0.057,0.057,0.057,0,0.057
2014-11-20,0.052000000000000005,0.052000000000000005,0.052000000000000005,0.052000000000000005,6200,0.052000000000000005
2014-11-21,0.052000000000000005,0.052000000000000005,0.052000000000000005,0.052000000000000005,0,0.052000000000000005
2014-11-24,0.052000000000000005,0.052000000000000005,0.052000000000000005,0.052000000000000005,0,0.052000000000000005
2014-11-25,0.052000000000000005,0.052000000000000005,0.052000000000000005,0.052000000000000005,0,0.052000000000000005
2014-11-26,0.052000000000000005,0.052000000000000005,0.052000000000000005,0.052000000000000005,7500,0.052000000000000005
2014-11-27,0.052000000000000005,0.052000000000000005,0.052000000000000005,0.052000000000000005,0,0.052000000000000005
2014-11-28,0.053,0.053,0.053,0.053,73200,0.053
2014-12-01,0.053,0.053,0.053,0.053,0,0.053
2014-12-02,0.053,0.053,0.052000000000000005,0.052000000000000005,163000,0.052000000000000005
2014-12-03,0.052000000000000005,0.052000000000000005,0.052000000000000005,0.052000000000000005,0,0.052000000000000005
2014-12-04,0.052000000000000005,0.052000000000000005,0.052000000000000005,0.052000000000000005,0,0.052000000000000005
2014-12-05,0.052000000000000005,0.052000000000000005,0.052000000000000005,0.052000000000000005,0,0.052000000000000005
2014-12-08,0.052000000000000005,0.052000000000000005,0.052000000000000005,0.052000000000000005,0,0.052000000000000005
2014-12-09,0.052000000000000005,0.052000000000000005,0.052000000000000005,0.052000000000000005,0,0.052000000000000005
2014-12-10,0.052000000000000005,0.052000000000000005,0.052000000000000005,0.052000000000000005,0,0.052000000000000005
2014-12-11,0.052000000000000005,0.052000000000000005,0.052000000000000005,0.052000000000000005,0,0.052000000000000005
2014-12-12,0.052000000000000005,0.052000000000000005,0.052000000000000005,0.052000000000000005,0,0.052000000000000005
2014-12-15,0.052000000000000005,0.052000000000000005,0.052000000000000005,0.052000000000000005,0,0.052000000000000005
2014-12-16,0.052000000000000005,0.052000000000000005,0.052000000000000005,0.052000000000000005,0,0.052000000000000005
2014-12-17,0.052000000000000005,0.052000000000000005,0.052000000000000005,0.052000000000000005,0,0.052000000000000005
2014-12-18,0.052000000000000005,0.052000000000000005,0.052000000000000005,0.052000000000000005,0,0.052000000000000005
2014-12-19,0.049,0.049,0.049,0.049,18700,0.049
2014-12-22,0.049,0.049,0.049,0.049,0,0.049
2014-12-23,0.045,0.045,0.045,0.045,200000,0.045
2014-12-24,0.045,0.045,0.045,0.045,0,0.045
2014-12-25,0.045,0.045,0.045,0.045,0,0.045
2014-12-26,0.045,0.045,0.045,0.045,0,0.045
2014-12-29,0.045,0.045,0.045,0.045,0,0.045
2014-12-30,0.045,0.045,0.045,0.045,0,0.045
2014-12-31,0.045,0.045,0.045,0.045,0,0.045
2015-01-01,0.045,0.045,0.045,0.045,0,0.045
2015-01-02,0.045,0.045,0.045,0.045,0,0.045
2015-01-05,0.045,0.045,0.045,0.045,0,0.045
2015-01-06,0.045,0.045,0.045,0.045,0,0.045
2015-01-07,0.045,0.045,0.045,0.045,0,0.045
2015-01-08,0.045,0.045,0.045,0.045,0,0.045
2015-01-09,0.045,0.045,0.045,0.045,0,0.045
2015-01-12,0.045,0.045,0.045,0.045,0,0.045
2015-01-13,0.045,0.045,0.045,0.045,0,0.045
2015-01-14,0.045,0.045,0.045,0.045,0,0.045
2015-01-15,0.045,0.045,0.045,0.045,0,0.045
2015-01-16,0.045,0.045,0.045,0.045,64000,0.045
2015-01-19,0.045,0.045,0.045,0.045,0,0.045
2015-01-20,0.045,0.045,0.045,0.045,0,0.045
2015-01-21,0.042,0.042,0.04,0.04,500000,0.04
2015-01-22,0.04,0.04,0.04,0.04,0,0.04
2015-01-23,0.040999999999999995,0.040999999999999995,0.04,0.04,699900,0.04
2015-01-26,0.04,0.04,0.04,0.04,0,0.04
2015-01-27,0.04,0.04,0.04,0.04,0,0.04
2015-01-28,0.04,0.04,0.04,0.04,0,0.04
2015-01-29,0.040999999999999995,0.040999999999999995,0.040999999999999995,0.040999999999999995,86000,0.040999999999999995
2015-01-30,0.040999999999999995,0.040999999999999995,0.040999999999999995,0.040999999999999995,0,0.040999999999999995
2015-02-02,0.040999999999999995,0.040999999999999995,0.040999999999999995,0.040999999999999995,0,0.040999999999999995
2015-02-03,0.040999999999999995,0.040999999999999995,0.040999999999999995,0.040999999999999995,0,0.040999999999999995
2015-02-04,0.040999999999999995,0.040999999999999995,0.040999999999999995,0.040999999999999995,0,0.040999999999999995
2015-02-05,0.040999999999999995,0.040999999999999995,0.040999999999999995,0.040999999999999995,0,0.040999999999999995
2015-02-06,0.040999999999999995,0.040999999999999995,0.040999999999999995,0.040999999999999995,0,0.040999999999999995
2015-02-09,0.04,0.04,0.04,0.04,7500,0.04
2015-02-10,0.04,0.04,0.04,0.04,0,0.04
2015-02-11,0.04,0.04,0.04,0.04,0,0.04
2015-02-12,0.04,0.04,0.04,0.04,0,0.04
2015-02-13,0.04,0.04,0.04,0.04,0,0.04
2015-02-16,0.042,0.042,0.042,0.042,18700,0.042
2015-02-17,0.042,0.042,0.042,0.042,0,0.042
2015-02-18,0.042,0.042,0.042,0.042,0,0.042
2015-02-19,0.042,0.042,0.042,0.042,0,0.042
2015-02-20,0.042,0.042,0.042,0.042,0,0.042
2015-02-23,0.042,0.042,0.042,0.042,0,0.042
2015-02-24,0.055,0.055,0.055,0.055,417200,0.055
2015-02-25,0.055,0.055,0.055,0.055,0,0.055
2015-02-26,0.055,0.055,0.055,0.055,0,0.055
2015-02-27,0.055,0.055,0.055,0.055,0,0.055
2015-03-02,0.055,0.055,0.055,0.055,0,0.055
2015-03-03,0.055,0.055,0.055,0.055,0,0.055
2015-03-04,0.055,0.055,0.055,0.055,0,0.055
2015-03-05,0.055,0.055,0.055,0.055,0,0.055
2015-03-06,0.055,0.055,0.055,0.055,0,0.055
2015-03-09,0.05,0.05,0.05,0.05,125000,0.05
2015-03-10,0.05,0.05,0.05,0.05,18700,0.05
2015-03-11,0.05,0.05,0.05,0.05,0,0.05
2015-03-12,0.055,0.055,0.055,0.055,50000,0.055
2015-03-13,0.055,0.055,0.055,0.055,200100,0.055
2015-03-16,0.055,0.055,0.055,0.055,92300,0.055
2015-03-17,0.055,0.055,0.055,0.055,0,0.055
2015-03-18,0.055,0.055,0.055,0.055,0,0.055
2015-03-19,0.055,0.055999999999999994,0.055,0.055999999999999994,641200,0.055999999999999994
2015-03-20,0.055999999999999994,0.055999999999999994,0.055999999999999994,0.055999999999999994,0,0.055999999999999994
2015-03-23,0.055999999999999994,0.055999999999999994,0.055999999999999994,0.055999999999999994,0,0.055999999999999994
2015-03-24,0.055999999999999994,0.055999999999999994,0.055999999999999994,0.055999999999999994,0,0.055999999999999994
2015-03-25,0.055999999999999994,0.055999999999999994,0.055999999999999994,0.055999999999999994,0,0.055999999999999994
2015-03-26,0.055999999999999994,0.055999999999999994,0.055999999999999994,0.055999999999999994,0,0.055999999999999994
2015-03-27,0.055999999999999994,0.055999999999999994,0.055999999999999994,0.055999999999999994,0,0.055999999999999994
2015-03-30,0.061,0.061,0.061,0.061,50000,0.061
2015-03-31,0.06,0.06,0.06,0.06,241200,0.06
2015-04-01,0.062,0.062,0.062,0.062,20000,0.062
2015-04-02,0.062,0.063,0.061,0.061,205000,0.061
2015-04-03,0.061,0.061,0.061,0.061,0,0.061
2015-04-06,0.061,0.061,0.061,0.061,0,0.061
2015-04-07,0.061,0.061,0.06,0.061,366600,0.061
2015-04-08,0.062,0.062,0.062,0.062,37500,0.062
2015-04-09,0.062,0.062,0.062,0.062,0,0.062
2015-04-10,0.062,0.062,0.062,0.062,0,0.062
2015-04-13,0.062,0.062,0.062,0.062,0,0.062
2015-04-14,0.062,0.062,0.062,0.062,0,0.062
2015-04-15,0.062,0.062,0.062,0.062,0,0.062
2015-04-16,0.062,0.062,0.062,0.062,0,0.062
2015-04-17,0.062,0.062,0.061,0.061,124500,0.061
2015-04-20,0.059000000000000004,0.059000000000000004,0.059000000000000004,0.059000000000000004,30400,0.059000000000000004
2015-04-21,0.059000000000000004,0.059000000000000004,0.059000000000000004,0.059000000000000004,0,0.059000000000000004
2015-04-22,0.059000000000000004,0.059000000000000004,0.059000000000000004,0.059000000000000004,9300,0.059000000000000004
2015-04-23,0.059000000000000004,0.059000000000000004,0.059000000000000004,0.059000000000000004,0,0.059000000000000004
2015-04-24,0.059000000000000004,0.059000000000000004,0.059000000000000004,0.059000000000000004,0,0.059000000000000004
2015-04-27,0.059000000000000004,0.059000000000000004,0.059000000000000004,0.059000000000000004,0,0.059000000000000004
2015-04-28,0.059000000000000004,0.059000000000000004,0.059000000000000004,0.059000000000000004,0,0.059000000000000004
2015-04-29,0.059000000000000004,0.059000000000000004,0.059000000000000004,0.059000000000000004,0,0.059000000000000004
2015-04-30,0.059000000000000004,0.059000000000000004,0.059000000000000004,0.059000000000000004,0,0.059000000000000004
2015-05-01,0.059000000000000004,0.059000000000000004,0.059000000000000004,0.059000000000000004,0,0.059000000000000004
2015-05-04,0.059000000000000004,0.059000000000000004,0.059000000000000004,0.059000000000000004,0,0.059000000000000004
2015-05-05,0.057,0.057,0.057,0.057,18700,0.057
2015-05-06,0.057,0.057,0.055999999999999994,0.055999999999999994,1636000,0.055999999999999994
2015-05-07,0.055999999999999994,0.055999999999999994,0.055999999999999994,0.055999999999999994,90000,0.055999999999999994
2015-05-08,0.055999999999999994,0.055999999999999994,0.055999999999999994,0.055999999999999994,0,0.055999999999999994
2015-05-11,0.054000000000000006,0.054000000000000006,0.054000000000000006,0.054000000000000006,18700,0.054000000000000006
2015-05-12,0.054000000000000006,0.054000000000000006,0.054000000000000006,0.054000000000000006,18700,0.054000000000000006
2015-05-13,0.054000000000000006,0.054000000000000006,0.054000000000000006,0.054000000000000006,0,0.054000000000000006
2015-05-14,0.054000000000000006,0.054000000000000006,0.054000000000000006,0.054000000000000006,0,0.054000000000000006
2015-05-15,0.054000000000000006,0.054000000000000006,0.054000000000000006,0.054000000000000006,0,0.054000000000000006
2015-05-18,0.054000000000000006,0.054000000000000006,0.054000000000000006,0.054000000000000006,0,0.054000000000000006
2015-05-19,0.054000000000000006,0.054000000000000006,0.054000000000000006,0.054000000000000006,0,0.054000000000000006
2015-05-20,0.054000000000000006,0.054000000000000006,0.054000000000000006,0.054000000000000006,0,0.054000000000000006
2015-05-21,0.054000000000000006,0.054000000000000006,0.054000000000000006,0.054000000000000006,0,0.054000000000000006
2015-05-22,0.054000000000000006,0.054000000000000006,0.054000000000000006,0.054000000000000006,0,0.054000000000000006
2015-05-25,0.054000000000000006,0.054000000000000006,0.054000000000000006,0.054000000000000006,0,0.054000000000000006
2015-05-26,0.054000000000000006,0.054000000000000006,0.054000000000000006,0.054000000000000006,0,0.054000000000000006
2015-05-27,0.054000000000000006,0.054000000000000006,0.054000000000000006,0.054000000000000006,0,0.054000000000000006
2015-05-28,0.054000000000000006,0.054000000000000006,0.054000000000000006,0.054000000000000006,0,0.054000000000000006
2015-05-29,0.057,0.057,0.053,0.053,300000,0.053
2015-06-01,0.053,0.053,0.053,0.053,0,0.053
2015-06-02,0.053,0.053,0.053,0.053,0,0.053
2015-06-03,0.053,0.053,0.053,0.053,0,0.053
2015-06-04,0.053,0.053,0.053,0.053,15000,0.053
2015-06-05,0.053,0.053,0.053,0.053,0,0.053
2015-06-08,0.053,0.053,0.053,0.053,0,0.053
2015-06-09,0.053,0.053,0.053,0.053,0,0.053
2015-06-10,0.053,0.053,0.053,0.053,40000,0.053
2015-06-11,0.053,0.053,0.053,0.053,20000,0.053
2015-06-12,0.055,0.055,0.055,0.055,127200,0.055
2015-06-15,0.055999999999999994,0.055999999999999994,0.055,0.055,79000,0.055
2015-06-16,0.055,0.055,0.054000000000000006,0.054000000000000006,20900,0.054000000000000006
2015-06-17,0.054000000000000006,0.054000000000000006,0.054000000000000006,0.054000000000000006,0,0.054000000000000006
2015-06-18,0.055,0.055,0.055,0.055,100000,0.055
2015-06-19,0.055,0.055,0.055,0.055,0,0.055
2015-06-22,0.054000000000000006,0.054000000000000006,0.054000000000000006,0.054000000000000006,62500,0.054000000000000006
2015-06-23,0.054000000000000006,0.055,0.054000000000000006,0.055,477000,0.055
2015-06-24,0.053,0.053,0.053,0.053,184300,0.053
2015-06-25,0.053,0.053,0.053,0.053,0,0.053
2015-06-26,0.053,0.053,0.053,0.053,0,0.053
2015-06-29,0.051,0.051,0.05,0.05,255700,0.05
2015-06-30,0.05,0.05,0.05,0.05,0,0.05
2015-07-01,0.05,0.05,0.05,0.05,0,0.05
2015-07-02,0.05,0.05,0.05,0.05,0,0.05
2015-07-03,0.05,0.05,0.05,0.05,0,0.05
2015-07-06,0.05,0.05,0.05,0.05,0,0.05
2015-07-07,0.05,0.05,0.05,0.05,162500,0.05
2015-07-08,0.05,0.05,0.05,0.05,0,0.05
2015-07-09,0.05,0.05,0.05,0.05,0,0.05
2015-07-10,0.05,0.05,0.05,0.05,45000,0.05
2015-07-13,0.05,0.05,0.05,0.05,0,0.05
2015-07-14,0.05,0.05,0.05,0.05,0,0.05
2015-07-15,0.05,0.05,0.05,0.05,0,0.05
2015-07-16,0.05,0.05,0.05,0.05,0,0.05
2015-07-17,0.05,0.05,0.05,0.05,0,0.05
2015-07-20,0.05,0.05,0.05,0.05,0,0.05
2015-07-21,0.05,0.05,0.05,0.05,90000,0.05
2015-07-22,0.05,0.05,0.05,0.05,0,0.05
2015-07-23,0.05,0.05,0.05,0.05,0,0.05
2015-07-24,0.05,0.05,0.05,0.05,0,0.05
2015-07-27,0.05,0.05,0.05,0.05,0,0.05
2015-07-28,0.05,0.05,0.05,0.05,0,0.05
2015-07-29,0.05,0.05,0.05,0.05,0,0.05
2015-07-30,0.05,0.05,0.05,0.05,0,0.05
2015-07-31,0.05,0.05,0.05,0.05,0,0.05
2015-08-03,0.05,0.05,0.05,0.05,0,0.05
2015-08-04,0.05,0.05,0.05,0.05,0,0.05
2015-08-05,0.05,0.05,0.05,0.05,0,0.05
2015-08-06,0.05,0.05,0.05,0.05,100000,0.05
2015-08-07,0.05,0.05,0.05,0.05,100000,0.05
2015-08-10,0.05,0.05,0.05,0.05,0,0.05
2015-08-11,0.05,0.05,0.05,0.05,0,0.05
2015-08-12,0.054000000000000006,0.054000000000000006,0.053,0.053,200000,0.053
2015-08-13,0.053,0.053,0.053,0.053,0,0.053
2015-08-14,0.053,0.053,0.053,0.053,0,0.053
2015-08-17,0.053,0.053,0.053,0.053,0,0.053
2015-08-18,0.053,0.053,0.053,0.053,0,0.053
2015-08-19,0.053,0.053,0.053,0.053,0,0.053
2015-08-20,0.053,0.053,0.053,0.053,0,0.053
2015-08-21,0.053,0.053,0.053,0.053,11200,0.053
2015-08-24,0.053,0.053,0.053,0.053,0,0.053
2015-08-25,0.053,0.053,0.053,0.053,0,0.053
2015-08-26,0.053,0.053,0.053,0.053,0,0.053
2015-08-27,0.053,0.053,0.053,0.053,0,0.053
2015-08-28,0.053,0.053,0.053,0.053,0,0.053
2015-08-31,0.053,0.053,0.053,0.053,0,0.053
2015-09-01,0.052000000000000005,0.052000000000000005,0.052000000000000005,0.052000000000000005,100000,0.052000000000000005
2015-09-02,0.051,0.051,0.05,0.05,92200,0.05
2015-09-03,0.05,0.05,0.05,0.05,0,0.05
2015-09-04,0.05,0.05,0.05,0.05,0,0.05
2015-09-07,0.05,0.05,0.05,0.05,0,0.05
2015-09-08,0.05,0.05,0.05,0.05,0,0.05
2015-09-09,0.05,0.05,0.05,0.05,0,0.05
2015-09-10,0.05,0.05,0.05,0.05,0,0.05
2015-09-11,0.05,0.05,0.05,0.05,407700,0.05
2015-09-14,0.05,0.05,0.05,0.05,0,0.05
2015-09-15,0.05,0.05,0.05,0.05,0,0.05
2015-09-16,0.05,0.05,0.05,0.05,225000,0.05
2015-09-17,0.05,0.05,0.05,0.05,0,0.05
2015-09-18,0.052000000000000005,0.052000000000000005,0.052000000000000005,0.052000000000000005,412500,0.052000000000000005
2015-09-21,0.052000000000000005,0.052000000000000005,0.052000000000000005,0.052000000000000005,0,0.052000000000000005
2015-09-22,0.054000000000000006,0.054000000000000006,0.05,0.054000000000000006,703500,0.054000000000000006
2015-09-23,0.059000000000000004,0.063,0.059000000000000004,0.063,2507500,0.063
2015-09-24,0.073,0.077,0.07,0.077,738100,0.077
2015-09-25,0.085,0.09,0.085,0.09,248300,0.09
2015-09-28,0.08900000000000001,0.11,0.08900000000000001,0.11,370400,0.11
2015-09-29,0.09,0.09,0.09,0.09,125400,0.09
2015-09-30,0.09,0.1,0.09,0.1,364500,0.1
2015-10-01,0.1,0.1,0.1,0.1,0,0.1
2015-10-02,0.099,0.1,0.099,0.1,150400,0.1
2015-10-05,0.1,0.1,0.1,0.1,0,0.1
2015-10-06,0.1,0.1,0.1,0.1,0,0.1
2015-10-07,0.091,0.091,0.091,0.091,13700,0.091
2015-10-08,0.099,0.099,0.099,0.099,2200,0.099
2015-10-09,0.099,0.099,0.09699999999999999,0.09699999999999999,88500,0.09699999999999999
2015-10-12,0.09699999999999999,0.09699999999999999,0.09699999999999999,0.09699999999999999,0,0.09699999999999999
2015-10-13,0.09,0.09,0.08,0.08,158100,0.08
2015-10-14,0.08,0.09,0.08,0.09,106900,0.09
2015-10-15,0.094,0.1,0.094,0.1,425000,0.1
2015-10-16,0.1,0.1,0.1,0.1,0,0.1
2015-10-19,0.1,0.1,0.1,0.1,0,0.1
2015-10-20,0.1,0.1,0.1,0.1,49000,0.1
2015-10-21,0.1,0.105,0.1,0.105,396000,0.105
2015-10-22,0.105,0.11,0.105,0.11,56900,0.11
2015-10-23,0.115,0.12,0.115,0.115,193800,0.115
2015-10-26,0.12,0.125,0.12,0.125,816700,0.125
2015-10-27,0.125,0.125,0.125,0.125,17000,0.125
2015-10-28,0.125,0.13,0.125,0.13,133000,0.13
2015-10-29,0.13,0.13,0.13,0.13,225000,0.13
2015-10-30,0.13,0.13,0.13,0.13,300000,0.13
2015-11-02,0.13,0.13,0.13,0.13,0,0.13
2015-11-03,0.14,0.14,0.14,0.14,145000,0.14
2015-11-04,0.14,0.14,0.14,0.14,0,0.14
2015-11-05,0.145,0.145,0.14,0.14,129900,0.14
2015-11-06,0.14,0.15,0.135,0.145,421400,0.145
2015-11-09,0.15,0.15,0.135,0.135,196000,0.135
2015-11-10,0.135,0.135,0.135,0.135,57500,0.135
2015-11-11,0.135,0.135,0.135,0.135,70000,0.135
2015-11-12,0.135,0.135,0.135,0.135,0,0.135
2015-11-13,0.135,0.135,0.135,0.135,287800,0.135
2015-11-16,0.13,0.13,0.13,0.13,12100,0.13
2015-11-17,0.13,0.13,0.13,0.13,70000,0.13
2015-11-18,0.13,0.13,0.13,0.13,7800,0.13
2015-11-19,0.13,0.13,0.13,0.13,0,0.13
2015-11-20,0.13,0.13,0.13,0.13,0,0.13
2015-11-23,0.13,0.13,0.13,0.13,0,0.13
2015-11-24,0.13,0.13,0.13,0.13,5000,0.13
2015-11-25,0.13,0.13,0.13,0.13,0,0.13
2015-11-26,0.13,0.13,0.13,0.13,0,0.13
2015-11-27,0.125,0.125,0.12,0.12,159000,0.12
2015-11-30,0.12,0.12,0.12,0.12,178100,0.12
2015-12-01,0.12,0.12,0.12,0.12,50000,0.12
2015-12-02,0.13,0.13,0.13,0.13,111400,0.13
2015-12-03,0.13,0.13,0.13,0.13,242100,0.13
2015-12-04,0.13,0.13,0.13,0.13,50000,0.13
2015-12-07,0.13,0.13,0.13,0.13,0,0.13
2015-12-08,0.13,0.13,0.13,0.13,0,0.13
2015-12-09,0.13,0.13,0.13,0.13,0,0.13
2015-12-10,0.14,0.14,0.14,0.14,122300,0.14
2015-12-11,0.14,0.14,0.14,0.14,64000,0.14
2015-12-14,0.13,0.13,0.13,0.13,160000,0.13
2015-12-15,0.13,0.13,0.13,0.13,300000,0.13
2015-12-16,0.13,0.13,0.13,0.13,0,0.13
2015-12-17,0.13,0.13,0.12,0.12,62500,0.12
2015-12-18,0.12,0.12,0.12,0.12,18700,0.12
2015-12-21,0.12,0.12,0.12,0.12,0,0.12
2015-12-22,0.12,0.12,0.12,0.12,0,0.12
2015-12-23,0.12,0.12,0.12,0.12,0,0.12
2015-12-24,0.12,0.12,0.12,0.12,0,0.12
2015-12-25,0.12,0.12,0.12,0.12,0,0.12
2015-12-28,0.12,0.12,0.12,0.12,0,0.12
2015-12-29,0.12,0.12,0.12,0.12,0,0.12
2015-12-30,0.12,0.12,0.12,0.12,0,0.12
2015-12-31,0.12,0.12,0.12,0.12,0,0.12
2016-01-01,0.12,0.12,0.12,0.12,0,0.12
2016-01-04,0.12,0.12,0.12,0.12,0,0.12
2016-01-05,0.12,0.12,0.12,0.12,0,0.12
2016-01-06,0.12,0.12,0.12,0.12,0,0.12
2016-01-07,0.12,0.12,0.12,0.12,40000,0.12
2016-01-08,0.12,0.12,0.12,0.12,0,0.12
2016-01-11,0.12,0.12,0.12,0.12,236700,0.12
2016-01-12,0.12,0.12,0.12,0.12,200000,0.12
2016-01-13,0.12,0.12,0.12,0.12,2100,0.12
2016-01-14,0.12,0.12,0.12,0.12,0,0.12
2016-01-15,0.105,0.105,0.105,0.105,8400,0.105
2016-01-18,0.105,0.105,0.105,0.105,0,0.105
2016-01-19,0.105,0.105,0.105,0.105,0,0.105
2016-01-20,0.115,0.115,0.115,0.115,40000,0.115
2016-01-21,0.105,0.105,0.105,0.105,1200000,0.105
2016-01-22,0.1,0.1,0.1,0.1,125000,0.1
2016-01-25,0.1,0.1,0.1,0.1,0,0.1
2016-01-26,0.1,0.1,0.1,0.1,0,0.1
2016-01-27,0.1,0.1,0.1,0.1,0,0.1
2016-01-28,0.105,0.105,0.105,0.105,80000,0.105
2016-01-29,0.105,0.105,0.105,0.105,0,0.105
2016-02-01,0.105,0.105,0.1,0.1,172500,0.1
2016-02-02,0.1,0.1,0.1,0.1,0,0.1
2016-02-03,0.1,0.1,0.1,0.1,0,0.1
2016-02-04,0.1,0.1,0.1,0.1,0,0.1
2016-02-05,0.1,0.1,0.1,0.1,0,0.1
2016-02-08,0.1,0.1,0.1,0.1,0,0.1
2016-02-09,0.1,0.1,0.1,0.1,200000,0.1
2016-02-10,0.12,0.13,0.12,0.13,335300,0.13
2016-02-11,0.13,0.14,0.13,0.14,306400,0.14
2016-02-12,0.145,0.145,0.145,0.145,5200,0.145
2016-02-15,0.145,0.145,0.145,0.145,0,0.145
2016-02-16,0.145,0.145,0.145,0.145,0,0.145
2016-02-17,0.145,0.145,0.145,0.145,0,0.145
2016-02-18,0.145,0.145,0.145,0.145,0,0.145
2016-02-19,0.145,0.145,0.145,0.145,0,0.145
2016-02-22,0.145,0.145,0.145,0.145,0,0.145
2016-02-23,0.145,0.145,0.145,0.145,0,0.145
2016-02-24,0.115,0.12,0.1,0.12,1635000,0.12
2016-02-25,0.12,0.12,0.12,0.12,0,0.12
2016-02-26,0.12,0.12,0.12,0.12,0,0.12
2016-02-29,0.12,0.12,0.12,0.12,0,0.12
2016-03-01,0.12,0.12,0.12,0.12,0,0.12
2016-03-02,0.125,0.125,0.12,0.125,465000,0.125
2016-03-03,0.125,0.125,0.125,0.125,0,0.125
2016-03-04,0.125,0.125,0.125,0.125,0,0.125
2016-03-07,0.125,0.125,0.125,0.125,0,0.125
2016-03-08,0.125,0.125,0.125,0.125,0,0.125
2016-03-09,0.13,0.13,0.13,0.13,198000,0.13
2016-03-10,0.13,0.13,0.13,0.13,0,0.13
2016-03-11,0.13,0.13,0.13,0.13,150000,0.13
2016-03-14,0.13,0.13,0.13,0.13,0,0.13
2016-03-15,0.13,0.13,0.13,0.13,0,0.13
2016-03-16,0.13,0.15,0.13,0.15,395000,0.15
2016-03-17,0.15,0.15,0.15,0.15,25000,0.15
2016-03-18,0.15,0.15,0.15,0.15,0,0.15
2016-03-21,0.15,0.15,0.15,0.15,0,0.15
2016-03-22,0.15,0.15,0.15,0.15,0,0.15
2016-03-23,0.17,0.17,0.17,0.17,50000,0.17
2016-03-24,0.17,0.17,0.16,0.16,191500,0.16
2016-03-25,0.16,0.16,0.16,0.16,0,0.16
2016-03-28,0.16,0.16,0.16,0.16,0,0.16
2016-03-29,0.16,0.165,0.16,0.165,80000,0.165
2016-03-30,0.165,0.165,0.16,0.16,36900,0.16
2016-03-31,0.175,0.25,0.175,0.25,3787300,0.25
2016-04-01,0.245,0.285,0.24,0.285,3534100,0.285
2016-04-04,0.28,0.3,0.28,0.285,2146500,0.285
2016-04-05,0.28,0.28,0.25,0.275,825100,0.275
2016-04-06,0.27,0.27,0.26,0.26,335100,0.26
2016-04-07,0.26,0.26,0.25,0.25,382600,0.25
2016-04-08,0.25,0.25,0.23,0.25,3725900,0.25
2016-04-11,0.25,0.25,0.245,0.25,159300,0.25
2016-04-12,0.25,0.26,0.25,0.255,304900,0.255
2016-04-13,0.26,0.28,0.255,0.28,456600,0.28
2016-04-14,0.275,0.28,0.26,0.265,807900,0.265
2016-04-15,0.26,0.265,0.26,0.265,446800,0.265
2016-04-18,0.27,0.275,0.27,0.275,31100,0.275
2016-04-19,0.28,0.28,0.27,0.27,439900,0.27
2016-04-20,0.27,0.285,0.27,0.285,927500,0.285
2016-04-21,0.285,0.29,0.28,0.28,3265000,0.28
2016-04-22,0.3,0.31,0.295,0.305,484900,0.305
2016-04-25,0.305,0.305,0.305,0.305,0,0.305
2016-04-26,0.315,0.32,0.31,0.31,403000,0.31
2016-04-27,0.28,0.29,0.28,0.285,570600,0.285
2016-04-28,0.29,0.292,0.285,0.292,286500,0.292
2016-04-29,0.3,0.31,0.285,0.3,437200,0.3
2016-05-02,0.305,0.33,0.305,0.305,101000,0.305
2016-05-03,0.305,0.305,0.305,0.305,0,0.305
2016-05-04,0.305,0.305,0.305,0.305,0,0.305
2016-05-05,0.3,0.3,0.285,0.29,221300,0.29
2016-05-06,0.3,0.32,0.29,0.32,308300,0.32
2016-05-09,0.335,0.345,0.32,0.32,257200,0.32
2016-05-10,0.31,0.32,0.3,0.32,377100,0.32
2016-05-11,0.3,0.32,0.3,0.32,365900,0.32
2016-05-12,0.31,0.31,0.305,0.31,193000,0.31
2016-05-13,0.315,0.315,0.31,0.31,119400,0.31
2016-05-16,0.31,0.31,0.3,0.3,330700,0.3
2016-05-17,0.3,0.305,0.3,0.3,360600,0.3
2016-05-18,0.3,0.3,0.285,0.29,140200,0.29
2016-05-19,0.285,0.285,0.28,0.28,556200,0.28
2016-05-20,0.28,0.28,0.27,0.27,572100,0.27
2016-05-23,0.27,0.29,0.27,0.29,218600,0.29
2016-05-24,0.27,0.29,0.27,0.27,224400,0.27
2016-05-25,0.27,0.28,0.27,0.27,581800,0.27
2016-05-26,0.275,0.275,0.27,0.275,288200,0.275
2016-05-27,0.275,0.275,0.265,0.27,320300,0.27
2016-05-30,0.27,0.27,0.27,0.27,193700,0.27
2016-05-31,0.27,0.27,0.27,0.27,40900,0.27
2016-06-01,0.27,0.28,0.27,0.28,105800,0.28
2016-06-02,0.27,0.27,0.265,0.27,500600,0.27
2016-06-03,0.27,0.27,0.265,0.27,191700,0.27
2016-06-06,0.27,0.275,0.27,0.275,508200,0.275
2016-06-07,0.285,0.3,0.285,0.3,350800,0.3
2016-06-08,0.3,0.3,0.28,0.28,254000,0.28
2016-06-09,0.285,0.285,0.275,0.275,194200,0.275
2016-06-10,0.275,0.275,0.275,0.275,0,0.275
2016-06-13,0.275,0.275,0.275,0.275,0,0.275
2016-06-14,0.275,0.275,0.275,0.275,39600,0.275
2016-06-15,0.28,0.28,0.28,0.28,24300,0.28
2016-06-16,0.27,0.27,0.27,0.27,124900,0.27
2016-06-17,0.275,0.275,0.275,0.275,20500,0.275
2016-06-20,0.28,0.295,0.28,0.29,111500,0.29
2016-06-21,0.29,0.3,0.285,0.285,389200,0.285
2016-06-22,0.28,0.285,0.27,0.275,327900,0.275
2016-06-23,0.27,0.275,0.265,0.27,239000,0.27
2016-06-24,0.27,0.27,0.265,0.27,265100,0.27
2016-06-27,0.27,0.285,0.27,0.28,341900,0.28
2016-06-28,0.28,0.28,0.27,0.27,290400,0.27
2016-06-29,0.28,0.28,0.28,0.28,26600,0.28
2016-06-30,0.285,0.31,0.285,0.31,420900,0.31
2016-07-01,0.325,0.33,0.3,0.33,594800,0.33
2016-07-04,0.33,0.34,0.32,0.32,424400,0.32
2016-07-05,0.325,0.34,0.32,0.34,95500,0.34
2016-07-06,0.34,0.395,0.34,0.395,1153200,0.395
2016-07-07,0.4,0.41,0.395,0.41,760600,0.41
2016-07-08,0.425,0.51,0.425,0.5,617200,0.5
2016-07-11,0.495,0.495,0.435,0.45,265800,0.45
2016-07-12,0.45,0.45,0.42,0.45,217300,0.45
2016-07-13,0.43,0.44,0.41,0.43,658800,0.43
2016-07-14,0.45,0.47,0.43,0.43,253100,0.43
2016-07-15,0.465,0.465,0.43,0.435,36100,0.435
2016-07-18,0.435,0.445,0.42,0.43,448300,0.43
2016-07-19,0.435,0.435,0.43,0.43,180000,0.43
2016-07-20,0.435,0.465,0.435,0.44,114100,0.44
2016-07-21,0.44,0.44,0.43,0.435,178500,0.435
2016-07-22,0.44,0.45,0.44,0.445,231700,0.445
2016-07-25,0.47,0.495,0.45,0.495,248900,0.495
2016-07-26,0.47,0.48,0.465,0.48,27900,0.48
2016-07-27,0.465,0.465,0.465,0.465,221500,0.465
2016-07-28,0.48,0.485,0.465,0.475,421800,0.475
2016-07-29,0.475,0.475,0.46,0.465,208600,0.465
2016-08-01,0.465,0.47,0.465,0.465,242500,0.465
2016-08-02,0.47,0.485,0.47,0.485,30700,0.485
2016-08-03,0.49,0.49,0.475,0.48,5100,0.48
2016-08-04,0.49,0.55,0.49,0.55,573000,0.55
2016-08-05,0.56,0.56,0.51,0.525,343300,0.525
2016-08-08,0.52,0.52,0.49,0.515,351400,0.515
2016-08-09,0.515,0.515,0.495,0.5,71700,0.5
2016-08-10,0.51,0.67,0.51,0.67,1370000,0.67
2016-08-11,0.65,0.65,0.62,0.65,348500,0.65
2016-08-12,0.64,0.685,0.63,0.67,424400,0.67
2016-08-15,0.67,0.68,0.63,0.63,424700,0.63
2016-08-16,0.645,0.67,0.645,0.67,118300,0.67
2016-08-17,0.67,0.74,0.67,0.72,1031100,0.72
2016-08-18,0.7,0.7,0.675,0.69,475100,0.69
2016-08-19,0.68,0.68,0.65,0.68,125900,0.68
2016-08-22,0.68,0.68,0.585,0.59,527500,0.59
2016-08-23,0.6,0.605,0.59,0.6,205500,0.6
2016-08-24,0.6,0.61,0.545,0.555,1024000,0.555
2016-08-25,0.56,0.56,0.525,0.55,430800,0.55
2016-08-26,0.545,0.57,0.52,0.57,337700,0.57
2016-08-29,0.57,0.57,0.55,0.55,117300,0.55
2016-08-30,0.55,0.56,0.535,0.54,225200,0.54
2016-08-31,0.525,0.525,0.475,0.5,175400,0.5
2016-09-01,0.5,0.5,0.465,0.47,322300,0.47
2016-09-02,0.485,0.505,0.465,0.505,303800,0.505
2016-09-05,0.52,0.555,0.515,0.545,360300,0.545
2016-09-06,0.555,0.56,0.53,0.55,212000,0.55
2016-09-07,0.56,0.59,0.55,0.57,166000,0.57
2016-09-08,0.55,0.595,0.55,0.58,242100,0.58
2016-09-09,0.595,0.595,0.55,0.55,99100,0.55
2016-09-12,0.54,0.545,0.535,0.545,587100,0.545
2016-09-13,0.545,0.57,0.545,0.57,68600,0.57
2016-09-14,0.58,0.58,0.58,0.58,325000,0.58
2016-09-15,0.575,0.575,0.56,0.56,57800,0.56
2016-09-16,0.55,0.56,0.54,0.54,207400,0.54
2016-09-19,0.54,0.545,0.54,0.545,29900,0.545
2016-09-20,0.545,0.545,0.51,0.51,151100,0.51
2016-09-21,0.515,0.52,0.515,0.52,111600,0.52
2016-09-22,0.52,0.52,0.52,0.52,0,0.52
2016-09-23,0.55,0.55,0.53,0.54,133400,0.54
2016-09-26,0.54,0.585,0.54,0.575,181100,0.575
2016-09-27,0.57,0.58,0.57,0.57,86400,0.57
2016-09-28,0.55,0.555,0.55,0.55,58900,0.55
2016-09-29,0.56,0.56,0.535,0.535,125900,0.535
2016-09-30,0.535,0.535,0.52,0.52,182300,0.52
2016-10-03,0.52,0.52,0.52,0.52,0,0.52
2016-10-04,0.55,0.55,0.52,0.52,153900,0.52
2016-10-05,0.51,0.51,0.48,0.48,183000,0.48
2016-10-06,0.475,0.485,0.465,0.475,153300,0.475
2016-10-07,0.485,0.5,0.485,0.495,102100,0.495
2016-10-10,0.5,0.51,0.5,0.505,23800,0.505
2016-10-11,0.515,0.515,0.505,0.51,135800,0.51
2016-10-12,0.5,0.5,0.48,0.48,23800,0.48
2016-10-13,0.495,0.5,0.495,0.5,22100,0.5
2016-10-14,0.495,0.5,0.485,0.5,39600,0.5
2016-10-17,0.515,0.515,0.5,0.5,13700,0.5
2016-10-18,0.505,0.505,0.48,0.48,38100,0.48
2016-10-19,0.48,0.48,0.48,0.48,3000,0.48
2016-10-20,0.49,0.49,0.49,0.49,23600,0.49
2016-10-21,0.49,0.49,0.49,0.49,22800,0.49
2016-10-24,0.505,0.505,0.49,0.49,127000,0.49
2016-10-25,0.49,0.49,0.49,0.49,69600,0.49
2016-10-26,0.49,0.49,0.49,0.49,164800,0.49
2016-10-27,0.49,0.5,0.49,0.49,403200,0.49
2016-10-28,0.485,0.485,0.48,0.485,77900,0.485
2016-10-31,0.485,0.485,0.48,0.48,149800,0.48
2016-11-01,0.485,0.485,0.48,0.48,82200,0.48
2016-11-02,0.49,0.505,0.49,0.5,105700,0.5
2016-11-03,0.505,0.54,0.505,0.52,186400,0.52
2016-11-04,0.51,0.52,0.5,0.51,117600,0.51
2016-11-07,0.51,0.51,0.505,0.505,55300,0.505
2016-11-08,0.505,0.51,0.5,0.5,91400,0.5
2016-11-09,0.495,0.52,0.495,0.52,141900,0.52
2016-11-10,0.5,0.51,0.485,0.49,153500,0.49
2016-11-11,0.48,0.485,0.44,0.46,607700,0.46
2016-11-14,0.44,0.44,0.43,0.435,226600,0.435
2016-11-15,0.44,0.45,0.44,0.45,32000,0.45
2016-11-16,0.45,0.465,0.45,0.46,104300,0.46
2016-11-17,0.465,0.465,0.46,0.46,32600,0.46
2016-11-18,0.45,0.45,0.435,0.445,1319300,0.445
2016-11-21,0.445,0.45,0.445,0.45,55600,0.45
2016-11-22,0.45,0.46,0.45,0.46,42800,0.46
2016-11-23,0.455,0.46,0.44,0.44,117100,0.44
2016-11-24,0.43,0.43,0.425,0.43,606300,0.43
2016-11-25,0.43,0.43,0.42,0.425,149400,0.425
2016-11-28,0.425,0.425,0.425,0.425,0,0.425
2016-11-29,0.425,0.425,0.425,0.425,0,0.425
2016-11-30,0.44,0.445,0.44,0.445,14500,0.445
2016-12-01,0.445,0.445,0.43,0.43,102900,0.43
2016-12-02,0.44,0.44,0.44,0.44,7200,0.44
2016-12-05,0.44,0.44,0.44,0.44,0,0.44
2016-12-06,0.45,0.45,0.435,0.435,61600,0.435
2016-12-07,0.435,0.435,0.42,0.43,299800,0.43
2016-12-08,0.42,0.42,0.395,0.41,373400,0.41
2016-12-09,0.41,0.415,0.41,0.415,19000,0.415
2016-12-12,0.415,0.415,0.415,0.415,0,0.415
2016-12-13,0.41,0.41,0.41,0.41,9800,0.41
2016-12-14,0.41,0.41,0.41,0.41,0,0.41
2016-12-15,0.41,0.41,0.395,0.395,187700,0.395
2016-12-16,0.39,0.39,0.335,0.38,307200,0.38
2016-12-19,0.36,0.37,0.35,0.37,330300,0.37
2016-12-20,0.38,0.38,0.38,0.38,7600,0.38
2016-12-21,0.38,0.38,0.38,0.38,0,0.38
2016-12-22,0.38,0.38,0.38,0.38,0,0.38
2016-12-23,0.38,0.38,0.38,0.38,0,0.38
2016-12-26,0.38,0.38,0.38,0.38,0,0.38
2016-12-27,0.38,0.38,0.38,0.38,0,0.38
2016-12-28,0.38,0.38,0.38,0.38,0,0.38
2016-12-29,0.38,0.38,0.38,0.38,0,0.38
2016-12-30,0.395,0.4,0.395,0.4,10200,0.4
