Date,Open,High,Low,Close,Volume,Adj Close
2012-05-02,0.42,0.42,0.42,0.42,384800,0.42
2012-05-03,0.42,0.42,0.4,0.41,645900,0.41
2012-05-04,0.405,0.415,0.405,0.415,200000,0.415
2012-05-07,0.4,0.4,0.4,0.4,443600,0.4
2012-05-08,0.4,0.4,0.35,0.37,399900,0.37
2012-05-09,0.38,0.39,0.38,0.39,22000,0.39
2012-05-10,0.375,0.395,0.37,0.395,45000,0.395
2012-05-11,0.395,0.395,0.39,0.395,100000,0.395
2012-05-14,0.38,0.405,0.38,0.405,41800,0.405
2012-05-15,0.405,0.405,0.405,0.405,10000,0.405
2012-05-16,0.37,0.405,0.37,0.405,2000,0.405
2012-05-17,0.38,0.38,0.38,0.38,20000,0.38
2012-05-18,0.4,0.4,0.4,0.4,12300,0.4
2012-05-21,0.38,0.38,0.38,0.38,100,0.38
2012-05-22,0.38,0.38,0.38,0.38,0,0.38
2012-05-23,0.4,0.4,0.4,0.4,14700,0.4
2012-05-24,0.4,0.4,0.4,0.4,0,0.4
2012-05-25,0.4,0.4,0.4,0.4,0,0.4
2012-05-28,0.4,0.4,0.4,0.4,0,0.4
2012-05-29,0.4,0.4,0.4,0.4,200,0.4
2012-05-30,0.38,0.38,0.38,0.38,30000,0.38
2012-05-31,0.4,0.4,0.38,0.38,2600,0.38
2012-06-01,0.38,0.38,0.38,0.38,49700,0.38
2012-06-04,0.37,0.37,0.37,0.37,82500,0.37
2012-06-05,0.37,0.37,0.37,0.37,25000,0.37
2012-06-06,0.37,0.37,0.37,0.37,0,0.37
2012-06-07,0.37,0.37,0.37,0.37,20000,0.37
2012-06-08,0.38,0.38,0.375,0.375,55000,0.375
2012-06-11,0.375,0.375,0.375,0.375,0,0.375
2012-06-12,0.38,0.38,0.375,0.375,9000,0.375
2012-06-13,0.375,0.375,0.375,0.375,0,0.375
2012-06-14,0.385,0.385,0.385,0.385,7200,0.385
2012-06-15,0.385,0.385,0.385,0.385,2700,0.385
2012-06-18,0.38,0.38,0.38,0.38,9700,0.38
2012-06-19,0.39,0.39,0.39,0.39,27500,0.39
2012-06-20,0.39,0.39,0.39,0.39,0,0.39
2012-06-21,0.39,0.39,0.38,0.38,60000,0.38
2012-06-22,0.38,0.38,0.38,0.38,20000,0.38
2012-06-25,0.38,0.38,0.38,0.38,30000,0.38
2012-06-26,0.38,0.38,0.38,0.38,0,0.38
2012-06-27,0.395,0.395,0.395,0.395,30000,0.395
2012-06-28,0.38,0.4,0.38,0.4,85000,0.4
2012-06-29,0.4,0.4,0.4,0.4,0,0.4
2012-07-02,0.39,0.39,0.39,0.39,49900,0.39
2012-07-03,0.39,0.39,0.39,0.39,0,0.39
2012-07-04,0.39,0.39,0.39,0.39,0,0.39
2012-07-05,0.4,0.4,0.39,0.4,52600,0.4
2012-07-06,0.4,0.4,0.4,0.4,1600,0.4
2012-07-09,0.4,0.4,0.4,0.4,0,0.4
2012-07-10,0.4,0.4,0.4,0.4,0,0.4
2012-07-11,0.4,0.4,0.4,0.4,0,0.4
2012-07-12,0.4,0.4,0.4,0.4,0,0.4
2012-07-13,0.4,0.4,0.4,0.4,0,0.4
2012-07-16,0.4,0.4,0.4,0.4,0,0.4
2012-07-17,0.4,0.4,0.4,0.4,63200,0.4
2012-07-18,0.4,0.4,0.4,0.4,0,0.4
2012-07-19,0.4,0.4,0.4,0.4,0,0.4
2012-07-20,0.38,0.38,0.38,0.38,17400,0.38
2012-07-23,0.38,0.38,0.38,0.38,0,0.38
2012-07-24,0.38,0.38,0.38,0.38,50000,0.38
2012-07-25,0.38,0.38,0.38,0.38,900000,0.38
2012-07-26,0.4,0.4,0.4,0.4,35000,0.4
2012-07-27,0.4,0.4,0.4,0.4,5500,0.4
2012-07-30,0.4,0.4,0.38,0.38,46900,0.38
2012-07-31,0.38,0.38,0.38,0.38,13000,0.38
2012-08-01,0.4,0.42,0.4,0.42,84900,0.42
2012-08-02,0.385,0.385,0.38,0.38,50000,0.38
2012-08-03,0.38,0.38,0.38,0.38,0,0.38
2012-08-06,0.395,0.395,0.38,0.38,17200,0.38
2012-08-07,0.38,0.4,0.38,0.4,105000,0.4
2012-08-08,0.4,0.4,0.4,0.4,0,0.4
2012-08-09,0.375,0.375,0.32,0.37,40500,0.37
2012-08-10,0.37,0.37,0.37,0.37,0,0.37
2012-08-13,0.37,0.37,0.37,0.37,0,0.37
2012-08-14,0.37,0.37,0.37,0.37,0,0.37
2012-08-15,0.37,0.37,0.37,0.37,6400,0.37
2012-08-16,0.37,0.37,0.37,0.37,0,0.37
2012-08-17,0.37,0.37,0.37,0.37,0,0.37
2012-08-20,0.37,0.37,0.37,0.37,0,0.37
2012-08-21,0.37,0.37,0.37,0.37,0,0.37
2012-08-22,0.37,0.37,0.37,0.37,7300,0.37
2012-08-23,0.37,0.37,0.37,0.37,0,0.37
2012-08-24,0.37,0.37,0.37,0.37,7500,0.37
2012-08-27,0.37,0.37,0.37,0.37,1400,0.37
2012-08-28,0.37,0.37,0.37,0.37,0,0.37
2012-08-29,0.33,0.37,0.33,0.37,322800,0.37
2012-08-30,0.37,0.37,0.37,0.37,1200,0.37
2012-08-31,0.37,0.37,0.37,0.37,0,0.37
2012-09-03,0.37,0.37,0.37,0.37,0,0.37
2012-09-04,0.37,0.38,0.37,0.38,57400,0.38
2012-09-05,0.38,0.38,0.38,0.38,0,0.38
2012-09-06,0.35,0.35,0.35,0.35,35000,0.35
2012-09-07,0.35,0.35,0.35,0.35,0,0.35
2012-09-10,0.37,0.37,0.37,0.37,1300,0.37
2012-09-11,0.37,0.37,0.37,0.37,0,0.37
2012-09-12,0.37,0.37,0.37,0.37,0,0.37
2012-09-13,0.37,0.37,0.37,0.37,0,0.37
2012-09-14,0.37,0.37,0.37,0.37,0,0.37
2012-09-17,0.37,0.37,0.37,0.37,0,0.37
2012-09-18,0.35,0.35,0.325,0.325,17600,0.325
2012-09-19,0.335,0.335,0.33,0.33,15000,0.33
2012-09-20,0.335,0.335,0.33,0.33,15000,0.33
2012-09-21,0.33,0.33,0.33,0.33,11100,0.33
2012-09-24,0.33,0.33,0.33,0.33,25000,0.33
2012-09-25,0.33,0.33,0.33,0.33,0,0.33
2012-09-26,0.32,0.32,0.31,0.31,10000,0.31
2012-09-27,0.33,0.33,0.325,0.33,14900,0.33
2012-09-28,0.33,0.33,0.33,0.33,0,0.33
2012-10-01,0.33,0.33,0.33,0.33,0,0.33
2012-10-02,0.325,0.33,0.325,0.33,17000,0.33
2012-10-03,0.33,0.33,0.315,0.315,27000,0.315
2012-10-04,0.315,0.315,0.315,0.315,0,0.315
2012-10-05,0.315,0.315,0.315,0.315,0,0.315
2012-10-08,0.32,0.34,0.32,0.32,4400,0.32
2012-10-09,0.32,0.32,0.32,0.32,15000,0.32
2012-10-10,0.32,0.32,0.32,0.32,5000,0.32
2012-10-11,0.32,0.32,0.31,0.31,55000,0.31
2012-10-12,0.31,0.31,0.31,0.31,0,0.31
2012-10-15,0.31,0.31,0.31,0.31,0,0.31
2012-10-16,0.31,0.31,0.31,0.31,0,0.31
2012-10-17,0.31,0.31,0.31,0.31,0,0.31
2012-10-18,0.31,0.31,0.31,0.31,0,0.31
2012-10-19,0.31,0.31,0.31,0.31,0,0.31
2012-10-22,0.32,0.32,0.31,0.31,17600,0.31
2012-10-23,0.31,0.31,0.31,0.31,0,0.31
2012-10-24,0.4,0.4,0.4,0.4,1500,0.4
2012-10-25,0.31,0.32,0.31,0.315,7200,0.315
2012-10-26,0.315,0.315,0.315,0.315,0,0.315
2012-10-29,0.315,0.315,0.315,0.315,0,0.315
2012-10-30,0.32,0.32,0.32,0.32,10000,0.32
2012-10-31,0.32,0.32,0.32,0.32,42500,0.32
2012-11-01,0.34,0.34,0.34,0.34,5000,0.34
2012-11-02,0.38,0.38,0.38,0.38,55000,0.38
2012-11-05,0.4,0.4,0.4,0.4,45400,0.4
2012-11-06,0.44,0.44,0.44,0.44,2500,0.44
2012-11-07,0.4,0.405,0.4,0.4,62500,0.4
2012-11-08,0.4,0.4,0.4,0.4,0,0.4
2012-11-09,0.4,0.4,0.4,0.4,0,0.4
2012-11-12,0.4,0.4,0.4,0.4,10000,0.4
2012-11-13,0.405,0.405,0.405,0.405,13000,0.405
2012-11-14,0.41,0.41,0.39,0.39,58000,0.39
2012-11-15,0.4,0.4,0.4,0.4,1054400,0.4
2012-11-16,0.4,0.4,0.4,0.4,0,0.4
2012-11-19,0.4,0.41,0.4,0.41,1165000,0.41
2012-11-20,0.41,0.41,0.4,0.4,49000,0.4
2012-11-21,0.4,0.405,0.38,0.405,45000,0.405
2012-11-22,0.405,0.405,0.405,0.405,0,0.405
2012-11-23,0.405,0.405,0.405,0.405,0,0.405
2012-11-26,0.4,0.405,0.4,0.405,27100,0.405
2012-11-27,0.405,0.405,0.38,0.38,131600,0.38
2012-11-28,0.38,0.38,0.38,0.38,20000,0.38
2012-11-29,0.38,0.38,0.38,0.38,0,0.38
2012-11-30,0.38,0.38,0.38,0.38,0,0.38
2012-12-03,0.38,0.38,0.38,0.38,6200,0.38
2012-12-04,0.38,0.38,0.38,0.38,26000,0.38
2012-12-05,0.38,0.38,0.38,0.38,0,0.38
2012-12-06,0.415,0.42,0.415,0.42,16000,0.42
2012-12-07,0.42,0.42,0.42,0.42,0,0.42
2012-12-10,0.42,0.42,0.42,0.42,37000,0.42
2012-12-11,0.42,0.42,0.42,0.42,0,0.42
2012-12-12,0.4,0.41,0.4,0.41,36200,0.41
2012-12-13,0.41,0.41,0.41,0.41,0,0.41
2012-12-14,0.4,0.4,0.4,0.4,20000,0.4
2012-12-17,0.4,0.41,0.4,0.41,35000,0.41
2012-12-18,0.41,0.42,0.41,0.42,75000,0.42
2012-12-19,0.42,0.42,0.42,0.42,80000,0.42
2012-12-20,0.42,0.42,0.405,0.405,16900,0.405
2012-12-21,0.42,0.42,0.41,0.41,37000,0.41
2012-12-24,0.42,0.42,0.42,0.42,65400,0.42
2012-12-25,0.42,0.42,0.42,0.42,0,0.42
2012-12-26,0.42,0.42,0.42,0.42,0,0.42
2012-12-27,0.42,0.42,0.42,0.42,0,0.42
2012-12-28,0.42,0.42,0.42,0.42,0,0.42
2012-12-31,0.42,0.42,0.42,0.42,0,0.42
2013-01-01,0.42,0.42,0.42,0.42,0,0.42
2013-01-02,0.42,0.42,0.42,0.42,0,0.42
2013-01-03,0.42,0.42,0.42,0.42,0,0.42
2013-01-04,0.42,0.42,0.42,0.42,77200,0.42
2013-01-07,0.42,0.42,0.42,0.42,0,0.42
2013-01-08,0.42,0.42,0.42,0.42,0,0.42
2013-01-09,0.46,0.46,0.46,0.46,26700,0.46
2013-01-10,0.46,0.46,0.46,0.46,0,0.46
2013-01-11,0.5,0.59,0.5,0.58,54300,0.58
2013-01-14,0.59,0.59,0.59,0.59,16400,0.59
2013-01-15,0.59,0.59,0.59,0.59,0,0.59
2013-01-16,0.59,0.59,0.59,0.59,0,0.59
2013-01-17,0.55,0.58,0.53,0.58,43600,0.58
2013-01-18,0.58,0.58,0.58,0.58,1500,0.58
2013-01-21,0.58,0.58,0.57,0.57,16200,0.57
2013-01-22,0.57,0.57,0.57,0.57,0,0.57
2013-01-24,0.59,0.65,0.59,0.65,35000,0.65
2013-01-25,0.65,0.65,0.65,0.65,0,0.65
2013-01-28,0.65,0.65,0.65,0.65,0,0.65
2013-01-29,0.65,0.67,0.65,0.67,49200,0.67
2013-01-30,0.66,0.66,0.66,0.66,15000,0.66
2013-01-31,0.66,0.69,0.66,0.69,4500,0.69
2013-02-01,0.69,0.69,0.64,0.64,58000,0.64
2013-02-04,0.625,0.625,0.57,0.615,107300,0.615
2013-02-05,0.61,0.61,0.6,0.6,40100,0.6
2013-02-06,0.6,0.6,0.6,0.6,1000,0.6
2013-02-07,0.6,0.6,0.57,0.595,203800,0.595
2013-02-08,0.59,0.6,0.59,0.6,20000,0.6
2013-02-11,0.58,0.58,0.58,0.58,4000,0.58
2013-02-12,0.58,0.58,0.58,0.58,3500,0.58
2013-02-13,0.6,0.6,0.57,0.57,3000,0.57
2013-02-14,0.57,0.57,0.57,0.57,0,0.57
2013-02-15,0.57,0.57,0.57,0.57,48000,0.57
2013-02-18,0.57,0.57,0.57,0.57,0,0.57
2013-02-19,0.57,0.57,0.57,0.57,0,0.57
2013-02-20,0.54,0.54,0.54,0.54,20000,0.54
2013-02-21,0.54,0.54,0.54,0.54,0,0.54
2013-02-22,0.54,0.54,0.54,0.54,0,0.54
2013-02-25,0.52,0.52,0.5,0.5,10700,0.5
2013-02-26,0.5,0.5,0.5,0.5,0,0.5
2013-02-27,0.5,0.5,0.5,0.5,0,0.5
2013-02-28,0.5,0.5,0.5,0.5,0,0.5
2013-03-01,0.52,0.52,0.52,0.52,5000,0.52
2013-03-04,0.52,0.52,0.52,0.52,0,0.52
2013-03-05,0.52,0.52,0.52,0.52,10000,0.52
2013-03-06,0.52,0.52,0.52,0.52,16500,0.52
2013-03-07,0.525,0.525,0.525,0.525,10000,0.525
2013-03-08,0.525,0.525,0.525,0.525,0,0.525
2013-03-11,0.525,0.525,0.525,0.525,0,0.525
2013-03-12,0.52,0.52,0.52,0.52,3500,0.52
2013-03-13,0.52,0.52,0.52,0.52,0,0.52
2013-03-14,0.52,0.52,0.52,0.52,0,0.52
2013-03-15,0.52,0.52,0.52,0.52,0,0.52
2013-03-18,0.52,0.52,0.52,0.52,0,0.52
2013-03-19,0.5,0.5,0.47,0.47,9800,0.47
2013-03-20,0.47,0.47,0.47,0.47,0,0.47
2013-03-21,0.47,0.47,0.47,0.47,0,0.47
2013-03-22,0.47,0.47,0.47,0.47,35300,0.47
2013-03-25,0.42,0.42,0.41,0.41,12500,0.41
2013-03-26,0.43,0.49,0.43,0.49,15000,0.49
2013-03-27,0.49,0.49,0.49,0.49,0,0.49
2013-03-28,0.49,0.5,0.49,0.5,9500,0.5
2013-03-29,0.5,0.5,0.5,0.5,0,0.5
2013-04-01,0.5,0.5,0.5,0.5,0,0.5
2013-04-02,0.5,0.5,0.5,0.5,57600,0.5
2013-04-03,0.46,0.46,0.46,0.46,44300,0.46
2013-04-04,0.44,0.44,0.41,0.41,25000,0.41
2013-04-05,0.42,0.42,0.42,0.42,14800,0.42
2013-04-08,0.42,0.42,0.42,0.42,100,0.42
2013-04-09,0.44,0.44,0.44,0.44,10000,0.44
2013-04-10,0.44,0.44,0.44,0.44,8300,0.44
2013-04-11,0.46,0.5,0.46,0.46,31100,0.46
2013-04-12,0.46,0.46,0.46,0.46,800,0.46
2013-04-15,0.455,0.455,0.43,0.43,60600,0.43
2013-04-16,0.42,0.42,0.39,0.39,29500,0.39
2013-04-17,0.42,0.42,0.42,0.42,20500,0.42
2013-04-18,0.42,0.42,0.42,0.42,0,0.42
2013-04-19,0.44,0.46,0.44,0.46,28400,0.46
2013-04-22,0.46,0.46,0.445,0.445,6000,0.445
2013-04-23,0.45,0.45,0.45,0.45,5000,0.45
2013-04-24,0.445,0.445,0.42,0.42,28700,0.42
2013-04-25,0.42,0.42,0.42,0.42,0,0.42
2013-04-26,0.42,0.42,0.42,0.42,0,0.42
2013-04-29,0.425,0.425,0.425,0.425,1000,0.425
2013-04-30,0.4,0.4,0.39,0.39,108000,0.39
2013-05-01,0.39,0.39,0.39,0.39,15000,0.39
2013-05-02,0.39,0.39,0.39,0.39,11500,0.39
2013-05-03,0.38,0.38,0.38,0.38,12500,0.38
2013-05-06,0.38,0.38,0.38,0.38,0,0.38
2013-05-07,0.36,0.38,0.36,0.38,96000,0.38
2013-05-08,0.38,0.38,0.38,0.38,0,0.38
2013-05-09,0.38,0.38,0.365,0.365,7900,0.365
2013-05-10,0.38,0.38,0.38,0.38,14400,0.38
2013-05-13,0.38,0.425,0.36,0.36,128300,0.36
2013-05-14,0.37,0.38,0.37,0.38,103500,0.38
2013-05-15,0.38,0.4,0.38,0.4,12500,0.4
2013-05-16,0.405,0.41,0.4,0.405,446600,0.405
2013-05-17,0.41,0.425,0.41,0.425,74900,0.425
2013-05-20,0.41,0.41,0.41,0.41,50000,0.41
2013-05-21,0.41,0.41,0.4,0.4,51500,0.4
2013-05-22,0.4,0.4,0.4,0.4,25000,0.4
2013-05-23,0.4,0.4,0.4,0.4,0,0.4
2013-05-24,0.4,0.4,0.4,0.4,0,0.4
2013-05-27,0.4,0.4,0.4,0.4,0,0.4
2013-05-28,0.405,0.405,0.4,0.4,536300,0.4
2013-05-29,0.39,0.4,0.39,0.4,9600,0.4
2013-05-30,0.4,0.4,0.4,0.4,0,0.4
2013-05-31,0.41,0.41,0.41,0.41,48500,0.41
2013-06-03,0.41,0.41,0.41,0.41,0,0.41
2013-06-04,0.41,0.41,0.41,0.41,0,0.41
2013-06-05,0.42,0.42,0.4,0.4,200000,0.4
2013-06-06,0.4,0.4,0.4,0.4,0,0.4
2013-06-07,0.4,0.4,0.4,0.4,5000,0.4
2013-06-10,0.4,0.4,0.4,0.4,0,0.4
2013-06-11,0.4,0.4,0.4,0.4,0,0.4
2013-06-12,0.46,0.46,0.45,0.45,20000,0.45
2013-06-13,0.45,0.45,0.45,0.45,5000,0.45
2013-06-14,0.47,0.48,0.47,0.48,16000,0.48
2013-06-17,0.48,0.48,0.48,0.48,0,0.48
2013-06-18,0.45,0.45,0.45,0.45,6700,0.45
2013-06-19,0.45,0.45,0.45,0.45,0,0.45
2013-06-20,0.45,0.45,0.45,0.45,0,0.45
2013-06-21,0.42,0.43,0.42,0.42,15400,0.42
2013-06-24,0.42,0.42,0.42,0.42,0,0.42
2013-06-25,0.44,0.44,0.44,0.44,4300,0.44
2013-06-26,0.5,0.52,0.45,0.45,26000,0.45
2013-06-27,0.45,0.45,0.45,0.45,0,0.45
2013-06-28,0.49,0.49,0.49,0.49,5500,0.49
2013-07-01,0.49,0.5,0.49,0.5,8000,0.5
2013-07-02,0.5,0.5,0.5,0.5,10000,0.5
2013-07-03,0.49,0.49,0.49,0.49,11800,0.49
2013-07-04,0.48,0.48,0.48,0.48,5000,0.48
2013-07-05,0.48,0.48,0.48,0.48,3000,0.48
2013-07-08,0.49,0.49,0.49,0.49,2200,0.49
2013-07-09,0.49,0.49,0.49,0.49,0,0.49
2013-07-10,0.49,0.49,0.49,0.49,0,0.49
2013-07-11,0.49,0.49,0.49,0.49,0,0.49
2013-07-12,0.49,0.49,0.49,0.49,0,0.49
2013-07-15,0.49,0.49,0.49,0.49,10000,0.49
2013-07-16,0.5,0.5,0.49,0.5,58100,0.5
2013-07-17,0.5,0.51,0.5,0.5,50000,0.5
2013-07-18,0.5,0.5,0.5,0.5,76000,0.5
2013-07-19,0.5,0.51,0.5,0.5,292900,0.5
2013-07-22,0.5,0.52,0.47,0.52,68500,0.52
2013-07-23,0.52,0.53,0.52,0.53,25000,0.53
2013-07-24,0.53,0.53,0.53,0.53,0,0.53
2013-07-25,0.53,0.53,0.52,0.52,169000,0.52
2013-07-26,0.52,0.52,0.52,0.52,0,0.52
2013-07-29,0.52,0.53,0.52,0.53,7500,0.53
2013-07-30,0.54,0.54,0.54,0.54,11000,0.54
2013-07-31,0.54,0.54,0.53,0.53,77500,0.53
2013-08-01,0.53,0.53,0.53,0.53,4000,0.53
2013-08-02,0.53,0.53,0.53,0.53,25000,0.53
2013-08-05,0.53,0.55,0.53,0.55,215800,0.55
2013-08-06,0.55,0.56,0.545,0.56,292700,0.56
2013-08-07,0.56,0.56,0.56,0.56,0,0.56
2013-08-08,0.56,0.56,0.56,0.56,6000,0.56
2013-08-09,0.56,0.56,0.56,0.56,0,0.56
2013-08-12,0.55,0.55,0.54,0.54,15000,0.54
2013-08-13,0.54,0.54,0.54,0.54,15600,0.54
2013-08-14,0.52,0.56,0.52,0.55,61000,0.55
2013-08-15,0.55,0.55,0.54,0.55,34800,0.55
2013-08-16,0.54,0.54,0.52,0.52,16600,0.52
2013-08-19,0.51,0.52,0.51,0.52,12900,0.52
2013-08-20,0.48,0.5,0.48,0.5,10000,0.5
2013-08-21,0.5,0.52,0.5,0.52,54400,0.52
2013-08-22,0.52,0.52,0.52,0.52,10000,0.52
2013-08-23,0.7,0.72,0.66,0.7,370000,0.7
2013-08-26,0.7,0.7,0.68,0.68,206500,0.68
2013-08-27,0.68,0.68,0.635,0.64,79200,0.64
2013-08-28,0.65,0.655,0.65,0.655,47700,0.655
2013-08-29,0.655,0.67,0.655,0.66,32000,0.66
2013-08-30,0.665,0.665,0.66,0.665,32500,0.665
2013-09-02,0.66,0.66,0.655,0.66,40000,0.66
2013-09-03,0.66,0.66,0.66,0.66,12000,0.66
2013-09-04,0.65,0.65,0.64,0.64,6000,0.64
2013-09-05,0.64,0.64,0.64,0.64,16800,0.64
2013-09-06,0.63,0.655,0.61,0.61,64500,0.61
2013-09-09,0.61,0.61,0.61,0.61,32500,0.61
2013-09-10,0.62,0.62,0.62,0.62,5000,0.62
2013-09-11,0.62,0.62,0.61,0.62,28300,0.62
2013-09-12,0.62,0.62,0.62,0.62,11000,0.62
2013-09-13,0.62,0.63,0.62,0.63,27200,0.63
2013-09-16,0.63,0.645,0.63,0.64,25000,0.64
2013-09-17,0.64,0.68,0.64,0.65,202500,0.65
2013-09-18,0.65,0.72,0.65,0.72,521400,0.72
2013-09-19,0.75,0.76,0.74,0.75,394300,0.75
2013-09-20,0.75,0.75,0.725,0.73,161100,0.73
2013-09-23,0.735,0.735,0.73,0.73,16500,0.73
2013-09-24,0.73,0.73,0.725,0.725,68700,0.725
2013-09-25,0.725,0.735,0.72,0.735,40100,0.735
2013-09-26,0.735,0.735,0.73,0.735,51000,0.735
2013-09-27,0.74,0.74,0.74,0.74,13900,0.74
2013-09-30,0.74,0.74,0.72,0.72,43500,0.72
2013-10-01,0.73,0.74,0.73,0.73,35100,0.73
2013-10-02,0.72,0.72,0.72,0.72,43900,0.72
2013-10-03,0.745,0.745,0.72,0.72,12500,0.72
2013-10-04,0.73,0.745,0.73,0.745,53000,0.745
2013-10-07,0.74,0.74,0.74,0.74,100,0.74
2013-10-08,0.74,0.745,0.73,0.73,26400,0.73
2013-10-09,0.73,0.73,0.73,0.73,9800,0.73
2013-10-10,0.73,0.73,0.73,0.73,15200,0.73
2013-10-11,0.735,0.735,0.7,0.7,77400,0.7
2013-10-14,0.7,0.7,0.7,0.7,0,0.7
2013-10-15,0.7,0.7,0.7,0.7,0,0.7
2013-10-16,0.7,0.7,0.675,0.68,70800,0.68
2013-10-17,0.69,0.73,0.69,0.7,700600,0.7
2013-10-18,0.7,0.7,0.7,0.7,159600,0.7
2013-10-21,0.7,0.7,0.7,0.7,265700,0.7
2013-10-22,0.705,0.75,0.705,0.75,88200,0.75
2013-10-23,0.73,0.73,0.69,0.7,582800,0.7
2013-10-24,0.715,0.72,0.715,0.72,35000,0.72
2013-10-25,0.715,0.73,0.715,0.73,389700,0.73
2013-10-28,0.74,0.74,0.73,0.73,24000,0.73
2013-10-29,0.73,0.73,0.715,0.715,64500,0.715
2013-10-30,0.72,0.72,0.72,0.72,500,0.72
2013-10-31,0.72,0.72,0.7,0.71,74000,0.71
2013-11-01,0.71,0.71,0.7,0.71,274600,0.71
2013-11-04,0.7,0.7,0.7,0.7,55300,0.7
2013-11-05,0.7,0.71,0.7,0.71,53000,0.71
2013-11-06,0.72,0.72,0.72,0.72,135200,0.72
2013-11-07,0.73,0.73,0.73,0.73,10000,0.73
2013-11-08,0.72,0.72,0.72,0.72,44000,0.72
2013-11-11,0.73,0.73,0.72,0.72,49500,0.72
2013-11-12,0.72,0.72,0.72,0.72,92300,0.72
2013-11-13,0.72,0.72,0.72,0.72,11700,0.72
2013-11-14,0.72,0.72,0.72,0.72,63000,0.72
2013-11-15,0.73,0.73,0.73,0.73,68100,0.73
2013-11-18,0.73,0.73,0.73,0.73,0,0.73
2013-11-19,0.73,0.73,0.73,0.73,31100,0.73
2013-11-20,0.73,0.73,0.73,0.73,0,0.73
2013-11-21,0.74,0.74,0.735,0.735,36000,0.735
2013-11-22,0.74,0.74,0.74,0.74,34900,0.74
2013-11-25,0.74,0.74,0.74,0.74,0,0.74
2013-11-26,0.74,0.74,0.74,0.74,0,0.74
2013-11-27,0.74,0.74,0.74,0.74,0,0.74
2013-11-28,0.7,0.7,0.7,0.7,4700,0.7
2013-11-29,0.71,0.72,0.69,0.69,12900,0.69
2013-12-02,0.7,0.71,0.7,0.7,82200,0.7
2013-12-03,0.705,0.71,0.69,0.69,20000,0.69
2013-12-04,0.685,0.7,0.67,0.7,35100,0.7
2013-12-05,0.72,0.75,0.72,0.75,30000,0.75
2013-12-06,0.69,0.74,0.69,0.74,22500,0.74
2013-12-09,0.74,0.74,0.74,0.74,0,0.74
2013-12-10,0.68,0.72,0.68,0.7,491500,0.7
2013-12-11,0.7,0.735,0.7,0.735,36000,0.735
2013-12-12,0.72,0.72,0.72,0.72,132600,0.72
2013-12-13,0.72,0.72,0.72,0.72,0,0.72
2013-12-16,0.72,0.72,0.72,0.72,0,0.72
2013-12-17,0.72,0.72,0.72,0.72,0,0.72
2013-12-18,0.68,0.7,0.68,0.7,41000,0.7
2013-12-19,0.7,0.7,0.69,0.7,62900,0.7
2013-12-20,0.7,0.7,0.7,0.7,0,0.7
2013-12-23,0.7,0.7,0.68,0.68,52200,0.68
2013-12-24,0.685,0.685,0.685,0.685,3000,0.685
2013-12-25,0.685,0.685,0.685,0.685,0,0.685
2013-12-26,0.685,0.685,0.685,0.685,0,0.685
2013-12-27,0.685,0.685,0.65,0.65,39700,0.65
2013-12-30,0.65,0.65,0.65,0.65,0,0.65
2013-12-31,0.68,0.68,0.68,0.68,5000,0.68
2014-01-01,0.68,0.68,0.68,0.68,0,0.68
2014-01-02,0.7,0.7,0.68,0.7,11600,0.7
2014-01-03,0.7,0.72,0.7,0.7,47000,0.7
2014-01-06,0.7,0.7,0.7,0.7,200,0.7
2014-01-07,0.7,0.7,0.7,0.7,22700,0.7
2014-01-08,0.7,0.7,0.7,0.7,39000,0.7
2014-01-09,0.7,0.7,0.7,0.7,0,0.7
2014-01-10,0.685,0.685,0.65,0.655,44900,0.655
2014-01-13,0.655,0.655,0.655,0.655,0,0.655
2014-01-14,0.655,0.655,0.655,0.655,0,0.655
2014-01-15,0.655,0.655,0.655,0.655,0,0.655
2014-01-16,0.67,0.67,0.67,0.67,78100,0.67
2014-01-17,0.68,0.68,0.68,0.68,30000,0.68
2014-01-20,0.68,0.68,0.68,0.68,0,0.68
2014-01-21,0.68,0.68,0.665,0.665,17000,0.665
2014-01-22,0.665,0.665,0.665,0.665,33900,0.665
2014-01-23,0.665,0.665,0.665,0.665,0,0.665
2014-01-24,0.665,0.665,0.665,0.665,0,0.665
2014-01-27,0.665,0.665,0.665,0.665,0,0.665
2014-01-28,0.665,0.665,0.665,0.665,1200,0.665
2014-01-29,0.665,0.665,0.665,0.665,0,0.665
2014-01-30,0.665,0.665,0.665,0.665,0,0.665
2014-01-31,0.665,0.67,0.665,0.67,29000,0.67
2014-02-03,0.67,0.67,0.67,0.67,0,0.67
2014-02-04,0.68,0.68,0.68,0.68,100,0.68
2014-02-05,0.67,0.67,0.665,0.665,4800,0.665
2014-02-06,0.665,0.665,0.65,0.65,150000,0.65
2014-02-07,0.65,0.65,0.65,0.65,5000,0.65
2014-02-10,0.67,0.68,0.67,0.68,10000,0.68
2014-02-11,0.68,0.68,0.68,0.68,0,0.68
2014-02-12,0.68,0.68,0.68,0.68,0,0.68
2014-02-13,0.68,0.68,0.68,0.68,0,0.68
2014-02-14,0.68,0.68,0.65,0.68,81200,0.68
2014-02-17,0.65,0.68,0.65,0.68,21800,0.68
2014-02-18,0.65,0.68,0.63,0.68,75100,0.68
2014-02-19,0.68,0.68,0.68,0.68,0,0.68
2014-02-20,0.665,0.67,0.635,0.67,45700,0.67
2014-02-21,0.635,0.635,0.635,0.635,15000,0.635
2014-02-24,0.665,0.665,0.65,0.65,15700,0.65
2014-02-25,0.66,0.66,0.65,0.65,37500,0.65
2014-02-26,0.65,0.65,0.65,0.65,0,0.65
2014-02-27,0.65,0.65,0.65,0.65,0,0.65
2014-02-28,0.65,0.65,0.65,0.65,0,0.65
2014-03-03,0.625,0.64,0.6,0.64,49900,0.64
2014-03-04,0.635,0.635,0.635,0.635,2000,0.635
2014-03-05,0.635,0.635,0.635,0.635,0,0.635
2014-03-06,0.635,0.635,0.635,0.635,0,0.635
2014-03-07,0.635,0.635,0.635,0.635,0,0.635
2014-03-10,0.635,0.635,0.635,0.635,0,0.635
2014-03-11,0.61,0.64,0.61,0.64,6400,0.64
2014-03-12,0.63,0.64,0.63,0.64,13000,0.64
2014-03-13,0.64,0.64,0.64,0.64,7800,0.64
2014-03-14,0.64,0.64,0.64,0.64,0,0.64
2014-03-17,0.65,0.67,0.65,0.65,56500,0.65
2014-03-18,0.65,0.65,0.65,0.65,5900,0.65
2014-03-19,0.65,0.65,0.65,0.65,0,0.65
2014-03-20,0.65,0.65,0.65,0.65,50000,0.65
2014-03-21,0.65,0.65,0.62,0.625,24800,0.625
2014-03-24,0.62,0.63,0.61,0.63,53500,0.63
2014-03-25,0.63,0.63,0.63,0.63,0,0.63
2014-03-26,0.63,0.63,0.63,0.63,0,0.63
2014-03-27,0.63,0.63,0.63,0.63,0,0.63
2014-03-28,0.63,0.63,0.63,0.63,0,0.63
2014-03-31,0.63,0.63,0.63,0.63,0,0.63
2014-04-01,0.63,0.63,0.63,0.63,0,0.63
2014-04-02,0.575,0.595,0.575,0.585,35800,0.585
2014-04-03,0.58,0.595,0.58,0.595,14000,0.595
2014-04-04,0.575,0.575,0.575,0.575,33500,0.575
2014-04-07,0.545,0.545,0.545,0.545,31000,0.545
2014-04-08,0.545,0.545,0.545,0.545,0,0.545
2014-04-09,0.545,0.545,0.545,0.545,0,0.545
2014-04-10,0.54,0.54,0.54,0.54,29200,0.54
2014-04-11,0.54,0.54,0.54,0.54,0,0.54
2014-04-14,0.55,0.55,0.55,0.55,288000,0.55
2014-04-15,0.55,0.55,0.55,0.55,0,0.55
2014-04-16,0.53,0.53,0.53,0.53,25000,0.53
2014-04-17,0.53,0.55,0.53,0.55,45200,0.55
2014-04-18,0.55,0.55,0.55,0.55,0,0.55
2014-04-21,0.55,0.55,0.55,0.55,0,0.55
2014-04-22,0.55,0.55,0.55,0.55,0,0.55
2014-04-23,0.53,0.53,0.5,0.5,260000,0.5
2014-04-24,0.515,0.515,0.51,0.515,47300,0.515
2014-04-25,0.515,0.515,0.515,0.515,0,0.515
2014-04-28,0.51,0.52,0.5,0.5,202100,0.5
2014-04-29,0.5,0.5,0.5,0.5,144700,0.5
2014-04-30,0.5,0.5,0.5,0.5,75000,0.5
2014-05-01,0.5,0.5,0.5,0.5,197200,0.5
2014-05-02,0.5,0.5,0.5,0.5,88000,0.5
2014-05-05,0.5,0.5,0.5,0.5,0,0.5
2014-05-06,0.53,0.53,0.53,0.53,6100,0.53
2014-05-07,0.5,0.5,0.49,0.49,47500,0.49
2014-05-08,0.49,0.49,0.49,0.49,0,0.49
2014-05-09,0.49,0.49,0.49,0.49,0,0.49
2014-05-12,0.5,0.5,0.5,0.5,82000,0.5
2014-05-13,0.5,0.5,0.5,0.5,16100,0.5
2014-05-14,0.5,0.55,0.5,0.5,243100,0.5
2014-05-15,0.525,0.55,0.525,0.55,53400,0.55
2014-05-16,0.54,0.545,0.515,0.515,209100,0.515
2014-05-19,0.52,0.52,0.52,0.52,22900,0.52
2014-05-20,0.515,0.53,0.515,0.515,123800,0.515
2014-05-21,0.515,0.515,0.51,0.51,20700,0.51
2014-05-22,0.515,0.515,0.505,0.505,26000,0.505
2014-05-23,0.51,0.515,0.51,0.51,42200,0.51
2014-05-26,0.51,0.51,0.51,0.51,0,0.51
2014-05-27,0.51,0.51,0.505,0.505,32500,0.505
2014-05-28,0.505,0.51,0.5,0.5,32800,0.5
2014-05-29,0.5,0.5,0.5,0.5,0,0.5
2014-05-30,0.55,0.55,0.55,0.55,4000,0.55
2014-06-02,0.55,0.55,0.55,0.55,0,0.55
2014-06-03,0.52,0.52,0.515,0.52,101800,0.52
2014-06-04,0.505,0.505,0.5,0.5,93200,0.5
2014-06-05,0.5,0.5,0.5,0.5,98500,0.5
2014-06-06,0.5,0.5,0.48,0.485,72100,0.485
2014-06-09,0.485,0.485,0.485,0.485,0,0.485
2014-06-10,0.49,0.49,0.47,0.47,46600,0.47
2014-06-11,0.475,0.48,0.475,0.48,10000,0.48
2014-06-12,0.47,0.47,0.45,0.47,37100,0.47
2014-06-13,0.45,0.45,0.45,0.45,177400,0.45
2014-06-16,0.45,0.45,0.45,0.45,0,0.45
2014-06-17,0.45,0.53,0.45,0.52,277200,0.52
2014-06-18,0.52,0.64,0.52,0.6,167300,0.6
2014-06-19,0.6,0.6,0.53,0.57,39900,0.57
2014-06-20,0.57,0.57,0.56,0.56,11500,0.56
2014-06-23,0.54,0.55,0.52,0.55,271500,0.55
2014-06-24,0.56,0.57,0.56,0.57,1800,0.57
2014-06-25,0.57,0.57,0.57,0.57,9100,0.57
2014-06-26,0.53,0.58,0.53,0.58,2500,0.58
2014-06-27,0.56,0.56,0.56,0.56,20000,0.56
2014-06-30,0.56,0.56,0.56,0.56,0,0.56
2014-07-01,0.535,0.535,0.525,0.525,44800,0.525
2014-07-02,0.525,0.525,0.525,0.525,0,0.525
2014-07-03,0.575,0.58,0.575,0.58,26100,0.58
2014-07-04,0.58,0.62,0.58,0.62,8000,0.62
2014-07-07,0.6,0.6,0.565,0.58,43300,0.58
2014-07-08,0.58,0.58,0.56,0.56,129700,0.56
2014-07-09,0.56,0.56,0.56,0.56,40000,0.56
2014-07-10,0.56,0.56,0.56,0.56,0,0.56
2014-07-11,0.56,0.56,0.56,0.56,29500,0.56
2014-07-14,0.58,0.58,0.58,0.58,25100,0.58
2014-07-15,0.58,0.58,0.58,0.58,16000,0.58
2014-07-16,0.58,0.58,0.58,0.58,0,0.58
2014-07-17,0.56,0.56,0.55,0.55,48000,0.55
2014-07-18,0.55,0.55,0.55,0.55,3100,0.55
2014-07-21,0.55,0.55,0.55,0.55,0,0.55
2014-07-22,0.525,0.525,0.52,0.525,29300,0.525
2014-07-23,0.52,0.52,0.52,0.52,1800,0.52
2014-07-24,0.525,0.525,0.525,0.525,6600,0.525
2014-07-25,0.53,0.53,0.52,0.52,34600,0.52
2014-07-28,0.52,0.52,0.5,0.5,85000,0.5
2014-07-29,0.48,0.48,0.475,0.475,6100,0.475
2014-07-30,0.49,0.49,0.485,0.485,4000,0.485
2014-07-31,0.485,0.485,0.485,0.485,0,0.485
2014-08-01,0.52,0.53,0.5,0.5,38800,0.5
2014-08-04,0.51,0.51,0.51,0.51,5000,0.51
2014-08-05,0.51,0.51,0.51,0.51,0,0.51
2014-08-06,0.54,0.545,0.53,0.545,45000,0.545
2014-08-07,0.58,0.6,0.58,0.58,515700,0.58
2014-08-08,0.6,0.6,0.6,0.6,32000,0.6
2014-08-11,0.6,0.6,0.58,0.58,62300,0.58
2014-08-12,0.55,0.58,0.54,0.58,69900,0.58
2014-08-13,0.55,0.58,0.55,0.58,8500,0.58
2014-08-14,0.55,0.55,0.55,0.55,7000,0.55
2014-08-15,0.56,0.56,0.56,0.56,48000,0.56
2014-08-18,0.56,0.56,0.56,0.56,10800,0.56
2014-08-19,0.56,0.56,0.56,0.56,0,0.56
2014-08-20,0.56,0.56,0.56,0.56,0,0.56
2014-08-21,0.56,0.56,0.56,0.56,0,0.56
2014-08-22,0.56,0.56,0.56,0.56,27200,0.56
2014-08-25,0.565,0.58,0.56,0.58,19500,0.58
2014-08-26,0.57,0.58,0.57,0.58,52000,0.58
2014-08-27,0.58,0.58,0.58,0.58,69500,0.58
2014-08-28,0.59,0.59,0.57,0.57,67400,0.57
2014-08-29,0.57,0.57,0.57,0.57,0,0.57
2014-09-01,0.565,0.57,0.555,0.555,30700,0.555
2014-09-02,0.56,0.56,0.535,0.535,96500,0.535
2014-09-03,0.57,0.57,0.57,0.57,115500,0.57
2014-09-04,0.57,0.57,0.57,0.57,0,0.57
2014-09-05,0.57,0.57,0.57,0.57,0,0.57
2014-09-08,0.57,0.57,0.57,0.57,54600,0.57
2014-09-09,0.57,0.57,0.57,0.57,800,0.57
2014-09-10,0.5670000000000001,0.57,0.5670000000000001,0.57,39100,0.57
2014-09-11,0.57,0.57,0.565,0.57,64500,0.57
2014-09-12,0.57,0.57,0.57,0.57,0,0.57
2014-09-15,0.57,0.615,0.57,0.615,148900,0.615
2014-09-16,0.615,0.62,0.59,0.59,97400,0.59
2014-09-17,0.615,0.62,0.615,0.62,48700,0.62
2014-09-18,0.61,0.62,0.61,0.62,25100,0.62
2014-09-19,0.61,0.62,0.61,0.62,10100,0.62
2014-09-22,0.62,0.62,0.61,0.61,24300,0.61
2014-09-23,0.605,0.605,0.605,0.605,1900,0.605
2014-09-24,0.59,0.59,0.585,0.59,41800,0.59
2014-09-25,0.58,0.61,0.58,0.61,112200,0.61
2014-09-26,0.59,0.59,0.59,0.59,6000,0.59
2014-09-29,0.59,0.59,0.58,0.58,11400,0.58
2014-09-30,0.58,0.58,0.58,0.58,2600,0.58
2014-10-01,0.58,0.58,0.58,0.58,20000,0.58
2014-10-02,0.58,0.58,0.58,0.58,0,0.58
2014-10-03,0.58,0.58,0.58,0.58,0,0.58
2014-10-06,0.59,0.59,0.59,0.59,7000,0.59
2014-10-07,0.59,0.59,0.59,0.59,0,0.59
2014-10-08,0.6,0.6,0.58,0.58,46800,0.58
2014-10-09,0.58,0.58,0.58,0.58,0,0.58
2014-10-10,0.58,0.58,0.58,0.58,308700,0.58
2014-10-13,0.58,0.58,0.58,0.58,22900,0.58
2014-10-14,0.58,0.58,0.58,0.58,0,0.58
2014-10-15,0.55,0.55,0.55,0.55,6500,0.55
2014-10-16,0.55,0.55,0.55,0.55,0,0.55
2014-10-17,0.55,0.55,0.55,0.55,0,0.55
2014-10-20,0.53,0.58,0.53,0.58,10600,0.58
2014-10-21,0.55,0.55,0.55,0.55,31400,0.55
2014-10-22,0.55,0.55,0.55,0.55,0,0.55
2014-10-23,0.55,0.55,0.55,0.55,0,0.55
2014-10-24,0.55,0.55,0.55,0.55,0,0.55
2014-10-27,0.55,0.55,0.55,0.55,0,0.55
2014-10-28,0.55,0.55,0.55,0.55,8000,0.55
2014-10-29,0.53,0.55,0.53,0.55,16700,0.55
2014-10-30,0.55,0.55,0.55,0.55,0,0.55
2014-10-31,0.55,0.55,0.55,0.55,0,0.55
2014-11-03,0.55,0.55,0.55,0.55,0,0.55
2014-11-04,0.55,0.55,0.535,0.535,17100,0.535
2014-11-05,0.535,0.535,0.535,0.535,13500,0.535
2014-11-06,0.535,0.535,0.535,0.535,60000,0.535
2014-11-07,0.535,0.57,0.535,0.57,108900,0.57
2014-11-10,0.57,0.59,0.57,0.59,118200,0.59
2014-11-11,0.585,0.6,0.585,0.595,231500,0.595
2014-11-12,0.595,0.595,0.595,0.595,0,0.595
2014-11-13,0.595,0.595,0.595,0.595,0,0.595
2014-11-14,0.59,0.595,0.59,0.595,48100,0.595
2014-11-17,0.6,0.6,0.6,0.6,3500,0.6
2014-11-18,0.6,0.6,0.6,0.6,0,0.6
2014-11-19,0.6,0.6,0.6,0.6,0,0.6
2014-11-20,0.595,0.595,0.58,0.58,10000,0.58
2014-11-21,0.58,0.58,0.58,0.58,0,0.58
2014-11-24,0.56,0.56,0.555,0.555,42000,0.555
2014-11-25,0.555,0.555,0.555,0.555,0,0.555
2014-11-26,0.555,0.555,0.555,0.555,0,0.555
2014-11-27,0.55,0.55,0.55,0.55,88600,0.55
2014-11-28,0.55,0.55,0.54,0.54,56500,0.54
2014-12-01,0.54,0.54,0.53,0.53,4600,0.53
2014-12-02,0.54,0.55,0.535,0.55,307100,0.55
2014-12-03,0.55,0.55,0.55,0.55,155200,0.55
2014-12-04,0.56,0.56,0.55,0.55,30000,0.55
2014-12-05,0.55,0.55,0.55,0.55,0,0.55
2014-12-08,0.55,0.55,0.55,0.55,0,0.55
2014-12-09,0.555,0.555,0.54,0.54,556000,0.54
2014-12-10,0.54,0.54,0.505,0.52,61000,0.52
2014-12-11,0.5,0.5,0.5,0.5,115000,0.5
2014-12-12,0.5,0.5,0.5,0.5,18000,0.5
2014-12-15,0.5,0.5,0.5,0.5,0,0.5
2014-12-16,0.55,0.56,0.47,0.47,262500,0.47
2014-12-17,0.5,0.51,0.5,0.5,193800,0.5
2014-12-18,0.5,0.5,0.495,0.5,52000,0.5
2014-12-19,0.505,0.55,0.5,0.55,107400,0.55
2014-12-22,0.53,0.53,0.53,0.53,2809000,0.53
2014-12-23,0.53,0.55,0.53,0.545,22600,0.545
2014-12-24,0.54,0.54,0.53,0.54,18000,0.54
2014-12-25,0.54,0.54,0.54,0.54,0,0.54
2014-12-26,0.54,0.54,0.54,0.54,0,0.54
2014-12-29,0.54,0.54,0.535,0.54,57500,0.54
2014-12-30,0.54,0.54,0.54,0.54,0,0.54
2014-12-31,0.54,0.54,0.54,0.54,24500,0.54
2015-01-01,0.54,0.54,0.54,0.54,0,0.54
2015-01-02,0.54,0.54,0.54,0.54,0,0.54
2015-01-05,0.54,0.54,0.535,0.535,12900,0.535
2015-01-06,0.535,0.535,0.52,0.525,53600,0.525
2015-01-07,0.52,0.52,0.52,0.52,46000,0.52
2015-01-08,0.52,0.52,0.52,0.52,71400,0.52
2015-01-09,0.52,0.52,0.52,0.52,39600,0.52
2015-01-12,0.52,0.53,0.52,0.52,117500,0.52
2015-01-13,0.52,0.52,0.52,0.52,0,0.52
2015-01-14,0.52,0.52,0.52,0.52,30000,0.52
2015-01-15,0.52,0.52,0.52,0.52,235800,0.52
2015-01-16,0.52,0.52,0.52,0.52,0,0.52
2015-01-19,0.52,0.53,0.52,0.53,60800,0.53
2015-01-20,0.53,0.53,0.53,0.53,2700,0.53
2015-01-21,0.53,0.53,0.53,0.53,0,0.53
2015-01-22,0.53,0.53,0.53,0.53,0,0.53
2015-01-23,0.53,0.53,0.53,0.53,0,0.53
2015-01-26,0.53,0.53,0.53,0.53,0,0.53
2015-01-27,0.52,0.52,0.515,0.515,17400,0.515
2015-01-28,0.515,0.515,0.515,0.515,3500,0.515
2015-01-29,0.51,0.51,0.51,0.51,10000,0.51
2015-01-30,0.51,0.51,0.49,0.505,143900,0.505
2015-02-02,0.505,0.505,0.505,0.505,0,0.505
2015-02-03,0.5,0.5,0.495,0.495,46800,0.495
2015-02-04,0.495,0.5,0.49,0.49,53300,0.49
2015-02-05,0.49,0.49,0.485,0.49,102000,0.49
2015-02-06,0.49,0.5,0.49,0.5,93300,0.5
2015-02-09,0.5,0.5,0.5,0.5,73000,0.5
2015-02-10,0.5,0.5,0.5,0.5,64000,0.5
2015-02-11,0.515,0.515,0.515,0.515,127300,0.515
2015-02-12,0.515,0.515,0.515,0.515,10000,0.515
2015-02-13,0.51,0.515,0.51,0.515,62500,0.515
2015-02-16,0.515,0.535,0.515,0.535,84600,0.535
2015-02-17,0.54,0.56,0.54,0.55,473800,0.55
2015-02-18,0.57,0.605,0.57,0.6,403600,0.6
2015-02-19,0.605,0.605,0.59,0.59,52100,0.59
2015-02-20,0.6,0.62,0.6,0.61,180600,0.61
2015-02-23,0.61,0.61,0.6,0.6,123300,0.6
2015-02-24,0.605,0.605,0.6,0.605,45900,0.605
2015-02-25,0.6,0.6,0.59,0.59,64900,0.59
2015-02-26,0.59,0.6,0.59,0.6,53900,0.6
2015-02-27,0.6,0.6,0.6,0.6,32300,0.6
2015-03-02,0.6,0.6,0.59,0.59,33500,0.59
2015-03-03,0.59,0.59,0.57,0.57,43100,0.57
2015-03-04,0.57,0.57,0.55,0.55,102600,0.55
2015-03-05,0.55,0.55,0.55,0.55,4300,0.55
2015-03-06,0.55,0.57,0.545,0.57,61900,0.57
2015-03-09,0.57,0.58,0.57,0.58,50400,0.58
2015-03-10,0.58,0.58,0.565,0.58,187000,0.58
2015-03-11,0.58,0.58,0.58,0.58,0,0.58
2015-03-12,0.58,0.58,0.58,0.58,0,0.58
2015-03-13,0.58,0.595,0.575,0.575,24200,0.575
2015-03-16,0.575,0.575,0.575,0.575,0,0.575
2015-03-17,0.575,0.575,0.575,0.575,0,0.575
2015-03-18,0.575,0.575,0.575,0.575,0,0.575
2015-03-19,0.575,0.575,0.575,0.575,0,0.575
2015-03-20,0.575,0.575,0.575,0.575,0,0.575
2015-03-23,0.57,0.625,0.57,0.625,917600,0.625
2015-03-24,0.645,0.71,0.645,0.7,183500,0.7
2015-03-25,0.73,0.73,0.695,0.7,136600,0.7
2015-03-26,0.69,0.69,0.655,0.655,175800,0.655
2015-03-27,0.66,0.68,0.65,0.68,239100,0.68
2015-03-30,0.65,0.65,0.615,0.635,354100,0.635
2015-03-31,0.62,0.63,0.6,0.6,285100,0.6
2015-04-01,0.6,0.61,0.595,0.595,108100,0.595
2015-04-02,0.61,0.61,0.61,0.61,1600,0.61
2015-04-03,0.61,0.61,0.61,0.61,0,0.61
2015-04-06,0.61,0.61,0.61,0.61,0,0.61
2015-04-07,0.6,0.6,0.595,0.595,125300,0.595
2015-04-08,0.6,0.6,0.58,0.58,199000,0.58
2015-04-09,0.59,0.59,0.58,0.58,86000,0.58
2015-04-10,0.58,0.58,0.57,0.58,125000,0.58
2015-04-13,0.595,0.61,0.595,0.605,437000,0.605
2015-04-14,0.61,0.61,0.6,0.6,727900,0.6
2015-04-15,0.6,0.6,0.6,0.6,830000,0.6
2015-04-16,0.6,0.605,0.6,0.6,374800,0.6
2015-04-17,0.6,0.63,0.6,0.61,353000,0.61
2015-04-20,0.635,0.65,0.62,0.64,48800,0.64
2015-04-21,0.65,0.65,0.65,0.65,33000,0.65
2015-04-22,0.64,0.64,0.63,0.63,62400,0.63
2015-04-23,0.63,0.63,0.63,0.63,1500,0.63
2015-04-24,0.63,0.65,0.63,0.65,78400,0.65
2015-04-27,0.66,0.67,0.66,0.67,41400,0.67
2015-04-28,0.675,0.695,0.665,0.68,202000,0.68
2015-04-29,0.7,0.7,0.69,0.69,68900,0.69
2015-04-30,0.69,0.695,0.69,0.69,13600,0.69
2015-05-01,0.69,0.69,0.69,0.69,22000,0.69
2015-05-04,0.69,0.69,0.69,0.69,0,0.69
2015-05-05,0.675,0.68,0.66,0.66,66800,0.66
2015-05-06,0.66,0.66,0.62,0.64,98700,0.64
2015-05-07,0.64,0.64,0.64,0.64,2000,0.64
2015-05-08,0.64,0.64,0.64,0.64,1700,0.64
2015-05-11,0.645,0.65,0.645,0.65,166100,0.65
2015-05-12,0.65,0.65,0.645,0.645,19100,0.645
2015-05-13,0.66,0.68,0.66,0.68,17000,0.68
2015-05-14,0.68,0.68,0.68,0.68,6900,0.68
2015-05-15,0.67,0.67,0.67,0.67,19000,0.67
2015-05-18,0.66,0.66,0.65,0.66,20900,0.66
2015-05-19,0.65,0.65,0.62,0.65,36800,0.65
2015-05-20,0.65,0.65,0.645,0.645,109700,0.645
2015-05-21,0.65,0.65,0.65,0.65,80900,0.65
2015-05-22,0.65,0.65,0.64,0.64,8700,0.64
2015-05-25,0.64,0.64,0.64,0.64,134700,0.64
2015-05-26,0.64,0.645,0.64,0.645,17100,0.645
2015-05-27,0.645,0.65,0.645,0.645,65100,0.645
2015-05-28,0.65,0.66,0.65,0.66,69200,0.66
2015-05-29,0.66,0.67,0.66,0.66,123100,0.66
2015-06-01,0.65,0.66,0.65,0.66,28000,0.66
2015-06-02,0.66,0.66,0.66,0.66,176800,0.66
2015-06-03,0.66,0.66,0.645,0.645,118500,0.645
2015-06-04,0.65,0.65,0.645,0.645,36600,0.645
2015-06-05,0.645,0.645,0.645,0.645,0,0.645
2015-06-08,0.645,0.645,0.645,0.645,0,0.645
2015-06-09,0.64,0.64,0.64,0.64,17000,0.64
2015-06-10,0.64,0.64,0.64,0.64,4300,0.64
2015-06-11,0.65,0.65,0.635,0.635,9200,0.635
2015-06-12,0.64,0.645,0.64,0.645,14100,0.645
2015-06-15,0.645,0.645,0.635,0.635,40800,0.635
2015-06-16,0.625,0.625,0.62,0.62,69000,0.62
2015-06-17,0.625,0.625,0.625,0.625,12100,0.625
2015-06-18,0.62,0.62,0.6,0.6,13400,0.6
2015-06-19,0.61,0.61,0.585,0.6,207400,0.6
2015-06-22,0.59,0.59,0.59,0.59,73200,0.59
2015-06-23,0.6,0.6,0.595,0.595,164300,0.595
2015-06-24,0.6,0.645,0.6,0.645,45900,0.645
2015-06-25,0.645,0.645,0.645,0.645,0,0.645
2015-06-26,0.645,0.645,0.645,0.645,0,0.645
2015-06-29,0.6,0.625,0.6,0.625,76700,0.625
2015-06-30,0.6,0.6,0.6,0.6,280000,0.6
2015-07-01,0.6,0.6,0.6,0.6,38000,0.6
2015-07-02,0.6,0.6,0.6,0.6,100500,0.6
2015-07-03,0.63,0.63,0.63,0.63,8000,0.63
2015-07-06,0.595,0.635,0.595,0.615,16300,0.615
2015-07-07,0.61,0.61,0.59,0.59,79200,0.59
2015-07-08,0.6,0.6,0.6,0.6,57500,0.6
2015-07-09,0.63,0.66,0.63,0.66,55000,0.66
2015-07-10,0.655,0.655,0.645,0.645,19400,0.645
2015-07-13,0.63,0.64,0.59,0.64,46000,0.64
2015-07-14,0.64,0.64,0.64,0.64,0,0.64
2015-07-15,0.64,0.7,0.64,0.695,211800,0.695
2015-07-16,0.695,0.71,0.69,0.7,200100,0.7
2015-07-17,0.7,0.73,0.7,0.72,164500,0.72
2015-07-20,0.725,0.73,0.71,0.725,244200,0.725
2015-07-21,0.73,0.8,0.73,0.78,162200,0.78
2015-07-22,0.78,0.79,0.755,0.755,65700,0.755
2015-07-23,0.78,0.78,0.76,0.77,93500,0.77
2015-07-24,0.76,0.77,0.75,0.75,178600,0.75
2015-07-27,0.75,0.75,0.75,0.75,0,0.75
2015-07-28,0.73,0.73,0.73,0.73,19900,0.73
2015-07-29,0.75,0.75,0.75,0.75,5400,0.75
2015-07-30,0.75,0.75,0.75,0.75,191100,0.75
2015-07-31,0.75,0.755,0.75,0.755,192100,0.755
2015-08-03,0.755,0.78,0.755,0.765,160400,0.765
2015-08-04,0.76,0.77,0.76,0.765,194600,0.765
2015-08-05,0.76,0.78,0.76,0.78,184200,0.78
2015-08-06,0.78,0.85,0.78,0.845,292500,0.845
2015-08-07,0.845,0.845,0.815,0.845,50300,0.845
2015-08-10,0.845,0.845,0.82,0.825,37800,0.825
2015-08-11,0.825,0.825,0.82,0.825,23700,0.825
2015-08-12,0.82,0.82,0.77,0.78,94600,0.78
2015-08-13,0.795,0.8,0.77,0.8,166400,0.8
2015-08-14,0.8,0.815,0.79,0.8,120800,0.8
2015-08-17,0.8,0.8,0.795,0.795,25000,0.795
2015-08-18,0.8,0.8,0.8,0.8,2200,0.8
2015-08-19,0.785,0.785,0.78,0.78,12200,0.78
2015-08-20,0.78,0.78,0.745,0.745,38000,0.745
2015-08-21,0.73,0.73,0.705,0.705,39000,0.705
2015-08-24,0.68,0.68,0.64,0.645,188700,0.645
2015-08-25,0.645,0.675,0.64,0.665,280700,0.665
2015-08-26,0.68,0.695,0.662,0.695,35900,0.695
2015-08-27,0.72,0.75,0.72,0.75,8200,0.75
2015-08-28,0.78,0.78,0.78,0.78,17000,0.78
2015-08-31,0.78,0.78,0.73,0.73,27500,0.73
2015-09-01,0.73,0.73,0.71,0.71,11300,0.71
2015-09-02,0.705,0.715,0.705,0.715,34300,0.715
2015-09-03,0.715,0.715,0.69,0.69,45400,0.69
2015-09-04,0.695,0.695,0.675,0.675,4800,0.675
2015-09-07,0.68,0.68,0.62,0.65,48300,0.65
2015-09-08,0.665,0.69,0.665,0.69,37800,0.69
2015-09-09,0.69,0.69,0.67,0.67,90700,0.67
2015-09-10,0.67,0.67,0.65,0.65,16400,0.65
2015-09-11,0.65,0.65,0.65,0.65,118100,0.65
2015-09-14,0.64,0.65,0.64,0.64,12900,0.64
2015-09-15,0.665,0.665,0.665,0.665,3000,0.665
2015-09-16,0.68,0.705,0.68,0.69,8000,0.69
2015-09-17,0.7,0.705,0.695,0.705,35800,0.705
2015-09-18,0.72,0.72,0.72,0.72,22000,0.72
2015-09-21,0.71,0.71,0.7,0.7,21700,0.7
2015-09-22,0.7,0.7,0.7,0.7,12000,0.7
2015-09-23,0.7,0.7,0.695,0.695,22000,0.695
2015-09-24,0.695,0.695,0.695,0.695,0,0.695
2015-09-25,0.705,0.705,0.695,0.695,45400,0.695
2015-09-28,0.71,0.72,0.7,0.72,19500,0.72
2015-09-29,0.71,0.71,0.695,0.695,62100,0.695
2015-09-30,0.695,0.695,0.69,0.69,3100,0.69
2015-10-01,0.68,0.7,0.68,0.695,95600,0.695
2015-10-02,0.695,0.695,0.69,0.695,20000,0.695
2015-10-05,0.695,0.695,0.695,0.695,0,0.695
2015-10-06,0.67,0.695,0.67,0.695,91300,0.695
2015-10-07,0.675,0.685,0.67,0.67,13000,0.67
2015-10-08,0.67,0.67,0.67,0.67,0,0.67
2015-10-09,0.67,0.67,0.67,0.67,0,0.67
2015-10-12,0.725,0.75,0.725,0.735,136000,0.735
2015-10-13,0.72,0.72,0.685,0.7,85300,0.7
2015-10-14,0.7,0.7,0.68,0.68,84100,0.68
2015-10-15,0.67,0.67,0.67,0.67,70600,0.67
2015-10-16,0.67,0.67,0.67,0.67,6400,0.67
2015-10-19,0.39,0.4,0.19,0.3,11450200,0.3
2015-10-20,0.3,0.3,0.285,0.295,1698300,0.295
2015-10-21,0.29,0.29,0.26,0.27,2784500,0.27
2015-10-22,0.27,0.295,0.27,0.29,821200,0.29
2015-10-23,0.295,0.34,0.295,0.335,814400,0.335
2015-10-26,0.35,0.35,0.3,0.31,1056300,0.31
2015-10-27,0.32,0.32,0.295,0.3,404800,0.3
2015-10-28,0.305,0.305,0.28,0.28,431800,0.28
2015-10-29,0.29,0.31,0.28,0.28,251100,0.28
2015-10-30,0.3,0.3,0.28,0.3,67400,0.3
2015-11-02,0.3,0.3,0.3,0.3,2000,0.3
2015-11-03,0.31,0.31,0.28,0.29,191500,0.29
2015-11-04,0.28,0.29,0.28,0.28,185900,0.28
2015-11-05,0.285,0.285,0.27,0.285,120800,0.285
2015-11-06,0.285,0.285,0.282,0.285,72700,0.285
2015-11-09,0.29,0.29,0.28,0.28,173400,0.28
2015-11-10,0.28,0.285,0.27,0.275,251300,0.275
2015-11-11,0.275,0.28,0.275,0.275,70200,0.275
2015-11-12,0.28,0.285,0.275,0.28,50500,0.28
2015-11-13,0.275,0.28,0.26,0.27,216000,0.27
2015-11-16,0.27,0.285,0.26,0.265,345600,0.265
2015-11-17,0.265,0.265,0.26,0.26,85800,0.26
2015-11-18,0.26,0.265,0.26,0.26,739900,0.26
2015-11-19,0.26,0.26,0.255,0.26,125900,0.26
2015-11-20,0.255,0.26,0.255,0.257,35600,0.257
2015-11-23,0.255,0.26,0.25,0.25,243600,0.25
2015-11-24,0.255,0.255,0.25,0.25,67600,0.25
2015-11-25,0.25,0.25,0.24,0.24,326600,0.24
2015-11-26,0.24,0.245,0.24,0.24,393800,0.24
2015-11-27,0.24,0.24,0.24,0.24,917400,0.24
2015-11-30,0.23,0.23,0.2,0.225,185200,0.225
2015-12-01,0.225,0.24,0.22,0.24,230700,0.24
2015-12-02,0.225,0.24,0.22,0.24,57900,0.24
2015-12-03,0.22,0.225,0.22,0.225,128800,0.225
2015-12-04,0.225,0.225,0.225,0.225,162200,0.225
2015-12-07,0.22,0.22,0.21,0.21,144400,0.21
2015-12-08,0.21,0.21,0.21,0.21,268600,0.21
2015-12-09,0.21,0.21,0.21,0.21,0,0.21
2015-12-10,0.21,0.21,0.205,0.21,150000,0.21
2015-12-11,0.21,0.21,0.205,0.21,81300,0.21
2015-12-14,0.21,0.215,0.205,0.215,125900,0.215
2015-12-15,0.22,0.22,0.21,0.21,25000,0.21
2015-12-16,0.21,0.22,0.21,0.22,26500,0.22
2015-12-17,0.22,0.22,0.22,0.22,29900,0.22
2015-12-18,0.235,0.24,0.22,0.22,310900,0.22
2015-12-21,0.24,0.25,0.23,0.245,1553700,0.245
2015-12-22,0.26,0.295,0.26,0.295,294800,0.295
2015-12-23,0.295,0.3,0.29,0.3,509100,0.3
2015-12-24,0.305,0.305,0.295,0.295,37000,0.295
2015-12-25,0.295,0.295,0.295,0.295,0,0.295
2015-12-28,0.295,0.295,0.295,0.295,0,0.295
2015-12-29,0.295,0.295,0.28,0.28,276900,0.28
2015-12-30,0.29,0.29,0.29,0.29,100000,0.29
2015-12-31,0.295,0.3,0.295,0.3,40000,0.3
2016-01-01,0.3,0.3,0.3,0.3,0,0.3
2016-01-04,0.3,0.3,0.295,0.3,58700,0.3
2016-01-05,0.295,0.295,0.295,0.295,14000,0.295
2016-01-06,0.29,0.3,0.29,0.3,125800,0.3
2016-01-07,0.295,0.295,0.29,0.29,276600,0.29
2016-01-08,0.29,0.29,0.285,0.285,58800,0.285
2016-01-11,0.285,0.285,0.285,0.285,0,0.285
2016-01-12,0.285,0.285,0.285,0.285,0,0.285
2016-01-13,0.285,0.285,0.285,0.285,0,0.285
2016-01-14,0.275,0.275,0.27,0.27,117000,0.27
2016-01-15,0.27,0.27,0.26,0.26,23700,0.26
2016-01-18,0.26,0.26,0.26,0.26,0,0.26
2016-01-19,0.26,0.26,0.26,0.26,5800,0.26
2016-01-20,0.26,0.26,0.26,0.26,0,0.26
2016-01-21,0.26,0.26,0.25,0.26,32000,0.26
2016-01-22,0.26,0.26,0.26,0.26,23300,0.26
2016-01-25,0.26,0.26,0.26,0.26,40000,0.26
2016-01-26,0.26,0.26,0.26,0.26,0,0.26
2016-01-27,0.26,0.26,0.26,0.26,0,0.26
2016-01-28,0.28,0.28,0.28,0.28,40000,0.28
2016-01-29,0.3,0.3,0.3,0.3,74000,0.3
2016-02-01,0.32,0.335,0.32,0.335,33600,0.335
2016-02-02,0.34,0.34,0.31,0.31,27400,0.31
2016-02-03,0.31,0.31,0.305,0.31,16800,0.31
2016-02-04,0.31,0.32,0.31,0.32,27000,0.32
2016-02-05,0.32,0.32,0.32,0.32,0,0.32
2016-02-08,0.32,0.33,0.32,0.325,787300,0.325
2016-02-09,0.31,0.31,0.3,0.3,100000,0.3
2016-02-10,0.295,0.295,0.295,0.295,6600,0.295
2016-02-11,0.29,0.295,0.26,0.26,78100,0.26
2016-02-12,0.265,0.27,0.265,0.265,22000,0.265
2016-02-15,0.265,0.265,0.26,0.26,42000,0.26
2016-02-16,0.265,0.27,0.265,0.27,21000,0.27
2016-02-17,0.27,0.27,0.27,0.27,0,0.27
2016-02-18,0.28,0.28,0.28,0.28,5000,0.28
2016-02-19,0.29,0.29,0.29,0.29,5000,0.29
2016-02-22,0.29,0.29,0.255,0.255,50000,0.255
2016-02-23,0.26,0.26,0.26,0.26,31000,0.26
2016-02-24,0.255,0.255,0.25,0.25,201000,0.25
2016-02-25,0.25,0.25,0.24,0.24,29000,0.24
2016-02-26,0.24,0.24,0.22,0.22,101000,0.22
2016-02-29,0.23,0.23,0.23,0.23,50000,0.23
2016-03-01,0.24,0.24,0.24,0.24,30000,0.24
2016-03-02,0.24,0.24,0.24,0.24,10000,0.24
2016-03-03,0.24,0.25,0.24,0.25,149400,0.25
2016-03-04,0.25,0.26,0.25,0.26,10700,0.26
2016-03-07,0.24,0.26,0.24,0.26,156300,0.26
2016-03-08,0.25,0.25,0.245,0.245,430000,0.245
2016-03-09,0.25,0.27,0.25,0.27,107100,0.27
2016-03-10,0.285,0.29,0.28,0.29,57800,0.29
2016-03-11,0.29,0.295,0.285,0.295,250000,0.295
2016-03-14,0.3,0.3,0.3,0.3,47000,0.3
2016-03-15,0.31,0.31,0.31,0.31,31000,0.31
2016-03-16,0.31,0.31,0.31,0.31,0,0.31
2016-03-17,0.3,0.3,0.27,0.27,44000,0.27
2016-03-18,0.3,0.3,0.255,0.255,60200,0.255
2016-03-21,0.255,0.255,0.255,0.255,0,0.255
2016-03-22,0.265,0.265,0.26,0.26,35000,0.26
2016-03-23,0.26,0.26,0.26,0.26,0,0.26
2016-03-24,0.27,0.29,0.27,0.29,31500,0.29
2016-03-25,0.29,0.29,0.29,0.29,0,0.29
2016-03-28,0.29,0.29,0.29,0.29,0,0.29
2016-03-29,0.29,0.29,0.29,0.29,8500,0.29
2016-03-30,0.29,0.29,0.29,0.29,12500,0.29
2016-03-31,0.29,0.295,0.29,0.295,24700,0.295
2016-04-01,0.295,0.295,0.295,0.295,0,0.295
2016-04-04,0.295,0.295,0.295,0.295,0,0.295
2016-04-05,0.28,0.28,0.28,0.28,11800,0.28
2016-04-06,0.28,0.28,0.28,0.28,100000,0.28
2016-04-07,0.28,0.28,0.28,0.28,4200,0.28
2016-04-08,0.28,0.28,0.28,0.28,0,0.28
2016-04-11,0.28,0.28,0.28,0.28,0,0.28
2016-04-12,0.29,0.295,0.285,0.295,80300,0.295
2016-04-13,0.3,0.3,0.295,0.295,1087400,0.295
2016-04-14,0.295,0.295,0.295,0.295,10000,0.295
2016-04-15,0.27,0.27,0.27,0.27,12500,0.27
2016-04-18,0.27,0.27,0.27,0.27,0,0.27
2016-04-19,0.27,0.27,0.27,0.27,0,0.27
2016-04-20,0.28,0.28,0.28,0.28,8100,0.28
2016-04-21,0.29,0.295,0.29,0.295,64000,0.295
2016-04-22,0.29,0.29,0.29,0.29,27000,0.29
2016-04-25,0.29,0.29,0.29,0.29,0,0.29
2016-04-26,0.27,0.27,0.26,0.27,59100,0.27
2016-04-27,0.27,0.27,0.26,0.27,18400,0.27
2016-04-28,0.26,0.26,0.255,0.26,77600,0.26
2016-04-29,0.265,0.265,0.265,0.265,22000,0.265
2016-05-02,0.265,0.27,0.265,0.27,29900,0.27
2016-05-03,0.275,0.275,0.275,0.275,47600,0.275
2016-05-04,0.29,0.29,0.29,0.29,100000,0.29
2016-05-05,0.28,0.28,0.28,0.28,7800,0.28
2016-05-06,0.265,0.265,0.265,0.265,45400,0.265
2016-05-09,0.27,0.28,0.27,0.275,382500,0.275
2016-05-10,0.275,0.275,0.26,0.275,118600,0.275
2016-05-11,0.275,0.275,0.265,0.265,67700,0.265
2016-05-12,0.26,0.26,0.26,0.26,9800,0.26
2016-05-13,0.26,0.26,0.245,0.245,111900,0.245
2016-05-16,0.25,0.25,0.25,0.25,16000,0.25
2016-05-17,0.25,0.26,0.24,0.25,184400,0.25
2016-05-18,0.25,0.25,0.25,0.25,26800,0.25
2016-05-19,0.25,0.25,0.25,0.25,0,0.25
2016-05-20,0.25,0.25,0.25,0.25,0,0.25
2016-05-23,0.25,0.25,0.24,0.24,44600,0.24
2016-05-24,0.24,0.24,0.24,0.24,9000,0.24
2016-05-25,0.25,0.26,0.25,0.25,81000,0.25
2016-05-26,0.25,0.25,0.24,0.245,113300,0.245
2016-05-27,0.24,0.245,0.23,0.245,49200,0.245
2016-05-30,0.245,0.245,0.245,0.245,0,0.245
2016-05-31,0.245,0.245,0.245,0.245,116800,0.245
2016-06-01,0.235,0.24,0.235,0.24,15800,0.24
2016-06-02,0.24,0.24,0.225,0.23,109100,0.23
2016-06-03,0.24,0.24,0.23,0.23,255600,0.23
2016-06-06,0.23,0.24,0.23,0.24,58600,0.24
2016-06-07,0.24,0.24,0.24,0.24,49100,0.24
2016-06-08,0.24,0.24,0.24,0.24,10500,0.24
2016-06-09,0.235,0.24,0.23,0.235,140100,0.235
2016-06-10,0.23,0.23,0.225,0.23,10000,0.23
2016-06-13,0.23,0.23,0.23,0.23,0,0.23
2016-06-14,0.235,0.235,0.23,0.23,122900,0.23
2016-06-15,0.225,0.23,0.22,0.225,76700,0.225
2016-06-16,0.22,0.22,0.215,0.22,78200,0.22
2016-06-17,0.22,0.23,0.22,0.22,33400,0.22
2016-06-20,0.225,0.225,0.215,0.22,50700,0.22
2016-06-21,0.215,0.215,0.205,0.21,398500,0.21
2016-06-22,0.21,0.21,0.21,0.21,76200,0.21
2016-06-23,0.21,0.21,0.205,0.205,247800,0.205
2016-06-24,0.205,0.21,0.205,0.205,163000,0.205
2016-06-27,0.2,0.205,0.2,0.205,200000,0.205
2016-06-28,0.2,0.2,0.195,0.2,192200,0.2
2016-06-29,0.2,0.215,0.2,0.21,146600,0.21
2016-06-30,0.215,0.22,0.215,0.22,385100,0.22
2016-07-01,0.225,0.23,0.225,0.23,134600,0.23
2016-07-04,0.2,0.23,0.2,0.23,12800,0.23
2016-07-05,0.23,0.23,0.23,0.23,0,0.23
2016-07-06,0.22,0.22,0.22,0.22,22700,0.22
2016-07-07,0.24,0.29,0.24,0.25,473900,0.25
2016-07-08,0.25,0.295,0.25,0.295,449300,0.295
2016-07-11,0.295,0.305,0.29,0.305,683100,0.305
2016-07-12,0.305,0.31,0.305,0.31,86100,0.31
2016-07-13,0.31,0.31,0.29,0.3,150300,0.3
2016-07-14,0.3,0.3,0.3,0.3,0,0.3
2016-07-15,0.285,0.29,0.28,0.29,120400,0.29
2016-07-18,0.3,0.3,0.29,0.29,78900,0.29
2016-07-19,0.29,0.29,0.29,0.29,2300,0.29
2016-07-20,0.28,0.28,0.255,0.27,236700,0.27
2016-07-21,0.255,0.29,0.255,0.27,756900,0.27
2016-07-22,0.28,0.31,0.28,0.3,384000,0.3
2016-07-25,0.305,0.305,0.29,0.295,127900,0.295
2016-07-26,0.29,0.29,0.285,0.285,119300,0.285
2016-07-27,0.29,0.29,0.285,0.29,79400,0.29
2016-07-28,0.29,0.37,0.29,0.35,1855200,0.35
2016-07-29,0.36,0.365,0.34,0.355,881600,0.355
2016-08-01,0.355,0.355,0.34,0.34,255100,0.34
2016-08-02,0.34,0.34,0.34,0.34,0,0.34
2016-08-03,0.34,0.34,0.34,0.34,0,0.34
2016-08-04,0.34,0.345,0.31,0.345,595300,0.345
2016-08-05,0.34,0.345,0.34,0.345,268500,0.345
2016-08-08,0.34,0.345,0.34,0.34,386400,0.34
2016-08-09,0.335,0.335,0.32,0.32,367100,0.32
2016-08-10,0.33,0.34,0.325,0.33,332700,0.33
2016-08-11,0.315,0.32,0.31,0.32,512900,0.32
2016-08-12,0.32,0.33,0.315,0.32,93900,0.32
2016-08-15,0.32,0.32,0.315,0.315,232800,0.315
2016-08-16,0.315,0.325,0.31,0.315,183000,0.315
2016-08-17,0.315,0.33,0.315,0.33,30600,0.33
2016-08-18,0.33,0.33,0.33,0.33,0,0.33
2016-08-19,0.325,0.325,0.305,0.315,144200,0.315
2016-08-22,0.315,0.32,0.31,0.32,133900,0.32
2016-08-23,0.325,0.33,0.32,0.33,325100,0.33
2016-08-24,0.33,0.37,0.325,0.37,897500,0.37
2016-08-25,0.37,0.37,0.35,0.355,250400,0.355
2016-08-26,0.355,0.365,0.355,0.36,121800,0.36
2016-08-29,0.365,0.425,0.365,0.4,1147700,0.4
2016-08-30,0.425,0.425,0.345,0.345,920900,0.345
2016-08-31,0.36,0.385,0.36,0.36,131900,0.36
2016-09-01,0.36,0.38,0.34,0.375,236400,0.375
2016-09-02,0.375,0.385,0.36,0.375,150300,0.375
2016-09-05,0.395,0.395,0.37,0.385,54900,0.385
2016-09-06,0.36,0.395,0.34,0.395,561200,0.395
2016-09-07,0.395,0.42,0.395,0.41,225000,0.41
2016-09-08,0.4,0.41,0.4,0.4,185300,0.4
2016-09-09,0.4,0.4,0.38,0.4,152600,0.4
2016-09-12,0.385,0.385,0.34,0.34,287000,0.34
2016-09-13,0.35,0.37,0.34,0.345,298800,0.345
2016-09-14,0.345,0.35,0.34,0.34,236500,0.34
2016-09-15,0.345,0.35,0.345,0.35,103200,0.35
2016-09-16,0.35,0.36,0.34,0.34,309100,0.34
2016-09-19,0.34,0.345,0.34,0.345,32300,0.345
2016-09-20,0.345,0.35,0.34,0.345,274200,0.345
2016-09-21,0.35,0.35,0.34,0.34,120500,0.34
2016-09-22,0.34,0.37,0.34,0.37,122700,0.37
2016-09-23,0.37,0.38,0.365,0.38,15600,0.38
2016-09-26,0.38,0.385,0.37,0.375,114500,0.375
2016-09-27,0.375,0.38,0.36,0.36,104900,0.36
2016-09-28,0.36,0.37,0.36,0.37,239700,0.37
2016-09-29,0.37,0.38,0.37,0.38,122800,0.38
2016-09-30,0.375,0.38,0.375,0.38,34000,0.38
2016-10-03,0.38,0.39,0.38,0.39,26600,0.39
2016-10-04,0.38,0.38,0.37,0.375,89700,0.375
2016-10-05,0.38,0.38,0.38,0.38,44800,0.38
2016-10-06,0.385,0.385,0.38,0.38,61000,0.38
2016-10-07,0.38,0.38,0.38,0.38,228600,0.38
2016-10-10,0.375,0.38,0.375,0.375,9800,0.375
2016-10-11,0.37,0.38,0.37,0.37,195000,0.37
2016-10-12,0.36,0.365,0.36,0.365,40200,0.365
2016-10-13,0.36,0.36,0.36,0.36,46100,0.36
2016-10-14,0.38,0.4,0.38,0.395,311700,0.395
2016-10-17,0.395,0.395,0.385,0.385,126400,0.385
2016-10-18,0.385,0.385,0.385,0.385,40700,0.385
2016-10-19,0.385,0.385,0.375,0.38,247900,0.38
2016-10-20,0.375,0.38,0.375,0.38,33000,0.38
2016-10-21,0.375,0.385,0.375,0.375,15400,0.375
2016-10-24,0.38,0.39,0.38,0.385,113200,0.385
2016-10-25,0.39,0.435,0.39,0.415,383400,0.415
2016-10-26,0.45,0.46,0.43,0.43,82100,0.43
2016-10-27,0.415,0.425,0.4,0.415,152100,0.415
2016-10-28,0.415,0.425,0.415,0.415,56400,0.415
2016-10-31,0.415,0.425,0.41,0.42,180000,0.42
2016-11-01,0.425,0.43,0.42,0.425,50200,0.425
2016-11-02,0.42,0.42,0.4,0.4,388400,0.4
2016-11-03,0.4,0.405,0.4,0.4,771100,0.4
2016-11-04,0.385,0.385,0.38,0.38,66600,0.38
2016-11-07,0.355,0.37,0.355,0.37,67900,0.37
2016-11-08,0.365,0.4,0.365,0.4,76200,0.4
2016-11-09,0.38,0.4,0.355,0.365,203500,0.365
2016-11-10,0.38,0.41,0.38,0.41,1767800,0.41
2016-11-11,0.405,0.405,0.395,0.395,546200,0.395
2016-11-14,0.395,0.4,0.39,0.39,102600,0.39
2016-11-15,0.405,0.41,0.405,0.41,92300,0.41
2016-11-16,0.415,0.44,0.415,0.44,246600,0.44
2016-11-17,0.445,0.48,0.44,0.48,264900,0.48
2016-11-18,0.47,0.47,0.445,0.45,111700,0.45
2016-11-21,0.46,0.46,0.46,0.46,1500,0.46
2016-11-22,0.46,0.46,0.425,0.425,104300,0.425
2016-11-23,0.435,0.44,0.435,0.435,28000,0.435
2016-11-24,0.44,0.44,0.425,0.425,35100,0.425
2016-11-25,0.425,0.43,0.42,0.425,142700,0.425
2016-11-28,0.425,0.425,0.425,0.425,0,0.425
2016-11-29,0.43,0.43,0.43,0.43,156700,0.43
2016-11-30,0.42200000000000004,0.43,0.42,0.43,79100,0.43
2016-12-01,0.44,0.44,0.425,0.435,22600,0.435
2016-12-02,0.43,0.45,0.42,0.42,84300,0.42
2016-12-05,0.42,0.42200000000000004,0.415,0.415,48300,0.415
2016-12-06,0.415,0.43,0.415,0.415,68700,0.415
2016-12-07,0.445,0.45,0.415,0.415,39200,0.415
2016-12-08,0.42,0.435,0.42,0.435,116000,0.435
2016-12-09,0.435,0.47,0.435,0.465,100100,0.465
2016-12-12,0.46,0.46,0.44,0.44,99100,0.44
2016-12-13,0.44,0.465,0.44,0.46,33200,0.46
2016-12-14,0.46,0.465,0.455,0.46,33900,0.46
2016-12-15,0.455,0.455,0.44,0.45,49900,0.45
2016-12-16,0.445,0.45,0.445,0.45,19400,0.45
2016-12-19,0.45,0.455,0.45,0.455,13100,0.455
2016-12-20,0.445,0.445,0.43,0.43,29200,0.43
2016-12-21,0.45,0.455,0.435,0.45,35800,0.45
2016-12-22,0.455,0.455,0.455,0.455,71000,0.455
2016-12-23,0.455,0.46,0.455,0.46,17400,0.46
2016-12-26,0.46,0.46,0.46,0.46,0,0.46
2016-12-27,0.46,0.46,0.46,0.46,0,0.46
2016-12-28,0.46,0.46,0.455,0.46,23000,0.46
2016-12-29,0.455,0.46,0.455,0.46,3500,0.46
2016-12-30,0.455,0.46,0.455,0.46,2600,0.46
