Date,Open,High,Low,Close,Volume,Adj Close
2015-11-18,2.52,2.95,2.51,2.9,9721300,2.8360000000000003
2015-11-19,2.79,2.79,2.62,2.63,2346100,2.572
2015-11-20,2.61,2.61,2.55,2.6,1291000,2.543
2015-11-23,2.59,2.74,2.59,2.67,335700,2.612
2015-11-24,2.69,2.72,2.65,2.7,313900,2.641
2015-11-25,2.7,2.76,2.67,2.7,425100,2.641
2015-11-26,2.72,2.8,2.72,2.78,221700,2.719
2015-11-27,2.75,2.77,2.67,2.71,338800,2.6510000000000002
2015-11-30,2.73,2.74,2.64,2.67,293200,2.612
2015-12-01,2.67,2.74,2.67,2.74,144700,2.68
2015-12-02,2.74,2.86,2.74,2.82,303800,2.758
2015-12-03,2.8,2.81,2.77,2.8,283000,2.739
2015-12-04,2.78,2.79,2.68,2.7,159200,2.641
2015-12-07,2.72,2.72,2.64,2.65,223700,2.592
2015-12-08,2.66,2.7,2.63,2.66,189900,2.602
2015-12-09,2.68,2.71,2.65,2.7,1882000,2.641
2015-12-10,2.7,2.7,2.6,2.6,98800,2.543
2015-12-11,2.62,2.65,2.58,2.64,1007300,2.582
2015-12-14,2.6,2.6,2.565,2.57,89400,2.5140000000000002
2015-12-15,2.57,2.57,2.51,2.51,115100,2.455
2015-12-16,2.5,2.59,2.4,2.58,443600,2.523
2015-12-17,2.6,2.67,2.55,2.64,315500,2.582
2015-12-18,2.6,2.69,2.6,2.69,202200,2.6310000000000002
2015-12-21,2.68,2.85,2.65,2.85,331500,2.7880000000000003
2015-12-22,2.85,2.93,2.81,2.93,450200,2.866
2015-12-23,2.92,3.1,2.92,3.04,410100,2.9730000000000003
2015-12-24,3.0,3.07,3.0,3.0,285600,2.9339999999999997
2015-12-25,3.0,3.0,3.0,3.0,0,2.9339999999999997
2015-12-28,3.0,3.0,3.0,3.0,0,2.9339999999999997
2015-12-29,3.07,3.1,3.0,3.08,85300,3.013
2015-12-30,3.1,3.1,3.03,3.05,57100,2.983
2015-12-31,3.01,3.07,3.0,3.06,53400,2.9930000000000003
2016-01-01,3.06,3.06,3.06,3.06,0,2.9930000000000003
2016-01-04,3.04,3.1,2.99,3.08,216300,3.013
2016-01-05,3.01,3.05,2.98,3.0,137400,2.9339999999999997
2016-01-06,3.0,3.01,2.96,3.0,44100,2.9339999999999997
2016-01-07,3.0,3.01,2.87,2.88,115000,2.8169999999999997
2016-01-08,2.8,2.96,2.8,2.92,106600,2.8560000000000003
2016-01-11,2.85,2.92,2.74,2.92,104200,2.8560000000000003
2016-01-12,2.9,2.9,2.75,2.8,188300,2.739
2016-01-13,2.8,2.87,2.75,2.84,127300,2.778
2016-01-14,2.86,2.86,2.65,2.67,44100,2.612
2016-01-15,2.7,2.85,2.7,2.8,418000,2.739
2016-01-18,2.78,2.9,2.78,2.9,145100,2.8360000000000003
2016-01-19,2.87,2.9,2.79,2.9,121300,2.8360000000000003
2016-01-20,2.86,2.89,2.78,2.78,75800,2.719
2016-01-21,2.78,2.79,2.72,2.79,158600,2.7289999999999996
2016-01-22,2.74,2.94,2.71,2.8,152200,2.739
2016-01-25,2.84,2.85,2.71,2.82,62500,2.758
2016-01-26,2.82,2.82,2.82,2.82,0,2.758
2016-01-27,2.85,2.93,2.77,2.8,117500,2.739
2016-01-28,2.83,2.93,2.83,2.91,115700,2.846
2016-01-29,2.91,2.94,2.82,2.89,98000,2.827
2016-02-01,2.9,2.9,2.8,2.82,50500,2.758
2016-02-02,2.83,2.85,2.78,2.81,364800,2.748
2016-02-03,2.79,2.82,2.77,2.8,92700,2.739
2016-02-04,2.77,2.79,2.75,2.76,208700,2.7
2016-02-05,2.74,2.77,2.6,2.6,193100,2.543
2016-02-08,2.59,2.6,2.49,2.55,125500,2.494
2016-02-09,2.5,2.55,2.45,2.5,161500,2.445
2016-02-10,2.55,2.58,2.41,2.48,126000,2.426
2016-02-11,2.48,2.48,2.3,2.35,318500,2.299
2016-02-12,2.3,2.35,2.22,2.22,493100,2.171
2016-02-15,2.26,2.39,2.25,2.35,308200,2.299
2016-02-16,2.4,2.46,2.38,2.45,137700,2.396
2016-02-17,2.48,2.59,2.48,2.53,80200,2.475
2016-02-18,2.53,2.6,2.53,2.55,46400,2.494
2016-02-19,2.55,2.57,2.55,2.56,158500,2.504
2016-02-22,2.54,2.67,2.54,2.65,183000,2.592
2016-02-23,2.62,2.68,2.56,2.61,309400,2.553
2016-02-24,2.68,2.68,2.55,2.58,148300,2.523
2016-02-25,2.58,2.6,2.32,2.5,331200,2.445
2016-02-26,2.36,2.36,2.26,2.3,258400,2.25
2016-02-29,2.4,2.5,2.36,2.45,73100,2.396
2016-03-01,2.45,2.52,2.42,2.52,123000,2.465
2016-03-02,2.54,2.54,2.46,2.5,71400,2.445
2016-03-03,2.5,2.51,2.42,2.47,65300,2.416
2016-03-04,2.47,2.55,2.29,2.36,155200,2.3080000000000003
2016-03-07,2.39,2.42,2.26,2.28,118000,2.23
2016-03-08,2.27,2.34,2.25,2.25,103400,2.201
2016-03-09,2.26,2.29,2.24,2.26,51900,2.211
2016-03-10,2.3,2.47,2.3,2.4,56300,2.347
2016-03-11,2.37,2.44,2.33,2.43,71100,2.377
2016-03-14,2.41,2.44,2.34,2.35,45100,2.299
2016-03-15,2.36,2.36,2.3,2.35,40300,2.299
2016-03-16,2.3,2.37,2.3,2.35,116400,2.299
2016-03-17,2.54,2.58,2.37,2.44,206700,2.387
2016-03-18,2.45,2.46,2.4,2.43,67000,2.377
2016-03-21,2.44,2.45,2.41,2.44,143300,2.387
2016-03-22,2.45,2.55,2.45,2.55,125100,2.494
2016-03-23,2.51,2.65,2.45,2.6,101600,2.543
2016-03-24,2.58,2.63,2.5,2.6,164200,2.543
2016-03-25,2.6,2.6,2.6,2.6,0,2.543
2016-03-28,2.6,2.6,2.6,2.6,0,2.543
2016-03-29,2.6,2.62,2.53,2.6,52400,2.543
2016-03-30,2.59,2.59,2.47,2.57,51900,2.522
2016-03-31,2.57,2.65,2.52,2.6,94300,2.552
2016-04-01,2.6,2.6,2.55,2.59,34600,2.542
2016-04-04,2.59,2.63,2.55,2.6,118900,2.552
2016-04-05,2.6,2.61,2.53,2.55,156800,2.503
2016-04-06,2.55,2.55,2.5,2.5,80000,2.454
2016-04-07,2.55,2.55,2.5,2.52,103100,2.4730000000000003
2016-04-08,2.5,2.5,2.47,2.47,257900,2.424
2016-04-11,2.49,2.55,2.46,2.5,102700,2.454
2016-04-12,2.45,2.5,2.45,2.48,74200,2.434
2016-04-13,2.49,2.5,2.45,2.45,88900,2.405
2016-04-14,2.46,2.5,2.46,2.47,42800,2.424
2016-04-15,2.48,2.56,2.47,2.55,497300,2.503
2016-04-18,2.54,2.55,2.47,2.47,42000,2.424
2016-04-19,2.49,2.57,2.49,2.49,122400,2.444
2016-04-20,2.5,2.5,2.47,2.47,36800,2.424
2016-04-21,2.47,2.55,2.4,2.5,115900,2.454
2016-04-22,2.49,2.5,2.45,2.46,59600,2.414
2016-04-25,2.46,2.46,2.46,2.46,0,2.414
2016-04-26,2.47,2.6,2.47,2.5,48800,2.454
2016-04-27,2.51,2.59,2.5,2.55,75500,2.503
2016-04-28,2.55,2.55,2.51,2.52,79600,2.4730000000000003
2016-04-29,2.59,2.65,2.49,2.63,113200,2.5810000000000004
2016-05-02,2.64,2.65,2.55,2.65,41900,2.6010000000000004
2016-05-03,2.65,2.73,2.56,2.66,108200,2.611
2016-05-04,2.68,2.7,2.63,2.7,67600,2.65
2016-05-05,2.68,2.7,2.59,2.59,307400,2.542
2016-05-06,2.57,2.59,2.55,2.57,94000,2.522
2016-05-09,2.58,2.66,2.55,2.64,33600,2.591
2016-05-10,2.64,2.66,2.62,2.65,71900,2.6010000000000004
2016-05-11,2.66,2.74,2.65,2.7,197000,2.65
2016-05-12,2.72,2.73,2.68,2.72,169000,2.67
2016-05-13,2.72,2.78,2.71,2.72,85800,2.67
2016-05-16,2.71,2.74,2.7,2.74,30800,2.6889999999999996
2016-05-17,2.76,2.78,2.75,2.76,207800,2.7089999999999996
2016-05-18,2.75,2.77,2.7,2.71,67000,2.66
2016-05-19,2.75,2.75,2.66,2.66,155800,2.611
2016-05-20,2.66,2.7,2.66,2.7,12200,2.65
2016-05-23,2.7,2.76,2.67,2.76,23800,2.7089999999999996
2016-05-24,2.72,2.77,2.7,2.75,38900,2.699
2016-05-25,2.75,2.79,2.72,2.79,35600,2.738
2016-05-26,2.79,2.79,2.7,2.7,70600,2.65
2016-05-27,2.72,2.75,2.71,2.75,19300,2.699
2016-05-30,2.75,2.85,2.73,2.84,47500,2.787
2016-05-31,2.8,2.92,2.8,2.9,99400,2.846
2016-06-01,2.89,2.93,2.85,2.93,317600,2.8760000000000003
2016-06-02,2.87,2.94,2.87,2.91,109800,2.8560000000000003
2016-06-03,2.88,2.96,2.87,2.96,70900,2.905
2016-06-06,2.95,3.0,2.93,2.97,159600,2.915
2016-06-07,3.0,3.03,2.97,3.03,187500,2.9739999999999998
2016-06-08,3.0,3.15,3.0,3.15,472700,3.092
2016-06-09,3.11,3.14,3.0,3.06,147700,3.003
2016-06-10,3.04,3.06,2.98,3.03,203700,2.9739999999999998
2016-06-13,3.03,3.03,3.03,3.03,0,2.9739999999999998
2016-06-14,2.99,3.09,2.92,2.95,174500,2.895
2016-06-15,2.96,3.0,2.89,2.94,734800,2.885
2016-06-16,2.94,2.94,2.81,2.85,126000,2.7969999999999997
2016-06-17,2.87,2.94,2.81,2.9,59000,2.846
2016-06-20,2.9,3.0,2.9,2.95,617500,2.895
2016-06-21,2.99,3.14,2.955,2.96,145300,2.905
2016-06-22,3.03,3.09,3.03,3.09,30100,3.033
2016-06-23,3.08,3.2,3.06,3.15,116000,3.092
2016-06-24,3.17,3.22,2.72,2.85,502500,2.7969999999999997
2016-06-27,2.85,2.9,2.78,2.79,746000,2.738
2016-06-28,2.78,2.82,2.74,2.76,57500,2.7089999999999996
2016-06-29,2.79,2.87,2.78,2.85,228300,2.7969999999999997
2016-06-30,2.81,2.86,2.76,2.78,165200,2.728
2016-07-01,2.76,2.87,2.76,2.8,32700,2.748
2016-07-04,2.82,2.82,2.7,2.73,59600,2.679
2016-07-05,2.75,2.75,2.62,2.66,78300,2.611
2016-07-06,2.68,2.7,2.62,2.65,109400,2.6010000000000004
2016-07-07,2.65,2.75,2.65,2.69,59100,2.64
2016-07-08,2.67,2.76,2.67,2.73,8700,2.679
2016-07-11,2.74,2.8,2.73,2.8,42100,2.748
2016-07-12,2.78,2.8,2.7,2.76,57400,2.7089999999999996
2016-07-13,2.73,2.84,2.73,2.76,110200,2.7089999999999996
2016-07-14,2.75,2.84,2.72,2.84,53300,2.787
2016-07-15,2.81,2.89,2.8,2.89,62100,2.8360000000000003
2016-07-18,2.88,2.88,2.83,2.84,6900,2.787
2016-07-19,2.83,2.84,2.78,2.81,54400,2.758
2016-07-20,2.81,2.87,2.8,2.87,25000,2.8169999999999997
2016-07-21,2.83,2.88,2.83,2.84,50100,2.787
2016-07-22,2.85,2.88,2.8,2.87,46800,2.8169999999999997
2016-07-25,2.85,2.88,2.82,2.84,7100,2.787
2016-07-26,2.84,2.86,2.81,2.84,33800,2.787
2016-07-27,2.84,2.99,2.84,2.99,75000,2.935
2016-07-28,3.0,3.15,2.95,3.15,144500,3.092
2016-07-29,3.11,3.16,3.09,3.13,110300,3.072
2016-08-01,3.15,3.15,3.0,3.03,50600,2.9739999999999998
2016-08-02,3.02,3.02,2.92,2.95,35700,2.895
2016-08-03,2.92,2.95,2.86,2.91,38300,2.8560000000000003
2016-08-04,2.95,2.95,2.86,2.87,25000,2.8169999999999997
2016-08-05,2.86,2.9,2.85,2.9,74400,2.846
2016-08-08,2.9,2.94,2.87,2.89,30600,2.8360000000000003
2016-08-09,2.95,2.97,2.86,2.95,31300,2.895
2016-08-10,2.95,3.1,2.94,3.04,115200,2.984
2016-08-11,3.04,3.07,3.03,3.05,55600,2.9930000000000003
2016-08-12,3.035,3.04,2.9,2.92,54300,2.866
2016-08-15,2.93,3.0,2.93,2.98,10600,2.925
2016-08-16,2.98,3.01,2.94,3.0,45800,2.944
2016-08-17,3.0,3.01,2.96,2.97,76900,2.915
2016-08-18,3.0,3.05,2.97,3.0,48000,2.944
2016-08-19,3.0,3.05,2.93,2.93,34000,2.8760000000000003
2016-08-22,2.92,2.94,2.86,2.86,23400,2.807
2016-08-23,2.88,2.89,2.86,2.87,36600,2.8169999999999997
2016-08-24,2.86,2.9,2.82,2.85,53600,2.7969999999999997
2016-08-25,2.9,2.94,2.87,2.92,25000,2.866
2016-08-26,2.98,3.01,2.9,2.92,352200,2.866
2016-08-29,2.94,2.98,2.9,2.95,44800,2.895
2016-08-30,2.96,2.99,2.94,2.96,172600,2.905
2016-08-31,2.96,2.96,2.84,2.91,43400,2.8560000000000003
2016-09-01,2.9,2.9,2.76,2.88,37600,2.88
2016-09-02,2.89,2.89,2.83,2.83,91600,2.83
2016-09-05,2.83,2.93,2.8,2.9,24300,2.9
2016-09-06,2.86,3.12,2.86,3.11,231100,3.11
2016-09-07,3.12,3.215,3.12,3.17,140800,3.17
2016-09-08,3.15,3.38,3.08,3.3,629300,3.3
2016-09-09,3.3,3.31,3.15,3.15,50100,3.15
2016-09-12,3.15,3.25,3.085,3.17,35700,3.17
2016-09-13,3.18,3.26,3.14,3.14,74100,3.14
2016-09-14,3.14,3.2,3.01,3.02,96700,3.02
2016-09-15,3.03,3.14,3.01,3.08,50000,3.08
2016-09-16,3.05,3.1,3.02,3.1,77600,3.1
2016-09-19,3.15,3.15,3.03,3.03,13100,3.03
2016-09-20,3.05,3.23,3.05,3.23,62200,3.23
2016-09-21,3.1,3.22,3.09,3.13,44500,3.13
2016-09-22,3.11,3.14,3.05,3.14,272700,3.14
2016-09-23,3.12,3.15,3.03,3.13,63100,3.13
2016-09-26,3.19,3.19,3.1,3.12,23100,3.12
2016-09-27,3.12,3.17,3.08,3.08,20000,3.08
2016-09-28,3.09,3.2,3.08,3.19,96500,3.19
2016-09-29,3.18,3.215,3.15,3.15,478500,3.15
2016-09-30,3.21,3.23,3.1,3.13,34600,3.13
2016-10-03,3.13,3.22,3.07,3.19,164700,3.19
2016-10-04,3.18,3.25,3.11,3.22,38100,3.22
2016-10-05,3.2,3.2,3.13,3.2,31400,3.2
2016-10-06,3.2,3.2,3.13,3.2,28000,3.2
2016-10-07,3.18,3.26,3.12,3.21,34600,3.21
2016-10-10,3.23,3.27,3.23,3.23,15800,3.23
2016-10-11,3.26,3.28,3.25,3.25,23700,3.25
2016-10-12,3.25,3.26,3.22,3.23,16200,3.23
2016-10-13,3.23,3.45,3.23,3.32,107900,3.32
2016-10-14,3.32,3.33,3.25,3.25,29800,3.25
2016-10-17,3.25,3.32,3.13,3.13,106000,3.13
2016-10-18,3.2,3.22,3.13,3.22,17700,3.22
2016-10-19,3.3,3.31,3.21,3.24,53200,3.24
2016-10-20,3.2,3.33,3.18,3.2,29000,3.2
2016-10-21,3.15,3.33,3.11,3.33,135700,3.33
2016-10-24,3.07,3.14,3.05,3.07,518000,3.07
2016-10-25,3.06,3.08,3.05,3.07,414100,3.07
2016-10-26,3.02,3.07,3.02,3.05,198600,3.05
2016-10-27,3.0,3.02,2.83,2.95,259800,2.95
2016-10-28,3.0,3.05,3.0,3.05,157300,3.05
2016-10-31,3.05,3.07,2.95,3.0,132000,3.0
2016-11-01,2.98,2.98,2.79,2.88,71800,2.88
2016-11-02,2.84,2.84,2.67,2.8,367400,2.8
2016-11-03,2.75,2.79,2.75,2.75,43600,2.75
2016-11-04,2.76,2.79,2.71,2.71,58200,2.71
2016-11-07,2.74,2.74,2.7,2.74,44800,2.74
2016-11-08,2.74,2.75,2.74,2.75,27400,2.75
2016-11-09,2.8,2.8,2.66,2.66,45200,2.66
2016-11-10,2.7,2.8,2.7,2.8,31800,2.8
2016-11-11,2.8,2.8,2.75,2.77,25700,2.77
2016-11-14,2.76,2.76,2.72,2.73,96200,2.73
2016-11-15,2.73,2.76,2.68,2.68,66200,2.68
2016-11-16,2.75,2.75,2.55,2.55,30800,2.55
2016-11-17,2.55,2.71,2.55,2.62,1048400,2.62
2016-11-18,2.61,2.75,2.55,2.71,16100,2.71
2016-11-21,2.71,2.71,2.56,2.6,10000,2.6
2016-11-22,2.6,2.66,2.56,2.66,44600,2.66
2016-11-23,2.61,2.62,2.57,2.6,38200,2.6
2016-11-24,2.58,2.62,2.58,2.59,19800,2.59
2016-11-25,2.6,2.66,2.6,2.65,28200,2.65
2016-11-28,2.62,2.69,2.6,2.69,14300,2.69
2016-11-29,2.66,2.68,2.62,2.68,58100,2.68
2016-11-30,2.65,2.66,2.6,2.63,356000,2.63
2016-12-01,2.63,2.66,2.63,2.63,243600,2.63
2016-12-02,2.63,2.65,2.58,2.63,413500,2.63
2016-12-05,2.6,2.61,2.45,2.48,55500,2.48
2016-12-06,2.5,2.5,2.47,2.48,142400,2.48
2016-12-07,2.52,2.55,2.52,2.54,630800,2.54
2016-12-08,2.5,2.53,2.5,2.52,210100,2.52
2016-12-09,2.53,2.54,2.5,2.54,311100,2.54
2016-12-12,2.51,2.53,2.49,2.51,75200,2.51
2016-12-13,2.52,2.55,2.52,2.52,156200,2.52
2016-12-14,2.5,2.54,2.49,2.54,68200,2.54
2016-12-15,2.5,2.55,2.5,2.5,41200,2.5
2016-12-16,2.5,2.53,2.5,2.51,17800,2.51
2016-12-19,2.49,2.51,2.42,2.42,59800,2.42
2016-12-20,2.44,2.53,2.44,2.53,35600,2.53
2016-12-21,2.53,2.6,2.1,2.36,498700,2.36
2016-12-22,2.4,2.51,2.4,2.44,68600,2.44
2016-12-23,2.44,2.46,2.27,2.27,20400,2.27
2016-12-26,2.27,2.27,2.27,2.27,0,2.27
2016-12-27,2.27,2.27,2.27,2.27,0,2.27
2016-12-28,2.3,2.45,2.3,2.34,19900,2.34
2016-12-29,2.37,2.44,2.33,2.35,14500,2.35
2016-12-30,2.39,2.49,2.39,2.47,1700,2.47
