Date,Open,High,Low,Close,Volume,Adj Close
2014-08-22,0.97,0.975,0.9620000000000001,0.965,2187700,0.9191
2014-08-25,0.97,0.975,0.965,0.9670000000000001,1220100,0.9209999999999999
2014-08-26,0.97,0.97,0.965,0.97,688100,0.9238
2014-08-27,0.97,0.97,0.96,0.965,879700,0.9191
2014-08-28,0.96,0.97,0.96,0.97,342800,0.9238
2014-08-29,0.97,0.97,0.965,0.97,162400,0.9238
2014-09-01,0.965,0.97,0.965,0.9670000000000001,295500,0.9209999999999999
2014-09-02,0.965,0.97,0.965,0.9670000000000001,246400,0.9209999999999999
2014-09-03,0.97,0.97,0.965,0.97,316400,0.9238
2014-09-04,0.97,0.97,0.965,0.97,499600,0.9238
2014-09-05,0.9670000000000001,0.97,0.965,0.965,208600,0.9191
2014-09-08,0.97,0.97,0.965,0.965,257800,0.9191
2014-09-09,0.97,0.97,0.965,0.97,252000,0.9238
2014-09-10,0.97,0.975,0.97,0.97,88300,0.9238
2014-09-11,0.97,0.97,0.965,0.965,147400,0.9191
2014-09-12,0.97,0.97,0.965,0.97,102300,0.9238
2014-09-15,0.965,0.97,0.965,0.965,138000,0.9191
2014-09-16,0.97,0.975,0.965,0.975,135000,0.9286
2014-09-17,0.97,0.97,0.965,0.97,124100,0.9238
2014-09-18,0.965,0.97,0.965,0.97,252000,0.9238
2014-09-19,0.97,0.97,0.965,0.965,215700,0.9191
2014-09-22,0.965,0.97,0.96,0.96,277000,0.9143
2014-09-23,0.96,0.965,0.96,0.96,263600,0.9143
2014-09-24,0.96,0.96,0.955,0.96,275800,0.9143
2014-09-25,0.96,0.96,0.955,0.96,210100,0.9143
2014-09-26,0.955,0.96,0.95,0.95,132100,0.9048
2014-09-29,0.95,0.96,0.95,0.955,373000,0.9096
2014-09-30,0.981,0.981,0.981,0.981,0,0.9343
2014-10-01,0.96,0.96,0.95,0.96,221400,0.9143
2014-10-02,0.96,0.96,0.95,0.95,69400,0.9048
2014-10-03,0.955,0.96,0.95,0.96,217700,0.9143
2014-10-06,0.955,0.96,0.955,0.96,8000,0.9143
2014-10-07,0.96,0.965,0.955,0.96,252400,0.9143
2014-10-08,0.96,0.965,0.95,0.965,201000,0.9191
2014-10-09,0.965,0.97,0.965,0.97,235300,0.9238
2014-10-10,0.965,0.98,0.965,0.98,220500,0.9334
2014-10-13,0.975,0.98,0.97,0.975,318300,0.9286
2014-10-14,0.975,0.985,0.965,0.965,522200,0.9191
2014-10-15,0.97,0.98,0.97,0.98,210000,0.9334
2014-10-16,0.97,0.985,0.97,0.98,158600,0.9334
2014-10-17,0.98,0.985,0.975,0.98,116100,0.9334
2014-10-20,0.98,0.985,0.98,0.98,138700,0.9334
2014-10-21,0.98,0.985,0.98,0.98,203700,0.9334
2014-10-22,0.98,0.99,0.98,0.99,133600,0.9429
2014-10-23,0.985,0.995,0.98,0.995,285100,0.9477
2014-10-24,0.99,1.005,0.985,0.995,375900,0.9477
2014-10-27,0.995,0.995,0.995,0.995,232800,0.9477
2014-10-28,0.99,1.0,0.99,1.0,131000,0.9524
2014-10-29,0.995,1.005,0.995,0.995,176200,0.9477
2014-10-30,0.995,0.995,0.985,0.985,107300,0.9381
2014-10-31,0.9853,0.9853,0.9853,0.9853,0,0.9384
2014-11-03,0.995,1.005,0.995,1.0,63200,0.9524
2014-11-04,1.0,1.0,0.995,0.995,31000,0.9477
2014-11-05,1.0,1.0,1.0,1.0,13300,0.9524
2014-11-06,1.0,1.0,0.995,1.0,138700,0.9524
2014-11-07,1.0,1.0,0.99,0.99,93500,0.9429
2014-11-10,1.0,1.0,0.99,0.995,305200,0.9477
2014-11-11,0.99,0.995,0.985,0.985,238700,0.9381
2014-11-12,0.99,0.99,0.985,0.99,148200,0.9429
2014-11-13,0.99,1.0,0.985,0.985,239300,0.9381
2014-11-14,0.99,0.995,0.985,0.985,91100,0.9381
2014-11-17,0.99,0.995,0.985,0.99,363400,0.9429
2014-11-18,0.99,0.995,0.99,0.995,189800,0.9477
2014-11-19,0.99,0.995,0.99,0.99,129500,0.9429
2014-11-20,0.99,0.99,0.985,0.985,179000,0.9381
2014-11-21,0.985,0.99,0.985,0.99,162300,0.9429
2014-11-24,0.99,0.995,0.98,0.995,369200,0.9477
2014-11-25,0.99,0.995,0.97,0.995,142700,0.9477
2014-11-26,0.985,0.985,0.975,0.985,167600,0.9381
2014-11-27,0.985,0.995,0.98,0.98,437200,0.9334
2014-11-28,1.0056,1.0056,1.0056,1.0056,0,0.9577
2014-12-01,0.99,0.99,0.97,0.98,136100,0.9334
2014-12-02,0.98,1.0,0.98,1.0,326200,0.9524
2014-12-03,0.99,1.0,0.99,1.0,83200,0.9524
2014-12-04,0.995,0.995,0.985,0.99,97800,0.9429
2014-12-05,0.98,0.995,0.975,0.98,166500,0.9334
2014-12-08,0.995,0.995,0.985,0.995,156100,0.9477
2014-12-09,0.995,1.0,0.99,0.995,221100,0.9477
2014-12-10,0.99,0.99,0.98,0.99,287500,0.9429
2014-12-11,0.99,0.99,0.98,0.99,124200,0.9429
2014-12-12,0.99,1.0,0.97,1.0,385200,0.9524
2014-12-15,1.0,1.0,0.995,0.995,157500,0.9477
2014-12-16,0.995,1.005,0.975,1.0,355900,0.9524
2014-12-17,1.0,1.005,0.99,1.0,95000,0.9524
2014-12-18,1.005,1.01,1.005,1.01,124900,0.9619
2014-12-19,1.015,1.02,1.01,1.015,275400,0.9667
2014-12-22,1.015,1.015,1.01,1.015,111600,0.9667
2014-12-23,1.02,1.03,1.01,1.03,80500,0.981
2014-12-24,1.035,1.04,1.035,1.04,45400,0.9905
2014-12-25,1.04,1.04,1.04,1.04,0,0.9905
2014-12-26,1.04,1.04,1.04,1.04,0,0.9905
2014-12-29,1.03,1.035,1.03,1.03,46000,0.981
2014-12-30,1.035,1.04,1.035,1.035,71300,0.9857
2014-12-31,1.0295,1.0295,1.0295,1.0295,0,0.9805
2015-01-01,1.04,1.04,1.04,1.04,0,0.9905
2015-01-02,1.035,1.035,1.035,1.035,42500,0.9857
2015-01-05,1.035,1.04,1.035,1.04,130700,0.9905
2015-01-06,1.035,1.05,1.03,1.05,214500,1.0
2015-01-07,1.05,1.055,1.03,1.055,119100,1.0048
2015-01-08,0.9853,0.9853,0.9853,0.9853,0,0.9384
2015-01-09,0.9853,0.9853,0.9853,0.9853,0,0.9384
2015-01-12,0.9853,0.9853,0.9853,0.9853,0,0.9384
2015-01-13,0.9853,0.9853,0.9853,0.9853,0,0.9384
2015-01-14,0.9853,0.9853,0.9853,0.9853,0,0.9384
2015-01-15,0.9853,0.9853,0.9853,0.9853,0,0.9384
2015-01-16,0.9853,0.9853,0.9853,0.9853,0,0.9384
2015-01-19,0.9853,0.9853,0.9853,0.9853,0,0.9384
2015-01-20,0.9853,0.9853,0.9853,0.9853,0,0.9384
2015-01-21,0.9853,0.9853,0.9853,0.9853,0,0.9384
2015-01-22,0.9853,0.9853,0.9853,0.9853,0,0.9384
2015-01-23,1.03,1.05,1.03,1.05,77000,1.0
2015-01-26,1.05,1.05,1.05,1.05,0,1.0
2015-01-27,0.9853,0.9853,0.9853,0.9853,0,0.9384
2015-01-28,0.9853,0.9853,0.9853,0.9853,0,0.9384
2015-01-29,0.9853,0.9853,0.9853,0.9853,0,0.9384
2015-01-30,1.0512,1.0512,1.0512,1.0512,0,1.0012
2015-02-02,0.9853,0.9853,0.9853,0.9853,0,0.9384
2015-02-03,0.9853,0.9853,0.9853,0.9853,0,0.9384
2015-02-04,0.9853,0.9853,0.9853,0.9853,0,0.9384
2015-02-05,0.9853,0.9853,0.9853,0.9853,0,0.9384
2015-02-06,0.9853,0.9853,0.9853,0.9853,0,0.9384
2015-02-09,0.9853,0.9853,0.9853,0.9853,0,0.9384
2015-02-10,0.9853,0.9853,0.9853,0.9853,0,0.9384
2015-02-11,0.9853,0.9853,0.9853,0.9853,0,0.9384
2015-02-12,0.9853,0.9853,0.9853,0.9853,0,0.9384
2015-02-13,0.9853,0.9853,0.9853,0.9853,0,0.9384
2015-02-16,0.9853,0.9853,0.9853,0.9853,0,0.9384
2015-02-17,0.9853,0.9853,0.9853,0.9853,0,0.9384
2015-02-18,0.9853,0.9853,0.9853,0.9853,0,0.9384
2015-02-19,0.9853,0.9853,0.9853,0.9853,0,0.9384
2015-02-20,0.9853,0.9853,0.9853,0.9853,0,0.9384
2015-02-23,0.9853,0.9853,0.9853,0.9853,0,0.9384
2015-02-24,0.9853,0.9853,0.9853,0.9853,0,0.9384
2015-02-25,0.9812,0.9812,0.9812,0.9812,0,0.9345
2015-02-26,0.9812,0.9812,0.9812,0.9812,0,0.9345
2015-02-27,0.9812,0.9812,0.9812,0.9812,0,0.9345
2015-03-02,0.9807,0.9807,0.9807,0.9807,0,0.934
2015-03-03,0.9807,0.9807,0.9807,0.9807,0,0.934
2015-03-04,0.9788,0.9788,0.9788,0.9788,0,0.9322
2015-03-05,0.9784,0.9784,0.9784,0.9784,0,0.9318
2015-03-06,1.0684,1.0684,1.0684,1.0684,0,1.0176
2015-03-09,1.0684,1.0684,1.0684,1.0684,0,1.0176
2015-03-10,1.0684,1.0684,1.0684,1.0684,0,1.0176
2015-03-11,1.0607,1.0607,1.0607,1.0607,0,1.0102
2015-03-12,1.0607,1.0607,1.0607,1.0607,0,1.0102
2015-03-13,1.0607,1.0607,1.0607,1.0607,0,1.0102
2015-03-16,1.0607,1.0607,1.0607,1.0607,0,1.0171
2015-03-17,1.0607,1.0607,1.0607,1.0607,0,1.0171
2015-03-18,1.0562,1.0562,1.0562,1.0562,0,1.0128
2015-03-19,1.0557,1.0557,1.0557,1.0557,0,1.0123
2015-03-20,1.0546,1.0546,1.0546,1.0546,0,1.0112
2015-03-23,1.09,1.09,1.09,1.09,19500,1.0452
2015-03-24,1.0544,1.0544,1.0544,1.0544,0,1.011
2015-03-25,1.0532,1.0532,1.0532,1.0532,0,1.0099
2015-03-26,1.0532,1.0532,1.0532,1.0532,0,1.0099
2015-03-27,1.0532,1.0532,1.0532,1.0532,0,1.0099
2015-03-30,1.0532,1.0532,1.0532,1.0532,0,1.0099
2015-03-31,1.0357,1.0357,1.0357,1.0357,0,0.9931
2015-04-01,1.0516,1.0516,1.0516,1.0516,0,1.0083
2015-04-02,1.075,1.085,1.075,1.085,206700,1.0404
2015-04-03,1.085,1.085,1.085,1.085,0,1.0404
2015-04-06,1.085,1.085,1.085,1.085,0,1.0404
2015-04-07,1.0516,1.0516,1.0516,1.0516,0,1.0083
2015-04-08,1.0516,1.0516,1.0516,1.0516,0,1.0083
2015-04-09,1.0516,1.0516,1.0516,1.0516,0,1.0083
2015-04-10,1.08,1.095,1.08,1.095,226300,1.05
2015-04-13,1.0341,1.0341,1.0341,1.0341,0,0.9916
2015-04-14,1.0341,1.0341,1.0341,1.0341,0,0.9916
2015-04-15,1.0341,1.0341,1.0341,1.0341,0,0.9916
2015-04-16,1.0304,1.0304,1.0304,1.0304,0,0.988
2015-04-17,1.0304,1.0304,1.0304,1.0304,0,0.988
2015-04-20,1.0304,1.0304,1.0304,1.0304,0,0.988
2015-04-21,1.08,1.09,1.075,1.075,91700,1.0308
2015-04-22,1.0304,1.0304,1.0304,1.0304,0,0.988
2015-04-23,1.03,1.03,1.03,1.03,0,0.9876
2015-04-24,1.03,1.03,1.03,1.03,0,0.9876
2015-04-27,1.03,1.03,1.03,1.03,0,0.9876
2015-04-28,1.03,1.03,1.03,1.03,0,0.9876
2015-04-29,1.0296,1.0296,1.0296,1.0296,0,0.9873
2015-04-30,1.0356,1.0356,1.0356,1.0356,0,0.993
2015-05-01,1.0296,1.0296,1.0296,1.0296,0,0.9873
2015-05-04,1.0296,1.0296,1.0296,1.0296,0,0.9873
2015-05-05,1.0296,1.0296,1.0296,1.0296,0,0.9873
2015-05-06,1.0290000000000001,1.0290000000000001,1.0290000000000001,1.0290000000000001,0,0.9867
2015-05-07,1.0290000000000001,1.0290000000000001,1.0290000000000001,1.0290000000000001,0,0.9867
2015-05-08,1.0290000000000001,1.0290000000000001,1.0290000000000001,1.0290000000000001,0,0.9867
2015-05-11,1.0339,1.0339,1.0339,1.0339,0,0.9914
2015-05-12,1.0339,1.0339,1.0339,1.0339,0,0.9914
2015-05-13,1.0339,1.0339,1.0339,1.0339,0,0.9914
2015-05-14,1.0339,1.0339,1.0339,1.0339,0,0.9914
2015-05-15,1.0339,1.0339,1.0339,1.0339,0,0.9914
2015-05-18,1.0339,1.0339,1.0339,1.0339,0,0.9914
2015-05-19,1.0339,1.0339,1.0339,1.0339,0,0.9914
2015-05-20,1.0339,1.0339,1.0339,1.0339,0,0.9914
2015-05-21,1.0329,1.0329,1.0329,1.0329,0,0.9904
2015-05-22,1.0329,1.0329,1.0329,1.0329,0,0.9904
2015-05-25,1.0246,1.0246,1.0246,1.0246,0,0.9825
2015-05-26,1.0246,1.0246,1.0246,1.0246,0,0.9825
2015-05-27,1.0236,1.0236,1.0236,1.0236,0,0.9815
2015-05-28,1.0236,1.0236,1.0236,1.0236,0,0.9815
2015-05-29,1.0236,1.0236,1.0236,1.0236,0,0.9815
2015-06-01,1.0223,1.0223,1.0223,1.0223,0,0.9803
2015-06-02,1.0215,1.0215,1.0215,1.0215,0,0.9795
2015-06-03,1.0215,1.0215,1.0215,1.0215,0,0.9795
2015-06-04,1.0215,1.0215,1.0215,1.0215,0,0.9795
2015-06-05,1.06,1.065,1.045,1.05,128800,1.0068
2015-06-08,1.05,1.05,1.05,1.05,0,1.0068
2015-06-09,1.0205,1.0205,1.0205,1.0205,0,0.9785
2015-06-10,1.0405,1.0405,1.0405,1.0405,0,0.9977
2015-06-11,1.0405,1.0405,1.0405,1.0405,0,0.9977
2015-06-12,1.0395,1.0395,1.0395,1.0395,0,0.9967
2015-06-15,1.0395,1.0395,1.0395,1.0395,0,0.9967
2015-06-16,1.0395,1.0395,1.0395,1.0395,0,0.9967
2015-06-17,1.0375,1.0375,1.0375,1.0375,0,0.9948
2015-06-18,1.0375,1.0375,1.0375,1.0375,0,0.9948
2015-06-19,1.0371,1.0371,1.0371,1.0371,0,0.9944
2015-06-22,1.0371,1.0371,1.0371,1.0371,0,0.9944
2015-06-23,1.0365,1.0365,1.0365,1.0365,0,0.9939
2015-06-24,1.0365,1.0365,1.0365,1.0365,0,0.9939
2015-06-25,1.0365,1.0365,1.0365,1.0365,0,0.9939
2015-06-26,1.0364,1.0364,1.0364,1.0364,0,0.9938
2015-06-29,1.0364,1.0364,1.0364,1.0364,0,0.9938
2015-06-30,1.0281,1.0281,1.0281,1.0281,0,0.9858
2015-07-01,1.0364,1.0364,1.0364,1.0364,0,0.9938
2015-07-02,1.0364,1.0364,1.0364,1.0364,0,0.9938
2015-07-03,1.0364,1.0364,1.0364,1.0364,0,0.9938
2015-07-06,1.0332,1.0332,1.0332,1.0332,0,0.9907
2015-07-07,1.032,1.032,1.032,1.032,0,0.9896
2015-07-08,1.0248,1.0248,1.0248,1.0248,0,0.9827
2015-07-09,1.0237,1.0237,1.0237,1.0237,0,0.9816
2015-07-10,1.0237,1.0237,1.0237,1.0237,0,0.9816
2015-07-13,1.0237,1.0237,1.0237,1.0237,0,0.9816
2015-07-14,1.0229,1.0229,1.0229,1.0229,0,0.9808
2015-07-15,1.0229,1.0229,1.0229,1.0229,0,0.9808
2015-07-16,1.0255,1.0255,1.0255,1.0255,0,0.9833
2015-07-17,1.0203,1.0203,1.0203,1.0203,0,0.9783
2015-07-20,1.0203,1.0203,1.0203,1.0203,0,0.9783
2015-07-21,1.0192,1.0192,1.0192,1.0192,0,0.9773
2015-07-22,1.0192,1.0192,1.0192,1.0192,0,0.9773
2015-07-23,1.0192,1.0192,1.0192,1.0192,0,0.9773
2015-07-24,1.0192,1.0192,1.0192,1.0192,0,0.9773
2015-07-27,1.0151,1.0151,1.0151,1.0151,0,0.9734
2015-07-28,1.014,1.014,1.014,1.014,0,0.9723
2015-07-29,1.014,1.014,1.014,1.014,0,0.9723
2015-07-30,1.014,1.014,1.014,1.014,0,0.9723
2015-07-31,1.0404,1.0404,1.0404,1.0404,0,0.9976
2015-08-03,1.0114,1.0114,1.0114,1.0114,0,0.9698
2015-08-04,1.0114,1.0114,1.0114,1.0114,0,0.9698
2015-08-05,1.0114,1.0114,1.0114,1.0114,0,0.9698
2015-08-06,1.0083,1.0083,1.0083,1.0083,0,0.9668
2015-08-07,1.0083,1.0083,1.0083,1.0083,0,0.9668
2015-08-10,1.0083,1.0083,1.0083,1.0083,0,0.9668
2015-08-11,1.0083,1.0083,1.0083,1.0083,0,0.9668
2015-08-12,1.0083,1.0083,1.0083,1.0083,0,0.9668
2015-08-13,1.0346,1.0346,1.0346,1.0346,0,0.992
2015-08-14,1.0346,1.0346,1.0346,1.0346,0,0.992
2015-08-17,1.0327,1.0327,1.0327,1.0327,0,0.9902
2015-08-18,1.0327,1.0327,1.0327,1.0327,0,0.9902
2015-08-19,1.031,1.031,1.031,1.031,0,0.9886
2015-08-20,1.031,1.031,1.031,1.031,0,0.9886
2015-08-21,1.031,1.031,1.031,1.031,0,0.9886
2015-08-24,1.031,1.031,1.031,1.031,0,0.9886
2015-08-25,1.0288,1.0288,1.0288,1.0288,0,0.9865
2015-08-26,1.0288,1.0288,1.0288,1.0288,0,0.9865
2015-08-27,1.0288,1.0288,1.0288,1.0288,0,0.9865
2015-08-28,1.0288,1.0288,1.0288,1.0288,0,0.9865
2015-08-31,1.021,1.021,1.021,1.021,0,0.9790000000000001
2015-09-01,1.0288,1.0288,1.0288,1.0288,0,0.9865
2015-09-02,1.0288,1.0288,1.0288,1.0288,0,0.9865
2015-09-03,1.0288,1.0288,1.0288,1.0288,0,0.9865
2015-09-04,1.0288,1.0288,1.0288,1.0288,0,0.9865
2015-09-07,1.0288,1.0288,1.0288,1.0288,0,0.9865
2015-09-08,1.0288,1.0288,1.0288,1.0288,0,0.9865
2015-09-09,1.021,1.021,1.021,1.021,0,0.9790000000000001
2015-09-10,1.021,1.021,1.021,1.021,0,0.9790000000000001
2015-09-11,1.0197,1.0197,1.0197,1.0197,0,0.9778
2015-09-14,1.0197,1.0197,1.0197,1.0197,0,0.9778
2015-09-15,1.0197,1.0197,1.0197,1.0197,0,0.9778
2015-09-16,1.0195,1.0195,1.0195,1.0195,0,0.9776
2015-09-17,1.0195,1.0195,1.0195,1.0195,0,0.9776
2015-09-18,1.0195,1.0195,1.0195,1.0195,0,0.9776
2015-09-21,1.0195,1.0195,1.0195,1.0195,0,0.9776
2015-09-22,1.0195,1.0195,1.0195,1.0195,0,0.9776
2015-09-23,1.0195,1.0195,1.0195,1.0195,0,0.9776
2015-09-24,1.0190000000000001,1.0190000000000001,1.0190000000000001,1.0190000000000001,0,0.9771
2015-09-25,1.0190000000000001,1.0190000000000001,1.0190000000000001,1.0190000000000001,0,0.9771
2015-09-28,1.0190000000000001,1.0190000000000001,1.0190000000000001,1.0190000000000001,0,0.9771
2015-09-29,1.0190000000000001,1.0190000000000001,1.0190000000000001,1.0190000000000001,0,0.9771
2015-09-30,1.0278,1.0278,1.0278,1.0278,0,0.9855
2015-10-01,1.0190000000000001,1.0190000000000001,1.0190000000000001,1.0190000000000001,0,0.9771
2015-10-02,1.0190000000000001,1.0190000000000001,1.0190000000000001,1.0190000000000001,0,0.9771
2015-10-05,1.0190000000000001,1.0190000000000001,1.0190000000000001,1.0190000000000001,0,0.9771
2015-10-06,1.0183,1.0183,1.0183,1.0183,0,0.9764
2015-10-07,1.0183,1.0183,1.0183,1.0183,0,0.9764
2015-10-08,1.0183,1.0183,1.0183,1.0183,0,0.9764
2015-10-09,1.0272,1.0272,1.0272,1.0272,0,0.985
2015-10-12,1.0272,1.0272,1.0272,1.0272,0,0.985
2015-10-13,1.0248,1.0248,1.0248,1.0248,0,1.0036
2015-10-14,1.015,1.015,1.0,1.01,64700,0.9891
2015-10-15,1.0248,1.0248,1.0248,1.0248,0,1.0036
2015-10-16,1.0228,1.0228,1.0228,1.0228,0,1.0016
2015-10-19,1.0228,1.0228,1.0228,1.0228,0,1.0016
2015-10-20,1.0228,1.0228,1.0228,1.0228,0,1.0016
2015-10-21,1.0207,1.0207,1.0207,1.0207,0,0.9996
2015-10-22,1.0207,1.0207,1.0207,1.0207,0,0.9996
2015-10-23,1.0207,1.0207,1.0207,1.0207,0,0.9996
2015-10-26,1.0207,1.0207,1.0207,1.0207,0,0.9996
2015-10-27,1.0207,1.0207,1.0207,1.0207,0,0.9996
2015-10-28,1.0207,1.0207,1.0207,1.0207,0,0.9996
2015-10-29,1.0207,1.0207,1.0207,1.0207,0,0.9996
2015-10-30,1.0307,1.0307,1.0307,1.0307,0,1.0094
2015-11-02,1.0207,1.0207,1.0207,1.0207,0,0.9996
2015-11-03,1.0207,1.0207,1.0207,1.0207,0,0.9996
2015-11-04,1.0205,1.0205,1.0205,1.0205,0,0.9994
2015-11-05,1.0205,1.0205,1.0205,1.0205,0,0.9994
2015-11-06,1.0205,1.0205,1.0205,1.0205,0,0.9994
2015-11-09,1.0205,1.0205,1.0205,1.0205,0,0.9994
2015-11-10,1.0194,1.0194,1.0194,1.0194,0,0.9983
2015-11-11,1.0194,1.0194,1.0194,1.0194,0,0.9983
2015-11-12,1.0192,1.0192,1.0192,1.0192,0,0.9981
2015-11-13,1.0192,1.0192,1.0192,1.0192,0,0.9981
2015-11-16,1.0185,1.0185,1.0185,1.0185,0,0.9974
2015-11-17,1.0185,1.0185,1.0185,1.0185,0,0.9974
2015-11-18,1.0182,1.0182,1.0182,1.0182,0,0.9971
2015-11-19,1.0182,1.0182,1.0182,1.0182,0,0.9971
2015-11-20,1.0182,1.0182,1.0182,1.0182,0,0.9971
2015-11-23,1.0175,1.0175,1.0175,1.0175,0,0.9964
2015-11-24,1.0172,1.0172,1.0172,1.0172,0,0.9961
2015-11-25,1.0172,1.0172,1.0172,1.0172,0,0.9961
2015-11-26,1.0172,1.0172,1.0172,1.0172,0,0.9961
2015-11-27,1.0172,1.0172,1.0172,1.0172,0,0.9961
2015-11-30,1.0336,1.0336,1.0336,1.0336,0,1.0122
2015-12-01,1.0164,1.0164,1.0164,1.0164,0,0.9954
2015-12-02,1.0164,1.0164,1.0164,1.0164,0,0.9954
2015-12-03,1.0159,1.0159,1.0159,1.0159,0,0.9949
2015-12-04,1.0152,1.0152,1.0152,1.0152,0,0.9942
2015-12-07,1.0152,1.0152,1.0152,1.0152,0,0.9942
2015-12-08,1.0152,1.0152,1.0152,1.0152,0,0.9942
2015-12-09,1.0307,1.0307,1.0307,1.0307,0,1.0094
2015-12-10,1.0307,1.0307,1.0307,1.0307,0,1.0094
2015-12-11,1.0306,1.0306,1.0306,1.0306,0,1.0093
2015-12-14,1.0306,1.0306,1.0306,1.0306,0,1.0093
2015-12-15,1.0306,1.0306,1.0306,1.0306,0,1.0093
2015-12-16,1.0293,1.0293,1.0293,1.0293,0,1.008
2015-12-17,1.0293,1.0293,1.0293,1.0293,0,1.008
2015-12-18,1.0293,1.0293,1.0293,1.0293,0,1.008
2015-12-21,1.0284,1.0284,1.0284,1.0284,0,1.0071
2015-12-22,1.0284,1.0284,1.0284,1.0284,0,1.0071
2015-12-23,1.0284,1.0284,1.0284,1.0284,0,1.0071
2015-12-24,1.03,1.04,1.02,1.04,189300,1.0185
2015-12-25,1.04,1.04,1.04,1.04,0,1.0185
2015-12-28,1.04,1.04,1.04,1.04,0,1.0185
2015-12-29,1.04,1.04,1.02,1.04,195300,1.0185
2015-12-30,1.04,1.04,1.04,1.04,0,1.0185
2015-12-31,1.0418,1.0418,1.0418,1.0418,0,1.0202
2016-01-01,1.0272,1.0272,1.0272,1.0272,0,1.0059
2016-01-04,1.0272,1.0272,1.0272,1.0272,0,1.0059
2016-01-05,1.0272,1.0272,1.0272,1.0272,0,1.0059
2016-01-06,1.0272,1.0272,1.0272,1.0272,0,1.0059
2016-01-07,1.0272,1.0272,1.0272,1.0272,0,1.0059
2016-01-08,1.0418,1.0418,1.0418,1.0418,0,1.0202
2016-01-11,1.0418,1.0418,1.0418,1.0418,0,1.0202
2016-01-12,1.0418,1.0418,1.0418,1.0418,0,1.0202
2016-01-13,1.0418,1.0418,1.0418,1.0418,0,1.0202
2016-01-14,1.0392,1.0392,1.0392,1.0392,0,1.0177
2016-01-15,1.0392,1.0392,1.0392,1.0392,0,1.0177
2016-01-18,1.0387,1.0387,1.0387,1.0387,0,1.0172
2016-01-19,1.0387,1.0387,1.0387,1.0387,0,1.0172
2016-01-20,1.0387,1.0387,1.0387,1.0387,0,1.0172
2016-01-21,1.0387,1.0387,1.0387,1.0387,0,1.0172
2016-01-22,1.0387,1.0387,1.0387,1.0387,0,1.0172
2016-01-25,1.0,1.0,1.0,1.0,67700,0.9793
2016-01-26,1.0387,1.0387,1.0387,1.0387,0,1.0172
2016-01-27,1.0387,1.0387,1.0387,1.0387,0,1.0172
2016-01-28,1.0387,1.0387,1.0387,1.0387,0,1.0172
2016-01-29,1.0387,1.0387,1.0387,1.0387,0,1.0172
2016-02-01,1.0387,1.0387,1.0387,1.0387,0,1.0172
2016-02-02,1.0387,1.0387,1.0387,1.0387,0,1.0172
2016-02-03,1.0384,1.0384,1.0384,1.0384,0,1.0169
2016-02-04,1.0527,1.0527,1.0527,1.0527,0,1.0309
2016-02-05,1.0527,1.0527,1.0527,1.0527,0,1.0309
2016-02-08,1.0522,1.0522,1.0522,1.0522,0,1.0304
2016-02-09,1.0522,1.0522,1.0522,1.0522,0,1.0304
2016-02-10,1.0517,1.0517,1.0517,1.0517,0,1.0299
2016-02-11,1.0517,1.0517,1.0517,1.0517,0,1.0299
2016-02-12,1.0517,1.0517,1.0517,1.0517,0,1.0299
2016-02-15,1.0505,1.0505,1.0505,1.0505,0,1.0288
2016-02-16,1.0502,1.0502,1.0502,1.0502,0,1.0285
2016-02-17,1.0502,1.0502,1.0502,1.0502,0,1.0285
2016-02-18,1.0502,1.0502,1.0502,1.0502,0,1.0285
2016-02-19,1.0494,1.0494,1.0494,1.0494,0,1.0277
2016-02-22,1.0489,1.0489,1.0489,1.0489,0,1.0272
2016-02-23,1.0489,1.0489,1.0489,1.0489,0,1.0272
2016-02-24,1.0471,1.0471,1.0471,1.0471,0,1.0254
2016-02-25,1.0465,1.0465,1.0465,1.0465,0,1.0248
2016-02-26,1.0465,1.0465,1.0465,1.0465,0,1.0248
2016-02-29,1.0508,1.0508,1.0508,1.0508,0,1.0291
2016-03-01,1.0453,1.0453,1.0453,1.0453,0,1.0237
2016-03-02,1.0453,1.0453,1.0453,1.0453,0,1.0237
2016-03-03,1.0483,1.0483,1.0483,1.0483,0,1.0266
2016-03-04,1.0483,1.0483,1.0483,1.0483,0,1.0266
2016-03-07,1.0416,1.0416,1.0416,1.0416,0,1.02
2016-03-08,1.0353,1.0353,1.0353,1.0353,0,1.0139
2016-03-09,1.0353,1.0353,1.0353,1.0353,0,1.0139
2016-03-10,1.0353,1.0353,1.0353,1.0353,0,1.0139
2016-03-11,1.0353,1.0353,1.0353,1.0353,0,1.0139
2016-03-14,1.0353,1.0353,1.0353,1.0353,0,1.0139
2016-03-15,1.0353,1.0353,1.0353,1.0353,0,1.0139
2016-03-16,1.0353,1.0353,1.0353,1.0353,0,1.0139
2016-03-17,1.0353,1.0353,1.0353,1.0353,0,1.0139
2016-03-18,1.0353,1.0353,1.0353,1.0353,0,1.0353
2016-03-21,1.0353,1.0353,1.0353,1.0353,0,1.0353
2016-03-22,1.0353,1.0353,1.0353,1.0353,0,1.0353
2016-03-23,1.0353,1.0353,1.0353,1.0353,0,1.0353
2016-03-24,1.01,1.01,1.0,1.005,62400,1.005
2016-03-25,1.0353,1.0353,1.0353,1.0353,0,1.0353
2016-03-28,1.0353,1.0353,1.0353,1.0353,0,1.0353
2016-03-29,1.0353,1.0353,1.0353,1.0353,0,1.0353
2016-03-30,1.0353,1.0353,1.0353,1.0353,0,1.0353
2016-03-31,1.0684,1.0684,1.0684,1.0684,0,1.0684
2016-04-01,1.0353,1.0353,1.0353,1.0353,0,1.0353
2016-04-04,1.0353,1.0353,1.0353,1.0353,0,1.0353
2016-04-05,1.0684,1.0684,1.0684,1.0684,0,1.0684
2016-04-06,1.0684,1.0684,1.0684,1.0684,0,1.0684
2016-04-07,1.0684,1.0684,1.0684,1.0684,0,1.0684
2016-04-08,1.0036,1.0036,1.0036,1.0036,0,1.0036
2016-04-11,1.0036,1.0036,1.0036,1.0036,0,1.0036
2016-04-12,1.0036,1.0036,1.0036,1.0036,0,1.0036
2016-04-13,1.0036,1.0036,1.0036,1.0036,0,1.0036
2016-04-14,1.0036,1.0036,1.0036,1.0036,0,1.0036
2016-04-15,1.0036,1.0036,1.0036,1.0036,0,1.0036
2016-04-18,1.0036,1.0036,1.0036,1.0036,0,1.0036
2016-04-19,1.0036,1.0036,1.0036,1.0036,0,1.0036
2016-04-20,1.0036,1.0036,1.0036,1.0036,0,1.0036
2016-04-21,1.0036,1.0036,1.0036,1.0036,0,1.0036
2016-04-22,1.035,1.04,1.03,1.03,192700,1.03
2016-04-25,1.0036,1.0036,1.0036,1.0036,0,1.0036
2016-04-26,1.0036,1.0036,1.0036,1.0036,0,1.0036
2016-04-27,1.0036,1.0036,1.0036,1.0036,0,1.0036
2016-04-28,1.0036,1.0036,1.0036,1.0036,0,1.0036
2016-04-29,1.0036,1.0036,1.0036,1.0036,0,1.0036
2016-05-02,1.0036,1.0036,1.0036,1.0036,0,1.0036
2016-05-03,1.0036,1.0036,1.0036,1.0036,0,1.0036
2016-05-04,1.0036,1.0036,1.0036,1.0036,0,1.0036
2016-05-05,1.0036,1.0036,1.0036,1.0036,0,1.0036
2016-05-06,1.0849,1.0849,1.0849,1.0849,0,1.0849
2016-05-09,1.0849,1.0849,1.0849,1.0849,0,1.0849
2016-05-10,1.0849,1.0849,1.0849,1.0849,0,1.0849
2016-05-11,1.0849,1.0849,1.0849,1.0849,0,1.0849
2016-05-12,1.0849,1.0849,1.0849,1.0849,0,1.0849
2016-05-13,1.0849,1.0849,1.0849,1.0849,0,1.0849
2016-05-16,1.0849,1.0849,1.0849,1.0849,0,1.0849
2016-05-17,1.0849,1.0849,1.0849,1.0849,0,1.0849
2016-05-18,1.0849,1.0849,1.0849,1.0849,0,1.0849
2016-05-19,1.0849,1.0849,1.0849,1.0849,0,1.0849
2016-05-20,1.0849,1.0849,1.0849,1.0849,0,1.0849
2016-05-23,1.0849,1.0849,1.0849,1.0849,0,1.0849
2016-05-24,1.0849,1.0849,1.0849,1.0849,0,1.0849
2016-05-25,1.0849,1.0849,1.0849,1.0849,0,1.0849
2016-05-26,1.0849,1.0849,1.0849,1.0849,0,1.0849
2016-05-27,1.0849,1.0849,1.0849,1.0849,0,1.0849
2016-05-30,1.0849,1.0849,1.0849,1.0849,0,1.0849
2016-05-31,1.0849,1.0849,1.0849,1.0849,0,1.0849
2016-06-01,1.0849,1.0849,1.0849,1.0849,0,1.0849
2016-06-02,1.0849,1.0849,1.0849,1.0849,0,1.0849
2016-06-03,1.0849,1.0849,1.0849,1.0849,0,1.0849
2016-06-06,1.0849,1.0849,1.0849,1.0849,0,1.0849
2016-06-07,1.0849,1.0849,1.0849,1.0849,0,1.0849
2016-06-08,1.0849,1.0849,1.0849,1.0849,0,1.0849
2016-06-09,1.0849,1.0849,1.0849,1.0849,0,1.0849
2016-06-10,1.07,1.08,1.06,1.065,212800,1.065
2016-06-13,1.0849,1.0849,1.0849,1.0849,0,1.0849
2016-06-14,1.0849,1.0849,1.0849,1.0849,0,1.0849
2016-06-15,1.0849,1.0849,1.0849,1.0849,0,1.0849
2016-06-16,1.0849,1.0849,1.0849,1.0849,0,1.0849
2016-06-17,1.0849,1.0849,1.0849,1.0849,0,1.0849
2016-06-20,1.0849,1.0849,1.0849,1.0849,0,1.0849
2016-06-21,1.0849,1.0849,1.0849,1.0849,0,1.0849
2016-06-22,1.0849,1.0849,1.0849,1.0849,0,1.0849
2016-06-23,1.0849,1.0849,1.0849,1.0849,0,1.0849
2016-06-24,1.0849,1.0849,1.0849,1.0849,0,1.0849
2016-06-27,1.0849,1.0849,1.0849,1.0849,0,1.0849
2016-06-28,1.0849,1.0849,1.0849,1.0849,0,1.0849
2016-06-29,1.0849,1.0849,1.0849,1.0849,0,1.0849
2016-06-30,1.1085,1.1085,1.1085,1.1085,0,1.1085
2016-07-01,1.0849,1.0849,1.0849,1.0849,0,1.0849
2016-07-04,1.0849,1.0849,1.0849,1.0849,0,1.0849
2016-07-05,1.0849,1.0849,1.0849,1.0849,0,1.0849
2016-07-06,1.0849,1.0849,1.0849,1.0849,0,1.0849
2016-07-07,1.0849,1.0849,1.0849,1.0849,0,1.0849
2016-07-08,1.1085,1.1085,1.1085,1.1085,0,1.1085
2016-07-11,1.1085,1.1085,1.1085,1.1085,0,1.1085
2016-07-12,1.1085,1.1085,1.1085,1.1085,0,1.1085
2016-07-13,1.1085,1.1085,1.1085,1.1085,0,1.1085
2016-07-14,1.1085,1.1085,1.1085,1.1085,0,1.1085
2016-07-15,1.1085,1.1085,1.1085,1.1085,0,1.1085
2016-07-18,1.1085,1.1085,1.1085,1.1085,0,1.1085
2016-07-19,1.1085,1.1085,1.1085,1.1085,0,1.1085
2016-07-20,1.1085,1.1085,1.1085,1.1085,0,1.1085
2016-07-21,1.1085,1.1085,1.1085,1.1085,0,1.1085
2016-07-22,1.1085,1.1085,1.1085,1.1085,0,1.1085
2016-07-25,1.1085,1.1085,1.1085,1.1085,0,1.1085
2016-07-26,1.1085,1.1085,1.1085,1.1085,0,1.1085
2016-07-27,1.1085,1.1085,1.1085,1.1085,0,1.1085
2016-07-28,1.1085,1.1085,1.1085,1.1085,0,1.1085
2016-07-29,1.1085,1.1085,1.1085,1.1085,0,1.1085
2016-08-01,1.1085,1.1085,1.1085,1.1085,0,1.1085
2016-08-02,1.1085,1.1085,1.1085,1.1085,0,1.1085
2016-08-03,1.1085,1.1085,1.1085,1.1085,0,1.1085
2016-08-04,1.1085,1.1085,1.1085,1.1085,0,1.1085
2016-08-05,1.1624,1.1624,1.1624,1.1624,0,1.1624
2016-08-08,1.1624,1.1624,1.1624,1.1624,0,1.1624
2016-08-09,1.1624,1.1624,1.1624,1.1624,0,1.1624
2016-08-10,1.14,1.15,1.14,1.14,168000,1.14
2016-08-11,1.145,1.15,1.13,1.15,159800,1.15
2016-08-12,1.135,1.145,1.13,1.145,153600,1.145
2016-08-15,1.14,1.15,1.14,1.15,152800,1.15
2016-08-16,1.15,1.2,1.15,1.2,314200,1.2
2016-08-17,1.195,1.195,1.165,1.18,47800,1.18
2016-08-18,1.18,1.185,1.17,1.17,105000,1.17
2016-08-19,1.185,1.19,1.18,1.185,150400,1.185
2016-08-22,1.1624,1.1624,1.1624,1.1624,0,1.1624
2016-08-23,1.1624,1.1624,1.1624,1.1624,0,1.1624
2016-08-24,1.1624,1.1624,1.1624,1.1624,0,1.1624
2016-08-25,1.185,1.185,1.17,1.17,85200,1.17
2016-08-26,1.185,1.2,1.17,1.19,205500,1.19
2016-08-29,1.19,1.195,1.175,1.195,194200,1.195
2016-08-30,1.2,1.205,1.175,1.195,221100,1.195
2016-08-31,1.18,1.195,1.18,1.18,146900,1.18
2016-09-01,1.18,1.18,1.175,1.175,127100,1.175
2016-09-02,1.175,1.18,1.17,1.18,215100,1.18
2016-09-05,1.18,1.195,1.18,1.195,125100,1.195
2016-09-06,1.195,1.195,1.18,1.195,117700,1.195
2016-09-07,1.1839,1.1839,1.1839,1.1839,0,1.1839
2016-09-08,1.2,1.2,1.19,1.2,79800,1.2
2016-09-09,1.185,1.205,1.18,1.18,201000,1.18
2016-09-12,1.1839,1.1839,1.1839,1.1839,0,1.1839
2016-09-13,1.18,1.195,1.17,1.175,170000,1.175
2016-09-14,1.175,1.215,1.175,1.205,308600,1.205
2016-09-15,1.2,1.25,1.18,1.195,257700,1.195
2016-09-16,1.21,1.22,1.19,1.21,165000,1.21
2016-09-19,1.225,1.225,1.225,1.225,25100,1.225
2016-09-20,1.23,1.27,1.225,1.24,231400,1.24
2016-09-21,1.22,1.26,1.22,1.24,112400,1.24
2016-09-22,1.24,1.265,1.24,1.24,186000,1.24
2016-09-23,1.27,1.28,1.25,1.28,174200,1.28
2016-09-26,1.28,1.29,1.26,1.26,305900,1.26
2016-09-27,1.255,1.26,1.25,1.255,212000,1.255
2016-09-28,1.26,1.275,1.25,1.25,143100,1.25
2016-09-29,1.26,1.26,1.235,1.245,356700,1.245
2016-09-30,1.245,1.25,1.225,1.24,47200,1.24
2016-10-03,1.24,1.24,1.2,1.2,122800,1.2
2016-10-04,1.22,1.22,1.2,1.22,117000,1.22
2016-10-05,1.22,1.235,1.22,1.235,118400,1.235
2016-10-06,1.2,1.235,1.2,1.21,347800,1.21
2016-10-07,1.22,1.22,1.205,1.205,120800,1.205
2016-10-10,1.22,1.235,1.205,1.23,99100,1.23
2016-10-11,1.22,1.23,1.205,1.215,156500,1.215
2016-10-12,1.2,1.225,1.2,1.2,247200,1.2
2016-10-13,1.2,1.215,1.2,1.215,29000,1.215
2016-10-14,1.2,1.215,1.195,1.195,117200,1.195
2016-10-17,1.1857,1.1857,1.1857,1.1857,0,1.1857
2016-10-18,1.1857,1.1857,1.1857,1.1857,0,1.1857
2016-10-19,1.2,1.22,1.2,1.2,63400,1.2
2016-10-20,1.2,1.22,1.2,1.22,229300,1.22
2016-10-21,1.22,1.22,1.21,1.22,123700,1.22
2016-10-24,1.22,1.225,1.205,1.225,118000,1.225
2016-10-25,1.22,1.225,1.205,1.225,107700,1.225
2016-10-26,1.22,1.22,1.21,1.215,29300,1.215
2016-10-27,1.22,1.23,1.21,1.215,281800,1.215
2016-10-28,1.22,1.22,1.21,1.22,165300,1.22
2016-10-31,1.21,1.22,1.2,1.2,154900,1.2
2016-11-01,1.2,1.21,1.2,1.21,50800,1.21
2016-11-02,1.205,1.235,1.2,1.235,164000,1.235
2016-11-03,1.23,1.255,1.225,1.225,160800,1.225
2016-11-04,1.25,1.26,1.215,1.215,119900,1.215
2016-11-07,1.21,1.24,1.205,1.21,153100,1.21
2016-11-08,1.22,1.235,1.205,1.205,197100,1.205
2016-11-09,1.23,1.23,1.19,1.19,206100,1.19
2016-11-10,1.19,1.23,1.19,1.22,261100,1.22
2016-11-11,1.21,1.245,1.21,1.215,100900,1.215
2016-11-14,1.225,1.24,1.205,1.205,125200,1.205
2016-11-15,1.205,1.205,1.195,1.205,139300,1.205
2016-11-16,1.22,1.22,1.195,1.195,69100,1.195
2016-11-17,1.21,1.21,1.19,1.19,222900,1.19
2016-11-18,1.2,1.22,1.2,1.22,237300,1.22
2016-11-21,1.22,1.22,1.21,1.21,113700,1.21
2016-11-22,1.21,1.21,1.195,1.195,175300,1.195
2016-11-23,1.21,1.21,1.2,1.2,53700,1.2
2016-11-24,1.1274,1.1274,1.1274,1.1274,0,1.1274
2016-11-25,1.195,1.21,1.195,1.21,170300,1.21
2016-11-28,1.22,1.265,1.22,1.265,161500,1.265
2016-11-29,1.235,1.27,1.225,1.27,218200,1.27
2016-11-30,1.27,1.27,1.24,1.26,108000,1.26
2016-12-01,1.255,1.32,1.24,1.3,228700,1.3
2016-12-02,1.29,1.3,1.28,1.29,87600,1.29
2016-12-05,1.3,1.31,1.29,1.29,235400,1.29
2016-12-06,1.3,1.3,1.22,1.28,179500,1.28
2016-12-07,1.28,1.3,1.28,1.3,161900,1.3
2016-12-08,1.295,1.3,1.245,1.265,301000,1.265
2016-12-09,1.265,1.265,1.22,1.245,167900,1.245
2016-12-12,1.26,1.3,1.225,1.285,194500,1.285
2016-12-13,1.29,1.295,1.23,1.245,258700,1.245
2016-12-14,1.295,1.295,1.25,1.285,301000,1.285
2016-12-15,1.285,1.29,1.235,1.235,196200,1.235
2016-12-16,1.24,1.285,1.235,1.245,143800,1.245
2016-12-19,1.26,1.28,1.26,1.27,113100,1.27
2016-12-20,1.28,1.295,1.28,1.28,297500,1.28
2016-12-21,1.295,1.295,1.275,1.29,401000,1.29
2016-12-22,1.29,1.295,1.29,1.29,342100,1.29
2016-12-23,1.29,1.29,1.24,1.245,146100,1.245
2016-12-26,1.1427,1.1427,1.1427,1.1427,0,1.1427
2016-12-27,1.1427,1.1427,1.1427,1.1427,0,1.1427
2016-12-28,1.285,1.285,1.245,1.245,37000,1.245
2016-12-29,1.245,1.28,1.245,1.25,45100,1.25
2016-12-30,1.27,1.27,1.255,1.255,18100,1.255
