Date,Open,High,Low,Close,Volume,Adj Close
2013-12-12,0.225,0.225,0.195,0.22,370200,0.22
2013-12-13,0.22,0.22,0.17,0.17,260900,0.17
2013-12-16,0.19,0.195,0.185,0.185,65200,0.185
2013-12-17,0.185,0.185,0.185,0.185,0,0.185
2013-12-18,0.185,0.185,0.18,0.185,77600,0.185
2013-12-19,0.19,0.195,0.155,0.17,267500,0.17
2013-12-20,0.16,0.17,0.155,0.16,337000,0.16
2013-12-23,0.16,0.18,0.16,0.17,1427700,0.17
2013-12-24,0.175,0.185,0.175,0.185,90600,0.185
2013-12-25,0.185,0.185,0.185,0.185,0,0.185
2013-12-26,0.185,0.185,0.185,0.185,0,0.185
2013-12-27,0.19,0.19,0.185,0.19,176400,0.19
2013-12-30,0.19,0.2,0.19,0.2,103000,0.2
2013-12-31,0.2,0.2,0.2,0.2,0,0.2
2014-01-01,0.2,0.2,0.2,0.2,0,0.2
2014-01-02,0.195,0.2,0.195,0.2,113000,0.2
2014-01-03,0.19,0.195,0.19,0.195,100000,0.195
2014-01-06,0.195,0.2,0.19,0.2,307800,0.2
2014-01-07,0.195,0.2,0.19,0.2,147000,0.2
2014-01-08,0.195,0.2,0.195,0.2,94100,0.2
2014-01-09,0.2,0.2,0.2,0.2,75000,0.2
2014-01-10,0.2,0.22,0.19,0.22,113000,0.22
2014-01-13,0.2,0.2,0.2,0.2,65000,0.2
2014-01-14,0.2,0.2,0.19,0.19,112200,0.19
2014-01-15,0.2,0.2,0.2,0.2,0,0.2
2014-01-16,0.19,0.195,0.19,0.195,161200,0.195
2014-01-17,0.195,0.2,0.195,0.2,13000,0.2
2014-01-20,0.2,0.2,0.2,0.2,31400,0.2
2014-01-21,0.2,0.2,0.2,0.2,0,0.2
2014-01-22,0.2,0.2,0.2,0.2,0,0.2
2014-01-23,0.2,0.2,0.2,0.2,3000,0.2
2014-01-24,0.2,0.2,0.2,0.2,2500,0.2
2014-01-27,0.2,0.2,0.2,0.2,0,0.2
2014-01-28,0.2,0.2,0.2,0.2,25000,0.2
2014-01-29,0.19,0.19,0.19,0.19,12300,0.19
2014-01-30,0.19,0.19,0.19,0.19,0,0.19
2014-01-31,0.19,0.2,0.19,0.2,46400,0.2
2014-02-03,0.2,0.2,0.2,0.2,0,0.2
2014-02-04,0.2,0.2,0.2,0.2,0,0.2
2014-02-05,0.2,0.2,0.2,0.2,0,0.2
2014-02-06,0.2,0.2,0.2,0.2,0,0.2
2014-02-07,0.2,0.2,0.2,0.2,20200,0.2
2014-02-10,0.2,0.2,0.2,0.2,0,0.2
2014-02-11,0.2,0.2,0.2,0.2,0,0.2
2014-02-12,0.2,0.2,0.2,0.2,0,0.2
2014-02-13,0.2,0.2,0.2,0.2,0,0.2
2014-02-14,0.2,0.2,0.2,0.2,0,0.2
2014-02-17,0.2,0.2,0.2,0.2,0,0.2
2014-02-18,0.205,0.205,0.2,0.2,46400,0.2
2014-02-19,0.2,0.2,0.2,0.2,0,0.2
2014-02-20,0.2,0.2,0.2,0.2,75000,0.2
2014-02-21,0.2,0.2,0.2,0.2,0,0.2
2014-02-24,0.21,0.22,0.21,0.21,33900,0.21
2014-02-25,0.21,0.21,0.21,0.21,0,0.21
2014-02-26,0.21,0.21,0.2,0.2,3000,0.2
2014-02-27,0.22,0.22,0.22,0.22,30000,0.22
2014-02-28,0.2,0.2,0.2,0.2,89100,0.2
2014-03-03,0.2,0.21,0.2,0.2,34900,0.2
2014-03-04,0.2,0.2,0.2,0.2,0,0.2
2014-03-05,0.2,0.2,0.2,0.2,57800,0.2
2014-03-06,0.2,0.2,0.2,0.2,0,0.2
2014-03-07,0.2,0.2,0.2,0.2,0,0.2
2014-03-10,0.2,0.2,0.2,0.2,0,0.2
2014-03-11,0.22,0.22,0.22,0.22,4600,0.22
2014-03-12,0.22,0.22,0.22,0.22,0,0.22
2014-03-13,0.22,0.22,0.22,0.22,0,0.22
2014-03-14,0.22,0.22,0.22,0.22,0,0.22
2014-03-17,0.21,0.21,0.21,0.21,7500,0.21
2014-03-18,0.21,0.22,0.21,0.22,26800,0.22
2014-03-19,0.22,0.22,0.2,0.2,48300,0.2
2014-03-20,0.215,0.215,0.215,0.215,31100,0.215
2014-03-21,0.215,0.215,0.215,0.215,0,0.215
2014-03-24,0.215,0.215,0.215,0.215,10000,0.215
2014-03-25,0.215,0.215,0.215,0.215,0,0.215
2014-03-26,0.215,0.215,0.215,0.215,0,0.215
2014-03-27,0.2,0.2,0.2,0.2,80000,0.2
2014-03-28,0.2,0.2,0.2,0.2,0,0.2
2014-03-31,0.2,0.215,0.2,0.215,11100,0.215
2014-04-01,0.215,0.215,0.215,0.215,0,0.215
2014-04-02,0.215,0.215,0.215,0.215,0,0.215
2014-04-03,0.215,0.215,0.215,0.215,0,0.215
2014-04-04,0.2,0.2,0.2,0.2,10000,0.2
2014-04-07,0.2,0.2,0.2,0.2,0,0.2
2014-04-08,0.2,0.2,0.2,0.2,0,0.2
2014-04-09,0.2,0.2,0.2,0.2,0,0.2
2014-04-10,0.2,0.2,0.2,0.2,0,0.2
2014-04-11,0.2,0.2,0.2,0.2,0,0.2
2014-04-14,0.2,0.2,0.2,0.2,27500,0.2
2014-04-15,0.2,0.2,0.2,0.2,0,0.2
2014-04-16,0.2,0.2,0.2,0.2,0,0.2
2014-04-17,0.2,0.22,0.195,0.2,55100,0.2
2014-04-18,0.2,0.2,0.2,0.2,0,0.2
2014-04-21,0.2,0.2,0.2,0.2,0,0.2
2014-04-22,0.21,0.21,0.2,0.2,22500,0.2
2014-04-23,0.2,0.22,0.2,0.22,120000,0.22
2014-04-24,0.22,0.22,0.22,0.22,10000,0.22
2014-04-25,0.22,0.22,0.22,0.22,0,0.22
2014-04-28,0.22,0.22,0.22,0.22,0,0.22
2014-04-29,0.22,0.22,0.22,0.22,9000,0.22
2014-04-30,0.22,0.22,0.22,0.22,0,0.22
2014-05-01,0.22,0.22,0.22,0.22,0,0.22
2014-05-02,0.22,0.22,0.22,0.22,25000,0.22
2014-05-05,0.22,0.22,0.22,0.22,0,0.22
2014-05-06,0.2,0.2,0.2,0.2,50000,0.2
2014-05-07,0.2,0.2,0.19,0.2,57500,0.2
2014-05-08,0.205,0.225,0.205,0.225,10000,0.225
2014-05-09,0.2,0.2,0.2,0.2,35000,0.2
2014-05-12,0.2,0.2,0.2,0.2,69400,0.2
2014-05-13,0.2,0.2,0.2,0.2,0,0.2
2014-05-14,0.205,0.205,0.205,0.205,60000,0.205
2014-05-15,0.205,0.28,0.205,0.25,715600,0.25
2014-05-16,0.25,0.265,0.25,0.26,263900,0.26
2014-05-19,0.26,0.26,0.245,0.245,187400,0.245
2014-05-20,0.245,0.255,0.245,0.245,350600,0.245
2014-05-21,0.25,0.25,0.24,0.24,124900,0.24
2014-05-22,0.24,0.24,0.23,0.23,182700,0.23
2014-05-23,0.235,0.235,0.235,0.235,17100,0.235
2014-05-26,0.235,0.24,0.235,0.24,48000,0.24
2014-05-27,0.24,0.24,0.24,0.24,14100,0.24
2014-05-28,0.24,0.25,0.24,0.245,395400,0.245
2014-05-29,0.25,0.25,0.245,0.25,208200,0.25
2014-05-30,0.25,0.275,0.25,0.26,682300,0.26
2014-06-02,0.265,0.29,0.265,0.265,612000,0.265
2014-06-03,0.265,0.285,0.265,0.28,573900,0.28
2014-06-04,0.28,0.28,0.27,0.275,184300,0.275
2014-06-05,0.28,0.28,0.27,0.27,282000,0.27
2014-06-06,0.265,0.265,0.265,0.265,20000,0.265
2014-06-09,0.265,0.265,0.265,0.265,0,0.265
2014-06-10,0.27,0.27,0.255,0.255,69000,0.255
2014-06-11,0.26,0.26,0.255,0.255,81500,0.255
2014-06-12,0.255,0.27,0.255,0.26,343400,0.26
2014-06-13,0.255,0.26,0.25,0.26,181500,0.26
2014-06-16,0.255,0.255,0.255,0.255,14900,0.255
2014-06-17,0.255,0.255,0.25,0.255,29700,0.255
2014-06-18,0.245,0.245,0.245,0.245,6000,0.245
2014-06-19,0.25,0.25,0.245,0.245,96000,0.245
2014-06-20,0.245,0.25,0.245,0.245,123000,0.245
2014-06-23,0.25,0.25,0.24,0.24,197200,0.24
2014-06-24,0.24,0.245,0.24,0.245,28000,0.245
2014-06-25,0.245,0.245,0.245,0.245,29000,0.245
2014-06-26,0.245,0.245,0.235,0.245,135100,0.245
2014-06-27,0.245,0.245,0.24,0.24,67300,0.24
2014-06-30,0.235,0.235,0.225,0.225,48600,0.225
2014-07-01,0.225,0.245,0.22,0.245,129300,0.245
2014-07-02,0.235,0.235,0.22,0.22,44200,0.22
2014-07-03,0.22,0.22,0.22,0.22,0,0.22
2014-07-04,0.235,0.235,0.235,0.235,6000,0.235
2014-07-07,0.235,0.235,0.235,0.235,86300,0.235
2014-07-08,0.24,0.255,0.24,0.25,376400,0.25
2014-07-09,0.25,0.26,0.25,0.26,443500,0.26
2014-07-10,0.26,0.26,0.25,0.25,44600,0.25
2014-07-11,0.25,0.26,0.25,0.25,116000,0.25
2014-07-14,0.26,0.265,0.255,0.26,166000,0.26
2014-07-15,0.26,0.26,0.25,0.25,100000,0.25
2014-07-16,0.265,0.27,0.265,0.27,365000,0.27
2014-07-17,0.27,0.285,0.265,0.275,648100,0.275
2014-07-18,0.28,0.29,0.27,0.285,589700,0.285
2014-07-21,0.285,0.285,0.275,0.28,200500,0.28
2014-07-22,0.275,0.275,0.275,0.275,42000,0.275
2014-07-23,0.28,0.295,0.28,0.295,329500,0.295
2014-07-24,0.29,0.295,0.28,0.295,138500,0.295
2014-07-25,0.295,0.295,0.295,0.295,0,0.295
2014-07-28,0.29,0.29,0.28,0.28,89000,0.28
2014-07-29,0.285,0.29,0.285,0.29,136600,0.29
2014-07-30,0.29,0.29,0.28,0.285,43500,0.285
2014-07-31,0.28,0.28,0.275,0.275,13800,0.275
2014-08-01,0.275,0.28,0.27,0.28,61400,0.28
2014-08-04,0.28,0.285,0.28,0.28,186600,0.28
2014-08-05,0.28,0.28,0.265,0.27,135400,0.27
2014-08-06,0.27,0.27,0.27,0.27,0,0.27
2014-08-07,0.27,0.27,0.26,0.26,162000,0.26
2014-08-08,0.26,0.26,0.26,0.26,0,0.26
2014-08-11,0.265,0.265,0.265,0.265,5000,0.265
2014-08-12,0.27,0.28,0.265,0.265,193700,0.265
2014-08-13,0.275,0.275,0.275,0.275,60000,0.275
2014-08-14,0.27,0.27,0.265,0.265,85800,0.265
2014-08-15,0.265,0.285,0.265,0.28,209400,0.28
2014-08-18,0.28,0.28,0.275,0.275,62400,0.275
2014-08-19,0.275,0.285,0.275,0.285,26000,0.285
2014-08-20,0.275,0.28,0.275,0.28,39600,0.28
2014-08-21,0.28,0.28,0.28,0.28,7900,0.28
2014-08-22,0.265,0.265,0.25,0.26,415600,0.26
2014-08-25,0.26,0.285,0.255,0.285,83600,0.285
2014-08-26,0.285,0.285,0.285,0.285,0,0.285
2014-08-27,0.28,0.28,0.275,0.275,123600,0.275
2014-08-28,0.28,0.29,0.28,0.29,339200,0.29
2014-08-29,0.3,0.35,0.3,0.32,301600,0.32
2014-09-01,0.335,0.335,0.31,0.32,214900,0.32
2014-09-02,0.33,0.33,0.295,0.31,289400,0.31
2014-09-03,0.31,0.31,0.305,0.305,21000,0.305
2014-09-04,0.31,0.31,0.29,0.3,216400,0.3
2014-09-05,0.3,0.31,0.295,0.31,64200,0.31
2014-09-08,0.315,0.33,0.315,0.325,102300,0.325
2014-09-09,0.32,0.33,0.315,0.33,188500,0.33
2014-09-10,0.33,0.35,0.32,0.32,659700,0.32
2014-09-11,0.33,0.33,0.32,0.32,187600,0.32
2014-09-12,0.33,0.33,0.32,0.32,273300,0.32
2014-09-15,0.33,0.335,0.315,0.315,79000,0.315
2014-09-16,0.31,0.31,0.31,0.31,55000,0.31
2014-09-17,0.31,0.315,0.3,0.3,220200,0.3
2014-09-18,0.3,0.31,0.3,0.31,76500,0.31
2014-09-19,0.315,0.33,0.315,0.32,87500,0.32
2014-09-22,0.32,0.32,0.3,0.3,27000,0.3
2014-09-23,0.3,0.335,0.28,0.315,481900,0.315
2014-09-24,0.33,0.335,0.305,0.31,202300,0.31
2014-09-25,0.305,0.305,0.3,0.305,155700,0.305
2014-09-26,0.305,0.355,0.305,0.335,1034700,0.335
2014-09-29,0.34,0.37,0.335,0.35,367500,0.35
2014-09-30,0.35,0.375,0.35,0.37,350900,0.37
2014-10-01,0.36,0.385,0.355,0.385,437400,0.385
2014-10-02,0.37,0.38,0.365,0.375,219100,0.375
2014-10-03,0.38,0.39,0.365,0.365,489400,0.365
2014-10-06,0.385,0.385,0.365,0.365,41000,0.365
2014-10-07,0.37,0.38,0.365,0.365,224000,0.365
2014-10-08,0.365,0.38,0.345,0.38,479700,0.38
2014-10-09,0.385,0.45,0.38,0.43,635100,0.43
2014-10-10,0.435,0.435,0.395,0.4,469800,0.4
2014-10-13,0.4,0.42,0.4,0.4,66400,0.4
2014-10-14,0.41,0.42,0.405,0.42,41800,0.42
2014-10-15,0.42,0.42,0.38,0.38,666300,0.38
2014-10-16,0.38,0.38,0.38,0.38,0,0.38
2014-10-17,0.4,0.415,0.38,0.38,488000,0.38
2014-10-20,0.39,0.39,0.34,0.38,682500,0.38
2014-10-21,0.38,0.38,0.345,0.345,705400,0.345
2014-10-22,0.36,0.36,0.32,0.33,434700,0.33
2014-10-23,0.33,0.345,0.325,0.34,500200,0.34
2014-10-24,0.35,0.35,0.325,0.325,459600,0.325
2014-10-27,0.33,0.33,0.26,0.26,1826600,0.26
2014-10-28,0.285,0.3,0.265,0.285,1120100,0.285
2014-10-29,0.28,0.28,0.275,0.275,155100,0.275
2014-10-30,0.28,0.295,0.28,0.28,73500,0.28
2014-10-31,0.27,0.31,0.27,0.3,632200,0.3
2014-11-03,0.295,0.31,0.295,0.3,136500,0.3
2014-11-04,0.31,0.31,0.3,0.3,172800,0.3
2014-11-05,0.34,0.38,0.315,0.32,1363300,0.32
2014-11-06,0.325,0.33,0.31,0.33,1289500,0.33
2014-11-07,0.33,0.33,0.32,0.32,421800,0.32
2014-11-10,0.32,0.33,0.315,0.315,181000,0.315
2014-11-11,0.33,0.335,0.325,0.33,415000,0.33
2014-11-12,0.33,0.335,0.31,0.33,245400,0.33
2014-11-13,0.33,0.33,0.31,0.315,354700,0.315
2014-11-14,0.315,0.315,0.305,0.305,152000,0.305
2014-11-17,0.3,0.3,0.285,0.285,229900,0.285
2014-11-18,0.295,0.295,0.295,0.295,42800,0.295
2014-11-19,0.285,0.285,0.265,0.265,81500,0.265
2014-11-20,0.265,0.285,0.265,0.28,104700,0.28
2014-11-21,0.29,0.29,0.28,0.28,72500,0.28
2014-11-24,0.29,0.29,0.28,0.28,146000,0.28
2014-11-25,0.28,0.28,0.275,0.275,31000,0.275
2014-11-26,0.27,0.27,0.25,0.265,270000,0.265
2014-11-27,0.265,0.265,0.26,0.26,25000,0.26
2014-11-28,0.26,0.26,0.22,0.225,349200,0.225
2014-12-01,0.22,0.225,0.22,0.225,53200,0.225
2014-12-02,0.21,0.21,0.2,0.205,111800,0.205
2014-12-03,0.21,0.215,0.21,0.215,32500,0.215
2014-12-04,0.215,0.215,0.215,0.215,1500,0.215
2014-12-05,0.215,0.215,0.205,0.205,44500,0.205
2014-12-08,0.205,0.205,0.2,0.2,74200,0.2
2014-12-09,0.2,0.2,0.2,0.2,35800,0.2
2014-12-10,0.21,0.25,0.21,0.24,203000,0.24
2014-12-11,0.235,0.235,0.2,0.2,499100,0.2
2014-12-12,0.2,0.2,0.17,0.17,527600,0.17
2014-12-15,0.165,0.165,0.14,0.145,539100,0.145
2014-12-16,0.15,0.155,0.15,0.155,600200,0.155
2014-12-17,0.155,0.155,0.155,0.155,0,0.155
2014-12-18,0.185,0.195,0.18,0.195,274900,0.195
2014-12-19,0.195,0.21,0.19,0.195,247500,0.195
2014-12-22,0.2,0.2,0.18,0.19,224900,0.19
2014-12-23,0.19,0.19,0.19,0.19,0,0.19
2014-12-24,0.18,0.18,0.17,0.17,75600,0.17
2014-12-25,0.17,0.17,0.17,0.17,0,0.17
2014-12-26,0.17,0.17,0.17,0.17,0,0.17
2014-12-29,0.185,0.185,0.16,0.16,114000,0.16
2014-12-30,0.18,0.18,0.18,0.18,12500,0.18
2014-12-31,0.18,0.18,0.18,0.18,52400,0.18
2015-01-01,0.18,0.18,0.18,0.18,0,0.18
2015-01-02,0.18,0.19,0.18,0.185,531900,0.185
2015-01-05,0.19,0.195,0.175,0.185,132200,0.185
2015-01-06,0.185,0.19,0.175,0.19,609800,0.19
2015-01-07,0.185,0.185,0.18,0.18,88900,0.18
2015-01-08,0.19,0.195,0.19,0.195,111100,0.195
2015-01-09,0.195,0.2,0.195,0.2,66500,0.2
2015-01-12,0.19,0.19,0.18,0.185,115200,0.185
2015-01-13,0.185,0.185,0.17,0.175,100200,0.175
2015-01-14,0.175,0.175,0.175,0.175,0,0.175
2015-01-15,0.195,0.22,0.195,0.22,460000,0.22
2015-01-16,0.22,0.22,0.22,0.22,60200,0.22
2015-01-19,0.22,0.23,0.22,0.23,112700,0.23
2015-01-20,0.23,0.23,0.22,0.22,64000,0.22
2015-01-21,0.215,0.22,0.215,0.22,15000,0.22
2015-01-22,0.22,0.22,0.2,0.2,88400,0.2
2015-01-23,0.21,0.21,0.2,0.2,118400,0.2
2015-01-26,0.2,0.2,0.2,0.2,0,0.2
2015-01-27,0.2,0.2,0.2,0.2,0,0.2
2015-01-28,0.18,0.18,0.175,0.175,55000,0.175
2015-01-29,0.17,0.17,0.165,0.165,150700,0.165
2015-01-30,0.17,0.17,0.17,0.17,259200,0.17
2015-02-02,0.18,0.185,0.18,0.185,94200,0.185
2015-02-03,0.195,0.2,0.185,0.185,64500,0.185
2015-02-04,0.2,0.22,0.185,0.215,307600,0.215
2015-02-05,0.19,0.215,0.19,0.21,123000,0.21
2015-02-06,0.21,0.21,0.21,0.21,0,0.21
2015-02-09,0.22,0.25,0.22,0.24,96300,0.24
2015-02-10,0.235,0.24,0.23,0.23,53100,0.23
2015-02-11,0.235,0.235,0.235,0.235,12900,0.235
2015-02-12,0.23,0.23,0.23,0.23,10000,0.23
2015-02-13,0.235,0.235,0.235,0.235,40000,0.235
2015-02-16,0.235,0.235,0.235,0.235,22200,0.235
2015-02-17,0.235,0.235,0.235,0.235,0,0.235
2015-02-18,0.235,0.235,0.21,0.21,138700,0.21
2015-02-19,0.22,0.22,0.22,0.22,23000,0.22
2015-02-20,0.22,0.22,0.22,0.22,0,0.22
2015-02-23,0.22,0.22,0.22,0.22,0,0.22
2015-02-24,0.22,0.22,0.19,0.19,315400,0.19
2015-02-25,0.19,0.19,0.19,0.19,8600,0.19
2015-02-26,0.195,0.195,0.195,0.195,18000,0.195
2015-02-27,0.18,0.195,0.18,0.195,35600,0.195
2015-03-02,0.195,0.195,0.17,0.17,340000,0.17
2015-03-03,0.18,0.18,0.17,0.17,111100,0.17
2015-03-04,0.165,0.165,0.15,0.16,456100,0.16
2015-03-05,0.16,0.16,0.14,0.14,170400,0.14
2015-03-06,0.145,0.145,0.12,0.145,472600,0.145
2015-03-09,0.145,0.15,0.145,0.15,52200,0.15
2015-03-10,0.15,0.15,0.15,0.15,0,0.15
2015-03-11,0.15,0.165,0.15,0.16,192700,0.16
2015-03-12,0.16,0.16,0.145,0.15,180000,0.15
2015-03-13,0.15,0.15,0.15,0.15,0,0.15
2015-03-16,0.155,0.17,0.15,0.15,109100,0.15
2015-03-17,0.16,0.16,0.145,0.145,150000,0.145
2015-03-18,0.145,0.145,0.14,0.14,174700,0.14
2015-03-19,0.14,0.14,0.135,0.135,50200,0.135
2015-03-20,0.135,0.135,0.135,0.135,0,0.135
2015-03-23,0.14,0.14,0.14,0.14,44400,0.14
2015-03-24,0.14,0.14,0.14,0.14,31200,0.14
2015-03-25,0.145,0.155,0.145,0.155,13300,0.155
2015-03-26,0.15,0.15,0.15,0.15,20700,0.15
2015-03-27,0.14,0.15,0.14,0.145,134000,0.145
2015-03-30,0.145,0.155,0.14,0.14,189700,0.14
2015-03-31,0.15,0.15,0.15,0.15,15000,0.15
2015-04-01,0.15,0.15,0.15,0.15,0,0.15
2015-04-02,0.15,0.15,0.15,0.15,0,0.15
2015-04-03,0.15,0.15,0.15,0.15,0,0.15
2015-04-06,0.15,0.15,0.15,0.15,0,0.15
2015-04-07,0.135,0.135,0.13,0.135,122100,0.135
2015-04-08,0.13,0.135,0.125,0.13,503800,0.13
2015-04-09,0.125,0.13,0.125,0.13,39000,0.13
2015-04-10,0.125,0.13,0.125,0.13,206300,0.13
2015-04-13,0.135,0.135,0.13,0.13,75000,0.13
2015-04-14,0.14,0.145,0.14,0.145,46700,0.145
2015-04-15,0.145,0.145,0.145,0.145,10600,0.145
2015-04-16,0.13,0.135,0.13,0.135,84000,0.135
2015-04-17,0.145,0.145,0.14,0.14,107500,0.14
2015-04-20,0.145,0.15,0.145,0.145,317700,0.145
2015-04-21,0.16,0.16,0.14,0.14,400800,0.14
2015-04-22,0.16,0.16,0.155,0.155,15000,0.155
2015-04-23,0.155,0.16,0.155,0.16,100000,0.16
2015-04-24,0.16,0.165,0.155,0.155,302800,0.155
2015-04-27,0.16,0.165,0.16,0.16,146900,0.16
2015-04-28,0.17,0.22,0.17,0.195,675300,0.195
2015-04-29,0.19,0.19,0.17,0.17,408200,0.17
2015-04-30,0.17,0.17,0.16,0.16,135100,0.16
2015-05-01,0.16,0.16,0.16,0.16,14200,0.16
2015-05-04,0.16,0.17,0.16,0.16,145000,0.16
2015-05-05,0.16,0.16,0.155,0.155,213500,0.155
2015-05-06,0.16,0.16,0.16,0.16,88900,0.16
2015-05-07,0.16,0.16,0.16,0.16,41000,0.16
2015-05-08,0.16,0.16,0.16,0.16,20000,0.16
2015-05-11,0.17,0.17,0.165,0.165,13600,0.165
2015-05-12,0.165,0.165,0.165,0.165,25000,0.165
2015-05-13,0.165,0.17,0.165,0.165,51400,0.165
2015-05-14,0.165,0.165,0.165,0.165,0,0.165
2015-05-15,0.17,0.17,0.17,0.17,29600,0.17
2015-05-18,0.175,0.185,0.17,0.17,254500,0.17
2015-05-19,0.17,0.17,0.17,0.17,0,0.17
2015-05-20,0.175,0.18,0.175,0.18,48600,0.18
2015-05-21,0.19,0.2,0.185,0.19,1736800,0.19
2015-05-22,0.19,0.19,0.19,0.19,292800,0.19
2015-05-25,0.185,0.185,0.18,0.18,134100,0.18
2015-05-26,0.185,0.185,0.18,0.18,73400,0.18
2015-05-27,0.17,0.17,0.165,0.165,25300,0.165
2015-05-28,0.165,0.165,0.165,0.165,0,0.165
2015-05-29,0.18,0.18,0.18,0.18,35700,0.18
2015-06-01,0.18,0.18,0.18,0.18,0,0.18
2015-06-02,0.18,0.18,0.18,0.18,0,0.18
2015-06-03,0.18,0.18,0.18,0.18,110800,0.18
2015-06-04,0.175,0.175,0.165,0.165,65100,0.165
2015-06-05,0.165,0.165,0.165,0.165,0,0.165
2015-06-08,0.165,0.165,0.165,0.165,0,0.165
2015-06-09,0.165,0.165,0.165,0.165,45000,0.165
2015-06-10,0.16,0.165,0.155,0.165,58000,0.165
2015-06-11,0.16,0.165,0.155,0.165,144900,0.165
2015-06-12,0.16,0.16,0.16,0.16,10000,0.16
2015-06-15,0.16,0.16,0.16,0.16,46000,0.16
2015-06-16,0.16,0.16,0.16,0.16,0,0.16
2015-06-17,0.16,0.16,0.16,0.16,85000,0.16
2015-06-18,0.155,0.155,0.155,0.155,126800,0.155
2015-06-19,0.16,0.16,0.16,0.16,61800,0.16
2015-06-22,0.155,0.16,0.14,0.14,122000,0.14
2015-06-23,0.14,0.14,0.14,0.14,0,0.14
2015-06-24,0.155,0.155,0.14,0.14,41200,0.14
2015-06-25,0.14,0.14,0.14,0.14,0,0.14
2015-06-26,0.14,0.14,0.14,0.14,0,0.14
2015-06-29,0.14,0.14,0.13,0.13,336300,0.13
2015-06-30,0.13,0.14,0.13,0.14,60000,0.14
2015-07-01,0.14,0.14,0.14,0.14,1800,0.14
2015-07-02,0.14,0.14,0.14,0.14,45000,0.14
2015-07-03,0.135,0.135,0.135,0.135,9000,0.135
2015-07-06,0.135,0.135,0.135,0.135,0,0.135
2015-07-07,0.135,0.135,0.135,0.135,0,0.135
2015-07-08,0.13,0.13,0.13,0.13,3900,0.13
2015-07-09,0.135,0.135,0.13,0.13,58200,0.13
2015-07-10,0.135,0.14,0.135,0.14,215300,0.14
2015-07-13,0.14,0.14,0.14,0.14,0,0.14
2015-07-14,0.135,0.14,0.13,0.14,139100,0.14
2015-07-15,0.14,0.14,0.14,0.14,0,0.14
2015-07-16,0.125,0.125,0.125,0.125,7400,0.125
2015-07-17,0.125,0.13,0.125,0.13,56100,0.13
2015-07-20,0.125,0.125,0.125,0.125,36300,0.125
2015-07-21,0.13,0.15,0.13,0.14,256400,0.14
2015-07-22,0.14,0.14,0.13,0.13,185000,0.13
2015-07-23,0.125,0.125,0.125,0.125,125500,0.125
2015-07-24,0.125,0.125,0.12,0.12,55200,0.12
2015-07-27,0.125,0.125,0.125,0.125,12000,0.125
2015-07-28,0.135,0.135,0.13,0.13,31000,0.13
2015-07-29,0.125,0.14,0.12,0.125,133000,0.125
2015-07-30,0.13,0.13,0.13,0.13,5000,0.13
2015-07-31,0.14,0.145,0.14,0.145,170000,0.145
2015-08-03,0.145,0.145,0.145,0.145,0,0.145
2015-08-04,0.145,0.145,0.145,0.145,0,0.145
2015-08-05,0.145,0.145,0.145,0.145,75000,0.145
2015-08-06,0.145,0.145,0.145,0.145,0,0.145
2015-08-07,0.145,0.145,0.145,0.145,8400,0.145
2015-08-10,0.145,0.145,0.145,0.145,0,0.145
2015-08-11,0.13,0.13,0.125,0.125,118300,0.125
2015-08-12,0.125,0.14,0.115,0.115,225000,0.115
2015-08-13,0.115,0.13,0.115,0.13,63200,0.13
2015-08-14,0.13,0.13,0.13,0.13,0,0.13
2015-08-17,0.125,0.125,0.11,0.11,157900,0.11
2015-08-18,0.11,0.11,0.11,0.11,2700,0.11
2015-08-19,0.115,0.115,0.11,0.11,44600,0.11
2015-08-20,0.11,0.11,0.11,0.11,206300,0.11
2015-08-24,0.11,0.11,0.11,0.11,33000,0.11
2015-08-25,0.1,0.11,0.1,0.11,95200,0.11
2015-08-26,0.12,0.12,0.12,0.12,40000,0.12
2015-08-27,0.11,0.115,0.11,0.115,78900,0.115
2015-08-28,0.115,0.115,0.115,0.115,15300,0.115
2015-08-31,0.12,0.12,0.115,0.115,7000,0.115
2015-09-01,0.115,0.115,0.11,0.11,11100,0.11
2015-09-02,0.11,0.11,0.11,0.11,45000,0.11
2015-09-03,0.11,0.11,0.11,0.11,14000,0.11
2015-09-04,0.115,0.12,0.115,0.12,35000,0.12
2015-09-07,0.12,0.13,0.1,0.1,220000,0.1
2015-09-08,0.105,0.12,0.1,0.11,214000,0.11
2015-09-09,0.12,0.12,0.12,0.12,60000,0.12
2015-09-10,0.12,0.12,0.12,0.12,24300,0.12
2015-09-11,0.12,0.12,0.12,0.12,39200,0.12
2015-09-14,0.12,0.12,0.12,0.12,10000,0.12
2015-09-15,0.115,0.115,0.099,0.099,220000,0.099
2015-09-16,0.1,0.11,0.1,0.11,91000,0.11
2015-09-17,0.11,0.11,0.11,0.11,0,0.11
2015-09-18,0.1,0.1,0.1,0.1,35000,0.1
2015-09-21,0.1,0.1,0.1,0.1,0,0.1
2015-09-22,0.1,0.1,0.1,0.1,0,0.1
2015-09-23,0.1,0.1,0.1,0.1,115000,0.1
2015-09-24,0.11,0.115,0.105,0.115,376000,0.115
2015-09-25,0.115,0.125,0.115,0.12,396900,0.12
2015-09-28,0.12,0.12,0.12,0.12,0,0.12
2015-09-29,0.11,0.12,0.105,0.105,33400,0.105
2015-09-30,0.115,0.115,0.1,0.1,305400,0.1
2015-10-01,0.1,0.105,0.1,0.105,12500,0.105
2015-10-02,0.105,0.105,0.105,0.105,0,0.105
2015-10-05,0.105,0.105,0.105,0.105,0,0.105
2015-10-06,0.11,0.11,0.11,0.11,45400,0.11
2015-10-07,0.11,0.11,0.105,0.105,25500,0.105
2015-10-08,0.105,0.125,0.105,0.125,107800,0.125
2015-10-09,0.12,0.135,0.12,0.135,223800,0.135
2015-10-12,0.135,0.135,0.13,0.135,238400,0.135
2015-10-13,0.135,0.145,0.135,0.135,101900,0.135
2015-10-14,0.14,0.17,0.13,0.16,517300,0.16
2015-10-15,0.17,0.18,0.15,0.17,882500,0.17
2015-10-16,0.175,0.18,0.165,0.17,301200,0.17
2015-10-19,0.17,0.175,0.16,0.16,342200,0.16
2015-10-20,0.165,0.17,0.15,0.15,239900,0.15
2015-10-21,0.15,0.16,0.15,0.155,116600,0.155
2015-10-22,0.155,0.16,0.155,0.16,44300,0.16
2015-10-23,0.17,0.175,0.15,0.16,1037700,0.16
2015-10-26,0.16,0.16,0.16,0.16,0,0.16
2015-10-27,0.16,0.16,0.16,0.16,0,0.16
2015-10-28,0.16,0.16,0.13,0.14,1624300,0.14
2015-10-29,0.14,0.15,0.14,0.145,185700,0.145
2015-10-30,0.145,0.145,0.14,0.145,89800,0.145
2015-11-02,0.145,0.145,0.14,0.14,84000,0.14
2015-11-03,0.145,0.145,0.145,0.145,10000,0.145
2015-11-04,0.14,0.14,0.135,0.14,400000,0.14
2015-11-05,0.14,0.14,0.135,0.135,833500,0.135
2015-11-06,0.13,0.13,0.11,0.12,555700,0.12
2015-11-09,0.12,0.125,0.115,0.125,355300,0.125
2015-11-10,0.125,0.125,0.12,0.125,62600,0.125
2015-11-11,0.125,0.125,0.12,0.12,55000,0.12
2015-11-12,0.125,0.125,0.12,0.12,201100,0.12
2015-11-13,0.115,0.12,0.11,0.115,417600,0.115
2015-11-16,0.115,0.12,0.105,0.105,692000,0.105
2015-11-17,0.11,0.115,0.11,0.11,90400,0.11
2015-11-18,0.115,0.12,0.115,0.12,113800,0.12
2015-11-19,0.12,0.12,0.11,0.12,666100,0.12
2015-11-20,0.11,0.11,0.11,0.11,58200,0.11
2015-11-23,0.12,0.12,0.115,0.115,41300,0.115
2015-11-24,0.115,0.115,0.11,0.115,330300,0.115
2015-11-25,0.105,0.11,0.105,0.11,32500,0.11
2015-11-26,0.11,0.11,0.105,0.105,326000,0.105
2015-11-27,0.105,0.105,0.105,0.105,0,0.105
2015-11-30,0.1,0.1,0.092,0.095,870300,0.095
2015-12-01,0.095,0.1,0.095,0.1,37900,0.1
2015-12-02,0.1,0.1,0.1,0.1,0,0.1
2015-12-03,0.105,0.105,0.095,0.095,130200,0.095
2015-12-04,0.1,0.1,0.1,0.1,5200,0.1
2015-12-07,0.1,0.1,0.1,0.1,1000,0.1
2015-12-08,0.095,0.095,0.09,0.09,103500,0.09
2015-12-09,0.09,0.09,0.09,0.09,38000,0.09
2015-12-10,0.091,0.091,0.09,0.09,181000,0.09
2015-12-11,0.08900000000000001,0.08900000000000001,0.086,0.087,149700,0.087
2015-12-14,0.087,0.08800000000000001,0.087,0.087,100700,0.087
2015-12-15,0.087,0.087,0.087,0.087,30000,0.087
2015-12-16,0.08800000000000001,0.08800000000000001,0.08800000000000001,0.08800000000000001,10700,0.08800000000000001
2015-12-17,0.08800000000000001,0.08800000000000001,0.08800000000000001,0.08800000000000001,0,0.08800000000000001
2015-12-18,0.087,0.087,0.087,0.087,20000,0.087
2015-12-21,0.08800000000000001,0.09,0.08800000000000001,0.09,15000,0.09
2015-12-22,0.09,0.092,0.09,0.092,26300,0.092
2015-12-23,0.09,0.095,0.09,0.09300000000000001,98500,0.09300000000000001
2015-12-24,0.096,0.096,0.095,0.095,67900,0.095
2015-12-25,0.095,0.095,0.095,0.095,0,0.095
2015-12-28,0.095,0.095,0.095,0.095,0,0.095
2015-12-29,0.099,0.099,0.095,0.095,253000,0.095
2015-12-30,0.09300000000000001,0.09300000000000001,0.09300000000000001,0.09300000000000001,8400,0.09300000000000001
2015-12-31,0.09300000000000001,0.09300000000000001,0.09300000000000001,0.09300000000000001,20400,0.09300000000000001
2016-01-01,0.09300000000000001,0.09300000000000001,0.09300000000000001,0.09300000000000001,0,0.09300000000000001
2016-01-04,0.09300000000000001,0.09300000000000001,0.09300000000000001,0.09300000000000001,0,0.09300000000000001
2016-01-05,0.095,0.095,0.094,0.094,52700,0.094
2016-01-06,0.09300000000000001,0.09300000000000001,0.09,0.091,290000,0.091
2016-01-07,0.091,0.095,0.09,0.095,157700,0.095
2016-01-08,0.095,0.095,0.095,0.095,0,0.095
2016-01-11,0.09300000000000001,0.09300000000000001,0.09300000000000001,0.09300000000000001,2100,0.09300000000000001
2016-01-12,0.09,0.09,0.08800000000000001,0.08800000000000001,380100,0.08800000000000001
2016-01-13,0.092,0.092,0.092,0.092,200000,0.092
2016-01-14,0.08800000000000001,0.08800000000000001,0.085,0.085,470500,0.085
2016-01-15,0.085,0.085,0.085,0.085,33800,0.085
2016-01-18,0.085,0.085,0.084,0.085,80000,0.085
2016-01-19,0.085,0.085,0.085,0.085,0,0.085
2016-01-20,0.085,0.085,0.08,0.08,138800,0.08
2016-01-21,0.08,0.08,0.08,0.08,0,0.08
2016-01-22,0.078,0.085,0.07,0.085,232700,0.085
2016-01-25,0.085,0.085,0.085,0.085,0,0.085
2016-01-26,0.085,0.085,0.085,0.085,0,0.085
2016-01-27,0.077,0.078,0.077,0.078,65000,0.078
2016-01-28,0.08,0.08,0.08,0.08,16000,0.08
2016-01-29,0.085,0.085,0.085,0.085,126700,0.085
2016-02-01,0.086,0.086,0.085,0.085,105800,0.085
2016-02-02,0.085,0.085,0.085,0.085,4900,0.085
2016-02-03,0.085,0.085,0.085,0.085,0,0.085
2016-02-04,0.085,0.085,0.085,0.085,0,0.085
2016-02-05,0.085,0.085,0.085,0.085,0,0.085
2016-02-08,0.085,0.085,0.085,0.085,0,0.085
2016-02-09,0.077,0.077,0.077,0.077,21500,0.077
2016-02-10,0.075,0.075,0.071,0.07200000000000001,40900,0.07200000000000001
2016-02-11,0.073,0.073,0.071,0.071,109900,0.071
2016-02-12,0.07200000000000001,0.07200000000000001,0.071,0.071,157000,0.071
2016-02-15,0.071,0.075,0.07,0.075,319800,0.075
2016-02-16,0.075,0.08,0.075,0.08,291300,0.08
2016-02-17,0.08,0.08199999999999999,0.08,0.08,76900,0.08
2016-02-18,0.08,0.09,0.08,0.09,496000,0.09
2016-02-19,0.091,0.091,0.091,0.091,90000,0.091
2016-02-22,0.087,0.08900000000000001,0.087,0.08900000000000001,28700,0.08900000000000001
2016-02-23,0.09,0.09,0.09,0.09,107000,0.09
2016-02-24,0.09,0.09,0.09,0.09,0,0.09
2016-02-25,0.09,0.09,0.09,0.09,0,0.09
2016-02-26,0.09,0.095,0.09,0.091,69000,0.091
2016-02-29,0.091,0.091,0.091,0.091,0,0.091
2016-03-01,0.095,0.095,0.095,0.095,11000,0.095
2016-03-02,0.087,0.087,0.087,0.087,25000,0.087
2016-03-03,0.09,0.091,0.085,0.085,75000,0.085
2016-03-04,0.08800000000000001,0.08800000000000001,0.087,0.08800000000000001,67000,0.08800000000000001
2016-03-07,0.09,0.105,0.09,0.105,504500,0.105
2016-03-08,0.11,0.115,0.099,0.099,1205700,0.099
2016-03-09,0.099,0.105,0.099,0.1,352300,0.1
2016-03-10,0.105,0.115,0.1,0.1,737800,0.1
2016-03-11,0.105,0.115,0.09699999999999999,0.09699999999999999,1471100,0.09699999999999999
2016-03-14,0.1,0.115,0.1,0.105,316600,0.105
2016-03-15,0.1,0.1,0.098,0.1,353500,0.1
2016-03-16,0.1,0.1,0.1,0.1,134000,0.1
2016-03-17,0.105,0.115,0.105,0.105,252600,0.105
2016-03-18,0.11,0.115,0.11,0.115,138800,0.115
2016-03-21,0.11,0.11,0.1,0.105,268800,0.105
2016-03-22,0.105,0.11,0.1,0.1,84000,0.1
2016-03-23,0.1,0.1,0.1,0.1,39000,0.1
2016-03-24,0.105,0.105,0.098,0.105,159800,0.105
2016-03-25,0.105,0.105,0.105,0.105,0,0.105
2016-03-28,0.105,0.105,0.105,0.105,0,0.105
2016-03-29,0.105,0.105,0.105,0.105,103000,0.105
2016-03-30,0.105,0.105,0.105,0.105,0,0.105
2016-03-31,0.098,0.098,0.098,0.098,47300,0.098
2016-04-01,0.098,0.098,0.098,0.098,0,0.098
2016-04-04,0.1,0.105,0.1,0.105,130200,0.105
2016-04-05,0.11,0.11,0.1,0.1,640800,0.1
2016-04-06,0.1,0.1,0.1,0.1,218500,0.1
2016-04-07,0.1,0.1,0.1,0.1,160000,0.1
2016-04-08,0.1,0.105,0.1,0.105,67900,0.105
2016-04-11,0.1,0.105,0.1,0.1,117100,0.1
2016-04-12,0.1,0.1,0.09699999999999999,0.1,60300,0.1
2016-04-13,0.105,0.105,0.1,0.1,430600,0.1
2016-04-14,0.1,0.1,0.1,0.1,100000,0.1
2016-04-15,0.1,0.105,0.1,0.105,145500,0.105
2016-04-18,0.1,0.105,0.1,0.1,132500,0.1
2016-04-19,0.1,0.1,0.1,0.1,153700,0.1
2016-04-20,0.11,0.11,0.11,0.11,170000,0.11
2016-04-21,0.105,0.11,0.105,0.105,133900,0.105
2016-04-22,0.105,0.105,0.1,0.1,55000,0.1
2016-04-25,0.1,0.1,0.1,0.1,0,0.1
2016-04-26,0.105,0.105,0.1,0.1,206300,0.1
2016-04-27,0.1,0.1,0.099,0.1,116100,0.1
2016-04-28,0.1,0.105,0.099,0.099,346700,0.099
2016-04-29,0.098,0.098,0.098,0.098,3000,0.098
2016-05-02,0.098,0.098,0.098,0.098,54500,0.098
2016-05-03,0.1,0.1,0.1,0.1,2500,0.1
2016-05-04,0.1,0.1,0.1,0.1,6000,0.1
2016-05-05,0.098,0.098,0.098,0.098,30000,0.098
2016-05-06,0.098,0.1,0.098,0.1,23400,0.1
2016-05-09,0.1,0.105,0.1,0.105,203100,0.105
2016-05-10,0.105,0.105,0.098,0.098,45100,0.098
2016-05-11,0.098,0.098,0.098,0.098,0,0.098
2016-05-12,0.105,0.11,0.105,0.11,433900,0.11
2016-05-13,0.11,0.115,0.105,0.105,451900,0.105
2016-05-16,0.105,0.105,0.105,0.105,37000,0.105
2016-05-17,0.115,0.115,0.115,0.115,350000,0.115
2016-05-18,0.12,0.12,0.105,0.105,100000,0.105
2016-05-19,0.11,0.115,0.105,0.11,404900,0.11
2016-05-20,0.11,0.11,0.11,0.11,0,0.11
2016-05-23,0.125,0.125,0.115,0.12,518900,0.12
2016-05-24,0.115,0.115,0.115,0.115,73400,0.115
2016-05-25,0.115,0.12,0.115,0.12,438500,0.12
2016-05-26,0.125,0.15,0.125,0.15,689100,0.15
2016-05-27,0.155,0.155,0.125,0.125,970600,0.125
2016-05-30,0.13,0.13,0.125,0.125,126300,0.125
2016-05-31,0.13,0.14,0.13,0.13,280700,0.13
2016-06-01,0.125,0.127,0.125,0.127,49500,0.127
2016-06-02,0.13,0.14,0.125,0.14,135200,0.14
2016-06-03,0.135,0.14,0.135,0.14,15000,0.14
2016-06-06,0.13,0.145,0.13,0.145,160300,0.145
2016-06-07,0.13,0.14,0.13,0.13,262700,0.13
2016-06-08,0.14,0.147,0.14,0.14,1027700,0.14
2016-06-09,0.14,0.14,0.13,0.13,333400,0.13
2016-06-10,0.13,0.135,0.115,0.115,508600,0.115
2016-06-13,0.115,0.115,0.115,0.115,0,0.115
2016-06-14,0.12,0.12,0.12,0.12,184100,0.12
2016-06-15,0.12,0.12,0.12,0.12,35000,0.12
2016-06-16,0.12,0.12,0.12,0.12,94200,0.12
2016-06-17,0.12,0.12,0.12,0.12,0,0.12
2016-06-20,0.12,0.12,0.11,0.11,377400,0.11
2016-06-21,0.11,0.11,0.11,0.11,0,0.11
2016-06-22,0.11,0.11,0.11,0.11,0,0.11
2016-06-23,0.105,0.105,0.1,0.1,308000,0.1
2016-06-24,0.1,0.1,0.09699999999999999,0.09699999999999999,698300,0.09699999999999999
2016-06-27,0.095,0.095,0.09,0.09,199200,0.09
2016-06-28,0.08900000000000001,0.08900000000000001,0.081,0.085,468100,0.085
2016-06-29,0.08800000000000001,0.08800000000000001,0.085,0.086,414400,0.086
2016-06-30,0.086,0.087,0.085,0.085,280100,0.085
2016-07-01,0.08800000000000001,0.08800000000000001,0.08800000000000001,0.08800000000000001,13700,0.08800000000000001
2016-07-04,0.091,0.095,0.091,0.095,32300,0.095
2016-07-05,0.095,0.098,0.095,0.098,94300,0.098
2016-07-06,0.09699999999999999,0.105,0.095,0.105,81000,0.105
2016-07-07,0.1,0.1,0.1,0.1,25000,0.1
2016-07-08,0.094,0.094,0.09300000000000001,0.09300000000000001,17500,0.09300000000000001
2016-07-11,0.09300000000000001,0.09300000000000001,0.083,0.09,315000,0.09
2016-07-12,0.09,0.09,0.09,0.09,25000,0.09
2016-07-13,0.095,0.1,0.095,0.1,50300,0.1
2016-07-14,0.1,0.1,0.1,0.1,19500,0.1
2016-07-15,0.09,0.09,0.086,0.086,20000,0.086
2016-07-18,0.086,0.086,0.086,0.086,0,0.086
2016-07-19,0.086,0.086,0.086,0.086,0,0.086
2016-07-20,0.08900000000000001,0.08900000000000001,0.08900000000000001,0.08900000000000001,20000,0.08900000000000001
2016-07-21,0.08900000000000001,0.08900000000000001,0.08900000000000001,0.08900000000000001,0,0.08900000000000001
2016-07-22,0.08900000000000001,0.08900000000000001,0.08800000000000001,0.08800000000000001,74400,0.08800000000000001
2016-07-25,0.08900000000000001,0.09,0.08900000000000001,0.09,206000,0.09
2016-07-26,0.09,0.09,0.09,0.09,0,0.09
2016-07-27,0.095,0.095,0.095,0.095,12000,0.095
2016-07-28,0.095,0.096,0.091,0.091,102700,0.091
2016-07-29,0.091,0.091,0.091,0.091,0,0.091
2016-08-01,0.095,0.12,0.095,0.12,161500,0.12
2016-08-02,0.11,0.11,0.1,0.1,115000,0.1
2016-08-03,0.1,0.1,0.1,0.1,208500,0.1
2016-08-04,0.1,0.1,0.1,0.1,0,0.1
2016-08-05,0.1,0.1,0.1,0.1,10000,0.1
2016-08-08,0.11,0.12,0.11,0.115,388600,0.115
2016-08-09,0.115,0.115,0.115,0.115,0,0.115
2016-08-10,0.11,0.11,0.11,0.11,2200,0.11
2016-08-11,0.11,0.11,0.11,0.11,15000,0.11
2016-08-12,0.115,0.115,0.11,0.11,211600,0.11
2016-08-15,0.11,0.11,0.11,0.11,0,0.11
2016-08-16,0.1,0.1,0.1,0.1,180200,0.1
2016-08-17,0.105,0.105,0.105,0.105,200000,0.105
2016-08-18,0.11,0.11,0.105,0.105,186600,0.105
2016-08-19,0.105,0.105,0.105,0.105,0,0.105
2016-08-22,0.105,0.105,0.105,0.105,50000,0.105
2016-08-23,0.1,0.1,0.1,0.1,130900,0.1
2016-08-24,0.1,0.1,0.1,0.1,0,0.1
2016-08-25,0.105,0.105,0.1,0.1,356400,0.1
2016-08-26,0.1,0.1,0.1,0.1,0,0.1
2016-08-29,0.105,0.105,0.105,0.105,2500,0.105
2016-08-30,0.105,0.11,0.105,0.105,144800,0.105
2016-08-31,0.105,0.105,0.105,0.105,16000,0.105
2016-09-01,0.105,0.105,0.105,0.105,101300,0.105
2016-09-02,0.1,0.1,0.095,0.1,196200,0.1
2016-09-05,0.1,0.1,0.1,0.1,24200,0.1
2016-09-06,0.1,0.1,0.1,0.1,0,0.1
2016-09-07,0.1,0.105,0.1,0.105,39100,0.105
2016-09-08,0.099,0.099,0.099,0.099,30000,0.099
2016-09-09,0.09699999999999999,0.09699999999999999,0.09699999999999999,0.09699999999999999,120000,0.09699999999999999
2016-09-12,0.095,0.098,0.095,0.098,56900,0.098
2016-09-13,0.1,0.1,0.09,0.091,384700,0.091
2016-09-14,0.091,0.095,0.091,0.091,23500,0.091
2016-09-15,0.091,0.091,0.091,0.091,0,0.091
2016-09-16,0.091,0.091,0.091,0.091,0,0.091
2016-09-19,0.091,0.091,0.091,0.091,75000,0.091
2016-09-20,0.091,0.092,0.091,0.092,75000,0.092
2016-09-21,0.091,0.091,0.085,0.091,345100,0.091
2016-09-22,0.091,0.091,0.091,0.091,23000,0.091
2016-09-23,0.091,0.091,0.091,0.091,0,0.091
2016-09-26,0.087,0.087,0.079,0.079,305000,0.079
2016-09-27,0.079,0.08,0.075,0.077,367200,0.077
2016-09-28,0.081,0.081,0.08,0.08,41200,0.08
2016-09-29,0.08,0.08199999999999999,0.08,0.08199999999999999,308000,0.08199999999999999
2016-09-30,0.086,0.087,0.085,0.087,260200,0.087
2016-10-03,0.09,0.091,0.087,0.087,108600,0.087
2016-10-04,0.087,0.087,0.087,0.087,0,0.087
2016-10-05,0.081,0.081,0.081,0.081,60900,0.081
2016-10-06,0.081,0.081,0.081,0.081,0,0.081
2016-10-07,0.083,0.083,0.077,0.077,246900,0.077
2016-10-10,0.076,0.078,0.076,0.078,117000,0.078
2016-10-11,0.081,0.081,0.081,0.081,89800,0.081
2016-10-12,0.081,0.081,0.081,0.081,0,0.081
2016-10-13,0.081,0.081,0.081,0.081,45000,0.081
2016-10-14,0.081,0.084,0.08,0.08,102000,0.08
2016-10-17,0.08,0.08,0.08,0.08,0,0.08
2016-10-18,0.081,0.081,0.081,0.081,40000,0.081
2016-10-19,0.081,0.081,0.08,0.08,35000,0.08
2016-10-20,0.08,0.08,0.08,0.08,0,0.08
2016-10-21,0.084,0.084,0.08,0.08,1900,0.08
2016-10-24,0.08,0.081,0.08,0.081,235000,0.081
2016-10-25,0.081,0.081,0.078,0.078,228200,0.078
2016-10-26,0.078,0.078,0.077,0.077,159500,0.077
2016-10-27,0.08,0.08,0.08,0.08,73200,0.08
2016-10-28,0.081,0.08199999999999999,0.079,0.08199999999999999,60000,0.08199999999999999
2016-10-31,0.09,0.095,0.09,0.095,607700,0.095
2016-11-01,0.095,0.095,0.095,0.095,0,0.095
2016-11-02,0.086,0.086,0.076,0.076,486400,0.076
2016-11-03,0.076,0.076,0.076,0.076,0,0.076
2016-11-04,0.079,0.079,0.079,0.079,100000,0.079
2016-11-07,0.079,0.079,0.079,0.079,0,0.079
2016-11-08,0.079,0.079,0.079,0.079,0,0.079
2016-11-09,0.079,0.079,0.079,0.079,0,0.079
2016-11-10,0.078,0.078,0.076,0.076,260000,0.076
2016-11-11,0.076,0.076,0.076,0.076,0,0.076
2016-11-14,0.076,0.076,0.076,0.076,41500,0.076
2016-11-15,0.076,0.076,0.076,0.076,0,0.076
2016-11-16,0.08,0.08,0.078,0.078,12800,0.078
2016-11-17,0.08,0.08,0.08,0.08,20000,0.08
2016-11-18,0.077,0.08,0.077,0.08,18700,0.08
2016-11-21,0.076,0.076,0.076,0.076,10000,0.076
2016-11-22,0.08,0.08,0.08,0.08,29500,0.08
2016-11-23,0.08,0.08,0.08,0.08,5000,0.08
2016-11-24,0.08,0.08,0.08,0.08,43200,0.08
2016-11-25,0.076,0.076,0.076,0.076,112000,0.076
2016-11-28,0.076,0.076,0.076,0.076,0,0.076
2016-11-29,0.076,0.076,0.076,0.076,0,0.076
2016-11-30,0.08,0.08,0.08,0.08,154000,0.08
2016-12-01,0.08,0.08,0.08,0.08,0,0.08
2016-12-02,0.077,0.077,0.076,0.076,111400,0.076
2016-12-05,0.076,0.076,0.076,0.076,0,0.076
2016-12-06,0.076,0.076,0.076,0.076,0,0.076
2016-12-07,0.076,0.076,0.076,0.076,146200,0.076
2016-12-08,0.076,0.076,0.076,0.076,0,0.076
2016-12-09,0.076,0.076,0.07,0.07,153400,0.07
2016-12-12,0.075,0.075,0.07200000000000001,0.07200000000000001,157500,0.07200000000000001
2016-12-13,0.07200000000000001,0.07200000000000001,0.07200000000000001,0.07200000000000001,0,0.07200000000000001
2016-12-14,0.07200000000000001,0.07200000000000001,0.07200000000000001,0.07200000000000001,0,0.07200000000000001
2016-12-15,0.07200000000000001,0.07200000000000001,0.07200000000000001,0.07200000000000001,0,0.07200000000000001
2016-12-16,0.07200000000000001,0.07200000000000001,0.07200000000000001,0.07200000000000001,0,0.07200000000000001
2016-12-19,0.078,0.078,0.078,0.078,22500,0.078
2016-12-20,0.078,0.078,0.078,0.078,0,0.078
2016-12-21,0.073,0.073,0.07200000000000001,0.07200000000000001,177800,0.07200000000000001
2016-12-22,0.07,0.07,0.07,0.07,40000,0.07
2016-12-23,0.07,0.07,0.07,0.07,0,0.07
2016-12-26,0.07,0.07,0.07,0.07,0,0.07
2016-12-27,0.07,0.07,0.07,0.07,0,0.07
2016-12-28,0.067,0.067,0.065,0.067,120000,0.067
2016-12-29,0.07,0.07200000000000001,0.07,0.071,64000,0.071
2016-12-30,0.071,0.07200000000000001,0.07,0.07200000000000001,22100,0.07200000000000001
