Date,Open,High,Low,Close,Volume,Adj Close
2010-12-23,1.145,1.25,1.12,1.25,1168200,1.25
2010-12-24,1.24,1.25,1.22,1.25,6448800,1.25
2010-12-29,1.25,1.25,1.2,1.2,35900,1.2
2010-12-30,1.24,1.25,1.23,1.24,60500,1.24
2010-12-31,1.24,1.25,1.24,1.24,116800,1.24
2011-01-04,1.24,1.24,1.21,1.24,24900,1.24
2011-01-05,1.24,1.24,1.22,1.22,19700,1.22
2011-01-06,1.22,1.22,1.2,1.2,618100,1.2
2011-01-07,1.19,1.19,1.17,1.18,411600,1.18
2011-01-10,1.15,1.17,1.13,1.15,212600,1.15
2011-01-11,1.2,1.2,1.17,1.19,75700,1.19
2011-01-12,1.175,1.19,1.175,1.185,196100,1.185
2011-01-13,1.15,1.21,1.125,1.21,73000,1.21
2011-01-17,1.18,1.2,1.18,1.2,116900,1.2
2011-01-18,1.2,1.3,1.2,1.27,697500,1.27
2011-01-19,1.29,1.29,1.26,1.27,110700,1.27
2011-01-20,1.27,1.275,1.26,1.275,261400,1.275
2011-01-21,1.27,1.29,1.27,1.29,115100,1.29
2011-01-24,1.29,1.3,1.29,1.3,88200,1.3
2011-01-25,1.3,1.32,1.28,1.32,166200,1.32
2011-01-27,1.3,1.32,1.26,1.32,124900,1.32
2011-01-28,1.31,1.31,1.28,1.29,62600,1.29
2011-01-31,1.26,1.29,1.255,1.27,58900,1.27
2011-02-01,1.27,1.3,1.27,1.3,62100,1.3
2011-02-02,1.29,1.3,1.29,1.29,123700,1.29
2011-02-03,1.29,1.29,1.27,1.27,156400,1.27
2011-02-04,1.27,1.285,1.27,1.285,42200,1.285
2011-02-07,1.29,1.29,1.27,1.29,42000,1.29
2011-02-08,1.29,1.29,1.27,1.29,18300,1.29
2011-02-09,1.28,1.285,1.265,1.27,98200,1.27
2011-02-10,1.27,1.27,1.26,1.27,73800,1.27
2011-02-11,1.26,1.29,1.25,1.29,360500,1.29
2011-02-14,1.29,1.29,1.285,1.29,211800,1.29
2011-02-15,1.29,1.3,1.29,1.3,307600,1.3
2011-02-16,1.3,1.32,1.28,1.3,355400,1.3
2011-02-17,1.3,1.32,1.3,1.3,326000,1.3
2011-02-18,1.3,1.35,1.3,1.35,441800,1.35
2011-02-21,1.35,1.35,1.32,1.35,188500,1.35
2011-02-22,1.35,1.38,1.32,1.35,273800,1.35
2011-02-23,1.36,1.36,1.325,1.35,90200,1.35
2011-02-24,1.35,1.35,1.35,1.35,14200,1.35
2011-02-25,1.35,1.35,1.35,1.35,411400,1.35
2011-02-28,1.38,1.38,1.365,1.365,37700,1.365
2011-03-01,1.38,1.38,1.36,1.36,248600,1.36
2011-03-02,1.35,1.35,1.33,1.35,98500,1.35
2011-03-03,1.38,1.38,1.37,1.37,32300,1.37
2011-03-04,1.37,1.38,1.37,1.37,126500,1.37
2011-03-07,1.37,1.38,1.35,1.36,282600,1.36
2011-03-08,1.35,1.36,1.34,1.35,218500,1.35
2011-03-09,1.34,1.35,1.31,1.335,242700,1.335
2011-03-10,1.315,1.34,1.3,1.34,136000,1.34
2011-03-11,1.305,1.34,1.28,1.34,103900,1.34
2011-03-14,1.35,1.38,1.3,1.38,43300,1.38
2011-03-15,1.35,1.38,1.3,1.38,283300,1.38
2011-03-17,1.31,1.38,1.31,1.37,71300,1.37
2011-03-18,1.345,1.38,1.345,1.38,73900,1.38
2011-03-21,1.37,1.37,1.37,1.37,2500,1.37
2011-03-22,1.345,1.38,1.345,1.38,81300,1.38
2011-03-23,1.31,1.37,1.31,1.37,111600,1.37
2011-03-25,1.32,1.38,1.32,1.38,24900,1.38
2011-03-28,1.32,1.34,1.32,1.34,91500,1.34
2011-03-29,1.34,1.38,1.34,1.38,120200,1.38
2011-03-30,1.35,1.355,1.35,1.35,59000,1.35
2011-03-31,1.31,1.35,1.31,1.35,580700,1.35
2011-04-01,1.3,1.35,1.3,1.35,504500,1.35
2011-04-04,1.32,1.35,1.31,1.35,86000,1.35
2011-04-05,1.31,1.35,1.31,1.35,45500,1.35
2011-04-06,1.3,1.3,1.3,1.3,313900,1.3
2011-04-07,1.3,1.3,1.3,1.3,175000,1.3
2011-04-08,1.3,1.3,1.3,1.3,800,1.3
2011-04-12,1.26,1.3,1.26,1.3,168900,1.3
2011-04-14,1.25,1.3,1.25,1.3,184300,1.3
2011-04-15,1.3,1.3,1.3,1.3,5000,1.3
2011-04-18,1.28,1.3,1.25,1.3,82400,1.3
2011-04-19,1.3,1.3,1.3,1.3,23500,1.3
2011-04-20,1.37,1.37,1.3,1.3,9900,1.3
2011-04-21,1.29,1.3,1.29,1.3,60900,1.3
2011-04-28,1.28,1.32,1.28,1.31,414000,1.31
2011-04-29,1.29,1.3,1.29,1.3,350000,1.3
2011-05-02,1.27,1.3,1.235,1.3,170400,1.3
2011-05-03,1.29,1.3,1.28,1.3,1356100,1.3
2011-05-05,1.27,1.3,1.27,1.3,159800,1.3
2011-05-06,1.28,1.28,1.26,1.28,53000,1.28
2011-05-09,1.26,1.28,1.24,1.28,139500,1.28
2011-05-11,1.265,1.28,1.25,1.28,102200,1.28
2011-05-12,1.26,1.27,1.235,1.27,150500,1.27
2011-05-13,1.235,1.265,1.22,1.25,159400,1.25
2011-05-16,1.22,1.22,1.2,1.2,66500,1.2
2011-05-17,1.2,1.2,1.15,1.15,36700,1.15
2011-05-18,1.11,1.12,1.1,1.1,131500,1.1
2011-05-23,1.05,1.05,1.02,1.05,1090100,1.05
2011-05-24,1.05,1.1,1.03,1.1,922900,1.1
2011-05-25,1.1,1.145,1.1,1.105,272600,1.105
2011-05-26,1.11,1.14,1.105,1.11,216200,1.11
2011-05-27,1.12,1.13,1.115,1.115,82800,1.115
2011-05-30,1.115,1.115,1.1,1.1,65000,1.1
2011-05-31,1.1,1.105,1.09,1.1,144700,1.1
2011-06-01,1.095,1.1,1.095,1.1,206100,1.1
2011-06-02,1.1,1.1,1.09,1.1,181100,1.1
2011-06-03,1.1,1.1,1.09,1.09,61800,1.09
2011-06-06,1.09,1.095,1.06,1.07,166900,1.07
2011-06-07,1.06,1.07,1.06,1.07,124400,1.07
2011-06-09,1.04,1.07,1.03,1.07,81600,1.07
2011-06-10,1.01,1.085,1.01,1.085,246100,1.085
2011-06-14,1.085,1.085,1.04,1.04,128100,1.04
2011-06-15,1.04,1.04,1.0,1.0,94300,1.0
2011-06-16,0.955,0.955,0.88,0.88,146200,0.88
2011-06-17,0.9,0.99,0.9,0.96,87800,0.96
2011-06-20,0.97,0.995,0.97,0.98,21500,0.98
2011-06-21,1.0,1.05,1.0,1.045,34000,1.045
2011-06-22,1.05,1.05,1.045,1.05,25000,1.05
2011-06-23,1.05,1.05,1.045,1.05,34900,1.05
2011-06-27,1.0,1.0,1.0,1.0,1000,1.0
2011-06-28,0.985,1.025,0.985,1.02,40900,1.02
2011-06-29,1.0,1.0,1.0,1.0,75400,1.0
2011-06-30,1.0,1.0,0.96,1.0,73400,1.0
2011-07-04,1.0,1.0,1.0,1.0,5000,1.0
2011-07-05,0.98,1.0,0.97,0.97,38900,0.97
2011-07-07,0.97,0.97,0.95,0.95,46300,0.95
2011-07-11,0.95,0.95,0.93,0.93,1800,0.93
2011-07-12,0.93,0.93,0.93,0.93,5000,0.93
2011-07-14,0.92,0.92,0.85,0.875,313500,0.875
2011-07-15,0.875,0.875,0.86,0.87,62800,0.87
2011-07-19,0.895,0.895,0.89,0.89,10000,0.89
2011-07-21,0.905,0.92,0.9,0.9,30000,0.9
2011-07-22,0.89,0.89,0.8,0.88,423700,0.88
2011-07-25,0.86,0.86,0.85,0.855,65900,0.855
2011-07-26,0.85,0.85,0.75,0.78,204400,0.78
2011-07-27,0.77,0.8,0.755,0.795,119700,0.795
2011-07-28,0.79,0.79,0.78,0.78,166000,0.78
2011-07-29,0.78,0.78,0.76,0.78,123800,0.78
2011-08-01,0.76,0.76,0.76,0.76,12000,0.76
2011-08-02,0.73,0.75,0.73,0.75,96100,0.75
2011-08-03,0.75,0.75,0.73,0.73,25000,0.73
2011-08-04,0.75,0.75,0.73,0.73,136600,0.73
2011-08-05,0.73,0.73,0.73,0.73,1900,0.73
2011-08-08,0.7,0.71,0.7,0.7,7700,0.7
2011-08-09,0.68,0.68,0.68,0.68,74900,0.68
2011-08-10,0.7,0.7,0.7,0.7,55000,0.7
2011-08-12,0.71,0.72,0.71,0.72,50700,0.72
2011-08-15,0.69,0.69,0.68,0.68,2000,0.68
2011-08-16,0.695,0.695,0.675,0.675,19700,0.675
2011-08-17,0.65,0.675,0.65,0.675,40000,0.675
2011-08-18,0.65,0.65,0.6,0.615,67900,0.615
2011-08-19,0.575,0.6,0.57,0.6,70000,0.6
2011-08-22,0.6,0.605,0.6,0.6,266200,0.6
2011-08-23,0.6,0.6,0.59,0.6,79900,0.6
2011-08-24,0.59,0.6,0.59,0.6,266500,0.6
2011-08-25,0.59,0.59,0.59,0.59,0,0.59
2011-08-29,0.6,0.605,0.58,0.6,416800,0.6
2011-08-30,0.6,0.63,0.6,0.63,280500,0.63
2011-08-31,0.63,0.69,0.63,0.69,225300,0.69
2011-09-01,0.68,0.83,0.68,0.805,371000,0.805
2011-09-02,0.785,0.785,0.735,0.77,150500,0.77
2011-09-05,0.75,0.75,0.71,0.73,95400,0.73
2011-09-06,0.715,0.715,0.7,0.7,31000,0.7
2011-09-07,0.71,0.785,0.71,0.785,49400,0.785
2011-09-08,0.78,0.78,0.755,0.77,14200,0.77
2011-09-09,0.78,0.78,0.775,0.775,8200,0.775
2011-09-12,0.75,0.75,0.72,0.75,15200,0.75
2011-09-13,0.73,0.73,0.72,0.72,22900,0.72
2011-09-14,0.72,0.72,0.71,0.71,23900,0.71
2011-09-15,0.71,0.725,0.7,0.72,45000,0.72
2011-09-16,0.72,0.72,0.72,0.72,2100,0.72
2011-09-19,0.7,0.7,0.69,0.69,35000,0.69
2011-09-20,0.69,0.69,0.67,0.67,51900,0.67
2011-09-23,0.65,0.65,0.65,0.65,16000,0.65
2011-09-26,0.615,0.62,0.615,0.62,18000,0.62
2011-09-27,0.615,0.615,0.61,0.61,47500,0.61
2011-09-28,0.61,0.62,0.605,0.605,322500,0.605
2011-09-29,0.6,0.6,0.6,0.6,40000,0.6
2011-09-30,0.6,0.6,0.6,0.6,10000,0.6
2011-10-03,0.62,0.62,0.62,0.62,2000,0.62
2011-10-06,0.6,0.6,0.6,0.6,16200,0.6
2011-10-07,0.605,0.62,0.56,0.61,442200,0.61
2011-10-11,0.6,0.62,0.6,0.62,35000,0.62
2011-10-12,0.61,0.61,0.61,0.61,15000,0.61
2011-10-13,0.6,0.6,0.58,0.58,31400,0.58
2011-10-14,0.58,0.61,0.58,0.58,323100,0.58
2011-10-17,0.58,0.6,0.58,0.6,667000,0.6
2011-10-19,0.59,0.59,0.59,0.59,1700,0.59
2011-10-20,0.58,0.6,0.58,0.6,66900,0.6
2011-10-21,0.6,0.6,0.6,0.6,5000,0.6
2011-10-24,0.6,0.6,0.59,0.59,58300,0.59
2011-10-25,0.6,0.65,0.6,0.62,351700,0.62
2011-10-26,0.62,0.62,0.6,0.62,172800,0.62
2011-10-27,0.61,0.61,0.59,0.59,312700,0.59
2011-10-28,0.575,0.58,0.575,0.58,41400,0.58
2011-10-31,0.585,0.59,0.58,0.58,104300,0.58
2011-11-01,0.6,0.6,0.58,0.58,68300,0.58
2011-11-02,0.585,0.585,0.585,0.585,23000,0.585
2011-11-03,0.585,0.585,0.58,0.58,165900,0.58
2011-11-04,0.59,0.6,0.59,0.6,552400,0.6
2011-11-07,0.6,0.6,0.59,0.6,173500,0.6
2011-11-08,0.6,0.6,0.59,0.6,284000,0.6
2011-11-09,0.61,0.61,0.6,0.6,135700,0.6
2011-11-10,0.61,0.61,0.6,0.6,120000,0.6
2011-11-11,0.6,0.61,0.6,0.6,828900,0.6
2011-11-14,0.6,0.6,0.6,0.6,20000,0.6
2011-11-15,0.6,0.6,0.59,0.6,5500,0.6
2011-11-16,0.6,0.6,0.59,0.59,27000,0.59
2011-11-17,0.59,0.59,0.59,0.59,0,0.59
2011-11-18,0.585,0.585,0.585,0.585,5000,0.585
2011-11-21,0.585,0.585,0.585,0.585,0,0.585
2011-11-22,0.59,0.59,0.59,0.59,5600,0.59
2011-11-23,0.59,0.59,0.58,0.58,16000,0.58
2011-11-24,0.59,0.59,0.58,0.58,24300,0.58
2011-11-25,0.58,0.58,0.58,0.58,0,0.58
2011-11-28,0.58,0.58,0.58,0.58,0,0.58
2011-11-29,0.6,0.6,0.55,0.565,130200,0.565
2011-11-30,0.55,0.6,0.5,0.6,49700,0.6
2011-12-01,0.58,0.61,0.58,0.61,73200,0.61
2011-12-02,0.61,0.61,0.61,0.61,0,0.61
2011-12-05,0.6,0.6,0.56,0.6,153000,0.6
2011-12-06,0.6,0.6,0.6,0.6,700,0.6
2011-12-07,0.6,0.6,0.59,0.59,6700,0.59
2011-12-08,0.595,0.595,0.59,0.59,25000,0.59
2011-12-09,0.59,0.59,0.565,0.565,4700,0.565
2011-12-12,0.575,0.58,0.575,0.58,59400,0.58
2011-12-13,0.575,0.575,0.565,0.565,42100,0.565
2011-12-14,0.565,0.58,0.565,0.58,24300,0.58
2011-12-15,0.57,0.57,0.57,0.57,1000,0.57
2011-12-16,0.57,0.57,0.565,0.565,44500,0.565
2011-12-19,0.565,0.57,0.565,0.57,14000,0.57
2011-12-20,0.57,0.57,0.57,0.57,8600,0.57
2011-12-21,0.585,0.585,0.58,0.58,17500,0.58
2011-12-22,0.59,0.6,0.59,0.6,52600,0.6
2011-12-23,0.59,0.61,0.59,0.61,140000,0.61
2011-12-26,0.6,0.6,0.6,0.6,0,0.6
2011-12-27,0.6,0.6,0.6,0.6,0,0.6
2011-12-28,0.61,0.61,0.59,0.59,4800,0.59
2011-12-29,0.585,0.59,0.585,0.585,57700,0.585
2011-12-30,0.585,0.62,0.58,0.62,136300,0.62
2012-01-02,0.62,0.62,0.62,0.62,0,0.62
2012-01-03,0.62,0.62,0.62,0.62,0,0.62
2012-01-04,0.62,0.62,0.62,0.62,0,0.62
2012-01-05,0.58,0.58,0.58,0.58,5000,0.58
2012-01-06,0.6,0.6,0.6,0.6,8000,0.6
2012-01-09,0.6,0.6,0.6,0.6,0,0.6
2012-01-10,0.565,0.58,0.565,0.58,57000,0.58
2012-01-11,0.6,0.62,0.58,0.59,303000,0.59
2012-01-12,0.59,0.59,0.59,0.59,0,0.59
2012-01-13,0.59,0.59,0.58,0.58,318000,0.58
2012-01-16,0.575,0.58,0.57,0.57,55600,0.57
2012-01-17,0.57,0.58,0.565,0.58,59400,0.58
2012-01-18,0.58,0.58,0.58,0.58,0,0.58
2012-01-19,0.58,0.58,0.58,0.58,0,0.58
2012-01-20,0.58,0.58,0.58,0.58,0,0.58
2012-01-23,0.575,0.575,0.575,0.575,91000,0.575
2012-01-24,0.575,0.575,0.575,0.575,0,0.575
2012-01-25,0.575,0.575,0.575,0.575,0,0.575
2012-01-26,0.575,0.575,0.575,0.575,0,0.575
2012-01-27,0.575,0.575,0.575,0.575,0,0.575
2012-01-30,0.56,0.56,0.555,0.555,65700,0.555
2012-01-31,0.555,0.56,0.55,0.55,76100,0.55
2012-02-01,0.55,0.55,0.55,0.55,53600,0.55
2012-02-02,0.55,0.55,0.55,0.55,0,0.55
2012-02-03,0.54,0.54,0.54,0.54,18600,0.54
2012-02-06,0.55,0.56,0.55,0.56,77000,0.56
2012-02-07,0.54,0.545,0.535,0.545,6700,0.545
2012-02-08,0.535,0.545,0.535,0.545,8600,0.545
2012-02-09,0.54,0.54,0.54,0.54,10000,0.54
2012-02-10,0.54,0.54,0.54,0.54,40000,0.54
2012-02-13,0.53,0.535,0.53,0.535,12200,0.535
2012-02-14,0.535,0.535,0.535,0.535,0,0.535
2012-02-15,0.535,0.535,0.535,0.535,0,0.535
2012-02-16,0.53,0.53,0.525,0.525,32100,0.525
2012-02-17,0.545,0.55,0.525,0.525,153000,0.525
2012-02-20,0.53,0.53,0.525,0.525,65000,0.525
2012-02-21,0.525,0.55,0.525,0.525,32500,0.525
2012-02-22,0.53,0.55,0.525,0.525,123000,0.525
2012-02-23,0.525,0.525,0.525,0.525,0,0.525
2012-02-24,0.545,0.545,0.545,0.545,2000,0.545
2012-02-27,0.525,0.53,0.52,0.53,24500,0.53
2012-02-28,0.52,0.525,0.51,0.525,49100,0.525
2012-02-29,0.525,0.545,0.525,0.545,75200,0.545
2012-03-01,0.53,0.53,0.52,0.52,3500,0.52
2012-03-02,0.52,0.52,0.52,0.52,0,0.52
2012-03-05,0.515,0.515,0.515,0.515,8600,0.515
2012-03-06,0.52,0.52,0.515,0.515,44200,0.515
2012-03-07,0.53,0.53,0.52,0.52,42000,0.52
2012-03-08,0.515,0.535,0.515,0.535,168800,0.535
2012-03-09,0.53,0.55,0.53,0.55,391800,0.55
2012-03-12,0.54,0.54,0.525,0.525,20500,0.525
2012-03-13,0.52,0.52,0.515,0.52,30000,0.52
2012-03-14,0.52,0.52,0.52,0.52,8700,0.52
2012-03-15,0.52,0.535,0.52,0.535,30800,0.535
2012-03-16,0.54,0.57,0.54,0.57,919700,0.57
2012-03-19,0.56,0.67,0.56,0.665,1007600,0.665
2012-03-20,0.65,0.65,0.635,0.64,214800,0.64
2012-03-21,0.64,0.64,0.62,0.635,417400,0.635
2012-03-22,0.635,0.635,0.62,0.62,12230900,0.62
2012-03-23,0.61,0.61,0.58,0.61,223900,0.61
2012-03-26,0.58,0.61,0.58,0.61,10000,0.61
2012-03-27,0.6,0.6,0.6,0.6,2500,0.6
2012-03-28,0.605,0.65,0.605,0.62,475700,0.62
2012-03-29,0.6,0.72,0.6,0.705,1558700,0.705
2012-03-30,0.68,0.735,0.68,0.69,1191000,0.69
2012-04-02,0.69,0.7,0.67,0.7,210600,0.7
2012-04-03,0.69,0.7,0.67,0.68,276200,0.68
2012-04-04,0.685,0.69,0.67,0.69,121500,0.69
2012-04-05,0.68,0.68,0.66,0.68,181600,0.68
2012-04-06,0.68,0.68,0.68,0.68,0,0.68
2012-04-09,0.68,0.68,0.68,0.68,0,0.68
2012-04-10,0.68,0.69,0.68,0.69,161600,0.69
2012-04-11,0.68,0.7,0.67,0.69,187100,0.69
2012-04-12,0.68,0.69,0.67,0.69,88700,0.69
2012-04-13,0.685,0.685,0.68,0.685,50400,0.685
2012-04-16,0.67,0.7,0.66,0.7,297300,0.7
2012-04-17,0.68,0.68,0.67,0.675,112800,0.675
2012-04-18,0.68,0.68,0.675,0.68,30400,0.68
2012-04-19,0.675,0.675,0.66,0.66,155900,0.66
2012-04-20,0.67,0.67,0.67,0.67,84300,0.67
2012-04-23,0.67,0.67,0.66,0.67,86300,0.67
2012-04-24,0.67,0.67,0.67,0.67,118700,0.67
2012-04-25,0.67,0.67,0.67,0.67,0,0.67
2012-04-26,0.66,0.665,0.63,0.63,217500,0.63
2012-04-27,0.64,0.64,0.63,0.64,31000,0.64
2012-04-30,0.63,0.65,0.63,0.65,126500,0.65
2012-05-01,0.64,0.64,0.64,0.64,10000,0.64
2012-05-02,0.64,0.65,0.64,0.65,55000,0.65
2012-05-03,0.63,0.63,0.63,0.63,1500,0.63
2012-05-04,0.62,0.62,0.62,0.62,19200,0.62
2012-05-07,0.64,0.64,0.62,0.64,24600,0.64
2012-05-08,0.63,0.63,0.62,0.63,50100,0.63
2012-05-09,0.6,0.62,0.6,0.62,49000,0.62
2012-05-10,0.62,0.63,0.62,0.63,30500,0.63
2012-05-11,0.63,0.64,0.62,0.64,40500,0.64
2012-05-14,0.63,0.63,0.63,0.63,7500,0.63
2012-05-15,0.61,0.63,0.59,0.63,291600,0.63
2012-05-16,0.61,0.62,0.59,0.6,64500,0.6
2012-05-17,0.6,0.6,0.585,0.6,56600,0.6
2012-05-18,0.61,0.665,0.61,0.665,1466800,0.665
2012-05-21,0.65,0.66,0.65,0.66,32000,0.66
2012-05-22,0.66,0.67,0.66,0.66,279600,0.66
2012-05-23,0.655,0.655,0.65,0.65,170500,0.65
2012-05-24,0.64,0.67,0.64,0.67,225500,0.67
2012-05-25,0.67,0.73,0.67,0.7,790200,0.7
2012-05-28,0.69,0.69,0.68,0.69,74500,0.69
2012-05-29,0.675,0.685,0.675,0.68,129700,0.68
2012-05-30,0.67,0.675,0.65,0.67,90400,0.67
2012-05-31,0.65,0.66,0.65,0.65,213600,0.65
2012-06-01,0.65,0.65,0.65,0.65,114200,0.65
2012-06-04,0.62,0.635,0.62,0.63,264200,0.63
2012-06-05,0.63,0.65,0.63,0.65,275000,0.65
2012-06-06,0.65,0.66,0.65,0.65,209000,0.65
2012-06-07,0.65,0.655,0.64,0.65,371000,0.65
2012-06-08,0.64,0.64,0.64,0.64,31400,0.64
2012-06-11,0.64,0.64,0.64,0.64,0,0.64
2012-06-12,0.65,0.65,0.64,0.645,160000,0.645
2012-06-13,0.65,0.67,0.645,0.67,102100,0.67
2012-06-14,0.685,0.685,0.685,0.685,2100,0.685
2012-06-15,0.67,0.7,0.67,0.67,140000,0.67
2012-06-18,0.67,0.67,0.65,0.65,95500,0.65
2012-06-19,0.66,0.68,0.65,0.68,11300,0.68
2012-06-20,0.66,0.66,0.66,0.66,3000,0.66
2012-06-21,0.66,0.66,0.66,0.66,11900,0.66
2012-06-22,0.675,0.675,0.65,0.65,58300,0.65
2012-06-25,0.65,0.65,0.65,0.65,0,0.65
2012-06-26,0.645,0.645,0.645,0.645,5000,0.645
2012-06-27,0.64,0.655,0.6,0.645,225300,0.645
2012-06-28,0.645,0.645,0.6,0.62,62000,0.62
2012-06-29,0.605,0.62,0.6,0.62,66700,0.62
2012-07-02,0.6,0.615,0.6,0.6,55400,0.6
2012-07-03,0.6,0.6,0.6,0.6,90300,0.6
2012-07-04,0.6,0.6,0.6,0.6,0,0.6
2012-07-05,0.59,0.6,0.59,0.6,338000,0.6
2012-07-06,0.585,0.6,0.585,0.585,52800,0.585
2012-07-09,0.58,0.58,0.58,0.58,7000,0.58
2012-07-10,0.585,0.585,0.585,0.585,2600,0.585
2012-07-11,0.575,0.575,0.575,0.575,30000,0.575
2012-07-12,0.57,0.58,0.55,0.58,3751000,0.58
2012-07-13,0.58,0.58,0.58,0.58,0,0.58
2012-07-16,0.56,0.6,0.56,0.6,103500,0.6
2012-07-17,0.6,0.6,0.58,0.58,7300,0.58
2012-07-18,0.575,0.575,0.56,0.56,75000,0.56
2012-07-19,0.58,0.58,0.57,0.57,10100,0.57
2012-07-20,0.58,0.58,0.58,0.58,2500,0.58
2012-07-23,0.57,0.57,0.56,0.56,167000,0.56
2012-07-24,0.55,0.56,0.545,0.56,10000,0.56
2012-07-25,0.56,0.56,0.56,0.56,0,0.56
2012-07-26,0.545,0.555,0.545,0.555,50700,0.555
2012-07-27,0.555,0.555,0.555,0.555,0,0.555
2012-07-30,0.555,0.555,0.555,0.555,0,0.555
2012-07-31,0.51,0.55,0.505,0.55,25000,0.55
2012-08-01,0.55,0.55,0.55,0.55,0,0.55
2012-08-02,0.55,0.55,0.52,0.54,27500,0.54
2012-08-03,0.515,0.54,0.515,0.54,16000,0.54
2012-08-06,0.52,0.535,0.515,0.53,93100,0.53
2012-08-07,0.52,0.53,0.52,0.53,11600,0.53
2012-08-08,0.52,0.52,0.52,0.52,22500,0.52
2012-08-09,0.52,0.52,0.515,0.515,32000,0.515
2012-08-10,0.51,0.52,0.51,0.52,24200,0.52
2012-08-13,0.51,0.52,0.51,0.52,68300,0.52
2012-08-14,0.52,0.58,0.52,0.55,147200,0.55
2012-08-15,0.58,0.59,0.55,0.55,193500,0.55
2012-08-16,0.555,0.575,0.555,0.57,102500,0.57
2012-08-17,0.565,0.565,0.535,0.56,24000,0.56
2012-08-20,0.56,0.565,0.52,0.55,39800,0.55
2012-08-21,0.555,0.56,0.555,0.56,28900,0.56
2012-08-22,0.57,0.57,0.55,0.56,78800,0.56
2012-08-23,0.55,0.56,0.535,0.56,52500,0.56
2012-08-24,0.56,0.58,0.54,0.58,37000,0.58
2012-08-27,0.56,0.57,0.56,0.57,20000,0.57
2012-08-28,0.54,0.56,0.535,0.56,102400,0.56
2012-08-29,0.555,0.555,0.555,0.555,7000,0.555
2012-08-30,0.555,0.555,0.555,0.555,0,0.555
2012-08-31,0.53,0.555,0.53,0.555,84000,0.555
2012-09-03,0.55,0.55,0.55,0.55,0,0.55
2012-09-04,0.555,0.555,0.53,0.53,1400,0.53
2012-09-05,0.555,0.56,0.555,0.56,27600,0.56
2012-09-06,0.56,0.56,0.56,0.56,0,0.56
2012-09-07,0.54,0.565,0.54,0.565,100300,0.565
2012-09-10,0.56,0.56,0.56,0.56,8500,0.56
2012-09-11,0.54,0.55,0.54,0.55,50900,0.55
2012-09-12,0.555,0.555,0.555,0.555,18000,0.555
2012-09-13,0.515,0.545,0.515,0.53,120600,0.53
2012-09-14,0.535,0.55,0.535,0.55,24900,0.55
2012-09-17,0.55,0.55,0.55,0.55,0,0.55
2012-09-18,0.55,0.59,0.55,0.56,299000,0.56
2012-09-19,0.56,0.57,0.56,0.56,138200,0.56
2012-09-20,0.565,0.59,0.565,0.59,188800,0.59
2012-09-21,0.59,0.635,0.59,0.635,216900,0.635
2012-09-24,0.63,0.63,0.62,0.62,50700,0.62
2012-09-25,0.635,0.64,0.635,0.635,121100,0.635
2012-09-26,0.635,0.695,0.635,0.68,226800,0.68
2012-09-27,0.67,0.68,0.64,0.67,325100,0.67
2012-09-28,0.67,0.68,0.67,0.68,66400,0.68
2012-10-01,0.68,0.68,0.67,0.68,44000,0.68
2012-10-02,0.67,0.68,0.67,0.67,251300,0.67
2012-10-03,0.68,0.69,0.67,0.69,39800,0.69
2012-10-04,0.67,0.67,0.67,0.67,121000,0.67
2012-10-05,0.67,0.67,0.66,0.67,68000,0.67
2012-10-08,0.67,0.67,0.66,0.67,116000,0.67
2012-10-09,0.67,0.67,0.66,0.66,4100,0.66
2012-10-10,0.66,0.66,0.645,0.66,6000,0.66
2012-10-11,0.66,0.66,0.64,0.64,29900,0.64
2012-10-12,0.64,0.66,0.64,0.66,17000,0.66
2012-10-15,0.645,0.645,0.64,0.64,47200,0.64
2012-10-16,0.64,0.64,0.64,0.64,15400,0.64
2012-10-17,0.64,0.645,0.63,0.63,37700,0.63
2012-10-18,0.635,0.64,0.58,0.63,415400,0.63
2012-10-19,0.62,0.63,0.605,0.625,57800,0.625
2012-10-22,0.6,0.615,0.6,0.61,99100,0.61
2012-10-23,0.6,0.625,0.6,0.625,261700,0.625
2012-10-24,0.625,0.63,0.6,0.6,250800,0.6
2012-10-25,0.6,0.6,0.6,0.6,146400,0.6
2012-10-26,0.59,0.6,0.56,0.58,249400,0.58
2012-10-29,0.58,0.58,0.58,0.58,0,0.58
2012-10-30,0.58,0.58,0.58,0.58,0,0.58
2012-10-31,0.58,0.58,0.58,0.58,0,0.58
2012-11-01,0.58,0.58,0.58,0.58,0,0.58
2012-11-02,0.55,0.55,0.55,0.55,52500,0.55
2012-11-05,0.555,0.59,0.555,0.59,39600,0.59
2012-11-06,0.59,0.59,0.59,0.59,1300,0.59
2012-11-07,0.58,0.58,0.55,0.58,166500,0.58
2012-11-08,0.58,0.58,0.58,0.58,0,0.58
2012-11-09,0.54,0.57,0.53,0.55,151100,0.55
2012-11-12,0.54,0.56,0.525,0.54,86300,0.54
2012-11-13,0.525,0.53,0.525,0.525,28600,0.525
2012-11-14,0.53,0.54,0.52,0.52,39000,0.52
2012-11-15,0.525,0.525,0.525,0.525,40000,0.525
2012-11-16,0.535,0.55,0.535,0.55,11000,0.55
2012-11-19,0.55,0.55,0.55,0.55,9000,0.55
2012-11-20,0.53,0.53,0.525,0.525,16000,0.525
2012-11-21,0.525,0.55,0.52,0.55,83000,0.55
2012-11-22,0.55,0.55,0.55,0.55,23600,0.55
2012-11-23,0.55,0.55,0.55,0.55,0,0.55
2012-11-26,0.55,0.55,0.55,0.55,0,0.55
2012-11-27,0.55,0.55,0.55,0.55,0,0.55
2012-11-28,0.55,0.55,0.55,0.55,0,0.55
2012-11-29,0.55,0.55,0.55,0.55,0,0.55
2012-11-30,0.52,0.56,0.515,0.515,304100,0.515
2012-12-03,0.55,0.55,0.55,0.55,1000,0.55
2012-12-04,0.55,0.55,0.55,0.55,1600,0.55
2012-12-05,0.545,0.545,0.51,0.545,159600,0.545
2012-12-06,0.52,0.525,0.51,0.525,27000,0.525
2012-12-07,0.54,0.54,0.54,0.54,10000,0.54
2012-12-10,0.515,0.52,0.51,0.515,35500,0.515
2012-12-11,0.515,0.525,0.515,0.525,12000,0.525
2012-12-12,0.54,0.54,0.54,0.54,12500,0.54
2012-12-13,0.54,0.54,0.54,0.54,0,0.54
2012-12-14,0.525,0.525,0.525,0.525,20000,0.525
2012-12-17,0.525,0.525,0.525,0.525,0,0.525
2012-12-18,0.53,0.53,0.53,0.53,1200,0.53
2012-12-19,0.54,0.54,0.53,0.53,60000,0.53
2012-12-20,0.53,0.53,0.53,0.53,59400,0.53
2012-12-21,0.53,0.53,0.53,0.53,0,0.53
2012-12-24,0.53,0.53,0.53,0.53,0,0.53
2012-12-25,0.53,0.53,0.53,0.53,0,0.53
2012-12-26,0.53,0.53,0.53,0.53,0,0.53
2012-12-27,0.515,0.53,0.515,0.53,5000,0.53
2012-12-28,0.53,0.53,0.53,0.53,3000,0.53
2012-12-31,0.53,0.53,0.53,0.53,0,0.53
2013-01-01,0.53,0.53,0.53,0.53,0,0.53
2013-01-02,0.51,0.51,0.51,0.51,1300,0.51
2013-01-03,0.51,0.51,0.51,0.51,0,0.51
2013-01-04,0.52,0.53,0.52,0.53,17000,0.53
2013-01-07,0.53,0.53,0.53,0.53,8400,0.53
2013-01-08,0.51,0.525,0.51,0.51,9300,0.51
2013-01-09,0.5,0.5,0.47,0.48,70500,0.48
2013-01-10,0.48,0.48,0.48,0.48,0,0.48
2013-01-11,0.47,0.48,0.43,0.46,197600,0.46
2013-01-14,0.455,0.48,0.45,0.48,235700,0.48
2013-01-15,0.48,0.48,0.48,0.48,0,0.48
2013-01-16,0.47,0.47,0.46,0.46,102000,0.46
2013-01-17,0.48,0.48,0.48,0.48,120000,0.48
2013-01-18,0.47,0.47,0.47,0.47,55000,0.47
2013-01-21,0.475,0.475,0.465,0.465,205000,0.465
2013-01-22,0.47,0.47,0.47,0.47,10000,0.47
2013-01-23,0.465,0.465,0.46,0.46,250000,0.46
2013-01-24,0.46,0.46,0.455,0.46,745500,0.46
2013-01-25,0.45,0.455,0.45,0.45,83900,0.45
2013-01-28,0.45,0.45,0.45,0.45,0,0.45
2013-01-29,0.45,0.45,0.43,0.43,113900,0.43
2013-01-30,0.39,0.435,0.39,0.435,576200,0.435
2013-01-31,0.435,0.46,0.435,0.46,152700,0.46
2013-02-01,0.46,0.46,0.45,0.45,125400,0.45
2013-02-04,0.435,0.47,0.435,0.47,607400,0.47
2013-02-05,0.48,0.48,0.45,0.465,896700,0.465
2013-02-06,0.45,0.46,0.445,0.455,509000,0.455
2013-02-07,0.45,0.5,0.45,0.5,712500,0.5
2013-02-08,0.495,0.51,0.485,0.51,33100,0.51
2013-02-11,0.52,0.525,0.52,0.525,94200,0.525
2013-02-12,0.53,0.53,0.52,0.53,149600,0.53
2013-02-13,0.53,0.57,0.53,0.57,141900,0.57
2013-02-14,0.56,0.57,0.56,0.565,148000,0.565
2013-02-15,0.55,0.57,0.545,0.555,148100,0.555
2013-02-18,0.53,0.57,0.52,0.57,442700,0.57
2013-02-19,0.57,0.57,0.56,0.56,30400,0.56
2013-02-20,0.58,0.58,0.565,0.58,62000,0.58
2013-02-21,0.58,0.58,0.58,0.58,30500,0.58
2013-02-22,0.565,0.565,0.56,0.565,82500,0.565
2013-02-25,0.565,0.565,0.565,0.565,0,0.565
2013-02-26,0.565,0.565,0.565,0.565,0,0.565
2013-02-27,0.565,0.565,0.565,0.565,0,0.565
2013-02-28,0.585,0.585,0.57,0.585,15200,0.585
2013-03-01,0.585,0.585,0.585,0.585,10900,0.585
2013-03-04,0.585,0.585,0.585,0.585,0,0.585
2013-03-05,0.585,0.585,0.585,0.585,0,0.585
2013-03-06,0.585,0.585,0.585,0.585,0,0.585
2013-03-07,0.56,0.56,0.56,0.56,400,0.56
2013-03-08,0.56,0.56,0.56,0.56,0,0.56
2013-03-11,0.56,0.56,0.56,0.56,0,0.56
2013-03-12,0.56,0.56,0.56,0.56,2000,0.56
2013-03-13,0.56,0.56,0.56,0.56,0,0.56
2013-03-14,0.56,0.56,0.56,0.56,0,0.56
2013-03-15,0.56,0.56,0.56,0.56,0,0.56
2013-03-18,0.525,0.525,0.45,0.51,77300,0.51
2013-03-19,0.5,0.515,0.48,0.515,90000,0.515
2013-03-20,0.5,0.51,0.5,0.5,32000,0.5
2013-03-21,0.5,0.5,0.5,0.5,0,0.5
2013-03-22,0.47,0.52,0.47,0.52,59000,0.52
2013-03-25,0.52,0.52,0.52,0.52,0,0.52
2013-03-26,0.495,0.51,0.495,0.495,381000,0.495
2013-03-27,0.525,0.53,0.525,0.53,3000,0.53
2013-03-28,0.53,0.55,0.53,0.55,49000,0.55
2013-03-29,0.55,0.55,0.55,0.55,0,0.55
2013-04-01,0.55,0.55,0.55,0.55,0,0.55
2013-04-02,0.525,0.535,0.5,0.52,127200,0.52
2013-04-03,0.52,0.53,0.52,0.52,21700,0.52
2013-04-04,0.52,0.52,0.52,0.52,0,0.52
2013-04-05,0.53,0.53,0.52,0.52,82900,0.52
2013-04-08,0.52,0.52,0.52,0.52,24400,0.52
2013-04-09,0.52,0.55,0.52,0.55,55800,0.55
2013-04-10,0.525,0.55,0.525,0.55,10000,0.55
2013-04-11,0.55,0.56,0.55,0.55,76900,0.55
2013-04-12,0.55,0.55,0.55,0.55,0,0.55
2013-04-15,0.585,0.585,0.585,0.585,5000,0.585
2013-04-16,0.56,0.585,0.56,0.585,8300,0.585
2013-04-17,0.59,0.59,0.59,0.59,3500,0.59
2013-04-18,0.56,0.57,0.55,0.57,19300,0.57
2013-04-19,0.57,0.57,0.57,0.57,0,0.57
2013-04-22,0.56,0.56,0.52,0.52,35000,0.52
2013-04-23,0.525,0.525,0.52,0.52,17300,0.52
2013-04-24,0.52,0.525,0.52,0.525,38400,0.525
2013-04-25,0.525,0.525,0.525,0.525,0,0.525
2013-04-26,0.525,0.525,0.525,0.525,20200,0.525
2013-04-29,0.525,0.525,0.52,0.52,21300,0.52
2013-04-30,0.525,0.54,0.505,0.535,114600,0.535
2013-05-01,0.505,0.52,0.5,0.52,42000,0.52
2013-05-02,0.525,0.525,0.52,0.525,17000,0.525
2013-05-03,0.525,0.525,0.525,0.525,0,0.525
2013-05-06,0.525,0.525,0.525,0.525,0,0.525
2013-05-07,0.53,0.53,0.485,0.5,221800,0.5
2013-05-08,0.51,0.53,0.51,0.52,30600,0.52
2013-05-09,0.55,0.55,0.55,0.55,13500,0.55
2013-05-10,0.52,0.54,0.52,0.54,185000,0.54
2013-05-13,0.54,0.54,0.54,0.54,0,0.54
2013-05-14,0.53,0.55,0.53,0.53,129900,0.53
2013-05-15,0.55,0.56,0.55,0.56,12900,0.56
2013-05-16,0.56,0.56,0.56,0.56,0,0.56
2013-05-17,0.54,0.58,0.54,0.58,88400,0.58
2013-05-20,0.58,0.58,0.58,0.58,179400,0.58
2013-05-21,0.57,0.58,0.56,0.58,221600,0.58
2013-05-22,0.58,0.6,0.58,0.6,410000,0.6
2013-05-23,0.59,0.59,0.575,0.575,63000,0.575
2013-05-24,0.575,0.575,0.575,0.575,0,0.575
2013-05-27,0.58,0.59,0.56,0.59,607500,0.59
2013-05-28,0.57,0.57,0.57,0.57,2300,0.57
2013-05-29,0.57,0.57,0.57,0.57,300900,0.57
2013-05-30,0.57,0.57,0.57,0.57,84400,0.57
2013-05-31,0.57,0.57,0.54,0.54,253900,0.54
2013-06-03,0.57,0.57,0.565,0.57,76300,0.57
2013-06-04,0.54,0.56,0.54,0.56,82100,0.56
2013-06-05,0.56,0.56,0.55,0.55,87900,0.55
2013-06-06,0.55,0.565,0.525,0.565,95900,0.565
2013-06-07,0.565,0.57,0.565,0.57,10700,0.57
2013-06-10,0.57,0.57,0.57,0.57,0,0.57
2013-06-11,0.55,0.57,0.55,0.57,36000,0.57
2013-06-12,0.6,0.6,0.575,0.59,107000,0.59
2013-06-13,0.6,0.62,0.6,0.61,140800,0.61
2013-06-14,0.61,0.65,0.61,0.65,114200,0.65
2013-06-17,0.64,0.64,0.62,0.62,33300,0.62
2013-06-18,0.62,0.62,0.6,0.6,379400,0.6
2013-06-19,0.58,0.59,0.565,0.59,13900,0.59
2013-06-20,0.57,0.57,0.56,0.56,43000,0.56
2013-06-21,0.58,0.58,0.58,0.58,10000,0.58
2013-06-24,0.58,0.58,0.58,0.58,0,0.58
2013-06-25,0.555,0.555,0.545,0.545,20700,0.545
2013-06-26,0.545,0.545,0.545,0.545,4900,0.545
2013-06-27,0.56,0.56,0.56,0.56,40000,0.56
2013-06-28,0.56,0.56,0.56,0.56,34800,0.56
2013-07-01,0.56,0.56,0.56,0.56,2500,0.56
2013-07-02,0.54,0.54,0.54,0.54,5100,0.54
2013-07-03,0.54,0.54,0.54,0.54,50000,0.54
2013-07-04,0.54,0.54,0.54,0.54,0,0.54
2013-07-05,0.54,0.54,0.54,0.54,0,0.54
2013-07-08,0.54,0.54,0.54,0.54,0,0.54
2013-07-09,0.54,0.54,0.54,0.54,54000,0.54
2013-07-10,0.545,0.545,0.54,0.54,22000,0.54
2013-07-11,0.54,0.54,0.54,0.54,31000,0.54
2013-07-12,0.54,0.54,0.54,0.54,0,0.54
2013-07-15,0.54,0.54,0.54,0.54,10500,0.54
2013-07-16,0.515,0.515,0.515,0.515,13000,0.515
2013-07-17,0.53,0.595,0.53,0.595,120600,0.595
2013-07-18,0.6,0.6,0.58,0.58,23500,0.58
2013-07-19,0.58,0.58,0.58,0.58,13300,0.58
2013-07-22,0.58,0.59,0.58,0.59,30000,0.59
2013-07-23,0.565,0.63,0.565,0.63,28700,0.63
2013-07-24,0.61,0.61,0.59,0.59,26600,0.59
2013-07-25,0.59,0.59,0.58,0.58,23700,0.58
2013-07-26,0.58,0.58,0.58,0.58,9000,0.58
2013-07-29,0.57,0.57,0.56,0.56,20100,0.56
2013-07-30,0.565,0.565,0.565,0.565,5000,0.565
2013-07-31,0.56,0.56,0.56,0.56,24500,0.56
2013-08-01,0.56,0.56,0.56,0.56,0,0.56
2013-08-02,0.585,0.62,0.585,0.62,38300,0.62
2013-08-05,0.62,0.62,0.585,0.62,91700,0.62
2013-08-06,0.62,0.62,0.62,0.62,2500,0.62
2013-08-07,0.62,0.62,0.62,0.62,0,0.62
2013-08-08,0.62,0.62,0.62,0.62,0,0.62
2013-08-09,0.62,0.62,0.61,0.62,103300,0.62
2013-08-12,0.62,0.62,0.62,0.62,0,0.62
2013-08-13,0.62,0.62,0.62,0.62,0,0.62
2013-08-14,0.615,0.62,0.6,0.62,31300,0.62
2013-08-15,0.6,0.64,0.6,0.6,119900,0.6
2013-08-16,0.585,0.615,0.585,0.585,70200,0.585
2013-08-19,0.6,0.6,0.6,0.6,800,0.6
2013-08-20,0.575,0.575,0.555,0.555,58000,0.555
2013-08-21,0.575,0.575,0.575,0.575,3000,0.575
2013-08-22,0.585,0.585,0.56,0.575,21900,0.575
2013-08-23,0.575,0.58,0.55,0.58,27700,0.58
2013-08-26,0.58,0.58,0.55,0.55,5000,0.55
2013-08-27,0.57,0.57,0.55,0.55,20000,0.55
2013-08-28,0.56,0.595,0.56,0.595,120600,0.595
2013-08-29,0.595,0.595,0.595,0.595,0,0.595
2013-08-30,0.58,0.6,0.57,0.6,42900,0.6
2013-09-02,0.58,0.62,0.57,0.62,312400,0.62
2013-09-03,0.59,0.59,0.59,0.59,7100,0.59
2013-09-04,0.58,0.58,0.57,0.57,66800,0.57
2013-09-05,0.57,0.58,0.57,0.58,232000,0.58
2013-09-06,0.615,0.62,0.59,0.62,95000,0.62
2013-09-09,0.6,0.6,0.6,0.6,72900,0.6
2013-09-10,0.6,0.6,0.6,0.6,0,0.6
2013-09-11,0.585,0.625,0.585,0.625,5000,0.625
2013-09-12,0.61,0.61,0.61,0.61,10000,0.61
2013-09-13,0.59,0.61,0.59,0.61,62400,0.61
2013-09-16,0.58,0.6,0.58,0.6,38000,0.6
2013-09-17,0.62,0.65,0.62,0.65,35200,0.65
2013-09-18,0.65,0.65,0.65,0.65,2200,0.65
2013-09-19,0.625,0.65,0.62,0.65,245200,0.65
2013-09-20,0.62,0.62,0.605,0.605,17600,0.605
2013-09-23,0.615,0.615,0.57,0.57,104300,0.57
2013-09-24,0.58,0.59,0.57,0.57,79600,0.57
2013-09-25,0.57,0.57,0.55,0.57,335300,0.57
2013-09-26,0.6,0.61,0.58,0.58,274700,0.58
2013-09-27,0.55,0.57,0.55,0.565,45000,0.565
2013-09-30,0.565,0.6,0.565,0.6,789100,0.6
2013-10-01,0.6,0.6,0.555,0.575,22200,0.575
2013-10-02,0.575,0.575,0.575,0.575,0,0.575
2013-10-03,0.575,0.575,0.575,0.575,29000,0.575
2013-10-04,0.575,0.575,0.575,0.575,0,0.575
2013-10-07,0.575,0.575,0.565,0.565,2400,0.565
2013-10-08,0.56,0.56,0.55,0.56,215400,0.56
2013-10-09,0.55,0.55,0.55,0.55,27000,0.55
2013-10-10,0.54,0.54,0.535,0.535,53000,0.535
2013-10-11,0.54,0.575,0.54,0.55,37000,0.55
2013-10-14,0.55,0.55,0.55,0.55,5000,0.55
2013-10-15,0.57,0.57,0.56,0.57,27900,0.57
2013-10-16,0.57,0.59,0.55,0.56,12800,0.56
2013-10-17,0.57,0.57,0.57,0.57,20000,0.57
2013-10-18,0.55,0.55,0.54,0.54,3800,0.54
2013-10-21,0.55,0.57,0.54,0.57,14500,0.57
2013-10-22,0.58,0.58,0.58,0.58,31000,0.58
2013-10-23,0.55,0.55,0.535,0.535,30000,0.535
2013-10-24,0.535,0.535,0.535,0.535,0,0.535
2013-10-25,0.575,0.61,0.575,0.58,286300,0.58
2013-10-28,0.585,0.585,0.585,0.585,143000,0.585
2013-10-29,0.56,0.575,0.54,0.55,204000,0.55
2013-10-30,0.54,0.545,0.54,0.54,70000,0.54
2013-10-31,0.555,0.555,0.525,0.535,107900,0.535
2013-11-01,0.57,0.575,0.55,0.56,97500,0.56
2013-11-04,0.57,0.57,0.56,0.56,42000,0.56
2013-11-05,0.545,0.545,0.535,0.545,102100,0.545
2013-11-06,0.55,0.56,0.55,0.56,18000,0.56
2013-11-07,0.56,0.56,0.56,0.56,0,0.56
2013-11-08,0.55,0.56,0.545,0.56,131700,0.56
2013-11-11,0.56,0.56,0.56,0.56,0,0.56
2013-11-12,0.56,0.56,0.56,0.56,0,0.56
2013-11-13,0.54,0.55,0.54,0.54,15500,0.54
2013-11-14,0.54,0.54,0.54,0.54,0,0.54
2013-11-15,0.54,0.54,0.54,0.54,0,0.54
2013-11-18,0.575,0.575,0.55,0.55,25500,0.55
2013-11-19,0.55,0.575,0.545,0.545,21000,0.545
2013-11-20,0.565,0.565,0.545,0.545,43800,0.545
2013-11-21,0.565,0.565,0.525,0.525,183000,0.525
2013-11-22,0.525,0.525,0.525,0.525,0,0.525
2013-11-25,0.545,0.545,0.545,0.545,9100,0.545
2013-11-26,0.51,0.515,0.505,0.515,18000,0.515
2013-11-27,0.54,0.54,0.51,0.51,63000,0.51
2013-11-28,0.51,0.51,0.51,0.51,330000,0.51
2013-11-29,0.51,0.51,0.5,0.5,177800,0.5
2013-12-02,0.5,0.5,0.5,0.5,0,0.5
2013-12-03,0.47,0.49,0.465,0.49,24500,0.49
2013-12-04,0.49,0.49,0.45,0.45,31200,0.45
2013-12-05,0.45,0.49,0.45,0.45,92700,0.45
2013-12-06,0.45,0.485,0.435,0.485,108200,0.485
2013-12-09,0.485,0.485,0.485,0.485,0,0.485
2013-12-10,0.485,0.51,0.485,0.51,140000,0.51
2013-12-11,0.51,0.51,0.51,0.51,0,0.51
2013-12-12,0.51,0.51,0.5,0.5,29600,0.5
2013-12-13,0.5,0.5,0.49,0.49,48400,0.49
2013-12-16,0.46,0.47,0.455,0.46,85000,0.46
2013-12-17,0.47,0.485,0.47,0.47,116000,0.47
2013-12-18,0.45,0.46,0.45,0.46,100000,0.46
2013-12-19,0.45,0.45,0.44,0.44,27600,0.44
2013-12-20,0.44,0.44,0.44,0.44,31500,0.44
2013-12-23,0.435,0.44,0.435,0.44,42900,0.44
2013-12-24,0.44,0.44,0.44,0.44,0,0.44
2013-12-25,0.44,0.44,0.44,0.44,0,0.44
2013-12-26,0.44,0.44,0.44,0.44,0,0.44
2013-12-27,0.44,0.44,0.44,0.44,20000,0.44
2013-12-30,0.44,0.44,0.44,0.44,20000,0.44
2013-12-31,0.43,0.48,0.43,0.48,78500,0.48
2014-01-01,0.48,0.48,0.48,0.48,0,0.48
2014-01-02,0.48,0.48,0.48,0.48,0,0.48
2014-01-03,0.48,0.48,0.48,0.48,0,0.48
2014-01-06,0.46,0.47,0.46,0.47,18200,0.47
2014-01-07,0.48,0.48,0.45,0.475,55500,0.475
2014-01-08,0.46,0.46,0.46,0.46,61800,0.46
2014-01-09,0.46,0.46,0.46,0.46,14600,0.46
2014-01-10,0.45,0.45,0.425,0.425,49200,0.425
2014-01-13,0.425,0.425,0.425,0.425,0,0.425
2014-01-14,0.425,0.425,0.425,0.425,141000,0.425
2014-01-15,0.435,0.435,0.435,0.435,15000,0.435
2014-01-16,0.44,0.44,0.42,0.42,334800,0.42
2014-01-17,0.43,0.435,0.43,0.435,8000,0.435
2014-01-20,0.41,0.43,0.41,0.43,28300,0.43
2014-01-21,0.41,0.43,0.41,0.43,40800,0.43
2014-01-22,0.43,0.43,0.43,0.43,0,0.43
2014-01-23,0.425,0.425,0.415,0.415,10000,0.415
2014-01-24,0.415,0.44,0.415,0.44,14400,0.44
2014-01-27,0.44,0.44,0.44,0.44,0,0.44
2014-01-28,0.44,0.44,0.44,0.44,0,0.44
2014-01-29,0.415,0.43,0.415,0.43,19300,0.43
2014-01-30,0.43,0.43,0.43,0.43,0,0.43
2014-01-31,0.455,0.455,0.45,0.45,25300,0.45
2014-02-03,0.43,0.43,0.43,0.43,28000,0.43
2014-02-04,0.43,0.43,0.41,0.41,181300,0.41
2014-02-05,0.42,0.45,0.415,0.45,62500,0.45
2014-02-06,0.45,0.45,0.45,0.45,0,0.45
2014-02-07,0.42,0.42,0.41,0.41,56900,0.41
2014-02-10,0.41,0.42,0.41,0.42,34500,0.42
2014-02-11,0.43,0.44,0.42,0.42,28400,0.42
2014-02-12,0.42,0.42,0.415,0.415,48900,0.415
2014-02-13,0.41,0.41,0.405,0.405,23000,0.405
2014-02-14,0.405,0.41,0.4,0.4,95000,0.4
2014-02-17,0.4,0.41,0.4,0.41,48500,0.41
2014-02-18,0.4,0.4,0.395,0.395,33500,0.395
2014-02-19,0.385,0.39,0.36,0.375,197100,0.375
2014-02-20,0.37,0.375,0.35,0.35,116500,0.35
2014-02-21,0.345,0.35,0.33,0.35,40600,0.35
2014-02-24,0.345,0.35,0.335,0.34,343800,0.34
2014-02-25,0.335,0.35,0.335,0.335,66800,0.335
2014-02-26,0.335,0.335,0.33,0.33,38900,0.33
2014-02-27,0.335,0.335,0.33,0.335,71000,0.335
2014-02-28,0.34,0.345,0.34,0.345,6000,0.345
2014-03-03,0.345,0.345,0.34,0.34,21700,0.34
2014-03-04,0.34,0.34,0.34,0.34,16000,0.34
2014-03-05,0.34,0.34,0.335,0.34,70000,0.34
2014-03-06,0.345,0.35,0.345,0.35,211200,0.35
2014-03-07,0.355,0.4,0.355,0.4,176700,0.4
2014-03-10,0.41,0.41,0.41,0.41,26600,0.41
2014-03-11,0.4,0.41,0.39,0.39,137300,0.39
2014-03-12,0.39,0.41,0.39,0.41,2000,0.41
2014-03-13,0.375,0.38,0.375,0.38,20000,0.38
2014-03-14,0.39,0.39,0.375,0.375,6200,0.375
2014-03-17,0.38,0.39,0.375,0.375,16600,0.375
2014-03-18,0.375,0.375,0.375,0.375,0,0.375
2014-03-19,0.375,0.38,0.375,0.38,6900,0.38
2014-03-20,0.4,0.4,0.385,0.385,25500,0.385
2014-03-21,0.385,0.41,0.38,0.41,30000,0.41
2014-03-24,0.41,0.41,0.41,0.41,0,0.41
2014-03-25,0.4,0.4,0.4,0.4,12500,0.4
2014-03-26,0.4,0.4,0.4,0.4,0,0.4
2014-03-27,0.39,0.39,0.39,0.39,3800,0.39
2014-03-28,0.38,0.38,0.22,0.22,797600,0.22
2014-03-31,0.23,0.23,0.14,0.155,689500,0.155
2014-04-01,0.145,0.18,0.13,0.165,1721100,0.165
2014-04-02,0.15,0.15,0.145,0.145,1673600,0.145
2014-04-03,0.15,0.17,0.145,0.16,376500,0.16
2014-04-04,0.16,0.16,0.145,0.145,93500,0.145
2014-04-07,0.155,0.2,0.155,0.18,231200,0.18
2014-04-08,0.165,0.165,0.15,0.15,98100,0.15
2014-04-09,0.15,0.15,0.15,0.15,451600,0.15
2014-04-10,0.15,0.155,0.145,0.145,290300,0.145
2014-04-11,0.145,0.15,0.145,0.145,72900,0.145
2014-04-14,0.145,0.15,0.145,0.15,245100,0.15
2014-04-15,0.145,0.145,0.14,0.14,90700,0.14
2014-04-16,0.145,0.155,0.145,0.15,646600,0.15
2014-04-17,0.15,0.15,0.145,0.145,761500,0.145
2014-04-18,0.145,0.145,0.145,0.145,0,0.145
2014-04-21,0.145,0.145,0.145,0.145,0,0.145
2014-04-22,0.15,0.15,0.145,0.145,256000,0.145
2014-04-23,0.145,0.155,0.145,0.155,151000,0.155
2014-04-24,0.155,0.155,0.155,0.155,67000,0.155
2014-04-25,0.155,0.155,0.155,0.155,0,0.155
2014-04-28,0.155,0.16,0.155,0.16,30000,0.16
2014-04-29,0.155,0.155,0.155,0.155,30000,0.155
2014-04-30,0.15,0.15,0.15,0.15,34700,0.15
2014-05-01,0.165,0.165,0.165,0.165,64900,0.165
2014-05-02,0.155,0.155,0.155,0.155,3300,0.155
2014-05-05,0.16,0.16,0.16,0.16,87300,0.16
2014-05-06,0.16,0.16,0.16,0.16,700,0.16
2014-05-07,0.16,0.16,0.16,0.16,32500,0.16
2014-05-08,0.16,0.185,0.16,0.185,308400,0.185
2014-05-09,0.21,0.21,0.15,0.17,643700,0.17
2014-05-12,0.16,0.165,0.155,0.165,135400,0.165
2014-05-13,0.155,0.16,0.155,0.16,143600,0.16
2014-05-14,0.16,0.16,0.16,0.16,0,0.16
2014-05-15,0.16,0.16,0.155,0.155,15100,0.155
2014-05-16,0.165,0.165,0.15,0.155,27400,0.155
2014-05-19,0.155,0.155,0.155,0.155,5000,0.155
2014-05-20,0.155,0.155,0.155,0.155,2000,0.155
2014-05-21,0.17,0.17,0.15,0.15,77200,0.15
2014-05-22,0.15,0.15,0.15,0.15,3700,0.15
2014-05-23,0.15,0.155,0.15,0.155,3500,0.155
2014-05-26,0.16,0.165,0.16,0.16,70500,0.16
2014-05-27,0.16,0.16,0.16,0.16,0,0.16
2014-05-28,0.165,0.165,0.16,0.16,19300,0.16
2014-05-29,0.15,0.15,0.15,0.15,25000,0.15
2014-05-30,0.165,0.165,0.15,0.165,68700,0.165
2014-06-02,0.165,0.165,0.165,0.165,0,0.165
2014-06-03,0.165,0.165,0.165,0.165,0,0.165
2014-06-04,0.145,0.16,0.145,0.16,2300,0.16
2014-06-05,0.16,0.16,0.16,0.16,0,0.16
2014-06-06,0.16,0.16,0.16,0.16,0,0.16
2014-06-09,0.16,0.16,0.16,0.16,0,0.16
2014-06-10,0.175,0.175,0.155,0.155,175400,0.155
2014-06-11,0.155,0.155,0.15,0.15,25100,0.15
2014-06-12,0.15,0.15,0.15,0.15,13300,0.15
2014-06-13,0.145,0.145,0.145,0.145,17600,0.145
2014-06-16,0.15,0.15,0.145,0.145,9500,0.145
2014-06-17,0.145,0.155,0.145,0.145,52600,0.145
2014-06-18,0.145,0.145,0.145,0.145,0,0.145
2014-06-19,0.145,0.145,0.12,0.12,126600,0.12
2014-06-20,0.12,0.125,0.12,0.125,55000,0.125
2014-06-23,0.13,0.13,0.13,0.13,2000,0.13
2014-06-24,0.135,0.14,0.125,0.125,79400,0.125
2014-06-25,0.135,0.135,0.125,0.125,67000,0.125
2014-06-26,0.125,0.125,0.125,0.125,38000,0.125
2014-06-27,0.13,0.135,0.13,0.135,51000,0.135
2014-06-30,0.14,0.15,0.14,0.14,171200,0.14
2014-07-01,0.14,0.14,0.14,0.14,0,0.14
2014-07-02,0.14,0.14,0.14,0.14,0,0.14
2014-07-03,0.14,0.14,0.14,0.14,5000,0.14
2014-07-04,0.145,0.145,0.145,0.145,12000,0.145
2014-07-07,0.145,0.145,0.145,0.145,12000,0.145
2014-07-08,0.145,0.145,0.145,0.145,0,0.145
2014-07-09,0.14,0.14,0.14,0.14,50400,0.14
2014-07-10,0.14,0.14,0.14,0.14,0,0.14
2014-07-11,0.14,0.14,0.14,0.14,0,0.14
2014-07-14,0.15,0.15,0.15,0.15,21500,0.15
2014-07-15,0.15,0.15,0.15,0.15,15000,0.15
2014-07-16,0.155,0.16,0.155,0.16,40000,0.16
2014-07-17,0.17,0.18,0.17,0.18,204300,0.18
2014-07-18,0.17,0.17,0.165,0.165,44000,0.165
2014-07-21,0.165,0.165,0.165,0.165,62000,0.165
2014-07-22,0.165,0.165,0.165,0.165,0,0.165
2014-07-23,0.165,0.165,0.165,0.165,0,0.165
2014-07-24,0.165,0.165,0.165,0.165,0,0.165
2014-07-25,0.165,0.165,0.16,0.16,151000,0.16
2014-07-28,0.16,0.16,0.16,0.16,0,0.16
2014-07-29,0.145,0.145,0.145,0.145,34500,0.145
2014-07-30,0.145,0.145,0.145,0.145,0,0.145
2014-07-31,0.145,0.16,0.145,0.16,11200,0.16
2014-08-01,0.16,0.16,0.16,0.16,0,0.16
2014-08-04,0.16,0.16,0.16,0.16,0,0.16
2014-08-05,0.16,0.16,0.16,0.16,0,0.16
2014-08-06,0.16,0.16,0.16,0.16,12500,0.16
2014-08-07,0.15,0.17,0.15,0.17,26500,0.17
2014-08-08,0.17,0.17,0.17,0.17,0,0.17
2014-08-11,0.17,0.17,0.17,0.17,0,0.17
2014-08-12,0.17,0.17,0.17,0.17,0,0.17
2014-08-13,0.17,0.17,0.17,0.17,0,0.17
2014-08-14,0.15,0.15,0.15,0.15,15000,0.15
2014-08-15,0.15,0.15,0.15,0.15,0,0.15
2014-08-18,0.14,0.14,0.14,0.14,5800,0.14
2014-08-19,0.14,0.14,0.14,0.14,0,0.14
2014-08-20,0.14,0.14,0.14,0.14,0,0.14
2014-08-21,0.14,0.14,0.14,0.14,28600,0.14
2014-08-22,0.145,0.17,0.145,0.17,11100,0.17
2014-08-25,0.17,0.17,0.17,0.17,0,0.17
2014-08-26,0.16,0.16,0.16,0.16,5000,0.16
2014-08-27,0.16,0.16,0.16,0.16,0,0.16
2014-08-28,0.16,0.16,0.16,0.16,0,0.16
2014-08-29,0.145,0.145,0.145,0.145,23400,0.145
2014-09-01,0.145,0.145,0.145,0.145,0,0.145
2014-09-02,0.145,0.145,0.145,0.145,0,0.145
2014-09-03,0.145,0.145,0.145,0.145,0,0.145
2014-09-04,0.145,0.145,0.145,0.145,4900,0.145
2014-09-05,0.145,0.145,0.145,0.145,36400,0.145
2014-09-08,0.145,0.145,0.145,0.145,0,0.145
2014-09-09,0.145,0.145,0.145,0.145,0,0.145
2014-09-10,0.145,0.145,0.145,0.145,9000,0.145
2014-09-11,0.14,0.14,0.14,0.14,20000,0.14
2014-09-12,0.14,0.14,0.14,0.14,11600,0.14
2014-09-15,0.12,0.12,0.11,0.11,141200,0.11
2014-09-16,0.12,0.12,0.12,0.12,100000,0.12
2014-09-17,0.13,0.13,0.13,0.13,115000,0.13
2014-09-18,0.13,0.13,0.13,0.13,0,0.13
2014-09-19,0.13,0.13,0.13,0.13,0,0.13
2014-09-22,0.13,0.15,0.11,0.15,154900,0.15
2014-09-23,0.15,0.15,0.15,0.15,0,0.15
2014-09-24,0.15,0.15,0.15,0.15,0,0.15
2014-09-25,0.15,0.15,0.15,0.15,0,0.15
2014-09-26,0.15,0.265,0.15,0.255,442900,0.255
2014-09-29,0.27,0.325,0.265,0.28,619200,0.28
2014-09-30,0.255,0.28,0.24,0.27,111300,0.27
2014-10-01,0.25,0.25,0.25,0.25,15000,0.25
2014-10-02,0.25,0.25,0.2,0.2,237000,0.2
2014-10-03,0.2,0.2,0.2,0.2,0,0.2
2014-10-06,0.2,0.2,0.2,0.2,0,0.2
2014-10-07,0.21,0.21,0.21,0.21,400,0.21
2014-10-08,0.19,0.19,0.17,0.175,30000,0.175
2014-10-09,0.18,0.19,0.18,0.18,32700,0.18
2014-10-10,0.175,0.2,0.17,0.2,156300,0.2
2014-10-13,0.2,0.2,0.2,0.2,0,0.2
2014-10-14,0.17,0.2,0.17,0.2,43200,0.2
2014-10-15,0.18,0.18,0.17,0.17,15000,0.17
2014-10-16,0.17,0.22,0.17,0.22,72100,0.22
2014-10-17,0.22,0.22,0.22,0.22,36000,0.22
2014-10-20,0.22,0.22,0.22,0.22,2700,0.22
2014-10-21,0.22,0.22,0.22,0.22,0,0.22
2014-10-22,0.24,0.24,0.24,0.24,10000,0.24
2014-10-23,0.24,0.24,0.24,0.24,10000,0.24
2014-10-24,0.24,0.24,0.24,0.24,5000,0.24
2014-10-27,0.24,0.24,0.24,0.24,0,0.24
2014-10-28,0.25,0.255,0.25,0.25,70000,0.25
2014-10-29,0.25,0.25,0.21,0.25,254300,0.25
2014-10-30,0.25,0.3,0.25,0.29,399500,0.29
2014-10-31,0.3,0.31,0.295,0.31,287700,0.31
2014-11-03,0.33,0.33,0.31,0.31,26600,0.31
2014-11-04,0.31,0.31,0.29,0.3,119100,0.3
2014-11-05,0.3,0.305,0.3,0.3,431000,0.3
2014-11-06,0.3,0.3,0.3,0.3,327500,0.3
2014-11-07,0.3,0.3,0.3,0.3,75000,0.3
2014-11-10,0.3,0.3,0.3,0.3,133000,0.3
2014-11-11,0.295,0.295,0.295,0.295,39400,0.295
2014-11-12,0.295,0.295,0.295,0.295,50000,0.295
2014-11-13,0.275,0.295,0.275,0.295,40000,0.295
2014-11-14,0.3,0.31,0.3,0.31,33400,0.31
2014-11-17,0.31,0.32,0.31,0.32,18200,0.32
2014-11-18,0.3,0.32,0.3,0.32,34600,0.32
2014-11-19,0.31,0.32,0.3,0.32,24300,0.32
2014-11-20,0.32,0.36,0.32,0.36,108700,0.36
2014-11-21,0.36,0.4,0.355,0.38,318600,0.38
2014-11-24,0.395,0.395,0.395,0.395,35000,0.395
2014-11-25,0.38,0.385,0.38,0.385,41500,0.385
2014-11-26,0.38,0.385,0.375,0.385,149900,0.385
2014-11-27,0.395,0.4,0.395,0.4,44200,0.4
2014-11-28,0.395,0.4,0.395,0.4,306200,0.4
2014-12-01,0.41,0.42,0.39,0.42,29300,0.42
2014-12-02,0.42,0.42,0.42,0.42,0,0.42
2014-12-03,0.41,0.41,0.41,0.41,20000,0.41
2014-12-04,0.435,0.565,0.435,0.48,71700,0.48
2014-12-05,0.48,0.48,0.48,0.48,45000,0.48
2014-12-08,0.475,0.48,0.475,0.48,24200,0.48
2014-12-09,0.465,0.47,0.465,0.47,35000,0.47
2014-12-10,0.45,0.455,0.45,0.455,24500,0.455
2014-12-11,0.41,0.44,0.405,0.44,142700,0.44
2014-12-12,0.43,0.43,0.42,0.43,64100,0.43
2014-12-15,0.42,0.42,0.41,0.41,24400,0.41
2014-12-16,0.41,0.41,0.41,0.41,0,0.41
2014-12-17,0.4,0.415,0.4,0.415,57700,0.415
2014-12-18,0.41,0.41,0.41,0.41,5000,0.41
2014-12-19,0.41,0.41,0.41,0.41,2000,0.41
2014-12-22,0.42,0.45,0.42,0.45,25000,0.45
2014-12-23,0.45,0.45,0.45,0.45,0,0.45
2014-12-24,0.45,0.45,0.44,0.44,12200,0.44
2014-12-25,0.44,0.44,0.44,0.44,0,0.44
2014-12-26,0.44,0.44,0.44,0.44,0,0.44
2014-12-29,0.44,0.44,0.44,0.44,5000,0.44
2014-12-30,0.41,0.41,0.4,0.4,21400,0.4
2014-12-31,0.4,0.44,0.4,0.405,25200,0.405
2015-01-01,0.405,0.405,0.405,0.405,0,0.405
2015-01-02,0.405,0.405,0.405,0.405,0,0.405
2015-01-05,0.405,0.405,0.405,0.405,4000,0.405
2015-01-06,0.405,0.405,0.405,0.405,0,0.405
2015-01-07,0.4,0.4,0.4,0.4,1500,0.4
2015-01-08,0.4,0.4,0.4,0.4,0,0.4
2015-01-09,0.4,0.4,0.4,0.4,14000,0.4
2015-01-12,0.4,0.4,0.4,0.4,6500,0.4
2015-01-13,0.41,0.44,0.405,0.435,32000,0.435
2015-01-14,0.435,0.435,0.435,0.435,0,0.435
2015-01-15,0.44,0.44,0.44,0.44,10900,0.44
2015-01-16,0.44,0.44,0.44,0.44,0,0.44
2015-01-19,0.44,0.44,0.44,0.44,0,0.44
2015-01-20,0.45,0.46,0.43,0.455,190100,0.455
2015-01-21,0.48,0.48,0.45,0.46,40000,0.46
2015-01-22,0.46,0.46,0.46,0.46,0,0.46
2015-01-23,0.46,0.46,0.46,0.46,0,0.46
2015-01-26,0.46,0.46,0.46,0.46,0,0.46
2015-01-27,0.46,0.46,0.46,0.46,0,0.46
2015-01-28,0.46,0.46,0.46,0.46,303000,0.46
2015-01-29,0.46,0.48,0.46,0.46,84700,0.46
2015-01-30,0.46,0.49,0.46,0.49,140000,0.49
2015-02-02,0.48,0.53,0.48,0.53,155300,0.53
2015-02-03,0.525,0.525,0.51,0.51,32600,0.51
2015-02-04,0.515,0.52,0.515,0.52,27600,0.52
2015-02-05,0.505,0.505,0.505,0.505,7600,0.505
2015-02-06,0.51,0.51,0.51,0.51,19900,0.51
2015-02-09,0.51,0.51,0.51,0.51,0,0.51
2015-02-10,0.51,0.52,0.51,0.52,16200,0.52
2015-02-11,0.52,0.52,0.515,0.515,21800,0.515
2015-02-12,0.515,0.515,0.515,0.515,11500,0.515
2015-02-13,0.52,0.52,0.52,0.52,10000,0.52
2015-02-16,0.52,0.52,0.52,0.52,0,0.52
2015-02-17,0.52,0.52,0.52,0.52,0,0.52
2015-02-18,0.53,0.53,0.515,0.515,61100,0.515
2015-02-19,0.52,0.55,0.52,0.55,45700,0.55
2015-02-20,0.55,0.55,0.54,0.55,46600,0.55
2015-02-23,0.52,0.52,0.51,0.51,117800,0.51
2015-02-24,0.51,0.54,0.51,0.52,146600,0.52
2015-02-25,0.52,0.53,0.51,0.52,70800,0.52
2015-02-26,0.52,0.52,0.52,0.52,0,0.52
2015-02-27,0.54,0.54,0.53,0.53,57000,0.53
2015-03-02,0.53,0.53,0.53,0.53,0,0.53
2015-03-03,0.53,0.53,0.53,0.53,19100,0.53
2015-03-04,0.53,0.53,0.525,0.53,118000,0.53
2015-03-05,0.53,0.53,0.53,0.53,0,0.53
2015-03-06,0.53,0.53,0.53,0.53,19000,0.53
2015-03-09,0.52,0.52,0.52,0.52,9400,0.52
2015-03-10,0.52,0.52,0.52,0.52,0,0.52
2015-03-11,0.52,0.52,0.52,0.52,0,0.52
2015-03-12,0.52,0.52,0.52,0.52,0,0.52
2015-03-13,0.52,0.52,0.52,0.52,0,0.52
2015-03-16,0.52,0.53,0.52,0.53,68100,0.53
2015-03-17,0.52,0.52,0.52,0.52,170600,0.52
2015-03-18,0.52,0.52,0.52,0.52,12500,0.52
2015-03-19,0.52,0.52,0.52,0.52,0,0.52
2015-03-20,0.52,0.52,0.52,0.52,0,0.52
2015-03-23,0.52,0.57,0.52,0.57,69200,0.57
2015-03-24,0.575,0.58,0.55,0.55,56500,0.55
2015-03-25,0.55,0.55,0.55,0.55,0,0.55
2015-03-26,0.535,0.55,0.535,0.55,10500,0.55
2015-03-27,0.55,0.55,0.55,0.55,0,0.55
2015-03-30,0.54,0.54,0.54,0.54,2000,0.54
2015-03-31,0.55,0.57,0.55,0.57,26400,0.57
2015-04-01,0.53,0.53,0.53,0.53,1000,0.53
2015-04-02,0.53,0.53,0.53,0.53,8200,0.53
2015-04-03,0.53,0.53,0.53,0.53,0,0.53
2015-04-06,0.53,0.53,0.53,0.53,0,0.53
2015-04-07,0.525,0.525,0.525,0.525,10000,0.525
2015-04-08,0.52,0.52,0.52,0.52,45000,0.52
2015-04-09,0.52,0.52,0.52,0.52,25000,0.52
2015-04-10,0.52,0.52,0.52,0.52,100000,0.52
2015-04-13,0.52,0.52,0.52,0.52,0,0.52
2015-04-14,0.52,0.52,0.52,0.52,0,0.52
2015-04-15,0.52,0.52,0.515,0.52,219900,0.52
2015-04-16,0.53,0.53,0.53,0.53,1800,0.53
2015-04-17,0.535,0.535,0.535,0.535,2500,0.535
2015-04-20,0.535,0.535,0.535,0.535,0,0.535
2015-04-21,0.55,0.55,0.52,0.52,153700,0.52
2015-04-22,0.52,0.52,0.52,0.52,0,0.52
2015-04-23,0.52,0.52,0.52,0.52,6000,0.52
2015-04-24,0.52,0.52,0.52,0.52,0,0.52
2015-04-27,0.53,0.55,0.53,0.55,22600,0.55
2015-04-28,0.55,0.55,0.55,0.55,3500,0.55
2015-04-29,0.53,0.53,0.52,0.52,16000,0.52
2015-04-30,0.52,0.52,0.52,0.52,0,0.52
2015-05-01,0.52,0.52,0.51,0.51,21000,0.51
2015-05-04,0.51,0.51,0.51,0.51,27000,0.51
2015-05-05,0.51,0.51,0.51,0.51,21000,0.51
2015-05-06,0.51,0.51,0.51,0.51,0,0.51
2015-05-07,0.51,0.51,0.51,0.51,8000,0.51
2015-05-08,0.51,0.51,0.51,0.51,15000,0.51
2015-05-11,0.51,0.51,0.51,0.51,15000,0.51
2015-05-12,0.51,0.51,0.51,0.51,0,0.51
2015-05-13,0.51,0.51,0.51,0.51,1000,0.51
2015-05-14,0.51,0.515,0.51,0.51,60400,0.51
2015-05-15,0.51,0.51,0.51,0.51,0,0.51
2015-05-18,0.51,0.51,0.51,0.51,0,0.51
2015-05-19,0.52,0.52,0.51,0.51,25000,0.51
2015-05-20,0.53,0.53,0.53,0.53,2000,0.53
2015-05-21,0.51,0.51,0.51,0.51,5000,0.51
2015-05-22,0.52,0.52,0.52,0.52,30000,0.52
2015-05-25,0.51,0.51,0.51,0.51,10000,0.51
2015-05-26,0.51,0.52,0.51,0.51,42000,0.51
2015-05-27,0.5,0.505,0.5,0.505,126800,0.505
2015-05-28,0.505,0.505,0.505,0.505,0,0.505
2015-05-29,0.505,0.51,0.48,0.51,131800,0.51
2015-06-01,0.51,0.51,0.51,0.51,0,0.51
2015-06-02,0.51,0.51,0.51,0.51,0,0.51
2015-06-03,0.51,0.53,0.51,0.51,62500,0.51
2015-06-04,0.53,0.53,0.52,0.52,31500,0.52
2015-06-05,0.52,0.52,0.52,0.52,12000,0.52
2015-06-08,0.52,0.52,0.52,0.52,0,0.52
2015-06-09,0.48,0.52,0.48,0.52,10000,0.52
2015-06-10,0.48,0.5,0.48,0.5,12700,0.5
2015-06-11,0.48,0.5,0.48,0.5,28900,0.5
2015-06-12,0.485,0.52,0.485,0.52,4000,0.52
2015-06-15,0.52,0.52,0.52,0.52,0,0.52
2015-06-16,0.5,0.5,0.48,0.5,30000,0.5
2015-06-17,0.5,0.5,0.5,0.5,0,0.5
2015-06-18,0.5,0.5,0.5,0.5,0,0.5
2015-06-19,0.45,0.5,0.45,0.5,33500,0.5
2015-06-22,0.45,0.485,0.45,0.485,28100,0.485
2015-06-23,0.485,0.485,0.485,0.485,20000,0.485
2015-06-24,0.485,0.485,0.485,0.485,11100,0.485
2015-06-25,0.485,0.485,0.48,0.485,78700,0.485
2015-06-26,0.48,0.485,0.48,0.485,20000,0.485
2015-06-29,0.485,0.485,0.485,0.485,0,0.485
2015-06-30,0.455,0.485,0.45,0.47,951800,0.47
2015-07-01,0.47,0.47,0.47,0.47,0,0.47
2015-07-02,0.47,0.47,0.47,0.47,0,0.47
2015-07-03,0.47,0.47,0.47,0.47,0,0.47
2015-07-06,0.47,0.47,0.47,0.47,0,0.47
2015-07-07,0.47,0.47,0.47,0.47,0,0.47
2015-07-08,0.46,0.46,0.46,0.46,5000,0.46
2015-07-09,0.46,0.46,0.46,0.46,0,0.46
2015-07-10,0.46,0.46,0.46,0.46,0,0.46
2015-07-13,0.46,0.46,0.46,0.46,0,0.46
2015-07-14,0.46,0.46,0.46,0.46,0,0.46
2015-07-15,0.46,0.46,0.46,0.46,0,0.46
2015-07-16,0.45,0.45,0.45,0.45,5000,0.45
2015-07-17,0.45,0.45,0.45,0.45,5000,0.45
2015-07-20,0.45,0.45,0.45,0.45,0,0.45
2015-07-21,0.45,0.45,0.45,0.45,5200,0.45
2015-07-22,0.44,0.44,0.44,0.44,4700,0.44
2015-07-23,0.44,0.44,0.44,0.44,5200,0.44
2015-07-24,0.44,0.44,0.44,0.44,19700,0.44
2015-07-27,0.41,0.44,0.4,0.44,23500,0.44
2015-07-28,0.46,0.46,0.46,0.46,85000,0.46
2015-07-29,0.47,0.485,0.47,0.47,168500,0.47
2015-07-30,0.47,0.47,0.47,0.47,0,0.47
2015-07-31,0.485,0.5,0.485,0.5,493500,0.5
2015-08-03,0.49,0.49,0.49,0.49,3000,0.49
2015-08-04,0.49,0.49,0.49,0.49,1000,0.49
2015-08-05,0.49,0.49,0.49,0.49,0,0.49
2015-08-06,0.49,0.49,0.49,0.49,0,0.49
2015-08-07,0.46,0.49,0.46,0.49,73500,0.49
2015-08-10,0.49,0.49,0.49,0.49,20000,0.49
2015-08-11,0.49,0.49,0.46,0.46,71500,0.46
2015-08-12,0.5,0.5,0.49,0.49,52300,0.49
2015-08-13,0.49,0.49,0.49,0.49,0,0.49
2015-08-14,0.49,0.49,0.49,0.49,0,0.49
2015-08-17,0.51,0.57,0.51,0.57,117500,0.57
2015-08-18,0.57,0.57,0.57,0.57,0,0.57
2015-08-19,0.57,0.57,0.57,0.57,0,0.57
2015-08-20,0.53,0.59,0.53,0.59,144600,0.59
2015-08-21,0.63,0.67,0.59,0.67,158600,0.67
2015-08-24,0.65,0.67,0.6,0.67,489100,0.67
2015-08-25,0.67,0.68,0.65,0.68,1127200,0.68
2015-08-26,0.68,0.7,0.68,0.68,216300,0.68
2015-08-27,0.69,0.7,0.68,0.68,167400,0.68
2015-08-28,0.69,0.7,0.69,0.7,90100,0.7
2015-08-31,0.7,0.745,0.69,0.74,351900,0.74
2015-09-01,0.73,0.73,0.7,0.73,115100,0.73
2015-09-02,0.73,0.73,0.73,0.73,17000,0.73
2015-09-03,0.73,0.73,0.72,0.72,66000,0.72
2015-09-04,0.71,0.71,0.695,0.695,70900,0.695
2015-09-07,0.72,0.72,0.63,0.69,75000,0.69
2015-09-08,0.675,0.675,0.675,0.675,49400,0.675
2015-09-09,0.665,0.665,0.665,0.665,4200,0.665
2015-09-10,0.665,0.665,0.665,0.665,11300,0.665
2015-09-11,0.65,0.65,0.65,0.65,1500,0.65
2015-09-14,0.635,0.635,0.635,0.635,3200,0.635
2015-09-15,0.625,0.625,0.625,0.625,3300,0.625
2015-09-16,0.625,0.625,0.625,0.625,0,0.625
2015-09-17,0.61,0.61,0.61,0.61,3000,0.61
2015-09-18,0.61,0.61,0.61,0.61,2000,0.61
2015-09-21,0.61,0.62,0.61,0.62,91600,0.62
2015-09-22,0.62,0.66,0.62,0.66,35100,0.66
2015-09-23,0.64,0.66,0.64,0.66,71000,0.66
2015-09-24,0.66,0.665,0.64,0.66,66400,0.66
2015-09-25,0.66,0.66,0.66,0.66,9800,0.66
2015-09-28,0.665,0.685,0.66,0.68,240600,0.68
2015-09-29,0.69,0.75,0.69,0.75,178200,0.75
2015-09-30,0.76,0.8,0.76,0.8,111800,0.8
2015-10-01,0.81,0.82,0.78,0.78,35900,0.78
2015-10-02,0.78,0.89,0.78,0.865,132900,0.865
2015-10-05,0.845,0.845,0.76,0.8,74600,0.8
2015-10-06,0.8,0.8,0.8,0.8,28500,0.8
2015-10-07,0.75,0.78,0.735,0.78,56900,0.78
2015-10-08,0.77,0.8,0.77,0.78,21500,0.78
2015-10-09,0.755,0.78,0.75,0.765,48000,0.765
2015-10-12,0.75,0.75,0.745,0.745,2000,0.745
2015-10-13,0.75,0.75,0.735,0.745,96900,0.745
2015-10-14,0.735,0.735,0.735,0.735,15200,0.735
2015-10-15,0.75,0.8,0.75,0.8,272500,0.8
2015-10-16,0.8,0.87,0.8,0.86,107100,0.86
2015-10-19,0.895,0.94,0.895,0.94,244100,0.94
2015-10-20,0.94,0.94,0.92,0.92,56400,0.92
2015-10-21,0.91,0.92,0.91,0.92,20800,0.92
2015-10-22,0.92,0.92,0.92,0.92,0,0.92
2015-10-23,0.88,0.88,0.86,0.87,12900,0.87
2015-10-26,0.86,0.86,0.8,0.85,167900,0.85
2015-10-27,0.85,0.85,0.85,0.85,0,0.85
2015-10-28,0.82,0.84,0.81,0.83,60500,0.83
2015-10-29,0.83,0.84,0.81,0.84,30000,0.84
2015-10-30,0.82,0.84,0.8,0.83,49200,0.83
2015-11-02,0.81,0.81,0.81,0.81,15000,0.81
2015-11-03,0.81,0.81,0.78,0.81,16400,0.81
2015-11-04,0.81,0.81,0.81,0.81,0,0.81
2015-11-05,0.785,0.84,0.78,0.84,18400,0.84
2015-11-06,0.8,0.84,0.8,0.84,15000,0.84
2015-11-09,0.84,0.84,0.84,0.84,3100,0.84
2015-11-10,0.84,0.84,0.84,0.84,0,0.84
2015-11-11,0.83,0.83,0.83,0.83,5000,0.83
2015-11-12,0.83,0.83,0.83,0.83,3000,0.83
2015-11-13,0.83,0.83,0.8,0.8,10000,0.8
2015-11-16,0.79,0.79,0.79,0.79,1000,0.79
2015-11-17,0.79,0.8,0.79,0.8,69800,0.8
2015-11-18,0.82,0.82,0.82,0.82,87600,0.82
2015-11-19,0.82,0.82,0.82,0.82,0,0.82
2015-11-20,0.84,0.855,0.84,0.84,79800,0.84
2015-11-23,0.84,0.85,0.8,0.82,146600,0.82
2015-11-24,0.82,0.82,0.82,0.82,25000,0.82
2015-11-25,0.82,0.82,0.82,0.82,1000,0.82
2015-11-26,0.8,0.82,0.79,0.82,60500,0.82
2015-11-27,0.82,0.82,0.82,0.82,0,0.82
2015-11-30,0.8,0.85,0.8,0.83,103000,0.83
2015-12-01,0.83,0.83,0.83,0.83,5000,0.83
2015-12-02,0.83,0.83,0.83,0.83,0,0.83
2015-12-03,0.82,0.825,0.815,0.815,13000,0.815
2015-12-04,0.82,0.84,0.82,0.83,71900,0.83
2015-12-07,0.84,0.84,0.79,0.82,35200,0.82
2015-12-08,0.86,0.86,0.8,0.84,70800,0.84
2015-12-09,0.795,0.86,0.795,0.86,10400,0.86
2015-12-10,0.88,0.88,0.81,0.88,25600,0.88
2015-12-11,0.88,0.88,0.88,0.88,0,0.88
2015-12-14,0.85,0.885,0.81,0.885,30300,0.885
2015-12-15,0.88,0.88,0.81,0.88,37200,0.88
2015-12-16,0.85,0.88,0.84,0.88,20000,0.88
2015-12-17,0.88,0.88,0.88,0.88,0,0.88
2015-12-18,0.835,0.875,0.835,0.87,40300,0.87
2015-12-21,0.85,0.86,0.85,0.86,62300,0.86
2015-12-22,0.855,0.855,0.855,0.855,6100,0.855
2015-12-23,0.855,0.855,0.855,0.855,0,0.855
2015-12-24,0.855,0.855,0.855,0.855,0,0.855
2015-12-25,0.855,0.855,0.855,0.855,0,0.855
2015-12-28,0.855,0.855,0.855,0.855,0,0.855
2015-12-29,0.855,0.86,0.81,0.86,30600,0.86
2015-12-30,0.815,0.86,0.815,0.86,41200,0.86
2015-12-31,0.86,0.86,0.86,0.86,0,0.86
2016-01-01,0.86,0.86,0.86,0.86,0,0.86
2016-01-04,0.865,0.865,0.815,0.855,6300,0.855
2016-01-05,0.86,0.86,0.86,0.86,2000,0.86
2016-01-06,0.855,0.86,0.855,0.86,26000,0.86
2016-01-07,0.86,0.87,0.86,0.87,45400,0.87
2016-01-08,0.87,0.87,0.86,0.87,105600,0.87
2016-01-11,0.87,0.87,0.87,0.87,2300,0.87
2016-01-12,0.88,0.95,0.88,0.92,139500,0.92
2016-01-13,0.93,0.94,0.92,0.92,163200,0.92
2016-01-14,0.92,0.94,0.92,0.94,66700,0.94
2016-01-15,0.95,0.955,0.895,0.95,222900,0.95
2016-01-18,0.95,0.95,0.915,0.935,65400,0.935
2016-01-19,0.895,0.935,0.895,0.935,58400,0.935
2016-01-20,0.95,1.19,0.95,1.18,94500,1.18
2016-01-21,1.15,1.16,1.11,1.16,106900,1.16
2016-01-22,1.14,1.16,1.135,1.135,45300,1.135
2016-01-25,1.16,1.2,1.15,1.15,138400,1.15
2016-01-26,1.15,1.15,1.15,1.15,0,1.15
2016-01-27,1.06,1.135,1.01,1.13,275800,1.13
2016-01-28,1.1,1.12,1.1,1.12,80500,1.12
2016-01-29,1.145,1.15,1.145,1.145,7400,1.145
2016-02-01,1.14,1.14,1.05,1.13,12000,1.13
2016-02-02,1.12,1.12,1.11,1.12,76000,1.12
2016-02-03,1.11,1.12,1.11,1.12,84500,1.12
2016-02-04,1.11,1.11,1.11,1.11,81100,1.11
2016-02-05,1.11,1.13,1.1,1.12,49200,1.12
2016-02-08,1.1,1.12,1.1,1.12,88500,1.12
2016-02-09,1.12,1.14,1.12,1.14,23000,1.14
2016-02-10,1.14,1.145,1.07,1.14,181400,1.14
2016-02-11,1.16,1.22,1.16,1.2,169300,1.2
2016-02-12,1.19,1.19,1.14,1.19,70900,1.19
2016-02-15,1.19,1.19,1.19,1.19,0,1.19
2016-02-16,1.18,1.19,1.15,1.18,26700,1.18
2016-02-17,1.18,1.18,1.15,1.17,69100,1.17
2016-02-18,1.17,1.18,1.14,1.15,47800,1.15
2016-02-19,1.16,1.18,1.15,1.15,24000,1.15
2016-02-22,1.14,1.15,1.13,1.15,23400,1.15
2016-02-23,1.13,1.13,1.13,1.13,20000,1.13
2016-02-24,1.13,1.13,1.13,1.13,0,1.13
2016-02-25,1.13,1.13,1.13,1.13,0,1.13
2016-02-26,1.11,1.13,1.1,1.13,194500,1.13
2016-02-29,1.13,1.14,1.11,1.14,212600,1.14
2016-03-01,1.14,1.14,1.11,1.14,85800,1.14
2016-03-02,1.14,1.15,1.11,1.14,66000,1.14
2016-03-03,1.14,1.14,1.12,1.14,8500,1.14
2016-03-04,1.12,1.14,1.11,1.14,40100,1.14
2016-03-07,1.11,1.14,1.11,1.14,12200,1.14
2016-03-08,1.12,1.14,1.12,1.14,203700,1.14
2016-03-09,1.13,1.13,1.11,1.13,23700,1.13
2016-03-10,1.13,1.13,1.03,1.11,226900,1.11
2016-03-11,1.11,1.12,1.11,1.11,105800,1.11
2016-03-14,1.11,1.11,1.11,1.11,0,1.11
2016-03-15,1.12,1.12,1.1,1.11,29000,1.11
2016-03-16,1.11,1.11,1.11,1.11,0,1.11
2016-03-17,1.1,1.1,1.1,1.1,145800,1.1
2016-03-18,1.12,1.12,1.05,1.12,18800,1.12
2016-03-21,1.115,1.115,1.09,1.09,50200,1.09
2016-03-22,1.09,1.09,1.09,1.09,0,1.09
2016-03-23,1.05,1.08,1.05,1.08,60000,1.08
2016-03-24,1.08,1.08,1.08,1.08,10400,1.08
2016-03-25,1.08,1.08,1.08,1.08,0,1.08
2016-03-28,1.08,1.08,1.08,1.08,0,1.08
2016-03-29,1.1,1.12,1.08,1.12,90200,1.12
2016-03-30,1.12,1.12,1.12,1.12,9200,1.12
2016-03-31,1.12,1.12,1.08,1.1,56700,1.1
2016-04-01,1.1,1.1,1.1,1.1,0,1.1
2016-04-04,1.1,1.11,1.1,1.1,23000,1.1
2016-04-05,1.1,1.1,1.1,1.1,0,1.1
2016-04-06,1.1,1.1,1.1,1.1,44000,1.1
2016-04-07,1.1,1.1,1.07,1.1,64300,1.1
2016-04-08,1.1,1.1,1.07,1.09,64700,1.09
2016-04-11,1.09,1.09,1.05,1.07,79000,1.07
2016-04-12,1.07,1.09,1.06,1.06,68400,1.06
2016-04-13,1.07,1.075,1.06,1.075,20700,1.075
2016-04-14,1.025,1.05,1.01,1.05,9600,1.05
2016-04-15,1.05,1.05,1.03,1.03,15000,1.03
2016-04-18,1.03,1.03,1.03,1.03,7200,1.03
2016-04-19,1.06,1.06,1.03,1.03,35000,1.03
2016-04-20,1.05,1.05,1.02,1.035,46900,1.035
2016-04-21,1.035,1.035,1.03,1.03,12100,1.03
2016-04-22,1.02,1.03,0.985,1.03,51700,1.03
2016-04-25,1.03,1.03,1.03,1.03,0,1.03
2016-04-26,1.0,1.03,0.985,1.03,392100,1.03
2016-04-27,0.97,1.0,0.97,1.0,149700,1.0
2016-04-28,1.0,1.05,0.97,1.05,489400,1.05
2016-04-29,1.06,1.09,1.05,1.085,667800,1.085
2016-05-02,1.1,1.11,1.09,1.09,53300,1.09
2016-05-03,1.085,1.085,1.085,1.085,112500,1.085
2016-05-04,1.07,1.08,1.07,1.07,219000,1.07
2016-05-05,1.07,1.07,1.03,1.07,25200,1.07
2016-05-06,1.07,1.07,1.05,1.05,211700,1.05
2016-05-09,1.07,1.07,1.03,1.06,966700,1.06
2016-05-10,1.06,1.06,1.035,1.05,665000,1.05
2016-05-11,1.05,1.07,1.05,1.07,1073500,1.07
2016-05-12,1.07,1.11,1.07,1.11,1106100,1.11
2016-05-13,1.1,1.11,1.1,1.1,830000,1.1
2016-05-16,1.1,1.1,1.1,1.1,155100,1.1
2016-05-17,1.1,1.1,1.1,1.1,23500,1.1
2016-05-18,1.245,1.28,1.165,1.2,688200,1.2
2016-05-19,1.2,1.2,1.18,1.18,358200,1.18
2016-05-20,1.18,1.195,1.145,1.15,740400,1.15
2016-05-23,1.15,1.185,1.15,1.185,37100,1.185
2016-05-24,1.185,1.185,1.16,1.17,5200,1.17
2016-05-25,1.17,1.17,1.155,1.155,6900,1.155
2016-05-26,1.16,1.16,1.115,1.145,143600,1.145
2016-05-27,1.15,1.15,1.09,1.1,603400,1.1
2016-05-30,1.1,1.12,1.087,1.11,210100,1.11
2016-05-31,1.08,1.12,1.07,1.12,122700,1.12
2016-06-01,1.11,1.12,1.1,1.1,438400,1.1
2016-06-02,1.1,1.1,1.055,1.07,750700,1.07
2016-06-03,1.085,1.1,1.07,1.07,38600,1.07
2016-06-06,1.09,1.09,1.025,1.05,2225500,1.05
2016-06-07,1.08,1.085,1.055,1.085,578000,1.085
2016-06-08,1.075,1.075,1.04,1.075,110400,1.075
2016-06-09,1.075,1.075,1.055,1.065,71000,1.065
2016-06-10,1.065,1.075,1.05,1.05,25200,1.05
2016-06-13,1.05,1.05,1.05,1.05,0,1.05
2016-06-14,1.05,1.08,1.05,1.06,413700,1.06
2016-06-15,1.07,1.07,1.055,1.06,286500,1.06
2016-06-16,1.062,1.065,1.05,1.055,284300,1.055
2016-06-17,1.05,1.055,1.035,1.055,138200,1.055
2016-06-20,1.055,1.055,1.055,1.055,0,1.055
2016-06-21,1.05,1.05,0.98,1.045,165400,1.045
2016-06-22,1.035,1.04,0.995,1.035,66200,1.035
2016-06-23,1.035,1.035,0.99,1.0,231100,1.0
2016-06-24,0.99,1.01,0.95,1.0,77400,1.0
2016-06-27,1.0,1.0,0.98,1.0,34600,1.0
2016-06-28,0.965,1.0,0.9570000000000001,0.995,128900,0.995
2016-06-29,0.99,1.01,0.975,1.01,27700,1.01
2016-06-30,1.03,1.1,0.99,1.1,153400,1.1
2016-07-01,1.05,1.05,1.05,1.05,4800,1.05
2016-07-04,1.05,1.05,1.05,1.05,0,1.05
2016-07-05,1.09,1.09,1.05,1.05,800,1.05
2016-07-06,1.09,1.09,1.04,1.04,4900,1.04
2016-07-07,1.085,1.1,1.07,1.07,18800,1.07
2016-07-08,1.08,1.15,1.08,1.15,102600,1.15
2016-07-11,1.15,1.2,1.115,1.135,41300,1.135
2016-07-12,1.155,1.155,1.12,1.155,22300,1.155
2016-07-13,1.155,1.155,1.12,1.155,25200,1.155
2016-07-14,1.16,1.16,1.15,1.15,56400,1.15
2016-07-15,1.16,1.16,1.125,1.16,30700,1.16
2016-07-18,1.16,1.17,1.15,1.16,99200,1.16
2016-07-19,1.15,1.165,1.125,1.165,57700,1.165
2016-07-20,1.16,1.165,1.15,1.16,27900,1.16
2016-07-21,1.16,1.16,1.15,1.16,27700,1.16
2016-07-22,1.16,1.22,1.16,1.185,62400,1.185
2016-07-25,1.22,1.255,1.2,1.23,89000,1.23
2016-07-26,1.23,1.25,1.21,1.22,98200,1.22
2016-07-27,1.215,1.22,1.19,1.2,131100,1.2
2016-07-28,1.2,1.22,1.185,1.2,68100,1.2
2016-07-29,1.21,1.27,1.19,1.27,235300,1.27
2016-08-01,1.23,1.3,1.23,1.3,231500,1.3
2016-08-02,1.3,1.3119999999999998,1.29,1.3,268600,1.3
2016-08-03,1.29,1.3,1.28,1.29,49500,1.29
2016-08-04,1.29,1.35,1.285,1.3,89900,1.3
2016-08-05,1.31,1.35,1.31,1.31,42400,1.31
2016-08-08,1.34,1.34,1.285,1.31,35300,1.31
2016-08-09,1.31,1.34,1.31,1.34,87500,1.34
2016-08-10,1.32,1.32,1.295,1.3,93100,1.3
2016-08-11,1.3,1.31,1.3,1.3,23100,1.3
2016-08-12,1.3,1.3,1.27,1.28,166300,1.28
2016-08-15,1.25,1.28,1.235,1.28,63800,1.28
2016-08-16,1.29,1.29,1.245,1.28,26500,1.28
2016-08-17,1.245,1.275,1.245,1.25,78500,1.25
2016-08-18,1.23,1.25,1.23,1.245,16300,1.245
2016-08-19,1.23,1.255,1.23,1.25,82400,1.25
2016-08-22,1.25,1.255,1.235,1.255,84500,1.255
2016-08-23,1.255,1.255,1.25,1.255,50400,1.255
2016-08-24,1.25,1.255,1.25,1.25,30700,1.25
2016-08-25,1.25,1.25,1.24,1.25,75900,1.25
2016-08-26,1.245,1.245,1.2,1.24,24400,1.24
2016-08-29,1.2,1.235,1.18,1.22,166300,1.22
2016-08-30,1.22,1.24,1.2,1.24,226400,1.24
2016-08-31,1.24,1.3,1.24,1.3,95900,1.3
2016-09-01,1.3,1.3,1.28,1.3,43200,1.3
2016-09-02,1.3,1.3,1.245,1.28,36400,1.28
2016-09-05,1.275,1.3,1.275,1.3,17300,1.3
2016-09-06,1.29,1.29,1.25,1.285,28000,1.285
2016-09-07,1.28,1.28,1.28,1.28,11000,1.28
2016-09-08,1.29,1.29,1.29,1.29,2300,1.29
2016-09-09,1.31,1.32,1.31,1.32,33200,1.32
2016-09-12,1.29,1.29,1.25,1.29,6900,1.29
2016-09-13,1.3,1.3,1.285,1.3,20000,1.3
2016-09-14,1.285,1.3,1.27,1.28,4400,1.28
2016-09-15,1.28,1.28,1.28,1.28,5500,1.28
2016-09-16,1.28,1.29,1.26,1.29,16800,1.29
2016-09-19,1.25,1.25,1.25,1.25,13900,1.25
2016-09-20,1.28,1.28,1.28,1.28,8800,1.28
2016-09-21,1.25,1.3,1.25,1.3,34200,1.3
2016-09-22,1.3,1.3,1.3,1.3,0,1.3
2016-09-23,1.3,1.3,1.25,1.28,16000,1.28
2016-09-26,1.3,1.3,1.26,1.3,15300,1.3
2016-09-27,1.25,1.3,1.25,1.28,19000,1.28
2016-09-28,1.28,1.28,1.28,1.28,0,1.28
2016-09-29,1.27,1.27,1.25,1.27,6900,1.27
2016-09-30,1.25,1.28,1.23,1.27,76900,1.27
2016-10-03,1.275,1.275,1.23,1.26,1100,1.26
2016-10-04,1.275,1.275,1.23,1.27,1400,1.27
2016-10-05,1.28,1.28,1.25,1.27,15000,1.27
2016-10-06,1.275,1.275,1.25,1.26,4900,1.26
2016-10-07,1.26,1.26,1.26,1.26,0,1.26
2016-10-10,1.25,1.25,1.23,1.23,15200,1.23
2016-10-11,1.23,1.23,1.23,1.23,6400,1.23
2016-10-12,1.23,1.23,1.2,1.22,61700,1.22
2016-10-13,1.23,1.23,1.2,1.23,19400,1.23
2016-10-14,1.22,1.23,1.2,1.22,62600,1.22
2016-10-17,1.22,1.22,1.22,1.22,0,1.22
2016-10-18,1.22,1.22,1.22,1.22,0,1.22
2016-10-19,1.205,1.25,1.205,1.25,6500,1.25
2016-10-20,1.25,1.25,1.24,1.24,500,1.24
2016-10-21,1.24,1.24,1.24,1.24,0,1.24
2016-10-24,1.24,1.24,1.2,1.22,20200,1.22
2016-10-25,1.22,1.24,1.1,1.24,47700,1.24
2016-10-26,1.25,1.3,1.25,1.3,34200,1.3
2016-10-27,1.28,1.31,1.28,1.28,67700,1.28
2016-10-28,1.27,1.315,1.27,1.295,58400,1.295
2016-10-31,1.28,1.29,1.28,1.29,180700,1.29
2016-11-01,1.28,1.28,1.23,1.28,195500,1.28
2016-11-02,1.28,1.32,1.26,1.26,84300,1.26
2016-11-03,1.28,1.28,1.185,1.25,29800,1.25
2016-11-04,1.19,1.23,1.17,1.23,14200,1.23
2016-11-07,1.22,1.23,1.2,1.23,14700,1.23
2016-11-08,1.23,1.23,1.23,1.23,0,1.23
2016-11-09,1.22,1.27,1.2,1.24,68600,1.24
2016-11-10,1.27,1.27,1.17,1.2,111300,1.2
2016-11-11,1.205,1.205,1.19,1.19,24800,1.19
2016-11-14,1.19,1.23,1.19,1.19,22900,1.19
2016-11-15,1.19,1.19,1.19,1.19,0,1.19
2016-11-16,1.19,1.19,1.19,1.19,7100,1.19
2016-11-17,1.2,1.2,1.18,1.18,14900,1.18
2016-11-18,1.18,1.18,1.18,1.18,13000,1.18
2016-11-21,1.15,1.15,1.135,1.15,42100,1.15
2016-11-22,1.14,1.14,1.14,1.14,52100,1.14
2016-11-23,1.13,1.13,1.12,1.12,41000,1.12
2016-11-24,1.12,1.125,1.12,1.125,12000,1.125
2016-11-25,1.125,1.125,1.125,1.125,0,1.125
2016-11-28,1.11,1.125,1.11,1.12,29800,1.12
2016-11-29,1.115,1.12,1.11,1.12,33000,1.12
2016-11-30,1.11,1.11,1.1,1.11,121800,1.11
2016-12-01,1.1,1.1,1.09,1.09,7300,1.09
2016-12-02,1.08,1.08,1.06,1.06,5200,1.06
2016-12-05,1.06,1.06,1.06,1.06,0,1.06
2016-12-06,1.0,1.02,0.95,1.0,343500,1.0
2016-12-07,1.0,1.0,1.0,1.0,22600,1.0
2016-12-08,1.02,1.02,1.02,1.02,16000,1.02
2016-12-09,1.02,1.02,1.02,1.02,50000,1.02
2016-12-12,1.02,1.02,0.96,1.01,44100,1.01
2016-12-13,1.01,1.02,1.01,1.02,54600,1.02
2016-12-14,1.01,1.02,1.01,1.02,11100,1.02
2016-12-15,1.01,1.01,0.95,1.0,25800,1.0
2016-12-16,1.0,1.0,1.0,1.0,0,1.0
2016-12-19,1.0,1.0,1.0,1.0,0,1.0
2016-12-20,0.98,0.99,0.98,0.99,8600,0.99
2016-12-21,0.98,0.99,0.98,0.98,19600,0.98
2016-12-22,0.99,1.02,0.99,1.02,1400,1.02
2016-12-23,1.0,1.02,1.0,1.02,4900,1.02
2016-12-26,1.02,1.02,1.02,1.02,0,1.02
2016-12-27,1.02,1.02,1.02,1.02,0,1.02
2016-12-28,1.09,1.09,1.09,1.09,1300,1.09
2016-12-29,1.09,1.09,1.09,1.09,1000,1.09
2016-12-30,1.09,1.09,1.09,1.09,0,1.09
