Date,Open,High,Low,Close,Volume,Adj Close
2011-06-07,2.17,2.17,2.14,2.15,60900,1.7341
2011-06-08,2.15,2.15,2.1,2.1,23400,1.6937
2011-06-09,2.11,2.12,2.09,2.11,337300,1.7018
2011-06-10,2.14,2.14,2.1,2.11,133500,1.7018
2011-06-14,2.11,2.12,2.1,2.12,50400,1.7099
2011-06-15,2.11,2.12,2.11,2.12,318100,1.7099
2011-06-16,2.11,2.13,2.1,2.12,373500,1.7099
2011-06-17,2.12,2.12,2.01,2.01,18600,1.6211
2011-06-20,2.05,2.1,2.05,2.1,83500,1.6937
2011-06-21,2.05,2.1,2.0,2.0,34900,1.6131
2011-06-22,2.07,2.07,2.04,2.04,49900,1.6453
2011-06-23,2.04,2.07,2.0,2.07,159900,1.6695
2011-06-24,2.07,2.1,2.05,2.08,55900,1.6776
2011-06-27,2.07,2.08,2.03,2.07,3900,1.6695
2011-06-28,2.07,2.07,2.0,2.03,502200,1.6373
2011-06-29,1.99,2.07,1.99,2.06,7700,1.6615
2011-06-30,2.02,2.06,2.02,2.06,41600,1.6615
2011-07-01,2.04,2.07,2.04,2.07,82200,1.6695
2011-07-04,2.07,2.07,2.04,2.07,12600,1.6695
2011-07-05,2.07,2.08,2.07,2.08,19300,1.6776
2011-07-06,2.05,2.08,2.05,2.08,7100,1.6776
2011-07-07,2.08,2.08,2.06,2.08,278900,1.6776
2011-07-08,2.08,2.09,2.08,2.08,22200,1.6776
2011-07-11,2.08,2.09,2.08,2.08,45600,1.6776
2011-07-12,2.08,2.08,2.07,2.08,404400,1.6776
2011-07-13,2.08,2.08,2.08,2.08,700,1.6776
2011-07-14,2.08,2.09,2.08,2.09,770500,1.6857
2011-07-15,2.08,2.09,2.08,2.08,15500,1.6776
2011-07-18,2.08,2.11,2.08,2.1,73500,1.6937
2011-07-19,2.11,2.13,2.1,2.1,11800,1.6937
2011-07-20,2.1,2.1,2.1,2.1,8400,1.6937
2011-07-21,2.1,2.1,2.08,2.08,2100,1.6776
2011-07-22,2.1,2.1,2.1,2.1,45600,1.6937
2011-07-25,2.12,2.12,2.1,2.1,300,1.6937
2011-07-27,2.1,2.12,2.1,2.11,11600,1.7018
2011-07-28,2.13,2.13,2.1,2.1,3300,1.6937
2011-07-29,2.13,2.13,2.1,2.1,2300,1.6937
2011-08-01,2.1,2.13,2.07,2.13,4800,1.7179
2011-08-02,2.06,2.09,2.06,2.09,213500,1.6857
2011-08-03,2.09,2.09,2.06,2.09,8900,1.6857
2011-08-04,2.09,2.09,2.05,2.05,63900,1.6534
2011-08-05,1.99,1.99,1.98,1.98,6700,1.5969
2011-08-08,1.95,1.95,1.94,1.95,2200,1.5727
2011-08-09,1.81,1.85,1.81,1.84,208000,1.484
2011-08-10,1.88,1.88,1.83,1.88,188400,1.5163
2011-08-11,1.83,1.9,1.83,1.83,8500,1.476
2011-08-12,1.9,1.9,1.85,1.85,100,1.4921
2011-08-15,1.9,1.9,1.85,1.9,20400,1.5324
2011-08-16,1.84,1.98,1.84,1.95,67800,1.5727
2011-08-17,1.88,1.95,1.88,1.95,247900,1.5727
2011-08-18,1.95,1.95,1.83,1.86,10800,1.5002
2011-08-19,1.875,1.95,1.875,1.88,2031900,1.5163
2011-08-22,1.9,1.95,1.9,1.9,13800,1.5324
2011-08-23,1.9,1.905,1.9,1.9,9400,1.5324
2011-08-24,1.91,1.92,1.91,1.91,11600,1.5405
2011-08-25,1.91,1.95,1.9,1.95,34700,1.5727
2011-08-26,1.84,1.89,1.83,1.875,14800,1.5123
2011-08-29,1.875,1.95,1.87,1.875,23000,1.5123
2011-08-30,1.95,1.95,1.95,1.95,400,1.5727
2011-08-31,1.9,1.955,1.9,1.95,56800,1.5727
2011-09-01,1.98,1.99,1.98,1.99,14300,1.605
2011-09-02,1.985,1.985,1.98,1.98,5000,1.5969
2011-09-05,2.02,2.02,2.02,2.02,300,1.6292
2011-09-06,1.985,1.985,1.985,1.985,7000,1.601
2011-09-07,2.0,2.02,1.985,1.985,12500,1.601
2011-09-08,2.0,2.02,2.0,2.02,11300,1.6292
2011-09-09,2.0,2.02,1.95,1.95,20700,1.5727
2011-09-12,1.95,1.95,1.95,1.95,4900,1.5727
2011-09-13,1.95,2.02,1.93,2.02,796000,1.6292
2011-09-14,2.0,2.0,1.95,1.95,8700,1.5727
2011-09-15,1.95,1.95,1.95,1.95,3000,1.5727
2011-09-16,1.97,1.97,1.97,1.97,100,1.5889
2011-09-19,1.99,1.99,1.99,1.99,31400,1.605
2011-09-21,1.97,1.97,1.97,1.97,3200,1.5889
2011-09-22,1.99,1.99,1.97,1.99,25000,1.605
2011-09-23,1.97,1.97,1.945,1.95,20500,1.5727
2011-09-26,1.95,2.01,1.95,2.01,4000,1.6211
2011-09-27,1.95,2.0,1.95,1.98,40700,1.5969
2011-09-28,2.01,2.01,2.01,2.01,300,1.6211
2011-09-30,2.01,2.01,2.01,2.01,200,1.6211
2011-10-04,2.0,2.0,2.0,2.0,32700,1.6131
2011-10-05,2.0,2.0,2.0,2.0,200,1.6131
2011-10-06,2.0,2.0,2.0,2.0,200,1.6131
2011-10-07,1.885,1.92,1.885,1.92,3900,1.5486
2011-10-10,1.93,1.93,1.93,1.93,2800,1.5566
2011-10-12,2.0,2.0,2.0,2.0,300,1.6131
2011-10-13,2.0,2.0,2.0,2.0,100,1.6131
2011-10-14,2.0,2.0,2.0,2.0,100,1.6131
2011-10-17,1.95,1.95,1.95,1.95,1200,1.5727
2011-10-18,1.92,1.92,1.92,1.92,5500,1.5486
2011-10-19,2.0,2.0,2.0,2.0,12500,1.6131
2011-10-20,2.0,2.0,2.0,2.0,1800,1.6131
2011-10-21,2.0,2.01,2.0,2.0,22200,1.6131
2011-10-24,2.0,2.0,2.0,2.0,2800,1.6131
2011-10-25,2.03,2.03,2.0,2.03,31000,1.6373
2011-10-26,2.1,2.1,2.1,2.1,100,1.6937
2011-10-27,2.09,2.09,2.0,2.0,2400,1.6131
2011-10-28,2.11,2.17,2.05,2.14,2312300,1.726
2011-11-01,2.15,2.15,2.1,2.1,0,1.6937
2011-11-02,2.1,2.1,2.1,2.1,778100,1.6937
2011-11-03,1.975,1.995,1.975,1.99,29400,1.605
2011-11-11,2.13,2.13,2.07,2.12,95500,1.7099
2011-11-14,2.12,2.12,2.12,2.12,72200,1.7099
2011-11-15,2.12,2.12,2.05,2.05,10000,1.6534
2011-11-16,2.05,2.05,2.05,2.05,18300,1.6534
2011-11-17,2.05,2.05,2.05,2.05,0,1.6534
2011-11-18,2.0,2.04,1.99,1.99,21700,1.605
2011-11-21,2.05,2.1,2.05,2.1,9300,1.6937
2011-11-22,2.1,2.1,2.1,2.1,0,1.6937
2011-11-23,2.04,2.05,2.04,2.05,1400,1.6534
2011-11-24,2.05,2.05,2.03,2.04,70100,1.6453
2011-11-25,2.04,2.04,2.04,2.04,0,1.6453
2011-11-28,2.04,2.04,2.04,2.04,11200,1.6453
2011-11-29,2.04,2.04,2.0,2.04,5600,1.6453
2011-11-30,2.0,2.05,2.0,2.05,152000,1.6534
2011-12-01,2.05,2.1,2.05,2.1,187000,1.6937
2011-12-02,2.1,2.1,2.1,2.1,0,1.6937
2011-12-05,2.1,2.1,2.1,2.1,0,1.6937
2011-12-06,2.1,2.1,2.05,2.1,2700,1.6937
2011-12-07,2.05,2.1,2.05,2.1,12200,1.6937
2011-12-08,2.1,2.1,2.1,2.1,0,1.6937
2011-12-09,2.1,2.1,2.1,2.1,0,1.6937
2011-12-12,2.1,2.1,2.1,2.1,0,1.6937
2011-12-13,2.09,2.1,2.09,2.1,31000,1.6937
2011-12-14,2.05,2.05,2.05,2.05,1100,1.6534
2011-12-15,2.05,2.05,2.05,2.05,15000,1.6534
2011-12-16,2.1,2.12,2.1,2.12,6100,1.7099
2011-12-19,2.0,2.0,1.99,1.99,6200,1.605
2011-12-20,2.08,2.1,2.08,2.1,1100,1.6937
2011-12-21,2.11,2.13,2.1,2.1,13700,1.6937
2011-12-22,2.1,2.1,2.1,2.1,149700,1.6937
2011-12-23,2.1,2.1,2.1,2.1,0,1.6937
2011-12-26,2.1,2.1,2.1,2.1,0,1.6937
2011-12-27,2.1,2.1,2.1,2.1,0,1.6937
2011-12-28,2.1,2.1,2.1,2.1,0,1.6937
2011-12-29,2.1,2.1,2.1,2.1,0,1.6937
2011-12-30,2.1,2.1,2.05,2.1,10600,1.6937
2012-01-02,2.1,2.1,2.1,2.1,0,1.6937
2012-01-03,2.1,2.1,2.1,2.1,0,1.6937
2012-01-04,2.09,2.09,2.09,2.09,2900,1.6857
2012-01-05,2.09,2.09,2.09,2.09,0,1.6857
2012-01-06,2.09,2.09,2.09,2.09,400,1.6857
2012-01-09,2.09,2.09,2.09,2.09,0,1.6857
2012-01-10,2.09,2.09,2.09,2.09,0,1.6857
2012-01-11,2.05,2.05,1.99,2.05,1000,1.6534
2012-01-12,2.05,2.05,2.05,2.05,200,1.6534
2012-01-13,2.05,2.05,2.05,2.05,0,1.6534
2012-01-16,2.05,2.05,2.05,2.05,0,1.6534
2012-01-17,2.05,2.05,2.05,2.05,0,1.6534
2012-01-18,2.03,2.05,2.03,2.05,3100,1.6534
2012-01-19,1.99,1.99,1.99,1.99,1835900,1.605
2012-01-20,1.99,1.99,1.855,1.95,529900,1.5727
2012-01-23,1.88,1.88,1.88,1.88,22000,1.5163
2012-01-24,1.88,1.88,1.88,1.88,0,1.5163
2012-01-25,1.9,1.9,1.9,1.9,1000,1.5324
2012-01-26,1.9,1.9,1.9,1.9,0,1.5324
2012-01-27,1.96,1.96,1.96,1.96,10000,1.5808
2012-01-31,2.02,2.02,2.02,2.02,111600,1.6292
2012-02-01,2.02,2.02,2.02,2.02,0,1.6292
2012-02-02,2.02,2.02,2.02,2.02,0,1.6292
2012-02-03,2.0,2.0,2.0,2.0,40100,1.6131
2012-02-06,2.0,2.0,2.0,2.0,14500,1.6131
2012-02-07,2.0,2.0,2.0,2.0,0,1.6131
2012-02-08,2.0,2.0,2.0,2.0,26500,1.6131
2012-02-09,2.0,2.0,2.0,2.0,0,1.6131
2012-02-10,2.0,2.0,2.0,2.0,1300,1.6131
2012-02-13,2.0,2.0,2.0,2.0,0,1.6131
2012-02-14,2.03,2.03,2.03,2.03,1800,1.6373
2012-02-15,2.06,2.06,2.06,2.06,97600,1.6615
2012-02-16,2.06,2.06,2.06,2.06,0,1.6615
2012-02-17,2.07,2.07,2.07,2.07,2035300,1.6695
2012-02-20,2.08,2.08,2.06,2.06,3000,1.6615
2012-02-21,2.08,2.08,2.07,2.07,11100,1.6695
2012-02-22,2.07,2.07,2.05,2.05,20000,1.6534
2012-02-23,2.05,2.05,2.05,2.05,600,1.6534
2012-02-24,2.05,2.05,2.05,2.05,0,1.6534
2012-02-27,2.0,2.0,1.96,2.0,30600,1.6131
2012-02-28,2.0,2.0,2.0,2.0,0,1.6131
2012-02-29,2.0,2.0,2.0,2.0,15400,1.6131
2012-03-01,2.0,2.0,2.0,2.0,50000,1.6131
2012-03-02,2.0,2.0,2.0,2.0,1900,1.6131
2012-03-05,2.05,2.05,2.05,2.05,400,1.6534
2012-03-06,2.0,2.0,2.0,2.0,0,1.6131
2012-03-07,2.0,2.0,2.0,2.0,0,1.6131
2012-03-08,2.0,2.0,2.0,2.0,0,1.6131
2012-03-09,2.0,2.0,1.9,1.9,165300,1.5324
2012-03-12,1.9,1.9,1.9,1.9,27500,1.5324
2012-03-13,1.94,1.94,1.94,1.94,2000,1.5647
2012-03-14,1.94,1.94,1.94,1.94,0,1.6021
2012-03-15,1.94,1.94,1.94,1.94,0,1.6021
2012-03-16,1.96,1.96,1.95,1.95,10000,1.6103
2012-03-19,1.96,1.96,1.96,1.96,11400,1.6186
2012-03-20,1.96,1.96,1.96,1.96,619000,1.6186
2012-03-21,1.96,1.96,1.96,1.96,0,1.6186
2012-03-22,1.96,1.96,1.94,1.96,301500,1.6186
2012-03-23,1.96,1.96,1.94,1.94,114000,1.6021
2012-03-26,1.96,1.96,1.94,1.94,45500,1.6021
2012-03-27,1.94,1.94,1.94,1.94,43800,1.6021
2012-03-28,1.96,1.96,1.96,1.96,1000,1.6186
2012-03-29,1.94,1.94,1.94,1.94,1500,1.6021
2012-03-30,1.94,1.94,1.94,1.94,0,1.6021
2012-04-02,1.96,1.96,1.94,1.96,11600,1.6186
2012-04-03,1.95,1.95,1.95,1.95,500,1.6103
2012-04-04,1.95,1.95,1.95,1.95,0,1.6103
2012-04-05,1.96,1.96,1.96,1.96,33300,1.6186
2012-04-06,1.96,1.96,1.96,1.96,0,1.6186
2012-04-09,1.96,1.96,1.96,1.96,0,1.6186
2012-04-10,1.95,1.95,1.95,1.95,2000,1.6103
2012-04-11,1.95,1.95,1.94,1.94,25000,1.6021
2012-04-12,1.94,1.94,1.94,1.94,11600,1.6021
2012-04-13,1.94,1.94,1.94,1.94,0,1.6021
2012-04-16,1.9,1.9,1.9,1.9,2000,1.5691
2012-04-17,1.9,1.9,1.9,1.9,5200,1.5691
2012-04-18,1.905,1.905,1.905,1.905,200,1.5732
2012-04-19,1.95,1.95,1.95,1.95,39400,1.6103
2012-04-20,1.95,1.95,1.95,1.95,0,1.6103
2012-04-23,1.95,1.95,1.95,1.95,0,1.6103
2012-04-24,1.95,1.95,1.95,1.95,0,1.6103
2012-04-25,1.95,1.95,1.95,1.95,0,1.6103
2012-04-26,1.94,1.96,1.9,1.96,163300,1.6186
2012-04-27,1.96,1.96,1.96,1.96,0,1.6186
2012-04-30,1.96,1.96,1.96,1.96,0,1.6186
2012-05-01,1.96,2.0,1.96,1.99,76000,1.6434
2012-05-02,1.99,1.99,1.99,1.99,0,1.6434
2012-05-03,2.0,2.0,2.0,2.0,9000,1.6516
2012-05-04,2.03,2.05,2.0,2.02,182400,1.6681
2012-05-07,2.01,2.03,2.0,2.0,43800,1.6516
2012-05-08,2.05,2.05,2.05,2.05,35800,1.6929
2012-05-09,2.07,2.1,2.07,2.1,28300,1.7342
2012-05-10,2.1,2.1,2.1,2.1,255100,1.7342
2012-05-11,2.1,2.1,2.1,2.1,4500,1.7342
2012-05-14,2.1,2.1,2.1,2.1,42600,1.7342
2012-05-15,2.11,2.11,2.1,2.1,1014200,1.7342
2012-05-16,2.1,2.1,2.1,2.1,2300,1.7342
2012-05-17,2.1,2.1,2.1,2.1,22400,1.7342
2012-05-18,2.05,2.05,2.05,2.05,20000,1.6929
2012-05-21,2.05,2.05,2.05,2.05,1100,1.6929
2012-05-22,2.1,2.11,2.1,2.11,4900,1.7425
2012-05-23,2.11,2.11,2.11,2.11,1000,1.7425
2012-05-24,2.11,2.11,2.11,2.11,6000,1.7425
2012-05-25,2.11,2.11,2.11,2.11,10200,1.7425
2012-05-28,2.11,2.11,2.11,2.11,0,1.7425
2012-05-29,2.08,2.08,2.08,2.08,20000,1.7177
2012-05-30,2.06,2.06,2.02,2.02,1174900,1.6681
2012-05-31,2.04,2.05,2.04,2.05,400000,1.6929
2012-06-01,1.97,1.97,1.97,1.97,1008500,1.6269
2012-06-04,2.0,2.1,2.0,2.1,24500,1.7342
2012-06-05,2.1,2.1,2.1,2.1,3200,1.7342
2012-06-06,2.1,2.1,2.1,2.1,16500,1.7342
2012-06-07,2.1,2.12,2.1,2.12,56400,1.7507
2012-06-08,2.1,2.1,2.1,2.1,2600,1.7342
2012-06-11,2.1,2.1,2.1,2.1,0,1.7342
2012-06-12,2.1,2.1,2.1,2.1,0,1.7342
2012-06-13,2.1,2.1,2.1,2.1,0,1.7342
2012-06-14,2.1,2.1,2.1,2.1,0,1.7342
2012-06-15,2.08,2.08,2.08,2.08,200,1.7177
2012-06-18,2.05,2.1,2.05,2.1,27800,1.7342
2012-06-19,2.12,2.12,2.12,2.12,1900,1.7507
2012-06-20,2.12,2.12,2.12,2.12,25000,1.7507
2012-06-21,2.1,2.11,2.1,2.11,33200,1.7425
2012-06-22,2.1,2.1,2.1,2.1,170000,1.7342
2012-06-25,2.1,2.1,2.1,2.1,400000,1.7342
2012-06-26,2.1,2.1,2.1,2.1,11900,1.7342
2012-06-27,2.1,2.1,2.1,2.1,3700,1.7342
2012-06-28,2.12,2.13,2.12,2.12,57700,1.7507
2012-06-29,2.12,2.12,2.12,2.12,40500,1.7507
2012-07-02,2.12,2.12,2.12,2.12,0,1.7507
2012-07-03,2.12,2.12,2.12,2.12,113200,1.7507
2012-07-04,2.12,2.12,2.12,2.12,569000,1.7507
2012-07-05,2.12,2.12,2.12,2.12,2200,1.7507
2012-07-06,2.12,2.13,2.12,2.12,14300,1.7507
2012-07-09,2.12,2.12,2.12,2.12,0,1.7507
2012-07-10,2.12,2.12,2.12,2.12,0,1.7507
2012-07-11,2.01,2.13,2.01,2.13,508800,1.7590000000000001
2012-07-12,2.13,2.13,2.13,2.13,0,1.7590000000000001
2012-07-13,2.01,2.01,2.01,2.01,1000,1.6599
2012-07-16,2.01,2.01,2.01,2.01,0,1.6599
2012-07-17,2.01,2.01,2.01,2.01,0,1.6599
2012-07-18,2.01,2.01,2.01,2.01,0,1.6599
2012-07-19,2.01,2.01,2.01,2.01,0,1.6599
2012-07-20,2.01,2.01,2.01,2.01,0,1.6599
2012-07-23,2.04,2.04,2.04,2.04,1078900,1.6847
2012-07-24,2.04,2.04,2.04,2.04,0,1.6847
2012-07-25,2.04,2.05,2.04,2.05,9000,1.6929
2012-07-26,2.04,2.04,2.04,2.04,1400,1.6847
2012-07-27,2.04,2.04,2.04,2.04,0,1.6847
2012-07-30,2.04,2.04,2.04,2.04,0,1.6847
2012-07-31,2.13,2.15,2.08,2.08,6500,1.7177
2012-08-01,2.06,2.06,2.04,2.04,7700,1.6847
2012-08-02,2.05,2.05,2.05,2.05,1300,1.6929
2012-08-03,2.05,2.05,2.05,2.05,0,1.6929
2012-08-06,2.05,2.05,2.05,2.05,0,1.6929
2012-08-07,2.05,2.05,2.05,2.05,0,1.6929
2012-08-08,2.08,2.08,2.08,2.08,11300,1.7177
2012-08-09,2.09,2.09,2.08,2.08,10000,1.7177
2012-08-10,2.09,2.09,2.09,2.09,2000,1.726
2012-08-13,2.11,2.12,2.11,2.12,36200,1.7507
2012-08-14,2.12,2.12,2.12,2.12,300,1.7507
2012-08-15,2.13,2.13,2.12,2.12,24000,1.7507
2012-08-16,2.15,2.15,2.15,2.15,4000,1.7755
2012-08-17,2.2,2.2,2.15,2.17,39000,1.7919999999999998
2012-08-20,2.22,2.3,2.22,2.3,41400,1.8994
2012-08-21,2.3,2.3,2.3,2.3,0,1.8994
2012-08-22,2.3,2.3,2.3,2.3,0,1.8994
2012-08-23,2.3,2.3,2.3,2.3,0,1.8994
2012-08-24,2.3,2.3,2.3,2.3,4400,1.8994
2012-08-27,2.32,2.33,2.32,2.33,35000,1.9242
2012-08-28,2.33,2.41,2.3,2.41,3100,1.9902
2012-08-29,2.3,2.3,2.3,2.3,9100,1.8994
2012-08-30,2.3,2.3,2.3,2.3,0,1.8994
2012-08-31,2.3,2.3,2.3,2.3,50000,1.8994
2012-09-03,2.3,2.3,2.3,2.3,0,1.8994
2012-09-04,2.3,2.3,2.3,2.3,0,1.8994
2012-09-05,2.25,2.25,2.25,2.25,500,1.8581
2012-09-06,2.25,2.25,2.25,2.25,0,1.8581
2012-09-07,2.25,2.25,2.25,2.25,0,1.8581
2012-09-10,2.25,2.25,2.25,2.25,0,1.8581
2012-09-11,2.25,2.25,2.25,2.25,0,1.8581
2012-09-12,2.25,2.25,2.25,2.25,0,1.8581
2012-09-13,2.25,2.25,2.25,2.25,0,1.8581
2012-09-14,2.2,2.2,2.2,2.2,699500,1.8426
2012-09-17,2.2,2.2,2.2,2.2,0,1.8426
2012-09-18,2.2,2.2,2.2,2.2,0,1.8426
2012-09-19,2.2,2.2,2.2,2.2,0,1.8426
2012-09-20,2.2,2.2,2.2,2.2,0,1.8426
2012-09-21,2.21,2.21,2.2,2.2,15000,1.8426
2012-09-24,2.2,2.2,2.2,2.2,0,1.8426
2012-09-25,2.2,2.2,2.2,2.2,0,1.8426
2012-09-26,2.2,2.2,2.2,2.2,3000,1.8426
2012-09-27,2.22,2.22,2.22,2.22,1000,1.8593
2012-09-28,2.2,2.2,2.2,2.2,5400,1.8426
2012-10-01,2.2,2.2,2.2,2.2,0,1.8426
2012-10-02,2.2,2.2,2.2,2.2,6400,1.8426
2012-10-03,2.2,2.2,2.2,2.2,0,1.8426
2012-10-04,2.22,2.22,2.22,2.22,5000,1.8593
2012-10-05,2.22,2.22,2.2,2.2,12700,1.8426
2012-10-08,2.2,2.2,2.2,2.2,0,1.8426
2012-10-09,2.2,2.2,2.2,2.2,0,1.8426
2012-10-10,2.2,2.2,2.2,2.2,0,1.8426
2012-10-11,2.2,2.2,2.2,2.2,0,1.8426
2012-10-12,2.22,2.22,2.2,2.2,15500,1.8426
2012-10-15,2.2,2.2,2.2,2.2,0,1.8426
2012-10-16,2.25,2.26,2.25,2.26,9500,1.8928
2012-10-17,2.28,2.29,2.28,2.29,1000,1.9180000000000001
2012-10-18,2.29,2.29,2.29,2.29,0,1.9180000000000001
2012-10-19,2.29,2.29,2.29,2.29,0,1.9180000000000001
2012-10-22,2.29,2.29,2.29,2.29,0,1.9180000000000001
2012-10-23,2.29,2.29,2.29,2.29,0,1.9180000000000001
2012-10-24,2.29,2.29,2.29,2.29,0,1.9180000000000001
2012-10-25,2.29,2.3,2.29,2.3,700,1.9263
2012-10-26,2.2,2.2,2.2,2.2,10000,1.8426
2012-10-29,2.21,2.4,2.21,2.4,3000,2.0101
2012-10-30,2.4,2.4,2.4,2.4,600,2.0101
2012-10-31,2.4,2.4,2.4,2.4,4800,2.0101
2012-11-01,2.4,2.4,2.4,2.4,0,2.0101
2012-11-02,2.4,2.4,2.4,2.4,0,2.0101
2012-11-05,2.4,2.4,2.4,2.4,0,2.0101
2012-11-06,2.25,2.25,2.25,2.25,95200,1.8845
2012-11-07,2.25,2.25,2.25,2.25,0,1.8845
2012-11-08,2.25,2.25,2.25,2.25,0,1.8845
2012-11-09,2.25,2.25,2.25,2.24,500,1.8761
2012-11-12,2.23,2.25,2.21,2.25,262600,1.8845
2012-11-13,2.25,2.25,2.25,2.25,2900,1.8845
2012-11-14,2.31,2.35,2.31,2.35,6000,1.9682
2012-11-15,2.35,2.35,2.35,2.35,58500,1.9682
2012-11-16,2.35,2.4,2.35,2.35,24600,1.9682
2012-11-19,2.35,2.35,2.35,2.35,1100,1.9682
2012-11-20,2.35,2.35,2.35,2.35,112100,1.9682
2012-11-21,2.35,2.35,2.34,2.34,18800,1.9598
2012-11-22,2.3,2.35,2.3,2.35,7400,1.9682
2012-11-23,2.34,2.34,2.34,2.34,3000,1.9598
2012-11-26,2.34,2.35,2.34,2.35,78800,1.9682
2012-11-27,2.35,2.35,2.3,2.3,30200,1.9263
2012-11-28,2.3,2.3,2.29,2.3,12900,1.9263
2012-11-29,2.3,2.3,2.3,2.3,22700,1.9263
2012-11-30,2.3,2.35,2.3,2.35,41500,1.9682
2012-12-03,2.35,2.37,2.35,2.35,60200,1.9682
2012-12-04,2.35,2.35,2.35,2.35,28200,1.9682
2012-12-05,2.35,2.5,2.35,2.35,428500,1.9682
2012-12-06,2.4,2.4,2.4,2.4,5400,2.0101
2012-12-07,2.4,2.4,2.4,2.4,0,2.0101
2012-12-10,2.4,2.4,2.4,2.4,0,2.0101
2012-12-11,2.3,2.32,2.3,2.3,8200,1.9263
2012-12-12,2.35,2.35,2.35,2.35,46900,1.9682
2012-12-13,2.35,2.37,2.35,2.35,50000,1.9682
2012-12-14,2.35,2.35,2.35,2.35,0,1.9682
2012-12-17,2.35,2.35,2.35,2.35,0,1.9682
2012-12-18,2.35,2.39,2.35,2.38,193900,1.9933
2012-12-19,2.4,2.41,2.38,2.38,37600,1.9933
2012-12-20,2.38,2.38,2.38,2.38,0,1.9933
2012-12-21,2.39,2.4,2.38,2.4,29100,2.0101
2012-12-24,2.4,2.4,2.4,2.4,0,2.0101
2012-12-25,2.4,2.4,2.4,2.4,0,2.0101
2012-12-26,2.4,2.4,2.4,2.4,0,2.0101
2012-12-27,2.36,2.36,2.36,2.36,14200,1.9766
2012-12-28,2.4,2.4,2.4,2.4,2700,2.0101
2012-12-31,2.45,2.62,2.45,2.62,30500,2.1944
2013-01-01,2.62,2.62,2.62,2.62,0,2.1944
2013-01-02,2.62,2.62,2.49,2.49,3200,2.0855
2013-01-03,2.52,2.52,2.49,2.49,13100,2.0855
2013-01-04,2.5,2.5,2.5,2.5,1100,2.0939
2013-01-07,2.55,2.55,2.5,2.5,5400,2.0939
2013-01-08,2.5,2.53,2.5,2.5,25400,2.0939
2013-01-09,2.5,2.5,2.5,2.5,0,2.0939
2013-01-10,2.5,2.5,2.5,2.5,0,2.0939
2013-01-11,2.5,2.5,2.5,2.5,0,2.0939
2013-01-14,2.51,2.51,2.51,2.51,10400,2.1022
2013-01-15,2.53,2.53,2.51,2.51,9800,2.1022
2013-01-16,2.51,2.53,2.51,2.51,15000,2.1022
2013-01-17,2.51,2.51,2.51,2.51,0,2.1022
2013-01-18,2.6,2.6,2.54,2.57,8800,2.1525
2013-01-21,2.57,2.57,2.57,2.57,0,2.1525
2013-01-22,2.5,2.55,2.49,2.51,3900,2.1022
2013-01-24,2.51,2.51,2.51,2.51,0,2.1022
2013-01-25,2.51,2.51,2.51,2.51,0,2.1022
2013-01-28,2.51,2.51,2.51,2.51,0,2.1022
2013-01-29,2.6,2.6,2.6,2.6,11100,2.1776
2013-01-30,2.6,2.6,2.6,2.6,5000,2.1776
2013-01-31,2.58,2.58,2.58,2.58,2000,2.1609
2013-02-01,2.55,2.55,2.51,2.51,2700,2.1022
2013-02-04,2.51,2.51,2.51,2.51,5500,2.1022
2013-02-05,2.55,2.55,2.55,2.55,5000,2.1357
2013-02-06,2.61,2.72,2.61,2.72,1010700,2.2781
2013-02-07,2.72,2.75,2.72,2.75,28800,2.3032
2013-02-08,2.75,2.81,2.75,2.81,227000,2.3535
2013-02-11,2.83,2.96,2.83,2.96,61600,2.4791
2013-02-12,2.94,2.94,2.94,2.94,4000,2.4624
2013-02-13,2.93,2.95,2.92,2.94,19800,2.4624
2013-02-14,2.97,2.97,2.97,2.97,3700,2.4875
2013-02-15,3.0,3.05,3.0,3.05,18800,2.5545
2013-02-18,3.04,3.04,3.04,3.04,600,2.5461
2013-02-19,3.04,3.04,3.04,3.04,3200,2.5461
2013-02-20,3.04,3.04,3.04,3.04,0,2.5461
2013-02-21,2.93,2.93,2.93,2.93,37200,2.454
2013-02-22,2.93,2.93,2.93,2.93,22800,2.454
2013-02-25,2.93,2.93,2.93,2.93,0,2.454
2013-02-26,2.92,2.96,2.92,2.96,1600,2.4791
2013-02-27,2.96,2.96,2.96,2.96,0,2.4791
2013-02-28,2.96,2.96,2.96,2.96,0,2.4791
2013-03-01,3.0,3.0,3.0,3.0,2000,2.5126
2013-03-04,3.0,3.0,3.0,3.0,0,2.5126
2013-03-05,3.0,3.0,3.0,3.0,13000,2.5126
2013-03-06,3.0,3.0,3.0,3.0,0,2.5126
2013-03-07,3.0,3.0,3.0,3.0,538700,2.5126
2013-03-08,3.0,3.03,3.0,3.0,30700,2.5126
2013-03-11,3.0,3.0,3.0,3.0,10000,2.5126
2013-03-12,3.01,3.01,3.0,3.0,381000,2.5126
2013-03-13,2.96,2.98,2.96,2.98,43000,2.5224
2013-03-14,2.98,2.98,2.98,2.98,0,2.5224
2013-03-15,2.98,2.98,2.98,2.98,0,2.5224
2013-03-18,2.96,2.96,2.96,2.96,5000,2.5054
2013-03-19,2.95,3.0,2.95,3.0,18000,2.5393
2013-03-20,3.0,3.0,2.96,3.0,13100,2.5393
2013-03-21,2.96,3.0,2.95,2.95,3500,2.497
2013-03-22,3.0,3.0,2.95,2.95,300,2.497
2013-03-25,2.95,2.95,2.95,2.95,5000,2.497
2013-03-26,2.95,3.0,2.95,3.0,1800,2.5393
2013-03-27,3.0,3.0,3.0,3.0,19000,2.5393
2013-03-28,2.9,2.99,2.9,2.99,3000,2.5308
2013-03-29,2.99,2.99,2.99,2.99,0,2.5308
2013-04-01,2.99,2.99,2.99,2.99,0,2.5308
2013-04-02,2.99,2.99,2.99,2.99,0,2.5308
2013-04-03,2.99,3.0,2.99,3.0,135400,2.5393
2013-04-04,3.0,3.0,3.0,3.0,0,2.5393
2013-04-05,3.0,3.0,2.97,2.98,16600,2.5224
2013-04-08,2.98,2.99,2.98,2.98,3500,2.5224
2013-04-09,2.98,2.98,2.98,2.98,200,2.5224
2013-04-10,2.95,2.95,2.95,2.95,200,2.497
2013-04-11,2.95,2.95,2.95,2.95,10000,2.497
2013-04-12,2.95,3.01,2.95,3.0,126800,2.5393
2013-04-15,3.0,3.0,3.0,3.0,0,2.5393
2013-04-16,2.97,2.97,2.97,2.97,1200,2.5139
2013-04-17,2.97,2.97,2.97,2.97,0,2.5139
2013-04-18,2.97,2.97,2.97,2.97,0,2.5139
2013-04-19,3.02,3.05,3.02,3.05,6300,2.5816
2013-04-22,3.05,3.05,3.05,3.05,0,2.5816
2013-04-23,3.05,3.06,3.05,3.06,112300,2.5901
2013-04-24,3.08,3.09,3.08,3.09,500,2.6155
2013-04-25,3.09,3.09,3.09,3.09,0,2.6155
2013-04-26,3.06,3.08,3.06,3.08,5700,2.6069999999999998
2013-04-29,3.09,3.11,3.09,3.11,500,2.6324
2013-04-30,3.1,3.11,3.1,3.1,50400,2.6239
2013-05-01,3.08,3.15,3.08,3.08,22600,2.6069999999999998
2013-05-02,3.1,3.1,3.1,3.1,30000,2.6239
2013-05-03,3.14,3.14,3.09,3.09,9100,2.6155
2013-05-06,3.08,3.08,3.07,3.07,12200,2.5985
2013-05-07,3.07,3.07,3.03,3.03,9900,2.5647
2013-05-08,3.05,3.05,3.05,3.05,337300,2.5816
2013-05-09,3.06,3.06,3.06,3.06,2000,2.5901
2013-05-10,3.06,3.06,3.06,3.06,3000,2.5901
2013-05-13,3.05,3.05,3.05,3.05,900,2.5816
2013-05-14,3.05,3.05,3.05,3.05,1000,2.5816
2013-05-15,3.05,3.05,3.0,3.0,10300,2.5393
2013-05-16,3.0,3.0,3.0,3.0,0,2.5393
2013-05-17,3.0,3.0,3.0,3.0,0,2.5393
2013-05-20,3.02,3.02,3.0,3.0,9800,2.5393
2013-05-21,2.97,3.0,2.97,3.0,3000,2.5393
2013-05-22,2.95,2.95,2.95,2.95,364400,2.497
2013-05-23,2.95,2.95,2.95,2.95,0,2.497
2013-05-24,2.95,2.95,2.95,2.95,2900,2.497
2013-05-27,2.95,2.95,2.9,2.95,27500,2.497
2013-05-28,2.95,2.95,2.95,2.95,0,2.497
2013-05-29,2.95,2.95,2.95,2.95,0,2.497
2013-05-30,2.86,2.91,2.85,2.9,237100,2.4546
2013-05-31,2.9,2.9,2.9,2.9,0,2.4546
2013-06-03,2.87,2.91,2.85,2.88,42800,2.4377
2013-06-04,2.91,2.91,2.91,2.91,700,2.4631
2013-06-05,2.91,2.91,2.91,2.91,153400,2.4631
2013-06-06,2.8,2.83,2.8,2.83,232500,2.3954
2013-06-07,2.83,2.84,2.83,2.83,4000,2.3954
2013-06-10,2.83,2.83,2.83,2.83,0,2.3954
2013-06-11,2.82,2.86,2.82,2.85,45000,2.4123
2013-06-12,2.85,2.85,2.85,2.85,0,2.4123
2013-06-13,2.85,2.85,2.85,2.85,0,2.4123
2013-06-14,2.85,2.9,2.85,2.9,12000,2.4546
2013-06-17,2.9,2.9,2.9,2.9,27800,2.4546
2013-06-18,2.9,2.9,2.9,2.9,100,2.4546
2013-06-19,2.83,2.83,2.83,2.83,200,2.3954
2013-06-20,2.83,2.83,2.83,2.83,0,2.3954
2013-06-21,2.85,2.89,2.85,2.85,11000,2.4123
2013-06-24,2.8,2.8,2.8,2.8,3000,2.37
2013-06-25,2.8,2.81,2.8,2.8,86500,2.37
2013-06-26,2.79,2.79,2.79,2.79,1700,2.3615
2013-06-27,2.79,2.79,2.79,2.79,0,2.3615
2013-06-28,2.75,2.75,2.75,2.75,200,2.3277
2013-07-01,2.75,2.8,2.75,2.75,187500,2.3277
2013-07-02,2.745,2.75,2.74,2.75,210400,2.3277
2013-07-03,2.75,2.75,2.73,2.735,109100,2.315
2013-07-04,2.73,2.735,2.73,2.735,138600,2.315
2013-07-05,2.75,2.75,2.75,2.75,220000,2.3277
2013-07-08,2.75,2.75,2.75,2.75,0,2.3277
2013-07-09,2.75,2.75,2.75,2.75,0,2.3277
2013-07-10,2.8,2.8,2.8,2.8,6000,2.37
2013-07-11,2.8,2.8,2.8,2.8,400,2.37
2013-07-12,2.8,2.8,2.8,2.8,252000,2.37
2013-07-15,2.75,2.75,2.75,2.75,200,2.3277
2013-07-16,2.75,2.75,2.75,2.75,0,2.3277
2013-07-17,2.75,2.75,2.75,2.75,0,2.3277
2013-07-18,2.75,2.75,2.75,2.75,0,2.3277
2013-07-19,2.75,2.75,2.75,2.75,0,2.3277
2013-07-22,2.75,2.75,2.75,2.75,0,2.3277
2013-07-23,2.75,2.75,2.75,2.75,0,2.3277
2013-07-24,2.8,2.8,2.8,2.8,4000,2.37
2013-07-25,2.8,2.8,2.8,2.8,0,2.37
2013-07-26,2.81,2.82,2.81,2.81,15500,2.3785
2013-07-29,2.81,2.81,2.81,2.81,0,2.3785
2013-07-30,2.81,2.81,2.81,2.81,0,2.3785
2013-07-31,2.81,2.81,2.81,2.81,0,2.3785
2013-08-01,2.81,2.81,2.81,2.81,0,2.3785
2013-08-02,2.82,2.82,2.82,2.82,2000,2.3869
2013-08-05,2.82,2.82,2.82,2.82,0,2.3869
2013-08-06,3.0,3.0,2.99,3.0,3300,2.5393
2013-08-07,3.0,3.0,3.0,3.0,0,2.5393
2013-08-08,3.0,3.0,3.0,3.0,0,2.5393
2013-08-09,3.0,3.0,3.0,3.0,2800,2.5393
2013-08-12,3.0,3.0,3.0,3.0,2200,2.5393
2013-08-13,3.0,3.0,3.0,3.0,2200,2.5393
2013-08-14,3.0,3.28,3.0,3.28,157100,2.7763
2013-08-15,3.28,3.28,3.28,3.28,2200,2.7763
2013-08-16,3.28,3.28,3.15,3.28,16900,2.7763
2013-08-19,3.28,3.29,3.13,3.29,157300,2.7848
2013-08-20,3.29,3.29,3.24,3.29,200,2.7848
2013-08-21,3.29,3.3,3.28,3.3,4000,2.7932
2013-08-22,3.3,3.3,3.285,3.3,1500,2.7932
2013-08-23,3.28,3.28,3.28,3.28,21100,2.7763
2013-08-26,3.28,3.3,3.28,3.28,8700,2.7763
2013-08-27,3.29,3.31,3.28,3.28,3300,2.7763
2013-08-28,3.35,3.35,3.28,3.29,4800,2.7848
2013-08-29,3.28,3.28,3.28,3.28,300,2.7763
2013-08-30,3.28,3.29,3.28,3.29,1800,2.7848
2013-09-02,3.35,3.35,3.35,3.35,1500,2.8355
2013-09-03,3.4,3.43,3.4,3.43,1700,2.9033
2013-09-04,3.46,3.52,3.43,3.43,4000,2.9033
2013-09-05,3.45,3.45,3.45,3.45,0,2.9202
2013-09-06,3.45,3.45,3.41,3.41,4400,2.8863
2013-09-09,3.41,3.44,3.41,3.44,2100,2.9117
2013-09-10,3.44,3.44,3.44,3.44,4000,2.9117
2013-09-11,3.44,3.69,3.44,3.69,15800,3.1233
2013-09-12,3.73,3.75,3.65,3.7,5000,3.1318
2013-09-13,3.75,3.78,3.75,3.77,4000,3.1910000000000003
2013-09-16,3.79,3.8,3.78,3.79,2700,3.208
2013-09-17,3.82,3.82,3.74,3.8,2000,3.2164
2013-09-18,3.77,3.77,3.61,3.61,301500,3.0964
2013-09-19,3.65,3.66,3.63,3.63,240600,3.1135
2013-09-20,3.63,3.63,3.63,3.63,0,3.1135
2013-09-23,3.63,3.63,3.63,3.63,0,3.1135
2013-09-24,3.65,3.7,3.65,3.69,1700,3.165
2013-09-25,3.69,3.69,3.69,3.69,0,3.165
2013-09-26,3.7,3.7,3.69,3.69,99600,3.165
2013-09-27,3.7,3.7,3.67,3.67,5600,3.1478
2013-09-30,3.67,3.67,3.67,3.67,300,3.1478
2013-10-01,3.67,3.67,3.67,3.67,72000,3.1478
2013-10-02,3.67,3.7,3.63,3.63,76000,3.1135
2013-10-03,3.63,3.63,3.62,3.63,5000,3.1135
2013-10-04,3.63,3.63,3.62,3.62,71300,3.1049
2013-10-07,3.62,3.63,3.62,3.62,2100,3.1049
2013-10-08,3.65,3.65,3.63,3.65,22700,3.1307
2013-10-09,3.65,3.65,3.55,3.65,8800,3.1307
2013-10-10,3.65,3.65,3.6,3.65,12100,3.1307
2013-10-11,3.68,3.68,3.64,3.64,6000,3.1221
2013-10-14,3.64,3.64,3.55,3.55,9700,3.0449
2013-10-15,3.59,3.6,3.59,3.6,2600,3.0878
2013-10-16,3.5,3.5,3.5,3.5,0,3.002
2013-10-17,3.5,3.5,3.5,3.5,0,3.002
2013-10-18,3.6,3.6,3.5,3.5,5500,3.002
2013-10-21,3.5,3.59,3.5,3.53,5500,3.0277
2013-10-22,3.51,3.51,3.51,3.51,75200,3.0106
2013-10-23,3.6,3.61,3.57,3.61,20200,3.0964
2013-10-24,3.61,3.64,3.54,3.54,4300,3.0363
2013-10-25,3.54,3.62,3.54,3.58,172100,3.0706
2013-10-28,3.54,3.54,3.53,3.53,5000,3.0277
2013-10-29,3.53,3.53,3.53,3.53,0,3.0277
2013-10-30,3.51,3.52,3.5,3.5,16000,3.002
2013-10-31,3.5,3.5,3.39,3.4,4500,2.9162
2013-11-01,3.4,3.43,3.4,3.41,30900,2.9248
2013-11-04,3.41,3.43,3.39,3.43,17100,2.9419999999999997
2013-11-05,3.4,3.43,3.4,3.43,14500,2.9419999999999997
2013-11-06,3.43,3.43,3.4,3.4,2800,2.9162
2013-11-07,3.38,3.38,3.35,3.35,1800,2.8733
2013-11-08,3.35,3.35,3.3,3.3,104100,2.8305
2013-11-11,3.35,3.35,3.26,3.26,30400,2.7962
2013-11-12,3.3,3.35,3.3,3.35,3600,2.8733
2013-11-13,3.29,3.29,3.26,3.28,5000,2.8133
2013-11-14,3.28,3.28,3.28,3.28,0,2.8133
2013-11-15,3.28,3.28,3.28,3.28,0,2.8133
2013-11-18,3.3,3.35,3.3,3.35,4100,2.8733
2013-11-19,3.31,3.31,3.29,3.3,23100,2.8305
2013-11-20,3.3,3.3,3.3,3.3,0,2.8305
2013-11-21,3.19,3.19,3.16,3.16,11700,2.7104
2013-11-22,3.17,3.17,3.16,3.16,4000,2.7104
2013-11-25,3.13,3.13,3.13,3.13,1100,2.6846
2013-11-26,3.13,3.13,3.13,3.13,0,2.6846
2013-11-27,3.14,3.14,3.12,3.13,21700,2.6846
2013-11-28,3.13,3.13,3.09,3.09,57600,2.6503
2013-11-29,3.09,3.09,3.09,3.09,0,2.6503
2013-12-02,3.12,3.13,3.12,3.13,72600,2.6846
2013-12-03,3.13,3.16,3.13,3.16,6700,2.7104
2013-12-04,3.2,3.24,3.2,3.24,2800,2.779
2013-12-05,3.24,3.38,3.24,3.31,4900,2.839
2013-12-06,3.29,3.29,3.29,3.29,0,2.8219
2013-12-09,3.31,3.4,3.31,3.37,2300,2.8905
2013-12-10,3.5,3.5,3.48,3.48,91100,2.9848
2013-12-11,3.36,3.36,3.36,3.36,0,2.8819
2013-12-12,3.36,3.37,3.36,3.37,500,2.8905
2013-12-13,3.37,3.39,3.36,3.39,1900,2.9077
2013-12-16,3.41,3.44,3.33,3.33,16000,2.8562
2013-12-17,3.33,3.33,3.33,3.33,9400,2.8562
2013-12-18,3.38,3.38,3.37,3.38,14800,2.8991
2013-12-19,3.38,3.4,3.38,3.4,20000,2.9162
2013-12-20,3.25,3.25,3.25,3.25,112200,2.7876
2013-12-23,3.26,3.4,3.25,3.25,23300,2.7876
2013-12-24,3.25,3.35,3.25,3.35,302600,2.8733
2013-12-25,3.35,3.35,3.35,3.35,0,2.8733
2013-12-26,3.35,3.35,3.35,3.35,0,2.8733
2013-12-27,3.24,3.24,3.24,3.24,0,2.779
2013-12-30,3.25,3.25,3.25,3.25,5900,2.7876
2013-12-31,3.25,3.4,3.25,3.3,2200,2.8305
2014-01-01,3.3,3.3,3.3,3.3,0,2.8305
2014-01-02,3.24,3.24,3.24,3.24,4300,2.779
2014-01-03,3.23,3.24,3.23,3.24,2400,2.779
2014-01-06,3.24,3.24,3.24,3.24,0,2.779
2014-01-07,3.4,3.4,3.3,3.3,15000,2.8305
2014-01-08,3.4,3.4,3.3,3.3,190900,2.8305
2014-01-09,3.4,3.4,3.4,3.4,7500,2.9162
2014-01-10,3.4,3.4,3.4,3.4,0,2.9162
2014-01-13,3.4,3.4,3.35,3.35,1500,2.8733
2014-01-14,3.35,3.35,3.35,3.35,0,2.8733
2014-01-15,3.4,3.4,3.4,3.4,1600,2.9162
2014-01-16,3.4,3.4,3.4,3.4,0,2.9162
2014-01-17,3.4,3.4,3.4,3.4,14600,2.9162
2014-01-20,3.4,3.4,3.32,3.32,1500,2.8476
2014-01-21,3.39,3.39,3.33,3.33,0,2.8562
2014-01-22,3.39,3.39,3.33,3.38,1500,2.8991
2014-01-23,3.38,3.38,3.38,3.38,0,2.8991
2014-01-24,3.4,3.4,3.36,3.36,1400,2.8819
2014-01-27,3.36,3.36,3.36,3.36,0,2.8819
2014-01-28,3.4,3.4,3.36,3.4,26800,2.9162
2014-01-29,3.4,3.4,3.4,3.4,0,2.9162
2014-01-30,3.4,3.4,3.4,3.4,4500,2.9162
2014-01-31,3.4,3.4,3.4,3.4,10800,2.9162
2014-02-03,3.39,3.39,3.39,3.39,800,2.9077
2014-02-04,3.39,3.39,3.39,3.39,0,2.9077
2014-02-05,3.4,3.4,3.23,3.23,500,2.7704
2014-02-06,3.17,3.17,3.1,3.13,2199600,2.6846
2014-02-07,3.13,3.13,3.13,3.13,0,2.6846
2014-02-10,3.17,3.2,3.17,3.2,5500,2.7447
2014-02-11,3.22,3.25,3.2,3.22,10800,2.7618
2014-02-12,3.23,3.29,3.23,3.25,9600,2.7876
2014-02-13,3.22,3.22,3.22,3.22,3800,2.7618
2014-02-14,3.22,3.25,3.22,3.25,6700,2.7876
2014-02-17,3.21,3.21,3.2,3.2,3400,2.7447
2014-02-18,3.2,3.2,3.2,3.2,0,2.7447
2014-02-19,3.21,3.21,3.2,3.2,1700,2.7447
2014-02-20,3.29,3.35,3.29,3.29,5300,2.8219
2014-02-21,3.35,3.38,3.35,3.38,6800,2.8991
2014-02-24,3.38,3.4,3.38,3.4,97500,2.9162
2014-02-25,3.4,3.4,3.4,3.4,0,2.9162
2014-02-26,3.4,3.4,3.4,3.4,0,2.9162
2014-02-27,3.39,3.4,3.31,3.31,16000,2.839
2014-02-28,3.31,3.31,3.31,3.31,0,2.839
2014-03-03,3.31,3.31,3.31,3.31,0,2.839
2014-03-04,3.31,3.31,3.31,3.31,0,2.839
2014-03-05,3.4,3.4,3.33,3.33,800,2.8562
2014-03-06,3.35,3.37,3.35,3.35,28000,2.8733
2014-03-07,3.35,3.35,3.35,3.35,2400,2.8733
2014-03-10,3.35,3.35,3.35,3.35,0,2.8733
2014-03-11,3.35,3.35,3.35,3.35,14800,2.8733
2014-03-12,3.35,3.35,3.35,3.35,0,2.8733
2014-03-13,3.35,3.4,3.35,3.4,6400,2.9604
2014-03-14,3.35,3.35,3.35,3.35,198400,2.9169
2014-03-17,3.25,3.25,3.25,3.25,6600,2.8298
2014-03-18,3.3,3.3,3.3,3.3,500,2.8733
2014-03-19,3.3,3.3,3.1,3.1,262900,2.6992
2014-03-20,3.1,3.15,3.1,3.13,13000,2.7253
2014-03-21,3.13,3.13,3.13,3.13,1300,2.7253
2014-03-24,3.12,3.13,3.12,3.13,121700,2.7253
2014-03-25,3.11,3.11,3.08,3.08,4300,2.6818
2014-03-26,3.11,3.12,3.04,3.07,12400,2.6731
2014-03-27,3.07,3.08,3.03,3.03,47400,2.6383
2014-03-28,3.06,3.06,3.06,3.06,100,2.6644
2014-03-31,3.1,3.17,3.08,3.17,14300,2.7602
2014-04-01,3.1,3.1,3.03,3.03,4100,2.6383
2014-04-02,3.03,3.03,3.0,3.0,271000,2.6121
2014-04-03,3.02,3.11,3.0,3.01,19400,2.6208
2014-04-04,3.0,3.04,3.0,3.03,37400,2.6383
2014-04-07,3.0,3.05,3.0,3.05,102600,2.6557
2014-04-08,3.05,3.05,3.0,3.03,2100,2.6383
2014-04-09,3.005,3.02,3.0,3.01,7600,2.6208
2014-04-10,3.0,3.02,3.0,3.02,283700,2.6295
2014-04-11,3.02,3.02,3.02,3.02,0,2.6295
2014-04-14,3.05,3.05,2.96,2.97,72800,2.5860000000000003
2014-04-15,2.9,2.9,2.9,2.9,1500,2.5251
2014-04-16,2.9,2.9,2.9,2.9,0,2.5251
2014-04-17,2.99,2.99,2.99,2.99,300,2.6034
2014-04-18,2.99,2.99,2.99,2.99,0,2.6034
2014-04-21,2.99,2.99,2.99,2.99,0,2.6034
2014-04-22,2.99,2.99,2.99,2.99,0,2.6034
2014-04-23,2.96,2.98,2.96,2.98,0,2.5947
2014-04-24,2.98,2.98,2.98,2.98,400,2.5947
2014-04-25,2.98,2.98,2.98,2.98,0,2.5947
2014-04-28,3.0,3.04,3.0,3.04,12600,2.647
2014-04-29,3.04,3.04,3.04,3.04,100,2.647
2014-04-30,3.03,3.05,3.03,3.05,6100,2.6557
2014-05-01,3.09,3.09,3.05,3.05,1600,2.6557
2014-05-02,3.09,3.09,3.03,3.05,600,2.6557
2014-05-05,3.05,3.05,3.05,3.05,0,2.6557
2014-05-06,3.05,3.05,3.05,3.05,29200,2.6557
2014-05-07,3.05,3.05,3.05,3.05,283500,2.6557
2014-05-08,3.09,3.1,3.04,3.04,209100,2.647
2014-05-09,3.05,3.05,3.05,3.05,77100,2.6557
2014-05-12,3.05,3.05,3.03,3.05,33800,2.6557
2014-05-13,3.05,3.05,3.04,3.05,16800,2.6557
2014-05-14,3.05,3.05,3.05,3.05,28200,2.6557
2014-05-15,3.05,3.05,3.05,3.05,17400,2.6557
2014-05-16,3.01,3.01,3.0,3.0,1500,2.6121
2014-05-19,3.05,3.05,3.01,3.05,7402900,2.6557
2014-05-20,3.01,3.01,3.0,3.0,41100,2.6121
2014-05-21,3.05,3.05,3.05,3.05,18500,2.6557
2014-05-22,3.05,3.05,3.05,3.05,0,2.6557
2014-05-23,3.05,3.05,3.0,3.0,66500,2.6121
2014-05-26,3.05,3.1,3.05,3.05,8200,2.6557
2014-05-27,3.05,3.08,3.0,3.08,11300,2.6818
2014-05-28,3.08,3.08,3.08,3.08,0,2.6818
2014-05-29,3.21,3.21,3.21,3.21,1000,2.795
2014-05-30,3.21,3.21,3.21,3.21,0,2.795
2014-06-02,3.3,3.33,3.3,3.3,15600,2.8733
2014-06-03,3.33,3.38,3.33,3.38,4500,2.943
2014-06-04,3.3,3.3,3.3,3.3,7400,2.8733
2014-06-05,3.2,3.2,3.2,3.2,1200,2.7863
2014-06-06,3.2,3.2,3.12,3.2,199700,2.7863
2014-06-09,3.2,3.2,3.2,3.2,0,2.7863
2014-06-10,3.24,3.24,3.12,3.15,22900,2.7427
2014-06-11,3.1,3.1,3.1,3.1,200000,2.6992
2014-06-12,3.2,3.2,3.14,3.19,2700,2.7776
2014-06-13,3.2,3.2,3.2,3.2,8700,2.7863
2014-06-16,3.24,3.29,3.06,3.29,2500,2.8646
2014-06-17,3.29,3.29,3.23,3.23,4900,2.8124
2014-06-18,3.23,3.23,3.16,3.23,11800,2.8124
2014-06-19,3.2,3.45,3.1,3.45,578500,3.0039999999999996
2014-06-20,3.4,3.4,3.39,3.4,53800,2.9604
2014-06-23,3.3,3.35,3.3,3.33,5100,2.8995
2014-06-24,3.33,3.35,3.33,3.35,6700,2.9169
2014-06-25,3.325,3.35,3.325,3.35,1100,2.9169
2014-06-26,3.3,3.35,3.3,3.35,0,2.9169
2014-06-27,3.35,3.46,3.3,3.46,26500,3.0127
2014-06-30,3.46,3.51,3.45,3.51,22500,3.0562
2014-07-01,3.45,3.45,3.45,3.45,3900,3.0039999999999996
2014-07-02,3.48,3.55,3.47,3.5,24500,3.0475
2014-07-03,3.5,3.55,3.47,3.5,12500,3.0475
2014-07-04,3.5,3.5,3.5,3.5,0,3.0475
2014-07-07,3.6,3.7,3.6,3.6,7300,3.1346
2014-07-08,3.5,3.6,3.5,3.55,2900,3.091
2014-07-09,3.59,3.6,3.55,3.6,1200,3.1346
2014-07-10,3.47,3.47,3.47,3.47,93100,3.0214
2014-07-11,3.47,3.47,3.47,3.47,0,3.0214
2014-07-14,3.47,3.47,3.47,3.47,0,3.0214
2014-07-15,3.5,3.6,3.5,3.6,2600,3.1346
2014-07-16,3.59,3.59,3.59,3.59,0,3.1259
2014-07-17,3.59,3.59,3.59,3.59,800,3.1259
2014-07-18,3.59,3.59,3.5,3.59,3900,3.1259
2014-07-21,3.5,3.6,3.5,3.6,3400,3.1346
2014-07-22,3.5,3.5,3.47,3.47,7800,3.0214
2014-07-23,3.47,3.5,3.47,3.5,4200,3.0475
2014-07-24,3.6,3.6,3.5,3.6,16100,3.1346
2014-07-25,3.58,3.6,3.58,3.59,35600,3.1259
2014-07-28,3.59,3.59,3.59,3.59,0,3.1259
2014-07-29,3.54,3.54,3.54,3.54,4300,3.0823
2014-07-30,3.53,3.53,3.53,3.53,1500,3.0736
2014-07-31,3.53,3.53,3.53,3.53,0,3.0736
2014-08-01,3.33,3.52,3.33,3.52,7100,3.0649
2014-08-04,3.52,3.59,3.52,3.59,5700,3.1259
2014-08-05,3.52,3.59,3.52,3.59,500,3.1259
2014-08-06,3.52,3.59,3.52,3.59,18100,3.1259
2014-08-07,3.52,3.58,3.52,3.58,6000,3.1171
2014-08-08,3.58,3.58,3.58,3.58,3700,3.1171
2014-08-11,3.58,3.58,3.58,3.58,0,3.1171
2014-08-12,3.58,3.58,3.58,3.58,0,3.1171
2014-08-13,3.48,3.5,3.48,3.49,2000,3.0388
2014-08-14,3.49,3.49,3.49,3.49,200,3.0388
2014-08-15,3.49,3.49,3.49,3.49,0,3.0388
2014-08-18,3.49,3.49,3.49,3.49,0,3.0388
2014-08-19,3.48,3.48,3.36,3.48,600,3.0301
2014-08-20,3.48,3.48,3.48,3.48,600,3.0301
2014-08-21,3.37,3.48,3.36,3.48,700,3.0301
2014-08-22,3.37,3.48,3.37,3.48,300,3.0301
2014-08-25,3.48,3.48,3.48,3.48,0,3.0301
2014-08-26,3.41,3.49,3.4,3.49,5800,3.0388
2014-08-27,3.49,3.49,3.49,3.49,0,3.0388
2014-08-28,3.49,3.49,3.42,3.42,700,2.9778
2014-08-29,3.42,3.5,3.3,3.3,22400,2.8733
2014-09-01,3.3,3.3,3.3,3.3,300,2.8733
2014-09-02,3.46,3.55,3.42,3.55,228300,3.091
2014-09-03,3.42,3.49,3.42,3.49,10200,3.0388
2014-09-04,3.46,3.46,3.46,3.46,0,3.0127
2014-09-05,3.42,3.43,3.42,3.42,7500,2.9778
2014-09-08,3.4,3.42,3.4,3.42,26200,2.9778
2014-09-09,3.49,3.49,3.49,3.49,0,3.0388
2014-09-10,3.49,3.49,3.49,3.49,0,3.0388
2014-09-11,3.35,3.35,3.3,3.34,3100,2.9082
2014-09-12,3.3,3.3,3.25,3.27,31100,2.8472
2014-09-15,3.43,3.43,3.43,3.43,0,2.9865
2014-09-16,3.35,3.35,3.28,3.29,0,2.9113
2014-09-17,3.3,3.3,3.2,3.2,11000,2.8317
2014-09-18,3.2,3.2,3.11,3.2,67100,2.8317
2014-09-19,3.2,3.21,3.17,3.17,0,2.8051
2014-09-22,3.18,3.3,3.04,3.04,9700,2.6901
2014-09-23,3.04,3.25,3.04,3.25,700,2.8759
2014-09-24,3.25,3.25,3.25,3.25,0,2.8759
2014-09-25,3.25,3.3,3.21,3.21,7100,2.8405
2014-09-26,3.17,3.17,3.17,3.17,0,2.8051
2014-09-29,3.17,3.22,3.17,3.22,100,2.8494
2014-09-30,3.29,3.35,3.29,3.35,5400,2.9644
2014-10-01,3.35,3.35,3.35,3.35,0,2.9644
2014-10-02,3.35,3.35,3.35,3.35,0,2.9644
2014-10-03,3.35,3.35,3.35,3.35,13100,2.9644
2014-10-06,3.35,3.35,3.35,3.35,0,2.9644
2014-10-07,3.2,3.2,3.17,3.2,130800,2.8317
2014-10-08,3.2,3.25,3.17,3.25,48800,2.8759
2014-10-09,3.25,3.25,3.25,3.25,0,2.8759
2014-10-10,3.2,3.2,3.2,3.2,46100,2.8317
2014-10-13,3.2,3.2,3.2,3.2,0,2.8317
2014-10-14,3.2,3.2,3.2,3.2,0,2.8317
2014-10-15,3.17,3.17,3.16,3.16,700,2.7963
2014-10-16,3.15,3.15,3.05,3.15,3000,2.7874
2014-10-17,3.15,3.15,3.15,3.15,700,2.7874
2014-10-20,3.16,3.16,3.16,3.16,500,2.7963
2014-10-21,3.16,3.16,3.16,3.16,0,2.7963
2014-10-22,3.14,3.16,3.14,3.16,1400,2.7963
2014-10-23,3.16,3.16,3.16,3.16,1800,2.7963
2014-10-24,3.16,3.16,3.16,3.16,2200,2.7963
2014-10-27,3.12,3.16,3.12,3.12,5700,2.7609
2014-10-28,3.12,3.12,3.12,3.12,0,2.7609
2014-10-29,3.12,3.12,3.1,3.1,1500,2.7432
2014-10-30,3.1,3.1,3.0,3.0,25400,2.6547
2014-10-31,3.1,3.1,3.1,3.1,5000,2.7432
2014-11-03,3.0,3.0,3.0,3.0,2400,2.6547
2014-11-04,3.01,3.05,3.01,3.02,6600,2.6724
2014-11-05,3.05,3.05,2.97,2.97,4500,2.6282
2014-11-06,3.0,3.0,3.0,3.0,1200,2.6547
2014-11-07,3.0,3.0,3.0,3.0,0,2.6547
2014-11-10,2.95,2.95,2.95,2.95,1300,2.6105
2014-11-11,2.95,2.95,2.95,2.95,0,2.6105
2014-11-12,2.88,2.9,2.88,2.88,2200,2.5485
2014-11-13,2.88,2.91,2.86,2.86,3600,2.5308
2014-11-14,2.86,2.86,2.66,2.75,243700,2.4335
2014-11-17,2.72,2.99,2.71,2.79,12900,2.4689
2014-11-18,2.79,2.8,2.78,2.78,4700,2.46
2014-11-19,2.78,2.8,2.69,2.8,20000,2.4777
2014-11-20,2.8,2.8,2.8,2.8,0,2.4777
2014-11-21,2.8,2.8,2.69,2.69,15200,2.3804
2014-11-24,2.69,2.8,2.69,2.69,47000,2.3804
2014-11-25,2.69,2.69,2.69,2.69,0,2.3804
2014-11-26,2.65,2.75,2.65,2.75,9700,2.4335
2014-11-27,2.75,2.75,2.7,2.7,2000,2.3892
2014-11-28,2.7,2.7,2.7,2.7,0,2.3892
2014-12-01,2.58,2.75,2.58,2.75,700,2.4335
2014-12-02,2.75,2.75,2.75,2.75,4500,2.4335
2014-12-03,2.7,2.7,2.6,2.66,4900,2.3538
2014-12-04,2.66,2.66,2.65,2.66,3600,2.3538
2014-12-05,2.66,2.66,2.66,2.66,0,2.3538
2014-12-08,2.66,2.8,2.66,2.8,84400,2.4777
2014-12-09,2.8,3.0,2.8,3.0,22800,2.6547
2014-12-10,2.8,3.15,2.8,3.09,276400,2.7343
2014-12-11,3.09,3.1,2.85,3.1,4100,2.7432
2014-12-12,3.1,3.15,2.97,3.09,305900,2.7343
2014-12-15,3.0,3.0,3.0,3.0,1500,2.6547
2014-12-16,3.0,3.0,3.0,3.0,325700,2.6547
2014-12-17,2.99,2.99,2.99,2.99,300900,2.6459
2014-12-18,2.99,2.99,2.99,2.99,0,2.6459
2014-12-19,3.0,3.0,3.0,3.0,7800,2.6547
2014-12-22,3.0,3.0,3.0,3.0,300,2.6547
2014-12-23,3.0,3.0,3.0,3.0,0,2.6547
2014-12-24,2.95,2.95,2.85,2.85,0,2.522
2014-12-25,2.85,2.85,2.85,2.85,0,2.522
2014-12-26,2.85,2.85,2.85,2.85,0,2.522
2014-12-29,2.85,2.85,2.85,2.85,0,2.522
2014-12-30,2.66,2.67,2.62,2.62,110900,2.3184
2014-12-31,2.62,2.62,2.62,2.62,0,2.3184
2015-01-01,2.62,2.62,2.62,2.62,0,2.3184
2015-01-02,2.62,2.62,2.62,2.62,0,2.3184
2015-01-05,2.62,2.62,2.62,2.62,0,2.3184
2015-01-06,2.62,2.62,2.62,2.62,0,2.3184
2015-01-07,2.72,2.72,2.62,2.7,7300,2.3892
2015-01-08,2.7,2.7,2.62,2.7,6300,2.3892
2015-01-09,2.7,2.7,2.6,2.61,12900,2.3096
2015-01-12,2.61,2.61,2.61,2.61,0,2.3096
2015-01-13,2.6,2.6,2.6,2.6,2500,2.3007
2015-01-14,2.6,2.6,2.6,2.6,0,2.3007
2015-01-15,2.6,2.6,2.58,2.58,1300,2.283
2015-01-16,2.58,2.58,2.52,2.52,3000,2.2299
2015-01-19,2.6,2.6,2.6,2.6,13300,2.3007
2015-01-20,2.53,2.6,2.53,2.6,400,2.3007
2015-01-21,2.6,2.6,2.6,2.6,0,2.3007
2015-01-22,2.6,2.6,2.6,2.6,0,2.3007
2015-01-23,2.58,2.58,2.53,2.53,48000,2.2388
2015-01-26,2.53,2.53,2.53,2.53,0,2.2388
2015-01-27,2.53,2.53,2.52,2.52,1900,2.2299
2015-01-28,2.52,2.52,2.51,2.51,2900,2.2211
2015-01-29,2.51,2.51,2.51,2.51,0,2.2211
2015-01-30,2.52,2.52,2.52,2.52,10000,2.2299
2015-02-02,2.52,2.52,2.52,2.52,2400,2.2299
2015-02-03,2.515,2.52,2.51,2.51,51000,2.2211
2015-02-04,2.5,2.5,2.49,2.49,15900,2.2034
2015-02-05,2.49,2.49,2.49,2.49,0,2.2034
2015-02-06,2.49,2.49,2.49,2.49,0,2.2034
2015-02-09,2.5,2.5,2.48,2.48,9600,2.1946
2015-02-10,2.48,2.48,2.4,2.4,1600,2.1238
2015-02-11,2.48,2.5,2.43,2.44,94100,2.1592
2015-02-12,2.49,2.49,2.44,2.45,80300,2.168
2015-02-13,2.45,2.45,2.39,2.4,641900,2.1238
2015-02-16,2.4,2.4,2.39,2.4,21600,2.1238
2015-02-17,2.4,2.4,2.39,2.39,29600,2.1149
2015-02-18,2.39,2.39,2.36,2.36,15600,2.0884
2015-02-19,2.36,2.36,2.35,2.35,3900,2.0795
2015-02-20,2.39,2.39,2.39,2.39,11200,2.1149
2015-02-23,2.44,2.45,2.37,2.4,18600,2.1238
2015-02-24,2.4,2.4,2.36,2.37,43900,2.0972
2015-02-25,2.39,2.39,2.35,2.36,35300,2.0884
2015-02-26,2.37,2.37,2.35,2.36,6200,2.0884
2015-02-27,2.36,2.39,2.36,2.37,8000,2.0972
2015-03-02,2.45,2.45,2.36,2.36,7100,2.0884
2015-03-03,2.36,2.37,2.36,2.37,1300,2.0972
2015-03-04,2.37,2.37,2.3,2.3,7698600,2.0353
2015-03-05,2.33,2.4,2.33,2.35,26500,2.0795
2015-03-06,2.39,2.39,2.33,2.33,7400,2.0618
2015-03-09,2.33,2.33,2.3,2.33,3700,2.0618
2015-03-10,2.33,2.33,2.28,2.29,16300,2.0264
2015-03-11,2.3,2.3,2.25,2.25,27500,1.9909999999999999
2015-03-12,2.25,2.25,2.12,2.2,3700,1.9468
2015-03-13,2.2,2.2,2.12,2.12,4400,1.876
2015-03-16,2.12,2.28,2.12,2.17,600,1.9672
2015-03-17,2.17,2.17,2.12,2.16,7400,1.9581
2015-03-18,2.16,2.16,2.13,2.16,1900,1.9581
2015-03-19,2.13,2.13,1.96,2.0,67100,1.8131
2015-03-20,1.97,2.0,1.865,1.865,107300,1.6907
2015-03-23,1.9,2.12,1.9,2.12,15400,1.9219
2015-03-24,2.11,2.12,2.0,2.12,10600,1.9219
2015-03-25,2.12,2.12,2.12,2.12,0,1.9219
2015-03-26,2.11,2.11,2.1,2.1,900,1.9037
2015-03-27,2.09,2.09,2.0,2.09,401500,1.8947
2015-03-30,2.02,2.09,2.02,2.09,6300,1.8947
2015-03-31,2.02,2.06,2.02,2.03,28400,1.8403
2015-04-01,2.03,2.05,1.98,2.05,30900,1.8584
2015-04-02,1.98,2.0,1.95,2.0,8200,1.8131
2015-04-03,2.0,2.0,2.0,2.0,0,1.8131
2015-04-06,2.0,2.0,2.0,2.0,0,1.8131
2015-04-07,2.0,2.0,2.0,2.0,0,1.8131
2015-04-08,1.91,1.99,1.91,1.93,7500,1.7496
2015-04-09,1.99,2.0,1.99,2.0,11600,1.8131
2015-04-10,2.0,2.0,2.0,2.0,7100,1.8131
2015-04-13,1.99,2.0,1.99,2.0,4500,1.8131
2015-04-14,1.98,2.0,1.97,2.0,6300,1.8131
2015-04-15,1.97,1.97,1.95,1.95,28700,1.7677
2015-04-16,1.96,1.96,1.94,1.95,12000,1.7677
2015-04-17,1.95,1.95,1.94,1.94,34100,1.7587
2015-04-20,1.92,1.93,1.91,1.93,2600,1.7496
2015-04-21,1.91,1.91,1.88,1.885,5700,1.7088
2015-04-22,1.88,1.885,1.805,1.855,6000,1.6816
2015-04-23,1.85,1.85,1.745,1.8,119900,1.6318
2015-04-24,1.82,1.855,1.82,1.855,21300,1.6816
2015-04-27,1.9,1.9,1.85,1.85,1021100,1.6771
2015-04-28,1.85,1.85,1.83,1.845,29700,1.6726
2015-04-29,1.85,1.85,1.83,1.83,20200,1.659
2015-04-30,1.83,1.83,1.83,1.83,500,1.659
2015-05-01,1.83,1.85,1.83,1.85,900,1.6771
2015-05-04,1.84,1.85,1.83,1.835,7300,1.6635
2015-05-05,1.85,1.85,1.85,1.85,381500,1.6771
2015-05-06,1.85,1.85,1.83,1.85,189900,1.6771
2015-05-07,1.85,1.935,1.84,1.9,213600,1.7224
2015-05-08,1.85,1.94,1.85,1.85,94100,1.6771
2015-05-11,1.85,1.85,1.84,1.85,102300,1.6771
2015-05-12,1.84,1.9169999999999998,1.81,1.85,91300,1.6771
2015-05-13,1.85,1.85,1.81,1.815,997800,1.6454
2015-05-14,1.81,1.81,1.81,1.81,0,1.6408
2015-05-15,1.82,1.85,1.77,1.775,312400,1.6091
2015-05-18,1.84,1.865,1.78,1.84,9000,1.6680000000000001
2015-05-19,1.79,1.84,1.78,1.84,836800,1.6680000000000001
2015-05-20,1.84,1.85,1.825,1.85,509200,1.6771
2015-05-21,1.85,1.86,1.85,1.86,690400,1.6862
2015-05-22,1.83,1.86,1.83,1.83,6700,1.659
2015-05-25,1.83,1.83,1.83,1.83,0,1.659
2015-05-26,1.85,1.85,1.85,1.85,1000,1.6771
2015-05-27,1.85,1.85,1.79,1.84,1486500,1.6680000000000001
2015-05-28,1.82,1.84,1.82,1.84,303900,1.6680000000000001
2015-05-29,1.845,2.13,1.825,2.13,36400,1.9309
2015-06-01,2.09,2.09,2.01,2.01,2400,1.8221
2015-06-02,2.01,2.01,2.01,2.01,0,1.8221
2015-06-03,1.95,2.01,1.95,2.01,3500,1.8221
2015-06-04,2.01,2.01,1.95,1.99,2500,1.804
2015-06-05,1.95,1.95,1.95,1.95,5400,1.7677
2015-06-08,1.95,1.95,1.95,1.95,0,1.7677
2015-06-09,1.95,1.95,1.93,1.93,1500,1.7496
2015-06-10,1.92,1.92,1.86,1.86,2900,1.6862
2015-06-11,1.95,1.95,1.91,1.94,20200,1.7587
2015-06-12,1.97,1.97,1.94,1.94,7900,1.7587
2015-06-15,2.0,2.0,1.94,1.995,10800,1.8085
2015-06-16,2.0,2.0,1.985,1.985,800,1.7995
2015-06-17,1.98,1.99,1.97,1.99,119400,1.804
2015-06-18,1.98,1.99,1.95,1.97,29100,1.7859
2015-06-19,1.94,1.99,1.9,1.94,230700,1.7587
2015-06-22,1.94,1.94,1.94,1.94,0,1.7587
2015-06-23,1.96,1.99,1.94,1.99,6200,1.804
2015-06-24,1.96,2.0,1.96,2.0,8100,1.8131
2015-06-25,2.0,2.09,2.0,2.0,14900,1.8131
2015-06-26,2.09,2.09,2.0,2.09,41400,1.8947
2015-06-29,2.09,2.09,2.09,2.09,6300,1.8947
2015-06-30,2.1,2.1,2.045,2.1,54100,1.9037
2015-07-01,2.1,2.13,2.09,2.09,24300,1.8947
2015-07-02,2.1,2.2,2.09,2.2,38500,1.9944
2015-07-03,2.2,2.2,2.19,2.2,81900,1.9944
2015-07-06,2.2,2.2,2.14,2.14,4900,1.94
2015-07-07,2.17,2.2,2.17,2.2,700,1.9944
2015-07-08,2.2,2.2,2.17,2.17,351500,1.9672
2015-07-09,2.17,2.17,2.15,2.15,16800,1.9491
2015-07-10,2.14,2.14,2.05,2.12,12200,1.9219
2015-07-13,2.12,2.12,2.1,2.1,100,1.9037
2015-07-14,2.1,2.2,2.1,2.19,8900,1.9853
2015-07-15,2.18,2.18,2.18,2.18,20100,1.9763
2015-07-16,2.19,2.35,2.19,2.35,9200,2.1304
2015-07-17,2.4,2.4,2.4,2.4,800,2.1757
2015-07-20,2.4,2.4,2.37,2.38,149900,2.1576
2015-07-21,2.36,2.4,2.33,2.33,36800,2.1122
2015-07-22,2.31,2.35,2.31,2.34,19600,2.1213
2015-07-23,2.34,2.4,2.33,2.34,57500,2.1213
2015-07-24,2.34,2.34,2.34,2.34,301300,2.1213
2015-07-27,2.34,2.34,2.34,2.34,1200,2.1213
2015-07-28,2.34,2.34,2.34,2.34,500,2.1213
2015-07-29,2.33,2.33,2.25,2.26,1700,2.0488
2015-07-30,2.26,2.26,2.26,2.26,261000,2.0488
2015-07-31,2.31,2.42,2.31,2.42,3300,2.1938
2015-08-03,2.42,2.42,2.42,2.42,400,2.1938
2015-08-04,2.42,2.45,2.41,2.45,1000,2.221
2015-08-05,2.42,2.45,2.31,2.31,3200,2.0941
2015-08-06,2.31,2.31,2.31,2.31,0,2.0941
2015-08-07,2.36,2.36,2.36,2.36,0,2.1394
2015-08-10,2.38,2.45,2.38,2.44,50100,2.2119999999999997
2015-08-11,2.4,2.44,2.38,2.38,4600,2.1576
2015-08-12,2.38,2.38,2.38,2.38,26200,2.1576
2015-08-13,2.38,2.38,2.38,2.38,0,2.1576
2015-08-14,2.38,2.38,2.32,2.32,1000,2.1032
2015-08-17,2.38,2.42,2.32,2.42,11500,2.1938
2015-08-18,2.42,2.42,2.32,2.32,13800,2.1032
2015-08-19,2.35,2.36,2.35,2.35,700,2.1304
2015-08-20,2.35,2.35,2.35,2.35,0,2.1304
2015-08-21,2.39,2.4,2.35,2.35,9800,2.1304
2015-08-24,2.35,2.35,2.13,2.2,340000,1.9944
2015-08-25,2.4,2.4,2.4,2.4,600,2.1757
2015-08-26,2.39,2.39,2.39,2.39,2300,2.1666
2015-08-27,2.3,2.3,2.3,2.3,5300,2.085
2015-08-28,2.32,2.32,2.3,2.3,4000,2.085
2015-08-31,2.35,2.35,2.35,2.35,5400,2.1304
2015-09-01,2.3,2.3,2.3,2.3,8600,2.085
2015-09-02,2.3,2.4,2.3,2.4,18800,2.1757
2015-09-03,2.3,2.32,2.3,2.3,1100,2.085
2015-09-04,2.3,2.39,2.3,2.39,10900,2.1666
2015-09-07,2.3,2.3,2.3,2.3,2900,2.085
2015-09-08,2.35,2.4,2.35,2.4,11200,2.1757
2015-09-09,2.4,2.4,2.4,2.4,0,2.1757
2015-09-10,2.4,2.45,2.3,2.4,4500,2.1757
2015-09-11,2.4,2.42,2.4,2.42,1700,2.1938
2015-09-14,2.42,2.42,2.42,2.42,0,2.1938
2015-09-15,2.25,2.28,2.25,2.28,5900,2.1298
2015-09-16,2.28,2.4,2.28,2.4,0,2.2419
2015-09-17,2.4,2.4,2.39,2.4,300,2.2419
2015-09-18,2.4,2.4,2.4,2.4,2100,2.2419
2015-09-21,2.4,2.4,2.4,2.4,0,2.2419
2015-09-22,2.4,2.4,2.4,2.4,0,2.2419
2015-09-23,2.4,2.5,2.4,2.5,16000,2.3353
2015-09-24,2.5,2.5,2.47,2.47,3200,2.3072
2015-09-25,2.43,2.48,2.42,2.47,4500,2.3072
2015-09-28,2.47,2.47,2.44,2.44,1200,2.2792
2015-09-29,2.44,2.44,2.44,2.44,0,2.2792
2015-09-30,2.43,2.43,2.43,2.43,600,2.2699
2015-10-01,2.42,2.42,2.41,2.41,0,2.2512
2015-10-02,2.41,2.41,2.41,2.41,0,2.2512
2015-10-05,2.4,2.42,2.4,2.42,900,2.2605
2015-10-06,2.42,2.42,2.42,2.42,0,2.2605
2015-10-07,2.4,2.41,2.4,2.41,2700,2.2512
2015-10-08,2.4,2.4,2.4,2.4,200,2.2419
2015-10-09,2.3,2.41,2.3,2.35,500,2.1952
2015-10-12,2.35,2.41,2.35,2.4,100600,2.2419
2015-10-13,2.4,2.4,2.3,2.3,2400,2.1484
2015-10-14,2.3,2.3,2.3,2.3,0,2.1484
2015-10-15,2.35,2.4,2.35,2.4,5500,2.2419
2015-10-16,2.4,2.4,2.4,2.4,100,2.2419
2015-10-19,2.3,2.4,2.3,2.4,600,2.2419
2015-10-20,2.4,2.4,2.39,2.39,800,2.2325
2015-10-21,2.39,2.39,2.39,2.39,0,2.2325
2015-10-22,2.3,2.3,2.3,2.3,800,2.1484
2015-10-23,2.3,2.3,2.3,2.3,0,2.1484
2015-10-26,2.3,2.35,2.3,2.35,0,2.1952
2015-10-27,2.35,2.35,2.35,2.35,0,2.1952
2015-10-28,2.35,2.35,2.35,2.35,200,2.1952
2015-10-29,2.35,2.35,2.34,2.35,1100,2.1952
2015-10-30,2.35,2.35,2.35,2.35,0,2.1952
2015-11-02,2.1,2.2,2.1,2.2,3100,2.055
2015-11-03,2.2,2.2,2.2,2.2,0,2.055
2015-11-04,2.2,2.2,2.2,2.2,0,2.055
2015-11-05,2.3,2.3,2.15,2.15,2200,2.0083
2015-11-06,2.15,2.15,2.15,2.15,0,2.0083
2015-11-09,2.15,2.16,2.15,2.15,62500,2.0083
2015-11-10,2.15,2.15,2.15,2.15,0,2.0083
2015-11-11,2.19,2.21,2.16,2.2,17600,2.055
2015-11-12,2.2,2.32,2.16,2.32,23600,2.1671
2015-11-13,2.35,2.35,2.33,2.34,500,2.1858
2015-11-16,2.25,2.25,2.25,2.25,100,2.1017
2015-11-17,2.25,2.25,2.25,2.25,700,2.1017
2015-11-18,2.25,2.25,2.14,2.15,37100,2.0083
2015-11-19,2.18,2.18,2.1,2.15,5700,2.0083
2015-11-20,2.14,2.14,2.14,2.14,50000,1.999
2015-11-23,2.15,2.15,2.11,2.11,11700,1.9709999999999999
2015-11-24,2.11,2.11,2.11,2.11,0,1.9709999999999999
2015-11-25,2.11,2.11,2.11,2.11,0,1.9709999999999999
2015-11-26,2.15,2.15,2.11,2.15,4100,2.0083
2015-11-27,2.11,2.11,2.1,2.1,1200,1.9616
2015-11-30,2.1,2.1,2.1,2.1,0,1.9616
2015-12-01,2.15,2.15,2.15,2.15,200,2.0083
2015-12-02,2.1,2.1,2.1,2.1,900,1.9616
2015-12-03,2.15,2.15,2.1,2.15,3300,2.0083
2015-12-04,2.13,2.15,2.13,2.15,1400,2.0083
2015-12-07,2.1,2.1,2.0,2.0,180200,1.8682
2015-12-08,1.99,1.99,1.91,1.91,10200,1.7841
2015-12-09,1.91,1.91,1.91,1.91,0,1.7841
2015-12-10,1.91,1.91,1.91,1.91,0,1.7841
2015-12-11,1.91,1.91,1.91,1.91,0,1.7841
2015-12-14,1.945,2.0,1.91,2.0,16100,1.8682
2015-12-15,1.915,1.915,1.91,1.91,48200,1.7841
2015-12-16,1.94,1.94,1.9,1.9,8700,1.7748
2015-12-17,1.9,1.9,1.9,1.9,3300,1.7748
2015-12-18,1.89,1.895,1.82,1.82,37200,1.7001
2015-12-21,1.85,1.85,1.85,1.85,43900,1.7281
2015-12-22,1.64,1.64,1.17,1.2,1074000,1.1209
2015-12-23,1.21,1.24,1.16,1.17,1673100,1.0929
2015-12-24,1.2,1.2,1.18,1.18,715400,1.1022
2015-12-25,1.18,1.18,1.18,1.18,0,1.1022
2015-12-28,1.18,1.18,1.18,1.18,0,1.1022
2015-12-29,1.18,1.18,1.16,1.17,50500,1.0929
2015-12-30,1.175,1.25,1.175,1.25,50800,1.1676
2015-12-31,1.3,1.32,1.215,1.3,61000,1.2143
2016-01-01,1.3,1.3,1.3,1.3,0,1.2143
2016-01-04,1.31,1.42,1.31,1.37,55100,1.2797
2016-01-05,1.41,1.41,1.33,1.41,61500,1.3171
2016-01-06,1.4,1.4,1.31,1.315,282700,1.2284
2016-01-07,1.33,1.33,1.28,1.28,615700,1.1957
2016-01-08,1.23,1.27,1.225,1.27,121900,1.1863
2016-01-11,1.27,1.3,1.255,1.3,8000,1.2143
2016-01-12,1.26,1.3,1.26,1.3,11500,1.2143
2016-01-13,1.265,1.28,1.265,1.27,895800,1.1863
2016-01-14,1.29,1.29,1.27,1.27,82000,1.1863
2016-01-15,1.27,1.27,1.25,1.255,33000,1.1723
2016-01-18,1.25,1.25,1.2,1.23,206600,1.149
2016-01-19,1.205,1.205,1.19,1.19,227300,1.1116
2016-01-20,1.16,1.16,1.16,1.16,114600,1.0836
2016-01-21,1.16,1.16,1.16,1.16,160700,1.0836
2016-01-22,1.16,1.16,1.06,1.1,71000,1.0275
2016-01-25,1.1,1.1,1.1,1.1,0,1.0275
2016-01-26,1.1,1.1,1.1,1.1,0,1.0275
2016-01-27,1.13,1.13,1.13,1.13,5300,1.0555
2016-01-28,1.14,1.14,1.14,1.14,4900,1.0649
2016-01-29,1.15,1.2,1.15,1.165,33800,1.0882
2016-02-01,1.17,1.21,1.16,1.21,40900,1.1303
2016-02-02,1.2,1.21,1.2,1.2,56500,1.1209
2016-02-03,1.2,1.2,1.2,1.2,3000,1.1209
2016-02-04,1.19,1.21,1.19,1.21,13600,1.1303
2016-02-05,1.2,1.2,1.2,1.2,33500,1.1209
2016-02-08,1.215,1.215,1.075,1.12,116500,1.0462
2016-02-09,1.15,1.15,1.1,1.1,713300,1.0275
2016-02-10,1.08,1.1,1.08,1.1,152700,1.0275
2016-02-11,1.1,1.1,1.08,1.08,96300,1.0088
2016-02-12,1.1,1.1,1.08,1.08,6000,1.0088
2016-02-15,1.1,1.1,1.05,1.055,40300,0.9855
2016-02-16,1.1,1.1,1.1,1.1,12500,1.0275
2016-02-17,1.06,1.06,1.05,1.055,25000,0.9855
2016-02-18,1.09,1.09,1.085,1.085,5400,1.0135
2016-02-19,1.07,1.085,1.07,1.085,12400,1.0135
2016-02-22,1.07,1.1,1.07,1.07,27600,0.9995
2016-02-23,1.07,1.1,1.07,1.07,114100,0.9995
2016-02-24,1.09,1.09,1.09,1.09,221700,1.0182
2016-02-25,1.09,1.1,1.07,1.07,284100,0.9995
2016-02-26,1.07,1.07,1.06,1.06,22500,0.9902
2016-02-29,1.06,1.07,1.06,1.07,38000,0.9995
2016-03-01,1.06,1.06,1.055,1.055,28300,0.9855
2016-03-02,1.07,1.09,1.07,1.085,40000,1.0135
2016-03-03,1.085,1.09,1.085,1.085,23200,1.0135
2016-03-04,1.08,1.085,1.075,1.075,17400,1.0042
2016-03-07,1.09,1.09,1.08,1.09,22300,1.0182
2016-03-08,1.09,1.09,1.09,1.09,11800,1.0182
2016-03-09,1.09,1.09,1.08,1.08,32200,1.0088
2016-03-10,1.09,1.105,1.09,1.09,96800,1.0182
2016-03-11,1.09,1.09,1.08,1.09,129700,1.0182
2016-03-14,1.09,1.125,1.08,1.08,82900,1.0088
2016-03-15,1.05,1.08,1.05,1.065,93800,1.036
2016-03-16,1.07,1.07,1.065,1.065,50000,1.036
2016-03-17,1.075,1.075,1.06,1.06,42000,1.0311
2016-03-18,1.05,1.05,1.05,1.05,59100,1.0214
2016-03-21,1.05,1.065,1.05,1.055,65000,1.0262
2016-03-22,1.055,1.057,1.055,1.055,35500,1.0262
2016-03-23,1.055,1.055,1.055,1.055,4500,1.0262
2016-03-24,1.055,1.055,1.05,1.05,16400,1.0214
2016-03-25,1.05,1.05,1.05,1.05,0,1.0214
2016-03-28,1.05,1.05,1.05,1.05,0,1.0214
2016-03-29,1.05,1.05,1.05,1.05,0,1.0214
2016-03-30,1.06,1.06,1.055,1.055,23000,1.0262
2016-03-31,1.06,1.06,1.04,1.05,119700,1.0214
2016-04-01,1.035,1.035,1.03,1.03,5900,1.0019
2016-04-04,1.04,1.06,1.04,1.06,11700,1.0311
2016-04-05,1.04,1.04,1.03,1.03,20000,1.0019
2016-04-06,1.03,1.03,1.03,1.03,5000,1.0019
2016-04-07,1.045,1.055,1.045,1.055,52800,1.0262
2016-04-08,1.055,1.055,1.05,1.05,102900,1.0214
2016-04-11,1.055,1.055,1.05,1.05,3200,1.0214
2016-04-12,1.04,1.1,1.04,1.05,654000,1.0214
2016-04-13,1.05,1.05,1.05,1.05,7600,1.0214
2016-04-14,1.05,1.05,1.05,1.05,14900,1.0214
2016-04-15,1.045,1.05,1.04,1.04,38200,1.0117
2016-04-18,1.04,1.045,1.03,1.03,11900,1.0019
2016-04-19,1.05,1.05,1.045,1.045,8500,1.0165
2016-04-20,1.045,1.1,1.025,1.025,35300,0.9971
2016-04-21,1.04,1.05,1.03,1.05,24700,1.0214
2016-04-22,1.04,1.065,1.03,1.03,39500,1.0019
2016-04-25,1.03,1.03,1.03,1.03,0,1.0019
2016-04-26,1.05,1.05,1.03,1.03,48400,1.0019
2016-04-27,1.04,1.04,1.04,1.04,25000,1.0117
2016-04-28,1.03,1.035,1.025,1.025,190800,0.9971
2016-04-29,1.03,1.03,1.025,1.025,34400,0.9971
2016-05-02,1.025,1.04,1.025,1.04,25300,1.0117
2016-05-03,1.04,1.04,1.025,1.035,18000,1.0068
2016-05-04,1.035,1.035,1.035,1.035,0,1.0068
2016-05-05,1.032,1.032,1.032,1.032,20000,1.0039
2016-05-06,1.03,1.03,1.03,1.03,35500,1.0019
2016-05-09,1.025,1.025,0.96,0.99,96900,0.963
2016-05-10,1.035,1.125,1.035,1.05,294200,1.0214
2016-05-11,1.06,1.08,1.03,1.045,2280200,1.0165
2016-05-12,1.05,1.05,1.025,1.04,535300,1.0117
2016-05-13,1.03,1.05,1.03,1.045,1069900,1.0165
2016-05-16,1.04,1.05,1.03,1.04,143500,1.0117
2016-05-17,1.035,1.04,1.03,1.035,60000,1.0068
2016-05-18,1.04,1.04,1.03,1.035,134200,1.0068
2016-05-19,1.037,1.04,1.037,1.037,55300,1.0087
2016-05-20,1.037,1.037,1.037,1.037,0,1.0087
2016-05-23,1.04,1.04,1.03,1.03,34000,1.0019
2016-05-24,1.02,1.035,1.02,1.02,8600,0.9922
2016-05-25,1.035,1.04,1.03,1.035,125000,1.0068
2016-05-26,1.035,1.035,1.025,1.03,29700,1.0019
2016-05-27,1.035,1.04,1.025,1.025,167000,0.9971
2016-05-30,1.05,1.05,1.03,1.035,13700,1.0068
2016-05-31,1.05,1.08,1.05,1.08,17700,1.0506
2016-06-01,1.08,1.085,1.08,1.085,16100,1.0554
2016-06-02,1.095,1.175,1.095,1.135,17400,1.1041
2016-06-03,1.175,1.19,1.15,1.15,41800,1.1187
2016-06-06,1.19,1.19,1.125,1.185,49600,1.1527
2016-06-07,1.185,1.19,1.185,1.185,11500,1.1527
2016-06-08,1.185,1.2,1.175,1.175,24200,1.143
2016-06-09,1.185,1.185,1.185,1.185,400,1.1527
2016-06-10,1.175,1.185,1.15,1.15,66500,1.1187
2016-06-13,1.15,1.15,1.15,1.15,0,1.1187
2016-06-14,1.15,1.185,1.15,1.185,27300,1.1527
2016-06-15,1.185,1.185,1.185,1.185,0,1.1527
2016-06-16,1.12,1.12,1.1,1.12,12900,1.0895
2016-06-17,1.12,1.12,1.12,1.12,0,1.0895
2016-06-20,1.15,1.15,1.12,1.12,224800,1.0895
2016-06-21,1.12,1.12,1.11,1.11,42100,1.0798
2016-06-22,1.1,1.1,1.08,1.08,14700,1.0506
2016-06-23,1.08,1.085,1.08,1.08,88100,1.0506
2016-06-24,1.08,1.1,1.045,1.05,258800,1.0214
2016-06-27,1.05,1.05,1.04,1.05,31600,1.0214
2016-06-28,1.06,1.06,1.06,1.06,4000,1.0311
2016-06-29,1.09,1.1,1.07,1.07,146000,1.0408
2016-06-30,1.07,1.09,1.06,1.065,350000,1.036
2016-07-01,1.06,1.07,1.06,1.065,91100,1.036
2016-07-04,1.07,1.07,1.07,1.07,61800,1.0408
2016-07-05,1.085,1.085,1.06,1.06,22800,1.0311
2016-07-06,1.08,1.08,1.08,1.08,66900,1.0506
2016-07-07,1.08,1.08,1.072,1.072,94300,1.0428
2016-07-08,1.08,1.08,1.07,1.075,18000,1.0457
2016-07-11,1.09,1.09,1.07,1.075,53400,1.0457
2016-07-12,1.06,1.075,1.06,1.06,187700,1.0311
2016-07-13,1.07,1.1,1.06,1.085,47200,1.0554
2016-07-14,1.07,1.1,1.07,1.1,160700,1.07
2016-07-15,1.09,1.1,1.09,1.1,44200,1.07
2016-07-18,1.1,1.1,1.09,1.1,26200,1.07
2016-07-19,1.1,1.1,1.08,1.1,17500,1.07
2016-07-20,1.1,1.1,1.08,1.08,86600,1.0506
2016-07-21,1.07,1.075,1.07,1.075,39500,1.0457
2016-07-22,1.1,1.11,1.09,1.09,271600,1.0603
2016-07-25,1.09,1.09,1.077,1.077,16700,1.0476
2016-07-26,1.08,1.09,1.077,1.08,94600,1.0506
2016-07-27,1.075,1.0775,1.07,1.07,16200,1.0408
2016-07-28,1.07,1.07,1.065,1.07,18500,1.0408
2016-07-29,1.07,1.07,1.065,1.065,3100,1.036
2016-08-01,1.065,1.065,1.06,1.06,48700,1.0311
2016-08-02,1.08,1.08,1.07,1.075,267000,1.0457
2016-08-03,1.075,1.0775,1.075,1.075,116900,1.0457
2016-08-04,1.075,1.075,1.07,1.075,43600,1.0457
2016-08-05,1.08,1.09,1.07,1.07,1262000,1.0408
2016-08-08,1.075,1.0875,1.075,1.08,2562900,1.0506
2016-08-09,1.08,1.1,1.08,1.09,45500,1.0603
2016-08-10,1.1,1.27,1.1,1.235,96900,1.2013
2016-08-11,1.31,1.39,1.3,1.345,47400,1.3083
2016-08-12,1.38,1.38,1.33,1.38,96700,1.3424
2016-08-15,1.38,1.4,1.35,1.385,178400,1.3473
2016-08-16,1.355,1.37,1.35,1.37,44900,1.3327
2016-08-17,1.35,1.36,1.35,1.36,15700,1.3229
2016-08-18,1.35,1.375,1.35,1.375,32700,1.3375
2016-08-19,1.35,1.35,1.35,1.35,34000,1.3132
2016-08-22,1.385,1.39,1.385,1.39,34200,1.3521
2016-08-23,1.39,1.465,1.39,1.445,109400,1.4056
2016-08-24,1.445,1.445,1.4,1.4,23700,1.3618
2016-08-25,1.41,1.415,1.4,1.415,33400,1.3764
2016-08-26,1.4,1.435,1.375,1.4,187900,1.3618
2016-08-29,1.355,1.38,1.355,1.375,23200,1.3375
2016-08-30,1.37,1.4,1.37,1.395,33700,1.357
2016-08-31,1.38,1.395,1.38,1.385,6700,1.3473
2016-09-01,1.375,1.375,1.365,1.37,10600,1.3327
2016-09-02,1.36,1.37,1.355,1.365,40700,1.3278
2016-09-05,1.3619999999999999,1.37,1.355,1.37,101000,1.3327
2016-09-06,1.375,1.375,1.365,1.37,17200,1.3327
2016-09-07,1.39,1.395,1.36,1.37,26700,1.3327
2016-09-08,1.37,1.38,1.37,1.37,39200,1.3327
2016-09-09,1.375,1.395,1.355,1.355,141500,1.3181
2016-09-12,1.355,1.355,1.3,1.34,67200,1.3035
2016-09-13,1.31,1.31,1.31,1.31,10000,1.2743
2016-09-14,1.34,1.34,1.31,1.31,100,1.2743
2016-09-15,1.34,1.35,1.32,1.32,74500,1.32
2016-09-16,1.33,1.335,1.33,1.33,31900,1.33
2016-09-19,1.33,1.33,1.33,1.33,4400,1.33
2016-09-20,1.34,1.34,1.33,1.33,22300,1.33
2016-09-21,1.33,1.33,1.33,1.33,0,1.33
2016-09-22,1.34,1.34,1.34,1.34,5500,1.34
2016-09-23,1.34,1.35,1.33,1.34,35600,1.34
2016-09-26,1.38,1.38,1.38,1.38,11600,1.38
2016-09-27,1.38,1.38,1.36,1.36,2600,1.36
2016-09-28,1.38,1.38,1.32,1.32,1620800,1.32
2016-09-29,1.34,1.34,1.31,1.31,13300,1.31
2016-09-30,1.34,1.34,1.32,1.325,64900,1.325
2016-10-03,1.325,1.325,1.325,1.325,0,1.325
2016-10-04,1.32,1.32,1.32,1.32,2200,1.32
2016-10-05,1.33,1.345,1.3,1.3,112800,1.3
2016-10-06,1.32,1.33,1.29,1.29,137400,1.29
2016-10-07,1.32,1.32,1.315,1.315,79800,1.315
2016-10-10,1.32,1.32,1.26,1.26,22800,1.26
2016-10-11,1.3,1.32,1.28,1.28,83500,1.28
2016-10-12,1.28,1.28,1.28,1.28,0,1.28
2016-10-13,1.3,1.3,1.22,1.22,79900,1.22
2016-10-14,1.23,1.23,1.15,1.16,16600,1.16
2016-10-17,1.2,1.285,1.2,1.28,13800,1.28
2016-10-18,1.285,1.285,1.285,1.285,1000,1.285
2016-10-19,1.285,1.285,1.285,1.285,0,1.285
2016-10-20,1.27,1.285,1.27,1.285,24600,1.285
2016-10-21,1.285,1.285,1.285,1.285,0,1.285
2016-10-24,1.285,1.3,1.285,1.285,19800,1.285
2016-10-25,1.285,1.285,1.26,1.26,5500,1.26
2016-10-26,1.285,1.285,1.285,1.285,9200,1.285
2016-10-27,1.235,1.25,1.235,1.25,10000,1.25
2016-10-28,1.28,1.3,1.275,1.275,1075200,1.275
2016-10-31,1.27,1.27,1.26,1.26,10000,1.26
2016-11-01,1.26,1.27,1.26,1.27,5500,1.27
2016-11-02,1.25,1.27,1.24,1.27,39700,1.27
2016-11-03,1.28,1.36,1.28,1.36,29600,1.36
2016-11-04,1.36,1.36,1.36,1.36,0,1.36
2016-11-07,1.4,1.405,1.4,1.405,14800,1.405
2016-11-08,1.41,1.42,1.41,1.42,20300,1.42
2016-11-09,1.42,1.42,1.37,1.37,48400,1.37
2016-11-10,1.385,1.395,1.25,1.325,142200,1.325
2016-11-11,1.33,1.35,1.33,1.33,64700,1.33
2016-11-14,1.33,1.4,1.285,1.4,10300,1.4
2016-11-15,1.38,1.4,1.38,1.39,67000,1.39
2016-11-16,1.39,1.39,1.39,1.39,0,1.39
2016-11-17,1.4,1.4,1.39,1.39,6000,1.39
2016-11-18,1.4,1.4,1.39,1.39,18100,1.39
2016-11-21,1.39,1.4,1.39,1.39,20000,1.39
2016-11-22,1.4,1.4,1.35,1.35,5700,1.35
2016-11-23,1.4,1.43,1.4,1.425,44600,1.425
2016-11-24,1.425,1.425,1.425,1.425,0,1.425
2016-11-25,1.41,1.43,1.41,1.43,19000,1.43
2016-11-28,1.43,1.43,1.42,1.42,21200,1.42
2016-11-29,1.42,1.42,1.42,1.42,0,1.42
2016-11-30,1.4,1.425,1.4,1.425,17900,1.425
2016-12-01,1.4,1.4,1.4,1.4,100,1.4
2016-12-02,1.425,1.435,1.41,1.435,33000,1.435
2016-12-05,1.435,1.435,1.435,1.435,0,1.435
2016-12-06,1.42,1.42,1.365,1.4,15500,1.4
2016-12-07,1.415,1.42,1.41,1.41,16000,1.41
2016-12-08,1.415,1.445,1.415,1.445,39200,1.445
2016-12-09,1.44,1.46,1.435,1.435,65200,1.435
2016-12-12,1.435,1.45,1.435,1.45,60500,1.45
2016-12-13,1.45,1.48,1.45,1.48,29000,1.48
2016-12-14,1.48,1.48,1.465,1.465,47900,1.465
2016-12-15,1.4,1.4,1.385,1.4,3300,1.4
2016-12-16,1.43,1.43,1.43,1.43,2400,1.43
2016-12-19,1.465,1.465,1.44,1.46,21200,1.46
2016-12-20,1.465,1.48,1.46,1.465,6500,1.465
2016-12-21,1.465,1.465,1.46,1.46,25300,1.46
2016-12-22,1.465,1.465,1.455,1.46,71700,1.46
2016-12-23,1.465,1.465,1.46,1.46,51700,1.46
2016-12-26,1.46,1.46,1.46,1.46,0,1.46
2016-12-27,1.46,1.46,1.46,1.46,0,1.46
2016-12-28,1.46,1.46,1.46,1.46,0,1.46
2016-12-29,1.465,1.47,1.465,1.465,11000,1.465
2016-12-30,1.45,1.4575,1.45,1.4569999999999999,87600,1.4569999999999999
