Date,Open,High,Low,Close,Volume,Adj Close
2014-02-20,0.5,0.62,0.5,0.62,34000,0.62
2014-02-21,0.7,0.7,0.7,0.7,11000,0.7
2014-02-24,0.8,0.8,0.67,0.67,162000,0.67
2014-02-25,0.67,0.7,0.67,0.67,108800,0.67
2014-02-26,0.67,0.75,0.67,0.73,52400,0.73
2014-02-27,0.75,0.85,0.75,0.85,131600,0.85
2014-02-28,0.85,0.98,0.83,0.96,211400,0.96
2014-03-03,1.0,1.11,1.0,1.07,261700,1.07
2014-03-04,1.04,1.08,1.015,1.015,141200,1.015
2014-03-05,1.05,1.05,0.98,1.02,84100,1.02
2014-03-06,1.03,1.04,0.86,0.87,121800,0.87
2014-03-07,0.87,0.885,0.87,0.885,33200,0.885
2014-03-10,0.885,0.885,0.885,0.885,0,0.885
2014-03-11,0.84,0.84,0.73,0.74,49300,0.74
2014-03-12,0.74,0.79,0.74,0.79,21000,0.79
2014-03-13,0.79,0.79,0.79,0.79,8700,0.79
2014-03-14,0.84,0.84,0.8,0.8,5000,0.8
2014-03-17,0.79,0.79,0.79,0.79,15400,0.79
2014-03-18,0.79,0.79,0.79,0.79,0,0.79
2014-03-19,0.785,0.82,0.785,0.82,45800,0.82
2014-03-20,0.8,0.8,0.75,0.8,73000,0.8
2014-03-21,0.81,0.82,0.77,0.815,99500,0.815
2014-03-24,0.815,0.825,0.81,0.82,65700,0.82
2014-03-25,0.85,0.91,0.85,0.89,129700,0.89
2014-03-26,0.895,0.92,0.895,0.9,126300,0.9
2014-03-27,0.885,0.885,0.87,0.87,7400,0.87
2014-03-28,0.87,0.87,0.86,0.87,19200,0.87
2014-03-31,0.85,0.85,0.8,0.8,45500,0.8
2014-04-01,0.8,0.8,0.74,0.75,42900,0.75
2014-04-02,0.75,0.75,0.74,0.74,14700,0.74
2014-04-03,0.73,0.73,0.7,0.73,39900,0.73
2014-04-04,0.73,0.73,0.67,0.72,11000,0.72
2014-04-07,0.695,0.695,0.695,0.695,6000,0.695
2014-04-08,0.68,0.68,0.55,0.63,54800,0.63
2014-04-09,0.63,0.63,0.63,0.63,0,0.63
2014-04-10,0.63,0.63,0.63,0.63,0,0.63
2014-04-11,0.6,0.6,0.6,0.6,15000,0.6
2014-04-14,0.59,0.59,0.555,0.555,32800,0.555
2014-04-15,0.565,0.565,0.52,0.52,46200,0.52
2014-04-16,0.52,0.52,0.52,0.52,21500,0.52
2014-04-17,0.52,0.52,0.51,0.51,12300,0.51
2014-04-18,0.51,0.51,0.51,0.51,0,0.51
2014-04-21,0.51,0.51,0.51,0.51,0,0.51
2014-04-22,0.5,0.5,0.445,0.5,67600,0.5
2014-04-23,0.5,0.5,0.5,0.5,1000,0.5
2014-04-24,0.49,0.5,0.49,0.5,10000,0.5
2014-04-25,0.5,0.5,0.5,0.5,0,0.5
2014-04-28,0.5,0.5,0.5,0.5,18000,0.5
2014-04-29,0.5,0.5,0.5,0.5,2700,0.5
2014-04-30,0.49,0.49,0.485,0.485,3100,0.485
2014-05-01,0.48,0.5,0.48,0.5,4000,0.5
2014-05-02,0.495,0.5,0.495,0.5,11400,0.5
2014-05-05,0.5,0.5,0.5,0.5,28200,0.5
2014-05-06,0.5,0.5,0.5,0.5,10000,0.5
2014-05-07,0.5,0.5,0.495,0.495,40000,0.495
2014-05-08,0.495,0.495,0.495,0.495,2500,0.495
2014-05-09,0.5,0.5,0.5,0.5,4000,0.5
2014-05-12,0.5,0.5,0.5,0.5,20000,0.5
2014-05-13,0.5,0.52,0.5,0.52,35800,0.52
2014-05-14,0.52,0.54,0.52,0.54,36700,0.54
2014-05-15,0.56,0.72,0.555,0.64,286500,0.64
2014-05-16,0.645,0.67,0.64,0.66,129400,0.66
2014-05-19,0.65,0.67,0.625,0.625,22000,0.625
2014-05-20,0.62,0.62,0.585,0.585,63300,0.585
2014-05-21,0.6,0.6,0.6,0.6,24400,0.6
2014-05-22,0.6,0.6,0.6,0.6,17400,0.6
2014-05-23,0.6,0.6,0.585,0.585,31800,0.585
2014-05-26,0.59,0.6,0.59,0.59,14900,0.59
2014-05-27,0.59,0.59,0.59,0.59,1500,0.59
2014-05-28,0.62,0.62,0.6,0.6,7900,0.6
2014-05-29,0.59,0.6,0.59,0.6,9800,0.6
2014-05-30,0.6,0.6,0.6,0.6,0,0.6
2014-06-02,0.59,0.59,0.59,0.59,600,0.59
2014-06-03,0.57,0.57,0.565,0.565,5500,0.565
2014-06-04,0.565,0.59,0.565,0.58,20300,0.58
2014-06-05,0.55,0.58,0.55,0.56,21600,0.56
2014-06-06,0.56,0.56,0.55,0.55,18500,0.55
2014-06-09,0.55,0.55,0.55,0.55,0,0.55
2014-06-10,0.54,0.56,0.54,0.56,27000,0.56
2014-06-11,0.54,0.54,0.53,0.53,15000,0.53
2014-06-12,0.53,0.53,0.53,0.53,800,0.53
2014-06-13,0.53,0.53,0.5,0.5,45000,0.5
2014-06-16,0.5,0.5,0.5,0.5,15000,0.5
2014-06-17,0.51,0.51,0.51,0.51,5000,0.51
2014-06-18,0.55,0.55,0.48,0.49,73500,0.49
2014-06-19,0.49,0.49,0.49,0.49,0,0.49
2014-06-20,0.49,0.49,0.49,0.49,0,0.49
2014-06-23,0.475,0.475,0.435,0.46,1135900,0.46
2014-06-24,0.46,0.46,0.46,0.46,250900,0.46
2014-06-25,0.48,0.48,0.48,0.48,20000,0.48
2014-06-26,0.495,0.495,0.495,0.495,10000,0.495
2014-06-27,0.49,0.49,0.49,0.49,10000,0.49
2014-06-30,0.48,0.48,0.46,0.46,8000,0.46
2014-07-01,0.49,0.5,0.49,0.5,43900,0.5
2014-07-02,0.52,0.56,0.52,0.56,127500,0.56
2014-07-03,0.56,0.56,0.55,0.55,156500,0.55
2014-07-04,0.55,0.565,0.545,0.545,58500,0.545
2014-07-07,0.54,0.54,0.53,0.53,45400,0.53
2014-07-08,0.525,0.525,0.515,0.515,66800,0.515
2014-07-09,0.51,0.51,0.46,0.46,171700,0.46
2014-07-10,0.49,0.5,0.49,0.49,84400,0.49
2014-07-11,0.49,0.49,0.49,0.49,0,0.49
2014-07-14,0.47,0.47,0.47,0.47,600,0.47
2014-07-15,0.47,0.47,0.47,0.47,0,0.47
2014-07-16,0.485,0.485,0.46,0.46,408000,0.46
2014-07-17,0.46,0.48,0.46,0.48,26500,0.48
2014-07-18,0.475,0.48,0.475,0.48,15500,0.48
2014-07-21,0.47,0.47,0.46,0.46,134500,0.46
2014-07-22,0.46,0.46,0.45,0.45,334600,0.45
2014-07-23,0.45,0.455,0.45,0.45,296900,0.45
2014-07-24,0.465,0.465,0.465,0.465,11200,0.465
2014-07-25,0.465,0.465,0.46,0.46,27700,0.46
2014-07-28,0.465,0.47,0.455,0.455,12100,0.455
2014-07-29,0.46,0.46,0.46,0.46,23600,0.46
2014-07-30,0.455,0.455,0.45,0.45,99700,0.45
2014-07-31,0.45,0.45,0.45,0.45,0,0.45
2014-08-01,0.45,0.45,0.45,0.45,0,0.45
2014-08-04,0.45,0.45,0.43,0.43,43200,0.43
2014-08-05,0.44,0.44,0.44,0.44,10000,0.44
2014-08-06,0.43,0.46,0.43,0.46,61700,0.46
2014-08-07,0.45,0.45,0.45,0.45,10000,0.45
2014-08-08,0.43,0.45,0.43,0.45,32300,0.45
2014-08-11,0.44,0.44,0.44,0.44,34000,0.44
2014-08-12,0.44,0.44,0.435,0.435,40700,0.435
2014-08-13,0.435,0.435,0.435,0.435,0,0.435
2014-08-14,0.47,0.48,0.45,0.45,43200,0.45
2014-08-15,0.45,0.45,0.45,0.45,0,0.45
2014-08-18,0.45,0.45,0.45,0.45,0,0.45
2014-08-19,0.46,0.52,0.46,0.52,7700,0.52
2014-08-20,0.5,0.5,0.5,0.5,50000,0.5
2014-08-21,0.52,0.56,0.52,0.54,325600,0.54
2014-08-22,0.55,0.55,0.55,0.55,118900,0.55
2014-08-25,0.55,0.55,0.55,0.55,15000,0.55
2014-08-26,0.55,0.55,0.54,0.55,780800,0.55
2014-08-27,0.55,0.55,0.53,0.53,6500,0.53
2014-08-28,0.53,0.53,0.53,0.53,0,0.53
2014-08-29,0.52,0.52,0.5,0.5,45100,0.5
2014-09-01,0.52,0.57,0.52,0.57,15500,0.57
2014-09-02,0.55,0.56,0.55,0.55,65000,0.55
2014-09-03,0.55,0.55,0.52,0.52,37200,0.52
2014-09-04,0.54,0.54,0.54,0.54,20000,0.54
2014-09-05,0.54,0.54,0.54,0.54,166800,0.54
2014-09-08,0.56,0.57,0.56,0.57,157400,0.57
2014-09-09,0.56,0.56,0.56,0.56,44000,0.56
2014-09-10,0.57,0.58,0.56,0.56,137000,0.56
2014-09-11,0.57,0.57,0.56,0.56,10800,0.56
2014-09-12,0.56,0.56,0.54,0.54,28300,0.54
2014-09-15,0.53,0.56,0.53,0.56,116200,0.56
2014-09-16,0.56,0.57,0.56,0.57,51200,0.57
2014-09-17,0.57,0.57,0.57,0.57,200000,0.57
2014-09-18,0.55,0.55,0.55,0.55,54000,0.55
2014-09-19,0.57,0.57,0.57,0.57,7400,0.57
2014-09-22,0.57,0.57,0.57,0.57,2600,0.57
2014-09-23,0.57,0.58,0.57,0.58,47000,0.58
2014-09-24,0.57,0.57,0.56,0.56,18900,0.56
2014-09-25,0.56,0.56,0.55,0.555,33200,0.555
2014-09-26,0.55,0.555,0.55,0.555,143400,0.555
2014-09-29,0.55,0.555,0.54,0.54,98600,0.54
2014-09-30,0.54,0.54,0.54,0.54,0,0.54
2014-10-01,0.54,0.54,0.54,0.54,2200,0.54
2014-10-02,0.54,0.54,0.54,0.54,0,0.54
2014-10-03,0.54,0.54,0.54,0.54,5000,0.54
2014-10-06,0.54,0.54,0.54,0.54,0,0.54
2014-10-07,0.54,0.555,0.54,0.555,25000,0.555
2014-10-08,0.53,0.53,0.53,0.53,10000,0.53
2014-10-09,0.52,0.52,0.52,0.52,2900,0.52
2014-10-10,0.53,0.53,0.53,0.53,8000,0.53
2014-10-13,0.53,0.53,0.53,0.53,0,0.53
2014-10-14,0.53,0.53,0.53,0.53,0,0.53
2014-10-15,0.53,0.53,0.53,0.53,21000,0.53
2014-10-16,0.53,0.53,0.53,0.53,6500,0.53
2014-10-17,0.52,0.53,0.505,0.53,10200,0.53
2014-10-20,0.53,0.53,0.53,0.53,0,0.53
2014-10-21,0.53,0.53,0.53,0.53,0,0.53
2014-10-22,0.51,0.51,0.5,0.5,29000,0.5
2014-10-23,0.49,0.49,0.49,0.49,2000,0.49
2014-10-24,0.49,0.5,0.49,0.5,13600,0.5
2014-10-27,0.5,0.51,0.5,0.51,27900,0.51
2014-10-28,0.51,0.51,0.51,0.51,0,0.51
2014-10-29,0.51,0.51,0.51,0.51,0,0.51
2014-10-30,0.51,0.51,0.51,0.51,0,0.51
2014-10-31,0.51,0.51,0.51,0.51,0,0.51
2014-11-03,0.51,0.52,0.51,0.52,24000,0.52
2014-11-04,0.52,0.55,0.52,0.53,54000,0.53
2014-11-05,0.54,0.54,0.53,0.53,21800,0.53
2014-11-06,0.53,0.53,0.53,0.53,0,0.53
2014-11-07,0.53,0.53,0.53,0.53,40300,0.53
2014-11-10,0.54,0.54,0.53,0.53,15600,0.53
2014-11-11,0.54,0.57,0.53,0.57,128100,0.57
2014-11-12,0.57,0.59,0.57,0.59,372200,0.59
2014-11-13,0.59,0.59,0.58,0.58,66600,0.58
2014-11-14,0.57,0.57,0.55,0.57,31900,0.57
2014-11-17,0.55,0.57,0.55,0.57,16600,0.57
2014-11-18,0.57,0.58,0.57,0.57,41000,0.57
2014-11-19,0.55,0.55,0.55,0.55,43200,0.55
2014-11-20,0.525,0.545,0.52,0.52,13500,0.52
2014-11-21,0.52,0.52,0.52,0.52,55000,0.52
2014-11-24,0.53,0.54,0.53,0.54,36700,0.54
2014-11-25,0.525,0.525,0.525,0.525,500,0.525
2014-11-26,0.525,0.525,0.525,0.525,0,0.525
2014-11-27,0.525,0.525,0.525,0.525,0,0.525
2014-11-28,0.52,0.52,0.5,0.5,86700,0.5
2014-12-01,0.47,0.47,0.47,0.47,8400,0.47
2014-12-02,0.47,0.47,0.46,0.46,30400,0.46
2014-12-03,0.46,0.46,0.46,0.46,10000,0.46
2014-12-04,0.46,0.46,0.46,0.46,3300,0.46
2014-12-05,0.46,0.46,0.46,0.46,6500,0.46
2014-12-08,0.46,0.46,0.46,0.46,0,0.46
2014-12-09,0.46,0.46,0.46,0.46,11300,0.46
2014-12-10,0.46,0.46,0.46,0.46,0,0.46
2014-12-11,0.45,0.45,0.45,0.45,21000,0.45
2014-12-12,0.45,0.45,0.45,0.45,3000,0.45
2014-12-15,0.42,0.42,0.42,0.42,19000,0.42
2014-12-16,0.42,0.42,0.42,0.42,0,0.42
2014-12-17,0.42,0.42,0.42,0.42,0,0.42
2014-12-18,0.42,0.42,0.42,0.42,0,0.42
2014-12-19,0.45,0.46,0.45,0.46,12300,0.46
2014-12-22,0.45,0.46,0.45,0.46,3300,0.46
2014-12-23,0.46,0.46,0.46,0.46,0,0.46
2014-12-24,0.46,0.46,0.46,0.46,2500,0.46
2014-12-25,0.46,0.46,0.46,0.46,0,0.46
2014-12-26,0.46,0.46,0.46,0.46,0,0.46
2014-12-29,0.46,0.46,0.46,0.46,0,0.46
2014-12-30,0.46,0.46,0.46,0.46,0,0.46
2014-12-31,0.46,0.46,0.46,0.46,0,0.46
2015-01-01,0.46,0.46,0.46,0.46,0,0.46
2015-01-02,0.46,0.46,0.46,0.46,0,0.46
2015-01-05,0.46,0.46,0.46,0.46,0,0.46
2015-01-06,0.5,0.51,0.5,0.51,21600,0.51
2015-01-07,0.5,0.51,0.5,0.51,27200,0.51
2015-01-08,0.5,0.51,0.495,0.5,83400,0.5
2015-01-09,0.49,0.49,0.49,0.49,10600,0.49
2015-01-12,0.49,0.5,0.49,0.49,26000,0.49
2015-01-13,0.51,0.51,0.51,0.51,3700,0.51
2015-01-14,0.5,0.5,0.5,0.5,5000,0.5
2015-01-15,0.5,0.5,0.5,0.5,0,0.5
2015-01-16,0.5,0.5,0.5,0.5,0,0.5
2015-01-19,0.51,0.51,0.51,0.51,3200,0.51
2015-01-20,0.51,0.51,0.51,0.51,0,0.51
2015-01-21,0.51,0.51,0.51,0.51,0,0.51
2015-01-22,0.5,0.5,0.5,0.5,800,0.5
2015-01-23,0.5,0.5,0.5,0.5,1100,0.5
2015-01-26,0.5,0.5,0.5,0.5,0,0.5
2015-01-27,0.49,0.49,0.435,0.435,48100,0.435
2015-01-28,0.435,0.435,0.435,0.435,0,0.435
2015-01-29,0.44,0.44,0.43,0.43,17600,0.43
2015-01-30,0.45,0.45,0.45,0.45,2000,0.45
2015-02-02,0.45,0.45,0.45,0.45,4100,0.45
2015-02-03,0.45,0.45,0.45,0.45,5000,0.45
2015-02-04,0.45,0.45,0.45,0.45,0,0.45
2015-02-05,0.47,0.47,0.47,0.47,7000,0.47
2015-02-06,0.47,0.47,0.47,0.47,0,0.47
2015-02-09,0.49,0.49,0.49,0.49,10000,0.49
2015-02-10,0.495,0.495,0.495,0.495,11000,0.495
2015-02-11,0.495,0.495,0.495,0.495,0,0.495
2015-02-12,0.47,0.47,0.47,0.47,1000,0.47
2015-02-13,0.47,0.49,0.47,0.49,15700,0.49
2015-02-16,0.495,0.495,0.49,0.49,27000,0.49
2015-02-17,0.49,0.49,0.49,0.49,0,0.49
2015-02-18,0.495,0.495,0.49,0.49,26000,0.49
2015-02-19,0.49,0.49,0.49,0.49,0,0.49
2015-02-20,0.49,0.49,0.49,0.49,13700,0.49
2015-02-23,0.49,0.49,0.49,0.49,0,0.49
2015-02-24,0.46,0.46,0.46,0.46,4900,0.46
2015-02-25,0.46,0.46,0.46,0.46,0,0.46
2015-02-26,0.46,0.46,0.46,0.46,0,0.46
2015-02-27,0.46,0.46,0.46,0.46,28100,0.46
2015-03-02,0.47,0.47,0.47,0.47,18900,0.47
2015-03-03,0.47,0.47,0.47,0.47,4500,0.47
2015-03-04,0.47,0.47,0.47,0.47,0,0.47
2015-03-05,0.47,0.47,0.47,0.47,2200,0.47
2015-03-06,0.47,0.47,0.42,0.42,27900,0.42
2015-03-09,0.42,0.42,0.42,0.42,0,0.42
2015-03-10,0.42,0.42,0.42,0.42,0,0.42
2015-03-11,0.42,0.42,0.42,0.42,0,0.42
2015-03-12,0.43,0.43,0.4,0.43,51200,0.43
2015-03-13,0.43,0.43,0.43,0.43,0,0.43
2015-03-16,0.43,0.47,0.43,0.47,20000,0.47
2015-03-17,0.43,0.43,0.43,0.43,9000,0.43
2015-03-18,0.43,0.44,0.43,0.44,27000,0.44
2015-03-19,0.47,0.495,0.47,0.49,123200,0.49
2015-03-20,0.48,0.48,0.48,0.48,6200,0.48
2015-03-23,0.48,0.48,0.48,0.48,23700,0.48
2015-03-24,0.49,0.49,0.48,0.48,43300,0.48
2015-03-25,0.5,0.5,0.5,0.5,71700,0.5
2015-03-26,0.5,0.5,0.5,0.5,37000,0.5
2015-03-27,0.5,0.5,0.49,0.5,35100,0.5
2015-03-30,0.5,0.5,0.5,0.5,0,0.5
2015-03-31,0.5,0.5,0.5,0.5,0,0.5
2015-04-01,0.5,0.5,0.49,0.5,275000,0.5
2015-04-02,0.5,0.59,0.5,0.56,321800,0.56
2015-04-03,0.56,0.56,0.56,0.56,0,0.56
2015-04-06,0.56,0.56,0.56,0.56,0,0.56
2015-04-07,0.56,0.56,0.54,0.54,40800,0.54
2015-04-08,0.54,0.54,0.505,0.505,84600,0.505
2015-04-09,0.5,0.53,0.49,0.53,153200,0.53
2015-04-10,0.53,0.53,0.515,0.525,84900,0.525
2015-04-13,0.515,0.515,0.515,0.515,101200,0.515
2015-04-14,0.515,0.515,0.505,0.505,27700,0.505
2015-04-15,0.51,0.51,0.51,0.51,40000,0.51
2015-04-16,0.5,0.525,0.5,0.525,50900,0.525
2015-04-17,0.51,0.51,0.505,0.505,26100,0.505
2015-04-20,0.505,0.54,0.505,0.54,91400,0.54
2015-04-21,0.54,0.56,0.54,0.56,75900,0.56
2015-04-22,0.57,0.58,0.565,0.57,216500,0.57
2015-04-23,0.57,0.59,0.565,0.59,150100,0.59
2015-04-24,0.59,0.59,0.585,0.59,62500,0.59
2015-04-27,0.585,0.585,0.58,0.58,18600,0.58
2015-04-28,0.58,0.58,0.56,0.56,69400,0.56
2015-04-29,0.56,0.56,0.55,0.55,50600,0.55
2015-04-30,0.555,0.58,0.555,0.56,127600,0.56
2015-05-01,0.56,0.565,0.545,0.565,76600,0.565
2015-05-04,0.59,0.59,0.59,0.59,18500,0.59
2015-05-05,0.59,0.59,0.58,0.58,89000,0.58
2015-05-06,0.57,0.57,0.57,0.57,44600,0.57
2015-05-07,0.55,0.55,0.55,0.55,9800,0.55
2015-05-08,0.55,0.55,0.55,0.55,0,0.55
2015-05-11,0.545,0.56,0.545,0.56,15800,0.56
2015-05-12,0.56,0.59,0.56,0.59,111000,0.59
2015-05-13,0.58,0.6,0.58,0.6,175200,0.6
2015-05-14,0.6,0.6,0.6,0.6,61300,0.6
2015-05-15,0.6,0.63,0.6,0.615,495800,0.615
2015-05-18,0.62,0.62,0.61,0.61,173800,0.61
2015-05-19,0.62,0.64,0.62,0.64,22500,0.64
2015-05-20,0.62,0.62,0.6,0.6,43800,0.6
2015-05-21,0.62,0.62,0.6,0.6,22400,0.6
2015-05-22,0.6,0.62,0.6,0.6,128700,0.6
2015-05-25,0.6,0.6,0.55,0.55,139000,0.55
2015-05-26,0.565,0.58,0.565,0.58,27300,0.58
2015-05-27,0.58,0.58,0.58,0.58,10000,0.58
2015-05-28,0.565,0.565,0.55,0.55,30000,0.55
2015-05-29,0.565,0.6,0.565,0.6,74500,0.6
2015-06-01,0.6,0.6,0.6,0.6,155500,0.6
2015-06-02,0.6,0.6,0.6,0.6,4000,0.6
2015-06-03,0.59,0.6,0.59,0.6,173500,0.6
2015-06-04,0.6,0.6,0.595,0.595,160500,0.595
2015-06-05,0.57,0.57,0.555,0.57,428600,0.57
2015-06-08,0.57,0.57,0.57,0.57,0,0.57
2015-06-09,0.59,0.595,0.59,0.595,2800,0.595
2015-06-10,0.59,0.59,0.59,0.59,17000,0.59
2015-06-11,0.59,0.59,0.5,0.5,69600,0.5
2015-06-12,0.5,0.5,0.5,0.5,900,0.5
2015-06-15,0.53,0.53,0.53,0.53,5000,0.53
2015-06-16,0.53,0.54,0.5,0.54,106000,0.54
2015-06-17,0.54,0.54,0.52,0.53,21000,0.53
2015-06-18,0.53,0.53,0.53,0.53,0,0.53
2015-06-19,0.53,0.53,0.53,0.53,0,0.53
2015-06-22,0.5,0.5,0.5,0.5,4200,0.5
2015-06-23,0.5,0.5,0.455,0.46,113500,0.46
2015-06-24,0.46,0.465,0.46,0.465,8000,0.465
2015-06-25,0.525,0.525,0.52,0.52,8500,0.52
2015-06-26,0.49,0.515,0.49,0.515,39800,0.515
2015-06-29,0.515,0.515,0.515,0.515,0,0.515
2015-06-30,0.49,0.49,0.49,0.49,1200,0.49
2015-07-01,0.49,0.49,0.49,0.49,0,0.49
2015-07-02,0.515,0.52,0.5,0.52,32600,0.52
2015-07-03,0.53,0.545,0.53,0.545,27000,0.545
2015-07-06,0.545,0.58,0.545,0.56,157500,0.56
2015-07-07,0.575,0.575,0.575,0.575,36800,0.575
2015-07-08,0.575,0.575,0.57,0.575,102100,0.575
2015-07-09,0.575,0.575,0.575,0.575,500,0.575
2015-07-10,0.575,0.575,0.575,0.575,0,0.575
2015-07-13,0.58,0.59,0.57,0.59,25100,0.59
2015-07-14,0.57,0.57,0.57,0.57,10000,0.57
2015-07-15,0.585,0.585,0.585,0.585,23800,0.585
2015-07-16,0.58,0.58,0.57,0.57,15000,0.57
2015-07-17,0.57,0.585,0.57,0.585,28000,0.585
2015-07-20,0.585,0.585,0.585,0.585,900,0.585
2015-07-21,0.585,0.585,0.57,0.57,39300,0.57
2015-07-22,0.57,0.57,0.57,0.57,22200,0.57
2015-07-23,0.585,0.585,0.57,0.57,28500,0.57
2015-07-24,0.57,0.57,0.57,0.57,428500,0.57
2015-07-27,0.58,0.59,0.58,0.59,45000,0.59
2015-07-28,0.57,0.57,0.57,0.57,21400,0.57
2015-07-29,0.575,0.575,0.575,0.575,24200,0.575
2015-07-30,0.59,0.59,0.59,0.59,161800,0.59
2015-07-31,0.59,0.59,0.59,0.59,30000,0.59
2015-08-03,0.59,0.59,0.59,0.59,100000,0.59
2015-08-04,0.59,0.59,0.59,0.59,294300,0.59
2015-08-05,0.585,0.585,0.58,0.58,29700,0.58
2015-08-06,0.57,0.57,0.57,0.57,800,0.57
2015-08-07,0.57,0.57,0.55,0.55,10000,0.55
2015-08-10,0.55,0.55,0.55,0.55,0,0.55
2015-08-11,0.55,0.56,0.55,0.56,17700,0.56
2015-08-12,0.54,0.54,0.54,0.54,9400,0.54
2015-08-13,0.55,0.55,0.54,0.54,75000,0.54
2015-08-14,0.54,0.54,0.54,0.54,20000,0.54
2015-08-17,0.54,0.54,0.54,0.54,2000,0.54
2015-08-18,0.53,0.53,0.53,0.53,800,0.53
2015-08-19,0.52,0.52,0.52,0.52,5000,0.52
2015-08-20,0.53,0.54,0.51,0.51,42500,0.51
2015-08-21,0.52,0.52,0.51,0.51,10000,0.51
2015-08-24,0.51,0.51,0.51,0.51,0,0.51
2015-08-25,0.48,0.48,0.48,0.48,1500,0.48
2015-08-26,0.48,0.48,0.48,0.48,0,0.48
2015-08-27,0.48,0.48,0.48,0.48,0,0.48
2015-08-28,0.48,0.52,0.48,0.52,10400,0.52
2015-08-31,0.5,0.5,0.5,0.5,2000,0.5
2015-09-01,0.5,0.5,0.5,0.5,2000,0.5
2015-09-02,0.46,0.46,0.45,0.45,10000,0.45
2015-09-03,0.455,0.455,0.4,0.4,28300,0.4
2015-09-04,0.43,0.43,0.43,0.43,44200,0.43
2015-09-07,0.4,0.4,0.38,0.38,51000,0.38
2015-09-08,0.4,0.43,0.4,0.43,77000,0.43
2015-09-09,0.45,0.45,0.43,0.43,7800,0.43
2015-09-10,0.43,0.43,0.43,0.43,27200,0.43
2015-09-11,0.43,0.45,0.43,0.45,70000,0.45
2015-09-14,0.45,0.45,0.45,0.45,27600,0.45
2015-09-15,0.43,0.43,0.43,0.43,5600,0.43
2015-09-16,0.43,0.43,0.43,0.43,29400,0.43
2015-09-17,0.43,0.43,0.41,0.41,335000,0.41
2015-09-18,0.41,0.41,0.41,0.41,0,0.41
2015-09-21,0.5,0.5,0.48,0.48,4200,0.48
2015-09-22,0.43,0.43,0.43,0.43,1400,0.43
2015-09-23,0.49,0.49,0.46,0.46,50900,0.46
2015-09-24,0.46,0.46,0.46,0.46,126900,0.46
2015-09-25,0.46,0.46,0.46,0.46,0,0.46
2015-09-28,0.46,0.46,0.44,0.44,7100,0.44
2015-09-29,0.44,0.44,0.44,0.44,0,0.44
2015-09-30,0.455,0.455,0.455,0.455,1100,0.455
2015-10-01,0.455,0.455,0.455,0.455,6200,0.455
2015-10-02,0.455,0.455,0.455,0.455,0,0.455
2015-10-05,0.455,0.455,0.455,0.455,0,0.455
2015-10-06,0.455,0.455,0.455,0.455,0,0.455
2015-10-07,0.45,0.45,0.43,0.43,17500,0.43
2015-10-08,0.42,0.42,0.42,0.42,18700,0.42
2015-10-09,0.44,0.44,0.435,0.44,21400,0.44
2015-10-12,0.43,0.43,0.43,0.43,2500,0.43
2015-10-13,0.43,0.43,0.43,0.43,0,0.43
2015-10-14,0.43,0.43,0.43,0.43,0,0.43
2015-10-15,0.43,0.43,0.43,0.43,0,0.43
2015-10-16,0.445,0.445,0.43,0.43,32700,0.43
2015-10-19,0.43,0.435,0.43,0.435,8300,0.435
2015-10-20,0.435,0.44,0.435,0.44,161000,0.44
2015-10-21,0.41,0.425,0.41,0.425,33600,0.425
2015-10-22,0.42,0.425,0.42,0.425,22100,0.425
2015-10-23,0.45,0.46,0.43200000000000005,0.435,41900,0.435
2015-10-26,0.435,0.44,0.43,0.43,25900,0.43
2015-10-27,0.43,0.43,0.43,0.43,0,0.43
2015-10-28,0.43,0.43,0.43,0.43,0,0.43
2015-10-29,0.43,0.435,0.43,0.435,10100,0.435
2015-10-30,0.435,0.435,0.435,0.435,0,0.435
2015-11-02,0.43,0.44,0.43,0.44,27100,0.44
2015-11-03,0.43,0.44,0.425,0.44,18500,0.44
2015-11-04,0.44,0.44,0.44,0.44,2500,0.44
2015-11-05,0.42,0.435,0.41,0.435,31700,0.435
2015-11-06,0.43,0.43,0.4,0.4,145000,0.4
2015-11-09,0.41,0.41,0.4,0.4,111200,0.4
2015-11-10,0.39,0.39,0.39,0.39,23300,0.39
2015-11-11,0.39,0.4,0.39,0.39,107000,0.39
2015-11-12,0.39,0.39,0.37,0.37,645300,0.37
2015-11-13,0.39,0.39,0.37,0.38,49700,0.38
2015-11-16,0.375,0.375,0.375,0.375,1500,0.375
2015-11-17,0.36,0.36,0.36,0.36,6500,0.36
2015-11-18,0.36,0.36,0.36,0.36,0,0.36
2015-11-19,0.36,0.36,0.36,0.36,0,0.36
2015-11-20,0.4,0.4,0.38,0.38,160000,0.38
2015-11-23,0.37,0.37,0.37,0.37,12200,0.37
2015-11-24,0.35,0.35,0.35,0.35,1000000,0.35
2015-11-25,0.35,0.35,0.35,0.35,19400,0.35
2015-11-26,0.35,0.35,0.32,0.325,109200,0.325
2015-11-27,0.3,0.325,0.3,0.32,132900,0.32
2015-11-30,0.31,0.32,0.3,0.3,887100,0.3
2015-12-01,0.3,0.3,0.265,0.265,13000,0.265
2015-12-02,0.275,0.275,0.27,0.27,15000,0.27
2015-12-03,0.275,0.275,0.25,0.25,137400,0.25
2015-12-04,0.25,0.25,0.24,0.24,8600,0.24
2015-12-07,0.24,0.24,0.2,0.205,42200,0.205
2015-12-08,0.22,0.225,0.22,0.225,60100,0.225
2015-12-09,0.24,0.26,0.24,0.26,59400,0.26
2015-12-10,0.26,0.26,0.26,0.26,0,0.26
2015-12-11,0.26,0.26,0.26,0.26,0,0.26
2015-12-14,0.24,0.24,0.2,0.2,85700,0.2
2015-12-15,0.19,0.22,0.19,0.22,46700,0.22
2015-12-16,0.205,0.21,0.18,0.21,223900,0.21
2015-12-17,0.2,0.2,0.2,0.2,5000,0.2
2015-12-18,0.195,0.205,0.195,0.2,247200,0.2
2015-12-21,0.2,0.2,0.2,0.2,88600,0.2
2015-12-22,0.2,0.2,0.2,0.2,0,0.2
2015-12-23,0.2,0.2,0.2,0.2,0,0.2
2015-12-24,0.2,0.2,0.2,0.2,0,0.2
2015-12-25,0.2,0.2,0.2,0.2,0,0.2
2015-12-28,0.2,0.2,0.2,0.2,0,0.2
2015-12-29,0.18,0.18,0.16,0.18,144500,0.18
2015-12-30,0.18,0.18,0.16,0.165,736700,0.165
2015-12-31,0.165,0.17,0.16,0.16,269000,0.16
2016-01-01,0.16,0.16,0.16,0.16,0,0.16
2016-01-04,0.17,0.17,0.165,0.165,18700,0.165
2016-01-05,0.165,0.165,0.165,0.165,100000,0.165
2016-01-06,0.16,0.17,0.16,0.16,252600,0.16
2016-01-07,0.165,0.17,0.16,0.16,91600,0.16
2016-01-08,0.16,0.16,0.16,0.16,69400,0.16
2016-01-11,0.16,0.16,0.16,0.16,0,0.16
2016-01-12,0.16,0.16,0.16,0.16,0,0.16
2016-01-13,0.16,0.16,0.16,0.16,0,0.16
2016-01-14,0.165,0.165,0.14,0.145,160100,0.145
2016-01-15,0.145,0.145,0.145,0.145,10900,0.145
2016-01-18,0.14,0.14,0.13,0.13,223000,0.13
2016-01-19,0.12,0.12,0.115,0.115,128300,0.115
2016-01-20,0.11,0.115,0.085,0.105,187900,0.105
2016-01-21,0.11,0.11,0.096,0.096,92300,0.096
2016-01-22,0.1,0.1,0.09,0.095,71800,0.095
2016-01-25,0.105,0.11,0.105,0.105,125800,0.105
2016-01-26,0.105,0.105,0.105,0.105,0,0.105
2016-01-27,0.105,0.105,0.1,0.105,69600,0.105
2016-01-28,0.105,0.105,0.105,0.105,0,0.105
2016-01-29,0.12,0.12,0.12,0.12,10900,0.12
2016-02-01,0.125,0.125,0.125,0.125,170000,0.125
2016-02-02,0.125,0.125,0.125,0.125,0,0.125
2016-02-03,0.135,0.15,0.135,0.15,97500,0.15
2016-02-04,0.15,0.15,0.15,0.15,0,0.15
2016-02-05,0.15,0.15,0.15,0.15,0,0.15
2016-02-08,0.15,0.15,0.15,0.15,0,0.15
2016-02-09,0.15,0.15,0.15,0.15,0,0.15
2016-02-10,0.125,0.125,0.125,0.125,89500,0.125
2016-02-11,0.125,0.125,0.125,0.125,0,0.125
2016-02-12,0.125,0.125,0.1,0.11,65600,0.11
2016-02-15,0.11,0.12,0.11,0.115,39000,0.115
2016-02-16,0.11,0.11,0.11,0.11,45300,0.11
2016-02-17,0.115,0.115,0.115,0.115,14000,0.115
2016-02-18,0.115,0.115,0.11,0.11,18900,0.11
2016-02-19,0.11,0.12,0.11,0.12,21600,0.12
2016-02-22,0.12,0.12,0.12,0.12,0,0.12
2016-02-23,0.12,0.12,0.12,0.12,0,0.12
2016-02-24,0.1,0.1,0.09,0.09,367400,0.09
2016-02-25,0.09,0.09,0.09,0.09,0,0.09
2016-02-26,0.09,0.09,0.09,0.09,0,0.09
2016-02-29,0.08,0.08,0.08,0.08,127700,0.08
2016-03-01,0.08,0.08,0.08,0.08,0,0.08
2016-03-02,0.07400000000000001,0.07400000000000001,0.057,0.057,194700,0.057
2016-03-03,0.057,0.057,0.057,0.057,0,0.057
2016-03-04,0.057,0.057,0.057,0.057,0,0.057
2016-03-07,0.06,0.06,0.057,0.057,185500,0.057
2016-03-08,0.055999999999999994,0.057999999999999996,0.05,0.05,297900,0.05
2016-03-09,0.052000000000000005,0.052000000000000005,0.05,0.052000000000000005,254500,0.052000000000000005
2016-03-10,0.052000000000000005,0.052000000000000005,0.052000000000000005,0.052000000000000005,0,0.052000000000000005
2016-03-11,0.052000000000000005,0.052000000000000005,0.052000000000000005,0.052000000000000005,10000,0.052000000000000005
2016-03-14,0.05,0.05,0.05,0.05,100,0.05
2016-03-15,0.049,0.05,0.049,0.049,40800,0.049
2016-03-16,0.05,0.05,0.049,0.05,39100,0.05
2016-03-17,0.05,0.05,0.05,0.05,0,0.05
2016-03-18,0.054000000000000006,0.055999999999999994,0.054000000000000006,0.055999999999999994,29200,0.055999999999999994
2016-03-21,0.055999999999999994,0.055999999999999994,0.055999999999999994,0.055999999999999994,0,0.055999999999999994
2016-03-22,0.055999999999999994,0.055999999999999994,0.055999999999999994,0.055999999999999994,0,0.055999999999999994
2016-03-23,0.055999999999999994,0.055999999999999994,0.055999999999999994,0.055999999999999994,0,0.055999999999999994
2016-03-24,0.055999999999999994,0.055999999999999994,0.055999999999999994,0.055999999999999994,0,0.055999999999999994
2016-03-25,0.055999999999999994,0.055999999999999994,0.055999999999999994,0.055999999999999994,0,0.055999999999999994
2016-03-28,0.055999999999999994,0.055999999999999994,0.055999999999999994,0.055999999999999994,0,0.055999999999999994
2016-03-29,0.055999999999999994,0.055999999999999994,0.055999999999999994,0.055999999999999994,0,0.055999999999999994
2016-03-30,0.055999999999999994,0.055999999999999994,0.055999999999999994,0.055999999999999994,0,0.055999999999999994
2016-03-31,0.055999999999999994,0.055999999999999994,0.055999999999999994,0.055999999999999994,0,0.055999999999999994
2016-04-01,0.045,0.045,0.045,0.045,140000,0.045
2016-04-04,0.051,0.053,0.051,0.053,38400,0.053
2016-04-05,0.055999999999999994,0.059000000000000004,0.055999999999999994,0.059000000000000004,232400,0.059000000000000004
2016-04-06,0.055,0.055,0.048,0.048,90400,0.048
2016-04-07,0.045,0.048,0.045,0.048,194400,0.048
2016-04-08,0.04,0.04,0.034,0.034,333200,0.034
2016-04-11,0.040999999999999995,0.042,0.04,0.04,99500,0.04
2016-04-12,0.044000000000000004,0.044000000000000004,0.044000000000000004,0.044000000000000004,30000,0.044000000000000004
2016-04-13,0.044000000000000004,0.044000000000000004,0.044000000000000004,0.044000000000000004,7900,0.044000000000000004
2016-04-14,0.045,0.045,0.045,0.045,13500,0.045
2016-04-15,0.044000000000000004,0.045,0.044000000000000004,0.045,42100,0.045
2016-04-18,0.045,0.045,0.045,0.045,0,0.045
2016-04-19,0.045,0.045,0.045,0.045,0,0.045
2016-04-20,0.045,0.045,0.045,0.045,0,0.045
2016-04-21,0.045,0.045,0.045,0.045,0,0.045
2016-04-22,0.045,0.045,0.045,0.045,0,0.045
2016-04-25,0.045,0.045,0.045,0.045,0,0.045
2016-04-26,0.045,0.045,0.045,0.045,0,0.045
2016-04-27,0.045,0.045,0.045,0.045,620600,0.045
2016-04-28,0.052000000000000005,0.052000000000000005,0.05,0.05,430000,0.05
2016-04-29,0.05,0.05,0.048,0.05,604100,0.05
2016-05-02,0.05,0.05,0.05,0.05,100000,0.05
2016-05-03,0.05,0.05,0.05,0.05,50000,0.05
2016-05-04,0.05,0.05,0.05,0.05,30000,0.05
2016-05-05,0.045,0.045,0.045,0.045,10000,0.045
2016-05-06,0.045,0.045,0.045,0.045,126600,0.045
2016-05-09,0.044000000000000004,0.044000000000000004,0.044000000000000004,0.044000000000000004,22700,0.044000000000000004
2016-05-10,0.044000000000000004,0.044000000000000004,0.044000000000000004,0.044000000000000004,0,0.044000000000000004
2016-05-11,0.035,0.04,0.035,0.035,231600,0.035
2016-05-12,0.035,0.039,0.035,0.039,69900,0.039
2016-05-13,0.04,0.04,0.039,0.04,436400,0.04
2016-05-16,0.04,0.04,0.036000000000000004,0.036000000000000004,35000,0.036000000000000004
2016-05-17,0.036000000000000004,0.04,0.036000000000000004,0.04,170100,0.04
2016-05-18,0.039,0.039,0.039,0.039,100000,0.039
2016-05-19,0.038,0.04,0.038,0.04,14800,0.04
2016-05-20,0.04,0.04,0.04,0.04,0,0.04
2016-05-23,0.04,0.04,0.04,0.04,0,0.04
2016-05-24,0.036000000000000004,0.036000000000000004,0.036000000000000004,0.036000000000000004,30000,0.036000000000000004
2016-05-25,0.036000000000000004,0.036000000000000004,0.036000000000000004,0.036000000000000004,231900,0.036000000000000004
2016-05-26,0.04,0.048,0.04,0.048,100000,0.048
2016-05-27,0.048,0.05,0.048,0.05,535900,0.05
2016-05-30,0.053,0.053,0.053,0.053,95200,0.053
2016-05-31,0.053,0.053,0.053,0.053,30000,0.053
2016-06-01,0.054000000000000006,0.054000000000000006,0.053,0.053,72500,0.053
2016-06-02,0.053,0.053,0.053,0.053,19300,0.053
2016-06-03,0.05,0.05,0.05,0.05,20000,0.05
2016-06-06,0.053,0.053,0.048,0.048,116000,0.048
2016-06-07,0.048,0.048,0.048,0.048,10000,0.048
2016-06-08,0.048,0.048,0.048,0.048,0,0.048
2016-06-09,0.048,0.048,0.048,0.048,0,0.048
2016-06-10,0.044000000000000004,0.044000000000000004,0.043,0.043,40400,0.043
2016-06-13,0.043,0.043,0.043,0.043,0,0.043
2016-06-14,0.043,0.043,0.043,0.043,0,0.043
2016-06-15,0.043,0.043,0.043,0.043,27300,0.043
2016-06-16,0.043,0.043,0.043,0.043,3600,0.043
2016-06-17,0.043,0.043,0.043,0.043,0,0.043
2016-06-20,0.040999999999999995,0.042,0.040999999999999995,0.040999999999999995,217800,0.040999999999999995
2016-06-21,0.040999999999999995,0.040999999999999995,0.040999999999999995,0.040999999999999995,92000,0.040999999999999995
2016-06-22,0.040999999999999995,0.040999999999999995,0.040999999999999995,0.040999999999999995,0,0.040999999999999995
2016-06-23,0.042,0.042,0.042,0.042,47000,0.042
2016-06-24,0.049,0.05,0.049,0.05,75100,0.05
2016-06-27,0.051,0.054000000000000006,0.05,0.05,201600,0.05
2016-06-28,0.048,0.05,0.048,0.05,171300,0.05
2016-06-29,0.05,0.05,0.05,0.05,8100,0.05
2016-06-30,0.05,0.05,0.05,0.05,8000,0.05
2016-07-01,0.05,0.05,0.05,0.05,0,0.05
2016-07-04,0.054000000000000006,0.054000000000000006,0.054000000000000006,0.054000000000000006,10900,0.054000000000000006
2016-07-05,0.054000000000000006,0.054000000000000006,0.054000000000000006,0.054000000000000006,0,0.054000000000000006
2016-07-06,0.054000000000000006,0.055,0.054000000000000006,0.055,42300,0.055
2016-07-07,0.055,0.055,0.055,0.055,0,0.055
2016-07-08,0.055,0.055,0.055,0.055,0,0.055
2016-07-11,0.055,0.055,0.055,0.055,0,0.055
2016-07-12,0.067,0.067,0.067,0.067,41300,0.067
2016-07-13,0.067,0.07200000000000001,0.067,0.07200000000000001,58500,0.07200000000000001
2016-07-14,0.07200000000000001,0.07200000000000001,0.07200000000000001,0.07200000000000001,0,0.07200000000000001
2016-07-15,0.073,0.07400000000000001,0.073,0.07400000000000001,10100,0.07400000000000001
2016-07-18,0.07400000000000001,0.077,0.07400000000000001,0.077,29800,0.077
2016-07-19,0.08,0.084,0.08,0.084,108500,0.084
2016-07-20,0.084,0.084,0.084,0.084,109300,0.084
2016-07-21,0.084,0.084,0.084,0.084,0,0.084
2016-07-22,0.084,0.084,0.084,0.084,0,0.084
2016-07-25,0.081,0.081,0.081,0.081,13500,0.081
2016-07-26,0.081,0.09,0.08,0.09,94800,0.09
2016-07-27,0.09,0.09,0.09,0.09,0,0.09
2016-07-28,0.09,0.09,0.09,0.09,0,0.09
2016-07-29,0.09,0.09,0.09,0.09,0,0.09
2016-08-01,0.08900000000000001,0.095,0.08900000000000001,0.095,121700,0.095
2016-08-02,0.094,0.096,0.094,0.096,200600,0.096
2016-08-03,0.095,0.096,0.095,0.096,175600,0.096
2016-08-04,0.096,0.096,0.096,0.096,10300,0.096
2016-08-05,0.096,0.096,0.096,0.096,0,0.096
2016-08-08,0.091,0.091,0.091,0.091,900,0.091
2016-08-09,0.091,0.091,0.091,0.091,0,0.091
2016-08-10,0.091,0.091,0.091,0.091,7500,0.091
2016-08-11,0.091,0.091,0.091,0.091,0,0.091
2016-08-12,0.095,0.095,0.095,0.095,53000,0.095
2016-08-15,0.095,0.095,0.095,0.095,0,0.095
2016-08-16,0.095,0.095,0.095,0.095,0,0.095
2016-08-17,0.095,0.095,0.095,0.095,0,0.095
2016-08-18,0.091,0.091,0.091,0.091,2200,0.091
2016-08-19,0.09,0.09,0.09,0.09,33400,0.09
2016-08-22,0.081,0.081,0.081,0.081,8000,0.081
2016-08-23,0.081,0.081,0.081,0.081,0,0.081
2016-08-24,0.081,0.081,0.081,0.081,0,0.081
2016-08-25,0.061,0.061,0.061,0.061,1000,0.061
2016-08-26,0.07,0.07,0.07,0.07,18800,0.07
2016-08-29,0.07,0.07,0.07,0.07,0,0.07
2016-08-30,0.07,0.07,0.07,0.07,34900,0.07
2016-08-31,0.07,0.07,0.07,0.07,79000,0.07
2016-09-01,0.07,0.07,0.07,0.07,0,0.07
2016-09-02,0.07,0.07,0.07,0.07,0,0.07
2016-09-05,0.07,0.07,0.07,0.07,0,0.07
2016-09-06,0.07,0.07,0.07,0.07,0,0.07
2016-09-07,0.07,0.07,0.07,0.07,0,0.07
2016-09-08,0.07,0.07,0.07,0.07,0,0.07
2016-09-09,0.07,0.07,0.07,0.07,0,0.07
2016-09-12,0.07,0.07,0.07,0.07,0,0.07
2016-09-13,0.07,0.07,0.07,0.07,0,0.07
2016-09-14,0.07,0.07,0.07,0.07,0,0.07
2016-09-15,0.07,0.07,0.07,0.07,0,0.07
2016-09-16,0.07,0.07,0.07,0.07,0,0.07
2016-09-19,0.07,0.07,0.07,0.07,0,0.07
2016-09-20,0.07,0.07,0.07,0.07,0,0.07
2016-09-21,0.07,0.07,0.07,0.07,0,0.07
2016-09-22,0.07,0.07,0.07,0.07,0,0.07
2016-09-23,0.07,0.07,0.07,0.07,0,0.07
2016-09-26,0.07,0.07,0.07,0.07,0,0.07
2016-09-27,0.07,0.07,0.07,0.07,0,0.07
2016-09-28,0.051,0.051,0.051,0.051,15000,0.051
2016-09-29,0.051,0.051,0.051,0.051,21000,0.051
2016-09-30,0.052000000000000005,0.052000000000000005,0.051,0.051,20200,0.051
2016-10-03,0.051,0.051,0.051,0.051,0,0.051
2016-10-04,0.051,0.051,0.051,0.051,0,0.051
2016-10-05,0.052000000000000005,0.052000000000000005,0.051,0.051,90000,0.051
2016-10-06,0.052000000000000005,0.052000000000000005,0.052000000000000005,0.052000000000000005,122300,0.052000000000000005
2016-10-07,0.052000000000000005,0.052000000000000005,0.052000000000000005,0.052000000000000005,0,0.052000000000000005
2016-10-10,0.052000000000000005,0.052000000000000005,0.052000000000000005,0.052000000000000005,0,0.052000000000000005
2016-10-11,0.052000000000000005,0.052000000000000005,0.052000000000000005,0.052000000000000005,0,0.052000000000000005
2016-10-12,0.052000000000000005,0.052000000000000005,0.052000000000000005,0.052000000000000005,55500,0.052000000000000005
2016-10-13,0.052000000000000005,0.052000000000000005,0.052000000000000005,0.052000000000000005,0,0.052000000000000005
2016-10-14,0.052000000000000005,0.052000000000000005,0.052000000000000005,0.052000000000000005,0,0.052000000000000005
2016-10-17,0.052000000000000005,0.052000000000000005,0.052000000000000005,0.052000000000000005,0,0.052000000000000005
2016-10-18,0.051,0.051,0.051,0.051,18000,0.051
2016-10-19,0.051,0.051,0.051,0.051,0,0.051
2016-10-20,0.051,0.051,0.051,0.051,0,0.051
2016-10-21,0.057999999999999996,0.06,0.057999999999999996,0.06,71600,0.06
2016-10-24,0.065,0.075,0.065,0.075,30800,0.075
2016-10-25,0.075,0.075,0.075,0.075,0,0.075
2016-10-26,0.075,0.075,0.075,0.075,0,0.075
2016-10-27,0.075,0.075,0.075,0.075,0,0.075
2016-10-28,0.075,0.075,0.075,0.075,0,0.075
2016-10-31,0.075,0.075,0.075,0.075,0,0.075
2016-11-01,0.075,0.075,0.075,0.075,0,0.075
2016-11-02,0.08900000000000001,0.08900000000000001,0.085,0.085,41000,0.085
2016-11-03,0.085,0.085,0.085,0.085,0,0.085
2016-11-04,0.085,0.085,0.085,0.085,0,0.085
2016-11-07,0.085,0.085,0.085,0.085,0,0.085
2016-11-08,0.085,0.085,0.085,0.085,0,0.085
2016-11-09,0.085,0.085,0.085,0.085,0,0.085
2016-11-10,0.085,0.085,0.085,0.085,0,0.085
2016-11-11,0.085,0.085,0.085,0.085,0,0.085
2016-11-14,0.085,0.085,0.085,0.085,0,0.085
2016-11-15,0.083,0.083,0.083,0.083,40000,0.083
2016-11-16,0.083,0.083,0.083,0.083,0,0.083
2016-11-17,0.083,0.083,0.083,0.083,0,0.083
2016-11-18,0.083,0.083,0.083,0.083,0,0.083
2016-11-21,0.083,0.083,0.083,0.083,0,0.083
2016-11-22,0.083,0.083,0.083,0.083,0,0.083
2016-11-23,0.075,0.083,0.075,0.083,39200,0.083
2016-11-24,0.083,0.083,0.083,0.083,0,0.083
2016-11-25,0.083,0.083,0.083,0.083,0,0.083
2016-11-28,0.083,0.083,0.083,0.083,0,0.083
2016-11-29,0.083,0.083,0.083,0.083,0,0.083
2016-11-30,0.083,0.083,0.083,0.083,0,0.083
2016-12-01,0.083,0.083,0.083,0.083,0,0.083
2016-12-02,0.083,0.083,0.083,0.083,0,0.083
2016-12-05,0.083,0.083,0.083,0.083,0,0.083
2016-12-06,0.083,0.083,0.083,0.083,0,0.083
2016-12-07,0.083,0.083,0.083,0.083,0,0.083
2016-12-08,0.083,0.083,0.083,0.083,0,0.083
2016-12-09,0.083,0.083,0.083,0.083,0,0.083
2016-12-12,0.083,0.083,0.083,0.083,0,0.083
2016-12-13,0.083,0.083,0.083,0.083,0,0.083
2016-12-14,0.083,0.083,0.083,0.083,0,0.083
2016-12-15,0.083,0.083,0.083,0.083,0,0.083
2016-12-16,0.083,0.083,0.083,0.083,0,0.083
2016-12-19,0.083,0.083,0.083,0.083,0,0.083
2016-12-20,0.083,0.083,0.083,0.083,0,0.083
2016-12-21,0.083,0.083,0.083,0.083,0,0.083
2016-12-22,0.075,0.075,0.075,0.075,4000,0.075
2016-12-23,0.075,0.075,0.075,0.075,0,0.075
2016-12-26,0.075,0.075,0.075,0.075,0,0.075
2016-12-27,0.075,0.075,0.075,0.075,0,0.075
2016-12-28,0.075,0.075,0.075,0.075,0,0.075
2016-12-29,0.075,0.075,0.075,0.075,0,0.075
2016-12-30,0.075,0.075,0.075,0.075,0,0.075
