Date,Open,High,Low,Close,Volume,Adj Close
2012-02-07,0.198,0.198,0.17914000000000002,0.18857000000000002,3300,4.71429
2012-02-08,0.18386,0.18857000000000002,0.18386,0.18857000000000002,2500,4.71429
2012-02-09,0.18857000000000002,0.18857000000000002,0.18857000000000002,0.18857000000000002,5100,4.71429
2012-02-10,0.18857000000000002,0.18857000000000002,0.18857000000000002,0.18857000000000002,4500,4.71429
2012-02-13,0.18857000000000002,0.18857000000000002,0.18857000000000002,0.18857000000000002,0,4.71429
2012-02-14,0.18386,0.18857000000000002,0.17914000000000002,0.17914000000000002,7200,4.4785699999999995
2012-02-15,0.17914000000000002,0.17914000000000002,0.17914000000000002,0.17914000000000002,3300,4.4785699999999995
2012-02-16,0.17914000000000002,0.17914000000000002,0.17914000000000002,0.17914000000000002,2100,4.4785699999999995
2012-02-17,0.17914000000000002,0.17914000000000002,0.17443,0.17914000000000002,8400,4.4785699999999995
2012-02-20,0.17914000000000002,0.17914000000000002,0.17914000000000002,0.17914000000000002,600,4.4785699999999995
2012-02-21,0.17914000000000002,0.17914000000000002,0.17914000000000002,0.17914000000000002,11200,4.4785699999999995
2012-02-22,0.17914000000000002,0.17914000000000002,0.17914000000000002,0.17914000000000002,6300,4.4785699999999995
2012-02-23,0.18386,0.18857000000000002,0.18386,0.18857000000000002,1400,4.71429
2012-02-24,0.18857000000000002,0.18857000000000002,0.18857000000000002,0.18857000000000002,1200,4.71429
2012-02-27,0.18857000000000002,0.18857000000000002,0.18386,0.18386,1900,4.596430000000001
2012-02-28,0.18386,0.18386,0.18386,0.18386,2700,4.596430000000001
2012-02-29,0.18386,0.18857000000000002,0.18386,0.18857000000000002,1200,4.71429
2012-03-01,0.18386,0.18386,0.18386,0.18386,4200,4.596430000000001
2012-03-02,0.18386,0.18386,0.18386,0.18386,0,4.596430000000001
2012-03-05,0.18386,0.18386,0.18386,0.18386,6900,4.596430000000001
2012-03-06,0.18386,0.18386,0.18386,0.18386,4200,4.596430000000001
2012-03-07,0.18386,0.18386,0.18386,0.18386,100,4.596430000000001
2012-03-08,0.18386,0.18386,0.18386,0.18386,0,4.596430000000001
2012-03-09,0.18386,0.18386,0.16971,0.16971,13800,4.24286
2012-03-12,0.16971,0.16971,0.16971,0.16971,0,4.24286
2012-03-13,0.16971,0.16971,0.16971,0.16971,0,4.24286
2012-03-14,0.16971,0.16971,0.16971,0.16971,0,4.24286
2012-03-15,0.16971,0.16971,0.16971,0.16971,9600,4.24286
2012-03-16,0.17914000000000002,0.17914000000000002,0.17914000000000002,0.17914000000000002,3300,4.4785699999999995
2012-03-19,0.17914000000000002,0.17914000000000002,0.17914000000000002,0.17914000000000002,6300,4.4785699999999995
2012-03-20,0.17914000000000002,0.17914000000000002,0.17914000000000002,0.17914000000000002,5600,4.4785699999999995
2012-03-21,0.18857000000000002,0.18857000000000002,0.18857000000000002,0.18857000000000002,600,4.71429
2012-03-22,0.18857000000000002,0.18857000000000002,0.18857000000000002,0.18857000000000002,1500,4.71429
2012-03-23,0.19329000000000002,0.20743000000000003,0.18857000000000002,0.20743000000000003,9700,5.18571
2012-03-26,0.18857000000000002,0.18857000000000002,0.18857000000000002,0.18857000000000002,4400,4.71429
2012-03-27,0.18857000000000002,0.18857000000000002,0.18857000000000002,0.18857000000000002,800,4.71429
2012-03-28,0.18857000000000002,0.18857000000000002,0.18386,0.18386,3100,4.596430000000001
2012-03-29,0.18857000000000002,0.18857000000000002,0.18386,0.18386,2900,4.596430000000001
2012-03-30,0.18857000000000002,0.18857000000000002,0.18857000000000002,0.18857000000000002,4200,4.71429
2012-04-02,0.18857000000000002,0.18857000000000002,0.18386,0.18386,3400,4.596430000000001
2012-04-03,0.18386,0.18386,0.18386,0.18386,0,4.596430000000001
2012-04-04,0.18386,0.18386,0.17443,0.17443,4700,4.36071
2012-04-05,0.17443,0.17443,0.17443,0.17443,800,4.36071
2012-04-06,0.17443,0.17443,0.17443,0.17443,0,4.36071
2012-04-09,0.17443,0.17443,0.17443,0.17443,0,4.36071
2012-04-10,0.17443,0.17443,0.17443,0.17443,0,4.36071
2012-04-11,0.16971,0.16971,0.165,0.165,5900,4.125
2012-04-12,0.16029000000000002,0.16029000000000002,0.15557,0.15557,4800,3.8892900000000004
2012-04-13,0.15557,0.15557,0.15557,0.15557,0,3.8892900000000004
2012-04-16,0.15557,0.15557,0.15557,0.15557,1400,3.8892900000000004
2012-04-17,0.15557,0.15557,0.15086,0.15086,800,3.7714300000000005
2012-04-18,0.15086,0.15086,0.15086,0.15086,0,3.7714300000000005
2012-04-19,0.15086,0.15086,0.15086,0.15086,1600,3.7714300000000005
2012-04-20,0.15086,0.15086,0.15086,0.15086,0,3.7714300000000005
2012-04-23,0.15086,0.15086,0.15086,0.15086,0,3.7714300000000005
2012-04-24,0.15086,0.15086,0.14143,0.14143,2300,3.53571
2012-04-25,0.14143,0.14143,0.14143,0.14143,0,3.53571
2012-04-26,0.14614000000000002,0.14614000000000002,0.14614000000000002,0.14614000000000002,400,3.6535699999999998
2012-04-27,0.14614000000000002,0.14614000000000002,0.14614000000000002,0.14614000000000002,0,3.6535699999999998
2012-04-30,0.14614000000000002,0.14614000000000002,0.14614000000000002,0.14614000000000002,800,3.6535699999999998
2012-05-01,0.15086,0.15086,0.14614000000000002,0.15086,500,3.7714300000000005
2012-05-02,0.15086,0.15557,0.15086,0.15086,3100,3.7714300000000005
2012-05-03,0.15086,0.15086,0.15086,0.15086,0,3.7714300000000005
2012-05-04,0.15086,0.15086,0.15086,0.15086,0,3.7714300000000005
2012-05-07,0.14614000000000002,0.14614000000000002,0.11785999999999999,0.11785999999999999,6500,2.94643
2012-05-08,0.11785999999999999,0.11785999999999999,0.11785999999999999,0.11785999999999999,0,2.94643
2012-05-09,0.12257,0.12257,0.12257,0.12257,2100,3.06429
2012-05-10,0.12257,0.12257,0.12257,0.12257,0,3.06429
2012-05-11,0.12257,0.12257,0.12257,0.12257,0,3.06429
2012-05-14,0.12257,0.12257,0.12257,0.12257,0,3.06429
2012-05-15,0.12257,0.12257,0.12257,0.12257,400,3.06429
2012-05-16,0.12257,0.12257,0.12257,0.12257,2100,3.06429
2012-05-17,0.12257,0.12257,0.12257,0.12257,0,3.06429
2012-05-18,0.12257,0.12257,0.12257,0.12257,0,3.06429
2012-05-21,0.12257,0.12257,0.12257,0.12257,0,3.06429
2012-05-22,0.12257,0.12257,0.12257,0.12257,0,3.06429
2012-05-23,0.12257,0.12257,0.12257,0.12257,0,3.06429
2012-05-24,0.12257,0.12257,0.12257,0.12257,0,3.06429
2012-05-25,0.12257,0.12257,0.12257,0.12257,0,3.06429
2012-05-28,0.11785999999999999,0.11785999999999999,0.11785999999999999,0.11785999999999999,1000,2.94643
2012-05-29,0.11785999999999999,0.11785999999999999,0.11785999999999999,0.11785999999999999,0,2.94643
2012-05-30,0.11785999999999999,0.11785999999999999,0.11785999999999999,0.11785999999999999,0,2.94643
2012-05-31,0.11785999999999999,0.11785999999999999,0.11785999999999999,0.11785999999999999,0,2.94643
2012-06-01,0.11785999999999999,0.11785999999999999,0.11785999999999999,0.11785999999999999,0,2.94643
2012-06-04,0.11785999999999999,0.11785999999999999,0.11785999999999999,0.11785999999999999,0,2.94643
2012-06-05,0.11785999999999999,0.11785999999999999,0.11785999999999999,0.11785999999999999,0,2.94643
2012-06-06,0.09429,0.10371,0.09429,0.10371,1200,2.59286
2012-06-07,0.11314,0.11314,0.11314,0.11314,3700,2.82857
2012-06-08,0.12729000000000001,0.12729000000000001,0.12257,0.12729000000000001,3400,3.18214
2012-06-11,0.12729000000000001,0.12729000000000001,0.12729000000000001,0.12729000000000001,0,3.18214
2012-06-12,0.12729000000000001,0.12729000000000001,0.11314,0.11314,2100,2.82857
2012-06-13,0.11314,0.11314,0.11314,0.11314,0,2.82857
2012-06-14,0.11314,0.11314,0.11314,0.11314,0,2.82857
2012-06-15,0.12257,0.12257,0.12257,0.12257,1000,3.06429
2012-06-18,0.12257,0.12257,0.12257,0.12257,0,3.06429
2012-06-19,0.11314,0.11314,0.11314,0.11314,100,2.82857
2012-06-20,0.11314,0.11314,0.11314,0.11314,0,2.82857
2012-06-21,0.12257,0.12257,0.12257,0.12257,1900,3.06429
2012-06-22,0.12257,0.12257,0.12257,0.12257,300,3.06429
2012-06-25,0.12257,0.12257,0.12257,0.12257,0,3.06429
2012-06-26,0.12257,0.12257,0.12257,0.12257,0,3.06429
2012-06-27,0.12257,0.12257,0.10843,0.10843,2100,2.7107099999999997
2012-06-28,0.11785999999999999,0.11785999999999999,0.11785999999999999,0.11785999999999999,400,2.94643
2012-06-29,0.11314,0.11785999999999999,0.11314,0.11785999999999999,1600,2.94643
2012-07-02,0.11785999999999999,0.11785999999999999,0.11785999999999999,0.11785999999999999,0,2.94643
2012-07-03,0.11314,0.11785999999999999,0.09429,0.10371,4400,2.59286
2012-07-04,0.09429,0.09429,0.09429,0.09429,11100,2.3571400000000002
2012-07-05,0.09429,0.09429,0.09429,0.09429,0,2.3571400000000002
2012-07-06,0.08957000000000001,0.08957000000000001,0.08486,0.08486,10000,2.12143
2012-07-09,0.09429,0.09429,0.09429,0.09429,400,2.3571400000000002
2012-07-10,0.08486,0.08486,0.08486,0.08486,1100,2.12143
2012-07-11,0.08486,0.08486,0.08486,0.08486,0,2.12143
2012-07-12,0.08486,0.08486,0.08486,0.08486,0,2.12143
2012-07-13,0.08769,0.08769,0.08486,0.08486,600,2.12143
2012-07-16,0.08486,0.08486,0.08486,0.08486,0,2.12143
2012-07-17,0.08863,0.08957000000000001,0.08863,0.08957000000000001,2500,2.23929
2012-07-18,0.08486,0.08486,0.08486,0.08486,500,2.12143
2012-07-19,0.08486,0.08486,0.08486,0.08486,1500,2.12143
2012-07-20,0.08486,0.08486,0.08486,0.08486,0,2.12143
2012-07-23,0.08014,0.08014,0.08014,0.08014,400,2.00357
2012-07-24,0.08014,0.08014,0.08014,0.08014,4900,2.00357
2012-07-25,0.08014,0.08014,0.08014,0.08014,0,2.00357
2012-07-26,0.07543,0.07543,0.07543,0.07543,1200,1.8857099999999998
2012-07-27,0.07543,0.07543,0.07543,0.07543,0,1.8857099999999998
2012-07-30,0.07543,0.07543,0.07543,0.07543,0,1.8857099999999998
2012-07-31,0.07543,0.07543,0.07543,0.07543,0,1.8857099999999998
2012-08-01,0.07543,0.07543,0.07543,0.07543,0,1.8857099999999998
2012-08-02,0.07354,0.07354,0.07354,0.07354,1900,1.83857
2012-08-03,0.07354,0.07354,0.07354,0.07354,0,1.83857
2012-08-06,0.07354,0.07354,0.07354,0.07354,0,1.83857
2012-08-07,0.07354,0.07354,0.07354,0.07354,0,1.83857
2012-08-08,0.07354,0.07354,0.07354,0.07354,0,1.83857
2012-08-09,0.07354,0.07354,0.07071000000000001,0.07071000000000001,2500,1.7678599999999998
2012-08-10,0.07071000000000001,0.07071000000000001,0.07071000000000001,0.07071000000000001,0,1.7678599999999998
2012-08-13,0.066,0.07071000000000001,0.066,0.07071000000000001,2800,1.7678599999999998
2012-08-14,0.07071000000000001,0.07071000000000001,0.07071000000000001,0.07071000000000001,0,1.7678599999999998
2012-08-15,0.07071000000000001,0.07071000000000001,0.07071000000000001,0.07071000000000001,0,1.7678599999999998
2012-08-16,0.07071000000000001,0.07071000000000001,0.07071000000000001,0.07071000000000001,500,1.7678599999999998
2012-08-17,0.07071000000000001,0.07071000000000001,0.07071000000000001,0.07071000000000001,0,1.7678599999999998
2012-08-20,0.0792,0.08014,0.0792,0.08014,1900,2.00357
2012-08-21,0.08014,0.08014,0.08014,0.08014,0,2.00357
2012-08-22,0.08014,0.08014,0.08014,0.08014,0,2.00357
2012-08-23,0.08957000000000001,0.08957000000000001,0.08957000000000001,0.08957000000000001,1400,2.23929
2012-08-24,0.10843,0.10843,0.10843,0.10843,2900,2.7107099999999997
2012-08-27,0.10843,0.10843,0.10843,0.10843,200,2.7107099999999997
2012-08-28,0.10843,0.11314,0.10371,0.10371,3100,2.59286
2012-08-29,0.10371,0.10371,0.10371,0.10371,0,2.59286
2012-08-30,0.11314,0.11785999999999999,0.11314,0.11314,2100,2.82857
2012-08-31,0.11314,0.11314,0.11314,0.11314,2300,2.82857
2012-09-03,0.11314,0.11314,0.11314,0.11314,900,2.82857
2012-09-04,0.12257,0.12257,0.12257,0.12257,100,3.06429
2012-09-05,0.12257,0.12257,0.12257,0.12257,1600,3.06429
2012-09-06,0.12257,0.12257,0.12257,0.12257,0,3.06429
2012-09-07,0.12257,0.12257,0.12257,0.12257,0,3.06429
2012-09-10,0.12257,0.12257,0.12257,0.12257,8400,3.06429
2012-09-11,0.11785999999999999,0.11785999999999999,0.11785999999999999,0.11785999999999999,2100,2.94643
2012-09-12,0.11785999999999999,0.11785999999999999,0.11785999999999999,0.11785999999999999,0,2.94643
2012-09-13,0.12257,0.132,0.12257,0.12257,19300,3.06429
2012-09-14,0.132,0.132,0.12729000000000001,0.12729000000000001,4900,3.18214
2012-09-17,0.132,0.132,0.132,0.132,3600,3.3
2012-09-18,0.132,0.132,0.12257,0.12257,4800,3.06429
2012-09-19,0.12257,0.12257,0.11314,0.11314,2700,2.82857
2012-09-20,0.11314,0.11314,0.11314,0.11314,400,2.82857
2012-09-21,0.11314,0.11314,0.11314,0.11314,0,2.82857
2012-09-24,0.11314,0.11314,0.11314,0.11314,0,2.82857
2012-09-25,0.11314,0.11314,0.11314,0.11314,0,2.82857
2012-09-26,0.09429,0.09429,0.08957000000000001,0.08957000000000001,600,2.23929
2012-09-27,0.08957000000000001,0.08957000000000001,0.08957000000000001,0.08957000000000001,0,2.23929
2012-09-28,0.10371,0.10371,0.10371,0.10371,1300,2.59286
2012-10-01,0.10843,0.10843,0.10843,0.10843,400,2.7107099999999997
2012-10-02,0.09429,0.09429,0.09429,0.09429,700,2.3571400000000002
2012-10-03,0.09429,0.09429,0.09429,0.09429,0,2.3571400000000002
2012-10-04,0.09429,0.09429,0.09429,0.09429,1900,2.3571400000000002
2012-10-05,0.11314,0.14143,0.11314,0.14143,3200,3.53571
2012-10-08,0.14614000000000002,0.14614000000000002,0.14614000000000002,0.14614000000000002,3700,3.6535699999999998
2012-10-09,0.14614000000000002,0.14614000000000002,0.14614000000000002,0.14614000000000002,0,3.6535699999999998
2012-10-10,0.14143,0.14143,0.11785999999999999,0.11785999999999999,2400,2.94643
2012-10-11,0.12257,0.12257,0.11785999999999999,0.11785999999999999,4000,2.94643
2012-10-12,0.14143,0.14143,0.14143,0.14143,300,3.53571
2012-10-15,0.13671,0.13671,0.132,0.132,1700,3.3
2012-10-16,0.12729000000000001,0.12729000000000001,0.12257,0.12257,3000,3.06429
2012-10-17,0.12257,0.12257,0.12257,0.12257,0,3.06429
2012-10-18,0.12257,0.12257,0.12257,0.12257,0,3.06429
2012-10-19,0.12257,0.12257,0.12257,0.12257,300,3.06429
2012-10-22,0.11785999999999999,0.12257,0.11785999999999999,0.12257,1000,3.06429
2012-10-23,0.12257,0.12257,0.12257,0.12257,0,3.06429
2012-10-24,0.12257,0.12257,0.11314,0.11785999999999999,2600,2.94643
2012-10-25,0.11785999999999999,0.11785999999999999,0.11785999999999999,0.11785999999999999,0,2.94643
2012-10-26,0.11785999999999999,0.11785999999999999,0.11785999999999999,0.11785999999999999,0,2.94643
2012-10-29,0.11785999999999999,0.11785999999999999,0.11785999999999999,0.11785999999999999,0,2.94643
2012-10-30,0.11785999999999999,0.11785999999999999,0.11785999999999999,0.11785999999999999,0,2.94643
2012-10-31,0.11785999999999999,0.11785999999999999,0.11785999999999999,0.11785999999999999,0,2.94643
2012-11-01,0.10843,0.10843,0.10843,0.10843,100,2.7107099999999997
2012-11-02,0.10843,0.10843,0.10371,0.10371,800,2.59286
2012-11-05,0.10371,0.10371,0.10371,0.10371,0,2.59286
2012-11-06,0.10371,0.10371,0.10371,0.10371,0,2.59286
2012-11-07,0.10371,0.10371,0.10371,0.10371,2300,2.59286
2012-11-08,0.10371,0.10371,0.10371,0.10371,0,2.59286
2012-11-09,0.10371,0.10371,0.10371,0.10371,2100,2.59286
2012-11-12,0.10371,0.10371,0.10371,0.10371,0,2.59286
2012-11-13,0.10371,0.10371,0.10371,0.10371,3200,2.59286
2012-11-14,0.10371,0.10371,0.10371,0.10371,0,2.59286
2012-11-15,0.099,0.099,0.099,0.099,1000,2.475
2012-11-16,0.099,0.099,0.099,0.099,0,2.475
2012-11-19,0.099,0.099,0.099,0.099,200,2.475
2012-11-20,0.099,0.099,0.099,0.099,0,2.475
2012-11-21,0.099,0.099,0.099,0.099,0,2.475
2012-11-22,0.099,0.099,0.099,0.099,0,2.475
2012-11-23,0.099,0.099,0.099,0.099,0,2.475
2012-11-26,0.08014,0.08014,0.08014,0.08014,1200,2.00357
2012-11-27,0.07354,0.07354,0.07354,0.07354,300,1.83857
2012-11-28,0.07354,0.07354,0.07354,0.07354,0,1.83857
2012-11-29,0.08014,0.08014,0.08014,0.08014,0,2.00357
2012-11-30,0.09429,0.10371,0.09429,0.10371,1900,2.59286
2012-12-03,0.10371,0.10371,0.10371,0.10371,0,2.59286
2012-12-04,0.099,0.099,0.09429,0.09429,2300,2.3571400000000002
2012-12-05,0.09429,0.09429,0.09429,0.09429,0,2.3571400000000002
2012-12-06,0.09429,0.09429,0.09429,0.09429,0,2.3571400000000002
2012-12-07,0.08957000000000001,0.08957000000000001,0.08957000000000001,0.08957000000000001,800,2.23929
2012-12-10,0.08957000000000001,0.08957000000000001,0.08957000000000001,0.08957000000000001,0,2.23929
2012-12-11,0.08957000000000001,0.08957000000000001,0.08957000000000001,0.08957000000000001,1000,2.23929
2012-12-12,0.08957000000000001,0.08957000000000001,0.08957000000000001,0.08957000000000001,0,2.23929
2012-12-13,0.08486,0.08486,0.08486,0.08486,400,2.12143
2012-12-14,0.08486,0.08486,0.08486,0.08486,0,2.12143
2012-12-17,0.08486,0.08486,0.08486,0.08486,0,2.12143
2012-12-18,0.08486,0.08486,0.08486,0.08486,0,2.12143
2012-12-19,0.08486,0.08486,0.08486,0.08486,0,2.12143
2012-12-20,0.07543,0.07543,0.07543,0.07543,800,1.8857099999999998
2012-12-21,0.07543,0.07543,0.07543,0.07543,0,1.8857099999999998
2012-12-24,0.07543,0.07543,0.07543,0.07543,0,1.8857099999999998
2012-12-25,0.07543,0.07543,0.07543,0.07543,0,1.8857099999999998
2012-12-26,0.07543,0.07543,0.07543,0.07543,0,1.8857099999999998
2012-12-27,0.07543,0.07543,0.07543,0.07543,0,1.8857099999999998
2012-12-28,0.07543,0.07543,0.07543,0.07543,0,1.8857099999999998
2012-12-31,0.07543,0.07543,0.07543,0.07543,0,1.8857099999999998
2013-01-01,0.07543,0.07543,0.07543,0.07543,0,1.8857099999999998
2013-01-02,0.07543,0.07543,0.07449,0.07449,1300,1.8621400000000001
2013-01-03,0.07449,0.07449,0.07449,0.07449,0,1.8621400000000001
2013-01-04,0.066,0.066,0.066,0.066,100,1.65
2013-01-07,0.066,0.066,0.06129,0.06129,1500,1.53214
2013-01-08,0.06129,0.06129,0.06129,0.06129,0,1.53214
2013-01-09,0.06129,0.06129,0.06129,0.06129,0,1.53214
2013-01-10,0.06129,0.06129,0.06129,0.06129,0,1.53214
2013-01-11,0.06129,0.06129,0.06129,0.06129,0,1.53214
2013-01-14,0.06129,0.06129,0.06129,0.06129,0,1.53214
2013-01-15,0.06129,0.06129,0.06129,0.06129,0,1.53214
2013-01-16,0.07354,0.07449,0.07354,0.07449,1100,1.8621400000000001
2013-01-17,0.07449,0.07449,0.07449,0.07449,0,1.8621400000000001
2013-01-18,0.08674,0.08957000000000001,0.08674,0.08957000000000001,1000,2.23929
2013-01-21,0.08957000000000001,0.08957000000000001,0.08957000000000001,0.08957000000000001,400,2.23929
2013-01-22,0.08957000000000001,0.08957000000000001,0.08957000000000001,0.08957000000000001,0,2.23929
2013-01-23,0.08486,0.08486,0.08486,0.08486,200,2.12143
2013-01-24,0.07543,0.07543,0.07543,0.07543,4200,1.8857099999999998
2013-01-25,0.07543,0.07543,0.07543,0.07543,0,1.8857099999999998
2013-01-28,0.07543,0.07543,0.07543,0.07543,0,1.8857099999999998
2013-01-29,0.07543,0.07543,0.07543,0.07543,0,1.8857099999999998
2013-01-30,0.07543,0.07543,0.07543,0.07543,0,1.8857099999999998
2013-01-31,0.07543,0.07543,0.07543,0.07543,0,1.8857099999999998
2013-02-01,0.07543,0.07543,0.07543,0.07543,0,1.8857099999999998
2013-02-04,0.07543,0.07543,0.07543,0.07543,0,1.8857099999999998
2013-02-05,0.07543,0.07543,0.07543,0.07543,0,1.8857099999999998
2013-02-06,0.07543,0.07543,0.07543,0.07543,0,1.8857099999999998
2013-02-07,0.07543,0.07543,0.07543,0.07543,0,1.8857099999999998
2013-02-08,0.07543,0.07543,0.07543,0.07543,0,1.8857099999999998
2013-02-11,0.07543,0.07543,0.07543,0.07543,0,1.8857099999999998
2013-02-12,0.07354,0.07354,0.07071000000000001,0.07071000000000001,2100,1.7678599999999998
2013-02-13,0.07071000000000001,0.07071000000000001,0.07071000000000001,0.07071000000000001,0,1.7678599999999998
2013-02-14,0.07071000000000001,0.07071000000000001,0.07071000000000001,0.07071000000000001,0,1.7678599999999998
2013-02-15,0.07166,0.07166,0.07166,0.07166,400,1.7914299999999999
2013-02-18,0.07166,0.07166,0.07166,0.07166,600,1.7914299999999999
2013-02-19,0.07166,0.07166,0.07166,0.07166,0,1.7914299999999999
2013-02-20,0.07166,0.07166,0.07166,0.07166,0,1.7914299999999999
2013-02-21,0.07166,0.07166,0.07166,0.07166,0,1.7914299999999999
2013-02-22,0.07166,0.07166,0.07166,0.07166,0,1.7914299999999999
2013-02-25,0.07166,0.07166,0.07071000000000001,0.07071000000000001,300,1.7678599999999998
2013-02-26,0.06788999999999999,0.07166,0.06788999999999999,0.07071000000000001,9900,1.7678599999999998
2013-02-27,0.07543,0.09429,0.07543,0.08957000000000001,15900,2.23929
2013-02-28,0.09051000000000001,0.10371,0.09051000000000001,0.09429,12100,2.3571400000000002
2013-03-01,0.09429,0.099,0.09429,0.099,800,2.475
2013-03-04,0.08486,0.08486,0.07543,0.07543,1900,1.8857099999999998
2013-03-05,0.08014,0.08014,0.08014,0.08014,800,2.00357
2013-03-06,0.08014,0.08014,0.08014,0.08014,0,2.00357
2013-03-07,0.08014,0.08014,0.08014,0.08014,0,2.00357
2013-03-08,0.08014,0.08014,0.08014,0.08014,0,2.00357
2013-03-11,0.08014,0.08014,0.08014,0.08014,0,2.00357
2013-03-12,0.08014,0.08014,0.07071000000000001,0.08014,7000,2.00357
2013-03-13,0.08014,0.08014,0.08014,0.08014,0,2.00357
2013-03-14,0.08486,0.08486,0.07543,0.07543,1700,1.8857099999999998
2013-03-15,0.07543,0.07543,0.07543,0.07543,0,1.8857099999999998
2013-03-18,0.07543,0.07543,0.07543,0.07543,0,1.8857099999999998
2013-03-19,0.07071000000000001,0.07071000000000001,0.07071000000000001,0.07071000000000001,1100,1.7678599999999998
2013-03-20,0.07071000000000001,0.07071000000000001,0.07071000000000001,0.07071000000000001,0,1.7678599999999998
2013-03-21,0.07071000000000001,0.07071000000000001,0.07071000000000001,0.07071000000000001,0,1.7678599999999998
2013-03-22,0.07071000000000001,0.07071000000000001,0.07071000000000001,0.07071000000000001,0,1.7678599999999998
2013-03-25,0.08769,0.08957000000000001,0.08769,0.08863,4400,2.21571
2013-03-26,0.08863,0.08863,0.08863,0.08863,4700,2.21571
2013-03-27,0.08863,0.08863,0.08863,0.08863,0,2.21571
2013-03-28,0.08486,0.08486,0.08486,0.08486,4000,2.12143
2013-03-29,0.08486,0.08486,0.08486,0.08486,0,2.12143
2013-04-01,0.08486,0.08486,0.08486,0.08486,0,2.12143
2013-04-02,0.08486,0.08486,0.08486,0.08486,0,2.12143
2013-04-03,0.08486,0.08486,0.08486,0.08486,0,2.12143
2013-04-04,0.08486,0.08486,0.08486,0.08486,0,2.12143
2013-04-05,0.08014,0.08014,0.08014,0.08014,900,2.00357
2013-04-08,0.08014,0.08014,0.08014,0.08014,0,2.00357
2013-04-09,0.07543,0.07543,0.07543,0.07543,1000,1.8857099999999998
2013-04-10,0.07543,0.07543,0.07543,0.07543,0,1.8857099999999998
2013-04-11,0.07543,0.07543,0.07543,0.07543,0,1.8857099999999998
2013-04-12,0.07543,0.07543,0.07543,0.07543,0,1.8857099999999998
2013-04-15,0.07543,0.07543,0.07543,0.07543,0,1.8857099999999998
2013-04-16,0.06694,0.06694,0.066,0.066,2700,1.65
2013-04-17,0.066,0.066,0.066,0.066,0,1.65
2013-04-18,0.066,0.066,0.066,0.066,0,1.65
2013-04-19,0.066,0.066,0.066,0.066,0,1.65
2013-04-22,0.066,0.066,0.066,0.066,0,1.65
2013-04-23,0.066,0.066,0.066,0.066,0,1.65
2013-04-24,0.05657,0.05657,0.05657,0.05657,1300,1.41429
2013-04-25,0.05657,0.05657,0.05657,0.05657,0,1.41429
2013-04-26,0.047139999999999994,0.047139999999999994,0.047139999999999994,0.047139999999999994,2300,1.1785700000000001
2013-04-29,0.047139999999999994,0.047139999999999994,0.047139999999999994,0.047139999999999994,0,1.1785700000000001
2013-04-30,0.04337,0.04337,0.04337,0.04337,400,1.08429
2013-05-01,0.04337,0.04337,0.04337,0.04337,0,1.08429
2013-05-02,0.04337,0.04337,0.03771,0.03771,4200,0.94286
2013-05-03,0.03771,0.03771,0.03771,0.03771,0,0.94286
2013-05-06,0.03771,0.03771,0.03771,0.03771,0,0.94286
2013-05-07,0.03771,0.03771,0.03771,0.03771,0,0.94286
2013-05-08,0.03771,0.03771,0.03771,0.03771,4200,0.94286
2013-05-09,0.03771,0.03771,0.03771,0.03771,0,0.94286
2013-05-10,0.03583,0.03771,0.03583,0.03771,5800,0.94286
2013-05-13,0.03771,0.03771,0.03771,0.03771,0,0.94286
2013-05-14,0.03771,0.03771,0.03771,0.03771,0,0.94286
2013-05-15,0.03771,0.03771,0.03771,0.03771,11400,0.94286
2013-05-16,0.03771,0.03771,0.03771,0.03771,400,0.94286
2013-05-17,0.03771,0.03771,0.03771,0.03771,0,0.94286
2013-05-20,0.03771,0.03771,0.03771,0.03771,0,0.94286
2013-05-21,0.03771,0.03771,0.03771,0.03771,0,0.94286
2013-05-22,0.03771,0.03771,0.03771,0.03771,0,0.94286
2013-05-23,0.03771,0.03771,0.03771,0.03771,0,0.94286
2013-05-24,0.03771,0.03771,0.03771,0.03771,0,0.94286
2013-05-27,0.03771,0.03771,0.03771,0.03771,0,0.94286
2013-05-28,0.03771,0.03771,0.03771,0.03771,0,0.94286
2013-05-29,0.03771,0.03771,0.03771,0.03771,0,0.94286
2013-05-30,0.03771,0.03771,0.03771,0.03771,0,0.94286
2013-05-31,0.03771,0.03771,0.03771,0.03771,0,0.94286
2013-06-03,0.03771,0.03771,0.03771,0.03771,0,0.94286
2013-06-04,0.02829,0.02829,0.02829,0.02829,1800,0.70714
2013-06-05,0.02829,0.02829,0.02829,0.02829,0,0.70714
2013-06-06,0.02829,0.02829,0.02829,0.02829,0,0.70714
2013-06-07,0.02829,0.02829,0.02829,0.02829,0,0.70714
2013-06-10,0.02829,0.02829,0.02829,0.02829,0,0.70714
2013-06-11,0.02829,0.02829,0.02829,0.02829,200,0.70714
2013-06-12,0.02829,0.02829,0.02829,0.02829,0,0.70714
2013-06-13,0.02829,0.02829,0.02829,0.02829,0,0.70714
2013-06-14,0.02829,0.02829,0.02829,0.02829,0,0.70714
2013-06-17,0.01886,0.01886,0.01886,0.01886,2800,0.47143
2013-06-18,0.023569999999999997,0.023569999999999997,0.023569999999999997,0.023569999999999997,800,0.58929
2013-06-19,0.023569999999999997,0.023569999999999997,0.023569999999999997,0.023569999999999997,7500,0.58929
2013-06-20,0.0264,0.0264,0.023569999999999997,0.023569999999999997,2900,0.58929
2013-06-21,0.023569999999999997,0.023569999999999997,0.023569999999999997,0.023569999999999997,14100,0.58929
2013-06-24,0.023569999999999997,0.023569999999999997,0.023569999999999997,0.023569999999999997,0,0.58929
2013-06-25,0.02263,0.023569999999999997,0.02263,0.023569999999999997,6300,0.58929
2013-06-26,0.023569999999999997,0.023569999999999997,0.023569999999999997,0.023569999999999997,0,0.58929
2013-06-27,0.023569999999999997,0.023569999999999997,0.023569999999999997,0.023569999999999997,0,0.58929
2013-06-28,0.023569999999999997,0.023569999999999997,0.023569999999999997,0.023569999999999997,0,0.58929
2013-07-01,0.023569999999999997,0.023569999999999997,0.023569999999999997,0.023569999999999997,0,0.58929
2013-07-02,0.0198,0.0198,0.0198,0.0198,2100,0.495
2013-07-03,0.0198,0.0198,0.0198,0.0198,0,0.495
2013-07-04,0.0198,0.0198,0.0198,0.0198,0,0.495
2013-07-05,0.0198,0.0198,0.0198,0.0198,0,0.495
2013-07-08,0.0198,0.0198,0.0198,0.0198,0,0.495
2013-07-09,0.0198,0.0198,0.0198,0.0198,0,0.495
2013-07-10,0.0198,0.0198,0.0198,0.0198,0,0.495
2013-07-11,0.0198,0.0198,0.0198,0.0198,0,0.495
2013-07-12,0.01226,0.016030000000000003,0.01226,0.016030000000000003,6500,0.40071
2013-07-15,0.016030000000000003,0.016030000000000003,0.016030000000000003,0.016030000000000003,0,0.40071
2013-07-16,0.016030000000000003,0.016030000000000003,0.016030000000000003,0.016030000000000003,0,0.40071
2013-07-17,0.016030000000000003,0.016030000000000003,0.016030000000000003,0.016030000000000003,0,0.40071
2013-07-18,0.016030000000000003,0.016030000000000003,0.016030000000000003,0.016030000000000003,1000,0.40071
2013-07-19,0.016030000000000003,0.016030000000000003,0.016030000000000003,0.016030000000000003,1800,0.40071
2013-07-22,0.016030000000000003,0.016030000000000003,0.016030000000000003,0.016030000000000003,0,0.40071
2013-07-23,0.01414,0.01414,0.01414,0.01414,4200,0.35357
2013-07-24,0.01414,0.01414,0.01414,0.01414,0,0.35357
2013-07-25,0.01414,0.01414,0.01414,0.01414,0,0.35357
2013-07-26,0.01414,0.01414,0.01414,0.01414,0,0.35357
2013-07-29,0.01414,0.01414,0.01414,0.01414,0,0.35357
2013-07-30,0.01886,0.023569999999999997,0.01886,0.02074,9200,0.51857
2013-07-31,0.02074,0.02074,0.02074,0.02074,0,0.51857
2013-08-01,0.02074,0.02074,0.02074,0.02074,0,0.51857
2013-08-02,0.02074,0.02074,0.02074,0.02074,0,0.51857
2013-08-05,0.02074,0.02074,0.02074,0.02074,8400,0.51857
2013-08-06,0.02074,0.02074,0.02074,0.02074,0,0.51857
2013-08-07,0.02074,0.02074,0.01886,0.01886,2100,0.47143
2013-08-08,0.01886,0.02074,0.01886,0.02074,5900,0.51857
2013-08-09,0.02074,0.02074,0.02074,0.02074,0,0.51857
2013-08-12,0.02074,0.02074,0.02074,0.02074,0,0.51857
2013-08-13,0.02074,0.02074,0.02074,0.02074,0,0.51857
2013-08-14,0.02074,0.02074,0.02074,0.02074,0,0.51857
2013-08-15,0.02074,0.02074,0.02074,0.02074,0,0.51857
2013-08-16,0.02074,0.02074,0.02074,0.02074,0,0.51857
2013-08-19,0.02074,0.02074,0.02074,0.02074,0,0.51857
2013-08-20,0.02074,0.02074,0.02074,0.02074,0,0.51857
2013-08-21,0.02074,0.02074,0.02074,0.02074,0,0.51857
2013-08-22,0.02074,0.02074,0.02074,0.02074,0,0.51857
2013-08-23,0.02074,0.02074,0.02074,0.02074,0,0.51857
2013-08-26,0.03771,0.03771,0.03771,0.03771,800,0.94286
2013-08-27,0.03771,0.03771,0.03771,0.03771,0,0.94286
2013-08-28,0.03771,0.03771,0.03771,0.03771,0,0.94286
2013-08-29,0.03771,0.03771,0.03771,0.03771,0,0.94286
2013-08-30,0.023569999999999997,0.023569999999999997,0.01886,0.01886,25400,0.47143
2013-09-02,0.01886,0.01886,0.01886,0.01886,0,0.47143
2013-09-03,0.01886,0.01886,0.01886,0.01886,0,0.47143
2013-09-04,0.01886,0.01886,0.01886,0.01886,0,0.47143
2013-09-05,0.01886,0.01886,0.01886,0.01886,0,0.47143
2013-09-06,0.01886,0.01886,0.01886,0.01886,0,0.47143
2013-09-09,0.01886,0.01886,0.01886,0.01886,0,0.47143
2013-09-10,0.015090000000000001,0.015090000000000001,0.01414,0.01414,6300,0.35357
2013-09-11,0.01414,0.01414,0.01414,0.01414,0,0.35357
2013-09-12,0.01414,0.01414,0.01414,0.01414,0,0.35357
2013-09-13,0.01414,0.01414,0.01414,0.01414,0,0.35357
2013-09-16,0.01414,0.01414,0.01414,0.01414,0,0.35357
2013-09-17,0.01414,0.01414,0.01414,0.01414,0,0.35357
2013-09-18,0.01414,0.01414,0.01414,0.01414,0,0.35357
2013-09-19,0.01414,0.01414,0.01414,0.01414,0,0.35357
2013-09-20,0.015090000000000001,0.015090000000000001,0.01414,0.01414,3100,0.35357
2013-09-23,0.01414,0.01414,0.01414,0.01414,0,0.35357
2013-09-24,0.01414,0.01414,0.01414,0.01414,0,0.35357
2013-09-25,0.01414,0.01414,0.01414,0.01414,400,0.35357
2013-09-26,0.01414,0.01414,0.01414,0.01414,0,0.35357
2013-09-27,0.01414,0.01414,0.01414,0.01414,0,0.35357
2013-09-30,0.01414,0.01414,0.01414,0.01414,2900,0.35357
2013-10-01,0.01414,0.01414,0.01414,0.01414,0,0.35357
2013-10-02,0.01414,0.01414,0.01414,0.01414,0,0.35357
2013-10-03,0.01414,0.01414,0.01414,0.01414,7600,0.35357
2013-10-04,0.01414,0.01414,0.01414,0.01414,0,0.35357
2013-10-07,0.01414,0.01414,0.01414,0.01414,0,0.35357
2013-10-08,0.01414,0.01414,0.01414,0.01414,0,0.35357
2013-10-09,0.01414,0.01414,0.01414,0.01414,0,0.35357
2013-10-10,0.01414,0.01414,0.01414,0.01414,0,0.35357
2013-10-11,0.01414,0.01414,0.01414,0.01414,0,0.35357
2013-10-14,0.01414,0.01414,0.01414,0.01414,0,0.35357
2013-10-15,0.01414,0.01414,0.01414,0.01414,0,0.35357
2013-10-16,0.01414,0.01414,0.01414,0.01414,1000,0.35357
2013-10-17,0.01414,0.01414,0.01414,0.01414,0,0.35357
2013-10-18,0.01414,0.01414,0.01414,0.01414,0,0.35357
2013-10-21,0.01414,0.01414,0.01414,0.01414,0,0.35357
2013-10-22,0.01414,0.01414,0.01414,0.01414,0,0.35357
2013-10-23,0.01414,0.01414,0.01414,0.01414,0,0.35357
2013-10-24,0.01414,0.01414,0.01414,0.01414,0,0.35357
2013-10-25,0.01414,0.01414,0.01414,0.01414,2900,0.35357
2013-10-28,0.01414,0.01414,0.01414,0.01414,0,0.35357
2013-10-29,0.01414,0.01414,0.01414,0.01414,3100,0.35357
2013-10-30,0.01414,0.01414,0.01414,0.01414,0,0.35357
2013-10-31,0.01414,0.01414,0.01414,0.01414,0,0.35357
2013-11-01,0.01414,0.01414,0.01414,0.01414,0,0.35357
2013-11-04,0.01414,0.01414,0.01414,0.01414,0,0.35357
2013-11-05,0.01414,0.01414,0.01414,0.01414,0,0.35357
2013-11-06,0.01414,0.01414,0.01414,0.01414,12000,0.35357
2013-11-07,0.01414,0.01414,0.01414,0.01414,0,0.35357
2013-11-08,0.01414,0.01414,0.01414,0.01414,0,0.35357
2013-11-11,0.01226,0.01226,0.011309999999999999,0.011309999999999999,49400,0.28286
2013-11-12,0.011309999999999999,0.011309999999999999,0.011309999999999999,0.011309999999999999,0,0.28286
2013-11-13,0.00943,0.011309999999999999,0.00943,0.011309999999999999,57200,0.28286
2013-11-14,0.011309999999999999,0.011309999999999999,0.011309999999999999,0.011309999999999999,0,0.28286
2013-11-15,0.011309999999999999,0.011309999999999999,0.011309999999999999,0.011309999999999999,0,0.28286
2013-11-18,0.011309999999999999,0.011309999999999999,0.011309999999999999,0.011309999999999999,0,0.28286
2013-11-19,0.011309999999999999,0.011309999999999999,0.011309999999999999,0.011309999999999999,0,0.28286
2013-11-20,0.011309999999999999,0.011309999999999999,0.011309999999999999,0.011309999999999999,0,0.28286
2013-11-21,0.011309999999999999,0.011309999999999999,0.011309999999999999,0.011309999999999999,0,0.28286
2013-11-22,0.011309999999999999,0.011309999999999999,0.011309999999999999,0.011309999999999999,0,0.28286
2013-11-25,0.011309999999999999,0.011309999999999999,0.011309999999999999,0.011309999999999999,0,0.28286
2013-11-26,0.011309999999999999,0.011309999999999999,0.011309999999999999,0.011309999999999999,0,0.28286
2013-11-27,0.011309999999999999,0.011309999999999999,0.011309999999999999,0.011309999999999999,0,0.28286
2013-11-28,0.011309999999999999,0.011309999999999999,0.011309999999999999,0.011309999999999999,0,0.28286
2013-11-29,0.011309999999999999,0.011309999999999999,0.011309999999999999,0.011309999999999999,0,0.28286
2013-12-02,0.011309999999999999,0.011309999999999999,0.011309999999999999,0.011309999999999999,0,0.28286
2013-12-03,0.011309999999999999,0.011309999999999999,0.011309999999999999,0.011309999999999999,0,0.28286
2013-12-04,0.01226,0.01226,0.01226,0.01226,400,0.30643000000000004
2013-12-05,0.01226,0.01226,0.01226,0.01226,0,0.30643000000000004
2013-12-06,0.01226,0.01226,0.01226,0.01226,0,0.30643000000000004
2013-12-09,0.01226,0.01226,0.01226,0.01226,0,0.30643000000000004
2013-12-10,0.01226,0.01226,0.01226,0.01226,0,0.30643000000000004
2013-12-11,0.01226,0.01226,0.01226,0.01226,0,0.30643000000000004
2013-12-12,0.01226,0.01226,0.01226,0.01226,0,0.30643000000000004
2013-12-13,0.01226,0.01226,0.01226,0.01226,0,0.30643000000000004
2013-12-16,0.01226,0.01226,0.01226,0.01226,0,0.30643000000000004
2013-12-17,0.01226,0.0132,0.01226,0.0132,13700,0.33
2013-12-18,0.0132,0.0132,0.0132,0.0132,0,0.33
2013-12-19,0.0132,0.0132,0.0132,0.0132,0,0.33
2013-12-20,0.0132,0.0132,0.0132,0.0132,0,0.33
2013-12-23,0.0132,0.0132,0.0132,0.0132,0,0.33
2013-12-24,0.0132,0.0132,0.0132,0.0132,0,0.33
2013-12-25,0.0132,0.0132,0.0132,0.0132,0,0.33
2013-12-26,0.0132,0.0132,0.0132,0.0132,0,0.33
2013-12-27,0.0132,0.0132,0.0132,0.0132,0,0.33
2013-12-30,0.0132,0.0132,0.0132,0.0132,0,0.33
2013-12-31,0.0132,0.0132,0.0132,0.0132,0,0.33
2014-01-01,0.0132,0.0132,0.0132,0.0132,0,0.33
2014-01-02,0.0132,0.0132,0.0132,0.0132,0,0.33
2014-01-03,0.0132,0.0132,0.0132,0.0132,0,0.33
2014-01-06,0.0132,0.0132,0.0132,0.0132,0,0.33
2014-01-07,0.0132,0.0132,0.0132,0.0132,0,0.33
2014-01-08,0.0132,0.0132,0.0132,0.0132,0,0.33
2014-01-09,0.0132,0.0132,0.0132,0.0132,0,0.33
2014-01-10,0.0132,0.0132,0.0132,0.0132,0,0.33
2014-01-13,0.0132,0.0132,0.0132,0.0132,0,0.33
2014-01-14,0.0132,0.0132,0.0132,0.0132,0,0.33
2014-01-15,0.0132,0.0132,0.0132,0.0132,0,0.33
2014-01-16,0.0132,0.0132,0.0132,0.0132,0,0.33
2014-01-17,0.0132,0.0132,0.0132,0.0132,0,0.33
2014-01-20,0.0132,0.0132,0.0132,0.0132,0,0.33
2014-01-21,0.0132,0.0132,0.0132,0.0132,4200,0.33
2014-01-22,0.0132,0.0132,0.0132,0.0132,0,0.33
2014-01-23,0.0132,0.0132,0.0132,0.0132,0,0.33
2014-01-24,0.0132,0.0132,0.0132,0.0132,0,0.33
2014-01-27,0.0132,0.0132,0.0132,0.0132,0,0.33
2014-01-28,0.0132,0.0132,0.0132,0.0132,0,0.33
2014-01-29,0.01886,0.01886,0.01886,0.01886,21600,0.47143
2014-01-30,0.023569999999999997,0.023569999999999997,0.02074,0.02074,4200,0.51857
2014-01-31,0.02074,0.02074,0.02074,0.02074,0,0.51857
2014-02-03,0.02074,0.02074,0.01886,0.01886,1500,0.47143
2014-02-04,0.01886,0.01886,0.01886,0.01886,19300,0.47143
2014-02-05,0.01886,0.01886,0.01886,0.01886,0,0.47143
2014-02-06,0.01886,0.01886,0.01886,0.01886,0,0.47143
2014-02-07,0.01886,0.01886,0.01886,0.01886,0,0.47143
2014-02-10,0.01886,0.01886,0.01886,0.01886,0,0.47143
2014-02-11,0.01886,0.01886,0.01886,0.01886,0,0.47143
2014-02-12,0.01886,0.01886,0.01886,0.01886,0,0.47143
2014-02-13,0.01886,0.01886,0.01886,0.01886,0,0.47143
2014-02-14,0.01886,0.01886,0.01886,0.01886,0,0.47143
2014-02-17,0.01886,0.01886,0.01886,0.01886,0,0.47143
2014-02-18,0.01886,0.01886,0.01886,0.01886,0,0.47143
2014-02-19,0.01886,0.01886,0.01886,0.01886,0,0.47143
2014-02-20,0.01886,0.01886,0.01886,0.01886,0,0.47143
2014-02-21,0.01886,0.01886,0.01886,0.01886,0,0.47143
2014-02-24,0.01886,0.01886,0.01886,0.01886,0,0.47143
2014-02-25,0.01886,0.01886,0.01886,0.01886,0,0.47143
2014-02-26,0.01886,0.01886,0.01886,0.01886,0,0.47143
2014-02-27,0.01886,0.01886,0.01886,0.01886,0,0.47143
2014-02-28,0.02074,0.02074,0.02074,0.02074,1000,0.51857
2014-03-03,0.02074,0.02074,0.02074,0.02074,0,0.51857
2014-03-04,0.02074,0.02074,0.02074,0.02074,0,0.51857
2014-03-05,0.0198,0.0198,0.0198,0.0198,2100,0.495
2014-03-06,0.0198,0.0198,0.0198,0.0198,0,0.495
2014-03-07,0.0198,0.0198,0.0198,0.0198,0,0.495
2014-03-10,0.0198,0.0198,0.0198,0.0198,0,0.495
2014-03-11,0.0198,0.0198,0.0198,0.0198,0,0.495
2014-03-12,0.0198,0.0198,0.0198,0.0198,0,0.495
2014-03-13,0.0198,0.0198,0.0198,0.0198,0,0.495
2014-03-14,0.0198,0.0198,0.0198,0.0198,0,0.495
2014-03-17,0.0198,0.0198,0.0198,0.0198,0,0.495
2014-03-18,0.0198,0.0198,0.0198,0.0198,0,0.495
2014-03-19,0.0198,0.0198,0.0198,0.0198,0,0.495
2014-03-20,0.0198,0.0198,0.0198,0.0198,0,0.495
2014-03-21,0.0198,0.0198,0.0198,0.0198,0,0.495
2014-03-24,0.0198,0.0198,0.0198,0.0198,0,0.495
2014-03-25,0.0198,0.0198,0.0198,0.0198,0,0.495
2014-03-26,0.0198,0.0198,0.0198,0.0198,0,0.495
2014-03-27,0.0198,0.0198,0.0198,0.0198,0,0.495
2014-03-28,0.0198,0.0198,0.0198,0.0198,0,0.495
2014-03-31,0.0198,0.0198,0.0198,0.0198,0,0.495
2014-04-01,0.0198,0.0198,0.0198,0.0198,0,0.495
2014-04-02,0.0198,0.0198,0.0198,0.0198,0,0.495
2014-04-03,0.0198,0.0198,0.0198,0.0198,0,0.495
2014-04-04,0.0198,0.0198,0.0198,0.0198,0,0.495
2014-04-07,0.01886,0.01886,0.01886,0.01886,2100,0.47143
2014-04-08,0.01886,0.01886,0.01886,0.01886,0,0.47143
2014-04-09,0.01886,0.01886,0.01886,0.01886,0,0.47143
2014-04-10,0.01886,0.01886,0.01886,0.01886,0,0.47143
2014-04-11,0.01886,0.01886,0.01886,0.01886,0,0.47143
2014-04-14,0.01886,0.01886,0.01886,0.01886,0,0.47143
2014-04-15,0.01886,0.01886,0.01886,0.01886,0,0.47143
2014-04-16,0.01886,0.01886,0.01886,0.01886,0,0.47143
2014-04-17,0.01886,0.01886,0.01886,0.01886,0,0.47143
2014-04-18,0.01886,0.01886,0.01886,0.01886,0,0.47143
2014-04-21,0.01886,0.01886,0.01886,0.01886,0,0.47143
2014-04-22,0.01886,0.01886,0.01886,0.01886,0,0.47143
2014-04-23,0.01886,0.01886,0.01886,0.01886,0,0.47143
2014-04-24,0.01886,0.01886,0.01886,0.01886,0,0.47143
2014-04-25,0.01886,0.01886,0.01886,0.01886,0,0.47143
2014-04-28,0.01886,0.01886,0.01886,0.01886,0,0.47143
2014-04-29,0.01886,0.01886,0.01886,0.01886,0,0.47143
2014-04-30,0.01414,0.01414,0.01226,0.01226,2100,0.30643000000000004
2014-05-01,0.011309999999999999,0.011309999999999999,0.011309999999999999,0.011309999999999999,2700,0.28286
2014-05-02,0.011309999999999999,0.011309999999999999,0.011309999999999999,0.011309999999999999,0,0.28286
2014-05-05,0.011309999999999999,0.011309999999999999,0.011309999999999999,0.011309999999999999,0,0.28286
2014-05-06,0.011309999999999999,0.011309999999999999,0.011309999999999999,0.011309999999999999,0,0.28286
2014-05-07,0.011309999999999999,0.011309999999999999,0.011309999999999999,0.011309999999999999,0,0.28286
2014-05-08,0.011309999999999999,0.011309999999999999,0.011309999999999999,0.011309999999999999,0,0.28286
2014-05-09,0.011309999999999999,0.011309999999999999,0.011309999999999999,0.011309999999999999,0,0.28286
2014-05-12,0.011309999999999999,0.011309999999999999,0.011309999999999999,0.011309999999999999,0,0.28286
2014-05-13,0.01037,0.01037,0.01037,0.01037,10400,0.25929
2014-05-14,0.01037,0.01037,0.01037,0.01037,0,0.25929
2014-05-15,0.008490000000000001,0.008490000000000001,0.008490000000000001,0.008490000000000001,8400,0.21214
2014-05-16,0.00943,0.00943,0.00943,0.00943,20600,0.23571
2014-05-19,0.00943,0.00943,0.00943,0.00943,0,0.23571
2014-05-20,0.00943,0.00943,0.00943,0.00943,0,0.23571
2014-05-21,0.00943,0.00943,0.00943,0.00943,0,0.23571
2014-05-22,0.0066,0.0066,0.00566,0.00566,22400,0.14143
2014-05-23,0.00566,0.00566,0.00566,0.00566,0,0.14143
2014-05-26,0.00566,0.00566,0.00471,0.00471,14800,0.11785999999999999
2014-05-27,0.00471,0.00471,0.00471,0.00471,0,0.11785999999999999
2014-05-28,0.00471,0.00471,0.00471,0.00471,800,0.11785999999999999
2014-05-29,0.00471,0.00471,0.00471,0.00471,1000,0.11785999999999999
2014-05-30,0.00471,0.00471,0.00471,0.00471,0,0.11785999999999999
2014-06-02,0.00471,0.00471,0.00471,0.00471,0,0.11785999999999999
2014-06-03,0.00471,0.00471,0.00471,0.00471,21200,0.11785999999999999
2014-06-04,0.00471,0.00471,0.00471,0.00471,0,0.11785999999999999
2014-06-05,0.00471,0.00471,0.00471,0.00471,0,0.11785999999999999
2014-06-06,0.00471,0.00566,0.00471,0.00566,25300,0.14143
2014-06-09,0.00566,0.00566,0.00566,0.00566,0,0.14143
2014-06-10,0.00566,0.00566,0.00566,0.00566,0,0.14143
2014-06-11,0.00566,0.00566,0.00566,0.00566,0,0.14143
2014-06-12,0.00566,0.00566,0.00566,0.00566,15700,0.14143
2014-06-13,0.00566,0.00566,0.00566,0.00566,0,0.14143
2014-06-16,0.00471,0.00566,0.00471,0.00566,13700,0.14143
2014-06-17,0.00566,0.00566,0.00566,0.00566,10600,0.14143
2014-06-18,0.00566,0.00566,0.00566,0.00566,0,0.14143
2014-06-19,0.00566,0.00566,0.00566,0.00566,0,0.14143
2014-06-20,0.00566,0.00566,0.00566,0.00566,0,0.14143
2014-06-23,0.00566,0.00566,0.00566,0.00566,0,0.14143
2014-06-24,0.00566,0.00566,0.00566,0.00566,0,0.14143
2014-06-25,0.00566,0.00566,0.00566,0.00566,0,0.14143
2014-06-26,0.00471,0.00471,0.00471,0.00471,1500,0.11785999999999999
2014-06-27,0.00471,0.00566,0.00471,0.00566,9600,0.14143
2014-06-30,0.00566,0.00566,0.00566,0.00566,0,0.14143
2014-07-01,0.00566,0.00566,0.00566,0.00566,0,0.14143
2014-07-02,0.00566,0.00566,0.00566,0.00566,0,0.14143
2014-07-03,0.00566,0.00566,0.00566,0.00566,400,0.14143
2014-07-04,0.00566,0.00566,0.00566,0.00566,0,0.14143
2014-07-07,0.00566,0.00566,0.00566,0.00566,0,0.14143
2014-07-08,0.00566,0.00566,0.00566,0.00566,2100,0.14143
2014-07-09,0.00566,0.00566,0.00566,0.00566,0,0.14143
2014-07-10,0.00566,0.00566,0.00566,0.00566,0,0.14143
2014-07-11,0.00566,0.00566,0.00566,0.00566,0,0.14143
2014-07-14,0.00566,0.00566,0.00566,0.00566,0,0.14143
2014-07-15,0.00566,0.00566,0.00566,0.00566,0,0.14143
2014-07-16,0.00566,0.00566,0.00566,0.00566,0,0.14143
2014-07-17,0.00566,0.00566,0.00566,0.00566,0,0.14143
2014-07-18,0.00566,0.00566,0.00566,0.00566,0,0.14143
2014-07-21,0.00566,0.00566,0.00566,0.00566,0,0.14143
2014-07-22,0.00566,0.00566,0.00566,0.00566,0,0.14143
2014-07-23,0.00566,0.00566,0.00566,0.00566,0,0.14143
2014-07-24,0.0066,0.0066,0.0066,0.0066,4200,0.165
2014-07-25,0.0066,0.0066,0.0066,0.0066,0,0.165
2014-07-28,0.0066,0.0066,0.0066,0.0066,0,0.165
2014-07-29,0.0066,0.0066,0.0066,0.0066,0,0.165
2014-07-30,0.0066,0.0066,0.0066,0.0066,0,0.165
2014-07-31,0.0066,0.0066,0.0066,0.0066,0,0.165
2014-08-01,0.0066,0.0066,0.0066,0.0066,0,0.165
2014-08-04,0.0066,0.0066,0.0066,0.0066,0,0.165
2014-08-05,0.0066,0.0066,0.0066,0.0066,0,0.165
2014-08-06,0.0066,0.0066,0.0066,0.0066,0,0.165
2014-08-07,0.0066,0.0066,0.0066,0.0066,0,0.165
2014-08-08,0.0066,0.0066,0.0066,0.0066,0,0.165
2014-08-11,0.0066,0.0066,0.0066,0.0066,0,0.165
2014-08-12,0.0066,0.0066,0.0066,0.0066,0,0.165
2014-08-13,0.0066,0.0066,0.0066,0.0066,0,0.165
2014-08-14,0.0066,0.0066,0.0066,0.0066,0,0.165
2014-08-15,0.0066,0.0066,0.0066,0.0066,0,0.165
2014-08-18,0.0066,0.0066,0.0066,0.0066,12300,0.165
2014-08-19,0.0066,0.0066,0.0066,0.0066,0,0.165
2014-08-20,0.0066,0.0066,0.0066,0.0066,0,0.165
2014-08-21,0.0066,0.0066,0.0066,0.0066,0,0.165
2014-08-22,0.0066,0.0066,0.0066,0.0066,0,0.165
2014-08-25,0.0066,0.0066,0.0066,0.0066,0,0.165
2014-08-26,0.0066,0.0066,0.0066,0.0066,0,0.165
2014-08-27,0.0066,0.007540000000000001,0.0066,0.0066,21500,0.165
2014-08-28,0.0066,0.0066,0.00566,0.00566,15300,0.14143
2014-08-29,0.00566,0.00566,0.00471,0.00471,800,0.11785999999999999
2014-09-01,0.00471,0.00471,0.00471,0.00471,0,0.11785999999999999
2014-09-02,0.00471,0.00471,0.00471,0.00471,12700,0.11785999999999999
2014-09-03,0.00471,0.00471,0.0037700000000000003,0.0037700000000000003,13300,0.09429
2014-09-04,0.0037700000000000003,0.0037700000000000003,0.0037700000000000003,0.0037700000000000003,0,0.09429
2014-09-05,0.0037700000000000003,0.0037700000000000003,0.0037700000000000003,0.0037700000000000003,0,0.09429
2014-09-08,0.0037700000000000003,0.0037700000000000003,0.0037700000000000003,0.0037700000000000003,0,0.09429
2014-09-09,0.0037700000000000003,0.0037700000000000003,0.0037700000000000003,0.0037700000000000003,0,0.09429
2014-09-10,0.0037700000000000003,0.0037700000000000003,0.0037700000000000003,0.0037700000000000003,0,0.09429
2014-09-11,0.0037700000000000003,0.0037700000000000003,0.0037700000000000003,0.0037700000000000003,0,0.09429
2014-09-12,0.0037700000000000003,0.0037700000000000003,0.0037700000000000003,0.0037700000000000003,0,0.09429
2014-09-15,0.0037700000000000003,0.0037700000000000003,0.0037700000000000003,0.0037700000000000003,0,0.09429
2014-09-16,0.0037700000000000003,0.0037700000000000003,0.0037700000000000003,0.0037700000000000003,0,0.09429
2014-09-17,0.0037700000000000003,0.0037700000000000003,0.0037700000000000003,0.0037700000000000003,0,0.09429
2014-09-18,0.0037700000000000003,0.0037700000000000003,0.0037700000000000003,0.0037700000000000003,0,0.09429
2014-09-19,0.0066,0.0066,0.0066,0.0066,6300,0.165
2014-09-22,0.0066,0.0066,0.0066,0.0066,0,0.165
2014-09-23,0.0066,0.0066,0.0066,0.0066,11000,0.165
2014-09-24,0.0066,0.0066,0.0066,0.0066,0,0.165
2014-09-25,0.0066,0.0066,0.0066,0.0066,0,0.165
2014-09-26,0.0066,0.0066,0.0066,0.0066,2900,0.165
2014-09-29,0.0066,0.0066,0.0066,0.0066,700,0.165
2014-09-30,0.0066,0.0066,0.0066,0.0066,0,0.165
2014-10-01,0.0066,0.0066,0.0066,0.0066,0,0.165
2014-10-02,0.0066,0.0066,0.0066,0.0066,0,0.165
2014-10-03,0.0066,0.0066,0.0066,0.0066,0,0.165
2014-10-06,0.0066,0.0066,0.0066,0.0066,0,0.165
2014-10-07,0.0066,0.0066,0.00566,0.00566,39500,0.14143
2014-10-08,0.00566,0.00566,0.00566,0.00566,29600,0.14143
2014-10-09,0.00566,0.00566,0.00566,0.00566,13300,0.14143
2014-10-10,0.00566,0.00566,0.00566,0.00566,0,0.14143
2014-10-13,0.00566,0.00566,0.00566,0.00566,71700,0.14143
2014-10-14,0.0066,0.0066,0.0066,0.0066,21200,0.165
2014-10-15,0.0066,0.0066,0.0066,0.0066,73000,0.165
2014-10-16,0.0066,0.007540000000000001,0.0066,0.0066,54500,0.165
2014-10-17,0.0066,0.0066,0.0066,0.0066,106000,0.165
2014-10-20,0.0066,0.0066,0.0066,0.0066,215100,0.165
2014-10-21,0.0066,0.007540000000000001,0.0066,0.0066,114400,0.165
2014-10-22,0.007540000000000001,0.007540000000000001,0.0066,0.0066,239500,0.165
2014-10-23,0.0066,0.0066,0.0066,0.0066,169600,0.165
2014-10-24,0.0066,0.007540000000000001,0.0066,0.007540000000000001,162400,0.18857000000000002
2014-10-27,0.007540000000000001,0.008490000000000001,0.007540000000000001,0.008490000000000001,43100,0.21214
2014-10-28,0.008490000000000001,0.008490000000000001,0.0066,0.0066,106100,0.165
2014-10-29,0.0066,0.0066,0.0066,0.0066,0,0.165
2014-10-30,0.0066,0.0066,0.0066,0.0066,158400,0.165
2014-10-31,0.0066,0.0066,0.0066,0.0066,0,0.165
2014-11-03,0.008490000000000001,0.008490000000000001,0.0066,0.007540000000000001,198800,0.18857000000000002
2014-11-04,0.007540000000000001,0.007540000000000001,0.007540000000000001,0.007540000000000001,0,0.18857000000000002
2014-11-05,0.007540000000000001,0.008490000000000001,0.007540000000000001,0.008490000000000001,336500,0.21214
2014-11-06,0.008490000000000001,0.008490000000000001,0.008490000000000001,0.008490000000000001,0,0.21214
2014-11-07,0.008490000000000001,0.008490000000000001,0.007540000000000001,0.008490000000000001,337200,0.21214
2014-11-10,0.008490000000000001,0.01037,0.007540000000000001,0.008490000000000001,746500,0.21214
2014-11-11,0.008490000000000001,0.008490000000000001,0.0066,0.0066,145400,0.165
2014-11-12,0.007540000000000001,0.007540000000000001,0.0066,0.0066,76100,0.165
2014-11-13,0.007540000000000001,0.008490000000000001,0.007540000000000001,0.008490000000000001,97900,0.21214
2014-11-14,0.008490000000000001,0.008490000000000001,0.007540000000000001,0.007540000000000001,17900,0.18857000000000002
2014-11-17,0.008490000000000001,0.008490000000000001,0.008490000000000001,0.008490000000000001,41700,0.21214
2014-11-18,0.008490000000000001,0.008490000000000001,0.007540000000000001,0.007540000000000001,31600,0.18857000000000002
2014-11-19,0.007540000000000001,0.007540000000000001,0.007540000000000001,0.007540000000000001,11000,0.18857000000000002
2014-11-20,0.007540000000000001,0.007540000000000001,0.007540000000000001,0.007540000000000001,0,0.18857000000000002
2014-11-21,0.007540000000000001,0.007540000000000001,0.007540000000000001,0.007540000000000001,0,0.18857000000000002
2014-11-24,0.008490000000000001,0.008490000000000001,0.007540000000000001,0.007540000000000001,17400,0.18857000000000002
2014-11-25,0.007540000000000001,0.007540000000000001,0.007540000000000001,0.007540000000000001,0,0.18857000000000002
2014-11-26,0.008490000000000001,0.008490000000000001,0.008490000000000001,0.008490000000000001,10800,0.21214
2014-11-27,0.008490000000000001,0.008490000000000001,0.008490000000000001,0.008490000000000001,10600,0.21214
2014-11-28,0.007540000000000001,0.007540000000000001,0.007540000000000001,0.007540000000000001,25400,0.18857000000000002
2014-12-01,0.007540000000000001,0.007540000000000001,0.007540000000000001,0.007540000000000001,0,0.18857000000000002
2014-12-02,0.008490000000000001,0.01226,0.008490000000000001,0.01226,370300,0.30643000000000004
2014-12-03,0.01226,0.01226,0.00943,0.00943,321100,0.23571
2014-12-04,0.00943,0.01037,0.00943,0.01037,80500,0.25929
2014-12-05,0.01037,0.01037,0.00943,0.01037,29100,0.25929
2014-12-08,0.01037,0.01037,0.01037,0.01037,4200,0.25929
2014-12-09,0.00943,0.01037,0.008490000000000001,0.008490000000000001,43100,0.21214
2014-12-10,0.008490000000000001,0.008490000000000001,0.008490000000000001,0.008490000000000001,29200,0.21214
2014-12-11,0.008490000000000001,0.00943,0.008490000000000001,0.00943,20500,0.23571
2014-12-12,0.00943,0.00943,0.00943,0.00943,0,0.23571
2014-12-15,0.00943,0.00943,0.008490000000000001,0.008490000000000001,7200,0.21214
2014-12-16,0.008490000000000001,0.008490000000000001,0.008490000000000001,0.008490000000000001,0,0.21214
2014-12-17,0.008490000000000001,0.008490000000000001,0.007540000000000001,0.007540000000000001,44600,0.18857000000000002
2014-12-18,0.0066,0.0066,0.0066,0.0066,57600,0.165
2014-12-19,0.00566,0.0066,0.00471,0.0066,29700,0.165
2014-12-22,0.0066,0.0066,0.0066,0.0066,0,0.165
2014-12-23,0.0066,0.0066,0.0066,0.0066,0,0.165
2014-12-24,0.0066,0.0066,0.0066,0.0066,0,0.165
2014-12-25,0.0066,0.0066,0.0066,0.0066,0,0.165
2014-12-26,0.0066,0.0066,0.0066,0.0066,0,0.165
2014-12-29,0.0066,0.0066,0.0066,0.0066,44500,0.165
2014-12-30,0.0066,0.0066,0.00566,0.00566,12300,0.14143
2014-12-31,0.00566,0.00566,0.00566,0.00566,4200,0.14143
2015-01-01,0.00566,0.00566,0.00566,0.00566,0,0.14143
2015-01-02,0.00566,0.00566,0.00566,0.00566,4200,0.14143
2015-01-05,0.00566,0.00566,0.00566,0.00566,0,0.14143
2015-01-06,0.00566,0.00566,0.00566,0.00566,0,0.14143
2015-01-07,0.007540000000000001,0.007540000000000001,0.0066,0.0066,36300,0.165
2015-01-08,0.0066,0.0066,0.0066,0.0066,0,0.165
2015-01-09,0.0066,0.0066,0.00566,0.00566,7900,0.14143
2015-01-12,0.00566,0.0066,0.00566,0.00566,11700,0.14143
2015-01-13,0.00566,0.00566,0.00566,0.00566,0,0.14143
2015-01-14,0.00566,0.00566,0.00566,0.00566,0,0.14143
2015-01-15,0.00566,0.00566,0.00566,0.00566,0,0.14143
2015-01-16,0.0066,0.0066,0.0066,0.0066,6300,0.165
2015-01-19,0.0066,0.0066,0.0066,0.0066,0,0.165
2015-01-20,0.0066,0.007540000000000001,0.0066,0.007540000000000001,16900,0.18857000000000002
2015-01-21,0.008490000000000001,0.008490000000000001,0.008490000000000001,0.008490000000000001,1400,0.21214
2015-01-22,0.008490000000000001,0.008490000000000001,0.008490000000000001,0.008490000000000001,0,0.21214
2015-01-23,0.008490000000000001,0.008490000000000001,0.008490000000000001,0.008490000000000001,0,0.21214
2015-01-26,0.008490000000000001,0.008490000000000001,0.008490000000000001,0.008490000000000001,0,0.21214
2015-01-27,0.008490000000000001,0.008490000000000001,0.008490000000000001,0.008490000000000001,0,0.21214
2015-01-28,0.008490000000000001,0.008490000000000001,0.008490000000000001,0.008490000000000001,5800,0.21214
2015-01-29,0.007540000000000001,0.007540000000000001,0.0037700000000000003,0.00566,124000,0.14143
2015-01-30,0.0066,0.0066,0.00566,0.0066,26400,0.165
2015-02-02,0.0066,0.0066,0.0066,0.0066,0,0.165
2015-02-03,0.00566,0.00566,0.00566,0.00566,3900,0.14143
2015-02-04,0.00566,0.00566,0.00566,0.00566,0,0.14143
2015-02-05,0.00566,0.00566,0.00471,0.00471,122300,0.11785999999999999
2015-02-06,0.0037700000000000003,0.00471,0.0037700000000000003,0.00471,9700,0.11785999999999999
2015-02-09,0.00566,0.007540000000000001,0.00566,0.00566,142400,0.14143
2015-02-10,0.00566,0.00566,0.00471,0.00566,39800,0.14143
2015-02-11,0.00471,0.00471,0.00471,0.00471,9200,0.11785999999999999
2015-02-12,0.0037700000000000003,0.0037700000000000003,0.0037700000000000003,0.0037700000000000003,21200,0.09429
2015-02-13,0.00471,0.0066,0.00471,0.0066,27800,0.165
2015-02-16,0.00471,0.00471,0.00471,0.00471,3100,0.11785999999999999
2015-02-17,0.00471,0.00471,0.00471,0.00471,5000,0.11785999999999999
2015-02-18,0.00471,0.00471,0.00471,0.00471,0,0.11785999999999999
2015-02-19,0.00471,0.00471,0.00471,0.00471,700,0.11785999999999999
2015-02-20,0.00471,0.00471,0.0037700000000000003,0.00471,50000,0.11785999999999999
2015-02-23,0.0037700000000000003,0.0037700000000000003,0.0037700000000000003,0.0037700000000000003,70000,0.09429
2015-02-24,0.0037700000000000003,0.0037700000000000003,0.0037700000000000003,0.0037700000000000003,46300,0.09429
2015-02-25,0.0037700000000000003,0.00471,0.0037700000000000003,0.00471,56100,0.11785999999999999
2015-02-26,0.00471,0.007540000000000001,0.00471,0.00566,188500,0.14143
2015-02-27,0.00566,0.00566,0.00471,0.00471,31400,0.11785999999999999
2015-03-02,0.00471,0.00471,0.00471,0.00471,22000,0.11785999999999999
2015-03-03,0.00471,0.00566,0.00471,0.00566,51700,0.14143
2015-03-04,0.00566,0.0066,0.00471,0.0066,10600,0.165
2015-03-05,0.00566,0.007540000000000001,0.00566,0.007540000000000001,79200,0.18857000000000002
2015-03-06,0.007540000000000001,0.007540000000000001,0.007540000000000001,0.007540000000000001,0,0.18857000000000002
2015-03-09,0.0066,0.0066,0.0066,0.0066,43200,0.165
2015-03-10,0.007540000000000001,0.007540000000000001,0.007540000000000001,0.007540000000000001,45700,0.18857000000000002
2015-03-11,0.0066,0.0066,0.0066,0.0066,27100,0.165
2015-03-12,0.0066,0.0066,0.0066,0.0066,0,0.165
2015-03-13,0.0066,0.0066,0.0066,0.0066,0,0.165
2015-03-16,0.0066,0.007540000000000001,0.0066,0.0066,45300,0.165
2015-03-17,0.00566,0.00566,0.00566,0.00566,5900,0.14143
2015-03-18,0.00566,0.00566,0.00566,0.00566,0,0.14143
2015-03-19,0.0066,0.0066,0.0066,0.0066,4200,0.165
2015-03-20,0.0066,0.0066,0.0066,0.0066,52500,0.165
2015-03-23,0.007540000000000001,0.007540000000000001,0.007540000000000001,0.007540000000000001,12700,0.18857000000000002
2015-03-24,0.007540000000000001,0.007540000000000001,0.007540000000000001,0.007540000000000001,4200,0.18857000000000002
2015-03-25,0.007540000000000001,0.007540000000000001,0.007540000000000001,0.007540000000000001,1600,0.18857000000000002
2015-03-26,0.007540000000000001,0.007540000000000001,0.007540000000000001,0.007540000000000001,0,0.18857000000000002
2015-03-27,0.0066,0.007540000000000001,0.0066,0.007540000000000001,8400,0.18857000000000002
2015-03-30,0.007540000000000001,0.007540000000000001,0.0066,0.0066,16900,0.165
2015-03-31,0.0066,0.0066,0.0066,0.0066,0,0.165
2015-04-01,0.0066,0.0066,0.0066,0.0066,0,0.165
2015-04-02,0.007540000000000001,0.007540000000000001,0.007540000000000001,0.007540000000000001,3800,0.18857000000000002
2015-04-03,0.007540000000000001,0.007540000000000001,0.007540000000000001,0.007540000000000001,0,0.18857000000000002
2015-04-06,0.007540000000000001,0.007540000000000001,0.007540000000000001,0.007540000000000001,0,0.18857000000000002
2015-04-07,0.007540000000000001,0.007540000000000001,0.007540000000000001,0.007540000000000001,0,0.18857000000000002
2015-04-08,0.0066,0.0066,0.0066,0.0066,3000,0.165
2015-04-09,0.0066,0.0066,0.0066,0.0066,0,0.165
2015-04-10,0.0066,0.0066,0.0066,0.0066,0,0.165
2015-04-13,0.0066,0.0066,0.0066,0.0066,0,0.165
2015-04-14,0.0066,0.0066,0.0066,0.0066,0,0.165
2015-04-15,0.0066,0.0066,0.0066,0.0066,0,0.165
2015-04-16,0.0066,0.0066,0.0066,0.0066,6500,0.165
2015-04-17,0.0066,0.0066,0.0066,0.0066,0,0.165
2015-04-20,0.0066,0.0066,0.0066,0.0066,0,0.165
2015-04-21,0.0066,0.0066,0.0066,0.0066,0,0.165
2015-04-22,0.0066,0.0066,0.0066,0.0066,0,0.165
2015-04-23,0.00471,0.00566,0.0037700000000000003,0.00566,72000,0.14143
2015-04-24,0.00566,0.00566,0.00471,0.00471,10900,0.11785999999999999
2015-04-27,0.00471,0.00471,0.00471,0.00471,0,0.11785999999999999
2015-04-28,0.00566,0.00566,0.00471,0.00471,10900,0.11785999999999999
2015-04-29,0.00471,0.00471,0.00471,0.00471,0,0.11785999999999999
2015-04-30,0.00566,0.00566,0.00566,0.00566,8400,0.14143
2015-05-01,0.00566,0.00566,0.00471,0.00471,31300,0.11785999999999999
2015-05-04,0.00471,0.00566,0.00471,0.00566,33300,0.14143
2015-05-05,0.00566,0.00566,0.00566,0.00566,0,0.14143
2015-05-06,0.00471,0.00471,0.00471,0.00471,6500,0.11785999999999999
2015-05-07,0.00471,0.00471,0.00471,0.00471,2400,0.11785999999999999
2015-05-08,0.00471,0.00471,0.00471,0.00471,10600,0.11785999999999999
2015-05-11,0.00471,0.00471,0.00471,0.00471,10000,0.11785999999999999
2015-05-12,0.0037700000000000003,0.00471,0.0037700000000000003,0.00471,9900,0.11785999999999999
2015-05-13,0.00471,0.00471,0.00471,0.00471,7900,0.11785999999999999
2015-05-14,0.00471,0.00471,0.00471,0.00471,11400,0.11785999999999999
2015-05-15,0.00471,0.00471,0.00471,0.00471,9700,0.11785999999999999
2015-05-18,0.00471,0.00471,0.00471,0.00471,0,0.11785999999999999
2015-05-19,0.00471,0.00471,0.00471,0.00471,0,0.11785999999999999
2015-05-20,0.0037700000000000003,0.00471,0.0037700000000000003,0.00471,39800,0.11785999999999999
2015-05-21,0.00471,0.00471,0.00471,0.00471,85100,0.11785999999999999
2015-05-22,0.00471,0.00471,0.00471,0.00471,13100,0.11785999999999999
2015-05-25,0.00471,0.00471,0.00471,0.00471,42400,0.11785999999999999
2015-05-26,0.00471,0.00471,0.00471,0.00471,0,0.11785999999999999
2015-05-27,0.00471,0.00471,0.0037700000000000003,0.0037700000000000003,20000,0.09429
2015-05-28,0.0037700000000000003,0.0037700000000000003,0.0037700000000000003,0.0037700000000000003,5000,0.09429
2015-05-29,0.00471,0.00471,0.00471,0.00471,12800,0.11785999999999999
2015-06-01,0.00471,0.00471,0.00471,0.00471,6100,0.11785999999999999
2015-06-02,0.0037700000000000003,0.0037700000000000003,0.0037700000000000003,0.0037700000000000003,2100,0.09429
2015-06-03,0.00471,0.00471,0.00471,0.00471,8400,0.11785999999999999
2015-06-04,0.00471,0.00471,0.00471,0.00471,4200,0.11785999999999999
2015-06-05,0.00471,0.00471,0.00471,0.00471,0,0.11785999999999999
2015-06-08,0.00471,0.00471,0.00471,0.00471,0,0.11785999999999999
2015-06-09,0.11785999999999999,0.11785999999999999,0.11785999999999999,0.11785999999999999,0,2.9465
2015-06-10,0.11785999999999999,0.11785999999999999,0.11785999999999999,0.11785999999999999,0,2.9465
2015-06-11,0.09429,0.09429,0.09429,0.09429,6100,2.35725
2015-06-12,0.09429,0.09429,0.09429,0.09429,0,2.35725
2015-06-15,0.09429,0.09429,0.09429,0.09429,51900,2.35725
2015-06-16,0.09429,0.09429,0.09429,0.09429,0,2.35725
2015-06-17,0.09429,0.09429,0.09429,0.09429,15000,2.35725
2015-06-18,0.09429,0.09429,0.09429,0.09429,0,2.35725
2015-06-19,0.11785999999999999,0.11785999999999999,0.11785999999999999,0.11785999999999999,5300,2.9465
2015-06-22,0.11785999999999999,0.11785999999999999,0.11785999999999999,0.11785999999999999,0,2.9465
2015-06-23,0.11785999999999999,0.11785999999999999,0.11785999999999999,0.11785999999999999,0,2.9465
2015-06-24,0.11785999999999999,0.11785999999999999,0.11785999999999999,0.11785999999999999,0,2.9465
2015-06-25,0.09429,0.09429,0.09429,0.09429,48700,2.35725
2015-06-26,0.09429,0.09429,0.09429,0.09429,0,2.35725
2015-06-29,0.09429,0.09429,0.09429,0.09429,33000,2.35725
2015-06-30,0.09429,0.09429,0.09429,0.09429,14400,2.35725
2015-07-01,0.09429,0.09429,0.09429,0.09429,4200,2.35725
2015-07-02,0.09429,0.09429,0.09429,0.09429,0,2.35725
2015-07-03,0.09429,0.09429,0.09429,0.09429,0,2.35725
2015-07-06,0.09429,0.09429,0.09429,0.09429,0,2.35725
2015-07-07,0.09429,0.09429,0.09429,0.09429,0,2.35725
2015-07-08,0.11785999999999999,0.11785999999999999,0.11785999999999999,0.11785999999999999,5000,2.9465
2015-07-09,0.11785999999999999,0.11785999999999999,0.11785999999999999,0.11785999999999999,0,2.9465
2015-07-10,0.11785999999999999,0.11785999999999999,0.11785999999999999,0.11785999999999999,0,2.9465
2015-07-13,0.11785999999999999,0.11785999999999999,0.11785999999999999,0.11785999999999999,0,2.9465
2015-07-14,0.11785999999999999,0.11785999999999999,0.11785999999999999,0.11785999999999999,0,2.9465
2015-07-15,0.11785999999999999,0.11785999999999999,0.11785999999999999,0.11785999999999999,0,2.9465
2015-07-16,0.11785999999999999,0.11785999999999999,0.11785999999999999,0.11785999999999999,0,2.9465
2015-07-17,0.11785999999999999,0.11785999999999999,0.11785999999999999,0.11785999999999999,0,0.11785999999999999
2015-07-20,0.11785999999999999,0.11785999999999999,0.11785999999999999,0.11785999999999999,0,0.11785999999999999
2015-07-21,0.11785999999999999,0.11785999999999999,0.11785999999999999,0.11785999999999999,0,0.11785999999999999
2015-07-22,0.11785999999999999,0.11785999999999999,0.11785999999999999,0.11785999999999999,0,0.11785999999999999
2015-07-23,0.11785999999999999,0.11785999999999999,0.11785999999999999,0.11785999999999999,0,0.11785999999999999
2015-07-24,0.12257,0.12257,0.09429,0.09429,15500,0.09429
2015-07-27,0.09429,0.09429,0.09429,0.09429,0,0.09429
2015-07-28,0.09429,0.09429,0.09429,0.09429,0,0.09429
2015-07-29,0.09429,0.09429,0.09429,0.09429,0,0.09429
2015-07-30,0.09429,0.09429,0.09429,0.09429,0,0.09429
2015-07-31,0.06506,0.06506,0.06506,0.06506,0,0.06506
2015-08-03,0.06506,0.06506,0.06506,0.06506,0,0.06506
2015-08-04,0.06506,0.06506,0.06506,0.06506,0,0.06506
2015-08-05,0.06506,0.06506,0.06506,0.06506,0,0.06506
2015-08-06,0.06506,0.06506,0.06506,0.06506,0,0.06506
2015-08-07,0.06506,0.06506,0.06506,0.06506,0,0.06506
2015-08-10,0.06883,0.07166,0.06883,0.07166,19100,0.07166
2015-08-11,0.07166,0.07166,0.07071000000000001,0.07071000000000001,30700,0.07071000000000001
2015-08-12,0.07071000000000001,0.07166,0.07071000000000001,0.07166,13600,0.07166
2015-08-13,0.07543,0.07543,0.07543,0.07543,6300,0.07543
2015-08-14,0.07543,0.07543,0.07543,0.07543,0,0.07543
2015-08-17,0.08014,0.099,0.08014,0.099,63700,0.099
2015-08-18,0.099,0.099,0.099,0.099,1400,0.099
2015-08-19,0.099,0.099,0.099,0.099,0,0.099
2015-08-20,0.099,0.099,0.099,0.099,0,0.099
2015-08-21,0.07354,0.07354,0.07354,0.07354,10600,0.07354
2015-08-24,0.07354,0.07354,0.07354,0.07354,0,0.07354
2015-08-25,0.07354,0.07354,0.07354,0.07354,0,0.07354
2015-08-26,0.07354,0.07354,0.07354,0.07354,0,0.07354
2015-08-27,0.07166,0.07166,0.07166,0.07166,6300,0.07166
2015-08-28,0.07166,0.07166,0.07166,0.07166,1700,0.07166
2015-08-31,0.07166,0.07166,0.07166,0.07166,5000,0.07166
2015-09-01,0.07166,0.07166,0.07166,0.07166,0,0.07166
2015-09-02,0.07166,0.07166,0.07166,0.07166,31600,0.07166
2015-09-03,0.07731,0.07731,0.07731,0.07731,3600,0.07731
2015-09-04,0.08014,0.08014,0.08014,0.08014,21200,0.08014
2015-09-07,0.08486,0.08486,0.08486,0.08486,3000,0.08486
2015-09-08,0.08486,0.08486,0.08486,0.08486,0,0.08486
2015-09-09,0.08486,0.08486,0.08486,0.08486,2100,0.08486
2015-09-10,0.08486,0.08486,0.08486,0.08486,23900,0.08486
2015-09-11,0.08486,0.08486,0.08486,0.08486,4200,0.08486
2015-09-14,0.08486,0.08486,0.08486,0.08486,0,0.08486
2015-09-15,0.08863,0.08863,0.08863,0.08863,1200,0.08863
2015-09-16,0.08863,0.08863,0.08863,0.08863,0,0.08863
2015-09-17,0.08863,0.099,0.08863,0.09146,192500,0.09146
2015-09-18,0.09146,0.09146,0.09146,0.09146,0,0.09146
2015-09-21,0.09146,0.09146,0.09146,0.09146,0,0.09146
2015-09-22,0.09146,0.09146,0.09146,0.09146,0,0.09146
2015-09-23,0.09146,0.09146,0.09146,0.09146,0,0.09146
2015-09-24,0.09146,0.09146,0.09146,0.09146,0,0.09146
2015-09-25,0.09146,0.09146,0.09146,0.09146,0,0.09146
2015-09-28,0.09146,0.09146,0.09146,0.09146,0,0.09146
2015-09-29,0.08863,0.08863,0.07731,0.07731,111300,0.07731
2015-09-30,0.07731,0.07731,0.07731,0.07731,0,0.07731
2015-10-01,0.07731,0.07731,0.07731,0.07731,0,0.07731
2015-10-02,0.07731,0.07731,0.07731,0.07731,0,0.07731
2015-10-05,0.07731,0.07731,0.07731,0.07731,4200,0.07731
2015-10-06,0.07731,0.07731,0.07731,0.07731,27300,0.07731
2015-10-07,0.07731,0.07731,0.07731,0.07731,0,0.07731
2015-10-08,0.07731,0.07731,0.07731,0.07731,0,0.07731
2015-10-09,0.07731,0.07731,0.07731,0.07731,0,0.07731
2015-10-12,0.07637000000000001,0.07731,0.07637000000000001,0.07731,12700,0.07731
2015-10-13,0.07731,0.07731,0.07731,0.07731,0,0.07731
2015-10-14,0.07731,0.07731,0.07731,0.07731,0,0.07731
2015-10-15,0.07731,0.07731,0.07731,0.07731,0,0.07731
2015-10-16,0.07731,0.07731,0.07731,0.07731,0,0.07731
2015-10-19,0.07731,0.07731,0.07731,0.07731,0,0.07731
2015-10-20,0.07731,0.07731,0.07731,0.07731,0,0.07731
2015-10-21,0.07731,0.07731,0.07731,0.07731,14700,0.07731
2015-10-22,0.07731,0.07731,0.07731,0.07731,0,0.07731
2015-10-23,0.08014,0.08014,0.08014,0.08014,261300,0.08014
2015-10-26,0.08014,0.08014,0.08014,0.08014,0,0.08014
2015-10-27,0.08014,0.08014,0.08014,0.08014,0,0.08014
2015-10-28,0.08014,0.08014,0.08014,0.08014,0,0.08014
2015-10-29,0.08014,0.08014,0.08014,0.08014,0,0.08014
2015-10-30,0.08014,0.08014,0.08014,0.08014,0,0.08014
2015-11-02,0.08014,0.08014,0.08014,0.08014,0,0.08014
2015-11-03,0.08014,0.08014,0.08014,0.08014,0,0.08014
2015-11-04,0.08014,0.08014,0.08014,0.08014,0,0.08014
2015-11-05,0.08391,0.08391,0.08391,0.08391,500,0.08391
2015-11-06,0.08391,0.08391,0.08391,0.08391,0,0.08391
2015-11-09,0.08391,0.08391,0.08391,0.08391,0,0.08391
2015-11-10,0.08391,0.08391,0.08391,0.08391,0,0.08391
2015-11-11,0.08391,0.08391,0.08391,0.08391,0,0.08391
2015-11-12,0.08391,0.08391,0.08391,0.08391,0,0.08391
2015-11-13,0.07166,0.07166,0.066,0.066,121100,0.066
2015-11-16,0.066,0.066,0.066,0.066,0,0.066
2015-11-17,0.066,0.066,0.066,0.066,0,0.066
2015-11-18,0.066,0.066,0.066,0.066,0,0.066
2015-11-19,0.066,0.066,0.066,0.066,25300,0.066
2015-11-20,0.066,0.066,0.066,0.066,0,0.066
2015-11-23,0.06034,0.06034,0.06034,0.06034,4600,0.06034
2015-11-24,0.06034,0.06034,0.06034,0.06034,0,0.06034
2015-11-25,0.06034,0.06034,0.06034,0.06034,0,0.06034
2015-11-26,0.07449,0.07543,0.06788999999999999,0.06788999999999999,42400,0.06788999999999999
2015-11-27,0.06788999999999999,0.06788999999999999,0.06788999999999999,0.06788999999999999,0,0.06788999999999999
2015-11-30,0.06788999999999999,0.06788999999999999,0.06788999999999999,0.06788999999999999,31800,0.06788999999999999
2015-12-01,0.06788999999999999,0.06788999999999999,0.06788999999999999,0.06788999999999999,0,0.06788999999999999
2015-12-02,0.06788999999999999,0.06788999999999999,0.06788999999999999,0.06788999999999999,0,0.06788999999999999
2015-12-03,0.06788999999999999,0.06788999999999999,0.06788999999999999,0.06788999999999999,0,0.06788999999999999
2015-12-04,0.06788999999999999,0.06788999999999999,0.06788999999999999,0.06788999999999999,0,0.06788999999999999
2015-12-07,0.066,0.066,0.066,0.066,21000,0.066
2015-12-08,0.066,0.066,0.066,0.066,0,0.066
2015-12-09,0.066,0.066,0.066,0.066,0,0.066
2015-12-10,0.066,0.066,0.066,0.066,0,0.066
2015-12-11,0.066,0.066,0.066,0.066,0,0.066
2015-12-14,0.066,0.066,0.066,0.066,0,0.066
2015-12-15,0.066,0.066,0.066,0.066,0,0.066
2015-12-16,0.066,0.066,0.066,0.066,0,0.066
2015-12-17,0.06129,0.06129,0.06129,0.06129,34200,0.06129
2015-12-18,0.06129,0.06129,0.06129,0.06129,0,0.06129
2015-12-21,0.06129,0.06129,0.06129,0.06129,0,0.06129
2015-12-22,0.06129,0.06129,0.06129,0.06129,0,0.06129
2015-12-23,0.06129,0.06129,0.06129,0.06129,0,0.06129
2015-12-24,0.06129,0.06129,0.06129,0.06129,0,0.06129
2015-12-25,0.06129,0.06129,0.06129,0.06129,0,0.06129
2015-12-28,0.06129,0.06129,0.06129,0.06129,0,0.06129
2015-12-29,0.06129,0.06129,0.06129,0.06129,0,0.06129
2015-12-30,0.06129,0.06129,0.06129,0.06129,0,0.06129
2015-12-31,0.06129,0.06129,0.06129,0.06129,0,0.06129
2016-01-01,0.06129,0.06129,0.06129,0.06129,0,0.06129
2016-01-04,0.05657,0.05657,0.05657,0.05657,59300,0.05657
2016-01-05,0.05657,0.05657,0.05657,0.05657,0,0.05657
2016-01-06,0.05657,0.05657,0.05657,0.05657,0,0.05657
2016-01-07,0.05657,0.05657,0.05657,0.05657,9500,0.05657
2016-01-08,0.05657,0.05657,0.05657,0.05657,0,0.05657
2016-01-11,0.05657,0.05657,0.05657,0.05657,0,0.05657
2016-01-12,0.05657,0.05657,0.05657,0.05657,0,0.05657
2016-01-13,0.05657,0.05657,0.05657,0.05657,3000,0.05657
2016-01-14,0.05657,0.05657,0.05657,0.05657,0,0.05657
2016-01-15,0.05657,0.05657,0.05657,0.05657,0,0.05657
2016-01-18,0.05657,0.05657,0.05657,0.05657,0,0.05657
2016-01-19,0.05657,0.05657,0.05657,0.05657,0,0.05657
2016-01-20,0.05657,0.05657,0.05657,0.05657,0,0.05657
2016-01-21,0.05657,0.05657,0.05657,0.05657,0,0.05657
2016-01-22,0.066,0.066,0.066,0.066,82800,0.066
2016-01-25,0.066,0.066,0.066,0.066,0,0.066
2016-01-26,0.066,0.066,0.066,0.066,0,0.066
2016-01-27,0.066,0.066,0.066,0.066,0,0.066
2016-01-28,0.066,0.066,0.066,0.066,0,0.066
2016-01-29,0.05657,0.05657,0.05657,0.05657,6300,0.05657
2016-02-01,0.06129,0.06129,0.06129,0.06129,38100,0.06129
2016-02-02,0.06129,0.06129,0.06129,0.06129,0,0.06129
2016-02-03,0.06129,0.06129,0.06129,0.06129,0,0.06129
2016-02-04,0.06129,0.06129,0.06129,0.06129,2600,0.06129
2016-02-05,0.06129,0.06129,0.06129,0.06129,0,0.06129
2016-02-08,0.06129,0.06129,0.06129,0.06129,33900,0.06129
2016-02-09,0.06129,0.06129,0.06129,0.06129,0,0.06129
2016-02-10,0.06129,0.06129,0.06129,0.06129,0,0.06129
2016-02-11,0.06129,0.06129,0.06129,0.06129,0,0.06129
2016-02-12,0.06129,0.06129,0.06129,0.06129,0,0.06129
2016-02-15,0.06129,0.06129,0.06129,0.06129,0,0.06129
2016-02-16,0.06129,0.06129,0.06129,0.06129,0,0.06129
2016-02-17,0.06129,0.06129,0.06129,0.06129,0,0.06129
2016-02-18,0.058460000000000005,0.058460000000000005,0.058460000000000005,0.058460000000000005,53000,0.058460000000000005
2016-02-19,0.058460000000000005,0.058460000000000005,0.058460000000000005,0.058460000000000005,0,0.058460000000000005
2016-02-22,0.058460000000000005,0.058460000000000005,0.058460000000000005,0.058460000000000005,0,0.058460000000000005
2016-02-23,0.058460000000000005,0.058460000000000005,0.058460000000000005,0.058460000000000005,0,0.058460000000000005
2016-02-24,0.058460000000000005,0.058460000000000005,0.058460000000000005,0.058460000000000005,0,0.058460000000000005
2016-02-25,0.06034,0.06034,0.06034,0.06034,13500,0.06034
2016-02-26,0.06034,0.06034,0.06034,0.06034,0,0.06034
2016-02-29,0.06034,0.06034,0.06034,0.06034,0,0.06034
2016-03-01,0.066,0.066,0.066,0.066,11400,0.066
2016-03-02,0.066,0.066,0.066,0.066,0,0.066
2016-03-03,0.066,0.066,0.066,0.066,0,0.066
2016-03-04,0.066,0.066,0.066,0.066,0,0.066
2016-03-07,0.066,0.066,0.066,0.066,0,0.066
2016-03-08,0.066,0.066,0.066,0.066,0,0.066
2016-03-09,0.066,0.066,0.066,0.066,0,0.066
2016-03-10,0.066,0.066,0.066,0.066,0,0.066
2016-03-11,0.08109,0.08109,0.08109,0.08109,24600,0.08109
2016-03-14,0.08109,0.08109,0.08109,0.08109,36900,0.08109
2016-03-15,0.08109,0.08109,0.08109,0.08109,0,0.08109
2016-03-16,0.08109,0.08109,0.08109,0.08109,0,0.08109
2016-03-17,0.08109,0.08109,0.08109,0.08109,0,0.08109
2016-03-18,0.08109,0.08109,0.08109,0.08109,0,0.08109
2016-03-21,0.08109,0.08109,0.08109,0.08109,0,0.08109
2016-03-22,0.08109,0.08109,0.08109,0.08109,0,0.08109
2016-03-23,0.08109,0.08109,0.08109,0.08109,0,0.08109
2016-03-24,0.08109,0.08109,0.08109,0.08109,0,0.08109
2016-03-25,0.08109,0.08109,0.08109,0.08109,0,0.08109
2016-03-28,0.08109,0.08109,0.08109,0.08109,0,0.08109
2016-03-29,0.08109,0.08109,0.08109,0.08109,0,0.08109
2016-03-30,0.08109,0.08109,0.08109,0.08109,0,0.08109
2016-03-31,0.08109,0.08109,0.08109,0.08109,0,0.08109
2016-04-01,0.08109,0.08109,0.08109,0.08109,0,0.08109
2016-04-04,0.07071000000000001,0.07543,0.07071000000000001,0.07543,54000,0.07543
2016-04-05,0.07543,0.07543,0.07543,0.07543,0,0.07543
2016-04-06,0.07071000000000001,0.07071000000000001,0.07071000000000001,0.07071000000000001,12700,0.07071000000000001
2016-04-07,0.07071000000000001,0.07071000000000001,0.07071000000000001,0.07071000000000001,0,0.07071000000000001
2016-04-08,0.06506,0.06506,0.03771,0.04243,207300,0.04243
2016-04-11,0.03866,0.03866,0.03866,0.03866,51500,0.03866
2016-04-12,0.03866,0.03866,0.03771,0.03771,16400,0.03771
2016-04-13,0.03771,0.03771,0.03771,0.03771,2100,0.03771
2016-04-14,0.03771,0.03771,0.03771,0.03771,2100,0.03771
2016-04-15,0.03771,0.03771,0.03771,0.03771,0,0.03771
2016-04-18,0.03771,0.03771,0.03771,0.03771,0,0.03771
2016-04-19,0.03771,0.03771,0.03771,0.03771,204000,0.03771
2016-04-20,0.03771,0.03771,0.03677,0.03677,103300,0.03677
2016-04-21,0.03677,0.03677,0.03677,0.03677,0,0.03677
2016-04-22,0.03677,0.03677,0.03583,0.03583,111800,0.03583
2016-04-25,0.03583,0.03583,0.03583,0.03583,0,0.03583
2016-04-26,0.0462,0.0462,0.0462,0.0462,26500,0.0462
2016-04-27,0.0462,0.0462,0.0462,0.0462,0,0.0462
2016-04-28,0.0462,0.0462,0.0462,0.0462,0,0.0462
2016-04-29,0.0462,0.0462,0.0462,0.0462,0,0.0462
2016-05-02,0.0462,0.0462,0.0462,0.0462,0,0.0462
2016-05-03,0.0462,0.0462,0.0462,0.0462,0,0.0462
2016-05-04,0.0462,0.0462,0.0462,0.0462,0,0.0462
2016-05-05,0.0462,0.0462,0.0462,0.0462,0,0.0462
2016-05-06,0.03771,0.03771,0.03771,0.03771,4600,0.03771
2016-05-09,0.03771,0.03771,0.03771,0.03771,0,0.03771
2016-05-10,0.03583,0.03583,0.03583,0.03583,8400,0.03583
2016-05-11,0.03017,0.03017,0.03017,0.03017,1200,0.03017
2016-05-12,0.03017,0.03017,0.03017,0.03017,14600,0.03017
2016-05-13,0.03017,0.03017,0.03017,0.03017,0,0.03017
2016-05-16,0.03017,0.03017,0.03017,0.03017,0,0.03017
2016-05-17,0.03583,0.03583,0.03583,0.03583,12700,0.03583
2016-05-18,0.03583,0.03583,0.03583,0.03583,400,0.03583
2016-05-19,0.03583,0.03583,0.03583,0.03583,0,0.03583
2016-05-20,0.03583,0.03583,0.033,0.033,4713800,0.033
2016-05-23,0.033,0.033,0.033,0.033,0,0.033
2016-05-24,0.033,0.033,0.033,0.033,0,0.033
2016-05-25,0.033,0.033,0.033,0.033,0,0.033
2016-05-26,0.033,0.033,0.033,0.033,0,0.033
2016-05-27,0.033,0.033,0.033,0.033,0,0.033
2016-05-30,0.033,0.033,0.033,0.033,0,0.033
2016-05-31,0.033,0.033,0.033,0.033,0,0.033
2016-06-01,0.02829,0.02829,0.02829,0.02829,84600,0.02829
2016-06-02,0.02829,0.02829,0.02829,0.02829,0,0.02829
2016-06-03,0.02829,0.02829,0.02829,0.02829,0,0.02829
2016-06-06,0.033,0.033,0.033,0.033,600,0.033
2016-06-07,0.033,0.033,0.033,0.033,0,0.033
2016-06-08,0.033,0.033,0.033,0.033,21200,0.033
2016-06-09,0.033,0.033,0.033,0.033,57200,0.033
2016-06-10,0.033,0.033,0.033,0.033,0,0.033
2016-06-13,0.033,0.033,0.033,0.033,0,0.033
2016-06-14,0.035,0.035,0.035,0.035,16000,0.035
2016-06-15,0.035,0.035,0.035,0.035,0,0.035
2016-06-16,0.035,0.035,0.035,0.035,0,0.035
2016-06-17,0.035,0.035,0.035,0.035,0,0.035
2016-06-20,0.035,0.035,0.035,0.035,14000,0.035
2016-06-21,0.035,0.035,0.035,0.035,0,0.035
2016-06-22,0.034,0.035,0.034,0.035,114400,0.035
2016-06-23,0.035,0.035,0.035,0.035,455600,0.035
2016-06-24,0.035,0.035,0.035,0.035,0,0.035
2016-06-27,0.035,0.035,0.035,0.035,0,0.035
2016-06-28,0.035,0.035,0.035,0.035,0,0.035
2016-06-29,0.027000000000000003,0.027000000000000003,0.027000000000000003,0.027000000000000003,3000,0.027000000000000003
2016-06-30,0.027000000000000003,0.027000000000000003,0.027000000000000003,0.027000000000000003,0,0.027000000000000003
2016-07-01,0.027000000000000003,0.027000000000000003,0.027000000000000003,0.027000000000000003,0,0.027000000000000003
2016-07-04,0.031,0.035,0.031,0.035,41000,0.035
2016-07-05,0.035,0.035,0.035,0.035,0,0.035
2016-07-06,0.035,0.035,0.035,0.035,88100,0.035
2016-07-07,0.035,0.035,0.035,0.035,141800,0.035
2016-07-08,0.035,0.035,0.035,0.035,0,0.035
2016-07-11,0.035,0.035,0.035,0.035,83600,0.035
2016-07-12,0.035,0.035,0.035,0.035,0,0.035
2016-07-13,0.045,0.045,0.044000000000000004,0.044000000000000004,1599400,0.044000000000000004
2016-07-14,0.044000000000000004,0.044000000000000004,0.044000000000000004,0.044000000000000004,0,0.044000000000000004
2016-07-15,0.044000000000000004,0.044000000000000004,0.044000000000000004,0.044000000000000004,0,0.044000000000000004
2016-07-18,0.044000000000000004,0.044000000000000004,0.044000000000000004,0.044000000000000004,0,0.044000000000000004
2016-07-19,0.044000000000000004,0.044000000000000004,0.044000000000000004,0.044000000000000004,0,0.044000000000000004
2016-07-20,0.044000000000000004,0.044000000000000004,0.044000000000000004,0.044000000000000004,0,0.044000000000000004
2016-07-21,0.044000000000000004,0.044000000000000004,0.044000000000000004,0.044000000000000004,0,0.044000000000000004
2016-07-22,0.044000000000000004,0.044000000000000004,0.044000000000000004,0.044000000000000004,0,0.044000000000000004
2016-07-25,0.044000000000000004,0.044000000000000004,0.044000000000000004,0.044000000000000004,0,0.044000000000000004
2016-07-26,0.044000000000000004,0.044000000000000004,0.044000000000000004,0.044000000000000004,0,0.044000000000000004
2016-07-27,0.044000000000000004,0.044000000000000004,0.044000000000000004,0.044000000000000004,0,0.044000000000000004
2016-07-28,0.044000000000000004,0.044000000000000004,0.044000000000000004,0.044000000000000004,0,0.044000000000000004
2016-07-29,0.04,0.04,0.04,0.04,13500,0.04
2016-08-01,0.04,0.04,0.04,0.04,86500,0.04
2016-08-02,0.04,0.04,0.04,0.04,0,0.04
2016-08-03,0.033,0.038,0.033,0.038,34900,0.038
2016-08-04,0.036000000000000004,0.036000000000000004,0.036000000000000004,0.036000000000000004,800,0.036000000000000004
2016-08-05,0.036000000000000004,0.036000000000000004,0.036000000000000004,0.036000000000000004,0,0.036000000000000004
2016-08-08,0.036000000000000004,0.036000000000000004,0.036000000000000004,0.036000000000000004,17200,0.036000000000000004
2016-08-09,0.036000000000000004,0.036000000000000004,0.036000000000000004,0.036000000000000004,0,0.036000000000000004
2016-08-10,0.036000000000000004,0.036000000000000004,0.036000000000000004,0.036000000000000004,0,0.036000000000000004
2016-08-11,0.036000000000000004,0.036000000000000004,0.036000000000000004,0.036000000000000004,0,0.036000000000000004
2016-08-12,0.036000000000000004,0.036000000000000004,0.036000000000000004,0.036000000000000004,0,0.036000000000000004
2016-08-15,0.036000000000000004,0.036000000000000004,0.036000000000000004,0.036000000000000004,0,0.036000000000000004
2016-08-16,0.038,0.039,0.038,0.039,33000,0.039
2016-08-17,0.04,0.04,0.04,0.04,74800,0.04
2016-08-18,0.04,0.04,0.04,0.04,0,0.04
2016-08-19,0.04,0.04,0.04,0.04,0,0.04
2016-08-22,0.04,0.04,0.04,0.04,0,0.04
2016-08-23,0.036000000000000004,0.036000000000000004,0.035,0.035,238600,0.035
2016-08-24,0.035,0.035,0.035,0.035,0,0.035
2016-08-25,0.033,0.035,0.033,0.035,2950400,0.035
2016-08-26,0.039,0.039,0.039,0.039,90100,0.039
2016-08-29,0.039,0.039,0.039,0.039,0,0.039
2016-08-30,0.039,0.039,0.039,0.039,0,0.039
2016-08-31,0.039,0.039,0.039,0.039,0,0.039
2016-09-01,0.039,0.039,0.039,0.039,0,0.039
2016-09-02,0.039,0.039,0.039,0.039,250000,0.039
2016-09-05,0.039,0.039,0.039,0.039,0,0.039
2016-09-06,0.039,0.039,0.039,0.039,122200,0.039
2016-09-07,0.039,0.039,0.039,0.039,0,0.039
2016-09-08,0.036000000000000004,0.036000000000000004,0.036000000000000004,0.036000000000000004,97500,0.036000000000000004
2016-09-09,0.036000000000000004,0.036000000000000004,0.036000000000000004,0.036000000000000004,0,0.036000000000000004
2016-09-12,0.039,0.039,0.039,0.039,13900,0.039
2016-09-13,0.039,0.039,0.039,0.039,0,0.039
2016-09-14,0.039,0.039,0.039,0.039,0,0.039
2016-09-15,0.039,0.039,0.039,0.039,0,0.039
2016-09-16,0.039,0.039,0.039,0.039,0,0.039
2016-09-19,0.039,0.039,0.039,0.039,0,0.039
2016-09-20,0.036000000000000004,0.036000000000000004,0.036000000000000004,0.036000000000000004,2400,0.036000000000000004
2016-09-21,0.035,0.035,0.035,0.035,50000,0.035
2016-09-22,0.035,0.035,0.035,0.035,0,0.035
2016-09-23,0.035,0.035,0.035,0.035,0,0.035
2016-09-26,0.035,0.035,0.035,0.035,0,0.035
2016-09-27,0.035,0.035,0.035,0.035,0,0.035
2016-09-28,0.033,0.033,0.033,0.033,69600,0.033
2016-09-29,0.033,0.033,0.033,0.033,0,0.033
2016-09-30,0.033,0.033,0.033,0.033,0,0.033
2016-10-03,0.033,0.033,0.033,0.033,0,0.033
2016-10-04,0.031,0.031,0.031,0.031,119700,0.031
2016-10-05,0.031,0.031,0.031,0.031,0,0.031
2016-10-06,0.031,0.031,0.031,0.031,0,0.031
2016-10-07,0.031,0.031,0.031,0.031,14200,0.031
2016-10-10,0.031,0.031,0.031,0.031,0,0.031
2016-10-11,0.031,0.031,0.031,0.031,0,0.031
2016-10-12,0.031,0.031,0.031,0.031,0,0.031
2016-10-13,0.031,0.031,0.031,0.031,0,0.031
2016-10-14,0.031,0.031,0.031,0.031,0,0.031
2016-10-17,0.035,0.035,0.035,0.035,83600,0.035
2016-10-18,0.035,0.035,0.035,0.035,0,0.035
2016-10-19,0.035,0.035,0.035,0.035,0,0.035
2016-10-20,0.035,0.035,0.035,0.035,0,0.035
2016-10-21,0.035,0.035,0.035,0.035,0,0.035
2016-10-24,0.035,0.035,0.035,0.035,13000,0.035
2016-10-25,0.035,0.035,0.035,0.035,32300,0.035
2016-10-26,0.035,0.035,0.035,0.035,0,0.035
2016-10-27,0.035,0.035,0.035,0.035,467600,0.035
2016-10-28,0.035,0.035,0.035,0.035,0,0.035
2016-10-31,0.035,0.035,0.035,0.035,0,0.035
2016-11-01,0.035,0.035,0.035,0.035,200000,0.035
2016-11-02,0.035,0.035,0.035,0.035,0,0.035
2016-11-03,0.035,0.035,0.035,0.035,0,0.035
2016-11-04,0.035,0.035,0.035,0.035,0,0.035
2016-11-07,0.035,0.035,0.035,0.035,0,0.035
2016-11-08,0.035,0.035,0.03,0.03,47300,0.03
2016-11-09,0.03,0.03,0.03,0.03,0,0.03
2016-11-10,0.03,0.03,0.03,0.03,0,0.03
2016-11-11,0.03,0.03,0.03,0.03,0,0.03
2016-11-14,0.03,0.03,0.03,0.03,0,0.03
2016-11-15,0.03,0.03,0.03,0.03,0,0.03
2016-11-16,0.03,0.03,0.03,0.03,0,0.03
2016-11-17,0.03,0.03,0.03,0.03,0,0.03
2016-11-18,0.03,0.03,0.03,0.03,0,0.03
2016-11-21,0.03,0.03,0.03,0.03,0,0.03
2016-11-22,0.033,0.033,0.033,0.033,2000,0.033
2016-11-23,0.033,0.033,0.032,0.032,200000,0.032
2016-11-24,0.032,0.032,0.032,0.032,0,0.032
2016-11-25,0.032,0.032,0.032,0.032,110600,0.032
2016-11-28,0.032,0.032,0.032,0.032,36500,0.032
2016-11-29,0.032,0.032,0.032,0.032,0,0.032
2016-11-30,0.03,0.032,0.03,0.032,72300,0.032
2016-12-01,0.032,0.032,0.032,0.032,100000,0.032
2016-12-02,0.032,0.032,0.032,0.032,0,0.032
2016-12-05,0.032,0.032,0.032,0.032,0,0.032
2016-12-06,0.032,0.032,0.032,0.032,0,0.032
2016-12-07,0.032,0.032,0.032,0.032,97600,0.032
2016-12-08,0.032,0.032,0.032,0.032,0,0.032
2016-12-09,0.032,0.032,0.032,0.032,0,0.032
2016-12-12,0.03,0.03,0.03,0.03,5900,0.03
2016-12-13,0.03,0.03,0.03,0.03,200000,0.03
2016-12-14,0.03,0.03,0.03,0.03,0,0.03
2016-12-15,0.03,0.03,0.03,0.03,0,0.03
2016-12-16,0.03,0.03,0.03,0.03,0,0.03
2016-12-19,0.03,0.03,0.03,0.03,15000,0.03
2016-12-20,0.03,0.03,0.03,0.03,0,0.03
2016-12-21,0.03,0.03,0.03,0.03,0,0.03
2016-12-22,0.03,0.03,0.03,0.03,0,0.03
2016-12-23,0.03,0.03,0.03,0.03,0,0.03
2016-12-26,0.03,0.03,0.03,0.03,0,0.03
2016-12-27,0.03,0.03,0.03,0.03,0,0.03
2016-12-28,0.03,0.03,0.03,0.03,0,0.03
2016-12-29,0.03,0.03,0.03,0.03,0,0.03
2016-12-30,0.03,0.03,0.03,0.03,0,0.03
