Date,Open,High,Low,Close,Volume,Adj Close
2012-12-21,0.27,0.29,0.27,0.29,66200,0.29
2012-12-24,0.29,0.295,0.29,0.29,51300,0.29
2012-12-25,0.29,0.29,0.29,0.29,0,0.29
2012-12-26,0.29,0.29,0.29,0.29,0,0.29
2012-12-27,0.285,0.285,0.285,0.285,7000,0.285
2012-12-28,0.285,0.285,0.285,0.285,0,0.285
2012-12-31,0.285,0.285,0.285,0.285,0,0.285
2013-01-01,0.285,0.285,0.285,0.285,0,0.285
2013-01-02,0.27,0.27,0.27,0.27,36600,0.27
2013-01-03,0.27,0.27,0.27,0.27,0,0.27
2013-01-04,0.27,0.27,0.27,0.27,14900,0.27
2013-01-07,0.27,0.27,0.27,0.27,0,0.27
2013-01-08,0.26,0.28,0.26,0.28,16600,0.28
2013-01-09,0.28,0.28,0.28,0.28,0,0.28
2013-01-10,0.28,0.28,0.28,0.28,0,0.28
2013-01-11,0.25,0.25,0.25,0.25,15000,0.25
2013-01-14,0.27,0.275,0.27,0.275,20000,0.275
2013-01-15,0.275,0.275,0.275,0.275,17500,0.275
2013-01-16,0.275,0.275,0.275,0.275,0,0.275
2013-01-17,0.275,0.275,0.275,0.275,7500,0.275
2013-01-18,0.27,0.27,0.25,0.25,22500,0.25
2013-01-21,0.25,0.25,0.25,0.25,50000,0.25
2013-01-22,0.25,0.25,0.25,0.25,0,0.25
2013-01-24,0.25,0.25,0.25,0.25,0,0.25
2013-01-25,0.24,0.24,0.23,0.24,74300,0.24
2013-01-28,0.24,0.24,0.24,0.24,0,0.24
2013-01-29,0.24,0.24,0.24,0.24,12500,0.24
2013-01-30,0.24,0.24,0.24,0.24,0,0.24
2013-01-31,0.24,0.24,0.24,0.24,0,0.24
2013-02-01,0.24,0.24,0.24,0.24,0,0.24
2013-02-04,0.25,0.25,0.25,0.25,40000,0.25
2013-02-05,0.25,0.25,0.25,0.25,0,0.25
2013-02-06,0.25,0.25,0.24,0.24,34400,0.24
2013-02-07,0.24,0.24,0.24,0.24,0,0.24
2013-02-08,0.24,0.24,0.24,0.24,0,0.24
2013-02-11,0.24,0.24,0.24,0.24,0,0.24
2013-02-12,0.24,0.24,0.24,0.24,30500,0.24
2013-02-13,0.24,0.24,0.24,0.24,25000,0.24
2013-02-14,0.24,0.24,0.23,0.23,65000,0.23
2013-02-15,0.24,0.24,0.24,0.24,10300,0.24
2013-02-18,0.24,0.24,0.235,0.235,4200,0.235
2013-02-19,0.235,0.235,0.235,0.235,0,0.235
2013-02-20,0.235,0.235,0.235,0.235,0,0.235
2013-02-21,0.235,0.235,0.235,0.235,20000,0.235
2013-02-22,0.235,0.235,0.235,0.235,0,0.235
2013-02-25,0.235,0.235,0.235,0.235,51500,0.235
2013-02-26,0.235,0.235,0.23,0.23,27100,0.23
2013-02-27,0.23,0.23,0.23,0.23,39500,0.23
2013-02-28,0.23,0.25,0.23,0.25,119400,0.25
2013-03-01,0.23,0.23,0.23,0.23,20000,0.23
2013-03-04,0.23,0.23,0.23,0.23,0,0.23
2013-03-05,0.23,0.23,0.23,0.23,0,0.23
2013-03-06,0.23,0.23,0.23,0.23,0,0.23
2013-03-07,0.235,0.235,0.235,0.235,10000,0.235
2013-03-08,0.235,0.235,0.235,0.235,0,0.235
2013-03-11,0.23,0.23,0.22,0.22,55400,0.22
2013-03-12,0.22,0.22,0.22,0.22,0,0.22
2013-03-13,0.22,0.22,0.22,0.22,0,0.22
2013-03-14,0.22,0.22,0.22,0.22,0,0.22
2013-03-15,0.22,0.22,0.22,0.22,2600,0.22
2013-03-18,0.22,0.22,0.22,0.22,0,0.22
2013-03-19,0.22,0.22,0.22,0.22,24900,0.22
2013-03-20,0.22,0.22,0.22,0.22,0,0.22
2013-03-21,0.22,0.23,0.22,0.23,26000,0.23
2013-03-22,0.23,0.23,0.215,0.23,42400,0.23
2013-03-25,0.23,0.23,0.23,0.23,0,0.23
2013-03-26,0.23,0.23,0.23,0.23,0,0.23
2013-03-27,0.23,0.23,0.23,0.23,0,0.23
2013-03-28,0.23,0.23,0.23,0.23,0,0.23
2013-03-29,0.23,0.23,0.23,0.23,0,0.23
2013-04-01,0.23,0.23,0.23,0.23,0,0.23
2013-04-02,0.215,0.215,0.215,0.215,15000,0.215
2013-04-03,0.215,0.215,0.215,0.215,50000,0.215
2013-04-04,0.215,0.215,0.215,0.215,0,0.215
2013-04-05,0.215,0.215,0.215,0.215,0,0.215
2013-04-08,0.23,0.23,0.23,0.23,5000,0.23
2013-04-09,0.22,0.22,0.215,0.215,25000,0.215
2013-04-10,0.215,0.215,0.215,0.215,8600,0.215
2013-04-11,0.215,0.215,0.215,0.215,0,0.215
2013-04-12,0.215,0.215,0.215,0.215,0,0.215
2013-04-15,0.215,0.215,0.215,0.215,0,0.215
2013-04-16,0.215,0.215,0.215,0.215,30000,0.215
2013-04-17,0.215,0.215,0.215,0.215,0,0.215
2013-04-18,0.215,0.215,0.215,0.215,0,0.215
2013-04-19,0.22,0.22,0.22,0.22,10000,0.22
2013-04-22,0.22,0.22,0.22,0.22,0,0.22
2013-04-23,0.22,0.22,0.22,0.22,5000,0.22
2013-04-24,0.215,0.215,0.21,0.21,31400,0.21
2013-04-25,0.21,0.21,0.21,0.21,0,0.21
2013-04-26,0.21,0.21,0.2,0.2,10000,0.2
2013-04-29,0.2,0.2,0.2,0.2,0,0.2
2013-04-30,0.2,0.2,0.2,0.2,0,0.2
2013-05-01,0.2,0.2,0.2,0.2,45000,0.2
2013-05-02,0.2,0.2,0.2,0.2,20000,0.2
2013-05-03,0.2,0.2,0.2,0.2,0,0.2
2013-05-06,0.2,0.2,0.2,0.2,0,0.2
2013-05-07,0.2,0.2,0.2,0.2,17200,0.2
2013-05-08,0.2,0.2,0.2,0.2,0,0.2
2013-05-09,0.2,0.2,0.2,0.2,0,0.2
2013-05-10,0.2,0.2,0.2,0.2,0,0.2
2013-05-13,0.2,0.2,0.2,0.2,7700,0.2
2013-05-14,0.2,0.2,0.2,0.2,12200,0.2
2013-05-15,0.2,0.2,0.2,0.2,0,0.2
2013-05-16,0.2,0.2,0.2,0.2,0,0.2
2013-05-17,0.2,0.2,0.2,0.2,0,0.2
2013-05-20,0.2,0.2,0.2,0.2,0,0.2
2013-05-21,0.2,0.2,0.195,0.195,11000,0.195
2013-05-22,0.195,0.195,0.195,0.195,0,0.195
2013-05-23,0.195,0.195,0.195,0.195,0,0.195
2013-05-24,0.195,0.195,0.195,0.195,0,0.195
2013-05-27,0.195,0.195,0.195,0.195,0,0.195
2013-05-28,0.195,0.195,0.195,0.195,1400,0.195
2013-05-29,0.195,0.2,0.195,0.2,48700,0.2
2013-05-30,0.2,0.2,0.2,0.2,30000,0.2
2013-05-31,0.2,0.2,0.19,0.19,15000,0.19
2013-06-03,0.19,0.19,0.19,0.19,0,0.19
2013-06-04,0.19,0.19,0.19,0.19,0,0.19
2013-06-05,0.19,0.19,0.19,0.19,0,0.19
2013-06-06,0.19,0.19,0.19,0.19,0,0.19
2013-06-07,0.19,0.19,0.19,0.19,0,0.19
2013-06-10,0.19,0.19,0.19,0.19,0,0.19
2013-06-11,0.195,0.195,0.195,0.195,33000,0.195
2013-06-12,0.195,0.195,0.195,0.195,0,0.195
2013-06-13,0.195,0.195,0.195,0.195,0,0.195
2013-06-14,0.195,0.195,0.195,0.195,0,0.195
2013-06-17,0.195,0.195,0.195,0.195,0,0.195
2013-06-18,0.195,0.195,0.195,0.195,0,0.195
2013-06-19,0.195,0.195,0.195,0.195,0,0.195
2013-06-20,0.195,0.195,0.195,0.195,0,0.195
2013-06-21,0.195,0.195,0.195,0.195,0,0.195
2013-06-24,0.19,0.19,0.18,0.18,20000,0.18
2013-06-25,0.2,0.2,0.2,0.2,8000,0.2
2013-06-26,0.2,0.2,0.2,0.2,0,0.2
2013-06-27,0.2,0.2,0.2,0.2,0,0.2
2013-06-28,0.21,0.21,0.21,0.21,2000,0.21
2013-07-01,0.21,0.21,0.21,0.21,0,0.21
2013-07-02,0.21,0.21,0.21,0.21,0,0.21
2013-07-03,0.21,0.21,0.21,0.21,0,0.21
2013-07-04,0.2,0.2,0.2,0.2,2500,0.2
2013-07-05,0.2,0.2,0.2,0.2,0,0.2
2013-07-08,0.2,0.2,0.2,0.2,0,0.2
2013-07-09,0.2,0.2,0.2,0.2,0,0.2
2013-07-10,0.2,0.2,0.2,0.2,0,0.2
2013-07-11,0.2,0.2,0.2,0.2,0,0.2
2013-07-12,0.2,0.2,0.2,0.2,0,0.2
2013-07-15,0.2,0.2,0.2,0.2,0,0.2
2013-07-16,0.2,0.2,0.2,0.2,0,0.2
2013-07-17,0.2,0.2,0.2,0.2,10000,0.2
2013-07-18,0.2,0.2,0.2,0.2,0,0.2
2013-07-19,0.2,0.2,0.2,0.2,0,0.2
2013-07-22,0.2,0.2,0.2,0.2,0,0.2
2013-07-23,0.2,0.2,0.2,0.2,45000,0.2
2013-07-24,0.2,0.2,0.2,0.2,0,0.2
2013-07-25,0.2,0.2,0.2,0.2,0,0.2
2013-07-26,0.2,0.2,0.2,0.2,23100,0.2
2013-07-29,0.2,0.2,0.2,0.2,0,0.2
2013-07-30,0.2,0.2,0.2,0.2,0,0.2
2013-07-31,0.2,0.2,0.2,0.2,0,0.2
2013-08-01,0.2,0.2,0.2,0.2,0,0.2
2013-08-02,0.2,0.2,0.2,0.2,0,0.2
2013-08-05,0.2,0.2,0.2,0.2,0,0.2
2013-08-06,0.2,0.2,0.2,0.2,10800,0.2
2013-08-07,0.22,0.22,0.22,0.22,4400,0.22
2013-08-08,0.22,0.22,0.22,0.22,0,0.22
2013-08-09,0.22,0.22,0.22,0.22,0,0.22
2013-08-12,0.22,0.22,0.22,0.22,0,0.22
2013-08-13,0.2,0.2,0.2,0.2,25300,0.2
2013-08-14,0.195,0.195,0.195,0.195,2000,0.195
2013-08-15,0.195,0.195,0.195,0.195,0,0.195
2013-08-16,0.195,0.195,0.195,0.195,0,0.195
2013-08-19,0.195,0.195,0.195,0.195,0,0.195
2013-08-20,0.195,0.195,0.195,0.195,0,0.195
2013-08-21,0.195,0.195,0.195,0.195,0,0.195
2013-08-22,0.195,0.195,0.195,0.195,0,0.195
2013-08-23,0.195,0.195,0.195,0.195,0,0.195
2013-08-26,0.195,0.195,0.195,0.195,0,0.195
2013-08-27,0.195,0.195,0.195,0.195,0,0.195
2013-08-28,0.195,0.195,0.195,0.195,0,0.195
2013-08-29,0.195,0.195,0.195,0.195,0,0.195
2013-08-30,0.195,0.195,0.195,0.195,0,0.195
2013-09-02,0.195,0.195,0.195,0.195,25000,0.195
2013-09-03,0.195,0.195,0.195,0.195,0,0.195
2013-09-04,0.195,0.195,0.195,0.195,0,0.195
2013-09-05,0.195,0.195,0.195,0.195,0,0.195
2013-09-06,0.195,0.195,0.195,0.195,0,0.195
2013-09-09,0.195,0.195,0.195,0.195,0,0.195
2013-09-10,0.195,0.195,0.18,0.195,18300,0.195
2013-09-11,0.2,0.2,0.2,0.2,7100,0.2
2013-09-12,0.2,0.2,0.2,0.2,0,0.2
2013-09-13,0.21,0.21,0.2,0.2,55000,0.2
2013-09-16,0.2,0.2,0.2,0.2,25500,0.2
2013-09-17,0.2,0.2,0.2,0.2,12500,0.2
2013-09-18,0.2,0.2,0.2,0.2,10000,0.2
2013-09-19,0.2,0.2,0.2,0.2,0,0.2
2013-09-20,0.2,0.2,0.2,0.2,0,0.2
2013-09-23,0.2,0.2,0.2,0.2,10000,0.2
2013-09-24,0.2,0.2,0.2,0.2,0,0.2
2013-09-25,0.2,0.2,0.2,0.2,0,0.2
2013-09-26,0.2,0.2,0.2,0.2,0,0.2
2013-09-27,0.2,0.2,0.2,0.2,0,0.2
2013-09-30,0.2,0.2,0.2,0.2,0,0.2
2013-10-01,0.2,0.2,0.2,0.2,10000,0.2
2013-10-02,0.2,0.2,0.2,0.2,10000,0.2
2013-10-03,0.2,0.2,0.2,0.2,0,0.2
2013-10-04,0.2,0.2,0.2,0.2,0,0.2
2013-10-07,0.2,0.2,0.2,0.2,0,0.2
2013-10-08,0.2,0.2,0.2,0.2,0,0.2
2013-10-09,0.2,0.2,0.2,0.2,0,0.2
2013-10-10,0.2,0.2,0.195,0.195,10000,0.195
2013-10-11,0.195,0.195,0.195,0.195,0,0.195
2013-10-14,0.195,0.195,0.195,0.195,0,0.195
2013-10-15,0.195,0.195,0.195,0.195,0,0.195
2013-10-16,0.195,0.195,0.195,0.195,0,0.195
2013-10-17,0.195,0.195,0.195,0.195,0,0.195
2013-10-18,0.195,0.195,0.195,0.195,0,0.195
2013-10-21,0.195,0.195,0.195,0.195,0,0.195
2013-10-22,0.195,0.195,0.195,0.195,0,0.195
2013-10-23,0.195,0.195,0.195,0.195,0,0.195
2013-10-24,0.195,0.195,0.195,0.195,0,0.195
2013-10-25,0.195,0.195,0.195,0.195,0,0.195
2013-10-28,0.2,0.2,0.195,0.195,25000,0.195
2013-10-29,0.195,0.195,0.195,0.195,0,0.195
2013-10-30,0.195,0.195,0.195,0.195,0,0.195
2013-10-31,0.195,0.195,0.195,0.195,0,0.195
2013-11-01,0.195,0.195,0.195,0.195,0,0.195
2013-11-04,0.195,0.195,0.195,0.195,0,0.195
2013-11-05,0.195,0.195,0.195,0.195,0,0.195
2013-11-06,0.195,0.195,0.195,0.195,0,0.195
2013-11-07,0.195,0.195,0.195,0.195,15000,0.195
2013-11-08,0.2,0.205,0.2,0.205,30000,0.205
2013-11-11,0.205,0.205,0.205,0.205,0,0.205
2013-11-12,0.205,0.205,0.205,0.205,0,0.205
2013-11-13,0.205,0.205,0.205,0.205,0,0.205
2013-11-14,0.205,0.205,0.205,0.205,0,0.205
2013-11-15,0.205,0.205,0.205,0.205,0,0.205
2013-11-18,0.205,0.205,0.205,0.205,0,0.205
2013-11-19,0.205,0.205,0.205,0.205,0,0.205
2013-11-20,0.205,0.205,0.205,0.205,0,0.205
2013-11-21,0.205,0.205,0.205,0.205,0,0.205
2013-11-22,0.205,0.205,0.205,0.205,0,0.205
2013-11-25,0.205,0.205,0.205,0.205,0,0.205
2013-11-26,0.2,0.2,0.2,0.2,20000,0.2
2013-11-27,0.2,0.2,0.2,0.2,0,0.2
2013-11-28,0.205,0.205,0.205,0.205,48000,0.205
2013-11-29,0.205,0.205,0.205,0.205,0,0.205
2013-12-02,0.205,0.205,0.205,0.205,0,0.205
2013-12-03,0.205,0.205,0.205,0.205,0,0.205
2013-12-04,0.205,0.205,0.205,0.205,0,0.205
2013-12-05,0.205,0.205,0.205,0.205,0,0.205
2013-12-06,0.205,0.205,0.205,0.205,25000,0.205
2013-12-09,0.2,0.2,0.2,0.2,32000,0.2
2013-12-10,0.2,0.2,0.2,0.2,0,0.2
2013-12-11,0.2,0.2,0.2,0.2,0,0.2
2013-12-12,0.2,0.2,0.2,0.2,0,0.2
2013-12-13,0.2,0.2,0.2,0.2,0,0.2
2013-12-16,0.195,0.195,0.195,0.195,1100,0.195
2013-12-17,0.195,0.195,0.195,0.195,11300,0.195
2013-12-18,0.195,0.195,0.195,0.195,0,0.195
2013-12-19,0.195,0.195,0.195,0.195,0,0.195
2013-12-20,0.2,0.2,0.2,0.2,3500,0.2
2013-12-23,0.2,0.2,0.2,0.2,0,0.2
2013-12-24,0.2,0.2,0.2,0.2,12000,0.2
2013-12-25,0.2,0.2,0.2,0.2,0,0.2
2013-12-26,0.2,0.2,0.2,0.2,0,0.2
2013-12-27,0.2,0.2,0.2,0.2,0,0.2
2013-12-30,0.205,0.205,0.2,0.2,35000,0.2
2013-12-31,0.2,0.2,0.2,0.2,0,0.2
2014-01-01,0.2,0.2,0.2,0.2,0,0.2
2014-01-02,0.2,0.2,0.2,0.2,0,0.2
2014-01-03,0.2,0.2,0.2,0.2,0,0.2
2014-01-06,0.2,0.2,0.2,0.2,0,0.2
2014-01-07,0.2,0.2,0.2,0.2,0,0.2
2014-01-08,0.2,0.2,0.2,0.2,0,0.2
2014-01-09,0.2,0.2,0.2,0.2,0,0.2
2014-01-10,0.2,0.2,0.2,0.2,0,0.2
2014-01-13,0.2,0.2,0.2,0.2,0,0.2
2014-01-14,0.2,0.2,0.2,0.2,500,0.2
2014-01-15,0.2,0.2,0.2,0.2,9500,0.2
2014-01-16,0.2,0.2,0.2,0.2,0,0.2
2014-01-17,0.2,0.2,0.2,0.2,0,0.2
2014-01-20,0.2,0.2,0.2,0.2,0,0.2
2014-01-21,0.2,0.2,0.2,0.2,0,0.2
2014-01-22,0.2,0.2,0.2,0.2,0,0.2
2014-01-23,0.2,0.2,0.2,0.2,0,0.2
2014-01-24,0.2,0.2,0.2,0.2,0,0.2
2014-01-27,0.2,0.2,0.2,0.2,0,0.2
2014-01-28,0.2,0.2,0.2,0.2,0,0.2
2014-01-29,0.2,0.2,0.2,0.2,0,0.2
2014-01-30,0.2,0.2,0.2,0.2,0,0.2
2014-01-31,0.2,0.2,0.2,0.2,0,0.2
2014-02-03,0.22,0.22,0.22,0.22,25000,0.22
2014-02-04,0.22,0.22,0.22,0.22,0,0.22
2014-02-05,0.22,0.22,0.22,0.22,0,0.22
2014-02-06,0.22,0.22,0.22,0.22,0,0.22
2014-02-07,0.22,0.22,0.22,0.22,0,0.22
2014-02-10,0.22,0.22,0.22,0.22,0,0.22
2014-02-11,0.22,0.22,0.22,0.22,0,0.22
2014-02-12,0.22,0.22,0.22,0.22,0,0.22
2014-02-13,0.22,0.22,0.22,0.22,0,0.22
2014-02-14,0.22,0.22,0.22,0.22,7000,0.22
2014-02-17,0.22,0.22,0.22,0.22,0,0.22
2014-02-18,0.215,0.215,0.215,0.215,9000,0.215
2014-02-19,0.22,0.22,0.22,0.22,10100,0.22
2014-02-20,0.22,0.22,0.22,0.22,900,0.22
2014-02-21,0.225,0.225,0.225,0.225,20000,0.225
2014-02-24,0.225,0.225,0.225,0.225,0,0.225
2014-02-25,0.225,0.225,0.225,0.225,0,0.225
2014-02-26,0.22,0.22,0.22,0.22,24100,0.22
2014-02-27,0.22,0.22,0.22,0.22,0,0.22
2014-02-28,0.22,0.22,0.22,0.22,0,0.22
2014-03-03,0.22,0.22,0.22,0.22,0,0.22
2014-03-04,0.22,0.22,0.22,0.22,0,0.22
2014-03-05,0.22,0.22,0.22,0.22,0,0.22
2014-03-06,0.22,0.22,0.22,0.22,0,0.22
2014-03-07,0.22,0.22,0.22,0.22,0,0.22
2014-03-10,0.22,0.22,0.22,0.22,0,0.22
2014-03-11,0.21,0.21,0.21,0.21,30000,0.21
2014-03-12,0.21,0.21,0.21,0.21,0,0.21
2014-03-13,0.21,0.21,0.21,0.21,0,0.21
2014-03-14,0.21,0.21,0.21,0.21,0,0.21
2014-03-17,0.21,0.21,0.21,0.21,0,0.21
2014-03-18,0.21,0.21,0.21,0.21,0,0.21
2014-03-19,0.21,0.21,0.21,0.21,0,0.21
2014-03-20,0.21,0.21,0.21,0.21,0,0.21
2014-03-21,0.21,0.21,0.21,0.21,0,0.21
2014-03-24,0.21,0.21,0.21,0.21,10000,0.21
2014-03-25,0.21,0.21,0.21,0.21,20000,0.21
2014-03-26,0.21,0.21,0.205,0.205,21000,0.205
2014-03-27,0.21,0.21,0.205,0.21,80000,0.21
2014-03-28,0.21,0.21,0.21,0.21,50000,0.21
2014-03-31,0.21,0.21,0.21,0.21,0,0.21
2014-04-01,0.21,0.21,0.21,0.21,0,0.21
2014-04-02,0.21,0.21,0.2,0.21,120900,0.21
2014-04-03,0.21,0.21,0.21,0.21,4100,0.21
2014-04-04,0.21,0.21,0.21,0.21,10800,0.21
2014-04-07,0.21,0.21,0.21,0.21,0,0.21
2014-04-08,0.21,0.21,0.21,0.21,0,0.21
2014-04-09,0.21,0.21,0.21,0.21,0,0.21
2014-04-10,0.21,0.21,0.21,0.21,5000,0.21
2014-04-11,0.21,0.21,0.21,0.21,0,0.21
2014-04-14,0.21,0.21,0.21,0.21,0,0.21
2014-04-15,0.21,0.21,0.21,0.21,0,0.21
2014-04-16,0.22,0.22,0.22,0.22,10000,0.22
2014-04-17,0.22,0.22,0.22,0.22,0,0.22
2014-04-18,0.22,0.22,0.22,0.22,0,0.22
2014-04-21,0.22,0.22,0.22,0.22,0,0.22
2014-04-22,0.22,0.22,0.22,0.22,0,0.22
2014-04-23,0.22,0.22,0.22,0.22,24000,0.22
2014-04-24,0.22,0.22,0.22,0.22,0,0.22
2014-04-25,0.22,0.22,0.22,0.22,0,0.22
2014-04-28,0.225,0.225,0.225,0.225,25000,0.225
2014-04-29,0.22,0.22,0.22,0.22,25000,0.22
2014-04-30,0.22,0.22,0.22,0.22,0,0.22
2014-05-01,0.22,0.22,0.22,0.22,0,0.22
2014-05-02,0.22,0.22,0.22,0.22,0,0.22
2014-05-05,0.22,0.22,0.22,0.22,0,0.22
2014-05-06,0.22,0.22,0.22,0.22,50000,0.22
2014-05-07,0.22,0.22,0.22,0.22,0,0.22
2014-05-08,0.22,0.22,0.22,0.22,10000,0.22
2014-05-09,0.22,0.22,0.22,0.22,0,0.22
2014-05-12,0.22,0.22,0.22,0.22,0,0.22
2014-05-13,0.22,0.22,0.22,0.22,0,0.22
2014-05-14,0.22,0.22,0.22,0.22,0,0.22
2014-05-15,0.22,0.22,0.22,0.22,10000,0.22
2014-05-16,0.22,0.22,0.22,0.22,0,0.22
2014-05-19,0.22,0.22,0.22,0.22,0,0.22
2014-05-20,0.22,0.22,0.22,0.22,20000,0.22
2014-05-21,0.22,0.22,0.22,0.22,0,0.22
2014-05-22,0.22,0.22,0.22,0.22,0,0.22
2014-05-23,0.22,0.22,0.22,0.22,0,0.22
2014-05-26,0.22,0.22,0.22,0.22,45000,0.22
2014-05-27,0.22,0.22,0.22,0.22,0,0.22
2014-05-28,0.22,0.22,0.22,0.22,5000,0.22
2014-05-29,0.22,0.22,0.22,0.22,0,0.22
2014-05-30,0.22,0.22,0.22,0.22,9000,0.22
2014-06-02,0.22,0.22,0.22,0.22,0,0.22
2014-06-03,0.22,0.22,0.22,0.22,0,0.22
2014-06-04,0.225,0.225,0.225,0.225,30000,0.225
2014-06-05,0.225,0.225,0.225,0.225,0,0.225
2014-06-06,0.225,0.225,0.225,0.225,0,0.225
2014-06-09,0.225,0.225,0.225,0.225,0,0.225
2014-06-10,0.225,0.225,0.225,0.225,0,0.225
2014-06-11,0.225,0.225,0.225,0.225,0,0.225
2014-06-12,0.22,0.22,0.22,0.22,10000,0.22
2014-06-13,0.22,0.22,0.22,0.22,0,0.22
2014-06-16,0.22,0.22,0.22,0.22,0,0.22
2014-06-17,0.22,0.22,0.22,0.22,0,0.22
2014-06-18,0.22,0.22,0.22,0.22,0,0.22
2014-06-19,0.22,0.22,0.22,0.22,0,0.22
2014-06-20,0.22,0.22,0.22,0.22,0,0.22
2014-06-23,0.22,0.22,0.22,0.22,0,0.22
2014-06-24,0.22,0.22,0.22,0.22,0,0.22
2014-06-25,0.22,0.22,0.22,0.22,0,0.22
2014-06-26,0.22,0.22,0.22,0.22,0,0.22
2014-06-27,0.22,0.22,0.22,0.22,0,0.22
2014-06-30,0.22,0.22,0.22,0.22,25000,0.22
2014-07-01,0.22,0.22,0.22,0.22,0,0.22
2014-07-02,0.22,0.22,0.22,0.22,0,0.22
2014-07-03,0.22,0.22,0.22,0.22,0,0.22
2014-07-04,0.22,0.22,0.22,0.22,0,0.22
2014-07-07,0.22,0.22,0.22,0.22,0,0.22
2014-07-08,0.22,0.22,0.22,0.22,0,0.22
2014-07-09,0.22,0.22,0.22,0.22,0,0.22
2014-07-10,0.22,0.22,0.22,0.22,0,0.22
2014-07-11,0.23,0.23,0.23,0.23,20000,0.23
2014-07-14,0.22,0.22,0.22,0.22,19000,0.22
2014-07-15,0.22,0.22,0.22,0.22,1000,0.22
2014-07-16,0.22,0.22,0.22,0.22,0,0.22
2014-07-17,0.22,0.22,0.22,0.22,0,0.22
2014-07-18,0.22,0.22,0.22,0.22,15000,0.22
2014-07-21,0.22,0.22,0.22,0.22,0,0.22
2014-07-22,0.22,0.22,0.22,0.22,0,0.22
2014-07-23,0.22,0.22,0.22,0.22,0,0.22
2014-07-24,0.22,0.22,0.22,0.22,0,0.22
2014-07-25,0.22,0.22,0.22,0.22,0,0.22
2014-07-28,0.22,0.22,0.22,0.22,0,0.22
2014-07-29,0.22,0.22,0.22,0.22,0,0.22
2014-07-30,0.22,0.22,0.22,0.22,15000,0.22
2014-07-31,0.22,0.22,0.22,0.22,0,0.22
2014-08-01,0.22,0.22,0.22,0.22,0,0.22
2014-08-04,0.22,0.22,0.22,0.22,0,0.22
2014-08-05,0.22,0.22,0.22,0.22,0,0.22
2014-08-06,0.22,0.22,0.22,0.22,10000,0.22
2014-08-07,0.22,0.22,0.22,0.22,14000,0.22
2014-08-08,0.22,0.22,0.22,0.22,0,0.22
2014-08-11,0.22,0.22,0.22,0.22,0,0.22
2014-08-12,0.22,0.22,0.22,0.22,0,0.22
2014-08-13,0.22,0.22,0.22,0.22,0,0.22
2014-08-14,0.22,0.22,0.21,0.21,25000,0.21
2014-08-15,0.21,0.21,0.18,0.18,80000,0.18
2014-08-18,0.185,0.185,0.18,0.18,70000,0.18
2014-08-19,0.2,0.2,0.2,0.2,15700,0.2
2014-08-20,0.21,0.21,0.2,0.2,24200,0.2
2014-08-21,0.2,0.2,0.2,0.2,0,0.2
2014-08-22,0.2,0.21,0.2,0.21,14700,0.21
2014-08-25,0.21,0.21,0.21,0.21,0,0.21
2014-08-26,0.21,0.21,0.21,0.21,0,0.21
2014-08-27,0.21,0.21,0.21,0.21,0,0.21
2014-08-28,0.2,0.2,0.2,0.2,10000,0.2
2014-08-29,0.2,0.2,0.2,0.2,0,0.2
2014-09-01,0.2,0.2,0.2,0.2,0,0.2
2014-09-02,0.2,0.2,0.2,0.2,200,0.2
2014-09-03,0.2,0.2,0.2,0.2,15700,0.2
2014-09-04,0.2,0.2,0.2,0.2,0,0.2
2014-09-05,0.2,0.2,0.2,0.2,0,0.2
2014-09-08,0.2,0.2,0.2,0.2,0,0.2
2014-09-09,0.2,0.2,0.2,0.2,0,0.2
2014-09-10,0.2,0.2,0.2,0.2,0,0.2
2014-09-11,0.2,0.2,0.2,0.2,0,0.2
2014-09-12,0.2,0.2,0.2,0.2,0,0.2
2014-09-15,0.2,0.2,0.2,0.2,0,0.2
2014-09-16,0.2,0.2,0.2,0.2,0,0.2
2014-09-17,0.2,0.2,0.2,0.2,0,0.2
2014-09-18,0.2,0.2,0.19,0.19,10000,0.19
2014-09-19,0.19,0.19,0.19,0.19,0,0.19
2014-09-22,0.19,0.19,0.19,0.19,14200,0.19
2014-09-23,0.19,0.19,0.19,0.19,0,0.19
2014-09-24,0.19,0.2,0.19,0.2,45000,0.2
2014-09-25,0.2,0.2,0.2,0.2,0,0.2
2014-09-26,0.2,0.2,0.2,0.2,0,0.2
2014-09-29,0.2,0.2,0.2,0.2,0,0.2
2014-09-30,0.2,0.2,0.2,0.2,0,0.2
2014-10-01,0.2,0.2,0.2,0.2,0,0.2
2014-10-02,0.2,0.2,0.2,0.2,0,0.2
2014-10-03,0.2,0.2,0.2,0.2,0,0.2
2014-10-06,0.2,0.2,0.2,0.2,0,0.2
2014-10-07,0.2,0.2,0.2,0.2,0,0.2
2014-10-08,0.19,0.19,0.19,0.19,25000,0.19
2014-10-09,0.19,0.19,0.19,0.19,0,0.19
2014-10-10,0.19,0.19,0.19,0.19,0,0.19
2014-10-13,0.19,0.19,0.19,0.19,0,0.19
2014-10-14,0.19,0.19,0.19,0.19,12300,0.19
2014-10-15,0.19,0.19,0.19,0.19,0,0.19
2014-10-16,0.19,0.19,0.19,0.19,0,0.19
2014-10-17,0.19,0.19,0.19,0.19,0,0.19
2014-10-20,0.19,0.19,0.19,0.19,0,0.19
2014-10-21,0.19,0.19,0.19,0.19,0,0.19
2014-10-22,0.19,0.19,0.19,0.19,0,0.19
2014-10-23,0.19,0.19,0.19,0.19,0,0.19
2014-10-24,0.19,0.19,0.19,0.19,0,0.19
2014-10-27,0.19,0.19,0.19,0.19,0,0.19
2014-10-28,0.19,0.19,0.19,0.19,0,0.19
2014-10-29,0.19,0.19,0.18,0.18,20000,0.18
2014-10-30,0.185,0.185,0.185,0.185,31200,0.185
2014-10-31,0.185,0.185,0.185,0.185,38700,0.185
2014-11-03,0.18,0.18,0.18,0.18,48700,0.18
2014-11-04,0.18,0.18,0.18,0.18,0,0.18
2014-11-05,0.18,0.18,0.18,0.18,0,0.18
2014-11-06,0.18,0.18,0.18,0.18,0,0.18
2014-11-07,0.18,0.18,0.18,0.18,0,0.18
2014-11-10,0.18,0.18,0.18,0.18,0,0.18
2014-11-11,0.18,0.18,0.18,0.18,0,0.18
2014-11-12,0.18,0.18,0.18,0.18,0,0.18
2014-11-13,0.18,0.18,0.18,0.18,0,0.18
2014-11-14,0.19,0.19,0.19,0.19,25000,0.19
2014-11-17,0.19,0.19,0.19,0.19,0,0.19
2014-11-18,0.19,0.19,0.19,0.19,0,0.19
2014-11-19,0.19,0.19,0.19,0.19,0,0.19
2014-11-20,0.19,0.19,0.19,0.19,0,0.19
2014-11-21,0.165,0.18,0.165,0.18,30000,0.18
2014-11-24,0.17,0.17,0.17,0.17,45100,0.17
2014-11-25,0.18,0.19,0.18,0.19,30000,0.19
2014-11-26,0.2,0.2,0.19,0.19,21500,0.19
2014-11-27,0.17,0.17,0.17,0.17,79200,0.17
2014-11-28,0.17,0.17,0.17,0.17,0,0.17
2014-12-01,0.17,0.17,0.17,0.17,0,0.17
2014-12-02,0.17,0.17,0.17,0.17,0,0.17
2014-12-03,0.17,0.17,0.17,0.17,0,0.17
2014-12-04,0.19,0.19,0.19,0.19,25000,0.19
2014-12-05,0.19,0.19,0.19,0.19,0,0.19
2014-12-08,0.19,0.19,0.19,0.19,0,0.19
2014-12-09,0.19,0.19,0.19,0.19,0,0.19
2014-12-10,0.19,0.19,0.19,0.19,0,0.19
2014-12-11,0.19,0.19,0.19,0.19,0,0.19
2014-12-12,0.19,0.19,0.19,0.19,0,0.19
2014-12-15,0.19,0.19,0.19,0.19,0,0.19
2014-12-16,0.19,0.19,0.19,0.19,0,0.19
2014-12-17,0.19,0.19,0.19,0.19,0,0.19
2014-12-18,0.19,0.19,0.19,0.19,0,0.19
2014-12-19,0.19,0.19,0.19,0.19,0,0.19
2014-12-22,0.19,0.19,0.19,0.19,0,0.19
2014-12-23,0.19,0.19,0.19,0.19,0,0.19
2014-12-24,0.19,0.19,0.19,0.19,20000,0.19
2014-12-25,0.19,0.19,0.19,0.19,0,0.19
2014-12-26,0.19,0.19,0.19,0.19,0,0.19
2014-12-29,0.19,0.19,0.19,0.19,0,0.19
2014-12-30,0.19,0.19,0.19,0.19,0,0.19
2014-12-31,0.19,0.19,0.19,0.19,0,0.19
2015-01-01,0.19,0.19,0.19,0.19,0,0.19
2015-01-02,0.19,0.19,0.19,0.19,0,0.19
2015-01-05,0.19,0.19,0.19,0.19,0,0.19
2015-01-06,0.19,0.19,0.19,0.19,0,0.19
2015-01-07,0.19,0.19,0.19,0.19,0,0.19
2015-01-08,0.19,0.19,0.19,0.19,0,0.19
2015-01-09,0.19,0.19,0.19,0.19,0,0.19
2015-01-12,0.19,0.19,0.19,0.19,0,0.19
2015-01-13,0.19,0.19,0.19,0.19,0,0.19
2015-01-14,0.19,0.19,0.19,0.19,0,0.19
2015-01-15,0.19,0.19,0.19,0.19,0,0.19
2015-01-16,0.19,0.19,0.19,0.19,0,0.19
2015-01-19,0.19,0.19,0.19,0.19,0,0.19
2015-01-20,0.19,0.19,0.19,0.19,0,0.19
2015-01-21,0.19,0.19,0.19,0.19,0,0.19
2015-01-22,0.19,0.19,0.19,0.19,0,0.19
2015-01-23,0.19,0.19,0.19,0.19,0,0.19
2015-01-26,0.19,0.19,0.19,0.19,0,0.19
2015-01-27,0.2,0.2,0.2,0.2,45000,0.2
2015-01-28,0.2,0.2,0.2,0.2,0,0.2
2015-01-29,0.2,0.2,0.2,0.2,0,0.2
2015-01-30,0.2,0.2,0.2,0.2,0,0.2
2015-02-02,0.2,0.2,0.2,0.2,0,0.2
2015-02-03,0.21,0.22,0.21,0.22,29500,0.22
2015-02-04,0.22,0.22,0.22,0.22,0,0.22
2015-02-05,0.22,0.22,0.22,0.22,0,0.22
2015-02-06,0.22,0.22,0.22,0.22,0,0.22
2015-02-09,0.22,0.22,0.22,0.22,0,0.22
2015-02-10,0.22,0.22,0.22,0.22,0,0.22
2015-02-11,0.22,0.22,0.22,0.22,0,0.22
2015-02-12,0.23,0.23,0.22,0.22,39500,0.22
2015-02-13,0.22,0.23,0.22,0.23,40900,0.23
2015-02-16,0.23,0.23,0.23,0.23,0,0.23
2015-02-17,0.23,0.23,0.23,0.23,0,0.23
2015-02-18,0.23,0.23,0.23,0.23,0,0.23
2015-02-19,0.23,0.23,0.23,0.23,0,0.23
2015-02-20,0.23,0.23,0.23,0.23,0,0.23
2015-02-23,0.23,0.23,0.23,0.23,0,0.23
2015-02-24,0.21,0.21,0.21,0.21,2000,0.21
2015-02-25,0.21,0.21,0.21,0.21,45000,0.21
2015-02-26,0.21,0.21,0.21,0.21,0,0.21
2015-02-27,0.2,0.2,0.2,0.2,5000,0.2
2015-03-02,0.2,0.2,0.2,0.2,0,0.2
2015-03-03,0.2,0.2,0.2,0.2,0,0.2
2015-03-04,0.2,0.2,0.2,0.2,0,0.2
2015-03-05,0.21,0.21,0.21,0.21,7900,0.21
2015-03-06,0.21,0.21,0.21,0.21,0,0.21
2015-03-09,0.21,0.21,0.21,0.21,0,0.21
2015-03-10,0.21,0.21,0.21,0.21,0,0.21
2015-03-11,0.21,0.21,0.21,0.21,0,0.21
2015-03-12,0.2,0.2,0.2,0.2,350000,0.2
2015-03-13,0.2,0.2,0.2,0.2,0,0.2
2015-03-16,0.2,0.2,0.2,0.2,17000,0.2
2015-03-17,0.2,0.2,0.2,0.2,0,0.2
2015-03-18,0.2,0.2,0.2,0.2,0,0.2
2015-03-19,0.22,0.23,0.22,0.23,37600,0.23
2015-03-20,0.22,0.22,0.22,0.22,50800,0.22
2015-03-23,0.23,0.25,0.23,0.25,44800,0.25
2015-03-24,0.25,0.25,0.25,0.25,0,0.25
2015-03-25,0.25,0.25,0.25,0.25,0,0.25
2015-03-26,0.275,0.36,0.275,0.3,1070900,0.3
2015-03-27,0.27,0.28,0.265,0.275,244000,0.275
2015-03-30,0.275,0.28,0.275,0.28,73600,0.28
2015-03-31,0.28,0.28,0.27,0.27,39300,0.27
2015-04-01,0.26,0.27,0.25,0.27,225500,0.27
2015-04-02,0.27,0.3,0.27,0.3,59500,0.3
2015-04-03,0.3,0.3,0.3,0.3,0,0.3
2015-04-06,0.3,0.3,0.3,0.3,0,0.3
2015-04-07,0.28,0.28,0.28,0.28,46700,0.28
2015-04-08,0.28,0.285,0.28,0.28,155100,0.28
2015-04-09,0.28,0.28,0.28,0.28,0,0.28
2015-04-10,0.28,0.285,0.28,0.28,72000,0.28
2015-04-13,0.285,0.3,0.285,0.3,242200,0.3
2015-04-14,0.3,0.3,0.3,0.3,40000,0.3
2015-04-15,0.28,0.3,0.28,0.3,130900,0.3
2015-04-16,0.31,0.32,0.31,0.32,20000,0.32
2015-04-17,0.32,0.34,0.305,0.32,199700,0.32
2015-04-20,0.32,0.32,0.28,0.28,145000,0.28
2015-04-21,0.29,0.3,0.29,0.3,17200,0.3
2015-04-22,0.3,0.3,0.3,0.3,10000,0.3
2015-04-23,0.3,0.3,0.3,0.3,7300,0.3
2015-04-24,0.3,0.3,0.3,0.3,13000,0.3
2015-04-27,0.32,0.32,0.3,0.31,116700,0.31
2015-04-28,0.31,0.31,0.31,0.31,0,0.31
2015-04-29,0.31,0.31,0.31,0.31,0,0.31
2015-04-30,0.33,0.35,0.33,0.34,146500,0.34
2015-05-01,0.32,0.35,0.32,0.35,71500,0.35
2015-05-04,0.35,0.35,0.34,0.34,55500,0.34
2015-05-05,0.33,0.35,0.33,0.35,15000,0.35
2015-05-06,0.34,0.34,0.34,0.34,10000,0.34
2015-05-07,0.34,0.34,0.34,0.34,15000,0.34
2015-05-08,0.34,0.34,0.325,0.325,35000,0.325
2015-05-11,0.325,0.33,0.325,0.33,40000,0.33
2015-05-12,0.33,0.33,0.33,0.33,25000,0.33
2015-05-13,0.33,0.33,0.315,0.315,43300,0.315
2015-05-14,0.32,0.32,0.305,0.315,145800,0.315
2015-05-15,0.37,0.37,0.32,0.32,40400,0.32
2015-05-18,0.32,0.34,0.32,0.34,35000,0.34
2015-05-19,0.35,0.36,0.35,0.35,123400,0.35
2015-05-20,0.35,0.36,0.33,0.34,48000,0.34
2015-05-21,0.335,0.335,0.335,0.335,2500,0.335
2015-05-22,0.35,0.35,0.35,0.35,55000,0.35
2015-05-25,0.335,0.335,0.33,0.33,28400,0.33
2015-05-26,0.32,0.345,0.32,0.345,103900,0.345
2015-05-27,0.345,0.345,0.345,0.345,0,0.345
2015-05-28,0.325,0.325,0.325,0.325,19700,0.325
2015-05-29,0.34,0.34,0.325,0.325,46500,0.325
2015-06-01,0.33,0.33,0.32,0.32,101100,0.32
2015-06-02,0.315,0.315,0.31,0.31,112100,0.31
2015-06-03,0.32,0.335,0.32,0.335,56300,0.335
2015-06-04,0.33,0.34,0.33,0.34,98600,0.34
2015-06-05,0.34,0.34,0.34,0.34,0,0.34
2015-06-08,0.34,0.34,0.34,0.34,0,0.34
2015-06-09,0.34,0.34,0.34,0.34,0,0.34
2015-06-10,0.34,0.34,0.34,0.34,0,0.34
2015-06-11,0.34,0.34,0.34,0.34,0,0.34
2015-06-12,0.34,0.34,0.34,0.34,0,0.34
2015-06-15,0.34,0.34,0.34,0.34,0,0.34
2015-06-16,0.34,0.34,0.34,0.34,0,0.34
2015-06-17,0.34,0.34,0.34,0.34,0,0.34
2015-06-18,0.34,0.34,0.34,0.34,0,0.34
2015-06-19,0.34,0.34,0.34,0.34,0,0.34
2015-06-22,0.34,0.34,0.34,0.34,0,0.34
2015-06-23,0.34,0.34,0.34,0.34,0,0.34
2015-06-24,0.34,0.34,0.34,0.34,0,0.34
2015-06-25,0.34,0.34,0.34,0.34,0,0.34
2015-06-26,0.34,0.34,0.34,0.34,0,0.34
2015-06-29,0.34,0.34,0.34,0.34,0,0.34
2015-06-30,0.34,0.34,0.34,0.34,0,0.34
2015-07-01,0.34,0.34,0.34,0.34,0,0.34
2015-07-02,0.34,0.34,0.34,0.34,0,0.34
2015-07-03,0.34,0.34,0.34,0.34,0,0.34
2015-07-06,0.34,0.34,0.34,0.34,0,0.34
2015-07-07,0.36,0.42,0.33,0.42,2108700,0.42
2015-07-08,0.44,0.44,0.36,0.4,648500,0.4
2015-07-09,0.375,0.46,0.36,0.46,452900,0.46
2015-07-10,0.45,0.52,0.45,0.45,715000,0.45
2015-07-13,0.47,0.47,0.46,0.46,168700,0.46
2015-07-14,0.47,0.52,0.45,0.52,338700,0.52
2015-07-15,0.54,0.59,0.53,0.55,371700,0.55
2015-07-16,0.55,0.55,0.495,0.5,461800,0.5
2015-07-17,0.505,0.58,0.49,0.535,519000,0.535
2015-07-20,0.535,0.535,0.535,0.535,0,0.535
2015-07-21,0.65,0.68,0.59,0.595,3836100,0.595
2015-07-22,0.61,0.61,0.53,0.56,863100,0.56
2015-07-23,0.58,0.59,0.535,0.54,416000,0.54
2015-07-24,0.535,0.57,0.53,0.57,473100,0.57
2015-07-27,0.55,0.555,0.525,0.53,381000,0.53
2015-07-28,0.525,0.525,0.5,0.505,327700,0.505
2015-07-29,0.505,0.54,0.505,0.54,218600,0.54
2015-07-30,0.55,0.6,0.55,0.6,470200,0.6
2015-07-31,0.62,0.62,0.6,0.61,734900,0.61
2015-08-03,0.595,0.605,0.575,0.58,327700,0.58
2015-08-04,0.58,0.58,0.565,0.565,109000,0.565
2015-08-05,0.57,0.58,0.56,0.565,101000,0.565
2015-08-06,0.56,0.57,0.56,0.565,100800,0.565
2015-08-07,0.56,0.56,0.545,0.545,176300,0.545
2015-08-10,0.545,0.545,0.515,0.52,76000,0.52
2015-08-11,0.53,0.54,0.49,0.51,481800,0.51
2015-08-12,0.505,0.57,0.505,0.545,333500,0.545
2015-08-13,0.55,0.585,0.55,0.56,430500,0.56
2015-08-14,0.56,0.56,0.55,0.55,150900,0.55
2015-08-17,0.55,0.56,0.52,0.52,197100,0.52
2015-08-18,0.525,0.53,0.51,0.525,96600,0.525
2015-08-19,0.53,0.54,0.52,0.54,237100,0.54
2015-08-20,0.55,0.55,0.48,0.5,773800,0.5
2015-08-21,0.5,0.51,0.47,0.51,270400,0.51
2015-08-24,0.495,0.495,0.43,0.43,288400,0.43
2015-08-25,0.42,0.45,0.41,0.41,269300,0.41
2015-08-26,0.42,0.44,0.42,0.44,12800,0.44
2015-08-27,0.45,0.45,0.435,0.45,272600,0.45
2015-08-28,0.45,0.45,0.43,0.43,427100,0.43
2015-08-31,0.43,0.43,0.415,0.42,128100,0.42
2015-09-01,0.42,0.425,0.4,0.405,272400,0.405
2015-09-02,0.39,0.4,0.39,0.4,45400,0.4
2015-09-03,0.4,0.4,0.37,0.37,109400,0.37
2015-09-04,0.39,0.39,0.37,0.37,30700,0.37
2015-09-07,0.375,0.395,0.375,0.39,36300,0.39
2015-09-08,0.4,0.4,0.4,0.4,38000,0.4
2015-09-09,0.39,0.43,0.39,0.43,20000,0.43
2015-09-10,0.42,0.43,0.42,0.43,10000,0.43
2015-09-11,0.4,0.4,0.4,0.4,68800,0.4
2015-09-14,0.385,0.385,0.385,0.385,81100,0.385
2015-09-15,0.385,0.385,0.375,0.375,64800,0.375
2015-09-16,0.375,0.395,0.375,0.385,141600,0.385
2015-09-17,0.39,0.42,0.39,0.4,35800,0.4
2015-09-18,0.41,0.43,0.405,0.43,92800,0.43
2015-09-21,0.425,0.425,0.4,0.42,139200,0.42
2015-09-22,0.4,0.4,0.395,0.4,93400,0.4
2015-09-23,0.425,0.425,0.395,0.4,99000,0.4
2015-09-24,0.4,0.4,0.38,0.38,114200,0.38
2015-09-25,0.4,0.46,0.4,0.45,158900,0.45
2015-09-28,0.45,0.47,0.43,0.46,186900,0.46
2015-09-29,0.465,0.475,0.46,0.46,93800,0.46
2015-09-30,0.475,0.48,0.47,0.48,171300,0.48
2015-10-01,0.49,0.52,0.485,0.52,296700,0.52
2015-10-02,0.515,0.57,0.515,0.555,435300,0.555
2015-10-05,0.56,0.575,0.54,0.54,245100,0.54
2015-10-06,0.545,0.61,0.545,0.595,767400,0.595
2015-10-07,0.595,0.6,0.58,0.59,235200,0.59
2015-10-08,0.6,0.61,0.56,0.57,298600,0.57
2015-10-09,0.57,0.575,0.56,0.575,20000,0.575
2015-10-12,0.575,0.575,0.56,0.565,160200,0.565
2015-10-13,0.56,0.645,0.56,0.645,758200,0.645
2015-10-14,0.66,0.75,0.65,0.7,1325100,0.7
2015-10-15,0.695,0.735,0.695,0.73,435400,0.73
2015-10-16,0.74,0.79,0.73,0.735,898900,0.735
2015-10-19,0.76,0.795,0.75,0.76,706600,0.76
2015-10-20,0.76,0.76,0.715,0.74,422300,0.74
2015-10-21,0.74,0.745,0.71,0.715,252800,0.715
2015-10-22,0.715,0.75,0.715,0.75,193100,0.75
2015-10-23,0.745,0.75,0.7,0.72,308900,0.72
2015-10-26,0.725,0.745,0.725,0.74,73300,0.74
2015-10-27,0.74,0.74,0.66,0.68,663100,0.68
2015-10-28,0.67,0.705,0.66,0.7,324700,0.7
2015-10-29,0.705,0.71,0.7,0.71,122000,0.71
2015-10-30,0.72,0.72,0.67,0.68,84200,0.68
2015-11-02,0.67,0.68,0.63,0.63,198400,0.63
2015-11-03,0.635,0.64,0.625,0.63,154400,0.63
2015-11-04,0.63,0.64,0.62,0.62,186900,0.62
2015-11-05,0.61,0.61,0.6,0.6,178700,0.6
2015-11-06,0.6,0.625,0.6,0.62,120000,0.62
2015-11-09,0.625,0.645,0.625,0.63,170300,0.63
2015-11-10,0.625,0.675,0.625,0.66,162000,0.66
2015-11-11,0.66,0.69,0.66,0.69,319800,0.69
2015-11-12,0.7,0.75,0.7,0.75,345100,0.75
2015-11-13,0.75,0.75,0.73,0.74,158500,0.74
2015-11-16,0.73,0.73,0.685,0.685,116200,0.685
2015-11-17,0.695,0.695,0.68,0.69,99700,0.69
2015-11-18,0.685,0.685,0.65,0.665,110800,0.665
2015-11-19,0.67,0.72,0.67,0.71,306200,0.71
2015-11-20,0.725,0.725,0.7,0.72,134900,0.72
2015-11-23,0.73,0.78,0.73,0.745,253900,0.745
2015-11-24,0.75,0.755,0.745,0.745,106800,0.745
2015-11-25,0.73,0.74,0.69,0.7,201300,0.7
2015-11-26,0.71,0.82,0.71,0.82,1140000,0.82
2015-11-27,0.835,0.835,0.77,0.77,406100,0.77
2015-11-30,0.775,0.78,0.735,0.74,362100,0.74
2015-12-01,0.74,0.785,0.735,0.78,78600,0.78
2015-12-02,0.815,0.815,0.775,0.775,205200,0.775
2015-12-03,0.775,0.78,0.76,0.76,75800,0.76
2015-12-04,0.815,0.86,0.8,0.82,619400,0.82
2015-12-07,0.82,0.82,0.79,0.805,294900,0.805
2015-12-08,0.79,0.81,0.78,0.79,58800,0.79
2015-12-09,0.79,0.79,0.74,0.74,215000,0.74
2015-12-10,0.75,0.77,0.725,0.725,186700,0.725
2015-12-11,0.71,0.71,0.655,0.695,500500,0.695
2015-12-14,0.69,0.71,0.69,0.71,46700,0.71
2015-12-15,0.715,0.715,0.67,0.67,87900,0.67
2015-12-16,0.68,0.68,0.635,0.66,499900,0.66
2015-12-17,0.665,0.675,0.655,0.655,122100,0.655
2015-12-18,0.665,0.665,0.65,0.655,128200,0.655
2015-12-21,0.655,0.655,0.64,0.64,74000,0.64
2015-12-22,0.64,0.655,0.64,0.655,47800,0.655
2015-12-23,0.66,0.7,0.65,0.66,106800,0.66
2015-12-24,0.66,0.68,0.635,0.635,93300,0.635
2015-12-25,0.635,0.635,0.635,0.635,0,0.635
2015-12-28,0.635,0.635,0.635,0.635,0,0.635
2015-12-29,0.635,0.635,0.61,0.61,215300,0.61
2015-12-30,0.61,0.64,0.61,0.64,66100,0.64
2015-12-31,0.62,0.635,0.62,0.635,65400,0.635
2016-01-01,0.635,0.635,0.635,0.635,0,0.635
2016-01-04,0.63,0.63,0.56,0.585,282500,0.585
2016-01-05,0.585,0.595,0.57,0.57,45800,0.57
2016-01-06,0.57,0.575,0.57,0.575,45000,0.575
2016-01-07,0.575,0.575,0.57,0.57,36000,0.57
2016-01-08,0.56,0.57,0.55,0.57,69700,0.57
2016-01-11,0.555,0.64,0.55,0.64,135500,0.64
2016-01-12,0.64,0.64,0.56,0.56,152200,0.56
2016-01-13,0.58,0.595,0.56,0.58,32500,0.58
2016-01-14,0.59,0.59,0.53,0.55,140400,0.55
2016-01-15,0.555,0.58,0.54,0.54,228800,0.54
2016-01-18,0.55,0.6,0.55,0.6,104100,0.6
2016-01-19,0.64,0.645,0.63,0.645,69100,0.645
2016-01-20,0.705,0.75,0.65,0.655,1490900,0.655
2016-01-21,0.67,0.71,0.665,0.675,277600,0.675
2016-01-22,0.68,0.71,0.66,0.67,126500,0.67
2016-01-25,0.7,0.7,0.66,0.69,89500,0.69
2016-01-26,0.69,0.69,0.69,0.69,0,0.69
2016-01-27,0.7,0.7,0.665,0.665,35300,0.665
2016-01-28,0.665,0.665,0.62,0.62,99000,0.62
2016-01-29,0.63,0.635,0.625,0.625,127500,0.625
2016-02-01,0.65,0.68,0.64,0.655,296800,0.655
2016-02-02,0.67,0.67,0.64,0.64,126900,0.64
2016-02-03,0.64,0.64,0.58,0.635,849900,0.635
2016-02-04,0.63,0.66,0.63,0.66,253100,0.66
2016-02-05,0.65,0.69,0.65,0.69,486100,0.69
2016-02-08,0.7,0.725,0.7,0.7,165300,0.7
2016-02-09,0.64,0.66,0.61,0.66,116000,0.66
2016-02-10,0.665,0.675,0.655,0.67,259100,0.67
2016-02-11,0.66,0.69,0.655,0.69,141900,0.69
2016-02-12,0.675,0.69,0.64,0.69,196100,0.69
2016-02-15,0.69,0.695,0.68,0.695,293000,0.695
2016-02-16,0.7,0.7,0.665,0.665,277200,0.665
2016-02-17,0.67,0.71,0.67,0.7,215300,0.7
2016-02-18,0.705,0.705,0.66,0.67,431500,0.67
2016-02-19,0.66,0.665,0.655,0.655,87100,0.655
2016-02-22,0.66,0.66,0.63,0.63,705800,0.63
2016-02-23,0.655,0.67,0.64,0.655,180000,0.655
2016-02-24,0.655,0.66,0.625,0.66,89400,0.66
2016-02-25,0.665,0.67,0.65,0.65,124400,0.65
2016-02-26,0.65,0.65,0.495,0.53,713000,0.53
2016-02-29,0.5,0.565,0.5,0.565,196500,0.565
2016-03-01,0.525,0.54,0.515,0.54,271700,0.54
2016-03-02,0.545,0.56,0.525,0.525,175400,0.525
2016-03-03,0.52,0.53,0.48,0.48,263700,0.48
2016-03-04,0.465,0.475,0.45,0.45,260500,0.45
2016-03-07,0.45,0.49,0.45,0.475,58600,0.475
2016-03-08,0.475,0.475,0.45,0.45,64000,0.45
2016-03-09,0.455,0.455,0.45,0.45,25000,0.45
2016-03-10,0.45,0.47,0.45,0.47,23000,0.47
2016-03-11,0.48,0.545,0.48,0.545,71000,0.545
2016-03-14,0.545,0.545,0.545,0.545,0,0.545
2016-03-15,0.5,0.5,0.46,0.465,31800,0.465
2016-03-16,0.5,0.5,0.46,0.46,73800,0.46
2016-03-17,0.46,0.47,0.46,0.47,11200,0.47
2016-03-18,0.46,0.46,0.45,0.45,11600,0.45
2016-03-21,0.45,0.45,0.45,0.45,24800,0.45
2016-03-22,0.45,0.45,0.445,0.45,38200,0.45
2016-03-23,0.45,0.45,0.43,0.43,62200,0.43
2016-03-24,0.43,0.43,0.43,0.43,0,0.43
2016-03-25,0.43,0.43,0.43,0.43,0,0.43
2016-03-28,0.43,0.43,0.43,0.43,0,0.43
2016-03-29,0.435,0.44,0.42,0.42,56800,0.42
2016-03-30,0.42,0.425,0.38,0.4,90600,0.4
2016-03-31,0.415,0.42,0.4,0.42,102900,0.42
2016-04-01,0.44,0.445,0.44,0.445,39300,0.445
2016-04-04,0.44,0.44,0.425,0.425,71300,0.425
2016-04-05,0.44,0.44,0.425,0.425,15000,0.425
2016-04-06,0.435,0.44,0.4,0.4,151300,0.4
2016-04-07,0.4,0.405,0.39,0.395,58000,0.395
2016-04-08,0.45,0.45,0.45,0.45,1300,0.45
2016-04-11,0.45,0.45,0.395,0.41,31500,0.41
2016-04-12,0.435,0.435,0.415,0.415,25300,0.415
2016-04-13,0.42,0.425,0.405,0.405,35700,0.405
2016-04-14,0.41,0.43,0.405,0.41,43700,0.41
2016-04-15,0.42,0.42,0.41,0.41,8500,0.41
2016-04-18,0.41,0.415,0.38,0.38,228900,0.38
2016-04-19,0.38,0.38,0.35,0.35,51700,0.35
2016-04-20,0.35,0.35,0.3,0.325,721200,0.325
2016-04-21,0.33,0.345,0.315,0.34,349300,0.34
2016-04-22,0.365,0.415,0.345,0.35,624700,0.35
2016-04-25,0.35,0.35,0.35,0.35,0,0.35
2016-04-26,0.35,0.38,0.35,0.37,282400,0.37
2016-04-27,0.39,0.39,0.375,0.375,59900,0.375
2016-04-28,0.385,0.385,0.375,0.385,113200,0.385
2016-04-29,0.385,0.4,0.385,0.4,174400,0.4
2016-05-02,0.42,0.42,0.38,0.38,72200,0.38
2016-05-03,0.385,0.41,0.385,0.41,87000,0.41
2016-05-04,0.415,0.42,0.41,0.41,91000,0.41
2016-05-05,0.41,0.41,0.41,0.41,0,0.41
2016-05-06,0.41,0.42,0.4,0.41,63400,0.41
2016-05-09,0.44,0.44,0.4,0.405,56600,0.405
2016-05-10,0.4,0.415,0.395,0.415,41800,0.415
2016-05-11,0.42,0.42,0.39,0.39,162400,0.39
2016-05-12,0.4,0.4,0.37,0.38,139300,0.38
2016-05-13,0.38,0.38,0.36,0.36,246000,0.36
2016-05-16,0.365,0.37,0.35,0.35,293200,0.35
2016-05-17,0.36,0.36,0.36,0.36,20000,0.36
2016-05-18,0.34,0.34,0.325,0.33,215800,0.33
2016-05-19,0.35,0.35,0.35,0.35,15000,0.35
2016-05-20,0.36,0.36,0.36,0.36,40000,0.36
2016-05-23,0.36,0.36,0.335,0.335,54400,0.335
2016-05-24,0.335,0.35,0.335,0.35,16900,0.35
2016-05-25,0.35,0.35,0.33,0.34,148500,0.34
2016-05-26,0.34,0.34,0.34,0.34,0,0.34
2016-05-27,0.34,0.34,0.31,0.315,125300,0.315
2016-05-30,0.32,0.35,0.32,0.35,65400,0.35
2016-05-31,0.35,0.35,0.35,0.35,0,0.35
2016-06-01,0.395,0.45,0.395,0.4,705300,0.4
2016-06-02,0.4,0.42,0.385,0.4,347700,0.4
2016-06-03,0.405,0.42,0.395,0.395,116700,0.395
2016-06-06,0.385,0.39,0.375,0.375,105800,0.375
2016-06-07,0.38,0.415,0.38,0.41,13900,0.41
2016-06-08,0.41,0.41,0.38,0.38,61300,0.38
2016-06-09,0.38,0.4,0.38,0.4,53000,0.4
2016-06-10,0.395,0.395,0.375,0.385,54700,0.385
2016-06-13,0.385,0.385,0.385,0.385,0,0.385
2016-06-14,0.4,0.4,0.37,0.38,144100,0.38
2016-06-15,0.38,0.385,0.36,0.365,131700,0.365
2016-06-16,0.37,0.37,0.355,0.355,31700,0.355
2016-06-17,0.365,0.37,0.355,0.355,151500,0.355
2016-06-20,0.355,0.38,0.35,0.355,152900,0.355
2016-06-21,0.4,0.4,0.39,0.39,37500,0.39
2016-06-22,0.38,0.4,0.38,0.395,113700,0.395
2016-06-23,0.41,0.41,0.385,0.385,88400,0.385
2016-06-24,0.38,0.38,0.365,0.38,64000,0.38
2016-06-27,0.38,0.38,0.36,0.375,81200,0.375
2016-06-28,0.36,0.36,0.335,0.35,204100,0.35
2016-06-29,0.35,0.35,0.35,0.35,10100,0.35
2016-06-30,0.37,0.37,0.355,0.355,92500,0.355
2016-07-01,0.365,0.365,0.355,0.355,15700,0.355
2016-07-04,0.39,0.435,0.39,0.415,83600,0.415
2016-07-05,0.42,0.42,0.395,0.4,39100,0.4
2016-07-06,0.4,0.41,0.39,0.41,71800,0.41
2016-07-07,0.415,0.415,0.4,0.415,52600,0.415
2016-07-08,0.405,0.405,0.385,0.385,82700,0.385
2016-07-11,0.395,0.395,0.395,0.395,25000,0.395
2016-07-12,0.39,0.39,0.38,0.38,64700,0.38
2016-07-13,0.38,0.39,0.38,0.39,12200,0.39
2016-07-14,0.4,0.4,0.4,0.4,30000,0.4
2016-07-15,0.39,0.39,0.375,0.38,102200,0.38
2016-07-18,0.4,0.4,0.4,0.4,35900,0.4
2016-07-19,0.4,0.4,0.375,0.375,121300,0.375
2016-07-20,0.375,0.375,0.365,0.375,79500,0.375
2016-07-21,0.375,0.375,0.375,0.375,10000,0.375
2016-07-22,0.375,0.375,0.375,0.375,35000,0.375
2016-07-25,0.385,0.385,0.35,0.35,553100,0.35
2016-07-26,0.35,0.35,0.35,0.35,0,0.35
2016-07-27,0.3,0.345,0.3,0.33,1153000,0.33
2016-07-28,0.36,0.37,0.31,0.315,564200,0.315
2016-07-29,0.31,0.31,0.285,0.3,481200,0.3
2016-08-01,0.3,0.31,0.3,0.31,84600,0.31
2016-08-02,0.32,0.35,0.32,0.335,282900,0.335
2016-08-03,0.35,0.37,0.35,0.35,106000,0.35
2016-08-04,0.36,0.36,0.35,0.35,60000,0.35
2016-08-05,0.34,0.345,0.335,0.335,44200,0.335
2016-08-08,0.34,0.34,0.325,0.325,100900,0.325
2016-08-09,0.325,0.325,0.32,0.325,80600,0.325
2016-08-10,0.34,0.35,0.34,0.35,60500,0.35
2016-08-11,0.325,0.34,0.3,0.34,305700,0.34
2016-08-12,0.32,0.32,0.32,0.32,25000,0.32
2016-08-15,0.33,0.33,0.33,0.33,24100,0.33
2016-08-16,0.32,0.325,0.315,0.325,118800,0.325
2016-08-17,0.325,0.325,0.325,0.325,0,0.325
2016-08-18,0.33,0.335,0.33,0.335,70200,0.335
2016-08-19,0.335,0.335,0.335,0.335,4600,0.335
2016-08-22,0.335,0.34,0.325,0.34,109100,0.34
2016-08-23,0.345,0.345,0.345,0.345,10000,0.345
2016-08-24,0.345,0.345,0.345,0.345,18800,0.345
2016-08-25,0.325,0.325,0.31,0.315,113000,0.315
2016-08-26,0.35,0.35,0.345,0.345,95000,0.345
2016-08-29,0.33,0.33,0.32,0.32,35000,0.32
2016-08-30,0.32,0.32,0.315,0.315,21700,0.315
2016-08-31,0.32,0.355,0.3,0.32,270800,0.32
2016-09-01,0.32,0.32,0.29,0.29,211400,0.29
2016-09-02,0.3,0.3,0.3,0.3,10500,0.3
2016-09-05,0.3,0.3,0.29,0.29,104800,0.29
2016-09-06,0.28,0.285,0.26,0.28,139400,0.28
2016-09-07,0.275,0.275,0.23,0.24,705900,0.24
2016-09-08,0.24,0.26,0.24,0.26,303500,0.26
2016-09-09,0.25,0.29,0.25,0.285,801700,0.285
2016-09-12,0.285,0.285,0.275,0.275,52000,0.275
2016-09-13,0.275,0.31,0.275,0.31,220800,0.31
2016-09-14,0.315,0.315,0.295,0.295,96000,0.295
2016-09-15,0.28,0.285,0.27,0.285,241000,0.285
2016-09-16,0.285,0.285,0.285,0.285,0,0.285
2016-09-19,0.28,0.285,0.28,0.285,30500,0.285
2016-09-20,0.285,0.285,0.28,0.28,229900,0.28
2016-09-21,0.295,0.295,0.28,0.28,10500,0.28
2016-09-22,0.28,0.28,0.28,0.28,30000,0.28
2016-09-23,0.28,0.285,0.28,0.28,26200,0.28
2016-09-26,0.29,0.29,0.28,0.28,51700,0.28
2016-09-27,0.28,0.315,0.28,0.315,187100,0.315
2016-09-28,0.3,0.3,0.295,0.295,61000,0.295
2016-09-29,0.29,0.29,0.28,0.285,60500,0.285
2016-09-30,0.285,0.285,0.27,0.28,180600,0.28
2016-10-03,0.28,0.28,0.27,0.28,90300,0.28
2016-10-04,0.275,0.28,0.275,0.275,193100,0.275
2016-10-05,0.285,0.285,0.275,0.275,24500,0.275
2016-10-06,0.275,0.275,0.27,0.27,13700,0.27
2016-10-07,0.275,0.275,0.275,0.275,110000,0.275
2016-10-10,0.27,0.27,0.265,0.265,75200,0.265
2016-10-11,0.27,0.27,0.26,0.26,88000,0.26
2016-10-12,0.26,0.26,0.225,0.245,146200,0.245
2016-10-13,0.245,0.245,0.245,0.245,0,0.245
2016-10-14,0.24,0.26,0.23,0.26,124100,0.26
2016-10-17,0.26,0.26,0.26,0.26,4000,0.26
2016-10-18,0.26,0.26,0.26,0.26,44700,0.26
2016-10-19,0.26,0.26,0.24,0.24,84000,0.24
2016-10-20,0.25,0.25,0.25,0.25,12000,0.25
2016-10-21,0.25,0.25,0.245,0.25,48600,0.25
2016-10-24,0.245,0.245,0.24,0.24,15100,0.24
2016-10-25,0.24,0.24,0.24,0.24,13000,0.24
2016-10-26,0.245,0.25,0.24,0.24,139600,0.24
2016-10-27,0.24,0.24,0.24,0.24,0,0.24
2016-10-28,0.23,0.23,0.225,0.225,25200,0.225
2016-10-31,0.225,0.225,0.225,0.225,0,0.225
2016-11-01,0.24,0.245,0.24,0.245,13800,0.245
2016-11-02,0.24,0.24,0.24,0.24,51000,0.24
2016-11-03,0.23,0.23,0.23,0.23,16400,0.23
2016-11-04,0.23,0.23,0.23,0.23,0,0.23
2016-11-07,0.23,0.23,0.225,0.225,24900,0.225
2016-11-08,0.225,0.225,0.225,0.225,0,0.225
2016-11-09,0.225,0.225,0.21,0.21,25100,0.21
2016-11-10,0.21,0.225,0.21,0.225,159100,0.225
2016-11-11,0.23,0.235,0.23,0.23,44400,0.23
2016-11-14,0.23,0.23,0.205,0.23,86700,0.23
2016-11-15,0.23,0.23,0.23,0.23,20000,0.23
2016-11-16,0.23,0.23,0.23,0.23,0,0.23
2016-11-17,0.215,0.215,0.21,0.21,103300,0.21
2016-11-18,0.21,0.21,0.2,0.2,85000,0.2
2016-11-21,0.2,0.2,0.2,0.2,0,0.2
2016-11-22,0.2,0.2,0.2,0.2,25600,0.2
2016-11-23,0.2,0.2,0.2,0.2,0,0.2
2016-11-24,0.2,0.215,0.19,0.19,43400,0.19
2016-11-25,0.2,0.2,0.2,0.2,18400,0.2
2016-11-28,0.2,0.2,0.19,0.19,48000,0.19
2016-11-29,0.19,0.19,0.19,0.19,0,0.19
2016-11-30,0.19,0.19,0.18,0.185,63300,0.185
2016-12-01,0.185,0.185,0.185,0.185,10000,0.185
2016-12-02,0.19,0.19,0.18,0.18,33900,0.18
2016-12-05,0.18,0.18,0.14,0.18,221700,0.18
2016-12-06,0.18,0.18,0.18,0.18,0,0.18
2016-12-07,0.155,0.17,0.155,0.17,86000,0.17
2016-12-08,0.175,0.175,0.175,0.175,109500,0.175
2016-12-09,0.175,0.18,0.175,0.175,30100,0.175
2016-12-12,0.17,0.17,0.16,0.16,55000,0.16
2016-12-13,0.16,0.16,0.155,0.155,113100,0.155
2016-12-14,0.155,0.16,0.155,0.16,12100,0.16
2016-12-15,0.15,0.15,0.13,0.13,298600,0.13
2016-12-16,0.12,0.125,0.11,0.12,313000,0.12
2016-12-19,0.12,0.14,0.12,0.13,180000,0.13
2016-12-20,0.135,0.135,0.13,0.13,80000,0.13
2016-12-21,0.12,0.14,0.12,0.14,90700,0.14
2016-12-22,0.15,0.16,0.15,0.155,59400,0.155
2016-12-23,0.15,0.15,0.145,0.145,20000,0.145
2016-12-26,0.145,0.145,0.145,0.145,0,0.145
2016-12-27,0.145,0.145,0.145,0.145,0,0.145
2016-12-28,0.145,0.145,0.145,0.145,0,0.145
2016-12-29,0.15,0.16,0.15,0.16,79500,0.16
2016-12-30,0.16,0.16,0.16,0.16,0,0.16
