Date,Open,High,Low,Close,Volume,Adj Close
2014-10-24,1.12,1.18,1.12,1.15,2717800,1.046
2014-10-27,1.135,1.14,1.11,1.11,516500,1.01
2014-10-28,1.11,1.13,1.11,1.12,325500,1.0190000000000001
2014-10-29,1.13,1.15,1.13,1.14,254500,1.037
2014-10-30,1.14,1.16,1.14,1.155,272900,1.051
2014-10-31,1.15,1.165,1.14,1.145,156700,1.041
2014-11-03,1.145,1.17,1.14,1.155,705700,1.051
2014-11-04,1.15,1.155,1.14,1.14,62400,1.037
2014-11-05,1.14,1.15,1.13,1.135,895200,1.032
2014-11-06,1.13,1.13,1.125,1.13,140200,1.028
2014-11-07,1.13,1.14,1.13,1.14,31700,1.037
2014-11-10,1.135,1.14,1.12,1.12,48800,1.0190000000000001
2014-11-11,1.125,1.155,1.125,1.135,231500,1.032
2014-11-12,1.14,1.1520000000000001,1.135,1.135,379800,1.032
2014-11-13,1.15,1.15,1.135,1.14,141500,1.037
2014-11-14,1.13,1.13,1.13,1.13,25100,1.028
2014-11-17,1.13,1.14,1.13,1.14,59000,1.037
2014-11-18,1.14,1.14,1.14,1.14,0,1.037
2014-11-19,1.125,1.125,1.11,1.11,126000,1.01
2014-11-20,1.095,1.1,1.08,1.09,132300,0.991
2014-11-21,1.075,1.075,1.04,1.05,672800,0.955
2014-11-24,1.02,1.06,1.02,1.06,550500,0.9640000000000001
2014-11-25,1.06,1.07,1.05,1.06,176200,0.9640000000000001
2014-11-26,1.06,1.06,1.04,1.05,119200,0.955
2014-11-27,1.05,1.05,1.05,1.05,0,0.955
2014-11-28,1.05,1.05,1.05,1.05,108000,0.955
2014-12-01,1.08,1.08,1.05,1.05,137300,0.955
2014-12-02,1.05,1.08,1.05,1.05,172300,0.955
2014-12-03,1.055,1.06,1.055,1.06,12000,0.9640000000000001
2014-12-04,1.08,1.09,1.08,1.08,14300,0.982
2014-12-05,1.08,1.08,1.055,1.06,106000,0.9640000000000001
2014-12-08,1.065,1.067,1.065,1.067,9700,0.971
2014-12-09,1.07,1.08,1.065,1.07,87900,0.973
2014-12-10,1.07,1.07,1.055,1.06,61200,0.9640000000000001
2014-12-11,1.05,1.055,1.04,1.04,56000,0.946
2014-12-12,1.04,1.05,1.04,1.05,13200,0.955
2014-12-15,1.05,1.05,1.02,1.02,55000,0.9279999999999999
2014-12-16,1.02,1.02,1.02,1.02,0,0.9279999999999999
2014-12-17,1.02,1.02,1.02,1.02,18500,0.9279999999999999
2014-12-18,1.02,1.035,1.02,1.025,53500,0.932
2014-12-19,1.025,1.03,1.01,1.01,57400,0.919
2014-12-22,1.01,1.05,1.01,1.05,24600,0.955
2014-12-23,1.07,1.08,1.05,1.08,30000,0.982
2014-12-24,1.025,1.025,1.025,1.025,5000,0.932
2014-12-25,1.025,1.025,1.025,1.025,0,0.932
2014-12-26,1.025,1.025,1.025,1.025,0,0.932
2014-12-29,1.065,1.065,1.065,1.065,5000,0.9690000000000001
2014-12-30,1.065,1.065,1.065,1.065,15000,0.9690000000000001
2014-12-31,1.065,1.065,1.065,1.065,0,0.9690000000000001
2015-01-01,1.065,1.065,1.065,1.065,0,0.9690000000000001
2015-01-02,1.05,1.065,1.05,1.06,19300,0.9640000000000001
2015-01-05,1.065,1.065,1.065,1.065,22800,0.9690000000000001
2015-01-06,1.065,1.065,1.065,1.065,0,0.9690000000000001
2015-01-07,1.06,1.06,1.06,1.06,30000,0.9640000000000001
2015-01-08,1.06,1.06,1.06,1.06,30000,0.9640000000000001
2015-01-09,1.05,1.05,1.05,1.05,38000,0.955
2015-01-12,1.06,1.06,1.06,1.06,20000,0.9640000000000001
2015-01-13,1.05,1.06,1.05,1.05,19000,0.955
2015-01-14,1.045,1.045,1.045,1.045,2500,0.951
2015-01-15,1.045,1.045,1.045,1.045,0,0.951
2015-01-16,1.04,1.04,1.04,1.04,4000,0.946
2015-01-19,1.04,1.04,1.04,1.04,0,0.946
2015-01-20,1.03,1.05,1.03,1.05,58400,0.955
2015-01-21,1.05,1.06,1.04,1.06,38000,0.9640000000000001
2015-01-22,1.09,1.11,1.085,1.085,105000,0.987
2015-01-23,1.085,1.085,1.085,1.085,0,0.987
2015-01-26,1.085,1.085,1.085,1.085,0,0.987
2015-01-27,1.085,1.085,1.085,1.085,0,0.987
2015-01-28,1.09,1.1,1.09,1.09,53000,0.991
2015-01-29,1.09,1.09,1.08,1.08,29000,0.982
2015-01-30,1.08,1.08,1.08,1.08,0,0.982
2015-02-02,1.09,1.12,1.09,1.12,17800,1.0190000000000001
2015-02-03,1.13,1.165,1.13,1.165,196500,1.06
2015-02-04,1.16,1.165,1.14,1.14,185000,1.037
2015-02-05,1.14,1.145,1.12,1.12,72000,1.0190000000000001
2015-02-06,1.14,1.15,1.125,1.15,22000,1.046
2015-02-09,1.15,1.17,1.15,1.17,128200,1.064
2015-02-10,1.17,1.17,1.15,1.17,72400,1.064
2015-02-11,1.17,1.18,1.155,1.17,72000,1.064
2015-02-12,1.15,1.15,1.15,1.15,6500,1.046
2015-02-13,1.16,1.16,1.15,1.15,61000,1.046
2015-02-16,1.14,1.14,1.125,1.125,40100,1.023
2015-02-17,1.13,1.13,1.08,1.1,49500,1.001
2015-02-18,1.115,1.115,1.09,1.09,8000,0.991
2015-02-19,1.09,1.11,1.09,1.11,15000,1.01
2015-02-20,1.1,1.11,1.08,1.11,106000,1.01
2015-02-23,1.08,1.105,1.08,1.105,57100,1.005
2015-02-24,1.1,1.12,1.1,1.1,501300,1.001
2015-02-25,1.12,1.12,1.12,1.12,800,1.0190000000000001
2015-02-26,1.12,1.15,1.12,1.15,13000,1.046
2015-02-27,1.145,1.16,1.12,1.16,111600,1.055
2015-03-02,1.17,1.18,1.17,1.17,66600,1.064
2015-03-03,1.17,1.18,1.17,1.18,70000,1.073
2015-03-04,1.17,1.17,1.16,1.17,125000,1.064
2015-03-05,1.17,1.17,1.17,1.17,0,1.064
2015-03-06,1.11,1.11,1.11,1.11,1500,1.01
2015-03-09,1.14,1.14,1.1,1.1,35000,1.001
2015-03-10,1.1,1.1,1.1,1.1,0,1.001
2015-03-11,1.11,1.11,1.1,1.1,27500,1.001
2015-03-12,1.1,1.1,1.1,1.1,400,1.001
2015-03-13,1.1,1.1,1.1,1.1,4500,1.001
2015-03-16,1.11,1.11,1.08,1.08,16600,0.982
2015-03-17,1.07,1.07,1.055,1.055,36000,0.96
2015-03-18,1.035,1.045,1.02,1.045,11500,0.951
2015-03-19,1.045,1.045,1.045,1.045,0,0.951
2015-03-20,1.045,1.045,1.045,1.045,0,0.951
2015-03-23,1.045,1.045,1.045,1.045,0,0.951
2015-03-24,1.045,1.05,1.045,1.05,12000,0.955
2015-03-25,1.05,1.05,1.05,1.05,0,0.955
2015-03-26,1.07,1.07,1.065,1.065,139600,0.9690000000000001
2015-03-27,1.065,1.065,1.045,1.045,12000,0.951
2015-03-30,1.045,1.045,1.045,1.045,15200,0.951
2015-03-31,1.045,1.045,1.045,1.045,0,0.951
2015-04-01,1.05,1.05,1.05,1.05,15000,0.955
2015-04-02,1.05,1.05,1.05,1.05,0,0.955
2015-04-03,1.05,1.05,1.05,1.05,0,0.955
2015-04-06,1.05,1.05,1.05,1.05,0,0.955
2015-04-07,1.055,1.08,1.055,1.08,11800,0.982
2015-04-08,1.05,1.05,1.05,1.05,16000,0.955
2015-04-09,1.05,1.05,1.045,1.045,32000,0.951
2015-04-10,1.045,1.045,1.045,1.045,0,0.951
2015-04-13,1.045,1.045,1.02,1.02,72700,0.9279999999999999
2015-04-14,1.02,1.02,1.0,1.02,187500,0.9279999999999999
2015-04-15,1.0,1.02,0.97,0.99,246000,0.9
2015-04-16,0.98,1.0,0.96,1.0,27800,0.91
2015-04-17,0.975,1.0,0.96,1.0,13700,0.91
2015-04-20,1.0,1.0,1.0,1.0,0,0.91
2015-04-21,0.98,0.98,0.975,0.975,15000,0.887
2015-04-22,0.98,0.985,0.98,0.98,14300,0.8909999999999999
2015-04-23,0.98,0.98,0.97,0.97,8700,0.882
2015-04-24,0.965,0.965,0.965,0.965,15000,0.878
2015-04-27,0.98,0.985,0.98,0.98,1700,0.8909999999999999
2015-04-28,0.98,0.98,0.98,0.98,10000,0.8909999999999999
2015-04-29,0.97,0.97,0.97,0.97,13400,0.882
2015-04-30,0.97,0.97,0.97,0.97,0,0.882
2015-05-01,0.97,0.97,0.97,0.97,0,0.882
2015-05-04,0.99,1.0,0.97,0.99,74700,0.9
2015-05-05,0.99,0.99,0.99,0.99,9000,0.9
2015-05-06,0.99,1.0,0.99,1.0,82400,0.91
2015-05-07,1.0,1.0,1.0,1.0,24500,0.91
2015-05-08,1.0,1.0,1.0,1.0,0,0.91
2015-05-11,1.08,1.08,1.08,1.08,2200,0.982
2015-05-12,1.08,1.08,1.08,1.08,0,0.982
2015-05-13,1.065,1.065,1.04,1.04,19500,0.946
2015-05-14,1.06,1.06,1.06,1.06,6000,0.9640000000000001
2015-05-15,1.05,1.05,1.02,1.02,25000,0.9279999999999999
2015-05-18,1.03,1.03,1.03,1.03,10500,0.937
2015-05-19,1.03,1.03,1.02,1.02,20300,0.9279999999999999
2015-05-20,1.02,1.02,1.02,1.02,34700,0.9279999999999999
2015-05-21,1.025,1.025,1.025,1.025,5000,0.932
2015-05-22,1.025,1.025,1.02,1.02,5000,0.9279999999999999
2015-05-25,1.02,1.02,1.02,1.02,4500,0.9279999999999999
2015-05-26,1.015,1.015,1.01,1.01,7500,0.919
2015-05-27,1.02,1.02,1.02,1.02,5500,0.9279999999999999
2015-05-28,1.02,1.02,1.01,1.01,82600,0.919
2015-05-29,1.01,1.01,0.99,0.99,30300,0.9
2015-06-01,0.99,0.99,0.99,0.99,0,0.9
2015-06-02,0.99,1.0,0.99,1.0,13400,0.91
2015-06-03,1.0,1.0,0.98,0.98,77600,0.8909999999999999
2015-06-04,0.98,0.98,0.98,0.98,18500,0.8909999999999999
2015-06-05,0.98,0.98,0.96,0.965,95300,0.878
2015-06-08,0.965,0.965,0.965,0.965,0,0.878
2015-06-09,0.97,0.975,0.97,0.975,5000,0.887
2015-06-10,0.98,0.98,0.98,0.98,5000,0.8909999999999999
2015-06-11,0.98,0.98,0.98,0.98,22400,0.8909999999999999
2015-06-12,0.975,0.975,0.97,0.97,20000,0.882
2015-06-15,0.97,0.97,0.96,0.96,49900,0.873
2015-06-16,0.96,0.96,0.96,0.96,0,0.873
2015-06-17,0.96,0.96,0.96,0.96,0,0.873
2015-06-18,0.97,0.97,0.95,0.95,37900,0.8640000000000001
2015-06-19,0.945,0.98,0.94,0.98,88400,0.8909999999999999
2015-06-22,0.95,0.95,0.95,0.95,52300,0.8640000000000001
2015-06-23,0.92,0.95,0.92,0.95,7300,0.8640000000000001
2015-06-24,0.92,0.92,0.92,0.92,94200,0.8370000000000001
2015-06-25,0.9,0.9,0.85,0.87,74400,0.7909999999999999
2015-06-26,0.88,0.88,0.8,0.82,89000,0.746
2015-06-29,0.83,0.83,0.83,0.83,10300,0.755
2015-06-30,0.855,0.88,0.85,0.88,25400,0.8
2015-07-01,0.88,0.88,0.88,0.88,0,0.8
2015-07-02,0.88,0.88,0.88,0.88,7500,0.8
2015-07-03,0.88,0.88,0.88,0.88,0,0.8
2015-07-06,0.88,0.88,0.88,0.88,0,0.8
2015-07-07,0.88,0.88,0.835,0.835,20000,0.76
2015-07-08,0.84,0.84,0.84,0.84,5000,0.764
2015-07-09,0.84,0.84,0.84,0.84,0,0.764
2015-07-10,0.86,0.86,0.86,0.86,1700,0.782
2015-07-13,0.835,0.835,0.835,0.835,10000,0.76
2015-07-14,0.835,0.835,0.835,0.835,0,0.76
2015-07-15,0.83,0.83,0.83,0.83,32000,0.755
2015-07-16,0.84,0.84,0.84,0.84,5000,0.764
2015-07-17,0.84,0.86,0.84,0.86,11000,0.782
2015-07-20,0.86,0.86,0.86,0.86,0,0.782
2015-07-21,0.86,0.86,0.86,0.86,0,0.782
2015-07-22,0.845,0.845,0.845,0.845,34000,0.769
2015-07-23,0.84,0.84,0.84,0.84,12600,0.764
2015-07-24,0.84,0.84,0.83,0.83,9300,0.755
2015-07-27,0.83,0.86,0.83,0.86,6100,0.782
2015-07-28,0.84,0.84,0.84,0.84,25000,0.764
2015-07-29,0.83,0.83,0.83,0.83,32500,0.755
2015-07-30,0.83,0.83,0.83,0.83,26900,0.755
2015-07-31,0.83,0.83,0.83,0.83,0,0.755
2015-08-03,0.77,0.77,0.77,0.77,200,0.7
2015-08-04,0.83,0.89,0.83,0.88,32200,0.8
2015-08-05,0.88,0.88,0.88,0.88,30000,0.8
2015-08-06,0.88,0.9,0.85,0.85,35000,0.773
2015-08-07,0.9,0.92,0.9,0.92,35000,0.8370000000000001
2015-08-10,0.92,0.92,0.92,0.92,30000,0.8370000000000001
2015-08-11,0.92,0.92,0.92,0.92,1300,0.8370000000000001
2015-08-12,0.92,0.94,0.92,0.92,11000,0.8370000000000001
2015-08-13,0.92,0.92,0.92,0.92,0,0.8370000000000001
2015-08-14,0.89,0.9,0.89,0.9,25000,0.8190000000000001
2015-08-17,0.9,0.9,0.9,0.9,500,0.8190000000000001
2015-08-18,0.9,0.9,0.9,0.9,0,0.8190000000000001
2015-08-19,0.9,0.9,0.9,0.9,1500,0.8190000000000001
2015-08-20,0.875,0.875,0.875,0.875,30000,0.7959999999999999
2015-08-21,0.86,0.86,0.86,0.86,2000,0.782
2015-08-24,0.86,0.86,0.86,0.86,38000,0.782
2015-08-25,0.84,0.85,0.84,0.85,15800,0.773
2015-08-26,0.85,0.85,0.85,0.85,0,0.773
2015-08-27,0.85,0.95,0.85,0.9,120100,0.8190000000000001
2015-08-28,0.9,0.95,0.9,0.9,65700,0.8190000000000001
2015-08-31,0.9,0.95,0.9,0.95,14000,0.8640000000000001
2015-09-01,0.95,0.95,0.95,0.95,0,0.8640000000000001
2015-09-02,0.91,0.93,0.9,0.93,38600,0.846
2015-09-03,0.95,0.95,0.95,0.95,23100,0.8640000000000001
2015-09-04,0.95,0.95,0.91,0.91,4200,0.828
2015-09-07,0.91,0.91,0.91,0.91,2000,0.828
2015-09-08,0.91,0.91,0.85,0.9,94600,0.8190000000000001
2015-09-09,0.9,0.9,0.9,0.9,0,0.8190000000000001
2015-09-10,0.9,0.9,0.9,0.9,0,0.8190000000000001
2015-09-11,0.85,0.88,0.85,0.88,75900,0.8
2015-09-14,0.9,0.95,0.9,0.95,88700,0.8640000000000001
2015-09-15,0.99,0.99,0.99,0.99,39000,0.9
2015-09-16,1.0,1.0,1.0,1.0,4500,0.91
2015-09-17,0.99,1.04,0.99,1.04,10400,0.946
2015-09-18,1.04,1.04,1.04,1.04,0,0.946
2015-09-21,1.04,1.04,1.04,1.04,0,0.946
2015-09-22,1.04,1.04,1.04,1.04,0,0.946
2015-09-23,1.04,1.04,1.04,1.04,0,0.946
2015-09-24,1.0,1.02,1.0,1.02,14700,0.9279999999999999
2015-09-25,1.02,1.02,1.02,1.02,1600,0.9279999999999999
2015-09-28,1.0,1.0,1.0,1.0,5000,0.91
2015-09-29,1.02,1.02,1.02,1.02,17600,0.9279999999999999
2015-09-30,1.01,1.01,1.01,1.01,10000,0.919
2015-10-01,0.95,0.95,0.95,0.95,15000,0.8640000000000001
2015-10-02,0.95,0.95,0.95,0.95,0,0.8640000000000001
2015-10-05,0.95,0.95,0.95,0.95,0,0.8640000000000001
2015-10-06,0.95,0.95,0.95,0.95,0,0.8640000000000001
2015-10-07,0.95,0.95,0.95,0.95,5000,0.8640000000000001
2015-10-08,1.0,1.0,1.0,1.0,2000,0.91
2015-10-09,0.98,0.98,0.98,0.98,10000,0.8909999999999999
2015-10-12,0.98,0.98,0.98,0.98,0,0.8909999999999999
2015-10-13,0.98,0.98,0.98,0.98,0,0.8909999999999999
2015-10-14,0.98,0.98,0.95,0.95,26000,0.8640000000000001
2015-10-15,0.95,0.95,0.95,0.95,0,0.8640000000000001
2015-10-16,0.98,0.98,0.98,0.98,10000,0.8909999999999999
2015-10-19,0.98,0.98,0.98,0.98,0,0.8909999999999999
2015-10-20,0.99,0.99,0.99,0.99,13000,0.9
2015-10-21,0.99,0.99,0.99,0.99,15400,0.9
2015-10-22,0.99,0.99,0.99,0.99,0,0.9
2015-10-23,0.98,1.0,0.98,1.0,13500,0.91
2015-10-26,1.0,1.0,1.0,1.0,0,0.91
2015-10-27,1.0,1.0,1.0,1.0,0,0.91
2015-10-28,1.0,1.0,1.0,1.0,0,0.91
2015-10-29,1.0,1.0,1.0,1.0,13000,0.91
2015-10-30,1.0,1.0,1.0,1.0,50000,0.91
2015-11-02,0.98,0.98,0.98,0.98,1000,0.8909999999999999
2015-11-03,0.98,0.98,0.98,0.98,0,0.8909999999999999
2015-11-04,0.98,0.98,0.98,0.98,0,0.8909999999999999
2015-11-05,0.97,0.98,0.97,0.98,35000,0.8909999999999999
2015-11-06,0.98,0.98,0.98,0.98,0,0.8909999999999999
2015-11-09,0.98,0.98,0.98,0.98,0,0.8909999999999999
2015-11-10,0.98,0.98,0.98,0.98,0,0.8909999999999999
2015-11-11,0.97,1.0,0.97,1.0,48900,0.91
2015-11-12,1.0,1.0,1.0,1.0,0,0.91
2015-11-13,1.0,1.0,1.0,1.0,1100,0.91
2015-11-16,0.95,0.95,0.95,0.95,4500,0.8640000000000001
2015-11-17,0.96,0.96,0.9,0.9,29000,0.8190000000000001
2015-11-18,0.9,0.9,0.9,0.9,0,0.8190000000000001
2015-11-19,0.9,0.9,0.9,0.9,0,0.8190000000000001
2015-11-20,0.9,0.9,0.9,0.9,0,0.8190000000000001
2015-11-23,0.9,0.9,0.9,0.9,5000,0.8190000000000001
2015-11-24,0.9,0.9,0.9,0.9,0,0.8190000000000001
2015-11-25,0.9,0.9,0.9,0.9,0,0.8190000000000001
2015-11-26,0.9,0.9,0.9,0.9,0,0.8190000000000001
2015-11-27,0.9,0.9,0.9,0.9,0,0.8190000000000001
2015-11-30,0.9,0.9,0.895,0.9,33000,0.8190000000000001
2015-12-01,0.9,0.9,0.9,0.9,0,0.8190000000000001
2015-12-02,0.9,0.9,0.81,0.81,4000,0.737
2015-12-03,0.9,0.9,0.9,0.9,3000,0.8190000000000001
2015-12-04,0.95,0.97,0.95,0.97,13300,0.882
2015-12-07,0.97,0.97,0.97,0.97,500,0.882
2015-12-08,0.97,0.98,0.96,0.97,49700,0.882
2015-12-09,0.95,0.95,0.94,0.94,61300,0.855
2015-12-10,0.94,0.94,0.94,0.94,0,0.855
2015-12-11,0.97,0.97,0.95,0.95,6700,0.8640000000000001
2015-12-14,0.97,0.97,0.97,0.97,6000,0.882
2015-12-15,0.97,0.97,0.97,0.97,2000,0.882
2015-12-16,0.97,0.97,0.97,0.97,0,0.882
2015-12-17,0.95,0.95,0.95,0.95,22900,0.8640000000000001
2015-12-18,0.95,0.95,0.95,0.95,200,0.8640000000000001
2015-12-21,0.95,0.95,0.95,0.95,0,0.8640000000000001
2015-12-22,0.94,0.95,0.94,0.95,81100,0.8640000000000001
2015-12-23,0.97,0.97,0.95,0.95,11700,0.8640000000000001
2015-12-24,0.95,0.95,0.95,0.95,0,0.8640000000000001
2015-12-25,0.95,0.95,0.95,0.95,0,0.8640000000000001
2015-12-28,0.95,0.95,0.95,0.95,0,0.8640000000000001
2015-12-29,0.95,0.95,0.95,0.95,0,0.8640000000000001
2015-12-30,0.95,0.95,0.95,0.95,0,0.8640000000000001
2015-12-31,0.95,0.95,0.95,0.95,0,0.8640000000000001
2016-01-01,0.95,0.95,0.95,0.95,0,0.8640000000000001
2016-01-04,0.96,0.96,0.95,0.95,18500,0.8640000000000001
2016-01-05,0.95,0.95,0.95,0.95,13000,0.8640000000000001
2016-01-06,0.95,0.95,0.95,0.95,0,0.8640000000000001
2016-01-07,0.95,0.95,0.95,0.95,0,0.8640000000000001
2016-01-08,0.95,0.95,0.95,0.95,0,0.8640000000000001
2016-01-11,0.95,0.95,0.95,0.95,0,0.8640000000000001
2016-01-12,0.95,0.95,0.95,0.95,10100,0.8640000000000001
2016-01-13,0.95,0.95,0.95,0.95,0,0.8640000000000001
2016-01-14,0.95,0.95,0.92,0.92,8800,0.8370000000000001
2016-01-15,0.92,0.92,0.92,0.92,8000,0.8370000000000001
2016-01-18,0.92,0.92,0.92,0.92,0,0.8370000000000001
2016-01-19,0.92,0.92,0.92,0.92,0,0.8370000000000001
2016-01-20,0.92,0.92,0.92,0.92,0,0.8370000000000001
2016-01-21,0.92,0.92,0.92,0.92,0,0.8370000000000001
2016-01-22,0.92,0.92,0.92,0.92,0,0.8370000000000001
2016-01-25,0.92,0.92,0.92,0.92,0,0.8370000000000001
2016-01-26,0.92,0.92,0.92,0.92,0,0.8370000000000001
2016-01-27,0.92,0.92,0.92,0.92,0,0.8370000000000001
2016-01-28,0.945,0.965,0.945,0.965,25000,0.878
2016-01-29,0.97,0.97,0.97,0.97,8000,0.882
2016-02-01,0.975,0.975,0.975,0.975,10000,0.887
2016-02-02,0.98,0.98,0.98,0.98,20000,0.8909999999999999
2016-02-03,0.945,0.945,0.945,0.945,8500,0.86
2016-02-04,0.96,0.96,0.96,0.96,5000,0.873
2016-02-05,0.95,0.95,0.95,0.95,6300,0.8640000000000001
2016-02-08,0.94,0.96,0.94,0.96,10500,0.873
2016-02-09,0.955,0.965,0.95,0.95,58700,0.8640000000000001
2016-02-10,0.915,0.915,0.91,0.91,31200,0.828
2016-02-11,0.91,0.91,0.91,0.91,0,0.828
2016-02-12,0.91,0.91,0.91,0.91,0,0.828
2016-02-15,0.91,0.91,0.91,0.91,0,0.828
2016-02-16,0.92,0.95,0.92,0.95,33900,0.8640000000000001
2016-02-17,0.96,1.01,0.96,1.01,48600,0.919
2016-02-18,1.0,1.0,1.0,1.0,8700,0.91
2016-02-19,1.0,1.0,1.0,1.0,0,0.91
2016-02-22,1.05,1.075,1.05,1.075,80700,0.978
2016-02-23,1.1,1.1,1.06,1.085,32000,0.987
2016-02-24,1.06,1.06,1.045,1.045,26000,0.951
2016-02-25,1.05,1.05,1.04,1.04,70700,0.946
2016-02-26,1.04,1.04,1.04,1.04,11300,0.946
2016-02-29,1.035,1.06,1.02,1.05,34800,0.955
2016-03-01,1.06,1.08,1.06,1.08,19000,0.982
2016-03-02,1.08,1.095,1.04,1.095,43600,0.996
2016-03-03,1.095,1.095,1.095,1.095,2500,0.996
2016-03-04,1.1,1.1,1.075,1.1,37500,1.001
2016-03-07,1.1,1.145,1.1,1.145,73300,1.041
2016-03-08,1.16,1.16,1.16,1.16,129600,1.055
2016-03-09,1.16,1.195,1.16,1.165,100600,1.06
2016-03-10,1.165,1.19,1.165,1.19,232400,1.082
2016-03-11,1.18,1.22,1.18,1.22,155000,1.11
2016-03-14,1.25,1.27,1.235,1.24,189200,1.128
2016-03-15,1.25,1.27,1.25,1.25,63200,1.137
2016-03-16,1.24,1.25,1.23,1.23,144900,1.119
2016-03-17,1.23,1.24,1.23,1.23,36700,1.119
2016-03-18,1.24,1.28,1.23,1.245,395600,1.214
2016-03-21,1.29,1.3,1.27,1.27,114900,1.238
2016-03-22,1.29,1.295,1.27,1.28,191900,1.248
2016-03-23,1.28,1.28,1.28,1.28,12500,1.248
2016-03-24,1.28,1.28,1.26,1.27,65200,1.238
2016-03-25,1.27,1.27,1.27,1.27,0,1.238
2016-03-28,1.27,1.27,1.27,1.27,0,1.238
2016-03-29,1.27,1.28,1.27,1.28,104100,1.248
2016-03-30,1.28,1.28,1.25,1.25,148800,1.218
2016-03-31,1.255,1.275,1.25,1.26,534300,1.228
2016-04-01,1.26,1.28,1.26,1.27,86500,1.238
2016-04-04,1.27,1.28,1.255,1.28,52700,1.248
2016-04-05,1.28,1.29,1.28,1.29,41500,1.2570000000000001
2016-04-06,1.29,1.29,1.28,1.28,43600,1.248
2016-04-07,1.29,1.3,1.29,1.3,22200,1.2670000000000001
2016-04-08,1.295,1.33,1.295,1.32,116700,1.287
2016-04-11,1.32,1.36,1.32,1.35,129800,1.3159999999999998
2016-04-12,1.36,1.4,1.35,1.4,245400,1.365
2016-04-13,1.43,1.495,1.43,1.495,115400,1.4569999999999999
2016-04-14,1.5,1.595,1.5,1.54,92000,1.501
2016-04-15,1.54,1.54,1.4,1.45,95700,1.413
2016-04-18,1.45,1.45,1.3,1.335,167400,1.301
2016-04-19,1.36,1.4,1.36,1.4,21500,1.365
2016-04-20,1.4,1.4,1.35,1.36,79400,1.3259999999999998
2016-04-21,1.36,1.385,1.36,1.37,30400,1.335
2016-04-22,1.38,1.38,1.38,1.38,24900,1.345
2016-04-25,1.38,1.38,1.38,1.38,0,1.345
2016-04-26,1.37,1.37,1.35,1.35,65400,1.3159999999999998
2016-04-27,1.36,1.38,1.35,1.36,42000,1.3259999999999998
2016-04-28,1.375,1.375,1.35,1.35,42400,1.3159999999999998
2016-04-29,1.37,1.37,1.33,1.36,13200,1.3259999999999998
2016-05-02,1.36,1.36,1.33,1.33,10500,1.296
2016-05-03,1.35,1.375,1.34,1.37,53400,1.335
2016-05-04,1.33,1.35,1.33,1.34,4100,1.306
2016-05-05,1.34,1.34,1.31,1.31,39400,1.2770000000000001
2016-05-06,1.32,1.43,1.32,1.43,119200,1.3940000000000001
2016-05-09,1.48,1.48,1.43,1.45,69000,1.413
2016-05-10,1.45,1.46,1.45,1.46,96300,1.423
2016-05-11,1.47,1.5,1.47,1.5,53800,1.462
2016-05-12,1.5,1.5,1.5,1.5,6900,1.462
2016-05-13,1.51,1.55,1.51,1.55,21100,1.511
2016-05-16,1.55,1.6,1.55,1.59,77200,1.55
2016-05-17,1.62,1.69,1.6,1.64,67400,1.599
2016-05-18,1.64,1.64,1.535,1.57,61700,1.53
2016-05-19,1.57,1.57,1.54,1.54,30900,1.501
2016-05-20,1.54,1.54,1.53,1.54,31800,1.501
2016-05-23,1.54,1.55,1.505,1.505,21200,1.4669999999999999
2016-05-24,1.52,1.57,1.52,1.57,26900,1.53
2016-05-25,1.575,1.575,1.55,1.57,21400,1.53
2016-05-26,1.57,1.57,1.55,1.55,12200,1.511
2016-05-27,1.575,1.61,1.575,1.59,20200,1.55
2016-05-30,1.585,1.585,1.54,1.585,26600,1.545
2016-05-31,1.55,1.6,1.55,1.555,60500,1.516
2016-06-01,1.57,1.6,1.57,1.6,33300,1.56
2016-06-02,1.62,1.675,1.585,1.62,46600,1.579
2016-06-03,1.6,1.62,1.6,1.61,39700,1.569
2016-06-06,1.6,1.61,1.585,1.6,18200,1.56
2016-06-07,1.605,1.65,1.605,1.62,28800,1.579
2016-06-08,1.62,1.65,1.62,1.65,41900,1.608
2016-06-09,1.635,1.675,1.635,1.675,10500,1.633
2016-06-10,1.67,1.67,1.66,1.66,14200,1.618
2016-06-13,1.66,1.66,1.66,1.66,0,1.618
2016-06-14,1.67,1.67,1.62,1.62,49700,1.579
2016-06-15,1.62,1.65,1.62,1.65,6700,1.608
2016-06-16,1.63,1.67,1.63,1.665,12900,1.6230000000000002
2016-06-17,1.63,1.66,1.615,1.615,10100,1.574
2016-06-20,1.65,1.665,1.65,1.665,15300,1.6230000000000002
2016-06-21,1.665,1.665,1.64,1.65,30000,1.608
2016-06-22,1.65,1.65,1.64,1.64,28800,1.599
2016-06-23,1.64,1.64,1.61,1.615,42300,1.574
2016-06-24,1.63,1.63,1.55,1.56,64300,1.521
2016-06-27,1.6,1.85,1.6,1.8,369100,1.755
2016-06-28,1.8,1.8,1.76,1.8,218300,1.755
2016-06-29,1.8,1.82,1.79,1.815,198700,1.7690000000000001
2016-06-30,1.82,1.83,1.8,1.81,163300,1.764
2016-07-01,1.825,1.845,1.81,1.825,145500,1.7790000000000001
2016-07-04,1.84,1.84,1.83,1.84,84700,1.794
2016-07-05,1.84,1.84,1.79,1.79,91700,1.745
2016-07-06,1.82,1.84,1.8,1.8,62500,1.755
2016-07-07,1.8,1.82,1.8,1.82,65200,1.774
2016-07-08,1.82,1.85,1.82,1.83,101900,1.784
2016-07-11,1.83,1.83,1.82,1.82,81400,1.774
2016-07-12,1.82,1.83,1.8,1.8,54500,1.755
2016-07-13,1.815,1.82,1.785,1.785,42900,1.74
2016-07-14,1.805,1.82,1.805,1.82,35100,1.774
2016-07-15,1.82,1.82,1.82,1.82,4900,1.774
2016-07-18,1.82,1.82,1.8,1.8,60900,1.755
2016-07-19,1.8,1.82,1.79,1.81,39400,1.764
2016-07-20,1.81,1.82,1.81,1.82,21600,1.774
2016-07-21,1.8,1.81,1.795,1.81,53000,1.764
2016-07-22,1.795,1.795,1.795,1.795,2000,1.75
2016-07-25,1.8,1.81,1.79,1.81,25500,1.764
2016-07-26,1.79,1.79,1.79,1.79,5800,1.745
2016-07-27,1.79,1.805,1.78,1.78,25100,1.735
2016-07-28,1.8,1.805,1.8,1.8,43300,1.755
2016-07-29,1.8,1.81,1.8,1.81,23200,1.764
2016-08-01,1.805,1.81,1.8,1.81,96700,1.764
2016-08-02,1.8,1.815,1.8,1.81,28700,1.764
2016-08-03,1.8,1.81,1.8,1.81,43800,1.764
2016-08-04,1.81,1.815,1.81,1.81,46400,1.764
2016-08-05,1.82,1.9,1.82,1.85,154300,1.8030000000000002
2016-08-08,2.0,2.0,1.93,1.94,35900,1.891
2016-08-09,1.94,1.95,1.9,1.92,237500,1.871
2016-08-10,1.92,1.95,1.92,1.94,5700,1.891
2016-08-11,1.94,1.99,1.905,1.98,55700,1.93
2016-08-12,1.99,2.06,1.98,1.99,226600,1.94
2016-08-15,2.0,2.12,1.99,2.09,86200,2.037
2016-08-16,2.15,2.3,2.14,2.23,136400,2.174
2016-08-17,2.23,2.4,2.23,2.4,188400,2.339
2016-08-18,2.4,2.4,2.19,2.35,193700,2.291
2016-08-19,2.35,2.35,2.24,2.29,56100,2.2319999999999998
2016-08-22,2.29,2.3,2.05,2.18,160600,2.125
2016-08-23,2.18,2.2,2.12,2.2,102200,2.144
2016-08-24,2.18,2.34,2.18,2.32,70900,2.261
2016-08-25,2.32,2.32,2.3,2.31,8400,2.252
2016-08-26,2.31,2.32,2.2,2.2,35200,2.144
2016-08-29,2.25,2.32,2.25,2.31,45400,2.252
2016-08-30,2.31,2.32,2.27,2.27,12900,2.213
2016-08-31,2.3,2.3,2.3,2.3,5800,2.242
2016-09-01,2.3,2.3,2.26,2.26,16600,2.2030000000000003
2016-09-02,2.15,2.19,2.15,2.19,18900,2.19
2016-09-05,2.15,2.22,2.15,2.17,31700,2.17
2016-09-06,2.16,2.18,2.16,2.17,6500,2.17
2016-09-07,2.19,2.23,2.13,2.13,24300,2.13
2016-09-08,2.16,2.16,2.15,2.16,4900,2.16
2016-09-09,2.19,2.32,2.19,2.28,42000,2.28
2016-09-12,2.25,2.3,2.24,2.29,30700,2.29
2016-09-13,2.3,2.34,2.26,2.26,52800,2.26
2016-09-14,2.3,2.33,2.27,2.3,18500,2.3
2016-09-15,2.28,2.33,2.26,2.28,16400,2.28
2016-09-16,2.28,2.28,2.15,2.19,124800,2.19
2016-09-19,2.2,2.2,2.16,2.16,3400,2.16
2016-09-20,2.18,2.18,2.16,2.16,46600,2.16
2016-09-21,2.15,2.16,1.905,2.01,204700,2.01
2016-09-22,2.06,2.06,2.04,2.04,42600,2.04
2016-09-23,2.06,2.06,2.02,2.02,36800,2.02
2016-09-26,2.02,2.02,1.88,1.935,148100,1.935
2016-09-27,1.95,1.955,1.9,1.9,50200,1.9
2016-09-28,1.92,1.94,1.88,1.9,53300,1.9
2016-09-29,1.9,1.92,1.9,1.9,34100,1.9
2016-09-30,1.91,1.97,1.91,1.97,49200,1.97
2016-10-03,2.02,2.02,2.02,2.02,500,2.02
2016-10-04,2.04,2.1,2.04,2.06,22600,2.06
2016-10-05,2.11,2.11,1.975,1.98,15900,1.98
2016-10-06,2.1,2.1,2.04,2.08,170800,2.08
2016-10-07,2.08,2.15,2.06,2.1,63800,2.1
2016-10-10,2.1,2.1,2.08,2.08,17500,2.08
2016-10-11,2.08,2.08,2.03,2.03,11900,2.03
2016-10-12,2.05,2.08,2.02,2.02,23500,2.02
2016-10-13,2.02,2.02,1.95,1.96,60500,1.96
2016-10-14,1.965,1.965,1.96,1.96,18300,1.96
2016-10-17,2.06,2.1,2.06,2.1,74300,2.1
2016-10-18,2.1,2.1,2.08,2.09,73700,2.09
2016-10-19,2.1,2.11,2.09,2.09,57500,2.09
2016-10-20,2.13,2.14,2.09,2.09,32600,2.09
2016-10-21,2.1,2.14,2.09,2.09,15900,2.09
2016-10-24,2.1,2.1,2.07,2.1,16400,2.1
2016-10-25,2.1,2.13,2.06,2.06,36700,2.06
2016-10-26,2.07,2.07,2.06,2.06,33500,2.06
2016-10-27,2.1,2.13,2.07,2.07,32200,2.07
2016-10-28,2.08,2.08,2.08,2.08,3700,2.08
2016-10-31,2.1,2.1,2.06,2.06,91100,2.06
2016-11-01,2.09,2.09,2.08,2.09,13500,2.09
2016-11-02,2.09,2.15,2.06,2.06,80400,2.06
2016-11-03,2.11,2.11,2.08,2.11,2300,2.11
2016-11-04,2.11,2.15,2.09,2.15,34700,2.15
2016-11-07,2.14,2.14,2.06,2.08,15800,2.08
2016-11-08,2.12,2.12,2.08,2.08,16600,2.08
2016-11-09,2.08,2.1,2.02,2.03,96400,2.03
2016-11-10,2.1,2.11,2.1,2.11,23500,2.11
2016-11-11,2.1,2.11,2.08,2.08,8500,2.08
2016-11-14,2.08,2.08,2.05,2.05,35500,2.05
2016-11-15,2.06,2.1,2.05,2.05,19000,2.05
2016-11-16,2.05,2.09,2.05,2.06,121600,2.06
2016-11-17,2.08,2.08,2.055,2.07,337600,2.07
2016-11-18,2.07,2.13,2.07,2.12,420500,2.12
2016-11-21,2.13,2.28,2.13,2.28,185400,2.28
2016-11-22,2.28,2.28,2.2,2.26,29400,2.26
2016-11-23,2.26,2.26,2.23,2.23,7200,2.23
2016-11-24,2.23,2.3,2.23,2.3,92400,2.3
2016-11-25,2.29,2.34,2.27,2.27,30500,2.27
2016-11-28,2.27,2.3,2.24,2.29,42100,2.29
2016-11-29,2.29,2.31,2.29,2.29,29500,2.29
2016-11-30,2.29,2.34,2.28,2.34,505800,2.34
2016-12-01,2.35,2.35,2.3,2.3,30700,2.3
2016-12-02,2.31,2.36,2.25,2.34,38100,2.34
2016-12-05,2.34,2.34,2.28,2.28,15800,2.28
2016-12-06,2.26,2.28,2.26,2.28,6500,2.28
2016-12-07,2.26,2.26,2.22,2.22,11200,2.22
2016-12-08,2.2,2.25,2.2,2.25,19100,2.25
2016-12-09,2.2,2.25,2.18,2.24,35000,2.24
2016-12-12,2.2,2.2,2.15,2.17,37400,2.17
2016-12-13,2.17,2.17,2.15,2.15,497800,2.15
2016-12-14,2.15,2.2,2.15,2.17,9500,2.17
2016-12-15,2.17,2.17,2.15,2.15,8300,2.15
2016-12-16,2.15,2.22,2.15,2.22,19500,2.22
2016-12-19,2.21,2.22,2.2,2.22,31900,2.22
2016-12-20,2.2,2.22,2.2,2.21,1300,2.21
2016-12-21,2.23,2.24,2.21,2.24,23200,2.24
2016-12-22,2.24,2.28,2.22,2.22,35600,2.22
2016-12-23,2.22,2.22,2.2,2.2,4900,2.2
2016-12-26,2.2,2.2,2.2,2.2,0,2.2
2016-12-27,2.2,2.2,2.2,2.2,0,2.2
2016-12-28,2.2,2.21,2.2,2.2,23100,2.2
2016-12-29,2.2,2.23,2.2,2.23,6000,2.23
2016-12-30,2.22,2.22,2.19,2.22,12700,2.22
