Date,Open,High,Low,Close,Volume,Adj Close
2009-08-14,0.22,0.225,0.19,0.215,1774900,0.215
2009-08-17,0.215,0.215,0.2,0.21,727200,0.21
2009-08-18,0.215,0.215,0.2,0.205,232800,0.205
2009-08-19,0.205,0.245,0.205,0.245,702900,0.245
2009-08-20,0.25,0.25,0.225,0.25,869700,0.25
2009-08-21,0.245,0.255,0.23,0.24,919000,0.24
2009-08-24,0.24,0.26,0.22,0.22,1889200,0.22
2009-08-25,0.225,0.235,0.22,0.22,269200,0.22
2009-08-26,0.23,0.245,0.22,0.22,123700,0.22
2009-08-27,0.23,0.24,0.225,0.23,574900,0.23
2009-08-28,0.24,0.24,0.23,0.23,303200,0.23
2009-08-31,0.23,0.235,0.23,0.235,83200,0.235
2009-09-01,0.23,0.23,0.225,0.225,285600,0.225
2009-09-02,0.22,0.23,0.215,0.225,229000,0.225
2009-09-03,0.225,0.225,0.215,0.215,199900,0.215
2009-09-04,0.21,0.23,0.21,0.23,161100,0.23
2009-09-07,0.23,0.235,0.23,0.235,193300,0.235
2009-09-08,0.24,0.25,0.24,0.24,224300,0.24
2009-09-09,0.24,0.25,0.24,0.25,771000,0.25
2009-09-10,0.25,0.275,0.25,0.25,1255000,0.25
2009-09-11,0.26,0.26,0.24,0.24,343500,0.24
2009-09-14,0.24,0.24,0.23,0.23,18000,0.23
2009-09-15,0.23,0.24,0.22,0.24,171400,0.24
2009-09-16,0.23,0.25,0.23,0.25,146500,0.25
2009-09-17,0.25,0.255,0.245,0.245,367000,0.245
2009-09-18,0.235,0.25,0.23,0.23,124300,0.23
2009-09-21,0.24,0.24,0.23,0.23,196800,0.23
2009-09-22,0.23,0.235,0.23,0.23,114100,0.23
2009-09-23,0.24,0.24,0.225,0.23,306100,0.23
2009-09-24,0.225,0.24,0.225,0.225,96300,0.225
2009-09-25,0.225,0.23,0.225,0.23,216700,0.23
2009-09-28,0.235,0.25,0.23,0.23,195300,0.23
2009-09-29,0.23,0.23,0.225,0.23,289600,0.23
2009-09-30,0.22,0.24,0.22,0.24,234000,0.24
2009-10-01,0.21,0.21,0.205,0.21,282500,0.21
2009-10-02,0.21,0.21,0.21,0.21,4600,0.21
2009-10-05,0.21,0.21,0.21,0.21,607000,0.21
2009-10-06,0.21,0.22,0.21,0.22,8000,0.22
2009-10-07,0.22,0.22,0.21,0.21,24500,0.21
2009-10-08,0.22,0.22,0.22,0.22,91500,0.22
2009-10-09,0.22,0.22,0.205,0.21,120200,0.21
2009-10-12,0.205,0.21,0.205,0.21,8000,0.21
2009-10-13,0.205,0.205,0.205,0.205,7400,0.205
2009-10-14,0.205,0.21,0.2,0.21,204300,0.21
2009-10-15,0.215,0.215,0.21,0.21,12500,0.21
2009-10-16,0.21,0.22,0.2,0.205,54800,0.205
2009-10-19,0.205,0.21,0.2,0.2,262300,0.2
2009-10-20,0.2,0.21,0.2,0.2,191500,0.2
2009-10-21,0.195,0.2,0.19,0.195,243700,0.195
2009-10-22,0.195,0.2,0.195,0.195,218600,0.195
2009-10-23,0.2,0.2,0.2,0.2,232500,0.2
2009-10-26,0.195,0.195,0.195,0.195,236400,0.195
2009-10-27,0.19,0.19,0.19,0.19,27200,0.19
2009-10-28,0.19,0.19,0.19,0.19,145500,0.19
2009-10-29,0.19,0.19,0.18,0.185,165200,0.185
2009-10-30,0.185,0.19,0.185,0.19,16000,0.19
2009-11-02,0.19,0.2,0.19,0.2,87500,0.2
2009-11-03,0.2,0.2,0.2,0.2,20000,0.2
2009-11-04,0.195,0.205,0.195,0.2,146400,0.2
2009-11-05,0.2,0.2,0.19,0.19,172500,0.19
2009-11-06,0.19,0.19,0.19,0.19,62100,0.19
2009-11-09,0.19,0.21,0.19,0.21,219600,0.21
2009-11-10,0.21,0.22,0.21,0.21,202600,0.21
2009-11-11,0.215,0.215,0.2,0.2,70000,0.2
2009-11-12,0.19,0.195,0.19,0.195,312600,0.195
2009-11-13,0.195,0.2,0.195,0.2,117300,0.2
2009-11-16,0.195,0.195,0.195,0.195,64500,0.195
2009-11-17,0.195,0.2,0.195,0.2,43000,0.2
2009-11-18,0.195,0.195,0.195,0.195,72400,0.195
2009-11-19,0.195,0.205,0.195,0.205,219300,0.205
2009-11-20,0.195,0.205,0.195,0.205,216200,0.205
2009-11-23,0.205,0.205,0.2,0.2,131200,0.2
2009-11-24,0.205,0.205,0.195,0.2,186000,0.2
2009-11-25,0.205,0.21,0.2,0.2,421500,0.2
2009-11-26,0.205,0.22,0.205,0.22,634800,0.22
2009-11-27,0.22,0.22,0.21,0.21,662700,0.21
2009-11-30,0.215,0.215,0.21,0.21,319600,0.21
2009-12-01,0.22,0.22,0.21,0.22,314400,0.22
2009-12-02,0.22,0.22,0.205,0.205,353800,0.205
2009-12-03,0.21,0.21,0.205,0.205,116000,0.205
2009-12-04,0.21,0.21,0.205,0.205,259900,0.205
2009-12-07,0.21,0.21,0.205,0.205,112500,0.205
2009-12-08,0.21,0.21,0.21,0.21,75000,0.21
2009-12-09,0.205,0.21,0.205,0.21,178100,0.21
2009-12-10,0.21,0.21,0.205,0.205,30000,0.205
2009-12-11,0.2,0.21,0.2,0.21,49500,0.21
2009-12-14,0.21,0.215,0.21,0.21,70500,0.21
2009-12-15,0.205,0.21,0.205,0.21,203300,0.21
2009-12-16,0.215,0.215,0.21,0.21,113000,0.21
2009-12-17,0.215,0.215,0.215,0.215,44700,0.215
2009-12-18,0.215,0.215,0.215,0.215,28200,0.215
2009-12-21,0.22,0.25,0.22,0.25,655200,0.25
2009-12-22,0.245,0.245,0.23,0.23,89300,0.23
2009-12-23,0.225,0.225,0.225,0.225,75200,0.225
2009-12-24,0.23,0.23,0.225,0.225,28600,0.225
2009-12-29,0.225,0.225,0.22,0.22,80000,0.22
2009-12-30,0.22,0.225,0.21,0.22,46700,0.22
2009-12-31,0.21,0.21,0.205,0.205,70000,0.205
2010-01-01,0.205,0.205,0.205,0.205,0,0.205
2010-01-04,0.205,0.215,0.205,0.21,61900,0.21
2010-01-05,0.21,0.215,0.21,0.215,40500,0.215
2010-01-06,0.21,0.21,0.2,0.205,235700,0.205
2010-01-07,0.21,0.21,0.21,0.21,10000,0.21
2010-01-08,0.21,0.21,0.205,0.21,120000,0.21
2010-01-11,0.22,0.235,0.22,0.22,184900,0.22
2010-01-12,0.22,0.22,0.215,0.215,99600,0.215
2010-01-13,0.21,0.21,0.205,0.21,114000,0.21
2010-01-14,0.21,0.21,0.2,0.2,185000,0.2
2010-01-15,0.2,0.22,0.2,0.22,66000,0.22
2010-01-18,0.22,0.22,0.22,0.22,60000,0.22
2010-01-19,0.215,0.215,0.21,0.21,30000,0.21
2010-01-20,0.215,0.215,0.215,0.215,16800,0.215
2010-01-21,0.225,0.225,0.215,0.22,438100,0.22
2010-01-22,0.22,0.22,0.21,0.22,253000,0.22
2010-01-25,0.215,0.22,0.215,0.22,224000,0.22
2010-01-26,0.22,0.22,0.22,0.22,0,0.22
2010-01-27,0.22,0.225,0.215,0.215,63800,0.215
2010-01-28,0.22,0.22,0.2,0.22,319000,0.22
2010-01-29,0.215,0.22,0.21,0.21,248000,0.21
2010-02-01,0.21,0.21,0.2,0.2,160400,0.2
2010-02-02,0.2,0.22,0.2,0.22,192300,0.22
2010-02-03,0.205,0.205,0.19,0.19,355600,0.19
2010-02-04,0.195,0.21,0.195,0.21,63600,0.21
2010-02-05,0.185,0.2,0.185,0.2,172800,0.2
2010-02-08,0.2,0.2,0.195,0.195,125000,0.195
2010-02-09,0.2,0.2,0.18,0.18,233900,0.18
2010-02-10,0.19,0.19,0.19,0.19,41000,0.19
2010-02-11,0.175,0.175,0.175,0.175,8500,0.175
2010-02-12,0.185,0.21,0.185,0.205,299600,0.205
2010-02-15,0.21,0.21,0.21,0.21,125000,0.21
2010-02-16,0.2,0.21,0.2,0.21,90200,0.21
2010-02-17,0.2,0.2,0.185,0.19,452800,0.19
2010-02-18,0.19,0.195,0.185,0.185,85400,0.185
2010-02-19,0.185,0.185,0.185,0.185,76000,0.185
2010-02-22,0.195,0.2,0.19,0.19,11500,0.19
2010-02-23,0.185,0.185,0.18,0.18,144900,0.18
2010-02-24,0.185,0.195,0.185,0.19,205000,0.19
2010-02-25,0.19,0.19,0.19,0.19,0,0.19
2010-02-26,0.19,0.2,0.19,0.2,91700,0.2
2010-03-01,0.205,0.205,0.2,0.2,40000,0.2
2010-03-02,0.205,0.21,0.2,0.21,31000,0.21
2010-03-03,0.21,0.21,0.21,0.21,10000,0.21
2010-03-04,0.21,0.21,0.21,0.21,9300,0.21
2010-03-05,0.2,0.2,0.185,0.19,122000,0.19
2010-03-08,0.19,0.19,0.19,0.19,0,0.19
2010-03-09,0.185,0.185,0.185,0.185,40000,0.185
2010-03-10,0.185,0.19,0.18,0.19,270000,0.19
2010-03-11,0.185,0.185,0.18,0.18,45500,0.18
2010-03-12,0.18,0.18,0.18,0.18,0,0.18
2010-03-15,0.18,0.185,0.18,0.185,110000,0.185
2010-03-16,0.19,0.19,0.19,0.19,68000,0.19
2010-03-17,0.195,0.195,0.19,0.19,157000,0.19
2010-03-18,0.19,0.19,0.185,0.185,151100,0.185
2010-03-19,0.185,0.19,0.185,0.19,131500,0.19
2010-03-22,0.18,0.18,0.18,0.18,25000,0.18
2010-03-23,0.175,0.175,0.17,0.17,76000,0.17
2010-03-24,0.17,0.17,0.17,0.17,0,0.17
2010-03-25,0.18,0.22,0.18,0.22,720800,0.22
2010-03-26,0.22,0.22,0.195,0.195,610700,0.195
2010-03-29,0.195,0.195,0.195,0.195,50000,0.195
2010-03-30,0.19,0.21,0.19,0.21,102700,0.21
2010-03-31,0.21,0.21,0.21,0.21,0,0.21
2010-04-01,0.19,0.19,0.185,0.185,50000,0.185
2010-04-02,0.185,0.185,0.185,0.185,0,0.185
2010-04-05,0.185,0.185,0.185,0.185,0,0.185
2010-04-06,0.2,0.2,0.185,0.185,264600,0.185
2010-04-07,0.185,0.185,0.185,0.185,0,0.185
2010-04-08,0.19,0.195,0.175,0.175,198100,0.175
2010-04-09,0.175,0.2,0.175,0.2,136800,0.2
2010-04-12,0.18,0.19,0.18,0.19,143000,0.19
2010-04-13,0.185,0.19,0.18,0.185,441000,0.185
2010-04-14,0.185,0.185,0.185,0.185,50000,0.185
2010-04-15,0.19,0.19,0.18,0.18,218300,0.18
2010-04-16,0.185,0.195,0.18,0.18,80900,0.18
2010-04-19,0.18,0.19,0.18,0.19,86500,0.19
2010-04-20,0.19,0.195,0.19,0.195,150900,0.195
2010-04-21,0.195,0.205,0.175,0.18,191600,0.18
2010-04-22,0.185,0.185,0.185,0.185,30000,0.185
2010-04-23,0.195,0.195,0.195,0.195,4200,0.195
2010-04-26,0.195,0.195,0.195,0.195,0,0.195
2010-04-27,0.195,0.195,0.185,0.185,57000,0.185
2010-04-28,0.185,0.185,0.175,0.175,254300,0.175
2010-04-29,0.17,0.17,0.17,0.17,35100,0.17
2010-04-30,0.17,0.185,0.17,0.18,195200,0.18
2010-05-03,0.18,0.18,0.18,0.18,2500,0.18
2010-05-04,0.18,0.185,0.18,0.18,95800,0.18
2010-05-05,0.18,0.18,0.17,0.17,8200,0.17
2010-05-06,0.17,0.17,0.17,0.17,0,0.17
2010-05-07,0.16,0.16,0.155,0.16,54000,0.16
2010-05-10,0.16,0.16,0.15,0.16,259000,0.16
2010-05-11,0.165,0.165,0.16,0.16,55000,0.16
2010-05-12,0.15,0.15,0.15,0.15,20000,0.15
2010-05-13,0.16,0.16,0.16,0.16,6300,0.16
2010-05-14,0.16,0.16,0.16,0.16,0,0.16
2010-05-17,0.16,0.16,0.16,0.16,10000,0.16
2010-05-18,0.16,0.16,0.16,0.16,5200,0.16
2010-05-19,0.15,0.15,0.15,0.15,16500,0.15
2010-05-20,0.15,0.15,0.15,0.15,0,0.15
2010-05-21,0.125,0.14,0.125,0.135,155800,0.135
2010-05-24,0.135,0.135,0.125,0.125,89300,0.125
2010-05-25,0.13,0.13,0.13,0.13,114600,0.13
2010-05-26,0.13,0.13,0.125,0.125,220300,0.125
2010-05-27,0.125,0.125,0.125,0.125,126200,0.125
2010-05-28,0.13,0.13,0.12,0.12,111600,0.12
2010-05-31,0.13,0.15,0.13,0.135,309000,0.135
2010-06-01,0.13,0.14,0.13,0.14,25000,0.14
2010-06-02,0.125,0.125,0.115,0.125,429300,0.125
2010-06-03,0.125,0.125,0.125,0.125,25400,0.125
2010-06-04,0.13,0.13,0.13,0.13,20000,0.13
2010-06-07,0.125,0.14,0.125,0.14,69500,0.14
2010-06-08,0.12,0.12,0.12,0.12,20000,0.12
2010-06-09,0.13,0.13,0.125,0.125,39500,0.125
2010-06-10,0.125,0.125,0.125,0.125,0,0.125
2010-06-11,0.13,0.135,0.12,0.125,272300,0.125
2010-06-14,0.125,0.125,0.125,0.125,0,0.125
2010-06-15,0.125,0.125,0.125,0.125,3600,0.125
2010-06-16,0.125,0.125,0.12,0.12,264400,0.12
2010-06-17,0.125,0.13,0.125,0.13,53900,0.13
2010-06-18,0.125,0.125,0.12,0.125,94500,0.125
2010-06-21,0.12,0.12,0.12,0.12,32000,0.12
2010-06-22,0.115,0.115,0.09,0.1,422300,0.1
2010-06-23,0.11,0.11,0.105,0.11,29000,0.11
2010-06-24,0.11,0.11,0.11,0.11,4100,0.11
2010-06-25,0.105,0.105,0.09,0.09,279100,0.09
2010-06-28,0.09,0.095,0.09,0.095,231000,0.095
2010-06-29,0.095,0.105,0.09300000000000001,0.105,835000,0.105
2010-06-30,0.105,0.105,0.096,0.105,261000,0.105
2010-07-01,0.11,0.11,0.105,0.105,114100,0.105
2010-07-02,0.105,0.105,0.105,0.105,0,0.105
2010-07-05,0.105,0.105,0.105,0.105,0,0.105
2010-07-06,0.1,0.1,0.096,0.1,132600,0.1
2010-07-07,0.09699999999999999,0.098,0.096,0.098,79000,0.098
2010-07-08,0.1,0.1,0.1,0.1,5000,0.1
2010-07-09,0.096,0.105,0.096,0.105,143800,0.105
2010-07-12,0.1,0.1,0.095,0.095,15000,0.095
2010-07-13,0.095,0.09699999999999999,0.095,0.095,97700,0.095
2010-07-14,0.095,0.095,0.092,0.095,194300,0.095
2010-07-15,0.091,0.091,0.091,0.091,87800,0.091
2010-07-16,0.091,0.091,0.091,0.091,77500,0.091
2010-07-19,0.091,0.091,0.091,0.091,2100,0.091
2010-07-20,0.09,0.09,0.086,0.086,81000,0.086
2010-07-21,0.085,0.091,0.085,0.091,115600,0.091
2010-07-22,0.092,0.092,0.092,0.092,47600,0.092
2010-07-23,0.092,0.09300000000000001,0.092,0.092,150200,0.092
2010-07-26,0.092,0.09300000000000001,0.092,0.092,74600,0.092
2010-07-27,0.098,0.11,0.098,0.105,327500,0.105
2010-07-28,0.115,0.13,0.115,0.12,457400,0.12
2010-07-29,0.12,0.12,0.12,0.12,50000,0.12
2010-07-30,0.125,0.125,0.125,0.125,100000,0.125
2010-08-02,0.125,0.125,0.125,0.125,0,0.125
2010-08-03,0.125,0.125,0.125,0.125,47000,0.125
2010-08-04,0.12,0.12,0.11,0.12,240000,0.12
2010-08-05,0.11,0.11,0.11,0.11,30000,0.11
2010-08-06,0.115,0.12,0.115,0.12,20000,0.12
2010-08-09,0.125,0.125,0.125,0.125,5800,0.125
2010-08-10,0.12,0.12,0.12,0.12,30000,0.12
2010-08-11,0.12,0.12,0.12,0.12,65000,0.12
2010-08-12,0.12,0.12,0.12,0.12,0,0.12
2010-08-13,0.12,0.12,0.12,0.12,5500,0.12
2010-08-16,0.125,0.15,0.12,0.14,100000,0.14
2010-08-17,0.14,0.14,0.135,0.14,250000,0.14
2010-08-18,0.145,0.15,0.135,0.135,255000,0.135
2010-08-19,0.14,0.14,0.135,0.135,152000,0.135
2010-08-20,0.135,0.145,0.135,0.145,136000,0.145
2010-08-23,0.145,0.145,0.145,0.145,0,0.145
2010-08-24,0.145,0.15,0.145,0.145,325000,0.145
2010-08-25,0.145,0.145,0.14,0.14,51400,0.14
2010-08-26,0.14,0.14,0.135,0.135,67300,0.135
2010-08-27,0.13,0.13,0.13,0.13,44600,0.13
2010-08-30,0.13,0.13,0.13,0.13,65900,0.13
2010-08-31,0.13,0.13,0.13,0.13,34000,0.13
2010-09-01,0.13,0.13,0.13,0.13,0,0.13
2010-09-02,0.125,0.125,0.125,0.125,0,0.125
2010-09-03,0.125,0.125,0.125,0.125,0,0.125
2010-09-06,0.13,0.13,0.13,0.13,49700,0.13
2010-09-07,0.135,0.135,0.135,0.135,3800,0.135
2010-09-08,0.13,0.13,0.12,0.13,250000,0.13
2010-09-09,0.135,0.14,0.135,0.14,229700,0.14
2010-09-10,0.145,0.15,0.135,0.15,447300,0.15
2010-09-13,0.15,0.175,0.15,0.175,360900,0.175
2010-09-14,0.175,0.175,0.165,0.17,305500,0.17
2010-09-15,0.165,0.19,0.165,0.18,555000,0.18
2010-09-16,0.185,0.19,0.17,0.18,292800,0.18
2010-09-17,0.185,0.185,0.175,0.175,502900,0.175
2010-09-20,0.16,0.165,0.16,0.165,166500,0.165
2010-09-21,0.16,0.19,0.16,0.16,437800,0.16
2010-09-22,0.17,0.17,0.165,0.165,290000,0.165
2010-09-23,0.17,0.17,0.165,0.17,450000,0.17
2010-09-24,0.165,0.165,0.16,0.16,146600,0.16
2010-09-27,0.17,0.17,0.17,0.17,8800,0.17
2010-09-28,0.16,0.16,0.16,0.16,18900,0.16
2010-09-29,0.165,0.18,0.165,0.18,383000,0.18
2010-09-30,0.185,0.205,0.18,0.185,697600,0.185
2010-10-01,0.185,0.185,0.185,0.185,25000,0.185
2010-10-04,0.19,0.2,0.19,0.2,385500,0.2
2010-10-05,0.19,0.19,0.19,0.19,15500,0.19
2010-10-06,0.19,0.195,0.185,0.185,230000,0.185
2010-10-07,0.19,0.19,0.19,0.19,15000,0.19
2010-10-08,0.195,0.205,0.195,0.2,906100,0.2
2010-10-11,0.205,0.21,0.2,0.205,317100,0.205
2010-10-12,0.2,0.2,0.195,0.195,173100,0.195
2010-10-13,0.195,0.195,0.19,0.19,551100,0.19
2010-10-14,0.195,0.195,0.19,0.19,76700,0.19
2010-10-15,0.19,0.21,0.19,0.21,1231800,0.21
2010-10-18,0.21,0.21,0.205,0.21,220500,0.21
2010-10-19,0.205,0.205,0.205,0.205,12700,0.205
2010-10-20,0.19,0.205,0.18,0.205,255900,0.205
2010-10-21,0.205,0.205,0.2,0.2,25000,0.2
2010-10-22,0.2,0.2,0.19,0.195,64000,0.195
2010-10-25,0.195,0.195,0.18,0.18,415600,0.18
2010-10-26,0.185,0.21,0.185,0.21,140900,0.21
2010-10-27,0.2,0.2,0.195,0.2,136900,0.2
2010-10-28,0.195,0.195,0.195,0.195,39800,0.195
2010-10-29,0.195,0.195,0.195,0.195,0,0.195
2010-11-01,0.17,0.17,0.15,0.17,93200,0.17
2010-11-02,0.175,0.175,0.175,0.175,107000,0.175
2010-11-03,0.16,0.175,0.16,0.175,323500,0.175
2010-11-04,0.175,0.175,0.16,0.16,64900,0.16
2010-11-05,0.16,0.16,0.16,0.16,0,0.16
2010-11-08,0.175,0.175,0.16,0.16,181300,0.16
2010-11-09,0.16,0.16,0.16,0.16,150000,0.16
2010-11-10,0.16,0.16,0.16,0.16,0,0.16
2010-11-11,0.16,0.16,0.15,0.16,93500,0.16
2010-11-12,0.155,0.155,0.155,0.155,62500,0.155
2010-11-15,0.16,0.16,0.155,0.16,223800,0.16
2010-11-16,0.175,0.175,0.16,0.165,103600,0.165
2010-11-17,0.165,0.165,0.16,0.165,145300,0.165
2010-11-18,0.165,0.165,0.155,0.16,82500,0.16
2010-11-19,0.16,0.16,0.16,0.16,0,0.16
2010-11-22,0.165,0.165,0.165,0.165,76000,0.165
2010-11-23,0.165,0.165,0.165,0.165,2000,0.165
2010-11-24,0.16,0.16,0.15,0.15,194000,0.15
2010-11-25,0.165,0.18,0.165,0.18,105500,0.18
2010-11-26,0.18,0.18,0.18,0.18,0,0.18
2010-11-29,0.18,0.18,0.18,0.18,0,0.18
2010-11-30,0.155,0.155,0.155,0.155,5500,0.155
2010-12-01,0.155,0.155,0.14,0.14,15000,0.14
2010-12-02,0.15,0.16,0.14,0.14,191700,0.14
2010-12-03,0.14,0.14,0.13,0.13,172300,0.13
2010-12-06,0.135,0.135,0.13,0.13,30300,0.13
2010-12-07,0.125,0.15,0.125,0.145,137600,0.145
2010-12-08,0.145,0.145,0.145,0.145,3500,0.145
2010-12-09,0.145,0.145,0.14,0.145,150000,0.145
2010-12-10,0.13,0.15,0.13,0.15,102600,0.15
2010-12-13,0.15,0.15,0.15,0.15,0,0.15
2010-12-14,0.15,0.15,0.15,0.15,0,0.15
2010-12-15,0.14,0.145,0.14,0.145,196700,0.145
2010-12-16,0.15,0.16,0.14,0.14,384800,0.14
2010-12-17,0.14,0.14,0.13,0.13,110000,0.13
2010-12-20,0.13,0.13,0.13,0.13,0,0.13
2010-12-21,0.13,0.13,0.13,0.13,62800,0.13
2010-12-22,0.13,0.13,0.13,0.13,56300,0.13
2010-12-23,0.13,0.13,0.13,0.13,0,0.13
2010-12-24,0.13,0.13,0.13,0.13,0,0.13
2010-12-27,0.13,0.13,0.13,0.13,0,0.13
2010-12-28,0.13,0.13,0.13,0.13,0,0.13
2010-12-30,0.135,0.135,0.13,0.13,63000,0.13
2011-01-05,0.13,0.14,0.13,0.14,90000,0.14
2011-01-07,0.14,0.16,0.14,0.16,472800,0.16
2011-01-10,0.16,0.165,0.155,0.155,323600,0.155
2011-01-11,0.155,0.155,0.15,0.15,133500,0.15
2011-01-12,0.14,0.14,0.14,0.14,26500,0.14
2011-01-13,0.14,0.15,0.14,0.15,1056900,0.15
2011-01-14,0.145,0.15,0.14,0.15,251400,0.15
2011-01-17,0.145,0.155,0.145,0.15,500000,0.15
2011-01-18,0.15,0.15,0.145,0.145,76400,0.145
2011-01-19,0.145,0.145,0.145,0.145,15000,0.145
2011-01-20,0.145,0.145,0.14,0.14,58300,0.14
2011-01-21,0.14,0.14,0.14,0.14,55000,0.14
2011-01-24,0.135,0.135,0.135,0.135,260000,0.135
2011-01-27,0.135,0.135,0.135,0.135,2200,0.135
2011-01-28,0.13,0.13,0.13,0.13,150000,0.13
2011-01-31,0.13,0.13,0.125,0.13,192400,0.13
2011-02-01,0.13,0.135,0.125,0.125,227400,0.125
2011-02-02,0.13,0.135,0.13,0.135,457300,0.135
2011-02-03,0.13,0.13,0.13,0.13,158800,0.13
2011-02-04,0.13,0.135,0.13,0.13,168600,0.13
2011-02-07,0.13,0.13,0.13,0.13,40000,0.13
2011-02-09,0.13,0.13,0.12,0.125,210000,0.125
2011-02-10,0.125,0.125,0.12,0.12,348300,0.12
2011-02-11,0.12,0.12,0.12,0.12,665300,0.12
2011-02-15,0.13,0.135,0.13,0.135,133600,0.135
2011-02-16,0.135,0.135,0.13,0.13,316400,0.13
2011-02-17,0.13,0.135,0.125,0.135,195800,0.135
2011-02-18,0.135,0.135,0.13,0.13,211000,0.13
2011-02-21,0.135,0.135,0.13,0.13,254800,0.13
2011-02-22,0.135,0.14,0.13,0.13,465700,0.13
2011-02-24,0.13,0.13,0.12,0.12,116300,0.12
2011-02-25,0.135,0.14,0.135,0.14,97500,0.14
2011-02-28,0.14,0.14,0.125,0.125,88000,0.125
2011-03-01,0.125,0.125,0.125,0.125,45000,0.125
2011-03-02,0.135,0.135,0.135,0.135,9000,0.135
2011-03-03,0.13,0.13,0.12,0.12,30000,0.12
2011-03-04,0.125,0.125,0.12,0.125,45700,0.125
2011-03-07,0.13,0.13,0.12,0.12,187200,0.12
2011-03-08,0.12,0.125,0.12,0.125,25000,0.125
2011-03-09,0.13,0.13,0.13,0.13,10000,0.13
2011-03-10,0.13,0.13,0.125,0.125,80000,0.125
2011-03-14,0.125,0.13,0.125,0.13,129000,0.13
2011-03-15,0.13,0.13,0.12,0.12,279100,0.12
2011-03-16,0.115,0.12,0.115,0.12,47600,0.12
2011-03-18,0.12,0.12,0.12,0.12,15000,0.12
2011-03-21,0.115,0.115,0.09,0.09,53300,0.09
2011-03-22,0.12,0.13,0.12,0.13,315000,0.13
2011-03-28,0.12,0.12,0.1,0.105,558000,0.105
2011-03-29,0.115,0.115,0.115,0.115,14500,0.115
2011-03-30,0.115,0.115,0.105,0.105,83500,0.105
2011-03-31,0.1,0.1,0.09,0.09,1335300,0.09
2011-04-01,0.091,0.091,0.083,0.083,295500,0.083
2011-04-04,0.083,0.09,0.083,0.09,259400,0.09
2011-04-05,0.09300000000000001,0.096,0.09300000000000001,0.096,384600,0.096
2011-04-06,0.09300000000000001,0.096,0.09300000000000001,0.096,231900,0.096
2011-04-07,0.099,0.1,0.099,0.1,55500,0.1
2011-04-08,0.098,0.1,0.098,0.1,165600,0.1
2011-04-11,0.1,0.1,0.09699999999999999,0.09699999999999999,81800,0.09699999999999999
2011-04-12,0.09699999999999999,0.09699999999999999,0.09699999999999999,0.09699999999999999,100500,0.09699999999999999
2011-04-13,0.091,0.105,0.09,0.105,127800,0.105
2011-04-15,0.1,0.11,0.09,0.105,430700,0.105
2011-04-18,0.091,0.092,0.091,0.092,113600,0.092
2011-04-19,0.092,0.092,0.092,0.092,2000,0.092
2011-04-20,0.092,0.095,0.092,0.095,154900,0.095
2011-04-21,0.095,0.095,0.095,0.095,8500,0.095
2011-04-27,0.09300000000000001,0.09300000000000001,0.09300000000000001,0.09300000000000001,70000,0.09300000000000001
2011-04-28,0.09300000000000001,0.09300000000000001,0.092,0.092,33200,0.092
2011-05-02,0.092,0.092,0.09,0.09,233500,0.09
2011-05-04,0.09,0.09,0.09,0.09,6000,0.09
2011-05-06,0.087,0.087,0.087,0.087,30000,0.087
2011-05-11,0.08199999999999999,0.08199999999999999,0.078,0.078,132400,0.078
2011-05-13,0.078,0.078,0.078,0.078,12500,0.078
2011-05-16,0.073,0.073,0.071,0.07200000000000001,261100,0.07200000000000001
2011-05-17,0.07200000000000001,0.07200000000000001,0.07200000000000001,0.07200000000000001,30800,0.07200000000000001
2011-05-18,0.073,0.073,0.07200000000000001,0.07200000000000001,129000,0.07200000000000001
2011-05-19,0.071,0.07200000000000001,0.071,0.07200000000000001,200000,0.07200000000000001
2011-05-20,0.071,0.07200000000000001,0.069,0.069,255900,0.069
2011-05-23,0.07,0.07200000000000001,0.07,0.071,168000,0.071
2011-05-24,0.07200000000000001,0.07200000000000001,0.07,0.07200000000000001,116400,0.07200000000000001
2011-05-25,0.071,0.071,0.071,0.071,10000,0.071
2011-05-30,0.069,0.069,0.069,0.069,52500,0.069
2011-05-31,0.069,0.071,0.069,0.071,1391500,0.071
2011-06-01,0.069,0.069,0.069,0.069,20000,0.069
2011-06-07,0.067,0.067,0.067,0.067,23000,0.067
2011-06-08,0.067,0.069,0.067,0.069,47000,0.069
2011-06-09,0.065,0.065,0.065,0.065,40000,0.065
2011-06-10,0.065,0.065,0.062,0.065,70500,0.065
2011-06-14,0.063,0.063,0.063,0.063,46000,0.063
2011-06-16,0.063,0.063,0.063,0.063,6500,0.063
2011-06-20,0.06,0.06,0.047,0.048,38800,0.048
2011-06-21,0.051,0.051,0.051,0.051,20000,0.051
2011-06-23,0.051,0.051,0.051,0.051,10000,0.051
2011-06-24,0.057,0.057,0.057,0.057,100000,0.057
2011-06-27,0.05,0.05,0.05,0.05,31500,0.05
2011-06-28,0.052000000000000005,0.052000000000000005,0.052000000000000005,0.052000000000000005,100000,0.052000000000000005
2011-06-29,0.052000000000000005,0.052000000000000005,0.05,0.05,150000,0.05
2011-06-30,0.05,0.05,0.045,0.05,260100,0.05
2011-07-04,0.051,0.051,0.051,0.051,100000,0.051
2011-07-07,0.052000000000000005,0.052000000000000005,0.052000000000000005,0.052000000000000005,25800,0.052000000000000005
2011-07-11,0.052000000000000005,0.052000000000000005,0.052000000000000005,0.052000000000000005,88400,0.052000000000000005
2011-07-12,0.052000000000000005,0.052000000000000005,0.05,0.05,485800,0.05
2011-07-14,0.048,0.048,0.048,0.048,73800,0.048
2011-07-15,0.048,0.048,0.047,0.047,400000,0.047
2011-07-20,0.048,0.048,0.048,0.048,100000,0.048
2011-07-21,0.051,0.051,0.048,0.051,138700,0.051
2011-07-26,0.051,0.051,0.051,0.051,3000,0.051
2011-07-27,0.051,0.051,0.051,0.051,13700,0.051
2011-07-28,0.053,0.053,0.049,0.049,149400,0.049
2011-07-29,0.049,0.049,0.049,0.049,151600,0.049
2011-08-01,0.049,0.049,0.049,0.049,25300,0.049
2011-08-02,0.05,0.05,0.05,0.05,83400,0.05
2011-08-05,0.05,0.05,0.046,0.046,30000,0.046
2011-08-08,0.046,0.046,0.046,0.046,4600,0.046
2011-08-09,0.046,0.046,0.046,0.046,79300,0.046
2011-08-10,0.046,0.046,0.046,0.046,300000,0.046
2011-08-11,0.046,0.046,0.044000000000000004,0.044000000000000004,260000,0.044000000000000004
2011-08-12,0.046,0.048,0.046,0.048,65100,0.048
2011-08-15,0.052000000000000005,0.052000000000000005,0.052000000000000005,0.052000000000000005,44800,0.052000000000000005
2011-08-16,0.05,0.05,0.046,0.049,203700,0.049
2011-08-17,0.049,0.049,0.049,0.049,30400,0.049
2011-08-18,0.049,0.049,0.048,0.048,138400,0.048
2011-08-19,0.05,0.05,0.048,0.048,370000,0.048
2011-08-22,0.05,0.05,0.047,0.048,128000,0.048
2011-08-23,0.047,0.048,0.047,0.048,167300,0.048
2011-08-24,0.05,0.052000000000000005,0.047,0.047,453600,0.047
2011-08-26,0.045,0.047,0.044000000000000004,0.047,280000,0.047
2011-08-29,0.049,0.052000000000000005,0.048,0.048,166400,0.048
2011-08-30,0.048,0.05,0.047,0.047,155000,0.047
2011-08-31,0.047,0.047,0.047,0.047,170000,0.047
2011-09-01,0.048,0.048,0.048,0.048,25000,0.048
2011-09-05,0.05,0.05,0.05,0.05,100000,0.05
2011-09-07,0.05,0.05,0.05,0.05,3900,0.05
2011-09-08,0.05,0.05,0.05,0.05,10000,0.05
2011-09-14,0.055,0.057,0.055,0.057,100000,0.057
2011-09-15,0.055999999999999994,0.055999999999999994,0.055999999999999994,0.055999999999999994,25000,0.055999999999999994
2011-09-16,0.057,0.057999999999999996,0.057,0.057999999999999996,310000,0.057999999999999996
2011-09-19,0.059000000000000004,0.059000000000000004,0.059000000000000004,0.059000000000000004,220000,0.059000000000000004
2011-09-20,0.06,0.06,0.06,0.06,40000,0.06
2011-09-21,0.055999999999999994,0.055999999999999994,0.055999999999999994,0.055999999999999994,88400,0.055999999999999994
2011-09-22,0.055,0.055,0.055,0.055,180000,0.055
2011-09-26,0.052000000000000005,0.052000000000000005,0.048,0.048,163400,0.048
2011-09-29,0.048,0.048,0.048,0.048,100000,0.048
2011-10-04,0.045,0.045,0.045,0.045,80000,0.045
2011-10-13,0.045,0.045,0.045,0.045,3200,0.045
2011-10-24,0.045,0.045,0.045,0.045,35000,0.045
2011-10-31,0.046,0.046,0.046,0.046,18200,0.046
2011-11-03,0.046,0.046,0.046,0.046,175000,0.046
2011-11-10,0.046,0.046,0.042,0.042,132600,0.042
2011-11-16,0.042,0.042,0.042,0.042,100000,0.042
2011-11-17,0.042,0.042,0.042,0.042,0,0.042
2011-11-18,0.042,0.042,0.042,0.042,0,0.042
2011-11-21,0.042,0.042,0.040999999999999995,0.040999999999999995,77500,0.040999999999999995
2011-11-22,0.043,0.043,0.043,0.043,100000,0.043
2011-11-23,0.043,0.043,0.043,0.043,26700,0.043
2011-11-24,0.043,0.043,0.043,0.043,0,0.043
2011-11-25,0.043,0.043,0.043,0.043,0,0.043
2011-11-28,0.043,0.043,0.043,0.043,0,0.043
2011-11-29,0.043,0.043,0.043,0.043,0,0.043
2011-11-30,0.043,0.043,0.043,0.043,0,0.043
2011-12-01,0.043,0.043,0.043,0.043,0,0.043
2011-12-02,0.043,0.043,0.043,0.043,0,0.043
2011-12-05,0.043,0.043,0.043,0.043,0,0.043
2011-12-06,0.043,0.043,0.043,0.043,0,0.043
2011-12-07,0.043,0.043,0.043,0.043,0,0.043
2011-12-08,0.043,0.043,0.043,0.043,0,0.043
2011-12-09,0.043,0.043,0.043,0.043,0,0.043
2011-12-12,0.043,0.043,0.043,0.043,0,0.043
2011-12-13,0.043,0.043,0.043,0.043,0,0.043
2011-12-14,0.043,0.043,0.043,0.043,0,0.043
2011-12-15,0.043,0.043,0.043,0.043,0,0.043
2011-12-16,0.043,0.043,0.043,0.043,0,0.043
2011-12-19,0.043,0.043,0.043,0.043,0,0.043
2011-12-20,0.043,0.043,0.043,0.043,0,0.043
2011-12-21,0.043,0.043,0.043,0.043,0,0.043
2011-12-22,0.043,0.043,0.043,0.043,0,0.043
2011-12-23,0.03,0.03,0.03,0.03,43000,0.03
2011-12-26,0.043,0.043,0.043,0.043,0,0.043
2011-12-27,0.043,0.043,0.043,0.043,0,0.043
2011-12-28,0.043,0.043,0.043,0.043,0,0.043
2011-12-29,0.043,0.043,0.043,0.043,0,0.043
2011-12-30,0.043,0.043,0.043,0.043,0,0.043
2012-01-02,0.043,0.043,0.043,0.043,0,0.043
2012-01-03,0.032,0.032,0.032,0.032,304200,0.032
2012-01-04,0.032,0.032,0.032,0.032,0,0.032
2012-01-05,0.032,0.032,0.032,0.032,0,0.032
2012-01-06,0.032,0.032,0.032,0.032,0,0.032
2012-01-09,0.032,0.032,0.032,0.032,0,0.032
2012-01-10,0.032,0.032,0.032,0.032,0,0.032
2012-01-11,0.032,0.032,0.032,0.032,0,0.032
2012-01-12,0.032,0.032,0.032,0.032,0,0.032
2012-01-13,0.032,0.032,0.032,0.032,0,0.032
2012-01-16,0.032,0.032,0.032,0.032,0,0.032
2012-01-17,0.032,0.032,0.028999999999999998,0.028999999999999998,420000,0.028999999999999998
2012-01-18,0.028999999999999998,0.028999999999999998,0.028999999999999998,0.028999999999999998,0,0.028999999999999998
2012-01-19,0.028999999999999998,0.028999999999999998,0.028999999999999998,0.028999999999999998,0,0.028999999999999998
2012-01-20,0.027999999999999997,0.027999999999999997,0.027999999999999997,0.027999999999999997,55700,0.027999999999999997
2012-01-23,0.027999999999999997,0.027999999999999997,0.027999999999999997,0.027999999999999997,0,0.027999999999999997
2012-01-24,0.027999999999999997,0.027999999999999997,0.027999999999999997,0.027999999999999997,0,0.027999999999999997
2012-01-25,0.027999999999999997,0.027999999999999997,0.027999999999999997,0.027999999999999997,19000,0.027999999999999997
2012-01-26,0.027999999999999997,0.027999999999999997,0.027999999999999997,0.027999999999999997,0,0.027999999999999997
2012-01-27,0.027999999999999997,0.027999999999999997,0.027999999999999997,0.027999999999999997,0,0.027999999999999997
2012-01-31,0.027999999999999997,0.027999999999999997,0.027999999999999997,0.027999999999999997,0,0.027999999999999997
2012-02-01,0.027999999999999997,0.027999999999999997,0.027999999999999997,0.027999999999999997,0,0.027999999999999997
2012-02-02,0.03,0.03,0.03,0.03,41000,0.03
2012-02-03,0.03,0.03,0.03,0.03,0,0.03
2012-02-06,0.027999999999999997,0.027999999999999997,0.027000000000000003,0.027999999999999997,139700,0.027999999999999997
2012-02-07,0.027999999999999997,0.027999999999999997,0.027999999999999997,0.027999999999999997,50000,0.027999999999999997
2012-02-08,0.027999999999999997,0.027999999999999997,0.027999999999999997,0.027999999999999997,0,0.027999999999999997
2012-02-09,0.027999999999999997,0.027999999999999997,0.027999999999999997,0.027999999999999997,0,0.027999999999999997
2012-02-10,0.027999999999999997,0.027999999999999997,0.027999999999999997,0.027999999999999997,0,0.027999999999999997
2012-02-13,0.027999999999999997,0.027999999999999997,0.027999999999999997,0.027999999999999997,0,0.027999999999999997
2012-02-14,0.027999999999999997,0.027999999999999997,0.027999999999999997,0.027999999999999997,0,0.027999999999999997
2012-02-15,0.027999999999999997,0.027999999999999997,0.027999999999999997,0.027999999999999997,0,0.027999999999999997
2012-02-16,0.027999999999999997,0.027999999999999997,0.027999999999999997,0.027999999999999997,0,0.027999999999999997
2012-02-17,0.032,0.032,0.032,0.032,157500,0.032
2012-02-20,0.032,0.032,0.032,0.032,0,0.032
2012-02-21,0.032,0.032,0.032,0.032,0,0.032
2012-02-22,0.032,0.032,0.032,0.032,0,0.032
2012-02-23,0.032,0.032,0.032,0.032,0,0.032
2012-02-24,0.032,0.032,0.032,0.032,0,0.032
2012-02-27,0.028999999999999998,0.028999999999999998,0.027999999999999997,0.027999999999999997,350000,0.027999999999999997
2012-02-28,0.027999999999999997,0.027999999999999997,0.027999999999999997,0.027999999999999997,0,0.027999999999999997
2012-02-29,0.027999999999999997,0.027999999999999997,0.027999999999999997,0.027999999999999997,0,0.027999999999999997
2012-03-01,0.028999999999999998,0.028999999999999998,0.028999999999999998,0.028999999999999998,27400,0.028999999999999998
2012-03-02,0.028999999999999998,0.028999999999999998,0.028999999999999998,0.028999999999999998,0,0.028999999999999998
2012-03-05,0.028999999999999998,0.028999999999999998,0.028999999999999998,0.028999999999999998,0,0.028999999999999998
2012-03-06,0.028999999999999998,0.028999999999999998,0.028999999999999998,0.028999999999999998,0,0.028999999999999998
2012-03-07,0.028999999999999998,0.028999999999999998,0.028999999999999998,0.028999999999999998,0,0.028999999999999998
2012-03-08,0.028999999999999998,0.028999999999999998,0.028999999999999998,0.028999999999999998,0,0.028999999999999998
2012-03-09,0.028999999999999998,0.028999999999999998,0.028999999999999998,0.028999999999999998,0,0.028999999999999998
2012-03-12,0.028999999999999998,0.028999999999999998,0.028999999999999998,0.028999999999999998,0,0.028999999999999998
2012-03-13,0.028999999999999998,0.028999999999999998,0.028999999999999998,0.028999999999999998,0,0.028999999999999998
2012-03-14,0.028999999999999998,0.028999999999999998,0.028999999999999998,0.028999999999999998,0,0.028999999999999998
2012-03-15,0.028999999999999998,0.028999999999999998,0.028999999999999998,0.028999999999999998,0,0.028999999999999998
2012-03-16,0.028999999999999998,0.035,0.028999999999999998,0.034,510000,0.034
2012-03-19,0.031,0.035,0.031,0.035,2010000,0.035
2012-03-20,0.036000000000000004,0.036000000000000004,0.036000000000000004,0.036000000000000004,773200,0.036000000000000004
2012-03-21,0.036000000000000004,0.036000000000000004,0.036000000000000004,0.036000000000000004,326700,0.036000000000000004
2012-03-22,0.036000000000000004,0.036000000000000004,0.036000000000000004,0.036000000000000004,0,0.036000000000000004
2012-03-23,0.036000000000000004,0.036000000000000004,0.036000000000000004,0.036000000000000004,0,0.036000000000000004
2012-03-26,0.04,0.04,0.04,0.04,75000,0.04
2012-03-27,0.04,0.04,0.04,0.04,0,0.04
2012-03-28,0.04,0.04,0.04,0.04,0,0.04
2012-03-29,0.04,0.04,0.04,0.04,0,0.04
2012-03-30,0.05,0.05,0.05,0.05,55000,0.05
2012-04-02,0.047,0.047,0.042,0.042,235000,0.042
2012-04-03,0.042,0.042,0.042,0.042,0,0.042
2012-04-04,0.042,0.042,0.042,0.042,0,0.042
2012-04-05,0.043,0.043,0.043,0.043,582500,0.043
2012-04-06,0.043,0.043,0.043,0.043,0,0.043
2012-04-09,0.043,0.043,0.043,0.043,0,0.043
2012-04-10,0.043,0.043,0.043,0.043,1664500,0.043
2012-04-11,0.042,0.042,0.042,0.042,291600,0.042
2012-04-12,0.04,0.043,0.04,0.043,1138300,0.043
2012-04-13,0.040999999999999995,0.042,0.04,0.042,254000,0.042
2012-04-16,0.042,0.042,0.042,0.042,10600,0.042
2012-04-17,0.042,0.042,0.042,0.042,0,0.042
2012-04-18,0.032,0.032,0.032,0.032,136400,0.032
2012-04-19,0.035,0.035,0.035,0.035,100000,0.035
2012-04-20,0.035,0.035,0.035,0.035,0,0.035
2012-04-23,0.034,0.034,0.034,0.034,93000,0.034
2012-04-24,0.034,0.035,0.034,0.035,186100,0.035
2012-04-25,0.035,0.035,0.035,0.035,0,0.035
2012-04-26,0.035,0.035,0.035,0.035,0,0.035
2012-04-27,0.035,0.035,0.035,0.035,0,0.035
2012-04-30,0.035,0.035,0.035,0.035,400000,0.035
2012-05-01,0.035,0.035,0.035,0.035,27300,0.035
2012-05-02,0.037000000000000005,0.04,0.037000000000000005,0.04,450300,0.04
2012-05-03,0.04,0.04,0.04,0.04,11200,0.04
2012-05-04,0.04,0.04,0.04,0.04,34200,0.04
2012-05-07,0.04,0.04,0.04,0.04,0,0.04
2012-05-08,0.042,0.042,0.042,0.042,50000,0.042
2012-05-09,0.04,0.040999999999999995,0.04,0.040999999999999995,450000,0.040999999999999995
2012-05-10,0.042,0.045,0.042,0.045,121000,0.045
2012-05-11,0.045,0.045,0.045,0.045,12500,0.045
2012-05-14,0.045,0.045,0.045,0.045,0,0.045
2012-05-15,0.045,0.045,0.043,0.045,632700,0.045
2012-05-16,0.042,0.042,0.04,0.040999999999999995,1562300,0.040999999999999995
2012-05-17,0.04,0.04,0.04,0.04,200000,0.04
2012-05-18,0.040999999999999995,0.042,0.040999999999999995,0.040999999999999995,399700,0.040999999999999995
2012-05-21,0.040999999999999995,0.040999999999999995,0.04,0.04,500000,0.04
2012-05-22,0.04,0.04,0.04,0.04,0,0.04
2012-05-23,0.04,0.04,0.04,0.04,0,0.04
2012-05-24,0.042,0.042,0.042,0.042,12300,0.042
2012-05-25,0.042,0.042,0.042,0.042,25000,0.042
2012-05-28,0.044000000000000004,0.044000000000000004,0.042,0.042,542600,0.042
2012-05-29,0.040999999999999995,0.040999999999999995,0.04,0.04,457300,0.04
2012-05-30,0.040999999999999995,0.040999999999999995,0.040999999999999995,0.040999999999999995,215300,0.040999999999999995
2012-05-31,0.045,0.045,0.045,0.045,41100,0.045
2012-06-01,0.045,0.045,0.045,0.045,3800,0.045
2012-06-04,0.045,0.045,0.043,0.043,421000,0.043
2012-06-05,0.044000000000000004,0.044000000000000004,0.043,0.044000000000000004,150000,0.044000000000000004
2012-06-06,0.044000000000000004,0.044000000000000004,0.044000000000000004,0.044000000000000004,47000,0.044000000000000004
2012-06-07,0.044000000000000004,0.044000000000000004,0.044000000000000004,0.044000000000000004,25000,0.044000000000000004
2012-06-08,0.044000000000000004,0.044000000000000004,0.044000000000000004,0.044000000000000004,0,0.044000000000000004
2012-06-11,0.044000000000000004,0.044000000000000004,0.044000000000000004,0.044000000000000004,0,0.044000000000000004
2012-06-12,0.045,0.045,0.044000000000000004,0.044000000000000004,226200,0.044000000000000004
2012-06-13,0.043,0.045,0.042,0.042,595900,0.042
2012-06-14,0.042,0.042,0.042,0.042,0,0.042
2012-06-15,0.044000000000000004,0.045,0.044000000000000004,0.045,37000,0.045
2012-06-18,0.045,0.045,0.045,0.045,0,0.045
2012-06-19,0.045,0.045,0.045,0.045,0,0.045
2012-06-20,0.1,0.12,0.08800000000000001,0.09,9479000,0.09
2012-06-21,0.09,0.09,0.075,0.08,1431600,0.08
2012-06-22,0.076,0.076,0.071,0.071,304000,0.071
2012-06-25,0.07400000000000001,0.084,0.07400000000000001,0.08,1279300,0.08
2012-06-26,0.083,0.083,0.073,0.073,605000,0.073
2012-06-27,0.078,0.079,0.07,0.071,562900,0.071
2012-06-28,0.071,0.07400000000000001,0.071,0.07400000000000001,19700,0.07400000000000001
2012-06-29,0.077,0.077,0.07400000000000001,0.076,155200,0.076
2012-07-02,0.08,0.08,0.076,0.08,296800,0.08
2012-07-03,0.08,0.08,0.08,0.08,50000,0.08
2012-07-04,0.08,0.094,0.08,0.08800000000000001,3505000,0.08800000000000001
2012-07-05,0.09,0.09,0.086,0.086,560200,0.086
2012-07-06,0.08900000000000001,0.099,0.08900000000000001,0.09300000000000001,3477200,0.09300000000000001
2012-07-09,0.092,0.098,0.091,0.09300000000000001,2346600,0.09300000000000001
2012-07-10,0.09300000000000001,0.096,0.08800000000000001,0.09,575200,0.09
2012-07-11,0.085,0.087,0.08199999999999999,0.087,567400,0.087
2012-07-12,0.09,0.09,0.083,0.083,391500,0.083
2012-07-13,0.08199999999999999,0.085,0.08,0.085,390500,0.085
2012-07-16,0.083,0.084,0.08,0.08,248300,0.08
2012-07-17,0.083,0.083,0.08,0.08,184400,0.08
2012-07-18,0.081,0.086,0.081,0.086,210500,0.086
2012-07-19,0.08199999999999999,0.08199999999999999,0.08,0.08199999999999999,70700,0.08199999999999999
2012-07-20,0.083,0.083,0.081,0.081,150000,0.081
2012-07-23,0.08,0.08,0.068,0.068,969400,0.068
2012-07-24,0.068,0.068,0.068,0.068,80400,0.068
2012-07-25,0.068,0.068,0.068,0.068,0,0.068
2012-07-26,0.073,0.073,0.073,0.073,6000,0.073
2012-07-27,0.073,0.073,0.07,0.07,127000,0.07
2012-07-30,0.07,0.07,0.07,0.07,24000,0.07
2012-07-31,0.07,0.07,0.07,0.07,0,0.07
2012-08-01,0.07,0.07,0.07,0.07,0,0.07
2012-08-02,0.07,0.07,0.07,0.07,0,0.07
2012-08-03,0.067,0.069,0.065,0.069,103900,0.069
2012-08-06,0.069,0.069,0.062,0.062,174700,0.062
2012-08-07,0.062,0.062,0.062,0.062,0,0.062
2012-08-08,0.06,0.06,0.055,0.055,170000,0.055
2012-08-09,0.057999999999999996,0.057999999999999996,0.057999999999999996,0.057999999999999996,15400,0.057999999999999996
2012-08-10,0.057999999999999996,0.057999999999999996,0.057999999999999996,0.057999999999999996,0,0.057999999999999996
2012-08-13,0.057999999999999996,0.057999999999999996,0.057999999999999996,0.057999999999999996,0,0.057999999999999996
2012-08-14,0.057,0.057,0.055,0.055,205600,0.055
2012-08-15,0.055,0.055,0.05,0.055,177700,0.055
2012-08-16,0.065,0.065,0.06,0.06,33800,0.06
2012-08-17,0.063,0.07200000000000001,0.063,0.071,510500,0.071
2012-08-20,0.07200000000000001,0.075,0.069,0.07200000000000001,1488300,0.07200000000000001
2012-08-21,0.07200000000000001,0.07200000000000001,0.066,0.067,135000,0.067
2012-08-22,0.07,0.07,0.068,0.068,282500,0.068
2012-08-23,0.068,0.068,0.065,0.065,140000,0.065
2012-08-24,0.066,0.07200000000000001,0.065,0.071,281700,0.071
2012-08-27,0.071,0.071,0.069,0.07,218700,0.07
2012-08-28,0.071,0.11,0.071,0.1,14478800,0.1
2012-08-29,0.095,0.12,0.092,0.094,20748100,0.094
2012-08-30,0.095,0.09699999999999999,0.086,0.091,8801400,0.091
2012-08-31,0.091,0.096,0.086,0.08900000000000001,5192300,0.08900000000000001
2012-09-03,0.092,0.095,0.086,0.08800000000000001,1943200,0.08800000000000001
2012-09-04,0.092,0.092,0.079,0.079,1938300,0.079
2012-09-05,0.081,0.087,0.081,0.086,439700,0.086
2012-09-06,0.083,0.085,0.076,0.085,2640400,0.085
2012-09-07,0.085,0.09,0.083,0.08900000000000001,3393600,0.08900000000000001
2012-09-10,0.091,0.091,0.087,0.087,926900,0.087
2012-09-11,0.087,0.092,0.087,0.08800000000000001,965500,0.08800000000000001
2012-09-12,0.09,0.09,0.086,0.086,754100,0.086
2012-09-13,0.085,0.087,0.084,0.087,1015700,0.087
2012-09-14,0.086,0.087,0.085,0.085,1117100,0.085
2012-09-17,0.087,0.09,0.086,0.09,509000,0.09
2012-09-18,0.09,0.092,0.09,0.092,287400,0.092
2012-09-19,0.09,0.09,0.086,0.09,819300,0.09
2012-09-20,0.09,0.092,0.085,0.085,1277300,0.085
2012-09-21,0.086,0.091,0.086,0.09,336800,0.09
2012-09-24,0.08900000000000001,0.08900000000000001,0.08900000000000001,0.08900000000000001,100600,0.08900000000000001
2012-09-25,0.08800000000000001,0.08800000000000001,0.084,0.086,347700,0.086
2012-09-26,0.085,0.085,0.085,0.085,136000,0.085
2012-09-27,0.086,0.086,0.084,0.085,217400,0.085
2012-09-28,0.084,0.08800000000000001,0.083,0.08800000000000001,370500,0.08800000000000001
2012-10-01,0.087,0.091,0.083,0.09,696100,0.09
2012-10-02,0.091,0.1,0.09,0.09,8197500,0.09
2012-10-03,0.09,0.09,0.085,0.085,537500,0.085
2012-10-04,0.087,0.094,0.084,0.085,2188400,0.085
2012-10-05,0.08800000000000001,0.08800000000000001,0.084,0.085,265300,0.085
2012-10-08,0.08800000000000001,0.091,0.087,0.08800000000000001,1370100,0.08800000000000001
2012-10-09,0.092,0.095,0.091,0.09300000000000001,2631900,0.09300000000000001
2012-10-10,0.096,0.105,0.095,0.099,16664000,0.099
2012-10-11,0.099,0.099,0.09300000000000001,0.094,3753500,0.094
2012-10-12,0.095,0.095,0.08900000000000001,0.08900000000000001,2676700,0.08900000000000001
2012-10-15,0.091,0.09300000000000001,0.08800000000000001,0.08800000000000001,322600,0.08800000000000001
2012-10-16,0.095,0.095,0.09,0.095,969400,0.095
2012-10-17,0.092,0.092,0.08900000000000001,0.08900000000000001,1073800,0.08900000000000001
2012-10-18,0.092,0.094,0.09,0.091,782600,0.091
2012-10-19,0.091,0.1,0.08800000000000001,0.08800000000000001,5158700,0.08800000000000001
2012-10-22,0.087,0.087,0.08,0.085,2200900,0.085
2012-10-23,0.081,0.08199999999999999,0.079,0.08199999999999999,189500,0.08199999999999999
2012-10-24,0.083,0.083,0.079,0.079,429500,0.079
2012-10-25,0.08199999999999999,0.08199999999999999,0.078,0.078,244400,0.078
2012-10-26,0.078,0.08199999999999999,0.07400000000000001,0.07400000000000001,240000,0.07400000000000001
2012-10-29,0.07200000000000001,0.079,0.07200000000000001,0.079,800800,0.079
2012-10-30,0.078,0.078,0.076,0.076,398800,0.076
2012-10-31,0.076,0.076,0.07200000000000001,0.07200000000000001,1365800,0.07200000000000001
2012-11-01,0.071,0.073,0.069,0.073,340600,0.073
2012-11-02,0.07,0.071,0.067,0.071,177800,0.071
2012-11-05,0.07,0.071,0.069,0.069,307000,0.069
2012-11-06,0.069,0.069,0.069,0.069,0,0.069
2012-11-07,0.075,0.075,0.075,0.075,79200,0.075
2012-11-08,0.073,0.073,0.07,0.071,398700,0.071
2012-11-09,0.07200000000000001,0.07200000000000001,0.069,0.07,251200,0.07
2012-11-12,0.08,0.08,0.071,0.076,770700,0.076
2012-11-13,0.076,0.084,0.076,0.08199999999999999,775500,0.08199999999999999
2012-11-14,0.08199999999999999,0.083,0.081,0.081,472000,0.081
2012-11-15,0.076,0.08199999999999999,0.071,0.08199999999999999,599300,0.08199999999999999
2012-11-16,0.073,0.073,0.073,0.073,35000,0.073
2012-11-19,0.079,0.09,0.079,0.08900000000000001,2129600,0.08900000000000001
2012-11-20,0.08900000000000001,0.091,0.087,0.09,2285000,0.09
2012-11-21,0.09,0.09,0.08800000000000001,0.08800000000000001,807300,0.08800000000000001
2012-11-22,0.085,0.085,0.079,0.079,311000,0.079
2012-11-23,0.08,0.08,0.073,0.073,180800,0.073
2012-11-26,0.08,0.086,0.078,0.084,706600,0.084
2012-11-27,0.084,0.084,0.079,0.083,398100,0.083
2012-11-28,0.083,0.083,0.073,0.073,554600,0.073
2012-11-29,0.073,0.073,0.073,0.073,0,0.073
2012-11-30,0.077,0.078,0.075,0.075,206000,0.075
2012-12-03,0.073,0.075,0.07,0.075,236000,0.075
2012-12-04,0.075,0.075,0.07,0.07400000000000001,575500,0.07400000000000001
2012-12-05,0.073,0.07400000000000001,0.073,0.073,470000,0.073
2012-12-06,0.071,0.073,0.07,0.073,162300,0.073
2012-12-07,0.07,0.07,0.069,0.069,100000,0.069
2012-12-10,0.068,0.068,0.068,0.068,32200,0.068
2012-12-11,0.073,0.073,0.069,0.07,498900,0.07
2012-12-12,0.071,0.073,0.068,0.073,345700,0.073
2012-12-13,0.073,0.073,0.073,0.073,0,0.073
2012-12-14,0.073,0.073,0.073,0.073,0,0.073
2012-12-17,0.073,0.073,0.073,0.073,0,0.073
2012-12-18,0.079,0.079,0.068,0.068,403000,0.068
2012-12-19,0.068,0.07200000000000001,0.065,0.065,375000,0.065
2012-12-20,0.062,0.065,0.061,0.065,20100,0.065
2012-12-21,0.062,0.062,0.06,0.06,182300,0.06
2012-12-24,0.064,0.064,0.064,0.064,5500,0.064
2012-12-25,0.064,0.064,0.064,0.064,0,0.064
2012-12-26,0.064,0.064,0.064,0.064,0,0.064
2012-12-27,0.064,0.064,0.064,0.064,0,0.064
2012-12-28,0.065,0.065,0.065,0.065,225000,0.065
2012-12-31,0.065,0.065,0.064,0.064,36600,0.064
2013-01-01,0.064,0.064,0.064,0.064,0,0.064
2013-01-02,0.064,0.064,0.064,0.064,0,0.064
2013-01-03,0.064,0.064,0.064,0.064,0,0.064
2013-01-04,0.062,0.062,0.06,0.06,185000,0.06
2013-01-07,0.06,0.06,0.052000000000000005,0.052000000000000005,880000,0.052000000000000005
2013-01-08,0.052000000000000005,0.055,0.052000000000000005,0.054000000000000006,318500,0.054000000000000006
2013-01-09,0.053,0.055,0.053,0.053,204300,0.053
2013-01-10,0.053,0.053,0.05,0.05,505000,0.05
2013-01-11,0.047,0.047,0.046,0.047,388000,0.047
2013-01-14,0.055999999999999994,0.08199999999999999,0.055999999999999994,0.067,18414200,0.067
2013-01-15,0.07,0.07,0.06,0.06,4527400,0.06
2013-01-16,0.062,0.064,0.055999999999999994,0.064,925300,0.064
2013-01-17,0.064,0.064,0.064,0.064,0,0.064
2013-01-18,0.064,0.064,0.064,0.064,0,0.064
2013-01-21,0.057999999999999996,0.062,0.055,0.057,2154400,0.057
2013-01-22,0.059000000000000004,0.063,0.057999999999999996,0.06,2062300,0.06
2013-01-23,0.062,0.062,0.059000000000000004,0.06,320000,0.06
2013-01-24,0.059000000000000004,0.059000000000000004,0.055,0.057999999999999996,557600,0.057999999999999996
2013-01-25,0.055999999999999994,0.059000000000000004,0.055,0.057,293700,0.057
2013-01-28,0.057,0.057,0.057,0.057,0,0.057
2013-01-29,0.057999999999999996,0.061,0.057,0.057,770000,0.057
2013-01-30,0.055999999999999994,0.055999999999999994,0.052000000000000005,0.055,949100,0.055
2013-01-31,0.052000000000000005,0.054000000000000006,0.052000000000000005,0.052000000000000005,377000,0.052000000000000005
2013-02-01,0.052000000000000005,0.052000000000000005,0.051,0.051,245000,0.051
2013-02-04,0.052000000000000005,0.052000000000000005,0.05,0.051,388000,0.051
2013-02-05,0.052000000000000005,0.055,0.051,0.052000000000000005,719400,0.052000000000000005
2013-02-06,0.054000000000000006,0.054000000000000006,0.051,0.051,281500,0.051
2013-02-07,0.051,0.051,0.051,0.051,0,0.051
2013-02-08,0.051,0.051,0.051,0.051,73000,0.051
2013-02-11,0.053,0.054000000000000006,0.052000000000000005,0.052000000000000005,396000,0.052000000000000005
2013-02-12,0.052000000000000005,0.054000000000000006,0.052000000000000005,0.054000000000000006,46000,0.054000000000000006
2013-02-13,0.054000000000000006,0.054000000000000006,0.052000000000000005,0.052000000000000005,99800,0.052000000000000005
2013-02-14,0.053,0.053,0.053,0.053,185600,0.053
2013-02-15,0.053,0.055,0.053,0.055,749500,0.055
2013-02-18,0.055,0.06,0.055,0.055,1846200,0.055
2013-02-19,0.059000000000000004,0.064,0.059000000000000004,0.062,2179600,0.062
2013-02-20,0.062,0.062,0.06,0.062,623500,0.062
2013-02-21,0.062,0.062,0.055,0.055,839200,0.055
2013-02-22,0.055,0.055,0.054000000000000006,0.054000000000000006,167200,0.054000000000000006
2013-02-25,0.054000000000000006,0.054000000000000006,0.054000000000000006,0.054000000000000006,210000,0.054000000000000006
2013-02-26,0.054000000000000006,0.054000000000000006,0.054000000000000006,0.054000000000000006,0,0.054000000000000006
2013-02-27,0.054000000000000006,0.055999999999999994,0.054000000000000006,0.055,219900,0.055
2013-02-28,0.057999999999999996,0.061,0.055999999999999994,0.055999999999999994,445000,0.055999999999999994
2013-03-01,0.055999999999999994,0.057999999999999996,0.053,0.057,183000,0.057
2013-03-04,0.057,0.057999999999999996,0.053,0.053,208500,0.053
2013-03-05,0.054000000000000006,0.054000000000000006,0.053,0.053,194100,0.053
2013-03-06,0.057999999999999996,0.06,0.057999999999999996,0.06,193300,0.06
2013-03-07,0.057999999999999996,0.057999999999999996,0.055999999999999994,0.055999999999999994,233300,0.055999999999999994
2013-03-08,0.055,0.06,0.051,0.055,2105900,0.055
2013-03-11,0.053,0.053,0.051,0.051,1501500,0.051
2013-03-12,0.052000000000000005,0.052000000000000005,0.051,0.051,382900,0.051
2013-03-13,0.051,0.051,0.05,0.051,1343100,0.051
2013-03-14,0.051,0.051,0.05,0.051,319900,0.051
2013-03-15,0.051,0.052000000000000005,0.05,0.052000000000000005,246800,0.052000000000000005
2013-03-18,0.05,0.05,0.05,0.05,39000,0.05
2013-03-19,0.05,0.054000000000000006,0.05,0.053,1849300,0.053
2013-03-20,0.054000000000000006,0.059000000000000004,0.053,0.057999999999999996,4840800,0.057999999999999996
2013-03-21,0.06,0.084,0.06,0.08199999999999999,23287500,0.08199999999999999
2013-03-22,0.087,0.105,0.085,0.085,41343900,0.085
2013-03-25,0.085,0.08900000000000001,0.077,0.079,8420600,0.079
2013-03-26,0.081,0.092,0.078,0.092,5757900,0.092
2013-03-27,0.094,0.095,0.08199999999999999,0.085,7674800,0.085
2013-03-28,0.083,0.085,0.081,0.08199999999999999,2191200,0.08199999999999999
2013-03-29,0.08199999999999999,0.08199999999999999,0.08199999999999999,0.08199999999999999,0,0.08199999999999999
2013-04-01,0.08199999999999999,0.08199999999999999,0.08199999999999999,0.08199999999999999,0,0.08199999999999999
2013-04-02,0.087,0.092,0.086,0.08900000000000001,3147700,0.08900000000000001
2013-04-03,0.092,0.09300000000000001,0.08199999999999999,0.08199999999999999,3337100,0.08199999999999999
2013-04-04,0.08199999999999999,0.08199999999999999,0.079,0.081,638300,0.081
2013-04-05,0.081,0.085,0.08,0.081,224600,0.081
2013-04-08,0.081,0.081,0.081,0.081,0,0.081
2013-04-09,0.081,0.081,0.081,0.081,0,0.081
2013-04-10,0.105,0.1175,0.08900000000000001,0.09,27007300,0.09
2013-04-11,0.09,0.091,0.08,0.08,3337900,0.08
2013-04-12,0.084,0.084,0.073,0.073,2313800,0.073
2013-04-15,0.077,0.08800000000000001,0.077,0.08199999999999999,4140200,0.08199999999999999
2013-04-16,0.08,0.084,0.078,0.081,2038000,0.081
2013-04-17,0.083,0.083,0.079,0.079,1190300,0.079
2013-04-18,0.079,0.079,0.07400000000000001,0.07400000000000001,983700,0.07400000000000001
2013-04-19,0.075,0.075,0.07400000000000001,0.07400000000000001,652100,0.07400000000000001
2013-04-22,0.073,0.075,0.069,0.07,1305500,0.07
2013-04-23,0.07200000000000001,0.073,0.069,0.071,974100,0.071
2013-04-24,0.07,0.071,0.069,0.071,280300,0.071
2013-04-25,0.071,0.071,0.071,0.071,0,0.071
2013-04-26,0.07,0.07,0.067,0.069,220000,0.069
2013-04-29,0.071,0.077,0.07,0.075,684300,0.075
2013-04-30,0.073,0.076,0.069,0.069,772300,0.069
2013-05-01,0.07200000000000001,0.07200000000000001,0.068,0.07200000000000001,1197800,0.07200000000000001
2013-05-02,0.07200000000000001,0.07200000000000001,0.067,0.069,981300,0.069
2013-05-03,0.068,0.068,0.066,0.066,506400,0.066
2013-05-06,0.066,0.068,0.065,0.067,715000,0.067
2013-05-07,0.068,0.068,0.065,0.065,507700,0.065
2013-05-08,0.068,0.07200000000000001,0.066,0.069,1136300,0.069
2013-05-09,0.07,0.07,0.066,0.068,832000,0.068
2013-05-10,0.067,0.067,0.065,0.065,1813900,0.065
2013-05-13,0.063,0.067,0.063,0.064,1193300,0.064
2013-05-14,0.066,0.067,0.062,0.066,632900,0.066
2013-05-15,0.062,0.066,0.061,0.061,276800,0.061
2013-05-16,0.065,0.065,0.062,0.063,677800,0.063
2013-05-17,0.064,0.068,0.063,0.068,1073000,0.068
2013-05-20,0.07,0.077,0.065,0.077,2335000,0.077
2013-05-21,0.077,0.083,0.076,0.083,1062500,0.083
2013-05-22,0.085,0.09,0.08199999999999999,0.085,1685900,0.085
2013-05-23,0.08,0.08,0.069,0.075,719400,0.075
2013-05-24,0.077,0.078,0.07400000000000001,0.078,275700,0.078
2013-05-27,0.078,0.078,0.073,0.078,238300,0.078
2013-05-28,0.075,0.075,0.069,0.07400000000000001,423100,0.07400000000000001
2013-05-29,0.071,0.071,0.07,0.07,67400,0.07
2013-05-30,0.07,0.07,0.07,0.07,0,0.07
2013-05-31,0.071,0.07200000000000001,0.07,0.07,500900,0.07
2013-06-03,0.07200000000000001,0.073,0.07200000000000001,0.07200000000000001,169700,0.07200000000000001
2013-06-04,0.07,0.07,0.07,0.07,7500,0.07
2013-06-05,0.07,0.07,0.07,0.07,91200,0.07
2013-06-06,0.07,0.07,0.07,0.07,92700,0.07
2013-06-07,0.07,0.073,0.07,0.07,373600,0.07
2013-06-10,0.07,0.07,0.07,0.07,0,0.07
2013-06-11,0.071,0.07200000000000001,0.071,0.071,414500,0.071
2013-06-12,0.07200000000000001,0.076,0.071,0.071,492900,0.071
2013-06-13,0.073,0.073,0.07,0.07,269000,0.07
2013-06-14,0.073,0.073,0.07,0.07,107100,0.07
2013-06-17,0.07,0.071,0.07,0.071,269000,0.071
2013-06-18,0.07200000000000001,0.07200000000000001,0.07,0.07,55800,0.07
2013-06-19,0.07,0.075,0.068,0.075,1014400,0.075
2013-06-20,0.07200000000000001,0.07200000000000001,0.069,0.069,210000,0.069
2013-06-21,0.07200000000000001,0.07200000000000001,0.069,0.069,405000,0.069
2013-06-24,0.07,0.07,0.067,0.069,292000,0.069
2013-06-25,0.069,0.071,0.062,0.062,540400,0.062
2013-06-26,0.065,0.067,0.065,0.067,383500,0.067
2013-06-27,0.068,0.068,0.064,0.065,328800,0.065
2013-06-28,0.065,0.07,0.065,0.07,181600,0.07
2013-07-01,0.069,0.069,0.067,0.067,300000,0.067
2013-07-02,0.067,0.07,0.067,0.07,300700,0.07
2013-07-03,0.07,0.07,0.07,0.07,99600,0.07
2013-07-04,0.07,0.07200000000000001,0.069,0.069,160100,0.069
2013-07-05,0.069,0.069,0.069,0.069,0,0.069
2013-07-08,0.07,0.07,0.069,0.069,318900,0.069
2013-07-09,0.069,0.069,0.069,0.069,157500,0.069
2013-07-10,0.068,0.068,0.067,0.067,580600,0.067
2013-07-11,0.068,0.075,0.068,0.075,872200,0.075
2013-07-12,0.075,0.075,0.07200000000000001,0.07200000000000001,497200,0.07200000000000001
2013-07-15,0.071,0.071,0.069,0.069,385000,0.069
2013-07-16,0.069,0.069,0.069,0.069,248300,0.069
2013-07-17,0.07,0.07,0.068,0.068,252100,0.068
2013-07-18,0.068,0.068,0.068,0.068,180000,0.068
2013-07-19,0.069,0.071,0.069,0.071,179800,0.071
2013-07-22,0.07,0.08,0.069,0.077,1063700,0.077
2013-07-23,0.07400000000000001,0.077,0.07200000000000001,0.077,452900,0.077
2013-07-24,0.07400000000000001,0.07400000000000001,0.07200000000000001,0.073,338500,0.073
2013-07-25,0.07400000000000001,0.078,0.07400000000000001,0.076,167300,0.076
2013-07-26,0.073,0.076,0.07200000000000001,0.076,327200,0.076
2013-07-29,0.076,0.077,0.076,0.077,254600,0.077
2013-07-30,0.08199999999999999,0.085,0.068,0.069,4153600,0.069
2013-07-31,0.069,0.069,0.065,0.067,913400,0.067
2013-08-01,0.066,0.068,0.063,0.068,360000,0.068
2013-08-02,0.067,0.07,0.066,0.07,781200,0.07
2013-08-05,0.07,0.07,0.07,0.07,0,0.07
2013-08-06,0.07,0.07,0.07,0.07,0,0.07
2013-08-07,0.066,0.067,0.062,0.067,418200,0.067
2013-08-08,0.067,0.067,0.066,0.066,115500,0.066
2013-08-09,0.067,0.068,0.067,0.067,99000,0.067
2013-08-12,0.067,0.067,0.062,0.066,478900,0.066
2013-08-13,0.066,0.066,0.063,0.063,416500,0.063
2013-08-14,0.063,0.063,0.063,0.063,0,0.063
2013-08-15,0.065,0.065,0.065,0.065,50000,0.065
2013-08-16,0.061,0.062,0.057,0.057999999999999996,2401400,0.057999999999999996
2013-08-19,0.057999999999999996,0.057999999999999996,0.055999999999999994,0.055999999999999994,496400,0.055999999999999994
2013-08-20,0.055,0.055,0.051,0.053,1226400,0.053
2013-08-21,0.057,0.062,0.057,0.06,3003500,0.06
2013-08-22,0.06,0.06,0.057,0.057999999999999996,743300,0.057999999999999996
2013-08-23,0.057999999999999996,0.057999999999999996,0.055999999999999994,0.055999999999999994,104800,0.055999999999999994
2013-08-26,0.057,0.057,0.057,0.057,248500,0.057
2013-08-27,0.057999999999999996,0.057999999999999996,0.055999999999999994,0.055999999999999994,264800,0.055999999999999994
2013-08-28,0.057999999999999996,0.057999999999999996,0.055999999999999994,0.055999999999999994,181800,0.055999999999999994
2013-08-29,0.055999999999999994,0.057999999999999996,0.055999999999999994,0.055999999999999994,506300,0.055999999999999994
2013-08-30,0.055999999999999994,0.057,0.055999999999999994,0.057,23000,0.057
2013-09-02,0.057999999999999996,0.057999999999999996,0.057999999999999996,0.057999999999999996,699300,0.057999999999999996
2013-09-03,0.057999999999999996,0.057999999999999996,0.055999999999999994,0.057999999999999996,296700,0.057999999999999996
2013-09-04,0.057999999999999996,0.057999999999999996,0.055999999999999994,0.055999999999999994,355000,0.055999999999999994
2013-09-05,0.057999999999999996,0.057999999999999996,0.055999999999999994,0.055999999999999994,61000,0.055999999999999994
2013-09-06,0.057,0.057,0.055,0.055999999999999994,127000,0.055999999999999994
2013-09-09,0.055999999999999994,0.055999999999999994,0.055999999999999994,0.055999999999999994,0,0.055999999999999994
2013-09-10,0.055999999999999994,0.055999999999999994,0.055999999999999994,0.055999999999999994,0,0.055999999999999994
2013-09-11,0.062,0.066,0.055,0.057,3526200,0.057
2013-09-12,0.057999999999999996,0.06,0.053,0.053,541500,0.053
2013-09-13,0.06,0.06,0.059000000000000004,0.059000000000000004,3702800,0.059000000000000004
2013-09-16,0.059000000000000004,0.059000000000000004,0.055999999999999994,0.055999999999999994,917000,0.055999999999999994
2013-09-17,0.057999999999999996,0.057999999999999996,0.055,0.057999999999999996,1398300,0.057999999999999996
2013-09-18,0.055999999999999994,0.055999999999999994,0.054000000000000006,0.055,256500,0.055
2013-09-19,0.054000000000000006,0.054000000000000006,0.054000000000000006,0.054000000000000006,83300,0.054000000000000006
2013-09-20,0.055999999999999994,0.055999999999999994,0.055,0.055,82500,0.055
2013-09-23,0.054000000000000006,0.054000000000000006,0.054000000000000006,0.054000000000000006,9800,0.054000000000000006
2013-09-24,0.057,0.057,0.057,0.057,340000,0.057
2013-09-25,0.055,0.057,0.055,0.057,336000,0.057
2013-09-26,0.055999999999999994,0.055999999999999994,0.055,0.055,55000,0.055
2013-09-27,0.054000000000000006,0.055,0.054000000000000006,0.055,500000,0.055
2013-09-30,0.055999999999999994,0.055999999999999994,0.055999999999999994,0.055999999999999994,109000,0.055999999999999994
2013-10-01,0.054000000000000006,0.055999999999999994,0.053,0.055999999999999994,203000,0.055999999999999994
2013-10-02,0.055999999999999994,0.055999999999999994,0.053,0.053,606900,0.053
2013-10-03,0.055999999999999994,0.055999999999999994,0.053,0.053,110900,0.053
2013-10-04,0.053,0.053,0.052000000000000005,0.052000000000000005,376000,0.052000000000000005
2013-10-07,0.052000000000000005,0.052000000000000005,0.052000000000000005,0.052000000000000005,0,0.052000000000000005
2013-10-08,0.052000000000000005,0.052000000000000005,0.051,0.051,193000,0.051
2013-10-09,0.051,0.051,0.05,0.05,466000,0.05
2013-10-10,0.05,0.05,0.047,0.047,229600,0.047
2013-10-11,0.048,0.048,0.042,0.043,388000,0.043
2013-10-14,0.046,0.048,0.046,0.048,950800,0.048
2013-10-15,0.048,0.05,0.045,0.05,704200,0.05
2013-10-16,0.055,0.055,0.053,0.053,181800,0.053
2013-10-17,0.055,0.057999999999999996,0.054000000000000006,0.054000000000000006,416900,0.054000000000000006
2013-10-18,0.057,0.057,0.057,0.057,20000,0.057
2013-10-21,0.061,0.063,0.059000000000000004,0.063,2444400,0.063
2013-10-22,0.065,0.066,0.064,0.066,1073100,0.066
2013-10-23,0.065,0.065,0.063,0.063,385800,0.063
2013-10-24,0.061,0.061,0.06,0.06,61200,0.06
2013-10-25,0.06,0.066,0.06,0.061,471200,0.061
2013-10-28,0.065,0.065,0.062,0.062,1738900,0.062
2013-10-29,0.062,0.063,0.06,0.06,1115500,0.06
2013-10-30,0.06,0.061,0.06,0.061,41400,0.061
2013-10-31,0.061,0.062,0.061,0.062,297800,0.062
2013-11-01,0.062,0.062,0.062,0.062,0,0.062
2013-11-04,0.062,0.062,0.062,0.062,0,0.062
2013-11-05,0.062,0.062,0.062,0.062,0,0.062
2013-11-06,0.06,0.06,0.06,0.06,35700,0.06
2013-11-07,0.06,0.06,0.06,0.06,0,0.06
2013-11-08,0.06,0.06,0.06,0.06,0,0.06
2013-11-11,0.06,0.06,0.06,0.06,0,0.06
2013-11-12,0.06,0.06,0.06,0.06,0,0.06
2013-11-13,0.057,0.057,0.057,0.057,41000,0.057
2013-11-14,0.057,0.057,0.057,0.057,54300,0.057
2013-11-15,0.055999999999999994,0.055999999999999994,0.054000000000000006,0.055999999999999994,201500,0.055999999999999994
2013-11-18,0.055999999999999994,0.055999999999999994,0.055999999999999994,0.055999999999999994,0,0.055999999999999994
2013-11-19,0.055999999999999994,0.055999999999999994,0.055999999999999994,0.055999999999999994,108000,0.055999999999999994
2013-11-20,0.055999999999999994,0.055999999999999994,0.055999999999999994,0.055999999999999994,0,0.055999999999999994
2013-11-21,0.055999999999999994,0.055999999999999994,0.055999999999999994,0.055999999999999994,0,0.055999999999999994
2013-11-22,0.055,0.055,0.055,0.055,90000,0.055
2013-11-25,0.055,0.055,0.055,0.055,0,0.055
2013-11-26,0.055999999999999994,0.055999999999999994,0.055999999999999994,0.055999999999999994,170000,0.055999999999999994
2013-11-27,0.055,0.055,0.055,0.055,37000,0.055
2013-11-28,0.057,0.057999999999999996,0.055,0.055,30000,0.055
2013-11-29,0.06,0.063,0.059000000000000004,0.059000000000000004,1863400,0.059000000000000004
2013-12-02,0.059000000000000004,0.059000000000000004,0.059000000000000004,0.059000000000000004,0,0.059000000000000004
2013-12-03,0.059000000000000004,0.059000000000000004,0.059000000000000004,0.059000000000000004,0,0.059000000000000004
2013-12-04,0.059000000000000004,0.059000000000000004,0.059000000000000004,0.059000000000000004,0,0.059000000000000004
2013-12-05,0.059000000000000004,0.059000000000000004,0.059000000000000004,0.059000000000000004,0,0.059000000000000004
2013-12-06,0.065,0.065,0.057999999999999996,0.057999999999999996,372100,0.057999999999999996
2013-12-09,0.06,0.06,0.057999999999999996,0.057999999999999996,260000,0.057999999999999996
2013-12-10,0.059000000000000004,0.059000000000000004,0.055999999999999994,0.055999999999999994,652000,0.055999999999999994
2013-12-11,0.055999999999999994,0.055999999999999994,0.053,0.053,484800,0.053
2013-12-12,0.052000000000000005,0.052000000000000005,0.052000000000000005,0.052000000000000005,298000,0.052000000000000005
2013-12-13,0.052000000000000005,0.052000000000000005,0.052000000000000005,0.052000000000000005,0,0.052000000000000005
2013-12-16,0.052000000000000005,0.055,0.052000000000000005,0.052000000000000005,463400,0.052000000000000005
2013-12-17,0.052000000000000005,0.052000000000000005,0.052000000000000005,0.052000000000000005,101300,0.052000000000000005
2013-12-18,0.057999999999999996,0.06,0.055999999999999994,0.055999999999999994,494900,0.055999999999999994
2013-12-19,0.055999999999999994,0.057,0.055999999999999994,0.055999999999999994,158900,0.055999999999999994
2013-12-20,0.055999999999999994,0.055999999999999994,0.055999999999999994,0.055999999999999994,0,0.055999999999999994
2013-12-23,0.057999999999999996,0.057999999999999996,0.057999999999999996,0.057999999999999996,10000,0.057999999999999996
2013-12-24,0.059000000000000004,0.066,0.059000000000000004,0.065,891000,0.065
2013-12-25,0.065,0.065,0.065,0.065,0,0.065
2013-12-26,0.065,0.065,0.065,0.065,0,0.065
2013-12-27,0.065,0.065,0.065,0.065,0,0.065
2013-12-30,0.064,0.064,0.063,0.063,240000,0.063
2013-12-31,0.062,0.063,0.062,0.063,43000,0.063
2014-01-01,0.063,0.063,0.063,0.063,0,0.063
2014-01-02,0.063,0.063,0.063,0.063,0,0.063
2014-01-03,0.064,0.069,0.064,0.068,443100,0.068
2014-01-06,0.065,0.066,0.065,0.066,25700,0.066
2014-01-07,0.069,0.085,0.069,0.085,848200,0.085
2014-01-08,0.084,0.084,0.075,0.075,808200,0.075
2014-01-09,0.08,0.09300000000000001,0.08,0.09300000000000001,1808200,0.09300000000000001
2014-01-10,0.094,0.095,0.085,0.085,1091300,0.085
2014-01-13,0.09,0.096,0.09,0.095,1127400,0.095
2014-01-14,0.1,0.105,0.098,0.105,3061600,0.105
2014-01-15,0.115,0.13,0.11,0.115,6212300,0.115
2014-01-16,0.13,0.135,0.091,0.094,6313000,0.094
2014-01-17,0.115,0.115,0.105,0.11,4911500,0.11
2014-01-20,0.11,0.11,0.11,0.11,0,0.11
2014-01-21,0.11,0.11,0.11,0.11,0,0.11
2014-01-22,0.145,0.17,0.125,0.125,23833100,0.125
2014-01-23,0.135,0.135,0.115,0.115,4465900,0.115
2014-01-24,0.115,0.125,0.115,0.12,2242200,0.12
2014-01-27,0.12,0.12,0.12,0.12,0,0.12
2014-01-28,0.12,0.125,0.115,0.125,1253400,0.125
2014-01-29,0.13,0.13,0.125,0.125,1179700,0.125
2014-01-30,0.125,0.125,0.12,0.125,858300,0.125
2014-01-31,0.125,0.135,0.125,0.135,193500,0.135
2014-02-03,0.13,0.135,0.13,0.13,782400,0.13
2014-02-04,0.125,0.125,0.115,0.115,1047700,0.115
2014-02-05,0.12,0.125,0.12,0.12,218500,0.12
2014-02-06,0.12,0.125,0.12,0.125,1203600,0.125
2014-02-07,0.125,0.13,0.125,0.125,716000,0.125
2014-02-10,0.125,0.125,0.105,0.105,1405000,0.105
2014-02-11,0.115,0.13,0.11,0.13,1001200,0.13
2014-02-12,0.125,0.125,0.125,0.125,453000,0.125
2014-02-13,0.13,0.13,0.12,0.12,314100,0.12
2014-02-14,0.12,0.125,0.12,0.125,894000,0.125
2014-02-17,0.125,0.125,0.12,0.12,610800,0.12
2014-02-18,0.12,0.125,0.12,0.125,856900,0.125
2014-02-19,0.13,0.13,0.12,0.125,914700,0.125
2014-02-20,0.125,0.125,0.115,0.115,388000,0.115
2014-02-21,0.115,0.12,0.115,0.115,191800,0.115
2014-02-24,0.115,0.115,0.115,0.115,0,0.115
2014-02-25,0.115,0.115,0.115,0.115,0,0.115
2014-02-26,0.12,0.125,0.096,0.1,2266600,0.1
2014-02-27,0.098,0.098,0.09300000000000001,0.09300000000000001,1476300,0.09300000000000001
2014-02-28,0.092,0.095,0.092,0.09300000000000001,1066300,0.09300000000000001
2014-03-03,0.094,0.094,0.08199999999999999,0.083,1798300,0.083
2014-03-04,0.085,0.09300000000000001,0.085,0.09300000000000001,1415300,0.09300000000000001
2014-03-05,0.095,0.105,0.094,0.094,3273600,0.094
2014-03-06,0.095,0.098,0.08800000000000001,0.091,835700,0.091
2014-03-07,0.095,0.105,0.095,0.105,1805900,0.105
2014-03-10,0.11,0.115,0.105,0.11,2076500,0.11
2014-03-11,0.115,0.13,0.11,0.13,2199200,0.13
2014-03-12,0.135,0.14,0.13,0.13,4740600,0.13
2014-03-13,0.14,0.15,0.135,0.15,6018500,0.15
2014-03-14,0.15,0.15,0.15,0.15,0,0.15
2014-03-17,0.15,0.15,0.15,0.15,0,0.15
2014-03-18,0.13,0.14,0.125,0.14,1334400,0.14
2014-03-19,0.135,0.135,0.13,0.135,467600,0.135
2014-03-20,0.135,0.135,0.13,0.13,750200,0.13
2014-03-21,0.13,0.13,0.125,0.125,1177400,0.125
2014-03-24,0.12,0.13,0.12,0.13,931300,0.13
2014-03-25,0.125,0.14,0.125,0.14,2585000,0.14
2014-03-26,0.13,0.135,0.125,0.13,2110900,0.13
2014-03-27,0.13,0.13,0.12,0.13,1297500,0.13
2014-03-28,0.125,0.125,0.12,0.12,999500,0.12
2014-03-31,0.12,0.125,0.115,0.115,828100,0.115
2014-04-01,0.12,0.12,0.11,0.115,921400,0.115
2014-04-02,0.115,0.125,0.115,0.12,517400,0.12
2014-04-03,0.12,0.12,0.115,0.115,1280200,0.115
2014-04-04,0.115,0.12,0.105,0.105,2221200,0.105
2014-04-07,0.11,0.115,0.105,0.11,602300,0.11
2014-04-08,0.11,0.115,0.105,0.115,1030100,0.115
2014-04-09,0.11,0.115,0.11,0.11,761000,0.11
2014-04-10,0.115,0.115,0.11,0.11,535900,0.11
2014-04-11,0.11,0.11,0.105,0.105,193200,0.105
2014-04-14,0.11,0.11,0.094,0.1,2306400,0.1
2014-04-15,0.099,0.1,0.095,0.099,386600,0.099
2014-04-16,0.099,0.1,0.096,0.096,794100,0.096
2014-04-17,0.1,0.105,0.098,0.105,1078800,0.105
2014-04-18,0.105,0.105,0.105,0.105,0,0.105
2014-04-21,0.105,0.105,0.105,0.105,0,0.105
2014-04-22,0.1,0.105,0.1,0.105,701000,0.105
2014-04-23,0.11,0.11,0.105,0.11,270000,0.11
2014-04-24,0.11,0.115,0.11,0.115,725700,0.115
2014-04-25,0.115,0.115,0.115,0.115,0,0.115
2014-04-28,0.11,0.115,0.11,0.115,683900,0.115
2014-04-29,0.11,0.11,0.105,0.11,435000,0.11
2014-04-30,0.11,0.11,0.105,0.11,123300,0.11
2014-05-01,0.105,0.11,0.099,0.1,886500,0.1
2014-05-02,0.105,0.105,0.091,0.095,2677100,0.095
2014-05-05,0.09300000000000001,0.09699999999999999,0.08800000000000001,0.08800000000000001,1524300,0.08800000000000001
2014-05-06,0.09300000000000001,0.09699999999999999,0.092,0.094,224900,0.094
2014-05-07,0.095,0.096,0.09300000000000001,0.096,299700,0.096
2014-05-08,0.09699999999999999,0.09699999999999999,0.094,0.09699999999999999,688100,0.09699999999999999
2014-05-09,0.096,0.096,0.095,0.095,84400,0.095
2014-05-12,0.095,0.095,0.094,0.094,134700,0.094
2014-05-13,0.09699999999999999,0.099,0.096,0.098,611800,0.098
2014-05-14,0.098,0.105,0.09699999999999999,0.105,1279400,0.105
2014-05-15,0.105,0.105,0.096,0.096,1056000,0.096
2014-05-16,0.098,0.098,0.092,0.098,1329700,0.098
2014-05-19,0.115,0.135,0.11,0.12,11601700,0.12
2014-05-20,0.115,0.115,0.105,0.105,2303000,0.105
2014-05-21,0.11,0.11,0.1,0.1,2151100,0.1
2014-05-22,0.105,0.115,0.105,0.11,1173500,0.11
2014-05-23,0.115,0.135,0.11,0.13,4612700,0.13
2014-05-26,0.14,0.145,0.13,0.135,4866000,0.135
2014-05-27,0.135,0.14,0.135,0.14,2424400,0.14
2014-05-28,0.14,0.14,0.132,0.135,2292400,0.135
2014-05-29,0.135,0.14,0.13,0.135,1069400,0.135
2014-05-30,0.14,0.14,0.13,0.14,2269700,0.14
2014-06-02,0.14,0.18,0.14,0.18,10597000,0.18
2014-06-03,0.19,0.195,0.17,0.175,5916200,0.175
2014-06-04,0.25,0.42,0.22,0.42,34866500,0.42
2014-06-05,0.42,0.46,0.325,0.365,46332600,0.365
2014-06-06,0.36,0.435,0.35,0.405,22156600,0.405
2014-06-09,0.405,0.405,0.405,0.405,0,0.405
2014-06-10,0.415,0.425,0.37,0.385,13028500,0.385
2014-06-11,0.39,0.445,0.385,0.425,19392800,0.425
2014-06-12,0.415,0.44,0.4,0.41,16622700,0.41
2014-06-13,0.4,0.4,0.37200000000000005,0.38,5742400,0.38
2014-06-16,0.385,0.385,0.345,0.355,5117800,0.355
2014-06-17,0.345,0.38,0.335,0.38,4580100,0.38
2014-06-18,0.375,0.392,0.355,0.36,4894100,0.36
2014-06-19,0.355,0.36,0.31,0.315,7228300,0.315
2014-06-20,0.32,0.345,0.312,0.345,4466600,0.345
2014-06-23,0.41,0.48,0.405,0.445,31835200,0.445
2014-06-24,0.435,0.44,0.4,0.4,9513400,0.4
2014-06-25,0.39,0.39,0.355,0.36,8201000,0.36
2014-06-26,0.36,0.4,0.36,0.395,8247200,0.395
2014-06-27,0.415,0.42,0.39,0.405,4790700,0.405
2014-06-30,0.4,0.4,0.38,0.38,2991400,0.38
2014-07-01,0.39,0.445,0.39,0.445,9806100,0.445
2014-07-02,0.44,0.45,0.42,0.435,8513500,0.435
2014-07-03,0.43,0.485,0.43,0.46,14660000,0.46
2014-07-04,0.48,0.485,0.455,0.455,7377300,0.455
2014-07-07,0.495,0.57,0.49,0.52,23113300,0.52
2014-07-08,0.515,0.515,0.48,0.48,6001600,0.48
2014-07-09,0.485,0.495,0.475,0.49,3025700,0.49
2014-07-10,0.52,0.595,0.52,0.565,21579700,0.565
2014-07-11,0.585,0.69,0.575,0.69,17251700,0.69
2014-07-14,0.755,0.79,0.575,0.58,25826800,0.58
2014-07-15,0.6,0.625,0.58,0.61,6215500,0.61
2014-07-16,0.61,0.61,0.61,0.61,0,0.61
2014-07-17,0.58,0.79,0.56,0.79,21157500,0.79
2014-07-18,0.745,0.905,0.73,0.86,40231400,0.86
2014-07-21,0.88,0.88,0.79,0.81,8228400,0.81
2014-07-22,0.815,0.815,0.71,0.71,10811300,0.71
2014-07-23,0.68,0.725,0.64,0.705,11653500,0.705
2014-07-24,0.695,0.74,0.69,0.69,6103300,0.69
2014-07-25,0.67,0.69,0.645,0.65,7185100,0.65
2014-07-28,0.655,0.655,0.515,0.55,19435900,0.55
2014-07-29,0.54,0.59,0.525,0.56,12265200,0.56
2014-07-30,0.56,0.615,0.555,0.595,12839400,0.595
2014-07-31,0.595,0.61,0.54,0.545,8061600,0.545
2014-08-01,0.495,0.495,0.45,0.48,18544500,0.48
2014-08-04,0.555,0.595,0.455,0.455,25844600,0.455
2014-08-05,0.45,0.45,0.38,0.38,21864600,0.38
2014-08-06,0.37,0.41,0.365,0.39,23223900,0.39
2014-08-07,0.39,0.405,0.37,0.375,10722600,0.375
2014-08-08,0.375,0.38,0.31,0.325,16512300,0.325
2014-08-11,0.37,0.415,0.35,0.405,35294000,0.405
2014-08-12,0.405,0.42,0.34,0.34,18343600,0.34
2014-08-13,0.33,0.365,0.31,0.355,14958300,0.355
2014-08-14,0.365,0.385,0.36,0.36,8126500,0.36
2014-08-15,0.365,0.395,0.355,0.38,8952700,0.38
2014-08-18,0.38,0.4075,0.38,0.385,11267200,0.385
2014-08-19,0.395,0.395,0.36,0.365,4589900,0.365
2014-08-20,0.365,0.39,0.36200000000000004,0.365,6091600,0.365
2014-08-21,0.375,0.38,0.36700000000000005,0.38,2435400,0.38
2014-08-22,0.385,0.39,0.375,0.39,2730900,0.39
2014-08-25,0.39,0.39,0.375,0.38,1315600,0.38
2014-08-26,0.38,0.38,0.365,0.37,999700,0.37
2014-08-27,0.375,0.385,0.37,0.385,1686600,0.385
2014-08-28,0.39,0.485,0.385,0.475,20652600,0.475
2014-08-29,0.455,0.48,0.44,0.445,9697400,0.445
2014-09-01,0.44,0.465,0.435,0.435,4092000,0.435
2014-09-02,0.5,0.505,0.45,0.455,22343700,0.455
2014-09-03,0.455,0.465,0.42,0.43,6352500,0.43
2014-09-04,0.425,0.455,0.41,0.41,5605000,0.41
2014-09-05,0.415,0.43,0.41,0.415,2302300,0.415
2014-09-08,0.42,0.43,0.405,0.405,3023600,0.405
2014-09-09,0.405,0.405,0.38,0.38,5406100,0.38
2014-09-10,0.375,0.385,0.35700000000000004,0.375,6036800,0.375
2014-09-11,0.385,0.405,0.382,0.39,5084500,0.39
2014-09-12,0.395,0.402,0.34,0.35,13995300,0.35
2014-09-15,0.34,0.345,0.32,0.32,4733100,0.32
2014-09-16,0.335,0.35,0.315,0.315,6488700,0.315
2014-09-17,0.325,0.335,0.29,0.305,5115500,0.305
2014-09-18,0.305,0.31,0.265,0.28,6761800,0.28
2014-09-19,0.295,0.34,0.295,0.325,11184000,0.325
2014-09-22,0.32,0.345,0.3,0.31,5880600,0.31
2014-09-23,0.315,0.33,0.302,0.31,3777500,0.31
2014-09-24,0.325,0.325,0.31,0.31,1532200,0.31
2014-09-25,0.325,0.37,0.32,0.37,7204200,0.37
2014-09-26,0.355,0.42,0.35,0.385,11750500,0.385
2014-09-29,0.395,0.415,0.385,0.385,9583600,0.385
2014-09-30,0.39,0.4,0.35,0.35,4315800,0.35
2014-10-01,0.35,0.36,0.335,0.345,2991100,0.345
2014-10-02,0.345,0.36,0.34,0.345,1632100,0.345
2014-10-03,0.345,0.345,0.33,0.34,1643200,0.34
2014-10-06,0.345,0.365,0.337,0.34,4559500,0.34
2014-10-07,0.345,0.35,0.33,0.33,2459800,0.33
2014-10-08,0.325,0.33,0.315,0.32,2025100,0.32
2014-10-09,0.35,0.355,0.305,0.305,5089000,0.305
2014-10-10,0.29,0.3,0.28,0.285,3881600,0.285
2014-10-13,0.285,0.3,0.282,0.285,3963200,0.285
2014-10-14,0.285,0.295,0.28,0.285,2003400,0.285
2014-10-15,0.285,0.29,0.275,0.285,2841700,0.285
2014-10-16,0.275,0.315,0.275,0.315,3728100,0.315
2014-10-17,0.315,0.315,0.315,0.315,0,0.315
2014-10-20,0.315,0.315,0.315,0.315,0,0.315
2014-10-21,0.525,0.532,0.38,0.405,32080900,0.405
2014-10-22,0.41,0.435,0.34,0.35,16879000,0.35
2014-10-23,0.34,0.37,0.327,0.37,9609900,0.37
2014-10-24,0.38,0.387,0.355,0.355,4331600,0.355
2014-10-27,0.355,0.36,0.34,0.345,2993200,0.345
2014-10-28,0.335,0.34,0.315,0.315,2233100,0.315
2014-10-29,0.325,0.325,0.31,0.31,2413800,0.31
2014-10-30,0.315,0.33,0.302,0.325,3314900,0.325
2014-10-31,0.33,0.335,0.31,0.31,2209200,0.31
2014-11-03,0.315,0.315,0.295,0.295,1937100,0.295
2014-11-04,0.3,0.3,0.292,0.295,925100,0.295
2014-11-05,0.29,0.32,0.29,0.32,2234700,0.32
2014-11-06,0.32,0.32,0.3,0.3,1642600,0.3
2014-11-07,0.3,0.3,0.285,0.29,1930700,0.29
2014-11-10,0.285,0.29,0.28,0.285,961500,0.285
2014-11-11,0.29,0.295,0.285,0.285,712200,0.285
2014-11-12,0.29,0.3,0.28,0.285,962700,0.285
2014-11-13,0.29,0.31,0.287,0.305,1246500,0.305
2014-11-14,0.31,0.32,0.295,0.295,1251300,0.295
2014-11-17,0.3,0.3,0.29,0.29,1080200,0.29
2014-11-18,0.295,0.3,0.292,0.295,462100,0.295
2014-11-19,0.295,0.3,0.29,0.29,288900,0.29
2014-11-20,0.29,0.295,0.29,0.29,431300,0.29
2014-11-21,0.295,0.295,0.285,0.285,705700,0.285
2014-11-24,0.29,0.3,0.285,0.285,867500,0.285
2014-11-25,0.29,0.29,0.285,0.285,710500,0.285
2014-11-26,0.3,0.3,0.245,0.25,7360600,0.25
2014-11-27,0.255,0.26,0.245,0.245,1673600,0.245
2014-11-28,0.265,0.27,0.245,0.245,2977400,0.245
2014-12-01,0.25,0.25,0.21,0.215,3020700,0.215
2014-12-02,0.22,0.225,0.19,0.2,2974500,0.2
2014-12-03,0.2,0.2,0.175,0.175,4499400,0.175
2014-12-04,0.165,0.215,0.16,0.215,7642700,0.215
2014-12-05,0.22,0.245,0.195,0.2,2821500,0.2
2014-12-08,0.21,0.21,0.19,0.19,2009500,0.19
2014-12-09,0.185,0.2,0.18,0.19,556800,0.19
2014-12-10,0.195,0.2,0.19,0.2,490500,0.2
2014-12-11,0.2,0.2,0.19,0.2,860400,0.2
2014-12-12,0.19,0.2,0.19,0.19,490400,0.19
2014-12-15,0.185,0.195,0.18,0.19,640000,0.19
2014-12-16,0.19,0.19,0.17,0.175,1292400,0.175
2014-12-17,0.17,0.175,0.165,0.17,1377300,0.17
2014-12-18,0.165,0.17,0.16,0.165,629800,0.165
2014-12-19,0.165,0.185,0.165,0.18,1331700,0.18
2014-12-22,0.18,0.18,0.17,0.175,948200,0.175
2014-12-23,0.18,0.185,0.18,0.18,662900,0.18
2014-12-24,0.185,0.185,0.175,0.18,500800,0.18
2014-12-25,0.18,0.18,0.18,0.18,0,0.18
2014-12-26,0.18,0.18,0.18,0.18,0,0.18
2014-12-29,0.185,0.19,0.175,0.185,666400,0.185
2014-12-30,0.185,0.19,0.185,0.185,233800,0.185
2014-12-31,0.19,0.192,0.185,0.185,517800,0.185
2015-01-01,0.185,0.185,0.185,0.185,0,0.185
2015-01-02,0.18,0.18,0.18,0.18,1527800,0.18
2015-01-05,0.18,0.22,0.18,0.22,6287400,0.22
2015-01-06,0.205,0.21,0.195,0.195,2038100,0.195
2015-01-07,0.195,0.2,0.19,0.195,743200,0.195
2015-01-08,0.19,0.19,0.185,0.19,1141200,0.19
2015-01-09,0.19,0.2,0.185,0.19,946200,0.19
2015-01-12,0.19,0.19,0.18,0.18,1745800,0.18
2015-01-13,0.18,0.18,0.16,0.17,2270400,0.17
2015-01-14,0.17,0.17,0.16,0.16,1101600,0.16
2015-01-15,0.165,0.165,0.16,0.16,1181900,0.16
2015-01-16,0.16,0.165,0.16,0.165,489400,0.165
2015-01-19,0.17,0.175,0.165,0.175,794400,0.175
2015-01-20,0.175,0.175,0.17,0.17,474700,0.17
2015-01-21,0.17,0.175,0.165,0.175,504100,0.175
2015-01-22,0.175,0.195,0.17,0.185,3942900,0.185
2015-01-23,0.185,0.19,0.18,0.185,1276300,0.185
2015-01-26,0.185,0.185,0.185,0.185,0,0.185
2015-01-27,0.195,0.205,0.17,0.175,3910000,0.175
2015-01-28,0.17,0.18,0.165,0.17,1509900,0.17
2015-01-29,0.17,0.175,0.16,0.16,2031600,0.16
2015-01-30,0.165,0.165,0.16,0.16,820500,0.16
2015-02-02,0.16,0.16,0.155,0.155,1028800,0.155
2015-02-03,0.155,0.155,0.14,0.145,1328900,0.145
2015-02-04,0.15,0.165,0.15,0.155,1997400,0.155
2015-02-05,0.16,0.16,0.15,0.155,574000,0.155
2015-02-06,0.16,0.16,0.155,0.155,232000,0.155
2015-02-09,0.155,0.16,0.15,0.15,735000,0.15
2015-02-10,0.155,0.16,0.155,0.16,460400,0.16
2015-02-11,0.155,0.16,0.15,0.155,339600,0.155
2015-02-12,0.155,0.155,0.145,0.15,2100100,0.15
2015-02-13,0.15,0.155,0.145,0.155,583000,0.155
2015-02-16,0.155,0.165,0.15,0.165,1300500,0.165
2015-02-17,0.165,0.185,0.165,0.18,4249300,0.18
2015-02-18,0.19,0.19,0.17,0.17,1797700,0.17
2015-02-19,0.17,0.18,0.17,0.175,956200,0.175
2015-02-20,0.175,0.18,0.17,0.18,670600,0.18
2015-02-23,0.18,0.18,0.165,0.165,529300,0.165
2015-02-24,0.165,0.17,0.16,0.16,2011900,0.16
2015-02-25,0.16,0.165,0.155,0.155,305400,0.155
2015-02-26,0.165,0.175,0.155,0.16,5478000,0.16
2015-02-27,0.16,0.165,0.155,0.155,1880300,0.155
2015-03-02,0.155,0.155,0.15,0.15,1589700,0.15
2015-03-03,0.155,0.16,0.15,0.15,840400,0.15
2015-03-04,0.15,0.15,0.15,0.15,0,0.15
2015-03-05,0.15,0.15,0.15,0.15,0,0.15
2015-03-06,0.15,0.16,0.145,0.155,1909500,0.155
2015-03-09,0.155,0.155,0.15,0.15,237600,0.15
2015-03-10,0.15,0.15,0.147,0.15,653400,0.15
2015-03-11,0.15,0.155,0.15,0.155,423500,0.155
2015-03-12,0.15,0.15,0.145,0.145,845400,0.145
2015-03-13,0.14,0.14,0.135,0.135,2700700,0.135
2015-03-16,0.135,0.14,0.135,0.14,836000,0.14
2015-03-17,0.14,0.14,0.14,0.14,904300,0.14
2015-03-18,0.14,0.14,0.14,0.14,510000,0.14
2015-03-19,0.14,0.14,0.14,0.14,321900,0.14
2015-03-20,0.145,0.25,0.145,0.25,23052300,0.25
2015-03-23,0.26,0.285,0.21,0.22,29746300,0.22
2015-03-24,0.22,0.265,0.215,0.26,22176100,0.26
2015-03-25,0.275,0.34,0.265,0.31,38706200,0.31
2015-03-26,0.31,0.35,0.292,0.325,20835100,0.325
2015-03-27,0.345,0.375,0.335,0.335,15534900,0.335
2015-03-30,0.335,0.335,0.335,0.335,0,0.335
2015-03-31,0.335,0.335,0.335,0.335,0,0.335
2015-04-01,0.61,0.71,0.525,0.535,62819100,0.535
2015-04-02,0.555,0.555,0.405,0.41,38106100,0.41
2015-04-03,0.41,0.41,0.41,0.41,0,0.41
2015-04-06,0.41,0.41,0.41,0.41,0,0.41
2015-04-07,0.405,0.415,0.345,0.345,16739200,0.345
2015-04-08,0.345,0.38,0.345,0.355,14245100,0.355
2015-04-09,0.365,0.40700000000000003,0.35700000000000004,0.4,13675200,0.4
2015-04-10,0.405,0.43,0.37,0.385,13569300,0.385
2015-04-13,0.38,0.38,0.335,0.345,6590000,0.345
2015-04-14,0.345,0.35,0.32,0.345,5652200,0.345
2015-04-15,0.36,0.385,0.35,0.355,6806800,0.355
2015-04-16,0.355,0.365,0.34,0.355,4307100,0.355
2015-04-17,0.37,0.395,0.365,0.37,11936600,0.37
2015-04-20,0.37,0.415,0.365,0.405,12518100,0.405
2015-04-21,0.415,0.435,0.395,0.4,8687000,0.4
2015-04-22,0.41,0.42,0.392,0.415,3661300,0.415
2015-04-23,0.415,0.415,0.415,0.415,0,0.415
2015-04-24,0.415,0.415,0.415,0.415,0,0.415
2015-04-27,0.52,0.52,0.41,0.42,29963700,0.42
2015-04-28,0.42,0.425,0.39,0.39,5145800,0.39
2015-04-29,0.415,0.42,0.39,0.39,4175700,0.39
2015-04-30,0.39,0.405,0.385,0.39,3088700,0.39
2015-05-01,0.395,0.395,0.375,0.375,3301100,0.375
2015-05-04,0.375,0.385,0.37,0.385,1597100,0.385
2015-05-05,0.385,0.435,0.375,0.425,9065800,0.425
2015-05-06,0.415,0.445,0.395,0.395,9464900,0.395
2015-05-07,0.395,0.395,0.395,0.395,0,0.395
2015-05-08,0.395,0.395,0.395,0.395,0,0.395
2015-05-11,0.38,0.42,0.38,0.42,6897900,0.42
2015-05-12,0.42,0.42,0.42,0.42,0,0.42
2015-05-13,0.42,0.42,0.42,0.42,0,0.42
2015-05-14,0.43,0.435,0.385,0.385,6586700,0.385
2015-05-15,0.39,0.39,0.36,0.36,3663900,0.36
2015-05-18,0.37,0.375,0.35200000000000004,0.355,2608800,0.355
2015-05-19,0.355,0.355,0.335,0.34,4590000,0.34
2015-05-20,0.34,0.36,0.335,0.345,2673400,0.345
2015-05-21,0.345,0.36,0.34,0.345,1281900,0.345
2015-05-22,0.355,0.355,0.335,0.34,1423400,0.34
2015-05-25,0.34,0.345,0.335,0.335,586200,0.335
2015-05-26,0.335,0.345,0.335,0.34,1027000,0.34
2015-05-27,0.335,0.335,0.315,0.32,2895200,0.32
2015-05-28,0.325,0.335,0.32,0.325,1101300,0.325
2015-05-29,0.33,0.34,0.32,0.33,1189600,0.33
2015-06-01,0.325,0.33,0.315,0.32,794200,0.32
2015-06-02,0.31,0.31,0.27,0.28,6787100,0.28
2015-06-03,0.29,0.29,0.275,0.29,2262700,0.29
2015-06-04,0.295,0.31,0.29,0.295,2456300,0.295
2015-06-05,0.3,0.3,0.285,0.285,1222400,0.285
2015-06-08,0.285,0.285,0.285,0.285,0,0.285
2015-06-09,0.3,0.31,0.3,0.305,1799200,0.305
2015-06-10,0.305,0.305,0.295,0.295,1015600,0.295
2015-06-11,0.295,0.32,0.295,0.305,2707400,0.305
2015-06-12,0.305,0.335,0.305,0.32,4481000,0.32
2015-06-15,0.32,0.34,0.32,0.325,4884200,0.325
2015-06-16,0.33,0.33,0.31,0.315,1098700,0.315
2015-06-17,0.315,0.32,0.31,0.31,1092800,0.31
2015-06-18,0.315,0.315,0.295,0.295,1473800,0.295
2015-06-19,0.3,0.305,0.285,0.29,1203700,0.29
2015-06-22,0.29,0.29,0.28,0.28,1902500,0.28
2015-06-23,0.28,0.295,0.28,0.29,673200,0.29
2015-06-24,0.29,0.29,0.28,0.28,559800,0.28
2015-06-25,0.28,0.29,0.27,0.275,1770100,0.275
2015-06-26,0.275,0.275,0.25,0.26,3048800,0.26
2015-06-29,0.255,0.255,0.225,0.225,2538400,0.225
2015-06-30,0.23,0.25,0.225,0.235,2520500,0.235
2015-07-01,0.25,0.28,0.245,0.27,2595900,0.27
2015-07-02,0.265,0.27,0.26,0.27,743400,0.27
2015-07-03,0.27,0.275,0.26,0.265,1018700,0.265
2015-07-06,0.265,0.265,0.245,0.255,1079200,0.255
2015-07-07,0.26,0.26,0.255,0.26,558600,0.26
2015-07-08,0.255,0.26,0.25,0.25,509200,0.25
2015-07-09,0.25,0.25,0.235,0.24,1609500,0.24
2015-07-10,0.245,0.245,0.235,0.24,397500,0.24
2015-07-13,0.24,0.245,0.24,0.24,516400,0.24
2015-07-14,0.245,0.25,0.24,0.245,586000,0.245
2015-07-15,0.245,0.275,0.245,0.275,2186600,0.275
2015-07-16,0.27,0.28,0.26,0.26,1393600,0.26
2015-07-17,0.265,0.287,0.26,0.285,2615000,0.285
2015-07-20,0.29,0.31,0.28,0.31,4500100,0.31
2015-07-21,0.305,0.31,0.295,0.3,2072300,0.3
2015-07-22,0.3,0.3,0.295,0.295,839000,0.295
2015-07-23,0.3,0.325,0.295,0.325,4137700,0.325
2015-07-24,0.325,0.34,0.305,0.305,4060600,0.305
2015-07-27,0.3,0.315,0.3,0.315,2506300,0.315
2015-07-28,0.31,0.31,0.295,0.295,1802300,0.295
2015-07-29,0.295,0.305,0.295,0.295,925400,0.295
2015-07-30,0.3,0.315,0.3,0.31,1141000,0.31
2015-07-31,0.305,0.325,0.295,0.32,2854400,0.32
2015-08-03,0.315,0.32,0.31,0.31,568000,0.31
2015-08-04,0.31,0.31,0.295,0.295,1956700,0.295
2015-08-05,0.29,0.29,0.275,0.275,2211400,0.275
2015-08-06,0.275,0.28,0.275,0.275,486900,0.275
2015-08-07,0.275,0.275,0.27,0.27,1506200,0.27
2015-08-10,0.27,0.29,0.27,0.285,1516700,0.285
2015-08-11,0.28,0.29,0.265,0.275,1415900,0.275
2015-08-12,0.275,0.275,0.265,0.27,1067200,0.27
2015-08-13,0.27,0.275,0.27,0.275,366200,0.275
2015-08-14,0.285,0.29,0.28,0.28,1784600,0.28
2015-08-17,0.28,0.28,0.265,0.265,1231200,0.265
2015-08-18,0.265,0.27,0.255,0.26,2363200,0.26
2015-08-19,0.275,0.275,0.26,0.27,704800,0.27
2015-08-20,0.265,0.325,0.255,0.295,11573900,0.295
2015-08-21,0.29,0.295,0.27,0.27,3286000,0.27
2015-08-24,0.26,0.265,0.24,0.245,3725700,0.245
2015-08-25,0.23,0.26,0.225,0.26,4073600,0.26
2015-08-26,0.26,0.265,0.245,0.255,1304000,0.255
2015-08-27,0.26,0.265,0.25,0.25,849200,0.25
2015-08-28,0.28,0.285,0.255,0.26,4780900,0.26
2015-08-31,0.265,0.265,0.255,0.255,959700,0.255
2015-09-01,0.26,0.26,0.25,0.25,392400,0.25
2015-09-02,0.25,0.265,0.25,0.255,1901300,0.255
2015-09-03,0.255,0.255,0.245,0.245,1836800,0.245
2015-09-04,0.25,0.252,0.245,0.245,671300,0.245
2015-09-07,0.25,0.25,0.245,0.245,630900,0.245
2015-09-08,0.245,0.25,0.245,0.245,398200,0.245
2015-09-09,0.25,0.265,0.25,0.26,3099400,0.26
2015-09-10,0.255,0.26,0.25,0.26,761300,0.26
2015-09-11,0.26,0.28,0.26,0.265,3502500,0.265
2015-09-14,0.265,0.27,0.255,0.255,866600,0.255
2015-09-15,0.255,0.265,0.255,0.255,1250700,0.255
2015-09-16,0.26,0.275,0.26,0.275,1312600,0.275
2015-09-17,0.28,0.28,0.27,0.27,1062700,0.27
2015-09-18,0.27,0.29,0.26,0.26,4508000,0.26
2015-09-21,0.26,0.265,0.25,0.25,1488100,0.25
2015-09-22,0.25,0.255,0.25,0.25,1032500,0.25
2015-09-23,0.25,0.25,0.245,0.245,1172200,0.245
2015-09-24,0.25,0.25,0.242,0.245,743200,0.245
2015-09-25,0.25,0.25,0.245,0.245,713100,0.245
2015-09-28,0.245,0.245,0.24,0.245,1089800,0.245
2015-09-29,0.245,0.245,0.242,0.245,474300,0.245
2015-09-30,0.25,0.25,0.24,0.24,536500,0.24
2015-10-01,0.24,0.25,0.24,0.24,787700,0.24
2015-10-02,0.235,0.2375,0.23,0.235,1157800,0.235
2015-10-05,0.235,0.245,0.23199999999999998,0.245,748600,0.245
2015-10-06,0.24,0.24,0.23,0.24,979700,0.24
2015-10-07,0.24,0.275,0.237,0.25,5990100,0.25
2015-10-08,0.255,0.262,0.245,0.245,1757100,0.245
2015-10-09,0.25,0.255,0.245,0.25,1520700,0.25
2015-10-12,0.25,0.25,0.245,0.25,620900,0.25
2015-10-13,0.25,0.25,0.24,0.24,1463200,0.24
2015-10-14,0.245,0.245,0.225,0.225,4542500,0.225
2015-10-15,0.225,0.225,0.21,0.22,3253900,0.22
2015-10-16,0.22,0.225,0.215,0.215,1017100,0.215
2015-10-19,0.22,0.22,0.21,0.21,1070000,0.21
2015-10-20,0.21,0.215,0.2,0.205,1665600,0.205
2015-10-21,0.205,0.215,0.205,0.21,1216700,0.21
2015-10-22,0.215,0.22,0.205,0.205,1109800,0.205
2015-10-23,0.205,0.21,0.2,0.205,2331900,0.205
2015-10-26,0.205,0.21,0.205,0.205,740500,0.205
2015-10-27,0.21,0.21,0.2,0.2,1489100,0.2
2015-10-28,0.2,0.205,0.195,0.2,1898500,0.2
2015-10-29,0.2,0.205,0.195,0.2,1112700,0.2
2015-10-30,0.195,0.2,0.19,0.195,1944300,0.195
2015-11-02,0.195,0.2,0.185,0.185,1021500,0.185
2015-11-03,0.185,0.185,0.185,0.185,0,0.185
2015-11-04,0.185,0.185,0.185,0.185,0,0.185
2015-11-05,0.185,0.185,0.185,0.185,0,0.185
2015-11-06,0.185,0.185,0.185,0.185,0,0.185
2015-11-09,0.185,0.185,0.185,0.185,0,0.185
2015-11-10,0.185,0.185,0.185,0.185,0,0.185
2015-11-11,0.185,0.185,0.185,0.185,0,0.185
2015-11-12,0.15,0.16,0.14,0.145,6533100,0.145
2015-11-13,0.145,0.15,0.14,0.145,2349900,0.145
2015-11-16,0.145,0.15,0.145,0.15,2785100,0.15
2015-11-17,0.15,0.15,0.145,0.145,950800,0.145
2015-11-18,0.15,0.15,0.147,0.15,1568200,0.15
2015-11-19,0.15,0.155,0.15,0.155,2417200,0.155
2015-11-20,0.16,0.165,0.155,0.155,2158800,0.155
2015-11-23,0.155,0.16,0.15,0.15,750100,0.15
2015-11-24,0.15,0.15,0.145,0.145,984400,0.145
2015-11-25,0.145,0.15,0.14,0.14,2013300,0.14
2015-11-26,0.145,0.145,0.14,0.14,319300,0.14
2015-11-27,0.145,0.145,0.14,0.14,805300,0.14
2015-11-30,0.14,0.1425,0.135,0.135,686700,0.135
2015-12-01,0.135,0.14,0.135,0.135,855600,0.135
2015-12-02,0.135,0.135,0.135,0.135,0,0.135
2015-12-03,0.135,0.135,0.135,0.135,0,0.135
2015-12-04,0.135,0.14,0.13,0.13,1356200,0.13
2015-12-07,0.135,0.135,0.125,0.125,1913000,0.125
2015-12-08,0.125,0.1275,0.09699999999999999,0.105,8284000,0.105
2015-12-09,0.11,0.11,0.1,0.1,2166800,0.1
2015-12-10,0.105,0.105,0.1,0.105,2754800,0.105
2015-12-11,0.105,0.105,0.1,0.1,1007500,0.1
2015-12-14,0.1,0.105,0.092,0.09300000000000001,4319100,0.09300000000000001
2015-12-15,0.09300000000000001,0.09300000000000001,0.09300000000000001,0.09300000000000001,0,0.09300000000000001
2015-12-16,0.09300000000000001,0.09300000000000001,0.09300000000000001,0.09300000000000001,0,0.09300000000000001
2015-12-17,0.08900000000000001,0.08900000000000001,0.08199999999999999,0.08199999999999999,3421000,0.08199999999999999
2015-12-18,0.085,0.092,0.084,0.09,2055100,0.09
2015-12-21,0.08800000000000001,0.09,0.087,0.08800000000000001,994200,0.08800000000000001
2015-12-22,0.091,0.091,0.08900000000000001,0.08900000000000001,560100,0.08900000000000001
2015-12-23,0.08900000000000001,0.09,0.085,0.086,1490900,0.086
2015-12-24,0.09,0.09,0.087,0.08900000000000001,218500,0.08900000000000001
2015-12-25,0.08900000000000001,0.08900000000000001,0.08900000000000001,0.08900000000000001,0,0.08900000000000001
2015-12-28,0.08900000000000001,0.08900000000000001,0.08900000000000001,0.08900000000000001,0,0.08900000000000001
2015-12-29,0.08900000000000001,0.092,0.086,0.086,783700,0.086
2015-12-30,0.087,0.08800000000000001,0.085,0.08800000000000001,430700,0.08800000000000001
2015-12-31,0.08800000000000001,0.08800000000000001,0.086,0.08800000000000001,201600,0.08800000000000001
2016-01-01,0.08800000000000001,0.08800000000000001,0.08800000000000001,0.08800000000000001,0,0.08800000000000001
2016-01-04,0.087,0.08800000000000001,0.085,0.08800000000000001,394200,0.08800000000000001
2016-01-05,0.087,0.087,0.086,0.086,163100,0.086
2016-01-06,0.085,0.087,0.085,0.086,961600,0.086
2016-01-07,0.086,0.0865,0.084,0.085,585400,0.085
2016-01-08,0.085,0.085,0.081,0.084,1475800,0.084
2016-01-11,0.08199999999999999,0.091,0.08199999999999999,0.09,2803600,0.09
2016-01-12,0.09,0.09,0.087,0.08800000000000001,1672500,0.08800000000000001
2016-01-13,0.08900000000000001,0.092,0.08900000000000001,0.092,785400,0.092
2016-01-14,0.09,0.092,0.08900000000000001,0.09,860400,0.09
2016-01-15,0.09,0.095,0.09,0.09,1449300,0.09
2016-01-18,0.08900000000000001,0.091,0.08,0.08800000000000001,1790500,0.08800000000000001
2016-01-19,0.08900000000000001,0.09,0.08800000000000001,0.08800000000000001,968400,0.08800000000000001
2016-01-20,0.08900000000000001,0.08900000000000001,0.084,0.084,669800,0.084
2016-01-21,0.084,0.087,0.083,0.087,991300,0.087
2016-01-22,0.08800000000000001,0.0885,0.086,0.087,651200,0.087
2016-01-25,0.08800000000000001,0.09,0.086,0.087,1354500,0.087
2016-01-26,0.087,0.087,0.087,0.087,0,0.087
2016-01-27,0.087,0.08800000000000001,0.087,0.087,1450800,0.087
2016-01-28,0.087,0.0875,0.085,0.087,1184300,0.087
2016-01-29,0.087,0.08900000000000001,0.087,0.087,911100,0.087
2016-02-01,0.087,0.08800000000000001,0.087,0.08800000000000001,378100,0.08800000000000001
2016-02-02,0.08800000000000001,0.08900000000000001,0.087,0.087,727800,0.087
2016-02-03,0.08800000000000001,0.08800000000000001,0.087,0.087,412000,0.087
2016-02-04,0.08800000000000001,0.08800000000000001,0.087,0.08800000000000001,507800,0.08800000000000001
2016-02-05,0.087,0.08800000000000001,0.085,0.085,1571700,0.085
2016-02-08,0.085,0.087,0.083,0.086,1984400,0.086
2016-02-09,0.085,0.085,0.079,0.08,2384400,0.08
2016-02-10,0.077,0.077,0.073,0.07400000000000001,688900,0.07400000000000001
2016-02-11,0.07400000000000001,0.07400000000000001,0.07400000000000001,0.07400000000000001,0,0.07400000000000001
2016-02-12,0.075,0.077,0.064,0.066,4928300,0.066
2016-02-15,0.068,0.07400000000000001,0.066,0.069,1638900,0.069
2016-02-16,0.071,0.07200000000000001,0.069,0.069,2413400,0.069
2016-02-17,0.069,0.07,0.064,0.069,2621600,0.069
2016-02-18,0.069,0.069,0.064,0.065,4516300,0.065
2016-02-19,0.063,0.063,0.055,0.06,5526000,0.06
2016-02-22,0.059000000000000004,0.063,0.057,0.063,3474600,0.063
2016-02-23,0.06,0.063,0.057,0.059000000000000004,4455600,0.059000000000000004
2016-02-24,0.059000000000000004,0.059000000000000004,0.054000000000000006,0.055,2798200,0.055
2016-02-25,0.053,0.055,0.052000000000000005,0.054000000000000006,4269400,0.054000000000000006
2016-02-26,0.053,0.067,0.053,0.066,14753100,0.066
2016-02-29,0.066,0.066,0.066,0.066,0,0.066
2016-03-01,0.061,0.062,0.055999999999999994,0.059000000000000004,16227500,0.059000000000000004
2016-03-02,0.059000000000000004,0.063,0.057999999999999996,0.061,8128900,0.061
2016-03-03,0.061,0.061,0.061,0.061,0,0.061
2016-03-04,0.061,0.061,0.061,0.061,0,0.061
2016-03-07,0.061,0.061,0.061,0.061,0,0.061
2016-03-08,0.061,0.061,0.061,0.061,0,0.061
2016-03-09,0.061,0.061,0.061,0.061,0,0.061
2016-03-10,0.061,0.061,0.061,0.061,0,0.061
2016-03-11,0.061,0.061,0.061,0.061,0,0.061
2016-03-14,0.061,0.061,0.061,0.061,0,0.061
2016-03-15,0.061,0.061,0.061,0.061,0,0.061
2016-03-16,0.061,0.061,0.061,0.061,0,0.061
2016-03-17,0.061,0.061,0.061,0.061,0,0.061
2016-03-18,0.061,0.061,0.061,0.061,0,0.061
2016-03-21,0.061,0.061,0.061,0.061,0,0.061
2016-03-22,0.061,0.061,0.061,0.061,0,0.061
2016-03-23,0.061,0.061,0.061,0.061,0,0.061
2016-03-24,0.061,0.061,0.061,0.061,0,0.061
2016-03-25,0.061,0.061,0.061,0.061,0,0.061
2016-03-28,0.061,0.061,0.061,0.061,0,0.061
2016-03-29,0.061,0.061,0.061,0.061,0,0.061
2016-03-30,0.061,0.061,0.061,0.061,0,0.061
2016-03-31,0.061,0.061,0.061,0.061,0,0.061
2016-04-01,0.061,0.061,0.061,0.061,0,0.061
2016-04-04,0.061,0.061,0.061,0.061,0,0.061
2016-04-05,0.061,0.061,0.061,0.061,0,0.061
2016-04-06,0.061,0.061,0.061,0.061,0,0.061
2016-04-07,0.061,0.061,0.061,0.061,0,0.061
2016-04-08,0.061,0.061,0.061,0.061,0,0.061
2016-04-11,0.061,0.061,0.061,0.061,0,0.061
2016-04-12,0.061,0.061,0.061,0.061,0,0.061
2016-04-13,0.061,0.061,0.061,0.061,0,0.061
2016-04-14,0.061,0.061,0.061,0.061,0,0.061
2016-04-15,0.061,0.061,0.061,0.061,0,0.061
2016-04-18,0.061,0.061,0.061,0.061,0,0.061
2016-04-19,0.061,0.061,0.061,0.061,0,0.061
2016-04-20,0.061,0.061,0.061,0.061,0,0.061
2016-04-21,0.061,0.061,0.061,0.061,0,0.061
2016-04-22,0.061,0.061,0.061,0.061,0,0.061
2016-04-25,0.061,0.061,0.061,0.061,0,0.061
2016-04-26,0.061,0.061,0.061,0.061,0,0.061
2016-04-27,0.061,0.061,0.061,0.061,0,0.061
2016-04-28,0.061,0.061,0.061,0.061,0,0.061
2016-04-29,0.061,0.061,0.061,0.061,0,0.061
2016-05-02,0.061,0.061,0.061,0.061,0,0.061
2016-05-03,0.061,0.061,0.061,0.061,0,0.061
2016-05-04,0.061,0.061,0.061,0.061,0,0.061
2016-05-05,0.061,0.061,0.061,0.061,0,0.061
2016-05-06,0.061,0.061,0.061,0.061,0,0.061
2016-05-09,0.061,0.061,0.061,0.061,0,0.061
2016-05-10,0.061,0.061,0.061,0.061,0,0.061
2016-05-11,0.061,0.061,0.061,0.061,0,0.061
2016-05-12,0.061,0.061,0.061,0.061,0,0.061
2016-05-13,0.061,0.061,0.061,0.061,0,0.061
2016-05-16,0.061,0.061,0.061,0.061,0,0.061
2016-05-17,0.061,0.061,0.061,0.061,0,0.061
2016-05-18,0.061,0.061,0.061,0.061,0,0.061
2016-05-19,0.061,0.061,0.061,0.061,0,0.061
2016-05-20,0.061,0.061,0.061,0.061,0,0.061
2016-05-23,0.061,0.061,0.061,0.061,0,0.061
2016-05-24,0.061,0.061,0.061,0.061,0,0.061
2016-05-25,0.061,0.061,0.061,0.061,0,0.061
2016-05-26,0.061,0.061,0.061,0.061,0,0.061
2016-05-27,0.061,0.061,0.061,0.061,0,0.061
2016-05-30,0.061,0.061,0.061,0.061,0,0.061
2016-05-31,0.061,0.061,0.061,0.061,0,0.061
2016-06-01,0.061,0.061,0.061,0.061,0,0.061
2016-06-02,0.061,0.061,0.061,0.061,0,0.061
2016-06-03,0.061,0.061,0.061,0.061,0,0.061
2016-06-06,0.061,0.061,0.061,0.061,0,0.061
2016-06-07,0.061,0.061,0.061,0.061,0,0.061
2016-06-08,0.061,0.061,0.061,0.061,0,0.061
2016-06-09,0.061,0.061,0.061,0.061,0,0.061
2016-06-10,0.061,0.061,0.061,0.061,0,0.061
2016-06-13,0.061,0.061,0.061,0.061,0,0.061
2016-06-14,0.061,0.061,0.061,0.061,0,0.061
2016-06-15,0.061,0.061,0.061,0.061,0,0.061
2016-06-16,0.061,0.061,0.061,0.061,0,0.061
2016-06-17,0.061,0.061,0.061,0.061,0,0.061
2016-06-20,0.061,0.061,0.061,0.061,0,0.061
2016-06-21,0.061,0.061,0.061,0.061,0,0.061
2016-06-22,0.061,0.061,0.061,0.061,0,0.061
2016-06-23,0.061,0.061,0.061,0.061,0,0.061
2016-06-24,0.061,0.061,0.061,0.061,0,0.061
2016-06-27,0.061,0.061,0.061,0.061,0,0.061
2016-06-28,0.061,0.061,0.061,0.061,0,0.061
2016-06-29,0.061,0.061,0.061,0.061,0,0.061
2016-06-30,0.061,0.061,0.061,0.061,0,0.061
2016-07-01,0.061,0.061,0.061,0.061,0,0.061
2016-07-04,0.061,0.061,0.061,0.061,0,0.061
2016-07-05,0.061,0.061,0.061,0.061,0,0.061
2016-07-06,0.061,0.061,0.061,0.061,0,0.061
2016-07-07,0.061,0.061,0.061,0.061,0,0.061
2016-07-08,0.061,0.061,0.061,0.061,0,0.061
2016-07-11,0.061,0.061,0.061,0.061,0,0.061
2016-07-12,0.061,0.061,0.061,0.061,0,0.061
2016-07-13,0.061,0.061,0.061,0.061,0,0.061
2016-07-14,0.061,0.061,0.061,0.061,0,0.061
2016-07-15,0.061,0.061,0.061,0.061,0,0.061
2016-07-18,0.061,0.061,0.061,0.061,0,0.061
2016-07-19,0.061,0.061,0.061,0.061,0,0.061
2016-07-20,0.061,0.061,0.061,0.061,0,0.061
2016-07-21,0.061,0.061,0.061,0.061,0,0.061
2016-07-22,0.061,0.061,0.061,0.061,0,0.061
2016-07-25,0.061,0.061,0.061,0.061,0,0.061
2016-07-26,0.061,0.061,0.061,0.061,0,0.061
2016-07-27,0.061,0.061,0.061,0.061,0,0.061
2016-07-28,0.061,0.061,0.061,0.061,0,0.061
2016-07-29,0.061,0.061,0.061,0.061,0,0.061
2016-08-01,0.061,0.061,0.061,0.061,0,0.061
2016-08-02,0.061,0.061,0.061,0.061,0,0.061
2016-08-03,0.061,0.061,0.061,0.061,0,0.061
2016-08-04,0.061,0.061,0.061,0.061,0,0.061
2016-08-05,0.061,0.061,0.061,0.061,0,0.061
2016-08-08,0.061,0.061,0.061,0.061,0,0.061
2016-08-09,0.061,0.061,0.061,0.061,0,0.061
2016-08-10,0.061,0.061,0.061,0.061,0,0.061
2016-08-11,0.061,0.061,0.061,0.061,0,0.061
2016-08-12,0.061,0.061,0.061,0.061,0,0.061
2016-08-15,0.061,0.061,0.061,0.061,0,0.061
2016-08-16,0.061,0.061,0.061,0.061,0,0.061
2016-08-17,0.061,0.061,0.061,0.061,0,0.061
2016-08-18,0.061,0.061,0.061,0.061,0,0.061
2016-08-19,0.061,0.061,0.061,0.061,0,0.061
2016-08-22,0.061,0.061,0.061,0.061,0,0.061
2016-08-23,0.061,0.061,0.061,0.061,0,0.061
2016-08-24,0.061,0.061,0.061,0.061,0,0.061
2016-08-25,0.061,0.061,0.061,0.061,0,0.061
2016-08-26,0.061,0.061,0.061,0.061,0,0.061
2016-08-29,0.061,0.061,0.061,0.061,0,0.061
2016-08-30,0.061,0.061,0.061,0.061,0,0.061
2016-08-31,0.061,0.061,0.061,0.061,0,0.061
2016-09-01,0.061,0.061,0.061,0.061,0,0.061
2016-09-02,0.061,0.061,0.061,0.061,0,0.061
2016-09-05,0.061,0.061,0.061,0.061,0,0.061
2016-09-06,0.061,0.061,0.061,0.061,0,0.061
2016-09-07,0.061,0.061,0.061,0.061,0,0.061
2016-09-08,0.061,0.061,0.061,0.061,0,0.061
2016-09-09,0.061,0.061,0.061,0.061,0,0.061
2016-09-12,0.061,0.061,0.061,0.061,0,0.061
2016-09-13,0.061,0.061,0.061,0.061,0,0.061
2016-09-14,0.061,0.061,0.061,0.061,0,0.061
2016-09-15,0.061,0.061,0.061,0.061,0,0.061
2016-09-16,0.061,0.061,0.061,0.061,0,0.061
2016-09-19,0.061,0.061,0.061,0.061,0,0.061
2016-09-20,0.061,0.061,0.061,0.061,0,0.061
2016-09-21,0.061,0.061,0.061,0.061,0,0.061
2016-09-22,0.061,0.061,0.061,0.061,0,0.061
2016-09-23,0.061,0.061,0.061,0.061,0,0.061
2016-09-26,0.061,0.061,0.061,0.061,0,0.061
2016-09-27,0.061,0.061,0.061,0.061,0,0.061
2016-09-28,0.061,0.061,0.061,0.061,0,0.061
2016-09-29,0.061,0.061,0.061,0.061,0,0.061
2016-09-30,0.061,0.061,0.061,0.061,0,0.061
2016-10-03,0.061,0.061,0.061,0.061,0,0.061
2016-10-04,0.061,0.061,0.061,0.061,0,0.061
2016-10-05,0.061,0.061,0.061,0.061,0,0.061
2016-10-06,0.061,0.061,0.061,0.061,0,0.061
2016-10-07,0.061,0.061,0.061,0.061,0,0.061
2016-10-10,0.061,0.061,0.061,0.061,0,0.061
2016-10-11,0.061,0.061,0.061,0.061,0,0.061
2016-10-12,0.061,0.061,0.061,0.061,0,0.061
2016-10-13,0.061,0.061,0.061,0.061,0,0.061
2016-10-14,0.061,0.061,0.061,0.061,0,0.061
2016-10-17,0.061,0.061,0.061,0.061,0,0.061
2016-10-18,0.061,0.061,0.061,0.061,0,0.061
2016-10-19,0.061,0.061,0.061,0.061,0,0.061
2016-10-20,0.061,0.061,0.061,0.061,0,0.061
2016-10-21,0.061,0.061,0.061,0.061,0,0.061
2016-10-24,0.061,0.061,0.061,0.061,0,0.061
2016-10-25,0.061,0.061,0.061,0.061,0,0.061
2016-10-26,0.061,0.061,0.061,0.061,0,0.061
2016-10-27,0.0608,0.0608,0.0608,0.0608,0,0.0608
2016-10-28,0.0608,0.0608,0.0608,0.0608,0,0.0608
2016-10-31,0.0608,0.0608,0.0608,0.0608,0,0.0608
2016-11-01,0.0608,0.0608,0.0608,0.0608,0,0.0608
2016-11-02,0.0608,0.0608,0.0608,0.0608,0,0.0608
2016-11-03,0.0608,0.0608,0.0608,0.0608,0,0.0608
2016-11-04,0.0608,0.0608,0.0608,0.0608,0,0.0608
2016-11-07,0.0608,0.0608,0.0608,0.0608,0,0.0608
2016-11-08,0.0608,0.0608,0.0608,0.0608,0,0.0608
2016-11-09,0.0608,0.0608,0.0608,0.0608,0,0.0608
2016-11-10,0.0608,0.0608,0.0608,0.0608,0,0.0608
2016-11-11,0.0608,0.0608,0.0608,0.0608,0,0.0608
2016-11-14,0.0608,0.0608,0.0608,0.0608,0,0.0608
2016-11-15,0.0608,0.0608,0.0608,0.0608,0,0.0608
2016-11-16,0.0608,0.0608,0.0608,0.0608,0,0.0608
2016-11-17,0.0608,0.0608,0.0608,0.0608,0,0.0608
2016-11-18,0.0608,0.0608,0.0608,0.0608,0,0.0608
2016-11-21,0.0608,0.0608,0.0608,0.0608,0,0.0608
2016-11-22,0.0608,0.0608,0.0608,0.0608,0,0.0608
2016-11-23,0.0608,0.0608,0.0608,0.0608,0,0.0608
2016-11-24,0.0608,0.0608,0.0608,0.0608,0,0.0608
2016-11-25,0.0608,0.0608,0.0608,0.0608,0,0.0608
2016-11-28,0.0608,0.0608,0.0608,0.0608,0,0.0608
2016-11-29,0.0608,0.0608,0.0608,0.0608,0,0.0608
2016-11-30,0.0608,0.0608,0.0608,0.0608,0,0.0608
2016-12-01,0.0608,0.0608,0.0608,0.0608,0,0.0608
2016-12-02,0.0608,0.0608,0.0608,0.0608,0,0.0608
2016-12-05,0.0608,0.0608,0.0608,0.0608,0,0.0608
2016-12-06,0.075,0.09699999999999999,0.068,0.095,146845600,0.095
2016-12-07,0.09,0.095,0.086,0.08900000000000001,70554200,0.08900000000000001
2016-12-08,0.08800000000000001,0.08900000000000001,0.07400000000000001,0.075,29479000,0.075
2016-12-09,0.07400000000000001,0.075,0.071,0.07200000000000001,7419600,0.07200000000000001
2016-12-12,0.073,0.077,0.071,0.071,13175100,0.071
2016-12-13,0.07,0.07,0.066,0.067,6935900,0.067
2016-12-14,0.066,0.07,0.066,0.067,10923900,0.067
2016-12-15,0.067,0.067,0.064,0.065,7860300,0.065
2016-12-16,0.067,0.067,0.061,0.061,5538100,0.061
2016-12-19,0.062,0.064,0.061,0.062,3301900,0.062
2016-12-20,0.063,0.067,0.063,0.064,5991000,0.064
2016-12-21,0.064,0.064,0.062,0.062,1053600,0.062
2016-12-22,0.062,0.063,0.062,0.062,636100,0.062
2016-12-23,0.062,0.064,0.062,0.063,133900,0.063
2016-12-26,0.063,0.063,0.063,0.063,0,0.063
2016-12-27,0.063,0.063,0.063,0.063,0,0.063
2016-12-28,0.062,0.063,0.062,0.062,576900,0.062
2016-12-29,0.063,0.064,0.063,0.063,508700,0.063
2016-12-30,0.063,0.064,0.063,0.064,553600,0.064
