Date,Open,High,Low,Close,Volume,Adj Close
2015-04-22,1.35,1.35,1.335,1.35,2000,1.1909999999999998
2015-04-23,1.3,1.3,1.29,1.29,67000,1.138
2015-04-24,1.29,1.295,1.29,1.29,181000,1.138
2015-04-27,1.29,1.31,1.29,1.29,155800,1.138
2015-04-28,1.29,1.29,1.29,1.29,0,1.138
2015-04-29,1.29,1.29,1.29,1.29,46000,1.138
2015-04-30,1.29,1.29,1.28,1.29,24900,1.138
2015-05-01,1.28,1.31,1.28,1.31,34600,1.156
2015-05-04,1.31,1.31,1.31,1.31,0,1.156
2015-05-05,1.29,1.29,1.285,1.285,65500,1.133
2015-05-06,1.29,1.29,1.28,1.285,60500,1.133
2015-05-07,1.28,1.285,1.26,1.26,59500,1.111
2015-05-08,1.255,1.255,1.25,1.25,137200,1.103
2015-05-11,1.26,1.26,1.25,1.25,40000,1.103
2015-05-12,1.25,1.25,1.25,1.25,10000,1.103
2015-05-13,1.26,1.26,1.25,1.25,46600,1.103
2015-05-14,1.25,1.25,1.25,1.25,0,1.103
2015-05-15,1.25,1.25,1.25,1.25,0,1.103
2015-05-18,1.24,1.25,1.24,1.25,8500,1.103
2015-05-19,1.25,1.25,1.25,1.25,0,1.103
2015-05-20,1.25,1.25,1.25,1.25,0,1.103
2015-05-21,1.22,1.25,1.2,1.25,47200,1.103
2015-05-22,1.2,1.25,1.2,1.25,30200,1.103
2015-05-25,1.25,1.25,1.23,1.23,83000,1.085
2015-05-26,1.22,1.22,1.22,1.22,30100,1.0759999999999998
2015-05-27,1.22,1.22,1.22,1.22,4900,1.0759999999999998
2015-05-28,1.21,1.21,1.16,1.2,47500,1.0590000000000002
2015-05-29,1.2,1.2,1.2,1.2,0,1.0590000000000002
2015-06-01,1.2,1.22,1.2,1.22,23200,1.0759999999999998
2015-06-02,1.23,1.23,1.23,1.23,3400,1.085
2015-06-03,1.23,1.25,1.22,1.25,30300,1.103
2015-06-04,1.22,1.22,1.2,1.2,20000,1.0590000000000002
2015-06-05,1.2,1.2,1.2,1.2,5800,1.0590000000000002
2015-06-08,1.2,1.2,1.2,1.2,0,1.0590000000000002
2015-06-09,1.2,1.2,1.2,1.2,4000,1.0590000000000002
2015-06-10,1.2,1.2,1.18,1.18,16400,1.041
2015-06-11,1.18,1.18,1.17,1.18,32500,1.041
2015-06-12,1.18,1.18,1.18,1.18,0,1.041
2015-06-15,1.17,1.17,1.17,1.17,10000,1.032
2015-06-16,1.18,1.18,1.17,1.17,121100,1.032
2015-06-17,1.18,1.19,1.18,1.18,15000,1.041
2015-06-18,1.18,1.19,1.18,1.19,10000,1.05
2015-06-19,1.19,1.19,1.19,1.19,9600,1.05
2015-06-22,1.19,1.19,1.19,1.19,300,1.05
2015-06-23,1.2,1.2,1.19,1.19,10000,1.05
2015-06-24,1.17,1.19,1.17,1.19,8700,1.05
2015-06-25,1.19,1.19,1.17,1.17,5000,1.032
2015-06-26,1.17,1.17,1.17,1.17,0,1.057
2015-06-29,1.17,1.17,1.17,1.17,0,1.057
2015-06-30,1.17,1.17,1.17,1.17,0,1.057
2015-07-01,1.17,1.17,1.17,1.17,0,1.057
2015-07-02,1.17,1.17,1.17,1.17,0,1.057
2015-07-03,1.13,1.18,1.13,1.18,6000,1.0659999999999998
2015-07-06,1.16,1.16,1.16,1.16,30000,1.048
2015-07-07,1.17,1.19,1.17,1.19,14000,1.0759999999999998
2015-07-08,1.18,1.19,1.18,1.19,2500,1.0759999999999998
2015-07-09,1.18,1.18,1.18,1.18,1000,1.0659999999999998
2015-07-10,1.18,1.19,1.18,1.19,26300,1.0759999999999998
2015-07-13,1.14,1.14,1.14,1.14,1000,1.03
2015-07-14,1.17,1.17,1.17,1.17,1000,1.057
2015-07-15,1.15,1.175,1.15,1.175,28500,1.062
2015-07-16,1.15,1.15,1.15,1.15,1000,1.0390000000000001
2015-07-17,1.165,1.19,1.135,1.135,45000,1.026
2015-07-20,1.16,1.16,1.16,1.16,12000,1.048
2015-07-21,1.16,1.16,1.16,1.16,35000,1.048
2015-07-22,1.15,1.15,1.14,1.14,42000,1.03
2015-07-23,1.14,1.15,1.14,1.15,16000,1.0390000000000001
2015-07-24,1.14,1.14,1.14,1.14,1000,1.03
2015-07-27,1.14,1.14,1.14,1.14,11000,1.03
2015-07-28,1.14,1.14,1.14,1.14,10500,1.03
2015-07-29,1.14,1.16,1.14,1.16,45500,1.048
2015-07-30,1.16,1.16,1.16,1.16,25600,1.048
2015-07-31,1.15,1.15,1.12,1.14,12500,1.03
2015-08-03,1.14,1.16,1.14,1.16,22800,1.048
2015-08-04,1.16,1.16,1.15,1.155,49100,1.044
2015-08-05,1.155,1.16,1.15,1.16,55500,1.048
2015-08-06,1.15,1.15,1.135,1.14,39000,1.03
2015-08-07,1.14,1.14,1.12,1.12,44500,1.012
2015-08-10,1.105,1.125,1.1,1.125,23000,1.0170000000000001
2015-08-11,1.125,1.125,1.125,1.125,0,1.0170000000000001
2015-08-12,1.12,1.12,1.12,1.12,3000,1.012
2015-08-13,1.11,1.11,1.11,1.11,17500,1.003
2015-08-14,1.11,1.11,1.11,1.11,0,1.003
2015-08-17,1.11,1.11,1.11,1.11,20500,1.003
2015-08-18,1.11,1.11,1.11,1.11,31900,1.003
2015-08-19,1.11,1.11,1.11,1.11,0,1.003
2015-08-20,1.11,1.11,1.1,1.11,20800,1.003
2015-08-21,1.08,1.08,1.08,1.08,6000,0.976
2015-08-24,1.02,1.05,1.02,1.035,23300,0.935
2015-08-25,1.03,1.05,1.0,1.05,69500,0.9490000000000001
2015-08-26,1.02,1.13,1.02,1.11,133500,1.003
2015-08-27,1.11,1.11,1.07,1.07,6200,0.9670000000000001
2015-08-28,1.1,1.1,1.06,1.06,1606700,0.958
2015-08-31,1.06,1.06,1.06,1.06,0,0.958
2015-09-01,1.06,1.06,1.06,1.06,0,0.958
2015-09-02,1.025,1.025,1.02,1.02,21200,0.922
2015-09-03,1.05,1.05,1.05,1.05,22200,0.9490000000000001
2015-09-04,1.01,1.01,1.0,1.01,26000,0.9129999999999999
2015-09-07,1.01,1.01,1.01,1.01,0,0.9129999999999999
2015-09-08,1.04,1.05,1.04,1.05,9700,0.9490000000000001
2015-09-09,1.01,1.05,1.01,1.05,20200,0.9490000000000001
2015-09-10,1.05,1.05,1.05,1.05,4700,0.9490000000000001
2015-09-11,1.065,1.085,1.065,1.07,74700,0.9670000000000001
2015-09-14,1.065,1.065,1.065,1.065,23500,0.963
2015-09-15,1.065,1.065,1.065,1.065,20000,0.963
2015-09-16,1.05,1.065,1.05,1.065,30000,0.963
2015-09-17,1.065,1.065,1.065,1.065,29000,0.963
2015-09-18,1.07,1.09,1.065,1.09,26300,0.985
2015-09-21,1.1,1.1,1.1,1.1,10000,0.9940000000000001
2015-09-22,1.1,1.1,1.1,1.1,4000,0.9940000000000001
2015-09-23,1.1,1.1,1.1,1.1,13000,0.9940000000000001
2015-09-24,1.1,1.1,1.1,1.1,51000,0.9940000000000001
2015-09-25,1.1,1.1,1.1,1.1,13000,0.9940000000000001
2015-09-28,1.1,1.1,1.1,1.1,0,1.02
2015-09-29,1.08,1.08,1.08,1.08,8000,1.002
2015-09-30,1.08,1.08,1.08,1.08,3800,1.002
2015-10-01,1.08,1.08,1.08,1.08,0,1.002
2015-10-02,1.08,1.08,1.08,1.08,0,1.002
2015-10-05,1.08,1.08,1.08,1.08,0,1.002
2015-10-06,1.08,1.08,1.08,1.08,0,1.002
2015-10-07,1.08,1.08,1.08,1.08,0,1.002
2015-10-08,1.1,1.1,1.1,1.1,2200,1.02
2015-10-09,1.1,1.1,1.1,1.1,1118800,1.02
2015-10-12,1.1,1.1,1.1,1.1,68000,1.02
2015-10-13,1.115,1.115,1.1,1.1,51200,1.02
2015-10-14,1.1,1.1,1.1,1.1,304500,1.02
2015-10-15,1.1,1.1,1.08,1.08,126700,1.002
2015-10-16,1.1,1.1,1.08,1.08,35400,1.002
2015-10-19,1.08,1.08,1.08,1.08,0,1.002
2015-10-20,1.08,1.08,1.08,1.08,0,1.002
2015-10-21,1.07,1.07,1.07,1.07,7800,0.992
2015-10-22,1.05,1.06,1.05,1.055,64900,0.9790000000000001
2015-10-23,1.06,1.06,1.01,1.05,90000,0.9740000000000001
2015-10-26,1.05,1.05,1.05,1.05,0,0.9740000000000001
2015-10-27,1.05,1.05,1.01,1.01,13000,0.937
2015-10-28,1.03,1.03,1.0,1.02,60000,0.946
2015-10-29,1.03,1.03,1.025,1.025,25000,0.951
2015-10-30,1.05,1.05,1.05,1.05,40000,0.9740000000000001
2015-11-02,1.05,1.05,1.05,1.05,15000,0.9740000000000001
2015-11-03,1.05,1.05,1.05,1.05,0,0.9740000000000001
2015-11-04,1.03,1.03,1.02,1.02,35600,0.946
2015-11-05,1.06,1.1,1.06,1.07,110700,0.992
2015-11-06,1.09,1.11,1.09,1.1,200000,1.02
2015-11-09,1.1,1.1,1.1,1.1,0,1.02
2015-11-10,1.07,1.1,1.07,1.1,13600,1.02
2015-11-11,1.07,1.1,1.07,1.1,37000,1.02
2015-11-12,1.1,1.1,1.1,1.1,0,1.02
2015-11-13,1.1,1.1,1.1,1.1,0,1.02
2015-11-16,1.06,1.06,1.055,1.055,20400,0.9790000000000001
2015-11-17,1.065,1.065,1.065,1.065,5000,0.988
2015-11-18,1.065,1.065,1.065,1.065,10000,0.988
2015-11-19,1.07,1.07,1.035,1.04,122000,0.965
2015-11-20,1.06,1.08,1.06,1.08,41000,1.002
2015-11-23,1.085,1.1,1.085,1.1,83100,1.02
2015-11-24,1.1,1.1,1.095,1.1,135700,1.02
2015-11-25,1.12,1.12,1.1,1.1,24400,1.02
2015-11-26,1.1,1.1,1.1,1.1,20000,1.02
2015-11-27,1.1,1.1,1.1,1.1,16900,1.02
2015-11-30,1.11,1.12,1.11,1.12,122500,1.0390000000000001
2015-12-01,1.12,1.12,1.12,1.12,42000,1.0390000000000001
2015-12-02,1.12,1.12,1.12,1.12,275000,1.0390000000000001
2015-12-03,1.12,1.12,1.12,1.12,10000,1.0390000000000001
2015-12-04,1.12,1.125,1.12,1.125,80000,1.043
2015-12-07,1.12,1.13,1.12,1.13,22000,1.048
2015-12-08,1.135,1.14,1.13,1.14,39000,1.057
2015-12-09,1.18,1.185,1.12,1.12,765000,1.0390000000000001
2015-12-10,1.09,1.09,1.04,1.04,14600,0.965
2015-12-11,1.04,1.04,1.04,1.04,0,0.965
2015-12-14,1.04,1.04,1.04,1.04,0,0.965
2015-12-15,1.04,1.04,1.04,1.04,0,0.965
2015-12-16,1.04,1.04,1.04,1.04,0,0.965
2015-12-17,1.04,1.04,1.04,1.04,12000,0.965
2015-12-18,1.04,1.04,1.04,1.04,0,0.965
2015-12-21,1.04,1.04,1.04,1.04,0,0.965
2015-12-22,1.04,1.04,1.04,1.04,0,0.965
2015-12-23,1.1,1.1,1.1,1.1,17800,1.02
2015-12-24,1.1,1.1,1.1,1.1,0,1.02
2015-12-25,1.1,1.1,1.1,1.1,0,1.02
2015-12-28,1.1,1.1,1.1,1.1,0,1.02
2015-12-29,1.12,1.15,1.12,1.15,22000,1.081
2015-12-30,1.14,1.2,1.14,1.2,16200,1.128
2015-12-31,1.165,1.165,1.165,1.165,10000,1.095
2016-01-01,1.165,1.165,1.165,1.165,0,1.095
2016-01-04,1.165,1.165,1.165,1.165,0,1.095
2016-01-05,1.165,1.165,1.165,1.165,390700,1.095
2016-01-06,1.165,1.165,1.165,1.165,372200,1.095
2016-01-07,1.165,1.165,1.165,1.165,826000,1.095
2016-01-08,1.165,1.165,1.165,1.165,0,1.095
2016-01-11,1.165,1.165,1.165,1.165,0,1.095
2016-01-12,1.165,1.165,1.165,1.165,0,1.095
2016-01-13,1.04,1.06,1.04,1.06,92400,0.997
2016-01-14,1.05,1.06,1.05,1.06,33600,0.997
2016-01-15,1.06,1.06,1.06,1.06,0,0.997
2016-01-18,1.06,1.06,1.06,1.06,0,0.997
2016-01-19,1.06,1.06,1.06,1.06,35000,0.997
2016-01-20,1.06,1.06,1.06,1.06,7400,0.997
2016-01-21,1.06,1.06,1.06,1.06,0,0.997
2016-01-22,1.06,1.06,1.06,1.06,0,0.997
2016-01-25,1.06,1.06,1.06,1.06,0,0.997
2016-01-26,1.06,1.06,1.06,1.06,0,0.997
2016-01-27,1.06,1.06,1.05,1.05,12000,0.987
2016-01-28,1.05,1.05,1.05,1.05,0,0.987
2016-01-29,1.05,1.05,1.05,1.05,0,0.987
2016-02-01,1.07,1.07,1.07,1.07,16000,1.006
2016-02-02,1.07,1.07,1.07,1.07,12000,1.006
2016-02-03,1.07,1.07,1.07,1.07,0,1.006
2016-02-04,1.07,1.07,1.07,1.07,0,1.006
2016-02-05,1.07,1.07,1.07,1.07,0,1.006
2016-02-08,1.07,1.07,1.07,1.07,0,1.006
2016-02-09,1.07,1.07,1.07,1.07,0,1.006
2016-02-10,1.07,1.07,1.07,1.07,0,1.006
2016-02-11,1.07,1.07,1.06,1.06,21300,0.997
2016-02-12,1.05,1.05,1.05,1.05,50000,0.987
2016-02-15,1.04,1.04,1.03,1.03,13300,0.9690000000000001
2016-02-16,1.03,1.03,1.03,1.03,0,0.9690000000000001
2016-02-17,1.03,1.03,1.03,1.03,0,0.9690000000000001
2016-02-18,1.05,1.05,1.04,1.05,40000,0.987
2016-02-19,1.1,1.1,1.1,1.1,9500,1.034
2016-02-22,1.1,1.1,1.075,1.075,9000,1.011
2016-02-23,1.075,1.075,1.075,1.075,0,1.011
2016-02-24,1.075,1.075,1.075,1.075,0,1.011
2016-02-25,1.075,1.075,1.075,1.075,0,1.011
2016-02-26,1.12,1.12,1.12,1.12,49000,1.053
2016-02-29,1.12,1.12,1.12,1.12,1000,1.053
2016-03-01,1.12,1.12,1.12,1.12,0,1.053
2016-03-02,1.12,1.12,1.12,1.12,0,1.053
2016-03-03,1.12,1.12,1.095,1.095,12300,1.03
2016-03-04,1.1,1.1,1.1,1.1,13900,1.034
2016-03-07,1.1,1.1,1.1,1.1,0,1.034
2016-03-08,1.105,1.105,1.1,1.1,15500,1.034
2016-03-09,1.1,1.1,1.1,1.1,0,1.034
2016-03-10,1.1,1.1,1.1,1.1,0,1.034
2016-03-11,1.1,1.1,1.08,1.08,14400,1.016
2016-03-14,1.08,1.08,1.08,1.08,0,1.016
2016-03-15,1.08,1.08,1.08,1.08,0,1.016
2016-03-16,1.14,1.14,1.14,1.14,5000,1.072
2016-03-17,1.13,1.13,1.12,1.13,24000,1.063
2016-03-18,1.13,1.13,1.13,1.13,0,1.063
2016-03-21,1.13,1.13,1.13,1.13,0,1.063
2016-03-22,1.13,1.13,1.13,1.13,0,1.063
2016-03-23,1.13,1.13,1.13,1.13,0,1.063
2016-03-24,1.13,1.13,1.13,1.13,0,1.063
2016-03-25,1.13,1.13,1.13,1.13,0,1.063
2016-03-28,1.13,1.13,1.13,1.13,0,1.063
2016-03-29,1.13,1.13,1.13,1.13,0,1.063
2016-03-30,1.13,1.13,1.13,1.13,0,1.077
2016-03-31,1.15,1.15,1.15,1.15,867600,1.0959999999999999
2016-04-01,1.145,1.15,1.12,1.12,15300,1.067
2016-04-04,1.12,1.12,1.12,1.12,0,1.067
2016-04-05,1.12,1.12,1.12,1.12,0,1.067
2016-04-06,1.12,1.12,1.12,1.12,0,1.067
2016-04-07,1.15,1.15,1.15,1.15,13600,1.0959999999999999
2016-04-08,1.15,1.15,1.15,1.15,4000,1.0959999999999999
2016-04-11,1.15,1.16,1.15,1.15,284500,1.0959999999999999
2016-04-12,1.155,1.155,1.15,1.15,1344000,1.0959999999999999
2016-04-13,1.15,1.15,1.15,1.15,1420800,1.0959999999999999
2016-04-14,1.145,1.145,1.145,1.145,20000,1.091
2016-04-15,1.145,1.145,1.145,1.145,10000,1.091
2016-04-18,1.145,1.145,1.145,1.145,0,1.091
2016-04-19,1.11,1.11,1.11,1.11,2000,1.058
2016-04-20,1.11,1.11,1.11,1.11,0,1.058
2016-04-21,1.11,1.14,1.11,1.14,6700,1.0859999999999999
2016-04-22,1.11,1.11,1.11,1.11,258300,1.058
2016-04-25,1.11,1.11,1.11,1.11,0,1.058
2016-04-26,1.11,1.11,1.11,1.11,0,1.058
2016-04-27,1.11,1.11,1.11,1.11,0,1.058
2016-04-28,1.05,1.05,1.05,1.05,13000,1.001
2016-04-29,1.05,1.05,1.05,1.05,0,1.001
2016-05-02,1.07,1.07,1.065,1.065,16000,1.015
2016-05-03,1.065,1.065,1.065,1.065,0,1.015
2016-05-04,1.1,1.1,1.1,1.1,11100,1.048
2016-05-05,1.1,1.1,1.1,1.1,9000,1.048
2016-05-06,1.09,1.09,1.07,1.07,8000,1.02
2016-05-09,1.07,1.07,1.07,1.07,0,1.02
2016-05-10,1.08,1.08,1.07,1.07,4800,1.02
2016-05-11,1.07,1.07,1.07,1.07,0,1.02
2016-05-12,1.07,1.07,1.07,1.07,0,1.02
2016-05-13,1.11,1.11,1.11,1.11,1600,1.058
2016-05-16,1.11,1.11,1.11,1.11,0,1.058
2016-05-17,1.11,1.11,1.11,1.11,0,1.058
2016-05-18,1.11,1.11,1.11,1.11,0,1.058
2016-05-19,1.08,1.08,1.07,1.07,48000,1.02
2016-05-20,1.07,1.07,1.07,1.07,0,1.02
2016-05-23,1.07,1.07,1.07,1.07,0,1.02
2016-05-24,1.08,1.08,1.08,1.08,0,1.0290000000000001
2016-05-25,1.08,1.08,1.08,1.08,2000,1.0290000000000001
2016-05-26,1.08,1.08,1.08,1.08,0,1.0290000000000001
2016-05-27,1.08,1.08,1.08,1.08,0,1.0290000000000001
2016-05-30,1.08,1.08,1.08,1.08,0,1.0290000000000001
2016-05-31,1.09,1.105,1.09,1.105,35000,1.053
2016-06-01,1.1,1.1,1.1,1.1,800,1.048
2016-06-02,1.065,1.08,1.06,1.08,79100,1.0290000000000001
2016-06-03,1.08,1.08,1.08,1.08,0,1.0290000000000001
2016-06-06,1.08,1.1,1.08,1.1,22000,1.048
2016-06-07,1.1,1.1,1.1,1.1,0,1.048
2016-06-08,1.1,1.12,1.1,1.11,12600,1.058
2016-06-09,1.12,1.12,1.11,1.11,42500,1.058
2016-06-10,1.11,1.11,1.11,1.11,0,1.058
2016-06-13,1.11,1.11,1.11,1.11,0,1.058
2016-06-14,1.11,1.11,1.11,1.11,0,1.058
2016-06-15,1.11,1.125,1.095,1.105,68300,1.053
2016-06-16,1.11,1.125,1.11,1.125,46100,1.072
2016-06-17,1.13,1.13,1.13,1.13,30900,1.077
2016-06-20,1.13,1.13,1.13,1.13,0,1.077
2016-06-21,1.115,1.12,1.1,1.115,87600,1.063
2016-06-22,1.125,1.13,1.1,1.125,97200,1.072
2016-06-23,1.12,1.125,1.12,1.12,0,1.067
2016-06-24,1.13,1.145,1.095,1.12,108400,1.067
2016-06-27,1.12,1.12,1.12,1.12,3800,1.067
2016-06-28,1.15,1.15,1.15,1.15,26500,1.0959999999999999
2016-06-29,1.15,1.15,1.15,1.15,0,1.11
2016-06-30,1.12,1.15,1.12,1.15,8600,1.11
2016-07-01,1.15,1.15,1.15,1.15,463100,1.11
2016-07-04,1.15,1.15,1.14,1.14,24600,1.101
2016-07-05,1.14,1.14,1.14,1.14,0,1.101
2016-07-06,1.14,1.14,1.14,1.14,0,1.101
2016-07-07,1.14,1.14,1.14,1.14,0,1.101
2016-07-08,1.14,1.14,1.14,1.14,0,1.101
2016-07-11,1.15,1.15,1.14,1.14,32000,1.101
2016-07-12,1.16,1.16,1.16,1.16,24000,1.12
2016-07-13,1.17,1.18,1.16,1.18,103000,1.139
2016-07-14,1.18,1.18,1.18,1.18,0,1.139
2016-07-15,1.18,1.18,1.18,1.18,0,1.139
2016-07-18,1.18,1.18,1.18,1.18,0,1.139
2016-07-19,1.18,1.185,1.18,1.185,42000,1.1440000000000001
2016-07-20,1.165,1.185,1.165,1.185,21000,1.1440000000000001
2016-07-21,1.18,1.18,1.18,1.18,30000,1.139
2016-07-22,1.18,1.18,1.18,1.18,0,1.139
2016-07-25,1.18,1.18,1.18,1.18,0,1.139
2016-07-26,1.17,1.17,1.17,1.17,12000,1.13
2016-07-27,1.17,1.17,1.17,1.17,0,1.13
2016-07-28,1.17,1.17,1.17,1.17,280000,1.13
2016-07-29,1.18,1.18,1.155,1.155,12800,1.115
2016-08-01,1.17,1.17,1.17,1.17,31000,1.13
2016-08-02,1.17,1.185,1.17,1.18,17500,1.139
2016-08-03,1.17,1.17,1.17,1.17,1000,1.13
2016-08-04,1.17,1.18,1.17,1.18,16400,1.139
2016-08-05,1.17,1.18,1.17,1.18,35000,1.139
2016-08-08,1.18,1.18,1.18,1.18,0,1.139
2016-08-09,1.18,1.18,1.18,1.18,10000,1.139
2016-08-10,1.18,1.18,1.18,1.18,0,1.139
2016-08-11,1.18,1.18,1.18,1.18,0,1.139
2016-08-12,1.17,1.17,1.17,1.17,20000,1.13
2016-08-15,1.17,1.17,1.17,1.17,0,1.13
2016-08-16,1.17,1.17,1.17,1.17,0,1.13
2016-08-17,1.17,1.17,1.17,1.17,0,1.13
2016-08-18,1.17,1.17,1.17,1.17,0,1.13
2016-08-19,1.17,1.17,1.17,1.17,0,1.13
2016-08-22,1.17,1.17,1.17,1.17,0,1.13
2016-08-23,1.16,1.16,1.16,1.16,0,1.12
2016-08-24,1.19,1.22,1.19,1.19,21800,1.149
2016-08-25,1.25,1.25,1.175,1.175,6000,1.135
2016-08-26,1.175,1.175,1.175,1.175,0,1.135
2016-08-29,1.175,1.175,1.175,1.175,0,1.135
2016-08-30,1.175,1.175,1.175,1.175,0,1.135
2016-08-31,1.17,1.17,1.16,1.16,1700,1.12
2016-09-01,1.16,1.17,1.16,1.16,46600,1.12
2016-09-02,1.16,1.16,1.16,1.16,20000,1.12
2016-09-05,1.16,1.16,1.16,1.16,30500,1.12
2016-09-06,1.17,1.17,1.17,1.17,40000,1.13
2016-09-07,1.16,1.16,1.16,1.16,20000,1.12
2016-09-08,1.17,1.17,1.17,1.17,10000,1.13
2016-09-09,1.17,1.17,1.17,1.17,26000,1.13
2016-09-12,1.16,1.16,1.16,1.16,24000,1.12
2016-09-13,1.16,1.17,1.16,1.17,52200,1.13
2016-09-14,1.17,1.17,1.17,1.17,0,1.13
2016-09-15,1.17,1.17,1.17,1.17,15000,1.13
2016-09-16,1.17,1.17,1.17,1.17,0,1.13
2016-09-19,1.17,1.17,1.17,1.17,0,1.13
2016-09-20,1.18,1.18,1.17,1.18,3100,1.139
2016-09-21,1.18,1.18,1.17,1.18,60000,1.139
2016-09-22,1.18,1.18,1.18,1.18,0,1.139
2016-09-23,1.17,1.17,1.17,1.17,58000,1.13
2016-09-26,1.17,1.17,1.17,1.17,0,1.13
2016-09-27,1.17,1.17,1.17,1.17,150000,1.13
2016-09-28,1.17,1.17,1.13,1.13,244000,1.091
2016-09-29,1.13,1.13,1.13,1.13,0,1.11
2016-09-30,1.13,1.13,1.1,1.1,16000,1.08
2016-10-03,1.1,1.1,1.1,1.1,0,1.08
2016-10-04,1.1,1.1,1.1,1.1,0,1.08
2016-10-05,1.11,1.11,1.11,1.11,4000,1.09
2016-10-06,1.11,1.11,1.1,1.1,10000,1.08
2016-10-07,1.1,1.1,1.1,1.1,0,1.08
2016-10-10,1.1,1.1,1.1,1.1,0,1.08
2016-10-11,1.1,1.1,1.1,1.1,0,1.08
2016-10-12,1.1,1.1,1.1,1.1,0,1.08
2016-10-13,1.1,1.1,1.1,1.1,0,1.08
2016-10-14,1.1,1.1,1.1,1.1,2900,1.08
2016-10-17,1.04,1.06,1.04,1.06,21600,1.041
2016-10-18,1.06,1.06,1.06,1.06,0,1.041
2016-10-19,1.06,1.06,1.06,1.06,0,1.041
2016-10-20,1.06,1.06,1.06,1.06,0,1.041
2016-10-21,1.06,1.06,1.06,1.06,0,1.041
2016-10-24,1.06,1.06,1.06,1.06,500,1.041
2016-10-25,1.06,1.06,1.06,1.06,0,1.041
2016-10-26,1.055,1.055,1.04,1.04,197000,1.021
2016-10-27,1.06,1.1,1.06,1.1,12000,1.08
2016-10-28,1.1,1.1,1.1,1.1,0,1.08
2016-10-31,1.1,1.1,1.1,1.1,0,1.08
2016-11-01,1.1,1.1,1.1,1.1,0,1.08
2016-11-02,1.1,1.1,1.1,1.1,0,1.08
2016-11-03,1.1,1.1,1.1,1.1,0,1.08
2016-11-04,1.06,1.06,1.04,1.04,20000,1.021
2016-11-07,1.1,1.1,1.1,1.1,2000,1.08
2016-11-08,1.1,1.1,1.1,1.1,0,1.08
2016-11-09,1.04,1.04,1.04,1.04,4400,1.021
2016-11-10,1.04,1.04,1.04,1.04,19900,1.021
2016-11-11,1.05,1.05,1.04,1.04,74000,1.021
2016-11-14,1.04,1.04,1.04,1.04,0,1.021
2016-11-15,1.05,1.05,1.04,1.04,40000,1.021
2016-11-16,1.04,1.04,1.04,1.04,0,1.021
2016-11-17,1.04,1.04,1.04,1.04,0,1.021
2016-11-18,1.04,1.04,1.04,1.04,0,1.021
2016-11-21,1.04,1.04,1.04,1.04,0,1.021
2016-11-22,1.045,1.045,1.04,1.04,4000,1.021
2016-11-23,1.04,1.04,1.04,1.04,0,1.021
2016-11-24,1.04,1.04,1.04,1.04,0,1.021
2016-11-25,1.04,1.04,1.04,1.04,0,1.021
2016-11-28,1.04,1.05,1.04,1.04,25000,1.021
2016-11-29,1.05,1.05,1.04,1.04,88300,1.021
2016-11-30,1.09,1.1,1.09,1.1,51900,1.08
2016-12-01,1.1,1.1,1.1,1.1,0,1.08
2016-12-02,1.1,1.1,1.1,1.1,59600,1.08
2016-12-05,1.1,1.1,1.1,1.1,3100,1.08
2016-12-06,1.1,1.1,1.1,1.1,0,1.08
2016-12-07,1.1,1.1,1.1,1.1,14100,1.08
2016-12-08,1.1,1.1,1.1,1.1,3000,1.08
2016-12-09,1.1,1.1,1.1,1.1,0,1.08
2016-12-12,1.1,1.1,1.1,1.1,0,1.08
2016-12-13,1.1,1.1,1.1,1.1,0,1.08
2016-12-14,1.1,1.1,1.1,1.1,0,1.08
2016-12-15,1.1,1.1,1.1,1.1,0,1.08
2016-12-16,1.1,1.1,1.1,1.1,0,1.08
2016-12-19,1.1,1.1,1.1,1.1,0,1.08
2016-12-20,1.1,1.1,1.1,1.1,0,1.08
2016-12-21,1.1,1.1,1.1,1.1,400,1.08
2016-12-22,1.065,1.065,1.06,1.06,11500,1.041
2016-12-23,1.06,1.06,1.06,1.06,0,1.041
2016-12-26,1.06,1.06,1.06,1.06,0,1.041
2016-12-27,1.06,1.06,1.06,1.06,0,1.041
2016-12-28,1.06,1.06,1.06,1.06,0,1.041
2016-12-29,1.06,1.06,1.06,1.06,0,1.06
2016-12-30,1.06,1.06,1.06,1.06,0,1.06
