Date,Open,High,Low,Close,Volume,Adj Close
2007-07-10,0.2,0.2,0.2,0.2,0,1.919
2007-07-16,0.26,0.27,0.21,0.215,178200,2.062
2007-07-17,0.235,0.235,0.2,0.2,39700,1.919
2007-07-18,0.2,0.2,0.2,0.2,72100,1.919
2007-07-19,0.205,0.205,0.195,0.2,38700,1.919
2007-07-20,0.2,0.2,0.2,0.2,3000,1.919
2007-07-23,0.205,0.205,0.205,0.205,2600,1.9669999999999999
2007-07-24,0.2,0.2,0.2,0.2,1000,1.919
2007-07-25,0.2,0.2,0.19,0.19,6300,1.8230000000000002
2007-07-26,0.19,0.19,0.175,0.175,11000,1.679
2007-07-27,0.17,0.175,0.13,0.175,59800,1.679
2007-07-30,0.175,0.175,0.15,0.15,13000,1.439
2007-07-31,0.17,0.18,0.17,0.18,426900,1.7269999999999999
2007-08-01,0.18,0.18,0.17,0.18,18000,1.7269999999999999
2007-08-02,0.18,0.18,0.175,0.175,7700,1.679
2007-08-03,0.18,0.18,0.18,0.18,44000,1.7269999999999999
2007-08-06,0.18,0.18,0.18,0.18,0,1.7269999999999999
2007-08-07,0.17,0.18,0.17,0.18,19500,1.7269999999999999
2007-08-08,0.185,0.19,0.185,0.19,12400,1.8230000000000002
2007-08-09,0.185,0.185,0.185,0.185,1000,1.775
2007-08-10,0.185,0.195,0.185,0.19,17000,1.8230000000000002
2007-08-13,0.2,0.2,0.19,0.19,0,1.8230000000000002
2007-08-14,0.19,0.19,0.185,0.19,26700,1.8230000000000002
2007-08-15,0.18,0.18,0.18,0.18,18000,1.7269999999999999
2007-08-16,0.18,0.18,0.155,0.175,7000,1.679
2007-08-17,0.16,0.175,0.155,0.175,2500,1.679
2007-08-20,0.175,0.175,0.175,0.175,0,1.679
2007-08-21,0.175,0.2,0.175,0.2,18000,1.919
2007-08-22,0.2,0.2,0.2,0.2,300,1.919
2007-08-23,0.2,0.2,0.2,0.2,4300,1.919
2007-08-24,0.2,0.2,0.2,0.2,0,1.919
2007-08-27,0.18,0.18,0.18,0.18,1100,1.7269999999999999
2007-08-28,0.2,0.2,0.195,0.2,2000,1.919
2007-08-29,0.2,0.2,0.2,0.2,6300,1.919
2007-08-30,0.2,0.2,0.2,0.2,0,1.919
2007-08-31,0.2,0.205,0.195,0.205,14000,1.9669999999999999
2007-09-03,0.2,0.205,0.2,0.205,7300,1.9669999999999999
2007-09-04,0.205,0.205,0.205,0.205,0,1.9669999999999999
2007-09-05,0.205,0.205,0.205,0.205,0,1.9669999999999999
2007-09-06,0.205,0.205,0.205,0.205,0,1.9669999999999999
2007-09-07,0.205,0.205,0.205,0.205,0,1.9669999999999999
2007-09-10,0.205,0.205,0.205,0.205,0,1.9669999999999999
2007-09-11,0.19,0.19,0.18,0.18,7500,1.7269999999999999
2007-09-12,0.18,0.18,0.18,0.18,1000,1.7269999999999999
2007-09-13,0.19,0.19,0.18,0.18,0,1.7269999999999999
2007-09-14,0.19,0.19,0.18,0.18,0,1.7269999999999999
2007-09-17,0.18,0.18,0.18,0.18,300,1.7269999999999999
2007-09-18,0.175,0.175,0.175,0.175,4100,1.679
2007-09-19,0.18,0.18,0.175,0.175,4500,1.679
2007-09-20,0.17,0.17,0.16,0.16,2000,1.535
2007-09-21,0.165,0.165,0.165,0.165,2000,1.5830000000000002
2007-09-24,0.17,0.17,0.17,0.17,10000,1.631
2007-09-25,0.165,0.165,0.16,0.16,9900,1.535
2007-09-26,0.16,0.16,0.15,0.16,31900,1.535
2007-09-27,0.16,0.18,0.16,0.17,7800,1.631
2007-09-28,0.17,0.17,0.17,0.17,0,1.631
2007-10-01,0.16,0.16,0.15,0.15,13000,1.439
2007-10-02,0.155,0.155,0.155,0.155,5000,1.4869999999999999
2007-10-03,0.155,0.155,0.155,0.155,5500,1.4869999999999999
2007-10-04,0.16,0.16,0.15,0.15,0,1.439
2007-10-05,0.16,0.16,0.16,0.16,1000,1.535
2007-10-08,0.16,0.16,0.16,0.16,8500,1.535
2007-10-09,0.16,0.16,0.16,0.16,7500,1.535
2007-10-10,0.155,0.155,0.155,0.155,14600,1.4869999999999999
2007-10-11,0.16,0.16,0.16,0.16,10000,1.535
2007-10-12,0.165,0.165,0.16,0.16,0,1.535
2007-10-15,0.165,0.165,0.16,0.16,0,1.535
2007-10-16,0.165,0.165,0.16,0.16,0,1.535
2007-10-17,0.165,0.165,0.16,0.16,0,1.535
2007-10-18,0.165,0.165,0.16,0.16,0,1.535
2007-10-19,0.165,0.165,0.16,0.16,0,1.535
2007-10-22,0.16,0.16,0.16,0.16,1000,1.535
2007-10-23,0.16,0.16,0.16,0.16,8700,1.535
2007-10-24,0.165,0.165,0.16,0.16,0,1.535
2007-10-25,0.17,0.17,0.16,0.16,0,1.535
2007-10-26,0.16,0.16,0.16,0.16,12500,1.535
2007-10-29,0.16,0.16,0.155,0.155,0,1.4869999999999999
2007-10-30,0.16,0.16,0.155,0.155,0,1.4869999999999999
2007-10-31,0.155,0.155,0.155,0.155,2500,1.4869999999999999
2007-11-01,0.155,0.155,0.155,0.155,0,1.4869999999999999
2007-11-02,0.155,0.155,0.155,0.155,0,1.4869999999999999
2007-11-05,0.155,0.155,0.155,0.155,0,1.4869999999999999
2007-11-06,0.155,0.155,0.155,0.155,0,1.4869999999999999
2007-11-07,0.155,0.155,0.155,0.155,0,1.4869999999999999
2007-11-08,0.155,0.155,0.155,0.155,0,1.4869999999999999
2007-11-09,0.155,0.155,0.155,0.155,0,1.4869999999999999
2007-11-12,0.155,0.155,0.155,0.155,0,1.4869999999999999
2007-11-13,0.155,0.155,0.155,0.155,0,1.4869999999999999
2007-11-14,0.155,0.155,0.155,0.155,0,1.4869999999999999
2007-11-15,0.155,0.155,0.155,0.155,0,1.4869999999999999
2007-11-16,0.155,0.155,0.155,0.155,0,1.4869999999999999
2007-11-19,0.155,0.155,0.155,0.155,0,1.4869999999999999
2007-11-20,0.155,0.155,0.155,0.155,0,1.4869999999999999
2007-11-21,0.13,0.16,0.13,0.16,2300,1.535
2007-11-22,0.16,0.16,0.16,0.16,0,1.535
2007-11-23,0.16,0.16,0.16,0.16,0,1.535
2007-11-26,0.16,0.16,0.16,0.16,0,1.535
2007-11-27,0.16,0.16,0.16,0.16,0,1.535
2007-11-28,0.16,0.16,0.16,0.16,0,1.535
2007-11-29,0.15,0.15,0.15,0.15,3000,1.439
2007-11-30,0.15,0.15,0.15,0.15,400,1.439
2007-12-03,0.135,0.135,0.13,0.13,8500,1.247
2007-12-04,0.15,0.15,0.13,0.13,18500,1.247
2007-12-05,0.15,0.15,0.15,0.15,700,1.439
2007-12-06,0.15,0.15,0.15,0.15,9500,1.439
2007-12-07,0.15,0.15,0.15,0.15,0,1.439
2007-12-10,0.15,0.15,0.15,0.15,0,1.439
2007-12-11,0.15,0.15,0.15,0.15,0,1.439
2007-12-12,0.13,0.13,0.13,0.13,3000,1.247
2007-12-13,0.15,0.15,0.135,0.135,0,1.295
2007-12-14,0.13,0.13,0.13,0.13,25000,1.247
2007-12-17,0.12,0.12,0.12,0.12,6000,1.151
2007-12-18,0.13,0.13,0.13,0.13,7500,1.247
2007-12-19,0.13,0.13,0.13,0.13,9000,1.247
2007-12-20,0.13,0.13,0.13,0.13,0,1.247
2007-12-21,0.13,0.13,0.13,0.13,0,1.247
2007-12-24,0.13,0.135,0.13,0.135,11400,1.295
2007-12-27,0.13,0.13,0.13,0.13,10000,1.247
2007-12-28,0.15,0.15,0.13,0.13,0,1.247
2007-12-31,0.15,0.15,0.13,0.13,0,1.247
2008-01-02,0.15,0.15,0.13,0.13,0,1.247
2008-01-03,0.15,0.15,0.13,0.13,0,1.247
2008-01-04,0.15,0.15,0.13,0.13,0,1.247
2008-01-07,0.145,0.145,0.13,0.13,0,1.247
2008-01-08,0.145,0.145,0.13,0.13,0,1.247
2008-01-09,0.145,0.145,0.125,0.125,0,1.199
2008-01-10,0.125,0.125,0.12,0.12,5000,1.151
2008-01-11,0.12,0.12,0.12,0.12,1000,1.151
2008-01-14,0.125,0.125,0.12,0.12,0,1.151
2008-01-15,0.125,0.125,0.12,0.12,0,1.151
2008-01-16,0.125,0.125,0.12,0.12,0,1.151
2008-01-17,0.135,0.135,0.12,0.12,0,1.151
2008-01-18,0.135,0.135,0.12,0.12,0,1.151
2008-01-21,0.135,0.135,0.12,0.12,0,1.151
2008-01-22,0.12,0.12,0.12,0.12,0,1.151
2008-01-23,0.12,0.12,0.12,0.12,0,1.151
2008-01-24,0.12,0.12,0.12,0.12,0,1.151
2008-01-25,0.12,0.12,0.12,0.12,0,1.151
2008-01-29,0.12,0.12,0.12,0.12,0,1.151
2008-01-30,0.12,0.12,0.12,0.12,0,1.151
2008-01-31,0.12,0.12,0.12,0.12,0,1.151
2008-02-01,0.1,0.1,0.1,0.1,1000,0.9590000000000001
2008-02-04,0.12,0.12,0.1,0.1,0,0.9590000000000001
2008-02-05,0.12,0.12,0.1,0.1,0,0.9590000000000001
2008-02-06,0.12,0.12,0.1,0.1,0,0.9590000000000001
2008-02-07,0.1,0.1,0.1,0.1,3000,0.9590000000000001
2008-02-08,0.1,0.1,0.1,0.1,0,0.9590000000000001
2008-02-11,0.1,0.1,0.1,0.1,0,0.9590000000000001
2008-02-12,0.1,0.1,0.1,0.1,0,0.9590000000000001
2008-02-13,0.1,0.1,0.1,0.1,0,0.9590000000000001
2008-02-14,0.1,0.1,0.1,0.1,0,0.9590000000000001
2008-02-15,0.1,0.1,0.1,0.1,0,0.9590000000000001
2008-02-18,0.08,0.08,0.08,0.08,10300,0.767
2008-02-19,0.11,0.11,0.08,0.08,0,0.767
2008-02-20,0.11,0.11,0.08,0.08,0,0.767
2008-02-21,0.11,0.11,0.08,0.08,0,0.767
2008-02-22,0.125,0.125,0.125,0.125,1200,1.199
2008-02-25,0.125,0.125,0.125,0.125,0,1.199
2008-02-26,0.13,0.13,0.13,0.13,4700,1.247
2008-02-27,0.135,0.135,0.135,0.135,4400,1.295
2008-02-28,0.13,0.13,0.13,0.13,200,1.247
2008-02-29,0.115,0.115,0.11,0.11,22000,1.055
2008-03-03,0.13,0.13,0.11,0.11,0,1.055
2008-03-04,0.13,0.13,0.11,0.11,0,1.055
2008-03-05,0.11,0.11,0.1,0.1,3500,0.9590000000000001
2008-03-06,0.15,0.15,0.09699999999999999,0.09699999999999999,0,0.94
2008-03-07,0.13,0.13,0.09699999999999999,0.09699999999999999,0,0.94
2008-03-10,0.14,0.14,0.09699999999999999,0.09699999999999999,0,0.94
2008-03-11,0.09699999999999999,0.09699999999999999,0.09699999999999999,0.09699999999999999,300,0.94
2008-03-12,0.09699999999999999,0.09699999999999999,0.09699999999999999,0.09699999999999999,300,0.94
2008-03-13,0.14,0.14,0.09699999999999999,0.09699999999999999,0,0.94
2008-03-14,0.09699999999999999,0.09699999999999999,0.09699999999999999,0.09699999999999999,1200,0.94
2008-03-17,0.09699999999999999,0.09699999999999999,0.09699999999999999,0.09699999999999999,0,0.94
2008-03-18,0.12,0.12,0.09699999999999999,0.09699999999999999,0,0.94
2008-03-19,0.1,0.1,0.09699999999999999,0.09699999999999999,0,0.94
2008-03-20,0.09699999999999999,0.09699999999999999,0.09699999999999999,0.09699999999999999,1200,0.94
2008-03-25,0.1,0.1,0.1,0.1,1500,0.9690000000000001
2008-03-26,0.1,0.1,0.09699999999999999,0.09699999999999999,0,0.94
2008-03-27,0.098,0.098,0.098,0.098,4600,0.95
2008-03-28,0.098,0.098,0.09699999999999999,0.09699999999999999,1300,0.94
2008-03-31,0.1,0.1,0.1,0.1,12200,0.9690000000000001
2008-04-01,0.15,0.15,0.09699999999999999,0.09699999999999999,0,0.94
2008-04-02,0.15,0.15,0.09699999999999999,0.09699999999999999,0,0.94
2008-04-03,0.15,0.15,0.1,0.1,0,0.9690000000000001
2008-04-04,0.1,0.1,0.1,0.1,0,0.9690000000000001
2008-04-07,0.15,0.15,0.1,0.1,0,0.9690000000000001
2008-04-08,0.1,0.1,0.1,0.1,3000,0.9690000000000001
2008-04-09,0.15,0.15,0.1,0.1,0,0.9690000000000001
2008-04-10,0.15,0.15,0.1,0.1,0,0.9690000000000001
2008-04-11,0.15,0.15,0.1,0.1,0,0.9690000000000001
2008-04-14,0.13,0.13,0.1,0.1,0,0.9690000000000001
2008-04-15,0.13,0.13,0.13,0.13,5800,1.26
2008-04-16,0.13,0.13,0.13,0.13,0,1.26
2008-04-17,0.13,0.13,0.13,0.13,0,1.26
2008-04-18,0.13,0.13,0.13,0.13,0,1.26
2008-04-21,0.13,0.13,0.13,0.13,0,1.26
2008-04-22,0.15,0.15,0.15,0.15,12700,1.453
2008-04-23,0.15,0.15,0.15,0.15,0,1.453
2008-04-24,0.15,0.15,0.15,0.15,0,1.453
2008-04-28,0.15,0.15,0.15,0.15,0,1.453
2008-04-29,0.15,0.15,0.15,0.15,0,1.453
2008-04-30,0.15,0.15,0.15,0.15,0,1.453
2008-05-01,0.15,0.15,0.15,0.15,0,1.453
2008-05-02,0.15,0.15,0.15,0.15,0,1.453
2008-05-05,0.15,0.15,0.15,0.15,0,1.453
2008-05-06,0.15,0.15,0.15,0.15,0,1.453
2008-05-07,0.15,0.15,0.15,0.15,0,1.453
2008-05-08,0.15,0.15,0.15,0.15,0,1.453
2008-05-09,0.15,0.15,0.15,0.15,0,1.453
2008-05-12,0.15,0.15,0.15,0.15,0,1.453
2008-05-13,0.135,0.135,0.135,0.135,600,1.308
2008-05-14,0.145,0.145,0.135,0.135,0,1.308
2008-05-15,0.145,0.145,0.135,0.135,0,1.308
2008-05-16,0.145,0.145,0.135,0.135,0,1.308
2008-05-19,0.145,0.145,0.135,0.135,0,1.308
2008-05-20,0.145,0.145,0.13,0.13,0,1.26
2008-05-21,0.145,0.145,0.13,0.13,0,1.26
2008-05-22,0.145,0.145,0.13,0.13,0,1.26
2008-05-23,0.145,0.145,0.13,0.13,0,1.26
2008-05-26,0.145,0.145,0.13,0.13,0,1.26
2008-05-27,0.13,0.13,0.13,0.13,6000,1.26
2008-05-28,0.145,0.145,0.135,0.135,0,1.308
2008-05-29,0.145,0.145,0.135,0.135,0,1.308
2008-05-30,0.135,0.135,0.135,0.135,1000,1.308
2008-06-02,0.14,0.14,0.14,0.14,10000,1.357
2008-06-03,0.14,0.14,0.14,0.14,13200,1.357
2008-06-04,0.15,0.15,0.14,0.14,0,1.357
2008-06-05,0.16,0.16,0.14,0.14,0,1.357
2008-06-06,0.14,0.14,0.14,0.14,25000,1.357
2008-06-10,0.14,0.14,0.14,0.14,25000,1.357
2008-06-11,0.14,0.14,0.14,0.14,5500,1.357
2008-06-12,0.145,0.145,0.145,0.145,23500,1.405
2008-06-13,0.185,0.185,0.145,0.145,0,1.405
2008-06-16,0.145,0.145,0.145,0.145,12200,1.405
2008-06-17,0.145,0.145,0.145,0.145,1900,1.405
2008-06-18,0.145,0.145,0.145,0.145,0,1.405
2008-06-19,0.145,0.145,0.145,0.145,0,1.405
2008-06-20,0.145,0.145,0.145,0.145,0,1.405
2008-06-23,0.145,0.145,0.145,0.145,14500,1.405
2008-06-24,0.15,0.15,0.14,0.14,0,1.357
2008-06-25,0.14,0.14,0.14,0.14,1000,1.357
2008-06-26,0.15,0.15,0.14,0.14,0,1.357
2008-06-27,0.14,0.14,0.14,0.14,2000,1.357
2008-06-30,0.145,0.145,0.14,0.14,0,1.357
2008-07-01,0.145,0.145,0.14,0.14,0,1.357
2008-07-02,0.14,0.14,0.14,0.14,15500,1.357
2008-07-03,0.14,0.14,0.14,0.14,9500,1.357
2008-07-04,0.17,0.17,0.14,0.14,0,1.357
2008-07-07,0.17,0.17,0.14,0.14,0,1.357
2008-07-08,0.145,0.145,0.14,0.14,0,1.357
2008-07-09,0.14,0.14,0.14,0.14,22500,1.357
2008-07-10,0.15,0.15,0.14,0.14,0,1.357
2008-07-11,0.15,0.15,0.14,0.14,0,1.357
2008-07-14,0.14,0.14,0.14,0.14,4000,1.357
2008-07-15,0.15,0.15,0.14,0.14,0,1.357
2008-07-16,0.15,0.15,0.14,0.14,0,1.357
2008-07-17,0.15,0.15,0.14,0.14,0,1.357
2008-07-18,0.14,0.14,0.14,0.14,3000,1.357
2008-07-21,0.15,0.15,0.14,0.14,0,1.357
2008-07-22,0.15,0.15,0.14,0.14,0,1.357
2008-07-23,0.15,0.15,0.14,0.14,0,1.357
2008-07-24,0.15,0.15,0.14,0.14,0,1.357
2008-07-25,0.15,0.15,0.14,0.14,0,1.357
2008-07-28,0.145,0.145,0.14,0.14,0,1.357
2008-07-29,0.14,0.14,0.135,0.14,29800,1.357
2008-07-30,0.145,0.145,0.135,0.135,0,1.308
2008-07-31,0.145,0.145,0.135,0.135,0,1.308
2008-08-01,0.145,0.145,0.135,0.135,0,1.308
2008-08-04,0.145,0.145,0.135,0.135,0,1.308
2008-08-05,0.14,0.14,0.14,0.14,0,1.357
2008-08-06,0.14,0.14,0.14,0.14,0,1.357
2008-08-07,0.14,0.14,0.14,0.14,0,1.357
2008-08-08,0.1,0.1,0.1,0.1,3000,0.9690000000000001
2008-08-11,0.1,0.1,0.1,0.1,0,0.9690000000000001
2008-08-12,0.1,0.1,0.1,0.1,0,0.9690000000000001
2008-08-13,0.13,0.13,0.13,0.13,500,1.26
2008-08-14,0.13,0.13,0.13,0.13,0,1.26
2008-08-15,0.13,0.13,0.13,0.13,0,1.26
2008-08-18,0.13,0.13,0.13,0.13,0,1.26
2008-08-19,0.13,0.13,0.13,0.13,0,1.26
2008-08-20,0.13,0.13,0.13,0.13,0,1.26
2008-08-21,0.13,0.13,0.13,0.13,0,1.26
2008-08-22,0.13,0.15,0.13,0.15,22500,1.453
2008-08-25,0.15,0.15,0.15,0.15,0,1.453
2008-08-26,0.15,0.15,0.15,0.15,0,1.453
2008-08-27,0.15,0.15,0.15,0.15,0,1.453
2008-08-28,0.16,0.16,0.16,0.16,500,1.55
2008-08-29,0.15,0.15,0.15,0.15,27600,1.453
2008-09-01,0.16,0.16,0.15,0.15,0,1.453
2008-09-02,0.15,0.15,0.15,0.15,3000,1.453
2008-09-03,0.16,0.16,0.16,0.16,1800,1.55
2008-09-04,0.16,0.16,0.16,0.16,1000,1.55
2008-09-05,0.17,0.17,0.16,0.16,0,1.55
2008-09-08,0.17,0.17,0.16,0.16,0,1.55
2008-09-09,0.17,0.17,0.16,0.16,0,1.55
2008-09-10,0.17,0.17,0.16,0.16,0,1.55
2008-09-11,0.165,0.165,0.16,0.16,0,1.55
2008-09-12,0.165,0.165,0.165,0.165,5000,1.599
2008-09-15,0.17,0.17,0.16,0.16,0,1.55
2008-09-16,0.17,0.17,0.16,0.16,0,1.55
2008-09-17,0.17,0.17,0.16,0.16,0,1.55
2008-09-18,0.16,0.16,0.16,0.16,5700,1.55
2008-09-19,0.16,0.16,0.16,0.16,500,1.55
2008-09-22,0.16,0.17,0.15,0.17,4200,1.6469999999999998
2008-09-23,0.17,0.17,0.17,0.17,1000,1.6469999999999998
2008-09-24,0.17,0.17,0.17,0.17,0,1.6469999999999998
2008-09-25,0.17,0.17,0.17,0.17,0,1.6469999999999998
2008-09-26,0.17,0.17,0.17,0.17,0,1.6469999999999998
2008-09-29,0.17,0.17,0.17,0.17,0,1.6469999999999998
2008-09-30,0.15,0.15,0.15,0.15,5000,1.453
2008-10-01,0.17,0.17,0.15,0.15,0,1.453
2008-10-02,0.17,0.17,0.15,0.15,0,1.453
2008-10-03,0.17,0.17,0.15,0.15,0,1.453
2008-10-06,0.15,0.15,0.15,0.15,4000,1.453
2008-10-07,0.15,0.15,0.15,0.15,1000,1.453
2008-10-08,0.17,0.17,0.15,0.15,0,1.453
2008-10-09,0.17,0.17,0.15,0.15,0,1.453
2008-10-10,0.15,0.15,0.15,0.15,3500,1.453
2008-10-13,0.15,0.15,0.15,0.15,0,1.453
2008-10-14,0.16,0.16,0.16,0.16,2000,1.55
2008-10-15,0.15,0.16,0.15,0.15,3000,1.453
2008-10-16,0.165,0.165,0.15,0.15,0,1.453
2008-10-17,0.15,0.15,0.15,0.15,1000,1.453
2008-10-20,0.165,0.165,0.15,0.15,0,1.453
2008-10-21,0.165,0.165,0.15,0.15,0,1.453
2008-10-22,0.165,0.165,0.15,0.15,0,1.453
2008-10-23,0.165,0.165,0.15,0.15,0,1.453
2008-10-24,0.15,0.15,0.15,0.15,4500,1.453
2008-10-27,0.165,0.165,0.15,0.15,0,1.453
2008-10-28,0.15,0.15,0.15,0.15,4500,1.453
2008-10-29,0.15,0.15,0.15,0.15,7300,1.453
2008-10-30,0.17,0.17,0.15,0.15,0,1.453
2008-10-31,0.17,0.17,0.155,0.155,0,1.5019999999999998
2008-11-03,0.17,0.17,0.15,0.15,0,1.453
2008-11-04,0.17,0.17,0.15,0.15,0,1.453
2008-11-05,0.17,0.17,0.15,0.15,0,1.453
2008-11-06,0.15,0.15,0.15,0.15,3000,1.453
2008-11-07,0.17,0.17,0.15,0.15,0,1.453
2008-11-10,0.17,0.17,0.15,0.15,0,1.453
2008-11-11,0.17,0.17,0.15,0.15,0,1.453
2008-11-12,0.17,0.17,0.15,0.15,0,1.453
2008-11-13,0.17,0.17,0.15,0.15,0,1.453
2008-11-14,0.17,0.17,0.15,0.15,0,1.453
2008-11-17,0.17,0.17,0.15,0.15,0,1.453
2008-11-18,0.17,0.17,0.15,0.15,0,1.453
2008-11-19,0.15,0.15,0.15,0.15,1800,1.453
2008-11-20,0.15,0.155,0.14,0.155,7500,1.5019999999999998
2008-11-21,0.155,0.155,0.155,0.155,0,1.5019999999999998
2008-11-24,0.11,0.11,0.105,0.105,11000,1.0170000000000001
2008-11-25,0.105,0.105,0.105,0.105,0,1.0170000000000001
2008-11-26,0.105,0.105,0.105,0.105,0,1.0170000000000001
2008-11-27,0.105,0.105,0.105,0.105,0,1.0170000000000001
2008-11-28,0.105,0.105,0.105,0.105,0,1.0170000000000001
2008-12-01,0.105,0.105,0.105,0.105,0,1.0170000000000001
2008-12-02,0.105,0.105,0.105,0.105,0,1.0170000000000001
2008-12-03,0.105,0.105,0.105,0.105,0,1.0170000000000001
2008-12-04,0.105,0.105,0.105,0.105,0,1.0170000000000001
2008-12-05,0.105,0.105,0.105,0.105,0,1.0170000000000001
2008-12-08,0.105,0.105,0.105,0.105,0,1.0170000000000001
2008-12-09,0.105,0.105,0.105,0.105,0,1.0170000000000001
2008-12-10,0.105,0.105,0.105,0.105,0,1.0170000000000001
2008-12-11,0.105,0.105,0.105,0.105,0,1.0170000000000001
2008-12-12,0.135,0.135,0.105,0.105,0,1.0170000000000001
2008-12-15,0.135,0.135,0.105,0.105,0,1.0170000000000001
2008-12-16,0.105,0.105,0.105,0.105,0,1.0170000000000001
2008-12-17,0.105,0.105,0.105,0.105,41900,1.0170000000000001
2008-12-18,0.105,0.105,0.105,0.105,0,1.0170000000000001
2008-12-19,0.105,0.105,0.105,0.105,0,1.0170000000000001
2008-12-22,0.105,0.105,0.105,0.105,0,1.0170000000000001
2008-12-23,0.105,0.105,0.105,0.105,0,1.0170000000000001
2008-12-24,0.105,0.105,0.105,0.105,0,1.0170000000000001
2008-12-29,0.105,0.105,0.105,0.105,0,1.0170000000000001
2008-12-30,0.105,0.105,0.105,0.105,0,1.0170000000000001
2008-12-31,0.105,0.105,0.105,0.105,0,1.0170000000000001
2009-01-02,0.105,0.105,0.105,0.105,0,1.0170000000000001
2009-01-05,0.105,0.105,0.105,0.105,0,1.0170000000000001
2009-01-06,0.105,0.105,0.105,0.105,0,1.0170000000000001
2009-01-07,0.105,0.105,0.105,0.105,0,1.0170000000000001
2009-01-08,0.105,0.105,0.105,0.105,0,1.0170000000000001
2009-01-09,0.105,0.105,0.105,0.105,0,1.0170000000000001
2009-01-12,0.105,0.105,0.105,0.105,0,1.0170000000000001
2009-01-13,0.105,0.105,0.105,0.105,0,1.0170000000000001
2009-01-14,0.09,0.09,0.09,0.09,900,0.872
2009-01-15,0.09,0.09,0.09,0.09,0,0.872
2009-01-16,0.09,0.09,0.09,0.09,0,0.872
2009-01-19,0.09,0.09,0.09,0.09,0,0.872
2009-01-20,0.09,0.09,0.09,0.09,0,0.872
2009-01-21,0.09,0.09,0.09,0.09,0,0.872
2009-01-22,0.09,0.09,0.09,0.09,0,0.872
2009-01-23,0.09,0.09,0.09,0.09,0,0.872
2009-01-27,0.09,0.09,0.09,0.09,0,0.872
2009-01-28,0.09,0.09,0.09,0.09,0,0.872
2009-01-29,0.09,0.09,0.09,0.09,0,0.872
2009-01-30,0.09,0.09,0.09,0.09,0,0.872
2009-02-02,0.09,0.09,0.09,0.09,0,0.872
2009-02-03,0.09,0.09,0.09,0.09,0,0.872
2009-02-04,0.115,0.115,0.115,0.115,1500,1.114
2009-02-05,0.115,0.115,0.115,0.115,0,1.114
2009-02-06,0.115,0.115,0.115,0.115,0,1.114
2009-02-09,0.115,0.115,0.115,0.115,0,1.114
2009-02-10,0.115,0.115,0.115,0.115,0,1.114
2009-02-11,0.115,0.115,0.115,0.115,0,1.114
2009-02-12,0.115,0.115,0.115,0.115,0,1.114
2009-02-13,0.115,0.115,0.115,0.115,0,1.114
2009-02-16,0.115,0.115,0.115,0.115,0,1.114
2009-02-17,0.115,0.115,0.115,0.115,0,1.114
2009-02-18,0.115,0.115,0.115,0.115,0,1.114
2009-02-19,0.115,0.115,0.115,0.115,0,1.114
2009-02-20,0.115,0.115,0.115,0.115,0,1.114
2009-02-23,0.115,0.115,0.115,0.115,0,1.114
2009-02-24,0.075,0.075,0.075,0.075,15000,0.727
2009-02-25,0.1,0.1,0.075,0.075,0,0.727
2009-02-26,0.075,0.075,0.075,0.075,0,0.732
2009-02-27,0.075,0.075,0.075,0.075,0,0.732
2009-03-02,0.075,0.075,0.075,0.075,0,0.732
2009-03-03,0.075,0.075,0.075,0.075,0,0.732
2009-03-04,0.075,0.075,0.075,0.075,0,0.732
2009-03-05,0.075,0.075,0.075,0.075,0,0.732
2009-03-06,0.075,0.075,0.075,0.075,0,0.732
2009-03-09,0.075,0.075,0.075,0.075,0,0.732
2009-03-10,0.075,0.075,0.075,0.075,0,0.732
2009-03-11,0.075,0.075,0.075,0.075,0,0.732
2009-03-12,0.075,0.075,0.075,0.075,0,0.732
2009-03-13,0.075,0.075,0.075,0.075,0,0.732
2009-03-16,0.075,0.075,0.075,0.075,0,0.732
2009-03-17,0.1,0.1,0.1,0.1,46500,0.976
2009-03-18,0.1,0.1,0.1,0.1,0,0.976
2009-03-19,0.1,0.1,0.1,0.1,0,0.976
2009-03-20,0.1,0.1,0.1,0.1,0,0.976
2009-03-23,0.1,0.1,0.1,0.1,0,0.976
2009-03-24,0.1,0.1,0.1,0.1,0,0.976
2009-03-25,0.1,0.1,0.1,0.1,0,0.976
2009-03-26,0.1,0.1,0.1,0.1,0,0.976
2009-03-27,0.1,0.1,0.1,0.1,0,0.976
2009-03-30,0.1,0.1,0.1,0.1,18400,0.976
2009-03-31,0.1,0.1,0.1,0.1,0,0.976
2009-04-01,0.1,0.105,0.1,0.105,384100,1.025
2009-04-02,0.105,0.105,0.105,0.105,0,1.025
2009-04-03,0.1,0.1,0.1,0.1,11500,0.976
2009-04-06,0.1,0.1,0.1,0.1,0,0.976
2009-04-07,0.1,0.1,0.1,0.1,0,0.976
2009-04-08,0.1,0.1,0.1,0.1,0,0.976
2009-04-09,0.1,0.1,0.1,0.1,0,0.976
2009-04-14,0.1,0.1,0.1,0.1,0,0.976
2009-04-15,0.1,0.1,0.1,0.1,53000,0.976
2009-04-16,0.1,0.1,0.1,0.1,0,0.976
2009-04-17,0.1,0.1,0.1,0.1,165400,0.976
2009-04-20,0.105,0.105,0.105,0.105,2000,1.025
2009-04-21,0.105,0.105,0.105,0.105,0,1.025
2009-04-22,0.105,0.105,0.105,0.105,0,1.025
2009-04-23,0.105,0.105,0.105,0.105,0,1.025
2009-04-24,0.105,0.105,0.105,0.105,0,1.025
2009-04-27,0.105,0.105,0.105,0.105,0,1.025
2009-04-28,0.105,0.105,0.105,0.105,0,1.025
2009-04-29,0.105,0.105,0.105,0.105,0,1.025
2009-04-30,0.105,0.105,0.105,0.105,0,1.025
2009-05-01,0.105,0.105,0.105,0.105,0,1.025
2009-05-04,0.105,0.105,0.105,0.105,0,1.025
2009-05-05,0.105,0.105,0.105,0.105,0,1.025
2009-05-06,0.105,0.105,0.105,0.105,0,1.025
2009-05-07,0.105,0.105,0.105,0.105,0,1.025
2009-05-08,0.105,0.105,0.105,0.105,0,1.025
2009-05-11,0.105,0.105,0.105,0.105,0,1.025
2009-05-12,0.105,0.105,0.105,0.105,0,1.025
2009-05-13,0.105,0.105,0.105,0.105,0,1.025
2009-05-14,0.105,0.105,0.105,0.105,0,1.025
2009-05-15,0.105,0.105,0.105,0.105,0,1.025
2009-05-18,0.105,0.105,0.105,0.105,0,1.025
2009-05-19,0.105,0.105,0.105,0.105,0,1.025
2009-05-20,0.105,0.105,0.105,0.105,0,1.025
2009-05-21,0.105,0.105,0.105,0.105,0,1.025
2009-05-22,0.105,0.105,0.105,0.105,0,1.025
2009-05-25,0.105,0.105,0.105,0.105,0,1.025
2009-05-26,0.105,0.105,0.105,0.105,0,1.025
2009-05-27,0.105,0.105,0.105,0.105,0,1.025
2009-05-28,0.105,0.105,0.105,0.105,0,1.025
2009-05-29,0.105,0.105,0.105,0.105,0,1.025
2009-06-01,0.105,0.105,0.105,0.105,0,1.025
2009-06-02,0.105,0.105,0.105,0.105,0,1.025
2009-06-03,0.105,0.105,0.105,0.105,0,1.025
2009-06-04,0.105,0.105,0.105,0.105,0,1.025
2009-06-05,0.105,0.105,0.105,0.105,0,1.025
2009-06-09,0.105,0.105,0.105,0.105,0,1.025
2009-06-10,0.105,0.105,0.105,0.105,0,1.025
2009-06-11,0.105,0.105,0.105,0.105,0,1.025
2009-06-12,0.105,0.105,0.105,0.105,0,1.025
2009-06-15,0.105,0.105,0.105,0.105,0,1.025
2009-06-16,0.105,0.105,0.105,0.105,0,1.025
2009-06-17,0.105,0.105,0.105,0.105,0,1.025
2009-06-18,0.105,0.105,0.105,0.105,0,1.025
2009-06-19,0.105,0.105,0.105,0.105,0,1.025
2009-06-22,0.105,0.105,0.105,0.105,0,1.025
2009-06-23,0.105,0.105,0.105,0.105,0,1.025
2009-06-24,0.105,0.105,0.105,0.105,0,1.025
2009-06-25,0.1,0.1,0.08,0.08,5500,0.7809999999999999
2009-06-26,0.09,0.09,0.09,0.09,5000,0.879
2009-06-29,0.09,0.09,0.09,0.09,31000,0.879
2009-06-30,0.09,0.09,0.09,0.09,400,0.879
2009-07-01,0.15,0.15,0.09,0.09,0,0.879
2009-07-02,0.15,0.15,0.09,0.09,0,0.879
2009-07-03,0.09,0.09,0.09,0.09,1000,0.879
2009-07-06,0.09,0.09,0.09,0.09,0,0.879
2009-07-07,0.09,0.09,0.09,0.09,0,0.879
2009-07-08,0.09,0.09,0.09,0.09,0,0.879
2009-07-09,0.09,0.09,0.09,0.09,0,0.879
2009-07-10,0.09,0.09,0.09,0.09,0,0.879
2009-07-13,0.09,0.09,0.09,0.09,0,0.879
2009-07-14,0.09,0.09,0.09,0.09,0,0.879
2009-07-15,0.09,0.09,0.09,0.09,0,0.879
2009-07-16,0.08,0.08,0.08,0.08,1000,0.7809999999999999
2009-07-17,0.08,0.08,0.08,0.08,0,0.7809999999999999
2009-07-20,0.08,0.08,0.08,0.08,0,0.7809999999999999
2009-07-21,0.08,0.08,0.08,0.08,0,0.7809999999999999
2009-07-22,0.08,0.08,0.08,0.08,0,0.7809999999999999
2009-07-23,0.08,0.08,0.08,0.08,0,0.7809999999999999
2009-07-24,0.08,0.08,0.08,0.08,0,0.7809999999999999
2009-07-27,0.08,0.08,0.08,0.08,0,0.7809999999999999
2009-07-28,0.08,0.08,0.08,0.08,0,0.7809999999999999
2009-07-29,0.08,0.08,0.08,0.08,0,0.7809999999999999
2009-07-30,0.08,0.08,0.08,0.08,0,0.7809999999999999
2009-07-31,0.08,0.08,0.08,0.08,0,0.7809999999999999
2009-08-03,0.08,0.08,0.08,0.08,0,0.7809999999999999
2009-08-04,0.08,0.08,0.08,0.08,0,0.7809999999999999
2009-08-05,0.08,0.08,0.08,0.08,0,0.7809999999999999
2009-08-06,0.08,0.08,0.08,0.08,0,0.7809999999999999
2009-08-07,0.08,0.08,0.08,0.08,0,0.7809999999999999
2009-08-10,0.08,0.08,0.08,0.08,0,0.7809999999999999
2009-08-11,0.08,0.08,0.08,0.08,0,0.7809999999999999
2009-08-12,0.08,0.08,0.08,0.08,0,0.7809999999999999
2009-08-13,0.08,0.08,0.08,0.08,0,0.7809999999999999
2009-08-14,0.08,0.08,0.08,0.08,0,0.7809999999999999
2009-08-17,0.08,0.08,0.08,0.08,0,0.7809999999999999
2009-08-18,0.08,0.08,0.08,0.08,0,0.7809999999999999
2009-08-19,0.08,0.08,0.08,0.08,0,0.7809999999999999
2009-08-20,0.08,0.08,0.08,0.08,0,0.7809999999999999
2009-08-21,0.08,0.08,0.08,0.08,0,0.7809999999999999
2009-08-24,0.08,0.08,0.08,0.08,0,0.7809999999999999
2009-08-25,0.08,0.08,0.08,0.08,0,0.7809999999999999
2009-08-26,0.08,0.08,0.08,0.08,0,0.7809999999999999
2009-08-27,0.08,0.08,0.08,0.08,0,0.7809999999999999
2009-08-28,0.08,0.08,0.08,0.08,0,0.7809999999999999
2009-08-31,0.08,0.08,0.08,0.08,0,0.7809999999999999
2009-09-01,0.08,0.08,0.08,0.08,0,0.787
2009-09-02,0.08,0.08,0.08,0.08,0,0.787
2009-09-03,0.08,0.08,0.08,0.08,0,0.787
2009-09-04,0.08,0.08,0.08,0.08,0,0.787
2009-09-07,0.08,0.08,0.08,0.08,0,0.787
2009-09-08,0.08,0.08,0.08,0.08,0,0.787
2009-09-09,0.08,0.08,0.08,0.08,0,0.787
2009-09-10,0.08,0.08,0.075,0.075,3000,0.738
2009-09-11,0.075,0.075,0.075,0.075,0,0.738
2009-09-14,0.075,0.075,0.075,0.075,32000,0.738
2009-09-15,0.075,0.075,0.075,0.075,0,0.738
2009-09-16,0.075,0.075,0.075,0.075,26900,0.738
2009-09-17,0.075,0.075,0.075,0.075,0,0.738
2009-09-18,0.075,0.075,0.075,0.075,14000,0.738
2009-09-21,0.075,0.075,0.075,0.075,0,0.738
2009-09-22,0.075,0.075,0.075,0.075,0,0.738
2009-09-23,0.075,0.075,0.075,0.075,0,0.738
2009-09-24,0.075,0.075,0.075,0.075,0,0.738
2009-09-25,0.075,0.075,0.075,0.075,0,0.738
2009-09-28,0.075,0.075,0.075,0.075,0,0.738
2009-09-29,0.075,0.075,0.075,0.075,0,0.738
2009-09-30,0.075,0.075,0.075,0.075,0,0.738
2009-10-01,0.075,0.075,0.075,0.075,0,0.738
2009-10-02,0.075,0.075,0.075,0.075,0,0.738
2009-10-05,0.075,0.075,0.075,0.075,0,0.738
2009-10-06,0.075,0.075,0.075,0.075,0,0.738
2009-10-07,0.075,0.075,0.075,0.075,0,0.738
2009-10-08,0.075,0.075,0.075,0.075,0,0.738
2009-10-09,0.075,0.075,0.075,0.075,0,0.738
2009-10-12,0.075,0.075,0.075,0.075,0,0.738
2009-10-13,0.075,0.075,0.075,0.075,0,0.738
2009-10-14,0.105,0.105,0.1,0.1,2000,0.983
2009-10-15,0.1,0.1,0.1,0.1,0,0.983
2009-10-16,0.1,0.1,0.1,0.1,0,0.983
2009-10-19,0.1,0.1,0.1,0.1,0,0.983
2009-10-20,0.1,0.1,0.1,0.1,0,0.983
2009-10-21,0.1,0.1,0.1,0.1,0,0.983
2009-10-22,0.135,0.145,0.135,0.135,12600,1.328
2009-10-23,0.135,0.135,0.135,0.135,24600,1.328
2009-10-26,0.135,0.135,0.135,0.135,0,1.328
2009-10-27,0.135,0.135,0.135,0.135,23800,1.328
2009-10-28,0.135,0.135,0.135,0.135,1500,1.328
2009-10-29,0.135,0.135,0.135,0.135,0,1.328
2009-10-30,0.135,0.135,0.135,0.135,0,1.328
2009-11-02,0.135,0.135,0.135,0.135,0,1.328
2009-11-03,0.135,0.135,0.135,0.135,0,1.328
2009-11-04,0.135,0.135,0.135,0.135,0,1.328
2009-11-05,0.135,0.135,0.135,0.135,0,1.328
2009-11-06,0.15,0.15,0.125,0.125,0,1.229
2009-11-09,0.15,0.15,0.125,0.125,0,1.229
2009-11-10,0.135,0.135,0.135,0.135,4000,1.328
2009-11-13,0.135,0.135,0.13,0.13,0,1.278
2009-11-16,0.135,0.135,0.13,0.13,0,1.278
2009-11-17,0.135,0.135,0.135,0.135,1800,1.328
2009-11-18,0.135,0.135,0.12,0.12,0,1.18
2009-11-19,0.135,0.135,0.12,0.12,0,1.18
2009-11-20,0.135,0.135,0.12,0.12,0,1.18
2009-11-23,0.135,0.135,0.12,0.12,0,1.18
2009-11-24,0.135,0.135,0.12,0.12,0,1.18
2009-11-25,0.135,0.135,0.12,0.12,0,1.18
2009-11-26,0.135,0.135,0.12,0.12,0,1.18
2009-11-27,0.135,0.135,0.135,0.135,1800,1.328
2009-11-30,0.3,0.3,0.135,0.135,0,1.328
2009-12-01,0.2,0.2,0.135,0.135,0,1.328
2009-12-02,0.2,0.2,0.135,0.135,0,1.328
2009-12-03,0.2,0.2,0.135,0.135,0,1.328
2009-12-04,0.2,0.2,0.135,0.135,0,1.328
2009-12-07,0.2,0.2,0.135,0.135,0,1.328
2009-12-08,0.2,0.2,0.14,0.14,0,1.3769999999999998
2009-12-09,0.2,0.2,0.14,0.14,0,1.3769999999999998
2009-12-10,0.2,0.2,0.14,0.14,0,1.3769999999999998
2009-12-11,0.2,0.2,0.14,0.14,0,1.3769999999999998
2009-12-14,0.14,0.14,0.14,0.14,3600,1.3769999999999998
2009-12-15,0.2,0.2,0.135,0.135,0,1.328
2009-12-16,0.2,0.2,0.135,0.135,0,1.328
2009-12-17,0.2,0.2,0.135,0.135,0,1.328
2009-12-18,0.2,0.2,0.135,0.135,0,1.328
2009-12-21,0.2,0.2,0.135,0.135,0,1.328
2009-12-22,0.25,0.25,0.135,0.135,0,1.328
2009-12-23,0.25,0.25,0.135,0.135,0,1.328
2009-12-24,0.25,0.25,0.135,0.135,0,1.328
2009-12-30,0.15,0.15,0.12,0.12,0,1.18
2009-12-31,0.15,0.15,0.12,0.12,0,1.18
2010-01-04,0.185,0.185,0.12,0.12,0,1.18
2010-01-05,0.135,0.135,0.12,0.12,0,1.18
2010-01-07,0.15,0.15,0.12,0.12,0,1.18
2010-01-08,0.15,0.15,0.12,0.12,0,1.18
2010-01-11,0.14,0.14,0.12,0.12,0,1.18
2010-01-12,0.14,0.14,0.12,0.12,0,1.18
2010-01-13,0.14,0.14,0.12,0.12,0,1.18
2010-01-14,0.14,0.14,0.12,0.12,0,1.18
2010-01-15,0.14,0.14,0.12,0.12,0,1.18
2010-01-18,0.12,0.12,0.115,0.115,3000,1.131
2010-01-19,0.14,0.14,0.115,0.115,0,1.131
2010-01-20,0.14,0.14,0.115,0.115,0,1.131
2010-01-21,0.14,0.14,0.115,0.115,0,1.131
2010-01-22,0.14,0.14,0.115,0.115,0,1.131
2010-01-25,0.14,0.14,0.115,0.115,0,1.131
2010-01-27,0.14,0.14,0.115,0.115,0,1.131
2010-01-28,0.14,0.14,0.115,0.115,0,1.131
2010-01-29,0.14,0.14,0.115,0.115,0,1.131
2010-02-01,0.14,0.14,0.115,0.115,0,1.131
2010-02-03,0.14,0.14,0.115,0.115,0,1.131
2010-02-04,0.14,0.14,0.115,0.115,0,1.131
2010-02-05,0.14,0.14,0.115,0.115,0,1.131
2010-02-08,0.14,0.14,0.115,0.115,0,1.131
2010-02-09,0.14,0.14,0.115,0.115,0,1.131
2010-02-10,0.14,0.14,0.115,0.115,0,1.131
2010-02-11,0.14,0.14,0.115,0.115,0,1.131
2010-02-12,0.14,0.14,0.115,0.115,0,1.131
2010-02-15,0.14,0.14,0.08,0.08,0,0.787
2010-02-16,0.14,0.14,0.08,0.08,0,0.787
2010-02-17,0.14,0.14,0.08,0.08,0,0.787
2010-02-18,0.14,0.14,0.08,0.08,0,0.787
2010-02-19,0.14,0.14,0.08,0.08,0,0.787
2010-02-22,0.14,0.14,0.08,0.08,0,0.787
2010-02-23,0.14,0.14,0.092,0.092,0,0.905
2010-02-24,0.14,0.14,0.09,0.09,0,0.885
2010-02-25,0.13,0.13,0.13,0.13,40000,1.278
2010-02-26,0.13,0.13,0.125,0.125,0,1.229
2010-03-01,0.15,0.15,0.13,0.13,0,1.284
2010-03-02,0.15,0.15,0.13,0.13,0,1.284
2010-03-03,0.14,0.14,0.13,0.13,0,1.284
2010-03-04,0.14,0.14,0.13,0.13,0,1.284
2010-03-05,0.13,0.13,0.13,0.13,3900,1.284
2010-03-08,0.14,0.15,0.14,0.15,1000,1.482
2010-03-09,0.14,0.14,0.14,0.14,2000,1.383
2010-03-10,0.145,0.145,0.081,0.081,0,0.8
2010-03-11,0.145,0.145,0.081,0.081,0,0.8
2010-03-12,0.145,0.145,0.085,0.085,0,0.84
2010-03-15,0.145,0.145,0.085,0.085,0,0.84
2010-03-16,0.14,0.14,0.085,0.085,0,0.84
2010-03-17,0.14,0.14,0.085,0.085,0,0.84
2010-03-18,0.13,0.13,0.13,0.13,6100,1.284
2010-03-19,0.145,0.145,0.13,0.13,0,1.284
2010-03-22,0.14,0.14,0.13,0.13,0,1.284
2010-03-24,0.14,0.14,0.09,0.09,0,0.889
2010-03-25,0.14,0.14,0.09,0.09,0,0.889
2010-03-26,0.14,0.14,0.09,0.09,0,0.889
2010-03-29,0.14,0.14,0.09,0.09,0,0.889
2010-03-30,0.13,0.13,0.13,0.13,2500,1.284
2010-03-31,0.135,0.135,0.09,0.09,0,0.889
2010-04-01,0.135,0.135,0.09,0.09,0,0.889
2010-04-06,0.12,0.135,0.12,0.135,19100,1.334
2010-04-07,0.135,0.135,0.12,0.12,0,1.186
2010-04-08,0.135,0.135,0.135,0.135,5000,1.334
2010-04-09,0.14,0.14,0.14,0.14,5000,1.383
2010-04-12,0.14,0.14,0.14,0.14,16000,1.383
2010-04-13,0.14,0.14,0.1,0.1,0,0.988
2010-04-14,0.14,0.14,0.1,0.1,0,0.988
2010-04-15,0.14,0.14,0.1,0.1,0,0.988
2010-04-16,0.14,0.14,0.1,0.1,0,0.988
2010-04-19,0.14,0.14,0.11,0.11,0,1.087
2010-04-20,0.135,0.135,0.11,0.11,0,1.087
2010-04-21,0.135,0.135,0.11,0.11,0,1.087
2010-04-22,0.135,0.135,0.125,0.125,0,1.235
2010-04-23,0.135,0.135,0.125,0.125,0,1.235
2010-04-27,0.135,0.135,0.125,0.125,0,1.235
2010-04-28,0.135,0.14,0.135,0.14,1000,1.383
2010-04-29,0.14,0.14,0.125,0.125,0,1.235
2010-04-30,0.14,0.14,0.125,0.125,0,1.235
2010-05-03,0.14,0.14,0.125,0.125,0,1.235
2010-05-04,0.14,0.14,0.125,0.125,0,1.235
2010-05-05,0.16,0.16,0.125,0.125,0,1.235
2010-05-06,0.14,0.14,0.125,0.125,0,1.235
2010-05-07,0.14,0.14,0.125,0.125,0,1.235
2010-05-11,0.14,0.14,0.125,0.125,0,1.235
2010-05-12,0.14,0.14,0.125,0.125,0,1.235
2010-05-13,0.125,0.125,0.125,0.125,600,1.235
2010-05-14,0.13,0.13,0.12,0.12,0,1.186
2010-05-17,0.13,0.13,0.12,0.12,0,1.186
2010-05-18,0.13,0.13,0.12,0.12,0,1.186
2010-05-19,0.13,0.13,0.12,0.12,0,1.186
2010-05-20,0.13,0.13,0.13,0.13,0,1.284
2010-05-21,0.13,0.13,0.1,0.1,0,0.988
2010-05-24,0.13,0.13,0.13,0.13,7700,1.284
2010-05-25,0.125,0.125,0.11,0.11,0,1.087
2010-05-26,0.125,0.125,0.11,0.11,0,1.087
2010-05-27,0.125,0.14,0.125,0.14,7600,1.383
2010-05-28,0.14,0.14,0.1,0.1,0,0.988
2010-05-31,0.14,0.14,0.1,0.1,0,0.988
2010-06-01,0.14,0.14,0.1,0.1,0,0.988
2010-06-02,0.14,0.14,0.1,0.1,0,0.988
2010-06-03,0.14,0.14,0.1,0.1,0,0.988
2010-06-04,0.14,0.14,0.1,0.1,0,0.988
2010-06-07,0.135,0.135,0.135,0.135,500,1.334
2010-06-08,0.14,0.14,0.135,0.135,0,1.334
2010-06-09,0.14,0.14,0.135,0.135,0,1.334
2010-06-10,0.14,0.14,0.135,0.135,0,1.334
2010-06-11,0.14,0.14,0.135,0.135,0,1.334
2010-06-15,0.14,0.14,0.135,0.135,0,1.334
2010-06-16,0.14,0.14,0.14,0.14,47800,1.383
2010-06-17,0.145,0.145,0.14,0.14,0,1.383
2010-06-18,0.145,0.145,0.14,0.14,0,1.383
2010-06-21,0.145,0.145,0.14,0.14,0,1.383
2010-06-22,0.145,0.145,0.14,0.14,0,1.383
2010-06-23,0.145,0.145,0.14,0.14,0,1.383
2010-06-24,0.145,0.145,0.14,0.14,0,1.383
2010-06-25,0.14,0.14,0.14,0.14,1000,1.383
2010-06-28,0.135,0.135,0.135,0.135,0,1.334
2010-07-07,0.135,0.135,0.135,0.135,8500,1.334
2010-07-09,0.135,0.135,0.135,0.135,1000,1.334
2010-07-14,0.05,0.057,0.04,0.057,234700,0.563
2010-07-15,0.065,0.067,0.063,0.063,27200,0.622
2010-07-19,0.063,0.065,0.063,0.065,2000,0.642
2010-07-20,0.07400000000000001,0.075,0.07400000000000001,0.075,33200,0.741
2010-07-21,0.075,0.079,0.075,0.079,27600,0.78
2010-07-29,0.07400000000000001,0.07400000000000001,0.07400000000000001,0.07400000000000001,1000,0.731
2010-08-12,0.066,0.069,0.063,0.063,3200,0.622
2010-08-13,0.063,0.063,0.06,0.06,15500,0.593
2010-08-16,0.061,0.061,0.06,0.06,3500,0.593
2010-08-20,0.066,0.066,0.066,0.066,6200,0.652
2010-08-25,0.066,0.066,0.066,0.066,10900,0.652
2010-08-26,0.066,0.066,0.066,0.066,2500,0.652
2010-08-27,0.066,0.069,0.066,0.069,6700,0.682
2010-08-30,0.069,0.069,0.068,0.068,17700,0.672
2010-08-31,0.068,0.068,0.068,0.068,3000,0.672
2010-09-01,0.068,0.068,0.068,0.068,6100,0.672
2010-09-02,0.064,0.064,0.064,0.064,1600,0.638
2010-09-03,0.068,0.068,0.068,0.068,600,0.677
2010-09-06,0.075,0.075,0.075,0.075,5000,0.747
2010-09-07,0.085,0.085,0.085,0.085,10000,0.847
2010-09-16,0.081,0.081,0.081,0.081,25000,0.807
2010-09-17,0.081,0.081,0.075,0.075,20800,0.747
2010-09-20,0.075,0.081,0.075,0.081,40000,0.807
2010-09-23,0.077,0.077,0.077,0.077,9000,0.767
2010-09-24,0.077,0.077,0.077,0.077,13600,0.767
2010-09-27,0.078,0.078,0.078,0.078,17300,0.777
2010-09-28,0.078,0.078,0.078,0.078,5000,0.777
2010-09-29,0.073,0.073,0.073,0.073,25900,0.727
2010-10-11,0.07200000000000001,0.07200000000000001,0.07200000000000001,0.07200000000000001,300,0.7170000000000001
2010-10-12,0.07200000000000001,0.07200000000000001,0.07200000000000001,0.07200000000000001,1600,0.7170000000000001
2010-10-13,0.079,0.079,0.079,0.079,700,0.787
2010-10-25,0.07,0.07,0.07,0.07,1000,0.6970000000000001
2010-10-26,0.075,0.075,0.075,0.075,13000,0.747
2010-11-04,0.067,0.067,0.064,0.064,13200,0.638
2010-11-05,0.064,0.064,0.064,0.064,2500,0.638
2010-11-15,0.054000000000000006,0.055,0.054000000000000006,0.055,22000,0.5479999999999999
2010-11-29,0.057,0.057,0.055,0.055,28000,0.5479999999999999
2010-11-30,0.052000000000000005,0.052000000000000005,0.052000000000000005,0.052000000000000005,20000,0.518
2010-12-06,0.052000000000000005,0.052000000000000005,0.052000000000000005,0.052000000000000005,5000,0.518
2010-12-09,0.055,0.055,0.055,0.055,19600,0.5479999999999999
2010-12-10,0.055,0.055,0.055,0.055,1500,0.5479999999999999
2011-01-06,0.07,0.07,0.07,0.07,7200,0.6970000000000001
2011-01-10,0.07,0.07,0.07,0.07,1500,0.6970000000000001
2011-01-18,0.066,0.07,0.06,0.07,15400,0.6970000000000001
2011-01-19,0.068,0.068,0.068,0.068,15000,0.677
2011-01-24,0.06,0.068,0.06,0.068,5000,0.677
2011-02-09,0.052000000000000005,0.052000000000000005,0.052000000000000005,0.052000000000000005,1000,0.518
2011-02-17,0.052000000000000005,0.052000000000000005,0.052000000000000005,0.052000000000000005,500,0.518
2011-03-02,0.064,0.064,0.064,0.064,1200,0.638
2011-03-04,0.064,0.064,0.064,0.064,9500,0.638
2011-03-21,0.071,0.085,0.071,0.085,5900,0.85
2011-03-28,0.08,0.08,0.08,0.08,12500,0.8
2011-03-31,0.079,0.079,0.079,0.079,5800,0.79
2011-04-01,0.068,0.068,0.068,0.068,2000,0.68
2011-04-06,0.07200000000000001,0.07200000000000001,0.07200000000000001,0.07200000000000001,9700,0.72
2011-04-07,0.073,0.073,0.07200000000000001,0.07200000000000001,8000,0.72
2011-04-12,0.07200000000000001,0.07200000000000001,0.07200000000000001,0.07200000000000001,1800,0.72
2011-04-13,0.065,0.067,0.065,0.067,2000,0.67
2011-04-28,0.054000000000000006,0.054000000000000006,0.054000000000000006,0.054000000000000006,700,0.54
2011-04-29,0.055,0.055,0.055,0.055,1300,0.55
2011-05-03,0.057,0.057,0.055999999999999994,0.055999999999999994,1300,0.56
2011-05-05,0.06,0.06,0.053,0.053,14800,0.53
2011-05-09,0.065,0.065,0.065,0.065,8100,0.65
2011-05-10,0.066,0.066,0.066,0.066,1600,0.66
2011-05-11,0.066,0.066,0.066,0.066,5000,0.66
2011-05-13,0.075,0.075,0.075,0.075,1000,0.75
2011-05-18,0.07,0.07,0.07,0.07,2000,0.7
2011-05-19,0.07,0.07,0.07,0.07,3200,0.7
2011-05-20,0.07,0.07,0.07,0.07,8000,0.7
2011-05-25,0.07,0.07,0.07,0.07,100,0.7
2011-05-31,0.06,0.06,0.06,0.06,1300,0.6
2011-06-03,0.062,0.062,0.062,0.062,700,0.62
2011-06-06,0.064,0.064,0.064,0.064,2000,0.64
2011-06-07,0.065,0.065,0.065,0.065,3000,0.65
2011-06-14,0.062,0.062,0.062,0.062,8000,0.62
2011-06-16,0.063,0.063,0.063,0.063,1200,0.63
2011-06-20,0.065,0.065,0.065,0.065,3000,0.65
2011-06-23,0.065,0.065,0.065,0.065,3700,0.65
2011-06-27,0.063,0.063,0.061,0.061,15000,0.61
2011-07-07,0.065,0.065,0.065,0.065,27200,0.65
2011-07-11,0.063,0.063,0.063,0.063,0,0.63
2011-07-13,0.064,0.064,0.063,0.063,2400,0.63
2011-07-18,0.063,0.063,0.061,0.061,1500,0.61
2011-07-20,0.061,0.061,0.061,0.061,1600,0.61
2011-07-26,0.057999999999999996,0.057999999999999996,0.057999999999999996,0.057999999999999996,3000,0.58
2011-08-02,0.06,0.06,0.06,0.06,14000,0.6
2011-08-03,0.06,0.06,0.06,0.06,4000,0.6
2011-08-04,0.06,0.06,0.06,0.06,1000,0.6
2011-08-10,0.065,0.069,0.065,0.069,1500,0.69
2011-08-23,0.054000000000000006,0.055,0.054000000000000006,0.055,17700,0.55
2011-08-24,0.052000000000000005,0.052000000000000005,0.052000000000000005,0.052000000000000005,1800,0.52
2011-08-25,0.052000000000000005,0.054000000000000006,0.052000000000000005,0.054000000000000006,5600,0.54
2011-08-29,0.05,0.05,0.05,0.05,10000,0.5
2011-08-30,0.05,0.05,0.05,0.05,6700,0.5
2011-08-31,0.05,0.05,0.05,0.05,1400,0.5
2011-09-02,0.05,0.05,0.031,0.031,10000,0.31
2011-09-14,0.036000000000000004,0.036000000000000004,0.036000000000000004,0.036000000000000004,8000,0.36
2011-09-22,0.039,0.039,0.035,0.035,12000,0.35
2011-09-28,0.04,0.04,0.04,0.04,400,0.4
2011-09-29,0.04,0.04,0.039,0.039,43100,0.39
2011-09-30,0.04,0.04,0.04,0.04,400,0.4
2011-10-05,0.04,0.04,0.04,0.04,2500,0.4
2011-10-25,0.046,0.046,0.045,0.045,4100,0.45
2011-11-09,0.045,0.045,0.045,0.045,1100,0.45
2011-11-10,0.045,0.046,0.045,0.046,8400,0.46
2011-11-15,0.046,0.046,0.044000000000000004,0.044000000000000004,15000,0.44
2011-11-17,0.044000000000000004,0.044000000000000004,0.044000000000000004,0.044000000000000004,0,0.44
2011-11-18,0.044000000000000004,0.044000000000000004,0.044000000000000004,0.044000000000000004,0,0.44
2011-11-21,0.044000000000000004,0.044000000000000004,0.044000000000000004,0.044000000000000004,0,0.44
2011-11-22,0.047,0.047,0.047,0.047,1800,0.47
2011-11-23,0.055999999999999994,0.055999999999999994,0.055999999999999994,0.055999999999999994,6600,0.56
2011-11-24,0.059000000000000004,0.059000000000000004,0.055999999999999994,0.055999999999999994,1000,0.56
2011-11-25,0.055999999999999994,0.055999999999999994,0.055999999999999994,0.055999999999999994,0,0.56
2011-11-28,0.057999999999999996,0.057999999999999996,0.054000000000000006,0.054000000000000006,26500,0.54
2011-11-29,0.054000000000000006,0.054000000000000006,0.054000000000000006,0.054000000000000006,0,0.54
2011-11-30,0.054000000000000006,0.054000000000000006,0.054000000000000006,0.054000000000000006,0,0.54
2011-12-01,0.054000000000000006,0.054000000000000006,0.054000000000000006,0.054000000000000006,0,0.54
2011-12-02,0.054000000000000006,0.054000000000000006,0.054000000000000006,0.054000000000000006,0,0.54
2011-12-05,0.054000000000000006,0.054000000000000006,0.054000000000000006,0.054000000000000006,0,0.54
2011-12-06,0.054000000000000006,0.054000000000000006,0.054000000000000006,0.054000000000000006,0,0.54
2011-12-07,0.054000000000000006,0.054000000000000006,0.054000000000000006,0.054000000000000006,0,0.54
2011-12-08,0.054000000000000006,0.054000000000000006,0.054000000000000006,0.054000000000000006,0,0.54
2011-12-09,0.049,0.049,0.049,0.049,5000,0.49
2011-12-12,0.049,0.049,0.049,0.049,0,0.49
2011-12-13,0.049,0.049,0.049,0.049,0,0.49
2011-12-14,0.049,0.049,0.049,0.049,0,0.49
2011-12-15,0.049,0.049,0.049,0.049,0,0.49
2011-12-16,0.049,0.049,0.049,0.049,0,0.49
2011-12-19,0.053,0.055,0.053,0.055,12600,0.55
2011-12-20,0.055,0.055,0.055,0.055,4000,0.55
2011-12-21,0.065,0.065,0.065,0.065,3000,0.65
2011-12-22,0.071,0.071,0.071,0.071,3900,0.71
2011-12-23,0.071,0.071,0.071,0.071,0,0.71
2011-12-26,0.071,0.071,0.071,0.071,0,0.71
2011-12-27,0.071,0.071,0.071,0.071,0,0.71
2011-12-28,0.071,0.071,0.071,0.071,0,0.71
2011-12-29,0.071,0.071,0.071,0.071,0,0.71
2011-12-30,0.071,0.071,0.071,0.071,0,0.71
2012-01-02,0.071,0.071,0.071,0.071,0,0.71
2012-01-03,0.071,0.071,0.071,0.071,0,0.71
2012-01-04,0.071,0.071,0.071,0.071,0,0.71
2012-01-05,0.071,0.071,0.071,0.071,0,0.71
2012-01-06,0.071,0.071,0.071,0.071,0,0.71
2012-01-09,0.071,0.071,0.071,0.071,0,0.71
2012-01-10,0.071,0.071,0.071,0.071,0,0.71
2012-01-11,0.071,0.071,0.071,0.071,0,0.71
2012-01-12,0.071,0.071,0.071,0.071,0,0.71
2012-01-13,0.071,0.071,0.071,0.071,0,0.71
2012-01-16,0.07,0.07,0.067,0.067,1000,0.67
2012-01-17,0.067,0.067,0.067,0.067,0,0.67
2012-01-18,0.067,0.067,0.067,0.067,0,0.67
2012-01-19,0.067,0.067,0.067,0.067,0,0.67
2012-01-20,0.067,0.067,0.067,0.067,4700,0.67
2012-01-23,0.067,0.067,0.067,0.067,0,0.67
2012-01-24,0.067,0.067,0.067,0.067,0,0.67
2012-01-25,0.067,0.067,0.067,0.067,0,0.67
2012-01-26,0.067,0.067,0.067,0.067,0,0.67
2012-01-27,0.067,0.067,0.067,0.067,0,0.67
2012-01-30,0.07,0.07,0.07,0.07,900,0.7
2012-01-31,0.07,0.07,0.07,0.07,0,0.7
2012-02-01,0.07,0.07,0.07,0.07,0,0.7
2012-02-02,0.07,0.07,0.07,0.07,0,0.7
2012-02-03,0.07,0.07,0.07,0.07,0,0.7
2012-02-06,0.07,0.07,0.07,0.07,0,0.7
2012-02-07,0.07,0.07,0.07,0.07,0,0.7
2012-02-08,0.07,0.07,0.07,0.07,0,0.7
2012-02-09,0.07,0.07,0.07,0.07,0,0.7
2012-02-10,0.07,0.07,0.07,0.07,0,0.7
2012-02-13,0.066,0.066,0.066,0.066,300,0.66
2012-02-14,0.066,0.066,0.066,0.066,8700,0.66
2012-02-15,0.066,0.066,0.066,0.066,0,0.66
2012-02-16,0.066,0.066,0.066,0.066,0,0.66
2012-02-17,0.066,0.066,0.066,0.066,0,0.66
2012-02-20,0.066,0.066,0.066,0.066,0,0.66
2012-02-21,0.066,0.066,0.066,0.066,0,0.66
2012-02-22,0.066,0.066,0.066,0.066,0,0.66
2012-02-23,0.066,0.066,0.066,0.066,0,0.66
2012-02-24,0.066,0.066,0.066,0.066,0,0.66
2012-02-27,0.066,0.066,0.066,0.066,0,0.66
2012-02-28,0.066,0.066,0.066,0.066,0,0.66
2012-02-29,0.066,0.066,0.066,0.066,0,0.66
2012-03-01,0.066,0.066,0.066,0.066,0,0.66
2012-03-02,0.066,0.066,0.066,0.066,0,0.66
2012-03-05,0.066,0.066,0.066,0.066,0,0.66
2012-03-06,0.066,0.066,0.066,0.066,0,0.66
2012-03-07,0.066,0.066,0.066,0.066,0,0.66
2012-03-08,0.066,0.066,0.066,0.066,0,0.66
2012-03-09,0.066,0.066,0.066,0.066,0,0.66
2012-03-12,0.066,0.066,0.066,0.066,0,0.66
2012-03-13,0.066,0.066,0.066,0.066,0,0.66
2012-03-14,0.066,0.066,0.066,0.066,0,0.66
2012-03-15,0.066,0.066,0.066,0.066,0,0.66
2012-03-16,0.066,0.066,0.066,0.066,0,0.66
2012-03-19,0.066,0.066,0.066,0.066,0,0.66
2012-03-20,0.066,0.066,0.066,0.066,0,0.66
2012-03-21,0.066,0.066,0.066,0.066,0,0.66
2012-03-22,0.066,0.066,0.066,0.066,0,0.66
2012-03-23,0.066,0.066,0.066,0.066,0,0.66
2012-03-26,0.066,0.066,0.066,0.066,0,0.66
2012-03-27,0.066,0.066,0.066,0.066,0,0.66
2012-03-28,0.066,0.066,0.066,0.066,0,0.66
2012-03-29,0.066,0.066,0.066,0.066,0,0.66
2012-03-30,0.066,0.066,0.066,0.066,0,0.66
2012-04-02,0.066,0.066,0.066,0.066,0,0.66
2012-04-03,0.066,0.066,0.066,0.066,0,0.66
2012-04-04,0.066,0.066,0.066,0.066,0,0.66
2012-04-05,0.066,0.066,0.066,0.066,0,0.66
2012-04-06,0.066,0.066,0.066,0.066,0,0.66
2012-04-09,0.066,0.066,0.066,0.066,0,0.66
2012-04-10,0.066,0.066,0.066,0.066,0,0.66
2012-04-11,0.066,0.066,0.066,0.066,0,0.66
2012-04-12,0.066,0.066,0.066,0.066,0,0.66
2012-04-13,0.066,0.066,0.066,0.066,0,0.66
2012-04-16,0.066,0.066,0.066,0.066,0,0.66
2012-04-17,0.066,0.066,0.066,0.066,0,0.66
2012-04-18,0.066,0.066,0.066,0.066,0,0.66
2012-04-19,0.066,0.066,0.066,0.066,0,0.66
2012-04-20,0.066,0.066,0.066,0.066,0,0.66
2012-04-23,0.066,0.066,0.066,0.066,0,0.66
2012-04-24,0.066,0.066,0.066,0.066,0,0.66
2012-04-25,0.066,0.066,0.066,0.066,0,0.66
2012-04-26,0.066,0.066,0.066,0.066,0,0.66
2012-04-27,0.057999999999999996,0.057999999999999996,0.057999999999999996,0.057999999999999996,0,0.58
2012-04-30,0.057999999999999996,0.057999999999999996,0.057999999999999996,0.057999999999999996,0,0.58
2012-05-01,0.057999999999999996,0.057999999999999996,0.057999999999999996,0.057999999999999996,0,0.58
2012-05-02,0.057999999999999996,0.057999999999999996,0.057999999999999996,0.057999999999999996,0,0.58
2012-05-03,0.057999999999999996,0.057999999999999996,0.057999999999999996,0.057999999999999996,0,0.58
2012-05-04,0.057999999999999996,0.057999999999999996,0.057999999999999996,0.057999999999999996,0,0.58
2012-05-07,0.057999999999999996,0.057999999999999996,0.057999999999999996,0.057999999999999996,0,0.58
2012-05-08,0.057999999999999996,0.057999999999999996,0.057999999999999996,0.057999999999999996,0,0.58
2012-05-09,0.057999999999999996,0.057999999999999996,0.057999999999999996,0.057999999999999996,0,0.58
2012-05-10,0.053,0.053,0.053,0.053,1600,0.53
2012-05-11,0.053,0.053,0.053,0.053,0,0.53
2012-05-14,0.053,0.053,0.053,0.053,400,0.53
2012-05-15,0.053,0.053,0.053,0.053,0,0.53
2012-05-16,0.053,0.053,0.053,0.053,0,0.53
2012-05-17,0.053,0.053,0.053,0.053,0,0.53
2012-05-18,0.053,0.053,0.053,0.053,0,0.53
2012-05-21,0.053,0.053,0.053,0.053,0,0.53
2012-05-22,0.053,0.053,0.053,0.053,0,0.53
2012-05-23,0.053,0.053,0.053,0.053,0,0.53
2012-05-24,0.053,0.053,0.053,0.053,0,0.53
2012-05-25,0.053,0.053,0.053,0.053,0,0.53
2012-05-28,0.053,0.053,0.053,0.053,0,0.53
2012-05-29,0.053,0.053,0.053,0.053,0,0.53
2012-05-30,0.053,0.053,0.053,0.053,0,0.53
2012-05-31,0.053,0.053,0.053,0.053,0,0.53
2012-06-01,0.053,0.053,0.053,0.053,0,0.53
2012-06-04,0.053,0.053,0.053,0.053,0,0.53
2012-06-05,0.053,0.053,0.053,0.053,0,0.53
2012-06-06,0.053,0.053,0.053,0.053,0,0.53
2012-06-07,0.053,0.053,0.053,0.053,0,0.53
2012-06-08,0.04,0.04,0.04,0.04,800,0.4
2012-06-11,0.04,0.04,0.04,0.04,0,0.4
2012-06-12,0.04,0.04,0.04,0.04,0,0.4
2012-06-13,0.04,0.04,0.04,0.04,0,0.4
2012-06-14,0.04,0.04,0.04,0.04,0,0.4
2012-06-15,0.04,0.04,0.04,0.04,0,0.4
2012-06-18,0.04,0.04,0.04,0.04,0,0.4
2012-06-19,0.04,0.04,0.04,0.04,0,0.4
2012-06-20,0.04,0.04,0.04,0.04,0,0.4
2012-06-21,0.04,0.04,0.04,0.04,0,0.4
2012-06-22,0.04,0.04,0.04,0.04,0,0.4
2012-06-25,0.04,0.04,0.04,0.04,0,0.4
2012-06-26,0.04,0.04,0.04,0.04,0,0.4
2012-06-27,0.04,0.04,0.04,0.04,0,0.4
2012-06-28,0.04,0.04,0.04,0.04,0,0.4
2012-06-29,0.04,0.04,0.04,0.04,0,0.4
2012-07-02,0.037000000000000005,0.037000000000000005,0.037000000000000005,0.037000000000000005,400,0.37
2012-07-03,0.037000000000000005,0.037000000000000005,0.037000000000000005,0.037000000000000005,0,0.37
2012-07-04,0.034,0.034,0.034,0.034,400,0.34
2012-07-05,0.034,0.034,0.034,0.034,0,0.34
2012-07-06,0.034,0.034,0.034,0.034,0,0.34
2012-07-09,0.034,0.034,0.034,0.034,0,0.34
2012-07-10,0.034,0.034,0.034,0.034,0,0.34
2012-07-11,0.034,0.034,0.034,0.034,0,0.34
2012-07-12,0.034,0.034,0.034,0.034,0,0.34
2012-07-13,0.034,0.034,0.034,0.034,0,0.34
2012-07-16,0.034,0.034,0.034,0.034,0,0.34
2012-07-17,0.034,0.034,0.034,0.034,0,0.34
2012-07-18,0.034,0.034,0.034,0.034,0,0.34
2012-07-19,0.034,0.034,0.034,0.034,0,0.34
2012-07-20,0.034,0.034,0.034,0.034,0,0.34
2012-07-23,0.034,0.034,0.034,0.034,0,0.34
2012-07-24,0.034,0.034,0.034,0.034,0,0.34
2012-07-25,0.034,0.034,0.034,0.034,0,0.34
2012-07-26,0.03,0.03,0.03,0.03,23900,0.3
2012-07-27,0.03,0.03,0.03,0.03,0,0.3
2012-07-30,0.03,0.03,0.03,0.03,0,0.3
2012-07-31,0.03,0.03,0.03,0.03,0,0.3
2012-08-01,0.025,0.025,0.02,0.02,50000,0.2
2012-08-02,0.02,0.02,0.02,0.02,0,0.2
2012-08-03,0.02,0.02,0.02,0.02,0,0.2
2012-08-06,0.02,0.02,0.02,0.02,0,0.2
2012-08-07,0.02,0.02,0.02,0.02,20000,0.2
2012-08-08,0.02,0.02,0.02,0.02,0,0.2
2012-08-09,0.02,0.02,0.02,0.02,0,0.2
2012-08-10,0.02,0.02,0.02,0.02,0,0.2
2012-08-13,0.02,0.02,0.02,0.02,0,0.2
2012-08-14,0.02,0.02,0.02,0.02,0,0.2
2012-08-15,0.02,0.02,0.02,0.02,0,0.2
2012-08-16,0.02,0.02,0.02,0.02,0,0.2
2012-08-17,0.02,0.02,0.02,0.02,20000,0.2
2012-08-20,0.02,0.02,0.02,0.02,0,0.2
2012-08-21,0.02,0.02,0.02,0.02,0,0.2
2012-08-22,0.02,0.02,0.02,0.02,0,0.2
2012-08-23,0.02,0.02,0.02,0.02,0,0.2
2012-08-24,0.02,0.02,0.02,0.02,0,0.2
2012-08-27,0.02,0.02,0.02,0.02,0,0.2
2012-08-28,0.02,0.02,0.02,0.02,0,0.2
2012-08-29,0.02,0.02,0.02,0.02,0,0.2
2012-08-30,0.02,0.02,0.02,0.02,0,0.2
2012-08-31,0.02,0.02,0.02,0.02,0,0.2
2012-09-03,0.02,0.02,0.02,0.02,0,0.2
2012-09-04,0.02,0.02,0.02,0.02,0,0.2
2012-09-05,0.02,0.02,0.02,0.02,0,0.2
2012-09-06,0.02,0.02,0.02,0.02,0,0.2
2012-09-07,0.02,0.02,0.02,0.02,0,0.2
2012-09-10,0.02,0.02,0.02,0.02,0,0.2
2012-09-11,0.006,0.006,0.006,0.006,0,0.06
2012-09-12,0.006,0.006,0.006,0.006,0,0.06
2012-09-13,0.006,0.006,0.006,0.006,0,0.06
2012-09-14,0.006,0.006,0.006,0.006,0,0.06
2012-09-17,0.006,0.006,0.006,0.006,0,0.06
2012-09-18,0.006,0.006,0.006,0.006,0,0.06
2012-09-19,0.006,0.006,0.006,0.006,0,0.06
2012-09-20,0.006,0.006,0.006,0.006,0,0.06
2012-09-21,0.006,0.006,0.006,0.006,0,0.06
2012-09-24,0.006,0.006,0.006,0.006,0,0.06
2012-09-25,0.01,0.01,0.006999999999999999,0.006999999999999999,244100,0.07
2012-09-26,0.006999999999999999,0.006999999999999999,0.006999999999999999,0.006999999999999999,0,0.07
2012-09-27,0.006999999999999999,0.006999999999999999,0.006999999999999999,0.006999999999999999,0,0.07
2012-09-28,0.006999999999999999,0.006999999999999999,0.006999999999999999,0.006999999999999999,0,0.07
2012-10-01,0.006999999999999999,0.006999999999999999,0.006999999999999999,0.006999999999999999,0,0.07
2012-10-02,0.006999999999999999,0.006999999999999999,0.006999999999999999,0.006999999999999999,0,0.07
2012-10-03,0.006999999999999999,0.006999999999999999,0.006999999999999999,0.006999999999999999,0,0.07
2012-10-04,0.006999999999999999,0.006999999999999999,0.006999999999999999,0.006999999999999999,0,0.07
2012-10-05,0.006999999999999999,0.006999999999999999,0.006999999999999999,0.006999999999999999,0,0.07
2012-10-08,0.006999999999999999,0.006999999999999999,0.006999999999999999,0.006999999999999999,0,0.07
2012-10-09,0.006999999999999999,0.006999999999999999,0.006999999999999999,0.006999999999999999,0,0.07
2012-10-10,0.006999999999999999,0.006999999999999999,0.006999999999999999,0.006999999999999999,0,0.07
2012-10-11,0.006999999999999999,0.006999999999999999,0.006999999999999999,0.006999999999999999,0,0.07
2012-10-12,0.006999999999999999,0.006999999999999999,0.006999999999999999,0.006999999999999999,0,0.07
2012-10-15,0.006999999999999999,0.006999999999999999,0.006999999999999999,0.006999999999999999,0,0.07
2012-10-16,0.006999999999999999,0.006999999999999999,0.006999999999999999,0.006999999999999999,0,0.07
2012-10-17,0.006999999999999999,0.006999999999999999,0.006999999999999999,0.006999999999999999,0,0.07
2012-10-18,0.006999999999999999,0.006999999999999999,0.006999999999999999,0.006999999999999999,0,0.07
2012-10-19,0.006999999999999999,0.006999999999999999,0.006999999999999999,0.006999999999999999,0,0.07
2012-10-22,0.006999999999999999,0.006999999999999999,0.006999999999999999,0.006999999999999999,0,0.07
2012-10-23,0.009000000000000001,0.009000000000000001,0.009000000000000001,0.009000000000000001,10000,0.09
2012-10-24,0.009000000000000001,0.009000000000000001,0.006999999999999999,0.008,20700,0.08
2012-10-25,0.008,0.008,0.008,0.008,0,0.08
2012-10-26,0.008,0.008,0.008,0.008,0,0.08
2012-10-29,0.008,0.008,0.008,0.008,0,0.08
2012-10-30,0.008,0.008,0.008,0.008,0,0.08
2012-10-31,0.008,0.008,0.008,0.008,0,0.08
2012-11-01,0.008,0.008,0.008,0.008,0,0.08
2012-11-02,0.008,0.008,0.008,0.008,0,0.08
2012-11-05,0.009000000000000001,0.009000000000000001,0.009000000000000001,0.009000000000000001,10000,0.09
2012-11-06,0.009000000000000001,0.009000000000000001,0.009000000000000001,0.009000000000000001,0,0.09
2012-11-07,0.009000000000000001,0.009000000000000001,0.009000000000000001,0.009000000000000001,0,0.09
2012-11-08,0.009000000000000001,0.009000000000000001,0.009000000000000001,0.009000000000000001,0,0.09
2012-11-09,0.009000000000000001,0.009000000000000001,0.009000000000000001,0.009000000000000001,0,0.09
2012-11-12,0.009000000000000001,0.009000000000000001,0.009000000000000001,0.009000000000000001,0,0.09
2012-11-13,0.009000000000000001,0.009000000000000001,0.009000000000000001,0.009000000000000001,0,0.09
2012-11-14,0.009000000000000001,0.009000000000000001,0.009000000000000001,0.009000000000000001,0,0.09
2012-11-15,0.009000000000000001,0.009000000000000001,0.009000000000000001,0.009000000000000001,0,0.09
2012-11-16,0.009000000000000001,0.009000000000000001,0.009000000000000001,0.009000000000000001,0,0.09
2012-11-19,0.009000000000000001,0.009000000000000001,0.009000000000000001,0.009000000000000001,0,0.09
2012-11-20,0.009000000000000001,0.009000000000000001,0.009000000000000001,0.009000000000000001,0,0.09
2012-11-21,0.009000000000000001,0.009000000000000001,0.009000000000000001,0.009000000000000001,0,0.09
2012-11-22,0.009000000000000001,0.009000000000000001,0.009000000000000001,0.009000000000000001,0,0.09
2012-11-23,0.009000000000000001,0.009000000000000001,0.009000000000000001,0.009000000000000001,0,0.09
2012-11-26,0.009000000000000001,0.009000000000000001,0.009000000000000001,0.009000000000000001,0,0.09
2012-11-27,0.009000000000000001,0.009000000000000001,0.009000000000000001,0.009000000000000001,0,0.09
2012-11-28,0.009000000000000001,0.009000000000000001,0.009000000000000001,0.009000000000000001,0,0.09
2012-11-29,0.009000000000000001,0.009000000000000001,0.009000000000000001,0.009000000000000001,0,0.09
2012-11-30,0.009000000000000001,0.009000000000000001,0.009000000000000001,0.009000000000000001,0,0.09
2012-12-03,0.009000000000000001,0.009000000000000001,0.009000000000000001,0.009000000000000001,0,0.09
2012-12-04,0.009000000000000001,0.009000000000000001,0.009000000000000001,0.009000000000000001,0,0.09
2012-12-05,0.009000000000000001,0.009000000000000001,0.009000000000000001,0.009000000000000001,0,0.09
2012-12-06,0.009000000000000001,0.009000000000000001,0.009000000000000001,0.009000000000000001,0,0.09
2012-12-07,0.009000000000000001,0.009000000000000001,0.009000000000000001,0.009000000000000001,0,0.09
2012-12-10,0.009000000000000001,0.009000000000000001,0.009000000000000001,0.009000000000000001,0,0.09
2012-12-11,0.009000000000000001,0.009000000000000001,0.009000000000000001,0.009000000000000001,0,0.09
2012-12-12,0.009000000000000001,0.009000000000000001,0.009000000000000001,0.009000000000000001,0,0.09
2012-12-13,0.009000000000000001,0.009000000000000001,0.009000000000000001,0.009000000000000001,0,0.09
2012-12-14,0.009000000000000001,0.009000000000000001,0.009000000000000001,0.009000000000000001,0,0.09
2012-12-17,0.009000000000000001,0.009000000000000001,0.009000000000000001,0.009000000000000001,0,0.09
2012-12-18,0.009000000000000001,0.009000000000000001,0.009000000000000001,0.009000000000000001,0,0.09
2012-12-19,0.009000000000000001,0.009000000000000001,0.009000000000000001,0.009000000000000001,0,0.09
2012-12-20,0.009000000000000001,0.009000000000000001,0.009000000000000001,0.009000000000000001,0,0.09
2012-12-21,0.009000000000000001,0.009000000000000001,0.009000000000000001,0.009000000000000001,0,0.09
2012-12-24,0.009000000000000001,0.009000000000000001,0.009000000000000001,0.009000000000000001,0,0.09
2012-12-25,0.009000000000000001,0.009000000000000001,0.009000000000000001,0.009000000000000001,0,0.09
2012-12-26,0.009000000000000001,0.009000000000000001,0.009000000000000001,0.009000000000000001,0,0.09
2012-12-27,0.009000000000000001,0.009000000000000001,0.009000000000000001,0.009000000000000001,0,0.09
2012-12-28,0.012,0.012,0.012,0.012,1000,0.12
2012-12-31,0.012,0.012,0.012,0.012,0,0.12
2013-01-01,0.012,0.012,0.012,0.012,0,0.12
2013-01-02,0.012,0.012,0.012,0.012,0,0.12
2013-01-03,0.012,0.012,0.012,0.012,0,0.12
2013-01-04,0.012,0.012,0.012,0.012,0,0.12
2013-01-07,0.012,0.012,0.012,0.012,0,0.12
2013-01-08,0.012,0.012,0.012,0.012,0,0.12
2013-01-09,0.012,0.012,0.012,0.012,0,0.12
2013-01-10,0.012,0.012,0.012,0.012,0,0.12
2013-01-11,0.01,0.01,0.01,0.01,2000,0.1
2013-01-14,0.01,0.01,0.01,0.01,0,0.1
2013-01-15,0.01,0.01,0.01,0.01,0,0.1
2013-01-16,0.01,0.01,0.01,0.01,0,0.1
2013-01-17,0.01,0.01,0.01,0.01,0,0.1
2013-01-18,0.01,0.01,0.01,0.01,0,0.1
2013-01-21,0.01,0.01,0.01,0.01,0,0.1
2013-01-22,0.01,0.01,0.01,0.01,7600,0.1
2013-01-24,0.01,0.01,0.01,0.01,0,0.1
2013-01-25,0.01,0.01,0.01,0.01,0,0.1
2013-01-28,0.01,0.01,0.01,0.01,0,0.1
2013-01-29,0.01,0.01,0.01,0.01,0,0.1
2013-01-30,0.01,0.01,0.01,0.01,0,0.1
2013-01-31,0.01,0.01,0.01,0.01,0,0.1
2013-02-01,0.01,0.01,0.01,0.01,0,0.1
2013-02-04,0.01,0.01,0.01,0.01,0,0.1
2013-02-05,0.01,0.01,0.01,0.01,0,0.1
2013-02-06,0.01,0.01,0.01,0.01,0,0.1
2013-02-07,0.01,0.01,0.01,0.01,0,0.1
2013-02-08,0.01,0.01,0.01,0.01,0,0.1
2013-02-11,0.01,0.01,0.01,0.01,0,0.1
2013-02-12,0.017,0.017,0.017,0.017,3000,0.17
2013-02-13,0.017,0.017,0.017,0.017,0,0.17
2013-02-14,0.017,0.017,0.017,0.017,0,0.17
2013-02-15,0.017,0.017,0.017,0.017,0,0.17
2013-02-18,0.034,0.034,0.034,0.034,1500,0.34
2013-02-19,0.034,0.034,0.034,0.034,0,0.34
2013-02-20,0.034,0.034,0.034,0.034,0,0.34
2013-02-21,0.034,0.034,0.034,0.034,0,0.34
2013-02-22,0.034,0.034,0.034,0.034,1000,0.34
2013-02-25,0.034,0.034,0.034,0.034,0,0.34
2013-02-26,0.034,0.034,0.034,0.034,0,0.34
2013-02-27,0.036000000000000004,0.036000000000000004,0.035,0.035,10600,0.35
2013-02-28,0.035,0.035,0.035,0.035,0,0.35
2013-03-01,0.035,0.035,0.035,0.035,0,0.35
2013-03-04,0.035,0.035,0.035,0.035,0,0.35
2013-03-05,0.035,0.035,0.035,0.035,0,0.35
2013-03-06,0.035,0.035,0.035,0.035,0,0.35
2013-03-07,0.035,0.035,0.035,0.035,0,0.35
2013-03-08,0.035,0.035,0.035,0.035,0,0.35
2013-03-11,0.035,0.035,0.035,0.035,0,0.35
2013-03-12,0.04,0.04,0.04,0.04,1000,0.4
2013-03-13,0.04,0.04,0.04,0.04,0,0.4
2013-03-14,0.04,0.04,0.04,0.04,0,0.4
2013-03-15,0.042,0.042,0.042,0.042,7000,0.42
2013-03-18,0.042,0.042,0.042,0.042,0,0.42
2013-03-19,0.042,0.042,0.042,0.042,0,0.42
2013-03-20,0.042,0.042,0.042,0.042,0,0.42
2013-03-21,0.042,0.042,0.042,0.042,0,0.42
2013-03-22,0.042,0.042,0.042,0.042,0,0.42
2013-03-25,0.042,0.042,0.042,0.042,0,0.42
2013-03-26,0.042,0.042,0.042,0.042,0,0.42
2013-03-27,0.042,0.042,0.042,0.042,0,0.42
2013-03-28,0.042,0.042,0.042,0.042,0,0.42
2013-03-29,0.042,0.042,0.042,0.042,0,0.42
2013-04-01,0.042,0.042,0.042,0.042,0,0.42
2013-04-02,0.042,0.042,0.042,0.042,0,0.42
2013-04-03,0.042,0.042,0.042,0.042,0,0.42
2013-04-04,0.042,0.042,0.042,0.042,0,0.42
2013-04-05,0.042,0.042,0.042,0.042,0,0.42
2013-04-08,0.042,0.042,0.042,0.042,2000,0.42
2013-04-09,0.042,0.042,0.042,0.042,0,0.42
2013-04-10,0.042,0.042,0.042,0.042,7200,0.42
2013-04-11,0.042,0.042,0.042,0.042,0,0.42
2013-04-12,0.042,0.042,0.042,0.042,0,0.42
2013-04-15,0.042,0.042,0.042,0.042,0,0.42
2013-04-16,0.042,0.042,0.042,0.042,0,0.42
2013-04-17,0.042,0.042,0.042,0.042,0,0.42
2013-04-18,0.042,0.042,0.042,0.042,0,0.42
2013-04-19,0.042,0.042,0.042,0.042,1200,0.42
2013-04-22,0.042,0.042,0.042,0.042,0,0.42
2013-04-23,0.042,0.042,0.042,0.042,0,0.42
2013-04-24,0.042,0.042,0.042,0.042,0,0.42
2013-04-25,0.042,0.042,0.042,0.042,0,0.42
2013-04-26,0.042,0.042,0.042,0.042,0,0.42
2013-04-29,0.042,0.042,0.042,0.042,0,0.42
2013-04-30,0.042,0.042,0.042,0.042,0,0.42
2013-05-01,0.042,0.049,0.042,0.049,20000,0.49
2013-05-02,0.049,0.049,0.049,0.049,0,0.49
2013-05-03,0.049,0.049,0.049,0.049,0,0.49
2013-05-06,0.049,0.049,0.049,0.049,0,0.49
2013-05-07,0.05,0.05,0.05,0.05,7600,0.5
2013-05-08,0.05,0.05,0.05,0.05,0,0.5
2013-05-09,0.05,0.05,0.05,0.05,0,0.5
2013-05-10,0.05,0.05,0.05,0.05,0,0.5
2013-05-13,0.05,0.05,0.05,0.05,0,0.5
2013-05-14,0.05,0.05,0.05,0.05,0,0.5
2013-05-15,0.05,0.05,0.05,0.05,0,0.5
2013-05-16,0.05,0.05,0.05,0.05,0,0.5
2013-05-17,0.05,0.05,0.05,0.05,0,0.5
2013-05-20,0.05,0.05,0.05,0.05,0,0.5
2013-05-21,0.05,0.05,0.05,0.05,0,0.5
2013-05-22,0.05,0.05,0.05,0.05,0,0.5
2013-05-23,0.05,0.05,0.05,0.05,0,0.5
2013-05-24,0.05,0.05,0.05,0.05,0,0.5
2013-05-27,0.05,0.05,0.05,0.05,0,0.5
2013-05-28,0.05,0.05,0.05,0.05,0,0.5
2013-05-29,0.05,0.05,0.05,0.05,0,0.5
2013-05-30,0.05,0.05,0.05,0.05,0,0.5
2013-05-31,0.057,0.057,0.055,0.055,31200,0.55
2013-06-03,0.055,0.055,0.055,0.055,0,0.55
2013-06-04,0.055,0.055,0.055,0.055,13800,0.55
2013-06-05,0.055,0.055,0.055,0.055,0,0.55
2013-06-06,0.055,0.055,0.055,0.055,0,0.55
2013-06-07,0.055,0.055,0.055,0.055,0,0.55
2013-06-10,0.055,0.055,0.055,0.055,0,0.55
2013-06-11,0.055,0.055,0.055,0.055,0,0.55
2013-06-12,0.055,0.055,0.055,0.055,0,0.55
2013-06-13,0.055,0.055,0.055,0.055,0,0.55
2013-06-14,0.055,0.055,0.055,0.055,0,0.55
2013-06-17,0.055,0.055,0.055,0.055,0,0.55
2013-06-18,0.055,0.055,0.055,0.055,0,0.55
2013-06-19,0.055,0.055,0.055,0.055,0,0.55
2013-06-20,0.055,0.055,0.055,0.055,0,0.55
2013-06-21,0.055,0.055,0.055,0.055,0,0.55
2013-06-24,0.055,0.055,0.055,0.055,0,0.55
2013-06-25,0.055,0.055,0.055,0.055,0,0.55
2013-06-26,0.055,0.055,0.055,0.055,0,0.55
2013-06-27,0.055,0.055,0.055,0.055,0,0.55
2013-06-28,0.055,0.055,0.055,0.055,0,0.55
2013-07-01,0.055,0.055,0.055,0.055,0,0.55
2013-07-02,0.055,0.055,0.055,0.055,0,0.55
2013-07-03,0.055,0.055,0.055,0.055,0,0.55
2013-07-04,0.055,0.055,0.055,0.055,0,0.55
2013-07-05,0.055,0.055,0.055,0.055,0,0.55
2013-07-08,0.055,0.055,0.055,0.055,0,0.55
2013-07-09,0.055,0.055,0.055,0.055,0,0.55
2013-07-10,0.055,0.055,0.055,0.055,0,0.55
2013-07-11,0.055,0.055,0.055,0.055,18100,0.55
2013-07-12,0.055,0.055,0.055,0.055,0,0.55
2013-07-15,0.055,0.055,0.055,0.055,0,0.55
2013-07-16,0.055,0.055,0.055,0.055,0,0.55
2013-07-17,0.055,0.055,0.055,0.055,0,0.55
2013-07-18,0.055,0.055,0.055,0.055,0,0.55
2013-07-19,0.055,0.055,0.055,0.055,0,0.55
2013-07-22,0.055,0.055,0.055,0.055,0,0.55
2013-07-23,0.055,0.055,0.055,0.055,0,0.55
2013-07-24,0.055,0.055,0.055,0.055,0,0.55
2013-07-25,0.055,0.055,0.055,0.055,0,0.55
2013-07-26,0.055,0.055,0.055,0.055,0,0.55
2013-07-29,0.055,0.055,0.055,0.055,4000,0.55
2013-07-30,0.055,0.055,0.055,0.055,0,0.55
2013-07-31,0.055,0.055,0.055,0.055,0,0.55
2013-08-01,0.07,0.07,0.07,0.07,1300,0.7
2013-08-02,0.07,0.07,0.07,0.07,0,0.7
2013-08-05,0.07,0.07,0.07,0.07,0,0.7
2013-08-06,0.07,0.07,0.07,0.07,0,0.7
2013-08-07,0.07,0.07,0.07,0.07,0,0.7
2013-08-08,0.068,0.068,0.068,0.068,5000,0.68
2013-08-09,0.068,0.068,0.068,0.068,0,0.68
2013-08-12,0.068,0.068,0.068,0.068,0,0.68
2013-08-13,0.068,0.068,0.068,0.068,0,0.68
2013-08-14,0.068,0.068,0.068,0.068,2900,0.68
2013-08-15,0.068,0.068,0.068,0.068,0,0.68
2013-08-16,0.068,0.068,0.068,0.068,0,0.68
2013-08-19,0.068,0.068,0.068,0.068,0,0.68
2013-08-20,0.068,0.068,0.068,0.068,0,0.68
2013-08-21,0.068,0.068,0.068,0.068,0,0.68
2013-08-22,0.068,0.068,0.068,0.068,0,0.68
2013-08-23,0.068,0.068,0.068,0.068,0,0.68
2013-08-26,0.068,0.068,0.068,0.068,0,0.68
2013-08-27,0.068,0.068,0.068,0.068,0,0.68
2013-08-28,0.068,0.068,0.068,0.068,0,0.68
2013-08-29,0.068,0.068,0.068,0.068,0,0.68
2013-08-30,0.068,0.068,0.068,0.068,6300,0.68
2013-09-02,0.068,0.068,0.068,0.068,0,0.68
2013-09-03,0.068,0.068,0.068,0.068,0,0.68
2013-09-04,0.068,0.068,0.068,0.068,0,0.68
2013-09-05,0.068,0.068,0.068,0.068,0,0.68
2013-09-06,0.068,0.068,0.068,0.068,0,0.68
2013-09-09,0.068,0.068,0.068,0.068,0,0.68
2013-09-10,0.068,0.068,0.068,0.068,0,0.68
2013-09-11,0.068,0.068,0.068,0.068,0,0.68
2013-09-12,0.068,0.068,0.068,0.068,0,0.68
2013-09-13,0.068,0.068,0.068,0.068,0,0.68
2013-09-16,0.07,0.07,0.068,0.068,2500,0.68
2013-09-17,0.068,0.068,0.068,0.068,0,0.68
2013-09-18,0.068,0.068,0.068,0.068,0,0.68
2013-09-19,0.068,0.068,0.068,0.068,0,0.68
2013-09-20,0.068,0.068,0.068,0.068,0,0.68
2013-09-23,0.069,0.069,0.069,0.069,1000,0.69
2013-09-24,0.069,0.069,0.069,0.069,0,0.69
2013-09-25,0.069,0.069,0.069,0.069,0,0.69
2013-09-26,0.069,0.069,0.069,0.069,0,0.69
2013-09-27,0.069,0.069,0.069,0.069,0,0.69
2013-09-30,0.069,0.069,0.069,0.069,0,0.69
2013-10-01,0.069,0.069,0.069,0.069,0,0.69
2013-10-02,0.069,0.069,0.069,0.069,0,0.69
2013-10-03,0.069,0.069,0.069,0.069,0,0.69
2013-10-04,0.069,0.069,0.069,0.069,0,0.69
2013-10-07,0.069,0.069,0.069,0.069,0,0.69
2013-10-08,0.069,0.069,0.069,0.069,0,0.69
2013-10-09,0.069,0.069,0.069,0.069,0,0.69
2013-10-10,0.069,0.069,0.069,0.069,0,0.69
2013-10-11,0.069,0.069,0.069,0.069,0,0.69
2013-10-14,0.069,0.069,0.069,0.069,0,0.69
2013-10-15,0.069,0.069,0.069,0.069,0,0.69
2013-10-16,0.069,0.069,0.069,0.069,0,0.69
2013-10-17,0.069,0.069,0.069,0.069,0,0.69
2013-10-18,0.069,0.069,0.069,0.069,0,0.69
2013-10-21,0.069,0.069,0.069,0.069,0,0.69
2013-10-22,0.069,0.069,0.069,0.069,0,0.69
2013-10-23,0.069,0.069,0.069,0.069,0,0.69
2013-10-24,0.069,0.069,0.069,0.069,0,0.69
2013-10-25,0.069,0.069,0.069,0.069,0,0.69
2013-10-28,0.069,0.069,0.069,0.069,0,0.69
2013-10-29,0.069,0.069,0.069,0.069,0,0.69
2013-10-30,0.069,0.069,0.069,0.069,0,0.69
2013-10-31,0.069,0.069,0.069,0.069,0,0.69
2013-11-01,0.069,0.069,0.069,0.069,0,0.69
2013-11-04,0.069,0.069,0.069,0.069,0,0.69
2013-11-05,0.069,0.069,0.069,0.069,0,0.69
2013-11-06,0.078,0.08,0.078,0.08,9000,0.8
2013-11-07,0.085,0.12,0.085,0.099,25800,0.99
2013-11-08,0.125,0.13,0.1,0.1,17200,1.0
2013-11-11,0.105,0.12,0.105,0.12,19100,1.2
2013-11-12,0.125,0.125,0.12,0.125,1800,1.25
2013-11-13,0.125,0.125,0.125,0.125,0,1.25
2013-11-14,0.12,0.13,0.12,0.13,7400,1.3
2013-11-15,0.125,0.125,0.125,0.125,1300,1.25
2013-11-18,0.11,0.11,0.11,0.11,1000,1.1
2013-11-19,0.11,0.11,0.1,0.1,2500,1.0
2013-11-20,0.105,0.105,0.105,0.105,1800,1.05
2013-11-21,0.11,0.11,0.11,0.11,1300,1.1
2013-11-22,0.11,0.11,0.11,0.11,0,1.1
2013-11-25,0.11,0.11,0.11,0.11,0,1.1
2013-11-26,0.12,0.12,0.115,0.115,1500,1.15
2013-11-27,0.115,0.115,0.115,0.115,0,1.15
2013-11-28,0.115,0.115,0.115,0.115,0,1.15
2013-11-29,0.115,0.115,0.115,0.115,0,1.15
2013-12-02,0.115,0.115,0.115,0.115,0,1.15
2013-12-03,0.115,0.115,0.115,0.115,0,1.15
2013-12-04,0.11,0.11,0.11,0.11,3900,1.1
2013-12-05,0.11,0.11,0.11,0.11,6000,1.1
2013-12-06,0.105,0.105,0.105,0.105,10300,1.05
2013-12-09,0.105,0.105,0.1,0.1,6000,1.0
2013-12-10,0.095,0.095,0.095,0.095,1500,0.95
2013-12-11,0.095,0.095,0.095,0.095,0,0.95
2013-12-12,0.095,0.095,0.095,0.095,0,0.95
2013-12-13,0.095,0.095,0.095,0.095,0,0.95
2013-12-16,0.095,0.095,0.09,0.09,27400,0.9
2013-12-17,0.081,0.081,0.081,0.081,400,0.81
2013-12-18,0.081,0.081,0.081,0.081,0,0.81
2013-12-19,0.081,0.081,0.081,0.081,0,0.81
2013-12-20,0.081,0.081,0.081,0.081,0,0.81
2013-12-23,0.081,0.081,0.081,0.081,0,0.81
2013-12-24,0.081,0.081,0.081,0.081,0,0.81
2013-12-25,0.081,0.081,0.081,0.081,0,0.81
2013-12-26,0.081,0.081,0.081,0.081,0,0.81
2013-12-27,0.085,0.095,0.085,0.095,5600,0.95
2013-12-30,0.095,0.095,0.095,0.095,0,0.95
2013-12-31,0.095,0.095,0.095,0.095,0,0.95
2014-01-01,0.095,0.095,0.095,0.095,0,0.95
2014-01-02,0.095,0.095,0.095,0.095,0,0.95
2014-01-03,0.095,0.095,0.095,0.095,500,0.95
2014-01-06,0.095,0.095,0.095,0.095,0,0.95
2014-01-07,0.095,0.095,0.095,0.095,0,0.95
2014-01-08,0.095,0.095,0.095,0.095,0,0.95
2014-01-09,0.095,0.095,0.095,0.095,0,0.95
2014-01-10,0.095,0.095,0.095,0.095,0,0.95
2014-01-13,0.095,0.095,0.095,0.095,0,0.95
2014-01-14,0.095,0.095,0.095,0.095,200,0.95
2014-01-15,0.095,0.095,0.095,0.095,0,0.95
2014-01-16,0.095,0.095,0.095,0.095,0,0.95
2014-01-17,0.095,0.095,0.095,0.095,0,0.95
2014-01-20,0.095,0.095,0.095,0.095,0,0.95
2014-01-21,0.095,0.095,0.095,0.095,0,0.95
2014-01-22,0.095,0.095,0.095,0.095,0,0.95
2014-01-23,0.07,0.07,0.07,0.07,200,0.7
2014-01-24,0.07,0.07,0.07,0.07,0,0.7
2014-01-27,0.07,0.07,0.07,0.07,0,0.7
2014-01-28,0.07,0.07,0.07,0.07,0,0.7
2014-01-29,0.07,0.07,0.07,0.07,0,0.7
2014-01-30,0.07,0.07,0.07,0.07,0,0.7
2014-01-31,0.07,0.07,0.07,0.07,0,0.7
2014-02-03,0.07,0.07,0.07,0.07,0,0.7
2014-02-04,0.07,0.07,0.07,0.07,0,0.7
2014-02-05,0.07,0.07,0.07,0.07,0,0.7
2014-02-06,0.07,0.07,0.07,0.07,0,0.7
2014-02-07,0.07,0.07,0.07,0.07,0,0.7
2014-02-10,0.07,0.07,0.07,0.07,0,0.7
2014-02-11,0.07,0.07,0.07,0.07,0,0.7
2014-02-12,0.07,0.07,0.07,0.07,0,0.7
2014-02-13,0.07,0.07,0.07,0.07,0,0.7
2014-02-14,0.07,0.07,0.07,0.07,0,0.7
2014-02-17,0.07,0.07,0.07,0.07,0,0.7
2014-02-18,0.07,0.07,0.07,0.07,0,0.7
2014-02-19,0.07,0.07,0.07,0.07,0,0.7
2014-02-20,0.07,0.07,0.07,0.07,0,0.7
2014-02-21,0.07,0.07,0.07,0.07,0,0.7
2014-02-24,0.075,0.075,0.073,0.073,15300,0.73
2014-02-25,0.073,0.073,0.073,0.073,0,0.73
2014-02-26,0.073,0.073,0.073,0.073,0,0.73
2014-02-27,0.07200000000000001,0.073,0.07200000000000001,0.073,3600,0.73
2014-02-28,0.073,0.073,0.073,0.073,0,0.73
2014-03-03,0.073,0.073,0.073,0.073,0,0.73
2014-03-04,0.07,0.07200000000000001,0.07,0.07200000000000001,15500,0.72
2014-03-05,0.07200000000000001,0.07200000000000001,0.07200000000000001,0.07200000000000001,0,0.72
2014-03-06,0.07200000000000001,0.07200000000000001,0.07200000000000001,0.07200000000000001,0,0.72
2014-03-07,0.085,0.09,0.085,0.09,11900,0.9
2014-03-10,0.09,0.09,0.09,0.09,0,0.9
2014-03-11,0.09,0.1,0.09,0.1,5000,1.0
2014-03-12,0.1,0.1,0.1,0.1,2000,1.0
2014-03-13,0.1,0.1,0.1,0.1,1800,1.0
2014-03-14,0.1,0.1,0.1,0.1,0,1.0
2014-03-17,0.1,0.1,0.1,0.1,0,1.0
2014-03-18,0.1,0.1,0.1,0.1,0,1.0
2014-03-19,0.1,0.1,0.1,0.1,0,1.0
2014-03-20,0.1,0.1,0.1,0.1,0,1.0
2014-03-21,0.1,0.1,0.1,0.1,0,1.0
2014-03-24,0.1,0.14,0.1,0.14,69700,1.4
2014-03-25,0.14,0.14,0.14,0.14,0,1.4
2014-03-26,0.14,0.14,0.135,0.135,5500,1.35
2014-03-27,0.135,0.135,0.135,0.135,0,1.35
2014-03-28,0.135,0.135,0.135,0.135,0,1.35
2014-03-31,0.115,0.125,0.115,0.125,7400,1.25
2014-04-01,0.125,0.125,0.125,0.125,1900,1.25
2014-04-02,0.125,0.125,0.125,0.125,3200,1.25
2014-04-03,0.135,0.135,0.135,0.135,4000,1.35
2014-04-04,0.125,0.125,0.125,0.125,2900,1.25
2014-04-07,0.125,0.125,0.125,0.125,400,1.25
2014-04-08,0.125,0.125,0.125,0.125,2000,1.25
2014-04-09,0.13,0.135,0.13,0.135,8100,1.35
2014-04-10,0.135,0.135,0.135,0.135,0,1.35
2014-04-11,0.135,0.135,0.135,0.135,0,1.35
2014-04-14,0.135,0.135,0.135,0.135,0,1.35
2014-04-15,0.135,0.135,0.135,0.135,0,1.35
2014-04-16,0.14,0.14,0.135,0.135,5100,1.35
2014-04-17,0.14,0.14,0.13,0.13,5000,1.3
2014-04-18,0.13,0.13,0.13,0.13,0,1.3
2014-04-21,0.13,0.13,0.13,0.13,0,1.3
2014-04-22,0.14,0.14,0.13,0.13,12300,1.3
2014-04-23,0.145,0.145,0.145,0.145,3100,1.45
2014-04-24,0.15,0.15,0.145,0.145,7700,1.45
2014-04-25,0.145,0.145,0.145,0.145,0,1.45
2014-04-28,0.15,0.16,0.15,0.16,36200,1.6
2014-04-29,0.155,0.16,0.14,0.16,15400,1.6
2014-04-30,0.165,0.165,0.14,0.14,36200,1.4
2014-05-01,0.12,0.12,0.115,0.12,4100,1.2
2014-05-02,0.12,0.12,0.12,0.12,0,1.2
2014-05-05,0.1,0.11,0.1,0.11,2000,1.1
2014-05-06,0.11,0.11,0.11,0.11,0,1.1
2014-05-07,0.11,0.11,0.11,0.11,0,1.1
2014-05-08,0.11,0.11,0.11,0.11,0,1.1
2014-05-09,0.11,0.11,0.11,0.11,0,1.1
2014-05-12,0.105,0.11,0.105,0.11,2100,1.1
2014-05-13,0.11,0.11,0.11,0.11,0,1.1
2014-05-14,0.105,0.11,0.105,0.11,3600,1.1
2014-05-15,0.11,0.11,0.11,0.11,0,1.1
2014-05-16,0.11,0.11,0.11,0.11,0,1.1
2014-05-19,0.11,0.11,0.11,0.11,0,1.1
2014-05-20,0.11,0.11,0.11,0.11,0,1.1
2014-05-21,0.605,0.605,0.605,0.605,600,0.605
2014-05-22,0.605,0.605,0.605,0.605,0,0.605
2014-05-23,0.605,0.605,0.605,0.605,0,0.605
2014-05-26,0.59,0.59,0.59,0.59,400,0.59
2014-05-27,0.59,0.59,0.59,0.59,0,0.59
2014-05-28,0.59,0.59,0.59,0.59,0,0.59
2014-05-29,0.59,0.59,0.59,0.59,0,0.59
2014-05-30,0.59,0.59,0.59,0.59,0,0.59
2014-06-02,0.59,0.59,0.59,0.59,0,0.59
2014-06-03,0.59,0.59,0.59,0.59,0,0.59
2014-06-04,0.59,0.59,0.59,0.59,0,0.59
2014-06-05,0.59,0.59,0.59,0.59,0,0.59
2014-06-06,0.59,0.59,0.59,0.59,0,0.59
2014-06-09,0.59,0.59,0.59,0.59,0,0.59
2014-06-10,0.59,0.59,0.59,0.59,0,0.59
2014-06-11,0.59,0.59,0.59,0.59,0,0.59
2014-06-12,0.59,0.59,0.59,0.59,0,0.59
2014-06-13,0.59,0.59,0.59,0.59,0,0.59
2014-06-16,0.59,0.59,0.59,0.59,0,0.59
2014-06-17,0.59,0.59,0.59,0.59,0,0.59
2014-06-18,0.8,0.8,0.8,0.8,5000,0.8
2014-06-19,0.78,0.78,0.78,0.78,600,0.78
2014-06-20,0.76,0.77,0.76,0.77,1300,0.77
2014-06-23,0.77,0.77,0.77,0.77,0,0.77
2014-06-24,0.77,0.77,0.77,0.77,0,0.77
2014-06-25,0.78,0.78,0.75,0.75,16000,0.75
2014-06-26,0.75,0.75,0.75,0.75,0,0.75
2014-06-27,0.75,0.75,0.75,0.75,5000,0.75
2014-06-30,0.75,0.75,0.75,0.75,0,0.75
2014-07-01,0.75,0.75,0.7,0.7,1100,0.7
2014-07-02,0.7,0.7,0.7,0.7,0,0.7
2014-07-03,0.7,0.7,0.7,0.7,0,0.7
2014-07-04,0.7,0.7,0.7,0.7,0,0.7
2014-07-07,0.7,0.7,0.7,0.7,0,0.7
2014-07-08,0.7,0.7,0.7,0.7,0,0.7
2014-07-09,0.7,0.7,0.7,0.7,0,0.7
2014-07-10,0.7,0.7,0.7,0.7,0,0.7
2014-07-11,0.7,0.7,0.7,0.7,0,0.7
2014-07-14,0.7,0.7,0.7,0.7,0,0.7
2014-07-15,0.7,0.7,0.7,0.7,0,0.7
2014-07-16,0.7,0.7,0.7,0.7,0,0.7
2014-07-17,0.7,0.7,0.7,0.7,0,0.7
2014-07-18,0.7,0.7,0.7,0.7,0,0.7
2014-07-21,0.7,0.7,0.7,0.7,0,0.7
2014-07-22,0.7,0.7,0.7,0.7,0,0.7
2014-07-23,0.7,0.7,0.7,0.7,0,0.7
2014-07-24,0.7,0.7,0.7,0.7,0,0.7
2014-07-25,0.7,0.7,0.7,0.7,0,0.7
2014-07-28,0.7,0.7,0.7,0.7,0,0.7
2014-07-29,0.7,0.7,0.7,0.7,0,0.7
2014-07-30,0.7,0.7,0.7,0.7,0,0.7
2014-07-31,0.75,0.75,0.75,0.75,500,0.75
2014-08-01,0.75,0.75,0.75,0.75,0,0.75
2014-08-04,0.75,0.75,0.75,0.75,0,0.75
2014-08-05,0.75,0.75,0.62,0.62,17000,0.62
2014-08-06,0.62,0.62,0.62,0.62,0,0.62
2014-08-07,0.62,0.62,0.62,0.62,0,0.62
2014-08-08,0.62,0.62,0.62,0.62,0,0.62
2014-08-11,0.62,0.62,0.62,0.62,0,0.62
2014-08-12,0.62,0.62,0.62,0.62,0,0.62
2014-08-13,0.62,0.62,0.62,0.62,0,0.62
2014-08-14,0.62,0.62,0.62,0.62,0,0.62
2014-08-15,0.62,0.62,0.62,0.62,0,0.62
2014-08-18,0.62,0.62,0.62,0.62,0,0.62
2014-08-19,0.62,0.62,0.62,0.62,0,0.62
2014-08-20,0.62,0.62,0.62,0.62,0,0.62
2014-08-21,0.62,0.62,0.62,0.62,0,0.62
2014-08-22,0.62,0.62,0.62,0.62,0,0.62
2014-08-25,0.62,0.62,0.62,0.62,0,0.62
2014-08-26,0.62,0.62,0.62,0.62,0,0.62
2014-08-27,0.76,0.76,0.76,0.76,2000,0.76
2014-08-28,0.76,0.76,0.76,0.76,0,0.76
2014-08-29,0.78,0.78,0.78,0.78,1000,0.78
2014-09-01,0.78,0.78,0.7,0.7,43300,0.7
2014-09-02,0.7,0.7,0.7,0.7,0,0.7
2014-09-03,0.7,0.7,0.7,0.7,0,0.7
2014-09-04,0.7,0.7,0.7,0.7,18000,0.7
2014-09-05,0.7,0.7,0.7,0.7,0,0.7
2014-09-08,0.7,0.7,0.7,0.7,0,0.7
2014-09-09,0.7,0.7,0.675,0.675,28100,0.675
2014-09-10,0.675,0.675,0.675,0.675,0,0.675
2014-09-11,0.675,0.675,0.675,0.675,0,0.675
2014-09-12,0.67,0.67,0.67,0.67,1000,0.67
2014-09-15,0.67,0.67,0.67,0.67,0,0.67
2014-09-16,0.67,0.67,0.67,0.67,0,0.67
2014-09-17,0.67,0.67,0.67,0.67,0,0.67
2014-09-18,0.67,0.67,0.67,0.67,0,0.67
2014-09-19,0.67,0.67,0.67,0.67,0,0.67
2014-09-22,0.67,0.67,0.67,0.67,0,0.67
2014-09-23,0.67,0.67,0.67,0.67,0,0.67
2014-09-24,0.67,0.67,0.67,0.67,0,0.67
2014-09-25,0.65,0.65,0.65,0.65,7000,0.65
2014-09-26,0.65,0.65,0.65,0.65,0,0.65
2014-09-29,0.65,0.65,0.65,0.65,0,0.65
2014-09-30,0.65,0.65,0.65,0.65,0,0.65
2014-10-01,0.625,0.625,0.625,0.625,6000,0.625
2014-10-02,0.57,0.57,0.56,0.56,20000,0.56
2014-10-03,0.56,0.56,0.56,0.56,0,0.56
2014-10-06,0.545,0.545,0.545,0.545,500,0.545
2014-10-07,0.545,0.545,0.545,0.545,0,0.545
2014-10-08,0.545,0.545,0.545,0.545,0,0.545
2014-10-09,0.545,0.545,0.545,0.545,0,0.545
2014-10-10,0.545,0.545,0.545,0.545,0,0.545
2014-10-13,0.545,0.545,0.545,0.545,0,0.545
2014-10-14,0.545,0.545,0.545,0.545,0,0.545
2014-10-15,0.545,0.545,0.545,0.545,0,0.545
2014-10-16,0.545,0.545,0.545,0.545,0,0.545
2014-10-17,0.545,0.545,0.545,0.545,0,0.545
2014-10-20,0.55,0.55,0.55,0.55,300,0.55
2014-10-21,0.55,0.55,0.55,0.55,0,0.55
2014-10-22,0.55,0.55,0.55,0.55,0,0.55
2014-10-23,0.55,0.55,0.55,0.55,0,0.55
2014-10-24,0.55,0.55,0.55,0.55,800,0.55
2014-10-27,0.55,0.55,0.55,0.55,0,0.55
2014-10-28,0.55,0.55,0.55,0.55,0,0.55
2014-10-29,0.55,0.55,0.55,0.55,0,0.55
2014-10-30,0.55,0.55,0.55,0.55,0,0.55
2014-10-31,0.55,0.55,0.55,0.55,0,0.55
2014-11-03,0.55,0.55,0.55,0.55,0,0.55
2014-11-04,0.55,0.55,0.55,0.55,0,0.55
2014-11-05,0.55,0.55,0.55,0.55,0,0.55
2014-11-06,0.55,0.55,0.55,0.55,0,0.55
2014-11-07,0.56,0.56,0.56,0.56,2500,0.56
2014-11-10,0.56,0.56,0.56,0.56,0,0.56
2014-11-11,0.56,0.56,0.56,0.56,0,0.56
2014-11-12,0.56,0.56,0.56,0.56,0,0.56
2014-11-13,0.56,0.56,0.56,0.56,0,0.56
2014-11-14,0.56,0.56,0.56,0.56,0,0.56
2014-11-17,0.56,0.56,0.56,0.56,0,0.56
2014-11-18,0.56,0.56,0.56,0.56,0,0.56
2014-11-19,0.57,0.57,0.57,0.57,5100,0.57
2014-11-20,0.57,0.57,0.57,0.57,0,0.57
2014-11-21,0.57,0.57,0.57,0.57,0,0.57
2014-11-24,0.57,0.57,0.57,0.57,0,0.57
2014-11-25,0.57,0.57,0.57,0.57,0,0.57
2014-11-26,0.57,0.57,0.57,0.57,0,0.57
2014-11-27,0.57,0.57,0.57,0.57,0,0.57
2014-11-28,0.57,0.57,0.57,0.57,0,0.57
2014-12-01,0.57,0.57,0.57,0.57,0,0.57
2014-12-02,0.57,0.57,0.57,0.57,0,0.57
2014-12-03,0.57,0.57,0.57,0.57,0,0.57
2014-12-04,0.6,0.6,0.6,0.6,4500,0.6
2014-12-05,0.6,0.6,0.6,0.6,1300,0.6
2014-12-08,0.6,0.6,0.6,0.6,0,0.6
2014-12-09,0.6,0.6,0.6,0.6,0,0.6
2014-12-10,0.6,0.6,0.6,0.6,0,0.6
2014-12-11,0.62,0.62,0.615,0.615,53000,0.615
2014-12-12,0.615,0.615,0.615,0.615,0,0.615
2014-12-15,0.615,0.615,0.615,0.615,0,0.615
2014-12-16,0.615,0.615,0.615,0.615,0,0.615
2014-12-17,0.615,0.615,0.615,0.615,0,0.615
2014-12-18,0.615,0.615,0.615,0.615,0,0.615
2014-12-19,0.615,0.615,0.615,0.615,0,0.615
2014-12-22,0.615,0.615,0.615,0.615,0,0.615
2014-12-23,0.615,0.615,0.615,0.615,0,0.615
2014-12-24,0.615,0.615,0.615,0.615,0,0.615
2014-12-25,0.615,0.615,0.615,0.615,0,0.615
2014-12-26,0.615,0.615,0.615,0.615,0,0.615
2014-12-29,0.615,0.615,0.615,0.615,0,0.615
2014-12-30,0.615,0.615,0.615,0.615,0,0.615
2014-12-31,0.615,0.615,0.615,0.615,0,0.615
2015-01-01,0.615,0.615,0.615,0.615,0,0.615
2015-01-02,0.615,0.615,0.615,0.615,0,0.615
2015-01-05,0.615,0.615,0.615,0.615,0,0.615
2015-01-06,0.615,0.615,0.615,0.615,0,0.615
2015-01-07,0.615,0.615,0.615,0.615,1000,0.615
2015-01-08,0.615,0.615,0.615,0.615,0,0.615
2015-01-09,0.615,0.615,0.615,0.615,0,0.615
2015-01-12,0.615,0.615,0.615,0.615,0,0.615
2015-01-13,0.615,0.615,0.615,0.615,0,0.615
2015-01-14,0.7,0.7,0.7,0.7,14000,0.7
2015-01-15,0.71,0.71,0.71,0.71,9000,0.71
2015-01-16,0.72,0.735,0.72,0.735,22300,0.735
2015-01-19,0.745,0.745,0.745,0.745,46300,0.745
2015-01-20,0.745,0.745,0.745,0.745,0,0.745
2015-01-21,0.745,0.745,0.745,0.745,0,0.745
2015-01-22,0.745,0.745,0.745,0.745,0,0.745
2015-01-23,0.745,0.745,0.745,0.745,0,0.745
2015-01-26,0.745,0.745,0.745,0.745,0,0.745
2015-01-27,0.745,0.745,0.745,0.745,0,0.745
2015-01-28,0.745,0.745,0.745,0.745,0,0.745
2015-01-29,0.745,0.745,0.745,0.745,0,0.745
2015-01-30,0.745,0.745,0.745,0.745,0,0.745
2015-02-02,0.745,0.745,0.745,0.745,0,0.745
2015-02-03,0.745,0.745,0.745,0.745,0,0.745
2015-02-04,0.745,0.745,0.745,0.745,0,0.745
2015-02-05,0.745,0.745,0.745,0.745,0,0.745
2015-02-06,0.75,0.75,0.75,0.75,300,0.75
2015-02-09,0.75,0.75,0.75,0.75,0,0.75
2015-02-10,0.75,0.75,0.75,0.75,0,0.75
2015-02-11,0.75,0.75,0.75,0.75,0,0.75
2015-02-12,0.75,0.75,0.75,0.75,0,0.75
2015-02-13,0.75,0.75,0.75,0.75,10500,0.75
2015-02-16,0.75,0.75,0.75,0.75,0,0.75
2015-02-17,0.75,0.75,0.75,0.75,0,0.75
2015-02-18,0.75,0.75,0.75,0.75,0,0.75
2015-02-19,0.75,0.75,0.75,0.75,0,0.75
2015-02-20,0.75,0.75,0.75,0.75,0,0.75
2015-02-23,0.75,0.75,0.75,0.75,0,0.75
2015-02-24,0.75,0.75,0.75,0.75,0,0.75
2015-02-25,0.75,0.75,0.75,0.75,0,0.75
2015-02-26,0.75,0.75,0.75,0.75,0,0.75
2015-02-27,0.75,0.75,0.75,0.75,0,0.75
2015-03-02,0.75,0.75,0.75,0.75,0,0.75
2015-03-03,0.75,0.75,0.75,0.75,17500,0.75
2015-03-04,0.75,0.75,0.75,0.75,43500,0.75
2015-03-05,0.75,0.75,0.75,0.75,0,0.75
2015-03-06,0.75,0.75,0.75,0.75,30000,0.75
2015-03-09,0.75,0.75,0.75,0.75,0,0.75
2015-03-10,0.75,0.75,0.75,0.75,0,0.75
2015-03-11,0.75,0.75,0.75,0.75,0,0.75
2015-03-12,0.76,0.76,0.76,0.76,4000,0.76
2015-03-13,0.81,0.81,0.81,0.81,2000,0.81
2015-03-16,0.81,0.81,0.81,0.81,0,0.81
2015-03-17,0.81,0.81,0.81,0.81,0,0.81
2015-03-18,0.75,0.75,0.75,0.75,1000,0.75
2015-03-19,0.75,0.75,0.75,0.75,0,0.75
2015-03-20,0.75,0.75,0.75,0.75,0,0.75
2015-03-23,0.8,0.81,0.8,0.81,16500,0.81
2015-03-24,0.8,0.8,0.8,0.8,4700,0.8
2015-03-25,0.84,0.84,0.84,0.84,1000,0.84
2015-03-26,0.84,0.84,0.84,0.84,0,0.84
2015-03-27,0.845,0.845,0.845,0.845,3000,0.845
2015-03-30,0.845,0.845,0.845,0.845,0,0.845
2015-03-31,0.845,0.845,0.845,0.845,0,0.845
2015-04-01,0.845,0.845,0.845,0.845,0,0.845
2015-04-02,0.845,0.845,0.845,0.845,0,0.845
2015-04-03,0.845,0.845,0.845,0.845,0,0.845
2015-04-06,0.845,0.845,0.845,0.845,0,0.845
2015-04-07,0.845,0.845,0.845,0.845,0,0.845
2015-04-08,0.845,0.845,0.845,0.845,0,0.845
2015-04-09,0.845,0.845,0.845,0.845,0,0.845
2015-04-10,0.845,0.845,0.845,0.845,0,0.845
2015-04-13,0.845,0.845,0.845,0.845,0,0.845
2015-04-14,0.845,0.845,0.845,0.845,0,0.845
2015-04-15,0.845,0.845,0.845,0.845,0,0.845
2015-04-16,0.845,0.845,0.845,0.845,0,0.845
2015-04-17,0.845,0.845,0.845,0.845,125700,0.845
2015-04-20,0.845,0.845,0.845,0.845,0,0.845
2015-04-21,0.845,0.845,0.845,0.845,0,0.845
2015-04-22,0.845,0.845,0.845,0.845,0,0.845
2015-04-23,0.845,0.845,0.845,0.845,0,0.845
2015-04-24,0.845,0.845,0.845,0.845,0,0.845
2015-04-27,0.95,0.95,0.95,0.95,1000,0.95
2015-04-28,0.95,0.95,0.95,0.95,0,0.95
2015-04-29,0.95,0.95,0.95,0.95,0,0.95
2015-04-30,0.95,0.95,0.95,0.95,0,0.95
2015-05-01,0.95,0.95,0.95,0.95,0,0.95
2015-05-04,0.95,0.95,0.95,0.95,0,0.95
2015-05-05,0.95,0.95,0.95,0.95,0,0.95
2015-05-06,0.95,0.95,0.95,0.95,0,0.95
2015-05-07,0.95,0.95,0.95,0.95,0,0.95
2015-05-08,0.95,0.95,0.95,0.95,0,0.95
2015-05-11,0.85,0.85,0.85,0.85,10300,0.85
2015-05-12,0.85,0.85,0.85,0.85,0,0.85
2015-05-13,0.85,0.85,0.85,0.85,0,0.85
2015-05-14,0.85,0.85,0.85,0.85,0,0.85
2015-05-15,0.85,0.85,0.85,0.85,0,0.85
2015-05-18,0.85,0.85,0.85,0.85,0,0.85
2015-05-19,0.85,0.85,0.85,0.85,2000,0.85
2015-05-20,0.85,0.85,0.85,0.85,0,0.85
2015-05-21,0.85,0.85,0.85,0.85,0,0.85
2015-05-22,0.85,0.85,0.85,0.85,0,0.85
2015-05-25,0.85,0.85,0.85,0.85,0,0.85
2015-05-26,0.85,0.85,0.85,0.85,0,0.85
2015-05-27,0.85,0.85,0.85,0.85,0,0.85
2015-05-28,0.85,0.85,0.85,0.85,0,0.85
2015-05-29,0.85,0.85,0.85,0.85,0,0.85
2015-06-01,0.85,0.85,0.85,0.85,0,0.85
2015-06-02,0.89,0.89,0.89,0.89,2000,0.89
2015-06-03,0.89,0.89,0.89,0.89,0,0.89
2015-06-04,0.9,0.9,0.9,0.9,1000,0.9
2015-06-05,0.9,0.9,0.89,0.89,5000,0.89
2015-06-08,0.89,0.89,0.89,0.89,0,0.89
2015-06-09,0.89,0.89,0.89,0.89,14200,0.89
2015-06-10,0.895,0.895,0.895,0.895,7000,0.895
2015-06-11,0.92,0.93,0.92,0.93,9000,0.93
2015-06-12,0.93,0.93,0.93,0.93,0,0.93
2015-06-15,0.93,0.93,0.93,0.93,0,0.93
2015-06-16,0.93,0.93,0.93,0.93,0,0.93
2015-06-17,0.94,0.94,0.94,0.94,1400,0.94
2015-06-18,0.94,0.94,0.94,0.94,10000,0.94
2015-06-19,0.95,0.95,0.95,0.95,16300,0.95
2015-06-22,0.95,0.95,0.95,0.95,0,0.95
2015-06-23,0.95,0.95,0.95,0.95,352000,0.95
2015-06-24,0.95,0.95,0.95,0.95,1000,0.95
2015-06-25,0.95,0.95,0.95,0.95,0,0.95
2015-06-26,0.95,0.95,0.95,0.95,0,0.95
2015-06-29,0.95,0.95,0.95,0.95,0,0.95
2015-06-30,0.95,0.95,0.95,0.95,0,0.95
2015-07-01,0.95,0.95,0.95,0.95,0,0.95
2015-07-02,0.95,0.95,0.95,0.95,0,0.95
2015-07-03,0.95,0.95,0.95,0.95,0,0.95
2015-07-06,0.95,0.95,0.95,0.95,0,0.95
2015-07-07,0.95,0.95,0.95,0.95,0,0.95
2015-07-08,0.9,0.95,0.9,0.95,3000,0.95
2015-07-09,0.95,0.95,0.95,0.95,0,0.95
2015-07-10,0.95,0.95,0.95,0.95,1900,0.95
2015-07-13,0.95,0.95,0.95,0.95,0,0.95
2015-07-14,0.95,0.95,0.95,0.95,0,0.95
2015-07-15,0.95,0.95,0.95,0.95,0,0.95
2015-07-16,0.95,0.95,0.95,0.95,0,0.95
2015-07-17,0.95,0.95,0.95,0.95,0,0.95
2015-07-20,0.95,0.95,0.95,0.95,0,0.95
2015-07-21,0.96,0.96,0.96,0.96,3000,0.96
2015-07-22,0.96,0.96,0.96,0.96,0,0.96
2015-07-23,0.96,0.96,0.96,0.96,0,0.96
2015-07-24,0.96,0.96,0.96,0.96,0,0.96
2015-07-27,0.96,0.96,0.96,0.96,0,0.96
2015-07-28,0.96,0.96,0.96,0.96,0,0.96
2015-07-29,0.96,0.96,0.96,0.96,100,0.96
2015-07-30,0.96,0.96,0.96,0.96,0,0.96
2015-07-31,0.96,0.96,0.96,0.96,0,0.96
2015-08-03,0.96,0.96,0.96,0.96,0,0.96
2015-08-04,0.96,0.96,0.96,0.96,0,0.96
2015-08-05,0.96,0.96,0.96,0.96,0,0.96
2015-08-06,0.96,0.96,0.96,0.96,0,0.96
2015-08-07,0.96,0.96,0.96,0.96,0,0.96
2015-08-10,0.96,0.96,0.96,0.96,0,0.96
2015-08-11,0.96,0.96,0.96,0.96,0,0.96
2015-08-12,0.96,0.96,0.96,0.96,0,0.96
2015-08-13,0.96,0.96,0.96,0.96,800,0.96
2015-08-14,0.96,0.96,0.96,0.96,0,0.96
2015-08-17,0.96,0.96,0.96,0.96,0,0.96
2015-08-18,0.96,0.96,0.96,0.96,0,0.96
2015-08-19,0.96,0.96,0.96,0.96,0,0.96
2015-08-20,0.96,0.96,0.96,0.96,0,0.96
2015-08-24,0.96,0.96,0.96,0.96,0,0.96
2015-08-25,0.96,0.96,0.96,0.96,0,0.96
2015-08-26,0.96,0.96,0.96,0.96,0,0.96
2015-08-27,0.96,0.96,0.96,0.96,0,0.96
2015-08-28,0.96,0.96,0.96,0.96,0,0.96
2015-08-31,0.96,0.96,0.96,0.96,0,0.96
2015-09-01,0.96,0.96,0.96,0.96,0,0.96
2015-09-02,0.96,0.96,0.96,0.96,0,0.96
2015-09-03,0.96,0.96,0.96,0.96,0,0.96
2015-09-04,0.96,0.96,0.96,0.96,0,0.96
2015-09-07,0.96,0.96,0.96,0.96,0,0.96
2015-09-08,0.96,0.96,0.96,0.96,0,0.96
2015-09-09,0.96,0.96,0.96,0.96,0,0.96
2015-09-10,0.96,0.96,0.96,0.96,0,0.96
2015-09-11,0.96,0.96,0.96,0.96,0,0.96
2015-09-14,0.96,0.96,0.96,0.96,0,0.96
2015-09-15,0.96,0.96,0.96,0.96,0,0.96
2015-09-16,0.96,0.96,0.96,0.96,0,0.96
2015-09-17,0.96,0.96,0.96,0.96,0,0.96
2015-09-18,0.96,0.96,0.96,0.96,0,0.96
2015-09-21,0.96,0.96,0.96,0.96,0,0.96
2015-09-22,0.96,0.96,0.96,0.96,0,0.96
2015-09-23,0.96,0.96,0.96,0.96,0,0.96
2015-09-24,0.96,0.96,0.96,0.96,0,0.96
2015-09-25,0.96,0.96,0.96,0.96,0,0.96
2015-09-28,0.96,0.96,0.96,0.96,0,0.96
2015-09-29,0.96,0.96,0.96,0.96,0,0.96
2015-09-30,0.96,0.96,0.96,0.96,0,0.96
2015-10-01,0.96,0.96,0.96,0.96,0,0.96
2015-10-02,0.96,0.96,0.96,0.96,0,0.96
2015-10-05,0.96,0.96,0.96,0.96,0,0.96
2015-10-06,0.96,0.96,0.96,0.96,0,0.96
2015-10-07,0.96,0.96,0.96,0.96,0,0.96
2015-10-08,0.96,0.96,0.96,0.96,0,0.96
2015-10-09,0.96,0.96,0.96,0.96,0,0.96
2015-10-12,0.96,0.96,0.96,0.96,0,0.96
2015-10-13,0.96,0.96,0.96,0.96,0,0.96
2015-10-14,0.96,0.96,0.96,0.96,0,0.96
2015-10-15,0.96,0.96,0.96,0.96,0,0.96
2015-10-16,0.96,0.96,0.96,0.96,0,0.96
2015-10-19,0.65,0.65,0.65,0.65,1500,0.65
2015-10-20,0.65,0.65,0.65,0.65,0,0.65
2015-10-21,0.65,0.65,0.65,0.65,0,0.65
2015-10-22,0.65,0.65,0.65,0.65,0,0.65
2015-10-23,0.65,0.65,0.65,0.65,0,0.65
2015-10-26,0.6,0.6,0.6,0.6,4600,0.6
2015-10-27,0.6,0.6,0.6,0.6,0,0.6
2015-10-28,0.6,0.6,0.6,0.6,0,0.6
2015-10-29,0.6,0.6,0.6,0.6,0,0.6
2015-10-30,0.6,0.6,0.6,0.6,0,0.6
2015-11-02,0.6,0.6,0.6,0.6,0,0.6
2015-11-03,0.6,0.6,0.6,0.6,0,0.6
2015-11-04,0.6,0.6,0.6,0.6,0,0.6
2015-11-05,0.6,0.6,0.6,0.6,1900,0.6
2015-11-06,0.6,0.6,0.6,0.6,0,0.6
2015-11-09,0.6,0.6,0.6,0.6,0,0.6
2015-11-10,0.6,0.6,0.6,0.6,0,0.6
2015-11-11,0.6,0.6,0.6,0.6,0,0.6
2015-11-12,0.6,0.6,0.6,0.6,0,0.6
2015-11-13,0.6,0.6,0.6,0.6,0,0.6
2015-11-16,0.6,0.6,0.6,0.6,0,0.6
2015-11-17,0.6,0.6,0.6,0.6,1000,0.6
2015-11-18,0.6,0.6,0.6,0.6,0,0.6
2015-11-19,0.6,0.6,0.6,0.6,0,0.6
2015-11-20,0.6,0.6,0.6,0.6,0,0.6
2015-11-23,0.6,0.6,0.6,0.6,0,0.6
2015-11-24,0.6,0.6,0.6,0.6,0,0.6
2015-11-25,0.6,0.6,0.6,0.6,0,0.6
2015-11-26,0.6,0.6,0.6,0.6,0,0.6
2015-11-27,0.6,0.6,0.6,0.6,0,0.6
2015-11-30,0.6,0.6,0.6,0.6,400,0.6
2015-12-01,0.6,0.6,0.6,0.6,0,0.6
2015-12-02,0.42,0.42,0.42,0.42,500,0.42
2015-12-03,0.42,0.42,0.42,0.42,0,0.42
2015-12-04,0.42,0.42,0.42,0.42,0,0.42
2015-12-07,0.42,0.42,0.42,0.42,0,0.42
2015-12-08,0.42,0.42,0.42,0.42,0,0.42
2015-12-09,0.42,0.42,0.42,0.42,0,0.42
2015-12-10,0.42,0.42,0.42,0.42,0,0.42
2015-12-11,0.42,0.42,0.42,0.42,0,0.42
2015-12-14,0.42,0.42,0.42,0.42,0,0.42
2015-12-15,0.42,0.42,0.42,0.42,0,0.42
2015-12-16,0.42,0.42,0.42,0.42,0,0.42
2015-12-17,0.42,0.42,0.42,0.42,0,0.42
2015-12-18,0.42,0.42,0.42,0.42,0,0.42
2015-12-21,0.42,0.42,0.42,0.42,0,0.42
2015-12-22,0.42,0.42,0.42,0.42,0,0.42
2015-12-23,0.42,0.42,0.42,0.42,0,0.42
2015-12-24,0.42,0.42,0.42,0.42,0,0.42
2015-12-25,0.42,0.42,0.42,0.42,0,0.42
2015-12-28,0.42,0.42,0.42,0.42,0,0.42
2015-12-29,0.42,0.42,0.42,0.42,0,0.42
2015-12-30,0.42,0.42,0.42,0.42,0,0.42
2015-12-31,0.42,0.42,0.42,0.42,0,0.42
2016-01-01,0.42,0.42,0.42,0.42,0,0.42
2016-01-04,0.42,0.42,0.42,0.42,0,0.42
2016-01-05,0.42,0.42,0.42,0.42,0,0.42
2016-01-06,0.42,0.42,0.42,0.42,0,0.42
2016-01-07,0.42,0.42,0.42,0.42,0,0.42
2016-01-08,0.42,0.42,0.42,0.42,0,0.42
2016-01-11,0.42,0.42,0.42,0.42,0,0.42
2016-01-12,0.42,0.42,0.42,0.42,0,0.42
2016-01-13,0.42,0.42,0.42,0.42,0,0.42
2016-01-14,0.42,0.42,0.42,0.42,0,0.42
2016-01-15,0.42,0.42,0.42,0.42,0,0.42
2016-01-18,0.42,0.42,0.42,0.42,0,0.42
2016-01-19,0.42,0.42,0.42,0.42,0,0.42
2016-01-20,0.42,0.42,0.42,0.42,0,0.42
2016-01-21,0.42,0.42,0.42,0.42,0,0.42
2016-01-22,0.42,0.42,0.42,0.42,0,0.42
2016-01-25,0.42,0.42,0.42,0.42,0,0.42
2016-01-26,0.42,0.42,0.42,0.42,0,0.42
2016-01-27,0.42,0.42,0.42,0.42,0,0.42
2016-01-28,0.42,0.42,0.42,0.42,0,0.42
2016-01-29,0.42,0.42,0.42,0.42,0,0.42
2016-02-01,0.42,0.42,0.42,0.42,0,0.42
2016-02-02,0.42,0.42,0.42,0.42,0,0.42
2016-02-03,0.42,0.42,0.42,0.42,0,0.42
2016-02-04,0.42,0.42,0.42,0.42,0,0.42
2016-02-05,0.42,0.42,0.42,0.42,0,0.42
2016-02-08,0.42,0.42,0.42,0.42,0,0.42
2016-02-09,0.42,0.42,0.42,0.42,0,0.42
2016-02-10,0.42,0.42,0.42,0.42,0,0.42
2016-02-11,0.42,0.42,0.42,0.42,0,0.42
2016-02-12,0.42,0.42,0.42,0.42,0,0.42
2016-02-15,0.42,0.42,0.42,0.42,0,0.42
2016-02-16,0.42,0.42,0.42,0.42,0,0.42
2016-02-17,0.42,0.42,0.42,0.42,0,0.42
2016-02-18,0.42,0.42,0.42,0.42,0,0.42
2016-02-19,0.42,0.42,0.42,0.42,0,0.42
2016-02-22,0.42,0.42,0.42,0.42,0,0.42
2016-02-23,0.42,0.42,0.42,0.42,0,0.42
2016-02-24,0.42,0.42,0.42,0.42,0,0.42
2016-02-25,0.42,0.42,0.42,0.42,0,0.42
2016-02-26,0.42,0.42,0.42,0.42,0,0.42
2016-02-29,0.42,0.42,0.42,0.42,0,0.42
2016-03-01,0.42,0.42,0.42,0.42,0,0.42
2016-03-02,0.42,0.42,0.42,0.42,0,0.42
2016-03-03,0.42,0.42,0.42,0.42,0,0.42
2016-03-04,0.42,0.42,0.42,0.42,0,0.42
2016-03-07,0.42,0.42,0.42,0.42,0,0.42
2016-03-08,0.42,0.42,0.42,0.42,0,0.42
2016-03-09,0.42,0.42,0.42,0.42,0,0.42
2016-03-10,0.42,0.42,0.42,0.42,0,0.42
2016-03-11,0.42,0.42,0.42,0.42,0,0.42
2016-03-14,0.42,0.42,0.42,0.42,0,0.42
2016-03-15,0.42,0.42,0.42,0.42,0,0.42
2016-03-16,0.42,0.42,0.42,0.42,0,0.42
2016-03-17,0.42,0.42,0.42,0.42,0,0.42
2016-03-18,0.42,0.42,0.42,0.42,1000,0.42
2016-03-21,0.42,0.42,0.42,0.42,0,0.42
2016-03-22,0.42,0.42,0.42,0.42,0,0.42
2016-03-23,0.42,0.42,0.42,0.42,0,0.42
2016-03-24,0.42,0.42,0.42,0.42,0,0.42
2016-03-25,0.42,0.42,0.42,0.42,0,0.42
2016-03-28,0.42,0.42,0.42,0.42,0,0.42
2016-03-29,0.42,0.42,0.42,0.42,0,0.42
2016-03-30,0.42,0.42,0.42,0.42,0,0.42
2016-03-31,0.42,0.42,0.42,0.42,0,0.42
2016-04-01,0.42,0.42,0.42,0.42,0,0.42
2016-04-04,0.42,0.42,0.42,0.42,0,0.42
2016-04-05,0.48,0.48,0.48,0.48,500,0.48
2016-04-06,0.48,0.48,0.48,0.48,0,0.48
2016-04-07,0.48,0.48,0.48,0.48,0,0.48
2016-04-08,0.48,0.48,0.48,0.48,0,0.48
2016-04-11,0.48,0.48,0.48,0.48,0,0.48
2016-04-12,0.48,0.48,0.48,0.48,0,0.48
2016-04-13,0.48,0.48,0.48,0.48,0,0.48
2016-04-14,0.48,0.48,0.48,0.48,0,0.48
2016-04-15,0.48,0.48,0.48,0.48,0,0.48
2016-04-18,0.48,0.48,0.48,0.48,0,0.48
2016-04-19,0.48,0.48,0.48,0.48,0,0.48
2016-04-20,0.48,0.48,0.48,0.48,0,0.48
2016-04-21,0.5,0.5,0.5,0.5,10000,0.5
2016-04-22,0.48,0.48,0.48,0.48,5400,0.48
2016-04-25,0.48,0.48,0.48,0.48,0,0.48
2016-04-26,0.48,0.48,0.48,0.48,0,0.48
2016-04-27,0.48,0.49,0.48,0.49,10000,0.49
2016-04-28,0.49,0.49,0.49,0.49,0,0.49
2016-04-29,0.49,0.49,0.49,0.49,0,0.49
2016-05-02,0.49,0.49,0.49,0.49,0,0.49
2016-05-03,0.49,0.49,0.49,0.49,0,0.49
2016-05-04,0.49,0.5,0.49,0.5,8500,0.5
2016-05-05,0.5,0.5,0.5,0.5,0,0.5
2016-05-06,0.5,0.5,0.5,0.5,0,0.5
2016-05-09,0.5,0.5,0.5,0.5,0,0.5
2016-05-10,0.5,0.5,0.5,0.5,0,0.5
2016-05-11,0.5,0.5,0.5,0.5,0,0.5
2016-05-12,0.5,0.5,0.5,0.5,0,0.5
2016-05-13,0.5,0.5,0.5,0.5,0,0.5
2016-05-16,0.5,0.5,0.5,0.5,0,0.5
2016-05-17,0.5,0.5,0.5,0.5,0,0.5
2016-05-18,0.5,0.5,0.5,0.5,0,0.5
2016-05-19,0.5,0.5,0.5,0.5,0,0.5
2016-05-20,0.5,0.5,0.5,0.5,0,0.5
2016-05-23,0.5,0.5,0.5,0.5,0,0.5
2016-05-24,0.5,0.5,0.5,0.5,0,0.5
2016-05-25,0.5,0.5,0.5,0.5,0,0.5
2016-05-26,0.5,0.5,0.5,0.5,0,0.5
2016-05-27,0.5,0.5,0.5,0.5,0,0.5
2016-05-30,0.5,0.5,0.5,0.5,2000,0.5
2016-05-31,0.5,0.5,0.5,0.5,0,0.5
2016-06-01,0.5,0.5,0.5,0.5,0,0.5
2016-06-02,0.5,0.5,0.5,0.5,0,0.5
2016-06-03,0.5,0.5,0.5,0.5,0,0.5
2016-06-06,0.5,0.5,0.5,0.5,0,0.5
2016-06-07,0.53,0.53,0.53,0.53,6100,0.53
2016-06-08,0.53,0.53,0.53,0.53,0,0.53
2016-06-09,0.53,0.53,0.53,0.53,0,0.53
2016-06-10,0.53,0.53,0.53,0.53,0,0.53
2016-06-13,0.53,0.53,0.53,0.53,0,0.53
2016-06-14,0.53,0.53,0.53,0.53,0,0.53
2016-06-15,0.55,0.55,0.55,0.55,5900,0.55
2016-06-16,0.55,0.55,0.55,0.55,0,0.55
2016-06-17,0.55,0.55,0.55,0.55,0,0.55
2016-06-20,0.55,0.55,0.55,0.55,0,0.55
2016-06-21,0.55,0.55,0.55,0.55,0,0.55
2016-06-22,0.55,0.55,0.55,0.55,0,0.55
2016-06-23,0.55,0.55,0.55,0.55,0,0.55
2016-06-24,0.55,0.55,0.55,0.55,0,0.55
2016-06-27,0.55,0.55,0.55,0.55,2800,0.55
2016-06-28,0.55,0.55,0.55,0.55,0,0.55
2016-06-29,0.55,0.55,0.55,0.55,0,0.55
2016-06-30,0.55,0.55,0.55,0.55,12100,0.55
2016-07-01,0.55,0.55,0.55,0.55,0,0.55
2016-07-04,0.55,0.55,0.55,0.55,0,0.55
2016-07-05,0.55,0.55,0.55,0.55,0,0.55
2016-07-06,0.55,0.55,0.55,0.55,0,0.55
2016-07-07,0.55,0.55,0.55,0.55,0,0.55
2016-07-08,0.55,0.55,0.55,0.55,0,0.55
2016-07-11,0.55,0.55,0.55,0.55,0,0.55
2016-07-12,0.55,0.55,0.55,0.55,0,0.55
2016-07-13,0.55,0.55,0.55,0.55,0,0.55
2016-07-14,0.55,0.55,0.55,0.55,0,0.55
2016-07-15,0.55,0.55,0.55,0.55,0,0.55
2016-07-18,0.55,0.55,0.55,0.55,0,0.55
2016-07-19,0.55,0.55,0.55,0.55,0,0.55
2016-07-20,0.55,0.55,0.55,0.55,0,0.55
2016-07-21,0.55,0.55,0.55,0.55,0,0.55
2016-07-22,0.55,0.55,0.55,0.55,0,0.55
2016-07-25,0.55,0.55,0.55,0.55,0,0.55
2016-07-26,0.55,0.55,0.55,0.55,0,0.55
2016-07-27,0.55,0.55,0.55,0.55,0,0.55
2016-07-28,0.55,0.55,0.55,0.55,0,0.55
2016-07-29,0.55,0.55,0.55,0.55,0,0.55
2016-08-01,0.54,0.54,0.54,0.54,12000,0.54
2016-08-02,0.54,0.54,0.54,0.54,0,0.54
2016-08-03,0.54,0.54,0.54,0.54,0,0.54
2016-08-04,0.54,0.54,0.54,0.54,0,0.54
2016-08-05,0.54,0.54,0.54,0.54,0,0.54
2016-08-08,0.54,0.54,0.54,0.54,0,0.54
2016-08-09,0.54,0.54,0.54,0.54,0,0.54
2016-08-10,0.54,0.54,0.54,0.54,0,0.54
2016-08-11,0.54,0.54,0.54,0.54,0,0.54
2016-08-12,0.54,0.54,0.54,0.54,0,0.54
2016-08-15,0.54,0.54,0.54,0.54,0,0.54
2016-08-16,0.54,0.54,0.54,0.54,0,0.54
2016-08-17,0.54,0.54,0.54,0.54,0,0.54
2016-08-18,0.54,0.54,0.54,0.54,0,0.54
2016-08-19,0.6,0.6,0.6,0.6,1000,0.6
2016-08-22,0.6,0.6,0.6,0.6,0,0.6
2016-08-23,0.6,0.6,0.6,0.6,4000,0.6
2016-08-24,0.6,0.6,0.6,0.6,0,0.6
2016-08-25,0.6,0.6,0.6,0.6,0,0.6
2016-08-26,0.6,0.6,0.6,0.6,0,0.6
2016-08-29,0.6,0.6,0.6,0.6,0,0.6
2016-08-30,0.6,0.6,0.6,0.6,11500,0.6
2016-08-31,0.6,0.6,0.6,0.6,0,0.6
2016-09-01,0.6,0.6,0.6,0.6,0,0.6
2016-09-02,0.6,0.6,0.6,0.6,0,0.6
2016-09-05,0.6,0.6,0.6,0.6,0,0.6
2016-09-06,0.6,0.6,0.6,0.6,0,0.6
2016-09-07,0.6,0.6,0.6,0.6,0,0.6
2016-09-08,0.6,0.6,0.6,0.6,0,0.6
2016-09-09,0.6,0.6,0.6,0.6,0,0.6
2016-09-12,0.6,0.6,0.6,0.6,0,0.6
2016-09-13,0.6,0.6,0.6,0.6,0,0.6
2016-09-14,0.6,0.6,0.6,0.6,0,0.6
2016-09-15,0.6,0.6,0.6,0.6,0,0.6
2016-09-16,0.6,0.6,0.6,0.6,0,0.6
2016-09-19,0.6,0.6,0.6,0.6,0,0.6
2016-09-20,0.6,0.6,0.6,0.6,0,0.6
2016-09-21,0.6,0.6,0.6,0.6,100,0.6
2016-09-22,0.6,0.6,0.6,0.6,8100,0.6
2016-09-23,0.6,0.6,0.6,0.6,0,0.6
2016-09-26,0.6,0.6,0.6,0.6,1100,0.6
2016-09-27,0.6,0.6,0.6,0.6,0,0.6
2016-09-28,0.6,0.6,0.6,0.6,0,0.6
2016-09-29,0.6,0.6,0.6,0.6,0,0.6
2016-09-30,0.6,0.6,0.6,0.6,0,0.6
2016-10-03,0.6,0.6,0.6,0.6,0,0.6
2016-10-04,0.6,0.6,0.6,0.6,0,0.6
2016-10-05,0.6,0.6,0.6,0.6,0,0.6
2016-10-06,0.6,0.6,0.6,0.6,0,0.6
2016-10-07,0.63,0.63,0.63,0.63,1000,0.63
2016-10-10,0.63,0.63,0.63,0.63,0,0.63
2016-10-11,0.63,0.63,0.63,0.63,0,0.63
2016-10-12,0.63,0.63,0.63,0.63,0,0.63
2016-10-13,0.63,0.63,0.63,0.63,0,0.63
2016-10-14,0.63,0.63,0.63,0.63,0,0.63
2016-10-17,0.63,0.63,0.63,0.63,0,0.63
2016-10-18,0.63,0.63,0.63,0.63,0,0.63
2016-10-19,0.63,0.63,0.63,0.63,0,0.63
2016-10-20,0.63,0.63,0.63,0.63,0,0.63
2016-10-21,0.63,0.63,0.63,0.63,0,0.63
2016-10-24,0.63,0.63,0.63,0.63,0,0.63
2016-10-25,0.63,0.63,0.63,0.63,0,0.63
2016-10-26,0.63,0.63,0.63,0.63,0,0.63
2016-10-27,0.63,0.63,0.63,0.63,0,0.63
2016-10-28,0.63,0.63,0.63,0.63,0,0.63
2016-10-31,0.63,0.63,0.63,0.63,0,0.63
2016-11-01,0.63,0.63,0.63,0.63,0,0.63
2016-11-02,0.65,0.65,0.65,0.65,10000,0.65
2016-11-03,0.65,0.65,0.65,0.65,0,0.65
2016-11-04,0.65,0.65,0.65,0.65,0,0.65
2016-11-07,0.65,0.65,0.65,0.65,0,0.65
2016-11-08,0.65,0.65,0.65,0.65,0,0.65
2016-11-09,0.65,0.65,0.65,0.65,0,0.65
2016-11-10,0.8,0.8,0.8,0.8,4500,0.8
2016-11-11,0.8,0.8,0.8,0.8,700,0.8
2016-11-14,0.8,0.8,0.8,0.8,3000,0.8
2016-11-15,0.82,0.82,0.82,0.82,3000,0.82
2016-11-16,0.82,0.82,0.82,0.82,0,0.82
2016-11-17,0.82,0.82,0.82,0.82,0,0.82
2016-11-18,0.82,0.82,0.82,0.82,0,0.82
2016-11-21,0.82,0.82,0.82,0.82,0,0.82
2016-11-22,1.05,1.05,1.035,1.05,174300,1.05
2016-11-23,1.05,1.05,1.05,1.05,1000,1.05
2016-11-24,1.05,1.05,1.05,1.05,27300,1.05
2016-11-25,1.05,1.05,1.05,1.05,28100,1.05
2016-11-28,1.05,1.155,1.05,1.155,130800,1.155
2016-11-29,1.155,1.17,1.155,1.17,50200,1.17
2016-11-30,1.17,1.2,1.17,1.17,130000,1.17
2016-12-01,1.2,1.2,1.2,1.2,3000,1.2
2016-12-02,1.25,1.35,1.2,1.29,45500,1.29
2016-12-05,1.29,1.29,1.29,1.29,0,1.29
2016-12-06,1.4,1.85,1.4,1.85,75700,1.85
2016-12-07,1.825,1.825,1.55,1.6,60900,1.6
2016-12-08,1.7,1.7,1.6,1.7,83400,1.7
2016-12-09,1.7,1.77,1.7,1.77,32500,1.77
2016-12-12,1.77,1.77,1.7,1.7,7300,1.7
2016-12-13,1.76,1.915,1.75,1.9,37300,1.9
2016-12-14,1.95,1.95,1.8,1.8,1300,1.8
2016-12-15,1.77,1.77,1.72,1.75,33300,1.75
2016-12-16,1.75,1.75,1.75,1.75,0,1.75
2016-12-19,1.75,1.75,1.7,1.7,16600,1.7
2016-12-20,1.7,1.7,1.7,1.7,0,1.7
2016-12-21,1.7,1.7,1.7,1.7,0,1.7
2016-12-22,1.665,1.665,1.65,1.65,10200,1.65
2016-12-23,1.65,1.65,1.65,1.65,0,1.65
2016-12-26,1.65,1.65,1.65,1.65,0,1.65
2016-12-27,1.65,1.65,1.65,1.65,0,1.65
2016-12-28,1.65,1.65,1.65,1.65,0,1.65
2016-12-29,1.65,1.65,1.65,1.65,0,1.65
2016-12-30,1.65,1.65,1.6,1.6,19100,1.6
