Date,Open,High,Low,Close,Volume,Adj Close
2015-09-08,0.5,0.5,0.48,0.48,411000,0.44299999999999995
2015-09-09,0.5,0.51,0.48,0.5,123800,0.461
2015-09-10,0.5,0.5,0.485,0.5,115500,0.461
2015-09-11,0.5,0.505,0.5,0.505,59900,0.466
2015-09-14,0.505,0.505,0.505,0.505,3900,0.466
2015-09-15,0.505,0.51,0.505,0.505,19800,0.466
2015-09-16,0.5,0.5,0.5,0.5,23100,0.461
2015-09-17,0.5,0.5,0.5,0.5,26000,0.461
2015-09-18,0.5,0.5,0.5,0.5,100000,0.461
2015-09-21,0.5,0.5,0.5,0.5,0,0.461
2015-09-22,0.5,0.5,0.5,0.5,26500,0.461
2015-09-23,0.495,0.5,0.495,0.5,10000,0.461
2015-09-24,0.5,0.5,0.5,0.5,5800,0.461
2015-09-25,0.5,0.5,0.48,0.5,29700,0.461
2015-09-28,0.495,0.5,0.495,0.5,47800,0.461
2015-09-29,0.5,0.5,0.5,0.5,0,0.47700000000000004
2015-09-30,0.5,0.5,0.5,0.5,0,0.47700000000000004
2015-10-01,0.45,0.48,0.45,0.48,41500,0.45799999999999996
2015-10-02,0.45,0.48,0.45,0.48,43000,0.45799999999999996
2015-10-05,0.48,0.495,0.48,0.49,21500,0.46799999999999997
2015-10-06,0.49,0.49,0.49,0.49,0,0.46799999999999997
2015-10-07,0.485,0.485,0.485,0.485,2000,0.46299999999999997
2015-10-08,0.48,0.485,0.45,0.485,33900,0.46299999999999997
2015-10-09,0.48,0.48,0.48,0.48,30000,0.45799999999999996
2015-10-12,0.455,0.475,0.45,0.475,28000,0.45299999999999996
2015-10-13,0.45,0.47,0.45,0.47,57100,0.449
2015-10-14,0.47,0.47,0.47,0.47,0,0.449
2015-10-15,0.47,0.47,0.47,0.47,0,0.449
2015-10-16,0.47,0.47,0.47,0.47,0,0.449
2015-10-19,0.42,0.47,0.415,0.47,14700,0.449
2015-10-20,0.415,0.42,0.415,0.42,6000,0.401
2015-10-21,0.425,0.435,0.415,0.415,60700,0.396
2015-10-22,0.415,0.415,0.415,0.415,11000,0.396
2015-10-23,0.42,0.42,0.42,0.42,11900,0.401
2015-10-26,0.415,0.415,0.41,0.41,69100,0.391
2015-10-27,0.425,0.45,0.425,0.45,10000,0.43
2015-10-28,0.45,0.45,0.45,0.45,0,0.43
2015-10-29,0.45,0.45,0.45,0.45,0,0.43
2015-10-30,0.46,0.48,0.46,0.48,120000,0.45799999999999996
2015-11-02,0.48,0.51,0.48,0.51,210700,0.48700000000000004
2015-11-03,0.51,0.51,0.51,0.51,0,0.48700000000000004
2015-11-04,0.51,0.51,0.51,0.51,0,0.48700000000000004
2015-11-05,0.48,0.51,0.48,0.51,7000,0.48700000000000004
2015-11-06,0.51,0.51,0.51,0.51,0,0.48700000000000004
2015-11-09,0.485,0.49,0.485,0.49,20500,0.46799999999999997
2015-11-10,0.49,0.49,0.49,0.49,0,0.46799999999999997
2015-11-11,0.5,0.53,0.5,0.53,145900,0.506
2015-11-12,0.53,0.55,0.53,0.55,117200,0.525
2015-11-13,0.57,0.65,0.57,0.58,312800,0.5539999999999999
2015-11-16,0.59,0.61,0.59,0.61,28000,0.5820000000000001
2015-11-17,0.62,0.62,0.59,0.6,61500,0.573
2015-11-18,0.6,0.62,0.6,0.62,2100,0.5920000000000001
2015-11-19,0.62,0.65,0.62,0.65,114700,0.62
2015-11-20,0.65,0.7,0.65,0.65,55900,0.62
2015-11-23,0.65,0.7,0.65,0.665,134100,0.635
2015-11-24,0.68,0.68,0.66,0.67,32900,0.64
2015-11-25,0.67,0.67,0.64,0.65,74000,0.62
2015-11-26,0.65,0.66,0.64,0.655,285900,0.625
2015-11-27,0.655,0.655,0.655,0.655,1800,0.625
2015-11-30,0.62,0.62,0.605,0.61,21200,0.5820000000000001
2015-12-01,0.6,0.64,0.595,0.64,20800,0.611
2015-12-02,0.62,0.645,0.62,0.64,20000,0.611
2015-12-03,0.63,0.645,0.605,0.645,19400,0.616
2015-12-04,0.635,0.64,0.635,0.64,1200,0.611
2015-12-07,0.635,0.65,0.6,0.6,16100,0.573
2015-12-08,0.6,0.635,0.6,0.63,43100,0.601
2015-12-09,0.645,0.645,0.64,0.64,9000,0.611
2015-12-10,0.64,0.64,0.64,0.64,0,0.611
2015-12-11,0.64,0.64,0.64,0.64,0,0.611
2015-12-14,0.64,0.64,0.635,0.635,4700,0.606
2015-12-15,0.64,0.65,0.64,0.65,45000,0.62
2015-12-16,0.645,0.665,0.645,0.665,32500,0.635
2015-12-17,0.665,0.665,0.665,0.665,0,0.635
2015-12-18,0.66,0.66,0.64,0.65,34900,0.62
2015-12-21,0.655,0.705,0.65,0.68,137600,0.649
2015-12-22,0.68,0.695,0.68,0.68,89000,0.649
2015-12-23,0.685,0.7,0.685,0.7,24000,0.6679999999999999
2015-12-24,0.685,0.685,0.68,0.68,16800,0.649
2015-12-25,0.68,0.68,0.68,0.68,0,0.649
2015-12-28,0.68,0.68,0.68,0.68,0,0.649
2015-12-29,0.69,0.7,0.69,0.7,18900,0.6679999999999999
2015-12-30,0.7,0.7,0.65,0.685,83000,0.654
2015-12-31,0.685,0.685,0.685,0.685,0,0.654
2016-01-01,0.685,0.685,0.685,0.685,0,0.654
2016-01-04,0.66,0.68,0.655,0.68,18400,0.649
2016-01-05,0.65,0.68,0.65,0.68,25200,0.649
2016-01-06,0.65,0.68,0.65,0.67,31000,0.64
2016-01-07,0.665,0.68,0.625,0.68,12900,0.649
2016-01-08,0.625,0.625,0.62,0.62,239800,0.5920000000000001
2016-01-11,0.635,0.64,0.6,0.6,7700,0.573
2016-01-12,0.61,0.615,0.61,0.615,5600,0.5870000000000001
2016-01-13,0.615,0.62,0.6,0.62,37100,0.5920000000000001
2016-01-14,0.615,0.62,0.615,0.62,10000,0.5920000000000001
2016-01-15,0.62,0.62,0.62,0.62,0,0.5920000000000001
2016-01-18,0.615,0.62,0.58,0.58,18800,0.5539999999999999
2016-01-19,0.58,0.58,0.58,0.58,0,0.5539999999999999
2016-01-20,0.605,0.61,0.605,0.61,8000,0.5820000000000001
2016-01-21,0.605,0.61,0.605,0.61,800,0.5820000000000001
2016-01-22,0.55,0.61,0.55,0.61,1300,0.5820000000000001
2016-01-25,0.61,0.61,0.61,0.61,1000,0.5820000000000001
2016-01-26,0.61,0.61,0.61,0.61,0,0.5820000000000001
2016-01-27,0.61,0.61,0.61,0.61,0,0.5820000000000001
2016-01-28,0.605,0.61,0.605,0.61,800,0.5820000000000001
2016-01-29,0.61,0.61,0.61,0.61,0,0.5820000000000001
2016-02-01,0.61,0.615,0.56,0.6,32800,0.573
2016-02-02,0.6,0.6,0.6,0.6,0,0.573
2016-02-03,0.6,0.6,0.6,0.6,0,0.573
2016-02-04,0.6,0.6,0.6,0.6,0,0.573
2016-02-05,0.6,0.6,0.6,0.6,0,0.573
2016-02-08,0.6,0.6,0.6,0.6,0,0.573
2016-02-09,0.55,0.6,0.54,0.6,92500,0.573
2016-02-10,0.6,0.6,0.6,0.6,0,0.573
2016-02-11,0.6,0.6,0.6,0.6,0,0.573
2016-02-12,0.6,0.6,0.6,0.6,0,0.573
2016-02-15,0.6,0.6,0.6,0.6,0,0.573
2016-02-16,0.6,0.6,0.6,0.6,0,0.573
2016-02-17,0.6,0.6,0.6,0.6,0,0.573
2016-02-18,0.59,0.6,0.59,0.6,5100,0.573
2016-02-19,0.6,0.6,0.6,0.6,0,0.573
2016-02-22,0.595,0.6,0.56,0.56,38900,0.535
2016-02-23,0.56,0.56,0.56,0.56,0,0.535
2016-02-24,0.58,0.605,0.58,0.6,56700,0.573
2016-02-25,0.56,0.6,0.56,0.595,24400,0.568
2016-02-26,0.59,0.595,0.59,0.595,22000,0.568
2016-02-29,0.595,0.605,0.595,0.6,160500,0.573
2016-03-01,0.6,0.6,0.6,0.6,0,0.573
2016-03-02,0.6,0.6,0.58,0.595,29900,0.568
2016-03-03,0.595,0.6,0.54,0.6,28800,0.573
2016-03-04,0.595,0.6,0.58,0.58,27000,0.5539999999999999
2016-03-07,0.58,0.6,0.55,0.58,59600,0.5539999999999999
2016-03-08,0.58,0.6,0.58,0.6,31500,0.573
2016-03-09,0.595,0.6,0.485,0.6,29900,0.573
2016-03-10,0.56,0.6,0.54,0.6,26700,0.573
2016-03-11,0.58,0.6,0.57,0.575,34500,0.5489999999999999
2016-03-14,0.57,0.57,0.55,0.565,43900,0.539
2016-03-15,0.55,0.6,0.55,0.6,54700,0.573
2016-03-16,0.57,0.59,0.57,0.57,40300,0.544
2016-03-17,0.58,0.58,0.555,0.555,185000,0.53
2016-03-18,0.55,0.55,0.525,0.53,98200,0.506
2016-03-21,0.53,0.535,0.53,0.535,72500,0.511
2016-03-22,0.55,0.57,0.54,0.55,114900,0.525
2016-03-23,0.55,0.55,0.55,0.55,0,0.525
2016-03-24,0.56,0.56,0.55,0.55,84200,0.525
2016-03-25,0.55,0.55,0.55,0.55,0,0.525
2016-03-28,0.55,0.55,0.55,0.55,0,0.525
2016-03-29,0.555,0.555,0.54,0.54,41000,0.54
2016-03-30,0.51,0.51,0.51,0.51,17000,0.51
2016-03-31,0.51,0.51,0.51,0.51,0,0.51
2016-04-01,0.53,0.53,0.51,0.51,70200,0.51
2016-04-04,0.54,0.54,0.54,0.54,1000,0.54
2016-04-05,0.54,0.54,0.54,0.54,6400,0.54
2016-04-06,0.54,0.54,0.54,0.54,20000,0.54
2016-04-07,0.54,0.54,0.53,0.53,68500,0.53
2016-04-08,0.55,0.55,0.545,0.545,60400,0.545
2016-04-11,0.585,0.585,0.53,0.53,19200,0.53
2016-04-12,0.53,0.53,0.53,0.53,0,0.53
2016-04-13,0.58,0.58,0.53,0.53,22000,0.53
2016-04-14,0.575,0.575,0.575,0.575,2000,0.575
2016-04-15,0.57,0.57,0.57,0.57,20000,0.57
2016-04-18,0.555,0.575,0.555,0.575,27500,0.575
2016-04-19,0.575,0.575,0.575,0.575,10000,0.575
2016-04-20,0.575,0.575,0.575,0.575,4000,0.575
2016-04-21,0.57,0.57,0.57,0.57,4800,0.57
2016-04-22,0.575,0.58,0.575,0.58,30000,0.58
2016-04-25,0.58,0.58,0.58,0.58,0,0.58
2016-04-26,0.58,0.6,0.58,0.6,105300,0.6
2016-04-27,0.59,0.6,0.59,0.6,25000,0.6
2016-04-28,0.58,0.58,0.58,0.58,2200,0.58
2016-04-29,0.6,0.6,0.6,0.6,159100,0.6
2016-05-02,0.61,0.65,0.61,0.65,131600,0.65
2016-05-03,0.64,0.65,0.64,0.65,55300,0.65
2016-05-04,0.635,0.64,0.62,0.62,26000,0.62
2016-05-05,0.62,0.64,0.61,0.64,6500,0.64
2016-05-06,0.63,0.63,0.61,0.63,31000,0.63
2016-05-09,0.63,0.63,0.63,0.63,0,0.63
2016-05-10,0.62,0.64,0.62,0.64,36700,0.64
2016-05-11,0.64,0.64,0.63,0.63,60000,0.63
2016-05-12,0.63,0.63,0.63,0.63,0,0.63
2016-05-13,0.63,0.645,0.6,0.645,170000,0.645
2016-05-16,0.645,0.65,0.645,0.645,80000,0.645
2016-05-17,0.645,0.645,0.64,0.64,40000,0.64
2016-05-18,0.64,0.64,0.64,0.64,0,0.64
2016-05-19,0.635,0.64,0.615,0.615,24700,0.615
2016-05-20,0.625,0.645,0.61,0.645,54800,0.645
2016-05-23,0.645,0.645,0.645,0.645,11700,0.645
2016-05-24,0.61,0.635,0.6,0.635,90700,0.635
2016-05-25,0.635,0.635,0.635,0.635,700,0.635
2016-05-26,0.635,0.645,0.635,0.64,250800,0.64
2016-05-27,0.645,0.645,0.64,0.645,40000,0.645
2016-05-30,0.645,0.645,0.645,0.645,3100,0.645
2016-05-31,0.63,0.63,0.625,0.625,100000,0.625
2016-06-01,0.625,0.625,0.625,0.625,0,0.625
2016-06-02,0.625,0.625,0.625,0.625,0,0.625
2016-06-03,0.625,0.625,0.625,0.625,204200,0.625
2016-06-06,0.62,0.62,0.58,0.58,391400,0.58
2016-06-07,0.6,0.6,0.6,0.6,7500,0.6
2016-06-08,0.61,0.61,0.6,0.6,33200,0.6
2016-06-09,0.6,0.62,0.6,0.6,95300,0.6
2016-06-10,0.6,0.6,0.6,0.6,0,0.6
2016-06-13,0.6,0.6,0.6,0.6,0,0.6
2016-06-14,0.6,0.6,0.6,0.6,100000,0.6
2016-06-15,0.615,0.62,0.59,0.59,38900,0.59
2016-06-16,0.605,0.605,0.605,0.605,40000,0.605
2016-06-17,0.6,0.6,0.6,0.6,17000,0.6
2016-06-20,0.59,0.59,0.57,0.57,79100,0.57
2016-06-21,0.57,0.57,0.57,0.57,44200,0.57
2016-06-22,0.57,0.57,0.56,0.57,13400,0.57
2016-06-23,0.57,0.57,0.57,0.57,0,0.57
2016-06-24,0.57,0.57,0.54,0.55,158200,0.55
2016-06-27,0.55,0.55,0.55,0.55,13800,0.55
2016-06-28,0.55,0.55,0.55,0.55,0,0.55
2016-06-29,0.57,0.57,0.56,0.56,8500,0.56
2016-06-30,0.56,0.56,0.56,0.56,50000,0.56
2016-07-01,0.54,0.54,0.54,0.54,30000,0.54
2016-07-04,0.54,0.54,0.54,0.54,0,0.54
2016-07-05,0.57,0.57,0.57,0.57,40000,0.57
2016-07-06,0.57,0.57,0.57,0.57,4200,0.57
2016-07-07,0.56,0.56,0.56,0.56,1700,0.56
2016-07-08,0.55,0.55,0.55,0.55,592000,0.55
2016-07-11,0.55,0.55,0.525,0.54,262000,0.54
2016-07-12,0.55,0.55,0.55,0.55,168000,0.55
2016-07-13,0.55,0.55,0.55,0.55,0,0.55
2016-07-14,0.55,0.55,0.54,0.54,21800,0.54
2016-07-15,0.55,0.55,0.54,0.54,21300,0.54
2016-07-18,0.54,0.54,0.54,0.54,0,0.54
2016-07-19,0.54,0.54,0.54,0.54,0,0.54
2016-07-20,0.53,0.53,0.5,0.51,88800,0.51
2016-07-21,0.51,0.54,0.51,0.54,23000,0.54
2016-07-22,0.52,0.53,0.52,0.53,27800,0.53
2016-07-25,0.53,0.53,0.53,0.53,0,0.53
2016-07-26,0.53,0.53,0.53,0.53,0,0.53
2016-07-27,0.5,0.5,0.5,0.5,3000,0.5
2016-07-28,0.5,0.5,0.5,0.5,0,0.5
2016-07-29,0.52,0.52,0.51,0.515,76000,0.515
2016-08-01,0.53,0.54,0.53,0.54,36100,0.54
2016-08-02,0.54,0.55,0.54,0.55,28000,0.55
2016-08-03,0.6,0.6,0.55,0.55,4600,0.55
2016-08-04,0.55,0.55,0.55,0.55,45000,0.55
2016-08-05,0.55,0.58,0.53,0.58,28500,0.58
2016-08-08,0.58,0.58,0.58,0.58,0,0.58
2016-08-09,0.58,0.58,0.58,0.58,0,0.58
2016-08-10,0.59,0.59,0.53,0.535,14700,0.535
2016-08-11,0.56,0.56,0.535,0.535,300,0.535
2016-08-12,0.535,0.55,0.535,0.55,22300,0.55
2016-08-15,0.55,0.55,0.53,0.535,40200,0.535
2016-08-16,0.535,0.535,0.535,0.535,0,0.535
2016-08-17,0.55,0.55,0.54,0.54,91900,0.54
2016-08-18,0.535,0.535,0.535,0.535,14500,0.535
2016-08-19,0.535,0.535,0.535,0.535,15600,0.535
2016-08-22,0.55,0.55,0.54,0.54,84400,0.54
2016-08-23,0.54,0.54,0.54,0.54,3000,0.54
2016-08-24,0.535,0.535,0.53,0.53,5000,0.53
2016-08-25,0.515,0.52,0.515,0.515,26700,0.515
2016-08-26,0.52,0.55,0.52,0.55,83400,0.55
2016-08-29,0.55,0.55,0.55,0.55,0,0.55
2016-08-30,0.55,0.55,0.53,0.53,83500,0.53
2016-08-31,0.53,0.55,0.53,0.54,129000,0.54
2016-09-01,0.54,0.54,0.54,0.54,18000,0.54
2016-09-02,0.55,0.55,0.53,0.53,56000,0.53
2016-09-05,0.53,0.53,0.53,0.53,4300,0.53
2016-09-06,0.55,0.55,0.55,0.55,165800,0.55
2016-09-07,0.55,0.55,0.55,0.55,0,0.55
2016-09-08,0.54,0.54,0.54,0.54,37000,0.54
2016-09-09,0.53,0.53,0.53,0.53,8000,0.53
2016-09-12,0.53,0.53,0.53,0.53,0,0.53
2016-09-13,0.54,0.54,0.54,0.54,20000,0.54
2016-09-14,0.55,0.55,0.55,0.55,9200,0.55
2016-09-15,0.53,0.53,0.53,0.53,2000,0.53
2016-09-16,0.53,0.53,0.53,0.53,37400,0.53
2016-09-19,0.53,0.55,0.53,0.55,9300,0.55
2016-09-20,0.55,0.55,0.55,0.55,51100,0.55
2016-09-21,0.535,0.55,0.53,0.53,30300,0.53
2016-09-22,0.53,0.53,0.53,0.53,28600,0.53
2016-09-23,0.52,0.54,0.52,0.54,66300,0.54
2016-09-26,0.55,0.55,0.55,0.55,23600,0.55
2016-09-27,0.54,0.545,0.54,0.545,58200,0.545
2016-09-28,0.55,0.55,0.54,0.545,112900,0.545
2016-09-29,0.545,0.545,0.52,0.52,76500,0.52
2016-09-30,0.535,0.535,0.52,0.53,93900,0.53
2016-10-03,0.54,0.54,0.54,0.54,1800,0.54
2016-10-04,0.54,0.54,0.54,0.54,0,0.54
2016-10-05,0.54,0.54,0.54,0.54,0,0.54
2016-10-06,0.54,0.54,0.54,0.54,0,0.54
2016-10-07,0.525,0.525,0.525,0.525,51200,0.525
2016-10-10,0.52,0.53,0.515,0.525,31800,0.525
2016-10-11,0.525,0.525,0.525,0.525,4500,0.525
2016-10-12,0.525,0.525,0.525,0.525,0,0.525
2016-10-13,0.515,0.515,0.515,0.515,12000,0.515
2016-10-14,0.525,0.53,0.525,0.53,4000,0.53
2016-10-17,0.525,0.53,0.525,0.525,22200,0.525
2016-10-18,0.53,0.53,0.53,0.53,7200,0.53
2016-10-19,0.53,0.53,0.525,0.525,18000,0.525
2016-10-20,0.52,0.53,0.515,0.52,84800,0.52
2016-10-21,0.52,0.52,0.505,0.505,81800,0.505
2016-10-24,0.505,0.515,0.505,0.51,203200,0.51
2016-10-25,0.515,0.515,0.51,0.51,54300,0.51
2016-10-26,0.505,0.505,0.5,0.5,59400,0.5
2016-10-27,0.505,0.505,0.505,0.505,25900,0.505
2016-10-28,0.505,0.515,0.5,0.515,170000,0.515
2016-10-31,0.515,0.515,0.505,0.505,75900,0.505
2016-11-01,0.515,0.515,0.5,0.5,44800,0.5
2016-11-02,0.515,0.515,0.5,0.5,57600,0.5
2016-11-03,0.5,0.5,0.5,0.5,0,0.5
2016-11-04,0.5,0.51,0.5,0.51,4400,0.51
2016-11-07,0.5,0.5,0.48,0.5,21000,0.5
2016-11-08,0.5,0.51,0.5,0.51,20000,0.51
2016-11-09,0.51,0.51,0.51,0.51,10000,0.51
2016-11-10,0.51,0.51,0.51,0.51,0,0.51
2016-11-11,0.51,0.51,0.51,0.51,0,0.51
2016-11-14,0.49,0.49,0.49,0.49,17100,0.49
2016-11-15,0.49,0.5,0.48,0.5,37200,0.5
2016-11-16,0.5,0.5,0.5,0.5,0,0.5
2016-11-17,0.495,0.495,0.495,0.495,1000,0.495
2016-11-18,0.5,0.505,0.5,0.505,23000,0.505
2016-11-21,0.505,0.505,0.505,0.505,0,0.505
2016-11-22,0.505,0.505,0.505,0.505,0,0.505
2016-11-23,0.505,0.505,0.505,0.505,0,0.505
2016-11-24,0.505,0.505,0.505,0.505,0,0.505
2016-11-25,0.505,0.505,0.505,0.505,0,0.505
2016-11-28,0.505,0.505,0.505,0.505,0,0.505
2016-11-29,0.485,0.485,0.46,0.46,71100,0.46
2016-11-30,0.47,0.49,0.47,0.49,50000,0.49
2016-12-01,0.495,0.495,0.49,0.49,46600,0.49
2016-12-02,0.46,0.46,0.46,0.46,2000,0.46
2016-12-05,0.46,0.46,0.46,0.46,0,0.46
2016-12-06,0.46,0.46,0.46,0.46,0,0.46
2016-12-07,0.5,0.5,0.5,0.5,42900,0.5
2016-12-08,0.5,0.5,0.5,0.5,0,0.5
2016-12-09,0.495,0.495,0.49,0.49,57500,0.49
2016-12-12,0.49,0.49,0.49,0.49,0,0.49
2016-12-13,0.49,0.5,0.49,0.49,25000,0.49
2016-12-14,0.49,0.49,0.48,0.48,31000,0.48
2016-12-15,0.48,0.48,0.45,0.45,104700,0.45
2016-12-16,0.47,0.47,0.47,0.47,8000,0.47
2016-12-19,0.47,0.47,0.47,0.47,13000,0.47
2016-12-20,0.47,0.48,0.47,0.47,30700,0.47
2016-12-21,0.47,0.47,0.47,0.47,12800,0.47
2016-12-22,0.47,0.47,0.47,0.47,37000,0.47
2016-12-23,0.47,0.48,0.47,0.48,25100,0.48
2016-12-26,0.48,0.48,0.48,0.48,0,0.48
2016-12-27,0.48,0.48,0.48,0.48,0,0.48
2016-12-28,0.48,0.48,0.48,0.48,0,0.48
2016-12-29,0.48,0.48,0.48,0.48,20000,0.48
2016-12-30,0.47,0.49,0.47,0.49,16000,0.49
