Date,Open,High,Low,Close,Volume,Adj Close
2008-05-23,0.54,0.61,0.46,0.6,202500,4.2
2008-05-26,0.66,0.8,0.65,0.76,168700,5.32
2008-05-27,0.83,0.85,0.65,0.655,121200,4.585
2008-05-28,0.67,0.73,0.67,0.67,75100,4.69
2008-05-29,0.7,0.7,0.65,0.7,34200,4.9
2008-05-30,0.7,0.71,0.69,0.71,38800,4.97
2008-06-02,0.71,0.71,0.69,0.69,9500,4.83
2008-06-03,0.7,0.72,0.68,0.68,25100,4.76
2008-06-04,0.68,0.7,0.68,0.685,13700,4.795
2008-06-05,0.68,0.685,0.64,0.64,6900,4.48
2008-06-06,0.645,0.685,0.6,0.675,22100,4.725
2008-06-10,0.68,0.68,0.62,0.62,17300,4.34
2008-06-11,0.62,0.68,0.62,0.64,24400,4.48
2008-06-12,0.67,0.67,0.6,0.615,21100,4.305
2008-06-13,0.61,0.625,0.6,0.6,14100,4.2
2008-06-16,0.625,0.68,0.6,0.62,21500,4.34
2008-06-17,0.62,0.62,0.55,0.6,14600,4.2
2008-06-18,0.65,0.65,0.56,0.56,23700,3.92
2008-06-19,0.59,0.59,0.55,0.55,11900,3.85
2008-06-20,0.55,0.55,0.55,0.55,0,3.85
2008-06-23,0.53,0.53,0.52,0.52,4200,3.64
2008-06-24,0.505,0.505,0.49,0.49,6900,3.43
2008-06-25,0.49,0.5,0.48,0.5,3000,3.5
2008-06-26,0.49,0.49,0.45,0.47,6800,3.29
2008-06-27,0.475,0.5,0.47,0.495,10100,3.465
2008-06-30,0.55,0.55,0.48,0.48,5400,3.36
2008-07-01,0.49,0.55,0.49,0.53,22600,3.71
2008-07-02,0.55,0.585,0.55,0.55,17000,3.85
2008-07-03,0.55,0.55,0.52,0.53,41800,3.71
2008-07-04,0.53,0.53,0.525,0.53,13500,3.71
2008-07-07,0.54,0.54,0.51,0.53,23000,3.71
2008-07-08,0.53,0.54,0.51,0.525,17600,3.675
2008-07-09,0.525,0.525,0.485,0.51,5200,3.57
2008-07-10,0.5,0.53,0.5,0.5,13200,3.5
2008-07-11,0.51,0.53,0.51,0.53,5500,3.71
2008-07-14,0.54,0.55,0.51,0.53,32700,3.71
2008-07-15,0.54,0.54,0.515,0.515,0,3.605
2008-07-16,0.515,0.515,0.5,0.5,116300,3.5
2008-07-17,0.5,0.5,0.48,0.48,2500,3.36
2008-07-18,0.48,0.5,0.48,0.49,7500,3.43
2008-07-21,0.51,0.52,0.5,0.52,17400,3.64
2008-07-22,0.51,0.52,0.5,0.52,10600,3.64
2008-07-23,0.52,0.55,0.52,0.55,21400,3.85
2008-07-24,0.55,0.55,0.52,0.55,22100,3.85
2008-07-25,0.54,0.54,0.505,0.505,1700,3.535
2008-07-28,0.51,0.51,0.505,0.51,2700,3.57
2008-07-29,0.52,0.52,0.495,0.52,13200,3.64
2008-07-30,0.5,0.5,0.5,0.5,4200,3.5
2008-07-31,0.5,0.5,0.49,0.5,9200,3.5
2008-08-01,0.49,0.49,0.49,0.49,4200,3.43
2008-08-04,0.48,0.48,0.44,0.48,14700,3.36
2008-08-05,0.44,0.46,0.41,0.44,21400,3.08
2008-08-06,0.435,0.435,0.435,0.435,3200,3.045
2008-08-07,0.435,0.435,0.435,0.435,0,3.045
2008-08-08,0.41,0.41,0.38,0.4,10200,2.8
2008-08-11,0.435,0.435,0.435,0.435,2500,3.045
2008-08-12,0.38,0.38,0.38,0.38,2800,2.66
2008-08-13,0.38,0.38,0.37,0.37,0,2.59
2008-08-14,0.395,0.4,0.38,0.38,13200,2.66
2008-08-15,0.38,0.38,0.38,0.38,6400,2.66
2008-08-18,0.4,0.43,0.385,0.385,5000,2.695
2008-08-19,0.385,0.4,0.38,0.4,7800,2.8
2008-08-20,0.39,0.39,0.39,0.39,1400,2.73
2008-08-21,0.39,0.39,0.38,0.38,1700,2.66
2008-08-22,0.43,0.43,0.38,0.38,0,2.66
2008-08-25,0.38,0.38,0.38,0.38,1700,2.66
2008-08-26,0.385,0.385,0.35,0.355,18700,2.485
2008-08-27,0.355,0.365,0.35,0.35,31600,2.45
2008-08-28,0.365,0.37,0.355,0.355,9600,2.485
2008-08-29,0.355,0.37,0.35,0.35,40000,2.45
2008-09-01,0.38,0.38,0.37,0.37,8000,2.59
2008-09-02,0.36,0.36,0.35,0.35,10000,2.45
2008-09-03,0.365,0.365,0.34,0.34,6100,2.38
2008-09-04,0.315,0.34,0.315,0.34,13900,2.38
2008-09-05,0.35,0.35,0.35,0.35,2800,2.45
2008-09-08,0.55,0.59,0.45,0.495,74800,3.465
2008-09-09,0.5,0.5,0.4,0.415,45300,2.905
2008-09-10,0.42,0.48,0.42,0.46,15100,3.22
2008-09-11,0.44,0.44,0.4,0.4,44100,2.8
2008-09-12,0.395,0.45,0.395,0.45,17100,3.15
2008-09-15,0.55,0.6,0.48,0.48,335600,3.36
2008-09-16,0.49,0.49,0.46,0.465,53500,3.255
2008-09-17,0.49,0.5,0.475,0.49,45000,3.43
2008-09-18,0.44,0.45,0.4,0.45,24600,3.15
2008-09-19,0.46,0.46,0.42,0.43,20500,3.01
2008-09-22,0.46,0.47,0.44,0.47,46600,3.29
2008-09-23,0.44,0.45,0.43,0.445,54000,3.115
2008-09-24,0.445,0.445,0.435,0.445,6000,3.115
2008-09-25,0.435,0.45,0.43,0.43,3200,3.01
2008-09-26,0.45,0.45,0.435,0.45,3600,3.15
2008-09-29,0.45,0.48,0.45,0.48,29600,3.36
2008-09-30,0.45,0.465,0.43,0.43,25700,3.01
2008-10-01,0.45,0.45,0.43,0.435,2600,3.045
2008-10-02,0.44,0.44,0.42,0.42,14200,2.94
2008-10-03,0.4,0.4,0.4,0.4,4100,2.8
2008-10-06,0.42,0.42,0.39,0.41,3800,2.87
2008-10-07,0.4,0.4,0.375,0.39,13700,2.73
2008-10-08,0.385,0.385,0.335,0.335,14400,2.345
2008-10-09,0.34,0.34,0.32,0.33,8000,2.31
2008-10-10,0.32,0.32,0.295,0.3,21600,2.1
2008-10-13,0.32,0.33,0.305,0.315,5800,2.205
2008-10-14,0.325,0.345,0.325,0.33,14600,2.31
2008-10-15,0.335,0.335,0.33,0.33,9200,2.31
2008-10-16,0.32,0.32,0.28,0.3,30400,2.1
2008-10-17,0.29,0.3,0.28,0.28,8500,1.96
2008-10-20,0.3,0.32,0.28,0.28,6600,1.96
2008-10-21,0.29,0.3,0.29,0.3,3800,2.1
2008-10-22,0.3,0.3,0.29,0.29,0,2.03
2008-10-23,0.295,0.295,0.275,0.28,16600,1.96
2008-10-24,0.285,0.285,0.275,0.275,3200,1.925
2008-10-27,0.26,0.26,0.23,0.235,20100,1.645
2008-10-28,0.235,0.235,0.235,0.235,6400,1.645
2008-10-29,0.235,0.235,0.21,0.22,31200,1.54
2008-10-30,0.255,0.255,0.21,0.25,21700,1.75
2008-10-31,0.215,0.22,0.2,0.2,27400,1.4
2008-11-03,0.23,0.255,0.22,0.23,73500,1.61
2008-11-04,0.25,0.25,0.24,0.24,4000,1.68
2008-11-05,0.24,0.24,0.205,0.205,39400,1.435
2008-11-06,0.21,0.21,0.19,0.19,38200,1.33
2008-11-07,0.19,0.19,0.19,0.19,12000,1.33
2008-11-10,0.2,0.2,0.19,0.195,7700,1.365
2008-11-11,0.2,0.2,0.2,0.2,13400,1.4
2008-11-12,0.2,0.2,0.19,0.2,19300,1.4
2008-11-13,0.2,0.2,0.18,0.18,23300,1.26
2008-11-14,0.18,0.18,0.18,0.18,18500,1.26
2008-11-17,0.18,0.2,0.17,0.19,21100,1.33
2008-11-18,0.25,0.25,0.21,0.22,47200,1.54
2008-11-19,0.245,0.245,0.2,0.2,73700,1.4
2008-11-20,0.21,0.21,0.2,0.21,15300,1.47
2008-11-21,0.2,0.22,0.195,0.2,12400,1.4
2008-11-24,0.22,0.22,0.22,0.22,12900,1.54
2008-11-25,0.215,0.215,0.19,0.19,16700,1.33
2008-11-26,0.2,0.2,0.19,0.19,15800,1.33
2008-11-27,0.185,0.185,0.18,0.18,15200,1.26
2008-11-28,0.185,0.185,0.18,0.18,8300,1.26
2008-12-01,0.19,0.21,0.185,0.185,207200,1.295
2008-12-02,0.185,0.19,0.185,0.19,35400,1.33
2008-12-03,0.19,0.19,0.175,0.175,12800,1.225
2008-12-04,0.19,0.19,0.175,0.175,0,1.225
2008-12-05,0.18,0.18,0.17,0.17,22000,1.19
2008-12-08,0.17,0.19,0.17,0.185,22400,1.295
2008-12-09,0.185,0.185,0.185,0.185,26000,1.295
2008-12-10,0.185,0.185,0.175,0.175,27000,1.225
2008-12-11,0.18,0.18,0.175,0.175,5200,1.225
2008-12-12,0.18,0.18,0.17,0.17,57900,1.19
2008-12-15,0.175,0.175,0.175,0.175,6500,1.225
2008-12-16,0.175,0.175,0.175,0.175,800,1.225
2008-12-17,0.175,0.175,0.17,0.175,15100,1.225
2008-12-18,0.175,0.175,0.17,0.17,11600,1.19
2008-12-19,0.175,0.18,0.175,0.175,10800,1.225
2008-12-22,0.18,0.18,0.18,0.18,2900,1.26
2008-12-23,0.175,0.175,0.175,0.175,5100,1.225
2008-12-24,0.175,0.18,0.175,0.18,2800,1.26
2008-12-29,0.18,0.19,0.18,0.19,29000,1.33
2008-12-30,0.175,0.175,0.17,0.17,12900,1.19
2008-12-31,0.18,0.18,0.17,0.17,6000,1.19
2009-01-02,0.18,0.2,0.18,0.195,43900,1.365
2009-01-05,0.215,0.25,0.215,0.22,110800,1.54
2009-01-06,0.23,0.29,0.23,0.28,33500,1.96
2009-01-07,0.285,0.295,0.275,0.295,16300,2.065
2009-01-08,0.28,0.28,0.245,0.25,30200,1.75
2009-01-09,0.26,0.27,0.255,0.255,7500,1.785
2009-01-12,0.28,0.28,0.26,0.26,0,1.82
2009-01-13,0.29,0.29,0.2,0.22,115600,1.54
2009-01-14,0.225,0.23,0.185,0.21,112500,1.47
2009-01-15,0.2,0.2,0.185,0.2,20300,1.4
2009-01-16,0.2,0.205,0.2,0.205,1400,1.435
2009-01-19,0.2,0.2,0.19,0.2,6000,1.4
2009-01-20,0.2,0.2,0.185,0.185,26500,1.295
2009-01-21,0.185,0.185,0.18,0.18,13600,1.26
2009-01-22,0.18,0.185,0.18,0.185,13600,1.295
2009-01-23,0.18,0.18,0.175,0.175,2200,1.225
2009-01-27,0.18,0.18,0.175,0.18,7500,1.26
2009-01-28,0.18,0.18,0.17,0.18,23900,1.26
2009-01-29,0.18,0.18,0.18,0.18,3100,1.26
2009-01-30,0.18,0.18,0.18,0.18,0,1.26
2009-02-02,0.18,0.18,0.18,0.18,11100,1.26
2009-02-03,0.18,0.18,0.18,0.18,6400,1.26
2009-02-04,0.185,0.185,0.18,0.18,0,1.26
2009-02-05,0.18,0.185,0.18,0.185,7300,1.295
2009-02-06,0.185,0.185,0.17,0.18,13600,1.26
2009-02-09,0.18,0.18,0.18,0.18,2200,1.26
2009-02-10,0.19,0.21,0.19,0.21,14900,1.47
2009-02-11,0.21,0.21,0.21,0.21,2100,1.47
2009-02-12,0.19,0.19,0.19,0.19,7100,1.33
2009-02-13,0.19,0.19,0.19,0.19,1600,1.33
2009-02-16,0.21,0.22,0.21,0.22,1700,1.54
2009-02-17,0.22,0.22,0.22,0.22,0,1.54
2009-02-18,0.22,0.22,0.22,0.22,0,1.54
2009-02-19,0.19,0.19,0.185,0.185,5200,1.295
2009-02-20,0.19,0.19,0.185,0.185,4100,1.295
2009-02-23,0.18,0.18,0.18,0.18,5700,1.26
2009-02-24,0.18,0.18,0.18,0.18,700,1.26
2009-02-25,0.18,0.18,0.18,0.18,13200,1.26
2009-02-26,0.19,0.19,0.19,0.19,700,1.33
2009-02-27,0.18,0.18,0.18,0.18,1500,1.26
2009-03-02,0.195,0.22,0.195,0.22,65900,1.54
2009-03-03,0.215,0.22,0.2,0.22,20000,1.54
2009-03-04,0.22,0.22,0.185,0.22,22900,1.54
2009-03-05,0.23,0.23,0.21,0.21,15700,1.47
2009-03-06,0.205,0.21,0.18,0.2,35800,1.4
2009-03-09,0.2,0.2,0.195,0.195,4700,1.365
2009-03-10,0.195,0.195,0.195,0.195,14200,1.365
2009-03-11,0.19,0.19,0.185,0.185,4000,1.295
2009-03-12,0.19,0.19,0.19,0.19,2800,1.33
2009-03-13,0.195,0.195,0.185,0.185,0,1.295
2009-03-16,0.19,0.2,0.175,0.2,48500,1.4
2009-03-17,0.2,0.2,0.2,0.2,0,1.4
2009-03-18,0.18,0.2,0.18,0.2,13300,1.4
2009-03-19,0.2,0.2,0.2,0.2,1200,1.4
2009-03-20,0.2,0.2,0.2,0.2,0,1.4
2009-03-23,0.18,0.185,0.175,0.185,16400,1.295
2009-03-24,0.185,0.19,0.185,0.185,5800,1.295
2009-03-25,0.19,0.195,0.19,0.195,2800,1.365
2009-03-26,0.195,0.195,0.195,0.195,0,1.365
2009-03-27,0.195,0.2,0.195,0.2,12700,1.4
2009-03-30,0.2,0.22,0.2,0.22,18500,1.54
2009-03-31,0.21,0.21,0.19,0.19,17700,1.33
2009-04-01,0.2,0.2,0.2,0.2,14200,1.4
2009-04-02,0.21,0.21,0.2,0.2,4500,1.4
2009-04-03,0.21,0.21,0.2,0.2,7400,1.4
2009-04-06,0.21,0.21,0.18,0.2,49500,1.4
2009-04-07,0.19,0.19,0.19,0.19,1700,1.33
2009-04-08,0.195,0.2,0.195,0.2,2100,1.4
2009-04-09,0.2,0.21,0.2,0.2,8700,1.4
2009-04-14,0.2,0.2,0.2,0.2,2100,1.4
2009-04-15,0.2,0.2,0.2,0.2,4200,1.4
2009-04-16,0.205,0.205,0.2,0.2,14500,1.4
2009-04-17,0.195,0.21,0.195,0.21,10600,1.47
2009-04-20,0.21,0.215,0.21,0.215,12400,1.505
2009-04-21,0.22,0.22,0.22,0.22,8500,1.54
2009-04-22,0.22,0.28,0.22,0.25,66100,1.75
2009-04-23,0.27,0.29,0.26,0.29,106200,2.03
2009-04-24,0.29,0.31,0.26,0.28,60300,1.96
2009-04-27,0.275,0.275,0.25,0.25,19700,1.75
2009-04-28,0.25,0.25,0.24,0.24,12300,1.68
2009-04-29,0.24,0.275,0.24,0.275,12100,1.925
2009-04-30,0.27,0.32,0.27,0.29,13800,2.03
2009-05-01,0.29,0.32,0.29,0.31,30300,2.17
2009-05-04,0.33,0.36,0.33,0.35,58000,2.45
2009-05-05,0.37,0.39,0.35,0.35,58500,2.45
2009-05-06,0.35,0.35,0.3,0.325,21800,2.275
2009-05-07,0.35,0.35,0.34,0.34,11500,2.38
2009-05-08,0.35,0.35,0.325,0.325,19400,2.275
2009-05-11,0.33,0.33,0.32,0.33,10300,2.31
2009-05-12,0.33,0.33,0.29,0.29,22700,2.03
2009-05-13,0.29,0.29,0.29,0.29,0,2.03
2009-05-14,0.34,0.4,0.34,0.34,93500,2.38
2009-05-15,0.37,0.37,0.37,0.37,14000,2.59
2009-05-18,0.37,0.37,0.37,0.37,4200,2.59
2009-05-19,0.38,0.38,0.31,0.31,18300,2.17
2009-05-20,0.315,0.35,0.295,0.295,18200,2.065
2009-05-21,0.315,0.335,0.305,0.335,7300,2.345
2009-05-22,0.33,0.33,0.32,0.325,18200,2.275
2009-05-25,0.325,0.35,0.32,0.35,10000,2.45
2009-05-26,0.36,0.38,0.35,0.38,69100,2.66
2009-05-27,0.4,0.41,0.37,0.37,42300,2.59
2009-05-28,0.35,0.395,0.35,0.355,2100,2.485
2009-05-29,0.365,0.385,0.365,0.385,14000,2.695
2009-06-01,0.385,0.39,0.37,0.37,17600,2.59
2009-06-02,0.37,0.39,0.37,0.39,4900,2.73
2009-06-03,0.35,0.35,0.32,0.33,111400,2.31
2009-06-04,0.32,0.32,0.32,0.32,17100,2.24
2009-06-05,0.34,0.37,0.34,0.37,26000,2.59
2009-06-09,0.37,0.37,0.35,0.35,12500,2.45
2009-06-10,0.33,0.35,0.33,0.35,11800,2.45
2009-06-11,0.325,0.33,0.32,0.325,17200,2.275
2009-06-12,0.33,0.34,0.33,0.34,13300,2.38
2009-06-15,0.34,0.34,0.32,0.325,18400,2.275
2009-06-16,0.325,0.335,0.32,0.32,6100,2.24
2009-06-17,0.32,0.32,0.31,0.31,15900,2.17
2009-06-18,0.33,0.33,0.305,0.305,15000,2.135
2009-06-19,0.305,0.305,0.29,0.29,54200,2.03
2009-06-22,0.3,0.3,0.28,0.28,2000,1.96
2009-06-23,0.26,0.29,0.23,0.29,44500,2.03
2009-06-24,0.25,0.3,0.25,0.255,15000,1.785
2009-06-25,0.3,0.3,0.26,0.26,7100,1.82
2009-06-26,0.3,0.3,0.29,0.29,18800,2.03
2009-06-29,0.29,0.29,0.27,0.27,2000,1.89
2009-06-30,0.27,0.27,0.265,0.265,11200,1.855
2009-07-01,0.285,0.29,0.285,0.29,1100,2.03
2009-07-02,0.29,0.29,0.28,0.28,5200,1.96
2009-07-03,0.28,0.28,0.27,0.275,5700,1.925
2009-07-06,0.275,0.275,0.27,0.27,0,1.89
2009-07-07,0.275,0.275,0.27,0.27,2400,1.89
2009-07-08,0.27,0.275,0.27,0.275,5700,1.925
2009-07-09,0.275,0.275,0.25,0.25,7100,1.75
2009-07-10,0.265,0.28,0.265,0.28,9200,1.96
2009-07-13,0.28,0.28,0.28,0.28,0,1.96
2009-07-14,0.28,0.28,0.28,0.28,0,1.96
2009-07-15,0.305,0.305,0.25,0.275,204200,1.925
2009-07-16,0.275,0.345,0.27,0.335,96500,2.345
2009-07-17,0.34,0.35,0.325,0.34,181500,2.38
2009-07-20,0.335,0.335,0.28,0.28,44200,1.96
2009-07-21,0.29,0.29,0.25,0.265,179600,1.855
2009-07-22,0.265,0.275,0.25,0.26,125600,1.82
2009-07-23,0.255,0.265,0.25,0.26,57000,1.82
2009-07-24,0.275,0.285,0.26,0.265,112100,1.855
2009-07-27,0.265,0.27,0.265,0.265,18300,1.855
2009-07-28,0.265,0.27,0.255,0.27,37700,1.89
2009-07-29,0.27,0.28,0.255,0.265,43000,1.855
2009-07-30,0.265,0.265,0.26,0.26,23100,1.82
2009-07-31,0.26,0.26,0.255,0.26,42800,1.82
2009-08-03,0.26,0.265,0.25,0.26,61000,1.82
2009-08-04,0.26,0.26,0.255,0.255,48900,1.785
2009-08-05,0.26,0.26,0.255,0.255,8300,1.785
2009-08-06,0.255,0.255,0.255,0.255,7200,1.785
2009-08-07,0.26,0.265,0.26,0.26,8400,1.82
2009-08-10,0.26,0.265,0.255,0.265,18400,1.855
2009-08-11,0.26,0.265,0.255,0.255,12800,1.785
2009-08-12,0.265,0.27,0.25,0.255,32100,1.785
2009-08-13,0.26,0.265,0.255,0.255,14500,1.785
2009-08-14,0.255,0.255,0.245,0.25,29600,1.75
2009-08-17,0.255,0.255,0.25,0.25,600,1.75
2009-08-18,0.25,0.25,0.245,0.245,6600,1.715
2009-08-19,0.245,0.245,0.24,0.245,10700,1.715
2009-08-20,0.245,0.25,0.245,0.25,7300,1.75
2009-08-21,0.25,0.25,0.24,0.24,18500,1.68
2009-08-24,0.24,0.245,0.24,0.24,12100,1.68
2009-08-25,0.24,0.24,0.235,0.235,1900,1.645
2009-08-26,0.235,0.245,0.235,0.235,2400,1.645
2009-08-27,0.24,0.245,0.24,0.245,26200,1.715
2009-08-28,0.25,0.25,0.235,0.235,26700,1.645
2009-08-31,0.235,0.24,0.235,0.24,10200,1.68
2009-09-01,0.23,0.23,0.23,0.23,6800,1.61
2009-09-02,0.23,0.23,0.225,0.225,5500,1.575
2009-09-03,0.225,0.24,0.225,0.225,13500,1.575
2009-09-04,0.225,0.23,0.21,0.21,42100,1.47
2009-09-07,0.21,0.22,0.205,0.205,65700,1.435
2009-09-08,0.215,0.22,0.21,0.22,53900,1.54
2009-09-09,0.24,0.255,0.23,0.25,136200,1.75
2009-09-10,0.265,0.295,0.265,0.295,286700,2.065
2009-09-11,0.3,0.305,0.28,0.29,133300,2.03
2009-09-14,0.29,0.29,0.28,0.28,41300,1.96
2009-09-15,0.28,0.29,0.28,0.28,127600,1.96
2009-09-16,0.29,0.295,0.275,0.275,70300,1.925
2009-09-17,0.28,0.28,0.275,0.275,17600,1.925
2009-09-18,0.245,0.26,0.23,0.255,272200,1.785
2009-09-21,0.25,0.26,0.25,0.26,114300,1.82
2009-09-22,0.255,0.255,0.25,0.25,150600,1.75
2009-09-23,0.25,0.25,0.245,0.25,82300,1.75
2009-09-24,0.25,0.25,0.245,0.25,39200,1.75
2009-09-25,0.245,0.245,0.23,0.245,97500,1.715
2009-09-28,0.245,0.245,0.24,0.24,7600,1.68
2009-09-29,0.245,0.255,0.245,0.245,86600,1.715
2009-09-30,0.24,0.25,0.235,0.245,39000,1.715
2009-10-01,0.235,0.245,0.235,0.24,19700,1.68
2009-10-02,0.235,0.245,0.235,0.235,46200,1.645
2009-10-05,0.235,0.235,0.235,0.235,0,1.645
2009-10-06,0.245,0.245,0.24,0.24,47300,1.68
2009-10-07,0.24,0.25,0.24,0.24,43300,1.68
2009-10-08,0.235,0.235,0.23,0.23,6700,1.61
2009-10-09,0.24,0.26,0.24,0.25,155200,1.75
2009-10-12,0.25,0.26,0.245,0.26,55700,1.82
2009-10-13,0.25,0.26,0.245,0.25,53400,1.75
2009-10-14,0.265,0.265,0.25,0.255,40200,1.785
2009-10-15,0.265,0.27,0.26,0.265,52800,1.855
2009-10-16,0.27,0.285,0.265,0.285,94200,1.995
2009-10-19,0.285,0.285,0.27,0.27,21700,1.89
2009-10-20,0.27,0.285,0.27,0.27,35600,1.89
2009-10-21,0.275,0.28,0.275,0.275,23700,1.925
2009-10-22,0.27,0.28,0.27,0.275,63900,1.925
2009-10-23,0.27,0.275,0.255,0.26,35600,1.82
2009-10-26,0.26,0.275,0.26,0.265,25400,1.855
2009-10-27,0.275,0.275,0.265,0.27,28300,1.89
2009-10-28,0.275,0.275,0.265,0.265,34500,1.855
2009-10-29,0.26,0.26,0.255,0.26,48400,1.82
2009-10-30,0.26,0.265,0.26,0.265,7400,1.855
2009-11-02,0.26,0.26,0.24,0.24,43200,1.68
2009-11-03,0.23,0.255,0.23,0.23,27300,1.61
2009-11-04,0.23,0.23,0.23,0.23,16100,1.61
2009-11-05,0.23,0.235,0.225,0.225,60000,1.575
2009-11-06,0.22,0.23,0.21,0.22,123700,1.54
2009-11-09,0.225,0.24,0.225,0.23,38700,1.61
2009-11-10,0.235,0.245,0.235,0.245,20600,1.715
2009-11-11,0.24,0.24,0.23,0.24,11000,1.68
2009-11-12,0.24,0.24,0.225,0.23,73200,1.61
2009-11-13,0.23,0.24,0.23,0.24,1100,1.68
2009-11-16,0.225,0.225,0.225,0.225,10100,1.575
2009-11-17,0.23,0.23,0.225,0.23,10600,1.61
2009-11-18,0.225,0.24,0.225,0.23,35900,1.61
2009-11-19,0.235,0.24,0.235,0.24,26400,1.68
2009-11-20,0.24,0.24,0.23,0.235,8500,1.645
2009-11-23,0.23,0.235,0.23,0.23,18700,1.61
2009-11-24,0.235,0.24,0.225,0.23,54800,1.61
2009-11-25,0.235,0.235,0.23,0.23,38400,1.61
2009-11-26,0.235,0.24,0.23,0.24,23400,1.68
2009-11-27,0.24,0.24,0.235,0.235,11400,1.645
2009-11-30,0.235,0.245,0.23,0.245,51000,1.715
2009-12-01,0.235,0.245,0.235,0.24,18900,1.68
2009-12-02,0.24,0.24,0.235,0.24,11200,1.68
2009-12-03,0.245,0.245,0.23,0.23,74900,1.61
2009-12-04,0.23,0.235,0.23,0.235,11500,1.645
2009-12-07,0.235,0.235,0.23,0.235,29800,1.645
2009-12-08,0.235,0.235,0.23,0.23,13500,1.61
2009-12-09,0.225,0.23,0.225,0.225,2600,1.575
2009-12-10,0.23,0.23,0.215,0.225,78800,1.575
2009-12-11,0.215,0.215,0.215,0.215,1400,1.505
2009-12-14,0.215,0.215,0.2,0.205,41500,1.435
2009-12-15,0.205,0.215,0.2,0.205,87500,1.435
2009-12-16,0.21,0.225,0.21,0.22,33600,1.54
2009-12-17,0.22,0.23,0.21,0.22,37000,1.54
2009-12-18,0.225,0.225,0.21,0.21,36500,1.47
2009-12-21,0.21,0.225,0.21,0.225,20100,1.575
2009-12-22,0.22,0.22,0.215,0.215,24700,1.505
2009-12-23,0.215,0.22,0.215,0.22,2800,1.54
2009-12-24,0.215,0.22,0.215,0.22,22500,1.54
2009-12-29,0.22,0.22,0.215,0.215,10500,1.505
2009-12-30,0.215,0.22,0.215,0.22,9800,1.54
2009-12-31,0.215,0.22,0.215,0.22,12400,1.54
2010-01-04,0.215,0.22,0.215,0.22,11500,1.54
2010-01-05,0.22,0.22,0.215,0.215,54400,1.505
2010-01-06,0.22,0.22,0.215,0.215,19100,1.505
2010-01-07,0.215,0.22,0.215,0.22,42900,1.54
2010-01-08,0.22,0.245,0.22,0.225,71700,1.575
2010-01-11,0.23,0.23,0.215,0.215,38900,1.505
2010-01-12,0.22,0.225,0.22,0.225,30200,1.575
2010-01-13,0.22,0.22,0.22,0.22,13600,1.54
2010-01-14,0.22,0.245,0.22,0.235,41100,1.645
2010-01-15,0.235,0.24,0.235,0.235,21800,1.645
2010-01-18,0.235,0.245,0.235,0.235,20700,1.645
2010-01-19,0.24,0.24,0.235,0.235,11100,1.645
2010-01-20,0.235,0.25,0.235,0.25,35800,1.75
2010-01-21,0.245,0.25,0.24,0.24,28300,1.68
2010-01-22,0.24,0.24,0.23,0.235,49900,1.645
2010-01-25,0.235,0.24,0.235,0.24,7700,1.68
2010-01-27,0.235,0.235,0.23,0.235,10000,1.645
2010-01-28,0.23,0.235,0.23,0.235,7100,1.645
2010-01-29,0.23,0.23,0.22,0.23,51000,1.61
2010-02-01,0.205,0.21,0.205,0.205,30400,1.435
2010-02-02,0.205,0.215,0.2,0.2,8200,1.4
2010-02-03,0.22,0.22,0.215,0.215,8400,1.505
2010-02-04,0.205,0.21,0.205,0.205,13100,1.435
2010-02-05,0.2,0.21,0.2,0.21,40500,1.47
2010-02-08,0.21,0.21,0.205,0.21,30800,1.47
2010-02-09,0.21,0.215,0.21,0.215,33400,1.505
2010-02-10,0.21,0.21,0.21,0.21,31500,1.47
2010-02-11,0.21,0.21,0.21,0.21,5100,1.47
2010-02-12,0.21,0.22,0.205,0.205,30900,1.435
2010-02-15,0.205,0.21,0.2,0.2,32800,1.4
2010-02-17,0.21,0.22,0.205,0.22,18900,1.54
2010-02-18,0.22,0.24,0.22,0.24,43700,1.68
2010-02-19,0.23,0.23,0.23,0.23,1400,1.61
2010-02-22,0.23,0.23,0.215,0.215,25600,1.505
2010-02-23,0.215,0.215,0.215,0.215,4800,1.505
2010-02-24,0.215,0.22,0.215,0.215,15700,1.505
2010-02-25,0.22,0.23,0.215,0.23,58800,1.61
2010-02-26,0.22,0.22,0.21,0.21,3200,1.47
2010-03-01,0.21,0.22,0.205,0.205,15600,1.435
2010-03-02,0.22,0.22,0.21,0.21,9100,1.47
2010-03-03,0.22,0.22,0.2,0.2,37100,1.4
2010-03-04,0.2,0.21,0.2,0.21,7200,1.47
2010-03-05,0.21,0.215,0.2,0.2,16400,1.4
2010-03-08,0.215,0.215,0.2,0.2,13700,1.4
2010-03-09,0.2,0.2,0.2,0.2,13400,1.4
2010-03-10,0.21,0.21,0.21,0.21,4500,1.47
2010-03-11,0.21,0.215,0.205,0.205,2000,1.435
2010-03-12,0.215,0.215,0.205,0.205,0,1.435
2010-03-15,0.21,0.21,0.21,0.21,1500,1.47
2010-03-16,0.21,0.215,0.21,0.21,29000,1.47
2010-03-17,0.215,0.22,0.215,0.215,23100,1.505
2010-03-18,0.215,0.22,0.21,0.22,28700,1.54
2010-03-19,0.22,0.225,0.22,0.225,30000,1.575
2010-03-22,0.22,0.22,0.215,0.215,2800,1.505
2010-03-23,0.215,0.225,0.215,0.22,26400,1.54
2010-03-24,0.215,0.23,0.215,0.22,23900,1.54
2010-03-25,0.225,0.225,0.22,0.22,36700,1.54
2010-03-26,0.22,0.22,0.215,0.215,4700,1.505
2010-03-29,0.22,0.225,0.22,0.225,27000,1.575
2010-03-30,0.225,0.225,0.215,0.22,38800,1.54
2010-03-31,0.22,0.23,0.22,0.225,58300,1.575
2010-04-01,0.22,0.235,0.22,0.235,33700,1.645
2010-04-06,0.235,0.25,0.235,0.25,109900,1.75
2010-04-07,0.255,0.255,0.25,0.25,53500,1.75
2010-04-08,0.245,0.25,0.235,0.25,15900,1.75
2010-04-09,0.235,0.235,0.23,0.235,18400,1.645
2010-04-12,0.24,0.24,0.225,0.225,22300,1.575
2010-04-13,0.23,0.235,0.23,0.235,14200,1.645
2010-04-14,0.24,0.245,0.235,0.24,39500,1.68
2010-04-15,0.24,0.245,0.24,0.24,11700,1.68
2010-04-16,0.23,0.23,0.22,0.22,58400,1.54
2010-04-19,0.215,0.22,0.215,0.22,7700,1.54
2010-04-20,0.22,0.22,0.22,0.22,16700,1.54
2010-04-21,0.215,0.22,0.21,0.21,30100,1.47
2010-04-22,0.21,0.22,0.21,0.21,240600,1.47
2010-04-23,0.215,0.215,0.215,0.215,1700,1.505
2010-04-27,0.215,0.215,0.2,0.2,94900,1.4
2010-04-28,0.19,0.2,0.19,0.19,3200,1.33
2010-04-29,0.19,0.2,0.175,0.175,27900,1.225
2010-04-30,0.19,0.19,0.19,0.19,9900,1.33
2010-05-03,0.19,0.19,0.18,0.19,17300,1.33
2010-05-04,0.2,0.2,0.2,0.2,12100,1.4
2010-05-05,0.2,0.205,0.18,0.205,63200,1.435
2010-05-06,0.205,0.205,0.185,0.185,35000,1.295
2010-05-07,0.18,0.19,0.175,0.18,18200,1.26
2010-05-10,0.18,0.19,0.18,0.18,9100,1.26
2010-05-11,0.19,0.195,0.19,0.195,1300,1.365
2010-05-12,0.17,0.17,0.17,0.17,14700,1.19
2010-05-13,0.185,0.185,0.185,0.185,4200,1.295
2010-05-14,0.18,0.18,0.18,0.18,7500,1.26
2010-05-17,0.18,0.18,0.18,0.18,1300,1.26
2010-05-18,0.18,0.18,0.18,0.18,7100,1.26
2010-05-19,0.175,0.175,0.17,0.175,27100,1.225
2010-05-20,0.18,0.18,0.165,0.165,3800,1.155
2010-05-21,0.17,0.17,0.15,0.15,36500,1.05
2010-05-24,0.16,0.16,0.15,0.15,6700,1.05
2010-05-25,0.15,0.15,0.15,0.15,1000,1.05
2010-05-26,0.155,0.155,0.155,0.155,200,1.085
2010-05-27,0.155,0.155,0.155,0.155,4300,1.085
2010-05-28,0.17,0.18,0.17,0.18,13000,1.26
2010-05-31,0.185,0.185,0.17,0.17,0,1.19
2010-06-01,0.17,0.17,0.16,0.16,4200,1.12
2010-06-02,0.16,0.16,0.16,0.16,10000,1.12
2010-06-03,0.17,0.17,0.17,0.17,7100,1.19
2010-06-04,0.16,0.16,0.16,0.16,8700,1.12
2010-06-07,0.16,0.16,0.15,0.15,3600,1.05
2010-06-08,0.15,0.15,0.15,0.15,8000,1.05
2010-06-09,0.15,0.15,0.15,0.15,1800,1.05
2010-06-10,0.145,0.145,0.145,0.145,7600,1.015
2010-06-11,0.14,0.16,0.13,0.16,45400,1.12
2010-06-15,0.16,0.16,0.16,0.16,3700,1.12
2010-06-16,0.16,0.16,0.16,0.16,1400,1.12
2010-06-17,0.16,0.175,0.16,0.175,18200,1.225
2010-06-18,0.16,0.16,0.16,0.16,5300,1.12
2010-06-21,0.16,0.16,0.16,0.16,7200,1.12
2010-06-22,0.16,0.165,0.16,0.165,10300,1.155
2010-06-23,0.16,0.16,0.16,0.16,3600,1.12
2010-06-24,0.16,0.16,0.15,0.16,15000,1.12
2010-06-25,0.16,0.16,0.16,0.16,4000,1.12
2010-06-28,0.16,0.16,0.145,0.145,11800,1.015
2010-06-29,0.145,0.145,0.14,0.14,22800,0.98
2010-06-30,0.135,0.135,0.115,0.115,23100,0.805
2010-07-01,0.13,0.135,0.13,0.13,3500,0.91
2010-07-02,0.13,0.13,0.13,0.13,3400,0.91
2010-07-07,0.14,0.14,0.14,0.14,3200,0.98
2010-07-08,0.145,0.145,0.14,0.14,39400,0.98
2010-07-09,0.14,0.145,0.14,0.145,1400,1.015
2010-07-13,0.16,0.195,0.16,0.18,110700,1.26
2010-07-14,0.18,0.185,0.18,0.185,126600,1.295
2010-07-15,0.17,0.17,0.17,0.17,700,1.19
2010-07-16,0.17,0.17,0.17,0.17,1500,1.19
2010-07-19,0.17,0.18,0.17,0.18,6800,1.26
2010-07-20,0.18,0.185,0.18,0.18,18800,1.26
2010-07-21,0.19,0.21,0.19,0.2,56800,1.4
2010-07-22,0.2,0.2,0.18,0.185,32900,1.295
2010-07-23,0.19,0.2,0.19,0.2,46000,1.4
2010-07-26,0.2,0.22,0.2,0.215,79600,1.505
2010-07-27,0.21,0.22,0.21,0.22,40800,1.54
2010-07-28,0.215,0.23,0.215,0.23,388900,1.61
2010-07-29,0.235,0.255,0.225,0.245,168400,1.715
2010-07-30,0.24,0.24,0.235,0.235,60000,1.645
2010-08-02,0.22,0.24,0.22,0.23,38300,1.61
2010-08-03,0.23,0.24,0.23,0.24,20200,1.68
2010-08-04,0.24,0.25,0.21,0.25,49000,1.75
2010-08-05,0.225,0.245,0.22,0.245,4700,1.715
2010-08-06,0.24,0.245,0.225,0.245,33300,1.715
2010-08-09,0.245,0.26,0.235,0.26,107600,1.82
2010-08-10,0.26,0.26,0.24,0.25,43600,1.75
2010-08-11,0.25,0.25,0.24,0.24,34600,1.68
2010-08-12,0.23,0.24,0.22,0.24,58400,1.68
2010-08-13,0.24,0.24,0.24,0.24,6100,1.68
2010-08-16,0.245,0.25,0.24,0.245,25700,1.715
2010-08-17,0.245,0.25,0.245,0.25,30500,1.75
2010-08-18,0.25,0.26,0.25,0.255,80900,1.785
2010-08-19,0.255,0.255,0.23,0.235,83100,1.645
2010-08-20,0.235,0.235,0.225,0.225,23100,1.575
2010-08-23,0.215,0.215,0.2,0.2,46700,1.4
2010-08-24,0.19,0.19,0.185,0.19,17600,1.33
2010-08-25,0.19,0.19,0.175,0.18,11700,1.26
2010-08-26,0.185,0.185,0.185,0.185,5700,1.295
2010-09-01,0.19,0.19,0.19,0.19,14800,1.33
2010-09-03,0.18,0.18,0.18,0.18,11100,1.26
2010-09-07,0.18,0.18,0.16,0.16,7500,1.12
2010-09-08,0.16,0.16,0.16,0.16,5300,1.12
2010-09-09,0.15,0.15,0.15,0.15,400,1.05
2010-09-10,0.15,0.15,0.15,0.15,18500,1.05
2010-09-13,0.155,0.155,0.155,0.155,7100,1.085
2010-09-14,0.16,0.175,0.155,0.165,11700,1.155
2010-09-16,0.165,0.165,0.165,0.165,9100,1.155
2010-09-17,0.18,0.19,0.18,0.19,17200,1.33
2010-09-21,0.185,0.185,0.17,0.175,22400,1.225
2010-09-22,0.18,0.2,0.18,0.18,44200,1.26
2010-09-23,0.2,0.205,0.185,0.205,2700,1.435
2010-09-28,0.21,0.215,0.21,0.215,18600,1.505
2010-09-29,0.21,0.215,0.21,0.215,3300,1.505
2010-10-01,0.19,0.19,0.19,0.19,4600,1.33
2010-10-05,0.195,0.2,0.195,0.2,6900,1.4
2010-10-06,0.2,0.2,0.19,0.19,26500,1.33
2010-10-07,0.2,0.2,0.2,0.2,19800,1.4
2010-10-08,0.195,0.195,0.195,0.195,3800,1.365
2010-10-11,0.19,0.2,0.19,0.2,11100,1.4
2010-10-12,0.195,0.2,0.195,0.2,14200,1.4
2010-10-13,0.2,0.2,0.195,0.195,12500,1.365
2010-10-14,0.2,0.2,0.2,0.2,12100,1.4
2010-10-18,0.19,0.19,0.19,0.19,29000,1.33
2010-10-19,0.2,0.205,0.2,0.205,8800,1.435
2010-10-20,0.2,0.2,0.19,0.19,500,1.33
2010-10-21,0.205,0.205,0.2,0.205,8100,1.435
2010-10-22,0.195,0.2,0.195,0.195,85700,1.365
2010-10-25,0.205,0.225,0.2,0.2,49100,1.4
2010-10-26,0.21,0.21,0.2,0.2,29500,1.4
2010-10-27,0.195,0.21,0.195,0.21,73500,1.47
2010-10-28,0.21,0.21,0.2,0.2,27400,1.4
2010-10-29,0.195,0.2,0.195,0.2,29900,1.4
2010-11-01,0.2,0.23,0.2,0.22,48300,1.54
2010-11-02,0.22,0.22,0.2,0.21,28400,1.47
2010-11-03,0.22,0.23,0.22,0.23,14200,1.61
2010-11-04,0.23,0.24,0.225,0.225,29200,1.575
2010-11-05,0.23,0.23,0.22,0.22,54400,1.54
2010-11-08,0.21,0.22,0.21,0.22,13400,1.54
2010-11-09,0.22,0.25,0.22,0.245,120000,1.715
2010-11-10,0.245,0.245,0.22,0.23,33700,1.61
2010-11-11,0.225,0.255,0.225,0.255,54900,1.785
2010-11-12,0.255,0.27,0.255,0.265,83900,1.855
2010-11-15,0.265,0.265,0.25,0.25,11600,1.75
2010-11-16,0.255,0.255,0.25,0.25,26100,1.75
2010-11-17,0.25,0.25,0.235,0.24,16900,1.68
2010-11-18,0.24,0.24,0.235,0.235,21600,1.645
2010-11-19,0.245,0.245,0.235,0.235,2600,1.645
2010-11-22,0.24,0.24,0.235,0.235,15700,1.645
2010-11-23,0.235,0.235,0.235,0.235,11500,1.645
2010-11-24,0.235,0.25,0.235,0.25,6800,1.75
2010-11-25,0.25,0.25,0.24,0.24,7600,1.68
2010-11-26,0.24,0.24,0.24,0.24,14500,1.68
2010-11-30,0.24,0.24,0.23,0.23,8800,1.61
2010-12-01,0.23,0.23,0.22,0.23,14600,1.61
2010-12-02,0.225,0.23,0.22,0.22,5800,1.54
2010-12-03,0.22,0.22,0.22,0.22,7100,1.54
2010-12-06,0.225,0.23,0.225,0.225,12000,1.575
2010-12-08,0.23,0.23,0.22,0.22,18100,1.54
2010-12-09,0.22,0.24,0.22,0.23,42300,1.61
2010-12-10,0.225,0.225,0.22,0.22,3000,1.54
2010-12-13,0.22,0.22,0.22,0.22,14300,1.54
2010-12-14,0.22,0.22,0.2,0.21,5000,1.47
2010-12-15,0.21,0.21,0.21,0.21,200,1.47
2010-12-16,0.215,0.22,0.215,0.22,4500,1.54
2010-12-17,0.22,0.22,0.205,0.205,37900,1.435
2010-12-20,0.22,0.225,0.21,0.21,55700,1.47
2010-12-21,0.21,0.225,0.21,0.215,17100,1.505
2010-12-22,0.21,0.225,0.21,0.215,12300,1.505
2010-12-23,0.225,0.225,0.215,0.22,15700,1.54
2010-12-24,0.215,0.22,0.205,0.22,43100,1.54
2010-12-29,0.205,0.22,0.2,0.2,35500,1.4
2010-12-30,0.2,0.21,0.2,0.2,6700,1.4
2011-01-04,0.205,0.21,0.205,0.21,14600,1.47
2011-01-05,0.22,0.22,0.22,0.22,16300,1.54
2011-01-06,0.225,0.24,0.22,0.23,29700,1.61
2011-01-07,0.235,0.235,0.235,0.235,5200,1.645
2011-01-10,0.23,0.23,0.215,0.215,14100,1.505
2011-01-12,0.23,0.23,0.23,0.23,5700,1.61
2011-01-13,0.23,0.23,0.22,0.22,6700,1.54
2011-01-14,0.22,0.22,0.22,0.22,3900,1.54
2011-01-17,0.23,0.25,0.23,0.245,116100,1.715
2011-01-18,0.245,0.25,0.245,0.25,14800,1.75
2011-01-19,0.25,0.25,0.235,0.24,8600,1.68
2011-01-20,0.24,0.24,0.235,0.235,8000,1.645
2011-01-21,0.23,0.23,0.225,0.23,31400,1.61
2011-01-24,0.25,0.25,0.235,0.235,30600,1.645
2011-01-25,0.23,0.23,0.23,0.23,200,1.61
2011-01-27,0.23,0.23,0.23,0.23,200,1.61
2011-01-28,0.24,0.245,0.23,0.23,60700,1.61
2011-01-31,0.23,0.23,0.23,0.23,1100,1.61
2011-02-02,0.225,0.235,0.225,0.225,40800,1.575
2011-02-03,0.23,0.23,0.23,0.23,1000,1.61
2011-02-04,0.23,0.23,0.23,0.23,12900,1.61
2011-02-07,0.23,0.23,0.23,0.23,700,1.61
2011-02-08,0.23,0.235,0.225,0.235,10000,1.645
2011-02-09,0.235,0.235,0.23,0.23,11600,1.61
2011-02-10,0.23,0.25,0.23,0.24,51300,1.68
2011-02-11,0.245,0.245,0.24,0.245,20900,1.715
2011-02-14,0.24,0.24,0.235,0.24,25700,1.68
2011-02-15,0.24,0.265,0.24,0.265,93900,1.855
2011-02-16,0.265,0.28,0.255,0.28,65900,1.96
2011-02-17,0.28,0.295,0.275,0.275,79600,1.925
2011-02-18,0.275,0.28,0.275,0.28,14700,1.96
2011-02-21,0.275,0.275,0.25,0.265,37200,1.855
2011-02-22,0.255,0.265,0.25,0.265,18300,1.855
2011-02-24,0.25,0.25,0.24,0.25,19000,1.75
2011-02-25,0.26,0.26,0.25,0.25,3300,1.75
2011-02-28,0.25,0.25,0.25,0.25,4400,1.75
2011-03-01,0.245,0.245,0.245,0.245,18500,1.715
2011-03-03,0.24,0.24,0.235,0.235,3500,1.645
2011-03-04,0.24,0.245,0.23,0.23,38900,1.61
2011-03-08,0.23,0.23,0.23,0.23,1700,1.61
2011-03-10,0.23,0.23,0.23,0.23,4800,1.61
2011-03-11,0.22,0.24,0.22,0.24,3400,1.68
2011-03-14,0.22,0.22,0.18,0.19,65800,1.33
2011-03-15,0.18,0.18,0.14,0.14,120600,0.98
2011-03-16,0.13,0.175,0.13,0.155,94100,1.085
2011-03-17,0.155,0.175,0.15,0.175,45200,1.225
2011-03-18,0.18,0.195,0.18,0.185,31800,1.295
2011-03-21,0.185,0.205,0.18,0.195,24400,1.365
2011-03-22,0.2,0.2,0.195,0.195,12100,1.365
2011-03-23,0.19,0.19,0.18,0.19,22000,1.33
2011-03-24,0.19,0.2,0.19,0.195,15000,1.365
2011-03-25,0.195,0.195,0.195,0.195,5600,1.365
2011-03-28,0.195,0.2,0.195,0.2,4800,1.4
2011-03-29,0.195,0.195,0.18,0.18,20900,1.26
2011-03-30,0.18,0.18,0.18,0.18,800,1.26
2011-03-31,0.195,0.195,0.195,0.195,1800,1.365
2011-04-01,0.185,0.185,0.18,0.18,6500,1.26
2011-04-04,0.185,0.185,0.185,0.185,8700,1.295
2011-04-05,0.185,0.195,0.185,0.19,8700,1.33
2011-04-06,0.18,0.19,0.18,0.18,2500,1.26
2011-04-07,0.19,0.2,0.175,0.2,37100,1.4
2011-04-08,0.215,0.25,0.215,0.23,163200,1.61
2011-04-11,0.24,0.25,0.225,0.225,89000,1.575
2011-04-12,0.225,0.225,0.205,0.205,28200,1.435
2011-04-13,0.21,0.225,0.21,0.225,7100,1.575
2011-04-18,0.19,0.19,0.175,0.18,15000,1.26
2011-04-20,0.18,0.18,0.175,0.175,7100,1.225
2011-04-21,0.18,0.18,0.18,0.18,200,1.26
2011-04-27,0.18,0.18,0.18,0.18,3900,1.26
2011-04-29,0.18,0.18,0.18,0.18,23300,1.26
2011-05-02,0.18,0.18,0.18,0.18,400,1.26
2011-05-03,0.18,0.18,0.155,0.16,8600,1.12
2011-05-04,0.16,0.16,0.16,0.16,1800,1.12
2011-05-05,0.155,0.155,0.155,0.155,7500,1.085
2011-05-06,0.16,0.16,0.16,0.16,8100,1.12
2011-05-09,0.155,0.155,0.155,0.155,700,1.085
2011-05-10,0.16,0.16,0.16,0.16,2900,1.12
2011-05-12,0.17,0.17,0.17,0.17,100,1.19
2011-05-13,0.175,0.18,0.175,0.18,8100,1.26
2011-05-17,0.18,0.18,0.18,0.18,14100,1.26
2011-05-19,0.18,0.18,0.18,0.18,3400,1.26
2011-05-23,0.17,0.17,0.16,0.16,2200,1.12
2011-05-24,0.16,0.16,0.155,0.155,9300,1.085
2011-05-25,0.155,0.155,0.155,0.155,5700,1.085
2011-05-26,0.155,0.155,0.155,0.155,1700,1.085
2011-05-27,0.155,0.17,0.155,0.17,5500,1.19
2011-05-30,0.16,0.16,0.15,0.15,3900,1.05
2011-05-31,0.15,0.15,0.15,0.15,10800,1.05
2011-06-01,0.15,0.15,0.15,0.15,6100,1.05
2011-06-02,0.17,0.17,0.17,0.17,8300,1.19
2011-06-03,0.15,0.15,0.15,0.15,14200,1.05
2011-06-06,0.15,0.15,0.15,0.15,10900,1.05
2011-06-08,0.145,0.145,0.14,0.145,23800,1.015
2011-06-09,0.14,0.14,0.135,0.135,5700,0.945
2011-06-10,0.135,0.14,0.135,0.135,7600,0.945
2011-06-14,0.135,0.135,0.12,0.12,29800,0.84
2011-06-17,0.12,0.12,0.12,0.12,4700,0.84
2011-06-21,0.11,0.12,0.1,0.11,58600,0.77
2011-06-22,0.105,0.105,0.1,0.1,10500,0.7
2011-06-23,0.1,0.1,0.095,0.095,6800,0.665
2011-06-24,0.1,0.1,0.1,0.1,14200,0.7
2011-06-27,0.1,0.12,0.1,0.12,71400,0.84
2011-06-28,0.11,0.11,0.11,0.11,30200,0.77
2011-06-29,0.11,0.11,0.1,0.1,16800,0.7
2011-06-30,0.1,0.115,0.1,0.1,43400,0.7
2011-07-01,0.11,0.115,0.11,0.115,16500,0.805
2011-07-04,0.115,0.115,0.11,0.11,14400,0.77
2011-07-05,0.115,0.115,0.11,0.11,5000,0.77
2011-07-06,0.115,0.125,0.115,0.125,9800,0.875
2011-07-07,0.145,0.145,0.145,0.145,1400,1.015
2011-07-08,0.135,0.135,0.13,0.13,2000,0.91
2011-07-12,0.13,0.13,0.13,0.13,4300,0.91
2011-07-13,0.125,0.125,0.12,0.125,18300,0.875
2011-07-14,0.12,0.12,0.12,0.12,2100,0.84
2011-07-15,0.12,0.14,0.12,0.14,11700,0.98
2011-07-18,0.14,0.14,0.14,0.14,11800,0.98
2011-07-19,0.135,0.135,0.13,0.13,10700,0.91
2011-07-21,0.13,0.13,0.13,0.13,500,0.91
2011-07-22,0.115,0.115,0.105,0.105,15000,0.735
2011-07-25,0.11,0.12,0.11,0.12,1700,0.84
2011-07-26,0.13,0.13,0.13,0.13,13500,0.91
2011-07-27,0.13,0.13,0.13,0.13,400,0.91
2011-07-29,0.13,0.13,0.13,0.13,2100,0.91
2011-08-02,0.13,0.13,0.13,0.13,600,0.91
2011-08-03,0.125,0.125,0.12,0.12,20000,0.84
2011-08-04,0.11,0.11,0.11,0.11,3200,0.77
2011-08-05,0.11,0.11,0.1,0.1,11400,0.7
2011-08-08,0.095,0.095,0.085,0.085,11400,0.595
2011-08-09,0.09,0.09,0.09,0.09,3500,0.63
2011-08-10,0.09300000000000001,0.095,0.09300000000000001,0.095,5700,0.665
2011-08-11,0.099,0.1,0.099,0.1,2100,0.7
2011-08-12,0.115,0.115,0.115,0.115,1400,0.805
2011-08-16,0.115,0.115,0.1,0.1,12900,0.7
2011-08-17,0.1,0.1,0.1,0.1,3500,0.7
2011-08-23,0.115,0.115,0.115,0.115,700,0.805
2011-08-30,0.11,0.13,0.11,0.13,9200,0.91
2011-08-31,0.11,0.11,0.11,0.11,200,0.77
2011-09-02,0.115,0.115,0.115,0.115,400,0.805
2011-09-06,0.1,0.1,0.1,0.1,300,0.7
2011-09-07,0.1,0.1,0.1,0.1,3500,0.7
2011-09-09,0.1,0.1,0.1,0.1,700,0.7
2011-09-12,0.1,0.1,0.1,0.1,9800,0.7
2011-09-13,0.1,0.1,0.1,0.1,1000,0.7
2011-09-14,0.1,0.1,0.1,0.1,3700,0.7
2011-09-16,0.09,0.1,0.09,0.1,10000,0.7
2011-09-26,0.09,0.09,0.08,0.08,18600,0.56
2011-09-27,0.08,0.08,0.08,0.08,3200,0.56
2011-09-28,0.1,0.1,0.1,0.1,15900,0.7
2011-10-05,0.08,0.08,0.076,0.076,1700,0.532
2011-10-06,0.095,0.1,0.095,0.1,21700,0.7
2011-10-07,0.105,0.105,0.105,0.105,11000,0.735
2011-10-14,0.096,0.096,0.096,0.096,700,0.672
2011-10-20,0.1,0.1,0.1,0.1,1400,0.7
2011-10-21,0.1,0.1,0.096,0.096,10300,0.672
2011-10-24,0.096,0.096,0.096,0.096,2500,0.672
2011-10-25,0.1,0.1,0.1,0.1,1400,0.7
2011-10-26,0.12,0.12,0.12,0.12,1500,0.84
2011-11-03,0.12,0.12,0.12,0.12,2200,0.84
2011-11-07,0.11,0.11,0.11,0.11,2200,0.77
2011-11-14,0.1,0.1,0.1,0.1,700,0.7
2011-11-15,0.12,0.13,0.12,0.13,15100,0.91
2011-11-16,0.12,0.12,0.12,0.12,2700,0.84
2011-11-17,0.12,0.12,0.12,0.12,200,0.84
2011-11-18,0.12,0.12,0.12,0.12,0,0.84
2011-11-21,0.12,0.12,0.12,0.12,0,0.84
2011-11-22,0.12,0.12,0.098,0.098,5100,0.6859999999999999
2011-11-23,0.098,0.098,0.098,0.098,0,0.6859999999999999
2011-11-24,0.098,0.098,0.098,0.098,0,0.6859999999999999
2011-11-25,0.098,0.098,0.098,0.098,0,0.6859999999999999
2011-11-28,0.098,0.098,0.098,0.098,0,0.6859999999999999
2011-11-29,0.098,0.098,0.098,0.098,0,0.6859999999999999
2011-11-30,0.098,0.098,0.098,0.098,0,0.6859999999999999
2011-12-01,0.095,0.095,0.095,0.095,800,0.665
2011-12-02,0.095,0.095,0.095,0.095,0,0.665
2011-12-05,0.091,0.091,0.091,0.091,2300,0.637
2011-12-06,0.091,0.091,0.091,0.091,0,0.637
2011-12-07,0.091,0.091,0.091,0.091,12800,0.637
2011-12-08,0.091,0.091,0.091,0.091,7100,0.637
2011-12-09,0.091,0.091,0.091,0.091,0,0.637
2011-12-12,0.091,0.091,0.091,0.091,40100,0.637
2011-12-13,0.09,0.09,0.09,0.09,10900,0.63
2011-12-14,0.09,0.09,0.09,0.09,0,0.63
2011-12-15,0.09,0.09,0.09,0.09,0,0.63
2011-12-16,0.09,0.09,0.09,0.09,0,0.63
2011-12-19,0.08,0.08,0.08,0.08,3900,0.56
2011-12-20,0.081,0.081,0.08,0.08,15700,0.56
2011-12-21,0.08,0.08,0.08,0.08,0,0.56
2011-12-22,0.08,0.08,0.08,0.08,8900,0.56
2011-12-23,0.08,0.08,0.08,0.08,0,0.56
2011-12-26,0.08,0.08,0.08,0.08,0,0.56
2011-12-27,0.08,0.08,0.08,0.08,0,0.56
2011-12-28,0.08,0.08,0.08,0.08,0,0.56
2011-12-29,0.08,0.08,0.08,0.08,0,0.56
2011-12-30,0.08,0.08,0.08,0.08,0,0.56
2012-01-02,0.08,0.08,0.08,0.08,0,0.56
2012-01-03,0.085,0.085,0.085,0.085,3500,0.595
2012-01-04,0.085,0.085,0.085,0.085,0,0.595
2012-01-05,0.083,0.083,0.083,0.083,4200,0.581
2012-01-06,0.083,0.083,0.083,0.083,0,0.581
2012-01-09,0.083,0.083,0.083,0.083,0,0.581
2012-01-10,0.083,0.083,0.083,0.083,0,0.581
2012-01-11,0.083,0.083,0.083,0.083,0,0.581
2012-01-12,0.085,0.085,0.083,0.083,19900,0.581
2012-01-13,0.083,0.083,0.083,0.083,0,0.581
2012-01-16,0.083,0.083,0.083,0.083,0,0.581
2012-01-17,0.083,0.085,0.083,0.085,3200,0.595
2012-01-18,0.085,0.085,0.085,0.085,3100,0.595
2012-01-19,0.085,0.085,0.085,0.085,0,0.595
2012-01-20,0.085,0.085,0.085,0.085,0,0.595
2012-01-23,0.085,0.085,0.085,0.085,0,0.595
2012-01-24,0.085,0.085,0.085,0.085,0,0.595
2012-01-25,0.085,0.085,0.085,0.085,0,0.595
2012-01-26,0.085,0.085,0.085,0.085,0,0.595
2012-01-27,0.085,0.085,0.085,0.085,7700,0.595
2012-01-30,0.085,0.085,0.085,0.085,15300,0.595
2012-01-31,0.085,0.085,0.085,0.085,0,0.595
2012-02-01,0.08199999999999999,0.08199999999999999,0.08199999999999999,0.08199999999999999,1100,0.574
2012-02-02,0.08199999999999999,0.08199999999999999,0.08199999999999999,0.08199999999999999,0,0.574
2012-02-03,0.085,0.085,0.085,0.085,4200,0.595
2012-02-06,0.083,0.083,0.083,0.083,3200,0.581
2012-02-07,0.083,0.083,0.083,0.083,1700,0.581
2012-02-08,0.083,0.083,0.083,0.083,0,0.581
2012-02-09,0.083,0.083,0.083,0.083,0,0.581
2012-02-10,0.085,0.085,0.085,0.085,7100,0.595
2012-02-13,0.085,0.085,0.085,0.085,0,0.595
2012-02-14,0.085,0.085,0.08,0.08,900,0.56
2012-02-15,0.08,0.08,0.08,0.08,0,0.56
2012-02-16,0.08,0.08,0.08,0.08,0,0.56
2012-02-17,0.08,0.08,0.08,0.08,0,0.56
2012-02-20,0.076,0.076,0.076,0.076,14200,0.532
2012-02-21,0.076,0.076,0.076,0.076,4200,0.532
2012-02-22,0.076,0.076,0.076,0.076,0,0.532
2012-02-23,0.076,0.076,0.076,0.076,0,0.532
2012-02-24,0.076,0.076,0.076,0.076,0,0.532
2012-02-27,0.078,0.078,0.078,0.078,700,0.546
2012-02-28,0.078,0.078,0.078,0.078,0,0.546
2012-02-29,0.078,0.078,0.078,0.078,0,0.546
2012-03-01,0.078,0.078,0.078,0.078,0,0.546
2012-03-02,0.078,0.078,0.077,0.078,37300,0.546
2012-03-05,0.078,0.078,0.078,0.078,0,0.546
2012-03-06,0.078,0.078,0.078,0.078,1400,0.546
2012-03-07,0.078,0.078,0.078,0.078,0,0.546
2012-03-08,0.077,0.08,0.077,0.08,28500,0.56
2012-03-09,0.08,0.08,0.08,0.08,0,0.56
2012-03-12,0.075,0.075,0.071,0.071,4200,0.49700000000000005
2012-03-13,0.075,0.075,0.075,0.075,1400,0.525
2012-03-14,0.075,0.08,0.07,0.08,16500,0.56
2012-03-15,0.08,0.08,0.08,0.08,0,0.56
2012-03-16,0.08,0.08,0.08,0.08,4200,0.56
2012-03-19,0.083,0.083,0.083,0.083,300,0.581
2012-03-20,0.083,0.083,0.083,0.083,4100,0.581
2012-03-21,0.083,0.083,0.083,0.083,0,0.581
2012-03-22,0.083,0.083,0.083,0.083,0,0.581
2012-03-23,0.083,0.083,0.083,0.083,0,0.581
2012-03-26,0.085,0.085,0.085,0.085,12400,0.595
2012-03-27,0.085,0.085,0.085,0.085,0,0.595
2012-03-28,0.085,0.085,0.085,0.085,5200,0.595
2012-03-29,0.085,0.085,0.085,0.085,0,0.595
2012-03-30,0.085,0.085,0.085,0.085,0,0.595
2012-04-02,0.085,0.11,0.085,0.092,37500,0.644
2012-04-03,0.092,0.092,0.092,0.092,0,0.644
2012-04-04,0.095,0.1,0.095,0.1,25300,0.7
2012-04-05,0.095,0.095,0.094,0.094,16800,0.6579999999999999
2012-04-06,0.094,0.094,0.094,0.094,0,0.6579999999999999
2012-04-09,0.094,0.094,0.094,0.094,0,0.6579999999999999
2012-04-10,0.094,0.094,0.09,0.09,2200,0.63
2012-04-11,0.09,0.09,0.09,0.09,2500,0.63
2012-04-12,0.09,0.09,0.09,0.09,8500,0.63
2012-04-13,0.09,0.09,0.09,0.09,6500,0.63
2012-04-16,0.08199999999999999,0.08199999999999999,0.08199999999999999,0.08199999999999999,2100,0.574
2012-04-17,0.08199999999999999,0.08199999999999999,0.08199999999999999,0.08199999999999999,0,0.574
2012-04-18,0.08,0.08,0.08,0.08,500,0.56
2012-04-19,0.08,0.08,0.08,0.08,16800,0.56
2012-04-20,0.081,0.081,0.081,0.081,4300,0.5670000000000001
2012-04-23,0.081,0.085,0.081,0.085,21700,0.595
2012-04-24,0.085,0.085,0.085,0.085,0,0.595
2012-04-25,0.085,0.085,0.085,0.085,0,0.595
2012-04-26,0.081,0.081,0.081,0.081,1000,0.5670000000000001
2012-04-27,0.081,0.081,0.081,0.081,0,0.5670000000000001
2012-04-30,0.081,0.081,0.081,0.081,0,0.5670000000000001
2012-05-01,0.081,0.081,0.081,0.081,0,0.5670000000000001
2012-05-02,0.081,0.081,0.081,0.081,0,0.5670000000000001
2012-05-03,0.081,0.081,0.081,0.081,500,0.5670000000000001
2012-05-04,0.09,0.09,0.09,0.09,10000,0.63
2012-05-07,0.08900000000000001,0.08900000000000001,0.08900000000000001,0.08900000000000001,0,0.623
2012-05-08,0.08900000000000001,0.08900000000000001,0.08900000000000001,0.08900000000000001,0,0.623
2012-05-09,0.081,0.081,0.081,0.081,700,0.5670000000000001
2012-05-10,0.081,0.081,0.081,0.081,700,0.5670000000000001
2012-05-11,0.081,0.081,0.08,0.08,44900,0.56
2012-05-14,0.08,0.08,0.08,0.08,0,0.56
2012-05-15,0.075,0.075,0.07,0.07,25700,0.49
2012-05-16,0.07,0.07,0.07,0.07,0,0.49
2012-05-17,0.07,0.07,0.07,0.07,0,0.49
2012-05-18,0.07,0.07,0.07,0.07,0,0.49
2012-05-21,0.07,0.07,0.07,0.07,0,0.49
2012-05-22,0.07,0.07,0.07,0.07,0,0.49
2012-05-23,0.07,0.07,0.07,0.07,0,0.49
2012-05-24,0.07,0.07,0.07,0.07,0,0.49
2012-05-25,0.06,0.06,0.06,0.06,4700,0.42
2012-05-28,0.06,0.06,0.06,0.06,0,0.42
2012-05-29,0.06,0.06,0.06,0.06,0,0.42
2012-05-30,0.06,0.06,0.06,0.06,2300,0.42
2012-05-31,0.053,0.053,0.053,0.053,4200,0.371
2012-06-01,0.053,0.053,0.053,0.053,0,0.371
2012-06-04,0.053,0.053,0.053,0.053,0,0.371
2012-06-05,0.053,0.053,0.053,0.053,500,0.371
2012-06-06,0.055,0.055,0.055,0.055,1200,0.385
2012-06-07,0.055,0.055,0.055,0.055,0,0.385
2012-06-08,0.053,0.053,0.05,0.05,73600,0.35
2012-06-11,0.05,0.05,0.05,0.05,0,0.35
2012-06-12,0.055,0.055,0.055,0.055,11700,0.385
2012-06-13,0.055,0.055,0.055,0.055,0,0.385
2012-06-14,0.055,0.055,0.055,0.055,8100,0.385
2012-06-15,0.055,0.055,0.055,0.055,0,0.385
2012-06-18,0.055,0.055,0.055,0.055,6300,0.385
2012-06-19,0.055,0.055,0.055,0.055,0,0.385
2012-06-20,0.05,0.051,0.05,0.051,3800,0.35700000000000004
2012-06-21,0.051,0.051,0.051,0.051,0,0.35700000000000004
2012-06-22,0.05,0.051,0.047,0.047,5100,0.32899999999999996
2012-06-25,0.048,0.048,0.045,0.045,6100,0.315
2012-06-26,0.045,0.045,0.045,0.045,0,0.315
2012-06-27,0.045,0.045,0.045,0.045,0,0.315
2012-06-28,0.045,0.048,0.042,0.048,179800,0.336
2012-06-29,0.046,0.051,0.046,0.051,3200,0.35700000000000004
2012-07-02,0.051,0.051,0.051,0.051,0,0.35700000000000004
2012-07-03,0.051,0.051,0.051,0.051,0,0.35700000000000004
2012-07-04,0.051,0.051,0.051,0.051,0,0.35700000000000004
2012-07-05,0.051,0.051,0.051,0.051,0,0.35700000000000004
2012-07-06,0.051,0.051,0.051,0.051,0,0.35700000000000004
2012-07-09,0.051,0.051,0.051,0.051,0,0.35700000000000004
2012-07-10,0.051,0.051,0.051,0.051,200,0.35700000000000004
2012-07-11,0.051,0.051,0.051,0.051,0,0.35700000000000004
2012-07-12,0.051,0.051,0.05,0.05,4100,0.35
2012-07-13,0.05,0.05,0.05,0.05,0,0.35
2012-07-16,0.05,0.05,0.05,0.05,0,0.35
2012-07-17,0.05,0.05,0.05,0.05,0,0.35
2012-07-18,0.062,0.083,0.062,0.071,111000,0.49700000000000005
2012-07-19,0.078,0.08800000000000001,0.078,0.081,21800,0.5670000000000001
2012-07-20,0.085,0.095,0.08199999999999999,0.09,91100,0.63
2012-07-23,0.085,0.09,0.085,0.09,13000,0.63
2012-07-24,0.09,0.09,0.086,0.086,16900,0.602
2012-07-25,0.083,0.086,0.08199999999999999,0.086,10000,0.602
2012-07-26,0.086,0.086,0.086,0.086,0,0.602
2012-07-27,0.09,0.09,0.09,0.09,1400,0.63
2012-07-30,0.09,0.09,0.09,0.09,0,0.63
2012-07-31,0.09,0.09,0.09,0.09,0,0.63
2012-08-01,0.09,0.09,0.084,0.084,10700,0.588
2012-08-02,0.083,0.085,0.08199999999999999,0.085,10000,0.595
2012-08-03,0.085,0.085,0.085,0.085,0,0.595
2012-08-06,0.077,0.077,0.077,0.077,200,0.539
2012-08-07,0.075,0.075,0.07200000000000001,0.07200000000000001,12800,0.504
2012-08-08,0.07200000000000001,0.07200000000000001,0.07200000000000001,0.07200000000000001,0,0.504
2012-08-09,0.07200000000000001,0.07200000000000001,0.07200000000000001,0.07200000000000001,0,0.504
2012-08-10,0.075,0.08,0.075,0.08,18800,0.56
2012-08-13,0.08,0.08,0.08,0.08,0,0.56
2012-08-14,0.08,0.08,0.08,0.08,0,0.56
2012-08-15,0.075,0.075,0.075,0.075,200,0.525
2012-08-16,0.075,0.075,0.075,0.075,3400,0.525
2012-08-17,0.075,0.075,0.075,0.075,0,0.525
2012-08-20,0.075,0.075,0.075,0.075,0,0.525
2012-08-21,0.073,0.073,0.073,0.073,7100,0.511
2012-08-22,0.07200000000000001,0.07400000000000001,0.065,0.066,69500,0.462
2012-08-23,0.067,0.067,0.067,0.067,7300,0.469
2012-08-24,0.067,0.067,0.067,0.067,0,0.469
2012-08-27,0.067,0.067,0.067,0.067,0,0.469
2012-08-28,0.068,0.069,0.068,0.069,5400,0.483
2012-08-29,0.069,0.069,0.069,0.069,0,0.483
2012-08-30,0.069,0.069,0.069,0.069,0,0.483
2012-08-31,0.07,0.07,0.07,0.07,2300,0.49
2012-09-03,0.071,0.071,0.071,0.071,7000,0.49700000000000005
2012-09-04,0.07200000000000001,0.07200000000000001,0.07,0.07,3200,0.49
2012-09-05,0.07,0.07,0.07,0.07,0,0.49
2012-09-06,0.07200000000000001,0.07200000000000001,0.069,0.069,4600,0.483
2012-09-07,0.073,0.073,0.071,0.071,21900,0.49700000000000005
2012-09-10,0.071,0.071,0.071,0.071,0,0.49700000000000005
2012-09-11,0.071,0.071,0.071,0.071,0,0.49700000000000005
2012-09-12,0.075,0.075,0.075,0.075,1400,0.525
2012-09-13,0.075,0.075,0.075,0.075,0,0.525
2012-09-14,0.077,0.077,0.077,0.077,4800,0.539
2012-09-17,0.077,0.077,0.077,0.077,0,0.539
2012-09-18,0.075,0.075,0.075,0.075,9800,0.525
2012-09-19,0.075,0.075,0.075,0.075,0,0.525
2012-09-20,0.077,0.077,0.07400000000000001,0.07400000000000001,1200,0.518
2012-09-21,0.076,0.076,0.07400000000000001,0.07400000000000001,6800,0.518
2012-09-24,0.076,0.076,0.075,0.075,10800,0.525
2012-09-25,0.075,0.075,0.075,0.075,0,0.525
2012-09-26,0.071,0.071,0.069,0.071,21400,0.49700000000000005
2012-09-27,0.071,0.071,0.071,0.071,0,0.49700000000000005
2012-09-28,0.071,0.071,0.071,0.071,0,0.49700000000000005
2012-10-01,0.066,0.066,0.066,0.066,2500,0.462
2012-10-02,0.066,0.066,0.066,0.066,0,0.462
2012-10-03,0.067,0.067,0.065,0.065,22100,0.455
2012-10-04,0.065,0.065,0.065,0.065,0,0.455
2012-10-05,0.065,0.065,0.065,0.065,0,0.455
2012-10-08,0.065,0.065,0.065,0.065,0,0.455
2012-10-09,0.065,0.065,0.065,0.065,0,0.455
2012-10-10,0.066,0.067,0.066,0.067,14300,0.469
2012-10-11,0.067,0.067,0.067,0.067,0,0.469
2012-10-12,0.067,0.067,0.067,0.067,1300,0.469
2012-10-15,0.067,0.067,0.067,0.067,0,0.469
2012-10-16,0.067,0.067,0.067,0.067,0,0.469
2012-10-17,0.067,0.067,0.067,0.067,0,0.469
2012-10-18,0.067,0.067,0.067,0.067,0,0.469
2012-10-19,0.067,0.067,0.067,0.067,0,0.469
2012-10-22,0.067,0.067,0.067,0.067,0,0.469
2012-10-23,0.069,0.069,0.067,0.067,3200,0.469
2012-10-24,0.067,0.067,0.067,0.067,0,0.469
2012-10-25,0.067,0.067,0.064,0.064,28500,0.44799999999999995
2012-10-26,0.063,0.063,0.063,0.063,3500,0.441
2012-10-29,0.063,0.063,0.063,0.063,0,0.441
2012-10-30,0.063,0.063,0.062,0.062,2500,0.434
2012-10-31,0.062,0.062,0.062,0.062,12800,0.434
2012-11-01,0.064,0.064,0.064,0.064,800,0.44799999999999995
2012-11-02,0.064,0.064,0.064,0.064,0,0.44799999999999995
2012-11-05,0.063,0.064,0.06,0.06,27200,0.42
2012-11-06,0.06,0.06,0.06,0.06,0,0.42
2012-11-07,0.06,0.06,0.06,0.06,0,0.42
2012-11-08,0.063,0.063,0.06,0.06,6200,0.42
2012-11-09,0.06,0.062,0.06,0.062,11400,0.434
2012-11-12,0.062,0.062,0.062,0.062,0,0.434
2012-11-13,0.062,0.062,0.06,0.062,17600,0.434
2012-11-14,0.062,0.062,0.062,0.062,0,0.434
2012-11-15,0.062,0.062,0.062,0.062,3300,0.434
2012-11-16,0.062,0.062,0.062,0.062,0,0.434
2012-11-19,0.062,0.062,0.062,0.062,0,0.434
2012-11-20,0.068,0.07,0.068,0.07,6000,0.49
2012-11-21,0.07,0.07,0.065,0.065,21400,0.455
2012-11-22,0.065,0.065,0.065,0.065,0,0.455
2012-11-23,0.065,0.065,0.065,0.065,3100,0.455
2012-11-26,0.065,0.065,0.065,0.065,0,0.455
2012-11-27,0.065,0.065,0.065,0.065,0,0.455
2012-11-28,0.062,0.062,0.062,0.062,1100,0.434
2012-11-29,0.063,0.063,0.063,0.063,1400,0.441
2012-11-30,0.063,0.063,0.063,0.063,0,0.441
2012-12-03,0.063,0.063,0.063,0.063,0,0.441
2012-12-04,0.063,0.063,0.063,0.063,0,0.441
2012-12-05,0.063,0.063,0.063,0.063,0,0.441
2012-12-06,0.063,0.063,0.063,0.063,0,0.441
2012-12-07,0.063,0.063,0.063,0.063,0,0.441
2012-12-10,0.055,0.055,0.055,0.055,19100,0.385
2012-12-11,0.055,0.055,0.055,0.055,0,0.385
2012-12-12,0.062,0.062,0.062,0.062,3100,0.434
2012-12-13,0.062,0.062,0.062,0.062,0,0.434
2012-12-14,0.062,0.062,0.062,0.062,0,0.434
2012-12-17,0.06,0.06,0.06,0.06,1500,0.42
2012-12-18,0.062,0.062,0.062,0.062,1400,0.434
2012-12-19,0.062,0.062,0.06,0.06,10000,0.42
2012-12-20,0.06,0.06,0.06,0.06,0,0.42
2012-12-21,0.06,0.06,0.06,0.06,0,0.42
2012-12-24,0.06,0.06,0.06,0.06,0,0.42
2012-12-25,0.06,0.06,0.06,0.06,0,0.42
2012-12-26,0.06,0.06,0.06,0.06,0,0.42
2012-12-27,0.06,0.06,0.06,0.06,0,0.42
2012-12-28,0.06,0.06,0.06,0.06,0,0.42
2012-12-31,0.06,0.06,0.06,0.06,0,0.42
2013-01-01,0.06,0.06,0.06,0.06,0,0.42
2013-01-02,0.061,0.061,0.061,0.061,900,0.42700000000000005
2013-01-03,0.061,0.061,0.061,0.061,0,0.42700000000000005
2013-01-04,0.061,0.061,0.061,0.061,0,0.42700000000000005
2013-01-07,0.061,0.061,0.06,0.06,2100,0.42
2013-01-08,0.06,0.06,0.06,0.06,4500,0.42
2013-01-09,0.06,0.06,0.06,0.06,8800,0.42
2013-01-10,0.06,0.06,0.06,0.06,2400,0.42
2013-01-11,0.06,0.06,0.06,0.06,0,0.42
2013-01-14,0.06,0.06,0.06,0.06,3100,0.42
2013-01-15,0.057,0.057,0.057,0.057,4700,0.39899999999999997
2013-01-16,0.057,0.057,0.057,0.057,0,0.39899999999999997
2013-01-17,0.057,0.057,0.057,0.057,0,0.39899999999999997
2013-01-18,0.055,0.055,0.055,0.055,6100,0.385
2013-01-21,0.055,0.055,0.055,0.055,0,0.385
2013-01-22,0.055,0.055,0.055,0.055,0,0.385
2013-01-24,0.055,0.055,0.055,0.055,0,0.385
2013-01-25,0.055,0.055,0.055,0.055,0,0.385
2013-01-28,0.055,0.055,0.055,0.055,0,0.385
2013-01-29,0.055999999999999994,0.055999999999999994,0.055999999999999994,0.055999999999999994,1400,0.392
2013-01-30,0.055999999999999994,0.055999999999999994,0.055999999999999994,0.055999999999999994,0,0.392
2013-01-31,0.055999999999999994,0.055999999999999994,0.055999999999999994,0.055999999999999994,0,0.392
2013-02-01,0.051,0.051,0.051,0.051,5000,0.35700000000000004
2013-02-04,0.051,0.051,0.051,0.051,0,0.35700000000000004
2013-02-05,0.051,0.051,0.051,0.051,0,0.35700000000000004
2013-02-06,0.051,0.051,0.051,0.051,0,0.35700000000000004
2013-02-07,0.049,0.049,0.049,0.049,3000,0.34299999999999997
2013-02-08,0.049,0.049,0.049,0.049,0,0.34299999999999997
2013-02-11,0.049,0.049,0.049,0.049,0,0.34299999999999997
2013-02-12,0.049,0.049,0.049,0.049,0,0.34299999999999997
2013-02-13,0.049,0.049,0.049,0.049,0,0.34299999999999997
2013-02-14,0.051,0.051,0.05,0.05,5400,0.35
2013-02-15,0.05,0.05,0.05,0.05,0,0.35
2013-02-18,0.05,0.05,0.05,0.05,0,0.35
2013-02-19,0.05,0.05,0.05,0.05,0,0.35
2013-02-20,0.05,0.05,0.05,0.05,0,0.35
2013-02-21,0.05,0.05,0.05,0.05,0,0.35
2013-02-22,0.05,0.05,0.05,0.05,0,0.35
2013-02-25,0.05,0.05,0.05,0.05,0,0.35
2013-02-26,0.05,0.05,0.05,0.05,300,0.35
2013-02-27,0.05,0.05,0.05,0.05,0,0.35
2013-02-28,0.05,0.05,0.05,0.05,0,0.35
2013-03-01,0.05,0.05,0.05,0.05,0,0.35
2013-03-04,0.05,0.05,0.05,0.05,2100,0.35
2013-03-05,0.05,0.05,0.05,0.05,0,0.35
2013-03-06,0.05,0.05,0.05,0.05,0,0.35
2013-03-07,0.05,0.05,0.05,0.05,0,0.35
2013-03-08,0.05,0.05,0.05,0.05,21300,0.35
2013-03-11,0.05,0.05,0.05,0.05,0,0.35
2013-03-12,0.05,0.05,0.05,0.05,0,0.35
2013-03-13,0.049,0.05,0.045,0.05,27000,0.35
2013-03-14,0.049,0.051,0.049,0.051,71800,0.35700000000000004
2013-03-15,0.051,0.06,0.05,0.06,26900,0.42
2013-03-18,0.059000000000000004,0.059000000000000004,0.059000000000000004,0.059000000000000004,17600,0.413
2013-03-19,0.059000000000000004,0.059000000000000004,0.059000000000000004,0.059000000000000004,6000,0.413
2013-03-20,0.055,0.055,0.055,0.055,26300,0.385
2013-03-21,0.055,0.055,0.055,0.055,2800,0.385
2013-03-22,0.055,0.055,0.055,0.055,1400,0.385
2013-03-25,0.055,0.055,0.055,0.055,52600,0.385
2013-03-26,0.055,0.055,0.055,0.055,5100,0.385
2013-03-27,0.053,0.053,0.053,0.053,11400,0.371
2013-03-28,0.053,0.053,0.053,0.053,2700,0.371
2013-03-29,0.053,0.053,0.053,0.053,0,0.371
2013-04-01,0.053,0.053,0.053,0.053,0,0.371
2013-04-02,0.053,0.053,0.052000000000000005,0.052000000000000005,11700,0.364
2013-04-03,0.052000000000000005,0.052000000000000005,0.052000000000000005,0.052000000000000005,18300,0.364
2013-04-04,0.052000000000000005,0.052000000000000005,0.052000000000000005,0.052000000000000005,0,0.364
2013-04-05,0.052000000000000005,0.052000000000000005,0.052000000000000005,0.052000000000000005,0,0.364
2013-04-08,0.052000000000000005,0.052000000000000005,0.052000000000000005,0.052000000000000005,15000,0.364
2013-04-09,0.052000000000000005,0.052000000000000005,0.052000000000000005,0.052000000000000005,0,0.364
2013-04-10,0.054000000000000006,0.054000000000000006,0.054000000000000006,0.054000000000000006,35700,0.37799999999999995
2013-04-11,0.054000000000000006,0.054000000000000006,0.054000000000000006,0.054000000000000006,0,0.37799999999999995
2013-04-12,0.054000000000000006,0.054000000000000006,0.054000000000000006,0.054000000000000006,0,0.37799999999999995
2013-04-15,0.054000000000000006,0.054000000000000006,0.054000000000000006,0.054000000000000006,0,0.37799999999999995
2013-04-16,0.054000000000000006,0.054000000000000006,0.054000000000000006,0.054000000000000006,0,0.37799999999999995
2013-04-17,0.052000000000000005,0.052000000000000005,0.05,0.05,17100,0.35
2013-04-18,0.052000000000000005,0.052000000000000005,0.052000000000000005,0.052000000000000005,2800,0.364
2013-04-19,0.052000000000000005,0.052000000000000005,0.052000000000000005,0.052000000000000005,0,0.364
2013-04-22,0.052000000000000005,0.052000000000000005,0.052000000000000005,0.052000000000000005,0,0.364
2013-04-23,0.052000000000000005,0.052000000000000005,0.052000000000000005,0.052000000000000005,0,0.364
2013-04-24,0.052000000000000005,0.052000000000000005,0.052000000000000005,0.052000000000000005,0,0.364
2013-04-25,0.052000000000000005,0.052000000000000005,0.052000000000000005,0.052000000000000005,0,0.364
2013-04-26,0.052000000000000005,0.052000000000000005,0.052000000000000005,0.052000000000000005,0,0.364
2013-04-29,0.048,0.048,0.048,0.048,2100,0.336
2013-04-30,0.048,0.048,0.048,0.048,0,0.336
2013-05-01,0.036000000000000004,0.037000000000000005,0.036000000000000004,0.037000000000000005,6600,0.259
2013-05-02,0.037000000000000005,0.037000000000000005,0.037000000000000005,0.037000000000000005,0,0.259
2013-05-03,0.037000000000000005,0.037000000000000005,0.037000000000000005,0.037000000000000005,0,0.259
2013-05-06,0.037000000000000005,0.037000000000000005,0.037000000000000005,0.037000000000000005,0,0.259
2013-05-07,0.037000000000000005,0.037000000000000005,0.037000000000000005,0.037000000000000005,0,0.259
2013-05-08,0.037000000000000005,0.037000000000000005,0.037000000000000005,0.037000000000000005,0,0.259
2013-05-09,0.037000000000000005,0.037000000000000005,0.037000000000000005,0.037000000000000005,0,0.259
2013-05-10,0.037000000000000005,0.037000000000000005,0.037000000000000005,0.037000000000000005,0,0.259
2013-05-13,0.037000000000000005,0.037000000000000005,0.037000000000000005,0.037000000000000005,0,0.259
2013-05-14,0.037000000000000005,0.037000000000000005,0.037000000000000005,0.037000000000000005,0,0.259
2013-05-15,0.04,0.04,0.04,0.04,37500,0.28
2013-05-16,0.04,0.04,0.04,0.04,0,0.28
2013-05-17,0.04,0.04,0.04,0.04,0,0.28
2013-05-20,0.04,0.04,0.04,0.04,0,0.28
2013-05-21,0.04,0.04,0.04,0.04,22700,0.28
2013-05-22,0.04,0.04,0.04,0.04,100,0.28
2013-05-23,0.04,0.04,0.04,0.04,21300,0.28
2013-05-24,0.04,0.04,0.04,0.04,0,0.28
2013-05-27,0.04,0.04,0.04,0.04,6500,0.28
2013-05-28,0.035,0.035,0.035,0.035,600,0.245
2013-05-29,0.035,0.035,0.035,0.035,0,0.245
2013-05-30,0.035,0.035,0.035,0.035,1400,0.245
2013-05-31,0.035,0.035,0.035,0.035,0,0.245
2013-06-03,0.035,0.035,0.035,0.035,0,0.245
2013-06-04,0.035,0.035,0.035,0.035,10700,0.245
2013-06-05,0.035,0.035,0.035,0.035,0,0.245
2013-06-06,0.035,0.035,0.035,0.035,1400,0.245
2013-06-07,0.031,0.031,0.031,0.031,100,0.217
2013-06-10,0.031,0.031,0.031,0.031,0,0.217
2013-06-11,0.031,0.031,0.025,0.025,16400,0.175
2013-06-12,0.026000000000000002,0.026000000000000002,0.026000000000000002,0.026000000000000002,4200,0.182
2013-06-13,0.026000000000000002,0.026000000000000002,0.025,0.025,18500,0.175
2013-06-14,0.025,0.025,0.02,0.02,43100,0.14
2013-06-17,0.02,0.021,0.02,0.021,15000,0.147
2013-06-18,0.021,0.025,0.021,0.025,74500,0.175
2013-06-19,0.024,0.025,0.021,0.021,127900,0.147
2013-06-20,0.024,0.024,0.024,0.024,21700,0.168
2013-06-21,0.024,0.026000000000000002,0.024,0.026000000000000002,3500,0.182
2013-06-24,0.03,0.031,0.03,0.031,11400,0.217
2013-06-25,0.035,0.035,0.035,0.035,2000,0.245
2013-06-26,0.038,0.04,0.038,0.04,7900,0.28
2013-06-27,0.04,0.04,0.04,0.04,30100,0.28
2013-06-28,0.03,0.03,0.03,0.03,5800,0.21
2013-07-01,0.03,0.03,0.03,0.03,1000,0.21
2013-07-02,0.04,0.04,0.04,0.04,21400,0.28
2013-07-03,0.040999999999999995,0.040999999999999995,0.040999999999999995,0.040999999999999995,1800,0.287
2013-07-04,0.040999999999999995,0.040999999999999995,0.040999999999999995,0.040999999999999995,0,0.287
2013-07-05,0.044000000000000004,0.044000000000000004,0.044000000000000004,0.044000000000000004,5300,0.308
2013-07-08,0.044000000000000004,0.044000000000000004,0.044000000000000004,0.044000000000000004,0,0.308
2013-07-09,0.044000000000000004,0.044000000000000004,0.044000000000000004,0.044000000000000004,0,0.308
2013-07-10,0.044000000000000004,0.044000000000000004,0.044000000000000004,0.044000000000000004,0,0.308
2013-07-11,0.044000000000000004,0.044000000000000004,0.044000000000000004,0.044000000000000004,0,0.308
2013-07-12,0.044000000000000004,0.044000000000000004,0.044000000000000004,0.044000000000000004,0,0.308
2013-07-15,0.044000000000000004,0.044000000000000004,0.044000000000000004,0.044000000000000004,0,0.308
2013-07-16,0.044000000000000004,0.044000000000000004,0.044000000000000004,0.044000000000000004,0,0.308
2013-07-17,0.044000000000000004,0.044000000000000004,0.044000000000000004,0.044000000000000004,0,0.308
2013-07-18,0.044000000000000004,0.044000000000000004,0.044000000000000004,0.044000000000000004,0,0.308
2013-07-19,0.044000000000000004,0.044000000000000004,0.044000000000000004,0.044000000000000004,0,0.308
2013-07-22,0.044000000000000004,0.044000000000000004,0.044000000000000004,0.044000000000000004,0,0.308
2013-07-23,0.044000000000000004,0.044000000000000004,0.044000000000000004,0.044000000000000004,0,0.308
2013-07-24,0.038,0.038,0.038,0.038,7100,0.266
2013-07-25,0.038,0.038,0.038,0.038,0,0.266
2013-07-26,0.038,0.038,0.038,0.038,0,0.266
2013-07-29,0.036000000000000004,0.036000000000000004,0.036000000000000004,0.036000000000000004,1400,0.252
2013-07-30,0.036000000000000004,0.036000000000000004,0.036000000000000004,0.036000000000000004,8500,0.252
2013-07-31,0.036000000000000004,0.036000000000000004,0.035,0.035,14200,0.245
2013-08-01,0.035,0.035,0.035,0.035,0,0.245
2013-08-02,0.035,0.035,0.035,0.035,0,0.245
2013-08-05,0.036000000000000004,0.036000000000000004,0.036000000000000004,0.036000000000000004,244000,0.252
2013-08-06,0.036000000000000004,0.036000000000000004,0.036000000000000004,0.036000000000000004,0,0.252
2013-08-07,0.04,0.04,0.036000000000000004,0.036000000000000004,344400,0.252
2013-08-08,0.036000000000000004,0.036000000000000004,0.036000000000000004,0.036000000000000004,400,0.252
2013-08-09,0.036000000000000004,0.036000000000000004,0.036000000000000004,0.036000000000000004,0,0.252
2013-08-12,0.036000000000000004,0.036000000000000004,0.036000000000000004,0.036000000000000004,0,0.252
2013-08-13,0.036000000000000004,0.036000000000000004,0.036000000000000004,0.036000000000000004,0,0.252
2013-08-14,0.04,0.04,0.04,0.04,4000,0.28
2013-08-15,0.04,0.04,0.04,0.04,10300,0.28
2013-08-16,0.044000000000000004,0.045,0.044000000000000004,0.045,4200,0.315
2013-08-19,0.05,0.05,0.05,0.05,14800,0.35
2013-08-20,0.05,0.05,0.05,0.05,0,0.35
2013-08-21,0.05,0.05,0.05,0.05,17100,0.35
2013-08-22,0.05,0.05,0.05,0.05,8800,0.35
2013-08-23,0.05,0.05,0.05,0.05,0,0.35
2013-08-26,0.05,0.05,0.05,0.05,0,0.35
2013-08-27,0.05,0.05,0.05,0.05,0,0.35
2013-08-28,0.05,0.05,0.05,0.05,0,0.35
2013-08-29,0.05,0.05,0.05,0.05,0,0.35
2013-08-30,0.05,0.05,0.05,0.05,0,0.35
2013-09-02,0.05,0.05,0.05,0.05,7000,0.35
2013-09-03,0.05,0.05,0.05,0.05,0,0.35
2013-09-04,0.05,0.05,0.05,0.05,1400,0.35
2013-09-05,0.045,0.045,0.045,0.045,4200,0.315
2013-09-06,0.045,0.045,0.045,0.045,0,0.315
2013-09-09,0.05,0.05,0.05,0.05,200,0.35
2013-09-10,0.05,0.05,0.05,0.05,4200,0.35
2013-09-11,0.05,0.05,0.05,0.05,5800,0.35
2013-09-12,0.05,0.05,0.05,0.05,0,0.35
2013-09-13,0.047,0.047,0.044000000000000004,0.044000000000000004,32000,0.308
2013-09-16,0.044000000000000004,0.044000000000000004,0.044000000000000004,0.044000000000000004,0,0.308
2013-09-17,0.044000000000000004,0.044000000000000004,0.044000000000000004,0.044000000000000004,0,0.308
2013-09-18,0.04,0.04,0.04,0.04,11700,0.28
2013-09-19,0.04,0.04,0.04,0.04,0,0.28
2013-09-20,0.04,0.04,0.04,0.04,0,0.28
2013-09-23,0.04,0.04,0.04,0.04,1400,0.28
2013-09-24,0.035,0.035,0.035,0.035,6800,0.245
2013-09-25,0.035,0.035,0.035,0.035,0,0.245
2013-09-26,0.034,0.04,0.034,0.04,2000,0.28
2013-09-27,0.04,0.04,0.04,0.04,0,0.28
2013-09-30,0.04,0.04,0.04,0.04,0,0.28
2013-10-01,0.04,0.04,0.04,0.04,0,0.28
2013-10-02,0.04,0.04,0.04,0.04,0,0.28
2013-10-03,0.04,0.04,0.04,0.04,700,0.28
2013-10-04,0.04,0.04,0.04,0.04,0,0.28
2013-10-07,0.04,0.04,0.04,0.04,1400,0.28
2013-10-08,0.04,0.04,0.04,0.04,0,0.28
2013-10-09,0.04,0.04,0.04,0.04,1500,0.28
2013-10-10,0.04,0.04,0.04,0.04,1000,0.28
2013-10-11,0.035,0.035,0.035,0.035,17000,0.245
2013-10-14,0.035,0.035,0.035,0.035,0,0.245
2013-10-15,0.035,0.035,0.035,0.035,0,0.245
2013-10-16,0.035,0.035,0.035,0.035,0,0.245
2013-10-17,0.04,0.045,0.04,0.045,17100,0.315
2013-10-18,0.045,0.045,0.045,0.045,0,0.315
2013-10-21,0.040999999999999995,0.040999999999999995,0.040999999999999995,0.040999999999999995,8500,0.287
2013-10-22,0.04,0.04,0.04,0.04,2800,0.28
2013-10-23,0.04,0.04,0.04,0.04,0,0.28
2013-10-24,0.04,0.04,0.04,0.04,0,0.28
2013-10-25,0.04,0.04,0.04,0.04,0,0.28
2013-10-28,0.04,0.04,0.04,0.04,0,0.28
2013-10-29,0.04,0.04,0.04,0.04,0,0.28
2013-10-30,0.04,0.04,0.04,0.04,0,0.28
2013-10-31,0.040999999999999995,0.040999999999999995,0.04,0.04,18500,0.28
2013-11-01,0.04,0.04,0.04,0.04,2800,0.28
2013-11-04,0.04,0.05,0.04,0.05,3300,0.35
2013-11-05,0.048,0.048,0.042,0.042,2600,0.294
2013-11-06,0.042,0.042,0.042,0.042,0,0.294
2013-11-07,0.042,0.042,0.042,0.042,0,0.294
2013-11-08,0.042,0.042,0.042,0.042,0,0.294
2013-11-11,0.042,0.042,0.042,0.042,0,0.294
2013-11-12,0.042,0.042,0.042,0.042,0,0.294
2013-11-13,0.048,0.048,0.048,0.048,2700,0.336
2013-11-14,0.048,0.048,0.048,0.048,0,0.336
2013-11-15,0.048,0.048,0.048,0.048,0,0.336
2013-11-18,0.047,0.047,0.047,0.047,1700,0.32899999999999996
2013-11-19,0.048,0.048,0.048,0.048,7100,0.336
2013-11-20,0.048,0.048,0.048,0.048,0,0.336
2013-11-21,0.048,0.048,0.048,0.048,0,0.336
2013-11-22,0.048,0.048,0.048,0.048,0,0.336
2013-11-25,0.048,0.048,0.048,0.048,0,0.336
2013-11-26,0.048,0.048,0.048,0.048,0,0.336
2013-11-27,0.048,0.048,0.048,0.048,0,0.336
2013-11-28,0.048,0.048,0.048,0.048,0,0.336
2013-11-29,0.05,0.05,0.049,0.049,30700,0.34299999999999997
2013-12-02,0.049,0.05,0.049,0.05,17400,0.35
2013-12-03,0.045,0.045,0.04,0.04,33000,0.28
2013-12-04,0.04,0.04,0.04,0.04,0,0.28
2013-12-05,0.04,0.04,0.04,0.04,0,0.28
2013-12-06,0.04,0.04,0.04,0.04,0,0.28
2013-12-09,0.04,0.04,0.04,0.04,0,0.28
2013-12-10,0.04,0.04,0.04,0.04,0,0.28
2013-12-11,0.04,0.04,0.04,0.04,0,0.28
2013-12-12,0.04,0.04,0.04,0.04,0,0.28
2013-12-13,0.04,0.04,0.04,0.04,0,0.28
2013-12-16,0.04,0.04,0.04,0.04,0,0.28
2013-12-17,0.04,0.04,0.035,0.035,41300,0.245
2013-12-18,0.04,0.04,0.04,0.04,4200,0.28
2013-12-19,0.04,0.04,0.04,0.04,0,0.28
2013-12-20,0.04,0.04,0.04,0.04,58900,0.28
2013-12-23,0.04,0.04,0.04,0.04,5700,0.28
2013-12-24,0.04,0.04,0.04,0.04,0,0.28
2013-12-25,0.04,0.04,0.04,0.04,0,0.28
2013-12-26,0.04,0.04,0.04,0.04,0,0.28
2013-12-27,0.04,0.04,0.04,0.04,0,0.28
2013-12-30,0.04,0.04,0.04,0.04,0,0.28
2013-12-31,0.04,0.04,0.04,0.04,0,0.28
2014-01-01,0.04,0.04,0.04,0.04,0,0.28
2014-01-02,0.04,0.04,0.04,0.04,0,0.28
2014-01-03,0.04,0.04,0.04,0.04,0,0.28
2014-01-06,0.04,0.04,0.04,0.04,0,0.28
2014-01-07,0.04,0.04,0.04,0.04,0,0.28
2014-01-08,0.04,0.04,0.04,0.04,0,0.28
2014-01-09,0.04,0.04,0.04,0.04,0,0.28
2014-01-10,0.04,0.04,0.04,0.04,0,0.28
2014-01-13,0.040999999999999995,0.040999999999999995,0.04,0.04,13300,0.28
2014-01-14,0.04,0.04,0.04,0.04,0,0.28
2014-01-15,0.04,0.04,0.04,0.04,0,0.28
2014-01-16,0.04,0.04,0.04,0.04,0,0.28
2014-01-17,0.04,0.04,0.04,0.04,0,0.28
2014-01-20,0.04,0.04,0.04,0.04,0,0.28
2014-01-21,0.04,0.04,0.04,0.04,0,0.28
2014-01-22,0.04,0.04,0.04,0.04,0,0.28
2014-01-23,0.04,0.04,0.04,0.04,0,0.28
2014-01-24,0.04,0.04,0.04,0.04,0,0.28
2014-01-27,0.04,0.04,0.04,0.04,0,0.28
2014-01-28,0.04,0.04,0.04,0.04,0,0.28
2014-01-29,0.04,0.04,0.04,0.04,0,0.28
2014-01-30,0.04,0.04,0.04,0.04,0,0.28
2014-01-31,0.04,0.04,0.04,0.04,0,0.28
2014-02-03,0.035,0.035,0.035,0.035,12800,0.245
2014-02-04,0.035,0.035,0.035,0.035,0,0.245
2014-02-05,0.03,0.035,0.03,0.035,6300,0.245
2014-02-06,0.035,0.035,0.035,0.035,0,0.245
2014-02-07,0.035,0.035,0.035,0.035,0,0.245
2014-02-10,0.035,0.035,0.035,0.035,0,0.245
2014-02-11,0.035,0.035,0.035,0.035,0,0.245
2014-02-12,0.035,0.035,0.035,0.035,0,0.245
2014-02-13,0.035,0.035,0.035,0.035,0,0.245
2014-02-14,0.027999999999999997,0.03,0.025,0.03,8200,0.21
2014-02-17,0.03,0.03,0.03,0.03,31000,0.21
2014-02-18,0.032,0.035,0.032,0.035,49700,0.245
2014-02-19,0.036000000000000004,0.04,0.035,0.04,135600,0.28
2014-02-20,0.04,0.04,0.04,0.04,14800,0.28
2014-02-21,0.04,0.040999999999999995,0.04,0.040999999999999995,17700,0.287
2014-02-24,0.040999999999999995,0.040999999999999995,0.04,0.04,7100,0.28
2014-02-25,0.04,0.04,0.04,0.04,64200,0.28
2014-02-26,0.04,0.045,0.04,0.04,828800,0.28
2014-02-27,0.045,0.045,0.04,0.043,200600,0.301
2014-02-28,0.045,0.045,0.042,0.042,50100,0.294
2014-03-03,0.045,0.045,0.043,0.043,67900,0.301
2014-03-04,0.045,0.046,0.045,0.046,25300,0.322
2014-03-05,0.047,0.048,0.047,0.047,92800,0.32899999999999996
2014-03-06,0.047,0.047,0.047,0.047,0,0.32899999999999996
2014-03-07,0.047,0.047,0.047,0.047,5800,0.32899999999999996
2014-03-10,0.046,0.046,0.046,0.046,31400,0.322
2014-03-11,0.046,0.046,0.045,0.045,11000,0.315
2014-03-12,0.045,0.045,0.043,0.043,37800,0.301
2014-03-13,0.05,0.05,0.043,0.043,78200,0.301
2014-03-14,0.043,0.043,0.043,0.043,0,0.301
2014-03-17,0.045,0.048,0.045,0.048,13400,0.336
2014-03-18,0.048,0.048,0.048,0.048,0,0.336
2014-03-19,0.048,0.048,0.048,0.048,0,0.336
2014-03-20,0.048,0.048,0.048,0.048,0,0.336
2014-03-21,0.047,0.047,0.043,0.043,5400,0.301
2014-03-24,0.043,0.043,0.043,0.043,0,0.301
2014-03-25,0.043,0.043,0.043,0.043,0,0.301
2014-03-26,0.044000000000000004,0.044000000000000004,0.044000000000000004,0.044000000000000004,7700,0.308
2014-03-27,0.044000000000000004,0.044000000000000004,0.044000000000000004,0.044000000000000004,0,0.308
2014-03-28,0.044000000000000004,0.044000000000000004,0.044000000000000004,0.044000000000000004,0,0.308
2014-03-31,0.044000000000000004,0.044000000000000004,0.044000000000000004,0.044000000000000004,300,0.308
2014-04-01,0.044000000000000004,0.047,0.044000000000000004,0.044000000000000004,45000,0.308
2014-04-02,0.044000000000000004,0.044000000000000004,0.044000000000000004,0.044000000000000004,0,0.308
2014-04-03,0.048,0.05,0.048,0.049,83000,0.34299999999999997
2014-04-04,0.049,0.049,0.049,0.049,14200,0.34299999999999997
2014-04-07,0.049,0.049,0.049,0.049,0,0.34299999999999997
2014-04-08,0.046,0.046,0.045,0.045,7200,0.315
2014-04-09,0.046,0.046,0.046,0.046,28500,0.322
2014-04-10,0.046,0.046,0.046,0.046,0,0.322
2014-04-11,0.046,0.046,0.046,0.046,0,0.322
2014-04-14,0.046,0.046,0.046,0.046,0,0.322
2014-04-15,0.046,0.046,0.046,0.046,0,0.322
2014-04-16,0.046,0.046,0.046,0.046,0,0.322
2014-04-17,0.046,0.046,0.046,0.046,0,0.322
2014-04-18,0.046,0.046,0.046,0.046,0,0.322
2014-04-21,0.046,0.046,0.046,0.046,0,0.322
2014-04-22,0.046,0.046,0.046,0.046,0,0.322
2014-04-23,0.046,0.046,0.046,0.046,0,0.322
2014-04-24,0.046,0.046,0.046,0.046,0,0.322
2014-04-25,0.046,0.046,0.046,0.046,0,0.322
2014-04-28,0.046,0.046,0.046,0.046,0,0.322
2014-04-29,0.046,0.046,0.046,0.046,0,0.322
2014-04-30,0.046,0.046,0.046,0.046,0,0.322
2014-05-01,0.046,0.046,0.046,0.046,0,0.322
2014-05-02,0.046,0.046,0.046,0.046,0,0.322
2014-05-05,0.045,0.055,0.045,0.055,153700,0.385
2014-05-06,0.07,0.095,0.07,0.083,1128500,0.581
2014-05-07,0.081,0.08199999999999999,0.071,0.071,383400,0.49700000000000005
2014-05-08,0.071,0.071,0.06,0.06,147200,0.42
2014-05-09,0.06,0.071,0.06,0.066,131000,0.462
2014-05-12,0.066,0.069,0.065,0.069,35800,0.483
2014-05-13,0.065,0.065,0.064,0.065,48500,0.455
2014-05-14,0.065,0.066,0.065,0.066,2800,0.462
2014-05-15,0.062,0.062,0.06,0.06,38200,0.42
2014-05-16,0.065,0.069,0.065,0.067,92700,0.469
2014-05-19,0.065,0.065,0.065,0.065,2800,0.455
2014-05-20,0.065,0.065,0.065,0.065,2400,0.455
2014-05-21,0.061,0.061,0.053,0.053,143700,0.371
2014-05-22,0.053,0.053,0.053,0.053,0,0.371
2014-05-23,0.055,0.057999999999999996,0.055,0.057999999999999996,57100,0.406
2014-05-26,0.059000000000000004,0.059000000000000004,0.057999999999999996,0.057999999999999996,15100,0.406
2014-05-27,0.059000000000000004,0.059000000000000004,0.053,0.053,23500,0.371
2014-05-28,0.057999999999999996,0.057999999999999996,0.057,0.057999999999999996,51200,0.406
2014-05-29,0.057999999999999996,0.057999999999999996,0.057999999999999996,0.057999999999999996,2800,0.406
2014-05-30,0.055999999999999994,0.057999999999999996,0.055999999999999994,0.055999999999999994,12400,0.392
2014-06-02,0.055,0.055,0.055,0.055,3200,0.385
2014-06-03,0.057999999999999996,0.059000000000000004,0.057999999999999996,0.057999999999999996,12600,0.406
2014-06-04,0.055,0.055,0.054000000000000006,0.054000000000000006,57300,0.37799999999999995
2014-06-05,0.055,0.055,0.055,0.055,24700,0.385
2014-06-06,0.055999999999999994,0.057,0.055,0.055,10100,0.385
2014-06-09,0.055,0.055,0.055,0.055,0,0.385
2014-06-10,0.055,0.055,0.055,0.055,1400,0.385
2014-06-11,0.055999999999999994,0.057,0.055999999999999994,0.057,5400,0.39899999999999997
2014-06-12,0.055999999999999994,0.055999999999999994,0.055999999999999994,0.055999999999999994,42100,0.392
2014-06-13,0.055,0.055999999999999994,0.055,0.055999999999999994,24400,0.392
2014-06-16,0.055,0.055999999999999994,0.054000000000000006,0.055999999999999994,24700,0.392
2014-06-17,0.055,0.055999999999999994,0.053,0.053,48800,0.371
2014-06-18,0.054000000000000006,0.055999999999999994,0.053,0.055999999999999994,25400,0.392
2014-06-19,0.054000000000000006,0.055999999999999994,0.054000000000000006,0.055,53400,0.385
2014-06-20,0.055,0.055999999999999994,0.053,0.055999999999999994,64600,0.392
2014-06-23,0.06,0.06,0.06,0.06,2300,0.42
2014-06-24,0.055999999999999994,0.055999999999999994,0.054000000000000006,0.055,16400,0.385
2014-06-25,0.055,0.06,0.055,0.06,31400,0.42
2014-06-26,0.06,0.06,0.06,0.06,200,0.42
2014-06-27,0.06,0.06,0.055999999999999994,0.055999999999999994,2800,0.392
2014-06-30,0.055999999999999994,0.055999999999999994,0.055,0.055,21300,0.385
2014-07-01,0.055,0.059000000000000004,0.054000000000000006,0.059000000000000004,25100,0.413
2014-07-02,0.059000000000000004,0.059000000000000004,0.059000000000000004,0.059000000000000004,3200,0.413
2014-07-03,0.053,0.055,0.053,0.055,3900,0.385
2014-07-04,0.055,0.055,0.055,0.055,0,0.385
2014-07-07,0.059000000000000004,0.059000000000000004,0.055,0.055,3500,0.385
2014-07-08,0.055,0.055,0.054000000000000006,0.054000000000000006,13100,0.37799999999999995
2014-07-09,0.055,0.055,0.055,0.055,3000,0.385
2014-07-10,0.055999999999999994,0.055999999999999994,0.055999999999999994,0.055999999999999994,3400,0.392
2014-07-11,0.055999999999999994,0.055999999999999994,0.055,0.055,32900,0.385
2014-07-14,0.055,0.055999999999999994,0.055,0.055999999999999994,12900,0.392
2014-07-15,0.054000000000000006,0.054000000000000006,0.054000000000000006,0.054000000000000006,1700,0.37799999999999995
2014-07-16,0.054000000000000006,0.054000000000000006,0.054000000000000006,0.054000000000000006,0,0.37799999999999995
2014-07-17,0.053,0.055999999999999994,0.053,0.055999999999999994,7900,0.392
2014-07-18,0.059000000000000004,0.059000000000000004,0.059000000000000004,0.059000000000000004,6400,0.413
2014-07-21,0.059000000000000004,0.061,0.057,0.057,11800,0.39899999999999997
2014-07-22,0.057,0.061,0.057,0.061,13500,0.42700000000000005
2014-07-23,0.061,0.067,0.06,0.062,50100,0.434
2014-07-24,0.065,0.07,0.065,0.067,63500,0.469
2014-07-25,0.067,0.068,0.067,0.067,40000,0.469
2014-07-28,0.068,0.068,0.066,0.067,35000,0.469
2014-07-29,0.065,0.067,0.063,0.067,13800,0.469
2014-07-30,0.067,0.067,0.067,0.067,5000,0.469
2014-07-31,0.067,0.067,0.064,0.064,11000,0.44799999999999995
2014-08-01,0.065,0.067,0.065,0.067,17800,0.469
2014-08-04,0.063,0.063,0.063,0.063,700,0.441
2014-08-05,0.064,0.064,0.06,0.06,42800,0.42
2014-08-06,0.06,0.06,0.06,0.06,0,0.42
2014-08-07,0.061,0.061,0.061,0.061,1700,0.42700000000000005
2014-08-08,0.063,0.063,0.063,0.063,8400,0.441
2014-08-11,0.062,0.067,0.062,0.067,6500,0.469
2014-08-12,0.067,0.067,0.067,0.067,0,0.469
2014-08-13,0.066,0.066,0.066,0.066,4100,0.462
2014-08-14,0.064,0.067,0.064,0.067,10000,0.469
2014-08-15,0.066,0.067,0.065,0.065,24800,0.455
2014-08-18,0.066,0.068,0.066,0.068,69200,0.47600000000000003
2014-08-19,0.07,0.07,0.07,0.07,43400,0.49
2014-08-20,0.07,0.07,0.07,0.07,33800,0.49
2014-08-21,0.07,0.07,0.07,0.07,32500,0.49
2014-08-22,0.07,0.07,0.068,0.068,75000,0.47600000000000003
2014-08-25,0.068,0.07,0.068,0.069,58500,0.483
2014-08-26,0.07,0.07,0.07,0.07,37500,0.49
2014-08-27,0.07,0.07,0.07,0.07,20200,0.49
2014-08-28,0.071,0.07200000000000001,0.071,0.07200000000000001,12100,0.504
2014-08-29,0.07200000000000001,0.07200000000000001,0.069,0.069,42400,0.483
2014-09-01,0.069,0.069,0.067,0.067,3100,0.469
2014-09-02,0.068,0.069,0.067,0.069,85900,0.483
2014-09-03,0.069,0.07200000000000001,0.068,0.068,67200,0.47600000000000003
2014-09-04,0.07,0.073,0.07,0.07200000000000001,67400,0.504
2014-09-05,0.076,0.08,0.07400000000000001,0.075,255300,0.525
2014-09-08,0.08,0.087,0.08,0.085,79200,0.595
2014-09-09,0.085,0.09,0.085,0.09,29000,0.63
2014-09-10,0.09,0.092,0.09,0.091,17900,0.637
2014-09-11,0.09,0.09,0.083,0.083,13100,0.581
2014-09-12,0.087,0.08800000000000001,0.083,0.083,20500,0.581
2014-09-15,0.085,0.085,0.08199999999999999,0.08199999999999999,35100,0.574
2014-09-16,0.083,0.083,0.08,0.08,28100,0.56
2014-09-17,0.078,0.078,0.075,0.075,68400,0.525
2014-09-18,0.075,0.075,0.075,0.075,22200,0.525
2014-09-19,0.076,0.079,0.075,0.078,65500,0.546
2014-09-22,0.078,0.079,0.078,0.079,40600,0.5529999999999999
2014-09-23,0.08,0.08,0.08,0.08,7100,0.56
2014-09-24,0.08,0.08,0.08,0.08,0,0.56
2014-09-25,0.077,0.077,0.076,0.076,16700,0.532
2014-09-26,0.076,0.076,0.076,0.076,0,0.532
2014-09-29,0.071,0.071,0.071,0.071,3300,0.49700000000000005
2014-09-30,0.071,0.071,0.068,0.068,48500,0.47600000000000003
2014-10-01,0.068,0.068,0.068,0.068,2100,0.47600000000000003
2014-10-02,0.068,0.068,0.068,0.068,9000,0.47600000000000003
2014-10-03,0.07200000000000001,0.07200000000000001,0.07200000000000001,0.07200000000000001,3900,0.504
2014-10-06,0.07200000000000001,0.07200000000000001,0.07200000000000001,0.07200000000000001,62800,0.504
2014-10-07,0.07200000000000001,0.07200000000000001,0.07200000000000001,0.07200000000000001,1100,0.504
2014-10-08,0.07200000000000001,0.07200000000000001,0.07200000000000001,0.07200000000000001,0,0.504
2014-10-09,0.07200000000000001,0.07200000000000001,0.07200000000000001,0.07200000000000001,0,0.504
2014-10-10,0.07200000000000001,0.073,0.07,0.07,30700,0.49
2014-10-13,0.07,0.073,0.07,0.073,5500,0.511
2014-10-14,0.07,0.07,0.07,0.07,3500,0.49
2014-10-15,0.07,0.07,0.07,0.07,0,0.49
2014-10-16,0.07,0.07,0.064,0.064,17400,0.44799999999999995
2014-10-17,0.066,0.066,0.066,0.066,1500,0.462
2014-10-20,0.066,0.066,0.066,0.066,1400,0.462
2014-10-21,0.073,0.078,0.073,0.078,5800,0.546
2014-10-22,0.078,0.078,0.078,0.078,0,0.546
2014-10-23,0.078,0.078,0.078,0.078,0,0.546
2014-10-24,0.078,0.078,0.078,0.078,0,0.546
2014-10-27,0.078,0.078,0.078,0.078,0,0.546
2014-10-28,0.07400000000000001,0.07400000000000001,0.07400000000000001,0.07400000000000001,1400,0.518
2014-10-29,0.07,0.07,0.07,0.07,9100,0.49
2014-10-30,0.066,0.066,0.066,0.066,3300,0.462
2014-10-31,0.066,0.066,0.066,0.066,6400,0.462
2014-11-03,0.062,0.062,0.06,0.06,19600,0.42
2014-11-04,0.06,0.06,0.06,0.06,0,0.42
2014-11-05,0.06,0.06,0.06,0.06,0,0.42
2014-11-06,0.06,0.06,0.06,0.06,0,0.42
2014-11-07,0.06,0.06,0.06,0.06,0,0.42
2014-11-10,0.064,0.065,0.064,0.065,57300,0.455
2014-11-11,0.065,0.065,0.065,0.065,14400,0.455
2014-11-12,0.065,0.065,0.065,0.065,0,0.455
2014-11-13,0.065,0.065,0.065,0.065,5700,0.455
2014-11-14,0.065,0.065,0.062,0.062,51700,0.434
2014-11-17,0.062,0.062,0.062,0.062,0,0.434
2014-11-18,0.062,0.062,0.057999999999999996,0.057999999999999996,4500,0.406
2014-11-19,0.057999999999999996,0.057999999999999996,0.055,0.055,8300,0.385
2014-11-20,0.055,0.055,0.055,0.055,0,0.385
2014-11-21,0.055,0.055,0.055,0.055,0,0.385
2014-11-24,0.063,0.063,0.057999999999999996,0.057999999999999996,14200,0.406
2014-11-25,0.06,0.06,0.059000000000000004,0.059000000000000004,17800,0.413
2014-11-26,0.06,0.06,0.06,0.06,10500,0.42
2014-11-27,0.06,0.06,0.06,0.06,0,0.42
2014-11-28,0.062,0.062,0.059000000000000004,0.059000000000000004,51800,0.413
2014-12-01,0.06,0.06,0.06,0.06,7100,0.42
2014-12-02,0.42,0.42,0.42,0.42,0,0.42
2014-12-03,0.42,0.42,0.42,0.42,0,0.42
2014-12-04,0.42,0.42,0.42,0.42,0,0.42
2014-12-05,0.42,0.42,0.42,0.42,0,0.42
2014-12-08,0.42,0.42,0.42,0.42,0,0.42
2014-12-09,0.42,0.42,0.42,0.42,0,0.42
2014-12-10,0.58,0.58,0.58,0.58,0,0.58
2014-12-11,0.58,0.58,0.58,0.58,0,0.58
2014-12-12,0.58,0.58,0.58,0.58,0,0.58
2014-12-15,0.58,0.58,0.58,0.58,0,0.58
2014-12-16,0.58,0.58,0.58,0.58,0,0.58
2014-12-17,0.58,0.58,0.58,0.58,0,0.58
2014-12-18,0.58,0.58,0.58,0.58,0,0.58
2014-12-19,0.58,0.58,0.58,0.58,0,0.58
2014-12-22,0.58,0.58,0.58,0.58,0,0.58
2014-12-23,0.425,0.425,0.4,0.4,21100,0.4
2014-12-24,0.4,0.4,0.4,0.4,0,0.4
2014-12-25,0.4,0.4,0.4,0.4,0,0.4
2014-12-26,0.4,0.4,0.4,0.4,0,0.4
2014-12-29,0.425,0.425,0.425,0.425,900,0.425
2014-12-30,0.425,0.425,0.425,0.425,0,0.425
2014-12-31,0.425,0.425,0.425,0.425,0,0.425
2015-01-01,0.425,0.425,0.425,0.425,0,0.425
2015-01-02,0.425,0.425,0.425,0.425,0,0.425
2015-01-05,0.43,0.45,0.43,0.45,76600,0.45
2015-01-06,0.45,0.45,0.45,0.45,0,0.45
2015-01-07,0.45,0.45,0.45,0.45,0,0.45
2015-01-08,0.45,0.45,0.45,0.45,0,0.45
2015-01-09,0.45,0.45,0.45,0.45,0,0.45
2015-01-12,0.45,0.45,0.45,0.45,0,0.45
2015-01-13,0.4,0.4,0.4,0.4,1900,0.4
2015-01-14,0.37,0.37,0.37,0.37,4900,0.37
2015-01-15,0.37,0.37,0.37,0.37,300,0.37
2015-01-16,0.4,0.4,0.4,0.4,7400,0.4
2015-01-19,0.4,0.4,0.4,0.4,0,0.4
2015-01-20,0.4,0.4,0.4,0.4,0,0.4
2015-01-21,0.4,0.4,0.39,0.39,2900,0.39
2015-01-22,0.4,0.4,0.4,0.4,300,0.4
2015-01-23,0.4,0.4,0.4,0.4,0,0.4
2015-01-26,0.4,0.4,0.4,0.4,0,0.4
2015-01-27,0.4,0.4,0.4,0.4,0,0.4
2015-01-28,0.4,0.4,0.4,0.4,9900,0.4
2015-01-29,0.4,0.4,0.4,0.4,0,0.4
2015-01-30,0.4,0.4,0.4,0.4,11100,0.4
2015-02-02,0.4,0.4,0.4,0.4,0,0.4
2015-02-03,0.4,0.4,0.4,0.4,0,0.4
2015-02-04,0.4,0.4,0.4,0.4,0,0.4
2015-02-05,0.4,0.4,0.4,0.4,0,0.4
2015-02-06,0.4,0.4,0.4,0.4,0,0.4
2015-02-09,0.4,0.4,0.4,0.4,0,0.4
2015-02-10,0.4,0.4,0.4,0.4,0,0.4
2015-02-11,0.4,0.4,0.4,0.4,0,0.4
2015-02-12,0.4,0.4,0.4,0.4,0,0.4
2015-02-13,0.4,0.4,0.4,0.4,0,0.4
2015-02-16,0.4,0.4,0.4,0.4,0,0.4
2015-02-17,0.345,0.345,0.345,0.345,10000,0.345
2015-02-18,0.345,0.345,0.345,0.345,0,0.345
2015-02-19,0.355,0.355,0.355,0.355,700,0.355
2015-02-20,0.355,0.355,0.355,0.355,0,0.355
2015-02-23,0.355,0.355,0.355,0.355,0,0.355
2015-02-24,0.375,0.375,0.375,0.375,2600,0.375
2015-02-25,0.375,0.375,0.375,0.375,0,0.375
2015-02-26,0.345,0.37,0.345,0.345,13400,0.345
2015-02-27,0.345,0.345,0.345,0.345,0,0.345
2015-03-02,0.345,0.345,0.345,0.345,8100,0.345
2015-03-03,0.345,0.35,0.345,0.345,16000,0.345
2015-03-04,0.345,0.345,0.345,0.345,200,0.345
2015-03-05,0.345,0.345,0.34,0.34,7100,0.34
2015-03-06,0.34,0.34,0.34,0.34,0,0.34
2015-03-09,0.34,0.34,0.34,0.34,0,0.34
2015-03-10,0.34,0.34,0.34,0.34,3700,0.34
2015-03-11,0.34,0.34,0.34,0.34,5300,0.34
2015-03-12,0.34,0.34,0.34,0.34,0,0.34
2015-03-13,0.31,0.31,0.31,0.31,10400,0.31
2015-03-16,0.34,0.35,0.34,0.35,18300,0.35
2015-03-17,0.37,0.41,0.37,0.4,169200,0.4
2015-03-18,0.4,0.4,0.385,0.385,38000,0.385
2015-03-19,0.375,0.375,0.375,0.375,5700,0.375
2015-03-20,0.375,0.375,0.375,0.375,0,0.375
2015-03-23,0.38,0.38,0.37,0.37,38800,0.37
2015-03-24,0.37,0.37,0.37,0.37,0,0.37
2015-03-25,0.37,0.37,0.37,0.37,0,0.37
2015-03-26,0.37,0.385,0.365,0.385,163400,0.385
2015-03-27,0.385,0.385,0.385,0.385,0,0.385
2015-03-30,0.36,0.36,0.35,0.35,518200,0.35
2015-03-31,0.35,0.35,0.35,0.35,0,0.35
2015-04-01,0.35,0.35,0.35,0.35,15400,0.35
2015-04-02,0.35,0.35,0.32,0.32,6700,0.32
2015-04-03,0.32,0.32,0.32,0.32,0,0.32
2015-04-06,0.32,0.32,0.32,0.32,0,0.32
2015-04-07,0.32,0.32,0.32,0.32,0,0.32
2015-04-08,0.32,0.32,0.32,0.32,0,0.32
2015-04-09,0.32,0.32,0.32,0.32,0,0.32
2015-04-10,0.32,0.32,0.32,0.32,0,0.32
2015-04-13,0.335,0.35,0.335,0.35,45000,0.35
2015-04-14,0.35,0.35,0.35,0.35,0,0.35
2015-04-15,0.35,0.35,0.35,0.35,10000,0.35
2015-04-16,0.35,0.35,0.35,0.35,0,0.35
2015-04-17,0.35,0.35,0.35,0.35,0,0.35
2015-04-20,0.31,0.31,0.31,0.31,1400,0.31
2015-04-21,0.34,0.34,0.32,0.32,19700,0.32
2015-04-22,0.32,0.32,0.32,0.32,8500,0.32
2015-04-23,0.32,0.35,0.32,0.35,38500,0.35
2015-04-24,0.35,0.35,0.35,0.35,2900,0.35
2015-04-27,0.35,0.35,0.35,0.35,0,0.35
2015-04-28,0.35,0.35,0.35,0.35,0,0.35
2015-04-29,0.35,0.35,0.335,0.335,8800,0.335
2015-04-30,0.335,0.335,0.335,0.335,0,0.335
2015-05-01,0.335,0.335,0.31,0.31,5700,0.31
2015-05-04,0.31,0.31,0.31,0.31,1400,0.31
2015-05-05,0.31,0.31,0.31,0.31,0,0.31
2015-05-06,0.31,0.31,0.31,0.31,3600,0.31
2015-05-07,0.31,0.31,0.31,0.31,0,0.31
2015-05-08,0.32,0.32,0.315,0.32,7500,0.32
2015-05-11,0.32,0.32,0.32,0.32,0,0.32
2015-05-12,0.32,0.32,0.32,0.32,0,0.32
2015-05-13,0.32,0.32,0.32,0.32,0,0.32
2015-05-14,0.32,0.32,0.32,0.32,0,0.32
2015-05-15,0.375,0.38,0.375,0.375,36000,0.375
2015-05-18,0.375,0.375,0.375,0.375,0,0.375
2015-05-19,0.39,0.4,0.39,0.4,18900,0.4
2015-05-20,0.39,0.39,0.39,0.39,28500,0.39
2015-05-21,0.405,0.41,0.39,0.39,31000,0.39
2015-05-22,0.39,0.39,0.39,0.39,0,0.39
2015-05-25,0.39,0.39,0.39,0.39,1200,0.39
2015-05-26,0.34,0.35,0.34,0.35,35800,0.35
2015-05-27,0.35,0.36,0.35,0.36,8700,0.36
2015-05-28,0.38,0.38,0.38,0.38,1200,0.38
2015-05-29,0.33,0.33,0.33,0.33,400,0.33
2015-06-01,0.33,0.33,0.33,0.33,0,0.33
2015-06-02,0.33,0.33,0.33,0.33,0,0.33
2015-06-03,0.33,0.33,0.33,0.33,0,0.33
2015-06-04,0.33,0.33,0.33,0.33,400,0.33
2015-06-05,0.33,0.33,0.33,0.33,0,0.33
2015-06-08,0.33,0.33,0.33,0.33,0,0.33
2015-06-09,0.34,0.34,0.33,0.33,14400,0.33
2015-06-10,0.33,0.33,0.33,0.33,0,0.33
2015-06-11,0.33,0.33,0.33,0.33,0,0.33
2015-06-12,0.33,0.33,0.33,0.33,0,0.33
2015-06-15,0.33,0.33,0.33,0.33,0,0.33
2015-06-16,0.33,0.33,0.32,0.32,25600,0.32
2015-06-17,0.325,0.325,0.31,0.31,18600,0.31
2015-06-18,0.31,0.31,0.31,0.31,0,0.31
2015-06-19,0.31,0.31,0.31,0.31,0,0.31
2015-06-22,0.29,0.29,0.29,0.29,1200,0.29
2015-06-23,0.29,0.29,0.29,0.29,700,0.29
2015-06-24,0.29,0.29,0.25,0.25,100100,0.25
2015-06-25,0.25,0.25,0.24,0.25,31400,0.25
2015-06-26,0.25,0.25,0.25,0.25,0,0.25
2015-06-29,0.26,0.26,0.26,0.26,10200,0.26
2015-06-30,0.26,0.26,0.26,0.26,0,0.26
2015-07-01,0.26,0.26,0.26,0.26,0,0.26
2015-07-02,0.3,0.3,0.3,0.3,6000,0.3
2015-07-03,0.315,0.315,0.3,0.3,25000,0.3
2015-07-06,0.3,0.3,0.3,0.3,0,0.3
2015-07-07,0.3,0.3,0.3,0.3,0,0.3
2015-07-08,0.3,0.3,0.3,0.3,0,0.3
2015-07-09,0.3,0.3,0.3,0.3,0,0.3
2015-07-10,0.31,0.31,0.31,0.31,5000,0.31
2015-07-13,0.31,0.31,0.305,0.31,17700,0.31
2015-07-14,0.33,0.4,0.33,0.365,51800,0.365
2015-07-15,0.36,0.36,0.32,0.32,33500,0.32
2015-07-16,0.34,0.34,0.31,0.31,15000,0.31
2015-07-17,0.33,0.33,0.33,0.33,22800,0.33
2015-07-20,0.34,0.34,0.34,0.34,13100,0.34
2015-07-21,0.36,0.36,0.36,0.36,3900,0.36
2015-07-22,0.36,0.36,0.36,0.36,0,0.36
2015-07-23,0.36,0.36,0.36,0.36,0,0.36
2015-07-24,0.36,0.36,0.36,0.36,0,0.36
2015-07-27,0.375,0.375,0.375,0.375,300,0.375
2015-07-28,0.38,0.39,0.38,0.39,26500,0.39
2015-07-29,0.395,0.4,0.395,0.4,23800,0.4
2015-07-30,0.4,0.4,0.39,0.39,4000,0.39
2015-07-31,0.39,0.39,0.39,0.39,0,0.39
2015-08-03,0.35,0.35,0.35,0.35,38400,0.35
2015-08-04,0.35,0.35,0.35,0.35,31000,0.35
2015-08-05,0.345,0.345,0.345,0.345,9000,0.345
2015-08-06,0.345,0.345,0.345,0.345,0,0.345
2015-08-07,0.345,0.345,0.345,0.345,0,0.345
2015-08-10,0.345,0.345,0.345,0.345,0,0.345
2015-08-11,0.35,0.375,0.35,0.375,13800,0.375
2015-08-12,0.38,0.38,0.35,0.38,25300,0.38
2015-08-13,0.38,0.38,0.38,0.38,0,0.38
2015-08-14,0.35,0.37,0.345,0.37,16200,0.37
2015-08-17,0.39,0.39,0.39,0.39,3500,0.39
2015-08-18,0.39,0.39,0.39,0.39,0,0.39
2015-08-19,0.36,0.36,0.345,0.345,27000,0.345
2015-08-20,0.345,0.345,0.345,0.345,1500,0.345
2015-08-24,0.345,0.35,0.345,0.35,15600,0.35
2015-08-25,0.35,0.35,0.35,0.35,0,0.35
2015-08-26,0.37,0.37,0.37,0.37,29900,0.37
2015-08-27,0.35,0.36,0.35,0.36,2400,0.36
2015-08-28,0.39,0.41,0.39,0.41,65000,0.41
2015-08-31,0.41,0.41,0.41,0.41,0,0.41
2015-09-01,0.415,0.42,0.415,0.42,4300,0.42
2015-09-02,0.42,0.42,0.42,0.42,0,0.42
2015-09-03,0.41,0.41,0.41,0.41,8400,0.41
2015-09-04,0.37,0.37,0.37,0.37,7200,0.37
2015-09-07,0.38,0.38,0.38,0.38,700,0.38
2015-09-08,0.38,0.38,0.38,0.38,0,0.38
2015-09-09,0.38,0.38,0.38,0.38,15200,0.38
2015-09-10,0.38,0.38,0.38,0.38,0,0.38
2015-09-11,0.37,0.37,0.37,0.37,12700,0.37
2015-09-14,0.37,0.37,0.37,0.37,9200,0.37
2015-09-15,0.38,0.38,0.38,0.38,7000,0.38
2015-09-16,0.38,0.38,0.38,0.38,0,0.38
2015-09-17,0.36,0.36,0.36,0.36,5500,0.36
2015-09-18,0.36,0.36,0.36,0.36,0,0.36
2015-09-21,0.36,0.36,0.36,0.36,0,0.36
2015-09-22,0.36,0.36,0.36,0.36,0,0.36
2015-09-23,0.36,0.36,0.36,0.36,600,0.36
2015-09-24,0.36,0.36,0.36,0.36,0,0.36
2015-09-25,0.36,0.36,0.36,0.36,0,0.36
2015-09-28,0.36,0.36,0.36,0.36,0,0.36
2015-09-29,0.36,0.36,0.36,0.36,0,0.36
2015-09-30,0.36,0.36,0.36,0.36,28000,0.36
2015-10-01,0.32,0.32,0.32,0.32,20600,0.32
2015-10-02,0.32,0.32,0.32,0.32,0,0.32
2015-10-05,0.31,0.31,0.31,0.31,8000,0.31
2015-10-06,0.31,0.31,0.31,0.31,0,0.31
2015-10-07,0.31,0.31,0.31,0.31,0,0.31
2015-10-08,0.315,0.32,0.315,0.32,7200,0.32
2015-10-09,0.33,0.34,0.33,0.34,10400,0.34
2015-10-12,0.34,0.34,0.34,0.34,0,0.34
2015-10-13,0.34,0.34,0.34,0.34,0,0.34
2015-10-14,0.34,0.34,0.34,0.34,0,0.34
2015-10-15,0.34,0.34,0.33,0.33,5400,0.33
2015-10-16,0.33,0.33,0.33,0.33,0,0.33
2015-10-19,0.33,0.33,0.33,0.33,0,0.33
2015-10-20,0.33,0.33,0.33,0.33,0,0.33
2015-10-21,0.33,0.33,0.33,0.33,2100,0.33
2015-10-22,0.33,0.33,0.33,0.33,0,0.33
2015-10-23,0.35,0.35,0.33,0.33,11600,0.33
2015-10-26,0.33,0.33,0.32,0.32,2300,0.32
2015-10-27,0.32,0.32,0.32,0.32,0,0.32
2015-10-28,0.3,0.3,0.3,0.3,1400,0.3
2015-10-29,0.3,0.3,0.3,0.3,0,0.3
2015-10-30,0.335,0.35,0.335,0.35,30500,0.35
2015-11-02,0.35,0.35,0.35,0.35,0,0.35
2015-11-03,0.35,0.35,0.35,0.35,0,0.35
2015-11-04,0.34,0.35,0.34,0.35,2000,0.35
2015-11-05,0.35,0.35,0.35,0.35,10000,0.35
2015-11-06,0.335,0.335,0.335,0.335,4200,0.335
2015-11-09,0.335,0.335,0.335,0.335,0,0.335
2015-11-10,0.335,0.335,0.335,0.335,0,0.335
2015-11-11,0.335,0.335,0.335,0.335,0,0.335
2015-11-12,0.35,0.35,0.335,0.335,12900,0.335
2015-11-13,0.35,0.35,0.35,0.35,2800,0.35
2015-11-16,0.35,0.35,0.35,0.35,29000,0.35
2015-11-17,0.335,0.335,0.3,0.3,48000,0.3
2015-11-18,0.3,0.3,0.3,0.3,0,0.3
2015-11-19,0.3,0.3,0.3,0.3,0,0.3
2015-11-20,0.3,0.3,0.3,0.3,0,0.3
2015-11-23,0.3,0.3,0.3,0.3,0,0.3
2015-11-24,0.3,0.3,0.3,0.3,0,0.3
2015-11-25,0.33,0.33,0.33,0.33,500,0.33
2015-11-26,0.33,0.33,0.33,0.33,0,0.33
2015-11-27,0.33,0.33,0.33,0.33,4400,0.33
2015-11-30,0.33,0.33,0.33,0.33,7100,0.33
2015-12-01,0.33,0.33,0.33,0.33,0,0.33
2015-12-02,0.33,0.33,0.33,0.33,0,0.33
2015-12-03,0.33,0.33,0.33,0.33,0,0.33
2015-12-04,0.33,0.33,0.33,0.33,0,0.33
2015-12-07,0.35,0.355,0.34,0.355,21300,0.355
2015-12-08,0.355,0.355,0.355,0.355,0,0.355
2015-12-09,0.355,0.355,0.355,0.355,0,0.355
2015-12-10,0.36,0.365,0.36,0.365,7000,0.365
2015-12-11,0.37,0.38,0.37,0.38,33800,0.38
2015-12-14,0.38,0.38,0.38,0.38,0,0.38
2015-12-15,0.38,0.38,0.38,0.38,1500,0.38
2015-12-16,0.38,0.38,0.38,0.38,0,0.38
2015-12-17,0.385,0.385,0.36,0.36,29900,0.36
2015-12-18,0.36,0.36,0.36,0.36,0,0.36
2015-12-21,0.375,0.375,0.375,0.375,9400,0.375
2015-12-22,0.38,0.38,0.375,0.375,6300,0.375
2015-12-23,0.375,0.375,0.375,0.375,0,0.375
2015-12-24,0.36,0.36,0.36,0.36,6700,0.36
2015-12-25,0.36,0.36,0.36,0.36,0,0.36
2015-12-28,0.36,0.36,0.36,0.36,0,0.36
2015-12-29,0.36,0.36,0.335,0.335,16800,0.335
2015-12-30,0.34,0.34,0.34,0.34,1300,0.34
2015-12-31,0.34,0.36,0.34,0.36,5400,0.36
2016-01-01,0.36,0.36,0.36,0.36,0,0.36
2016-01-04,0.36,0.36,0.36,0.36,0,0.36
2016-01-05,0.36,0.36,0.36,0.36,2800,0.36
2016-01-06,0.36,0.36,0.36,0.36,0,0.36
2016-01-07,0.36,0.36,0.36,0.36,0,0.36
2016-01-08,0.345,0.345,0.34,0.34,21800,0.34
2016-01-11,0.34,0.34,0.34,0.34,1400,0.34
2016-01-12,0.34,0.34,0.34,0.34,0,0.34
2016-01-13,0.34,0.34,0.34,0.34,0,0.34
2016-01-14,0.34,0.34,0.34,0.34,0,0.34
2016-01-15,0.34,0.34,0.34,0.34,0,0.34
2016-01-18,0.34,0.34,0.34,0.34,0,0.34
2016-01-19,0.31,0.31,0.3,0.3,17700,0.3
2016-01-20,0.3,0.3,0.3,0.3,0,0.3
2016-01-21,0.3,0.3,0.3,0.3,0,0.3
2016-01-22,0.3,0.3,0.3,0.3,0,0.3
2016-01-25,0.3,0.3,0.3,0.3,21900,0.3
2016-01-26,0.3,0.3,0.3,0.3,0,0.3
2016-01-27,0.3,0.3,0.3,0.3,0,0.3
2016-01-28,0.3,0.3,0.3,0.3,0,0.3
2016-01-29,0.3,0.3,0.3,0.3,2800,0.3
2016-02-01,0.3,0.3,0.3,0.3,11900,0.3
2016-02-02,0.3,0.3,0.3,0.3,40600,0.3
2016-02-03,0.3,0.3,0.3,0.3,0,0.3
2016-02-04,0.3,0.3,0.3,0.3,0,0.3
2016-02-05,0.3,0.3,0.3,0.3,0,0.3
2016-02-08,0.3,0.3,0.3,0.3,6400,0.3
2016-02-09,0.3,0.3,0.3,0.3,0,0.3
2016-02-10,0.31,0.31,0.31,0.31,1700,0.31
2016-02-11,0.31,0.31,0.31,0.31,0,0.31
2016-02-12,0.31,0.31,0.31,0.31,0,0.31
2016-02-15,0.31,0.31,0.31,0.31,0,0.31
2016-02-16,0.31,0.31,0.31,0.31,0,0.31
2016-02-17,0.3,0.3,0.3,0.3,3300,0.3
2016-02-18,0.3,0.3,0.3,0.3,0,0.3
2016-02-19,0.3,0.3,0.3,0.3,0,0.3
2016-02-22,0.3,0.3,0.3,0.3,0,0.3
2016-02-23,0.3,0.3,0.3,0.3,0,0.3
2016-02-24,0.3,0.3,0.3,0.3,0,0.3
2016-02-25,0.3,0.3,0.3,0.3,10000,0.3
2016-02-26,0.3,0.3,0.3,0.3,0,0.3
2016-02-29,0.275,0.275,0.275,0.275,23000,0.275
2016-03-01,0.275,0.275,0.275,0.275,0,0.275
2016-03-02,0.275,0.275,0.275,0.275,9100,0.275
2016-03-03,0.275,0.275,0.275,0.275,0,0.275
2016-03-04,0.275,0.275,0.275,0.275,0,0.275
2016-03-07,0.265,0.27,0.26,0.26,20400,0.26
2016-03-08,0.26,0.26,0.26,0.26,14500,0.26
2016-03-09,0.26,0.26,0.26,0.26,0,0.26
2016-03-10,0.26,0.26,0.26,0.26,7600,0.26
2016-03-11,0.26,0.26,0.26,0.26,3900,0.26
2016-03-14,0.26,0.26,0.26,0.26,0,0.26
2016-03-15,0.26,0.26,0.26,0.26,0,0.26
2016-03-16,0.26,0.26,0.26,0.26,0,0.26
2016-03-17,0.25,0.25,0.25,0.25,72800,0.25
2016-03-18,0.275,0.28,0.275,0.28,90400,0.28
2016-03-21,0.28,0.28,0.28,0.28,0,0.28
2016-03-22,0.29,0.29,0.28,0.28,55700,0.28
2016-03-23,0.28,0.28,0.28,0.28,0,0.28
2016-03-24,0.28,0.28,0.28,0.28,0,0.28
2016-03-25,0.28,0.28,0.28,0.28,0,0.28
2016-03-28,0.28,0.28,0.28,0.28,0,0.28
2016-03-29,0.29,0.29,0.29,0.29,800,0.29
2016-03-30,0.3,0.3,0.3,0.3,2700,0.3
2016-03-31,0.3,0.31,0.3,0.31,20100,0.31
2016-04-01,0.3,0.3,0.3,0.3,6600,0.3
2016-04-04,0.3,0.3,0.3,0.3,0,0.3
2016-04-05,0.3,0.3,0.3,0.3,0,0.3
2016-04-06,0.3,0.3,0.3,0.3,1300,0.3
2016-04-07,0.3,0.3,0.3,0.3,18000,0.3
2016-04-08,0.3,0.3,0.3,0.3,0,0.3
2016-04-11,0.33,0.345,0.33,0.345,11200,0.345
2016-04-12,0.345,0.345,0.345,0.345,0,0.345
2016-04-13,0.345,0.345,0.305,0.305,9800,0.305
2016-04-14,0.305,0.305,0.305,0.305,0,0.305
2016-04-15,0.305,0.305,0.305,0.305,0,0.305
2016-04-18,0.305,0.305,0.305,0.305,0,0.305
2016-04-19,0.385,0.385,0.385,0.385,8300,0.385
2016-04-20,0.4,0.4,0.38,0.38,11800,0.38
2016-04-21,0.4,0.4,0.4,0.4,24800,0.4
2016-04-22,0.38,0.38,0.38,0.38,0,0.38
2016-04-25,0.38,0.38,0.38,0.38,0,0.38
2016-04-26,0.38,0.38,0.38,0.38,0,0.38
2016-04-27,0.33,0.34,0.33,0.34,6900,0.34
2016-04-28,0.36,0.36,0.36,0.36,1400,0.36
2016-04-29,0.36,0.36,0.36,0.36,0,0.36
2016-05-02,0.34,0.34,0.34,0.34,3400,0.34
2016-05-03,0.34,0.34,0.34,0.34,0,0.34
2016-05-04,0.34,0.34,0.34,0.34,0,0.34
2016-05-05,0.34,0.34,0.34,0.34,0,0.34
2016-05-06,0.34,0.34,0.34,0.34,6800,0.34
2016-05-09,0.34,0.34,0.34,0.34,0,0.34
2016-05-10,0.32,0.32,0.32,0.32,14200,0.32
2016-05-11,0.32,0.32,0.32,0.32,0,0.32
2016-05-12,0.33,0.33,0.33,0.33,4000,0.33
2016-05-13,0.32,0.32,0.32,0.32,2800,0.32
2016-05-16,0.33,0.33,0.33,0.33,11000,0.33
2016-05-17,0.33,0.33,0.33,0.33,0,0.33
2016-05-18,0.32,0.32,0.32,0.32,2900,0.32
2016-05-19,0.32,0.32,0.285,0.285,10000,0.285
2016-05-20,0.3,0.33,0.3,0.33,13500,0.33
2016-05-23,0.31,0.31,0.31,0.31,9400,0.31
2016-05-24,0.32,0.32,0.32,0.32,4500,0.32
2016-05-25,0.325,0.325,0.32,0.32,11900,0.32
2016-05-26,0.32,0.32,0.32,0.32,5200,0.32
2016-05-27,0.32,0.32,0.32,0.32,0,0.32
2016-05-30,0.32,0.32,0.32,0.32,0,0.32
2016-05-31,0.32,0.32,0.32,0.32,0,0.32
2016-06-01,0.32,0.32,0.32,0.32,0,0.32
2016-06-02,0.32,0.32,0.32,0.32,0,0.32
2016-06-03,0.32,0.32,0.32,0.32,0,0.32
2016-06-06,0.32,0.32,0.32,0.32,0,0.32
2016-06-07,0.32,0.32,0.32,0.32,4800,0.32
2016-06-08,0.32,0.32,0.32,0.32,0,0.32
2016-06-09,0.32,0.32,0.32,0.32,0,0.32
2016-06-10,0.32,0.32,0.32,0.32,0,0.32
2016-06-13,0.32,0.32,0.32,0.32,0,0.32
2016-06-14,0.34,0.34,0.34,0.34,2400,0.34
2016-06-15,0.34,0.34,0.34,0.34,0,0.34
2016-06-16,0.34,0.34,0.34,0.34,0,0.34
2016-06-17,0.34,0.34,0.34,0.34,0,0.34
2016-06-20,0.35,0.355,0.35,0.355,31500,0.355
2016-06-21,0.35,0.35,0.35,0.35,90000,0.35
2016-06-22,0.35,0.35,0.35,0.35,0,0.35
2016-06-23,0.34,0.34,0.34,0.34,2800,0.34
2016-06-24,0.355,0.355,0.335,0.335,115600,0.335
2016-06-27,0.335,0.335,0.33,0.33,11300,0.33
2016-06-28,0.35,0.35,0.35,0.35,3000,0.35
2016-06-29,0.35,0.35,0.35,0.35,0,0.35
2016-06-30,0.34,0.34,0.34,0.34,22000,0.34
2016-07-01,0.34,0.35,0.34,0.35,36500,0.35
2016-07-04,0.32,0.32,0.3,0.3,10000,0.3
2016-07-05,0.3,0.3,0.3,0.3,0,0.3
2016-07-06,0.3,0.3,0.3,0.3,0,0.3
2016-07-07,0.3,0.3,0.3,0.3,0,0.3
2016-07-08,0.32,0.32,0.32,0.32,7100,0.32
2016-07-11,0.32,0.32,0.32,0.32,42800,0.32
2016-07-12,0.32,0.32,0.32,0.32,0,0.32
2016-07-13,0.32,0.32,0.32,0.32,509000,0.32
2016-07-14,0.32,0.32,0.32,0.32,55000,0.32
2016-07-15,0.32,0.32,0.32,0.32,125600,0.32
2016-07-18,0.32,0.32,0.32,0.32,0,0.32
2016-07-19,0.31,0.32,0.31,0.32,30000,0.32
2016-07-20,0.32,0.32,0.32,0.32,0,0.32
2016-07-21,0.31,0.31,0.31,0.31,1700,0.31
2016-07-22,0.32,0.32,0.32,0.32,67200,0.32
2016-07-25,0.32,0.32,0.32,0.32,0,0.32
2016-07-26,0.32,0.32,0.32,0.32,0,0.32
2016-07-27,0.32,0.32,0.32,0.32,0,0.32
2016-07-28,0.32,0.32,0.32,0.32,0,0.32
2016-07-29,0.32,0.32,0.31,0.32,580000,0.32
2016-08-01,0.32,0.32,0.32,0.32,0,0.32
2016-08-02,0.32,0.32,0.3,0.3,17400,0.3
2016-08-03,0.29,0.31,0.29,0.31,53900,0.31
2016-08-04,0.295,0.295,0.295,0.295,1300,0.295
2016-08-05,0.31,0.31,0.31,0.31,47700,0.31
2016-08-08,0.3,0.31,0.3,0.31,10000,0.31
2016-08-09,0.31,0.31,0.31,0.31,0,0.31
2016-08-10,0.31,0.31,0.31,0.31,80000,0.31
2016-08-11,0.32,0.32,0.32,0.32,39600,0.32
2016-08-12,0.32,0.32,0.32,0.32,70300,0.32
2016-08-15,0.32,0.32,0.32,0.32,35600,0.32
2016-08-16,0.355,0.355,0.35,0.35,117100,0.35
2016-08-17,0.35,0.35,0.35,0.35,26200,0.35
2016-08-18,0.32,0.32,0.3,0.3,25500,0.3
2016-08-19,0.35,0.35,0.35,0.35,5600,0.35
2016-08-22,0.36,0.36,0.36,0.36,2100,0.36
2016-08-23,0.35,0.35,0.35,0.35,4000,0.35
2016-08-24,0.3,0.3,0.3,0.3,3500,0.3
2016-08-25,0.3,0.3,0.3,0.3,0,0.3
2016-08-26,0.3,0.3,0.3,0.3,40200,0.3
2016-08-29,0.31,0.31,0.31,0.31,29600,0.31
2016-08-30,0.32,0.32,0.32,0.32,20000,0.32
2016-08-31,0.31,0.31,0.29,0.29,81700,0.29
2016-09-01,0.31,0.31,0.3,0.31,48000,0.31
2016-09-02,0.31,0.31,0.31,0.31,0,0.31
2016-09-05,0.31,0.31,0.295,0.295,23000,0.295
2016-09-06,0.31,0.31,0.295,0.295,12200,0.295
2016-09-07,0.31,0.31,0.295,0.295,4900,0.295
2016-09-08,0.295,0.295,0.27,0.295,75600,0.295
2016-09-09,0.29,0.29,0.29,0.29,8400,0.29
2016-09-12,0.29,0.29,0.29,0.29,32000,0.29
2016-09-13,0.29,0.29,0.29,0.29,20000,0.29
2016-09-14,0.29,0.29,0.28,0.28,39500,0.28
2016-09-15,0.29,0.29,0.27,0.27,35800,0.27
2016-09-16,0.27,0.27,0.27,0.27,10300,0.27
2016-09-19,0.27,0.27,0.27,0.27,0,0.27
2016-09-20,0.25,0.25,0.25,0.25,20000,0.25
2016-09-21,0.27,0.27,0.27,0.27,1700,0.27
2016-09-22,0.27,0.27,0.27,0.27,0,0.27
2016-09-23,0.27,0.275,0.26,0.26,74100,0.26
2016-09-26,0.26,0.26,0.255,0.26,168400,0.26
2016-09-27,0.26,0.27,0.26,0.26,191000,0.26
2016-09-28,0.26,0.26,0.26,0.26,173200,0.26
2016-09-29,0.26,0.26,0.25,0.25,120000,0.25
2016-09-30,0.25,0.26,0.25,0.25,30500,0.25
2016-10-03,0.25,0.25,0.245,0.245,35000,0.245
2016-10-04,0.245,0.25,0.245,0.25,112900,0.25
2016-10-05,0.245,0.25,0.245,0.25,78500,0.25
2016-10-06,0.25,0.25,0.25,0.25,14700,0.25
2016-10-07,0.245,0.245,0.245,0.245,25000,0.245
2016-10-10,0.245,0.245,0.235,0.235,101800,0.235
2016-10-11,0.24,0.24,0.24,0.24,107000,0.24
2016-10-12,0.24,0.24,0.235,0.235,106500,0.235
2016-10-13,0.23,0.23,0.225,0.23,111800,0.23
2016-10-14,0.24,0.245,0.24,0.24,139900,0.24
2016-10-17,0.24,0.24,0.24,0.24,6000,0.24
2016-10-18,0.24,0.24,0.24,0.24,50000,0.24
2016-10-19,0.235,0.235,0.23,0.23,21300,0.23
2016-10-20,0.23,0.23,0.225,0.23,78400,0.23
2016-10-21,0.23,0.23,0.23,0.23,0,0.23
2016-10-24,0.235,0.235,0.235,0.235,23500,0.235
2016-10-25,0.235,0.25,0.235,0.25,22900,0.25
2016-10-26,0.25,0.27,0.25,0.26,107000,0.26
2016-10-27,0.26,0.26,0.23,0.23,67000,0.23
2016-10-28,0.235,0.235,0.235,0.235,2500,0.235
2016-10-31,0.25,0.25,0.24,0.24,40100,0.24
2016-11-01,0.24,0.24,0.24,0.24,0,0.24
2016-11-02,0.24,0.24,0.24,0.24,0,0.24
2016-11-03,0.24,0.24,0.24,0.24,0,0.24
2016-11-04,0.25,0.25,0.25,0.25,10000,0.25
2016-11-07,0.24,0.24,0.235,0.235,47100,0.235
2016-11-08,0.235,0.235,0.235,0.235,0,0.235
2016-11-09,0.235,0.235,0.235,0.235,0,0.235
2016-11-10,0.25,0.25,0.25,0.25,25000,0.25
2016-11-11,0.235,0.25,0.235,0.25,32900,0.25
2016-11-14,0.25,0.25,0.25,0.25,0,0.25
2016-11-15,0.25,0.25,0.25,0.25,0,0.25
2016-11-16,0.25,0.25,0.25,0.25,0,0.25
2016-11-17,0.25,0.25,0.25,0.25,0,0.25
2016-11-18,0.26,0.26,0.26,0.26,28800,0.26
2016-11-21,0.26,0.26,0.26,0.26,0,0.26
2016-11-22,0.24,0.24,0.23,0.24,84100,0.24
2016-11-23,0.24,0.24,0.24,0.24,0,0.24
2016-11-24,0.24,0.24,0.24,0.24,0,0.24
2016-11-25,0.25,0.25,0.25,0.25,100000,0.25
2016-11-28,0.275,0.275,0.26,0.26,24200,0.26
2016-11-29,0.26,0.26,0.26,0.26,10000,0.26
2016-11-30,0.26,0.26,0.26,0.26,0,0.26
2016-12-01,0.26,0.26,0.26,0.26,0,0.26
2016-12-02,0.24,0.26,0.24,0.26,270000,0.26
2016-12-05,0.25,0.25,0.25,0.25,3900,0.25
2016-12-06,0.25,0.26,0.25,0.26,4900,0.26
2016-12-07,0.245,0.255,0.24,0.24,66100,0.24
2016-12-08,0.24,0.24,0.24,0.24,0,0.24
2016-12-09,0.24,0.25,0.24,0.25,7600,0.25
2016-12-12,0.24,0.24,0.24,0.24,5800,0.24
2016-12-13,0.24,0.24,0.22,0.22,156000,0.22
2016-12-14,0.23,0.23,0.23,0.23,113700,0.23
2016-12-15,0.22,0.23,0.22,0.23,99100,0.23
2016-12-16,0.23,0.23,0.23,0.23,0,0.23
2016-12-19,0.235,0.24,0.23,0.23,263300,0.23
2016-12-20,0.23,0.26,0.23,0.26,63400,0.26
2016-12-21,0.26,0.26,0.26,0.26,0,0.26
2016-12-22,0.255,0.255,0.255,0.255,60900,0.255
2016-12-23,0.25,0.25,0.24,0.25,253500,0.25
2016-12-26,0.25,0.25,0.25,0.25,0,0.25
2016-12-27,0.25,0.25,0.25,0.25,0,0.25
2016-12-28,0.25,0.25,0.25,0.25,0,0.25
2016-12-29,0.25,0.25,0.25,0.25,0,0.25
2016-12-30,0.25,0.25,0.24,0.25,92100,0.25
