Date,Open,High,Low,Close,Volume,Adj Close
2015-11-20,3.4,3.45,3.16,3.24,4480500,3.1460000000000004
2015-11-23,3.24,3.24,3.1,3.2,758000,3.1069999999999998
2015-11-24,3.2,3.25,3.18,3.25,2028900,3.156
2015-11-25,3.28,3.32,3.27,3.29,486900,3.195
2015-11-26,3.3,3.33,3.27,3.29,278400,3.195
2015-11-27,3.27,3.29,3.23,3.25,407400,3.156
2015-11-30,3.2,3.25,3.08,3.08,228400,2.991
2015-12-01,3.1,3.18,3.1,3.12,76100,3.03
2015-12-02,3.15,3.15,3.12,3.12,19700,3.03
2015-12-03,3.13,3.19,3.13,3.15,36900,3.0589999999999997
2015-12-04,3.15,3.15,3.11,3.14,20700,3.049
2015-12-07,3.14,3.17,3.11,3.11,189400,3.02
2015-12-08,3.1,3.15,3.1,3.11,87600,3.02
2015-12-09,3.12,3.14,3.1,3.1,40900,3.01
2015-12-10,3.1,3.12,3.08,3.08,524700,2.991
2015-12-11,3.09,3.12,3.08,3.09,77600,3.0
2015-12-14,3.09,3.09,2.9,2.9,195500,2.8160000000000003
2015-12-15,2.9,2.94,2.88,2.9,342100,2.8160000000000003
2015-12-16,2.95,3.02,2.91,2.96,57900,2.8739999999999997
2015-12-17,3.02,3.18,3.02,3.05,71400,2.9619999999999997
2015-12-18,3.1,3.1,3.05,3.05,275300,2.9619999999999997
2015-12-21,3.05,3.08,2.98,3.08,58500,2.991
2015-12-22,3.1,3.2,3.08,3.2,26700,3.1069999999999998
2015-12-23,3.17,3.29,3.17,3.25,114700,3.156
2015-12-24,3.25,3.3,3.2,3.28,43800,3.185
2015-12-25,3.28,3.28,3.28,3.28,0,3.185
2015-12-28,3.28,3.28,3.28,3.28,0,3.185
2015-12-29,3.28,3.28,3.28,3.28,0,3.185
2015-12-30,3.2,3.24,3.18,3.18,8800,3.088
2015-12-31,3.18,3.18,3.18,3.18,0,3.088
2016-01-01,3.18,3.18,3.18,3.18,0,3.088
2016-01-04,3.19,3.23,3.19,3.22,56000,3.127
2016-01-05,3.2,3.24,3.18,3.22,158300,3.127
2016-01-06,3.22,3.22,3.22,3.22,0,3.127
2016-01-07,3.19,3.22,3.19,3.19,9900,3.0980000000000003
2016-01-08,3.2,3.2,3.17,3.17,9100,3.0780000000000003
2016-01-11,3.22,3.22,3.16,3.22,80100,3.127
2016-01-12,3.17,3.22,3.17,3.19,5900,3.0980000000000003
2016-01-13,3.19,3.2,3.15,3.17,23600,3.0780000000000003
2016-01-14,3.15,3.15,3.08,3.08,5500,2.991
2016-01-15,3.08,3.15,3.08,3.15,112100,3.0589999999999997
2016-01-18,3.15,3.22,3.14,3.21,11800,3.117
2016-01-19,3.11,3.18,3.1,3.17,39700,3.0780000000000003
2016-01-20,3.17,3.19,3.11,3.12,247800,3.03
2016-01-21,3.12,3.12,3.11,3.11,13600,3.02
2016-01-22,3.11,3.11,3.11,3.11,0,3.02
2016-01-25,3.2,3.22,3.11,3.11,21300,3.02
2016-01-26,3.11,3.11,3.11,3.11,0,3.02
2016-01-27,3.15,3.15,3.15,3.15,0,3.0589999999999997
2016-01-28,3.16,3.16,3.1,3.11,10400,3.02
2016-01-29,3.13,3.13,3.12,3.13,10300,3.0389999999999997
2016-02-01,3.13,3.13,3.05,3.05,74400,2.9619999999999997
2016-02-02,3.1,3.1,3.02,3.09,195000,3.0
2016-02-03,3.09,3.09,3.06,3.06,8300,2.971
2016-02-04,3.06,3.06,3.06,3.06,0,2.971
2016-02-05,3.1,3.14,3.1,3.1,8500,3.01
2016-02-08,3.14,3.14,3.06,3.14,8100,3.049
2016-02-09,3.03,3.03,3.02,3.02,4400,2.932
2016-02-10,3.1,3.14,3.06,3.14,103500,3.049
2016-02-11,3.14,3.14,3.14,3.14,0,3.049
2016-02-12,3.1,3.16,3.1,3.16,12400,3.068
2016-02-15,3.16,3.16,3.1,3.1,14400,3.01
2016-02-16,3.1,3.1,3.1,3.1,0,3.01
2016-02-17,3.1,3.1,3.1,3.1,0,3.01
2016-02-18,3.16,3.18,3.12,3.17,895200,3.0780000000000003
2016-02-19,3.3,3.69,3.3,3.61,551800,3.505
2016-02-22,3.61,3.83,3.61,3.82,115400,3.7089999999999996
2016-02-23,3.75,3.8,3.6,3.8,52700,3.69
2016-02-24,3.57,3.6,3.55,3.55,18600,3.447
2016-02-25,3.55,3.55,3.47,3.47,23400,3.3689999999999998
2016-02-26,3.47,3.47,3.47,3.47,0,3.3689999999999998
2016-02-29,3.46,3.46,3.45,3.45,3000,3.35
2016-03-01,3.32,3.4,3.31,3.4,23500,3.301
2016-03-02,3.44,3.47,3.44,3.44,5000,3.34
2016-03-03,3.4,3.47,3.4,3.47,26300,3.3689999999999998
2016-03-04,3.42,3.44,3.41,3.42,66400,3.321
2016-03-07,3.48,3.48,3.37,3.45,13800,3.35
2016-03-08,3.38,3.41,3.38,3.41,17600,3.3110000000000004
2016-03-09,3.42,3.42,3.42,3.42,0,3.321
2016-03-10,3.44,3.44,3.42,3.43,77300,3.3310000000000004
2016-03-11,3.42,3.53,3.4,3.47,466500,3.3689999999999998
2016-03-14,3.58,3.58,3.45,3.47,421900,3.3689999999999998
2016-03-15,3.56,3.57,3.48,3.51,4900,3.408
2016-03-16,3.42,3.42,3.42,3.42,0,3.321
2016-03-17,3.42,3.52,3.41,3.41,25300,3.3110000000000004
2016-03-18,3.46,3.47,3.45,3.46,271100,3.36
2016-03-21,3.47,3.47,3.47,3.47,0,3.3689999999999998
2016-03-22,3.5,3.53,3.47,3.47,3200,3.3689999999999998
2016-03-23,3.49,3.56,3.49,3.52,5600,3.418
2016-03-24,3.55,3.62,3.55,3.6,136000,3.4960000000000004
2016-03-25,3.6,3.6,3.6,3.6,0,3.4960000000000004
2016-03-28,3.6,3.6,3.6,3.6,0,3.4960000000000004
2016-03-29,3.56,3.6,3.53,3.58,37400,3.4760000000000004
2016-03-30,3.58,3.64,3.57,3.64,88700,3.534
2016-03-31,3.64,3.64,3.56,3.62,431900,3.515
2016-04-01,3.6,3.64,3.54,3.64,19800,3.534
2016-04-04,3.57,3.62,3.57,3.57,8400,3.467
2016-04-05,3.57,3.58,3.55,3.55,4000,3.447
2016-04-06,3.55,3.57,3.55,3.56,300,3.457
2016-04-07,3.66,3.78,3.65,3.77,648200,3.661
2016-04-08,3.77,3.94,3.77,3.85,19300,3.738
2016-04-11,3.93,3.93,3.73,3.81,46500,3.7
2016-04-12,3.8,3.83,3.72,3.76,8700,3.6510000000000002
2016-04-13,3.85,3.95,3.8,3.95,16500,3.8360000000000003
2016-04-14,3.93,3.99,3.83,3.84,20500,3.7289999999999996
2016-04-15,3.86,3.95,3.81,3.92,17300,3.806
2016-04-18,3.86,3.87,3.81,3.85,16300,3.738
2016-04-19,3.9,3.9,3.86,3.86,6000,3.748
2016-04-20,3.9,3.95,3.9,3.9,32300,3.787
2016-04-21,3.93,3.95,3.9,3.9,13600,3.787
2016-04-22,3.92,3.92,3.85,3.92,6200,3.806
2016-04-25,3.92,3.92,3.92,3.92,0,3.806
2016-04-26,3.91,3.91,3.81,3.81,4400,3.7
2016-04-27,3.89,3.89,3.76,3.76,20100,3.6510000000000002
2016-04-28,3.78,3.87,3.75,3.87,8700,3.758
2016-04-29,3.9,3.9,3.77,3.77,3500,3.661
2016-05-02,3.8,3.8,3.7,3.7,17200,3.593
2016-05-03,3.73,3.75,3.73,3.75,7800,3.641
2016-05-04,3.76,3.76,3.71,3.71,18500,3.602
2016-05-05,3.69,3.74,3.62,3.74,20600,3.6319999999999997
2016-05-06,3.74,3.74,3.65,3.66,39400,3.554
2016-05-09,3.65,3.7,3.65,3.68,9500,3.573
2016-05-10,3.7,3.7,3.69,3.69,5100,3.583
2016-05-11,3.77,3.78,3.7,3.7,10700,3.593
2016-05-12,3.75,3.75,3.7,3.7,6600,3.593
2016-05-13,3.75,3.78,3.75,3.75,40100,3.641
2016-05-16,3.75,3.75,3.75,3.75,137100,3.641
2016-05-17,3.76,3.81,3.76,3.81,7100,3.7
2016-05-18,3.8,3.94,3.8,3.9,101800,3.787
2016-05-19,3.9,4.32,3.9,4.32,81400,4.195
2016-05-20,4.25,4.25,4.06,4.06,15600,3.9419999999999997
2016-05-23,4.01,4.1,3.99,4.02,7700,3.903
2016-05-24,4.1,4.21,4.1,4.17,120500,4.0489999999999995
2016-05-25,4.15,4.15,4.06,4.1,4500,3.9810000000000003
2016-05-26,4.1,4.21,4.02,4.08,19700,3.9619999999999997
2016-05-27,4.02,4.03,4.0,4.01,32500,3.8939999999999997
2016-05-30,4.04,4.06,4.04,4.06,13400,3.9419999999999997
2016-05-31,4.1,4.1,4.0,4.01,40100,3.8939999999999997
2016-06-01,4.03,4.19,4.03,4.19,10200,4.069
2016-06-02,4.2,4.2,4.1,4.19,6600,4.069
2016-06-03,4.2,4.23,4.2,4.23,18300,4.107
2016-06-06,4.23,4.23,4.15,4.2,8800,4.078
2016-06-07,4.19,4.21,4.15,4.21,15200,4.088
2016-06-08,4.21,4.25,4.17,4.25,22400,4.127
2016-06-09,4.25,4.25,4.25,4.25,0,4.127
2016-06-10,4.25,4.25,4.25,4.25,900,4.127
2016-06-13,4.25,4.25,4.25,4.25,0,4.127
2016-06-14,4.3,4.3,4.2,4.25,10500,4.127
2016-06-15,4.25,4.25,4.25,4.25,19700,4.127
2016-06-16,4.25,4.25,4.25,4.25,2000,4.127
2016-06-17,4.22,4.22,4.16,4.17,21000,4.0489999999999995
2016-06-20,4.16,4.17,4.16,4.17,3600,4.0489999999999995
2016-06-21,4.17,4.17,4.12,4.17,4800,4.0489999999999995
2016-06-22,4.17,4.17,4.1,4.1,8100,3.9810000000000003
2016-06-23,4.17,4.17,4.12,4.12,2500,4.001
2016-06-24,4.13,4.13,3.95,3.95,51700,3.8360000000000003
2016-06-27,3.9,4.0,3.9,3.99,62400,3.8739999999999997
2016-06-28,3.95,3.97,3.92,3.93,23400,3.8160000000000003
2016-06-29,3.95,4.0,3.89,3.89,47100,3.7769999999999997
2016-06-30,4.0,4.0,3.89,3.97,12500,3.855
2016-07-01,3.94,3.94,3.94,3.94,303200,3.826
2016-07-04,3.94,3.95,3.92,3.95,4200,3.8360000000000003
2016-07-05,3.95,3.95,3.94,3.95,1000,3.8360000000000003
2016-07-06,3.93,3.95,3.82,3.82,57100,3.7089999999999996
2016-07-07,3.83,3.91,3.82,3.91,30000,3.7969999999999997
2016-07-08,3.9,3.9,3.9,3.9,10000,3.787
2016-07-11,3.9,3.9,3.85,3.89,10900,3.7769999999999997
2016-07-12,3.9,3.925,3.86,3.9,6200,3.787
2016-07-13,3.85,3.9,3.85,3.9,4200,3.787
2016-07-14,3.9,3.9,3.9,3.9,21400,3.787
2016-07-15,3.9,3.9,3.83,3.83,3100,3.719
2016-07-18,3.9,3.9,3.82,3.85,12500,3.738
2016-07-19,3.82,3.9,3.81,3.9,26400,3.787
2016-07-20,3.9,3.9,3.89,3.9,8600,3.787
2016-07-21,3.81,3.9,3.81,3.88,16500,3.7680000000000002
2016-07-22,3.87,3.87,3.85,3.85,11700,3.738
2016-07-25,3.84,3.85,3.81,3.82,26800,3.7089999999999996
2016-07-26,3.825,3.83,3.82,3.82,3100,3.7089999999999996
2016-07-27,3.82,3.82,3.78,3.78,13600,3.67
2016-07-28,3.65,3.65,3.63,3.63,8900,3.525
2016-07-29,3.63,3.7,3.5,3.55,83500,3.447
2016-08-01,3.55,3.55,3.42,3.45,686500,3.35
2016-08-02,3.46,3.5,3.4,3.46,154000,3.36
2016-08-03,3.46,3.55,3.44,3.44,146000,3.34
2016-08-04,3.55,3.55,3.46,3.47,179500,3.3689999999999998
2016-08-05,3.5,3.555,3.49,3.5,45900,3.3989999999999996
2016-08-08,3.55,3.61,3.44,3.45,45600,3.35
2016-08-09,3.46,3.46,3.45,3.46,19900,3.36
2016-08-10,3.45,3.45,3.31,3.37,37200,3.272
2016-08-11,3.36,3.44,3.36,3.43,8900,3.3310000000000004
2016-08-12,3.44,3.44,3.44,3.44,2800,3.34
2016-08-15,3.45,3.45,3.43,3.43,5000,3.3310000000000004
2016-08-16,3.55,3.55,3.51,3.51,27300,3.408
2016-08-17,3.53,3.55,3.42,3.43,90400,3.3310000000000004
2016-08-18,3.55,3.65,3.55,3.65,15200,3.5439999999999996
2016-08-19,3.61,3.61,3.55,3.6,407300,3.4960000000000004
2016-08-22,3.6,3.6,3.6,3.6,0,3.4960000000000004
2016-08-23,3.58,3.58,3.44,3.5,88700,3.3989999999999996
2016-08-24,3.58,3.59,3.52,3.54,111900,3.437
2016-08-25,3.53,3.54,3.45,3.465,258400,3.365
2016-08-26,3.44,3.5,3.44,3.5,10900,3.3989999999999996
2016-08-29,3.5,3.51,3.47,3.5,23100,3.3989999999999996
2016-08-30,3.54,3.55,3.51,3.52,90700,3.418
2016-08-31,3.52,3.53,3.48,3.48,341800,3.3789999999999996
2016-09-01,3.5,3.51,3.48,3.48,172100,3.3789999999999996
2016-09-02,3.49,3.49,3.46,3.48,57100,3.3789999999999996
2016-09-05,3.47,3.48,3.46,3.48,7500,3.3789999999999996
2016-09-06,3.45,3.46,3.37,3.44,1291600,3.34
2016-09-07,3.4,3.44,3.39,3.43,34300,3.3310000000000004
2016-09-08,3.43,3.45,3.38,3.43,42600,3.3310000000000004
2016-09-09,3.43,3.48,3.43,3.44,20700,3.34
2016-09-12,3.41,3.41,3.37,3.4,21900,3.301
2016-09-13,3.4,3.4,3.35,3.39,10400,3.292
2016-09-14,3.39,3.39,3.33,3.35,15000,3.253
2016-09-15,3.35,3.36,3.3,3.3,33100,3.2039999999999997
2016-09-16,3.3,3.35,3.3,3.32,21500,3.2239999999999998
2016-09-19,3.37,3.39,3.36,3.39,10100,3.292
2016-09-20,3.38,3.38,3.36,3.36,41300,3.263
2016-09-21,3.4,3.5,3.34,3.45,24500,3.35
2016-09-22,3.44,3.45,3.38,3.4,15500,3.4
2016-09-23,3.42,3.45,3.42,3.43,516000,3.43
2016-09-26,3.45,3.51,3.45,3.51,4200,3.51
2016-09-27,3.51,3.51,3.46,3.46,6700,3.46
2016-09-28,3.48,3.48,3.41,3.41,22600,3.41
2016-09-29,3.41,3.41,3.41,3.41,0,3.41
2016-09-30,3.39,3.39,3.39,3.39,3100,3.39
2016-10-03,3.41,3.41,3.4,3.41,9200,3.41
2016-10-04,3.45,3.45,3.35,3.42,6200,3.42
2016-10-05,3.42,3.42,3.36,3.36,9600,3.36
2016-10-06,3.4,3.4,3.35,3.35,9600,3.35
2016-10-07,3.4,3.4,3.35,3.4,81400,3.4
2016-10-10,3.36,3.36,3.35,3.35,1000,3.35
2016-10-11,3.38,3.4,3.35,3.36,28900,3.36
2016-10-12,3.39,3.4,3.39,3.4,27200,3.4
2016-10-13,3.36,3.36,3.35,3.35,3700,3.35
2016-10-14,3.4,3.4,3.35,3.35,4900,3.35
2016-10-17,3.4,3.4,3.36,3.38,13300,3.38
2016-10-18,3.39,3.4,3.3,3.3,24000,3.3
2016-10-19,3.3,3.32,3.1,3.3,49600,3.3
2016-10-20,3.26,3.39,3.26,3.39,9000,3.39
2016-10-21,3.39,3.39,3.22,3.32,10300,3.32
2016-10-24,3.35,3.39,3.35,3.39,6500,3.39
2016-10-25,3.39,3.53,3.39,3.5,51000,3.5
2016-10-26,3.5,3.52,3.43,3.5,15600,3.5
2016-10-27,3.45,3.45,3.4,3.4,4500,3.4
2016-10-28,3.4,3.51,3.4,3.5,6400,3.5
2016-10-31,3.49,3.49,3.37,3.4,11200,3.4
2016-11-01,3.4,3.47,3.4,3.4,11400,3.4
2016-11-02,3.37,3.37,3.16,3.24,49600,3.24
2016-11-03,3.2,3.21,3.16,3.17,37600,3.17
2016-11-04,3.22,3.27,3.22,3.25,19500,3.25
2016-11-07,3.26,3.26,3.2,3.26,26800,3.26
2016-11-08,3.19,3.25,3.17,3.23,67700,3.23
2016-11-09,3.23,3.23,3.08,3.12,54700,3.12
2016-11-10,3.12,3.14,3.12,3.13,14200,3.13
2016-11-11,3.18,3.2,3.13,3.2,56600,3.2
2016-11-14,3.21,3.21,3.0,3.15,12900,3.15
2016-11-15,3.04,3.04,3.0,3.0,7600,3.0
2016-11-16,3.0,3.0,3.0,3.0,22200,3.0
2016-11-17,3.0,3.0,2.9,2.9,40500,2.9
2016-11-18,2.9,2.9,2.9,2.9,0,2.9
2016-11-21,3.01,3.08,3.0,3.08,38700,3.08
2016-11-22,3.05,3.06,3.0,3.05,16500,3.05
2016-11-23,3.06,3.06,3.06,3.06,3900,3.06
2016-11-24,3.06,3.06,3.02,3.02,8100,3.02
2016-11-25,3.02,3.02,3.02,3.02,0,3.02
2016-11-28,2.62,2.8,2.62,2.7,134900,2.7
2016-11-29,2.69,2.69,2.6,2.6,1698800,2.6
2016-11-30,2.65,2.67,2.64,2.65,188100,2.65
2016-12-01,2.67,2.68,2.63,2.68,25400,2.68
2016-12-02,2.69,2.69,2.6,2.6,216300,2.6
2016-12-05,2.6,2.6,2.51,2.51,16500,2.51
2016-12-06,2.52,2.53,2.52,2.53,6300,2.53
2016-12-07,2.53,2.55,2.49,2.49,304100,2.49
2016-12-08,2.49,2.65,2.49,2.65,90800,2.65
2016-12-09,2.62,2.62,2.45,2.45,480600,2.45
2016-12-12,2.59,2.6,2.54,2.57,69600,2.57
2016-12-13,2.54,2.54,2.5,2.5,28000,2.5
2016-12-14,2.5,2.56,2.5,2.54,901100,2.54
2016-12-15,2.53,2.6,2.53,2.58,29100,2.58
2016-12-16,2.58,2.62,2.56,2.6,23100,2.6
2016-12-19,2.62,2.7,2.61,2.67,543500,2.67
2016-12-20,2.65,2.74,2.65,2.7,27400,2.7
2016-12-21,2.7,2.73,2.66,2.67,72900,2.67
2016-12-22,2.67,2.73,2.66,2.66,9700,2.66
2016-12-23,2.69,2.7,2.69,2.7,2200,2.7
2016-12-26,2.7,2.7,2.7,2.7,0,2.7
2016-12-27,2.7,2.7,2.7,2.7,0,2.7
2016-12-28,2.72,2.72,2.72,2.72,3600,2.72
2016-12-29,2.72,2.72,2.72,2.72,0,2.72
2016-12-30,2.67,2.74,2.67,2.7,4500,2.7
