Date,Open,High,Low,Close,Volume,Adj Close
2011-08-10,0.17386,0.18175999999999998,0.15805,0.15805,31500,3.16106
2011-08-11,0.15805,0.20546999999999999,0.15805,0.19757,178600,3.9513199999999995
2011-08-12,0.18966,0.22918000000000002,0.18966,0.19757,130700,3.9513199999999995
2011-08-15,0.19757,0.22127,0.19757,0.21336999999999998,185000,4.26743
2011-08-16,0.21731999999999999,0.22523,0.21336999999999998,0.22127,84500,4.42548
2011-08-17,0.23708,0.25288,0.22523,0.22523,72100,4.50451
2011-08-18,0.23313000000000003,0.24893,0.22918000000000002,0.24103000000000002,77300,4.82061
2011-08-19,0.22918000000000002,0.22918000000000002,0.20546999999999999,0.21731999999999999,79700,4.34645
2011-08-22,0.21731999999999999,0.21731999999999999,0.20546999999999999,0.20546999999999999,20200,4.109369999999999
2011-08-23,0.20546999999999999,0.20942,0.19757,0.19757,50600,3.9513199999999995
2011-08-24,0.20942,0.20942,0.19757,0.19757,27700,3.9513199999999995
2011-08-25,0.20546999999999999,0.20942,0.20152,0.20942,25300,4.1884
2011-08-26,0.21336999999999998,0.21336999999999998,0.20942,0.21336999999999998,23300,4.26743
2011-08-29,0.23313000000000003,0.23708,0.22523,0.22918000000000002,24700,4.5835300000000005
2011-08-30,0.22918000000000002,0.23708,0.22918000000000002,0.23708,68200,4.74158
2011-08-31,0.23313000000000003,0.23708,0.22918000000000002,0.23313000000000003,19900,4.66256
2011-09-01,0.23313000000000003,0.23313000000000003,0.22523,0.22523,8300,4.50451
2011-09-02,0.22127,0.22127,0.22127,0.22127,10000,4.42548
2011-09-05,0.22127,0.22127,0.22127,0.22127,8800,4.42548
2011-09-06,0.22127,0.22127,0.21336999999999998,0.21336999999999998,6000,4.26743
2011-09-07,0.21336999999999998,0.21731999999999999,0.20546999999999999,0.21336999999999998,54900,4.26743
2011-09-08,0.22523,0.23708,0.22523,0.23313000000000003,19600,4.66256
2011-09-09,0.22918000000000002,0.22918000000000002,0.22523,0.22918000000000002,9400,4.5835300000000005
2011-09-12,0.22523,0.22523,0.21731999999999999,0.21731999999999999,7600,4.34645
2011-09-13,0.21731999999999999,0.21731999999999999,0.21336999999999998,0.21336999999999998,7900,4.26743
2011-09-14,0.20546999999999999,0.20546999999999999,0.19757,0.19757,6300,3.9513199999999995
2011-09-16,0.20546999999999999,0.20546999999999999,0.19757,0.19757,2300,3.9513199999999995
2011-09-19,0.20942,0.20942,0.20942,0.20942,1000,4.1884
2011-09-20,0.20546999999999999,0.20546999999999999,0.20546999999999999,0.20546999999999999,5600,4.109369999999999
2011-09-21,0.20546999999999999,0.20546999999999999,0.20546999999999999,0.20546999999999999,1400,4.109369999999999
2011-09-22,0.19757,0.20546999999999999,0.19757,0.19757,3700,3.9513199999999995
2011-09-23,0.19361,0.19361,0.17386,0.18571,42200,3.71424
2011-09-26,0.18571,0.18571,0.16596,0.16596,2600,3.31911
2011-09-27,0.17781,0.18175999999999998,0.17386,0.18175999999999998,19100,3.63522
2011-09-28,0.18966,0.18966,0.18966,0.18966,600,3.7932699999999997
2011-09-29,0.18966,0.18966,0.18175999999999998,0.18175999999999998,3700,3.63522
2011-10-03,0.18966,0.18966,0.18966,0.18966,1200,3.7932699999999997
2011-10-04,0.17386,0.17386,0.17386,0.17386,600,3.47716
2011-10-05,0.17781,0.17781,0.17386,0.17781,17100,3.55619
2011-10-06,0.18966,0.18966,0.18966,0.18966,2300,3.7932699999999997
2011-10-07,0.20942,0.20942,0.18966,0.18966,2100,3.7932699999999997
2011-10-12,0.18966,0.18966,0.17781,0.17781,2500,3.55619
2011-10-13,0.18175999999999998,0.18175999999999998,0.18175999999999998,0.18175999999999998,600,3.63522
2011-10-17,0.18175999999999998,0.18175999999999998,0.18175999999999998,0.18175999999999998,1800,3.63522
2011-10-18,0.19757,0.20152,0.19757,0.19757,4900,3.9513199999999995
2011-10-19,0.19757,0.23708,0.19757,0.22523,30700,4.50451
2011-10-20,0.22523,0.22523,0.22523,0.22523,1500,4.50451
2011-10-21,0.21731999999999999,0.22523,0.21731999999999999,0.22523,9300,4.50451
2011-10-24,0.22918000000000002,0.23708,0.22918000000000002,0.23708,17700,4.74158
2011-10-25,0.23708,0.23708,0.22918000000000002,0.23708,3100,4.74158
2011-10-26,0.22918000000000002,0.22918000000000002,0.22127,0.22127,2400,4.42548
2011-10-27,0.22127,0.22127,0.22127,0.22127,2700,4.42548
2011-10-28,0.21731999999999999,0.21731999999999999,0.20546999999999999,0.20546999999999999,7400,4.109369999999999
2011-10-31,0.21336999999999998,0.21336999999999998,0.18175999999999998,0.18175999999999998,4400,3.63522
2011-11-02,0.18571,0.18571,0.18175999999999998,0.18175999999999998,7800,3.63522
2011-11-03,0.20546999999999999,0.20546999999999999,0.20546999999999999,0.20546999999999999,5300,4.109369999999999
2011-11-04,0.21336999999999998,0.22523,0.21336999999999998,0.22127,5400,4.42548
2011-11-08,0.20546999999999999,0.20546999999999999,0.19757,0.19757,6700,3.9513199999999995
2011-11-09,0.19757,0.19757,0.19361,0.19757,8500,3.9513199999999995
2011-11-10,0.18966,0.18966,0.18966,0.18966,8300,3.7932699999999997
2011-11-11,0.18966,0.19757,0.18571,0.19757,16700,3.9513199999999995
2011-11-14,0.19757,0.19757,0.19757,0.19757,16300,3.9513199999999995
2011-11-15,0.19757,0.19757,0.19757,0.19757,39100,3.9513199999999995
2011-11-16,0.18571,0.18966,0.18571,0.18966,9800,3.7932699999999997
2011-11-17,0.18966,0.18966,0.18966,0.18966,0,3.7932699999999997
2011-11-18,0.18966,0.20546999999999999,0.18966,0.19757,14200,3.9513199999999995
2011-11-21,0.19757,0.19757,0.19757,0.19757,13900,3.9513199999999995
2011-11-22,0.19757,0.19757,0.18966,0.19757,1300,3.9513199999999995
2011-11-23,0.19757,0.19757,0.19757,0.19757,600,3.9513199999999995
2011-11-24,0.19757,0.19757,0.19757,0.19757,0,3.9513199999999995
2011-11-25,0.18966,0.18966,0.18175999999999998,0.18175999999999998,11900,3.63522
2011-11-28,0.19361,0.19361,0.17386,0.17386,1800,3.47716
2011-11-29,0.17781,0.17781,0.17781,0.17781,3900,3.55619
2011-11-30,0.18175999999999998,0.18175999999999998,0.18175999999999998,0.18175999999999998,600,3.63522
2011-12-01,0.18966,0.18966,0.18966,0.18966,7900,3.7932699999999997
2011-12-02,0.19757,0.19757,0.18966,0.18966,14800,3.7932699999999997
2011-12-05,0.19757,0.19757,0.18571,0.18571,6400,3.71424
2011-12-06,0.18966,0.18966,0.18966,0.18966,4100,3.7932699999999997
2011-12-07,0.18966,0.18966,0.18966,0.18966,2000,3.7932699999999997
2011-12-08,0.18966,0.18966,0.18966,0.18966,0,3.7932699999999997
2011-12-09,0.18966,0.18966,0.18966,0.18966,0,3.7932699999999997
2011-12-12,0.18966,0.18966,0.18966,0.18966,0,3.7932699999999997
2011-12-13,0.18966,0.18966,0.18966,0.18966,0,3.7932699999999997
2011-12-14,0.18966,0.18966,0.17386,0.17386,6100,3.47716
2011-12-15,0.17386,0.17386,0.17386,0.17386,0,3.47716
2011-12-16,0.18966,0.19757,0.18966,0.18966,3600,3.7932699999999997
2011-12-19,0.19757,0.19757,0.18175999999999998,0.18175999999999998,18600,3.63522
2011-12-20,0.17386,0.17386,0.17386,0.17386,3100,3.47716
2011-12-21,0.17386,0.17386,0.17386,0.17386,3100,3.47716
2011-12-22,0.17386,0.17386,0.17386,0.17386,0,3.47716
2011-12-23,0.17386,0.17386,0.17386,0.17386,0,3.47716
2011-12-26,0.17386,0.17386,0.17386,0.17386,0,3.47716
2011-12-27,0.17386,0.17386,0.17386,0.17386,0,3.47716
2011-12-28,0.17386,0.17386,0.17386,0.17386,0,3.47716
2011-12-29,0.17386,0.17386,0.17386,0.17386,100,3.47716
2011-12-30,0.17386,0.17386,0.17386,0.17386,0,3.47716
2012-01-02,0.17386,0.17386,0.17386,0.17386,0,3.47716
2012-01-03,0.17386,0.17386,0.17386,0.17386,0,3.47716
2012-01-04,0.17386,0.17386,0.17386,0.17386,0,3.47716
2012-01-05,0.17386,0.17386,0.17386,0.17386,0,3.47716
2012-01-06,0.17386,0.17386,0.17386,0.17386,0,3.47716
2012-01-09,0.17386,0.17386,0.17386,0.17386,0,3.47716
2012-01-10,0.17386,0.17386,0.17386,0.17386,0,3.47716
2012-01-11,0.17386,0.17386,0.17386,0.17386,0,3.47716
2012-01-12,0.17386,0.17386,0.17386,0.17386,0,3.47716
2012-01-13,0.17386,0.17386,0.17386,0.17386,0,3.47716
2012-01-16,0.17386,0.17386,0.17386,0.17386,0,3.47716
2012-01-17,0.16596,0.16596,0.15015,0.15015,13400,3.003
2012-01-18,0.14225,0.14225,0.14225,0.14225,600,2.84495
2012-01-19,0.17386,0.17386,0.17386,0.17386,2500,3.47716
2012-01-20,0.17386,0.17386,0.17386,0.17386,0,3.47716
2012-01-23,0.17386,0.17386,0.17386,0.17386,0,3.47716
2012-01-24,0.17386,0.17386,0.16596,0.16596,6300,3.31911
2012-01-25,0.17386,0.18175999999999998,0.17386,0.18175999999999998,12300,3.63522
2012-01-26,0.18175999999999998,0.18175999999999998,0.18175999999999998,0.18175999999999998,0,3.63522
2012-01-27,0.18175999999999998,0.19757,0.18175999999999998,0.18175999999999998,4900,3.63522
2012-01-30,0.18966,0.18966,0.18175999999999998,0.18175999999999998,7600,3.63522
2012-01-31,0.18175999999999998,0.18175999999999998,0.18175999999999998,0.18175999999999998,0,3.63522
2012-02-01,0.18175999999999998,0.18175999999999998,0.18175999999999998,0.18175999999999998,15000,3.63522
2012-02-02,0.22127,0.22127,0.20546999999999999,0.20546999999999999,14400,4.109369999999999
2012-02-03,0.21336999999999998,0.21336999999999998,0.21336999999999998,0.21336999999999998,4400,4.26743
2012-02-06,0.21336999999999998,0.23708,0.21336999999999998,0.22918000000000002,20000,4.5835300000000005
2012-02-07,0.22523,0.24893,0.22523,0.23708,70300,4.74158
2012-02-08,0.22918000000000002,0.23708,0.22127,0.22127,54000,4.42548
2012-02-09,0.22127,0.22523,0.22127,0.22127,18900,4.42548
2012-02-10,0.23708,0.23708,0.23708,0.23708,21100,4.74158
2012-02-13,0.23708,0.24103000000000002,0.23708,0.23708,33200,4.74158
2012-02-14,0.25288,0.27659,0.24103000000000002,0.26474000000000003,69800,5.29477
2012-02-15,0.26474000000000003,0.26474000000000003,0.24893,0.24893,25300,4.97866
2012-02-16,0.25288,0.25288,0.24893,0.24893,3200,4.97866
2012-02-17,0.24893,0.24893,0.23708,0.23708,5100,4.74158
2012-02-20,0.22523,0.22523,0.20942,0.20942,15300,4.1884
2012-02-21,0.20942,0.20942,0.20942,0.20942,0,4.1884
2012-02-22,0.20942,0.20942,0.20942,0.20942,0,4.1884
2012-02-23,0.20942,0.23313000000000003,0.20546999999999999,0.22918000000000002,16400,4.5835300000000005
2012-02-24,0.22918000000000002,0.22918000000000002,0.22918000000000002,0.22918000000000002,0,4.5835300000000005
2012-02-27,0.22918000000000002,0.22918000000000002,0.22918000000000002,0.22918000000000002,0,4.5835300000000005
2012-02-28,0.22918000000000002,0.22918000000000002,0.22918000000000002,0.22918000000000002,0,4.5835300000000005
2012-02-29,0.22918000000000002,0.22918000000000002,0.22918000000000002,0.22918000000000002,0,4.5835300000000005
2012-03-01,0.20546999999999999,0.21336999999999998,0.20152,0.21336999999999998,9800,4.26743
2012-03-02,0.21336999999999998,0.22523,0.21336999999999998,0.22523,3700,4.50451
2012-03-05,0.22127,0.22127,0.22127,0.22127,1800,4.42548
2012-03-06,0.20546999999999999,0.20546999999999999,0.19757,0.19757,4200,3.9513199999999995
2012-03-07,0.19757,0.19757,0.18966,0.18966,4400,3.7932699999999997
2012-03-08,0.22523,0.22523,0.22523,0.22523,0,4.50451
2012-03-09,0.22523,0.22523,0.22523,0.22523,0,4.50451
2012-03-12,0.19757,0.19757,0.19361,0.19361,6300,3.87229
2012-03-13,0.19757,0.19757,0.19757,0.19757,1200,3.9513199999999995
2012-03-14,0.19757,0.19757,0.19757,0.19757,5000,3.9513199999999995
2012-03-15,0.19757,0.19757,0.19757,0.19757,6300,3.9513199999999995
2012-03-16,0.19757,0.19757,0.19757,0.19757,0,3.9513199999999995
2012-03-19,0.19757,0.19757,0.19757,0.19757,0,3.9513199999999995
2012-03-20,0.19757,0.21731999999999999,0.19757,0.21731999999999999,6800,4.34645
2012-03-21,0.20152,0.20152,0.19757,0.19757,11700,3.9513199999999995
2012-03-22,0.19757,0.19757,0.19757,0.19757,0,3.9513199999999995
2012-03-23,0.19757,0.19757,0.19757,0.19757,800,3.9513199999999995
2012-03-26,0.21336999999999998,0.21336999999999998,0.19757,0.20546999999999999,5800,4.109369999999999
2012-03-27,0.20546999999999999,0.20546999999999999,0.20546999999999999,0.20546999999999999,0,4.109369999999999
2012-03-28,0.19757,0.19757,0.19361,0.19361,4400,3.87229
2012-03-29,0.18966,0.18966,0.18571,0.18966,1800,3.7932699999999997
2012-03-30,0.19361,0.19361,0.19361,0.19361,2500,3.87229
2012-04-02,0.18966,0.18966,0.18966,0.18966,900,3.7932699999999997
2012-04-03,0.18966,0.18966,0.18571,0.18571,4100,3.71424
2012-04-04,0.18966,0.18966,0.18175999999999998,0.18175999999999998,1500,3.63522
2012-04-05,0.18175999999999998,0.18966,0.17781,0.18966,11200,3.7932699999999997
2012-04-06,0.18966,0.18966,0.18966,0.18966,0,3.7932699999999997
2012-04-09,0.18966,0.18966,0.18966,0.18966,0,3.7932699999999997
2012-04-10,0.18966,0.18966,0.18966,0.18966,0,3.7932699999999997
2012-04-11,0.18966,0.18966,0.18966,0.18966,0,3.7932699999999997
2012-04-12,0.18966,0.18966,0.18966,0.18966,0,3.7932699999999997
2012-04-13,0.18966,0.18966,0.18966,0.18966,0,3.7932699999999997
2012-04-16,0.19757,0.19757,0.19757,0.19757,5000,3.9513199999999995
2012-04-17,0.18966,0.18966,0.18966,0.18966,8800,3.7932699999999997
2012-04-18,0.18966,0.19757,0.18966,0.19757,600,3.9513199999999995
2012-04-19,0.18175999999999998,0.18175999999999998,0.18175999999999998,0.18175999999999998,1000,3.63522
2012-04-20,0.18175999999999998,0.18175999999999998,0.18175999999999998,0.18175999999999998,0,3.63522
2012-04-23,0.18175999999999998,0.18175999999999998,0.18175999999999998,0.18175999999999998,0,3.63522
2012-04-24,0.18175999999999998,0.18175999999999998,0.18175999999999998,0.18175999999999998,0,3.63522
2012-04-25,0.18175999999999998,0.18175999999999998,0.18175999999999998,0.18175999999999998,0,3.63522
2012-04-26,0.18175999999999998,0.18175999999999998,0.18175999999999998,0.18175999999999998,0,3.63522
2012-04-27,0.18175999999999998,0.18175999999999998,0.17386,0.17386,26200,3.47716
2012-04-30,0.17386,0.17386,0.17386,0.17386,800,3.47716
2012-05-01,0.17386,0.17386,0.17386,0.17386,0,3.47716
2012-05-02,0.17386,0.17386,0.162,0.162,3100,3.24008
2012-05-03,0.162,0.162,0.15805,0.162,7200,3.24008
2012-05-04,0.162,0.162,0.15015,0.15015,5700,3.003
2012-05-07,0.14225,0.14225,0.13434000000000001,0.13434000000000001,8100,2.6869
2012-05-08,0.14225,0.15015,0.14225,0.15015,3300,3.003
2012-05-09,0.15015,0.15015,0.15015,0.15015,0,3.003
2012-05-10,0.15015,0.15015,0.15015,0.15015,0,3.003
2012-05-11,0.15015,0.15015,0.15015,0.15015,0,3.003
2012-05-14,0.1383,0.1383,0.1383,0.1383,5000,2.76592
2012-05-15,0.1383,0.1383,0.13434000000000001,0.13434000000000001,4200,2.6869
2012-05-16,0.13434000000000001,0.13434000000000001,0.12644,0.12644,5400,2.52885
2012-05-17,0.11854,0.11854,0.11064,0.11064,4100,2.21274
2012-05-18,0.11064,0.11064,0.11064,0.11064,0,2.21274
2012-05-21,0.11064,0.11064,0.11064,0.11064,4700,2.21274
2012-05-22,0.11064,0.11064,0.11064,0.11064,0,2.21274
2012-05-23,0.12644,0.12644,0.11854,0.11854,25300,2.37079
2012-05-24,0.11854,0.11854,0.11854,0.11854,10100,2.37079
2012-05-25,0.12249000000000002,0.12249000000000002,0.11854,0.11854,22100,2.37079
2012-05-28,0.12644,0.12644,0.12644,0.12644,1400,2.52885
2012-05-29,0.12644,0.12644,0.12644,0.12644,0,2.52885
2012-05-30,0.13434000000000001,0.13434000000000001,0.13039,0.13039,11100,2.60787
2012-05-31,0.13039,0.13039,0.13039,0.13039,3100,2.60787
2012-06-01,0.13039,0.13039,0.13039,0.13039,0,2.60787
2012-06-04,0.13039,0.13039,0.12644,0.12644,9300,2.52885
2012-06-05,0.12644,0.12644,0.12644,0.12644,0,2.52885
2012-06-06,0.12644,0.12644,0.12644,0.12644,9600,2.52885
2012-06-07,0.12644,0.12644,0.12644,0.12644,1600,2.52885
2012-06-08,0.11854,0.11854,0.11459000000000001,0.11459000000000001,6700,2.29177
2012-06-11,0.11459000000000001,0.11459000000000001,0.11459000000000001,0.11459000000000001,0,2.29177
2012-06-12,0.11459000000000001,0.11459000000000001,0.11459000000000001,0.11459000000000001,4100,2.29177
2012-06-13,0.14225,0.17386,0.14225,0.17386,22700,3.47716
2012-06-14,0.19757,0.23708,0.19757,0.21336999999999998,88000,4.26743
2012-06-15,0.21336999999999998,0.21336999999999998,0.17781,0.18175999999999998,31100,3.63522
2012-06-18,0.18966,0.20546999999999999,0.18175999999999998,0.19757,11800,3.9513199999999995
2012-06-19,0.19361,0.23708,0.19361,0.23708,94600,4.74158
2012-06-20,0.23708,0.26869,0.22523,0.22523,100900,4.50451
2012-06-21,0.22918000000000002,0.22918000000000002,0.20546999999999999,0.21336999999999998,13600,4.26743
2012-06-22,0.21336999999999998,0.21336999999999998,0.21336999999999998,0.21336999999999998,600,4.26743
2012-06-25,0.20546999999999999,0.20546999999999999,0.19361,0.19361,7500,3.87229
2012-06-26,0.19757,0.19757,0.18571,0.18571,5800,3.71424
2012-06-27,0.18966,0.19757,0.18571,0.19757,11900,3.9513199999999995
2012-06-28,0.19361,0.19757,0.17781,0.17781,13500,3.55619
2012-06-29,0.18966,0.19757,0.18175999999999998,0.18175999999999998,4300,3.63522
2012-07-02,0.18175999999999998,0.18175999999999998,0.17781,0.17781,4100,3.55619
2012-07-03,0.18175999999999998,0.20546999999999999,0.18175999999999998,0.20546999999999999,12000,4.109369999999999
2012-07-04,0.21731999999999999,0.22127,0.21336999999999998,0.22127,6100,4.42548
2012-07-05,0.22127,0.26474000000000003,0.22127,0.23708,47900,4.74158
2012-07-06,0.21336999999999998,0.21336999999999998,0.19757,0.19757,10000,3.9513199999999995
2012-07-09,0.20546999999999999,0.20546999999999999,0.19361,0.19361,4700,3.87229
2012-07-10,0.19757,0.21336999999999998,0.19757,0.20546999999999999,2100,4.109369999999999
2012-07-11,0.20546999999999999,0.20546999999999999,0.18966,0.18966,2700,3.7932699999999997
2012-07-12,0.19757,0.19757,0.19757,0.19757,3100,3.9513199999999995
2012-07-13,0.19361,0.19361,0.19361,0.19361,1500,3.87229
2012-07-16,0.19361,0.19361,0.19361,0.19361,0,3.87229
2012-07-17,0.19361,0.19361,0.19361,0.19361,0,3.87229
2012-07-18,0.20546999999999999,0.20546999999999999,0.20546999999999999,0.20546999999999999,900,4.109369999999999
2012-07-19,0.19361,0.19361,0.19361,0.19361,6000,3.87229
2012-07-20,0.19361,0.19361,0.19361,0.19361,0,3.87229
2012-07-23,0.19757,0.19757,0.17781,0.18571,6400,3.71424
2012-07-24,0.19757,0.19757,0.19757,0.19757,1200,3.9513199999999995
2012-07-25,0.18966,0.18966,0.18966,0.18966,6300,3.7932699999999997
2012-07-26,0.18175999999999998,0.19757,0.18175999999999998,0.19757,6600,3.9513199999999995
2012-07-27,0.19757,0.20546999999999999,0.19757,0.20546999999999999,10800,4.109369999999999
2012-07-30,0.20546999999999999,0.20546999999999999,0.19361,0.19361,5900,3.87229
2012-07-31,0.20546999999999999,0.21731999999999999,0.19757,0.21731999999999999,16100,4.34645
2012-08-01,0.21731999999999999,0.21731999999999999,0.21731999999999999,0.21731999999999999,0,4.34645
2012-08-02,0.21336999999999998,0.22918000000000002,0.20152,0.20152,18300,4.03035
2012-08-03,0.19361,0.21336999999999998,0.19361,0.21336999999999998,9400,4.26743
2012-08-06,0.19757,0.19757,0.19757,0.19757,20700,3.9513199999999995
2012-08-07,0.19757,0.19757,0.18175999999999998,0.18175999999999998,11400,3.63522
2012-08-08,0.18175999999999998,0.18966,0.18175999999999998,0.18571,15300,3.71424
2012-08-09,0.18571,0.18966,0.18175999999999998,0.18175999999999998,6600,3.63522
2012-08-10,0.18966,0.18966,0.18175999999999998,0.18175999999999998,15600,3.63522
2012-08-13,0.18175999999999998,0.19757,0.18175999999999998,0.18966,9800,3.7932699999999997
2012-08-14,0.20942,0.20942,0.20546999999999999,0.20546999999999999,1700,4.109369999999999
2012-08-15,0.19757,0.21336999999999998,0.19757,0.20942,16400,4.1884
2012-08-16,0.22127,0.22918000000000002,0.21336999999999998,0.22127,39600,4.42548
2012-08-17,0.22918000000000002,0.22918000000000002,0.21731999999999999,0.22523,8700,4.50451
2012-08-20,0.22918000000000002,0.22918000000000002,0.21336999999999998,0.21336999999999998,7800,4.26743
2012-08-21,0.21336999999999998,0.21336999999999998,0.18966,0.18966,2300,3.7932699999999997
2012-08-22,0.16990999999999998,0.16990999999999998,0.09483,0.09877999999999999,102700,1.9756599999999997
2012-08-23,0.09877999999999999,0.10273,0.08298,0.08693,72600,1.73858
2012-08-24,0.08693,0.09483,0.08693,0.09483,15800,1.89663
2012-08-27,0.09483,0.11854,0.09483,0.10669000000000001,33400,2.1337099999999998
2012-08-28,0.10273,0.10273,0.09877999999999999,0.09877999999999999,6000,1.9756599999999997
2012-08-29,0.09877999999999999,0.09877999999999999,0.09877999999999999,0.09877999999999999,0,1.9756599999999997
2012-08-30,0.09483,0.09483,0.09483,0.09483,7500,1.89663
2012-08-31,0.09483,0.09483,0.09483,0.09483,3200,1.89663
2012-09-03,0.09483,0.09483,0.09483,0.09483,900,1.89663
2012-09-04,0.09087999999999999,0.09087999999999999,0.07902999999999999,0.07902999999999999,18900,1.58053
2012-09-05,0.07902999999999999,0.07902999999999999,0.07902999999999999,0.07902999999999999,3100,1.58053
2012-09-06,0.07902999999999999,0.07902999999999999,0.07902999999999999,0.07902999999999999,6800,1.58053
2012-09-07,0.07902999999999999,0.07902999999999999,0.07902999999999999,0.07902999999999999,10500,1.58053
2012-09-10,0.0648,0.0648,0.06401,0.06401,5600,1.28023
2012-09-11,0.06401,0.06401,0.06401,0.06401,2200,1.28023
2012-09-12,0.0648,0.07112,0.0648,0.07112,16300,1.42248
2012-09-13,0.07902999999999999,0.09483,0.07902999999999999,0.08693,53000,1.73858
2012-09-14,0.09087999999999999,0.09087999999999999,0.09087999999999999,0.09087999999999999,1200,1.81761
2012-09-17,0.09087999999999999,0.09087999999999999,0.09087999999999999,0.09087999999999999,0,1.81761
2012-09-18,0.08693,0.09087999999999999,0.08693,0.08693,12900,1.73858
2012-09-19,0.07902999999999999,0.07902999999999999,0.07902999999999999,0.07902999999999999,1800,1.58053
2012-09-20,0.08298,0.08298,0.07902999999999999,0.07902999999999999,3200,1.58053
2012-09-21,0.07902999999999999,0.07902999999999999,0.07902999999999999,0.07902999999999999,0,1.58053
2012-09-24,0.07902999999999999,0.07902999999999999,0.07902999999999999,0.07902999999999999,0,1.58053
2012-09-25,0.07902999999999999,0.07902999999999999,0.07902999999999999,0.07902999999999999,0,1.58053
2012-09-26,0.07902999999999999,0.07902999999999999,0.07902999999999999,0.07902999999999999,5500,1.58053
2012-09-27,0.09087999999999999,0.11064,0.09087999999999999,0.11064,9300,2.21274
2012-09-28,0.11064,0.11064,0.11064,0.11064,0,2.21274
2012-10-01,0.11064,0.11064,0.11064,0.11064,0,2.21274
2012-10-02,0.10273,0.11064,0.10273,0.11064,18900,2.21274
2012-10-03,0.09483,0.09483,0.09483,0.09483,1800,1.89663
2012-10-04,0.14225,0.1541,0.10273,0.11854,213800,2.37079
2012-10-05,0.11854,0.12249000000000002,0.09877999999999999,0.09877999999999999,8900,1.9756599999999997
2012-10-08,0.09877999999999999,0.11854,0.08298,0.10669000000000001,24300,2.1337099999999998
2012-10-09,0.10669000000000001,0.10669000000000001,0.09087999999999999,0.09087999999999999,2800,1.81761
2012-10-10,0.09087999999999999,0.09087999999999999,0.09087999999999999,0.09087999999999999,1000,1.81761
2012-10-11,0.09087999999999999,0.09087999999999999,0.09087999999999999,0.09087999999999999,0,1.81761
2012-10-12,0.09087999999999999,0.09087999999999999,0.09087999999999999,0.09087999999999999,0,1.81761
2012-10-15,0.08693,0.08693,0.07429,0.07666,36400,1.53311
2012-10-16,0.07666,0.07666,0.07666,0.07666,2000,1.53311
2012-10-17,0.07666,0.07745,0.07508,0.07508,4800,1.5015
2012-10-18,0.0774,0.0774,0.0774,0.0774,0,1.54806
2012-10-19,0.0774,0.0774,0.0774,0.0774,0,1.54806
2012-10-22,0.05948,0.066,0.05948,0.06518,2700,1.3036299999999998
2012-10-23,0.06518,0.06518,0.06518,0.06518,0,1.3036299999999998
2012-10-24,0.07007000000000001,0.07007000000000001,0.06518,0.06518,400,1.3036299999999998
2012-10-25,0.06518,0.06518,0.06518,0.06518,0,1.3036299999999998
2012-10-26,0.06518,0.06518,0.06518,0.06518,3600,1.3036299999999998
2012-10-29,0.07332999999999999,0.07332999999999999,0.07007000000000001,0.07007000000000001,1200,1.4014
2012-10-30,0.06518,0.06518,0.06518,0.06518,0,1.3036299999999998
2012-10-31,0.06844,0.06844,0.06844,0.06844,1000,1.36881
2012-11-01,0.06844,0.07985,0.06844,0.07985,11200,1.59695
2012-11-02,0.07985,0.07985,0.06763,0.06844,51700,1.36881
2012-11-05,0.06844,0.06844,0.06844,0.06844,0,1.36881
2012-11-06,0.06844,0.06844,0.06844,0.06844,4600,1.36881
2012-11-07,0.06844,0.06844,0.06844,0.06844,100,1.36881
2012-11-08,0.07007000000000001,0.07007000000000001,0.066,0.066,8700,1.3199299999999998
2012-11-09,0.066,0.066,0.066,0.066,0,1.3199299999999998
2012-11-12,0.06681000000000001,0.06681000000000001,0.06518,0.06518,13700,1.3036299999999998
2012-11-13,0.06518,0.06518,0.06518,0.06518,6900,1.3036299999999998
2012-11-14,0.06518,0.06518,0.061110000000000005,0.061110000000000005,900,1.2221600000000001
2012-11-15,0.061110000000000005,0.061110000000000005,0.061110000000000005,0.061110000000000005,0,1.2221600000000001
2012-11-16,0.06518,0.07089,0.06518,0.07089,1600,1.4177
2012-11-19,0.07089,0.07089,0.07089,0.07089,0,1.4177
2012-11-20,0.06926,0.07089,0.06926,0.07089,3600,1.4177
2012-11-21,0.07414,0.0774,0.07332999999999999,0.0774,1200,1.54806
2012-11-22,0.0774,0.0774,0.0774,0.0774,0,1.54806
2012-11-23,0.0774,0.0774,0.0774,0.0774,0,1.54806
2012-11-26,0.0774,0.0774,0.0774,0.0774,0,1.54806
2012-11-27,0.0774,0.0774,0.0774,0.0774,0,1.54806
2012-11-28,0.0774,0.0774,0.0774,0.0774,0,1.54806
2012-11-29,0.0774,0.0774,0.07332999999999999,0.07332999999999999,20300,1.46659
2012-11-30,0.07332999999999999,0.07332999999999999,0.07332999999999999,0.07332999999999999,3000,1.46659
2012-12-03,0.07332999999999999,0.07332999999999999,0.07332999999999999,0.07332999999999999,0,1.46659
2012-12-04,0.06926,0.06926,0.06926,0.06926,1300,1.38511
2012-12-05,0.06926,0.06926,0.06926,0.06926,0,1.38511
2012-12-06,0.06926,0.06926,0.06926,0.06926,900,1.38511
2012-12-07,0.07332999999999999,0.07332999999999999,0.07332999999999999,0.07332999999999999,6100,1.46659
2012-12-10,0.07414,0.07414,0.07414,0.07414,1200,1.48288
2012-12-11,0.07332999999999999,0.07332999999999999,0.06518,0.06518,17500,1.3036299999999998
2012-12-12,0.06518,0.06518,0.06518,0.06518,0,1.3036299999999998
2012-12-13,0.06681000000000001,0.06763,0.06518,0.06518,5700,1.3036299999999998
2012-12-14,0.06518,0.06518,0.06518,0.06518,0,1.3036299999999998
2012-12-17,0.06518,0.06518,0.06518,0.06518,0,1.3036299999999998
2012-12-18,0.06518,0.06518,0.06518,0.06518,0,1.3036299999999998
2012-12-19,0.06518,0.06518,0.061110000000000005,0.061110000000000005,13800,1.2221600000000001
2012-12-20,0.061110000000000005,0.061110000000000005,0.061110000000000005,0.061110000000000005,0,1.2221600000000001
2012-12-21,0.061110000000000005,0.061110000000000005,0.061110000000000005,0.061110000000000005,0,1.2221600000000001
2012-12-24,0.061110000000000005,0.061110000000000005,0.061110000000000005,0.061110000000000005,0,1.2221600000000001
2012-12-25,0.061110000000000005,0.061110000000000005,0.061110000000000005,0.061110000000000005,0,1.2221600000000001
2012-12-26,0.061110000000000005,0.061110000000000005,0.061110000000000005,0.061110000000000005,0,1.2221600000000001
2012-12-27,0.06681000000000001,0.06681000000000001,0.06681000000000001,0.06681000000000001,6100,1.33622
2012-12-28,0.06681000000000001,0.06681000000000001,0.06681000000000001,0.06681000000000001,0,1.33622
2012-12-31,0.06518,0.06518,0.06518,0.06518,300,1.3036299999999998
2013-01-01,0.06518,0.06518,0.06518,0.06518,0,1.3036299999999998
2013-01-02,0.06518,0.06518,0.06274,0.06274,3000,1.25475
2013-01-03,0.06274,0.06274,0.06274,0.06274,0,1.25475
2013-01-04,0.061110000000000005,0.061110000000000005,0.061110000000000005,0.061110000000000005,1200,1.2221600000000001
2013-01-07,0.061110000000000005,0.061110000000000005,0.061110000000000005,0.061110000000000005,0,1.2221600000000001
2013-01-08,0.061110000000000005,0.061110000000000005,0.061110000000000005,0.061110000000000005,0,1.2221600000000001
2013-01-09,0.061110000000000005,0.061110000000000005,0.061110000000000005,0.061110000000000005,0,1.2221600000000001
2013-01-10,0.061110000000000005,0.061110000000000005,0.061110000000000005,0.061110000000000005,0,1.2221600000000001
2013-01-11,0.06355,0.06518,0.06355,0.06518,3800,1.3036299999999998
2013-01-14,0.06518,0.066,0.06518,0.066,2800,1.3199299999999998
2013-01-15,0.066,0.066,0.066,0.066,0,1.3199299999999998
2013-01-16,0.066,0.066,0.06518,0.06518,4900,1.3036299999999998
2013-01-17,0.06518,0.06518,0.06518,0.06518,0,1.3036299999999998
2013-01-18,0.066,0.066,0.06437000000000001,0.06437000000000001,6400,1.28734
2013-01-21,0.07577,0.09777000000000001,0.066,0.06763,192600,1.3525200000000002
2013-01-22,0.06763,0.06763,0.06681000000000001,0.06763,6300,1.3525200000000002
2013-01-23,0.06763,0.06763,0.06518,0.06681000000000001,36400,1.33622
2013-01-24,0.06681000000000001,0.06681000000000001,0.066,0.066,4200,1.3199299999999998
2013-01-25,0.066,0.06681000000000001,0.066,0.066,700,1.3199299999999998
2013-01-28,0.066,0.066,0.066,0.066,0,1.3199299999999998
2013-01-29,0.06681000000000001,0.06681000000000001,0.066,0.066,1200,1.3199299999999998
2013-01-30,0.06763,0.06763,0.066,0.066,5600,1.3199299999999998
2013-01-31,0.066,0.066,0.066,0.066,0,1.3199299999999998
2013-02-01,0.06926,0.06926,0.06926,0.06926,0,1.38511
2013-02-04,0.06681000000000001,0.06681000000000001,0.066,0.066,2400,1.3199299999999998
2013-02-05,0.066,0.066,0.066,0.066,0,1.3199299999999998
2013-02-06,0.06437000000000001,0.06437000000000001,0.06355,0.06355,2000,1.27104
2013-02-07,0.06355,0.06355,0.06355,0.06355,1800,1.27104
2013-02-08,0.06355,0.06355,0.06355,0.06355,0,1.27104
2013-02-11,0.060289999999999996,0.060289999999999996,0.060289999999999996,0.060289999999999996,6100,1.20586
2013-02-12,0.05703,0.05703,0.056220000000000006,0.056220000000000006,9200,1.12438
2013-02-13,0.056220000000000006,0.056220000000000006,0.056220000000000006,0.056220000000000006,0,1.12438
2013-02-14,0.056220000000000006,0.05703,0.056220000000000006,0.05703,10100,1.14068
2013-02-15,0.0554,0.056220000000000006,0.0554,0.056220000000000006,2300,1.12438
2013-02-18,0.056220000000000006,0.056220000000000006,0.056220000000000006,0.056220000000000006,0,1.12438
2013-02-19,0.056220000000000006,0.056220000000000006,0.056220000000000006,0.056220000000000006,0,1.12438
2013-02-20,0.05296,0.05296,0.048889999999999996,0.048889999999999996,1500,0.97772
2013-02-21,0.04481,0.04481,0.04318,0.04318,3900,0.86366
2013-02-22,0.048889999999999996,0.05296,0.048889999999999996,0.05296,19800,1.0592
2013-02-25,0.048889999999999996,0.048889999999999996,0.048889999999999996,0.048889999999999996,3300,0.97772
2013-02-26,0.048889999999999996,0.048889999999999996,0.048889999999999996,0.048889999999999996,0,0.97772
2013-02-27,0.048889999999999996,0.048889999999999996,0.048889999999999996,0.048889999999999996,0,0.97772
2013-02-28,0.048889999999999996,0.06681000000000001,0.048889999999999996,0.05703,67900,1.14068
2013-03-01,0.05703,0.05703,0.05703,0.05703,0,1.14068
2013-03-04,0.05703,0.05703,0.05703,0.05703,0,1.14068
2013-03-05,0.04318,0.04481,0.04318,0.04481,5300,0.89625
2013-03-06,0.045630000000000004,0.045630000000000004,0.045630000000000004,0.045630000000000004,200,0.91254
2013-03-07,0.046439999999999995,0.048889999999999996,0.046439999999999995,0.048889999999999996,1500,0.97772
2013-03-08,0.05296,0.05296,0.05296,0.05296,0,1.0592
2013-03-11,0.05296,0.05296,0.05296,0.05296,0,1.0592
2013-03-12,0.050519999999999995,0.050519999999999995,0.04726,0.04726,6200,0.9451299999999999
2013-03-13,0.045630000000000004,0.045630000000000004,0.045630000000000004,0.045630000000000004,600,0.91254
2013-03-14,0.045630000000000004,0.045630000000000004,0.045630000000000004,0.045630000000000004,0,0.91254
2013-03-15,0.045630000000000004,0.045630000000000004,0.045630000000000004,0.045630000000000004,0,0.91254
2013-03-18,0.045630000000000004,0.045630000000000004,0.045630000000000004,0.045630000000000004,0,0.91254
2013-03-19,0.045630000000000004,0.045630000000000004,0.045630000000000004,0.045630000000000004,0,0.91254
2013-03-20,0.04237,0.04237,0.03503,0.03503,23000,0.7007
2013-03-21,0.03503,0.03503,0.03503,0.03503,3200,0.7007
2013-03-22,0.03503,0.03503,0.03422,0.03422,13300,0.6844100000000001
2013-03-25,0.03422,0.03422,0.029330000000000002,0.029330000000000002,84900,0.58663
2013-03-26,0.03259,0.03259,0.03259,0.03259,18100,0.65182
2013-03-27,0.03341,0.03341,0.03259,0.03259,51200,0.65182
2013-03-28,0.03259,0.03259,0.03259,0.03259,6500,0.65182
2013-03-29,0.03259,0.03259,0.03259,0.03259,0,0.65182
2013-04-01,0.03259,0.03259,0.03259,0.03259,0,0.65182
2013-04-02,0.03585,0.03585,0.03259,0.03259,15900,0.65182
2013-04-03,0.03259,0.03259,0.03259,0.03259,4500,0.65182
2013-04-04,0.03259,0.03259,0.02852,0.02852,12600,0.57034
2013-04-05,0.02852,0.02852,0.02852,0.02852,1500,0.57034
2013-04-08,0.02852,0.02852,0.02852,0.02852,0,0.57034
2013-04-09,0.02852,0.02852,0.02852,0.02852,4200,0.57034
2013-04-10,0.02852,0.02852,0.02852,0.02852,0,0.57034
2013-04-11,0.02852,0.02852,0.02852,0.02852,3400,0.57034
2013-04-12,0.029330000000000002,0.03096,0.029330000000000002,0.03096,10300,0.6192300000000001
2013-04-15,0.03096,0.03178,0.03096,0.03178,400,0.63552
2013-04-16,0.03015,0.03015,0.02852,0.02852,10100,0.57034
2013-04-17,0.02852,0.02852,0.02852,0.02852,0,0.57034
2013-04-18,0.025259999999999998,0.025259999999999998,0.02444,0.02444,8500,0.48886
2013-04-19,0.02444,0.02444,0.02363,0.02363,10100,0.47257
2013-04-22,0.02363,0.02363,0.02363,0.02363,0,0.47257
2013-04-23,0.02118,0.02363,0.02118,0.02118,38300,0.42368
2013-04-24,0.02118,0.02118,0.02118,0.02118,0,0.42368
2013-04-25,0.02118,0.02118,0.02118,0.02118,0,0.42368
2013-04-26,0.02118,0.02118,0.02118,0.02118,0,0.42368
2013-04-29,0.02444,0.02444,0.02444,0.02444,2000,0.48886
2013-04-30,0.02444,0.02444,0.02444,0.02444,0,0.48886
2013-05-01,0.02444,0.02444,0.02444,0.02444,0,0.48886
2013-05-02,0.02444,0.02444,0.02444,0.02444,0,0.48886
2013-05-03,0.02444,0.02444,0.02444,0.02444,0,0.48886
2013-05-06,0.02444,0.02444,0.02444,0.02444,0,0.48886
2013-05-07,0.022000000000000002,0.02444,0.022000000000000002,0.02444,6100,0.48886
2013-05-08,0.02444,0.02444,0.02444,0.02444,1600,0.48886
2013-05-09,0.025259999999999998,0.025259999999999998,0.02444,0.02444,1300,0.48886
2013-05-10,0.025259999999999998,0.025259999999999998,0.025259999999999998,0.025259999999999998,1800,0.50516
2013-05-13,0.025259999999999998,0.025259999999999998,0.025259999999999998,0.025259999999999998,0,0.50516
2013-05-14,0.025259999999999998,0.025259999999999998,0.025259999999999998,0.025259999999999998,0,0.50516
2013-05-15,0.025259999999999998,0.025259999999999998,0.02444,0.02444,1800,0.48886
2013-05-16,0.02444,0.02444,0.02444,0.02444,0,0.48886
2013-05-17,0.02444,0.02444,0.02118,0.02281,10800,0.45627
2013-05-20,0.022000000000000002,0.022000000000000002,0.022000000000000002,0.022000000000000002,4600,0.43998000000000004
2013-05-21,0.022000000000000002,0.022000000000000002,0.022000000000000002,0.022000000000000002,0,0.43998000000000004
2013-05-22,0.02037,0.02037,0.01955,0.01955,5500,0.39109
2013-05-23,0.01874,0.01874,0.01711,0.01711,19000,0.3422
2013-05-24,0.01711,0.01711,0.0163,0.0163,17400,0.32591
2013-05-27,0.0163,0.0163,0.01548,0.01548,8000,0.30961
2013-05-28,0.01548,0.01548,0.01385,0.01385,9800,0.27702
2013-05-29,0.014669999999999999,0.014669999999999999,0.01141,0.01141,44400,0.22814
2013-05-30,0.01141,0.01141,0.01141,0.01141,0,0.22814
2013-05-31,0.014669999999999999,0.014669999999999999,0.014669999999999999,0.014669999999999999,3000,0.29331999999999997
2013-06-03,0.014669999999999999,0.014669999999999999,0.014669999999999999,0.014669999999999999,0,0.29331999999999997
2013-06-04,0.014669999999999999,0.014669999999999999,0.014669999999999999,0.014669999999999999,0,0.29331999999999997
2013-06-05,0.014669999999999999,0.014669999999999999,0.014669999999999999,0.014669999999999999,0,0.29331999999999997
2013-06-06,0.014669999999999999,0.014669999999999999,0.014669999999999999,0.014669999999999999,0,0.29331999999999997
2013-06-07,0.01793,0.01793,0.01711,0.01711,12800,0.3422
2013-06-10,0.01711,0.01711,0.01711,0.01711,0,0.3422
2013-06-11,0.01711,0.01711,0.014669999999999999,0.014669999999999999,15300,0.29331999999999997
2013-06-12,0.0163,0.0163,0.013040000000000001,0.013040000000000001,13800,0.26073
2013-06-13,0.014669999999999999,0.014669999999999999,0.013040000000000001,0.013040000000000001,3200,0.26073
2013-06-14,0.014669999999999999,0.01548,0.01059,0.01059,42400,0.21184
2013-06-17,0.01059,0.01059,0.01059,0.01059,0,0.21184
2013-06-18,0.01059,0.01059,0.01059,0.01059,0,0.21184
2013-06-19,0.013040000000000001,0.01385,0.013040000000000001,0.01385,13800,0.27702
2013-06-20,0.013040000000000001,0.013040000000000001,0.01141,0.01141,7900,0.22814
2013-06-21,0.01141,0.01141,0.01141,0.01141,0,0.22814
2013-06-24,0.01141,0.01141,0.01141,0.01141,0,0.22814
2013-06-25,0.01141,0.01141,0.01141,0.01141,0,0.22814
2013-06-26,0.01141,0.01141,0.00896,0.00896,22900,0.17925
2013-06-27,0.01141,0.01385,0.01141,0.01385,6100,0.27702
2013-06-28,0.013040000000000001,0.013040000000000001,0.00815,0.00815,12900,0.16295
2013-07-01,0.00815,0.00815,0.00815,0.00815,0,0.16295
2013-07-02,0.01222,0.01222,0.01222,0.01222,4900,0.24443
2013-07-03,0.013040000000000001,0.01385,0.013040000000000001,0.01385,6100,0.27702
2013-07-04,0.0163,0.01711,0.01385,0.01385,21700,0.27702
2013-07-05,0.01385,0.01385,0.01385,0.01385,0,0.27702
2013-07-08,0.01385,0.01385,0.01385,0.01385,900,0.27702
2013-07-09,0.01385,0.01385,0.01385,0.01385,0,0.27702
2013-07-10,0.01385,0.01385,0.01385,0.01385,0,0.27702
2013-07-11,0.01385,0.01385,0.01385,0.01385,0,0.27702
2013-07-12,0.01385,0.01385,0.01385,0.01385,900,0.27702
2013-07-15,0.01385,0.0163,0.01385,0.01385,56500,0.27702
2013-07-16,0.01385,0.01385,0.01385,0.01385,0,0.27702
2013-07-17,0.01385,0.01385,0.01385,0.01385,0,0.27702
2013-07-18,0.01385,0.01385,0.01385,0.01385,0,0.27702
2013-07-19,0.01385,0.01385,0.01385,0.01385,12000,0.27702
2013-07-22,0.01222,0.01222,0.01059,0.01059,26800,0.21184
2013-07-23,0.01059,0.01059,0.01059,0.01059,3300,0.21184
2013-07-24,0.01141,0.01141,0.00896,0.00896,18400,0.17925
2013-07-25,0.00896,0.00896,0.00896,0.00896,0,0.17925
2013-07-26,0.00978,0.00978,0.00978,0.00978,3000,0.19554000000000002
2013-07-29,0.01222,0.01222,0.01141,0.01222,16600,0.24443
2013-07-30,0.01222,0.01222,0.01222,0.01222,5700,0.24443
2013-07-31,0.01222,0.01222,0.01222,0.01222,0,0.24443
2013-08-01,0.01222,0.01222,0.01222,0.01222,0,0.24443
2013-08-02,0.01222,0.01222,0.00978,0.00978,6000,0.19554000000000002
2013-08-05,0.00978,0.00978,0.00978,0.00978,18400,0.19554000000000002
2013-08-06,0.00978,0.00978,0.00978,0.00978,0,0.19554000000000002
2013-08-07,0.00978,0.00978,0.00978,0.00978,0,0.19554000000000002
2013-08-08,0.00978,0.00978,0.00978,0.00978,0,0.19554000000000002
2013-08-09,0.00978,0.00978,0.00978,0.00978,0,0.19554000000000002
2013-08-12,0.00978,0.00978,0.00978,0.00978,0,0.19554000000000002
2013-08-13,0.00978,0.00978,0.00978,0.00978,0,0.19554000000000002
2013-08-14,0.00978,0.00978,0.00978,0.00978,0,0.19554000000000002
2013-08-15,0.00815,0.00815,0.00815,0.00815,10700,0.16295
2013-08-16,0.00978,0.00978,0.00978,0.00978,3000,0.19554000000000002
2013-08-19,0.00978,0.00978,0.00978,0.00978,0,0.19554000000000002
2013-08-20,0.00978,0.00978,0.00978,0.00978,0,0.19554000000000002
2013-08-21,0.01059,0.01059,0.00978,0.00978,8800,0.19554000000000002
2013-08-22,0.01059,0.01059,0.00896,0.00896,29200,0.17925
2013-08-23,0.00896,0.00896,0.00896,0.00896,0,0.17925
2013-08-26,0.00978,0.00978,0.00978,0.00978,7600,0.19554000000000002
2013-08-27,0.00978,0.00978,0.00978,0.00978,600,0.19554000000000002
2013-08-28,0.00978,0.00978,0.00978,0.00978,0,0.19554000000000002
2013-08-29,0.00978,0.00978,0.00978,0.00978,0,0.19554000000000002
2013-08-30,0.00978,0.00978,0.00978,0.00978,0,0.19554000000000002
2013-09-02,0.00978,0.00978,0.00978,0.00978,7400,0.19554000000000002
2013-09-03,0.00978,0.00978,0.00978,0.00978,0,0.19554000000000002
2013-09-04,0.00978,0.00978,0.00978,0.00978,0,0.19554000000000002
2013-09-05,0.00815,0.00815,0.00815,0.00815,67500,0.16295
2013-09-06,0.00978,0.00978,0.00978,0.00978,5400,0.19554000000000002
2013-09-09,0.00815,0.00815,0.00815,0.00815,12600,0.16295
2013-09-10,0.00815,0.00815,0.00815,0.00815,0,0.16295
2013-09-11,0.00815,0.00815,0.00815,0.00815,0,0.16295
2013-09-12,0.00815,0.00815,0.00815,0.00815,0,0.16295
2013-09-13,0.00815,0.00815,0.00815,0.00815,12200,0.16295
2013-09-16,0.00978,0.00978,0.00815,0.00815,7600,0.16295
2013-09-17,0.00978,0.00978,0.00815,0.00815,9500,0.16295
2013-09-18,0.00815,0.00815,0.00815,0.00815,0,0.16295
2013-09-19,0.00815,0.00815,0.00815,0.00815,0,0.16295
2013-09-20,0.00905,0.00905,0.00905,0.00905,0,0.18106
2013-09-23,0.00905,0.00905,0.00905,0.00905,0,0.18106
2013-09-24,0.007240000000000001,0.007240000000000001,0.007240000000000001,0.007240000000000001,16500,0.14485
2013-09-25,0.007240000000000001,0.007240000000000001,0.007240000000000001,0.007240000000000001,0,0.14485
2013-09-26,0.007240000000000001,0.007240000000000001,0.007240000000000001,0.007240000000000001,5500,0.14485
2013-09-27,0.007240000000000001,0.007240000000000001,0.007240000000000001,0.007240000000000001,0,0.14485
2013-09-30,0.00634,0.00634,0.00634,0.00634,8800,0.12674000000000002
2013-10-01,0.00634,0.00634,0.00634,0.00634,2200,0.12674000000000002
2013-10-02,0.00634,0.00634,0.00634,0.00634,0,0.12674000000000002
2013-10-03,0.00634,0.00634,0.00634,0.00634,0,0.12674000000000002
2013-10-04,0.00543,0.00543,0.00543,0.00543,4800,0.10864000000000001
2013-10-07,0.00543,0.00543,0.00543,0.00543,0,0.10864000000000001
2013-10-08,0.00634,0.00634,0.00634,0.00634,15300,0.12674000000000002
2013-10-09,0.00634,0.00634,0.00634,0.00634,27200,0.12674000000000002
2013-10-10,0.00634,0.00634,0.00634,0.00634,2200,0.12674000000000002
2013-10-11,0.00634,0.00634,0.00634,0.00634,32100,0.12674000000000002
2013-10-14,0.00634,0.00634,0.00634,0.00634,0,0.12674000000000002
2013-10-15,0.00543,0.00543,0.00543,0.00543,1700,0.10864000000000001
2013-10-16,0.00543,0.00543,0.00543,0.00543,0,0.10864000000000001
2013-10-17,0.00543,0.00543,0.00543,0.00543,0,0.10864000000000001
2013-10-18,0.00634,0.00634,0.00634,0.00634,7100,0.12674000000000002
2013-10-21,0.00634,0.00634,0.00634,0.00634,0,0.12674000000000002
2013-10-22,0.00543,0.00543,0.00543,0.00543,5200,0.10864000000000001
2013-10-23,0.00543,0.00634,0.00543,0.00634,38500,0.12674000000000002
2013-10-24,0.00634,0.00634,0.00634,0.00634,9700,0.12674000000000002
2013-10-25,0.00634,0.00634,0.00634,0.00634,0,0.12674000000000002
2013-10-28,0.00634,0.00634,0.00634,0.00634,0,0.12674000000000002
2013-10-29,0.00634,0.00634,0.00543,0.00634,45300,0.12674000000000002
2013-10-30,0.00543,0.007240000000000001,0.00543,0.007240000000000001,23900,0.14485
2013-10-31,0.007240000000000001,0.007240000000000001,0.007240000000000001,0.007240000000000001,5500,0.14485
2013-11-01,0.007240000000000001,0.007240000000000001,0.007240000000000001,0.007240000000000001,2700,0.14485
2013-11-04,0.007240000000000001,0.007240000000000001,0.00634,0.00634,20400,0.12674000000000002
2013-11-05,0.00634,0.00634,0.00634,0.00634,0,0.12674000000000002
2013-11-06,0.00634,0.00634,0.00634,0.00634,3000,0.12674000000000002
2013-11-07,0.00543,0.00543,0.00543,0.00543,3800,0.10864000000000001
2013-11-08,0.00543,0.00543,0.00543,0.00543,0,0.10864000000000001
2013-11-11,0.00543,0.00543,0.00543,0.00543,0,0.10864000000000001
2013-11-12,0.00543,0.00543,0.00543,0.00543,0,0.10864000000000001
2013-11-13,0.00543,0.00543,0.00543,0.00543,0,0.10864000000000001
2013-11-14,0.00543,0.00543,0.00543,0.00543,8200,0.10864000000000001
2013-11-15,0.00543,0.00543,0.00543,0.00543,5800,0.10864000000000001
2013-11-18,0.00543,0.00543,0.00543,0.00543,0,0.10864000000000001
2013-11-19,0.00543,0.00543,0.00543,0.00543,0,0.10864000000000001
2013-11-20,0.00543,0.00543,0.00543,0.00543,0,0.10864000000000001
2013-11-21,0.00634,0.007240000000000001,0.00543,0.007240000000000001,61800,0.14485
2013-11-22,0.007240000000000001,0.007240000000000001,0.007240000000000001,0.007240000000000001,24800,0.14485
2013-11-25,0.007240000000000001,0.007240000000000001,0.007240000000000001,0.007240000000000001,0,0.14485
2013-11-26,0.00905,0.00905,0.00905,0.00905,54500,0.18106
2013-11-27,0.01086,0.01086,0.01086,0.01086,50200,0.21727
2013-11-28,0.01086,0.01086,0.01086,0.01086,13800,0.21727
2013-11-29,0.01086,0.01086,0.01086,0.01086,0,0.21727
2013-12-02,0.01086,0.01086,0.01086,0.01086,0,0.21727
2013-12-03,0.01086,0.01086,0.01086,0.01086,0,0.21727
2013-12-04,0.01086,0.01086,0.01086,0.01086,0,0.21727
2013-12-05,0.00905,0.00905,0.00905,0.00905,22000,0.18106
2013-12-06,0.00905,0.00905,0.00905,0.00905,21500,0.18106
2013-12-09,0.00905,0.00905,0.00905,0.00905,0,0.18106
2013-12-10,0.00905,0.00905,0.00905,0.00905,0,0.18106
2013-12-11,0.00905,0.00905,0.00905,0.00905,11000,0.18106
2013-12-12,0.00905,0.00905,0.00905,0.00905,1300,0.18106
2013-12-13,0.00996,0.011770000000000001,0.00996,0.00996,58800,0.19917
2013-12-16,0.00996,0.00996,0.00996,0.00996,170400,0.19917
2013-12-17,0.00996,0.00996,0.00996,0.00996,0,0.19917
2013-12-18,0.00996,0.00996,0.00996,0.00996,169800,0.19917
2013-12-19,0.00996,0.00996,0.00996,0.00996,8200,0.19917
2013-12-20,0.00996,0.00996,0.00996,0.00996,0,0.19917
2013-12-23,0.00996,0.00996,0.00996,0.00996,0,0.19917
2013-12-24,0.00996,0.00996,0.00996,0.00996,0,0.19917
2013-12-25,0.00996,0.00996,0.00996,0.00996,0,0.19917
2013-12-26,0.00996,0.00996,0.00996,0.00996,0,0.19917
2013-12-27,0.00996,0.00996,0.00996,0.00996,0,0.19917
2013-12-30,0.011770000000000001,0.011770000000000001,0.011770000000000001,0.011770000000000001,33100,0.23538
2013-12-31,0.011770000000000001,0.011770000000000001,0.011770000000000001,0.011770000000000001,0,0.23538
2014-01-01,0.011770000000000001,0.011770000000000001,0.011770000000000001,0.011770000000000001,0,0.23538
2014-01-02,0.011770000000000001,0.011770000000000001,0.011770000000000001,0.011770000000000001,0,0.23538
2014-01-03,0.011770000000000001,0.011770000000000001,0.011770000000000001,0.011770000000000001,0,0.23538
2014-01-06,0.0163,0.0163,0.011770000000000001,0.011770000000000001,14900,0.23538
2014-01-07,0.011770000000000001,0.011770000000000001,0.011770000000000001,0.011770000000000001,0,0.23538
2014-01-08,0.011770000000000001,0.011770000000000001,0.011770000000000001,0.011770000000000001,14700,0.23538
2014-01-09,0.011770000000000001,0.011770000000000001,0.011770000000000001,0.011770000000000001,0,0.23538
2014-01-10,0.013580000000000002,0.013580000000000002,0.013580000000000002,0.013580000000000002,16500,0.27159
2014-01-13,0.013580000000000002,0.013580000000000002,0.013580000000000002,0.013580000000000002,0,0.27159
2014-01-14,0.01267,0.01267,0.01267,0.01267,2700,0.25348000000000004
2014-01-15,0.013580000000000002,0.013580000000000002,0.013580000000000002,0.013580000000000002,0,0.27159
2014-01-16,0.013580000000000002,0.013580000000000002,0.013580000000000002,0.013580000000000002,0,0.27159
2014-01-17,0.01267,0.01267,0.01267,0.01267,3600,0.25348000000000004
2014-01-20,0.01267,0.01267,0.01267,0.01267,0,0.25348000000000004
2014-01-21,0.01267,0.01267,0.01267,0.01267,0,0.25348000000000004
2014-01-22,0.01267,0.01267,0.01267,0.01267,6000,0.25348000000000004
2014-01-23,0.01267,0.01267,0.01267,0.01267,0,0.25348000000000004
2014-01-24,0.013580000000000002,0.013580000000000002,0.01267,0.013580000000000002,32100,0.27159
2014-01-27,0.013580000000000002,0.013580000000000002,0.013580000000000002,0.013580000000000002,0,0.27159
2014-01-28,0.013580000000000002,0.013580000000000002,0.013580000000000002,0.013580000000000002,0,0.27159
2014-01-29,0.013580000000000002,0.013580000000000002,0.013580000000000002,0.013580000000000002,0,0.27159
2014-01-30,0.015390000000000001,0.015390000000000001,0.015390000000000001,0.015390000000000001,3800,0.3078
2014-01-31,0.015390000000000001,0.015390000000000001,0.015390000000000001,0.015390000000000001,0,0.3078
2014-02-03,0.015390000000000001,0.015390000000000001,0.015390000000000001,0.015390000000000001,0,0.3078
2014-02-04,0.015390000000000001,0.015390000000000001,0.015390000000000001,0.015390000000000001,0,0.3078
2014-02-05,0.013580000000000002,0.013580000000000002,0.011770000000000001,0.011770000000000001,13300,0.23538
2014-02-06,0.011770000000000001,0.011770000000000001,0.011770000000000001,0.011770000000000001,0,0.23538
2014-02-07,0.01267,0.01267,0.01267,0.01267,1600,0.25348000000000004
2014-02-10,0.01267,0.01267,0.01267,0.01267,0,0.25348000000000004
2014-02-11,0.014490000000000001,0.014490000000000001,0.01267,0.01267,8800,0.25348000000000004
2014-02-12,0.01267,0.01267,0.011770000000000001,0.011770000000000001,5000,0.23538
2014-02-13,0.011770000000000001,0.011770000000000001,0.011770000000000001,0.011770000000000001,12100,0.23538
2014-02-14,0.01267,0.01267,0.01267,0.01267,24800,0.25348000000000004
2014-02-17,0.011770000000000001,0.011770000000000001,0.01086,0.01086,5500,0.21727
2014-02-18,0.01086,0.01086,0.01086,0.01086,4400,0.21727
2014-02-19,0.013580000000000002,0.013580000000000002,0.01086,0.01086,30800,0.21727
2014-02-20,0.01086,0.01086,0.01086,0.01086,0,0.21727
2014-02-21,0.01086,0.01086,0.00996,0.00996,27000,0.19917
2014-02-24,0.00996,0.00996,0.00996,0.00996,0,0.19917
2014-02-25,0.011770000000000001,0.011770000000000001,0.011770000000000001,0.011770000000000001,4000,0.23538
2014-02-26,0.011770000000000001,0.011770000000000001,0.011770000000000001,0.011770000000000001,4400,0.23538
2014-02-27,0.011770000000000001,0.011770000000000001,0.011770000000000001,0.011770000000000001,0,0.23538
2014-02-28,0.011770000000000001,0.011770000000000001,0.011770000000000001,0.011770000000000001,0,0.23538
2014-03-03,0.011770000000000001,0.011770000000000001,0.011770000000000001,0.011770000000000001,0,0.23538
2014-03-04,0.011770000000000001,0.011770000000000001,0.011770000000000001,0.011770000000000001,0,0.23538
2014-03-05,0.011770000000000001,0.011770000000000001,0.011770000000000001,0.011770000000000001,0,0.23538
2014-03-06,0.00996,0.00996,0.00996,0.00996,12100,0.19917
2014-03-07,0.00996,0.00996,0.00996,0.00996,11000,0.19917
2014-03-10,0.00996,0.00996,0.00996,0.00996,0,0.19917
2014-03-11,0.00996,0.00996,0.00996,0.00996,0,0.19917
2014-03-12,0.00996,0.00996,0.00996,0.00996,0,0.19917
2014-03-13,0.00996,0.00996,0.00996,0.00996,0,0.19917
2014-03-14,0.00996,0.00996,0.00996,0.00996,0,0.19917
2014-03-17,0.00996,0.00996,0.00996,0.00996,0,0.19917
2014-03-18,0.00996,0.00996,0.00996,0.00996,0,0.19917
2014-03-19,0.01086,0.01086,0.01086,0.01086,2300,0.21727
2014-03-20,0.01086,0.01086,0.01086,0.01086,0,0.21727
2014-03-21,0.01086,0.01086,0.01086,0.01086,0,0.21727
2014-03-24,0.01086,0.01086,0.01086,0.01086,0,0.21727
2014-03-25,0.01086,0.01086,0.01086,0.01086,0,0.21727
2014-03-26,0.01267,0.013580000000000002,0.01267,0.013580000000000002,39200,0.27159
2014-03-27,0.013580000000000002,0.013580000000000002,0.013580000000000002,0.013580000000000002,0,0.27159
2014-03-28,0.013580000000000002,0.013580000000000002,0.013580000000000002,0.013580000000000002,33100,0.27159
2014-03-31,0.013580000000000002,0.013580000000000002,0.013580000000000002,0.013580000000000002,0,0.27159
2014-04-01,0.013580000000000002,0.013580000000000002,0.013580000000000002,0.013580000000000002,0,0.27159
2014-04-02,0.013580000000000002,0.013580000000000002,0.013580000000000002,0.013580000000000002,0,0.27159
2014-04-03,0.013580000000000002,0.013580000000000002,0.013580000000000002,0.013580000000000002,0,0.27159
2014-04-04,0.013580000000000002,0.013580000000000002,0.013580000000000002,0.013580000000000002,0,0.27159
2014-04-07,0.013580000000000002,0.013580000000000002,0.013580000000000002,0.013580000000000002,0,0.27159
2014-04-08,0.013580000000000002,0.013580000000000002,0.013580000000000002,0.013580000000000002,0,0.27159
2014-04-09,0.011770000000000001,0.011770000000000001,0.01086,0.011770000000000001,27300,0.23538
2014-04-10,0.011770000000000001,0.011770000000000001,0.011770000000000001,0.011770000000000001,0,0.23538
2014-04-11,0.011770000000000001,0.011770000000000001,0.011770000000000001,0.011770000000000001,0,0.23538
2014-04-14,0.011770000000000001,0.011770000000000001,0.011770000000000001,0.011770000000000001,0,0.23538
2014-04-15,0.011770000000000001,0.011770000000000001,0.01086,0.01086,20400,0.21727
2014-04-16,0.01086,0.01086,0.01086,0.01086,5500,0.21727
2014-04-17,0.01086,0.01086,0.01086,0.01086,0,0.21727
2014-04-18,0.01086,0.01086,0.01086,0.01086,0,0.21727
2014-04-21,0.01086,0.01086,0.01086,0.01086,0,0.21727
2014-04-22,0.01086,0.01086,0.01086,0.01086,0,0.21727
2014-04-23,0.01086,0.01086,0.01086,0.01086,0,0.21727
2014-04-24,0.011770000000000001,0.011770000000000001,0.01086,0.01086,6000,0.21727
2014-04-25,0.01086,0.01086,0.01086,0.01086,0,0.21727
2014-04-28,0.01086,0.01086,0.01086,0.01086,0,0.21727
2014-04-29,0.01086,0.01086,0.01086,0.01086,17100,0.21727
2014-04-30,0.01086,0.01086,0.01086,0.01086,0,0.21727
2014-05-01,0.01086,0.01086,0.01086,0.01086,0,0.21727
2014-05-02,0.01086,0.01086,0.01086,0.01086,0,0.21727
2014-05-05,0.01086,0.01086,0.01086,0.01086,0,0.21727
2014-05-06,0.01086,0.01086,0.01086,0.01086,0,0.21727
2014-05-07,0.01086,0.01086,0.01086,0.01086,500,0.21727
2014-05-08,0.01086,0.01086,0.01086,0.01086,0,0.21727
2014-05-09,0.01086,0.01086,0.01086,0.01086,400,0.21727
2014-05-12,0.01086,0.01086,0.01086,0.01086,0,0.21727
2014-05-13,0.01086,0.01086,0.01086,0.01086,0,0.21727
2014-05-14,0.01086,0.01086,0.01086,0.01086,0,0.21727
2014-05-15,0.01086,0.01086,0.01086,0.01086,0,0.21727
2014-05-16,0.011770000000000001,0.011770000000000001,0.01086,0.01086,19400,0.21727
2014-05-19,0.011770000000000001,0.011770000000000001,0.011770000000000001,0.011770000000000001,1300,0.23538
2014-05-20,0.011770000000000001,0.011770000000000001,0.011770000000000001,0.011770000000000001,0,0.23538
2014-05-21,0.011770000000000001,0.011770000000000001,0.011770000000000001,0.011770000000000001,0,0.23538
2014-05-22,0.011770000000000001,0.011770000000000001,0.011770000000000001,0.011770000000000001,0,0.23538
2014-05-23,0.011770000000000001,0.011770000000000001,0.011770000000000001,0.011770000000000001,0,0.23538
2014-05-26,0.01086,0.01086,0.01086,0.01086,6400,0.21727
2014-05-27,0.01086,0.01086,0.01086,0.01086,0,0.21727
2014-05-28,0.01086,0.01086,0.01086,0.01086,6600,0.21727
2014-05-29,0.01086,0.01086,0.01086,0.01086,0,0.21727
2014-05-30,0.01086,0.01086,0.01086,0.01086,0,0.21727
2014-06-02,0.01086,0.01086,0.01086,0.01086,19300,0.21727
2014-06-03,0.01267,0.01267,0.01267,0.01267,3400,0.25348000000000004
2014-06-04,0.01267,0.01267,0.01267,0.01267,0,0.25348000000000004
2014-06-05,0.01086,0.01086,0.01086,0.01086,3400,0.21727
2014-06-06,0.01086,0.01086,0.01086,0.01086,3200,0.21727
2014-06-09,0.01086,0.01086,0.01086,0.01086,0,0.21727
2014-06-10,0.01086,0.01086,0.01086,0.01086,0,0.21727
2014-06-11,0.01086,0.01086,0.01086,0.01086,0,0.21727
2014-06-12,0.01086,0.01086,0.00996,0.00996,4300,0.19917
2014-06-13,0.00996,0.00996,0.00996,0.00996,3300,0.19917
2014-06-16,0.00996,0.00996,0.00996,0.00996,0,0.19917
2014-06-17,0.00996,0.00996,0.00996,0.00996,0,0.19917
2014-06-18,0.00996,0.00996,0.00996,0.00996,5400,0.19917
2014-06-19,0.00996,0.00996,0.00996,0.00996,0,0.19917
2014-06-20,0.01086,0.011770000000000001,0.01086,0.011770000000000001,16500,0.23538
2014-06-23,0.011770000000000001,0.011770000000000001,0.011770000000000001,0.011770000000000001,33100,0.23538
2014-06-24,0.011770000000000001,0.011770000000000001,0.011770000000000001,0.011770000000000001,13500,0.23538
2014-06-25,0.01267,0.01267,0.01086,0.01086,39200,0.21727
2014-06-26,0.01086,0.01086,0.01086,0.01086,0,0.21727
2014-06-27,0.01267,0.013580000000000002,0.01267,0.013580000000000002,60700,0.27159
2014-06-30,0.013580000000000002,0.013580000000000002,0.013580000000000002,0.013580000000000002,0,0.27159
2014-07-01,0.01267,0.01267,0.01267,0.01267,11000,0.25348000000000004
2014-07-02,0.013580000000000002,0.013580000000000002,0.013580000000000002,0.013580000000000002,11000,0.27159
2014-07-03,0.013580000000000002,0.013580000000000002,0.013580000000000002,0.013580000000000002,0,0.27159
2014-07-04,0.014490000000000001,0.014490000000000001,0.014490000000000001,0.014490000000000001,6900,0.2897
2014-07-07,0.013580000000000002,0.013580000000000002,0.013580000000000002,0.013580000000000002,9600,0.27159
2014-07-08,0.014490000000000001,0.014490000000000001,0.014490000000000001,0.014490000000000001,11000,0.2897
2014-07-09,0.014490000000000001,0.014490000000000001,0.014490000000000001,0.014490000000000001,5500,0.2897
2014-07-10,0.014490000000000001,0.014490000000000001,0.014490000000000001,0.014490000000000001,1300,0.2897
2014-07-11,0.01086,0.01086,0.01086,0.01086,2200,0.21727
2014-07-14,0.01086,0.01086,0.01086,0.01086,0,0.21727
2014-07-15,0.01086,0.01086,0.01086,0.01086,0,0.21727
2014-07-16,0.01086,0.01086,0.01086,0.01086,0,0.21727
2014-07-17,0.01086,0.01086,0.01086,0.01086,0,0.21727
2014-07-18,0.01086,0.01086,0.01086,0.01086,0,0.21727
2014-07-21,0.01086,0.01086,0.01086,0.01086,0,0.21727
2014-07-22,0.013580000000000002,0.013580000000000002,0.013580000000000002,0.013580000000000002,18200,0.27159
2014-07-23,0.013580000000000002,0.013580000000000002,0.013580000000000002,0.013580000000000002,0,0.27159
2014-07-24,0.0163,0.021730000000000003,0.0163,0.01811,104200,0.36212
2014-07-25,0.0163,0.0163,0.013580000000000002,0.014490000000000001,29500,0.2897
2014-07-28,0.014490000000000001,0.014490000000000001,0.014490000000000001,0.014490000000000001,9100,0.2897
2014-07-29,0.015390000000000001,0.0163,0.014490000000000001,0.014490000000000001,55300,0.2897
2014-07-30,0.014490000000000001,0.014490000000000001,0.014490000000000001,0.014490000000000001,0,0.2897
2014-07-31,0.015390000000000001,0.015390000000000001,0.015390000000000001,0.015390000000000001,1600,0.3078
2014-08-01,0.014490000000000001,0.0172,0.014490000000000001,0.0172,85600,0.34401
2014-08-04,0.015390000000000001,0.0172,0.015390000000000001,0.0172,15200,0.34401
2014-08-05,0.016,0.016,0.016,0.016,5500,0.32
2014-08-06,0.018000000000000002,0.018000000000000002,0.018000000000000002,0.018000000000000002,6600,0.36
2014-08-07,0.018000000000000002,0.018000000000000002,0.018000000000000002,0.018000000000000002,0,0.36
2014-08-08,0.013999999999999999,0.013999999999999999,0.013999999999999999,0.013999999999999999,5000,0.28
2014-08-11,0.013000000000000001,0.013000000000000001,0.013000000000000001,0.013000000000000001,104400,0.26
2014-08-12,0.013999999999999999,0.015,0.013999999999999999,0.015,21800,0.3
2014-08-13,0.015,0.015,0.015,0.015,5800,0.3
2014-08-14,0.016,0.018000000000000002,0.016,0.017,40800,0.34
2014-08-15,0.017,0.017,0.016,0.016,30700,0.32
2014-08-18,0.017,0.018000000000000002,0.017,0.017,51100,0.34
2014-08-19,0.017,0.019,0.017,0.019,43700,0.38
2014-08-20,0.017,0.019,0.017,0.018000000000000002,23300,0.36
2014-08-21,0.017,0.018000000000000002,0.017,0.017,71700,0.34
2014-08-22,0.017,0.018000000000000002,0.017,0.018000000000000002,167500,0.36
2014-08-25,0.018000000000000002,0.019,0.017,0.019,37800,0.38
2014-08-26,0.018000000000000002,0.019,0.018000000000000002,0.018000000000000002,37400,0.36
2014-08-27,0.018000000000000002,0.019,0.018000000000000002,0.019,20000,0.38
2014-08-28,0.018000000000000002,0.018000000000000002,0.018000000000000002,0.018000000000000002,7400,0.36
2014-08-29,0.017,0.019,0.017,0.019,2100,0.38
2014-09-01,0.017,0.017,0.017,0.017,10000,0.34
2014-09-02,0.017,0.018000000000000002,0.017,0.018000000000000002,15500,0.36
2014-09-03,0.017,0.017,0.017,0.017,25000,0.34
2014-09-04,0.017,0.018000000000000002,0.017,0.018000000000000002,58000,0.36
2014-09-05,0.017,0.017,0.017,0.017,25000,0.34
2014-09-08,0.017,0.017,0.017,0.017,0,0.34
2014-09-09,0.017,0.017,0.017,0.017,6500,0.34
2014-09-10,0.018000000000000002,0.018000000000000002,0.018000000000000002,0.018000000000000002,50000,0.36
2014-09-11,0.016,0.016,0.016,0.016,7500,0.32
2014-09-12,0.016,0.016,0.015,0.015,112700,0.3
2014-09-15,0.015,0.017,0.015,0.017,23000,0.34
2014-09-16,0.017,0.017,0.017,0.017,20000,0.34
2014-09-17,0.016,0.016,0.016,0.016,18700,0.32
2014-09-18,0.016,0.016,0.016,0.016,10000,0.32
2014-09-19,0.016,0.016,0.015,0.015,15000,0.3
2014-09-22,0.015,0.015,0.015,0.015,0,0.3
2014-09-23,0.015,0.015,0.013999999999999999,0.013999999999999999,97500,0.28
2014-09-24,0.013999999999999999,0.013999999999999999,0.013000000000000001,0.013000000000000001,20300,0.26
2014-09-25,0.013999999999999999,0.013999999999999999,0.013999999999999999,0.013999999999999999,8200,0.28
2014-09-26,0.013999999999999999,0.013999999999999999,0.013999999999999999,0.013999999999999999,5700,0.28
2014-09-29,0.013999999999999999,0.013999999999999999,0.013999999999999999,0.013999999999999999,0,0.28
2014-09-30,0.013999999999999999,0.013999999999999999,0.013999999999999999,0.013999999999999999,0,0.28
2014-10-01,0.013999999999999999,0.013999999999999999,0.013999999999999999,0.013999999999999999,0,0.28
2014-10-02,0.012,0.012,0.012,0.012,25000,0.24
2014-10-03,0.012,0.012,0.012,0.012,0,0.24
2014-10-06,0.012,0.012,0.012,0.012,0,0.24
2014-10-07,0.012,0.012,0.012,0.012,0,0.24
2014-10-08,0.012,0.012,0.012,0.012,0,0.24
2014-10-09,0.012,0.012,0.012,0.012,0,0.24
2014-10-10,0.011000000000000001,0.011000000000000001,0.009000000000000001,0.01,40300,0.2
2014-10-13,0.01,0.01,0.01,0.01,0,0.2
2014-10-14,0.01,0.01,0.01,0.01,0,0.2
2014-10-15,0.01,0.01,0.01,0.01,0,0.2
2014-10-16,0.01,0.01,0.01,0.01,0,0.2
2014-10-17,0.01,0.01,0.01,0.01,0,0.2
2014-10-20,0.01,0.01,0.01,0.01,355000,0.2
2014-10-21,0.012,0.012,0.012,0.012,16900,0.24
2014-10-22,0.012,0.012,0.012,0.012,0,0.24
2014-10-23,0.015,0.015,0.013000000000000001,0.013999999999999999,47300,0.28
2014-10-24,0.013999999999999999,0.013999999999999999,0.013999999999999999,0.013999999999999999,0,0.28
2014-10-27,0.013999999999999999,0.013999999999999999,0.012,0.012,12400,0.24
2014-10-28,0.012,0.012,0.012,0.012,11200,0.24
2014-10-29,0.012,0.012,0.012,0.012,0,0.24
2014-10-30,0.012,0.012,0.012,0.012,0,0.24
2014-10-31,0.01,0.013000000000000001,0.01,0.011000000000000001,48200,0.22
2014-11-03,0.01,0.012,0.01,0.011000000000000001,42800,0.22
2014-11-04,0.011000000000000001,0.011000000000000001,0.011000000000000001,0.011000000000000001,0,0.22
2014-11-05,0.011000000000000001,0.011000000000000001,0.011000000000000001,0.011000000000000001,0,0.22
2014-11-06,0.01,0.011000000000000001,0.009000000000000001,0.011000000000000001,42200,0.22
2014-11-07,0.011000000000000001,0.012,0.01,0.012,109200,0.24
2014-11-10,0.012,0.013000000000000001,0.012,0.012,574500,0.24
2014-11-11,0.012,0.012,0.012,0.012,54900,0.24
2014-11-12,0.012,0.012,0.011000000000000001,0.011000000000000001,31500,0.22
2014-11-13,0.01,0.01,0.01,0.01,52100,0.2
2014-11-14,0.01,0.01,0.01,0.01,0,0.2
2014-11-17,0.01,0.012,0.01,0.012,261900,0.24
2014-11-18,0.011000000000000001,0.012,0.011000000000000001,0.012,42500,0.24
2014-11-19,0.012,0.012,0.012,0.012,0,0.24
2014-11-20,0.012,0.012,0.012,0.012,600,0.24
2014-11-21,0.011000000000000001,0.012,0.011000000000000001,0.012,37500,0.24
2014-11-24,0.012,0.012,0.012,0.012,135800,0.24
2014-11-25,0.012,0.012,0.012,0.012,31100,0.24
2014-11-26,0.011000000000000001,0.011000000000000001,0.011000000000000001,0.011000000000000001,50300,0.22
2014-11-27,0.012,0.012,0.011000000000000001,0.011000000000000001,18500,0.22
2014-11-28,0.012,0.012,0.011000000000000001,0.012,12500,0.24
2014-12-01,0.011000000000000001,0.011000000000000001,0.011000000000000001,0.011000000000000001,8500,0.22
2014-12-02,0.011000000000000001,0.011000000000000001,0.011000000000000001,0.011000000000000001,0,0.22
2014-12-03,0.011000000000000001,0.012,0.011000000000000001,0.012,173600,0.24
2014-12-04,0.012,0.012,0.012,0.012,0,0.24
2014-12-05,0.01,0.012,0.01,0.012,14800,0.24
2014-12-08,0.012,0.012,0.012,0.012,0,0.24
2014-12-09,0.01,0.011000000000000001,0.01,0.011000000000000001,10000,0.22
2014-12-10,0.011000000000000001,0.011000000000000001,0.011000000000000001,0.011000000000000001,0,0.22
2014-12-11,0.011000000000000001,0.011000000000000001,0.011000000000000001,0.011000000000000001,0,0.22
2014-12-12,0.011000000000000001,0.011000000000000001,0.01,0.011000000000000001,28100,0.22
2014-12-15,0.011000000000000001,0.011000000000000001,0.011000000000000001,0.011000000000000001,0,0.22
2014-12-16,0.011000000000000001,0.011000000000000001,0.011000000000000001,0.011000000000000001,0,0.22
2014-12-17,0.22,0.22,0.22,0.22,0,0.22
2014-12-18,0.22,0.22,0.22,0.22,0,0.22
2014-12-19,0.22,0.22,0.22,0.22,0,0.22
2014-12-22,0.22,0.22,0.22,0.22,0,0.22
2014-12-23,0.22,0.22,0.22,0.22,0,0.22
2014-12-24,0.22,0.22,0.22,0.22,0,0.22
2014-12-25,0.22,0.22,0.22,0.22,0,0.22
2014-12-26,0.22,0.22,0.22,0.22,0,0.22
2014-12-29,0.22,0.22,0.22,0.22,0,0.22
2014-12-30,0.22,0.22,0.22,0.22,0,0.22
2014-12-31,0.22,0.22,0.22,0.22,0,0.22
2015-01-01,0.22,0.22,0.22,0.22,0,0.22
2015-01-02,0.22,0.22,0.22,0.22,0,0.22
2015-01-05,0.22,0.22,0.22,0.22,0,0.22
2015-01-06,0.22,0.22,0.22,0.22,0,0.22
2015-01-07,0.22,0.22,0.22,0.22,0,0.22
2015-01-08,0.22,0.22,0.22,0.22,0,0.22
2015-01-09,0.22,0.22,0.22,0.22,0,0.22
2015-01-12,0.22,0.22,0.22,0.22,0,0.22
2015-01-13,0.22,0.22,0.22,0.22,0,0.22
2015-01-14,0.22,0.22,0.22,0.22,0,0.22
2015-01-15,0.22,0.22,0.22,0.22,0,0.22
2015-01-16,0.22,0.22,0.22,0.22,0,0.22
2015-01-19,0.22,0.22,0.22,0.22,0,0.22
2015-01-20,0.22,0.22,0.22,0.22,0,0.22
2015-01-21,0.22,0.22,0.22,0.22,0,0.22
2015-01-22,0.22,0.22,0.22,0.22,0,0.22
2015-01-23,0.22,0.22,0.22,0.22,0,0.22
2015-01-26,0.22,0.22,0.22,0.22,0,0.22
2015-01-27,0.22,0.22,0.22,0.22,0,0.22
2015-01-28,0.22,0.22,0.22,0.22,0,0.22
2015-01-29,0.22,0.22,0.22,0.22,0,0.22
2015-01-30,0.22,0.22,0.22,0.22,0,0.22
2015-02-02,0.22,0.22,0.22,0.22,0,0.22
2015-02-03,0.22,0.22,0.22,0.22,0,0.22
2015-02-04,0.22,0.22,0.22,0.22,0,0.22
2015-02-05,0.22,0.22,0.22,0.22,0,0.22
2015-02-06,0.22,0.22,0.22,0.22,0,0.22
2015-02-09,0.22,0.22,0.22,0.22,0,0.22
2015-02-10,0.22,0.22,0.22,0.22,0,0.22
2015-02-11,0.22,0.22,0.22,0.22,0,0.22
2015-02-12,0.22,0.22,0.22,0.22,0,0.22
2015-02-13,0.22,0.22,0.22,0.22,0,0.22
2015-02-16,0.22,0.22,0.22,0.22,0,0.22
2015-02-17,0.22,0.22,0.22,0.22,0,0.22
2015-02-18,0.22,0.22,0.22,0.22,0,0.22
2015-02-19,0.22,0.22,0.22,0.22,0,0.22
2015-02-20,0.22,0.22,0.22,0.22,0,0.22
2015-02-23,0.22,0.22,0.22,0.22,0,0.22
2015-02-24,0.2,0.2,0.18,0.19,942900,0.19
2015-02-25,0.215,0.235,0.2,0.235,185000,0.235
2015-02-26,0.235,0.24,0.23,0.24,255000,0.24
2015-02-27,0.24,0.24,0.24,0.24,0,0.24
2015-03-02,0.24,0.24,0.24,0.24,0,0.24
2015-03-03,0.195,0.195,0.195,0.195,8000,0.195
2015-03-04,0.21,0.23,0.21,0.21,46300,0.21
2015-03-05,0.21,0.21,0.21,0.21,0,0.21
2015-03-06,0.21,0.21,0.21,0.21,0,0.21
2015-03-09,0.22,0.235,0.22,0.22,106700,0.22
2015-03-10,0.21,0.21,0.21,0.21,78100,0.21
2015-03-11,0.21,0.21,0.18,0.2,139200,0.2
2015-03-12,0.2,0.2,0.2,0.2,62200,0.2
2015-03-13,0.195,0.195,0.19,0.195,32100,0.195
2015-03-16,0.195,0.195,0.195,0.195,0,0.195
2015-03-17,0.195,0.195,0.19,0.19,15500,0.19
2015-03-18,0.19,0.19,0.19,0.19,0,0.19
2015-03-19,0.19,0.19,0.19,0.19,0,0.19
2015-03-20,0.19,0.19,0.19,0.19,0,0.19
2015-03-23,0.19,0.19,0.19,0.19,0,0.19
2015-03-24,0.155,0.155,0.155,0.155,4500,0.155
2015-03-25,0.155,0.155,0.155,0.155,0,0.155
2015-03-26,0.155,0.155,0.155,0.155,0,0.155
2015-03-27,0.19,0.2,0.18,0.2,249800,0.2
2015-03-30,0.2,0.2,0.2,0.2,47500,0.2
2015-03-31,0.2,0.2,0.2,0.2,0,0.2
2015-04-01,0.19,0.19,0.18,0.18,85000,0.18
2015-04-02,0.19,0.2,0.19,0.2,41800,0.2
2015-04-03,0.2,0.2,0.2,0.2,0,0.2
2015-04-06,0.2,0.2,0.2,0.2,0,0.2
2015-04-07,0.2,0.2,0.18,0.18,61500,0.18
2015-04-08,0.2,0.2,0.19,0.19,246300,0.19
2015-04-09,0.185,0.185,0.185,0.185,53700,0.185
2015-04-10,0.185,0.185,0.185,0.185,0,0.185
2015-04-13,0.185,0.185,0.185,0.185,21700,0.185
2015-04-14,0.185,0.185,0.185,0.185,0,0.185
2015-04-15,0.18,0.18,0.165,0.165,146100,0.165
2015-04-16,0.165,0.165,0.165,0.165,0,0.165
2015-04-17,0.165,0.165,0.165,0.165,0,0.165
2015-04-20,0.165,0.165,0.165,0.165,0,0.165
2015-04-21,0.165,0.165,0.165,0.165,0,0.165
2015-04-22,0.165,0.165,0.165,0.165,75000,0.165
2015-04-23,0.165,0.165,0.165,0.165,0,0.165
2015-04-24,0.165,0.185,0.165,0.185,11000,0.185
2015-04-27,0.185,0.185,0.185,0.185,35000,0.185
2015-04-28,0.185,0.185,0.17,0.17,66900,0.17
2015-04-29,0.185,0.19,0.185,0.19,58000,0.19
2015-04-30,0.185,0.185,0.185,0.185,2300,0.185
2015-05-01,0.185,0.185,0.17,0.17,28700,0.17
2015-05-04,0.185,0.2,0.185,0.195,322100,0.195
2015-05-05,0.19,0.19,0.185,0.185,77900,0.185
2015-05-06,0.18,0.18,0.175,0.18,30700,0.18
2015-05-07,0.17,0.175,0.17,0.175,64600,0.175
2015-05-08,0.17,0.17,0.165,0.165,97100,0.165
2015-05-11,0.165,0.165,0.165,0.165,34400,0.165
2015-05-12,0.16,0.16,0.16,0.16,15500,0.16
2015-05-13,0.15,0.15,0.15,0.15,27200,0.15
2015-05-14,0.16,0.16,0.15,0.15,173500,0.15
2015-05-15,0.155,0.155,0.155,0.155,48000,0.155
2015-05-18,0.155,0.16,0.155,0.16,105700,0.16
2015-05-19,0.16,0.17,0.155,0.165,202000,0.165
2015-05-20,0.165,0.17,0.165,0.165,69600,0.165
2015-05-21,0.16,0.175,0.16,0.17,392800,0.17
2015-05-22,0.17,0.17,0.17,0.17,500300,0.17
2015-05-25,0.17,0.17,0.17,0.17,0,0.17
2015-05-26,0.17,0.17,0.17,0.17,0,0.17
2015-05-27,0.165,0.17,0.165,0.17,50000,0.17
2015-05-28,0.17,0.17,0.17,0.17,0,0.17
2015-05-29,0.17,0.17,0.17,0.17,0,0.17
2015-06-01,0.17,0.17,0.17,0.17,16600,0.17
2015-06-02,0.15,0.15,0.13,0.15,11500,0.15
2015-06-03,0.14,0.14,0.14,0.14,3300,0.14
2015-06-04,0.14,0.14,0.14,0.14,0,0.14
2015-06-05,0.13,0.14,0.13,0.14,23900,0.14
2015-06-08,0.14,0.14,0.14,0.14,0,0.14
2015-06-09,0.14,0.14,0.14,0.14,0,0.14
2015-06-10,0.14,0.14,0.14,0.14,0,0.14
2015-06-11,0.14,0.14,0.14,0.14,0,0.14
2015-06-12,0.14,0.14,0.14,0.14,0,0.14
2015-06-15,0.15,0.18,0.15,0.17,94100,0.17
2015-06-16,0.17,0.17,0.17,0.17,7800,0.17
2015-06-17,0.17,0.17,0.17,0.17,0,0.17
2015-06-18,0.16,0.16,0.16,0.16,5000,0.16
2015-06-19,0.135,0.17,0.135,0.17,10500,0.17
2015-06-22,0.17,0.17,0.17,0.17,0,0.17
2015-06-23,0.17,0.17,0.17,0.17,0,0.17
2015-06-24,0.155,0.155,0.155,0.155,2800,0.155
2015-06-25,0.155,0.17,0.155,0.155,11000,0.155
2015-06-26,0.16,0.16,0.15,0.15,91200,0.15
2015-06-29,0.145,0.145,0.145,0.145,4800,0.145
2015-06-30,0.145,0.145,0.145,0.145,12500,0.145
2015-07-01,0.16,0.16,0.16,0.16,2900,0.16
2015-07-02,0.16,0.17,0.15,0.17,91000,0.17
2015-07-03,0.17,0.17,0.17,0.17,0,0.17
2015-07-06,0.17,0.17,0.17,0.17,0,0.17
2015-07-07,0.17,0.17,0.17,0.17,0,0.17
2015-07-08,0.17,0.17,0.17,0.17,0,0.17
2015-07-09,0.17,0.17,0.17,0.17,0,0.17
2015-07-10,0.17,0.17,0.17,0.17,0,0.17
2015-07-13,0.17,0.17,0.17,0.17,0,0.17
2015-07-14,0.17,0.17,0.17,0.17,0,0.17
2015-07-15,0.17,0.17,0.17,0.17,0,0.17
2015-07-16,0.17,0.17,0.17,0.17,0,0.17
2015-07-17,0.145,0.145,0.145,0.145,7500,0.145
2015-07-20,0.15,0.15,0.15,0.15,20000,0.15
2015-07-21,0.15,0.15,0.15,0.15,0,0.15
2015-07-22,0.15,0.15,0.15,0.15,0,0.15
2015-07-23,0.145,0.145,0.14,0.14,96400,0.14
2015-07-24,0.14,0.14,0.14,0.14,13300,0.14
2015-07-27,0.15,0.15,0.15,0.15,6600,0.15
2015-07-28,0.15,0.15,0.15,0.15,0,0.15
2015-07-29,0.15,0.15,0.15,0.15,0,0.15
2015-07-30,0.15,0.15,0.15,0.15,0,0.15
2015-07-31,0.15,0.15,0.15,0.15,0,0.15
2015-08-03,0.145,0.15,0.145,0.15,7300,0.15
2015-08-04,0.15,0.15,0.15,0.15,0,0.15
2015-08-05,0.15,0.15,0.15,0.15,0,0.15
2015-08-06,0.125,0.14,0.115,0.14,139900,0.14
2015-08-07,0.14,0.14,0.14,0.14,0,0.14
2015-08-10,0.11,0.12,0.11,0.11,44900,0.11
2015-08-11,0.105,0.13,0.105,0.13,12600,0.13
2015-08-12,0.13,0.13,0.13,0.13,45000,0.13
2015-08-13,0.13,0.13,0.13,0.13,0,0.13
2015-08-14,0.13,0.13,0.13,0.13,0,0.13
2015-08-17,0.13,0.13,0.125,0.125,73400,0.125
2015-08-18,0.125,0.125,0.125,0.125,0,0.125
2015-08-19,0.105,0.13,0.1,0.13,56300,0.13
2015-08-20,0.13,0.13,0.13,0.13,0,0.13
2015-08-24,0.13,0.13,0.13,0.13,0,0.13
2015-08-25,0.135,0.135,0.135,0.135,5500,0.135
2015-08-26,0.135,0.135,0.135,0.135,0,0.135
2015-08-27,0.135,0.135,0.135,0.135,0,0.135
2015-08-28,0.125,0.135,0.125,0.135,35000,0.135
2015-08-31,0.13,0.135,0.11,0.135,45000,0.135
2015-09-01,0.135,0.135,0.135,0.135,0,0.135
2015-09-02,0.135,0.135,0.135,0.135,14800,0.135
2015-09-03,0.135,0.135,0.135,0.135,10900,0.135
2015-09-04,0.135,0.135,0.135,0.135,0,0.135
2015-09-07,0.135,0.135,0.135,0.135,0,0.135
2015-09-08,0.135,0.135,0.135,0.135,0,0.135
2015-09-09,0.11,0.11,0.11,0.11,28400,0.11
2015-09-10,0.12,0.12,0.12,0.12,6500,0.12
2015-09-11,0.12,0.12,0.12,0.12,23100,0.12
2015-09-14,0.12,0.12,0.12,0.12,0,0.12
2015-09-15,0.12,0.125,0.12,0.125,87700,0.125
2015-09-16,0.125,0.13,0.125,0.13,12600,0.13
2015-09-17,0.13,0.13,0.13,0.13,0,0.13
2015-09-18,0.13,0.13,0.13,0.13,0,0.13
2015-09-21,0.13,0.13,0.13,0.13,30300,0.13
2015-09-22,0.13,0.13,0.13,0.13,54600,0.13
2015-09-23,0.13,0.135,0.13,0.135,65300,0.135
2015-09-24,0.135,0.135,0.135,0.135,22500,0.135
2015-09-25,0.135,0.135,0.135,0.135,0,0.135
2015-09-28,0.13,0.135,0.13,0.135,155000,0.135
2015-09-29,0.135,0.135,0.13,0.135,274700,0.135
2015-09-30,0.135,0.14,0.135,0.14,46500,0.14
2015-10-01,0.135,0.145,0.135,0.145,186800,0.145
2015-10-02,0.135,0.15,0.135,0.135,57900,0.135
2015-10-05,0.135,0.145,0.135,0.135,156000,0.135
2015-10-06,0.135,0.135,0.135,0.135,0,0.135
2015-10-07,0.13,0.13,0.13,0.13,3000,0.13
2015-10-08,0.13,0.135,0.12,0.135,63900,0.135
2015-10-09,0.135,0.135,0.135,0.135,4600,0.135
2015-10-12,0.12,0.135,0.12,0.135,47100,0.135
2015-10-13,0.135,0.15,0.13,0.145,142200,0.145
2015-10-14,0.145,0.145,0.145,0.145,0,0.145
2015-10-15,0.15,0.155,0.145,0.15,130800,0.15
2015-10-16,0.15,0.15,0.15,0.15,0,0.15
2015-10-19,0.15,0.15,0.15,0.15,7000,0.15
2015-10-20,0.135,0.135,0.135,0.135,3800,0.135
2015-10-21,0.14,0.14,0.14,0.14,2000,0.14
2015-10-22,0.14,0.14,0.14,0.14,0,0.14
2015-10-23,0.135,0.135,0.13,0.13,36600,0.13
2015-10-26,0.13,0.13,0.13,0.13,0,0.13
2015-10-27,0.13,0.13,0.13,0.13,0,0.13
2015-10-28,0.13,0.13,0.13,0.13,0,0.13
2015-10-29,0.13,0.13,0.13,0.13,7500,0.13
2015-10-30,0.13,0.13,0.13,0.13,0,0.13
2015-11-02,0.13,0.13,0.13,0.13,0,0.13
2015-11-03,0.13,0.13,0.13,0.13,0,0.13
2015-11-04,0.13,0.13,0.13,0.13,0,0.13
2015-11-05,0.13,0.13,0.125,0.125,80000,0.125
2015-11-06,0.13,0.13,0.13,0.13,5000,0.13
2015-11-09,0.13,0.13,0.13,0.13,0,0.13
2015-11-10,0.13,0.13,0.13,0.13,0,0.13
2015-11-11,0.13,0.13,0.13,0.13,0,0.13
2015-11-12,0.13,0.13,0.13,0.13,0,0.13
2015-11-13,0.13,0.13,0.13,0.13,0,0.13
2015-11-16,0.13,0.13,0.13,0.13,0,0.13
2015-11-17,0.13,0.13,0.13,0.13,0,0.13
2015-11-18,0.13,0.13,0.13,0.13,0,0.13
2015-11-19,0.13,0.13,0.13,0.13,0,0.13
2015-11-20,0.13,0.13,0.13,0.13,0,0.13
2015-11-23,0.13,0.13,0.13,0.13,0,0.13
2015-11-24,0.13,0.13,0.13,0.13,0,0.13
2015-11-25,0.13,0.13,0.13,0.13,0,0.13
2015-11-26,0.13,0.13,0.13,0.13,0,0.13
2015-11-27,0.13,0.13,0.13,0.13,0,0.13
2015-11-30,0.13,0.13,0.13,0.13,0,0.13
2015-12-01,0.13,0.13,0.13,0.13,0,0.13
2015-12-02,0.13,0.13,0.13,0.13,0,0.13
2015-12-03,0.12,0.12,0.12,0.12,12000,0.12
2015-12-04,0.12,0.12,0.12,0.12,0,0.12
2015-12-07,0.12,0.12,0.12,0.12,0,0.12
2015-12-08,0.12,0.12,0.12,0.12,0,0.12
2015-12-09,0.12,0.12,0.12,0.12,0,0.12
2015-12-10,0.12,0.12,0.12,0.12,0,0.12
2015-12-11,0.12,0.12,0.12,0.12,0,0.12
2015-12-14,0.12,0.12,0.12,0.12,0,0.12
2015-12-15,0.12,0.12,0.12,0.12,0,0.12
2015-12-16,0.12,0.12,0.12,0.12,25000,0.12
2015-12-17,0.12,0.12,0.12,0.12,0,0.12
2015-12-18,0.12,0.12,0.12,0.12,0,0.12
2015-12-21,0.115,0.115,0.115,0.115,50000,0.115
2015-12-22,0.115,0.115,0.115,0.115,0,0.115
2015-12-23,0.11,0.115,0.11,0.115,10000,0.115
2015-12-24,0.115,0.115,0.115,0.115,0,0.115
2015-12-25,0.115,0.115,0.115,0.115,0,0.115
2015-12-28,0.115,0.115,0.115,0.115,0,0.115
2015-12-29,0.115,0.115,0.115,0.115,0,0.115
2015-12-30,0.115,0.115,0.115,0.115,0,0.115
2015-12-31,0.115,0.115,0.115,0.115,0,0.115
2016-01-01,0.115,0.115,0.115,0.115,0,0.115
2016-01-04,0.115,0.115,0.115,0.115,0,0.115
2016-01-05,0.115,0.115,0.115,0.115,0,0.115
2016-01-06,0.115,0.115,0.115,0.115,0,0.115
2016-01-07,0.115,0.115,0.115,0.115,0,0.115
2016-01-08,0.115,0.115,0.115,0.115,0,0.115
2016-01-11,0.115,0.115,0.115,0.115,0,0.115
2016-01-12,0.105,0.105,0.105,0.105,17500,0.105
2016-01-13,0.105,0.105,0.105,0.105,0,0.105
2016-01-14,0.105,0.105,0.105,0.105,0,0.105
2016-01-15,0.105,0.105,0.105,0.105,0,0.105
2016-01-18,0.1,0.115,0.1,0.115,10500,0.115
2016-01-19,0.1,0.1,0.095,0.095,7800,0.095
2016-01-20,0.095,0.095,0.095,0.095,0,0.095
2016-01-21,0.099,0.099,0.099,0.099,20000,0.099
2016-01-22,0.099,0.099,0.099,0.099,0,0.099
2016-01-25,0.099,0.099,0.099,0.099,0,0.099
2016-01-26,0.099,0.099,0.099,0.099,0,0.099
2016-01-27,0.099,0.099,0.099,0.099,0,0.099
2016-01-28,0.099,0.099,0.099,0.099,0,0.099
2016-01-29,0.099,0.099,0.099,0.099,0,0.099
2016-02-01,0.099,0.099,0.099,0.099,0,0.099
2016-02-02,0.099,0.099,0.099,0.099,0,0.099
2016-02-03,0.1,0.105,0.1,0.105,20000,0.105
2016-02-04,0.105,0.105,0.105,0.105,0,0.105
2016-02-05,0.099,0.105,0.099,0.105,55000,0.105
2016-02-08,0.105,0.105,0.105,0.105,0,0.105
2016-02-09,0.09,0.09,0.09,0.09,19500,0.09
2016-02-10,0.09,0.09,0.09,0.09,0,0.09
2016-02-11,0.09,0.09,0.09,0.09,0,0.09
2016-02-12,0.09,0.09,0.09,0.09,0,0.09
2016-02-15,0.09,0.09,0.09,0.09,0,0.09
2016-02-16,0.09,0.09,0.09,0.09,0,0.09
2016-02-17,0.09,0.09,0.09,0.09,0,0.09
2016-02-18,0.09,0.09,0.09,0.09,0,0.09
2016-02-19,0.09,0.09,0.09,0.09,0,0.09
2016-02-22,0.073,0.075,0.073,0.073,190000,0.073
2016-02-23,0.07200000000000001,0.07200000000000001,0.07200000000000001,0.07200000000000001,35000,0.07200000000000001
2016-02-24,0.071,0.071,0.071,0.071,40000,0.071
2016-02-25,0.071,0.071,0.071,0.071,0,0.071
2016-02-26,0.071,0.071,0.071,0.071,0,0.071
2016-02-29,0.071,0.071,0.071,0.071,0,0.071
2016-03-01,0.065,0.065,0.065,0.065,20000,0.065
2016-03-02,0.06,0.06,0.051,0.051,22000,0.051
2016-03-03,0.051,0.051,0.051,0.051,0,0.051
2016-03-04,0.051,0.051,0.051,0.051,0,0.051
2016-03-07,0.05,0.05,0.05,0.05,3900,0.05
2016-03-08,0.05,0.05,0.05,0.05,0,0.05
2016-03-09,0.05,0.05,0.05,0.05,0,0.05
2016-03-10,0.05,0.05,0.05,0.05,0,0.05
2016-03-11,0.05,0.05,0.05,0.05,14500,0.05
2016-03-14,0.05,0.05,0.05,0.05,0,0.05
2016-03-15,0.05,0.05,0.05,0.05,0,0.05
2016-03-16,0.055,0.055,0.055,0.055,2600,0.055
2016-03-17,0.055,0.055,0.055,0.055,23700,0.055
2016-03-18,0.05,0.05,0.045,0.05,50800,0.05
2016-03-21,0.05,0.05,0.05,0.05,0,0.05
2016-03-22,0.05,0.05,0.05,0.05,0,0.05
2016-03-23,0.05,0.05,0.05,0.05,0,0.05
2016-03-24,0.05,0.05,0.05,0.05,0,0.05
2016-03-25,0.05,0.05,0.05,0.05,0,0.05
2016-03-28,0.05,0.05,0.05,0.05,0,0.05
2016-03-29,0.05,0.05,0.05,0.05,0,0.05
2016-03-30,0.05,0.05,0.05,0.05,0,0.05
2016-03-31,0.05,0.05,0.05,0.05,0,0.05
2016-04-01,0.05,0.05,0.05,0.05,0,0.05
2016-04-04,0.05,0.05,0.05,0.05,0,0.05
2016-04-05,0.05,0.05,0.05,0.05,0,0.05
2016-04-06,0.05,0.05,0.05,0.05,0,0.05
2016-04-07,0.05,0.05,0.05,0.05,0,0.05
2016-04-08,0.06,0.06,0.06,0.06,12000,0.06
2016-04-11,0.06,0.06,0.06,0.06,0,0.06
2016-04-12,0.06,0.06,0.06,0.06,0,0.06
2016-04-13,0.06,0.06,0.06,0.06,0,0.06
2016-04-14,0.06,0.06,0.06,0.06,0,0.06
2016-04-15,0.06,0.06,0.06,0.06,0,0.06
2016-04-18,0.06,0.06,0.06,0.06,0,0.06
2016-04-19,0.06,0.06,0.06,0.06,0,0.06
2016-04-20,0.06,0.06,0.06,0.06,0,0.06
2016-04-21,0.06,0.06,0.06,0.06,0,0.06
2016-04-22,0.06,0.06,0.06,0.06,0,0.06
2016-04-25,0.06,0.06,0.06,0.06,0,0.06
2016-04-26,0.06,0.06,0.06,0.06,0,0.06
2016-04-27,0.065,0.065,0.06,0.06,40000,0.06
2016-04-28,0.06,0.06,0.06,0.06,0,0.06
2016-04-29,0.06,0.06,0.06,0.06,0,0.06
2016-05-02,0.06,0.06,0.06,0.06,0,0.06
2016-05-03,0.06,0.06,0.06,0.06,0,0.06
2016-05-04,0.06,0.06,0.06,0.06,0,0.06
2016-05-05,0.06,0.06,0.06,0.06,16000,0.06
2016-05-06,0.06,0.06,0.06,0.06,0,0.06
2016-05-09,0.049,0.049,0.047,0.047,140500,0.047
2016-05-10,0.047,0.049,0.044000000000000004,0.049,14000,0.049
2016-05-11,0.049,0.049,0.049,0.049,0,0.049
2016-05-12,0.05,0.05,0.049,0.049,10000,0.049
2016-05-13,0.049,0.049,0.049,0.049,0,0.049
2016-05-16,0.049,0.049,0.049,0.049,0,0.049
2016-05-17,0.039,0.04,0.039,0.04,29000,0.04
2016-05-18,0.04,0.04,0.04,0.04,0,0.04
2016-05-19,0.04,0.04,0.04,0.04,14200,0.04
2016-05-20,0.04,0.04,0.04,0.04,0,0.04
2016-05-23,0.033,0.035,0.033,0.035,63400,0.035
2016-05-24,0.035,0.035,0.031,0.031,60000,0.031
2016-05-25,0.04,0.04,0.04,0.04,157700,0.04
2016-05-26,0.04,0.04,0.04,0.04,0,0.04
2016-05-27,0.045,0.045,0.045,0.045,10000,0.045
2016-05-30,0.045,0.045,0.045,0.045,15000,0.045
2016-05-31,0.04,0.04,0.032,0.032,62700,0.032
2016-06-01,0.033,0.033,0.032,0.032,75000,0.032
2016-06-02,0.035,0.035,0.035,0.035,40000,0.035
2016-06-03,0.035,0.035,0.035,0.035,0,0.035
2016-06-06,0.035,0.035,0.034,0.034,57300,0.034
2016-06-07,0.059000000000000004,0.105,0.059000000000000004,0.06,754400,0.06
2016-06-08,0.08,0.08,0.075,0.079,247800,0.079
2016-06-09,0.08,0.08,0.06,0.061,1083400,0.061
2016-06-10,0.061,0.061,0.061,0.061,7800,0.061
2016-06-13,0.061,0.061,0.061,0.061,0,0.061
2016-06-14,0.067,0.067,0.065,0.065,208200,0.065
2016-06-15,0.065,0.065,0.06,0.06,131700,0.06
2016-06-16,0.055,0.057999999999999996,0.055,0.057999999999999996,16800,0.057999999999999996
2016-06-17,0.057999999999999996,0.057999999999999996,0.057999999999999996,0.057999999999999996,58000,0.057999999999999996
2016-06-20,0.063,0.063,0.059000000000000004,0.059000000000000004,103200,0.059000000000000004
2016-06-21,0.054000000000000006,0.054000000000000006,0.054000000000000006,0.054000000000000006,8000,0.054000000000000006
2016-06-22,0.054000000000000006,0.054000000000000006,0.054000000000000006,0.054000000000000006,1100,0.054000000000000006
2016-06-23,0.057999999999999996,0.057999999999999996,0.053,0.055,121000,0.055
2016-06-24,0.053,0.055999999999999994,0.048,0.048,195600,0.048
2016-06-27,0.048,0.048,0.048,0.048,6300,0.048
2016-06-28,0.043,0.045,0.043,0.044000000000000004,136700,0.044000000000000004
2016-06-29,0.05,0.05,0.05,0.05,128200,0.05
2016-06-30,0.05,0.05,0.05,0.05,1800,0.05
2016-07-01,0.044000000000000004,0.05,0.044000000000000004,0.05,15400,0.05
2016-07-04,0.055999999999999994,0.061,0.05,0.05,815900,0.05
2016-07-05,0.045,0.045,0.044000000000000004,0.044000000000000004,80000,0.044000000000000004
2016-07-06,0.046,0.046,0.046,0.046,6900,0.046
2016-07-07,0.05,0.05,0.05,0.05,89100,0.05
2016-07-08,0.05,0.05,0.05,0.05,51600,0.05
2016-07-11,0.05,0.05,0.05,0.05,260800,0.05
2016-07-12,0.05,0.05,0.044000000000000004,0.044000000000000004,25000,0.044000000000000004
2016-07-13,0.06,0.06,0.047,0.047,861500,0.047
2016-07-14,0.05,0.05,0.045,0.045,111700,0.045
2016-07-15,0.048,0.048,0.048,0.048,80400,0.048
2016-07-18,0.05,0.05,0.05,0.05,118300,0.05
2016-07-19,0.05,0.05,0.05,0.05,0,0.05
2016-07-20,0.057999999999999996,0.06,0.055,0.06,321600,0.06
2016-07-21,0.061,0.061,0.06,0.06,59000,0.06
2016-07-22,0.062,0.067,0.061,0.067,320600,0.067
2016-07-25,0.07400000000000001,0.077,0.07400000000000001,0.077,513100,0.077
2016-07-26,0.077,0.077,0.068,0.068,237800,0.068
2016-07-27,0.075,0.078,0.075,0.078,306500,0.078
2016-07-28,0.07,0.07,0.06,0.06,172700,0.06
2016-07-29,0.063,0.066,0.06,0.06,78400,0.06
2016-08-01,0.068,0.069,0.068,0.069,90500,0.069
2016-08-02,0.07,0.07,0.067,0.067,379600,0.067
2016-08-03,0.067,0.067,0.067,0.067,0,0.067
2016-08-04,0.067,0.067,0.067,0.067,1000,0.067
2016-08-05,0.067,0.067,0.067,0.067,0,0.067
2016-08-08,0.059000000000000004,0.059000000000000004,0.059000000000000004,0.059000000000000004,25000,0.059000000000000004
2016-08-09,0.06,0.06,0.055999999999999994,0.055999999999999994,20000,0.055999999999999994
2016-08-10,0.055999999999999994,0.055999999999999994,0.055999999999999994,0.055999999999999994,0,0.055999999999999994
2016-08-11,0.055999999999999994,0.055999999999999994,0.055999999999999994,0.055999999999999994,0,0.055999999999999994
2016-08-12,0.059000000000000004,0.059000000000000004,0.059000000000000004,0.059000000000000004,11000,0.059000000000000004
2016-08-15,0.068,0.068,0.068,0.068,144700,0.068
2016-08-16,0.069,0.069,0.068,0.068,43300,0.068
2016-08-17,0.068,0.068,0.067,0.067,47500,0.067
2016-08-18,0.067,0.067,0.067,0.067,0,0.067
2016-08-19,0.1,0.13,0.08800000000000001,0.1,8657800,0.1
2016-08-22,0.105,0.105,0.085,0.085,1788200,0.085
2016-08-23,0.08900000000000001,0.092,0.087,0.08900000000000001,657100,0.08900000000000001
2016-08-24,0.08900000000000001,0.08900000000000001,0.08900000000000001,0.08900000000000001,0,0.08900000000000001
2016-08-25,0.08900000000000001,0.08900000000000001,0.08900000000000001,0.08900000000000001,0,0.08900000000000001
2016-08-26,0.08900000000000001,0.08900000000000001,0.08900000000000001,0.08900000000000001,0,0.08900000000000001
2016-08-29,0.08900000000000001,0.08900000000000001,0.08,0.08,240200,0.08
2016-08-30,0.08,0.08,0.08,0.08,414100,0.08
2016-08-31,0.075,0.077,0.075,0.075,297600,0.075
2016-09-01,0.079,0.079,0.07,0.07,139300,0.07
2016-09-02,0.076,0.084,0.076,0.084,107000,0.084
2016-09-05,0.08,0.085,0.08,0.085,91900,0.085
2016-09-06,0.08199999999999999,0.085,0.08,0.08,174200,0.08
2016-09-07,0.07200000000000001,0.07200000000000001,0.07200000000000001,0.07200000000000001,150000,0.07200000000000001
2016-09-08,0.07200000000000001,0.07200000000000001,0.07200000000000001,0.07200000000000001,30300,0.07200000000000001
2016-09-09,0.076,0.08,0.076,0.08,25200,0.08
2016-09-12,0.08,0.08,0.08,0.08,0,0.08
2016-09-13,0.07,0.081,0.069,0.081,166800,0.081
2016-09-14,0.073,0.079,0.07,0.079,114300,0.079
2016-09-15,0.073,0.073,0.065,0.067,468600,0.067
2016-09-16,0.07,0.077,0.07,0.077,44800,0.077
2016-09-19,0.07,0.07,0.067,0.067,57400,0.067
2016-09-20,0.067,0.067,0.065,0.065,19200,0.065
2016-09-21,0.066,0.067,0.066,0.066,62900,0.066
2016-09-22,0.066,0.066,0.066,0.066,0,0.066
2016-09-23,0.065,0.066,0.065,0.066,70000,0.066
2016-09-26,0.066,0.066,0.066,0.066,11000,0.066
2016-09-27,0.07,0.07,0.07,0.07,14200,0.07
2016-09-28,0.07,0.07,0.07,0.07,110700,0.07
2016-09-29,0.076,0.076,0.076,0.076,39500,0.076
2016-09-30,0.076,0.076,0.076,0.076,0,0.076
2016-10-03,0.07,0.07,0.07,0.07,28700,0.07
2016-10-04,0.07,0.07,0.07,0.07,200000,0.07
2016-10-05,0.068,0.07,0.068,0.07,220000,0.07
2016-10-06,0.073,0.075,0.073,0.07400000000000001,49800,0.07400000000000001
2016-10-07,0.07,0.07200000000000001,0.066,0.069,195300,0.069
2016-10-10,0.07,0.075,0.07,0.075,331200,0.075
2016-10-11,0.07,0.07,0.067,0.067,100600,0.067
2016-10-12,0.068,0.068,0.068,0.068,25000,0.068
2016-10-13,0.066,0.075,0.066,0.07400000000000001,96500,0.07400000000000001
2016-10-14,0.07,0.075,0.07,0.075,6000,0.075
2016-10-17,0.069,0.07,0.069,0.069,121500,0.069
2016-10-18,0.069,0.069,0.069,0.069,0,0.069
2016-10-19,0.069,0.069,0.069,0.069,10000,0.069
2016-10-20,0.069,0.069,0.068,0.068,11400,0.068
2016-10-21,0.068,0.068,0.068,0.068,10000,0.068
2016-10-24,0.068,0.068,0.068,0.068,0,0.068
2016-10-25,0.068,0.068,0.068,0.068,19900,0.068
2016-10-26,0.068,0.07200000000000001,0.068,0.07200000000000001,86100,0.07200000000000001
2016-10-27,0.07200000000000001,0.07200000000000001,0.07200000000000001,0.07200000000000001,0,0.07200000000000001
2016-10-28,0.07200000000000001,0.07200000000000001,0.07200000000000001,0.07200000000000001,0,0.07200000000000001
2016-10-31,0.068,0.07,0.068,0.07,168000,0.07
2016-11-01,0.07,0.07,0.07,0.07,0,0.07
2016-11-02,0.07,0.07,0.07,0.07,0,0.07
2016-11-03,0.067,0.068,0.065,0.065,52500,0.065
2016-11-04,0.065,0.065,0.065,0.065,0,0.065
2016-11-07,0.065,0.065,0.065,0.065,0,0.065
2016-11-08,0.065,0.065,0.065,0.065,0,0.065
2016-11-09,0.067,0.067,0.067,0.067,16500,0.067
2016-11-10,0.065,0.065,0.065,0.065,15000,0.065
2016-11-11,0.07,0.07200000000000001,0.065,0.065,611900,0.065
2016-11-14,0.063,0.063,0.062,0.062,230000,0.062
2016-11-15,0.062,0.062,0.062,0.062,0,0.062
2016-11-16,0.062,0.062,0.062,0.062,0,0.062
2016-11-17,0.065,0.07,0.065,0.07,1078200,0.07
2016-11-18,0.07,0.07200000000000001,0.07,0.07200000000000001,140000,0.07200000000000001
2016-11-21,0.07,0.07,0.07,0.07,1433300,0.07
2016-11-22,0.071,0.071,0.071,0.071,50000,0.071
2016-11-23,0.071,0.076,0.071,0.076,53000,0.076
2016-11-24,0.076,0.078,0.07200000000000001,0.07200000000000001,107900,0.07200000000000001
2016-11-25,0.075,0.077,0.07200000000000001,0.077,99900,0.077
2016-11-28,0.08,0.08199999999999999,0.079,0.081,397500,0.081
2016-11-29,0.083,0.084,0.08,0.08,421100,0.08
2016-11-30,0.077,0.077,0.075,0.075,12800,0.075
2016-12-01,0.076,0.08,0.075,0.078,394900,0.078
2016-12-02,0.08,0.08,0.073,0.073,56100,0.073
2016-12-05,0.07400000000000001,0.07400000000000001,0.07,0.07,442500,0.07
2016-12-06,0.07,0.07,0.07,0.07,0,0.07
2016-12-07,0.07,0.07,0.07,0.07,0,0.07
2016-12-08,0.07,0.07,0.055,0.055,328600,0.055
2016-12-09,0.055,0.055,0.055,0.055,0,0.055
2016-12-12,0.055,0.055,0.055,0.055,0,0.055
2016-12-13,0.066,0.067,0.066,0.067,383600,0.067
2016-12-14,0.067,0.067,0.067,0.067,0,0.067
2016-12-15,0.067,0.067,0.067,0.067,0,0.067
2016-12-16,0.067,0.067,0.067,0.067,0,0.067
2016-12-19,0.069,0.069,0.069,0.069,53000,0.069
2016-12-20,0.069,0.069,0.066,0.066,247000,0.066
2016-12-21,0.066,0.066,0.065,0.065,62500,0.065
2016-12-22,0.065,0.065,0.065,0.065,20000,0.065
2016-12-23,0.065,0.065,0.065,0.065,0,0.065
2016-12-26,0.065,0.065,0.065,0.065,0,0.065
2016-12-27,0.065,0.065,0.065,0.065,0,0.065
2016-12-28,0.065,0.065,0.065,0.065,0,0.065
2016-12-29,0.069,0.069,0.069,0.069,23000,0.069
2016-12-30,0.069,0.069,0.069,0.069,0,0.069
