Date,Open,High,Low,Close,Volume,Adj Close
2017-05-09,0.495,0.50,0.495,0.50,3000,0.50
2017-05-08,0.49,0.495,0.49,0.495,2000,0.495
2017-05-05,0.50,0.50,0.49,0.49,34000,0.49
2017-05-04,0.50,0.50,0.485,0.485,27600,0.485
2017-05-03,0.485,0.505,0.485,0.505,28000,0.505
2017-05-02,0.50,0.505,0.495,0.495,23000,0.495
2017-05-01,0.50,0.50,0.50,0.50,000,0.50
2017-04-28,0.50,0.50,0.495,0.50,105700,0.50
2017-04-27,0.50,0.50,0.495,0.50,236600,0.50
2017-04-26,0.505,0.51,0.495,0.50,100600,0.50
2017-04-25,0.505,0.505,0.505,0.505,000,0.505
2017-04-24,0.505,0.505,0.50,0.505,55000,0.505
2017-04-21,0.515,0.515,0.50,0.50,143500,0.50
2017-04-20,0.52,0.52,0.50,0.50,128800,0.50
2017-04-19,0.55,0.55,0.54,0.54,45100,0.54
2017-04-18,0.56,0.56,0.54,0.545,235900,0.545
2017-04-17,0.56,0.56,0.56,0.56,000,0.56
2017-04-14,0.56,0.56,0.56,0.56,000,0.56
2017-04-13,0.58,0.58,0.56,0.56,14500,0.56
2017-04-12,0.58,0.58,0.56,0.58,46100,0.58
2017-04-11,0.60,0.60,0.575,0.58,35400,0.58
2017-04-10,0.60,0.60,0.58,0.60,70000,0.60
2017-04-07,0.59,0.59,0.58,0.58,40100,0.58
2017-04-06,0.60,0.60,0.60,0.60,000,0.60
2017-04-05,0.60,0.60,0.60,0.60,49300,0.60
2017-04-04,0.60,0.60,0.60,0.60,20000,0.60
2017-04-03,0.60,0.60,0.60,0.60,16900,0.60
2017-03-31,0.60,0.62,0.60,0.62,43600,0.62
2017-03-30,0.60,0.60,0.60,0.60,19900,0.60
2017-03-29,0.60,0.60,0.59,0.60,31200,0.60
2017-03-28,0.59,0.60,0.58,0.60,31000,0.60
2017-03-27,0.605,0.61,0.555,0.58,146600,0.58
2017-03-24,0.62,0.62,0.60,0.615,43500,0.615
2017-03-23,0.61,0.62,0.61,0.62,20500,0.62
2017-03-22,0.61,0.62,0.61,0.62,18500,0.62
2017-03-21,0.62,0.62,0.61,0.62,31700,0.62
2017-03-20,0.60,0.62,0.60,0.62,69000,0.62
2017-03-17,0.63,0.63,0.63,0.63,000,0.63
2017-03-16,0.63,0.63,0.63,0.63,000,0.63
2017-03-15,0.63,0.63,0.63,0.63,16200,0.63
2017-03-14,0.64,0.64,0.63,0.64,85100,0.64
2017-03-13,0.63,0.63,0.63,0.63,135400,0.63
2017-03-10,0.67,0.67,0.63,0.63,164500,0.63
2017-03-09,0.67,0.675,0.67,0.675,73100,0.675
2017-03-08,0.66,0.675,0.59,0.675,265000,0.675
2017-03-07,0.68,0.68,0.68,0.68,15700,0.68
2017-03-06,0.67,0.67,0.665,0.67,45000,0.67
2017-03-03,0.685,0.685,0.67,0.67,5400,0.67
2017-03-02,0.68,0.69,0.67,0.69,91200,0.69
2017-03-01,0.69,0.69,0.66,0.69,120800,0.69
2017-02-28,0.69,0.69,0.69,0.69,000,0.69
2017-02-27,0.69,0.69,0.69,0.69,000,0.69
2017-02-24,0.70,0.70,0.68,0.69,47000,0.69
2017-02-23,0.695,0.695,0.69,0.69,18800,0.69
2017-02-22,0.695,0.695,0.68,0.695,22000,0.695
2017-02-21,0.695,0.695,0.69,0.69,30100,0.69
2017-02-20,0.695,0.70,0.685,0.695,52000,0.695
2017-02-17,0.68,0.70,0.68,0.70,70000,0.70
2017-02-16,0.685,0.70,0.68,0.70,22700,0.70
2017-02-15,0.70,0.70,0.69,0.70,34500,0.70
2017-02-14,0.70,0.70,0.70,0.70,9600,0.70
2017-02-13,0.70,0.70,0.70,0.70,26000,0.70
2017-02-10,0.685,0.695,0.685,0.695,17000,0.695
2017-02-09,0.68,0.70,0.68,0.70,14100,0.70
2017-02-08,0.70,0.705,0.69,0.705,65600,0.705
2017-02-07,0.70,0.70,0.70,0.70,143000,0.70
2017-02-06,0.70,0.71,0.70,0.71,74400,0.71
2017-02-03,0.70,0.71,0.70,0.70,51700,0.70
2017-02-02,0.70,0.70,0.70,0.70,91000,0.70
2017-02-01,0.70,0.70,0.70,0.70,15000,0.70
2017-01-31,0.70,0.70,0.70,0.70,500,0.70
2017-01-30,0.70,0.70,0.70,0.70,000,0.70
2017-01-27,0.71,0.71,0.70,0.70,63400,0.70
2017-01-26,0.71,0.71,0.71,0.71,000,0.71
2017-01-25,0.71,0.71,0.71,0.71,000,0.71
2017-01-24,0.71,0.71,0.71,0.71,30000,0.71
2017-01-23,0.72,0.72,0.72,0.72,60000,0.72
2017-01-20,0.715,0.715,0.71,0.715,30000,0.715
2017-01-19,0.715,0.72,0.715,0.72,27500,0.72
2017-01-18,0.72,0.72,0.72,0.72,6500,0.72
2017-01-17,0.75,0.75,0.72,0.72,90100,0.72
2017-01-16,0.72,0.73,0.70,0.73,223900,0.73
2017-01-13,0.73,0.73,0.715,0.715,68200,0.715
2017-01-12,0.72,0.73,0.72,0.73,20800,0.73
2017-01-11,0.71,0.72,0.71,0.72,25000,0.72
2017-01-10,0.705,0.705,0.70,0.70,23100,0.70
2017-01-09,0.70,0.72,0.68,0.70,118300,0.70
2017-01-06,0.725,0.725,0.72,0.72,11500,0.72
2017-01-05,0.72,0.72,0.72,0.72,10000,0.72
2017-01-04,0.72,0.72,0.715,0.72,35600,0.72
2017-01-03,0.72,0.72,0.72,0.72,000,0.72
2017-01-02,0.72,0.72,0.72,0.72,000,0.72
2016-12-30,0.72,0.72,0.72,0.72,13000,0.72
2016-12-29,0.72,0.72,0.72,0.72,38300,0.72
2016-12-28,0.72,0.72,0.72,0.72,10000,0.72
2016-12-27,0.71,0.71,0.71,0.71,000,0.71
2016-12-26,0.71,0.71,0.71,0.71,000,0.71
2016-12-23,0.71,0.71,0.71,0.71,000,0.71
2016-12-22,0.71,0.71,0.71,0.71,5000,0.71
2016-12-21,0.72,0.72,0.72,0.72,20000,0.72
2016-12-20,0.72,0.72,0.72,0.72,13000,0.72
2016-12-19,0.72,0.72,0.715,0.72,22000,0.72
2016-12-16,0.73,0.73,0.71,0.71,29400,0.71
2016-12-15,0.725,0.745,0.72,0.72,142500,0.72
2016-12-14,0.72,0.725,0.69,0.725,164000,0.725
2016-12-13,0.74,0.745,0.72,0.72,45000,0.72
2016-12-12,0.725,0.73,0.72,0.73,37000,0.73
2016-12-09,0.72,0.75,0.72,0.725,18200,0.725
2016-12-08,0.73,0.73,0.72,0.725,40500,0.725
2016-12-07,0.74,0.74,0.73,0.73,18000,0.73
2016-12-06,0.76,0.76,0.74,0.74,12700,0.74
2016-12-05,0.76,0.78,0.76,0.76,35500,0.76
2016-12-02,0.76,0.76,0.76,0.76,23500,0.76
2016-12-01,0.735,0.735,0.735,0.735,10000,0.735
2016-11-30,0.735,0.76,0.715,0.715,23600,0.715
2016-11-29,0.79,0.79,0.75,0.75,31600,0.75
2016-11-28,0.74,0.79,0.74,0.79,76500,0.79
2016-11-25,0.74,0.74,0.73,0.74,52600,0.74
2016-11-24,0.74,0.74,0.74,0.74,18200,0.74
2016-11-23,0.74,0.74,0.73,0.74,17900,0.74
2016-11-22,0.74,0.74,0.73,0.73,50900,0.73
2016-11-21,0.75,0.75,0.75,0.75,83100,0.75
2016-11-18,0.75,0.75,0.75,0.75,2000,0.75
2016-11-17,0.75,0.75,0.75,0.75,000,0.75
2016-11-16,0.75,0.75,0.75,0.75,12600,0.75
2016-11-15,0.715,0.715,0.715,0.715,2000,0.715
2016-11-14,0.72,0.72,0.72,0.72,000,0.72
2016-11-11,0.72,0.72,0.72,0.72,600,0.72
2016-11-10,0.72,0.72,0.72,0.72,17500,0.72
2016-11-09,0.72,0.72,0.72,0.72,2500,0.72
2016-11-08,0.76,0.76,0.76,0.76,4300,0.76
2016-11-07,0.73,0.76,0.71,0.71,11000,0.71
2016-11-04,0.72,0.72,0.72,0.72,000,0.72
2016-11-03,0.72,0.72,0.72,0.72,11300,0.72
2016-11-02,0.75,0.75,0.72,0.72,18500,0.72
2016-11-01,0.71,0.765,0.71,0.765,51000,0.765
2016-10-31,0.72,0.77,0.695,0.77,130000,0.77
2016-10-28,0.78,0.78,0.71,0.71,35600,0.71
2016-10-27,0.70,0.77,0.70,0.77,29000,0.77
2016-10-26,0.72,0.72,0.70,0.70,75500,0.70
2016-10-25,0.75,0.75,0.71,0.72,52500,0.72
2016-10-24,0.75,0.75,0.75,0.75,7000,0.75
2016-10-21,0.75,0.75,0.75,0.75,000,0.75
2016-10-20,0.75,0.75,0.75,0.75,000,0.75
2016-10-19,0.76,0.76,0.75,0.75,3200,0.75
2016-10-18,0.76,0.76,0.75,0.75,23500,0.75
2016-10-17,0.75,0.76,0.725,0.76,70000,0.76
2016-10-14,0.78,0.78,0.75,0.75,14500,0.75
2016-10-13,0.78,0.78,0.77,0.77,15000,0.77
2016-10-12,0.75,0.75,0.75,0.75,111200,0.75
2016-10-11,0.75,0.75,0.75,0.75,1000,0.75
2016-10-10,0.75,0.78,0.75,0.78,31500,0.78
2016-10-07,0.78,0.79,0.75,0.79,34500,0.79
2016-10-06,0.76,0.79,0.76,0.79,39300,0.79
2016-10-05,0.78,0.78,0.76,0.76,133000,0.76
2016-10-04,0.76,0.76,0.76,0.76,000,0.76
2016-10-03,0.76,0.76,0.76,0.76,000,0.76
2016-09-30,0.76,0.76,0.75,0.76,59600,0.76
2016-09-29,0.76,0.76,0.755,0.755,76900,0.755
2016-09-28,0.75,0.76,0.74,0.76,164500,0.76
2016-09-27,0.74,0.75,0.74,0.75,45800,0.75
2016-09-26,0.76,0.76,0.75,0.75,119000,0.75
2016-09-23,0.75,0.75,0.75,0.75,27000,0.75
2016-09-22,0.76,0.76,0.75,0.76,92900,0.76
2016-09-21,0.76,0.76,0.75,0.75,160500,0.75
2016-09-20,0.76,0.76,0.76,0.76,82000,0.76
2016-09-19,0.75,0.75,0.75,0.75,33800,0.75
2016-09-16,0.76,0.76,0.75,0.76,51200,0.76
2016-09-15,0.78,0.79,0.75,0.76,94000,0.76
2016-09-14,0.75,0.79,0.74,0.79,23100,0.79
2016-09-13,0.77,0.77,0.76,0.76,45300,0.76
2016-09-12,0.76,0.76,0.75,0.75,14600,0.75
2016-09-09,0.77,0.77,0.75,0.77,47600,0.77
2016-09-08,0.75,0.77,0.75,0.77,36100,0.77
2016-09-07,0.75,0.75,0.75,0.75,35100,0.75
2016-09-06,0.75,0.75,0.75,0.75,6000,0.75
2016-09-05,0.76,0.76,0.75,0.75,30000,0.75
2016-09-02,0.78,0.78,0.78,0.78,3000,0.78
2016-09-01,0.755,0.78,0.75,0.78,123000,0.78
2016-08-31,0.75,0.75,0.75,0.75,000,0.75
2016-08-30,0.75,0.75,0.75,0.75,11500,0.75
2016-08-29,0.78,0.78,0.78,0.78,2000,0.78
2016-08-26,0.76,0.78,0.75,0.78,21000,0.78
2016-08-25,0.75,0.75,0.75,0.75,000,0.75
2016-08-24,0.75,0.79,0.75,0.75,27800,0.75
2016-08-23,0.75,0.75,0.75,0.75,35000,0.75
2016-08-22,0.79,0.79,0.78,0.78,106000,0.78
2016-08-19,0.79,0.79,0.78,0.79,88600,0.79
2016-08-18,0.78,0.78,0.78,0.78,30000,0.78
2016-08-17,0.79,0.79,0.79,0.79,000,0.79
2016-08-16,0.79,0.79,0.79,0.79,34000,0.79
2016-08-15,0.79,0.79,0.79,0.79,63000,0.79
2016-08-12,0.785,0.79,0.78,0.79,49200,0.785
2016-08-11,0.79,0.79,0.78,0.78,45300,0.775
2016-08-10,0.80,0.80,0.79,0.79,29100,0.785
2016-08-09,0.80,0.80,0.79,0.79,11000,0.785
2016-08-08,0.80,0.80,0.80,0.80,43900,0.795
2016-08-05,0.80,0.80,0.80,0.80,58100,0.795
2016-08-04,0.80,0.80,0.80,0.80,3000,0.795
2016-08-03,0.80,0.80,0.80,0.80,2000,0.795
2016-08-02,0.795,0.795,0.795,0.795,2000,0.79
2016-08-01,0.765,0.80,0.765,0.765,33400,0.76
2016-07-29,0.76,0.765,0.76,0.765,20000,0.76
2016-07-28,0.75,0.76,0.75,0.76,22000,0.755
2016-07-27,0.775,0.775,0.75,0.75,88900,0.745
2016-07-26,0.78,0.78,0.775,0.775,4800,0.77
2016-07-25,0.78,0.78,0.78,0.78,14600,0.775
2016-07-22,0.785,0.785,0.78,0.78,14400,0.775
2016-07-21,0.78,0.78,0.78,0.78,13200,0.775
2016-07-20,0.79,0.80,0.78,0.78,125400,0.775
2016-07-19,0.78,0.785,0.78,0.78,137500,0.775
2016-07-18,0.78,0.78,0.77,0.78,70700,0.775
2016-07-15,0.76,0.765,0.76,0.765,102000,0.76
2016-07-14,0.77,0.775,0.76,0.76,25500,0.755
2016-07-13,0.78,0.78,0.76,0.76,25000,0.75
2016-07-12,0.785,0.785,0.77,0.77,17100,0.76
2016-07-11,0.775,0.78,0.775,0.78,38200,0.77
2016-07-08,0.78,0.78,0.78,0.78,13400,0.77
2016-07-07,0.775,0.78,0.77,0.78,42000,0.77
2016-07-06,0.79,0.79,0.79,0.79,400,0.78
2016-07-05,0.795,0.795,0.77,0.77,62500,0.76
2016-07-04,0.81,0.81,0.79,0.795,79100,0.785
2016-07-01,0.79,0.805,0.79,0.795,154200,0.785
2016-06-30,0.79,0.81,0.79,0.79,70200,0.78
2016-06-29,0.81,0.81,0.78,0.79,55800,0.78
2016-06-28,0.77,0.81,0.76,0.81,104200,0.80
2016-06-27,0.80,0.81,0.78,0.81,38800,0.80
2016-06-24,0.815,0.815,0.78,0.78,17300,0.77
2016-06-23,0.80,0.80,0.80,0.80,21600,0.79
2016-06-22,0.83,0.83,0.80,0.80,15000,0.79
2016-06-21,0.85,0.85,0.85,0.85,3000,0.839
2016-06-20,0.80,0.82,0.74,0.82,143000,0.81
2016-06-17,0.81,0.81,0.80,0.80,24000,0.79
2016-06-16,0.80,0.81,0.80,0.81,2000,0.80
2016-06-15,0.81,0.815,0.80,0.815,34500,0.805
2016-06-14,0.80,0.80,0.80,0.80,45000,0.79
2016-06-13,0.81,0.81,0.81,0.81,000,0.80
2016-06-10,0.81,0.81,0.80,0.81,41200,0.80
2016-06-09,0.82,0.82,0.815,0.815,1500,0.805
2016-06-08,0.81,0.815,0.81,0.815,18700,0.805
2016-06-07,0.80,0.81,0.80,0.81,89500,0.80
2016-06-06,0.83,0.83,0.80,0.80,103900,0.79
2016-06-03,0.85,0.85,0.83,0.83,57400,0.819
2016-06-02,0.85,0.865,0.85,0.85,26500,0.839
2016-06-01,0.86,0.86,0.83,0.83,54000,0.819
2016-05-31,0.865,0.865,0.85,0.85,55000,0.839
2016-05-30,0.86,0.86,0.855,0.855,10000,0.844
2016-05-27,0.87,0.87,0.865,0.865,18500,0.854
2016-05-26,0.875,0.875,0.875,0.875,000,0.864
2016-05-25,0.875,0.875,0.875,0.875,5700,0.864
2016-05-24,0.855,0.855,0.855,0.855,000,0.844
2016-05-23,0.875,0.875,0.855,0.855,17100,0.844
2016-05-20,0.87,0.875,0.87,0.875,42500,0.864
2016-05-19,0.88,0.88,0.87,0.88,108000,0.869
2016-05-18,0.88,0.88,0.87,0.88,259100,0.869
2016-05-17,0.88,0.88,0.875,0.88,137900,0.869
2016-05-16,0.88,0.88,0.88,0.88,000,0.869
2016-05-13,0.88,0.88,0.88,0.88,103000,0.869
2016-05-12,0.88,0.88,0.88,0.88,20100,0.869
2016-05-11,0.88,0.88,0.88,0.88,14800,0.869
2016-05-10,0.88,0.88,0.88,0.88,000,0.869
2016-05-09,0.88,0.88,0.88,0.88,20000,0.869
2016-05-06,0.88,0.885,0.88,0.885,12000,0.874
2016-05-05,0.86,0.86,0.84,0.84,87600,0.829
2016-05-04,0.86,0.86,0.86,0.86,15000,0.849
2016-05-03,0.87,0.87,0.87,0.87,80000,0.859
2016-05-02,0.90,0.90,0.90,0.90,000,0.889
2016-04-29,0.90,0.90,0.90,0.90,1000,0.889
2016-04-28,0.91,0.94,0.90,0.94,42000,0.928
2016-04-27,0.86,0.90,0.86,0.90,3000,0.889
2016-04-26,0.94,0.94,0.94,0.94,000,0.928
2016-04-25,0.94,0.94,0.94,0.94,000,0.928
2016-04-22,0.94,0.94,0.94,0.94,500,0.928
2016-04-21,0.835,0.94,0.835,0.94,32000,0.928
2016-04-20,0.85,0.85,0.805,0.85,39600,0.839
2016-04-19,0.85,0.85,0.85,0.85,3500,0.839
2016-04-18,0.85,0.85,0.85,0.85,17400,0.839
2016-04-15,0.85,0.85,0.85,0.85,13600,0.839
2016-04-14,0.85,0.85,0.85,0.85,59200,0.839
2016-04-13,0.86,0.86,0.85,0.85,32500,0.839
2016-04-12,0.86,0.86,0.86,0.86,28000,0.849
2016-04-11,0.88,0.88,0.85,0.85,111900,0.839
2016-04-08,0.89,0.89,0.85,0.86,204000,0.849
2016-04-07,0.90,0.90,0.90,0.90,25400,0.889
2016-04-06,0.91,0.91,0.90,0.90,139000,0.889
2016-04-05,0.93,0.93,0.92,0.92,30500,0.908
2016-04-04,0.94,0.94,0.93,0.93,17000,0.918
2016-04-01,0.95,0.95,0.94,0.945,37900,0.933
2016-03-31,0.95,0.95,0.94,0.94,167000,0.928
2016-03-30,0.945,0.95,0.945,0.95,63900,0.938
2016-03-29,0.95,0.95,0.94,0.95,104100,0.938
2016-03-28,0.95,0.95,0.95,0.95,000,0.938
2016-03-25,0.95,0.95,0.95,0.95,000,0.938
2016-03-24,0.965,0.965,0.95,0.95,38000,0.938
2016-03-23,0.95,0.95,0.95,0.95,000,0.938
2016-03-22,0.955,0.955,0.95,0.95,148100,0.938
2016-03-21,0.96,0.96,0.95,0.95,34000,0.938
2016-03-18,0.96,0.96,0.96,0.96,40800,0.948
2016-03-17,0.96,0.98,0.95,0.95,150600,0.938
2016-03-16,0.995,1.00,0.995,0.995,20800,0.982
2016-03-15,0.995,1.00,0.995,0.995,73100,0.982
2016-03-14,0.98,0.995,0.955,0.995,74000,0.982
2016-03-11,1.00,1.00,0.96,1.00,44400,0.987
2016-03-10,0.93,1.00,0.93,1.00,68400,0.987
2016-03-09,0.93,0.93,0.93,0.93,31500,0.918
2016-03-08,0.945,0.95,0.94,0.945,32100,0.933
2016-03-07,0.93,0.94,0.93,0.94,69000,0.928
2016-03-04,0.94,0.95,0.93,0.95,35500,0.938
2016-03-03,0.93,0.95,0.93,0.95,18300,0.938
2016-03-02,0.93,0.95,0.93,0.93,32800,0.918
2016-03-01,0.935,0.935,0.93,0.93,49700,0.918
2016-02-29,0.93,0.95,0.93,0.935,34500,0.923
2016-02-26,0.93,0.93,0.915,0.93,22600,0.918
2016-02-25,0.91,0.915,0.91,0.915,75000,0.903
2016-02-24,0.91,0.925,0.90,0.91,83900,0.898
2016-02-23,0.91,0.95,0.88,0.95,157700,0.938
2016-02-22,0.905,0.91,0.895,0.91,165900,0.898
2016-02-19,0.98,0.98,0.905,0.905,159700,0.893
2016-02-18,1.00,1.00,0.97,0.98,86900,0.968
2016-02-17,1.00,1.025,1.00,1.00,144900,0.987
2016-02-16,1.00,1.00,1.00,1.00,178100,0.987
2016-02-15,1.00,1.00,1.00,1.00,261700,0.987
2016-02-12,1.10,1.10,1.00,1.00,328100,0.987
2016-02-11,1.14,1.14,1.05,1.13,102000,1.116
2016-02-10,1.14,1.14,1.14,1.14,000,1.125
2016-02-09,1.14,1.14,1.14,1.14,000,1.125
2016-02-08,1.14,1.14,1.14,1.14,11600,1.125
2016-02-05,1.14,1.14,1.14,1.14,3300,1.125
2016-02-04,1.14,1.14,1.14,1.14,59200,1.125
2016-02-03,1.15,1.15,1.14,1.15,34300,1.135
2016-02-02,1.16,1.16,1.14,1.155,35200,1.14
2016-02-01,1.155,1.16,1.155,1.155,36200,1.14
2016-01-29,1.18,1.18,1.155,1.155,36200,1.14
2016-01-28,1.20,1.20,1.18,1.18,37400,1.165
2016-01-27,1.20,1.21,1.20,1.20,88800,1.185
2016-01-26,1.21,1.21,1.21,1.21,000,1.195
2016-01-25,1.22,1.22,1.21,1.21,150600,1.195
2016-01-22,1.18,1.22,1.18,1.215,157800,1.20
2016-01-21,1.125,1.18,1.03,1.18,187500,1.165
2016-01-20,1.175,1.175,1.13,1.14,124800,1.125
2016-01-19,1.18,1.19,1.16,1.18,86600,1.165
2016-01-18,1.24,1.24,1.16,1.20,173600,1.185
2016-01-15,1.29,1.29,1.21,1.25,35000,1.234
2016-01-14,1.29,1.31,1.265,1.28,88100,1.264
2016-01-13,1.33,1.34,1.29,1.29,113300,1.274
2016-01-12,1.33,1.33,1.31,1.33,57400,1.313
2016-01-11,1.34,1.34,1.31,1.33,22000,1.313
2016-01-08,1.275,1.35,1.275,1.33,50700,1.313
2016-01-07,1.35,1.35,1.33,1.35,26600,1.333
2016-01-06,1.32,1.375,1.32,1.35,41100,1.333
2016-01-05,1.385,1.385,1.375,1.38,25800,1.362
2016-01-04,1.39,1.39,1.38,1.39,70400,1.372
2016-01-01,1.38,1.38,1.38,1.38,000,1.362
2015-12-31,1.38,1.38,1.37,1.38,25000,1.362
2015-12-30,1.35,1.38,1.35,1.38,158400,1.362
2015-12-29,1.37,1.37,1.30,1.35,141700,1.333
2015-12-28,1.34,1.34,1.34,1.34,000,1.323
2015-12-25,1.34,1.34,1.34,1.34,000,1.323
2015-12-24,1.37,1.37,1.34,1.34,24600,1.323
2015-12-23,1.38,1.38,1.24,1.33,217600,1.313
2015-12-22,1.21,1.36,1.21,1.35,273200,1.333
2015-12-21,1.18,1.24,1.14,1.21,344000,1.195
2015-12-18,1.15,1.15,1.14,1.14,135700,1.125
2015-12-17,1.12,1.15,1.11,1.15,30900,1.135
2015-12-16,1.10,1.11,1.09,1.10,465900,1.086
2015-12-15,1.10,1.10,1.09,1.09,61700,1.076
2015-12-14,1.10,1.10,1.10,1.10,47300,1.086
2015-12-11,1.07,1.10,1.07,1.10,44300,1.086
2015-12-10,1.04,1.07,1.04,1.07,76500,1.056
2015-12-09,1.04,1.04,1.04,1.04,5000,1.027
2015-12-08,1.045,1.045,1.045,1.045,000,1.032
2015-12-07,1.045,1.045,1.045,1.045,5300,1.032
2015-12-04,1.01,1.01,1.01,1.01,000,0.997
2015-12-03,1.01,1.02,1.01,1.01,46600,0.997
2015-12-02,1.00,1.01,1.00,1.01,30800,0.997
2015-12-01,1.02,1.02,0.99,0.99,2000,0.977
2015-11-30,1.00,1.04,1.00,1.03,31900,1.017
2015-11-27,1.00,1.00,1.00,1.00,73900,0.987
2015-11-26,1.00,1.00,0.99,0.99,71100,0.977
2015-11-25,1.03,1.03,1.00,1.00,46000,0.987
2015-11-24,1.00,1.00,1.00,1.00,26000,0.987
2015-11-23,1.00,1.00,0.995,1.00,93900,0.987
2015-11-20,1.00,1.00,0.99,1.00,74100,0.987
2015-11-19,1.00,1.00,1.00,1.00,26600,0.987
2015-11-18,1.00,1.00,0.99,1.00,27100,0.987
2015-11-17,0.995,1.00,0.99,1.00,145000,0.987
2015-11-16,0.935,1.02,0.90,0.90,278400,0.889
2015-11-13,0.99,0.99,0.935,0.955,60100,0.943
2015-11-12,0.95,0.99,0.95,0.99,92500,0.977
2015-11-11,0.95,0.95,0.94,0.95,93700,0.938
2015-11-10,0.95,0.97,0.93,0.96,77900,0.943
2015-11-09,0.93,0.95,0.93,0.93,62100,0.913
2015-11-06,0.90,0.91,0.87,0.90,37000,0.884
2015-11-05,0.905,0.905,0.90,0.905,27000,0.889
2015-11-04,0.895,0.90,0.895,0.90,17000,0.884
2015-11-03,0.88,0.895,0.88,0.895,225300,0.879
2015-11-02,0.82,0.88,0.82,0.88,103100,0.864
2015-10-30,0.82,0.82,0.82,0.82,25000,0.805
2015-10-29,0.82,0.82,0.82,0.82,31000,0.805
2015-10-28,0.82,0.83,0.82,0.82,28500,0.805
2015-10-27,0.815,0.82,0.80,0.82,43600,0.805
2015-10-26,0.805,0.805,0.805,0.805,12600,0.791
2015-10-23,0.80,0.805,0.80,0.80,29000,0.786
2015-10-22,0.80,0.80,0.80,0.80,40000,0.786
2015-10-21,0.805,0.805,0.80,0.80,32000,0.786
2015-10-20,0.80,0.80,0.78,0.79,197700,0.776
2015-10-19,0.80,0.80,0.80,0.80,16800,0.786
2015-10-16,0.80,0.805,0.80,0.805,33000,0.791
2015-10-15,0.80,0.805,0.78,0.805,257000,0.791
2015-10-14,0.80,0.805,0.80,0.80,35600,0.786
2015-10-13,0.80,0.80,0.80,0.80,30000,0.786
2015-10-12,0.80,0.805,0.80,0.80,78000,0.786
2015-10-09,0.80,0.805,0.78,0.80,92300,0.786
2015-10-08,0.805,0.805,0.80,0.80,21300,0.786
2015-10-07,0.81,0.81,0.80,0.80,35000,0.786
2015-10-06,0.81,0.81,0.80,0.80,89800,0.786
2015-10-05,0.80,0.82,0.80,0.82,45100,0.805
2015-10-02,0.82,0.82,0.815,0.815,15000,0.80
2015-10-01,0.81,0.81,0.80,0.80,10000,0.786
2015-09-30,0.80,0.82,0.79,0.815,94000,0.80
2015-09-29,0.80,0.80,0.79,0.79,15500,0.776
2015-09-28,0.80,0.80,0.78,0.78,104500,0.766
2015-09-25,0.80,0.81,0.78,0.78,66400,0.766
2015-09-24,0.79,0.79,0.79,0.79,29500,0.776
2015-09-23,0.82,0.82,0.795,0.82,68700,0.805
2015-09-22,0.82,0.82,0.80,0.80,31900,0.786
2015-09-21,0.825,0.825,0.80,0.82,110000,0.805
2015-09-18,0.835,0.835,0.835,0.835,11000,0.82
2015-09-17,0.75,0.845,0.75,0.845,41500,0.83
2015-09-16,0.725,0.765,0.72,0.74,74700,0.727
2015-09-15,0.70,0.845,0.70,0.845,96800,0.83
2015-09-14,0.80,0.80,0.80,0.80,12400,0.786
2015-09-11,0.80,0.80,0.80,0.80,2900,0.786
2015-09-10,0.80,0.80,0.80,0.80,15000,0.786
2015-09-09,0.80,0.80,0.80,0.80,11000,0.786
2015-09-08,0.80,0.80,0.80,0.80,23000,0.786
2015-09-07,0.80,0.80,0.80,0.80,10000,0.786
2015-09-04,0.80,0.80,0.80,0.80,20000,0.786
2015-09-03,0.80,0.80,0.80,0.80,32300,0.786
2015-09-02,0.805,0.805,0.80,0.80,63000,0.786
2015-09-01,0.78,0.805,0.78,0.805,173000,0.791
2015-08-31,0.78,0.78,0.78,0.78,2700,0.766
2015-08-28,0.77,0.78,0.76,0.77,145600,0.756
2015-08-27,0.75,0.76,0.75,0.76,73000,0.746
2015-08-26,0.74,0.75,0.73,0.745,212300,0.732
2015-08-25,0.745,0.745,0.715,0.715,47800,0.702
2015-08-24,0.79,0.79,0.73,0.74,101800,0.727
2015-08-21,0.80,0.815,0.79,0.80,166700,0.786
2015-08-20,0.835,0.835,0.80,0.815,109200,0.80
2015-08-19,0.83,0.85,0.83,0.83,68800,0.815
2015-08-18,0.83,0.83,0.83,0.83,8000,0.815
2015-08-17,0.84,0.875,0.84,0.865,60000,0.85
2015-08-14,0.845,0.875,0.84,0.875,24000,0.859
2015-08-13,0.90,0.90,0.90,0.90,000,0.884
2015-08-12,0.90,0.90,0.90,0.90,2000,0.884
2015-08-11,0.84,0.90,0.84,0.88,135500,0.864
2015-08-10,0.89,0.89,0.89,0.89,000,0.874
2015-08-07,0.89,0.89,0.89,0.89,000,0.874
2015-08-06,0.88,0.92,0.88,0.89,31300,0.874
2015-08-05,0.80,0.855,0.80,0.855,118700,0.84
2015-08-04,0.83,0.83,0.83,0.83,000,0.815
2015-08-03,0.82,0.83,0.82,0.83,12500,0.815
2015-07-31,0.83,0.835,0.80,0.835,70800,0.82
2015-07-30,0.80,0.83,0.80,0.83,16900,0.815
2015-07-29,0.84,0.84,0.80,0.83,49300,0.815
2015-07-28,0.84,0.84,0.84,0.84,12800,0.825
2015-07-27,0.845,0.845,0.84,0.84,3400,0.825
2015-07-24,0.85,0.85,0.82,0.85,63300,0.835
2015-07-23,0.85,0.85,0.80,0.84,60800,0.825
2015-07-22,0.85,0.85,0.85,0.85,35000,0.835
2015-07-21,0.88,0.88,0.82,0.85,100300,0.835
2015-07-20,0.88,0.88,0.86,0.86,31700,0.845
2015-07-17,0.86,0.86,0.86,0.86,000,0.845
2015-07-16,0.885,0.885,0.86,0.86,46300,0.845
2015-07-15,0.885,0.885,0.855,0.885,10400,0.869
2015-07-14,0.87,0.89,0.87,0.89,51000,0.874
2015-07-13,0.88,0.88,0.88,0.88,24100,0.864
2015-07-10,0.88,0.88,0.88,0.88,10000,0.864
2015-07-09,0.85,0.89,0.85,0.89,22200,0.864
2015-07-08,0.89,0.89,0.85,0.89,24000,0.864
2015-07-07,0.895,0.895,0.88,0.88,8000,0.855
2015-07-06,0.86,0.86,0.86,0.86,000,0.835
2015-07-03,0.86,0.86,0.86,0.86,15200,0.835
2015-07-02,0.90,0.90,0.85,0.855,15000,0.83
2015-07-01,0.86,0.86,0.82,0.86,48500,0.835
2015-06-30,0.87,0.89,0.84,0.86,38000,0.835
2015-06-29,0.90,0.90,0.87,0.90,4800,0.874
2015-06-26,0.895,0.90,0.895,0.90,25000,0.874
2015-06-25,0.96,0.96,0.895,0.90,23600,0.874
2015-06-24,0.965,0.965,0.965,0.965,12700,0.937
2015-06-23,0.94,0.965,0.94,0.965,9200,0.937
2015-06-22,0.885,0.90,0.87,0.90,62000,0.874
2015-06-19,0.86,0.88,0.86,0.88,12300,0.855
2015-06-18,0.84,0.84,0.84,0.84,3000,0.816
2015-06-17,0.84,0.84,0.84,0.84,10000,0.816
2015-06-16,0.84,0.84,0.84,0.84,13500,0.816
2015-06-15,0.84,0.84,0.84,0.84,8000,0.816
2015-06-12,0.82,0.82,0.82,0.82,11000,0.796
2015-06-11,0.765,0.82,0.75,0.82,63400,0.796
2015-06-10,0.80,0.80,0.78,0.78,150200,0.758
2015-06-09,0.83,0.83,0.80,0.80,102000,0.777
2015-06-08,0.845,0.845,0.845,0.845,000,0.821
2015-06-05,0.875,0.875,0.845,0.845,40700,0.821
2015-06-04,0.875,0.875,0.86,0.875,12600,0.85
2015-06-03,0.87,0.875,0.87,0.87,22200,0.845
2015-06-02,0.88,0.88,0.865,0.865,3300,0.84
2015-06-01,0.85,0.885,0.805,0.885,50300,0.86
2015-05-29,0.89,0.89,0.80,0.86,466900,0.835
2015-05-28,0.91,0.91,0.88,0.88,147500,0.855
2015-05-27,0.91,0.91,0.91,0.91,5000,0.884
2015-05-26,0.97,0.97,0.90,0.935,111000,0.908
2015-05-25,0.95,0.97,0.80,0.97,699800,0.942
2015-05-22,1.00,1.00,0.95,0.95,212100,0.923
2015-05-21,1.00,1.00,0.97,1.00,112200,0.971
2015-05-20,1.04,1.04,1.00,1.00,115000,0.971
2015-05-19,1.04,1.045,1.04,1.04,59700,1.01
2015-05-18,1.015,1.05,1.00,1.04,383200,1.01
2015-05-15,1.05,1.05,1.00,1.00,40100,0.971
2015-05-14,1.03,1.055,1.005,1.05,222000,1.02
2015-05-13,1.00,1.045,1.00,1.04,165600,1.01
2015-05-12,1.03,1.05,0.98,0.98,181000,0.952
2015-05-11,1.05,1.06,1.05,1.06,42400,1.03
2015-05-08,1.01,1.05,1.01,1.05,172000,1.02
2015-05-07,1.00,1.01,1.00,1.00,63600,0.971
2015-05-06,1.01,1.01,0.985,1.01,154500,0.981
2015-05-05,1.005,1.01,1.00,1.01,30300,0.981
2015-05-04,1.01,1.01,0.955,1.00,66100,0.971
2015-05-01,1.01,1.02,1.01,1.02,17500,0.991
2015-04-30,1.00,1.03,0.90,1.01,199800,0.981
2015-04-29,1.00,1.13,1.00,1.00,935900,0.971
2015-04-28,0.97,1.03,0.97,1.03,362900,1.00
2015-04-27,0.90,0.97,0.90,0.97,160100,0.942
2015-04-24,0.85,0.90,0.85,0.90,224500,0.874
2015-04-23,0.85,0.85,0.83,0.85,54200,0.826
2015-04-22,0.85,0.85,0.85,0.85,49600,0.826
2015-04-21,0.83,0.86,0.83,0.83,130000,0.806
2015-04-20,0.83,0.85,0.80,0.83,164300,0.806
2015-04-17,0.765,0.86,0.765,0.81,145000,0.787
2015-04-16,0.765,0.765,0.765,0.765,900,0.743
2015-04-15,0.85,0.86,0.75,0.765,493800,0.743
2015-04-14,0.65,0.86,0.65,0.85,790600,0.826
2015-04-13,0.57,0.655,0.57,0.65,486300,0.631
2015-04-10,0.545,0.58,0.545,0.58,322200,0.563
2015-04-09,0.54,0.545,0.54,0.545,60000,0.529
2015-04-08,0.545,0.55,0.54,0.54,162200,0.524
2015-04-07,0.52,0.54,0.52,0.54,176500,0.524
2015-04-06,0.52,0.52,0.52,0.52,000,0.505
2015-04-03,0.52,0.52,0.52,0.52,000,0.505
2015-04-02,0.52,0.52,0.52,0.52,4500,0.505
2015-04-01,0.50,0.50,0.48,0.49,40300,0.476
2015-03-31,0.50,0.52,0.50,0.52,184000,0.505
2015-03-30,0.48,0.48,0.44,0.44,196000,0.427
2015-03-27,0.495,0.505,0.495,0.505,105500,0.49
2015-03-26,0.50,0.50,0.495,0.495,34000,0.481
2015-03-25,0.54,0.54,0.505,0.52,123600,0.505
2015-03-24,0.52,0.535,0.515,0.535,297800,0.52
2015-03-23,0.505,0.52,0.505,0.52,182600,0.505
2015-03-20,0.50,0.505,0.50,0.505,191000,0.49
2015-03-19,0.50,0.50,0.50,0.50,86400,0.486
2015-03-18,0.47,0.49,0.47,0.49,147400,0.476
2015-03-17,0.46,0.465,0.46,0.465,48000,0.452
2015-03-16,0.46,0.46,0.46,0.46,7700,0.447
2015-03-13,0.465,0.465,0.46,0.46,60900,0.447
2015-03-12,0.46,0.46,0.45,0.46,216400,0.447
2015-03-11,0.45,0.46,0.44,0.46,55800,0.447
2015-03-10,0.44,0.475,0.42,0.45,167700,0.437
2015-03-09,0.40,0.43,0.39,0.43,488900,0.418
2015-03-06,0.40,0.40,0.385,0.40,90100,0.389
2015-03-05,0.40,0.40,0.39,0.40,89100,0.389
2015-03-04,0.395,0.40,0.395,0.40,54300,0.389
2015-03-03,0.40,0.40,0.39,0.39,90700,0.379
2015-03-02,0.40,0.40,0.40,0.40,16000,0.389
2015-02-27,0.40,0.40,0.40,0.40,45500,0.389
2015-02-26,0.40,0.40,0.39,0.40,80300,0.389
2015-02-25,0.405,0.41,0.405,0.41,162000,0.398
2015-02-24,0.41,0.41,0.40,0.405,174200,0.393
2015-02-23,0.41,0.41,0.40,0.40,46000,0.389
2015-02-20,0.41,0.41,0.41,0.41,5000,0.398
2015-02-19,0.405,0.405,0.405,0.405,000,0.393
2015-02-18,0.40,0.405,0.40,0.405,54000,0.393
2015-02-17,0.405,0.405,0.40,0.40,56400,0.389
2015-02-16,0.41,0.41,0.385,0.385,68400,0.374
2015-02-13,0.40,0.40,0.40,0.40,24400,0.389
2015-02-12,0.41,0.41,0.40,0.40,63000,0.389
2015-02-11,0.40,0.40,0.38,0.40,36400,0.389
2015-02-10,0.40,0.41,0.40,0.41,40000,0.398
2015-02-09,0.405,0.405,0.40,0.40,113300,0.389
2015-02-06,0.40,0.40,0.39,0.39,287300,0.379
2015-02-05,0.405,0.405,0.40,0.40,155500,0.389
2015-02-04,0.405,0.405,0.40,0.40,110000,0.389
2015-02-03,0.41,0.41,0.40,0.40,242000,0.389
2015-02-02,0.41,0.41,0.40,0.41,69600,0.398
2015-01-30,0.415,0.415,0.41,0.41,130300,0.398
2015-01-29,0.415,0.415,0.415,0.415,34300,0.403
2015-01-28,0.40,0.415,0.40,0.415,194900,0.403
2015-01-27,0.41,0.43,0.40,0.40,1544600,0.389
2015-01-26,0.40,0.40,0.40,0.40,000,0.389
2015-01-23,0.38,0.40,0.38,0.40,173800,0.389
2015-01-22,0.37,0.38,0.37,0.375,219900,0.364
2015-01-21,0.355,0.375,0.355,0.375,388000,0.364
2015-01-20,0.345,0.35,0.345,0.35,199900,0.34
2015-01-19,0.34,0.345,0.34,0.345,34000,0.335
2015-01-16,0.34,0.34,0.34,0.34,60000,0.33
2015-01-15,0.335,0.345,0.335,0.345,108700,0.335
2015-01-14,0.33,0.33,0.33,0.33,000,0.321
2015-01-13,0.33,0.33,0.33,0.33,000,0.321
2015-01-12,0.33,0.33,0.33,0.33,000,0.321
2015-01-09,0.33,0.33,0.33,0.33,000,0.321
2015-01-08,0.335,0.335,0.33,0.33,41000,0.321
2015-01-07,0.335,0.335,0.335,0.335,10000,0.325
2015-01-06,0.335,0.335,0.335,0.335,000,0.325
2015-01-05,0.335,0.335,0.32,0.335,83000,0.325
2015-01-02,0.34,0.345,0.34,0.34,112700,0.33
2015-01-01,0.33,0.33,0.33,0.33,000,0.321
2014-12-31,0.29,0.33,0.29,0.33,196300,0.321
2014-12-30,0.32,0.32,0.295,0.295,14700,0.287
2014-12-29,0.34,0.34,0.33,0.33,50000,0.321
2014-12-26,0.34,0.34,0.34,0.34,000,0.33
2014-12-25,0.34,0.34,0.34,0.34,000,0.33
2014-12-24,0.34,0.34,0.34,0.34,26000,0.33
2014-12-23,0.35,0.35,0.33,0.34,54400,0.33
2014-12-22,0.355,0.36,0.345,0.35,333000,0.34
2014-12-19,0.385,0.385,0.35,0.35,582800,0.34
2014-12-18,0.32,0.39,0.32,0.385,1720700,0.374
2014-12-17,0.25,0.32,0.25,0.31,2294300,0.301
