Date,Open,High,Low,Close,Volume,Adj Close
2017-01-10,0.07,0.072,0.07,0.072,21500,0.072
2017-01-09,0.072,0.072,0.072,0.072,000,0.072
2017-01-06,0.072,0.072,0.072,0.072,000,0.072
2017-01-05,0.072,0.072,0.072,0.072,000,0.072
2017-01-04,0.072,0.072,0.072,0.072,000,0.072
2017-01-03,0.072,0.072,0.072,0.072,000,0.072
2017-01-02,0.072,0.072,0.072,0.072,000,0.072
2016-12-30,0.072,0.072,0.072,0.072,10000,0.072
2016-12-29,0.07,0.07,0.07,0.07,000,0.07
2016-12-28,0.07,0.07,0.07,0.07,000,0.07
2016-12-27,0.07,0.07,0.07,0.07,000,0.07
2016-12-26,0.07,0.07,0.07,0.07,000,0.07
2016-12-23,0.07,0.07,0.07,0.07,000,0.07
2016-12-22,0.07,0.07,0.07,0.07,000,0.07
2016-12-21,0.07,0.07,0.07,0.07,000,0.07
2016-12-20,0.07,0.07,0.07,0.07,000,0.07
2016-12-19,0.07,0.07,0.07,0.07,000,0.07
2016-12-16,0.07,0.07,0.07,0.07,000,0.07
2016-12-15,0.07,0.07,0.07,0.07,000,0.07
2016-12-14,0.07,0.07,0.07,0.07,000,0.07
2016-12-13,0.07,0.07,0.07,0.07,000,0.07
2016-12-12,0.07,0.07,0.07,0.07,000,0.07
2016-12-09,0.07,0.07,0.07,0.07,000,0.07
2016-12-08,0.07,0.07,0.07,0.07,000,0.07
2016-12-07,0.07,0.07,0.07,0.07,000,0.07
2016-12-06,0.07,0.07,0.07,0.07,000,0.07
2016-12-05,0.07,0.07,0.07,0.07,000,0.07
2016-12-02,0.07,0.07,0.07,0.07,000,0.07
2016-12-01,0.07,0.07,0.07,0.07,136000,0.07
2016-11-30,0.06,0.06,0.06,0.06,21700,0.06
2016-11-29,0.05,0.05,0.05,0.05,000,0.05
2016-11-28,0.05,0.05,0.05,0.05,000,0.05
2016-11-25,0.05,0.05,0.05,0.05,000,0.05
2016-11-24,0.05,0.05,0.05,0.05,000,0.05
2016-11-23,0.05,0.05,0.05,0.05,000,0.05
2016-11-22,0.05,0.05,0.05,0.05,4700,0.05
2016-11-21,0.07,0.07,0.07,0.07,000,0.07
2016-11-18,0.07,0.07,0.07,0.07,000,0.07
2016-11-17,0.07,0.07,0.07,0.07,000,0.07
2016-11-16,0.07,0.07,0.07,0.07,000,0.07
2016-11-15,0.07,0.07,0.07,0.07,000,0.07
2016-11-14,0.07,0.07,0.07,0.07,000,0.07
2016-11-11,0.07,0.07,0.07,0.07,000,0.07
2016-11-10,0.07,0.07,0.07,0.07,000,0.07
2016-11-09,0.07,0.07,0.07,0.07,000,0.07
2016-11-08,0.07,0.07,0.07,0.07,000,0.07
2016-11-07,0.07,0.07,0.07,0.07,000,0.07
2016-11-04,0.07,0.07,0.07,0.07,000,0.07
2016-11-03,0.07,0.07,0.07,0.07,000,0.07
2016-11-02,0.07,0.07,0.07,0.07,000,0.07
2016-11-01,0.07,0.07,0.07,0.07,000,0.07
2016-10-31,0.07,0.07,0.07,0.07,000,0.07
2016-10-28,0.07,0.07,0.07,0.07,000,0.07
2016-10-27,0.07,0.07,0.07,0.07,19500,0.07
2016-10-26,0.05,0.05,0.05,0.05,1000,0.05
2016-10-25,0.08,0.08,0.08,0.08,000,0.08
2016-10-24,0.08,0.08,0.08,0.08,000,0.08
2016-10-21,0.08,0.08,0.08,0.08,000,0.08
2016-10-20,0.08,0.08,0.08,0.08,000,0.08
2016-10-19,0.08,0.08,0.08,0.08,000,0.08
2016-10-18,0.08,0.08,0.08,0.08,000,0.08
2016-10-17,0.08,0.08,0.08,0.08,000,0.08
2016-10-14,0.08,0.08,0.08,0.08,000,0.08
2016-10-13,0.08,0.08,0.08,0.08,000,0.08
2016-10-12,0.08,0.08,0.08,0.08,000,0.08
2016-10-11,0.08,0.08,0.08,0.08,000,0.08
2016-10-10,0.08,0.08,0.08,0.08,000,0.08
2016-10-07,0.08,0.08,0.08,0.08,000,0.08
2016-10-06,0.08,0.08,0.08,0.08,000,0.08
2016-10-05,0.06,0.08,0.06,0.08,21700,0.08
2016-10-04,0.08,0.08,0.08,0.08,000,0.08
2016-10-03,0.08,0.08,0.08,0.08,000,0.08
2016-09-30,0.08,0.08,0.08,0.08,000,0.08
2016-09-29,0.08,0.08,0.08,0.08,000,0.08
2016-09-28,0.08,0.08,0.08,0.08,000,0.08
2016-09-27,0.08,0.08,0.08,0.08,000,0.08
2016-09-26,0.08,0.08,0.08,0.08,000,0.08
2016-09-23,0.08,0.08,0.08,0.08,000,0.08
2016-09-22,0.08,0.08,0.08,0.08,13000,0.08
2016-09-21,0.08,0.08,0.08,0.08,000,0.08
2016-09-20,0.08,0.08,0.08,0.08,000,0.08
2016-09-19,0.08,0.08,0.08,0.08,000,0.08
2016-09-16,0.08,0.08,0.08,0.08,20000,0.08
2016-09-15,0.08,0.08,0.08,0.08,000,0.08
2016-09-14,0.08,0.08,0.08,0.08,000,0.08
2016-09-13,0.08,0.08,0.08,0.08,000,0.08
2016-09-12,0.08,0.08,0.08,0.08,000,0.08
2016-09-09,0.08,0.08,0.08,0.08,000,0.08
2016-09-08,0.08,0.08,0.08,0.08,000,0.08
2016-09-07,0.08,0.08,0.08,0.08,000,0.08
2016-09-06,0.08,0.08,0.08,0.08,36700,0.08
2016-09-05,0.08,0.08,0.08,0.08,000,0.08
2016-09-02,0.08,0.08,0.08,0.08,000,0.08
2016-09-01,0.08,0.08,0.08,0.08,000,0.08
2016-08-31,0.08,0.08,0.08,0.08,000,0.08
2016-08-30,0.08,0.08,0.08,0.08,000,0.08
2016-08-29,0.08,0.08,0.08,0.08,000,0.08
2016-08-26,0.08,0.08,0.08,0.08,000,0.08
2016-08-25,0.08,0.08,0.08,0.08,000,0.08
2016-08-24,0.08,0.08,0.08,0.08,000,0.08
2016-08-23,0.08,0.08,0.08,0.08,20000,0.08
2016-08-22,0.08,0.08,0.08,0.08,126500,0.08
2016-08-19,0.08,0.08,0.08,0.08,000,0.08
2016-08-18,0.08,0.08,0.08,0.08,4200,0.08
2016-08-17,0.08,0.08,0.08,0.08,000,0.08
2016-08-16,0.08,0.08,0.08,0.08,000,0.08
2016-08-15,0.08,0.08,0.08,0.08,000,0.08
2016-08-12,0.08,0.08,0.08,0.08,000,0.08
2016-08-11,0.08,0.08,0.08,0.08,000,0.08
2016-08-10,0.08,0.08,0.08,0.08,000,0.08
2016-08-09,0.08,0.08,0.08,0.08,000,0.08
2016-08-08,0.08,0.08,0.08,0.08,19500,0.08
2016-08-05,0.08,0.08,0.08,0.08,000,0.08
2016-08-04,0.08,0.08,0.08,0.08,000,0.08
2016-08-03,0.08,0.08,0.08,0.08,000,0.08
2016-08-02,0.08,0.08,0.08,0.08,000,0.08
2016-08-01,0.08,0.08,0.08,0.08,000,0.08
2016-07-29,0.08,0.08,0.08,0.08,000,0.08
2016-07-28,0.08,0.08,0.08,0.08,000,0.08
2016-07-27,0.08,0.08,0.08,0.08,000,0.08
2016-07-26,0.08,0.08,0.08,0.08,000,0.08
2016-07-25,0.08,0.08,0.08,0.08,6500,0.08
2016-07-22,0.08,0.08,0.08,0.08,8000,0.08
2016-07-21,0.08,0.08,0.08,0.08,000,0.08
2016-07-20,0.08,0.08,0.08,0.08,000,0.08
2016-07-19,0.08,0.08,0.08,0.08,700,0.08
2016-07-18,0.08,0.08,0.08,0.08,000,0.08
2016-07-15,0.08,0.08,0.08,0.08,000,0.08
2016-07-14,0.08,0.08,0.08,0.08,000,0.08
2016-07-13,0.08,0.08,0.08,0.08,000,0.08
2016-07-12,0.08,0.08,0.08,0.08,000,0.08
2016-07-11,0.08,0.08,0.08,0.08,8000,0.08
2016-07-08,0.08,0.08,0.08,0.08,000,0.08
2016-07-07,0.08,0.08,0.08,0.08,47900,0.08
2016-07-06,0.08,0.08,0.08,0.08,000,0.08
2016-07-05,0.08,0.08,0.08,0.08,000,0.08
2016-07-04,0.08,0.08,0.08,0.08,000,0.08
2016-07-01,0.08,0.08,0.08,0.08,000,0.08
2016-06-30,0.08,0.08,0.08,0.08,000,0.08
2016-06-29,0.08,0.08,0.08,0.08,24000,0.08
2016-06-28,0.08,0.08,0.08,0.08,18300,0.08
2016-06-27,0.08,0.08,0.08,0.08,000,0.08
2016-06-24,0.08,0.08,0.08,0.08,300,0.08
2016-06-23,0.08,0.08,0.08,0.08,000,0.08
2016-06-22,0.08,0.08,0.08,0.08,18000,0.08
2016-06-21,0.08,0.08,0.08,0.08,000,0.08
2016-06-20,0.08,0.08,0.08,0.08,11200,0.08
2016-06-17,0.08,0.08,0.08,0.08,26500,0.08
2016-06-16,0.075,0.075,0.075,0.075,000,0.075
2016-06-15,0.075,0.075,0.075,0.075,000,0.075
2016-06-14,0.075,0.075,0.075,0.075,000,0.075
2016-06-13,0.075,0.075,0.075,0.075,000,0.075
2016-06-10,0.075,0.075,0.075,0.075,000,0.075
2016-06-09,0.075,0.075,0.075,0.075,3500,0.075
2016-06-08,0.05,0.05,0.05,0.05,3000,0.05
2016-06-07,0.075,0.075,0.075,0.075,000,0.075
2016-06-06,0.05,0.075,0.05,0.075,25500,0.075
2016-06-03,0.075,0.075,0.075,0.075,000,0.075
2016-06-02,0.065,0.075,0.065,0.075,15900,0.075
2016-06-01,0.08,0.08,0.08,0.08,000,0.08
2016-05-31,0.08,0.08,0.08,0.08,000,0.08
2016-05-30,0.08,0.08,0.08,0.08,000,0.08
2016-05-27,0.08,0.08,0.08,0.08,000,0.08
2016-05-26,0.08,0.08,0.08,0.08,000,0.08
2016-05-25,0.08,0.08,0.08,0.08,000,0.08
2016-05-24,0.08,0.08,0.08,0.08,000,0.08
2016-05-23,0.08,0.08,0.08,0.08,000,0.08
2016-05-20,0.08,0.08,0.08,0.08,000,0.08
2016-05-19,0.08,0.08,0.08,0.08,000,0.08
2016-05-18,0.08,0.08,0.08,0.08,000,0.08
2016-05-17,0.08,0.08,0.08,0.08,000,0.08
2016-05-16,0.08,0.08,0.08,0.08,000,0.08
2016-05-13,0.08,0.08,0.08,0.08,000,0.08
2016-05-12,0.08,0.08,0.08,0.08,000,0.08
2016-05-11,0.08,0.08,0.08,0.08,000,0.08
2016-05-10,0.08,0.08,0.08,0.08,24200,0.08
2016-05-09,0.08,0.08,0.08,0.08,000,0.08
2016-05-06,0.08,0.08,0.08,0.08,000,0.08
2016-05-05,0.08,0.08,0.08,0.08,000,0.08
2016-05-04,0.08,0.08,0.08,0.08,1400,0.08
2016-05-03,0.08,0.08,0.08,0.08,000,0.08
2016-05-02,0.08,0.08,0.08,0.08,7000,0.08
2016-04-29,0.08,0.08,0.08,0.08,000,0.08
2016-04-28,0.08,0.08,0.08,0.08,000,0.08
2016-04-27,0.08,0.08,0.08,0.08,300000,0.08
2016-04-26,0.08,0.08,0.08,0.08,000,0.08
2016-04-25,0.08,0.08,0.08,0.08,000,0.08
2016-04-22,0.08,0.08,0.08,0.08,000,0.08
2016-04-21,0.08,0.08,0.08,0.08,000,0.08
2016-04-20,0.08,0.08,0.08,0.08,6500,0.08
2016-04-19,0.08,0.08,0.08,0.08,8200,0.08
2016-04-18,0.09,0.09,0.09,0.09,000,0.09
2016-04-15,0.09,0.09,0.09,0.09,000,0.09
2016-04-14,0.09,0.09,0.09,0.09,000,0.09
2016-04-13,0.09,0.09,0.09,0.09,000,0.09
2016-04-12,0.09,0.09,0.09,0.09,000,0.09
2016-04-11,0.09,0.09,0.09,0.09,000,0.09
2016-04-08,0.09,0.09,0.09,0.09,000,0.09
2016-04-07,0.09,0.09,0.09,0.09,000,0.09
2016-04-06,0.09,0.09,0.09,0.09,100000,0.09
2016-04-05,0.08,0.08,0.08,0.08,000,0.08
2016-04-04,0.08,0.08,0.08,0.08,000,0.08
2016-04-01,0.08,0.08,0.08,0.08,000,0.08
2016-03-31,0.08,0.08,0.08,0.08,000,0.08
2016-03-30,0.08,0.08,0.08,0.08,000,0.08
2016-03-29,0.08,0.08,0.08,0.08,000,0.08
2016-03-28,0.08,0.08,0.08,0.08,000,0.08
2016-03-25,0.08,0.08,0.08,0.08,000,0.08
2016-03-24,0.08,0.08,0.08,0.08,000,0.08
2016-03-23,0.08,0.08,0.08,0.08,000,0.08
2016-03-22,0.08,0.08,0.08,0.08,000,0.08
2016-03-21,0.08,0.08,0.08,0.08,000,0.08
2016-03-18,0.08,0.08,0.08,0.08,000,0.08
2016-03-17,0.08,0.08,0.08,0.08,70000,0.08
2016-03-16,0.08,0.08,0.08,0.08,000,0.08
2016-03-15,0.08,0.08,0.08,0.08,25300,0.08
2016-03-14,0.081,0.081,0.081,0.081,000,0.081
2016-03-11,0.08,0.081,0.08,0.081,29900,0.081
2016-03-10,0.10,0.10,0.10,0.10,000,0.10
2016-03-09,0.10,0.10,0.10,0.10,000,0.10
2016-03-08,0.10,0.10,0.10,0.10,000,0.10
2016-03-07,0.10,0.10,0.10,0.10,000,0.10
2016-03-04,0.10,0.10,0.10,0.10,000,0.10
2016-03-03,0.10,0.10,0.10,0.10,000,0.10
2016-03-02,0.10,0.10,0.10,0.10,000,0.10
2016-03-01,0.10,0.10,0.10,0.10,000,0.10
2016-02-29,0.10,0.10,0.10,0.10,000,0.10
2016-02-26,0.10,0.10,0.10,0.10,000,0.10
2016-02-25,0.10,0.10,0.10,0.10,000,0.10
2016-02-24,0.10,0.10,0.10,0.10,000,0.10
2016-02-23,0.10,0.10,0.10,0.10,000,0.10
2016-02-22,0.10,0.10,0.10,0.10,000,0.10
2016-02-19,0.10,0.10,0.10,0.10,000,0.10
2016-02-18,0.10,0.10,0.10,0.10,000,0.10
2016-02-17,0.10,0.10,0.10,0.10,000,0.10
2016-02-16,0.10,0.10,0.10,0.10,102300,0.10
2016-02-15,0.10,0.10,0.10,0.10,000,0.10
2016-02-12,0.10,0.10,0.10,0.10,000,0.10
2016-02-11,0.10,0.10,0.10,0.10,000,0.10
2016-02-10,0.10,0.10,0.10,0.10,100,0.10
2016-02-09,0.125,0.125,0.125,0.125,700,0.125
2016-02-08,0.125,0.125,0.125,0.125,000,0.125
2016-02-05,0.125,0.125,0.125,0.125,000,0.125
2016-02-04,0.125,0.125,0.125,0.125,12800,0.125
2016-02-03,0.11,0.11,0.11,0.11,000,0.11
2016-02-02,0.11,0.11,0.11,0.11,000,0.11
2016-02-01,0.10,0.11,0.10,0.11,63400,0.11
2016-01-29,0.10,0.10,0.10,0.10,000,0.10
2016-01-28,0.10,0.10,0.10,0.10,000,0.10
2016-01-27,0.10,0.10,0.10,0.10,000,0.10
2016-01-26,0.10,0.10,0.10,0.10,000,0.10
2016-01-25,0.10,0.10,0.10,0.10,700,0.10
2016-01-22,0.10,0.10,0.10,0.10,000,0.10
2016-01-21,0.10,0.10,0.10,0.10,000,0.10
2016-01-20,0.10,0.10,0.10,0.10,000,0.10
2016-01-19,0.10,0.10,0.10,0.10,000,0.10
2016-01-18,0.10,0.10,0.10,0.10,000,0.10
2016-01-15,0.10,0.10,0.10,0.10,000,0.10
2016-01-14,0.10,0.10,0.10,0.10,000,0.10
2016-01-13,0.10,0.10,0.10,0.10,000,0.10
2016-01-12,0.10,0.10,0.10,0.10,000,0.10
2016-01-11,0.10,0.10,0.10,0.10,000,0.10
2016-01-08,0.10,0.10,0.10,0.10,000,0.10
2016-01-07,0.10,0.10,0.10,0.10,000,0.10
2016-01-06,0.10,0.10,0.10,0.10,000,0.10
2016-01-05,0.10,0.10,0.10,0.10,000,0.10
2016-01-04,0.10,0.10,0.10,0.10,000,0.10
2016-01-01,0.10,0.10,0.10,0.10,000,0.10
2015-12-31,0.10,0.10,0.10,0.10,000,0.10
2015-12-30,0.10,0.10,0.10,0.10,000,0.10
2015-12-29,0.10,0.10,0.10,0.10,000,0.10
2015-12-28,0.10,0.10,0.10,0.10,000,0.10
2015-12-25,0.10,0.10,0.10,0.10,000,0.10
2015-12-24,0.10,0.10,0.10,0.10,000,0.10
2015-12-23,0.10,0.10,0.10,0.10,000,0.10
2015-12-22,0.10,0.10,0.10,0.10,000,0.10
2015-12-21,0.10,0.10,0.10,0.10,000,0.10
2015-12-18,0.10,0.10,0.10,0.10,11100,0.10
2015-12-17,0.10,0.10,0.10,0.10,000,0.10
2015-12-16,0.10,0.10,0.10,0.10,000,0.10
2015-12-15,0.10,0.10,0.10,0.10,000,0.10
2015-12-14,0.10,0.10,0.10,0.10,000,0.10
2015-12-11,0.10,0.10,0.10,0.10,000,0.10
2015-12-10,0.10,0.10,0.10,0.10,000,0.10
2015-12-09,0.10,0.10,0.10,0.10,000,0.10
2015-12-08,0.10,0.10,0.10,0.10,000,0.10
2015-12-07,0.10,0.10,0.10,0.10,000,0.10
2015-12-04,0.10,0.10,0.10,0.10,000,0.10
2015-12-03,0.10,0.10,0.10,0.10,000,0.10
2015-12-02,0.10,0.10,0.10,0.10,000,0.10
2015-12-01,0.10,0.10,0.10,0.10,000,0.10
2015-11-30,0.10,0.10,0.10,0.10,000,0.10
2015-11-27,0.10,0.10,0.10,0.10,11800,0.10
2015-11-26,0.10,0.10,0.10,0.10,000,0.10
2015-11-25,0.10,0.10,0.10,0.10,000,0.10
2015-11-24,0.10,0.10,0.10,0.10,000,0.10
2015-11-23,0.10,0.10,0.10,0.10,000,0.10
2015-11-20,0.10,0.10,0.10,0.10,000,0.10
2015-11-19,0.10,0.10,0.10,0.10,000,0.10
2015-11-18,0.10,0.10,0.10,0.10,000,0.10
2015-11-17,0.10,0.10,0.10,0.10,000,0.10
2015-11-16,0.10,0.10,0.10,0.10,000,0.10
2015-11-13,0.10,0.10,0.10,0.10,000,0.10
2015-11-12,0.10,0.10,0.10,0.10,000,0.10
2015-11-11,0.10,0.10,0.10,0.10,000,0.10
2015-11-10,0.10,0.10,0.10,0.10,000,0.10
2015-11-09,0.10,0.10,0.10,0.10,000,0.10
2015-11-06,0.10,0.10,0.10,0.10,000,0.10
2015-11-05,0.10,0.10,0.10,0.10,000,0.10
2015-11-04,0.10,0.10,0.10,0.10,000,0.10
2015-11-03,0.10,0.10,0.10,0.10,000,0.10
2015-11-02,0.10,0.10,0.10,0.10,000,0.10
2015-10-30,0.10,0.10,0.10,0.10,000,0.10
2015-10-29,0.10,0.10,0.10,0.10,000,0.10
2015-10-28,0.10,0.10,0.10,0.10,000,0.10
2015-10-27,0.10,0.10,0.10,0.10,100000,0.10
2015-10-26,0.10,0.10,0.10,0.10,000,0.10
2015-10-23,0.10,0.10,0.10,0.10,000,0.10
2015-10-22,0.10,0.10,0.10,0.10,000,0.10
2015-10-21,0.10,0.10,0.10,0.10,50900,0.10
2015-10-20,0.10,0.10,0.10,0.10,000,0.10
2015-10-19,0.10,0.10,0.10,0.10,30000,0.10
2015-10-16,0.10,0.10,0.10,0.10,000,0.10
2015-10-15,0.10,0.10,0.10,0.10,000,0.10
2015-10-14,0.10,0.10,0.10,0.10,000,0.10
2015-10-13,0.10,0.10,0.10,0.10,34800,0.10
2015-10-12,0.10,0.10,0.10,0.10,000,0.10
2015-10-09,0.10,0.10,0.10,0.10,000,0.10
2015-10-08,0.10,0.10,0.10,0.10,30500,0.10
2015-10-07,0.10,0.10,0.10,0.10,000,0.10
2015-10-06,0.10,0.10,0.10,0.10,000,0.10
2015-10-05,0.10,0.10,0.10,0.10,000,0.10
2015-10-02,0.10,0.10,0.10,0.10,000,0.10
2015-10-01,0.10,0.10,0.10,0.10,100000,0.10
2015-09-30,0.10,0.10,0.10,0.10,000,0.10
2015-09-29,0.10,0.10,0.10,0.10,000,0.10
2015-09-28,0.10,0.10,0.10,0.10,000,0.10
2015-09-25,0.10,0.10,0.10,0.10,000,0.10
2015-09-24,0.10,0.10,0.10,0.10,000,0.10
2015-09-23,0.10,0.10,0.10,0.10,27500,0.10
2015-09-22,0.105,0.105,0.10,0.10,250800,0.10
2015-09-21,0.105,0.105,0.105,0.105,000,0.105
2015-09-18,0.105,0.105,0.105,0.105,000,0.105
2015-09-17,0.105,0.105,0.105,0.105,1300,0.105
2015-09-16,0.12,0.12,0.12,0.12,000,0.12
2015-09-15,0.12,0.12,0.12,0.12,000,0.12
2015-09-14,0.12,0.12,0.12,0.12,000,0.12
2015-09-11,0.12,0.12,0.12,0.12,000,0.12
2015-09-10,0.12,0.12,0.12,0.12,000,0.12
2015-09-09,0.12,0.12,0.12,0.12,500,0.12
2015-09-08,0.12,0.12,0.12,0.12,000,0.12
2015-09-07,0.12,0.12,0.12,0.12,000,0.12
2015-09-04,0.12,0.12,0.12,0.12,000,0.12
2015-09-03,0.12,0.12,0.12,0.12,4500,0.12
2015-09-02,0.12,0.12,0.12,0.12,000,0.12
2015-09-01,0.12,0.12,0.12,0.12,000,0.12
2015-08-31,0.12,0.12,0.12,0.12,000,0.12
2015-08-28,0.12,0.12,0.12,0.12,11000,0.12
2015-08-27,0.105,0.105,0.105,0.105,000,0.105
2015-08-26,0.105,0.105,0.105,0.105,12000,0.105
2015-08-25,0.135,0.135,0.135,0.135,000,0.135
2015-08-24,0.135,0.135,0.135,0.135,000,0.135
2015-08-21,0.135,0.135,0.135,0.135,10200,0.135
2015-08-20,0.13,0.13,0.13,0.13,11100,0.13
2015-08-19,0.115,0.115,0.115,0.115,000,0.115
2015-08-18,0.105,0.115,0.105,0.115,81500,0.115
2015-08-17,0.105,0.105,0.105,0.105,000,0.105
2015-08-14,0.105,0.105,0.105,0.105,2800,0.105
2015-08-13,0.105,0.105,0.105,0.105,000,0.105
2015-08-12,0.105,0.105,0.105,0.105,000,0.105
2015-08-11,0.105,0.105,0.105,0.105,000,0.105
2015-08-10,0.105,0.105,0.105,0.105,000,0.105
2015-08-07,0.105,0.105,0.105,0.105,30000,0.105
2015-08-06,0.11,0.11,0.105,0.105,36200,0.105
2015-08-05,0.11,0.11,0.11,0.11,000,0.11
2015-08-04,0.11,0.11,0.11,0.11,000,0.11
2015-08-03,0.11,0.11,0.11,0.11,000,0.11
2015-07-31,0.11,0.11,0.11,0.11,000,0.11
2015-07-30,0.11,0.11,0.11,0.11,000,0.11
2015-07-29,0.11,0.11,0.11,0.11,000,0.11
2015-07-28,0.11,0.11,0.11,0.11,000,0.11
2015-07-27,0.11,0.11,0.11,0.11,5500,0.11
2015-07-24,0.105,0.105,0.105,0.105,000,0.105
2015-07-23,0.105,0.105,0.105,0.105,000,0.105
2015-07-22,0.105,0.105,0.105,0.105,000,0.105
2015-07-21,0.105,0.105,0.105,0.105,000,0.105
2015-07-20,0.105,0.105,0.105,0.105,000,0.105
2015-07-17,0.105,0.105,0.105,0.105,000,0.105
2015-07-16,0.105,0.105,0.105,0.105,000,0.105
2015-07-15,0.105,0.105,0.105,0.105,300,0.105
2015-07-14,0.105,0.105,0.105,0.105,4200,0.105
2015-07-13,0.105,0.105,0.105,0.105,000,0.105
2015-07-10,0.105,0.105,0.105,0.105,000,0.105
2015-07-09,0.105,0.105,0.105,0.105,000,0.105
2015-07-08,0.105,0.105,0.105,0.105,000,0.105
2015-07-07,0.105,0.105,0.105,0.105,000,0.105
2015-07-06,0.105,0.105,0.105,0.105,000,0.105
2015-07-03,0.105,0.105,0.105,0.105,000,0.105
2015-07-02,0.105,0.105,0.105,0.105,000,0.105
2015-07-01,0.105,0.105,0.105,0.105,000,0.105
2015-06-30,0.105,0.105,0.105,0.105,12700,0.105
2015-06-29,0.105,0.105,0.105,0.105,000,0.105
2015-06-26,0.105,0.105,0.105,0.105,000,0.105
2015-06-25,0.105,0.105,0.105,0.105,8000,0.105
2015-06-24,0.11,0.11,0.11,0.11,130000,0.11
2015-06-23,0.105,0.105,0.105,0.105,29000,0.105
2015-06-22,0.105,0.105,0.105,0.105,000,0.105
2015-06-19,0.105,0.105,0.105,0.105,4200,0.105
2015-06-18,0.105,0.105,0.105,0.105,000,0.105
2015-06-17,0.105,0.105,0.105,0.105,000,0.105
2015-06-16,0.105,0.105,0.105,0.105,000,0.105
2015-06-15,0.105,0.105,0.105,0.105,000,0.105
2015-06-12,0.105,0.105,0.105,0.105,000,0.105
2015-06-11,0.105,0.105,0.105,0.105,5000,0.105
2015-06-10,0.105,0.105,0.105,0.105,000,0.105
2015-06-09,0.105,0.105,0.105,0.105,000,0.105
2015-06-08,0.105,0.105,0.105,0.105,000,0.105
2015-06-05,0.105,0.105,0.105,0.105,000,0.105
2015-06-04,0.105,0.105,0.105,0.105,000,0.105
2015-06-03,0.105,0.105,0.105,0.105,16000,0.105
2015-06-02,0.10,0.10,0.10,0.10,000,0.10
2015-06-01,0.10,0.10,0.10,0.10,000,0.10
2015-05-29,0.10,0.10,0.10,0.10,000,0.10
2015-05-28,0.10,0.10,0.10,0.10,000,0.10
2015-05-27,0.10,0.10,0.10,0.10,000,0.10
2015-05-26,0.10,0.10,0.10,0.10,000,0.10
2015-05-25,0.10,0.10,0.10,0.10,6000,0.10
2015-05-22,0.10,0.10,0.10,0.10,5000,0.10
2015-05-21,0.10,0.10,0.10,0.10,000,0.10
2015-05-20,0.10,0.10,0.10,0.10,3300,0.10
2015-05-19,0.105,0.105,0.105,0.105,000,0.105
2015-05-18,0.105,0.105,0.105,0.105,000,0.105
2015-05-15,0.105,0.105,0.105,0.105,000,0.105
2015-05-14,0.105,0.105,0.105,0.105,000,0.105
2015-05-13,0.105,0.105,0.105,0.105,000,0.105
2015-05-12,0.105,0.105,0.105,0.105,000,0.105
2015-05-11,0.105,0.105,0.105,0.105,000,0.105
2015-05-08,0.105,0.105,0.105,0.105,000,0.105
2015-05-07,0.105,0.105,0.105,0.105,000,0.105
2015-05-06,0.105,0.105,0.105,0.105,000,0.105
2015-05-05,0.105,0.105,0.105,0.105,58000,0.105
2015-05-04,0.11,0.11,0.11,0.11,6800,0.11
2015-05-01,0.11,0.11,0.11,0.11,1100,0.11
2015-04-30,0.10,0.10,0.10,0.10,000,0.10
2015-04-29,0.10,0.10,0.10,0.10,000,0.10
2015-04-28,0.10,0.10,0.10,0.10,000,0.10
2015-04-27,0.10,0.10,0.10,0.10,000,0.10
2015-04-24,0.10,0.10,0.10,0.10,000,0.10
2015-04-23,0.10,0.10,0.10,0.10,000,0.10
2015-04-22,0.10,0.10,0.10,0.10,000,0.10
2015-04-21,0.10,0.10,0.10,0.10,000,0.10
2015-04-20,0.10,0.10,0.10,0.10,000,0.10
2015-04-17,0.10,0.10,0.10,0.10,000,0.10
2015-04-16,0.10,0.10,0.10,0.10,000,0.10
2015-04-15,0.10,0.10,0.10,0.10,000,0.10
2015-04-14,0.10,0.10,0.10,0.10,000,0.10
2015-04-13,0.10,0.10,0.10,0.10,000,0.10
2015-04-10,0.10,0.10,0.10,0.10,000,0.10
2015-04-09,0.10,0.10,0.10,0.10,000,0.10
2015-04-08,0.10,0.10,0.10,0.10,3300,0.10
2015-04-07,0.10,0.10,0.10,0.10,000,0.10
2015-04-06,0.10,0.10,0.10,0.10,000,0.10
2015-04-03,0.10,0.10,0.10,0.10,000,0.10
2015-04-02,0.10,0.10,0.10,0.10,000,0.10
2015-04-01,0.10,0.10,0.10,0.10,000,0.10
2015-03-31,0.10,0.10,0.10,0.10,11400,0.10
2015-03-30,0.072,0.072,0.072,0.072,000,0.072
2015-03-27,0.072,0.072,0.072,0.072,000,0.072
2015-03-26,0.072,0.072,0.072,0.072,000,0.072
2015-03-25,0.072,0.072,0.072,0.072,000,0.072
2015-03-24,0.072,0.072,0.072,0.072,000,0.072
2015-03-23,0.072,0.072,0.072,0.072,16000,0.072
2015-03-20,0.071,0.071,0.071,0.071,000,0.071
2015-03-19,0.071,0.071,0.071,0.071,000,0.071
2015-03-18,0.071,0.071,0.071,0.071,000,0.071
2015-03-17,0.071,0.071,0.071,0.071,000,0.071
2015-03-16,0.071,0.071,0.071,0.071,000,0.071
2015-03-13,0.071,0.071,0.071,0.071,000,0.071
2015-03-12,0.071,0.071,0.071,0.071,000,0.071
2015-03-11,0.071,0.071,0.071,0.071,000,0.071
2015-03-10,0.071,0.071,0.071,0.071,14600,0.071
2015-03-09,0.071,0.071,0.071,0.071,000,0.071
2015-03-06,0.071,0.071,0.071,0.071,000,0.071
2015-03-05,0.071,0.071,0.071,0.071,000,0.071
2015-03-04,0.071,0.071,0.071,0.071,000,0.071
2015-03-03,0.071,0.071,0.071,0.071,3200,0.071
2015-03-02,0.071,0.071,0.071,0.071,000,0.071
2015-02-27,0.071,0.071,0.071,0.071,1900,0.071
2015-02-26,0.075,0.075,0.075,0.075,000,0.075
2015-02-25,0.075,0.075,0.075,0.075,000,0.075
2015-02-24,0.075,0.075,0.075,0.075,000,0.075
2015-02-23,0.075,0.075,0.075,0.075,000,0.075
2015-02-20,0.075,0.075,0.075,0.075,000,0.075
2015-02-19,0.075,0.075,0.075,0.075,000,0.075
2015-02-18,0.075,0.075,0.075,0.075,000,0.075
2015-02-17,0.075,0.075,0.075,0.075,000,0.075
2015-02-16,0.075,0.075,0.075,0.075,000,0.075
2015-02-13,0.075,0.075,0.075,0.075,000,0.075
2015-02-12,0.075,0.075,0.075,0.075,000,0.075
2015-02-11,0.075,0.075,0.075,0.075,000,0.075
2015-02-10,0.075,0.075,0.075,0.075,000,0.075
2015-02-09,0.075,0.075,0.075,0.075,000,0.075
2015-02-06,0.075,0.075,0.075,0.075,000,0.075
2015-02-05,0.075,0.075,0.075,0.075,000,0.075
2015-02-04,0.075,0.075,0.075,0.075,000,0.075
2015-02-03,0.075,0.075,0.075,0.075,000,0.075
2015-02-02,0.075,0.075,0.075,0.075,000,0.075
2015-01-30,0.075,0.075,0.075,0.075,000,0.075
2015-01-29,0.075,0.075,0.075,0.075,000,0.075
2015-01-28,0.075,0.075,0.075,0.075,000,0.075
2015-01-27,0.075,0.075,0.075,0.075,000,0.075
2015-01-26,0.075,0.075,0.075,0.075,000,0.075
2015-01-23,0.075,0.075,0.075,0.075,000,0.075
2015-01-22,0.075,0.075,0.075,0.075,000,0.075
2015-01-21,0.075,0.075,0.075,0.075,7400,0.075
2015-01-20,0.075,0.075,0.075,0.075,000,0.075
2015-01-19,0.075,0.075,0.075,0.075,000,0.075
2015-01-16,0.075,0.075,0.075,0.075,000,0.075
2015-01-15,0.075,0.075,0.075,0.075,000,0.075
2015-01-14,0.075,0.075,0.075,0.075,000,0.075
2015-01-13,0.075,0.075,0.075,0.075,000,0.075
2015-01-12,0.075,0.075,0.075,0.075,000,0.075
2015-01-09,0.075,0.075,0.075,0.075,000,0.075
2015-01-08,0.075,0.075,0.075,0.075,000,0.075
2015-01-07,0.075,0.075,0.075,0.075,000,0.075
2015-01-06,0.075,0.075,0.075,0.075,000,0.075
2015-01-05,0.075,0.075,0.075,0.075,000,0.075
2015-01-02,0.075,0.075,0.075,0.075,000,0.075
2015-01-01,0.075,0.075,0.075,0.075,000,0.075
2014-12-31,0.075,0.075,0.075,0.075,000,0.075
2014-12-30,0.075,0.075,0.075,0.075,000,0.075
2014-12-29,0.075,0.075,0.075,0.075,000,0.075
2014-12-26,0.075,0.075,0.075,0.075,000,0.075
2014-12-25,0.075,0.075,0.075,0.075,000,0.075
2014-12-24,0.075,0.075,0.075,0.075,000,0.075
2014-12-23,0.075,0.075,0.075,0.075,000,0.075
2014-12-22,0.075,0.075,0.075,0.075,9100,0.075
2014-12-19,0.075,0.075,0.075,0.075,000,0.075
2014-12-18,0.075,0.075,0.075,0.075,000,0.075
2014-12-17,0.075,0.075,0.075,0.075,000,0.075
2014-12-16,0.075,0.075,0.075,0.075,000,0.075
2014-12-15,0.075,0.075,0.075,0.075,000,0.075
2014-12-12,0.075,0.075,0.075,0.075,000,0.075
2014-12-11,0.075,0.075,0.075,0.075,000,0.075
2014-12-10,0.075,0.075,0.075,0.075,900,0.075
2014-12-09,0.085,0.085,0.085,0.085,000,0.085
2014-12-08,0.085,0.085,0.085,0.085,000,0.085
2014-12-05,0.085,0.085,0.085,0.085,000,0.085
2014-12-04,0.085,0.085,0.085,0.085,000,0.085
2014-12-03,0.085,0.085,0.085,0.085,000,0.085
2014-12-02,0.085,0.085,0.085,0.085,000,0.085
2014-12-01,0.085,0.085,0.085,0.085,000,0.085
2014-11-28,0.085,0.085,0.085,0.085,5000,0.085
2014-11-27,0.083,0.083,0.083,0.083,21200,0.083
2014-11-26,0.078,0.078,0.078,0.078,000,0.078
2014-11-25,0.078,0.078,0.078,0.078,000,0.078
2014-11-24,0.078,0.078,0.078,0.078,000,0.078
2014-11-21,0.078,0.078,0.078,0.078,000,0.078
2014-11-20,0.078,0.078,0.078,0.078,000,0.078
2014-11-19,0.078,0.078,0.078,0.078,000,0.078
2014-11-18,0.078,0.078,0.078,0.078,000,0.078
2014-11-17,0.078,0.078,0.078,0.078,000,0.078
2014-11-14,0.078,0.078,0.078,0.078,000,0.078
2014-11-13,0.078,0.078,0.078,0.078,000,0.078
2014-11-12,0.078,0.078,0.078,0.078,000,0.078
2014-11-11,0.078,0.078,0.078,0.078,000,0.078
2014-11-10,0.078,0.078,0.078,0.078,000,0.078
2014-11-07,0.078,0.078,0.078,0.078,2000,0.078
2014-11-06,0.075,0.075,0.075,0.075,000,0.075
2014-11-05,0.075,0.075,0.075,0.075,000,0.075
2014-11-04,0.075,0.075,0.075,0.075,000,0.075
2014-11-03,0.075,0.075,0.075,0.075,000,0.075
2014-10-31,0.075,0.075,0.075,0.075,000,0.075
2014-10-30,0.075,0.075,0.075,0.075,000,0.075
2014-10-29,0.075,0.075,0.075,0.075,000,0.075
2014-10-28,0.075,0.075,0.075,0.075,000,0.075
2014-10-27,0.075,0.075,0.075,0.075,4000,0.075
2014-10-24,0.10,0.10,0.10,0.10,000,0.10
2014-10-23,0.10,0.10,0.10,0.10,000,0.10
2014-10-22,0.10,0.10,0.10,0.10,000,0.10
2014-10-21,0.10,0.10,0.10,0.10,23700,0.10
2014-10-20,0.086,0.086,0.086,0.086,000,0.086
2014-10-17,0.086,0.086,0.086,0.086,3300,0.086
2014-10-16,0.078,0.078,0.078,0.078,10900,0.078
2014-10-15,0.071,0.074,0.071,0.074,11500,0.074
2014-10-14,0.10,0.10,0.10,0.10,000,0.10
2014-10-13,0.10,0.10,0.10,0.10,000,0.10
2014-10-10,0.10,0.10,0.10,0.10,000,0.10
2014-10-09,0.10,0.10,0.10,0.10,5000,0.10
2014-10-08,0.10,0.10,0.10,0.10,000,0.10
2014-10-07,0.10,0.10,0.10,0.10,000,0.10
2014-10-06,0.10,0.10,0.10,0.10,000,0.10
2014-10-03,0.10,0.10,0.10,0.10,000,0.10
2014-10-02,0.10,0.10,0.10,0.10,000,0.10
2014-10-01,0.10,0.10,0.10,0.10,000,0.10
2014-09-30,0.10,0.10,0.10,0.10,000,0.10
2014-09-29,0.10,0.10,0.10,0.10,000,0.10
2014-09-26,0.10,0.10,0.10,0.10,000,0.10
2014-09-25,0.10,0.10,0.10,0.10,000,0.10
2014-09-24,0.10,0.10,0.10,0.10,000,0.10
2014-09-23,0.10,0.10,0.10,0.10,000,0.10
2014-09-22,0.10,0.10,0.10,0.10,2000,0.10
2014-09-19,0.11,0.11,0.11,0.11,000,0.11
2014-09-18,0.11,0.11,0.11,0.11,000,0.11
2014-09-17,0.11,0.11,0.11,0.11,300,0.11
2014-09-16,0.11,0.11,0.11,0.11,000,0.11
2014-09-15,0.11,0.11,0.11,0.11,000,0.11
2014-09-12,0.11,0.11,0.11,0.11,000,0.11
2014-09-11,0.11,0.11,0.11,0.11,20000,0.11
2014-09-10,0.11,0.11,0.11,0.11,000,0.11
2014-09-09,0.11,0.11,0.11,0.11,11000,0.11
2014-09-08,0.11,0.11,0.11,0.11,000,0.11
2014-09-05,0.11,0.11,0.11,0.11,000,0.11
2014-09-04,0.11,0.11,0.11,0.11,2000,0.11
2014-09-03,0.11,0.11,0.11,0.11,000,0.11
2014-09-02,0.11,0.11,0.11,0.11,26600,0.11
2014-09-01,0.11,0.11,0.11,0.11,30000,0.11
2014-08-29,0.11,0.11,0.11,0.11,000,0.11
2014-08-28,0.11,0.11,0.11,0.11,13300,0.11
2014-08-27,0.10,0.10,0.10,0.10,000,0.10
2014-08-26,0.10,0.10,0.10,0.10,000,0.10
2014-08-25,0.10,0.10,0.10,0.10,000,0.10
2014-08-22,0.10,0.10,0.10,0.10,000,0.10
2014-08-21,0.10,0.10,0.10,0.10,1200,0.10
2014-08-20,0.10,0.10,0.10,0.10,000,0.10
2014-08-19,0.10,0.10,0.10,0.10,000,0.10
2014-08-18,0.10,0.10,0.10,0.10,8800,0.10
2014-08-15,0.115,0.115,0.096,0.096,40000,0.096
2014-08-14,0.11,0.11,0.11,0.11,000,0.11
2014-08-13,0.11,0.11,0.11,0.11,000,0.11
2014-08-12,0.11,0.11,0.11,0.11,000,0.11
2014-08-11,0.11,0.11,0.11,0.11,000,0.11
2014-08-08,0.11,0.11,0.11,0.11,10000,0.11
2014-08-07,0.12,0.12,0.12,0.12,000,0.12
2014-08-06,0.12,0.12,0.12,0.12,000,0.12
2014-08-05,0.12,0.12,0.12,0.12,000,0.12
2014-08-04,0.12,0.12,0.12,0.12,1000,0.12
2014-08-01,0.12,0.12,0.12,0.12,4000,0.12
2014-07-31,0.12,0.12,0.12,0.12,000,0.12
2014-07-30,0.12,0.12,0.12,0.12,000,0.12
2014-07-29,0.12,0.12,0.12,0.12,000,0.12
2014-07-28,0.12,0.12,0.12,0.12,000,0.12
2014-07-25,0.12,0.12,0.12,0.12,000,0.12
2014-07-24,0.12,0.12,0.12,0.12,000,0.12
2014-07-23,0.12,0.12,0.12,0.12,000,0.12
2014-07-22,0.12,0.12,0.12,0.12,000,0.12
2014-07-21,0.12,0.12,0.12,0.12,56000,0.12
2014-07-18,0.11,0.11,0.11,0.11,000,0.11
2014-07-17,0.11,0.11,0.11,0.11,1000,0.11
2014-07-16,0.11,0.11,0.11,0.11,000,0.11
2014-07-15,0.11,0.11,0.11,0.11,000,0.11
2014-07-14,0.11,0.11,0.11,0.11,000,0.11
2014-07-11,0.11,0.11,0.11,0.11,000,0.11
2014-07-10,0.11,0.11,0.11,0.11,000,0.11
2014-07-09,0.11,0.11,0.11,0.11,000,0.11
2014-07-08,0.11,0.11,0.11,0.11,4500,0.11
2014-07-07,0.135,0.135,0.135,0.135,000,0.135
2014-07-04,0.135,0.135,0.135,0.135,000,0.135
2014-07-03,0.135,0.135,0.135,0.135,000,0.135
2014-07-02,0.135,0.135,0.135,0.135,000,0.135
2014-07-01,0.135,0.135,0.135,0.135,000,0.135
2014-06-30,0.135,0.135,0.135,0.135,000,0.135
2014-06-27,0.135,0.135,0.135,0.135,5000,0.135
2014-06-26,0.135,0.135,0.135,0.135,000,0.135
2014-06-25,0.135,0.135,0.135,0.135,000,0.135
2014-06-24,0.135,0.135,0.135,0.135,000,0.135
2014-06-23,0.135,0.135,0.135,0.135,36000,0.135
2014-06-20,0.135,0.135,0.135,0.135,000,0.135
2014-06-19,0.135,0.135,0.135,0.135,31300,0.135
2014-06-18,0.135,0.135,0.135,0.135,600,0.135
2014-06-17,0.135,0.135,0.135,0.135,1600,0.135
2014-06-16,0.135,0.135,0.135,0.135,000,0.135
2014-06-13,0.135,0.135,0.135,0.135,2000,0.135
2014-06-12,0.135,0.135,0.135,0.135,000,0.135
2014-06-11,0.135,0.135,0.135,0.135,000,0.135
2014-06-10,0.135,0.135,0.135,0.135,000,0.135
2014-06-09,0.135,0.135,0.135,0.135,000,0.135
2014-06-06,0.135,0.135,0.135,0.135,4000,0.135
2014-06-05,0.135,0.135,0.135,0.135,000,0.135
2014-06-04,0.135,0.135,0.135,0.135,000,0.135
2014-06-03,0.135,0.135,0.135,0.135,000,0.135
2014-06-02,0.135,0.135,0.135,0.135,000,0.135
2014-05-30,0.135,0.135,0.135,0.135,000,0.135
2014-05-29,0.135,0.135,0.135,0.135,000,0.135
2014-05-28,0.135,0.135,0.135,0.135,000,0.135
2014-05-27,0.135,0.135,0.135,0.135,000,0.135
2014-05-26,0.135,0.135,0.135,0.135,000,0.135
2014-05-23,0.135,0.135,0.135,0.135,10000,0.135
2014-05-22,0.15,0.15,0.15,0.15,000,0.15
2014-05-21,0.15,0.15,0.15,0.15,32000,0.15
2014-05-20,0.135,0.135,0.135,0.135,000,0.135
2014-05-19,0.135,0.135,0.135,0.135,000,0.135
2014-05-16,0.135,0.135,0.135,0.135,20000,0.135
2014-05-15,0.135,0.135,0.135,0.135,000,0.135
2014-05-14,0.135,0.135,0.135,0.135,000,0.135
2014-05-13,0.135,0.135,0.135,0.135,4400,0.135
2014-05-12,0.135,0.135,0.135,0.135,000,0.135
2014-05-09,0.135,0.135,0.135,0.135,000,0.135
2014-05-08,0.135,0.135,0.135,0.135,8800,0.135
2014-05-07,0.135,0.135,0.135,0.135,000,0.135
2014-05-06,0.135,0.135,0.135,0.135,000,0.135
2014-05-05,0.135,0.135,0.135,0.135,000,0.135
2014-05-02,0.135,0.135,0.135,0.135,6600,0.135
2014-05-01,0.135,0.135,0.135,0.135,7100,0.135
2014-04-30,0.135,0.135,0.135,0.135,156100,0.135
2014-04-29,0.135,0.135,0.135,0.135,000,0.135
2014-04-28,0.135,0.135,0.135,0.135,000,0.135
2014-04-25,0.135,0.135,0.135,0.135,000,0.135
2014-04-24,0.135,0.135,0.135,0.135,7500,0.135
2014-04-23,0.135,0.135,0.135,0.135,000,0.135
2014-04-22,0.135,0.135,0.135,0.135,200,0.135
2014-04-21,0.15,0.15,0.15,0.15,000,0.15
2014-04-18,0.15,0.15,0.15,0.15,000,0.15
2014-04-17,0.15,0.15,0.15,0.15,000,0.15
2014-04-16,0.15,0.15,0.15,0.15,000,0.15
2014-04-15,0.15,0.15,0.15,0.15,000,0.15
2014-04-14,0.145,0.15,0.145,0.15,32500,0.15
2014-04-11,0.14,0.14,0.14,0.14,000,0.14
2014-04-10,0.14,0.14,0.14,0.14,27000,0.14
2014-04-09,0.11,0.115,0.11,0.115,32600,0.115
2014-04-08,0.135,0.135,0.135,0.135,000,0.135
2014-04-07,0.135,0.135,0.135,0.135,000,0.135
2014-04-04,0.135,0.135,0.135,0.135,000,0.135
2014-04-03,0.135,0.135,0.135,0.135,000,0.135
2014-04-02,0.135,0.135,0.135,0.135,000,0.135
2014-04-01,0.135,0.135,0.135,0.135,000,0.135
2014-03-31,0.135,0.135,0.135,0.135,000,0.135
2014-03-28,0.135,0.135,0.135,0.135,000,0.135
2014-03-27,0.135,0.135,0.135,0.135,000,0.135
2014-03-26,0.135,0.135,0.135,0.135,000,0.135
2014-03-25,0.135,0.135,0.135,0.135,000,0.135
2014-03-24,0.135,0.135,0.135,0.135,000,0.135
2014-03-21,0.135,0.135,0.135,0.135,000,0.135
2014-03-20,0.135,0.135,0.135,0.135,65000,0.135
2014-03-19,0.125,0.125,0.125,0.125,000,0.125
2014-03-18,0.125,0.125,0.125,0.125,000,0.125
2014-03-17,0.125,0.125,0.125,0.125,000,0.125
2014-03-14,0.125,0.125,0.125,0.125,000,0.125
2014-03-13,0.125,0.125,0.125,0.125,000,0.125
2014-03-12,0.125,0.125,0.125,0.125,5000,0.125
2014-03-11,0.13,0.13,0.125,0.125,13000,0.125
2014-03-10,0.15,0.15,0.15,0.15,000,0.15
2014-03-07,0.15,0.15,0.15,0.15,000,0.15
2014-03-06,0.15,0.15,0.15,0.15,000,0.15
2014-03-05,0.15,0.15,0.15,0.15,20300,0.15
2014-03-04,0.16,0.16,0.16,0.16,000,0.16
2014-03-03,0.15,0.16,0.15,0.16,30400,0.16
2014-02-28,0.14,0.14,0.14,0.14,000,0.14
2014-02-27,0.14,0.14,0.14,0.14,000,0.14
2014-02-26,0.14,0.14,0.14,0.14,000,0.14
2014-02-25,0.14,0.14,0.14,0.14,000,0.14
2014-02-24,0.14,0.14,0.14,0.14,000,0.14
2014-02-21,0.14,0.14,0.14,0.14,000,0.14
2014-02-20,0.14,0.14,0.14,0.14,000,0.14
2014-02-19,0.14,0.14,0.14,0.14,11000,0.14
2014-02-18,0.135,0.135,0.135,0.135,000,0.135
2014-02-17,0.135,0.135,0.135,0.135,000,0.135
2014-02-14,0.135,0.135,0.135,0.135,000,0.135
2014-02-13,0.135,0.135,0.135,0.135,000,0.135
2014-02-12,0.135,0.135,0.135,0.135,000,0.135
2014-02-11,0.135,0.135,0.135,0.135,2700,0.135
2014-02-10,0.135,0.135,0.135,0.135,000,0.135
2014-02-07,0.135,0.135,0.135,0.135,000,0.135
2014-02-06,0.135,0.135,0.135,0.135,000,0.135
2014-02-05,0.135,0.135,0.135,0.135,000,0.135
2014-02-04,0.135,0.135,0.135,0.135,000,0.135
2014-02-03,0.135,0.135,0.135,0.135,000,0.135
2014-01-31,0.135,0.135,0.135,0.135,000,0.135
2014-01-30,0.135,0.135,0.135,0.135,000,0.135
2014-01-29,0.135,0.135,0.135,0.135,000,0.135
2014-01-28,0.135,0.135,0.135,0.135,000,0.135
2014-01-27,0.135,0.135,0.135,0.135,000,0.135
2014-01-24,0.135,0.135,0.135,0.135,10000,0.135
2014-01-23,0.13,0.13,0.13,0.13,000,0.13
2014-01-22,0.13,0.13,0.13,0.13,000,0.13
2014-01-21,0.13,0.13,0.13,0.13,000,0.13
2014-01-20,0.13,0.13,0.13,0.13,000,0.13
2014-01-17,0.13,0.13,0.13,0.13,000,0.13
2014-01-16,0.13,0.13,0.13,0.13,000,0.13
2014-01-15,0.13,0.13,0.13,0.13,000,0.13
2014-01-14,0.13,0.13,0.13,0.13,000,0.13
2014-01-13,0.13,0.13,0.13,0.13,000,0.13
2014-01-10,0.13,0.13,0.13,0.13,000,0.13
2014-01-09,0.13,0.13,0.13,0.13,000,0.13
2014-01-08,0.13,0.13,0.13,0.13,45300,0.13
2014-01-07,0.13,0.13,0.13,0.13,000,0.13
2014-01-06,0.13,0.13,0.13,0.13,000,0.13
2014-01-03,0.13,0.13,0.13,0.13,000,0.13
2014-01-02,0.13,0.13,0.13,0.13,000,0.13
2014-01-01,0.13,0.13,0.13,0.13,000,0.13
2013-12-31,0.13,0.13,0.13,0.13,000,0.13
2013-12-30,0.13,0.13,0.13,0.13,000,0.13
2013-12-27,0.13,0.13,0.13,0.13,000,0.13
2013-12-26,0.13,0.13,0.13,0.13,000,0.13
2013-12-25,0.13,0.13,0.13,0.13,000,0.13
2013-12-24,0.13,0.13,0.13,0.13,000,0.13
2013-12-23,0.13,0.13,0.13,0.13,000,0.13
2013-12-20,0.13,0.13,0.13,0.13,000,0.13
2013-12-19,0.13,0.13,0.13,0.13,000,0.13
2013-12-18,0.13,0.13,0.13,0.13,000,0.13
2013-12-17,0.13,0.13,0.13,0.13,000,0.13
2013-12-16,0.13,0.13,0.13,0.13,46000,0.13
2013-12-13,0.125,0.125,0.125,0.125,5700,0.125
2013-12-12,0.125,0.125,0.125,0.125,200000,0.125
2013-12-11,0.125,0.125,0.125,0.125,000,0.125
2013-12-10,0.125,0.125,0.125,0.125,000,0.125
2013-12-09,0.125,0.125,0.125,0.125,000,0.125
2013-12-06,0.125,0.125,0.125,0.125,000,0.125
2013-12-05,0.125,0.125,0.125,0.125,76200,0.125
2013-12-04,0.115,0.115,0.115,0.115,000,0.115
2013-12-03,0.115,0.115,0.115,0.115,000,0.115
2013-12-02,0.115,0.115,0.115,0.115,000,0.115
2013-11-29,0.115,0.115,0.115,0.115,000,0.115
2013-11-28,0.12,0.12,0.115,0.115,31600,0.115
2013-11-27,0.115,0.115,0.115,0.115,45800,0.115
2013-11-26,0.11,0.11,0.11,0.11,000,0.11
2013-11-25,0.11,0.11,0.11,0.11,000,0.11
2013-11-22,0.11,0.11,0.11,0.11,000,0.11
2013-11-21,0.11,0.11,0.11,0.11,000,0.11
2013-11-20,0.11,0.11,0.11,0.11,000,0.11
2013-11-19,0.11,0.11,0.11,0.11,13700,0.11
2013-11-18,0.115,0.115,0.115,0.115,700,0.115
2013-11-15,0.115,0.115,0.115,0.115,000,0.115
2013-11-14,0.115,0.115,0.115,0.115,000,0.115
2013-11-13,0.12,0.12,0.115,0.115,15200,0.115
2013-11-12,0.115,0.115,0.115,0.115,000,0.115
2013-11-11,0.115,0.115,0.115,0.115,000,0.115
2013-11-08,0.115,0.115,0.115,0.115,000,0.115
2013-11-07,0.115,0.115,0.115,0.115,000,0.115
2013-11-06,0.115,0.115,0.115,0.115,000,0.115
2013-11-05,0.115,0.115,0.115,0.115,000,0.115
2013-11-04,0.115,0.115,0.115,0.115,6100,0.115
2013-11-01,0.115,0.115,0.115,0.115,000,0.115
2013-10-31,0.115,0.115,0.115,0.115,000,0.115
2013-10-30,0.115,0.115,0.115,0.115,20000,0.115
2013-10-29,0.115,0.115,0.115,0.115,000,0.115
2013-10-28,0.115,0.115,0.115,0.115,000,0.115
2013-10-25,0.115,0.115,0.115,0.115,000,0.115
2013-10-24,0.115,0.115,0.115,0.115,000,0.115
2013-10-23,0.115,0.115,0.115,0.115,000,0.115
2013-10-22,0.115,0.115,0.115,0.115,000,0.115
2013-10-21,0.115,0.115,0.115,0.115,19100,0.115
2013-10-18,0.11,0.11,0.11,0.11,000,0.11
2013-10-17,0.11,0.11,0.11,0.11,16600,0.11
2013-10-16,0.11,0.11,0.11,0.11,10000,0.11
2013-10-15,0.115,0.115,0.11,0.11,15900,0.11
2013-10-14,0.12,0.12,0.12,0.12,000,0.12
2013-10-11,0.12,0.12,0.12,0.12,000,0.12
2013-10-10,0.12,0.12,0.12,0.12,000,0.12
2013-10-09,0.12,0.12,0.12,0.12,000,0.12
2013-10-08,0.12,0.12,0.12,0.12,000,0.12
2013-10-07,0.12,0.12,0.12,0.12,000,0.12
2013-10-04,0.12,0.12,0.12,0.12,000,0.12
2013-10-03,0.12,0.12,0.12,0.12,000,0.12
2013-10-02,0.12,0.12,0.12,0.12,000,0.12
2013-10-01,0.12,0.12,0.12,0.12,000,0.12
2013-09-30,0.12,0.12,0.12,0.12,000,0.12
2013-09-27,0.125,0.125,0.12,0.12,10000,0.12
2013-09-26,0.12,0.12,0.12,0.12,17300,0.12
2013-09-25,0.14,0.14,0.14,0.14,000,0.14
2013-09-24,0.14,0.14,0.14,0.14,5000,0.14
2013-09-23,0.12,0.12,0.12,0.12,000,0.12
2013-09-20,0.12,0.12,0.12,0.12,000,0.12
2013-09-19,0.12,0.12,0.12,0.12,000,0.12
2013-09-18,0.12,0.12,0.12,0.12,8000,0.12
2013-09-17,0.11,0.11,0.11,0.11,000,0.11
2013-09-16,0.11,0.11,0.11,0.11,000,0.11
2013-09-13,0.12,0.12,0.11,0.11,230500,0.11
2013-09-12,0.091,0.091,0.091,0.091,000,0.091
2013-09-11,0.091,0.091,0.091,0.091,7400,0.091
2013-09-10,0.088,0.088,0.088,0.088,14000,0.088
2013-09-09,0.085,0.085,0.085,0.085,500,0.085
2013-09-06,0.10,0.10,0.10,0.10,000,0.10
2013-09-05,0.10,0.10,0.10,0.10,000,0.10
2013-09-04,0.10,0.10,0.10,0.10,000,0.10
2013-09-03,0.10,0.10,0.10,0.10,000,0.10
2013-09-02,0.10,0.10,0.10,0.10,150400,0.10
2013-08-30,0.10,0.10,0.10,0.10,99300,0.10
2013-08-29,0.105,0.105,0.10,0.10,175700,0.10
2013-08-28,0.125,0.125,0.115,0.12,168000,0.12
2013-08-27,0.125,0.125,0.125,0.125,000,0.125
2013-08-26,0.125,0.125,0.125,0.125,000,0.125
2013-08-23,0.125,0.125,0.125,0.125,000,0.125
2013-08-22,0.125,0.125,0.125,0.125,000,0.125
2013-08-21,0.125,0.125,0.125,0.125,000,0.125
2013-08-20,0.125,0.125,0.125,0.125,000,0.125
2013-08-19,0.125,0.125,0.125,0.125,000,0.125
2013-08-16,0.125,0.125,0.125,0.125,000,0.125
2013-08-15,0.125,0.125,0.125,0.125,000,0.125
2013-08-14,0.125,0.125,0.125,0.125,8000,0.125
2013-08-13,0.13,0.13,0.13,0.13,000,0.13
2013-08-12,0.13,0.13,0.13,0.13,000,0.13
2013-08-09,0.13,0.13,0.13,0.13,81400,0.13
2013-08-08,0.13,0.13,0.13,0.13,000,0.13
2013-08-07,0.13,0.13,0.13,0.13,000,0.13
2013-08-06,0.13,0.13,0.13,0.13,000,0.13
2013-08-05,0.13,0.13,0.13,0.13,000,0.13
2013-08-02,0.13,0.13,0.13,0.13,20000,0.13
2013-08-01,0.13,0.13,0.13,0.13,65000,0.13
2013-07-31,0.13,0.13,0.13,0.13,000,0.13
2013-07-30,0.13,0.13,0.13,0.13,000,0.13
2013-07-29,0.13,0.13,0.13,0.13,4000,0.13
2013-07-26,0.13,0.13,0.13,0.13,1900,0.13
2013-07-25,0.13,0.13,0.13,0.13,000,0.13
2013-07-24,0.13,0.13,0.13,0.13,4100,0.13
2013-07-23,0.125,0.125,0.125,0.125,000,0.125
2013-07-22,0.125,0.125,0.125,0.125,000,0.125
2013-07-19,0.125,0.125,0.125,0.125,000,0.125
2013-07-18,0.125,0.125,0.125,0.125,000,0.125
2013-07-17,0.125,0.125,0.125,0.125,000,0.125
2013-07-16,0.125,0.125,0.125,0.125,000,0.125
2013-07-15,0.125,0.125,0.125,0.125,000,0.125
2013-07-12,0.125,0.125,0.125,0.125,10000,0.125
2013-07-11,0.11,0.11,0.11,0.11,000,0.11
2013-07-10,0.11,0.11,0.11,0.11,000,0.11
2013-07-09,0.11,0.11,0.11,0.11,000,0.11
2013-07-08,0.11,0.11,0.11,0.11,000,0.11
2013-07-05,0.135,0.135,0.11,0.11,89400,0.11
2013-07-04,0.14,0.14,0.14,0.14,000,0.14
2013-07-03,0.14,0.14,0.14,0.14,000,0.14
2013-07-02,0.14,0.14,0.14,0.14,000,0.14
2013-07-01,0.14,0.14,0.14,0.14,000,0.14
2013-06-28,0.14,0.14,0.14,0.14,18000,0.14
2013-06-27,0.16,0.16,0.16,0.16,000,0.16
2013-06-26,0.16,0.16,0.16,0.16,4924500,0.16
2013-06-25,0.15,0.15,0.15,0.15,126000,0.15
2013-06-24,0.15,0.15,0.15,0.15,4400,0.15
2013-06-21,0.175,0.175,0.175,0.175,42300,0.175
2013-06-20,0.17,0.17,0.17,0.17,000,0.17
2013-06-19,0.17,0.17,0.17,0.17,000,0.17
2013-06-18,0.17,0.17,0.17,0.17,3700,0.17
2013-06-17,0.18,0.18,0.18,0.18,000,0.18
2013-06-14,0.18,0.18,0.18,0.18,000,0.18
2013-06-13,0.18,0.18,0.18,0.18,000,0.18
2013-06-12,0.17,0.18,0.17,0.18,35200,0.18
2013-06-11,0.15,0.15,0.15,0.15,000,0.15
2013-06-10,0.15,0.15,0.15,0.15,000,0.15
2013-06-07,0.155,0.155,0.15,0.15,110000,0.15
2013-06-06,0.16,0.16,0.16,0.16,000,0.16
2013-06-05,0.16,0.16,0.16,0.16,4200,0.16
2013-06-04,0.18,0.18,0.15,0.15,25100,0.15
2013-06-03,0.18,0.18,0.18,0.18,000,0.18
2013-05-31,0.18,0.18,0.18,0.18,000,0.18
2013-05-30,0.18,0.18,0.18,0.18,6500,0.18
2013-05-29,0.15,0.15,0.15,0.15,000,0.15
2013-05-28,0.15,0.15,0.15,0.15,20000,0.15
2013-05-27,0.15,0.15,0.15,0.15,20200,0.15
2013-05-24,0.15,0.15,0.15,0.15,000,0.15
2013-05-23,0.15,0.15,0.15,0.15,000,0.15
2013-05-22,0.15,0.15,0.15,0.15,5500,0.15
2013-05-21,0.15,0.15,0.15,0.15,4000,0.15
2013-05-20,0.14,0.15,0.14,0.15,17200,0.15
2013-05-17,0.14,0.14,0.14,0.14,77000,0.14
2013-05-16,0.135,0.14,0.135,0.14,14200,0.14
2013-05-15,0.14,0.14,0.14,0.14,000,0.14
2013-05-14,0.14,0.14,0.14,0.14,000,0.14
2013-05-13,0.14,0.14,0.14,0.14,11300,0.14
2013-05-10,0.135,0.135,0.135,0.135,000,0.135
2013-05-09,0.135,0.135,0.135,0.135,000,0.135
2013-05-08,0.135,0.135,0.135,0.135,000,0.135
2013-05-07,0.145,0.145,0.135,0.135,22300,0.135
2013-05-06,0.16,0.16,0.16,0.16,000,0.16
2013-05-03,0.16,0.16,0.16,0.16,000,0.16
2013-05-02,0.16,0.16,0.16,0.16,8000,0.16
2013-05-01,0.16,0.16,0.16,0.16,12000,0.16
2013-04-30,0.20,0.20,0.20,0.20,000,0.20
2013-04-29,0.23,0.235,0.20,0.20,13400,0.20
2013-04-26,0.14,0.14,0.14,0.14,000,0.14
2013-04-25,0.14,0.14,0.14,0.14,000,0.14
2013-04-24,0.14,0.14,0.14,0.14,000,0.14
2013-04-23,0.135,0.14,0.135,0.14,27600,0.14
2013-04-22,0.13,0.13,0.13,0.13,4000,0.13
2013-04-19,0.12,0.12,0.12,0.12,000,0.12
2013-04-18,0.12,0.12,0.12,0.12,000,0.12
2013-04-17,0.12,0.12,0.12,0.12,45000,0.12
2013-04-16,0.125,0.125,0.125,0.125,000,0.125
2013-04-15,0.13,0.13,0.125,0.125,33600,0.125
2013-04-12,0.125,0.125,0.125,0.125,5000,0.125
2013-04-11,0.125,0.125,0.125,0.125,000,0.125
2013-04-10,0.125,0.125,0.125,0.125,000,0.125
2013-04-09,0.125,0.125,0.125,0.125,000,0.125
2013-04-08,0.12,0.125,0.12,0.125,58200,0.125
2013-04-05,0.12,0.12,0.12,0.12,2000,0.12
2013-04-04,0.13,0.13,0.13,0.13,27100,0.13
2013-04-03,0.13,0.13,0.13,0.13,10000,0.13
2013-04-02,0.135,0.135,0.135,0.135,15000,0.135
2013-04-01,0.13,0.13,0.13,0.13,000,0.13
2013-03-29,0.13,0.13,0.13,0.13,000,0.13
2013-03-28,0.13,0.13,0.13,0.13,000,0.13
2013-03-27,0.13,0.13,0.13,0.13,000,0.13
2013-03-26,0.145,0.145,0.13,0.13,44700,0.13
2013-03-25,0.13,0.13,0.13,0.13,2200,0.13
2013-03-22,0.14,0.14,0.13,0.13,68700,0.13
2013-03-21,0.155,0.155,0.14,0.14,41100,0.14
2013-03-20,0.15,0.15,0.15,0.15,31400,0.15
2013-03-19,0.15,0.15,0.15,0.15,12000,0.15
2013-03-18,0.115,0.115,0.115,0.115,000,0.115
2013-03-15,0.115,0.115,0.115,0.115,5000,0.115
2013-03-14,0.14464,0.14464,0.135,0.135,6800,0.135
2013-03-13,0.14946,0.14946,0.14464,0.14464,8200,0.14464
2013-03-12,0.14464,0.14464,0.14464,0.14464,39600,0.14464
2013-03-11,0.16393,0.16393,0.14946,0.14946,123900,0.14946
2013-03-08,0.16393,0.16393,0.16393,0.16393,32700,0.16393
2013-03-07,0.16393,0.16393,0.16393,0.16393,1500,0.16393
2013-03-06,0.16393,0.16393,0.16393,0.16393,000,0.16393
2013-03-05,0.16393,0.16393,0.16393,0.16393,22200,0.16393
2013-03-04,0.18321,0.18321,0.18321,0.18321,000,0.18321
2013-03-01,0.18321,0.18321,0.18321,0.18321,000,0.18321
2013-02-28,0.2025,0.23625,0.18321,0.18321,135400,0.18321
2013-02-27,0.24107,0.24107,0.24107,0.24107,000,0.24107
2013-02-26,0.24107,0.24107,0.24107,0.24107,000,0.24107
2013-02-25,0.2025,0.24107,0.2025,0.24107,78500,0.24107
2013-02-22,0.2025,0.2025,0.2025,0.2025,000,0.2025
2013-02-21,0.20732,0.20732,0.2025,0.2025,34900,0.2025
2013-02-20,0.22661,0.22661,0.22661,0.22661,000,0.22661
2013-02-19,0.21214,0.21214,0.21214,0.21214,000,0.21214
2013-02-18,0.21214,0.21214,0.21214,0.21214,31300,0.21214
2013-02-15,0.24107,0.24107,0.24107,0.24107,000,0.24107
2013-02-14,0.24107,0.24107,0.24107,0.24107,000,0.24107
2013-02-13,0.24107,0.24107,0.24107,0.24107,000,0.24107
2013-02-12,0.23143,0.24107,0.23143,0.24107,425100,0.24107
2013-02-11,0.23143,0.23143,0.23143,0.23143,25900,0.23143
2013-02-08,0.23143,0.23143,0.23143,0.23143,20700,0.23143
2013-02-07,0.22179,0.22179,0.22179,0.22179,000,0.22179
2013-02-06,0.22179,0.22179,0.22179,0.22179,000,0.22179
2013-02-05,0.22179,0.22179,0.22179,0.22179,000,0.22179
2013-02-04,0.22179,0.22179,0.22179,0.22179,23800,0.22179
2013-02-01,0.22179,0.22179,0.22179,0.22179,19700,0.22179
2013-01-31,0.22179,0.22179,0.22179,0.22179,000,0.22179
2013-01-30,0.21214,0.22179,0.21214,0.22179,10100,0.22179
2013-01-29,0.2025,0.2025,0.19286,0.19286,2400,0.19286
2013-01-28,0.21214,0.21214,0.21214,0.21214,000,0.21214
2013-01-25,0.21214,0.21214,0.21214,0.21214,7000,0.21214
2013-01-24,0.21214,0.21214,0.21214,0.21214,2800,0.21214
2013-01-22,0.21214,0.21214,0.21214,0.21214,000,0.21214
2013-01-21,0.21214,0.21214,0.21214,0.21214,000,0.21214
2013-01-18,0.21214,0.21214,0.21214,0.21214,000,0.21214
2013-01-17,0.21214,0.21214,0.21214,0.21214,10300,0.21214
2013-01-16,0.21214,0.21214,0.21214,0.21214,000,0.21214
2013-01-15,0.21214,0.21214,0.21214,0.21214,10300,0.21214
2013-01-14,0.21696,0.21696,0.2025,0.2025,22600,0.2025
2013-01-11,0.2025,0.2025,0.2025,0.2025,4300,0.2025
2013-01-10,0.2025,0.2025,0.2025,0.2025,000,0.2025
2013-01-09,0.2025,0.2025,0.2025,0.2025,000,0.2025
2013-01-08,0.2025,0.2025,0.2025,0.2025,000,0.2025
2013-01-07,0.2025,0.2025,0.2025,0.2025,000,0.2025
2013-01-04,0.2025,0.2025,0.2025,0.2025,5000,0.2025
2013-01-03,0.2025,0.2025,0.2025,0.2025,000,0.2025
2013-01-02,0.2025,0.2025,0.2025,0.2025,000,0.2025
2013-01-01,0.2025,0.2025,0.2025,0.2025,000,0.2025
2012-12-31,0.2025,0.2025,0.2025,0.2025,000,0.2025
2012-12-28,0.2025,0.2025,0.2025,0.2025,500,0.2025
2012-12-27,0.2025,0.2025,0.2025,0.2025,000,0.2025
2012-12-26,0.2025,0.2025,0.2025,0.2025,000,0.2025
2012-12-25,0.2025,0.2025,0.2025,0.2025,000,0.2025
2012-12-24,0.21696,0.21696,0.2025,0.2025,10600,0.2025
2012-12-21,0.21696,0.21696,0.21696,0.21696,000,0.21696
2012-12-20,0.21696,0.21696,0.21696,0.21696,000,0.21696
2012-12-19,0.21696,0.21696,0.21696,0.21696,000,0.21696
2012-12-18,0.21696,0.21696,0.21696,0.21696,2300,0.21696
2012-12-17,0.21696,0.21696,0.21696,0.21696,6900,0.21696
2012-12-14,0.21214,0.22179,0.21214,0.21696,18700,0.21696
2012-12-13,0.21214,0.21214,0.21214,0.21214,10900,0.21214
2012-12-12,0.21214,0.21214,0.21214,0.21214,000,0.21214
2012-12-11,0.21214,0.21214,0.21214,0.21214,000,0.21214
2012-12-10,0.21214,0.21214,0.21214,0.21214,000,0.21214
2012-12-07,0.21214,0.21214,0.21214,0.21214,000,0.21214
2012-12-06,0.21214,0.21214,0.21214,0.21214,000,0.21214
2012-12-05,0.21214,0.21214,0.21214,0.21214,5800,0.21214
2012-12-04,0.21214,0.21214,0.21214,0.21214,20700,0.21214
2012-12-03,0.21214,0.25071,0.21214,0.21214,13300,0.21214
2012-11-30,0.21214,0.21214,0.21214,0.21214,000,0.21214
2012-11-29,0.21214,0.21214,0.21214,0.21214,000,0.21214
2012-11-28,0.21214,0.21214,0.21214,0.21214,000,0.21214
2012-11-27,0.21214,0.21214,0.21214,0.21214,3100,0.21214
2012-11-26,0.21214,0.21214,0.21214,0.21214,000,0.21214
2012-11-23,0.21214,0.21214,0.21214,0.21214,000,0.21214
2012-11-22,0.22179,0.22179,0.21214,0.21214,19900,0.21214
2012-11-21,0.22179,0.22179,0.22179,0.22179,9800,0.22179
2012-11-20,0.22179,0.22179,0.22179,0.22179,000,0.22179
2012-11-19,0.22179,0.22179,0.22179,0.22179,31400,0.22179
2012-11-16,0.22179,0.22179,0.22179,0.22179,3000,0.22179
2012-11-15,0.23143,0.23143,0.23143,0.23143,2100,0.23143
2012-11-14,0.25071,0.25071,0.23143,0.23143,50100,0.23143
2012-11-13,0.24589,0.24589,0.24589,0.24589,000,0.24589
2012-11-12,0.25553,0.25553,0.24589,0.24589,41400,0.24589
2012-11-09,0.26036,0.26036,0.25553,0.26036,50200,0.26036
2012-11-08,0.26036,0.26036,0.26036,0.26036,000,0.26036
2012-11-07,0.26036,0.26036,0.26036,0.26036,000,0.26036
2012-11-06,0.25553,0.26036,0.25553,0.26036,63300,0.26036
2012-11-05,0.27,0.27,0.26036,0.26036,42400,0.26036
2012-11-02,0.27482,0.27482,0.26518,0.26518,7900,0.26518
2012-11-01,0.27482,0.27482,0.27482,0.27482,8200,0.27482
2012-10-31,0.27482,0.27482,0.27482,0.27482,000,0.27482
2012-10-30,0.27482,0.27482,0.27482,0.27482,10300,0.27482
2012-10-29,0.28928,0.28928,0.28928,0.28928,10300,0.28928
2012-10-26,0.26518,0.26518,0.26518,0.26518,6600,0.26518
2012-10-25,0.26518,0.26518,0.26518,0.26518,000,0.26518
2012-10-24,0.26518,0.26518,0.26518,0.26518,000,0.26518
2012-10-23,0.26518,0.26518,0.26518,0.26518,000,0.26518
2012-10-22,0.26518,0.26518,0.26518,0.26518,8200,0.26518
2012-10-19,0.27964,0.27964,0.27964,0.27964,000,0.27964
2012-10-18,0.27964,0.27964,0.27964,0.27964,10300,0.27964
2012-10-17,0.27,0.27,0.27,0.27,000,0.27
2012-10-16,0.27,0.27,0.27,0.27,000,0.27
2012-10-15,0.27,0.27,0.27,0.27,000,0.27
2012-10-12,0.27,0.27,0.27,0.27,000,0.27
2012-10-11,0.27,0.27,0.27,0.27,000,0.27
2012-10-10,0.27,0.27,0.27,0.27,000,0.27
2012-10-09,0.27,0.27,0.27,0.27,000,0.27
2012-10-08,0.27,0.27,0.27,0.27,18600,0.27
2012-10-05,0.27,0.27,0.27,0.27,12300,0.27
2012-10-04,0.27,0.27,0.27,0.27,000,0.27
2012-10-03,0.27,0.27,0.27,0.27,000,0.27
2012-10-02,0.27,0.27,0.27,0.27,000,0.27
2012-10-01,0.27,0.27,0.27,0.27,000,0.27
2012-09-28,0.27,0.27,0.27,0.27,000,0.27
2012-09-27,0.27,0.27,0.27,0.27,000,0.27
2012-09-26,0.28928,0.28928,0.27,0.27,6800,0.27
2012-09-25,0.26518,0.26518,0.26036,0.26036,17900,0.26036
2012-09-24,0.26036,0.26036,0.26036,0.26036,000,0.26036
2012-09-21,0.26036,0.26036,0.26036,0.26036,000,0.26036
2012-09-20,0.26036,0.26036,0.26036,0.26036,000,0.26036
2012-09-19,0.26036,0.26036,0.26036,0.26036,000,0.26036
2012-09-18,0.26036,0.26036,0.26036,0.26036,2700,0.26036
2012-09-17,0.26036,0.26036,0.26036,0.26036,000,0.26036
2012-09-14,0.26036,0.26036,0.26036,0.26036,2200,0.26036
2012-09-13,0.25553,0.25553,0.25553,0.25553,3600,0.25553
2012-09-12,0.29893,0.29893,0.28928,0.28928,26700,0.28928
2012-09-11,0.29893,0.29893,0.29893,0.29893,000,0.29893
2012-09-10,0.29893,0.29893,0.29893,0.29893,15500,0.29893
2012-09-07,0.28928,0.28928,0.28928,0.28928,000,0.28928
2012-09-06,0.28928,0.28928,0.28928,0.28928,10300,0.28928
2012-09-05,0.28928,0.28928,0.28928,0.28928,7900,0.28928
2012-09-04,0.24107,0.28928,0.24107,0.28928,17100,0.28928
2012-09-03,0.26036,0.26036,0.24107,0.24107,47900,0.24107
2012-08-31,0.27,0.27,0.27,0.27,000,0.27
2012-08-30,0.27,0.27,0.27,0.27,8200,0.27
2012-08-29,0.34232,0.34232,0.29893,0.29893,34700,0.29893
2012-08-28,0.34714,0.34714,0.34714,0.34714,000,0.34714
2012-08-27,0.34714,0.34714,0.34714,0.34714,000,0.34714
2012-08-24,0.3375,0.34714,0.3375,0.34714,6200,0.34714
2012-08-23,0.32786,0.32786,0.32786,0.32786,000,0.32786
2012-08-22,0.3375,0.3375,0.32786,0.32786,17800,0.32786
2012-08-21,0.32786,0.32786,0.32786,0.32786,000,0.32786
2012-08-20,0.32786,0.32786,0.32786,0.32786,7700,0.32786
2012-08-17,0.29893,0.29893,0.29893,0.29893,10800,0.29893
2012-08-16,0.28928,0.28928,0.28928,0.28928,000,0.28928
2012-08-15,0.28928,0.28928,0.28928,0.28928,000,0.28928
2012-08-14,0.29893,0.29893,0.28928,0.28928,21700,0.28928
2012-08-13,0.3375,0.3375,0.29893,0.29893,13000,0.29893
2012-08-10,0.3375,0.3375,0.3375,0.3375,7200,0.3375
2012-08-09,0.34714,0.34714,0.34714,0.34714,000,0.34714
2012-08-08,0.34714,0.34714,0.34714,0.34714,000,0.34714
2012-08-07,0.34714,0.34714,0.34714,0.34714,000,0.34714
2012-08-06,0.34714,0.34714,0.34714,0.34714,000,0.34714
2012-08-03,0.34714,0.34714,0.34714,0.34714,1100,0.34714
2012-08-02,0.34714,0.34714,0.34714,0.34714,000,0.34714
2012-08-01,0.35196,0.35196,0.34714,0.34714,23900,0.34714
2012-07-31,0.37125,0.37125,0.37125,0.37125,000,0.37125
2012-07-30,0.37125,0.37125,0.37125,0.37125,000,0.37125
2012-07-27,0.37125,0.37125,0.37125,0.37125,000,0.37125
2012-07-26,0.37607,0.37607,0.37125,0.37125,29900,0.37125
2012-07-25,0.38571,0.38571,0.38571,0.38571,000,0.38571
2012-07-24,0.38571,0.38571,0.38571,0.38571,12700,0.38571
2012-07-23,0.37607,0.37607,0.37607,0.37607,000,0.37607
2012-07-20,0.37607,0.37607,0.37607,0.37607,14800,0.37607
2012-07-19,0.38571,0.38571,0.37607,0.37607,6400,0.37607
2012-07-18,0.41464,0.41464,0.41464,0.41464,000,0.41464
2012-07-17,0.41464,0.41464,0.41464,0.41464,000,0.41464
2012-07-16,0.41464,0.41464,0.41464,0.41464,7000,0.41464
2012-07-13,0.41946,0.41946,0.41946,0.41946,5100,0.41946
2012-07-12,0.42428,0.42428,0.42428,0.42428,2500,0.42428
2012-07-11,0.37125,0.37125,0.37125,0.37125,6200,0.37125
2012-07-10,0.36643,0.36643,0.36643,0.36643,14500,0.36643
2012-07-09,0.34232,0.34232,0.34232,0.34232,000,0.34232
2012-07-06,0.34232,0.34232,0.34232,0.34232,000,0.34232
2012-07-05,0.32786,0.34232,0.32786,0.34232,32600,0.34232
2012-07-04,0.32786,0.32786,0.32786,0.32786,3100,0.32786
2012-07-03,0.30857,0.30857,0.30857,0.30857,000,0.30857
2012-07-02,0.29411,0.30857,0.29411,0.30857,2300,0.30857
2012-06-29,0.28446,0.28446,0.28446,0.28446,16400,0.28446
2012-06-28,0.26518,0.26518,0.26518,0.26518,000,0.26518
2012-06-27,0.26518,0.26518,0.26518,0.26518,15100,0.26518
2012-06-26,0.25071,0.25071,0.25071,0.25071,000,0.25071
2012-06-25,0.25071,0.25071,0.25071,0.25071,000,0.25071
2012-06-22,0.25071,0.25071,0.25071,0.25071,51800,0.25071
2012-06-21,0.24107,0.24107,0.24107,0.24107,1900,0.24107
2012-06-20,0.24107,0.24107,0.24107,0.24107,000,0.24107
2012-06-19,0.24107,0.24107,0.24107,0.24107,000,0.24107
2012-06-18,0.25071,0.25071,0.24107,0.24107,43900,0.24107
2012-06-15,0.28928,0.28928,0.26036,0.26036,47400,0.26036
2012-06-14,0.27964,0.27964,0.27964,0.27964,000,0.27964
2012-06-13,0.30857,0.30857,0.27964,0.27964,10300,0.27964
2012-06-12,0.32786,0.32786,0.32786,0.32786,000,0.32786
2012-06-11,0.32786,0.32786,0.32786,0.32786,000,0.32786
2012-06-08,0.32786,0.32786,0.32786,0.32786,000,0.32786
2012-06-07,0.32786,0.32786,0.32786,0.32786,000,0.32786
2012-06-06,0.32786,0.32786,0.32786,0.32786,5100,0.32786
2012-06-05,0.30375,0.30375,0.30375,0.30375,000,0.30375
2012-06-04,0.30375,0.30375,0.30375,0.30375,000,0.30375
2012-06-01,0.30857,0.30857,0.30375,0.30375,15100,0.30375
2012-05-31,0.30375,0.30375,0.30375,0.30375,000,0.30375
2012-05-30,0.30375,0.30375,0.30375,0.30375,000,0.30375
2012-05-29,0.30375,0.30375,0.30375,0.30375,000,0.30375
2012-05-28,0.30375,0.30375,0.30375,0.30375,000,0.30375
2012-05-25,0.30375,0.30375,0.30375,0.30375,000,0.30375
2012-05-24,0.30375,0.30375,0.30375,0.30375,10300,0.30375
2012-05-23,0.28928,0.28928,0.28928,0.28928,000,0.28928
2012-05-22,0.27964,0.28928,0.27964,0.28928,5200,0.28928
2012-05-21,0.27964,0.27964,0.27964,0.27964,17400,0.27964
2012-05-18,0.32786,0.32786,0.32786,0.32786,000,0.32786
2012-05-17,0.32786,0.32786,0.32786,0.32786,13400,0.32786
2012-05-16,0.33268,0.3375,0.33268,0.3375,13400,0.3375
2012-05-15,0.35678,0.35678,0.35678,0.35678,2500,0.35678
2012-05-14,0.36643,0.36643,0.36643,0.36643,000,0.36643
2012-05-11,0.36643,0.36643,0.36643,0.36643,000,0.36643
2012-05-10,0.36643,0.36643,0.36643,0.36643,000,0.36643
2012-05-09,0.36643,0.36643,0.36643,0.36643,2500,0.36643
2012-05-08,0.36643,0.36643,0.36643,0.36643,000,0.36643
2012-05-07,0.36643,0.36643,0.36643,0.36643,000,0.36643
2012-05-04,0.37125,0.37125,0.36643,0.36643,2200,0.36643
2012-05-03,0.37125,0.37125,0.37125,0.37125,000,0.37125
2012-05-02,0.37125,0.37125,0.37125,0.37125,000,0.37125
2012-05-01,0.37125,0.37125,0.37125,0.37125,000,0.37125
2012-04-30,0.37125,0.37125,0.37125,0.37125,1500,0.37125
2012-04-27,0.36643,0.36643,0.36643,0.36643,10300,0.36643
2012-04-26,0.39053,0.39053,0.36643,0.36643,7600,0.36643
2012-04-25,0.38571,0.38571,0.38571,0.38571,000,0.38571
2012-04-24,0.38571,0.38571,0.38571,0.38571,1600,0.38571
2012-04-23,0.37125,0.37125,0.37125,0.37125,000,0.37125
2012-04-20,0.37125,0.37125,0.37125,0.37125,000,0.37125
2012-04-19,0.405,0.405,0.37125,0.37125,15700,0.37125
2012-04-18,0.41464,0.41464,0.41464,0.41464,15500,0.41464
2012-04-17,0.41464,0.41464,0.41464,0.41464,000,0.41464
2012-04-16,0.41464,0.41464,0.41464,0.41464,7200,0.41464
2012-04-13,0.43393,0.43393,0.43393,0.43393,000,0.43393
2012-04-12,0.43393,0.43393,0.43393,0.43393,11900,0.43393
2012-04-11,0.43393,0.43393,0.43393,0.43393,000,0.43393
2012-04-10,0.50143,0.50143,0.43393,0.43393,78600,0.43393
2012-04-09,0.48214,0.48214,0.48214,0.48214,000,0.48214
2012-04-06,0.48214,0.48214,0.48214,0.48214,000,0.48214
2012-04-05,0.48214,0.48214,0.48214,0.48214,1500,0.48214
2012-04-04,0.48696,0.48696,0.48214,0.48214,2000,0.48214
2012-04-03,0.49178,0.49178,0.48214,0.48214,36900,0.48214
2012-04-02,0.48214,0.48214,0.48214,0.48214,8800,0.48214
2012-03-30,0.41946,0.43393,0.41946,0.43393,28200,0.43393
2012-03-29,0.40018,0.40018,0.40018,0.40018,000,0.40018
2012-03-28,0.38571,0.40018,0.38571,0.40018,11800,0.40018
2012-03-27,0.36643,0.36643,0.36643,0.36643,000,0.36643
2012-03-26,0.36643,0.36643,0.36643,0.36643,70500,0.36643
2012-03-23,0.36643,0.36643,0.36643,0.36643,000,0.36643
2012-03-22,0.36643,0.36643,0.36643,0.36643,000,0.36643
2012-03-21,0.36643,0.36643,0.36643,0.36643,000,0.36643
2012-03-20,0.405,0.405,0.36643,0.36643,38100,0.36643
2012-03-19,0.405,0.405,0.405,0.405,17600,0.405
2012-03-16,0.45321,0.45321,0.39536,0.40018,13700,0.40018
2012-03-15,0.46286,0.46286,0.46286,0.46286,000,0.46286
2012-03-14,0.46768,0.46768,0.45321,0.46286,12300,0.46286
2012-03-13,0.44357,0.49661,0.44357,0.46286,71700,0.46286
2012-03-12,0.38571,0.40982,0.38571,0.40982,18200,0.40982
2012-03-09,0.38571,0.38571,0.38571,0.38571,29300,0.38571
2012-03-08,0.34714,0.36643,0.34714,0.36643,10800,0.36643
2012-03-07,0.28928,0.28928,0.28928,0.28928,000,0.28928
2012-03-06,0.28928,0.28928,0.28928,0.28928,000,0.28928
2012-03-05,0.30375,0.31339,0.30375,0.31339,26900,0.31339
2012-03-02,0.3375,0.3375,0.28928,0.28928,89400,0.28928
2012-03-01,0.36643,0.36643,0.36643,0.36643,000,0.36643
2012-02-29,0.37607,0.37607,0.36643,0.36643,12700,0.36643
2012-02-28,0.38571,0.38571,0.37607,0.37607,34500,0.37607
2012-02-27,0.405,0.41464,0.38571,0.41464,27500,0.41464
2012-02-24,0.48214,0.48214,0.38571,0.38571,200600,0.38571
2012-02-23,0.50143,0.50143,0.50143,0.50143,4100,0.50143
2012-02-22,0.53036,0.53036,0.51107,0.51107,39400,0.51107
2012-02-21,0.54,0.54,0.54,0.54,20200,0.54
2012-02-20,0.54,0.54,0.54,0.54,35500,0.54
2012-02-17,0.54,0.54,0.54,0.54,000,0.54
2012-02-16,0.54,0.54,0.54,0.54,000,0.54
2012-02-15,0.51589,0.54,0.51589,0.54,30900,0.54
2012-02-14,0.54,0.54,0.54,0.54,900,0.54
2012-02-13,0.52071,0.54,0.51107,0.54,29200,0.54
2012-02-10,0.53036,0.53036,0.53036,0.53036,000,0.53036
2012-02-09,0.51589,0.54,0.51589,0.53036,27700,0.53036
2012-02-08,0.51589,0.51589,0.51589,0.51589,000,0.51589
2012-02-07,0.52553,0.52553,0.51107,0.51589,43500,0.51589
2012-02-06,0.52071,0.52071,0.52071,0.52071,000,0.52071
2012-02-03,0.52071,0.52071,0.52071,0.52071,000,0.52071
2012-02-02,0.52071,0.52071,0.52071,0.52071,000,0.52071
2012-02-01,0.53036,0.54964,0.52071,0.52071,18800,0.52071
2012-01-31,0.54964,0.54964,0.53036,0.53036,33100,0.53036
2012-01-27,0.53036,0.54964,0.53036,0.54964,8900,0.54964
2012-01-26,0.54964,0.54964,0.54964,0.54964,000,0.54964
2012-01-25,0.54964,0.54964,0.54964,0.54964,000,0.54964
2012-01-24,0.54964,0.54964,0.54964,0.54964,000,0.54964
2012-01-23,0.55928,0.55928,0.54964,0.54964,13600,0.54964
2012-01-20,0.54964,0.54964,0.54964,0.54964,000,0.54964
2012-01-19,0.57857,0.57857,0.57857,0.57857,000,0.57857
2012-01-18,0.57857,0.57857,0.57857,0.57857,000,0.57857
2012-01-17,0.57857,0.57857,0.57857,0.57857,2200,0.57857
2012-01-16,0.54964,0.57857,0.54964,0.57857,19500,0.57857
2012-01-13,0.57857,0.57857,0.57857,0.57857,000,0.57857
2012-01-12,0.57857,0.57857,0.57857,0.57857,000,0.57857
2012-01-11,0.57857,0.57857,0.57857,0.57857,000,0.57857
2012-01-10,0.54964,0.57857,0.54964,0.57857,2600,0.57857
2012-01-09,0.55446,0.55446,0.55446,0.55446,6700,0.55446
2012-01-06,0.54,0.54,0.54,0.54,000,0.54
2012-01-05,0.54,0.54,0.54,0.54,000,0.54
2012-01-04,0.56411,0.56411,0.54,0.54,8000,0.54
2012-01-03,0.56411,0.56411,0.56411,0.56411,000,0.56411
2012-01-02,0.56411,0.56411,0.56411,0.56411,000,0.56411
2011-12-30,0.56411,0.56411,0.56411,0.56411,000,0.56411
2011-12-29,0.56411,0.56411,0.56411,0.56411,000,0.56411
2011-12-28,0.56411,0.56411,0.56411,0.56411,000,0.56411
2011-12-27,0.56411,0.56411,0.56411,0.56411,000,0.56411
2011-12-26,0.56411,0.56411,0.56411,0.56411,000,0.56411
2011-12-23,0.56411,0.56411,0.56411,0.56411,000,0.56411
2011-12-22,0.56411,0.56411,0.56411,0.56411,000,0.56411
2011-12-21,0.57857,0.57857,0.56411,0.56411,1900,0.56411
2011-12-20,0.56411,0.56411,0.56411,0.56411,14200,0.56411
2011-12-19,0.62678,0.62678,0.62678,0.62678,000,0.62678
2011-12-16,0.62678,0.62678,0.62678,0.62678,000,0.62678
2011-12-15,0.62678,0.62678,0.62678,0.62678,800,0.62678
2011-12-14,0.63643,0.63643,0.63643,0.63643,000,0.63643
2011-12-13,0.63643,0.63643,0.63643,0.63643,000,0.63643
2011-12-12,0.63643,0.63643,0.63643,0.63643,000,0.63643
2011-12-09,0.63643,0.63643,0.63643,0.63643,000,0.63643
2011-12-08,0.63643,0.63643,0.63643,0.63643,000,0.63643
2011-12-07,0.62678,0.63643,0.62678,0.63643,8200,0.63643
2011-12-06,0.64607,0.64607,0.64607,0.64607,000,0.64607
2011-12-05,0.64607,0.64607,0.64607,0.64607,000,0.64607
2011-12-02,0.64607,0.64607,0.64607,0.64607,000,0.64607
2011-12-01,0.64607,0.64607,0.64607,0.64607,000,0.64607
2011-11-30,0.64607,0.64607,0.64607,0.64607,3600,0.64607
2011-11-29,0.67018,0.67018,0.67018,0.67018,000,0.67018
2011-11-28,0.67018,0.67018,0.67018,0.67018,000,0.67018
2011-11-25,0.67018,0.67018,0.67018,0.67018,000,0.67018
2011-11-24,0.67018,0.67018,0.67018,0.67018,000,0.67018
2011-11-23,0.67018,0.67018,0.67018,0.67018,000,0.67018
2011-11-22,0.67018,0.67018,0.67018,0.67018,14000,0.67018
2011-11-21,0.62678,0.675,0.62678,0.675,4400,0.675
2011-11-18,0.72321,0.72321,0.72321,0.72321,000,0.72321
2011-11-17,0.72321,0.72321,0.72321,0.72321,000,0.72321
2011-11-11,0.72321,0.72803,0.72321,0.72321,47700,0.14923
2011-11-09,0.73286,0.73286,0.72321,0.72321,2900,0.14923
2011-11-07,0.75214,0.76178,0.75214,0.76178,15500,0.15719
2011-11-04,0.75214,0.75214,0.7425,0.75214,11000,0.1552
2011-11-01,0.7425,0.75214,0.7425,0.75214,29800,0.1552
2011-10-31,0.75214,0.75214,0.75214,0.75214,25900,0.1552
2011-10-28,0.73286,0.75214,0.73286,0.74732,11400,0.15421
2011-10-27,0.72321,0.72321,0.72321,0.72321,228100,0.14923
2011-10-26,0.71839,0.71839,0.71839,0.71839,1200,0.14824
2011-10-25,0.76178,0.76178,0.68464,0.68464,2500,0.14127
2011-10-24,0.71357,0.72321,0.67982,0.72321,31000,0.14923
2011-10-21,0.69428,0.69428,0.675,0.675,13400,0.13928
2011-10-18,0.71839,0.72321,0.69428,0.69428,27100,0.14326
2011-10-17,0.67018,0.68464,0.67018,0.68464,15300,0.14127
2011-10-12,0.62678,0.64607,0.62678,0.64607,11300,0.13331
2011-10-11,0.57857,0.57857,0.57857,0.57857,44500,0.11939
2011-10-10,0.57375,0.57857,0.57375,0.57857,5100,0.11939
2011-10-06,0.50143,0.50143,0.50143,0.50143,10300,0.10347
2011-10-04,0.48214,0.48214,0.46286,0.4725,15200,0.0975
2011-09-29,0.49178,0.49178,0.46286,0.46286,33300,0.09551
2011-09-28,0.54,0.54,0.54,0.54,4400,0.11143
2011-09-27,0.54482,0.54964,0.54,0.54482,32300,0.11242
2011-09-22,0.57857,0.57857,0.53036,0.53036,11300,0.10944
2011-09-19,0.64125,0.64125,0.64125,0.64125,3300,0.13232
2011-09-16,0.6075,0.6075,0.57857,0.59786,47100,0.12337
2011-09-14,0.61714,0.61714,0.60268,0.60268,800,0.12436
2011-09-13,0.61714,0.61714,0.61714,0.61714,12900,0.12735
2011-09-12,0.58821,0.58821,0.58821,0.58821,20700,0.12138
2011-09-06,0.62678,0.62678,0.61714,0.61714,8500,0.12735
2011-09-05,0.62678,0.62678,0.62678,0.62678,10300,0.12933
2011-09-02,0.61714,0.62678,0.61714,0.62678,8800,0.12933
2011-08-31,0.63161,0.68464,0.62678,0.62678,83800,0.12933
2011-08-30,0.65089,0.65089,0.63643,0.63643,12200,0.13133
2011-08-22,0.62678,0.64607,0.62678,0.64607,600,0.13331
2011-08-19,0.63643,0.63643,0.63643,0.63643,3800,0.13133
2011-08-16,0.65571,0.66536,0.65571,0.66536,11200,0.1373
2011-08-15,0.62678,0.65571,0.62678,0.64607,21700,0.13331
2011-08-12,0.57857,0.6075,0.57857,0.6075,13100,0.12536
2011-08-10,0.62678,0.62678,0.62678,0.62678,64400,0.12933
2011-08-09,0.62678,0.62678,0.50143,0.59786,41600,0.12337
2011-08-05,0.82928,0.84375,0.675,0.675,64500,0.13928
2011-08-04,0.82928,0.82928,0.82928,0.82928,000,0.17112
2011-07-25,0.86785,0.86785,0.86785,0.86785,8200,0.17908
2011-07-22,0.88714,0.88714,0.77143,0.77143,20700,0.15918
2011-07-20,0.90643,0.945,0.88714,0.89678,11800,0.18505
2011-07-19,0.93535,0.93535,0.86785,0.86785,11900,0.17908
2011-07-14,0.96428,0.96428,0.96428,0.96428,6100,0.19898
2011-07-13,0.95464,0.95464,0.95464,0.95464,900,0.19699
2011-07-12,0.86785,0.95464,0.86785,0.95464,26200,0.19699
2011-07-11,0.88714,0.88714,0.88714,0.88714,100,0.18306
2011-07-08,0.89678,0.89678,0.88714,0.88714,1000,0.18306
2011-07-06,0.89678,0.89678,0.89678,0.89678,7600,0.18505
2011-07-01,0.89678,0.89678,0.89678,0.89678,20700,0.18505
2011-06-28,0.91607,0.91607,0.89678,0.89678,1600,0.18505
2011-06-27,0.94018,0.94018,0.91607,0.91607,7200,0.18903
2011-06-24,0.945,0.945,0.945,0.945,2000,0.195
2011-06-22,0.96428,0.96428,0.96428,0.96428,5100,0.19898
2011-06-20,0.95464,0.98357,0.95464,0.98357,17100,0.20296
2011-06-16,0.945,0.95464,0.945,0.95464,11700,0.19699
2011-06-15,0.945,0.945,0.945,0.945,6200,0.195
2011-06-09,0.91125,0.945,0.91125,0.945,14200,0.195
2011-06-06,0.9016,0.9016,0.9016,0.9016,20700,0.18604
2011-06-03,0.89678,0.89678,0.88714,0.89678,62700,0.18505
2011-06-02,0.91607,0.91607,0.86785,0.88714,37900,0.18306
2011-06-01,0.91607,0.91607,0.91607,0.91607,600,0.18903
2011-05-30,0.945,0.945,0.945,0.945,3400,0.195
2011-05-27,0.91607,0.91607,0.91607,0.91607,4200,0.18903
2011-05-23,0.97393,0.97393,0.96428,0.96428,400,0.19898
2011-05-19,0.98357,0.98357,0.98357,0.98357,2000,0.20296
2011-05-18,0.97393,0.97393,0.97393,0.97393,15400,0.20097
2011-05-16,0.97393,0.97393,0.97393,0.97393,9300,0.20097
2011-05-13,0.97393,0.97393,0.96428,0.96428,61800,0.19898
2011-05-12,0.96428,0.96428,0.96428,0.96428,11300,0.19898
2011-05-10,1.06071,1.06071,1.06071,1.06071,7500,0.21887
2011-05-09,1.05107,1.05107,1.05107,1.05107,6800,0.20509
2011-05-06,1.06071,1.06071,1.0125,1.0125,18900,0.19757
2011-05-05,1.09928,1.09928,1.06071,1.06071,39900,0.20698
2011-05-04,1.11857,1.11857,1.11857,1.11857,4700,0.21827
2011-05-03,1.09928,1.09928,1.09928,1.09928,000,0.2145
2011-05-02,1.15714,1.15714,1.15714,1.15714,5100,0.22579
2011-04-29,1.11857,1.15714,1.11857,1.15714,13800,0.22579
2011-04-27,1.09928,1.09928,1.09928,1.09928,5100,0.2145
2011-04-21,1.07035,1.07035,1.07035,1.07035,000,0.20886
2011-04-20,1.05107,1.05107,1.05107,1.05107,4700,0.20509
2011-04-19,1.07035,1.07035,1.05107,1.05107,11300,0.20509
2011-04-18,1.07035,1.07035,1.07035,1.07035,9300,0.20886
2011-04-15,1.10893,1.10893,1.10893,1.10893,20700,0.21638
2011-04-14,1.10893,1.10893,1.10893,1.10893,500,0.21638
2011-04-13,1.15714,1.15714,1.10893,1.10893,23800,0.21638
2011-04-12,1.15714,1.20535,1.15714,1.15714,14500,0.22579
2011-04-11,1.20535,1.20535,1.20535,1.20535,1000,0.2352
2011-04-06,1.15714,1.15714,1.15714,1.15714,100,0.22579
2011-04-05,1.1475,1.15714,1.1475,1.15714,26900,0.22579
2011-04-04,1.10893,1.10893,1.10893,1.10893,35600,0.21638
2011-03-31,1.0125,1.06071,1.0125,1.06071,25100,0.20698
2011-03-30,1.0125,1.0125,1.00285,1.00285,4100,0.19568
2011-03-29,1.06071,1.06071,1.06071,1.06071,10300,0.20698
2011-03-25,1.07035,1.07035,1.0125,1.06071,19400,0.20698
2011-03-24,1.06071,1.08,1.06071,1.07035,31100,0.20886
2011-03-23,1.05107,1.07035,1.02214,1.02214,29200,0.19945
2011-03-22,1.05107,1.05107,1.03178,1.04143,55400,0.20321
2011-03-21,1.05107,1.05107,1.05107,1.05107,5100,0.20509
2011-03-18,1.02214,1.02214,1.02214,1.02214,4400,0.19945
2011-03-17,0.97393,0.99321,0.97393,0.99321,28600,0.1938
2011-03-16,1.02214,1.02214,0.96428,0.96428,37800,0.18816
2011-03-14,0.96428,1.00285,0.96428,1.00285,18100,0.19568
2011-03-11,0.99321,0.99321,0.96428,0.99321,61200,0.1938
2011-03-10,1.0125,1.0125,1.0125,1.0125,7200,0.19757
2011-03-09,1.0125,1.0125,1.00285,1.00285,5100,0.19568
2011-03-08,1.05107,1.05107,1.00285,1.00285,11000,0.19568
2011-03-07,1.00285,1.00285,1.00285,1.00285,8000,0.19568
2011-03-04,1.02214,1.02214,1.00285,1.00285,71200,0.19568
2011-03-03,1.05107,1.05107,1.02214,1.02214,28000,0.19945
2011-03-01,1.06071,1.06071,1.02214,1.02214,62900,0.19945
2011-02-28,1.02214,1.02214,1.02214,1.02214,5100,0.19945
2011-02-24,1.02214,1.06071,1.02214,1.06071,7300,0.20698
2011-02-23,1.06071,1.06071,1.06071,1.06071,5400,0.20698
2011-02-22,1.07035,1.07035,1.02214,1.02214,13400,0.19945
2011-02-21,1.10893,1.10893,1.08,1.08,47400,0.21074
2011-02-18,1.06071,1.07035,1.06071,1.06071,33100,0.20698
2011-02-17,1.06071,1.06071,1.06071,1.06071,20700,0.20698
2011-02-16,1.06071,1.06071,1.03178,1.03178,28200,0.20133
2011-02-15,1.02214,1.06071,1.02214,1.06071,23800,0.20698
2011-02-14,1.02214,1.02214,1.02214,1.02214,18900,0.19945
2011-02-10,1.04143,1.04143,1.0125,1.0125,36400,0.19757
2011-02-09,1.05107,1.05107,1.03178,1.03178,34600,0.20133
2011-02-08,1.06071,1.06071,1.05107,1.05107,7600,0.20509
2011-02-07,1.08482,1.10893,1.08482,1.10893,10700,0.21638
2011-02-01,1.07035,1.1041,1.07035,1.1041,5100,0.21544
2011-01-31,1.06071,1.06071,1.06071,1.06071,4100,0.20698
2011-01-28,1.06071,1.06071,1.00285,1.00285,22200,0.19568
2011-01-25,1.03178,1.04143,1.00285,1.00285,57800,0.19568
2011-01-21,1.03178,1.03178,1.03178,1.03178,2000,0.20133
2011-01-20,1.04143,1.04143,1.0125,1.02696,25100,0.20039
2011-01-19,1.11857,1.11857,1.06071,1.06071,10800,0.20698
2011-01-18,1.10893,1.11857,1.09446,1.11857,14700,0.21827
2011-01-17,1.15714,1.16678,1.11857,1.11857,33600,0.21827
2011-01-14,1.15232,1.15714,1.12339,1.12339,8200,0.21921
2011-01-13,1.12821,1.12821,1.10893,1.10893,3500,0.21638
2011-01-12,1.1041,1.1041,1.09928,1.09928,5100,0.2145
2011-01-10,1.14268,1.14268,1.14268,1.14268,2700,0.22297
2011-01-07,1.12821,1.12821,1.10893,1.12821,14900,0.22015
2011-01-06,1.17643,1.17643,1.12821,1.15714,37100,0.22579
2011-01-05,1.20535,1.20535,1.19571,1.20535,6200,0.2352
2010-12-24,1.20535,1.20535,1.20535,1.20535,4900,0.2352
2010-12-23,1.23428,1.23428,1.20535,1.20535,13400,0.2352
2010-12-22,1.25357,1.25357,1.24393,1.24393,18500,0.24273
2010-12-21,1.25357,1.25357,1.25357,1.25357,5100,0.24461
2010-12-20,1.25357,1.27285,1.215,1.215,37700,0.23708
2010-12-17,1.11857,1.20535,1.11857,1.20535,57500,0.2352
2010-12-16,1.12339,1.12339,1.08964,1.08964,49700,0.21262
2010-12-15,1.11857,1.11857,1.11857,1.11857,10300,0.21827
2010-12-13,1.12821,1.13785,1.12821,1.13785,10600,0.22203
2010-12-10,1.13785,1.13785,1.13785,1.13785,8100,0.22203
2010-12-09,1.11857,1.12821,1.11857,1.12821,2300,0.22015
2010-12-06,1.09928,1.11857,1.09928,1.11857,14600,0.21827
2010-12-03,1.15714,1.15714,1.1475,1.1475,3900,0.22391
2010-12-02,1.1475,1.1475,1.1475,1.1475,33700,0.22391
2010-11-30,1.08,1.13785,1.08,1.13785,49200,0.22203
2010-11-29,1.08,1.08,1.08,1.08,10300,0.21074
2010-11-26,1.08,1.08964,1.08,1.08,48300,0.21074
2010-11-25,1.09928,1.09928,1.08,1.08,64800,0.21074
2010-11-23,1.09928,1.09928,1.08964,1.08964,15500,0.21262
2010-11-19,1.10893,1.10893,1.10893,1.10893,3000,0.21638
2010-11-18,1.09928,1.09928,1.09928,1.09928,11200,0.2145
2010-11-17,1.12821,1.12821,1.12821,1.12821,900,0.22015
2010-11-15,1.11857,1.13785,1.11857,1.13785,11300,0.22203
2010-11-12,1.11857,1.11857,1.10893,1.10893,5100,0.21638
2010-11-10,1.13785,1.13785,1.13785,1.13785,10300,0.22203
2010-11-09,1.13785,1.13785,1.13785,1.13785,20700,0.22203
2010-11-08,1.13785,1.13785,1.13785,1.13785,500,0.22203
2010-11-05,1.17643,1.20535,1.12821,1.13785,29100,0.22203
2010-11-02,1.08964,1.08964,1.08,1.08,29000,0.21074
2010-11-01,1.10893,1.10893,1.08,1.08482,61100,0.21168
2010-10-29,1.11857,1.11857,1.10893,1.10893,8800,0.21638
2010-10-28,1.20535,1.20535,1.08,1.11857,37900,0.21827
2010-10-27,1.2825,1.2825,1.20535,1.20535,16400,0.2352
2010-10-26,1.2825,1.2825,1.2825,1.2825,2300,0.25025
2010-10-22,1.25357,1.25357,1.25357,1.25357,5000,0.24461
2010-10-20,1.215,1.215,1.215,1.215,2800,0.23708
2010-10-19,1.25357,1.25357,1.25357,1.25357,10300,0.24461
2010-10-18,1.26321,1.31142,1.25357,1.25357,33300,0.24461
2010-10-15,1.33071,1.33071,1.30178,1.30178,8200,0.25401
2010-10-14,1.35,1.35,1.33071,1.33071,4500,0.25966
2010-10-13,1.35,1.35,1.35,1.35,3700,0.26342
2010-10-12,1.35,1.35,1.34035,1.34035,3300,0.26154
2010-10-11,1.35,1.35,1.35,1.35,2800,0.26342
2010-10-08,1.35,1.35,1.35,1.35,500,0.26342
2010-10-06,1.35,1.35,1.33071,1.33071,4300,0.25966
2010-10-05,1.35,1.36928,1.33071,1.33071,33800,0.25966
2010-10-04,1.31142,1.32107,1.30178,1.32107,7100,0.25778
2010-10-01,1.25357,1.32107,1.25357,1.25357,12500,0.24461
2010-09-28,1.19571,1.19571,1.19571,1.19571,13400,0.23332
2010-09-27,1.10893,1.15714,1.09928,1.15714,36300,0.22579
2010-09-24,1.10893,1.10893,1.08,1.08,18300,0.21074
2010-09-23,1.06071,1.10893,1.06071,1.10893,8200,0.21638
2010-09-22,1.05107,1.09928,1.05107,1.09928,23300,0.2145
2010-09-21,1.05107,1.05107,1.05107,1.05107,9800,0.20509
2010-09-20,1.0125,1.05107,0.96428,1.05107,14100,0.20509
2010-09-14,0.96428,0.96428,0.96428,0.96428,7500,0.18816
2010-09-13,1.0125,1.0125,1.0125,1.0125,1600,0.19757
2010-09-09,1.0125,1.0125,1.0125,1.0125,1000,0.19757
2010-09-06,0.90643,0.945,0.90643,0.945,21700,0.1844
2010-09-03,0.90643,0.90643,0.90643,0.90643,35700,0.17687
2010-09-02,0.90643,0.91607,0.90643,0.91607,12600,0.17875
2010-09-01,0.90643,0.90643,0.90643,0.90643,100,0.17687
2010-08-31,0.90643,0.90643,0.90643,0.90643,13700,0.17687
2010-08-30,0.90643,0.94018,0.90643,0.90643,10700,0.17687
2010-08-27,0.95464,0.95464,0.95464,0.95464,2000,0.18628
2010-08-26,0.95464,0.95464,0.95464,0.95464,6000,0.18628
2010-08-25,0.91607,0.91607,0.91607,0.91607,14000,0.17875
2010-08-20,0.95464,0.95464,0.95464,0.95464,4100,0.18628
2010-08-19,0.93535,0.95464,0.93535,0.95464,2000,0.18628
2010-08-16,0.95464,0.95464,0.95464,0.95464,3600,0.18628
2010-08-13,0.95946,0.95946,0.95946,0.95946,2000,0.18722
2010-08-12,0.93535,0.93535,0.93535,0.93535,5000,0.18251
2010-08-11,1.0125,1.0125,0.96428,0.96428,37600,0.18816
2010-08-10,1.05589,1.05589,1.03178,1.03178,3600,0.20133
2010-08-09,1.03178,1.03178,1.03178,1.03178,12400,0.20133
2010-08-06,1.05589,1.05589,1.05589,1.05589,2500,0.20603
2010-08-05,1.03178,1.03178,1.03178,1.03178,32100,0.20133
2010-08-03,1.03178,1.05107,1.0125,1.0125,31100,0.19757
2010-08-02,1.06071,1.10893,1.06071,1.10893,11300,0.21638
2010-07-30,1.07518,1.12339,1.0125,1.06071,77700,0.20698
2010-07-29,0.98839,1.00285,0.98839,1.00285,4200,0.19568
2010-07-26,0.95464,1.00285,0.95464,1.00285,15600,0.19568
2010-07-23,0.945,0.96428,0.945,0.96428,16500,0.18816
2010-07-22,0.93535,0.96428,0.93535,0.96428,7200,0.18816
2010-07-20,0.86785,0.86785,0.86785,0.86785,500,0.16934
2010-07-16,0.8775,0.8775,0.86785,0.86785,4100,0.16934
2010-07-15,0.8775,0.8775,0.8775,0.8775,3600,0.17123
2010-07-14,0.91607,0.92571,0.91607,0.92571,6200,0.18063
2010-07-13,0.84857,0.91125,0.84857,0.91125,5400,0.17781
2010-07-12,0.84857,0.84857,0.84857,0.84857,4900,0.16558
2010-07-09,0.86785,0.86785,0.84857,0.84857,4100,0.16558
2010-07-07,0.88714,0.88714,0.86785,0.86785,4100,0.16934
2010-07-06,0.88714,0.88714,0.88714,0.88714,1100,0.17311
2010-07-01,0.88714,0.88714,0.88714,0.88714,7100,0.17311
2010-06-28,0.90643,0.90643,0.88714,0.88714,3300,0.17311
2010-06-25,0.92571,0.92571,0.8775,0.8775,000,0.17123
2010-06-24,0.87268,0.87268,0.87268,0.87268,4100,0.17029
2010-06-23,0.87268,0.87268,0.87268,0.87268,4500,0.17029
2010-06-22,0.87268,0.87268,0.87268,0.87268,2900,0.17029
2010-06-21,0.87268,0.87268,0.87268,0.87268,5100,0.17029
2010-06-18,0.8775,0.8775,0.86785,0.86785,7200,0.16934
2010-06-17,0.88714,0.88714,0.86785,0.86785,5000,0.16934
2010-06-16,0.88714,0.88714,0.85339,0.85339,5200,0.16652
2010-06-15,0.88714,0.88714,0.84857,0.84857,000,0.16558
2010-06-11,0.89678,0.89678,0.86785,0.88714,28000,0.17311
2010-06-10,0.88714,0.89678,0.88714,0.89678,6000,0.17499
2010-06-09,0.86785,0.86785,0.86785,0.86785,1000,0.16934
2010-06-08,0.91607,0.91607,0.89678,0.89678,20100,0.17499
2010-06-07,0.91607,0.91607,0.91607,0.91607,10400,0.17875
2010-06-04,0.95946,0.95946,0.91607,0.91607,000,0.17875
2010-06-03,0.96428,0.96428,0.82928,0.82928,000,0.16182
2010-06-02,0.86785,0.96428,0.86785,0.96428,48700,0.18816
2010-06-01,0.94018,0.94018,0.8341,0.8341,000,0.16276
2010-05-31,0.86785,0.86785,0.86785,0.86785,35500,0.16934
2010-05-28,0.93535,0.93535,0.86785,0.86785,000,0.16934
2010-05-27,0.86785,0.94018,0.86785,0.94018,4600,0.18346
2010-05-26,0.86785,0.86785,0.85821,0.85821,49000,0.16746
2010-05-25,0.86785,0.86785,0.86785,0.86785,32800,0.16934
2010-05-24,0.94018,0.94018,0.77143,0.77143,000,0.15053
2010-05-21,0.86785,0.86785,0.83893,0.86785,60900,0.16934
2010-05-20,0.88232,0.88232,0.86785,0.86785,9900,0.16934
2010-05-19,0.86785,0.87268,0.86785,0.86785,44500,0.16934
2010-05-18,0.91607,0.91607,0.81964,0.81964,000,0.15994
2010-05-17,0.84375,0.84375,0.84375,0.84375,48700,0.16464
2010-05-14,0.81,0.84857,0.81,0.82928,20200,0.16182
2010-05-13,0.78107,0.81964,0.78107,0.81964,21800,0.15994
2010-05-12,0.75214,0.78107,0.7425,0.78107,42100,0.15241
2010-05-11,0.79071,0.79071,0.75214,0.75214,25700,0.14676
2010-05-10,0.78589,0.79071,0.78589,0.79071,31100,0.15429
2010-05-07,0.75214,0.79071,0.7425,0.78589,77400,0.15335
2010-05-06,0.7425,0.7425,0.7425,0.7425,4100,0.14488
2010-05-05,0.77143,0.77143,0.7425,0.7425,43400,0.14488
2010-05-04,0.76178,0.77143,0.76178,0.77143,24800,0.15053
2010-05-03,0.75214,0.75214,0.7425,0.7425,10300,0.14488
2010-04-30,0.77143,0.77143,0.75214,0.75214,000,0.14676
2010-04-29,0.81964,0.81964,0.75214,0.75214,000,0.14676
2010-04-28,0.80035,0.84375,0.75214,0.77143,91700,0.15053
2010-04-27,0.84375,0.84375,0.77143,0.77143,000,0.15053
2010-04-23,0.81,0.81964,0.77143,0.81964,56400,0.15994
2010-04-22,0.81964,0.81964,0.81,0.81,15900,0.15805
2010-04-21,0.81964,0.81964,0.72321,0.72321,000,0.14112
2010-04-20,0.77143,0.81964,0.77143,0.81964,27300,0.15994
2010-04-19,0.81964,0.81964,0.77143,0.77143,000,0.15053
2010-04-16,0.86785,0.86785,0.77143,0.77143,000,0.15053
2010-04-15,0.80035,0.80035,0.78589,0.78589,700,0.15335
2010-04-14,0.81482,0.81482,0.80035,0.80035,3000,0.15617
2010-04-13,0.81964,0.81964,0.81482,0.81482,4300,0.15899
2010-04-12,0.81964,0.81964,0.81964,0.81964,5000,0.15994
2010-04-09,0.81964,0.81964,0.81964,0.81964,6200,0.15994
2010-04-08,0.86785,0.86785,0.81964,0.81964,000,0.15994
2010-04-07,0.86785,0.86785,0.86785,0.86785,10300,0.16934
2010-04-06,0.86785,0.86785,0.86785,0.86785,6700,0.16934
2010-04-01,0.92571,0.92571,0.86785,0.86785,000,0.16934
2010-03-31,0.86785,0.86785,0.86785,0.86785,2000,0.16934
2010-03-30,0.86785,0.86785,0.86785,0.86785,8800,0.16934
2010-03-29,0.86785,0.86785,0.81964,0.81964,000,0.15994
2010-03-26,0.86785,0.86785,0.81964,0.81964,000,0.15994
2010-03-25,0.86785,0.86785,0.86785,0.86785,9300,0.16934
2010-03-24,0.86785,0.86785,0.86785,0.86785,6200,0.16934
2010-03-23,0.88714,0.88714,0.86785,0.86785,27000,0.16934
2010-03-22,0.945,0.945,0.86785,0.86785,000,0.16934
2010-03-19,0.90643,0.90643,0.86785,0.86785,43600,0.16934
2010-03-17,0.86785,0.86785,0.81964,0.82928,24400,0.16182
2010-03-16,0.86785,0.90643,0.86785,0.90643,22000,0.17687
2010-03-12,0.86785,0.86785,0.86785,0.86785,18200,0.16934
2010-03-11,0.90643,0.90643,0.86785,0.86785,000,0.16934
2010-03-10,0.90643,0.90643,0.88714,0.88714,15500,0.17311
2010-03-08,0.96428,0.96428,0.86785,0.86785,000,0.16934
2010-03-05,0.81964,0.86785,0.81964,0.86785,38700,0.16934
2010-03-04,0.84857,0.84857,0.81964,0.81964,11300,0.15994
2010-03-03,0.85821,0.85821,0.84857,0.84857,000,0.16558
2010-03-02,0.86785,0.86785,0.86785,0.86785,300,0.16934
2010-03-01,0.86785,0.86785,0.86785,0.86785,5300,0.16934
2010-02-26,0.86785,0.86785,0.86785,0.86785,1900,0.16934
2010-02-24,0.91607,0.91607,0.86785,0.86785,000,0.16934
2010-02-23,0.86785,0.86785,0.86785,0.86785,26900,0.16934
2010-02-22,0.84857,0.84857,0.84857,0.84857,900,0.16558
2010-02-19,0.95464,0.95464,0.82928,0.82928,69900,0.16182
2010-02-18,0.96428,0.96428,0.96428,0.96428,1400,0.18816
2010-02-17,0.96428,0.96428,0.96428,0.96428,2100,0.18816
2010-02-16,0.96428,0.96428,0.96428,0.96428,6700,0.18816
2010-02-15,1.03178,1.03178,0.95464,0.95464,9800,0.18628
2010-02-12,0.98357,0.98357,0.98357,0.98357,15500,0.19192
2010-02-11,0.96428,0.96428,0.96428,0.96428,10300,0.18816
2010-02-10,1.00285,1.00285,0.945,0.945,000,0.1844
2010-02-09,0.98357,1.0125,0.94982,1.0125,44200,0.19757
2010-02-08,1.0125,1.0125,1.0125,1.0125,8800,0.19757
2010-02-05,0.96428,0.96428,0.92571,0.94018,32600,0.18346
2010-02-02,0.96428,1.04143,0.96428,1.04143,23800,0.20321
2010-01-29,1.06071,1.07035,1.06071,1.07035,10300,0.20886
2010-01-28,1.08,1.08,1.08,1.08,20700,0.21074
2010-01-27,0.945,1.08,0.945,1.08,21000,0.21074
2010-01-25,0.95464,0.95464,0.95464,0.95464,800,0.18628
2010-01-22,1.0125,1.0125,0.95464,0.95464,10600,0.18628
2010-01-21,1.04143,1.04143,1.04143,1.04143,900,0.20321
2010-01-20,1.1041,1.1041,1.04143,1.04143,14400,0.20321
2010-01-19,1.1041,1.1041,1.1041,1.1041,8800,0.21544
2010-01-18,1.04143,1.1041,1.04143,1.1041,30700,0.21544
2010-01-15,1.06071,1.06071,1.0125,1.0125,000,0.19757
2010-01-14,1.05107,1.05107,1.05107,1.05107,1000,0.20509
2010-01-13,0.96428,1.00285,0.96428,1.00285,7400,0.19568
2010-01-12,1.00285,1.00285,0.96428,0.96428,24500,0.18816
2010-01-11,0.98839,1.00285,0.96428,1.00285,30900,0.19568
2010-01-08,0.98357,0.98357,0.95464,0.95464,000,0.18628
2010-01-07,1.06071,1.10893,0.96428,1.0125,48200,0.19757
2010-01-06,1.0125,1.0125,1.0125,1.0125,4100,0.19757
2010-01-05,0.95946,1.0125,0.95946,1.0125,45000,0.19757
2009-12-30,1.06071,1.06071,1.04143,1.04143,18600,0.20321
2009-12-29,0.91607,1.06071,0.91607,1.06071,27800,0.20698
2009-12-24,0.96428,1.0125,0.88714,0.88714,23800,0.17311
2009-12-23,0.86785,0.96428,0.86785,0.96428,65500,0.18816
2009-12-22,0.86785,0.86785,0.81964,0.86785,41300,0.16934
2009-12-21,0.81964,0.86785,0.81964,0.86785,52500,0.16934
2009-12-18,0.79071,0.83893,0.77625,0.83893,44300,0.1637
2009-12-17,0.77143,0.81964,0.77143,0.81,105800,0.15805
2009-12-16,0.72321,0.81964,0.72321,0.77143,250200,0.15053
