Date,Open,High,Low,Close,Volume,Adj Close
2017-01-09,1.665,1.68,1.665,1.68,68700,1.68
2017-01-06,1.685,1.69,1.665,1.665,57100,1.665
2017-01-05,1.68,1.69,1.67,1.69,105000,1.69
2017-01-04,1.68,1.685,1.665,1.67,92900,1.67
2017-01-03,1.675,1.68,1.66,1.665,48100,1.665
2017-01-02,2.00,2.00,2.00,2.00,000,2.00
2016-12-30,1.675,1.675,1.66,1.675,94500,1.675
2016-12-29,1.665,1.675,1.665,1.675,32400,1.675
2016-12-28,1.685,1.685,1.665,1.665,61600,1.665
2016-12-27,2.00,2.00,2.00,2.00,000,2.00
2016-12-26,2.00,2.00,2.00,2.00,000,2.00
2016-12-23,1.68,1.685,1.665,1.665,27100,1.665
2016-12-22,1.67,1.685,1.67,1.68,69400,1.68
2016-12-21,1.66,1.69,1.66,1.67,117400,1.67
2016-12-20,1.67,1.67,1.66,1.67,118600,1.67
2016-12-19,1.665,1.68,1.66,1.665,78200,1.665
2016-12-16,1.68,1.68,1.66,1.67,43500,1.67
2016-12-15,1.66,1.67,1.66,1.67,40200,1.67
2016-12-14,1.65,1.68,1.635,1.67,126100,1.67
2016-12-13,1.655,1.69,1.635,1.65,58500,1.65
2016-12-12,1.645,1.66,1.635,1.655,55600,1.655
2016-12-09,1.64,1.66,1.625,1.635,59900,1.635
2016-12-08,1.64,1.655,1.625,1.63,68100,1.63
2016-12-07,1.615,1.64,1.615,1.625,71800,1.625
2016-12-06,1.63,1.64,1.62,1.62,66600,1.62
2016-12-05,1.645,1.645,1.615,1.63,98900,1.63
2016-12-02,1.64,1.68,1.64,1.65,60200,1.65
2016-12-01,1.655,1.68,1.64,1.68,115400,1.68
2016-11-30,1.67,1.685,1.67,1.675,25200,1.675
2016-11-29,1.70,1.70,1.655,1.69,85700,1.69
2016-11-28,1.70,1.71,1.675,1.71,116100,1.71
2016-11-25,1.66,1.70,1.655,1.695,122700,1.695
2016-11-24,2.00,2.00,2.00,2.00,000,2.00
2016-11-23,1.65,1.69,1.65,1.65,93900,1.65
2016-11-22,1.69,1.70,1.65,1.65,83600,1.65
2016-11-21,1.665,1.69,1.645,1.69,51900,1.69
2016-11-18,1.635,1.675,1.635,1.645,35300,1.645
2016-11-17,1.65,1.66,1.63,1.63,84300,1.63
2016-11-16,1.66,1.68,1.635,1.635,157400,1.635
2016-11-15,1.72,1.72,1.65,1.65,127300,1.65
2016-11-14,1.685,1.725,1.68,1.68,90700,1.68
2016-11-11,1.71,1.73,1.67,1.725,205200,1.725
2016-11-10,1.70,1.73,1.68,1.695,222700,1.695
2016-11-09,1.72,1.73,1.68,1.72,103400,1.72
2016-11-08,1.71,1.72,1.70,1.72,99500,1.72
2016-11-07,1.71,1.72,1.70,1.70,96300,1.70
2016-11-04,1.72,1.72,1.705,1.705,40000,1.705
2016-11-03,1.725,1.75,1.725,1.75,12700,1.75
2016-11-02,1.75,1.765,1.71,1.71,98500,1.71
2016-11-01,1.75,1.77,1.75,1.77,30000,1.77
2016-10-31,1.74,1.75,1.735,1.735,72700,1.735
2016-10-28,1.735,1.78,1.735,1.76,70600,1.76
2016-10-27,1.72,1.725,1.72,1.725,25400,1.725
2016-10-26,1.705,1.71,1.705,1.71,24000,1.71
2016-10-25,1.71,1.73,1.705,1.705,96200,1.705
2016-10-24,1.72,1.78,1.72,1.73,72100,1.73
2016-10-21,1.72,1.75,1.70,1.70,21500,1.70
2016-10-20,1.78,1.78,1.74,1.74,22100,1.74
2016-10-19,1.75,1.79,1.75,1.75,159100,1.75
2016-10-18,2.00,2.00,2.00,2.00,000,2.00
2016-10-17,2.00,2.00,2.00,2.00,000,2.00
2016-10-14,1.72,1.72,1.695,1.695,107300,1.695
2016-10-13,1.71,1.73,1.705,1.71,17500,1.71
2016-10-12,1.73,1.735,1.70,1.70,50300,1.70
2016-10-11,1.72,1.72,1.71,1.71,65500,1.71
2016-10-10,1.72,1.74,1.715,1.73,57100,1.73
2016-10-07,1.75,1.75,1.71,1.71,157000,1.71
2016-10-06,1.73,1.775,1.73,1.775,39300,1.775
2016-10-05,1.74,1.75,1.73,1.73,51000,1.73
2016-10-04,1.76,1.775,1.735,1.75,44000,1.75
2016-10-03,1.755,1.78,1.74,1.78,22900,1.78
2016-09-30,1.76,1.78,1.755,1.755,42500,1.755
2016-09-29,1.75,1.78,1.74,1.77,79700,1.77
2016-09-28,1.75,1.80,1.73,1.775,95500,1.775
2016-09-27,1.73,1.79,1.73,1.785,56100,1.785
2016-09-26,1.825,1.825,1.74,1.74,92300,1.74
2016-09-23,1.73,1.77,1.73,1.77,40800,1.77
2016-09-22,1.745,1.76,1.72,1.73,49200,1.73
2016-09-21,1.78,1.80,1.70,1.71,343100,1.71
2016-09-20,1.785,1.785,1.775,1.775,53200,1.775
2016-09-19,1.785,1.785,1.785,1.785,15800,1.785
2016-09-16,1.76,1.79,1.76,1.78,43500,1.78
2016-09-15,1.78,1.79,1.75,1.755,66700,1.755
2016-09-14,1.77,1.79,1.75,1.77,104200,1.77
2016-09-13,1.82,1.83,1.79,1.795,115100,1.795
2016-09-12,1.825,1.84,1.81,1.81,68500,1.81
2016-09-09,1.85,1.865,1.83,1.85,42500,1.85
2016-09-08,1.85,1.85,1.83,1.83,76900,1.83
2016-09-06,1.87,1.87,1.86,1.87,56600,1.87
2016-09-05,1.875,1.88,1.86,1.86,72600,1.86
2016-09-02,1.86,1.90,1.86,1.87,70200,1.87
2016-09-01,1.87,1.87,1.86,1.87,204400,1.87
2016-08-31,1.88,1.88,1.87,1.87,46200,1.87
2016-08-30,1.835,1.88,1.835,1.88,61600,1.88
2016-08-29,1.86,1.885,1.86,1.86,16500,1.86
2016-08-26,1.86,1.90,1.86,1.885,37800,1.885
2016-08-25,1.875,1.88,1.85,1.86,72500,1.86
2016-08-24,2.00,2.00,2.00,2.00,000,2.00
2016-08-23,2.00,2.00,2.00,2.00,000,2.00
2016-08-22,2.00,2.00,2.00,2.00,000,2.00
2016-08-19,1.875,1.9175,1.875,1.895,53300,1.895
2016-08-18,1.895,1.895,1.875,1.875,46000,1.875
2016-08-17,1.895,1.895,1.875,1.875,83800,1.875
2016-08-16,1.90,1.925,1.875,1.885,52800,1.885
2016-08-15,1.895,1.905,1.875,1.90,77000,1.90
2016-08-12,2.00,2.00,2.00,2.00,000,2.00
2016-08-11,2.00,2.00,2.00,2.00,000,2.00
2016-08-10,2.00,2.00,2.00,2.00,000,2.00
2016-08-09,2.00,2.00,2.00,2.00,000,2.00
2016-08-08,2.00,2.00,2.00,2.00,000,2.00
2016-08-05,2.00,2.00,2.00,2.00,000,2.00
2016-08-04,2.00,2.00,2.00,2.00,000,2.00
2016-08-03,2.00,2.00,2.00,2.00,000,2.00
2016-08-02,2.00,2.00,2.00,2.00,000,2.00
2016-08-01,2.00,2.00,2.00,2.00,000,2.00
2016-07-29,2.00,2.00,2.00,2.00,000,2.00
2016-07-28,2.00,2.00,2.00,2.00,000,2.00
2016-07-27,2.00,2.00,2.00,2.00,000,2.00
2016-07-26,2.00,2.00,2.00,2.00,000,2.00
2016-07-25,2.00,2.00,2.00,2.00,000,2.00
2016-07-22,2.00,2.00,2.00,2.00,000,2.00
2016-07-21,2.00,2.00,2.00,2.00,000,2.00
2016-07-20,2.00,2.00,2.00,2.00,000,2.00
2016-07-19,2.00,2.00,2.00,2.00,000,2.00
2016-07-18,2.00,2.00,2.00,2.00,000,2.00
2016-07-15,2.00,2.00,2.00,2.00,000,2.00
2016-07-14,2.00,2.00,2.00,2.00,000,2.00
2016-07-13,2.00,2.00,2.00,2.00,000,2.00
2016-07-12,2.00,2.00,2.00,2.00,000,2.00
2016-07-11,2.00,2.00,2.00,2.00,000,2.00
2016-07-08,2.00,2.00,2.00,2.00,000,2.00
2016-07-07,2.00,2.00,2.00,2.00,000,2.00
2016-07-06,2.00,2.00,2.00,2.00,000,2.00
2016-07-05,2.00,2.00,2.00,2.00,000,2.00
2016-07-04,2.00,2.00,2.00,2.00,000,2.00
2016-07-01,2.00,2.00,2.00,2.00,000,2.00
2016-06-30,2.06,2.06,2.06,2.06,000,2.06
2016-06-29,2.00,2.00,2.00,2.00,000,2.00
2016-06-28,2.00,2.00,2.00,2.00,000,2.00
2016-06-27,2.00,2.00,2.00,2.00,000,2.00
2016-06-24,2.00,2.00,2.00,2.00,000,2.00
2016-06-23,2.00,2.00,2.00,2.00,000,2.00
2016-06-22,2.00,2.00,2.00,2.00,000,2.00
2016-06-21,2.00,2.00,2.00,2.00,000,2.00
2016-06-20,2.00,2.00,2.00,2.00,000,2.00
2016-06-17,2.00,2.00,2.00,2.00,000,2.00
2016-06-16,2.00,2.00,2.00,2.00,000,2.00
2016-06-15,2.00,2.00,2.00,2.00,000,2.00
2016-06-14,2.00,2.00,2.00,2.00,000,2.00
2016-06-13,2.00,2.00,2.00,2.00,000,2.00
2016-06-10,1.89,1.895,1.865,1.87,67200,1.87
2016-06-09,2.00,2.00,2.00,2.00,000,2.00
2016-06-08,2.00,2.00,2.00,2.00,000,2.00
2016-06-07,2.00,2.00,2.00,2.00,000,2.00
2016-06-06,2.00,2.00,2.00,2.00,000,2.00
2016-06-03,2.00,2.00,2.00,2.00,000,2.00
2016-06-02,2.00,2.00,2.00,2.00,000,2.00
2016-06-01,2.00,2.00,2.00,2.00,000,2.00
2016-05-31,2.03,2.03,2.03,2.03,000,2.03
2016-05-30,2.00,2.00,2.00,2.00,000,2.00
2016-05-27,2.04,2.04,2.04,2.04,000,2.04
2016-05-26,2.00,2.00,2.00,2.00,000,2.00
2016-05-25,2.00,2.00,2.00,2.00,000,2.00
2016-05-24,2.00,2.00,2.00,2.00,000,2.00
2016-05-23,2.00,2.00,2.00,2.00,000,2.00
2016-05-20,2.00,2.00,2.00,2.00,000,2.00
2016-05-19,2.00,2.00,2.00,2.00,000,2.00
2016-05-18,2.00,2.00,2.00,2.00,000,2.00
2016-05-17,2.00,2.00,2.00,2.00,000,2.00
2016-05-16,2.00,2.00,2.00,2.00,000,2.00
2016-05-13,2.00,2.00,2.00,2.00,000,2.00
2016-05-12,2.00,2.00,2.00,2.00,000,2.00
2016-05-11,2.00,2.00,2.00,2.00,000,2.00
2016-05-10,2.00,2.00,2.00,2.00,000,2.00
2016-05-09,2.00,2.00,2.00,2.00,000,2.00
2016-05-06,2.00,2.00,2.00,2.00,000,2.00
2016-05-05,2.00,2.00,2.00,2.00,000,2.00
2016-05-04,2.00,2.00,2.00,2.00,000,2.00
2016-05-03,2.00,2.00,2.00,2.00,000,2.00
2016-05-02,2.00,2.00,2.00,2.00,000,2.00
2016-04-29,1.95,1.95,1.95,1.95,000,1.95
2016-04-28,2.00,2.00,2.00,2.00,000,2.00
2016-04-27,2.00,2.00,2.00,2.00,000,2.00
2016-04-26,2.00,2.00,2.00,2.00,000,2.00
2016-04-25,2.00,2.00,2.00,2.00,000,2.00
2016-04-22,1.77,1.84,1.77,1.81,62700,1.81
2016-04-21,2.00,2.00,2.00,2.00,000,2.00
2016-04-20,2.00,2.00,2.00,2.00,000,2.00
2016-04-19,2.00,2.00,2.00,2.00,000,2.00
2016-04-18,2.00,2.00,2.00,2.00,000,2.00
2016-04-15,2.00,2.00,2.00,2.00,000,2.00
2016-04-14,2.00,2.00,2.00,2.00,000,2.00
2016-04-13,2.00,2.00,2.00,2.00,000,2.00
2016-04-12,2.00,2.00,2.00,2.00,000,2.00
2016-04-11,2.00,2.00,2.00,2.00,000,2.00
2016-04-08,2.00,2.00,2.00,2.00,000,2.00
2016-04-07,2.00,2.00,2.00,2.00,000,2.00
2016-04-06,2.00,2.00,2.00,2.00,000,2.00
2016-04-05,2.00,2.00,2.00,2.00,000,2.00
2016-04-04,2.00,2.00,2.00,2.00,000,2.00
2016-04-01,2.00,2.00,2.00,2.00,000,2.00
2016-03-31,1.92,1.92,1.92,1.92,000,1.92
2016-03-30,2.00,2.00,2.00,2.00,000,2.00
2016-03-29,2.00,2.00,2.00,2.00,000,2.00
2016-03-28,2.00,2.00,2.00,2.00,000,2.00
2016-03-25,2.00,2.00,2.00,2.00,000,2.00
2016-03-24,1.78,1.78,1.73,1.76,65200,1.76
2016-03-23,2.00,2.00,2.00,2.00,000,2.00
2016-03-22,2.00,2.00,2.00,2.00,000,2.00
2016-03-21,2.00,2.00,2.00,2.00,000,2.00
2016-03-18,2.00,2.00,2.00,2.00,000,2.00
2016-03-17,2.00,2.00,2.00,2.00,000,2.00
2016-03-16,2.00,2.00,2.00,2.00,000,2.00
2016-03-15,2.00,2.00,2.00,2.00,000,2.00
2016-03-14,2.00,2.00,2.00,2.00,000,2.00
2016-03-11,2.00,2.00,2.00,2.00,000,2.00
2016-03-10,2.00,2.00,2.00,2.00,000,2.00
2016-03-09,2.00,2.00,2.00,2.00,000,2.00
2016-03-08,2.00,2.00,2.00,2.00,000,2.00
2016-03-07,2.00,2.00,2.00,2.00,000,2.00
2016-03-04,2.00,2.00,2.00,2.00,000,2.00
2016-03-03,2.00,2.00,2.00,2.00,000,2.00
2016-03-02,2.00,2.00,2.00,2.00,000,2.00
2016-03-01,2.00,2.00,2.00,2.00,000,2.00
2016-02-29,1.93,1.93,1.93,1.93,000,1.93
2016-02-26,2.00,2.00,2.00,2.00,000,2.00
2016-02-25,2.00,2.00,2.00,2.00,000,2.00
2016-02-24,2.00,2.00,2.00,2.00,000,2.00
2016-02-23,1.9456,1.9456,1.9456,1.9456,000,1.9456
2016-02-22,2.00,2.00,2.00,2.00,000,2.00
2016-02-19,2.00,2.00,2.00,2.00,000,2.00
2016-02-18,2.00,2.00,2.00,2.00,000,2.00
2016-02-17,2.00,2.00,2.00,2.00,000,2.00
2016-02-16,2.00,2.00,2.00,2.00,000,2.00
2016-02-15,2.00,2.00,2.00,2.00,000,2.00
2016-02-12,2.00,2.00,2.00,2.00,000,2.00
2016-02-11,2.00,2.00,2.00,2.00,000,2.00
2016-02-10,2.00,2.00,2.00,2.00,000,2.00
2016-02-09,2.00,2.00,2.00,2.00,000,2.00
2016-02-08,2.00,2.00,2.00,2.00,000,2.00
2016-02-05,2.00,2.00,2.00,2.00,000,2.00
2016-02-04,2.00,2.00,2.00,2.00,000,2.00
2016-02-03,2.00,2.00,2.00,2.00,000,2.00
2016-02-02,2.00,2.00,2.00,2.00,000,2.00
2016-02-01,2.00,2.00,2.00,2.00,000,2.00
2016-01-29,1.94,1.94,1.94,1.94,000,1.94
2016-01-28,2.00,2.00,2.00,2.00,000,2.00
2016-01-27,2.00,2.00,2.00,2.00,000,2.00
2016-01-26,2.00,2.00,2.00,2.00,000,2.00
2016-01-25,1.69,1.72,1.66,1.72,80100,1.72
2016-01-22,2.00,2.00,2.00,2.00,000,2.00
2016-01-21,2.00,2.00,2.00,2.00,000,2.00
2016-01-20,2.00,2.00,2.00,2.00,000,2.00
2016-01-19,2.00,2.00,2.00,2.00,000,2.00
2016-01-18,2.00,2.00,2.00,2.00,000,2.00
2016-01-15,2.00,2.00,2.00,2.00,000,2.00
2016-01-14,2.00,2.00,2.00,2.00,000,2.00
2016-01-13,2.00,2.00,2.00,2.00,000,2.00
2016-01-12,2.00,2.00,2.00,2.00,000,2.00
2016-01-11,2.00,2.00,2.00,2.00,000,2.00
2016-01-08,2.00,2.00,2.00,2.00,000,2.00
2016-01-07,2.00,2.00,2.00,2.00,000,2.00
2016-01-06,2.00,2.00,2.00,2.00,000,2.00
2016-01-05,2.00,2.00,2.00,2.00,000,2.00
2016-01-04,2.00,2.00,2.00,2.00,000,2.00
2016-01-01,2.00,2.00,2.00,2.00,000,2.00
2015-12-31,1.87,1.87,1.87,1.87,000,1.87
2015-12-30,1.77,1.77,1.73,1.77,71100,1.77
2015-12-29,2.00,2.00,2.00,2.00,000,2.00
2015-12-28,1.77,1.77,1.77,1.77,000,1.77
2015-12-25,1.77,1.77,1.77,1.77,000,1.77
2015-12-24,1.685,1.78,1.685,1.77,37500,1.77
2015-12-23,2.00,2.00,2.00,2.00,000,2.00
2015-12-22,2.00,2.00,2.00,2.00,000,2.00
2015-12-21,2.00,2.00,2.00,2.00,000,2.00
2015-12-18,2.00,2.00,2.00,2.00,000,2.00
2015-12-17,2.00,2.00,2.00,2.00,000,2.00
2015-12-16,2.00,2.00,2.00,2.00,000,2.00
2015-12-15,2.00,2.00,2.00,2.00,000,2.00
2015-12-14,2.00,2.00,2.00,2.00,000,2.00
2015-12-11,2.00,2.00,2.00,2.00,000,2.00
2015-12-10,2.00,2.00,2.00,2.00,000,2.00
2015-12-09,2.00,2.00,2.00,2.00,000,2.00
2015-12-08,2.00,2.00,2.00,2.00,000,2.00
2015-12-07,2.00,2.00,2.00,2.00,000,2.00
2015-12-04,2.00,2.00,2.00,2.00,000,2.00
2015-12-03,2.00,2.00,2.00,2.00,000,2.00
2015-12-02,2.00,2.00,2.00,2.00,000,2.00
2015-12-01,2.00,2.00,2.00,2.00,000,2.00
2015-11-30,1.91,1.91,1.91,1.91,000,1.91
2015-11-27,1.92,1.92,1.92,1.92,000,1.92
2015-11-26,2.00,2.00,2.00,2.00,000,2.00
2015-11-25,2.00,2.00,2.00,2.00,000,2.00
2015-11-24,2.00,2.00,2.00,2.00,000,2.00
2015-11-23,2.00,2.00,2.00,2.00,000,2.00
2015-11-20,2.00,2.00,2.00,2.00,000,2.00
2015-11-19,1.905,1.935,1.90,1.90,53200,1.90
2015-11-18,2.00,2.00,2.00,2.00,000,2.00
2015-11-17,2.00,2.00,2.00,2.00,000,2.00
2015-11-16,2.00,2.00,2.00,2.00,000,2.00
2015-11-13,2.00,2.00,2.00,2.00,000,2.00
2015-11-12,2.00,2.00,2.00,2.00,000,2.00
2015-11-11,2.00,2.00,2.00,2.00,000,2.00
2015-11-10,2.00,2.00,2.00,2.00,000,2.00
2015-11-09,2.00,2.00,2.00,2.00,000,2.00
2015-11-06,2.00,2.00,2.00,2.00,000,2.00
2015-11-05,2.00,2.00,2.00,2.00,000,2.00
2015-11-04,2.00,2.00,2.00,2.00,000,2.00
2015-11-03,2.00,2.00,2.00,2.00,000,2.00
2015-11-02,2.00,2.00,2.00,2.00,000,2.00
2015-10-30,2.01,2.01,2.01,2.01,000,2.01
2015-10-29,2.00,2.00,2.00,2.00,000,2.00
2015-10-28,2.00,2.00,2.00,2.00,000,2.00
2015-10-27,2.00,2.00,2.00,2.00,000,2.00
2015-10-26,2.00,2.00,2.00,2.00,000,2.00
2015-10-23,2.00,2.00,2.00,2.00,000,2.00
2015-10-22,2.00,2.00,2.00,2.00,000,2.00
2015-10-21,2.00,2.00,2.00,2.00,000,2.00
2015-10-20,2.00,2.00,2.00,2.00,000,2.00
2015-10-19,2.00,2.00,2.00,2.00,000,2.00
2015-10-16,2.00,2.00,2.00,2.00,000,2.00
2015-10-15,2.00,2.00,2.00,2.00,000,2.00
2015-10-14,1.95,1.97,1.95,1.96,28900,1.96
2015-10-13,2.00,2.00,2.00,2.00,000,2.00
2015-10-12,2.00,2.00,2.00,2.00,000,2.00
2015-10-09,2.00,2.00,2.00,2.00,000,2.00
2015-10-08,2.00,2.00,2.00,2.00,000,2.00
2015-10-07,2.00,2.00,2.00,2.00,000,2.00
2015-10-06,2.00,2.00,2.00,2.00,000,2.00
2015-10-05,2.00,2.00,2.00,2.00,000,2.00
2015-10-02,2.00,2.00,2.00,2.00,000,2.00
2015-10-01,2.00,2.00,2.00,2.00,000,2.00
2015-09-30,1.96,1.96,1.96,1.96,000,1.96
2015-09-29,2.00,2.00,2.00,2.00,000,2.00
2015-09-28,2.00,2.00,2.00,2.00,000,2.00
2015-09-25,2.00,2.00,2.00,2.00,000,2.00
2015-09-24,2.00,2.00,2.00,2.00,000,2.00
2015-09-23,2.00,2.00,2.00,2.00,000,2.00
2015-09-22,2.00,2.00,2.00,2.00,000,2.00
2015-09-21,2.00,2.00,2.00,2.00,000,2.00
2015-09-18,2.00,2.00,2.00,2.00,000,2.00
2015-09-17,2.00,2.00,2.00,2.00,000,2.00
2015-09-16,2.00,2.00,2.00,2.00,000,2.00
2015-09-15,2.00,2.00,2.00,2.00,000,2.00
2015-09-14,2.00,2.00,2.00,2.00,000,2.00
2015-09-11,2.00,2.00,2.00,2.00,000,2.00
2015-09-10,2.00,2.00,2.00,2.00,000,2.00
2015-09-09,2.00,2.00,2.00,2.00,000,2.00
2015-09-08,2.00,2.00,2.00,2.00,000,2.00
2015-09-07,2.00,2.00,2.00,2.00,000,2.00
2015-09-04,2.00,2.00,2.00,2.00,000,2.00
2015-09-03,2.00,2.00,2.00,2.00,000,2.00
2015-09-02,2.00,2.00,2.00,2.00,000,2.00
2015-09-01,2.00,2.00,2.00,2.00,000,2.00
2015-08-31,1.98,1.98,1.98,1.98,000,1.98
2015-08-28,1.98,1.98,1.98,1.98,000,1.98
2015-08-27,2.00,2.00,2.00,2.00,000,2.00
2015-08-26,2.00,2.00,2.00,2.00,000,2.00
2015-08-25,2.00,2.00,2.00,2.00,000,2.00
2015-08-24,2.00,2.00,2.00,2.00,000,2.00
2015-08-21,2.00,2.00,2.00,2.00,000,2.00
2015-08-20,2.00,2.00,2.00,2.00,000,2.00
2015-08-19,2.00,2.00,2.00,2.00,000,2.00
2015-08-18,2.00,2.00,2.00,2.00,000,2.00
2015-08-17,2.00,2.00,2.00,2.00,000,2.00
2015-08-14,2.00,2.00,2.00,2.00,000,2.00
2015-08-13,1.9711,1.9711,1.9711,1.9711,000,1.9711
2015-08-12,1.985,2.00,1.985,2.00,93900,2.00
2015-08-11,2.01,2.01,1.985,1.985,142900,1.985
2015-08-10,1.995,2.01,1.99,2.01,111800,2.01
2015-08-07,1.995,2.00,1.985,1.995,112700,1.995
2015-08-06,2.01,2.03,1.99,1.99,232200,1.99
2015-08-05,2.00,2.01,2.00,2.00,96400,2.00
2015-08-04,2.00,2.01,1.99,2.00,153200,2.00
2015-08-03,1.99,2.01,1.99,2.00,267300,2.00
2015-07-31,2.00,2.00,2.00,2.00,000,2.00
2015-07-30,1.99,1.99,1.975,1.99,173500,1.99
2015-07-29,1.985,1.99,1.98,1.99,191600,1.99
2015-07-28,1.99,1.99,1.985,1.985,63600,1.985
2015-07-27,1.985,1.99,1.975,1.99,161300,1.99
2015-07-24,1.98,1.99,1.98,1.985,86400,1.985
2015-07-23,1.98,1.98,1.975,1.98,113900,1.98
2015-07-22,1.975,1.98,1.97,1.98,138200,1.98
2015-07-21,1.97,1.975,1.965,1.975,236800,1.975
2015-07-20,1.965,1.97,1.96,1.97,142600,1.97
2015-07-17,1.97,1.97,1.96,1.965,81500,1.965
2015-07-16,1.965,1.97,1.96,1.96,159800,1.96
2015-07-15,1.97,1.97,1.945,1.965,154500,1.965
2015-07-14,1.97,1.97,1.96,1.96,86100,1.96
2015-07-13,1.965,1.97,1.96,1.97,86800,1.97
2015-07-10,1.93,1.965,1.915,1.965,124800,1.965
2015-07-09,1.97,1.97,1.945,1.945,206100,1.945
2015-07-08,1.97,1.98,1.96,1.97,242900,1.97
2015-07-07,1.965,1.97,1.96,1.965,210600,1.965
2015-07-06,1.97,1.975,1.965,1.965,217900,1.965
2015-07-03,1.99,1.99,1.96,1.965,904500,1.965
