Date,Open,High,Low,Close,Volume,Adj Close
2017-01-10,5.86,5.88,5.82,5.84,502300,5.84
2017-01-09,5.91,5.955,5.86,5.89,650500,5.89
2017-01-06,5.91,5.92,5.85,5.90,414000,5.90
2017-01-05,5.90,5.97,5.87,5.87,540000,5.87
2017-01-04,6.03,6.04,5.93,5.94,413300,5.94
2017-01-03,5.98,6.01,5.91,6.00,482700,6.00
2017-01-02,5.91,5.91,5.91,5.91,000,5.91
2016-12-30,5.81,5.97,5.81,5.91,225400,5.91
2016-12-29,5.82,5.88,5.77,5.85,305500,5.85
2016-12-28,5.80,5.82,5.72,5.80,322800,5.80
2016-12-27,5.75,5.75,5.75,5.75,000,5.75
2016-12-26,5.75,5.75,5.75,5.75,000,5.75
2016-12-23,5.80,5.81,5.73,5.75,376100,5.75
2016-12-22,5.89,5.89,5.775,5.80,509300,5.80
2016-12-21,5.90,5.98,5.86,5.87,958300,5.87
2016-12-20,5.91,5.93,5.86,5.86,2696700,5.86
2016-12-19,5.94,6.01,5.91,5.96,1396700,5.96
2016-12-16,6.00,6.04,5.91,6.00,1452800,6.00
2016-12-15,5.97,6.08,5.945,5.99,6219500,5.99
2016-12-14,5.85,5.95,5.76,5.90,4704200,5.90
2016-12-13,5.37,5.48,5.36,5.40,615400,5.40
2016-12-12,5.31,5.53,5.25,5.36,1766300,5.36
2016-12-09,5.31,5.37,5.24,5.25,513600,5.25
2016-12-08,5.37,5.37,5.24,5.28,742400,5.28
2016-12-07,5.30,5.38,5.24,5.25,916600,5.25
2016-12-06,5.34,5.35,5.17,5.30,711200,5.30
2016-12-05,5.39,5.39,5.26,5.31,1051300,5.31
2016-12-02,5.43,5.445,5.31,5.37,708900,5.37
2016-12-01,5.36,5.44,5.25,5.40,1168200,5.40
2016-11-30,5.27,5.47,5.21,5.34,2099300,5.34
2016-11-29,5.22,5.285,5.12,5.25,1733700,5.25
2016-11-28,5.21,5.21,5.13,5.18,955100,5.18
2016-11-25,5.28,5.30,5.13,5.16,550000,5.16
2016-11-24,5.30,5.30,5.16,5.23,617100,5.23
2016-11-23,5.19,5.29,5.15,5.26,1043800,5.26
2016-11-22,5.20,5.23,5.095,5.18,796200,5.18
2016-11-21,5.22,5.29,5.11,5.16,529800,5.16
2016-11-18,5.19,5.23,5.055,5.20,1063000,5.20
2016-11-17,5.01,5.27,4.95,5.24,1667600,5.24
2016-11-16,5.19,5.19,4.96,4.99,1134900,4.99
2016-11-15,5.19,5.20,5.10,5.14,1043800,5.14
2016-11-14,5.36,5.36,5.045,5.19,996000,5.19
2016-11-11,5.36,5.44,5.16,5.26,3104700,5.26
2016-11-10,5.40,5.46,5.28,5.40,1057300,5.40
2016-11-09,5.42,5.63,4.94,5.18,4131600,5.18
2016-11-08,5.50,5.75,5.25,5.42,6350900,5.42
2016-11-07,4.70,4.70,4.605,4.63,903100,4.63
2016-11-04,4.68,4.68,4.56,4.64,727500,4.64
2016-11-03,4.65,4.72,4.63,4.68,1097300,4.68
2016-11-02,4.85,4.85,4.57,4.65,1632600,4.65
2016-11-01,4.80,4.89,4.76,4.84,1104900,4.84
2016-10-31,4.67,4.78,4.61,4.75,1484600,4.75
2016-10-28,4.58,4.73,4.50,4.68,1807200,4.68
2016-10-27,4.46,4.595,4.35,4.51,2791600,4.51
2016-10-26,4.45,4.54,4.37,4.45,1519800,4.45
2016-10-25,4.64,4.73,4.49,4.50,2011200,4.50
2016-10-24,4.75,4.77,4.575,4.63,1437300,4.63
2016-10-21,4.81,4.87,4.75,4.75,880500,4.75
2016-10-20,5.00,5.00,4.79,4.84,1189000,4.84
2016-10-19,4.83,5.04,4.78,4.99,1448400,4.99
2016-10-18,4.75,4.84,4.70,4.75,1984500,4.75
2016-10-17,4.80,4.87,4.78,4.80,1185400,4.80
2016-10-14,4.90,4.94,4.78,4.78,1577500,4.78
2016-10-13,4.95,4.98,4.91,4.91,794300,4.91
2016-10-12,5.00,5.01,4.95,4.97,1216000,4.97
2016-10-11,5.15,5.20,5.00,5.01,3521900,5.01
2016-10-10,5.37,5.37,5.16,5.19,1745400,5.19
2016-10-07,5.32,5.47,5.32,5.35,1105500,5.35
2016-10-06,5.48,5.51,5.26,5.31,2514800,5.31
2016-10-05,5.45,5.49,5.35,5.44,886200,5.44
2016-10-04,5.48,5.52,5.42,5.51,1670500,5.51
2016-10-03,5.54,5.54,5.40,5.45,331600,5.45
2016-09-30,5.57,5.60,5.365,5.50,733400,5.50
2016-09-29,5.48,5.67,5.455,5.63,1643500,5.63
2016-09-28,5.36,5.57,5.36,5.54,1740400,5.54
2016-09-27,5.44,5.59,5.30,5.40,2245200,5.40
2016-09-26,5.25,5.55,5.20,5.50,2909200,5.50
2016-09-23,5.14,5.29,5.12,5.27,1726200,5.27
2016-09-22,5.16,5.16,5.05,5.12,775900,5.12
2016-09-21,5.12,5.18,5.05,5.10,2276600,5.10
2016-09-20,5.00,5.13,4.965,5.12,2720300,5.12
2016-09-19,5.08,5.08,4.94,4.94,469100,4.94
2016-09-16,4.87,5.08,4.84,5.02,2176100,5.02
2016-09-15,4.57,4.83,4.55,4.82,2795100,4.82
2016-09-14,4.76,4.80,4.68,4.70,3480200,4.70
2016-09-13,4.82,4.85,4.76,4.78,1589800,4.78
2016-09-12,4.65,4.74,4.59,4.72,1938300,4.72
2016-09-09,5.00,5.00,4.74,4.78,2059500,4.78
2016-09-08,5.01,5.13,4.96,4.97,3156800,4.97
2016-09-07,4.95,5.01,4.90,4.90,1405400,4.90
2016-09-06,4.99,5.12,4.94,5.02,2483700,4.927
2016-09-05,5.10,5.16,4.95,4.99,1664700,4.898
2016-09-02,5.34,5.35,5.07,5.07,1597200,4.976
2016-09-01,5.26,5.345,5.18,5.28,3418000,5.182
2016-08-31,5.31,5.40,5.25,5.25,1162500,5.153
2016-08-30,5.34,5.38,5.20,5.30,3075800,5.202
2016-08-29,5.35,5.46,5.13,5.26,2138300,5.163
2016-08-26,5.06,5.39,5.01,5.31,3990400,5.212
2016-08-25,5.00,5.04,4.78,4.98,5150400,4.888
2016-08-24,5.32,5.35,4.96,5.04,5209900,4.947
2016-08-23,5.49,5.70,5.17,5.28,6488700,5.182
2016-08-22,5.50,5.80,5.12,5.33,16470900,5.231
2016-08-19,8.21,8.25,8.12,8.24,490100,8.088
2016-08-18,8.07,8.17,8.03,8.14,460900,7.989
2016-08-17,8.24,8.26,7.94,7.95,402500,7.803
2016-08-16,8.00,8.28,7.98,8.19,667000,8.038
2016-08-15,8.00,8.04,7.99,8.00,412600,7.852
2016-08-12,8.00,8.06,7.97,8.00,359100,7.852
2016-08-11,7.83,8.00,7.77,7.98,295800,7.832
2016-08-10,7.86,7.87,7.70,7.85,535800,7.705
2016-08-09,7.80,7.88,7.67,7.86,462500,7.715
2016-08-08,7.91,7.96,7.77,7.78,432200,7.636
2016-08-05,7.85,7.97,7.815,7.87,417000,7.724
2016-08-04,7.81,7.86,7.69,7.84,432200,7.695
2016-08-03,7.78,7.97,7.75,7.81,502900,7.665
2016-08-02,7.91,7.99,7.82,7.84,558500,7.695
2016-08-01,8.12,8.13,7.88,7.89,813500,7.744
2016-07-29,7.97,8.10,7.87,8.06,676800,7.911
2016-07-28,7.88,7.98,7.855,7.96,651300,7.813
2016-07-27,7.97,7.98,7.77,7.85,641200,7.705
2016-07-26,7.82,7.92,7.75,7.89,477000,7.744
2016-07-25,7.80,7.90,7.69,7.75,642600,7.607
2016-07-22,7.85,7.88,7.75,7.76,601900,7.616
2016-07-21,7.88,7.95,7.78,7.79,839100,7.646
2016-07-20,7.72,7.83,7.68,7.78,742300,7.636
2016-07-19,7.55,7.775,7.50,7.70,915300,7.558
2016-07-18,7.54,7.60,7.52,7.55,596700,7.41
2016-07-15,7.38,7.56,7.27,7.54,745200,7.40
2016-07-14,7.62,7.72,7.43,7.47,495400,7.332
2016-07-13,7.70,7.79,7.48,7.58,543300,7.44
2016-07-12,7.51,7.68,7.46,7.60,766200,7.459
2016-07-11,7.39,7.59,7.36,7.46,466100,7.322
2016-07-08,7.27,7.38,7.27,7.34,605700,7.204
2016-07-07,7.29,7.37,7.27,7.30,507700,7.165
2016-07-06,7.26,7.33,7.22,7.28,641100,7.145
2016-07-05,7.00,7.28,6.955,7.26,908200,7.126
2016-07-04,6.80,6.96,6.74,6.94,589000,6.812
2016-07-01,6.95,6.95,6.735,6.83,725800,6.704
2016-06-30,6.81,6.94,6.81,6.90,457500,6.772
2016-06-29,6.85,6.88,6.74,6.81,559900,6.684
2016-06-28,6.57,6.805,6.54,6.75,1332600,6.625
2016-06-27,6.51,6.78,6.40,6.70,617200,6.576
2016-06-24,6.97,7.02,6.56,6.62,538200,6.497
2016-06-23,6.91,6.95,6.81,6.93,407600,6.802
2016-06-22,6.97,7.04,6.91,6.94,321700,6.812
2016-06-21,6.88,7.045,6.785,6.96,450600,6.831
2016-06-20,6.74,6.90,6.70,6.89,509900,6.762
2016-06-17,6.71,6.73,6.62,6.70,1068700,6.576
2016-06-16,6.79,6.86,6.69,6.70,673500,6.576
2016-06-15,6.66,6.77,6.61,6.69,641700,6.566
2016-06-14,6.91,6.925,6.68,6.73,674400,6.605
2016-06-13,7.00,7.00,7.00,7.00,000,6.87
2016-06-10,6.99,7.065,6.94,7.00,395700,6.87
2016-06-09,6.98,7.03,6.89,7.00,410900,6.87
2016-06-08,7.13,7.14,6.94,6.97,430200,6.841
2016-06-07,7.15,7.22,7.07,7.10,824800,6.969
2016-06-06,7.20,7.26,7.10,7.11,619000,6.978
2016-06-03,7.27,7.30,7.14,7.18,552200,7.047
2016-06-02,7.05,7.24,7.05,7.23,1259700,7.096
2016-06-01,6.82,7.055,6.81,7.00,1355300,6.87
2016-05-31,6.90,6.94,6.83,6.84,4489700,6.713
2016-05-30,6.88,6.95,6.84,6.89,627600,6.762
2016-05-27,7.02,7.03,6.85,6.86,983500,6.733
2016-05-26,7.11,7.14,6.97,6.98,921500,6.851
2016-05-25,7.19,7.21,7.08,7.11,920000,6.978
2016-05-24,7.20,7.21,7.10,7.12,751900,6.988
2016-05-23,7.18,7.21,7.13,7.20,608300,7.067
2016-05-20,7.18,7.22,7.155,7.17,430100,7.037
2016-05-19,7.24,7.24,7.13,7.18,768500,7.047
2016-05-18,7.24,7.27,7.12,7.22,727700,7.086
2016-05-17,7.28,7.28,7.12,7.24,581100,7.106
2016-05-16,7.09,7.22,7.09,7.19,714600,7.057
2016-05-13,7.05,7.25,7.05,7.07,858000,6.939
2016-05-12,7.01,7.09,6.91,7.01,835100,6.88
2016-05-11,6.95,7.05,6.89,7.01,1464000,6.88
2016-05-10,6.65,6.93,6.64,6.92,1032700,6.792
2016-05-09,6.74,6.75,6.58,6.65,495900,6.527
2016-05-06,6.56,6.61,6.40,6.55,793900,6.429
2016-05-05,6.75,6.81,6.54,6.58,916500,6.458
2016-05-04,6.72,6.77,6.62,6.71,687200,6.586
2016-05-03,6.42,6.83,6.42,6.63,1514900,6.507
2016-05-02,6.25,6.52,6.24,6.46,717000,6.34
2016-04-29,6.39,6.40,6.22,6.31,909200,6.193
2016-04-28,6.53,6.54,6.41,6.41,570400,6.291
2016-04-27,6.48,6.63,6.22,6.48,550500,6.36
2016-04-26,6.55,6.69,6.42,6.52,674800,6.399
2016-04-25,6.51,6.51,6.51,6.51,000,6.39
2016-04-22,6.81,6.835,6.48,6.51,442900,6.39
2016-04-21,6.87,6.87,6.69,6.81,927200,6.684
2016-04-20,6.70,6.74,6.59,6.63,520900,6.507
2016-04-19,7.00,7.00,6.57,6.62,747600,6.497
2016-04-18,6.98,7.00,6.90,6.95,392100,6.821
2016-04-15,6.93,7.05,6.91,6.99,476200,6.861
2016-04-14,6.81,6.91,6.75,6.89,233900,6.762
2016-04-13,6.90,6.97,6.72,6.73,867900,6.605
2016-04-12,6.91,6.96,6.81,6.85,517100,6.723
2016-04-11,7.00,7.00,6.78,6.93,315300,6.802
2016-04-08,6.94,7.06,6.90,7.01,446400,6.88
2016-04-07,6.94,7.00,6.85,6.95,426400,6.821
2016-04-06,6.75,6.99,6.74,6.90,1229000,6.772
2016-04-05,6.55,6.96,6.55,6.79,1417700,6.664
2016-04-04,6.35,6.41,6.30,6.38,517800,6.262
2016-04-01,6.43,6.49,6.31,6.31,1126200,6.193
2016-03-31,6.43,6.52,6.39,6.48,945900,6.36
2016-03-30,6.33,6.39,6.26,6.37,364100,6.252
2016-03-29,6.36,6.40,6.25,6.29,357800,6.174
2016-03-28,6.35,6.35,6.35,6.35,000,6.232
2016-03-25,6.35,6.35,6.35,6.35,000,6.232
2016-03-24,6.30,6.40,6.23,6.35,745300,6.232
2016-03-23,6.35,6.39,6.29,6.34,2175600,6.223
2016-03-22,6.38,6.40,6.31,6.34,692400,6.223
2016-03-21,6.55,6.56,6.32,6.32,857300,6.203
2016-03-18,6.32,6.44,6.31,6.35,4382800,6.232
2016-03-17,6.15,6.32,6.12,6.25,1919100,6.134
2016-03-16,6.10,6.17,6.00,6.11,550900,5.997
2016-03-15,6.16,6.18,6.05,6.07,310500,5.958
2016-03-14,6.02,6.15,5.96,6.13,562200,6.017
2016-03-11,5.81,6.02,5.75,5.95,473800,5.84
2016-03-10,5.61,5.77,5.55,5.74,591300,5.634
2016-03-09,5.63,5.64,5.55,5.61,1328600,5.506
2016-03-08,5.98,6.00,5.66,5.75,750000,5.489
2016-03-07,5.94,6.02,5.87,5.96,733800,5.69
2016-03-04,5.99,5.99,5.83,5.89,1167700,5.623
2016-03-03,5.94,5.99,5.85,5.97,1064400,5.699
2016-03-02,6.06,6.15,5.89,5.90,909600,5.633
2016-03-01,6.06,6.06,5.90,6.02,1149300,5.747
2016-02-29,6.08,6.11,6.01,6.10,720300,5.824
2016-02-26,6.11,6.13,6.02,6.05,638700,5.776
2016-02-25,5.96,6.17,5.92,6.09,1319400,5.814
2016-02-24,5.88,5.97,5.80,5.90,1028200,5.633
2016-02-23,5.89,6.00,5.73,5.90,3564600,5.633
2016-02-22,6.15,6.23,5.80,5.85,1428200,5.585
2016-02-19,5.65,5.90,5.56,5.70,563600,5.442
2016-02-18,5.51,5.74,5.51,5.67,642700,5.413
2016-02-17,5.50,5.59,5.45,5.51,298300,5.26
2016-02-16,5.30,5.50,5.30,5.44,810900,5.193
2016-02-15,5.15,5.46,5.11,5.34,713800,5.098
2016-02-12,5.05,5.11,5.00,5.09,457800,4.859
2016-02-11,5.05,5.14,5.00,5.14,404900,4.907
2016-02-10,5.03,5.14,4.90,5.05,1129000,4.821
2016-02-09,5.20,5.29,4.96,5.01,1837900,4.783
2016-02-08,5.44,5.65,5.36,5.44,412100,5.193
2016-02-05,5.66,5.66,5.55,5.62,324700,5.365
2016-02-04,5.66,5.715,5.64,5.64,387000,5.384
2016-02-03,5.84,5.87,5.61,5.61,504300,5.356
2016-02-02,6.08,6.09,5.905,5.94,486500,5.671
2016-02-01,6.06,6.13,5.96,6.06,382300,5.785
2016-01-29,6.03,6.08,5.94,6.00,491400,5.728
2016-01-28,6.02,6.08,5.94,6.02,727200,5.747
2016-01-27,5.97,6.08,5.76,5.99,1088200,5.719
2016-01-26,5.99,5.99,5.99,5.99,000,5.719
2016-01-25,5.92,6.02,5.90,5.99,331000,5.719
2016-01-22,5.79,5.93,5.74,5.85,461700,5.585
2016-01-21,5.85,5.85,5.76,5.79,414000,5.528
2016-01-20,5.74,5.82,5.72,5.78,507800,5.518
2016-01-19,5.74,5.83,5.70,5.70,339800,5.442
2016-01-18,5.60,5.75,5.42,5.73,410700,5.47
2016-01-15,5.95,5.98,5.77,5.81,394400,5.547
2016-01-14,5.75,5.85,5.68,5.83,497100,5.566
2016-01-13,5.82,5.95,5.74,5.91,429000,5.642
2016-01-12,5.81,5.92,5.69,5.83,356700,5.566
2016-01-11,6.02,6.02,5.65,5.80,594500,5.537
2016-01-08,6.14,6.18,6.04,6.07,870600,5.795
2016-01-07,6.21,6.40,6.20,6.20,609800,5.919
2016-01-06,6.24,6.29,6.16,6.21,468100,5.929
2016-01-05,6.22,6.26,6.17,6.24,1103700,5.957
2016-01-04,6.11,6.33,6.05,6.25,430900,5.967
2016-01-01,6.10,6.10,6.10,6.10,000,5.824
2015-12-31,6.15,6.20,6.05,6.10,252700,5.824
2015-12-30,6.34,6.35,6.08,6.13,353000,5.852
2015-12-29,5.96,6.15,5.95,6.07,393700,5.795
2015-12-28,5.93,5.93,5.93,5.93,000,5.661
2015-12-25,5.93,5.93,5.93,5.93,000,5.661
2015-12-24,5.97,6.00,5.90,5.93,110000,5.661
2015-12-23,5.90,5.94,5.84,5.90,801600,5.633
2015-12-22,5.90,5.99,5.73,5.79,508200,5.528
2015-12-21,5.67,5.91,5.67,5.86,836800,5.594
2015-12-18,5.78,5.86,5.59,5.59,4563100,5.337
2015-12-17,5.80,5.85,5.71,5.78,456400,5.518
2015-12-16,5.73,5.81,5.61,5.61,612900,5.356
2015-12-15,5.76,5.81,5.69,5.73,388200,5.47
2015-12-14,5.84,5.84,5.65,5.74,571600,5.48
2015-12-11,6.00,6.00,5.75,5.82,830700,5.556
2015-12-10,5.95,5.98,5.74,5.90,666700,5.633
2015-12-09,6.05,6.05,5.77,5.84,1090400,5.575
2015-12-08,5.74,6.00,5.72,5.95,2675500,5.68
2015-12-07,5.48,5.74,5.48,5.61,2319000,5.356
2015-12-04,5.54,5.54,5.36,5.40,1060900,5.155
2015-12-03,5.58,5.60,5.44,5.54,726200,5.289
2015-12-02,5.45,5.50,5.38,5.43,554800,5.184
2015-12-01,5.45,5.45,5.40,5.44,578500,5.193
2015-11-30,5.60,5.60,5.34,5.39,541300,5.146
2015-11-27,5.57,5.61,5.43,5.50,346300,5.251
2015-11-26,5.43,5.68,5.43,5.56,543600,5.308
2015-11-25,5.55,5.55,5.37,5.43,350800,5.184
2015-11-24,5.59,5.59,5.43,5.51,366700,5.26
2015-11-23,5.48,5.56,5.47,5.56,285600,5.308
2015-11-20,5.30,5.45,5.28,5.40,368900,5.155
2015-11-19,5.30,5.34,5.21,5.22,396300,4.983
2015-11-18,5.18,5.38,5.16,5.28,345200,5.041
2015-11-17,5.08,5.27,5.04,5.18,1299600,4.945
2015-11-16,4.87,5.00,4.87,4.94,395300,4.716
2015-11-13,4.98,4.99,4.65,4.87,1094800,4.649
2015-11-12,5.11,5.11,4.96,4.96,468900,4.735
2015-11-11,5.06,5.15,5.05,5.05,676600,4.821
2015-11-10,5.07,5.12,5.02,5.03,762600,4.802
2015-11-09,4.99,5.14,4.99,5.06,661000,4.831
2015-11-06,4.90,5.03,4.90,4.96,276200,4.735
2015-11-05,4.96,5.02,4.82,4.90,503000,4.678
2015-11-04,5.10,5.12,4.98,4.99,436900,4.764
2015-11-03,4.98,5.05,4.93,5.01,397800,4.783
2015-11-02,5.00,5.02,4.88,4.93,408700,4.707
2015-10-30,4.74,4.95,4.68,4.79,987500,4.573
2015-10-29,4.25,4.37,4.25,4.30,374800,4.105
2015-10-28,4.30,4.30,4.23,4.25,2032500,4.057
2015-10-27,4.38,4.38,4.22,4.24,302500,4.048
2015-10-26,4.23,4.37,4.22,4.30,530900,4.105
2015-10-23,4.20,4.23,4.17,4.19,446800,4.00
2015-10-22,4.19,4.19,4.13,4.19,341400,4.00
2015-10-21,4.16,4.20,4.15,4.18,403100,3.991
2015-10-20,4.15,4.17,4.12,4.14,234800,3.952
2015-10-19,4.13,4.20,4.13,4.15,163800,3.962
2015-10-16,4.19,4.20,4.08,4.13,158300,3.943
2015-10-15,4.18,4.20,4.14,4.19,345000,4.00
2015-10-14,4.20,4.20,4.15,4.18,309200,3.991
2015-10-13,4.25,4.25,4.12,4.14,266500,3.952
2015-10-12,4.14,4.29,4.12,4.20,640000,4.01
2015-10-09,4.05,4.15,4.04,4.12,667300,3.933
2015-10-08,3.93,4.03,3.93,4.00,792100,3.819
2015-10-07,3.86,3.97,3.86,3.93,549800,3.752
2015-10-06,3.87,3.91,3.86,3.90,348300,3.723
2015-10-05,3.87,3.91,3.81,3.86,353200,3.685
2015-10-02,3.82,3.92,3.82,3.88,214800,3.704
2015-10-01,3.90,3.91,3.84,3.85,827100,3.676
2015-09-30,3.77,3.85,3.77,3.85,633900,3.676
2015-09-29,3.85,3.90,3.77,3.79,189100,3.618
2015-09-28,3.90,3.91,3.83,3.85,265400,3.676
2015-09-25,3.88,3.99,3.84,3.90,636600,3.723
2015-09-24,3.69,3.84,3.67,3.81,574700,3.637
2015-09-23,3.69,3.69,3.63,3.64,419000,3.475
2015-09-22,3.72,3.79,3.66,3.70,281700,3.532
2015-09-21,3.65,3.71,3.64,3.70,22301500,3.532
2015-09-18,3.67,3.72,3.61,3.61,324400,3.446
2015-09-17,3.65,3.655,3.59,3.62,220400,3.456
2015-09-16,3.65,3.67,3.57,3.61,208600,3.446
2015-09-15,3.54,3.68,3.54,3.65,360400,3.485
2015-09-14,3.63,3.65,3.54,3.62,893700,3.456
2015-09-11,3.66,3.73,3.64,3.66,503100,3.494
2015-09-10,3.65,3.69,3.55,3.66,99000,3.494
2015-09-09,3.70,3.72,3.60,3.65,744700,3.485
2015-09-08,3.60,3.70,3.55,3.65,283300,3.485
2015-09-07,3.60,3.60,3.53,3.57,20200,3.408
2015-09-04,3.55,3.76,3.54,3.60,277600,3.437
2015-09-03,3.70,3.70,3.62,3.65,190700,3.423
2015-09-02,3.64,3.69,3.62,3.64,386400,3.414
2015-09-01,3.70,3.75,3.65,3.70,1718700,3.47
2015-08-31,3.69,3.72,3.65,3.69,125500,3.461
2015-08-28,3.74,3.76,3.62,3.69,190300,3.461
2015-08-27,3.69,3.78,3.69,3.72,255600,3.489
2015-08-26,3.45,3.80,3.44,3.69,423600,3.461
2015-08-25,3.40,3.52,3.28,3.43,525500,3.217
2015-08-24,3.30,3.40,3.30,3.36,1785700,3.151
2015-08-21,3.00,3.05,2.91,3.00,250400,2.814
2015-08-20,3.03,3.05,2.95,3.01,78900,2.823
2015-08-19,3.06,3.10,2.99,3.04,29700,2.851
2015-08-18,3.11,3.12,2.99,2.99,52300,2.804
2015-08-17,3.13,3.13,3.06,3.10,128300,2.907
2015-08-14,3.07,3.12,3.05,3.12,51800,2.926
2015-08-13,3.04,3.08,3.01,3.05,76600,2.86
2015-08-12,3.10,3.13,3.02,3.06,215600,2.87
2015-08-11,3.09,3.11,3.02,3.09,165800,2.898
2015-08-10,3.06,3.10,3.02,3.07,214300,2.879
2015-08-07,3.08,3.13,3.03,3.07,302900,2.879
2015-08-06,3.11,3.15,3.06,3.10,79200,2.907
2015-08-05,3.12,3.175,3.11,3.15,89400,2.954
2015-08-04,3.14,3.18,3.10,3.15,84700,2.954
2015-08-03,3.09,3.16,3.09,3.11,18300,2.917
2015-07-31,3.10,3.13,3.07,3.09,191800,2.898
2015-07-30,3.04,3.07,3.02,3.05,171000,2.86
2015-07-29,3.11,3.11,3.02,3.02,92700,2.832
2015-07-28,3.13,3.17,3.09,3.09,160900,2.898
2015-07-27,3.095,3.17,3.09,3.17,234700,2.973
2015-07-24,3.14,3.15,3.07,3.10,73100,2.907
2015-07-23,3.16,3.16,3.08,3.10,162500,2.907
2015-07-22,3.09,3.18,3.06,3.17,212600,2.973
2015-07-21,3.11,3.16,3.09,3.12,433500,2.926
2015-07-20,3.11,3.16,3.10,3.13,155700,2.936
2015-07-17,3.12,3.16,3.12,3.16,378700,2.964
2015-07-16,3.10,3.14,3.05,3.12,145300,2.926
2015-07-15,3.10,3.10,3.06,3.10,151200,2.907
2015-07-14,3.05,3.14,2.95,3.07,203300,2.879
2015-07-13,3.08,3.09,2.96,3.00,122300,2.814
2015-07-10,3.08,3.12,3.00,3.08,1393800,2.889
2015-07-09,3.00,3.12,3.00,3.06,373400,2.87
2015-07-08,3.10,3.11,3.00,3.08,1113200,2.889
2015-07-07,3.10,3.16,3.07,3.11,1422400,2.917
2015-07-06,3.11,3.11,3.01,3.07,24100,2.879
2015-07-03,3.12,3.13,3.10,3.13,60200,2.936
2015-07-02,3.10,3.17,3.06,3.17,125400,2.973
2015-07-01,3.14,3.17,3.06,3.12,69800,2.926
2015-06-30,3.11,3.19,3.07,3.14,77400,2.945
2015-06-29,3.12,3.20,3.10,3.19,73000,2.992
2015-06-26,3.10,3.24,3.10,3.24,87900,3.039
2015-06-25,3.10,3.14,3.09,3.10,451700,2.907
2015-06-24,3.10,3.19,3.07,3.18,153600,2.982
2015-06-23,3.03,3.10,3.02,3.10,44800,2.907
2015-06-22,3.00,3.07,3.00,3.02,74700,2.832
2015-06-19,3.07,3.07,2.94,3.01,493500,2.823
2015-06-18,3.12,3.12,3.02,3.08,86300,2.889
2015-06-17,3.12,3.16,3.09,3.12,438500,2.926
2015-06-16,3.15,3.15,2.97,3.10,26800,2.907
2015-06-15,3.14,3.16,3.08,3.08,314200,2.889
2015-06-12,3.16,3.19,3.14,3.16,129200,2.964
2015-06-11,3.18,3.22,3.16,3.19,149100,2.992
2015-06-10,3.20,3.24,3.14,3.16,294300,2.964
2015-06-09,3.20,3.22,3.11,3.18,232100,2.982
2015-06-08,3.20,3.20,3.20,3.20,000,3.001
2015-06-05,3.24,3.24,3.20,3.20,6700,3.001
2015-06-04,3.24,3.275,3.20,3.20,775800,3.001
2015-06-03,3.23,3.31,3.21,3.23,125100,3.029
2015-06-02,3.22,3.28,3.21,3.28,23600,3.076
2015-06-01,3.21,3.25,3.20,3.23,96600,3.029
2015-05-29,3.24,3.30,3.20,3.20,155300,3.001
2015-05-28,3.24,3.35,3.22,3.30,88800,3.095
2015-05-27,3.23,3.27,3.21,3.25,146500,3.048
2015-05-26,3.21,3.25,3.21,3.25,67900,3.048
2015-05-25,3.25,3.27,3.20,3.27,260200,3.067
2015-05-22,3.23,3.28,3.19,3.19,31000,2.992
2015-05-21,3.20,3.30,3.20,3.30,50800,3.095
2015-05-20,3.27,3.33,3.245,3.29,76000,3.086
2015-05-19,3.30,3.30,3.22,3.29,108200,3.086
2015-05-18,3.22,3.35,3.16,3.30,643700,3.095
2015-05-15,3.24,3.24,3.195,3.20,51500,3.001
2015-05-14,3.21,3.24,3.19,3.23,152200,3.029
2015-05-13,3.29,3.32,3.13,3.19,3459600,2.992
2015-05-12,3.24,3.33,3.22,3.33,81100,3.123
2015-05-11,3.25,3.30,3.22,3.24,107600,3.039
2015-05-08,3.37,3.39,3.26,3.29,305300,3.086
2015-05-07,3.35,3.385,3.33,3.36,53900,3.151
2015-05-06,3.31,3.48,3.30,3.39,226200,3.179
2015-05-05,3.25,3.31,3.22,3.31,299800,3.104
2015-05-04,3.23,3.27,3.23,3.27,426100,3.067
2015-05-01,3.25,3.27,3.23,3.25,1219900,3.048
2015-04-30,3.21,3.31,3.21,3.23,163100,3.029
2015-04-29,3.25,3.26,3.10,3.22,199000,3.02
2015-04-28,3.25,3.29,3.23,3.24,634100,3.039
2015-04-27,3.28,3.31,3.23,3.25,99000,3.048
2015-04-24,3.24,3.32,3.22,3.24,749800,3.039
2015-04-23,3.22,3.24,3.22,3.24,7800,3.039
2015-04-22,3.23,3.25,3.21,3.21,10000,3.011
2015-04-21,3.23,3.28,3.21,3.24,478700,3.039
2015-04-20,3.30,3.31,3.22,3.25,221900,3.048
2015-04-17,3.29,3.35,3.22,3.26,742100,3.057
2015-04-16,3.25,3.33,3.23,3.29,76100,3.086
2015-04-15,3.29,3.35,3.22,3.28,26300,3.076
2015-04-14,3.31,3.315,3.29,3.30,677100,3.095
2015-04-13,3.30,3.40,3.30,3.35,32300,3.142
2015-04-10,3.38,3.41,3.34,3.35,14900,3.142
2015-04-09,3.48,3.49,3.24,3.31,32100,3.104
2015-04-08,3.45,3.55,3.45,3.50,1697700,3.283
2015-04-07,3.42,3.52,3.40,3.47,58200,3.254
2015-04-06,3.40,3.40,3.40,3.40,000,3.189
2015-04-03,3.40,3.40,3.40,3.40,000,3.189
2015-04-02,3.23,3.45,3.23,3.40,96200,3.189
2015-04-01,3.24,3.25,3.22,3.25,440300,3.048
2015-03-31,3.18,3.30,3.18,3.28,49300,3.076
2015-03-30,3.245,3.305,3.23,3.23,18900,3.029
2015-03-27,3.24,3.27,3.24,3.24,316900,3.039
2015-03-26,3.22,3.33,3.20,3.24,238300,3.039
2015-03-25,3.25,3.315,3.22,3.25,323000,3.048
2015-03-24,3.23,3.265,3.22,3.26,73800,3.057
2015-03-23,3.16,3.28,3.16,3.26,81000,3.057
2015-03-20,3.29,3.30,3.23,3.23,2026800,3.029
2015-03-19,3.27,3.30,3.24,3.27,402000,3.067
2015-03-18,3.28,3.30,3.10,3.27,237600,3.067
2015-03-17,3.27,3.30,3.20,3.20,236000,3.001
2015-03-16,3.24,3.38,3.24,3.30,172700,3.095
2015-03-13,3.085,3.26,3.06,3.26,42000,3.057
2015-03-12,3.06,3.30,3.00,3.12,513700,2.926
2015-03-11,3.01,3.07,3.00,3.05,303700,2.86
2015-03-10,2.94,3.05,2.94,3.00,253600,2.814
2015-03-09,2.98,2.98,2.92,2.96,37800,2.776
2015-03-06,2.96,3.06,2.95,3.00,180500,2.814
2015-03-05,2.90,2.96,2.90,2.95,2745600,2.767
2015-03-04,2.91,2.91,2.83,2.90,39200,2.72
2015-03-03,2.87,2.92,2.78,2.91,499600,2.729
2015-03-02,2.97,2.97,2.85,2.85,428800,2.673
2015-02-27,2.90,3.01,2.90,2.98,3190000,2.795
2015-02-26,2.90,2.94,2.85,2.89,102200,2.71
2015-02-25,2.92,3.04,2.88,2.98,69900,2.795
2015-02-24,2.84,2.87,2.79,2.86,94800,2.682
2015-02-23,2.85,2.85,2.79,2.85,43100,2.673
2015-02-20,2.90,2.90,2.78,2.85,68500,2.673
2015-02-19,2.90,2.96,2.90,2.92,156800,2.739
2015-02-18,2.89,2.95,2.88,2.94,60000,2.757
2015-02-17,2.86,2.90,2.84,2.90,123800,2.72
2015-02-16,2.74,2.74,2.74,2.74,000,2.57
2015-02-13,2.80,2.90,2.69,2.74,75800,2.57
2015-02-12,2.92,2.92,2.78,2.78,37100,2.607
2015-02-11,2.83,2.99,2.83,2.90,1711100,2.72
2015-02-10,2.80,2.85,2.80,2.85,184300,2.673
2015-02-09,2.87,2.87,2.78,2.80,171600,2.626
2015-02-06,2.79,2.89,2.77,2.87,163700,2.692
2015-02-05,2.74,2.87,2.74,2.78,384800,2.607
2015-02-04,2.71,2.77,2.71,2.74,238000,2.57
2015-02-03,2.66,2.74,2.65,2.71,231100,2.542
2015-02-02,2.67,2.67,2.64,2.65,308100,2.485
2015-01-30,2.62,2.68,2.62,2.68,30100,2.513
2015-01-29,2.61,2.65,2.61,2.65,35300,2.485
2015-01-28,2.59,2.64,2.58,2.64,36900,2.476
2015-01-27,2.60,2.64,2.58,2.60,31400,2.438
2015-01-26,2.60,2.60,2.60,2.60,000,2.438
2015-01-23,2.55,2.64,2.55,2.60,267000,2.438
2015-01-22,2.57,2.60,2.56,2.58,403600,2.42
2015-01-21,2.55,2.58,2.50,2.55,152200,2.392
2015-01-20,2.55,2.58,2.48,2.55,336400,2.392
2015-01-19,2.55,2.55,2.50,2.55,4900,2.392
2015-01-16,2.48,2.55,2.48,2.55,86700,2.392
2015-01-15,2.50,2.50,2.50,2.50,13000,2.345
2015-01-14,2.50,2.50,2.50,2.50,300,2.345
2015-01-13,2.50,2.51,2.49,2.50,22100,2.345
2015-01-12,2.54,2.54,2.53,2.54,459100,2.382
2015-01-09,2.52,2.55,2.50,2.54,634500,2.382
2015-01-08,2.48,2.54,2.48,2.54,40700,2.382
2015-01-07,2.54,2.55,2.49,2.53,371000,2.373
2015-01-06,2.51,2.54,2.51,2.54,26800,2.382
2015-01-05,2.51,2.54,2.51,2.54,33200,2.382
2015-01-02,2.54,2.54,2.54,2.54,3500,2.382
2015-01-01,2.54,2.54,2.54,2.54,000,2.382
2014-12-31,2.54,2.54,2.53,2.54,2700,2.382
2014-12-30,2.54,2.54,2.48,2.48,16900,2.326
2014-12-29,2.50,2.52,2.50,2.50,35300,2.345
2014-12-26,2.49,2.49,2.49,2.49,000,2.335
2014-12-25,2.49,2.49,2.49,2.49,000,2.335
2014-12-24,2.55,2.55,2.49,2.49,71300,2.335
2014-12-23,2.50,2.50,2.49,2.49,14500,2.335
2014-12-22,2.53,2.54,2.50,2.50,11900,2.345
2014-12-19,2.53,2.57,2.49,2.50,116900,2.345
2014-12-18,2.51,2.52,2.49,2.51,353000,2.354
2014-12-17,2.49,2.54,2.49,2.54,1682300,2.382
2014-12-16,2.48,2.48,2.44,2.48,664800,2.326
2014-12-15,2.49,2.56,2.49,2.55,59100,2.392
2014-12-12,2.48,2.48,2.48,2.48,785100,2.326
2014-12-11,2.54,2.54,2.54,2.54,2700,2.382
2014-12-10,2.51,2.55,2.50,2.55,36300,2.392
2014-12-09,2.53,2.53,2.45,2.50,1169000,2.345
2014-12-08,2.45,2.54,2.45,2.54,25100,2.382
2014-12-05,2.52,2.58,2.45,2.45,150900,2.298
2014-12-04,2.45,2.55,2.45,2.50,351400,2.345
2014-12-03,2.45,2.48,2.45,2.48,20300,2.326
2014-12-02,2.45,2.45,2.42,2.45,145200,2.298
2014-12-01,2.46,2.46,2.45,2.45,50100,2.298
2014-11-28,2.49,2.49,2.47,2.47,1817200,2.317
2014-11-27,2.50,2.50,2.50,2.50,54900,2.345
2014-11-26,2.48,2.49,2.47,2.49,1442300,2.335
2014-11-25,2.54,2.55,2.46,2.50,2573200,2.345
2014-11-24,2.58,2.58,2.50,2.52,1178900,2.363
2014-11-21,2.60,2.60,2.51,2.55,677500,2.392
2014-11-20,2.61,2.62,2.58,2.58,656900,2.42
2014-11-19,2.65,2.67,2.61,2.63,847400,2.467
2014-11-18,2.66,2.67,2.65,2.66,847900,2.495
2014-11-17,2.69,2.69,2.66,2.66,834400,2.495
2014-11-14,2.69,2.71,2.67,2.68,592300,2.513
2014-11-13,2.68,2.70,2.67,2.69,959700,2.523
2014-11-12,2.66,2.70,2.65,2.66,1888900,2.495
2014-11-11,2.75,2.77,2.61,2.65,9752800,2.485
