Date,Open,High,Low,Close,Volume,Adj Close
2017-05-09,0.13,0.13,0.122,0.125,1335200,0.125
2017-05-08,0.135,0.135,0.13,0.13,378000,0.13
2017-05-05,0.14,0.14,0.135,0.135,239200,0.135
2017-05-04,0.135,0.135,0.135,0.135,108600,0.135
2017-05-03,0.135,0.135,0.135,0.135,157100,0.135
2017-05-02,0.135,0.135,0.135,0.135,141100,0.135
2017-05-01,0.135,0.135,0.135,0.135,157700,0.135
2017-04-28,0.135,0.135,0.135,0.135,392400,0.135
2017-04-27,0.135,0.135,0.135,0.135,278100,0.135
2017-04-26,0.145,0.145,0.135,0.135,893900,0.135
2017-04-25,0.145,0.145,0.145,0.145,000,0.145
2017-04-24,0.145,0.145,0.145,0.145,58100,0.145
2017-04-21,0.15,0.15,0.14,0.14,881100,0.14
2017-04-20,0.14,0.155,0.14,0.15,1372300,0.15
2017-04-19,0.14,0.145,0.135,0.145,620400,0.145
2017-04-18,0.135,0.14,0.135,0.135,328300,0.135
2017-04-17,0.135,0.135,0.135,0.135,000,0.135
2017-04-14,0.135,0.135,0.135,0.135,000,0.135
2017-04-13,0.135,0.14,0.135,0.135,786300,0.135
2017-04-12,0.135,0.135,0.13,0.13,502200,0.13
2017-04-11,0.145,0.145,0.14,0.14,248500,0.14
2017-04-10,0.14,0.14,0.135,0.135,302600,0.135
2017-04-07,0.145,0.15,0.14,0.14,384000,0.14
2017-04-06,0.145,0.145,0.14,0.145,260800,0.145
2017-04-05,0.14,0.145,0.135,0.145,272500,0.145
2017-04-04,0.14,0.145,0.135,0.14,1138700,0.14
2017-04-03,0.14,0.14,0.135,0.135,791200,0.135
2017-03-31,0.135,0.14,0.135,0.135,305000,0.135
2017-03-30,0.135,0.135,0.135,0.135,266600,0.135
2017-03-29,0.135,0.14,0.135,0.135,637700,0.135
2017-03-28,0.135,0.135,0.135,0.135,440700,0.135
2017-03-27,0.13,0.13,0.13,0.13,408900,0.13
2017-03-24,0.13,0.13,0.13,0.13,332800,0.13
2017-03-23,0.13,0.13,0.13,0.13,76600,0.13
2017-03-22,0.13,0.13,0.13,0.13,704700,0.13
2017-03-21,0.135,0.135,0.13,0.13,246000,0.13
2017-03-20,0.135,0.135,0.135,0.135,000,0.135
2017-03-17,0.14,0.14,0.135,0.135,210000,0.135
2017-03-16,0.135,0.135,0.135,0.135,255800,0.135
2017-03-15,0.135,0.135,0.13,0.135,308800,0.135
2017-03-14,0.135,0.14,0.13,0.13,535700,0.13
2017-03-13,0.135,0.135,0.13,0.13,73500,0.13
2017-03-10,0.135,0.135,0.13,0.13,282400,0.13
2017-03-09,0.135,0.135,0.13,0.13,643300,0.13
2017-03-08,0.13,0.13,0.125,0.13,265800,0.13
2017-03-07,0.135,0.14,0.125,0.125,1557800,0.125
2017-03-06,0.135,0.135,0.135,0.135,229100,0.135
2017-03-03,0.14,0.14,0.14,0.14,18900,0.14
2017-03-02,0.14,0.14,0.135,0.14,121600,0.14
2017-03-01,0.135,0.145,0.135,0.14,940600,0.14
2017-02-28,0.145,0.15,0.13,0.13,2716800,0.13
2017-02-27,0.14,0.145,0.14,0.145,133600,0.145
2017-02-24,0.145,0.145,0.14,0.14,397500,0.14
2017-02-23,0.145,0.15,0.145,0.145,663500,0.145
2017-02-22,0.145,0.145,0.14,0.14,286800,0.14
2017-02-21,0.155,0.155,0.14,0.14,1582300,0.14
2017-02-20,0.155,0.155,0.155,0.155,279800,0.155
2017-02-17,0.15,0.155,0.15,0.155,1584000,0.155
2017-02-16,0.14,0.155,0.14,0.15,2908400,0.15
2017-02-15,0.135,0.145,0.135,0.135,1267700,0.135
2017-02-14,0.14,0.14,0.13,0.14,1360500,0.14
2017-02-13,0.14,0.14,0.14,0.14,1076300,0.14
2017-02-10,0.14,0.145,0.14,0.14,1718100,0.14
2017-02-09,0.15,0.1525,0.13,0.135,4052100,0.135
2017-02-08,0.155,0.155,0.15,0.15,990600,0.15
2017-02-07,0.155,0.16,0.15,0.155,1083600,0.155
2017-02-06,0.16,0.16,0.15,0.15,733800,0.15
2017-02-03,0.145,0.15,0.145,0.15,258900,0.15
2017-02-02,0.155,0.155,0.145,0.145,867800,0.145
2017-02-01,0.16,0.165,0.15,0.15,735700,0.15
2017-01-31,0.17,0.17,0.16,0.16,379100,0.16
2017-01-30,0.165,0.17,0.165,0.17,1309800,0.17
2017-01-27,0.165,0.185,0.16,0.165,3865300,0.165
2017-01-26,0.165,0.165,0.165,0.165,000,0.165
2017-01-25,0.165,0.165,0.16,0.165,298500,0.165
2017-01-24,0.165,0.17,0.16,0.16,373400,0.16
2017-01-23,0.17,0.175,0.15,0.17,3838200,0.17
2017-01-20,0.155,0.175,0.155,0.165,1532300,0.165
2017-01-19,0.16,0.175,0.155,0.155,2531500,0.155
2017-01-18,0.145,0.16,0.145,0.16,2530200,0.16
2017-01-17,0.145,0.145,0.14,0.14,272900,0.14
2017-01-16,0.145,0.145,0.14,0.14,1025500,0.14
2017-01-13,0.14,0.15,0.14,0.14,2415600,0.14
2017-01-12,0.14,0.14,0.135,0.135,961600,0.135
2017-01-11,0.135,0.14,0.135,0.135,47400,0.135
2017-01-10,0.135,0.145,0.135,0.135,1285600,0.135
2017-01-09,0.135,0.14,0.13,0.135,355300,0.135
2017-01-06,0.135,0.135,0.13,0.13,319900,0.13
2017-01-05,0.135,0.135,0.13,0.135,379300,0.135
2017-01-04,0.14,0.14,0.13,0.135,1173400,0.135
2017-01-03,0.14,0.15,0.135,0.14,1503500,0.14
2017-01-02,0.135,0.135,0.135,0.135,000,0.135
2016-12-30,0.135,0.14,0.135,0.135,203500,0.135
2016-12-29,0.13,0.135,0.13,0.135,527800,0.135
2016-12-28,0.13,0.135,0.13,0.13,1213300,0.13
2016-12-27,0.125,0.125,0.125,0.125,000,0.125
2016-12-26,0.125,0.125,0.125,0.125,000,0.125
2016-12-23,0.13,0.13,0.125,0.125,234700,0.125
2016-12-22,0.125,0.13,0.125,0.125,1187100,0.125
2016-12-21,0.12,0.12,0.12,0.12,1008200,0.12
2016-12-20,0.115,0.12,0.11,0.115,524000,0.115
2016-12-19,0.12,0.12,0.115,0.115,834200,0.115
2016-12-16,0.125,0.125,0.115,0.12,566800,0.12
2016-12-15,0.115,0.125,0.115,0.125,1325800,0.125
2016-12-14,0.115,0.115,0.11,0.115,68900,0.115
2016-12-13,0.11,0.11,0.11,0.11,157200,0.11
2016-12-12,0.11,0.11,0.105,0.105,274200,0.105
2016-12-09,0.105,0.105,0.105,0.105,000,0.105
2016-12-08,0.115,0.115,0.105,0.105,630500,0.105
2016-12-07,0.11,0.115,0.11,0.11,430000,0.11
2016-12-06,0.115,0.115,0.105,0.105,1536000,0.105
2016-12-05,0.115,0.115,0.11,0.11,1722200,0.11
2016-12-02,0.12,0.12,0.115,0.12,85800,0.12
2016-12-01,0.125,0.125,0.115,0.115,235600,0.115
2016-11-30,0.13,0.13,0.12,0.12,1121100,0.12
2016-11-29,0.13,0.135,0.122,0.13,1698700,0.13
2016-11-28,0.122,0.135,0.122,0.125,2346100,0.125
2016-11-25,0.12,0.12,0.12,0.12,663700,0.12
2016-11-24,0.12,0.125,0.115,0.12,747400,0.12
2016-11-23,0.12,0.12,0.117,0.117,522900,0.117
2016-11-22,0.115,0.12,0.115,0.12,952300,0.12
2016-11-21,0.115,0.115,0.115,0.115,289100,0.115
2016-11-18,0.115,0.12,0.11,0.11,166800,0.11
2016-11-17,0.12,0.12,0.11,0.11,197100,0.11
2016-11-16,0.115,0.115,0.115,0.115,222000,0.115
2016-11-15,0.105,0.115,0.105,0.115,991800,0.115
2016-11-14,0.105,0.11,0.105,0.105,201100,0.105
2016-11-11,0.115,0.115,0.10,0.105,1794000,0.105
2016-11-10,0.11,0.11,0.105,0.105,906000,0.105
2016-11-09,0.11,0.11,0.105,0.105,1215100,0.105
2016-11-08,0.115,0.115,0.11,0.11,606000,0.11
2016-11-07,0.11,0.11,0.11,0.11,484100,0.11
2016-11-04,0.11,0.11,0.11,0.11,1316600,0.11
2016-11-03,0.11,0.11,0.11,0.11,516700,0.11
2016-11-02,0.105,0.11,0.105,0.11,88400,0.11
2016-11-01,0.115,0.115,0.105,0.105,1059500,0.105
2016-10-31,0.11,0.11,0.11,0.11,302900,0.11
2016-10-28,0.115,0.115,0.11,0.11,339300,0.11
2016-10-27,0.12,0.125,0.11,0.11,1297200,0.11
2016-10-26,0.115,0.115,0.115,0.115,1135500,0.115
2016-10-25,0.12,0.125,0.115,0.115,767200,0.115
2016-10-24,0.12,0.12,0.115,0.115,373300,0.115
2016-10-21,0.115,0.12,0.115,0.12,603700,0.12
2016-10-20,0.115,0.12,0.115,0.115,511900,0.115
2016-10-19,0.115,0.115,0.11,0.115,766900,0.115
2016-10-18,0.12,0.12,0.11,0.11,355400,0.11
2016-10-17,0.12,0.12,0.12,0.12,372300,0.12
2016-10-14,0.115,0.115,0.115,0.115,588400,0.115
2016-10-13,0.11,0.11,0.11,0.11,505600,0.11
2016-10-12,0.11,0.11,0.11,0.11,738700,0.11
2016-10-11,0.11,0.11,0.11,0.11,876800,0.11
2016-10-10,0.11,0.11,0.105,0.105,1880100,0.105
2016-10-07,0.115,0.115,0.11,0.11,30500,0.11
2016-10-06,0.115,0.115,0.11,0.115,234000,0.115
2016-10-05,0.11,0.115,0.11,0.115,906000,0.115
2016-10-04,0.115,0.115,0.115,0.115,409700,0.115
2016-10-03,0.115,0.12,0.115,0.115,346300,0.115
2016-09-30,0.115,0.115,0.11,0.11,254600,0.11
2016-09-29,0.12,0.12,0.11,0.115,783000,0.115
2016-09-28,0.11,0.12,0.11,0.12,1197500,0.12
2016-09-27,0.115,0.115,0.105,0.11,1803800,0.11
2016-09-26,0.125,0.125,0.115,0.115,392600,0.115
2016-09-23,0.12,0.12,0.12,0.12,342300,0.12
2016-09-22,0.125,0.125,0.12,0.12,468100,0.12
2016-09-21,0.13,0.13,0.125,0.13,1286500,0.13
2016-09-20,0.13,0.135,0.125,0.125,298400,0.125
2016-09-19,0.135,0.135,0.13,0.135,87600,0.135
2016-09-16,0.13,0.135,0.13,0.135,153600,0.135
2016-09-15,0.135,0.135,0.13,0.13,36000,0.13
2016-09-14,0.125,0.13,0.125,0.13,188700,0.13
2016-09-13,0.13,0.13,0.125,0.125,776500,0.125
2016-09-12,0.14,0.14,0.125,0.125,1151700,0.125
2016-09-09,0.14,0.14,0.135,0.135,245500,0.135
2016-09-08,0.135,0.14,0.135,0.135,365300,0.135
2016-09-07,0.14,0.14,0.135,0.135,557600,0.135
2016-09-06,0.135,0.135,0.135,0.135,78400,0.135
2016-09-05,0.135,0.135,0.13,0.135,357800,0.135
2016-09-02,0.135,0.135,0.13,0.13,64000,0.13
2016-09-01,0.135,0.135,0.13,0.13,243500,0.13
2016-08-31,0.14,0.14,0.135,0.135,85700,0.135
2016-08-30,0.14,0.14,0.135,0.135,435900,0.135
2016-08-29,0.135,0.135,0.135,0.135,500500,0.135
2016-08-26,0.137,0.14,0.135,0.135,162900,0.135
2016-08-25,0.14,0.14,0.137,0.14,890100,0.14
2016-08-24,0.14,0.14,0.135,0.135,271000,0.135
2016-08-23,0.135,0.135,0.13,0.13,537900,0.13
2016-08-22,0.135,0.14,0.13,0.13,818900,0.13
2016-08-19,0.13,0.14,0.13,0.135,1281200,0.135
2016-08-18,0.125,0.13,0.125,0.13,635700,0.13
2016-08-17,0.13,0.13,0.12,0.125,1959700,0.125
2016-08-16,0.135,0.135,0.125,0.125,790300,0.125
2016-08-15,0.125,0.135,0.125,0.13,1018800,0.13
2016-08-12,0.135,0.135,0.125,0.125,1407300,0.125
2016-08-11,0.135,0.135,0.13,0.132,668400,0.132
2016-08-10,0.14,0.14,0.135,0.135,415900,0.135
2016-08-09,0.14,0.14,0.135,0.135,683300,0.135
2016-08-08,0.14,0.14,0.135,0.137,426200,0.137
2016-08-05,0.14,0.14,0.135,0.14,1972700,0.14
2016-08-04,0.145,0.145,0.14,0.14,223800,0.14
2016-08-03,0.16,0.16,0.14,0.145,1665800,0.145
2016-08-02,0.165,0.165,0.15,0.15,1292700,0.15
2016-08-01,0.16,0.165,0.16,0.165,622500,0.165
2016-07-29,0.16,0.165,0.16,0.16,213400,0.16
2016-07-28,0.16,0.165,0.16,0.165,318900,0.165
2016-07-27,0.185,0.185,0.16,0.165,890200,0.165
2016-07-26,0.16,0.16,0.16,0.16,000,0.16
2016-07-25,0.16,0.16,0.16,0.16,000,0.16
2016-07-22,0.16,0.16,0.16,0.16,000,0.16
2016-07-21,0.16,0.165,0.16,0.16,518700,0.16
2016-07-20,0.17,0.17,0.16,0.16,123300,0.16
2016-07-19,0.17,0.17,0.165,0.17,327200,0.17
2016-07-18,0.165,0.17,0.165,0.17,161100,0.17
2016-07-15,0.17,0.17,0.165,0.165,348000,0.165
2016-07-14,0.17,0.17,0.16,0.16,357300,0.16
2016-07-13,0.17,0.17,0.165,0.165,348800,0.165
2016-07-12,0.175,0.175,0.165,0.17,264400,0.17
2016-07-11,0.165,0.175,0.165,0.175,197200,0.175
2016-07-08,0.16,0.165,0.16,0.16,636400,0.16
2016-07-07,0.17,0.17,0.165,0.165,418000,0.165
2016-07-06,0.165,0.17,0.165,0.17,186500,0.17
2016-07-05,0.17,0.17,0.17,0.17,332800,0.17
2016-07-04,0.17,0.175,0.17,0.17,289400,0.17
2016-07-01,0.185,0.185,0.17,0.17,2277300,0.17
2016-06-30,0.185,0.185,0.185,0.185,358800,0.185
2016-06-29,0.19,0.19,0.175,0.175,858800,0.175
2016-06-28,0.175,0.19,0.175,0.19,1046000,0.19
2016-06-27,0.17,0.19,0.17,0.175,976000,0.175
2016-06-24,0.185,0.205,0.17,0.17,4036300,0.17
2016-06-23,0.16,0.19,0.16,0.18,3854700,0.18
2016-06-22,0.16,0.16,0.16,0.16,457900,0.16
2016-06-21,0.16,0.17,0.16,0.16,1540100,0.16
2016-06-20,0.15,0.155,0.15,0.15,261100,0.15
2016-06-17,0.145,0.15,0.145,0.145,276700,0.145
2016-06-16,0.155,0.155,0.145,0.145,758600,0.145
2016-06-15,0.16,0.16,0.155,0.155,319300,0.155
2016-06-14,0.17,0.17,0.16,0.16,1024300,0.16
2016-06-13,0.165,0.165,0.165,0.165,000,0.165
2016-06-10,0.16,0.17,0.16,0.165,1180600,0.165
2016-06-09,0.17,0.17,0.155,0.155,1156400,0.155
2016-06-08,0.16,0.175,0.16,0.165,2252300,0.165
2016-06-07,0.175,0.18,0.152,0.155,1828600,0.155
2016-06-06,0.165,0.20,0.16,0.175,3966800,0.175
2016-06-03,0.12,0.155,0.12,0.155,2834100,0.155
2016-06-02,0.11,0.11,0.11,0.11,59100,0.11
2016-06-01,0.12,0.12,0.11,0.11,277600,0.11
2016-05-31,0.12,0.125,0.12,0.12,472000,0.12
2016-05-30,0.105,0.12,0.105,0.115,1568500,0.115
2016-05-27,0.105,0.115,0.10,0.105,2747000,0.105
2016-05-26,0.105,0.105,0.097,0.097,704900,0.097
2016-05-25,0.098,0.10,0.098,0.098,191900,0.098
2016-05-24,0.10,0.10,0.097,0.097,177600,0.097
2016-05-23,0.10,0.105,0.099,0.099,1108900,0.099
2016-05-20,0.098,0.105,0.097,0.097,458300,0.097
2016-05-19,0.105,0.105,0.095,0.095,2394900,0.095
2016-05-18,0.105,0.105,0.10,0.10,261600,0.10
2016-05-17,0.105,0.105,0.10,0.10,176400,0.10
2016-05-16,0.11,0.11,0.10,0.10,429700,0.10
2016-05-13,0.105,0.11,0.105,0.11,208900,0.11
2016-05-12,0.115,0.115,0.105,0.105,414100,0.105
2016-05-11,0.115,0.1175,0.11,0.115,1067100,0.115
2016-05-10,0.105,0.115,0.105,0.115,2646700,0.115
2016-05-09,0.105,0.11,0.105,0.105,495400,0.105
2016-05-06,0.105,0.105,0.099,0.105,546100,0.105
2016-05-05,0.10,0.10,0.098,0.098,306900,0.098
2016-05-04,0.105,0.105,0.10,0.10,434800,0.10
2016-05-03,0.11,0.11,0.10,0.10,486000,0.10
2016-05-02,0.105,0.11,0.10,0.11,1884600,0.11
2016-04-29,0.11,0.11,0.092,0.097,577900,0.097
2016-04-28,0.11,0.11,0.10,0.10,1359600,0.10
2016-04-27,0.11,0.135,0.105,0.105,5685900,0.105
2016-04-26,0.082,0.083,0.082,0.083,38700,0.083
2016-04-25,0.083,0.083,0.083,0.083,000,0.083
2016-04-22,0.083,0.084,0.083,0.083,80700,0.083
2016-04-21,0.084,0.085,0.083,0.085,120600,0.085
2016-04-20,0.082,0.082,0.082,0.082,19200,0.082
2016-04-19,0.085,0.085,0.085,0.085,000,0.085
2016-04-18,0.085,0.086,0.085,0.085,385000,0.085
2016-04-15,0.086,0.086,0.085,0.086,67700,0.086
2016-04-14,0.086,0.087,0.086,0.087,105000,0.087
2016-04-13,0.088,0.088,0.086,0.087,354400,0.087
2016-04-12,0.086,0.087,0.086,0.087,110000,0.087
2016-04-11,0.086,0.088,0.086,0.088,150400,0.088
2016-04-08,0.087,0.087,0.086,0.086,59500,0.086
2016-04-07,0.087,0.088,0.087,0.087,63800,0.087
2016-04-06,0.087,0.087,0.086,0.086,244500,0.086
2016-04-05,0.087,0.088,0.087,0.088,95000,0.088
2016-04-04,0.088,0.09,0.087,0.09,104400,0.09
2016-04-01,0.092,0.092,0.086,0.088,705400,0.088
2016-03-31,0.09,0.092,0.09,0.092,210400,0.092
2016-03-30,0.088,0.095,0.087,0.092,661000,0.092
2016-03-29,0.091,0.091,0.087,0.089,461400,0.089
2016-03-28,0.09,0.09,0.09,0.09,000,0.09
2016-03-25,0.09,0.09,0.09,0.09,000,0.09
2016-03-24,0.088,0.09,0.087,0.09,346700,0.09
2016-03-23,0.098,0.098,0.098,0.098,000,0.098
2016-03-22,0.098,0.098,0.098,0.098,000,0.098
2016-03-21,0.098,0.098,0.098,0.098,000,0.098
2016-03-18,0.10,0.105,0.098,0.098,389400,0.098
2016-03-17,0.10,0.10,0.099,0.099,27700,0.099
2016-03-16,0.10,0.10,0.10,0.10,346400,0.10
2016-03-15,0.099,0.10,0.099,0.10,95600,0.10
2016-03-14,0.10,0.10,0.096,0.096,518700,0.096
2016-03-11,0.105,0.105,0.099,0.10,733000,0.10
2016-03-10,0.11,0.115,0.105,0.105,444300,0.105
2016-03-09,0.125,0.125,0.11,0.11,2305600,0.11
2016-03-08,0.13,0.13,0.125,0.125,1563200,0.125
2016-03-07,0.105,0.135,0.105,0.12,4335800,0.12
2016-03-04,0.105,0.105,0.105,0.105,100000,0.105
2016-03-03,0.10,0.10,0.10,0.10,000,0.10
2016-03-02,0.105,0.105,0.10,0.10,16600,0.10
2016-03-01,0.105,0.11,0.105,0.105,131300,0.105
2016-02-29,0.11,0.11,0.105,0.11,222400,0.11
2016-02-26,0.11,0.11,0.11,0.11,295900,0.11
2016-02-25,0.10,0.10,0.10,0.10,000,0.10
2016-02-24,0.105,0.105,0.10,0.10,417000,0.10
2016-02-23,0.09,0.095,0.09,0.095,241100,0.095
2016-02-22,0.087,0.088,0.087,0.088,232500,0.088
2016-02-19,0.093,0.095,0.09,0.09,360000,0.09
2016-02-18,0.094,0.094,0.09,0.093,245600,0.093
2016-02-17,0.093,0.093,0.093,0.093,54400,0.093
2016-02-16,0.093,0.093,0.093,0.093,000,0.093
2016-02-15,0.096,0.096,0.093,0.093,293000,0.093
2016-02-12,0.096,0.096,0.096,0.096,10000,0.096
2016-02-11,0.094,0.094,0.094,0.094,38200,0.094
2016-02-10,0.098,0.098,0.098,0.098,62000,0.098
2016-02-09,0.098,0.098,0.093,0.093,50000,0.093
2016-02-08,0.098,0.098,0.098,0.098,10000,0.098
2016-02-05,0.096,0.10,0.092,0.10,534000,0.10
2016-02-04,0.097,0.098,0.097,0.098,139200,0.098
2016-02-03,0.097,0.097,0.097,0.097,30000,0.097
2016-02-02,0.096,0.096,0.096,0.096,14200,0.096
2016-02-01,0.097,0.098,0.096,0.098,387600,0.098
2016-01-29,0.098,0.098,0.098,0.098,30800,0.098
2016-01-28,0.098,0.098,0.095,0.098,30600,0.098
2016-01-27,0.099,0.099,0.094,0.099,222300,0.099
2016-01-26,0.099,0.099,0.099,0.099,000,0.099
2016-01-25,0.099,0.099,0.099,0.099,000,0.099
2016-01-22,0.095,0.099,0.095,0.099,349100,0.099
2016-01-21,0.10,0.10,0.10,0.10,5200,0.10
2016-01-20,0.098,0.10,0.098,0.10,50000,0.10
2016-01-19,0.10,0.10,0.10,0.10,000,0.10
2016-01-18,0.10,0.10,0.10,0.10,000,0.10
2016-01-15,0.10,0.10,0.10,0.10,164000,0.10
2016-01-14,0.11,0.11,0.10,0.10,31700,0.10
2016-01-13,0.11,0.11,0.11,0.11,000,0.11
2016-01-12,0.105,0.11,0.105,0.11,313200,0.11
2016-01-11,0.10,0.105,0.10,0.105,37400,0.105
2016-01-08,0.10,0.105,0.10,0.105,75900,0.105
2016-01-07,0.10,0.105,0.097,0.105,308900,0.105
2016-01-06,0.105,0.105,0.10,0.10,509200,0.10
2016-01-05,0.12,0.12,0.12,0.12,000,0.12
2016-01-04,0.105,0.12,0.105,0.12,410200,0.12
2016-01-01,0.105,0.105,0.105,0.105,000,0.105
2015-12-31,0.11,0.11,0.105,0.105,182500,0.105
2015-12-30,0.11,0.11,0.11,0.11,125100,0.11
2015-12-29,0.11,0.11,0.11,0.11,205000,0.11
2015-12-28,0.11,0.11,0.11,0.11,000,0.11
2015-12-25,0.11,0.11,0.11,0.11,000,0.11
2015-12-24,0.11,0.115,0.11,0.11,181600,0.11
2015-12-23,0.11,0.11,0.11,0.11,97900,0.11
2015-12-22,0.105,0.11,0.105,0.11,190000,0.11
2015-12-21,0.115,0.115,0.105,0.105,118600,0.105
2015-12-18,0.11,0.11,0.11,0.11,000,0.11
2015-12-17,0.115,0.115,0.11,0.11,336400,0.11
2015-12-16,0.096,0.125,0.096,0.115,2518700,0.115
2015-12-15,0.096,0.096,0.096,0.096,72300,0.096
2015-12-14,0.096,0.096,0.096,0.096,000,0.096
2015-12-11,0.096,0.096,0.096,0.096,113600,0.096
2015-12-10,0.10,0.10,0.095,0.095,152000,0.095
2015-12-09,0.096,0.10,0.096,0.10,58400,0.10
2015-12-08,0.096,0.096,0.096,0.096,000,0.096
2015-12-07,0.10,0.10,0.096,0.096,74800,0.096
2015-12-04,0.098,0.098,0.095,0.095,48200,0.095
2015-12-03,0.093,0.093,0.093,0.093,000,0.093
2015-12-02,0.095,0.096,0.093,0.093,300000,0.093
2015-12-01,0.095,0.095,0.095,0.095,52000,0.095
2015-11-30,0.095,0.095,0.095,0.095,000,0.095
2015-11-27,0.095,0.095,0.09,0.095,199100,0.095
2015-11-26,0.098,0.098,0.095,0.095,166800,0.095
2015-11-25,0.098,0.098,0.096,0.097,50000,0.097
2015-11-24,0.096,0.097,0.096,0.097,82500,0.097
2015-11-23,0.10,0.10,0.096,0.096,187800,0.096
2015-11-20,0.105,0.105,0.10,0.105,35700,0.105
2015-11-19,0.105,0.11,0.105,0.105,973900,0.105
2015-11-18,0.093,0.105,0.093,0.10,582900,0.10
2015-11-17,0.093,0.093,0.087,0.089,203300,0.089
2015-11-16,0.09,0.094,0.087,0.093,319600,0.093
2015-11-13,0.095,0.095,0.088,0.09,80900,0.09
2015-11-12,0.096,0.096,0.095,0.095,350200,0.095
2015-11-11,0.096,0.096,0.095,0.095,254800,0.095
2015-11-10,0.098,0.10,0.096,0.096,137000,0.096
2015-11-09,0.096,0.096,0.096,0.096,102000,0.096
2015-11-06,0.097,0.10,0.096,0.10,66800,0.10
2015-11-05,0.10,0.10,0.097,0.097,184400,0.097
2015-11-04,0.105,0.105,0.105,0.105,18800,0.105
2015-11-03,0.105,0.105,0.105,0.105,62300,0.105
2015-11-02,0.10,0.105,0.10,0.105,181800,0.105
2015-10-30,0.097,0.11,0.097,0.10,2173200,0.10
2015-10-29,0.097,0.097,0.095,0.095,206700,0.095
2015-10-28,0.099,0.099,0.095,0.099,757000,0.099
2015-10-27,0.10,0.10,0.099,0.099,633500,0.099
2015-10-26,0.105,0.105,0.105,0.105,266600,0.105
2015-10-23,0.105,0.11,0.105,0.105,969300,0.105
2015-10-22,0.099,0.105,0.098,0.105,1177900,0.105
2015-10-21,0.096,0.096,0.095,0.096,181200,0.096
2015-10-20,0.097,0.105,0.096,0.096,276600,0.096
2015-10-19,0.096,0.099,0.096,0.096,156500,0.096
2015-10-16,0.095,0.10,0.088,0.096,2060200,0.096
2015-10-15,0.10,0.10,0.10,0.10,768500,0.10
2015-10-14,0.097,0.098,0.097,0.098,255000,0.098
2015-10-13,0.099,0.10,0.096,0.098,1316300,0.098
2015-10-12,0.10,0.10,0.093,0.099,2966500,0.099
2015-10-09,0.11,0.11,0.10,0.10,1440000,0.10
2015-10-08,0.115,0.115,0.11,0.11,562300,0.11
2015-10-07,0.125,0.125,0.11,0.115,2244700,0.115
2015-10-06,0.135,0.15,0.115,0.125,5321500,0.125
2015-10-05,0.125,0.135,0.125,0.13,2110900,0.13
2015-10-02,0.12,0.13,0.12,0.125,1340700,0.125
2015-10-01,0.12,0.12,0.115,0.12,283400,0.12
2015-09-30,0.115,0.13,0.115,0.12,2481900,0.12
2015-09-29,0.105,0.115,0.105,0.11,945900,0.11
2015-09-28,0.11,0.11,0.105,0.105,227000,0.105
2015-09-25,0.11,0.11,0.10,0.105,1644000,0.105
2015-09-24,0.105,0.12,0.10,0.105,10144500,0.105
2015-09-23,0.087,0.087,0.086,0.086,11000,0.086
2015-09-22,0.087,0.087,0.087,0.087,114000,0.087
2015-09-21,0.09,0.09,0.09,0.09,6000,0.09
2015-09-18,0.09,0.09,0.09,0.09,000,0.09
2015-09-17,0.087,0.09,0.087,0.09,20800,0.09
2015-09-16,0.09,0.09,0.09,0.09,60000,0.09
2015-09-15,0.086,0.086,0.086,0.086,10000,0.086
2015-09-14,0.097,0.097,0.097,0.097,000,0.097
2015-09-11,0.097,0.097,0.097,0.097,5000,0.097
2015-09-10,0.097,0.097,0.097,0.097,20000,0.097
2015-09-09,0.089,0.097,0.089,0.097,101000,0.097
2015-09-08,0.085,0.086,0.085,0.085,102100,0.085
2015-09-07,0.083,0.083,0.083,0.083,15000,0.083
2015-09-04,0.085,0.085,0.085,0.085,000,0.085
2015-09-03,0.088,0.088,0.082,0.085,217000,0.085
2015-09-02,0.09,0.09,0.09,0.09,135000,0.09
2015-09-01,0.095,0.098,0.092,0.092,367500,0.092
2015-08-31,0.095,0.095,0.095,0.095,197000,0.095
2015-08-28,0.105,0.11,0.095,0.096,1454300,0.096
2015-08-27,0.105,0.105,0.098,0.10,141000,0.10
2015-08-26,0.10,0.105,0.10,0.105,165000,0.105
2015-08-25,0.10,0.10,0.10,0.10,145000,0.10
2015-08-24,0.105,0.105,0.10,0.10,800000,0.10
2015-08-21,0.105,0.105,0.105,0.105,316500,0.105
2015-08-20,0.105,0.11,0.105,0.105,556300,0.105
2015-08-19,0.105,0.115,0.105,0.11,1196800,0.11
2015-08-18,0.105,0.105,0.105,0.105,105400,0.105
2015-08-17,0.10,0.105,0.098,0.105,450400,0.105
2015-08-14,0.10,0.10,0.098,0.10,185000,0.10
2015-08-13,0.095,0.11,0.095,0.10,460500,0.10
2015-08-12,0.09,0.10,0.09,0.095,575200,0.095
2015-08-11,0.09,0.092,0.09,0.092,250000,0.092
2015-08-10,0.088,0.09,0.087,0.09,237000,0.09
2015-08-07,0.08,0.089,0.08,0.089,363500,0.089
2015-08-06,0.08,0.08,0.076,0.076,69600,0.076
2015-08-05,0.082,0.082,0.082,0.082,49400,0.082
2015-08-04,0.083,0.083,0.08,0.082,122900,0.082
2015-08-03,0.067,0.083,0.067,0.083,894800,0.083
2015-07-31,0.065,0.065,0.065,0.065,20000,0.065
2015-07-30,0.065,0.065,0.065,0.065,77900,0.065
2015-07-29,0.065,0.065,0.065,0.065,4000,0.065
2015-07-28,0.067,0.067,0.065,0.065,68000,0.065
2015-07-27,0.068,0.068,0.068,0.068,000,0.068
2015-07-24,0.068,0.068,0.068,0.068,000,0.068
2015-07-23,0.068,0.068,0.068,0.068,000,0.068
2015-07-22,0.07,0.07,0.068,0.068,32100,0.068
2015-07-21,0.068,0.07,0.066,0.066,70000,0.066
2015-07-20,0.07,0.07,0.067,0.067,95300,0.067
2015-07-17,0.066,0.066,0.066,0.066,55000,0.066
2015-07-16,0.07,0.07,0.066,0.066,90000,0.066
2015-07-15,0.066,0.07,0.066,0.066,145000,0.066
2015-07-14,0.063,0.065,0.063,0.065,49700,0.065
2015-07-13,0.06,0.06,0.06,0.06,000,0.06
2015-07-10,0.06,0.06,0.06,0.06,000,0.06
2015-07-09,0.06,0.06,0.06,0.06,46000,0.06
2015-07-08,0.07,0.07,0.07,0.07,000,0.07
2015-07-07,0.07,0.07,0.07,0.07,000,0.07
2015-07-06,0.07,0.07,0.069,0.07,132700,0.07
2015-07-03,0.065,0.065,0.065,0.065,000,0.065
2015-07-02,0.065,0.065,0.065,0.065,14000,0.065
2015-07-01,0.067,0.07,0.067,0.07,147800,0.07
2015-06-30,0.064,0.064,0.064,0.064,000,0.064
2015-06-29,0.062,0.069,0.062,0.064,486300,0.064
2015-06-26,0.06,0.062,0.06,0.062,13500,0.062
2015-06-25,0.064,0.064,0.064,0.064,23100,0.064
2015-06-24,0.064,0.064,0.064,0.064,20000,0.064
2015-06-23,0.058,0.064,0.058,0.064,43800,0.064
2015-06-22,0.064,0.064,0.064,0.064,000,0.064
2015-06-19,0.06,0.065,0.06,0.064,379500,0.064
2015-06-18,0.055,0.06,0.055,0.06,415000,0.06
2015-06-17,0.047,0.055,0.047,0.055,180000,0.055
2015-06-16,0.047,0.047,0.047,0.047,30000,0.047
2015-06-15,0.046,0.047,0.046,0.047,20000,0.047
2015-06-12,0.048,0.048,0.048,0.048,6100,0.048
2015-06-11,0.046,0.046,0.046,0.046,25000,0.046
2015-06-10,0.046,0.046,0.046,0.046,000,0.046
2015-06-09,0.046,0.046,0.046,0.046,70000,0.046
2015-06-08,0.045,0.045,0.045,0.045,000,0.045
2015-06-05,0.051,0.051,0.045,0.045,318200,0.045
2015-06-04,0.051,0.051,0.051,0.051,14500,0.051
2015-06-03,0.057,0.057,0.055,0.055,53000,0.055
2015-06-02,0.06,0.06,0.06,0.06,84000,0.06
2015-06-01,0.06,0.06,0.06,0.06,5000,0.06
2015-05-29,0.06,0.06,0.06,0.06,000,0.06
2015-05-28,0.06,0.06,0.06,0.06,000,0.06
2015-05-27,0.061,0.061,0.06,0.06,220000,0.06
2015-05-26,0.06,0.06,0.06,0.06,17000,0.06
2015-05-25,0.06,0.062,0.06,0.062,70400,0.062
2015-05-22,0.063,0.063,0.063,0.063,100000,0.063
2015-05-21,0.05,0.05,0.05,0.05,000,0.05
2015-05-20,0.052,0.052,0.05,0.05,279700,0.05
2015-05-19,0.052,0.052,0.052,0.052,50000,0.052
2015-05-18,0.051,0.051,0.051,0.051,000,0.051
2015-05-15,0.051,0.051,0.051,0.051,000,0.051
2015-05-14,0.051,0.051,0.051,0.051,000,0.051
2015-05-13,0.051,0.051,0.051,0.051,000,0.051
2015-05-12,0.055,0.055,0.051,0.051,95400,0.051
2015-05-11,0.055,0.055,0.055,0.055,29500,0.055
2015-05-08,0.051,0.051,0.051,0.051,000,0.051
2015-05-07,0.051,0.051,0.051,0.051,500,0.051
2015-05-06,0.051,0.051,0.051,0.051,12000,0.051
2015-05-05,0.052,0.052,0.052,0.052,000,0.052
2015-05-04,0.052,0.052,0.052,0.052,000,0.052
2015-05-01,0.052,0.053,0.05,0.052,415600,0.052
2015-04-30,0.06,0.06,0.06,0.06,000,0.06
2015-04-29,0.06,0.06,0.06,0.06,18500,0.06
2015-04-28,0.06,0.06,0.06,0.06,10000,0.06
2015-04-27,0.06,0.06,0.06,0.06,000,0.06
2015-04-24,0.06,0.06,0.06,0.06,000,0.06
2015-04-23,0.06,0.06,0.06,0.06,000,0.06
2015-04-22,0.06,0.06,0.06,0.06,1500,0.06
2015-04-21,0.06,0.06,0.06,0.06,5000,0.06
2015-04-20,0.058,0.06,0.058,0.06,200000,0.06
2015-04-17,0.06,0.06,0.06,0.06,000,0.06
2015-04-16,0.06,0.06,0.06,0.06,000,0.06
2015-04-15,0.064,0.064,0.06,0.06,165400,0.06
2015-04-14,0.065,0.065,0.065,0.065,10100,0.065
2015-04-13,0.07,0.07,0.07,0.07,15000,0.07
2015-04-10,0.07,0.07,0.07,0.07,1300,0.07
2015-04-09,0.07,0.07,0.07,0.07,20000,0.07
2015-04-08,0.07,0.07,0.069,0.069,50000,0.069
2015-04-07,0.069,0.069,0.069,0.069,58600,0.069
2015-04-06,0.069,0.069,0.069,0.069,000,0.069
2015-04-03,0.069,0.069,0.069,0.069,000,0.069
2015-04-02,0.069,0.069,0.069,0.069,000,0.069
2015-04-01,0.069,0.069,0.069,0.069,000,0.069
2015-03-31,0.069,0.069,0.069,0.069,17300,0.069
2015-03-30,0.065,0.065,0.059,0.059,86600,0.059
2015-03-27,0.067,0.067,0.067,0.067,000,0.067
2015-03-26,0.065,0.067,0.065,0.067,50000,0.067
2015-03-25,0.065,0.07,0.065,0.065,176800,0.065
2015-03-24,0.07,0.07,0.07,0.07,000,0.07
2015-03-23,0.07,0.07,0.07,0.07,125000,0.07
2015-03-20,0.065,0.065,0.065,0.065,23100,0.065
2015-03-19,0.065,0.065,0.065,0.065,000,0.065
2015-03-18,0.065,0.065,0.065,0.065,100000,0.065
2015-03-17,0.07,0.07,0.07,0.07,10000,0.07
2015-03-16,0.07,0.07,0.07,0.07,111000,0.07
2015-03-13,0.07,0.07,0.07,0.07,85900,0.07
2015-03-12,0.07,0.07,0.07,0.07,000,0.07
2015-03-11,0.07,0.07,0.07,0.07,000,0.07
2015-03-10,0.07,0.07,0.07,0.07,000,0.07
2015-03-09,0.07,0.07,0.07,0.07,39000,0.07
2015-03-06,0.065,0.065,0.065,0.065,000,0.065
2015-03-05,0.065,0.065,0.065,0.065,000,0.065
2015-03-04,0.071,0.071,0.065,0.065,131700,0.065
2015-03-03,0.07,0.07,0.07,0.07,97500,0.07
2015-03-02,0.065,0.065,0.065,0.065,3000,0.065
2015-02-27,0.07,0.07,0.07,0.07,000,0.07
2015-02-26,0.07,0.07,0.07,0.07,000,0.07
2015-02-25,0.07,0.07,0.07,0.07,000,0.07
2015-02-24,0.07,0.07,0.07,0.07,000,0.07
2015-02-23,0.075,0.075,0.07,0.07,14000,0.07
2015-02-20,0.07,0.071,0.07,0.07,64400,0.07
2015-02-19,0.06,0.062,0.06,0.062,86000,0.062
2015-02-18,0.062,0.062,0.062,0.062,000,0.062
2015-02-17,0.062,0.062,0.062,0.062,000,0.062
2015-02-16,0.062,0.062,0.062,0.062,82900,0.062
2015-02-13,0.062,0.062,0.062,0.062,9600,0.062
2015-02-12,0.062,0.062,0.062,0.062,84000,0.062
2015-02-11,0.065,0.065,0.065,0.065,330000,0.065
2015-02-10,0.063,0.063,0.063,0.063,000,0.063
2015-02-09,0.063,0.063,0.063,0.063,000,0.063
2015-02-06,0.063,0.063,0.063,0.063,000,0.063
2015-02-05,0.063,0.063,0.063,0.063,27100,0.063
2015-02-04,0.068,0.068,0.061,0.061,8000,0.061
2015-02-03,0.068,0.068,0.068,0.068,000,0.068
2015-02-02,0.068,0.068,0.068,0.068,000,0.068
2015-01-30,0.068,0.068,0.068,0.068,000,0.068
2015-01-29,0.068,0.068,0.068,0.068,131000,0.068
2015-01-28,0.08,0.08,0.068,0.068,200000,0.068
2015-01-27,0.08,0.08,0.08,0.08,10000,0.08
2015-01-26,0.08,0.08,0.08,0.08,000,0.08
2015-01-23,0.08,0.08,0.08,0.08,000,0.08
2015-01-22,0.08,0.08,0.08,0.08,250000,0.08
2015-01-21,0.076,0.076,0.076,0.076,000,0.076
2015-01-20,0.076,0.076,0.076,0.076,10000,0.076
2015-01-19,0.074,0.074,0.07,0.07,89900,0.07
2015-01-16,0.07,0.07,0.07,0.07,000,0.07
2015-01-15,0.07,0.07,0.07,0.07,000,0.07
2015-01-14,0.07,0.07,0.07,0.07,32000,0.07
2015-01-13,0.07,0.07,0.07,0.07,000,0.07
2015-01-12,0.07,0.07,0.07,0.07,000,0.07
2015-01-09,0.07,0.07,0.07,0.07,49000,0.07
2015-01-08,0.07,0.07,0.07,0.07,53600,0.07
2015-01-07,0.07,0.075,0.07,0.075,21400,0.075
2015-01-06,0.085,0.085,0.085,0.085,000,0.085
2015-01-05,0.088,0.088,0.085,0.085,35800,0.085
2015-01-02,0.088,0.088,0.088,0.088,000,0.088
2015-01-01,0.088,0.088,0.088,0.088,000,0.088
2014-12-31,0.088,0.088,0.088,0.088,000,0.088
2014-12-30,0.088,0.088,0.088,0.088,000,0.088
2014-12-29,0.088,0.088,0.088,0.088,11900,0.088
2014-12-26,0.085,0.085,0.085,0.085,000,0.085
2014-12-25,0.085,0.085,0.085,0.085,000,0.085
2014-12-24,0.085,0.085,0.085,0.085,000,0.085
2014-12-23,0.085,0.085,0.085,0.085,1700,0.085
2014-12-22,0.08,0.085,0.08,0.085,50000,0.085
2014-12-19,0.085,0.085,0.085,0.085,000,0.085
2014-12-18,0.085,0.085,0.085,0.085,18200,0.085
2014-12-17,0.078,0.078,0.078,0.078,000,0.078
2014-12-16,0.078,0.078,0.078,0.078,62000,0.078
2014-12-15,0.076,0.076,0.07,0.07,260000,0.07
2014-12-12,0.08,0.085,0.075,0.085,682300,0.085
2014-12-11,0.087,0.087,0.085,0.085,11100,0.085
2014-12-10,0.088,0.088,0.088,0.088,55000,0.088
2014-12-09,0.09,0.09,0.089,0.089,165000,0.089
2014-12-08,0.094,0.094,0.094,0.094,000,0.094
2014-12-05,0.094,0.094,0.094,0.094,000,0.094
2014-12-04,0.094,0.094,0.094,0.094,000,0.094
2014-12-03,0.094,0.094,0.094,0.094,000,0.094
2014-12-02,0.094,0.094,0.094,0.094,000,0.094
2014-12-01,0.094,0.094,0.094,0.094,000,0.094
2014-11-28,0.094,0.094,0.094,0.094,000,0.094
2014-11-27,0.094,0.094,0.094,0.094,3900,0.094
2014-11-26,0.099,0.099,0.099,0.099,5200,0.099
2014-11-25,0.098,0.098,0.098,0.098,13900,0.098
2014-11-24,0.098,0.098,0.098,0.098,6000,0.098
2014-11-21,0.10,0.10,0.10,0.10,000,0.10
2014-11-20,0.10,0.10,0.10,0.10,000,0.10
2014-11-19,0.10,0.10,0.10,0.10,000,0.10
2014-11-18,0.10,0.10,0.10,0.10,000,0.10
2014-11-17,0.10,0.10,0.10,0.10,190000,0.10
2014-11-14,0.10,0.105,0.097,0.10,477800,0.10
2014-11-13,0.085,0.105,0.085,0.10,805000,0.10
2014-11-12,0.072,0.072,0.072,0.072,240000,0.072
2014-11-11,0.088,0.088,0.088,0.088,000,0.088
2014-11-10,0.088,0.088,0.088,0.088,000,0.088
2014-11-07,0.088,0.088,0.088,0.088,000,0.088
2014-11-06,0.088,0.088,0.088,0.088,000,0.088
2014-11-05,0.088,0.088,0.088,0.088,000,0.088
2014-11-04,0.088,0.088,0.088,0.088,171200,0.088
2014-11-03,0.08,0.08,0.08,0.08,134300,0.08
2014-10-31,0.08,0.08,0.08,0.08,000,0.08
2014-10-30,0.08,0.08,0.08,0.08,9100,0.08
2014-10-29,0.08,0.08,0.08,0.08,000,0.08
2014-10-28,0.08,0.08,0.08,0.08,000,0.08
2014-10-27,0.081,0.081,0.08,0.08,9900,0.08
2014-10-24,0.08,0.083,0.08,0.08,63500,0.08
2014-10-23,0.072,0.072,0.072,0.072,9900,0.072
2014-10-22,0.07,0.07,0.07,0.07,10000,0.07
2014-10-21,0.071,0.071,0.07,0.07,368900,0.07
2014-10-20,0.077,0.077,0.077,0.077,21500,0.077
2014-10-17,0.077,0.077,0.077,0.077,000,0.077
2014-10-16,0.077,0.077,0.077,0.077,000,0.077
2014-10-15,0.077,0.077,0.077,0.077,000,0.077
2014-10-14,0.077,0.077,0.077,0.077,000,0.077
2014-10-13,0.077,0.077,0.077,0.077,000,0.077
2014-10-10,0.077,0.077,0.077,0.077,000,0.077
2014-10-09,0.078,0.078,0.077,0.077,289000,0.077
2014-10-08,0.081,0.081,0.081,0.081,000,0.081
2014-10-07,0.081,0.081,0.081,0.081,100000,0.081
2014-10-06,0.077,0.077,0.077,0.077,000,0.077
2014-10-03,0.076,0.077,0.076,0.077,33400,0.077
2014-10-02,0.076,0.076,0.076,0.076,6500,0.076
2014-10-01,0.077,0.077,0.077,0.077,300000,0.077
2014-09-30,0.083,0.083,0.077,0.077,115200,0.077
2014-09-29,0.083,0.083,0.083,0.083,000,0.083
2014-09-26,0.083,0.083,0.083,0.083,000,0.083
2014-09-25,0.08,0.083,0.08,0.083,126000,0.083
2014-09-24,0.076,0.076,0.076,0.076,000,0.076
2014-09-23,0.076,0.076,0.076,0.076,000,0.076
2014-09-22,0.076,0.076,0.076,0.076,106000,0.076
2014-09-19,0.07,0.07,0.07,0.07,000,0.07
2014-09-18,0.076,0.076,0.07,0.07,58000,0.07
2014-09-17,0.083,0.083,0.078,0.078,378200,0.078
2014-09-16,0.09,0.098,0.09,0.091,847000,0.091
2014-09-15,0.085,0.085,0.083,0.083,49500,0.083
2014-09-12,0.088,0.088,0.088,0.088,10000,0.088
2014-09-11,0.088,0.09,0.088,0.088,165000,0.088
2014-09-10,0.087,0.087,0.086,0.086,26900,0.086
2014-09-09,0.088,0.088,0.088,0.088,21000,0.088
2014-09-08,0.088,0.088,0.088,0.088,256900,0.088
2014-09-05,0.088,0.088,0.087,0.087,29600,0.087
2014-09-04,0.087,0.088,0.087,0.088,14000,0.088
2014-09-03,0.088,0.088,0.088,0.088,298200,0.088
2014-09-02,0.088,0.088,0.088,0.088,000,0.088
2014-09-01,0.088,0.088,0.088,0.088,49700,0.088
2014-08-29,0.088,0.088,0.088,0.088,000,0.088
2014-08-28,0.088,0.088,0.088,0.088,100000,0.088
2014-08-27,0.088,0.088,0.088,0.088,000,0.088
2014-08-26,0.088,0.088,0.088,0.088,000,0.088
2014-08-25,0.088,0.088,0.088,0.088,50200,0.088
2014-08-22,0.095,0.095,0.088,0.088,1074000,0.088
2014-08-21,0.099,0.099,0.099,0.099,000,0.099
2014-08-20,0.099,0.099,0.099,0.099,100,0.099
2014-08-19,0.093,0.095,0.093,0.095,16300,0.095
2014-08-18,0.10,0.10,0.096,0.096,83600,0.096
2014-08-15,0.096,0.10,0.096,0.10,486300,0.10
2014-08-14,0.092,0.092,0.092,0.092,31000,0.092
2014-08-13,0.087,0.087,0.086,0.086,274000,0.086
2014-08-12,0.086,0.086,0.086,0.086,22700,0.086
2014-08-11,0.086,0.086,0.086,0.086,148000,0.086
2014-08-08,0.09,0.09,0.09,0.09,000,0.09
2014-08-07,0.09,0.09,0.09,0.09,000,0.09
2014-08-06,0.09,0.09,0.09,0.09,000,0.09
2014-08-05,0.087,0.09,0.087,0.09,127500,0.09
2014-08-04,0.09,0.09,0.09,0.09,000,0.09
2014-08-01,0.09,0.09,0.09,0.09,000,0.09
2014-07-31,0.086,0.09,0.086,0.09,34600,0.09
2014-07-30,0.083,0.086,0.082,0.082,601500,0.082
2014-07-29,0.086,0.086,0.086,0.086,38000,0.086
2014-07-28,0.09,0.09,0.086,0.086,120700,0.086
2014-07-25,0.095,0.095,0.095,0.095,37500,0.095
2014-07-24,0.095,0.095,0.095,0.095,000,0.095
2014-07-23,0.095,0.095,0.095,0.095,000,0.095
2014-07-22,0.095,0.095,0.095,0.095,115900,0.095
2014-07-21,0.093,0.095,0.093,0.095,115000,0.095
2014-07-18,0.093,0.093,0.093,0.093,92000,0.093
2014-07-17,0.10,0.105,0.093,0.093,190000,0.093
2014-07-16,0.085,0.105,0.085,0.10,800000,0.10
2014-07-15,0.075,0.075,0.075,0.075,000,0.075
2014-07-14,0.08,0.08,0.075,0.075,12000,0.075
2014-07-11,0.081,0.081,0.081,0.081,000,0.081
2014-07-10,0.081,0.081,0.081,0.081,000,0.081
2014-07-09,0.081,0.081,0.081,0.081,000,0.081
2014-07-08,0.081,0.081,0.081,0.081,000,0.081
2014-07-07,0.081,0.081,0.081,0.081,000,0.081
2014-07-04,0.082,0.082,0.081,0.081,100000,0.081
2014-07-03,0.082,0.082,0.081,0.081,23900,0.081
2014-07-02,0.082,0.082,0.082,0.082,000,0.082
2014-07-01,0.082,0.082,0.082,0.082,000,0.082
2014-06-30,0.085,0.085,0.082,0.082,200000,0.082
2014-06-27,0.083,0.083,0.083,0.083,70500,0.083
2014-06-26,0.081,0.081,0.081,0.081,000,0.081
2014-06-25,0.087,0.087,0.081,0.081,542200,0.081
2014-06-24,0.083,0.09,0.083,0.09,500000,0.09
2014-06-23,0.083,0.083,0.081,0.081,896000,0.081
2014-06-20,0.081,0.081,0.08,0.08,740900,0.08
2014-06-19,0.084,0.084,0.08,0.08,190700,0.08
2014-06-18,0.08,0.08,0.08,0.08,000,0.08
2014-06-17,0.081,0.081,0.08,0.08,673000,0.08
2014-06-16,0.075,0.084,0.075,0.08,1177400,0.08
2014-06-13,0.075,0.075,0.072,0.072,40000,0.072
2014-06-12,0.075,0.075,0.07,0.07,52200,0.07
2014-06-11,0.072,0.075,0.07,0.075,210600,0.075
2014-06-10,0.08,0.08,0.073,0.073,109500,0.073
2014-06-09,0.08,0.08,0.08,0.08,000,0.08
2014-06-06,0.08,0.08,0.08,0.08,870000,0.08
2014-06-05,0.075,0.08,0.075,0.078,2030500,0.078
2014-06-04,0.07,0.07,0.07,0.07,000,0.07
2014-06-03,0.07,0.07,0.07,0.07,10000,0.07
2014-06-02,0.078,0.078,0.078,0.078,000,0.078
2014-05-30,0.078,0.078,0.078,0.078,10000,0.078
2014-05-29,0.076,0.08,0.076,0.08,42800,0.08
2014-05-28,0.076,0.076,0.076,0.076,6800,0.076
2014-05-27,0.076,0.076,0.076,0.076,000,0.076
2014-05-26,0.076,0.076,0.076,0.076,000,0.076
2014-05-23,0.076,0.076,0.076,0.076,83100,0.076
2014-05-22,0.076,0.076,0.076,0.076,16800,0.076
2014-05-21,0.084,0.084,0.084,0.084,13000,0.084
2014-05-20,0.084,0.084,0.084,0.084,000,0.084
2014-05-19,0.084,0.084,0.084,0.084,000,0.084
2014-05-16,0.084,0.084,0.084,0.084,000,0.084
2014-05-15,0.084,0.084,0.084,0.084,000,0.084
2014-05-14,0.08,0.084,0.076,0.084,239100,0.084
2014-05-13,0.076,0.076,0.076,0.076,5000,0.076
2014-05-12,0.076,0.08,0.076,0.08,32700,0.08
2014-05-09,0.083,0.083,0.083,0.083,4500,0.083
2014-05-08,0.085,0.085,0.085,0.085,20000,0.085
2014-05-07,0.085,0.085,0.085,0.085,51300,0.085
2014-05-06,0.085,0.085,0.085,0.085,000,0.085
2014-05-05,0.085,0.085,0.085,0.085,278900,0.085
2014-05-02,0.086,0.086,0.084,0.084,111000,0.084
2014-05-01,0.086,0.086,0.086,0.086,000,0.086
2014-04-30,0.086,0.086,0.086,0.086,000,0.086
2014-04-29,0.086,0.086,0.086,0.086,000,0.086
2014-04-28,0.086,0.086,0.086,0.086,000,0.086
2014-04-25,0.086,0.086,0.086,0.086,000,0.086
2014-04-24,0.086,0.086,0.086,0.086,104000,0.086
2014-04-23,0.085,0.085,0.085,0.085,8600,0.085
2014-04-22,0.088,0.088,0.088,0.088,000,0.088
2014-04-21,0.088,0.088,0.088,0.088,000,0.088
2014-04-18,0.088,0.088,0.088,0.088,000,0.088
2014-04-17,0.088,0.088,0.088,0.088,000,0.088
2014-04-16,0.088,0.088,0.088,0.088,35000,0.088
2014-04-15,0.084,0.084,0.084,0.084,000,0.084
2014-04-14,0.084,0.084,0.084,0.084,80000,0.084
2014-04-11,0.084,0.084,0.083,0.083,124500,0.083
2014-04-10,0.09,0.09,0.09,0.09,16000,0.09
2014-04-09,0.096,0.096,0.096,0.096,000,0.096
2014-04-08,0.096,0.096,0.096,0.096,000,0.096
2014-04-07,0.096,0.096,0.096,0.096,3500,0.096
2014-04-04,0.09,0.09,0.09,0.09,000,0.09
2014-04-03,0.085,0.09,0.084,0.09,82500,0.09
2014-04-02,0.085,0.085,0.084,0.084,33500,0.084
2014-04-01,0.085,0.085,0.085,0.085,000,0.085
2014-03-31,0.085,0.085,0.085,0.085,15000,0.085
2014-03-28,0.10,0.10,0.10,0.10,6000,0.10
2014-03-27,0.10,0.10,0.10,0.10,20000,0.10
2014-03-26,0.09,0.10,0.09,0.10,80000,0.10
2014-03-25,0.092,0.092,0.092,0.092,000,0.092
2014-03-24,0.092,0.092,0.092,0.092,000,0.092
2014-03-21,0.09,0.092,0.09,0.092,139000,0.092
2014-03-20,0.088,0.088,0.088,0.088,000,0.088
2014-03-19,0.088,0.088,0.088,0.088,000,0.088
2014-03-18,0.088,0.088,0.088,0.088,000,0.088
2014-03-17,0.09,0.09,0.086,0.088,169700,0.088
2014-03-14,0.098,0.098,0.095,0.095,90000,0.095
2014-03-13,0.10,0.10,0.10,0.10,000,0.10
2014-03-12,0.105,0.105,0.10,0.10,142500,0.10
2014-03-11,0.10,0.105,0.10,0.105,368700,0.105
2014-03-10,0.095,0.105,0.095,0.10,289400,0.10
2014-03-07,0.095,0.095,0.095,0.095,34000,0.095
2014-03-06,0.096,0.096,0.096,0.096,000,0.096
2014-03-05,0.096,0.096,0.096,0.096,35300,0.096
2014-03-04,0.095,0.095,0.095,0.095,000,0.095
2014-03-03,0.095,0.095,0.095,0.095,000,0.095
2014-02-28,0.095,0.095,0.095,0.095,000,0.095
2014-02-27,0.095,0.095,0.095,0.095,000,0.095
2014-02-26,0.095,0.095,0.095,0.095,000,0.095
2014-02-25,0.095,0.095,0.095,0.095,12000,0.095
2014-02-24,0.096,0.096,0.095,0.095,17000,0.095
2014-02-21,0.095,0.095,0.095,0.095,170000,0.095
2014-02-20,0.09,0.09,0.09,0.09,38100,0.09
2014-02-19,0.09,0.09,0.09,0.09,000,0.09
2014-02-18,0.09,0.09,0.09,0.09,60600,0.09
2014-02-17,0.097,0.097,0.097,0.097,89300,0.097
2014-02-14,0.097,0.097,0.097,0.097,86800,0.097
2014-02-13,0.097,0.097,0.097,0.097,29000,0.097
2014-02-12,0.09,0.09,0.09,0.09,000,0.09
2014-02-11,0.09,0.09,0.09,0.09,000,0.09
2014-02-10,0.09,0.09,0.09,0.09,000,0.09
2014-02-07,0.095,0.095,0.09,0.09,87700,0.09
2014-02-06,0.095,0.095,0.095,0.095,000,0.095
2014-02-05,0.096,0.096,0.095,0.095,8000,0.095
2014-02-04,0.096,0.096,0.096,0.096,12000,0.096
2014-02-03,0.096,0.096,0.096,0.096,000,0.096
2014-01-31,0.096,0.096,0.096,0.096,000,0.096
2014-01-30,0.10,0.10,0.096,0.096,16700,0.096
2014-01-29,0.098,0.098,0.098,0.098,10000,0.098
2014-01-28,0.099,0.099,0.099,0.099,2000,0.099
2014-01-27,0.10,0.10,0.10,0.10,000,0.10
2014-01-24,0.10,0.10,0.10,0.10,25000,0.10
2014-01-23,0.099,0.11,0.099,0.10,216000,0.10
2014-01-22,0.095,0.095,0.095,0.095,000,0.095
2014-01-21,0.098,0.098,0.095,0.095,100000,0.095
2014-01-20,0.098,0.098,0.098,0.098,000,0.098
2014-01-17,0.098,0.098,0.098,0.098,86000,0.098
2014-01-16,0.099,0.099,0.099,0.099,65000,0.099
2014-01-15,0.097,0.099,0.097,0.099,55000,0.099
2014-01-14,0.095,0.095,0.095,0.095,000,0.095
2014-01-13,0.095,0.095,0.095,0.095,000,0.095
2014-01-10,0.095,0.095,0.095,0.095,000,0.095
2014-01-09,0.095,0.095,0.095,0.095,4300,0.095
2014-01-08,0.096,0.096,0.096,0.096,25000,0.096
2014-01-07,0.096,0.096,0.096,0.096,000,0.096
2014-01-06,0.096,0.096,0.096,0.096,2000,0.096
2014-01-03,0.098,0.098,0.098,0.098,000,0.098
2014-01-02,0.098,0.098,0.098,0.098,000,0.098
2014-01-01,0.098,0.098,0.098,0.098,000,0.098
2013-12-31,0.098,0.098,0.098,0.098,000,0.098
2013-12-30,0.098,0.098,0.098,0.098,30000,0.098
2013-12-27,0.095,0.095,0.095,0.095,000,0.095
2013-12-26,0.095,0.095,0.095,0.095,000,0.095
2013-12-25,0.095,0.095,0.095,0.095,000,0.095
2013-12-24,0.095,0.095,0.095,0.095,000,0.095
2013-12-23,0.095,0.095,0.095,0.095,000,0.095
2013-12-20,0.095,0.095,0.095,0.095,000,0.095
2013-12-19,0.099,0.099,0.095,0.095,303800,0.095
2013-12-18,0.10,0.10,0.099,0.099,30100,0.099
2013-12-17,0.10,0.10,0.10,0.10,300000,0.10
2013-12-16,0.105,0.105,0.10,0.10,14500,0.10
2013-12-13,0.105,0.105,0.105,0.105,100000,0.105
2013-12-12,0.105,0.105,0.105,0.105,000,0.105
2013-12-11,0.105,0.105,0.105,0.105,000,0.105
2013-12-10,0.105,0.105,0.105,0.105,10000,0.105
2013-12-09,0.105,0.105,0.105,0.105,505000,0.105
2013-12-06,0.105,0.105,0.105,0.105,53000,0.105
2013-12-05,0.10,0.10,0.10,0.10,000,0.10
2013-12-04,0.11,0.11,0.10,0.10,678300,0.10
2013-12-03,0.10,0.105,0.10,0.105,30000,0.105
2013-12-02,0.10,0.10,0.099,0.10,260000,0.10
2013-11-29,0.10,0.10,0.10,0.10,162900,0.10
2013-11-28,0.095,0.10,0.095,0.10,410100,0.10
2013-11-27,0.10,0.10,0.10,0.10,240000,0.10
2013-11-26,0.093,0.095,0.092,0.095,315600,0.095
2013-11-25,0.092,0.092,0.092,0.092,000,0.092
2013-11-22,0.092,0.092,0.092,0.092,000,0.092
2013-11-21,0.092,0.092,0.092,0.092,100000,0.092
2013-11-20,0.095,0.095,0.095,0.095,000,0.095
2013-11-19,0.096,0.10,0.095,0.095,18000,0.095
2013-11-18,0.10,0.10,0.095,0.095,149500,0.095
2013-11-15,0.099,0.099,0.099,0.099,125000,0.099
2013-11-14,0.095,0.095,0.095,0.095,000,0.095
2013-11-13,0.095,0.095,0.095,0.095,000,0.095
2013-11-12,0.095,0.095,0.095,0.095,219500,0.095
2013-11-11,0.096,0.096,0.096,0.096,000,0.096
2013-11-08,0.096,0.096,0.096,0.096,83000,0.096
2013-11-07,0.10,0.10,0.095,0.095,50000,0.095
2013-11-06,0.10,0.10,0.10,0.10,7300,0.10
2013-11-05,0.095,0.095,0.095,0.095,000,0.095
2013-11-04,0.095,0.095,0.095,0.095,8000,0.095
2013-11-01,0.095,0.095,0.095,0.095,000,0.095
2013-10-31,0.11,0.11,0.095,0.095,147000,0.095
2013-10-30,0.085,0.105,0.085,0.105,275000,0.105
2013-10-29,0.082,0.082,0.082,0.082,000,0.082
2013-10-28,0.10,0.10,0.082,0.082,81300,0.082
2013-10-25,0.105,0.105,0.095,0.095,541600,0.095
2013-10-24,0.105,0.11,0.10,0.10,220000,0.10
2013-10-23,0.11,0.11,0.105,0.11,259000,0.11
2013-10-22,0.12,0.12,0.12,0.12,000,0.12
2013-10-21,0.12,0.12,0.12,0.12,150000,0.12
2013-10-18,0.115,0.115,0.105,0.105,96400,0.105
2013-10-17,0.11,0.11,0.105,0.11,158000,0.11
2013-10-16,0.105,0.115,0.105,0.115,205000,0.115
2013-10-15,0.10,0.105,0.10,0.105,133200,0.105
2013-10-14,0.10,0.10,0.10,0.10,000,0.10
2013-10-11,0.095,0.10,0.095,0.10,177900,0.10
2013-10-10,0.10,0.10,0.10,0.10,83300,0.10
2013-10-09,0.10,0.10,0.10,0.10,23000,0.10
2013-10-08,0.10,0.10,0.095,0.095,295700,0.095
2013-10-07,0.10,0.10,0.095,0.095,20000,0.095
2013-10-04,0.09,0.09,0.09,0.09,000,0.09
2013-10-03,0.09,0.09,0.09,0.09,000,0.09
2013-10-02,0.09,0.09,0.09,0.09,000,0.09
2013-10-01,0.095,0.095,0.09,0.09,60000,0.09
2013-09-30,0.095,0.095,0.095,0.095,10000,0.095
2013-09-27,0.10,0.10,0.095,0.095,273000,0.095
2013-09-26,0.105,0.105,0.105,0.105,000,0.105
2013-09-25,0.105,0.105,0.105,0.105,000,0.105
2013-09-24,0.105,0.105,0.105,0.105,000,0.105
2013-09-23,0.105,0.105,0.105,0.105,10000,0.105
2013-09-20,0.105,0.105,0.105,0.105,80700,0.105
2013-09-19,0.105,0.105,0.105,0.105,99000,0.105
2013-09-18,0.105,0.105,0.105,0.105,000,0.105
2013-09-17,0.105,0.105,0.105,0.105,000,0.105
2013-09-16,0.105,0.105,0.105,0.105,5500,0.105
2013-09-13,0.10,0.11,0.10,0.11,2396000,0.11
2013-09-12,0.105,0.105,0.105,0.105,000,0.105
2013-09-11,0.105,0.105,0.105,0.105,10700,0.105
2013-09-10,0.10,0.10,0.10,0.10,100000,0.10
2013-09-09,0.10,0.10,0.10,0.10,60000,0.10
2013-09-06,0.10,0.10,0.10,0.10,500000,0.10
2013-09-05,0.10,0.10,0.10,0.10,5000,0.10
2013-09-04,0.10,0.10,0.10,0.10,000,0.10
2013-09-03,0.10,0.105,0.10,0.10,143000,0.10
2013-09-02,0.10,0.105,0.10,0.105,20000,0.105
2013-08-30,0.10,0.105,0.10,0.105,11200,0.105
2013-08-29,0.10,0.10,0.10,0.10,10000,0.10
2013-08-28,0.10,0.10,0.10,0.10,11000,0.10
2013-08-27,0.10,0.10,0.10,0.10,1472700,0.10
2013-08-26,0.115,0.115,0.10,0.10,97000,0.10
2013-08-23,0.10,0.10,0.096,0.096,15900,0.096
2013-08-22,0.096,0.096,0.096,0.096,000,0.096
2013-08-21,0.105,0.105,0.096,0.096,191400,0.096
2013-08-20,0.105,0.105,0.105,0.105,95900,0.105
2013-08-19,0.105,0.11,0.105,0.11,270000,0.11
2013-08-16,0.105,0.105,0.105,0.105,40000,0.105
2013-08-15,0.10,0.10,0.10,0.10,3500,0.10
2013-08-14,0.105,0.105,0.10,0.10,153800,0.10
2013-08-13,0.11,0.11,0.105,0.105,127100,0.105
2013-08-12,0.115,0.115,0.115,0.115,12900,0.115
2013-08-09,0.115,0.115,0.115,0.115,17200,0.115
2013-08-08,0.105,0.115,0.10,0.105,212600,0.105
2013-08-07,0.125,0.125,0.115,0.115,208000,0.115
2013-08-06,0.115,0.13,0.115,0.125,474600,0.125
2013-08-05,0.11,0.11,0.11,0.11,42100,0.11
2013-08-02,0.10,0.10,0.10,0.10,000,0.10
2013-08-01,0.096,0.10,0.096,0.10,137500,0.10
2013-07-31,0.094,0.095,0.094,0.095,29000,0.095
2013-07-30,0.09,0.094,0.09,0.094,284000,0.094
2013-07-29,0.086,0.086,0.085,0.085,30900,0.085
2013-07-26,0.085,0.085,0.085,0.085,000,0.085
2013-07-25,0.086,0.086,0.085,0.085,75000,0.085
2013-07-24,0.08,0.08,0.08,0.08,000,0.08
2013-07-23,0.08,0.08,0.08,0.08,000,0.08
2013-07-22,0.08,0.08,0.08,0.08,100000,0.08
2013-07-19,0.09,0.09,0.09,0.09,000,0.09
2013-07-18,0.079,0.09,0.079,0.09,50000,0.09
2013-07-17,0.08,0.08,0.079,0.079,18300,0.079
2013-07-16,0.079,0.079,0.079,0.079,000,0.079
2013-07-15,0.085,0.085,0.075,0.079,160000,0.079
2013-07-12,0.08,0.08,0.08,0.08,000,0.08
2013-07-11,0.08,0.08,0.08,0.08,2200,0.08
2013-07-10,0.085,0.085,0.085,0.085,56400,0.085
2013-07-09,0.085,0.085,0.085,0.085,100,0.085
2013-07-08,0.085,0.085,0.085,0.085,29800,0.085
2013-07-05,0.085,0.085,0.085,0.085,5100,0.085
2013-07-04,0.085,0.085,0.085,0.085,20000,0.085
2013-07-03,0.085,0.085,0.085,0.085,64800,0.085
2013-07-02,0.082,0.085,0.082,0.085,44000,0.085
2013-07-01,0.082,0.082,0.082,0.082,6500,0.082
2013-06-28,0.08,0.08,0.08,0.08,46400,0.08
2013-06-27,0.08,0.09,0.08,0.085,40400,0.085
2013-06-26,0.08,0.08,0.08,0.08,119000,0.08
2013-06-25,0.095,0.095,0.08,0.08,621300,0.08
2013-06-24,0.10,0.10,0.095,0.095,142900,0.095
2013-06-21,0.105,0.105,0.10,0.105,350000,0.105
2013-06-20,0.115,0.115,0.11,0.11,24600,0.11
2013-06-19,0.115,0.115,0.115,0.115,26200,0.115
2013-06-18,0.11,0.115,0.11,0.115,134000,0.115
2013-06-17,0.105,0.105,0.105,0.105,120000,0.105
2013-06-14,0.11,0.11,0.105,0.11,57000,0.11
2013-06-13,0.11,0.11,0.11,0.11,100000,0.11
2013-06-12,0.115,0.115,0.11,0.11,10000,0.11
2013-06-11,0.115,0.115,0.115,0.115,5000,0.115
2013-06-10,0.11,0.11,0.11,0.11,000,0.11
2013-06-07,0.11,0.11,0.11,0.11,100000,0.11
2013-06-06,0.115,0.115,0.115,0.115,50000,0.115
2013-06-05,0.105,0.105,0.105,0.105,000,0.105
2013-06-04,0.115,0.12,0.105,0.105,114600,0.105
2013-06-03,0.10,0.105,0.10,0.105,230600,0.105
2013-05-31,0.10,0.10,0.10,0.10,236800,0.10
2013-05-30,0.105,0.105,0.105,0.105,000,0.105
2013-05-29,0.105,0.105,0.105,0.105,99000,0.105
2013-05-28,0.11,0.11,0.10,0.10,9200,0.10
2013-05-27,0.11,0.11,0.11,0.11,164600,0.11
2013-05-24,0.115,0.115,0.105,0.11,211300,0.11
2013-05-23,0.11,0.11,0.105,0.105,195000,0.105
2013-05-22,0.12,0.12,0.11,0.115,824100,0.115
2013-05-21,0.105,0.135,0.105,0.12,1250200,0.12
2013-05-20,0.105,0.125,0.105,0.11,258400,0.11
2013-05-17,0.10,0.10,0.10,0.10,000,0.10
2013-05-16,0.105,0.11,0.10,0.10,284600,0.10
2013-05-15,0.10,0.105,0.10,0.105,67600,0.105
2013-05-14,0.10,0.10,0.10,0.10,150000,0.10
2013-05-13,0.11,0.11,0.10,0.10,249400,0.10
2013-05-10,0.10,0.12,0.10,0.12,40000,0.12
2013-05-09,0.11,0.11,0.099,0.099,432900,0.099
2013-05-08,0.125,0.125,0.105,0.11,255000,0.11
2013-05-07,0.13,0.135,0.12,0.12,415700,0.12
2013-05-06,0.145,0.145,0.145,0.145,000,0.145
2013-05-03,0.155,0.155,0.14,0.145,413600,0.145
2013-05-02,0.14,0.15,0.14,0.15,893000,0.15
2013-05-01,0.14,0.15,0.13,0.14,1412600,0.14
2013-04-30,0.15,0.15,0.12,0.12,2267000,0.12
2013-04-29,0.125,0.18,0.125,0.145,2303000,0.145
2013-04-26,0.10,0.10,0.10,0.10,000,0.10
2013-04-25,0.10,0.10,0.10,0.10,000,0.10
2013-04-24,0.10,0.10,0.10,0.10,375000,0.10
2013-04-23,0.10,0.10,0.10,0.10,25000,0.10
2013-04-22,0.10,0.11,0.10,0.11,150000,0.11
2013-04-19,0.09,0.09,0.09,0.09,13500,0.09
2013-04-18,0.09,0.09,0.09,0.09,000,0.09
2013-04-17,0.09,0.09,0.09,0.09,96400,0.09
2013-04-16,0.10,0.10,0.10,0.10,000,0.10
2013-04-15,0.10,0.10,0.10,0.10,100000,0.10
2013-04-12,0.10,0.10,0.09,0.09,77400,0.09
2013-04-11,0.105,0.105,0.105,0.105,000,0.105
2013-04-10,0.105,0.105,0.105,0.105,8500,0.105
2013-04-09,0.105,0.105,0.105,0.105,000,0.105
2013-04-08,0.105,0.105,0.105,0.105,000,0.105
2013-04-05,0.105,0.105,0.105,0.105,000,0.105
2013-04-04,0.105,0.105,0.105,0.105,000,0.105
2013-04-03,0.105,0.105,0.105,0.105,20000,0.105
2013-04-02,0.105,0.105,0.105,0.105,50000,0.105
2013-04-01,0.10,0.10,0.10,0.10,000,0.10
2013-03-29,0.10,0.10,0.10,0.10,000,0.10
2013-03-28,0.10,0.10,0.10,0.10,1100,0.10
2013-03-27,0.11,0.11,0.10,0.10,190000,0.10
2013-03-26,0.105,0.105,0.105,0.105,255000,0.105
2013-03-25,0.105,0.105,0.105,0.105,55600,0.105
2013-03-22,0.097,0.105,0.097,0.105,284800,0.105
2013-03-21,0.09,0.094,0.09,0.094,82300,0.094
2013-03-20,0.085,0.085,0.085,0.085,30400,0.085
2013-03-19,0.085,0.085,0.085,0.085,51000,0.085
2013-03-18,0.085,0.085,0.079,0.08,1677700,0.08
2013-03-15,0.079,0.079,0.079,0.079,000,0.079
2013-03-14,0.079,0.079,0.079,0.079,000,0.079
2013-03-13,0.079,0.079,0.079,0.079,000,0.079
2013-03-12,0.079,0.079,0.079,0.079,10000,0.079
2013-03-11,0.079,0.079,0.079,0.079,000,0.079
2013-03-08,0.079,0.079,0.079,0.079,000,0.079
2013-03-07,0.079,0.079,0.079,0.079,000,0.079
2013-03-06,0.079,0.079,0.079,0.079,000,0.079
2013-03-05,0.079,0.079,0.079,0.079,000,0.079
2013-03-04,0.079,0.079,0.079,0.079,000,0.079
2013-03-01,0.077,0.079,0.077,0.079,57200,0.079
2013-02-28,0.079,0.079,0.079,0.079,77700,0.079
2013-02-27,0.079,0.079,0.079,0.079,000,0.079
2013-02-26,0.073,0.08,0.073,0.079,353600,0.079
2013-02-25,0.067,0.067,0.067,0.067,000,0.067
2013-02-22,0.067,0.067,0.067,0.067,000,0.067
2013-02-21,0.07,0.07,0.067,0.067,60000,0.067
2013-02-20,0.07,0.07,0.07,0.07,46800,0.07
2013-02-19,0.067,0.067,0.067,0.067,31600,0.067
2013-02-18,0.069,0.069,0.069,0.069,000,0.069
2013-02-15,0.069,0.069,0.069,0.069,000,0.069
2013-02-14,0.069,0.069,0.069,0.069,5400,0.069
2013-02-13,0.07,0.07,0.07,0.07,000,0.07
2013-02-12,0.07,0.07,0.07,0.07,000,0.07
2013-02-11,0.07,0.07,0.07,0.07,3100,0.07
2013-02-08,0.07,0.07,0.07,0.07,000,0.07
2013-02-07,0.07,0.07,0.07,0.07,000,0.07
2013-02-06,0.07,0.07,0.07,0.07,000,0.07
2013-02-05,0.07,0.07,0.07,0.07,000,0.07
2013-02-04,0.07,0.07,0.07,0.07,21100,0.07
2013-02-01,0.07,0.07,0.07,0.07,60000,0.07
2013-01-31,0.07,0.07,0.07,0.07,000,0.07
2013-01-30,0.07,0.07,0.07,0.07,000,0.07
2013-01-29,0.07,0.07,0.07,0.07,000,0.07
2013-01-28,0.07,0.07,0.07,0.07,000,0.07
2013-01-25,0.07,0.07,0.07,0.07,000,0.07
2013-01-24,0.07,0.07,0.07,0.07,000,0.07
2013-01-23,0.07,0.07,0.07,0.07,75000,0.07
2013-01-22,0.069,0.069,0.069,0.069,000,0.069
2013-01-21,0.069,0.069,0.069,0.069,000,0.069
2013-01-18,0.069,0.069,0.069,0.069,000,0.069
2013-01-17,0.069,0.069,0.069,0.069,000,0.069
2013-01-16,0.069,0.069,0.069,0.069,000,0.069
2013-01-15,0.071,0.071,0.069,0.069,180000,0.069
2013-01-14,0.071,0.071,0.071,0.071,000,0.071
2013-01-11,0.07,0.071,0.07,0.071,161000,0.071
2013-01-10,0.07,0.07,0.07,0.07,000,0.07
2013-01-09,0.071,0.071,0.07,0.07,44900,0.07
2013-01-08,0.071,0.071,0.071,0.071,000,0.071
2013-01-07,0.071,0.071,0.071,0.071,000,0.071
2013-01-04,0.071,0.071,0.071,0.071,000,0.071
2013-01-03,0.071,0.071,0.071,0.071,000,0.071
2013-01-02,0.071,0.071,0.071,0.071,000,0.071
2013-01-01,0.071,0.071,0.071,0.071,000,0.071
2012-12-31,0.071,0.071,0.071,0.071,000,0.071
2012-12-28,0.071,0.071,0.071,0.071,000,0.071
2012-12-27,0.071,0.071,0.071,0.071,000,0.071
2012-12-26,0.071,0.071,0.071,0.071,000,0.071
2012-12-25,0.071,0.071,0.071,0.071,000,0.071
2012-12-24,0.071,0.071,0.071,0.071,000,0.071
2012-12-21,0.071,0.071,0.071,0.071,25000,0.071
2012-12-20,0.08,0.08,0.08,0.08,000,0.08
2012-12-19,0.08,0.08,0.08,0.08,000,0.08
2012-12-18,0.08,0.08,0.08,0.08,000,0.08
2012-12-17,0.08,0.08,0.08,0.08,000,0.08
2012-12-14,0.08,0.08,0.08,0.08,000,0.08
2012-12-13,0.08,0.08,0.08,0.08,000,0.08
2012-12-12,0.08,0.08,0.08,0.08,000,0.08
2012-12-11,0.08,0.08,0.07,0.08,483400,0.08
2012-12-10,0.078,0.078,0.078,0.078,80000,0.078
2012-12-07,0.07,0.07,0.07,0.07,000,0.07
2012-12-06,0.07,0.07,0.07,0.07,000,0.07
2012-12-05,0.07,0.07,0.07,0.07,000,0.07
2012-12-04,0.07,0.07,0.07,0.07,000,0.07
2012-12-03,0.07,0.07,0.07,0.07,000,0.07
2012-11-30,0.07,0.07,0.07,0.07,000,0.07
2012-11-29,0.07,0.07,0.07,0.07,000,0.07
2012-11-28,0.07,0.07,0.07,0.07,000,0.07
2012-11-27,0.07,0.07,0.07,0.07,000,0.07
2012-11-26,0.07,0.07,0.07,0.07,000,0.07
2012-11-23,0.07,0.07,0.07,0.07,000,0.07
2012-11-22,0.08,0.08,0.07,0.07,85000,0.07
2012-11-21,0.07,0.07,0.07,0.07,7500,0.07
2012-11-20,0.07,0.07,0.07,0.07,45000,0.07
2012-11-19,0.08,0.08,0.08,0.08,000,0.08
2012-11-16,0.08,0.08,0.08,0.08,12000,0.08
2012-11-15,0.08,0.08,0.08,0.08,000,0.08
2012-11-14,0.08,0.08,0.08,0.08,000,0.08
2012-11-13,0.08,0.08,0.08,0.08,000,0.08
2012-11-12,0.08,0.08,0.08,0.08,150000,0.08
2012-11-09,0.08,0.08,0.08,0.08,000,0.08
2012-11-08,0.08,0.08,0.08,0.08,24400,0.08
2012-11-07,0.09,0.09,0.09,0.09,000,0.09
2012-11-06,0.09,0.09,0.09,0.09,000,0.09
2012-11-05,0.09,0.09,0.09,0.09,000,0.09
2012-11-02,0.09,0.09,0.09,0.09,55500,0.09
2012-11-01,0.10,0.10,0.10,0.10,000,0.10
2012-10-31,0.10,0.10,0.10,0.10,000,0.10
2012-10-30,0.10,0.10,0.10,0.10,000,0.10
2012-10-29,0.10,0.10,0.10,0.10,000,0.10
2012-10-26,0.09,0.10,0.09,0.10,174100,0.10
2012-10-25,0.08,0.08,0.08,0.08,000,0.08
2012-10-24,0.08,0.08,0.08,0.08,000,0.08
2012-10-23,0.08,0.08,0.08,0.08,000,0.08
2012-10-22,0.08,0.08,0.08,0.08,15700,0.08
2012-10-19,0.08,0.08,0.08,0.08,22700,0.08
2012-10-18,0.085,0.085,0.085,0.085,000,0.085
2012-10-17,0.085,0.085,0.085,0.085,000,0.085
2012-10-16,0.085,0.085,0.085,0.085,000,0.085
2012-10-15,0.085,0.085,0.085,0.085,000,0.085
2012-10-12,0.085,0.085,0.085,0.085,000,0.085
2012-10-11,0.085,0.085,0.085,0.085,25000,0.085
2012-10-10,0.08,0.08,0.08,0.08,000,0.08
2012-10-09,0.08,0.08,0.08,0.08,000,0.08
2012-10-08,0.08,0.08,0.08,0.08,000,0.08
2012-10-05,0.08,0.08,0.08,0.08,000,0.08
2012-10-04,0.08,0.08,0.08,0.08,000,0.08
2012-10-03,0.08,0.08,0.08,0.08,12000,0.08
2012-10-02,0.071,0.071,0.071,0.071,000,0.071
2012-10-01,0.071,0.071,0.071,0.071,000,0.071
2012-09-28,0.071,0.071,0.071,0.071,000,0.071
2012-09-27,0.071,0.071,0.071,0.071,000,0.071
2012-09-26,0.071,0.071,0.071,0.071,000,0.071
2012-09-25,0.07,0.071,0.07,0.071,52100,0.071
2012-09-24,0.085,0.085,0.085,0.085,000,0.085
2012-09-21,0.085,0.085,0.085,0.085,000,0.085
2012-09-20,0.085,0.085,0.085,0.085,000,0.085
2012-09-19,0.085,0.085,0.085,0.085,000,0.085
2012-09-18,0.085,0.085,0.085,0.085,000,0.085
2012-09-17,0.085,0.085,0.085,0.085,000,0.085
2012-09-14,0.085,0.085,0.085,0.085,000,0.085
2012-09-13,0.085,0.085,0.085,0.085,000,0.085
2012-09-12,0.085,0.085,0.085,0.085,000,0.085
2012-09-11,0.085,0.085,0.085,0.085,000,0.085
2012-09-10,0.085,0.085,0.085,0.085,000,0.085
2012-09-07,0.085,0.085,0.085,0.085,000,0.085
2012-09-06,0.085,0.085,0.085,0.085,000,0.085
2012-09-05,0.085,0.085,0.085,0.085,000,0.085
2012-09-04,0.085,0.085,0.085,0.085,000,0.085
2012-09-03,0.085,0.085,0.085,0.085,000,0.085
2012-08-31,0.085,0.085,0.085,0.085,000,0.085
2012-08-30,0.085,0.085,0.085,0.085,000,0.085
2012-08-29,0.085,0.085,0.085,0.085,000,0.085
2012-08-28,0.085,0.085,0.085,0.085,000,0.085
2012-08-27,0.085,0.085,0.085,0.085,5400,0.085
2012-08-24,0.085,0.085,0.085,0.085,000,0.085
2012-08-23,0.085,0.085,0.085,0.085,000,0.085
2012-08-22,0.085,0.085,0.085,0.085,4300,0.085
2012-08-21,0.09,0.09,0.09,0.09,000,0.09
2012-08-20,0.09,0.09,0.09,0.09,000,0.09
2012-08-17,0.09,0.09,0.09,0.09,5600,0.09
2012-08-16,0.09,0.09,0.09,0.09,000,0.09
2012-08-15,0.09,0.09,0.09,0.09,3000,0.09
2012-08-14,0.085,0.085,0.085,0.085,000,0.085
2012-08-13,0.085,0.085,0.085,0.085,000,0.085
2012-08-10,0.085,0.085,0.085,0.085,000,0.085
2012-08-09,0.085,0.085,0.085,0.085,3000,0.085
2012-08-08,0.09,0.09,0.09,0.09,000,0.09
2012-08-07,0.09,0.09,0.09,0.09,000,0.09
2012-08-06,0.09,0.09,0.09,0.09,100000,0.09
2012-08-03,0.09,0.09,0.09,0.09,000,0.09
2012-08-02,0.09,0.09,0.09,0.09,000,0.09
2012-08-01,0.09,0.09,0.09,0.09,000,0.09
2012-07-31,0.095,0.095,0.09,0.09,15000,0.09
2012-07-30,0.091,0.091,0.091,0.091,000,0.091
2012-07-27,0.091,0.091,0.091,0.091,000,0.091
2012-07-26,0.091,0.091,0.091,0.091,2700,0.091
2012-07-25,0.091,0.091,0.091,0.091,1200,0.091
2012-07-24,0.091,0.091,0.091,0.091,3000,0.091
2012-07-23,0.091,0.091,0.091,0.091,65700,0.091
2012-07-20,0.091,0.091,0.091,0.091,000,0.091
2012-07-19,0.091,0.091,0.091,0.091,000,0.091
2012-07-18,0.091,0.091,0.091,0.091,000,0.091
2012-07-17,0.091,0.091,0.091,0.091,000,0.091
2012-07-16,0.091,0.091,0.091,0.091,000,0.091
2012-07-13,0.091,0.091,0.091,0.091,50000,0.091
2012-07-12,0.10,0.10,0.10,0.10,000,0.10
2012-07-11,0.10,0.10,0.10,0.10,20000,0.10
2012-07-10,0.10,0.10,0.10,0.10,000,0.10
2012-07-09,0.10,0.10,0.10,0.10,000,0.10
2012-07-06,0.10,0.10,0.10,0.10,177000,0.10
2012-07-05,0.105,0.105,0.105,0.105,000,0.105
2012-07-04,0.105,0.105,0.105,0.105,000,0.105
2012-07-03,0.105,0.105,0.105,0.105,000,0.105
2012-07-02,0.105,0.105,0.105,0.105,000,0.105
2012-06-29,0.105,0.105,0.105,0.105,000,0.105
2012-06-28,0.105,0.105,0.105,0.105,12000,0.105
2012-06-27,0.095,0.095,0.095,0.095,50000,0.095
2012-06-26,0.091,0.091,0.091,0.091,000,0.091
2012-06-25,0.097,0.097,0.09,0.091,180900,0.091
2012-06-22,0.098,0.098,0.097,0.097,66000,0.097
2012-06-21,0.105,0.105,0.105,0.105,000,0.105
2012-06-20,0.11,0.11,0.105,0.105,33500,0.105
2012-06-19,0.12,0.12,0.12,0.12,000,0.12
2012-06-18,0.12,0.12,0.12,0.12,000,0.12
2012-06-15,0.12,0.12,0.12,0.12,27200,0.12
2012-06-14,0.11,0.11,0.11,0.11,000,0.11
2012-06-13,0.125,0.125,0.11,0.11,59900,0.11
2012-06-12,0.14,0.14,0.14,0.14,000,0.14
2012-06-11,0.14,0.14,0.14,0.14,000,0.14
2012-06-08,0.12,0.14,0.12,0.14,26800,0.14
2012-06-07,0.12,0.12,0.12,0.12,000,0.12
2012-06-06,0.12,0.12,0.12,0.12,9500,0.12
2012-06-05,0.12,0.12,0.12,0.12,000,0.12
2012-06-04,0.12,0.12,0.12,0.12,5000,0.12
2012-06-01,0.14,0.14,0.14,0.14,000,0.14
2012-05-31,0.14,0.14,0.14,0.14,4000,0.14
2012-05-30,0.12,0.12,0.12,0.12,000,0.12
2012-05-29,0.12,0.12,0.12,0.12,15400,0.12
2012-05-28,0.12,0.12,0.12,0.12,34500,0.12
2012-05-25,0.11,0.11,0.11,0.11,23300,0.11
2012-05-24,0.105,0.11,0.105,0.11,16600,0.11
2012-05-23,0.10,0.10,0.10,0.10,33300,0.10
2012-05-22,0.10,0.10,0.10,0.10,150000,0.10
2012-05-21,0.10,0.10,0.10,0.10,000,0.10
2012-05-18,0.10,0.10,0.10,0.10,250000,0.10
2012-05-17,0.12,0.13,0.12,0.13,35000,0.13
2012-05-16,0.14,0.14,0.14,0.14,000,0.14
2012-05-15,0.14,0.14,0.14,0.14,000,0.14
2012-05-14,0.14,0.14,0.14,0.14,000,0.14
2012-05-11,0.14,0.14,0.14,0.14,000,0.14
2012-05-10,0.145,0.145,0.14,0.14,70000,0.14
2012-05-09,0.145,0.145,0.145,0.145,49900,0.145
2012-05-08,0.155,0.155,0.155,0.155,10000,0.155
2012-05-07,0.15,0.155,0.15,0.155,325800,0.155
2012-05-04,0.16,0.16,0.16,0.16,43000,0.16
2012-05-03,0.17,0.17,0.17,0.17,000,0.17
2012-05-02,0.16,0.17,0.15,0.17,41200,0.17
2012-05-01,0.16,0.16,0.16,0.16,71400,0.16
2012-04-30,0.165,0.165,0.165,0.165,000,0.165
2012-04-27,0.165,0.165,0.165,0.165,10000,0.165
2012-04-26,0.16,0.16,0.15,0.16,1103500,0.16
2012-04-25,0.165,0.165,0.165,0.165,000,0.165
2012-04-24,0.16,0.165,0.16,0.165,150000,0.165
2012-04-23,0.165,0.165,0.165,0.165,50000,0.165
2012-04-20,0.165,0.165,0.165,0.165,500,0.165
2012-04-19,0.16,0.17,0.16,0.165,195000,0.165
2012-04-18,0.155,0.16,0.15,0.16,1211600,0.16
2012-04-17,0.15,0.15,0.15,0.15,1200,0.15
2012-04-16,0.16,0.16,0.15,0.15,170000,0.15
2012-04-13,0.17,0.17,0.16,0.16,311000,0.16
2012-04-12,0.155,0.17,0.15,0.17,1142800,0.17
2012-04-11,0.15,0.15,0.15,0.15,68000,0.15
2012-04-10,0.155,0.155,0.155,0.155,000,0.155
2012-04-09,0.155,0.155,0.155,0.155,000,0.155
2012-04-06,0.155,0.155,0.155,0.155,000,0.155
2012-04-05,0.155,0.155,0.15,0.155,149400,0.155
2012-04-04,0.155,0.155,0.155,0.155,124600,0.155
2012-04-03,0.16,0.17,0.155,0.155,363200,0.155
2012-04-02,0.14,0.16,0.14,0.15,509200,0.15
2012-03-30,0.135,0.14,0.13,0.14,53500,0.14
2012-03-29,0.13,0.13,0.13,0.13,200000,0.13
2012-03-28,0.13,0.13,0.13,0.13,27500,0.13
2012-03-27,0.115,0.13,0.115,0.13,96800,0.13
2012-03-26,0.11,0.11,0.11,0.11,000,0.11
2012-03-23,0.11,0.11,0.11,0.11,000,0.11
2012-03-22,0.125,0.125,0.11,0.11,50000,0.11
2012-03-21,0.135,0.135,0.135,0.135,000,0.135
2012-03-20,0.135,0.135,0.135,0.135,50000,0.135
2012-03-19,0.15,0.15,0.15,0.15,000,0.15
2012-03-16,0.15,0.15,0.15,0.15,000,0.15
2012-03-15,0.15,0.15,0.15,0.15,000,0.15
2012-03-14,0.15,0.15,0.15,0.15,000,0.15
2012-03-13,0.15,0.15,0.15,0.15,000,0.15
2012-03-12,0.15,0.15,0.15,0.15,000,0.15
2012-03-09,0.15,0.15,0.15,0.15,30000,0.15
2012-03-08,0.14,0.14,0.14,0.14,000,0.14
2012-03-07,0.14,0.14,0.14,0.14,000,0.14
2012-03-06,0.14,0.14,0.14,0.14,000,0.14
2012-03-05,0.14,0.14,0.14,0.14,000,0.14
2012-03-02,0.14,0.14,0.14,0.14,000,0.14
2012-03-01,0.14,0.14,0.14,0.14,000,0.14
2012-02-29,0.14,0.14,0.14,0.14,3200,0.14
2012-02-28,0.14,0.14,0.14,0.14,000,0.14
2012-02-27,0.14,0.14,0.14,0.14,000,0.14
2012-02-24,0.14,0.14,0.14,0.14,000,0.14
2012-02-23,0.14,0.14,0.14,0.14,50000,0.14
2012-02-22,0.155,0.155,0.155,0.155,000,0.155
2012-02-21,0.155,0.155,0.155,0.155,000,0.155
2012-02-20,0.155,0.155,0.155,0.155,000,0.155
2012-02-17,0.155,0.155,0.155,0.155,3200,0.155
2012-02-16,0.155,0.155,0.155,0.155,20000,0.155
2012-02-15,0.155,0.165,0.155,0.165,23100,0.165
2012-02-14,0.14,0.14,0.14,0.14,000,0.14
2012-02-13,0.14,0.14,0.14,0.14,40000,0.14
2012-02-10,0.145,0.145,0.145,0.145,000,0.145
2012-02-09,0.15,0.15,0.145,0.145,65000,0.145
2012-02-08,0.15,0.15,0.15,0.15,106300,0.15
2012-02-07,0.15,0.15,0.15,0.15,93600,0.15
2012-02-06,0.15,0.16,0.15,0.16,106300,0.16
2012-02-03,0.15,0.15,0.15,0.15,10200,0.15
2012-02-02,0.145,0.155,0.145,0.155,66000,0.155
2012-02-01,0.135,0.135,0.135,0.135,25000,0.135
2012-01-31,0.15,0.15,0.15,0.15,000,0.15
2012-01-27,0.15,0.15,0.15,0.15,000,0.15
2012-01-26,0.15,0.15,0.15,0.15,000,0.15
2012-01-25,0.14,0.15,0.14,0.15,51700,0.15
2012-01-24,0.14,0.15,0.14,0.15,7000,0.15
2012-01-23,0.13,0.14,0.13,0.14,12000,0.14
2012-01-20,0.14,0.14,0.14,0.14,000,0.14
2012-01-19,0.14,0.14,0.14,0.14,000,0.14
2012-01-18,0.14,0.14,0.14,0.14,000,0.14
2012-01-17,0.14,0.14,0.14,0.14,40000,0.14
2012-01-16,0.13,0.13,0.13,0.13,180800,0.13
2012-01-13,0.12,0.12,0.12,0.12,000,0.12
2012-01-12,0.12,0.12,0.12,0.12,000,0.12
2012-01-11,0.12,0.12,0.12,0.12,000,0.12
2012-01-10,0.12,0.12,0.12,0.12,20000,0.12
2012-01-09,0.12,0.12,0.12,0.12,25000,0.12
2012-01-06,0.11,0.11,0.11,0.11,000,0.11
2012-01-05,0.11,0.11,0.11,0.11,000,0.11
2012-01-04,0.11,0.11,0.11,0.11,000,0.11
2012-01-03,0.11,0.11,0.11,0.11,000,0.11
2012-01-02,0.11,0.11,0.11,0.11,000,0.11
2011-12-30,0.11,0.11,0.11,0.11,000,0.11
2011-12-29,0.11,0.11,0.11,0.11,000,0.11
2011-12-28,0.11,0.11,0.11,0.11,000,0.11
2011-12-27,0.11,0.11,0.11,0.11,000,0.11
2011-12-26,0.11,0.11,0.11,0.11,000,0.11
2011-12-23,0.11,0.11,0.11,0.11,000,0.11
2011-12-22,0.11,0.11,0.11,0.11,50000,0.11
2011-12-21,0.11,0.11,0.11,0.11,000,0.11
2011-12-20,0.11,0.11,0.11,0.11,35800,0.11
2011-12-19,0.12,0.12,0.12,0.12,000,0.12
2011-12-16,0.12,0.12,0.12,0.12,60000,0.12
2011-12-15,0.125,0.125,0.125,0.125,000,0.125
2011-12-14,0.125,0.125,0.125,0.125,15000,0.125
2011-12-13,0.14,0.14,0.14,0.14,000,0.14
2011-12-12,0.14,0.14,0.14,0.14,000,0.14
2011-12-09,0.14,0.14,0.14,0.14,000,0.14
2011-12-08,0.14,0.14,0.14,0.14,000,0.14
2011-12-07,0.14,0.14,0.14,0.14,000,0.14
2011-12-06,0.14,0.14,0.14,0.14,10000,0.14
2011-12-05,0.14,0.14,0.14,0.14,1000,0.14
2011-12-02,0.14,0.14,0.14,0.14,18400,0.14
2011-12-01,0.13,0.13,0.13,0.13,000,0.13
2011-11-30,0.135,0.135,0.13,0.13,200000,0.13
2011-11-29,0.14,0.14,0.14,0.14,000,0.14
2011-11-28,0.14,0.14,0.14,0.14,000,0.14
2011-11-25,0.14,0.14,0.14,0.14,000,0.14
2011-11-24,0.14,0.14,0.14,0.14,000,0.14
2011-11-23,0.14,0.14,0.14,0.14,000,0.14
2011-11-22,0.14,0.14,0.14,0.14,20000,0.14
2011-11-21,0.14,0.14,0.14,0.14,000,0.14
2011-11-18,0.14,0.14,0.14,0.14,000,0.14
2011-11-17,0.14,0.14,0.14,0.14,55100,0.14
2011-11-09,0.14,0.14,0.14,0.14,84400,0.14
2011-11-04,0.145,0.145,0.145,0.145,40000,0.145
2011-10-31,0.145,0.145,0.145,0.145,10000,0.145
2011-10-28,0.155,0.155,0.155,0.155,20000,0.155
2011-10-25,0.15,0.15,0.15,0.15,23000,0.15
2011-10-24,0.14,0.14,0.14,0.14,35000,0.14
2011-10-18,0.14,0.14,0.14,0.14,49800,0.14
2011-10-14,0.145,0.145,0.145,0.145,10100,0.145
2011-10-13,0.14,0.14,0.14,0.14,10600,0.14
2011-10-12,0.16,0.16,0.14,0.14,100000,0.14
2011-10-06,0.175,0.175,0.175,0.175,13500,0.175
2011-10-05,0.15,0.155,0.14,0.155,191200,0.155
2011-09-28,0.15,0.15,0.15,0.15,50000,0.15
2011-09-23,0.15,0.15,0.15,0.15,98500,0.15
2011-09-22,0.14,0.15,0.14,0.15,63500,0.15
2011-09-21,0.15,0.15,0.15,0.15,300,0.15
2011-09-20,0.155,0.155,0.155,0.155,184600,0.155
2011-09-19,0.155,0.155,0.155,0.155,6000,0.155
2011-09-15,0.16,0.16,0.155,0.155,71400,0.155
2011-09-13,0.16,0.16,0.16,0.16,73300,0.16
2011-09-12,0.155,0.17,0.155,0.16,72000,0.16
2011-09-09,0.155,0.165,0.155,0.165,115000,0.165
2011-09-08,0.15,0.15,0.15,0.15,99700,0.15
2011-09-07,0.135,0.135,0.135,0.135,8900,0.135
2011-09-06,0.135,0.135,0.135,0.135,100000,0.135
2011-09-05,0.125,0.125,0.125,0.125,38000,0.125
2011-09-02,0.12,0.12,0.12,0.12,44400,0.12
2011-09-01,0.125,0.14,0.125,0.14,33000,0.14
2011-08-31,0.105,0.16,0.105,0.155,411400,0.155
2011-08-30,0.095,0.095,0.095,0.095,20000,0.095
2011-08-24,0.10,0.10,0.10,0.10,218000,0.10
2011-07-29,0.10,0.10,0.095,0.095,100000,0.095
2011-07-28,0.10,0.10,0.10,0.10,3500,0.10
2011-07-26,0.098,0.098,0.098,0.098,10000,0.098
2011-07-25,0.105,0.105,0.105,0.105,196400,0.105
2011-07-21,0.115,0.115,0.115,0.115,40000,0.115
2011-07-14,0.105,0.105,0.105,0.105,75000,0.105
2011-07-13,0.105,0.105,0.105,0.105,5000,0.105
2011-07-12,0.11,0.11,0.105,0.105,250000,0.105
2011-07-07,0.11,0.11,0.11,0.11,50000,0.11
2011-07-06,0.11,0.11,0.105,0.105,10000,0.105
2011-07-04,0.11,0.11,0.105,0.105,100000,0.105
2011-06-30,0.12,0.12,0.12,0.12,71000,0.12
2011-06-27,0.13,0.13,0.12,0.12,162800,0.12
2011-06-24,0.13,0.13,0.13,0.13,50000,0.13
2011-06-23,0.13,0.13,0.13,0.13,100000,0.13
2011-06-20,0.13,0.13,0.13,0.13,77100,0.13
2011-06-16,0.13,0.13,0.13,0.13,50000,0.13
2011-06-15,0.13,0.13,0.13,0.13,27800,0.13
2011-06-14,0.13,0.13,0.13,0.13,19900,0.13
2011-06-10,0.14,0.14,0.14,0.14,20000,0.14
2011-06-09,0.14,0.14,0.14,0.14,3500,0.14
2011-06-07,0.13,0.13,0.13,0.13,210000,0.13
2011-05-31,0.125,0.125,0.125,0.125,150000,0.125
2011-05-23,0.13,0.13,0.125,0.125,200000,0.125
2011-05-18,0.14,0.14,0.14,0.14,50000,0.14
2011-05-09,0.165,0.165,0.165,0.165,200000,0.165
2011-05-04,0.16,0.17,0.16,0.17,22500,0.17
2011-05-03,0.17,0.17,0.17,0.17,4400,0.17
2011-04-27,0.17,0.17,0.17,0.17,30700,0.17
2011-04-19,0.185,0.185,0.18,0.18,40000,0.18
2011-04-18,0.185,0.185,0.185,0.185,46000,0.185
2011-04-15,0.185,0.185,0.185,0.185,10000,0.185
2011-04-14,0.185,0.185,0.185,0.185,162000,0.185
2011-04-12,0.20,0.20,0.185,0.185,175000,0.185
2011-04-06,0.195,0.195,0.18,0.18,25000,0.18
2011-04-05,0.195,0.195,0.195,0.195,21800,0.195
2011-04-04,0.19,0.195,0.18,0.18,120700,0.18
2011-03-29,0.17,0.17,0.17,0.17,45000,0.17
2011-03-24,0.18,0.18,0.16,0.16,35000,0.16
2011-03-15,0.16,0.16,0.16,0.16,8000,0.16
2011-03-10,0.20,0.20,0.20,0.20,90000,0.20
2011-03-09,0.22,0.22,0.195,0.22,365900,0.22
2011-03-04,0.21,0.225,0.21,0.225,10100,0.225
2011-03-03,0.23,0.235,0.21,0.21,258000,0.21
2011-03-02,0.23,0.23,0.225,0.225,237200,0.225
2011-03-01,0.23,0.235,0.23,0.235,73900,0.235
2011-02-28,0.22,0.23,0.22,0.23,276600,0.23
2011-02-25,0.215,0.22,0.215,0.22,459800,0.22
2011-02-24,0.205,0.215,0.205,0.215,551900,0.215
2011-02-23,0.20,0.20,0.20,0.20,300000,0.20
2011-02-22,0.205,0.205,0.20,0.20,753700,0.20
2011-02-21,0.205,0.205,0.205,0.205,30000,0.205
2011-02-18,0.21,0.21,0.205,0.205,157000,0.205
2011-02-17,0.225,0.225,0.21,0.21,215400,0.21
2011-02-16,0.22,0.22,0.22,0.22,158300,0.22
2011-02-15,0.205,0.225,0.20,0.22,475400,0.22
2011-02-14,0.20,0.205,0.20,0.205,230000,0.205
2011-02-10,0.20,0.20,0.20,0.20,250000,0.20
2011-02-09,0.20,0.205,0.20,0.205,283000,0.205
2011-02-08,0.20,0.20,0.195,0.195,551400,0.195
2011-02-07,0.20,0.20,0.20,0.20,175000,0.20
2011-02-04,0.20,0.20,0.20,0.20,260000,0.20
2011-02-03,0.20,0.20,0.19,0.20,346400,0.20
2011-02-02,0.18,0.22,0.18,0.21,1606600,0.21
2011-02-01,0.175,0.175,0.17,0.17,193000,0.17
2011-01-31,0.165,0.17,0.165,0.17,147600,0.17
2011-01-24,0.17,0.17,0.17,0.17,1500,0.17
2011-01-21,0.17,0.17,0.17,0.17,165000,0.17
2011-01-20,0.17,0.17,0.17,0.17,43400,0.17
2011-01-19,0.18,0.18,0.17,0.17,112000,0.17
2011-01-18,0.17,0.17,0.17,0.17,605000,0.17
2011-01-17,0.17,0.17,0.17,0.17,310500,0.17
2011-01-14,0.19,0.19,0.17,0.17,92800,0.17
2011-01-13,0.17,0.20,0.17,0.20,194000,0.20
2011-01-11,0.16,0.16,0.16,0.16,485000,0.16
2011-01-10,0.14,0.15,0.14,0.14,163300,0.14
2010-12-31,0.145,0.145,0.145,0.145,3500,0.145
2010-12-29,0.15,0.15,0.15,0.15,30000,0.15
2010-12-17,0.13,0.15,0.13,0.15,351800,0.15
2010-12-14,0.11,0.12,0.11,0.12,209300,0.12
2010-12-13,0.11,0.11,0.11,0.11,45000,0.11
2010-12-09,0.11,0.11,0.11,0.11,174700,0.11
2010-12-08,0.11,0.11,0.11,0.11,25200,0.11
2010-12-06,0.125,0.125,0.12,0.12,74700,0.12
2010-12-02,0.115,0.12,0.115,0.12,15200,0.12
2010-12-01,0.105,0.105,0.105,0.105,25000,0.105
2010-11-30,0.105,0.105,0.105,0.105,75000,0.105
2010-11-26,0.105,0.105,0.10,0.10,122300,0.10
2010-11-22,0.105,0.105,0.105,0.105,50000,0.105
2010-11-19,0.11,0.11,0.11,0.11,20000,0.11
2010-11-18,0.115,0.115,0.105,0.105,40000,0.105
2010-11-11,0.115,0.12,0.115,0.12,50000,0.12
2010-11-10,0.10,0.10,0.10,0.10,65000,0.10
2010-11-08,0.11,0.11,0.11,0.11,25000,0.11
2010-11-03,0.12,0.12,0.105,0.105,102700,0.105
2010-11-02,0.105,0.105,0.10,0.10,20300,0.10
2010-10-28,0.105,0.12,0.105,0.12,22000,0.12
2010-10-27,0.10,0.10,0.10,0.10,66800,0.10
2010-10-25,0.12,0.12,0.12,0.12,11600,0.12
2010-10-22,0.115,0.115,0.115,0.115,25000,0.115
2010-10-21,0.105,0.105,0.10,0.10,10000,0.10
2010-10-18,0.105,0.105,0.105,0.105,13800,0.105
2010-10-14,0.105,0.105,0.10,0.10,5700,0.10
2010-10-12,0.12,0.12,0.12,0.12,10000,0.12
2010-10-08,0.12,0.12,0.12,0.12,35000,0.12
2010-10-07,0.10,0.10,0.10,0.10,79500,0.10
2010-10-05,0.105,0.12,0.105,0.12,295500,0.12
2010-09-30,0.125,0.125,0.125,0.125,30000,0.125
2010-09-29,0.13,0.13,0.13,0.13,25000,0.13
2010-09-27,0.125,0.13,0.125,0.13,30000,0.13
2010-09-23,0.11,0.11,0.11,0.11,100000,0.11
2010-09-22,0.10,0.10,0.10,0.10,25000,0.10
2010-09-15,0.14,0.14,0.14,0.14,2600,0.14
2010-09-07,0.15,0.15,0.15,0.15,100000,0.15
2010-09-02,0.14,0.14,0.14,0.14,73400,0.14
2010-08-30,0.14,0.14,0.13,0.13,97500,0.13
2010-08-27,0.145,0.16,0.145,0.16,20000,0.16
2010-08-26,0.16,0.16,0.16,0.16,20000,0.16
2010-08-24,0.15,0.15,0.15,0.15,70000,0.15
2010-08-18,0.145,0.145,0.145,0.145,25000,0.145
2010-07-26,0.16,0.18,0.16,0.18,110000,0.18
2010-07-21,0.14,0.14,0.14,0.14,500000,0.14
2010-07-12,0.145,0.15,0.14,0.14,17900,0.14
2010-07-07,0.12,0.12,0.12,0.12,71800,0.12
2010-07-05,0.125,0.125,0.125,0.125,2700,0.125
2010-07-01,0.12,0.12,0.12,0.12,25000,0.12
2010-06-30,0.14,0.14,0.14,0.14,136300,0.14
2010-06-25,0.14,0.14,0.10,0.10,000,0.10
2010-06-24,0.14,0.14,0.14,0.14,63600,0.14
2010-06-23,0.14,0.14,0.14,0.14,75000,0.14
2010-06-22,0.145,0.145,0.14,0.14,15900,0.14
2010-06-21,0.145,0.145,0.145,0.145,37800,0.145
2010-06-18,0.15,0.15,0.145,0.145,26300,0.145
2010-06-17,0.15,0.15,0.15,0.15,40000,0.15
2010-06-16,0.145,0.145,0.14,0.145,112500,0.145
2010-06-15,0.15,0.15,0.145,0.145,103300,0.145
2010-06-11,0.20,0.20,0.15,0.15,000,0.15
2010-06-10,0.15,0.15,0.15,0.15,8000,0.15
2010-06-09,0.22,0.22,0.15,0.15,000,0.15
2010-06-08,0.22,0.22,0.15,0.15,000,0.15
2010-06-07,0.20,0.20,0.15,0.15,000,0.15
2010-06-04,0.15,0.15,0.15,0.15,60000,0.15
2010-06-03,0.185,0.185,0.15,0.15,000,0.15
2010-06-02,0.15,0.15,0.15,0.15,50000,0.15
2010-06-01,0.185,0.185,0.15,0.15,000,0.15
2010-05-31,0.15,0.15,0.15,0.15,3700,0.15
2010-05-28,0.175,0.175,0.175,0.175,25000,0.175
2010-05-27,0.175,0.175,0.15,0.15,000,0.15
2010-05-26,0.175,0.175,0.15,0.15,000,0.15
2010-05-25,0.175,0.175,0.15,0.15,000,0.15
2010-05-24,0.175,0.175,0.15,0.15,000,0.15
2010-05-21,0.17,0.17,0.15,0.15,24700,0.15
2010-05-20,0.175,0.175,0.175,0.175,25000,0.175
2010-05-19,0.17,0.17,0.17,0.17,20000,0.17
2010-05-18,0.175,0.175,0.175,0.175,50000,0.175
2010-05-17,0.185,0.185,0.185,0.185,2700,0.185
2010-05-14,0.185,0.185,0.185,0.185,5400,0.185
2010-05-13,0.185,0.185,0.18,0.18,000,0.18
2010-05-12,0.20,0.20,0.18,0.18,000,0.18
2010-05-11,0.185,0.185,0.18,0.18,000,0.18
2010-05-10,0.18,0.18,0.18,0.18,000,0.18
2010-05-07,0.18,0.185,0.165,0.185,100200,0.185
2010-05-06,0.185,0.19,0.185,0.185,283000,0.185
2010-05-05,0.20,0.20,0.195,0.195,142600,0.195
2010-05-04,0.205,0.205,0.20,0.20,664900,0.20
2010-05-03,0.205,0.21,0.20,0.20,487800,0.20
2010-04-30,0.21,0.21,0.20,0.20,000,0.20
2010-04-29,0.20,0.215,0.20,0.215,160000,0.215
2010-04-28,0.205,0.21,0.205,0.21,235000,0.21
2010-04-27,0.205,0.205,0.205,0.205,25000,0.205
2010-04-23,0.205,0.205,0.20,0.20,132400,0.20
2010-04-22,0.19,0.205,0.19,0.205,433100,0.205
2010-04-21,0.19,0.19,0.19,0.19,40000,0.19
2010-04-20,0.19,0.19,0.19,0.19,70000,0.19
2010-04-19,0.20,0.20,0.185,0.185,000,0.185
2010-04-16,0.20,0.20,0.185,0.185,000,0.185
2010-04-15,0.185,0.185,0.185,0.185,81000,0.185
2010-04-14,0.20,0.20,0.185,0.185,60000,0.185
2010-04-13,0.19,0.20,0.185,0.20,753000,0.20
2010-04-12,0.19,0.19,0.185,0.185,465000,0.185
2010-04-09,0.20,0.20,0.20,0.20,9800,0.20
2010-04-08,0.19,0.20,0.19,0.20,127200,0.20
2010-04-07,0.19,0.20,0.19,0.20,34800,0.20
2010-04-06,0.19,0.19,0.19,0.19,71100,0.19
2010-04-01,0.18,0.19,0.175,0.185,179700,0.185
2010-03-31,0.19,0.19,0.18,0.19,75700,0.19
2010-03-30,0.20,0.205,0.195,0.195,173000,0.195
2010-03-29,0.225,0.24,0.225,0.24,286400,0.23
2010-03-26,0.225,0.225,0.22,0.22,232700,0.21083
2010-03-25,0.215,0.225,0.215,0.225,273700,0.21562
2010-03-24,0.205,0.21,0.205,0.21,81900,0.20125
2010-03-22,0.215,0.215,0.20,0.20,112100,0.19166
2010-03-19,0.21,0.21,0.21,0.21,2600,0.20125
2010-03-17,0.20,0.21,0.20,0.21,125200,0.20125
2010-03-16,0.20,0.205,0.20,0.205,146000,0.19645
2010-03-15,0.205,0.205,0.20,0.20,31300,0.19166
2010-03-11,0.205,0.205,0.20,0.20,26000,0.19166
2010-03-10,0.205,0.21,0.205,0.21,281700,0.20125
2010-03-09,0.21,0.21,0.21,0.21,104300,0.20125
2010-03-05,0.22,0.22,0.22,0.22,104300,0.21083
2010-03-04,0.22957,0.22957,0.21913,0.21913,000,0.21
2010-03-03,0.22,0.22,0.22,0.22,32000,0.21083
2010-03-02,0.25044,0.25044,0.22957,0.22957,000,0.22
2010-03-01,0.235,0.24,0.235,0.24,71800,0.23
2010-02-26,0.22,0.23,0.22,0.23,41700,0.22041
2010-02-25,0.22,0.22,0.22,0.22,17200,0.21083
2010-02-24,0.22,0.22,0.22,0.22,219100,0.21083
2010-02-23,0.22957,0.22957,0.21392,0.21392,000,0.205
2010-02-22,0.20,0.20,0.20,0.20,26000,0.19166
2010-02-19,0.215,0.22,0.21,0.22,430200,0.21083
2010-02-18,0.22,0.22,0.22,0.22,130400,0.21083
2010-02-17,0.23,0.23,0.22,0.22,114700,0.21083
2010-02-16,0.23,0.23,0.22,0.23,182800,0.22041
2010-02-15,0.22,0.23,0.22,0.23,167700,0.22041
2010-02-12,0.20,0.22,0.20,0.22,214800,0.21083
2010-02-11,0.20,0.20,0.20,0.20,104300,0.19166
2010-02-10,0.20,0.20,0.195,0.195,365200,0.18687
2010-02-09,0.19,0.20,0.19,0.20,101600,0.19166
2010-02-08,0.20,0.21,0.195,0.195,99900,0.18687
2010-02-05,0.20,0.20,0.195,0.20,182600,0.19166
2010-02-04,0.20,0.205,0.195,0.20,345700,0.19166
2010-02-03,0.19,0.20,0.19,0.19,286900,0.18208
2010-02-02,0.19,0.195,0.19,0.19,203700,0.18208
2010-02-01,0.19,0.20,0.19,0.19,560500,0.18208
2010-01-29,0.195,0.20,0.19,0.20,623800,0.19166
2010-01-28,0.215,0.22,0.19,0.195,1681500,0.18687
2010-01-27,0.22,0.245,0.205,0.205,633200,0.19645
