Date,Open,High,Low,Close,Volume,Adj Close
2017-01-06,101.03,101.03,101.03,101.03,000,101.03
2017-01-05,101.03,101.03,101.03,101.03,000,101.03
2017-01-04,101.03,101.03,101.03,101.03,000,101.03
2017-01-03,101.03,101.03,101.03,101.03,000,101.03
2017-01-02,101.03,101.03,101.03,101.03,000,101.03
2016-12-30,71.05,71.86,71.05,71.86,100,71.86
2016-12-29,71.04,71.04,71.04,71.04,000,71.04
2016-12-28,101.03,101.03,101.03,101.03,000,101.03
2016-12-27,101.03,101.03,101.03,101.03,000,101.03
2016-12-26,101.03,101.03,101.03,101.03,000,101.03
2016-12-23,101.03,101.03,101.03,101.03,000,101.03
2016-12-22,101.03,101.03,101.03,101.03,000,101.03
2016-12-21,101.03,101.03,101.03,101.03,000,101.03
2016-12-20,101.03,101.03,101.03,101.03,000,101.03
2016-12-19,101.03,101.03,101.03,101.03,000,101.03
2016-12-16,101.03,101.03,101.03,101.03,000,101.03
2016-12-15,101.03,101.03,101.03,101.03,000,101.03
2016-12-14,71.03,71.04,71.03,71.04,1100,71.04
2016-12-13,101.03,101.03,101.03,101.03,000,101.03
2016-12-12,101.03,101.03,101.03,101.03,000,101.03
2016-12-09,101.03,101.03,101.03,101.03,000,101.03
2016-12-08,101.03,101.03,101.03,101.03,000,101.03
2016-12-07,101.03,101.03,101.03,101.03,000,101.03
2016-12-06,71.02,71.02,71.02,71.02,900,71.02
2016-12-05,101.03,101.03,101.03,101.03,000,101.03
2016-12-02,101.03,101.03,101.03,101.03,000,101.03
2016-12-01,101.03,101.03,101.03,101.03,000,101.03
2016-11-30,70.50,70.93,70.50,70.93,000,70.93
2016-11-29,101.03,101.03,101.03,101.03,000,101.03
2016-11-28,101.03,101.03,101.03,101.03,000,101.03
2016-11-25,101.03,101.03,101.03,101.03,000,101.03
2016-11-24,101.03,101.03,101.03,101.03,000,101.03
2016-11-23,101.03,101.03,101.03,101.03,000,101.03
2016-11-22,101.03,101.03,101.03,101.03,000,101.03
2016-11-21,70.80,70.80,70.80,70.80,000,70.80
2016-11-18,101.03,101.03,101.03,101.03,000,101.03
2016-11-17,101.03,101.03,101.03,101.03,000,101.03
2016-11-16,101.03,101.03,101.03,101.03,000,101.03
2016-11-15,101.03,101.03,101.03,101.03,000,101.03
2016-11-14,101.03,101.03,101.03,101.03,000,101.03
2016-11-11,72.23,72.23,72.23,72.23,000,72.23
2016-11-10,101.03,101.03,101.03,101.03,000,101.03
2016-11-09,101.03,101.03,101.03,101.03,000,101.03
2016-11-08,101.03,101.03,101.03,101.03,000,101.03
2016-11-07,101.03,101.03,101.03,101.03,000,101.03
2016-11-04,101.03,101.03,101.03,101.03,000,101.03
2016-11-03,101.03,101.03,101.03,101.03,000,101.03
2016-11-02,101.03,101.03,101.03,101.03,000,101.03
2016-11-01,101.03,101.03,101.03,101.03,000,101.03
2016-10-28,72.02,72.02,71.90,71.90,100,71.90
2016-10-27,101.03,101.03,101.03,101.03,000,101.03
2016-10-26,101.03,101.03,101.03,101.03,000,101.03
2016-10-25,101.03,101.03,101.03,101.03,000,101.03
2016-10-24,101.03,101.03,101.03,101.03,000,101.03
2016-10-21,101.03,101.03,101.03,101.03,000,101.03
2016-10-20,101.03,101.03,101.03,101.03,000,101.03
2016-10-19,71.90,71.91,71.90,71.91,800,71.91
2016-10-18,101.03,101.03,101.03,101.03,000,101.03
2016-10-17,101.03,101.03,101.03,101.03,000,101.03
2016-10-14,101.03,101.03,101.03,101.03,000,101.03
2016-10-13,101.03,101.03,101.03,101.03,000,101.03
2016-10-12,71.87,71.87,71.87,71.87,600,71.87
2016-10-11,101.03,101.03,101.03,101.03,000,101.03
2016-10-10,101.03,101.03,101.03,101.03,000,101.03
2016-10-07,101.03,101.03,101.03,101.03,000,101.03
2016-10-06,101.03,101.03,101.03,101.03,000,101.03
2016-10-05,101.03,101.03,101.03,101.03,000,101.03
2016-10-04,101.03,101.03,101.03,101.03,000,101.03
2016-10-03,101.03,101.03,101.03,101.03,000,101.03
2016-09-29,101.03,101.03,101.03,101.03,000,101.03
2016-09-28,101.03,101.03,101.03,101.03,000,101.03
2016-09-27,101.03,101.03,101.03,101.03,000,101.03
2016-09-26,101.03,101.03,101.03,101.03,000,101.03
2016-09-23,101.03,101.03,101.03,101.03,000,101.03
2016-09-22,101.03,101.03,101.03,101.03,000,101.03
2016-09-21,101.03,101.03,101.03,101.03,000,101.03
2016-09-20,71.55,71.55,71.55,71.55,200,71.55
2016-09-19,101.03,101.03,101.03,101.03,000,101.03
2016-09-16,101.03,101.03,101.03,101.03,000,101.03
2016-09-15,101.03,101.03,101.03,101.03,000,101.03
2016-09-14,101.03,101.03,101.03,101.03,000,101.03
2016-09-13,101.03,101.03,101.03,101.03,000,101.03
2016-09-12,101.03,101.03,101.03,101.03,000,101.03
2016-09-09,101.03,101.03,101.03,101.03,000,101.03
2016-09-08,101.03,101.03,101.03,101.03,000,101.03
2016-09-07,101.03,101.03,101.03,101.03,000,101.03
2016-09-06,101.03,101.03,101.03,101.03,000,101.03
2016-09-05,101.03,101.03,101.03,101.03,000,101.03
2016-09-02,101.03,101.03,101.03,101.03,000,101.03
2016-09-01,101.03,101.03,101.03,101.03,000,101.03
2016-08-31,71.55,71.55,71.55,71.55,000,71.55
2016-08-30,101.03,101.03,101.03,101.03,000,101.03
2016-08-29,71.52,71.52,71.52,71.52,1400,71.52
2016-08-26,101.03,101.03,101.03,101.03,000,101.03
2016-08-25,101.03,101.03,101.03,101.03,000,101.03
2016-08-24,101.03,101.03,101.03,101.03,000,101.03
2016-08-23,101.03,101.03,101.03,101.03,000,101.03
2016-08-22,101.03,101.03,101.03,101.03,000,101.03
2016-08-19,101.03,101.03,101.03,101.03,000,101.03
2016-08-18,72.07,72.07,72.07,72.07,000,72.07
2016-08-17,101.03,101.03,101.03,101.03,000,101.03
2016-08-16,101.03,101.03,101.03,101.03,000,101.03
2016-08-15,101.03,101.03,101.03,101.03,000,101.03
2016-08-12,101.03,101.03,101.03,101.03,000,101.03
2016-08-11,101.03,101.03,101.03,101.03,000,101.03
2016-08-10,101.03,101.03,101.03,101.03,000,101.03
2016-08-09,101.03,101.03,101.03,101.03,000,101.03
2016-08-08,101.03,101.03,101.03,101.03,000,101.03
2016-08-05,101.03,101.03,101.03,101.03,000,101.03
2016-08-04,101.03,101.03,101.03,101.03,000,101.03
2016-08-03,101.03,101.03,101.03,101.03,000,101.03
2016-08-02,101.03,101.03,101.03,101.03,000,101.03
2016-08-01,101.03,101.03,101.03,101.03,000,101.03
2016-07-29,72.18,72.18,72.18,72.18,400,72.18
2016-07-28,101.03,101.03,101.03,101.03,000,101.03
2016-07-27,101.03,101.03,101.03,101.03,000,101.03
2016-07-26,101.03,101.03,101.03,101.03,000,101.03
2016-07-25,101.03,101.03,101.03,101.03,000,101.03
2016-07-22,101.03,101.03,101.03,101.03,000,101.03
2016-07-21,101.03,101.03,101.03,101.03,000,101.03
2016-07-20,101.03,101.03,101.03,101.03,000,101.03
2016-07-19,101.03,101.03,101.03,101.03,000,101.03
2016-07-18,101.03,101.03,101.03,101.03,000,101.03
2016-07-15,71.97,71.97,71.97,71.97,500,71.97
2016-07-14,101.03,101.03,101.03,101.03,000,101.03
2016-07-13,101.03,101.03,101.03,101.03,000,101.03
2016-07-12,71.97,71.97,71.97,71.97,900,71.97
2016-07-11,101.03,101.03,101.03,101.03,000,101.03
2016-07-08,101.03,101.03,101.03,101.03,000,101.03
2016-07-07,101.03,101.03,101.03,101.03,000,101.03
2016-07-06,71.90,71.90,71.90,71.90,200,71.90
2016-07-05,101.03,101.03,101.03,101.03,000,101.03
2016-07-04,101.03,101.03,101.03,101.03,000,101.03
2016-07-01,101.03,101.03,101.03,101.03,000,101.03
2016-06-30,101.03,101.03,101.03,101.03,000,101.03
2016-06-29,101.03,101.03,101.03,101.03,000,101.03
2016-06-28,101.03,101.03,101.03,101.03,000,101.03
2016-06-27,71.76,71.76,71.76,71.76,000,71.76
2016-06-24,101.03,101.03,101.03,101.03,000,101.03
2016-06-23,101.03,101.03,101.03,101.03,000,101.03
2016-06-22,101.03,101.03,101.03,101.03,000,101.03
2016-06-21,71.69,71.69,71.69,71.69,200,71.69
2016-06-20,101.03,101.03,101.03,101.03,000,101.03
2016-06-17,101.03,101.03,101.03,101.03,000,101.03
2016-06-16,101.03,101.03,101.03,101.03,000,101.03
2016-06-15,101.03,101.03,101.03,101.03,000,101.03
2016-06-14,101.03,101.03,101.03,101.03,000,101.03
2016-06-13,101.03,101.03,101.03,101.03,000,101.03
2016-06-10,101.03,101.03,101.03,101.03,000,101.03
2016-06-09,101.03,101.03,101.03,101.03,000,101.03
2016-06-08,73.00,73.00,73.00,73.00,100,73.00
2016-06-07,101.03,101.03,101.03,101.03,000,101.03
2016-06-06,71.55,71.55,71.55,71.55,000,71.55
2016-06-03,101.03,101.03,101.03,101.03,000,101.03
2016-06-02,101.03,101.03,101.03,101.03,000,101.03
2016-06-01,101.03,101.03,101.03,101.03,000,101.03
2016-05-31,71.35,71.35,71.35,71.35,000,71.35
2016-05-30,71.50,71.50,71.50,71.50,100,71.50
2016-05-27,101.03,101.03,101.03,101.03,000,101.03
2016-05-26,101.03,101.03,101.03,101.03,000,101.03
2016-05-25,101.03,101.03,101.03,101.03,000,101.03
2016-05-24,101.03,101.03,101.03,101.03,000,101.03
2016-05-23,101.03,101.03,101.03,101.03,000,101.03
2016-05-20,101.03,101.03,101.03,101.03,000,101.03
2016-05-19,101.03,101.03,101.03,101.03,000,101.03
2016-05-18,71.26,71.26,71.26,71.26,300,71.26
2016-05-17,101.03,101.03,101.03,101.03,000,101.03
2016-05-16,101.03,101.03,101.03,101.03,000,101.03
2016-05-13,101.03,101.03,101.03,101.03,000,101.03
2016-05-12,101.03,101.03,101.03,101.03,000,101.03
2016-05-11,101.03,101.03,101.03,101.03,000,101.03
2016-05-10,101.03,101.03,101.03,101.03,000,101.03
2016-05-09,73.00,73.00,73.00,73.00,000,73.00
2016-05-06,101.03,101.03,101.03,101.03,000,101.03
2016-05-05,101.03,101.03,101.03,101.03,000,101.03
2016-05-04,72.01,72.01,72.01,72.01,200,72.01
2016-05-03,101.03,101.03,101.03,101.03,000,101.03
2016-05-02,101.03,101.03,101.03,101.03,000,101.03
2016-04-29,101.03,101.03,101.03,101.03,000,101.03
2016-04-28,101.03,101.03,101.03,101.03,000,101.03
2016-04-27,101.03,101.03,101.03,101.03,000,101.03
2016-04-26,101.03,101.03,101.03,101.03,000,101.03
2016-04-25,101.03,101.03,101.03,101.03,000,101.03
2016-04-22,101.03,101.03,101.03,101.03,000,101.03
2016-04-21,101.03,101.03,101.03,101.03,000,101.03
2016-04-20,101.03,101.03,101.03,101.03,000,101.03
2016-04-19,71.78,71.78,71.78,71.78,1000,71.78
2016-04-18,101.03,101.03,101.03,101.03,000,101.03
2016-04-15,101.03,101.03,101.03,101.03,000,101.03
2016-04-14,101.03,101.03,101.03,101.03,000,101.03
2016-04-13,101.03,101.03,101.03,101.03,000,101.03
2016-04-12,101.03,101.03,101.03,101.03,000,101.03
2016-04-11,101.03,101.03,101.03,101.03,000,101.03
2016-04-08,101.03,101.03,101.03,101.03,000,101.03
2016-04-07,101.03,101.03,101.03,101.03,000,101.03
2016-04-06,71.63,71.63,71.63,71.63,200,71.63
2016-04-05,101.03,101.03,101.03,101.03,000,101.03
2016-04-04,101.03,101.03,101.03,101.03,000,101.03
2016-04-01,101.03,101.03,101.03,101.03,000,101.03
2016-03-31,71.49,71.49,71.49,71.49,000,71.49
2016-03-30,101.03,101.03,101.03,101.03,000,101.03
2016-03-29,101.03,101.03,101.03,101.03,000,101.03
2016-03-28,101.03,101.03,101.03,101.03,000,101.03
2016-03-25,101.03,101.03,101.03,101.03,000,101.03
2016-03-24,101.03,101.03,101.03,101.03,000,101.03
2016-03-23,101.03,101.03,101.03,101.03,000,101.03
2016-03-22,101.03,101.03,101.03,101.03,000,101.03
2016-03-21,101.03,101.03,101.03,101.03,000,101.03
2016-03-18,101.03,101.03,101.03,101.03,000,101.03
2016-03-17,101.03,101.03,101.03,101.03,000,101.03
2016-03-16,101.03,101.03,101.03,101.03,000,101.03
2016-03-15,71.32,71.32,71.32,71.32,500,71.32
2016-03-14,101.03,101.03,101.03,101.03,000,101.03
2016-03-11,101.03,101.03,101.03,101.03,000,101.03
2016-03-10,101.03,101.03,101.03,101.03,000,101.03
2016-03-09,101.03,101.03,101.03,101.03,000,101.03
2016-03-08,101.03,101.03,101.03,101.03,000,101.03
2016-03-07,101.03,101.03,101.03,101.03,000,101.03
2016-03-04,101.03,101.03,101.03,101.03,000,101.03
2016-03-03,101.03,101.03,101.03,101.03,000,101.03
2016-03-02,101.03,101.03,101.03,101.03,000,101.03
2016-03-01,101.03,101.03,101.03,101.03,000,101.03
2016-02-29,71.09,71.09,71.09,71.09,000,71.09
2016-02-26,101.03,101.03,101.03,101.03,000,101.03
2016-02-25,101.03,101.03,101.03,101.03,000,101.03
2016-02-24,71.30,71.30,71.27,71.27,200,71.27
2016-02-23,101.03,101.03,101.03,101.03,000,101.03
2016-02-22,71.25,71.25,71.25,71.25,100,71.25
2016-02-19,101.03,101.03,101.03,101.03,000,101.03
2016-02-18,71.25,71.25,71.25,71.25,100,71.25
2016-02-17,101.03,101.03,101.03,101.03,000,101.03
2016-02-16,101.03,101.03,101.03,101.03,000,101.03
2016-02-15,101.03,101.03,101.03,101.03,000,101.03
2016-02-12,71.55,71.55,71.55,71.55,200,71.55
2016-02-11,101.03,101.03,101.03,101.03,000,101.03
2016-02-10,101.03,101.03,101.03,101.03,000,101.03
2016-02-09,101.03,101.03,101.03,101.03,000,101.03
2016-02-08,101.03,101.03,101.03,101.03,000,101.03
2016-02-05,101.03,101.03,101.03,101.03,000,101.03
2016-02-04,101.03,101.03,101.03,101.03,000,101.03
2016-02-03,101.03,101.03,101.03,101.03,000,101.03
2016-02-02,101.03,101.03,101.03,101.03,000,101.03
2016-02-01,101.03,101.03,101.03,101.03,000,101.03
2016-01-29,101.03,101.03,101.03,101.03,000,101.03
2016-01-28,101.03,101.03,101.03,101.03,000,101.03
2016-01-27,101.03,101.03,101.03,101.03,000,101.03
2016-01-26,101.03,101.03,101.03,101.03,000,101.03
2016-01-25,101.03,101.03,101.03,101.03,000,101.03
2016-01-22,101.03,101.03,101.03,101.03,000,101.03
2016-01-21,101.03,101.03,101.03,101.03,000,101.03
2016-01-20,101.03,101.03,101.03,101.03,000,101.03
2016-01-19,101.03,101.03,101.03,101.03,000,101.03
2016-01-18,72.04,72.04,71.99,71.99,200,71.99
2016-01-15,101.03,101.03,101.03,101.03,000,101.03
2016-01-14,72.04,72.04,72.04,72.04,100,72.04
2016-01-13,101.03,101.03,101.03,101.03,000,101.03
2016-01-12,101.03,101.03,101.03,101.03,000,101.03
2016-01-11,71.99,71.99,71.99,71.99,100,71.99
2016-01-08,101.03,101.03,101.03,101.03,000,101.03
2016-01-07,101.03,101.03,101.03,101.03,000,101.03
2016-01-06,101.03,101.03,101.03,101.03,000,101.03
2016-01-05,101.03,101.03,101.03,101.03,000,101.03
2016-01-04,101.03,101.03,101.03,101.03,000,101.03
2016-01-01,101.03,101.03,101.03,101.03,000,101.03
2015-12-31,71.72,71.72,71.72,71.72,000,71.72
2015-12-30,71.90,71.90,71.90,71.90,500,71.90
2015-12-29,101.03,101.03,101.03,101.03,000,101.03
2015-12-24,101.03,101.03,101.03,101.03,000,101.03
2015-12-23,101.03,101.03,101.03,101.03,000,101.03
2015-12-22,101.03,101.03,101.03,101.03,000,101.03
2015-12-21,71.65,71.65,71.65,71.65,000,71.65
2015-12-18,101.03,101.03,101.03,101.03,000,101.03
2015-12-17,101.03,101.03,101.03,101.03,000,101.03
2015-12-16,71.57,71.57,71.57,71.57,200,71.57
2015-12-15,101.03,101.03,101.03,101.03,000,101.03
2015-12-14,71.14,71.14,71.14,71.14,500,71.14
2015-12-11,101.03,101.03,101.03,101.03,000,101.03
2015-12-10,101.03,101.03,101.03,101.03,000,101.03
2015-12-09,71.07,71.07,71.07,71.07,400,71.07
2015-12-08,101.03,101.03,101.03,101.03,000,101.03
2015-12-07,101.03,101.03,101.03,101.03,000,101.03
2015-12-04,101.03,101.03,101.03,101.03,000,101.03
2015-12-03,101.03,101.03,101.03,101.03,000,101.03
2015-12-02,101.03,101.03,101.03,101.03,000,101.03
2015-12-01,101.03,101.03,101.03,101.03,000,101.03
2015-11-30,71.33,71.33,71.33,71.33,000,71.33
2015-11-27,75.43,75.43,75.43,75.43,000,75.43
2015-11-26,101.03,101.03,101.03,101.03,000,101.03
2015-11-25,101.03,101.03,101.03,101.03,000,101.03
2015-11-24,101.03,101.03,101.03,101.03,000,101.03
2015-11-23,101.03,101.03,101.03,101.03,000,101.03
2015-11-20,75.43,75.43,75.43,75.43,100,75.43
2015-11-19,101.03,101.03,101.03,101.03,000,101.03
2015-11-18,101.03,101.03,101.03,101.03,000,101.03
2015-11-17,101.03,101.03,101.03,101.03,000,101.03
2015-11-16,101.03,101.03,101.03,101.03,000,101.03
2015-11-13,101.03,101.03,101.03,101.03,000,101.03
2015-11-12,101.03,101.03,101.03,101.03,000,101.03
2015-11-11,101.03,101.03,101.03,101.03,000,101.03
2015-11-10,101.03,101.03,101.03,101.03,000,101.03
2015-11-09,101.03,101.03,101.03,101.03,000,101.03
2015-11-06,101.03,101.03,101.03,101.03,000,101.03
2015-11-05,101.03,101.03,101.03,101.03,000,101.03
2015-11-04,101.03,101.03,101.03,101.03,000,101.03
2015-11-03,101.03,101.03,101.03,101.03,000,101.03
2015-11-02,101.03,101.03,101.03,101.03,000,101.03
2015-10-30,101.03,101.03,101.03,101.03,000,101.03
2015-10-29,101.03,101.03,101.03,101.03,000,101.03
2015-10-28,101.03,101.03,101.03,101.03,000,101.03
2015-10-27,101.03,101.03,101.03,101.03,000,101.03
2015-10-26,101.03,101.03,101.03,101.03,000,101.03
2015-10-23,101.03,101.03,101.03,101.03,000,101.03
2015-10-22,101.03,101.03,101.03,101.03,000,101.03
2015-10-21,101.03,101.03,101.03,101.03,000,101.03
2015-10-20,101.03,101.03,101.03,101.03,000,101.03
2015-10-19,101.03,101.03,101.03,101.03,000,101.03
2015-10-16,101.03,101.03,101.03,101.03,000,101.03
2015-10-15,75.50,75.50,74.90,74.90,500,74.90
2015-10-13,75.50,75.50,75.50,75.50,500,75.50
2015-10-12,101.03,101.03,101.03,101.03,000,101.03
2015-10-09,101.03,101.03,101.03,101.03,000,101.03
2015-10-08,101.03,101.03,101.03,101.03,000,101.03
2015-10-07,101.03,101.03,101.03,101.03,000,101.03
2015-10-06,101.03,101.03,101.03,101.03,000,101.03
2015-10-05,101.03,101.03,101.03,101.03,000,101.03
2015-10-02,101.03,101.03,101.03,101.03,000,101.03
2015-10-01,101.03,101.03,101.03,101.03,000,101.03
2015-09-30,74.66,74.66,74.66,74.66,000,74.66
2015-09-29,101.03,101.03,101.03,101.03,000,101.03
2015-09-28,101.03,101.03,101.03,101.03,000,101.03
2015-09-25,75.08,75.08,75.08,75.08,400,75.08
2015-09-24,101.03,101.03,101.03,101.03,000,101.03
2015-09-23,101.03,101.03,101.03,101.03,000,101.03
2015-09-22,101.03,101.03,101.03,101.03,000,101.03
2015-09-21,101.03,101.03,101.03,101.03,000,101.03
2015-09-18,75.10,75.10,75.10,75.10,500,75.10
2015-09-17,101.03,101.03,101.03,101.03,000,101.03
2015-09-16,101.03,101.03,101.03,101.03,000,101.03
2015-09-15,75.10,75.10,75.10,75.10,000,75.10
2015-09-14,101.03,101.03,101.03,101.03,000,101.03
2015-09-11,101.03,101.03,101.03,101.03,000,101.03
2015-09-10,75.00,75.00,75.00,75.00,500,75.00
2015-09-09,101.03,101.03,101.03,101.03,000,101.03
2015-09-08,101.03,101.03,101.03,101.03,000,101.03
2015-09-07,101.03,101.03,101.03,101.03,000,101.03
2015-09-04,74.90,74.90,74.90,74.90,300,74.90
2015-09-03,101.03,101.03,101.03,101.03,000,101.03
2015-09-02,101.03,101.03,101.03,101.03,000,101.03
2015-09-01,74.86,74.86,74.86,74.86,000,74.86
2015-08-31,74.68,74.68,74.68,74.68,000,74.68
2015-08-28,101.03,101.03,101.03,101.03,000,101.03
2015-08-27,101.03,101.03,101.03,101.03,000,101.03
2015-08-26,101.03,101.03,101.03,101.03,000,101.03
2015-08-25,101.03,101.03,101.03,101.03,000,101.03
2015-08-24,74.73,74.73,74.73,74.73,000,74.73
2015-08-21,101.03,101.03,101.03,101.03,000,101.03
2015-08-20,101.03,101.03,101.03,101.03,000,101.03
2015-08-19,101.03,101.03,101.03,101.03,000,101.03
2015-08-18,74.63,74.63,74.63,74.63,600,74.63
2015-08-17,101.03,101.03,101.03,101.03,000,101.03
2015-08-14,101.03,101.03,101.03,101.03,000,101.03
2015-08-13,101.03,101.03,101.03,101.03,000,101.03
2015-08-12,101.03,101.03,101.03,101.03,000,101.03
2015-08-11,101.03,101.03,101.03,101.03,000,101.03
2015-08-10,101.03,101.03,101.03,101.03,000,101.03
2015-08-07,101.03,101.03,101.03,101.03,000,101.03
2015-08-06,101.03,101.03,101.03,101.03,000,101.03
2015-08-05,74.65,74.65,74.65,74.65,300,74.65
2015-08-04,101.03,101.03,101.03,101.03,000,101.03
2015-08-03,101.03,101.03,101.03,101.03,000,101.03
2015-07-31,74.35,74.35,74.35,74.35,000,74.35
2015-07-30,101.03,101.03,101.03,101.03,000,101.03
2015-07-29,75.36,75.36,75.36,75.36,200,75.36
2015-07-28,101.03,101.03,101.03,101.03,000,101.03
2015-07-27,101.03,101.03,101.03,101.03,000,101.03
2015-07-24,101.03,101.03,101.03,101.03,000,101.03
2015-07-23,101.03,101.03,101.03,101.03,000,101.03
2015-07-22,101.03,101.03,101.03,101.03,000,101.03
2015-07-21,101.03,101.03,101.03,101.03,000,101.03
2015-07-20,101.03,101.03,101.03,101.03,000,101.03
2015-07-17,101.03,101.03,101.03,101.03,000,101.03
2015-07-16,101.03,101.03,101.03,101.03,000,101.03
2015-07-15,101.03,101.03,101.03,101.03,000,101.03
2015-07-14,101.03,101.03,101.03,101.03,000,101.03
2015-07-13,101.03,101.03,101.03,101.03,000,101.03
2015-07-10,101.03,101.03,101.03,101.03,000,101.03
2015-07-09,101.03,101.03,101.03,101.03,000,101.03
2015-07-08,101.03,101.03,101.03,101.03,000,101.03
2015-07-07,75.13,75.13,75.13,75.13,500,75.13
2015-07-06,101.03,101.03,101.03,101.03,000,101.03
2015-07-03,101.03,101.03,101.03,101.03,000,101.03
2015-07-02,101.03,101.03,101.03,101.03,000,101.03
2015-07-01,101.03,101.03,101.03,101.03,000,101.03
2015-06-30,74.90,74.90,74.90,74.90,000,74.90
2015-06-29,101.03,101.03,101.03,101.03,000,101.03
2015-06-26,101.03,101.03,101.03,101.03,000,101.03
2015-06-25,101.03,101.03,101.03,101.03,000,101.03
2015-06-24,101.03,101.03,101.03,101.03,000,101.03
2015-06-23,101.03,101.03,101.03,101.03,000,101.03
2015-06-22,101.03,101.03,101.03,101.03,000,101.03
2015-06-19,101.03,101.03,101.03,101.03,000,101.03
2015-06-18,74.83,74.83,74.83,74.83,100,74.83
2015-06-17,101.03,101.03,101.03,101.03,000,101.03
2015-06-16,101.03,101.03,101.03,101.03,000,101.03
2015-06-15,101.03,101.03,101.03,101.03,000,101.03
2015-06-12,101.03,101.03,101.03,101.03,000,101.03
2015-06-11,101.03,101.03,101.03,101.03,000,101.03
2015-06-10,101.03,101.03,101.03,101.03,000,101.03
2015-06-09,101.03,101.03,101.03,101.03,000,101.03
2015-06-05,101.03,101.03,101.03,101.03,000,101.03
2015-06-04,101.03,101.03,101.03,101.03,000,101.03
2015-06-03,101.03,101.03,101.03,101.03,000,101.03
2015-06-02,101.03,101.03,101.03,101.03,000,101.03
2015-06-01,101.03,101.03,101.03,101.03,000,101.03
2015-05-29,74.80,74.80,74.54,74.54,000,74.54
2015-05-28,101.03,101.03,101.03,101.03,000,101.03
2015-05-27,101.03,101.03,101.03,101.03,000,101.03
2015-05-26,101.03,101.03,101.03,101.03,000,101.03
2015-05-21,101.03,101.03,101.03,101.03,000,101.03
2015-05-20,101.03,101.03,101.03,101.03,000,101.03
2015-05-19,101.03,101.03,101.03,101.03,000,101.03
2015-05-18,101.03,101.03,101.03,101.03,000,101.03
2015-05-15,101.03,101.03,101.03,101.03,000,101.03
2015-05-14,101.03,101.03,101.03,101.03,000,101.03
2015-05-13,74.80,74.80,74.80,74.80,500,74.80
2015-05-12,101.03,101.03,101.03,101.03,000,101.03
2015-05-11,101.03,101.03,101.03,101.03,000,101.03
2015-05-08,101.03,101.03,101.03,101.03,000,101.03
2015-05-07,101.03,101.03,101.03,101.03,000,101.03
2015-05-06,101.03,101.03,101.03,101.03,000,101.03
2015-05-05,101.03,101.03,101.03,101.03,000,101.03
2015-05-04,74.68,74.68,74.68,74.68,500,74.68
2015-05-01,101.03,101.03,101.03,101.03,000,101.03
2015-04-30,74.08,74.08,74.08,74.08,000,74.08
2015-04-29,101.03,101.03,101.03,101.03,000,101.03
2015-04-28,88.12,88.12,88.12,88.12,200,88.12
2015-04-27,101.03,101.03,101.03,101.03,000,101.03
2015-04-24,101.03,101.03,101.03,101.03,000,101.03
2015-04-23,88.04,88.04,88.04,88.04,2000,88.04
2015-04-22,101.03,101.03,101.03,101.03,000,101.03
2015-04-20,101.03,101.03,101.03,101.03,000,101.03
2015-04-17,101.03,101.03,101.03,101.03,000,101.03
2015-04-16,101.03,101.03,101.03,101.03,000,101.03
2015-04-15,87.91,87.91,87.91,87.91,700,87.91
2015-04-14,101.03,101.03,101.03,101.03,000,101.03
2015-04-13,101.03,101.03,101.03,101.03,000,101.03
2015-04-10,101.03,101.03,101.03,101.03,000,101.03
2015-04-09,101.03,101.03,101.03,101.03,000,101.03
2015-04-08,101.03,101.03,101.03,101.03,000,101.03
2015-04-07,101.03,101.03,101.03,101.03,000,101.03
2015-04-02,101.03,101.03,101.03,101.03,000,101.03
2015-04-01,101.03,101.03,101.03,101.03,000,101.03
2015-03-31,87.67,87.67,87.67,87.67,000,87.67
2015-03-30,101.03,101.03,101.03,101.03,000,101.03
2015-03-27,101.03,101.03,101.03,101.03,000,101.03
2015-03-26,101.03,101.03,101.03,101.03,000,101.03
2015-03-25,101.03,101.03,101.03,101.03,000,101.03
2015-03-24,101.03,101.03,101.03,101.03,000,101.03
2015-03-23,101.03,101.03,101.03,101.03,000,101.03
2015-03-20,101.03,101.03,101.03,101.03,000,101.03
2015-03-19,101.03,101.03,101.03,101.03,000,101.03
2015-03-18,101.03,101.03,101.03,101.03,000,101.03
2015-03-17,101.03,101.03,101.03,101.03,000,101.03
2015-03-16,86.51,86.51,86.51,86.51,200,86.51
2015-03-13,101.03,101.03,101.03,101.03,000,101.03
2015-03-12,101.03,101.03,101.03,101.03,000,101.03
2015-03-11,101.03,101.03,101.03,101.03,000,101.03
2015-03-10,101.03,101.03,101.03,101.03,000,101.03
2015-03-09,101.03,101.03,101.03,101.03,000,101.03
2015-03-06,101.03,101.03,101.03,101.03,000,101.03
2015-03-05,86.50,86.50,86.50,86.50,100,86.50
2015-03-04,101.03,101.03,101.03,101.03,000,101.03
2015-03-03,101.03,101.03,101.03,101.03,000,101.03
2015-03-02,101.03,101.03,101.03,101.03,000,101.03
2015-02-27,101.03,101.03,101.03,101.03,000,101.03
2015-02-26,101.03,101.03,101.03,101.03,000,101.03
2015-02-25,101.03,101.03,101.03,101.03,000,101.03
2015-02-24,101.03,101.03,101.03,101.03,000,101.03
2015-02-23,101.03,101.03,101.03,101.03,000,101.03
2015-02-20,101.03,101.03,101.03,101.03,000,101.03
2015-02-19,101.03,101.03,101.03,101.03,000,101.03
2015-02-18,101.03,101.03,101.03,101.03,000,101.03
2015-02-17,101.03,101.03,101.03,101.03,000,101.03
2015-02-16,101.03,101.03,101.03,101.03,000,101.03
2015-02-13,101.03,101.03,101.03,101.03,000,101.03
2015-02-12,101.03,101.03,101.03,101.03,000,101.03
2015-02-11,101.03,101.03,101.03,101.03,000,101.03
2015-02-10,101.03,101.03,101.03,101.03,000,101.03
2015-02-09,94.39,94.39,94.39,94.39,100,94.39
2015-02-06,101.03,101.03,101.03,101.03,000,101.03
2015-02-05,101.03,101.03,101.03,101.03,000,101.03
2015-02-04,101.03,101.03,101.03,101.03,000,101.03
2015-02-03,101.03,101.03,101.03,101.03,000,101.03
2015-02-02,94.25,94.25,94.25,94.25,100,94.25
2015-01-30,101.03,101.03,101.03,101.03,000,101.03
2015-01-29,101.03,101.03,101.03,101.03,000,101.03
2015-01-28,101.03,101.03,101.03,101.03,000,101.03
2015-01-27,101.03,101.03,101.03,101.03,000,101.03
2015-01-23,101.03,101.03,101.03,101.03,000,101.03
2015-01-22,94.03,94.03,94.03,94.03,000,94.03
2015-01-21,101.03,101.03,101.03,101.03,000,101.03
2015-01-20,101.03,101.03,101.03,101.03,000,101.03
2015-01-19,93.96,93.96,93.96,93.96,000,93.96
2015-01-16,101.03,101.03,101.03,101.03,000,101.03
2015-01-15,94.05,94.05,93.88,93.88,100,93.88
2015-01-14,101.03,101.03,101.03,101.03,000,101.03
2015-01-13,94.05,94.05,94.05,94.05,100,94.05
2015-01-12,101.03,101.03,101.03,101.03,000,101.03
2015-01-09,101.03,101.03,101.03,101.03,000,101.03
2015-01-08,101.03,101.03,101.03,101.03,000,101.03
2015-01-07,101.03,101.03,101.03,101.03,000,101.03
2015-01-06,101.03,101.03,101.03,101.03,000,101.03
2015-01-05,101.03,101.03,101.03,101.03,000,101.03
2015-01-02,101.03,101.03,101.03,101.03,000,101.03
2015-01-01,101.03,101.03,101.03,101.03,000,101.03
2014-12-31,93.58,93.58,93.58,93.58,000,93.58
2014-12-30,101.03,101.03,101.03,101.03,000,101.03
2014-12-29,101.03,101.03,101.03,101.03,000,101.03
2014-12-26,101.03,101.03,101.03,101.03,000,101.03
2014-12-25,101.03,101.03,101.03,101.03,000,101.03
2014-12-24,101.03,101.03,101.03,101.03,000,101.03
2014-12-23,101.03,101.03,101.03,101.03,000,101.03
2014-12-22,101.03,101.03,101.03,101.03,000,101.03
2014-12-19,101.03,101.03,101.03,101.03,000,101.03
2014-12-18,101.03,101.03,101.03,101.03,000,101.03
2014-12-17,101.03,101.03,101.03,101.03,000,101.03
2014-12-16,101.03,101.03,101.03,101.03,000,101.03
2014-12-15,101.03,101.03,101.03,101.03,000,101.03
2014-12-12,101.03,101.03,101.03,101.03,000,101.03
2014-12-11,101.03,101.03,101.03,101.03,000,101.03
2014-12-10,101.03,101.03,101.03,101.03,000,101.03
2014-12-09,101.03,101.03,101.03,101.03,000,101.03
2014-12-08,101.03,101.03,101.03,101.03,000,101.03
2014-12-05,101.03,101.03,101.03,101.03,000,101.03
2014-12-04,101.03,101.03,101.03,101.03,000,101.03
2014-12-03,92.67,92.70,92.67,92.70,700,92.70
2014-12-02,101.03,101.03,101.03,101.03,000,101.03
2014-12-01,101.03,101.03,101.03,101.03,000,101.03
2014-11-28,101.03,101.03,101.03,101.03,000,101.03
2014-11-27,101.03,101.03,101.03,101.03,000,101.03
2014-11-26,92.53,92.53,92.53,92.53,500,92.53
2014-11-25,101.03,101.03,101.03,101.03,000,101.03
2014-11-24,101.03,101.03,101.03,101.03,000,101.03
2014-11-21,101.03,101.03,101.03,101.03,000,101.03
2014-11-20,101.03,101.03,101.03,101.03,000,101.03
2014-11-19,101.03,101.03,101.03,101.03,000,101.03
2014-11-18,101.03,101.03,101.03,101.03,000,101.03
2014-11-17,101.03,101.03,101.03,101.03,000,101.03
2014-11-14,94.05,94.05,94.05,94.05,200,94.05
2014-11-13,101.03,101.03,101.03,101.03,000,101.03
2014-11-12,101.03,101.03,101.03,101.03,000,101.03
2014-11-11,101.03,101.03,101.03,101.03,000,101.03
2014-11-10,101.03,101.03,101.03,101.03,000,101.03
2014-11-07,93.97,93.97,93.97,93.97,200,93.97
2014-11-06,101.03,101.03,101.03,101.03,000,101.03
2014-11-05,101.03,101.03,101.03,101.03,000,101.03
2014-11-04,101.03,101.03,101.03,101.03,000,101.03
2014-11-03,101.03,101.03,101.03,101.03,000,101.03
2014-10-31,93.21,93.21,93.21,93.21,000,93.21
2014-10-30,101.03,101.03,101.03,101.03,000,101.03
2014-10-29,101.03,101.03,101.03,101.03,000,101.03
2014-10-28,93.77,93.77,93.77,93.77,700,93.77
2014-10-27,101.03,101.03,101.03,101.03,000,101.03
2014-10-24,101.03,101.03,101.03,101.03,000,101.03
2014-10-23,101.03,101.03,101.03,101.03,000,101.03
2014-10-22,101.03,101.03,101.03,101.03,000,101.03
2014-10-21,93.62,93.62,93.62,93.62,300,93.62
2014-10-20,101.03,101.03,101.03,101.03,000,101.03
2014-10-17,101.03,101.03,101.03,101.03,000,101.03
2014-10-16,101.03,101.03,101.03,101.03,000,101.03
2014-10-15,93.50,93.50,93.50,93.50,100,93.50
2014-10-14,101.03,101.03,101.03,101.03,000,101.03
2014-10-13,101.03,101.03,101.03,101.03,000,101.03
2014-10-10,101.03,101.03,101.03,101.03,000,101.03
2014-10-09,93.57,93.57,93.57,93.57,200,93.57
2014-10-08,101.03,101.03,101.03,101.03,000,101.03
2014-10-07,101.03,101.03,101.03,101.03,000,101.03
2014-10-06,101.03,101.03,101.03,101.03,000,101.03
2014-10-03,101.03,101.03,101.03,101.03,000,101.03
2014-10-02,101.03,101.03,101.03,101.03,000,101.03
2014-10-01,93.42,93.42,93.42,93.42,200,93.42
2014-09-30,93.20,93.20,93.20,93.20,000,93.20
2014-09-29,93.38,93.38,93.11,93.11,1000,93.11
2014-09-26,101.03,101.03,101.03,101.03,000,101.03
2014-09-25,101.03,101.03,101.03,101.03,000,101.03
2014-09-24,93.29,93.29,93.29,93.29,1200,93.29
2014-09-23,101.03,101.03,101.03,101.03,000,101.03
2014-09-22,101.03,101.03,101.03,101.03,000,101.03
2014-09-19,93.19,93.19,93.19,93.19,300,93.19
2014-09-18,101.03,101.03,101.03,101.03,000,101.03
2014-09-17,101.03,101.03,101.03,101.03,000,101.03
2014-09-16,93.13,93.13,93.13,93.13,300,93.13
2014-09-15,101.03,101.03,101.03,101.03,000,101.03
2014-09-12,101.03,101.03,101.03,101.03,000,101.03
2014-09-11,101.03,101.03,101.03,101.03,000,101.03
2014-09-10,101.03,101.03,101.03,101.03,000,101.03
2014-09-09,101.03,101.03,101.03,101.03,000,101.03
2014-09-08,101.03,101.03,101.03,101.03,000,101.03
2014-09-05,101.03,101.03,101.03,101.03,000,101.03
2014-09-04,101.03,101.03,101.03,101.03,000,101.03
2014-09-03,101.03,101.03,101.03,101.03,000,101.03
2014-09-02,101.03,101.03,101.03,101.03,000,101.03
2014-09-01,101.03,101.03,101.03,101.03,000,101.03
2014-08-29,101.03,101.03,101.03,101.03,000,101.03
2014-08-28,93.11,93.11,93.11,93.11,600,93.11
2014-08-27,101.03,101.03,101.03,101.03,000,101.03
2014-08-26,101.03,101.03,101.03,101.03,000,101.03
2014-08-25,93.05,93.05,93.05,93.05,100,93.05
2014-08-22,101.03,101.03,101.03,101.03,000,101.03
2014-08-21,101.03,101.03,101.03,101.03,000,101.03
2014-08-20,101.03,101.03,101.03,101.03,000,101.03
2014-08-19,94.55,94.60,92.94,92.94,1800,92.94
2014-08-18,101.03,101.03,101.03,101.03,000,101.03
2014-08-15,101.03,101.03,101.03,101.03,000,101.03
2014-08-13,101.03,101.03,101.03,101.03,000,101.03
2014-08-12,101.03,101.03,101.03,101.03,000,101.03
2014-08-11,101.03,101.03,101.03,101.03,000,101.03
2014-08-08,101.03,101.03,101.03,101.03,000,101.03
2014-08-07,101.03,101.03,101.03,101.03,000,101.03
2014-08-06,101.03,101.03,101.03,101.03,000,101.03
2014-08-05,101.03,101.03,101.03,101.03,000,101.03
2014-08-04,101.03,101.03,101.03,101.03,000,101.03
2014-08-01,101.03,101.03,101.03,101.03,000,101.03
2014-07-31,92.58,92.58,92.58,92.58,000,92.58
2014-07-30,101.03,101.03,101.03,101.03,000,101.03
2014-07-29,101.03,101.03,101.03,101.03,000,101.03
2014-07-28,101.03,101.03,101.03,101.03,000,101.03
2014-07-25,101.03,101.03,101.03,101.03,000,101.03
2014-07-24,94.50,94.50,94.50,94.50,700,94.50
2014-07-23,101.03,101.03,101.03,101.03,000,101.03
2014-07-22,101.03,101.03,101.03,101.03,000,101.03
2014-07-21,101.03,101.03,101.03,101.03,000,101.03
2014-07-18,101.03,101.03,101.03,101.03,000,101.03
2014-07-17,101.03,101.03,101.03,101.03,000,101.03
2014-07-16,101.03,101.03,101.03,101.03,000,101.03
2014-07-15,101.03,101.03,101.03,101.03,000,101.03
2014-07-14,94.28,94.28,94.28,94.28,1600,94.28
2014-07-11,101.03,101.03,101.03,101.03,000,101.03
2014-07-09,101.03,101.03,101.03,101.03,000,101.03
2014-07-08,94.17,94.30,94.17,94.17,1100,94.17
2014-07-07,101.03,101.03,101.03,101.03,000,101.03
2014-07-04,101.03,101.03,101.03,101.03,000,101.03
2014-07-03,101.03,101.03,101.03,101.03,000,101.03
2014-07-02,101.03,101.03,101.03,101.03,000,101.03
2014-07-01,94.03,94.03,94.03,94.03,300,94.03
2014-06-30,94.04,94.04,94.04,94.04,000,94.04
2014-06-27,101.03,101.03,101.03,101.03,000,101.03
2014-06-26,101.03,101.03,101.03,101.03,000,101.03
2014-06-25,101.03,101.03,101.03,101.03,000,101.03
2014-06-24,93.90,93.90,93.90,93.90,100,93.90
2014-06-23,101.03,101.03,101.03,101.03,000,101.03
2014-06-20,101.03,101.03,101.03,101.03,000,101.03
2014-06-19,101.03,101.03,101.03,101.03,000,101.03
2014-06-18,101.03,101.03,101.03,101.03,000,101.03
2014-06-17,101.03,101.03,101.03,101.03,000,101.03
2014-06-16,101.03,101.03,101.03,101.03,000,101.03
2014-06-13,101.03,101.03,101.03,101.03,000,101.03
2014-06-12,101.03,101.03,101.03,101.03,000,101.03
2014-06-11,101.03,101.03,101.03,101.03,000,101.03
2014-06-10,101.03,101.03,101.03,101.03,000,101.03
2014-06-09,101.03,101.03,101.03,101.03,000,101.03
2014-06-06,93.49,93.49,93.49,93.49,300,93.49
2014-06-05,101.03,101.03,101.03,101.03,000,101.03
2014-06-04,101.03,101.03,101.03,101.03,000,101.03
2014-06-03,101.03,101.03,101.03,101.03,000,101.03
2014-06-02,101.03,101.03,101.03,101.03,000,101.03
2014-05-30,101.03,101.03,101.03,101.03,000,101.03
2014-05-29,93.34,93.34,93.34,93.34,100,93.34
2014-05-28,101.03,101.03,101.03,101.03,000,101.03
2014-05-27,101.03,101.03,101.03,101.03,000,101.03
2014-05-26,101.03,101.03,101.03,101.03,000,101.03
2014-05-23,101.03,101.03,101.03,101.03,000,101.03
2014-05-22,101.03,101.03,101.03,101.03,000,101.03
2014-05-21,101.03,101.03,101.03,101.03,000,101.03
2014-05-20,93.17,94.00,93.17,94.00,800,94.00
2014-05-19,101.03,101.03,101.03,101.03,000,101.03
2014-05-16,101.03,101.03,101.03,101.03,000,101.03
2014-05-15,101.03,101.03,101.03,101.03,000,101.03
2014-05-14,101.03,101.03,101.03,101.03,000,101.03
2014-05-13,101.03,101.03,101.03,101.03,000,101.03
2014-05-12,101.03,101.03,101.03,101.03,000,101.03
2014-05-09,101.03,101.03,101.03,101.03,000,101.03
2014-05-08,101.03,101.03,101.03,101.03,000,101.03
2014-05-07,101.03,101.03,101.03,101.03,000,101.03
2014-05-06,101.03,101.03,101.03,101.03,000,101.03
2014-05-05,101.03,101.03,101.03,101.03,000,101.03
2014-05-02,101.03,101.03,101.03,101.03,000,101.03
2014-05-01,101.03,101.03,101.03,101.03,000,101.03
2014-04-30,92.79,92.79,92.79,92.79,000,92.79
2014-04-29,101.03,101.03,101.03,101.03,000,101.03
2014-04-28,101.03,101.03,101.03,101.03,000,101.03
2014-04-25,101.03,101.03,101.03,101.03,000,101.03
2014-04-24,101.03,101.03,101.03,101.03,000,101.03
2014-04-23,101.03,101.03,101.03,101.03,000,101.03
2014-04-21,101.03,101.03,101.03,101.03,000,101.03
2014-04-18,101.03,101.03,101.03,101.03,000,101.03
2014-04-17,101.03,101.03,101.03,101.03,000,101.03
2014-04-16,101.03,101.03,101.03,101.03,000,101.03
2014-04-15,101.03,101.03,101.03,101.03,000,101.03
2014-04-14,101.03,101.03,101.03,101.03,000,101.03
2014-04-11,101.03,101.03,101.03,101.03,000,101.03
2014-04-10,101.03,101.03,101.03,101.03,000,101.03
2014-04-09,101.37,101.37,101.37,101.37,400,101.37
2014-04-08,101.03,101.03,101.03,101.03,000,101.03
2014-04-07,101.03,101.03,101.03,101.03,000,101.03
2014-04-04,101.03,101.03,101.03,101.03,000,101.03
2014-04-03,101.03,101.03,101.03,101.03,000,101.03
2014-04-02,101.03,101.03,101.03,101.03,000,101.03
2014-04-01,101.03,101.03,101.03,101.03,000,101.03
2014-03-31,101.02,101.02,101.02,101.02,000,101.02
2014-03-28,101.03,101.03,101.03,101.03,000,101.03
2014-03-27,101.03,101.03,101.03,101.03,000,101.03
2014-03-26,101.03,101.03,101.03,101.03,000,101.03
2014-03-25,101.03,101.03,101.03,101.03,000,101.03
2014-03-24,101.03,101.03,101.03,101.03,000,101.03
2014-03-21,101.03,101.03,101.03,101.03,000,101.03
2014-03-20,101.03,101.03,101.03,101.03,000,101.03
2014-03-19,101.03,101.03,101.03,101.03,000,101.03
2014-03-18,101.03,101.03,101.03,101.03,000,101.03
2014-03-17,101.03,101.03,101.03,101.03,000,101.03
2014-03-14,101.03,101.03,101.03,101.03,000,101.03
2014-03-13,101.03,101.03,101.03,101.03,000,101.03
2014-03-12,101.03,101.03,101.03,101.03,000,101.03
2014-03-11,101.03,101.03,101.03,101.03,000,101.03
2014-03-10,101.03,101.03,101.03,101.03,000,101.03
2014-03-07,101.03,101.03,101.03,101.03,000,101.03
2014-03-06,101.03,101.03,101.03,101.03,000,101.03
2014-03-05,101.03,101.03,101.03,101.03,000,101.03
2014-03-04,101.03,101.03,101.03,101.03,000,101.03
2014-03-03,101.03,101.03,101.03,101.03,000,101.03
2014-02-28,100.54,100.54,100.54,100.54,000,100.54
2014-02-27,101.03,101.03,101.03,101.03,000,101.03
2014-02-26,101.03,101.03,101.03,101.03,000,101.03
2014-02-25,101.03,101.03,101.03,101.03,000,101.03
2014-02-24,101.03,101.03,101.03,101.03,000,101.03
2014-02-21,101.03,101.03,101.03,101.03,000,101.03
2014-02-20,101.03,101.03,101.03,101.03,000,101.03
2014-02-19,101.03,101.03,101.03,101.03,000,101.03
2014-02-18,101.03,101.03,101.03,101.03,000,101.03
2014-02-17,101.03,101.03,101.03,101.03,000,101.03
2014-02-14,101.03,101.03,101.03,101.03,000,101.03
2014-02-13,101.03,101.03,101.03,101.03,000,101.03
2014-02-12,101.03,101.03,101.03,101.03,000,101.03
2014-02-11,101.03,101.03,101.03,101.03,000,101.03
2014-02-10,101.03,101.03,101.03,101.03,000,101.03
2014-02-07,101.03,101.03,101.03,101.03,000,101.03
2014-02-06,101.03,101.03,101.03,101.03,000,101.03
2014-02-05,101.03,101.03,101.03,101.03,000,101.03
2014-02-04,101.03,101.03,101.03,101.03,000,101.03
2014-02-03,101.03,101.03,101.03,101.03,000,101.03
2014-01-31,100.14,100.14,100.14,100.14,000,100.14
2014-01-30,101.03,101.03,101.03,101.03,000,101.03
2014-01-29,101.03,101.03,101.03,101.03,000,101.03
2014-01-28,101.03,101.03,101.03,101.03,000,101.03
2014-01-27,101.03,101.03,101.03,101.03,000,101.03
2014-01-24,101.03,101.03,101.03,101.03,000,101.03
2014-01-23,101.03,101.03,101.03,101.03,000,101.03
2014-01-22,101.03,101.03,101.03,101.03,000,101.03
2014-01-21,101.03,101.03,101.03,101.03,000,101.03
2014-01-20,101.03,101.03,101.03,101.03,000,101.03
2014-01-17,101.03,101.03,101.03,101.03,000,101.03
2014-01-16,101.03,101.03,101.03,101.03,000,101.03
2014-01-15,101.03,101.03,101.03,101.03,000,101.03
2014-01-14,101.03,101.03,101.03,101.03,000,101.03
2014-01-13,101.03,101.03,101.03,101.03,000,101.03
2014-01-10,101.03,101.03,101.03,101.03,000,101.03
2014-01-09,101.03,101.03,101.03,101.03,000,101.03
2014-01-08,101.03,101.03,101.03,101.03,000,101.03
2014-01-07,101.03,101.03,101.03,101.03,000,101.03
2014-01-06,101.03,101.03,101.03,101.03,000,101.03
2014-01-03,101.03,101.03,101.03,101.03,000,101.03
2014-01-02,101.03,101.03,101.03,101.03,000,101.03
2014-01-01,101.03,101.03,101.03,101.03,000,101.03
2013-12-31,100.71,100.71,100.71,100.71,000,100.71
2013-12-30,101.03,101.03,101.03,101.03,000,101.03
2013-12-27,101.03,101.03,101.03,101.03,000,101.03
2013-12-26,101.03,101.03,101.03,101.03,000,101.03
2013-12-25,101.03,101.03,101.03,101.03,000,101.03
2013-12-24,101.03,101.03,101.03,101.03,000,101.03
2013-12-23,101.03,101.03,101.03,101.03,000,101.03
2013-12-20,101.03,101.03,101.03,101.03,000,101.03
2013-12-19,101.03,101.03,101.03,101.03,000,101.03
2013-12-18,101.03,101.03,101.03,101.03,000,101.03
2013-12-17,101.03,101.03,101.03,101.03,000,101.03
2013-12-16,101.03,101.03,101.03,101.03,000,101.03
2013-12-13,101.03,101.03,101.03,101.03,000,101.03
2013-12-12,101.03,101.03,101.03,101.03,000,101.03
2013-12-11,101.03,101.03,101.03,101.03,000,101.03
2013-12-10,101.03,101.03,101.03,101.03,000,101.03
2013-12-09,101.03,101.03,101.03,101.03,000,101.03
2013-12-06,101.03,101.03,101.03,101.03,000,101.03
2013-12-05,101.03,101.03,101.03,101.03,000,101.03
2013-12-04,101.03,101.03,101.03,101.03,000,101.03
2013-12-03,101.03,101.03,101.03,101.03,000,101.03
2013-12-02,101.03,101.03,101.03,101.03,000,101.03
2013-11-29,100.17,100.17,100.17,100.17,000,100.17
2013-11-28,101.03,101.03,101.03,101.03,000,101.03
2013-11-27,101.03,101.03,101.03,101.03,000,101.03
2013-11-26,101.03,101.03,101.03,101.03,000,101.03
2013-11-25,101.03,101.03,101.03,101.03,000,101.03
2013-11-22,101.03,101.03,101.03,101.03,000,101.03
2013-11-21,101.03,101.03,101.03,101.03,000,101.03
2013-10-31,101.03,101.03,101.03,101.03,000,101.03
