Date,Open,High,Low,Close,Volume,Adj Close
2017-01-10,0.041,0.046,0.041,0.046,225400,0.046
2017-01-09,0.04,0.04,0.04,0.04,760000,0.04
2017-01-06,0.04,0.043,0.04,0.043,441400,0.043
2017-01-05,0.043,0.043,0.043,0.043,000,0.043
2017-01-04,0.04,0.044,0.04,0.043,262700,0.043
2017-01-03,0.042,0.042,0.04,0.04,344000,0.04
2017-01-02,0.04,0.04,0.04,0.04,000,0.04
2016-12-30,0.04,0.04,0.04,0.04,100000,0.04
2016-12-29,0.04,0.04,0.039,0.039,105000,0.039
2016-12-28,0.04,0.04,0.04,0.04,240000,0.04
2016-12-27,0.043,0.043,0.043,0.043,000,0.043
2016-12-26,0.043,0.043,0.043,0.043,000,0.043
2016-12-23,0.038,0.043,0.038,0.043,404900,0.043
2016-12-22,0.032,0.032,0.032,0.032,000,0.032
2016-12-21,0.032,0.032,0.032,0.032,000,0.032
2016-12-20,0.032,0.032,0.032,0.032,000,0.032
2016-12-19,0.032,0.032,0.032,0.032,000,0.032
2016-12-16,0.032,0.032,0.032,0.032,000,0.032
2016-12-15,0.032,0.032,0.032,0.032,100000,0.032
2016-12-14,0.035,0.035,0.032,0.032,486000,0.032
2016-12-13,0.035,0.035,0.035,0.035,20000,0.035
2016-12-12,0.04,0.04,0.04,0.04,000,0.04
2016-12-09,0.04,0.04,0.04,0.04,000,0.04
2016-12-08,0.04,0.04,0.04,0.04,000,0.04
2016-12-07,0.04,0.04,0.04,0.04,000,0.04
2016-12-06,0.04,0.04,0.04,0.04,000,0.04
2016-12-05,0.04,0.04,0.04,0.04,000,0.04
2016-12-02,0.04,0.04,0.04,0.04,41000,0.04
2016-12-01,0.038,0.038,0.038,0.038,450000,0.038
2016-11-30,0.031,0.031,0.031,0.031,000,0.031
2016-11-29,0.031,0.031,0.031,0.031,000,0.031
2016-11-28,0.031,0.031,0.031,0.031,000,0.031
2016-11-25,0.031,0.031,0.031,0.031,000,0.031
2016-11-24,0.031,0.031,0.031,0.031,400,0.031
2016-11-23,0.03,0.03,0.03,0.03,000,0.03
2016-11-22,0.03,0.03,0.03,0.03,000,0.03
2016-11-21,0.03,0.03,0.03,0.03,000,0.03
2016-11-18,0.03,0.03,0.03,0.03,000,0.03
2016-11-17,0.029,0.03,0.028,0.03,400000,0.03
2016-11-16,0.026,0.026,0.026,0.026,000,0.026
2016-11-15,0.026,0.026,0.026,0.026,500000,0.026
2016-11-14,0.034,0.034,0.026,0.026,200000,0.026
2016-11-11,0.034,0.036,0.034,0.034,249000,0.034
2016-11-10,0.036,0.036,0.036,0.036,000,0.036
2016-11-09,0.036,0.036,0.036,0.036,000,0.036
2016-11-08,0.036,0.036,0.036,0.036,31000,0.036
2016-11-07,0.036,0.036,0.036,0.036,000,0.036
2016-11-04,0.036,0.036,0.036,0.036,000,0.036
2016-11-03,0.038,0.038,0.038,0.038,10500,0.038
2016-11-02,0.037,0.037,0.036,0.037,525000,0.037
2016-11-01,0.042,0.042,0.038,0.038,111400,0.038
2016-10-31,0.037,0.037,0.037,0.037,811000,0.037
2016-10-28,0.04,0.04,0.04,0.04,20000,0.04
2016-10-27,0.037,0.037,0.037,0.037,33500,0.037
2016-10-26,0.043,0.043,0.043,0.043,000,0.043
2016-10-25,0.043,0.043,0.043,0.043,000,0.043
2016-10-24,0.043,0.043,0.043,0.043,750000,0.043
2016-10-21,0.046,0.047,0.046,0.046,13804100,0.046
2016-10-20,0.047,0.047,0.046,0.046,8930700,0.046
2016-10-19,0.046,0.0465,0.046,0.046,6657600,0.046
2016-10-18,0.046,0.046,0.046,0.046,163000,0.046
2016-10-17,0.048,0.048,0.046,0.046,2604200,0.046
2016-10-14,0.046,0.048,0.046,0.047,2783600,0.047
2016-10-13,0.046,0.047,0.046,0.046,5581300,0.046
2016-10-12,0.046,0.046,0.046,0.046,60000,0.046
2016-10-11,0.047,0.047,0.047,0.047,50000,0.047
2016-10-10,0.046,0.049,0.046,0.046,1738600,0.046
2016-10-07,0.046,0.046,0.046,0.046,398900,0.046
2016-10-06,0.046,0.046,0.046,0.046,50000,0.046
2016-10-05,0.047,0.047,0.046,0.046,824700,0.046
2016-10-04,0.049,0.049,0.047,0.047,5492800,0.047
2016-10-03,0.049,0.049,0.048,0.048,259500,0.048
2016-09-30,0.048,0.048,0.048,0.048,41900,0.048
2016-09-29,0.048,0.0485,0.048,0.048,1007100,0.048
2016-09-28,0.047,0.048,0.047,0.048,669700,0.048
2016-09-27,0.048,0.049,0.047,0.048,577700,0.048
2016-09-26,0.048,0.048,0.048,0.048,702400,0.048
2016-09-23,0.048,0.048,0.048,0.048,624200,0.048
2016-09-22,0.047,0.049,0.047,0.048,1051100,0.048
2016-09-21,0.05,0.051,0.046,0.047,11928900,0.047
2016-09-20,0.049,0.049,0.049,0.049,25400,0.049
2016-09-19,0.049,0.049,0.047,0.047,419700,0.047
2016-09-16,0.048,0.049,0.048,0.049,226400,0.049
2016-09-15,0.048,0.05,0.048,0.05,204300,0.05
2016-09-14,0.048,0.049,0.048,0.048,303400,0.048
2016-09-13,0.047,0.048,0.047,0.048,669000,0.048
2016-09-12,0.048,0.048,0.047,0.047,755400,0.047
2016-09-09,0.048,0.048,0.046,0.047,4742400,0.047
2016-09-08,0.049,0.049,0.047,0.047,202800,0.047
2016-09-07,0.053,0.053,0.048,0.049,4416800,0.049
2016-09-06,0.037,0.059,0.037,0.049,11501200,0.049
2016-09-05,0.042,0.042,0.034,0.037,3634800,0.037
2016-09-02,0.025,0.065,0.025,0.045,16724400,0.045
2016-09-01,0.024,0.025,0.023,0.023,318000,0.023
2016-08-31,0.021,0.021,0.021,0.021,000,0.021
2016-08-30,0.021,0.021,0.021,0.021,000,0.021
2016-08-29,0.021,0.021,0.021,0.021,70000,0.021
2016-08-26,0.021,0.021,0.021,0.021,1500,0.021
2016-08-25,0.02,0.02,0.02,0.02,000,0.02
2016-08-24,0.02,0.022,0.02,0.02,300000,0.02
2016-08-23,0.024,0.024,0.024,0.024,532700,0.024
2016-08-22,0.02,0.02,0.02,0.02,000,0.02
2016-08-19,0.02,0.02,0.02,0.02,75000,0.02
2016-08-18,0.02,0.02,0.019,0.02,525000,0.02
2016-08-17,0.02,0.02,0.02,0.02,000,0.02
2016-08-16,0.02,0.02,0.02,0.02,000,0.02
2016-08-15,0.02,0.02,0.02,0.02,212200,0.02
2016-08-12,0.02,0.02,0.02,0.02,000,0.02
2016-08-11,0.02,0.02,0.02,0.02,000,0.02
2016-08-10,0.02,0.02,0.02,0.02,75000,0.02
2016-08-09,0.024,0.024,0.024,0.024,50000,0.024
2016-08-08,0.023,0.024,0.023,0.024,102000,0.024
2016-08-05,0.022,0.022,0.022,0.022,38600,0.022
2016-08-04,0.018,0.018,0.018,0.018,000,0.018
2016-08-03,0.019,0.019,0.018,0.018,174500,0.018
2016-08-02,0.019,0.019,0.019,0.019,000,0.019
2016-08-01,0.019,0.019,0.018,0.019,150000,0.019
2016-07-29,0.018,0.018,0.018,0.018,000,0.018
2016-07-28,0.018,0.018,0.018,0.018,000,0.018
2016-07-27,0.021,0.021,0.018,0.018,151900,0.018
2016-07-26,0.024,0.024,0.024,0.024,000,0.024
2016-07-25,0.023,0.024,0.023,0.024,100000,0.024
2016-07-22,0.022,0.022,0.021,0.021,276200,0.021
2016-07-21,0.021,0.025,0.02,0.025,458500,0.025
2016-07-20,0.023,0.024,0.021,0.021,818400,0.021
2016-07-19,0.024,0.024,0.018,0.019,692600,0.019
2016-07-18,0.025,0.025,0.022,0.022,309000,0.022
2016-07-15,0.024,0.024,0.024,0.024,41600,0.024
2016-07-14,0.024,0.024,0.024,0.024,121900,0.024
2016-07-13,0.023,0.024,0.023,0.024,252700,0.024
2016-07-12,0.022,0.023,0.022,0.022,242000,0.022
2016-07-11,0.022,0.022,0.022,0.022,143000,0.022
2016-07-08,0.024,0.024,0.022,0.022,120000,0.022
2016-07-07,0.024,0.024,0.024,0.024,200000,0.024
2016-07-06,0.023,0.023,0.023,0.023,60000,0.023
2016-07-05,0.022,0.026,0.022,0.023,221200,0.023
2016-07-04,0.02,0.028,0.02,0.022,1604400,0.022
2016-07-01,0.015,0.015,0.015,0.015,000,0.015
2016-06-30,0.015,0.015,0.015,0.015,000,0.015
2016-06-29,0.015,0.015,0.015,0.015,000,0.015
2016-06-28,0.016,0.016,0.015,0.015,314400,0.015
2016-06-27,0.015,0.015,0.015,0.015,000,0.015
2016-06-24,0.017,0.017,0.015,0.015,450000,0.015
2016-06-23,0.015,0.015,0.015,0.015,100000,0.015
2016-06-22,0.016,0.016,0.015,0.015,69500,0.015
2016-06-21,0.014,0.016,0.014,0.015,508400,0.015
2016-06-20,0.016,0.016,0.013,0.013,545000,0.013
2016-06-17,0.013,0.016,0.013,0.016,459900,0.016
2016-06-16,0.015,0.015,0.013,0.013,250000,0.013
2016-06-15,0.017,0.017,0.014,0.016,1017800,0.016
2016-06-14,0.019,0.019,0.018,0.018,213900,0.018
2016-06-13,0.018,0.018,0.018,0.018,000,0.018
2016-06-10,0.018,0.018,0.018,0.018,000,0.018
2016-06-09,0.018,0.018,0.018,0.018,000,0.018
2016-06-08,0.018,0.018,0.018,0.018,157900,0.018
2016-06-07,0.023,0.023,0.023,0.023,548000,0.023
2016-06-06,0.023,0.023,0.023,0.023,000,0.023
2016-06-03,0.019,0.023,0.019,0.023,310700,0.023
2016-06-02,0.015,0.015,0.015,0.015,20000,0.015
2016-06-01,0.016,0.016,0.012,0.012,371500,0.012
2016-05-31,0.016,0.016,0.016,0.016,381200,0.016
2016-05-30,0.017,0.017,0.016,0.016,430000,0.016
2016-05-27,0.017,0.017,0.017,0.017,000,0.017
2016-05-26,0.02,0.02,0.015,0.017,355200,0.017
2016-05-25,0.02,0.02,0.02,0.02,19000,0.02
2016-05-24,0.02,0.02,0.02,0.02,000,0.02
2016-05-23,0.02,0.02,0.02,0.02,000,0.02
2016-05-20,0.02,0.02,0.02,0.02,100000,0.02
2016-05-19,0.02,0.02,0.02,0.02,000,0.02
2016-05-18,0.021,0.021,0.02,0.02,585600,0.02
2016-05-17,0.023,0.023,0.021,0.021,191100,0.021
2016-05-16,0.023,0.023,0.023,0.023,000,0.023
2016-05-13,0.023,0.023,0.023,0.023,900,0.023
2016-05-12,0.023,0.023,0.023,0.023,24000,0.023
2016-05-11,0.022,0.022,0.022,0.022,350000,0.022
2016-05-10,0.022,0.022,0.02,0.022,315500,0.022
2016-05-09,0.029,0.029,0.028,0.028,55600,0.028
2016-05-06,0.024,0.026,0.024,0.026,101800,0.026
2016-05-05,0.026,0.026,0.026,0.026,1155000,0.026
2016-05-04,0.026,0.026,0.024,0.024,257000,0.024
2016-05-03,0.027,0.027,0.026,0.026,132200,0.026
2016-05-02,0.024,0.026,0.024,0.026,64800,0.026
2016-04-29,0.021,0.024,0.02,0.024,115000,0.024
2016-04-28,0.022,0.022,0.021,0.021,100000,0.021
2016-04-27,0.022,0.022,0.022,0.022,20000,0.022
2016-04-26,0.025,0.025,0.025,0.025,000,0.025
2016-04-25,0.025,0.025,0.025,0.025,000,0.025
2016-04-22,0.024,0.025,0.023,0.025,151500,0.025
2016-04-21,0.024,0.024,0.024,0.024,207000,0.024
2016-04-20,0.027,0.027,0.027,0.027,000,0.027
2016-04-19,0.022,0.029,0.022,0.027,887000,0.027
2016-04-18,0.026,0.026,0.026,0.026,20000,0.026
2016-04-15,0.027,0.027,0.026,0.026,57300,0.026
2016-04-14,0.025,0.028,0.025,0.028,626600,0.028
2016-04-13,0.026,0.026,0.022,0.022,212000,0.022
2016-04-12,0.028,0.029,0.023,0.023,605800,0.023
2016-04-11,0.026,0.03,0.026,0.028,400700,0.028
2016-04-08,0.029,0.029,0.026,0.026,528700,0.026
2016-04-07,0.024,0.029,0.024,0.029,349100,0.029
2016-04-06,0.025,0.025,0.024,0.024,259500,0.024
2016-04-05,0.026,0.026,0.025,0.025,120600,0.025
2016-04-04,0.028,0.028,0.028,0.028,143900,0.028
2016-04-01,0.026,0.026,0.026,0.026,60900,0.026
2016-03-31,0.026,0.026,0.026,0.026,442000,0.026
2016-03-30,0.03,0.03,0.03,0.03,381600,0.03
2016-03-29,0.029,0.031,0.029,0.03,337700,0.03
2016-03-28,0.029,0.029,0.029,0.029,000,0.029
2016-03-25,0.029,0.029,0.029,0.029,000,0.029
2016-03-24,0.033,0.033,0.029,0.029,697200,0.029
2016-03-23,0.029,0.035,0.025,0.03,9488700,0.03
2016-03-22,0.022,0.022,0.022,0.022,96500,0.022
2016-03-21,0.022,0.022,0.022,0.022,000,0.022
2016-03-18,0.022,0.022,0.021,0.022,384600,0.022
2016-03-17,0.023,0.023,0.021,0.022,330000,0.022
2016-03-16,0.023,0.023,0.022,0.023,454700,0.023
2016-03-15,0.023,0.023,0.023,0.023,100000,0.023
2016-03-14,0.023,0.025,0.023,0.023,634500,0.023
2016-03-11,0.025,0.025,0.025,0.025,22000,0.025
2016-03-10,0.024,0.024,0.024,0.024,187000,0.024
2016-03-09,0.023,0.025,0.022,0.022,557100,0.022
2016-03-08,0.024,0.024,0.023,0.023,733400,0.023
2016-03-07,0.025,0.025,0.025,0.025,359900,0.025
2016-03-04,0.025,0.026,0.023,0.023,880500,0.023
2016-03-03,0.022,0.026,0.021,0.026,859000,0.026
2016-03-02,0.022,0.022,0.022,0.022,355000,0.022
2016-03-01,0.022,0.022,0.021,0.022,290000,0.022
2016-02-29,0.024,0.024,0.021,0.023,460000,0.023
2016-02-26,0.027,0.027,0.024,0.025,603600,0.025
2016-02-25,0.029,0.029,0.027,0.027,47500,0.027
2016-02-24,0.026,0.027,0.026,0.027,325000,0.027
2016-02-23,0.027,0.03,0.025,0.03,165100,0.03
2016-02-22,0.03,0.03,0.03,0.03,500,0.03
2016-02-19,0.031,0.032,0.027,0.03,285000,0.03
2016-02-18,0.029,0.03,0.026,0.03,102500,0.03
2016-02-17,0.03,0.032,0.03,0.03,239000,0.03
2016-02-16,0.03,0.03,0.028,0.028,259000,0.028
2016-02-15,0.033,0.033,0.031,0.031,78400,0.031
2016-02-12,0.031,0.033,0.031,0.033,241900,0.033
2016-02-11,0.029,0.033,0.029,0.029,336200,0.029
2016-02-10,0.027,0.029,0.027,0.029,454500,0.029
2016-02-09,0.033,0.033,0.027,0.028,968700,0.028
2016-02-08,0.03,0.03,0.03,0.03,000,0.03
2016-02-05,0.028,0.032,0.028,0.03,310000,0.03
2016-02-04,0.031,0.035,0.029,0.029,1009600,0.029
2016-02-03,0.036,0.036,0.03,0.03,1012300,0.03
2016-02-02,0.042,0.047,0.034,0.034,2805100,0.034
2016-02-01,0.02,0.065,0.02,0.042,16380900,0.042
2016-01-29,0.018,0.018,0.018,0.018,000,0.018
2016-01-28,0.018,0.018,0.018,0.018,28000,0.018
2016-01-27,0.019,0.02,0.018,0.019,880000,0.019
2016-01-26,0.018,0.018,0.018,0.018,000,0.018
2016-01-25,0.018,0.018,0.018,0.018,250000,0.018
2016-01-22,0.017,0.018,0.017,0.018,466000,0.018
2016-01-21,0.018,0.018,0.016,0.018,166800,0.018
2016-01-20,0.018,0.019,0.018,0.018,1076100,0.018
2016-01-19,0.019,0.019,0.019,0.019,450000,0.019
2016-01-18,0.019,0.019,0.019,0.019,000,0.019
2016-01-15,0.019,0.019,0.018,0.019,499200,0.019
2016-01-14,0.019,0.019,0.019,0.019,000,0.019
2016-01-13,0.018,0.019,0.018,0.019,838300,0.019
2016-01-12,0.018,0.019,0.018,0.019,1656100,0.019
2016-01-11,0.018,0.018,0.018,0.018,122600,0.018
2016-01-08,0.019,0.02,0.019,0.02,198000,0.02
2016-01-07,0.02,0.02,0.019,0.019,589000,0.019
2016-01-06,0.018,0.019,0.018,0.018,1504100,0.018
2016-01-05,0.02,0.02,0.019,0.02,1648900,0.02
2016-01-04,0.02,0.02,0.018,0.02,2143600,0.02
2016-01-01,0.02,0.02,0.02,0.02,000,0.02
2015-12-31,0.019,0.02,0.018,0.02,2821500,0.02
2015-12-30,0.018,0.019,0.017,0.019,3594600,0.019
2015-12-29,0.02,0.025,0.017,0.017,13374200,0.017
2015-12-28,0.023,0.023,0.023,0.023,000,0.023
2015-12-25,0.023,0.023,0.023,0.023,000,0.023
2015-12-24,0.01,0.034,0.01,0.023,26248200,0.023
2015-12-23,0.013,0.017,0.009,0.01,23230300,0.01
2015-12-22,0.125,0.125,0.125,0.125,000,0.125
2015-12-21,0.125,0.125,0.125,0.125,000,0.125
2015-12-18,0.125,0.125,0.125,0.125,000,0.125
2015-12-17,0.125,0.125,0.125,0.125,000,0.125
2015-12-16,0.125,0.125,0.125,0.125,000,0.125
2015-12-15,0.125,0.125,0.125,0.125,000,0.125
2015-12-14,0.125,0.125,0.125,0.125,000,0.125
2015-12-11,0.125,0.125,0.125,0.125,000,0.125
2015-12-10,0.125,0.125,0.125,0.125,000,0.125
2015-12-09,0.125,0.125,0.125,0.125,000,0.125
2015-12-08,0.125,0.125,0.125,0.125,000,0.125
2015-12-07,0.125,0.125,0.125,0.125,000,0.125
2015-12-04,0.125,0.125,0.125,0.125,000,0.125
2015-12-03,0.125,0.125,0.125,0.125,000,0.125
2015-12-02,0.125,0.125,0.125,0.125,000,0.125
2015-12-01,0.125,0.125,0.125,0.125,000,0.125
2015-11-30,0.125,0.125,0.125,0.125,000,0.125
2015-11-27,0.125,0.125,0.125,0.125,000,0.125
2015-11-26,0.125,0.125,0.125,0.125,000,0.125
2015-11-25,0.125,0.125,0.125,0.125,000,0.125
2015-11-24,0.125,0.125,0.125,0.125,000,0.125
2015-11-23,0.125,0.125,0.125,0.125,000,0.125
2015-11-20,0.125,0.125,0.125,0.125,000,0.125
2015-11-19,0.125,0.125,0.125,0.125,000,0.125
2015-11-18,0.125,0.125,0.125,0.125,000,0.125
2015-11-17,0.125,0.125,0.125,0.125,000,0.125
2015-11-16,0.125,0.125,0.125,0.125,000,0.125
2015-11-13,0.125,0.125,0.125,0.125,000,0.125
2015-11-12,0.135,0.135,0.125,0.125,1212900,0.125
2015-11-11,0.125,0.14,0.08,0.13,1810000,0.13
2015-11-10,0.135,0.135,0.125,0.125,829500,0.125
2015-11-09,0.14,0.14,0.13,0.13,838000,0.13
2015-11-06,0.16,0.165,0.135,0.14,1507900,0.14
2015-11-05,0.135,0.155,0.13,0.15,1153900,0.15
2015-11-04,0.13,0.135,0.12,0.125,478900,0.125
2015-11-03,0.11,0.13,0.11,0.13,257400,0.13
2015-11-02,0.12,0.12,0.11,0.11,507900,0.11
2015-10-30,0.115,0.13,0.115,0.12,396200,0.12
2015-10-29,0.12,0.125,0.115,0.12,739000,0.12
2015-10-28,0.125,0.125,0.115,0.12,389900,0.12
2015-10-27,0.125,0.14,0.12,0.12,943100,0.12
2015-10-26,0.165,0.18,0.10,0.14,4840000,0.14
2015-10-23,0.14,0.14,0.14,0.14,000,0.14
2015-10-22,0.089,0.14,0.083,0.14,3377400,0.14
2015-10-21,0.088,0.089,0.085,0.089,2030700,0.089
2015-10-20,0.084,0.084,0.074,0.082,1381200,0.082
2015-10-19,0.093,0.093,0.084,0.086,2218400,0.086
2015-10-16,0.087,0.095,0.08,0.084,2932800,0.084
2015-10-15,0.066,0.105,0.065,0.085,9358900,0.085
2015-10-14,0.069,0.069,0.056,0.062,3774600,0.062
2015-10-13,0.043,0.074,0.043,0.067,7505300,0.067
2015-10-12,0.025,0.043,0.025,0.04,5800900,0.04
2015-10-09,0.018,0.021,0.018,0.021,786100,0.021
2015-10-08,0.017,0.017,0.017,0.017,100000,0.017
2015-10-07,0.018,0.018,0.014,0.015,1067800,0.015
2015-10-06,0.022,0.022,0.022,0.022,000,0.022
2015-10-05,0.022,0.022,0.022,0.022,000,0.022
2015-10-02,0.022,0.022,0.022,0.022,60000,0.022
2015-10-01,0.021,0.021,0.021,0.021,000,0.021
2015-09-30,0.02,0.021,0.02,0.021,410900,0.021
2015-09-29,0.019,0.02,0.019,0.02,370000,0.02
2015-09-28,0.02,0.02,0.019,0.019,168500,0.019
2015-09-25,0.018,0.018,0.018,0.018,000,0.018
2015-09-24,0.018,0.018,0.018,0.018,812700,0.018
2015-09-23,0.018,0.02,0.018,0.02,425000,0.02
2015-09-22,0.018,0.018,0.018,0.018,31800,0.018
2015-09-21,0.02,0.021,0.02,0.021,295000,0.021
2015-09-18,0.019,0.019,0.018,0.018,460300,0.018
2015-09-17,0.021,0.021,0.019,0.019,823700,0.019
2015-09-16,0.02,0.02,0.02,0.02,83200,0.02
2015-09-15,0.022,0.022,0.02,0.02,382700,0.02
2015-09-14,0.023,0.023,0.023,0.023,000,0.023
2015-09-11,0.017,0.023,0.016,0.023,423300,0.023
2015-09-10,0.018,0.018,0.017,0.017,751000,0.017
2015-09-09,0.023,0.024,0.018,0.019,2145900,0.019
2015-09-08,0.018,0.023,0.017,0.023,1854100,0.023
2015-09-07,0.018,0.018,0.018,0.018,331800,0.018
2015-09-04,0.018,0.018,0.016,0.018,1723600,0.018
2015-09-03,0.016,0.018,0.015,0.017,3176100,0.017
2015-09-02,0.011,0.015,0.011,0.015,1767300,0.015
2015-09-01,0.013,0.013,0.011,0.013,602300,0.013
2015-08-31,0.01,0.012,0.01,0.012,692500,0.012
2015-08-28,0.009,0.009,0.009,0.009,417600,0.009
2015-08-27,0.01,0.01,0.009,0.009,385000,0.009
2015-08-26,0.01,0.01,0.01,0.01,75000,0.01
2015-08-25,0.009,0.009,0.009,0.009,50000,0.009
2015-08-24,0.01,0.01,0.009,0.009,350000,0.009
2015-08-21,0.012,0.012,0.011,0.011,685500,0.011
2015-08-20,0.014,0.014,0.012,0.012,150000,0.012
2015-08-19,0.013,0.013,0.012,0.012,647200,0.012
2015-08-18,0.013,0.017,0.013,0.013,2194500,0.013
2015-08-17,0.012,0.014,0.011,0.014,2696800,0.014
2015-08-14,0.01,0.01,0.01,0.01,208000,0.01
2015-08-13,0.012,0.012,0.01,0.01,699100,0.01
2015-08-12,0.01,0.01,0.01,0.01,000,0.01
2015-08-11,0.01,0.01,0.01,0.01,693500,0.01
2015-08-10,0.011,0.011,0.011,0.011,100000,0.011
2015-08-07,0.009,0.009,0.009,0.009,10000,0.009
2015-08-06,0.01,0.01,0.009,0.009,393100,0.009
2015-08-05,0.01,0.01,0.01,0.01,1000,0.01
2015-08-04,0.01,0.012,0.01,0.012,600000,0.012
2015-08-03,0.01,0.011,0.01,0.011,340000,0.011
2015-07-31,0.01,0.01,0.01,0.01,328100,0.01
2015-07-30,0.011,0.011,0.011,0.011,1071800,0.011
2015-07-29,0.011,0.011,0.011,0.011,500000,0.011
2015-07-28,0.011,0.011,0.011,0.011,2050000,0.011
2015-07-27,0.011,0.011,0.01,0.01,150000,0.01
2015-07-24,0.011,0.011,0.011,0.011,350000,0.011
2015-07-23,0.011,0.011,0.011,0.011,150000,0.011
2015-07-22,0.014,0.015,0.012,0.014,772600,0.014
2015-07-21,0.014,0.014,0.014,0.014,575900,0.014
2015-07-20,0.016,0.016,0.013,0.013,721200,0.013
2015-07-17,0.014,0.014,0.014,0.014,600000,0.014
2015-07-16,0.013,0.013,0.013,0.013,275000,0.013
2015-07-15,0.012,0.013,0.012,0.013,375000,0.013
2015-07-14,0.013,0.015,0.013,0.015,334000,0.015
2015-07-13,0.012,0.015,0.012,0.013,2423200,0.013
2015-07-10,0.009,0.014,0.009,0.012,5587900,0.012
2015-07-09,0.008,0.008,0.008,0.008,000,0.008
2015-07-08,0.008,0.008,0.008,0.008,200000,0.008
2015-07-07,0.008,0.008,0.008,0.008,000,0.008
2015-07-06,0.007,0.008,0.007,0.008,615000,0.008
2015-07-03,0.007,0.007,0.007,0.007,000,0.007
2015-07-02,0.007,0.007,0.007,0.007,000,0.007
2015-07-01,0.007,0.007,0.007,0.007,000,0.007
2015-06-30,0.007,0.007,0.007,0.007,356000,0.007
2015-06-29,0.007,0.007,0.007,0.007,578200,0.007
2015-06-26,0.008,0.008,0.008,0.008,000,0.008
2015-06-25,0.008,0.008,0.008,0.008,370000,0.008
2015-06-24,0.008,0.008,0.008,0.008,90800,0.008
2015-06-23,0.01,0.01,0.01,0.01,200000,0.01
2015-06-22,0.009,0.009,0.009,0.009,200000,0.009
2015-06-19,0.008,0.008,0.008,0.008,9100,0.008
2015-06-18,0.008,0.008,0.008,0.008,240800,0.008
2015-06-17,0.009,0.009,0.008,0.008,1417200,0.008
2015-06-16,0.009,0.009,0.009,0.009,106900,0.009
2015-06-15,0.01,0.01,0.01,0.01,1000000,0.01
2015-06-12,0.009,0.009,0.009,0.009,000,0.009
2015-06-11,0.009,0.009,0.009,0.009,220000,0.009
2015-06-10,0.013,0.013,0.011,0.011,483500,0.011
2015-06-09,0.014,0.014,0.014,0.014,000,0.014
2015-06-08,0.014,0.014,0.014,0.014,000,0.014
2015-06-05,0.014,0.014,0.014,0.014,000,0.014
2015-06-04,0.013,0.014,0.013,0.014,360000,0.014
2015-06-03,0.013,0.014,0.013,0.014,1250000,0.014
2015-06-02,0.013,0.013,0.013,0.013,1495000,0.013
2015-06-01,0.013,0.015,0.01,0.011,3478000,0.011
2015-05-29,0.01,0.018,0.01,0.012,8472100,0.012
2015-05-28,0.009,0.009,0.009,0.009,000,0.009
2015-05-27,0.008,0.009,0.008,0.009,1000000,0.009
2015-05-26,0.007,0.007,0.007,0.007,000,0.007
2015-05-25,0.007,0.007,0.007,0.007,000,0.007
2015-05-22,0.007,0.007,0.007,0.007,10000,0.007
2015-05-21,0.01,0.01,0.01,0.01,000,0.01
2015-05-20,0.01,0.01,0.01,0.01,000,0.01
2015-05-19,0.01,0.01,0.01,0.01,000,0.01
2015-05-18,0.01,0.01,0.01,0.01,000,0.01
2015-05-15,0.01,0.01,0.01,0.01,000,0.01
2015-05-14,0.01,0.01,0.01,0.01,000,0.01
2015-05-13,0.01,0.01,0.01,0.01,000,0.01
2015-05-12,0.01,0.01,0.01,0.01,000,0.01
2015-05-11,0.01,0.01,0.01,0.01,000,0.01
2015-05-08,0.01,0.01,0.01,0.01,000,0.01
2015-05-07,0.01,0.01,0.01,0.01,000,0.01
2015-05-06,0.01,0.01,0.01,0.01,000,0.01
2015-05-05,0.01,0.01,0.01,0.01,000,0.01
2015-05-04,0.01,0.01,0.01,0.01,000,0.01
2015-05-01,0.01,0.01,0.01,0.01,000,0.01
2015-04-30,0.01,0.01,0.01,0.01,000,0.01
2015-04-29,0.01,0.01,0.01,0.01,000,0.01
2015-04-28,0.01,0.01,0.01,0.01,000,0.01
2015-04-27,0.01,0.01,0.01,0.01,000,0.01
2015-04-24,0.01,0.01,0.01,0.01,000,0.01
2015-04-23,0.01,0.01,0.01,0.01,000,0.01
2015-04-22,0.01,0.01,0.01,0.01,000,0.01
2015-04-21,0.01,0.01,0.01,0.01,000,0.01
2015-04-20,0.01,0.01,0.01,0.01,000,0.01
2015-04-17,0.01,0.01,0.01,0.01,000,0.01
2015-04-16,0.01,0.01,0.01,0.01,000,0.01
2015-04-15,0.01,0.01,0.01,0.01,000,0.01
2015-04-14,0.009,0.01,0.009,0.01,750000,0.01
2015-04-13,0.009,0.009,0.009,0.009,000,0.009
2015-04-10,0.009,0.009,0.009,0.009,000,0.009
2015-04-09,0.009,0.009,0.009,0.009,000,0.009
2015-04-08,0.009,0.009,0.009,0.009,000,0.009
2015-04-07,0.009,0.009,0.009,0.009,000,0.009
2015-04-06,0.009,0.009,0.009,0.009,000,0.009
2015-04-03,0.009,0.009,0.009,0.009,000,0.009
2015-04-02,0.009,0.009,0.009,0.009,000,0.009
2015-04-01,0.009,0.009,0.009,0.009,000,0.009
2015-03-31,0.009,0.009,0.009,0.009,000,0.009
2015-03-30,0.009,0.009,0.009,0.009,000,0.009
2015-03-27,0.009,0.009,0.009,0.009,50000,0.009
2015-03-26,0.008,0.008,0.008,0.008,000,0.008
2015-03-25,0.008,0.008,0.008,0.008,000,0.008
2015-03-24,0.008,0.008,0.008,0.008,249900,0.008
2015-03-23,0.01278,0.01278,0.01278,0.01278,000,0.01278
2015-03-20,0.01278,0.01278,0.01278,0.01278,000,0.01278
2015-03-19,0.01278,0.01278,0.01278,0.01278,000,0.01278
2015-03-18,0.01278,0.01278,0.01278,0.01278,000,0.01278
2015-03-17,0.01278,0.01278,0.01278,0.01278,000,0.01278
2015-03-16,0.01278,0.01278,0.01278,0.01278,000,0.01278
2015-03-13,0.01278,0.01278,0.01278,0.01278,000,0.01278
2015-03-12,0.01278,0.01278,0.01278,0.01278,000,0.01278
2015-03-11,0.01278,0.01278,0.01278,0.01278,000,0.01278
2015-03-10,0.01278,0.01278,0.01278,0.01278,000,0.01278
2015-03-09,0.01278,0.01278,0.01278,0.01278,000,0.01278
2015-03-06,0.01278,0.01278,0.01278,0.01278,000,0.01278
2015-03-05,0.01278,0.01278,0.01278,0.01278,000,0.01278
2015-03-04,0.01278,0.01278,0.01278,0.01278,000,0.01278
2015-03-03,0.01278,0.01278,0.01278,0.01278,000,0.01278
2015-03-02,0.01278,0.01278,0.01278,0.01278,000,0.01278
2015-02-27,0.01278,0.01278,0.01278,0.01278,000,0.01278
2015-02-26,0.01278,0.01278,0.01278,0.01278,000,0.01278
2015-02-25,0.01278,0.01278,0.01278,0.01278,000,0.01278
2015-02-24,0.01278,0.01278,0.01278,0.01278,000,0.01278
2015-02-23,0.01278,0.01278,0.01278,0.01278,000,0.01278
2015-02-20,0.01278,0.01278,0.01278,0.01278,000,0.01278
2015-02-19,0.01278,0.01278,0.01278,0.01278,000,0.01278
2015-02-18,0.01278,0.01278,0.01278,0.01278,000,0.01278
2015-02-17,0.01278,0.01278,0.01278,0.01278,000,0.01278
2015-02-16,0.01278,0.01278,0.01278,0.01278,000,0.01278
2015-02-13,0.01278,0.01278,0.01278,0.01278,000,0.01278
2015-02-12,0.01278,0.01278,0.01278,0.01278,000,0.01278
2015-02-11,0.01278,0.01278,0.01278,0.01278,000,0.01278
2015-02-10,0.01278,0.01278,0.01278,0.01278,000,0.01278
2015-02-09,0.01278,0.01278,0.01278,0.01278,000,0.01278
2015-02-06,0.01278,0.01278,0.01278,0.01278,000,0.01278
2015-02-05,0.01278,0.01278,0.01278,0.01278,000,0.01278
2015-02-04,0.01278,0.01278,0.01278,0.01278,000,0.01278
2015-02-03,0.01278,0.01278,0.01278,0.01278,000,0.01278
2015-02-02,0.01278,0.01278,0.01278,0.01278,000,0.01278
2015-01-30,0.01278,0.01278,0.01278,0.01278,000,0.01278
2015-01-29,0.01278,0.01278,0.01278,0.01278,000,0.01278
2015-01-28,0.01278,0.01278,0.01278,0.01278,000,0.01278
2015-01-27,0.01278,0.01278,0.01278,0.01278,000,0.01278
2015-01-26,0.01278,0.01278,0.01278,0.01278,000,0.01278
2015-01-23,0.01278,0.01278,0.01278,0.01278,000,0.01278
2015-01-22,0.01278,0.01278,0.01278,0.01278,000,0.01278
2015-01-21,0.01278,0.01278,0.01278,0.01278,000,0.01278
2015-01-20,0.01278,0.01278,0.01278,0.01278,000,0.01278
2015-01-19,0.01278,0.01278,0.01278,0.01278,000,0.01278
2015-01-16,0.01278,0.01278,0.01278,0.01278,000,0.01278
2015-01-15,0.01278,0.01278,0.01278,0.01278,000,0.01278
2015-01-14,0.01278,0.01278,0.01278,0.01278,000,0.01278
2015-01-13,0.01278,0.01278,0.01278,0.01278,000,0.01278
2015-01-12,0.01278,0.01278,0.01278,0.01278,000,0.01278
2015-01-09,0.01278,0.01278,0.01278,0.01278,000,0.01278
2015-01-08,0.01278,0.01278,0.01278,0.01278,000,0.01278
2015-01-07,0.01278,0.01278,0.01278,0.01278,000,0.01278
2015-01-06,0.01278,0.01278,0.01278,0.01278,000,0.01278
2015-01-05,0.01278,0.01278,0.01278,0.01278,000,0.01278
2015-01-02,0.01278,0.01278,0.01278,0.01278,000,0.01278
2015-01-01,0.01278,0.01278,0.01278,0.01278,000,0.01278
2014-12-31,0.00852,0.01278,0.00852,0.01278,545800,0.01278
2014-12-30,0.01022,0.01022,0.01022,0.01022,000,0.01022
2014-12-29,0.01022,0.01022,0.01022,0.01022,000,0.01022
2014-12-26,0.01022,0.01022,0.01022,0.01022,000,0.01022
2014-12-25,0.01022,0.01022,0.01022,0.01022,000,0.01022
2014-12-24,0.01022,0.01022,0.01022,0.01022,000,0.01022
2014-12-23,0.01022,0.01022,0.01022,0.01022,000,0.01022
2014-12-22,0.01022,0.01022,0.01022,0.01022,000,0.01022
2014-12-19,0.01022,0.01022,0.01022,0.01022,000,0.01022
2014-12-18,0.01022,0.01022,0.01022,0.01022,000,0.01022
2014-12-17,0.00767,0.01022,0.00767,0.01022,29300,0.01022
2014-12-16,0.00767,0.00767,0.00767,0.00767,000,0.00767
2014-12-15,0.00767,0.00767,0.00767,0.00767,000,0.00767
2014-12-12,0.00767,0.00767,0.00767,0.00767,000,0.00767
2014-12-11,0.00767,0.00767,0.00767,0.00767,000,0.00767
2014-12-10,0.00767,0.00767,0.00767,0.00767,000,0.00767
2014-12-09,0.00767,0.00767,0.00767,0.00767,000,0.00767
2014-12-08,0.00767,0.00767,0.00767,0.00767,000,0.00767
2014-12-05,0.00681,0.00767,0.00681,0.00767,409600,0.00767
2014-12-04,0.00596,0.00596,0.00596,0.00596,000,0.00596
2014-12-03,0.00596,0.00596,0.00596,0.00596,000,0.00596
2014-12-02,0.00596,0.00596,0.00596,0.00596,410800,0.00596
2014-12-01,0.00596,0.00596,0.00596,0.00596,000,0.00596
2014-11-28,0.00596,0.00596,0.00596,0.00596,000,0.00596
2014-11-27,0.00681,0.00681,0.00596,0.00596,680500,0.00596
2014-11-26,0.00767,0.00767,0.00767,0.00767,000,0.00767
2014-11-25,0.00767,0.00767,0.00767,0.00767,000,0.00767
2014-11-24,0.00767,0.00767,0.00767,0.00767,000,0.00767
2014-11-21,0.00767,0.00767,0.00767,0.00767,000,0.00767
2014-11-20,0.00767,0.00767,0.00767,0.00767,000,0.00767
2014-11-19,0.00767,0.00767,0.00767,0.00767,000,0.00767
2014-11-18,0.00767,0.00767,0.00767,0.00767,000,0.00767
2014-11-17,0.00767,0.00767,0.00767,0.00767,000,0.00767
2014-11-14,0.00767,0.00767,0.00767,0.00767,000,0.00767
2014-11-13,0.00767,0.00767,0.00767,0.00767,000,0.00767
2014-11-12,0.00767,0.00767,0.00767,0.00767,000,0.00767
2014-11-11,0.00767,0.00767,0.00767,0.00767,000,0.00767
2014-11-10,0.00767,0.00767,0.00767,0.00767,000,0.00767
2014-11-07,0.00767,0.00767,0.00767,0.00767,000,0.00767
2014-11-06,0.00767,0.00767,0.00767,0.00767,000,0.00767
2014-11-05,0.00767,0.00767,0.00767,0.00767,000,0.00767
2014-11-04,0.00767,0.00767,0.00767,0.00767,11700,0.00767
2014-11-03,0.00937,0.00937,0.00937,0.00937,58600,0.00937
2014-10-31,0.00681,0.00681,0.00681,0.00681,000,0.00681
2014-10-30,0.01022,0.01022,0.00681,0.00681,391100,0.00681
2014-10-29,0.01022,0.01022,0.01022,0.01022,000,0.01022
2014-10-28,0.01022,0.01022,0.01022,0.01022,000,0.01022
2014-10-27,0.01022,0.01022,0.01022,0.01022,000,0.01022
2014-10-24,0.01022,0.01022,0.01022,0.01022,000,0.01022
2014-10-23,0.01022,0.01022,0.01022,0.01022,000,0.01022
2014-10-22,0.01022,0.01022,0.01022,0.01022,000,0.01022
2014-10-21,0.01022,0.01022,0.01022,0.01022,000,0.01022
2014-10-20,0.01022,0.01022,0.01022,0.01022,000,0.01022
2014-10-17,0.01022,0.01022,0.01022,0.01022,88000,0.01022
2014-10-16,0.01022,0.01022,0.01022,0.01022,000,0.01022
2014-10-15,0.01022,0.01022,0.01022,0.01022,000,0.01022
2014-10-14,0.01022,0.01022,0.01022,0.01022,8900,0.01022
2014-10-13,0.01107,0.01107,0.01107,0.01107,000,0.01107
2014-10-10,0.01107,0.01107,0.01107,0.01107,000,0.01107
2014-10-09,0.01107,0.01107,0.01107,0.01107,000,0.01107
2014-10-08,0.01107,0.01107,0.01107,0.01107,000,0.01107
2014-10-07,0.01107,0.01107,0.01022,0.01107,906600,0.01107
2014-10-06,0.01107,0.01107,0.01107,0.01107,000,0.01107
2014-10-03,0.01107,0.01107,0.01107,0.01107,000,0.01107
2014-10-02,0.01107,0.01107,0.01107,0.01107,000,0.01107
2014-10-01,0.01107,0.01107,0.01107,0.01107,000,0.01107
2014-09-30,0.01193,0.01193,0.01107,0.01107,236100,0.01107
2014-09-29,0.01107,0.01363,0.01107,0.01363,780600,0.01363
2014-09-26,0.01278,0.01363,0.01022,0.01278,1160300,0.01278
2014-09-25,0.01704,0.01704,0.01278,0.01278,3531000,0.01278
2014-09-24,0.01363,0.01789,0.01278,0.01533,4771900,0.01533
2014-09-23,0.01363,0.01363,0.01193,0.01278,1438000,0.01278
2014-09-22,0.01363,0.01533,0.01193,0.01278,1361700,0.01278
2014-09-19,0.01619,0.01619,0.01619,0.01619,000,0.01619
2014-09-18,0.01533,0.01619,0.01533,0.01619,146700,0.01619
2014-09-17,0.01533,0.01533,0.01533,0.01533,469500,0.01533
2014-09-16,0.01363,0.01704,0.01363,0.01704,2200800,0.01704
2014-09-15,0.01448,0.01448,0.01278,0.01278,821700,0.01278
2014-09-12,0.01363,0.01363,0.01363,0.01363,1173900,0.01363
2014-09-11,0.01278,0.01278,0.01278,0.01278,352100,0.01278
2014-09-10,0.01278,0.01278,0.01278,0.01278,000,0.01278
2014-09-09,0.01278,0.01278,0.01278,0.01278,176000,0.01278
2014-09-08,0.01278,0.01278,0.01278,0.01278,176000,0.01278
2014-09-05,0.01278,0.01278,0.01278,0.01278,000,0.01278
2014-09-04,0.01278,0.01278,0.01278,0.01278,2900,0.01278
2014-09-03,0.01278,0.01278,0.01278,0.01278,000,0.01278
2014-09-02,0.01278,0.01278,0.01278,0.01278,000,0.01278
2014-09-01,0.01278,0.01278,0.01278,0.01278,000,0.01278
2014-08-29,0.01278,0.01278,0.01278,0.01278,000,0.01278
2014-08-28,0.01278,0.01278,0.01278,0.01278,000,0.01278
2014-08-27,0.01278,0.01278,0.01278,0.01278,000,0.01278
2014-08-26,0.01278,0.01278,0.01278,0.01278,000,0.01278
2014-08-25,0.01278,0.01278,0.01278,0.01278,000,0.01278
2014-08-22,0.01278,0.01278,0.01278,0.01278,000,0.01278
2014-08-21,0.01278,0.01278,0.01278,0.01278,990700,0.01278
2014-08-20,0.00937,0.00937,0.00937,0.00937,000,0.00937
2014-08-19,0.00937,0.00937,0.00937,0.00937,000,0.00937
2014-08-18,0.00937,0.00937,0.00937,0.00937,000,0.00937
2014-08-15,0.00937,0.00937,0.00937,0.00937,000,0.00937
2014-08-14,0.00937,0.00937,0.00937,0.00937,000,0.00937
2014-08-13,0.00937,0.00937,0.00937,0.00937,000,0.00937
2014-08-12,0.00937,0.00937,0.00937,0.00937,000,0.00937
2014-08-11,0.00937,0.00937,0.00937,0.00937,000,0.00937
2014-08-08,0.00937,0.00937,0.00937,0.00937,000,0.00937
2014-08-07,0.00937,0.00937,0.00937,0.00937,000,0.00937
2014-08-06,0.00937,0.00937,0.00937,0.00937,000,0.00937
2014-08-05,0.00937,0.00937,0.00937,0.00937,000,0.00937
2014-08-04,0.00937,0.00937,0.00937,0.00937,000,0.00937
2014-08-01,0.00852,0.00937,0.00852,0.00937,343900,0.00937
2014-07-31,0.01022,0.01022,0.01022,0.01022,000,0.01022
2014-07-30,0.01022,0.01022,0.01022,0.01022,000,0.01022
2014-07-29,0.01022,0.01022,0.01022,0.01022,58600,0.01022
2014-07-28,0.00852,0.00852,0.00852,0.00852,000,0.00852
2014-07-25,0.00852,0.00852,0.00852,0.00852,000,0.00852
2014-07-24,0.00852,0.00852,0.00852,0.00852,000,0.00852
2014-07-23,0.00852,0.00852,0.00852,0.00852,000,0.00852
2014-07-22,0.00852,0.00852,0.00852,0.00852,000,0.00852
2014-07-21,0.00852,0.00852,0.00852,0.00852,000,0.00852
2014-07-18,0.00852,0.00852,0.00852,0.00852,000,0.00852
2014-07-17,0.00852,0.00852,0.00852,0.00852,000,0.00852
2014-07-16,0.00852,0.00852,0.00852,0.00852,000,0.00852
2014-07-15,0.00852,0.00852,0.00852,0.00852,000,0.00852
2014-07-14,0.00852,0.00852,0.00852,0.00852,000,0.00852
2014-07-11,0.00852,0.00852,0.00852,0.00852,301100,0.00852
2014-07-10,0.00852,0.00852,0.00852,0.00852,000,0.00852
2014-07-09,0.00852,0.00852,0.00852,0.00852,000,0.00852
2014-07-08,0.00681,0.00852,0.00681,0.00852,1053000,0.00852
2014-07-07,0.00681,0.00681,0.00681,0.00681,763000,0.00681
2014-07-04,0.00852,0.00852,0.00852,0.00852,645600,0.00852
2014-07-03,0.00852,0.00852,0.00852,0.00852,000,0.00852
2014-07-02,0.00852,0.00852,0.00852,0.00852,000,0.00852
2014-07-01,0.00852,0.00852,0.00852,0.00852,000,0.00852
2014-06-30,0.00852,0.00852,0.00852,0.00852,000,0.00852
2014-06-27,0.00852,0.00852,0.00852,0.00852,000,0.00852
2014-06-26,0.00852,0.00852,0.00852,0.00852,000,0.00852
2014-06-25,0.00852,0.00852,0.00852,0.00852,173100,0.00852
2014-06-24,0.01022,0.01022,0.01022,0.01022,000,0.01022
2014-06-23,0.01022,0.01022,0.01022,0.01022,000,0.01022
2014-06-20,0.01022,0.01022,0.01022,0.01022,000,0.01022
2014-06-19,0.01022,0.01022,0.01022,0.01022,000,0.01022
2014-06-18,0.01022,0.01022,0.01022,0.01022,000,0.01022
2014-06-17,0.01022,0.01022,0.01022,0.01022,000,0.01022
2014-06-16,0.01022,0.01022,0.01022,0.01022,000,0.01022
2014-06-13,0.01022,0.01022,0.01022,0.01022,000,0.01022
2014-06-12,0.01022,0.01022,0.01022,0.01022,000,0.01022
2014-06-11,0.01022,0.01022,0.01022,0.01022,2347800,0.01022
2014-06-10,0.00937,0.00937,0.00937,0.00937,000,0.00937
2014-06-09,0.00937,0.00937,0.00937,0.00937,000,0.00937
2014-06-06,0.00937,0.00937,0.00937,0.00937,000,0.00937
2014-06-05,0.00937,0.00937,0.00937,0.00937,939100,0.00937
2014-06-04,0.00681,0.00681,0.00681,0.00681,000,0.00681
2014-06-03,0.00341,0.00681,0.00341,0.00681,308700,0.00681
2014-06-02,0.01278,0.01278,0.01278,0.01278,000,0.01278
2014-05-30,0.01278,0.01278,0.01278,0.01278,000,0.01278
2014-05-29,0.01278,0.01278,0.01278,0.01278,000,0.01278
2014-05-28,0.01278,0.01278,0.01278,0.01278,000,0.01278
2014-05-27,0.01278,0.01278,0.01278,0.01278,000,0.01278
2014-05-26,0.01278,0.01278,0.01278,0.01278,000,0.01278
2014-05-23,0.01278,0.01278,0.01278,0.01278,000,0.01278
2014-05-22,0.01278,0.01278,0.01278,0.01278,000,0.01278
2014-05-21,0.01278,0.01278,0.01278,0.01278,000,0.01278
2014-05-20,0.01278,0.01278,0.01278,0.01278,000,0.01278
2014-05-19,0.01278,0.01278,0.01278,0.01278,000,0.01278
2014-05-16,0.01278,0.01278,0.01278,0.01278,000,0.01278
2014-05-15,0.01278,0.01278,0.01278,0.01278,000,0.01278
2014-05-14,0.01278,0.01278,0.01278,0.01278,000,0.01278
2014-05-13,0.01278,0.01278,0.01278,0.01278,000,0.01278
2014-05-12,0.01278,0.01278,0.01278,0.01278,000,0.01278
2014-05-09,0.01278,0.01278,0.01278,0.01278,000,0.01278
2014-05-08,0.01278,0.01278,0.01278,0.01278,000,0.01278
2014-05-07,0.01278,0.01278,0.01278,0.01278,000,0.01278
2014-05-06,0.01278,0.01278,0.01278,0.01278,000,0.01278
2014-05-05,0.01278,0.01278,0.01278,0.01278,000,0.01278
2014-05-02,0.00852,0.01278,0.00852,0.01278,5968100,0.01278
2014-05-01,0.00852,0.00852,0.00852,0.00852,000,0.00852
2014-04-30,0.00852,0.00852,0.00852,0.00852,000,0.00852
2014-04-29,0.00852,0.00852,0.00852,0.00852,000,0.00852
2014-04-28,0.00852,0.00852,0.00852,0.00852,000,0.00852
2014-04-25,0.00852,0.00852,0.00852,0.00852,000,0.00852
2014-04-24,0.00852,0.00852,0.00852,0.00852,000,0.00852
2014-04-23,0.00852,0.00852,0.00852,0.00852,000,0.00852
2014-04-22,0.00852,0.00852,0.00852,0.00852,000,0.00852
2014-04-21,0.00852,0.00852,0.00852,0.00852,000,0.00852
2014-04-18,0.00852,0.00852,0.00852,0.00852,000,0.00852
2014-04-17,0.00852,0.00852,0.00852,0.00852,000,0.00852
2014-04-16,0.00852,0.00852,0.00852,0.00852,000,0.00852
2014-04-15,0.00852,0.00852,0.00852,0.00852,000,0.00852
2014-04-14,0.00852,0.00852,0.00852,0.00852,000,0.00852
2014-04-11,0.00852,0.00852,0.00852,0.00852,000,0.00852
2014-04-10,0.00852,0.00852,0.00852,0.00852,000,0.00852
2014-04-09,0.00852,0.00852,0.00852,0.00852,000,0.00852
2014-04-08,0.00852,0.00852,0.00852,0.00852,000,0.00852
2014-04-07,0.00852,0.00852,0.00852,0.00852,000,0.00852
2014-04-04,0.00852,0.00852,0.00852,0.00852,000,0.00852
2014-04-03,0.00852,0.00852,0.00852,0.00852,000,0.00852
2014-04-02,0.00852,0.00852,0.00852,0.00852,000,0.00852
2014-04-01,0.00852,0.00852,0.00852,0.00852,000,0.00852
2014-03-31,0.00852,0.00852,0.00852,0.00852,000,0.00852
2014-03-28,0.00852,0.00852,0.00852,0.00852,000,0.00852
2014-03-27,0.00852,0.00852,0.00852,0.00852,000,0.00852
2014-03-26,0.00852,0.00852,0.00852,0.00852,000,0.00852
2014-03-25,0.00852,0.00852,0.00852,0.00852,000,0.00852
2014-03-24,0.00852,0.00852,0.00852,0.00852,000,0.00852
2014-03-21,0.00852,0.00852,0.00852,0.00852,000,0.00852
2014-03-20,0.00852,0.00852,0.00852,0.00852,000,0.00852
2014-03-19,0.00852,0.00852,0.00852,0.00852,000,0.00852
2014-03-18,0.00852,0.00852,0.00852,0.00852,000,0.00852
2014-03-17,0.00852,0.00852,0.00852,0.00852,000,0.00852
2014-03-14,0.00852,0.00852,0.00852,0.00852,000,0.00852
2014-03-13,0.00852,0.00852,0.00852,0.00852,000,0.00852
2014-03-12,0.00852,0.00852,0.00852,0.00852,000,0.00852
2014-03-11,0.00852,0.00852,0.00852,0.00852,000,0.00852
2014-03-10,0.00852,0.00852,0.00852,0.00852,000,0.00852
2014-03-07,0.00852,0.00852,0.00852,0.00852,000,0.00852
2014-03-06,0.00852,0.00852,0.00852,0.00852,000,0.00852
2014-03-05,0.00852,0.00852,0.00852,0.00852,000,0.00852
2014-03-04,0.00852,0.00852,0.00852,0.00852,000,0.00852
2014-03-03,0.00852,0.00852,0.00852,0.00852,000,0.00852
2014-02-28,0.00852,0.00852,0.00852,0.00852,000,0.00852
2014-02-27,0.00852,0.00852,0.00852,0.00852,000,0.00852
2014-02-26,0.00852,0.00852,0.00852,0.00852,000,0.00852
2014-02-25,0.00852,0.00852,0.00852,0.00852,000,0.00852
2014-02-24,0.00852,0.00852,0.00852,0.00852,000,0.00852
2014-02-21,0.00852,0.00852,0.00852,0.00852,000,0.00852
2014-02-20,0.00852,0.00852,0.00852,0.00852,000,0.00852
2014-02-19,0.00852,0.00852,0.00852,0.00852,111500,0.00852
2014-02-18,0.00852,0.00852,0.00852,0.00852,447200,0.00852
2014-02-17,0.0213,0.0213,0.0213,0.0213,000,0.0213
2014-02-14,0.0213,0.0213,0.0213,0.0213,000,0.0213
2014-02-13,0.0213,0.0213,0.0213,0.0213,000,0.0213
2014-02-12,0.0213,0.0213,0.0213,0.0213,000,0.0213
2014-02-11,0.0213,0.0213,0.0213,0.0213,000,0.0213
2014-02-10,0.0213,0.0213,0.0213,0.0213,000,0.0213
2014-02-07,0.0213,0.0213,0.0213,0.0213,000,0.0213
2014-02-06,0.0213,0.0213,0.0213,0.0213,000,0.0213
2014-02-05,0.0213,0.0213,0.0213,0.0213,000,0.0213
2014-02-04,0.0213,0.0213,0.0213,0.0213,000,0.0213
2014-02-03,0.0213,0.0213,0.0213,0.0213,000,0.0213
2014-01-31,0.0213,0.0213,0.0213,0.0213,000,0.0213
2014-01-30,0.0213,0.0213,0.0213,0.0213,000,0.0213
2014-01-29,0.0213,0.0213,0.0213,0.0213,000,0.0213
2014-01-28,0.0213,0.0213,0.0213,0.0213,000,0.0213
2014-01-27,0.0213,0.0213,0.0213,0.0213,000,0.0213
2014-01-24,0.0213,0.0213,0.0213,0.0213,000,0.0213
2014-01-23,0.0213,0.0213,0.0213,0.0213,000,0.0213
2014-01-22,0.0213,0.0213,0.0213,0.0213,000,0.0213
2014-01-21,0.0213,0.0213,0.0213,0.0213,000,0.0213
2014-01-20,0.0213,0.0213,0.0213,0.0213,000,0.0213
2014-01-17,0.0213,0.0213,0.0213,0.0213,000,0.0213
2014-01-16,0.0213,0.0213,0.0213,0.0213,000,0.0213
2014-01-15,0.0213,0.0213,0.0213,0.0213,000,0.0213
2014-01-14,0.0213,0.0213,0.0213,0.0213,000,0.0213
2014-01-13,0.0213,0.0213,0.0213,0.0213,000,0.0213
2014-01-10,0.0213,0.0213,0.0213,0.0213,000,0.0213
2014-01-09,0.0213,0.0213,0.0213,0.0213,000,0.0213
2014-01-08,0.0213,0.0213,0.0213,0.0213,000,0.0213
2014-01-07,0.0213,0.0213,0.0213,0.0213,000,0.0213
2014-01-06,0.0213,0.0213,0.0213,0.0213,000,0.0213
2014-01-03,0.0213,0.0213,0.0213,0.0213,000,0.0213
2014-01-02,0.0213,0.0213,0.0213,0.0213,234700,0.0213
2014-01-01,0.0213,0.0213,0.0213,0.0213,000,0.0213
2013-12-31,0.0213,0.0213,0.0213,0.0213,000,0.0213
2013-12-30,0.0213,0.0213,0.0213,0.0213,000,0.0213
2013-12-27,0.0213,0.0213,0.0213,0.0213,000,0.0213
2013-12-26,0.0213,0.0213,0.0213,0.0213,000,0.0213
2013-12-25,0.0213,0.0213,0.0213,0.0213,000,0.0213
2013-12-24,0.0213,0.0213,0.0213,0.0213,000,0.0213
2013-12-23,0.0213,0.0213,0.0213,0.0213,126700,0.0213
2013-12-20,0.01278,0.01278,0.01278,0.01278,000,0.01278
2013-12-19,0.01278,0.01278,0.01278,0.01278,000,0.01278
2013-12-18,0.01278,0.01278,0.01278,0.01278,000,0.01278
2013-12-17,0.01278,0.01278,0.01278,0.01278,000,0.01278
2013-12-16,0.01278,0.01278,0.01278,0.01278,000,0.01278
2013-12-13,0.01278,0.01278,0.01278,0.01278,000,0.01278
2013-12-12,0.01278,0.01278,0.01278,0.01278,000,0.01278
2013-12-11,0.01278,0.01278,0.01278,0.01278,000,0.01278
2013-12-10,0.01278,0.01278,0.01278,0.01278,000,0.01278
2013-12-09,0.01278,0.01278,0.01278,0.01278,000,0.01278
2013-12-06,0.01278,0.01278,0.01278,0.01278,000,0.01278
2013-12-05,0.01278,0.01278,0.01278,0.01278,000,0.01278
2013-12-04,0.01278,0.01278,0.01278,0.01278,000,0.01278
2013-12-03,0.01278,0.01278,0.01278,0.01278,000,0.01278
2013-12-02,0.01278,0.01278,0.01278,0.01278,000,0.01278
2013-11-29,0.01278,0.01278,0.01278,0.01278,000,0.01278
2013-11-28,0.01278,0.01278,0.01278,0.01278,000,0.01278
2013-11-27,0.01278,0.01278,0.01278,0.01278,000,0.01278
2013-11-26,0.01278,0.01278,0.01278,0.01278,000,0.01278
2013-11-25,0.01278,0.01278,0.01278,0.01278,000,0.01278
2013-11-22,0.01278,0.01278,0.01278,0.01278,000,0.01278
2013-11-21,0.01278,0.01278,0.01278,0.01278,000,0.01278
2013-11-20,0.01278,0.01278,0.01278,0.01278,000,0.01278
2013-11-19,0.01278,0.01278,0.01278,0.01278,000,0.01278
2013-11-18,0.01278,0.01278,0.01278,0.01278,000,0.01278
2013-11-15,0.01278,0.01278,0.01278,0.01278,000,0.01278
2013-11-14,0.01278,0.01278,0.01278,0.01278,000,0.01278
2013-11-13,0.01278,0.01278,0.01278,0.01278,000,0.01278
2013-11-12,0.01278,0.01278,0.01278,0.01278,000,0.01278
2013-11-11,0.01278,0.01278,0.01278,0.01278,000,0.01278
2013-11-08,0.01278,0.01278,0.01278,0.01278,000,0.01278
2013-11-07,0.01278,0.01278,0.01278,0.01278,000,0.01278
2013-11-06,0.01278,0.01278,0.01278,0.01278,000,0.01278
2013-11-05,0.01278,0.01278,0.01278,0.01278,000,0.01278
2013-11-04,0.01278,0.01278,0.01278,0.01278,000,0.01278
2013-11-01,0.01278,0.01278,0.01278,0.01278,369700,0.01278
2013-10-31,0.01278,0.01278,0.01278,0.01278,000,0.01278
2013-10-30,0.01278,0.01278,0.01278,0.01278,000,0.01278
2013-10-29,0.01278,0.01278,0.01278,0.01278,000,0.01278
2013-10-28,0.01278,0.01278,0.01278,0.01278,000,0.01278
2013-10-25,0.01278,0.01278,0.01278,0.01278,000,0.01278
2013-10-24,0.01278,0.01278,0.01278,0.01278,000,0.01278
2013-10-23,0.01278,0.01278,0.01278,0.01278,000,0.01278
2013-10-22,0.01278,0.01278,0.01278,0.01278,000,0.01278
2013-10-21,0.01278,0.01278,0.01278,0.01278,205400,0.01278
2013-10-18,0.01278,0.01278,0.01278,0.01278,000,0.01278
2013-10-17,0.01278,0.01278,0.01278,0.01278,29300,0.01278
2013-10-16,0.01278,0.01278,0.01278,0.01278,000,0.01278
2013-10-15,0.01278,0.01278,0.01278,0.01278,000,0.01278
2013-10-14,0.01278,0.01278,0.01278,0.01278,000,0.01278
2013-10-11,0.01278,0.01278,0.01278,0.01278,000,0.01278
2013-10-10,0.01278,0.01278,0.01278,0.01278,000,0.01278
2013-10-09,0.01278,0.01278,0.01278,0.01278,000,0.01278
2013-10-08,0.01278,0.01278,0.01278,0.01278,000,0.01278
2013-10-07,0.01278,0.01278,0.01278,0.01278,000,0.01278
2013-10-04,0.01278,0.01278,0.01278,0.01278,000,0.01278
2013-10-03,0.01278,0.01278,0.01278,0.01278,000,0.01278
2013-10-02,0.01278,0.01278,0.01278,0.01278,000,0.01278
2013-10-01,0.01278,0.01278,0.01278,0.01278,000,0.01278
2013-09-30,0.01278,0.01278,0.01278,0.01278,000,0.01278
2013-09-27,0.01278,0.01278,0.01278,0.01278,000,0.01278
2013-09-26,0.01278,0.01278,0.01278,0.01278,000,0.01278
2013-09-25,0.01278,0.01278,0.01278,0.01278,000,0.01278
2013-09-24,0.01278,0.01278,0.01278,0.01278,000,0.01278
2013-09-23,0.01278,0.01278,0.01278,0.01278,000,0.01278
2013-09-20,0.01278,0.01278,0.01278,0.01278,000,0.01278
2013-09-19,0.01278,0.01278,0.01278,0.01278,000,0.01278
2013-09-18,0.01278,0.01278,0.01278,0.01278,000,0.01278
2013-09-17,0.01278,0.01278,0.01278,0.01278,000,0.01278
2013-09-16,0.01278,0.01278,0.01278,0.01278,000,0.01278
2013-09-13,0.01278,0.01278,0.01278,0.01278,000,0.01278
2013-09-12,0.01278,0.01278,0.01278,0.01278,000,0.01278
2013-09-11,0.01278,0.01278,0.01278,0.01278,000,0.01278
2013-09-10,0.01278,0.01278,0.01278,0.01278,000,0.01278
2013-09-09,0.01278,0.01278,0.01278,0.01278,000,0.01278
2013-09-06,0.01278,0.01278,0.01278,0.01278,000,0.01278
2013-09-05,0.01278,0.01278,0.01278,0.01278,000,0.01278
2013-09-04,0.01278,0.01278,0.01278,0.01278,000,0.01278
2013-09-03,0.01278,0.01278,0.01278,0.01278,5200,0.01278
2013-09-02,0.01278,0.01278,0.01278,0.01278,164300,0.01278
2013-08-30,0.01278,0.01278,0.01278,0.01278,76300,0.01278
2013-08-29,0.01278,0.01278,0.01278,0.01278,000,0.01278
2013-08-28,0.01278,0.01278,0.01278,0.01278,000,0.01278
2013-08-27,0.01278,0.01278,0.01278,0.01278,8800,0.01278
2013-08-26,0.01278,0.01278,0.01278,0.01278,000,0.01278
2013-08-23,0.01278,0.01278,0.01278,0.01278,000,0.01278
2013-08-22,0.01278,0.01278,0.01278,0.01278,000,0.01278
2013-08-21,0.01278,0.01278,0.01278,0.01278,000,0.01278
2013-08-20,0.01278,0.01278,0.01278,0.01278,17600,0.01278
2013-08-19,0.01278,0.01278,0.01278,0.01278,000,0.01278
2013-08-16,0.01278,0.01278,0.01278,0.01278,000,0.01278
2013-08-15,0.01278,0.01278,0.01278,0.01278,901500,0.01278
2013-08-14,0.01278,0.01278,0.01278,0.01278,000,0.01278
2013-08-13,0.01278,0.01278,0.01278,0.01278,000,0.01278
2013-08-12,0.01278,0.01278,0.01278,0.01278,000,0.01278
2013-08-09,0.01278,0.01278,0.01278,0.01278,000,0.01278
2013-08-08,0.01278,0.01278,0.01278,0.01278,000,0.01278
2013-08-07,0.01278,0.01278,0.01278,0.01278,000,0.01278
2013-08-06,0.01278,0.01278,0.01278,0.01278,000,0.01278
2013-08-05,0.01278,0.01278,0.01278,0.01278,000,0.01278
2013-08-02,0.01278,0.01278,0.01278,0.01278,000,0.01278
2013-08-01,0.01278,0.01278,0.01278,0.01278,000,0.01278
2013-07-31,0.01278,0.01278,0.01278,0.01278,000,0.01278
2013-07-30,0.01278,0.01278,0.01278,0.01278,000,0.01278
2013-07-29,0.01278,0.01278,0.01278,0.01278,000,0.01278
2013-07-26,0.01278,0.01278,0.01278,0.01278,000,0.01278
2013-07-25,0.01278,0.01278,0.01278,0.01278,000,0.01278
2013-07-24,0.01278,0.01278,0.01278,0.01278,000,0.01278
2013-07-23,0.01278,0.01278,0.01278,0.01278,000,0.01278
2013-07-22,0.01278,0.01278,0.01278,0.01278,000,0.01278
2013-07-19,0.01278,0.01278,0.01278,0.01278,000,0.01278
2013-07-18,0.01278,0.01278,0.01278,0.01278,11700,0.01278
2013-07-17,0.00852,0.00852,0.00852,0.00852,000,0.00852
2013-07-16,0.00852,0.00852,0.00852,0.00852,000,0.00852
2013-07-15,0.00852,0.00852,0.00852,0.00852,000,0.00852
2013-07-12,0.00852,0.00852,0.00852,0.00852,000,0.00852
2013-07-11,0.00852,0.00852,0.00852,0.00852,000,0.00852
2013-07-10,0.00852,0.00852,0.00852,0.00852,000,0.00852
2013-07-09,0.00852,0.00852,0.00852,0.00852,000,0.00852
2013-07-08,0.00852,0.00852,0.00852,0.00852,000,0.00852
2013-07-05,0.00852,0.00852,0.00852,0.00852,000,0.00852
2013-07-04,0.00852,0.00852,0.00852,0.00852,000,0.00852
2013-07-03,0.00852,0.00852,0.00852,0.00852,000,0.00852
2013-07-02,0.00852,0.00852,0.00852,0.00852,000,0.00852
2013-07-01,0.00852,0.00852,0.00852,0.00852,000,0.00852
2013-06-28,0.00852,0.00852,0.00852,0.00852,000,0.00852
2013-06-27,0.00852,0.00852,0.00852,0.00852,000,0.00852
2013-06-26,0.00852,0.00852,0.00852,0.00852,73900,0.00852
2013-06-25,0.00767,0.00767,0.00767,0.00767,000,0.00767
2013-06-24,0.00767,0.00767,0.00767,0.00767,000,0.00767
2013-06-21,0.00767,0.00767,0.00767,0.00767,6500,0.00767
2013-06-20,0.01278,0.01278,0.01278,0.01278,000,0.01278
2013-06-19,0.01278,0.01278,0.01278,0.01278,000,0.01278
2013-06-18,0.01278,0.01278,0.01278,0.01278,000,0.01278
2013-06-17,0.01278,0.01278,0.01278,0.01278,000,0.01278
2013-06-14,0.01278,0.01278,0.01278,0.01278,000,0.01278
2013-06-13,0.01278,0.01278,0.01278,0.01278,000,0.01278
2013-06-12,0.01278,0.01278,0.01278,0.01278,000,0.01278
2013-06-11,0.01278,0.01278,0.01278,0.01278,000,0.01278
2013-06-10,0.01278,0.01278,0.01278,0.01278,000,0.01278
2013-06-07,0.01278,0.01278,0.01278,0.01278,000,0.01278
2013-06-06,0.01278,0.01278,0.01278,0.01278,000,0.01278
2013-06-05,0.01278,0.01278,0.01278,0.01278,000,0.01278
2013-06-04,0.01278,0.01278,0.01278,0.01278,000,0.01278
2013-06-03,0.01278,0.01278,0.01278,0.01278,11700,0.01278
2013-05-31,0.01278,0.01278,0.01278,0.01278,000,0.01278
2013-05-30,0.01278,0.01278,0.01278,0.01278,000,0.01278
2013-05-29,0.01278,0.01278,0.01278,0.01278,704300,0.01278
2013-05-28,0.01448,0.01448,0.01448,0.01448,000,0.01448
2013-05-27,0.01448,0.01448,0.01448,0.01448,000,0.01448
2013-05-24,0.01448,0.01448,0.01448,0.01448,000,0.01448
2013-05-23,0.01363,0.01448,0.01363,0.01448,184300,0.01448
2013-05-22,0.01448,0.01448,0.01448,0.01448,000,0.01448
2013-05-21,0.01448,0.01448,0.01448,0.01448,000,0.01448
2013-05-20,0.01448,0.01448,0.01448,0.01448,000,0.01448
2013-05-17,0.01448,0.01448,0.01448,0.01448,000,0.01448
2013-05-16,0.01448,0.01448,0.01448,0.01448,000,0.01448
2013-05-15,0.01448,0.01448,0.01448,0.01448,73900,0.01448
2013-05-14,0.01448,0.01448,0.01448,0.01448,000,0.01448
2013-05-13,0.01448,0.01448,0.01448,0.01448,000,0.01448
2013-05-10,0.01448,0.01448,0.01448,0.01448,000,0.01448
2013-05-09,0.01448,0.01448,0.01448,0.01448,000,0.01448
2013-05-08,0.01448,0.01448,0.01448,0.01448,11700,0.01448
2013-05-07,0.01363,0.01363,0.01363,0.01363,000,0.01363
2013-05-06,0.01363,0.01363,0.01363,0.01363,1200,0.01363
2013-05-03,0.00937,0.00937,0.00937,0.00937,1200,0.00937
2013-05-02,0.01107,0.01107,0.01107,0.01107,000,0.01107
2013-05-01,0.01107,0.01107,0.01107,0.01107,000,0.01107
2013-04-30,0.01107,0.01107,0.01107,0.01107,000,0.01107
2013-04-29,0.01107,0.01107,0.01107,0.01107,000,0.01107
2013-04-26,0.01107,0.01107,0.01107,0.01107,000,0.01107
2013-04-25,0.01107,0.01107,0.01107,0.01107,000,0.01107
2013-04-24,0.01107,0.01107,0.01107,0.01107,000,0.01107
2013-04-23,0.01107,0.01107,0.01107,0.01107,000,0.01107
2013-04-22,0.01107,0.01107,0.01107,0.01107,000,0.01107
2013-04-19,0.01107,0.01107,0.01107,0.01107,000,0.01107
2013-04-18,0.01107,0.01107,0.01107,0.01107,000,0.01107
2013-04-17,0.01278,0.01278,0.01107,0.01107,868600,0.01107
2013-04-16,0.01363,0.01363,0.01363,0.01363,352100,0.01363
2013-04-15,0.01448,0.01448,0.01448,0.01448,000,0.01448
2013-04-12,0.01448,0.01448,0.01448,0.01448,176000,0.01448
2013-04-11,0.01448,0.01448,0.01448,0.01448,35200,0.01448
2013-04-10,0.01448,0.01448,0.01448,0.01448,35200,0.01448
2013-04-09,0.01448,0.01448,0.01448,0.01448,58600,0.01448
2013-04-08,0.01704,0.01704,0.01448,0.01448,176000,0.01448
2013-04-05,0.01448,0.01704,0.01448,0.01704,187800,0.01704
2013-04-04,0.01704,0.01704,0.01704,0.01704,000,0.01704
2013-04-03,0.01704,0.01704,0.01704,0.01704,000,0.01704
2013-04-02,0.01704,0.01704,0.01704,0.01704,144300,0.01704
2013-04-01,0.02641,0.02641,0.02641,0.02641,000,0.02641
2013-03-29,0.02641,0.02641,0.02641,0.02641,000,0.02641
2013-03-28,0.02641,0.02641,0.02641,0.02641,000,0.02641
2013-03-27,0.02641,0.02641,0.02641,0.02641,000,0.02641
2013-03-26,0.02641,0.02641,0.02641,0.02641,000,0.02641
2013-03-25,0.02641,0.02641,0.02641,0.02641,000,0.02641
2013-03-22,0.02641,0.02641,0.02641,0.02641,000,0.02641
2013-03-21,0.02641,0.02641,0.02641,0.02641,000,0.02641
2013-03-20,0.02641,0.02641,0.02641,0.02641,000,0.02641
2013-03-19,0.02641,0.02641,0.02641,0.02641,000,0.02641
2013-03-18,0.02641,0.02641,0.02641,0.02641,000,0.02641
2013-03-15,0.02641,0.02641,0.02641,0.02641,000,0.02641
2013-03-14,0.02641,0.02641,0.02641,0.02641,234700,0.02641
2013-03-13,0.02556,0.02556,0.02556,0.02556,000,0.02556
2013-03-12,0.02556,0.02556,0.02556,0.02556,000,0.02556
2013-03-11,0.02556,0.02556,0.02556,0.02556,000,0.02556
2013-03-08,0.02556,0.02556,0.02556,0.02556,000,0.02556
2013-03-07,0.02556,0.02556,0.02556,0.02556,11700,0.02556
2013-03-06,0.02556,0.02556,0.02556,0.02556,000,0.02556
2013-03-05,0.02556,0.02556,0.02556,0.02556,000,0.02556
2013-03-04,0.02556,0.02556,0.02556,0.02556,000,0.02556
2013-03-01,0.02556,0.02556,0.02556,0.02556,000,0.02556
2013-02-28,0.02556,0.02556,0.02556,0.02556,000,0.02556
2013-02-27,0.02556,0.02556,0.02556,0.02556,28100,0.02556
2013-02-26,0.03407,0.03407,0.03407,0.03407,000,0.03407
2013-02-25,0.03407,0.03407,0.03407,0.03407,000,0.03407
2013-02-22,0.03407,0.03407,0.03407,0.03407,000,0.03407
2013-02-21,0.03407,0.03407,0.03407,0.03407,17000,0.03407
2013-02-20,0.04259,0.04259,0.03578,0.03578,67200,0.03578
2013-02-19,0.04259,0.04259,0.04259,0.04259,000,0.04259
2013-02-18,0.04259,0.04259,0.04259,0.04259,3200,0.04259
2013-02-15,0.07667,0.07667,0.07667,0.07667,000,0.07667
2013-02-14,0.07667,0.07667,0.07667,0.07667,3200,0.07667
2013-02-13,0.08519,0.08519,0.08519,0.08519,000,0.08519
2013-02-12,0.07667,0.08519,0.07667,0.08519,51600,0.08519
2013-02-11,0.04259,0.04259,0.04259,0.04259,322800,0.04259
2013-02-08,0.00085,0.00085,0.00085,0.00085,000,0.00085
2013-02-07,0.00085,0.00085,0.00085,0.00085,000,0.00085
2013-02-06,0.00085,0.00085,0.00085,0.00085,000,0.00085
2013-02-05,0.00085,0.00085,0.00085,0.00085,000,0.00085
2013-02-04,0.00085,0.00085,0.00085,0.00085,000,0.00085
2013-02-01,0.00085,0.00085,0.00085,0.00085,000,0.00085
2013-01-31,0.00085,0.00085,0.00085,0.00085,000,0.00085
2013-01-30,0.00085,0.00085,0.00085,0.00085,000,0.00085
2013-01-29,0.00085,0.00085,0.00085,0.00085,000,0.00085
2013-01-28,0.00085,0.00085,0.00085,0.00085,000,0.00085
2013-01-25,0.00085,0.00085,0.00085,0.00085,000,0.00085
2013-01-24,0.00085,0.00085,0.00085,0.00085,000,0.00085
2013-01-22,0.00085,0.00085,0.00085,0.00085,000,0.00085
2013-01-21,0.00085,0.00085,0.00085,0.00085,000,0.00085
2013-01-18,0.00085,0.00085,0.00085,0.00085,000,0.00085
2013-01-17,0.00085,0.00085,0.00085,0.00085,000,0.00085
2013-01-16,0.08007,0.08007,0.08007,0.08007,000,0.08007
2013-01-15,0.08007,0.08007,0.08007,0.08007,000,0.08007
2013-01-14,0.08007,0.08007,0.08007,0.08007,000,0.08007
2013-01-11,0.08007,0.08007,0.08007,0.08007,000,0.08007
2013-01-10,0.08007,0.08007,0.08007,0.08007,000,0.08007
2013-01-09,0.08007,0.08007,0.08007,0.08007,000,0.08007
2013-01-08,0.08007,0.08007,0.08007,0.08007,000,0.08007
2013-01-07,0.08007,0.08007,0.08007,0.08007,000,0.08007
2013-01-04,0.08007,0.08007,0.08007,0.08007,000,0.08007
2013-01-03,0.08007,0.08007,0.08007,0.08007,000,0.08007
2013-01-02,0.08007,0.08007,0.08007,0.08007,000,0.08007
2013-01-01,0.08007,0.08007,0.08007,0.08007,000,0.08007
2012-12-31,0.08007,0.08007,0.08007,0.08007,000,0.08007
2012-12-28,0.08007,0.08007,0.08007,0.08007,000,0.08007
2012-12-27,0.08007,0.08007,0.08007,0.08007,000,0.08007
2012-12-26,0.08007,0.08007,0.08007,0.08007,000,0.08007
2012-12-25,0.08007,0.08007,0.08007,0.08007,000,0.08007
2012-12-24,0.08007,0.08007,0.08007,0.08007,000,0.08007
2012-12-21,0.08007,0.08007,0.08007,0.08007,000,0.08007
2012-12-20,0.08007,0.08007,0.08007,0.08007,000,0.08007
2012-12-19,0.08007,0.08007,0.08007,0.08007,000,0.08007
2012-12-18,0.08007,0.08007,0.08007,0.08007,000,0.08007
2012-12-17,0.08007,0.08007,0.08007,0.08007,000,0.08007
2012-12-14,0.08007,0.08007,0.08007,0.08007,2300,0.08007
2012-12-13,0.08093,0.08093,0.08093,0.08093,000,0.08093
2012-12-12,0.08093,0.08093,0.08093,0.08093,000,0.08093
2012-12-11,0.08093,0.08093,0.08093,0.08093,000,0.08093
2012-12-10,0.08093,0.08093,0.08093,0.08093,000,0.08093
2012-12-07,0.08093,0.08093,0.08093,0.08093,000,0.08093
2012-12-06,0.08093,0.08093,0.08093,0.08093,000,0.08093
2012-12-05,0.08093,0.08093,0.08093,0.08093,000,0.08093
2012-12-04,0.08093,0.08093,0.08093,0.08093,000,0.08093
2012-12-03,0.08093,0.08093,0.08093,0.08093,000,0.08093
2012-11-30,0.08093,0.08093,0.08093,0.08093,000,0.08093
2012-11-29,0.08093,0.08093,0.08093,0.08093,000,0.08093
2012-11-28,0.08093,0.08093,0.08093,0.08093,000,0.08093
2012-11-27,0.08093,0.08093,0.08093,0.08093,000,0.08093
2012-11-26,0.08093,0.08093,0.08093,0.08093,000,0.08093
2012-11-23,0.08093,0.08093,0.08093,0.08093,000,0.08093
2012-11-22,0.08093,0.08093,0.08093,0.08093,000,0.08093
2012-11-21,0.08093,0.08093,0.08093,0.08093,000,0.08093
2012-11-20,0.08093,0.08093,0.08093,0.08093,000,0.08093
2012-11-19,0.08093,0.08093,0.08093,0.08093,000,0.08093
2012-11-16,0.08093,0.08093,0.08093,0.08093,000,0.08093
2012-11-15,0.08093,0.08093,0.08093,0.08093,000,0.08093
2012-11-14,0.08093,0.08093,0.08093,0.08093,000,0.08093
2012-11-13,0.08093,0.08093,0.08093,0.08093,000,0.08093
2012-11-12,0.08093,0.08093,0.08093,0.08093,000,0.08093
2012-11-09,0.08093,0.08093,0.08093,0.08093,000,0.08093
2012-11-08,0.08093,0.08093,0.08093,0.08093,000,0.08093
2012-11-07,0.08093,0.08093,0.08093,0.08093,000,0.08093
2012-11-06,0.08093,0.08093,0.08093,0.08093,000,0.08093
2012-11-05,0.08093,0.08093,0.08093,0.08093,000,0.08093
2012-11-02,0.08093,0.08093,0.08093,0.08093,000,0.08093
2012-11-01,0.08093,0.08093,0.08093,0.08093,000,0.08093
2012-10-31,0.08093,0.08093,0.08093,0.08093,000,0.08093
2012-10-30,0.08093,0.08093,0.08093,0.08093,000,0.08093
2012-10-29,0.08093,0.08093,0.08093,0.08093,000,0.08093
2012-10-26,0.08093,0.08093,0.08093,0.08093,000,0.08093
2012-10-25,0.08093,0.08093,0.08093,0.08093,000,0.08093
2012-10-24,0.08093,0.08093,0.08093,0.08093,000,0.08093
2012-10-23,0.08093,0.08093,0.08093,0.08093,000,0.08093
2012-10-22,0.08093,0.08093,0.08093,0.08093,000,0.08093
2012-10-19,0.08093,0.08093,0.08093,0.08093,000,0.08093
2012-10-18,0.08093,0.08093,0.08093,0.08093,000,0.08093
2012-10-17,0.08093,0.08093,0.08093,0.08093,000,0.08093
2012-10-16,0.08093,0.08093,0.08093,0.08093,000,0.08093
2012-10-15,0.08093,0.08093,0.08093,0.08093,000,0.08093
2012-10-12,0.08093,0.08093,0.08093,0.08093,000,0.08093
2012-10-11,0.08093,0.08093,0.08093,0.08093,000,0.08093
2012-10-10,0.08093,0.08093,0.08093,0.08093,000,0.08093
2012-10-09,0.08093,0.08093,0.08093,0.08093,000,0.08093
2012-10-08,0.08093,0.08093,0.08093,0.08093,000,0.08093
2012-10-05,0.08093,0.08093,0.08093,0.08093,000,0.08093
2012-10-04,0.08093,0.08093,0.08093,0.08093,000,0.08093
2012-10-03,0.08093,0.08093,0.08093,0.08093,000,0.08093
2012-10-02,0.08093,0.08093,0.08093,0.08093,11700,0.08093
2012-10-01,0.08093,0.08093,0.08093,0.08093,000,0.08093
2012-09-28,0.08093,0.08093,0.08093,0.08093,46900,0.08093
2012-09-27,0.11926,0.11926,0.11926,0.11926,000,0.11926
2012-09-26,0.11926,0.11926,0.11926,0.11926,000,0.11926
2012-09-25,0.11926,0.11926,0.11926,0.11926,000,0.11926
2012-09-24,0.11926,0.11926,0.11926,0.11926,000,0.11926
2012-09-21,0.11926,0.11926,0.11926,0.11926,000,0.11926
2012-09-20,0.11926,0.11926,0.11926,0.11926,000,0.11926
2012-09-19,0.11926,0.11926,0.11926,0.11926,000,0.11926
2012-09-18,0.11926,0.11926,0.11926,0.11926,000,0.11926
2012-09-17,0.11926,0.11926,0.11926,0.11926,000,0.11926
2012-09-14,0.11926,0.11926,0.11926,0.11926,000,0.11926
2012-09-13,0.11926,0.11926,0.11926,0.11926,000,0.11926
2012-09-12,0.11926,0.11926,0.11926,0.11926,000,0.11926
2012-09-11,0.11926,0.11926,0.11926,0.11926,000,0.11926
2012-09-10,0.11926,0.11926,0.11926,0.11926,000,0.11926
2012-09-07,0.11926,0.11926,0.11926,0.11926,000,0.11926
2012-09-06,0.11926,0.11926,0.11926,0.11926,000,0.11926
2012-09-05,0.11926,0.11926,0.11926,0.11926,000,0.11926
2012-09-04,0.11926,0.11926,0.11926,0.11926,000,0.11926
2012-09-03,0.11926,0.11926,0.11926,0.11926,000,0.11926
2012-08-31,0.11926,0.11926,0.11926,0.11926,000,0.11926
2012-08-30,0.11926,0.11926,0.11926,0.11926,000,0.11926
2012-08-29,0.11926,0.11926,0.11926,0.11926,000,0.11926
2012-08-28,0.11926,0.11926,0.11926,0.11926,000,0.11926
2012-08-27,0.11926,0.11926,0.11926,0.11926,000,0.11926
2012-08-24,0.11926,0.11926,0.11926,0.11926,000,0.11926
2012-08-23,0.11926,0.11926,0.11926,0.11926,000,0.11926
2012-08-22,0.11926,0.11926,0.11926,0.11926,000,0.11926
2012-08-21,0.11926,0.11926,0.11926,0.11926,000,0.11926
2012-08-20,0.11926,0.11926,0.11926,0.11926,000,0.11926
2012-08-17,0.11926,0.11926,0.11926,0.11926,000,0.11926
2012-08-16,0.11926,0.11926,0.11926,0.11926,000,0.11926
2012-08-15,0.11926,0.11926,0.11926,0.11926,000,0.11926
2012-08-14,0.11926,0.11926,0.11926,0.11926,000,0.11926
2012-08-13,0.11926,0.11926,0.11926,0.11926,000,0.11926
2012-08-10,0.11926,0.11926,0.11926,0.11926,000,0.11926
2012-08-09,0.11926,0.11926,0.11926,0.11926,000,0.11926
2012-08-08,0.11926,0.11926,0.11926,0.11926,000,0.11926
2012-08-07,0.11926,0.11926,0.11926,0.11926,000,0.11926
2012-08-06,0.11926,0.11926,0.11926,0.11926,000,0.11926
2012-08-03,0.11926,0.11926,0.11926,0.11926,000,0.11926
2012-08-02,0.11926,0.11926,0.11926,0.11926,000,0.11926
2012-08-01,0.11926,0.11926,0.11926,0.11926,000,0.11926
2012-07-31,0.11926,0.11926,0.11926,0.11926,000,0.11926
2012-07-30,0.11926,0.11926,0.11926,0.11926,000,0.11926
2012-07-27,0.11926,0.11926,0.11926,0.11926,000,0.11926
2012-07-26,0.11926,0.11926,0.11926,0.11926,000,0.11926
2012-07-25,0.11926,0.11926,0.11926,0.11926,000,0.11926
2012-07-24,0.11926,0.11926,0.11926,0.11926,000,0.11926
2012-07-23,0.11926,0.11926,0.11926,0.11926,000,0.11926
2012-07-20,0.11926,0.11926,0.11926,0.11926,000,0.11926
2012-07-19,0.11926,0.11926,0.11926,0.11926,000,0.11926
2012-07-18,0.11926,0.11926,0.11926,0.11926,000,0.11926
2012-07-17,0.11926,0.11926,0.11926,0.11926,000,0.11926
2012-07-16,0.11926,0.11926,0.11926,0.11926,000,0.11926
2012-07-13,0.11926,0.11926,0.11926,0.11926,000,0.11926
2012-07-12,0.11926,0.11926,0.11926,0.11926,000,0.11926
2012-07-11,0.11926,0.11926,0.11926,0.11926,000,0.11926
2012-07-10,0.11926,0.11926,0.11926,0.11926,000,0.11926
2012-07-09,0.11926,0.11926,0.11926,0.11926,000,0.11926
2012-07-06,0.11926,0.11926,0.11926,0.11926,000,0.11926
2012-07-05,0.11926,0.11926,0.11926,0.11926,000,0.11926
2012-07-04,0.11926,0.11926,0.11926,0.11926,000,0.11926
2012-07-03,0.11926,0.11926,0.11926,0.11926,000,0.11926
2012-07-02,0.11926,0.11926,0.11926,0.11926,000,0.11926
2012-06-29,0.11926,0.11926,0.11926,0.11926,000,0.11926
2012-06-28,0.11926,0.11926,0.11926,0.11926,000,0.11926
2012-06-27,0.11926,0.11926,0.11926,0.11926,000,0.11926
2012-06-26,0.11926,0.11926,0.11926,0.11926,000,0.11926
2012-06-25,0.11926,0.11926,0.11926,0.11926,1400,0.11926
2012-06-22,0.11926,0.11926,0.11926,0.11926,13200,0.11926
2012-06-21,0.10222,0.10222,0.10222,0.10222,30700,0.10222
2012-06-20,0.1363,0.1363,0.1363,0.1363,000,0.1363
2012-06-19,0.1363,0.1363,0.1363,0.1363,2500,0.1363
2012-06-18,0.12778,0.12778,0.12778,0.12778,20900,0.12778
2012-06-15,0.11074,0.11074,0.10222,0.10222,14600,0.10222
2012-06-14,0.1363,0.1363,0.1363,0.1363,000,0.1363
2012-06-13,0.1363,0.1363,0.1363,0.1363,000,0.1363
2012-06-12,0.1363,0.1363,0.1363,0.1363,000,0.1363
2012-06-11,0.1363,0.1363,0.1363,0.1363,000,0.1363
2012-06-08,0.1363,0.1363,0.1363,0.1363,000,0.1363
2012-06-07,0.1363,0.1363,0.1363,0.1363,000,0.1363
2012-06-06,0.1363,0.1363,0.1363,0.1363,000,0.1363
2012-06-05,0.1363,0.1363,0.1363,0.1363,000,0.1363
2012-06-04,0.1363,0.1363,0.1363,0.1363,000,0.1363
2012-06-01,0.1363,0.1363,0.1363,0.1363,000,0.1363
2012-05-31,0.1363,0.1363,0.1363,0.1363,000,0.1363
2012-05-30,0.1363,0.1363,0.1363,0.1363,000,0.1363
2012-05-29,0.1363,0.1363,0.1363,0.1363,000,0.1363
2012-05-28,0.1363,0.1363,0.1363,0.1363,000,0.1363
2012-05-25,0.1363,0.1363,0.1363,0.1363,11700,0.1363
2012-05-24,0.12778,0.12778,0.12778,0.12778,000,0.12778
2012-05-23,0.12778,0.12778,0.12778,0.12778,29300,0.12778
2012-05-22,0.14907,0.14907,0.14907,0.14907,000,0.14907
2012-05-21,0.14907,0.14907,0.14907,0.14907,000,0.14907
2012-05-18,0.14907,0.14907,0.14907,0.14907,000,0.14907
2012-05-17,0.1363,0.14907,0.1363,0.14907,30500,0.14907
2012-05-16,0.1363,0.14481,0.1363,0.14481,46900,0.14481
2012-05-15,0.15333,0.15333,0.15333,0.15333,000,0.15333
2012-05-14,0.15333,0.15333,0.15333,0.15333,000,0.15333
2012-05-11,0.15333,0.15333,0.15333,0.15333,000,0.15333
2012-05-10,0.15333,0.15333,0.15333,0.15333,000,0.15333
2012-05-09,0.15333,0.15333,0.15333,0.15333,000,0.15333
2012-05-08,0.15333,0.15333,0.15333,0.15333,000,0.15333
2012-05-07,0.15333,0.15333,0.15333,0.15333,000,0.15333
2012-05-04,0.15333,0.15333,0.15333,0.15333,000,0.15333
2012-05-03,0.15333,0.15333,0.15333,0.15333,000,0.15333
2012-05-02,0.1363,0.15333,0.1363,0.15333,70400,0.15333
2012-05-01,0.15333,0.15333,0.15333,0.15333,000,0.15333
2012-04-30,0.15333,0.15333,0.15333,0.15333,000,0.15333
2012-04-27,0.15333,0.15333,0.15333,0.15333,000,0.15333
2012-04-26,0.15333,0.15333,0.15333,0.15333,000,0.15333
2012-04-25,0.15333,0.15333,0.15333,0.15333,000,0.15333
2012-04-24,0.14056,0.15333,0.14056,0.15333,70400,0.15333
2012-04-23,0.15759,0.15759,0.15759,0.15759,000,0.15759
2012-04-20,0.15759,0.15759,0.15759,0.15759,000,0.15759
2012-04-19,0.14907,0.15759,0.14481,0.15759,44200,0.15759
2012-04-18,0.16611,0.16611,0.16611,0.16611,000,0.16611
2012-04-17,0.16611,0.16611,0.16611,0.16611,000,0.16611
2012-04-16,0.16611,0.16611,0.16611,0.16611,000,0.16611
2012-04-13,0.16611,0.16611,0.16611,0.16611,000,0.16611
2012-04-12,0.16611,0.16611,0.16611,0.16611,000,0.16611
2012-04-11,0.15759,0.16611,0.15333,0.16611,88000,0.16611
2012-04-10,0.16611,0.16611,0.16611,0.16611,000,0.16611
2012-04-09,0.16611,0.16611,0.16611,0.16611,000,0.16611
2012-04-06,0.16611,0.16611,0.16611,0.16611,000,0.16611
2012-04-05,0.16611,0.16611,0.16611,0.16611,000,0.16611
2012-04-04,0.15759,0.16611,0.15759,0.16611,29300,0.16611
2012-04-03,0.15333,0.17037,0.14481,0.14481,305800,0.14481
2012-04-02,0.17037,0.17037,0.17037,0.17037,000,0.17037
2012-03-30,0.17037,0.17037,0.17037,0.17037,29300,0.17037
2012-03-29,0.17037,0.17037,0.17037,0.17037,15500,0.17037
2012-03-28,0.17037,0.18741,0.17037,0.18741,66400,0.18741
2012-03-27,0.17037,0.17037,0.17037,0.17037,000,0.17037
2012-03-26,0.15333,0.17037,0.15333,0.17037,105600,0.17037
2012-03-23,0.16185,0.16185,0.16185,0.16185,82100,0.16185
2012-03-22,0.19593,0.19593,0.19593,0.19593,000,0.19593
2012-03-21,0.19593,0.19593,0.19593,0.19593,000,0.19593
2012-03-20,0.19593,0.19593,0.19593,0.19593,000,0.19593
2012-03-19,0.19167,0.19593,0.19167,0.19593,18700,0.19593
2012-03-16,0.20019,0.20019,0.20019,0.20019,000,0.20019
2012-03-15,0.18741,0.20019,0.18741,0.20019,64500,0.20019
2012-03-14,0.20444,0.20444,0.18741,0.18741,17600,0.18741
2012-03-13,0.18741,0.20444,0.18741,0.20444,29300,0.20444
2012-03-12,0.15333,0.15333,0.15333,0.15333,000,0.15333
2012-03-09,0.15333,0.15333,0.15333,0.15333,000,0.15333
2012-03-08,0.15333,0.15333,0.15333,0.15333,000,0.15333
2012-03-07,0.15333,0.15333,0.15333,0.15333,000,0.15333
2012-03-06,0.15333,0.15333,0.15333,0.15333,000,0.15333
2012-03-05,0.15333,0.15333,0.15333,0.15333,000,0.15333
2012-03-02,0.15333,0.15333,0.15333,0.15333,000,0.15333
2012-03-01,0.15333,0.15333,0.15333,0.15333,000,0.15333
2012-02-29,0.15333,0.15333,0.15333,0.15333,000,0.15333
2012-02-28,0.15333,0.15333,0.15333,0.15333,000,0.15333
2012-02-27,0.15333,0.15333,0.15333,0.15333,000,0.15333
2012-02-24,0.15333,0.15333,0.15333,0.15333,000,0.15333
2012-02-23,0.15333,0.15333,0.15333,0.15333,000,0.15333
2012-02-22,0.15333,0.15333,0.15333,0.15333,000,0.15333
2012-02-21,0.15333,0.15333,0.15333,0.15333,000,0.15333
2012-02-20,0.15333,0.15333,0.15333,0.15333,000,0.15333
2012-02-17,0.15333,0.15333,0.15333,0.15333,000,0.15333
2012-02-16,0.15333,0.15333,0.15333,0.15333,000,0.15333
2012-02-15,0.15333,0.15333,0.15333,0.15333,000,0.15333
2012-02-14,0.15333,0.15333,0.15333,0.15333,000,0.15333
2012-02-13,0.15333,0.15333,0.15333,0.15333,000,0.15333
2012-02-10,0.15333,0.15333,0.15333,0.15333,000,0.15333
2012-02-09,0.15333,0.15333,0.15333,0.15333,000,0.15333
2012-02-08,0.15333,0.15333,0.15333,0.15333,000,0.15333
2012-02-07,0.15333,0.15333,0.15333,0.15333,000,0.15333
2012-02-06,0.15333,0.15333,0.15333,0.15333,000,0.15333
2012-02-03,0.15333,0.15333,0.15333,0.15333,000,0.15333
2012-02-02,0.15333,0.15333,0.15333,0.15333,000,0.15333
2012-02-01,0.15333,0.15333,0.15333,0.15333,000,0.15333
2012-01-31,0.15333,0.15333,0.15333,0.15333,000,0.15333
2012-01-27,0.15333,0.15333,0.15333,0.15333,000,0.15333
2012-01-26,0.15333,0.15333,0.15333,0.15333,000,0.15333
2012-01-25,0.15333,0.15333,0.15333,0.15333,000,0.15333
2012-01-24,0.15333,0.15333,0.15333,0.15333,000,0.15333
2012-01-23,0.15333,0.15333,0.15333,0.15333,000,0.15333
2012-01-20,0.15333,0.15333,0.15333,0.15333,000,0.15333
2012-01-19,0.15333,0.15333,0.15333,0.15333,000,0.15333
2012-01-18,0.15333,0.15333,0.15333,0.15333,000,0.15333
2012-01-17,0.15333,0.15333,0.15333,0.15333,000,0.15333
2012-01-16,0.15333,0.15333,0.15333,0.15333,000,0.15333
2012-01-13,0.15333,0.15333,0.15333,0.15333,000,0.15333
2012-01-12,0.15333,0.15333,0.15333,0.15333,000,0.15333
2012-01-11,0.15333,0.15333,0.15333,0.15333,000,0.15333
2012-01-10,0.15333,0.15333,0.15333,0.15333,000,0.15333
2012-01-09,0.15333,0.15333,0.15333,0.15333,000,0.15333
2012-01-06,0.15333,0.15333,0.15333,0.15333,000,0.15333
2012-01-05,0.15333,0.15333,0.15333,0.15333,000,0.15333
2012-01-04,0.15333,0.15333,0.15333,0.15333,000,0.15333
2012-01-03,0.15333,0.15333,0.15333,0.15333,000,0.15333
2012-01-02,0.15333,0.15333,0.15333,0.15333,000,0.15333
2011-12-30,0.15333,0.15333,0.15333,0.15333,000,0.15333
2011-12-29,0.15333,0.15333,0.15333,0.15333,000,0.15333
2011-12-28,0.15333,0.15333,0.15333,0.15333,000,0.15333
2011-12-27,0.15334,0.15334,0.15334,0.15334,000,0.30667
2011-12-26,0.15334,0.15334,0.15334,0.15334,000,0.30667
2011-12-23,0.15334,0.15334,0.15334,0.15334,000,0.30667
2011-12-22,0.15334,0.15334,0.15334,0.15334,000,0.30667
2011-12-21,0.07241,0.07666,0.07241,0.07666,59300,0.15333
2011-12-20,0.07666,0.07666,0.07666,0.07666,76300,0.15333
2011-12-19,0.07666,0.07666,0.07666,0.07666,20800,0.15333
2011-12-16,0.08518,0.08518,0.08518,0.08518,000,0.17037
2011-12-15,0.08518,0.08518,0.08518,0.08518,000,0.17037
2011-12-14,0.07666,0.08518,0.07666,0.08518,43700,0.17037
2011-12-13,0.08518,0.08518,0.08518,0.08518,000,0.17037
2011-12-12,0.08518,0.08518,0.08518,0.08518,000,0.17037
2011-12-09,0.08945,0.08945,0.08518,0.08518,9100,0.17037
2011-12-08,0.07666,0.07666,0.07666,0.07666,000,0.15333
2011-12-07,0.07666,0.07666,0.07666,0.07666,000,0.15333
2011-12-06,0.07666,0.07666,0.07666,0.07666,000,0.15333
2011-12-05,0.07666,0.07666,0.07666,0.07666,000,0.15333
2011-12-02,0.07666,0.07666,0.07666,0.07666,000,0.15333
2011-12-01,0.07666,0.07666,0.07666,0.07666,155500,0.15333
2011-11-30,0.08518,0.08518,0.08518,0.08518,000,0.17037
2011-11-29,0.08518,0.08518,0.08518,0.08518,000,0.17037
2011-11-28,0.06389,0.08518,0.06389,0.08518,117300,0.17037
2011-11-25,0.08518,0.08518,0.08518,0.08518,000,0.17037
2011-11-24,0.08518,0.08518,0.08518,0.08518,000,0.17037
2011-11-23,0.08518,0.08518,0.08518,0.08518,000,0.17037
2011-11-22,0.08518,0.08518,0.08518,0.08518,000,0.17037
2011-11-21,0.08518,0.08518,0.08518,0.08518,58600,0.17037
2011-11-18,0.0937,0.0937,0.0937,0.0937,000,0.18741
2011-11-17,0.0937,0.0937,0.0937,0.0937,000,0.18741
2011-11-16,0.08518,0.0937,0.08518,0.0937,35200,0.18741
2011-11-15,0.0937,0.0937,0.0937,0.0937,11700,0.18741
2011-11-14,0.08518,0.08518,0.08518,0.08518,29300,0.17037
2011-11-11,0.07666,0.08093,0.07666,0.08093,117300,0.16185
2011-11-10,0.07666,0.07666,0.07666,0.07666,29300,0.15333
2011-11-08,0.08093,0.08093,0.08093,0.08093,26400,0.16185
2011-11-07,0.07666,0.08093,0.07666,0.08093,88000,0.16185
2011-11-04,0.07666,0.07666,0.07666,0.07666,9900,0.15333
2011-11-03,0.08093,0.08093,0.08093,0.08093,2800,0.16185
2011-10-28,0.07666,0.08093,0.07666,0.08093,16400,0.16185
2011-10-27,0.06219,0.06815,0.06219,0.06815,457800,0.1363
2011-10-21,0.05537,0.05537,0.05537,0.05537,117300,0.11074
2011-10-20,0.05282,0.05282,0.05282,0.05282,29300,0.10563
2011-09-27,0.04685,0.04685,0.04685,0.04685,3500,0.0937
2011-09-26,0.04941,0.04941,0.04685,0.04685,146700,0.0937
2011-09-23,0.05537,0.05537,0.05537,0.05537,58600,0.11074
2011-09-21,0.05537,0.05537,0.05537,0.05537,58600,0.11074
2011-09-19,0.05963,0.05963,0.05963,0.05963,26400,0.11926
2011-09-15,0.06815,0.07241,0.06815,0.07241,61600,0.14481
2011-09-01,0.06389,0.06389,0.06389,0.06389,1200,0.12778
2011-08-30,0.05963,0.05963,0.05963,0.05963,22200,0.11926
2011-08-16,0.06389,0.06389,0.06389,0.06389,29300,0.12778
2011-08-15,0.05452,0.05452,0.05452,0.05452,22200,0.10904
2011-08-12,0.05111,0.06389,0.05111,0.06389,71200,0.12778
2011-08-09,0.05452,0.05452,0.05452,0.05452,46100,0.10904
2011-08-08,0.05452,0.05963,0.05111,0.05452,246500,0.10904
2011-08-05,0.05963,0.05963,0.05452,0.05452,126100,0.10904
2011-07-29,0.06389,0.06389,0.06389,0.06389,58600,0.12778
2011-07-27,0.06303,0.07241,0.06048,0.06389,392300,0.12778
2011-07-26,0.07666,0.07666,0.07666,0.07666,5800,0.15333
2011-07-25,0.07666,0.07666,0.07666,0.07666,200,0.15333
2011-07-22,0.07752,0.07752,0.07666,0.07666,25300,0.15333
2011-07-21,0.06815,0.07666,0.06815,0.07666,49300,0.15333
2011-07-20,0.06815,0.06815,0.06815,0.06815,44000,0.1363
2011-07-19,0.06645,0.06815,0.06645,0.06815,8600,0.1363
2011-07-18,0.05196,0.06389,0.04941,0.06389,1072500,0.12778
2011-07-15,0.05111,0.05963,0.05111,0.05963,66900,0.11926
2011-07-14,0.05963,0.05963,0.05963,0.05963,42200,0.11926
2011-07-07,0.05963,0.0656,0.05793,0.0656,231200,0.13119
2011-07-06,0.05963,0.0656,0.05963,0.0656,58600,0.13119
2011-06-24,0.06985,0.0707,0.06985,0.06985,66800,0.1397
2011-06-22,0.06985,0.06985,0.06985,0.06985,3500,0.1397
2011-06-16,0.06815,0.06815,0.06815,0.06815,5800,0.1363
2011-06-15,0.06389,0.06815,0.06389,0.06815,41600,0.1363
2011-06-14,0.06389,0.06389,0.06389,0.06389,17800,0.12778
2011-06-07,0.06985,0.06985,0.06985,0.06985,12300,0.1397
2011-06-02,0.06985,0.06985,0.06985,0.06985,26600,0.1397
2011-05-30,0.06985,0.06985,0.05793,0.06985,91500,0.1397
2011-05-25,0.0707,0.0707,0.0707,0.0707,6900,0.14141
2011-05-23,0.0707,0.0707,0.0707,0.0707,3500,0.14141
2011-05-17,0.07666,0.07666,0.07241,0.07241,17600,0.14481
2011-05-16,0.07666,0.08093,0.07666,0.07666,120900,0.15333
2011-05-12,0.069,0.07241,0.06815,0.07241,72100,0.14481
2011-05-06,0.07666,0.07666,0.07666,0.07666,12900,0.15333
2011-05-03,0.07666,0.07666,0.07666,0.07666,7900,0.15333
2011-04-29,0.07666,0.07666,0.07666,0.07666,11700,0.15333
2011-04-28,0.07666,0.07666,0.07666,0.07666,62500,0.15333
2011-04-27,0.07666,0.07666,0.07666,0.07666,21700,0.15333
2011-04-21,0.06815,0.07666,0.06815,0.07666,44300,0.15333
2011-04-19,0.06815,0.06815,0.06815,0.06815,35200,0.1363
2011-04-18,0.06389,0.06389,0.06389,0.06389,11400,0.12778
2011-04-15,0.05111,0.05963,0.05111,0.05963,85100,0.11926
2011-04-13,0.06389,0.06389,0.05963,0.05963,79200,0.11926
2011-04-12,0.06048,0.06389,0.05963,0.06389,195200,0.12778
2011-04-11,0.0477,0.06389,0.0477,0.05963,545200,0.11926
2011-03-29,0.03492,0.03492,0.03492,0.03492,29300,0.06985
2011-03-17,0.02981,0.02981,0.02981,0.02981,58600,0.05963
2011-02-24,0.02555,0.02555,0.02555,0.02555,440200,0.05111
2011-01-25,0.02555,0.02555,0.02555,0.02555,58600,0.05111
2011-01-20,0.01704,0.01704,0.01704,0.01704,29300,0.03407
2011-01-13,0.01704,0.01704,0.01704,0.01704,27200,0.03407
2010-02-25,0.00852,0.00852,0.00852,0.00852,132000,0.01704
2010-01-05,0.00852,0.00852,0.00852,0.00852,2000,0.01704
2006-07-13,0.18741,0.18741,0.18741,0.18741,5800,0.31661
2006-07-03,0.21296,0.21296,0.18741,0.18741,64500,0.31661
2006-06-30,0.21296,0.23852,0.21296,0.23852,52800,0.40296
2006-05-31,0.23852,0.23852,0.23852,0.23852,13700,0.40296
2006-05-29,0.18741,0.18741,0.18741,0.18741,4600,0.31661
2006-05-16,0.21296,0.21296,0.17037,0.21296,17600,0.35979
2006-05-15,0.20445,0.20445,0.20445,0.20445,5800,0.3454
2006-05-05,0.17037,0.22148,0.17037,0.22148,11700,0.37418
2006-05-03,0.17889,0.17889,0.17037,0.17037,10500,0.28783
2006-05-01,0.21296,0.21296,0.21296,0.21296,58600,0.35979
2006-04-28,0.21296,0.21296,0.21296,0.21296,46900,0.35979
2006-04-21,0.21296,0.21296,0.21296,0.21296,4600,0.35979
2006-04-20,0.21296,0.21296,0.21296,0.21296,8800,0.35979
2006-04-11,0.23852,0.25556,0.23852,0.23852,29900,0.40296
2006-04-10,0.23,0.23852,0.23,0.23852,40400,0.40296
2006-03-31,0.21296,0.23852,0.21296,0.23852,18100,0.40296
2006-03-30,0.18741,0.21296,0.17037,0.21296,25400,0.35979
2006-03-29,0.18741,0.21296,0.18741,0.21296,13500,0.35979
2006-03-24,0.21296,0.21296,0.18741,0.21296,9900,0.35979
2006-03-22,0.21296,0.21296,0.21296,0.21296,22300,0.35979
2006-03-21,0.20445,0.21296,0.20445,0.21296,5800,0.35979
2006-03-16,0.21296,0.21296,0.21296,0.21296,152600,0.35979
2006-03-10,0.20445,0.22148,0.20445,0.22148,22500,0.37418
