Date,Open,High,Low,Close,Volume,Adj Close
2017-01-10,0.32,0.32,0.315,0.315,179500,0.315
2017-01-09,0.32,0.325,0.315,0.315,193100,0.315
2017-01-06,0.317,0.325,0.315,0.32,97700,0.32
2017-01-05,0.322,0.325,0.315,0.325,135900,0.325
2017-01-04,0.33,0.33,0.32,0.32,60300,0.32
2017-01-03,0.32,0.335,0.315,0.33,126300,0.33
2017-01-02,0.315,0.315,0.315,0.315,000,0.315
2016-12-30,0.32,0.33,0.315,0.315,48200,0.315
2016-12-29,0.32,0.3225,0.32,0.32,68600,0.32
2016-12-28,0.325,0.33,0.32,0.32,83400,0.32
2016-12-27,0.32,0.32,0.32,0.32,000,0.32
2016-12-26,0.32,0.32,0.32,0.32,000,0.32
2016-12-23,0.32,0.325,0.315,0.32,99700,0.32
2016-12-22,0.327,0.33,0.325,0.325,68400,0.325
2016-12-21,0.33,0.332,0.325,0.33,85800,0.33
2016-12-20,0.332,0.3325,0.33,0.33,82500,0.33
2016-12-19,0.335,0.335,0.33,0.33,56500,0.33
2016-12-16,0.34,0.3425,0.335,0.34,111400,0.34
2016-12-15,0.355,0.355,0.34,0.35,121100,0.35
2016-12-14,0.355,0.355,0.35,0.35,126300,0.35
2016-12-13,0.34,0.36,0.34,0.35,256600,0.35
2016-12-12,0.355,0.355,0.35,0.35,97500,0.35
2016-12-09,0.34,0.35,0.337,0.35,219000,0.35
2016-12-08,0.34,0.345,0.34,0.34,113100,0.34
2016-12-07,0.34,0.35,0.34,0.345,83000,0.345
2016-12-06,0.34,0.36,0.34,0.35,555300,0.35
2016-12-05,0.33,0.345,0.33,0.34,131700,0.34
2016-12-02,0.33,0.335,0.33,0.33,285700,0.33
2016-12-01,0.33,0.335,0.33,0.33,69200,0.33
2016-11-30,0.345,0.35,0.33,0.33,122500,0.33
2016-11-29,0.335,0.35,0.335,0.34,157100,0.34
2016-11-28,0.335,0.345,0.33,0.335,109300,0.335
2016-11-25,0.335,0.335,0.33,0.335,143800,0.335
2016-11-24,0.355,0.355,0.33,0.33,331300,0.33
2016-11-23,0.355,0.365,0.35,0.355,319000,0.355
2016-11-22,0.33,0.35,0.33,0.35,489500,0.35
2016-11-21,0.33,0.34,0.315,0.315,227400,0.315
2016-11-18,0.34,0.34,0.325,0.33,165400,0.33
2016-11-17,0.317,0.335,0.315,0.33,154800,0.33
2016-11-16,0.315,0.325,0.315,0.315,165000,0.315
2016-11-15,0.325,0.325,0.315,0.315,324900,0.315
2016-11-14,0.325,0.33,0.315,0.32,252200,0.32
2016-11-11,0.322,0.33,0.322,0.33,54300,0.33
2016-11-10,0.32,0.325,0.32,0.32,298900,0.32
2016-11-09,0.32,0.325,0.315,0.315,437600,0.315
2016-11-08,0.33,0.33,0.32,0.32,201700,0.32
2016-11-07,0.33,0.335,0.33,0.33,220200,0.33
2016-11-04,0.33,0.335,0.32,0.325,249300,0.325
2016-11-03,0.34,0.34,0.32,0.33,770300,0.33
2016-11-02,0.35,0.35,0.34,0.34,74900,0.34
2016-11-01,0.34,0.35,0.335,0.35,176700,0.35
2016-10-31,0.355,0.355,0.34,0.34,404800,0.34
2016-10-28,0.36,0.36,0.35,0.35,164500,0.35
2016-10-27,0.36,0.365,0.355,0.355,147400,0.355
2016-10-26,0.36,0.365,0.36,0.36,184400,0.36
2016-10-25,0.365,0.37,0.36,0.365,128500,0.365
2016-10-24,0.355,0.37,0.355,0.37,118400,0.37
2016-10-21,0.36,0.37,0.355,0.36,197800,0.36
2016-10-20,0.365,0.37,0.365,0.365,123300,0.365
2016-10-19,0.355,0.37,0.352,0.37,337700,0.37
2016-10-18,0.36,0.3675,0.355,0.36,422600,0.36
2016-10-17,0.365,0.375,0.36,0.37,251500,0.37
2016-10-14,0.36,0.365,0.36,0.36,257500,0.36
2016-10-13,0.36,0.37,0.36,0.36,323900,0.36
2016-10-12,0.365,0.365,0.36,0.36,68900,0.36
2016-10-11,0.36,0.37,0.36,0.36,215300,0.36
2016-10-10,0.36,0.36,0.355,0.355,128700,0.355
2016-10-07,0.36,0.365,0.355,0.36,162000,0.36
2016-10-06,0.36,0.37,0.355,0.355,378500,0.355
2016-10-05,0.365,0.37,0.355,0.36,387100,0.36
2016-10-04,0.375,0.375,0.365,0.37,158700,0.37
2016-10-03,0.37,0.385,0.36,0.38,206900,0.38
2016-09-30,0.382,0.385,0.375,0.385,280100,0.385
2016-09-29,0.375,0.385,0.375,0.385,451000,0.385
2016-09-28,0.365,0.375,0.36,0.375,329200,0.375
2016-09-27,0.355,0.375,0.35,0.37,417000,0.37
2016-09-26,0.367,0.37,0.355,0.355,208900,0.355
2016-09-23,0.35,0.37,0.35,0.365,456700,0.365
2016-09-22,0.345,0.35,0.335,0.35,1423500,0.35
2016-09-21,0.37,0.37,0.35,0.35,2512400,0.35
2016-09-20,0.38,0.385,0.37,0.37,566600,0.37
2016-09-19,0.385,0.385,0.38,0.38,291300,0.38
2016-09-16,0.39,0.39,0.385,0.385,517100,0.385
2016-09-15,0.39,0.39,0.385,0.39,615500,0.39
2016-09-14,0.395,0.402,0.39,0.395,412000,0.395
2016-09-13,0.41,0.42,0.40,0.40,238200,0.40
2016-09-12,0.41,0.41,0.40,0.405,498700,0.405
2016-09-09,0.407,0.42,0.405,0.41,267000,0.41
2016-09-08,0.425,0.425,0.405,0.405,165500,0.405
2016-09-07,0.40,0.43,0.40,0.42,200300,0.42
2016-09-06,0.405,0.42,0.405,0.41,329200,0.404
2016-09-05,0.43,0.43,0.405,0.405,728800,0.3991
2016-09-02,0.43,0.43,0.425,0.425,418700,0.4188
2016-09-01,0.44,0.445,0.43,0.43,684500,0.4237
2016-08-31,0.415,0.442,0.415,0.43,810900,0.4237
2016-08-30,0.425,0.425,0.415,0.415,309500,0.4089
2016-08-29,0.425,0.43,0.42,0.42,367500,0.4139
2016-08-26,0.425,0.43,0.42,0.43,295300,0.4237
2016-08-25,0.43,0.4325,0.425,0.425,322800,0.4188
2016-08-24,0.42,0.435,0.42,0.43,709400,0.4237
2016-08-23,0.425,0.425,0.417,0.42,214100,0.4139
2016-08-22,0.42,0.425,0.415,0.42,454600,0.4139
2016-08-19,0.42,0.425,0.41,0.42,545200,0.4139
2016-08-18,0.415,0.425,0.41,0.41,174300,0.404
2016-08-17,0.425,0.43,0.41,0.41,488900,0.404
2016-08-16,0.435,0.44,0.405,0.405,1053300,0.3991
2016-08-15,0.44,0.445,0.435,0.435,497800,0.4286
2016-08-12,0.43,0.445,0.425,0.435,1064600,0.4286
2016-08-11,0.415,0.43,0.415,0.42,745000,0.4139
2016-08-10,0.41,0.42,0.40,0.41,1122400,0.404
2016-08-09,0.40,0.415,0.397,0.415,1588000,0.4089
2016-08-08,0.395,0.40,0.38,0.395,1909000,0.3892
2016-08-05,0.46,0.465,0.39,0.395,7821500,0.3892
2016-08-04,0.47,0.48,0.467,0.47,459900,0.4631
2016-08-03,0.47,0.47,0.465,0.465,519800,0.4582
2016-08-02,0.485,0.495,0.465,0.465,944700,0.4582
2016-08-01,0.495,0.50,0.49,0.49,576900,0.4828
2016-07-29,0.49,0.515,0.485,0.49,2323700,0.4828
2016-07-28,0.47,0.49,0.465,0.48,799700,0.473
2016-07-27,0.47,0.48,0.465,0.465,883700,0.4582
2016-07-26,0.485,0.495,0.48,0.48,2057800,0.473
2016-07-25,0.49,0.50,0.485,0.485,3202600,0.4779
2016-07-22,0.465,0.50,0.46,0.48,5288600,0.473
2016-07-21,0.44,0.445,0.44,0.44,597900,0.4336
2016-07-20,0.435,0.445,0.43,0.44,444200,0.4336
2016-07-19,0.432,0.45,0.43,0.435,313900,0.4286
2016-07-18,0.435,0.44,0.432,0.435,358600,0.4286
2016-07-15,0.44,0.44,0.43,0.435,329200,0.4286
2016-07-14,0.435,0.45,0.435,0.435,971000,0.4286
2016-07-13,0.43,0.45,0.427,0.44,1124700,0.4336
2016-07-12,0.425,0.43,0.425,0.425,363500,0.4188
2016-07-11,0.42,0.43,0.42,0.425,543800,0.4188
2016-07-08,0.415,0.43,0.41,0.42,662600,0.4139
2016-07-07,0.425,0.425,0.412,0.42,1274400,0.4139
2016-07-06,0.42,0.425,0.41,0.42,758400,0.4139
2016-07-05,0.43,0.43,0.42,0.42,372700,0.4139
2016-07-04,0.42,0.43,0.417,0.43,399000,0.4237
2016-07-01,0.415,0.43,0.415,0.415,212900,0.4089
2016-06-30,0.415,0.42,0.41,0.41,650600,0.404
2016-06-29,0.412,0.425,0.405,0.415,459000,0.4089
2016-06-28,0.42,0.42,0.407,0.415,457200,0.4089
2016-06-27,0.41,0.42,0.405,0.415,306800,0.4089
2016-06-24,0.43,0.43,0.405,0.415,1594200,0.4089
2016-06-23,0.43,0.43,0.42,0.42,222000,0.4139
2016-06-22,0.425,0.43,0.42,0.42,287400,0.4139
2016-06-21,0.425,0.425,0.42,0.42,168500,0.4139
2016-06-20,0.42,0.435,0.42,0.43,522300,0.4237
2016-06-17,0.42,0.435,0.415,0.425,471000,0.4188
2016-06-16,0.425,0.435,0.41,0.42,765500,0.4139
2016-06-15,0.41,0.425,0.41,0.425,798200,0.4188
2016-06-14,0.41,0.425,0.41,0.415,872700,0.4089
2016-06-13,0.415,0.415,0.415,0.415,000,0.4089
2016-06-10,0.41,0.42,0.405,0.415,753800,0.4089
2016-06-09,0.41,0.41,0.40,0.405,362700,0.3991
2016-06-08,0.405,0.425,0.40,0.41,668500,0.404
2016-06-07,0.41,0.41,0.40,0.40,218000,0.3941
2016-06-06,0.425,0.43,0.405,0.41,189700,0.404
2016-06-03,0.415,0.42,0.41,0.42,141200,0.4139
2016-06-02,0.42,0.42,0.41,0.415,197500,0.4089
2016-06-01,0.43,0.43,0.42,0.42,415400,0.4139
2016-05-31,0.45,0.45,0.425,0.43,343900,0.4237
2016-05-30,0.435,0.455,0.425,0.455,1077700,0.4483
2016-05-27,0.44,0.44,0.43,0.43,1624000,0.4237
2016-05-26,0.46,0.46,0.44,0.445,975500,0.4385
2016-05-25,0.46,0.46,0.45,0.46,483500,0.4533
2016-05-24,0.445,0.46,0.43,0.455,1105600,0.4483
2016-05-23,0.435,0.45,0.43,0.445,1276000,0.4385
2016-05-20,0.43,0.44,0.43,0.435,1249800,0.4286
2016-05-19,0.42,0.435,0.42,0.43,875600,0.4237
2016-05-18,0.43,0.435,0.425,0.43,1052200,0.4237
2016-05-17,0.43,0.435,0.42,0.43,666000,0.4237
2016-05-16,0.43,0.435,0.42,0.425,738100,0.4188
2016-05-13,0.41,0.435,0.40,0.425,1451600,0.4188
2016-05-12,0.40,0.425,0.395,0.42,1103700,0.4139
2016-05-11,0.41,0.43,0.41,0.41,1470300,0.404
2016-05-10,0.40,0.415,0.395,0.405,759800,0.3991
2016-05-09,0.405,0.42,0.395,0.415,599700,0.4089
2016-05-06,0.405,0.41,0.39,0.405,736700,0.3991
2016-05-05,0.385,0.41,0.375,0.405,916200,0.3991
2016-05-04,0.405,0.405,0.355,0.385,2561400,0.3794
2016-05-03,0.395,0.412,0.385,0.41,2041900,0.404
2016-05-02,0.42,0.422,0.39,0.395,776700,0.3892
2016-04-29,0.425,0.43,0.42,0.425,734200,0.4188
2016-04-28,0.43,0.44,0.425,0.43,1093500,0.4237
2016-04-27,0.43,0.44,0.425,0.43,868700,0.4237
2016-04-26,0.435,0.44,0.43,0.43,716500,0.4237
2016-04-25,0.435,0.435,0.435,0.435,000,0.4286
2016-04-22,0.435,0.44,0.425,0.435,887800,0.4286
2016-04-21,0.43,0.445,0.425,0.44,711500,0.4336
2016-04-20,0.43,0.44,0.415,0.43,1205300,0.4237
2016-04-19,0.425,0.445,0.425,0.435,1480300,0.4286
2016-04-18,0.42,0.435,0.417,0.425,908900,0.4188
2016-04-15,0.43,0.43,0.42,0.425,504400,0.4188
2016-04-14,0.42,0.437,0.42,0.425,1213600,0.4188
2016-04-13,0.40,0.42,0.40,0.415,626700,0.4089
2016-04-12,0.41,0.41,0.395,0.405,832000,0.3991
2016-04-11,0.42,0.435,0.41,0.41,1654000,0.404
2016-04-08,0.415,0.415,0.395,0.415,1668900,0.4089
2016-04-07,0.385,0.42,0.375,0.42,2052000,0.4139
2016-04-06,0.37,0.385,0.367,0.385,1361500,0.3794
2016-04-05,0.365,0.37,0.362,0.37,895900,0.3646
2016-04-04,0.36,0.365,0.355,0.355,574300,0.3498
2016-04-01,0.36,0.38,0.355,0.36,3162200,0.3547
2016-03-31,0.355,0.3625,0.35,0.355,1081000,0.3498
2016-03-30,0.365,0.365,0.35,0.35,1201400,0.3449
2016-03-29,0.36,0.375,0.36,0.36,1564000,0.3547
2016-03-28,0.365,0.365,0.365,0.365,000,0.3597
2016-03-25,0.365,0.365,0.365,0.365,000,0.3597
2016-03-24,0.37,0.37,0.362,0.365,482200,0.3597
2016-03-23,0.365,0.375,0.365,0.365,1009600,0.3597
2016-03-22,0.37,0.37,0.36,0.36,1561200,0.3547
2016-03-21,0.365,0.37,0.365,0.365,1140000,0.3597
2016-03-18,0.37,0.38,0.365,0.365,1771900,0.3597
2016-03-17,0.385,0.39,0.372,0.375,1068000,0.3695
2016-03-16,0.39,0.395,0.385,0.385,351300,0.3794
2016-03-15,0.385,0.395,0.375,0.385,653900,0.3794
2016-03-14,0.375,0.385,0.37,0.385,1321300,0.3794
2016-03-11,0.375,0.38,0.365,0.365,1377300,0.3597
2016-03-10,0.37,0.375,0.37,0.37,1580600,0.3646
2016-03-09,0.37,0.38,0.365,0.365,1094600,0.3597
2016-03-08,0.40,0.40,0.365,0.365,3725500,0.3597
2016-03-07,0.42,0.42,0.395,0.395,1347600,0.3892
2016-03-04,0.44,0.44,0.40,0.415,1279200,0.4089
2016-03-03,0.435,0.445,0.43,0.43,961000,0.4237
2016-03-02,0.425,0.435,0.42,0.43,1148400,0.4237
2016-03-01,0.42,0.43,0.41,0.42,1706100,0.4139
2016-02-29,0.46,0.465,0.35,0.425,7108000,0.4188
2016-02-26,0.485,0.485,0.46,0.465,1440800,0.4582
2016-02-25,0.49,0.50,0.485,0.485,643900,0.4779
2016-02-24,0.50,0.50,0.485,0.485,638700,0.4779
2016-02-23,0.495,0.505,0.49,0.50,731500,0.4927
2016-02-22,0.485,0.505,0.485,0.49,894100,0.4828
2016-02-19,0.50,0.505,0.465,0.475,1494600,0.468
2016-02-18,0.495,0.51,0.49,0.50,1554100,0.4927
2016-02-17,0.475,0.49,0.465,0.49,1712900,0.4828
2016-02-16,0.465,0.475,0.46,0.465,1854500,0.4582
2016-02-15,0.465,0.48,0.452,0.46,1337600,0.4533
2016-02-12,0.48,0.48,0.45,0.45,3443300,0.4434
2016-02-11,0.48,0.495,0.48,0.485,871000,0.4779
2016-02-10,0.49,0.495,0.47,0.48,3503400,0.473
2016-02-09,0.52,0.525,0.49,0.495,2746100,0.4878
2016-02-08,0.535,0.545,0.525,0.525,1053000,0.5173
2016-02-05,0.55,0.55,0.517,0.54,3120300,0.5321
2016-02-04,0.55,0.57,0.54,0.555,1726100,0.5469
2016-02-03,0.545,0.56,0.54,0.54,1242200,0.5321
2016-02-02,0.55,0.56,0.53,0.55,1488500,0.542
2016-02-01,0.58,0.58,0.53,0.54,3633400,0.5321
2016-01-29,0.59,0.595,0.565,0.565,1895200,0.5567
2016-01-28,0.58,0.59,0.56,0.585,3079100,0.5764
2016-01-27,0.55,0.625,0.545,0.575,7177200,0.5666
2016-01-26,0.55,0.55,0.55,0.55,000,0.542
2016-01-25,0.53,0.55,0.525,0.55,2539100,0.542
2016-01-22,0.52,0.525,0.515,0.515,1124400,0.5075
2016-01-21,0.505,0.52,0.49,0.51,2628000,0.5025
2016-01-20,0.53,0.535,0.505,0.505,2361900,0.4976
2016-01-19,0.515,0.535,0.512,0.525,1862600,0.5173
2016-01-18,0.51,0.555,0.505,0.51,9021500,0.5025
2016-01-15,0.56,0.565,0.525,0.525,3133400,0.5173
2016-01-14,0.51,0.55,0.495,0.55,10646000,0.542
2016-01-13,0.525,0.525,0.50,0.52,4217900,0.5124
2016-01-12,0.505,0.54,0.505,0.51,11402900,0.5025
2016-01-11,0.495,0.505,0.49,0.50,4372700,0.4927
2016-01-08,0.47,0.49,0.45,0.49,3445500,0.4828
2016-01-07,0.50,0.505,0.475,0.48,2910200,0.473
2016-01-06,0.505,0.515,0.497,0.50,3826000,0.4927
2016-01-05,0.46,0.505,0.46,0.50,3422800,0.4927
2016-01-04,0.485,0.525,0.475,0.475,6350400,0.468
2016-01-01,0.48,0.48,0.48,0.48,000,0.473
2015-12-31,0.505,0.505,0.475,0.48,3892400,0.473
2015-12-30,0.56,0.595,0.46,0.50,17156400,0.4927
2015-12-29,0.445,0.51,0.445,0.50,15628200,0.4927
2015-12-28,0.425,0.425,0.425,0.425,000,0.4188
2015-12-25,0.425,0.425,0.425,0.425,000,0.4188
2015-12-24,0.415,0.43,0.415,0.425,3694100,0.4188
2015-12-23,0.40,0.41,0.395,0.41,2989700,0.404
2015-12-22,0.41,0.4125,0.39,0.39,1730000,0.3843
2015-12-21,0.39,0.42,0.387,0.395,4494700,0.3892
2015-12-18,0.39,0.39,0.372,0.39,2171800,0.3843
2015-12-17,0.40,0.40,0.385,0.39,641100,0.3843
2015-12-16,0.39,0.40,0.375,0.39,1883400,0.3843
2015-12-15,0.395,0.395,0.38,0.39,978000,0.3843
2015-12-14,0.395,0.40,0.38,0.40,2518700,0.3941
2015-12-11,0.40,0.405,0.395,0.395,1419200,0.3892
2015-12-10,0.395,0.405,0.385,0.405,1590700,0.3991
2015-12-09,0.405,0.415,0.39,0.40,1191400,0.3941
2015-12-08,0.43,0.43,0.395,0.405,3751900,0.3991
2015-12-07,0.435,0.445,0.422,0.425,5153100,0.4188
2015-12-04,0.41,0.435,0.41,0.43,6037300,0.4237
2015-12-03,0.415,0.43,0.41,0.42,6329300,0.4139
2015-12-02,0.40,0.44,0.40,0.40,7906900,0.3941
2015-12-01,0.37,0.385,0.37,0.385,5389700,0.3794
2015-11-30,0.375,0.375,0.365,0.37,4278300,0.3646
2015-11-27,0.355,0.37,0.355,0.36,3649900,0.3547
2015-11-26,0.35,0.355,0.34,0.355,1014400,0.3498
2015-11-25,0.34,0.345,0.34,0.345,1006000,0.34
2015-11-24,0.335,0.34,0.335,0.34,452200,0.335
2015-11-23,0.34,0.34,0.33,0.335,997600,0.3301
2015-11-20,0.335,0.34,0.33,0.33,359200,0.3252
2015-11-19,0.33,0.335,0.33,0.33,865500,0.3252
2015-11-18,0.34,0.345,0.33,0.33,779800,0.3252
2015-11-17,0.345,0.35,0.34,0.34,793000,0.335
2015-11-16,0.345,0.35,0.345,0.345,1543300,0.34
2015-11-13,0.31,0.34,0.30,0.34,480100,0.335
2015-11-12,0.31,0.31,0.305,0.31,243200,0.3055
2015-11-11,0.315,0.315,0.31,0.315,197900,0.3104
2015-11-10,0.32,0.325,0.31,0.315,337800,0.3104
2015-11-09,0.31,0.32,0.305,0.32,269700,0.3153
2015-11-06,0.315,0.315,0.315,0.315,16000,0.3104
2015-11-05,0.315,0.315,0.305,0.315,357700,0.3104
2015-11-04,0.315,0.32,0.31,0.32,321800,0.3153
2015-11-03,0.315,0.32,0.305,0.305,75000,0.3005
2015-11-02,0.315,0.325,0.31,0.315,219800,0.3104
2015-10-30,0.31,0.315,0.31,0.315,417500,0.3104
2015-10-29,0.31,0.315,0.31,0.31,181600,0.3055
2015-10-28,0.32,0.32,0.31,0.315,286900,0.3104
2015-10-27,0.32,0.32,0.31,0.315,447200,0.3104
2015-10-26,0.325,0.33,0.317,0.325,269600,0.3202
2015-10-23,0.325,0.33,0.32,0.32,230200,0.3153
2015-10-22,0.325,0.325,0.31,0.315,284300,0.3104
2015-10-21,0.325,0.33,0.32,0.325,293500,0.3202
2015-10-20,0.325,0.33,0.32,0.32,119700,0.3153
2015-10-19,0.32,0.33,0.315,0.32,158100,0.3153
2015-10-16,0.33,0.34,0.315,0.33,545000,0.3252
2015-10-15,0.33,0.34,0.33,0.335,402400,0.3301
2015-10-14,0.31,0.33,0.31,0.325,734000,0.3202
2015-10-13,0.325,0.325,0.31,0.315,294100,0.3104
2015-10-12,0.33,0.33,0.32,0.32,229600,0.3153
2015-10-09,0.335,0.335,0.325,0.325,76500,0.3202
2015-10-08,0.33,0.33,0.325,0.33,212600,0.3252
2015-10-07,0.325,0.335,0.325,0.335,163300,0.3301
2015-10-06,0.335,0.335,0.327,0.33,377300,0.3252
2015-10-05,0.34,0.34,0.33,0.34,83000,0.335
2015-10-02,0.33,0.34,0.33,0.34,217100,0.335
2015-10-01,0.34,0.34,0.325,0.325,297600,0.3202
2015-09-30,0.34,0.34,0.33,0.34,338300,0.335
2015-09-29,0.33,0.34,0.33,0.34,183900,0.335
2015-09-28,0.34,0.34,0.33,0.33,146500,0.3252
2015-09-25,0.335,0.345,0.335,0.34,317900,0.335
2015-09-24,0.335,0.34,0.33,0.33,167200,0.3252
2015-09-23,0.34,0.345,0.332,0.335,229900,0.3301
2015-09-22,0.345,0.345,0.34,0.34,194100,0.335
2015-09-21,0.35,0.35,0.34,0.34,114900,0.335
2015-09-18,0.347,0.35,0.335,0.35,367300,0.3449
2015-09-17,0.347,0.35,0.345,0.35,496000,0.3449
2015-09-16,0.34,0.35,0.335,0.35,1066000,0.3449
2015-09-15,0.33,0.34,0.33,0.335,337000,0.3301
2015-09-14,0.335,0.34,0.33,0.33,152900,0.3252
2015-09-11,0.34,0.34,0.33,0.335,222500,0.3301
2015-09-10,0.34,0.345,0.335,0.34,393000,0.335
2015-09-09,0.345,0.345,0.34,0.34,237200,0.335
2015-09-08,0.335,0.345,0.33,0.34,782200,0.335
2015-09-07,0.34,0.34,0.33,0.33,299900,0.3252
2015-09-04,0.34,0.345,0.335,0.335,334700,0.3301
2015-09-03,0.35,0.35,0.335,0.335,608700,0.3301
2015-09-02,0.345,0.35,0.34,0.35,711300,0.3449
2015-09-01,0.35,0.36,0.345,0.35,1811700,0.3449
2015-08-31,0.325,0.35,0.32,0.34,3509200,0.335
2015-08-28,0.30,0.33,0.30,0.315,5264600,0.3104
