Date,Open,High,Low,Close,Volume,Adj Close
2017-01-10,4.38,4.40,4.28,4.28,331500,4.28
2017-01-09,4.42,4.44,4.34,4.40,318700,4.40
2017-01-06,4.45,4.46,4.38,4.40,327000,4.40
2017-01-05,4.40,4.46,4.40,4.41,309900,4.41
2017-01-04,4.35,4.40,4.30,4.39,475700,4.39
2017-01-03,4.26,4.35,4.25,4.31,231100,4.31
2017-01-02,4.24,4.24,4.24,4.24,000,4.24
2016-12-30,4.22,4.26,4.20,4.24,163800,4.24
2016-12-29,4.13,4.23,4.08,4.23,240800,4.23
2016-12-28,4.25,4.25,4.09,4.13,435700,4.13
2016-12-27,4.23,4.23,4.23,4.23,000,4.23
2016-12-26,4.23,4.23,4.23,4.23,000,4.23
2016-12-23,4.32,4.37,4.16,4.23,272900,4.23
2016-12-22,4.10,4.35,4.10,4.27,886600,4.27
2016-12-21,3.88,4.07,3.82,4.03,1116600,4.03
2016-12-20,4.14,4.15,3.86,3.88,1352100,3.88
2016-12-19,4.37,4.38,4.10,4.16,1142200,4.16
2016-12-16,4.49,4.51,4.36,4.37,540400,4.37
2016-12-15,4.60,4.61,4.43,4.45,387600,4.45
2016-12-14,4.50,4.56,4.46,4.56,340400,4.56
2016-12-13,4.55,4.55,4.47,4.49,302400,4.49
2016-12-12,4.71,4.74,4.53,4.54,314300,4.54
2016-12-09,4.60,4.74,4.56,4.71,250400,4.71
2016-12-08,4.71,4.71,4.54,4.62,284600,4.62
2016-12-07,4.64,4.73,4.58,4.63,255200,4.63
2016-12-06,4.62,4.68,4.54,4.64,330500,4.64
2016-12-05,4.66,4.75,4.585,4.60,334800,4.60
2016-12-02,4.85,4.96,4.62,4.64,625100,4.64
2016-12-01,4.95,4.96,4.82,4.95,314200,4.95
2016-11-30,4.92,4.96,4.84,4.95,746200,4.95
2016-11-29,5.01,5.02,4.87,4.94,443100,4.94
2016-11-28,4.95,5.09,4.90,5.03,594800,5.03
2016-11-25,4.76,4.96,4.76,4.88,267400,4.88
2016-11-24,4.86,4.955,4.75,4.77,275900,4.77
2016-11-23,4.83,4.89,4.76,4.82,270500,4.82
2016-11-22,4.72,4.90,4.63,4.83,534700,4.83
2016-11-21,4.84,4.84,4.62,4.71,645500,4.71
2016-11-18,4.63,4.78,4.55,4.75,699400,4.75
2016-11-17,4.37,4.62,4.28,4.60,498800,4.60
2016-11-16,4.42,4.45,4.26,4.39,1150300,4.39
2016-11-15,4.49,4.51,4.36,4.41,930500,4.41
2016-11-14,4.61,4.62,4.46,4.50,872700,4.50
2016-11-11,4.66,4.66,4.56,4.61,487900,4.61
2016-11-10,4.72,4.72,4.59,4.61,301100,4.61
2016-11-09,4.70,4.74,4.41,4.56,636000,4.56
2016-11-08,4.73,4.73,4.65,4.69,1039300,4.69
2016-11-07,4.66,4.79,4.66,4.68,361900,4.68
2016-11-04,4.67,4.67,4.525,4.65,451900,4.65
2016-11-03,4.75,4.78,4.62,4.67,509400,4.67
2016-11-02,4.79,4.80,4.41,4.73,1836700,4.73
2016-11-01,4.98,4.98,4.76,4.78,292600,4.78
2016-10-31,4.98,4.99,4.84,4.93,576100,4.93
2016-10-28,5.15,5.18,4.945,5.04,1333100,5.04
2016-10-27,5.23,5.23,5.02,5.14,1061800,5.14
2016-10-26,5.30,5.30,5.04,5.24,2180700,5.24
2016-10-25,6.48,6.48,5.20,5.40,3328600,5.40
2016-10-24,6.47,6.50,6.42,6.49,183600,6.49
2016-10-21,6.48,6.54,6.40,6.47,113900,6.47
2016-10-20,6.52,6.52,6.40,6.51,105200,6.51
2016-10-19,6.50,6.55,6.475,6.50,222500,6.50
2016-10-18,6.48,6.53,6.44,6.48,141500,6.48
2016-10-17,6.56,6.59,6.38,6.50,302700,6.50
2016-10-14,6.59,6.59,6.505,6.56,120000,6.56
2016-10-13,6.58,6.60,6.51,6.54,246200,6.54
2016-10-12,6.63,6.63,6.50,6.60,189300,6.60
2016-10-11,6.57,6.675,6.47,6.63,369900,6.63
2016-10-10,6.60,6.60,6.51,6.56,102700,6.56
2016-10-07,6.57,6.635,6.52,6.60,117900,6.60
2016-10-06,6.59,6.65,6.55,6.61,174200,6.61
2016-10-05,6.57,6.60,6.51,6.56,131800,6.56
2016-10-04,6.65,6.65,6.58,6.60,167000,6.60
2016-10-03,6.68,6.69,6.62,6.67,64200,6.67
2016-09-30,6.61,6.69,6.53,6.64,275000,6.64
2016-09-29,6.60,6.65,6.53,6.64,174900,6.64
2016-09-28,6.57,6.60,6.51,6.55,169400,6.55
2016-09-27,6.56,6.58,6.445,6.56,246600,6.56
2016-09-26,6.59,6.62,6.56,6.57,161100,6.57
2016-09-23,6.56,6.63,6.53,6.61,460600,6.61
2016-09-22,6.56,6.56,6.49,6.54,87800,6.54
2016-09-21,6.45,6.55,6.44,6.53,171400,6.53
2016-09-20,6.50,6.52,6.42,6.50,250900,6.50
2016-09-19,6.55,6.56,6.42,6.50,59700,6.50
2016-09-16,6.48,6.57,6.43,6.53,495600,6.53
2016-09-15,6.38,6.50,6.28,6.45,687100,6.45
2016-09-14,6.32,6.41,6.28,6.37,338600,6.37
2016-09-13,6.29,6.38,6.25,6.34,322600,6.34
2016-09-12,6.27,6.27,6.16,6.24,368500,6.24
2016-09-09,6.27,6.44,6.13,6.40,453300,6.40
2016-09-08,6.45,6.49,6.25,6.40,378500,6.40
2016-09-07,6.30,6.59,6.27,6.51,660000,6.51
2016-09-06,6.31,6.33,6.23,6.32,340000,6.32
2016-09-05,6.36,6.42,6.29,6.32,142800,6.32
2016-09-02,6.38,6.38,6.18,6.36,463000,6.36
2016-09-01,6.34,6.44,6.32,6.38,299500,6.38
2016-08-31,6.47,6.48,6.27,6.35,407100,6.35
2016-08-30,6.54,6.62,6.44,6.47,335900,6.47
2016-08-29,6.59,6.59,6.48,6.55,412900,6.479
2016-08-26,6.77,6.77,6.56,6.59,455900,6.518
2016-08-25,6.40,6.83,6.39,6.76,599200,6.686
2016-08-24,6.27,6.51,6.27,6.39,411100,6.32
2016-08-23,6.21,6.34,6.21,6.26,190100,6.192
2016-08-22,6.37,6.40,6.19,6.20,292400,6.132
2016-08-19,6.14,6.38,6.14,6.36,339100,6.291
2016-08-18,6.27,6.27,6.12,6.15,461200,6.083
2016-08-17,6.12,6.26,6.12,6.23,496200,6.162
2016-08-16,6.14,6.16,6.05,6.12,334200,6.053
2016-08-15,6.19,6.20,6.045,6.14,285700,6.073
2016-08-12,6.08,6.275,6.06,6.19,582500,6.123
2016-08-11,5.94,5.98,5.92,5.96,378800,5.895
2016-08-10,5.99,5.99,5.86,5.94,402100,5.875
2016-08-09,6.05,6.06,5.96,5.99,409100,5.925
2016-08-08,6.04,6.10,6.02,6.04,385500,5.974
2016-08-05,5.95,6.04,5.905,6.01,343600,5.944
2016-08-04,5.90,5.96,5.87,5.93,209800,5.865
2016-08-03,5.91,5.92,5.83,5.88,259000,5.816
2016-08-02,6.08,6.08,5.93,5.96,329500,5.895
2016-08-01,6.21,6.22,6.04,6.09,419500,6.024
2016-07-29,6.03,6.34,6.03,6.20,852700,6.132
2016-07-28,5.72,5.83,5.70,5.80,219800,5.737
2016-07-27,5.70,5.745,5.69,5.70,229400,5.638
2016-07-26,5.74,5.76,5.70,5.72,262600,5.658
2016-07-25,5.71,5.755,5.67,5.73,311700,5.668
2016-07-22,5.72,5.72,5.67,5.69,230600,5.628
2016-07-21,5.74,5.76,5.70,5.72,521900,5.658
2016-07-20,5.75,5.78,5.69,5.75,485500,5.687
2016-07-19,5.69,5.80,5.65,5.69,331700,5.628
2016-07-18,5.71,5.76,5.66,5.70,336300,5.638
2016-07-15,5.67,5.75,5.62,5.70,323900,5.638
2016-07-14,5.52,5.68,5.50,5.66,386000,5.598
2016-07-13,5.52,5.53,5.41,5.52,573900,5.46
2016-07-12,5.53,5.54,5.48,5.52,423700,5.46
2016-07-11,5.50,5.57,5.50,5.51,257800,5.45
2016-07-08,5.49,5.60,5.49,5.50,266400,5.44
2016-07-07,5.52,5.55,5.50,5.50,387800,5.44
2016-07-06,5.58,5.58,5.45,5.46,404300,5.40
2016-07-05,5.67,5.67,5.56,5.59,138900,5.529
2016-07-04,5.63,5.68,5.57,5.66,255100,5.598
2016-07-01,5.67,5.80,5.61,5.64,265000,5.579
2016-06-30,5.63,5.73,5.605,5.66,372400,5.598
2016-06-29,5.70,5.71,5.58,5.62,251200,5.559
2016-06-28,5.53,5.64,5.51,5.63,412800,5.569
2016-06-27,5.57,5.66,5.53,5.60,380700,5.539
2016-06-24,5.70,5.74,5.54,5.60,690500,5.539
2016-06-23,5.71,5.74,5.67,5.72,244400,5.658
2016-06-22,5.81,5.835,5.69,5.70,310400,5.638
2016-06-21,5.65,5.86,5.65,5.81,905400,5.747
2016-06-20,5.73,5.76,5.67,5.71,238300,5.648
2016-06-17,5.77,5.77,5.66,5.70,337800,5.638
2016-06-16,5.78,5.84,5.75,5.75,857000,5.687
2016-06-15,5.76,5.86,5.74,5.74,254800,5.677
2016-06-14,5.85,5.88,5.71,5.74,340300,5.677
2016-06-13,5.92,5.92,5.92,5.92,000,5.855
2016-06-10,5.91,5.98,5.85,5.92,163800,5.855
2016-06-09,5.86,5.95,5.82,5.93,322300,5.865
2016-06-08,5.89,5.95,5.76,5.85,449100,5.786
2016-06-07,6.00,6.01,5.875,5.89,239600,5.826
2016-06-06,5.97,6.02,5.97,6.00,280400,5.935
2016-06-03,6.09,6.15,5.97,6.00,479300,5.935
2016-06-02,6.09,6.18,6.00,6.05,393800,5.984
2016-06-01,6.18,6.18,6.02,6.07,519500,6.004
2016-05-31,6.20,6.25,6.14,6.19,608000,6.123
2016-05-30,6.23,6.30,6.18,6.20,447000,6.132
2016-05-27,6.30,6.35,6.25,6.26,245900,6.192
2016-05-26,6.31,6.33,6.21,6.24,245500,6.172
2016-05-25,6.26,6.36,6.245,6.31,301300,6.241
2016-05-24,6.18,6.31,6.13,6.20,242700,6.132
2016-05-23,6.15,6.25,6.10,6.18,282400,6.113
2016-05-20,6.08,6.17,6.00,6.13,257400,6.063
2016-05-19,6.28,6.28,6.035,6.08,373300,6.014
2016-05-18,6.34,6.35,6.19,6.23,474100,6.162
2016-05-17,6.40,6.44,6.32,6.36,226800,6.291
2016-05-16,6.29,6.41,6.27,6.35,290000,6.281
2016-05-13,6.40,6.43,6.27,6.30,229800,6.231
2016-05-12,6.40,6.41,6.25,6.36,282600,6.291
2016-05-11,6.39,6.45,6.31,6.39,325600,6.32
2016-05-10,6.38,6.435,6.29,6.31,232300,6.241
2016-05-09,6.15,6.38,6.13,6.37,280300,6.301
2016-05-06,6.15,6.18,6.08,6.15,320900,6.083
2016-05-05,6.40,6.40,6.195,6.26,310400,6.192
2016-05-04,6.48,6.50,6.26,6.28,481100,6.212
2016-05-03,6.20,6.50,6.20,6.48,611200,6.409
2016-05-02,6.17,6.22,6.07,6.22,251600,6.152
2016-04-29,6.16,6.21,6.09,6.15,176800,6.083
2016-04-28,6.13,6.21,6.11,6.16,353700,6.093
2016-04-27,5.91,6.245,5.90,6.13,648500,6.063
2016-04-26,5.95,6.00,5.92,5.98,372300,5.915
2016-04-25,5.94,5.94,5.94,5.94,000,5.875
2016-04-22,6.10,6.14,5.90,5.94,595300,5.875
2016-04-21,6.09,6.185,6.05,6.14,390800,6.073
2016-04-20,6.05,6.09,5.99,6.09,315100,6.024
2016-04-19,6.06,6.07,5.95,6.03,267900,5.964
2016-04-18,5.96,6.07,5.96,6.02,433100,5.954
2016-04-15,5.84,5.98,5.77,5.95,377800,5.885
2016-04-14,5.71,5.84,5.63,5.83,283100,5.766
2016-04-13,5.55,5.75,5.50,5.63,500500,5.569
2016-04-12,5.71,5.72,5.44,5.53,723900,5.47
2016-04-11,5.98,5.99,5.70,5.72,247200,5.658
2016-04-08,5.96,6.02,5.90,5.99,128900,5.925
2016-04-07,5.97,6.03,5.95,6.00,135800,5.935
2016-04-06,5.99,6.02,5.88,5.97,210800,5.905
2016-04-05,6.02,6.04,5.91,5.98,273200,5.915
2016-04-04,5.91,6.06,5.87,6.04,292700,5.974
2016-04-01,5.88,5.94,5.785,5.90,290800,5.836
2016-03-31,5.85,5.98,5.82,5.90,347900,5.836
2016-03-30,5.90,5.90,5.75,5.80,255500,5.737
2016-03-29,6.00,6.01,5.82,5.86,344000,5.796
2016-03-28,5.99,5.99,5.99,5.99,000,5.925
2016-03-25,5.99,5.99,5.99,5.99,000,5.925
2016-03-24,5.98,6.035,5.90,5.99,247400,5.925
2016-03-23,6.01,6.05,5.94,5.97,239500,5.905
2016-03-22,6.03,6.05,5.96,6.00,327500,5.935
2016-03-21,6.00,6.07,5.98,6.03,272600,5.964
2016-03-18,6.09,6.10,5.98,5.99,328500,5.925
2016-03-17,6.05,6.10,5.95,6.08,486400,6.014
2016-03-16,5.99,6.04,5.91,6.04,384700,5.974
2016-03-15,6.07,6.07,5.90,5.94,413900,5.875
2016-03-14,6.15,6.15,6.00,6.00,187900,5.935
2016-03-11,6.15,6.16,6.03,6.15,441500,6.083
2016-03-10,6.13,6.13,6.04,6.10,347600,6.034
2016-03-09,5.98,6.10,5.87,6.06,670400,5.994
2016-03-08,6.08,6.12,5.90,5.98,620100,5.915
2016-03-07,6.23,6.23,6.03,6.10,442000,6.034
2016-03-04,6.30,6.36,5.96,6.21,806600,6.142
2016-03-03,5.73,6.28,5.73,6.22,1064100,6.152
2016-03-02,5.66,5.71,5.47,5.65,737300,5.588
2016-03-01,5.79,5.80,5.43,5.60,860000,5.539
2016-02-29,5.72,5.85,5.68,5.84,761500,5.713
2016-02-26,5.72,5.77,5.66,5.73,546900,5.605
2016-02-25,5.81,5.92,5.68,5.70,868000,5.576
2016-02-24,5.64,5.825,5.59,5.74,802200,5.615
2016-02-23,5.70,5.75,5.53,5.62,874300,5.498
2016-02-22,5.68,5.82,5.65,5.65,447600,5.527
2016-02-19,5.86,5.86,5.64,5.68,881900,5.556
2016-02-18,5.86,5.96,5.82,5.88,570400,5.752
2016-02-17,6.02,6.13,5.71,5.71,758600,5.586
2016-02-16,5.84,5.91,5.72,5.86,789100,5.732
2016-02-15,5.77,5.90,5.69,5.76,444200,5.634
2016-02-12,5.92,5.92,5.66,5.68,518100,5.556
2016-02-11,5.88,6.03,5.87,5.93,526500,5.801
2016-02-10,6.10,6.17,5.685,5.87,1055200,5.742
2016-02-09,6.25,6.35,6.08,6.08,708300,5.948
2016-02-08,6.49,6.58,6.31,6.32,456400,6.182
2016-02-05,6.42,6.58,6.25,6.57,833500,6.427
2016-02-04,6.29,6.45,6.28,6.36,598900,6.221
2016-02-03,6.39,6.55,6.21,6.22,777900,6.084
2016-02-02,6.28,6.65,6.23,6.50,1102000,6.358
2016-02-01,7.15,7.19,6.17,6.32,2217300,6.182
2016-01-29,7.06,7.15,7.00,7.06,523000,6.906
2016-01-28,7.28,7.28,7.00,7.03,837000,6.877
2016-01-27,7.25,7.35,7.17,7.24,1015200,7.082
2016-01-26,7.16,7.16,7.16,7.16,000,7.004
2016-01-25,7.20,7.35,7.12,7.16,490300,7.004
2016-01-22,6.90,7.15,6.81,7.05,529500,6.896
2016-01-21,6.78,6.87,6.72,6.80,566100,6.652
2016-01-20,6.90,6.96,6.62,6.63,653300,6.486
2016-01-19,6.65,6.985,6.63,6.89,867100,6.74
2016-01-18,6.79,6.79,6.55,6.65,858900,6.505
2016-01-15,7.00,7.01,6.83,6.85,675200,6.701
2016-01-14,7.14,7.14,6.86,6.88,806100,6.73
2016-01-13,7.30,7.42,7.12,7.19,782800,7.033
2016-01-12,7.38,7.46,7.24,7.26,555900,7.102
2016-01-11,7.37,7.41,7.21,7.37,466200,7.209
2016-01-08,7.85,7.86,7.30,7.45,1155300,7.288
2016-01-07,7.67,8.01,7.45,7.93,995200,7.757
2016-01-06,7.40,7.75,7.31,7.55,807100,7.385
2016-01-05,7.41,7.44,7.25,7.25,423900,7.092
2016-01-04,7.47,7.66,7.42,7.50,654400,7.337
2016-01-01,7.40,7.40,7.40,7.40,000,7.239
2015-12-31,7.15,7.49,7.13,7.40,420300,7.239
2015-12-30,7.52,8.13,6.90,7.17,1440400,7.014
2015-12-29,6.43,7.35,6.43,7.28,645500,7.121
2015-12-28,6.41,6.41,6.41,6.41,000,6.27
2015-12-25,6.41,6.41,6.41,6.41,000,6.27
2015-12-24,6.34,6.45,6.34,6.41,295000,6.27
2015-12-23,6.25,6.35,6.25,6.33,568300,6.192
2015-12-22,6.25,6.30,6.12,6.24,798600,6.104
2015-12-21,6.10,6.31,6.05,6.21,592100,6.075
2015-12-18,5.76,6.21,5.76,6.14,1043100,6.006
2015-12-17,5.70,5.70,5.61,5.70,458600,5.576
2015-12-16,5.55,5.63,5.51,5.60,372400,5.478
2015-12-15,5.36,5.56,5.36,5.53,344700,5.409
2015-12-14,5.49,5.53,5.36,5.36,422500,5.243
2015-12-11,5.55,5.65,5.525,5.57,232600,5.449
2015-12-10,5.67,5.68,5.52,5.55,271800,5.429
2015-12-09,5.76,5.78,5.67,5.67,143400,5.546
2015-12-08,5.82,5.87,5.78,5.79,192300,5.664
2015-12-07,5.87,5.90,5.82,5.85,150100,5.723
2015-12-04,5.80,5.84,5.68,5.81,270700,5.683
2015-12-03,5.85,5.89,5.82,5.84,521800,5.713
2015-12-02,5.85,5.86,5.80,5.85,349300,5.723
2015-12-01,5.75,5.88,5.75,5.86,890000,5.732
2015-11-30,5.80,5.84,5.70,5.76,357500,5.634
2015-11-27,5.84,5.84,5.77,5.79,86900,5.664
2015-11-26,5.78,5.89,5.78,5.81,281500,5.683
2015-11-25,5.90,5.90,5.78,5.78,181000,5.654
2015-11-24,5.90,5.91,5.79,5.90,366900,5.771
2015-11-23,5.87,5.95,5.85,5.91,328100,5.781
2015-11-20,5.87,5.94,5.84,5.87,431600,5.742
2015-11-19,5.89,5.89,5.81,5.86,410600,5.732
2015-11-18,5.75,5.84,5.72,5.81,294900,5.683
2015-11-17,5.62,5.77,5.57,5.77,318200,5.644
2015-11-16,5.53,5.63,5.52,5.55,361900,5.429
2015-11-13,5.64,5.64,5.54,5.54,222700,5.419
2015-11-12,5.56,5.70,5.56,5.65,662800,5.527
2015-11-11,5.55,5.59,5.425,5.55,406200,5.429
2015-11-10,5.68,5.68,5.45,5.52,523300,5.40
2015-11-09,5.78,5.80,5.60,5.69,658700,5.566
2015-11-06,5.76,5.80,5.68,5.80,470500,5.674
2015-11-05,5.83,5.89,5.71,5.79,348600,5.664
2015-11-04,5.81,5.88,5.72,5.85,562100,5.723
2015-11-03,5.85,5.88,5.79,5.83,525200,5.703
2015-11-02,5.81,5.97,5.80,5.90,1410800,5.771
2015-10-30,5.91,5.98,5.75,5.80,14726300,5.674
2015-10-29,4.99,6.02,4.98,5.70,1612600,5.576
2015-10-28,5.03,5.06,4.92,4.96,135700,4.852
2015-10-27,5.05,5.07,5.03,5.05,177100,4.94
2015-10-26,5.03,5.05,5.01,5.05,254800,4.94
2015-10-23,4.90,5.06,4.90,5.00,493700,4.891
2015-10-22,4.76,4.88,4.75,4.85,257700,4.744
2015-10-21,4.75,4.80,4.67,4.79,109900,4.686
2015-10-20,4.71,4.80,4.70,4.79,95600,4.686
2015-10-19,4.68,4.76,4.68,4.76,67200,4.656
2015-10-16,4.74,4.75,4.63,4.67,110900,4.568
2015-10-15,4.75,4.75,4.60,4.68,94900,4.578
2015-10-14,4.70,4.78,4.67,4.67,95800,4.568
2015-10-13,4.76,4.84,4.73,4.77,65100,4.666
2015-10-12,4.80,4.90,4.76,4.76,126900,4.656
2015-10-09,4.98,4.98,4.86,4.86,187100,4.754
2015-10-08,4.98,5.00,4.91,4.95,141400,4.842
2015-10-07,4.93,4.96,4.89,4.96,124600,4.852
2015-10-06,4.94,4.94,4.85,4.92,119100,4.813
2015-10-05,4.87,4.99,4.87,4.99,200000,4.881
2015-10-02,4.77,4.90,4.75,4.86,415200,4.754
2015-10-01,4.75,4.80,4.70,4.80,201200,4.695
2015-09-30,4.61,4.77,4.57,4.73,138200,4.627
2015-09-29,4.60,4.69,4.56,4.62,201700,4.519
2015-09-28,4.56,4.72,4.56,4.72,121300,4.617
2015-09-25,4.60,4.61,4.57,4.60,76100,4.50
2015-09-24,4.44,4.60,4.44,4.60,204500,4.50
2015-09-23,4.49,4.53,4.40,4.47,179000,4.373
2015-09-22,4.50,4.54,4.48,4.54,102300,4.441
2015-09-21,4.49,4.49,4.35,4.45,142400,4.353
2015-09-18,4.56,4.60,4.50,4.54,190600,4.441
2015-09-17,4.61,4.65,4.53,4.55,335800,4.451
2015-09-16,4.42,4.55,4.42,4.54,237100,4.441
2015-09-15,4.45,4.50,4.34,4.38,196200,4.285
2015-09-14,4.53,4.53,4.43,4.46,136000,4.363
2015-09-11,4.46,4.52,4.41,4.50,92200,4.402
2015-09-10,4.44,4.52,4.40,4.47,194200,4.373
2015-09-09,4.49,4.55,4.46,4.53,282100,4.431
2015-09-08,4.45,4.49,4.41,4.49,121600,4.392
2015-09-07,4.43,4.44,4.38,4.44,105300,4.343
2015-09-04,4.34,4.46,4.30,4.43,201200,4.333
2015-09-03,4.39,4.41,4.29,4.33,191700,4.236
2015-09-02,4.30,4.44,4.25,4.37,150000,4.275
2015-09-01,4.29,4.50,4.27,4.39,145700,4.231
2015-08-31,4.46,4.51,4.40,4.50,218100,4.337
2015-08-28,4.50,4.51,4.33,4.51,187300,4.347
2015-08-27,4.47,4.53,4.41,4.50,137300,4.337
2015-08-26,4.15,4.47,4.12,4.47,123500,4.309
2015-08-25,4.10,4.34,4.01,4.28,200300,4.125
2015-08-24,4.15,4.29,4.02,4.13,255300,3.981
2015-08-21,4.25,4.28,3.94,4.24,219900,4.087
2015-08-20,4.36,4.51,4.265,4.27,189800,4.116
2015-08-19,4.45,4.48,4.385,4.42,161700,4.26
2015-08-18,4.57,4.60,4.44,4.44,123200,4.28
2015-08-17,4.57,4.63,4.55,4.61,80100,4.444
2015-08-14,4.50,4.62,4.46,4.54,154600,4.376
2015-08-13,4.53,4.60,4.52,4.56,77400,4.395
2015-08-12,4.65,4.70,4.51,4.54,249800,4.376
2015-08-11,4.72,4.74,4.62,4.67,70700,4.501
2015-08-10,4.66,4.70,4.65,4.69,74600,4.521
2015-08-07,4.72,4.77,4.66,4.67,223700,4.501
2015-08-06,4.76,4.80,4.75,4.77,116800,4.598
2015-08-05,4.79,4.80,4.74,4.80,151100,4.627
2015-08-04,4.73,4.83,4.71,4.80,142200,4.627
2015-08-03,4.77,4.78,4.73,4.75,63800,4.578
2015-07-31,4.69,4.80,4.69,4.76,177600,4.588
2015-07-30,4.64,4.71,4.61,4.70,78800,4.53
2015-07-29,4.61,4.64,4.58,4.62,79600,4.453
2015-07-28,4.51,4.59,4.47,4.58,114700,4.415
2015-07-27,4.50,4.57,4.47,4.54,99900,4.376
2015-07-24,4.54,4.58,4.46,4.50,122500,4.337
2015-07-23,4.56,4.615,4.495,4.57,203300,4.405
2015-07-22,4.60,4.60,4.54,4.54,156700,4.376
2015-07-21,4.70,4.71,4.65,4.65,143000,4.482
2015-07-20,4.66,4.72,4.66,4.68,106200,4.511
2015-07-17,4.67,4.71,4.61,4.64,171000,4.472
2015-07-16,4.77,4.77,4.64,4.66,277600,4.492
2015-07-15,4.63,4.73,4.63,4.70,245600,4.53
2015-07-14,4.56,4.64,4.54,4.64,161100,4.472
2015-07-13,4.46,4.53,4.45,4.50,122800,4.337
2015-07-10,4.53,4.55,4.46,4.46,140700,4.299
2015-07-09,4.50,4.54,4.45,4.52,335300,4.357
2015-07-08,4.58,4.60,4.53,4.53,546600,4.366
2015-07-07,4.54,4.65,4.53,4.64,251300,4.472
2015-07-06,4.50,4.57,4.47,4.51,375400,4.347
2015-07-03,4.45,4.54,4.435,4.50,401000,4.337
2015-07-02,4.35,4.47,4.35,4.47,485100,4.309
2015-07-01,4.35,4.385,4.31,4.35,301000,4.193
2015-06-30,4.26,4.35,4.26,4.33,342700,4.174
2015-06-29,4.35,4.39,4.29,4.29,319200,4.135
2015-06-26,4.45,4.48,4.37,4.40,335000,4.241
2015-06-25,4.49,4.51,4.42,4.45,601700,4.289
2015-06-24,4.54,4.54,4.46,4.51,169400,4.347
2015-06-23,4.56,4.61,4.49,4.54,306200,4.376
2015-06-22,4.48,4.53,4.48,4.51,162200,4.347
2015-06-19,4.45,4.54,4.45,4.50,420900,4.337
2015-06-18,4.40,4.44,4.38,4.42,537400,4.26
2015-06-17,4.44,4.46,4.38,4.43,197000,4.27
2015-06-16,4.42,4.45,4.35,4.41,147900,4.251
2015-06-15,4.47,4.49,4.40,4.45,172900,4.289
2015-06-12,4.51,4.53,4.47,4.47,109200,4.309
2015-06-11,4.53,4.54,4.49,4.50,155700,4.337
2015-06-10,4.50,4.51,4.45,4.50,1244400,4.337
2015-06-09,4.51,4.51,4.41,4.48,440500,4.318
2015-06-08,4.50,4.50,4.50,4.50,000,4.337
2015-06-05,4.50,4.52,4.47,4.50,337200,4.337
2015-06-04,4.52,4.52,4.47,4.49,409300,4.328
2015-06-03,4.53,4.56,4.44,4.50,413500,4.337
2015-06-02,4.63,4.68,4.50,4.57,325300,4.405
2015-06-01,4.64,4.68,4.59,4.63,215300,4.463
2015-05-29,4.62,4.70,4.62,4.64,265300,4.472
2015-05-28,4.64,4.66,4.59,4.60,125500,4.434
2015-05-27,4.61,4.63,4.59,4.62,172100,4.453
2015-05-26,4.63,4.695,4.62,4.66,125900,4.492
2015-05-25,4.70,4.72,4.61,4.64,253600,4.472
2015-05-22,4.69,4.73,4.65,4.68,117500,4.511
2015-05-21,4.72,4.725,4.64,4.66,275100,4.492
2015-05-20,4.71,4.75,4.65,4.72,296400,4.55
2015-05-19,4.60,4.84,4.55,4.67,1639600,4.501
2015-05-18,5.04,5.05,4.87,4.87,111800,4.694
2015-05-15,4.98,5.04,4.97,5.04,132900,4.858
2015-05-14,4.89,4.97,4.87,4.97,82400,4.791
2015-05-13,4.87,4.99,4.87,4.99,70100,4.81
2015-05-12,4.87,4.98,4.87,4.96,48200,4.781
2015-05-11,5.00,5.00,4.87,4.89,87100,4.713
2015-05-08,4.80,4.89,4.80,4.88,102200,4.704
2015-05-07,4.90,4.93,4.79,4.84,175500,4.665
2015-05-06,4.99,4.99,4.90,4.92,144500,4.742
2015-05-05,4.99,5.07,4.99,5.02,244500,4.839
2015-05-04,4.97,5.00,4.91,4.99,86600,4.81
2015-05-01,4.84,4.95,4.84,4.90,125700,4.723
2015-04-30,4.93,4.93,4.83,4.83,218100,4.656
2015-04-29,5.03,5.04,4.94,4.95,82600,4.771
2015-04-28,5.03,5.04,5.00,5.01,81800,4.829
2015-04-27,4.97,5.05,4.95,5.05,192500,4.868
2015-04-24,4.90,4.99,4.87,4.99,100000,4.81
2015-04-23,4.86,4.89,4.83,4.88,42300,4.704
2015-04-22,4.84,4.94,4.84,4.86,103000,4.684
2015-04-21,4.87,4.89,4.83,4.85,107500,4.675
2015-04-20,4.80,4.89,4.79,4.83,80000,4.656
2015-04-17,4.83,4.88,4.80,4.82,319400,4.646
2015-04-16,4.89,4.97,4.84,4.88,128000,4.704
2015-04-15,4.93,4.94,4.84,4.89,114900,4.713
2015-04-14,4.96,4.98,4.86,4.93,107700,4.752
2015-04-13,5.06,5.09,4.93,4.99,59700,4.81
2015-04-10,5.09,5.09,5.04,5.05,57100,4.868
2015-04-09,5.00,5.08,4.98,5.05,191600,4.868
2015-04-08,4.90,5.02,4.90,5.00,91800,4.819
2015-04-07,4.91,5.07,4.89,4.90,167700,4.723
2015-04-06,4.88,4.88,4.88,4.88,000,4.704
2015-04-03,4.88,4.88,4.88,4.88,000,4.704
2015-04-02,4.80,4.89,4.78,4.88,141600,4.704
2015-04-01,4.78,4.81,4.76,4.78,155400,4.607
2015-03-31,4.77,4.80,4.76,4.80,215800,4.627
2015-03-30,4.82,4.87,4.77,4.78,149900,4.607
2015-03-27,4.85,4.89,4.84,4.87,141000,4.694
2015-03-26,4.85,4.90,4.85,4.86,259100,4.684
2015-03-25,4.91,4.91,4.84,4.85,126100,4.675
2015-03-24,4.81,4.91,4.81,4.86,87500,4.684
2015-03-23,4.86,4.88,4.79,4.83,142100,4.656
2015-03-20,4.86,4.92,4.86,4.90,199000,4.723
2015-03-19,4.75,4.86,4.75,4.84,413500,4.665
2015-03-18,4.75,4.75,4.70,4.75,165900,4.578
2015-03-17,4.76,4.79,4.72,4.73,133100,4.559
2015-03-16,4.73,4.79,4.71,4.73,173900,4.559
2015-03-13,4.72,4.75,4.69,4.73,149600,4.559
2015-03-12,4.71,4.80,4.70,4.71,144900,4.54
2015-03-11,4.62,4.79,4.61,4.69,314000,4.521
2015-03-10,4.66,4.73,4.64,4.65,299400,4.482
2015-03-09,4.76,4.85,4.64,4.67,460900,4.501
2015-03-06,4.85,4.86,4.76,4.77,222700,4.598
2015-03-05,4.82,4.86,4.80,4.85,134000,4.675
2015-03-04,4.85,4.89,4.81,4.83,152400,4.656
2015-03-03,4.93,4.96,4.81,4.85,270000,4.675
2015-03-02,4.83,4.98,4.80,4.91,325400,4.733
2015-02-27,4.81,4.81,4.715,4.80,738000,4.627
2015-02-26,4.87,4.87,4.74,4.79,227900,4.617
2015-02-25,4.89,4.90,4.87,4.89,284700,4.658
2015-02-24,4.87,4.98,4.86,4.88,222600,4.649
2015-02-23,4.98,4.98,4.87,4.89,417800,4.658
2015-02-20,5.06,5.07,4.83,4.93,356800,4.696
2015-02-19,5.07,5.17,5.01,5.04,326000,4.801
2015-02-18,5.24,5.25,4.88,5.05,368100,4.811
2015-02-17,5.22,5.25,5.21,5.23,111700,4.982
2015-02-16,5.17,5.24,5.10,5.23,94800,4.982
2015-02-13,5.25,5.32,5.15,5.15,308800,4.906
2015-02-12,5.13,5.25,5.13,5.25,272300,5.001
2015-02-11,5.13,5.14,5.06,5.11,120500,4.868
2015-02-10,5.11,5.15,5.09,5.11,80000,4.868
2015-02-09,5.07,5.13,5.07,5.11,143300,4.868
2015-02-06,5.14,5.16,5.08,5.08,75100,4.839
2015-02-05,5.06,5.15,5.06,5.13,132400,4.887
2015-02-04,5.10,5.10,5.03,5.07,127200,4.83
2015-02-03,5.11,5.11,5.02,5.09,169000,4.849
2015-02-02,5.06,5.14,5.03,5.09,139500,4.849
2015-01-30,5.14,5.14,5.04,5.11,177200,4.868
2015-01-29,5.06,5.14,5.03,5.13,140500,4.887
2015-01-28,5.05,5.12,5.05,5.10,195600,4.858
2015-01-27,5.03,5.10,5.02,5.07,183000,4.83
2015-01-26,5.02,5.02,5.02,5.02,000,4.782
2015-01-23,4.98,5.05,4.98,5.02,78800,4.782
2015-01-22,4.98,5.02,4.95,4.98,77500,4.744
2015-01-21,4.87,4.97,4.87,4.97,69900,4.735
2015-01-20,4.88,4.88,4.82,4.87,88100,4.639
2015-01-19,4.91,4.91,4.86,4.90,134700,4.668
2015-01-16,4.94,4.95,4.81,4.87,211500,4.639
2015-01-15,5.00,5.03,4.94,4.98,210700,4.744
2015-01-14,5.09,5.09,5.00,5.00,155300,4.763
2015-01-13,5.12,5.15,5.05,5.09,171400,4.849
2015-01-12,5.15,5.21,5.11,5.16,121400,4.916
2015-01-09,5.10,5.20,5.08,5.18,162700,4.935
2015-01-08,5.00,5.11,4.97,5.07,144600,4.83
2015-01-07,5.06,5.06,4.96,5.00,105800,4.763
2015-01-06,5.12,5.16,5.02,5.07,121800,4.83
2015-01-05,5.15,5.25,5.01,5.19,139900,4.944
2015-01-02,5.22,5.22,5.06,5.17,86600,4.925
2015-01-01,5.15,5.15,5.15,5.15,000,4.906
2014-12-31,5.16,5.21,5.15,5.15,133200,4.906
2014-12-30,5.11,5.19,5.09,5.11,118800,4.868
2014-12-29,4.97,5.13,4.94,5.13,78500,4.887
2014-12-26,4.96,4.96,4.96,4.96,000,4.725
2014-12-25,4.96,4.96,4.96,4.96,000,4.725
2014-12-24,4.95,4.99,4.90,4.96,112200,4.725
2014-12-23,5.01,5.07,4.94,4.94,172700,4.706
2014-12-22,4.91,5.02,4.91,5.01,214700,4.773
2014-12-19,4.82,4.92,4.79,4.90,473800,4.668
2014-12-18,4.78,4.90,4.76,4.78,320700,4.554
2014-12-17,4.80,4.80,4.73,4.77,259000,4.544
2014-12-16,4.78,4.79,4.73,4.77,315200,4.544
2014-12-15,4.87,4.90,4.76,4.79,186000,4.563
2014-12-12,4.85,4.97,4.82,4.92,233900,4.687
2014-12-11,4.80,4.86,4.78,4.86,188000,4.63
2014-12-10,4.85,4.87,4.78,4.85,146200,4.62
2014-12-09,4.92,4.95,4.84,4.84,202700,4.611
2014-12-08,4.93,4.97,4.92,4.96,84300,4.725
2014-12-05,5.02,5.02,4.92,4.93,136000,4.696
2014-12-04,4.97,5.04,4.95,5.02,135000,4.782
2014-12-03,4.90,5.03,4.90,5.03,277400,4.792
2014-12-02,5.00,5.03,4.90,4.96,293200,4.725
2014-12-01,5.12,5.16,4.97,5.00,235100,4.763
2014-11-28,5.31,5.31,5.12,5.13,343400,4.887
2014-11-27,5.28,5.34,5.28,5.30,219900,5.049
2014-11-26,5.29,5.31,5.27,5.28,234100,5.03
2014-11-25,5.29,5.35,5.19,5.21,2967500,4.963
2014-11-24,5.26,5.33,5.25,5.33,396000,5.077
2014-11-21,5.33,5.35,5.27,5.27,146400,5.02
2014-11-20,5.35,5.37,5.31,5.31,351300,5.058
2014-11-19,5.32,5.34,5.28,5.32,299300,5.068
2014-11-18,5.35,5.37,5.26,5.30,293100,5.049
2014-11-17,5.43,5.43,5.26,5.26,424600,5.011
2014-11-14,5.33,5.45,5.31,5.35,293700,5.097
2014-11-13,5.34,5.37,5.30,5.30,273300,5.049
2014-11-12,5.36,5.44,5.28,5.32,358800,5.068
2014-11-11,5.42,5.46,5.33,5.35,465100,5.097
2014-11-10,5.31,5.38,5.31,5.34,507300,5.087
2014-11-07,5.18,5.46,5.16,5.29,639700,5.039
2014-11-06,5.16,5.205,5.11,5.17,204200,4.925
2014-11-05,5.17,5.24,5.09,5.15,537700,4.906
2014-11-04,5.16,5.19,5.15,5.17,233500,4.925
2014-11-03,5.18,5.20,5.13,5.16,198500,4.916
2014-10-31,5.06,5.20,5.01,5.18,393500,4.935
2014-10-30,5.09,5.11,4.99,5.05,336600,4.811
2014-10-29,5.16,5.18,4.97,5.10,308800,4.858
2014-10-28,5.13,5.15,4.97,5.13,821700,4.887
2014-10-27,5.15,5.17,5.11,5.13,306400,4.887
2014-10-24,5.15,5.20,5.13,5.14,344900,4.896
2014-10-23,5.03,5.14,5.03,5.14,224300,4.896
2014-10-22,4.99,5.06,4.97,5.06,181500,4.82
2014-10-21,4.90,4.95,4.89,4.95,155200,4.715
2014-10-20,4.85,4.90,4.83,4.89,152700,4.658
2014-10-17,4.84,4.85,4.80,4.83,113800,4.601
2014-10-16,4.79,4.83,4.71,4.79,321100,4.563
2014-10-15,4.79,4.85,4.71,4.85,312500,4.62
2014-10-14,4.75,4.79,4.71,4.78,243400,4.554
2014-10-13,4.82,4.86,4.76,4.79,171900,4.563
2014-10-10,4.90,4.96,4.85,4.87,334100,4.639
2014-10-09,5.00,5.02,4.96,4.98,135700,4.744
2014-10-08,4.95,5.00,4.94,5.00,230900,4.763
2014-10-07,5.02,5.08,4.95,4.99,274200,4.754
2014-10-06,5.03,5.05,5.01,5.03,61200,4.792
2014-10-03,4.99,5.00,4.98,5.00,156000,4.763
2014-10-02,5.03,5.05,4.99,4.99,212000,4.754
2014-10-01,4.98,5.10,4.95,5.09,270600,4.849
2014-09-30,5.00,5.04,4.98,5.03,591200,4.792
2014-09-29,5.01,5.04,5.00,5.00,292600,4.763
2014-09-26,5.03,5.03,5.00,5.01,208700,4.773
2014-09-25,5.07,5.10,5.06,5.08,144300,4.839
2014-09-24,5.16,5.20,5.02,5.06,196200,4.82
2014-09-23,5.04,5.17,5.02,5.09,282300,4.849
2014-09-22,5.03,5.13,5.02,5.03,381400,4.792
2014-09-19,5.05,5.07,5.00,5.03,1948000,4.792
2014-09-18,5.01,5.07,5.00,5.02,320300,4.782
2014-09-17,5.03,5.04,4.93,4.97,379700,4.735
2014-09-16,5.15,5.17,4.99,5.03,255200,4.792
2014-09-15,5.15,5.18,5.01,5.15,169700,4.906
2014-09-12,5.20,5.24,5.17,5.20,274700,4.954
2014-09-11,5.25,5.25,5.17,5.20,362000,4.954
2014-09-10,5.22,5.29,5.22,5.24,341800,4.992
2014-09-09,5.15,5.27,5.105,5.27,397000,5.02
2014-09-08,5.12,5.16,5.11,5.16,247600,4.916
2014-09-05,5.12,5.15,5.08,5.14,256400,4.896
2014-09-04,5.07,5.15,5.03,5.13,259300,4.887
2014-09-03,5.00,5.11,4.99,5.05,174200,4.811
2014-09-02,5.02,5.06,4.99,5.04,112000,4.801
2014-09-01,5.06,5.09,5.02,5.02,122000,4.782
2014-08-29,5.00,5.07,4.99,5.06,123400,4.82
2014-08-28,5.02,5.06,4.86,4.99,308800,4.754
2014-08-27,5.08,5.12,5.04,5.06,142200,4.759
2014-08-26,5.22,5.22,4.98,5.10,282700,4.797
2014-08-25,5.24,5.27,5.19,5.27,123300,4.957
2014-08-22,5.31,5.31,5.17,5.25,143100,4.938
2014-08-21,5.38,5.41,5.28,5.30,234500,4.985
2014-08-20,5.20,5.32,5.20,5.29,311500,4.975
2014-08-19,5.20,5.20,5.16,5.20,165100,4.891
2014-08-18,5.10,5.19,5.10,5.15,201600,4.844
2014-08-15,4.98,5.15,4.97,5.07,402400,4.768
2014-08-14,4.90,4.98,4.88,4.97,390700,4.674
2014-08-13,4.89,4.91,4.87,4.90,133600,4.609
2014-08-12,4.88,4.90,4.87,4.90,163600,4.609
2014-08-11,4.90,4.92,4.85,4.87,220700,4.58
2014-08-08,4.87,4.91,4.85,4.90,638200,4.609
2014-08-07,4.87,4.88,4.82,4.87,170000,4.58
2014-08-06,4.88,4.92,4.85,4.87,225600,4.58
2014-08-05,4.86,4.92,4.84,4.88,193900,4.59
2014-08-04,4.85,4.88,4.83,4.85,134300,4.562
2014-08-01,4.84,4.90,4.81,4.85,232500,4.562
2014-07-31,4.86,4.90,4.85,4.88,172900,4.59
2014-07-30,4.93,4.96,4.88,4.91,152300,4.618
2014-07-29,4.85,4.90,4.82,4.90,114200,4.609
2014-07-28,4.85,4.87,4.84,4.85,181600,4.562
2014-07-25,4.85,4.89,4.80,4.86,238200,4.571
2014-07-24,4.92,4.92,4.85,4.85,64600,4.562
2014-07-23,4.93,4.94,4.90,4.91,96000,4.618
2014-07-22,4.91,4.93,4.89,4.93,130200,4.637
2014-07-21,4.90,4.93,4.88,4.93,171500,4.637
2014-07-18,4.93,4.95,4.85,4.87,113800,4.58
2014-07-17,4.98,4.99,4.92,4.93,181700,4.637
2014-07-16,4.90,4.94,4.86,4.93,107100,4.637
2014-07-15,4.92,4.94,4.85,4.94,169700,4.646
2014-07-14,4.84,4.92,4.83,4.92,132100,4.627
2014-07-11,4.84,4.88,4.82,4.82,145000,4.533
2014-07-10,4.85,4.90,4.85,4.88,93400,4.59
2014-07-09,4.88,4.89,4.82,4.85,102600,4.562
2014-07-08,4.87,4.91,4.85,4.91,175400,4.618
2014-07-07,4.88,4.90,4.85,4.85,142700,4.562
2014-07-04,4.88,4.90,4.85,4.90,112800,4.609
2014-07-03,4.86,4.88,4.84,4.86,331800,4.571
2014-07-02,4.86,4.94,4.86,4.87,157900,4.58
2014-07-01,4.89,4.95,4.84,4.95,168000,4.656
2014-06-30,4.85,4.93,4.80,4.87,187400,4.58
2014-06-27,4.94,4.96,4.84,4.85,132000,4.562
2014-06-26,4.87,4.96,4.82,4.95,99600,4.656
2014-06-25,4.90,4.91,4.79,4.90,222200,4.609
2014-06-24,4.97,4.98,4.88,4.93,133500,4.637
2014-06-23,4.98,5.05,4.96,5.03,125900,4.731
2014-06-20,5.01,5.04,4.96,4.97,137500,4.674
2014-06-19,5.02,5.05,4.85,5.05,330000,4.75
2014-06-18,4.91,4.94,4.87,4.88,73300,4.59
2014-06-17,4.81,4.94,4.79,4.91,132800,4.618
2014-06-16,4.82,4.84,4.74,4.80,406400,4.514
2014-06-13,5.00,5.01,4.86,4.90,349100,4.609
2014-06-12,5.05,5.12,5.02,5.03,78300,4.731
2014-06-11,5.15,5.15,5.08,5.10,157800,4.797
2014-06-10,5.18,5.20,5.14,5.17,109000,4.862
2014-06-09,5.16,5.16,5.16,5.16,000,4.853
2014-06-06,5.09,5.19,5.08,5.16,167300,4.853
2014-06-05,5.19,5.20,5.00,5.09,235000,4.787
2014-06-04,5.13,5.26,5.12,5.20,241400,4.891
2014-06-03,5.26,5.26,5.11,5.11,195400,4.806
2014-06-02,5.32,5.33,5.24,5.28,130300,4.966
2014-05-30,5.37,5.37,5.29,5.31,149300,4.994
2014-05-29,5.30,5.39,5.27,5.39,84100,5.069
2014-05-28,5.38,5.45,5.275,5.30,403800,4.985
2014-05-27,5.25,5.39,5.25,5.36,188000,5.041
2014-05-26,5.17,5.29,5.11,5.25,169700,4.938
2014-05-23,5.10,5.18,5.06,5.14,196900,4.834
2014-05-22,5.06,5.155,5.05,5.15,221900,4.844
2014-05-21,5.02,5.05,5.005,5.05,329300,4.75
2014-05-20,5.05,5.08,5.03,5.05,153800,4.75
2014-05-19,5.08,5.09,5.05,5.06,215000,4.759
2014-05-16,5.08,5.11,5.07,5.08,155400,4.778
2014-05-15,5.06,5.15,5.06,5.15,248700,4.844
2014-05-14,5.14,5.14,5.06,5.08,221200,4.778
2014-05-13,5.09,5.19,5.06,5.15,216200,4.844
2014-05-12,5.09,5.14,5.06,5.08,118900,4.778
2014-05-09,5.12,5.12,5.06,5.08,103500,4.778
2014-05-08,5.10,5.15,5.08,5.15,107500,4.844
2014-05-07,5.15,5.15,5.06,5.08,171000,4.778
2014-05-06,5.11,5.19,5.10,5.15,140400,4.844
2014-05-05,5.08,5.14,5.06,5.14,236600,4.834
2014-05-02,5.10,5.15,5.05,5.10,185200,4.797
2014-05-01,5.15,5.17,5.06,5.10,535100,4.797
2014-04-30,5.10,5.15,5.08,5.15,103600,4.844
2014-04-29,5.15,5.15,5.07,5.09,225000,4.787
2014-04-28,5.13,5.15,5.12,5.15,70800,4.844
2014-04-25,5.14,5.14,5.14,5.14,000,4.834
2014-04-24,5.19,5.20,5.12,5.14,162300,4.834
2014-04-23,5.03,5.19,5.02,5.19,250600,4.881
2014-04-22,5.00,5.03,4.96,5.03,225700,4.731
2014-04-21,4.99,4.99,4.99,4.99,000,4.693
2014-04-18,4.99,4.99,4.99,4.99,000,4.693
2014-04-17,5.03,5.03,4.96,4.99,147100,4.693
2014-04-16,4.99,5.03,4.91,5.02,194700,4.721
2014-04-15,4.92,4.99,4.89,4.95,232900,4.656
2014-04-14,5.05,5.05,4.69,4.86,564000,4.571
2014-04-11,5.13,5.13,5.04,5.07,129900,4.768
2014-04-10,5.20,5.20,5.13,5.19,177400,4.881
2014-04-09,5.08,5.20,5.07,5.20,313900,4.891
2014-04-08,5.00,5.10,4.96,5.03,438300,4.731
2014-04-07,5.13,5.18,4.98,5.00,599500,4.703
2014-04-04,5.17,5.20,5.16,5.17,197400,4.862
2014-04-03,5.17,5.24,5.16,5.17,344800,4.862
2014-04-02,5.34,5.35,5.10,5.16,421900,4.853
2014-04-01,5.25,5.35,5.22,5.34,279600,5.022
2014-03-31,5.41,5.44,5.21,5.26,300800,4.947
2014-03-28,5.40,5.41,5.28,5.41,297300,5.088
2014-03-27,5.42,5.46,5.36,5.38,276500,5.06
2014-03-26,5.41,5.49,5.40,5.49,306700,5.163
2014-03-25,5.48,5.50,5.36,5.39,300000,5.069
2014-03-24,5.55,5.56,5.50,5.55,607900,5.22
2014-03-21,5.50,5.59,5.44,5.55,9392600,5.22
2014-03-20,5.61,5.62,5.51,5.57,404100,5.239
2014-03-19,5.44,5.63,5.36,5.62,332100,5.286
2014-03-18,5.42,5.44,5.40,5.44,267300,5.116
2014-03-17,5.38,5.43,5.32,5.41,213600,5.088
2014-03-14,5.44,5.44,5.34,5.38,229300,5.06
2014-03-13,5.50,5.51,5.39,5.44,281200,5.116
2014-03-12,5.45,5.59,5.45,5.50,123300,5.173
2014-03-11,5.40,5.49,5.38,5.49,489500,5.163
2014-03-10,5.48,5.48,5.31,5.38,525600,5.06
2014-03-07,5.39,5.55,5.32,5.32,501000,5.004
2014-03-06,5.39,5.44,5.36,5.39,328900,5.069
2014-03-05,5.38,5.44,5.36,5.39,463500,5.069
2014-03-04,5.38,5.40,5.30,5.40,263500,5.079
2014-03-03,5.35,5.40,5.30,5.40,75100,5.079
2014-02-28,5.35,5.40,5.30,5.35,129600,5.032
2014-02-27,5.35,5.39,5.32,5.35,219700,5.032
2014-02-26,5.44,5.47,5.36,5.42,201100,5.098
2014-02-25,5.45,5.48,5.43,5.43,267100,5.107
2014-02-24,5.39,5.46,5.37,5.43,387600,5.053
2014-02-21,5.26,5.42,5.26,5.39,494600,5.016
2014-02-20,5.35,5.35,5.24,5.26,540000,4.895
2014-02-19,5.16,5.42,5.16,5.35,901800,4.979
2014-02-18,5.18,5.18,5.14,5.15,215300,4.793
2014-02-17,5.17,5.23,5.13,5.16,184900,4.802
2014-02-14,5.10,5.18,5.10,5.15,298300,4.793
2014-02-13,4.97,5.11,4.96,5.07,322000,4.718
2014-02-12,4.99,5.02,4.98,5.00,235100,4.653
2014-02-11,4.93,4.98,4.90,4.98,172500,4.634
2014-02-10,4.90,4.92,4.88,4.91,211200,4.569
2014-02-07,4.90,4.92,4.85,4.90,122900,4.56
2014-02-06,4.90,4.92,4.89,4.90,234000,4.56
2014-02-05,4.90,4.92,4.88,4.92,151100,4.579
2014-02-04,4.79,4.90,4.79,4.90,163300,4.56
2014-02-03,4.85,4.90,4.83,4.87,66300,4.532
2014-01-31,4.82,4.86,4.79,4.83,335400,4.495
2014-01-30,4.80,4.87,4.77,4.87,154700,4.532
2014-01-29,4.80,4.85,4.77,4.85,66600,4.514
2014-01-28,4.79,4.83,4.75,4.80,197500,4.467
2014-01-27,4.83,4.83,4.83,4.83,000,4.495
2014-01-24,4.80,4.85,4.75,4.83,77200,4.495
2014-01-23,4.84,4.84,4.76,4.80,91600,4.467
2014-01-22,4.92,4.92,4.76,4.80,192700,4.467
2014-01-21,4.73,4.92,4.72,4.92,198600,4.579
2014-01-20,4.73,4.74,4.66,4.73,264400,4.402
2014-01-17,4.68,4.72,4.64,4.71,386900,4.383
2014-01-16,4.55,4.74,4.55,4.62,638100,4.299
2014-01-15,4.51,4.64,4.48,4.61,271200,4.29
2014-01-14,4.60,4.60,4.45,4.47,234400,4.16
2014-01-13,4.60,4.64,4.58,4.58,44000,4.262
2014-01-10,4.61,4.66,4.58,4.58,264000,4.262
2014-01-09,4.54,4.63,4.54,4.60,416400,4.281
2014-01-08,4.46,4.56,4.46,4.50,296400,4.188
2014-01-07,4.44,4.52,4.41,4.50,321400,4.188
2014-01-06,4.57,4.58,4.42,4.43,56600,4.123
2014-01-03,4.48,4.55,4.47,4.48,60800,4.169
2014-01-02,4.52,4.54,4.47,4.50,128300,4.188
2014-01-01,4.52,4.52,4.52,4.52,000,4.206
2013-12-31,4.49,4.52,4.43,4.52,163100,4.206
2013-12-30,4.41,4.50,4.41,4.50,92700,4.188
2013-12-27,4.45,4.45,4.41,4.43,43600,4.123
2013-12-26,4.45,4.45,4.45,4.45,000,4.141
2013-12-25,4.45,4.45,4.45,4.45,000,4.141
2013-12-24,4.39,4.45,4.39,4.45,17300,4.141
2013-12-23,4.40,4.44,4.35,4.42,77500,4.113
2013-12-20,4.49,4.52,4.38,4.40,254900,4.095
2013-12-19,4.47,4.49,4.35,4.49,322000,4.178
2013-12-18,4.36,4.49,4.36,4.42,268000,4.113
2013-12-17,4.40,4.40,4.34,4.35,99500,4.048
2013-12-16,4.42,4.47,4.30,4.39,151100,4.085
2013-12-13,4.44,4.44,4.35,4.42,95700,4.113
2013-12-12,4.40,4.42,4.37,4.40,195000,4.095
2013-12-11,4.44,4.45,4.36,4.40,227300,4.095
2013-12-10,4.40,4.50,4.40,4.44,148700,4.132
2013-12-09,4.41,4.45,4.35,4.40,163200,4.095
2013-12-06,4.55,4.56,4.48,4.48,268200,4.169
2013-12-05,4.51,4.56,4.51,4.56,141800,4.244
2013-12-04,4.65,4.65,4.54,4.56,206000,4.244
2013-12-03,4.55,4.71,4.55,4.65,366700,4.327
2013-12-02,4.70,4.70,4.52,4.55,991500,4.234
2013-11-29,4.70,4.70,4.65,4.68,290800,4.355
2013-11-28,4.65,4.94,4.65,4.74,3310000,4.411
2013-11-27,4.67,4.68,4.65,4.65,283600,4.327
2013-11-26,4.65,4.71,4.65,4.65,101100,4.327
2013-11-25,4.71,4.71,4.65,4.67,345600,4.346
2013-11-22,4.70,4.85,4.67,4.71,439500,4.383
2013-11-21,4.65,4.70,4.63,4.67,504000,4.346
2013-11-20,4.65,4.67,4.61,4.62,132100,4.299
2013-11-19,4.80,4.80,4.65,4.67,168100,4.346
2013-11-18,4.80,4.88,4.76,4.78,505300,4.448
2013-11-15,4.43,4.75,4.43,4.75,775100,4.42
2013-11-14,4.60,4.65,4.41,4.45,364000,4.141
2013-11-13,4.36,4.68,4.36,4.58,343200,4.262
2013-11-12,4.49,4.50,4.33,4.36,559300,4.058
2013-11-11,4.62,4.66,4.52,4.52,205200,4.206
2013-11-08,4.80,4.80,4.51,4.64,399600,4.318
2013-11-07,4.81,4.88,4.80,4.84,643900,4.504
2013-11-06,4.92,4.93,4.80,4.81,512700,4.476
2013-11-05,5.05,5.05,4.83,4.97,432600,4.625
2013-11-04,4.86,5.15,4.86,5.05,2442800,4.70
2013-11-01,4.85,4.94,4.70,4.83,1183500,4.495
2013-10-31,4.40,4.47,4.36,4.41,9836700,4.104
2013-10-30,4.30,4.44,4.29,4.39,695600,4.085
2013-10-29,4.04,4.54,4.00,4.17,691800,3.881
2013-10-28,4.01,4.12,4.00,4.00,593900,3.722
2013-10-25,3.98,4.00,3.98,4.00,120100,3.722
2013-10-24,4.00,4.00,3.94,3.95,79100,3.676
2013-10-23,4.01,4.01,3.93,3.93,191100,3.657
2013-10-22,4.07,4.07,3.97,4.00,227700,3.722
2013-10-21,3.95,4.21,3.93,4.08,360500,3.797
2013-10-18,3.90,3.90,3.84,3.88,742000,3.611
2013-10-17,3.84,3.90,3.82,3.85,932800,3.583
2013-10-16,3.85,3.87,3.83,3.83,211900,3.564
2013-10-15,3.83,3.88,3.79,3.85,342500,3.583
2013-10-14,3.85,3.95,3.83,3.83,440500,3.564
2013-10-11,3.75,3.90,3.75,3.82,454700,3.555
2013-10-10,3.66,3.79,3.66,3.70,459100,3.443
2013-10-09,3.50,3.66,3.46,3.65,406800,3.397
2013-10-08,3.63,3.63,3.41,3.50,246000,3.257
2013-10-07,3.66,3.66,3.58,3.58,67600,3.332
2013-10-04,3.65,3.76,3.58,3.61,146800,3.36
2013-10-03,3.65,3.65,3.58,3.64,67300,3.387
2013-10-02,3.57,3.61,3.49,3.60,116800,3.35
2013-10-01,3.53,3.57,3.50,3.57,216600,3.322
2013-09-30,3.51,3.55,3.48,3.55,171700,3.304
2013-09-27,3.49,3.50,3.47,3.49,220200,3.248
2013-09-26,3.40,3.56,3.40,3.45,278400,3.211
2013-09-25,3.35,3.40,3.35,3.39,79500,3.155
2013-09-24,3.39,3.40,3.30,3.35,323300,3.118
2013-09-23,3.40,3.42,3.38,3.40,88700,3.164
2013-09-20,3.41,3.42,3.38,3.42,141900,3.183
2013-09-19,3.46,3.46,3.40,3.40,153900,3.164
2013-09-18,3.50,3.50,3.45,3.46,129800,3.22
2013-09-17,3.45,3.50,3.41,3.45,303400,3.211
2013-09-16,3.35,3.45,3.34,3.42,253000,3.183
2013-09-13,3.41,3.49,3.27,3.30,459100,3.071
2013-09-12,3.20,3.40,3.20,3.33,642500,3.099
2013-09-11,3.12,3.18,3.10,3.15,88000,2.931
2013-09-10,3.21,3.21,3.15,3.15,66500,2.931
2013-09-09,3.21,3.21,3.10,3.18,49800,2.959
2013-09-06,3.16,3.21,3.10,3.16,100000,2.941
2013-09-05,3.20,3.24,3.10,3.12,456200,2.904
2013-09-04,3.20,3.25,3.16,3.22,234100,2.997
2013-09-03,3.14,3.19,3.14,3.17,157400,2.95
2013-09-02,3.18,3.25,3.12,3.16,129500,2.941
2013-08-30,3.09,3.20,3.09,3.17,139000,2.95
2013-08-29,3.02,3.08,2.98,3.08,123800,2.866
2013-08-28,3.03,3.04,2.995,3.04,95100,2.829
2013-08-27,3.09,3.09,2.98,3.03,1950100,2.82
2013-08-26,2.95,3.12,2.95,3.09,820500,2.822
2013-08-23,2.90,2.95,2.87,2.93,213900,2.676
2013-08-22,2.76,2.94,2.73,2.92,534600,2.667
2013-08-21,2.76,2.76,2.74,2.76,89000,2.521
2013-08-20,2.75,2.76,2.73,2.76,30500,2.521
2013-08-19,2.75,2.76,2.74,2.75,127900,2.512
2013-08-16,2.73,2.76,2.73,2.75,83200,2.512
2013-08-15,2.76,2.76,2.75,2.76,110900,2.521
2013-08-14,2.77,2.77,2.72,2.76,141200,2.521
2013-08-13,2.76,2.77,2.75,2.77,77500,2.53
2013-08-12,2.76,2.76,2.75,2.75,111300,2.512
2013-08-09,2.76,2.76,2.74,2.76,104800,2.521
2013-08-08,2.75,2.77,2.74,2.76,700100,2.521
2013-08-07,2.75,2.75,2.71,2.72,238400,2.484
2013-08-06,2.73,2.76,2.71,2.75,82900,2.512
2013-08-05,2.77,2.77,2.73,2.75,52800,2.512
2013-08-02,2.77,2.78,2.66,2.70,148500,2.466
2013-08-01,2.76,2.77,2.75,2.77,116100,2.53
2013-07-31,2.74,2.78,2.74,2.76,310000,2.521
2013-07-30,2.74,2.75,2.67,2.74,246300,2.503
2013-07-29,2.75,2.77,2.73,2.73,77000,2.494
2013-07-26,2.76,2.77,2.74,2.74,48000,2.503
2013-07-25,2.77,2.77,2.73,2.76,27300,2.521
2013-07-24,2.75,2.77,2.72,2.76,108100,2.521
2013-07-23,2.75,2.75,2.73,2.75,93100,2.512
2013-07-22,2.78,2.78,2.73,2.75,150200,2.512
2013-07-19,2.78,2.78,2.72,2.72,90200,2.484
2013-07-18,2.72,2.83,2.71,2.75,194300,2.512
2013-07-17,2.65,2.71,2.63,2.71,109200,2.475
2013-07-16,2.63,2.65,2.62,2.65,141900,2.421
2013-07-15,2.64,2.64,2.615,2.63,33200,2.402
2013-07-12,2.60,2.62,2.58,2.61,185600,2.384
2013-07-11,2.60,2.60,2.55,2.60,853700,2.375
2013-07-10,2.61,2.61,2.59,2.60,43600,2.375
2013-07-09,2.60,2.61,2.55,2.60,122400,2.375
2013-07-08,2.60,2.60,2.53,2.59,43800,2.366
2013-07-05,2.58,2.60,2.57,2.60,16900,2.375
2013-07-04,2.55,2.60,2.55,2.60,56200,2.375
2013-07-03,2.51,2.60,2.50,2.60,76000,2.375
2013-07-02,2.59,2.60,2.51,2.60,100900,2.375
2013-07-01,2.58,2.60,2.51,2.60,65400,2.375
2013-06-28,2.52,2.60,2.52,2.58,78000,2.357
2013-06-27,2.64,2.64,2.51,2.56,51200,2.338
2013-06-26,2.65,2.65,2.60,2.64,41800,2.411
2013-06-25,2.63,2.65,2.62,2.65,50900,2.421
2013-06-24,2.60,2.62,2.60,2.62,13100,2.393
2013-06-21,2.60,2.65,2.58,2.60,103800,2.375
2013-06-20,2.63,2.64,2.51,2.60,59000,2.375
2013-06-19,2.66,2.72,2.63,2.63,56500,2.402
2013-06-18,2.67,2.70,2.66,2.70,24200,2.466
2013-06-17,2.67,2.74,2.66,2.74,28100,2.503
2013-06-14,2.66,2.72,2.66,2.67,47900,2.439
2013-06-13,2.71,2.74,2.67,2.69,65000,2.457
2013-06-12,2.66,2.74,2.66,2.70,23700,2.466
2013-06-11,2.64,2.74,2.64,2.67,83800,2.439
2013-06-10,2.65,2.65,2.65,2.65,000,2.421
2013-06-07,2.63,2.75,2.62,2.65,47700,2.421
2013-06-06,2.67,2.74,2.61,2.65,208500,2.421
2013-06-05,2.68,2.68,2.65,2.67,38400,2.439
2013-06-04,2.69,2.69,2.59,2.67,315600,2.439
2013-06-03,2.72,2.72,2.62,2.71,81900,2.475
2013-05-31,2.73,2.74,2.70,2.72,90800,2.484
2013-05-30,2.80,2.83,2.73,2.73,451500,2.494
2013-05-29,2.90,2.91,2.76,2.91,50100,2.658
2013-05-28,2.80,2.86,2.78,2.80,50100,2.558
2013-05-27,2.85,2.85,2.79,2.79,171700,2.548
2013-05-24,2.90,2.94,2.85,2.85,192000,2.603
2013-05-23,2.87,2.87,2.83,2.85,118000,2.603
2013-05-22,2.94,2.94,2.80,2.89,42700,2.64
2013-05-21,2.90,2.99,2.89,2.89,304400,2.64
2013-05-20,2.88,2.95,2.87,2.87,163900,2.621
2013-05-17,2.89,2.89,2.87,2.88,104100,2.631
2013-05-16,2.88,2.90,2.84,2.87,40400,2.621
2013-05-15,2.83,2.87,2.80,2.87,54300,2.621
2013-05-14,2.84,2.85,2.75,2.83,46300,2.585
2013-05-13,2.79,2.84,2.79,2.84,55400,2.594
2013-05-10,2.85,2.85,2.79,2.79,65200,2.548
2013-05-09,2.81,2.89,2.81,2.84,44100,2.594
2013-05-08,2.88,2.88,2.80,2.81,59400,2.567
2013-05-07,2.86,2.88,2.84,2.88,55600,2.631
2013-05-06,2.85,2.90,2.81,2.86,555200,2.612
2013-05-03,2.83,2.84,2.81,2.84,284500,2.594
2013-05-02,2.84,2.84,2.82,2.83,54600,2.585
2013-05-01,2.84,2.84,2.83,2.84,42000,2.594
2013-04-30,2.80,2.83,2.76,2.83,69300,2.585
2013-04-29,2.80,2.82,2.78,2.80,57600,2.558
2013-04-26,2.81,2.84,2.77,2.77,62200,2.53
2013-04-25,2.80,2.80,2.80,2.80,000,2.558
2013-04-24,2.80,2.81,2.78,2.80,8800,2.558
2013-04-23,2.80,2.81,2.75,2.80,23100,2.558
2013-04-22,2.79,2.81,2.77,2.81,24200,2.567
2013-04-19,2.78,2.83,2.78,2.80,35700,2.558
2013-04-18,2.80,2.85,2.80,2.80,82500,2.558
2013-04-17,2.77,2.85,2.75,2.78,65700,2.539
2013-04-16,2.75,2.80,2.75,2.77,59500,2.53
2013-04-15,2.80,2.86,2.70,2.80,97500,2.558
2013-04-12,2.89,2.90,2.75,2.75,73700,2.512
2013-04-11,2.80,2.89,2.79,2.87,454300,2.621
2013-04-10,2.71,2.81,2.705,2.78,107300,2.539
2013-04-09,2.67,2.72,2.67,2.70,202000,2.466
2013-04-08,2.69,2.70,2.65,2.68,28400,2.448
2013-04-05,2.67,2.70,2.67,2.70,509200,2.466
2013-04-04,2.66,2.72,2.62,2.70,690200,2.466
2013-04-03,2.66,2.70,2.60,2.69,28800,2.457
2013-04-02,2.69,2.69,2.66,2.68,40400,2.448
2013-04-01,2.70,2.70,2.70,2.70,000,2.466
2013-03-29,2.70,2.70,2.70,2.70,000,2.466
2013-03-28,2.65,2.70,2.63,2.70,216000,2.466
2013-03-27,2.60,2.69,2.60,2.65,33700,2.421
2013-03-26,2.66,2.66,2.58,2.63,21400,2.402
2013-03-25,2.67,2.69,2.59,2.68,82200,2.448
2013-03-22,2.62,2.68,2.62,2.67,868100,2.439
2013-03-21,2.63,2.63,2.59,2.62,39200,2.393
2013-03-20,2.52,2.63,2.52,2.57,124900,2.347
2013-03-19,2.55,2.60,2.55,2.57,127800,2.347
2013-03-18,2.58,2.59,2.48,2.48,227500,2.265
2013-03-15,2.63,2.64,2.55,2.58,44900,2.357
2013-03-14,2.56,2.65,2.56,2.62,116300,2.393
2013-03-13,2.65,2.65,2.55,2.59,240100,2.366
2013-03-12,2.70,2.70,2.61,2.65,156900,2.421
2013-03-11,2.68,2.72,2.61,2.68,41400,2.448
2013-03-08,2.73,2.74,2.70,2.71,77300,2.475
2013-03-07,2.60,2.72,2.59,2.71,108700,2.475
2013-03-06,2.62,2.63,2.60,2.60,117300,2.375
2013-03-05,2.60,2.62,2.58,2.62,53600,2.393
2013-03-04,2.60,2.64,2.58,2.62,100600,2.393
2013-03-01,2.60,2.66,2.59,2.60,119800,2.375
2013-02-28,2.61,2.68,2.61,2.64,55900,2.411
2013-02-27,2.60,2.60,2.53,2.60,169600,2.375
2013-02-26,2.60,2.60,2.55,2.58,109700,2.311
2013-02-25,2.60,2.69,2.58,2.60,104800,2.329
2013-02-22,2.40,2.60,2.40,2.60,457900,2.329
2013-02-21,2.40,2.40,2.37,2.39,72000,2.141
2013-02-20,2.40,2.40,2.38,2.40,81200,2.15
2013-02-19,2.37,2.40,2.36,2.40,93200,2.15
2013-02-18,2.39,2.40,2.35,2.37,62000,2.123
2013-02-15,2.32,2.45,2.32,2.36,181600,2.114
2013-02-14,2.37,2.37,2.32,2.32,51200,2.078
2013-02-13,2.34,2.37,2.34,2.37,72900,2.123
2013-02-12,2.34,2.36,2.33,2.36,113800,2.114
2013-02-11,2.30,2.35,2.30,2.34,84700,2.096
2013-02-08,2.35,2.35,2.29,2.30,119100,2.06
2013-02-07,2.30,2.35,2.25,2.35,208900,2.105
2013-02-06,2.30,2.43,2.29,2.30,682400,2.06
2013-02-05,2.17,2.30,2.17,2.28,449900,2.042
2013-02-04,2.14,2.19,2.13,2.15,69100,1.926
2013-02-01,2.09,2.11,2.07,2.11,67900,1.89
2013-01-31,2.04,2.10,2.04,2.06,54500,1.845
2013-01-30,1.99,2.20,1.97,2.07,1136200,1.854
2013-01-29,1.96,1.99,1.955,1.99,51100,1.782
2013-01-28,1.99,1.99,1.99,1.99,000,1.782
2013-01-25,1.95,1.99,1.945,1.99,381800,1.782
2013-01-24,1.94,1.95,1.94,1.95,18300,1.747
2013-01-23,1.94,1.95,1.94,1.95,23400,1.747
2013-01-22,1.95,1.95,1.937,1.94,127900,1.738
2013-01-21,1.94,1.95,1.93,1.95,54900,1.747
2013-01-18,1.94,1.945,1.94,1.94,2900,1.738
2013-01-17,1.96,1.96,1.90,1.94,58100,1.738
2013-01-16,1.93,1.985,1.93,1.97,41800,1.765
2013-01-15,1.95,1.99,1.89,1.95,276600,1.747
2013-01-14,1.93,1.955,1.925,1.95,26300,1.747
2013-01-11,1.955,1.955,1.92,1.95,18600,1.747
2013-01-10,1.955,1.98,1.935,1.935,21700,1.733
2013-01-09,1.98,1.99,1.94,1.94,128500,1.738
2013-01-08,1.97,1.98,1.95,1.97,64600,1.765
2013-01-07,1.985,1.99,1.95,1.98,23200,1.774
2013-01-04,1.995,2.00,1.98,1.995,86600,1.787
2013-01-03,1.95,1.995,1.95,1.995,25600,1.787
2013-01-02,1.98,2.00,1.935,1.945,19900,1.742
2013-01-01,1.935,1.935,1.935,1.935,000,1.733
2012-12-31,2.02,2.02,1.93,1.935,53200,1.733
2012-12-28,2.00,2.05,1.995,2.00,53800,1.791
2012-12-27,1.995,1.995,1.99,1.995,24800,1.787
2012-12-26,2.00,2.00,2.00,2.00,000,1.791
2012-12-25,2.00,2.00,2.00,2.00,000,1.791
2012-12-24,1.98,2.00,1.96,2.00,125300,1.791
2012-12-21,1.97,1.98,1.96,1.98,13800,1.774
2012-12-20,1.92,1.95,1.92,1.95,97500,1.747
2012-12-19,1.895,1.92,1.89,1.92,30600,1.72
2012-12-18,1.88,1.90,1.88,1.90,63200,1.702
2012-12-17,1.97,1.97,1.89,1.90,65400,1.702
2012-12-14,1.92,1.965,1.92,1.965,28700,1.76
2012-12-13,1.935,1.96,1.935,1.96,175000,1.756
2012-12-12,1.94,1.94,1.93,1.93,22600,1.729
2012-12-11,1.94,1.95,1.93,1.94,50600,1.738
2012-12-10,1.94,1.94,1.92,1.93,19000,1.729
2012-12-07,1.92,1.95,1.92,1.95,305000,1.747
2012-12-06,1.92,1.92,1.87,1.90,424500,1.702
2012-12-05,1.95,1.96,1.94,1.955,1023600,1.751
2012-12-04,1.885,1.96,1.87,1.88,17300,1.684
2012-12-03,1.93,1.97,1.87,1.97,76800,1.765
2012-11-30,1.90,1.93,1.85,1.92,106900,1.72
2012-11-29,1.875,1.90,1.85,1.87,75800,1.675
2012-11-28,1.92,1.93,1.87,1.92,173700,1.72
2012-11-27,1.93,1.93,1.85,1.875,73500,1.679
2012-11-26,1.89,1.90,1.865,1.90,42000,1.702
2012-11-23,1.91,1.945,1.895,1.895,21200,1.697
2012-11-22,1.95,1.95,1.91,1.945,38300,1.742
2012-11-21,1.95,1.95,1.95,1.95,11500,1.747
2012-11-20,1.91,1.975,1.90,1.975,15000,1.769
2012-11-19,1.98,1.985,1.96,1.975,44900,1.769
2012-11-16,1.985,1.99,1.965,1.975,182400,1.769
2012-11-15,1.98,1.99,1.975,1.985,97000,1.778
2012-11-14,1.94,1.98,1.925,1.98,257200,1.774
2012-11-13,1.91,1.955,1.91,1.955,6800,1.751
2012-11-12,1.905,1.98,1.905,1.91,182600,1.711
2012-11-09,1.85,1.95,1.85,1.95,323100,1.747
2012-11-08,1.85,1.86,1.84,1.84,18700,1.648
2012-11-07,1.86,1.88,1.85,1.85,14400,1.657
2012-11-06,1.88,1.945,1.84,1.925,37400,1.724
2012-11-05,1.84,1.95,1.84,1.935,23000,1.733
2012-11-02,1.80,1.85,1.78,1.83,778900,1.639
2012-11-01,1.80,1.80,1.79,1.79,44800,1.603
2012-10-31,1.80,1.81,1.76,1.81,244200,1.621
2012-10-30,1.79,1.80,1.76,1.775,318600,1.59
2012-10-29,1.78,1.80,1.75,1.79,223700,1.603
2012-10-26,1.77,1.795,1.77,1.79,2900,1.603
2012-10-25,1.80,1.80,1.80,1.80,10900,1.612
2012-10-24,1.80,1.80,1.80,1.80,2700,1.612
2012-10-23,1.78,1.80,1.75,1.80,47100,1.612
2012-10-22,1.78,1.80,1.78,1.785,8500,1.599
2012-10-19,1.79,1.80,1.79,1.80,167000,1.612
2012-10-18,1.73,1.80,1.73,1.75,21200,1.567
2012-10-17,1.77,1.79,1.76,1.785,12500,1.599
2012-10-16,1.79,1.80,1.76,1.79,17100,1.603
2012-10-15,1.80,1.80,1.76,1.79,6600,1.603
2012-10-12,1.78,1.80,1.76,1.80,10000,1.612
2012-10-11,1.80,1.80,1.78,1.80,94600,1.612
2012-10-10,1.80,1.80,1.79,1.79,147300,1.603
2012-10-09,1.78,1.82,1.78,1.815,38800,1.626
2012-10-08,1.82,1.82,1.82,1.82,6100,1.63
2012-10-05,1.80,1.82,1.80,1.82,62700,1.63
2012-10-04,1.79,1.80,1.77,1.77,3100,1.585
2012-10-03,1.80,1.80,1.79,1.80,42500,1.612
2012-10-02,1.80,1.80,1.78,1.80,584800,1.612
2012-10-01,1.82,1.82,1.80,1.80,9000,1.612
2012-09-28,1.75,1.82,1.75,1.78,45400,1.594
2012-09-27,1.80,1.80,1.72,1.75,706500,1.567
2012-09-26,1.75,1.77,1.70,1.77,66000,1.585
2012-09-25,1.75,1.765,1.72,1.75,61600,1.567
2012-09-24,1.72,1.75,1.72,1.75,7800,1.567
2012-09-21,1.72,1.74,1.69,1.69,97500,1.514
2012-09-20,1.72,1.73,1.72,1.73,97700,1.55
2012-09-19,1.70,1.70,1.70,1.70,66000,1.523
2012-09-18,1.695,1.71,1.685,1.69,222100,1.514
2012-09-17,1.70,1.705,1.69,1.70,249100,1.523
2012-09-14,1.69,1.705,1.685,1.69,8800,1.514
2012-09-13,1.685,1.72,1.685,1.69,20800,1.514
2012-09-12,1.70,1.70,1.685,1.685,35200,1.509
2012-09-11,1.685,1.685,1.685,1.685,7500,1.509
2012-09-10,1.675,1.70,1.675,1.685,20000,1.509
2012-09-07,1.67,1.69,1.67,1.675,9800,1.50
2012-09-06,1.68,1.70,1.66,1.70,229700,1.523
2012-09-05,1.70,1.70,1.66,1.70,135400,1.523
2012-09-04,1.70,1.71,1.70,1.71,38200,1.532
2012-09-03,1.70,1.70,1.70,1.70,58000,1.523
2012-08-31,1.73,1.73,1.70,1.70,32500,1.523
2012-08-30,1.70,1.71,1.70,1.71,28900,1.532
2012-08-29,1.70,1.70,1.70,1.70,60000,1.523
2012-08-28,1.70,1.73,1.70,1.73,59200,1.505
2012-08-27,1.71,1.71,1.70,1.70,20000,1.479
2012-08-24,1.67,1.70,1.67,1.70,12800,1.479
2012-08-23,1.70,1.70,1.70,1.70,43000,1.479
2012-08-22,1.65,1.70,1.65,1.70,34400,1.479
2012-08-21,1.70,1.70,1.70,1.70,126800,1.479
2012-08-20,1.70,1.70,1.685,1.70,1700,1.479
2012-08-17,1.685,1.69,1.685,1.69,146500,1.47
2012-08-16,1.68,1.685,1.65,1.685,1579000,1.466
2012-08-15,1.695,1.70,1.68,1.69,180600,1.47
2012-08-14,1.66,1.70,1.66,1.70,45900,1.479
2012-08-13,1.65,1.65,1.645,1.65,21800,1.435
2012-08-10,1.64,1.64,1.62,1.62,22800,1.409
2012-08-09,1.65,1.65,1.62,1.62,25900,1.409
2012-08-08,1.62,1.62,1.62,1.62,000,1.409
2012-08-07,1.60,1.62,1.60,1.62,135600,1.409
2012-08-06,1.58,1.60,1.58,1.60,148400,1.392
2012-08-03,1.58,1.58,1.58,1.58,209200,1.374
2012-08-02,1.57,1.58,1.57,1.58,161200,1.374
2012-08-01,1.555,1.56,1.555,1.56,37100,1.357
2012-07-31,1.51,1.51,1.51,1.51,2700,1.313
2012-07-30,1.55,1.555,1.55,1.555,3900,1.353
2012-07-27,1.545,1.545,1.51,1.51,13000,1.313
2012-07-26,1.50,1.50,1.48,1.50,98900,1.305
2012-07-25,1.50,1.545,1.495,1.50,33600,1.305
2012-07-24,1.525,1.535,1.51,1.53,95000,1.331
2012-07-23,1.55,1.55,1.53,1.53,36100,1.331
2012-07-20,1.565,1.565,1.565,1.565,3800,1.361
2012-07-19,1.54,1.575,1.54,1.575,2800,1.37
2012-07-18,1.57,1.58,1.52,1.52,85000,1.322
2012-07-17,1.575,1.575,1.52,1.57,110500,1.366
2012-07-16,1.56,1.57,1.55,1.57,126100,1.366
2012-07-13,1.55,1.575,1.55,1.56,54500,1.357
2012-07-12,1.59,1.59,1.59,1.59,000,1.383
2012-07-11,1.58,1.59,1.58,1.59,50000,1.383
2012-07-10,1.60,1.60,1.55,1.55,6900,1.348
2012-07-09,1.59,1.60,1.59,1.60,45100,1.392
2012-07-06,1.58,1.58,1.58,1.58,3500,1.374
2012-07-05,1.60,1.60,1.55,1.58,36200,1.374
2012-07-04,1.57,1.60,1.55,1.55,93200,1.348
2012-07-03,1.58,1.60,1.54,1.55,118200,1.348
2012-07-02,1.60,1.60,1.60,1.60,32400,1.392
2012-06-29,1.58,1.60,1.55,1.60,84000,1.392
2012-06-28,1.555,1.58,1.55,1.58,38600,1.374
2012-06-27,1.54,1.58,1.535,1.58,39700,1.374
2012-06-26,1.54,1.55,1.54,1.54,72600,1.34
2012-06-25,1.53,1.59,1.525,1.535,94400,1.335
2012-06-22,1.59,1.59,1.53,1.53,163800,1.331
2012-06-21,1.60,1.62,1.60,1.62,37300,1.409
2012-06-20,1.59,1.635,1.59,1.60,63700,1.392
2012-06-19,1.53,1.595,1.53,1.595,15100,1.387
2012-06-18,1.60,1.60,1.51,1.52,21100,1.322
2012-06-15,1.60,1.60,1.60,1.60,11600,1.392
2012-06-14,1.62,1.635,1.60,1.635,30400,1.422
2012-06-13,1.62,1.62,1.62,1.62,100,1.409
2012-06-12,1.645,1.65,1.61,1.63,15800,1.418
2012-06-11,1.62,1.62,1.62,1.62,000,1.409
2012-06-08,1.63,1.645,1.62,1.62,27300,1.409
2012-06-07,1.62,1.65,1.615,1.65,26000,1.435
2012-06-06,1.63,1.63,1.615,1.615,41400,1.405
2012-06-05,1.63,1.63,1.62,1.62,3700,1.409
2012-06-04,1.65,1.65,1.62,1.62,39500,1.409
2012-06-01,1.65,1.70,1.65,1.70,32700,1.479
2012-05-31,1.65,1.65,1.65,1.65,2000,1.435
2012-05-30,1.655,1.655,1.65,1.65,24600,1.435
2012-05-29,1.69,1.69,1.69,1.69,000,1.47
2012-05-28,1.69,1.69,1.69,1.69,3000,1.47
2012-05-25,1.69,1.69,1.655,1.655,2400,1.44
2012-05-24,1.69,1.69,1.655,1.69,25500,1.47
2012-05-23,1.69,1.69,1.66,1.69,35300,1.47
2012-05-22,1.695,1.71,1.695,1.71,329600,1.487
2012-05-21,1.68,1.70,1.67,1.70,35700,1.479
2012-05-18,1.68,1.68,1.66,1.66,7300,1.444
2012-05-17,1.68,1.68,1.67,1.67,29900,1.453
2012-05-16,1.70,1.70,1.68,1.68,19900,1.461
2012-05-15,1.70,1.70,1.69,1.70,3400,1.479
2012-05-14,1.70,1.70,1.70,1.70,3300,1.479
2012-05-11,1.70,1.70,1.69,1.70,31100,1.479
2012-05-10,1.70,1.71,1.70,1.70,319800,1.479
2012-05-09,1.70,1.70,1.68,1.70,74600,1.479
2012-05-08,1.70,1.705,1.695,1.70,504600,1.479
2012-05-07,1.69,1.70,1.68,1.70,526500,1.479
2012-05-04,1.68,1.70,1.68,1.70,653300,1.479
2012-05-03,1.68,1.70,1.67,1.70,1152300,1.479
2012-05-02,1.68,1.69,1.67,1.685,105800,1.466
2012-05-01,1.665,1.68,1.665,1.68,51500,1.461
2012-04-30,1.67,1.68,1.66,1.66,54800,1.444
2012-04-27,1.65,1.655,1.65,1.655,81900,1.44
2012-04-26,1.65,1.665,1.65,1.665,52300,1.448
2012-04-25,1.66,1.66,1.66,1.66,000,1.444
2012-04-24,1.655,1.67,1.655,1.66,240800,1.444
2012-04-23,1.66,1.69,1.66,1.69,67200,1.47
2012-04-20,1.67,1.68,1.65,1.67,57700,1.453
2012-04-19,1.67,1.69,1.67,1.69,2200,1.47
2012-04-18,1.655,1.69,1.655,1.69,23700,1.47
2012-04-17,1.67,1.67,1.655,1.665,9600,1.448
2012-04-16,1.69,1.69,1.675,1.675,17400,1.457
2012-04-13,1.69,1.70,1.69,1.69,146700,1.47
2012-04-12,1.69,1.69,1.655,1.655,5200,1.44
2012-04-11,1.65,1.66,1.65,1.66,80100,1.444
2012-04-10,1.63,1.66,1.63,1.66,85000,1.444
2012-04-09,1.625,1.625,1.625,1.625,000,1.413
2012-04-06,1.625,1.625,1.625,1.625,000,1.413
2012-04-05,1.68,1.68,1.625,1.625,61400,1.413
2012-04-04,1.69,1.69,1.65,1.65,54000,1.435
2012-04-03,1.70,1.70,1.69,1.69,17900,1.47
2012-04-02,1.70,1.70,1.70,1.70,36500,1.479
2012-03-30,1.70,1.70,1.70,1.70,32100,1.479
2012-03-29,1.70,1.70,1.69,1.70,37400,1.479
2012-03-28,1.70,1.70,1.69,1.70,65000,1.479
2012-03-27,1.70,1.70,1.69,1.70,134700,1.479
2012-03-26,1.69,1.70,1.69,1.70,21200,1.479
2012-03-23,1.70,1.70,1.70,1.70,26600,1.479
2012-03-22,1.69,1.70,1.685,1.70,70700,1.479
2012-03-21,1.70,1.70,1.685,1.70,50300,1.479
2012-03-20,1.71,1.71,1.70,1.71,25400,1.487
2012-03-19,1.71,1.71,1.68,1.71,204500,1.487
2012-03-16,1.695,1.71,1.69,1.705,361000,1.483
2012-03-15,1.70,1.70,1.69,1.695,299000,1.474
2012-03-14,1.695,1.70,1.68,1.70,61700,1.479
2012-03-13,1.68,1.70,1.68,1.695,54500,1.474
2012-03-12,1.70,1.70,1.69,1.69,29500,1.47
2012-03-09,1.705,1.72,1.70,1.715,104600,1.492
2012-03-08,1.705,1.73,1.705,1.73,312900,1.505
2012-03-07,1.72,1.72,1.705,1.72,229600,1.496
2012-03-06,1.72,1.72,1.705,1.72,153800,1.496
2012-03-05,1.72,1.73,1.72,1.73,71100,1.505
2012-03-02,1.73,1.73,1.72,1.72,81600,1.496
2012-03-01,1.70,1.735,1.70,1.735,138500,1.509
2012-02-29,1.70,1.70,1.70,1.70,53300,1.479
2012-02-28,1.65,1.70,1.65,1.65,107900,1.435
2012-02-27,1.71,1.71,1.68,1.68,67500,1.424
2012-02-24,1.70,1.72,1.70,1.72,26000,1.458
2012-02-23,1.72,1.72,1.70,1.72,14800,1.458
2012-02-22,1.71,1.72,1.70,1.70,66000,1.441
2012-02-21,1.75,1.75,1.71,1.71,4900,1.449
2012-02-20,1.715,1.75,1.715,1.75,135000,1.483
2012-02-17,1.72,1.72,1.715,1.72,11600,1.458
2012-02-16,1.74,1.75,1.715,1.715,18100,1.454
2012-02-15,1.75,1.75,1.75,1.75,000,1.483
2012-02-14,1.72,1.75,1.715,1.75,2400,1.483
2012-02-13,1.75,1.75,1.715,1.715,60000,1.454
2012-02-10,1.75,1.75,1.75,1.75,210000,1.483
2012-02-09,1.745,1.75,1.74,1.75,102100,1.483
2012-02-08,1.745,1.745,1.745,1.745,000,1.479
2012-02-07,1.71,1.745,1.71,1.745,88700,1.479
2012-02-06,1.72,1.72,1.71,1.71,4000,1.449
2012-02-03,1.70,1.735,1.70,1.70,10900,1.441
2012-02-02,1.70,1.72,1.70,1.72,30100,1.458
2012-02-01,1.70,1.73,1.635,1.71,50200,1.449
2012-01-31,1.67,1.74,1.67,1.70,63200,1.441
2012-01-30,1.71,1.71,1.68,1.70,152100,1.441
2012-01-27,1.70,1.72,1.69,1.69,234100,1.432
2012-01-26,1.72,1.72,1.72,1.72,000,1.458
2012-01-25,1.72,1.72,1.72,1.72,34000,1.458
2012-01-24,1.70,1.72,1.70,1.72,21000,1.458
2012-01-23,1.70,1.72,1.70,1.70,50300,1.441
2012-01-20,1.70,1.72,1.68,1.72,26400,1.458
2012-01-19,1.74,1.75,1.70,1.70,114100,1.441
2012-01-18,1.75,1.75,1.75,1.75,16600,1.483
2012-01-17,1.72,1.72,1.71,1.72,17500,1.458
2012-01-16,1.72,1.72,1.65,1.70,29300,1.441
2012-01-13,1.725,1.77,1.72,1.72,69100,1.458
2012-01-12,1.70,1.75,1.70,1.71,71000,1.449
2012-01-11,1.70,1.80,1.70,1.70,14200,1.441
2012-01-10,1.66,1.78,1.64,1.66,4700,1.407
2012-01-09,1.63,1.66,1.63,1.66,45400,1.407
2012-01-06,1.64,1.64,1.625,1.625,14200,1.377
2012-01-05,1.625,1.63,1.625,1.63,4600,1.382
2012-01-04,1.625,1.625,1.615,1.625,12900,1.377
2012-01-03,1.64,1.64,1.625,1.625,3600,1.377
2012-01-02,1.62,1.62,1.62,1.62,000,1.373
2011-12-30,1.62,1.62,1.62,1.62,000,1.373
2011-12-29,1.63,1.64,1.62,1.62,7500,1.373
2011-12-28,1.64,1.64,1.64,1.64,000,1.39
2011-12-27,1.64,1.64,1.64,1.64,000,1.39
2011-12-26,1.64,1.64,1.64,1.64,000,1.39
2011-12-23,1.64,1.65,1.63,1.65,50300,1.399
2011-12-22,1.64,1.64,1.64,1.64,5100,1.39
2011-12-21,1.615,1.64,1.605,1.64,65200,1.39
2011-12-20,1.65,1.65,1.63,1.63,12000,1.382
2011-12-19,1.66,1.67,1.65,1.65,90300,1.399
2011-12-16,1.65,1.67,1.65,1.66,134300,1.407
2011-12-15,1.67,1.67,1.65,1.67,110100,1.416
2011-12-14,1.655,1.67,1.655,1.67,23700,1.416
2011-12-13,1.67,1.67,1.655,1.67,30100,1.416
2011-12-12,1.67,1.69,1.67,1.69,54300,1.432
2011-12-09,1.65,1.65,1.65,1.65,5300,1.399
2011-12-08,1.66,1.66,1.65,1.65,20000,1.399
2011-12-07,1.66,1.66,1.65,1.66,193100,1.407
2011-12-06,1.65,1.66,1.65,1.66,52300,1.407
2011-12-05,1.61,1.65,1.61,1.65,14700,1.399
2011-12-02,1.66,1.67,1.61,1.61,12500,1.365
2011-12-01,1.68,1.68,1.67,1.67,37300,1.416
2011-11-30,1.67,1.68,1.67,1.68,20400,1.424
2011-11-29,1.68,1.68,1.67,1.67,1900,1.416
2011-11-28,1.68,1.69,1.68,1.69,8500,1.432
2011-11-25,1.68,1.68,1.67,1.67,32800,1.416
2011-11-24,1.69,1.69,1.67,1.68,58200,1.424
2011-11-23,1.70,1.70,1.68,1.68,12300,1.424
2011-11-22,1.68,1.68,1.68,1.68,9500,1.424
2011-11-21,1.70,1.71,1.70,1.71,50300,1.449
2011-11-18,1.72,1.72,1.70,1.72,8100,1.458
2011-11-17,1.71,1.71,1.71,1.71,3400,1.449
2011-11-16,1.73,1.73,1.72,1.72,14100,1.458
2011-11-15,1.70,1.73,1.70,1.71,207000,1.449
2011-11-14,1.71,1.71,1.70,1.71,71200,1.449
2011-11-11,1.69,1.71,1.68,1.71,141200,1.449
2011-09-08,1.90,1.91,1.88,1.89,358000,1.602
2011-09-07,1.85,1.90,1.82,1.88,306300,1.594
2011-09-06,1.81,1.81,1.80,1.80,138000,1.526
2011-09-05,1.80,1.82,1.80,1.81,151300,1.534
2011-09-02,1.80,1.83,1.80,1.82,97400,1.543
2011-09-01,1.84,1.84,1.80,1.80,143400,1.526
2011-08-31,1.80,1.80,1.78,1.80,110000,1.526
2011-08-30,1.76,1.80,1.74,1.80,108200,1.526
2011-08-29,1.77,1.77,1.75,1.76,60400,1.492
