Date,Open,High,Low,Close,Volume,Adj Close
2017-01-10,0.085,0.085,0.085,0.085,000,0.085
2017-01-09,0.085,0.085,0.085,0.085,000,0.085
2017-01-06,0.085,0.085,0.085,0.085,20000,0.085
2017-01-05,0.095,0.095,0.095,0.095,000,0.095
2017-01-04,0.095,0.095,0.095,0.095,000,0.095
2017-01-03,0.095,0.095,0.095,0.095,000,0.095
2017-01-02,0.095,0.095,0.095,0.095,000,0.095
2016-12-30,0.095,0.095,0.095,0.095,000,0.095
2016-12-29,0.095,0.095,0.095,0.095,000,0.095
2016-12-28,0.089,0.095,0.089,0.095,199800,0.095
2016-12-27,0.10,0.10,0.10,0.10,000,0.10
2016-12-26,0.10,0.10,0.10,0.10,000,0.10
2016-12-23,0.10,0.10,0.10,0.10,000,0.10
2016-12-22,0.10,0.10,0.10,0.10,000,0.10
2016-12-21,0.10,0.10,0.10,0.10,000,0.10
2016-12-20,0.10,0.10,0.10,0.10,000,0.10
2016-12-19,0.10,0.10,0.10,0.10,000,0.10
2016-12-16,0.10,0.10,0.10,0.10,000,0.10
2016-12-15,0.10,0.10,0.10,0.10,000,0.10
2016-12-14,0.10,0.10,0.10,0.10,100000,0.10
2016-12-13,0.085,0.095,0.085,0.095,300100,0.095
2016-12-12,0.085,0.09,0.085,0.09,150000,0.09
2016-12-09,0.085,0.085,0.085,0.085,238800,0.085
2016-12-08,0.087,0.087,0.087,0.087,16000,0.087
2016-12-07,0.087,0.087,0.087,0.087,000,0.087
2016-12-06,0.087,0.087,0.087,0.087,000,0.087
2016-12-05,0.09,0.09,0.087,0.087,65000,0.087
2016-12-02,0.095,0.095,0.095,0.095,000,0.095
2016-12-01,0.095,0.095,0.095,0.095,000,0.095
2016-11-30,0.09,0.095,0.088,0.095,750000,0.095
2016-11-29,0.10,0.10,0.10,0.10,000,0.10
2016-11-28,0.09,0.10,0.09,0.10,30500,0.10
2016-11-25,0.09,0.09,0.09,0.09,5000,0.09
2016-11-24,0.085,0.10,0.085,0.09,233000,0.09
2016-11-23,0.09,0.09,0.09,0.09,000,0.09
2016-11-22,0.09,0.09,0.09,0.09,000,0.09
2016-11-21,0.098,0.098,0.09,0.09,70900,0.09
2016-11-18,0.10,0.10,0.10,0.10,000,0.10
2016-11-17,0.10,0.10,0.098,0.10,241000,0.10
2016-11-16,0.095,0.10,0.095,0.10,325000,0.10
2016-11-15,0.095,0.095,0.095,0.095,65000,0.095
2016-11-14,0.11,0.11,0.105,0.105,125000,0.105
2016-11-11,0.10,0.10,0.10,0.10,000,0.10
2016-11-10,0.10,0.10,0.10,0.10,000,0.10
2016-11-09,0.125,0.125,0.10,0.10,267200,0.10
2016-11-08,0.125,0.125,0.125,0.125,20000,0.125
2016-11-07,0.12,0.12,0.12,0.12,000,0.12
2016-11-04,0.12,0.12,0.12,0.12,75000,0.12
2016-11-03,0.125,0.125,0.12,0.12,50000,0.12
2016-11-02,0.125,0.125,0.125,0.125,80000,0.125
2016-11-01,0.13,0.13,0.13,0.13,142100,0.13
2016-10-31,0.12,0.13,0.12,0.13,195000,0.13
2016-10-28,0.125,0.125,0.125,0.125,000,0.125
2016-10-27,0.125,0.125,0.125,0.125,000,0.125
2016-10-26,0.125,0.125,0.125,0.125,134400,0.125
2016-10-25,0.12,0.13,0.12,0.13,40900,0.13
2016-10-24,0.135,0.135,0.135,0.135,000,0.135
2016-10-21,0.135,0.135,0.135,0.135,000,0.135
2016-10-20,0.12,0.135,0.12,0.135,130000,0.135
2016-10-19,0.13,0.135,0.12,0.12,67100,0.12
2016-10-18,0.12,0.125,0.12,0.125,77100,0.125
2016-10-17,0.115,0.115,0.115,0.115,30000,0.115
2016-10-14,0.125,0.125,0.115,0.115,80000,0.115
2016-10-13,0.125,0.125,0.125,0.125,60000,0.125
2016-10-12,0.125,0.125,0.125,0.125,90000,0.125
2016-10-11,0.125,0.125,0.125,0.125,180000,0.125
2016-10-10,0.125,0.125,0.125,0.125,50000,0.125
2016-10-07,0.125,0.125,0.125,0.125,000,0.125
2016-10-06,0.13,0.13,0.125,0.125,166200,0.125
2016-10-05,0.13,0.13,0.13,0.13,000,0.13
2016-10-04,0.13,0.13,0.13,0.13,000,0.13
2016-10-03,0.13,0.13,0.13,0.13,000,0.13
2016-09-30,0.125,0.13,0.125,0.13,100000,0.13
2016-09-29,0.12,0.12,0.12,0.12,000,0.12
2016-09-28,0.11,0.12,0.11,0.12,135000,0.12
2016-09-27,0.14,0.14,0.12,0.13,75100,0.13
2016-09-26,0.135,0.135,0.135,0.135,80000,0.135
2016-09-23,0.14,0.15,0.135,0.135,55100,0.135
2016-09-22,0.135,0.14,0.12,0.14,36100,0.14
2016-09-21,0.14,0.14,0.14,0.14,000,0.14
2016-09-20,0.14,0.14,0.14,0.14,4700,0.14
2016-09-19,0.14,0.14,0.14,0.14,000,0.14
2016-09-16,0.14,0.14,0.14,0.14,35000,0.14
2016-09-15,0.15,0.15,0.15,0.15,43800,0.15
2016-09-14,0.15,0.15,0.15,0.15,000,0.15
2016-09-13,0.15,0.15,0.15,0.15,000,0.15
2016-09-12,0.15,0.15,0.15,0.15,30800,0.15
2016-09-09,0.15,0.16,0.15,0.15,35100,0.15
2016-09-08,0.15,0.15,0.15,0.15,13100,0.15
2016-09-07,0.175,0.175,0.15,0.15,27400,0.15
2016-09-06,0.17,0.175,0.15,0.15,45800,0.15
2016-09-05,0.17,0.17,0.17,0.17,169500,0.17
2016-09-02,0.13,0.16,0.13,0.16,246300,0.16
2016-09-01,0.115,0.13,0.115,0.12,388300,0.12
2016-08-31,0.115,0.13,0.10,0.12,4597900,0.12
2016-08-30,0.14,0.14,0.105,0.105,1450400,0.105
2016-08-29,0.12,0.135,0.115,0.13,211800,0.13
2016-08-26,0.16,0.17,0.14,0.14,1844700,0.14
2016-08-25,0.16,0.16,0.145,0.16,777000,0.16
2016-08-24,0.165,0.17,0.14,0.15,1171600,0.15
2016-08-23,0.17,0.185,0.15,0.16,2838700,0.16
2016-08-22,0.32,0.32,0.16,0.16,953200,0.16
2016-08-19,0.35,0.35,0.35,0.35,000,0.35
2016-08-18,0.35,0.35,0.35,0.35,000,0.35
2016-08-17,0.355,0.355,0.35,0.35,6000,0.35
2016-08-16,0.35,0.35,0.35,0.35,200000,0.35
2016-08-15,0.35,0.36,0.35,0.36,76500,0.36
2016-08-12,0.385,0.385,0.385,0.385,2700,0.385
2016-08-11,0.39,0.39,0.39,0.39,000,0.39
2016-08-10,0.39,0.39,0.39,0.39,000,0.39
2016-08-09,0.39,0.39,0.39,0.39,25500,0.39
2016-08-08,0.40,0.40,0.40,0.40,000,0.40
2016-08-05,0.40,0.40,0.40,0.40,15000,0.40
2016-08-04,0.385,0.385,0.385,0.385,000,0.385
2016-08-03,0.37,0.385,0.37,0.385,5000,0.385
2016-08-02,0.355,0.355,0.355,0.355,2900,0.355
2016-08-01,0.385,0.385,0.38,0.38,31900,0.38
2016-07-29,0.42,0.42,0.40,0.40,29000,0.40
2016-07-28,0.48,0.485,0.445,0.445,84500,0.445
2016-07-27,0.50,0.50,0.50,0.50,000,0.50
2016-07-26,0.50,0.50,0.50,0.50,000,0.50
2016-07-25,0.50,0.50,0.50,0.50,000,0.50
2016-07-22,0.50,0.50,0.50,0.50,000,0.50
2016-07-21,0.50,0.50,0.50,0.50,000,0.50
2016-07-20,0.50,0.50,0.50,0.50,1000,0.50
2016-07-19,0.495,0.495,0.495,0.495,12500,0.495
2016-07-18,0.495,0.495,0.495,0.495,000,0.495
2016-07-15,0.495,0.495,0.495,0.495,000,0.495
2016-07-14,0.50,0.50,0.495,0.495,11000,0.495
2016-07-13,0.495,0.50,0.495,0.50,20500,0.50
2016-07-12,0.545,0.545,0.545,0.545,000,0.545
2016-07-11,0.545,0.545,0.545,0.545,000,0.545
2016-07-08,0.545,0.545,0.545,0.545,000,0.545
2016-07-07,0.545,0.545,0.545,0.545,2000,0.545
2016-07-06,0.565,0.565,0.565,0.565,000,0.565
2016-07-05,0.565,0.565,0.565,0.565,000,0.565
2016-07-04,0.565,0.565,0.565,0.565,000,0.565
2016-07-01,0.565,0.565,0.565,0.565,000,0.565
2016-06-30,0.565,0.565,0.565,0.565,000,0.565
2016-06-29,0.565,0.565,0.565,0.565,000,0.565
2016-06-28,0.565,0.565,0.565,0.565,000,0.565
2016-06-27,0.565,0.565,0.565,0.565,000,0.565
2016-06-24,0.565,0.565,0.565,0.565,000,0.565
2016-06-23,0.565,0.565,0.565,0.565,000,0.565
2016-06-22,0.565,0.565,0.565,0.565,000,0.565
2016-06-21,0.565,0.565,0.565,0.565,2000,0.565
2016-06-20,0.56,0.58,0.56,0.58,4000,0.58
2016-06-17,0.50,0.50,0.50,0.50,6900,0.50
2016-06-16,0.60,0.60,0.60,0.60,000,0.60
2016-06-15,0.60,0.60,0.60,0.60,000,0.60
2016-06-14,0.60,0.60,0.60,0.60,000,0.60
2016-06-13,0.60,0.60,0.60,0.60,000,0.60
2016-06-10,0.60,0.60,0.60,0.60,000,0.60
2016-06-09,0.60,0.60,0.60,0.60,000,0.60
2016-06-08,0.60,0.60,0.60,0.60,000,0.60
2016-06-07,0.60,0.60,0.60,0.60,2000,0.60
2016-06-06,0.60,0.60,0.60,0.60,000,0.60
2016-06-03,0.60,0.60,0.60,0.60,000,0.60
2016-06-02,0.60,0.60,0.60,0.60,16400,0.60
2016-06-01,0.60,0.60,0.60,0.60,000,0.60
2016-05-31,0.60,0.60,0.60,0.60,16400,0.60
2016-05-30,0.60,0.60,0.60,0.60,000,0.60
2016-05-27,0.60,0.60,0.60,0.60,000,0.60
2016-05-26,0.58,0.60,0.56,0.60,8900,0.60
2016-05-25,0.58,0.58,0.575,0.58,69000,0.58
2016-05-24,0.565,0.60,0.56,0.60,64900,0.60
2016-05-23,0.62,0.62,0.58,0.58,26000,0.58
2016-05-20,0.62,0.62,0.62,0.62,000,0.62
2016-05-19,0.62,0.62,0.62,0.62,000,0.62
2016-05-18,0.62,0.62,0.62,0.62,000,0.62
2016-05-17,0.62,0.62,0.62,0.62,2500,0.62
2016-05-16,0.60,0.60,0.60,0.60,000,0.60
2016-05-13,0.60,0.60,0.60,0.60,000,0.60
2016-05-12,0.60,0.60,0.60,0.60,000,0.60
2016-05-11,0.59,0.60,0.59,0.60,12000,0.60
2016-05-10,0.625,0.625,0.60,0.60,15000,0.60
2016-05-09,0.67,0.67,0.67,0.67,000,0.67
2016-05-06,0.67,0.67,0.67,0.67,000,0.67
2016-05-05,0.67,0.67,0.67,0.67,000,0.67
2016-05-04,0.67,0.67,0.67,0.67,5000,0.67
2016-05-03,0.65,0.65,0.65,0.65,8800,0.65
2016-05-02,0.66,0.66,0.65,0.65,60000,0.65
2016-04-29,0.70,0.70,0.67,0.67,5000,0.67
2016-04-28,0.72,0.72,0.72,0.72,000,0.72
2016-04-27,0.72,0.72,0.72,0.72,000,0.72
2016-04-26,0.72,0.72,0.72,0.72,000,0.72
2016-04-25,0.72,0.72,0.72,0.72,000,0.72
2016-04-22,0.72,0.72,0.72,0.72,000,0.72
2016-04-21,0.76,0.76,0.67,0.72,42500,0.72
2016-04-20,0.80,0.80,0.80,0.80,1200,0.80
2016-04-19,0.80,0.80,0.80,0.80,000,0.80
2016-04-18,0.80,0.80,0.80,0.80,000,0.80
2016-04-15,0.80,0.80,0.80,0.80,2600,0.80
2016-04-14,0.72,0.80,0.72,0.80,9000,0.80
2016-04-13,0.68,0.70,0.68,0.70,5000,0.70
2016-04-12,0.72,0.72,0.72,0.72,000,0.72
2016-04-11,0.72,0.72,0.72,0.72,2000,0.72
2016-04-08,0.75,0.75,0.75,0.75,74500,0.75
2016-04-07,0.76,0.76,0.75,0.75,158100,0.75
2016-04-06,0.82,0.82,0.80,0.80,35000,0.80
2016-04-05,0.84,0.84,0.84,0.84,000,0.84
2016-04-04,0.84,0.84,0.84,0.84,000,0.84
2016-04-01,0.84,0.84,0.84,0.84,000,0.84
2016-03-31,0.84,0.84,0.84,0.84,10000,0.84
2016-03-30,0.84,0.84,0.84,0.84,000,0.84
2016-03-29,0.85,0.85,0.84,0.84,45000,0.84
2016-03-28,0.88,0.88,0.88,0.88,000,0.88
2016-03-25,0.88,0.88,0.88,0.88,000,0.88
2016-03-24,0.88,0.88,0.88,0.88,000,0.88
2016-03-23,0.88,0.88,0.88,0.88,1000,0.88
2016-03-22,0.885,0.885,0.885,0.885,000,0.885
2016-03-21,0.885,0.885,0.885,0.885,20000,0.885
2016-03-18,0.90,0.90,0.90,0.90,000,0.90
2016-03-17,0.90,0.90,0.90,0.90,98500,0.90
2016-03-16,0.90,0.90,0.90,0.90,6000,0.90
2016-03-15,0.90,0.90,0.90,0.90,50000,0.90
2016-03-14,0.915,0.915,0.885,0.90,379800,0.90
2016-03-11,0.88,0.92,0.88,0.91,6900,0.91
2016-03-10,0.90,0.90,0.90,0.90,000,0.90
2016-03-09,0.90,0.90,0.90,0.90,1100,0.90
2016-03-08,0.92,0.92,0.92,0.92,3800,0.92
2016-03-07,0.99,0.99,0.99,0.99,000,0.99
2016-03-04,0.99,0.99,0.99,0.99,000,0.99
2016-03-03,0.99,0.99,0.99,0.99,000,0.99
2016-03-02,0.99,0.99,0.99,0.99,000,0.99
2016-03-01,0.99,0.99,0.99,0.99,000,0.99
2016-02-29,0.99,0.99,0.99,0.99,000,0.99
2016-02-26,0.99,0.99,0.99,0.99,5000,0.99
2016-02-25,0.98,0.98,0.98,0.98,000,0.98
2016-02-24,0.98,0.98,0.98,0.98,000,0.98
2016-02-23,0.98,0.98,0.98,0.98,000,0.98
2016-02-22,0.98,0.98,0.98,0.98,000,0.98
2016-02-19,0.98,0.98,0.98,0.98,000,0.98
2016-02-18,0.98,0.98,0.98,0.98,000,0.98
2016-02-17,0.98,0.98,0.98,0.98,000,0.98
2016-02-16,0.98,0.98,0.98,0.98,000,0.98
2016-02-15,0.98,0.98,0.98,0.98,000,0.98
2016-02-12,0.96,0.98,0.96,0.98,3200,0.98
2016-02-11,1.01,1.01,1.01,1.01,000,1.01
2016-02-10,1.01,1.01,1.01,1.01,000,1.01
2016-02-09,1.01,1.01,1.01,1.01,000,1.01
2016-02-08,1.01,1.01,1.01,1.01,000,1.01
2016-02-05,1.01,1.01,1.01,1.01,000,1.01
2016-02-04,1.01,1.01,1.01,1.01,000,1.01
2016-02-03,0.98,1.01,0.98,1.01,14000,1.01
2016-02-02,0.98,1.00,0.98,1.00,26000,1.00
2016-02-01,1.00,1.00,1.00,1.00,2500,1.00
2016-01-29,1.00,1.00,1.00,1.00,6000,1.00
2016-01-28,0.98,1.01,0.98,1.00,11400,1.00
2016-01-27,0.98,0.98,0.98,0.98,000,0.98
2016-01-26,0.98,0.98,0.98,0.98,000,0.98
2016-01-25,0.98,0.98,0.98,0.98,000,0.98
2016-01-22,0.98,0.98,0.98,0.98,3900,0.98
2016-01-21,1.00,1.00,1.00,1.00,000,1.00
2016-01-20,1.00,1.00,1.00,1.00,000,1.00
2016-01-19,1.00,1.00,1.00,1.00,000,1.00
2016-01-18,1.00,1.00,1.00,1.00,000,1.00
2016-01-15,1.00,1.00,1.00,1.00,000,1.00
2016-01-14,0.98,1.01,0.98,1.00,114000,1.00
2016-01-13,1.01,1.01,1.01,1.01,24000,1.01
2016-01-12,1.00,1.01,1.00,1.00,57300,1.00
2016-01-11,1.00,1.01,0.99,1.01,90500,1.01
2016-01-08,0.99,1.02,0.99,1.00,102000,1.00
2016-01-07,1.03,1.05,1.01,1.05,63000,1.05
2016-01-06,1.02,1.03,1.02,1.03,6300,1.03
2016-01-05,1.00,1.00,1.00,1.00,19500,1.00
2016-01-04,1.03,1.05,1.02,1.02,19800,1.02
2016-01-01,1.02,1.02,1.02,1.02,000,1.02
2015-12-31,1.05,1.05,1.00,1.02,124300,1.02
2015-12-30,1.00,1.05,1.00,1.05,66000,1.05
2015-12-29,1.00,1.00,1.00,1.00,19000,1.00
2015-12-28,1.00,1.00,1.00,1.00,000,1.00
2015-12-25,1.00,1.00,1.00,1.00,000,1.00
2015-12-24,1.00,1.01,0.99,1.00,135700,1.00
2015-12-23,1.00,1.01,1.00,1.00,209300,1.00
2015-12-22,1.00,1.005,0.95,1.005,28900,1.005
2015-12-21,0.95,1.01,0.95,1.01,72400,1.01
2015-12-18,0.99,1.01,0.90,1.01,308000,1.01
2015-12-17,1.01,1.03,0.99,1.00,2794500,1.00
