Date,Open,High,Low,Close,Volume,Adj Close
2017-01-10,7.09,7.10,7.02,7.05,62400,7.05
2017-01-09,7.01,7.18,6.95,7.16,95300,7.16
2017-01-06,6.99,7.09,6.80,7.01,105300,7.01
2017-01-05,6.90,7.03,6.87,6.96,69800,6.96
2017-01-04,6.83,6.97,6.78,6.94,43000,6.94
2017-01-03,7.00,7.00,6.75,6.75,75600,6.75
2017-01-02,7.00,7.00,7.00,7.00,000,7.00
2016-12-30,6.99,7.02,6.88,7.00,22900,7.00
2016-12-29,7.00,7.05,6.85,6.96,66100,6.96
2016-12-28,7.00,7.05,6.80,6.97,147000,6.97
2016-12-27,7.05,7.05,7.05,7.05,000,7.05
2016-12-26,7.05,7.05,7.05,7.05,000,7.05
2016-12-23,7.05,7.14,7.02,7.05,106000,7.05
2016-12-22,7.25,7.25,7.10,7.10,100100,7.10
2016-12-21,7.35,7.35,7.10,7.25,67800,7.25
2016-12-20,7.38,7.49,7.32,7.35,68700,7.35
2016-12-19,7.61,7.70,7.31,7.34,544400,7.34
2016-12-16,7.45,7.70,7.40,7.70,211900,7.70
2016-12-15,7.31,7.48,7.27,7.40,36600,7.40
2016-12-14,7.31,7.36,7.26,7.35,52200,7.35
2016-12-13,7.40,7.47,7.30,7.31,50400,7.31
2016-12-12,7.50,7.51,7.30,7.32,238200,7.32
2016-12-09,7.38,7.49,7.33,7.49,52600,7.49
2016-12-08,7.39,7.43,7.27,7.29,60700,7.29
2016-12-07,7.21,7.40,7.10,7.39,71400,7.39
2016-12-06,7.00,7.21,7.00,7.21,175700,7.21
2016-12-05,7.15,7.15,7.00,7.00,163100,7.00
2016-12-02,7.20,7.30,7.15,7.15,235500,7.15
2016-12-01,7.72,7.75,7.08,7.25,356800,7.25
2016-11-30,7.64,7.72,7.61,7.66,17200,7.66
2016-11-29,7.60,7.73,7.59,7.71,57400,7.71
2016-11-28,7.51,7.73,7.51,7.60,72300,7.60
2016-11-25,7.68,7.75,7.52,7.61,104800,7.61
2016-11-24,7.83,7.83,7.61,7.62,39900,7.62
2016-11-23,7.79,7.80,7.70,7.76,100900,7.76
2016-11-22,7.83,7.85,7.71,7.80,126600,7.80
2016-11-21,7.65,7.80,7.62,7.75,151100,7.75
2016-11-18,7.51,7.80,7.51,7.65,300000,7.65
2016-11-17,7.50,7.67,7.50,7.59,49400,7.59
2016-11-16,7.56,7.56,7.48,7.52,32000,7.52
2016-11-15,7.54,7.56,7.42,7.52,26700,7.52
2016-11-14,7.45,7.55,7.44,7.52,102200,7.52
2016-11-11,7.15,7.45,7.15,7.45,32000,7.45
2016-11-10,6.93,7.33,6.93,7.15,33500,7.15
2016-11-09,7.06,7.12,6.90,6.91,80500,6.91
2016-11-08,7.02,7.12,6.98,7.05,62900,7.05
2016-11-07,7.05,7.10,6.98,7.01,45100,7.01
2016-11-04,7.10,7.26,7.05,7.07,74400,7.07
2016-11-03,7.12,7.21,7.10,7.10,30500,7.10
2016-11-02,7.33,7.33,7.06,7.08,78900,7.08
2016-11-01,7.24,7.30,7.16,7.21,51300,7.21
2016-10-31,7.30,7.34,7.20,7.28,77700,7.28
2016-10-28,7.19,7.47,7.16,7.46,53600,7.46
2016-10-27,7.25,7.44,7.18,7.20,146000,7.20
2016-10-26,7.48,7.48,7.20,7.23,37800,7.23
2016-10-25,7.35,7.47,7.31,7.37,32700,7.37
2016-10-24,7.32,7.47,7.25,7.38,58200,7.38
2016-10-21,7.35,7.48,7.32,7.34,75000,7.34
2016-10-20,7.12,7.48,7.11,7.35,129600,7.35
2016-10-19,7.12,7.28,7.05,7.12,68400,7.12
2016-10-18,6.78,7.12,6.78,7.07,105500,7.07
2016-10-17,6.98,6.99,6.80,6.85,120900,6.85
2016-10-14,7.08,7.08,6.85,6.99,184500,6.99
2016-10-13,7.24,7.25,7.01,7.09,113500,7.09
2016-10-12,7.30,7.40,7.20,7.23,111800,7.23
2016-10-11,7.38,7.45,7.29,7.31,115300,7.31
2016-10-10,7.40,7.51,7.30,7.35,155900,7.35
2016-10-07,7.40,7.55,7.33,7.39,191800,7.39
2016-10-06,7.21,7.65,7.21,7.38,356600,7.38
2016-10-05,7.15,7.20,7.00,7.00,123000,7.00
2016-10-04,7.32,7.32,7.04,7.18,204700,7.18
2016-10-03,7.45,7.45,7.10,7.40,183400,7.40
2016-09-30,7.69,7.69,7.40,7.47,85700,7.47
2016-09-29,7.74,7.80,7.62,7.70,40400,7.70
2016-09-28,7.55,7.83,7.515,7.78,74900,7.78
2016-09-27,7.80,7.83,7.72,7.72,61400,7.72
2016-09-26,7.63,7.80,7.63,7.80,107000,7.80
2016-09-23,7.69,7.71,7.55,7.60,56500,7.60
2016-09-22,7.52,7.71,7.49,7.55,163300,7.55
2016-09-21,7.46,7.46,7.31,7.45,144800,7.45
2016-09-20,7.67,7.67,7.435,7.45,171500,7.45
2016-09-19,7.77,7.77,7.68,7.68,21100,7.68
2016-09-16,7.52,7.73,7.52,7.73,1162600,7.73
2016-09-15,7.76,7.76,7.48,7.54,195700,7.54
2016-09-14,7.43,7.63,7.38,7.63,162400,7.63
2016-09-13,7.37,7.65,7.37,7.45,199900,7.45
2016-09-12,7.65,7.66,7.145,7.30,275400,7.30
2016-09-09,7.76,7.90,7.70,7.79,50600,7.79
2016-09-08,7.84,7.91,7.74,7.89,63900,7.89
2016-09-07,7.79,7.90,7.63,7.84,66300,7.84
2016-09-06,7.78,7.85,7.72,7.78,49900,7.78
2016-09-05,7.80,7.88,7.78,7.80,69200,7.80
2016-09-02,7.85,7.955,7.75,7.80,92800,7.80
2016-09-01,7.59,7.99,7.39,7.98,268700,7.98
2016-08-31,7.84,7.90,7.69,7.70,293500,7.47143
2016-08-30,7.69,7.95,7.595,7.76,511100,7.52965
2016-08-29,7.95,7.98,7.61,7.69,178200,7.46173
2016-08-26,8.12,8.22,7.89,7.99,135600,7.75282
2016-08-25,8.17,8.25,8.05,8.16,78500,7.91777
2016-08-24,8.45,8.50,8.12,8.24,109300,7.9954
2016-08-23,8.11,8.55,8.11,8.45,193200,8.19917
2016-08-22,7.70,8.08,7.69,8.02,658400,7.78193
2016-08-19,8.85,8.99,7.40,7.58,1743400,7.35499
2016-08-18,8.70,8.83,8.54,8.83,94600,8.56789
2016-08-17,8.60,8.67,8.44,8.67,57700,8.41264
2016-08-16,8.68,8.70,8.46,8.65,42500,8.39323
2016-08-15,8.45,8.80,8.44,8.60,86400,8.34471
2016-08-12,8.10,8.44,8.09,8.40,50300,8.15065
2016-08-11,7.97,8.10,7.96,8.10,19300,7.85956
2016-08-10,8.03,8.14,7.97,7.99,19000,7.75282
2016-08-09,8.08,8.14,7.99,8.00,21200,7.76252
2016-08-08,8.06,8.10,7.97,8.08,18200,7.84015
2016-08-05,8.08,8.15,7.88,8.02,39900,7.78193
2016-08-04,8.00,8.11,7.90,8.08,67500,7.84015
2016-08-03,7.85,8.05,7.68,7.97,47000,7.73341
2016-08-02,7.99,8.00,7.80,7.81,30800,7.57816
2016-08-01,7.75,7.90,7.65,7.90,57100,7.66549
2016-07-29,7.86,7.87,7.65,7.75,45600,7.51994
2016-07-28,7.73,7.91,7.73,7.88,46500,7.64609
2016-07-27,7.86,7.925,7.73,7.74,49800,7.51024
2016-07-26,8.00,8.00,7.74,7.74,56400,7.51024
2016-07-25,7.89,8.10,7.89,8.03,48900,7.79163
2016-07-22,7.86,7.99,7.80,7.90,39100,7.66549
2016-07-21,7.95,7.99,7.85,7.85,17400,7.61698
2016-07-20,7.90,7.99,7.89,7.92,198100,7.6849
2016-07-19,8.05,8.07,7.85,7.90,53500,7.66549
2016-07-18,8.09,8.09,7.95,8.00,31300,7.76252
2016-07-15,8.02,8.10,7.85,8.00,19400,7.76252
2016-07-14,7.99,8.04,7.93,8.03,25200,7.79163
2016-07-13,7.65,7.99,7.65,7.85,48200,7.61698
2016-07-12,7.90,7.91,7.42,7.90,61300,7.66549
2016-07-11,7.58,8.00,7.58,7.90,25400,7.66549
2016-07-08,7.71,7.71,7.38,7.50,57800,7.27737
2016-07-07,7.55,7.75,7.52,7.58,47800,7.35499
2016-07-06,7.60,7.60,7.50,7.57,40300,7.34529
2016-07-05,7.84,7.84,7.59,7.67,27800,7.44232
2016-07-04,8.00,8.00,7.76,7.80,7300,7.56846
2016-07-01,8.00,8.00,7.80,7.99,49700,7.75282
2016-06-30,7.91,8.22,7.82,8.10,43400,7.85956
2016-06-29,8.00,8.00,7.68,7.82,17000,7.58787
2016-06-28,7.60,7.86,7.59,7.76,46900,7.52965
2016-06-27,8.00,8.00,7.64,7.68,59800,7.45202
2016-06-24,8.30,8.45,7.91,8.10,93700,7.85956
2016-06-23,8.22,8.30,8.05,8.23,662400,7.9857
2016-06-22,8.26,8.38,8.20,8.21,18300,7.96629
2016-06-21,8.07,8.30,8.07,8.20,88900,7.95659
2016-06-20,7.86,8.08,7.86,8.07,25900,7.83045
2016-06-17,7.95,8.00,7.78,7.90,43700,7.66549
2016-06-16,7.88,8.02,7.76,7.83,52300,7.59757
2016-06-15,7.81,7.88,7.76,7.81,77600,7.57816
2016-06-14,7.98,7.99,7.725,7.89,70000,7.65579
2016-06-13,8.00,8.00,8.00,8.00,000,7.76252
2016-06-10,7.90,8.09,7.88,8.00,70100,7.76252
2016-06-09,7.88,7.98,7.78,7.91,31600,7.6752
2016-06-08,8.19,8.20,7.74,7.88,16900,7.64609
2016-06-07,8.35,8.35,7.90,8.00,34200,7.76252
2016-06-06,8.20,8.30,8.06,8.19,59100,7.94688
2016-06-03,8.25,8.25,8.085,8.20,51200,7.95659
2016-06-02,8.00,8.37,7.95,8.24,70300,7.9954
2016-06-01,8.00,8.08,7.92,8.00,62800,7.76252
2016-05-31,7.60,7.96,7.59,7.96,92600,7.72371
2016-05-30,7.50,7.55,7.395,7.55,17700,7.32588
2016-05-27,7.40,7.60,7.38,7.42,261600,7.19974
2016-05-26,7.49,7.50,7.42,7.44,86600,7.21915
2016-05-25,7.40,7.55,7.27,7.49,84000,7.26766
2016-05-24,7.40,7.40,7.31,7.35,129800,7.13182
2016-05-23,7.35,7.37,7.22,7.37,159200,7.15122
2016-05-20,7.30,7.395,7.07,7.37,174900,7.15122
2016-05-19,7.50,7.50,7.34,7.40,79000,7.18033
2016-05-18,7.50,7.51,7.35,7.51,69400,7.28707
2016-05-17,7.36,7.715,7.33,7.50,119200,7.27737
2016-05-16,7.06,7.33,7.02,7.29,33000,7.0736
2016-05-13,6.80,7.15,6.80,7.07,71700,6.86013
2016-05-12,7.10,7.10,7.10,7.10,000,6.88924
2016-05-11,7.10,7.10,7.10,7.10,000,6.88924
2016-05-10,7.0405,7.13966,6.93142,7.10,24200,6.88924
2016-05-09,6.89176,7.0405,6.84218,7.0405,26700,6.83151
2016-05-06,6.90167,6.93142,6.84218,6.93142,6000,6.72566
2016-05-05,6.84218,6.90167,6.74301,6.90167,12900,6.6968
2016-05-04,6.92151,6.92151,6.64385,6.81243,8100,6.61021
2016-05-03,6.6141,6.82234,6.54469,6.64385,643400,6.44663
2016-05-02,6.7926,6.83226,6.58436,6.62402,44600,6.42739
2016-04-29,6.78268,6.93142,6.74301,6.93142,29200,6.72566
2016-04-28,6.59427,6.84218,6.59427,6.70335,45700,6.50436
2016-04-27,6.74301,6.83226,6.54469,6.55461,53300,6.36004
2016-04-26,6.78268,6.83226,6.72318,6.76285,38000,6.5621
2016-04-25,6.7926,6.7926,6.7926,6.7926,000,6.59096
2016-04-22,6.92151,6.94134,6.70335,6.7926,53100,6.59096
2016-04-21,7.0405,7.1595,6.89176,6.94134,27600,6.73529
2016-04-20,6.95125,7.33799,6.83722,7.0405,55100,6.83151
2016-04-19,7.02067,7.0405,6.89176,6.92151,37400,6.71605
2016-04-18,7.02067,7.11983,6.94134,6.99092,31100,6.7834
2016-04-15,7.28841,7.36774,6.981,6.99092,48600,6.7834
2016-04-14,7.33799,7.35286,7.27849,7.28841,51600,7.07206
2016-04-13,7.22891,7.33799,7.20908,7.33799,70600,7.12016
2016-04-12,7.09008,7.25866,7.09008,7.22891,34300,7.01432
2016-04-11,7.12975,7.12975,7.0405,7.09008,41100,6.87961
2016-04-08,7.13966,7.13966,6.94134,7.09008,29600,6.87961
2016-04-07,6.96117,7.25866,6.92646,7.13966,27400,6.92772
2016-04-06,6.94134,6.99092,6.89176,6.96117,55500,6.75453
2016-04-05,7.13966,7.23882,6.95125,7.06033,21700,6.85075
2016-04-04,7.33799,7.39748,7.09008,7.13966,49400,6.92772
2016-04-01,7.28841,7.73463,7.08017,7.26857,91700,7.05281
2016-03-31,6.95125,7.30824,6.89176,7.28841,102500,7.07206
2016-03-30,6.92151,6.96117,6.70335,6.96117,20600,6.75453
2016-03-29,6.94134,6.97109,6.84218,6.89176,47800,6.68718
2016-03-28,6.94134,6.94134,6.94134,6.94134,000,6.73529
2016-03-25,6.94134,6.94134,6.94134,6.94134,000,6.73529
2016-03-24,7.02067,7.02067,6.77772,6.94134,71400,6.73529
2016-03-23,7.23882,7.23882,6.95125,6.95125,57100,6.74491
2016-03-22,7.12975,7.28841,7.11983,7.18924,201200,6.97583
2016-03-21,7.01075,7.09008,6.87193,7.06033,223200,6.85075
2016-03-18,6.86201,7.01075,6.5794,7.01075,681300,6.80264
2016-03-17,6.7926,6.93142,6.74301,6.83226,130100,6.62945
2016-03-16,6.64385,6.78268,6.54469,6.76285,141300,6.5621
2016-03-15,6.52486,6.64385,6.43561,6.54469,82800,6.35041
2016-03-14,6.39595,6.59427,6.25712,6.54469,85900,6.35041
2016-03-11,6.00922,6.38603,5.9993,6.38603,196200,6.19646
2016-03-10,5.9993,6.07863,5.97947,6.00922,40900,5.83084
2016-03-09,5.75139,6.04888,5.75139,6.04888,44200,5.86932
2016-03-08,5.76131,5.90014,5.60265,5.60265,21000,5.43634
2016-03-07,5.92989,6.03896,5.76131,5.77123,44900,5.59991
2016-03-04,6.04888,6.07863,5.86047,5.86047,15800,5.6865
2016-03-03,5.82081,6.01913,5.82081,6.01913,31000,5.84046
2016-03-02,5.90014,5.9993,5.51341,5.77123,48200,5.59991
2016-03-01,5.98938,5.98938,5.86047,5.91997,20800,5.74424
2016-02-29,5.91005,6.04888,5.91005,5.9993,3900,5.82121
2016-02-26,6.04888,6.04888,5.91005,5.91005,40900,5.73461
2016-02-25,6.14804,6.14804,6.00922,6.04888,40900,5.86932
2016-02-24,6.0588,6.2472,6.0588,6.15796,32500,5.97516
2016-02-23,6.2472,6.32653,5.9993,5.9993,50600,5.82121
2016-02-22,6.2472,6.27695,5.94972,6.17779,64400,5.99441
2016-02-19,6.18771,6.25712,5.95964,6.2472,75200,6.06175
2016-02-18,5.9993,6.17779,5.9993,6.14804,54000,5.96554
2016-02-17,5.94972,6.15796,5.94972,5.9993,57300,5.82121
2016-02-16,5.42416,6.06871,5.42416,5.94972,81800,5.77311
2016-02-15,5.44399,5.48366,5.35475,5.48366,36300,5.32088
2016-02-12,5.07709,5.40433,5.07709,5.40433,49400,5.2439
2016-02-11,5.07709,5.08701,5.03743,5.07709,65100,4.92638
2016-02-10,5.05726,5.09693,5.00768,5.06718,66000,4.91676
2016-02-09,4.9581,5.08701,4.9581,5.08701,79200,4.936
2016-02-08,5.15642,5.15642,4.9581,4.9581,112400,4.81092
2016-02-05,5.41424,5.41424,5.17626,5.206,38000,5.05146
2016-02-04,5.53324,5.54315,5.30517,5.49357,56600,5.3305
2016-02-03,5.53324,5.58282,5.25559,5.53324,124600,5.36899
2016-02-02,5.73156,5.74148,5.53324,5.53324,51300,5.36899
2016-02-01,5.65223,5.77123,5.65223,5.74148,19300,5.57105
2016-01-29,5.78114,5.84064,5.60265,5.60265,51800,5.43634
2016-01-28,5.81089,5.90014,5.77123,5.78114,17400,5.60953
2016-01-27,5.75139,5.91005,5.75139,5.80098,39700,5.62878
2016-01-26,5.77123,5.77123,5.77123,5.77123,000,5.59991
2016-01-25,6.09846,6.11829,5.76131,5.77123,49600,5.59991
2016-01-22,5.70181,6.08855,5.70181,6.06871,43400,5.88856
2016-01-21,5.46383,5.70181,5.46383,5.70181,97200,5.53255
2016-01-20,5.64232,5.6919,5.45391,5.46383,179200,5.30164
2016-01-19,5.79106,5.79106,5.47374,5.70181,129500,5.53255
2016-01-18,6.19762,6.2472,5.45391,5.82081,189400,5.64802
2016-01-15,6.40586,6.63394,6.3067,6.34637,20700,6.15798
2016-01-14,6.35628,6.37612,6.09846,6.37612,60000,6.18685
2016-01-13,6.2472,6.35628,6.2472,6.34637,38600,6.15798
2016-01-12,6.27695,6.39595,6.2472,6.34637,61700,6.15798
2016-01-11,6.6736,6.6736,6.2472,6.26704,70100,6.08101
2016-01-08,6.68352,6.74301,6.65377,6.69343,25800,6.49474
2016-01-07,6.77276,6.7926,6.6736,6.7926,15200,6.59096
2016-01-06,6.7926,6.7926,6.6736,6.7926,19300,6.59096
2016-01-05,6.75293,6.78268,6.72318,6.78268,4300,6.58134
2016-01-04,6.72318,6.84218,6.6736,6.84218,32000,6.63907
2016-01-01,6.7926,6.7926,6.7926,6.7926,000,6.59096
2015-12-31,6.74301,6.84218,6.74301,6.7926,21800,6.59096
2015-12-30,6.83226,6.84218,6.6736,6.74301,41600,6.54285
2015-12-29,6.7926,6.84218,6.64385,6.84218,14000,6.63907
2015-12-28,6.83226,6.83226,6.83226,6.83226,000,6.62945
2015-12-25,6.83226,6.83226,6.83226,6.83226,000,6.62945
2015-12-24,6.83226,6.89176,6.7331,6.83226,47100,6.62945
2015-12-23,6.86201,6.86201,6.80251,6.86201,79200,6.65831
2015-12-22,6.69343,6.87193,6.66369,6.87193,38400,6.66794
2015-12-21,6.7926,6.85209,6.64385,6.82234,22300,6.61982
2015-12-18,6.84218,6.89672,6.59427,6.87193,34200,6.66794
2015-12-17,6.74301,6.92151,6.72318,6.89176,145900,6.68718
2015-12-16,6.74301,6.75293,6.62402,6.74301,17500,6.54285
2015-12-15,6.54469,6.74301,6.46536,6.64385,43500,6.44663
2015-12-14,6.65377,6.70335,6.45545,6.46536,57000,6.27344
2015-12-11,6.83226,6.85209,6.69343,6.78268,66700,6.58134
2015-12-10,6.89176,6.90167,6.7926,6.83226,29200,6.62945
2015-12-09,6.65377,6.90167,6.64385,6.89176,76300,6.68718
2015-12-08,6.88184,6.88184,6.64385,6.75293,39800,6.55247
2015-12-07,7.0405,7.0405,6.84218,6.89176,50200,6.68718
2015-12-04,7.01075,7.0405,6.94134,7.02067,21700,6.81226
2015-12-03,6.94134,6.99092,6.86201,6.97109,48500,6.76416
2015-12-02,6.89176,6.95125,6.85209,6.94134,96800,6.73529
2015-12-01,6.81243,6.94134,6.80251,6.84218,24900,6.63907
2015-11-30,6.65377,6.80251,6.65377,6.7926,67000,6.59096
2015-11-27,6.54469,6.70335,6.50503,6.64385,32900,6.44663
2015-11-26,6.74301,6.7926,6.64385,6.64385,35400,6.44663
2015-11-25,6.99092,6.99092,6.49511,6.64385,53100,6.44663
2015-11-24,6.94134,7.05042,6.89176,6.97109,54900,6.76416
2015-11-23,6.89176,7.09008,6.89176,6.89176,154500,6.68718
2015-11-20,6.81243,6.89176,6.81243,6.88184,72700,6.67756
2015-11-19,6.6141,7.09008,6.6141,6.80251,77100,6.60058
2015-11-18,6.54469,6.64385,6.53477,6.56452,25300,6.36966
2015-11-17,6.64385,6.64385,6.52486,6.54469,50500,6.35041
2015-11-16,6.39595,6.49511,6.35628,6.49511,24100,6.30231
2015-11-13,6.46536,6.69343,6.34637,6.44553,52400,6.2542
2015-11-12,6.2472,6.46536,6.14804,6.46536,61800,6.27344
2015-11-11,6.08855,6.32653,6.02905,6.2472,32700,6.06175
2015-11-10,6.14804,6.14804,5.95964,6.09846,32000,5.91743
2015-11-09,6.14804,6.14804,5.95964,6.14804,48400,5.96554
2015-11-06,6.22737,6.29679,5.95964,6.14804,47800,5.96554
2015-11-05,6.2472,6.33645,6.21746,6.22737,25700,6.04251
2015-11-04,6.2472,6.47528,6.20754,6.2472,50500,6.06175
2015-11-03,6.22737,6.22737,5.9993,6.16788,26100,5.98479
2015-11-02,6.2472,6.33645,6.14804,6.2472,41900,6.06175
2015-10-30,6.12821,6.2472,6.12821,6.14804,71400,5.96554
2015-10-29,6.21746,6.29679,6.11829,6.12821,85400,5.9463
2015-10-28,6.14804,6.19762,6.09846,6.12821,139500,5.9463
2015-10-27,5.94972,6.15796,5.90014,6.15796,96300,5.97516
2015-10-26,5.77123,6.07367,5.75139,5.91005,95800,5.73461
2015-10-23,5.60265,5.77123,5.60265,5.71173,12800,5.54218
2015-10-22,5.75139,5.75139,5.62248,5.62248,27100,5.45558
2015-10-21,5.75139,5.79106,5.70181,5.79106,35400,5.61915
2015-10-20,5.77123,5.79106,5.70181,5.75139,48800,5.58066
2015-10-19,5.60265,5.77123,5.58282,5.77123,39800,5.59991
2015-10-16,5.52332,5.66215,5.52332,5.60265,42800,5.43634
2015-10-15,5.59274,5.59274,5.51341,5.51341,25400,5.34975
2015-10-14,5.41424,5.6324,5.35475,5.61257,59600,5.44596
2015-10-13,5.42416,5.42416,5.35475,5.35475,13200,5.1958
2015-10-12,5.30517,5.45391,5.2655,5.30517,38100,5.14769
2015-10-09,5.28533,5.33491,5.2655,5.2655,10500,5.1092
2015-10-08,5.28533,5.35475,5.25559,5.30517,26000,5.14769
2015-10-07,5.19609,5.40433,5.17626,5.40433,37900,5.2439
2015-10-06,5.25559,5.2655,5.16634,5.16634,101300,5.01298
2015-10-05,5.22584,5.28533,5.206,5.28533,41700,5.12844
2015-10-02,5.31508,5.31508,5.16634,5.22584,89400,5.07071
2015-10-01,5.49357,5.49357,5.31508,5.31508,14500,5.1573
2015-09-30,5.70181,5.70181,5.27542,5.52332,24500,5.35936
2015-09-29,5.35475,5.70181,5.30517,5.70181,11300,5.53255
2015-09-28,5.28533,5.59274,5.28533,5.59274,15700,5.42672
2015-09-25,5.45391,5.45391,5.17626,5.27542,43800,5.11882
2015-09-24,5.46383,5.61257,5.45391,5.45391,37300,5.29201
2015-09-23,5.64232,5.65223,5.39441,5.45391,25300,5.29201
2015-09-22,5.65223,5.92989,5.64232,5.64232,74500,5.47483
2015-09-21,5.49357,5.66215,5.48366,5.6324,58400,5.4652
2015-09-18,5.13659,5.60265,5.08701,5.50349,48700,5.34012
2015-09-17,4.9581,5.13659,4.94818,5.13659,61300,4.98411
2015-09-16,4.98785,4.98785,4.85894,4.94818,92500,4.8013
2015-09-15,4.84902,4.91843,4.81927,4.91843,64500,4.77243
2015-09-14,4.72011,4.88869,4.72011,4.84902,39400,4.70508
2015-09-11,4.73003,4.75978,4.68045,4.71019,18900,4.57037
2015-09-10,4.66061,4.75978,4.64078,4.73003,5600,4.58962
2015-09-09,4.5317,4.76969,4.5317,4.73994,26600,4.59924
2015-09-08,4.39288,4.54162,4.39288,4.5317,26700,4.2447
2015-09-07,4.54162,4.54162,4.36313,4.39288,115900,4.11467
2015-09-04,4.46229,4.54162,4.46229,4.54162,9500,4.25399
2015-09-03,4.54162,4.54162,4.46229,4.54162,25400,4.25399
2015-09-02,4.56145,4.58128,4.51187,4.52179,52700,4.23542
2015-09-01,4.56145,4.56145,4.48212,4.55153,22000,4.26327
2015-08-31,4.5912,4.5912,4.52179,4.56145,39500,4.27257
2015-08-28,4.80936,4.80936,4.46229,4.5912,25900,4.30043
2015-08-27,4.58128,4.80936,4.56145,4.74986,48200,4.44904
2015-08-26,4.54162,4.60112,4.41271,4.57137,45100,4.28186
2015-08-25,4.63086,4.6507,4.36313,4.57137,43700,4.28186
2015-08-24,4.60112,4.66061,4.39288,4.66061,106400,4.36545
2015-08-21,4.5317,4.69036,4.47221,4.60112,40600,4.30972
2015-08-20,4.43254,4.69036,4.38296,4.69036,19500,4.39331
2015-08-19,4.48212,4.48212,4.44246,4.48212,16000,4.19826
2015-08-18,4.51187,4.56145,4.41271,4.41271,19800,4.13325
2015-08-17,4.67053,4.67053,4.47221,4.52179,26700,4.23542
2015-08-14,4.66061,4.69036,4.56145,4.67053,3400,4.37474
2015-08-13,4.75978,4.75978,4.66061,4.66061,23400,4.36545
2015-08-12,4.75978,4.92835,4.74986,4.75978,64600,4.45834
2015-08-11,4.67053,4.76473,4.67053,4.75978,57500,4.45834
2015-08-10,4.74986,4.74986,4.66061,4.66061,43900,4.36545
2015-08-07,4.71019,4.75978,4.71019,4.74986,69300,4.44904
2015-08-06,4.68045,4.73994,4.5912,4.71019,35400,4.41189
2015-08-05,4.66061,4.75978,4.60112,4.66061,41100,4.36545
2015-08-04,4.66061,4.73994,4.5912,4.71019,95200,4.41189
2015-08-03,4.80936,4.82919,4.6507,4.67053,101100,4.37474
2015-07-31,4.61103,4.75978,4.61103,4.71019,42400,4.41189
2015-07-30,4.35321,4.5912,4.35321,4.57137,69700,4.28186
2015-07-29,4.26397,4.41271,4.26397,4.38792,53200,4.11003
2015-07-28,4.23422,4.24413,4.19455,4.24413,23100,3.97534
2015-07-27,4.23422,4.26397,4.18464,4.26397,9900,3.99393
2015-07-24,4.25405,4.26397,4.24413,4.25405,10600,3.98463
2015-07-23,4.09539,4.25405,4.09539,4.25405,7000,3.98463
2015-07-22,4.11522,4.21438,4.06564,4.06564,24100,3.80816
2015-07-21,4.26397,4.26397,4.14497,4.2243,30900,3.95677
2015-07-20,4.11522,4.26397,4.06564,4.26397,26400,3.99393
2015-07-17,4.24413,4.24413,4.01606,4.11522,13200,3.8546
2015-07-16,4.11522,4.31355,4.11522,4.11522,34800,3.8546
2015-07-15,4.06564,4.11522,4.06564,4.11522,6000,3.8546
2015-07-14,3.88715,4.06564,3.88715,4.06564,10800,3.80816
2015-07-13,4.05573,4.11026,3.86732,4.00614,27200,3.75242
2015-07-10,3.98631,4.10531,3.96648,4.00614,20200,3.75242
2015-07-09,4.05573,4.10531,3.9764,3.9764,19900,3.72457
2015-07-08,4.30363,4.30363,4.11522,4.26397,4800,3.99393
2015-07-07,4.15489,4.36313,4.10531,4.30363,14600,4.03107
2015-07-06,4.06564,4.15489,4.06564,4.11522,5200,3.8546
2015-07-03,4.07556,4.09539,4.06564,4.06564,4200,3.80816
2015-07-02,4.03589,4.18464,4.03589,4.1648,16700,3.90104
2015-07-01,4.11522,4.14497,4.03589,4.03589,14300,3.78029
2015-06-30,4.07556,4.08547,4.03589,4.07556,78400,3.81745
2015-06-29,4.25405,4.25405,4.07556,4.15489,5600,3.89175
2015-06-26,4.23422,4.26397,4.21438,4.21438,23400,3.94748
2015-06-25,4.1648,4.19455,4.1648,4.19455,4700,3.9289
2015-06-24,4.20447,4.27388,4.1648,4.23422,15800,3.96606
2015-06-23,4.21438,4.21438,4.07556,4.10531,26400,3.84531
2015-06-22,4.1648,4.17472,4.13505,4.17472,10300,3.91033
2015-06-19,4.1648,4.1648,4.06564,4.06564,34600,3.80816
2015-06-18,4.13505,4.1648,4.06564,4.13505,26500,3.87317
2015-06-17,4.09539,4.13505,4.06564,4.13505,16100,3.87317
2015-06-16,4.10531,4.14497,4.03589,4.06564,66500,3.80816
2015-06-15,4.1648,4.17472,4.08547,4.08547,24600,3.82673
2015-06-12,4.39288,4.40279,4.12514,4.15489,30100,3.89175
2015-06-11,4.31355,4.41271,4.31355,4.36313,9800,4.08681
2015-06-10,4.2243,4.2838,4.2243,4.2838,60100,4.0125
2015-06-09,4.21438,4.24413,4.20447,4.21438,10300,3.94748
2015-06-08,4.21438,4.21438,4.21438,4.21438,000,3.94748
2015-06-05,4.26397,4.26397,4.1648,4.21438,8300,3.94748
2015-06-04,4.23422,4.24413,4.15489,4.19455,9500,3.9289
2015-06-03,4.1648,4.29371,4.08547,4.2243,27200,3.95677
2015-06-02,4.02598,4.11522,4.02598,4.11522,31300,3.8546
2015-06-01,4.03589,4.13505,4.00614,4.04581,79700,3.78958
2015-05-29,4.20447,4.20447,4.01606,4.01606,45700,3.76172
2015-05-28,4.29371,4.29371,4.13505,4.2243,34300,3.95677
2015-05-27,4.36313,4.38296,4.25405,4.29371,83600,4.02178
2015-05-26,4.38296,4.39288,4.36313,4.38296,12000,4.10538
2015-05-25,4.44246,4.44246,4.37304,4.37304,17600,4.09609
2015-05-22,4.41271,4.43254,4.40279,4.43254,23200,4.15182
2015-05-21,4.41271,4.42262,4.36313,4.36313,5600,4.08681
2015-05-20,4.38296,4.41271,4.36313,4.36313,39300,4.08681
2015-05-19,4.35321,4.38296,4.33338,4.36313,54000,4.08681
2015-05-18,4.42262,4.42262,4.34329,4.34329,18800,4.06822
2015-05-15,4.41271,4.44246,4.29371,4.42262,25500,4.14253
2015-05-14,4.41271,4.44246,4.38296,4.41271,10200,4.13325
2015-05-13,4.27388,4.36313,4.26397,4.29371,29000,4.02178
2015-05-12,4.41271,4.41271,4.25405,4.29371,5900,4.02178
2015-05-11,4.36313,4.44246,4.26892,4.41271,29400,4.13325
2015-05-08,4.46229,4.46229,4.26397,4.26397,21400,3.99393
2015-05-07,4.49204,4.51187,4.41271,4.46229,48600,4.17969
2015-05-06,4.51187,4.56145,4.41271,4.41271,51800,4.13325
2015-05-05,4.40279,4.66061,4.38296,4.51187,52200,4.22613
2015-05-04,4.23422,4.46229,4.23422,4.38296,49300,4.10538
2015-05-01,4.29371,4.31355,4.1648,4.24413,75000,3.97534
2015-04-30,4.36313,4.39288,4.24413,4.31355,95000,4.04037
2015-04-29,4.64078,4.64078,4.37304,4.37304,92600,4.09609
2015-04-28,4.8986,4.8986,4.61103,4.64078,117800,4.34687
2015-04-27,4.73994,4.93827,4.73994,4.8986,152000,4.58836
2015-04-24,4.71019,4.72011,4.69036,4.71019,40300,4.41189
2015-04-23,4.5317,4.71019,4.5317,4.71019,68100,4.41189
2015-04-22,4.36313,4.66061,4.36313,4.51187,152700,4.22613
2015-04-21,4.24413,4.30363,4.2243,4.2838,82200,4.0125
2015-04-20,4.14497,4.24413,4.13505,4.20447,75600,3.93819
2015-04-17,4.1648,4.21438,4.12514,4.13505,37700,3.87317
2015-04-16,4.09539,4.1648,4.09539,4.1648,46400,3.90104
2015-04-15,3.98631,4.11522,3.98631,4.08547,25500,3.82673
2015-04-14,4.03589,4.06564,3.9764,3.98631,28400,3.73385
2015-04-13,4.12514,4.12514,4.00614,4.03589,20200,3.78029
2015-04-10,4.00614,4.14497,4.00614,4.11522,42300,3.8546
2015-04-09,4.13505,4.14497,4.00614,4.08547,16300,3.82673
2015-04-08,4.15489,4.1648,4.10531,4.12514,25900,3.86389
2015-04-07,4.12514,4.1648,4.12514,4.15489,18700,3.89175
2015-04-06,4.09539,4.09539,4.09539,4.09539,000,3.83602
2015-04-03,4.09539,4.09539,4.09539,4.09539,000,3.83602
2015-04-02,4.11522,4.13505,4.06564,4.09539,28100,3.83602
2015-04-01,4.03589,4.13505,4.03589,4.11522,15200,3.8546
2015-03-31,4.04581,4.06564,4.00614,4.03589,31100,3.78029
2015-03-30,4.01606,4.11522,3.98631,3.98631,5300,3.73385
2015-03-27,3.9764,4.11522,3.9764,4.01606,10400,3.76172
2015-03-26,3.9764,4.12514,3.9764,4.07556,19200,3.81745
2015-03-25,3.96648,4.06564,3.96648,3.9764,50700,3.72457
2015-03-24,4.01606,4.02598,3.96648,3.96648,105200,3.71528
2015-03-23,4.13505,4.13505,3.9764,3.98631,51000,3.73385
2015-03-20,4.1648,4.1648,4.08547,4.13505,60400,3.87317
2015-03-19,4.08547,4.1648,4.08547,4.1648,36900,3.90104
2015-03-18,4.11522,4.11522,4.04581,4.04581,49800,3.78958
2015-03-17,4.06564,4.11522,4.04581,4.04581,28300,3.78958
2015-03-16,4.19455,4.20447,3.99623,4.00614,58900,3.75242
2015-03-13,4.08547,4.1648,4.08547,4.1648,22900,3.90104
2015-03-12,4.09539,4.09539,3.96648,3.96648,79300,3.71528
2015-03-11,4.26397,4.31355,4.05573,4.09539,105300,3.83602
2015-03-10,4.11522,4.31355,4.09539,4.25405,142100,3.98463
2015-03-09,4.03589,4.09539,3.96648,4.09539,57200,3.83602
2015-03-06,3.95656,4.03589,3.95656,4.03589,55100,3.78029
2015-03-05,3.96648,4.01606,3.90698,3.95656,117400,3.70598
2015-03-04,3.90698,4.00614,3.90698,3.92681,116200,3.67812
2015-03-03,3.9169,3.93673,3.86732,3.87723,42800,3.63168
2015-03-02,3.9169,3.92681,3.88715,3.9169,39600,3.66884
2015-02-27,3.76816,3.96648,3.76816,3.93673,142500,3.68741
2015-02-26,3.71857,3.75824,3.66899,3.75824,141000,3.52022
2015-02-25,3.52025,3.81774,3.52025,3.70866,105100,3.47378
2015-02-24,3.46075,3.66899,3.45084,3.51033,210600,3.28802
2015-02-23,3.45084,3.48059,3.40126,3.48059,127900,3.26016
2015-02-20,3.47067,3.47067,3.44092,3.44092,59500,3.223
2015-02-19,3.47067,3.55992,3.431,3.47067,65000,3.25087
2015-02-18,3.47067,3.56983,3.46075,3.52025,180100,3.29731
2015-02-17,3.44092,3.48059,3.431,3.47067,92400,3.25087
2015-02-16,3.34176,3.52025,3.34176,3.431,114200,3.21371
2015-02-13,3.28226,3.37151,3.28226,3.28226,57300,3.07439
2015-02-12,3.26243,3.33184,3.22276,3.22276,10400,3.01866
2015-02-11,3.26243,3.29218,3.22276,3.25251,67000,3.04652
2015-02-10,3.32193,3.35167,3.23268,3.23268,56700,3.02795
2015-02-09,3.20293,3.36159,3.16327,3.32193,38700,3.11155
2015-02-06,3.22276,3.22276,3.16327,3.16327,5700,2.96294
2015-02-05,3.15335,3.22276,3.11369,3.11369,48700,2.91649
2015-02-04,2.99469,3.14343,2.99469,3.11369,42300,2.91649
2015-02-03,2.92528,2.97486,2.92528,2.97486,27200,2.78646
2015-02-02,2.8757,2.92528,2.82612,2.92528,48500,2.74002
2015-01-30,2.8757,2.88561,2.85587,2.8757,67500,2.69358
2015-01-29,2.8757,2.92528,2.85587,2.85587,44300,2.675
2015-01-28,2.85587,2.92528,2.83603,2.8757,26100,2.69358
2015-01-27,2.80628,2.8757,2.79637,2.82612,63000,2.64714
2015-01-26,2.77654,2.77654,2.77654,2.77654,000,2.6007
2015-01-23,2.77654,2.77654,2.7567,2.77654,193100,2.6007
2015-01-22,2.73687,2.77654,2.73687,2.77654,66900,2.6007
2015-01-21,2.73687,2.76662,2.73687,2.76662,41400,2.59141
2015-01-20,2.76662,2.76662,2.7567,2.76662,100,2.59141
2015-01-19,2.74679,2.74679,2.74679,2.74679,1300,2.57283
2015-01-16,2.77654,2.77654,2.74679,2.74679,15200,2.57283
2015-01-15,2.74679,2.77654,2.73687,2.77654,28400,2.6007
2015-01-14,2.70712,2.7567,2.70712,2.7567,5000,2.58211
2015-01-13,2.76662,2.77654,2.69721,2.76662,31900,2.59141
2015-01-12,2.77654,2.78645,2.76662,2.77654,35500,2.6007
2015-01-09,2.7567,2.76662,2.71704,2.7567,53900,2.58211
2015-01-08,2.73687,2.7567,2.73687,2.7567,15700,2.58211
2015-01-07,2.74679,2.7567,2.73687,2.7567,13900,2.58211
2015-01-06,2.73687,2.7567,2.73687,2.74679,28400,2.57283
2015-01-05,2.7567,2.7567,2.72695,2.74679,800,2.57283
2015-01-02,2.68729,2.7567,2.68729,2.7567,8400,2.58211
2015-01-01,2.72695,2.72695,2.72695,2.72695,000,2.55425
2014-12-31,2.70712,2.72695,2.70712,2.72695,1900,2.55425
2014-12-30,2.7567,2.76662,2.70712,2.72695,44200,2.55425
2014-12-29,2.76662,2.76662,2.74679,2.7567,7900,2.58211
2014-12-26,2.76662,2.76662,2.76662,2.76662,000,2.59141
2014-12-25,2.76662,2.76662,2.76662,2.76662,000,2.59141
2014-12-24,2.73687,2.76662,2.72695,2.76662,1400,2.59141
2014-12-23,2.7567,2.7567,2.7567,2.7567,000,2.58211
2014-12-22,2.67737,2.7567,2.62779,2.7567,19400,2.58211
2014-12-19,2.64762,2.74679,2.62779,2.67737,58100,2.50781
2014-12-18,2.65754,2.76662,2.65754,2.65754,27100,2.48923
2014-12-17,2.76662,2.76662,2.65754,2.65754,5700,2.48923
2014-12-16,2.77654,2.77654,2.77654,2.77654,000,2.6007
2014-12-15,2.76662,2.78645,2.74679,2.77654,64000,2.6007
2014-12-12,2.78645,2.78645,2.78645,2.78645,6700,2.60998
2014-12-11,2.77654,2.82612,2.77654,2.8162,58600,2.63785
2014-12-10,2.77654,2.77654,2.73687,2.77654,173800,2.6007
2014-12-09,2.78645,2.78645,2.76662,2.77654,71900,2.6007
2014-12-08,2.76662,2.80628,2.76662,2.78645,55900,2.60998
2014-12-05,2.78645,2.79637,2.77654,2.79637,13800,2.61927
2014-12-04,2.74679,2.79637,2.74679,2.78645,62700,2.60998
2014-12-03,2.67737,2.74679,2.67737,2.74679,23800,2.57283
2014-12-02,2.58813,2.72695,2.58813,2.72695,36400,2.55425
2014-12-01,2.74679,2.76662,2.39972,2.58813,89400,2.42422
2014-11-28,2.77654,2.77654,2.76662,2.76662,39600,2.59141
2014-11-27,2.8162,2.8162,2.76662,2.78645,37200,2.60998
2014-11-26,2.78645,2.8162,2.78645,2.8162,9900,2.63785
2014-11-25,2.82612,2.82612,2.8162,2.8162,10000,2.63785
2014-11-24,2.77654,2.82612,2.76662,2.82612,82000,2.64714
2014-11-21,2.77654,2.78645,2.77654,2.78645,42000,2.60998
2014-11-20,2.76662,2.77654,2.76662,2.76662,50600,2.59141
2014-11-19,2.77654,2.77654,2.76662,2.77654,66800,2.6007
2014-11-18,2.76662,2.77654,2.74679,2.77654,10500,2.6007
2014-11-17,2.77654,2.77654,2.72695,2.77654,75800,2.6007
2014-11-14,2.7567,2.77654,2.72695,2.77654,51700,2.6007
2014-11-13,2.77654,2.77654,2.7567,2.77654,8400,2.6007
2014-11-12,2.77654,2.77654,2.74679,2.77654,30500,2.6007
2014-11-11,2.77654,2.77654,2.7567,2.77654,33100,2.6007
2014-11-10,2.7567,2.77654,2.7567,2.77654,23200,2.6007
2014-11-07,2.77654,2.78645,2.7567,2.7567,43600,2.58211
2014-11-06,2.77654,2.77654,2.7567,2.77654,27100,2.6007
2014-11-05,2.74679,2.77654,2.73687,2.74679,23600,2.57283
2014-11-04,2.74679,2.78645,2.74679,2.74679,48600,2.57283
2014-11-03,2.77654,2.78645,2.76662,2.78645,38400,2.60998
2014-10-31,2.74679,2.78645,2.74679,2.77654,11700,2.6007
2014-10-30,2.77654,2.78645,2.77654,2.77654,83300,2.6007
2014-10-29,2.76662,2.77654,2.7567,2.77654,22800,2.6007
2014-10-28,2.74679,2.7567,2.69721,2.7567,19800,2.58211
2014-10-27,2.69721,2.76662,2.67737,2.74679,22200,2.57283
2014-10-24,2.76662,2.77654,2.72695,2.72695,63800,2.55425
2014-10-23,2.77654,2.77654,2.76662,2.76662,9400,2.59141
2014-10-22,2.77654,2.77654,2.72695,2.77654,40300,2.6007
2014-10-21,2.78645,2.78645,2.74679,2.77654,11900,2.6007
2014-10-20,2.73687,2.78645,2.73687,2.77654,63100,2.6007
2014-10-17,2.76662,2.78645,2.76662,2.76662,45400,2.59141
2014-10-16,2.77654,2.77654,2.73687,2.76662,17200,2.59141
2014-10-15,2.73687,2.77654,2.72695,2.77654,220700,2.6007
2014-10-14,2.72695,2.73687,2.72695,2.73687,5500,2.56354
2014-10-13,2.77654,2.77654,2.72695,2.72695,5700,2.55425
2014-10-10,2.77654,2.78645,2.67737,2.77654,23100,2.6007
2014-10-09,2.82612,2.82612,2.77654,2.8162,17700,2.63785
2014-10-08,2.83603,2.83603,2.83603,2.83603,4700,2.65642
2014-10-07,2.84595,2.8757,2.82612,2.82612,251600,2.64714
2014-10-06,2.83107,2.86578,2.82612,2.84595,16300,2.66571
2014-10-03,2.8162,2.82612,2.77654,2.82612,19000,2.64714
2014-10-02,2.86578,2.86578,2.8162,2.8162,12000,2.63785
2014-10-01,2.86578,2.86578,2.85587,2.86578,2200,2.68429
2014-09-30,2.86578,2.86578,2.80628,2.86578,11500,2.68429
2014-09-29,2.86578,2.8757,2.86578,2.86578,4700,2.68429
2014-09-26,2.83603,2.83603,2.80628,2.80628,7000,2.62855
2014-09-25,2.85587,2.90545,2.85587,2.8757,126100,2.69358
2014-09-24,2.8757,2.93519,2.86578,2.86578,24200,2.68429
2014-09-23,2.8757,2.8757,2.8757,2.8757,61200,2.69358
2014-09-22,2.91536,2.94511,2.85587,2.93519,38500,2.7493
2014-09-19,2.8757,2.91536,2.86578,2.91536,32200,2.73073
2014-09-18,2.80628,2.8757,2.79637,2.8757,342200,2.69358
2014-09-17,2.91536,2.91536,2.78645,2.78645,27900,2.60998
2014-09-16,2.8757,2.92528,2.8757,2.89553,50300,2.71215
2014-09-15,2.8757,2.88561,2.8757,2.8757,105100,2.69358
2014-09-12,2.8757,2.8757,2.86578,2.8757,171900,2.69358
2014-09-11,2.8757,2.92528,2.8757,2.90545,31500,2.72144
2014-09-10,2.93519,2.93519,2.86578,2.8757,19800,2.69358
2014-09-09,2.92528,2.96494,2.92528,2.96494,39200,2.6835
2014-09-08,2.92528,2.92528,2.92528,2.92528,37900,2.6476
2014-09-05,2.89553,2.92528,2.88561,2.92528,38800,2.6476
2014-09-04,2.90545,3.00461,2.90545,2.90545,103700,2.62966
2014-09-03,2.97486,2.97486,2.92528,2.92528,28400,2.6476
2014-09-02,2.89553,2.98478,2.89553,2.97486,128500,2.69248
2014-09-01,2.84595,2.97486,2.84595,2.92528,76100,2.6476
2014-08-29,2.8757,2.88561,2.82612,2.83603,24700,2.56683
2014-08-28,2.82612,2.8757,2.79637,2.84595,85800,2.5758
2014-08-27,2.77654,2.82612,2.7567,2.82612,79300,2.55786
2014-08-26,2.71704,2.8162,2.67737,2.77654,110900,2.51298
2014-08-25,2.69721,2.69721,2.69721,2.69721,5900,2.44118
2014-08-22,2.70712,2.70712,2.69721,2.69721,5500,2.44118
2014-08-21,2.70712,2.71704,2.68729,2.69721,22300,2.44118
2014-08-20,2.74679,2.74679,2.70712,2.70712,78400,2.45015
2014-08-19,2.71704,2.77654,2.70712,2.71704,31200,2.45913
2014-08-18,2.72695,2.72695,2.70712,2.70712,40900,2.45015
2014-08-15,2.72695,2.72695,2.70712,2.72695,63200,2.4681
2014-08-14,2.76662,2.77654,2.7567,2.77654,59000,2.51298
2014-08-13,2.67737,2.71704,2.66746,2.71704,44800,2.45913
2014-08-12,2.66746,2.69721,2.66746,2.67737,85300,2.42323
2014-08-11,2.70712,2.70712,2.63771,2.66746,67600,2.41426
2014-08-08,2.58813,2.69721,2.58813,2.69721,31900,2.44118
2014-08-07,2.74679,2.74679,2.54846,2.5683,64200,2.32451
2014-08-06,2.79637,2.83603,2.76662,2.77654,17600,2.51298
2014-08-05,2.85587,2.85587,2.80628,2.80628,23100,2.5399
2014-08-04,2.82612,2.85587,2.80628,2.82612,47000,2.55786
2014-08-01,2.83603,2.8757,2.82612,2.82612,56400,2.55786
2014-07-31,2.83603,2.91536,2.83603,2.88561,175300,2.6117
2014-07-30,2.86578,2.86578,2.83603,2.83603,52300,2.56683
2014-07-29,2.84595,2.89553,2.84595,2.89553,33400,2.62068
2014-07-28,2.8757,2.8757,2.82612,2.84595,24800,2.5758
2014-07-25,2.82612,2.82612,2.77654,2.8162,58000,2.54888
2014-07-24,2.78645,2.91536,2.78645,2.86578,15100,2.59375
2014-07-23,2.92528,2.92528,2.80628,2.80628,20600,2.5399
2014-07-22,2.92528,2.92528,2.8757,2.90545,32700,2.62966
2014-07-21,2.97486,2.98478,2.92528,2.92528,56400,2.6476
2014-07-18,2.85587,2.97486,2.8162,2.97486,80500,2.69248
2014-07-17,2.90545,2.97486,2.8757,2.8757,74700,2.60273
2014-07-16,2.82612,2.90545,2.82612,2.90545,90500,2.62966
2014-07-15,2.80628,2.82612,2.80628,2.82612,10600,2.55786
2014-07-14,2.82612,2.8757,2.78645,2.82612,9300,2.55786
2014-07-11,2.89553,2.89553,2.8757,2.8757,11000,2.60273
2014-07-10,2.82612,2.91536,2.82612,2.91536,11500,2.63863
2014-07-09,2.79637,2.8162,2.79637,2.80628,8100,2.5399
2014-07-08,2.7567,2.79637,2.7567,2.79637,28000,2.53093
2014-07-07,2.70712,2.76662,2.70712,2.74679,36800,2.48606
2014-07-04,2.72695,2.72695,2.70712,2.70712,15100,2.45015
2014-07-03,2.72695,2.74679,2.70712,2.70712,37400,2.45015
2014-07-02,2.70712,2.8162,2.70712,2.7567,10600,2.49503
2014-07-01,2.8757,2.8757,2.77654,2.77654,17300,2.51298
2014-06-30,2.73687,2.92528,2.73687,2.92528,22200,2.6476
2014-06-27,2.67737,2.83107,2.67737,2.74679,46900,2.48606
2014-06-26,2.61788,2.71704,2.61788,2.71704,41700,2.45913
2014-06-25,2.57821,2.67737,2.55838,2.59804,80700,2.35143
2014-06-24,2.55838,2.61788,2.55838,2.57821,66300,2.33348
2014-06-23,2.46913,2.53855,2.46913,2.49888,25900,2.26168
2014-06-20,2.46913,2.48897,2.46913,2.47905,310200,2.24373
2014-06-19,2.3898,2.47905,2.3898,2.47905,34400,2.24373
2014-06-18,2.42947,2.46913,2.40964,2.40964,36300,2.18091
2014-06-17,2.42947,2.45922,2.3898,2.3898,45500,2.16295
2014-06-16,2.42947,2.47905,2.39972,2.42947,54200,2.19886
2014-06-13,2.51871,2.51871,2.47905,2.48897,28700,2.25271
2014-06-12,2.52863,2.52863,2.46913,2.52863,71200,2.2886
2014-06-11,2.54846,2.54846,2.54846,2.54846,800,2.30655
2014-06-10,2.4493,2.47905,2.42947,2.4493,49900,2.2168
2014-06-09,2.45922,2.45922,2.45922,2.45922,000,2.22578
2014-06-06,2.52863,2.52863,2.45922,2.45922,47800,2.22578
2014-06-05,2.57821,2.61788,2.5088,2.5088,64400,2.27066
2014-06-04,2.47905,2.61788,2.47905,2.61788,95100,2.36938
2014-06-03,2.48897,2.48897,2.46913,2.46913,19800,2.23475
2014-06-02,2.5683,2.5683,2.46913,2.46913,49600,2.23475
2014-05-30,2.48897,2.57821,2.47905,2.55838,43300,2.31553
2014-05-29,2.55838,2.57821,2.47905,2.47905,55300,2.24373
2014-05-28,2.57821,2.57821,2.54846,2.54846,83100,2.30655
2014-05-27,2.59804,2.60796,2.5683,2.5683,119200,2.32451
2014-05-26,2.58813,2.60796,2.58813,2.59804,67400,2.35143
2014-05-23,2.62779,2.62779,2.57821,2.58813,50000,2.34246
2014-05-22,2.5088,2.5683,2.5088,2.5683,97900,2.32451
2014-05-21,2.61788,2.61788,2.45922,2.48897,67500,2.25271
2014-05-20,2.67737,2.67737,2.58813,2.62779,42600,2.37835
2014-05-19,2.64762,2.70712,2.64762,2.67737,104700,2.42323
2014-05-16,2.61788,2.67737,2.54846,2.64762,226600,2.3963
2014-05-15,2.36006,2.41955,2.35014,2.41955,196300,2.18988
2014-05-14,2.36997,2.37989,2.36006,2.36006,19700,2.13604
2014-05-13,2.36997,2.4493,2.35014,2.40964,56400,2.18091
2014-05-12,2.32039,2.37989,2.32039,2.36997,53800,2.14501
2014-05-09,2.37989,2.3898,2.32039,2.32039,50300,2.10013
2014-05-08,2.37989,2.37989,2.34022,2.37989,1700,2.15398
2014-05-07,2.37989,2.37989,2.35014,2.37989,65800,2.15398
2014-05-06,2.28073,2.3898,2.28073,2.37989,137000,2.15398
2014-05-05,2.31047,2.31047,2.23114,2.28073,11100,2.06424
2014-05-02,2.28073,2.32039,2.28073,2.31047,3800,2.09115
2014-05-01,2.32039,2.32039,2.26089,2.32039,12400,2.10013
2014-04-30,2.28073,2.33031,2.28073,2.32039,15800,2.10013
2014-04-29,2.36006,2.36006,2.27081,2.27081,50200,2.05526
2014-04-28,2.36997,2.36997,2.35014,2.35014,39400,2.12706
2014-04-24,2.37989,2.37989,2.33031,2.33031,36000,2.10911
2014-04-23,2.37989,2.37989,2.37989,2.37989,12800,2.15398
2014-04-22,2.35014,2.3898,2.33031,2.37989,61000,2.15398
2014-04-17,2.30056,2.35014,2.30056,2.35014,8400,2.12706
2014-04-16,2.28073,2.30056,2.28073,2.30056,15700,2.08218
2014-04-15,2.23114,2.28073,2.22123,2.24106,24600,2.02833
2014-04-14,2.2014,2.25098,2.2014,2.23114,28600,2.01935
2014-04-11,2.19148,2.24106,2.18156,2.19148,67000,1.98346
2014-04-10,2.19148,2.25098,2.18156,2.25098,30100,2.03731
2014-04-09,2.23114,2.23114,2.17165,2.18156,28400,1.97448
2014-04-08,2.29064,2.29064,2.16173,2.26089,48700,2.04628
2014-04-07,2.31047,2.31047,2.29064,2.31047,26600,2.09115
2014-04-04,2.34022,2.39972,2.34022,2.36006,102900,2.13604
2014-04-03,2.37989,2.37989,2.35014,2.35014,22400,2.12706
2014-04-02,2.37989,2.37989,2.36006,2.37989,30800,2.15398
2014-04-01,2.37989,2.41955,2.35014,2.35014,45900,2.12706
2014-03-31,2.36006,2.3898,2.29064,2.37989,52600,2.15398
2014-03-28,2.39972,2.42947,2.28073,2.32039,49300,2.10013
2014-03-27,2.36997,2.47905,2.36997,2.42947,129900,2.19886
2014-03-26,2.16173,2.33031,2.16173,2.33031,179900,2.10911
2014-03-25,2.11215,2.16173,2.11215,2.13198,85900,1.92961
2014-03-24,2.0824,2.11215,2.0824,2.11215,22100,1.91166
2014-03-21,2.0824,2.12207,2.0824,2.0824,59900,1.88473
2014-03-20,2.11215,2.13198,2.07249,2.07249,35300,1.87576
2014-03-19,2.12207,2.1419,2.07249,2.11215,61400,1.91166
2014-03-18,2.0824,2.11215,2.04274,2.11215,26500,1.91166
2014-03-17,2.0824,2.0824,2.04274,2.04274,40200,1.84884
2014-03-14,2.1419,2.1419,2.0824,2.09232,43600,1.89371
2014-03-13,2.12207,2.1419,2.11215,2.1419,35200,1.93858
2014-03-11,2.10223,2.1419,2.09232,2.12207,48300,1.92064
2014-03-10,2.10223,2.11215,2.10223,2.10223,16100,1.90268
2014-03-07,2.10223,2.10223,2.10223,2.10223,6900,1.90268
2014-03-06,2.0824,2.10223,2.0824,2.0824,216900,1.88473
2014-03-05,1.99316,2.04274,1.99316,2.04274,66200,1.84884
2014-03-04,1.99316,2.00307,1.99316,2.00307,27300,1.81293
2014-03-03,2.01299,2.01299,2.00307,2.00307,2800,1.81293
2014-02-28,2.03282,2.06257,1.97332,1.97332,23900,1.78601
2014-02-27,2.07249,2.07249,2.07249,2.07249,99800,1.87576
2014-02-26,2.0824,2.0824,2.0824,2.0824,400,1.88473
2014-02-25,2.0824,2.0824,2.07249,2.0824,43100,1.88473
2014-02-24,2.07249,2.0824,2.06257,2.0824,51700,1.88473
2014-02-21,2.0229,2.07249,2.0229,2.07249,67100,1.87576
2014-02-20,1.99316,2.0229,1.98324,2.0229,19500,1.83088
2014-02-19,1.98324,1.98324,1.98324,1.98324,22800,1.79498
2014-02-18,1.97332,1.98324,1.97332,1.98324,54400,1.79498
2014-02-17,1.97332,1.98324,1.97332,1.98324,27200,1.79498
2014-02-14,1.97332,1.98324,1.97332,1.98324,54000,1.79498
2014-02-13,1.98324,1.98324,1.93366,1.93366,74500,1.75011
2014-02-12,1.98324,1.98324,1.94357,1.94357,366600,1.75908
2014-02-11,1.98324,1.98324,1.98324,1.98324,1700,1.79498
2014-02-10,2.06257,2.06257,1.94357,1.98324,54500,1.79498
2014-02-07,2.06257,2.0824,2.03282,2.0824,88800,1.88473
2014-02-06,2.0824,2.0824,2.06257,2.06257,57600,1.86678
2014-02-05,2.0824,2.0824,2.05265,2.0824,53100,1.88473
2014-02-04,2.12207,2.12207,2.05265,2.05265,69100,1.85781
2014-02-03,2.10223,2.12207,2.10223,2.12207,62600,1.92064
2014-01-31,2.15182,2.15182,2.1419,2.1419,6500,1.93858
2014-01-30,2.0824,2.18156,2.03282,2.17165,88200,1.96551
2014-01-29,2.11215,2.12207,2.0824,2.11215,54300,1.91166
2014-01-28,2.1419,2.1419,2.04274,2.07249,62300,1.87576
2014-01-24,2.13198,2.18156,2.11215,2.18156,50400,1.97448
2014-01-23,2.06257,2.17165,2.06257,2.17165,92800,1.96551
2014-01-22,2.01299,2.06257,2.01299,2.0229,62500,1.83088
2014-01-21,2.04274,2.07249,2.00307,2.01299,25900,1.82191
2014-01-20,1.93366,2.04274,1.93366,2.04274,64800,1.84884
2014-01-17,1.84441,1.93366,1.84441,1.93366,39400,1.75011
2014-01-15,1.8345,1.8345,1.78492,1.78492,29700,1.61549
2014-01-14,1.87912,1.87912,1.8345,1.8345,94300,1.66036
2014-01-13,1.88408,1.91383,1.86425,1.88904,202800,1.70973
2014-01-10,1.80475,1.85433,1.80475,1.85433,14700,1.67831
2014-01-09,1.74525,1.80475,1.74525,1.76013,55700,1.59305
2014-01-08,1.78492,1.78492,1.74525,1.74525,80200,1.57959
2014-01-07,1.78492,1.78492,1.76508,1.76508,12800,1.59753
2014-01-06,1.78492,1.81466,1.67584,1.78492,400100,1.61549
2014-01-03,1.78492,1.78492,1.75517,1.78492,15100,1.61549
2014-01-02,1.73533,1.83945,1.73533,1.8345,54700,1.66036
2013-12-30,1.7155,1.73533,1.7155,1.73533,31200,1.57061
2013-12-27,1.73533,1.73533,1.68575,1.68575,8600,1.52573
2013-12-24,1.65601,1.73533,1.65601,1.73533,1500,1.57061
2013-12-23,1.67584,1.78492,1.67584,1.73533,15100,1.57061
2013-12-20,1.61634,1.67584,1.61634,1.67584,16200,1.51676
2013-12-19,1.64609,1.64609,1.62626,1.64609,66200,1.48984
2013-12-18,1.63617,1.67584,1.59651,1.59651,56100,1.44496
2013-12-17,1.60642,1.61634,1.60642,1.61634,52800,1.46291
2013-12-13,1.58659,1.58659,1.55684,1.58659,35000,1.43599
2013-12-12,1.62626,1.63617,1.58659,1.58659,63700,1.43599
2013-12-11,1.60642,1.63617,1.60642,1.62626,46800,1.47189
2013-12-10,1.57668,1.61634,1.57668,1.60642,46800,1.45393
2013-12-09,1.57668,1.58659,1.57668,1.58659,22400,1.43599
2013-12-06,1.58659,1.61634,1.55684,1.58659,49700,1.43599
2013-12-05,1.53701,1.61634,1.53701,1.58659,477200,1.43599
2013-12-04,1.58659,1.58659,1.53701,1.53701,141100,1.39111
2013-11-29,1.80476,1.80476,1.80476,1.80476,7600,1.63345
2013-11-28,1.83325,1.83325,1.83325,1.83325,15500,1.65923
2013-11-27,1.80476,1.83325,1.80476,1.83325,107400,1.65923
2013-11-26,1.80476,1.80476,1.80476,1.80476,72100,1.63345
2013-11-25,1.77626,1.77626,1.77626,1.77626,5200,1.60765
2013-11-22,1.78576,1.78576,1.78576,1.78576,13800,1.61625
2013-11-21,1.75726,1.75726,1.66228,1.75726,27600,1.59046
2013-11-19,1.66228,1.75726,1.66228,1.75726,35400,1.59046
2013-11-18,1.63378,1.66228,1.63378,1.66228,24200,1.50449
2013-11-15,1.57679,1.66228,1.57679,1.66228,21200,1.50449
2013-11-14,1.4628,1.57679,1.4628,1.57679,58600,1.42712
2013-11-12,1.44381,1.4628,1.44381,1.4628,48800,1.32395
2013-11-11,1.44381,1.44381,1.44381,1.44381,8800,1.30676
2013-11-06,1.39631,1.39631,1.37732,1.37732,10500,1.24658
2013-11-04,1.39631,1.39631,1.39631,1.39631,3500,1.26377
2013-10-31,1.37732,1.37732,1.37732,1.37732,8900,1.24658
2013-10-29,1.41531,1.4723,1.41531,1.4723,6400,1.33254
2013-10-28,1.34882,1.40581,1.34882,1.40581,12700,1.27237
2013-10-25,1.34882,1.34882,1.34882,1.34882,2000,1.22079
2013-10-23,1.41531,1.41531,1.41531,1.41531,4500,1.28096
2013-10-22,1.41531,1.41531,1.41531,1.41531,10500,1.28096
2013-10-21,1.36782,1.36782,1.32982,1.32982,5200,1.20359
2013-10-18,1.33932,1.33932,1.33932,1.33932,492500,1.21219
2013-10-15,1.32982,1.32982,1.32982,1.32982,10500,1.20359
2013-10-14,1.32982,1.32982,1.32982,1.32982,11800,1.20359
2013-10-09,1.33932,1.33932,1.32982,1.32982,2100,1.20359
2013-10-04,1.32982,1.32982,1.32982,1.32982,116200,1.20359
2013-10-03,1.32982,1.32982,1.32982,1.32982,21000,1.20359
2013-10-02,1.32982,1.32982,1.29183,1.29183,232400,1.16921
2013-10-01,1.32982,1.33457,1.32982,1.32982,69400,1.20359
2013-09-27,1.32032,1.32032,1.32032,1.32032,369000,1.19499
2013-09-25,1.32982,1.32982,1.32982,1.32982,15700,1.20359
2013-09-23,1.34882,1.34882,1.32982,1.32982,41600,1.20359
2013-09-20,1.34882,1.34882,1.34882,1.34882,2400,1.22079
2013-09-19,1.35357,1.35357,1.34882,1.34882,1500,1.22079
2013-09-17,1.33457,1.33457,1.33457,1.33457,21000,1.20789
2013-09-16,1.33932,1.33932,1.33457,1.33457,120500,1.20789
2013-09-12,1.38681,1.40581,1.38681,1.40581,18800,1.27237
2013-09-11,1.38681,1.40581,1.38681,1.38681,25000,1.25517
2013-09-10,1.38681,1.38681,1.36782,1.36782,7800,1.23798
2013-09-09,1.37732,1.40581,1.37732,1.38681,48300,1.25517
2013-09-06,1.45331,1.46755,1.44381,1.4628,44400,1.24637
2013-09-05,1.46755,1.46755,1.45805,1.45805,38900,1.24232
2013-09-04,1.45331,1.4818,1.45331,1.4723,158700,1.25446
2013-09-03,1.45331,1.4628,1.44381,1.4628,15900,1.24637
2013-09-02,1.43431,1.44381,1.43431,1.44381,100900,1.23019
2013-08-30,1.4723,1.4723,1.44381,1.44381,14900,1.23019
2013-08-29,1.4723,1.4723,1.4723,1.4723,5200,1.25446
2013-08-28,1.4723,1.4818,1.4723,1.4818,13300,1.26256
2013-08-27,1.42481,1.4723,1.42481,1.45331,67700,1.23828
2013-08-26,1.44381,1.44381,1.42481,1.42481,17400,1.214
2013-08-23,1.4818,1.4913,1.4818,1.4818,86800,1.26256
2013-08-22,1.5008,1.5008,1.4818,1.4818,30600,1.26256
2013-08-21,1.4818,1.5008,1.4818,1.5008,35800,1.27875
2013-08-20,1.5008,1.5008,1.4723,1.4818,24200,1.26256
2013-08-19,1.5198,1.5293,1.5198,1.5198,8800,1.29494
2013-08-16,1.5198,1.5198,1.4723,1.4723,17800,1.25446
2013-08-15,1.42481,1.4723,1.42481,1.4723,16700,1.25446
2013-08-14,1.42481,1.42481,1.42481,1.42481,30000,1.214
2013-08-05,1.42481,1.42481,1.42481,1.42481,2100,1.214
2013-08-02,1.40581,1.40581,1.40581,1.40581,5200,1.19781
2013-07-31,1.33457,1.33457,1.33457,1.33457,5700,1.13711
2013-07-24,1.32032,1.32032,1.32032,1.32032,4700,1.12497
2013-07-22,1.31082,1.31082,1.31082,1.31082,10500,1.11688
2013-07-12,1.32982,1.32982,1.32982,1.32982,500,1.13306
2013-07-11,1.33457,1.33457,1.32982,1.32982,4700,1.13306
2013-07-10,1.28233,1.31082,1.27283,1.31082,10300,1.11688
2013-07-05,1.25383,1.25383,1.25383,1.25383,1200,1.06832
2013-07-04,1.20634,1.20634,1.20634,1.20634,1000,1.02785
2013-07-03,1.18734,1.18734,1.18734,1.18734,5200,1.01167
2013-07-01,1.18734,1.18734,1.18734,1.18734,7300,1.01167
2013-06-28,1.18734,1.18734,1.18734,1.18734,1400,1.01167
2013-06-27,1.18734,1.18734,1.18734,1.18734,1600,1.01167
2013-06-20,1.18734,1.18734,1.18734,1.18734,400,1.01167
2013-06-17,1.18734,1.18734,1.18734,1.18734,1200,1.01167
2013-06-14,1.13985,1.18734,1.13985,1.18734,15900,1.01167
2013-06-13,1.08286,1.13985,1.08286,1.13985,23100,0.9712
2013-06-12,1.13985,1.13985,1.13985,1.13985,10500,0.9712
2013-05-24,1.04486,1.04486,1.03536,1.03536,2100,0.88217
2013-05-22,1.04486,1.06386,1.03061,1.05436,60900,0.89836
2013-05-21,1.04486,1.04486,1.03536,1.03536,21000,0.88217
2013-05-16,1.06386,1.06386,1.06386,1.06386,3100,0.90645
2013-05-08,1.04486,1.04486,1.00687,1.00687,4200,0.8579
2013-05-07,1.04486,1.04486,1.04486,1.04486,7300,0.89027
2013-05-06,0.99737,0.99737,0.99737,0.99737,4700,0.8498
2013-05-03,0.98787,0.98787,0.96887,0.96887,6300,0.82552
2013-05-01,0.99737,0.99737,0.99737,0.99737,2600,0.8498
2013-04-30,0.94037,0.96887,0.94037,0.96887,19400,0.82552
2013-04-26,0.91188,0.94987,0.91188,0.94987,9400,0.80933
2013-04-19,0.95937,0.95937,0.95937,0.95937,9700,0.81742
2013-04-18,0.96412,0.96412,0.95937,0.95937,10500,0.81742
2013-04-16,0.96412,0.96412,0.96412,0.96412,13600,0.82147
2013-04-12,0.96887,0.97837,0.96412,0.97837,8400,0.83361
2013-04-10,0.98787,0.98787,0.96887,0.96887,13600,0.82552
2013-04-09,0.98787,0.98787,0.96412,0.96412,23100,0.82147
2013-04-08,1.04486,1.04486,1.02586,1.02586,5200,0.87408
2013-04-05,0.97837,0.97837,0.97837,0.97837,10500,0.83361
2013-04-04,0.95937,0.95937,0.95937,0.95937,10500,0.81742
2013-03-27,0.94987,0.94987,0.94037,0.94037,6800,0.80124
2013-03-22,0.99737,0.99737,0.99737,0.99737,3600,0.8498
2013-03-20,1.02586,1.02586,1.02586,1.02586,31500,0.87408
2013-03-19,0.99737,0.99737,0.99737,0.99737,2100,0.8498
2013-03-15,0.88338,0.90238,0.88338,0.90238,34700,0.76887
2013-03-14,0.85489,0.88338,0.85489,0.88338,17700,0.75268
2013-03-08,0.84539,0.84539,0.84539,0.84539,2100,0.72031
2013-02-19,0.85489,0.85489,0.85489,0.85489,15700,0.7284
2013-02-11,0.85489,0.87388,0.85489,0.87388,36800,0.74458
2013-02-08,0.88338,0.88338,0.88338,0.88338,500,0.75268
2013-02-07,0.82164,0.83114,0.81689,0.83114,6300,0.70817
2013-02-05,0.83589,0.83589,0.83589,0.83589,5200,0.71221
2013-02-04,0.85489,0.85489,0.83589,0.83589,25700,0.71221
2013-02-01,0.81689,0.90238,0.81689,0.90238,63100,0.76887
2013-01-23,0.80739,0.80739,0.80739,0.80739,21600,0.68793
2013-01-22,0.7789,0.7789,0.7599,0.7599,5200,0.64747
2013-01-14,0.7599,0.7599,0.7599,0.7599,4500,0.64747
2013-01-09,0.83589,0.83589,0.83589,0.83589,23100,0.71221
2013-01-04,0.83589,0.83589,0.83589,0.83589,4200,0.71221
2012-12-21,0.83589,0.83589,0.83589,0.83589,10200,0.71221
2012-12-17,0.7504,0.7504,0.7124,0.7124,22700,0.607
2012-12-13,0.7789,0.7789,0.7599,0.7599,5300,0.64747
2012-12-11,0.80739,0.80739,0.80739,0.80739,3200,0.68793
2012-12-10,0.7789,0.7789,0.7789,0.7789,2500,0.66366
2012-12-07,0.79789,0.79789,0.78839,0.78839,7400,0.67174
2012-12-06,0.81214,0.81214,0.79789,0.79789,15500,0.67984
2012-11-29,0.80264,0.80264,0.79789,0.79789,19500,0.67984
2012-11-16,0.78839,0.78839,0.78839,0.78839,5200,0.67174
2012-11-13,0.81689,0.81689,0.81689,0.81689,9400,0.69603
2012-11-02,0.81689,0.81689,0.81689,0.81689,7300,0.69603
2012-10-25,0.80264,0.80264,0.79789,0.79789,16800,0.67984
2012-10-22,0.79789,0.79789,0.79789,0.79789,2100,0.67984
2012-10-18,0.84064,0.85489,0.84064,0.85489,78900,0.7284
2012-10-16,0.80739,0.80739,0.80739,0.80739,21000,0.68793
2012-10-11,0.80739,0.80739,0.78839,0.78839,20000,0.67174
2012-10-10,0.79789,0.79789,0.79789,0.79789,10500,0.67984
2012-10-09,0.79789,0.79789,0.79789,0.79789,2100,0.67984
2012-10-08,0.80739,0.80739,0.80739,0.80739,31500,0.68793
2012-10-05,0.81689,0.81689,0.80739,0.80739,21000,0.68793
2012-10-03,0.80739,0.80739,0.80739,0.80739,16800,0.68793
2012-10-02,0.81689,0.81689,0.81689,0.81689,10500,0.69603
2012-10-01,0.83114,0.83114,0.80739,0.80739,15700,0.68793
2012-09-26,0.83114,0.83114,0.83114,0.83114,4200,0.70817
2012-09-18,0.82639,0.82639,0.82639,0.82639,4700,0.70412
2012-09-07,0.88338,0.92138,0.88338,0.92138,63100,0.78506
2012-09-06,0.88338,0.89288,0.88338,0.89288,5200,0.76077
2012-08-31,0.92138,0.93088,0.92138,0.93088,49700,0.79315
2012-08-30,0.93088,0.93088,0.93088,0.93088,2500,0.79315
2012-08-28,0.96887,0.96887,0.96887,0.96887,15700,0.81548
2012-08-27,0.94987,0.94987,0.94987,0.94987,10500,0.79949
2012-08-24,0.87388,0.91188,0.87388,0.91188,10700,0.76751
2012-08-23,0.82639,0.82639,0.81689,0.81689,5200,0.68756
2012-08-22,0.81689,0.82639,0.81689,0.82639,7500,0.69556
2012-08-21,0.82639,0.82639,0.82639,0.82639,32900,0.69556
2012-08-15,0.7789,0.7789,0.7789,0.7789,5200,0.65559
2012-08-14,0.82639,0.82639,0.82639,0.82639,6300,0.69556
2012-08-10,0.7789,0.80739,0.7789,0.7789,23200,0.65559
2012-08-07,0.7789,0.7789,0.7124,0.7124,2100,0.59962
2012-08-03,0.7599,0.7599,0.7599,0.7599,8900,0.6396
2012-08-02,0.7599,0.7599,0.7599,0.7599,8400,0.6396
2012-07-30,0.7599,0.7599,0.7599,0.7599,3600,0.6396
2012-07-18,0.7599,0.7599,0.7599,0.7599,71300,0.6396
2012-07-17,0.7599,0.7599,0.7599,0.7599,24400,0.6396
2012-06-29,0.7599,0.79789,0.7599,0.79789,3100,0.67157
2012-06-26,0.79789,0.79789,0.79789,0.79789,3500,0.67157
2012-06-21,0.7789,0.79789,0.7789,0.79789,1600,0.67157
2012-06-18,0.80739,0.80739,0.80739,0.80739,6300,0.67957
2012-06-15,0.7694,0.80739,0.7599,0.7599,25200,0.6396
2012-06-01,0.83114,0.87863,0.83114,0.87863,12600,0.73953
2012-05-30,0.80739,0.80739,0.80739,0.80739,2100,0.67957
2012-05-24,0.81689,0.81689,0.80739,0.80739,12100,0.67957
2012-05-22,0.82164,0.82164,0.81689,0.81689,3400,0.68756
2012-05-21,0.81689,0.81689,0.81689,0.81689,7300,0.68756
2012-05-17,0.87863,0.87863,0.87863,0.87863,2100,0.73953
2012-05-04,0.85489,0.90238,0.85489,0.90238,4000,0.75952
2012-05-02,0.81689,0.81689,0.81689,0.81689,10800,0.68756
2012-05-01,0.81689,0.81689,0.81689,0.81689,2200,0.68756
2012-04-30,0.82639,0.82639,0.82639,0.82639,3100,0.69556
2012-04-26,0.82639,0.82639,0.82639,0.82639,2100,0.69556
2012-04-23,0.84539,0.84539,0.84539,0.84539,15700,0.71155
2012-04-20,0.85489,0.85489,0.85489,0.85489,5200,0.71955
2012-04-19,0.87388,0.87388,0.87388,0.87388,5200,0.73553
2012-04-17,0.86438,0.86438,0.86438,0.86438,2100,0.72753
2012-04-16,0.87388,0.90238,0.86438,0.90238,11100,0.75952
2012-04-13,0.90238,0.90238,0.90238,0.90238,2700,0.75952
2012-04-12,0.90238,0.90238,0.90238,0.90238,21000,0.75952
2012-04-03,0.90238,0.90238,0.90238,0.90238,40900,0.75952
2012-04-02,0.90238,0.93088,0.90238,0.93088,10400,0.78351
2012-03-30,0.90238,0.90238,0.90238,0.90238,8600,0.75952
2012-03-27,0.90238,0.92138,0.88338,0.92138,24800,0.77551
2012-03-26,0.94987,0.94987,0.94987,0.94987,45200,0.79949
2012-03-22,0.90238,0.94987,0.90238,0.94987,24200,0.79949
2012-03-21,0.85489,0.95937,0.85489,0.95937,65200,0.80749
2012-03-16,0.90238,0.90238,0.90238,0.90238,2900,0.75952
2012-02-13,0.90238,0.90238,0.90238,0.90238,31500,0.75952
2012-02-07,0.94987,0.94987,0.94987,0.94987,2100,0.79949
2012-01-30,0.94987,0.99737,0.94987,0.99737,2700,0.83947
2012-01-27,0.94987,0.94987,0.94987,0.94987,5200,0.79949
2012-01-25,0.94987,0.94987,0.94987,0.94987,33600,0.79949
2012-01-24,0.99737,0.99737,0.94987,0.94987,40000,0.79949
