Date,Open,High,Low,Close,Volume,Adj Close
2017-01-10,0.35,0.35,0.35,0.35,3200,0.35
2017-01-09,0.36,0.36,0.36,0.36,4300,0.36
2017-01-06,0.37,0.37,0.37,0.37,000,0.37
2017-01-05,0.365,0.37,0.33,0.37,255200,0.37
2017-01-04,0.375,0.375,0.37,0.37,27500,0.37
2017-01-03,0.37,0.37,0.37,0.37,32400,0.37
2017-01-02,0.37,0.37,0.37,0.37,000,0.37
2016-12-30,0.37,0.37,0.37,0.37,000,0.37
2016-12-29,0.37,0.37,0.37,0.37,000,0.37
2016-12-28,0.37,0.37,0.37,0.37,000,0.37
2016-12-27,0.37,0.37,0.37,0.37,000,0.37
2016-12-26,0.37,0.37,0.37,0.37,000,0.37
2016-12-23,0.37,0.37,0.37,0.37,9800,0.37
2016-12-22,0.36,0.385,0.36,0.37,8200,0.37
2016-12-21,0.37,0.37,0.37,0.37,000,0.37
2016-12-20,0.37,0.37,0.37,0.37,000,0.37
2016-12-19,0.37,0.37,0.37,0.37,000,0.37
2016-12-16,0.37,0.37,0.37,0.37,5800,0.37
2016-12-15,0.37,0.37,0.37,0.37,19100,0.37
2016-12-14,0.39,0.39,0.39,0.39,000,0.39
2016-12-13,0.39,0.39,0.39,0.39,2300,0.39
2016-12-12,0.37,0.37,0.37,0.37,000,0.37
2016-12-09,0.38,0.38,0.37,0.37,12600,0.37
2016-12-08,0.36,0.39,0.36,0.39,16400,0.39
2016-12-07,0.35,0.35,0.35,0.35,4000,0.35
2016-12-06,0.36801,0.36801,0.36801,0.36801,000,0.36801
2016-12-05,0.36801,0.36801,0.36801,0.36801,000,0.36801
2016-12-02,0.36801,0.36801,0.36801,0.36801,000,0.36801
2016-12-01,0.37,0.37,0.37,0.37,000,0.37
2016-11-30,0.37,0.37,0.37,0.37,10700,0.37
2016-11-29,0.36,0.36,0.36,0.36,65600,0.36
2016-11-28,0.38,0.38,0.37,0.37,13800,0.37
2016-11-25,0.38,0.38,0.38,0.38,100,0.38
2016-11-24,0.38,0.38,0.38,0.38,000,0.38
2016-11-23,0.38,0.38,0.38,0.38,000,0.38
2016-11-22,0.39,0.39,0.38,0.38,107400,0.38
2016-11-21,0.41,0.41,0.39,0.39,3800,0.39
2016-11-18,0.39,0.39,0.38,0.38,10000,0.38
2016-11-17,0.41,0.41,0.41,0.41,000,0.41
2016-11-16,0.40,0.41,0.39,0.41,23200,0.41
2016-11-15,0.405,0.405,0.39,0.39,59800,0.39
2016-11-14,0.40,0.40,0.40,0.40,22300,0.40
2016-11-11,0.40,0.40,0.40,0.40,2000,0.40
2016-11-10,0.40,0.40,0.40,0.40,000,0.40
2016-11-09,0.405,0.405,0.40,0.40,6800,0.40
2016-11-08,0.405,0.405,0.405,0.405,000,0.405
2016-11-07,0.42,0.42,0.405,0.405,30000,0.405
2016-11-04,0.42,0.42,0.42,0.42,10400,0.42
2016-11-03,0.42,0.42,0.42,0.42,1200,0.42
2016-11-02,0.44,0.44,0.41,0.41,20000,0.41
2016-11-01,0.47,0.47,0.47,0.47,000,0.47
2016-10-31,0.44,0.47,0.44,0.47,43700,0.47
2016-10-28,0.43,0.45,0.43,0.45,11300,0.45
2016-10-27,0.43,0.43,0.41,0.42,53700,0.42
2016-10-26,0.44,0.45,0.43,0.45,50300,0.45
2016-10-25,0.46,0.46,0.44,0.44,14600,0.44
2016-10-24,0.42,0.46,0.42,0.46,57200,0.46
2016-10-21,0.42,0.42,0.42,0.42,18700,0.42
2016-10-20,0.45,0.45,0.41,0.41,57300,0.41
2016-10-19,0.45,0.45,0.43,0.45,33400,0.45
2016-10-18,0.42,0.42,0.42,0.42,700,0.42
2016-10-17,0.425,0.425,0.42,0.42,5100,0.42
2016-10-14,0.44,0.44,0.425,0.425,29800,0.425
2016-10-13,0.48,0.48,0.47,0.47,30300,0.47
2016-10-12,0.42,0.47,0.42,0.47,129800,0.47
2016-10-11,0.42,0.42,0.405,0.42,18500,0.42
2016-10-10,0.405,0.425,0.405,0.425,28000,0.425
2016-10-07,0.40,0.40,0.395,0.40,50400,0.40
2016-10-06,0.40,0.40,0.395,0.395,28700,0.395
2016-10-05,0.39,0.47,0.39,0.44,453200,0.44
2016-10-04,0.35,0.35,0.35,0.35,000,0.35
2016-10-03,0.35,0.35,0.35,0.35,000,0.35
2016-09-30,0.35,0.35,0.35,0.35,5600,0.35
2016-09-29,0.35,0.35,0.35,0.35,000,0.35
2016-09-28,0.38,0.38,0.35,0.35,7800,0.35
2016-09-27,0.38,0.38,0.38,0.38,5000,0.38
2016-09-26,0.37,0.375,0.37,0.375,27500,0.375
2016-09-23,0.355,0.355,0.355,0.355,000,0.355
2016-09-22,0.355,0.355,0.355,0.355,4000,0.355
2016-09-21,0.37,0.37,0.37,0.37,7100,0.37
2016-09-20,0.37,0.37,0.37,0.37,28800,0.37
2016-09-19,0.37,0.37,0.37,0.37,45900,0.37
2016-09-16,0.37,0.37,0.37,0.37,15200,0.37
2016-09-15,0.37,0.37,0.37,0.37,1600,0.37
2016-09-14,0.375,0.375,0.375,0.375,000,0.375
2016-09-13,0.375,0.375,0.375,0.375,000,0.375
2016-09-12,0.375,0.375,0.375,0.375,000,0.375
2016-09-09,0.375,0.375,0.375,0.375,4200,0.375
2016-09-08,0.36,0.36,0.36,0.36,000,0.36
2016-09-07,0.35,0.36,0.35,0.36,88600,0.36
2016-09-06,0.32,0.32,0.32,0.32,000,0.32
2016-09-05,0.30,0.32,0.30,0.32,6800,0.32
2016-09-02,0.30,0.31,0.30,0.30,51000,0.30
2016-09-01,0.30,0.30,0.30,0.30,000,0.30
2016-08-31,0.30,0.30,0.30,0.30,1400,0.30
2016-08-30,0.33,0.33,0.33,0.33,2900,0.33
2016-08-29,0.305,0.305,0.305,0.305,1200,0.305
2016-08-26,0.31,0.315,0.30,0.30,26300,0.30
2016-08-25,0.31,0.31,0.30,0.31,206900,0.31
2016-08-24,0.345,0.345,0.31,0.31,94500,0.31
2016-08-23,0.36,0.36,0.345,0.345,29600,0.345
2016-08-22,0.35,0.35,0.35,0.35,000,0.35
2016-08-19,0.35,0.35,0.35,0.35,000,0.35
2016-08-18,0.35,0.35,0.35,0.35,3000,0.35
2016-08-17,0.36,0.36,0.36,0.36,000,0.36
2016-08-16,0.36,0.36,0.36,0.36,000,0.36
2016-08-15,0.37,0.37,0.36,0.36,26000,0.36
2016-08-12,0.365,0.365,0.365,0.365,000,0.365
2016-08-11,0.365,0.365,0.365,0.365,102400,0.365
2016-08-10,0.365,0.365,0.365,0.365,000,0.365
2016-08-09,0.375,0.375,0.365,0.365,11300,0.365
2016-08-08,0.375,0.375,0.375,0.375,000,0.375
2016-08-05,0.37,0.375,0.37,0.375,19800,0.375
2016-08-04,0.40,0.40,0.37,0.385,62900,0.385
2016-08-03,0.39,0.40,0.37,0.40,207100,0.40
2016-08-02,0.375,0.41,0.37,0.39,232900,0.39
2016-08-01,0.35,0.36,0.345,0.36,32000,0.36
2016-07-29,0.35,0.35,0.35,0.35,2000,0.35
2016-07-28,0.395,0.395,0.395,0.395,5000,0.395
2016-07-27,0.395,0.395,0.37,0.37,11500,0.37
2016-07-26,0.385,0.395,0.385,0.395,15900,0.395
2016-07-25,0.38,0.42,0.38,0.40,220800,0.40
2016-07-22,0.38,0.38,0.38,0.38,22800,0.38
2016-07-21,0.37,0.385,0.37,0.38,8900,0.38
2016-07-20,0.345,0.345,0.345,0.345,000,0.345
2016-07-19,0.345,0.345,0.32,0.345,25000,0.345
2016-07-18,0.38,0.38,0.35,0.35,10000,0.35
2016-07-15,0.39,0.39,0.38,0.38,121800,0.38
2016-07-14,0.32,0.385,0.32,0.385,73400,0.385
2016-07-13,0.30,0.30,0.30,0.30,50000,0.30
2016-07-12,0.315,0.315,0.275,0.285,108500,0.285
2016-07-11,0.325,0.33,0.30,0.33,38800,0.33
2016-07-08,0.35,0.35,0.33,0.33,45000,0.33
2016-07-07,0.36,0.36,0.36,0.36,000,0.36
2016-07-06,0.36,0.36,0.36,0.36,000,0.36
2016-07-05,0.36,0.36,0.36,0.36,17700,0.36
2016-07-04,0.39,0.40,0.39,0.40,45300,0.40
2016-07-01,0.39,0.39,0.39,0.39,000,0.39
2016-06-30,0.39,0.40,0.39,0.39,12900,0.39
2016-06-29,0.36,0.36,0.36,0.36,9700,0.36
2016-06-28,0.34,0.36,0.34,0.36,13800,0.36
2016-06-27,0.33,0.35,0.33,0.35,75200,0.35
2016-06-24,0.40,0.40,0.37,0.37,4700,0.37
2016-06-23,0.40,0.41,0.40,0.40,37900,0.40
2016-06-22,0.375,0.375,0.375,0.375,13600,0.375
2016-06-21,0.38,0.38,0.37,0.37,251200,0.37
2016-06-20,0.38,0.38,0.38,0.38,12000,0.38
2016-06-17,0.38,0.38,0.37,0.37,58800,0.37
2016-06-16,0.39,0.39,0.37,0.37,113100,0.37
2016-06-15,0.39,0.39,0.39,0.39,28000,0.39
2016-06-14,0.39,0.40,0.38,0.39,71300,0.39
2016-06-13,0.40,0.40,0.40,0.40,000,0.40
2016-06-10,0.395,0.40,0.395,0.40,29500,0.40
2016-06-09,0.40,0.41,0.40,0.40,22500,0.40
2016-06-08,0.40,0.405,0.40,0.40,117000,0.40
2016-06-07,0.43,0.43,0.39,0.40,156300,0.40
2016-06-06,0.48,0.48,0.425,0.425,40500,0.425
2016-06-03,0.44,0.45,0.435,0.45,62400,0.45
2016-06-02,0.50,0.50,0.49,0.50,31600,0.50
2016-06-01,0.45,0.51,0.45,0.50,332200,0.50
2016-05-31,0.39,0.45,0.39,0.45,171600,0.45
2016-05-30,0.37,0.40,0.37,0.39,255600,0.39
2016-05-27,0.37,0.37,0.37,0.37,000,0.37
2016-05-26,0.33,0.38,0.33,0.37,302200,0.37
2016-05-25,0.32,0.32,0.32,0.32,7900,0.32
2016-05-24,0.32,0.32,0.32,0.32,50000,0.32
2016-05-23,0.335,0.335,0.335,0.335,000,0.335
2016-05-20,0.32,0.335,0.32,0.335,5500,0.335
2016-05-19,0.335,0.335,0.335,0.335,7000,0.335
2016-05-18,0.35,0.35,0.32,0.32,26000,0.32
2016-05-17,0.35,0.355,0.34,0.35,89900,0.35
2016-05-16,0.39,0.39,0.34,0.35,135000,0.35
2016-05-13,0.305,0.39,0.305,0.39,274600,0.39
2016-05-12,0.255,0.30,0.255,0.285,178600,0.285
2016-05-11,0.25,0.255,0.25,0.255,137700,0.255
2016-05-10,0.225,0.25,0.225,0.25,103200,0.25
2016-05-09,0.21,0.25,0.21,0.25,129800,0.25
2016-05-06,0.245,0.245,0.245,0.245,6000,0.245
2016-05-05,0.245,0.245,0.245,0.245,000,0.245
2016-05-04,0.245,0.245,0.245,0.245,25000,0.245
2016-05-03,0.245,0.245,0.245,0.245,2100,0.245
2016-05-02,0.245,0.245,0.245,0.245,2100,0.245
2016-04-29,0.23,0.245,0.23,0.245,67300,0.245
2016-04-28,0.23,0.24,0.225,0.23,110300,0.23
2016-04-27,0.20,0.225,0.20,0.225,66400,0.225
2016-04-26,0.20,0.23,0.195,0.195,333700,0.195
2016-04-25,0.18,0.18,0.18,0.18,000,0.18
2016-04-22,0.18,0.18,0.18,0.18,000,0.18
2016-04-21,0.17,0.17,0.16,0.17,193000,0.17
2016-04-20,0.18,0.18,0.18,0.18,17000,0.18
2016-04-19,0.19,0.19,0.18,0.18,25100,0.18
2016-04-18,0.20,0.20,0.20,0.20,49500,0.20
2016-04-15,0.20,0.20,0.20,0.20,9000,0.20
2016-04-14,0.20,0.20,0.20,0.20,000,0.20
2016-04-13,0.20,0.20,0.20,0.20,13500,0.20
2016-04-12,0.205,0.205,0.19,0.20,170600,0.20
2016-04-11,0.20,0.205,0.20,0.205,19000,0.205
2016-04-08,0.20,0.20,0.20,0.20,107400,0.20
2016-04-07,0.20,0.205,0.20,0.20,101000,0.20
2016-04-06,0.205,0.205,0.20,0.20,19000,0.20
2016-04-05,0.215,0.215,0.215,0.215,6100,0.215
2016-04-04,0.20,0.22,0.20,0.205,206500,0.205
2016-04-01,0.22,0.22,0.20,0.22,70800,0.22
2016-03-31,0.21,0.225,0.20,0.225,68500,0.225
2016-03-30,0.225,0.225,0.22,0.22,10000,0.22
2016-03-29,0.225,0.225,0.22,0.22,4700,0.22
2016-03-28,0.22,0.22,0.22,0.22,000,0.22
2016-03-25,0.22,0.22,0.22,0.22,000,0.22
2016-03-24,0.22,0.22,0.22,0.22,11300,0.22
2016-03-23,0.23,0.23,0.22,0.23,127600,0.23
2016-03-22,0.22,0.23,0.22,0.23,47300,0.23
2016-03-21,0.22,0.23,0.22,0.23,173800,0.23
2016-03-18,0.215,0.22,0.215,0.22,242900,0.22
2016-03-17,0.21,0.21,0.21,0.21,22800,0.21
2016-03-16,0.20,0.215,0.20,0.215,58500,0.215
2016-03-15,0.25,0.25,0.25,0.25,101000,0.25
2016-03-14,0.2496,0.2496,0.2496,0.2496,000,0.2496
2016-03-11,0.2496,0.2496,0.2496,0.2496,000,0.2496
2016-03-10,0.2496,0.2496,0.2496,0.2496,000,0.2496
2016-03-09,0.2496,0.2496,0.2496,0.2496,000,0.2496
2016-03-08,0.2496,0.2496,0.2496,0.2496,000,0.2496
2016-03-07,0.2496,0.2496,0.2496,0.2496,000,0.2496
2016-03-04,0.2496,0.2496,0.2496,0.2496,000,0.2496
2016-03-03,0.2496,0.2496,0.2496,0.2496,000,0.2496
2016-03-02,0.2496,0.2496,0.2496,0.2496,000,0.2496
2016-03-01,0.2496,0.2496,0.2496,0.2496,000,0.2496
2016-02-29,0.2496,0.2496,0.2496,0.2496,000,0.2496
2016-02-26,0.2496,0.2496,0.2496,0.2496,000,0.2496
2016-02-25,0.2496,0.2496,0.2496,0.2496,000,0.2496
2016-02-24,0.2496,0.2496,0.2496,0.2496,000,0.2496
2016-02-23,0.2496,0.2496,0.2496,0.2496,000,0.2496
2016-02-22,0.2496,0.2496,0.2496,0.2496,000,0.2496
2016-02-19,0.2496,0.2496,0.2496,0.2496,000,0.2496
2016-02-18,0.2496,0.2496,0.2496,0.2496,000,0.2496
2016-02-17,0.2496,0.2496,0.2496,0.2496,000,0.2496
2016-02-16,0.2496,0.2496,0.2496,0.2496,000,0.2496
2016-02-15,0.2496,0.2496,0.2496,0.2496,000,0.2496
2016-02-12,0.2496,0.2496,0.2496,0.2496,000,0.2496
2016-02-11,0.2496,0.2496,0.2496,0.2496,000,0.2496
2016-02-10,0.2496,0.2496,0.2496,0.2496,000,0.2496
2016-02-09,0.2496,0.2496,0.2496,0.2496,000,0.2496
2016-02-08,0.2496,0.2496,0.2496,0.2496,000,0.2496
2016-02-05,0.2496,0.2496,0.2496,0.2496,000,0.2496
2016-02-04,0.2496,0.2496,0.2496,0.2496,000,0.2496
2016-02-03,0.2496,0.2496,0.2496,0.2496,000,0.2496
2016-02-02,0.2496,0.2496,0.2496,0.2496,000,0.2496
2016-02-01,0.2496,0.2496,0.2496,0.2496,000,0.2496
2016-01-29,0.2496,0.2496,0.2496,0.2496,000,0.2496
2016-01-28,0.2496,0.2496,0.2496,0.2496,000,0.2496
2016-01-27,0.2496,0.2496,0.2496,0.2496,000,0.2496
2016-01-26,0.2496,0.2496,0.2496,0.2496,000,0.2496
2016-01-25,0.2496,0.2496,0.2496,0.2496,000,0.2496
2016-01-22,0.2496,0.2496,0.2496,0.2496,000,0.2496
2016-01-21,0.2496,0.2496,0.2496,0.2496,000,0.2496
2016-01-20,0.2496,0.2496,0.2496,0.2496,000,0.2496
2016-01-19,0.2496,0.2496,0.2496,0.2496,000,0.2496
2016-01-18,0.2496,0.2496,0.2496,0.2496,000,0.2496
2016-01-15,0.2496,0.2496,0.2496,0.2496,000,0.2496
2016-01-14,0.2496,0.2496,0.2496,0.2496,000,0.2496
2016-01-13,0.2496,0.2496,0.2496,0.2496,000,0.2496
2016-01-12,0.2496,0.2496,0.2496,0.2496,000,0.2496
2016-01-11,0.2496,0.2496,0.2496,0.2496,000,0.2496
2016-01-08,0.2496,0.2496,0.2496,0.2496,000,0.2496
2016-01-07,0.2496,0.2496,0.2496,0.2496,000,0.2496
2016-01-06,0.2496,0.2496,0.2496,0.2496,000,0.2496
2016-01-05,0.2496,0.2496,0.2496,0.2496,000,0.2496
2016-01-04,0.2496,0.2496,0.2496,0.2496,000,0.2496
2016-01-01,0.2496,0.2496,0.2496,0.2496,000,0.2496
2015-12-31,0.2496,0.2496,0.2496,0.2496,000,0.2496
2015-12-30,0.2496,0.2496,0.2496,0.2496,000,0.2496
2015-12-29,0.2496,0.2496,0.2496,0.2496,000,0.2496
2015-12-28,0.2496,0.2496,0.2496,0.2496,000,0.2496
2015-12-25,0.2496,0.2496,0.2496,0.2496,000,0.2496
2015-12-24,0.2496,0.2496,0.2496,0.2496,000,0.2496
2015-12-23,0.2496,0.2496,0.2496,0.2496,000,0.2496
2015-12-22,0.2496,0.2496,0.2496,0.2496,000,0.2496
2015-12-21,0.2496,0.2496,0.2496,0.2496,000,0.2496
2015-12-18,0.2496,0.2496,0.2496,0.2496,000,0.2496
2015-12-17,0.2496,0.2496,0.2496,0.2496,000,0.2496
2015-12-16,0.2496,0.2496,0.2496,0.2496,000,0.2496
2015-12-15,0.2496,0.2496,0.2496,0.2496,000,0.2496
2015-12-14,0.2496,0.2496,0.2496,0.2496,000,0.2496
2015-12-11,0.2496,0.2496,0.2496,0.2496,000,0.2496
2015-12-10,0.2496,0.2496,0.2496,0.2496,000,0.2496
2015-12-09,0.2496,0.2496,0.2496,0.2496,000,0.2496
2015-12-08,0.2496,0.2496,0.2496,0.2496,000,0.2496
2015-12-07,0.2496,0.2496,0.2496,0.2496,000,0.2496
2015-12-04,0.2496,0.2496,0.2496,0.2496,000,0.2496
2015-12-03,0.2496,0.2496,0.2496,0.2496,000,0.2496
2015-12-02,0.2496,0.2496,0.2496,0.2496,000,0.2496
2015-12-01,0.2496,0.2496,0.2496,0.2496,000,3.89376
2015-11-30,0.2496,0.2496,0.2496,0.2496,000,3.89376
2015-11-27,0.2496,0.2496,0.2496,0.2496,000,3.89376
2015-11-26,0.2496,0.2496,0.2496,0.2496,000,3.89376
2015-11-25,0.234,0.2496,0.234,0.2496,20000,3.89376
2015-11-24,0.234,0.234,0.234,0.234,3500,3.6504
2015-11-23,0.2184,0.2184,0.2184,0.2184,000,3.40704
2015-11-20,0.2184,0.2184,0.2184,0.2184,000,3.40704
2015-11-19,0.2184,0.2184,0.2184,0.2184,000,3.40704
2015-11-18,0.2184,0.2184,0.2184,0.2184,900,3.40704
2015-11-17,0.234,0.234,0.234,0.234,000,3.6504
2015-11-16,0.234,0.234,0.234,0.234,6700,3.6504
2015-11-13,0.234,0.234,0.234,0.234,000,3.6504
2015-11-12,0.234,0.234,0.234,0.234,000,3.6504
2015-11-11,0.234,0.234,0.234,0.234,6400,3.6504
2015-11-10,0.1872,0.1872,0.1716,0.1716,38400,2.67696
2015-11-09,0.234,0.234,0.234,0.234,000,3.6504
2015-11-06,0.234,0.234,0.234,0.234,000,3.6504
2015-11-05,0.234,0.234,0.234,0.234,000,3.6504
2015-11-04,0.2184,0.234,0.2184,0.234,47700,3.6504
2015-11-03,0.2184,0.2184,0.2184,0.2184,000,3.40704
2015-11-02,0.2028,0.2184,0.2028,0.2184,42800,3.40704
2015-10-30,0.011,0.012,0.011,0.012,37200,0.1872
2015-10-29,0.01,0.01,0.01,0.01,000,0.156
2015-10-28,0.01,0.01,0.01,0.01,21600,0.156
2015-10-27,0.01,0.01,0.01,0.01,2700,0.156
2015-10-26,0.011,0.011,0.011,0.011,000,0.1716
2015-10-23,0.011,0.011,0.011,0.011,23200,0.1716
2015-10-22,0.01,0.01,0.01,0.01,000,0.156
2015-10-21,0.01,0.01,0.01,0.01,2100,0.156
2015-10-20,0.011,0.011,0.01,0.01,28600,0.156
2015-10-19,0.012,0.012,0.012,0.012,000,0.1872
2015-10-16,0.012,0.012,0.012,0.012,25600,0.1872
2015-10-15,0.012,0.012,0.012,0.012,32000,0.1872
2015-10-14,0.011,0.011,0.011,0.011,6400,0.1716
2015-10-13,0.011,0.011,0.011,0.011,000,0.1716
2015-10-12,0.012,0.012,0.011,0.011,2500,0.1716
2015-10-09,0.012,0.012,0.012,0.012,2600,0.1872
2015-10-08,0.011,0.011,0.011,0.011,000,0.1716
2015-10-07,0.011,0.011,0.011,0.011,1200,0.1716
2015-10-06,0.011,0.011,0.011,0.011,000,0.1716
2015-10-05,0.011,0.011,0.011,0.011,000,0.1716
2015-10-02,0.011,0.011,0.011,0.011,000,0.1716
2015-10-01,0.011,0.011,0.011,0.011,000,0.1716
2015-09-30,0.011,0.011,0.011,0.011,000,0.1716
2015-09-29,0.011,0.011,0.011,0.011,000,0.1716
2015-09-28,0.011,0.011,0.011,0.011,000,0.1716
2015-09-25,0.011,0.011,0.011,0.011,000,0.1716
2015-09-24,0.014,0.016,0.011,0.011,109300,0.1716
2015-09-23,0.014,0.014,0.014,0.014,000,0.2184
2015-09-22,0.016,0.016,0.014,0.014,18900,0.2184
2015-09-21,0.011,0.016,0.011,0.016,98100,0.2496
2015-09-18,0.011,0.011,0.011,0.011,000,0.1716
2015-09-17,0.011,0.011,0.011,0.011,000,0.1716
2015-09-16,0.011,0.011,0.011,0.011,000,0.1716
2015-09-15,0.011,0.011,0.011,0.011,000,0.1716
2015-09-14,0.014,0.014,0.011,0.011,42400,0.1716
2015-09-11,0.012,0.015,0.012,0.014,72700,0.2184
2015-09-10,0.015,0.015,0.011,0.011,63300,0.1716
2015-09-09,0.016,0.02,0.012,0.014,765400,0.2184
2015-09-08,0.004,0.004,0.004,0.004,000,0.0624
2015-09-07,0.004,0.004,0.004,0.004,000,0.0624
2015-09-04,0.004,0.004,0.004,0.004,000,0.0624
2015-09-03,0.004,0.004,0.004,0.004,000,0.0624
2015-09-02,0.004,0.004,0.004,0.004,000,0.0624
2015-09-01,0.004,0.004,0.004,0.004,000,0.0624
2015-08-31,0.004,0.004,0.004,0.004,000,0.0624
2015-08-28,0.004,0.004,0.004,0.004,000,0.0624
2015-08-27,0.004,0.004,0.004,0.004,000,0.0624
2015-08-26,0.004,0.004,0.004,0.004,000,0.0624
2015-08-25,0.004,0.004,0.004,0.004,000,0.0624
2015-08-24,0.004,0.004,0.004,0.004,000,0.0624
2015-08-21,0.004,0.004,0.004,0.004,3200,0.0624
2015-08-20,0.004,0.004,0.004,0.004,3000,0.0624
2015-08-19,0.004,0.004,0.004,0.004,000,0.0624
2015-08-18,0.004,0.004,0.004,0.004,000,0.0624
2015-08-17,0.004,0.004,0.004,0.004,000,0.0624
2015-08-14,0.004,0.004,0.004,0.004,000,0.0624
2015-08-13,0.004,0.004,0.004,0.004,000,0.0624
2015-08-12,0.004,0.004,0.004,0.004,000,0.0624
2015-08-11,0.004,0.004,0.004,0.004,000,0.0624
2015-08-10,0.004,0.004,0.004,0.004,000,0.0624
2015-08-07,0.004,0.004,0.004,0.004,000,0.0624
2015-08-06,0.004,0.004,0.004,0.004,000,0.0624
2015-08-05,0.004,0.004,0.004,0.004,000,0.0624
2015-08-04,0.004,0.004,0.004,0.004,000,0.0624
2015-08-03,0.004,0.004,0.004,0.004,000,0.0624
2015-07-31,0.004,0.004,0.004,0.004,000,0.0624
2015-07-30,0.004,0.004,0.004,0.004,000,0.0624
2015-07-29,0.004,0.004,0.004,0.004,000,0.0624
2015-07-28,0.004,0.004,0.004,0.004,000,0.0624
2015-07-27,0.004,0.004,0.004,0.004,000,0.0624
2015-07-24,0.004,0.004,0.004,0.004,000,0.0624
2015-07-23,0.004,0.004,0.004,0.004,000,0.0624
2015-07-22,0.004,0.004,0.004,0.004,000,0.0624
2015-07-21,0.004,0.004,0.004,0.004,000,0.0624
2015-07-20,0.004,0.004,0.004,0.004,000,0.0624
2015-07-17,0.004,0.004,0.004,0.004,000,0.0624
2015-07-16,0.004,0.004,0.004,0.004,000,0.0624
2015-07-15,0.004,0.004,0.004,0.004,000,0.0624
2015-07-14,0.004,0.004,0.004,0.004,000,0.0624
2015-07-13,0.004,0.004,0.004,0.004,000,0.0624
2015-07-10,0.004,0.004,0.004,0.004,000,0.0624
2015-07-09,0.004,0.004,0.004,0.004,000,0.0624
2015-07-08,0.004,0.004,0.004,0.004,000,0.0624
2015-07-07,0.004,0.004,0.004,0.004,000,0.0624
2015-07-06,0.004,0.004,0.004,0.004,000,0.0624
2015-07-03,0.004,0.004,0.004,0.004,3200,0.0624
2015-07-02,0.002,0.002,0.002,0.002,000,0.0312
2015-07-01,0.002,0.002,0.002,0.002,000,0.0312
2015-06-30,0.002,0.002,0.002,0.002,000,0.0312
2015-06-29,0.002,0.002,0.002,0.002,000,0.0312
2015-06-26,0.002,0.002,0.002,0.002,000,0.0312
2015-06-25,0.002,0.002,0.002,0.002,12300,0.0312
2015-06-24,0.002,0.002,0.002,0.002,000,0.0312
2015-06-23,0.003,0.003,0.002,0.002,64600,0.0312
2015-06-22,0.002,0.002,0.002,0.002,000,0.0312
2015-06-19,0.002,0.002,0.002,0.002,2500,0.0312
2015-06-18,0.005,0.005,0.004,0.004,7000,0.0624
2015-06-17,0.005,0.005,0.005,0.005,000,0.078
2015-06-16,0.005,0.005,0.005,0.005,000,0.078
2015-06-15,0.005,0.005,0.005,0.005,000,0.078
2015-06-12,0.005,0.005,0.005,0.005,2500,0.078
2015-06-11,0.004,0.004,0.004,0.004,25600,0.0624
2015-06-10,0.005,0.005,0.005,0.005,000,0.078
2015-06-09,0.005,0.005,0.005,0.005,4800,0.078
2015-06-08,0.005,0.005,0.005,0.005,000,0.078
2015-06-05,0.005,0.005,0.005,0.005,000,0.078
2015-06-04,0.005,0.005,0.005,0.005,000,0.078
2015-06-03,0.005,0.005,0.005,0.005,000,0.078
2015-06-02,0.005,0.005,0.005,0.005,27600,0.078
2015-06-01,0.005,0.005,0.005,0.005,000,0.078
2015-05-29,0.005,0.005,0.005,0.005,000,0.078
2015-05-28,0.005,0.005,0.005,0.005,000,0.078
2015-05-27,0.005,0.005,0.005,0.005,000,0.078
2015-05-26,0.005,0.005,0.005,0.005,000,0.078
2015-05-25,0.005,0.005,0.005,0.005,4300,0.078
2015-05-22,0.008,0.008,0.008,0.008,000,0.1248
2015-05-21,0.008,0.008,0.008,0.008,000,0.1248
2015-05-20,0.008,0.008,0.008,0.008,000,0.1248
2015-05-19,0.008,0.008,0.008,0.008,2000,0.1248
2015-05-18,0.005,0.005,0.005,0.005,000,0.078
2015-05-15,0.005,0.005,0.005,0.005,000,0.078
2015-05-14,0.005,0.005,0.005,0.005,000,0.078
2015-05-13,0.005,0.005,0.005,0.005,1400,0.078
2015-05-12,0.008,0.008,0.008,0.008,000,0.1248
2015-05-11,0.008,0.008,0.008,0.008,000,0.1248
2015-05-08,0.008,0.008,0.008,0.008,000,0.1248
2015-05-07,0.008,0.008,0.008,0.008,000,0.1248
2015-05-06,0.008,0.008,0.008,0.008,000,0.1248
2015-05-05,0.008,0.008,0.008,0.008,1500,0.1248
2015-05-04,0.008,0.008,0.008,0.008,000,0.1248
2015-05-01,0.008,0.008,0.008,0.008,000,0.1248
2015-04-30,0.008,0.008,0.008,0.008,000,0.1248
2015-04-29,0.008,0.008,0.008,0.008,000,0.1248
2015-04-28,0.008,0.008,0.008,0.008,000,0.1248
2015-04-27,0.008,0.008,0.008,0.008,000,0.1248
2015-04-24,0.008,0.008,0.008,0.008,000,0.1248
2015-04-23,0.008,0.008,0.008,0.008,000,0.1248
2015-04-22,0.008,0.008,0.008,0.008,000,0.1248
2015-04-21,0.008,0.008,0.008,0.008,000,0.1248
2015-04-20,0.008,0.008,0.008,0.008,000,0.1248
2015-04-17,0.008,0.008,0.008,0.008,000,0.1248
2015-04-16,0.008,0.008,0.008,0.008,000,0.1248
2015-04-15,0.008,0.008,0.008,0.008,000,0.1248
2015-04-14,0.008,0.008,0.008,0.008,000,0.1248
2015-04-13,0.008,0.008,0.008,0.008,000,0.1248
2015-04-10,0.008,0.008,0.008,0.008,000,0.1248
2015-04-09,0.008,0.008,0.008,0.008,000,0.1248
2015-04-08,0.008,0.008,0.008,0.008,000,0.1248
2015-04-07,0.008,0.008,0.008,0.008,6400,0.1248
2015-04-06,0.01,0.01,0.01,0.01,000,0.156
2015-04-03,0.01,0.01,0.01,0.01,000,0.156
2015-04-02,0.01,0.01,0.01,0.01,000,0.156
2015-04-01,0.01,0.01,0.01,0.01,000,0.156
2015-03-31,0.01,0.01,0.01,0.01,000,0.156
2015-03-30,0.01,0.01,0.01,0.01,000,0.156
2015-03-27,0.01,0.01,0.01,0.01,000,0.156
2015-03-26,0.01,0.01,0.01,0.01,000,0.156
2015-03-25,0.01,0.01,0.01,0.01,000,0.156
2015-03-24,0.01,0.01,0.01,0.01,000,0.156
2015-03-23,0.01,0.01,0.01,0.01,000,0.156
2015-03-20,0.01,0.01,0.01,0.01,000,0.156
2015-03-19,0.01,0.01,0.01,0.01,000,0.156
2015-03-18,0.01,0.01,0.01,0.01,000,0.156
2015-03-17,0.01,0.01,0.01,0.01,000,0.156
2015-03-16,0.01,0.01,0.01,0.01,1100,0.156
2015-03-13,0.008,0.008,0.008,0.008,000,0.1248
2015-03-12,0.008,0.008,0.008,0.008,000,0.1248
2015-03-11,0.008,0.008,0.008,0.008,000,0.1248
2015-03-10,0.008,0.008,0.008,0.008,000,0.1248
2015-03-09,0.008,0.008,0.008,0.008,000,0.1248
2015-03-06,0.008,0.008,0.008,0.008,000,0.1248
2015-03-05,0.008,0.008,0.008,0.008,000,0.1248
2015-03-04,0.008,0.008,0.008,0.008,000,0.1248
2015-03-03,0.008,0.008,0.008,0.008,000,0.1248
2015-03-02,0.008,0.008,0.008,0.008,000,0.1248
2015-02-27,0.008,0.008,0.008,0.008,000,0.1248
2015-02-26,0.008,0.008,0.008,0.008,000,0.1248
2015-02-25,0.008,0.008,0.008,0.008,000,0.1248
2015-02-24,0.008,0.008,0.008,0.008,000,0.1248
2015-02-23,0.008,0.008,0.008,0.008,000,0.1248
2015-02-20,0.008,0.008,0.008,0.008,000,0.1248
2015-02-19,0.008,0.008,0.008,0.008,000,0.1248
2015-02-18,0.008,0.008,0.008,0.008,000,0.1248
2015-02-17,0.008,0.008,0.008,0.008,000,0.1248
2015-02-16,0.008,0.008,0.008,0.008,000,0.1248
2015-02-13,0.008,0.008,0.008,0.008,000,0.1248
2015-02-12,0.008,0.008,0.008,0.008,000,0.1248
2015-02-11,0.008,0.008,0.008,0.008,000,0.1248
2015-02-10,0.008,0.008,0.008,0.008,000,0.1248
2015-02-09,0.008,0.008,0.008,0.008,000,0.1248
2015-02-06,0.008,0.008,0.008,0.008,000,0.1248
2015-02-05,0.008,0.008,0.008,0.008,000,0.1248
2015-02-04,0.008,0.008,0.008,0.008,5700,0.1248
2015-02-03,0.008,0.008,0.008,0.008,000,0.1248
2015-02-02,0.008,0.008,0.008,0.008,000,0.1248
2015-01-30,0.008,0.008,0.008,0.008,000,0.1248
2015-01-29,0.008,0.008,0.008,0.008,000,0.1248
2015-01-28,0.008,0.008,0.008,0.008,000,0.1248
2015-01-27,0.008,0.008,0.008,0.008,000,0.1248
2015-01-26,0.008,0.008,0.008,0.008,000,0.1248
2015-01-23,0.008,0.008,0.008,0.008,000,0.1248
2015-01-22,0.008,0.008,0.008,0.008,000,0.1248
2015-01-21,0.008,0.008,0.008,0.008,000,0.1248
2015-01-20,0.008,0.008,0.008,0.008,000,0.1248
2015-01-19,0.008,0.008,0.008,0.008,000,0.1248
2015-01-16,0.008,0.008,0.008,0.008,000,0.1248
2015-01-15,0.008,0.008,0.008,0.008,000,0.1248
2015-01-14,0.008,0.008,0.008,0.008,000,0.1248
2015-01-13,0.008,0.008,0.008,0.008,000,0.1248
2015-01-12,0.008,0.008,0.008,0.008,000,0.1248
2015-01-09,0.008,0.008,0.008,0.008,000,0.1248
2015-01-08,0.008,0.008,0.008,0.008,000,0.1248
2015-01-07,0.008,0.008,0.008,0.008,000,0.1248
2015-01-06,0.008,0.008,0.008,0.008,000,0.1248
2015-01-05,0.008,0.008,0.008,0.008,900,0.1248
2015-01-02,0.008,0.008,0.008,0.008,000,0.1248
2015-01-01,0.008,0.008,0.008,0.008,000,0.1248
2014-12-31,0.008,0.008,0.008,0.008,000,0.1248
2014-12-30,0.008,0.008,0.008,0.008,000,0.1248
2014-12-29,0.008,0.008,0.008,0.008,000,0.1248
2014-12-26,0.008,0.008,0.008,0.008,000,0.1248
2014-12-25,0.008,0.008,0.008,0.008,000,0.1248
2014-12-24,0.008,0.008,0.008,0.008,000,0.1248
2014-12-23,0.008,0.008,0.008,0.008,000,0.1248
2014-12-22,0.008,0.008,0.008,0.008,000,0.1248
2014-12-19,0.008,0.008,0.008,0.008,000,0.1248
2014-12-18,0.008,0.008,0.008,0.008,000,0.1248
2014-12-17,0.008,0.008,0.008,0.008,000,0.1248
2014-12-16,0.008,0.008,0.008,0.008,000,0.1248
2014-12-15,0.008,0.008,0.008,0.008,000,0.1248
2014-12-12,0.008,0.008,0.008,0.008,000,0.1248
2014-12-11,0.009,0.009,0.008,0.008,3200,0.1248
2014-12-10,0.009,0.009,0.009,0.009,000,0.1404
2014-12-09,0.009,0.009,0.009,0.009,10200,0.1404
2014-12-08,0.009,0.009,0.009,0.009,3200,0.1404
2014-12-05,0.009,0.009,0.009,0.009,000,0.1404
2014-12-04,0.009,0.009,0.009,0.009,000,0.1404
2014-12-03,0.009,0.009,0.009,0.009,000,0.1404
2014-12-02,0.009,0.009,0.009,0.009,000,0.1404
2014-12-01,0.009,0.009,0.009,0.009,000,0.1404
2014-11-28,0.009,0.009,0.009,0.009,000,0.1404
2014-11-27,0.009,0.009,0.009,0.009,000,0.1404
2014-11-26,0.009,0.009,0.009,0.009,000,0.1404
2014-11-25,0.009,0.009,0.009,0.009,000,0.1404
2014-11-24,0.009,0.009,0.009,0.009,000,0.1404
2014-11-21,0.009,0.009,0.009,0.009,000,0.1404
2014-11-20,0.009,0.009,0.009,0.009,000,0.1404
2014-11-19,0.009,0.009,0.009,0.009,000,0.1404
2014-11-18,0.009,0.009,0.009,0.009,000,0.1404
2014-11-17,0.009,0.009,0.009,0.009,19800,0.1404
2014-11-14,0.013,0.013,0.013,0.013,000,0.2028
2014-11-13,0.013,0.013,0.013,0.013,000,0.2028
2014-11-12,0.013,0.013,0.013,0.013,000,0.2028
2014-11-11,0.013,0.013,0.013,0.013,000,0.2028
2014-11-10,0.013,0.013,0.013,0.013,000,0.2028
2014-11-07,0.013,0.013,0.013,0.013,000,0.2028
2014-11-06,0.013,0.013,0.013,0.013,000,0.2028
2014-11-05,0.013,0.013,0.013,0.013,000,0.2028
2014-11-04,0.013,0.013,0.013,0.013,000,0.2028
2014-11-03,0.013,0.013,0.013,0.013,000,0.2028
2014-10-31,0.013,0.013,0.013,0.013,000,0.2028
2014-10-30,0.013,0.013,0.013,0.013,000,0.2028
2014-10-29,0.013,0.013,0.013,0.013,000,0.2028
2014-10-28,0.013,0.013,0.013,0.013,000,0.2028
2014-10-27,0.013,0.013,0.013,0.013,000,0.2028
2014-10-24,0.013,0.013,0.013,0.013,000,0.2028
2014-10-23,0.013,0.013,0.013,0.013,000,0.2028
2014-10-22,0.013,0.013,0.013,0.013,000,0.2028
2014-10-21,0.013,0.013,0.013,0.013,000,0.2028
2014-10-20,0.013,0.013,0.013,0.013,000,0.2028
2014-10-17,0.013,0.013,0.013,0.013,000,0.2028
2014-10-16,0.013,0.013,0.013,0.013,000,0.2028
2014-10-15,0.013,0.013,0.013,0.013,000,0.2028
2014-10-14,0.013,0.013,0.013,0.013,000,0.2028
2014-10-13,0.013,0.013,0.013,0.013,000,0.2028
2014-10-10,0.013,0.013,0.013,0.013,000,0.2028
2014-10-09,0.013,0.013,0.013,0.013,000,0.2028
2014-10-08,0.013,0.013,0.013,0.013,000,0.2028
2014-10-07,0.013,0.013,0.013,0.013,000,0.2028
2014-10-06,0.012,0.013,0.012,0.013,15000,0.2028
2014-10-03,0.013,0.013,0.013,0.013,000,0.2028
2014-10-02,0.013,0.013,0.013,0.013,000,0.2028
2014-10-01,0.013,0.013,0.013,0.013,000,0.2028
2014-09-30,0.013,0.013,0.013,0.013,000,0.2028
2014-09-29,0.013,0.013,0.013,0.013,000,0.2028
2014-09-26,0.013,0.013,0.013,0.013,000,0.2028
2014-09-25,0.013,0.013,0.013,0.013,000,0.2028
2014-09-24,0.013,0.013,0.013,0.013,000,0.2028
2014-09-23,0.013,0.013,0.013,0.013,000,0.2028
2014-09-22,0.013,0.013,0.013,0.013,000,0.2028
2014-09-19,0.013,0.013,0.013,0.013,2500,0.2028
2014-09-18,0.013,0.013,0.013,0.013,000,0.2028
2014-09-17,0.013,0.013,0.013,0.013,000,0.2028
2014-09-16,0.013,0.013,0.013,0.013,000,0.2028
2014-09-15,0.013,0.013,0.013,0.013,000,0.2028
2014-09-12,0.013,0.013,0.013,0.013,000,0.2028
2014-09-11,0.013,0.013,0.013,0.013,000,0.2028
2014-09-10,0.013,0.013,0.013,0.013,000,0.2028
2014-09-09,0.013,0.013,0.013,0.013,000,0.2028
2014-09-08,0.013,0.013,0.013,0.013,000,0.2028
2014-09-05,0.013,0.013,0.013,0.013,000,0.2028
2014-09-04,0.013,0.013,0.013,0.013,000,0.2028
2014-09-03,0.013,0.013,0.013,0.013,000,0.2028
2014-09-02,0.013,0.013,0.013,0.013,000,0.2028
2014-09-01,0.013,0.013,0.013,0.013,3200,0.2028
2014-08-29,0.018,0.018,0.018,0.018,000,0.2808
2014-08-28,0.018,0.018,0.018,0.018,000,0.2808
2014-08-27,0.018,0.018,0.018,0.018,000,0.2808
2014-08-26,0.018,0.018,0.018,0.018,000,0.2808
2014-08-25,0.018,0.018,0.018,0.018,000,0.2808
2014-08-22,0.018,0.018,0.018,0.018,000,0.2808
2014-08-21,0.018,0.018,0.018,0.018,000,0.2808
2014-08-20,0.018,0.018,0.018,0.018,000,0.2808
2014-08-19,0.018,0.018,0.018,0.018,000,0.2808
2014-08-18,0.018,0.018,0.018,0.018,000,0.2808
2014-08-15,0.018,0.018,0.018,0.018,000,0.2808
2014-08-14,0.018,0.018,0.018,0.018,000,0.2808
2014-08-13,0.018,0.018,0.018,0.018,000,0.2808
2014-08-12,0.018,0.018,0.018,0.018,000,0.2808
2014-08-11,0.018,0.018,0.018,0.018,000,0.2808
2014-08-08,0.018,0.018,0.018,0.018,000,0.2808
2014-08-07,0.018,0.018,0.018,0.018,000,0.2808
2014-08-06,0.018,0.018,0.018,0.018,000,0.2808
2014-08-05,0.018,0.018,0.018,0.018,000,0.2808
2014-08-04,0.018,0.018,0.018,0.018,000,0.2808
2014-08-01,0.018,0.018,0.018,0.018,000,0.2808
2014-07-31,0.018,0.018,0.018,0.018,000,0.2808
2014-07-30,0.018,0.018,0.018,0.018,000,0.2808
2014-07-29,0.018,0.018,0.018,0.018,000,0.2808
2014-07-28,0.018,0.018,0.018,0.018,000,0.2808
2014-07-25,0.018,0.018,0.018,0.018,000,0.2808
2014-07-24,0.018,0.018,0.018,0.018,000,0.2808
2014-07-23,0.018,0.018,0.018,0.018,000,0.2808
2014-07-22,0.018,0.018,0.018,0.018,000,0.2808
2014-07-21,0.018,0.018,0.018,0.018,000,0.2808
2014-07-18,0.018,0.018,0.018,0.018,000,0.2808
2014-07-17,0.022,0.022,0.018,0.018,17900,0.2808
2014-07-16,0.018,0.018,0.018,0.018,000,0.2808
2014-07-15,0.018,0.018,0.018,0.018,000,0.2808
2014-07-14,0.018,0.018,0.018,0.018,000,0.2808
2014-07-11,0.018,0.018,0.018,0.018,000,0.2808
2014-07-10,0.018,0.018,0.018,0.018,000,0.2808
2014-07-09,0.018,0.018,0.018,0.018,000,0.2808
2014-07-08,0.018,0.018,0.018,0.018,000,0.2808
2014-07-07,0.018,0.018,0.018,0.018,000,0.2808
2014-07-04,0.018,0.018,0.018,0.018,000,0.2808
2014-07-03,0.018,0.018,0.018,0.018,000,0.2808
2014-07-02,0.018,0.018,0.018,0.018,000,0.2808
2014-07-01,0.018,0.018,0.018,0.018,000,0.2808
2014-06-30,0.018,0.018,0.018,0.018,000,0.2808
2014-06-27,0.018,0.018,0.018,0.018,000,0.2808
2014-06-26,0.018,0.018,0.018,0.018,000,0.2808
2014-06-25,0.02,0.02,0.018,0.018,13600,0.2808
2014-06-24,0.022,0.022,0.02,0.02,16300,0.312
2014-06-23,0.025,0.025,0.025,0.025,000,0.39
2014-06-20,0.025,0.025,0.025,0.025,000,0.39
2014-06-19,0.025,0.025,0.025,0.025,000,0.39
2014-06-18,0.025,0.025,0.025,0.025,3400,0.39
2014-06-17,0.026,0.026,0.025,0.025,20700,0.39
2014-06-16,0.027,0.027,0.027,0.027,000,0.4212
2014-06-13,0.027,0.027,0.027,0.027,000,0.4212
2014-06-12,0.027,0.027,0.027,0.027,000,0.4212
2014-06-11,0.027,0.027,0.027,0.027,000,0.4212
2014-06-10,0.027,0.027,0.027,0.027,000,0.4212
2014-06-09,0.027,0.027,0.027,0.027,000,0.4212
2014-06-06,0.027,0.027,0.027,0.027,000,0.4212
2014-06-05,0.027,0.027,0.027,0.027,000,0.4212
2014-06-04,0.027,0.027,0.027,0.027,3200,0.4212
2014-06-03,0.028,0.028,0.028,0.028,000,0.4368
2014-06-02,0.028,0.028,0.028,0.028,000,0.4368
2014-05-30,0.028,0.028,0.028,0.028,1500,0.4368
2014-05-29,0.036,0.036,0.036,0.036,6000,0.5616
2014-05-28,0.038,0.038,0.036,0.036,15300,0.5616
2014-05-27,0.037,0.037,0.037,0.037,000,0.5772
2014-05-26,0.037,0.037,0.037,0.037,000,0.5772
2014-05-23,0.037,0.037,0.037,0.037,000,0.5772
2014-05-22,0.037,0.037,0.037,0.037,5000,0.5772
2014-05-21,0.036,0.036,0.036,0.036,000,0.5616
2014-05-20,0.036,0.036,0.036,0.036,000,0.5616
2014-05-19,0.036,0.036,0.036,0.036,800,0.5616
2014-05-16,0.036,0.036,0.036,0.036,000,0.5616
2014-05-15,0.036,0.036,0.036,0.036,000,0.5616
2014-05-14,0.036,0.036,0.036,0.036,000,0.5616
2014-05-13,0.036,0.036,0.036,0.036,000,0.5616
2014-05-12,0.036,0.036,0.036,0.036,300,0.5616
2014-05-09,0.036,0.036,0.036,0.036,300,0.5616
2014-05-08,0.034,0.034,0.034,0.034,6400,0.5304
2014-05-07,0.031,0.031,0.031,0.031,000,0.4836
2014-05-06,0.031,0.031,0.031,0.031,000,0.4836
2014-05-05,0.031,0.031,0.031,0.031,900,0.4836
2014-05-02,0.033,0.033,0.033,0.033,6400,0.5148
2014-05-01,0.031,0.031,0.031,0.031,000,0.4836
2014-04-30,0.031,0.031,0.031,0.031,000,0.4836
2014-04-29,0.031,0.031,0.031,0.031,000,0.4836
2014-04-28,0.031,0.031,0.031,0.031,000,0.4836
2014-04-25,0.031,0.031,0.031,0.031,000,0.4836
2014-04-24,0.031,0.031,0.031,0.031,11500,0.4836
2014-04-23,0.032,0.032,0.032,0.032,000,0.4992
2014-04-22,0.032,0.032,0.032,0.032,000,0.4992
2014-04-21,0.032,0.032,0.032,0.032,000,0.4992
2014-04-18,0.032,0.032,0.032,0.032,000,0.4992
2014-04-17,0.032,0.032,0.032,0.032,2500,0.4992
2014-04-16,0.03,0.03,0.03,0.03,000,0.468
2014-04-15,0.03,0.03,0.03,0.03,000,0.468
2014-04-14,0.03,0.03,0.03,0.03,000,0.468
2014-04-11,0.03,0.03,0.03,0.03,000,0.468
2014-04-10,0.03,0.03,0.03,0.03,15500,0.468
2014-04-09,0.03,0.03,0.03,0.03,600,0.468
2014-04-08,0.038,0.038,0.038,0.038,000,0.5928
2014-04-07,0.038,0.038,0.038,0.038,1000,0.5928
2014-04-04,0.039,0.041,0.039,0.041,4900,0.6396
2014-04-03,0.035,0.035,0.035,0.035,300,0.546
2014-04-02,0.03,0.03,0.03,0.03,800,0.468
2014-04-01,0.028,0.032,0.026,0.026,84600,0.4056
2014-03-31,0.026,0.026,0.026,0.026,816000,0.4056
2014-03-28,0.028,0.028,0.028,0.028,000,0.4368
2014-03-27,0.028,0.028,0.028,0.028,000,0.4368
2014-03-26,0.028,0.028,0.028,0.028,000,0.4368
2014-03-25,0.028,0.028,0.028,0.028,000,0.4368
2014-03-24,0.029,0.029,0.028,0.028,7100,0.4368
2014-03-21,0.028,0.028,0.028,0.028,000,0.4368
2014-03-20,0.028,0.028,0.028,0.028,000,0.4368
2014-03-19,0.028,0.028,0.028,0.028,000,0.4368
2014-03-18,0.028,0.028,0.028,0.028,000,0.4368
2014-03-17,0.028,0.028,0.028,0.028,000,0.4368
2014-03-14,0.031,0.031,0.028,0.028,15400,0.4368
2014-03-13,0.03,0.03,0.03,0.03,000,0.468
2014-03-12,0.03,0.03,0.03,0.03,1900,0.468
2014-03-11,0.031,0.031,0.031,0.031,000,0.4836
2014-03-10,0.031,0.031,0.031,0.031,000,0.4836
2014-03-07,0.031,0.031,0.031,0.031,12800,0.4836
2014-03-06,0.031,0.031,0.031,0.031,000,0.4836
2014-03-05,0.031,0.031,0.031,0.031,000,0.4836
2014-03-04,0.031,0.031,0.031,0.031,000,0.4836
2014-03-03,0.031,0.031,0.031,0.031,000,0.4836
2014-02-28,0.031,0.031,0.031,0.031,000,0.4836
2014-02-27,0.031,0.031,0.031,0.031,2500,0.4836
2014-02-26,0.035,0.035,0.035,0.035,000,0.546
2014-02-25,0.035,0.035,0.035,0.035,000,0.546
2014-02-24,0.035,0.035,0.035,0.035,000,0.546
2014-02-21,0.035,0.035,0.035,0.035,000,0.546
2014-02-20,0.035,0.035,0.035,0.035,2000,0.546
2014-02-19,0.032,0.032,0.032,0.032,6400,0.4992
2014-02-18,0.028,0.028,0.028,0.028,000,0.4368
2014-02-17,0.028,0.028,0.028,0.028,1200,0.4368
2014-02-14,0.028,0.028,0.028,0.028,7500,0.4368
2014-02-13,0.03,0.03,0.03,0.03,000,0.468
2014-02-12,0.03,0.03,0.03,0.03,000,0.468
2014-02-11,0.03,0.03,0.03,0.03,000,0.468
2014-02-10,0.03,0.03,0.03,0.03,000,0.468
2014-02-07,0.03,0.03,0.03,0.03,000,0.468
2014-02-06,0.03,0.03,0.03,0.03,000,0.468
2014-02-05,0.03,0.03,0.03,0.03,000,0.468
2014-02-04,0.03,0.03,0.03,0.03,000,0.468
2014-02-03,0.03,0.03,0.03,0.03,000,0.468
2014-01-31,0.03,0.03,0.03,0.03,000,0.468
2014-01-30,0.03,0.03,0.03,0.03,000,0.468
2014-01-29,0.03,0.03,0.03,0.03,000,0.468
2014-01-28,0.03,0.03,0.03,0.03,000,0.468
2014-01-27,0.03,0.03,0.03,0.03,000,0.468
2014-01-24,0.03,0.03,0.03,0.03,000,0.468
2014-01-23,0.031,0.031,0.03,0.03,17500,0.468
2014-01-22,0.031,0.031,0.03,0.03,23700,0.468
2014-01-21,0.035,0.035,0.035,0.035,000,0.546
2014-01-20,0.035,0.035,0.035,0.035,1200,0.546
2014-01-17,0.04,0.04,0.04,0.04,000,0.624
2014-01-16,0.04,0.04,0.04,0.04,000,0.624
2014-01-15,0.04,0.04,0.04,0.04,000,0.624
2014-01-14,0.04,0.04,0.037,0.04,5700,0.624
2014-01-13,0.04,0.04,0.04,0.04,000,0.624
2014-01-10,0.04,0.04,0.04,0.04,000,0.624
2014-01-09,0.04,0.04,0.04,0.04,000,0.624
2014-01-08,0.04,0.04,0.04,0.04,000,0.624
2014-01-07,0.04,0.04,0.04,0.04,000,0.624
2014-01-06,0.04,0.04,0.04,0.04,000,0.624
2014-01-03,0.041,0.041,0.04,0.04,11500,0.624
2014-01-02,0.045,0.045,0.045,0.045,000,0.702
2014-01-01,0.045,0.045,0.045,0.045,000,0.702
2013-12-31,0.045,0.045,0.045,0.045,000,0.702
2013-12-30,0.045,0.045,0.045,0.045,000,0.702
2013-12-27,0.045,0.045,0.045,0.045,000,0.702
2013-12-26,0.045,0.045,0.045,0.045,000,0.702
2013-12-25,0.045,0.045,0.045,0.045,000,0.702
2013-12-24,0.045,0.045,0.045,0.045,000,0.702
2013-12-23,0.045,0.045,0.045,0.045,000,0.702
2013-12-20,0.045,0.045,0.045,0.045,000,0.702
2013-12-19,0.045,0.045,0.045,0.045,000,0.702
2013-12-18,0.045,0.045,0.045,0.045,000,0.702
2013-12-17,0.045,0.045,0.045,0.045,000,0.702
2013-12-16,0.045,0.045,0.045,0.045,000,0.702
2013-12-13,0.045,0.045,0.045,0.045,000,0.702
2013-12-12,0.045,0.045,0.045,0.045,000,0.702
2013-12-11,0.045,0.045,0.045,0.045,600,0.702
2013-12-10,0.045,0.045,0.045,0.045,000,0.702
2013-12-09,0.045,0.045,0.045,0.045,000,0.702
2013-12-06,0.045,0.045,0.045,0.045,000,0.702
2013-12-05,0.045,0.045,0.045,0.045,000,0.702
2013-12-04,0.045,0.045,0.045,0.045,3100,0.702
2013-12-03,0.045,0.045,0.045,0.045,1300,0.702
2013-12-02,0.045,0.045,0.045,0.045,000,0.702
2013-11-29,0.045,0.045,0.045,0.045,8200,0.702
2013-11-28,0.048,0.048,0.045,0.045,6400,0.702
2013-11-27,0.048,0.048,0.048,0.048,12800,0.7488
2013-11-26,0.055,0.055,0.055,0.055,000,0.858
2013-11-25,0.055,0.055,0.055,0.055,600,0.858
2013-11-22,0.055,0.055,0.055,0.055,1900,0.858
2013-11-21,0.05,0.05,0.047,0.047,10900,0.7332
2013-11-20,0.055,0.055,0.055,0.055,000,0.858
2013-11-19,0.055,0.055,0.055,0.055,000,0.858
2013-11-18,0.055,0.055,0.055,0.055,5500,0.858
2013-11-15,0.055,0.055,0.053,0.053,5000,0.8268
2013-11-14,0.065,0.065,0.065,0.065,000,1.014
2013-11-13,0.065,0.065,0.065,0.065,000,1.014
2013-11-12,0.065,0.065,0.065,0.065,000,1.014
2013-11-11,0.065,0.065,0.065,0.065,000,1.014
2013-11-08,0.065,0.065,0.065,0.065,000,1.014
2013-11-07,0.065,0.065,0.065,0.065,000,1.014
2013-11-06,0.064,0.065,0.064,0.065,17600,1.014
2013-11-05,0.06,0.06,0.06,0.06,000,0.936
2013-11-04,0.06,0.06,0.06,0.06,000,0.936
2013-11-01,0.06,0.06,0.06,0.06,500,0.936
2013-10-31,0.053,0.053,0.053,0.053,600,0.8268
2013-10-30,0.053,0.053,0.053,0.053,1200,0.8268
2013-10-29,0.052,0.052,0.052,0.052,000,0.8112
2013-10-28,0.052,0.052,0.052,0.052,000,0.8112
2013-10-25,0.052,0.052,0.052,0.052,6000,0.8112
2013-10-24,0.052,0.052,0.052,0.052,000,0.8112
2013-10-23,0.055,0.055,0.05,0.052,19200,0.8112
2013-10-22,0.06,0.06,0.06,0.06,000,0.936
2013-10-21,0.06,0.06,0.06,0.06,000,0.936
2013-10-18,0.06,0.06,0.06,0.06,000,0.936
2013-10-17,0.06,0.06,0.06,0.06,000,0.936
2013-10-16,0.06,0.06,0.06,0.06,000,0.936
2013-10-15,0.06,0.06,0.06,0.06,000,0.936
2013-10-14,0.06,0.06,0.06,0.06,000,0.936
2013-10-11,0.06,0.06,0.06,0.06,900,0.936
2013-10-10,0.055,0.055,0.055,0.055,5200,0.858
2013-10-09,0.06,0.06,0.06,0.06,000,0.936
2013-10-08,0.06,0.06,0.06,0.06,500,0.936
2013-10-07,0.065,0.065,0.065,0.065,000,1.014
2013-10-04,0.065,0.065,0.065,0.065,000,1.014
2013-10-03,0.065,0.065,0.065,0.065,000,1.014
2013-10-02,0.065,0.065,0.065,0.065,000,1.014
2013-10-01,0.065,0.065,0.065,0.065,000,1.014
2013-09-30,0.065,0.065,0.065,0.065,2100,1.014
2013-09-27,0.06,0.06,0.06,0.06,000,0.936
2013-09-26,0.06,0.06,0.06,0.06,000,0.936
2013-09-25,0.06,0.06,0.06,0.06,900,0.936
2013-09-24,0.06,0.06,0.06,0.06,600,0.936
2013-09-23,0.06,0.06,0.058,0.058,1400,0.9048
2013-09-20,0.06,0.06,0.06,0.06,6400,0.936
2013-09-19,0.056,0.056,0.056,0.056,000,0.8736
2013-09-18,0.056,0.056,0.056,0.056,10000,0.8736
2013-09-17,0.059,0.059,0.059,0.059,000,0.9204
2013-09-16,0.059,0.059,0.059,0.059,000,0.9204
2013-09-13,0.059,0.059,0.059,0.059,000,0.9204
2013-09-12,0.059,0.059,0.059,0.059,000,0.9204
2013-09-11,0.059,0.059,0.059,0.059,000,0.9204
2013-09-10,0.059,0.059,0.059,0.059,000,0.9204
2013-09-09,0.059,0.059,0.059,0.059,000,0.9204
2013-09-06,0.059,0.059,0.059,0.059,000,0.9204
2013-09-05,0.059,0.059,0.059,0.059,000,0.9204
2013-09-04,0.059,0.059,0.059,0.059,000,0.9204
2013-09-03,0.059,0.059,0.059,0.059,2200,0.9204
2013-09-02,0.059,0.059,0.059,0.059,000,0.9204
2013-08-30,0.059,0.059,0.059,0.059,1900,0.9204
2013-08-29,0.059,0.059,0.059,0.059,000,0.9204
2013-08-28,0.059,0.059,0.059,0.059,6400,0.9204
2013-08-27,0.059,0.059,0.059,0.059,000,0.9204
2013-08-26,0.059,0.059,0.059,0.059,000,0.9204
2013-08-23,0.06,0.06,0.059,0.059,19500,0.9204
2013-08-22,0.062,0.062,0.06,0.06,19400,0.936
2013-08-21,0.065,0.065,0.062,0.062,10900,0.9672
2013-08-20,0.062,0.062,0.062,0.062,15600,0.9672
2013-08-19,0.065,0.065,0.065,0.065,3700,1.014
2013-08-16,0.065,0.065,0.065,0.065,100,1.014
2013-08-15,0.065,0.065,0.065,0.065,2500,1.014
2013-08-14,0.065,0.065,0.065,0.065,1200,1.014
2013-08-13,0.065,0.065,0.065,0.065,3200,1.014
2013-08-12,0.065,0.065,0.065,0.065,6400,1.014
2013-08-09,0.062,0.062,0.062,0.062,300,0.9672
2013-08-08,0.064,0.064,0.064,0.064,000,0.9984
2013-08-07,0.064,0.064,0.064,0.064,000,0.9984
2013-08-06,0.064,0.064,0.064,0.064,3800,0.9984
2013-08-05,0.06,0.06,0.06,0.06,000,0.936
2013-08-02,0.06,0.06,0.06,0.06,000,0.936
2013-08-01,0.06,0.06,0.06,0.06,000,0.936
2013-07-31,0.06,0.06,0.06,0.06,000,0.936
2013-07-30,0.06,0.06,0.06,0.06,000,0.936
2013-07-29,0.06,0.06,0.06,0.06,2500,0.936
2013-07-26,0.063,0.063,0.063,0.063,000,0.9828
2013-07-25,0.063,0.063,0.063,0.063,000,0.9828
2013-07-24,0.063,0.063,0.063,0.063,000,0.9828
2013-07-23,0.063,0.063,0.063,0.063,000,0.9828
2013-07-22,0.063,0.063,0.063,0.063,500,0.9828
2013-07-19,0.061,0.061,0.061,0.061,400,0.9516
2013-07-18,0.06,0.06,0.06,0.06,4200,0.936
2013-07-17,0.06,0.06,0.06,0.06,000,0.936
2013-07-16,0.06,0.06,0.06,0.06,6400,0.936
2013-07-15,0.06,0.06,0.06,0.06,000,0.936
2013-07-12,0.06,0.06,0.06,0.06,1700,0.936
2013-07-11,0.06,0.06,0.055,0.055,4000,0.858
2013-07-10,0.06,0.06,0.055,0.055,8300,0.858
2013-07-09,0.06,0.06,0.06,0.06,4700,0.936
2013-07-08,0.055,0.055,0.055,0.055,000,0.858
2013-07-05,0.055,0.055,0.055,0.055,000,0.858
2013-07-04,0.061,0.061,0.055,0.055,26000,0.858
2013-07-03,0.06,0.06,0.06,0.06,12800,0.936
2013-07-02,0.05,0.05,0.05,0.05,25600,0.78
2013-07-01,0.05,0.05,0.05,0.05,1300,0.78
2013-06-28,0.05,0.05,0.05,0.05,000,0.78
2013-06-27,0.05,0.05,0.05,0.05,000,0.78
2013-06-26,0.05,0.05,0.05,0.05,000,0.78
2013-06-25,0.05,0.05,0.05,0.05,6400,0.78
2013-06-24,0.05,0.05,0.05,0.05,000,0.78
2013-06-21,0.051,0.051,0.05,0.05,32200,0.78
2013-06-20,0.051,0.051,0.051,0.051,000,0.7956
2013-06-19,0.051,0.051,0.051,0.051,000,0.7956
2013-06-18,0.051,0.051,0.051,0.051,000,0.7956
2013-06-17,0.052,0.052,0.051,0.051,1900,0.7956
2013-06-14,0.055,0.055,0.051,0.051,2800,0.7956
2013-06-13,0.055,0.055,0.055,0.055,12800,0.858
2013-06-12,0.055,0.055,0.055,0.055,3400,0.858
2013-06-11,0.057,0.057,0.055,0.055,25300,0.858
2013-06-10,0.057,0.057,0.057,0.057,000,0.8892
2013-06-07,0.057,0.057,0.057,0.057,9600,0.8892
2013-06-06,0.057,0.057,0.057,0.057,12600,0.8892
2013-06-05,0.055,0.055,0.055,0.055,000,0.858
2013-06-04,0.055,0.055,0.055,0.055,6400,0.858
2013-06-03,0.055,0.055,0.055,0.055,3000,0.858
2013-05-31,0.055,0.055,0.055,0.055,000,0.858
2013-05-30,0.055,0.055,0.055,0.055,5100,0.858
2013-05-29,0.061,0.061,0.06,0.06,14600,0.936
2013-05-28,0.06,0.07,0.06,0.07,5100,1.092
2013-05-27,0.05,0.05,0.05,0.05,900,0.78
2013-05-24,0.05,0.05,0.05,0.05,000,0.78
2013-05-23,0.05,0.05,0.05,0.05,000,0.78
2013-05-22,0.047,0.05,0.047,0.05,3200,0.78
2013-05-21,0.05,0.05,0.05,0.05,12800,0.78
2013-05-20,0.052,0.052,0.052,0.052,000,0.8112
2013-05-17,0.052,0.052,0.052,0.052,000,0.8112
2013-05-16,0.052,0.052,0.052,0.052,3800,0.8112
2013-05-15,0.052,0.052,0.052,0.052,3800,0.8112
2013-05-14,0.048,0.048,0.047,0.047,15600,0.7332
2013-05-13,0.048,0.048,0.048,0.048,000,0.7488
2013-05-10,0.05,0.05,0.048,0.048,1500,0.7488
2013-05-09,0.045,0.052,0.045,0.048,23300,0.7488
2013-05-08,0.04,0.04,0.04,0.04,000,0.624
2013-05-07,0.04,0.04,0.04,0.04,000,0.624
2013-05-06,0.04,0.04,0.04,0.04,000,0.624
2013-05-03,0.04,0.04,0.04,0.04,5600,0.624
2013-05-02,0.04,0.04,0.04,0.04,000,0.624
2013-05-01,0.04,0.04,0.04,0.04,000,0.624
2013-04-30,0.042,0.042,0.04,0.04,9500,0.624
2013-04-29,0.042,0.042,0.042,0.042,000,0.6552
2013-04-26,0.042,0.042,0.042,0.042,7700,0.6552
2013-04-25,0.045,0.045,0.045,0.045,000,0.702
2013-04-24,0.045,0.045,0.045,0.045,000,0.702
2013-04-23,0.044,0.045,0.044,0.045,12800,0.702
2013-04-22,0.043,0.043,0.041,0.041,7500,0.6396
2013-04-19,0.043,0.043,0.043,0.043,2300,0.6708
2013-04-18,0.039,0.04,0.039,0.04,6400,0.624
2013-04-17,0.042,0.042,0.04,0.04,9600,0.624
2013-04-16,0.039,0.039,0.039,0.039,000,0.6084
2013-04-15,0.039,0.039,0.039,0.039,000,0.6084
2013-04-12,0.039,0.039,0.039,0.039,6400,0.6084
2013-04-11,0.041,0.041,0.04,0.04,38400,0.624
2013-04-10,0.04,0.04,0.04,0.04,1600,0.624
2013-04-09,0.04,0.04,0.04,0.04,9900,0.624
2013-04-08,0.04,0.04,0.04,0.04,000,0.624
2013-04-05,0.04,0.04,0.04,0.04,2800,0.624
2013-04-04,0.04,0.04,0.04,0.04,18600,0.624
2013-04-03,0.04,0.04,0.04,0.04,000,0.624
2013-04-02,0.04,0.04,0.039,0.04,44900,0.624
2013-04-01,0.04,0.04,0.04,0.04,000,0.624
2013-03-29,0.04,0.04,0.04,0.04,000,0.624
2013-03-28,0.04,0.04,0.04,0.04,600,0.624
2013-03-27,0.04,0.04,0.04,0.04,9600,0.624
2013-03-26,0.045,0.045,0.03,0.04,92900,0.624
2013-03-25,0.05,0.05,0.05,0.05,600,0.78
2013-03-22,0.057,0.057,0.057,0.057,000,0.8892
2013-03-21,0.057,0.057,0.057,0.057,000,0.8892
2013-03-20,0.057,0.057,0.057,0.057,000,0.8892
2013-03-19,0.057,0.057,0.057,0.057,000,0.8892
2013-03-18,0.057,0.057,0.057,0.057,000,0.8892
2013-03-15,0.057,0.057,0.057,0.057,000,0.8892
2013-03-14,0.057,0.057,0.057,0.057,200,0.8892
2013-03-13,0.057,0.057,0.057,0.057,000,0.8892
2013-03-12,0.057,0.057,0.057,0.057,3200,0.8892
2013-03-11,0.06,0.06,0.06,0.06,000,0.936
2013-03-08,0.06,0.06,0.06,0.06,000,0.936
2013-03-07,0.06,0.06,0.06,0.06,000,0.936
2013-03-06,0.06,0.06,0.06,0.06,600,0.936
2013-03-05,0.057,0.057,0.057,0.057,000,0.8892
2013-03-04,0.057,0.057,0.057,0.057,000,0.8892
2013-03-01,0.057,0.057,0.057,0.057,000,0.8892
2013-02-28,0.057,0.057,0.057,0.057,000,0.8892
2013-02-27,0.057,0.057,0.057,0.057,000,0.8892
2013-02-26,0.057,0.06,0.057,0.057,6800,0.8892
2013-02-25,0.07,0.07,0.07,0.07,000,1.092
2013-02-22,0.07,0.07,0.07,0.07,000,1.092
2013-02-21,0.07,0.07,0.07,0.07,000,1.092
2013-02-20,0.07,0.07,0.07,0.07,000,1.092
2013-02-19,0.07,0.07,0.07,0.07,000,1.092
2013-02-18,0.07,0.07,0.07,0.07,000,1.092
2013-02-15,0.07,0.07,0.07,0.07,12800,1.092
2013-02-14,0.07,0.07,0.07,0.07,000,1.092
2013-02-13,0.07,0.07,0.07,0.07,000,1.092
2013-02-12,0.07,0.07,0.07,0.07,000,1.092
2013-02-11,0.07,0.07,0.07,0.07,000,1.092
2013-02-08,0.07,0.07,0.07,0.07,000,1.092
2013-02-07,0.07,0.07,0.07,0.07,000,1.092
2013-02-06,0.07,0.07,0.07,0.07,000,1.092
2013-02-05,0.07,0.07,0.07,0.07,000,1.092
2013-02-04,0.07,0.07,0.07,0.07,000,1.092
2013-02-01,0.07,0.07,0.07,0.07,000,1.092
2013-01-31,0.07,0.07,0.07,0.07,000,1.092
2013-01-30,0.07,0.07,0.07,0.07,000,1.092
2013-01-29,0.07,0.07,0.07,0.07,000,1.092
2013-01-28,0.07,0.07,0.07,0.07,000,1.092
2013-01-25,0.07,0.07,0.07,0.07,16000,1.092
2013-01-24,0.07,0.07,0.07,0.07,12800,1.092
2013-01-22,0.071,0.071,0.071,0.071,6400,1.1076
2013-01-21,0.08,0.08,0.08,0.08,000,1.248
2013-01-18,0.08,0.08,0.08,0.08,000,1.248
2013-01-17,0.08,0.08,0.08,0.08,000,1.248
2013-01-16,0.08,0.08,0.08,0.08,000,1.248
2013-01-15,0.08,0.08,0.08,0.08,000,1.248
2013-01-14,0.08,0.08,0.08,0.08,000,1.248
2013-01-11,0.08,0.08,0.08,0.08,000,1.248
2013-01-10,0.08,0.08,0.08,0.08,000,1.248
2013-01-09,0.08,0.08,0.08,0.08,1000,1.248
2013-01-08,0.08,0.08,0.08,0.08,000,1.248
2013-01-07,0.08,0.08,0.08,0.08,10400,1.248
2013-01-04,0.08,0.08,0.08,0.08,6400,1.248
2013-01-03,0.085,0.085,0.085,0.085,300,1.326
2013-01-02,0.08,0.08,0.08,0.08,2800,1.248
2013-01-01,0.075,0.075,0.075,0.075,000,1.17
2012-12-31,0.075,0.075,0.075,0.075,000,1.17
2012-12-28,0.075,0.075,0.075,0.075,000,1.17
2012-12-27,0.075,0.075,0.075,0.075,000,1.17
2012-12-26,0.075,0.075,0.075,0.075,000,1.17
2012-12-25,0.075,0.075,0.075,0.075,000,1.17
2012-12-24,0.077,0.077,0.075,0.075,1600,1.17
2012-12-21,0.077,0.077,0.077,0.077,600,1.2012
2012-12-20,0.065,0.065,0.065,0.065,000,1.014
2012-12-19,0.065,0.065,0.065,0.065,000,1.014
2012-12-18,0.065,0.065,0.065,0.065,000,1.014
2012-12-17,0.06,0.065,0.06,0.065,3500,1.014
2012-12-14,0.08,0.08,0.08,0.08,000,1.248
2012-12-13,0.08,0.08,0.08,0.08,000,1.248
2012-12-12,0.08,0.08,0.08,0.08,000,1.248
2012-12-11,0.08,0.08,0.08,0.08,000,1.248
2012-12-10,0.088,0.088,0.08,0.08,3600,1.248
2012-12-07,0.085,0.085,0.085,0.085,3200,1.326
2012-12-06,0.08,0.08,0.08,0.08,000,1.248
2012-12-05,0.08,0.08,0.08,0.08,5200,1.248
2012-12-04,0.09,0.09,0.085,0.09,4000,1.404
2012-12-03,0.095,0.095,0.095,0.095,000,1.482
2012-11-30,0.095,0.095,0.095,0.095,000,1.482
2012-11-29,0.095,0.095,0.095,0.095,200,1.482
2012-11-28,0.095,0.095,0.095,0.095,3200,1.482
2012-11-27,0.09,0.095,0.09,0.095,800,1.482
2012-11-26,0.085,0.085,0.085,0.085,6800,1.326
2012-11-23,0.08,0.08,0.08,0.08,000,1.248
2012-11-22,0.08,0.08,0.08,0.08,000,1.248
2012-11-21,0.08,0.08,0.08,0.08,000,1.248
2012-11-20,0.08,0.08,0.08,0.08,600,1.248
2012-11-19,0.08,0.08,0.08,0.08,000,1.248
2012-11-16,0.08,0.08,0.08,0.08,000,1.248
2012-11-15,0.08,0.08,0.08,0.08,000,1.248
2012-11-14,0.08,0.08,0.08,0.08,000,1.248
2012-11-13,0.08,0.08,0.08,0.08,000,1.248
2012-11-12,0.08,0.08,0.08,0.08,000,1.248
2012-11-09,0.076,0.08,0.076,0.08,6400,1.248
2012-11-08,0.08,0.08,0.08,0.08,5300,1.248
2012-11-07,0.09,0.09,0.085,0.085,11500,1.326
2012-11-06,0.09,0.09,0.09,0.09,000,1.404
2012-11-05,0.09,0.09,0.09,0.09,600,1.404
2012-11-02,0.09,0.09,0.08,0.08,5000,1.248
2012-11-01,0.09,0.09,0.09,0.09,000,1.404
2012-10-31,0.09,0.09,0.09,0.09,000,1.404
2012-10-30,0.09,0.09,0.09,0.09,300,1.404
2012-10-29,0.09,0.09,0.09,0.09,12800,1.404
2012-10-26,0.09,0.09,0.09,0.09,000,1.404
2012-10-25,0.09,0.09,0.09,0.09,1400,1.404
2012-10-24,0.09,0.09,0.09,0.09,000,1.404
2012-10-23,0.09,0.09,0.089,0.09,16000,1.404
2012-10-22,0.087,0.087,0.087,0.087,000,1.3572
2012-10-19,0.087,0.087,0.087,0.087,000,1.3572
2012-10-18,0.087,0.087,0.087,0.087,000,1.3572
2012-10-17,0.087,0.087,0.087,0.087,000,1.3572
2012-10-16,0.09,0.09,0.087,0.087,5700,1.3572
2012-10-15,0.087,0.087,0.087,0.087,600,1.3572
2012-10-12,0.10,0.10,0.09,0.095,24400,1.482
2012-10-11,0.08,0.08,0.08,0.08,000,1.248
2012-10-10,0.08,0.08,0.08,0.08,000,1.248
2012-10-09,0.085,0.085,0.08,0.08,5700,1.248
2012-10-08,0.085,0.085,0.085,0.085,900,1.326
2012-10-05,0.09,0.09,0.09,0.09,000,1.404
2012-10-04,0.092,0.092,0.09,0.09,11200,1.404
2012-10-03,0.096,0.096,0.091,0.092,8000,1.4352
2012-10-02,0.098,0.10,0.096,0.096,29600,1.4976
2012-10-01,0.12,0.12,0.09,0.095,27800,1.482
2012-09-28,0.125,0.125,0.125,0.125,000,1.95
2012-09-27,0.125,0.125,0.125,0.125,000,1.95
2012-09-26,0.125,0.125,0.125,0.125,3200,1.95
2012-09-25,0.125,0.125,0.12,0.12,4400,1.872
2012-09-24,0.12,0.12,0.12,0.12,2800,1.872
2012-09-21,0.13,0.13,0.13,0.13,000,2.028
2012-09-20,0.12,0.13,0.12,0.13,3800,2.028
2012-09-19,0.13,0.13,0.13,0.13,4800,2.028
2012-09-18,0.12,0.13,0.12,0.13,3200,2.028
2012-09-17,0.12,0.12,0.12,0.12,000,1.872
2012-09-14,0.13,0.13,0.12,0.12,4800,1.872
2012-09-13,0.12,0.13,0.12,0.13,1900,2.028
2012-09-12,0.13,0.13,0.13,0.13,000,2.028
2012-09-11,0.13,0.13,0.13,0.13,1200,2.028
2012-09-10,0.11,0.11,0.11,0.11,6400,1.716
2012-09-07,0.15,0.15,0.15,0.15,17300,2.34
2012-09-06,0.145,0.145,0.145,0.145,000,2.262
2012-09-05,0.145,0.145,0.145,0.145,000,2.262
2012-09-04,0.145,0.145,0.145,0.145,3200,2.262
2012-09-03,0.15,0.15,0.15,0.15,2000,2.34
2012-08-31,0.15,0.155,0.15,0.15,11400,2.34
2012-08-30,0.15,0.15,0.15,0.15,7100,2.34
2012-08-29,0.13,0.13,0.13,0.13,000,2.028
2012-08-28,0.13,0.13,0.13,0.13,000,2.028
2012-08-27,0.13,0.13,0.13,0.13,100,2.028
2012-08-24,0.15,0.15,0.15,0.15,000,2.34
2012-08-23,0.15,0.15,0.15,0.15,000,2.34
2012-08-22,0.15,0.15,0.15,0.15,000,2.34
2012-08-21,0.15,0.15,0.15,0.15,5100,2.34
2012-08-20,0.14,0.14,0.14,0.14,000,2.184
2012-08-17,0.13,0.14,0.13,0.14,4400,2.184
2012-08-16,0.145,0.145,0.145,0.145,000,2.262
2012-08-15,0.145,0.145,0.145,0.145,000,2.262
2012-08-14,0.145,0.145,0.145,0.145,000,2.262
2012-08-13,0.145,0.145,0.145,0.145,000,2.262
2012-08-10,0.145,0.145,0.145,0.145,1000,2.262
2012-08-09,0.15,0.15,0.15,0.15,1100,2.34
2012-08-08,0.145,0.145,0.145,0.145,000,2.262
2012-08-07,0.145,0.145,0.145,0.145,000,2.262
2012-08-06,0.145,0.145,0.145,0.145,300,2.262
2012-08-03,0.145,0.145,0.145,0.145,5000,2.262
2012-08-02,0.14,0.14,0.14,0.14,000,2.184
2012-08-01,0.14,0.14,0.14,0.14,000,2.184
2012-07-31,0.14,0.14,0.14,0.14,9100,2.184
2012-07-30,0.14,0.14,0.14,0.14,000,2.184
2012-07-27,0.14,0.14,0.14,0.14,000,2.184
2012-07-26,0.14,0.14,0.14,0.14,000,2.184
2012-07-25,0.145,0.145,0.14,0.14,4800,2.184
2012-07-24,0.15,0.15,0.15,0.15,1700,2.34
2012-07-23,0.15,0.15,0.15,0.15,000,2.34
2012-07-20,0.15,0.15,0.15,0.15,000,2.34
2012-07-19,0.15,0.15,0.15,0.15,100,2.34
2012-07-18,0.175,0.175,0.175,0.175,000,2.73
2012-07-17,0.17,0.175,0.17,0.175,3200,2.73
2012-07-16,0.16,0.16,0.16,0.16,000,2.496
2012-07-13,0.16,0.16,0.16,0.16,400,2.496
2012-07-12,0.15,0.15,0.15,0.15,2200,2.34
2012-07-11,0.16,0.16,0.16,0.16,3200,2.496
2012-07-10,0.185,0.185,0.185,0.185,000,2.886
2012-07-09,0.185,0.185,0.185,0.185,000,2.886
2012-07-06,0.185,0.185,0.185,0.185,000,2.886
2012-07-05,0.165,0.185,0.165,0.185,1300,2.886
2012-07-04,0.19,0.19,0.19,0.19,000,2.964
2012-07-03,0.19,0.19,0.19,0.19,000,2.964
2012-07-02,0.165,0.19,0.165,0.19,1200,2.964
2012-06-29,0.195,0.195,0.195,0.195,000,3.042
2012-06-28,0.195,0.195,0.195,0.195,000,3.042
2012-06-27,0.18,0.195,0.18,0.195,2100,3.042
2012-06-26,0.18,0.18,0.18,0.18,000,2.808
2012-06-25,0.17,0.18,0.17,0.18,4400,2.808
2012-06-22,0.195,0.195,0.19,0.19,1100,2.964
2012-06-21,0.185,0.19,0.18,0.19,8200,2.964
2012-06-20,0.16,0.16,0.16,0.16,500,2.496
2012-06-19,0.15,0.175,0.15,0.175,600,2.73
2012-06-18,0.15,0.175,0.15,0.15,10500,2.34
2012-06-15,0.155,0.155,0.15,0.15,10600,2.34
2012-06-14,0.155,0.155,0.155,0.155,000,2.418
2012-06-13,0.16,0.16,0.155,0.155,2700,2.418
2012-06-12,0.18,0.18,0.18,0.18,7000,2.808
2012-06-11,0.185,0.185,0.185,0.185,000,2.886
2012-06-08,0.17,0.185,0.17,0.185,13100,2.886
2012-06-07,0.165,0.17,0.165,0.17,5100,2.652
2012-06-06,0.15,0.165,0.15,0.16,4700,2.496
2012-06-05,0.15,0.15,0.15,0.15,1500,2.34
2012-06-04,0.17,0.17,0.15,0.165,2000,2.574
2012-06-01,0.15,0.15,0.15,0.15,000,2.34
2012-05-31,0.15,0.15,0.15,0.15,1000,2.34
2012-05-30,0.16,0.16,0.16,0.16,000,2.496
2012-05-29,0.16,0.16,0.16,0.16,000,2.496
2012-05-28,0.16,0.16,0.16,0.16,1800,2.496
2012-05-25,0.18,0.18,0.18,0.18,000,2.808
2012-05-24,0.18,0.18,0.18,0.18,000,2.808
2012-05-23,0.18,0.18,0.18,0.18,000,2.808
2012-05-22,0.18,0.18,0.18,0.18,000,2.808
2012-05-21,0.18,0.18,0.18,0.18,1900,2.808
2012-05-18,0.19,0.19,0.18,0.18,1100,2.808
2012-05-17,0.175,0.175,0.175,0.175,800,2.73
2012-05-16,0.18,0.18,0.14,0.16,21700,2.496
2012-05-15,0.18,0.20,0.18,0.20,2200,3.12
2012-05-14,0.20,0.20,0.20,0.20,2200,3.12
2012-05-11,0.22,0.22,0.22,0.22,000,3.432
2012-05-10,0.22,0.22,0.22,0.22,000,3.432
2012-05-09,0.22,0.22,0.22,0.22,000,3.432
2012-05-08,0.22,0.22,0.22,0.22,600,3.432
2012-05-07,0.19,0.19,0.19,0.19,000,2.964
2012-05-04,0.205,0.205,0.19,0.19,8400,2.964
2012-05-03,0.215,0.215,0.215,0.215,300,3.354
2012-05-02,0.23,0.23,0.23,0.23,000,3.588
2012-05-01,0.23,0.23,0.23,0.23,000,3.588
2012-04-30,0.23,0.23,0.23,0.23,000,3.588
2012-04-27,0.23,0.23,0.23,0.23,000,3.588
2012-04-26,0.225,0.23,0.225,0.23,3200,3.588
2012-04-25,0.23,0.23,0.23,0.23,000,3.588
2012-04-24,0.23,0.23,0.23,0.23,100,3.588
2012-04-23,0.22,0.22,0.215,0.215,7900,3.354
2012-04-20,0.22,0.22,0.22,0.22,7600,3.432
2012-04-19,0.22,0.22,0.22,0.22,5700,3.432
2012-04-18,0.22,0.22,0.22,0.22,3200,3.432
2012-04-17,0.24,0.24,0.24,0.24,000,3.744
2012-04-16,0.22,0.24,0.22,0.24,3700,3.744
2012-04-13,0.23,0.24,0.225,0.24,1100,3.744
2012-04-12,0.24,0.24,0.24,0.24,500,3.744
2012-04-11,0.22,0.22,0.22,0.22,7300,3.432
2012-04-10,0.23,0.23,0.23,0.23,3800,3.588
2012-04-09,0.23,0.23,0.23,0.23,000,3.588
2012-04-06,0.23,0.23,0.23,0.23,000,3.588
2012-04-05,0.23,0.23,0.23,0.23,000,3.588
2012-04-04,0.23,0.23,0.23,0.23,000,3.588
2012-04-03,0.23,0.23,0.23,0.23,000,3.588
2012-04-02,0.24,0.24,0.23,0.23,1200,3.588
2012-03-30,0.255,0.255,0.245,0.245,8000,3.822
2012-03-29,0.25,0.25,0.25,0.25,000,3.90
2012-03-28,0.25,0.25,0.25,0.25,3100,3.90
2012-03-27,0.25,0.25,0.25,0.25,300,3.90
2012-03-26,0.25,0.25,0.25,0.25,2400,3.90
2012-03-23,0.25,0.25,0.25,0.25,000,3.90
2012-03-22,0.24,0.25,0.24,0.25,11400,3.90
2012-03-21,0.24,0.24,0.24,0.24,9600,3.744
2012-03-20,0.24,0.24,0.24,0.24,2200,3.744
2012-03-19,0.24,0.24,0.24,0.24,000,3.744
2012-03-16,0.23,0.24,0.23,0.24,4100,3.744
2012-03-15,0.22,0.23,0.22,0.23,2800,3.588
2012-03-14,0.215,0.22,0.215,0.22,5300,3.432
2012-03-13,0.225,0.225,0.21,0.21,7200,3.276
2012-03-12,0.215,0.215,0.21,0.21,6400,3.276
2012-03-09,0.25,0.25,0.25,0.25,000,3.90
2012-03-08,0.25,0.25,0.25,0.25,000,3.90
2012-03-07,0.25,0.25,0.25,0.25,000,3.90
2012-03-06,0.225,0.225,0.225,0.225,2400,3.51
2012-03-05,0.25,0.25,0.25,0.25,000,3.90
2012-03-02,0.26,0.27,0.25,0.25,2000,3.90
2012-03-01,0.26,0.26,0.26,0.26,2300,4.056
2012-02-29,0.255,0.255,0.255,0.255,10500,3.978
2012-02-28,0.25,0.255,0.245,0.255,11200,3.978
2012-02-27,0.22,0.225,0.22,0.22,8600,3.432
2012-02-24,0.205,0.205,0.205,0.205,000,3.198
2012-02-23,0.22,0.22,0.205,0.205,2200,3.198
2012-02-22,0.225,0.225,0.225,0.225,000,3.51
2012-02-21,0.215,0.225,0.215,0.225,3000,3.51
2012-02-20,0.22,0.225,0.215,0.215,3800,3.354
2012-02-17,0.23,0.23,0.23,0.23,000,3.588
2012-02-16,0.23,0.23,0.23,0.23,000,3.588
2012-02-15,0.23,0.23,0.23,0.23,000,3.588
2012-02-14,0.25,0.255,0.23,0.23,27000,3.588
2012-02-13,0.235,0.235,0.235,0.235,1400,3.666
2012-02-10,0.235,0.235,0.235,0.235,2700,3.666
2012-02-09,0.25,0.25,0.25,0.25,000,3.90
2012-02-08,0.26,0.28,0.225,0.25,30000,3.90
2012-02-07,0.235,0.25,0.22,0.25,34900,3.90
2012-02-06,0.225,0.235,0.22,0.23,45900,3.588
2012-02-03,0.21,0.22,0.19,0.22,18100,3.432
2012-02-02,0.185,0.20,0.185,0.20,13800,3.12
2012-02-01,0.17,0.18,0.17,0.18,25400,2.808
2012-01-31,0.165,0.165,0.165,0.165,3800,2.574
2012-01-27,0.18,0.185,0.17,0.17,9600,2.652
2012-01-26,0.18,0.18,0.18,0.18,000,2.808
2012-01-25,0.17,0.18,0.17,0.18,30200,2.808
2012-01-24,0.155,0.16,0.155,0.16,11200,2.496
2012-01-23,0.17,0.17,0.15,0.15,9900,2.34
2012-01-20,0.17,0.18,0.17,0.18,13000,2.808
2012-01-19,0.165,0.17,0.165,0.17,3500,2.652
2012-01-18,0.145,0.15,0.14,0.15,13100,2.34
2012-01-17,0.14,0.165,0.14,0.145,22500,2.262
2012-01-16,0.12,0.12,0.12,0.12,000,1.872
2012-01-13,0.12,0.12,0.12,0.12,000,1.872
2012-01-12,0.12,0.12,0.12,0.12,000,1.872
2012-01-11,0.12,0.12,0.12,0.12,000,1.872
2012-01-10,0.12,0.12,0.12,0.12,000,1.872
2012-01-09,0.12,0.12,0.12,0.12,000,1.872
2012-01-06,0.12,0.12,0.12,0.12,000,1.872
2012-01-05,0.115,0.12,0.115,0.12,7000,1.872
2012-01-04,0.10,0.10,0.10,0.10,000,1.56
2012-01-03,0.096,0.10,0.096,0.10,4300,1.56
2012-01-02,0.088,0.088,0.088,0.088,000,1.3728
2011-12-30,0.088,0.088,0.088,0.088,000,1.3728
2011-12-29,0.088,0.088,0.088,0.088,000,1.3728
2011-12-28,0.088,0.088,0.088,0.088,000,1.3728
2011-12-27,0.088,0.088,0.088,0.088,000,1.3728
2011-12-26,0.088,0.088,0.088,0.088,000,1.3728
2011-12-23,0.088,0.088,0.088,0.088,1900,1.3728
2011-12-22,0.088,0.088,0.088,0.088,500,1.3728
2011-12-21,0.08,0.08,0.08,0.08,1200,1.248
2011-12-20,0.077,0.077,0.077,0.077,000,1.2012
2011-12-19,0.075,0.077,0.075,0.077,4200,1.2012
2011-12-16,0.064,0.072,0.064,0.072,23400,1.1232
2011-12-15,0.066,0.066,0.06,0.064,13600,0.9984
2011-12-14,0.065,0.068,0.065,0.068,9500,1.0608
2011-12-13,0.08,0.08,0.065,0.065,14700,1.014
2011-12-12,0.10,0.10,0.10,0.10,000,1.56
2011-12-09,0.10,0.10,0.10,0.10,000,1.56
2011-12-08,0.10,0.10,0.10,0.10,000,1.56
2011-12-07,0.10,0.10,0.10,0.10,000,1.56
2011-12-06,0.10,0.10,0.10,0.10,3200,1.56
2011-12-05,0.10,0.10,0.10,0.10,000,1.56
2011-12-02,0.11,0.11,0.10,0.10,10100,1.56
2011-12-01,0.11,0.11,0.11,0.11,000,1.716
2011-11-30,0.11,0.11,0.11,0.11,000,1.716
2011-11-29,0.11,0.11,0.11,0.11,000,1.716
2011-11-28,0.11,0.11,0.11,0.11,000,1.716
2011-11-25,0.11,0.11,0.11,0.11,000,1.716
2011-11-24,0.11,0.11,0.11,0.11,000,1.716
2011-11-23,0.11,0.11,0.11,0.11,000,1.716
2011-11-22,0.11,0.11,0.11,0.11,000,1.716
2011-11-21,0.11,0.11,0.11,0.11,000,1.716
2011-11-18,0.11,0.11,0.11,0.11,000,1.716
2011-11-17,0.11,0.11,0.11,0.11,000,1.716
2011-11-15,0.11,0.11,0.11,0.11,600,1.716
2011-11-07,0.12,0.12,0.115,0.115,13300,1.794
2011-11-03,0.12,0.12,0.12,0.12,300,1.872
2011-11-01,0.125,0.13,0.12,0.12,3800,1.872
2011-10-21,0.12,0.12,0.12,0.12,3200,1.872
2011-10-20,0.12,0.12,0.12,0.12,7400,1.872
2011-10-19,0.12,0.12,0.12,0.12,1100,1.872
2011-10-18,0.12,0.12,0.12,0.12,3800,1.872
2011-10-17,0.13,0.13,0.12,0.12,2600,1.872
2011-10-05,0.13,0.13,0.13,0.13,1100,2.028
2011-09-28,0.15,0.15,0.15,0.15,5400,2.34
2011-09-26,0.12,0.12,0.105,0.105,10500,1.638
2011-09-23,0.145,0.145,0.12,0.12,5300,1.872
2011-08-26,0.15,0.15,0.15,0.15,1200,2.34
2011-08-23,0.15,0.15,0.15,0.15,4200,2.34
2011-08-22,0.15,0.15,0.15,0.15,13500,2.34
2011-08-19,0.155,0.155,0.15,0.15,1900,2.34
2011-08-17,0.155,0.155,0.155,0.155,2800,2.418
2011-08-15,0.155,0.155,0.155,0.155,300,2.418
2011-08-12,0.155,0.155,0.155,0.155,900,2.418
2011-08-11,0.145,0.145,0.145,0.145,2500,2.262
2011-08-08,0.15,0.15,0.15,0.15,2500,2.34
2011-08-05,0.17,0.17,0.15,0.15,18500,2.34
2011-08-02,0.18,0.18,0.18,0.18,3200,2.808
2011-08-01,0.18,0.18,0.18,0.18,600,2.808
2011-07-27,0.18,0.185,0.18,0.185,3200,2.886
2011-06-29,0.195,0.20,0.195,0.20,4000,3.12
2011-06-24,0.17,0.17,0.16,0.16,10300,2.496
2011-06-16,0.15,0.15,0.145,0.145,5700,2.262
2011-06-09,0.17,0.17,0.16,0.16,5100,2.496
2011-06-08,0.165,0.165,0.165,0.165,1900,2.574
2011-06-07,0.17,0.17,0.17,0.17,6800,2.652
2011-06-03,0.17,0.17,0.17,0.17,1900,2.652
2011-06-02,0.165,0.165,0.165,0.165,9000,2.574
2011-05-27,0.17,0.17,0.17,0.17,3100,2.652
2011-05-26,0.17,0.17,0.165,0.165,9400,2.574
2011-05-25,0.165,0.165,0.165,0.165,3800,2.574
2011-05-24,0.17,0.17,0.165,0.165,13100,2.574
2011-05-23,0.18,0.18,0.17,0.17,32200,2.652
2011-05-20,0.185,0.185,0.185,0.185,5500,2.886
2011-05-19,0.18,0.18,0.18,0.18,5600,2.808
2011-05-18,0.18,0.18,0.18,0.18,8600,2.808
2011-05-17,0.18,0.18,0.175,0.175,6400,2.73
2011-05-13,0.18,0.18,0.18,0.18,8000,2.808
2011-05-12,0.18,0.18,0.18,0.18,4400,2.808
2011-05-11,0.18,0.185,0.18,0.18,9700,2.808
2011-05-10,0.19,0.19,0.18,0.18,50700,2.808
2011-05-09,0.195,0.195,0.195,0.195,900,3.042
2011-05-06,0.18,0.18,0.18,0.18,7700,2.808
2011-05-04,0.18,0.19,0.18,0.19,9100,2.964
2011-05-03,0.18,0.19,0.18,0.18,14300,2.808
2011-05-02,0.18,0.18,0.18,0.18,1200,2.808
2011-04-29,0.19,0.19,0.18,0.18,9000,2.808
2011-04-28,0.19,0.19,0.19,0.19,1200,2.964
2011-04-27,0.19,0.195,0.19,0.195,6700,3.042
2011-04-20,0.18,0.18,0.18,0.18,17100,2.808
2011-04-19,0.18,0.18,0.175,0.18,15500,2.808
2011-04-18,0.18,0.18,0.18,0.18,2000,2.808
2011-04-14,0.185,0.185,0.18,0.18,9600,2.808
2011-04-12,0.195,0.20,0.18,0.18,6400,2.808
2011-04-11,0.185,0.185,0.185,0.185,1600,2.886
2011-04-07,0.19,0.19,0.185,0.185,5100,2.886
2011-04-06,0.195,0.20,0.19,0.20,5100,3.12
2011-04-05,0.20,0.20,0.20,0.20,8000,3.12
2011-04-04,0.20,0.20,0.20,0.20,1700,3.12
2011-04-01,0.19,0.20,0.19,0.20,15500,3.12
2011-03-31,0.195,0.195,0.19,0.19,4400,2.964
2011-03-29,0.20,0.215,0.20,0.215,6700,3.354
2011-03-28,0.20,0.20,0.195,0.195,9000,3.042
2011-03-25,0.18,0.19,0.18,0.19,12000,2.964
2011-03-24,0.18,0.18,0.175,0.18,9600,2.808
2011-03-22,0.17,0.17,0.17,0.17,6000,2.652
2011-03-16,0.20,0.20,0.20,0.20,1200,3.12
2011-03-15,0.18,0.18,0.18,0.18,1600,2.808
2011-03-14,0.20,0.20,0.18,0.18,9000,2.808
2011-03-11,0.19,0.19,0.17,0.18,12000,2.808
2011-03-10,0.20,0.20,0.19,0.19,4400,2.964
2011-03-09,0.20,0.22,0.20,0.20,11600,3.12
2011-03-07,0.22,0.22,0.215,0.215,5900,3.354
2011-03-04,0.21,0.22,0.21,0.22,3200,3.432
2011-03-01,0.20,0.21,0.20,0.20,16600,3.12
2011-02-24,0.18,0.18,0.18,0.18,8500,2.808
2011-02-22,0.19,0.19,0.18,0.18,6400,2.808
2011-02-21,0.195,0.195,0.19,0.195,12800,3.042
2011-02-18,0.19,0.20,0.18,0.19,2800,2.964
2011-02-17,0.19,0.19,0.19,0.19,2100,2.964
2011-02-15,0.21,0.21,0.18,0.19,14700,2.964
2011-02-14,0.18,0.21,0.18,0.20,13300,3.12
2011-02-11,0.18,0.18,0.17,0.17,4800,2.652
2011-02-10,0.17,0.18,0.17,0.18,11400,2.808
2011-02-09,0.17,0.17,0.17,0.17,19400,2.652
2011-02-08,0.17,0.18,0.17,0.18,17900,2.808
2011-02-07,0.18,0.18,0.17,0.17,10100,2.652
2011-02-04,0.17,0.17,0.17,0.17,3200,2.652
2011-02-03,0.17,0.17,0.17,0.17,13600,2.652
2011-02-02,0.17,0.17,0.17,0.17,1200,2.652
2011-02-01,0.17,0.17,0.17,0.17,2400,2.652
2011-01-31,0.19,0.19,0.18,0.18,1600,2.808
2011-01-27,0.19,0.19,0.19,0.19,7400,2.964
2011-01-25,0.20,0.20,0.19,0.19,9100,2.964
2011-01-24,0.21,0.21,0.20,0.20,3200,3.12
2011-01-21,0.21,0.22,0.20,0.21,25900,3.276
2011-01-20,0.17,0.24,0.17,0.21,16700,3.276
2011-01-17,0.16,0.16,0.16,0.16,600,2.496
2011-01-12,0.15,0.15,0.15,0.15,3200,2.34
2011-01-11,0.15,0.15,0.15,0.15,600,2.34
2011-01-10,0.16,0.16,0.15,0.15,8900,2.34
2011-01-06,0.16,0.16,0.16,0.16,3200,2.496
2011-01-05,0.15,0.15,0.15,0.15,8900,2.34
2010-12-21,0.17,0.17,0.17,0.17,3200,2.652
2010-12-17,0.17,0.17,0.17,0.17,8700,2.652
2010-12-15,0.16,0.16,0.16,0.16,3700,2.496
2010-12-10,0.16,0.16,0.16,0.16,2500,2.496
2010-12-08,0.16,0.16,0.15,0.15,7200,2.34
2010-12-07,0.16,0.16,0.16,0.16,4100,2.496
2010-12-03,0.15,0.17,0.15,0.17,23300,2.652
2010-11-24,0.15,0.15,0.15,0.15,600,2.34
2010-11-19,0.15,0.16,0.15,0.16,14100,2.496
2010-11-02,0.16,0.16,0.16,0.16,1200,2.496
2010-10-29,0.16,0.16,0.16,0.16,300,2.496
2010-10-28,0.16,0.16,0.16,0.16,1600,2.496
2010-10-27,0.16,0.16,0.16,0.16,600,2.496
2010-10-26,0.16,0.16,0.16,0.16,600,2.496
2010-10-18,0.16,0.16,0.16,0.16,600,2.496
2010-10-14,0.16,0.16,0.16,0.16,600,2.496
2010-10-13,0.17,0.17,0.17,0.17,1200,2.652
2010-10-12,0.17,0.17,0.17,0.17,3100,2.652
2010-10-11,0.17,0.17,0.17,0.17,10200,2.652
2010-09-27,0.14,0.14,0.13,0.13,2200,2.028
2010-09-22,0.14,0.14,0.14,0.14,400,2.184
2010-09-09,0.13,0.13,0.13,0.13,4100,2.028
2010-08-23,0.17,0.17,0.17,0.17,700,2.652
2010-08-18,0.18,0.18,0.18,0.18,1200,2.808
2010-07-15,0.17,0.19,0.17,0.19,5100,2.964
2010-07-13,0.15,0.17,0.15,0.17,3800,2.652
2010-01-29,0.20,0.20,0.20,0.20,100,3.12
2009-12-07,0.20,0.20,0.20,0.20,600,3.12
2009-12-03,0.20,0.20,0.20,0.20,1200,3.12
2009-12-02,0.22,0.22,0.22,0.22,600,3.432
2009-12-01,0.20,0.21,0.20,0.20,3200,3.12
