Date,Open,High,Low,Close,Volume,Adj Close
2017-01-10,0.003,0.003,0.003,0.003,000,0.003
2017-01-09,0.003,0.003,0.003,0.003,000,0.003
2017-01-06,0.003,0.003,0.003,0.003,000,0.003
2017-01-05,0.003,0.003,0.003,0.003,000,0.003
2017-01-04,0.003,0.003,0.003,0.003,000,0.003
2017-01-03,0.003,0.003,0.003,0.003,000,0.003
2017-01-02,0.003,0.003,0.003,0.003,000,0.003
2016-12-30,0.003,0.003,0.003,0.003,000,0.003
2016-12-29,0.002,0.003,0.002,0.003,3155300,0.003
2016-12-28,0.003,0.003,0.003,0.003,000,0.003
2016-12-27,0.003,0.003,0.003,0.003,000,0.003
2016-12-26,0.003,0.003,0.003,0.003,000,0.003
2016-12-23,0.003,0.003,0.003,0.003,000,0.003
2016-12-22,0.003,0.003,0.003,0.003,000,0.003
2016-12-21,0.003,0.003,0.003,0.003,000,0.003
2016-12-20,0.003,0.003,0.003,0.003,000,0.003
2016-12-19,0.003,0.003,0.003,0.003,000,0.003
2016-12-16,0.003,0.003,0.003,0.003,000,0.003
2016-12-15,0.003,0.003,0.003,0.003,000,0.003
2016-12-14,0.003,0.003,0.003,0.003,000,0.003
2016-12-13,0.003,0.003,0.003,0.003,000,0.003
2016-12-12,0.003,0.003,0.003,0.003,000,0.003
2016-12-09,0.003,0.003,0.003,0.003,000,0.003
2016-12-08,0.003,0.003,0.003,0.003,000,0.003
2016-12-07,0.003,0.003,0.003,0.003,000,0.003
2016-12-06,0.003,0.003,0.003,0.003,000,0.003
2016-12-05,0.003,0.003,0.003,0.003,000,0.003
2016-12-02,0.003,0.003,0.003,0.003,000,0.003
2016-12-01,0.003,0.003,0.003,0.003,000,0.003
2016-11-30,0.003,0.003,0.003,0.003,000,0.003
2016-11-29,0.003,0.003,0.003,0.003,000,0.003
2016-11-28,0.003,0.003,0.003,0.003,000,0.003
2016-11-25,0.003,0.003,0.003,0.003,000,0.003
2016-11-24,0.003,0.003,0.003,0.003,000,0.003
2016-11-23,0.003,0.003,0.003,0.003,000,0.003
2016-11-22,0.003,0.003,0.003,0.003,000,0.003
2016-11-21,0.003,0.003,0.003,0.003,000,0.003
2016-11-18,0.003,0.003,0.003,0.003,000,0.003
2016-11-17,0.003,0.003,0.003,0.003,000,0.003
2016-11-16,0.003,0.003,0.003,0.003,000,0.003
2016-11-15,0.003,0.003,0.003,0.003,000,0.003
2016-11-14,0.003,0.003,0.003,0.003,000,0.003
2016-11-11,0.001,0.003,0.001,0.003,1500,0.003
2016-11-10,0.003,0.003,0.003,0.003,000,0.003
2016-11-09,0.003,0.003,0.003,0.003,000,0.003
2016-11-08,0.003,0.003,0.003,0.003,170000,0.003
2016-11-07,0.002,0.002,0.002,0.002,000,0.002
2016-11-04,0.002,0.002,0.002,0.002,000,0.002
2016-11-03,0.002,0.002,0.002,0.002,000,0.002
2016-11-02,0.002,0.002,0.002,0.002,000,0.002
2016-11-01,0.002,0.002,0.002,0.002,000,0.002
2016-10-31,0.002,0.002,0.002,0.002,000,0.002
2016-10-28,0.003,0.003,0.002,0.002,500000,0.002
2016-10-27,0.002,0.002,0.002,0.002,000,0.002
2016-10-26,0.002,0.002,0.002,0.002,000,0.002
2016-10-25,0.002,0.002,0.002,0.002,000,0.002
2016-10-24,0.002,0.002,0.002,0.002,000,0.002
2016-10-21,0.002,0.002,0.002,0.002,000,0.002
2016-10-20,0.002,0.002,0.002,0.002,000,0.002
2016-10-19,0.002,0.002,0.002,0.002,000,0.002
2016-10-18,0.002,0.002,0.002,0.002,000,0.002
2016-10-17,0.002,0.002,0.002,0.002,000,0.002
2016-10-14,0.002,0.002,0.002,0.002,000,0.002
2016-10-13,0.002,0.002,0.002,0.002,000,0.002
2016-10-12,0.002,0.002,0.002,0.002,000,0.002
2016-10-11,0.002,0.002,0.002,0.002,000,0.002
2016-10-10,0.002,0.002,0.002,0.002,000,0.002
2016-10-07,0.002,0.002,0.002,0.002,000,0.002
2016-10-06,0.002,0.002,0.002,0.002,000,0.002
2016-10-05,0.002,0.002,0.002,0.002,000,0.002
2016-10-04,0.002,0.002,0.002,0.002,000,0.002
2016-10-03,0.002,0.002,0.002,0.002,000,0.002
2016-09-30,0.002,0.002,0.002,0.002,000,0.002
2016-09-29,0.002,0.002,0.002,0.002,000,0.002
2016-09-28,0.002,0.002,0.002,0.002,000,0.002
2016-09-27,0.002,0.002,0.002,0.002,000,0.002
2016-09-26,0.002,0.002,0.002,0.002,000,0.002
2016-09-23,0.002,0.002,0.002,0.002,000,0.002
2016-09-22,0.002,0.002,0.002,0.002,000,0.002
2016-09-21,0.002,0.002,0.002,0.002,000,0.002
2016-09-20,0.002,0.002,0.002,0.002,000,0.002
2016-09-19,0.002,0.002,0.002,0.002,000,0.002
2016-09-16,0.002,0.002,0.002,0.002,000,0.002
2016-09-15,0.002,0.002,0.002,0.002,000,0.002
2016-09-14,0.002,0.002,0.002,0.002,000,0.002
2016-09-13,0.002,0.002,0.002,0.002,100000,0.002
2016-09-12,0.003,0.003,0.003,0.003,000,0.003
2016-09-09,0.003,0.003,0.003,0.003,000,0.003
2016-09-08,0.003,0.003,0.003,0.003,000,0.003
2016-09-07,0.003,0.003,0.003,0.003,000,0.003
2016-09-06,0.003,0.003,0.003,0.003,000,0.003
2016-09-05,0.003,0.003,0.003,0.003,000,0.003
2016-09-02,0.003,0.003,0.003,0.003,000,0.003
2016-09-01,0.003,0.003,0.003,0.003,000,0.003
2016-08-31,0.003,0.003,0.003,0.003,000,0.003
2016-08-30,0.003,0.003,0.003,0.003,000,0.003
2016-08-29,0.003,0.003,0.003,0.003,000,0.003
2016-08-26,0.003,0.003,0.003,0.003,000,0.003
2016-08-25,0.003,0.003,0.003,0.003,000,0.003
2016-08-24,0.003,0.003,0.003,0.003,760000,0.003
2016-08-23,0.003,0.003,0.003,0.003,000,0.003
2016-08-22,0.003,0.003,0.003,0.003,000,0.003
2016-08-19,0.003,0.003,0.003,0.003,000,0.003
2016-08-18,0.003,0.003,0.003,0.003,000,0.003
2016-08-17,0.003,0.003,0.003,0.003,2472900,0.003
2016-08-16,0.003,0.003,0.003,0.003,000,0.003
2016-08-15,0.003,0.003,0.003,0.003,000,0.003
2016-08-12,0.003,0.003,0.003,0.003,50000,0.003
2016-08-11,0.003,0.003,0.003,0.003,000,0.003
2016-08-10,0.003,0.003,0.003,0.003,000,0.003
2016-08-09,0.003,0.003,0.003,0.003,000,0.003
2016-08-08,0.003,0.003,0.003,0.003,320000,0.003
2016-08-05,0.004,0.004,0.004,0.004,000,0.004
2016-08-04,0.004,0.004,0.004,0.004,000,0.004
2016-08-03,0.004,0.004,0.004,0.004,000,0.004
2016-08-02,0.004,0.004,0.004,0.004,000,0.004
2016-08-01,0.004,0.004,0.004,0.004,000,0.004
2016-07-29,0.004,0.004,0.004,0.004,1520000,0.004
2016-07-28,0.004,0.004,0.004,0.004,000,0.004
2016-07-27,0.004,0.004,0.004,0.004,000,0.004
2016-07-26,0.004,0.004,0.004,0.004,000,0.004
2016-07-25,0.004,0.004,0.004,0.004,000,0.004
2016-07-22,0.004,0.004,0.004,0.004,980000,0.004
2016-07-21,0.004,0.004,0.004,0.004,000,0.004
2016-07-20,0.004,0.004,0.004,0.004,000,0.004
2016-07-19,0.004,0.004,0.004,0.004,000,0.004
2016-07-18,0.004,0.004,0.004,0.004,105000,0.004
2016-07-15,0.003,0.003,0.003,0.003,000,0.003
2016-07-14,0.003,0.003,0.003,0.003,50000,0.003
2016-07-13,0.003,0.003,0.003,0.003,000,0.003
2016-07-12,0.003,0.003,0.003,0.003,000,0.003
2016-07-11,0.003,0.003,0.003,0.003,000,0.003
2016-07-08,0.003,0.003,0.003,0.003,000,0.003
2016-07-07,0.003,0.003,0.003,0.003,000,0.003
2016-07-06,0.003,0.003,0.003,0.003,000,0.003
2016-07-05,0.003,0.003,0.003,0.003,000,0.003
2016-07-04,0.003,0.003,0.003,0.003,000,0.003
2016-07-01,0.003,0.003,0.003,0.003,000,0.003
2016-06-30,0.003,0.003,0.003,0.003,000,0.003
2016-06-29,0.004,0.004,0.003,0.003,3000000,0.003
2016-06-28,0.004,0.004,0.004,0.004,500000,0.004
2016-06-27,0.004,0.004,0.004,0.004,617000,0.004
2016-06-24,0.005,0.005,0.004,0.004,630000,0.004
2016-06-23,0.004,0.004,0.004,0.004,000,0.004
2016-06-22,0.004,0.004,0.004,0.004,000,0.004
2016-06-21,0.004,0.004,0.004,0.004,1000000,0.004
2016-06-20,0.004,0.004,0.004,0.004,000,0.004
2016-06-17,0.004,0.004,0.004,0.004,359000,0.004
2016-06-16,0.004,0.004,0.004,0.004,200000,0.004
2016-06-15,0.005,0.005,0.005,0.005,000,0.005
2016-06-14,0.005,0.005,0.005,0.005,000,0.005
2016-06-13,0.005,0.005,0.005,0.005,000,0.005
2016-06-10,0.005,0.005,0.005,0.005,000,0.005
2016-06-09,0.005,0.005,0.005,0.005,350000,0.005
2016-06-08,0.005,0.005,0.005,0.005,000,0.005
2016-06-07,0.004,0.005,0.004,0.005,989900,0.005
2016-06-06,0.005,0.005,0.005,0.005,4895100,0.005
2016-06-03,0.005,0.005,0.005,0.005,500000,0.005
2016-06-02,0.004,0.005,0.004,0.005,500000,0.005
2016-06-01,0.004,0.005,0.004,0.004,2500000,0.004
2016-05-31,0.004,0.005,0.004,0.004,4941200,0.004
2016-05-30,0.005,0.005,0.004,0.004,9127700,0.004
2016-05-27,0.006,0.006,0.006,0.006,200000,0.006
2016-05-26,0.007,0.007,0.007,0.007,100000,0.007
2016-05-25,0.006,0.007,0.006,0.007,680400,0.007
2016-05-24,0.005,0.006,0.005,0.006,3590900,0.006
2016-05-23,0.005,0.005,0.005,0.005,11634000,0.005
2016-05-20,0.005,0.005,0.005,0.005,000,0.005
2016-05-19,0.005,0.005,0.005,0.005,653000,0.005
2016-05-18,0.005,0.005,0.004,0.005,9645000,0.005
2016-05-17,0.004,0.004,0.004,0.004,5362400,0.004
2016-05-16,0.003,0.004,0.003,0.004,4980000,0.004
2016-05-13,0.003,0.003,0.003,0.003,000,0.003
2016-05-12,0.004,0.004,0.003,0.003,940000,0.003
2016-05-11,0.002,0.004,0.002,0.004,13009300,0.004
2016-05-10,0.001,0.001,0.001,0.001,000,0.001
2016-05-09,0.001,0.001,0.001,0.001,000,0.001
2016-05-06,0.001,0.001,0.001,0.001,000,0.001
2016-05-05,0.001,0.001,0.001,0.001,000,0.001
2016-05-04,0.001,0.001,0.001,0.001,000,0.001
2016-05-03,0.001,0.001,0.001,0.001,62500,0.001
2016-05-02,0.001,0.001,0.001,0.001,000,0.001
2016-04-29,0.001,0.001,0.001,0.001,000,0.001
2016-04-28,0.001,0.001,0.001,0.001,000,0.001
2016-04-27,0.001,0.001,0.001,0.001,000,0.001
2016-04-26,0.001,0.001,0.001,0.001,000,0.001
2016-04-25,0.001,0.001,0.001,0.001,000,0.001
2016-04-22,0.001,0.001,0.001,0.001,000,0.001
2016-04-21,0.001,0.001,0.001,0.001,000,0.001
2016-04-20,0.001,0.001,0.001,0.001,000,0.001
2016-04-19,0.001,0.001,0.001,0.001,000,0.001
2016-04-18,0.001,0.001,0.001,0.001,190000,0.001
2016-04-15,0.001,0.001,0.001,0.001,50000,0.001
2016-04-14,0.002,0.002,0.002,0.002,000,0.002
2016-04-13,0.002,0.002,0.002,0.002,000,0.002
2016-04-12,0.002,0.002,0.002,0.002,000,0.002
2016-04-11,0.002,0.002,0.002,0.002,000,0.002
2016-04-08,0.002,0.002,0.002,0.002,4300000,0.002
2016-04-07,0.001,0.001,0.001,0.001,000,0.001
2016-04-06,0.001,0.001,0.001,0.001,000,0.001
2016-04-05,0.001,0.001,0.001,0.001,655000,0.001
2016-04-04,0.001,0.001,0.001,0.001,000,0.001
2016-04-01,0.001,0.001,0.001,0.001,000,0.001
2016-03-31,0.001,0.001,0.001,0.001,700000,0.001
2016-03-30,0.001,0.001,0.001,0.001,000,0.001
2016-03-29,0.001,0.001,0.001,0.001,000,0.001
2016-03-28,0.001,0.001,0.001,0.001,000,0.001
2016-03-25,0.001,0.001,0.001,0.001,000,0.001
2016-03-24,0.001,0.001,0.001,0.001,000,0.001
2016-03-23,0.001,0.001,0.001,0.001,000,0.001
2016-03-22,0.001,0.001,0.001,0.001,000,0.001
2016-03-21,0.001,0.001,0.001,0.001,000,0.001
2016-03-18,0.001,0.001,0.001,0.001,000,0.001
2016-03-17,0.001,0.001,0.001,0.001,500000,0.001
2016-03-16,0.001,0.001,0.001,0.001,000,0.001
2016-03-15,0.001,0.001,0.001,0.001,50000,0.001
2016-03-14,0.001,0.001,0.001,0.001,000,0.001
2016-03-11,0.001,0.001,0.001,0.001,000,0.001
2016-03-10,0.001,0.001,0.001,0.001,000,0.001
2016-03-09,0.001,0.001,0.001,0.001,000,0.001
2016-03-08,0.001,0.001,0.001,0.001,000,0.001
2016-03-07,0.001,0.001,0.001,0.001,000,0.001
2016-03-04,0.001,0.001,0.001,0.001,000,0.001
2016-03-03,0.001,0.001,0.001,0.001,000,0.001
2016-03-02,0.001,0.001,0.001,0.001,000,0.001
2016-03-01,0.001,0.001,0.001,0.001,000,0.001
2016-02-29,0.001,0.001,0.001,0.001,50000,0.001
2016-02-26,0.001,0.001,0.001,0.001,000,0.001
2016-02-25,0.001,0.001,0.001,0.001,300000,0.001
2016-02-24,0.001,0.001,0.001,0.001,000,0.001
2016-02-23,0.001,0.001,0.001,0.001,000,0.001
2016-02-22,0.001,0.001,0.001,0.001,000,0.001
2016-02-19,0.001,0.001,0.001,0.001,000,0.001
2016-02-18,0.001,0.001,0.001,0.001,000,0.001
2016-02-17,0.001,0.001,0.001,0.001,000,0.001
2016-02-16,0.001,0.001,0.001,0.001,000,0.001
2016-02-15,0.001,0.001,0.001,0.001,000,0.001
2016-02-12,0.001,0.001,0.001,0.001,000,0.001
2016-02-11,0.001,0.001,0.001,0.001,3000000,0.001
2016-02-10,0.001,0.001,0.001,0.001,000,0.001
2016-02-09,0.001,0.001,0.001,0.001,000,0.001
2016-02-08,0.001,0.001,0.001,0.001,000,0.001
2016-02-05,0.001,0.001,0.001,0.001,000,0.001
2016-02-04,0.001,0.001,0.001,0.001,000,0.001
2016-02-03,0.001,0.001,0.001,0.001,000,0.001
2016-02-02,0.001,0.001,0.001,0.001,23800,0.001
2016-02-01,0.002,0.002,0.002,0.002,000,0.002
2016-01-29,0.002,0.002,0.002,0.002,253500,0.002
2016-01-28,0.002,0.002,0.002,0.002,000,0.002
2016-01-27,0.002,0.002,0.002,0.002,000,0.002
2016-01-26,0.002,0.002,0.002,0.002,000,0.002
2016-01-25,0.002,0.002,0.002,0.002,000,0.002
2016-01-22,0.002,0.002,0.002,0.002,000,0.002
2016-01-21,0.002,0.002,0.002,0.002,27300,0.002
2016-01-20,0.001,0.001,0.001,0.001,000,0.001
2016-01-19,0.001,0.001,0.001,0.001,000,0.001
2016-01-18,0.001,0.001,0.001,0.001,000,0.001
2016-01-15,0.001,0.001,0.001,0.001,000,0.001
2016-01-14,0.001,0.001,0.001,0.001,000,0.001
2016-01-13,0.001,0.001,0.001,0.001,000,0.001
2016-01-12,0.001,0.001,0.001,0.001,000,0.001
2016-01-11,0.001,0.001,0.001,0.001,000,0.001
2016-01-08,0.001,0.001,0.001,0.001,250000,0.001
2016-01-07,0.002,0.002,0.002,0.002,000,0.002
2016-01-06,0.002,0.002,0.002,0.002,000,0.002
2016-01-05,0.002,0.002,0.002,0.002,000,0.002
2016-01-04,0.002,0.002,0.002,0.002,000,0.002
2016-01-01,0.002,0.002,0.002,0.002,000,0.002
2015-12-31,0.002,0.002,0.002,0.002,000,0.002
2015-12-30,0.002,0.002,0.002,0.002,000,0.002
2015-12-29,0.002,0.002,0.002,0.002,1402600,0.002
2015-12-28,0.002,0.002,0.002,0.002,000,0.002
2015-12-25,0.002,0.002,0.002,0.002,000,0.002
2015-12-24,0.002,0.002,0.002,0.002,000,0.002
2015-12-23,0.002,0.002,0.002,0.002,000,0.002
2015-12-22,0.002,0.002,0.002,0.002,000,0.002
2015-12-21,0.002,0.002,0.002,0.002,000,0.002
2015-12-18,0.002,0.002,0.002,0.002,000,0.002
2015-12-17,0.002,0.002,0.002,0.002,000,0.002
2015-12-16,0.002,0.002,0.002,0.002,000,0.002
2015-12-15,0.002,0.002,0.002,0.002,000,0.002
2015-12-14,0.002,0.002,0.002,0.002,000,0.002
2015-12-11,0.002,0.002,0.002,0.002,000,0.002
2015-12-10,0.002,0.002,0.002,0.002,000,0.002
2015-12-09,0.002,0.002,0.002,0.002,000,0.002
2015-12-08,0.002,0.002,0.002,0.002,000,0.002
2015-12-07,0.002,0.002,0.002,0.002,000,0.002
2015-12-04,0.002,0.002,0.002,0.002,1597300,0.002
2015-12-03,0.004,0.004,0.004,0.004,000,0.004
2015-12-02,0.004,0.004,0.004,0.004,000,0.004
2015-12-01,0.004,0.004,0.004,0.004,000,0.004
2015-11-30,0.004,0.004,0.004,0.004,000,0.004
2015-11-27,0.004,0.004,0.004,0.004,000,0.004
2015-11-26,0.004,0.004,0.004,0.004,000,0.004
2015-11-25,0.003,0.004,0.003,0.004,1040000,0.004
2015-11-24,0.002,0.002,0.002,0.002,4004000,0.002
2015-11-23,0.001,0.001,0.001,0.001,000,0.001
2015-11-20,0.001,0.001,0.001,0.001,000,0.001
2015-11-19,0.001,0.001,0.001,0.001,000,0.001
2015-11-18,0.001,0.001,0.001,0.001,700000,0.001
2015-11-17,0.001,0.001,0.001,0.001,000,0.001
2015-11-16,0.001,0.001,0.001,0.001,000,0.001
2015-11-13,0.001,0.001,0.001,0.001,000,0.001
2015-11-12,0.001,0.001,0.001,0.001,000,0.001
2015-11-11,0.001,0.001,0.001,0.001,000,0.001
2015-11-10,0.001,0.001,0.001,0.001,000,0.001
2015-11-09,0.001,0.001,0.001,0.001,000,0.001
2015-11-06,0.001,0.001,0.001,0.001,000,0.001
2015-11-05,0.001,0.001,0.001,0.001,000,0.001
2015-11-04,0.001,0.001,0.001,0.001,000,0.001
2015-11-03,0.001,0.001,0.001,0.001,293300,0.001
2015-11-02,0.001,0.001,0.001,0.001,000,0.001
2015-10-30,0.001,0.001,0.001,0.001,000,0.001
2015-10-29,0.001,0.001,0.001,0.001,833300,0.001
2015-10-28,0.001,0.001,0.001,0.001,000,0.001
2015-10-27,0.001,0.001,0.001,0.001,000,0.001
2015-10-26,0.001,0.001,0.001,0.001,000,0.001
2015-10-23,0.001,0.001,0.001,0.001,000,0.001
2015-10-22,0.001,0.001,0.001,0.001,000,0.001
2015-10-21,0.001,0.001,0.001,0.001,000,0.001
2015-10-20,0.001,0.001,0.001,0.001,000,0.001
2015-10-19,0.001,0.001,0.001,0.001,000,0.001
2015-10-16,0.001,0.001,0.001,0.001,000,0.001
2015-10-15,0.001,0.001,0.001,0.001,000,0.001
2015-10-14,0.001,0.001,0.001,0.001,000,0.001
2015-10-13,0.001,0.001,0.001,0.001,000,0.001
2015-10-12,0.001,0.001,0.001,0.001,000,0.001
2015-10-09,0.001,0.001,0.001,0.001,1933300,0.001
2015-10-08,0.001,0.001,0.001,0.001,000,0.001
2015-10-07,0.001,0.001,0.001,0.001,000,0.001
2015-10-06,0.001,0.001,0.001,0.001,000,0.001
2015-10-05,0.001,0.001,0.001,0.001,000,0.001
2015-10-02,0.001,0.001,0.001,0.001,000,0.001
2015-10-01,0.001,0.001,0.001,0.001,000,0.001
2015-09-30,0.001,0.001,0.001,0.001,000,0.001
2015-09-29,0.001,0.001,0.001,0.001,000,0.001
2015-09-28,0.001,0.001,0.001,0.001,000,0.001
2015-09-25,0.001,0.001,0.001,0.001,000,0.001
2015-09-24,0.001,0.001,0.001,0.001,000,0.001
2015-09-23,0.001,0.001,0.001,0.001,000,0.001
2015-09-22,0.001,0.001,0.001,0.001,000,0.001
2015-09-21,0.001,0.001,0.001,0.001,000,0.001
2015-09-18,0.001,0.001,0.001,0.001,000,0.001
2015-09-17,0.001,0.001,0.001,0.001,000,0.001
2015-09-16,0.001,0.001,0.001,0.001,000,0.001
2015-09-15,0.001,0.001,0.001,0.001,000,0.001
2015-09-14,0.001,0.001,0.001,0.001,000,0.001
2015-09-11,0.001,0.001,0.001,0.001,000,0.001
2015-09-10,0.001,0.001,0.001,0.001,000,0.001
2015-09-09,0.001,0.001,0.001,0.001,000,0.001
2015-09-08,0.001,0.001,0.001,0.001,000,0.001
2015-09-07,0.001,0.001,0.001,0.001,000,0.001
2015-09-04,0.001,0.001,0.001,0.001,500000,0.001
2015-09-03,0.002,0.002,0.002,0.002,000,0.002
2015-09-02,0.002,0.002,0.002,0.002,000,0.002
2015-09-01,0.002,0.002,0.002,0.002,000,0.002
2015-08-31,0.002,0.002,0.002,0.002,000,0.002
2015-08-28,0.002,0.002,0.002,0.002,000,0.002
2015-08-27,0.002,0.002,0.002,0.002,000,0.002
2015-08-26,0.002,0.002,0.002,0.002,000,0.002
2015-08-25,0.002,0.002,0.002,0.002,000,0.002
2015-08-24,0.002,0.002,0.002,0.002,000,0.002
2015-08-20,0.002,0.002,0.002,0.002,300000,0.002
2015-08-19,0.001,0.001,0.001,0.001,000,0.001
2015-08-18,0.001,0.001,0.001,0.001,000,0.001
2015-08-17,0.001,0.001,0.001,0.001,000,0.001
2015-08-14,0.001,0.001,0.001,0.001,000,0.001
2015-08-13,0.001,0.001,0.001,0.001,000,0.001
2015-08-12,0.001,0.001,0.001,0.001,000,0.001
2015-08-11,0.001,0.001,0.001,0.001,000,0.001
2015-08-10,0.001,0.001,0.001,0.001,000,0.001
2015-08-07,0.001,0.001,0.001,0.001,000,0.001
2015-08-06,0.001,0.001,0.001,0.001,000,0.001
2015-08-05,0.001,0.001,0.001,0.001,000,0.001
2015-08-04,0.001,0.001,0.001,0.001,000,0.001
2015-08-03,0.001,0.001,0.001,0.001,000,0.001
2015-07-31,0.001,0.001,0.001,0.001,000,0.001
2015-07-30,0.001,0.001,0.001,0.001,000,0.001
2015-07-29,0.001,0.001,0.001,0.001,000,0.001
2015-07-28,0.001,0.001,0.001,0.001,000,0.001
2015-07-27,0.001,0.001,0.001,0.001,000,0.001
2015-07-24,0.001,0.001,0.001,0.001,000,0.001
2015-07-23,0.001,0.001,0.001,0.001,000,0.001
2015-07-22,0.001,0.001,0.001,0.001,000,0.001
2015-07-21,0.001,0.001,0.001,0.001,000,0.001
2015-07-20,0.001,0.001,0.001,0.001,000,0.001
2015-07-17,0.001,0.001,0.001,0.001,100000,0.001
2015-07-16,0.001,0.001,0.001,0.001,000,0.001
2015-07-15,0.001,0.001,0.001,0.001,000,0.001
2015-07-14,0.001,0.001,0.001,0.001,000,0.001
2015-07-13,0.001,0.001,0.001,0.001,3977000,0.001
2015-07-10,0.002,0.002,0.001,0.001,587700,0.001
2015-07-09,0.001,0.001,0.001,0.001,000,0.001
2015-07-08,0.001,0.001,0.001,0.001,000,0.001
2015-07-07,0.001,0.001,0.001,0.001,000,0.001
2015-07-06,0.001,0.001,0.001,0.001,000,0.001
2015-07-03,0.001,0.001,0.001,0.001,000,0.001
2015-07-02,0.001,0.001,0.001,0.001,000,0.001
2015-07-01,0.001,0.001,0.001,0.001,000,0.001
2015-06-30,0.001,0.001,0.001,0.001,000,0.001
2015-06-29,0.001,0.001,0.001,0.001,10000,0.001
2015-06-26,0.001,0.001,0.001,0.001,250000,0.001
2015-06-25,0.001,0.001,0.001,0.001,000,0.001
2015-06-24,0.001,0.001,0.001,0.001,000,0.001
2015-06-23,0.001,0.001,0.001,0.001,000,0.001
2015-06-22,0.001,0.001,0.001,0.001,000,0.001
2015-06-19,0.001,0.001,0.001,0.001,000,0.001
2015-06-18,0.001,0.001,0.001,0.001,000,0.001
2015-06-17,0.001,0.001,0.001,0.001,000,0.001
2015-06-16,0.001,0.001,0.001,0.001,62500,0.001
2015-06-15,0.002,0.002,0.002,0.002,000,0.002
2015-06-12,0.002,0.002,0.002,0.002,000,0.002
2015-06-11,0.002,0.002,0.002,0.002,540000,0.002
2015-06-10,0.001,0.001,0.001,0.001,000,0.001
2015-06-09,0.001,0.001,0.001,0.001,000,0.001
2015-06-08,0.001,0.001,0.001,0.001,000,0.001
2015-06-05,0.001,0.001,0.001,0.001,000,0.001
2015-06-04,0.001,0.001,0.001,0.001,300000,0.001
2015-06-03,0.002,0.002,0.002,0.002,50000,0.002
2015-06-02,0.002,0.002,0.001,0.002,877700,0.002
2015-06-01,0.002,0.002,0.002,0.002,000,0.002
2015-05-29,0.002,0.002,0.002,0.002,10000,0.002
2015-05-28,0.002,0.002,0.002,0.002,50000,0.002
2015-05-27,0.002,0.002,0.002,0.002,000,0.002
2015-05-26,0.002,0.002,0.002,0.002,000,0.002
2015-05-25,0.002,0.002,0.002,0.002,000,0.002
2015-05-22,0.002,0.002,0.002,0.002,000,0.002
2015-05-21,0.002,0.002,0.002,0.002,000,0.002
2015-05-20,0.002,0.002,0.002,0.002,315600,0.002
2015-05-19,0.002,0.002,0.002,0.002,000,0.002
2015-05-18,0.002,0.002,0.002,0.002,000,0.002
2015-05-15,0.002,0.002,0.002,0.002,000,0.002
2015-05-14,0.002,0.002,0.002,0.002,000,0.002
2015-05-13,0.002,0.002,0.002,0.002,000,0.002
2015-05-12,0.002,0.002,0.002,0.002,000,0.002
2015-05-11,0.002,0.002,0.002,0.002,000,0.002
2015-05-08,0.002,0.002,0.002,0.002,000,0.002
2015-05-07,0.002,0.002,0.002,0.002,000,0.002
2015-05-06,0.002,0.002,0.002,0.002,000,0.002
2015-05-05,0.002,0.002,0.002,0.002,000,0.002
2015-05-04,0.002,0.002,0.002,0.002,000,0.002
2015-05-01,0.002,0.002,0.002,0.002,000,0.002
2015-04-30,0.002,0.002,0.002,0.002,000,0.002
2015-04-29,0.002,0.002,0.002,0.002,386800,0.002
2015-04-28,0.002,0.002,0.002,0.002,250000,0.002
2015-04-27,0.002,0.002,0.002,0.002,1683200,0.002
2015-04-24,0.002,0.002,0.002,0.002,250000,0.002
2015-04-23,0.001,0.001,0.001,0.001,000,0.001
2015-04-22,0.001,0.001,0.001,0.001,000,0.001
2015-04-21,0.001,0.001,0.001,0.001,000,0.001
2015-04-20,0.001,0.001,0.001,0.001,000,0.001
2015-04-17,0.001,0.001,0.001,0.001,300000,0.001
2015-04-16,0.002,0.002,0.002,0.002,000,0.002
2015-04-15,0.002,0.002,0.002,0.002,000,0.002
2015-04-14,0.002,0.002,0.002,0.002,000,0.002
2015-04-13,0.002,0.002,0.002,0.002,000,0.002
2015-04-10,0.002,0.002,0.002,0.002,000,0.002
2015-04-09,0.002,0.002,0.002,0.002,000,0.002
2015-04-08,0.002,0.002,0.002,0.002,000,0.002
2015-04-07,0.002,0.002,0.002,0.002,000,0.002
2015-04-06,0.002,0.002,0.002,0.002,000,0.002
2015-04-03,0.002,0.002,0.002,0.002,000,0.002
2015-04-02,0.002,0.002,0.002,0.002,700000,0.002
2015-04-01,0.002,0.002,0.002,0.002,000,0.002
2015-03-31,0.002,0.002,0.002,0.002,000,0.002
2015-03-30,0.002,0.002,0.002,0.002,000,0.002
2015-03-27,0.002,0.002,0.002,0.002,000,0.002
2015-03-26,0.002,0.002,0.002,0.002,000,0.002
2015-03-25,0.002,0.002,0.002,0.002,000,0.002
2015-03-24,0.002,0.002,0.002,0.002,000,0.002
2015-03-23,0.002,0.002,0.002,0.002,1250000,0.002
2015-03-20,0.001,0.001,0.001,0.001,000,0.001
2015-03-19,0.001,0.001,0.001,0.001,000,0.001
2015-03-18,0.001,0.001,0.001,0.001,500000,0.001
2015-03-17,0.001,0.001,0.001,0.001,000,0.001
2015-03-16,0.001,0.001,0.001,0.001,000,0.001
2015-03-13,0.001,0.001,0.001,0.001,000,0.001
2015-03-12,0.001,0.001,0.001,0.001,000,0.001
2015-03-11,0.001,0.001,0.001,0.001,000,0.001
2015-03-10,0.001,0.001,0.001,0.001,120000,0.001
2015-03-09,0.002,0.002,0.002,0.002,000,0.002
2015-03-06,0.002,0.002,0.002,0.002,000,0.002
2015-03-05,0.002,0.002,0.002,0.002,000,0.002
2015-03-04,0.002,0.002,0.002,0.002,000,0.002
2015-03-03,0.002,0.002,0.002,0.002,000,0.002
2015-03-02,0.002,0.002,0.002,0.002,000,0.002
2015-02-27,0.002,0.002,0.002,0.002,2700,0.002
2015-02-26,0.002,0.002,0.002,0.002,115000,0.002
2015-02-25,0.002,0.002,0.002,0.002,000,0.002
2015-02-24,0.002,0.002,0.002,0.002,000,0.002
2015-02-23,0.002,0.002,0.002,0.002,000,0.002
2015-02-20,0.002,0.002,0.002,0.002,000,0.002
2015-02-19,0.002,0.002,0.002,0.002,000,0.002
2015-02-18,0.002,0.002,0.002,0.002,000,0.002
2015-02-17,0.002,0.002,0.002,0.002,000,0.002
2015-02-16,0.002,0.002,0.002,0.002,000,0.002
2015-02-13,0.002,0.002,0.002,0.002,000,0.002
2015-02-12,0.002,0.002,0.002,0.002,000,0.002
2015-02-11,0.002,0.002,0.002,0.002,000,0.002
2015-02-10,0.002,0.002,0.002,0.002,000,0.002
2015-02-09,0.002,0.002,0.002,0.002,000,0.002
2015-02-06,0.002,0.002,0.002,0.002,000,0.002
2015-02-05,0.002,0.002,0.002,0.002,000,0.002
2015-02-04,0.002,0.002,0.002,0.002,000,0.002
2015-02-03,0.002,0.002,0.002,0.002,000,0.002
2015-02-02,0.002,0.002,0.002,0.002,000,0.002
2015-01-30,0.002,0.002,0.002,0.002,000,0.002
2015-01-29,0.002,0.002,0.002,0.002,000,0.002
2015-01-28,0.002,0.002,0.002,0.002,000,0.002
2015-01-27,0.002,0.002,0.002,0.002,000,0.002
2015-01-26,0.002,0.002,0.002,0.002,000,0.002
2015-01-23,0.002,0.002,0.002,0.002,000,0.002
2015-01-22,0.002,0.002,0.002,0.002,000,0.002
2015-01-21,0.001,0.002,0.001,0.002,600000,0.002
2015-01-20,0.001,0.001,0.001,0.001,000,0.001
2015-01-19,0.004,0.004,0.001,0.001,850000,0.001
2015-01-16,0.002,0.002,0.002,0.002,000,0.002
2015-01-15,0.002,0.002,0.002,0.002,000,0.002
2015-01-14,0.002,0.002,0.002,0.002,000,0.002
2015-01-13,0.002,0.002,0.002,0.002,000,0.002
2015-01-12,0.002,0.002,0.002,0.002,000,0.002
2015-01-09,0.002,0.002,0.002,0.002,000,0.002
2015-01-08,0.002,0.002,0.002,0.002,000,0.002
2015-01-07,0.002,0.002,0.002,0.002,000,0.002
2015-01-06,0.002,0.002,0.002,0.002,000,0.002
2015-01-05,0.002,0.002,0.002,0.002,000,0.002
2015-01-02,0.002,0.002,0.002,0.002,000,0.002
2015-01-01,0.002,0.002,0.002,0.002,000,0.002
2014-12-31,0.002,0.002,0.002,0.002,000,0.002
2014-12-30,0.002,0.002,0.002,0.002,000,0.002
2014-12-29,0.002,0.002,0.002,0.002,000,0.002
2014-12-26,0.002,0.002,0.002,0.002,000,0.002
2014-12-25,0.002,0.002,0.002,0.002,000,0.002
2014-12-24,0.002,0.002,0.002,0.002,000,0.002
2014-12-23,0.002,0.002,0.002,0.002,000,0.002
2014-12-22,0.002,0.002,0.002,0.002,000,0.002
2014-12-19,0.002,0.002,0.002,0.002,000,0.002
2014-12-18,0.002,0.002,0.002,0.002,000,0.002
2014-12-17,0.002,0.002,0.002,0.002,000,0.002
2014-12-16,0.002,0.002,0.002,0.002,000,0.002
2014-12-15,0.002,0.002,0.002,0.002,000,0.002
2014-12-12,0.002,0.002,0.002,0.002,000,0.002
2014-12-11,0.002,0.002,0.002,0.002,000,0.002
2014-12-10,0.002,0.002,0.002,0.002,000,0.002
2014-12-09,0.002,0.002,0.002,0.002,000,0.002
2014-12-08,0.002,0.002,0.002,0.002,000,0.002
2014-12-05,0.002,0.002,0.002,0.002,000,0.002
2014-12-04,0.002,0.002,0.002,0.002,000,0.002
2014-12-03,0.002,0.002,0.002,0.002,364900,0.002
2014-12-02,0.002,0.002,0.002,0.002,3000000,0.002
2014-12-01,0.003,0.003,0.003,0.003,000,0.003
2014-11-28,0.003,0.003,0.003,0.003,000,0.003
2014-11-27,0.003,0.003,0.003,0.003,000,0.003
2014-11-26,0.003,0.003,0.003,0.003,000,0.003
2014-11-25,0.003,0.003,0.003,0.003,000,0.003
2014-11-24,0.003,0.003,0.003,0.003,000,0.003
2014-11-21,0.003,0.003,0.003,0.003,000,0.003
2014-11-20,0.003,0.003,0.003,0.003,000,0.003
2014-11-19,0.003,0.003,0.003,0.003,000,0.003
2014-11-18,0.003,0.003,0.003,0.003,000,0.003
2014-11-17,0.003,0.003,0.003,0.003,100,0.003
2014-11-14,0.005,0.005,0.005,0.005,000,0.005
2014-11-13,0.005,0.005,0.005,0.005,000,0.005
2014-11-12,0.005,0.005,0.005,0.005,000,0.005
2014-11-11,0.005,0.005,0.005,0.005,000,0.005
2014-11-10,0.005,0.005,0.005,0.005,000,0.005
2014-11-07,0.005,0.005,0.005,0.005,000,0.005
2014-11-06,0.005,0.005,0.005,0.005,000,0.005
2014-11-05,0.005,0.005,0.005,0.005,000,0.005
2014-11-04,0.005,0.005,0.005,0.005,000,0.005
2014-11-03,0.005,0.005,0.005,0.005,000,0.005
2014-10-31,0.005,0.005,0.005,0.005,000,0.005
2014-10-30,0.005,0.005,0.005,0.005,000,0.005
2014-10-29,0.005,0.005,0.005,0.005,000,0.005
2014-10-28,0.005,0.005,0.005,0.005,000,0.005
2014-10-27,0.005,0.005,0.005,0.005,000,0.005
2014-10-24,0.005,0.005,0.005,0.005,000,0.005
2014-10-23,0.005,0.005,0.005,0.005,000,0.005
2014-10-22,0.005,0.005,0.005,0.005,000,0.005
2014-10-21,0.005,0.005,0.005,0.005,000,0.005
2014-10-20,0.005,0.005,0.005,0.005,000,0.005
2014-10-17,0.005,0.005,0.005,0.005,1000000,0.005
2014-10-16,0.006,0.006,0.006,0.006,000,0.006
2014-10-15,0.006,0.006,0.006,0.006,000,0.006
2014-10-14,0.006,0.006,0.006,0.006,000,0.006
2014-10-13,0.006,0.006,0.006,0.006,000,0.006
2014-10-10,0.006,0.006,0.006,0.006,000,0.006
2014-10-09,0.006,0.006,0.006,0.006,000,0.006
2014-10-08,0.006,0.006,0.006,0.006,000,0.006
2014-10-07,0.006,0.006,0.006,0.006,000,0.006
2014-10-06,0.006,0.006,0.006,0.006,000,0.006
2014-10-03,0.006,0.006,0.006,0.006,000,0.006
2014-10-02,0.006,0.006,0.006,0.006,000,0.006
2014-10-01,0.006,0.006,0.006,0.006,000,0.006
2014-09-30,0.006,0.006,0.006,0.006,000,0.006
2014-09-29,0.006,0.006,0.006,0.006,000,0.006
2014-09-26,0.006,0.006,0.006,0.006,50000,0.006
2014-09-25,0.005,0.005,0.005,0.005,000,0.005
2014-09-24,0.005,0.005,0.005,0.005,000,0.005
2014-09-23,0.005,0.005,0.005,0.005,000,0.005
2014-09-22,0.005,0.005,0.005,0.005,000,0.005
2014-09-19,0.005,0.005,0.005,0.005,000,0.005
2014-09-18,0.005,0.005,0.005,0.005,000,0.005
2014-09-17,0.005,0.005,0.005,0.005,000,0.005
2014-09-16,0.005,0.005,0.005,0.005,135000,0.005
2014-09-15,0.005,0.005,0.005,0.005,000,0.005
2014-09-12,0.005,0.005,0.005,0.005,000,0.005
2014-09-11,0.005,0.005,0.005,0.005,000,0.005
2014-09-10,0.005,0.005,0.005,0.005,15000,0.005
2014-09-09,0.006,0.006,0.006,0.006,000,0.006
2014-09-08,0.006,0.006,0.006,0.006,000,0.006
2014-09-05,0.006,0.006,0.006,0.006,000,0.006
2014-09-04,0.006,0.006,0.006,0.006,100000,0.006
2014-09-03,0.005,0.005,0.005,0.005,000,0.005
2014-09-02,0.005,0.005,0.005,0.005,000,0.005
2014-09-01,0.005,0.005,0.005,0.005,000,0.005
2014-08-29,0.005,0.005,0.005,0.005,59900,0.005
2014-08-28,0.009,0.009,0.009,0.009,000,0.009
2014-08-27,0.009,0.009,0.009,0.009,000,0.009
2014-08-26,0.009,0.009,0.009,0.009,000,0.009
2014-08-25,0.009,0.009,0.009,0.009,000,0.009
2014-08-22,0.009,0.009,0.009,0.009,000,0.009
2014-08-21,0.009,0.009,0.009,0.009,000,0.009
2014-08-20,0.009,0.009,0.009,0.009,000,0.009
2014-08-19,0.009,0.009,0.009,0.009,000,0.009
2014-08-18,0.009,0.009,0.009,0.009,000,0.009
2014-08-15,0.009,0.009,0.009,0.009,000,0.009
2014-08-14,0.009,0.009,0.009,0.009,000,0.009
2014-08-13,0.009,0.009,0.009,0.009,000,0.009
2014-08-12,0.009,0.009,0.009,0.009,000,0.009
2014-08-11,0.009,0.009,0.009,0.009,000,0.009
2014-08-08,0.009,0.009,0.009,0.009,000,0.009
2014-08-07,0.009,0.009,0.009,0.009,000,0.009
2014-08-06,0.00557,0.00557,0.00557,0.00557,80700,0.00557
2014-08-05,0.00619,0.00619,0.00619,0.00619,000,0.00619
2014-08-04,0.00619,0.00619,0.00619,0.00619,000,0.00619
2014-08-01,0.00619,0.00619,0.00619,0.00619,000,0.00619
2014-07-31,0.00619,0.00619,0.00619,0.00619,000,0.00619
2014-07-30,0.00619,0.00619,0.00619,0.00619,000,0.00619
2014-07-29,0.00619,0.00619,0.00619,0.00619,000,0.00619
2014-07-28,0.00619,0.00619,0.00619,0.00619,000,0.00619
2014-07-25,0.00619,0.00619,0.00619,0.00619,000,0.00619
2014-07-24,0.00619,0.00619,0.00619,0.00619,000,0.00619
2014-07-23,0.00619,0.00619,0.00619,0.00619,000,0.00619
2014-07-22,0.00619,0.00619,0.00619,0.00619,000,0.00619
2014-07-21,0.00619,0.00619,0.00619,0.00619,000,0.00619
2014-07-18,0.00619,0.00619,0.00619,0.00619,000,0.00619
2014-07-17,0.00619,0.00619,0.00619,0.00619,000,0.00619
2014-07-16,0.00619,0.00619,0.00619,0.00619,000,0.00619
2014-07-15,0.00619,0.00619,0.00619,0.00619,000,0.00619
2014-07-14,0.00619,0.00619,0.00619,0.00619,000,0.00619
2014-07-11,0.00619,0.00619,0.00619,0.00619,242300,0.00619
2014-07-10,0.00743,0.00743,0.00743,0.00743,000,0.00743
2014-07-09,0.00743,0.00743,0.00743,0.00743,000,0.00743
2014-07-08,0.00743,0.00743,0.00743,0.00743,000,0.00743
2014-07-07,0.00743,0.00743,0.00743,0.00743,000,0.00743
2014-07-04,0.00743,0.00743,0.00743,0.00743,000,0.00743
2014-07-03,0.00743,0.00743,0.00743,0.00743,000,0.00743
2014-07-02,0.00743,0.00743,0.00743,0.00743,000,0.00743
2014-07-01,0.00743,0.00743,0.00743,0.00743,000,0.00743
2014-06-30,0.00743,0.00743,0.00743,0.00743,000,0.00743
2014-06-27,0.00743,0.00743,0.00743,0.00743,000,0.00743
2014-06-26,0.00681,0.00743,0.00681,0.00743,424000,0.00743
2014-06-25,0.00557,0.00557,0.00557,0.00557,000,0.00557
2014-06-24,0.00557,0.00557,0.00557,0.00557,484600,0.00557
2014-06-23,0.00619,0.00619,0.00619,0.00619,222100,0.00619
2014-06-20,0.00805,0.00805,0.00805,0.00805,218000,0.00805
2014-06-19,0.00805,0.00805,0.00805,0.00805,161500,0.00805
2014-06-18,0.00928,0.00928,0.00928,0.00928,000,0.00928
2014-06-17,0.00928,0.00928,0.00928,0.00928,000,0.00928
2014-06-16,0.00928,0.00928,0.00928,0.00928,000,0.00928
2014-06-13,0.00928,0.00928,0.00928,0.00928,105000,0.00928
2014-06-12,0.01238,0.01238,0.00928,0.00928,403800,0.00928
2014-06-11,0.01238,0.01238,0.01238,0.01238,161500,0.01238
2014-06-10,0.0619,0.0619,0.0619,0.0619,000,0.0619
2014-06-09,0.0619,0.0619,0.0619,0.0619,000,0.0619
2014-06-06,0.0619,0.0619,0.0619,0.0619,000,0.0619
2014-06-05,0.0619,0.0619,0.0619,0.0619,000,0.0619
2014-06-04,0.0619,0.0619,0.0619,0.0619,000,0.0619
2014-06-03,0.0619,0.0619,0.0619,0.0619,000,0.0619
2014-06-02,0.0619,0.0619,0.0619,0.0619,000,0.0619
2014-05-30,0.0619,0.0619,0.0619,0.0619,000,0.0619
2014-05-29,0.0619,0.0619,0.0619,0.0619,000,0.0619
2014-05-28,0.0619,0.0619,0.0619,0.0619,000,0.0619
2014-05-27,0.0619,0.0619,0.0619,0.0619,000,0.0619
2014-05-26,0.0619,0.0619,0.0619,0.0619,000,0.0619
2014-05-23,0.0619,0.0619,0.0619,0.0619,000,0.0619
2014-05-22,0.0619,0.0619,0.0619,0.0619,000,0.0619
2014-05-21,0.0619,0.0619,0.0619,0.0619,000,0.0619
2014-05-20,0.0619,0.0619,0.0619,0.0619,000,0.0619
2014-05-19,0.0619,0.0619,0.0619,0.0619,000,0.0619
2014-05-16,0.0619,0.0619,0.0619,0.0619,000,0.0619
2014-05-15,0.0619,0.0619,0.0619,0.0619,000,0.0619
2014-05-14,0.0619,0.0619,0.0619,0.0619,000,0.0619
2014-05-13,0.0619,0.0619,0.0619,0.0619,000,0.0619
2014-05-12,0.0619,0.0619,0.0619,0.0619,000,0.0619
2014-05-09,0.0619,0.0619,0.0619,0.0619,000,0.0619
2014-05-08,0.0619,0.0619,0.0619,0.0619,000,0.0619
2014-05-07,0.0619,0.0619,0.0619,0.0619,000,0.0619
2014-05-06,0.0619,0.0619,0.0619,0.0619,000,0.0619
2014-05-05,0.0619,0.0619,0.0619,0.0619,000,0.0619
2014-05-02,0.0619,0.0619,0.0619,0.0619,000,0.0619
2014-05-01,0.0619,0.0619,0.0619,0.0619,000,0.0619
2014-04-30,0.0619,0.0619,0.0619,0.0619,000,0.0619
2014-04-29,0.0619,0.0619,0.0619,0.0619,000,0.0619
2014-04-28,0.0619,0.0619,0.0619,0.0619,000,0.0619
2014-04-25,0.0619,0.0619,0.0619,0.0619,000,0.0619
2014-04-24,0.0619,0.0619,0.0619,0.0619,000,0.0619
2014-04-23,0.0619,0.0619,0.0619,0.0619,000,0.0619
2014-04-22,0.0619,0.0619,0.0619,0.0619,000,0.0619
2014-04-21,0.0619,0.0619,0.0619,0.0619,000,0.0619
2014-04-18,0.0619,0.0619,0.0619,0.0619,000,0.0619
2014-04-17,0.0619,0.0619,0.0619,0.0619,000,0.0619
2014-04-16,0.0619,0.0619,0.0619,0.0619,000,0.0619
2014-04-15,0.0619,0.0619,0.0619,0.0619,000,0.0619
2014-04-14,0.0619,0.0619,0.0619,0.0619,000,0.0619
2014-04-11,0.0619,0.0619,0.0619,0.0619,000,0.0619
2014-04-10,0.0619,0.0619,0.0619,0.0619,000,0.0619
2014-04-09,0.0619,0.0619,0.0619,0.0619,000,0.0619
2014-04-08,0.0619,0.0619,0.0619,0.0619,000,0.0619
2014-04-07,0.0619,0.0619,0.0619,0.0619,000,0.0619
2014-04-04,0.0619,0.0619,0.0619,0.0619,000,0.0619
2014-04-03,0.0619,0.0619,0.0619,0.0619,000,0.0619
2014-04-02,0.0619,0.0619,0.0619,0.0619,000,0.0619
2014-04-01,0.0619,0.0619,0.0619,0.0619,000,0.0619
2014-03-31,0.0619,0.0619,0.0619,0.0619,000,0.0619
2014-03-28,0.0619,0.0619,0.0619,0.0619,000,0.0619
2014-03-27,0.0619,0.0619,0.0619,0.0619,000,0.0619
2014-03-26,0.0619,0.0619,0.0619,0.0619,000,0.0619
2014-03-25,0.0619,0.0619,0.0619,0.0619,000,0.0619
2014-03-24,0.0619,0.0619,0.0619,0.0619,000,0.0619
2014-03-21,0.0619,0.0619,0.0619,0.0619,000,0.0619
2014-03-20,0.0619,0.0619,0.0619,0.0619,000,0.0619
2014-03-19,0.0619,0.0619,0.0619,0.0619,000,0.0619
2014-03-18,0.0619,0.0619,0.0619,0.0619,000,0.0619
2014-03-17,0.0619,0.0619,0.0619,0.0619,000,0.0619
2014-03-14,0.0619,0.0619,0.0619,0.0619,000,0.0619
2014-03-13,0.0619,0.0619,0.0619,0.0619,000,0.0619
2014-03-12,0.0619,0.0619,0.0619,0.0619,000,0.0619
2014-03-11,0.0619,0.0619,0.0619,0.0619,64600,0.0619
2014-03-10,0.10213,0.10213,0.10213,0.10213,000,0.10213
2014-03-07,0.10213,0.10213,0.10213,0.10213,000,0.10213
2014-03-06,0.10213,0.10213,0.10213,0.10213,000,0.10213
2014-03-05,0.10213,0.10213,0.10213,0.10213,000,0.10213
2014-03-04,0.10213,0.10213,0.10213,0.10213,000,0.10213
2014-03-03,0.10213,0.10213,0.10213,0.10213,000,0.10213
2014-02-28,0.10213,0.10213,0.10213,0.10213,000,0.10213
2014-02-27,0.10213,0.10213,0.10213,0.10213,000,0.10213
2014-02-26,0.10213,0.10213,0.10213,0.10213,000,0.10213
2014-02-25,0.10213,0.10213,0.10213,0.10213,000,0.10213
2014-02-24,0.10213,0.10213,0.10213,0.10213,000,0.10213
2014-02-21,0.10213,0.10213,0.10213,0.10213,000,0.10213
2014-02-20,0.10213,0.10213,0.10213,0.10213,000,0.10213
2014-02-19,0.10213,0.10213,0.10213,0.10213,000,0.10213
2014-02-18,0.10213,0.10213,0.10213,0.10213,000,0.10213
2014-02-17,0.10213,0.10213,0.10213,0.10213,000,0.10213
2014-02-14,0.10213,0.10213,0.10213,0.10213,000,0.10213
2014-02-13,0.10213,0.10213,0.10213,0.10213,000,0.10213
2014-02-12,0.10213,0.10213,0.10213,0.10213,000,0.10213
2014-02-11,0.10213,0.10213,0.10213,0.10213,000,0.10213
2014-02-10,0.10213,0.10213,0.10213,0.10213,000,0.10213
2014-02-07,0.10213,0.10213,0.10213,0.10213,000,0.10213
2014-02-06,0.10213,0.10213,0.10213,0.10213,000,0.10213
2014-02-05,0.10213,0.10213,0.10213,0.10213,000,0.10213
2014-02-04,0.10213,0.10213,0.10213,0.10213,000,0.10213
2014-02-03,0.10213,0.10213,0.10213,0.10213,000,0.10213
2014-01-31,0.10213,0.10213,0.10213,0.10213,000,0.10213
2014-01-30,0.10213,0.10213,0.10213,0.10213,000,0.10213
2014-01-29,0.10213,0.10213,0.10213,0.10213,000,0.10213
2014-01-28,0.10213,0.10213,0.10213,0.10213,000,0.10213
2014-01-27,0.10213,0.10213,0.10213,0.10213,000,0.10213
2014-01-24,0.10213,0.10213,0.10213,0.10213,000,0.10213
2014-01-23,0.10213,0.10213,0.10213,0.10213,000,0.10213
2014-01-22,0.10213,0.10213,0.10213,0.10213,000,0.10213
2014-01-21,0.10213,0.10213,0.10213,0.10213,000,0.10213
2014-01-20,0.10213,0.10213,0.10213,0.10213,000,0.10213
2014-01-17,0.10213,0.10213,0.10213,0.10213,000,0.10213
2014-01-16,0.10213,0.10213,0.10213,0.10213,000,0.10213
2014-01-15,0.10213,0.10213,0.10213,0.10213,000,0.10213
2014-01-14,0.10213,0.10213,0.10213,0.10213,000,0.10213
2014-01-13,0.10213,0.10213,0.10213,0.10213,000,0.10213
2014-01-10,0.10213,0.10213,0.10213,0.10213,000,0.10213
2014-01-09,0.10213,0.10213,0.10213,0.10213,000,0.10213
2014-01-08,0.10213,0.10213,0.10213,0.10213,000,0.10213
2014-01-07,0.10213,0.10213,0.10213,0.10213,000,0.10213
2014-01-06,0.10213,0.10213,0.10213,0.10213,000,0.10213
2014-01-03,0.10213,0.10213,0.10213,0.10213,000,0.10213
2014-01-02,0.10213,0.10213,0.10213,0.10213,000,0.10213
2014-01-01,0.10213,0.10213,0.10213,0.10213,000,0.10213
2013-12-31,0.10213,0.10213,0.10213,0.10213,000,0.10213
2013-12-30,0.10213,0.10213,0.10213,0.10213,000,0.10213
2013-12-27,0.10213,0.10213,0.10213,0.10213,000,0.10213
2013-12-26,0.10213,0.10213,0.10213,0.10213,000,0.10213
2013-12-25,0.10213,0.10213,0.10213,0.10213,000,0.10213
2013-12-24,0.10213,0.10213,0.10213,0.10213,000,0.10213
2013-12-23,0.10213,0.10213,0.10213,0.10213,000,0.10213
2013-12-20,0.10213,0.10213,0.10213,0.10213,000,0.10213
2013-12-19,0.10213,0.10213,0.10213,0.10213,000,0.10213
2013-12-18,0.10213,0.10213,0.10213,0.10213,000,0.10213
2013-12-17,0.10213,0.10213,0.10213,0.10213,000,0.10213
2013-12-16,0.10213,0.10213,0.10213,0.10213,000,0.10213
2013-12-13,0.10213,0.10213,0.10213,0.10213,000,0.10213
2013-12-12,0.10213,0.10213,0.10213,0.10213,000,0.10213
2013-12-11,0.10213,0.10213,0.10213,0.10213,000,0.10213
2013-12-10,0.10213,0.10213,0.10213,0.10213,000,0.10213
2013-12-09,0.10213,0.10213,0.10213,0.10213,000,0.10213
2013-12-06,0.10213,0.10213,0.10213,0.10213,000,0.10213
2013-12-05,0.10213,0.10213,0.10213,0.10213,000,0.10213
2013-12-04,0.10213,0.10213,0.10213,0.10213,000,0.10213
2013-12-03,0.10213,0.10213,0.10213,0.10213,000,0.10213
2013-12-02,0.10213,0.10213,0.10213,0.10213,000,0.10213
2013-11-29,0.10213,0.10213,0.10213,0.10213,000,0.10213
2013-11-28,0.10213,0.10213,0.10213,0.10213,000,0.10213
2013-11-27,0.10213,0.10213,0.10213,0.10213,000,0.10213
2013-11-26,0.10213,0.10213,0.10213,0.10213,000,0.10213
2013-11-25,0.10213,0.10213,0.10213,0.10213,000,0.10213
2013-11-22,0.10213,0.10213,0.10213,0.10213,000,0.10213
2013-11-21,0.10213,0.10213,0.10213,0.10213,000,0.10213
2013-11-20,0.10213,0.10213,0.10213,0.10213,000,0.10213
2013-11-19,0.10213,0.10213,0.10213,0.10213,000,0.10213
2013-11-18,0.10213,0.10213,0.10213,0.10213,000,0.10213
2013-11-15,0.10213,0.10213,0.10213,0.10213,000,0.10213
2013-11-14,0.10213,0.10213,0.10213,0.10213,000,0.10213
2013-11-13,0.10213,0.10213,0.10213,0.10213,000,0.10213
2013-11-12,0.10213,0.10213,0.10213,0.10213,000,0.10213
2013-11-11,0.10213,0.10213,0.10213,0.10213,000,0.10213
2013-11-08,0.10213,0.10213,0.10213,0.10213,000,0.10213
2013-11-07,0.10213,0.10213,0.10213,0.10213,000,0.10213
2013-11-06,0.10213,0.10213,0.10213,0.10213,000,0.10213
2013-11-05,0.10213,0.10213,0.10213,0.10213,000,0.10213
2013-11-04,0.10213,0.10213,0.10213,0.10213,000,0.10213
2013-11-01,0.10213,0.10213,0.10213,0.10213,000,0.10213
2013-10-31,0.10213,0.10213,0.10213,0.10213,000,0.10213
2013-10-30,0.10213,0.10213,0.10213,0.10213,000,0.10213
2013-10-29,0.10213,0.10213,0.10213,0.10213,000,0.10213
2013-10-28,0.10213,0.10213,0.10213,0.10213,000,0.10213
2013-10-25,0.10213,0.10213,0.10213,0.10213,000,0.10213
2013-10-24,0.10213,0.10213,0.10213,0.10213,000,0.10213
2013-10-23,0.10213,0.10213,0.10213,0.10213,000,0.10213
2013-10-22,0.10213,0.10213,0.10213,0.10213,000,0.10213
2013-10-21,0.10213,0.10213,0.10213,0.10213,000,0.10213
2013-10-18,0.10213,0.10213,0.10213,0.10213,000,0.10213
2013-10-17,0.10213,0.10213,0.10213,0.10213,000,0.10213
2013-10-16,0.10213,0.10213,0.10213,0.10213,000,0.10213
2013-10-15,0.10213,0.10213,0.10213,0.10213,000,0.10213
2013-10-14,0.10213,0.10213,0.10213,0.10213,000,0.10213
2013-10-11,0.10213,0.10213,0.10213,0.10213,000,0.10213
2013-10-10,0.10213,0.10213,0.10213,0.10213,000,0.10213
2013-10-09,0.10213,0.10213,0.10213,0.10213,000,0.10213
2013-10-08,0.10213,0.10213,0.10213,0.10213,000,0.10213
2013-10-07,0.10213,0.10213,0.10213,0.10213,000,0.10213
2013-10-04,0.10213,0.10213,0.10213,0.10213,000,0.10213
2013-10-03,0.10213,0.10213,0.10213,0.10213,000,0.10213
2013-10-02,0.10213,0.10213,0.10213,0.10213,000,0.10213
2013-10-01,0.10213,0.10213,0.10213,0.10213,000,0.10213
2013-09-30,0.10213,0.10213,0.10213,0.10213,000,0.10213
2013-09-27,0.10213,0.10213,0.10213,0.10213,000,0.10213
2013-09-26,0.10213,0.10213,0.10213,0.10213,000,0.10213
2013-09-25,0.10213,0.10213,0.10213,0.10213,000,0.10213
2013-09-24,0.10213,0.10213,0.10213,0.10213,000,0.10213
2013-09-23,0.10213,0.10213,0.10213,0.10213,000,0.10213
2013-09-20,0.10213,0.10213,0.10213,0.10213,000,0.10213
2013-09-19,0.10213,0.10213,0.10213,0.10213,000,0.10213
2013-09-18,0.10213,0.10213,0.10213,0.10213,000,0.10213
2013-09-17,0.10213,0.10213,0.10213,0.10213,000,0.10213
2013-09-16,0.10213,0.10213,0.10213,0.10213,000,0.10213
2013-09-13,0.10213,0.10213,0.10213,0.10213,000,0.10213
2013-09-12,0.10213,0.10213,0.10213,0.10213,000,0.10213
2013-09-11,0.10213,0.10213,0.10213,0.10213,000,0.10213
2013-09-10,0.10213,0.10213,0.10213,0.10213,000,0.10213
2013-09-09,0.10213,0.10213,0.10213,0.10213,000,0.10213
2013-09-06,0.10213,0.10213,0.10213,0.10213,000,0.10213
2013-09-05,0.10213,0.10213,0.10213,0.10213,000,0.10213
2013-09-04,0.10213,0.10213,0.10213,0.10213,000,0.10213
2013-09-03,0.10213,0.10213,0.10213,0.10213,000,0.10213
2013-09-02,0.10213,0.10213,0.10213,0.10213,000,0.10213
2013-08-30,0.10213,0.10213,0.10213,0.10213,000,0.10213
2013-08-29,0.10213,0.10213,0.10213,0.10213,000,0.10213
2013-08-28,0.10213,0.10213,0.10213,0.10213,000,0.10213
2013-08-27,0.10213,0.10213,0.10213,0.10213,000,0.10213
2013-08-26,0.10213,0.10213,0.10213,0.10213,000,0.10213
2013-08-23,0.10213,0.10213,0.10213,0.10213,000,0.10213
2013-08-22,0.10213,0.10213,0.10213,0.10213,000,0.10213
2013-08-21,0.10213,0.10213,0.10213,0.10213,000,0.10213
2013-08-20,0.10213,0.10213,0.10213,0.10213,000,0.10213
2013-08-19,0.10213,0.10213,0.10213,0.10213,000,0.10213
2013-08-16,0.10213,0.10213,0.10213,0.10213,000,0.10213
2013-08-15,0.10213,0.10213,0.10213,0.10213,000,0.10213
2013-08-14,0.10213,0.10213,0.10213,0.10213,000,0.10213
2013-08-13,0.10213,0.10213,0.10213,0.10213,000,0.10213
2013-08-12,0.10213,0.10213,0.10213,0.10213,000,0.10213
2013-08-09,0.10213,0.10213,0.10213,0.10213,000,0.10213
2013-08-08,0.10213,0.10213,0.10213,0.10213,000,0.10213
2013-08-07,0.10213,0.10213,0.10213,0.10213,000,0.10213
2013-08-06,0.10213,0.10213,0.10213,0.10213,000,0.10213
2013-08-05,0.10213,0.10213,0.10213,0.10213,000,0.10213
2013-08-02,0.10213,0.10213,0.10213,0.10213,000,0.10213
2013-08-01,0.10213,0.10213,0.10213,0.10213,000,0.10213
2013-07-31,0.10213,0.10213,0.10213,0.10213,000,0.10213
2013-07-30,0.10213,0.10213,0.10213,0.10213,000,0.10213
2013-07-29,0.10213,0.10213,0.10213,0.10213,000,0.10213
2013-07-26,0.10213,0.10213,0.10213,0.10213,000,0.10213
2013-07-25,0.10213,0.10213,0.10213,0.10213,000,0.10213
2013-07-24,0.10213,0.10213,0.10213,0.10213,000,0.10213
2013-07-23,0.10213,0.10213,0.10213,0.10213,000,0.10213
2013-07-22,0.10213,0.10213,0.10213,0.10213,000,0.10213
2013-07-19,0.10213,0.10213,0.10213,0.10213,000,0.10213
2013-07-18,0.10213,0.10213,0.10213,0.10213,000,0.10213
2013-07-17,0.10213,0.10213,0.10213,0.10213,000,0.10213
2013-07-16,0.10213,0.10213,0.10213,0.10213,000,0.10213
2013-07-15,0.10213,0.10213,0.10213,0.10213,000,0.10213
2013-07-12,0.10213,0.10213,0.10213,0.10213,000,0.10213
2013-07-11,0.10213,0.10213,0.10213,0.10213,000,0.10213
2013-07-10,0.10213,0.10213,0.10213,0.10213,000,0.10213
2013-07-09,0.10213,0.10213,0.10213,0.10213,000,0.10213
2013-07-08,0.10213,0.10213,0.10213,0.10213,000,0.10213
2013-07-05,0.10213,0.10213,0.10213,0.10213,000,0.10213
2013-07-04,0.10213,0.10213,0.10213,0.10213,000,0.10213
2013-07-03,0.10213,0.10213,0.10213,0.10213,000,0.10213
2013-07-02,0.10213,0.10213,0.10213,0.10213,000,0.10213
2013-07-01,0.10213,0.10213,0.10213,0.10213,000,0.10213
2013-06-28,0.10213,0.10213,0.10213,0.10213,000,0.10213
2013-06-27,0.10213,0.10213,0.10213,0.10213,000,0.10213
2013-06-26,0.10213,0.10213,0.10213,0.10213,000,0.10213
2013-06-25,0.10213,0.10213,0.10213,0.10213,000,0.10213
2013-06-24,0.10213,0.10213,0.10213,0.10213,000,0.10213
2013-06-21,0.10213,0.10213,0.10213,0.10213,000,0.10213
2013-06-20,0.10213,0.10213,0.10213,0.10213,000,0.10213
2013-06-19,0.10213,0.10213,0.10213,0.10213,000,0.10213
2013-06-18,0.10213,0.10213,0.10213,0.10213,000,0.10213
2013-06-17,0.10213,0.10213,0.10213,0.10213,000,0.10213
2013-06-14,0.10213,0.10213,0.10213,0.10213,000,0.10213
2013-06-13,0.10213,0.10213,0.10213,0.10213,000,0.10213
2013-06-12,0.10213,0.10213,0.10213,0.10213,000,0.10213
2013-06-11,0.10213,0.10213,0.10213,0.10213,000,0.10213
2013-06-10,0.10213,0.10213,0.10213,0.10213,000,0.10213
2013-06-07,0.10213,0.10213,0.10213,0.10213,000,0.10213
2013-06-06,0.10213,0.10213,0.10213,0.10213,000,0.10213
2013-06-05,0.10213,0.10213,0.10213,0.10213,000,0.10213
2013-06-04,0.10213,0.10213,0.10213,0.10213,000,0.10213
2013-06-03,0.10213,0.10213,0.10213,0.10213,000,0.10213
2013-05-31,0.10213,0.10213,0.10213,0.10213,000,0.10213
2013-05-30,0.10213,0.10213,0.10213,0.10213,000,0.10213
2013-05-29,0.10213,0.10213,0.10213,0.10213,000,0.10213
2013-05-28,0.10213,0.10213,0.10213,0.10213,000,0.10213
2013-05-27,0.10213,0.10213,0.10213,0.10213,000,0.10213
2013-05-24,0.10213,0.10213,0.10213,0.10213,000,0.10213
2013-05-23,0.09285,0.10213,0.09285,0.10213,290700,0.10213
2013-05-22,0.10213,0.10213,0.10213,0.10213,161500,0.10213
2013-05-21,0.10213,0.10213,0.10213,0.10213,000,0.10213
2013-05-20,0.10213,0.10213,0.10213,0.10213,185700,0.10213
2013-05-17,0.10213,0.10213,0.10213,0.10213,000,0.10213
2013-05-16,0.10213,0.10213,0.10213,0.10213,000,0.10213
2013-05-15,0.10213,0.10213,0.10213,0.10213,32300,0.10213
2013-05-14,0.10213,0.10213,0.09904,0.09904,452300,0.09904
2013-05-13,0.09904,0.09904,0.09904,0.09904,80700,0.09904
2013-05-10,0.09594,0.09594,0.09594,0.09594,72600,0.09594
2013-05-09,0.08666,0.08666,0.08666,0.08666,000,0.08666
2013-05-08,0.08666,0.08666,0.08666,0.08666,258000,0.08666
2013-05-07,0.07428,0.07428,0.07428,0.07428,000,0.07428
2013-05-06,0.07428,0.07428,0.07428,0.07428,000,0.07428
2013-05-03,0.0619,0.08047,0.0619,0.07428,220300,0.07428
2013-05-02,0.08047,0.08047,0.08047,0.08047,000,0.08047
2013-05-01,0.08047,0.08047,0.08047,0.08047,000,0.08047
2013-04-30,0.08047,0.08047,0.08047,0.08047,000,0.08047
2013-04-29,0.08047,0.08047,0.08047,0.08047,000,0.08047
2013-04-26,0.08047,0.08047,0.08047,0.08047,000,0.08047
2013-04-25,0.08047,0.08047,0.08047,0.08047,000,0.08047
2013-04-24,0.08047,0.08047,0.08047,0.08047,000,0.08047
2013-04-23,0.08047,0.08047,0.08047,0.08047,000,0.08047
2013-04-22,0.08047,0.08047,0.08047,0.08047,000,0.08047
2013-04-19,0.08047,0.08047,0.08047,0.08047,000,0.08047
2013-04-18,0.08047,0.08047,0.08047,0.08047,000,0.08047
2013-04-17,0.08047,0.08047,0.08047,0.08047,000,0.08047
2013-04-16,0.08047,0.08047,0.08047,0.08047,000,0.08047
2013-04-15,0.08047,0.08047,0.08047,0.08047,000,0.08047
2013-04-12,0.08047,0.08047,0.08047,0.08047,000,0.08047
2013-04-11,0.08047,0.08047,0.08047,0.08047,000,0.08047
2013-04-10,0.08047,0.08047,0.08047,0.08047,000,0.08047
2013-04-09,0.08047,0.08047,0.08047,0.08047,000,0.08047
2013-04-08,0.08047,0.08047,0.08047,0.08047,121100,0.08047
2013-04-05,0.09285,0.09285,0.09285,0.09285,000,0.09285
2013-04-04,0.09285,0.09285,0.09285,0.09285,000,0.09285
2013-04-03,0.09285,0.09285,0.09285,0.09285,000,0.09285
2013-04-02,0.09285,0.09285,0.09285,0.09285,000,0.09285
2013-04-01,0.09285,0.09285,0.09285,0.09285,000,0.09285
2013-03-29,0.09285,0.09285,0.09285,0.09285,000,0.09285
2013-03-28,0.09285,0.09285,0.09285,0.09285,10000,0.09285
2013-03-27,0.09594,0.09594,0.09285,0.09285,24200,0.09285
2013-03-26,0.09285,0.09285,0.09285,0.09285,000,0.09285
2013-03-25,0.09285,0.09285,0.09285,0.09285,000,0.09285
2013-03-22,0.09285,0.09285,0.09285,0.09285,000,0.09285
2013-03-21,0.09285,0.09285,0.09285,0.09285,000,0.09285
2013-03-20,0.09285,0.09285,0.09285,0.09285,000,0.09285
2013-03-19,0.09285,0.09285,0.09285,0.09285,16100,0.09285
2013-03-18,0.09285,0.09285,0.09285,0.09285,000,0.09285
2013-03-15,0.09285,0.09285,0.09285,0.09285,313000,0.09285
2013-03-14,0.12999,0.12999,0.12999,0.12999,000,0.12999
2013-03-13,0.12999,0.12999,0.12999,0.12999,000,0.12999
2013-03-12,0.12999,0.12999,0.12999,0.12999,000,0.12999
2013-03-11,0.12999,0.12999,0.12999,0.12999,000,0.12999
2013-03-08,0.12999,0.12999,0.12999,0.12999,000,0.12999
2013-03-07,0.12999,0.12999,0.12999,0.12999,000,0.12999
2013-03-06,0.12999,0.12999,0.12999,0.12999,000,0.12999
2013-03-05,0.13618,0.13618,0.12999,0.12999,58500,0.12999
2013-03-04,0.12999,0.12999,0.12999,0.12999,40300,0.12999
2013-03-01,0.1238,0.13308,0.1238,0.12999,621500,0.12999
2013-02-28,0.10213,0.12999,0.09904,0.12999,2889300,0.12999
2013-02-27,0.1238,0.1238,0.1238,0.1238,000,0.1238
2013-02-26,0.1238,0.1238,0.1238,0.1238,000,0.1238
2013-02-25,0.1238,0.1238,0.1238,0.1238,000,0.1238
2013-02-22,0.1238,0.1238,0.1238,0.1238,000,0.1238
2013-02-21,0.1238,0.1238,0.1238,0.1238,000,0.1238
2013-02-20,0.1238,0.1238,0.1238,0.1238,000,0.1238
2013-02-19,0.1238,0.1238,0.1238,0.1238,000,0.1238
2013-02-18,0.1238,0.1238,0.1238,0.1238,000,0.1238
2013-02-15,0.1238,0.1238,0.1238,0.1238,000,0.1238
2013-02-14,0.1238,0.1238,0.1238,0.1238,000,0.1238
2013-02-13,0.1238,0.1238,0.1238,0.1238,000,0.1238
2013-02-12,0.1238,0.1238,0.1238,0.1238,000,0.1238
2013-02-11,0.1238,0.1238,0.1238,0.1238,000,0.1238
2013-02-08,0.1238,0.1238,0.1238,0.1238,000,0.1238
2013-02-07,0.1238,0.1238,0.1238,0.1238,000,0.1238
2013-02-06,0.1238,0.1238,0.1238,0.1238,000,0.1238
2013-02-05,0.1238,0.1238,0.1238,0.1238,000,0.1238
2013-02-04,0.1238,0.1238,0.1238,0.1238,000,0.1238
2013-02-01,0.1238,0.1238,0.1238,0.1238,000,0.1238
2013-01-31,0.1238,0.1238,0.1238,0.1238,000,0.1238
2013-01-30,0.1238,0.1238,0.1238,0.1238,000,0.1238
2013-01-29,0.1238,0.1238,0.1238,0.1238,000,0.1238
2013-01-28,0.1238,0.1238,0.1238,0.1238,000,0.1238
2013-01-25,0.1238,0.1238,0.1238,0.1238,000,0.1238
2013-01-24,0.1238,0.1238,0.1238,0.1238,000,0.1238
2013-01-22,0.1238,0.1238,0.1238,0.1238,000,0.1238
2013-01-21,0.1238,0.1238,0.1238,0.1238,000,0.1238
2013-01-18,0.1238,0.1238,0.1238,0.1238,000,0.1238
2013-01-17,0.1238,0.1238,0.1238,0.1238,000,0.1238
2013-01-16,0.1238,0.1238,0.1238,0.1238,000,0.1238
2013-01-15,0.1238,0.1238,0.1238,0.1238,000,0.1238
2013-01-14,0.1238,0.1238,0.1238,0.1238,000,0.1238
2013-01-11,0.1238,0.1238,0.1238,0.1238,000,0.1238
2013-01-10,0.1238,0.1238,0.1238,0.1238,000,0.1238
2013-01-09,0.1238,0.1238,0.1238,0.1238,000,0.1238
2013-01-08,0.1238,0.1238,0.1238,0.1238,000,0.1238
2013-01-07,0.1238,0.1238,0.1238,0.1238,000,0.1238
2013-01-04,0.1238,0.1238,0.1238,0.1238,000,0.1238
2013-01-03,0.1238,0.1238,0.1238,0.1238,000,0.1238
2013-01-02,0.1238,0.1238,0.1238,0.1238,000,0.1238
2013-01-01,0.1238,0.1238,0.1238,0.1238,000,0.1238
2012-12-31,0.1238,0.1238,0.1238,0.1238,000,0.1238
2012-12-28,0.1238,0.1238,0.1238,0.1238,000,0.1238
2012-12-27,0.1238,0.1238,0.1238,0.1238,000,0.1238
2012-12-26,0.1238,0.1238,0.1238,0.1238,000,0.1238
2012-12-25,0.1238,0.1238,0.1238,0.1238,000,0.1238
2012-12-24,0.1238,0.1238,0.1238,0.1238,000,0.1238
2012-12-21,0.1238,0.1238,0.1238,0.1238,000,0.1238
2012-12-20,0.1238,0.1238,0.1238,0.1238,000,0.1238
2012-12-19,0.1238,0.1238,0.1238,0.1238,000,0.1238
2012-12-18,0.1238,0.1238,0.1238,0.1238,000,0.1238
2012-12-17,0.1238,0.1238,0.1238,0.1238,000,0.1238
2012-12-14,0.1238,0.1238,0.1238,0.1238,000,0.1238
2012-12-13,0.1238,0.1238,0.1238,0.1238,000,0.1238
2012-12-12,0.1238,0.1238,0.1238,0.1238,000,0.1238
2012-12-11,0.1238,0.1238,0.1238,0.1238,000,0.1238
2012-12-10,0.1238,0.1238,0.1238,0.1238,000,0.1238
2012-12-07,0.1238,0.1238,0.1238,0.1238,000,0.1238
2012-12-06,0.1238,0.1238,0.1238,0.1238,000,0.1238
2012-12-05,0.1238,0.1238,0.1238,0.1238,000,0.1238
2012-12-04,0.1238,0.1238,0.1238,0.1238,000,0.1238
2012-12-03,0.1238,0.1238,0.1238,0.1238,000,0.1238
2012-11-30,0.1238,0.1238,0.1238,0.1238,000,0.1238
2012-11-29,0.1238,0.1238,0.1238,0.1238,399500,0.1238
2012-11-28,0.10832,0.10832,0.10832,0.10832,000,0.10832
2012-11-27,0.10832,0.10832,0.10832,0.10832,000,0.10832
2012-11-26,0.10832,0.10832,0.10832,0.10832,000,0.10832
2012-11-23,0.11761,0.11761,0.10832,0.10832,408100,0.10832
2012-11-22,0.10523,0.10523,0.10523,0.10523,000,0.10523
2012-11-21,0.10523,0.10523,0.10523,0.10523,000,0.10523
2012-11-20,0.10523,0.10523,0.10523,0.10523,000,0.10523
2012-11-19,0.10523,0.10523,0.10523,0.10523,000,0.10523
2012-11-16,0.10523,0.10523,0.10523,0.10523,000,0.10523
2012-11-15,0.10523,0.10523,0.10523,0.10523,000,0.10523
2012-11-14,0.10523,0.10523,0.10523,0.10523,000,0.10523
2012-11-13,0.10523,0.10523,0.10523,0.10523,000,0.10523
2012-11-12,0.10523,0.10523,0.10523,0.10523,24200,0.10523
2012-11-09,0.10523,0.10523,0.10523,0.10523,000,0.10523
2012-11-08,0.10523,0.10523,0.10523,0.10523,000,0.10523
2012-11-07,0.10523,0.10523,0.10523,0.10523,000,0.10523
2012-11-06,0.10523,0.10523,0.10523,0.10523,000,0.10523
2012-11-05,0.10523,0.10523,0.10523,0.10523,000,0.10523
2012-11-02,0.10523,0.10523,0.10523,0.10523,000,0.10523
2012-11-01,0.10523,0.10523,0.10523,0.10523,75100,0.10523
2012-10-31,0.10523,0.10523,0.10523,0.10523,000,0.10523
2012-10-30,0.10523,0.10523,0.10523,0.10523,000,0.10523
2012-10-29,0.10523,0.10523,0.10523,0.10523,86400,0.10523
2012-10-26,0.10523,0.10523,0.10523,0.10523,000,0.10523
2012-10-25,0.10523,0.10523,0.10523,0.10523,000,0.10523
2012-10-24,0.10523,0.10523,0.10523,0.10523,16100,0.10523
2012-10-23,0.10523,0.10523,0.10523,0.10523,000,0.10523
2012-10-22,0.10832,0.10832,0.10523,0.10523,161500,0.10523
2012-10-19,0.10832,0.10832,0.10832,0.10832,24200,0.10832
2012-10-18,0.10832,0.10832,0.10832,0.10832,32300,0.10832
2012-10-17,0.10832,0.10832,0.10832,0.10832,000,0.10832
2012-10-16,0.10832,0.10832,0.10832,0.10832,38700,0.10832
2012-10-15,0.1238,0.1238,0.1238,0.1238,000,0.1238
2012-10-12,0.1238,0.1238,0.1238,0.1238,000,0.1238
2012-10-11,0.1238,0.1238,0.1238,0.1238,000,0.1238
2012-10-10,0.1238,0.1238,0.1238,0.1238,000,0.1238
2012-10-09,0.11761,0.1238,0.11761,0.1238,80700,0.1238
2012-10-08,0.10832,0.10832,0.10832,0.10832,000,0.10832
2012-10-05,0.10832,0.10832,0.10832,0.10832,000,0.10832
2012-10-04,0.10832,0.10832,0.10832,0.10832,000,0.10832
2012-10-03,0.10832,0.10832,0.10832,0.10832,000,0.10832
2012-10-02,0.10832,0.10832,0.10832,0.10832,000,0.10832
2012-10-01,0.10832,0.10832,0.10832,0.10832,000,0.10832
2012-09-28,0.10832,0.10832,0.10832,0.10832,000,0.10832
2012-09-27,0.10832,0.10832,0.10832,0.10832,000,0.10832
2012-09-26,0.10832,0.10832,0.10832,0.10832,000,0.10832
2012-09-25,0.10832,0.10832,0.10832,0.10832,000,0.10832
2012-09-24,0.10832,0.10832,0.10832,0.10832,32300,0.10832
2012-09-21,0.10523,0.10523,0.10523,0.10523,000,0.10523
2012-09-20,0.10523,0.10523,0.10523,0.10523,000,0.10523
2012-09-19,0.10523,0.10523,0.10523,0.10523,12100,0.10523
2012-09-18,0.11142,0.11142,0.11142,0.11142,4000,0.11142
2012-09-17,0.11142,0.11142,0.11142,0.11142,000,0.11142
2012-09-14,0.11142,0.11142,0.11142,0.11142,000,0.11142
2012-09-13,0.11142,0.11142,0.11142,0.11142,000,0.11142
2012-09-12,0.11142,0.11142,0.11142,0.11142,64600,0.11142
2012-09-11,0.10832,0.10832,0.10832,0.10832,000,0.10832
2012-09-10,0.10832,0.10832,0.10832,0.10832,161500,0.10832
2012-09-07,0.11142,0.11142,0.11142,0.11142,000,0.11142
2012-09-06,0.11142,0.11142,0.11142,0.11142,000,0.11142
2012-09-05,0.11142,0.11142,0.11142,0.11142,000,0.11142
2012-09-04,0.11142,0.11142,0.11142,0.11142,000,0.11142
2012-09-03,0.11142,0.11142,0.11142,0.11142,000,0.11142
2012-08-31,0.11142,0.11142,0.11142,0.11142,000,0.11142
2012-08-30,0.11142,0.11142,0.11142,0.11142,000,0.11142
2012-08-29,0.11142,0.11142,0.11142,0.11142,000,0.11142
2012-08-28,0.11142,0.11142,0.11142,0.11142,000,0.11142
2012-08-27,0.11142,0.11142,0.11142,0.11142,000,0.11142
2012-08-24,0.11142,0.11142,0.11142,0.11142,000,0.11142
2012-08-23,0.11142,0.11142,0.11142,0.11142,80700,0.11142
2012-08-22,0.1207,0.1207,0.1207,0.1207,000,0.1207
2012-08-21,0.1207,0.1207,0.1207,0.1207,80700,0.1207
2012-08-20,0.11761,0.11761,0.11761,0.11761,000,0.11761
2012-08-17,0.11761,0.11761,0.11761,0.11761,40300,0.11761
2012-08-16,0.10832,0.10832,0.10832,0.10832,32300,0.10832
2012-08-15,0.10832,0.1238,0.10832,0.10832,189800,0.10832
2012-08-14,0.09904,0.09904,0.09904,0.09904,000,0.09904
2012-08-13,0.09904,0.09904,0.09904,0.09904,000,0.09904
2012-08-10,0.09904,0.09904,0.09904,0.09904,000,0.09904
2012-08-09,0.09904,0.09904,0.09904,0.09904,000,0.09904
2012-08-08,0.09904,0.09904,0.09904,0.09904,000,0.09904
2012-08-07,0.09904,0.09904,0.09904,0.09904,000,0.09904
2012-08-06,0.09904,0.09904,0.09904,0.09904,000,0.09904
2012-08-03,0.09904,0.09904,0.09904,0.09904,000,0.09904
2012-08-02,0.09904,0.09904,0.09904,0.09904,000,0.09904
2012-08-01,0.09904,0.09904,0.09904,0.09904,000,0.09904
2012-07-31,0.09904,0.09904,0.09904,0.09904,000,0.09904
2012-07-30,0.09904,0.09904,0.09904,0.09904,000,0.09904
2012-07-27,0.09904,0.09904,0.09904,0.09904,000,0.09904
2012-07-26,0.09904,0.09904,0.09904,0.09904,000,0.09904
2012-07-25,0.09904,0.09904,0.09904,0.09904,000,0.09904
2012-07-24,0.09904,0.09904,0.09904,0.09904,000,0.09904
2012-07-23,0.09904,0.09904,0.09904,0.09904,000,0.09904
2012-07-20,0.09904,0.09904,0.09904,0.09904,000,0.09904
2012-07-19,0.09904,0.09904,0.09904,0.09904,000,0.09904
2012-07-18,0.09904,0.09904,0.09904,0.09904,000,0.09904
2012-07-17,0.09904,0.09904,0.09904,0.09904,000,0.09904
2012-07-16,0.09904,0.09904,0.09904,0.09904,000,0.09904
2012-07-13,0.09904,0.09904,0.09904,0.09904,000,0.09904
2012-07-12,0.09904,0.09904,0.09904,0.09904,000,0.09904
2012-07-11,0.09904,0.09904,0.09904,0.09904,000,0.09904
2012-07-10,0.09904,0.09904,0.09904,0.09904,000,0.09904
2012-07-09,0.09904,0.09904,0.09904,0.09904,000,0.09904
2012-07-06,0.09904,0.09904,0.09904,0.09904,000,0.09904
2012-07-05,0.09904,0.09904,0.09904,0.09904,000,0.09904
2012-07-04,0.09904,0.09904,0.09904,0.09904,000,0.09904
2012-07-03,0.09904,0.09904,0.09904,0.09904,000,0.09904
2012-07-02,0.09904,0.09904,0.09904,0.09904,000,0.09904
2012-06-29,0.09904,0.09904,0.09904,0.09904,000,0.09904
2012-06-28,0.09904,0.09904,0.09904,0.09904,000,0.09904
2012-06-27,0.09904,0.09904,0.09904,0.09904,000,0.09904
2012-06-26,0.09904,0.09904,0.09904,0.09904,000,0.09904
2012-06-25,0.09904,0.09904,0.09904,0.09904,000,0.09904
2012-06-22,0.09904,0.09904,0.09904,0.09904,000,0.09904
2012-06-21,0.09904,0.09904,0.09904,0.09904,000,0.09904
2012-06-20,0.09904,0.09904,0.09904,0.09904,000,0.09904
2012-06-19,0.09904,0.09904,0.09904,0.09904,000,0.09904
2012-06-18,0.09904,0.09904,0.09904,0.09904,000,0.09904
2012-06-15,0.09904,0.09904,0.09904,0.09904,000,0.09904
2012-06-14,0.09904,0.09904,0.09904,0.09904,000,0.09904
2012-06-13,0.09904,0.09904,0.09904,0.09904,000,0.09904
2012-06-12,0.09904,0.09904,0.09904,0.09904,000,0.09904
2012-06-11,0.09904,0.09904,0.09904,0.09904,000,0.09904
2012-06-08,0.09904,0.09904,0.09904,0.09904,000,0.09904
2012-06-07,0.09904,0.09904,0.09904,0.09904,000,0.09904
2012-06-06,0.09904,0.09904,0.09904,0.09904,000,0.09904
2012-06-05,0.09904,0.09904,0.09904,0.09904,000,0.09904
2012-06-04,0.09904,0.09904,0.09904,0.09904,000,0.09904
2012-06-01,0.09904,0.09904,0.09904,0.09904,000,0.09904
2012-05-31,0.09904,0.09904,0.09904,0.09904,161500,0.09904
2012-05-30,0.09904,0.09904,0.09904,0.09904,000,0.09904
2012-05-29,0.09904,0.09904,0.09904,0.09904,000,0.09904
2012-05-28,0.09904,0.09904,0.09904,0.09904,000,0.09904
2012-05-25,0.09904,0.09904,0.09904,0.09904,72600,0.09904
2012-05-24,0.10832,0.10832,0.10832,0.10832,000,0.10832
2012-05-23,0.10832,0.10832,0.10832,0.10832,79500,0.10832
2012-05-22,0.10832,0.10832,0.10832,0.10832,000,0.10832
2012-05-21,0.10832,0.10832,0.10832,0.10832,64600,0.10832
2012-05-18,0.10832,0.10832,0.10832,0.10832,64600,0.10832
2012-05-17,0.10832,0.10832,0.10832,0.10832,315000,0.10832
2012-05-16,0.10832,0.10832,0.10832,0.10832,232600,0.10832
2012-05-15,0.10832,0.10832,0.10832,0.10832,000,0.10832
2012-05-14,0.10832,0.10832,0.10832,0.10832,000,0.10832
2012-05-11,0.10832,0.10832,0.10832,0.10832,000,0.10832
2012-05-10,0.10832,0.10832,0.10832,0.10832,56500,0.10832
2012-05-09,0.10832,0.10832,0.10832,0.10832,000,0.10832
2012-05-08,0.10832,0.10832,0.10832,0.10832,000,0.10832
2012-05-07,0.10832,0.10832,0.10832,0.10832,000,0.10832
2012-05-04,0.10832,0.10832,0.10832,0.10832,000,0.10832
2012-05-03,0.10832,0.10832,0.10832,0.10832,242300,0.10832
2012-05-02,0.10832,0.10832,0.10832,0.10832,000,0.10832
2012-05-01,0.10832,0.10832,0.10832,0.10832,000,0.10832
2012-04-30,0.10832,0.10832,0.10832,0.10832,000,0.10832
2012-04-27,0.10832,0.10832,0.10832,0.10832,000,0.10832
2012-04-26,0.10832,0.10832,0.10832,0.10832,346100,0.10832
2012-04-25,0.10832,0.10832,0.10832,0.10832,000,0.10832
2012-04-24,0.10832,0.10832,0.10832,0.10832,726900,0.10832
2012-04-23,0.10832,0.10832,0.10832,0.10832,80700,0.10832
2012-04-20,0.09904,0.09904,0.09904,0.09904,000,0.09904
2012-04-19,0.09904,0.09904,0.09904,0.09904,8000,0.09904
2012-04-18,0.09594,0.09594,0.09594,0.09594,000,0.09594
2012-04-17,0.09594,0.09594,0.09594,0.09594,000,0.09594
2012-04-16,0.09594,0.09594,0.09594,0.09594,000,0.09594
2012-04-13,0.09594,0.09594,0.09594,0.09594,000,0.09594
2012-04-12,0.09594,0.09594,0.09594,0.09594,000,0.09594
2012-04-11,0.09594,0.09594,0.09594,0.09594,000,0.09594
2012-04-10,0.09594,0.09594,0.09594,0.09594,000,0.09594
2012-04-09,0.09594,0.09594,0.09594,0.09594,000,0.09594
2012-04-06,0.09594,0.09594,0.09594,0.09594,000,0.09594
2012-04-05,0.09594,0.09594,0.09594,0.09594,000,0.09594
2012-04-04,0.09594,0.09594,0.09594,0.09594,000,0.09594
2012-04-03,0.09594,0.09594,0.09594,0.09594,000,0.09594
2012-04-02,0.09594,0.09594,0.09594,0.09594,000,0.09594
2012-03-30,0.09594,0.09594,0.09594,0.09594,000,0.09594
2012-03-29,0.09594,0.09594,0.09594,0.09594,000,0.09594
2012-03-28,0.09594,0.09594,0.09594,0.09594,8000,0.09594
2012-03-27,0.09594,0.09594,0.09594,0.09594,000,0.09594
2012-03-26,0.09594,0.09594,0.09594,0.09594,000,0.09594
2012-03-23,0.09594,0.09594,0.09594,0.09594,000,0.09594
2012-03-22,0.09594,0.09594,0.09594,0.09594,000,0.09594
2012-03-21,0.09594,0.09594,0.09594,0.09594,000,0.09594
2012-03-20,0.09594,0.09594,0.09594,0.09594,000,0.09594
2012-03-19,0.09594,0.09594,0.09594,0.09594,000,0.09594
2012-03-16,0.09594,0.09594,0.09594,0.09594,000,0.09594
2012-03-15,0.09594,0.09594,0.09594,0.09594,000,0.09594
2012-03-14,0.09594,0.09594,0.09594,0.09594,000,0.09594
2012-03-13,0.09594,0.09594,0.09594,0.09594,000,0.09594
2012-03-12,0.09594,0.09594,0.09594,0.09594,000,0.09594
2012-03-09,0.09594,0.09594,0.09594,0.09594,000,0.09594
2012-03-08,0.09594,0.09594,0.09594,0.09594,000,0.09594
2012-03-07,0.09594,0.09594,0.09594,0.09594,000,0.09594
2012-03-06,0.09594,0.09594,0.09594,0.09594,000,0.09594
2012-03-05,0.09594,0.09594,0.09594,0.09594,000,0.09594
2012-03-02,0.09594,0.09594,0.09594,0.09594,000,0.09594
2012-03-01,0.09594,0.09594,0.09594,0.09594,000,0.09594
2012-02-29,0.09594,0.09594,0.09594,0.09594,000,0.09594
2012-02-28,0.09594,0.09594,0.09594,0.09594,000,0.09594
2012-02-27,0.09594,0.09594,0.09594,0.09594,000,0.09594
2012-02-24,0.09594,0.09594,0.09594,0.09594,000,0.09594
2012-02-23,0.09594,0.09594,0.09594,0.09594,000,0.09594
2012-02-22,0.09594,0.09594,0.09594,0.09594,80700,0.09594
2012-02-21,0.09904,0.09904,0.09904,0.09904,16100,0.09904
2012-02-20,0.10213,0.10213,0.10213,0.10213,000,0.10213
2012-02-17,0.10213,0.10213,0.10213,0.10213,000,0.10213
2012-02-16,0.10213,0.10213,0.10213,0.10213,000,0.10213
2012-02-15,0.10213,0.10213,0.10213,0.10213,000,0.10213
2012-02-14,0.10213,0.10213,0.10213,0.10213,000,0.10213
2012-02-13,0.10213,0.10213,0.10213,0.10213,32300,0.10213
2012-02-10,0.10523,0.10523,0.10523,0.10523,000,0.10523
2012-02-09,0.10523,0.10523,0.10523,0.10523,000,0.10523
2012-02-08,0.10523,0.10523,0.10523,0.10523,000,0.10523
2012-02-07,0.10523,0.10523,0.10523,0.10523,000,0.10523
2012-02-06,0.10523,0.10523,0.10523,0.10523,000,0.10523
2012-02-03,0.10523,0.10523,0.10523,0.10523,000,0.10523
2012-02-02,0.10523,0.10523,0.10523,0.10523,000,0.10523
2012-02-01,0.10523,0.10523,0.10523,0.10523,000,0.10523
2012-01-31,0.10523,0.10523,0.10523,0.10523,000,0.10523
2012-01-27,0.10523,0.10523,0.10523,0.10523,000,0.10523
2012-01-26,0.10523,0.10523,0.10523,0.10523,000,0.10523
2012-01-25,0.10523,0.10523,0.10523,0.10523,000,0.10523
2012-01-24,0.10523,0.10523,0.10523,0.10523,000,0.10523
2012-01-23,0.10523,0.10523,0.10523,0.10523,000,0.10523
2012-01-20,0.10523,0.10523,0.10523,0.10523,000,0.10523
2012-01-19,0.10523,0.10523,0.10523,0.10523,000,0.10523
2012-01-18,0.10523,0.10523,0.10523,0.10523,000,0.10523
2012-01-17,0.10523,0.10523,0.10523,0.10523,000,0.10523
2012-01-16,0.10523,0.10523,0.10523,0.10523,000,0.10523
2012-01-13,0.10523,0.10523,0.10523,0.10523,000,0.10523
2012-01-12,0.10523,0.10523,0.10523,0.10523,000,0.10523
2012-01-11,0.10523,0.10523,0.10523,0.10523,000,0.10523
2012-01-10,0.10523,0.10523,0.10523,0.10523,000,0.10523
2012-01-09,0.10523,0.10523,0.10523,0.10523,000,0.10523
2012-01-06,0.10523,0.10523,0.10523,0.10523,000,0.10523
2012-01-05,0.10523,0.10523,0.10523,0.10523,000,0.10523
2012-01-04,0.10523,0.10523,0.10523,0.10523,000,0.10523
2012-01-03,0.10523,0.10523,0.10523,0.10523,000,0.10523
2012-01-02,0.10523,0.10523,0.10523,0.10523,000,0.10523
2011-12-30,0.10523,0.10523,0.10523,0.10523,000,0.10523
2011-12-29,0.10523,0.10523,0.10523,0.10523,000,0.10523
2011-12-28,0.10523,0.10523,0.10523,0.10523,000,0.10523
2011-12-27,0.10523,0.10523,0.10523,0.10523,000,0.10523
2011-12-26,0.10523,0.10523,0.10523,0.10523,000,0.10523
2011-12-23,0.10213,0.10213,0.10213,0.10213,201900,0.10213
2011-12-22,0.10523,0.10523,0.10523,0.10523,000,0.10523
2011-12-21,0.10523,0.10523,0.10523,0.10523,000,0.10523
2011-12-20,0.10523,0.10523,0.10523,0.10523,000,0.10523
2011-12-19,0.10523,0.10523,0.10523,0.10523,24200,0.10523
2011-12-16,0.10523,0.10523,0.10523,0.10523,56500,0.10523
2011-12-15,0.10523,0.10523,0.10523,0.10523,000,0.10523
2011-12-14,0.10523,0.10523,0.10523,0.10523,40300,0.10523
2011-12-13,0.10523,0.10523,0.10523,0.10523,100900,0.10523
2011-12-12,0.10523,0.10523,0.10523,0.10523,000,0.10523
2011-12-09,0.10523,0.10523,0.10523,0.10523,000,0.10523
2011-12-08,0.10523,0.10523,0.10523,0.10523,4000,0.10523
2011-12-07,0.11142,0.11142,0.11142,0.11142,000,0.11142
2011-12-06,0.11142,0.11142,0.11142,0.11142,000,0.11142
2011-12-05,0.11142,0.11142,0.11142,0.11142,25800,0.11142
2011-12-02,0.11142,0.11142,0.11142,0.11142,000,0.11142
2011-12-01,0.11142,0.11142,0.11142,0.11142,000,0.11142
2011-11-30,0.11142,0.11142,0.11142,0.11142,000,0.11142
2011-11-29,0.11142,0.11142,0.11142,0.11142,000,0.11142
2011-11-28,0.11142,0.11142,0.11142,0.11142,000,0.11142
2011-11-25,0.11142,0.11142,0.11142,0.11142,000,0.11142
2011-11-24,0.11142,0.11142,0.11142,0.11142,000,0.11142
2011-11-23,0.11142,0.11142,0.11142,0.11142,000,0.11142
2011-11-22,0.11142,0.11142,0.11142,0.11142,000,0.11142
2011-11-21,0.11142,0.11142,0.11142,0.11142,000,0.11142
2011-11-18,0.11142,0.11142,0.11142,0.11142,000,0.11142
2011-11-17,0.11142,0.11142,0.11142,0.11142,000,0.11142
2011-10-21,0.11142,0.11142,0.11142,0.11142,16100,0.11142
2011-10-20,0.11142,0.11142,0.11142,0.11142,6400,0.11142
2011-10-05,0.10523,0.10523,0.10523,0.10523,16100,0.10523
2011-09-23,0.10832,0.10832,0.10523,0.10523,24200,0.10523
2011-09-22,0.11142,0.11142,0.11142,0.11142,25100,0.11142
2011-09-08,0.11142,0.11142,0.11142,0.11142,33300,0.11142
2011-09-05,0.11451,0.11451,0.11451,0.11451,22600,0.11451
2011-08-30,0.11451,0.11451,0.11451,0.11451,4000,0.11451
2011-08-26,0.1238,0.1238,0.11451,0.11451,117100,0.11451
2011-08-23,0.11761,0.1238,0.11761,0.1238,161500,0.1238
2011-08-16,0.1238,0.1238,0.1238,0.1238,105000,0.1238
2011-08-15,0.11761,0.1238,0.11761,0.1238,40300,0.1238
2011-08-10,0.11761,0.11761,0.11761,0.11761,6400,0.11761
2011-08-09,0.11761,0.11761,0.11761,0.11761,64800,0.11761
2011-08-08,0.11761,0.1238,0.11761,0.1238,205900,0.1238
2011-08-03,0.1238,0.1238,0.1238,0.1238,64600,0.1238
2011-08-02,0.12999,0.12999,0.12999,0.12999,11000,0.12999
2011-08-01,0.12999,0.12999,0.12999,0.12999,5000,0.12999
2011-07-26,0.14237,0.14237,0.14237,0.14237,2800,0.14237
2011-07-25,0.13618,0.13618,0.13618,0.13618,61700,0.13618
2011-07-22,0.12999,0.13618,0.12999,0.13618,78400,0.13618
2011-07-21,0.1238,0.12999,0.1238,0.12999,107900,0.12999
2011-07-20,0.1207,0.1207,0.1207,0.1207,16100,0.1207
2011-07-18,0.11451,0.11451,0.11451,0.11451,32300,0.11451
2011-07-13,0.1238,0.1238,0.11451,0.11451,37300,0.11451
2011-07-12,0.11451,0.11451,0.11451,0.11451,56500,0.11451
2011-07-11,0.11451,0.11451,0.11451,0.11451,129200,0.11451
2011-07-07,0.11761,0.11761,0.11761,0.11761,16100,0.11761
2011-07-06,0.1238,0.1238,0.11451,0.11451,177700,0.11451
2011-07-05,0.1238,0.1238,0.1238,0.1238,169600,0.1238
