Date,Open,High,Low,Close,Volume,Adj Close
2016-11-18,0.009,0.009,0.009,0.009,000,0.009
2016-11-17,0.009,0.009,0.009,0.009,000,0.009
2016-11-16,0.009,0.009,0.009,0.009,000,0.009
2016-11-15,0.009,0.009,0.009,0.009,000,0.009
2016-11-14,0.009,0.009,0.009,0.009,000,0.009
2016-11-11,0.009,0.009,0.009,0.009,000,0.009
2016-11-10,0.009,0.009,0.009,0.009,000,0.009
2016-11-09,0.009,0.009,0.009,0.009,000,0.009
2016-11-08,0.009,0.009,0.009,0.009,000,0.009
2016-11-07,0.009,0.009,0.009,0.009,000,0.009
2016-11-04,0.009,0.009,0.009,0.009,000,0.009
2016-11-03,0.009,0.009,0.009,0.009,000,0.009
2016-11-02,0.009,0.009,0.009,0.009,000,0.009
2016-11-01,0.009,0.009,0.009,0.009,000,0.009
2016-10-31,0.009,0.009,0.009,0.009,000,0.009
2016-10-28,0.009,0.009,0.009,0.009,000,0.009
2016-10-27,0.009,0.009,0.009,0.009,000,0.009
2016-10-26,0.009,0.009,0.009,0.009,000,0.009
2016-10-25,0.009,0.009,0.009,0.009,000,0.009
2016-10-24,0.009,0.009,0.009,0.009,000,0.009
2016-10-21,0.009,0.009,0.009,0.009,000,0.009
2016-10-20,0.009,0.009,0.009,0.009,000,0.009
2016-10-19,0.009,0.009,0.009,0.009,000,0.009
2016-10-18,0.009,0.009,0.009,0.009,000,0.009
2016-10-17,0.009,0.009,0.009,0.009,000,0.009
2016-10-14,0.009,0.009,0.009,0.009,000,0.009
2016-10-13,0.009,0.009,0.009,0.009,000,0.009
2016-10-12,0.009,0.009,0.009,0.009,000,0.009
2016-10-11,0.009,0.009,0.009,0.009,000,0.009
2016-10-10,0.009,0.009,0.009,0.009,000,0.009
2016-10-07,0.009,0.009,0.009,0.009,000,0.009
2016-10-06,0.009,0.009,0.009,0.009,000,0.009
2016-10-05,0.009,0.009,0.009,0.009,000,0.009
2016-10-04,0.009,0.009,0.009,0.009,000,0.009
2016-10-03,0.009,0.009,0.009,0.009,000,0.009
2016-09-30,0.009,0.009,0.009,0.009,000,0.009
2016-09-29,0.009,0.009,0.009,0.009,000,0.009
2016-09-28,0.009,0.009,0.009,0.009,000,0.009
2016-09-27,0.009,0.009,0.009,0.009,000,0.009
2016-09-26,0.009,0.009,0.009,0.009,000,0.009
2016-09-23,0.009,0.009,0.009,0.009,000,0.009
2016-09-22,0.009,0.009,0.009,0.009,000,0.009
2016-09-21,0.009,0.009,0.009,0.009,000,0.009
2016-09-20,0.009,0.009,0.009,0.009,000,0.009
2016-09-19,0.009,0.009,0.009,0.009,000,0.009
2016-09-16,0.009,0.009,0.009,0.009,000,0.009
2016-09-15,0.009,0.009,0.009,0.009,000,0.009
2016-09-14,0.009,0.009,0.009,0.009,000,0.009
2016-09-13,0.009,0.009,0.009,0.009,000,0.009
2016-09-12,0.009,0.009,0.009,0.009,000,0.009
2016-09-09,0.009,0.009,0.009,0.009,000,0.009
2016-09-08,0.009,0.009,0.009,0.009,000,0.009
2016-09-07,0.009,0.009,0.009,0.009,000,0.009
2016-09-06,0.009,0.009,0.009,0.009,000,0.009
2016-09-05,0.009,0.009,0.009,0.009,000,0.009
2016-09-02,0.009,0.009,0.009,0.009,000,0.009
2016-09-01,0.009,0.009,0.009,0.009,000,0.009
2016-08-31,0.009,0.009,0.009,0.009,000,0.009
2016-08-30,0.009,0.009,0.009,0.009,000,0.009
2016-08-29,0.009,0.009,0.009,0.009,000,0.009
2016-08-26,0.009,0.009,0.009,0.009,000,0.009
2016-08-25,0.009,0.009,0.009,0.009,000,0.009
2016-08-24,0.009,0.009,0.009,0.009,000,0.009
2016-08-23,0.009,0.009,0.009,0.009,000,0.009
2016-08-22,0.009,0.009,0.009,0.009,000,0.009
2016-08-19,0.009,0.009,0.009,0.009,000,0.009
2016-08-18,0.009,0.009,0.009,0.009,000,0.009
2016-08-17,0.009,0.009,0.009,0.009,000,0.009
2016-08-16,0.009,0.009,0.009,0.009,000,0.009
2016-08-15,0.009,0.009,0.009,0.009,000,0.009
2016-08-12,0.009,0.009,0.009,0.009,000,0.009
2016-08-11,0.009,0.009,0.009,0.009,000,0.009
2016-08-10,0.009,0.009,0.009,0.009,000,0.009
2016-08-09,0.009,0.009,0.009,0.009,000,0.009
2016-08-08,0.009,0.009,0.009,0.009,000,0.009
2016-08-05,0.009,0.009,0.009,0.009,000,0.009
2016-08-04,0.009,0.009,0.009,0.009,000,0.009
2016-08-03,0.009,0.009,0.009,0.009,000,0.009
2016-08-02,0.009,0.009,0.009,0.009,000,0.009
2016-08-01,0.009,0.009,0.009,0.009,000,0.009
2016-07-29,0.009,0.009,0.009,0.009,000,0.009
2016-07-28,0.009,0.009,0.009,0.009,000,0.009
2016-07-27,0.009,0.009,0.009,0.009,000,0.009
2016-07-26,0.009,0.009,0.009,0.009,000,0.009
2016-07-25,0.009,0.009,0.009,0.009,000,0.009
2016-07-22,0.009,0.009,0.009,0.009,000,0.009
2016-07-21,0.009,0.009,0.009,0.009,000,0.009
2016-07-20,0.009,0.009,0.009,0.009,000,0.009
2016-07-19,0.009,0.009,0.009,0.009,000,0.009
2016-07-18,0.009,0.009,0.009,0.009,000,0.009
2016-07-15,0.009,0.009,0.009,0.009,000,0.009
2016-07-14,0.009,0.009,0.009,0.009,000,0.009
2016-07-13,0.009,0.009,0.009,0.009,000,0.009
2016-07-12,0.009,0.009,0.009,0.009,000,0.009
2016-07-11,0.009,0.009,0.009,0.009,000,0.009
2016-07-08,0.009,0.009,0.009,0.009,000,0.009
2016-07-07,0.009,0.009,0.009,0.009,000,0.009
2016-07-06,0.009,0.009,0.009,0.009,000,0.009
2016-07-05,0.009,0.009,0.009,0.009,000,0.009
2016-07-04,0.009,0.009,0.009,0.009,000,0.009
2016-07-01,0.009,0.009,0.009,0.009,000,0.009
2016-06-30,0.009,0.009,0.009,0.009,000,0.009
2016-06-29,0.009,0.009,0.009,0.009,000,0.009
2016-06-28,0.009,0.009,0.009,0.009,000,0.009
2016-06-27,0.009,0.009,0.009,0.009,000,0.009
2016-06-24,0.009,0.009,0.009,0.009,000,0.009
2016-06-23,0.009,0.009,0.009,0.009,000,0.009
2016-06-22,0.009,0.009,0.009,0.009,000,0.009
2016-06-21,0.009,0.009,0.009,0.009,000,0.009
2016-06-20,0.009,0.009,0.009,0.009,000,0.009
2016-06-17,0.009,0.009,0.009,0.009,000,0.009
2016-06-16,0.009,0.009,0.009,0.009,000,0.009
2016-06-15,0.009,0.009,0.009,0.009,000,0.009
2016-06-14,0.009,0.009,0.009,0.009,000,0.009
2016-06-13,0.009,0.009,0.009,0.009,000,0.009
2016-06-10,0.009,0.009,0.009,0.009,000,0.009
2016-06-09,0.009,0.009,0.009,0.009,000,0.009
2016-06-08,0.009,0.009,0.009,0.009,000,0.009
2016-06-07,0.009,0.009,0.009,0.009,000,0.009
2016-06-06,0.009,0.009,0.009,0.009,000,0.009
2016-06-03,0.009,0.009,0.009,0.009,000,0.009
2016-06-02,0.009,0.009,0.009,0.009,000,0.009
2016-06-01,0.009,0.009,0.009,0.009,000,0.009
2016-05-31,0.009,0.009,0.009,0.009,000,0.009
2016-05-30,0.009,0.009,0.009,0.009,000,0.009
2016-05-27,0.009,0.009,0.009,0.009,000,0.009
2016-05-26,0.009,0.009,0.009,0.009,000,0.009
2016-05-25,0.009,0.009,0.009,0.009,000,0.009
2016-05-24,0.009,0.009,0.009,0.009,000,0.009
2016-05-23,0.009,0.009,0.009,0.009,000,0.009
2016-05-20,0.009,0.009,0.009,0.009,000,0.009
2016-05-19,0.009,0.009,0.009,0.009,000,0.009
2016-05-18,0.009,0.009,0.009,0.009,000,0.009
2016-05-17,0.009,0.009,0.009,0.009,000,0.009
2016-05-16,0.009,0.009,0.009,0.009,000,0.009
2016-05-13,0.009,0.009,0.009,0.009,000,0.009
2016-05-12,0.009,0.009,0.009,0.009,000,0.009
2016-05-11,0.009,0.009,0.009,0.009,000,0.009
2016-05-10,0.009,0.009,0.009,0.009,000,0.009
2016-05-09,0.009,0.009,0.009,0.009,000,0.009
2016-05-06,0.009,0.009,0.009,0.009,747800,0.009
2016-05-05,0.009,0.009,0.009,0.009,1093500,0.009
2016-05-04,0.008,0.008,0.007,0.008,970300,0.008
2016-05-03,0.009,0.009,0.009,0.009,2336900,0.009
2016-05-02,0.009,0.009,0.009,0.009,000,0.009
2016-04-29,0.009,0.009,0.009,0.009,000,0.009
2016-04-28,0.009,0.009,0.009,0.009,959600,0.009
2016-04-27,0.01,0.01,0.009,0.009,864900,0.009
2016-04-26,0.011,0.011,0.011,0.011,98000,0.011
2016-04-25,0.011,0.011,0.011,0.011,000,0.011
2016-04-22,0.01,0.011,0.01,0.011,3764600,0.011
2016-04-21,0.009,0.01,0.009,0.009,4621000,0.009
2016-04-20,0.008,0.008,0.008,0.008,354400,0.008
2016-04-19,0.008,0.008,0.008,0.008,212200,0.008
2016-04-18,0.008,0.008,0.008,0.008,262700,0.008
2016-04-15,0.008,0.008,0.008,0.008,81500,0.008
2016-04-14,0.007,0.007,0.007,0.007,11600,0.007
2016-04-13,0.008,0.008,0.008,0.008,571200,0.008
2016-04-12,0.008,0.008,0.008,0.008,500000,0.008
2016-04-11,0.007,0.009,0.007,0.009,371800,0.009
2016-04-08,0.008,0.008,0.008,0.008,000,0.008
2016-04-07,0.008,0.008,0.008,0.008,000,0.008
2016-04-06,0.008,0.01,0.008,0.008,534300,0.008
2016-04-05,0.01,0.01,0.01,0.01,000,0.01
2016-04-04,0.008,0.01,0.008,0.01,596600,0.01
2016-04-01,0.008,0.008,0.008,0.008,000,0.008
2016-03-31,0.008,0.008,0.008,0.008,200000,0.008
2016-03-30,0.008,0.009,0.008,0.009,262000,0.009
2016-03-29,0.008,0.008,0.008,0.008,73200,0.008
2016-03-28,0.008,0.008,0.008,0.008,000,0.008
2016-03-25,0.008,0.008,0.008,0.008,000,0.008
2016-03-24,0.008,0.008,0.008,0.008,000,0.008
2016-03-23,0.008,0.008,0.008,0.008,20000,0.008
2016-03-22,0.007,0.007,0.007,0.007,000,0.007
2016-03-21,0.007,0.007,0.007,0.007,000,0.007
2016-03-18,0.007,0.007,0.007,0.007,433100,0.007
2016-03-17,0.007,0.007,0.007,0.007,000,0.007
2016-03-16,0.007,0.007,0.007,0.007,87200,0.007
2016-03-15,0.008,0.008,0.006,0.007,4994700,0.007
2016-03-14,0.008,0.008,0.008,0.008,000,0.008
2016-03-11,0.008,0.008,0.008,0.008,000,0.008
2016-03-10,0.008,0.008,0.008,0.008,000,0.008
2016-03-09,0.008,0.008,0.008,0.008,10000,0.008
2016-03-08,0.007,0.007,0.007,0.007,000,0.007
2016-03-07,0.008,0.008,0.007,0.007,211300,0.007
2016-03-04,0.008,0.008,0.008,0.008,000,0.008
2016-03-03,0.008,0.008,0.008,0.008,25800,0.008
2016-03-02,0.008,0.008,0.008,0.008,000,0.008
2016-03-01,0.008,0.008,0.008,0.008,4100,0.008
2016-02-29,0.008,0.008,0.008,0.008,83300,0.008
2016-02-26,0.008,0.008,0.008,0.008,000,0.008
2016-02-25,0.009,0.009,0.008,0.008,182800,0.008
2016-02-24,0.009,0.009,0.008,0.009,680100,0.009
2016-02-23,0.008,0.009,0.007,0.009,979800,0.009
2016-02-22,0.009,0.009,0.009,0.009,000,0.009
2016-02-19,0.009,0.009,0.009,0.009,000,0.009
2016-02-18,0.009,0.009,0.009,0.009,000,0.009
2016-02-17,0.009,0.009,0.009,0.009,000,0.009
2016-02-16,0.009,0.009,0.009,0.009,000,0.009
2016-02-15,0.01,0.01,0.009,0.009,65200,0.009
2016-02-12,0.01,0.01,0.008,0.008,82300,0.008
2016-02-11,0.011,0.011,0.011,0.011,000,0.011
2016-02-10,0.008,0.011,0.008,0.011,469800,0.011
2016-02-09,0.008,0.008,0.008,0.008,88300,0.008
2016-02-08,0.009,0.009,0.009,0.009,79000,0.009
2016-02-05,0.01,0.01,0.01,0.01,000,0.01
2016-02-04,0.01,0.01,0.01,0.01,50000,0.01
2016-02-03,0.011,0.011,0.009,0.009,353000,0.009
2016-02-02,0.011,0.011,0.011,0.011,000,0.011
2016-02-01,0.011,0.011,0.011,0.011,50000,0.011
2016-01-29,0.011,0.011,0.011,0.011,54000,0.011
2016-01-28,0.011,0.011,0.011,0.011,000,0.011
2016-01-27,0.011,0.011,0.011,0.011,000,0.011
2016-01-26,0.011,0.011,0.011,0.011,000,0.011
2016-01-25,0.011,0.011,0.011,0.011,000,0.011
2016-01-22,0.009,0.011,0.009,0.011,465800,0.011
2016-01-21,0.009,0.009,0.009,0.009,000,0.009
2016-01-20,0.009,0.009,0.009,0.009,10000,0.009
2016-01-19,0.009,0.009,0.009,0.009,000,0.009
2016-01-18,0.009,0.009,0.009,0.009,000,0.009
2016-01-15,0.009,0.009,0.009,0.009,10000,0.009
2016-01-14,0.01,0.01,0.01,0.01,000,0.01
2016-01-13,0.01,0.01,0.01,0.01,000,0.01
2016-01-12,0.01,0.01,0.01,0.01,103000,0.01
2016-01-11,0.01,0.01,0.01,0.01,575000,0.01
2016-01-08,0.011,0.011,0.01,0.01,864900,0.01
2016-01-07,0.012,0.012,0.011,0.011,399800,0.011
2016-01-06,0.012,0.012,0.012,0.012,21300,0.012
2016-01-05,0.012,0.012,0.012,0.012,000,0.012
2016-01-04,0.012,0.012,0.012,0.012,1600,0.012
2016-01-01,0.014,0.014,0.014,0.014,000,0.014
2015-12-31,0.014,0.014,0.014,0.014,000,0.014
2015-12-30,0.014,0.014,0.014,0.014,000,0.014
2015-12-29,0.014,0.014,0.014,0.014,000,0.014
2015-12-28,0.014,0.014,0.014,0.014,000,0.014
2015-12-25,0.014,0.014,0.014,0.014,000,0.014
2015-12-24,0.014,0.014,0.014,0.014,000,0.014
2015-12-23,0.014,0.014,0.014,0.014,000,0.014
2015-12-22,0.013,0.014,0.013,0.014,97000,0.014
2015-12-21,0.013,0.013,0.013,0.013,000,0.013
2015-12-18,0.013,0.013,0.013,0.013,000,0.013
2015-12-17,0.013,0.013,0.013,0.013,71200,0.013
2015-12-16,0.013,0.013,0.013,0.013,000,0.013
2015-12-15,0.013,0.013,0.013,0.013,136900,0.013
2015-12-14,0.015,0.015,0.015,0.015,6000,0.015
2015-12-11,0.015,0.015,0.015,0.015,33000,0.015
2015-12-10,0.014,0.015,0.014,0.015,657100,0.015
2015-12-09,0.013,0.013,0.013,0.013,138900,0.013
2015-12-08,0.013,0.014,0.013,0.013,751500,0.013
2015-12-07,0.015,0.015,0.013,0.013,1484400,0.013
2015-12-04,0.015,0.015,0.015,0.015,113900,0.015
2015-12-03,0.015,0.016,0.015,0.015,2095400,0.015
2015-12-02,0.016,0.016,0.015,0.015,27200,0.015
2015-12-01,0.016,0.016,0.015,0.015,588000,0.015
2015-11-30,0.016,0.017,0.015,0.016,4588800,0.016
2015-11-27,0.018,0.021,0.015,0.015,11360800,0.015
2015-11-26,0.016,0.016,0.016,0.016,275000,0.016
2015-11-25,0.013,0.018,0.013,0.018,781200,0.018
2015-11-24,0.017,0.017,0.017,0.017,000,0.017
2015-11-23,0.017,0.017,0.017,0.017,50000,0.017
2015-11-20,0.017,0.017,0.017,0.017,000,0.017
2015-11-19,0.017,0.017,0.017,0.017,10000,0.017
2015-11-18,0.015,0.015,0.015,0.015,000,0.015
2015-11-17,0.017,0.017,0.015,0.015,150800,0.015
2015-11-16,0.016,0.016,0.016,0.016,000,0.016
2015-11-13,0.015,0.016,0.015,0.016,537200,0.016
2015-11-12,0.014,0.014,0.014,0.014,000,0.014
2015-11-11,0.014,0.014,0.014,0.014,000,0.014
2015-11-10,0.014,0.014,0.014,0.014,000,0.014
2015-11-09,0.014,0.015,0.014,0.014,134300,0.014
2015-11-06,0.014,0.014,0.014,0.014,000,0.014
2015-11-05,0.014,0.014,0.014,0.014,20000,0.014
2015-11-04,0.015,0.015,0.015,0.015,473000,0.015
2015-11-03,0.015,0.015,0.015,0.015,337100,0.015
2015-11-02,0.015,0.015,0.015,0.015,953400,0.015
2015-10-30,0.016,0.016,0.016,0.016,000,0.016
2015-10-29,0.016,0.016,0.016,0.016,400000,0.016
2015-10-28,0.016,0.016,0.016,0.016,160300,0.016
2015-10-27,0.018,0.018,0.016,0.016,402500,0.016
2015-10-26,0.018,0.018,0.018,0.018,100000,0.018
2015-10-23,0.017,0.018,0.017,0.018,53000,0.018
2015-10-22,0.016,0.016,0.016,0.016,88400,0.016
2015-10-21,0.016,0.016,0.016,0.016,57000,0.016
2015-10-20,0.016,0.016,0.016,0.016,000,0.016
2015-10-19,0.016,0.016,0.016,0.016,000,0.016
2015-10-16,0.021,0.021,0.016,0.016,2789100,0.016
2015-10-15,0.016,0.02,0.016,0.02,3729600,0.02
2015-10-14,0.016,0.016,0.016,0.016,1526000,0.016
2015-10-13,0.016,0.016,0.016,0.016,1050900,0.016
2015-10-12,0.016,0.017,0.016,0.017,788000,0.017
2015-10-09,0.017,0.017,0.017,0.017,100000,0.017
2015-10-08,0.018,0.019,0.017,0.017,2239400,0.017
2015-10-07,0.017,0.018,0.017,0.017,468400,0.017
2015-10-06,0.018,0.018,0.016,0.017,1081800,0.017
2015-10-05,0.017,0.017,0.017,0.017,158800,0.017
2015-10-02,0.017,0.018,0.017,0.018,250500,0.018
2015-10-01,0.018,0.018,0.017,0.017,2112400,0.017
2015-09-30,0.017,0.018,0.016,0.018,2628300,0.018
2015-09-29,0.019,0.019,0.018,0.018,1943000,0.018
2015-09-28,0.021,0.021,0.02,0.02,1765900,0.02
2015-09-25,0.022,0.022,0.021,0.021,2087900,0.021
2015-09-24,0.024,0.025,0.022,0.022,3503800,0.022
2015-09-23,0.024,0.025,0.023,0.024,1994400,0.024
2015-09-22,0.025,0.025,0.024,0.024,465300,0.024
2015-09-21,0.028,0.028,0.024,0.025,1355900,0.025
2015-09-18,0.027,0.028,0.025,0.028,1371200,0.028
2015-09-17,0.027,0.027,0.027,0.027,146300,0.027
2015-09-16,0.031,0.031,0.027,0.027,740800,0.027
2015-09-15,0.025,0.032,0.025,0.03,3296500,0.03
2015-09-14,0.025,0.027,0.025,0.027,256100,0.027
2015-09-11,0.025,0.025,0.025,0.025,141100,0.025
2015-09-10,0.028,0.028,0.025,0.025,224300,0.025
2015-09-09,0.024,0.027,0.024,0.027,267300,0.027
2015-09-08,0.025,0.025,0.023,0.024,1726300,0.024
2015-09-07,0.024,0.024,0.022,0.024,1861400,0.024
2015-09-04,0.025,0.026,0.021,0.026,260000,0.026
2015-09-03,0.03,0.031,0.025,0.03,653100,0.03
2015-09-02,0.031,0.032,0.03,0.03,499800,0.03
2015-09-01,0.028,0.045,0.028,0.039,2257300,0.039
2015-08-31,0.026,0.028,0.026,0.027,606300,0.027
2015-08-28,0.023,0.026,0.023,0.024,604700,0.024
2015-08-27,0.021,0.022,0.021,0.022,333900,0.022
2015-08-26,0.019,0.023,0.019,0.021,833200,0.021
2015-08-25,0.018,0.018,0.018,0.018,14800,0.018
2015-08-24,0.018,0.018,0.018,0.018,58800,0.018
2015-08-21,0.018,0.018,0.017,0.018,203000,0.018
2015-08-20,0.018,0.018,0.018,0.018,23600,0.018
2015-08-19,0.017,0.017,0.017,0.017,45500,0.017
2015-08-18,0.017,0.017,0.017,0.017,1200,0.017
2015-08-17,0.017,0.017,0.017,0.017,78900,0.017
2015-08-14,0.017,0.017,0.017,0.017,339000,0.017
2015-08-13,0.021,0.021,0.021,0.021,187900,0.021
2015-08-12,0.018,0.02,0.018,0.02,58000,0.02
2015-08-11,0.019,0.019,0.018,0.018,451600,0.018
2015-08-10,0.018,0.019,0.018,0.019,269700,0.019
2015-08-07,0.02,0.021,0.02,0.021,503500,0.021
2015-08-06,0.021,0.021,0.02,0.021,562000,0.021
2015-08-05,0.018,0.022,0.018,0.022,2612700,0.022
2015-08-04,0.015,0.016,0.015,0.016,141600,0.016
2015-08-03,0.015,0.015,0.015,0.015,103300,0.015
2015-07-31,0.014,0.015,0.014,0.015,193000,0.015
2015-07-30,0.014,0.014,0.014,0.014,000,0.014
2015-07-29,0.014,0.014,0.014,0.014,98000,0.014
2015-07-28,0.02,0.02,0.016,0.016,99800,0.016
2015-07-27,0.02,0.02,0.02,0.02,000,0.02
2015-07-24,0.02,0.023,0.016,0.02,595000,0.02
2015-07-23,0.01,0.021,0.01,0.021,275000,0.021
2015-07-22,0.03,0.03,0.03,0.03,000,0.03
2015-07-21,0.03,0.03,0.03,0.03,000,0.03
2015-07-20,0.03,0.03,0.03,0.03,000,0.03
2015-07-17,0.03,0.03,0.03,0.03,000,0.03
2015-07-16,0.03,0.03,0.03,0.03,000,0.03
2015-07-15,0.03,0.03,0.03,0.03,000,0.03
2015-07-14,0.03,0.03,0.03,0.03,000,0.03
2015-07-13,0.03,0.03,0.03,0.03,000,0.03
2015-07-10,0.03,0.03,0.03,0.03,000,0.03
2015-07-09,0.03,0.03,0.03,0.03,000,0.03
2015-07-08,0.03,0.03,0.03,0.03,000,0.90
2015-07-07,0.03,0.03,0.03,0.03,16600,0.90
2015-07-06,0.03,0.03,0.03,0.03,000,0.90
2015-07-03,0.03,0.03,0.03,0.03,17300,0.90
2015-07-02,0.03,0.03,0.03,0.03,000,0.90
2015-07-01,0.03,0.03,0.03,0.03,000,0.90
2015-06-30,0.03,0.03,0.03,0.03,000,0.90
2015-06-29,0.03,0.03,0.03,0.03,000,0.90
2015-06-26,0.03,0.03,0.03,0.03,153300,0.90
2015-06-25,0.03,0.03,0.03,0.03,000,0.90
2015-06-24,0.03,0.03,0.03,0.03,000,0.90
2015-06-23,0.03,0.03,0.03,0.03,000,0.90
2015-06-22,0.03,0.03,0.03,0.03,000,0.90
2015-06-19,0.03,0.03,0.03,0.03,000,0.90
2015-06-18,0.03,0.03,0.03,0.03,000,0.90
2015-06-17,0.03,0.03,0.03,0.03,000,0.90
2015-06-16,0.03,0.03,0.03,0.03,000,0.90
2015-06-15,0.03,0.03,0.03,0.03,000,0.90
2015-06-12,0.03,0.03,0.03,0.03,000,0.90
2015-06-11,0.03,0.03,0.03,0.03,000,0.90
2015-06-10,0.03,0.03,0.03,0.03,000,0.90
2015-06-09,0.03,0.03,0.03,0.03,000,0.90
2015-06-08,0.03,0.03,0.03,0.03,000,0.90
2015-06-05,0.03,0.03,0.03,0.03,000,0.90
2015-06-04,0.03,0.03,0.03,0.03,000,0.90
2015-06-03,0.03,0.03,0.03,0.03,000,0.90
2015-06-02,0.03,0.03,0.03,0.03,000,0.90
2015-06-01,0.03,0.03,0.03,0.03,000,0.90
2015-05-29,0.03,0.03,0.03,0.03,000,0.90
2015-05-28,0.03,0.03,0.03,0.03,000,0.90
2015-05-27,0.001,0.001,0.001,0.001,000,0.03
2015-05-26,0.001,0.001,0.001,0.001,000,0.03
2015-05-25,0.001,0.001,0.001,0.001,000,0.03
2015-05-22,0.001,0.001,0.001,0.001,000,0.03
2015-05-21,0.001,0.001,0.001,0.001,000,0.03
2015-05-20,0.001,0.001,0.001,0.001,000,0.03
2015-05-19,0.001,0.001,0.001,0.001,16600,0.03
2015-05-18,0.001,0.001,0.001,0.001,000,0.03
2015-05-15,0.001,0.001,0.001,0.001,000,0.03
2015-05-14,0.001,0.001,0.001,0.001,000,0.03
2015-05-13,0.001,0.001,0.001,0.001,000,0.03
2015-05-12,0.001,0.001,0.001,0.001,000,0.03
2015-05-11,0.001,0.001,0.001,0.001,000,0.03
2015-05-08,0.001,0.001,0.001,0.001,000,0.03
2015-05-07,0.001,0.001,0.001,0.001,000,0.03
2015-05-06,0.001,0.001,0.001,0.001,33300,0.03
2015-05-05,0.001,0.001,0.001,0.001,000,0.03
2015-05-04,0.001,0.001,0.001,0.001,000,0.03
2015-05-01,0.001,0.001,0.001,0.001,000,0.03
2015-04-30,0.001,0.001,0.001,0.001,000,0.03
2015-04-29,0.001,0.001,0.001,0.001,000,0.03
2015-04-28,0.001,0.001,0.001,0.001,000,0.03
2015-04-27,0.001,0.001,0.001,0.001,000,0.03
2015-04-24,0.001,0.001,0.001,0.001,000,0.03
2015-04-23,0.001,0.001,0.001,0.001,000,0.03
2015-04-22,0.001,0.001,0.001,0.001,000,0.03
2015-04-21,0.001,0.001,0.001,0.001,000,0.03
2015-04-20,0.001,0.001,0.001,0.001,000,0.03
2015-04-17,0.001,0.001,0.001,0.001,000,0.03
2015-04-16,0.001,0.001,0.001,0.001,000,0.03
2015-04-15,0.001,0.001,0.001,0.001,000,0.03
2015-04-14,0.001,0.001,0.001,0.001,000,0.03
2015-04-13,0.001,0.001,0.001,0.001,000,0.03
2015-04-10,0.001,0.001,0.001,0.001,000,0.03
2015-04-09,0.001,0.001,0.001,0.001,000,0.03
2015-04-08,0.001,0.001,0.001,0.001,000,0.03
2015-04-07,0.001,0.001,0.001,0.001,000,0.03
2015-04-06,0.001,0.001,0.001,0.001,000,0.03
2015-04-03,0.001,0.001,0.001,0.001,000,0.03
2015-04-02,0.001,0.001,0.001,0.001,000,0.03
2015-04-01,0.001,0.001,0.001,0.001,000,0.03
2015-03-31,0.001,0.001,0.001,0.001,000,0.03
2015-03-30,0.001,0.001,0.001,0.001,000,0.03
2015-03-27,0.001,0.001,0.001,0.001,000,0.03
2015-03-26,0.001,0.001,0.001,0.001,000,0.03
2015-03-25,0.001,0.001,0.001,0.001,000,0.03
2015-03-24,0.001,0.001,0.001,0.001,000,0.03
2015-03-23,0.001,0.001,0.001,0.001,000,0.03
2015-03-20,0.001,0.001,0.001,0.001,000,0.03
2015-03-19,0.001,0.001,0.001,0.001,000,0.03
2015-03-18,0.001,0.001,0.001,0.001,33300,0.03
2015-03-17,0.001,0.001,0.001,0.001,32800,0.03
2015-03-16,0.001,0.001,0.001,0.001,53100,0.03
2015-03-13,0.001,0.001,0.001,0.001,26600,0.03
2015-03-12,0.001,0.001,0.001,0.001,202900,0.03
2015-03-11,0.001,0.001,0.001,0.001,000,0.03
2015-03-10,0.001,0.001,0.001,0.001,000,0.03
2015-03-09,0.001,0.001,0.001,0.001,000,0.03
2015-03-06,0.001,0.001,0.001,0.001,000,0.03
2015-03-05,0.001,0.001,0.001,0.001,000,0.03
2015-03-04,0.001,0.001,0.001,0.001,000,0.03
2015-03-03,0.001,0.001,0.001,0.001,000,0.03
2015-03-02,0.001,0.001,0.001,0.001,000,0.03
2015-02-27,0.001,0.001,0.001,0.001,133300,0.03
2015-02-26,0.001,0.001,0.001,0.001,000,0.03
2015-02-25,0.001,0.001,0.001,0.001,000,0.03
2015-02-24,0.001,0.001,0.001,0.001,000,0.03
2015-02-23,0.001,0.001,0.001,0.001,000,0.03
2015-02-20,0.001,0.001,0.001,0.001,000,0.03
2015-02-19,0.001,0.001,0.001,0.001,000,0.03
2015-02-18,0.001,0.001,0.001,0.001,000,0.03
2015-02-17,0.001,0.001,0.001,0.001,000,0.03
2015-02-16,0.001,0.001,0.001,0.001,214600,0.03
2015-02-13,0.001,0.001,0.001,0.001,000,0.03
2015-02-12,0.001,0.001,0.001,0.001,000,0.03
2015-02-11,0.001,0.001,0.001,0.001,000,0.03
2015-02-10,0.001,0.001,0.001,0.001,000,0.03
2015-02-09,0.001,0.001,0.001,0.001,000,0.03
2015-02-06,0.001,0.001,0.001,0.001,000,0.03
2015-02-05,0.001,0.001,0.001,0.001,000,0.03
2015-02-04,0.001,0.001,0.001,0.001,000,0.03
2015-02-03,0.001,0.001,0.001,0.001,000,0.03
2015-02-02,0.001,0.001,0.001,0.001,000,0.03
2015-01-30,0.001,0.001,0.001,0.001,000,0.03
2015-01-29,0.001,0.001,0.001,0.001,000,0.03
2015-01-28,0.001,0.001,0.001,0.001,000,0.03
2015-01-27,0.001,0.001,0.001,0.001,000,0.03
2015-01-26,0.001,0.001,0.001,0.001,000,0.03
2015-01-23,0.001,0.001,0.001,0.001,000,0.03
2015-01-22,0.001,0.001,0.001,0.001,000,0.03
2015-01-21,0.001,0.001,0.001,0.001,52800,0.03
2015-01-20,0.001,0.001,0.001,0.001,000,0.03
2015-01-19,0.001,0.001,0.001,0.001,000,0.03
2015-01-16,0.001,0.001,0.001,0.001,241300,0.03
2015-01-15,0.001,0.001,0.001,0.001,000,0.03
2015-01-14,0.001,0.001,0.001,0.001,000,0.03
2015-01-13,0.001,0.001,0.001,0.001,000,0.03
2015-01-12,0.001,0.001,0.001,0.001,000,0.03
2015-01-09,0.001,0.001,0.001,0.001,40000,0.03
2015-01-08,0.001,0.001,0.001,0.001,104400,0.03
2015-01-07,0.001,0.001,0.001,0.001,214800,0.03
2015-01-06,0.001,0.001,0.001,0.001,134000,0.03
2015-01-05,0.001,0.001,0.001,0.001,000,0.03
2015-01-02,0.001,0.001,0.001,0.001,360400,0.03
2015-01-01,0.001,0.001,0.001,0.001,000,0.03
2014-12-31,0.001,0.001,0.001,0.001,540600,0.03
2014-12-30,0.001,0.001,0.001,0.001,000,0.03
2014-12-29,0.001,0.001,0.001,0.001,000,0.03
2014-12-26,0.001,0.001,0.001,0.001,000,0.03
2014-12-25,0.001,0.001,0.001,0.001,000,0.03
2014-12-24,0.001,0.001,0.001,0.001,000,0.03
2014-12-23,0.001,0.001,0.001,0.001,000,0.03
2014-12-22,0.001,0.001,0.001,0.001,000,0.03
2014-12-19,0.001,0.001,0.001,0.001,113300,0.03
2014-12-18,0.001,0.001,0.001,0.001,000,0.03
2014-12-17,0.001,0.001,0.001,0.001,000,0.03
2014-12-16,0.001,0.001,0.001,0.001,000,0.03
2014-12-15,0.001,0.001,0.001,0.001,000,0.03
2014-12-12,0.001,0.001,0.001,0.001,9800,0.03
2014-12-11,0.001,0.001,0.001,0.001,000,0.03
2014-12-10,0.001,0.001,0.001,0.001,000,0.03
2014-12-09,0.001,0.001,0.001,0.001,000,0.03
2014-12-08,0.001,0.001,0.001,0.001,000,0.03
2014-12-05,0.001,0.001,0.001,0.001,000,0.03
2014-12-04,0.001,0.001,0.001,0.001,000,0.03
2014-12-03,0.001,0.001,0.001,0.001,000,0.03
2014-12-02,0.001,0.001,0.001,0.001,000,0.03
2014-12-01,0.001,0.001,0.001,0.001,63300,0.03
2014-11-28,0.001,0.001,0.001,0.001,138000,0.03
2014-11-27,0.001,0.001,0.001,0.001,1626200,0.03
2014-11-26,0.002,0.002,0.002,0.002,000,0.06
2014-11-25,0.002,0.002,0.002,0.002,000,0.06
2014-11-24,0.002,0.002,0.002,0.002,000,0.06
2014-11-21,0.002,0.002,0.002,0.002,23500,0.06
2014-11-20,0.001,0.001,0.001,0.001,50000,0.03
2014-11-19,0.002,0.002,0.002,0.002,000,0.06
2014-11-18,0.002,0.002,0.002,0.002,6600,0.06
2014-11-17,0.001,0.001,0.001,0.001,13600,0.03
2014-11-14,0.001,0.001,0.001,0.001,6600,0.03
2014-11-13,0.002,0.002,0.002,0.002,000,0.06
2014-11-12,0.002,0.002,0.002,0.002,000,0.06
2014-11-11,0.002,0.002,0.002,0.002,32500,0.06
2014-11-10,0.002,0.002,0.002,0.002,000,0.06
2014-11-07,0.002,0.002,0.002,0.002,000,0.06
2014-11-06,0.002,0.002,0.001,0.002,239300,0.06
2014-11-05,0.001,0.001,0.001,0.001,170800,0.03
2014-11-04,0.001,0.001,0.001,0.001,36400,0.03
2014-11-03,0.001,0.001,0.001,0.001,179500,0.03
2014-10-31,0.001,0.001,0.001,0.001,3297100,0.03
2014-10-30,0.002,0.002,0.001,0.001,57900,0.03
2014-10-29,0.002,0.002,0.001,0.002,699300,0.06
2014-10-28,0.002,0.002,0.002,0.002,114900,0.06
2014-10-27,0.003,0.003,0.002,0.002,181800,0.06
2014-10-24,0.002,0.002,0.002,0.002,000,0.06
2014-10-23,0.002,0.002,0.002,0.002,80000,0.06
2014-10-22,0.002,0.002,0.002,0.002,000,0.06
2014-10-21,0.002,0.002,0.002,0.002,8700,0.06
2014-10-20,0.002,0.002,0.002,0.002,6600,0.06
2014-10-17,0.002,0.002,0.002,0.002,57100,0.06
2014-10-16,0.002,0.002,0.002,0.002,26600,0.06
2014-10-15,0.002,0.002,0.002,0.002,1600,0.06
2014-10-14,0.002,0.002,0.002,0.002,10000,0.06
2014-10-13,0.002,0.002,0.002,0.002,000,0.06
2014-10-10,0.002,0.002,0.002,0.002,000,0.06
2014-10-09,0.002,0.002,0.002,0.002,25000,0.06
2014-10-08,0.002,0.003,0.002,0.003,86500,0.09
2014-10-07,0.002,0.002,0.002,0.002,15500,0.06
2014-10-06,0.003,0.003,0.003,0.003,000,0.09
2014-10-03,0.003,0.003,0.003,0.003,000,0.09
2014-10-02,0.003,0.003,0.003,0.003,000,0.09
2014-10-01,0.003,0.003,0.003,0.003,000,0.09
2014-09-30,0.003,0.003,0.002,0.003,141600,0.09
2014-09-29,0.003,0.003,0.003,0.003,100000,0.09
2014-09-26,0.003,0.003,0.003,0.003,96600,0.09
2014-09-25,0.002,0.002,0.002,0.002,000,0.06
2014-09-24,0.002,0.002,0.002,0.002,11000,0.06
2014-09-23,0.003,0.003,0.003,0.003,5500,0.09
2014-09-22,0.003,0.003,0.002,0.002,46600,0.06
2014-09-19,0.003,0.003,0.002,0.002,72100,0.06
2014-09-18,0.003,0.003,0.003,0.003,78300,0.09
2014-09-17,0.003,0.003,0.003,0.003,100,0.09
2014-09-16,0.003,0.003,0.003,0.003,19900,0.09
2014-09-15,0.003,0.004,0.003,0.003,621600,0.09
2014-09-12,0.003,0.003,0.003,0.003,880500,0.09
2014-09-11,0.002,0.003,0.002,0.003,131700,0.09
2014-09-10,0.003,0.003,0.003,0.003,9400,0.09
2014-09-09,0.003,0.003,0.003,0.003,229000,0.09
2014-09-08,0.004,0.004,0.002,0.002,1481700,0.06
2014-09-05,0.003,0.003,0.003,0.003,5000,0.09
2014-09-04,0.004,0.004,0.003,0.003,170600,0.09
2014-09-03,0.003,0.003,0.003,0.003,16300,0.09
2014-09-02,0.003,0.003,0.003,0.003,27000,0.09
2014-09-01,0.003,0.003,0.003,0.003,000,0.09
2014-08-29,0.003,0.003,0.003,0.003,6600,0.09
2014-08-28,0.003,0.003,0.003,0.003,000,0.09
2014-08-27,0.003,0.003,0.003,0.003,4500,0.09
2014-08-26,0.004,0.004,0.003,0.003,26900,0.09
2014-08-25,0.003,0.003,0.003,0.003,84500,0.09
2014-08-22,0.003,0.003,0.003,0.003,8000,0.09
2014-08-21,0.004,0.004,0.003,0.003,351900,0.09
2014-08-20,0.004,0.004,0.004,0.004,206400,0.12
2014-08-19,0.004,0.004,0.004,0.004,128200,0.12
2014-08-18,0.004,0.004,0.004,0.004,48900,0.12
2014-08-15,0.005,0.005,0.004,0.004,40600,0.12
2014-08-14,0.006,0.006,0.005,0.005,373600,0.15
2014-08-13,0.005,0.006,0.004,0.006,874900,0.18
2014-08-12,0.004,0.005,0.003,0.004,2040300,0.12
2014-08-11,0.009,0.009,0.009,0.009,000,0.27
2014-08-08,0.009,0.009,0.009,0.009,000,0.27
2014-08-07,0.009,0.009,0.009,0.009,000,0.27
2014-08-06,0.009,0.009,0.009,0.009,000,0.27
2014-08-05,0.009,0.009,0.009,0.009,000,0.27
2014-08-04,0.009,0.009,0.009,0.009,000,0.27
2014-08-01,0.009,0.009,0.009,0.009,000,0.27
2014-07-31,0.009,0.009,0.009,0.009,000,0.27
2014-07-30,0.009,0.009,0.009,0.009,000,0.27
2014-07-29,0.009,0.009,0.009,0.009,000,0.27
2014-07-28,0.009,0.009,0.009,0.009,000,0.27
2014-07-25,0.009,0.009,0.009,0.009,000,0.27
2014-07-24,0.009,0.009,0.009,0.009,000,0.27
2014-07-23,0.009,0.009,0.009,0.009,000,0.27
2014-07-22,0.009,0.009,0.009,0.009,000,0.27
2014-07-21,0.009,0.009,0.009,0.009,000,0.27
2014-07-18,0.009,0.009,0.009,0.009,000,0.27
2014-07-17,0.009,0.009,0.009,0.009,000,0.27
2014-07-16,0.009,0.009,0.009,0.009,000,0.27
2014-07-15,0.009,0.009,0.009,0.009,000,0.27
2014-07-14,0.009,0.009,0.009,0.009,000,0.27
2014-07-11,0.009,0.009,0.009,0.009,000,0.27
2014-07-10,0.009,0.009,0.009,0.009,000,0.27
2014-07-09,0.009,0.009,0.009,0.009,000,0.27
2014-07-08,0.009,0.009,0.009,0.009,000,0.27
2014-07-07,0.009,0.009,0.009,0.009,000,0.27
2014-07-04,0.009,0.009,0.009,0.009,000,0.27
2014-07-03,0.009,0.009,0.009,0.009,000,0.27
2014-07-02,0.009,0.009,0.009,0.009,000,0.27
2014-07-01,0.009,0.009,0.009,0.009,000,0.27
2014-06-30,0.009,0.009,0.009,0.009,000,0.27
2014-06-27,0.009,0.009,0.009,0.009,000,0.27
2014-06-26,0.009,0.009,0.009,0.009,000,0.27
2014-06-25,0.009,0.009,0.009,0.009,000,0.27
2014-06-24,0.009,0.009,0.009,0.009,000,0.27
2014-06-23,0.009,0.009,0.009,0.009,000,0.27
2014-06-20,0.009,0.009,0.009,0.009,000,0.27
2014-06-19,0.009,0.009,0.009,0.009,000,0.27
2014-06-18,0.009,0.009,0.009,0.009,000,0.27
2014-06-17,0.009,0.009,0.009,0.009,000,0.27
2014-06-16,0.009,0.009,0.009,0.009,000,0.27
2014-06-13,0.009,0.009,0.009,0.009,000,0.27
2014-06-12,0.009,0.009,0.009,0.009,000,0.27
2014-06-11,0.009,0.009,0.009,0.009,000,0.27
2014-06-10,0.009,0.009,0.009,0.009,000,0.27
2014-06-09,0.009,0.009,0.009,0.009,000,0.27
2014-06-06,0.009,0.009,0.009,0.009,000,0.27
2014-06-05,0.009,0.009,0.009,0.009,000,0.27
2014-06-04,0.009,0.009,0.009,0.009,000,0.27
2014-06-03,0.009,0.009,0.009,0.009,000,0.27
2014-06-02,0.009,0.009,0.009,0.009,000,0.27
2014-05-30,0.009,0.009,0.009,0.009,000,0.27
2014-05-29,0.009,0.009,0.009,0.009,000,0.27
2014-05-28,0.009,0.009,0.009,0.009,000,0.27
2014-05-27,0.009,0.009,0.009,0.009,000,0.27
2014-05-26,0.009,0.009,0.009,0.009,000,0.27
2014-05-23,0.009,0.009,0.009,0.009,000,0.27
2014-05-22,0.009,0.009,0.009,0.009,000,0.27
2014-05-21,0.009,0.009,0.009,0.009,000,0.27
2014-05-20,0.009,0.009,0.009,0.009,000,0.27
2014-05-19,0.009,0.009,0.009,0.009,000,0.27
2014-05-16,0.008,0.01,0.008,0.009,2108500,0.27
2014-05-15,0.011,0.011,0.005,0.005,4316000,0.15
2014-05-14,0.012,0.012,0.01,0.01,351000,0.30
2014-05-13,0.012,0.012,0.011,0.011,78500,0.33
2014-05-12,0.013,0.013,0.011,0.012,572300,0.36
2014-05-09,0.013,0.013,0.012,0.013,212600,0.39
2014-05-08,0.012,0.012,0.011,0.011,97300,0.33
2014-05-07,0.012,0.012,0.011,0.012,213000,0.36
2014-05-06,0.012,0.012,0.012,0.012,171500,0.36
2014-05-05,0.012,0.012,0.012,0.012,145800,0.36
2014-05-02,0.012,0.012,0.012,0.012,383400,0.36
2014-05-01,0.013,0.013,0.012,0.012,271100,0.36
2014-04-30,0.013,0.013,0.013,0.013,15000,0.39
2014-04-29,0.014,0.014,0.013,0.013,276000,0.39
2014-04-28,0.013,0.014,0.013,0.013,894800,0.39
2014-04-25,0.013,0.013,0.013,0.013,000,0.39
2014-04-24,0.013,0.013,0.012,0.013,141400,0.39
2014-04-23,0.014,0.014,0.012,0.013,252600,0.39
2014-04-22,0.015,0.015,0.013,0.013,1122700,0.39
2014-04-21,0.015,0.015,0.015,0.015,000,0.45
2014-04-18,0.015,0.015,0.015,0.015,000,0.45
2014-04-17,0.018,0.019,0.015,0.015,1817200,0.45
2014-04-16,0.014,0.016,0.014,0.016,761200,0.48
2014-04-15,0.015,0.015,0.013,0.014,228300,0.42
2014-04-14,0.014,0.015,0.014,0.014,656100,0.42
2014-04-11,0.014,0.015,0.014,0.014,1174200,0.42
2014-04-10,0.012,0.014,0.011,0.014,1171200,0.42
2014-04-09,0.014,0.014,0.012,0.012,700400,0.36
2014-04-08,0.017,0.017,0.012,0.013,2243400,0.39
2014-04-07,0.011,0.018,0.011,0.017,5336000,0.51
2014-04-04,0.008,0.011,0.007,0.01,2417900,0.30
2014-04-03,0.006,0.006,0.006,0.006,136800,0.18
2014-04-02,0.007,0.007,0.007,0.007,000,0.21
2014-04-01,0.007,0.007,0.007,0.007,2200,0.21
2014-03-31,0.006,0.006,0.006,0.006,15700,0.18
2014-03-28,0.006,0.006,0.005,0.005,33300,0.15
2014-03-27,0.006,0.006,0.006,0.006,76500,0.18
2014-03-26,0.006,0.006,0.005,0.006,54600,0.18
2014-03-25,0.006,0.006,0.005,0.005,45000,0.15
2014-03-24,0.006,0.006,0.006,0.006,231800,0.18
2014-03-21,0.007,0.007,0.007,0.007,16600,0.21
2014-03-20,0.007,0.007,0.007,0.007,288400,0.21
2014-03-19,0.006,0.007,0.006,0.007,106400,0.21
2014-03-18,0.006,0.006,0.006,0.006,000,0.18
2014-03-17,0.006,0.006,0.006,0.006,46100,0.18
2014-03-14,0.007,0.007,0.007,0.007,65800,0.21
2014-03-13,0.006,0.008,0.006,0.007,722600,0.21
2014-03-12,0.005,0.005,0.005,0.005,333800,0.15
2014-03-11,0.006,0.006,0.006,0.006,250600,0.18
2014-03-10,0.007,0.007,0.007,0.007,4500,0.21
2014-03-07,0.007,0.007,0.006,0.006,55800,0.18
2014-03-06,0.008,0.008,0.007,0.007,486700,0.21
2014-03-05,0.008,0.008,0.008,0.008,74000,0.24
2014-03-04,0.007,0.008,0.007,0.007,309700,0.21
2014-03-03,0.006,0.006,0.006,0.006,142800,0.18
2014-02-28,0.006,0.006,0.006,0.006,153900,0.18
2014-02-27,0.006,0.006,0.006,0.006,000,0.18
2014-02-26,0.006,0.006,0.005,0.006,160500,0.18
2014-02-25,0.005,0.005,0.005,0.005,47500,0.15
2014-02-24,0.005,0.005,0.005,0.005,000,0.15
2014-02-21,0.005,0.005,0.005,0.005,150000,0.15
2014-02-20,0.005,0.005,0.005,0.005,2300,0.15
2014-02-19,0.006,0.006,0.005,0.005,102600,0.15
2014-02-18,0.005,0.005,0.005,0.005,105600,0.15
2014-02-17,0.006,0.006,0.005,0.006,315100,0.18
2014-02-14,0.006,0.006,0.005,0.006,333700,0.18
2014-02-13,0.005,0.005,0.005,0.005,221700,0.15
2014-02-12,0.006,0.007,0.005,0.006,519900,0.18
2014-02-11,0.005,0.005,0.005,0.005,30100,0.15
2014-02-10,0.006,0.007,0.005,0.006,448900,0.18
2014-02-07,0.007,0.007,0.006,0.006,85000,0.18
2014-02-06,0.006,0.006,0.006,0.006,70000,0.18
2014-02-05,0.006,0.008,0.006,0.006,339800,0.18
2014-02-04,0.006,0.006,0.005,0.005,335700,0.15
2014-02-03,0.006,0.007,0.006,0.006,379200,0.18
2014-01-31,0.007,0.008,0.007,0.008,18800,0.24
2014-01-30,0.007,0.007,0.007,0.007,48300,0.21
2014-01-29,0.008,0.008,0.007,0.007,3300,0.21
2014-01-28,0.008,0.008,0.008,0.008,5000,0.24
2014-01-27,0.008,0.008,0.008,0.008,000,0.24
2014-01-24,0.008,0.008,0.008,0.008,000,0.24
2014-01-23,0.008,0.008,0.008,0.008,3300,0.24
2014-01-22,0.008,0.008,0.008,0.008,70000,0.24
2014-01-21,0.009,0.009,0.008,0.008,66500,0.24
2014-01-20,0.008,0.008,0.008,0.008,54500,0.24
2014-01-17,0.008,0.009,0.008,0.009,31000,0.27
2014-01-16,0.008,0.008,0.008,0.008,26500,0.24
2014-01-15,0.008,0.008,0.008,0.008,000,0.24
2014-01-14,0.008,0.008,0.008,0.008,13100,0.24
2014-01-13,0.007,0.008,0.007,0.008,43900,0.24
2014-01-10,0.007,0.008,0.006,0.007,22600,0.21
2014-01-09,0.007,0.007,0.007,0.007,25700,0.21
2014-01-08,0.007,0.008,0.007,0.007,379200,0.21
2014-01-07,0.007,0.007,0.007,0.007,500,0.21
2014-01-06,0.006,0.006,0.006,0.006,69300,0.18
2014-01-03,0.006,0.006,0.006,0.006,44100,0.18
2014-01-02,0.006,0.006,0.006,0.006,3600,0.18
2014-01-01,0.006,0.006,0.006,0.006,000,0.18
2013-12-31,0.006,0.006,0.006,0.006,1500,0.18
2013-12-30,0.007,0.007,0.006,0.006,43300,0.18
2013-12-27,0.006,0.006,0.006,0.006,000,0.18
2013-12-26,0.006,0.006,0.006,0.006,000,0.18
2013-12-25,0.006,0.006,0.006,0.006,000,0.18
2013-12-24,0.006,0.006,0.006,0.006,000,0.18
2013-12-23,0.006,0.006,0.006,0.006,73100,0.18
2013-12-20,0.007,0.007,0.007,0.007,000,0.21
2013-12-19,0.007,0.007,0.007,0.007,47100,0.21
2013-12-18,0.005,0.008,0.005,0.007,279400,0.21
2013-12-17,0.005,0.005,0.005,0.005,67600,0.15
2013-12-16,0.006,0.006,0.005,0.005,113700,0.15
2013-12-13,0.007,0.007,0.005,0.006,75800,0.18
2013-12-12,0.008,0.009,0.007,0.007,857100,0.21
2013-12-11,0.007,0.007,0.007,0.007,8700,0.21
2013-12-10,0.007,0.007,0.007,0.007,5900,0.21
2013-12-09,0.008,0.008,0.008,0.008,000,0.24
2013-12-06,0.007,0.008,0.007,0.008,3300,0.24
2013-12-05,0.007,0.007,0.007,0.007,000,0.21
2013-12-04,0.008,0.008,0.007,0.007,116400,0.21
2013-12-03,0.008,0.008,0.008,0.008,000,0.24
2013-12-02,0.008,0.008,0.008,0.008,300,0.24
2013-11-29,0.008,0.009,0.008,0.009,18100,0.27
2013-11-28,0.008,0.008,0.007,0.008,55100,0.24
2013-11-27,0.008,0.008,0.008,0.008,19300,0.24
2013-11-26,0.008,0.009,0.008,0.008,44800,0.24
2013-11-25,0.009,0.009,0.008,0.008,47500,0.24
2013-11-22,0.009,0.01,0.009,0.01,33000,0.30
2013-11-21,0.009,0.009,0.009,0.009,11600,0.27
2013-11-20,0.009,0.009,0.009,0.009,33000,0.27
2013-11-19,0.009,0.01,0.009,0.009,57800,0.27
2013-11-18,0.01,0.01,0.01,0.01,167400,0.30
2013-11-15,0.009,0.009,0.009,0.009,000,0.27
2013-11-14,0.009,0.009,0.009,0.009,000,0.27
2013-11-13,0.009,0.009,0.009,0.009,110600,0.27
2013-11-12,0.011,0.011,0.009,0.009,68300,0.27
2013-11-11,0.01,0.011,0.01,0.011,14100,0.33
2013-11-08,0.01,0.01,0.01,0.01,5000,0.30
2013-11-07,0.011,0.011,0.01,0.01,58400,0.30
2013-11-06,0.01,0.011,0.01,0.011,14100,0.33
2013-11-05,0.01,0.011,0.01,0.011,85700,0.33
2013-11-04,0.011,0.011,0.01,0.01,135600,0.30
2013-11-01,0.011,0.011,0.01,0.01,55200,0.30
2013-10-31,0.011,0.011,0.011,0.011,142400,0.33
2013-10-30,0.011,0.011,0.011,0.011,110600,0.33
2013-10-29,0.012,0.013,0.011,0.011,136900,0.33
2013-10-28,0.011,0.012,0.011,0.012,25100,0.36
2013-10-25,0.012,0.012,0.011,0.011,84500,0.33
2013-10-24,0.011,0.011,0.011,0.011,36300,0.33
2013-10-23,0.011,0.011,0.011,0.011,7500,0.33
2013-10-22,0.011,0.011,0.011,0.011,25200,0.33
2013-10-21,0.012,0.012,0.011,0.011,28400,0.33
2013-10-18,0.011,0.012,0.01,0.011,179700,0.33
2013-10-17,0.012,0.012,0.011,0.011,81800,0.33
2013-10-16,0.013,0.013,0.011,0.011,188300,0.33
2013-10-15,0.012,0.012,0.012,0.012,8300,0.36
2013-10-14,0.011,0.011,0.011,0.011,5900,0.33
2013-10-11,0.014,0.014,0.012,0.012,142400,0.36
2013-10-10,0.013,0.013,0.013,0.013,31900,0.39
2013-10-09,0.012,0.013,0.012,0.013,50100,0.39
2013-10-08,0.013,0.013,0.012,0.013,26400,0.39
2013-10-07,0.014,0.014,0.014,0.014,10100,0.42
2013-10-04,0.015,0.015,0.013,0.013,58900,0.39
2013-10-03,0.018,0.018,0.014,0.014,361100,0.42
2013-10-02,0.013,0.013,0.013,0.013,13200,0.39
2013-10-01,0.012,0.014,0.012,0.014,79600,0.42
2013-09-30,0.012,0.012,0.011,0.011,44500,0.33
2013-09-27,0.012,0.012,0.012,0.012,2200,0.36
2013-09-26,0.012,0.012,0.012,0.012,15300,0.36
2013-09-25,0.012,0.012,0.012,0.012,23200,0.36
2013-09-24,0.012,0.012,0.012,0.012,000,0.36
2013-09-23,0.012,0.012,0.012,0.012,20700,0.36
2013-09-20,0.012,0.012,0.012,0.012,000,0.36
2013-09-19,0.012,0.012,0.012,0.012,25500,0.36
2013-09-18,0.012,0.013,0.011,0.013,19600,0.39
2013-09-17,0.012,0.013,0.011,0.011,30400,0.33
2013-09-16,0.012,0.013,0.012,0.013,39100,0.39
2013-09-13,0.013,0.013,0.011,0.011,137900,0.33
2013-09-12,0.013,0.014,0.013,0.013,52200,0.39
2013-09-11,0.013,0.013,0.013,0.013,000,0.39
2013-09-10,0.014,0.014,0.013,0.013,16600,0.39
2013-09-09,0.014,0.014,0.014,0.014,8300,0.42
2013-09-06,0.012,0.014,0.012,0.013,60500,0.39
2013-09-05,0.013,0.013,0.012,0.012,7600,0.36
2013-09-04,0.013,0.013,0.013,0.013,000,0.39
2013-09-03,0.013,0.013,0.013,0.013,41100,0.39
2013-09-02,0.013,0.013,0.013,0.013,2100,0.39
2013-08-30,0.013,0.013,0.013,0.013,10000,0.39
2013-08-29,0.013,0.013,0.013,0.013,1600,0.39
2013-08-28,0.013,0.013,0.012,0.012,55000,0.36
2013-08-27,0.013,0.013,0.013,0.013,2900,0.39
2013-08-26,0.012,0.012,0.012,0.012,15500,0.36
2013-08-23,0.013,0.013,0.013,0.013,20200,0.39
2013-08-22,0.014,0.014,0.013,0.013,32600,0.39
2013-08-21,0.014,0.017,0.013,0.013,282200,0.39
2013-08-20,0.013,0.013,0.013,0.013,10100,0.39
2013-08-19,0.014,0.014,0.014,0.014,4500,0.42
2013-08-16,0.014,0.014,0.014,0.014,000,0.42
2013-08-15,0.013,0.014,0.013,0.014,11000,0.42
2013-08-14,0.013,0.013,0.013,0.013,1500,0.39
2013-08-13,0.013,0.013,0.013,0.013,23300,0.39
2013-08-12,0.013,0.013,0.013,0.013,10400,0.39
2013-08-09,0.014,0.014,0.013,0.014,23700,0.42
2013-08-08,0.013,0.014,0.013,0.014,13300,0.42
2013-08-07,0.013,0.015,0.012,0.012,63500,0.36
2013-08-06,0.013,0.014,0.013,0.013,53900,0.39
2013-08-05,0.013,0.013,0.013,0.013,6000,0.39
2013-08-02,0.013,0.013,0.012,0.013,51500,0.39
2013-08-01,0.013,0.013,0.013,0.013,000,0.39
2013-07-31,0.014,0.014,0.013,0.013,5100,0.39
2013-07-30,0.014,0.014,0.014,0.014,1600,0.42
2013-07-29,0.014,0.014,0.014,0.014,20000,0.42
2013-07-26,0.014,0.015,0.013,0.013,94600,0.39
2013-07-25,0.015,0.015,0.014,0.014,12500,0.42
2013-07-24,0.015,0.015,0.014,0.014,45700,0.42
2013-07-23,0.016,0.016,0.015,0.015,8600,0.45
2013-07-22,0.015,0.015,0.015,0.015,22500,0.45
2013-07-19,0.016,0.016,0.015,0.015,26300,0.45
2013-07-18,0.015,0.017,0.015,0.016,311400,0.48
2013-07-17,0.014,0.014,0.013,0.014,147800,0.42
2013-07-16,0.015,0.015,0.014,0.014,75900,0.42
2013-07-15,0.016,0.016,0.016,0.016,76700,0.48
2013-07-12,0.015,0.016,0.015,0.016,61300,0.48
2013-07-11,0.016,0.016,0.014,0.014,103300,0.42
2013-07-10,0.017,0.018,0.016,0.016,383900,0.48
2013-07-09,0.018,0.023,0.015,0.018,2696800,0.54
2013-07-08,0.012,0.012,0.012,0.012,000,0.36
2013-07-05,0.012,0.012,0.012,0.012,000,0.36
2013-07-04,0.019,0.019,0.011,0.012,692500,0.36
2013-07-03,0.021,0.021,0.019,0.019,62700,0.57
2013-07-02,0.022,0.022,0.02,0.022,129500,0.66
2013-07-01,0.024,0.024,0.024,0.024,40300,0.72
2013-06-28,0.021,0.022,0.02,0.021,51700,0.63
2013-06-27,0.022,0.022,0.021,0.022,17000,0.66
2013-06-26,0.022,0.022,0.021,0.022,18200,0.66
2013-06-25,0.023,0.023,0.022,0.022,20600,0.66
2013-06-24,0.024,0.024,0.022,0.023,15000,0.69
2013-06-21,0.024,0.024,0.023,0.024,44800,0.72
2013-06-20,0.026,0.026,0.025,0.025,17900,0.75
2013-06-19,0.025,0.026,0.025,0.026,31600,0.78
2013-06-18,0.024,0.026,0.024,0.026,83600,0.78
2013-06-17,0.025,0.025,0.025,0.025,11000,0.75
2013-06-14,0.023,0.024,0.023,0.024,43800,0.72
2013-06-13,0.023,0.024,0.022,0.022,36700,0.66
2013-06-12,0.023,0.023,0.023,0.023,21200,0.69
2013-06-11,0.025,0.025,0.023,0.023,71400,0.69
2013-06-10,0.025,0.025,0.025,0.025,000,0.75
2013-06-07,0.025,0.025,0.025,0.025,45500,0.75
2013-06-06,0.024,0.024,0.024,0.024,73200,0.72
2013-06-05,0.025,0.025,0.024,0.024,167700,0.72
2013-06-04,0.026,0.027,0.025,0.027,105300,0.81
2013-06-03,0.026,0.026,0.024,0.026,127100,0.78
2013-05-31,0.024,0.026,0.024,0.026,75000,0.78
2013-05-30,0.025,0.025,0.024,0.024,66000,0.72
2013-05-29,0.023,0.025,0.023,0.024,128400,0.72
2013-05-28,0.024,0.024,0.022,0.023,269700,0.69
2013-05-27,0.025,0.026,0.022,0.022,299000,0.66
2013-05-24,0.028,0.029,0.024,0.025,214000,0.75
2013-05-23,0.033,0.033,0.027,0.027,405900,0.81
2013-05-22,0.037,0.052,0.031,0.031,2491500,0.93
2013-05-21,0.024,0.026,0.023,0.023,35400,0.69
2013-05-20,0.026,0.027,0.024,0.024,32800,0.72
2013-05-17,0.023,0.027,0.023,0.026,109800,0.78
2013-05-16,0.02,0.023,0.02,0.023,44200,0.69
2013-05-15,0.02,0.02,0.02,0.02,000,0.60
2013-05-14,0.021,0.021,0.02,0.02,17300,0.60
2013-05-13,0.022,0.022,0.021,0.021,6800,0.63
2013-05-10,0.022,0.022,0.022,0.022,400,0.66
2013-05-09,0.022,0.022,0.02,0.02,10500,0.60
2013-05-08,0.021,0.021,0.02,0.021,13300,0.63
2013-05-07,0.02,0.02,0.02,0.02,8100,0.60
2013-05-06,0.022,0.022,0.019,0.02,60300,0.60
2013-05-03,0.023,0.023,0.022,0.023,20500,0.69
2013-05-02,0.023,0.023,0.021,0.022,83000,0.66
2013-05-01,0.023,0.025,0.023,0.024,24800,0.72
2013-04-30,0.03,0.03,0.02,0.022,266100,0.66
2013-04-29,0.025,0.034,0.025,0.03,148900,0.90
2013-04-26,0.025,0.026,0.025,0.025,49800,0.75
2013-04-25,0.026,0.026,0.026,0.026,000,0.78
2013-04-24,0.025,0.027,0.024,0.026,34500,0.78
2013-04-23,0.025,0.026,0.024,0.025,12100,0.75
2013-04-22,0.022,0.025,0.022,0.025,44200,0.75
2013-04-19,0.023,0.024,0.022,0.022,35900,0.66
2013-04-18,0.024,0.025,0.022,0.023,276400,0.69
2013-04-17,0.027,0.027,0.025,0.025,160300,0.75
2013-04-16,0.026,0.029,0.025,0.029,117500,0.87
2013-04-15,0.032,0.032,0.026,0.027,217300,0.81
2013-04-12,0.047,0.047,0.03,0.034,790200,1.02
2013-04-11,0.026,0.048,0.026,0.046,534000,1.38
2013-04-10,0.026,0.03,0.021,0.026,463300,0.78
2013-04-09,0.02,0.02,0.019,0.019,57900,0.57
2013-04-08,0.018,0.022,0.018,0.02,41300,0.60
2013-04-05,0.019,0.02,0.018,0.019,84200,0.57
2013-04-04,0.021,0.021,0.018,0.018,40600,0.54
2013-04-03,0.026,0.026,0.018,0.018,134500,0.54
2013-04-02,0.018,0.031,0.017,0.025,228500,0.75
2013-04-01,0.019,0.019,0.019,0.019,000,0.57
2013-03-29,0.019,0.019,0.019,0.019,000,0.57
2013-03-28,0.021,0.021,0.019,0.019,22900,0.57
2013-03-27,0.024,0.024,0.021,0.023,16300,0.69
2013-03-26,0.023,0.023,0.019,0.022,38800,0.66
2013-03-25,0.023,0.024,0.023,0.023,21700,0.69
2013-03-22,0.024,0.024,0.022,0.023,25300,0.69
2013-03-21,0.027,0.027,0.023,0.023,23300,0.69
2013-03-20,0.028,0.028,0.026,0.026,26600,0.78
2013-03-19,0.029,0.029,0.026,0.028,16000,0.84
2013-03-18,0.027,0.027,0.027,0.027,000,0.81
2013-03-15,0.027,0.027,0.027,0.027,10000,0.81
2013-03-14,0.029,0.029,0.026,0.028,48100,0.84
2013-03-13,0.032,0.032,0.03,0.03,21200,0.90
2013-03-12,0.032,0.036,0.032,0.036,6500,1.08
2013-03-11,0.035,0.039,0.033,0.033,18600,0.99
2013-03-08,0.032,0.038,0.032,0.038,10800,1.14
2013-03-07,0.03,0.037,0.029,0.032,110200,0.96
2013-03-06,0.021,0.021,0.019,0.021,16000,0.63
2013-03-05,0.022,0.022,0.022,0.022,6600,0.66
2013-03-04,0.024,0.024,0.024,0.024,000,0.72
2013-03-01,0.025,0.025,0.024,0.024,14000,0.72
2013-02-28,0.026,0.026,0.026,0.026,5200,0.78
2013-02-27,0.026,0.028,0.026,0.028,3000,0.84
2013-02-26,0.028,0.028,0.026,0.026,17400,0.78
2013-02-25,0.028,0.028,0.028,0.028,000,0.84
2013-02-22,0.027,0.031,0.027,0.028,11300,0.84
2013-02-21,0.029,0.029,0.028,0.028,9700,0.84
2013-02-20,0.029,0.029,0.029,0.029,000,0.87
2013-02-19,0.03,0.03,0.029,0.029,14300,0.87
2013-02-18,0.035,0.037,0.028,0.028,23900,0.84
2013-02-15,0.037,0.037,0.034,0.034,19000,1.02
2013-02-14,0.039,0.039,0.037,0.037,12500,1.11
2013-02-13,0.041,0.041,0.039,0.04,21400,1.20
2013-02-12,0.041,0.041,0.041,0.041,3000,1.23
2013-02-11,0.041,0.042,0.039,0.042,20000,1.26
2013-02-08,0.042,0.042,0.039,0.042,36000,1.26
2013-02-07,0.042,0.042,0.038,0.042,25700,1.26
2013-02-06,0.041,0.042,0.039,0.042,20700,1.26
2013-02-05,0.042,0.044,0.038,0.042,25800,1.26
2013-02-04,0.042,0.044,0.041,0.042,25400,1.26
2013-02-01,0.039,0.043,0.037,0.042,37800,1.26
2013-01-31,0.038,0.043,0.038,0.039,8100,1.17
2013-01-30,0.042,0.042,0.04,0.04,2100,1.20
2013-01-29,0.042,0.043,0.04,0.043,15000,1.29
2013-01-28,0.043,0.043,0.043,0.043,000,1.29
2013-01-25,0.04,0.043,0.039,0.043,14600,1.29
2013-01-24,0.042,0.042,0.04,0.04,1900,1.20
2013-01-23,0.04,0.04,0.039,0.039,2100,1.17
2013-01-22,0.042,0.042,0.04,0.042,27100,1.26
2013-01-21,0.04,0.04,0.04,0.04,4200,1.20
2013-01-18,0.038,0.038,0.037,0.038,17600,1.14
2013-01-17,0.04,0.04,0.038,0.04,16000,1.20
2013-01-16,0.04,0.04,0.04,0.04,9200,1.20
2013-01-15,0.042,0.042,0.041,0.042,22600,1.26
2013-01-14,0.042,0.042,0.041,0.042,26000,1.26
2013-01-11,0.042,0.042,0.04,0.042,27600,1.26
2013-01-10,0.046,0.047,0.041,0.041,51900,1.23
2013-01-09,0.048,0.048,0.046,0.048,19800,1.44
2013-01-08,0.05,0.05,0.047,0.048,18000,1.44
2013-01-07,0.049,0.056,0.049,0.049,60600,1.47
2013-01-04,0.049,0.049,0.049,0.049,6600,1.47
2013-01-03,0.05,0.05,0.046,0.05,7800,1.50
2013-01-02,0.046,0.05,0.046,0.05,7100,1.50
2013-01-01,0.05,0.05,0.05,0.05,000,1.50
2012-12-31,0.05,0.05,0.05,0.05,000,1.50
2012-12-28,0.048,0.05,0.046,0.05,9400,1.50
2012-12-27,0.05,0.05,0.05,0.05,5100,1.50
2012-12-26,0.052,0.052,0.052,0.052,000,1.56
2012-12-25,0.052,0.052,0.052,0.052,000,1.56
2012-12-24,0.049,0.052,0.049,0.052,6100,1.56
2012-12-21,0.05,0.054,0.049,0.049,18200,1.47
2012-12-20,0.052,0.052,0.05,0.05,5000,1.50
2012-12-19,0.05,0.05,0.05,0.05,3600,1.50
2012-12-18,0.049,0.05,0.049,0.05,4100,1.50
2012-12-17,0.05,0.05,0.047,0.047,4300,1.41
2012-12-14,0.051,0.051,0.05,0.05,4500,1.50
2012-12-13,0.057,0.057,0.057,0.057,000,1.71
2012-12-12,0.057,0.057,0.057,0.057,000,1.71
2012-12-11,0.056,0.057,0.056,0.057,3300,1.71
2012-12-10,0.053,0.056,0.053,0.056,8300,1.68
2012-12-07,0.045,0.055,0.045,0.055,6800,1.65
2012-12-06,0.045,0.045,0.045,0.045,000,1.35
2012-12-05,0.046,0.046,0.045,0.045,2500,1.35
2012-12-04,0.046,0.046,0.046,0.046,000,1.38
2012-12-03,0.048,0.048,0.046,0.046,4400,1.38
2012-11-30,0.048,0.048,0.048,0.048,000,1.44
2012-11-29,0.048,0.048,0.046,0.048,3500,1.44
2012-11-28,0.05,0.05,0.05,0.05,1900,1.50
2012-11-27,0.045,0.048,0.045,0.048,3200,1.44
2012-11-26,0.045,0.045,0.045,0.045,3300,1.35
2012-11-23,0.046,0.046,0.044,0.044,1900,1.32
2012-11-22,0.046,0.046,0.046,0.046,2300,1.38
2012-11-21,0.045,0.045,0.045,0.045,000,1.35
2012-11-20,0.045,0.045,0.045,0.045,000,1.35
2012-11-19,0.045,0.045,0.045,0.045,000,1.35
2012-11-16,0.045,0.045,0.045,0.045,200,1.35
2012-11-15,0.045,0.045,0.045,0.045,9200,1.35
2012-11-14,0.047,0.047,0.045,0.045,10000,1.35
2012-11-13,0.05,0.05,0.05,0.05,11400,1.50
2012-11-12,0.05,0.05,0.05,0.05,3800,1.50
2012-11-09,0.05,0.05,0.05,0.05,2000,1.50
2012-11-08,0.05,0.05,0.05,0.05,600,1.50
2012-11-07,0.053,0.053,0.053,0.053,000,1.59
2012-11-06,0.053,0.053,0.053,0.053,900,1.59
2012-11-05,0.051,0.051,0.051,0.051,000,1.53
2012-11-02,0.053,0.053,0.051,0.051,4300,1.53
2012-11-01,0.053,0.053,0.053,0.053,000,1.59
2012-10-31,0.055,0.055,0.053,0.053,5100,1.59
2012-10-30,0.055,0.055,0.055,0.055,1000,1.65
2012-10-29,0.058,0.058,0.054,0.054,700,1.62
2012-10-26,0.055,0.055,0.055,0.055,12000,1.65
2012-10-25,0.058,0.06,0.058,0.06,10200,1.80
2012-10-24,0.045,0.061,0.045,0.06,43000,1.80
2012-10-23,0.057,0.057,0.045,0.045,29300,1.35
2012-10-22,0.055,0.057,0.055,0.056,6400,1.68
2012-10-19,0.062,0.062,0.059,0.059,3200,1.77
2012-10-18,0.065,0.065,0.061,0.062,13100,1.86
2012-10-17,0.069,0.07,0.063,0.07,11400,2.10
2012-10-16,0.08,0.08,0.068,0.069,25700,2.07
2012-10-15,0.078,0.078,0.078,0.078,000,2.34
2012-10-12,0.078,0.078,0.078,0.078,000,2.34
2012-10-11,0.078,0.078,0.078,0.078,000,2.34
2012-10-10,0.078,0.078,0.078,0.078,000,2.34
2012-10-09,0.078,0.078,0.078,0.078,000,2.34
2012-10-08,0.078,0.078,0.078,0.078,000,2.34
2012-10-05,0.078,0.078,0.078,0.078,000,2.34
2012-10-04,0.078,0.078,0.078,0.078,000,2.34
2012-10-03,0.078,0.078,0.078,0.078,000,2.34
2012-10-02,0.078,0.078,0.078,0.078,000,2.34
2012-10-01,0.078,0.078,0.078,0.078,000,2.34
2012-09-28,0.08,0.083,0.076,0.078,29200,2.34
2012-09-27,0.081,0.086,0.079,0.081,28900,2.43
2012-09-26,0.083,0.086,0.082,0.083,16900,2.49
2012-09-25,0.09,0.09,0.082,0.082,24600,2.46
2012-09-24,0.087,0.09,0.083,0.09,24000,2.70
2012-09-21,0.095,0.095,0.083,0.087,95000,2.61
2012-09-20,0.11,0.13,0.094,0.10,498400,3.00
2012-09-19,0.081,0.086,0.081,0.084,13700,2.52
2012-09-18,0.088,0.088,0.073,0.081,63400,2.43
2012-09-17,0.10,0.115,0.089,0.089,150800,2.67
2012-09-14,0.068,0.14,0.067,0.095,530500,2.85
2012-09-13,0.053,0.053,0.053,0.053,1000,1.59
2012-09-12,0.05,0.05,0.05,0.05,000,1.50
2012-09-11,0.05,0.05,0.05,0.05,000,1.50
2012-09-10,0.05,0.05,0.05,0.05,800,1.50
2012-09-07,0.05,0.055,0.05,0.055,4000,1.65
2012-09-06,0.05,0.05,0.05,0.05,000,1.50
2012-09-05,0.05,0.05,0.05,0.05,1300,1.50
2012-09-04,0.055,0.055,0.05,0.05,12400,1.50
2012-09-03,0.056,0.056,0.055,0.055,4900,1.65
2012-08-31,0.06,0.06,0.06,0.06,5900,1.80
2012-08-30,0.064,0.064,0.06,0.06,5500,1.80
2012-08-29,0.055,0.06,0.055,0.06,42300,1.80
2012-08-28,0.05,0.05,0.05,0.05,15400,1.50
2012-08-27,0.046,0.046,0.045,0.045,3000,1.35
2012-08-24,0.05,0.05,0.05,0.05,000,1.50
2012-08-23,0.046,0.05,0.045,0.05,11000,1.50
2012-08-22,0.044,0.05,0.044,0.05,10300,1.50
2012-08-21,0.045,0.045,0.045,0.045,000,1.35
2012-08-20,0.045,0.045,0.045,0.045,000,1.35
2012-08-17,0.045,0.045,0.045,0.045,000,1.35
2012-08-16,0.045,0.045,0.045,0.045,1000,1.35
2012-08-15,0.043,0.043,0.043,0.043,000,1.29
2012-08-14,0.045,0.045,0.043,0.043,3000,1.29
2012-08-13,0.045,0.045,0.045,0.045,1200,1.35
2012-08-10,0.05,0.05,0.05,0.05,000,1.50
2012-08-09,0.055,0.055,0.05,0.05,3700,1.50
2012-08-08,0.05,0.05,0.05,0.05,000,1.50
2012-08-07,0.05,0.05,0.05,0.05,6400,1.50
2012-08-06,0.049,0.049,0.049,0.049,000,1.47
2012-08-03,0.049,0.049,0.049,0.049,1600,1.47
2012-08-02,0.056,0.056,0.056,0.056,000,1.68
2012-08-01,0.056,0.056,0.056,0.056,000,1.68
2012-07-31,0.056,0.056,0.056,0.056,000,1.68
2012-07-30,0.056,0.056,0.056,0.056,000,1.68
2012-07-27,0.056,0.056,0.056,0.056,000,1.68
2012-07-26,0.056,0.056,0.056,0.056,000,1.68
2012-07-25,0.056,0.056,0.056,0.056,100,1.68
2012-07-24,0.056,0.056,0.056,0.056,1600,1.68
2012-07-23,0.056,0.056,0.056,0.056,000,1.68
2012-07-20,0.06,0.06,0.056,0.056,3100,1.68
2012-07-19,0.061,0.061,0.061,0.061,1600,1.83
2012-07-18,0.06,0.06,0.06,0.06,000,1.80
2012-07-17,0.06,0.06,0.06,0.06,000,1.80
2012-07-16,0.062,0.062,0.06,0.06,5000,1.80
2012-07-13,0.062,0.062,0.062,0.062,000,1.86
2012-07-12,0.068,0.068,0.062,0.062,1600,1.86
2012-07-11,0.068,0.068,0.068,0.068,900,2.04
2012-07-10,0.067,0.067,0.067,0.067,1600,2.01
2012-07-09,0.07,0.07,0.07,0.07,000,2.10
2012-07-06,0.072,0.072,0.07,0.07,1600,2.10
2012-07-05,0.074,0.074,0.07,0.073,6900,2.19
2012-07-04,0.065,0.07,0.065,0.07,8300,2.10
2012-07-03,0.065,0.065,0.065,0.065,2600,1.95
2012-07-02,0.06,0.06,0.06,0.06,1800,1.80
2012-06-29,0.07,0.07,0.06,0.06,26400,1.80
2012-06-28,0.07,0.07,0.07,0.07,1500,2.10
2012-06-27,0.047,0.047,0.047,0.047,000,1.41
2012-06-26,0.048,0.048,0.047,0.047,6800,1.41
2012-06-25,0.051,0.051,0.048,0.048,3300,1.44
2012-06-22,0.06,0.06,0.06,0.06,000,1.80
2012-06-21,0.059,0.06,0.059,0.06,500,1.80
2012-06-20,0.05,0.05,0.05,0.05,000,1.50
2012-06-19,0.05,0.05,0.05,0.05,000,1.50
2012-06-18,0.059,0.059,0.05,0.05,7900,1.50
2012-06-15,0.056,0.056,0.056,0.056,800,1.68
2012-06-14,0.061,0.061,0.055,0.056,4500,1.68
2012-06-13,0.065,0.065,0.065,0.065,100,1.95
2012-06-12,0.072,0.072,0.065,0.065,7400,1.95
2012-06-11,0.08,0.08,0.08,0.08,000,2.40
2012-06-08,0.08,0.08,0.08,0.08,000,2.40
2012-06-07,0.08,0.08,0.08,0.08,000,2.40
2012-06-06,0.08,0.08,0.08,0.08,000,2.40
2012-06-05,0.08,0.08,0.08,0.08,000,2.40
2012-06-04,0.08,0.08,0.08,0.08,000,2.40
2012-06-01,0.08,0.08,0.08,0.08,000,2.40
2012-05-31,0.08,0.08,0.08,0.08,300,2.40
2012-05-30,0.08,0.08,0.08,0.08,000,2.40
2012-05-29,0.08,0.08,0.08,0.08,300,2.40
2012-05-28,0.08,0.08,0.08,0.08,200,2.40
2012-05-25,0.08,0.08,0.08,0.08,000,2.40
2012-05-24,0.08,0.08,0.08,0.08,600,2.40
2012-05-23,0.08,0.08,0.08,0.08,100,2.40
2012-05-22,0.086,0.086,0.085,0.085,1100,2.55
2012-05-21,0.09,0.09,0.09,0.09,1600,2.70
2012-05-18,0.085,0.085,0.085,0.085,1400,2.55
2012-05-17,0.07,0.082,0.07,0.082,3400,2.46
2012-05-16,0.075,0.075,0.075,0.075,000,2.25
2012-05-15,0.075,0.075,0.075,0.075,2900,2.25
2012-05-14,0.08,0.08,0.075,0.075,23500,2.25
2012-05-11,0.075,0.079,0.075,0.079,5500,2.37
2012-05-10,0.08,0.08,0.08,0.08,1600,2.40
2012-05-09,0.075,0.075,0.075,0.075,4900,2.25
2012-05-08,0.079,0.08,0.075,0.08,3300,2.40
2012-05-07,0.079,0.079,0.079,0.079,000,2.37
2012-05-04,0.079,0.079,0.079,0.079,300,2.37
2012-05-03,0.08,0.08,0.079,0.079,2000,2.37
2012-05-02,0.085,0.085,0.085,0.085,200,2.55
2012-05-01,0.084,0.085,0.084,0.085,7000,2.55
2012-04-30,0.08,0.084,0.08,0.084,500,2.52
2012-04-27,0.08,0.08,0.08,0.08,000,2.40
2012-04-26,0.084,0.084,0.081,0.081,3500,2.43
2012-04-25,0.085,0.085,0.085,0.085,000,2.55
2012-04-24,0.085,0.085,0.085,0.085,3300,2.55
2012-04-23,0.09,0.09,0.09,0.09,1600,2.70
2012-04-20,0.09,0.09,0.09,0.09,000,2.70
2012-04-19,0.084,0.09,0.084,0.09,6100,2.70
2012-04-18,0.085,0.085,0.085,0.085,3800,2.55
2012-04-17,0.081,0.085,0.081,0.085,7300,2.55
2012-04-16,0.08,0.082,0.08,0.082,2000,2.46
2012-04-13,0.082,0.082,0.08,0.081,4800,2.43
2012-04-12,0.082,0.082,0.082,0.082,300,2.46
2012-04-11,0.083,0.083,0.081,0.081,7300,2.43
2012-04-10,0.085,0.085,0.084,0.084,3800,2.52
2012-04-09,0.086,0.086,0.086,0.086,000,2.58
2012-04-06,0.086,0.086,0.086,0.086,000,2.58
2012-04-05,0.086,0.086,0.086,0.086,000,2.58
2012-04-04,0.086,0.086,0.085,0.086,4600,2.58
2012-04-03,0.09,0.09,0.09,0.09,3200,2.70
2012-04-02,0.095,0.095,0.09,0.09,5600,2.70
2012-03-30,0.092,0.095,0.09,0.095,6100,2.85
2012-03-29,0.098,0.10,0.091,0.091,2600,2.73
2012-03-28,0.10,0.10,0.09,0.095,23900,2.85
2012-03-27,0.10,0.105,0.097,0.105,11000,3.15
2012-03-26,0.105,0.105,0.10,0.10,18000,3.00
2012-03-23,0.096,0.11,0.095,0.105,24200,3.15
2012-03-22,0.086,0.093,0.082,0.093,16200,2.79
2012-03-21,0.09,0.09,0.09,0.09,000,2.70
2012-03-20,0.09,0.09,0.09,0.09,000,2.70
2012-03-19,0.092,0.092,0.09,0.09,1600,2.70
2012-03-16,0.09,0.09,0.088,0.09,2400,2.70
2012-03-15,0.09,0.09,0.087,0.087,4500,2.61
2012-03-14,0.09,0.095,0.09,0.09,9300,2.70
2012-03-13,0.11,0.11,0.084,0.086,51500,2.58
2012-03-12,0.10,0.115,0.095,0.115,19500,3.45
2012-03-09,0.105,0.105,0.10,0.10,9800,3.00
2012-03-08,0.105,0.105,0.10,0.105,8200,3.15
2012-03-07,0.105,0.105,0.095,0.105,29100,3.15
2012-03-06,0.11,0.11,0.105,0.105,22400,3.15
2012-03-05,0.14,0.14,0.115,0.12,13900,3.60
2012-03-02,0.145,0.145,0.135,0.135,6400,4.05
2012-03-01,0.165,0.165,0.145,0.145,14200,4.35
2012-02-29,0.14,0.175,0.14,0.17,24900,5.10
2012-02-28,0.125,0.13,0.115,0.13,8900,3.90
2012-02-27,0.105,0.125,0.099,0.125,15900,3.75
2012-02-24,0.087,0.105,0.087,0.105,34000,3.15
2012-02-23,0.081,0.081,0.08,0.08,6600,2.40
2012-02-22,0.08,0.08,0.08,0.08,000,2.40
2012-02-21,0.08,0.08,0.08,0.08,1600,2.40
2012-02-20,0.10,0.10,0.086,0.086,600,2.58
2012-02-17,0.10,0.10,0.10,0.10,000,3.00
2012-02-16,0.10,0.10,0.10,0.10,300,3.00
2012-02-15,0.077,0.077,0.077,0.077,000,2.31
2012-02-14,0.077,0.077,0.077,0.077,000,2.31
2012-02-13,0.081,0.081,0.077,0.077,11800,2.31
2012-02-10,0.085,0.085,0.085,0.085,500,2.55
2012-02-09,0.082,0.082,0.082,0.082,300,2.46
2012-02-08,0.085,0.085,0.085,0.085,000,2.55
2012-02-07,0.09,0.09,0.085,0.085,6500,2.55
2012-02-06,0.10,0.10,0.10,0.10,000,3.00
2012-02-03,0.10,0.10,0.10,0.10,000,3.00
2012-02-02,0.10,0.10,0.10,0.10,000,3.00
2012-02-01,0.10,0.10,0.10,0.10,1600,3.00
2012-01-31,0.10,0.10,0.10,0.10,000,3.00
2012-01-27,0.10,0.10,0.10,0.10,000,3.00
2012-01-26,0.10,0.10,0.10,0.10,000,3.00
2012-01-25,0.10,0.10,0.10,0.10,000,3.00
2012-01-24,0.10,0.10,0.10,0.10,000,3.00
2012-01-23,0.10,0.10,0.10,0.10,000,3.00
2012-01-20,0.10,0.10,0.10,0.10,000,3.00
2012-01-19,0.10,0.10,0.10,0.10,000,3.00
2012-01-18,0.099,0.10,0.099,0.10,2800,3.00
2012-01-17,0.09,0.10,0.09,0.10,3300,3.00
2012-01-16,0.09,0.09,0.09,0.09,4100,2.70
2012-01-13,0.09,0.09,0.09,0.09,000,2.70
2012-01-12,0.09,0.09,0.09,0.09,1000,2.70
2012-01-11,0.07,0.07,0.07,0.07,000,2.10
2012-01-10,0.07,0.07,0.07,0.07,000,2.10
2012-01-09,0.07,0.07,0.07,0.07,000,2.10
2012-01-06,0.07,0.07,0.07,0.07,000,2.10
2012-01-05,0.07,0.07,0.07,0.07,000,2.10
2012-01-04,0.07,0.07,0.07,0.07,000,2.10
2012-01-03,0.07,0.07,0.07,0.07,000,2.10
2012-01-02,0.07,0.07,0.07,0.07,000,2.10
2011-12-30,0.07,0.07,0.07,0.07,000,2.10
2011-12-29,0.07,0.07,0.07,0.07,000,2.10
2011-12-28,0.07,0.07,0.07,0.07,000,2.10
2011-12-27,0.07,0.07,0.07,0.07,000,2.10
2011-12-26,0.07,0.07,0.07,0.07,000,2.10
2011-12-23,0.07,0.07,0.07,0.07,000,2.10
2011-12-22,0.07,0.07,0.07,0.07,500,2.10
2011-12-21,0.067,0.067,0.067,0.067,000,2.01
2011-12-20,0.067,0.067,0.067,0.067,000,2.01
2011-12-19,0.07,0.07,0.067,0.067,4400,2.01
2011-12-16,0.10,0.10,0.10,0.10,000,3.00
2011-12-15,0.10,0.10,0.10,0.10,000,3.00
2011-12-14,0.10,0.10,0.10,0.10,1300,3.00
2011-12-13,0.061,0.061,0.061,0.061,000,1.83
2011-12-12,0.061,0.061,0.061,0.061,000,1.83
2011-12-09,0.061,0.061,0.061,0.061,000,1.83
2011-12-08,0.061,0.061,0.061,0.061,000,1.83
2011-12-07,0.061,0.061,0.061,0.061,000,1.83
2011-12-06,0.066,0.066,0.061,0.061,1600,1.83
2011-12-05,0.08,0.08,0.08,0.08,000,2.40
2011-12-02,0.08,0.08,0.08,0.08,000,2.40
2011-12-01,0.06,0.08,0.06,0.08,6500,2.40
2011-11-30,0.06,0.06,0.06,0.06,400,1.80
2011-11-29,0.056,0.056,0.056,0.056,1600,1.68
2011-11-28,0.055,0.055,0.055,0.055,000,1.65
2011-11-25,0.055,0.055,0.055,0.055,4100,1.65
2011-11-24,0.075,0.075,0.075,0.075,000,2.25
2011-11-23,0.075,0.075,0.075,0.075,000,2.25
2011-11-22,0.075,0.075,0.075,0.075,23500,2.25
2011-11-21,0.075,0.075,0.075,0.075,1300,2.25
2011-11-18,0.075,0.075,0.075,0.075,5000,2.25
2011-11-17,0.075,0.075,0.075,0.075,3300,2.25
2011-11-11,0.07,0.07,0.07,0.07,800,2.10
2011-11-02,0.08,0.08,0.08,0.08,3500,2.40
2011-11-01,0.08,0.09,0.08,0.09,7100,2.70
2011-10-31,0.08,0.08,0.08,0.08,300,2.40
2011-10-13,0.105,0.105,0.10,0.10,900,3.00
2011-10-12,0.105,0.105,0.105,0.105,300,3.15
2011-10-06,0.115,0.115,0.115,0.115,1100,3.45
2011-10-03,0.11,0.11,0.11,0.11,1000,3.30
2011-09-23,0.105,0.105,0.105,0.105,5700,3.15
2011-09-15,0.135,0.135,0.135,0.135,2600,4.05
2011-09-14,0.135,0.135,0.135,0.135,700,4.05
2011-09-13,0.14,0.14,0.14,0.14,300,4.20
2011-09-12,0.135,0.135,0.135,0.135,200,4.05
2011-09-09,0.14,0.14,0.135,0.135,2100,4.05
2011-09-08,0.14,0.14,0.135,0.135,2500,4.05
2011-09-07,0.14,0.145,0.14,0.145,3300,4.35
2011-09-06,0.14,0.14,0.14,0.14,300,4.20
2011-09-05,0.135,0.135,0.135,0.135,900,4.05
2011-09-02,0.14,0.14,0.14,0.14,1600,4.20
2011-09-01,0.14,0.14,0.14,0.14,4000,4.20
2011-08-31,0.125,0.125,0.125,0.125,100,3.75
2011-08-30,0.125,0.125,0.125,0.125,2700,3.75
2011-08-25,0.145,0.145,0.14,0.14,2900,4.20
2011-08-24,0.15,0.15,0.15,0.15,1100,4.50
2011-08-23,0.155,0.16,0.13,0.13,16000,3.90
2011-08-22,0.125,0.175,0.125,0.155,28800,4.65
2011-08-19,0.105,0.105,0.105,0.105,600,3.15
2011-08-18,0.11,0.11,0.105,0.105,2300,3.15
2011-08-15,0.10,0.10,0.10,0.10,2600,3.00
2011-08-12,0.10,0.10,0.10,0.10,3300,3.00
2011-08-11,0.091,0.091,0.091,0.091,2000,2.73
2011-08-09,0.091,0.091,0.09,0.09,3600,2.70
2011-08-05,0.10,0.10,0.09,0.09,6600,2.70
2011-08-04,0.10,0.10,0.10,0.10,1300,3.00
2011-07-21,0.125,0.125,0.125,0.125,300,3.75
2011-07-12,0.105,0.105,0.10,0.10,800,3.00
2011-07-06,0.105,0.105,0.105,0.105,1600,3.15
2011-07-01,0.135,0.135,0.135,0.135,300,4.05
2011-06-28,0.135,0.135,0.135,0.135,1600,4.05
2011-06-24,0.13,0.15,0.13,0.15,3300,4.50
2011-06-21,0.11,0.11,0.11,0.11,2600,3.30
2011-06-20,0.11,0.115,0.11,0.11,6600,3.30
2011-06-17,0.11,0.11,0.11,0.11,4100,3.30
2011-06-08,0.12,0.12,0.12,0.12,600,3.60
2011-06-01,0.155,0.155,0.155,0.155,600,4.65
2011-05-30,0.145,0.16,0.145,0.16,6600,4.80
2011-05-27,0.13,0.13,0.13,0.13,1300,3.90
2011-05-25,0.12,0.12,0.11,0.11,4600,3.30
2011-05-24,0.11,0.11,0.11,0.11,3400,3.30
2011-05-18,0.13,0.13,0.12,0.12,1100,3.60
2011-05-16,0.15,0.15,0.15,0.15,300,4.50
2011-05-13,0.15,0.15,0.15,0.15,1600,4.50
2011-05-04,0.15,0.15,0.15,0.15,1600,4.50
2011-05-02,0.16,0.16,0.16,0.16,300,4.80
2011-04-29,0.16,0.16,0.16,0.16,600,4.80
2011-04-20,0.165,0.165,0.165,0.165,1600,4.95
2011-04-18,0.17,0.17,0.17,0.17,600,5.10
2011-04-15,0.17,0.175,0.17,0.17,2200,5.10
2011-04-14,0.175,0.175,0.175,0.175,4800,5.25
2011-04-13,0.18,0.18,0.175,0.175,2100,5.25
2011-04-12,0.18,0.18,0.18,0.18,1000,5.40
2011-04-11,0.195,0.195,0.18,0.18,4800,5.40
2011-04-08,0.15,0.195,0.15,0.195,18800,5.85
2011-04-07,0.15,0.15,0.15,0.15,100,4.50
2011-04-06,0.155,0.155,0.155,0.155,400,4.65
2011-04-04,0.155,0.155,0.155,0.155,800,4.65
2011-04-01,0.15,0.15,0.15,0.15,2200,4.50
2011-03-31,0.16,0.16,0.16,0.16,1600,4.80
2011-03-30,0.15,0.16,0.145,0.16,5400,4.80
2011-03-29,0.15,0.15,0.15,0.15,200,4.50
2011-03-28,0.15,0.15,0.15,0.15,300,4.50
2011-03-25,0.16,0.16,0.15,0.15,11000,4.50
2011-03-24,0.16,0.16,0.16,0.16,1600,4.80
2011-03-22,0.15,0.16,0.15,0.15,10800,4.50
2011-03-21,0.18,0.18,0.15,0.15,3500,4.50
2011-03-18,0.175,0.175,0.175,0.175,800,5.25
2011-03-14,0.175,0.175,0.175,0.175,1000,5.25
2011-03-11,0.185,0.185,0.175,0.175,12400,5.25
2011-03-10,0.19,0.19,0.185,0.185,3300,5.55
2011-03-08,0.20,0.20,0.20,0.20,10000,6.00
2011-03-04,0.21,0.21,0.20,0.20,4200,6.00
2011-03-03,0.21,0.21,0.21,0.21,2100,6.30
2011-03-02,0.21,0.215,0.21,0.21,14900,6.30
2011-03-01,0.22,0.22,0.21,0.21,11600,6.30
2011-02-28,0.21,0.22,0.21,0.22,13100,6.60
2011-02-25,0.215,0.22,0.205,0.21,59200,6.30
