Date,Open,High,Low,Close,Volume,Adj Close
2017-01-10,0.135,0.14,0.135,0.135,22600,0.135
2017-01-09,0.135,0.135,0.135,0.135,000,0.135
2017-01-06,0.14,0.14,0.135,0.135,83000,0.135
2017-01-05,0.135,0.135,0.135,0.135,183100,0.135
2017-01-04,0.14,0.14,0.135,0.135,18700,0.135
2017-01-03,0.135,0.14,0.135,0.14,149800,0.14
2017-01-02,0.14,0.14,0.14,0.14,000,0.14
2016-12-30,0.14,0.14,0.14,0.14,000,0.14
2016-12-29,0.14,0.14,0.14,0.14,000,0.14
2016-12-28,0.14,0.14,0.14,0.14,000,0.14
2016-12-27,0.14,0.14,0.14,0.14,000,0.14
2016-12-26,0.14,0.14,0.14,0.14,000,0.14
2016-12-23,0.14,0.14,0.14,0.14,000,0.14
2016-12-22,0.135,0.14,0.135,0.14,155500,0.14
2016-12-21,0.13,0.135,0.13,0.135,84600,0.135
2016-12-20,0.13,0.13,0.13,0.13,000,0.13
2016-12-19,0.135,0.135,0.13,0.13,64100,0.13
2016-12-16,0.14,0.14,0.12,0.135,242000,0.135
2016-12-15,0.145,0.145,0.14,0.14,90200,0.14
2016-12-14,0.14,0.145,0.14,0.145,110100,0.145
2016-12-13,0.15,0.15,0.145,0.145,180500,0.145
2016-12-12,0.15,0.15,0.15,0.15,19500,0.15
2016-12-09,0.155,0.155,0.15,0.15,14000,0.15
2016-12-08,0.155,0.155,0.155,0.155,61200,0.155
2016-12-07,0.155,0.155,0.155,0.155,117500,0.155
2016-12-06,0.155,0.155,0.155,0.155,48900,0.155
2016-12-05,0.155,0.155,0.155,0.155,180200,0.155
2016-12-02,0.15,0.15,0.15,0.15,40900,0.15
2016-12-01,0.155,0.155,0.155,0.155,120000,0.155
2016-11-30,0.155,0.155,0.155,0.155,62100,0.155
2016-11-29,0.155,0.155,0.155,0.155,68800,0.155
2016-11-28,0.155,0.155,0.155,0.155,53500,0.155
2016-11-25,0.155,0.155,0.155,0.155,9100,0.155
2016-11-24,0.155,0.155,0.15,0.155,55400,0.155
2016-11-23,0.16,0.16,0.155,0.155,77700,0.155
2016-11-22,0.155,0.16,0.155,0.16,34700,0.16
2016-11-21,0.16,0.16,0.155,0.155,111200,0.155
2016-11-18,0.16,0.16,0.16,0.16,79500,0.16
2016-11-17,0.155,0.155,0.155,0.155,51300,0.155
2016-11-16,0.155,0.155,0.155,0.155,000,0.155
2016-11-15,0.16,0.16,0.155,0.155,249400,0.155
2016-11-14,0.155,0.165,0.155,0.165,396600,0.165
2016-11-11,0.16,0.16,0.16,0.16,000,0.16
2016-11-10,0.155,0.16,0.155,0.16,57000,0.16
2016-11-09,0.155,0.155,0.155,0.155,15800,0.155
2016-11-08,0.155,0.155,0.155,0.155,39300,0.155
2016-11-07,0.16,0.16,0.16,0.16,38200,0.16
2016-11-04,0.16,0.165,0.16,0.165,25100,0.165
2016-11-03,0.16,0.165,0.16,0.16,66400,0.16
2016-11-02,0.16,0.165,0.16,0.165,16000,0.165
2016-11-01,0.16,0.16,0.16,0.16,35000,0.16
2016-10-31,0.16,0.16,0.155,0.155,132700,0.155
2016-10-28,0.16,0.16,0.16,0.16,000,0.16
2016-10-27,0.165,0.165,0.16,0.16,510600,0.16
2016-10-26,0.17,0.17,0.17,0.17,86500,0.17
2016-10-25,0.165,0.17,0.165,0.17,53600,0.17
2016-10-24,0.17,0.18,0.17,0.17,226700,0.17
2016-10-21,0.175,0.175,0.16,0.16,428400,0.16
2016-10-20,0.17,0.17,0.17,0.17,5000,0.17
2016-10-19,0.175,0.175,0.175,0.175,22000,0.175
2016-10-18,0.165,0.165,0.16,0.16,140200,0.16
2016-10-17,0.165,0.17,0.165,0.165,41200,0.165
2016-10-14,0.165,0.165,0.165,0.165,000,0.165
2016-10-13,0.165,0.165,0.165,0.165,9300,0.165
2016-10-12,0.17,0.17,0.17,0.17,60000,0.17
2016-10-11,0.165,0.17,0.16,0.17,153300,0.17
2016-10-10,0.16,0.16,0.155,0.16,12300,0.16
2016-10-07,0.16,0.165,0.16,0.16,174400,0.16
2016-10-06,0.165,0.165,0.16,0.16,24000,0.16
2016-10-05,0.165,0.165,0.165,0.165,50000,0.165
2016-10-04,0.17,0.17,0.165,0.165,130400,0.165
2016-10-03,0.18,0.18,0.17,0.17,145200,0.17
2016-09-30,0.17,0.17,0.17,0.17,192300,0.17
2016-09-29,0.17,0.17,0.165,0.17,45500,0.17
2016-09-28,0.16,0.17,0.16,0.17,42600,0.17
2016-09-27,0.155,0.155,0.155,0.155,31100,0.155
2016-09-26,0.155,0.16,0.155,0.155,68500,0.155
2016-09-23,0.155,0.155,0.155,0.155,161000,0.155
2016-09-22,0.16,0.16,0.155,0.16,342600,0.16
2016-09-21,0.16,0.16,0.16,0.16,000,0.16
2016-09-20,0.16,0.16,0.16,0.16,22000,0.16
2016-09-19,0.165,0.165,0.155,0.16,302300,0.16
2016-09-16,0.165,0.165,0.16,0.165,14000,0.165
2016-09-15,0.16,0.165,0.155,0.165,86600,0.165
2016-09-14,0.17,0.17,0.16,0.16,310800,0.16
2016-09-13,0.165,0.17,0.165,0.165,28800,0.165
2016-09-12,0.165,0.17,0.165,0.165,36600,0.165
2016-09-09,0.17,0.17,0.165,0.165,50400,0.165
2016-09-08,0.165,0.165,0.16,0.16,95400,0.16
2016-09-07,0.17,0.17,0.165,0.165,3500,0.165
2016-09-06,0.165,0.165,0.165,0.165,22400,0.165
2016-09-05,0.165,0.17,0.165,0.17,14400,0.17
2016-09-02,0.165,0.165,0.165,0.165,32500,0.165
2016-09-01,0.17,0.17,0.165,0.165,58700,0.165
2016-08-31,0.17,0.17,0.17,0.17,64800,0.17
2016-08-30,0.17,0.17,0.17,0.17,145800,0.17
2016-08-29,0.165,0.165,0.16,0.16,166300,0.16
2016-08-26,0.175,0.175,0.17,0.17,113500,0.17
2016-08-25,0.18,0.18,0.175,0.175,32900,0.175
2016-08-24,0.18,0.185,0.18,0.18,159800,0.18
2016-08-23,0.18,0.18,0.175,0.175,137000,0.175
2016-08-22,0.18,0.18,0.17,0.175,202600,0.175
2016-08-19,0.18,0.185,0.17,0.17,481200,0.17
2016-08-18,0.18,0.19,0.18,0.18,31700,0.18
2016-08-17,0.195,0.195,0.18,0.18,251700,0.18
2016-08-16,0.19,0.19,0.19,0.19,50500,0.19
2016-08-15,0.195,0.195,0.19,0.19,17900,0.19
2016-08-12,0.19,0.19,0.185,0.185,210000,0.185
2016-08-11,0.19,0.19,0.19,0.19,32300,0.19
2016-08-10,0.19,0.19,0.19,0.19,10000,0.19
2016-08-09,0.195,0.20,0.19,0.19,262300,0.19
2016-08-08,0.195,0.195,0.19,0.19,190000,0.19
2016-08-05,0.195,0.195,0.195,0.195,127500,0.195
2016-08-04,0.195,0.20,0.195,0.195,70200,0.195
2016-08-03,0.20,0.20,0.195,0.195,5600,0.195
2016-08-02,0.195,0.20,0.195,0.20,119500,0.20
2016-08-01,0.20,0.20,0.195,0.20,269700,0.20
2016-07-29,0.20,0.20,0.195,0.195,131900,0.195
2016-07-28,0.20,0.20,0.20,0.20,70000,0.20
2016-07-27,0.20,0.20,0.195,0.195,17500,0.195
2016-07-26,0.205,0.205,0.195,0.20,182200,0.20
2016-07-25,0.20,0.215,0.20,0.21,398200,0.21
2016-07-22,0.195,0.20,0.195,0.20,117800,0.20
2016-07-21,0.195,0.195,0.19,0.19,189900,0.19
2016-07-20,0.20,0.20,0.195,0.195,321300,0.195
2016-07-19,0.205,0.205,0.205,0.205,000,0.205
2016-07-18,0.205,0.205,0.20,0.205,138000,0.205
2016-07-15,0.20,0.22,0.195,0.21,952400,0.21
2016-07-14,0.19,0.195,0.19,0.195,120200,0.195
2016-07-13,0.19,0.19,0.19,0.19,141700,0.19
2016-07-12,0.19,0.19,0.19,0.19,42000,0.19
2016-07-11,0.20,0.20,0.19,0.19,144700,0.19
2016-07-08,0.20,0.205,0.19,0.19,221700,0.19
2016-07-07,0.20,0.205,0.20,0.20,77400,0.20
2016-07-06,0.20,0.205,0.20,0.205,44600,0.205
2016-07-05,0.19,0.205,0.19,0.20,326700,0.20
2016-07-04,0.19,0.19,0.19,0.19,52300,0.19
2016-07-01,0.20,0.215,0.195,0.195,439600,0.195
2016-06-30,0.185,0.21,0.18,0.20,678000,0.20
2016-06-29,0.18,0.185,0.18,0.18,198700,0.18
2016-06-28,0.19,0.19,0.18,0.18,133300,0.18
2016-06-27,0.18,0.195,0.175,0.19,62900,0.19
2016-06-24,0.195,0.195,0.18,0.195,944200,0.195
2016-06-23,0.19,0.197,0.185,0.195,647100,0.195
2016-06-22,0.18,0.19,0.18,0.185,644500,0.185
2016-06-21,0.165,0.18,0.16,0.18,874000,0.18
2016-06-20,0.17,0.17,0.16,0.16,820400,0.16
2016-06-17,0.18,0.185,0.17,0.17,296200,0.17
2016-06-16,0.165,0.185,0.15,0.18,1029100,0.18
2016-06-15,0.175,0.18,0.165,0.165,576900,0.165
2016-06-14,0.19,0.19,0.175,0.175,640500,0.175
2016-06-13,0.185,0.185,0.185,0.185,000,0.185
2016-06-10,0.19,0.195,0.185,0.185,278300,0.185
2016-06-09,0.195,0.20,0.185,0.19,494400,0.19
2016-06-08,0.20,0.205,0.19,0.19,362400,0.19
2016-06-07,0.21,0.21,0.20,0.205,776700,0.205
2016-06-06,0.205,0.21,0.205,0.205,65300,0.205
2016-06-03,0.21,0.215,0.205,0.21,479800,0.21
2016-06-02,0.215,0.22,0.21,0.21,371600,0.21
2016-06-01,0.215,0.23,0.21,0.215,467700,0.215
2016-05-31,0.235,0.235,0.215,0.22,522200,0.22
2016-05-30,0.24,0.245,0.23,0.235,50100,0.235
2016-05-27,0.235,0.235,0.225,0.235,440600,0.229
2016-05-26,0.23,0.24,0.225,0.23,422400,0.224
2016-05-25,0.24,0.24,0.23,0.235,347800,0.229
2016-05-24,0.23,0.26,0.23,0.235,2191400,0.229
2016-05-23,0.235,0.235,0.22,0.22,586000,0.215
2016-05-20,0.235,0.245,0.23,0.23,230500,0.224
2016-05-19,0.24,0.24,0.235,0.235,573400,0.229
2016-05-18,0.245,0.245,0.235,0.235,351400,0.229
2016-05-17,0.25,0.26,0.245,0.245,525200,0.239
2016-05-16,0.255,0.255,0.245,0.255,506900,0.249
2016-05-13,0.26,0.26,0.25,0.26,869200,0.254
2016-05-12,0.275,0.275,0.26,0.26,704900,0.254
2016-05-11,0.28,0.295,0.27,0.275,3024400,0.268
2016-05-10,0.26,0.285,0.26,0.275,1715400,0.268
2016-05-09,0.24,0.255,0.24,0.255,1189400,0.249
2016-05-06,0.235,0.245,0.23,0.24,661700,0.234
2016-05-05,0.235,0.24,0.225,0.235,213600,0.229
2016-05-04,0.235,0.24,0.225,0.24,287400,0.234
2016-05-03,0.235,0.245,0.23,0.235,314000,0.229
2016-05-02,0.22,0.245,0.205,0.235,650500,0.229
2016-04-29,0.235,0.235,0.22,0.235,745300,0.229
2016-04-28,0.25,0.25,0.24,0.24,292100,0.234
2016-04-27,0.26,0.265,0.24,0.25,1367500,0.244
2016-04-26,0.275,0.275,0.26,0.26,679000,0.254
2016-04-25,0.275,0.275,0.275,0.275,000,0.268
2016-04-22,0.28,0.28,0.27,0.275,422400,0.268
2016-04-21,0.285,0.285,0.265,0.265,642900,0.259
2016-04-20,0.28,0.295,0.275,0.275,650900,0.268
2016-04-19,0.295,0.30,0.27,0.28,711900,0.273
2016-04-18,0.28,0.295,0.27,0.295,716900,0.288
2016-04-15,0.295,0.295,0.255,0.275,2409600,0.268
2016-04-14,0.385,0.39,0.285,0.30,3866100,0.293
2016-04-13,0.425,0.45,0.35,0.38,2974000,0.371
2016-04-12,0.36,0.50,0.36,0.415,8315300,0.405
2016-04-11,0.255,0.35,0.255,0.35,3938400,0.342
2016-04-08,0.24,0.27,0.235,0.25,1528700,0.244
