Date,Open,High,Low,Close,Volume,Adj Close
2017-01-10,0.045,0.045,0.045,0.045,000,0.045
2017-01-09,0.045,0.045,0.045,0.045,000,0.045
2017-01-06,0.045,0.045,0.045,0.045,000,0.045
2017-01-05,0.045,0.045,0.045,0.045,000,0.045
2017-01-04,0.045,0.045,0.045,0.045,000,0.045
2017-01-03,0.045,0.045,0.045,0.045,000,0.045
2017-01-02,0.045,0.045,0.045,0.045,000,0.045
2016-12-30,0.045,0.045,0.045,0.045,000,0.045
2016-12-29,0.045,0.045,0.045,0.045,000,0.045
2016-12-28,0.045,0.045,0.045,0.045,22500,0.045
2016-12-27,0.043,0.043,0.043,0.043,000,0.043
2016-12-26,0.043,0.043,0.043,0.043,000,0.043
2016-12-23,0.043,0.043,0.043,0.043,000,0.043
2016-12-22,0.043,0.043,0.043,0.043,000,0.043
2016-12-21,0.043,0.043,0.043,0.043,000,0.043
2016-12-20,0.043,0.043,0.043,0.043,000,0.043
2016-12-19,0.043,0.043,0.043,0.043,000,0.043
2016-12-16,0.043,0.043,0.043,0.043,000,0.043
2016-12-15,0.043,0.043,0.043,0.043,000,0.043
2016-12-14,0.043,0.043,0.043,0.043,65000,0.043
2016-12-13,0.04,0.04,0.04,0.04,000,0.04
2016-12-12,0.04,0.04,0.04,0.04,000,0.04
2016-12-09,0.04,0.04,0.04,0.04,21200,0.04
2016-12-08,0.044,0.044,0.044,0.044,000,0.044
2016-12-07,0.044,0.044,0.044,0.044,000,0.044
2016-12-06,0.044,0.044,0.044,0.044,000,0.044
2016-12-05,0.044,0.044,0.044,0.044,000,0.044
2016-12-02,0.044,0.044,0.044,0.044,000,0.044
2016-12-01,0.044,0.044,0.044,0.044,000,0.044
2016-11-30,0.044,0.044,0.044,0.044,000,0.044
2016-11-29,0.044,0.044,0.044,0.044,000,0.044
2016-11-28,0.044,0.044,0.044,0.044,000,0.044
2016-11-25,0.044,0.044,0.044,0.044,000,0.044
2016-11-24,0.044,0.044,0.044,0.044,000,0.044
2016-11-23,0.044,0.044,0.044,0.044,000,0.044
2016-11-22,0.04,0.044,0.04,0.044,581200,0.044
2016-11-21,0.045,0.045,0.045,0.045,25000,0.045
2016-11-18,0.04,0.04,0.04,0.04,000,0.04
2016-11-17,0.04,0.04,0.04,0.04,000,0.04
2016-11-16,0.042,0.042,0.038,0.04,170000,0.04
2016-11-15,0.04,0.04,0.04,0.04,75000,0.04
2016-11-14,0.04,0.04,0.04,0.04,000,0.04
2016-11-11,0.04,0.04,0.04,0.04,000,0.04
2016-11-10,0.04,0.04,0.04,0.04,75000,0.04
2016-11-09,0.04,0.04,0.04,0.04,000,0.04
2016-11-08,0.04,0.04,0.04,0.04,000,0.04
2016-11-07,0.04,0.04,0.04,0.04,000,0.04
2016-11-04,0.04,0.04,0.04,0.04,000,0.04
2016-11-03,0.038,0.04,0.038,0.04,180000,0.04
2016-11-02,0.037,0.037,0.037,0.037,000,0.037
2016-11-01,0.04,0.04,0.037,0.037,110000,0.037
2016-10-31,0.045,0.045,0.045,0.045,000,0.045
2016-10-28,0.045,0.045,0.045,0.045,000,0.045
2016-10-27,0.045,0.045,0.045,0.045,000,0.045
2016-10-26,0.045,0.045,0.045,0.045,5100,0.045
2016-10-25,0.048,0.048,0.045,0.045,316700,0.045
2016-10-24,0.041,0.041,0.041,0.041,000,0.041
2016-10-21,0.041,0.041,0.041,0.041,000,0.041
2016-10-20,0.041,0.041,0.041,0.041,000,0.041
2016-10-19,0.041,0.041,0.041,0.041,000,0.041
2016-10-18,0.041,0.041,0.041,0.041,000,0.041
2016-10-17,0.041,0.041,0.041,0.041,000,0.041
2016-10-14,0.041,0.041,0.041,0.041,000,0.041
2016-10-13,0.041,0.041,0.041,0.041,000,0.041
2016-10-12,0.041,0.041,0.041,0.041,000,0.041
2016-10-11,0.041,0.041,0.041,0.041,000,0.041
2016-10-10,0.041,0.041,0.041,0.041,000,0.041
2016-10-07,0.041,0.041,0.041,0.041,000,0.041
2016-10-06,0.041,0.041,0.041,0.041,41500,0.041
2016-10-05,0.049,0.049,0.049,0.049,000,0.049
2016-10-04,0.049,0.049,0.049,0.049,000,0.049
2016-10-03,0.049,0.049,0.049,0.049,000,0.049
2016-09-30,0.049,0.049,0.049,0.049,000,0.049
2016-09-29,0.049,0.049,0.049,0.049,000,0.049
2016-09-28,0.049,0.049,0.049,0.049,000,0.049
2016-09-27,0.049,0.049,0.049,0.049,000,0.049
2016-09-26,0.049,0.049,0.049,0.049,000,0.049
2016-09-23,0.049,0.049,0.049,0.049,000,0.049
2016-09-22,0.049,0.049,0.049,0.049,000,0.049
2016-09-21,0.049,0.049,0.049,0.049,000,0.049
2016-09-20,0.049,0.049,0.049,0.049,000,0.049
2016-09-19,0.049,0.049,0.049,0.049,000,0.049
2016-09-16,0.049,0.049,0.049,0.049,000,0.049
2016-09-15,0.049,0.049,0.049,0.049,000,0.049
2016-09-14,0.049,0.049,0.049,0.049,000,0.049
2016-09-13,0.049,0.049,0.049,0.049,33800,0.049
2016-09-12,0.04,0.04,0.04,0.04,000,0.04
2016-09-09,0.04,0.04,0.04,0.04,13800,0.04
2016-09-08,0.04,0.045,0.04,0.04,130200,0.04
2016-09-07,0.041,0.041,0.041,0.041,222100,0.041
2016-09-06,0.041,0.041,0.041,0.041,3800,0.041
2016-09-05,0.041,0.041,0.041,0.041,225000,0.041
2016-09-02,0.044,0.044,0.044,0.044,27800,0.044
2016-09-01,0.041,0.041,0.041,0.041,000,0.041
2016-08-31,0.041,0.041,0.041,0.041,000,0.041
2016-08-30,0.041,0.041,0.041,0.041,000,0.041
2016-08-29,0.041,0.041,0.041,0.041,000,0.041
2016-08-26,0.041,0.041,0.041,0.041,000,0.041
2016-08-25,0.041,0.041,0.041,0.041,000,0.041
2016-08-24,0.041,0.041,0.041,0.041,000,0.041
2016-08-23,0.041,0.041,0.041,0.041,000,0.041
2016-08-22,0.041,0.041,0.041,0.041,000,0.041
2016-08-19,0.039,0.041,0.039,0.041,331200,0.041
2016-08-18,0.042,0.042,0.041,0.041,150000,0.041
2016-08-17,0.046,0.046,0.046,0.046,000,0.046
2016-08-16,0.046,0.046,0.046,0.046,000,0.046
2016-08-15,0.046,0.046,0.046,0.046,000,0.046
2016-08-12,0.046,0.046,0.046,0.046,000,0.046
2016-08-11,0.046,0.046,0.046,0.046,000,0.046
2016-08-10,0.046,0.046,0.046,0.046,000,0.046
2016-08-09,0.046,0.046,0.046,0.046,000,0.046
2016-08-08,0.046,0.046,0.046,0.046,000,0.046
2016-08-05,0.045,0.046,0.045,0.046,329700,0.046
2016-08-04,0.035,0.035,0.035,0.035,000,0.035
2016-08-03,0.035,0.035,0.035,0.035,000,0.035
2016-08-02,0.035,0.035,0.035,0.035,000,0.035
2016-08-01,0.035,0.035,0.035,0.035,000,0.035
2016-07-29,0.035,0.035,0.035,0.035,000,0.035
2016-07-28,0.035,0.035,0.035,0.035,000,0.035
2016-07-27,0.035,0.035,0.035,0.035,000,0.035
2016-07-26,0.035,0.035,0.035,0.035,000,0.035
2016-07-25,0.035,0.035,0.035,0.035,000,0.035
2016-07-22,0.035,0.035,0.035,0.035,000,0.035
2016-07-21,0.035,0.035,0.035,0.035,000,0.035
2016-07-20,0.035,0.035,0.035,0.035,000,0.035
2016-07-19,0.035,0.035,0.035,0.035,000,0.035
2016-07-18,0.035,0.035,0.035,0.035,000,0.035
2016-07-15,0.035,0.035,0.035,0.035,100000,0.035
2016-07-14,0.035,0.035,0.035,0.035,000,0.035
2016-07-13,0.035,0.035,0.035,0.035,000,0.035
2016-07-12,0.035,0.035,0.035,0.035,000,0.035
2016-07-11,0.035,0.035,0.035,0.035,000,0.035
2016-07-08,0.035,0.035,0.035,0.035,000,0.035
2016-07-07,0.035,0.035,0.035,0.035,000,0.035
2016-07-06,0.035,0.035,0.035,0.035,000,0.035
2016-07-05,0.035,0.035,0.035,0.035,000,0.035
2016-07-04,0.035,0.035,0.035,0.035,50000,0.035
2016-07-01,0.035,0.035,0.035,0.035,62500,0.035
2016-06-30,0.036,0.036,0.036,0.036,000,0.036
2016-06-29,0.036,0.036,0.036,0.036,000,0.036
2016-06-28,0.036,0.036,0.036,0.036,000,0.036
2016-06-27,0.036,0.036,0.036,0.036,000,0.036
2016-06-24,0.036,0.036,0.036,0.036,000,0.036
2016-06-23,0.036,0.036,0.036,0.036,000,0.036
2016-06-22,0.036,0.036,0.036,0.036,000,0.036
2016-06-21,0.036,0.036,0.036,0.036,000,0.036
2016-06-20,0.038,0.038,0.036,0.036,34000,0.036
2016-06-17,0.038,0.038,0.038,0.038,000,0.038
2016-06-16,0.038,0.038,0.038,0.038,000,0.038
2016-06-15,0.038,0.038,0.038,0.038,37500,0.038
2016-06-14,0.045,0.045,0.045,0.045,000,0.045
2016-06-13,0.045,0.045,0.045,0.045,000,0.045
2016-06-10,0.045,0.045,0.045,0.045,000,0.045
2016-06-09,0.045,0.045,0.045,0.045,000,0.045
2016-06-08,0.045,0.045,0.045,0.045,000,0.045
2016-06-07,0.045,0.045,0.045,0.045,000,0.045
2016-06-06,0.045,0.045,0.045,0.045,000,0.045
2016-06-03,0.045,0.045,0.045,0.045,000,0.045
2016-06-02,0.045,0.045,0.045,0.045,000,0.045
2016-06-01,0.045,0.045,0.045,0.045,50000,0.045
2016-05-31,0.041,0.041,0.041,0.041,000,0.041
2016-05-30,0.039,0.041,0.039,0.041,537500,0.041
2016-05-27,0.039,0.039,0.039,0.039,000,0.039
2016-05-26,0.039,0.039,0.039,0.039,000,0.039
2016-05-25,0.039,0.039,0.039,0.039,000,0.039
2016-05-24,0.039,0.039,0.039,0.039,000,0.039
2016-05-23,0.039,0.039,0.039,0.039,000,0.039
2016-05-20,0.039,0.039,0.039,0.039,000,0.039
2016-05-19,0.039,0.039,0.039,0.039,000,0.039
2016-05-18,0.039,0.039,0.039,0.039,000,0.039
2016-05-17,0.039,0.039,0.039,0.039,000,0.039
2016-05-16,0.039,0.039,0.039,0.039,000,0.039
2016-05-13,0.039,0.039,0.039,0.039,000,0.039
2016-05-12,0.039,0.039,0.039,0.039,000,0.039
2016-05-11,0.039,0.039,0.039,0.039,000,0.039
2016-05-10,0.039,0.039,0.039,0.039,000,0.039
2016-05-09,0.039,0.039,0.039,0.039,000,0.039
2016-05-06,0.039,0.039,0.039,0.039,50000,0.039
2016-05-05,0.04,0.04,0.04,0.04,000,0.04
2016-05-04,0.04,0.04,0.04,0.04,23700,0.04
2016-05-03,0.04,0.04,0.037,0.037,201200,0.037
2016-05-02,0.04,0.041,0.04,0.041,75000,0.041
2016-04-29,0.045,0.045,0.045,0.045,000,0.045
2016-04-28,0.045,0.045,0.045,0.045,100000,0.045
2016-04-27,0.045,0.045,0.045,0.045,000,0.045
2016-04-26,0.045,0.045,0.045,0.045,25000,0.045
2016-04-25,0.035,0.035,0.035,0.035,000,0.035
2016-04-22,0.035,0.035,0.035,0.035,000,0.035
2016-04-21,0.035,0.035,0.035,0.035,000,0.035
2016-04-20,0.035,0.035,0.035,0.035,200000,0.035
2016-04-19,0.035,0.035,0.034,0.035,130000,0.035
2016-04-18,0.028,0.028,0.028,0.028,000,0.028
2016-04-15,0.028,0.028,0.028,0.028,000,0.028
2016-04-14,0.028,0.028,0.028,0.028,000,0.028
2016-04-13,0.028,0.028,0.028,0.028,000,0.028
2016-04-12,0.028,0.028,0.028,0.028,000,0.028
2016-04-11,0.028,0.028,0.028,0.028,000,0.028
2016-04-08,0.028,0.028,0.028,0.028,000,0.028
2016-04-07,0.028,0.028,0.028,0.028,000,0.028
2016-04-06,0.028,0.028,0.028,0.028,5000,0.028
2016-04-05,0.025,0.025,0.025,0.025,000,0.025
2016-04-04,0.025,0.025,0.025,0.025,000,0.025
2016-04-01,0.025,0.025,0.025,0.025,000,0.025
2016-03-31,0.025,0.025,0.025,0.025,10000,0.025
2016-03-30,0.045,0.045,0.045,0.045,000,0.045
2016-03-29,0.045,0.045,0.045,0.045,000,0.045
2016-03-28,0.045,0.045,0.045,0.045,000,0.045
2016-03-25,0.045,0.045,0.045,0.045,000,0.045
2016-03-24,0.045,0.045,0.045,0.045,000,0.045
2016-03-23,0.045,0.045,0.045,0.045,000,0.045
2016-03-22,0.045,0.045,0.045,0.045,000,0.045
2016-03-21,0.045,0.045,0.045,0.045,000,0.045
2016-03-18,0.045,0.045,0.045,0.045,000,0.045
2016-03-17,0.045,0.045,0.045,0.045,000,0.045
2016-03-16,0.045,0.045,0.045,0.045,000,0.045
2016-03-15,0.045,0.045,0.045,0.045,5000,0.045
2016-03-14,0.045,0.045,0.045,0.045,000,0.045
2016-03-11,0.046,0.046,0.045,0.045,99600,0.045
2016-03-10,0.045,0.048,0.045,0.048,397100,0.048
2016-03-09,0.045,0.045,0.045,0.045,75000,0.045
2016-03-08,0.045,0.045,0.045,0.045,74500,0.045
2016-03-07,0.042,0.042,0.042,0.042,000,0.042
2016-03-04,0.042,0.042,0.042,0.042,000,0.042
2016-03-03,0.042,0.042,0.042,0.042,000,0.042
2016-03-02,0.042,0.042,0.042,0.042,000,0.042
2016-03-01,0.042,0.042,0.042,0.042,000,0.042
2016-02-29,0.042,0.042,0.042,0.042,000,0.042
2016-02-26,0.042,0.042,0.042,0.042,20000,0.042
2016-02-25,0.042,0.042,0.042,0.042,20000,0.042
2016-02-24,0.045,0.045,0.045,0.045,000,0.045
2016-02-23,0.045,0.045,0.045,0.045,000,0.045
2016-02-22,0.045,0.045,0.045,0.045,000,0.045
2016-02-19,0.045,0.045,0.045,0.045,000,0.045
2016-02-18,0.045,0.045,0.045,0.045,000,0.045
2016-02-17,0.045,0.045,0.045,0.045,000,0.045
2016-02-16,0.045,0.045,0.045,0.045,000,0.045
2016-02-15,0.045,0.045,0.045,0.045,000,0.045
2016-02-12,0.045,0.045,0.045,0.045,000,0.045
2016-02-11,0.045,0.045,0.045,0.045,000,0.045
2016-02-10,0.044,0.045,0.042,0.045,300000,0.045
2016-02-09,0.045,0.045,0.045,0.045,000,0.045
2016-02-08,0.045,0.045,0.045,0.045,000,0.045
2016-02-05,0.045,0.045,0.045,0.045,000,0.045
2016-02-04,0.045,0.045,0.045,0.045,170000,0.045
2016-02-03,0.045,0.045,0.045,0.045,000,0.045
2016-02-02,0.045,0.045,0.045,0.045,50000,0.045
2016-02-01,0.043,0.043,0.043,0.043,000,0.043
2016-01-29,0.043,0.043,0.043,0.043,000,0.043
2016-01-28,0.043,0.043,0.043,0.043,000,0.043
2016-01-27,0.043,0.043,0.043,0.043,000,0.043
2016-01-26,0.043,0.043,0.043,0.043,000,0.043
2016-01-25,0.041,0.043,0.041,0.043,100000,0.043
2016-01-22,0.041,0.041,0.041,0.041,30000,0.041
2016-01-21,0.04,0.042,0.04,0.042,110300,0.042
2016-01-20,0.042,0.042,0.042,0.042,100000,0.042
2016-01-19,0.04,0.041,0.04,0.041,200000,0.041
2016-01-18,0.04,0.042,0.04,0.041,732200,0.041
2016-01-15,0.035,0.035,0.035,0.035,000,0.035
2016-01-14,0.035,0.035,0.035,0.035,000,0.035
2016-01-13,0.035,0.035,0.035,0.035,000,0.035
2016-01-12,0.035,0.035,0.034,0.035,438500,0.035
2016-01-11,0.032,0.032,0.032,0.032,000,0.032
2016-01-08,0.032,0.032,0.032,0.032,000,0.032
2016-01-07,0.032,0.032,0.032,0.032,000,0.032
2016-01-06,0.032,0.032,0.032,0.032,66500,0.032
2016-01-05,0.031,0.031,0.031,0.031,000,0.031
2016-01-04,0.031,0.031,0.031,0.031,5000,0.031
2016-01-01,0.035,0.035,0.035,0.035,000,0.035
2015-12-31,0.035,0.035,0.035,0.035,000,0.035
2015-12-30,0.035,0.035,0.035,0.035,000,0.035
2015-12-29,0.035,0.035,0.035,0.035,000,0.035
2015-12-28,0.035,0.035,0.035,0.035,000,0.035
2015-12-25,0.035,0.035,0.035,0.035,000,0.035
2015-12-24,0.035,0.035,0.035,0.035,000,0.035
2015-12-23,0.03,0.035,0.03,0.035,196900,0.035
2015-12-22,0.025,0.025,0.025,0.025,000,0.025
2015-12-21,0.025,0.025,0.025,0.025,000,0.025
2015-12-18,0.025,0.025,0.025,0.025,000,0.025
2015-12-17,0.025,0.025,0.025,0.025,000,0.025
2015-12-16,0.025,0.025,0.025,0.025,000,0.025
2015-12-15,0.025,0.025,0.025,0.025,000,0.025
2015-12-14,0.025,0.025,0.025,0.025,000,0.025
2015-12-11,0.025,0.025,0.025,0.025,000,0.025
2015-12-10,0.025,0.025,0.025,0.025,000,0.025
2015-12-09,0.025,0.025,0.025,0.025,000,0.025
2015-12-08,0.025,0.025,0.025,0.025,000,0.025
2015-12-07,0.025,0.025,0.025,0.025,000,0.025
2015-12-04,0.025,0.025,0.025,0.025,000,0.025
2015-12-03,0.025,0.025,0.025,0.025,000,0.025
2015-12-02,0.025,0.025,0.025,0.025,000,0.025
2015-12-01,0.025,0.025,0.025,0.025,000,0.025
2015-11-30,0.025,0.025,0.025,0.025,000,0.025
2015-11-27,0.025,0.025,0.025,0.025,23500,0.025
2015-11-26,0.025,0.025,0.025,0.025,000,0.025
2015-11-25,0.025,0.025,0.025,0.025,000,0.025
2015-11-24,0.025,0.025,0.025,0.025,000,0.025
2015-11-23,0.025,0.025,0.025,0.025,000,0.025
2015-11-20,0.025,0.025,0.025,0.025,000,0.025
2015-11-19,0.025,0.025,0.025,0.025,000,0.025
2015-11-18,0.025,0.025,0.025,0.025,000,0.025
2015-11-17,0.025,0.025,0.025,0.025,000,0.025
2015-11-16,0.025,0.025,0.025,0.025,000,0.025
2015-11-13,0.025,0.025,0.025,0.025,000,0.025
2015-11-12,0.025,0.025,0.025,0.025,21000,0.025
2015-11-11,0.022,0.022,0.022,0.022,000,0.022
2015-11-10,0.022,0.022,0.022,0.022,000,0.022
2015-11-09,0.022,0.022,0.022,0.022,000,0.022
2015-11-06,0.022,0.022,0.022,0.022,000,0.022
2015-11-05,0.022,0.022,0.022,0.022,000,0.022
2015-11-04,0.022,0.022,0.022,0.022,000,0.022
2015-11-03,0.022,0.022,0.022,0.022,000,0.022
2015-11-02,0.022,0.022,0.022,0.022,000,0.022
2015-10-30,0.022,0.022,0.022,0.022,000,0.022
2015-10-29,0.022,0.022,0.022,0.022,000,0.022
2015-10-28,0.022,0.022,0.022,0.022,000,0.022
2015-10-27,0.022,0.022,0.022,0.022,000,0.022
2015-10-26,0.022,0.022,0.022,0.022,000,0.022
2015-10-23,0.022,0.022,0.022,0.022,000,0.022
2015-10-22,0.022,0.022,0.022,0.022,000,0.022
2015-10-21,0.022,0.022,0.022,0.022,000,0.022
2015-10-20,0.022,0.022,0.022,0.022,000,0.022
2015-10-19,0.022,0.022,0.022,0.022,50000,0.022
2015-10-16,0.021,0.021,0.021,0.021,000,0.021
2015-10-15,0.021,0.021,0.021,0.021,000,0.021
2015-10-14,0.021,0.021,0.021,0.021,11500,0.021
2015-10-13,0.021,0.021,0.021,0.021,000,0.021
2015-10-12,0.021,0.021,0.021,0.021,25000,0.021
2015-10-09,0.022,0.022,0.022,0.022,000,0.022
2015-10-08,0.022,0.022,0.022,0.022,000,0.022
2015-10-07,0.022,0.022,0.022,0.022,000,0.022
2015-10-06,0.022,0.022,0.022,0.022,000,0.022
2015-10-05,0.022,0.022,0.022,0.022,000,0.022
2015-10-02,0.022,0.022,0.022,0.022,000,0.022
2015-10-01,0.022,0.022,0.022,0.022,000,0.022
2015-09-30,0.022,0.022,0.022,0.022,000,0.022
2015-09-29,0.022,0.022,0.022,0.022,000,0.022
2015-09-28,0.022,0.022,0.022,0.022,000,0.022
2015-09-25,0.022,0.022,0.022,0.022,000,0.022
2015-09-24,0.022,0.022,0.022,0.022,000,0.022
2015-09-23,0.022,0.022,0.022,0.022,000,0.022
2015-09-22,0.022,0.022,0.022,0.022,000,0.022
2015-09-21,0.022,0.022,0.022,0.022,000,0.022
2015-09-18,0.022,0.022,0.022,0.022,000,0.022
2015-09-17,0.022,0.022,0.022,0.022,000,0.022
2015-09-16,0.022,0.022,0.022,0.022,000,0.022
2015-09-15,0.022,0.022,0.022,0.022,000,0.022
2015-09-14,0.022,0.022,0.022,0.022,000,0.022
2015-09-11,0.022,0.022,0.022,0.022,000,0.022
2015-09-10,0.022,0.022,0.022,0.022,000,0.022
2015-09-09,0.022,0.022,0.022,0.022,000,0.022
2015-09-08,0.022,0.022,0.022,0.022,000,0.022
2015-09-07,0.022,0.022,0.022,0.022,000,0.022
2015-09-04,0.022,0.022,0.022,0.022,000,0.022
2015-09-03,0.022,0.022,0.022,0.022,000,0.022
2015-09-02,0.024,0.024,0.022,0.022,718700,0.022
2015-09-01,0.022,0.022,0.022,0.022,000,0.022
2015-08-31,0.022,0.022,0.022,0.022,000,0.022
2015-08-28,0.022,0.022,0.022,0.022,000,0.022
2015-08-27,0.022,0.022,0.022,0.022,000,0.022
2015-08-26,0.022,0.022,0.022,0.022,000,0.022
2015-08-25,0.022,0.022,0.022,0.022,000,0.022
2015-08-24,0.022,0.022,0.022,0.022,000,0.022
2015-08-20,0.022,0.022,0.022,0.022,000,0.022
2015-08-19,0.022,0.022,0.022,0.022,000,0.022
2015-08-18,0.022,0.022,0.022,0.022,000,0.022
2015-08-17,0.022,0.022,0.022,0.022,000,0.022
2015-08-14,0.022,0.022,0.022,0.022,000,0.022
2015-08-13,0.022,0.022,0.022,0.022,000,0.022
2015-08-12,0.022,0.022,0.022,0.022,000,0.022
2015-08-11,0.022,0.022,0.022,0.022,10000,0.022
2015-08-10,0.022,0.022,0.022,0.022,000,0.022
2015-08-07,0.022,0.022,0.022,0.022,9000,0.022
2015-08-06,0.018,0.018,0.018,0.018,000,0.018
2015-08-05,0.018,0.018,0.018,0.018,000,0.018
2015-08-04,0.018,0.018,0.018,0.018,99900,0.018
2015-08-03,0.022,0.022,0.018,0.018,18000,0.018
2015-07-31,0.022,0.022,0.022,0.022,243500,0.022
2015-07-30,0.025,0.025,0.025,0.025,000,0.025
2015-07-29,0.025,0.025,0.025,0.025,000,0.025
2015-07-28,0.022,0.022,0.022,0.022,000,0.022
2015-07-27,0.022,0.022,0.022,0.022,56000,0.022
2015-07-24,0.022,0.022,0.022,0.022,000,0.022
2015-07-23,0.022,0.022,0.022,0.022,000,0.022
2015-07-22,0.022,0.022,0.022,0.022,000,0.022
2015-07-21,0.022,0.022,0.022,0.022,000,0.022
2015-07-20,0.022,0.022,0.022,0.022,000,0.022
2015-07-17,0.022,0.022,0.022,0.022,000,0.022
2015-07-16,0.022,0.022,0.022,0.022,57500,0.022
2015-07-15,0.027,0.027,0.027,0.027,000,0.027
2015-07-14,0.027,0.027,0.027,0.027,000,0.027
2015-07-13,0.027,0.027,0.027,0.027,000,0.027
2015-07-10,0.027,0.027,0.027,0.027,000,0.027
2015-07-09,0.027,0.027,0.027,0.027,000,0.027
2015-07-08,0.027,0.027,0.027,0.027,000,0.027
2015-07-07,0.027,0.027,0.027,0.027,000,0.027
2015-07-06,0.027,0.027,0.027,0.027,000,0.027
2015-07-03,0.027,0.027,0.027,0.027,000,0.027
2015-07-02,0.027,0.027,0.027,0.027,30000,0.027
2015-07-01,0.027,0.027,0.027,0.027,000,0.027
2015-06-30,0.027,0.027,0.027,0.027,000,0.027
2015-06-29,0.027,0.027,0.027,0.027,000,0.027
2015-06-26,0.028,0.028,0.027,0.027,125000,0.027
2015-06-25,0.03,0.03,0.03,0.03,121900,0.03
2015-06-24,0.03,0.03,0.03,0.03,24500,0.03
2015-06-23,0.033,0.033,0.033,0.033,000,0.033
2015-06-22,0.033,0.033,0.033,0.033,28500,0.033
2015-06-19,0.033,0.033,0.033,0.033,000,0.033
2015-06-18,0.033,0.033,0.033,0.033,000,0.033
2015-06-17,0.033,0.033,0.033,0.033,000,0.033
2015-06-16,0.033,0.033,0.033,0.033,000,0.033
2015-06-15,0.033,0.033,0.033,0.033,000,0.033
2015-06-12,0.033,0.033,0.033,0.033,000,0.033
2015-06-11,0.033,0.033,0.033,0.033,000,0.033
2015-06-10,0.033,0.033,0.033,0.033,000,0.033
2015-06-09,0.033,0.033,0.033,0.033,000,0.033
2015-06-08,0.033,0.033,0.033,0.033,000,0.033
2015-06-05,0.033,0.033,0.033,0.033,000,0.033
2015-06-04,0.033,0.033,0.033,0.033,000,0.033
2015-06-03,0.033,0.033,0.033,0.033,000,0.033
2015-06-02,0.033,0.033,0.033,0.033,000,0.033
2015-06-01,0.033,0.033,0.033,0.033,000,0.033
2015-05-29,0.033,0.033,0.033,0.033,000,0.033
2015-05-28,0.033,0.033,0.033,0.033,000,0.033
2015-05-27,0.033,0.033,0.033,0.033,000,0.033
2015-05-26,0.033,0.033,0.033,0.033,000,0.033
2015-05-25,0.033,0.033,0.033,0.033,000,0.033
2015-05-22,0.033,0.033,0.033,0.033,000,0.033
2015-05-21,0.033,0.033,0.033,0.033,000,0.033
2015-05-20,0.033,0.033,0.033,0.033,000,0.033
2015-05-19,0.033,0.033,0.033,0.033,000,0.033
2015-05-18,0.033,0.033,0.033,0.033,000,0.033
2015-05-15,0.033,0.033,0.033,0.033,37700,0.033
2015-05-14,0.035,0.035,0.035,0.035,265200,0.035
2015-05-13,0.035,0.035,0.035,0.035,30000,0.035
2015-05-12,0.035,0.035,0.035,0.035,000,0.035
2015-05-11,0.035,0.035,0.035,0.035,000,0.035
2015-05-08,0.035,0.035,0.035,0.035,000,0.035
2015-05-07,0.035,0.035,0.035,0.035,000,0.035
2015-05-06,0.035,0.035,0.035,0.035,000,0.035
2015-05-05,0.035,0.035,0.035,0.035,000,0.035
2015-05-04,0.035,0.035,0.035,0.035,000,0.035
2015-05-01,0.035,0.035,0.035,0.035,453700,0.035
2015-04-30,0.03,0.03,0.03,0.03,000,0.03
2015-04-29,0.03,0.03,0.03,0.03,000,0.03
2015-04-28,0.03,0.03,0.03,0.03,20000,0.03
2015-04-27,0.042,0.042,0.042,0.042,000,0.042
2015-04-24,0.042,0.042,0.042,0.042,000,0.042
2015-04-23,0.042,0.042,0.042,0.042,000,0.042
2015-04-22,0.042,0.042,0.042,0.042,000,0.042
2015-04-21,0.042,0.042,0.042,0.042,000,0.042
2015-04-20,0.042,0.042,0.042,0.042,000,0.042
2015-04-17,0.045,0.045,0.042,0.042,12900,0.042
2015-04-16,0.042,0.042,0.042,0.042,000,0.042
2015-04-15,0.042,0.042,0.042,0.042,000,0.042
2015-04-14,0.042,0.042,0.042,0.042,000,0.042
2015-04-13,0.042,0.042,0.042,0.042,000,0.042
2015-04-10,0.042,0.042,0.042,0.042,000,0.042
2015-04-09,0.042,0.042,0.042,0.042,000,0.042
2015-04-08,0.042,0.042,0.042,0.042,000,0.042
2015-04-07,0.042,0.042,0.042,0.042,000,0.042
2015-04-06,0.042,0.042,0.042,0.042,000,0.042
2015-04-03,0.042,0.042,0.042,0.042,000,0.042
2015-04-02,0.042,0.042,0.042,0.042,000,0.042
2015-04-01,0.042,0.042,0.042,0.042,000,0.042
2015-03-31,0.042,0.042,0.042,0.042,000,0.042
2015-03-30,0.042,0.042,0.042,0.042,100000,0.042
2015-03-27,0.046,0.046,0.046,0.046,000,0.046
2015-03-26,0.046,0.046,0.046,0.046,000,0.046
2015-03-25,0.045,0.046,0.045,0.046,55000,0.046
2015-03-24,0.045,0.045,0.045,0.045,000,0.045
2015-03-23,0.045,0.045,0.045,0.045,000,0.045
2015-03-20,0.045,0.045,0.045,0.045,000,0.045
2015-03-19,0.045,0.045,0.045,0.045,000,0.045
2015-03-18,0.045,0.045,0.045,0.045,000,0.045
2015-03-17,0.045,0.045,0.045,0.045,000,0.045
2015-03-16,0.045,0.045,0.045,0.045,000,0.045
2015-03-13,0.045,0.045,0.045,0.045,000,0.045
2015-03-12,0.045,0.045,0.045,0.045,000,0.045
2015-03-11,0.045,0.045,0.045,0.045,000,0.045
2015-03-10,0.045,0.045,0.045,0.045,67000,0.045
2015-03-09,0.042,0.042,0.042,0.042,000,0.042
2015-03-06,0.042,0.042,0.042,0.042,000,0.042
2015-03-05,0.042,0.042,0.042,0.042,000,0.042
2015-03-04,0.042,0.042,0.042,0.042,000,0.042
2015-03-03,0.042,0.042,0.042,0.042,000,0.042
2015-03-02,0.042,0.042,0.042,0.042,000,0.042
2015-02-27,0.045,0.045,0.042,0.042,88000,0.042
2015-02-26,0.055,0.055,0.055,0.055,000,0.055
2015-02-25,0.055,0.055,0.055,0.055,000,0.055
2015-02-24,0.055,0.055,0.055,0.055,000,0.055
2015-02-23,0.055,0.055,0.055,0.055,000,0.055
2015-02-20,0.055,0.055,0.055,0.055,000,0.055
2015-02-19,0.055,0.055,0.055,0.055,000,0.055
2015-02-18,0.055,0.055,0.055,0.055,000,0.055
2015-02-17,0.055,0.055,0.055,0.055,000,0.055
2015-02-16,0.055,0.055,0.055,0.055,000,0.055
2015-02-13,0.055,0.055,0.055,0.055,000,0.055
2015-02-12,0.055,0.055,0.055,0.055,000,0.055
2015-02-11,0.055,0.055,0.055,0.055,000,0.055
2015-02-10,0.055,0.055,0.055,0.055,000,0.055
2015-02-09,0.055,0.055,0.055,0.055,000,0.055
2015-02-06,0.055,0.055,0.055,0.055,000,0.055
2015-02-05,0.05,0.055,0.05,0.055,221000,0.055
2015-02-04,0.055,0.055,0.055,0.055,000,0.055
2015-02-03,0.055,0.055,0.055,0.055,000,0.055
2015-02-02,0.055,0.055,0.055,0.055,000,0.055
2015-01-30,0.055,0.055,0.055,0.055,000,0.055
2015-01-29,0.055,0.055,0.055,0.055,000,0.055
2015-01-28,0.055,0.055,0.055,0.055,000,0.055
2015-01-27,0.055,0.055,0.055,0.055,000,0.055
2015-01-26,0.055,0.055,0.055,0.055,000,0.055
2015-01-23,0.055,0.055,0.055,0.055,1000,0.055
2015-01-22,0.055,0.055,0.055,0.055,000,0.055
2015-01-21,0.055,0.055,0.055,0.055,49000,0.055
2015-01-20,0.052,0.052,0.052,0.052,000,0.052
2015-01-19,0.052,0.052,0.052,0.052,000,0.052
2015-01-16,0.052,0.052,0.052,0.052,000,0.052
2015-01-15,0.052,0.052,0.052,0.052,000,0.052
2015-01-14,0.052,0.052,0.052,0.052,000,0.052
2015-01-13,0.052,0.052,0.052,0.052,200000,0.052
2015-01-12,0.048,0.048,0.048,0.048,000,0.048
2015-01-09,0.048,0.048,0.048,0.048,000,0.048
2015-01-08,0.048,0.048,0.048,0.048,10000,0.048
2015-01-07,0.085,0.085,0.085,0.085,000,0.085
2015-01-06,0.085,0.085,0.085,0.085,000,0.085
2015-01-05,0.085,0.085,0.085,0.085,000,0.085
2015-01-02,0.085,0.085,0.085,0.085,000,0.085
2015-01-01,0.085,0.085,0.085,0.085,000,0.085
2014-12-31,0.085,0.085,0.085,0.085,000,0.085
2014-12-30,0.085,0.085,0.085,0.085,000,0.085
2014-12-29,0.085,0.085,0.085,0.085,000,0.085
2014-12-26,0.085,0.085,0.085,0.085,000,0.085
2014-12-25,0.085,0.085,0.085,0.085,000,0.085
2014-12-24,0.085,0.085,0.085,0.085,000,0.085
2014-12-23,0.085,0.085,0.085,0.085,000,0.085
2014-12-22,0.085,0.085,0.085,0.085,000,0.085
2014-12-19,0.085,0.085,0.085,0.085,000,0.085
2014-12-18,0.085,0.085,0.085,0.085,000,0.085
2014-12-17,0.08,0.085,0.08,0.085,95000,0.085
2014-12-16,0.082,0.082,0.082,0.082,000,0.082
2014-12-15,0.082,0.082,0.082,0.082,000,0.082
2014-12-12,0.082,0.082,0.082,0.082,000,0.082
2014-12-11,0.082,0.082,0.082,0.082,000,0.082
2014-12-10,0.082,0.082,0.082,0.082,000,0.082
2014-12-09,0.082,0.082,0.082,0.082,000,0.082
2014-12-08,0.082,0.082,0.082,0.082,000,0.082
2014-12-05,0.083,0.083,0.082,0.082,45000,0.082
2014-12-04,0.091,0.091,0.091,0.091,000,0.091
2014-12-03,0.091,0.091,0.091,0.091,000,0.091
2014-12-02,0.091,0.091,0.091,0.091,000,0.091
2014-12-01,0.091,0.091,0.091,0.091,000,0.091
2014-11-28,0.091,0.091,0.091,0.091,160000,0.091
2014-11-27,0.10,0.10,0.10,0.10,000,0.10
2014-11-26,0.10,0.10,0.10,0.10,65000,0.10
2014-11-25,0.10,0.10,0.10,0.10,000,0.10
2014-11-24,0.10,0.10,0.10,0.10,000,0.10
2014-11-21,0.10,0.10,0.10,0.10,40000,0.10
2014-11-20,0.085,0.085,0.085,0.085,000,0.085
2014-11-19,0.085,0.085,0.085,0.085,000,0.085
2014-11-18,0.085,0.085,0.085,0.085,000,0.085
2014-11-17,0.085,0.085,0.085,0.085,10000,0.085
2014-11-14,0.09,0.09,0.09,0.09,000,0.09
2014-11-13,0.09,0.09,0.09,0.09,000,0.09
2014-11-12,0.09,0.09,0.09,0.09,000,0.09
2014-11-11,0.09,0.09,0.09,0.09,5000,0.09
2014-11-10,0.09,0.09,0.09,0.09,000,0.09
2014-11-07,0.09,0.09,0.09,0.09,35000,0.09
2014-11-06,0.09,0.09,0.09,0.09,000,0.09
2014-11-05,0.09,0.09,0.09,0.09,000,0.09
2014-11-04,0.09,0.09,0.09,0.09,000,0.09
2014-11-03,0.09,0.09,0.09,0.09,000,0.09
2014-10-31,0.09,0.09,0.09,0.09,000,0.09
2014-10-30,0.09,0.09,0.09,0.09,000,0.09
2014-10-29,0.09,0.09,0.09,0.09,000,0.09
2014-10-28,0.09,0.09,0.09,0.09,35000,0.09
2014-10-27,0.11,0.11,0.11,0.11,000,0.11
2014-10-24,0.11,0.11,0.11,0.11,000,0.11
2014-10-23,0.11,0.11,0.11,0.11,000,0.11
2014-10-22,0.11,0.11,0.11,0.11,000,0.11
2014-10-21,0.11,0.11,0.11,0.11,000,0.11
2014-10-20,0.11,0.11,0.11,0.11,000,0.11
2014-10-17,0.11,0.11,0.10,0.11,20000,0.11
2014-10-16,0.11,0.11,0.11,0.11,13500,0.11
2014-10-15,0.11,0.11,0.11,0.11,000,0.11
2014-10-14,0.11,0.11,0.11,0.11,000,0.11
2014-10-13,0.11,0.11,0.11,0.11,000,0.11
2014-10-10,0.11,0.11,0.11,0.11,000,0.11
2014-10-09,0.11,0.11,0.11,0.11,5000,0.11
2014-10-08,0.11,0.11,0.11,0.11,000,0.11
2014-10-07,0.11,0.11,0.11,0.11,000,0.11
2014-10-06,0.11,0.11,0.11,0.11,000,0.11
2014-10-03,0.11,0.11,0.11,0.11,000,0.11
2014-10-02,0.11,0.11,0.11,0.11,000,0.11
2014-10-01,0.11,0.11,0.11,0.11,000,0.11
2014-09-30,0.11,0.11,0.11,0.11,20000,0.11
2014-09-29,0.12,0.12,0.12,0.12,5000,0.12
2014-09-26,0.12,0.12,0.12,0.12,30000,0.12
2014-09-25,0.125,0.125,0.125,0.125,000,0.125
2014-09-24,0.125,0.125,0.125,0.125,000,0.125
2014-09-23,0.125,0.125,0.125,0.125,000,0.125
2014-09-22,0.125,0.125,0.125,0.125,000,0.125
2014-09-19,0.115,0.125,0.115,0.125,169500,0.125
2014-09-18,0.115,0.115,0.115,0.115,000,0.115
2014-09-17,0.115,0.115,0.115,0.115,000,0.115
2014-09-16,0.115,0.115,0.115,0.115,000,0.115
2014-09-15,0.115,0.115,0.115,0.115,4500,0.115
2014-09-12,0.125,0.125,0.125,0.125,000,0.125
2014-09-11,0.125,0.125,0.125,0.125,000,0.125
2014-09-10,0.125,0.125,0.125,0.125,000,0.125
2014-09-09,0.125,0.125,0.125,0.125,000,0.125
2014-09-08,0.125,0.125,0.125,0.125,000,0.125
2014-09-05,0.125,0.125,0.125,0.125,000,0.125
2014-09-04,0.125,0.125,0.125,0.125,000,0.125
2014-09-03,0.125,0.125,0.125,0.125,000,0.125
2014-09-02,0.125,0.125,0.125,0.125,000,0.125
2014-09-01,0.11,0.125,0.11,0.125,40000,0.125
2014-08-29,0.11,0.11,0.105,0.105,260000,0.105
2014-08-28,0.105,0.105,0.105,0.105,1400,0.105
2014-08-27,0.105,0.105,0.105,0.105,5000,0.105
2014-08-26,0.11,0.11,0.11,0.11,000,0.11
2014-08-25,0.105,0.11,0.105,0.11,80000,0.11
2014-08-22,0.10,0.10,0.095,0.095,85000,0.095
2014-08-21,0.10,0.11,0.10,0.11,61000,0.11
2014-08-20,0.10,0.10,0.10,0.10,000,0.10
2014-08-19,0.10,0.10,0.10,0.10,000,0.10
2014-08-18,0.10,0.10,0.10,0.10,68000,0.10
2014-08-15,0.105,0.11,0.10,0.11,153300,0.11
2014-08-14,0.105,0.105,0.105,0.105,50000,0.105
2014-08-13,0.10,0.115,0.10,0.115,108000,0.115
2014-08-12,0.11,0.11,0.11,0.11,000,0.11
2014-08-11,0.11,0.11,0.11,0.11,9000,0.11
2014-08-08,0.11,0.11,0.11,0.11,230900,0.11
2014-08-07,0.11,0.11,0.11,0.11,100000,0.11
2014-08-06,0.11,0.11,0.11,0.11,000,0.11
2014-08-05,0.11,0.11,0.11,0.11,258000,0.11
2014-08-04,0.11,0.12,0.11,0.115,113500,0.115
2014-08-01,0.105,0.105,0.105,0.105,000,0.105
2014-07-31,0.115,0.115,0.10,0.105,294000,0.105
2014-07-30,0.115,0.115,0.115,0.115,57500,0.115
2014-07-29,0.115,0.12,0.115,0.115,204300,0.115
2014-07-28,0.115,0.12,0.115,0.115,70000,0.115
2014-07-25,0.115,0.115,0.115,0.115,000,0.115
2014-07-24,0.125,0.125,0.115,0.115,264800,0.115
2014-07-23,0.125,0.125,0.125,0.125,10900,0.125
2014-07-22,0.125,0.13,0.115,0.13,661800,0.13
2014-07-21,0.13,0.14,0.13,0.13,190700,0.13
2014-07-18,0.14,0.14,0.14,0.14,80000,0.14
2014-07-17,0.13,0.13,0.13,0.13,15000,0.13
2014-07-16,0.135,0.135,0.135,0.135,000,0.135
2014-07-15,0.16,0.16,0.135,0.135,200000,0.135
2014-07-14,0.125,0.16,0.12,0.16,462600,0.16
2014-07-11,0.115,0.115,0.115,0.115,000,0.115
2014-07-10,0.115,0.115,0.115,0.115,000,0.115
2014-07-09,0.115,0.115,0.115,0.115,000,0.115
2014-07-08,0.115,0.115,0.115,0.115,100000,0.115
2014-07-07,0.13,0.13,0.13,0.13,000,0.13
2014-07-04,0.12,0.13,0.12,0.13,85000,0.13
2014-07-03,0.115,0.115,0.115,0.115,000,0.115
2014-07-02,0.115,0.115,0.115,0.115,000,0.115
2014-07-01,0.12,0.12,0.115,0.115,194500,0.115
2014-06-30,0.125,0.125,0.125,0.125,000,0.125
2014-06-27,0.125,0.125,0.125,0.125,000,0.125
2014-06-26,0.125,0.125,0.125,0.125,23000,0.125
2014-06-25,0.13,0.13,0.13,0.13,140000,0.13
2014-06-24,0.135,0.135,0.135,0.135,60000,0.135
2014-06-23,0.135,0.135,0.135,0.135,000,0.135
2014-06-20,0.135,0.135,0.135,0.135,15000,0.135
2014-06-19,0.13,0.13,0.13,0.13,000,0.13
2014-06-18,0.13,0.13,0.13,0.13,4500,0.13
2014-06-17,0.13,0.13,0.13,0.13,26700,0.13
2014-06-16,0.14,0.14,0.14,0.14,100,0.14
2014-06-13,0.135,0.145,0.135,0.14,169000,0.14
2014-06-12,0.125,0.135,0.125,0.135,88200,0.135
2014-06-11,0.13,0.13,0.125,0.125,15500,0.125
2014-06-10,0.13,0.13,0.13,0.13,35000,0.13
2014-06-09,0.13,0.13,0.13,0.13,000,0.13
2014-06-06,0.13,0.13,0.13,0.13,19600,0.13
2014-06-05,0.135,0.135,0.135,0.135,000,0.135
2014-06-04,0.13,0.135,0.13,0.135,35500,0.135
2014-06-03,0.12,0.12,0.12,0.12,98700,0.12
2014-06-02,0.115,0.115,0.11,0.115,104300,0.115
2014-05-30,0.11,0.11,0.11,0.11,38900,0.11
2014-05-29,0.11,0.11,0.11,0.11,16000,0.11
2014-05-28,0.11,0.11,0.11,0.11,000,0.11
2014-05-27,0.11,0.11,0.11,0.11,000,0.11
2014-05-26,0.11,0.11,0.11,0.11,10000,0.11
2014-05-23,0.11,0.11,0.11,0.11,8900,0.11
2014-05-22,0.10,0.10,0.10,0.10,000,0.10
2014-05-21,0.10,0.10,0.10,0.10,60000,0.10
2014-05-20,0.11,0.11,0.11,0.11,000,0.11
2014-05-19,0.105,0.11,0.10,0.11,115000,0.11
2014-05-16,0.11,0.11,0.11,0.11,96500,0.11
2014-05-15,0.11,0.11,0.11,0.11,53400,0.11
2014-05-14,0.12,0.12,0.11,0.11,50000,0.11
2014-05-13,0.12,0.12,0.12,0.12,000,0.12
2014-05-12,0.12,0.12,0.12,0.12,000,0.12
2014-05-09,0.12,0.12,0.12,0.12,000,0.12
2014-05-08,0.12,0.12,0.12,0.12,000,0.12
2014-05-07,0.12,0.12,0.12,0.12,000,0.12
2014-05-06,0.12,0.12,0.12,0.12,000,0.12
2014-05-05,0.12,0.12,0.12,0.12,25000,0.12
2014-05-02,0.115,0.115,0.115,0.115,000,0.115
2014-05-01,0.115,0.115,0.115,0.115,000,0.115
2014-04-30,0.115,0.115,0.115,0.115,000,0.115
2014-04-29,0.12,0.12,0.115,0.115,125000,0.115
2014-04-28,0.12,0.12,0.115,0.115,188800,0.115
2014-04-25,0.12,0.12,0.12,0.12,000,0.12
2014-04-24,0.12,0.12,0.12,0.12,000,0.12
2014-04-23,0.12,0.12,0.12,0.12,10000,0.12
2014-04-22,0.125,0.125,0.125,0.125,6500,0.125
2014-04-21,0.125,0.125,0.125,0.125,000,0.125
2014-04-18,0.125,0.125,0.125,0.125,000,0.125
2014-04-17,0.125,0.125,0.125,0.125,3400,0.125
2014-04-16,0.125,0.125,0.12,0.12,105300,0.12
2014-04-15,0.125,0.125,0.125,0.125,000,0.125
2014-04-14,0.125,0.125,0.125,0.125,60000,0.125
2014-04-11,0.125,0.125,0.125,0.125,19000,0.125
2014-04-10,0.125,0.125,0.125,0.125,000,0.125
2014-04-09,0.125,0.125,0.125,0.125,000,0.125
2014-04-08,0.125,0.125,0.125,0.125,000,0.125
2014-04-07,0.125,0.125,0.125,0.125,000,0.125
2014-04-04,0.125,0.125,0.125,0.125,000,0.125
2014-04-03,0.125,0.125,0.125,0.125,000,0.125
2014-04-02,0.13,0.13,0.125,0.125,32500,0.125
2014-04-01,0.13,0.13,0.13,0.13,10000,0.13
2014-03-31,0.13,0.15,0.13,0.15,13000,0.15
2014-03-28,0.13,0.13,0.13,0.13,25000,0.13
2014-03-27,0.135,0.15,0.135,0.135,96500,0.135
2014-03-26,0.125,0.125,0.125,0.125,000,0.125
2014-03-25,0.125,0.125,0.125,0.125,97300,0.125
2014-03-24,0.13,0.13,0.13,0.13,43300,0.13
2014-03-21,0.14,0.14,0.14,0.14,000,0.14
2014-03-20,0.14,0.14,0.14,0.14,000,0.14
2014-03-19,0.15,0.15,0.14,0.14,100000,0.14
2014-03-18,0.155,0.155,0.155,0.155,000,0.155
2014-03-17,0.155,0.155,0.155,0.155,5000,0.155
2014-03-14,0.16,0.16,0.155,0.155,40000,0.155
2014-03-13,0.14,0.155,0.14,0.155,73900,0.155
2014-03-12,0.125,0.125,0.125,0.125,000,0.125
2014-03-11,0.125,0.125,0.125,0.125,000,0.125
2014-03-10,0.125,0.125,0.125,0.125,70000,0.125
2014-03-07,0.13,0.13,0.13,0.13,21000,0.13
2014-03-06,0.125,0.125,0.125,0.125,000,0.125
2014-03-05,0.125,0.125,0.125,0.125,14000,0.125
2014-03-04,0.12,0.12,0.12,0.12,000,0.12
2014-03-03,0.12,0.12,0.12,0.12,30000,0.12
2014-02-28,0.12,0.12,0.12,0.12,15000,0.12
2014-02-27,0.125,0.125,0.12,0.12,88000,0.12
2014-02-26,0.12,0.12,0.12,0.12,000,0.12
2014-02-25,0.125,0.125,0.12,0.12,50000,0.12
2014-02-24,0.12,0.12,0.12,0.12,000,0.12
2014-02-21,0.12,0.12,0.12,0.12,000,0.12
2014-02-20,0.12,0.12,0.12,0.12,000,0.12
2014-02-19,0.125,0.125,0.12,0.12,110000,0.12
2014-02-18,0.12,0.12,0.12,0.12,65000,0.12
2014-02-17,0.125,0.125,0.125,0.125,50000,0.125
2014-02-14,0.13,0.13,0.12,0.12,17100,0.12
2014-02-13,0.125,0.125,0.125,0.125,28500,0.125
2014-02-12,0.135,0.135,0.13,0.13,98500,0.13
2014-02-11,0.135,0.135,0.135,0.135,50000,0.135
2014-02-10,0.135,0.135,0.135,0.135,56400,0.135
2014-02-07,0.135,0.135,0.135,0.135,000,0.135
2014-02-06,0.135,0.135,0.135,0.135,000,0.135
2014-02-05,0.135,0.135,0.135,0.135,72000,0.135
2014-02-04,0.15,0.15,0.15,0.15,000,0.15
2014-02-03,0.135,0.15,0.135,0.15,70000,0.15
2014-01-31,0.145,0.145,0.135,0.135,100000,0.135
2014-01-30,0.135,0.15,0.135,0.15,170000,0.15
2014-01-29,0.13,0.14,0.13,0.14,187500,0.14
2014-01-28,0.135,0.135,0.135,0.135,000,0.135
2014-01-27,0.135,0.135,0.135,0.135,000,0.135
2014-01-24,0.135,0.135,0.135,0.135,12500,0.135
2014-01-23,0.125,0.13,0.125,0.13,100500,0.13
2014-01-22,0.125,0.125,0.125,0.125,20000,0.125
2014-01-21,0.125,0.125,0.125,0.125,000,0.125
2014-01-20,0.13,0.13,0.125,0.125,36100,0.125
2014-01-17,0.12,0.125,0.12,0.125,55000,0.125
2014-01-16,0.12,0.12,0.12,0.12,000,0.12
2014-01-15,0.12,0.12,0.12,0.12,000,0.12
2014-01-14,0.12,0.12,0.12,0.12,000,0.12
2014-01-13,0.13,0.13,0.12,0.12,256000,0.12
2014-01-10,0.135,0.135,0.135,0.135,38000,0.135
2014-01-09,0.13,0.13,0.13,0.13,000,0.13
2014-01-08,0.125,0.14,0.115,0.13,416000,0.13
2014-01-07,0.14,0.14,0.14,0.14,130000,0.14
2014-01-06,0.15,0.15,0.15,0.15,50000,0.15
2014-01-03,0.16,0.16,0.16,0.16,000,0.16
2014-01-02,0.16,0.16,0.15,0.16,45900,0.16
2014-01-01,0.165,0.165,0.165,0.165,000,0.165
2013-12-31,0.165,0.165,0.165,0.165,000,0.165
2013-12-30,0.165,0.165,0.165,0.165,32000,0.165
2013-12-27,0.155,0.16,0.155,0.16,219600,0.16
2013-12-26,0.15,0.15,0.15,0.15,000,0.15
2013-12-25,0.15,0.15,0.15,0.15,000,0.15
2013-12-24,0.145,0.15,0.14,0.15,212000,0.15
2013-12-23,0.125,0.165,0.125,0.165,1116500,0.165
2013-12-20,0.105,0.105,0.105,0.105,000,0.105
2013-12-19,0.105,0.105,0.105,0.105,000,0.105
2013-12-18,0.105,0.105,0.105,0.105,100000,0.105
2013-12-17,0.105,0.105,0.10,0.10,153000,0.10
2013-12-16,0.11,0.11,0.11,0.11,100000,0.11
2013-12-13,0.125,0.125,0.125,0.125,000,0.125
2013-12-12,0.125,0.125,0.125,0.125,000,0.125
2013-12-11,0.125,0.125,0.125,0.125,000,0.125
2013-12-10,0.125,0.125,0.125,0.125,000,0.125
2013-12-09,0.125,0.125,0.125,0.125,000,0.125
2013-12-06,0.125,0.125,0.125,0.125,000,0.125
2013-12-05,0.125,0.125,0.125,0.125,000,0.125
2013-12-04,0.125,0.125,0.125,0.125,000,0.125
2013-12-03,0.13,0.13,0.125,0.125,96500,0.125
2013-12-02,0.125,0.125,0.125,0.125,000,0.125
2013-11-29,0.125,0.125,0.125,0.125,000,0.125
2013-11-28,0.125,0.125,0.125,0.125,000,0.125
2013-11-27,0.125,0.125,0.125,0.125,10000,0.125
2013-11-26,0.125,0.125,0.125,0.125,000,0.125
2013-11-25,0.13,0.13,0.125,0.125,32000,0.125
2013-11-22,0.115,0.115,0.115,0.115,000,0.115
2013-11-21,0.115,0.115,0.115,0.115,000,0.115
2013-11-20,0.115,0.115,0.115,0.115,000,0.115
2013-11-19,0.115,0.115,0.115,0.115,000,0.115
2013-11-18,0.115,0.115,0.115,0.115,000,0.115
2013-11-15,0.115,0.115,0.115,0.115,000,0.115
2013-11-14,0.115,0.115,0.115,0.115,000,0.115
2013-11-13,0.115,0.115,0.115,0.115,5000,0.115
2013-11-12,0.10,0.10,0.10,0.10,108500,0.10
2013-11-11,0.12,0.12,0.12,0.12,000,0.12
2013-11-08,0.12,0.12,0.12,0.12,000,0.12
2013-11-07,0.12,0.12,0.12,0.12,000,0.12
2013-11-06,0.12,0.12,0.12,0.12,000,0.12
2013-11-05,0.12,0.12,0.12,0.12,300000,0.12
2013-11-04,0.115,0.12,0.115,0.12,65000,0.12
2013-11-01,0.115,0.115,0.115,0.115,000,0.115
2013-10-31,0.115,0.115,0.115,0.115,000,0.115
2013-10-30,0.115,0.115,0.115,0.115,000,0.115
2013-10-29,0.115,0.115,0.115,0.115,000,0.115
2013-10-28,0.115,0.115,0.115,0.115,107500,0.115
2013-10-25,0.12,0.12,0.12,0.12,000,0.12
2013-10-24,0.12,0.12,0.12,0.12,000,0.12
2013-10-23,0.115,0.12,0.115,0.12,168900,0.12
2013-10-22,0.115,0.115,0.115,0.115,100000,0.115
2013-10-21,0.12,0.12,0.12,0.12,000,0.12
2013-10-18,0.12,0.12,0.12,0.12,000,0.12
2013-10-17,0.12,0.12,0.12,0.12,602600,0.12
2013-10-16,0.105,0.105,0.105,0.105,000,0.105
2013-10-15,0.105,0.105,0.105,0.105,144900,0.105
2013-10-14,0.105,0.105,0.105,0.105,000,0.105
2013-10-11,0.105,0.105,0.105,0.105,10000,0.105
2013-10-10,0.10,0.10,0.10,0.10,58800,0.10
2013-10-09,0.10,0.10,0.10,0.10,13500,0.10
2013-10-08,0.11,0.11,0.11,0.11,100000,0.11
2013-10-07,0.115,0.115,0.115,0.115,000,0.115
2013-10-04,0.10,0.115,0.10,0.115,238700,0.115
2013-10-03,0.11,0.11,0.10,0.10,273800,0.10
2013-10-02,0.105,0.11,0.105,0.11,97600,0.11
2013-10-01,0.125,0.125,0.10,0.10,159500,0.10
2013-09-30,0.13,0.13,0.13,0.13,000,0.13
2013-09-27,0.13,0.13,0.13,0.13,175400,0.13
2013-09-26,0.13,0.13,0.13,0.13,342800,0.13
2013-09-25,0.13,0.13,0.13,0.13,000,0.13
2013-09-24,0.13,0.13,0.13,0.13,000,0.13
2013-09-23,0.13,0.13,0.13,0.13,116000,0.13
2013-09-20,0.13,0.13,0.13,0.13,91100,0.13
2013-09-19,0.135,0.135,0.13,0.13,70300,0.13
2013-09-18,0.135,0.135,0.135,0.135,000,0.135
2013-09-17,0.135,0.135,0.135,0.135,000,0.135
2013-09-16,0.135,0.135,0.135,0.135,000,0.135
2013-09-13,0.135,0.135,0.135,0.135,000,0.135
2013-09-12,0.135,0.135,0.135,0.135,11000,0.135
2013-09-11,0.135,0.135,0.135,0.135,12100,0.135
2013-09-10,0.145,0.145,0.145,0.145,000,0.145
2013-09-09,0.145,0.145,0.145,0.145,000,0.145
2013-09-06,0.145,0.145,0.145,0.145,000,0.145
2013-09-05,0.145,0.145,0.145,0.145,000,0.145
2013-09-04,0.145,0.145,0.145,0.145,000,0.145
2013-09-03,0.145,0.145,0.145,0.145,000,0.145
2013-09-02,0.145,0.145,0.145,0.145,000,0.145
2013-08-30,0.145,0.145,0.145,0.145,000,0.145
2013-08-29,0.145,0.145,0.145,0.145,000,0.145
2013-08-28,0.145,0.145,0.145,0.145,000,0.145
2013-08-27,0.145,0.145,0.145,0.145,000,0.145
2013-08-26,0.145,0.145,0.145,0.145,000,0.145
2013-08-23,0.145,0.145,0.145,0.145,000,0.145
2013-08-22,0.145,0.145,0.145,0.145,53100,0.145
2013-08-21,0.13,0.13,0.13,0.13,000,0.13
2013-08-20,0.13,0.13,0.13,0.13,000,0.13
2013-08-19,0.13,0.13,0.13,0.13,8100,0.13
2013-08-16,0.135,0.135,0.135,0.135,000,0.135
2013-08-15,0.135,0.135,0.135,0.135,000,0.135
2013-08-14,0.135,0.135,0.135,0.135,11800,0.135
2013-08-13,0.135,0.135,0.135,0.135,3100,0.135
2013-08-12,0.135,0.135,0.135,0.135,10000,0.135
2013-08-09,0.135,0.135,0.135,0.135,10000,0.135
2013-08-08,0.12,0.125,0.12,0.125,5000,0.125
2013-08-07,0.115,0.115,0.115,0.115,19200,0.115
2013-08-06,0.125,0.125,0.125,0.125,100000,0.125
2013-08-05,0.135,0.135,0.13,0.13,62500,0.13
2013-08-02,0.125,0.14,0.125,0.14,43400,0.14
2013-08-01,0.135,0.135,0.12,0.125,110500,0.125
2013-07-31,0.15,0.15,0.15,0.15,000,0.15
2013-07-30,0.15,0.15,0.15,0.15,10000,0.15
2013-07-29,0.145,0.15,0.145,0.15,6200,0.15
2013-07-26,0.16,0.16,0.15,0.15,17100,0.15
2013-07-25,0.15,0.15,0.15,0.15,000,0.15
2013-07-24,0.15,0.15,0.15,0.15,17000,0.15
2013-07-23,0.15,0.15,0.15,0.15,4000,0.15
2013-07-22,0.15,0.15,0.15,0.15,000,0.15
2013-07-19,0.15,0.15,0.15,0.15,000,0.15
2013-07-18,0.15,0.15,0.15,0.15,000,0.15
2013-07-17,0.15,0.15,0.15,0.15,000,0.15
2013-07-16,0.15,0.15,0.15,0.15,4000,0.15
2013-07-15,0.16,0.16,0.15,0.15,20000,0.15
2013-07-12,0.16,0.16,0.16,0.16,000,0.16
2013-07-11,0.16,0.16,0.16,0.16,000,0.16
2013-07-10,0.16,0.16,0.16,0.16,000,0.16
2013-07-09,0.16,0.16,0.16,0.16,45000,0.16
2013-07-08,0.15,0.15,0.15,0.15,1200,0.15
2013-07-05,0.15,0.15,0.15,0.15,2700,0.15
2013-07-04,0.15,0.15,0.145,0.145,30100,0.145
2013-07-03,0.15,0.15,0.15,0.15,10000,0.15
2013-07-02,0.15,0.15,0.15,0.15,66600,0.15
2013-07-01,0.15,0.15,0.15,0.15,13200,0.15
2013-06-28,0.15,0.15,0.15,0.15,16500,0.15
2013-06-27,0.15,0.15,0.15,0.15,000,0.15
2013-06-26,0.15,0.15,0.15,0.15,3400,0.15
2013-06-25,0.145,0.145,0.145,0.145,000,0.145
2013-06-24,0.15,0.15,0.145,0.145,17800,0.145
2013-06-21,0.15,0.15,0.15,0.15,000,0.15
2013-06-20,0.15,0.15,0.15,0.15,80000,0.15
2013-06-19,0.15,0.15,0.15,0.15,50000,0.15
2013-06-18,0.15,0.15,0.15,0.15,80000,0.15
2013-06-17,0.15,0.15,0.145,0.145,15000,0.145
2013-06-14,0.15,0.15,0.15,0.15,35000,0.15
2013-06-13,0.15,0.15,0.15,0.15,000,0.15
2013-06-12,0.15,0.15,0.15,0.15,000,0.15
2013-06-11,0.15,0.15,0.15,0.15,000,0.15
2013-06-10,0.15,0.15,0.15,0.15,000,0.15
2013-06-07,0.15,0.15,0.15,0.15,44400,0.15
2013-06-06,0.15,0.16,0.15,0.15,91700,0.15
2013-06-05,0.12,0.14,0.12,0.14,64200,0.14
2013-06-04,0.10,0.10,0.10,0.10,000,0.10
2013-06-03,0.13,0.13,0.10,0.10,32200,0.10
2013-05-31,0.135,0.135,0.13,0.13,73700,0.13
2013-05-30,0.13,0.13,0.13,0.13,000,0.13
2013-05-29,0.13,0.13,0.13,0.13,000,0.13
2013-05-28,0.13,0.13,0.13,0.13,000,0.13
2013-05-27,0.13,0.13,0.13,0.13,21200,0.13
2013-05-24,0.14,0.14,0.13,0.13,75000,0.13
2013-05-23,0.17,0.17,0.17,0.17,300,0.17
2013-05-22,0.18,0.18,0.18,0.18,000,0.18
2013-05-21,0.18,0.18,0.18,0.18,000,0.18
2013-05-20,0.18,0.18,0.18,0.18,5500,0.18
2013-05-17,0.17,0.17,0.17,0.17,000,0.17
2013-05-16,0.17,0.17,0.17,0.17,000,0.17
2013-05-15,0.17,0.17,0.17,0.17,000,0.17
2013-05-14,0.17,0.17,0.17,0.17,000,0.17
2013-05-13,0.17,0.17,0.17,0.17,000,0.17
2013-05-10,0.175,0.175,0.17,0.17,25000,0.17
2013-05-09,0.17,0.17,0.17,0.17,50000,0.17
2013-05-08,0.17,0.17,0.17,0.17,000,0.17
2013-05-07,0.185,0.185,0.17,0.17,100000,0.17
2013-05-06,0.17,0.17,0.17,0.17,20000,0.17
2013-05-03,0.15,0.15,0.15,0.15,000,0.15
2013-05-02,0.15,0.15,0.15,0.15,000,0.15
2013-05-01,0.15,0.15,0.15,0.15,000,0.15
2013-04-30,0.15,0.15,0.15,0.15,000,0.15
2013-04-29,0.15,0.15,0.15,0.15,000,0.15
2013-04-26,0.15,0.15,0.15,0.15,000,0.15
2013-04-25,0.15,0.15,0.15,0.15,000,0.15
2013-04-24,0.15,0.15,0.15,0.15,12000,0.15
2013-04-23,0.15,0.15,0.15,0.15,000,0.15
2013-04-22,0.16,0.16,0.15,0.15,20000,0.15
2013-04-19,0.15,0.15,0.15,0.15,000,0.15
2013-04-18,0.15,0.15,0.15,0.15,50000,0.15
2013-04-17,0.15,0.15,0.15,0.15,300,0.15
2013-04-16,0.16,0.16,0.16,0.16,19600,0.16
2013-04-15,0.155,0.155,0.155,0.155,000,0.155
2013-04-12,0.155,0.155,0.155,0.155,14300,0.155
2013-04-11,0.155,0.155,0.155,0.155,3500,0.155
2013-04-10,0.155,0.155,0.155,0.155,3100,0.155
2013-04-09,0.155,0.155,0.155,0.155,30000,0.155
2013-04-08,0.16,0.16,0.16,0.16,37000,0.16
2013-04-05,0.155,0.155,0.155,0.155,000,0.155
2013-04-04,0.17,0.17,0.155,0.155,198700,0.155
2013-04-03,0.17,0.17,0.17,0.17,000,0.17
2013-04-02,0.17,0.17,0.17,0.17,65000,0.17
2013-04-01,0.17,0.17,0.17,0.17,000,0.17
2013-03-29,0.17,0.17,0.17,0.17,000,0.17
2013-03-28,0.17,0.17,0.17,0.17,7500,0.17
2013-03-27,0.17,0.17,0.17,0.17,000,0.17
2013-03-26,0.17,0.17,0.17,0.17,000,0.17
2013-03-25,0.17,0.17,0.17,0.17,000,0.17
2013-03-22,0.16,0.17,0.16,0.17,116000,0.17
2013-03-21,0.17,0.17,0.17,0.17,35900,0.17
2013-03-20,0.17,0.17,0.17,0.17,9900,0.17
2013-03-19,0.17,0.17,0.17,0.17,35500,0.17
2013-03-18,0.17,0.17,0.17,0.17,78500,0.17
2013-03-15,0.17,0.17,0.17,0.17,90000,0.17
2013-03-14,0.16,0.17,0.155,0.17,149000,0.17
2013-03-13,0.17,0.17,0.17,0.17,15600,0.17
2013-03-12,0.17,0.17,0.15,0.15,11500,0.15
2013-03-11,0.16,0.16,0.15,0.15,13100,0.15
2013-03-08,0.17,0.17,0.17,0.17,000,0.17
2013-03-07,0.17,0.17,0.17,0.17,000,0.17
2013-03-06,0.17,0.17,0.17,0.17,200800,0.17
2013-03-05,0.175,0.175,0.175,0.175,42500,0.175
2013-03-04,0.175,0.175,0.17,0.17,38800,0.17
2013-03-01,0.175,0.175,0.175,0.175,60000,0.175
2013-02-28,0.18,0.18,0.18,0.18,000,0.18
2013-02-27,0.18,0.18,0.18,0.18,51400,0.18
2013-02-26,0.18,0.18,0.18,0.18,13000,0.18
2013-02-25,0.185,0.185,0.185,0.185,35000,0.185
2013-02-22,0.185,0.185,0.185,0.185,000,0.185
2013-02-21,0.17,0.185,0.17,0.185,65000,0.185
2013-02-20,0.17,0.17,0.17,0.17,164300,0.17
2013-02-19,0.185,0.185,0.185,0.185,000,0.185
2013-02-18,0.185,0.185,0.185,0.185,000,0.185
2013-02-15,0.185,0.185,0.185,0.185,000,0.185
2013-02-14,0.18,0.185,0.18,0.185,106400,0.185
2013-02-13,0.17,0.17,0.17,0.17,000,0.17
2013-02-12,0.17,0.17,0.17,0.17,000,0.17
2013-02-11,0.17,0.17,0.17,0.17,000,0.17
2013-02-08,0.17,0.17,0.17,0.17,000,0.17
2013-02-07,0.17,0.17,0.17,0.17,75000,0.17
2013-02-06,0.17,0.175,0.17,0.175,224800,0.175
2013-02-05,0.18,0.18,0.18,0.18,63000,0.18
2013-02-04,0.18,0.18,0.17,0.17,37100,0.17
2013-02-01,0.18,0.18,0.18,0.18,249700,0.18
2013-01-31,0.18,0.18,0.18,0.18,115000,0.18
2013-01-30,0.19,0.19,0.185,0.185,136100,0.185
2013-01-29,0.19,0.19,0.19,0.19,60000,0.19
2013-01-28,0.19,0.19,0.19,0.19,000,0.19
2013-01-25,0.19,0.19,0.19,0.19,80000,0.19
2013-01-24,0.19,0.19,0.19,0.19,000,0.19
2013-01-23,0.19,0.19,0.19,0.19,40000,0.19
2013-01-22,0.19,0.195,0.19,0.195,41200,0.195
2013-01-21,0.195,0.195,0.18,0.19,27700,0.19
2013-01-18,0.19,0.19,0.19,0.19,40000,0.19
2013-01-17,0.19,0.20,0.19,0.19,221500,0.19
2013-01-16,0.19,0.19,0.19,0.19,000,0.19
2013-01-15,0.19,0.19,0.19,0.19,1400,0.19
2013-01-14,0.195,0.195,0.19,0.19,205600,0.19
2013-01-11,0.20,0.20,0.20,0.20,000,0.20
2013-01-10,0.20,0.20,0.20,0.20,000,0.20
2013-01-09,0.20,0.20,0.20,0.20,45700,0.20
2013-01-08,0.20,0.20,0.195,0.20,798200,0.20
2013-01-07,0.21,0.21,0.20,0.20,355200,0.20
2013-01-04,0.215,0.215,0.20,0.205,90400,0.205
