Date,Open,High,Low,Close,Volume,Adj Close
2017-01-10,2.48,2.52,2.40,2.42,178300,2.42
2017-01-09,2.49,2.55,2.45,2.47,202000,2.47
2017-01-06,2.53,2.57,2.47,2.49,371400,2.49
2017-01-05,2.45,2.555,2.37,2.46,490800,2.46
2017-01-04,2.21,2.44,2.21,2.36,564600,2.36
2017-01-03,2.07,2.20,2.07,2.18,237800,2.18
2017-01-02,2.06,2.06,2.06,2.06,000,2.06
2016-12-30,2.08,2.13,2.04,2.06,271700,2.06
2016-12-29,1.92,2.03,1.92,2.00,227800,2.00
2016-12-28,1.945,2.00,1.92,1.945,97300,1.945
2016-12-27,1.90,1.90,1.90,1.90,000,1.90
2016-12-26,1.90,1.90,1.90,1.90,000,1.90
2016-12-23,1.92,1.94,1.885,1.90,120300,1.90
2016-12-22,2.03,2.06,1.885,1.92,313100,1.92
2016-12-21,2.02,2.15,2.02,2.04,439000,2.04
2016-12-20,1.95,1.995,1.95,1.96,103100,1.96
2016-12-19,1.985,1.985,1.915,1.945,443300,1.945
2016-12-16,1.935,1.935,1.825,1.855,313500,1.855
2016-12-15,2.16,2.17,1.935,1.94,629900,1.94
2016-12-14,2.34,2.34,2.15,2.18,253700,2.18
2016-12-13,2.30,2.37,2.28,2.32,99600,2.32
2016-12-12,2.41,2.44,2.22,2.23,359300,2.23
2016-12-09,2.37,2.45,2.36,2.42,192800,2.42
2016-12-08,2.39,2.41,2.28,2.37,410600,2.37
2016-12-07,2.22,2.38,2.22,2.31,637900,2.31
2016-12-06,2.30,2.30,2.11,2.21,1739000,2.21
2016-12-05,2.92368,2.92368,2.92368,2.92368,000,2.92368
2016-12-02,2.92368,2.92368,2.92368,2.92368,000,2.92368
2016-12-01,2.92368,2.92368,2.92368,2.92368,000,2.92368
2016-11-30,2.92368,2.92368,2.92368,2.92368,000,2.92368
2016-11-29,2.97,2.97,2.97,2.97,000,2.97
2016-11-28,2.77,2.97,2.77,2.97,316400,2.97
2016-11-25,2.76,2.84,2.56,2.77,517900,2.77
2016-11-24,2.90,2.95,2.75,2.80,424100,2.80
2016-11-23,3.00,3.08,2.96,3.07,891300,3.07
2016-11-22,3.06,3.10,2.915,2.96,467300,2.96
2016-11-21,3.13,3.15,2.97,3.07,1272200,3.07
2016-11-18,3.22,3.24,3.11,3.15,310500,3.15
2016-11-17,3.27,3.30,3.17,3.25,189000,3.25
2016-11-16,3.28,3.285,3.20,3.25,287500,3.25
2016-11-15,3.15,3.21,3.14,3.17,311100,3.17
2016-11-14,3.15,3.21,3.04,3.17,496400,3.17
2016-11-11,3.53,3.53,3.16,3.24,420200,3.24
2016-11-10,3.38,3.58,3.20,3.54,387900,3.54
2016-11-09,3.22,3.50,3.15,3.45,976800,3.45
2016-11-08,3.20,3.285,3.14,3.16,171000,3.16
2016-11-07,3.40,3.44,3.10,3.20,441200,3.20
2016-11-04,3.46,3.46,3.38,3.40,192800,3.40
2016-11-03,3.43,3.46,3.41,3.42,177100,3.42
2016-11-02,3.46,3.51,3.38,3.46,312900,3.46
2016-11-01,3.46,3.49,3.40,3.42,93100,3.42
2016-10-31,3.40,3.46,3.37,3.44,121100,3.44
2016-10-28,3.43,3.43,3.32,3.39,220200,3.39
2016-10-27,3.29,3.48,3.22,3.37,411000,3.37
2016-10-26,3.40,3.42,3.225,3.29,428800,3.29
2016-10-25,3.48,3.49,3.35,3.40,209900,3.40
2016-10-24,3.56,3.56,3.36,3.44,352200,3.44
2016-10-21,3.33,3.51,3.32,3.51,207000,3.51
2016-10-20,3.32,3.39,3.31,3.33,99100,3.33
2016-10-19,3.31,3.40,3.31,3.31,89800,3.31
2016-10-18,3.27,3.33,3.27,3.30,122100,3.30
2016-10-17,3.30,3.355,3.27,3.30,113500,3.30
2016-10-14,3.30,3.35,3.295,3.30,231600,3.30
2016-10-13,3.25,3.35,3.18,3.33,96700,3.33
2016-10-12,3.29,3.34,3.19,3.26,113200,3.26
2016-10-11,3.31,3.36,3.26,3.29,179500,3.29
2016-10-10,3.16,3.37,3.16,3.31,1033300,3.31
2016-10-07,3.23,3.23,3.145,3.17,565700,3.17
2016-10-06,3.25,3.25,3.17,3.24,328300,3.24
2016-10-05,3.24,3.26,3.15,3.15,1053300,3.15
2016-10-04,3.55,3.55,3.38,3.47,985100,3.47
2016-10-03,3.58,3.66,3.57,3.62,125100,3.62
2016-09-30,3.46,3.58,3.43,3.57,155600,3.57
2016-09-29,3.36,3.45,3.34,3.44,546800,3.44
2016-09-28,3.25,3.37,3.24,3.33,237800,3.33
2016-09-27,3.35,3.45,3.26,3.35,200700,3.35
2016-09-26,3.25,3.30,3.25,3.25,108900,3.25
2016-09-23,3.39,3.48,3.28,3.31,176000,3.31
2016-09-22,3.35,3.44,3.34,3.39,162300,3.39
2016-09-21,3.44,3.44,3.24,3.24,347200,3.24
2016-09-20,3.60,3.61,3.32,3.42,348500,3.42
2016-09-19,3.75,3.75,3.64,3.64,71500,3.64
2016-09-16,3.90,3.91,3.79,3.80,2560400,3.80
2016-09-15,3.76,3.95,3.76,3.94,1340500,3.94
2016-09-14,3.67,3.75,3.63,3.72,275500,3.72
2016-09-13,3.60,3.73,3.60,3.69,417400,3.69
2016-09-12,3.50,3.59,3.50,3.55,85300,3.55
2016-09-09,3.68,3.69,3.61,3.68,124100,3.68
2016-09-08,3.79,3.82,3.69,3.76,1074300,3.76
2016-09-07,3.79,3.93,3.78,3.79,461000,3.79
2016-09-06,3.61,3.70,3.54,3.64,142000,3.64
2016-09-05,3.46,3.70,3.46,3.54,307800,3.54
2016-09-02,3.42,3.56,3.37,3.43,515100,3.43
2016-09-01,3.24,3.415,3.24,3.37,148100,3.37
2016-08-31,3.19,3.35,3.09,3.30,157500,3.30
2016-08-30,3.25,3.34,3.22,3.31,232700,3.31
2016-08-29,3.38,3.41,3.19,3.26,251100,3.26
2016-08-26,3.37,3.41,3.31,3.38,242600,3.38
2016-08-25,3.44,3.47,3.37,3.38,201000,3.38
2016-08-24,3.58,3.59,3.49,3.53,81200,3.53
2016-08-23,3.60,3.60,3.52,3.56,119300,3.56
2016-08-22,3.52,3.66,3.44,3.63,225900,3.63
2016-08-19,3.73,3.90,3.53,3.58,321500,3.58
2016-08-18,3.39,3.67,3.38,3.65,370500,3.65
2016-08-17,3.35,3.45,3.32,3.39,279200,3.39
2016-08-16,3.45,3.45,3.28,3.36,482800,3.36
2016-08-15,3.57,3.57,3.44,3.48,333800,3.48
2016-08-12,3.68,3.68,3.57,3.62,400800,3.62
2016-08-11,3.75,3.75,3.63,3.69,296100,3.69
2016-08-10,3.74,3.79,3.72,3.75,351900,3.75
2016-08-09,3.74,3.75,3.68,3.72,135500,3.72
2016-08-08,3.85,3.85,3.69,3.74,162100,3.74
2016-08-05,3.83,3.94,3.805,3.89,223100,3.89
2016-08-04,3.85,3.88,3.75,3.83,154000,3.83
2016-08-03,3.79,3.90,3.78,3.85,214900,3.85
2016-08-02,3.98,4.00,3.75,3.75,249100,3.75
2016-08-01,3.89,4.00,3.83,3.95,257100,3.95
2016-07-29,3.64,3.83,3.64,3.83,348400,3.83
2016-07-28,3.64,3.70,3.55,3.64,416300,3.64
2016-07-27,3.67,3.72,3.57,3.58,423100,3.58
2016-07-26,3.39,3.64,3.27,3.60,178200,3.60
2016-07-25,3.12,3.43,3.11,3.38,158200,3.38
2016-07-22,3.30,3.35,3.23,3.28,198900,3.28
2016-07-21,3.37,3.37,3.22,3.28,729400,3.28
2016-07-20,3.42,3.49,3.35,3.37,228000,3.37
2016-07-19,3.40,3.49,3.38,3.42,264000,3.42
2016-07-18,3.38,3.43,3.38,3.41,349200,3.41
2016-07-15,3.55,3.55,3.37,3.43,334100,3.43
2016-07-14,3.64,3.65,3.535,3.57,642700,3.57
2016-07-13,3.49,3.59,3.32,3.55,446800,3.55
2016-07-12,3.50,3.55,3.36,3.45,226900,3.45
2016-07-11,3.56,3.59,3.49,3.50,426700,3.50
2016-07-08,3.55,3.65,3.50,3.54,530700,3.54
2016-07-07,3.42,3.55,3.42,3.49,308700,3.49
2016-07-06,3.26,3.38,3.26,3.30,534200,3.30
2016-07-05,3.16,3.30,3.15,3.22,608600,3.22
2016-07-04,3.05,3.20,3.05,3.12,1369200,3.12
2016-07-01,2.93,3.05,2.92,3.04,367800,3.04
2016-06-30,2.95,2.95,2.85,2.90,281600,2.90
2016-06-29,2.93,3.00,2.90,2.96,232800,2.96
2016-06-28,2.75,3.05,2.75,2.83,746500,2.83
2016-06-27,2.63,2.78,2.60,2.69,554000,2.69
2016-06-24,2.32,2.69,2.32,2.56,233100,2.56
2016-06-23,2.25,2.40,2.25,2.35,83400,2.35
2016-06-22,2.37,2.40,2.25,2.35,197900,2.35
2016-06-21,2.40,2.475,2.36,2.45,311800,2.45
2016-06-20,2.57,2.57,2.37,2.45,194400,2.45
2016-06-17,2.51,2.62,2.46,2.57,346600,2.57
2016-06-16,2.57,2.63,2.49,2.52,727900,2.52
2016-06-15,2.52,2.57,2.45,2.50,123400,2.50
2016-06-14,2.45,2.56,2.45,2.55,119900,2.55
2016-06-13,2.42,2.42,2.42,2.42,000,2.42
2016-06-10,2.47,2.50,2.41,2.42,36700,2.42
2016-06-09,2.39,2.62,2.39,2.45,292000,2.45
2016-06-08,2.37,2.39,2.35,2.39,105500,2.39
2016-06-07,2.23,2.45,2.23,2.37,284300,2.37
2016-06-06,2.16,2.23,2.16,2.22,355400,2.22
2016-06-03,1.99,2.10,1.99,2.07,213600,2.07
2016-06-02,1.98,2.02,1.975,2.00,241200,2.00
2016-06-01,1.93,2.05,1.93,2.02,580500,2.02
2016-05-31,1.825,1.88,1.825,1.86,354500,1.86
2016-05-30,1.96,1.985,1.84,1.91,334600,1.91
2016-05-27,1.97,1.98,1.93,1.96,175500,1.96
2016-05-26,2.05,2.07,1.91,1.98,844600,1.98
2016-05-25,2.04,2.09,1.96,2.08,419300,2.08
2016-05-24,2.15,2.16,2.05,2.07,222800,2.07
2016-05-23,2.17,2.19,2.13,2.14,68500,2.14
2016-05-20,2.14,2.20,2.09,2.16,62900,2.16
2016-05-19,2.17,2.18,2.09,2.12,94800,2.12
2016-05-18,2.18,2.22,2.14,2.22,58200,2.22
2016-05-17,2.20,2.25,2.17,2.21,203500,2.21
2016-05-16,2.12,2.18,2.09,2.16,82000,2.16
2016-05-13,2.08,2.13,2.05,2.08,171200,2.08
2016-05-12,2.01,2.09,2.00,2.08,1537400,2.08
2016-05-11,2.03,2.04,2.00,2.00,82000,2.00
2016-05-10,2.06,2.10,1.99,2.03,96500,2.03
2016-05-09,2.10,2.10,2.05,2.08,397800,2.08
2016-05-06,2.08,2.15,2.04,2.10,608800,2.10
2016-05-05,2.00,2.04,1.96,2.01,93300,2.01
2016-05-04,2.06,2.06,2.01,2.01,199500,2.01
2016-05-03,2.06,2.10,2.02,2.06,338500,2.06
2016-05-02,2.00,2.08,2.00,2.05,428100,2.05
2016-04-29,1.97,1.975,1.945,1.95,299500,1.95
2016-04-28,1.91,1.96,1.91,1.945,606400,1.945
2016-04-27,1.92,1.925,1.88,1.88,31100,1.88
2016-04-26,1.96,1.97,1.79,1.91,138200,1.91
2016-04-25,1.94,1.94,1.94,1.94,000,1.94
2016-04-22,1.95,1.97,1.94,1.94,279500,1.94
2016-04-21,1.90,1.95,1.90,1.945,11600,1.945
2016-04-20,1.95,1.98,1.875,1.895,151500,1.895
2016-04-19,2.00,2.00,1.86,1.92,191300,1.92
2016-04-18,1.95,2.01,1.95,2.00,361100,2.00
2016-04-15,1.95,1.95,1.90,1.94,78900,1.94
2016-04-14,1.96,1.995,1.92,1.95,124300,1.95
2016-04-13,2.02,2.09,1.97,1.98,316700,1.98
2016-04-12,1.90,2.08,1.90,1.99,380600,1.99
2016-04-11,1.80,1.86,1.79,1.85,266500,1.85
2016-04-08,1.845,1.85,1.78,1.78,127700,1.78
2016-04-07,1.75,1.85,1.75,1.82,195300,1.82
2016-04-06,1.725,1.77,1.725,1.765,577000,1.765
2016-04-05,1.77,1.795,1.715,1.745,302700,1.745
2016-04-04,1.73,1.76,1.695,1.75,86600,1.75
2016-04-01,1.68,1.75,1.68,1.73,209500,1.73
2016-03-31,1.62,1.68,1.62,1.68,534800,1.68
2016-03-30,1.63,1.69,1.605,1.655,56900,1.655
2016-03-29,1.60,1.60,1.525,1.60,397100,1.60
2016-03-28,1.65,1.65,1.65,1.65,000,1.65
2016-03-25,1.65,1.65,1.65,1.65,000,1.65
2016-03-24,1.685,1.71,1.63,1.65,202500,1.65
2016-03-23,1.80,1.90,1.69,1.75,276400,1.75
2016-03-22,1.73,1.80,1.71,1.77,643200,1.77
2016-03-21,1.73,1.74,1.64,1.705,47600,1.705
2016-03-18,1.70,1.77,1.70,1.75,1168900,1.75
2016-03-17,1.65,1.71,1.65,1.71,638300,1.71
2016-03-16,1.60,1.65,1.60,1.61,40400,1.61
2016-03-15,1.60,1.625,1.59,1.59,78300,1.59
2016-03-14,1.655,1.69,1.60,1.69,298100,1.69
2016-03-11,1.65,1.70,1.65,1.655,668500,1.655
2016-03-10,1.59,1.60,1.555,1.60,233200,1.60
2016-03-09,1.68,1.68,1.61,1.61,156700,1.61
2016-03-08,1.72,1.73,1.65,1.65,116900,1.65
2016-03-07,1.74,1.74,1.68,1.71,249900,1.71
2016-03-04,1.62,1.74,1.62,1.74,651500,1.74
2016-03-03,1.56,1.60,1.55,1.59,285600,1.59
2016-03-02,1.60,1.60,1.55,1.555,149800,1.555
2016-03-01,1.58,1.60,1.55,1.60,144500,1.60
2016-02-29,1.58,1.59,1.535,1.58,194100,1.58
2016-02-26,1.62,1.64,1.57,1.58,205600,1.58
2016-02-25,1.67,1.67,1.55,1.60,338000,1.60
2016-02-24,1.50,1.62,1.48,1.605,1008000,1.605
2016-02-23,1.495,1.50,1.44,1.48,1071500,1.48
2016-02-22,1.43,1.495,1.43,1.485,443700,1.485
2016-02-19,1.36,1.50,1.36,1.43,938700,1.43
2016-02-18,1.25,1.33,1.25,1.31,335700,1.31
2016-02-17,1.18,1.25,1.17,1.20,147100,1.20
2016-02-16,1.14,1.19,1.08,1.16,394300,1.16
2016-02-15,1.27,1.28,1.18,1.18,287900,1.18
2016-02-12,1.25,1.27,1.22,1.26,1629900,1.26
2016-02-11,1.17,1.20,1.145,1.165,510400,1.165
2016-02-10,1.175,1.19,1.10,1.15,775500,1.15
2016-02-09,1.18,1.21,1.17,1.17,1696900,1.17
2016-02-08,1.00,1.145,1.00,1.11,2233900,1.11
2016-02-05,0.95,0.97,0.94,0.94,372100,0.94
2016-02-04,0.88,0.93,0.88,0.93,1826200,0.93
2016-02-03,0.87,0.88,0.87,0.88,99600,0.88
2016-02-02,0.89,0.89,0.87,0.87,147800,0.87
2016-02-01,0.85,0.88,0.85,0.88,26700,0.88
2016-01-29,0.87,0.88,0.85,0.85,35200,0.85
2016-01-28,0.85,0.88,0.85,0.88,90600,0.88
2016-01-27,0.82,0.88,0.82,0.85,425900,0.85
2016-01-26,0.81,0.81,0.81,0.81,000,0.81
2016-01-25,0.81,0.81,0.81,0.81,20500,0.81
2016-01-22,0.82,0.82,0.81,0.81,37500,0.81
2016-01-21,0.80,0.82,0.80,0.82,59400,0.82
2016-01-20,0.825,0.83,0.79,0.80,74100,0.80
2016-01-19,0.79,0.80,0.79,0.80,23700,0.80
2016-01-18,0.78,0.825,0.77,0.77,29800,0.77
2016-01-15,0.80,0.80,0.78,0.78,9300,0.78
2016-01-14,0.79,0.80,0.79,0.80,11400,0.80
2016-01-13,0.83,0.83,0.79,0.79,35200,0.79
2016-01-12,0.845,0.845,0.835,0.84,14100,0.84
2016-01-11,0.85,0.85,0.835,0.845,19600,0.845
2016-01-08,0.85,0.85,0.84,0.85,97000,0.85
2016-01-07,0.85,0.85,0.835,0.85,87300,0.85
2016-01-06,0.83,0.85,0.83,0.85,1573800,0.85
2016-01-05,0.78,0.82,0.78,0.81,182600,0.81
2016-01-04,0.80,0.80,0.78,0.78,29700,0.78
2016-01-01,0.79,0.79,0.79,0.79,000,0.79
2015-12-31,0.79,0.79,0.79,0.79,2600,0.79
2015-12-30,0.76,0.76,0.76,0.76,14200,0.76
2015-12-29,0.80,0.80,0.80,0.80,1000,0.80
2015-12-28,0.76,0.76,0.76,0.76,000,0.76
2015-12-25,0.76,0.76,0.76,0.76,000,0.76
2015-12-24,0.76,0.76,0.76,0.76,10000,0.76
2015-12-23,0.76,0.76,0.76,0.76,6000,0.76
2015-12-22,0.745,0.75,0.74,0.74,21600,0.74
2015-12-21,0.74,0.74,0.73,0.73,204600,0.73
2015-12-18,0.75,0.75,0.74,0.74,30200,0.74
2015-12-17,0.80,0.80,0.75,0.75,147900,0.75
2015-12-16,0.80,0.80,0.775,0.775,83400,0.775
2015-12-15,0.78,0.80,0.78,0.795,46300,0.795
2015-12-14,0.755,0.80,0.755,0.77,31100,0.77
2015-12-11,0.76,0.765,0.755,0.755,38900,0.755
2015-12-10,0.75,0.765,0.75,0.765,20000,0.765
2015-12-09,0.75,0.76,0.73,0.745,118900,0.745
2015-12-08,0.77,0.77,0.75,0.77,15600,0.77
2015-12-07,0.75,0.79,0.75,0.77,63300,0.77
2015-12-04,0.76,0.76,0.76,0.76,000,0.76
2015-12-03,0.75,0.76,0.75,0.76,158400,0.76
2015-12-02,0.77,0.77,0.75,0.75,106000,0.75
2015-12-01,0.80,0.80,0.77,0.79,1609600,0.79
2015-11-30,0.82,0.845,0.77,0.80,172600,0.80
2015-11-27,0.82,0.82,0.82,0.82,000,0.82
2015-11-26,0.82,0.82,0.815,0.82,97300,0.82
2015-11-25,0.80,0.845,0.80,0.82,103900,0.82
2015-11-24,0.78,0.835,0.78,0.80,71900,0.80
2015-11-23,0.79,0.80,0.77,0.77,1316400,0.77
2015-11-20,0.75,0.80,0.75,0.80,274700,0.80
2015-11-19,0.76,0.76,0.735,0.735,101200,0.735
2015-11-18,0.78,0.78,0.75,0.75,648900,0.75
2015-11-17,0.75,0.78,0.745,0.78,258000,0.78
2015-11-16,0.73,0.75,0.73,0.75,82600,0.75
2015-11-13,0.75,0.75,0.73,0.73,18600,0.73
2015-11-12,0.73,0.73,0.73,0.73,112900,0.73
2015-11-11,0.75,0.81,0.73,0.75,4135500,0.75
2015-11-10,0.71444,0.71444,0.71444,0.71444,000,0.71444
2015-11-09,0.71444,0.71444,0.71444,0.71444,000,0.71444
2015-11-06,0.71941,0.71941,0.71444,0.71444,32200,0.71444
2015-11-05,0.72437,0.72437,0.72437,0.72437,8900,0.72437
2015-11-04,0.71444,0.73429,0.71444,0.73429,57400,0.73429
2015-11-03,0.74421,0.74421,0.73429,0.73429,60400,0.73429
2015-11-02,0.71444,0.77398,0.71444,0.74421,33100,0.74421
2015-10-30,0.77398,0.77398,0.71444,0.71444,38200,0.71444
2015-10-29,0.79383,0.79383,0.77894,0.77894,105800,0.77894
2015-10-28,0.85336,0.85336,0.77398,0.84344,130300,0.84344
2015-10-27,0.85336,0.86825,0.85336,0.85336,128300,0.85336
2015-10-26,0.86825,0.86825,0.85336,0.85336,74200,0.85336
2015-10-23,0.88313,0.88313,0.86329,0.87321,75100,0.87321
2015-10-22,0.87321,0.88313,0.86329,0.87321,95400,0.87321
2015-10-21,0.86329,0.88313,0.84344,0.88313,257300,0.88313
2015-10-20,0.86329,0.89306,0.86329,0.86329,93800,0.86329
2015-10-19,0.92282,0.92282,0.86825,0.89306,170300,0.89306
2015-10-16,0.86825,0.93275,0.86825,0.90794,204800,0.90794
2015-10-15,0.8236,0.86329,0.81367,0.86329,158000,0.86329
2015-10-14,0.8236,0.83352,0.79383,0.8236,190700,0.8236
2015-10-13,0.83848,0.87321,0.79383,0.81367,384500,0.81367
2015-10-12,0.86329,0.86329,0.81367,0.81367,230700,0.81367
2015-10-09,0.84344,0.88313,0.83848,0.84344,156400,0.84344
2015-10-08,0.8236,0.84344,0.81367,0.83352,177900,0.83352
2015-10-07,0.83352,0.84344,0.79383,0.84344,276800,0.84344
2015-10-06,0.7839,0.83848,0.7839,0.83848,441700,0.83848
2015-10-05,0.76406,0.7839,0.74917,0.7839,112700,0.7839
2015-10-02,0.77894,0.77894,0.74421,0.74421,104000,0.74421
2015-10-01,0.73429,0.79383,0.73429,0.76902,501500,0.76902
2015-09-30,0.65491,0.6946,0.65491,0.6946,581800,0.6946
2015-09-29,0.67475,0.67475,0.63506,0.63506,180200,0.63506
2015-09-28,0.66483,0.67971,0.66483,0.67475,35500,0.67475
2015-09-25,0.6946,0.6946,0.65491,0.65491,213200,0.65491
2015-09-24,0.66483,0.68964,0.66483,0.68468,172500,0.68468
2015-09-23,0.65491,0.66483,0.64498,0.65491,252500,0.65491
2015-09-22,0.64498,0.66483,0.64498,0.65491,466600,0.65491
2015-09-21,0.63506,0.64498,0.62514,0.64498,248400,0.64498
2015-09-18,0.5656,0.63506,0.5656,0.60529,256200,0.60529
2015-09-17,0.55568,0.57552,0.55568,0.5656,221200,0.5656
2015-09-16,0.5656,0.58049,0.52591,0.54576,199500,0.54576
2015-09-15,0.49614,0.54576,0.49614,0.54576,216400,0.54576
2015-09-14,0.48622,0.49614,0.48622,0.49614,105800,0.49614
2015-09-11,0.4763,0.48622,0.46637,0.48622,317900,0.48622
2015-09-10,0.4763,0.4763,0.4763,0.4763,91700,0.4763
2015-09-09,0.48622,0.48622,0.46637,0.46637,78400,0.46637
2015-09-08,0.49118,0.49118,0.48622,0.48622,90600,0.48622
2015-09-07,0.49118,0.49118,0.49118,0.49118,9300,0.49118
2015-09-04,0.48622,0.49614,0.48622,0.49614,54400,0.49614
2015-09-03,0.4763,0.4763,0.4763,0.4763,000,0.4763
2015-09-02,0.4763,0.4763,0.4763,0.4763,000,0.4763
2015-09-01,0.4763,0.4763,0.4763,0.4763,000,0.4763
2015-08-31,0.4763,0.4763,0.4763,0.4763,14500,0.4763
2015-08-28,0.49614,0.49614,0.49614,0.49614,40300,0.49614
2015-08-27,0.44653,0.44653,0.44653,0.44653,16100,0.44653
2015-08-26,0.45149,0.45149,0.44653,0.44653,9000,0.44653
2015-08-25,0.4366,0.4366,0.39691,0.42172,336700,0.42172
2015-08-24,0.47133,0.47133,0.4366,0.4366,36200,0.4366
2015-08-21,0.45645,0.50606,0.45645,0.48126,41000,0.48126
2015-08-20,0.4763,0.4763,0.44653,0.45645,131000,0.45645
2015-08-19,0.49614,0.49614,0.49614,0.49614,000,0.49614
2015-08-18,0.49614,0.49614,0.49614,0.49614,5000,0.49614
2015-08-17,0.49614,0.49614,0.49614,0.49614,000,0.49614
2015-08-14,0.52095,0.52591,0.49614,0.49614,182700,0.49614
2015-08-13,0.52591,0.52591,0.52095,0.52095,24900,0.52095
2015-08-12,0.53583,0.55072,0.51599,0.52591,114600,0.52591
2015-08-11,0.52591,0.52591,0.52591,0.52591,10000,0.52591
2015-08-10,0.53087,0.53087,0.51599,0.51599,213100,0.51599
2015-08-07,0.4763,0.54576,0.4763,0.52095,1207600,0.52095
2015-08-06,0.46141,0.4763,0.46141,0.4763,250600,0.4763
2015-08-05,0.4366,0.44653,0.4366,0.44157,120500,0.44157
2015-08-04,0.4366,0.4366,0.4366,0.4366,150300,0.4366
2015-08-03,0.44653,0.44653,0.4366,0.4366,165700,0.4366
2015-07-31,0.4366,0.44653,0.4366,0.4366,1217600,0.4366
2015-07-30,0.42172,0.42668,0.41676,0.42668,210400,0.42668
2015-07-29,0.41676,0.41676,0.39691,0.40188,129100,0.40188
2015-07-28,0.41676,0.41676,0.41676,0.41676,30200,0.41676
2015-07-27,0.40188,0.40188,0.40188,0.40188,12500,0.40188
2015-07-24,0.39691,0.39691,0.39691,0.39691,000,0.39691
2015-07-23,0.39691,0.39691,0.39691,0.39691,000,0.39691
2015-07-22,0.40684,0.40684,0.38699,0.39691,31900,0.39691
2015-07-21,0.39691,0.39691,0.39691,0.39691,26700,0.39691
2015-07-20,0.44653,0.44653,0.39691,0.39691,96900,0.39691
2015-07-17,0.41676,0.41676,0.41676,0.41676,159500,0.41676
2015-07-16,0.39691,0.40684,0.39691,0.40684,27200,0.40684
2015-07-15,0.40188,0.40684,0.40188,0.40684,54000,0.40684
2015-07-14,0.39691,0.40188,0.39691,0.40188,99200,0.40188
2015-07-13,0.38699,0.39691,0.38699,0.39691,22100,0.39691
2015-07-10,0.37707,0.37707,0.37707,0.37707,20100,0.37707
2015-07-09,0.37707,0.37707,0.37707,0.37707,30200,0.37707
2015-07-08,0.37707,0.37707,0.37707,0.37707,000,0.37707
2015-07-07,0.41676,0.41676,0.37707,0.37707,25400,0.37707
2015-07-06,0.41676,0.41676,0.41676,0.41676,2800,0.41676
2015-07-03,0.41676,0.41676,0.41676,0.41676,10000,0.41676
2015-07-02,0.41676,0.41676,0.41676,0.41676,35200,0.41676
2015-07-01,0.42668,0.42668,0.41676,0.41676,59900,0.41676
2015-06-30,0.4366,0.4366,0.42172,0.42668,97100,0.42668
2015-06-29,0.44653,0.44653,0.44653,0.44653,000,0.44653
2015-06-26,0.44653,0.44653,0.44653,0.44653,000,0.44653
2015-06-25,0.44653,0.44653,0.44653,0.44653,105800,0.44653
2015-06-24,0.4366,0.4366,0.4366,0.4366,50300,0.4366
2015-06-23,0.43164,0.4366,0.40684,0.40684,256500,0.40684
2015-06-22,0.42668,0.42668,0.42668,0.42668,115800,0.42668
2015-06-19,0.38699,0.38699,0.38699,0.38699,000,0.38699
2015-06-18,0.38699,0.38699,0.38699,0.38699,30200,0.38699
2015-06-17,0.40684,0.40684,0.39691,0.39691,31600,0.39691
2015-06-16,0.40684,0.40684,0.40684,0.40684,000,0.40684
2015-06-15,0.40684,0.40684,0.40684,0.40684,000,0.40684
2015-06-12,0.41676,0.41676,0.40684,0.40684,128900,0.40684
2015-06-11,0.41676,0.41676,0.4118,0.4118,17100,0.4118
2015-06-10,0.40684,0.40684,0.40684,0.40684,10000,0.40684
2015-06-09,0.40684,0.40684,0.40684,0.40684,5000,0.40684
2015-06-08,0.4366,0.4366,0.4366,0.4366,000,0.4366
2015-06-05,0.4366,0.4366,0.4366,0.4366,000,0.4366
2015-06-04,0.41676,0.4366,0.41676,0.4366,15100,0.4366
2015-06-03,0.41676,0.41676,0.41676,0.41676,37100,0.41676
2015-06-02,0.41676,0.41676,0.41676,0.41676,10000,0.41676
2015-06-01,0.42172,0.42172,0.42172,0.42172,20100,0.42172
2015-05-29,0.43164,0.43164,0.41676,0.41676,23300,0.41676
2015-05-28,0.42668,0.42668,0.42668,0.42668,10000,0.42668
2015-05-27,0.4366,0.4366,0.42668,0.42668,578400,0.42668
2015-05-26,0.41676,0.42668,0.41676,0.42668,362700,0.42668
2015-05-25,0.42172,0.42172,0.42172,0.42172,103700,0.42172
2015-05-22,0.42172,0.42172,0.42172,0.42172,000,0.42172
2015-05-21,0.42172,0.42172,0.42172,0.42172,000,0.42172
2015-05-20,0.42668,0.42668,0.42172,0.42172,4800,0.42172
2015-05-19,0.42668,0.42668,0.42668,0.42668,000,0.42668
2015-05-18,0.44653,0.44653,0.42668,0.42668,25100,0.42668
2015-05-15,0.46637,0.46637,0.44653,0.44653,94900,0.44653
2015-05-14,0.43164,0.46637,0.43164,0.46637,45900,0.46637
2015-05-13,0.42668,0.42668,0.41676,0.41676,22100,0.41676
2015-05-12,0.40684,0.42668,0.39691,0.42668,26500,0.42668
2015-05-11,0.4366,0.44653,0.4366,0.4366,57300,0.4366
2015-05-08,0.41676,0.41676,0.41676,0.41676,000,0.41676
2015-05-07,0.41676,0.41676,0.41676,0.41676,000,0.41676
2015-05-06,0.41676,0.41676,0.41676,0.41676,4700,0.41676
2015-05-05,0.40188,0.40188,0.40188,0.40188,000,0.40188
2015-05-04,0.40188,0.40188,0.40188,0.40188,11000,0.40188
2015-05-01,0.41676,0.41676,0.41676,0.41676,3000,0.41676
2015-04-30,0.41676,0.41676,0.41676,0.41676,25700,0.41676
2015-04-29,0.44653,0.44653,0.42668,0.42668,209600,0.42668
2015-04-28,0.44157,0.45149,0.44157,0.45149,12500,0.45149
2015-04-27,0.43164,0.43164,0.43164,0.43164,000,0.43164
2015-04-24,0.43164,0.43164,0.43164,0.43164,57000,0.43164
2015-04-23,0.46637,0.46637,0.46637,0.46637,000,0.46637
2015-04-22,0.46637,0.46637,0.46637,0.46637,000,0.46637
2015-04-21,0.4366,0.4366,0.4366,0.4366,4000,0.4366
2015-04-20,0.49614,0.49614,0.49614,0.49614,10000,0.49614
2015-04-17,0.49614,0.49614,0.49614,0.49614,000,0.49614
2015-04-16,0.49614,0.49614,0.49614,0.49614,000,0.49614
2015-04-15,0.49614,0.49614,0.49614,0.49614,64500,0.49614
2015-04-14,0.49614,0.49614,0.49614,0.49614,2400,0.49614
2015-04-13,0.45645,0.48622,0.45645,0.48622,91000,0.48622
2015-04-10,0.46637,0.46637,0.46637,0.46637,000,0.46637
2015-04-09,0.46637,0.46637,0.46637,0.46637,2000,0.46637
2015-04-08,0.46637,0.46637,0.46637,0.46637,000,0.46637
2015-04-07,0.46637,0.46637,0.45645,0.46637,30200,0.46637
2015-04-06,0.46637,0.46637,0.46637,0.46637,000,0.46637
2015-04-03,0.46637,0.46637,0.46637,0.46637,000,0.46637
2015-04-02,0.45645,0.46637,0.45645,0.46637,23600,0.46637
2015-04-01,0.46637,0.46637,0.46637,0.46637,4200,0.46637
2015-03-31,0.46637,0.46637,0.45645,0.45645,20100,0.45645
2015-03-30,0.48622,0.48622,0.48622,0.48622,27900,0.48622
2015-03-27,0.48622,0.48622,0.48622,0.48622,73300,0.48622
2015-03-26,0.48622,0.48622,0.48622,0.48622,2000,0.48622
2015-03-25,0.4763,0.4763,0.4763,0.4763,27400,0.4763
2015-03-24,0.46637,0.46637,0.45645,0.45645,12900,0.45645
2015-03-23,0.45645,0.45645,0.45645,0.45645,000,0.45645
2015-03-20,0.46637,0.46637,0.45645,0.45645,6500,0.45645
2015-03-19,0.44653,0.46637,0.44653,0.46637,98200,0.46637
2015-03-18,0.44653,0.44653,0.44653,0.44653,000,0.44653
2015-03-17,0.44653,0.44653,0.44653,0.44653,000,0.44653
2015-03-16,0.44653,0.44653,0.44653,0.44653,30200,0.44653
2015-03-13,0.44653,0.44653,0.4366,0.4366,34200,0.4366
2015-03-12,0.44653,0.44653,0.4366,0.4366,6500,0.4366
2015-03-11,0.48126,0.48126,0.47133,0.47133,21800,0.47133
2015-03-10,0.48622,0.48622,0.48622,0.48622,000,0.48622
2015-03-09,0.48622,0.48622,0.48622,0.48622,000,0.48622
2015-03-06,0.49614,0.49614,0.48622,0.48622,44100,0.48622
2015-03-05,0.45645,0.5011,0.45645,0.49614,155700,0.49614
2015-03-04,0.41676,0.41676,0.41676,0.41676,1200,0.41676
2015-03-03,0.40684,0.40684,0.39691,0.39691,45600,0.39691
2015-03-02,0.40188,0.40684,0.40188,0.40684,82200,0.40684
2015-02-27,0.40188,0.40188,0.40188,0.40188,000,0.40188
2015-02-26,0.40188,0.40188,0.40188,0.40188,000,0.40188
2015-02-25,0.38699,0.40188,0.37707,0.40188,10000,0.40188
2015-02-24,0.39691,0.39691,0.39691,0.39691,44300,0.39691
2015-02-23,0.39691,0.39691,0.39691,0.39691,13300,0.39691
2015-02-20,0.39691,0.39691,0.39691,0.39691,11600,0.39691
2015-02-19,0.39195,0.39691,0.39195,0.39691,136200,0.39691
2015-02-18,0.38699,0.38699,0.38699,0.38699,58400,0.38699
2015-02-17,0.36715,0.36715,0.36715,0.36715,000,0.36715
2015-02-16,0.36715,0.36715,0.36715,0.36715,000,0.36715
2015-02-13,0.36715,0.36715,0.36715,0.36715,000,0.36715
2015-02-12,0.36715,0.36715,0.36715,0.36715,000,0.36715
2015-02-11,0.36715,0.36715,0.36715,0.36715,000,0.36715
2015-02-10,0.36715,0.36715,0.36715,0.36715,000,0.36715
2015-02-09,0.36715,0.36715,0.36715,0.36715,000,0.36715
2015-02-06,0.36715,0.36715,0.36715,0.36715,16100,0.36715
2015-02-05,0.38699,0.38699,0.38699,0.38699,2000,0.38699
2015-02-04,0.39691,0.39691,0.39691,0.39691,000,0.39691
2015-02-03,0.39691,0.39691,0.39691,0.39691,000,0.39691
2015-02-02,0.39691,0.39691,0.39691,0.39691,000,0.39691
2015-01-30,0.39691,0.39691,0.39691,0.39691,000,0.39691
2015-01-29,0.39691,0.39691,0.39691,0.39691,36900,0.39691
2015-01-28,0.39691,0.39691,0.39691,0.39691,65200,0.39691
2015-01-27,0.39691,0.39691,0.39691,0.39691,90700,0.39691
2015-01-26,0.39691,0.39691,0.39691,0.39691,000,0.39691
2015-01-23,0.36715,0.39691,0.36715,0.39691,80600,0.39691
2015-01-22,0.39691,0.39691,0.39691,0.39691,000,0.39691
2015-01-21,0.37707,0.39691,0.37707,0.39691,32700,0.39691
2015-01-20,0.3473,0.35722,0.3473,0.35722,13100,0.35722
2015-01-19,0.34234,0.3473,0.32745,0.32745,47500,0.32745
2015-01-16,0.30761,0.30761,0.30761,0.30761,000,0.30761
2015-01-15,0.30761,0.30761,0.30761,0.30761,000,0.30761
2015-01-14,0.30761,0.30761,0.30761,0.30761,000,0.30761
2015-01-13,0.30761,0.30761,0.30761,0.30761,000,0.30761
2015-01-12,0.30761,0.30761,0.30761,0.30761,12500,0.30761
2015-01-09,0.28776,0.30761,0.28776,0.30761,74200,0.30761
2015-01-08,0.27784,0.28776,0.27784,0.28776,35200,0.28776
2015-01-07,0.26792,0.26792,0.25799,0.25799,32100,0.25799
2015-01-06,0.27784,0.27784,0.27784,0.27784,4600,0.27784
2015-01-05,0.27784,0.27784,0.27784,0.27784,000,0.27784
2015-01-02,0.27784,0.27784,0.27784,0.27784,000,0.27784
2015-01-01,0.27784,0.27784,0.27784,0.27784,000,0.27784
2014-12-31,0.27784,0.27784,0.27784,0.27784,21600,0.27784
2014-12-30,0.24807,0.24807,0.24807,0.24807,000,0.24807
2014-12-29,0.24807,0.24807,0.24807,0.24807,000,0.24807
2014-12-26,0.24807,0.24807,0.24807,0.24807,000,0.24807
2014-12-25,0.24807,0.24807,0.24807,0.24807,000,0.24807
2014-12-24,0.24807,0.24807,0.24807,0.24807,000,0.24807
2014-12-23,0.24807,0.24807,0.24807,0.24807,000,0.24807
2014-12-22,0.24807,0.24807,0.24807,0.24807,000,0.24807
2014-12-19,0.24807,0.24807,0.24807,0.24807,000,0.24807
2014-12-18,0.24807,0.24807,0.24807,0.24807,60400,0.24807
2014-12-17,0.24807,0.24807,0.24807,0.24807,2100,0.24807
2014-12-16,0.24807,0.24807,0.24807,0.24807,000,0.24807
2014-12-15,0.24807,0.24807,0.24807,0.24807,73500,0.24807
2014-12-12,0.26792,0.26792,0.24807,0.24807,11600,0.24807
2014-12-11,0.24807,0.24807,0.24807,0.24807,000,0.24807
2014-12-10,0.24807,0.24807,0.24807,0.24807,000,0.24807
2014-12-09,0.27784,0.27784,0.24807,0.24807,36700,0.24807
2014-12-08,0.27784,0.27784,0.27784,0.27784,2000,0.27784
2014-12-05,0.29769,0.29769,0.29769,0.29769,000,0.29769
2014-12-04,0.29769,0.29769,0.29769,0.29769,000,0.29769
2014-12-03,0.29769,0.29769,0.29769,0.29769,000,0.29769
2014-12-02,0.29769,0.29769,0.29769,0.29769,10000,0.29769
2014-12-01,0.27288,0.27288,0.27288,0.27288,8900,0.27288
2014-11-28,0.29769,0.29769,0.29769,0.29769,000,0.29769
2014-11-27,0.29769,0.29769,0.29769,0.29769,000,0.29769
2014-11-26,0.29769,0.29769,0.29769,0.29769,000,0.29769
2014-11-25,0.29769,0.29769,0.29769,0.29769,000,0.29769
2014-11-24,0.29769,0.29769,0.29769,0.29769,000,0.29769
2014-11-21,0.29769,0.29769,0.29769,0.29769,000,0.29769
2014-11-20,0.29769,0.29769,0.29769,0.29769,1600,0.29769
2014-11-19,0.29769,0.29769,0.28776,0.29769,35200,0.29769
2014-11-18,0.27288,0.27288,0.27288,0.27288,000,0.27288
2014-11-17,0.27288,0.27288,0.27288,0.27288,5100,0.27288
2014-11-14,0.27288,0.27288,0.27288,0.27288,4800,0.27288
2014-11-13,0.27288,0.27288,0.27288,0.27288,000,0.27288
2014-11-12,0.27784,0.27784,0.27288,0.27288,30300,0.27288
2014-11-11,0.27784,0.27784,0.27784,0.27784,000,0.27784
2014-11-10,0.28776,0.28776,0.27784,0.27784,20100,0.27784
2014-11-07,0.28776,0.28776,0.28776,0.28776,000,0.28776
2014-11-06,0.28776,0.28776,0.28776,0.28776,76500,0.28776
2014-11-05,0.29769,0.29769,0.29769,0.29769,000,0.29769
2014-11-04,0.29769,0.29769,0.29769,0.29769,000,0.29769
2014-11-03,0.32745,0.32745,0.29769,0.29769,93600,0.29769
2014-10-31,0.3473,0.3473,0.3473,0.3473,000,0.3473
2014-10-30,0.3473,0.3473,0.3473,0.3473,000,0.3473
2014-10-29,0.37211,0.37211,0.3473,0.3473,282300,0.3473
2014-10-28,0.3473,0.37707,0.3473,0.37707,127100,0.37707
2014-10-27,0.32745,0.32745,0.32745,0.32745,23200,0.32745
2014-10-24,0.32745,0.32745,0.32745,0.32745,90200,0.32745
2014-10-23,0.32745,0.32745,0.32745,0.32745,5500,0.32745
2014-10-22,0.31753,0.31753,0.31753,0.31753,000,0.31753
2014-10-21,0.31753,0.31753,0.31753,0.31753,13400,0.31753
2014-10-20,0.33738,0.3473,0.33738,0.33738,27200,0.33738
2014-10-17,0.32745,0.32745,0.32745,0.32745,000,0.32745
2014-10-16,0.32745,0.32745,0.32745,0.32745,1700,0.32745
2014-10-15,0.31753,0.32745,0.31753,0.31753,60400,0.31753
2014-10-14,0.31753,0.31753,0.31753,0.31753,30200,0.31753
2014-10-13,0.31753,0.31753,0.31753,0.31753,000,0.31753
2014-10-10,0.31753,0.31753,0.31753,0.31753,000,0.31753
2014-10-09,0.31753,0.31753,0.31753,0.31753,000,0.31753
2014-10-08,0.31753,0.31753,0.31753,0.31753,000,0.31753
2014-10-07,0.31753,0.31753,0.31753,0.31753,000,0.31753
2014-10-06,0.31753,0.31753,0.31753,0.31753,15100,0.31753
2014-10-03,0.29769,0.32745,0.29769,0.32745,131000,0.32745
2014-10-02,0.32249,0.32249,0.32249,0.32249,000,0.32249
2014-10-01,0.32249,0.32249,0.32249,0.32249,20100,0.32249
2014-09-30,0.31753,0.32745,0.31753,0.32745,38200,0.32745
2014-09-29,0.3473,0.3473,0.3473,0.3473,000,0.3473
2014-09-26,0.3473,0.3473,0.3473,0.3473,000,0.3473
2014-09-25,0.3473,0.3473,0.3473,0.3473,25100,0.3473
2014-09-24,0.35722,0.35722,0.35722,0.35722,000,0.35722
2014-09-23,0.35722,0.35722,0.35722,0.35722,000,0.35722
2014-09-22,0.35722,0.35722,0.35722,0.35722,000,0.35722
2014-09-19,0.35722,0.35722,0.35722,0.35722,000,0.35722
2014-09-18,0.35722,0.35722,0.35722,0.35722,15100,0.35722
2014-09-17,0.36715,0.36715,0.36218,0.36218,24100,0.36218
2014-09-16,0.37707,0.37707,0.37707,0.37707,23900,0.37707
2014-09-15,0.38699,0.38699,0.37707,0.37707,5800,0.37707
2014-09-12,0.38699,0.38699,0.38699,0.38699,000,0.38699
2014-09-11,0.38699,0.38699,0.38699,0.38699,000,0.38699
2014-09-10,0.38699,0.38699,0.38699,0.38699,000,0.38699
2014-09-09,0.38699,0.38699,0.38699,0.38699,000,0.38699
2014-09-08,0.36715,0.38699,0.36715,0.38699,11700,0.38699
2014-09-05,0.39691,0.39691,0.39691,0.39691,000,0.39691
2014-09-04,0.39691,0.39691,0.39691,0.39691,000,0.39691
2014-09-03,0.37707,0.39691,0.37707,0.39691,27700,0.39691
2014-09-02,0.37707,0.39691,0.36218,0.36715,71200,0.36715
2014-09-01,0.36715,0.36715,0.36715,0.36715,4600,0.36715
2014-08-29,0.37707,0.37707,0.37707,0.37707,100,0.37707
2014-08-28,0.37707,0.37707,0.37707,0.37707,19900,0.37707
2014-08-27,0.37707,0.37707,0.35722,0.35722,146100,0.35722
2014-08-26,0.37211,0.37211,0.37211,0.37211,000,0.37211
2014-08-25,0.37707,0.37707,0.37211,0.37211,75700,0.37211
2014-08-22,0.36715,0.37707,0.36715,0.37707,30200,0.37707
2014-08-21,0.38699,0.38699,0.37707,0.37707,70500,0.37707
2014-08-20,0.36715,0.36715,0.36715,0.36715,000,0.36715
2014-08-19,0.36715,0.36715,0.36715,0.36715,000,0.36715
2014-08-18,0.36715,0.36715,0.36715,0.36715,000,0.36715
2014-08-15,0.39691,0.39691,0.36715,0.36715,10000,0.36715
2014-08-14,0.40188,0.40188,0.39691,0.39691,27000,0.39691
2014-08-13,0.42668,0.42668,0.42668,0.42668,2300,0.42668
2014-08-12,0.4366,0.4366,0.4366,0.4366,2000,0.4366
2014-08-11,0.45149,0.45149,0.44653,0.44653,34800,0.44653
2014-08-08,0.44653,0.45645,0.44653,0.45645,32100,0.45645
2014-08-07,0.44653,0.44653,0.44653,0.44653,14200,0.44653
2014-08-06,0.44157,0.44653,0.44157,0.44653,10000,0.44653
2014-08-05,0.46141,0.46141,0.46141,0.46141,21300,0.46141
2014-08-04,0.46141,0.4763,0.46141,0.4763,48300,0.4763
2014-08-01,0.46141,0.46141,0.46141,0.46141,20100,0.46141
2014-07-31,0.44653,0.44653,0.44653,0.44653,8300,0.44653
2014-07-30,0.44653,0.44653,0.44653,0.44653,11400,0.44653
2014-07-29,0.44653,0.44653,0.44653,0.44653,52500,0.44653
2014-07-28,0.44653,0.44653,0.44653,0.44653,51400,0.44653
2014-07-25,0.44653,0.44653,0.44157,0.44157,62500,0.44157
2014-07-24,0.41676,0.44653,0.41676,0.44653,24900,0.44653
2014-07-23,0.42668,0.42668,0.41676,0.41676,135800,0.41676
2014-07-22,0.40684,0.40684,0.40684,0.40684,22900,0.40684
2014-07-21,0.39691,0.39691,0.39691,0.39691,26300,0.39691
2014-07-18,0.40684,0.40684,0.40684,0.40684,2000,0.40684
2014-07-17,0.39691,0.39691,0.39691,0.39691,000,0.39691
2014-07-16,0.39691,0.39691,0.39691,0.39691,20100,0.39691
2014-07-15,0.40684,0.40684,0.40188,0.40188,15100,0.40188
2014-07-14,0.40684,0.40684,0.40684,0.40684,12000,0.40684
2014-07-11,0.39691,0.39691,0.39691,0.39691,000,0.39691
2014-07-10,0.38699,0.39691,0.38203,0.39691,328400,0.39691
2014-07-09,0.36715,0.39195,0.36715,0.39195,68600,0.39195
2014-07-08,0.35722,0.36218,0.35722,0.36218,6600,0.36218
2014-07-07,0.35722,0.35722,0.35722,0.35722,20100,0.35722
2014-07-04,0.35722,0.35722,0.35722,0.35722,10000,0.35722
2014-07-03,0.35722,0.35722,0.35722,0.35722,46300,0.35722
2014-07-02,0.35722,0.35722,0.35722,0.35722,50300,0.35722
2014-07-01,0.3473,0.36715,0.3473,0.3473,182100,0.3473
2014-06-30,0.3473,0.3473,0.3473,0.3473,000,0.3473
2014-06-27,0.3473,0.3473,0.3473,0.3473,47300,0.3473
2014-06-26,0.3473,0.3473,0.3473,0.3473,14100,0.3473
2014-06-25,0.34234,0.36715,0.34234,0.34234,249500,0.34234
2014-06-24,0.29272,0.34234,0.29272,0.34234,20500,0.34234
2014-06-23,0.29769,0.29769,0.29769,0.29769,22100,0.29769
2014-06-20,0.30761,0.30761,0.30761,0.30761,3000,0.30761
2014-06-19,0.2828,0.2828,0.2828,0.2828,000,0.2828
2014-06-18,0.30761,0.30761,0.2828,0.2828,26100,0.2828
2014-06-17,0.2828,0.2828,0.2828,0.2828,2800,0.2828
2014-06-16,0.27784,0.27784,0.27784,0.27784,40300,0.27784
2014-06-13,0.26792,0.27784,0.26792,0.27784,31200,0.27784
2014-06-12,0.26296,0.26296,0.26296,0.26296,000,0.26296
2014-06-11,0.26296,0.26296,0.26296,0.26296,10000,0.26296
2014-06-09,0.25799,0.25799,0.25799,0.25799,000,0.25799
2014-06-06,0.25799,0.25799,0.25799,0.25799,000,0.25799
2014-06-05,0.25799,0.25799,0.25799,0.25799,7500,0.25799
2014-06-04,0.25799,0.25799,0.25799,0.25799,000,0.25799
2014-06-03,0.25799,0.25799,0.25799,0.25799,000,0.25799
2014-06-02,0.25799,0.25799,0.25799,0.25799,1300,0.25799
2014-05-30,0.25799,0.25799,0.25799,0.25799,8400,0.25799
2014-05-29,0.23815,0.23815,0.23815,0.23815,000,0.23815
2014-05-28,0.23815,0.23815,0.23815,0.23815,000,0.23815
2014-05-27,0.23815,0.23815,0.23815,0.23815,000,0.23815
2014-05-26,0.23815,0.23815,0.23815,0.23815,10000,0.23815
2014-05-23,0.30265,0.30265,0.29272,0.29769,88600,0.29769
2014-05-22,0.30761,0.30761,0.30265,0.30265,58400,0.30265
2014-05-21,0.30761,0.30761,0.30761,0.30761,15100,0.30761
2014-05-20,0.30761,0.30761,0.30761,0.30761,000,0.30761
2014-05-19,0.30761,0.30761,0.30761,0.30761,000,0.30761
2014-05-16,0.30761,0.30761,0.30761,0.30761,000,0.30761
2014-05-15,0.30761,0.30761,0.30761,0.30761,3000,0.30761
2014-05-14,0.32249,0.32249,0.32249,0.32249,6500,0.32249
2014-05-13,0.30761,0.30761,0.30761,0.30761,3000,0.30761
2014-05-12,0.32249,0.32249,0.32249,0.32249,1800,0.32249
2014-05-09,0.34234,0.34234,0.34234,0.34234,000,0.34234
2014-05-08,0.34234,0.34234,0.34234,0.34234,000,0.34234
2014-05-07,0.34234,0.34234,0.34234,0.34234,000,0.34234
2014-05-06,0.3473,0.3473,0.34234,0.34234,50300,0.34234
2014-05-05,0.3473,0.3473,0.3473,0.3473,4300,0.3473
2014-05-02,0.3473,0.3473,0.3473,0.3473,10000,0.3473
2014-05-01,0.35722,0.35722,0.3473,0.3473,50300,0.3473
2014-04-30,0.3473,0.3473,0.3473,0.3473,41300,0.3473
2014-04-29,0.3473,0.3473,0.3473,0.3473,000,0.3473
2014-04-28,0.3473,0.3473,0.3473,0.3473,000,0.3473
2014-04-25,0.3473,0.3473,0.3473,0.3473,000,0.3473
2014-04-24,0.3473,0.3473,0.3473,0.3473,3500,0.3473
2014-04-23,0.3473,0.3473,0.3473,0.3473,000,0.3473
2014-04-22,0.3473,0.3473,0.3473,0.3473,13600,0.3473
2014-04-21,0.35722,0.35722,0.35722,0.35722,000,0.35722
2014-04-18,0.35722,0.35722,0.35722,0.35722,000,0.35722
2014-04-17,0.35722,0.35722,0.35722,0.35722,000,0.35722
2014-04-16,0.35722,0.35722,0.35722,0.35722,5500,0.35722
2014-04-15,0.3473,0.3473,0.3473,0.3473,21100,0.3473
2014-04-14,0.3473,0.3473,0.3473,0.3473,6900,0.3473
2014-04-11,0.3473,0.3473,0.3473,0.3473,000,0.3473
2014-04-10,0.35722,0.35722,0.3473,0.3473,63600,0.3473
2014-04-09,0.36715,0.36715,0.35226,0.35226,28400,0.35226
2014-04-08,0.38699,0.38699,0.38699,0.38699,15100,0.38699
2014-04-07,0.37707,0.38699,0.37707,0.38699,57300,0.38699
2014-04-04,0.36715,0.36715,0.36715,0.36715,7400,0.36715
2014-04-03,0.35722,0.35722,0.35722,0.35722,17700,0.35722
2014-04-02,0.36715,0.36715,0.36715,0.36715,12500,0.36715
2014-04-01,0.36715,0.36715,0.36715,0.36715,2800,0.36715
2014-03-31,0.35226,0.35226,0.35226,0.35226,000,0.35226
2014-03-28,0.35226,0.35226,0.35226,0.35226,000,0.35226
2014-03-27,0.35226,0.35226,0.35226,0.35226,000,0.35226
2014-03-26,0.36218,0.36715,0.35226,0.35226,30200,0.35226
2014-03-25,0.35722,0.36715,0.35722,0.36715,28700,0.36715
2014-03-24,0.36715,0.36715,0.36218,0.36218,58300,0.36218
2014-03-21,0.38699,0.38699,0.36715,0.36715,68100,0.36715
2014-03-20,0.38699,0.38699,0.38699,0.38699,20100,0.38699
2014-03-19,0.37707,0.37707,0.37707,0.37707,10000,0.37707
2014-03-18,0.36715,0.36715,0.36715,0.36715,000,0.36715
2014-03-17,0.36715,0.36715,0.36715,0.36715,000,0.36715
2014-03-14,0.36715,0.36715,0.36715,0.36715,1700,0.36715
2014-03-13,0.38699,0.40684,0.38699,0.40684,40300,0.40684
2014-03-12,0.35722,0.35722,0.35722,0.35722,000,0.35722
2014-03-11,0.35722,0.35722,0.35722,0.35722,4500,0.35722
2014-03-10,0.39691,0.39691,0.38699,0.38699,4000,0.38699
2014-03-07,0.36715,0.42668,0.36715,0.42668,131700,0.42668
2014-03-06,0.35722,0.35722,0.35722,0.35722,000,0.35722
2014-03-05,0.35722,0.35722,0.35722,0.35722,20100,0.35722
2014-03-04,0.35722,0.35722,0.35722,0.35722,10000,0.35722
2014-03-03,0.35722,0.35722,0.35722,0.35722,10000,0.35722
2014-02-28,0.3473,0.35722,0.3473,0.3473,94400,0.3473
2014-02-27,0.32745,0.32745,0.32745,0.32745,11400,0.32745
2014-02-26,0.31257,0.31257,0.31257,0.31257,000,0.31257
2014-02-25,0.32745,0.3473,0.31257,0.31257,42300,0.31257
2014-02-24,0.3473,0.3473,0.3473,0.3473,000,0.3473
2014-02-21,0.30265,0.3473,0.30265,0.3473,40300,0.3473
2014-02-20,0.31753,0.3473,0.31753,0.3473,229700,0.3473
2014-02-19,0.30265,0.30265,0.30265,0.30265,50300,0.30265
2014-02-18,0.30265,0.30265,0.30265,0.30265,000,0.30265
2014-02-17,0.30265,0.30761,0.30265,0.30265,17800,0.30265
2014-02-14,0.29769,0.30761,0.29769,0.30761,29700,0.30761
2014-02-13,0.31753,0.31753,0.29769,0.29769,8000,0.29769
2014-02-12,0.29769,0.29769,0.29769,0.29769,000,0.29769
2014-02-11,0.29272,0.29769,0.29272,0.29769,133400,0.29769
2014-02-10,0.28776,0.29272,0.28776,0.28776,9300,0.28776
2014-02-07,0.2828,0.2828,0.2828,0.2828,000,0.2828
2014-02-06,0.2828,0.2828,0.2828,0.2828,000,0.2828
2014-02-05,0.2828,0.2828,0.2828,0.2828,000,0.2828
2014-02-04,0.2828,0.2828,0.2828,0.2828,2700,0.2828
2014-02-03,0.2828,0.2828,0.2828,0.2828,7500,0.2828
2014-01-31,0.2828,0.2828,0.2828,0.2828,21300,0.2828
2014-01-30,0.29272,0.29272,0.2828,0.2828,57900,0.2828
2014-01-29,0.28776,0.28776,0.2828,0.2828,32200,0.2828
2014-01-28,0.2828,0.2828,0.2828,0.2828,4700,0.2828
2014-01-27,0.29769,0.29769,0.29769,0.29769,000,0.29769
2014-01-24,0.31257,0.31257,0.29769,0.29769,14400,0.29769
2014-01-23,0.31257,0.31257,0.31257,0.31257,15600,0.31257
2014-01-22,0.30761,0.31753,0.29769,0.31753,18100,0.31753
2014-01-21,0.28776,0.29769,0.28776,0.29769,62500,0.29769
2014-01-20,0.26792,0.26792,0.26792,0.26792,11000,0.26792
2014-01-17,0.25303,0.25303,0.24807,0.25303,52000,0.25303
2014-01-16,0.23815,0.23815,0.23815,0.23815,22900,0.23815
2014-01-15,0.23815,0.23815,0.23815,0.23815,45600,0.23815
2014-01-14,0.22823,0.23815,0.22823,0.23815,13100,0.23815
2014-01-13,0.23815,0.23815,0.23815,0.23815,000,0.23815
2014-01-10,0.23815,0.23815,0.23815,0.23815,7000,0.23815
2014-01-09,0.23815,0.23815,0.23815,0.23815,900,0.23815
2014-01-08,0.22823,0.22823,0.22326,0.22326,75200,0.22326
2014-01-07,0.24807,0.24807,0.22823,0.22823,13300,0.22823
2014-01-06,0.24807,0.24807,0.24807,0.24807,4000,0.24807
2014-01-03,0.24807,0.24807,0.24807,0.24807,18400,0.24807
2014-01-02,0.23815,0.24807,0.23815,0.24807,17300,0.24807
2014-01-01,0.23815,0.23815,0.23815,0.23815,000,0.23815
2013-12-31,0.24807,0.24807,0.23815,0.23815,26700,0.23815
2013-12-30,0.29769,0.29769,0.28776,0.28776,126600,0.28776
2013-12-27,0.28776,0.28776,0.28776,0.28776,1700,0.28776
2013-12-26,0.25303,0.25303,0.25303,0.25303,000,0.25303
2013-12-25,0.25303,0.25303,0.25303,0.25303,000,0.25303
2013-12-24,0.25799,0.25799,0.25303,0.25303,24200,0.25303
2013-12-23,0.25799,0.25799,0.25799,0.25799,2000,0.25799
2013-12-20,0.25799,0.25799,0.25303,0.25303,60900,0.25303
2013-12-19,0.25303,0.25303,0.25303,0.25303,32500,0.25303
2013-12-18,0.24807,0.24807,0.24807,0.24807,000,0.24807
2013-12-17,0.24807,0.24807,0.24807,0.24807,11900,0.24807
2013-12-16,0.22326,0.22326,0.2183,0.2183,10000,0.2183
2013-12-13,0.24807,0.24807,0.24807,0.24807,000,0.24807
2013-12-12,0.28776,0.28776,0.24807,0.24807,26600,0.24807
2013-12-11,0.29769,0.29769,0.29769,0.29769,000,0.29769
2013-12-10,0.29769,0.29769,0.29769,0.29769,000,0.29769
2013-12-09,0.29769,0.29769,0.29769,0.29769,000,0.29769
2013-12-06,0.29769,0.29769,0.29769,0.29769,000,0.29769
2013-12-05,0.29769,0.29769,0.29769,0.29769,000,0.29769
2013-12-04,0.29769,0.29769,0.29769,0.29769,000,0.29769
2013-12-03,0.29769,0.29769,0.29769,0.29769,000,0.29769
2013-12-02,0.29769,0.29769,0.29769,0.29769,3300,0.29769
2013-11-29,0.28776,0.29769,0.28776,0.29769,45300,0.29769
2013-11-28,0.29769,0.29769,0.29769,0.29769,65900,0.29769
2013-11-27,0.27784,0.27784,0.27784,0.27784,151100,0.27784
2013-11-26,0.32745,0.32745,0.32745,0.32745,000,0.32745
2013-11-25,0.32745,0.32745,0.32745,0.32745,000,0.32745
2013-11-22,0.32745,0.32745,0.32745,0.32745,000,0.32745
2013-11-21,0.32745,0.32745,0.32745,0.32745,000,0.32745
2013-11-20,0.32745,0.32745,0.32745,0.32745,000,0.32745
2013-11-19,0.33738,0.33738,0.32745,0.32745,51800,0.32745
2013-11-18,0.37707,0.37707,0.37707,0.37707,64000,0.37707
2013-11-15,0.31753,0.32745,0.31753,0.32745,151100,0.32745
2013-11-14,0.28776,0.29769,0.28776,0.29769,2500,0.29769
2013-11-13,0.28776,0.28776,0.28776,0.28776,18100,0.28776
2013-11-12,0.29272,0.29272,0.29272,0.29272,5000,0.29272
2013-11-11,0.29769,0.29769,0.29769,0.29769,000,0.29769
2013-11-08,0.29769,0.29769,0.29769,0.29769,000,0.29769
2013-11-07,0.29769,0.29769,0.29769,0.29769,000,0.29769
2013-11-06,0.29769,0.29769,0.28776,0.29769,133700,0.29769
2013-11-05,0.28776,0.29769,0.28776,0.28776,53700,0.28776
2013-11-04,0.24807,0.24807,0.24807,0.24807,000,0.24807
2013-11-01,0.24807,0.24807,0.24807,0.24807,000,0.24807
2013-10-31,0.24807,0.24807,0.24807,0.24807,10000,0.24807
2013-10-30,0.25799,0.25799,0.25799,0.25799,000,0.25799
2013-10-29,0.25799,0.25799,0.25799,0.25799,000,0.25799
2013-10-28,0.25799,0.25799,0.25799,0.25799,000,0.25799
2013-10-25,0.25799,0.26296,0.25799,0.25799,13300,0.25799
2013-10-24,0.26792,0.28776,0.26792,0.27784,13900,0.27784
2013-10-23,0.28776,0.28776,0.28776,0.28776,000,0.28776
2013-10-22,0.28776,0.28776,0.28776,0.28776,000,0.28776
2013-10-21,0.29272,0.29272,0.28776,0.28776,5000,0.28776
2013-10-18,0.29272,0.29272,0.29272,0.29272,16600,0.29272
2013-10-17,0.29272,0.29272,0.29272,0.29272,4000,0.29272
2013-10-16,0.31257,0.31257,0.31257,0.31257,000,0.31257
2013-10-15,0.31257,0.31257,0.31257,0.31257,000,0.31257
2013-10-14,0.31257,0.31257,0.31257,0.31257,000,0.31257
2013-10-11,0.31257,0.31257,0.31257,0.31257,000,0.31257
2013-10-10,0.31257,0.31257,0.31257,0.31257,3500,0.31257
2013-10-09,0.28776,0.28776,0.28776,0.28776,000,0.28776
2013-10-08,0.29272,0.29272,0.28776,0.28776,3600,0.28776
2013-10-07,0.29769,0.29769,0.28776,0.28776,20100,0.28776
2013-10-04,0.31753,0.31753,0.31257,0.31257,25800,0.31257
2013-10-03,0.33242,0.33242,0.33242,0.33242,16400,0.33242
2013-10-02,0.33242,0.33242,0.33242,0.33242,16400,0.33242
2013-10-01,0.33242,0.33242,0.33242,0.33242,92000,0.33242
2013-09-30,0.32249,0.32249,0.32249,0.32249,141000,0.32249
2013-09-27,0.33242,0.33242,0.33242,0.33242,5000,0.33242
2013-09-26,0.31753,0.31753,0.31753,0.31753,25100,0.31753
2013-09-25,0.33242,0.33242,0.33242,0.33242,000,0.33242
2013-09-24,0.33242,0.33242,0.33242,0.33242,000,0.33242
2013-09-23,0.33242,0.33242,0.33242,0.33242,2000,0.33242
2013-09-20,0.29769,0.29769,0.29769,0.29769,000,0.29769
2013-09-19,0.29769,0.29769,0.29769,0.29769,000,0.29769
2013-09-18,0.29769,0.29769,0.29769,0.29769,31700,0.29769
2013-09-17,0.29769,0.30265,0.29769,0.29769,13900,0.29769
2013-09-16,0.28776,0.28776,0.28776,0.28776,000,0.28776
2013-09-13,0.28776,0.28776,0.28776,0.28776,000,0.28776
2013-09-12,0.28776,0.28776,0.28776,0.28776,000,0.28776
2013-09-11,0.29769,0.29769,0.28776,0.28776,30100,0.28776
2013-09-10,0.29769,0.29769,0.29769,0.29769,1600,0.29769
2013-09-09,0.29769,0.29769,0.29769,0.29769,15600,0.29769
2013-09-06,0.30761,0.30761,0.29769,0.29769,44300,0.29769
2013-09-05,0.31753,0.31753,0.30761,0.30761,101700,0.30761
2013-09-04,0.31753,0.31753,0.31753,0.31753,22000,0.31753
2013-09-03,0.31753,0.31753,0.31753,0.31753,20100,0.31753
2013-09-02,0.31753,0.31753,0.31753,0.31753,27100,0.31753
2013-08-30,0.27784,0.29272,0.27784,0.29272,117900,0.29272
2013-08-29,0.29769,0.29769,0.27784,0.27784,60400,0.27784
2013-08-28,0.31257,0.31257,0.31257,0.31257,1600,0.31257
2013-08-27,0.31753,0.31753,0.31753,0.31753,8000,0.31753
2013-08-26,0.29769,0.31753,0.29769,0.31753,30500,0.31753
2013-08-23,0.27784,0.29769,0.27784,0.29769,67300,0.29769
2013-08-22,0.25799,0.27784,0.25799,0.27784,286700,0.27784
2013-08-21,0.22823,0.22823,0.22823,0.22823,000,0.22823
2013-08-20,0.22823,0.22823,0.22823,0.22823,000,0.22823
2013-08-19,0.22823,0.22823,0.22823,0.22823,000,0.22823
2013-08-16,0.2183,0.22823,0.2183,0.22823,22900,0.22823
2013-08-15,0.2183,0.2183,0.2183,0.2183,000,0.2183
2013-08-14,0.22823,0.22823,0.2183,0.2183,18900,0.2183
2013-08-13,0.23815,0.23815,0.23815,0.23815,3000,0.23815
2013-08-12,0.23815,0.23815,0.22823,0.23815,99100,0.23815
2013-08-09,0.2183,0.2183,0.2183,0.2183,000,0.2183
2013-08-08,0.24807,0.26792,0.2183,0.2183,15500,0.2183
2013-08-07,0.24807,0.24807,0.24807,0.24807,000,0.24807
2013-08-06,0.24807,0.24807,0.24807,0.24807,10400,0.24807
2013-08-05,0.23815,0.23815,0.23815,0.23815,000,0.23815
2013-08-02,0.24807,0.24807,0.23815,0.23815,58900,0.23815
2013-08-01,0.24807,0.24807,0.24807,0.24807,000,0.24807
2013-07-31,0.24807,0.24807,0.24807,0.24807,800,0.24807
2013-07-30,0.23815,0.23815,0.23815,0.23815,000,0.23815
2013-07-29,0.23815,0.23815,0.23815,0.23815,000,0.23815
2013-07-26,0.23815,0.23815,0.23815,0.23815,13600,0.23815
2013-07-25,0.24311,0.24311,0.24311,0.24311,000,0.24311
2013-07-24,0.2183,0.24311,0.2183,0.24311,7300,0.24311
2013-07-23,0.27784,0.27784,0.27784,0.27784,000,0.27784
2013-07-22,0.29769,0.29769,0.29769,0.29769,000,0.29769
2013-07-19,0.29769,0.29769,0.29769,0.29769,000,0.29769
2013-07-18,0.29769,0.29769,0.29769,0.29769,22600,0.29769
2013-07-17,0.28776,0.29769,0.28776,0.29769,17100,0.29769
2013-07-16,0.27784,0.27784,0.27784,0.27784,3500,0.27784
2013-07-15,0.26792,0.27784,0.26792,0.27784,5500,0.27784
2013-07-12,0.23815,0.25799,0.23815,0.25799,47600,0.25799
2013-07-11,0.22326,0.22326,0.22326,0.22326,201500,0.22326
2013-07-10,0.19846,0.19846,0.19846,0.19846,000,0.19846
2013-07-09,0.19846,0.19846,0.19846,0.19846,26200,0.19846
2013-07-08,0.22823,0.22823,0.21334,0.21334,16100,0.21334
2013-07-05,0.22823,0.25799,0.22823,0.25799,31200,0.25799
2013-07-04,0.22823,0.22823,0.22823,0.22823,000,0.22823
2013-07-03,0.22823,0.22823,0.22823,0.22823,42800,0.22823
2013-07-02,0.2183,0.22823,0.2183,0.22823,52400,0.22823
2013-07-01,0.18853,0.18853,0.18853,0.18853,88100,0.18853
2013-06-28,0.1538,0.16869,0.1538,0.16869,8500,0.16869
2013-06-27,0.16373,0.16373,0.14884,0.15877,479700,0.15877
2013-06-26,0.16373,0.16373,0.16373,0.16373,608600,0.16373
2013-06-25,0.16869,0.16869,0.16869,0.16869,63300,0.16869
2013-06-24,0.17365,0.17365,0.17365,0.17365,60400,0.17365
2013-06-21,0.16869,0.16869,0.16869,0.16869,000,0.16869
2013-06-20,0.16869,0.17365,0.16373,0.16869,2271100,0.16869
2013-06-19,0.17365,0.17861,0.17365,0.17365,265600,0.17365
2013-06-18,0.18357,0.18357,0.17365,0.17365,187700,0.17365
2013-06-17,0.17861,0.17861,0.17861,0.17861,4000,0.17861
2013-06-14,0.18853,0.18853,0.18853,0.18853,000,0.18853
2013-06-13,0.18853,0.18853,0.18853,0.18853,22600,0.18853
2013-06-12,0.18853,0.1935,0.18853,0.1935,360200,0.1935
2013-06-11,0.1935,0.1935,0.18853,0.18853,63200,0.18853
2013-06-10,0.17861,0.17861,0.17861,0.17861,000,0.17861
2013-06-07,0.17861,0.17861,0.17861,0.17861,000,0.17861
2013-06-06,0.17861,0.17861,0.17861,0.17861,30200,0.17861
2013-06-05,0.17861,0.17861,0.17861,0.17861,45300,0.17861
2013-06-04,0.17861,0.17861,0.17861,0.17861,65100,0.17861
2013-06-03,0.18357,0.18357,0.18357,0.18357,35200,0.18357
2013-05-31,0.1935,0.1935,0.1935,0.1935,000,0.1935
2013-05-30,0.1935,0.1935,0.1935,0.1935,5100,0.1935
2013-05-29,0.20838,0.20838,0.20838,0.20838,25100,0.20838
2013-05-28,0.17861,0.18853,0.17861,0.18853,120900,0.18853
2013-05-27,0.17861,0.17861,0.17365,0.17861,529000,0.17861
2013-05-24,0.17861,0.17861,0.17861,0.17861,000,0.17861
2013-05-23,0.18853,0.18853,0.18853,0.18853,251900,0.18853
2013-05-22,0.18853,0.19846,0.18853,0.18853,618900,0.18853
2013-05-21,0.20838,0.20838,0.19846,0.19846,1500,0.19846
2013-05-20,0.2183,0.2183,0.2183,0.2183,12000,0.2183
2013-05-17,0.2183,0.2183,0.2183,0.2183,189400,0.2183
2013-05-16,0.20838,0.20838,0.20838,0.20838,50300,0.20838
2013-05-15,0.20838,0.20838,0.20838,0.20838,2000,0.20838
2013-05-14,0.24311,0.24311,0.19846,0.19846,538600,0.19846
2013-05-13,0.24807,0.24807,0.23815,0.23815,71700,0.23815
2013-05-10,0.23815,0.27288,0.23815,0.27288,40300,0.27288
2013-05-09,0.23319,0.23319,0.23319,0.23319,15100,0.23319
2013-05-08,0.23815,0.23815,0.23815,0.23815,50700,0.23815
2013-05-07,0.22823,0.22823,0.22823,0.22823,10000,0.22823
2013-05-06,0.24807,0.25799,0.24807,0.24807,308300,0.24807
2013-05-03,0.26792,0.26792,0.26792,0.26792,10000,0.26792
2013-05-02,0.2828,0.2828,0.2828,0.2828,22700,0.2828
2013-05-01,0.29769,0.29769,0.29769,0.29769,32800,0.29769
2013-04-30,0.29769,0.29769,0.29769,0.29769,62100,0.29769
2013-04-29,0.29769,0.29769,0.29769,0.29769,1700,0.29769
2013-04-26,0.2828,0.2828,0.2828,0.2828,000,0.2828
2013-04-25,0.2828,0.2828,0.2828,0.2828,000,0.2828
2013-04-24,0.2828,0.2828,0.2828,0.2828,2000,0.2828
2013-04-23,0.2828,0.2828,0.2828,0.2828,30200,0.2828
2013-04-22,0.29769,0.29769,0.29769,0.29769,26200,0.29769
2013-04-19,0.2828,0.2828,0.2828,0.2828,231700,0.2828
2013-04-18,0.26792,0.27784,0.26792,0.27784,6000,0.27784
2013-04-17,0.35722,0.35722,0.35722,0.35722,000,0.35722
2013-04-16,0.35722,0.35722,0.35722,0.35722,000,0.35722
2013-04-15,0.35722,0.35722,0.35722,0.35722,6300,0.35722
2013-04-12,0.37707,0.37707,0.37707,0.37707,000,0.37707
2013-04-11,0.38699,0.38699,0.37707,0.37707,29000,0.37707
2013-04-10,0.39691,0.39691,0.39691,0.39691,27600,0.39691
2013-04-09,0.38699,0.38699,0.38699,0.38699,50300,0.38699
2013-04-08,0.41676,0.41676,0.39691,0.39691,97800,0.39691
2013-04-05,0.39691,0.39691,0.39691,0.39691,40300,0.39691
2013-04-04,0.40684,0.40684,0.39691,0.39691,74000,0.39691
2013-04-03,0.41676,0.4366,0.41676,0.41676,48800,0.41676
2013-04-02,0.40684,0.4366,0.40684,0.4366,26700,0.4366
2013-04-01,0.40684,0.40684,0.40684,0.40684,000,0.40684
2013-03-29,0.40684,0.40684,0.40684,0.40684,000,0.40684
2013-03-28,0.40684,0.40684,0.40684,0.40684,000,0.40684
2013-03-27,0.40684,0.40684,0.40684,0.40684,300,0.40684
2013-03-26,0.42172,0.42172,0.39691,0.39691,1057800,0.39691
2013-03-25,0.42172,0.42172,0.42172,0.42172,4000,0.42172
2013-03-22,0.44653,0.44653,0.44653,0.44653,000,0.44653
2013-03-21,0.44653,0.44653,0.44653,0.44653,5500,0.44653
2013-03-20,0.45645,0.45645,0.44653,0.44653,639300,0.44653
2013-03-19,0.42668,0.42668,0.42668,0.42668,000,0.42668
2013-03-18,0.42668,0.42668,0.42668,0.42668,10000,0.42668
2013-03-15,0.44653,0.44653,0.44653,0.44653,000,0.44653
2013-03-14,0.44653,0.44653,0.44653,0.44653,000,0.44653
2013-03-13,0.41676,0.44653,0.41676,0.44653,15700,0.44653
2013-03-12,0.42668,0.42668,0.41676,0.41676,4300,0.41676
2013-03-11,0.44653,0.44653,0.42668,0.42668,25300,0.42668
2013-03-08,0.45645,0.45645,0.45645,0.45645,5000,0.45645
2013-03-07,0.4366,0.4366,0.4366,0.4366,000,0.4366
2013-03-06,0.45645,0.45645,0.4366,0.4366,14400,0.4366
2013-03-05,0.46141,0.47133,0.46141,0.46141,10000,0.46141
2013-03-04,0.45645,0.45645,0.45645,0.45645,000,0.45645
2013-03-01,0.46141,0.46637,0.45645,0.45645,53700,0.45645
2013-02-28,0.45645,0.45645,0.45645,0.45645,9000,0.45645
2013-02-27,0.44653,0.45645,0.44653,0.45645,129800,0.45645
2013-02-26,0.4118,0.44157,0.40684,0.44157,114500,0.44157
2013-02-25,0.43164,0.4366,0.41676,0.41676,28800,0.41676
2013-02-22,0.42668,0.42668,0.42668,0.42668,12000,0.42668
2013-02-21,0.42668,0.42668,0.37707,0.42172,366500,0.42172
2013-02-20,0.44653,0.4763,0.39691,0.42668,154000,0.42668
2013-02-19,0.45149,0.45149,0.44653,0.44653,43200,0.44653
2013-02-18,0.49118,0.49118,0.4763,0.4763,40300,0.4763
2013-02-15,0.49614,0.49614,0.49614,0.49614,56900,0.49614
2013-02-14,0.51599,0.51599,0.49614,0.49614,113300,0.49614
2013-02-13,0.52591,0.52591,0.49614,0.49614,105800,0.49614
2013-02-12,0.53087,0.53087,0.52095,0.52591,106400,0.52591
2013-02-11,0.52591,0.52591,0.52591,0.52591,45300,0.52591
2013-02-08,0.52591,0.52591,0.52591,0.52591,19400,0.52591
2013-02-07,0.53583,0.53583,0.51599,0.52591,196500,0.52591
2013-02-06,0.52591,0.54079,0.52095,0.53583,435600,0.53583
2013-02-05,0.51599,0.52591,0.51599,0.52591,70600,0.52591
2013-02-04,0.52591,0.53583,0.51599,0.51599,83600,0.51599
2013-02-01,0.53583,0.53583,0.52591,0.53583,195200,0.53583
2013-01-31,0.53583,0.53583,0.52591,0.53087,154200,0.53087
2013-01-30,0.55072,0.55072,0.54576,0.54576,201800,0.54576
2013-01-29,0.55072,0.57552,0.54576,0.57552,89600,0.57552
2013-01-28,0.55072,0.55072,0.55072,0.55072,000,0.55072
2013-01-25,0.55072,0.5656,0.55072,0.55072,75500,0.55072
2013-01-24,0.58545,0.58545,0.55072,0.56064,284900,0.56064
2013-01-23,0.59537,0.61522,0.58545,0.58545,105600,0.58545
2013-01-22,0.57552,0.59537,0.55568,0.59537,36600,0.59537
2013-01-21,0.59537,0.59537,0.55568,0.55568,118100,0.55568
2013-01-18,0.59537,0.59537,0.59537,0.59537,36100,0.59537
2013-01-17,0.61522,0.61522,0.59537,0.59537,55400,0.59537
2013-01-16,0.64498,0.64498,0.62018,0.62514,121000,0.62514
2013-01-15,0.67475,0.67475,0.64498,0.65987,161200,0.65987
2013-01-14,0.68468,0.68468,0.67971,0.67971,27100,0.67971
2013-01-11,0.65491,0.65491,0.65491,0.65491,000,0.65491
2013-01-10,0.65491,0.65491,0.65491,0.65491,16200,0.65491
2013-01-09,0.6946,0.6946,0.6946,0.6946,000,0.6946
2013-01-08,0.6946,0.6946,0.6946,0.6946,6000,0.6946
2013-01-07,0.70452,0.70452,0.67475,0.70452,68200,0.70452
2013-01-04,0.6946,0.70452,0.68964,0.70452,38900,0.70452
2013-01-03,0.6946,0.6946,0.6946,0.6946,43500,0.6946
2013-01-02,0.67475,0.6946,0.67475,0.6946,70400,0.6946
2013-01-01,0.63506,0.63506,0.63506,0.63506,000,0.63506
2012-12-31,0.63506,0.63506,0.63506,0.63506,000,0.63506
2012-12-28,0.64995,0.64995,0.63506,0.63506,60400,0.63506
2012-12-27,0.65491,0.65491,0.65491,0.65491,000,0.65491
2012-12-26,0.65491,0.65491,0.65491,0.65491,000,0.65491
2012-12-25,0.65491,0.65491,0.65491,0.65491,000,0.65491
2012-12-24,0.66483,0.66483,0.65491,0.65491,27200,0.65491
2012-12-21,0.66483,0.68468,0.66483,0.68468,22000,0.68468
2012-12-20,0.67475,0.68468,0.67475,0.68468,10000,0.68468
2012-12-19,0.68468,0.68468,0.66483,0.67475,99900,0.67475
2012-12-18,0.71444,0.71444,0.68964,0.6946,55000,0.6946
2012-12-17,0.71444,0.71444,0.68468,0.71444,67200,0.71444
2012-12-14,0.71444,0.72437,0.70452,0.71444,17700,0.71444
2012-12-13,0.6946,0.72933,0.6946,0.71444,143900,0.71444
2012-12-12,0.6946,0.6946,0.6946,0.6946,26900,0.6946
2012-12-11,0.71941,0.71941,0.6946,0.6946,73500,0.6946
2012-12-10,0.74421,0.74421,0.71941,0.71941,231100,0.71941
2012-12-07,0.70452,0.73429,0.6946,0.73429,444700,0.73429
2012-12-06,0.6946,0.69956,0.6946,0.69956,89000,0.69956
2012-12-05,0.6946,0.70452,0.6946,0.6946,219000,0.6946
2012-12-04,0.6946,0.6946,0.68468,0.68468,122000,0.68468
2012-12-03,0.6946,0.71444,0.68468,0.6946,276300,0.6946
2012-11-30,0.67475,0.6946,0.66483,0.6946,258000,0.6946
2012-11-29,0.70452,0.70452,0.62514,0.66483,175600,0.66483
2012-11-28,0.71444,0.74421,0.71444,0.71444,256400,0.71444
2012-11-27,0.6946,0.71444,0.6946,0.71444,331800,0.71444
2012-11-26,0.62514,0.68468,0.62514,0.67971,477400,0.67971
2012-11-23,0.62514,0.62514,0.62018,0.62514,359600,0.62514
