Date,Open,High,Low,Close,Volume,Adj Close
2017-01-10,0.17,0.175,0.165,0.165,404800,0.165
2017-01-09,0.165,0.165,0.165,0.165,000,0.165
2017-01-06,0.165,0.165,0.165,0.165,158200,0.165
2017-01-05,0.165,0.165,0.165,0.165,39700,0.165
2017-01-04,0.165,0.165,0.165,0.165,54700,0.165
2017-01-03,0.165,0.165,0.165,0.165,000,0.165
2017-01-02,0.165,0.165,0.165,0.165,000,0.165
2016-12-30,0.165,0.165,0.165,0.165,28400,0.165
2016-12-29,0.155,0.155,0.155,0.155,147000,0.155
2016-12-28,0.15,0.15,0.15,0.15,45600,0.15
2016-12-27,0.145,0.145,0.145,0.145,000,0.145
2016-12-26,0.145,0.145,0.145,0.145,000,0.145
2016-12-23,0.15,0.15,0.145,0.145,41700,0.145
2016-12-22,0.145,0.145,0.145,0.145,46600,0.145
2016-12-21,0.15,0.15,0.15,0.15,35000,0.15
2016-12-20,0.15,0.15,0.15,0.15,66500,0.15
2016-12-19,0.165,0.165,0.165,0.165,000,0.165
2016-12-16,0.165,0.165,0.165,0.165,000,0.165
2016-12-15,0.17,0.175,0.165,0.165,134700,0.165
2016-12-14,0.175,0.175,0.175,0.175,000,0.175
2016-12-13,0.175,0.175,0.175,0.175,000,0.175
2016-12-12,0.195,0.195,0.175,0.175,100000,0.175
2016-12-09,0.20,0.20,0.20,0.20,000,0.20
2016-12-08,0.195,0.20,0.195,0.20,5400,0.20
2016-12-07,0.195,0.195,0.18,0.18,35200,0.18
2016-12-06,0.18,0.18,0.18,0.18,000,0.18
2016-12-05,0.18,0.18,0.18,0.18,7300,0.18
2016-12-02,0.18,0.18,0.18,0.18,5900,0.18
2016-12-01,0.175,0.175,0.165,0.17,109100,0.17
2016-11-30,0.175,0.175,0.175,0.175,000,0.175
2016-11-29,0.18,0.18,0.175,0.175,310600,0.175
2016-11-28,0.19,0.19,0.175,0.175,242300,0.175
2016-11-25,0.19,0.19,0.19,0.19,40700,0.19
2016-11-24,0.175,0.18,0.175,0.18,27700,0.18
2016-11-23,0.19,0.19,0.18,0.18,248800,0.18
2016-11-22,0.20,0.20,0.20,0.20,7500,0.20
2016-11-21,0.195,0.21,0.195,0.21,100300,0.21
2016-11-18,0.19,0.19,0.185,0.185,39100,0.185
2016-11-17,0.19,0.19,0.19,0.19,21000,0.19
2016-11-16,0.19,0.19,0.19,0.19,000,0.19
2016-11-15,0.19,0.19,0.19,0.19,1200,0.19
2016-11-14,0.20,0.20,0.20,0.20,000,0.20
2016-11-11,0.20,0.20,0.20,0.20,213700,0.20
2016-11-10,0.195,0.20,0.195,0.20,320400,0.20
2016-11-09,0.205,0.215,0.195,0.195,261100,0.195
2016-11-08,0.21,0.21,0.205,0.205,139400,0.205
2016-11-07,0.21,0.215,0.20,0.215,253200,0.215
2016-11-04,0.21,0.21,0.21,0.21,220000,0.21
2016-11-03,0.21,0.21,0.21,0.21,437600,0.21
2016-11-02,0.215,0.22,0.215,0.215,275700,0.215
2016-11-01,0.22,0.22,0.20,0.205,368300,0.205
2016-10-31,0.225,0.225,0.22,0.22,104700,0.22
2016-10-28,0.235,0.235,0.225,0.225,323700,0.225
2016-10-27,0.245,0.245,0.24,0.24,47300,0.24
2016-10-26,0.245,0.245,0.245,0.245,000,0.245
2016-10-25,0.245,0.245,0.245,0.245,28800,0.245
2016-10-24,0.245,0.245,0.24,0.24,20000,0.24
2016-10-21,0.25,0.25,0.24,0.245,420600,0.245
2016-10-20,0.25,0.255,0.25,0.255,157000,0.255
2016-10-19,0.25,0.255,0.25,0.25,72300,0.25
2016-10-18,0.245,0.25,0.245,0.25,445300,0.25
2016-10-17,0.24,0.245,0.24,0.245,148300,0.245
2016-10-14,0.25,0.265,0.245,0.25,920900,0.25
2016-10-13,0.26,0.26,0.26,0.26,000,0.26
2016-10-12,0.26,0.26,0.25,0.26,49000,0.26
2016-10-11,0.265,0.265,0.26,0.26,58500,0.26
2016-10-10,0.27,0.27,0.27,0.27,000,0.27
2016-10-07,0.26,0.27,0.26,0.27,39400,0.27
2016-10-06,0.26,0.26,0.26,0.26,50000,0.26
2016-10-05,0.255,0.26,0.25,0.26,391600,0.26
2016-10-04,0.275,0.275,0.27,0.27,39800,0.27
2016-10-03,0.27,0.28,0.27,0.28,350000,0.28
2016-09-30,0.285,0.285,0.26,0.27,271300,0.27
2016-09-29,0.27,0.30,0.27,0.295,1470700,0.295
2016-09-28,0.24,0.255,0.235,0.255,156600,0.255
2016-09-27,0.24,0.24,0.24,0.24,21000,0.24
2016-09-26,0.245,0.245,0.245,0.245,1100,0.245
2016-09-23,0.24,0.245,0.235,0.245,337600,0.245
2016-09-22,0.24,0.24,0.24,0.24,31500,0.24
2016-09-21,0.24,0.24,0.24,0.24,42300,0.24
2016-09-20,0.235,0.245,0.235,0.24,204900,0.24
2016-09-19,0.245,0.245,0.235,0.235,150700,0.235
2016-09-16,0.245,0.245,0.245,0.245,73100,0.245
2016-09-15,0.255,0.255,0.255,0.255,10000,0.255
2016-09-14,0.24,0.24,0.24,0.24,66400,0.24
2016-09-13,0.24,0.24,0.24,0.24,10000,0.24
2016-09-12,0.245,0.245,0.24,0.245,145200,0.245
2016-09-09,0.245,0.255,0.245,0.255,92000,0.255
2016-09-08,0.24,0.25,0.24,0.25,286700,0.25
2016-09-07,0.24,0.24,0.24,0.24,117900,0.24
2016-09-06,0.235,0.235,0.23,0.23,103300,0.23
2016-09-05,0.245,0.245,0.225,0.235,78500,0.235
2016-09-02,0.235,0.24,0.235,0.24,40000,0.24
2016-09-01,0.225,0.235,0.225,0.235,341700,0.235
2016-08-31,0.225,0.225,0.225,0.225,87200,0.225
2016-08-30,0.23,0.23,0.22,0.225,321000,0.225
2016-08-29,0.255,0.255,0.23,0.23,315400,0.23
2016-08-26,0.25,0.25,0.25,0.25,33100,0.25
2016-08-25,0.25,0.25,0.245,0.25,287600,0.25
2016-08-24,0.25,0.25,0.245,0.25,255800,0.25
2016-08-23,0.255,0.255,0.25,0.255,447800,0.255
2016-08-22,0.26,0.26,0.255,0.255,163500,0.255
2016-08-19,0.255,0.26,0.255,0.255,602000,0.255
2016-08-18,0.27,0.275,0.27,0.27,17600,0.27
2016-08-17,0.26,0.27,0.26,0.27,91600,0.27
2016-08-16,0.275,0.275,0.255,0.26,236800,0.26
2016-08-15,0.275,0.275,0.27,0.275,51000,0.275
2016-08-12,0.27,0.28,0.265,0.27,952800,0.27
2016-08-11,0.27,0.27,0.27,0.27,000,0.27
2016-08-10,0.27,0.27,0.27,0.27,000,0.27
2016-08-09,0.29,0.29,0.27,0.27,201800,0.27
2016-08-08,0.28,0.29,0.275,0.29,353800,0.29
2016-08-05,0.28,0.28,0.265,0.27,279400,0.27
2016-08-04,0.30,0.30,0.27,0.28,342200,0.28
2016-08-03,0.28,0.30,0.28,0.30,483500,0.30
2016-08-02,0.27,0.28,0.27,0.275,378800,0.275
2016-08-01,0.255,0.275,0.255,0.27,443200,0.27
2016-07-29,0.245,0.255,0.24,0.255,133100,0.255
2016-07-28,0.23,0.25,0.23,0.245,410700,0.245
2016-07-27,0.23,0.23,0.225,0.225,53400,0.225
2016-07-26,0.22,0.22,0.22,0.22,6000,0.22
2016-07-25,0.235,0.235,0.235,0.235,5000,0.235
2016-07-22,0.21,0.215,0.21,0.21,238400,0.21
2016-07-21,0.22,0.22,0.20,0.21,51500,0.21
2016-07-20,0.21,0.22,0.21,0.21,81800,0.21
2016-07-19,0.195,0.195,0.19,0.19,269100,0.19
2016-07-18,0.20,0.205,0.195,0.195,160700,0.195
2016-07-15,0.21,0.21,0.20,0.20,113700,0.20
2016-07-14,0.21,0.21,0.21,0.21,39400,0.21
2016-07-13,0.23,0.23,0.21,0.21,171000,0.21
2016-07-12,0.225,0.255,0.205,0.22,705000,0.22
2016-07-11,0.20,0.22,0.20,0.22,30000,0.22
2016-07-08,0.215,0.215,0.20,0.20,295800,0.20
2016-07-07,0.20,0.20,0.20,0.20,50000,0.20
2016-07-06,0.195,0.20,0.195,0.20,75000,0.20
2016-07-05,0.195,0.195,0.195,0.195,178800,0.195
2016-07-04,0.21,0.21,0.21,0.21,000,0.21
2016-07-01,0.205,0.21,0.205,0.21,108800,0.21
2016-06-30,0.21,0.21,0.19,0.21,555000,0.21
2016-06-29,0.21,0.21,0.20,0.20,30000,0.20
2016-06-28,0.22,0.24,0.20,0.20,312800,0.20
2016-06-27,0.205,0.205,0.20,0.20,50500,0.20
2016-06-24,0.205,0.205,0.205,0.205,25800,0.205
2016-06-23,0.21,0.21,0.205,0.205,50000,0.205
2016-06-22,0.205,0.22,0.205,0.22,5400,0.22
2016-06-21,0.205,0.205,0.205,0.205,104900,0.205
2016-06-20,0.20,0.20,0.20,0.20,111000,0.20
2016-06-17,0.21,0.215,0.20,0.20,161600,0.20
2016-06-16,0.20,0.205,0.20,0.205,84000,0.205
2016-06-15,0.21,0.21,0.20,0.20,410200,0.20
2016-06-14,0.21,0.21,0.205,0.205,45000,0.205
2016-06-13,0.22,0.22,0.22,0.22,000,0.22
2016-06-10,0.22,0.22,0.22,0.22,50000,0.22
2016-06-09,0.225,0.23,0.22,0.225,605000,0.225
2016-06-08,0.21,0.22,0.21,0.22,117100,0.22
2016-06-07,0.215,0.215,0.215,0.215,7800,0.215
2016-06-06,0.22,0.22,0.22,0.22,000,0.22
2016-06-03,0.22,0.22,0.22,0.22,82200,0.22
2016-06-02,0.215,0.215,0.215,0.215,100000,0.215
2016-06-01,0.19,0.19,0.19,0.19,000,0.19
2016-05-31,0.20,0.20,0.19,0.19,96400,0.19
2016-05-30,0.20,0.20,0.19,0.19,22200,0.19
2016-05-27,0.19,0.20,0.19,0.20,127100,0.20
2016-05-26,0.22,0.22,0.205,0.205,55500,0.205
2016-05-25,0.23,0.23,0.22,0.23,137600,0.23
2016-05-24,0.235,0.235,0.235,0.235,000,0.235
2016-05-23,0.22,0.235,0.215,0.235,146700,0.235
2016-05-20,0.235,0.235,0.235,0.235,1000,0.235
2016-05-19,0.24,0.245,0.24,0.245,87000,0.245
2016-05-18,0.245,0.245,0.235,0.235,27500,0.235
2016-05-17,0.24,0.25,0.24,0.25,123500,0.25
2016-05-16,0.235,0.25,0.235,0.25,184800,0.25
2016-05-13,0.23,0.24,0.225,0.235,76400,0.235
2016-05-12,0.235,0.235,0.225,0.225,84300,0.225
2016-05-11,0.235,0.25,0.235,0.245,593000,0.245
2016-05-10,0.235,0.24,0.225,0.235,620900,0.235
2016-05-09,0.215,0.25,0.215,0.245,296700,0.245
2016-05-06,0.185,0.22,0.185,0.215,1006100,0.215
2016-05-05,0.185,0.185,0.185,0.185,37500,0.185
2016-05-04,0.18,0.18,0.18,0.18,50800,0.18
2016-05-03,0.19,0.19,0.185,0.185,378100,0.185
2016-05-02,0.18,0.20,0.18,0.19,1243200,0.19
2016-04-29,0.165,0.175,0.16,0.16,110000,0.16
2016-04-28,0.15,0.15,0.15,0.15,100000,0.15
2016-04-27,0.15,0.15,0.15,0.15,159000,0.15
2016-04-26,0.155,0.155,0.155,0.155,123100,0.155
2016-04-25,0.155,0.155,0.155,0.155,000,0.155
2016-04-22,0.155,0.155,0.155,0.155,000,0.155
2016-04-21,0.155,0.155,0.155,0.155,000,0.155
2016-04-20,0.16,0.16,0.155,0.155,114000,0.155
2016-04-19,0.16,0.16,0.16,0.16,4500,0.16
2016-04-18,0.16,0.165,0.16,0.165,9600,0.165
2016-04-15,0.17,0.17,0.155,0.155,155700,0.155
2016-04-14,0.175,0.175,0.175,0.175,17200,0.175
2016-04-13,0.175,0.18,0.175,0.175,357700,0.175
2016-04-12,0.175,0.19,0.17,0.175,283300,0.175
2016-04-11,0.14,0.17,0.14,0.165,1008100,0.165
2016-04-08,0.14,0.14,0.14,0.14,9500,0.14
2016-04-07,0.14,0.15,0.14,0.145,1222000,0.145
2016-04-06,0.12,0.12,0.12,0.12,000,0.12
2016-04-05,0.12,0.12,0.12,0.12,2300,0.12
2016-04-04,0.115,0.115,0.115,0.115,50000,0.115
2016-04-01,0.125,0.125,0.125,0.125,117500,0.125
2016-03-31,0.12,0.12,0.12,0.12,82400,0.12
2016-03-30,0.10,0.10,0.10,0.10,28000,0.10
2016-03-29,0.12,0.12,0.12,0.12,4500,0.12
2016-03-28,0.12,0.12,0.12,0.12,000,0.12
2016-03-25,0.12,0.12,0.12,0.12,000,0.12
2016-03-24,0.12,0.12,0.12,0.12,000,0.12
2016-03-23,0.12,0.12,0.12,0.12,000,0.12
2016-03-22,0.12,0.12,0.12,0.12,000,0.12
2016-03-21,0.12,0.12,0.12,0.12,000,0.12
2016-03-18,0.12,0.12,0.12,0.12,30900,0.12
2016-03-17,0.125,0.125,0.125,0.125,000,0.125
2016-03-16,0.125,0.125,0.125,0.125,5000,0.125
2016-03-15,0.13,0.13,0.12,0.12,15000,0.12
2016-03-14,0.13,0.13,0.13,0.13,000,0.13
2016-03-11,0.13,0.13,0.13,0.13,000,0.13
2016-03-10,0.13,0.13,0.13,0.13,000,0.13
2016-03-09,0.13,0.13,0.13,0.13,5600,0.13
2016-03-08,0.155,0.155,0.145,0.15,359400,0.15
2016-03-07,0.155,0.16,0.155,0.155,506700,0.155
2016-03-04,0.14,0.155,0.14,0.155,624100,0.155
2016-03-03,0.13,0.14,0.13,0.14,303100,0.14
2016-03-02,0.13,0.13,0.125,0.125,109900,0.125
2016-03-01,0.13,0.13,0.13,0.13,283100,0.13
2016-02-29,0.14,0.14,0.135,0.135,120000,0.135
2016-02-26,0.125,0.145,0.125,0.14,354100,0.14
2016-02-25,0.11,0.125,0.11,0.125,238000,0.125
2016-02-24,0.11,0.11,0.11,0.11,000,0.11
2016-02-23,0.11,0.11,0.11,0.11,3600,0.11
2016-02-22,0.10,0.10,0.10,0.10,50000,0.10
2016-02-19,0.10,0.10,0.10,0.10,000,0.10
2016-02-18,0.10,0.10,0.10,0.10,000,0.10
2016-02-17,0.115,0.115,0.10,0.10,206400,0.10
2016-02-16,0.11,0.11,0.11,0.11,100000,0.11
2016-02-15,0.10,0.11,0.10,0.105,181900,0.105
2016-02-12,0.10,0.10,0.10,0.10,2000,0.10
2016-02-11,0.10,0.10,0.10,0.10,000,0.10
2016-02-10,0.10,0.10,0.10,0.10,279700,0.10
2016-02-09,0.09,0.09,0.09,0.09,000,0.09
2016-02-08,0.09,0.09,0.09,0.09,100000,0.09
2016-02-05,0.09,0.09,0.09,0.09,541500,0.09
2016-02-04,0.09,0.09,0.09,0.09,000,0.09
2016-02-03,0.09,0.09,0.09,0.09,323600,0.09
2016-02-02,0.088,0.09,0.088,0.09,216600,0.09
2016-02-01,0.07,0.07,0.07,0.07,000,0.07
2016-01-29,0.07,0.07,0.07,0.07,30100,0.07
2016-01-28,0.075,0.075,0.07,0.07,130000,0.07
2016-01-27,0.075,0.075,0.075,0.075,000,0.075
2016-01-26,0.075,0.075,0.075,0.075,000,0.075
2016-01-25,0.07,0.075,0.07,0.075,99600,0.075
2016-01-22,0.075,0.075,0.075,0.075,000,0.075
2016-01-21,0.076,0.076,0.075,0.075,145800,0.075
2016-01-20,0.081,0.081,0.081,0.081,000,0.081
2016-01-19,0.086,0.086,0.081,0.081,42200,0.081
2016-01-18,0.09,0.09,0.09,0.09,000,0.09
2016-01-15,0.086,0.09,0.086,0.09,20500,0.09
2016-01-14,0.085,0.085,0.085,0.085,20000,0.085
2016-01-13,0.088,0.088,0.085,0.085,216600,0.085
2016-01-12,0.088,0.088,0.088,0.088,82700,0.088
2016-01-11,0.09,0.09,0.09,0.09,000,0.09
2016-01-08,0.09,0.09,0.09,0.09,000,0.09
2016-01-07,0.09,0.09,0.09,0.09,000,0.09
2016-01-06,0.09,0.09,0.09,0.09,132200,0.09
2016-01-05,0.088,0.088,0.088,0.088,000,0.088
2016-01-04,0.088,0.088,0.088,0.088,000,0.088
2016-01-01,0.088,0.088,0.088,0.088,000,0.088
2015-12-31,0.088,0.088,0.088,0.088,35000,0.088
2015-12-30,0.091,0.091,0.09,0.09,6600,0.09
2015-12-29,0.091,0.091,0.091,0.091,000,0.091
2015-12-28,0.091,0.091,0.091,0.091,000,0.091
2015-12-25,0.091,0.091,0.091,0.091,000,0.091
2015-12-24,0.091,0.091,0.091,0.091,45700,0.091
2015-12-23,0.091,0.091,0.091,0.091,000,0.091
2015-12-22,0.091,0.091,0.091,0.091,300000,0.091
2015-12-21,0.10,0.10,0.10,0.10,000,0.10
2015-12-18,0.10,0.10,0.10,0.10,000,0.10
2015-12-17,0.10,0.10,0.10,0.10,000,0.10
2015-12-16,0.10,0.10,0.10,0.10,7600,0.10
2015-12-15,0.10,0.10,0.10,0.10,000,0.10
2015-12-14,0.10,0.10,0.10,0.10,10000,0.10
2015-12-11,0.10,0.10,0.10,0.10,000,0.10
2015-12-10,0.10,0.10,0.10,0.10,56700,0.10
2015-12-09,0.10,0.10,0.10,0.10,93100,0.10
2015-12-08,0.10,0.10,0.10,0.10,7400,0.10
2015-12-07,0.11,0.12,0.10,0.10,61100,0.10
2015-12-04,0.11,0.11,0.11,0.11,000,0.11
2015-12-03,0.105,0.11,0.105,0.11,55500,0.11
2015-12-02,0.11,0.11,0.105,0.105,226800,0.105
2015-12-01,0.115,0.115,0.115,0.115,27800,0.115
2015-11-30,0.115,0.115,0.115,0.115,25000,0.115
2015-11-27,0.12,0.12,0.12,0.12,5000,0.12
2015-11-26,0.115,0.125,0.11,0.115,96200,0.115
2015-11-25,0.12,0.12,0.12,0.12,000,0.12
2015-11-24,0.12,0.12,0.12,0.12,000,0.12
2015-11-23,0.11,0.12,0.11,0.12,156900,0.12
2015-11-20,0.11,0.11,0.11,0.11,70800,0.11
2015-11-19,0.10,0.105,0.097,0.105,1808900,0.105
2015-11-18,0.10,0.10,0.10,0.10,000,0.10
2015-11-17,0.10,0.10,0.10,0.10,000,0.10
2015-11-16,0.10,0.10,0.10,0.10,000,0.10
2015-11-13,0.105,0.105,0.10,0.10,217500,0.10
2015-11-12,0.105,0.105,0.105,0.105,000,0.105
2015-11-11,0.105,0.105,0.105,0.105,44700,0.105
2015-11-10,0.11,0.11,0.11,0.11,200000,0.11
2015-11-09,0.11,0.11,0.105,0.105,207900,0.105
2015-11-06,0.11,0.11,0.11,0.11,000,0.11
2015-11-05,0.11,0.11,0.11,0.11,000,0.11
2015-11-04,0.11,0.11,0.11,0.11,200800,0.11
2015-11-03,0.11,0.11,0.11,0.11,000,0.11
2015-11-02,0.11,0.11,0.11,0.11,000,0.11
2015-10-30,0.115,0.115,0.11,0.11,115000,0.11
2015-10-29,0.12,0.12,0.12,0.12,000,0.12
2015-10-28,0.115,0.12,0.115,0.12,125600,0.12
2015-10-27,0.115,0.115,0.115,0.115,56100,0.115
2015-10-26,0.115,0.115,0.115,0.115,5000,0.115
2015-10-23,0.12,0.12,0.12,0.12,99300,0.12
2015-10-22,0.125,0.125,0.12,0.12,59100,0.12
2015-10-21,0.13,0.135,0.13,0.135,45700,0.135
2015-10-20,0.125,0.125,0.125,0.125,000,0.125
2015-10-19,0.125,0.125,0.125,0.125,100000,0.125
2015-10-16,0.12,0.12,0.12,0.12,10000,0.12
2015-10-15,0.13,0.13,0.12,0.12,220300,0.12
2015-10-14,0.125,0.125,0.12,0.12,74400,0.12
2015-10-13,0.135,0.135,0.135,0.135,000,0.135
2015-10-12,0.13,0.135,0.12,0.135,86500,0.135
2015-10-09,0.115,0.13,0.115,0.12,63000,0.12
2015-10-08,0.11,0.11,0.11,0.11,21400,0.11
2015-10-07,0.105,0.105,0.105,0.105,000,0.105
2015-10-06,0.11,0.11,0.105,0.105,27000,0.105
2015-10-05,0.11,0.11,0.11,0.11,100000,0.11
2015-10-02,0.105,0.105,0.105,0.105,25000,0.105
2015-10-01,0.105,0.105,0.105,0.105,000,0.105
2015-09-30,0.125,0.125,0.105,0.105,100000,0.105
2015-09-29,0.125,0.125,0.125,0.125,28000,0.125
2015-09-28,0.125,0.127,0.125,0.127,66100,0.127
2015-09-25,0.13,0.13,0.13,0.13,000,0.13
2015-09-24,0.13,0.13,0.13,0.13,49500,0.13
2015-09-23,0.11,0.12,0.11,0.12,45000,0.12
2015-09-22,0.11,0.11,0.11,0.11,000,0.11
2015-09-21,0.105,0.11,0.105,0.11,15000,0.11
2015-09-18,0.10,0.10,0.10,0.10,000,0.10
2015-09-17,0.10,0.10,0.10,0.10,000,0.10
2015-09-16,0.10,0.10,0.10,0.10,48300,0.10
2015-09-15,0.10,0.10,0.10,0.10,100000,0.10
2015-09-14,0.10,0.10,0.10,0.10,000,0.10
2015-09-11,0.10,0.10,0.10,0.10,000,0.10
2015-09-10,0.10,0.10,0.10,0.10,000,0.10
2015-09-09,0.10,0.10,0.10,0.10,700,0.10
2015-09-08,0.097,0.10,0.097,0.10,70000,0.10
2015-09-07,0.099,0.099,0.099,0.099,100000,0.099
2015-09-04,0.10,0.10,0.10,0.10,60000,0.10
2015-09-03,0.10,0.10,0.10,0.10,80000,0.10
2015-09-02,0.105,0.105,0.10,0.10,51900,0.10
2015-09-01,0.105,0.105,0.105,0.105,68000,0.105
2015-08-31,0.11,0.11,0.105,0.105,130400,0.105
2015-08-28,0.10,0.11,0.10,0.11,101800,0.11
2015-08-27,0.098,0.098,0.098,0.098,000,0.098
2015-08-26,0.098,0.098,0.098,0.098,000,0.098
2015-08-25,0.098,0.098,0.098,0.098,69100,0.098
2015-08-24,0.098,0.098,0.098,0.098,15100,0.098
2015-08-20,0.13,0.13,0.096,0.096,25300,0.096
2015-08-19,0.13,0.13,0.13,0.13,2700,0.13
2015-08-18,0.12,0.13,0.12,0.13,140000,0.13
2015-08-17,0.125,0.125,0.125,0.125,20000,0.125
2015-08-14,0.135,0.135,0.135,0.135,4400,0.135
2015-08-13,0.135,0.135,0.135,0.135,000,0.135
2015-08-12,0.135,0.135,0.135,0.135,000,0.135
2015-08-11,0.135,0.14,0.13,0.135,127100,0.135
2015-08-10,0.125,0.13,0.12,0.13,65700,0.13
2015-08-07,0.125,0.125,0.125,0.125,66600,0.125
2015-08-06,0.12,0.12,0.12,0.12,136700,0.12
2015-08-05,0.13,0.13,0.12,0.12,289500,0.12
2015-08-04,0.13,0.13,0.13,0.13,7300,0.13
2015-08-03,0.13,0.13,0.13,0.13,1900,0.13
2015-07-31,0.125,0.125,0.125,0.125,000,0.125
2015-07-30,0.125,0.125,0.125,0.125,000,0.125
2015-07-29,0.125,0.125,0.125,0.125,000,0.125
2015-07-28,0.125,0.125,0.125,0.125,200,0.125
2015-07-27,0.14,0.14,0.14,0.14,000,0.14
2015-07-24,0.145,0.145,0.14,0.14,133300,0.14
2015-07-23,0.16,0.16,0.16,0.16,000,0.16
2015-07-22,0.16,0.16,0.16,0.16,000,0.16
2015-07-21,0.16,0.16,0.16,0.16,11000,0.16
2015-07-20,0.15,0.155,0.15,0.155,62000,0.155
2015-07-17,0.145,0.16,0.145,0.15,202100,0.15
2015-07-16,0.15,0.15,0.145,0.145,135200,0.145
2015-07-15,0.15,0.15,0.15,0.15,33300,0.15
2015-07-14,0.135,0.15,0.135,0.145,176100,0.145
2015-07-13,0.125,0.125,0.125,0.125,5000,0.125
2015-07-10,0.13,0.13,0.13,0.13,28100,0.13
2015-07-09,0.135,0.14,0.13,0.13,166300,0.13
2015-07-08,0.135,0.135,0.13,0.13,145000,0.13
2015-07-07,0.135,0.135,0.135,0.135,50000,0.135
2015-07-06,0.135,0.135,0.135,0.135,20000,0.135
2015-07-03,0.14,0.155,0.135,0.135,470700,0.135
2015-07-02,0.145,0.145,0.14,0.14,300000,0.14
2015-07-01,0.14,0.14,0.14,0.14,7000,0.14
2015-06-30,0.155,0.155,0.13,0.13,27000,0.13
2015-06-29,0.16,0.16,0.155,0.155,322200,0.155
2015-06-26,0.16,0.16,0.16,0.16,5000,0.16
2015-06-25,0.15,0.165,0.15,0.165,741500,0.165
2015-06-24,0.15,0.15,0.15,0.15,9900,0.15
2015-06-23,0.145,0.145,0.145,0.145,200000,0.145
2015-06-22,0.16,0.16,0.15,0.15,1424000,0.15
2015-06-19,0.17,0.17,0.145,0.16,397200,0.16
2015-06-18,0.165,0.165,0.165,0.165,000,0.165
2015-06-17,0.165,0.165,0.165,0.165,26500,0.165
2015-06-16,0.165,0.165,0.165,0.165,40000,0.165
2015-06-15,0.17,0.17,0.165,0.165,85500,0.165
2015-06-12,0.17,0.17,0.17,0.17,11000,0.17
2015-06-11,0.17,0.17,0.17,0.17,140600,0.17
2015-06-10,0.18,0.18,0.175,0.175,115600,0.175
2015-06-09,0.175,0.185,0.175,0.185,225100,0.185
2015-06-08,0.175,0.175,0.175,0.175,000,0.175
2015-06-05,0.17,0.175,0.17,0.175,225000,0.175
2015-06-04,0.165,0.17,0.165,0.17,105600,0.17
2015-06-03,0.165,0.165,0.165,0.165,43400,0.165
2015-06-02,0.16,0.16,0.16,0.16,84900,0.16
2015-06-01,0.165,0.165,0.16,0.165,223100,0.165
2015-05-29,0.16,0.165,0.16,0.165,9100,0.165
2015-05-28,0.165,0.165,0.165,0.165,178800,0.165
2015-05-27,0.165,0.165,0.165,0.165,29100,0.165
2015-05-26,0.17,0.17,0.165,0.165,34000,0.165
2015-05-25,0.17,0.175,0.165,0.175,140000,0.175
2015-05-22,0.17,0.17,0.165,0.17,80000,0.17
2015-05-21,0.17,0.17,0.165,0.165,67900,0.165
2015-05-20,0.175,0.18,0.17,0.17,391600,0.17
2015-05-19,0.18,0.18,0.175,0.175,108500,0.175
2015-05-18,0.18,0.18,0.18,0.18,20000,0.18
2015-05-15,0.185,0.185,0.175,0.175,185500,0.175
2015-05-14,0.18,0.18,0.18,0.18,30000,0.18
2015-05-13,0.185,0.185,0.18,0.18,139000,0.18
2015-05-12,0.185,0.185,0.18,0.18,83500,0.18
2015-05-11,0.185,0.185,0.185,0.185,20000,0.185
2015-05-08,0.185,0.195,0.185,0.185,123900,0.185
2015-05-07,0.205,0.205,0.195,0.195,470400,0.195
2015-05-06,0.20,0.23,0.20,0.20,811000,0.20
2015-05-05,0.18,0.195,0.175,0.195,565600,0.195
2015-05-04,0.18,0.18,0.18,0.18,376500,0.18
2015-05-01,0.17,0.185,0.17,0.18,176000,0.18
2015-04-30,0.165,0.165,0.165,0.165,14000,0.165
2015-04-29,0.165,0.165,0.165,0.165,15000,0.165
2015-04-28,0.165,0.165,0.165,0.165,5500,0.165
2015-04-27,0.165,0.165,0.165,0.165,000,0.165
2015-04-24,0.165,0.165,0.165,0.165,40000,0.165
2015-04-23,0.17,0.17,0.17,0.17,000,0.17
2015-04-22,0.17,0.17,0.17,0.17,9000,0.17
2015-04-21,0.165,0.175,0.165,0.175,165000,0.175
2015-04-20,0.165,0.17,0.165,0.17,56700,0.17
2015-04-17,0.17,0.17,0.17,0.17,38900,0.17
2015-04-16,0.175,0.175,0.175,0.175,9000,0.175
2015-04-15,0.18,0.19,0.18,0.18,665900,0.18
2015-04-14,0.17,0.17,0.17,0.17,73000,0.17
2015-04-13,0.175,0.175,0.175,0.175,51000,0.175
2015-04-10,0.175,0.175,0.175,0.175,20000,0.175
2015-04-09,0.175,0.18,0.175,0.18,45000,0.18
2015-04-08,0.175,0.18,0.17,0.175,244700,0.175
2015-04-07,0.175,0.21,0.175,0.185,426000,0.185
2015-04-06,0.17,0.17,0.17,0.17,000,0.17
2015-04-03,0.17,0.17,0.17,0.17,000,0.17
2015-04-02,0.17,0.17,0.17,0.17,116300,0.17
2015-04-01,0.155,0.165,0.15,0.165,116000,0.165
2015-03-31,0.155,0.155,0.155,0.155,000,0.155
2015-03-30,0.155,0.155,0.155,0.155,41000,0.155
2015-03-27,0.15,0.165,0.15,0.165,245500,0.165
2015-03-26,0.155,0.155,0.15,0.15,28500,0.15
2015-03-25,0.17,0.17,0.15,0.155,554300,0.155
2015-03-24,0.165,0.165,0.165,0.165,150000,0.165
2015-03-23,0.18,0.18,0.18,0.18,000,0.18
2015-03-20,0.18,0.185,0.18,0.18,136500,0.18
2015-03-19,0.175,0.175,0.175,0.175,2652600,0.175
2015-03-18,0.175,0.175,0.175,0.175,000,0.175
2015-03-17,0.17,0.18,0.17,0.175,83800,0.175
2015-03-16,0.16,0.16,0.16,0.16,50000,0.16
2015-03-13,0.145,0.145,0.145,0.145,3600,0.145
2015-03-12,0.145,0.145,0.145,0.145,000,0.145
2015-03-11,0.145,0.145,0.145,0.145,000,0.145
2015-03-10,0.145,0.145,0.145,0.145,100000,0.145
2015-03-09,0.15,0.15,0.15,0.15,19300,0.15
2015-03-06,0.155,0.155,0.15,0.15,330000,0.15
2015-03-05,0.17,0.17,0.155,0.155,377000,0.155
2015-03-04,0.18,0.18,0.18,0.18,1100,0.18
2015-03-03,0.16,0.16,0.16,0.16,20000,0.16
2015-03-02,0.175,0.175,0.16,0.16,239800,0.16
2015-02-27,0.165,0.17,0.165,0.17,185300,0.17
2015-02-26,0.16,0.165,0.16,0.165,29900,0.165
2015-02-25,0.17,0.175,0.17,0.175,135400,0.175
2015-02-24,0.18,0.18,0.175,0.175,187200,0.175
2015-02-23,0.18,0.18,0.18,0.18,3000,0.18
2015-02-20,0.185,0.185,0.18,0.18,9900,0.18
2015-02-19,0.185,0.185,0.185,0.185,15000,0.185
2015-02-18,0.18,0.195,0.18,0.185,663900,0.185
2015-02-17,0.175,0.195,0.16,0.175,528100,0.175
2015-02-16,0.16,0.17,0.14,0.17,146600,0.17
2015-02-13,0.16,0.16,0.16,0.16,286300,0.16
2015-02-12,0.165,0.165,0.16,0.165,143200,0.165
2015-02-11,0.18,0.18,0.165,0.165,14400,0.165
2015-02-10,0.17,0.18,0.165,0.18,144800,0.18
2015-02-09,0.175,0.18,0.17,0.18,23000,0.18
2015-02-06,0.175,0.18,0.175,0.175,53900,0.175
2015-02-05,0.185,0.185,0.18,0.18,61500,0.18
2015-02-04,0.19,0.20,0.185,0.185,131900,0.185
2015-02-03,0.185,0.185,0.185,0.185,10000,0.185
2015-02-02,0.165,0.18,0.165,0.175,174600,0.175
2015-01-30,0.185,0.185,0.15,0.165,493900,0.165
2015-01-29,0.195,0.20,0.185,0.185,327600,0.185
2015-01-28,0.185,0.185,0.18,0.18,22000,0.18
2015-01-27,0.18,0.18,0.165,0.175,356700,0.175
2015-01-26,0.19,0.19,0.19,0.19,000,0.19
2015-01-23,0.20,0.20,0.19,0.19,197300,0.19
2015-01-22,0.21,0.21,0.20,0.20,267800,0.20
2015-01-21,0.215,0.215,0.21,0.21,56400,0.21
2015-01-20,0.215,0.215,0.21,0.21,56400,0.21
2015-01-19,0.21,0.215,0.205,0.215,79800,0.215
2015-01-16,0.225,0.23,0.20,0.20,362300,0.20
2015-01-15,0.255,0.255,0.23,0.23,583000,0.23
2015-01-14,0.255,0.255,0.25,0.255,129700,0.255
2015-01-13,0.30,0.30,0.25,0.255,358200,0.255
2015-01-12,0.31,0.31,0.29,0.29,161800,0.29
2015-01-09,0.30,0.32,0.30,0.31,179100,0.31
2015-01-08,0.30,0.30,0.30,0.30,000,0.30
2015-01-07,0.31,0.31,0.29,0.30,118700,0.30
2015-01-06,0.275,0.32,0.275,0.32,198200,0.32
2015-01-05,0.285,0.30,0.285,0.295,24500,0.295
2015-01-02,0.26,0.285,0.255,0.285,162800,0.285
2015-01-01,0.26,0.26,0.26,0.26,000,0.26
2014-12-31,0.25,0.26,0.25,0.26,44500,0.26
2014-12-30,0.255,0.27,0.25,0.25,94300,0.25
2014-12-29,0.29,0.29,0.29,0.29,000,0.29
2014-12-26,0.29,0.29,0.29,0.29,000,0.29
2014-12-25,0.29,0.29,0.29,0.29,000,0.29
2014-12-24,0.27,0.29,0.27,0.29,67300,0.29
2014-12-23,0.26,0.26,0.25,0.25,95000,0.25
2014-12-22,0.265,0.265,0.26,0.265,172200,0.265
2014-12-19,0.28,0.28,0.265,0.265,386100,0.265
2014-12-18,0.26,0.325,0.26,0.31,421700,0.31
2014-12-17,0.285,0.285,0.25,0.27,798900,0.27
2014-12-16,0.33,0.33,0.28,0.28,436700,0.28
2014-12-15,0.335,0.335,0.335,0.335,000,0.335
2014-12-12,0.36,0.36,0.335,0.335,133500,0.335
2014-12-11,0.36,0.36,0.35,0.36,358600,0.36
2014-12-10,0.35,0.365,0.35,0.36,543900,0.36
2014-12-09,0.37,0.37,0.34,0.35,336900,0.35
2014-12-08,0.38,0.38,0.33,0.37,710400,0.37
2014-12-05,0.36,0.37,0.345,0.37,1145700,0.37
2014-12-04,0.33,0.33,0.33,0.33,000,0.33
2014-12-03,0.37,0.39,0.33,0.33,1837000,0.33
2014-12-02,0.43,0.44,0.37,0.38,2913000,0.38
2014-12-01,0.425,0.46,0.405,0.41,3401800,0.41
2014-11-28,0.41,0.44,0.39,0.43,2241100,0.43
2014-11-27,0.41,0.41,0.36,0.405,2168000,0.405
2014-11-26,0.36,0.425,0.35,0.405,3451300,0.405
2014-11-25,0.375,0.435,0.325,0.355,6254600,0.355
2014-11-24,0.18,0.445,0.18,0.41,11098600,0.41
2014-11-21,0.14,0.14,0.14,0.14,000,0.14
2014-11-20,0.13,0.14,0.13,0.14,171600,0.14
2014-11-19,0.13,0.13,0.13,0.13,11500,0.13
2014-11-18,0.13,0.13,0.13,0.13,20000,0.13
2014-11-17,0.14,0.14,0.14,0.14,000,0.14
2014-11-14,0.145,0.145,0.14,0.14,25000,0.14
2014-11-13,0.15,0.15,0.15,0.15,10000,0.15
2014-11-12,0.155,0.155,0.155,0.155,500,0.155
2014-11-11,0.14,0.14,0.14,0.14,000,0.14
2014-11-10,0.14,0.14,0.14,0.14,2300,0.14
2014-11-07,0.14,0.14,0.14,0.14,4000,0.14
2014-11-06,0.14,0.14,0.14,0.14,169300,0.14
2014-11-05,0.14,0.14,0.14,0.14,99400,0.14
2014-11-04,0.14,0.14,0.14,0.14,2300,0.14
2014-11-03,0.155,0.155,0.155,0.155,000,0.155
2014-10-31,0.155,0.155,0.155,0.155,000,0.155
2014-10-30,0.16,0.16,0.155,0.155,35800,0.155
2014-10-29,0.15,0.15,0.15,0.15,000,0.15
2014-10-28,0.16,0.16,0.15,0.15,25000,0.15
2014-10-27,0.17,0.17,0.165,0.165,30000,0.165
2014-10-24,0.18,0.18,0.18,0.18,50000,0.18
2014-10-23,0.18,0.185,0.18,0.18,35600,0.18
2014-10-22,0.17,0.18,0.17,0.18,43000,0.18
2014-10-21,0.16,0.16,0.16,0.16,000,0.16
2014-10-20,0.18,0.18,0.16,0.16,52300,0.16
2014-10-17,0.15,0.17,0.15,0.17,93000,0.17
2014-10-16,0.145,0.155,0.145,0.15,191000,0.15
2014-10-15,0.14,0.145,0.14,0.145,146400,0.145
2014-10-14,0.145,0.145,0.145,0.145,000,0.145
2014-10-13,0.13,0.145,0.125,0.145,222100,0.145
2014-10-10,0.14,0.14,0.135,0.135,14800,0.135
2014-10-09,0.145,0.145,0.145,0.145,50000,0.145
2014-10-08,0.165,0.165,0.165,0.165,000,0.165
2014-10-07,0.175,0.175,0.165,0.165,109000,0.165
2014-10-06,0.19,0.19,0.19,0.19,10000,0.19
2014-10-03,0.165,0.175,0.165,0.165,10500,0.165
2014-10-02,0.17,0.17,0.165,0.165,12600,0.165
2014-10-01,0.18,0.18,0.17,0.17,280500,0.17
2014-09-30,0.18,0.18,0.18,0.18,000,0.18
2014-09-29,0.195,0.195,0.18,0.18,103200,0.18
2014-09-26,0.19,0.195,0.19,0.19,139200,0.19
2014-09-25,0.18,0.19,0.18,0.19,60000,0.19
2014-09-24,0.185,0.185,0.185,0.185,16100,0.185
2014-09-23,0.205,0.205,0.18,0.19,43600,0.19
2014-09-22,0.20,0.215,0.20,0.21,104500,0.21
2014-09-19,0.20,0.20,0.175,0.175,180000,0.175
2014-09-18,0.22,0.22,0.20,0.20,64800,0.20
2014-09-17,0.22,0.22,0.20,0.21,98200,0.21
2014-09-16,0.22,0.22,0.215,0.22,75500,0.22
2014-09-15,0.24,0.245,0.205,0.22,898800,0.22
2014-09-12,0.245,0.255,0.24,0.24,238300,0.24
2014-09-11,0.24,0.24,0.24,0.24,66000,0.24
2014-09-10,0.245,0.25,0.235,0.235,217500,0.235
2014-09-09,0.26,0.26,0.245,0.245,144800,0.245
2014-09-08,0.22,0.27,0.22,0.27,368700,0.27
2014-09-05,0.22,0.22,0.22,0.22,105500,0.22
2014-09-04,0.235,0.235,0.22,0.22,159600,0.22
2014-09-03,0.25,0.255,0.245,0.245,90900,0.245
2014-09-02,0.24,0.25,0.24,0.25,204400,0.25
2014-09-01,0.255,0.255,0.24,0.24,213700,0.24
2014-08-29,0.25,0.255,0.24,0.255,192000,0.255
2014-08-28,0.26,0.26,0.26,0.26,55200,0.26
2014-08-27,0.26,0.26,0.24,0.26,314200,0.26
2014-08-26,0.235,0.26,0.235,0.25,267400,0.25
2014-08-25,0.255,0.255,0.23,0.23,144000,0.23
2014-08-22,0.26,0.26,0.255,0.26,280500,0.26
2014-08-21,0.265,0.27,0.26,0.26,167100,0.26
2014-08-20,0.265,0.265,0.265,0.265,10000,0.265
2014-08-19,0.255,0.265,0.25,0.265,142500,0.265
2014-08-18,0.265,0.27,0.25,0.255,158900,0.255
2014-08-15,0.26,0.26,0.24,0.255,246400,0.255
2014-08-14,0.25,0.25,0.25,0.25,185100,0.25
2014-08-13,0.255,0.26,0.245,0.25,335000,0.25
2014-08-12,0.25,0.26,0.245,0.255,311400,0.255
2014-08-11,0.28,0.28,0.26,0.265,252200,0.265
2014-08-08,0.28,0.28,0.255,0.255,591200,0.255
2014-08-07,0.28,0.28,0.265,0.28,580400,0.28
2014-08-06,0.28,0.29,0.28,0.28,960700,0.28
2014-08-05,0.30,0.315,0.28,0.285,2507900,0.285
2014-08-04,0.24,0.27,0.24,0.27,2889600,0.27
