Date,Open,High,Low,Close,Volume,Adj Close
2017-01-10,2.62,2.69,2.61,2.66,1324000,2.66
2017-01-09,2.63,2.65,2.62,2.63,795200,2.63
2017-01-06,2.63,2.65,2.59,2.60,1086600,2.60
2017-01-05,2.60,2.66,2.595,2.63,931000,2.63
2017-01-04,2.59,2.61,2.565,2.60,849400,2.60
2017-01-03,2.60,2.61,2.56,2.59,1081900,2.59
2017-01-02,2.60,2.60,2.60,2.60,000,2.60
2016-12-30,2.57,2.60,2.54,2.60,555600,2.60
2016-12-29,2.53,2.57,2.49,2.57,968700,2.57
2016-12-28,2.44,2.51,2.41,2.51,1000900,2.51
2016-12-27,2.41,2.41,2.41,2.41,000,2.41
2016-12-26,2.41,2.41,2.41,2.41,000,2.41
2016-12-23,2.50,2.51,2.39,2.41,1072100,2.41
2016-12-22,2.63,2.63,2.46,2.49,3822600,2.49
2016-12-21,2.68,2.69,2.61,2.63,1694000,2.63
2016-12-20,2.63,2.69,2.53,2.68,2116000,2.68
2016-12-19,2.58,2.62,2.53,2.62,1534400,2.62
2016-12-16,2.39,2.55,2.37,2.55,2812300,2.55
2016-12-15,2.40,2.45,2.36,2.39,2315100,2.39
2016-12-14,2.40,2.50,2.37,2.47,3226500,2.47
2016-12-13,2.37,2.57,2.35,2.44,4216700,2.44
2016-12-12,2.68,2.68,2.68,2.68,000,2.68
2016-12-09,2.67,2.70,2.63,2.68,1067100,2.68
2016-12-08,2.83,2.88,2.61,2.67,2061800,2.67
2016-12-07,2.86,2.98,2.68,2.76,4799200,2.76
2016-12-06,2.54,2.82,2.48,2.82,2351200,2.82
2016-12-05,2.62,2.685,2.50,2.53,1348900,2.53
2016-12-02,2.63,2.67,2.60,2.62,622700,2.62
2016-12-01,2.67,2.68,2.60,2.65,1004200,2.65
2016-11-30,2.66,2.81,2.61,2.67,2334000,2.67
2016-11-29,2.90,2.90,2.69,2.71,2016400,2.71
2016-11-28,2.91,2.96,2.89,2.90,529800,2.90
2016-11-25,2.97,2.97,2.88,2.92,713000,2.92
2016-11-24,3.04,3.05,2.95,2.97,1098400,2.97
2016-11-23,2.88,3.06,2.79,3.03,2621900,3.03
2016-11-22,2.74,2.89,2.74,2.86,1050500,2.86
2016-11-21,2.80,2.82,2.73,2.73,821100,2.73
2016-11-18,2.83,2.845,2.76,2.79,693700,2.79
2016-11-17,2.86,2.91,2.80,2.81,668700,2.81
2016-11-16,2.86,2.96,2.85,2.86,1049700,2.86
2016-11-15,2.84,2.90,2.79,2.87,711300,2.87
2016-11-14,2.83,2.88,2.79,2.84,548200,2.84
2016-11-11,2.80,2.84,2.78,2.82,709400,2.82
2016-11-10,2.86,2.98,2.84,2.87,1009400,2.87
2016-11-09,2.84,2.88,2.76,2.80,1122600,2.80
2016-11-08,2.79,2.88,2.79,2.84,380200,2.84
2016-11-07,2.83,2.87,2.77,2.79,729700,2.79
2016-11-04,2.90,2.91,2.785,2.83,671000,2.83
2016-11-03,2.80,2.96,2.76,2.89,1259200,2.89
2016-11-02,2.70,2.84,2.70,2.80,1266900,2.80
2016-11-01,2.66,2.75,2.65,2.73,836000,2.73
2016-10-31,2.66,2.69,2.63,2.68,627700,2.68
2016-10-28,2.70,2.73,2.65,2.68,1045100,2.68
2016-10-27,2.71,2.72,2.66,2.70,1290500,2.70
2016-10-26,2.68,2.69,2.63,2.65,750400,2.65
2016-10-25,2.68,2.73,2.65,2.70,879400,2.70
2016-10-24,2.70,2.71,2.64,2.66,657300,2.66
2016-10-21,2.68,2.76,2.655,2.69,1171200,2.69
2016-10-20,2.64,2.72,2.62,2.69,1450200,2.69
2016-10-19,2.64,2.67,2.62,2.63,650400,2.63
2016-10-18,2.66,2.70,2.63,2.64,566800,2.64
2016-10-17,2.60,2.68,2.60,2.65,644500,2.65
2016-10-14,2.68,2.69,2.58,2.62,1548700,2.62
2016-10-13,2.68,2.70,2.61,2.67,1314300,2.67
2016-10-12,2.67,2.79,2.65,2.66,1878700,2.66
2016-10-11,2.90,2.92,2.69,2.71,3331200,2.71
2016-10-10,3.01,3.01,2.88,2.89,2153600,2.89
2016-10-07,3.11,3.14,3.00,3.00,3185600,3.00
2016-10-06,2.97,3.20,2.895,3.20,3057300,3.20
2016-10-05,3.30,3.30,3.30,3.30,000,3.30
2016-10-04,3.33,3.38,3.28,3.30,1047400,3.30
2016-10-03,3.30,3.37,3.30,3.36,217000,3.36
2016-09-30,3.32,3.43,3.27,3.32,1113400,3.32
2016-09-29,3.49,3.49,3.39,3.47,774300,3.287
2016-09-28,3.50,3.53,3.41,3.46,1541500,3.278
2016-09-27,3.49,3.50,3.44,3.47,1117000,3.287
2016-09-26,3.51,3.54,3.45,3.47,1066300,3.287
2016-09-23,3.41,3.52,3.41,3.51,1872300,3.325
2016-09-22,3.29,3.38,3.225,3.38,1110300,3.202
2016-09-21,3.24,3.27,3.22,3.24,657700,3.069
2016-09-20,3.20,3.24,3.185,3.23,652700,3.06
2016-09-19,3.23,3.30,3.20,3.22,419900,3.05
2016-09-16,3.15,3.26,3.14,3.20,3303200,3.031
2016-09-15,3.05,3.11,3.015,3.09,1240400,2.927
2016-09-14,3.15,3.17,3.03,3.05,2409500,2.889
2016-09-13,3.24,3.28,3.17,3.19,1584400,3.022
2016-09-12,3.17,3.20,3.11,3.18,1176500,3.012
2016-09-09,3.10,3.27,3.09,3.21,3094100,3.041
2016-09-08,3.31,3.33,3.04,3.18,3429000,3.012
2016-09-07,3.16,3.33,3.06,3.22,7337200,3.05
2016-09-06,2.80,3.05,2.75,2.93,6201400,2.776
2016-09-05,2.75,2.85,2.18,2.78,17945800,2.633
2016-09-02,3.38,3.39,3.08,3.15,9312600,2.984
2016-09-01,3.50,3.60,3.27,3.35,6539800,3.173
2016-08-31,3.45,3.66,3.33,3.44,11645500,3.259
2016-08-30,4.00,4.01,3.48,3.48,14760100,3.297
2016-08-29,4.29,4.41,4.00,4.10,11750100,3.884
2016-08-26,4.78,4.94,4.74,4.92,800300,4.661
2016-08-25,4.75,4.84,4.74,4.77,898500,4.519
2016-08-24,4.78,4.85,4.74,4.76,867000,4.509
2016-08-23,4.90,4.98,4.73,4.75,1823500,4.50
2016-08-22,5.14,5.14,4.86,4.91,1356700,4.651
2016-08-19,5.16,5.22,5.12,5.17,315100,4.897
2016-08-18,5.29,5.31,5.10,5.16,500000,4.888
2016-08-17,5.23,5.31,5.16,5.28,675900,5.002
2016-08-16,5.25,5.32,5.19,5.21,712500,4.935
2016-08-15,5.16,5.26,5.13,5.21,529600,4.935
2016-08-12,5.11,5.17,5.10,5.16,572600,4.888
2016-08-11,5.18,5.18,5.06,5.09,522700,4.822
2016-08-10,5.17,5.24,5.075,5.18,543800,4.907
2016-08-09,5.13,5.18,5.11,5.17,704800,4.897
2016-08-08,5.03,5.14,5.01,5.13,837200,4.86
2016-08-05,4.98,5.05,4.98,5.02,560200,4.755
2016-08-04,4.98,5.00,4.895,4.98,546400,4.718
2016-08-03,5.01,5.055,4.93,4.95,681600,4.689
2016-08-02,5.05,5.10,4.94,5.00,700500,4.736
2016-08-01,5.11,5.15,4.99,5.04,1492800,4.774
2016-07-29,5.13,5.20,5.10,5.13,1146300,4.86
2016-07-28,5.10,5.135,5.01,5.08,544400,4.812
2016-07-27,5.06,5.06,4.97,5.03,567700,4.765
2016-07-26,5.05,5.05,4.96,5.02,798600,4.755
2016-07-25,5.01,5.06,4.95,5.04,508200,4.774
2016-07-22,4.93,4.96,4.87,4.95,768400,4.689
2016-07-21,4.83,5.05,4.83,4.94,811900,4.68
2016-07-20,4.85,4.92,4.80,4.82,665600,4.566
2016-07-19,4.75,4.88,4.74,4.83,675700,4.575
2016-07-18,4.75,4.82,4.73,4.75,482200,4.50
2016-07-15,4.79,4.81,4.73,4.75,563200,4.50
2016-07-14,4.61,4.78,4.60,4.77,774400,4.519
2016-07-13,4.61,4.70,4.61,4.64,626200,4.395
2016-07-12,4.68,4.73,4.63,4.63,435400,4.386
2016-07-11,4.60,4.71,4.57,4.68,796400,4.433
2016-07-08,4.63,4.63,4.575,4.62,384400,4.376
2016-07-07,4.60,4.71,4.60,4.65,688200,4.405
2016-07-06,4.55,4.62,4.50,4.58,740900,4.339
2016-07-05,4.75,4.755,4.58,4.60,667200,4.358
2016-07-04,4.61,4.775,4.60,4.75,729900,4.50
2016-07-01,4.62,4.67,4.62,4.65,645400,4.405
2016-06-30,4.67,4.73,4.61,4.61,1335300,4.367
2016-06-29,4.65,4.71,4.57,4.66,1043900,4.414
2016-06-28,4.70,4.70,4.56,4.59,1042800,4.348
2016-06-27,4.73,4.75,4.64,4.72,910000,4.471
2016-06-24,4.91,4.91,4.675,4.73,1803000,4.481
2016-06-23,4.83,4.92,4.80,4.88,1338200,4.623
2016-06-22,4.90,4.94,4.79,4.82,1238800,4.566
2016-06-21,4.80,4.87,4.75,4.87,1304200,4.613
2016-06-20,4.71,4.83,4.64,4.80,1433500,4.547
2016-06-17,4.70,4.71,4.61,4.65,1688200,4.405
2016-06-16,4.60,4.70,4.60,4.62,3721500,4.376
2016-06-15,4.70,4.70,4.57,4.59,1529300,4.348
2016-06-14,4.85,4.85,4.68,4.70,1208300,4.452
2016-06-13,4.92,4.92,4.92,4.92,000,4.661
2016-06-10,4.90,4.96,4.80,4.92,1065000,4.661
2016-06-09,4.93,4.94,4.68,4.85,2971800,4.594
2016-06-08,5.12,5.12,4.82,4.91,2471200,4.651
2016-06-07,5.14,5.25,4.61,5.16,9404100,4.888
2016-06-06,5.40,5.40,5.255,5.28,1317900,5.002
2016-06-03,5.42,5.44,5.31,5.38,1756900,5.096
2016-06-02,5.64,5.65,5.27,5.32,5023800,5.04
2016-06-01,5.75,5.78,5.64,5.64,1058500,5.343
2016-05-31,5.85,5.85,5.76,5.80,1349700,5.494
2016-05-30,5.84,5.95,5.76,5.90,980000,5.589
2016-05-27,5.85,5.85,5.76,5.82,592900,5.513
2016-05-26,5.85,5.85,5.73,5.80,676600,5.494
2016-05-25,5.80,5.85,5.74,5.81,2532000,5.504
2016-05-24,5.85,5.87,5.70,5.73,956500,5.428
2016-05-23,5.91,5.94,5.81,5.86,719300,5.551
2016-05-20,5.88,5.925,5.73,5.86,578300,5.551
2016-05-19,5.94,5.96,5.83,5.89,1124700,5.58
2016-05-18,5.94,5.97,5.79,5.86,1228900,5.551
2016-05-17,5.97,6.03,5.89,5.94,1198100,5.627
2016-05-16,5.88,5.95,5.86,5.94,918100,5.627
2016-05-13,6.00,6.00,5.78,5.84,1299500,5.532
2016-05-12,5.95,6.03,5.89,5.94,994000,5.627
2016-05-11,5.81,6.02,5.75,5.97,1651900,5.655
2016-05-10,5.68,5.94,5.59,5.79,1651600,5.485
2016-05-09,5.63,5.67,5.555,5.64,849100,5.343
2016-05-06,5.61,5.65,5.42,5.65,978700,5.352
2016-05-05,5.59,5.71,5.55,5.65,593300,5.352
2016-05-04,5.76,5.79,5.58,5.61,842500,5.314
2016-05-03,5.76,5.81,5.70,5.76,655000,5.456
2016-05-02,5.76,5.78,5.69,5.71,568700,5.409
2016-04-29,5.90,5.90,5.62,5.78,1100400,5.475
2016-04-28,5.76,5.83,5.73,5.81,581500,5.504
2016-04-27,5.84,5.95,5.73,5.74,576900,5.437
2016-04-26,5.81,5.90,5.76,5.84,762100,5.532
2016-04-25,5.83,5.83,5.83,5.83,000,5.523
2016-04-22,5.98,5.99,5.81,5.83,865500,5.523
2016-04-21,5.95,6.06,5.91,6.00,1307700,5.684
2016-04-20,5.74,5.94,5.70,5.85,1597400,5.542
2016-04-19,5.82,5.89,5.66,5.67,1283700,5.371
2016-04-18,5.69,5.80,5.68,5.76,499000,5.456
2016-04-15,5.70,5.76,5.66,5.69,662800,5.39
2016-04-14,5.55,5.69,5.52,5.68,932400,5.381
2016-04-13,5.50,5.64,5.46,5.54,1072300,5.248
2016-04-12,5.45,5.50,5.41,5.45,729700,5.163
2016-04-11,5.53,5.56,5.46,5.49,455800,5.201
2016-04-08,5.60,5.61,5.47,5.50,651900,5.21
2016-04-07,5.45,5.69,5.42,5.63,851700,5.333
2016-04-06,5.45,5.45,5.25,5.37,2235900,5.087
2016-04-05,5.67,5.67,5.29,5.38,2240300,5.096
2016-04-04,5.70,5.79,5.70,5.78,404200,5.475
2016-04-01,5.70,5.75,5.61,5.68,490500,5.381
2016-03-31,5.73,5.76,5.67,5.75,705200,5.447
2016-03-30,5.71,5.74,5.63,5.65,928400,5.352
2016-03-29,5.70,5.79,5.65,5.66,659000,5.362
2016-03-28,5.70,5.70,5.70,5.70,000,5.40
2016-03-25,5.70,5.70,5.70,5.70,000,5.40
2016-03-24,5.75,5.80,5.69,5.70,1127200,5.40
2016-03-23,5.85,5.91,5.75,5.75,462500,5.447
2016-03-22,5.92,6.01,5.69,5.77,1479800,5.466
2016-03-21,5.92,6.01,5.90,6.00,721500,5.511
2016-03-18,6.03,6.04,5.87,5.91,885200,5.428
2016-03-17,6.02,6.08,5.90,5.94,1497600,5.455
2016-03-16,5.75,5.88,5.71,5.88,911400,5.40
2016-03-15,5.87,5.88,5.70,5.75,687700,5.281
2016-03-14,5.90,6.06,5.86,5.88,872300,5.40
2016-03-11,5.75,5.89,5.75,5.82,635700,5.345
2016-03-10,5.81,5.83,5.72,5.74,659400,5.272
2016-03-09,5.60,5.87,5.57,5.78,844700,5.308
2016-03-08,5.61,5.72,5.53,5.59,1557800,5.134
2016-03-07,5.76,5.78,5.57,5.58,1105700,5.125
2016-03-04,5.80,5.80,5.70,5.72,1375100,5.253
2016-03-03,5.83,5.90,5.75,5.77,879900,5.299
2016-03-02,5.87,5.98,5.80,5.82,1135100,5.345
2016-03-01,5.78,5.91,5.73,5.75,1102600,5.281
2016-02-29,5.89,5.93,5.775,5.81,1062600,5.336
2016-02-26,5.96,5.97,5.89,5.90,737100,5.419
2016-02-25,6.13,6.15,5.96,5.98,569200,5.492
2016-02-24,6.07,6.15,6.03,6.04,677500,5.547
2016-02-23,6.31,6.31,6.02,6.06,1326200,5.566
2016-02-22,6.29,6.32,6.14,6.30,1384800,5.786
2016-02-19,5.92,6.29,5.81,6.16,3592400,5.657
2016-02-18,6.00,6.025,5.55,5.67,5069500,5.207
2016-02-17,6.50,6.56,6.34,6.37,572000,5.85
2016-02-16,6.47,6.50,6.27,6.48,872800,5.951
2016-02-15,6.24,6.45,6.17,6.42,945200,5.896
2016-02-12,6.20,6.22,6.02,6.10,882100,5.602
2016-02-11,6.17,6.28,6.16,6.23,1469400,5.722
2016-02-10,6.29,6.33,6.07,6.12,696900,5.621
2016-02-09,6.51,6.58,6.22,6.26,1177000,5.749
2016-02-08,6.63,6.67,6.58,6.61,429200,6.071
2016-02-05,6.68,6.70,6.60,6.62,729000,6.08
2016-02-04,6.83,6.83,6.635,6.67,933000,6.126
2016-02-03,6.72,6.72,6.62,6.62,1463700,6.08
2016-02-02,7.06,7.06,6.82,6.87,8676900,6.31
2016-02-01,6.89,7.11,6.89,7.08,755500,6.502
2016-01-29,6.80,6.86,6.75,6.80,606500,6.245
2016-01-28,6.73,6.85,6.70,6.78,488700,6.227
2016-01-27,6.78,6.875,6.72,6.78,384400,6.227
2016-01-26,6.78,6.78,6.78,6.78,000,6.227
2016-01-25,6.92,6.93,6.75,6.78,505900,6.227
2016-01-22,6.90,6.905,6.77,6.82,476800,6.264
2016-01-21,7.00,7.00,6.84,6.86,486400,6.30
2016-01-20,6.99,7.03,6.88,6.95,721600,6.383
2016-01-19,6.82,6.95,6.81,6.94,371900,6.374
2016-01-18,6.61,6.85,6.52,6.82,719900,6.264
2016-01-15,6.91,7.01,6.67,6.70,1150700,6.153
2016-01-14,7.02,7.02,6.81,6.92,1074200,6.355
2016-01-13,7.17,7.25,7.05,7.08,850100,6.502
2016-01-12,7.13,7.23,7.12,7.15,416200,6.567
2016-01-11,7.20,7.25,7.07,7.10,554600,6.521
2016-01-08,7.20,7.26,7.20,7.24,276200,6.649
2016-01-07,7.37,7.39,7.225,7.27,579600,6.677
2016-01-06,7.30,7.37,7.22,7.35,490400,6.75
2016-01-05,7.35,7.37,7.27,7.30,657100,6.704
2016-01-04,7.28,7.38,7.24,7.36,488700,6.76
2016-01-01,7.28,7.28,7.28,7.28,000,6.686
2015-12-31,7.32,7.35,7.26,7.28,223700,6.686
2015-12-30,7.29,7.34,7.21,7.32,591300,6.723
2015-12-29,7.11,7.29,7.11,7.29,253500,6.695
2015-12-28,7.18,7.18,7.18,7.18,000,6.594
2015-12-25,7.18,7.18,7.18,7.18,000,6.594
2015-12-24,7.30,7.30,7.14,7.18,204700,6.594
2015-12-23,7.30,7.30,7.15,7.23,623200,6.64
2015-12-22,7.14,7.20,7.10,7.15,400100,6.567
2015-12-21,7.19,7.24,6.99,7.05,876300,6.475
2015-12-18,7.05,7.23,7.01,7.21,1059200,6.622
2015-12-17,7.11,7.13,6.99,7.11,1362800,6.53
2015-12-16,6.65,7.05,6.62,6.95,1330100,6.383
2015-12-15,6.86,6.99,6.64,6.66,1809600,6.117
2015-12-14,6.98,7.02,6.83,6.85,643600,6.291
2015-12-11,7.02,7.12,6.985,7.00,1234300,6.429
2015-12-10,7.08,7.10,6.96,7.00,1097300,6.429
2015-12-09,7.15,7.24,7.03,7.09,1761100,6.512
2015-12-08,6.96,7.18,6.84,7.04,1695500,6.466
2015-12-07,7.50,7.58,6.95,7.01,2405300,6.438
2015-12-04,7.56,7.59,7.10,7.17,2621100,6.585
2015-12-03,7.78,7.78,7.66,7.66,692800,7.035
2015-12-02,7.80,7.80,7.65,7.66,810700,7.035
2015-12-01,7.72,7.80,7.70,7.80,310700,7.164
2015-11-30,7.72,7.73,7.65,7.65,490500,7.026
2015-11-27,7.80,7.80,7.68,7.72,367400,7.09
2015-11-26,7.70,7.83,7.70,7.73,515500,7.099
2015-11-25,7.75,7.78,7.70,7.70,361200,7.072
2015-11-24,7.78,7.80,7.70,7.74,471000,7.109
2015-11-23,7.75,7.84,7.71,7.78,553900,7.145
2015-11-20,7.77,7.79,7.68,7.75,356300,7.118
2015-11-19,7.70,7.75,7.65,7.70,427100,7.072
2015-11-18,7.70,7.75,7.61,7.72,305500,7.09
2015-11-17,7.51,7.73,7.45,7.73,468400,7.099
2015-11-16,7.47,7.50,7.38,7.47,416300,6.861
2015-11-13,7.49,7.51,7.37,7.50,882600,6.888
2015-11-12,7.76,7.79,7.58,7.60,694200,6.98
2015-11-11,7.75,7.81,7.66,7.81,696400,7.173
2015-11-10,7.60,7.65,7.55,7.64,361000,7.017
2015-11-09,7.68,7.69,7.61,7.64,361200,7.017
2015-11-06,7.62,7.71,7.57,7.67,545600,7.044
2015-11-05,7.60,7.64,7.52,7.60,445300,6.98
2015-11-04,7.60,7.74,7.56,7.64,745800,7.017
2015-11-03,7.77,7.77,7.40,7.56,777800,6.943
2015-11-02,7.63,7.67,7.48,7.67,1348000,7.044
2015-10-30,7.19,7.45,7.09,7.44,1259400,6.833
2015-10-29,6.89,7.28,6.84,7.20,1587800,6.613
2015-10-28,6.99,7.01,6.74,6.78,1132100,6.227
2015-10-27,6.95,7.00,6.79,6.82,671600,6.264
2015-10-26,6.99,6.995,6.86,6.90,632500,6.337
2015-10-23,6.99,6.99,6.87,6.92,585200,6.355
2015-10-22,6.79,6.87,6.75,6.87,360300,6.31
2015-10-21,6.83,6.845,6.73,6.81,312300,6.254
2015-10-20,6.81,6.88,6.77,6.84,339000,6.282
2015-10-19,6.80,6.88,6.79,6.80,387100,6.245
2015-10-16,6.85,6.92,6.70,6.76,690100,6.209
2015-10-15,6.88,6.88,6.78,6.81,532900,6.254
2015-10-14,6.77,6.82,6.74,6.78,1213600,6.227
2015-10-13,6.86,6.90,6.76,6.79,484600,6.236
2015-10-12,6.88,6.92,6.79,6.79,339900,6.236
2015-10-09,7.03,7.05,6.83,6.85,711900,6.291
2015-10-08,7.02,7.11,6.93,6.94,484200,6.374
2015-10-07,6.98,7.00,6.88,6.97,617300,6.401
2015-10-06,7.12,7.16,6.95,6.97,512600,6.401
2015-10-05,6.88,7.11,6.85,7.10,324200,6.521
2015-10-02,6.89,6.90,6.79,6.83,383000,6.273
2015-10-01,6.79,6.93,6.79,6.92,664100,6.355
2015-09-30,6.77,6.85,6.74,6.79,690100,6.236
2015-09-29,6.68,6.81,6.65,6.77,749600,6.218
2015-09-28,6.70,6.78,6.66,6.73,644700,6.181
2015-09-25,6.96,7.00,6.84,6.85,642000,6.113
2015-09-24,6.92,7.03,6.83,6.93,661400,6.184
2015-09-23,6.85,6.91,6.75,6.91,564600,6.166
2015-09-22,6.79,6.89,6.77,6.87,442200,6.131
2015-09-21,6.65,6.72,6.65,6.71,816900,5.988
2015-09-18,6.69,6.75,6.66,6.74,1122300,6.015
2015-09-17,6.82,6.83,6.66,6.70,510600,5.979
2015-09-16,6.82,6.87,6.66,6.74,1134700,6.015
2015-09-15,6.93,6.94,6.72,6.75,608500,6.024
2015-09-14,6.86,6.94,6.81,6.92,685900,6.175
2015-09-11,6.95,6.95,6.80,6.84,680400,6.104
2015-09-10,6.76,6.95,6.66,6.92,1064400,6.175
2015-09-09,6.80,6.90,6.77,6.90,913200,6.157
2015-09-08,6.75,6.81,6.72,6.74,988100,6.015
2015-09-07,6.75,6.765,6.64,6.69,394000,5.97
2015-09-04,6.67,6.75,6.59,6.73,574800,6.006
2015-09-03,6.71,6.75,6.61,6.67,1286600,5.952
2015-09-02,6.65,6.70,6.62,6.67,984800,5.952
2015-09-01,6.77,6.80,6.66,6.70,760200,5.979
2015-08-31,6.80,6.86,6.71,6.76,1013100,6.032
2015-08-28,6.92,6.95,6.72,6.76,792600,6.032
2015-08-27,6.82,6.93,6.82,6.86,795600,6.122
2015-08-26,6.68,6.85,6.68,6.79,941300,6.059
2015-08-25,6.60,6.91,6.60,6.82,1828400,6.086
2015-08-24,6.65,6.785,6.60,6.64,930100,5.925
2015-08-21,6.78,6.86,6.75,6.84,731800,6.104
2015-08-20,6.87,6.93,6.80,6.85,1283300,6.113
2015-08-19,6.92,6.98,6.83,6.87,1195500,6.131
2015-08-18,6.86,6.94,6.83,6.90,1566200,6.157
2015-08-17,6.80,6.885,6.78,6.83,869300,6.095
2015-08-14,6.72,6.84,6.72,6.74,1280800,6.015
2015-08-13,6.56,6.72,6.54,6.72,1254900,5.997
2015-08-12,6.75,6.86,6.51,6.57,1524300,5.863
2015-08-11,6.44,6.59,6.44,6.55,970100,5.845
2015-08-10,6.36,6.48,6.36,6.41,713600,5.72
2015-08-07,6.45,6.49,6.32,6.35,421100,5.667
2015-08-06,6.44,6.58,6.44,6.49,865700,5.791
2015-08-05,6.40,6.47,6.36,6.44,354100,5.747
2015-08-04,6.37,6.45,6.35,6.43,752600,5.738
2015-08-03,6.25,6.44,6.25,6.37,735700,5.684
2015-07-31,6.07,6.25,6.06,6.21,1154200,5.542
2015-07-30,6.00,6.13,5.99,6.03,818000,5.381
2015-07-29,5.90,5.93,5.81,5.81,640200,5.185
2015-07-28,5.73,5.81,5.71,5.77,611700,5.149
2015-07-27,5.85,5.85,5.73,5.76,448100,5.14
2015-07-24,5.97,6.00,5.88,5.88,872600,5.247
2015-07-23,5.97,6.04,5.96,5.97,275200,5.327
2015-07-22,6.04,6.04,5.96,5.96,647400,5.319
2015-07-21,5.97,6.04,5.93,6.02,1402500,5.372
2015-07-20,6.03,6.03,5.91,5.92,369700,5.283
2015-07-17,6.01,6.04,5.96,6.01,302700,5.363
2015-07-16,6.05,6.05,5.98,6.00,497700,5.354
2015-07-15,6.00,6.05,6.00,6.03,611900,5.381
2015-07-14,6.05,6.05,5.97,5.99,258100,5.345
2015-07-13,6.02,6.045,5.98,5.98,191300,5.336
2015-07-10,6.01,6.03,5.96,6.02,347000,5.372
2015-07-09,5.91,5.95,5.80,5.94,363300,5.301
2015-07-08,5.99,6.05,5.94,5.94,334300,5.301
2015-07-07,6.07,6.18,6.00,6.03,648900,5.381
2015-07-06,5.95,6.04,5.92,6.01,293600,5.363
2015-07-03,6.07,6.09,5.94,5.98,262900,5.336
2015-07-02,6.10,6.15,6.04,6.05,380800,5.399
2015-07-01,6.03,6.13,6.02,6.06,535300,5.408
2015-06-30,5.87,6.07,5.85,6.00,953800,5.354
2015-06-29,6.00,6.00,5.85,5.88,535400,5.247
2015-06-26,6.12,6.16,6.02,6.02,659100,5.372
2015-06-25,6.14,6.235,6.10,6.17,465600,5.506
2015-06-24,6.14,6.16,6.07,6.09,344400,5.435
2015-06-23,6.16,6.21,6.10,6.10,523800,5.443
2015-06-22,6.20,6.20,6.07,6.10,215300,5.443
2015-06-19,6.20,6.35,6.14,6.16,1834200,5.497
2015-06-18,6.07,6.18,6.00,6.18,871200,5.515
2015-06-17,6.32,6.35,6.17,6.19,664300,5.524
2015-06-16,6.18,6.32,6.17,6.28,964900,5.604
2015-06-15,6.20,6.20,6.07,6.19,437700,5.524
2015-06-12,6.14,6.20,6.13,6.16,335200,5.497
2015-06-11,6.08,6.20,6.05,6.14,518600,5.479
2015-06-10,6.08,6.13,6.00,6.03,475700,5.381
2015-06-09,6.11,6.18,6.08,6.10,334700,5.443
2015-06-08,6.11,6.11,6.11,6.11,000,5.452
2015-06-05,6.01,6.16,6.00,6.11,578600,5.452
2015-06-04,6.25,6.29,5.98,6.00,1204000,5.354
2015-06-03,6.35,6.37,6.12,6.15,1170600,5.488
2015-06-02,6.53,6.55,6.38,6.39,538600,5.702
2015-06-01,6.42,6.60,6.42,6.45,743200,5.756
2015-05-29,6.45,6.59,6.41,6.41,4185900,5.72
2015-05-28,6.47,6.53,6.41,6.45,516800,5.756
2015-05-27,6.48,6.52,6.45,6.45,847600,5.756
2015-05-26,6.48,6.58,6.47,6.53,568600,5.827
2015-05-25,6.39,6.53,6.38,6.47,277500,5.774
2015-05-22,6.45,6.48,6.37,6.38,415000,5.693
2015-05-21,6.47,6.47,6.41,6.44,1038100,5.747
2015-05-20,6.49,6.545,6.41,6.45,606800,5.756
2015-05-19,6.53,6.55,6.47,6.47,322500,5.774
2015-05-18,6.53,6.54,6.465,6.50,356100,5.80
2015-05-15,6.50,6.56,6.44,6.51,1109800,5.809
2015-05-14,6.50,6.52,6.43,6.52,641400,5.818
2015-05-13,6.58,6.60,6.43,6.55,787800,5.845
2015-05-12,6.29,6.57,6.26,6.54,1235000,5.836
2015-05-11,6.39,6.42,6.22,6.29,445300,5.613
2015-05-08,6.30,6.40,6.26,6.29,811600,5.613
2015-05-07,6.32,6.55,6.32,6.41,1541500,5.72
2015-05-06,6.38,6.75,6.35,6.42,1699400,5.729
2015-05-05,6.12,6.48,6.12,6.36,1767100,5.675
2015-05-04,5.86,6.04,5.86,6.03,434000,5.381
2015-05-01,5.90,6.00,5.81,6.00,481200,5.354
2015-04-30,6.02,6.05,5.94,6.01,892100,5.363
2015-04-29,6.06,6.09,5.97,6.06,808900,5.408
2015-04-28,6.15,6.15,6.00,6.06,616500,5.408
2015-04-27,6.05,6.17,6.02,6.15,836700,5.488
2015-04-24,6.00,6.05,5.80,6.05,647300,5.399
2015-04-23,5.99,5.99,5.90,5.97,308200,5.327
2015-04-22,5.86,6.00,5.85,5.98,423200,5.336
2015-04-21,5.81,5.88,5.76,5.85,444500,5.22
2015-04-20,5.82,5.88,5.79,5.80,325100,5.176
2015-04-17,5.99,5.99,5.83,5.84,402000,5.211
2015-04-16,5.98,6.03,5.95,5.99,312500,5.345
2015-04-15,5.89,5.94,5.83,5.88,413700,5.247
2015-04-14,5.87,6.06,5.87,5.89,539500,5.256
2015-04-13,5.90,5.93,5.40,5.87,927900,5.238
2015-04-10,6.03,6.05,5.89,5.91,853400,5.274
2015-04-09,6.05,6.09,6.00,6.00,602000,5.354
2015-04-08,6.09,6.14,6.03,6.05,533400,5.399
2015-04-07,6.15,6.18,6.08,6.11,417100,5.452
2015-04-06,6.15,6.15,6.15,6.15,000,5.488
2015-04-03,6.15,6.15,6.15,6.15,000,5.488
2015-04-02,6.12,6.18,6.08,6.15,654400,5.488
2015-04-01,6.13,6.18,6.09,6.13,454700,5.47
2015-03-31,6.10,6.15,6.07,6.13,593100,5.47
2015-03-30,6.05,6.14,6.04,6.04,244300,5.39
2015-03-27,6.04,6.19,6.04,6.08,365900,5.426
2015-03-26,6.03,6.10,6.03,6.07,585800,5.417
2015-03-25,6.10,6.20,6.01,6.14,811300,5.479
2015-03-24,6.00,6.10,6.00,6.07,319700,5.417
2015-03-23,6.03,6.08,5.98,6.01,520400,5.363
2015-03-20,6.10,6.17,6.03,6.03,5595700,5.381
2015-03-19,6.02,6.18,6.02,6.10,556900,5.443
2015-03-18,6.14,6.16,6.03,6.08,484600,5.426
2015-03-17,6.17,6.20,6.05,6.13,399800,5.47
2015-03-16,6.07,6.25,5.95,6.18,753700,5.515
2015-03-13,6.00,6.14,6.00,6.02,431400,5.372
2015-03-12,5.98,6.05,5.94,6.01,717000,5.363
2015-03-11,5.97,6.00,5.78,5.98,478100,5.336
2015-03-10,5.85,6.05,5.84,6.00,1658400,5.354
2015-03-09,5.85,5.85,5.76,5.84,393000,5.211
2015-03-06,5.75,5.83,5.73,5.83,858600,5.203
2015-03-05,5.70,5.72,5.65,5.72,405100,5.104
2015-03-04,5.69,5.73,5.67,5.71,480800,5.095
2015-03-03,5.75,5.75,5.60,5.70,715100,5.087
2015-03-02,5.85,5.88,5.70,5.75,613500,5.131
2015-02-27,5.86,5.87,5.73,5.85,1740500,5.22
2015-02-26,5.85,5.89,5.78,5.88,2357100,5.247
2015-02-25,5.80,5.91,5.78,5.88,2102700,5.247
2015-02-24,5.68,5.84,5.64,5.80,3380300,5.176
2015-02-23,5.57,5.72,5.47,5.69,1284400,5.078
2015-02-20,5.40,5.62,5.40,5.59,2773900,4.988
2015-02-19,5.25,5.45,5.24,5.43,2249600,4.846
2015-02-18,5.05,5.21,5.01,5.15,2060300,4.596
2015-02-17,5.05,5.08,5.00,5.04,352400,4.498
2015-02-16,5.00,5.06,4.96,5.06,935700,4.515
2015-02-13,5.02,5.10,4.95,5.00,808400,4.462
2015-02-12,5.05,5.07,4.98,5.02,237100,4.48
2015-02-11,5.06,5.09,5.00,5.05,376600,4.506
2015-02-10,5.07,5.09,5.00,5.04,393100,4.498
2015-02-09,5.08,5.13,5.03,5.08,421400,4.533
2015-02-06,5.10,5.12,5.03,5.08,1089600,4.533
2015-02-05,5.04,5.12,5.02,5.09,1143200,4.542
2015-02-04,4.98,5.05,4.96,5.01,1501500,4.471
2015-02-03,4.99,5.05,4.90,4.96,387000,4.426
2015-02-02,4.99,5.00,4.90,4.90,310700,4.373
2015-01-30,5.09,5.09,4.98,5.00,695800,4.462
2015-01-29,4.85,5.15,4.80,5.09,1312400,4.542
2015-01-28,4.83,4.89,4.75,4.85,2799800,4.328
2015-01-27,4.50,4.60,4.44,4.48,437600,3.998
2015-01-26,4.50,4.50,4.50,4.50,000,4.016
2015-01-23,4.50,4.55,4.25,4.50,789000,4.016
2015-01-22,4.75,4.75,4.45,4.50,1351200,4.016
2015-01-21,4.73,4.78,4.65,4.70,1091900,4.194
2015-01-20,4.80,4.80,4.69,4.71,1091600,4.203
2015-01-19,4.88,4.90,4.77,4.80,559000,4.283
2015-01-16,4.84,4.85,4.80,4.82,476100,4.301
2015-01-15,4.87,4.89,4.82,4.85,547100,4.328
2015-01-14,4.90,4.90,4.87,4.87,377900,4.346
2015-01-13,4.90,4.91,4.84,4.89,197200,4.364
2015-01-12,4.88,4.89,4.85,4.89,341800,4.364
2015-01-09,4.84,4.91,4.84,4.91,139300,4.382
2015-01-08,4.70,4.91,4.70,4.91,195400,4.382
2015-01-07,4.74,4.79,4.66,4.79,91000,4.274
2015-01-06,4.72,4.74,4.66,4.74,115100,4.23
2015-01-05,4.72,4.73,4.65,4.72,127000,4.212
2015-01-02,4.74,4.79,4.70,4.73,33600,4.221
2015-01-01,4.74,4.74,4.74,4.74,000,4.23
2014-12-31,4.77,4.79,4.73,4.74,288600,4.23
2014-12-30,4.79,4.79,4.76,4.76,55200,4.248
2014-12-29,4.80,4.80,4.78,4.80,60100,4.283
2014-12-26,4.77,4.77,4.77,4.77,000,4.257
2014-12-25,4.77,4.77,4.77,4.77,000,4.257
2014-12-24,4.80,4.81,4.75,4.77,244800,4.257
2014-12-23,4.79,4.80,4.78,4.78,267400,4.266
2014-12-22,4.80,4.81,4.70,4.80,421700,4.283
2014-12-19,4.67,4.81,4.64,4.81,543400,4.292
2014-12-18,4.43,4.68,4.43,4.68,975800,4.176
2014-12-17,4.57,4.57,4.41,4.45,1055000,3.971
2014-12-16,4.60,4.62,4.55,4.55,451600,4.06
2014-12-15,4.58,4.66,4.55,4.62,442500,4.123
2014-12-12,4.66,4.67,4.58,4.61,279100,4.114
2014-12-11,4.68,4.70,4.56,4.65,1511900,4.15
2014-12-10,4.77,4.77,4.55,4.65,1679700,4.15
2014-12-09,4.92,4.96,4.76,4.78,1747300,4.266
2014-12-08,4.60,4.92,4.55,4.92,2719000,4.39
2014-12-05,4.98,4.99,4.71,4.74,16960600,4.23
