Date,Open,High,Low,Close,Volume,Adj Close
2017-01-10,0.005,0.005,0.005,0.005,000,0.005
2017-01-09,0.005,0.005,0.005,0.005,000,0.005
2017-01-06,0.005,0.005,0.005,0.005,1550000,0.005
2017-01-05,0.004,0.004,0.004,0.004,1250000,0.004
2017-01-04,0.004,0.004,0.004,0.004,000,0.004
2017-01-03,0.004,0.004,0.004,0.004,000,0.004
2017-01-02,0.004,0.004,0.004,0.004,000,0.004
2016-12-30,0.004,0.004,0.004,0.004,000,0.004
2016-12-29,0.004,0.004,0.004,0.004,1250000,0.004
2016-12-28,0.005,0.005,0.005,0.005,000,0.005
2016-12-27,0.005,0.005,0.005,0.005,000,0.005
2016-12-26,0.005,0.005,0.005,0.005,000,0.005
2016-12-23,0.005,0.005,0.005,0.005,000,0.005
2016-12-22,0.005,0.005,0.005,0.005,000,0.005
2016-12-21,0.005,0.005,0.005,0.005,000,0.005
2016-12-20,0.005,0.005,0.005,0.005,000,0.005
2016-12-19,0.005,0.005,0.005,0.005,000,0.005
2016-12-16,0.005,0.005,0.005,0.005,000,0.005
2016-12-15,0.005,0.005,0.005,0.005,000,0.005
2016-12-14,0.005,0.005,0.005,0.005,2090800,0.005
2016-12-13,0.005,0.005,0.005,0.005,9100,0.005
2016-12-12,0.006,0.006,0.006,0.006,000,0.006
2016-12-09,0.006,0.006,0.006,0.006,000,0.006
2016-12-08,0.006,0.006,0.006,0.006,000,0.006
2016-12-07,0.006,0.006,0.006,0.006,000,0.006
2016-12-06,0.006,0.006,0.006,0.006,000,0.006
2016-12-05,0.006,0.006,0.006,0.006,000,0.006
2016-12-02,0.006,0.006,0.006,0.006,000,0.006
2016-12-01,0.006,0.006,0.006,0.006,000,0.006
2016-11-30,0.006,0.006,0.006,0.006,1500000,0.006
2016-11-29,0.005,0.005,0.005,0.005,000,0.005
2016-11-28,0.005,0.005,0.005,0.005,000,0.005
2016-11-25,0.005,0.005,0.005,0.005,000,0.005
2016-11-24,0.005,0.005,0.005,0.005,000,0.005
2016-11-23,0.005,0.005,0.005,0.005,1500000,0.005
2016-11-22,0.005,0.005,0.005,0.005,4000000,0.005
2016-11-21,0.006,0.006,0.006,0.006,1750000,0.006
2016-11-18,0.005,0.005,0.005,0.005,342800,0.005
2016-11-17,0.004,0.004,0.004,0.004,000,0.004
2016-11-16,0.005,0.005,0.004,0.004,243800,0.004
2016-11-15,0.005,0.005,0.005,0.005,000,0.005
2016-11-14,0.005,0.005,0.005,0.005,000,0.005
2016-11-11,0.005,0.005,0.005,0.005,620200,0.005
2016-11-10,0.005,0.005,0.005,0.005,329000,0.005
2016-11-09,0.006,0.006,0.004,0.004,1370000,0.004
2016-11-08,0.005,0.005,0.005,0.005,000,0.005
2016-11-07,0.005,0.006,0.005,0.005,1300000,0.005
2016-11-04,0.005,0.005,0.005,0.005,000,0.005
2016-11-03,0.005,0.005,0.005,0.005,000,0.005
2016-11-02,0.005,0.005,0.005,0.005,000,0.005
2016-11-01,0.005,0.005,0.005,0.005,000,0.005
2016-10-31,0.005,0.005,0.005,0.005,000,0.005
2016-10-28,0.005,0.005,0.005,0.005,000,0.005
2016-10-27,0.005,0.005,0.005,0.005,3000000,0.005
2016-10-26,0.006,0.006,0.006,0.006,300000,0.006
2016-10-25,0.005,0.005,0.005,0.005,1800000,0.005
2016-10-24,0.005,0.005,0.005,0.005,915000,0.005
2016-10-21,0.005,0.006,0.005,0.006,102100,0.006
2016-10-20,0.005,0.005,0.005,0.005,000,0.005
2016-10-19,0.005,0.005,0.005,0.005,921300,0.005
2016-10-18,0.006,0.006,0.006,0.006,1018200,0.006
2016-10-17,0.006,0.006,0.006,0.006,000,0.006
2016-10-14,0.005,0.006,0.005,0.006,3040600,0.006
2016-10-13,0.004,0.004,0.004,0.004,3565000,0.004
2016-10-12,0.005,0.005,0.005,0.005,124000,0.005
2016-10-11,0.005,0.005,0.005,0.005,000,0.005
2016-10-10,0.005,0.005,0.005,0.005,169000,0.005
2016-10-07,0.005,0.005,0.005,0.005,000,0.005
2016-10-06,0.005,0.005,0.005,0.005,000,0.005
2016-10-05,0.005,0.005,0.005,0.005,000,0.005
2016-10-04,0.005,0.005,0.005,0.005,000,0.005
2016-10-03,0.005,0.005,0.005,0.005,000,0.005
2016-09-30,0.005,0.005,0.005,0.005,176000,0.005
2016-09-29,0.005,0.005,0.005,0.005,1006700,0.005
2016-09-28,0.005,0.005,0.005,0.005,1646800,0.005
2016-09-27,0.005,0.005,0.005,0.005,000,0.005
2016-09-26,0.005,0.005,0.005,0.005,888700,0.005
2016-09-23,0.005,0.005,0.004,0.005,4696900,0.005
2016-09-22,0.005,0.005,0.005,0.005,500000,0.005
2016-09-21,0.006,0.006,0.005,0.005,555000,0.005
2016-09-20,0.006,0.006,0.006,0.006,000,0.006
2016-09-19,0.006,0.006,0.006,0.006,000,0.006
2016-09-16,0.006,0.006,0.006,0.006,862100,0.006
2016-09-15,0.006,0.006,0.006,0.006,50800,0.006
2016-09-14,0.006,0.006,0.006,0.006,2171000,0.006
2016-09-13,0.006,0.006,0.006,0.006,15000,0.006
2016-09-12,0.006,0.006,0.006,0.006,628300,0.006
2016-09-09,0.006,0.006,0.006,0.006,1395000,0.006
2016-09-08,0.007,0.007,0.006,0.006,898600,0.006
2016-09-07,0.007,0.007,0.007,0.007,000,0.007
2016-09-06,0.007,0.007,0.007,0.007,000,0.007
2016-09-05,0.007,0.007,0.007,0.007,000,0.007
2016-09-02,0.007,0.007,0.007,0.007,2265000,0.007
2016-09-01,0.007,0.007,0.007,0.007,000,0.007
2016-08-31,0.007,0.007,0.007,0.007,574000,0.007
2016-08-30,0.008,0.008,0.008,0.008,000,0.008
2016-08-29,0.008,0.008,0.008,0.008,600000,0.008
2016-08-26,0.008,0.008,0.008,0.008,000,0.008
2016-08-25,0.008,0.008,0.008,0.008,000,0.008
2016-08-24,0.008,0.008,0.008,0.008,000,0.008
2016-08-23,0.008,0.008,0.008,0.008,684300,0.008
2016-08-22,0.01,0.01,0.009,0.009,5577500,0.009
2016-08-19,0.009,0.01,0.009,0.01,4141900,0.01
2016-08-18,0.01,0.01,0.01,0.01,100000,0.01
2016-08-17,0.01,0.01,0.01,0.01,724100,0.01
2016-08-16,0.009,0.01,0.009,0.01,1166700,0.01
2016-08-15,0.01,0.01,0.009,0.009,8077100,0.009
2016-08-12,0.01,0.01,0.01,0.01,200000,0.01
2016-08-11,0.009,0.009,0.009,0.009,307900,0.009
2016-08-10,0.009,0.009,0.009,0.009,500000,0.009
2016-08-09,0.01,0.01,0.009,0.009,2605000,0.009
2016-08-08,0.009,0.009,0.009,0.009,000,0.009
2016-08-05,0.009,0.009,0.009,0.009,210000,0.009
2016-08-04,0.009,0.009,0.008,0.008,3495100,0.008
2016-08-03,0.009,0.009,0.009,0.009,79200,0.009
2016-08-02,0.009,0.009,0.009,0.009,1620700,0.009
2016-08-01,0.009,0.009,0.009,0.009,800000,0.009
2016-07-29,0.009,0.009,0.009,0.009,000,0.009
2016-07-28,0.009,0.009,0.009,0.009,000,0.009
2016-07-27,0.009,0.009,0.009,0.009,1000000,0.009
2016-07-26,0.009,0.009,0.009,0.009,180000,0.009
2016-07-25,0.009,0.009,0.009,0.009,1079500,0.009
2016-07-22,0.009,0.009,0.009,0.009,1920400,0.009
2016-07-21,0.009,0.009,0.009,0.009,691100,0.009
2016-07-20,0.009,0.009,0.009,0.009,000,0.009
2016-07-19,0.009,0.01,0.009,0.009,3975000,0.009
2016-07-18,0.009,0.009,0.009,0.009,000,0.009
2016-07-15,0.009,0.009,0.009,0.009,000,0.009
2016-07-14,0.009,0.009,0.009,0.009,000,0.009
2016-07-13,0.009,0.009,0.009,0.009,190000,0.009
2016-07-12,0.009,0.009,0.009,0.009,4000000,0.009
2016-07-11,0.009,0.009,0.009,0.009,1587500,0.009
2016-07-08,0.009,0.009,0.009,0.009,200000,0.009
2016-07-07,0.009,0.009,0.009,0.009,100000,0.009
2016-07-06,0.009,0.009,0.009,0.009,1553200,0.009
2016-07-05,0.008,0.008,0.008,0.008,000,0.008
2016-07-04,0.008,0.008,0.008,0.008,000,0.008
2016-07-01,0.008,0.008,0.008,0.008,000,0.008
2016-06-30,0.008,0.008,0.008,0.008,562500,0.008
2016-06-29,0.008,0.008,0.008,0.008,62500,0.008
2016-06-28,0.008,0.008,0.008,0.008,388800,0.008
2016-06-27,0.008,0.008,0.007,0.007,109200,0.007
2016-06-24,0.008,0.008,0.007,0.007,2321100,0.007
2016-06-23,0.009,0.009,0.009,0.009,446700,0.009
2016-06-22,0.009,0.009,0.009,0.009,000,0.009
2016-06-21,0.009,0.009,0.009,0.009,000,0.009
2016-06-20,0.008,0.009,0.008,0.009,2045500,0.009
2016-06-17,0.008,0.008,0.008,0.008,000,0.008
2016-06-16,0.009,0.009,0.008,0.008,3565500,0.008
2016-06-15,0.009,0.009,0.009,0.009,2240600,0.009
2016-06-14,0.009,0.009,0.009,0.009,000,0.009
2016-06-13,0.009,0.009,0.009,0.009,000,0.009
2016-06-10,0.009,0.009,0.009,0.009,1000000,0.009
2016-06-09,0.01,0.01,0.009,0.009,1701000,0.009
2016-06-08,0.009,0.009,0.009,0.009,249900,0.009
2016-06-07,0.009,0.009,0.009,0.009,000,0.009
2016-06-06,0.009,0.009,0.009,0.009,222200,0.009
2016-06-03,0.009,0.009,0.008,0.008,177200,0.008
2016-06-02,0.007,0.007,0.007,0.007,000,0.007
2016-06-01,0.009,0.009,0.007,0.007,2774800,0.007
2016-05-31,0.009,0.009,0.009,0.009,1045100,0.009
2016-05-30,0.008,0.008,0.008,0.008,20700,0.008
2016-05-27,0.009,0.009,0.008,0.009,1048700,0.009
2016-05-26,0.009,0.009,0.008,0.009,1359900,0.009
2016-05-25,0.009,0.009,0.007,0.007,2279900,0.007
2016-05-24,0.009,0.009,0.009,0.009,000,0.009
2016-05-23,0.007,0.009,0.007,0.009,890000,0.009
2016-05-20,0.008,0.009,0.008,0.009,1534000,0.009
2016-05-19,0.009,0.009,0.009,0.009,2106100,0.009
2016-05-18,0.009,0.009,0.009,0.009,150000,0.009
2016-05-17,0.009,0.009,0.009,0.009,000,0.009
2016-05-16,0.009,0.009,0.009,0.009,611000,0.009
2016-05-13,0.009,0.009,0.009,0.009,1026600,0.009
2016-05-12,0.008,0.009,0.008,0.009,330000,0.009
2016-05-11,0.009,0.01,0.009,0.01,1120000,0.01
2016-05-10,0.007,0.01,0.007,0.009,2520000,0.009
2016-05-09,0.009,0.009,0.008,0.008,3703900,0.008
2016-05-06,0.009,0.01,0.009,0.01,621400,0.01
2016-05-05,0.009,0.009,0.009,0.009,3052500,0.009
2016-05-04,0.008,0.009,0.008,0.009,178500,0.009
2016-05-03,0.008,0.008,0.008,0.008,000,0.008
2016-05-02,0.008,0.008,0.008,0.008,000,0.008
2016-04-29,0.008,0.008,0.008,0.008,410000,0.008
2016-04-28,0.008,0.008,0.008,0.008,1140000,0.008
2016-04-27,0.008,0.008,0.008,0.008,500000,0.008
2016-04-26,0.008,0.008,0.008,0.008,370000,0.008
2016-04-25,0.007,0.007,0.007,0.007,000,0.007
2016-04-22,0.007,0.007,0.007,0.007,000,0.007
2016-04-21,0.009,0.009,0.007,0.007,1280000,0.007
2016-04-20,0.009,0.009,0.009,0.009,772200,0.009
2016-04-19,0.009,0.009,0.009,0.009,000,0.009
2016-04-18,0.009,0.009,0.009,0.009,000,0.009
2016-04-15,0.009,0.009,0.009,0.009,325000,0.009
2016-04-14,0.009,0.009,0.009,0.009,540000,0.009
2016-04-13,0.009,0.009,0.009,0.009,000,0.009
2016-04-12,0.009,0.009,0.009,0.009,730000,0.009
2016-04-11,0.009,0.009,0.009,0.009,000,0.009
2016-04-08,0.008,0.009,0.008,0.009,3789400,0.009
2016-04-07,0.007,0.007,0.007,0.007,500000,0.007
2016-04-06,0.006,0.007,0.006,0.007,592800,0.007
2016-04-05,0.005,0.005,0.005,0.005,67300,0.005
2016-04-04,0.006,0.006,0.006,0.006,1500000,0.006
2016-04-01,0.005,0.005,0.005,0.005,000,0.005
2016-03-31,0.005,0.005,0.005,0.005,90000,0.005
2016-03-30,0.005,0.005,0.005,0.005,188900,0.005
2016-03-29,0.005,0.006,0.005,0.006,733500,0.006
2016-03-28,0.006,0.006,0.006,0.006,000,0.006
2016-03-25,0.006,0.006,0.006,0.006,000,0.006
2016-03-24,0.006,0.006,0.006,0.006,000,0.006
2016-03-23,0.006,0.006,0.006,0.006,000,0.006
2016-03-22,0.006,0.006,0.006,0.006,000,0.006
2016-03-21,0.006,0.006,0.006,0.006,000,0.006
2016-03-18,0.006,0.006,0.006,0.006,000,0.006
2016-03-17,0.006,0.006,0.006,0.006,000,0.006
2016-03-16,0.006,0.006,0.006,0.006,000,0.006
2016-03-15,0.005,0.006,0.005,0.006,3010200,0.006
2016-03-14,0.005,0.005,0.005,0.005,000,0.005
2016-03-11,0.005,0.005,0.005,0.005,000,0.005
2016-03-10,0.005,0.005,0.005,0.005,000,0.005
2016-03-09,0.005,0.005,0.005,0.005,000,0.005
2016-03-08,0.005,0.005,0.005,0.005,000,0.005
2016-03-07,0.005,0.005,0.005,0.005,000,0.005
2016-03-04,0.005,0.005,0.005,0.005,000,0.005
2016-03-03,0.005,0.005,0.005,0.005,000,0.005
2016-03-02,0.005,0.005,0.005,0.005,000,0.005
2016-03-01,0.005,0.005,0.005,0.005,000,0.005
2016-02-29,0.005,0.005,0.005,0.005,000,0.005
2016-02-26,0.005,0.005,0.005,0.005,000,0.005
2016-02-25,0.005,0.005,0.005,0.005,000,0.005
2016-02-24,0.005,0.005,0.005,0.005,000,0.005
2016-02-23,0.005,0.005,0.005,0.005,000,0.005
2016-02-22,0.005,0.005,0.005,0.005,000,0.005
2016-02-19,0.005,0.005,0.005,0.005,1292400,0.005
2016-02-18,0.006,0.006,0.006,0.006,000,0.006
2016-02-17,0.006,0.006,0.006,0.006,000,0.006
2016-02-16,0.006,0.006,0.006,0.006,000,0.006
2016-02-15,0.006,0.006,0.006,0.006,000,0.006
2016-02-12,0.006,0.006,0.006,0.006,000,0.006
2016-02-11,0.006,0.006,0.006,0.006,000,0.006
2016-02-10,0.006,0.006,0.006,0.006,000,0.006
2016-02-09,0.006,0.006,0.006,0.006,000,0.006
2016-02-08,0.006,0.006,0.006,0.006,000,0.006
2016-02-05,0.006,0.006,0.006,0.006,000,0.006
2016-02-04,0.006,0.006,0.006,0.006,000,0.006
2016-02-03,0.006,0.006,0.006,0.006,000,0.006
2016-02-02,0.006,0.006,0.006,0.006,000,0.006
2016-02-01,0.006,0.006,0.006,0.006,000,0.006
2016-01-29,0.006,0.006,0.006,0.006,000,0.006
2016-01-28,0.006,0.006,0.006,0.006,000,0.006
2016-01-27,0.006,0.006,0.006,0.006,000,0.006
2016-01-26,0.006,0.006,0.006,0.006,000,0.006
2016-01-25,0.006,0.006,0.006,0.006,918500,0.006
2016-01-22,0.005,0.006,0.004,0.006,3810000,0.006
2016-01-21,0.005,0.005,0.005,0.005,000,0.005
2016-01-20,0.005,0.005,0.005,0.005,000,0.005
2016-01-19,0.005,0.005,0.005,0.005,250000,0.005
2016-01-18,0.005,0.005,0.005,0.005,000,0.005
2016-01-15,0.005,0.005,0.005,0.005,000,0.005
2016-01-14,0.005,0.005,0.005,0.005,000,0.005
2016-01-13,0.005,0.005,0.005,0.005,000,0.005
2016-01-12,0.005,0.005,0.005,0.005,000,0.005
2016-01-11,0.005,0.005,0.005,0.005,000,0.005
2016-01-08,0.005,0.005,0.005,0.005,250000,0.005
2016-01-07,0.005,0.005,0.005,0.005,1218500,0.005
2016-01-06,0.005,0.005,0.005,0.005,000,0.005
2016-01-05,0.005,0.005,0.005,0.005,000,0.005
2016-01-04,0.005,0.005,0.005,0.005,000,0.005
2016-01-01,0.005,0.005,0.005,0.005,000,0.005
2015-12-31,0.005,0.005,0.005,0.005,000,0.005
2015-12-30,0.005,0.005,0.005,0.005,000,0.005
2015-12-29,0.005,0.005,0.005,0.005,1000000,0.005
2015-12-28,0.004,0.004,0.004,0.004,000,0.004
2015-12-25,0.004,0.004,0.004,0.004,000,0.004
2015-12-24,0.004,0.004,0.004,0.004,400000,0.004
2015-12-23,0.006,0.006,0.006,0.006,000,0.006
2015-12-22,0.005,0.006,0.005,0.006,3200000,0.006
2015-12-21,0.005,0.005,0.005,0.005,000,0.005
2015-12-18,0.005,0.005,0.005,0.005,000,0.005
2015-12-17,0.004,0.005,0.004,0.005,1405000,0.005
2015-12-16,0.006,0.006,0.006,0.006,000,0.006
2015-12-15,0.006,0.006,0.006,0.006,000,0.006
2015-12-14,0.006,0.006,0.006,0.006,861700,0.006
2015-12-11,0.005,0.005,0.005,0.005,297500,0.005
2015-12-10,0.004,0.005,0.004,0.005,1100000,0.005
2015-12-09,0.005,0.005,0.005,0.005,000,0.005
2015-12-08,0.005,0.005,0.005,0.005,000,0.005
2015-12-07,0.005,0.005,0.005,0.005,2100000,0.005
2015-12-04,0.006,0.006,0.006,0.006,000,0.006
2015-12-03,0.006,0.006,0.006,0.006,982000,0.006
2015-12-02,0.006,0.006,0.006,0.006,000,0.006
2015-12-01,0.005,0.006,0.005,0.006,102000,0.006
2015-11-30,0.005,0.005,0.005,0.005,000,0.005
2015-11-27,0.005,0.005,0.004,0.005,1681800,0.005
2015-11-26,0.004,0.004,0.004,0.004,457000,0.004
2015-11-25,0.005,0.005,0.005,0.005,757000,0.005
2015-11-24,0.004,0.004,0.004,0.004,420000,0.004
2015-11-23,0.005,0.005,0.005,0.005,000,0.005
2015-11-20,0.005,0.005,0.005,0.005,000,0.005
2015-11-19,0.005,0.005,0.005,0.005,000,0.005
2015-11-18,0.005,0.005,0.005,0.005,000,0.005
2015-11-17,0.005,0.005,0.005,0.005,1000000,0.005
2015-11-16,0.005,0.005,0.005,0.005,1100000,0.005
2015-11-13,0.005,0.005,0.005,0.005,566000,0.005
2015-11-12,0.004,0.004,0.004,0.004,000,0.004
2015-11-11,0.004,0.004,0.004,0.004,2743200,0.004
2015-11-10,0.004,0.004,0.004,0.004,000,0.004
2015-11-09,0.004,0.004,0.004,0.004,550000,0.004
2015-11-06,0.00367,0.00367,0.00367,0.00367,000,0.00367
2015-11-05,0.00367,0.00367,0.00367,0.00367,1555900,0.00367
2015-11-04,0.00275,0.00367,0.00275,0.00367,872700,0.00367
2015-11-03,0.00367,0.00367,0.00275,0.00275,2649800,0.00275
2015-11-02,0.00275,0.00275,0.00275,0.00275,000,0.00275
2015-10-30,0.00275,0.00275,0.00275,0.00275,000,0.00275
2015-10-29,0.00275,0.00275,0.00275,0.00275,000,0.00275
2015-10-28,0.00275,0.00275,0.00275,0.00275,46900,0.00275
2015-10-27,0.00275,0.00275,0.00275,0.00275,000,0.00275
2015-10-26,0.00275,0.00275,0.00275,0.00275,000,0.00275
2015-10-23,0.00275,0.00275,0.00275,0.00275,000,0.00275
2015-10-22,0.00275,0.00275,0.00275,0.00275,000,0.00275
2015-10-21,0.00275,0.00275,0.00275,0.00275,000,0.00275
2015-10-20,0.00275,0.00275,0.00275,0.00275,000,0.00275
2015-10-19,0.00275,0.00275,0.00275,0.00275,000,0.00275
2015-10-16,0.00275,0.00275,0.00275,0.00275,000,0.00275
2015-10-15,0.00275,0.00275,0.00275,0.00275,000,0.00275
2015-10-14,0.00275,0.00275,0.00275,0.00275,000,0.00275
2015-10-13,0.00275,0.00275,0.00275,0.00275,000,0.00275
2015-10-12,0.00275,0.00275,0.00275,0.00275,000,0.00275
2015-10-09,0.00275,0.00275,0.00275,0.00275,000,0.00275
2015-10-08,0.00275,0.00275,0.00275,0.00275,000,0.00275
2015-10-07,0.00275,0.00275,0.00275,0.00275,000,0.00275
2015-10-06,0.00275,0.00275,0.00275,0.00275,000,0.00275
2015-10-05,0.00275,0.00275,0.00275,0.00275,000,0.00275
2015-10-02,0.00275,0.00275,0.00275,0.00275,000,0.00275
2015-10-01,0.00275,0.00275,0.00275,0.00275,000,0.00275
2015-09-30,0.00275,0.00275,0.00275,0.00275,000,0.00275
2015-09-29,0.00275,0.00275,0.00275,0.00275,000,0.00275
2015-09-28,0.00275,0.00275,0.00275,0.00275,000,0.00275
2015-09-25,0.00275,0.00275,0.00275,0.00275,000,0.00275
2015-09-24,0.00275,0.00275,0.00275,0.00275,000,0.00275
2015-09-23,0.00275,0.00275,0.00275,0.00275,000,0.00275
2015-09-22,0.00275,0.00275,0.00275,0.00275,000,0.00275
2015-09-21,0.00275,0.00275,0.00275,0.00275,272700,0.00275
2015-09-18,0.00367,0.00367,0.00367,0.00367,000,0.00367
2015-09-17,0.00367,0.00367,0.00367,0.00367,000,0.00367
2015-09-16,0.00367,0.00367,0.00367,0.00367,000,0.00367
2015-09-15,0.00367,0.00367,0.00367,0.00367,000,0.00367
2015-09-14,0.00367,0.00367,0.00367,0.00367,272700,0.00367
2015-09-11,0.00275,0.00275,0.00275,0.00275,000,0.00275
2015-09-10,0.00275,0.00275,0.00275,0.00275,000,0.00275
2015-09-09,0.00275,0.00275,0.00275,0.00275,272700,0.00275
2015-09-08,0.00367,0.00367,0.00367,0.00367,000,0.00367
2015-09-07,0.00367,0.00367,0.00367,0.00367,000,0.00367
2015-09-04,0.00367,0.00367,0.00367,0.00367,545400,0.00367
2015-09-03,0.00458,0.00458,0.00458,0.00458,000,0.00458
2015-09-02,0.00458,0.00458,0.00458,0.00458,000,0.00458
2015-09-01,0.00458,0.00458,0.00458,0.00458,000,0.00458
2015-08-31,0.00367,0.00458,0.00367,0.00458,1636300,0.00458
2015-08-28,0.00367,0.00367,0.00367,0.00367,000,0.00367
2015-08-27,0.00367,0.00367,0.00367,0.00367,803100,0.00367
2015-08-26,0.00367,0.00367,0.00367,0.00367,287700,0.00367
2015-08-25,0.00367,0.00367,0.00367,0.00367,110100,0.00367
2015-08-24,0.00367,0.00367,0.00367,0.00367,181800,0.00367
2015-08-21,0.00367,0.00367,0.00275,0.00275,181800,0.00275
2015-08-20,0.00367,0.00367,0.00367,0.00367,000,0.00367
2015-08-19,0.00367,0.00367,0.00367,0.00367,000,0.00367
2015-08-18,0.00367,0.00367,0.00367,0.00367,000,0.00367
2015-08-17,0.00367,0.00367,0.00367,0.00367,000,0.00367
2015-08-14,0.00367,0.00367,0.00367,0.00367,272200,0.00367
2015-08-13,0.00367,0.00367,0.00367,0.00367,000,0.00367
2015-08-12,0.00367,0.00367,0.00367,0.00367,000,0.00367
2015-08-11,0.00367,0.00367,0.00367,0.00367,000,0.00367
2015-08-10,0.00367,0.00367,0.00367,0.00367,000,0.00367
2015-08-07,0.00367,0.00367,0.00367,0.00367,000,0.00367
2015-08-06,0.00367,0.00367,0.00367,0.00367,000,0.00367
2015-08-05,0.00367,0.00367,0.00367,0.00367,000,0.00367
2015-08-04,0.00367,0.00367,0.00367,0.00367,000,0.00367
2015-08-03,0.00367,0.00367,0.00367,0.00367,000,0.00367
2015-07-31,0.00367,0.00367,0.00367,0.00367,000,0.00367
2015-07-30,0.00367,0.00367,0.00367,0.00367,000,0.00367
2015-07-29,0.00367,0.00367,0.00367,0.00367,000,0.00367
2015-07-28,0.00367,0.00367,0.00367,0.00367,234500,0.00367
2015-07-27,0.00367,0.00367,0.00367,0.00367,2126500,0.00367
2015-07-24,0.00367,0.00367,0.00367,0.00367,4255300,0.00367
2015-07-23,0.00367,0.00367,0.00367,0.00367,000,0.00367
2015-07-22,0.00367,0.00367,0.00367,0.00367,000,0.00367
2015-07-21,0.00367,0.00367,0.00367,0.00367,709000,0.00367
2015-07-20,0.00275,0.00275,0.00275,0.00275,000,0.00275
2015-07-17,0.00275,0.00275,0.00275,0.00275,000,0.00275
2015-07-16,0.00275,0.00275,0.00275,0.00275,000,0.00275
2015-07-15,0.00275,0.00275,0.00275,0.00275,000,0.00275
2015-07-14,0.00275,0.00275,0.00275,0.00275,000,0.00275
2015-07-13,0.00275,0.00275,0.00275,0.00275,000,0.00275
2015-07-10,0.00275,0.00275,0.00275,0.00275,000,0.00275
2015-07-09,0.00275,0.00275,0.00275,0.00275,000,0.00275
2015-07-08,0.00275,0.00275,0.00275,0.00275,000,0.00275
2015-07-07,0.00275,0.00275,0.00275,0.00275,000,0.00275
2015-07-06,0.00275,0.00275,0.00275,0.00275,000,0.00275
2015-07-03,0.00275,0.00275,0.00275,0.00275,000,0.00275
2015-07-02,0.00275,0.00275,0.00275,0.00275,000,0.00275
2015-07-01,0.00275,0.00275,0.00275,0.00275,000,0.00275
2015-06-30,0.00275,0.00275,0.00275,0.00275,000,0.00275
2015-06-29,0.00275,0.00275,0.00275,0.00275,763600,0.00275
2015-06-26,0.00367,0.00367,0.00367,0.00367,1065400,0.00367
2015-06-25,0.00367,0.00367,0.00367,0.00367,6025400,0.00367
2015-06-24,0.00458,0.00458,0.00458,0.00458,81800,0.00458
2015-06-23,0.00367,0.00367,0.00367,0.00367,929000,0.00367
2015-06-22,0.00458,0.00458,0.00458,0.00458,000,0.00458
2015-06-19,0.00458,0.00458,0.00458,0.00458,000,0.00458
2015-06-18,0.00458,0.00458,0.00458,0.00458,2618100,0.00458
2015-06-17,0.00458,0.00458,0.00458,0.00458,000,0.00458
2015-06-16,0.00458,0.00458,0.00458,0.00458,000,0.00458
2015-06-15,0.00458,0.00458,0.00458,0.00458,763600,0.00458
2015-06-12,0.00367,0.00367,0.00367,0.00367,000,0.00367
2015-06-11,0.00367,0.00367,0.00367,0.00367,000,0.00367
2015-06-10,0.00367,0.00367,0.00367,0.00367,000,0.00367
2015-06-09,0.00458,0.00458,0.00367,0.00367,545400,0.00367
2015-06-08,0.00458,0.00458,0.00458,0.00458,000,0.00458
2015-06-05,0.00458,0.00458,0.00458,0.00458,000,0.00458
2015-06-04,0.00458,0.00458,0.00458,0.00458,000,0.00458
2015-06-03,0.00458,0.00458,0.00458,0.00458,000,0.00458
2015-06-02,0.00458,0.00458,0.00458,0.00458,000,0.00458
2015-06-01,0.00458,0.00458,0.00458,0.00458,000,0.00458
2015-05-29,0.00458,0.00458,0.00458,0.00458,000,0.00458
2015-05-28,0.00458,0.00458,0.00458,0.00458,163600,0.00458
2015-05-27,0.00367,0.00367,0.00367,0.00367,000,0.00367
2015-05-26,0.00367,0.00367,0.00367,0.00367,000,0.00367
2015-05-25,0.00367,0.00367,0.00367,0.00367,577700,0.00367
2015-05-22,0.00367,0.00367,0.00367,0.00367,2181800,0.00367
2015-05-21,0.00367,0.00367,0.00367,0.00367,000,0.00367
2015-05-20,0.00367,0.00367,0.00367,0.00367,000,0.00367
2015-05-19,0.00367,0.00367,0.00367,0.00367,000,0.00367
2015-05-18,0.00367,0.00367,0.00367,0.00367,000,0.00367
2015-05-15,0.00367,0.00367,0.00367,0.00367,32200,0.00367
2015-05-14,0.00367,0.00367,0.00367,0.00367,000,0.00367
2015-05-13,0.00458,0.00458,0.00367,0.00367,1990200,0.00367
2015-05-12,0.00458,0.00458,0.00458,0.00458,000,0.00458
2015-05-11,0.00458,0.00458,0.00458,0.00458,120000,0.00458
2015-05-08,0.00458,0.00458,0.00458,0.00458,654500,0.00458
2015-05-07,0.00458,0.00458,0.00458,0.00458,000,0.00458
2015-05-06,0.00458,0.00458,0.00458,0.00458,000,0.00458
2015-05-05,0.00458,0.00458,0.00458,0.00458,000,0.00458
2015-05-04,0.00458,0.00458,0.00458,0.00458,1059600,0.00458
2015-05-01,0.00458,0.00458,0.00458,0.00458,3044900,0.00458
2015-04-30,0.00458,0.00458,0.00458,0.00458,1090900,0.00458
2015-04-29,0.00458,0.00458,0.00458,0.00458,000,0.00458
2015-04-28,0.00458,0.00458,0.00458,0.00458,327200,0.00458
2015-04-27,0.00367,0.00367,0.00367,0.00367,605800,0.00367
2015-04-24,0.00367,0.00367,0.00367,0.00367,000,0.00367
2015-04-23,0.00367,0.00367,0.00367,0.00367,000,0.00367
2015-04-22,0.00367,0.00367,0.00367,0.00367,000,0.00367
2015-04-21,0.00367,0.00367,0.00367,0.00367,000,0.00367
2015-04-20,0.00367,0.00367,0.00367,0.00367,000,0.00367
2015-04-17,0.00367,0.00367,0.00367,0.00367,901800,0.00367
2015-04-16,0.00367,0.00367,0.00367,0.00367,000,0.00367
2015-04-15,0.00367,0.00367,0.00367,0.00367,109000,0.00367
2015-04-14,0.00367,0.00367,0.00367,0.00367,000,0.00367
2015-04-13,0.00367,0.00367,0.00367,0.00367,829000,0.00367
2015-04-10,0.00458,0.00458,0.00458,0.00458,305400,0.00458
2015-04-09,0.00458,0.00458,0.00458,0.00458,000,0.00458
2015-04-08,0.00458,0.00458,0.00458,0.00458,000,0.00458
2015-04-07,0.00458,0.00458,0.00458,0.00458,000,0.00458
2015-04-06,0.00458,0.00458,0.00458,0.00458,000,0.00458
2015-04-03,0.00458,0.00458,0.00458,0.00458,000,0.00458
2015-04-02,0.00458,0.00458,0.00458,0.00458,327200,0.00458
2015-04-01,0.00458,0.0055,0.00458,0.00458,5468100,0.00458
2015-03-31,0.00367,0.00367,0.00367,0.00367,545400,0.00367
2015-03-30,0.00458,0.00458,0.00458,0.00458,000,0.00458
2015-03-27,0.00367,0.00458,0.00367,0.00458,11132300,0.00458
2015-03-26,0.00275,0.00275,0.00275,0.00275,436300,0.00275
2015-03-25,0.00367,0.00367,0.00367,0.00367,000,0.00367
2015-03-24,0.00367,0.00367,0.00367,0.00367,000,0.00367
2015-03-23,0.00367,0.00367,0.00367,0.00367,327200,0.00367
2015-03-20,0.00275,0.00275,0.00275,0.00275,000,0.00275
2015-03-19,0.00275,0.00275,0.00275,0.00275,000,0.00275
2015-03-18,0.00275,0.00275,0.00275,0.00275,000,0.00275
2015-03-17,0.00275,0.00275,0.00275,0.00275,000,0.00275
2015-03-16,0.00275,0.00275,0.00275,0.00275,000,0.00275
2015-03-13,0.00275,0.00275,0.00275,0.00275,000,0.00275
2015-03-12,0.00275,0.00275,0.00275,0.00275,000,0.00275
2015-03-11,0.00275,0.00275,0.00275,0.00275,000,0.00275
2015-03-10,0.00275,0.00275,0.00275,0.00275,000,0.00275
2015-03-09,0.00275,0.00275,0.00275,0.00275,000,0.00275
2015-03-06,0.00275,0.00275,0.00275,0.00275,000,0.00275
2015-03-05,0.00275,0.00275,0.00275,0.00275,000,0.00275
2015-03-04,0.00275,0.00275,0.00275,0.00275,000,0.00275
2015-03-03,0.00275,0.00275,0.00275,0.00275,2018100,0.00275
2015-03-02,0.00367,0.00367,0.00367,0.00367,000,0.00367
2015-02-27,0.00367,0.00367,0.00367,0.00367,000,0.00367
2015-02-26,0.00367,0.00367,0.00367,0.00367,000,0.00367
2015-02-25,0.00367,0.00367,0.00367,0.00367,000,0.00367
2015-02-24,0.00367,0.00367,0.00367,0.00367,1363600,0.00367
2015-02-23,0.00367,0.00367,0.00367,0.00367,000,0.00367
2015-02-20,0.00367,0.00367,0.00367,0.00367,000,0.00367
2015-02-19,0.00367,0.00367,0.00367,0.00367,1363600,0.00367
2015-02-18,0.00367,0.00367,0.00367,0.00367,000,0.00367
2015-02-17,0.00367,0.00367,0.00367,0.00367,000,0.00367
2015-02-16,0.00367,0.00367,0.00367,0.00367,000,0.00367
2015-02-13,0.00367,0.00367,0.00367,0.00367,000,0.00367
2015-02-12,0.00367,0.00367,0.00367,0.00367,000,0.00367
2015-02-11,0.00367,0.00367,0.00367,0.00367,000,0.00367
2015-02-10,0.00367,0.00367,0.00367,0.00367,000,0.00367
2015-02-09,0.00367,0.00367,0.00367,0.00367,1090900,0.00367
2015-02-06,0.00367,0.00367,0.00367,0.00367,1090900,0.00367
2015-02-05,0.00367,0.00367,0.00367,0.00367,000,0.00367
2015-02-04,0.00367,0.00367,0.00367,0.00367,000,0.00367
2015-02-03,0.00367,0.00367,0.00367,0.00367,54500,0.00367
2015-02-02,0.00367,0.00367,0.00367,0.00367,000,0.00367
2015-01-30,0.00367,0.00367,0.00367,0.00367,000,0.00367
2015-01-29,0.00367,0.00367,0.00367,0.00367,000,0.00367
2015-01-28,0.00367,0.00367,0.00367,0.00367,000,0.00367
2015-01-27,0.00367,0.00367,0.00367,0.00367,000,0.00367
2015-01-26,0.00367,0.00367,0.00367,0.00367,000,0.00367
2015-01-23,0.00367,0.00367,0.00367,0.00367,000,0.00367
2015-01-22,0.00367,0.00367,0.00367,0.00367,000,0.00367
2015-01-21,0.00367,0.00367,0.00367,0.00367,2400000,0.00367
2015-01-20,0.00458,0.00458,0.00458,0.00458,000,0.00458
2015-01-19,0.00458,0.00458,0.00458,0.00458,545400,0.00458
2015-01-16,0.00458,0.00458,0.00367,0.00367,2181800,0.00367
2015-01-15,0.00367,0.00367,0.00367,0.00367,820800,0.00367
2015-01-14,0.00367,0.00367,0.00367,0.00367,000,0.00367
2015-01-13,0.00367,0.00367,0.00367,0.00367,1090900,0.00367
2015-01-12,0.00367,0.00367,0.00367,0.00367,000,0.00367
2015-01-09,0.00367,0.00367,0.00367,0.00367,651800,0.00367
2015-01-08,0.00367,0.00367,0.00367,0.00367,000,0.00367
2015-01-07,0.00367,0.00367,0.00367,0.00367,000,0.00367
2015-01-06,0.00367,0.00367,0.00367,0.00367,85100,0.00367
2015-01-05,0.00367,0.00367,0.00367,0.00367,1150800,0.00367
2015-01-02,0.00367,0.00367,0.00367,0.00367,000,0.00367
2015-01-01,0.00367,0.00367,0.00367,0.00367,000,0.00367
2014-12-31,0.00367,0.00367,0.00367,0.00367,3490900,0.00367
2014-12-30,0.00367,0.00367,0.00367,0.00367,1085400,0.00367
2014-12-29,0.00367,0.00367,0.00367,0.00367,000,0.00367
2014-12-26,0.00367,0.00367,0.00367,0.00367,000,0.00367
2014-12-25,0.00367,0.00367,0.00367,0.00367,000,0.00367
2014-12-24,0.00367,0.00367,0.00367,0.00367,000,0.00367
2014-12-23,0.00367,0.00367,0.00367,0.00367,000,0.00367
2014-12-22,0.00367,0.00367,0.00367,0.00367,363200,0.00367
2014-12-19,0.00275,0.00275,0.00275,0.00275,000,0.00275
2014-12-18,0.00275,0.00275,0.00275,0.00275,000,0.00275
2014-12-17,0.00275,0.00275,0.00275,0.00275,000,0.00275
2014-12-16,0.00275,0.00275,0.00275,0.00275,218100,0.00275
2014-12-15,0.00275,0.00275,0.00275,0.00275,000,0.00275
2014-12-12,0.00275,0.00275,0.00275,0.00275,000,0.00275
2014-12-11,0.00275,0.00275,0.00275,0.00275,381800,0.00275
2014-12-10,0.00275,0.00275,0.00275,0.00275,2890900,0.00275
2014-12-09,0.00275,0.00275,0.00275,0.00275,000,0.00275
2014-12-08,0.00275,0.00275,0.00275,0.00275,000,0.00275
2014-12-05,0.00367,0.00367,0.00275,0.00275,1652700,0.00275
2014-12-04,0.00275,0.00275,0.00275,0.00275,000,0.00275
2014-12-03,0.00275,0.00275,0.00275,0.00275,000,0.00275
2014-12-02,0.00275,0.00275,0.00275,0.00275,000,0.00275
2014-12-01,0.00275,0.00275,0.00275,0.00275,800000,0.00275
2014-11-28,0.00275,0.00275,0.00275,0.00275,000,0.00275
2014-11-27,0.00275,0.00275,0.00275,0.00275,000,0.00275
2014-11-26,0.00275,0.00275,0.00275,0.00275,9737500,0.00275
2014-11-25,0.00275,0.00275,0.00275,0.00275,000,0.00275
2014-11-24,0.00275,0.00275,0.00275,0.00275,1581800,0.00275
2014-11-21,0.00275,0.00275,0.00275,0.00275,000,0.00275
2014-11-20,0.00275,0.00275,0.00275,0.00275,1527200,0.00275
2014-11-19,0.00275,0.00275,0.00275,0.00275,1718000,0.00275
2014-11-18,0.00275,0.00275,0.00275,0.00275,553000,0.00275
2014-11-17,0.00275,0.00367,0.00275,0.00367,11281000,0.00367
2014-11-14,0.00275,0.00275,0.00275,0.00275,000,0.00275
2014-11-13,0.00275,0.00275,0.00275,0.00275,000,0.00275
2014-11-12,0.00275,0.00275,0.00275,0.00275,000,0.00275
2014-11-11,0.00275,0.00275,0.00275,0.00275,1090900,0.00275
2014-11-10,0.00275,0.00275,0.00275,0.00275,2957100,0.00275
2014-11-07,0.00183,0.00183,0.00183,0.00183,000,0.00183
2014-11-06,0.00183,0.00183,0.00183,0.00183,000,0.00183
2014-11-05,0.00183,0.00183,0.00183,0.00183,000,0.00183
2014-11-04,0.00183,0.00183,0.00183,0.00183,000,0.00183
2014-11-03,0.00183,0.00183,0.00183,0.00183,000,0.00183
2014-10-31,0.00183,0.00183,0.00183,0.00183,865100,0.00183
2014-10-30,0.00275,0.00275,0.00275,0.00275,242500,0.00275
2014-10-29,0.00275,0.00275,0.00275,0.00275,000,0.00275
2014-10-28,0.00092,0.00275,0.00092,0.00275,4625400,0.00275
2014-10-27,0.00183,0.00183,0.00183,0.00183,6474500,0.00183
2014-10-24,0.00275,0.00275,0.00183,0.00183,436300,0.00183
2014-10-23,0.00183,0.00275,0.00183,0.00275,4374500,0.00275
2014-10-22,0.00275,0.00275,0.00275,0.00275,000,0.00275
2014-10-21,0.00275,0.00275,0.00275,0.00275,000,0.00275
2014-10-20,0.00275,0.00275,0.00275,0.00275,1090900,0.00275
2014-10-17,0.00275,0.00275,0.00275,0.00275,000,0.00275
2014-10-16,0.00275,0.00275,0.00275,0.00275,000,0.00275
2014-10-15,0.00275,0.00275,0.00275,0.00275,792700,0.00275
2014-10-14,0.00275,0.00275,0.00275,0.00275,1547900,0.00275
2014-10-13,0.00275,0.00275,0.00275,0.00275,000,0.00275
2014-10-10,0.00275,0.00275,0.00275,0.00275,000,0.00275
2014-10-09,0.00275,0.00275,0.00275,0.00275,3958200,0.00275
2014-10-08,0.00367,0.00367,0.00367,0.00367,000,0.00367
2014-10-07,0.00367,0.00367,0.00367,0.00367,000,0.00367
2014-10-06,0.00275,0.00367,0.00275,0.00367,1168300,0.00367
2014-10-03,0.00367,0.00367,0.00367,0.00367,422100,0.00367
2014-10-02,0.00458,0.00458,0.00458,0.00458,000,0.00458
2014-10-01,0.00458,0.00458,0.00458,0.00458,000,0.00458
2014-09-30,0.00458,0.00458,0.00458,0.00458,218100,0.00458
2014-09-29,0.00367,0.00367,0.00367,0.00367,000,0.00367
2014-09-26,0.00367,0.00367,0.00367,0.00367,123200,0.00367
2014-09-25,0.00367,0.00367,0.00367,0.00367,000,0.00367
2014-09-24,0.00367,0.00367,0.00367,0.00367,000,0.00367
2014-09-23,0.00367,0.00367,0.00367,0.00367,000,0.00367
2014-09-22,0.00367,0.00367,0.00367,0.00367,000,0.00367
2014-09-19,0.00367,0.00367,0.00367,0.00367,000,0.00367
2014-09-18,0.00367,0.00367,0.00367,0.00367,000,0.00367
2014-09-17,0.00367,0.00367,0.00367,0.00367,681800,0.00367
2014-09-16,0.00367,0.00367,0.00367,0.00367,000,0.00367
2014-09-15,0.00367,0.00367,0.00367,0.00367,610900,0.00367
2014-09-12,0.00367,0.00367,0.00367,0.00367,1990900,0.00367
2014-09-11,0.00367,0.00367,0.00367,0.00367,000,0.00367
2014-09-10,0.00367,0.00367,0.00367,0.00367,000,0.00367
2014-09-09,0.00367,0.00367,0.00367,0.00367,000,0.00367
2014-09-08,0.00367,0.00367,0.00367,0.00367,000,0.00367
2014-09-05,0.00458,0.00458,0.00367,0.00367,1486900,0.00367
2014-09-04,0.00458,0.00458,0.00458,0.00458,1519600,0.00458
2014-09-03,0.0055,0.0055,0.0055,0.0055,000,0.0055
2014-09-02,0.0055,0.0055,0.0055,0.0055,000,0.0055
2014-09-01,0.0055,0.0055,0.0055,0.0055,000,0.0055
2014-08-29,0.0055,0.0055,0.0055,0.0055,381800,0.0055
2014-08-28,0.0055,0.0055,0.0055,0.0055,256300,0.0055
2014-08-27,0.00642,0.00642,0.00642,0.00642,000,0.00642
2014-08-26,0.00642,0.00642,0.00642,0.00642,000,0.00642
2014-08-25,0.00642,0.00642,0.00642,0.00642,000,0.00642
2014-08-22,0.00642,0.00642,0.00642,0.00642,261800,0.00642
2014-08-21,0.00733,0.00733,0.00733,0.00733,000,0.00733
2014-08-20,0.00733,0.00733,0.00733,0.00733,000,0.00733
2014-08-19,0.00733,0.00733,0.00733,0.00733,480000,0.00733
2014-08-18,0.00825,0.00825,0.00825,0.00825,000,0.00825
2014-08-15,0.00733,0.00825,0.00733,0.00825,854100,0.00825
2014-08-14,0.00733,0.00733,0.00733,0.00733,632300,0.00733
2014-08-13,0.00733,0.00733,0.00733,0.00733,1418100,0.00733
2014-08-12,0.00733,0.00733,0.00733,0.00733,000,0.00733
2014-08-11,0.00733,0.00733,0.00733,0.00733,000,0.00733
2014-08-08,0.00733,0.00733,0.00733,0.00733,245400,0.00733
2014-08-07,0.00733,0.00733,0.00733,0.00733,000,0.00733
2014-08-06,0.00733,0.00733,0.00733,0.00733,1394100,0.00733
2014-08-05,0.00733,0.00733,0.00733,0.00733,000,0.00733
2014-08-04,0.00733,0.00733,0.00733,0.00733,136300,0.00733
2014-08-01,0.00733,0.00733,0.00733,0.00733,109000,0.00733
2014-07-31,0.00642,0.00642,0.00642,0.00642,000,0.00642
2014-07-30,0.00642,0.00642,0.00642,0.00642,000,0.00642
2014-07-29,0.00642,0.00642,0.00642,0.00642,000,0.00642
2014-07-28,0.0055,0.00642,0.0055,0.00642,392700,0.00642
2014-07-25,0.00642,0.00642,0.00642,0.00642,174500,0.00642
2014-07-24,0.00642,0.00917,0.00642,0.00642,8547200,0.00642
2014-07-23,0.0055,0.00642,0.0055,0.00642,4898100,0.00642
2014-07-22,0.00642,0.00642,0.00642,0.00642,000,0.00642
2014-07-21,0.00642,0.00642,0.00642,0.00642,109000,0.00642
2014-07-18,0.0055,0.0055,0.0055,0.0055,327200,0.0055
2014-07-17,0.00458,0.00458,0.00458,0.00458,186800,0.00458
2014-07-16,0.00458,0.00458,0.00458,0.00458,000,0.00458
2014-07-15,0.00458,0.00458,0.00458,0.00458,000,0.00458
2014-07-14,0.00458,0.00458,0.00458,0.00458,000,0.00458
2014-07-11,0.00458,0.00458,0.00458,0.00458,2400000,0.00458
2014-07-10,0.00275,0.00275,0.00275,0.00275,000,0.00275
2014-07-09,0.00275,0.00275,0.00275,0.00275,000,0.00275
2014-07-08,0.00275,0.00275,0.00275,0.00275,000,0.00275
2014-07-07,0.00275,0.00275,0.00275,0.00275,000,0.00275
2014-07-04,0.00275,0.00275,0.00275,0.00275,000,0.00275
2014-07-03,0.00275,0.00275,0.00275,0.00275,000,0.00275
2014-07-02,0.00275,0.00275,0.00275,0.00275,000,0.00275
2014-07-01,0.00275,0.00275,0.00275,0.00275,000,0.00275
2014-06-30,0.00458,0.00458,0.00275,0.00275,327200,0.00275
2014-06-27,0.00458,0.00458,0.00458,0.00458,185400,0.00458
2014-06-26,0.00458,0.00458,0.00458,0.00458,000,0.00458
2014-06-25,0.00458,0.00458,0.00458,0.00458,185400,0.00458
2014-06-24,0.0055,0.0055,0.0055,0.0055,109000,0.0055
2014-06-23,0.00458,0.00458,0.00458,0.00458,000,0.00458
2014-06-20,0.00458,0.00458,0.00458,0.00458,000,0.00458
2014-06-19,0.00458,0.00458,0.00458,0.00458,000,0.00458
2014-06-18,0.00458,0.00458,0.00458,0.00458,10900,0.00458
2014-06-17,0.0055,0.0055,0.0055,0.0055,000,0.0055
2014-06-16,0.0055,0.0055,0.0055,0.0055,436300,0.0055
2014-06-13,0.00458,0.00458,0.00458,0.00458,61000,0.00458
2014-06-12,0.00458,0.00458,0.00458,0.00458,155800,0.00458
2014-06-11,0.0055,0.0055,0.0055,0.0055,000,0.0055
2014-06-10,0.0055,0.0055,0.0055,0.0055,000,0.0055
2014-06-09,0.0055,0.0055,0.0055,0.0055,000,0.0055
2014-06-06,0.0055,0.0055,0.0055,0.0055,000,0.0055
2014-06-05,0.0055,0.0055,0.0055,0.0055,000,0.0055
2014-06-04,0.0055,0.0055,0.0055,0.0055,000,0.0055
2014-06-03,0.0055,0.0055,0.0055,0.0055,000,0.0055
2014-06-02,0.0055,0.0055,0.0055,0.0055,000,0.0055
2014-05-30,0.0055,0.0055,0.0055,0.0055,000,0.0055
2014-05-29,0.0055,0.0055,0.0055,0.0055,000,0.0055
2014-05-28,0.0055,0.0055,0.0055,0.0055,000,0.0055
2014-05-27,0.0055,0.0055,0.0055,0.0055,000,0.0055
2014-05-26,0.0055,0.0055,0.0055,0.0055,000,0.0055
2014-05-23,0.0055,0.0055,0.0055,0.0055,261800,0.0055
2014-05-22,0.00458,0.00458,0.00458,0.00458,835200,0.00458
2014-05-21,0.00458,0.00458,0.00458,0.00458,311600,0.00458
2014-05-20,0.00458,0.00458,0.00458,0.00458,000,0.00458
2014-05-19,0.00458,0.00458,0.00458,0.00458,28400,0.00458
2014-05-16,0.0055,0.0055,0.0055,0.0055,000,0.0055
2014-05-15,0.0055,0.0055,0.0055,0.0055,545400,0.0055
2014-05-14,0.00458,0.00642,0.00458,0.00458,1656200,0.00458
2014-05-13,0.0055,0.0055,0.0055,0.0055,1173500,0.0055
2014-05-12,0.00642,0.00642,0.0055,0.00642,649000,0.00642
2014-05-09,0.00642,0.00642,0.00642,0.00642,234500,0.00642
2014-05-08,0.00825,0.00825,0.0055,0.0055,1752000,0.0055
2014-05-07,0.00642,0.00825,0.00642,0.00825,1935200,0.00825
2014-05-06,0.00458,0.00642,0.00458,0.0055,7189200,0.0055
2014-05-05,0.00458,0.00458,0.00367,0.00367,394000,0.00367
2014-05-02,0.00458,0.00458,0.00458,0.00458,109000,0.00458
2014-05-01,0.00458,0.00458,0.00458,0.00458,4254500,0.00458
2014-04-30,0.00825,0.00825,0.00825,0.00825,000,0.00825
2014-04-29,0.00825,0.00825,0.00825,0.00825,54500,0.00825
2014-04-28,0.01008,0.01008,0.01008,0.01008,000,0.01008
2014-04-25,0.01008,0.01008,0.01008,0.01008,000,0.01008
2014-04-24,0.01008,0.01008,0.01008,0.01008,000,0.01008
2014-04-23,0.00733,0.01008,0.00733,0.01008,1226800,0.01008
2014-04-22,0.00458,0.00733,0.00458,0.00642,1682500,0.00642
2014-04-21,0.00367,0.00367,0.00367,0.00367,000,0.00367
2014-04-18,0.00367,0.00367,0.00367,0.00367,000,0.00367
2014-04-17,0.00367,0.00367,0.00367,0.00367,1042900,0.00367
2014-04-16,0.00275,0.00275,0.00275,0.00275,000,0.00275
2014-04-15,0.00275,0.00275,0.00275,0.00275,000,0.00275
2014-04-14,0.00275,0.00275,0.00275,0.00275,000,0.00275
2014-04-11,0.00275,0.00275,0.00275,0.00275,000,0.00275
2014-04-10,0.00275,0.00275,0.00275,0.00275,16300,0.00275
2014-04-09,0.00367,0.00367,0.00367,0.00367,000,0.00367
2014-04-08,0.00367,0.00367,0.00367,0.00367,000,0.00367
2014-04-07,0.00367,0.00367,0.00367,0.00367,000,0.00367
2014-04-04,0.00367,0.00367,0.00367,0.00367,000,0.00367
2014-04-03,0.00367,0.00367,0.00367,0.00367,136300,0.00367
2014-04-02,0.00275,0.00275,0.00275,0.00275,000,0.00275
2014-04-01,0.00275,0.00275,0.00275,0.00275,000,0.00275
2014-03-31,0.00275,0.00275,0.00275,0.00275,000,0.00275
2014-03-28,0.00275,0.00275,0.00275,0.00275,000,0.00275
2014-03-27,0.00275,0.00275,0.00275,0.00275,000,0.00275
2014-03-26,0.00275,0.00275,0.00275,0.00275,000,0.00275
2014-03-25,0.00275,0.00275,0.00275,0.00275,000,0.00275
2014-03-24,0.00275,0.00275,0.00275,0.00275,564000,0.00275
2014-03-21,0.00275,0.00275,0.00275,0.00275,654500,0.00275
2014-03-20,0.00275,0.00275,0.00275,0.00275,000,0.00275
2014-03-19,0.00275,0.00275,0.00275,0.00275,54500,0.00275
2014-03-18,0.00367,0.00367,0.00367,0.00367,327200,0.00367
2014-03-17,0.00367,0.00367,0.00367,0.00367,000,0.00367
2014-03-14,0.00367,0.00367,0.00367,0.00367,000,0.00367
2014-03-13,0.00367,0.00367,0.00367,0.00367,000,0.00367
2014-03-12,0.00367,0.00367,0.00367,0.00367,000,0.00367
2014-03-11,0.00367,0.00367,0.00367,0.00367,4300,0.00367
2014-03-10,0.00367,0.00367,0.00367,0.00367,000,0.00367
2014-03-07,0.00367,0.00367,0.00367,0.00367,1010100,0.00367
2014-03-06,0.00275,0.00275,0.00275,0.00275,54500,0.00275
2014-03-05,0.00458,0.00458,0.00458,0.00458,000,0.00458
2014-03-04,0.00458,0.00458,0.00458,0.00458,000,0.00458
2014-03-03,0.00458,0.00458,0.00458,0.00458,000,0.00458
2014-02-28,0.00458,0.00458,0.00458,0.00458,000,0.00458
2014-02-27,0.00458,0.00458,0.00458,0.00458,000,0.00458
2014-02-26,0.00458,0.00458,0.00458,0.00458,54500,0.00458
2014-02-25,0.00458,0.00458,0.00458,0.00458,000,0.00458
2014-02-24,0.00458,0.00458,0.00458,0.00458,54500,0.00458
2014-02-21,0.00275,0.00275,0.00275,0.00275,000,0.00275
2014-02-20,0.00275,0.00275,0.00275,0.00275,000,0.00275
2014-02-19,0.00367,0.00367,0.00275,0.00275,654500,0.00275
2014-02-18,0.00367,0.00367,0.00367,0.00367,000,0.00367
2014-02-17,0.00367,0.00367,0.00367,0.00367,000,0.00367
2014-02-14,0.00367,0.00367,0.00367,0.00367,000,0.00367
2014-02-13,0.00367,0.00367,0.00367,0.00367,000,0.00367
2014-02-12,0.00367,0.00367,0.00367,0.00367,000,0.00367
2014-02-11,0.00367,0.00367,0.00367,0.00367,000,0.00367
2014-02-10,0.00367,0.00367,0.00367,0.00367,000,0.00367
2014-02-07,0.00367,0.00367,0.00367,0.00367,000,0.00367
2014-02-06,0.00367,0.00367,0.00367,0.00367,000,0.00367
2014-02-05,0.00367,0.00367,0.00367,0.00367,000,0.00367
2014-02-04,0.00367,0.00367,0.00367,0.00367,654500,0.00367
2014-02-03,0.00458,0.00458,0.00458,0.00458,000,0.00458
2014-01-31,0.00458,0.00458,0.00458,0.00458,000,0.00458
2014-01-30,0.00458,0.00458,0.00458,0.00458,000,0.00458
2014-01-29,0.00458,0.00458,0.00458,0.00458,000,0.00458
2014-01-28,0.00458,0.00458,0.00458,0.00458,000,0.00458
2014-01-27,0.00458,0.00458,0.00458,0.00458,000,0.00458
2014-01-24,0.00458,0.00458,0.00458,0.00458,000,0.00458
2014-01-23,0.00458,0.00458,0.00458,0.00458,000,0.00458
2014-01-22,0.00458,0.00458,0.00458,0.00458,000,0.00458
2014-01-21,0.00458,0.00458,0.00458,0.00458,000,0.00458
2014-01-20,0.00458,0.00458,0.00458,0.00458,000,0.00458
2014-01-17,0.00458,0.00458,0.00458,0.00458,000,0.00458
2014-01-16,0.00458,0.00458,0.00458,0.00458,000,0.00458
2014-01-15,0.00458,0.00458,0.00458,0.00458,000,0.00458
2014-01-14,0.00458,0.00458,0.00458,0.00458,000,0.00458
2014-01-13,0.00458,0.00458,0.00458,0.00458,000,0.00458
2014-01-10,0.00458,0.00458,0.00458,0.00458,000,0.00458
2014-01-09,0.00458,0.00458,0.00458,0.00458,000,0.00458
2014-01-08,0.00458,0.00458,0.00458,0.00458,000,0.00458
2014-01-07,0.00458,0.00458,0.00458,0.00458,000,0.00458
2014-01-06,0.00458,0.00458,0.00458,0.00458,000,0.00458
2014-01-03,0.00458,0.00458,0.00458,0.00458,000,0.00458
2014-01-02,0.00458,0.00458,0.00458,0.00458,000,0.00458
2014-01-01,0.00458,0.00458,0.00458,0.00458,000,0.00458
2013-12-31,0.00458,0.00458,0.00458,0.00458,000,0.00458
2013-12-30,0.00458,0.00458,0.00458,0.00458,000,0.00458
2013-12-27,0.00458,0.00458,0.00458,0.00458,000,0.00458
2013-12-26,0.00458,0.00458,0.00458,0.00458,000,0.00458
2013-12-25,0.00458,0.00458,0.00458,0.00458,000,0.00458
2013-12-24,0.00458,0.00458,0.00458,0.00458,000,0.00458
2013-12-23,0.00458,0.00458,0.00458,0.00458,000,0.00458
2013-12-20,0.00458,0.00458,0.00458,0.00458,109000,0.00458
2013-12-19,0.00367,0.00367,0.00367,0.00367,000,0.00367
2013-12-18,0.00367,0.00367,0.00367,0.00367,000,0.00367
2013-12-17,0.00367,0.00367,0.00367,0.00367,272700,0.00367
2013-12-16,0.00367,0.00367,0.00367,0.00367,1444400,0.00367
2013-12-13,0.00458,0.00458,0.00458,0.00458,654500,0.00458
2013-12-12,0.0055,0.0055,0.0055,0.0055,000,0.0055
2013-12-11,0.0055,0.0055,0.0055,0.0055,000,0.0055
2013-12-10,0.0055,0.0055,0.0055,0.0055,000,0.0055
2013-12-09,0.0055,0.0055,0.0055,0.0055,000,0.0055
2013-12-06,0.0055,0.0055,0.0055,0.0055,000,0.0055
2013-12-05,0.0055,0.0055,0.0055,0.0055,000,0.0055
2013-12-04,0.0055,0.0055,0.0055,0.0055,000,0.0055
2013-12-03,0.0055,0.0055,0.0055,0.0055,000,0.0055
2013-12-02,0.0055,0.0055,0.0055,0.0055,000,0.0055
2013-11-29,0.0055,0.0055,0.0055,0.0055,000,0.0055
2013-11-28,0.0055,0.0055,0.0055,0.0055,430900,0.0055
2013-11-27,0.00642,0.00642,0.00642,0.00642,87200,0.00642
2013-11-26,0.0055,0.0055,0.0055,0.0055,000,0.0055
2013-11-25,0.0055,0.0055,0.0055,0.0055,000,0.0055
2013-11-22,0.0055,0.0055,0.0055,0.0055,000,0.0055
2013-11-21,0.0055,0.0055,0.0055,0.0055,218100,0.0055
2013-11-20,0.0055,0.0055,0.0055,0.0055,000,0.0055
2013-11-19,0.0055,0.0055,0.0055,0.0055,000,0.0055
2013-11-18,0.0055,0.0055,0.0055,0.0055,000,0.0055
2013-11-15,0.0055,0.0055,0.0055,0.0055,660000,0.0055
2013-11-14,0.0055,0.0055,0.0055,0.0055,000,0.0055
2013-11-13,0.0055,0.0055,0.0055,0.0055,000,0.0055
2013-11-12,0.0055,0.0055,0.0055,0.0055,000,0.0055
2013-11-11,0.0055,0.0055,0.0055,0.0055,000,0.0055
2013-11-08,0.0055,0.0055,0.0055,0.0055,000,0.0055
2013-11-07,0.0055,0.0055,0.0055,0.0055,000,0.0055
2013-11-06,0.0055,0.0055,0.0055,0.0055,000,0.0055
2013-11-05,0.0055,0.0055,0.0055,0.0055,000,0.0055
2013-11-04,0.0055,0.0055,0.0055,0.0055,000,0.0055
2013-11-01,0.0055,0.0055,0.0055,0.0055,000,0.0055
2013-10-31,0.0055,0.0055,0.0055,0.0055,000,0.0055
2013-10-30,0.0055,0.0055,0.0055,0.0055,000,0.0055
2013-10-29,0.0055,0.0055,0.0055,0.0055,000,0.0055
2013-10-28,0.00458,0.0055,0.00458,0.0055,818100,0.0055
2013-10-25,0.00458,0.00458,0.00458,0.00458,000,0.00458
2013-10-24,0.00458,0.00458,0.00458,0.00458,000,0.00458
2013-10-23,0.00458,0.00458,0.00458,0.00458,000,0.00458
2013-10-22,0.00367,0.00458,0.00367,0.00458,1538100,0.00458
2013-10-21,0.00458,0.00458,0.00458,0.00458,000,0.00458
2013-10-18,0.00458,0.00458,0.00458,0.00458,125400,0.00458
2013-10-17,0.00367,0.00367,0.00367,0.00367,350800,0.00367
2013-10-16,0.00367,0.00367,0.00367,0.00367,1138200,0.00367
2013-10-15,0.00275,0.00275,0.00275,0.00275,545400,0.00275
2013-10-14,0.00367,0.00367,0.00367,0.00367,545400,0.00367
2013-10-11,0.00367,0.00367,0.00367,0.00367,954500,0.00367
2013-10-10,0.00367,0.00367,0.00367,0.00367,720000,0.00367
2013-10-09,0.00367,0.00367,0.00367,0.00367,1090900,0.00367
2013-10-08,0.00642,0.00642,0.00642,0.00642,000,0.00642
2013-10-07,0.00642,0.00642,0.00642,0.00642,000,0.00642
2013-10-04,0.00642,0.00642,0.00642,0.00642,000,0.00642
2013-10-03,0.00642,0.00642,0.00642,0.00642,000,0.00642
2013-10-02,0.00642,0.00642,0.00642,0.00642,000,0.00642
2013-10-01,0.00642,0.00642,0.00642,0.00642,000,0.00642
2013-09-30,0.00642,0.00642,0.00642,0.00642,000,0.00642
2013-09-27,0.00642,0.00642,0.00642,0.00642,000,0.00642
2013-09-26,0.0055,0.00642,0.0055,0.00642,879900,0.00642
2013-09-25,0.00458,0.00458,0.00458,0.00458,000,0.00458
2013-09-24,0.00458,0.00458,0.00458,0.00458,1636300,0.00458
2013-09-23,0.00458,0.00458,0.00458,0.00458,000,0.00458
2013-09-20,0.00458,0.00458,0.00458,0.00458,000,0.00458
2013-09-19,0.00458,0.00458,0.00458,0.00458,1090900,0.00458
2013-09-18,0.00458,0.00458,0.00367,0.00367,1854500,0.00367
2013-09-17,0.00458,0.00458,0.00458,0.00458,000,0.00458
2013-09-16,0.00458,0.00458,0.00458,0.00458,545400,0.00458
2013-09-13,0.00458,0.00458,0.00458,0.00458,000,0.00458
2013-09-12,0.00458,0.00458,0.00458,0.00458,000,0.00458
2013-09-11,0.00458,0.00458,0.00458,0.00458,000,0.00458
2013-09-10,0.00458,0.00458,0.00458,0.00458,000,0.00458
2013-09-09,0.0055,0.0055,0.00458,0.00458,705800,0.00458
2013-09-06,0.0055,0.0055,0.0055,0.0055,681800,0.0055
2013-09-05,0.00367,0.00458,0.00367,0.00458,703600,0.00458
2013-09-04,0.00367,0.00367,0.00367,0.00367,000,0.00367
2013-09-03,0.00367,0.00367,0.00367,0.00367,000,0.00367
2013-09-02,0.00367,0.00367,0.00367,0.00367,000,0.00367
2013-08-30,0.00367,0.00367,0.00367,0.00367,141800,0.00367
2013-08-29,0.00275,0.00275,0.00275,0.00275,000,0.00275
2013-08-28,0.00275,0.00275,0.00275,0.00275,000,0.00275
2013-08-27,0.00275,0.00275,0.00275,0.00275,000,0.00275
2013-08-26,0.00275,0.00275,0.00275,0.00275,000,0.00275
2013-08-23,0.00275,0.00275,0.00275,0.00275,000,0.00275
2013-08-22,0.00275,0.00275,0.00275,0.00275,000,0.00275
2013-08-21,0.00275,0.00275,0.00275,0.00275,000,0.00275
2013-08-20,0.00275,0.00275,0.00275,0.00275,1818100,0.00275
2013-08-19,0.00367,0.00367,0.00367,0.00367,000,0.00367
2013-08-16,0.00367,0.00367,0.00367,0.00367,000,0.00367
2013-08-15,0.00367,0.00367,0.00367,0.00367,000,0.00367
2013-08-14,0.00367,0.00367,0.00367,0.00367,000,0.00367
2013-08-13,0.00367,0.00367,0.00367,0.00367,000,0.00367
2013-08-12,0.00367,0.00367,0.00367,0.00367,000,0.00367
2013-08-09,0.00367,0.00367,0.00367,0.00367,000,0.00367
2013-08-08,0.00367,0.00367,0.00367,0.00367,000,0.00367
2013-08-07,0.00367,0.00367,0.00367,0.00367,000,0.00367
2013-08-06,0.00367,0.00367,0.00367,0.00367,1581800,0.00367
2013-08-05,0.00275,0.00275,0.00275,0.00275,000,0.00275
2013-08-02,0.00275,0.00275,0.00275,0.00275,3593900,0.00275
2013-08-01,0.00275,0.00275,0.00275,0.00275,3818100,0.00275
2013-07-31,0.00275,0.00275,0.00275,0.00275,1090900,0.00275
2013-07-30,0.00275,0.00275,0.00275,0.00275,000,0.00275
2013-07-29,0.00275,0.00275,0.00275,0.00275,000,0.00275
2013-07-26,0.00275,0.00275,0.00275,0.00275,000,0.00275
2013-07-25,0.00275,0.00275,0.00275,0.00275,000,0.00275
2013-07-24,0.00275,0.00275,0.00275,0.00275,000,0.00275
2013-07-23,0.00275,0.00275,0.00275,0.00275,000,0.00275
2013-07-22,0.00275,0.00275,0.00275,0.00275,000,0.00275
2013-07-19,0.00275,0.00275,0.00275,0.00275,000,0.00275
2013-07-18,0.00275,0.00275,0.00275,0.00275,000,0.00275
2013-07-17,0.00275,0.00275,0.00275,0.00275,000,0.00275
2013-07-16,0.00275,0.00275,0.00275,0.00275,000,0.00275
2013-07-15,0.00275,0.00275,0.00275,0.00275,000,0.00275
2013-07-12,0.00275,0.00275,0.00275,0.00275,235600,0.00275
2013-07-11,0.00275,0.00275,0.00275,0.00275,000,0.00275
2013-07-10,0.00275,0.00275,0.00275,0.00275,000,0.00275
2013-07-09,0.00275,0.00275,0.00275,0.00275,000,0.00275
2013-07-08,0.00275,0.00275,0.00275,0.00275,000,0.00275
2013-07-05,0.00275,0.00275,0.00275,0.00275,000,0.00275
2013-07-04,0.00275,0.00275,0.00275,0.00275,000,0.00275
2013-07-03,0.00275,0.00275,0.00275,0.00275,218100,0.00275
2013-07-02,0.00458,0.00458,0.00458,0.00458,000,0.00458
2013-07-01,0.00458,0.00458,0.00458,0.00458,109000,0.00458
2013-06-28,0.00367,0.00367,0.00367,0.00367,000,0.00367
2013-06-27,0.00367,0.00367,0.00367,0.00367,000,0.00367
2013-06-26,0.00367,0.00367,0.00367,0.00367,000,0.00367
2013-06-25,0.00367,0.00367,0.00367,0.00367,000,0.00367
2013-06-24,0.00367,0.00367,0.00367,0.00367,000,0.00367
2013-06-21,0.00367,0.00367,0.00367,0.00367,000,0.00367
2013-06-20,0.00367,0.00367,0.00367,0.00367,000,0.00367
2013-06-19,0.00367,0.00367,0.00367,0.00367,000,0.00367
2013-06-18,0.00367,0.00367,0.00367,0.00367,000,0.00367
2013-06-17,0.00367,0.00367,0.00367,0.00367,000,0.00367
2013-06-14,0.00367,0.00367,0.00367,0.00367,310900,0.00367
2013-06-13,0.00367,0.00367,0.00367,0.00367,000,0.00367
2013-06-12,0.00367,0.00367,0.00367,0.00367,000,0.00367
2013-06-11,0.00367,0.00367,0.00367,0.00367,84300,0.00367
2013-06-10,0.00458,0.00458,0.00458,0.00458,000,0.00458
2013-06-07,0.00458,0.00458,0.00458,0.00458,000,0.00458
2013-06-06,0.00458,0.00458,0.00458,0.00458,000,0.00458
2013-06-05,0.00458,0.00458,0.00458,0.00458,000,0.00458
2013-06-04,0.00458,0.00458,0.00458,0.00458,000,0.00458
2013-06-03,0.00458,0.00458,0.00458,0.00458,000,0.00458
2013-05-31,0.00458,0.00458,0.00458,0.00458,218100,0.00458
2013-05-30,0.00825,0.00825,0.00825,0.00825,000,0.00825
2013-05-29,0.00825,0.00825,0.00825,0.00825,59500,0.00825
2013-05-28,0.00825,0.00825,0.00825,0.00825,49500,0.00825
2013-05-27,0.01008,0.01008,0.01008,0.01008,000,0.01008
2013-05-24,0.01008,0.01008,0.01008,0.01008,000,0.01008
2013-05-23,0.01008,0.01008,0.01008,0.01008,000,0.01008
2013-05-22,0.01008,0.01008,0.01008,0.01008,000,0.01008
2013-05-21,0.01008,0.01008,0.01008,0.01008,000,0.01008
2013-05-20,0.01008,0.01008,0.01008,0.01008,000,0.01008
2013-05-17,0.01008,0.01008,0.01008,0.01008,000,0.01008
2013-05-16,0.01008,0.01008,0.01008,0.01008,000,0.01008
2013-05-15,0.01008,0.01008,0.01008,0.01008,000,0.01008
2013-05-14,0.01008,0.01008,0.01008,0.01008,000,0.01008
2013-05-13,0.01008,0.01008,0.01008,0.01008,000,0.01008
2013-05-10,0.01008,0.01008,0.01008,0.01008,000,0.01008
2013-05-09,0.01008,0.01008,0.01008,0.01008,000,0.01008
2013-05-08,0.01008,0.01008,0.01008,0.01008,000,0.01008
2013-05-07,0.00642,0.00642,0.00642,0.00642,163600,0.00642
2013-05-06,0.00583,0.00583,0.00583,0.00583,000,0.00583
2013-05-03,0.00583,0.00583,0.00583,0.00583,000,0.00583
2013-05-02,0.00583,0.00583,0.00583,0.00583,000,0.00583
2013-05-01,0.00583,0.00583,0.00583,0.00583,000,0.00583
2013-04-30,0.00583,0.00583,0.00583,0.00583,000,0.00583
2013-04-29,0.00583,0.00583,0.00583,0.00583,000,0.00583
2013-04-26,0.00583,0.00583,0.00583,0.00583,000,0.00583
2013-04-25,0.00583,0.00583,0.00583,0.00583,000,0.00583
2013-04-24,0.00583,0.00583,0.00583,0.00583,000,0.00583
2013-04-23,0.00583,0.00583,0.00583,0.00583,000,0.00583
2013-04-22,0.00583,0.00583,0.00583,0.00583,42800,0.00583
2013-04-19,0.00583,0.00583,0.00583,0.00583,000,0.00583
2013-04-18,0.00583,0.00583,0.00583,0.00583,000,0.00583
2013-04-17,0.00583,0.00583,0.00583,0.00583,000,0.00583
2013-04-16,0.00583,0.00583,0.00583,0.00583,000,0.00583
2013-04-15,0.00583,0.00583,0.00583,0.00583,000,0.00583
2013-04-12,0.00583,0.00583,0.00583,0.00583,000,0.00583
2013-04-11,0.00583,0.00583,0.00583,0.00583,000,0.00583
2013-04-10,0.00583,0.00583,0.00583,0.00583,000,0.00583
2013-04-09,0.00583,0.00583,0.00583,0.00583,000,0.00583
2013-04-08,0.00583,0.00583,0.00583,0.00583,188500,0.00583
2013-04-05,0.00583,0.00583,0.00583,0.00583,000,0.00583
2013-04-04,0.00583,0.00583,0.00583,0.00583,000,0.00583
2013-04-03,0.00583,0.00583,0.00583,0.00583,000,0.00583
2013-04-02,0.00583,0.00583,0.00583,0.00583,000,0.00583
2013-04-01,0.00583,0.00583,0.00583,0.00583,000,0.00583
2013-03-29,0.00583,0.00583,0.00583,0.00583,000,0.00583
2013-03-28,0.00583,0.00583,0.00583,0.00583,17100,0.00583
2013-03-27,0.00875,0.00875,0.00875,0.00875,000,0.00875
2013-03-26,0.00875,0.00875,0.00875,0.00875,000,0.00875
2013-03-25,0.00875,0.00875,0.00875,0.00875,000,0.00875
2013-03-22,0.00875,0.00875,0.00875,0.00875,000,0.00875
2013-03-21,0.00875,0.00875,0.00875,0.00875,000,0.00875
2013-03-20,0.00875,0.00875,0.00875,0.00875,000,0.00875
2013-03-19,0.00875,0.00875,0.00875,0.00875,000,0.00875
2013-03-18,0.00875,0.00875,0.00875,0.00875,000,0.00875
2013-03-15,0.00875,0.00875,0.00875,0.00875,000,0.00875
2013-03-14,0.00875,0.00875,0.00875,0.00875,000,0.00875
2013-03-13,0.00875,0.00875,0.00875,0.00875,000,0.00875
2013-03-12,0.00875,0.00875,0.00875,0.00875,000,0.00875
2013-03-11,0.00875,0.00875,0.00875,0.00875,000,0.00875
2013-03-08,0.00875,0.00875,0.00875,0.00875,000,0.00875
2013-03-07,0.00875,0.00875,0.00875,0.00875,000,0.00875
2013-03-06,0.00875,0.00875,0.00875,0.00875,000,0.00875
2013-03-05,0.00875,0.00875,0.00875,0.00875,000,0.00875
2013-03-04,0.00875,0.00875,0.00875,0.00875,000,0.00875
2013-03-01,0.00875,0.00875,0.00875,0.00875,000,0.00875
2013-02-28,0.00875,0.00875,0.00875,0.00875,000,0.00875
2013-02-27,0.00875,0.00875,0.00875,0.00875,000,0.00875
2013-02-26,0.00875,0.00875,0.00875,0.00875,000,0.00875
2013-02-25,0.00875,0.00875,0.00875,0.00875,000,0.00875
2013-02-22,0.00875,0.00875,0.00875,0.00875,000,0.00875
2013-02-21,0.00875,0.00875,0.00875,0.00875,000,0.00875
2013-02-20,0.00875,0.00875,0.00875,0.00875,000,0.00875
2013-02-19,0.00875,0.00875,0.00875,0.00875,000,0.00875
2013-02-18,0.00875,0.00875,0.00875,0.00875,000,0.00875
2013-02-15,0.00875,0.00875,0.00875,0.00875,000,0.00875
2013-02-14,0.00875,0.00875,0.00875,0.00875,000,0.00875
2013-02-13,0.00875,0.00875,0.00875,0.00875,000,0.00875
2013-02-12,0.00875,0.00875,0.00875,0.00875,000,0.00875
2013-02-11,0.00875,0.00875,0.00875,0.00875,000,0.00875
2013-02-08,0.00875,0.00875,0.00875,0.00875,000,0.00875
2013-02-07,0.00875,0.00875,0.00875,0.00875,000,0.00875
2013-02-06,0.00875,0.00875,0.00875,0.00875,000,0.00875
2013-02-05,0.00875,0.00875,0.00875,0.00875,171400,0.00875
2013-02-04,0.01167,0.01167,0.01167,0.01167,000,0.01167
2013-02-01,0.01167,0.01167,0.01167,0.01167,000,0.01167
2013-01-31,0.01167,0.01167,0.01167,0.01167,000,0.01167
2013-01-30,0.01167,0.01167,0.01167,0.01167,000,0.01167
2013-01-29,0.01167,0.01167,0.01167,0.01167,000,0.01167
2013-01-28,0.01167,0.01167,0.01167,0.01167,000,0.01167
2013-01-25,0.01167,0.01167,0.01167,0.01167,000,0.01167
2013-01-24,0.01167,0.01167,0.01167,0.01167,000,0.01167
2013-01-22,0.01167,0.01167,0.01167,0.01167,000,0.01167
2013-01-21,0.01167,0.01167,0.01167,0.01167,000,0.01167
2013-01-18,0.01167,0.01167,0.01167,0.01167,000,0.01167
2013-01-17,0.01167,0.01167,0.01167,0.01167,000,0.01167
2013-01-16,0.01167,0.01167,0.01167,0.01167,000,0.01167
2013-01-15,0.01167,0.01167,0.01167,0.01167,000,0.01167
2013-01-14,0.01167,0.01167,0.01167,0.01167,000,0.01167
2013-01-11,0.01167,0.01167,0.01167,0.01167,000,0.01167
2013-01-10,0.01167,0.01167,0.01167,0.01167,20500,0.01167
2013-01-09,0.01167,0.01167,0.01167,0.01167,000,0.01167
2013-01-08,0.01167,0.01167,0.01167,0.01167,000,0.01167
2013-01-07,0.01167,0.01167,0.01167,0.01167,000,0.01167
2013-01-04,0.01167,0.01167,0.01167,0.01167,000,0.01167
2013-01-03,0.01167,0.01167,0.01167,0.01167,000,0.01167
2013-01-02,0.01167,0.01167,0.01167,0.01167,000,0.01167
2013-01-01,0.01167,0.01167,0.01167,0.01167,000,0.01167
2012-12-31,0.01167,0.01167,0.01167,0.01167,000,0.01167
2012-12-28,0.01167,0.01167,0.01167,0.01167,000,0.01167
2012-12-27,0.01167,0.01167,0.01167,0.01167,000,0.01167
2012-12-26,0.01167,0.01167,0.01167,0.01167,000,0.01167
2012-12-25,0.01167,0.01167,0.01167,0.01167,000,0.01167
2012-12-24,0.01167,0.01167,0.01167,0.01167,000,0.01167
2012-12-21,0.01167,0.01167,0.01167,0.01167,000,0.01167
2012-12-20,0.01167,0.01167,0.01167,0.01167,17100,0.01167
2012-12-19,0.01167,0.01167,0.01167,0.01167,000,0.01167
2012-12-18,0.01167,0.01167,0.01167,0.01167,000,0.01167
2012-12-17,0.01167,0.01167,0.01167,0.01167,000,0.01167
2012-12-14,0.01167,0.01167,0.01167,0.01167,000,0.01167
2012-12-13,0.01167,0.01167,0.01167,0.01167,000,0.01167
2012-12-12,0.01167,0.01167,0.01167,0.01167,000,0.01167
2012-12-11,0.01167,0.01167,0.01167,0.01167,000,0.01167
2012-12-10,0.01167,0.01167,0.01167,0.01167,000,0.01167
2012-12-07,0.01167,0.01167,0.01167,0.01167,000,0.01167
2012-12-06,0.01167,0.01167,0.01167,0.01167,000,0.01167
2012-12-05,0.01167,0.01167,0.01167,0.01167,68500,0.01167
2012-12-04,0.01342,0.01342,0.01342,0.01342,000,0.01342
2012-12-03,0.01342,0.01342,0.01342,0.01342,000,0.01342
2012-11-30,0.01342,0.01342,0.01342,0.01342,000,0.01342
2012-11-29,0.01342,0.01342,0.01342,0.01342,000,0.01342
2012-11-28,0.01342,0.01342,0.01342,0.01342,000,0.01342
2012-11-27,0.01342,0.01342,0.01342,0.01342,000,0.01342
2012-11-26,0.01342,0.01342,0.01342,0.01342,000,0.01342
2012-11-23,0.01342,0.01342,0.01342,0.01342,000,0.01342
2012-11-22,0.01342,0.01342,0.01342,0.01342,40900,0.01342
2012-11-21,0.01458,0.01458,0.01458,0.01458,000,0.01458
2012-11-20,0.01458,0.01458,0.01458,0.01458,000,0.01458
2012-11-19,0.01458,0.01458,0.01458,0.01458,000,0.01458
2012-11-16,0.01458,0.01458,0.01458,0.01458,000,0.01458
2012-11-15,0.01458,0.01458,0.01458,0.01458,000,0.01458
2012-11-14,0.01458,0.01458,0.01458,0.01458,000,0.01458
2012-11-13,0.01458,0.01458,0.01458,0.01458,000,0.01458
2012-11-12,0.01458,0.01458,0.01458,0.01458,000,0.01458
2012-11-09,0.01458,0.01458,0.01458,0.01458,34200,0.01458
2012-11-08,0.01225,0.01225,0.01225,0.01225,000,0.01225
2012-11-07,0.01225,0.01225,0.01225,0.01225,000,0.01225
2012-11-06,0.01225,0.01225,0.01225,0.01225,000,0.01225
2012-11-05,0.01225,0.01225,0.01225,0.01225,000,0.01225
2012-11-02,0.01225,0.01225,0.01225,0.01225,000,0.01225
2012-11-01,0.01225,0.01225,0.01225,0.01225,000,0.01225
2012-10-31,0.01225,0.01225,0.01225,0.01225,000,0.01225
2012-10-30,0.01225,0.01225,0.01225,0.01225,000,0.01225
2012-10-29,0.01225,0.01225,0.01225,0.01225,000,0.01225
2012-10-26,0.01225,0.01225,0.01225,0.01225,000,0.01225
2012-10-25,0.01225,0.01225,0.01225,0.01225,000,0.01225
2012-10-24,0.01225,0.01225,0.01225,0.01225,000,0.01225
2012-10-23,0.01225,0.01225,0.01225,0.01225,000,0.01225
2012-10-22,0.01225,0.01225,0.01225,0.01225,000,0.01225
2012-10-19,0.01167,0.01458,0.01167,0.01225,86500,0.01225
2012-10-18,0.01458,0.01458,0.01458,0.01458,17100,0.01458
2012-10-17,0.01458,0.01458,0.01458,0.01458,150800,0.01458
2012-10-16,0.01925,0.01925,0.01925,0.01925,000,0.01925
2012-10-15,0.01925,0.01925,0.01925,0.01925,34200,0.01925
2012-10-12,0.02333,0.02333,0.02333,0.02333,000,0.02333
2012-10-11,0.02333,0.02333,0.02333,0.02333,000,0.02333
2012-10-10,0.02333,0.02333,0.02333,0.02333,000,0.02333
2012-10-09,0.02333,0.02333,0.02333,0.02333,000,0.02333
2012-10-08,0.02333,0.02333,0.02333,0.02333,000,0.02333
2012-10-05,0.02333,0.02333,0.02333,0.02333,000,0.02333
2012-10-04,0.02333,0.02333,0.02333,0.02333,000,0.02333
2012-10-03,0.02333,0.02333,0.02333,0.02333,000,0.02333
2012-10-02,0.01925,0.02333,0.01925,0.02333,41100,0.02333
2012-10-01,0.02275,0.02275,0.02275,0.02275,000,0.02275
2012-09-28,0.02275,0.02275,0.02275,0.02275,000,0.02275
2012-09-27,0.02275,0.02275,0.02275,0.02275,000,0.02275
2012-09-26,0.02275,0.02275,0.02275,0.02275,000,0.02275
2012-09-25,0.02275,0.02275,0.02275,0.02275,000,0.02275
2012-09-24,0.02275,0.02275,0.02275,0.02275,000,0.02275
2012-09-21,0.02275,0.02275,0.02275,0.02275,000,0.02275
2012-09-20,0.02275,0.02275,0.02275,0.02275,000,0.02275
2012-09-19,0.02275,0.02275,0.02275,0.02275,000,0.02275
2012-09-18,0.02275,0.02275,0.02275,0.02275,000,0.02275
2012-09-17,0.02275,0.02275,0.02275,0.02275,000,0.02275
2012-09-14,0.02275,0.02275,0.02275,0.02275,000,0.02275
2012-09-13,0.02275,0.02275,0.02275,0.02275,000,0.02275
2012-09-12,0.02275,0.02275,0.02275,0.02275,000,0.02275
2012-09-11,0.02275,0.02275,0.02275,0.02275,000,0.02275
2012-09-10,0.02275,0.02275,0.02275,0.02275,000,0.02275
2012-09-07,0.02275,0.02275,0.02275,0.02275,000,0.02275
2012-09-06,0.02275,0.02275,0.02275,0.02275,000,0.02275
2012-09-05,0.02275,0.02275,0.02275,0.02275,000,0.02275
2012-09-04,0.02275,0.02275,0.02275,0.02275,342800,0.02275
2012-09-03,0.0245,0.0245,0.0245,0.0245,000,0.0245
2012-08-31,0.0245,0.0245,0.0245,0.0245,000,0.0245
2012-08-30,0.0245,0.0245,0.0245,0.0245,000,0.0245
2012-08-29,0.0245,0.0245,0.0245,0.0245,000,0.0245
2012-08-28,0.0245,0.0245,0.0245,0.0245,000,0.0245
2012-08-27,0.0245,0.0245,0.0245,0.0245,000,0.0245
2012-08-24,0.0245,0.0245,0.0245,0.0245,000,0.0245
2012-08-23,0.0245,0.0245,0.0245,0.0245,000,0.0245
2012-08-22,0.0245,0.0245,0.0245,0.0245,000,0.0245
2012-08-21,0.0245,0.0245,0.0245,0.0245,000,0.0245
2012-08-20,0.0245,0.0245,0.0245,0.0245,000,0.0245
2012-08-17,0.0245,0.0245,0.0245,0.0245,000,0.0245
2012-08-16,0.0245,0.0245,0.0245,0.0245,000,0.0245
2012-08-15,0.0245,0.0245,0.0245,0.0245,000,0.0245
2012-08-14,0.0245,0.0245,0.0245,0.0245,000,0.0245
2012-08-13,0.0245,0.0245,0.0245,0.0245,000,0.0245
2012-08-10,0.0245,0.0245,0.0245,0.0245,000,0.0245
2012-08-09,0.02333,0.0245,0.02333,0.0245,102800,0.0245
2012-08-08,0.03209,0.03209,0.03209,0.03209,000,0.03209
2012-08-07,0.03209,0.03209,0.03209,0.03209,000,0.03209
2012-08-06,0.03209,0.03209,0.03209,0.03209,000,0.03209
2012-08-03,0.03209,0.03209,0.03209,0.03209,000,0.03209
2012-08-02,0.03209,0.03209,0.03209,0.03209,000,0.03209
2012-08-01,0.03209,0.03209,0.03209,0.03209,000,0.03209
2012-07-31,0.03209,0.03209,0.03209,0.03209,000,0.03209
2012-07-30,0.03209,0.03209,0.03209,0.03209,000,0.03209
2012-07-27,0.03209,0.03209,0.03209,0.03209,000,0.03209
2012-07-26,0.03209,0.03209,0.03209,0.03209,000,0.03209
2012-07-25,0.03209,0.03209,0.03209,0.03209,000,0.03209
2012-07-24,0.03209,0.03209,0.03209,0.03209,85700,0.03209
2012-07-23,0.02917,0.02917,0.02917,0.02917,000,0.02917
2012-07-20,0.02917,0.02917,0.02917,0.02917,68500,0.02917
2012-07-19,0.03909,0.03909,0.03909,0.03909,000,0.03909
2012-07-18,0.03909,0.03909,0.03909,0.03909,000,0.03909
2012-07-17,0.03909,0.03909,0.03909,0.03909,15400,0.03909
2012-07-16,0.04084,0.04084,0.04084,0.04084,24400,0.04084
2012-07-13,0.04084,0.04084,0.04084,0.04084,000,0.04084
2012-07-12,0.04084,0.04084,0.04084,0.04084,000,0.04084
2012-07-11,0.04084,0.04084,0.04084,0.04084,000,0.04084
2012-07-10,0.04084,0.04084,0.04084,0.04084,000,0.04084
2012-07-09,0.04084,0.04084,0.04084,0.04084,122400,0.04084
2012-07-06,0.04375,0.04375,0.04375,0.04375,000,0.04375
2012-07-05,0.04375,0.04375,0.04375,0.04375,000,0.04375
2012-07-04,0.04375,0.04375,0.04375,0.04375,000,0.04375
2012-07-03,0.04375,0.04375,0.04375,0.04375,000,0.04375
2012-07-02,0.04375,0.04375,0.04375,0.04375,000,0.04375
2012-06-29,0.04375,0.04375,0.04375,0.04375,000,0.04375
2012-06-28,0.04375,0.04375,0.04375,0.04375,000,0.04375
2012-06-27,0.04375,0.04375,0.04375,0.04375,000,0.04375
2012-06-26,0.04375,0.04375,0.04375,0.04375,85700,0.04375
2012-06-25,0.02333,0.02333,0.02333,0.02333,12000,0.02333
2012-06-22,0.03267,0.03267,0.03267,0.03267,000,0.03267
2012-06-21,0.03267,0.03267,0.03267,0.03267,000,0.03267
2012-06-20,0.03267,0.03267,0.03267,0.03267,000,0.03267
2012-06-19,0.03267,0.03267,0.03267,0.03267,000,0.03267
2012-06-18,0.03267,0.03267,0.03267,0.03267,000,0.03267
2012-06-15,0.03267,0.03267,0.03267,0.03267,000,0.03267
2012-06-14,0.03267,0.03267,0.03267,0.03267,000,0.03267
2012-06-13,0.03267,0.03267,0.03267,0.03267,000,0.03267
2012-06-12,0.03267,0.03267,0.03267,0.03267,000,0.03267
2012-06-11,0.03267,0.03267,0.03267,0.03267,000,0.03267
2012-06-08,0.03267,0.03267,0.03267,0.03267,000,0.03267
2012-06-07,0.03267,0.03267,0.03267,0.03267,000,0.03267
2012-06-06,0.03267,0.03267,0.03267,0.03267,000,0.03267
2012-06-05,0.03267,0.03267,0.03267,0.03267,000,0.03267
2012-06-04,0.03267,0.03267,0.03267,0.03267,000,0.03267
2012-06-01,0.03267,0.03267,0.03267,0.03267,000,0.03267
2012-05-31,0.03267,0.03267,0.03267,0.03267,000,0.03267
2012-05-30,0.03267,0.03267,0.03267,0.03267,000,0.03267
2012-05-29,0.03209,0.03267,0.03209,0.03267,85700,0.03267
2012-05-28,0.03209,0.03209,0.03209,0.03209,000,0.03209
2012-05-25,0.03209,0.03209,0.03209,0.03209,000,0.03209
2012-05-24,0.03209,0.03209,0.03209,0.03209,000,0.03209
2012-05-23,0.03209,0.03209,0.03209,0.03209,000,0.03209
2012-05-22,0.03209,0.03209,0.03209,0.03209,000,0.03209
2012-05-21,0.03209,0.03209,0.03209,0.03209,000,0.03209
2012-05-18,0.03209,0.03209,0.03209,0.03209,000,0.03209
2012-05-17,0.03209,0.03209,0.03209,0.03209,000,0.03209
2012-05-16,0.03209,0.03209,0.03209,0.03209,000,0.03209
2012-05-15,0.03209,0.03209,0.03209,0.03209,15300,0.03209
2012-05-14,0.03209,0.03209,0.03209,0.03209,36000,0.03209
2012-05-11,0.03267,0.03267,0.03267,0.03267,000,0.03267
2012-05-10,0.03267,0.03267,0.03267,0.03267,000,0.03267
2012-05-09,0.03267,0.03267,0.03267,0.03267,000,0.03267
2012-05-08,0.03267,0.03267,0.03267,0.03267,000,0.03267
2012-05-07,0.03267,0.03267,0.03267,0.03267,000,0.03267
2012-05-04,0.03267,0.03267,0.03267,0.03267,59900,0.03267
2012-05-03,0.03209,0.03209,0.03209,0.03209,000,0.03209
2012-05-02,0.03209,0.03209,0.03209,0.03209,42800,0.03209
2012-05-01,0.02917,0.02917,0.02917,0.02917,000,0.02917
2012-04-30,0.02917,0.02917,0.02917,0.02917,128500,0.02917
2012-04-27,0.02392,0.02392,0.02392,0.02392,000,0.02392
2012-04-26,0.02392,0.02392,0.02392,0.02392,000,0.02392
2012-04-25,0.02392,0.02392,0.02392,0.02392,000,0.02392
2012-04-24,0.02392,0.02392,0.02392,0.02392,000,0.02392
2012-04-23,0.02392,0.02392,0.02392,0.02392,000,0.02392
2012-04-20,0.02392,0.02392,0.02392,0.02392,000,0.02392
2012-04-19,0.02392,0.02392,0.02392,0.02392,000,0.02392
2012-04-18,0.02392,0.02392,0.02392,0.02392,000,0.02392
2012-04-17,0.02392,0.02392,0.02392,0.02392,46200,0.02392
2012-04-16,0.035,0.035,0.035,0.035,000,0.035
2012-04-13,0.035,0.035,0.035,0.035,000,0.035
2012-04-12,0.035,0.035,0.035,0.035,000,0.035
2012-04-11,0.035,0.035,0.035,0.035,000,0.035
2012-04-10,0.035,0.035,0.035,0.035,000,0.035
2012-04-09,0.035,0.035,0.035,0.035,000,0.035
2012-04-06,0.035,0.035,0.035,0.035,000,0.035
2012-04-05,0.035,0.035,0.035,0.035,000,0.035
2012-04-04,0.035,0.035,0.035,0.035,000,0.035
2012-04-03,0.035,0.035,0.035,0.035,000,0.035
2012-04-02,0.035,0.035,0.035,0.035,000,0.035
2012-03-30,0.035,0.035,0.035,0.035,000,0.035
2012-03-29,0.035,0.035,0.035,0.035,000,0.035
2012-03-28,0.03384,0.035,0.03384,0.035,39300,0.035
2012-03-27,0.02917,0.02917,0.02917,0.02917,000,0.02917
2012-03-26,0.02917,0.02917,0.02917,0.02917,000,0.02917
2012-03-23,0.02917,0.02917,0.02917,0.02917,000,0.02917
2012-03-22,0.02917,0.02917,0.02917,0.02917,000,0.02917
2012-03-21,0.02917,0.02917,0.02917,0.02917,000,0.02917
2012-03-20,0.02917,0.02917,0.02917,0.02917,000,0.02917
2012-03-19,0.02917,0.02917,0.02917,0.02917,000,0.02917
2012-03-16,0.02917,0.02917,0.02917,0.02917,000,0.02917
2012-03-15,0.02917,0.02917,0.02917,0.02917,000,0.02917
2012-03-14,0.02917,0.02917,0.02917,0.02917,000,0.02917
2012-03-13,0.02917,0.02917,0.02917,0.02917,000,0.02917
2012-03-12,0.02917,0.02917,0.02917,0.02917,000,0.02917
2012-03-09,0.02917,0.02917,0.02917,0.02917,000,0.02917
2012-03-08,0.02917,0.02917,0.02917,0.02917,000,0.02917
2012-03-07,0.02917,0.02917,0.02917,0.02917,000,0.02917
2012-03-06,0.02917,0.02917,0.02917,0.02917,000,0.02917
2012-03-05,0.02917,0.02917,0.02917,0.02917,000,0.02917
2012-03-02,0.02917,0.02917,0.02917,0.02917,000,0.02917
2012-03-01,0.02975,0.02975,0.02917,0.02917,647000,0.02917
2012-02-29,0.035,0.035,0.035,0.035,000,0.035
2012-02-28,0.035,0.035,0.035,0.035,000,0.035
2012-02-27,0.035,0.035,0.035,0.035,3400,0.035
2012-02-24,0.035,0.035,0.035,0.035,000,0.035
2012-02-23,0.035,0.035,0.035,0.035,000,0.035
2012-02-22,0.035,0.035,0.035,0.035,000,0.035
2012-02-21,0.035,0.035,0.035,0.035,39400,0.035
2012-02-20,0.035,0.035,0.035,0.035,000,0.035
2012-02-17,0.035,0.035,0.035,0.035,000,0.035
2012-02-16,0.035,0.035,0.035,0.035,000,0.035
2012-02-15,0.035,0.035,0.035,0.035,000,0.035
2012-02-14,0.035,0.035,0.035,0.035,17100,0.035
2012-02-13,0.02917,0.02917,0.02917,0.02917,85700,0.02917
2012-02-10,0.042,0.042,0.042,0.042,000,0.042
2012-02-09,0.042,0.042,0.042,0.042,000,0.042
2012-02-08,0.042,0.042,0.042,0.042,000,0.042
2012-02-07,0.042,0.042,0.042,0.042,000,0.042
2012-02-06,0.042,0.042,0.042,0.042,11900,0.042
2012-02-03,0.042,0.042,0.042,0.042,000,0.042
2012-02-02,0.042,0.042,0.042,0.042,000,0.042
2012-02-01,0.042,0.042,0.042,0.042,000,0.042
2012-01-31,0.042,0.042,0.042,0.042,000,0.042
2012-01-27,0.042,0.042,0.042,0.042,000,0.042
2012-01-26,0.042,0.042,0.042,0.042,000,0.042
2012-01-25,0.042,0.042,0.042,0.042,000,0.042
2012-01-24,0.042,0.042,0.042,0.042,000,0.042
2012-01-23,0.042,0.042,0.042,0.042,000,0.042
2012-01-20,0.042,0.042,0.042,0.042,000,0.042
2012-01-19,0.042,0.042,0.042,0.042,000,0.042
2012-01-18,0.042,0.042,0.042,0.042,000,0.042
2012-01-17,0.042,0.042,0.042,0.042,000,0.042
2012-01-16,0.042,0.042,0.042,0.042,25600,0.042
2012-01-13,0.042,0.042,0.042,0.042,000,0.042
2012-01-12,0.042,0.042,0.042,0.042,000,0.042
2012-01-11,0.042,0.042,0.042,0.042,000,0.042
2012-01-10,0.042,0.042,0.042,0.042,8500,0.042
2012-01-09,0.04375,0.04375,0.04375,0.04375,000,0.04375
2012-01-06,0.04667,0.04667,0.04667,0.04667,000,0.04667
2012-01-05,0.04667,0.04667,0.04667,0.04667,34200,0.04667
2012-01-04,0.04667,0.04667,0.04667,0.04667,000,0.04667
2012-01-03,0.04667,0.04667,0.04667,0.04667,000,0.04667
2012-01-02,0.04667,0.04667,0.04667,0.04667,000,0.04667
2011-12-30,0.04667,0.04667,0.04667,0.04667,000,0.04667
2011-12-29,0.04667,0.04667,0.04667,0.04667,000,0.04667
2011-12-28,0.04667,0.04667,0.04667,0.04667,000,0.04667
2011-12-27,0.04667,0.04667,0.04667,0.04667,000,0.04667
2011-12-26,0.04667,0.04667,0.04667,0.04667,000,0.04667
2011-12-23,0.04667,0.04667,0.04667,0.04667,000,0.04667
2011-12-22,0.04667,0.04667,0.04667,0.04667,30800,0.04667
2011-12-21,0.04434,0.04434,0.04434,0.04434,85700,0.04434
2011-12-20,0.04375,0.04375,0.04375,0.04375,000,0.04375
2011-12-19,0.04375,0.04375,0.04375,0.04375,17000,0.04375
2011-12-16,0.04434,0.04434,0.04434,0.04434,85700,0.04434
2011-12-15,0.04084,0.04084,0.04084,0.04084,000,0.04084
2011-12-14,0.04084,0.04084,0.04084,0.04084,000,0.04084
2011-12-13,0.04084,0.04084,0.04084,0.04084,000,0.04084
2011-12-12,0.04084,0.04084,0.04084,0.04084,000,0.04084
2011-12-09,0.04084,0.04084,0.04084,0.04084,000,0.04084
2011-12-08,0.04084,0.04084,0.04084,0.04084,000,0.04084
2011-12-07,0.04084,0.04084,0.04084,0.04084,000,0.04084
2011-12-06,0.04084,0.04084,0.04084,0.04084,000,0.04084
2011-12-05,0.04084,0.04084,0.04084,0.04084,000,0.04084
2011-12-02,0.04084,0.04084,0.04084,0.04084,000,0.04084
2011-12-01,0.04084,0.04084,0.04084,0.04084,000,0.04084
2011-11-30,0.04084,0.04084,0.04084,0.04084,000,0.04084
2011-11-29,0.04084,0.04084,0.04084,0.04084,000,0.04084
2011-11-28,0.04084,0.04084,0.04084,0.04084,000,0.04084
2011-11-25,0.04084,0.04084,0.04084,0.04084,000,0.04084
2011-11-24,0.04084,0.04084,0.04084,0.04084,000,0.04084
2011-11-23,0.04084,0.04084,0.04084,0.04084,000,0.04084
2011-11-22,0.04084,0.04084,0.04084,0.04084,000,0.04084
2011-11-21,0.04084,0.04084,0.04084,0.04084,000,0.04084
2011-11-18,0.04084,0.04084,0.04084,0.04084,000,0.04084
2011-11-17,0.04084,0.04084,0.04084,0.04084,000,0.04084
2011-11-11,0.04084,0.04084,0.04084,0.04084,5100,0.04084
2011-10-27,0.02917,0.02917,0.02917,0.02917,17100,0.02917
2011-10-18,0.02917,0.02917,0.02917,0.02917,85700,0.02917
2011-09-30,0.02917,0.02917,0.02917,0.02917,85700,0.02917
2011-09-16,0.04375,0.04375,0.04375,0.04375,1700,0.04375
2011-09-13,0.04375,0.04375,0.04375,0.04375,49700,0.04375
2011-09-06,0.05717,0.05834,0.05717,0.05834,17100,0.05834
2011-06-30,0.05834,0.05834,0.05834,0.05834,71900,0.05834
2011-06-24,0.05542,0.05542,0.05542,0.05542,171400,0.05542
2011-06-22,0.05017,0.05017,0.05017,0.05017,85700,0.05017
2011-06-20,0.04959,0.04959,0.04959,0.04959,28300,0.04959
2011-06-16,0.0525,0.0525,0.0525,0.0525,85700,0.0525
2011-06-14,0.07,0.07,0.07,0.07,342800,0.07
2011-05-12,0.07875,0.07875,0.07875,0.07875,85700,0.07875
2011-05-11,0.08167,0.08459,0.08167,0.08459,59900,0.08459
2011-05-10,0.08167,0.08167,0.08167,0.08167,121700,0.08167
2011-05-09,0.07875,0.07875,0.07875,0.07875,25700,0.07875
2011-05-04,0.0875,0.0875,0.08459,0.08459,166700,0.08459
2011-05-03,0.09042,0.09042,0.09042,0.09042,11400,0.09042
2011-04-20,0.09334,0.09334,0.09042,0.09042,118100,0.09042
2011-04-19,0.0875,0.09334,0.0875,0.09334,31700,0.09334
2011-04-18,0.09334,0.09334,0.09334,0.09334,55800,0.09334
2011-04-15,0.09042,0.09042,0.09042,0.09042,21300,0.09042
2011-04-14,0.09042,0.09042,0.09042,0.09042,26500,0.09042
2011-04-12,0.0875,0.0875,0.0875,0.0875,16800,0.0875
2011-04-11,0.09334,0.09334,0.08459,0.0875,179900,0.0875
2011-04-07,0.09334,0.09334,0.09334,0.09334,20500,0.09334
2011-04-04,0.09626,0.09626,0.09626,0.09626,85700,0.09626
2011-04-01,0.0875,0.0875,0.0875,0.0875,360000,0.0875
2011-03-31,0.09334,0.09334,0.09334,0.09334,56500,0.09334
2011-03-29,0.09626,0.09626,0.09626,0.09626,8500,0.09626
2011-03-22,0.10501,0.10501,0.10501,0.10501,5100,0.10501
2011-03-18,0.10501,0.10501,0.09917,0.09917,51300,0.09917
2011-03-17,0.09626,0.09626,0.0875,0.0875,342800,0.0875
2011-03-15,0.10209,0.10501,0.10209,0.10209,272500,0.10209
2011-03-14,0.10501,0.10501,0.10501,0.10501,191900,0.10501
2011-03-04,0.11667,0.11959,0.11667,0.11959,98500,0.11959
2011-03-02,0.11667,0.11667,0.11376,0.11376,53900,0.11376
2011-03-01,0.12251,0.12251,0.12251,0.12251,33400,0.12251
2011-02-25,0.12542,0.12542,0.12251,0.12542,134500,0.12542
2011-02-24,0.11667,0.12251,0.11667,0.12251,59900,0.12251
2011-02-23,0.12251,0.12251,0.11667,0.11667,145700,0.11667
2011-02-21,0.12834,0.12834,0.12251,0.12542,545100,0.12542
2011-02-18,0.11667,0.12834,0.11667,0.12834,608900,0.12834
2011-02-17,0.11667,0.12834,0.11667,0.11959,667600,0.11959
