Date,Open,High,Low,Close,Volume,Adj Close
2017-01-10,0.059,0.059,0.058,0.059,88200,0.059
2017-01-09,0.061,0.061,0.058,0.058,185000,0.058
2017-01-06,0.059,0.061,0.058,0.061,606400,0.061
2017-01-05,0.056,0.06,0.055,0.06,1423100,0.06
2017-01-04,0.056,0.056,0.053,0.055,29500,0.055
2017-01-03,0.057,0.058,0.055,0.055,865000,0.055
2017-01-02,0.06,0.06,0.06,0.06,000,0.06
2016-12-30,0.057,0.06,0.055,0.06,245500,0.06
2016-12-29,0.058,0.058,0.055,0.058,488000,0.058
2016-12-28,0.057,0.058,0.053,0.055,1518700,0.055
2016-12-27,0.06,0.06,0.06,0.06,000,0.06
2016-12-26,0.06,0.06,0.06,0.06,000,0.06
2016-12-23,0.058,0.06,0.056,0.06,631300,0.06
2016-12-22,0.057,0.06,0.056,0.056,595700,0.056
2016-12-21,0.06,0.061,0.058,0.058,884100,0.058
2016-12-20,0.057,0.061,0.054,0.056,661200,0.056
2016-12-19,0.058,0.058,0.058,0.058,96000,0.058
2016-12-16,0.064,0.064,0.058,0.06,442700,0.06
2016-12-15,0.061,0.064,0.06,0.064,734800,0.064
2016-12-14,0.06,0.06,0.059,0.06,516800,0.06
2016-12-13,0.06,0.062,0.057,0.06,2050300,0.06
2016-12-12,0.056,0.057,0.052,0.057,1473300,0.057
2016-12-09,0.056,0.058,0.053,0.055,2528400,0.055
2016-12-08,0.044,0.058,0.044,0.056,1440100,0.056
2016-12-07,0.044,0.048,0.043,0.044,668300,0.044
2016-12-06,0.048,0.048,0.045,0.045,577900,0.045
2016-12-05,0.049,0.049,0.047,0.047,422000,0.047
2016-12-02,0.052,0.052,0.048,0.048,859800,0.048
2016-12-01,0.057,0.057,0.05,0.053,1220000,0.053
2016-11-30,0.055,0.055,0.052,0.053,581700,0.053
2016-11-29,0.057,0.058,0.056,0.058,194700,0.058
2016-11-28,0.06,0.061,0.059,0.059,878100,0.059
2016-11-25,0.061,0.061,0.061,0.061,000,0.061
2016-11-24,0.062,0.062,0.057,0.061,104400,0.061
2016-11-23,0.06,0.062,0.056,0.062,648500,0.062
2016-11-22,0.065,0.065,0.06,0.065,418400,0.065
2016-11-21,0.068,0.07,0.065,0.065,966300,0.065
2016-11-18,0.068,0.071,0.068,0.071,488300,0.071
2016-11-17,0.071,0.071,0.065,0.066,574700,0.066
2016-11-16,0.072,0.073,0.07,0.07,1267200,0.07
2016-11-15,0.072,0.073,0.07,0.072,654200,0.072
2016-11-14,0.067,0.07,0.066,0.07,1168800,0.07
2016-11-11,0.068,0.069,0.063,0.066,1216300,0.066
2016-11-10,0.064,0.069,0.064,0.069,807200,0.069
2016-11-09,0.063,0.067,0.06,0.06,2663000,0.06
2016-11-08,0.06,0.064,0.059,0.064,2983800,0.064
2016-11-07,0.058,0.06,0.056,0.058,502500,0.058
2016-11-04,0.06,0.06,0.058,0.059,154800,0.059
2016-11-03,0.061,0.061,0.059,0.06,458600,0.06
2016-11-02,0.06,0.061,0.058,0.061,957100,0.061
2016-11-01,0.062,0.062,0.06,0.061,270300,0.061
2016-10-31,0.062,0.062,0.06,0.062,174400,0.062
2016-10-28,0.057,0.063,0.057,0.062,2286900,0.062
2016-10-27,0.058,0.058,0.055,0.058,506700,0.058
2016-10-26,0.059,0.059,0.054,0.058,341600,0.058
2016-10-25,0.054,0.058,0.052,0.058,722900,0.058
2016-10-24,0.059,0.059,0.051,0.053,787600,0.053
2016-10-21,0.06,0.066,0.06,0.06,892900,0.06
2016-10-20,0.065,0.065,0.057,0.057,1393900,0.057
2016-10-19,0.062,0.062,0.062,0.062,000,0.062
2016-10-18,0.062,0.062,0.062,0.062,000,0.062
2016-10-17,0.062,0.064,0.059,0.062,1003700,0.062
2016-10-14,0.068,0.07,0.062,0.062,2078400,0.062
2016-10-13,0.071,0.074,0.068,0.068,1065700,0.068
2016-10-12,0.071,0.072,0.069,0.07,953700,0.07
2016-10-11,0.072,0.075,0.07,0.071,1600200,0.071
2016-10-10,0.069,0.071,0.068,0.069,813000,0.069
2016-10-07,0.07,0.07,0.066,0.069,538400,0.069
2016-10-06,0.063,0.07,0.062,0.069,4084400,0.069
2016-10-05,0.058,0.063,0.055,0.063,2545500,0.063
2016-10-04,0.058,0.059,0.057,0.057,858900,0.057
2016-10-03,0.059,0.059,0.057,0.057,1745000,0.057
2016-09-30,0.059,0.059,0.054,0.055,531900,0.055
2016-09-29,0.057,0.058,0.057,0.058,1088200,0.058
2016-09-28,0.058,0.058,0.055,0.056,1175200,0.056
2016-09-27,0.061,0.061,0.056,0.056,1853200,0.056
2016-09-26,0.065,0.065,0.06,0.06,3426000,0.06
2016-09-23,0.06,0.064,0.046,0.06,9561800,0.06
2016-09-22,0.06,0.061,0.058,0.058,2870100,0.058
2016-09-21,0.059,0.064,0.055,0.06,3933900,0.06
2016-09-20,0.089,0.089,0.057,0.058,7597400,0.058
2016-09-19,0.083,0.083,0.083,0.083,000,0.083
2016-09-16,0.083,0.083,0.083,0.083,000,0.083
2016-09-15,0.083,0.083,0.083,0.083,000,0.083
2016-09-14,0.083,0.083,0.083,0.083,000,0.083
2016-09-13,0.083,0.083,0.083,0.083,000,0.083
2016-09-12,0.083,0.083,0.083,0.083,000,0.083
2016-09-09,0.083,0.083,0.083,0.083,000,0.083
2016-09-08,0.083,0.083,0.083,0.083,000,0.083
2016-09-07,0.083,0.083,0.083,0.083,000,0.083
2016-09-06,0.083,0.083,0.083,0.083,000,0.083
2016-09-05,0.083,0.083,0.083,0.083,000,0.083
2016-09-02,0.083,0.083,0.083,0.083,000,0.083
2016-09-01,0.083,0.083,0.083,0.083,000,0.083
2016-08-31,0.083,0.083,0.083,0.083,000,0.083
2016-08-30,0.083,0.083,0.083,0.083,000,0.083
2016-08-29,0.083,0.083,0.083,0.083,000,0.083
2016-08-26,0.083,0.083,0.083,0.083,000,0.083
2016-08-25,0.083,0.083,0.083,0.083,000,0.083
2016-08-24,0.083,0.083,0.083,0.083,000,0.083
2016-08-23,0.083,0.083,0.083,0.083,000,0.083
2016-08-22,0.083,0.083,0.083,0.083,000,0.083
2016-08-19,0.083,0.083,0.083,0.083,000,0.083
2016-08-18,0.083,0.083,0.083,0.083,000,0.083
2016-08-17,0.083,0.083,0.083,0.083,000,0.083
2016-08-16,0.083,0.083,0.083,0.083,000,0.083
2016-08-15,0.083,0.083,0.083,0.083,000,0.083
2016-08-12,0.083,0.083,0.083,0.083,000,0.083
2016-08-11,0.083,0.083,0.083,0.083,000,0.083
2016-08-10,0.083,0.083,0.083,0.083,000,0.083
2016-08-09,0.083,0.083,0.083,0.083,000,0.083
2016-08-08,0.083,0.083,0.083,0.083,000,0.083
2016-08-05,0.083,0.083,0.083,0.083,000,0.083
2016-08-04,0.083,0.083,0.083,0.083,000,0.083
2016-08-03,0.083,0.083,0.083,0.083,000,0.083
2016-08-02,0.083,0.083,0.083,0.083,000,0.083
2016-08-01,0.083,0.083,0.083,0.083,000,0.083
2016-07-29,0.083,0.083,0.083,0.083,000,0.083
2016-07-28,0.083,0.083,0.083,0.083,000,0.083
2016-07-27,0.083,0.083,0.083,0.083,000,0.083
2016-07-26,0.083,0.083,0.083,0.083,000,0.083
2016-07-25,0.083,0.083,0.083,0.083,000,0.083
2016-07-22,0.083,0.083,0.083,0.083,000,0.083
2016-07-21,0.083,0.083,0.083,0.083,000,0.083
2016-07-20,0.083,0.083,0.083,0.083,000,0.083
2016-07-19,0.083,0.083,0.083,0.083,000,0.083
2016-07-18,0.083,0.083,0.083,0.083,000,0.083
2016-07-15,0.083,0.083,0.083,0.083,000,0.083
2016-07-14,0.083,0.083,0.083,0.083,000,0.083
2016-07-13,0.083,0.083,0.083,0.083,000,0.083
2016-07-12,0.083,0.083,0.083,0.083,000,0.083
2016-07-11,0.083,0.083,0.083,0.083,000,0.083
2016-07-08,0.083,0.083,0.083,0.083,000,0.083
2016-07-07,0.083,0.083,0.083,0.083,000,0.083
2016-07-06,0.083,0.083,0.083,0.083,000,0.083
2016-07-05,0.083,0.083,0.083,0.083,000,0.083
2016-07-04,0.083,0.083,0.083,0.083,000,0.083
2016-07-01,0.083,0.083,0.083,0.083,000,0.083
2016-06-30,0.083,0.083,0.083,0.083,000,0.083
2016-06-29,0.083,0.083,0.083,0.083,000,0.083
2016-06-28,0.083,0.083,0.083,0.083,000,0.083
2016-06-27,0.083,0.083,0.083,0.083,000,0.083
2016-06-24,0.083,0.083,0.083,0.083,000,0.083
2016-06-23,0.083,0.083,0.083,0.083,000,0.083
2016-06-22,0.083,0.083,0.083,0.083,000,0.083
2016-06-21,0.083,0.083,0.083,0.083,000,0.083
2016-06-20,0.083,0.083,0.083,0.083,000,0.083
2016-06-17,0.083,0.083,0.083,0.083,000,0.083
2016-06-16,0.083,0.083,0.083,0.083,000,0.083
2016-06-15,0.083,0.083,0.083,0.083,000,0.083
2016-06-14,0.083,0.083,0.083,0.083,000,0.083
2016-06-13,0.083,0.083,0.083,0.083,000,0.083
2016-06-10,0.083,0.083,0.083,0.083,000,0.083
2016-06-09,0.083,0.083,0.083,0.083,000,0.083
2016-06-08,0.083,0.083,0.083,0.083,000,0.083
2016-06-07,0.083,0.083,0.083,0.083,000,0.083
2016-06-06,0.083,0.083,0.083,0.083,000,0.083
2016-06-03,0.083,0.083,0.083,0.083,000,0.083
2016-06-02,0.083,0.083,0.083,0.083,000,0.083
2016-06-01,0.083,0.083,0.083,0.083,000,0.083
2016-05-31,0.083,0.083,0.083,0.083,000,0.083
2016-05-30,0.083,0.083,0.083,0.083,000,0.083
2016-05-27,0.083,0.083,0.083,0.083,000,0.083
2016-05-26,0.083,0.083,0.083,0.083,000,0.083
2016-05-25,0.083,0.083,0.083,0.083,000,0.083
2016-05-24,0.083,0.083,0.083,0.083,000,0.083
2016-05-23,0.083,0.083,0.083,0.083,000,0.083
2016-05-20,0.083,0.083,0.083,0.083,000,0.083
2016-05-19,0.083,0.083,0.083,0.083,000,0.083
2016-05-18,0.083,0.083,0.083,0.083,000,0.083
2016-05-17,0.083,0.083,0.083,0.083,000,0.083
2016-05-16,0.083,0.083,0.083,0.083,000,0.083
2016-05-13,0.083,0.083,0.083,0.083,000,0.083
2016-05-12,0.083,0.083,0.083,0.083,000,0.083
2016-05-11,0.083,0.083,0.083,0.083,000,0.083
2016-05-10,0.083,0.083,0.083,0.083,000,0.083
2016-05-09,0.083,0.083,0.083,0.083,000,0.083
2016-05-06,0.083,0.083,0.083,0.083,000,0.083
2016-05-05,0.083,0.083,0.083,0.083,000,0.083
2016-05-04,0.083,0.083,0.083,0.083,000,0.083
2016-05-03,0.105,0.105,0.08,0.083,1659500,0.083
2016-05-02,0.11,0.11,0.105,0.11,878700,0.11
2016-04-29,0.10,0.105,0.10,0.105,274200,0.105
2016-04-28,0.10,0.10,0.10,0.10,410000,0.10
2016-04-27,0.11,0.115,0.105,0.105,935400,0.105
2016-04-26,0.11,0.115,0.11,0.11,2161700,0.11
2016-04-25,0.11,0.11,0.11,0.11,000,0.11
2016-04-22,0.11,0.11,0.099,0.11,1891000,0.11
2016-04-21,0.12,0.12,0.105,0.105,2097800,0.105
2016-04-20,0.13,0.14,0.12,0.12,1929300,0.12
2016-04-19,0.115,0.14,0.115,0.13,1812300,0.13
2016-04-18,0.105,0.11,0.10,0.11,1541100,0.11
2016-04-15,0.092,0.115,0.092,0.11,3921800,0.11
2016-04-14,0.092,0.092,0.089,0.089,220700,0.089
2016-04-13,0.09,0.092,0.085,0.092,1231300,0.092
2016-04-12,0.084,0.084,0.081,0.084,503300,0.084
2016-04-11,0.08,0.08,0.075,0.08,786100,0.08
2016-04-08,0.087,0.087,0.079,0.083,882300,0.083
2016-04-07,0.09,0.09,0.08,0.084,996700,0.084
2016-04-06,0.089,0.092,0.087,0.088,1067700,0.088
2016-04-05,0.084,0.085,0.076,0.082,2520900,0.082
2016-04-04,0.062,0.072,0.062,0.072,698300,0.072
2016-04-01,0.055,0.055,0.055,0.055,615900,0.055
2016-03-31,0.05,0.06,0.05,0.051,2253300,0.051
2016-03-30,0.05,0.05,0.05,0.05,000,0.05
2016-03-29,0.05,0.05,0.05,0.05,000,0.05
2016-03-28,0.05,0.05,0.05,0.05,000,0.05
2016-03-25,0.05,0.05,0.05,0.05,000,0.05
2016-03-24,0.05,0.05,0.05,0.05,000,0.05
2016-03-23,0.05,0.05,0.05,0.05,000,0.05
2016-03-22,0.05,0.05,0.05,0.05,000,0.05
2016-03-21,0.05,0.05,0.05,0.05,000,0.05
2016-03-18,0.05,0.05,0.05,0.05,000,0.05
2016-03-17,0.05,0.05,0.05,0.05,000,0.05
2016-03-16,0.05,0.05,0.05,0.05,000,0.05
2016-03-15,0.05,0.05,0.05,0.05,000,0.05
2016-03-14,0.05,0.05,0.05,0.05,000,0.05
2016-03-11,0.05,0.05,0.05,0.05,000,0.05
2016-03-10,0.05,0.05,0.05,0.05,000,0.05
2016-03-09,0.05,0.05,0.05,0.05,000,0.05
2016-03-08,0.05,0.05,0.05,0.05,000,0.05
2016-03-07,0.05,0.05,0.05,0.05,000,0.05
2016-03-04,0.05,0.05,0.05,0.05,000,0.05
2016-03-03,0.05,0.05,0.05,0.05,000,0.05
2016-03-02,0.05,0.05,0.05,0.05,000,0.05
2016-03-01,0.05,0.05,0.05,0.05,000,0.05
2016-02-29,0.05,0.05,0.05,0.05,000,0.05
2016-02-26,0.05,0.05,0.05,0.05,000,0.05
2016-02-25,0.05,0.05,0.05,0.05,000,0.05
2016-02-24,0.05,0.05,0.05,0.05,000,0.05
2016-02-23,0.05,0.05,0.05,0.05,000,0.05
2016-02-22,0.05,0.05,0.05,0.05,000,0.05
2016-02-19,0.05,0.05,0.05,0.05,000,0.05
2016-02-18,0.05,0.05,0.05,0.05,000,0.05
2016-02-17,0.05,0.05,0.05,0.05,000,0.05
2016-02-16,0.05,0.05,0.05,0.05,000,0.05
2016-02-15,0.05,0.05,0.05,0.05,000,0.05
2016-02-12,0.05,0.05,0.05,0.05,000,0.05
2016-02-11,0.05,0.05,0.05,0.05,000,0.05
2016-02-10,0.05,0.05,0.05,0.05,000,0.05
2016-02-09,0.05,0.05,0.05,0.05,000,0.05
2016-02-08,0.05,0.05,0.05,0.05,000,0.05
2016-02-05,0.05,0.05,0.05,0.05,000,0.05
2016-02-04,0.05,0.05,0.05,0.05,000,0.05
2016-02-03,0.05,0.05,0.05,0.05,000,0.05
2016-02-02,0.05,0.05,0.05,0.05,000,0.05
2016-02-01,0.045,0.045,0.045,0.045,000,0.045
2016-01-29,0.045,0.045,0.045,0.045,000,0.045
2016-01-28,0.045,0.045,0.045,0.045,000,0.045
2016-01-27,0.045,0.045,0.045,0.045,000,0.045
2016-01-26,0.045,0.045,0.045,0.045,000,0.045
2016-01-25,0.045,0.045,0.045,0.045,000,0.045
2016-01-22,0.045,0.045,0.045,0.045,000,0.045
2016-01-21,0.045,0.045,0.045,0.045,000,0.045
2016-01-20,0.045,0.045,0.045,0.045,000,0.045
2016-01-19,0.045,0.045,0.045,0.045,000,0.045
2016-01-18,0.045,0.045,0.045,0.045,000,0.045
2016-01-15,0.045,0.045,0.045,0.045,000,0.045
2016-01-14,0.045,0.045,0.045,0.045,000,0.045
2016-01-13,0.045,0.045,0.045,0.045,000,0.045
2016-01-12,0.045,0.045,0.045,0.045,000,0.045
2016-01-11,0.045,0.045,0.045,0.045,000,0.045
2016-01-08,0.045,0.045,0.045,0.045,000,0.045
2016-01-07,0.045,0.045,0.045,0.045,000,0.045
2016-01-06,0.045,0.045,0.045,0.045,000,0.045
2016-01-05,0.045,0.045,0.045,0.045,000,0.045
2016-01-04,0.045,0.045,0.045,0.045,000,0.045
2016-01-01,0.045,0.045,0.045,0.045,000,0.045
2015-12-31,0.045,0.045,0.045,0.045,000,0.045
2015-12-30,0.045,0.045,0.045,0.045,000,0.045
2015-12-29,0.045,0.045,0.045,0.045,000,0.045
2015-12-28,0.045,0.045,0.045,0.045,000,0.045
2015-12-25,0.045,0.045,0.045,0.045,000,0.045
2015-12-24,0.045,0.045,0.045,0.045,000,0.045
2015-12-23,0.045,0.045,0.045,0.045,000,0.045
2015-12-22,0.045,0.045,0.045,0.045,000,0.045
2015-12-21,0.045,0.045,0.045,0.045,000,0.045
2015-12-18,0.045,0.045,0.045,0.045,000,0.045
2015-12-17,0.045,0.045,0.045,0.045,000,0.045
2015-12-16,0.045,0.045,0.045,0.045,000,0.045
2015-12-15,0.045,0.045,0.045,0.045,000,0.045
2015-12-14,0.045,0.045,0.045,0.045,000,0.045
2015-12-11,0.045,0.045,0.045,0.045,000,0.045
2015-12-10,0.045,0.045,0.045,0.045,000,0.045
2015-12-09,0.045,0.045,0.045,0.045,000,0.045
2015-12-08,0.045,0.045,0.045,0.045,000,0.045
2015-12-07,0.045,0.045,0.045,0.045,000,0.045
2015-12-04,0.045,0.045,0.045,0.045,000,0.045
2015-12-03,0.045,0.045,0.045,0.045,000,0.045
2015-12-02,0.045,0.045,0.045,0.045,000,0.045
2015-12-01,0.045,0.045,0.045,0.045,000,0.045
2015-11-30,0.045,0.045,0.045,0.045,000,0.045
2015-11-27,0.045,0.045,0.045,0.045,000,0.045
2015-11-26,0.045,0.045,0.045,0.045,000,0.045
2015-11-25,0.045,0.045,0.045,0.045,000,0.045
2015-11-24,0.045,0.045,0.045,0.045,000,0.045
2015-11-23,0.045,0.045,0.045,0.045,000,0.045
2015-11-20,0.045,0.045,0.045,0.045,000,0.045
2015-11-19,0.045,0.045,0.045,0.045,000,0.045
2015-11-18,0.045,0.045,0.045,0.045,000,0.045
2015-11-17,0.045,0.045,0.045,0.045,000,0.045
2015-11-16,0.045,0.045,0.045,0.045,000,0.045
2015-11-13,0.045,0.045,0.045,0.045,000,0.045
2015-11-12,0.045,0.045,0.045,0.045,000,0.045
2015-11-11,0.045,0.045,0.045,0.045,000,0.045
2015-11-10,0.045,0.045,0.045,0.045,000,0.045
2015-11-09,0.045,0.045,0.045,0.045,000,0.045
2015-11-06,0.045,0.045,0.045,0.045,000,0.045
2015-11-05,0.045,0.045,0.045,0.045,000,0.045
2015-11-04,0.045,0.045,0.045,0.045,000,0.045
2015-11-03,0.045,0.045,0.045,0.045,000,0.045
2015-11-02,0.045,0.045,0.045,0.045,000,0.045
2015-10-30,0.045,0.045,0.045,0.045,000,0.045
2015-10-29,0.045,0.045,0.045,0.045,000,0.045
2015-10-28,0.045,0.045,0.045,0.045,000,0.045
2015-10-27,0.045,0.045,0.045,0.045,000,0.045
2015-10-26,0.045,0.045,0.045,0.045,000,0.045
2015-10-23,0.045,0.045,0.045,0.045,000,0.045
2015-10-22,0.045,0.045,0.045,0.045,000,0.045
2015-10-21,0.045,0.045,0.045,0.045,000,0.045
2015-10-20,0.045,0.045,0.045,0.045,000,0.045
2015-10-19,0.045,0.045,0.045,0.045,000,0.045
2015-10-16,0.045,0.045,0.045,0.045,000,0.045
2015-10-15,0.045,0.045,0.045,0.045,000,0.045
2015-10-14,0.045,0.045,0.045,0.045,000,0.045
2015-10-13,0.045,0.045,0.045,0.045,000,0.045
2015-10-12,0.045,0.045,0.045,0.045,000,0.045
2015-10-09,0.045,0.045,0.045,0.045,000,0.045
2015-10-08,0.045,0.045,0.045,0.045,000,0.045
2015-10-07,0.045,0.045,0.045,0.045,000,0.045
2015-10-06,0.045,0.045,0.045,0.045,000,0.045
2015-10-05,0.045,0.045,0.045,0.045,000,0.045
2015-10-02,0.045,0.045,0.045,0.045,000,0.045
2015-10-01,0.045,0.045,0.045,0.045,000,0.045
2015-09-30,0.045,0.045,0.045,0.045,000,0.045
2015-09-29,0.045,0.045,0.045,0.045,000,0.045
2015-09-28,0.045,0.045,0.045,0.045,000,0.045
2015-09-25,0.045,0.045,0.045,0.045,000,0.045
2015-09-24,0.045,0.045,0.045,0.045,000,0.045
2015-09-23,0.045,0.045,0.045,0.045,000,0.045
2015-09-22,0.045,0.045,0.045,0.045,000,0.045
2015-09-21,0.045,0.045,0.045,0.045,000,0.045
2015-09-18,0.045,0.045,0.045,0.045,000,0.045
2015-09-17,0.045,0.045,0.045,0.045,000,0.045
2015-09-16,0.045,0.045,0.045,0.045,000,0.045
2015-09-15,0.045,0.045,0.045,0.045,000,0.045
2015-09-14,0.045,0.045,0.045,0.045,000,0.045
2015-09-11,0.045,0.045,0.045,0.045,000,0.045
2015-09-10,0.045,0.045,0.045,0.045,000,0.045
2015-09-09,0.045,0.045,0.045,0.045,000,0.045
2015-09-08,0.045,0.045,0.045,0.045,000,0.045
2015-09-07,0.045,0.045,0.045,0.045,000,0.045
2015-09-04,0.045,0.045,0.045,0.045,000,0.045
2015-09-03,0.045,0.045,0.045,0.045,000,0.045
2015-09-02,0.045,0.045,0.045,0.045,000,0.045
2015-09-01,0.045,0.045,0.045,0.045,000,0.045
2015-08-31,0.045,0.045,0.045,0.045,000,0.045
2015-08-28,0.045,0.045,0.045,0.045,000,0.045
2015-08-27,0.045,0.045,0.045,0.045,000,0.045
2015-08-26,0.045,0.045,0.045,0.045,000,0.045
2015-08-25,0.045,0.045,0.045,0.045,000,0.045
2015-08-24,0.045,0.045,0.045,0.045,000,0.045
2015-08-20,0.045,0.045,0.045,0.045,000,0.045
2015-08-19,0.045,0.045,0.045,0.045,000,0.045
2015-08-18,0.045,0.045,0.045,0.045,000,0.045
2015-08-17,0.045,0.045,0.045,0.045,000,0.045
2015-08-14,0.045,0.045,0.045,0.045,000,0.045
2015-08-13,0.045,0.045,0.045,0.045,000,0.045
2015-08-12,0.045,0.045,0.045,0.045,000,0.045
2015-08-11,0.045,0.045,0.045,0.045,000,0.045
2015-08-10,0.045,0.045,0.045,0.045,000,0.045
2015-08-07,0.045,0.045,0.045,0.045,000,0.045
2015-08-06,0.045,0.045,0.045,0.045,000,0.045
2015-08-05,0.045,0.045,0.045,0.045,000,0.045
2015-08-04,0.045,0.045,0.045,0.045,000,0.045
2015-08-03,0.045,0.045,0.045,0.045,000,0.045
2015-07-31,0.045,0.045,0.045,0.045,000,0.045
2015-07-30,0.045,0.045,0.045,0.045,000,0.045
2015-07-29,0.045,0.045,0.045,0.045,000,0.045
2015-07-28,0.045,0.045,0.045,0.045,000,0.045
2015-07-27,0.045,0.045,0.045,0.045,000,0.045
2015-07-24,0.045,0.045,0.045,0.045,000,0.045
2015-07-23,0.045,0.045,0.045,0.045,000,0.045
2015-07-22,0.045,0.045,0.045,0.045,000,0.045
2015-07-21,0.045,0.045,0.045,0.045,000,0.045
2015-07-20,0.045,0.045,0.045,0.045,000,0.045
2015-07-17,0.045,0.045,0.045,0.045,000,0.045
2015-07-16,0.045,0.045,0.045,0.045,000,0.045
2015-07-15,0.045,0.045,0.045,0.045,000,0.045
2015-07-14,0.045,0.045,0.045,0.045,000,0.045
2015-07-13,0.045,0.045,0.045,0.045,000,0.045
2015-07-10,0.045,0.045,0.045,0.045,000,0.045
2015-07-09,0.045,0.045,0.045,0.045,000,0.045
2015-07-08,0.045,0.045,0.045,0.045,000,0.045
2015-07-07,0.045,0.045,0.045,0.045,000,0.045
2015-07-06,0.045,0.045,0.045,0.045,000,0.045
2015-07-03,0.045,0.045,0.045,0.045,000,0.045
2015-07-02,0.045,0.045,0.045,0.045,000,0.045
2015-07-01,0.045,0.045,0.045,0.045,000,0.045
2015-06-30,0.045,0.045,0.045,0.045,000,0.045
2015-06-29,0.045,0.045,0.045,0.045,000,0.045
2015-06-26,0.045,0.045,0.045,0.045,000,0.045
2015-06-25,0.045,0.045,0.045,0.045,000,0.045
2015-06-24,0.045,0.045,0.045,0.045,000,0.045
2015-06-23,0.045,0.045,0.045,0.045,000,0.045
2015-06-22,0.045,0.045,0.045,0.045,000,0.045
2015-06-19,0.045,0.045,0.045,0.045,000,0.045
2015-06-18,0.045,0.045,0.045,0.045,000,0.045
2015-06-17,0.045,0.045,0.045,0.045,000,0.045
2015-06-16,0.045,0.045,0.045,0.045,000,0.045
2015-06-15,0.045,0.045,0.045,0.045,000,0.045
2015-06-12,0.045,0.045,0.045,0.045,000,0.045
2015-06-11,0.045,0.045,0.045,0.045,000,0.045
2015-06-10,0.045,0.045,0.045,0.045,000,0.045
2015-06-09,0.045,0.045,0.045,0.045,000,0.045
2015-06-08,0.045,0.045,0.045,0.045,000,0.045
2015-06-05,0.045,0.045,0.045,0.045,000,0.045
2015-06-04,0.045,0.045,0.045,0.045,000,0.045
2015-06-03,0.045,0.045,0.045,0.045,000,0.045
2015-06-02,0.045,0.045,0.045,0.045,000,0.045
2015-06-01,0.045,0.045,0.045,0.045,000,0.045
2015-05-29,0.045,0.045,0.045,0.045,000,0.045
2015-05-28,0.045,0.045,0.045,0.045,000,0.045
2015-05-27,0.045,0.045,0.045,0.045,000,0.045
2015-05-26,0.045,0.045,0.045,0.045,000,0.045
2015-05-25,0.045,0.045,0.045,0.045,000,0.045
2015-05-22,0.045,0.045,0.045,0.045,000,0.045
2015-05-21,0.045,0.045,0.045,0.045,000,0.045
2015-05-20,0.045,0.045,0.045,0.045,000,0.045
2015-05-19,0.045,0.045,0.045,0.045,000,0.045
2015-05-18,0.045,0.045,0.045,0.045,000,0.045
2015-05-15,0.045,0.045,0.045,0.045,000,0.045
2015-05-14,0.045,0.045,0.045,0.045,000,0.045
2015-05-13,0.045,0.045,0.045,0.045,000,0.045
2015-05-12,0.045,0.045,0.045,0.045,000,0.045
2015-05-11,0.045,0.045,0.045,0.045,000,0.045
2015-05-08,0.045,0.045,0.045,0.045,000,0.045
2015-05-07,0.045,0.045,0.045,0.045,000,0.045
2015-05-06,0.045,0.045,0.045,0.045,000,0.045
2015-05-05,0.045,0.045,0.045,0.045,000,0.045
2015-05-04,0.045,0.045,0.045,0.045,000,0.045
2015-05-01,0.045,0.045,0.045,0.045,000,0.045
2015-04-30,0.045,0.045,0.045,0.045,000,0.045
2015-04-29,0.045,0.045,0.045,0.045,000,0.045
2015-04-28,0.045,0.045,0.045,0.045,000,0.045
2015-04-27,0.045,0.045,0.045,0.045,000,0.045
2015-04-24,0.045,0.045,0.045,0.045,000,0.045
2015-04-23,0.045,0.045,0.045,0.045,000,0.045
2015-04-22,0.045,0.045,0.045,0.045,000,0.045
2015-04-21,0.045,0.045,0.045,0.045,000,0.045
2015-04-20,0.045,0.045,0.045,0.045,000,0.045
2015-04-17,0.045,0.045,0.045,0.045,000,0.045
2015-04-16,0.045,0.045,0.045,0.045,000,0.045
2015-04-15,0.045,0.045,0.045,0.045,000,0.045
2015-04-14,0.045,0.045,0.045,0.045,000,0.045
2015-04-13,0.045,0.045,0.045,0.045,000,0.045
2015-04-10,0.045,0.045,0.045,0.045,000,0.045
2015-04-09,0.045,0.045,0.045,0.045,000,0.045
2015-04-08,0.045,0.045,0.045,0.045,000,0.045
2015-04-07,0.045,0.045,0.045,0.045,000,0.045
2015-04-06,0.045,0.045,0.045,0.045,000,0.045
2015-04-03,0.045,0.045,0.045,0.045,000,0.045
2015-04-02,0.045,0.045,0.045,0.045,000,0.045
2015-04-01,0.045,0.045,0.045,0.045,000,0.045
2015-03-31,0.045,0.045,0.045,0.045,000,0.045
2015-03-30,0.045,0.045,0.045,0.045,000,0.045
2015-03-27,0.045,0.045,0.045,0.045,000,0.045
2015-03-26,0.045,0.045,0.045,0.045,000,0.045
2015-03-25,0.045,0.045,0.045,0.045,000,0.045
2015-03-24,0.045,0.045,0.045,0.045,000,0.045
2015-03-23,0.045,0.045,0.045,0.045,000,0.045
2015-03-20,0.045,0.045,0.045,0.045,000,0.045
2015-03-19,0.045,0.045,0.045,0.045,000,0.045
2015-03-18,0.045,0.045,0.045,0.045,000,0.045
2015-03-17,0.045,0.045,0.045,0.045,000,0.045
2015-03-16,0.045,0.045,0.045,0.045,000,0.045
2015-03-13,0.045,0.045,0.045,0.045,000,0.045
2015-03-12,0.045,0.045,0.045,0.045,000,0.045
2015-03-11,0.045,0.045,0.045,0.045,000,0.045
2015-03-10,0.045,0.045,0.045,0.045,000,0.045
2015-03-09,0.045,0.045,0.045,0.045,000,0.045
2015-03-06,0.045,0.045,0.045,0.045,000,0.045
2015-03-05,0.045,0.045,0.045,0.045,000,0.045
2015-03-04,0.045,0.045,0.045,0.045,000,0.045
2015-03-03,0.045,0.045,0.045,0.045,000,0.045
2015-03-02,0.045,0.045,0.045,0.045,000,0.045
2015-02-27,0.045,0.045,0.045,0.045,000,0.045
2015-02-26,0.045,0.045,0.045,0.045,000,0.045
2015-02-25,0.045,0.045,0.045,0.045,000,0.045
2015-02-24,0.045,0.045,0.045,0.045,000,0.045
2015-02-23,0.045,0.045,0.045,0.045,000,0.045
2015-02-20,0.045,0.045,0.045,0.045,000,0.045
2015-02-19,0.045,0.045,0.045,0.045,000,0.045
2015-02-18,0.045,0.045,0.045,0.045,000,0.045
2015-02-17,0.045,0.045,0.045,0.045,000,0.045
2015-02-16,0.045,0.045,0.045,0.045,000,0.045
2015-02-13,0.045,0.045,0.045,0.045,000,0.045
2015-02-12,0.045,0.045,0.045,0.045,000,0.045
2015-02-11,0.045,0.045,0.045,0.045,000,0.045
2015-02-10,0.045,0.045,0.045,0.045,000,0.045
2015-02-09,0.045,0.045,0.045,0.045,000,0.045
2015-02-06,0.045,0.045,0.045,0.045,000,0.045
2015-02-05,0.045,0.045,0.045,0.045,000,0.045
2015-02-04,0.045,0.045,0.045,0.045,000,0.045
2015-02-03,0.045,0.045,0.045,0.045,000,0.045
2015-02-02,2.25,2.25,2.25,2.25,000,112.50
2015-01-30,2.25,2.25,2.25,2.25,000,112.50
2015-01-29,0.045,0.045,0.045,0.045,000,2.25
2015-01-28,0.045,0.045,0.045,0.045,000,2.25
2015-01-27,0.045,0.045,0.045,0.045,000,2.25
2015-01-26,0.045,0.045,0.045,0.045,000,2.25
2015-01-23,0.045,0.045,0.045,0.045,000,2.25
2015-01-22,0.045,0.045,0.045,0.045,000,2.25
2015-01-21,0.045,0.045,0.045,0.045,000,2.25
2015-01-20,0.045,0.045,0.045,0.045,000,2.25
2015-01-19,0.045,0.045,0.045,0.045,11100,2.25
2015-01-16,0.045,0.045,0.045,0.045,2600,2.25
2015-01-15,0.045,0.045,0.045,0.045,200,2.25
2015-01-14,0.045,0.045,0.045,0.045,400,2.25
2015-01-13,0.045,0.045,0.045,0.045,000,2.25
2015-01-12,0.045,0.045,0.045,0.045,000,2.25
2015-01-09,0.045,0.045,0.045,0.045,000,2.25
2015-01-08,0.045,0.045,0.045,0.045,000,2.25
2015-01-07,0.045,0.045,0.045,0.045,000,2.25
2015-01-06,0.045,0.045,0.045,0.045,6600,2.25
2015-01-05,0.045,0.045,0.045,0.045,000,2.25
2015-01-02,0.0009,0.0009,0.0009,0.0009,000,0.045
2015-01-01,0.0009,0.0009,0.0009,0.0009,000,0.045
2014-12-31,0.0009,0.0009,0.0009,0.0009,000,0.045
2014-12-30,0.0009,0.0009,0.0009,0.0009,000,0.045
2014-12-29,0.0009,0.0009,0.0009,0.0009,000,0.045
2014-12-26,0.0009,0.0009,0.0009,0.0009,000,0.045
2014-12-25,0.0009,0.0009,0.0009,0.0009,000,0.045
2014-12-24,0.0009,0.0009,0.0009,0.0009,000,0.045
2014-12-23,0.0009,0.0009,0.0009,0.0009,000,0.045
2014-12-22,0.0009,0.0009,0.0009,0.0009,000,0.045
2014-12-19,0.0009,0.0009,0.0009,0.0009,000,0.045
2014-12-18,0.0009,0.0009,0.0009,0.0009,000,0.045
2014-12-17,0.0009,0.0009,0.0009,0.0009,000,0.045
2014-12-16,0.0009,0.0009,0.0009,0.0009,3300,0.045
2014-12-15,0.0009,0.0009,0.0009,0.0009,000,0.045
2014-12-12,0.0009,0.0009,0.0009,0.0009,000,0.045
2014-12-11,0.0009,0.0009,0.0009,0.0009,000,0.045
2014-12-10,0.0009,0.0009,0.0009,0.0009,000,0.045
2014-12-09,0.0009,0.0009,0.0009,0.0009,000,0.045
2014-12-08,0.0009,0.0009,0.0009,0.0009,000,0.045
2014-12-05,0.0009,0.0009,0.0009,0.0009,000,0.045
2014-12-04,0.0009,0.0009,0.0009,0.0009,000,0.045
2014-12-03,0.0009,0.0009,0.0009,0.0009,3300,0.045
2014-12-02,0.0009,0.0009,0.0009,0.0009,000,0.045
2014-12-01,0.0009,0.0009,0.0009,0.0009,000,0.045
2014-11-28,0.0009,0.0009,0.0009,0.0009,000,0.045
2014-11-27,0.0009,0.0009,0.0009,0.0009,000,0.045
2014-11-26,0.0009,0.0009,0.0009,0.0009,000,0.045
2014-11-25,0.0009,0.0009,0.0009,0.0009,000,0.045
2014-11-24,0.0009,0.0009,0.0009,0.0009,24400,0.045
2014-11-21,0.0018,0.0018,0.0018,0.0018,000,0.09
2014-11-20,0.0018,0.0018,0.0018,0.0018,000,0.09
2014-11-19,0.0018,0.0018,0.0018,0.0018,000,0.09
2014-11-18,0.0018,0.0018,0.0018,0.0018,000,0.09
2014-11-17,0.0018,0.0018,0.0018,0.0018,000,0.09
2014-11-14,0.0018,0.0018,0.0018,0.0018,000,0.09
2014-11-13,0.0018,0.0018,0.0018,0.0018,000,0.09
2014-11-12,0.0018,0.0018,0.0018,0.0018,000,0.09
2014-11-11,0.0018,0.0018,0.0018,0.0018,000,0.09
2014-11-10,0.0018,0.0018,0.0018,0.0018,000,0.09
2014-11-07,0.0018,0.0018,0.0018,0.0018,000,0.09
2014-11-06,0.0018,0.0018,0.0018,0.0018,000,0.09
2014-11-05,0.0018,0.0018,0.0018,0.0018,000,0.09
2014-11-04,0.0018,0.0018,0.0018,0.0018,000,0.09
2014-11-03,0.0018,0.0018,0.0018,0.0018,000,0.09
2014-10-31,0.0018,0.0018,0.0018,0.0018,000,0.09
2014-10-30,0.0018,0.0018,0.0018,0.0018,000,0.09
2014-10-29,0.0018,0.0018,0.0018,0.0018,000,0.09
2014-10-28,0.0018,0.0018,0.0018,0.0018,000,0.09
2014-10-27,0.0018,0.0018,0.0018,0.0018,000,0.09
2014-10-24,0.0018,0.0018,0.0018,0.0018,000,0.09
2014-10-23,0.0018,0.0018,0.0018,0.0018,000,0.09
2014-10-22,0.0018,0.0018,0.0018,0.0018,000,0.09
2014-10-21,0.0018,0.0018,0.0018,0.0018,000,0.09
2014-10-20,0.0018,0.0018,0.0018,0.0018,000,0.09
2014-10-17,0.0018,0.0018,0.0018,0.0018,000,0.09
2014-10-16,0.0018,0.0018,0.0018,0.0018,000,0.09
2014-10-15,0.0018,0.0018,0.0018,0.0018,000,0.09
2014-10-14,0.0018,0.0018,0.0018,0.0018,000,0.09
2014-10-13,0.0018,0.0018,0.0018,0.0018,000,0.09
2014-10-10,0.0018,0.0018,0.0018,0.0018,000,0.09
2014-10-09,0.0018,0.0018,0.0018,0.0018,000,0.09
2014-10-08,0.0018,0.0018,0.0018,0.0018,000,0.09
2014-10-07,0.0018,0.0018,0.0018,0.0018,000,0.09
2014-10-06,0.0018,0.0018,0.0018,0.0018,000,0.09
2014-10-03,0.0018,0.0018,0.0018,0.0018,11100,0.09
2014-10-02,0.0018,0.0018,0.0018,0.0018,000,0.09
2014-10-01,0.0018,0.0018,0.0018,0.0018,3300,0.09
2014-09-30,0.0027,0.0027,0.0027,0.0027,22200,0.135
2014-09-29,0.0027,0.0027,0.0027,0.0027,000,0.135
2014-09-26,0.0027,0.0027,0.0027,0.0027,130600,0.135
2014-09-25,0.0027,0.0027,0.0027,0.0027,125500,0.135
2014-09-24,0.0018,0.0018,0.0018,0.0018,000,0.09
2014-09-23,0.0018,0.0018,0.0018,0.0018,000,0.09
2014-09-22,0.0018,0.0018,0.0018,0.0018,212400,0.09
2014-09-19,0.0018,0.0018,0.0018,0.0018,000,0.09
2014-09-18,0.0018,0.0018,0.0018,0.0018,000,0.09
2014-09-17,0.0018,0.0018,0.0018,0.0018,000,0.09
2014-09-16,0.0018,0.0018,0.0018,0.0018,000,0.09
2014-09-15,0.0018,0.0018,0.0018,0.0018,000,0.09
2014-09-12,0.0018,0.0018,0.0018,0.0018,000,0.09
2014-09-11,0.0018,0.0018,0.0018,0.0018,66400,0.09
2014-09-10,0.0009,0.0009,0.0009,0.0009,000,0.045
2014-09-09,0.0009,0.0009,0.0009,0.0009,2000,0.045
2014-09-08,0.0009,0.0009,0.0009,0.0009,000,0.045
2014-09-05,0.0009,0.0009,0.0009,0.0009,1600,0.045
2014-09-04,0.0009,0.0009,0.0009,0.0009,000,0.045
2014-09-03,0.0009,0.0009,0.0009,0.0009,000,0.045
2014-09-02,0.0009,0.0009,0.0009,0.0009,200,0.045
2014-09-01,0.0018,0.0018,0.0018,0.0018,000,0.09
2014-08-29,0.0018,0.0018,0.0018,0.0018,000,0.09
2014-08-28,0.0018,0.0018,0.0018,0.0018,000,0.09
2014-08-27,0.0018,0.0018,0.0018,0.0018,000,0.09
2014-08-26,0.0018,0.0018,0.0018,0.0018,000,0.09
2014-08-25,0.0018,0.0018,0.0018,0.0018,000,0.09
2014-08-22,0.0018,0.0018,0.0018,0.0018,000,0.09
2014-08-21,0.0018,0.0018,0.0018,0.0018,000,0.09
2014-08-20,0.0018,0.0018,0.0018,0.0018,000,0.09
2014-08-19,0.0018,0.0018,0.0018,0.0018,000,0.09
2014-08-18,0.0018,0.0018,0.0018,0.0018,000,0.09
2014-08-15,0.0018,0.0018,0.0018,0.0018,000,0.09
2014-08-14,0.0018,0.0018,0.0018,0.0018,000,0.09
2014-08-13,0.0018,0.0018,0.0018,0.0018,000,0.09
2014-08-12,0.0018,0.0018,0.0018,0.0018,4400,0.09
2014-08-11,0.0009,0.0009,0.0009,0.0009,000,0.045
2014-08-08,0.0009,0.0009,0.0009,0.0009,22200,0.045
2014-08-07,0.0018,0.0018,0.0018,0.0018,000,0.09
2014-08-06,0.00116,0.00116,0.00116,0.00116,19000,0.05786
2014-08-05,0.00058,0.00058,0.00058,0.00058,000,0.02893
2014-08-04,0.00058,0.00058,0.00058,0.00058,000,0.02893
2014-08-01,0.00058,0.00058,0.00058,0.00058,000,0.02893
2014-07-31,0.00058,0.00058,0.00058,0.00058,34500,0.02893
2014-07-30,0.00116,0.00116,0.00116,0.00116,8600,0.05786
2014-07-29,0.00116,0.00116,0.00116,0.00116,000,0.05786
2014-07-28,0.00116,0.00116,0.00116,0.00116,000,0.05786
2014-07-25,0.00116,0.00116,0.00116,0.00116,000,0.05786
2014-07-24,0.00116,0.00116,0.00116,0.00116,000,0.05786
2014-07-23,0.00116,0.00116,0.00116,0.00116,000,0.05786
2014-07-22,0.00116,0.00116,0.00116,0.00116,000,0.05786
2014-07-21,0.00116,0.00116,0.00116,0.00116,000,0.05786
2014-07-18,0.00116,0.00116,0.00116,0.00116,000,0.05786
2014-07-17,0.00116,0.00116,0.00116,0.00116,000,0.05786
2014-07-16,0.00116,0.00116,0.00116,0.00116,000,0.05786
2014-07-15,0.00116,0.00116,0.00116,0.00116,000,0.05786
2014-07-14,0.00116,0.00116,0.00116,0.00116,000,0.05786
2014-07-11,0.00116,0.00116,0.00116,0.00116,000,0.05786
2014-07-10,0.00116,0.00116,0.00116,0.00116,000,0.05786
2014-07-09,0.00116,0.00116,0.00116,0.00116,000,0.05786
2014-07-08,0.00116,0.00116,0.00116,0.00116,000,0.05786
2014-07-07,0.00116,0.00116,0.00116,0.00116,10300,0.05786
2014-07-04,0.00058,0.00058,0.00058,0.00058,13000,0.02893
2014-07-03,0.00058,0.00058,0.00058,0.00058,87200,0.02893
2014-07-02,0.00116,0.00116,0.00116,0.00116,000,0.05786
2014-07-01,0.00058,0.00116,0.00058,0.00116,6000,0.05786
2014-06-30,0.00058,0.00058,0.00058,0.00058,000,0.02893
2014-06-27,0.00058,0.00058,0.00058,0.00058,120200,0.02893
2014-06-26,0.00058,0.00058,0.00058,0.00058,320100,0.02893
2014-06-25,0.00058,0.00058,0.00058,0.00058,000,0.02893
2014-06-24,0.00058,0.00058,0.00058,0.00058,4100,0.02893
2014-06-23,0.00058,0.00058,0.00058,0.00058,73400,0.02893
2014-06-20,0.00058,0.00058,0.00058,0.00058,000,0.02893
2014-06-19,0.00058,0.00058,0.00058,0.00058,000,0.02893
2014-06-18,0.00058,0.00058,0.00058,0.00058,000,0.02893
2014-06-17,0.00058,0.00058,0.00058,0.00058,22500,0.02893
2014-06-16,0.00058,0.00058,0.00058,0.00058,000,0.02893
2014-06-13,0.00058,0.00058,0.00058,0.00058,1300,0.02893
2014-06-12,0.00058,0.00058,0.00058,0.00058,000,0.02893
2014-06-11,0.00058,0.00058,0.00058,0.00058,000,0.02893
2014-06-10,0.00058,0.00058,0.00058,0.00058,4200,0.02893
2014-06-09,0.00058,0.00058,0.00058,0.00058,000,0.02893
2014-06-06,0.00058,0.00058,0.00058,0.00058,3200,0.02893
2014-06-05,0.00116,0.00116,0.00116,0.00116,000,0.05786
2014-06-04,0.00116,0.00116,0.00116,0.00116,15900,0.05786
2014-06-03,0.00116,0.00116,0.00116,0.00116,1000,0.05786
2014-06-02,0.00116,0.00116,0.00116,0.00116,000,0.05786
2014-05-30,0.00116,0.00116,0.00116,0.00116,000,0.05786
2014-05-29,0.00116,0.00116,0.00116,0.00116,000,0.05786
2014-05-28,0.00116,0.00116,0.00116,0.00116,10300,0.05786
2014-05-27,0.00116,0.00116,0.00116,0.00116,15500,0.05786
2014-05-26,0.00116,0.00116,0.00116,0.00116,91500,0.05786
2014-05-23,0.00116,0.00116,0.00116,0.00116,000,0.05786
2014-05-22,0.00116,0.00116,0.00116,0.00116,45700,0.05786
2014-05-21,0.00116,0.00116,0.00116,0.00116,000,0.05786
2014-05-20,0.00116,0.00116,0.00116,0.00116,000,0.05786
2014-05-19,0.00116,0.00116,0.00116,0.00116,15500,0.05786
2014-05-16,0.00116,0.00116,0.00116,0.00116,000,0.05786
2014-05-15,0.00116,0.00116,0.00116,0.00116,131500,0.05786
2014-05-14,0.00058,0.00058,0.00058,0.00058,1300,0.02893
2014-05-13,0.00116,0.00116,0.00116,0.00116,000,0.05786
2014-05-12,0.00116,0.00116,0.00116,0.00116,000,0.05786
2014-05-09,0.00116,0.00116,0.00116,0.00116,000,0.05786
2014-05-08,0.00116,0.00116,0.00116,0.00116,000,0.05786
2014-05-07,0.00116,0.00116,0.00116,0.00116,000,0.05786
2014-05-06,0.00116,0.00116,0.00116,0.00116,48100,0.05786
2014-05-05,0.00116,0.00116,0.00116,0.00116,000,0.05786
2014-05-02,0.00116,0.00116,0.00116,0.00116,000,0.05786
2014-05-01,0.00116,0.00116,0.00116,0.00116,000,0.05786
2014-04-30,0.00174,0.00174,0.00116,0.00116,000,0.05786
2014-04-29,0.00116,0.00116,0.00116,0.00116,1000,0.05786
2014-04-28,0.00116,0.00116,0.00116,0.00116,76200,0.05786
2014-04-25,0.00058,0.00058,0.00058,0.00058,000,0.02893
2014-04-24,0.00058,0.00058,0.00058,0.00058,4000,0.02893
2014-04-23,0.00116,0.00116,0.00116,0.00116,000,0.05786
2014-04-22,0.00116,0.00116,0.00116,0.00116,000,0.05786
2014-04-21,0.00116,0.00116,0.00116,0.00116,000,0.05786
2014-04-18,0.00116,0.00116,0.00116,0.00116,000,0.05786
2014-04-17,0.00116,0.00116,0.00116,0.00116,000,0.05786
2014-04-16,0.00116,0.00116,0.00116,0.00116,000,0.05786
2014-04-15,0.00116,0.00116,0.00116,0.00116,30600,0.05786
2014-04-14,0.00116,0.00116,0.00116,0.00116,000,0.05786
2014-04-11,0.00116,0.00116,0.00116,0.00116,3900,0.05786
2014-04-10,0.00116,0.00116,0.00116,0.00116,000,0.05786
2014-04-09,0.00116,0.00116,0.00116,0.00116,000,0.05786
2014-04-08,0.00116,0.00116,0.00116,0.00116,000,0.05786
2014-04-07,0.00116,0.00116,0.00116,0.00116,000,0.05786
2014-04-04,0.00116,0.00116,0.00116,0.00116,000,0.05786
2014-04-03,0.00116,0.00116,0.00116,0.00116,22900,0.05786
2014-04-02,0.00116,0.00116,0.00116,0.00116,000,0.05786
2014-04-01,0.00116,0.00116,0.00116,0.00116,000,0.05786
2014-03-31,0.00116,0.00116,0.00116,0.00116,000,0.05786
2014-03-28,0.00116,0.00116,0.00116,0.00116,23200,0.05786
2014-03-27,0.00058,0.00058,0.00058,0.00058,000,0.02893
2014-03-26,0.00058,0.00058,0.00058,0.00058,900,0.02893
2014-03-25,0.00116,0.00116,0.00058,0.00058,000,0.02893
2014-03-24,0.00116,0.00116,0.00116,0.00116,33600,0.05786
2014-03-21,0.00116,0.00116,0.00116,0.00116,11000,0.05786
2014-03-20,0.00116,0.00116,0.00116,0.00116,8600,0.05786
2014-03-19,0.00116,0.00116,0.00116,0.00116,16100,0.05786
2014-03-18,0.00058,0.00058,0.00058,0.00058,000,0.02893
2014-03-17,0.00116,0.00116,0.00058,0.00058,144300,0.02893
2014-03-14,0.00116,0.00116,0.00116,0.00116,000,0.05786
2014-03-13,0.00116,0.00116,0.00116,0.00116,000,0.05786
2014-03-12,0.00116,0.00116,0.00116,0.00116,000,0.05786
2014-03-11,0.00116,0.00116,0.00116,0.00116,000,0.05786
2014-03-10,0.00116,0.00116,0.00116,0.00116,000,0.05786
2014-03-07,0.00116,0.00116,0.00116,0.00116,000,0.05786
2014-03-06,0.00116,0.00116,0.00116,0.00116,000,0.05786
2014-03-05,0.00116,0.00116,0.00116,0.00116,000,0.05786
2014-03-04,0.00116,0.00116,0.00116,0.00116,000,0.05786
2014-03-03,0.00116,0.00116,0.00116,0.00116,000,0.05786
2014-02-28,0.00116,0.00116,0.00116,0.00116,000,0.05786
2014-02-27,0.00116,0.00116,0.00116,0.00116,000,0.05786
2014-02-26,0.00116,0.00116,0.00116,0.00116,000,0.05786
2014-02-25,0.00116,0.00116,0.00116,0.00116,000,0.05786
2014-02-24,0.00116,0.00116,0.00116,0.00116,000,0.05786
2014-02-21,0.00116,0.00116,0.00116,0.00116,000,0.05786
2014-02-20,0.00116,0.00116,0.00116,0.00116,000,0.05786
2014-02-19,0.00116,0.00116,0.00116,0.00116,000,0.05786
2014-02-18,0.00116,0.00116,0.00116,0.00116,30200,0.05786
2014-02-17,0.00174,0.00174,0.00116,0.00116,65600,0.05786
2014-02-14,0.00116,0.00116,0.00116,0.00116,000,0.05786
2014-02-13,0.00116,0.00116,0.00116,0.00116,000,0.05786
2014-02-12,0.00116,0.00116,0.00116,0.00116,000,0.05786
2014-02-11,0.00174,0.00174,0.00116,0.00116,2600,0.05786
2014-02-10,0.00116,0.00116,0.00116,0.00116,1700,0.05786
2014-02-07,0.00174,0.00174,0.00174,0.00174,000,0.08679
2014-02-06,0.00174,0.00174,0.00174,0.00174,000,0.08679
2014-02-05,0.00174,0.00174,0.00174,0.00174,8600,0.08679
2014-02-04,0.00116,0.00116,0.00116,0.00116,29500,0.05786
2014-02-03,0.00174,0.00174,0.00174,0.00174,000,0.08679
2014-01-31,0.00174,0.00174,0.00174,0.00174,10100,0.08679
2014-01-30,0.00174,0.00174,0.00174,0.00174,000,0.08679
2014-01-29,0.00174,0.00174,0.00174,0.00174,000,0.08679
2014-01-28,0.00174,0.00174,0.00174,0.00174,10300,0.08679
2014-01-27,0.00174,0.00174,0.00174,0.00174,000,0.08679
2014-01-24,0.00174,0.00174,0.00174,0.00174,000,0.08679
2014-01-23,0.00174,0.00174,0.00174,0.00174,6900,0.08679
2014-01-22,0.00174,0.00174,0.00174,0.00174,000,0.08679
2014-01-21,0.00174,0.00174,0.00174,0.00174,000,0.08679
2014-01-20,0.00174,0.00174,0.00174,0.00174,000,0.08679
2014-01-17,0.00174,0.00174,0.00174,0.00174,000,0.08679
2014-01-16,0.00174,0.00174,0.00174,0.00174,000,0.08679
2014-01-15,0.00174,0.00174,0.00174,0.00174,000,0.08679
2014-01-14,0.00174,0.00174,0.00174,0.00174,000,0.08679
2014-01-13,0.00174,0.00174,0.00174,0.00174,000,0.08679
2014-01-10,0.00174,0.00174,0.00174,0.00174,000,0.08679
2014-01-09,0.00174,0.00174,0.00174,0.00174,000,0.08679
2014-01-08,0.00174,0.00174,0.00174,0.00174,19300,0.08679
2014-01-07,0.00174,0.00174,0.00174,0.00174,000,0.08679
2014-01-06,0.00174,0.00174,0.00174,0.00174,28800,0.08679
2014-01-03,0.00116,0.00116,0.00116,0.00116,1700,0.05786
2014-01-02,0.00116,0.00116,0.00116,0.00116,000,0.05786
2014-01-01,0.00116,0.00116,0.00116,0.00116,000,0.05786
2013-12-31,0.00116,0.00116,0.00116,0.00116,000,0.05786
2013-12-30,0.00116,0.00116,0.00116,0.00116,000,0.05786
2013-12-27,0.00116,0.00116,0.00116,0.00116,000,0.05786
2013-12-26,0.00116,0.00116,0.00116,0.00116,000,0.05786
2013-12-25,0.00116,0.00116,0.00116,0.00116,000,0.05786
2013-12-24,0.00116,0.00116,0.00116,0.00116,000,0.05786
2013-12-23,0.00116,0.00116,0.00116,0.00116,000,0.05786
2013-12-20,0.00116,0.00116,0.00116,0.00116,000,0.05786
2013-12-19,0.00116,0.00116,0.00116,0.00116,000,0.05786
2013-12-18,0.00116,0.00116,0.00116,0.00116,62200,0.05786
2013-12-17,0.00116,0.00116,0.00116,0.00116,000,0.05786
2013-12-16,0.00116,0.00116,0.00116,0.00116,000,0.05786
2013-12-13,0.00116,0.00116,0.00116,0.00116,24100,0.05786
2013-12-12,0.00174,0.00174,0.00174,0.00174,000,0.08679
2013-12-11,0.00174,0.00174,0.00174,0.00174,000,0.08679
2013-12-10,0.00174,0.00174,0.00174,0.00174,000,0.08679
2013-12-09,0.00174,0.00174,0.00174,0.00174,000,0.08679
2013-12-06,0.00174,0.00174,0.00174,0.00174,000,0.08679
2013-12-05,0.00174,0.00174,0.00174,0.00174,000,0.08679
2013-12-04,0.00174,0.00174,0.00174,0.00174,000,0.08679
2013-12-03,0.00174,0.00174,0.00174,0.00174,000,0.08679
2013-12-02,0.00174,0.00174,0.00174,0.00174,000,0.08679
2013-11-29,0.00174,0.00174,0.00174,0.00174,173500,0.08679
2013-11-28,0.00174,0.00174,0.00174,0.00174,000,0.08679
2013-11-27,0.00174,0.00174,0.00174,0.00174,000,0.08679
2013-11-26,0.00174,0.00174,0.00174,0.00174,000,0.08679
2013-11-25,0.00174,0.00174,0.00174,0.00174,000,0.08679
2013-11-22,0.00174,0.00174,0.00174,0.00174,000,0.08679
2013-11-21,0.00174,0.00174,0.00174,0.00174,000,0.08679
2013-11-20,0.00174,0.00174,0.00174,0.00174,000,0.08679
2013-11-19,0.00174,0.00174,0.00174,0.00174,2600,0.08679
2013-11-18,0.00174,0.00174,0.00174,0.00174,000,0.08679
2013-11-15,0.00174,0.00174,0.00174,0.00174,000,0.08679
2013-11-14,0.00174,0.00174,0.00174,0.00174,000,0.08679
2013-11-13,0.00174,0.00174,0.00174,0.00174,000,0.08679
2013-11-12,0.00174,0.00174,0.00174,0.00174,000,0.08679
2013-11-11,0.00174,0.00174,0.00174,0.00174,000,0.08679
2013-11-08,0.00174,0.00174,0.00174,0.00174,300,0.08679
2013-11-07,0.00174,0.00203,0.00174,0.00174,4800,0.08679
2013-11-06,0.00231,0.00231,0.00174,0.00174,36600,0.08679
2013-11-05,0.00174,0.00174,0.00174,0.00174,14500,0.08679
2013-11-04,0.00231,0.00231,0.00231,0.00231,000,0.11572
2013-11-01,0.00231,0.00231,0.00231,0.00231,000,0.11572
2013-10-31,0.00231,0.00231,0.00231,0.00231,000,0.11572
2013-10-30,0.00289,0.00289,0.00231,0.00231,39900,0.11572
2013-10-29,0.00174,0.00174,0.00174,0.00174,000,0.08679
2013-10-28,0.00174,0.00174,0.00174,0.00174,000,0.08679
2013-10-25,0.00174,0.00174,0.00174,0.00174,000,0.08679
2013-10-24,0.00174,0.00174,0.00174,0.00174,000,0.08679
2013-10-23,0.00231,0.00231,0.00174,0.00174,11700,0.08679
2013-10-22,0.00174,0.00174,0.00174,0.00174,5900,0.08679
2013-10-21,0.00231,0.00231,0.00231,0.00231,000,0.11572
2013-10-18,0.00231,0.00231,0.00231,0.00231,000,0.11572
2013-10-17,0.00231,0.00231,0.00231,0.00231,000,0.11572
2013-10-16,0.00231,0.00231,0.00231,0.00231,000,0.11572
2013-10-15,0.00231,0.00231,0.00231,0.00231,000,0.11572
2013-10-14,0.00231,0.00231,0.00231,0.00231,000,0.11572
2013-10-11,0.00231,0.00231,0.00231,0.00231,4600,0.11572
2013-10-10,0.00174,0.00231,0.00174,0.00174,83800,0.08679
2013-10-09,0.00174,0.00174,0.00174,0.00174,000,0.08679
2013-10-08,0.00174,0.00174,0.00174,0.00174,11900,0.08679
2013-10-07,0.00231,0.00231,0.00231,0.00231,000,0.11572
2013-10-04,0.00231,0.00231,0.00231,0.00231,4600,0.11572
2013-10-03,0.00231,0.00231,0.00231,0.00231,4300,0.11572
2013-10-02,0.00174,0.00174,0.00174,0.00174,6600,0.08679
2013-10-01,0.00174,0.00174,0.00174,0.00174,000,0.08679
2013-09-30,0.00231,0.00231,0.00174,0.00174,22400,0.08679
2013-09-27,0.00231,0.00231,0.00231,0.00231,4800,0.11572
2013-09-26,0.00231,0.00231,0.00231,0.00231,000,0.11572
2013-09-25,0.00231,0.00231,0.00231,0.00231,000,0.11572
2013-09-24,0.00231,0.00231,0.00231,0.00231,000,0.11572
2013-09-23,0.00231,0.00231,0.00231,0.00231,000,0.11572
2013-09-20,0.00231,0.00231,0.00231,0.00231,22000,0.11572
2013-09-19,0.00231,0.00231,0.00231,0.00231,000,0.11572
2013-09-18,0.00231,0.00231,0.00231,0.00231,000,0.11572
2013-09-17,0.00231,0.00231,0.00231,0.00231,8600,0.11572
2013-09-16,0.00174,0.00174,0.00174,0.00174,000,0.08679
2013-09-13,0.00174,0.00174,0.00174,0.00174,17200,0.08679
2013-09-12,0.00231,0.00231,0.00231,0.00231,000,0.11572
2013-09-11,0.00231,0.00231,0.00231,0.00231,7600,0.11572
2013-09-10,0.00231,0.00231,0.00174,0.00174,94700,0.08679
2013-09-09,0.00174,0.00174,0.00174,0.00174,34500,0.08679
2013-09-06,0.00174,0.00174,0.00174,0.00174,15800,0.08679
2013-09-05,0.00174,0.00231,0.00174,0.00231,100400,0.11572
2013-09-04,0.00231,0.00231,0.00231,0.00231,000,0.11572
2013-09-03,0.00231,0.00231,0.00231,0.00231,9700,0.11572
2013-09-02,0.00289,0.00289,0.00289,0.00289,000,0.14465
2013-08-30,0.00289,0.00289,0.00289,0.00289,5100,0.14465
2013-08-29,0.00231,0.00231,0.00231,0.00231,5100,0.11572
2013-08-28,0.00231,0.00231,0.00231,0.00231,17200,0.11572
2013-08-27,0.00289,0.00289,0.00289,0.00289,000,0.14465
2013-08-26,0.00289,0.00289,0.00289,0.00289,10100,0.14465
2013-08-23,0.00231,0.00231,0.00231,0.00231,000,0.11572
2013-08-22,0.00231,0.00231,0.00231,0.00231,3200,0.11572
2013-08-21,0.00231,0.00231,0.00231,0.00231,000,0.11572
2013-08-20,0.00231,0.00231,0.00231,0.00231,000,0.11572
2013-08-19,0.00231,0.00231,0.00231,0.00231,000,0.11572
2013-08-16,0.00231,0.00231,0.00231,0.00231,000,0.11572
2013-08-15,0.00231,0.00231,0.00231,0.00231,5800,0.11572
2013-08-14,0.00231,0.00231,0.00231,0.00231,000,0.11572
2013-08-13,0.00231,0.00231,0.00231,0.00231,80300,0.11572
2013-08-12,0.00231,0.00231,0.00231,0.00231,000,0.11572
2013-08-09,0.00231,0.00231,0.00231,0.00231,8600,0.11572
2013-08-08,0.00231,0.00231,0.00231,0.00231,000,0.11572
2013-08-07,0.00231,0.00231,0.00231,0.00231,000,0.11572
2013-08-06,0.00231,0.00231,0.00231,0.00231,58400,0.11572
2013-08-05,0.00289,0.00289,0.00289,0.00289,3400,0.14465
2013-08-02,0.00289,0.00289,0.00231,0.00231,51900,0.11572
2013-08-01,0.00347,0.00347,0.00347,0.00347,000,0.17358
2013-07-31,0.00347,0.00347,0.00347,0.00347,3400,0.17358
2013-07-30,0.00347,0.00347,0.00347,0.00347,000,0.17358
2013-07-29,0.00405,0.00405,0.00347,0.00347,13800,0.17358
2013-07-26,0.00347,0.00347,0.00347,0.00347,6900,0.17358
2013-07-25,0.00347,0.00347,0.00347,0.00347,000,0.17358
2013-07-24,0.00347,0.00347,0.00347,0.00347,000,0.17358
2013-07-23,0.00347,0.00347,0.00347,0.00347,3400,0.17358
2013-07-22,0.00347,0.00347,0.00347,0.00347,3300,0.17358
2013-07-19,0.00347,0.00347,0.00347,0.00347,13800,0.17358
2013-07-18,0.00347,0.00347,0.00347,0.00347,000,0.17358
2013-07-17,0.00347,0.00347,0.00347,0.00347,000,0.17358
2013-07-16,0.00347,0.00347,0.00347,0.00347,3400,0.17358
2013-07-15,0.00289,0.00289,0.00289,0.00289,000,0.14465
2013-07-12,0.00289,0.00289,0.00289,0.00289,3400,0.14465
2013-07-11,0.00289,0.00289,0.00289,0.00289,000,0.14465
2013-07-10,0.00289,0.00289,0.00289,0.00289,000,0.14465
2013-07-09,0.00289,0.00289,0.00289,0.00289,000,0.14465
2013-07-08,0.00347,0.00347,0.00289,0.00289,45500,0.14465
2013-07-05,0.00347,0.00347,0.00347,0.00347,30900,0.17358
2013-07-04,0.00289,0.00289,0.00289,0.00289,000,0.14465
2013-07-03,0.00289,0.00289,0.00289,0.00289,000,0.14465
2013-07-02,0.00289,0.00289,0.00289,0.00289,000,0.14465
2013-07-01,0.00289,0.00289,0.00289,0.00289,200,0.14465
2013-06-28,0.00289,0.00347,0.00289,0.00347,31100,0.17358
2013-06-27,0.00289,0.00347,0.00289,0.00347,10300,0.17358
2013-06-26,0.00347,0.00347,0.00347,0.00347,000,0.17358
2013-06-25,0.00289,0.00347,0.00289,0.00347,31100,0.17358
2013-06-24,0.00289,0.00289,0.00289,0.00289,115900,0.14465
2013-06-21,0.00347,0.00405,0.00347,0.00405,32800,0.20251
2013-06-20,0.00405,0.00405,0.00405,0.00405,34500,0.20251
2013-06-19,0.00405,0.00405,0.00405,0.00405,66400,0.20251
2013-06-18,0.00405,0.00405,0.00405,0.00405,3600,0.20251
2013-06-17,0.00463,0.00463,0.00463,0.00463,000,0.23144
2013-06-14,0.00405,0.00463,0.00405,0.00463,3200,0.23144
2013-06-13,0.00463,0.00463,0.00405,0.00405,21200,0.20251
2013-06-12,0.00579,0.00579,0.00463,0.00521,65100,0.26037
2013-06-11,0.00463,0.00521,0.00463,0.00463,56100,0.23144
2013-06-10,0.00463,0.00463,0.00463,0.00463,000,0.23144
2013-06-07,0.00521,0.00521,0.00463,0.00463,9200,0.23144
2013-06-06,0.00521,0.00521,0.00463,0.00521,100600,0.26037
2013-06-05,0.00579,0.00579,0.00405,0.00463,485900,0.23144
2013-06-04,0.00289,0.00926,0.00289,0.00579,1248500,0.28931
2013-06-03,0.00174,0.00174,0.00174,0.00174,000,0.08679
2013-05-31,0.00174,0.00174,0.00174,0.00174,000,0.08679
2013-05-30,0.00174,0.00174,0.00174,0.00174,500,0.08679
2013-05-29,0.00231,0.00231,0.00174,0.00174,24100,0.08679
2013-05-28,0.00231,0.00231,0.00231,0.00231,000,0.11572
2013-05-27,0.00231,0.00231,0.00231,0.00231,3400,0.11572
2013-05-24,0.00231,0.00231,0.00231,0.00231,000,0.11572
2013-05-23,0.00231,0.00231,0.00231,0.00231,19000,0.11572
2013-05-22,0.00289,0.00289,0.00289,0.00289,000,0.14465
2013-05-21,0.00231,0.00289,0.00231,0.00289,16700,0.14465
2013-05-20,0.00231,0.00231,0.00231,0.00231,000,0.11572
2013-05-17,0.00231,0.00231,0.00231,0.00231,1700,0.11572
2013-05-16,0.00289,0.00289,0.00289,0.00289,3500,0.14465
2013-05-15,0.00231,0.00231,0.00231,0.00231,000,0.11572
2013-05-14,0.00231,0.00231,0.00231,0.00231,13800,0.11572
2013-05-13,0.00231,0.00231,0.00231,0.00231,13000,0.11572
2013-05-10,0.00289,0.00289,0.00289,0.00289,8600,0.14465
2013-05-09,0.00231,0.00231,0.00231,0.00231,62300,0.11572
2013-05-08,0.00289,0.00289,0.00231,0.00231,34800,0.11572
2013-05-07,0.00347,0.00347,0.00347,0.00347,44500,0.17358
2013-05-06,0.00289,0.00289,0.00289,0.00289,17200,0.14465
2013-05-03,0.00231,0.00289,0.00231,0.00289,300,0.14465
2013-05-02,0.00231,0.00231,0.00231,0.00231,3200,0.11572
2013-05-01,0.00231,0.00231,0.00231,0.00231,3600,0.11572
2013-04-30,0.00231,0.00231,0.00231,0.00231,000,0.11572
2013-04-29,0.00231,0.00231,0.00231,0.00231,1300,0.11572
2013-04-26,0.00231,0.00231,0.00231,0.00231,5100,0.11572
2013-04-25,0.00174,0.00174,0.00174,0.00174,000,0.08679
2013-04-24,0.00231,0.00231,0.00174,0.00174,7700,0.08679
2013-04-23,0.00231,0.00231,0.00231,0.00231,000,0.11572
2013-04-22,0.00289,0.00289,0.00231,0.00231,22400,0.11572
2013-04-19,0.00289,0.00289,0.00231,0.00231,28500,0.11572
2013-04-18,0.00289,0.00289,0.00231,0.00231,27600,0.11572
2013-04-17,0.00289,0.00289,0.00289,0.00289,000,0.14465
2013-04-16,0.00463,0.00463,0.00289,0.00289,80900,0.14465
2013-04-15,0.00463,0.00463,0.00463,0.00463,300,0.23144
2013-04-12,0.00521,0.00521,0.00521,0.00521,000,0.26037
2013-04-11,0.00521,0.00521,0.00521,0.00521,300,0.26037
2013-04-10,0.00463,0.00463,0.00463,0.00463,2400,0.23144
2013-04-09,0.00463,0.00463,0.00463,0.00463,000,0.23144
2013-04-08,0.00463,0.00463,0.00463,0.00463,600,0.23144
2013-04-05,0.00463,0.00463,0.00463,0.00463,000,0.23144
2013-04-04,0.00521,0.00521,0.00463,0.00463,38000,0.23144
2013-04-03,0.00463,0.00463,0.00463,0.00463,000,0.23144
2013-04-02,0.00463,0.00463,0.00463,0.00463,2800,0.23144
2013-04-01,0.00521,0.00521,0.00521,0.00521,000,0.26037
2013-03-29,0.00521,0.00521,0.00521,0.00521,000,0.26037
2013-03-28,0.00521,0.00521,0.00521,0.00521,000,0.26037
2013-03-27,0.00521,0.00521,0.00521,0.00521,700,0.26037
2013-03-26,0.00579,0.00579,0.00579,0.00579,000,0.28931
2013-03-25,0.00694,0.00694,0.00579,0.00579,7000,0.28931
2013-03-22,0.00752,0.00752,0.00752,0.00752,1000,0.3761
2013-03-21,0.00636,0.00636,0.00636,0.00636,1000,0.31824
2013-03-20,0.00694,0.00694,0.00694,0.00694,26500,0.34717
2013-03-19,0.00694,0.00694,0.00694,0.00694,1700,0.34717
2013-03-18,0.00521,0.00521,0.00463,0.00463,4800,0.23144
2013-03-15,0.00579,0.00579,0.00579,0.00579,4500,0.28931
2013-03-14,0.00636,0.00636,0.00636,0.00636,16300,0.31824
2013-03-13,0.00636,0.00694,0.00636,0.00694,6900,0.34717
2013-03-12,0.00463,0.00463,0.00463,0.00463,000,0.23144
2013-03-11,0.00463,0.00463,0.00463,0.00463,000,0.23144
2013-03-08,0.00463,0.00463,0.00463,0.00463,800,0.23144
2013-03-07,0.00579,0.00579,0.00579,0.00579,20700,0.28931
2013-03-06,0.00463,0.00463,0.00463,0.00463,000,0.23144
2013-03-05,0.00463,0.00463,0.00463,0.00463,000,0.23144
2013-03-04,0.00463,0.00463,0.00463,0.00463,000,0.23144
2013-03-01,0.00463,0.00463,0.00463,0.00463,000,0.23144
2013-02-28,0.00521,0.00521,0.00463,0.00463,6400,0.23144
2013-02-27,0.00521,0.00521,0.00521,0.00521,3200,0.26037
2013-02-26,0.00521,0.00521,0.00521,0.00521,000,0.26037
2013-02-25,0.00521,0.00521,0.00521,0.00521,33300,0.26037
2013-02-22,0.00636,0.00636,0.00579,0.00579,8900,0.28931
2013-02-21,0.00521,0.00694,0.00521,0.00694,8100,0.34717
2013-02-20,0.00579,0.00579,0.00579,0.00579,000,0.28931
2013-02-19,0.00579,0.00579,0.00579,0.00579,000,0.28931
2013-02-18,0.00579,0.00579,0.00579,0.00579,000,0.28931
2013-02-15,0.00579,0.00579,0.00579,0.00579,13800,0.28931
2013-02-14,0.00579,0.00579,0.00579,0.00579,000,0.28931
2013-02-13,0.00579,0.00579,0.00579,0.00579,000,0.28931
2013-02-12,0.00579,0.00579,0.00579,0.00579,000,0.28931
2013-02-11,0.00579,0.00579,0.00579,0.00579,000,0.28931
2013-02-08,0.00579,0.00579,0.00579,0.00579,000,0.28931
2013-02-07,0.00579,0.00579,0.00579,0.00579,100,0.28931
2013-02-06,0.00579,0.00579,0.00579,0.00579,000,0.28931
2013-02-05,0.00579,0.00579,0.00579,0.00579,000,0.28931
2013-02-04,0.00694,0.00694,0.00579,0.00579,30400,0.28931
2013-02-01,0.00636,0.00636,0.00579,0.00636,31600,0.31824
2013-01-31,0.00579,0.00579,0.00579,0.00579,000,0.28931
2013-01-30,0.00579,0.00579,0.00579,0.00579,000,0.28931
2013-01-29,0.00521,0.00579,0.00521,0.00579,17200,0.28931
2013-01-28,0.00521,0.00521,0.00521,0.00521,000,0.26037
2013-01-25,0.00521,0.00521,0.00521,0.00521,23100,0.26037
2013-01-24,0.00521,0.00521,0.00521,0.00521,1700,0.26037
2013-01-23,0.00405,0.00463,0.00405,0.00405,17500,0.20251
2013-01-22,0.00463,0.00463,0.00463,0.00463,25400,0.23144
2013-01-21,0.00521,0.00521,0.00521,0.00521,5000,0.26037
2013-01-18,0.00521,0.00521,0.00521,0.00521,1700,0.26037
2013-01-17,0.00521,0.00521,0.00521,0.00521,10300,0.26037
2013-01-16,0.00521,0.00521,0.00521,0.00521,5100,0.26037
2013-01-15,0.00463,0.00463,0.00463,0.00463,000,0.23144
2013-01-14,0.00463,0.00463,0.00463,0.00463,000,0.23144
2013-01-11,0.00463,0.00463,0.00463,0.00463,000,0.23144
2013-01-10,0.00463,0.00463,0.00463,0.00463,14500,0.23144
2013-01-09,0.00463,0.00463,0.00463,0.00463,8600,0.23144
2013-01-08,0.00463,0.00463,0.00463,0.00463,1700,0.23144
2013-01-07,0.00463,0.00463,0.00463,0.00463,000,0.23144
2013-01-04,0.00521,0.00521,0.00463,0.00463,69100,0.23144
2013-01-03,0.00521,0.00521,0.00521,0.00521,000,0.26037
2013-01-02,0.00521,0.00521,0.00521,0.00521,300,0.26037
2013-01-01,0.00521,0.00521,0.00521,0.00521,000,0.26037
2012-12-31,0.00521,0.00521,0.00521,0.00521,000,0.26037
2012-12-28,0.00521,0.00521,0.00521,0.00521,22100,0.26037
2012-12-27,0.00463,0.00463,0.00463,0.00463,000,0.23144
2012-12-26,0.00463,0.00463,0.00463,0.00463,000,0.23144
2012-12-25,0.00463,0.00463,0.00463,0.00463,000,0.23144
2012-12-24,0.00463,0.00463,0.00463,0.00463,1700,0.23144
2012-12-21,0.00579,0.00636,0.00579,0.00579,4000,0.28931
2012-12-20,0.00521,0.00521,0.00463,0.00463,10300,0.23144
2012-12-19,0.00579,0.00579,0.00463,0.00521,38300,0.26037
2012-12-18,0.00636,0.00636,0.00636,0.00636,000,0.31824
2012-12-17,0.00636,0.00636,0.00636,0.00636,3400,0.31824
2012-12-14,0.00463,0.00463,0.00463,0.00463,000,0.23144
2012-12-13,0.00463,0.00463,0.00463,0.00463,000,0.23144
2012-12-12,0.00463,0.00463,0.00463,0.00463,000,0.23144
2012-12-11,0.00463,0.00463,0.00463,0.00463,000,0.23144
2012-12-10,0.00463,0.00463,0.00463,0.00463,000,0.23144
2012-12-07,0.00463,0.00463,0.00463,0.00463,000,0.23144
2012-12-06,0.00521,0.00521,0.00463,0.00463,1700,0.23144
2012-12-05,0.00521,0.00521,0.00521,0.00521,000,0.26037
2012-12-04,0.00636,0.00636,0.00463,0.00521,24000,0.26037
2012-12-03,0.00579,0.00579,0.00579,0.00579,000,0.28931
2012-11-30,0.00579,0.00579,0.00579,0.00579,000,0.28931
2012-11-29,0.00579,0.00579,0.00579,0.00579,300,0.28931
2012-11-28,0.00694,0.00694,0.00579,0.00579,20800,0.28931
2012-11-27,0.00752,0.00752,0.00694,0.00694,17200,0.34717
2012-11-26,0.00752,0.00752,0.00752,0.00752,000,0.3761
2012-11-23,0.00752,0.00752,0.00752,0.00752,1200,0.3761
2012-11-22,0.00984,0.00984,0.00984,0.00984,000,0.49182
2012-11-21,0.00868,0.00984,0.00868,0.00984,8800,0.49182
2012-11-20,0.00868,0.00868,0.00868,0.00868,4500,0.43396
2012-11-19,0.01041,0.01041,0.01041,0.01041,000,0.52075
2012-11-16,0.00984,0.01041,0.00868,0.01041,60800,0.52075
2012-11-15,0.00694,0.00868,0.00694,0.00868,22800,0.43396
2012-11-14,0.00694,0.00694,0.00694,0.00694,000,0.34717
2012-11-13,0.00694,0.00694,0.00694,0.00694,000,0.34717
2012-11-12,0.00694,0.00694,0.00694,0.00694,8400,0.34717
2012-11-09,0.00694,0.00694,0.00694,0.00694,000,0.34717
2012-11-08,0.00694,0.00694,0.00694,0.00694,11500,0.34717
2012-11-07,0.00636,0.00636,0.00636,0.00636,4200,0.31824
2012-11-06,0.00521,0.00521,0.00521,0.00521,000,0.26037
2012-11-05,0.00521,0.00521,0.00521,0.00521,000,0.26037
2012-11-02,0.00521,0.00521,0.00521,0.00521,000,0.26037
2012-11-01,0.00521,0.00521,0.00521,0.00521,4000,0.26037
2012-10-31,0.00636,0.00636,0.00636,0.00636,000,0.31824
2012-10-30,0.00752,0.00752,0.00579,0.00636,42300,0.31824
2012-10-29,0.00752,0.00752,0.00752,0.00752,000,0.3761
2012-10-26,0.00752,0.00752,0.00752,0.00752,000,0.3761
2012-10-25,0.00752,0.00752,0.00752,0.00752,100,0.3761
2012-10-24,0.00752,0.00752,0.00752,0.00752,000,0.3761
2012-10-23,0.00752,0.00752,0.00752,0.00752,16500,0.3761
2012-10-22,0.00868,0.00868,0.0081,0.0081,10000,0.40503
2012-10-19,0.00868,0.00868,0.0081,0.0081,14800,0.40503
2012-10-18,0.00926,0.00926,0.0081,0.0081,8000,0.40503
2012-10-17,0.00984,0.00984,0.00984,0.00984,000,0.49182
2012-10-16,0.00868,0.00984,0.00868,0.00984,17800,0.49182
2012-10-15,0.00984,0.00984,0.00868,0.00868,12700,0.43396
2012-10-12,0.00926,0.00926,0.00926,0.00926,000,0.46289
2012-10-11,0.00926,0.00926,0.00926,0.00926,000,0.46289
2012-10-10,0.00926,0.00926,0.00926,0.00926,1500,0.46289
2012-10-09,0.00868,0.00926,0.00868,0.00926,3600,0.46289
2012-10-08,0.00868,0.00868,0.00868,0.00868,000,0.43396
2012-10-05,0.00926,0.00926,0.00868,0.00868,18700,0.43396
2012-10-04,0.00868,0.00984,0.00868,0.00984,12000,0.49182
2012-10-03,0.00868,0.00868,0.00868,0.00868,8600,0.43396
2012-10-02,0.00984,0.01041,0.00868,0.00984,58000,0.49182
2012-10-01,0.00926,0.00926,0.00868,0.00868,7900,0.43396
2012-09-28,0.01041,0.01041,0.00926,0.00984,25500,0.49182
2012-09-27,0.01157,0.01157,0.01157,0.01157,36100,0.57861
2012-09-26,0.01099,0.01099,0.01099,0.01099,5100,0.54968
2012-09-25,0.01157,0.01157,0.01099,0.01099,8600,0.54968
2012-09-24,0.01157,0.01215,0.01157,0.01157,88400,0.57861
2012-09-21,0.01099,0.01157,0.01099,0.01157,87200,0.57861
2012-09-20,0.00984,0.01099,0.00984,0.01099,41800,0.54968
2012-09-19,0.00984,0.00984,0.00984,0.00984,19000,0.49182
2012-09-18,0.00984,0.00984,0.00926,0.00926,39600,0.46289
2012-09-17,0.01041,0.01041,0.01041,0.01041,000,0.52075
2012-09-14,0.00984,0.01041,0.00984,0.01041,46200,0.52075
2012-09-13,0.01041,0.01041,0.01041,0.01041,8600,0.52075
2012-09-12,0.01041,0.01041,0.01041,0.01041,000,0.52075
2012-09-11,0.01099,0.01099,0.00984,0.01041,29100,0.52075
2012-09-10,0.00926,0.01099,0.00926,0.01099,45000,0.54968
2012-09-07,0.00868,0.00868,0.00868,0.00868,000,0.43396
2012-09-06,0.00752,0.00752,0.00752,0.00752,1300,0.3761
2012-09-05,0.0081,0.0081,0.0081,0.0081,000,0.40503
2012-09-04,0.0081,0.0081,0.0081,0.0081,000,0.40503
2012-09-03,0.0081,0.0081,0.0081,0.0081,000,0.40503
2012-08-31,0.00926,0.00926,0.0081,0.0081,22900,0.40503
2012-08-30,0.00926,0.00926,0.00926,0.00926,000,0.46289
2012-08-29,0.00868,0.00868,0.00868,0.00868,17200,0.43396
2012-08-28,0.0081,0.0081,0.0081,0.0081,000,0.40503
2012-08-27,0.0081,0.0081,0.0081,0.0081,000,0.40503
2012-08-24,0.0081,0.0081,0.0081,0.0081,000,0.40503
2012-08-23,0.0081,0.0081,0.0081,0.0081,000,0.40503
2012-08-22,0.0081,0.0081,0.0081,0.0081,1700,0.40503
2012-08-21,0.00868,0.00868,0.0081,0.0081,3300,0.40503
2012-08-20,0.00868,0.00868,0.00868,0.00868,3400,0.43396
2012-08-17,0.00926,0.00926,0.00926,0.00926,000,0.46289
2012-08-16,0.00868,0.00926,0.00868,0.00926,7600,0.46289
2012-08-15,0.00926,0.00926,0.00926,0.00926,000,0.46289
2012-08-14,0.00926,0.00926,0.00926,0.00926,1700,0.46289
2012-08-13,0.00984,0.00984,0.00984,0.00984,000,0.49182
2012-08-10,0.00984,0.00984,0.00984,0.00984,600,0.49182
2012-08-09,0.00926,0.00926,0.00868,0.00868,2400,0.43396
2012-08-08,0.01041,0.01041,0.00926,0.00926,6500,0.46289
2012-08-07,0.00984,0.00984,0.00984,0.00984,000,0.49182
2012-08-06,0.01041,0.01099,0.00984,0.00984,13800,0.49182
2012-08-03,0.01041,0.01041,0.01041,0.01041,19800,0.52075
2012-08-02,0.00926,0.00926,0.00926,0.00926,000,0.46289
2012-08-01,0.00926,0.00926,0.00926,0.00926,000,0.46289
2012-07-31,0.01041,0.01099,0.00926,0.00926,7000,0.46289
2012-07-30,0.01157,0.01157,0.01157,0.01157,8600,0.57861
2012-07-27,0.01041,0.01041,0.01041,0.01041,5100,0.52075
2012-07-26,0.01041,0.01041,0.01041,0.01041,1700,0.52075
2012-07-25,0.01157,0.01157,0.01157,0.01157,000,0.57861
2012-07-24,0.01157,0.01157,0.01157,0.01157,000,0.57861
2012-07-23,0.01157,0.01157,0.01157,0.01157,000,0.57861
2012-07-20,0.01157,0.01157,0.01157,0.01157,6900,0.57861
2012-07-19,0.00984,0.00984,0.00984,0.00984,000,0.49182
2012-07-18,0.00984,0.00984,0.00984,0.00984,4300,0.49182
2012-07-17,0.00984,0.00984,0.00984,0.00984,100,0.49182
2012-07-16,0.01157,0.01157,0.01157,0.01157,7900,0.57861
2012-07-13,0.01157,0.01157,0.01157,0.01157,000,0.57861
2012-07-12,0.01157,0.01157,0.01157,0.01157,20700,0.57861
2012-07-11,0.01157,0.01157,0.01157,0.01157,17200,0.57861
2012-07-10,0.01157,0.01157,0.01157,0.01157,000,0.57861
2012-07-09,0.01157,0.01157,0.01157,0.01157,000,0.57861
2012-07-06,0.01157,0.01157,0.01157,0.01157,6000,0.57861
2012-07-05,0.01157,0.01157,0.01157,0.01157,000,0.57861
2012-07-04,0.01157,0.01157,0.01157,0.01157,36100,0.57861
2012-07-03,0.01157,0.01157,0.01099,0.01157,23500,0.57861
2012-07-02,0.03472,0.03472,0.03472,0.03472,000,1.73583
2012-06-29,0.03472,0.03472,0.03472,0.03472,000,1.73583
2012-06-28,0.03472,0.03472,0.03472,0.03472,000,1.73583
2012-06-27,0.03472,0.03472,0.03472,0.03472,000,1.73583
2012-06-26,0.03472,0.03472,0.03472,0.03472,000,1.73583
2012-06-25,0.03472,0.03472,0.03472,0.03472,000,1.73583
2012-06-22,0.03472,0.03472,0.03472,0.03472,000,1.73583
2012-06-21,0.03472,0.03472,0.03472,0.03472,000,1.73583
2012-06-20,0.03472,0.03472,0.03472,0.03472,000,1.73583
2012-06-19,0.03472,0.03472,0.03472,0.03472,000,1.73583
2012-06-18,0.03472,0.03472,0.03472,0.03472,000,1.73583
2012-06-15,0.03472,0.03472,0.03472,0.03472,000,1.73583
2012-06-14,0.03472,0.03472,0.03472,0.03472,000,1.73583
2012-06-13,0.03472,0.03472,0.03472,0.03472,000,1.73583
2012-06-12,0.03472,0.03472,0.03472,0.03472,000,1.73583
2012-06-11,0.03472,0.03472,0.03472,0.03472,000,1.73583
2012-06-08,0.03472,0.03472,0.03472,0.03472,000,1.73583
2012-06-07,0.03472,0.03472,0.03472,0.03472,000,1.73583
2012-06-06,0.03472,0.03472,0.03472,0.03472,000,1.73583
2012-06-05,0.03472,0.03472,0.03472,0.03472,000,1.73583
2012-06-04,0.03472,0.03472,0.03472,0.03472,000,1.73583
2012-06-01,0.03472,0.03472,0.03472,0.03472,000,1.73583
2012-05-31,0.03472,0.03472,0.03472,0.03472,000,1.73583
2012-05-30,0.03472,0.03472,0.03472,0.03472,000,1.73583
2012-05-29,0.03472,0.03472,0.03472,0.03472,000,1.73583
2012-05-28,0.03472,0.03472,0.03472,0.03472,000,1.73583
2012-05-25,0.03472,0.03472,0.03472,0.03472,000,1.73583
2012-05-24,0.03472,0.03472,0.03472,0.03472,000,1.73583
2012-05-23,0.03472,0.03472,0.03472,0.03472,000,1.73583
2012-05-22,0.03472,0.03472,0.03472,0.03472,000,1.73583
2012-05-21,0.03472,0.03472,0.03472,0.03472,000,1.73583
2012-05-18,0.03472,0.03472,0.03472,0.03472,000,1.73583
2012-05-17,0.03472,0.03472,0.03472,0.03472,000,1.73583
2012-05-16,0.03472,0.03472,0.03472,0.03472,000,1.73583
2012-05-15,0.03472,0.03472,0.03472,0.03472,000,1.73583
2012-05-14,0.03472,0.03472,0.03472,0.03472,000,1.73583
2012-05-11,0.03472,0.03472,0.03472,0.03472,000,1.73583
2012-05-10,0.03472,0.03472,0.03472,0.03472,000,1.73583
2012-05-09,0.03472,0.03472,0.03472,0.03472,000,1.73583
2012-05-08,0.03472,0.03472,0.03472,0.03472,000,1.73583
2012-05-07,0.03472,0.03472,0.03472,0.03472,000,1.73583
2012-05-04,0.03472,0.03472,0.03472,0.03472,000,1.73583
2012-05-03,0.03472,0.03472,0.03472,0.03472,000,1.73583
2012-05-02,0.03472,0.03472,0.03472,0.03472,000,1.73583
2012-05-01,0.03472,0.03472,0.03472,0.03472,000,1.73583
2012-04-30,0.03472,0.03472,0.03472,0.03472,000,1.73583
2012-04-27,0.03472,0.03472,0.03472,0.03472,000,1.73583
2012-04-26,0.03472,0.03472,0.03472,0.03472,000,1.73583
2012-04-25,0.03472,0.03472,0.03472,0.03472,000,1.73583
2012-04-24,0.03472,0.03472,0.03472,0.03472,000,1.73583
2012-04-23,0.03472,0.03472,0.03472,0.03472,000,1.73583
2012-04-20,0.03472,0.03472,0.03472,0.03472,000,1.73583
2012-04-19,0.03472,0.03472,0.03472,0.03472,000,1.73583
2012-04-18,0.03472,0.03472,0.03472,0.03472,000,1.73583
2012-04-17,0.03472,0.03472,0.03472,0.03472,000,1.73583
2012-04-16,0.03472,0.03472,0.03472,0.03472,000,1.73583
2012-04-13,0.03472,0.03472,0.03472,0.03472,000,1.73583
2012-04-12,0.03472,0.03472,0.03472,0.03472,000,1.73583
2012-04-11,0.03472,0.03472,0.03472,0.03472,000,1.73583
2012-04-10,0.03472,0.03472,0.03472,0.03472,000,1.73583
2012-04-09,0.03472,0.03472,0.03472,0.03472,000,1.73583
2012-04-06,0.03472,0.03472,0.03472,0.03472,000,1.73583
2012-04-05,0.03472,0.03472,0.03472,0.03472,000,1.73583
2012-04-04,0.03472,0.03472,0.03472,0.03472,000,1.73583
2012-04-03,0.03472,0.03472,0.03472,0.03472,000,1.73583
2012-04-02,0.03472,0.03472,0.03472,0.03472,000,1.73583
2012-03-30,0.03472,0.03472,0.03472,0.03472,000,1.73583
2012-03-29,0.03472,0.03472,0.03472,0.03472,000,1.73583
2012-03-28,0.03472,0.03472,0.03472,0.03472,000,1.73583
2012-03-27,0.03472,0.03472,0.03472,0.03472,000,1.73583
2012-03-26,0.03472,0.03472,0.03472,0.03472,000,1.73583
2012-03-23,0.03472,0.03472,0.03472,0.03472,000,1.73583
2012-03-22,0.03472,0.03472,0.03472,0.03472,000,1.73583
2012-03-21,0.03472,0.03472,0.03472,0.03472,000,1.73583
2012-03-20,0.03472,0.03472,0.03472,0.03472,000,1.73583
2012-03-19,0.03472,0.03472,0.03472,0.03472,000,1.73583
2012-03-16,0.03472,0.03472,0.03472,0.03472,000,1.73583
2012-03-15,0.03472,0.03472,0.03472,0.03472,000,1.73583
2012-03-14,0.03472,0.03472,0.03472,0.03472,000,1.73583
2012-03-13,0.03472,0.03472,0.03472,0.03472,000,1.73583
2012-03-12,0.03472,0.03472,0.03472,0.03472,000,1.73583
2012-03-09,0.03472,0.03472,0.03472,0.03472,000,1.73583
2012-03-08,0.03472,0.03472,0.03472,0.03472,000,1.73583
2012-03-07,0.03472,0.03472,0.03472,0.03472,000,1.73583
2012-03-06,0.03472,0.03472,0.03472,0.03472,000,1.73583
2012-03-05,0.03472,0.03472,0.03472,0.03472,000,1.73583
2012-03-02,0.03472,0.03472,0.03472,0.03472,000,1.73583
2012-03-01,0.03472,0.03472,0.03472,0.03472,000,1.73583
2012-02-29,0.03472,0.03472,0.03472,0.03472,000,1.73583
2012-02-28,0.03472,0.03472,0.03472,0.03472,000,1.73583
2012-02-27,0.03472,0.03472,0.03472,0.03472,000,1.73583
2012-02-24,0.03472,0.03472,0.03472,0.03472,000,1.73583
2012-02-23,0.03472,0.03472,0.03472,0.03472,000,1.73583
2012-02-22,0.03472,0.03472,0.03472,0.03472,000,1.73583
2012-02-21,0.03472,0.03472,0.03472,0.03472,000,1.73583
2012-02-20,0.03472,0.03472,0.03472,0.03472,000,1.73583
2012-02-17,0.03472,0.03472,0.03472,0.03472,000,1.73583
2012-02-16,0.03472,0.03472,0.03472,0.03472,000,1.73583
2012-02-15,0.03472,0.03472,0.03472,0.03472,000,1.73583
2012-02-14,0.03472,0.03472,0.03472,0.03472,000,1.73583
2012-02-13,0.03472,0.03472,0.03472,0.03472,000,1.73583
2012-02-10,0.03472,0.03472,0.03472,0.03472,000,1.73583
2012-02-09,0.03472,0.03472,0.03472,0.03472,000,1.73583
2012-02-08,0.03472,0.03472,0.03472,0.03472,000,1.73583
2012-02-07,0.03472,0.03472,0.03472,0.03472,000,1.73583
2012-02-06,0.03472,0.03472,0.03472,0.03472,000,1.73583
2012-02-03,0.03472,0.03472,0.03472,0.03472,000,1.73583
2012-02-02,0.03472,0.03472,0.03472,0.03472,000,1.73583
2012-02-01,0.03472,0.03472,0.03472,0.03472,000,1.73583
2012-01-31,0.03472,0.03472,0.03472,0.03472,000,1.73583
2012-01-27,0.03472,0.03472,0.03472,0.03472,000,1.73583
2012-01-26,0.03472,0.03472,0.03472,0.03472,000,1.73583
2012-01-25,0.03472,0.03472,0.03472,0.03472,000,1.73583
2012-01-24,0.03472,0.03472,0.03472,0.03472,000,1.73583
2012-01-23,0.03472,0.03472,0.03472,0.03472,000,1.73583
2012-01-20,0.03472,0.03472,0.03472,0.03472,000,1.73583
2012-01-19,0.03472,0.03472,0.03472,0.03472,000,1.73583
2012-01-18,0.03472,0.03472,0.03472,0.03472,000,1.73583
2012-01-17,0.03472,0.03472,0.03472,0.03472,000,1.73583
2012-01-16,0.03472,0.03472,0.03472,0.03472,000,1.73583
2012-01-13,0.03472,0.03472,0.03472,0.03472,000,1.73583
2012-01-12,0.03472,0.03472,0.03472,0.03472,000,1.73583
2012-01-11,0.03472,0.03472,0.03472,0.03472,000,1.73583
2012-01-10,0.03472,0.03472,0.03472,0.03472,000,1.73583
2012-01-09,0.03472,0.03472,0.03472,0.03472,000,1.73583
2012-01-06,0.03472,0.03472,0.03472,0.03472,000,1.73583
2012-01-05,0.03472,0.03472,0.03472,0.03472,000,1.73583
2012-01-04,0.03472,0.03472,0.03472,0.03472,000,1.73583
2012-01-03,0.03472,0.03472,0.03472,0.03472,000,1.73583
2012-01-02,0.03472,0.03472,0.03472,0.03472,000,1.73583
2011-12-30,0.03472,0.03472,0.03472,0.03472,000,1.73583
2011-12-29,0.03472,0.03472,0.03472,0.03472,000,1.73583
2011-12-28,0.03472,0.03472,0.03472,0.03472,000,1.73583
2011-12-27,0.03472,0.03472,0.03472,0.03472,000,1.73583
2011-12-26,0.03472,0.03472,0.03472,0.03472,000,1.73583
2011-12-23,0.03472,0.03472,0.03472,0.03472,000,1.73583
2011-12-22,0.03472,0.03472,0.03472,0.03472,000,1.73583
2011-12-21,0.03472,0.03472,0.03472,0.03472,000,1.73583
2011-12-20,0.03472,0.03472,0.03472,0.03472,000,1.73583
2011-12-19,0.03472,0.03472,0.03472,0.03472,000,1.73583
2011-12-16,0.03472,0.03472,0.03472,0.03472,000,1.73583
2011-12-15,0.03472,0.03472,0.03472,0.03472,000,1.73583
2011-12-14,0.03472,0.03472,0.03472,0.03472,000,1.73583
2011-12-13,0.03472,0.03472,0.03472,0.03472,000,1.73583
2011-12-12,0.03472,0.03472,0.03472,0.03472,000,1.73583
2011-12-09,0.03472,0.03472,0.03472,0.03472,000,1.73583
2011-12-08,0.03472,0.03472,0.03472,0.03472,000,1.73583
2011-12-07,0.03472,0.03472,0.03472,0.03472,000,1.73583
2011-12-06,0.03472,0.03472,0.03472,0.03472,000,1.73583
2011-12-05,0.03472,0.03472,0.03472,0.03472,000,1.73583
2011-12-02,0.03472,0.03472,0.03472,0.03472,000,1.73583
2011-12-01,0.03472,0.03472,0.03472,0.03472,000,1.73583
2011-11-30,0.03472,0.03472,0.03472,0.03472,000,1.73583
2011-11-29,0.03472,0.03472,0.03472,0.03472,000,1.73583
2011-11-28,0.03472,0.03472,0.03472,0.03472,000,1.73583
2011-11-25,0.03472,0.03472,0.03472,0.03472,000,1.73583
2011-11-24,0.03472,0.03472,0.03472,0.03472,000,1.73583
2011-11-23,0.03472,0.03472,0.03472,0.03472,000,1.73583
2011-11-22,0.03472,0.03472,0.03472,0.03472,000,1.73583
2011-11-21,0.03472,0.03472,0.03472,0.03472,000,1.73583
2011-11-18,0.03472,0.03472,0.03472,0.03472,000,1.73583
2011-11-17,0.03472,0.03472,0.03472,0.03472,000,1.73583
2011-10-10,0.03761,0.03761,0.03472,0.03472,5800,1.73583
2011-10-03,0.03472,0.03472,0.03472,0.03472,1300,1.73583
2011-09-30,0.03645,0.03761,0.03472,0.03472,3900,1.73583
2011-09-27,0.04282,0.04282,0.0405,0.0405,2100,2.02514
2011-09-23,0.04629,0.04629,0.04397,0.04629,5500,2.31444
2011-09-22,0.0405,0.04513,0.0405,0.04513,5000,2.25658
2011-09-12,0.04629,0.04629,0.0434,0.0434,1400,2.16979
2011-09-09,0.03906,0.03906,0.03906,0.03906,700,1.95281
2011-09-06,0.04166,0.04166,0.04166,0.04166,000,2.083
2011-09-05,0.04322,0.04322,0.04322,0.04322,100,2.16111
2011-09-02,0.04583,0.04583,0.04426,0.04426,1000,2.21319
2011-09-01,0.04583,0.04583,0.04583,0.04583,300,2.2913
2011-08-26,0.04687,0.04687,0.04687,0.04687,6500,2.34337
2011-08-24,0.04895,0.04895,0.04895,0.04895,200,2.44752
2011-08-23,0.04791,0.04791,0.04791,0.04791,900,2.39545
2011-08-22,0.04895,0.04895,0.04739,0.04739,700,2.36941
2011-08-19,0.04791,0.04791,0.04739,0.04739,1100,2.36941
2011-08-16,0.04947,0.04947,0.04947,0.04947,1200,2.47356
2011-08-15,0.04843,0.04843,0.04843,0.04843,700,2.42149
2011-08-12,0.04687,0.04687,0.04687,0.04687,1500,2.34337
2011-08-11,0.04687,0.04687,0.04687,0.04687,200,2.34337
2011-08-10,0.04426,0.04687,0.04426,0.04687,5100,2.34337
2011-08-09,0.04166,0.04166,0.04166,0.04166,000,2.083
2011-08-08,0.04166,0.04426,0.04166,0.04166,8200,2.083
2011-08-05,0.04687,0.04687,0.04426,0.04426,4100,2.21319
2011-08-03,0.05155,0.05155,0.04947,0.04947,4500,2.47356
2011-08-02,0.04947,0.05207,0.04947,0.05207,1900,2.60375
2011-08-01,0.05468,0.05468,0.05155,0.05155,14300,2.57771
2011-07-29,0.05468,0.05468,0.05468,0.05468,600,2.73394
2011-07-28,0.05728,0.05728,0.05728,0.05728,1100,2.86412
2011-07-27,0.05728,0.05989,0.05728,0.05989,4300,2.99431
2011-07-25,0.05207,0.05207,0.05155,0.05207,2500,2.60375
2011-07-22,0.06509,0.06509,0.05207,0.05207,5800,2.60375
2011-07-21,0.06509,0.06509,0.06509,0.06509,1600,3.25468
2011-07-20,0.0677,0.0703,0.0677,0.0677,7300,3.38487
2011-07-19,0.0677,0.0677,0.0677,0.0677,500,3.38487
2011-07-18,0.0703,0.0703,0.0677,0.0677,4800,3.38487
2011-07-14,0.0703,0.0703,0.0703,0.0703,200,3.51506
2011-07-13,0.0677,0.0677,0.0677,0.0677,1100,3.38487
2011-07-12,0.07291,0.07291,0.07291,0.07291,700,3.64525
2011-07-11,0.07291,0.07291,0.07291,0.07291,3800,3.64525
2011-07-07,0.07291,0.07291,0.07291,0.07291,800,3.64525
2011-07-01,0.07291,0.07291,0.0703,0.07291,5700,3.64525
2011-06-30,0.06509,0.07291,0.06249,0.07291,11300,3.64525
2011-06-29,0.0703,0.0703,0.06249,0.06249,6500,3.1245
2011-06-28,0.0703,0.0703,0.0677,0.0677,2300,3.38487
2011-06-27,0.07551,0.07551,0.07291,0.07291,2500,3.64525
2011-06-24,0.0703,0.07551,0.0703,0.07551,1800,3.77543
2011-06-23,0.07551,0.07551,0.07291,0.07291,800,3.64525
2011-06-22,0.07551,0.07551,0.07551,0.07551,700,3.77543
2011-06-21,0.0703,0.07811,0.0703,0.07551,9100,3.77543
2011-06-20,0.0703,0.07811,0.0703,0.07811,1900,3.90562
2011-06-17,0.08072,0.08072,0.07551,0.07551,10800,3.77543
2011-06-16,0.08853,0.08853,0.08072,0.08072,3200,4.03581
2011-06-15,0.09373,0.09373,0.09373,0.09373,2400,4.68675
2011-06-14,0.09634,0.09634,0.09634,0.09634,2800,4.81693
2011-06-09,0.09373,0.10155,0.08853,0.10155,6400,5.07731
2011-06-08,0.09373,0.09373,0.09373,0.09373,1700,4.68675
2011-06-07,0.09373,0.09373,0.09373,0.09373,200,4.68675
2011-06-06,0.09373,0.09373,0.09373,0.09373,700,4.68675
2011-06-03,0.09634,0.09634,0.09373,0.09373,5500,4.68675
2011-06-02,0.10155,0.10155,0.10155,0.10155,100,5.07731
2011-06-01,0.09894,0.09894,0.09634,0.09894,1200,4.94712
2011-05-27,0.10155,0.10155,0.10155,0.10155,300,5.07731
2011-05-26,0.10415,0.10415,0.09894,0.10155,2000,5.07731
2011-05-25,0.09894,0.09894,0.09894,0.09894,1200,4.94712
2011-05-24,0.09634,0.09894,0.09634,0.09894,6400,4.94712
2011-05-23,0.09894,0.09894,0.09373,0.09373,1500,4.68675
2011-05-20,0.09634,0.09894,0.09634,0.09894,9100,4.94712
2011-05-19,0.09634,0.09634,0.09373,0.09373,1600,4.68675
2011-05-18,0.09894,0.10415,0.09894,0.09894,3800,4.94712
2011-05-17,0.10415,0.10415,0.09894,0.09894,1500,4.94712
2011-05-16,0.09894,0.09894,0.09894,0.09894,4000,4.94712
2011-05-13,0.11977,0.12238,0.10155,0.10936,18900,5.46787
2011-05-12,0.12238,0.12498,0.11717,0.11717,8100,5.85843
2011-05-11,0.12238,0.12498,0.12238,0.12498,9200,6.24899
2011-05-10,0.11977,0.12238,0.11456,0.12238,17500,6.11881
2011-05-09,0.11456,0.12498,0.11456,0.12238,9000,6.11881
2011-05-06,0.10936,0.10936,0.10936,0.10936,1200,5.46787
2011-05-05,0.10936,0.10936,0.10675,0.10936,4700,5.46787
2011-05-04,0.11456,0.11456,0.10936,0.10936,3200,5.46787
2011-05-03,0.11977,0.12498,0.11456,0.12498,3600,6.24899
2011-05-02,0.10936,0.11977,0.10936,0.11977,6200,5.98862
2011-04-29,0.11977,0.11977,0.11456,0.11456,3400,5.72824
2011-04-28,0.13019,0.13019,0.12498,0.12498,5900,6.24899
2011-04-27,0.13019,0.13279,0.13019,0.13279,4400,6.63956
2011-04-21,0.12758,0.13019,0.12758,0.13019,6000,6.50937
2011-04-20,0.12498,0.13019,0.12498,0.12498,7700,6.24899
2011-04-19,0.12238,0.13019,0.12238,0.12498,44900,6.24899
2011-04-18,0.12238,0.12238,0.12238,0.12238,3800,6.11881
2011-04-15,0.12238,0.12238,0.11456,0.11456,7600,5.72824
2011-04-14,0.12498,0.12498,0.11717,0.11717,14400,5.85843
2011-04-13,0.12238,0.12498,0.11977,0.12498,13000,6.24899
2011-04-12,0.11717,0.12498,0.11717,0.12238,14700,6.11881
2011-04-11,0.11456,0.11717,0.10936,0.10936,5600,5.46787
2011-04-08,0.11456,0.11717,0.11456,0.11717,4600,5.85843
2011-04-07,0.10936,0.11456,0.10936,0.11456,2500,5.72824
2011-04-06,0.10936,0.10936,0.10936,0.10936,100,5.46787
2011-04-04,0.10936,0.10936,0.10936,0.10936,6200,5.46787
2011-03-31,0.10675,0.10675,0.10415,0.10415,2800,5.2075
2011-03-29,0.11456,0.11717,0.10415,0.10675,9400,5.33768
2011-03-28,0.11456,0.11456,0.11456,0.11456,1500,5.72824
2011-03-25,0.10415,0.11456,0.10415,0.11456,3400,5.72824
2011-03-24,0.10936,0.10936,0.10936,0.10936,300,5.46787
2011-03-23,0.10936,0.10936,0.10415,0.10415,800,5.2075
2011-03-22,0.10415,0.10415,0.10415,0.10415,11100,5.2075
2011-03-18,0.10415,0.10415,0.10415,0.10415,6900,5.2075
2011-03-17,0.10155,0.10936,0.10155,0.10936,2400,5.46787
2011-03-16,0.09634,0.10415,0.09634,0.10415,3100,5.2075
2011-03-14,0.10155,0.10155,0.08853,0.08853,5100,4.42637
2011-03-11,0.10155,0.10155,0.10155,0.10155,3800,5.07731
2011-03-10,0.10155,0.10415,0.10155,0.10415,1300,5.2075
2011-03-09,0.10936,0.10936,0.10415,0.10415,2700,5.2075
2011-03-08,0.11196,0.11196,0.10415,0.10415,6200,5.2075
2011-03-07,0.11196,0.11977,0.11196,0.11977,600,5.98862
2011-03-04,0.11977,0.11977,0.10936,0.11456,4900,5.72824
2011-03-03,0.10415,0.11456,0.10415,0.11456,4000,5.72824
2011-03-02,0.11456,0.11456,0.10155,0.10415,27600,5.2075
2011-03-01,0.11977,0.11977,0.11456,0.11456,8000,5.72824
2011-02-28,0.11717,0.11977,0.11717,0.11977,11900,5.98862
2011-02-24,0.11196,0.11977,0.11196,0.11977,600,5.98862
2011-02-23,0.11456,0.11717,0.10936,0.10936,13000,5.46787
2011-02-22,0.11977,0.12238,0.11717,0.11717,10200,5.85843
2011-02-21,0.12238,0.12238,0.11456,0.12238,20800,6.11881
2011-02-18,0.12238,0.13019,0.12238,0.13019,17500,6.50937
2011-02-17,0.12238,0.12238,0.11977,0.11977,9300,5.98862
2011-02-16,0.11977,0.12238,0.11977,0.11977,5000,5.98862
2011-02-15,0.12498,0.12498,0.11717,0.11977,6200,5.98862
2011-02-14,0.12498,0.13539,0.12498,0.12498,15400,6.24899
2011-02-11,0.13019,0.13539,0.11977,0.11977,12700,5.98862
2011-02-10,0.11196,0.12498,0.11196,0.12498,22300,6.24899
2011-02-09,0.10415,0.11196,0.10155,0.11196,17800,5.59806
2011-02-08,0.09894,0.10415,0.09894,0.10155,20800,5.07731
2011-02-07,0.09894,0.10155,0.09894,0.10155,18900,5.07731
2011-02-04,0.10415,0.10415,0.09634,0.09894,7400,4.94712
2011-02-03,0.09894,0.10155,0.09894,0.10155,9900,5.07731
2011-02-02,0.09894,0.10155,0.09634,0.10155,5900,5.07731
2011-02-01,0.10155,0.10155,0.09894,0.10155,8600,5.07731
2011-01-31,0.10155,0.10155,0.09894,0.09894,1700,4.94712
2011-01-28,0.09634,0.09894,0.09634,0.09894,7200,4.94712
2011-01-27,0.09113,0.09894,0.09113,0.09373,7100,4.68675
2011-01-25,0.09373,0.09373,0.09373,0.09373,6300,4.68675
2011-01-24,0.10415,0.10415,0.09373,0.09373,800,4.68675
2011-01-21,0.09894,0.09894,0.09894,0.09894,2100,4.94712
2011-01-20,0.10415,0.10675,0.10415,0.10415,3400,5.2075
2011-01-19,0.10155,0.10155,0.10155,0.10155,3600,5.07731
2011-01-18,0.10415,0.10415,0.10155,0.10155,2100,5.07731
2011-01-17,0.09894,0.10675,0.09894,0.10675,35300,5.33768
2011-01-14,0.09894,0.09894,0.09894,0.09894,2800,4.94712
2011-01-13,0.09634,0.09894,0.09634,0.09894,9300,4.94712
2011-01-12,0.09894,0.09894,0.09894,0.09894,100,4.94712
2011-01-11,0.09894,0.09894,0.09634,0.09634,7600,4.81693
2011-01-10,0.09894,0.09894,0.09634,0.09634,5500,4.81693
2011-01-07,0.09373,0.10155,0.09373,0.10155,2600,5.07731
2011-01-06,0.09634,0.09634,0.09634,0.09634,2500,4.81693
2011-01-05,0.09634,0.09894,0.09373,0.09894,5100,4.94712
2011-01-04,0.10415,0.10415,0.09894,0.09894,2800,4.94712
2010-12-29,0.10415,0.10415,0.10155,0.10415,7600,5.2075
2010-12-24,0.09894,0.10155,0.09894,0.09894,2300,4.94712
2010-12-23,0.09894,0.09894,0.09894,0.09894,1700,4.94712
2010-12-22,0.09113,0.10415,0.09113,0.09894,18000,4.94712
2010-12-21,0.09113,0.09113,0.09113,0.09113,100,4.55656
2010-12-20,0.08853,0.08853,0.08853,0.08853,700,4.42637
2010-12-17,0.09113,0.09113,0.08853,0.08853,4300,4.42637
2010-12-16,0.08853,0.08853,0.08592,0.08592,3600,4.29618
2010-12-15,0.08853,0.08853,0.08853,0.08853,4400,4.42637
2010-12-13,0.09113,0.09113,0.08853,0.08853,1800,4.42637
2010-12-10,0.08853,0.08853,0.08332,0.08332,13800,4.166
2010-12-09,0.08592,0.08853,0.08592,0.08592,3500,4.29618
2010-12-08,0.08853,0.08853,0.08592,0.08592,26100,4.29618
2010-12-06,0.09373,0.09373,0.08592,0.08853,10200,4.42637
2010-12-03,0.09373,0.09373,0.09113,0.09373,24200,4.68675
2010-12-02,0.09894,0.09894,0.08332,0.09373,32900,4.68675
