Date,Open,High,Low,Close,Volume,Adj Close
2017-01-10,0.55,0.55,0.53,0.53,91600,0.53
2017-01-09,0.53,0.53,0.525,0.53,209700,0.53
2017-01-06,0.50,0.515,0.50,0.505,125700,0.505
2017-01-05,0.495,0.50,0.46,0.475,202600,0.475
2017-01-04,0.49,0.49,0.46,0.49,234100,0.49
2017-01-03,0.50,0.50,0.485,0.485,127800,0.485
2017-01-02,0.485,0.485,0.485,0.485,000,0.485
2016-12-30,0.515,0.53,0.48,0.485,147800,0.485
2016-12-29,0.44,0.52,0.44,0.47,289500,0.47
2016-12-28,0.415,0.44,0.415,0.44,58300,0.44
2016-12-27,0.41,0.41,0.41,0.41,000,0.41
2016-12-26,0.41,0.41,0.41,0.41,000,0.41
2016-12-23,0.41,0.41,0.40,0.41,46800,0.41
2016-12-22,0.405,0.43,0.405,0.41,103000,0.41
2016-12-21,0.385,0.385,0.385,0.385,000,0.385
2016-12-20,0.39,0.39,0.38,0.385,400500,0.385
2016-12-19,0.365,0.385,0.365,0.37,72800,0.37
2016-12-16,0.38,0.385,0.36,0.36,310100,0.36
2016-12-15,0.38,0.38,0.365,0.377,470400,0.377
2016-12-14,0.40,0.40,0.375,0.38,246100,0.38
2016-12-13,0.40,0.402,0.395,0.40,172600,0.40
2016-12-12,0.43,0.43,0.395,0.395,382000,0.395
2016-12-09,0.435,0.445,0.43,0.43,74500,0.43
2016-12-08,0.425,0.425,0.425,0.425,19300,0.425
2016-12-07,0.46,0.465,0.41,0.445,373700,0.445
2016-12-06,0.47,0.47,0.45,0.45,93800,0.45
2016-12-05,0.515,0.515,0.515,0.515,000,0.515
2016-12-02,0.49,0.515,0.475,0.515,209200,0.515
2016-12-01,0.515,0.515,0.47,0.49,190300,0.49
2016-11-30,0.515,0.515,0.515,0.515,000,0.515
2016-11-29,0.51,0.515,0.505,0.515,34900,0.515
2016-11-28,0.505,0.52,0.50,0.50,104800,0.50
2016-11-25,0.50,0.52,0.50,0.515,203300,0.515
2016-11-24,0.50,0.50,0.50,0.50,000,0.50
2016-11-23,0.51,0.51,0.50,0.50,150000,0.50
2016-11-22,0.48,0.50,0.48,0.50,134800,0.50
2016-11-21,0.53,0.535,0.47,0.525,229300,0.525
2016-11-18,0.55,0.55,0.55,0.55,12000,0.55
2016-11-17,0.565,0.565,0.54,0.56,80200,0.56
2016-11-16,0.54,0.565,0.54,0.555,33200,0.555
2016-11-15,0.52,0.52,0.52,0.52,13300,0.52
2016-11-14,0.55,0.55,0.49,0.52,433700,0.52
2016-11-11,0.60,0.60,0.565,0.565,98700,0.565
2016-11-10,0.605,0.605,0.585,0.60,206300,0.60
2016-11-09,0.595,0.625,0.595,0.625,515300,0.625
2016-11-08,0.56,0.585,0.56,0.585,84100,0.585
2016-11-07,0.575,0.575,0.56,0.56,482100,0.56
2016-11-04,0.58,0.595,0.575,0.575,467300,0.575
2016-11-03,0.57,0.59,0.57,0.585,138900,0.585
2016-11-02,0.58,0.585,0.575,0.575,215700,0.575
2016-11-01,0.58,0.58,0.57,0.57,248000,0.57
2016-10-31,0.58,0.58,0.57,0.57,147200,0.57
2016-10-28,0.585,0.585,0.57,0.57,400100,0.57
2016-10-27,0.585,0.59,0.58,0.58,155100,0.58
2016-10-26,0.58,0.585,0.57,0.585,2741600,0.585
2016-10-25,0.585,0.585,0.575,0.575,182500,0.575
2016-10-24,0.58,0.59,0.58,0.59,138000,0.59
2016-10-21,0.605,0.605,0.585,0.585,160500,0.585
2016-10-20,0.605,0.605,0.60,0.60,120500,0.60
2016-10-19,0.595,0.61,0.595,0.605,61900,0.605
2016-10-18,0.59,0.595,0.585,0.59,1954500,0.59
2016-10-17,0.585,0.585,0.58,0.58,50600,0.58
2016-10-14,0.56,0.60,0.55,0.59,163800,0.59
2016-10-13,0.52,0.565,0.52,0.53,172500,0.53
2016-10-12,0.53,0.535,0.51,0.535,121100,0.535
2016-10-11,0.57,0.57,0.525,0.535,161900,0.535
2016-10-10,0.59,0.60,0.57,0.57,83300,0.57
2016-10-07,0.60,0.605,0.575,0.595,160700,0.595
2016-10-06,0.595,0.60,0.56,0.60,1743200,0.60
2016-10-05,0.60,0.61,0.58,0.595,557300,0.595
2016-10-04,0.66,0.66,0.65,0.66,144600,0.66
2016-10-03,0.66,0.66,0.655,0.66,10900,0.66
2016-09-30,0.645,0.655,0.63,0.63,26900,0.63
2016-09-29,0.66,0.665,0.63,0.635,241800,0.635
2016-09-28,0.63,0.66,0.615,0.66,153100,0.66
2016-09-27,0.62,0.635,0.62,0.63,100300,0.63
2016-09-26,0.645,0.645,0.625,0.625,79900,0.625
2016-09-23,0.665,0.67,0.64,0.655,128300,0.655
2016-09-22,0.65,0.67,0.65,0.655,73900,0.655
2016-09-21,0.635,0.635,0.60,0.62,54500,0.62
2016-09-20,0.655,0.655,0.63,0.63,148900,0.63
2016-09-19,0.63,0.64,0.63,0.64,32300,0.64
2016-09-16,0.63,0.635,0.625,0.625,106500,0.625
2016-09-15,0.625,0.65,0.615,0.63,126300,0.63
2016-09-14,0.62,0.63,0.62,0.63,47200,0.63
2016-09-13,0.64,0.64,0.625,0.63,160100,0.63
2016-09-12,0.66,0.66,0.63,0.64,321000,0.64
2016-09-09,0.67,0.685,0.665,0.685,45100,0.685
2016-09-08,0.70,0.702,0.675,0.675,453000,0.675
2016-09-07,0.64,0.70,0.635,0.70,675300,0.70
2016-09-06,0.60,0.60,0.59,0.59,106300,0.59
2016-09-05,0.59,0.605,0.59,0.59,248800,0.59
2016-09-02,0.54,0.58,0.54,0.58,185400,0.58
2016-09-01,0.55,0.56,0.527,0.54,1886900,0.54
2016-08-31,0.60,0.60,0.53,0.545,462500,0.545
2016-08-30,0.59,0.60,0.59,0.60,171500,0.60
2016-08-29,0.635,0.64,0.58,0.58,461000,0.58
2016-08-26,0.63,0.65,0.625,0.64,157900,0.64
2016-08-25,0.64,0.645,0.61,0.62,359300,0.62
2016-08-24,0.685,0.69,0.64,0.645,265900,0.645
2016-08-23,0.72,0.725,0.67,0.69,494100,0.69
2016-08-22,0.72,0.74,0.685,0.695,499300,0.695
2016-08-19,0.705,0.74,0.705,0.73,145400,0.73
2016-08-18,0.74,0.745,0.70,0.70,373400,0.70
2016-08-17,0.73,0.76,0.73,0.75,196400,0.75
2016-08-16,0.735,0.74,0.725,0.735,103500,0.735
2016-08-15,0.76,0.76,0.72,0.72,154200,0.72
2016-08-12,0.755,0.77,0.735,0.745,474600,0.745
2016-08-11,0.79,0.79,0.775,0.775,426000,0.775
2016-08-10,0.77,0.81,0.77,0.785,876500,0.785
2016-08-09,0.775,0.78,0.755,0.765,647000,0.765
2016-08-08,0.745,0.775,0.715,0.76,1331300,0.76
2016-08-05,0.69,0.76,0.685,0.75,2259100,0.75
2016-08-04,0.64,0.66,0.64,0.66,586500,0.66
2016-08-03,0.63,0.645,0.62,0.625,438900,0.625
2016-08-02,0.61,0.625,0.61,0.61,201100,0.61
2016-08-01,0.58,0.61,0.58,0.605,448600,0.605
2016-07-29,0.59,0.59,0.555,0.555,298200,0.555
2016-07-28,0.615,0.62,0.60,0.605,276500,0.605
2016-07-27,0.58,0.61,0.58,0.61,66600,0.61
2016-07-26,0.59,0.59,0.58,0.58,20200,0.58
2016-07-25,0.587,0.59,0.565,0.59,143800,0.59
2016-07-22,0.565,0.595,0.565,0.58,165500,0.58
2016-07-21,0.58,0.58,0.54,0.555,249900,0.555
2016-07-20,0.615,0.615,0.57,0.585,215600,0.585
2016-07-19,0.635,0.635,0.61,0.62,157200,0.62
2016-07-18,0.63,0.65,0.627,0.635,134200,0.635
2016-07-15,0.645,0.645,0.62,0.625,249500,0.625
2016-07-14,0.65,0.66,0.635,0.65,248200,0.65
2016-07-13,0.615,0.65,0.61,0.65,290700,0.65
2016-07-12,0.64,0.65,0.615,0.62,402800,0.62
2016-07-11,0.64,0.67,0.635,0.65,551500,0.65
2016-07-08,0.60,0.635,0.595,0.63,588200,0.63
2016-07-07,0.585,0.615,0.57,0.61,1254300,0.61
2016-07-06,0.58,0.59,0.555,0.59,520600,0.59
2016-07-05,0.575,0.585,0.57,0.585,427000,0.585
2016-07-04,0.53,0.58,0.53,0.58,661400,0.58
2016-07-01,0.525,0.56,0.52,0.56,314600,0.56
2016-06-30,0.53,0.53,0.505,0.515,112400,0.515
2016-06-29,0.52,0.53,0.47,0.52,180600,0.52
2016-06-28,0.53,0.555,0.52,0.53,243400,0.53
2016-06-27,0.58,0.59,0.525,0.53,491600,0.53
2016-06-24,0.57,0.58,0.54,0.55,392100,0.55
2016-06-23,0.54,0.565,0.54,0.55,91100,0.55
2016-06-22,0.54,0.55,0.53,0.54,116100,0.54
2016-06-21,0.545,0.56,0.54,0.56,37600,0.56
2016-06-20,0.58,0.595,0.57,0.59,301600,0.59
2016-06-17,0.59,0.59,0.525,0.58,541800,0.58
2016-06-16,0.53,0.595,0.53,0.59,1623100,0.59
2016-06-15,0.56,0.57,0.54,0.57,660700,0.57
2016-06-14,0.53,0.56,0.53,0.56,796000,0.56
2016-06-13,0.50,0.50,0.50,0.50,000,0.50
2016-06-10,0.53,0.54,0.50,0.50,201800,0.50
2016-06-09,0.50,0.55,0.50,0.52,610500,0.52
2016-06-08,0.455,0.50,0.455,0.48,327800,0.48
2016-06-07,0.445,0.455,0.445,0.455,420900,0.455
2016-06-06,0.44,0.46,0.44,0.44,654800,0.44
2016-06-03,0.41,0.425,0.405,0.42,205900,0.42
2016-06-02,0.455,0.455,0.39,0.415,1061200,0.415
2016-06-01,0.45,0.455,0.45,0.45,1045100,0.45
2016-05-31,0.44,0.47,0.42,0.47,749900,0.47
2016-05-30,0.495,0.495,0.41,0.415,647000,0.415
2016-05-27,0.51,0.51,0.495,0.495,64100,0.495
2016-05-26,0.51,0.535,0.51,0.51,298000,0.51
2016-05-25,0.515,0.525,0.505,0.505,414100,0.505
2016-05-24,0.52,0.57,0.495,0.57,1311700,0.57
2016-05-23,0.515,0.515,0.515,0.515,000,0.515
2016-05-20,0.50,0.515,0.50,0.515,52300,0.515
2016-05-19,0.51,0.52,0.50,0.50,286200,0.50
2016-05-18,0.535,0.535,0.525,0.53,165900,0.53
2016-05-17,0.515,0.54,0.515,0.54,303300,0.54
2016-05-16,0.52,0.525,0.51,0.51,164800,0.51
2016-05-13,0.51,0.52,0.495,0.51,536700,0.51
2016-05-12,0.54,0.55,0.495,0.52,741400,0.52
2016-05-11,0.54,0.54,0.52,0.54,204500,0.54
2016-05-10,0.57,0.57,0.53,0.545,996700,0.545
2016-05-09,0.615,0.62,0.585,0.60,204600,0.60
2016-05-06,0.58,0.62,0.575,0.62,408200,0.62
2016-05-05,0.60,0.60,0.545,0.60,523200,0.60
2016-05-04,0.67,0.67,0.62,0.63,525900,0.63
2016-05-03,0.68,0.70,0.67,0.675,1601600,0.675
2016-05-02,0.63,0.70,0.63,0.69,1346100,0.69
2016-04-29,0.60,0.63,0.60,0.62,1685800,0.62
2016-04-28,0.555,0.58,0.55,0.575,778600,0.575
2016-04-27,0.525,0.595,0.525,0.555,2531700,0.555
2016-04-26,0.58,0.585,0.51,0.54,1474600,0.54
2016-04-25,0.595,0.595,0.595,0.595,000,0.595
2016-04-22,0.545,0.615,0.54,0.595,2550200,0.595
2016-04-21,0.51,0.54,0.50,0.54,2805900,0.54
2016-04-20,0.485,0.51,0.485,0.50,2174500,0.50
2016-04-19,0.445,0.48,0.44,0.48,2095200,0.48
2016-04-18,0.44,0.465,0.425,0.44,1585500,0.44
2016-04-15,0.43,0.455,0.405,0.435,2949500,0.435
2016-04-14,0.455,0.455,0.42,0.44,1332900,0.44
2016-04-13,0.48,0.49,0.45,0.47,1215700,0.47
2016-04-12,0.45,0.495,0.45,0.475,5973500,0.475
2016-04-11,0.39,0.44,0.39,0.44,2452700,0.44
2016-04-08,0.39,0.39,0.39,0.39,000,0.39
2016-04-07,0.39,0.39,0.39,0.39,000,0.39
2016-04-06,0.39,0.405,0.385,0.39,721000,0.39
2016-04-05,0.395,0.395,0.37,0.38,538200,0.38
2016-04-04,0.385,0.395,0.385,0.39,603700,0.39
2016-04-01,0.355,0.41,0.35,0.38,990400,0.38
2016-03-31,0.35,0.35,0.33,0.345,392100,0.345
2016-03-30,0.315,0.315,0.315,0.315,000,0.315
2016-03-29,0.315,0.315,0.315,0.315,000,0.315
2016-03-28,0.315,0.315,0.315,0.315,000,0.315
2016-03-25,0.315,0.315,0.315,0.315,000,0.315
2016-03-24,0.31,0.315,0.305,0.315,312000,0.315
2016-03-23,0.32,0.32,0.31,0.32,229400,0.32
2016-03-22,0.31,0.315,0.31,0.31,474200,0.31
2016-03-21,0.325,0.325,0.315,0.315,240300,0.315
2016-03-18,0.34,0.34,0.32,0.32,423700,0.32
2016-03-17,0.32,0.322,0.315,0.32,365400,0.32
2016-03-16,0.295,0.295,0.29,0.29,236300,0.29
2016-03-15,0.30,0.30,0.28,0.29,357900,0.29
2016-03-14,0.32,0.33,0.305,0.315,437100,0.315
2016-03-11,0.34,0.34,0.315,0.325,404700,0.325
2016-03-10,0.32,0.335,0.315,0.335,251100,0.335
2016-03-09,0.325,0.335,0.315,0.32,200700,0.32
2016-03-08,0.345,0.35,0.315,0.32,456400,0.32
2016-03-07,0.32,0.35,0.32,0.335,1098900,0.335
2016-03-04,0.31,0.325,0.29,0.31,887900,0.31
2016-03-03,0.28,0.29,0.28,0.29,246400,0.29
2016-03-02,0.31,0.31,0.28,0.28,747400,0.28
2016-03-01,0.265,0.32,0.265,0.305,1463300,0.305
2016-02-29,0.245,0.26,0.24,0.26,353300,0.26
2016-02-26,0.24,0.25,0.24,0.245,872400,0.245
2016-02-25,0.245,0.245,0.24,0.24,296300,0.24
2016-02-24,0.24,0.245,0.22,0.245,386600,0.245
2016-02-23,0.24,0.24,0.225,0.23,491500,0.23
2016-02-22,0.25,0.27,0.235,0.235,528900,0.235
2016-02-19,0.20,0.22,0.20,0.22,1505400,0.22
2016-02-18,0.19,0.195,0.18,0.195,456700,0.195
2016-02-17,0.18,0.19,0.18,0.19,310600,0.19
2016-02-16,0.19,0.19,0.18,0.18,110000,0.18
2016-02-15,0.195,0.20,0.19,0.19,1320900,0.19
2016-02-12,0.19,0.21,0.18,0.19,827100,0.19
2016-02-11,0.175,0.18,0.17,0.18,135000,0.18
2016-02-10,0.175,0.175,0.17,0.175,914000,0.175
2016-02-09,0.175,0.18,0.17,0.17,705200,0.17
2016-02-08,0.16,0.175,0.16,0.17,816000,0.17
2016-02-05,0.16,0.16,0.15,0.15,372300,0.15
2016-02-04,0.16,0.165,0.16,0.165,312800,0.165
2016-02-03,0.17,0.17,0.13,0.15,468900,0.15
2016-02-02,0.175,0.19,0.165,0.17,933400,0.17
2016-02-01,0.155,0.16,0.145,0.16,513000,0.16
2016-01-29,0.165,0.165,0.16,0.165,151300,0.165
2016-01-28,0.175,0.175,0.175,0.175,28500,0.175
2016-01-27,0.175,0.175,0.175,0.175,10000,0.175
2016-01-26,0.175,0.175,0.175,0.175,000,0.175
2016-01-25,0.17,0.175,0.17,0.175,150000,0.175
2016-01-22,0.175,0.175,0.17,0.17,154200,0.17
2016-01-21,0.17,0.175,0.17,0.175,117300,0.175
2016-01-20,0.165,0.17,0.165,0.17,1130700,0.17
2016-01-19,0.17,0.175,0.16,0.17,1271300,0.17
2016-01-18,0.14,0.16,0.135,0.15,476700,0.15
2016-01-15,0.13,0.135,0.13,0.135,338000,0.135
2016-01-14,0.13,0.135,0.13,0.135,632800,0.135
2016-01-13,0.13,0.13,0.13,0.13,287200,0.13
2016-01-12,0.13,0.13,0.13,0.13,56500,0.13
2016-01-11,0.135,0.135,0.13,0.13,20000,0.13
2016-01-08,0.135,0.135,0.13,0.13,765900,0.13
2016-01-07,0.135,0.135,0.115,0.12,895100,0.12
2016-01-06,0.125,0.135,0.125,0.135,230800,0.135
2016-01-05,0.12,0.12,0.115,0.12,180000,0.12
2016-01-04,0.11,0.11,0.11,0.11,000,0.11
2016-01-01,0.11,0.11,0.11,0.11,000,0.11
2015-12-31,0.11,0.11,0.11,0.11,230000,0.11
2015-12-30,0.11,0.115,0.11,0.11,225000,0.11
2015-12-29,0.12,0.12,0.12,0.12,72500,0.12
2015-12-28,0.12,0.12,0.12,0.12,000,0.12
2015-12-25,0.12,0.12,0.12,0.12,000,0.12
2015-12-24,0.12,0.12,0.12,0.12,000,0.12
2015-12-23,0.12,0.12,0.12,0.12,31500,0.12
2015-12-22,0.125,0.13,0.12,0.12,330000,0.12
2015-12-21,0.11,0.125,0.11,0.12,636600,0.12
2015-12-18,0.105,0.105,0.105,0.105,000,0.105
2015-12-17,0.105,0.11,0.105,0.105,400000,0.105
2015-12-16,0.105,0.105,0.10,0.10,218400,0.10
2015-12-15,0.105,0.105,0.105,0.105,22500,0.105
2015-12-14,0.10,0.10,0.10,0.10,77000,0.10
2015-12-11,0.10,0.10,0.10,0.10,75000,0.10
2015-12-10,0.095,0.096,0.095,0.095,455600,0.095
2015-12-09,0.095,0.095,0.095,0.095,000,0.095
2015-12-08,0.095,0.095,0.095,0.095,000,0.095
2015-12-07,0.095,0.095,0.095,0.095,000,0.095
2015-12-04,0.095,0.095,0.095,0.095,200000,0.095
2015-12-03,0.087,0.095,0.087,0.095,93000,0.095
2015-12-02,0.09,0.09,0.09,0.09,000,0.09
2015-12-01,0.092,0.092,0.09,0.09,255900,0.09
2015-11-30,0.092,0.092,0.092,0.092,300,0.092
2015-11-27,0.092,0.092,0.092,0.092,50000,0.092
2015-11-26,0.094,0.094,0.094,0.094,386300,0.094
2015-11-25,0.094,0.094,0.094,0.094,000,0.094
2015-11-24,0.095,0.095,0.094,0.094,65000,0.094
2015-11-23,0.09,0.09,0.09,0.09,227600,0.09
2015-11-20,0.095,0.095,0.095,0.095,000,0.095
2015-11-19,0.095,0.095,0.095,0.095,000,0.095
2015-11-18,0.095,0.095,0.095,0.095,211800,0.095
2015-11-17,0.091,0.091,0.091,0.091,201700,0.091
2015-11-16,0.09,0.09,0.09,0.09,300000,0.09
2015-11-13,0.094,0.095,0.091,0.091,512400,0.091
2015-11-12,0.096,0.096,0.094,0.094,7500,0.094
2015-11-11,0.096,0.096,0.095,0.096,230000,0.096
2015-11-10,0.10,0.10,0.095,0.095,125000,0.095
2015-11-09,0.105,0.105,0.105,0.105,81700,0.105
2015-11-06,0.105,0.105,0.105,0.105,350000,0.105
2015-11-05,0.105,0.105,0.10,0.10,191300,0.10
2015-11-04,0.10,0.105,0.098,0.105,599100,0.105
2015-11-03,0.10,0.10,0.10,0.10,74600,0.10
2015-11-02,0.10,0.11,0.10,0.105,146000,0.105
2015-10-30,0.105,0.105,0.097,0.097,385100,0.097
2015-10-29,0.105,0.105,0.105,0.105,214200,0.105
2015-10-28,0.12,0.12,0.12,0.12,36000,0.12
2015-10-27,0.105,0.105,0.105,0.105,000,0.105
2015-10-26,0.12,0.12,0.105,0.105,34000,0.105
2015-10-23,0.13,0.13,0.12,0.12,266400,0.12
2015-10-22,0.11,0.11,0.11,0.11,000,0.11
2015-10-21,0.11,0.11,0.11,0.11,000,0.11
2015-10-20,0.11,0.11,0.11,0.11,22900,0.11
2015-10-19,0.11,0.11,0.11,0.11,000,0.11
2015-10-16,0.11,0.11,0.11,0.11,10000,0.11
2015-10-15,0.12,0.12,0.11,0.11,131500,0.11
2015-10-14,0.115,0.125,0.115,0.125,65000,0.125
2015-10-13,0.12,0.125,0.12,0.125,77000,0.125
2015-10-12,0.115,0.115,0.11,0.11,135300,0.11
2015-10-09,0.12,0.12,0.10,0.115,147700,0.115
2015-10-08,0.085,0.14,0.085,0.14,235100,0.14
2015-10-07,0.08,0.085,0.08,0.085,144200,0.085
2015-10-06,0.075,0.075,0.075,0.075,28100,0.075
2015-10-05,0.08,0.08,0.075,0.075,265200,0.075
2015-10-02,0.08,0.081,0.08,0.08,350000,0.08
2015-10-01,0.079,0.079,0.079,0.079,222000,0.079
2015-09-30,0.08,0.08,0.08,0.08,000,0.08
2015-09-29,0.08,0.08,0.08,0.08,200000,0.08
2015-09-28,0.08,0.08,0.08,0.08,000,0.08
2015-09-25,0.08,0.08,0.08,0.08,300000,0.08
2015-09-24,0.08,0.08,0.08,0.08,000,0.08
2015-09-23,0.08,0.08,0.08,0.08,000,0.08
2015-09-22,0.08,0.08,0.08,0.08,000,0.08
2015-09-21,0.08,0.08,0.08,0.08,000,0.08
2015-09-18,0.08,0.08,0.08,0.08,75900,0.08
2015-09-17,0.075,0.075,0.075,0.075,000,0.075
2015-09-16,0.075,0.075,0.075,0.075,000,0.075
2015-09-15,0.079,0.079,0.075,0.075,1200,0.075
2015-09-14,0.079,0.079,0.079,0.079,000,0.079
2015-09-11,0.079,0.079,0.079,0.079,000,0.079
2015-09-10,0.079,0.079,0.079,0.079,000,0.079
2015-09-09,0.079,0.079,0.079,0.079,10000,0.079
2015-09-08,0.075,0.079,0.075,0.079,21200,0.079
2015-09-07,0.073,0.073,0.073,0.073,000,0.073
2015-09-04,0.073,0.073,0.073,0.073,000,0.073
2015-09-03,0.073,0.073,0.073,0.073,000,0.073
2015-09-02,0.073,0.073,0.073,0.073,000,0.073
2015-09-01,0.073,0.073,0.073,0.073,7500,0.073
2015-08-31,0.07,0.07,0.07,0.07,000,0.07
2015-08-28,0.07,0.07,0.07,0.07,000,0.07
2015-08-27,0.07,0.07,0.07,0.07,000,0.07
2015-08-26,0.07,0.07,0.07,0.07,4800,0.07
2015-08-25,0.07,0.07,0.07,0.07,000,0.07
2015-08-24,0.07,0.07,0.07,0.07,1744200,0.07
2015-08-20,0.07,0.07,0.07,0.07,107300,0.07
2015-08-19,0.07,0.07,0.07,0.07,000,0.07
2015-08-18,0.07,0.07,0.07,0.07,000,0.07
2015-08-17,0.07,0.07,0.07,0.07,24200,0.07
2015-08-14,0.082,0.082,0.082,0.082,5700,0.082
2015-08-13,0.085,0.085,0.085,0.085,000,0.085
2015-08-12,0.085,0.085,0.085,0.085,000,0.085
2015-08-11,0.085,0.085,0.085,0.085,000,0.085
2015-08-10,0.085,0.085,0.085,0.085,000,0.085
2015-08-07,0.084,0.085,0.084,0.085,110000,0.085
2015-08-06,0.085,0.085,0.085,0.085,000,0.085
2015-08-05,0.085,0.085,0.085,0.085,000,0.085
2015-08-04,0.085,0.085,0.085,0.085,000,0.085
2015-08-03,0.085,0.085,0.085,0.085,000,0.085
2015-07-31,0.085,0.085,0.085,0.085,000,0.085
2015-07-30,0.085,0.085,0.085,0.085,9100,0.085
2015-07-29,0.08,0.08,0.08,0.08,800,0.08
2015-07-28,0.081,0.081,0.08,0.08,200000,0.08
2015-07-27,0.081,0.081,0.081,0.081,000,0.081
2015-07-24,0.081,0.081,0.081,0.081,250000,0.081
2015-07-23,0.08,0.08,0.08,0.08,000,0.08
2015-07-22,0.08,0.08,0.08,0.08,000,0.08
2015-07-21,0.08,0.08,0.08,0.08,000,0.08
2015-07-20,0.085,0.085,0.08,0.08,505700,0.08
2015-07-17,0.085,0.085,0.085,0.085,000,0.085
2015-07-16,0.084,0.085,0.084,0.085,51500,0.085
2015-07-15,0.082,0.082,0.082,0.082,400,0.082
2015-07-14,0.085,0.085,0.085,0.085,000,0.085
2015-07-13,0.085,0.085,0.085,0.085,10000,0.085
2015-07-10,0.085,0.085,0.085,0.085,000,0.085
2015-07-09,0.085,0.085,0.085,0.085,000,0.085
2015-07-08,0.085,0.085,0.085,0.085,000,0.085
2015-07-07,0.087,0.087,0.082,0.085,291700,0.085
2015-07-06,0.081,0.081,0.081,0.081,000,0.081
2015-07-03,0.081,0.081,0.081,0.081,000,0.081
2015-07-02,0.081,0.081,0.081,0.081,000,0.081
2015-07-01,0.081,0.081,0.081,0.081,000,0.081
2015-06-30,0.081,0.081,0.081,0.081,000,0.081
2015-06-29,0.081,0.081,0.08,0.081,53300,0.081
2015-06-26,0.08,0.08,0.08,0.08,50000,0.08
2015-06-25,0.08,0.08,0.079,0.08,66500,0.08
2015-06-24,0.08,0.08,0.079,0.08,364400,0.08
2015-06-23,0.073,0.073,0.073,0.073,15000,0.073
2015-06-22,0.079,0.079,0.071,0.071,220500,0.071
2015-06-19,0.08,0.08,0.08,0.08,270000,0.08
2015-06-18,0.08,0.08,0.08,0.08,230000,0.08
2015-06-17,0.079,0.08,0.078,0.08,565000,0.08
2015-06-16,0.078,0.078,0.078,0.078,24200,0.078
2015-06-15,0.075,0.079,0.075,0.079,286000,0.079
2015-06-12,0.071,0.076,0.071,0.074,169000,0.074
2015-06-11,0.066,0.068,0.066,0.068,112500,0.068
2015-06-10,0.073,0.073,0.063,0.064,6942600,0.064
2015-06-09,0.082,0.082,0.082,0.082,167700,0.082
2015-06-08,0.085,0.085,0.085,0.085,000,0.085
2015-06-05,0.083,0.085,0.083,0.085,212200,0.085
2015-06-04,0.08,0.08,0.08,0.08,000,0.08
2015-06-03,0.08,0.08,0.08,0.08,000,0.08
2015-06-02,0.08,0.08,0.08,0.08,000,0.08
2015-06-01,0.08,0.08,0.08,0.08,000,0.08
2015-05-29,0.08,0.08,0.08,0.08,000,0.08
2015-05-28,0.08,0.08,0.08,0.08,000,0.08
2015-05-27,0.08,0.08,0.08,0.08,55400,0.08
2015-05-26,0.08,0.08,0.08,0.08,000,0.08
2015-05-25,0.08,0.08,0.08,0.08,000,0.08
2015-05-22,0.08,0.08,0.08,0.08,000,0.08
2015-05-21,0.083,0.085,0.08,0.08,354300,0.08
2015-05-20,0.081,0.081,0.081,0.081,000,0.081
2015-05-19,0.081,0.081,0.081,0.081,30000,0.081
2015-05-18,0.089,0.089,0.089,0.089,000,0.089
2015-05-15,0.089,0.089,0.089,0.089,000,0.089
2015-05-14,0.089,0.089,0.089,0.089,000,0.089
2015-05-13,0.089,0.089,0.089,0.089,000,0.089
2015-05-12,0.089,0.089,0.089,0.089,000,0.089
2015-05-11,0.089,0.089,0.089,0.089,000,0.089
2015-05-08,0.089,0.089,0.089,0.089,100000,0.089
2015-05-07,0.08,0.08,0.08,0.08,000,0.08
2015-05-06,0.08,0.08,0.08,0.08,000,0.08
2015-05-05,0.08,0.08,0.08,0.08,000,0.08
2015-05-04,0.08,0.08,0.08,0.08,000,0.08
2015-05-01,0.08,0.08,0.08,0.08,000,0.08
2015-04-30,0.08,0.08,0.08,0.08,27700,0.08
2015-04-29,0.08,0.08,0.08,0.08,40000,0.08
2015-04-28,0.082,0.082,0.08,0.08,377800,0.08
2015-04-27,0.085,0.085,0.085,0.085,75000,0.085
2015-04-24,0.085,0.085,0.085,0.085,50000,0.085
2015-04-23,0.089,0.089,0.089,0.089,000,0.089
2015-04-22,0.089,0.089,0.089,0.089,150000,0.089
2015-04-21,0.089,0.089,0.089,0.089,161200,0.089
2015-04-20,0.087,0.087,0.087,0.087,000,0.087
2015-04-17,0.089,0.089,0.086,0.087,50000,0.087
2015-04-16,0.09,0.09,0.089,0.089,155000,0.089
2015-04-15,0.09,0.09,0.089,0.089,52400,0.089
2015-04-14,0.09,0.091,0.09,0.09,586600,0.09
2015-04-13,0.091,0.091,0.091,0.091,000,0.091
2015-04-10,0.091,0.091,0.091,0.091,000,0.091
2015-04-09,0.091,0.091,0.091,0.091,000,0.091
2015-04-08,0.091,0.091,0.091,0.091,000,0.091
2015-04-07,0.091,0.091,0.091,0.091,000,0.091
2015-04-06,0.091,0.091,0.091,0.091,000,0.091
2015-04-03,0.091,0.091,0.091,0.091,000,0.091
2015-04-02,0.091,0.091,0.091,0.091,12200,0.091
2015-04-01,0.09,0.09,0.09,0.09,000,0.09
2015-03-31,0.09,0.09,0.09,0.09,000,0.09
2015-03-30,0.09,0.09,0.09,0.09,410000,0.09
2015-03-27,0.09,0.09,0.09,0.09,530000,0.09
2015-03-26,0.09,0.09,0.09,0.09,400000,0.09
2015-03-25,0.09,0.09,0.09,0.09,460800,0.09
2015-03-24,0.09,0.09,0.09,0.09,20000,0.09
2015-03-23,0.09,0.09,0.09,0.09,000,0.09
2015-03-20,0.09,0.09,0.09,0.09,000,0.09
2015-03-19,0.09,0.09,0.09,0.09,000,0.09
2015-03-18,0.09,0.09,0.09,0.09,000,0.09
2015-03-17,0.09,0.09,0.09,0.09,15200,0.09
2015-03-16,0.10,0.10,0.10,0.10,32000,0.10
2015-03-13,0.095,0.095,0.095,0.095,000,0.095
2015-03-12,0.09,0.095,0.09,0.095,28000,0.095
2015-03-11,0.09,0.091,0.089,0.09,170700,0.09
2015-03-10,0.088,0.088,0.088,0.088,7700,0.088
2015-03-09,0.088,0.088,0.088,0.088,5700,0.088
2015-03-06,0.10,0.10,0.10,0.10,000,0.10
2015-03-05,0.10,0.10,0.10,0.10,000,0.10
2015-03-04,0.10,0.10,0.10,0.10,000,0.10
2015-03-03,0.10,0.10,0.10,0.10,000,0.10
2015-03-02,0.10,0.10,0.10,0.10,148000,0.10
2015-02-27,0.10,0.10,0.10,0.10,207800,0.10
2015-02-26,0.09,0.09,0.088,0.088,47800,0.088
2015-02-25,0.10,0.10,0.10,0.10,000,0.10
2015-02-24,0.10,0.10,0.10,0.10,000,0.10
2015-02-23,0.10,0.10,0.10,0.10,30100,0.10
2015-02-20,0.10,0.10,0.10,0.10,000,0.10
2015-02-19,0.10,0.10,0.10,0.10,000,0.10
2015-02-18,0.10,0.10,0.10,0.10,3900,0.10
2015-02-17,0.10,0.10,0.10,0.10,000,0.10
2015-02-16,0.10,0.10,0.10,0.10,000,0.10
2015-02-13,0.10,0.10,0.10,0.10,000,0.10
2015-02-12,0.10,0.10,0.10,0.10,000,0.10
2015-02-11,0.10,0.10,0.10,0.10,000,0.10
2015-02-10,0.10,0.10,0.10,0.10,20000,0.10
2015-02-09,0.10,0.10,0.10,0.10,3000,0.10
2015-02-06,0.10,0.10,0.10,0.10,000,0.10
2015-02-05,0.10,0.10,0.10,0.10,4000,0.10
2015-02-04,0.10,0.10,0.10,0.10,000,0.10
2015-02-03,0.10,0.10,0.10,0.10,000,0.10
2015-02-02,0.10,0.10,0.10,0.10,000,0.10
2015-01-30,0.10,0.10,0.10,0.10,9000,0.10
2015-01-29,0.10,0.10,0.10,0.10,32700,0.10
2015-01-28,0.10,0.12,0.10,0.12,106000,0.12
2015-01-27,0.11,0.11,0.11,0.11,7900,0.11
2015-01-26,0.12,0.12,0.12,0.12,000,0.12
2015-01-23,0.12,0.12,0.12,0.12,000,0.12
2015-01-22,0.12,0.12,0.12,0.12,000,0.12
2015-01-21,0.12,0.12,0.12,0.12,190000,0.12
2015-01-20,0.12,0.12,0.12,0.12,15000,0.12
2015-01-19,0.10,0.10,0.10,0.10,000,0.10
2015-01-16,0.10,0.10,0.10,0.10,000,0.10
2015-01-15,0.10,0.10,0.10,0.10,000,0.10
2015-01-14,0.10,0.10,0.10,0.10,15500,0.10
2015-01-13,0.071,0.071,0.071,0.071,000,0.071
2015-01-12,0.071,0.071,0.071,0.071,000,0.071
2015-01-09,0.071,0.071,0.071,0.071,000,0.071
2015-01-08,0.071,0.071,0.071,0.071,000,0.071
2015-01-07,0.071,0.071,0.071,0.071,000,0.071
2015-01-06,0.071,0.071,0.071,0.071,000,0.071
2015-01-05,0.071,0.071,0.071,0.071,000,0.071
2015-01-02,0.071,0.071,0.071,0.071,000,0.071
2015-01-01,0.071,0.071,0.071,0.071,000,0.071
2014-12-31,0.071,0.071,0.071,0.071,000,0.071
2014-12-30,0.071,0.071,0.071,0.071,000,0.071
2014-12-29,0.071,0.071,0.071,0.071,000,0.071
2014-12-26,0.071,0.071,0.071,0.071,000,0.071
2014-12-25,0.071,0.071,0.071,0.071,000,0.071
2014-12-24,0.071,0.071,0.071,0.071,000,0.071
2014-12-23,0.071,0.071,0.071,0.071,000,0.071
2014-12-22,0.11,0.11,0.11,0.11,000,0.11
2014-12-19,0.11,0.11,0.11,0.11,000,0.11
2014-12-18,0.11,0.11,0.11,0.11,000,0.11
2014-12-17,0.11,0.11,0.11,0.11,000,0.11
2014-12-16,0.11,0.11,0.11,0.11,000,0.11
2014-12-15,0.11,0.11,0.11,0.11,000,0.11
2014-12-12,0.11,0.11,0.11,0.11,16200,0.11
2014-12-11,0.11,0.11,0.11,0.11,000,0.11
2014-12-10,0.11,0.11,0.11,0.11,000,0.11
2014-12-09,0.11,0.11,0.11,0.11,000,0.11
2014-12-08,0.11,0.11,0.11,0.11,67000,0.11
2014-12-05,0.11,0.11,0.11,0.11,6700,0.11
2014-12-04,0.10,0.10,0.10,0.10,000,0.10
2014-12-03,0.10,0.10,0.10,0.10,000,0.10
2014-12-02,0.10,0.10,0.10,0.10,000,0.10
2014-12-01,0.105,0.105,0.10,0.10,15000,0.10
2014-11-28,0.105,0.105,0.105,0.105,000,0.105
2014-11-27,0.105,0.105,0.105,0.105,000,0.105
2014-11-26,0.105,0.105,0.105,0.105,000,0.105
2014-11-25,0.105,0.105,0.105,0.105,000,0.105
2014-11-24,0.105,0.105,0.105,0.105,000,0.105
2014-11-21,0.10,0.10,0.10,0.10,000,0.10
2014-11-20,0.10,0.10,0.10,0.10,000,0.10
2014-11-19,0.10,0.10,0.10,0.10,000,0.10
2014-11-18,0.10,0.10,0.10,0.10,000,0.10
2014-11-17,0.10,0.10,0.10,0.10,000,0.10
2014-11-14,0.11,0.11,0.10,0.10,49000,0.10
2014-11-13,0.11,0.11,0.11,0.11,10000,0.11
2014-11-12,0.10,0.125,0.098,0.11,36000,0.11
2014-11-11,0.11,0.11,0.085,0.105,71200,0.105
2014-11-10,0.11,0.11,0.11,0.11,000,0.11
2014-11-07,0.11,0.11,0.11,0.11,4000,0.11
2014-11-06,0.13,0.13,0.13,0.13,000,0.13
2014-11-05,0.13,0.13,0.13,0.13,000,0.13
2014-11-04,0.13,0.13,0.13,0.13,000,0.13
2014-11-03,0.125,0.13,0.125,0.13,40000,0.13
2014-10-31,0.13,0.13,0.13,0.13,000,0.13
2014-10-30,0.14,0.14,0.13,0.13,52600,0.13
2014-10-29,0.14,0.14,0.14,0.14,90000,0.14
2014-10-28,0.13,0.13,0.13,0.13,000,0.13
2014-10-27,0.13,0.13,0.13,0.13,000,0.13
2014-10-24,0.13,0.13,0.13,0.13,000,0.13
2014-10-23,0.13,0.13,0.13,0.13,49600,0.13
2014-10-22,0.125,0.125,0.125,0.125,70000,0.125
2014-10-21,0.13,0.13,0.13,0.13,39300,0.13
2014-10-20,0.14,0.14,0.14,0.14,000,0.14
2014-10-17,0.14,0.14,0.14,0.14,10000,0.14
2014-10-16,0.15,0.15,0.15,0.15,3500,0.15
2014-10-15,0.155,0.155,0.155,0.155,25800,0.155
2014-10-14,0.16,0.16,0.16,0.16,30000,0.16
2014-10-13,0.155,0.155,0.15,0.15,65000,0.15
2014-10-10,0.15,0.15,0.15,0.15,300,0.15
2014-10-09,0.15,0.15,0.15,0.15,600,0.15
2014-10-08,0.15,0.15,0.15,0.15,000,0.15
2014-10-07,0.15,0.15,0.15,0.15,6000,0.15
2014-10-06,0.16,0.16,0.16,0.16,000,0.16
2014-10-03,0.16,0.16,0.16,0.16,000,0.16
2014-10-02,0.16,0.16,0.16,0.16,60000,0.16
2014-10-01,0.17,0.17,0.17,0.17,100000,0.17
2014-09-30,0.18,0.18,0.18,0.18,22000,0.18
2014-09-29,0.18,0.18,0.18,0.18,000,0.18
2014-09-26,0.18,0.18,0.18,0.18,000,0.18
2014-09-25,0.18,0.18,0.18,0.18,80000,0.18
2014-09-24,0.185,0.185,0.18,0.18,40000,0.18
2014-09-23,0.18,0.19,0.18,0.185,74200,0.185
2014-09-22,0.17,0.17,0.17,0.17,34900,0.17
2014-09-19,0.165,0.165,0.165,0.165,000,0.165
2014-09-18,0.165,0.165,0.165,0.165,13400,0.165
2014-09-17,0.18,0.18,0.18,0.18,000,0.18
2014-09-16,0.18,0.18,0.18,0.18,000,0.18
2014-09-15,0.18,0.18,0.18,0.18,3400,0.18
2014-09-12,0.18,0.18,0.18,0.18,25000,0.18
2014-09-11,0.18,0.18,0.18,0.18,000,0.18
2014-09-10,0.175,0.18,0.175,0.18,51500,0.18
2014-09-09,0.20,0.20,0.175,0.175,216400,0.175
2014-09-08,0.20,0.21,0.20,0.21,377000,0.21
2014-09-05,0.18,0.19,0.18,0.19,12500,0.19
2014-09-04,0.15,0.15,0.15,0.15,000,0.15
2014-09-03,0.15,0.15,0.15,0.15,000,0.15
2014-09-02,0.15,0.15,0.15,0.15,000,0.15
2014-09-01,0.15,0.15,0.15,0.15,000,0.15
2014-08-29,0.15,0.15,0.15,0.15,000,0.15
2014-08-28,0.15,0.15,0.15,0.15,000,0.15
2014-08-27,0.15,0.15,0.15,0.15,33000,0.15
2014-08-26,0.147,0.147,0.147,0.147,000,0.147
2014-08-25,0.147,0.147,0.147,0.147,000,0.147
2014-08-22,0.147,0.147,0.147,0.147,000,0.147
2014-08-21,0.147,0.147,0.147,0.147,75800,0.147
2014-08-20,0.145,0.145,0.145,0.145,000,0.145
2014-08-19,0.145,0.145,0.145,0.145,000,0.145
2014-08-18,0.15,0.15,0.145,0.145,110700,0.145
2014-08-15,0.145,0.145,0.145,0.145,000,0.145
2014-08-14,0.14,0.145,0.14,0.145,203300,0.145
2014-08-13,0.14,0.14,0.14,0.14,222000,0.14
2014-08-12,0.13,0.13,0.13,0.13,40000,0.13
2014-08-11,0.125,0.125,0.125,0.125,000,0.125
2014-08-08,0.125,0.125,0.125,0.125,1200,0.125
2014-08-07,0.13,0.13,0.13,0.13,1500,0.13
2014-08-06,0.125,0.125,0.125,0.125,000,0.125
2014-08-05,0.125,0.125,0.125,0.125,000,0.125
2014-08-04,0.125,0.125,0.125,0.125,14900,0.125
2014-08-01,0.14,0.14,0.125,0.13,32700,0.13
2014-07-31,0.135,0.135,0.135,0.135,000,0.135
2014-07-30,0.135,0.135,0.135,0.135,100000,0.135
2014-07-29,0.14,0.14,0.14,0.14,3500,0.14
2014-07-28,0.145,0.145,0.145,0.145,000,0.145
2014-07-25,0.145,0.145,0.145,0.145,10000,0.145
2014-07-24,0.145,0.145,0.145,0.145,60000,0.145
2014-07-23,0.14,0.14,0.14,0.14,000,0.14
2014-07-22,0.14,0.14,0.14,0.14,54900,0.14
2014-07-21,0.14,0.15,0.13,0.135,174100,0.135
2014-07-18,0.12,0.12,0.12,0.12,33900,0.12
2014-07-17,0.12,0.12,0.12,0.12,000,0.12
2014-07-16,0.12,0.12,0.12,0.12,8100,0.12
2014-07-15,0.12,0.12,0.12,0.12,000,0.12
2014-07-14,0.12,0.12,0.12,0.12,000,0.12
2014-07-11,0.12,0.12,0.12,0.12,40600,0.12
2014-07-10,0.115,0.115,0.115,0.115,50000,0.115
2014-07-09,0.12,0.12,0.12,0.12,000,0.12
2014-07-08,0.12,0.12,0.12,0.12,000,0.12
2014-07-07,0.12,0.12,0.12,0.12,000,0.12
2014-07-04,0.12,0.12,0.12,0.12,000,0.12
2014-07-03,0.12,0.12,0.12,0.12,000,0.12
2014-07-02,0.12,0.12,0.12,0.12,4500,0.12
2014-07-01,0.11,0.11,0.11,0.11,000,0.11
2014-06-30,0.115,0.115,0.11,0.11,48000,0.11
2014-06-27,0.115,0.115,0.115,0.115,3600,0.115
2014-06-26,0.115,0.115,0.115,0.115,1500,0.115
2014-06-25,0.115,0.115,0.115,0.115,81100,0.115
2014-06-24,0.125,0.125,0.125,0.125,000,0.125
2014-06-23,0.125,0.125,0.125,0.125,19200,0.125
2014-06-20,0.115,0.125,0.11,0.125,272200,0.125
2014-06-19,0.12,0.12,0.115,0.115,55600,0.115
2014-06-18,0.115,0.115,0.115,0.115,000,0.115
2014-06-17,0.115,0.115,0.115,0.115,120000,0.115
2014-06-16,0.115,0.115,0.115,0.115,000,0.115
2014-06-13,0.125,0.125,0.115,0.115,75700,0.115
2014-06-12,0.12,0.12,0.12,0.12,000,0.12
2014-06-11,0.12,0.12,0.12,0.12,9700,0.12
2014-06-10,0.12,0.12,0.12,0.12,000,0.12
2014-06-09,0.12,0.12,0.12,0.12,000,0.12
2014-06-06,0.12,0.12,0.12,0.12,000,0.12
2014-06-05,0.12,0.12,0.12,0.12,200,0.12
2014-06-04,0.12,0.12,0.12,0.12,000,0.12
2014-06-03,0.12,0.12,0.12,0.12,5900,0.12
2014-06-02,0.115,0.12,0.115,0.12,26000,0.12
2014-05-30,0.115,0.125,0.115,0.125,25700,0.125
2014-05-29,0.115,0.115,0.115,0.115,000,0.115
2014-05-28,0.115,0.115,0.115,0.115,4500,0.115
2014-05-27,0.115,0.115,0.115,0.115,000,0.115
2014-05-26,0.115,0.115,0.115,0.115,7300,0.115
2014-05-23,0.115,0.115,0.115,0.115,200,0.115
2014-05-22,0.13,0.13,0.125,0.125,300600,0.125
2014-05-21,0.13,0.13,0.13,0.13,40000,0.13
2014-05-20,0.135,0.135,0.13,0.13,40000,0.13
2014-05-19,0.13,0.13,0.13,0.13,000,0.13
2014-05-16,0.13,0.13,0.13,0.13,6400,0.13
2014-05-15,0.125,0.125,0.125,0.125,000,0.125
2014-05-14,0.125,0.125,0.125,0.125,000,0.125
2014-05-13,0.125,0.125,0.125,0.125,000,0.125
2014-05-12,0.125,0.125,0.125,0.125,000,0.125
2014-05-09,0.125,0.125,0.125,0.125,60100,0.125
2014-05-08,0.135,0.135,0.125,0.125,149900,0.125
2014-05-07,0.14,0.14,0.135,0.135,68000,0.135
2014-05-06,0.135,0.135,0.135,0.135,3000,0.135
2014-05-05,0.14,0.14,0.135,0.135,33000,0.135
2014-05-02,0.14,0.14,0.14,0.14,4900,0.14
2014-05-01,0.135,0.135,0.135,0.135,000,0.135
2014-04-30,0.135,0.135,0.135,0.135,4000,0.135
2014-04-29,0.13,0.13,0.13,0.13,5700,0.13
2014-04-28,0.12,0.12,0.12,0.12,000,0.12
2014-04-25,0.12,0.12,0.12,0.12,000,0.12
2014-04-24,0.12,0.12,0.12,0.12,000,0.12
2014-04-23,0.12,0.12,0.12,0.12,164600,0.12
2014-04-22,0.12,0.12,0.12,0.12,185300,0.12
2014-04-21,0.125,0.125,0.125,0.125,000,0.125
2014-04-18,0.125,0.125,0.125,0.125,000,0.125
2014-04-17,0.125,0.125,0.125,0.125,000,0.125
2014-04-16,0.125,0.125,0.125,0.125,16000,0.125
2014-04-15,0.11,0.11,0.11,0.11,000,0.11
2014-04-14,0.11,0.11,0.11,0.11,000,0.11
2014-04-11,0.11,0.11,0.11,0.11,000,0.11
2014-04-10,0.11,0.11,0.11,0.11,000,0.11
2014-04-09,0.11,0.11,0.11,0.11,000,0.11
2014-04-08,0.11,0.11,0.11,0.11,000,0.11
2014-04-07,0.11,0.11,0.11,0.11,000,0.11
2014-04-04,0.14,0.14,0.12,0.12,37200,0.12
2014-04-03,0.14,0.14,0.14,0.14,13400,0.14
2014-04-02,0.15,0.15,0.15,0.15,900,0.15
2014-04-01,0.15,0.15,0.15,0.15,14000,0.15
2014-03-31,0.16,0.16,0.16,0.16,14700,0.16
2014-03-28,0.16,0.16,0.16,0.16,34000,0.16
2014-03-27,0.14,0.14,0.14,0.14,000,0.14
2014-03-26,0.14,0.14,0.14,0.14,3900,0.14
2014-03-25,0.13,0.13,0.12,0.12,50600,0.12
2014-03-24,0.14,0.14,0.14,0.14,4600,0.14
2014-03-21,0.145,0.145,0.14,0.14,59900,0.14
2014-03-20,0.14,0.14,0.14,0.14,000,0.14
2014-03-19,0.14,0.14,0.14,0.14,000,0.14
2014-03-18,0.145,0.145,0.14,0.14,102000,0.14
2014-03-17,0.15,0.15,0.15,0.15,30000,0.15
2014-03-14,0.14,0.145,0.14,0.14,216100,0.14
2014-03-13,0.14,0.14,0.14,0.14,700,0.14
2014-03-12,0.14,0.14,0.14,0.14,6800,0.14
2014-03-11,0.155,0.155,0.14,0.15,27600,0.15
2014-03-10,0.165,0.165,0.165,0.165,000,0.165
2014-03-07,0.155,0.165,0.14,0.165,251000,0.165
2014-03-06,0.175,0.175,0.175,0.175,000,0.175
2014-03-05,0.175,0.175,0.175,0.175,000,0.175
2014-03-04,0.175,0.175,0.175,0.175,42400,0.175
2014-03-03,0.175,0.175,0.175,0.175,10900,0.175
2014-02-28,0.175,0.175,0.175,0.175,2400,0.175
2014-02-27,0.175,0.175,0.175,0.175,1000,0.175
2014-02-26,0.175,0.175,0.175,0.175,57000,0.175
2014-02-25,0.17,0.17,0.17,0.17,000,0.17
2014-02-24,0.17,0.17,0.17,0.17,50400,0.17
2014-02-21,0.17,0.17,0.17,0.17,27500,0.17
2014-02-20,0.175,0.175,0.175,0.175,000,0.175
2014-02-19,0.175,0.175,0.175,0.175,37700,0.175
2014-02-18,0.175,0.175,0.175,0.175,30000,0.175
2014-02-17,0.17,0.195,0.17,0.175,15500,0.175
2014-02-14,0.16,0.16,0.16,0.16,10000,0.16
2014-02-13,0.16,0.16,0.16,0.16,000,0.16
2014-02-12,0.16,0.16,0.16,0.16,67100,0.16
2014-02-11,0.14,0.165,0.14,0.165,95200,0.165
2014-02-10,0.145,0.145,0.14,0.14,95200,0.14
2014-02-07,0.14,0.14,0.14,0.14,5800,0.14
2014-02-06,0.14,0.14,0.14,0.14,000,0.14
2014-02-05,0.14,0.14,0.14,0.14,200,0.14
2014-02-04,0.145,0.145,0.14,0.14,200000,0.14
2014-02-03,0.155,0.155,0.155,0.155,50000,0.155
2014-01-31,0.165,0.165,0.165,0.165,000,0.165
2014-01-30,0.165,0.165,0.165,0.165,000,0.165
2014-01-29,0.165,0.165,0.165,0.165,90000,0.165
2014-01-28,0.175,0.175,0.175,0.175,13500,0.175
2014-01-27,0.175,0.175,0.175,0.175,000,0.175
2014-01-24,0.175,0.175,0.17,0.175,76000,0.175
2014-01-23,0.165,0.165,0.165,0.165,40000,0.165
2014-01-22,0.14,0.14,0.14,0.14,000,0.14
2014-01-21,0.14,0.14,0.14,0.14,000,0.14
2014-01-20,0.14,0.14,0.14,0.14,10000,0.14
2014-01-17,0.14,0.14,0.14,0.14,000,0.14
2014-01-16,0.14,0.14,0.14,0.14,000,0.14
2014-01-15,0.14,0.14,0.14,0.14,4300,0.14
2014-01-14,0.14,0.14,0.14,0.14,000,0.14
2014-01-13,0.14,0.14,0.14,0.14,000,0.14
2014-01-10,0.15,0.15,0.14,0.14,21500,0.14
2014-01-09,0.15,0.15,0.15,0.15,000,0.15
2014-01-08,0.15,0.15,0.15,0.15,000,0.15
2014-01-07,0.15,0.15,0.15,0.15,000,0.15
2014-01-06,0.15,0.15,0.15,0.15,10700,0.15
2014-01-03,0.16,0.16,0.16,0.16,000,0.16
2014-01-02,0.16,0.16,0.16,0.16,000,0.16
2014-01-01,0.16,0.16,0.16,0.16,000,0.16
2013-12-31,0.16,0.16,0.16,0.16,000,0.16
2013-12-30,0.16,0.16,0.16,0.16,000,0.16
2013-12-27,0.16,0.16,0.16,0.16,000,0.16
2013-12-26,0.16,0.16,0.16,0.16,000,0.16
2013-12-25,0.16,0.16,0.16,0.16,000,0.16
2013-12-24,0.16,0.16,0.16,0.16,000,0.16
2013-12-23,0.16,0.16,0.16,0.16,000,0.16
2013-12-20,0.16,0.16,0.16,0.16,000,0.16
2013-12-19,0.16,0.16,0.16,0.16,000,0.16
2013-12-18,0.16,0.16,0.16,0.16,5100,0.16
2013-12-17,0.15,0.15,0.15,0.15,4800,0.15
2013-12-16,0.14,0.14,0.14,0.14,000,0.14
2013-12-13,0.145,0.145,0.14,0.14,38600,0.14
2013-12-12,0.14,0.14,0.14,0.14,40000,0.14
2013-12-11,0.13,0.13,0.13,0.13,000,0.13
2013-12-10,0.13,0.13,0.13,0.13,000,0.13
2013-12-09,0.13,0.13,0.13,0.13,000,0.13
2013-12-06,0.13,0.13,0.13,0.13,000,0.13
2013-12-05,0.14,0.14,0.13,0.13,402000,0.13
2013-12-04,0.16,0.16,0.16,0.16,000,0.16
2013-12-03,0.16,0.16,0.16,0.16,000,0.16
2013-12-02,0.16,0.16,0.16,0.16,000,0.16
2013-11-29,0.16,0.16,0.16,0.16,000,0.16
2013-11-28,0.16,0.16,0.16,0.16,000,0.16
2013-11-27,0.16,0.16,0.16,0.16,000,0.16
2013-11-26,0.16,0.16,0.16,0.16,3000,0.16
2013-11-25,0.16,0.16,0.16,0.16,000,0.16
2013-11-22,0.165,0.165,0.16,0.16,139500,0.16
2013-11-21,0.175,0.175,0.175,0.175,000,0.175
2013-11-20,0.175,0.175,0.175,0.175,000,0.175
2013-11-19,0.175,0.175,0.175,0.175,4800,0.175
2013-11-18,0.165,0.165,0.165,0.165,000,0.165
2013-11-15,0.165,0.165,0.165,0.165,000,0.165
2013-11-14,0.165,0.165,0.165,0.165,000,0.165
2013-11-13,0.165,0.165,0.165,0.165,200,0.165
2013-11-12,0.175,0.175,0.175,0.175,110000,0.175
2013-11-11,0.185,0.185,0.18,0.18,45000,0.18
2013-11-08,0.185,0.185,0.185,0.185,2500,0.185
2013-11-07,0.195,0.195,0.195,0.195,000,0.195
2013-11-06,0.195,0.195,0.195,0.195,000,0.195
2013-11-05,0.195,0.195,0.195,0.195,000,0.195
2013-11-04,0.195,0.195,0.195,0.195,25000,0.195
2013-11-01,0.21,0.21,0.21,0.21,000,0.21
2013-10-31,0.21,0.21,0.21,0.21,000,0.21
2013-10-30,0.21,0.21,0.21,0.21,000,0.21
2013-10-29,0.21,0.21,0.21,0.21,000,0.21
2013-10-28,0.21,0.21,0.21,0.21,000,0.21
2013-10-25,0.21,0.21,0.21,0.21,5700,0.21
2013-10-24,0.215,0.215,0.215,0.215,000,0.215
2013-10-23,0.215,0.215,0.215,0.215,10000,0.215
2013-10-22,0.22,0.22,0.22,0.22,100000,0.22
2013-10-21,0.215,0.215,0.21,0.21,20000,0.21
2013-10-18,0.22,0.225,0.21,0.215,96900,0.215
2013-10-17,0.21,0.225,0.21,0.21,145200,0.21
2013-10-16,0.21,0.21,0.20,0.20,59500,0.20
2013-10-15,0.20,0.21,0.20,0.21,72400,0.21
2013-10-14,0.19,0.19,0.19,0.19,000,0.19
2013-10-11,0.20,0.20,0.19,0.19,20000,0.19
2013-10-10,0.20,0.20,0.20,0.20,50000,0.20
2013-10-09,0.21,0.21,0.20,0.20,175000,0.20
2013-10-08,0.19,0.20,0.19,0.20,224700,0.20
2013-10-07,0.195,0.195,0.195,0.195,75600,0.195
2013-10-04,0.19,0.19,0.19,0.19,70000,0.19
2013-10-03,0.19,0.20,0.19,0.20,75800,0.20
2013-10-02,0.20,0.20,0.19,0.19,1730300,0.19
2013-10-01,0.21,0.22,0.20,0.20,436000,0.20
2013-09-30,0.22,0.22,0.22,0.22,000,0.22
2013-09-27,0.205,0.22,0.20,0.22,92000,0.22
2013-09-26,0.18,0.19,0.18,0.19,26900,0.19
2013-09-25,0.18,0.18,0.18,0.18,000,0.18
2013-09-24,0.18,0.18,0.18,0.18,000,0.18
2013-09-23,0.18,0.18,0.18,0.18,000,0.18
2013-09-20,0.18,0.18,0.18,0.18,000,0.18
2013-09-19,0.155,0.18,0.15,0.18,147000,0.18
2013-09-18,0.175,0.175,0.175,0.175,000,0.175
2013-09-17,0.175,0.175,0.175,0.175,52000,0.175
2013-09-16,0.18,0.18,0.175,0.175,73000,0.175
2013-09-13,0.175,0.175,0.175,0.175,5000,0.175
2013-09-12,0.17,0.17,0.17,0.17,10000,0.17
2013-09-11,0.18,0.18,0.175,0.175,44000,0.175
2013-09-10,0.20,0.20,0.20,0.20,000,0.20
2013-09-09,0.20,0.20,0.20,0.20,000,0.20
2013-09-06,0.20,0.20,0.20,0.20,000,0.20
2013-09-05,0.20,0.20,0.20,0.20,000,0.20
2013-09-04,0.20,0.20,0.20,0.20,5000,0.20
2013-09-03,0.185,0.185,0.185,0.185,000,0.185
2013-09-02,0.185,0.185,0.185,0.185,000,0.185
2013-08-30,0.185,0.185,0.185,0.185,44000,0.185
2013-08-29,0.20,0.20,0.19,0.19,279700,0.19
2013-08-28,0.21,0.21,0.21,0.21,000,0.21
2013-08-27,0.205,0.21,0.205,0.21,43800,0.21
2013-08-26,0.21,0.22,0.205,0.205,360700,0.205
2013-08-23,0.195,0.205,0.195,0.205,112300,0.205
2013-08-22,0.195,0.205,0.195,0.195,57800,0.195
2013-08-21,0.165,0.195,0.165,0.195,184300,0.195
2013-08-20,0.16,0.16,0.16,0.16,30700,0.16
2013-08-19,0.165,0.165,0.16,0.16,15000,0.16
2013-08-16,0.16,0.16,0.16,0.16,000,0.16
2013-08-15,0.16,0.16,0.16,0.16,125000,0.16
2013-08-14,0.16,0.16,0.16,0.16,117500,0.16
2013-08-13,0.16,0.16,0.16,0.16,7300,0.16
2013-08-12,0.16,0.16,0.16,0.16,2600,0.16
2013-08-09,0.16,0.16,0.16,0.16,10600,0.16
2013-08-08,0.16,0.16,0.16,0.16,000,0.16
2013-08-07,0.16,0.16,0.155,0.16,130600,0.16
2013-08-06,0.16,0.16,0.16,0.16,300,0.16
2013-08-05,0.175,0.175,0.16,0.16,48400,0.16
2013-08-02,0.19,0.19,0.19,0.19,000,0.19
2013-08-01,0.17,0.19,0.17,0.19,78200,0.19
2013-07-31,0.165,0.165,0.165,0.165,125000,0.165
2013-07-30,0.165,0.165,0.165,0.165,000,0.165
2013-07-29,0.17,0.17,0.165,0.165,50000,0.165
2013-07-26,0.165,0.165,0.165,0.165,3000,0.165
2013-07-25,0.16,0.16,0.16,0.16,9400,0.16
2013-07-24,0.17,0.17,0.16,0.16,14400,0.16
2013-07-23,0.17,0.17,0.17,0.17,000,0.17
2013-07-22,0.17,0.17,0.17,0.17,25000,0.17
2013-07-19,0.16,0.16,0.16,0.16,000,0.16
2013-07-18,0.16,0.16,0.16,0.16,000,0.16
2013-07-17,0.16,0.16,0.16,0.16,000,0.16
2013-07-16,0.16,0.16,0.16,0.16,000,0.16
2013-07-15,0.16,0.16,0.16,0.16,000,0.16
2013-07-12,0.16,0.16,0.16,0.16,000,0.16
2013-07-11,0.155,0.16,0.15,0.16,116000,0.16
2013-07-10,0.15,0.15,0.15,0.15,55000,0.15
2013-07-09,0.15,0.15,0.15,0.15,87500,0.15
2013-07-08,0.15,0.15,0.15,0.15,32000,0.15
2013-07-05,0.15,0.15,0.15,0.15,50000,0.15
2013-07-04,0.15,0.15,0.15,0.15,65400,0.15
2013-07-03,0.14,0.145,0.14,0.145,147800,0.145
2013-07-02,0.14,0.14,0.13,0.14,53400,0.14
2013-07-01,0.16,0.16,0.125,0.125,55200,0.125
2013-06-28,0.14,0.14,0.14,0.14,000,0.14
2013-06-27,0.14,0.14,0.14,0.14,50000,0.14
2013-06-26,0.15,0.15,0.14,0.14,124800,0.14
2013-06-25,0.15,0.15,0.15,0.15,52200,0.15
2013-06-24,0.16,0.16,0.15,0.15,40300,0.15
2013-06-21,0.165,0.17,0.165,0.17,11500,0.17
2013-06-20,0.165,0.165,0.16,0.16,11000,0.16
2013-06-19,0.16,0.16,0.16,0.16,1000,0.16
2013-06-18,0.17,0.17,0.155,0.16,40100,0.16
2013-06-17,0.17,0.17,0.17,0.17,10000,0.17
2013-06-14,0.17,0.17,0.17,0.17,19600,0.17
2013-06-13,0.17,0.17,0.17,0.17,10800,0.17
2013-06-12,0.155,0.17,0.155,0.17,29000,0.17
2013-06-11,0.17,0.17,0.15,0.15,46600,0.15
2013-06-10,0.17,0.17,0.17,0.17,000,0.17
2013-06-07,0.17,0.17,0.17,0.17,11500,0.17
2013-06-06,0.155,0.17,0.145,0.17,159600,0.17
2013-06-05,0.185,0.185,0.185,0.185,000,0.185
2013-06-04,0.185,0.185,0.185,0.185,000,0.185
2013-06-03,0.185,0.185,0.185,0.185,000,0.185
2013-05-31,0.18,0.185,0.18,0.185,76400,0.185
2013-05-30,0.195,0.195,0.18,0.18,31000,0.18
2013-05-29,0.195,0.195,0.195,0.195,4500,0.195
2013-05-28,0.195,0.195,0.195,0.195,000,0.195
2013-05-27,0.195,0.195,0.195,0.195,7300,0.195
2013-05-24,0.195,0.195,0.195,0.195,11500,0.195
2013-05-23,0.195,0.195,0.195,0.195,000,0.195
2013-05-22,0.20,0.20,0.195,0.195,35400,0.195
2013-05-21,0.20,0.20,0.20,0.20,000,0.20
2013-05-20,0.23,0.24,0.20,0.20,320800,0.20
2013-05-17,0.20,0.20,0.20,0.20,000,0.20
2013-05-16,0.20,0.20,0.20,0.20,76800,0.20
2013-05-15,0.20,0.20,0.20,0.20,9800,0.20
2013-05-14,0.21,0.21,0.20,0.20,135000,0.20
2013-05-13,0.21,0.21,0.205,0.205,24500,0.205
2013-05-10,0.205,0.205,0.205,0.205,000,0.205
2013-05-09,0.22,0.22,0.205,0.205,42700,0.205
2013-05-08,0.205,0.21,0.205,0.21,23500,0.21
2013-05-07,0.19,0.205,0.19,0.205,17300,0.205
2013-05-06,0.19,0.19,0.19,0.19,5600,0.19
2013-05-03,0.19,0.19,0.185,0.19,22500,0.19
2013-05-02,0.19,0.19,0.19,0.19,000,0.19
2013-05-01,0.19,0.19,0.19,0.19,000,0.19
2013-04-30,0.19,0.19,0.19,0.19,300,0.19
2013-04-29,0.20,0.20,0.20,0.20,10000,0.20
2013-04-26,0.18,0.185,0.18,0.185,155100,0.185
2013-04-25,0.175,0.175,0.175,0.175,000,0.175
2013-04-24,0.175,0.175,0.175,0.175,60000,0.175
2013-04-23,0.19,0.20,0.175,0.185,63700,0.185
2013-04-22,0.185,0.185,0.185,0.185,2200,0.185
2013-04-19,0.17,0.17,0.16,0.17,75500,0.17
2013-04-18,0.19,0.19,0.185,0.19,119800,0.19
2013-04-17,0.185,0.185,0.185,0.185,000,0.185
2013-04-16,0.21,0.21,0.18,0.185,92500,0.185
2013-04-15,0.23,0.23,0.21,0.23,198800,0.23
2013-04-12,0.24,0.24,0.235,0.235,17500,0.235
2013-04-11,0.25,0.25,0.25,0.25,000,0.25
2013-04-10,0.25,0.25,0.25,0.25,000,0.25
2013-04-09,0.23,0.25,0.23,0.25,6000,0.25
2013-04-08,0.235,0.235,0.235,0.235,150000,0.235
2013-04-05,0.23,0.23,0.21,0.215,145000,0.215
2013-04-04,0.255,0.255,0.24,0.24,124200,0.24
2013-04-03,0.265,0.265,0.265,0.265,6300,0.265
2013-04-02,0.265,0.265,0.265,0.265,25000,0.265
2013-04-01,0.265,0.265,0.265,0.265,000,0.265
2013-03-29,0.265,0.265,0.265,0.265,000,0.265
2013-03-28,0.265,0.265,0.265,0.265,000,0.265
2013-03-27,0.28,0.28,0.265,0.265,136100,0.265
2013-03-26,0.29,0.29,0.275,0.275,16400,0.275
2013-03-25,0.27,0.29,0.27,0.27,84500,0.27
2013-03-22,0.275,0.275,0.27,0.27,64900,0.27
2013-03-21,0.275,0.275,0.275,0.275,300,0.275
2013-03-20,0.265,0.27,0.265,0.27,31700,0.27
2013-03-19,0.25,0.26,0.24,0.26,143300,0.26
2013-03-18,0.26,0.26,0.24,0.25,92700,0.25
2013-03-15,0.26,0.26,0.26,0.26,000,0.26
2013-03-14,0.265,0.265,0.26,0.26,79800,0.26
2013-03-13,0.265,0.265,0.265,0.265,12600,0.265
2013-03-12,0.275,0.275,0.26,0.26,24300,0.26
2013-03-11,0.29,0.29,0.28,0.28,9500,0.28
2013-03-08,0.28,0.28,0.28,0.28,29800,0.28
2013-03-07,0.28,0.28,0.28,0.28,20000,0.28
2013-03-06,0.285,0.285,0.285,0.285,000,0.285
2013-03-05,0.285,0.285,0.285,0.285,50000,0.285
2013-03-04,0.285,0.285,0.285,0.285,000,0.285
2013-03-01,0.285,0.285,0.285,0.285,000,0.285
2013-02-28,0.29,0.29,0.285,0.285,100000,0.285
2013-02-27,0.31,0.31,0.295,0.295,355000,0.295
2013-02-26,0.30,0.30,0.30,0.30,65500,0.30
2013-02-25,0.28,0.28,0.28,0.28,000,0.28
2013-02-22,0.285,0.29,0.28,0.28,128200,0.28
2013-02-21,0.33,0.33,0.275,0.28,190000,0.28
2013-02-20,0.325,0.325,0.31,0.31,351000,0.31
2013-02-19,0.29,0.295,0.29,0.295,76000,0.295
2013-02-18,0.275,0.275,0.27,0.27,231400,0.27
2013-02-15,0.265,0.27,0.265,0.265,40300,0.265
2013-02-14,0.30,0.30,0.295,0.295,215000,0.295
2013-02-13,0.30,0.30,0.30,0.30,81100,0.30
2013-02-12,0.29,0.295,0.29,0.295,62000,0.295
2013-02-11,0.305,0.305,0.295,0.295,107700,0.295
2013-02-08,0.30,0.31,0.30,0.31,25000,0.31
2013-02-07,0.30,0.30,0.30,0.30,54600,0.30
2013-02-06,0.30,0.305,0.30,0.30,254600,0.30
2013-02-05,0.31,0.31,0.30,0.30,437500,0.30
2013-02-04,0.30,0.30,0.30,0.30,97000,0.30
2013-02-01,0.335,0.335,0.315,0.315,346000,0.315
2013-01-31,0.34,0.34,0.34,0.34,1400,0.34
2013-01-30,0.345,0.345,0.335,0.34,139100,0.34
2013-01-29,0.33,0.33,0.32,0.32,10400,0.32
2013-01-28,0.34,0.34,0.34,0.34,000,0.34
2013-01-25,0.34,0.34,0.34,0.34,48300,0.34
2013-01-24,0.335,0.35,0.33,0.33,471200,0.33
2013-01-23,0.325,0.335,0.325,0.335,87400,0.335
2013-01-22,0.33,0.33,0.305,0.31,165000,0.31
2013-01-21,0.33,0.33,0.31,0.31,132900,0.31
2013-01-18,0.325,0.325,0.31,0.31,97900,0.31
2013-01-17,0.33,0.33,0.325,0.325,32500,0.325
2013-01-16,0.30,0.33,0.30,0.33,296800,0.33
2013-01-15,0.30,0.30,0.295,0.30,435400,0.30
2013-01-14,0.305,0.305,0.30,0.30,330200,0.30
2013-01-11,0.295,0.305,0.295,0.30,454600,0.30
2013-01-10,0.29,0.29,0.29,0.29,000,0.29
2013-01-09,0.295,0.295,0.29,0.29,100000,0.29
2013-01-08,0.285,0.31,0.285,0.31,342400,0.31
2013-01-07,0.28,0.285,0.28,0.28,50300,0.28
2013-01-04,0.28,0.285,0.28,0.285,19400,0.285
2013-01-03,0.28,0.28,0.28,0.28,133800,0.28
2013-01-02,0.28,0.28,0.28,0.28,142800,0.28
2013-01-01,0.275,0.275,0.275,0.275,000,0.275
2012-12-31,0.275,0.275,0.275,0.275,7100,0.275
2012-12-28,0.275,0.275,0.275,0.275,17800,0.275
2012-12-27,0.28,0.28,0.28,0.28,000,0.28
2012-12-26,0.28,0.28,0.28,0.28,000,0.28
2012-12-25,0.28,0.28,0.28,0.28,000,0.28
2012-12-24,0.28,0.28,0.28,0.28,000,0.28
2012-12-21,0.28,0.28,0.28,0.28,000,0.28
2012-12-20,0.28,0.28,0.28,0.28,380600,0.28
2012-12-19,0.275,0.28,0.275,0.28,208400,0.28
2012-12-18,0.27,0.27,0.27,0.27,000,0.27
2012-12-17,0.27,0.27,0.27,0.27,000,0.27
2012-12-14,0.27,0.27,0.27,0.27,63800,0.27
2012-12-13,0.265,0.27,0.265,0.27,27900,0.27
2012-12-12,0.265,0.27,0.265,0.265,124400,0.265
2012-12-11,0.285,0.285,0.265,0.265,487600,0.265
2012-12-10,0.28,0.28,0.28,0.28,28900,0.28
2012-12-07,0.275,0.275,0.275,0.275,000,0.275
2012-12-06,0.275,0.275,0.275,0.275,000,0.275
2012-12-05,0.275,0.275,0.275,0.275,000,0.275
2012-12-04,0.275,0.275,0.275,0.275,000,0.275
2012-12-03,0.275,0.275,0.275,0.275,29500,0.275
2012-11-30,0.30,0.30,0.29,0.29,25000,0.29
2012-11-29,0.30,0.31,0.30,0.305,372400,0.305
2012-11-28,0.30,0.30,0.28,0.30,1156700,0.30
2012-11-27,0.28,0.30,0.28,0.30,715500,0.30
2012-11-26,0.27,0.28,0.27,0.275,429300,0.275
2012-11-23,0.265,0.275,0.26,0.265,487700,0.265
2012-11-22,0.265,0.28,0.255,0.255,935300,0.255
2012-11-21,0.245,0.26,0.245,0.255,783600,0.255
2012-11-20,0.24,0.24,0.24,0.24,47000,0.24
2012-11-19,0.24,0.24,0.24,0.24,50000,0.24
2012-11-16,0.235,0.24,0.235,0.24,32100,0.24
2012-11-15,0.23,0.24,0.23,0.24,49200,0.24
2012-11-14,0.235,0.24,0.235,0.235,235800,0.235
2012-11-13,0.235,0.24,0.235,0.235,155300,0.235
2012-11-12,0.23,0.23,0.23,0.23,192300,0.23
2012-11-09,0.245,0.245,0.235,0.235,477800,0.235
2012-11-08,0.23,0.24,0.23,0.24,81500,0.24
2012-11-07,0.23,0.23,0.23,0.23,900,0.23
2012-11-06,0.225,0.225,0.225,0.225,000,0.225
2012-11-05,0.225,0.225,0.225,0.225,000,0.225
2012-11-02,0.225,0.225,0.225,0.225,10800,0.225
2012-11-01,0.23,0.23,0.23,0.23,000,0.23
2012-10-31,0.235,0.235,0.23,0.23,135600,0.23
2012-10-30,0.23,0.23,0.23,0.23,33900,0.23
2012-10-29,0.23,0.23,0.23,0.23,2400,0.23
2012-10-26,0.235,0.235,0.23,0.23,92000,0.23
2012-10-25,0.23,0.23,0.23,0.23,35000,0.23
2012-10-24,0.235,0.235,0.235,0.235,467500,0.235
2012-10-23,0.24,0.24,0.24,0.24,128000,0.24
2012-10-22,0.24,0.25,0.24,0.245,287200,0.245
2012-10-19,0.23,0.24,0.23,0.24,974300,0.24
2012-10-18,0.215,0.23,0.215,0.23,232400,0.23
2012-10-17,0.205,0.22,0.205,0.215,151700,0.215
2012-10-16,0.215,0.215,0.205,0.205,50100,0.205
2012-10-15,0.205,0.205,0.205,0.205,12000,0.205
2012-10-12,0.205,0.205,0.205,0.205,000,0.205
2012-10-11,0.21,0.21,0.205,0.205,265700,0.205
2012-10-10,0.215,0.22,0.21,0.21,10400,0.21
2012-10-09,0.215,0.215,0.215,0.215,21500,0.215
2012-10-08,0.22,0.22,0.215,0.215,198900,0.215
2012-10-05,0.225,0.225,0.22,0.22,211000,0.22
2012-10-04,0.22,0.22,0.22,0.22,45800,0.22
2012-10-03,0.235,0.235,0.22,0.22,358300,0.22
2012-10-02,0.255,0.255,0.24,0.245,352900,0.245
2012-10-01,0.26,0.26,0.26,0.26,000,0.26
2012-09-28,0.255,0.26,0.25,0.26,505700,0.26
2012-09-27,0.23,0.245,0.23,0.245,323300,0.245
2012-09-26,0.225,0.23,0.225,0.23,33800,0.23
2012-09-25,0.225,0.23,0.225,0.23,269500,0.23
2012-09-24,0.225,0.225,0.22,0.22,140100,0.22
2012-09-21,0.22,0.22,0.21,0.21,181300,0.21
2012-09-20,0.20,0.22,0.195,0.22,204600,0.22
2012-09-19,0.215,0.215,0.20,0.20,33700,0.20
2012-09-18,0.22,0.22,0.22,0.22,000,0.22
2012-09-17,0.22,0.22,0.22,0.22,000,0.22
2012-09-14,0.20,0.22,0.20,0.22,173200,0.22
2012-09-13,0.20,0.20,0.20,0.20,000,0.20
2012-09-12,0.20,0.20,0.20,0.20,000,0.20
2012-09-11,0.22,0.22,0.20,0.20,132600,0.20
2012-09-10,0.20,0.225,0.20,0.22,55100,0.22
2012-09-07,0.20,0.20,0.20,0.20,10000,0.20
2012-09-06,0.20,0.20,0.20,0.20,164100,0.20
2012-09-05,0.21,0.21,0.20,0.21,162700,0.21
2012-09-04,0.21,0.21,0.21,0.21,408400,0.21
2012-09-03,0.19,0.19,0.19,0.19,30000,0.19
2012-08-31,0.185,0.185,0.185,0.185,000,0.185
2012-08-30,0.19,0.195,0.185,0.185,56700,0.185
2012-08-29,0.19,0.195,0.18,0.19,4329900,0.19
2012-08-28,0.19,0.195,0.19,0.195,94000,0.195
2012-08-27,0.21,0.21,0.185,0.195,159900,0.195
2012-08-24,0.195,0.22,0.195,0.215,441000,0.215
2012-08-23,0.195,0.195,0.19,0.19,50200,0.19
2012-08-22,0.20,0.20,0.20,0.20,000,0.20
2012-08-21,0.20,0.20,0.20,0.20,000,0.20
2012-08-20,0.20,0.20,0.20,0.20,5600,0.20
2012-08-17,0.18,0.18,0.18,0.18,12000,0.18
2012-08-16,0.17,0.17,0.17,0.17,1700,0.17
2012-08-15,0.17,0.17,0.17,0.17,15600,0.17
2012-08-14,0.17,0.18,0.17,0.18,52500,0.18
2012-08-13,0.18,0.18,0.17,0.17,57500,0.17
2012-08-10,0.17,0.185,0.17,0.185,135100,0.185
2012-08-09,0.18,0.18,0.18,0.18,000,0.18
2012-08-08,0.18,0.18,0.18,0.18,2800,0.18
2012-08-07,0.20,0.20,0.20,0.20,25000,0.20
2012-08-06,0.20,0.21,0.20,0.20,57300,0.20
2012-08-03,0.20,0.20,0.20,0.20,20100,0.20
2012-08-02,0.18,0.185,0.18,0.185,11400,0.185
2012-08-01,0.18,0.18,0.165,0.165,62400,0.165
2012-07-31,0.195,0.195,0.17,0.17,56600,0.17
2012-07-30,0.185,0.205,0.185,0.195,189500,0.195
2012-07-27,0.185,0.185,0.175,0.185,72900,0.185
2012-07-26,0.175,0.175,0.175,0.175,000,0.175
2012-07-25,0.175,0.175,0.175,0.175,50000,0.175
2012-07-24,0.18,0.18,0.18,0.18,000,0.18
2012-07-23,0.18,0.18,0.18,0.18,15500,0.18
2012-07-20,0.18,0.19,0.18,0.19,13400,0.19
2012-07-19,0.19,0.19,0.19,0.19,400,0.19
2012-07-18,0.21,0.22,0.205,0.205,125300,0.205
2012-07-17,0.18,0.185,0.18,0.185,56200,0.185
2012-07-16,0.18,0.18,0.18,0.18,4300,0.18
2012-07-13,0.18,0.18,0.18,0.18,13900,0.18
2012-07-12,0.18,0.18,0.18,0.18,2800,0.18
2012-07-11,0.185,0.185,0.185,0.185,100000,0.185
2012-07-10,0.19,0.19,0.19,0.19,2400,0.19
2012-07-09,0.19,0.19,0.19,0.19,900,0.19
2012-07-06,0.19,0.19,0.19,0.19,400,0.19
2012-07-05,0.19,0.20,0.19,0.20,82000,0.20
2012-07-04,0.195,0.20,0.19,0.19,59400,0.19
2012-07-03,0.19,0.19,0.19,0.19,55500,0.19
2012-07-02,0.18,0.19,0.18,0.19,37400,0.19
2012-06-29,0.19,0.19,0.19,0.19,25000,0.19
2012-06-28,0.195,0.195,0.195,0.195,000,0.195
2012-06-27,0.19,0.195,0.18,0.195,84400,0.195
2012-06-26,0.19,0.19,0.19,0.19,50600,0.19
2012-06-25,0.19,0.19,0.19,0.19,65000,0.19
2012-06-22,0.18,0.20,0.18,0.20,42600,0.20
2012-06-21,0.20,0.20,0.18,0.18,90000,0.18
2012-06-20,0.21,0.21,0.205,0.205,16100,0.205
2012-06-19,0.20,0.20,0.20,0.20,50000,0.20
2012-06-18,0.205,0.215,0.205,0.21,79300,0.21
2012-06-15,0.19,0.21,0.19,0.21,86000,0.21
2012-06-14,0.18,0.185,0.18,0.18,61800,0.18
2012-06-13,0.17,0.18,0.17,0.18,150200,0.18
2012-06-12,0.175,0.175,0.17,0.175,219400,0.175
2012-06-11,0.18,0.18,0.18,0.18,000,0.18
2012-06-08,0.185,0.185,0.18,0.18,84000,0.18
2012-06-07,0.185,0.185,0.185,0.185,000,0.185
2012-06-06,0.185,0.185,0.185,0.185,000,0.185
2012-06-05,0.185,0.185,0.16,0.185,174000,0.185
2012-06-04,0.195,0.195,0.185,0.185,215000,0.185
2012-06-01,0.195,0.20,0.195,0.20,60100,0.20
2012-05-31,0.20,0.20,0.195,0.195,139800,0.195
2012-05-30,0.20,0.20,0.20,0.20,53900,0.20
2012-05-29,0.20,0.20,0.20,0.20,31700,0.20
2012-05-28,0.20,0.21,0.20,0.205,222300,0.205
2012-05-25,0.195,0.195,0.195,0.195,10200,0.195
2012-05-24,0.20,0.20,0.20,0.20,2500,0.20
2012-05-23,0.20,0.20,0.20,0.20,10000,0.20
2012-05-22,0.205,0.205,0.20,0.20,112000,0.20
2012-05-21,0.195,0.20,0.195,0.20,47500,0.20
2012-05-18,0.19,0.19,0.18,0.18,75100,0.18
2012-05-17,0.195,0.195,0.195,0.195,69200,0.195
2012-05-16,0.20,0.20,0.20,0.20,143500,0.20
2012-05-15,0.205,0.205,0.205,0.205,121300,0.205
2012-05-14,0.225,0.225,0.21,0.21,202300,0.21
2012-05-11,0.225,0.225,0.21,0.21,21800,0.21
2012-05-10,0.20,0.21,0.20,0.205,131400,0.205
2012-05-09,0.21,0.21,0.20,0.20,374300,0.20
2012-05-08,0.215,0.22,0.21,0.21,169700,0.21
2012-05-07,0.22,0.22,0.21,0.215,315700,0.215
2012-05-04,0.235,0.235,0.215,0.22,357400,0.22
2012-05-03,0.235,0.245,0.23,0.23,751700,0.23
2012-05-02,0.21,0.23,0.21,0.23,2083600,0.23
2012-05-01,0.21,0.21,0.20,0.20,219400,0.20
2012-04-30,0.205,0.21,0.205,0.21,5000,0.21
2012-04-27,0.205,0.205,0.20,0.20,42400,0.20
2012-04-26,0.205,0.21,0.205,0.205,79400,0.205
2012-04-25,0.20,0.20,0.20,0.20,000,0.20
2012-04-24,0.20,0.20,0.20,0.20,900,0.20
2012-04-23,0.21,0.21,0.205,0.205,120000,0.205
2012-04-20,0.205,0.205,0.205,0.205,114300,0.205
2012-04-19,0.205,0.21,0.205,0.205,221800,0.205
2012-04-18,0.205,0.205,0.20,0.205,310700,0.205
2012-04-17,0.22,0.22,0.21,0.21,232100,0.21
2012-04-16,0.235,0.235,0.235,0.235,10000,0.235
2012-04-13,0.22917,0.22917,0.22917,0.22917,24600,0.22917
2012-04-12,0.22917,0.22917,0.22917,0.22917,63900,0.22917
2012-04-11,0.23404,0.2438,0.22917,0.22917,86600,0.22917
2012-04-10,0.22917,0.23404,0.22917,0.23404,12300,0.23404
2012-04-09,0.22917,0.22917,0.22917,0.22917,000,0.22917
2012-04-06,0.22917,0.22917,0.22917,0.22917,000,0.22917
2012-04-05,0.21942,0.22917,0.20479,0.22917,126100,0.22917
2012-04-04,0.21942,0.21942,0.21942,0.21942,000,0.21942
2012-04-03,0.21942,0.21942,0.21942,0.21942,000,0.21942
2012-04-02,0.21942,0.21942,0.21942,0.21942,000,0.21942
2012-03-30,0.22429,0.22429,0.21942,0.21942,20500,0.21942
2012-03-29,0.22429,0.22429,0.22429,0.22429,200,0.22429
2012-03-28,0.22429,0.22429,0.22429,0.22429,3200,0.22429
2012-03-27,0.22917,0.22917,0.22917,0.22917,000,0.22917
2012-03-26,0.22917,0.22917,0.22917,0.22917,4500,0.22917
2012-03-23,0.21942,0.22429,0.21942,0.22429,64600,0.22429
2012-03-22,0.22429,0.23404,0.22429,0.23404,47600,0.23404
2012-03-21,0.22917,0.23404,0.22917,0.23404,137300,0.23404
2012-03-20,0.22429,0.22429,0.22429,0.22429,21000,0.22429
2012-03-19,0.23404,0.23404,0.22917,0.22917,4300,0.22917
2012-03-16,0.22917,0.23404,0.22917,0.23404,25600,0.23404
2012-03-15,0.23404,0.23404,0.23404,0.23404,24700,0.23404
2012-03-14,0.22917,0.22917,0.22917,0.22917,000,0.22917
2012-03-13,0.22429,0.22917,0.22429,0.22917,128900,0.22917
2012-03-12,0.23892,0.23892,0.23404,0.23404,30100,0.23404
2012-03-09,0.23892,0.23892,0.23892,0.23892,000,0.23892
2012-03-08,0.23892,0.23892,0.23892,0.23892,31200,0.23892
2012-03-07,0.23892,0.23892,0.23892,0.23892,102700,0.23892
2012-03-06,0.23892,0.25355,0.23892,0.25355,25800,0.25355
2012-03-05,0.23892,0.23892,0.23892,0.23892,000,0.23892
2012-03-02,0.2438,0.25355,0.23892,0.23892,19700,0.23892
2012-03-01,0.2438,0.2438,0.2438,0.2438,69400,0.2438
2012-02-29,0.25355,0.25355,0.25355,0.25355,000,0.25355
2012-02-28,0.25355,0.25355,0.25355,0.25355,25600,0.25355
2012-02-27,0.2438,0.2438,0.2438,0.2438,200,0.2438
2012-02-24,0.23404,0.23404,0.23404,0.23404,000,0.23404
2012-02-23,0.23404,0.23404,0.23404,0.23404,000,0.23404
2012-02-22,0.25355,0.25355,0.23404,0.23404,256300,0.23404
2012-02-21,0.23892,0.23892,0.23892,0.23892,000,0.23892
2012-02-20,0.2438,0.2438,0.23892,0.23892,10200,0.23892
2012-02-17,0.2438,0.2438,0.2438,0.2438,600,0.2438
2012-02-16,0.24867,0.25355,0.24867,0.25355,55500,0.25355
2012-02-15,0.25355,0.25355,0.24867,0.24867,25700,0.24867
2012-02-14,0.25355,0.25355,0.25355,0.25355,61200,0.25355
2012-02-13,0.25355,0.25842,0.25355,0.25842,61000,0.25842
2012-02-10,0.2633,0.2633,0.2633,0.2633,000,0.2633
2012-02-09,0.25842,0.2633,0.25842,0.2633,66600,0.2633
2012-02-08,0.26817,0.29743,0.25842,0.26817,590800,0.26817
2012-02-07,0.2438,0.2438,0.2438,0.2438,000,0.2438
2012-02-06,0.23892,0.2438,0.23892,0.2438,78100,0.2438
2012-02-03,0.25355,0.25355,0.25355,0.25355,000,0.25355
2012-02-02,0.25355,0.25355,0.25355,0.25355,000,0.25355
2012-02-01,0.25355,0.25355,0.25355,0.25355,000,0.25355
2012-01-31,0.24867,0.25355,0.24867,0.25355,36200,0.25355
2012-01-30,0.2438,0.2438,0.2438,0.2438,55900,0.2438
2012-01-27,0.22429,0.23892,0.22429,0.23892,152800,0.23892
2012-01-26,0.22429,0.22429,0.22429,0.22429,000,0.22429
2012-01-25,0.22917,0.23404,0.22429,0.22429,127100,0.22429
2012-01-24,0.23404,0.23404,0.22917,0.22917,166200,0.22917
2012-01-23,0.23404,0.23404,0.23404,0.23404,15300,0.23404
2012-01-20,0.23892,0.23892,0.22917,0.23892,40400,0.23892
2012-01-19,0.23892,0.2438,0.23892,0.2438,115800,0.2438
2012-01-18,0.2438,0.2438,0.23892,0.23892,13400,0.23892
2012-01-17,0.26817,0.26817,0.2438,0.2438,93300,0.2438
2012-01-16,0.26817,0.26817,0.26817,0.26817,35800,0.26817
2012-01-13,0.26817,0.26817,0.26817,0.26817,29500,0.26817
2012-01-12,0.26817,0.27305,0.26817,0.27305,65600,0.27305
2012-01-11,0.26817,0.26817,0.26817,0.26817,000,0.26817
2012-01-10,0.25355,0.26817,0.25355,0.26817,39000,0.26817
2012-01-09,0.26817,0.26817,0.26817,0.26817,000,0.26817
2012-01-06,0.25355,0.26817,0.25355,0.26817,53800,0.26817
2012-01-05,0.25355,0.25355,0.25355,0.25355,25600,0.25355
2012-01-04,0.2438,0.27305,0.2438,0.27305,59100,0.27305
2012-01-03,0.2438,0.2438,0.2438,0.2438,5100,0.2438
2012-01-02,0.23404,0.23404,0.23404,0.23404,000,0.23404
2011-12-30,0.23404,0.23404,0.23404,0.23404,000,0.23404
2011-12-29,0.23404,0.23404,0.23404,0.23404,000,0.23404
2011-12-28,0.23404,0.23404,0.23404,0.23404,15100,0.23404
2011-12-27,0.2438,0.2438,0.2438,0.2438,000,0.2438
2011-12-26,0.2438,0.2438,0.2438,0.2438,000,0.2438
2011-12-23,0.2438,0.2438,0.2438,0.2438,000,0.2438
2011-12-22,0.2438,0.2438,0.2438,0.2438,7900,0.2438
2011-12-21,0.23404,0.23404,0.23404,0.23404,000,0.23404
2011-12-20,0.2438,0.2438,0.23404,0.23404,50000,0.23404
2011-12-19,0.25355,0.25355,0.2438,0.2438,19500,0.2438
2011-12-16,0.2828,0.2828,0.25355,0.25355,182500,0.25355
2011-12-15,0.29255,0.29255,0.29255,0.29255,000,0.29255
2011-12-14,0.30718,0.30718,0.29255,0.29255,70600,0.29255
2011-12-13,0.31206,0.31206,0.31206,0.31206,000,0.31206
2011-12-12,0.31206,0.31206,0.31206,0.31206,17900,0.31206
2011-12-09,0.30231,0.31206,0.30231,0.31206,394700,0.31206
2011-12-08,0.30231,0.30231,0.30231,0.30231,30700,0.30231
2011-12-07,0.30718,0.30718,0.30231,0.30231,34000,0.30231
2011-12-06,0.30718,0.30718,0.30231,0.30718,32500,0.30718
2011-12-05,0.30718,0.30718,0.30718,0.30718,46100,0.30718
2011-12-02,0.29743,0.31206,0.29255,0.31206,43800,0.31206
2011-12-01,0.29743,0.30231,0.29743,0.30231,50900,0.30231
2011-11-30,0.30231,0.30231,0.30231,0.30231,99200,0.30231
2011-11-29,0.30231,0.30231,0.30231,0.30231,93200,0.30231
2011-11-28,0.31206,0.31206,0.30231,0.30231,44000,0.30231
2011-11-25,0.29743,0.31206,0.29743,0.31206,240000,0.31206
2011-11-24,0.30231,0.30718,0.29743,0.30718,64400,0.30718
2011-11-23,0.30231,0.30718,0.29255,0.30231,329100,0.30231
2011-11-22,0.30231,0.30231,0.2828,0.30231,142400,0.30231
2011-11-21,0.29255,0.31206,0.29255,0.30231,451700,0.30231
2011-11-18,0.27305,0.29743,0.27305,0.2828,416500,0.2828
2011-11-17,0.29255,0.29255,0.2828,0.2828,90900,0.2828
2011-11-16,0.2828,0.29255,0.27305,0.2828,528000,0.2828
2011-11-15,0.2828,0.2828,0.27793,0.2828,182800,0.2828
2011-11-14,0.25842,0.27305,0.25842,0.27305,238400,0.27305
2011-11-11,0.25355,0.25355,0.25355,0.25355,5300,0.25355
2011-11-10,0.25355,0.25355,0.25355,0.25355,106100,0.25355
2011-11-09,0.25842,0.25842,0.25355,0.25355,119700,0.25355
2011-11-08,0.24867,0.25355,0.24867,0.25355,183600,0.25355
2011-11-07,0.2438,0.25355,0.2438,0.2438,208500,0.2438
2011-11-04,0.23892,0.26817,0.23404,0.2438,756400,0.2438
2011-11-03,0.21454,0.21454,0.20966,0.20966,21200,0.20966
2011-11-02,0.2438,0.2438,0.21454,0.21454,47700,0.21454
2011-10-31,0.23404,0.23404,0.23404,0.23404,15800,0.23404
2011-10-28,0.23892,0.23892,0.23892,0.23892,23100,0.23892
2011-10-27,0.23404,0.23404,0.23404,0.23404,8200,0.23404
2011-10-26,0.23404,0.23404,0.23404,0.23404,22000,0.23404
2011-10-25,0.2438,0.2438,0.23404,0.23404,102500,0.23404
2011-10-24,0.2438,0.2438,0.2438,0.2438,13600,0.2438
2011-10-21,0.23892,0.23892,0.23892,0.23892,10200,0.23892
2011-10-20,0.23404,0.23892,0.23404,0.23892,40100,0.23892
2011-10-19,0.2438,0.2438,0.2438,0.2438,25600,0.2438
2011-10-18,0.2438,0.2438,0.2438,0.2438,122800,0.2438
2011-10-17,0.25355,0.25355,0.25355,0.25355,3900,0.25355
2011-10-14,0.25355,0.25355,0.25355,0.25355,16500,0.25355
2011-10-13,0.25355,0.25355,0.25355,0.25355,4100,0.25355
2011-10-12,0.24867,0.25842,0.24867,0.25842,15300,0.25842
2011-10-11,0.2438,0.2438,0.2438,0.2438,200,0.2438
2011-10-10,0.24867,0.24867,0.22917,0.23404,200000,0.23404
2011-10-06,0.24867,0.2633,0.2438,0.2438,30700,0.2438
2011-10-04,0.2438,0.2438,0.22917,0.22917,77600,0.22917
2011-09-29,0.24867,0.25355,0.24867,0.24867,123000,0.24867
2011-09-27,0.25355,0.25355,0.25355,0.25355,7600,0.25355
2011-09-26,0.25355,0.26817,0.2438,0.25355,615800,0.25355
2011-09-23,0.2633,0.2633,0.24867,0.24867,141200,0.24867
2011-09-22,0.29255,0.29255,0.27305,0.27305,106000,0.27305
2011-09-21,0.30231,0.30231,0.29255,0.29255,75500,0.29255
2011-09-20,0.30231,0.31206,0.30231,0.30231,63000,0.30231
2011-09-16,0.29743,0.29743,0.29255,0.29743,170300,0.29743
2011-09-15,0.29255,0.30718,0.29255,0.29743,160700,0.29743
2011-09-14,0.28768,0.28768,0.2828,0.2828,20300,0.2828
2011-09-13,0.29255,0.32181,0.27305,0.28768,258300,0.28768
2011-09-12,0.29255,0.29255,0.2828,0.2828,77700,0.2828
2011-09-09,0.32181,0.32181,0.28768,0.28768,107400,0.28768
2011-09-08,0.29743,0.32181,0.28768,0.32181,599100,0.32181
2011-09-07,0.25355,0.2633,0.25355,0.25355,60400,0.25355
2011-09-05,0.2633,0.2633,0.2633,0.2633,46300,0.2633
2011-09-02,0.26817,0.26817,0.26817,0.26817,27600,0.26817
2011-09-01,0.27793,0.27793,0.27793,0.27793,20500,0.27793
2011-08-26,0.27793,0.27793,0.27793,0.27793,35100,0.27793
2011-08-25,0.27305,0.27305,0.27305,0.27305,41000,0.27305
2011-08-23,0.2828,0.29255,0.2828,0.2828,44600,0.2828
2011-08-19,0.29255,0.29255,0.2828,0.2828,11600,0.2828
2011-08-18,0.29255,0.29743,0.29255,0.29255,86300,0.29255
2011-08-16,0.29255,0.29255,0.27305,0.27305,58400,0.27305
2011-08-15,0.29743,0.30231,0.29743,0.29743,74600,0.29743
2011-08-12,0.29255,0.29743,0.2828,0.29255,222900,0.29255
2011-08-11,0.2633,0.2633,0.2633,0.2633,14300,0.2633
2011-08-10,0.29255,0.29255,0.2633,0.27305,129200,0.27305
2011-08-09,0.2438,0.29255,0.2438,0.29255,177300,0.29255
2011-08-08,0.25355,0.2633,0.25355,0.25842,117000,0.25842
2011-08-05,0.2828,0.2828,0.22429,0.23892,917600,0.23892
2011-08-04,0.29255,0.29255,0.2828,0.29255,390700,0.29255
2011-08-03,0.30231,0.30231,0.29255,0.29255,78800,0.29255
2011-08-02,0.2828,0.29255,0.2828,0.29255,105500,0.29255
2011-08-01,0.28768,0.28768,0.28768,0.28768,126100,0.28768
2011-07-29,0.27793,0.29255,0.27793,0.29255,35700,0.29255
2011-07-28,0.29255,0.29255,0.29255,0.29255,2300,0.29255
2011-07-27,0.27793,0.27793,0.27793,0.27793,17900,0.27793
2011-07-26,0.27305,0.29255,0.27305,0.29255,81600,0.29255
2011-07-25,0.2633,0.26817,0.2633,0.26817,98100,0.26817
2011-07-22,0.26817,0.27305,0.26817,0.27305,68800,0.27305
2011-07-20,0.26817,0.26817,0.2633,0.2633,36500,0.2633
2011-07-19,0.2633,0.26817,0.2633,0.26817,105600,0.26817
2011-07-18,0.25355,0.25355,0.25355,0.25355,15800,0.25355
2011-07-14,0.25842,0.25842,0.25355,0.25355,19900,0.25355
2011-07-13,0.2633,0.2633,0.25355,0.25355,107900,0.25355
2011-07-12,0.25355,0.26817,0.25355,0.26817,67100,0.26817
2011-07-11,0.2438,0.25355,0.2438,0.25355,32400,0.25355
2011-07-08,0.2438,0.25842,0.2438,0.24867,618000,0.24867
2011-07-07,0.22429,0.22917,0.22429,0.22429,77400,0.22429
2011-07-06,0.22429,0.22429,0.21942,0.22429,179600,0.22429
2011-07-05,0.21454,0.23404,0.21454,0.23404,90900,0.23404
2011-07-04,0.23404,0.23892,0.21454,0.21454,236900,0.21454
2011-07-01,0.2438,0.2438,0.23404,0.23404,160900,0.23404
2011-06-30,0.23892,0.23892,0.23404,0.23404,144200,0.23404
2011-06-29,0.22917,0.23404,0.22917,0.23404,173700,0.23404
2011-06-28,0.22429,0.22917,0.22429,0.22917,77400,0.22917
2011-06-27,0.21942,0.22429,0.21454,0.21454,188300,0.21454
2011-06-24,0.23404,0.23404,0.20479,0.22429,166100,0.22429
2011-06-23,0.2438,0.2438,0.2438,0.2438,48700,0.2438
2011-06-22,0.24867,0.24867,0.2438,0.2438,173900,0.2438
2011-06-21,0.24867,0.24867,0.24867,0.24867,73000,0.24867
2011-06-10,0.26817,0.26817,0.26817,0.26817,343500,0.26817
2011-06-09,0.27305,0.27305,0.27305,0.27305,20500,0.27305
2011-06-08,0.2633,0.26817,0.2633,0.26817,102500,0.26817
2011-06-07,0.26817,0.26817,0.25355,0.25355,197300,0.25355
2011-06-06,0.2438,0.2633,0.2438,0.25355,723600,0.25355
2011-06-03,0.26817,0.27793,0.26817,0.27793,39400,0.27793
2011-06-01,0.26817,0.26817,0.26817,0.26817,5100,0.26817
2011-05-31,0.29255,0.29255,0.29255,0.29255,10200,0.29255
2011-05-30,0.2633,0.29255,0.25842,0.29255,124100,0.29255
2011-05-26,0.27305,0.27305,0.27305,0.27305,37300,0.27305
2011-05-25,0.27305,0.27305,0.27305,0.27305,150100,0.27305
2011-05-24,0.2633,0.29255,0.2633,0.29255,674700,0.29255
2011-05-23,0.2633,0.27793,0.2633,0.27305,319200,0.27305
2011-05-20,0.25355,0.2633,0.25355,0.2633,21000,0.2633
2011-05-19,0.25842,0.25842,0.24867,0.24867,63600,0.24867
2011-05-18,0.25842,0.25842,0.25842,0.25842,45400,0.25842
2011-05-16,0.24867,0.24867,0.24867,0.24867,10700,0.24867
2011-05-13,0.25355,0.25842,0.2438,0.24867,261400,0.24867
2011-05-10,0.25842,0.25842,0.25355,0.25355,56400,0.25355
2011-05-06,0.25355,0.25355,0.22917,0.23404,355300,0.23404
2011-05-05,0.25355,0.2633,0.25355,0.25842,185900,0.25842
2011-05-04,0.25842,0.25842,0.25842,0.25842,119500,0.25842
2011-05-03,0.26817,0.26817,0.25842,0.25842,886500,0.25842
2011-05-02,0.2828,0.2828,0.2633,0.26817,326500,0.26817
2011-04-29,0.2828,0.2828,0.2828,0.2828,80100,0.2828
2011-04-28,0.28768,0.28768,0.27793,0.28768,81100,0.28768
2011-04-27,0.30231,0.30231,0.2633,0.29255,300000,0.29255
2011-04-21,0.27305,0.29255,0.26817,0.29255,478800,0.29255
2011-04-20,0.28768,0.29255,0.25842,0.25842,1207600,0.25842
2011-04-19,0.2828,0.2828,0.2828,0.2828,208800,0.2828
2011-04-18,0.2828,0.28768,0.26817,0.2828,590300,0.2828
2011-04-15,0.26817,0.27305,0.2633,0.2633,178600,0.2633
2011-04-14,0.26817,0.26817,0.25355,0.2633,280800,0.2633
2011-04-13,0.2828,0.2828,0.25355,0.25355,284700,0.25355
2011-04-12,0.2633,0.30718,0.2633,0.2828,487400,0.2828
2011-04-11,0.25355,0.2633,0.25355,0.2633,155400,0.2633
2011-04-08,0.2828,0.2828,0.24867,0.24867,110800,0.24867
2011-04-07,0.28768,0.29255,0.27793,0.28768,528700,0.28768
2011-04-06,0.2438,0.31206,0.2438,0.2828,2308200,0.2828
2011-04-05,0.21942,0.23404,0.21942,0.23404,828700,0.23404
2011-04-04,0.20966,0.21454,0.20966,0.21454,421600,0.21454
2011-04-01,0.19504,0.20479,0.19504,0.19991,205200,0.19991
2011-03-31,0.19991,0.19991,0.19991,0.19991,40400,0.19991
2011-03-30,0.19504,0.19991,0.19504,0.19991,91100,0.19991
2011-03-29,0.19504,0.19504,0.19504,0.19504,79700,0.19504
2011-03-25,0.20479,0.20479,0.20479,0.20479,249400,0.20479
2011-03-24,0.19504,0.19991,0.19504,0.19991,62900,0.19991
2011-03-23,0.19504,0.19504,0.19504,0.19504,51900,0.19504
2011-03-22,0.20479,0.20479,0.19991,0.19991,102500,0.19991
2011-03-21,0.20479,0.20479,0.19991,0.20479,153500,0.20479
2011-03-18,0.19016,0.20479,0.18528,0.20479,444300,0.20479
2011-03-17,0.18041,0.18041,0.1609,0.17553,608100,0.17553
2011-03-16,0.17553,0.18041,0.17553,0.18041,134700,0.18041
2011-03-15,0.19016,0.19504,0.16578,0.17066,1584800,0.17066
2011-03-14,0.19016,0.19504,0.18528,0.19016,217100,0.19016
2011-03-11,0.18528,0.19504,0.18528,0.19504,159500,0.19504
2011-03-10,0.19504,0.19504,0.18528,0.18528,289800,0.18528
2011-03-09,0.21454,0.21454,0.19504,0.19504,663700,0.19504
2011-03-08,0.22429,0.22429,0.20966,0.21454,288800,0.21454
2011-03-07,0.23892,0.23892,0.20966,0.22429,231900,0.22429
2011-03-04,0.22429,0.23404,0.21454,0.23404,864800,0.23404
2011-03-03,0.21454,0.22917,0.20479,0.20479,1192800,0.20479
2011-03-02,0.17553,0.20479,0.17553,0.19016,768500,0.19016
2011-03-01,0.18041,0.19504,0.17553,0.17553,423600,0.17553
2011-02-28,0.21942,0.21942,0.19504,0.19991,1483800,0.19991
2011-02-25,0.23404,0.23404,0.21454,0.21942,726200,0.21942
2011-02-24,0.21454,0.23892,0.20479,0.22429,3262500,0.22429
2011-02-23,0.15603,0.19991,0.15603,0.19504,4069500,0.19504
2011-02-22,0.13653,0.17553,0.13653,0.15603,6744200,0.15603
2011-02-18,0.09752,0.10239,0.09752,0.10239,136600,0.10239
2011-02-15,0.09752,0.09752,0.09557,0.09557,47000,0.09557
2011-02-14,0.10239,0.10239,0.09557,0.09654,77700,0.09654
2011-02-11,0.09264,0.10239,0.09264,0.10239,211600,0.10239
2011-02-10,0.09264,0.09264,0.09264,0.09264,23300,0.09264
2011-02-08,0.09167,0.09167,0.09167,0.09167,25800,0.09167
2011-02-04,0.09069,0.09264,0.09069,0.09264,112900,0.09264
2011-02-03,0.09069,0.09069,0.08972,0.09069,148800,0.09069
2011-02-01,0.09069,0.09069,0.09069,0.09069,41000,0.09069
2011-01-28,0.08777,0.08777,0.08777,0.08777,5400,0.08777
2011-01-25,0.08777,0.08777,0.08777,0.08777,8300,0.08777
2011-01-24,0.09752,0.09752,0.08094,0.08094,73800,0.08094
2011-01-21,0.09264,0.09264,0.09264,0.09264,3700,0.09264
2011-01-20,0.09752,0.09752,0.09752,0.09752,29200,0.09752
2011-01-19,0.09264,0.09752,0.08289,0.09752,256600,0.09752
2011-01-18,0.08777,0.09752,0.08777,0.09264,111000,0.09264
2011-01-17,0.09362,0.09362,0.09264,0.09264,174300,0.09264
2011-01-14,0.09362,0.09362,0.09362,0.09362,13600,0.09362
2011-01-13,0.09362,0.09752,0.09362,0.09752,168600,0.09752
2011-01-12,0.09264,0.09557,0.09264,0.09557,23800,0.09557
2011-01-07,0.09557,0.09557,0.08777,0.09264,111200,0.09264
2011-01-06,0.09654,0.09654,0.09654,0.09654,15300,0.09654
2011-01-04,0.09752,0.09752,0.09752,0.09752,1300,0.09752
2010-12-31,0.09752,0.09752,0.09752,0.09752,20500,0.09752
2010-12-24,0.09752,0.09752,0.09362,0.09362,89300,0.09362
2010-12-22,0.09752,0.09752,0.09752,0.09752,7300,0.09752
2010-12-20,0.10239,0.10239,0.09752,0.09752,139100,0.09752
2010-12-17,0.10239,0.10727,0.09752,0.10239,131000,0.10239
2010-12-16,0.10239,0.10239,0.10239,0.10239,331000,0.10239
2010-12-15,0.10727,0.10727,0.10727,0.10727,20500,0.10727
2010-12-14,0.10727,0.10727,0.10727,0.10727,52100,0.10727
2010-12-13,0.11702,0.11702,0.10727,0.10727,321900,0.10727
2010-12-08,0.10727,0.11702,0.10727,0.11702,93500,0.11702
2010-12-07,0.10727,0.10727,0.10239,0.10239,24200,0.10239
2010-12-06,0.10727,0.10727,0.10239,0.10239,57700,0.10239
2010-12-03,0.11702,0.11702,0.10727,0.10727,16100,0.10727
2010-12-02,0.11702,0.11702,0.11702,0.11702,213800,0.11702
2010-12-01,0.11215,0.11215,0.11215,0.11215,18300,0.11215
2010-11-30,0.1219,0.1219,0.1219,0.1219,22900,0.1219
2010-11-29,0.12677,0.12677,0.11702,0.1219,297300,0.1219
2010-11-26,0.11215,0.1219,0.11215,0.11702,238400,0.11702
2010-11-25,0.12677,0.13165,0.11215,0.11702,649600,0.11702
2010-11-24,0.11702,0.11702,0.11702,0.11702,55300,0.11702
2010-11-23,0.11702,0.11702,0.11215,0.11215,110600,0.11215
2010-11-22,0.11215,0.11215,0.11215,0.11215,51200,0.11215
2010-11-19,0.11215,0.11215,0.11215,0.11215,27700,0.11215
2010-11-18,0.1219,0.1219,0.11702,0.11702,231600,0.11702
2010-11-17,0.12677,0.13165,0.1219,0.12677,589700,0.12677
2010-11-16,0.1219,0.13653,0.1219,0.13165,1018200,0.13165
2010-11-15,0.11215,0.12677,0.11215,0.1219,223000,0.1219
2010-11-11,0.10727,0.10727,0.10239,0.10239,256100,0.10239
2010-11-10,0.10239,0.10239,0.10239,0.10239,800,0.10239
2010-11-09,0.10727,0.10727,0.10239,0.10239,66600,0.10239
2010-11-08,0.10239,0.1219,0.10239,0.10239,386100,0.10239
2010-11-05,0.10239,0.10727,0.09752,0.10727,338300,0.10727
2010-11-03,0.10239,0.10239,0.09752,0.09752,37300,0.09752
2010-11-01,0.10239,0.11215,0.10239,0.10727,217400,0.10727
2010-10-28,0.10239,0.10239,0.10239,0.10239,130700,0.10239
2010-10-27,0.10727,0.10727,0.10727,0.10727,192700,0.10727
2010-10-26,0.10239,0.10727,0.10239,0.10727,213200,0.10727
2010-10-25,0.11215,0.11215,0.11215,0.11215,4400,0.11215
2010-10-22,0.10727,0.11702,0.10727,0.11702,208900,0.11702
2010-10-21,0.10239,0.10239,0.10239,0.10239,10200,0.10239
2010-10-20,0.10239,0.10239,0.10239,0.10239,1200,0.10239
2010-10-19,0.10239,0.10239,0.10239,0.10239,75600,0.10239
2010-10-18,0.11215,0.11702,0.10727,0.10727,415800,0.10727
2010-10-15,0.10727,0.11215,0.10239,0.11215,53000,0.11215
2010-10-14,0.10727,0.10727,0.09752,0.10239,145400,0.10239
2010-10-12,0.1219,0.1219,0.10727,0.10727,125800,0.10727
2010-10-11,0.11215,0.1219,0.10727,0.1219,191300,0.1219
2010-10-08,0.09752,0.10727,0.09752,0.10727,96500,0.10727
2010-10-07,0.09167,0.11215,0.09167,0.09264,327700,0.09264
2010-10-06,0.08874,0.08874,0.08777,0.08777,50900,0.08777
2010-10-04,0.08874,0.08874,0.08874,0.08874,18200,0.08874
2010-10-01,0.08874,0.08874,0.08874,0.08874,94500,0.08874
2010-09-30,0.08874,0.08874,0.08874,0.08874,16700,0.08874
2010-09-29,0.08874,0.09167,0.08874,0.08874,87300,0.08874
2010-09-28,0.08874,0.08874,0.08874,0.08874,200,0.08874
2010-09-27,0.08874,0.08874,0.08874,0.08874,20500,0.08874
2010-09-24,0.09167,0.09167,0.08777,0.08777,37600,0.08777
2010-09-23,0.08777,0.08777,0.08777,0.08777,50600,0.08777
2010-09-20,0.08289,0.08582,0.08289,0.08582,124700,0.08582
2010-09-17,0.08484,0.08484,0.08094,0.08094,47300,0.08094
2010-09-16,0.08777,0.08777,0.08484,0.08484,144000,0.08484
2010-09-15,0.08094,0.09167,0.08094,0.08777,139100,0.08777
2010-09-14,0.08094,0.08094,0.08094,0.08094,3000,0.08094
2010-09-13,0.08094,0.08289,0.08094,0.08094,68900,0.08094
2010-09-10,0.08094,0.08094,0.08094,0.08094,37000,0.08094
2010-09-09,0.07801,0.07996,0.07801,0.07996,99600,0.07996
2010-09-08,0.07801,0.07801,0.07801,0.07801,37600,0.07801
2010-09-07,0.07606,0.07606,0.07606,0.07606,6200,0.07606
2010-09-02,0.08289,0.08289,0.07899,0.07899,332500,0.07899
2010-09-01,0.07996,0.07996,0.07996,0.07996,11000,0.07996
2010-08-31,0.08289,0.08289,0.08289,0.08289,76900,0.08289
2010-08-30,0.08289,0.08289,0.08289,0.08289,51200,0.08289
2010-08-27,0.08289,0.08289,0.07996,0.07996,109200,0.07996
2010-08-26,0.08289,0.08289,0.08289,0.08289,46500,0.08289
2010-08-25,0.08192,0.08192,0.07996,0.07996,104400,0.07996
2010-08-24,0.08192,0.08192,0.08192,0.08192,51200,0.08192
2010-08-20,0.08094,0.08094,0.08094,0.08094,8700,0.08094
2010-08-17,0.08679,0.09167,0.08094,0.09167,31200,0.09167
2010-08-16,0.08679,0.08777,0.08679,0.08679,225500,0.08679
2010-08-13,0.08289,0.08289,0.07996,0.07996,51800,0.07996
2010-08-10,0.08777,0.09264,0.08777,0.09264,26100,0.09264
2010-08-09,0.08777,0.08777,0.08777,0.08777,39200,0.08777
2010-08-05,0.08874,0.08874,0.07801,0.08777,3352200,0.08777
2010-08-04,0.08972,0.08972,0.08874,0.08874,8300,0.08874
2010-08-02,0.08972,0.08972,0.08972,0.08972,17700,0.08972
2010-07-28,0.08972,0.08972,0.08972,0.08972,7100,0.08972
2010-07-27,0.08972,0.08972,0.08972,0.08972,15000,0.08972
2010-07-26,0.09264,0.09264,0.08972,0.08972,16900,0.08972
2010-07-23,0.08874,0.08874,0.08777,0.08777,5000,0.08777
2010-07-22,0.08972,0.08972,0.08874,0.08874,66000,0.08874
2010-07-21,0.08972,0.09264,0.08972,0.09264,15200,0.09264
2010-07-20,0.08972,0.08972,0.08972,0.08972,7300,0.08972
2010-07-16,0.08972,0.08972,0.08874,0.08874,52100,0.08874
2010-07-15,0.08972,0.08972,0.08972,0.08972,15400,0.08972
2010-07-13,0.09654,0.09654,0.08777,0.08777,22200,0.08777
2010-07-12,0.09752,0.09752,0.09654,0.09654,47900,0.09654
2010-07-09,0.08192,0.10727,0.08192,0.10239,228200,0.10239
2010-07-05,0.07899,0.07899,0.07899,0.07899,000,0.07899
2010-07-02,0.07801,0.07801,0.07801,0.07801,7500,0.07801
2010-07-01,0.09069,0.09069,0.07801,0.07801,218300,0.07801
2010-06-30,0.09069,0.09069,0.08972,0.08972,176400,0.08972
2010-06-28,0.09167,0.09167,0.09069,0.09069,235800,0.09069
2010-06-25,0.08484,0.08874,0.08484,0.08874,126100,0.08874
2010-06-24,0.08777,0.08777,0.08777,0.08777,118400,0.08777
2010-06-23,0.08972,0.08972,0.08777,0.08777,272600,0.08777
2010-06-22,0.09459,0.09459,0.09167,0.09167,26700,0.09167
2010-06-21,0.09459,0.09459,0.09167,0.09167,000,0.09167
2010-06-18,0.09264,0.09752,0.09167,0.09264,241500,0.09264
2010-06-17,0.09167,0.09167,0.09167,0.09167,7100,0.09167
2010-06-16,0.08972,0.08972,0.08972,0.08972,68200,0.08972
2010-06-15,0.09362,0.09752,0.09264,0.09264,34800,0.09264
2010-06-11,0.09752,0.09752,0.09752,0.09752,18400,0.09752
2010-06-10,0.09362,0.09362,0.09362,0.09362,10600,0.09362
2010-06-09,0.09752,0.09752,0.09362,0.09362,6000,0.09362
2010-06-08,0.09752,0.09752,0.09362,0.09362,000,0.09362
2010-06-07,0.09752,0.09752,0.09362,0.09362,86700,0.09362
2010-06-04,0.10239,0.10239,0.10239,0.10239,22500,0.10239
2010-06-03,0.09264,0.09752,0.09264,0.09752,7700,0.09752
2010-06-02,0.09167,0.09167,0.09167,0.09167,16700,0.09167
2010-06-01,0.09264,0.09264,0.09167,0.09167,42700,0.09167
2010-05-31,0.09752,0.09752,0.09069,0.09069,105400,0.09069
2010-05-28,0.10239,0.10239,0.09167,0.09167,92800,0.09167
2010-05-27,0.10239,0.10239,0.10239,0.10239,14700,0.10239
2010-05-26,0.09264,0.09264,0.09264,0.09264,61900,0.09264
2010-05-25,0.09362,0.10727,0.09167,0.09167,105700,0.09167
2010-05-24,0.09654,0.09654,0.09654,0.09654,68700,0.09654
2010-05-21,0.09362,0.09654,0.09167,0.09362,119800,0.09362
2010-05-20,0.09752,0.10727,0.09362,0.09362,625700,0.09362
2010-05-19,0.10239,0.10727,0.10239,0.10727,118900,0.10727
2010-05-18,0.09654,0.11215,0.09654,0.10727,527700,0.10727
2010-05-17,0.09459,0.09752,0.09459,0.09654,240800,0.09654
2010-05-14,0.09752,0.09752,0.09362,0.09362,28600,0.09362
2010-05-13,0.09362,0.09752,0.09362,0.09752,170800,0.09752
2010-05-12,0.09752,0.09752,0.09362,0.09752,272100,0.09752
2010-05-11,0.09459,0.09654,0.09362,0.09654,250000,0.09654
2010-05-10,0.09752,0.09752,0.09459,0.09654,231100,0.09654
2010-05-07,0.09752,0.10239,0.09557,0.09752,49000,0.09752
2010-05-06,0.09752,0.09752,0.09557,0.09557,55600,0.09557
2010-05-05,0.09752,0.09752,0.09557,0.09654,281300,0.09654
2010-05-04,0.10239,0.10239,0.09752,0.09752,82700,0.09752
2010-05-03,0.10727,0.10727,0.10239,0.10239,127000,0.10239
2010-04-30,0.10727,0.10727,0.10727,0.10727,38500,0.10727
2010-04-29,0.10727,0.10727,0.10239,0.10239,8900,0.10239
2010-04-28,0.11215,0.11215,0.10727,0.10727,83200,0.10727
2010-04-27,0.10727,0.1219,0.10727,0.1219,5800,0.1219
2010-04-23,0.10727,0.11702,0.10727,0.10727,320900,0.10727
2010-04-22,0.11702,0.11702,0.10727,0.11702,151700,0.11702
2010-04-21,0.11215,0.1219,0.11215,0.1219,359000,0.1219
2010-04-20,0.10727,0.10727,0.10239,0.10727,33000,0.10727
2010-04-19,0.10727,0.11702,0.10727,0.10727,110800,0.10727
2010-04-16,0.11702,0.11702,0.10727,0.10727,15000,0.10727
2010-04-15,0.10239,0.11702,0.10239,0.11702,6300,0.11702
2010-04-14,0.11215,0.11215,0.10239,0.10239,143500,0.10239
2010-04-13,0.11702,0.11702,0.11215,0.11215,144100,0.11215
2010-04-12,0.11215,0.11702,0.11215,0.11702,124700,0.11702
2010-04-09,0.11215,0.11702,0.11215,0.11702,103500,0.11702
2010-04-08,0.11215,0.11702,0.11215,0.11702,99500,0.11702
2010-04-07,0.12677,0.12677,0.11702,0.11702,146100,0.11702
2010-04-06,0.11215,0.13165,0.11215,0.12677,110400,0.12677
2010-04-01,0.1219,0.1219,0.11215,0.11215,90700,0.11215
2010-03-31,0.1219,0.1219,0.11702,0.11702,355300,0.11702
2010-03-30,0.09459,0.11215,0.09459,0.11215,124300,0.11215
2010-03-29,0.09459,0.09752,0.09459,0.09459,141100,0.09459
2010-03-26,0.09459,0.09459,0.09362,0.09362,25600,0.09362
2010-03-25,0.09752,0.09752,0.09459,0.09459,41500,0.09459
2010-03-24,0.09752,0.09752,0.09459,0.09459,104800,0.09459
2010-03-23,0.09752,0.09752,0.09459,0.09459,150900,0.09459
2010-03-22,0.09557,0.09752,0.09264,0.09752,37700,0.09752
2010-03-19,0.09167,0.09459,0.09167,0.09264,123100,0.09264
2010-03-18,0.09167,0.09167,0.09069,0.09069,54800,0.09069
2010-03-17,0.09069,0.09264,0.09069,0.09167,54600,0.09167
2010-03-16,0.09264,0.09264,0.09264,0.09264,56400,0.09264
2010-03-15,0.09459,0.09459,0.09264,0.09264,147400,0.09264
2010-03-12,0.09752,0.09752,0.09459,0.09459,91900,0.09459
2010-03-11,0.09752,0.09752,0.09752,0.09752,62100,0.09752
2010-03-10,0.09069,0.09752,0.09069,0.09752,33100,0.09752
2010-03-09,0.09069,0.10239,0.09069,0.10239,351500,0.10239
2010-03-08,0.09752,0.10239,0.09264,0.09752,310400,0.09752
2010-03-05,0.10239,0.10727,0.10239,0.10239,19100,0.10239
2010-03-04,0.10239,0.10239,0.10239,0.10239,49200,0.10239
2010-03-03,0.10727,0.11215,0.10239,0.10727,207400,0.10727
2010-03-02,0.10239,0.11215,0.10239,0.10727,250000,0.10727
2010-03-01,0.10239,0.10239,0.09752,0.10239,74000,0.10239
2010-02-26,0.10727,0.11215,0.10239,0.10239,185300,0.10239
2010-02-25,0.10727,0.12677,0.10727,0.10727,168800,0.10727
2010-02-24,0.10727,0.11215,0.10239,0.11215,161800,0.11215
2010-02-23,0.11215,0.11215,0.10239,0.10239,259400,0.10239
2010-02-22,0.11702,0.11702,0.11215,0.11215,63300,0.11215
2010-02-19,0.13653,0.13653,0.12677,0.12677,14900,0.12677
2010-02-18,0.13653,0.13653,0.11215,0.11215,000,0.11215
2010-02-17,0.1414,0.1414,0.11215,0.11215,000,0.11215
2010-02-16,0.1414,0.1414,0.10727,0.10727,000,0.10727
2010-02-15,0.1414,0.1414,0.1414,0.1414,17500,0.1414
2010-02-11,0.14628,0.14628,0.14628,0.14628,1500,0.14628
2010-02-10,0.11702,0.11702,0.10727,0.10727,68800,0.10727
2010-02-09,0.1219,0.1219,0.10727,0.10727,112800,0.10727
2010-02-08,0.1219,0.1219,0.1219,0.1219,51200,0.1219
2010-02-05,0.1414,0.1414,0.1219,0.1219,000,0.1219
2010-02-04,0.11702,0.11702,0.11702,0.11702,19400,0.11702
2010-02-03,0.14628,0.14628,0.11702,0.11702,000,0.11702
2010-02-01,0.12677,0.12677,0.11702,0.11702,163500,0.11702
2010-01-29,0.14628,0.14628,0.13653,0.13653,000,0.13653
2010-01-28,0.13653,0.13653,0.13653,0.13653,82000,0.13653
2010-01-27,0.14628,0.14628,0.14628,0.14628,46100,0.14628
2010-01-25,0.16578,0.16578,0.14628,0.14628,000,0.14628
2010-01-22,0.16578,0.16578,0.15115,0.15115,000,0.15115
2010-01-21,0.16578,0.16578,0.15115,0.15115,311700,0.15115
2010-01-20,0.16578,0.16578,0.15603,0.15603,000,0.15603
2010-01-19,0.1609,0.16578,0.15603,0.16578,30700,0.16578
2010-01-15,0.16578,0.16578,0.16578,0.16578,3500,0.16578
2010-01-14,0.1609,0.1609,0.1609,0.1609,66600,0.1609
2010-01-13,0.1609,0.1609,0.1609,0.1609,30700,0.1609
2010-01-12,0.16578,0.16578,0.1609,0.1609,000,0.1609
2010-01-11,0.16578,0.16578,0.1609,0.1609,000,0.1609
2010-01-08,0.16578,0.16578,0.1609,0.1609,000,0.1609
2010-01-07,0.1609,0.1609,0.1609,0.1609,12800,0.1609
2010-01-06,0.1609,0.1609,0.1609,0.1609,10200,0.1609
2010-01-04,0.16578,0.16578,0.15603,0.15603,000,0.15603
2009-12-31,0.16578,0.16578,0.15603,0.15603,000,0.15603
2009-12-30,0.16578,0.16578,0.15603,0.15603,000,0.15603
2009-12-24,0.16578,0.16578,0.15603,0.15603,000,0.15603
2009-12-23,0.17066,0.17553,0.15603,0.16578,205000,0.16578
2009-12-22,0.17066,0.17066,0.17066,0.17066,46100,0.17066
2009-12-21,0.17066,0.17066,0.1609,0.1609,000,0.1609
2009-12-18,0.17066,0.17553,0.17066,0.17553,205000,0.17553
2009-12-17,0.17553,0.17553,0.17066,0.17066,000,0.17066
2009-12-16,0.18041,0.18041,0.18041,0.18041,10200,0.18041
2009-12-15,0.18041,0.18041,0.17553,0.17553,38900,0.17553
2009-12-14,0.17066,0.17553,0.17066,0.17553,61500,0.17553
2009-12-11,0.17553,0.18528,0.17553,0.18528,531500,0.18528
