Date,Open,High,Low,Close,Volume,Adj Close
2017-01-10,0.99,0.995,0.985,0.995,45100,0.995
2017-01-09,0.995,0.995,0.985,0.985,22600,0.985
2017-01-06,0.995,1.00,0.98,0.995,168500,0.995
2017-01-05,0.99,1.00,0.985,0.985,109600,0.985
2017-01-04,0.995,1.00,0.985,0.985,385000,0.985
2017-01-03,0.99,1.00,0.982,1.00,605600,1.00
2017-01-02,0.99,0.99,0.99,0.99,000,0.99
2016-12-30,0.97,0.99,0.97,0.99,65200,0.99
2016-12-29,0.96,0.982,0.96,0.965,89900,0.965
2016-12-28,0.995,1.00,0.99,1.00,101800,1.00
2016-12-27,0.995,0.995,0.995,0.995,000,0.995
2016-12-26,0.995,0.995,0.995,0.995,000,0.995
2016-12-23,0.99,0.995,0.99,0.995,333000,0.995
2016-12-22,0.995,0.995,0.98,0.99,137700,0.99
2016-12-21,0.995,0.995,0.98,0.99,726000,0.99
2016-12-20,0.99,0.995,0.985,0.99,341300,0.99
2016-12-19,0.99,0.99,0.98,0.985,152300,0.985
2016-12-16,0.985,0.995,0.985,0.985,327700,0.985
2016-12-15,0.985,0.995,0.985,0.985,60500,0.985
2016-12-14,0.985,0.995,0.985,0.995,97400,0.995
2016-12-13,0.995,0.995,0.985,0.995,107900,0.995
2016-12-12,0.99,0.995,0.985,0.99,454600,0.99
2016-12-09,0.97,0.98,0.97,0.975,719000,0.975
2016-12-08,0.975,0.98,0.97,0.975,555900,0.975
2016-12-07,0.97,0.975,0.965,0.97,1657600,0.97
2016-12-06,0.975,0.975,0.965,0.965,706200,0.965
2016-12-05,0.96,0.975,0.96,0.965,94400,0.965
2016-12-02,0.965,0.975,0.96,0.965,152600,0.965
2016-12-01,0.98,0.98,0.965,0.97,371300,0.97
2016-11-30,0.975,1.00,0.965,1.00,1112000,1.00
2016-11-29,0.96,0.975,0.96,0.975,917300,0.975
2016-11-28,0.97,0.97,0.965,0.965,163600,0.965
2016-11-25,0.97,0.97,0.96,0.965,224500,0.965
2016-11-24,0.96,0.97,0.957,0.965,1149600,0.965
2016-11-23,0.97,0.97,0.96,0.965,177800,0.965
2016-11-22,0.97,0.975,0.965,0.965,332800,0.965
2016-11-21,0.97,0.97,0.96,0.97,174100,0.97
2016-11-18,0.97,0.972,0.96,0.97,323000,0.97
2016-11-17,0.96,0.97,0.96,0.97,258200,0.97
2016-11-16,0.97,0.98,0.96,0.975,729300,0.975
2016-11-15,0.96,0.975,0.95,0.975,253200,0.975
2016-11-14,0.95,0.965,0.945,0.96,216100,0.96
2016-11-11,0.96,0.965,0.95,0.95,359900,0.95
2016-11-10,0.965,0.975,0.962,0.965,122500,0.965
2016-11-09,0.96,0.97,0.95,0.965,216400,0.965
2016-11-08,0.965,0.97,0.955,0.955,568700,0.955
2016-11-07,0.975,0.975,0.94,0.965,370800,0.965
2016-11-04,0.975,0.975,0.965,0.97,253300,0.97
2016-11-03,0.96,0.98,0.955,0.98,518000,0.98
2016-11-02,0.96,0.965,0.945,0.965,368000,0.965
2016-11-01,0.96,0.975,0.96,0.965,220600,0.965
2016-10-31,0.96,0.975,0.96,0.97,356600,0.97
2016-10-28,0.97,0.98,0.965,0.97,159200,0.97
2016-10-27,0.97,0.975,0.965,0.97,82300,0.97
2016-10-26,0.97,0.975,0.965,0.97,301500,0.97
2016-10-25,0.97,0.98,0.97,0.975,194600,0.975
2016-10-24,0.975,0.98,0.965,0.975,225800,0.975
2016-10-21,0.97,0.98,0.965,0.98,191300,0.98
2016-10-20,0.97,0.98,0.967,0.98,219300,0.98
2016-10-19,0.96,0.975,0.96,0.975,63400,0.975
2016-10-18,0.975,0.975,0.965,0.97,297400,0.97
2016-10-17,0.96,0.975,0.96,0.975,159400,0.975
2016-10-14,0.96,0.97,0.96,0.97,106700,0.97
2016-10-13,0.97,0.975,0.96,0.96,224200,0.96
2016-10-12,0.96,0.98,0.96,0.97,261900,0.97
2016-10-11,0.96,0.975,0.96,0.97,214400,0.97
2016-10-10,0.96,0.965,0.955,0.965,83000,0.965
2016-10-07,0.96,0.965,0.955,0.96,393200,0.96
2016-10-06,0.955,0.96,0.955,0.96,189400,0.96
2016-10-05,0.96,0.962,0.955,0.96,136000,0.96
2016-10-04,0.962,0.965,0.955,0.965,158500,0.965
2016-10-03,0.96,0.96,0.955,0.955,19600,0.955
2016-09-30,0.97,0.97,0.955,0.955,513100,0.955
2016-09-29,0.97,0.975,0.965,0.975,150100,0.975
2016-09-28,0.96,0.97,0.955,0.97,53700,0.97
2016-09-27,0.95,0.96,0.95,0.955,350400,0.955
2016-09-26,0.965,0.965,0.95,0.95,744000,0.95
2016-09-23,0.965,0.975,0.95,0.96,274300,0.96
2016-09-22,0.96,0.965,0.95,0.96,1463300,0.96
2016-09-21,0.96,0.965,0.947,0.95,432600,0.95
2016-09-20,0.94,0.955,0.94,0.95,132500,0.95
2016-09-19,0.95,0.955,0.935,0.945,255900,0.945
2016-09-16,0.95,0.955,0.94,0.945,1264500,0.945
2016-09-15,0.955,0.97,0.93,0.94,427300,0.94
2016-09-14,0.96,0.97,0.95,0.95,1511200,0.95
2016-09-13,0.97,0.975,0.962,0.965,446500,0.965
2016-09-12,0.975,0.975,0.96,0.965,953600,0.965
2016-09-09,0.99,0.995,0.98,0.98,116800,0.98
2016-09-08,0.98,0.995,0.98,0.995,377600,0.995
2016-09-07,0.99,0.99,0.975,0.98,183100,0.98
2016-09-06,0.995,0.995,0.977,0.98,785800,0.98
2016-09-05,0.99,0.995,0.985,0.995,218300,0.995
2016-09-02,0.995,0.995,0.98,0.98,235500,0.98
2016-09-01,1.00,1.00,0.985,0.985,342900,0.985
2016-08-31,0.98,1.00,0.98,1.00,404000,1.00
2016-08-30,0.99,0.99,0.98,0.985,407500,0.985
2016-08-29,0.985,0.99,0.98,0.99,831200,0.99
2016-08-26,0.975,0.992,0.97,0.99,447700,0.99
2016-08-25,0.965,0.98,0.96,0.98,260200,0.98
2016-08-24,0.96,0.97,0.955,0.965,2421000,0.965
2016-08-23,0.955,0.965,0.952,0.965,415400,0.965
2016-08-22,0.957,0.96,0.955,0.955,119300,0.955
2016-08-19,0.96,0.96,0.95,0.96,112100,0.96
2016-08-18,0.965,0.965,0.95,0.96,251000,0.96
2016-08-17,0.96,0.965,0.955,0.965,1144800,0.965
2016-08-16,0.955,0.96,0.947,0.96,540900,0.96
2016-08-15,0.95,0.9575,0.942,0.955,563500,0.955
2016-08-12,0.945,0.955,0.94,0.95,537800,0.95
2016-08-11,0.96,0.96,0.945,0.95,155200,0.95
2016-08-10,0.95,0.96,0.945,0.96,1321800,0.96
2016-08-09,0.955,0.955,0.942,0.955,561200,0.955
2016-08-08,0.945,0.955,0.942,0.955,422300,0.955
2016-08-05,0.94,0.95,0.935,0.94,546100,0.94
2016-08-04,0.95,0.95,0.935,0.945,389100,0.945
2016-08-03,0.95,0.96,0.94,0.95,419400,0.95
2016-08-02,0.975,0.975,0.945,0.95,567300,0.95
2016-08-01,0.975,0.9775,0.967,0.975,300600,0.975
2016-07-29,0.965,0.985,0.95,0.985,1155100,0.985
2016-07-28,0.945,0.965,0.937,0.965,325700,0.965
2016-07-27,0.96,0.96,0.93,0.95,257200,0.95
2016-07-26,0.95,0.955,0.93,0.955,686400,0.955
2016-07-25,0.94,0.96,0.93,0.95,496500,0.95
2016-07-22,0.955,0.955,0.93,0.945,327700,0.945
2016-07-21,0.942,0.96,0.93,0.96,389100,0.96
2016-07-20,0.925,0.955,0.92,0.955,149900,0.955
2016-07-19,0.93,0.93,0.92,0.925,80900,0.925
2016-07-18,0.92,0.935,0.92,0.935,54300,0.935
2016-07-15,0.92,0.925,0.91,0.92,158600,0.92
2016-07-14,0.915,0.92,0.91,0.92,1040300,0.92
2016-07-13,0.90,0.92,0.90,0.915,203700,0.915
2016-07-12,0.91,0.915,0.90,0.90,575000,0.90
2016-07-11,0.90,0.915,0.90,0.91,258900,0.91
2016-07-08,0.89,0.91,0.89,0.905,239800,0.905
2016-07-07,0.89,0.90,0.89,0.89,351600,0.89
2016-07-06,0.89,0.90,0.89,0.89,433400,0.89
2016-07-05,0.90,0.905,0.89,0.89,245000,0.89
2016-07-04,0.90,0.905,0.895,0.905,88300,0.905
2016-07-01,0.89,0.895,0.885,0.895,2318500,0.895
2016-06-30,0.89,0.89,0.88,0.885,2520500,0.885
2016-06-29,0.87,0.90,0.87,0.89,227300,0.89
2016-06-28,0.905,0.91,0.902,0.905,211800,0.905
2016-06-27,0.90,0.91,0.895,0.905,1296600,0.905
2016-06-24,0.92,0.9225,0.89,0.90,867900,0.90
2016-06-23,0.905,0.925,0.90,0.925,399800,0.925
2016-06-22,0.91,0.915,0.895,0.90,1174000,0.90
2016-06-21,0.91,0.915,0.905,0.905,319500,0.905
2016-06-20,0.91,0.91,0.902,0.91,1160100,0.91
2016-06-17,0.91,0.92,0.905,0.91,5627500,0.91
2016-06-16,0.90,0.915,0.90,0.91,1971300,0.91
2016-06-15,0.91,0.915,0.90,0.90,449600,0.90
2016-06-14,0.90,0.92,0.90,0.91,326500,0.91
2016-06-13,0.905,0.905,0.905,0.905,000,0.905
2016-06-10,0.91,0.91,0.902,0.905,916200,0.905
2016-06-09,0.905,0.915,0.895,0.91,2171900,0.91
2016-06-08,0.90,0.91,0.897,0.90,197600,0.90
2016-06-07,0.90,0.91,0.897,0.905,267500,0.905
2016-06-06,0.91,0.915,0.895,0.895,621600,0.895
2016-06-03,0.91,0.915,0.90,0.91,359500,0.91
2016-06-02,0.915,0.915,0.905,0.91,339700,0.91
2016-06-01,0.91,0.915,0.90,0.915,575300,0.915
2016-05-31,0.897,0.91,0.89,0.91,1248800,0.91
2016-05-30,0.89,0.905,0.89,0.90,487500,0.90
2016-05-27,0.89,0.895,0.885,0.885,746000,0.885
2016-05-26,0.88,0.89,0.875,0.885,915100,0.885
2016-05-25,0.875,0.88,0.87,0.88,1008100,0.88
2016-05-24,0.89,0.89,0.87,0.87,905800,0.87
2016-05-23,0.89,0.895,0.88,0.885,5804900,0.885
2016-05-20,0.88,0.89,0.87,0.89,896700,0.89
2016-05-19,0.885,0.885,0.872,0.875,688900,0.875
2016-05-18,0.89,0.89,0.88,0.885,997300,0.885
2016-05-17,0.895,0.90,0.882,0.89,885500,0.89
2016-05-16,0.88,0.90,0.88,0.895,299900,0.895
2016-05-13,0.89,0.89,0.88,0.885,828000,0.885
2016-05-12,0.89,0.89,0.88,0.89,950800,0.89
2016-05-11,0.885,0.89,0.88,0.89,1165100,0.89
2016-05-10,0.887,0.89,0.88,0.88,523100,0.88
2016-05-09,0.885,0.89,0.88,0.89,1044900,0.89
2016-05-06,0.89,0.895,0.88,0.885,892300,0.885
2016-05-05,0.892,0.90,0.89,0.89,488400,0.89
2016-05-04,0.89,0.90,0.875,0.90,2618300,0.90
2016-05-03,0.87,0.897,0.862,0.89,1352500,0.89
2016-05-02,0.865,0.87,0.86,0.865,991600,0.865
2016-04-29,0.86,0.87,0.855,0.865,1214700,0.865
2016-04-28,0.85,0.86,0.85,0.86,424200,0.86
2016-04-27,0.845,0.855,0.845,0.85,4926900,0.85
2016-04-26,0.845,0.85,0.845,0.845,2033300,0.845
2016-04-25,0.845,0.845,0.845,0.845,000,0.845
2016-04-22,0.84,0.8475,0.84,0.845,504000,0.845
2016-04-21,0.84,0.85,0.84,0.85,1137300,0.85
2016-04-20,0.845,0.85,0.845,0.85,572000,0.85
2016-04-19,0.85,0.85,0.845,0.845,220900,0.845
2016-04-18,0.855,0.855,0.845,0.845,182300,0.845
2016-04-15,0.85,0.855,0.845,0.85,667900,0.85
2016-04-14,0.845,0.855,0.84,0.855,501200,0.855
2016-04-13,0.847,0.855,0.84,0.84,355900,0.84
2016-04-12,0.845,0.855,0.835,0.835,743200,0.835
2016-04-11,0.855,0.855,0.842,0.845,550200,0.845
2016-04-08,0.85,0.855,0.845,0.85,277200,0.85
2016-04-07,0.85,0.855,0.85,0.85,161100,0.85
2016-04-06,0.855,0.855,0.85,0.85,449500,0.85
2016-04-05,0.85,0.855,0.847,0.85,211300,0.85
2016-04-04,0.85,0.855,0.845,0.85,93600,0.85
2016-04-01,0.85,0.86,0.85,0.85,178000,0.85
2016-03-31,0.85,0.86,0.842,0.86,236400,0.86
2016-03-30,0.855,0.86,0.84,0.84,433100,0.84
2016-03-29,0.85,0.86,0.85,0.855,185000,0.855
2016-03-28,0.85,0.85,0.85,0.85,000,0.85
2016-03-25,0.85,0.85,0.85,0.85,000,0.85
2016-03-24,0.855,0.86,0.85,0.85,1018200,0.85
2016-03-23,0.855,0.855,0.847,0.85,392200,0.85
2016-03-22,0.86,0.865,0.855,0.86,271000,0.86
2016-03-21,0.86,0.86,0.855,0.86,299700,0.86
2016-03-18,0.86,0.865,0.855,0.86,280200,0.86
2016-03-17,0.86,0.865,0.85,0.865,371900,0.865
2016-03-16,0.86,0.867,0.855,0.86,1862400,0.86
2016-03-15,0.86,0.87,0.855,0.855,354200,0.855
2016-03-14,0.86,0.87,0.855,0.86,399500,0.86
2016-03-11,0.865,0.865,0.86,0.86,30500,0.86
2016-03-10,0.86,0.865,0.85,0.865,214800,0.865
2016-03-09,0.86,0.86,0.85,0.85,593700,0.85
2016-03-08,0.86,0.865,0.855,0.865,290700,0.865
2016-03-07,0.86,0.86,0.85,0.85,277000,0.85
2016-03-04,0.855,0.86,0.85,0.86,254900,0.86
2016-03-03,0.855,0.855,0.85,0.855,324300,0.855
2016-03-02,0.85,0.855,0.85,0.855,173900,0.855
2016-03-01,0.855,0.855,0.84,0.845,294000,0.845
2016-02-29,0.85,0.86,0.85,0.855,296100,0.855
2016-02-26,0.84,0.855,0.825,0.855,484400,0.855
2016-02-25,0.855,0.855,0.832,0.84,699100,0.84
2016-02-24,0.85,0.857,0.845,0.85,266600,0.85
2016-02-23,0.84,0.85,0.84,0.845,2125700,0.845
2016-02-22,0.842,0.845,0.84,0.845,31000,0.845
2016-02-19,0.84,0.865,0.84,0.84,707000,0.84
2016-02-18,0.84,0.845,0.83,0.845,429400,0.845
2016-02-17,0.84,0.86,0.835,0.84,624100,0.84
2016-02-16,0.835,0.84,0.83,0.84,132700,0.84
2016-02-15,0.845,0.845,0.83,0.84,163900,0.84
2016-02-12,0.84,0.84,0.83,0.84,290800,0.84
2016-02-11,0.83,0.845,0.83,0.845,222400,0.845
2016-02-10,0.835,0.835,0.825,0.83,538000,0.83
2016-02-09,0.845,0.845,0.83,0.83,335500,0.83
2016-02-08,0.835,0.845,0.835,0.845,123500,0.845
2016-02-05,0.84,0.84,0.835,0.835,242800,0.835
2016-02-04,0.85,0.85,0.84,0.845,210600,0.845
2016-02-03,0.852,0.8525,0.845,0.845,234200,0.845
2016-02-02,0.86,0.862,0.845,0.85,542500,0.85
2016-02-01,0.85,0.865,0.85,0.865,356200,0.865
2016-01-29,0.86,0.865,0.845,0.85,372300,0.85
2016-01-28,0.85,0.865,0.847,0.865,308500,0.865
2016-01-27,0.85,0.855,0.845,0.855,191300,0.855
2016-01-26,0.85,0.85,0.85,0.85,000,0.85
2016-01-25,0.855,0.855,0.85,0.85,77000,0.85
2016-01-22,0.855,0.86,0.85,0.855,685900,0.855
2016-01-21,0.857,0.86,0.845,0.86,475600,0.86
2016-01-20,0.857,0.86,0.85,0.855,167600,0.855
2016-01-19,0.855,0.865,0.85,0.865,66500,0.865
2016-01-18,0.86,0.86,0.85,0.855,249400,0.855
2016-01-15,0.857,0.865,0.855,0.865,92800,0.865
2016-01-14,0.85,0.86,0.85,0.85,380500,0.85
2016-01-13,0.85,0.86,0.85,0.85,715600,0.85
2016-01-12,0.85,0.865,0.85,0.865,201100,0.865
2016-01-11,0.85,0.855,0.85,0.85,91500,0.85
2016-01-08,0.865,0.865,0.85,0.86,140800,0.86
2016-01-07,0.86,0.865,0.855,0.855,115100,0.855
2016-01-06,0.86,0.87,0.85,0.87,181400,0.87
2016-01-05,0.855,0.8575,0.845,0.85,247400,0.85
2016-01-04,0.86,0.865,0.855,0.855,141200,0.855
2016-01-01,0.855,0.855,0.855,0.855,000,0.855
2015-12-31,0.855,0.865,0.855,0.855,211500,0.855
2015-12-30,0.865,0.8725,0.855,0.855,204600,0.855
2015-12-29,0.855,0.86,0.845,0.86,657700,0.86
2015-12-28,0.89,0.89,0.89,0.89,000,0.89
2015-12-25,0.89,0.89,0.89,0.89,000,0.89
2015-12-24,0.895,0.8975,0.885,0.89,149600,0.89
2015-12-23,0.90,0.91,0.885,0.885,312500,0.885
2015-12-22,0.90,0.905,0.895,0.905,85000,0.905
2015-12-21,0.892,0.90,0.89,0.90,138400,0.90
2015-12-18,0.89,0.895,0.88,0.88,3086000,0.88
2015-12-17,0.90,0.90,0.89,0.89,352200,0.89
2015-12-16,0.89,0.90,0.885,0.895,313900,0.895
2015-12-15,0.88,0.897,0.88,0.89,259200,0.89
2015-12-14,0.895,0.895,0.88,0.88,396400,0.88
2015-12-11,0.895,0.905,0.885,0.895,387900,0.895
2015-12-10,0.91,0.91,0.895,0.90,125700,0.90
2015-12-09,0.90,0.91,0.895,0.895,198500,0.895
2015-12-08,0.90,0.91,0.90,0.90,352100,0.90
2015-12-07,0.90,0.91,0.895,0.91,362200,0.91
2015-12-04,0.895,0.90,0.88,0.90,1739900,0.90
2015-12-03,0.885,0.89,0.88,0.88,384300,0.88
2015-12-02,0.895,0.895,0.882,0.89,366700,0.89
2015-12-01,0.895,0.90,0.885,0.885,193800,0.885
2015-11-30,0.895,0.895,0.885,0.885,477400,0.885
2015-11-27,0.887,0.895,0.877,0.895,564300,0.895
2015-11-26,0.89,0.905,0.88,0.885,2941000,0.885
2015-11-25,0.895,0.90,0.89,0.895,212700,0.895
2015-11-24,0.89,0.905,0.885,0.905,100800,0.905
2015-11-23,0.89,0.90,0.88,0.90,211000,0.90
2015-11-20,0.88,0.89,0.875,0.89,151000,0.89
2015-11-19,0.87,0.88,0.865,0.87,329900,0.87
2015-11-18,0.88,0.88,0.865,0.88,297000,0.88
2015-11-17,0.87,0.88,0.86,0.88,692400,0.88
2015-11-16,0.88,0.88,0.87,0.87,226900,0.87
2015-11-13,0.875,0.885,0.875,0.885,286000,0.885
2015-11-12,0.885,0.895,0.875,0.875,7592300,0.875
2015-11-11,0.89,0.8925,0.885,0.885,143400,0.885
2015-11-10,0.895,0.8975,0.885,0.885,578000,0.885
2015-11-09,0.90,0.90,0.89,0.89,80900,0.89
2015-11-06,0.89,0.905,0.885,0.89,592700,0.89
2015-11-05,0.90,0.90,0.88,0.885,463900,0.885
2015-11-04,0.895,0.905,0.89,0.89,835800,0.89
2015-11-03,0.90,0.905,0.895,0.895,197600,0.895
2015-11-02,0.90,0.905,0.89,0.89,354400,0.89
2015-10-30,0.895,0.90,0.89,0.90,235800,0.90
2015-10-29,0.895,0.90,0.892,0.895,186000,0.895
2015-10-28,0.905,0.905,0.895,0.90,137500,0.90
2015-10-27,0.905,0.905,0.895,0.905,923800,0.905
2015-10-26,0.895,0.905,0.89,0.895,229400,0.895
2015-10-23,0.895,0.90,0.89,0.89,635900,0.89
2015-10-22,0.90,0.90,0.895,0.90,146300,0.90
2015-10-21,0.89,0.90,0.882,0.885,211500,0.885
2015-10-20,0.89,0.895,0.88,0.885,286200,0.885
2015-10-19,0.892,0.895,0.89,0.89,70500,0.89
2015-10-16,0.89,0.90,0.89,0.895,233300,0.895
2015-10-15,0.885,0.895,0.875,0.88,360500,0.88
2015-10-14,0.905,0.905,0.875,0.88,1093500,0.88
2015-10-13,0.907,0.9075,0.895,0.905,140700,0.905
2015-10-12,0.902,0.91,0.90,0.905,137800,0.905
2015-10-09,0.915,0.915,0.897,0.905,850100,0.905
2015-10-08,0.905,0.915,0.90,0.915,1134700,0.915
2015-10-07,0.91,0.91,0.897,0.905,877300,0.905
2015-10-06,0.902,0.915,0.897,0.91,541700,0.91
2015-10-05,0.905,0.905,0.90,0.90,661400,0.90
2015-10-02,0.90,0.91,0.895,0.90,258900,0.90
2015-10-01,0.91,0.915,0.895,0.90,385000,0.90
2015-09-30,0.91,0.915,0.895,0.915,706500,0.915
2015-09-29,0.90,0.91,0.892,0.905,628000,0.905
2015-09-28,0.91,0.91,0.90,0.90,590900,0.90
2015-09-25,0.90,0.91,0.895,0.91,707900,0.91
2015-09-24,0.89,0.90,0.89,0.895,534700,0.895
2015-09-23,0.90,0.90,0.89,0.895,154600,0.895
2015-09-22,0.897,0.90,0.89,0.89,592500,0.89
2015-09-21,0.90,0.90,0.89,0.895,373300,0.895
2015-09-18,0.91,0.915,0.895,0.895,465600,0.895
2015-09-17,0.92,0.92,0.905,0.905,174600,0.905
2015-09-16,0.92,0.92,0.915,0.915,199800,0.915
2015-09-15,0.91,0.925,0.905,0.92,1042800,0.92
2015-09-14,0.91,0.915,0.905,0.91,532900,0.91
2015-09-11,0.91,0.915,0.90,0.91,1400600,0.91
2015-09-10,0.905,0.91,0.90,0.91,958600,0.91
2015-09-09,0.91,0.91,0.90,0.905,287600,0.905
2015-09-08,0.905,0.91,0.90,0.905,1160100,0.905
2015-09-07,0.91,0.915,0.895,0.895,770200,0.895
2015-09-04,0.905,0.915,0.905,0.91,812100,0.91
2015-09-03,0.91,0.9175,0.905,0.905,776200,0.905
2015-09-02,0.91,0.92,0.905,0.91,895900,0.91
2015-09-01,0.91,0.935,0.905,0.91,161300,0.91
2015-08-31,0.91,0.925,0.905,0.925,773300,0.925
2015-08-28,0.90,0.91,0.90,0.91,488700,0.91
2015-08-27,0.895,0.9025,0.895,0.90,781700,0.90
2015-08-26,0.885,0.895,0.885,0.89,344100,0.89
2015-08-25,0.875,0.895,0.875,0.89,1329700,0.89
2015-08-24,0.89,0.89,0.875,0.88,602400,0.88
2015-08-21,0.895,0.902,0.89,0.89,623800,0.89
2015-08-20,0.91,0.91,0.895,0.895,472400,0.895
2015-08-19,0.90,0.91,0.895,0.905,551400,0.905
2015-08-18,0.895,0.905,0.89,0.90,1125100,0.90
2015-08-17,0.895,0.895,0.89,0.895,126600,0.895
2015-08-14,0.89,0.895,0.89,0.895,329200,0.895
2015-08-13,0.895,0.895,0.89,0.89,425900,0.89
2015-08-12,0.89,0.895,0.885,0.89,304400,0.89
2015-08-11,0.895,0.895,0.89,0.89,394100,0.89
2015-08-10,0.895,0.895,0.89,0.89,289200,0.89
2015-08-07,0.90,0.90,0.89,0.90,154200,0.90
2015-08-06,0.90,0.90,0.895,0.895,194600,0.895
2015-08-05,0.90,0.905,0.89,0.90,789000,0.90
2015-08-04,0.90,0.905,0.895,0.90,1459900,0.90
2015-08-03,0.90,0.90,0.895,0.895,411200,0.895
2015-07-31,0.8925,0.90,0.89,0.90,418400,0.90
2015-07-30,0.89,0.895,0.89,0.895,115400,0.895
2015-07-29,0.895,0.895,0.885,0.89,115800,0.89
2015-07-28,0.89,0.895,0.885,0.895,356500,0.895
2015-07-27,0.88,0.89,0.88,0.89,156400,0.89
2015-07-24,0.89,0.89,0.88,0.88,100100,0.88
2015-07-23,0.895,0.895,0.88,0.89,354000,0.89
2015-07-22,0.895,0.90,0.875,0.90,648700,0.90
2015-07-21,0.88,0.895,0.88,0.895,5863700,0.895
2015-07-20,0.885,0.885,0.875,0.875,140800,0.875
2015-07-17,0.875,0.885,0.87,0.885,413300,0.885
2015-07-16,0.86,0.875,0.85,0.875,14294600,0.875
2015-07-15,0.865,0.87,0.84,0.85,667700,0.85
2015-07-14,0.87,0.875,0.86,0.865,346900,0.865
2015-07-13,0.875,0.875,0.86,0.86,530100,0.86
2015-07-10,0.87,0.88,0.86,0.88,517200,0.88
2015-07-09,0.865,0.87,0.86,0.86,420800,0.86
2015-07-08,0.86,0.875,0.86,0.87,8630100,0.87
2015-07-07,0.87,0.87,0.86,0.86,1225200,0.86
2015-07-06,0.88,0.89,0.86,0.86,2668900,0.86
2015-07-03,0.89,0.89,0.88,0.88,238500,0.88
2015-07-02,0.885,0.895,0.88,0.895,3170600,0.895
2015-07-01,0.885,0.885,0.877,0.88,363100,0.88
2015-06-30,0.86,0.88,0.86,0.875,1742600,0.875
2015-06-29,0.875,0.875,0.86,0.865,811600,0.865
2015-06-26,0.875,0.8875,0.875,0.875,733500,0.875
2015-06-25,0.93,0.93,0.92,0.925,1293500,0.925
2015-06-24,0.92,0.93,0.92,0.925,395600,0.925
2015-06-23,0.93,0.93,0.915,0.925,1148300,0.925
2015-06-22,0.92,0.93,0.91,0.925,450500,0.925
2015-06-19,0.905,0.915,0.90,0.91,656700,0.91
2015-06-18,0.90,0.91,0.90,0.90,458000,0.90
2015-06-17,0.90,0.905,0.895,0.90,6690000,0.90
2015-06-16,0.89,0.90,0.89,0.895,269600,0.895
2015-06-15,0.895,0.90,0.89,0.90,1718900,0.90
2015-06-12,0.89,0.90,0.89,0.90,602400,0.90
2015-06-11,0.89,0.895,0.885,0.89,477900,0.89
2015-06-10,0.895,0.90,0.89,0.89,487800,0.89
2015-06-09,0.895,0.90,0.892,0.895,1629300,0.895
2015-06-08,0.90,0.90,0.90,0.90,000,0.90
2015-06-05,0.90,0.905,0.89,0.90,3605100,0.90
2015-06-04,0.915,0.915,0.90,0.90,457500,0.90
2015-06-03,0.92,0.925,0.915,0.915,896000,0.915
2015-06-02,0.925,0.925,0.91,0.925,1083800,0.925
2015-06-01,0.925,0.925,0.92,0.925,558000,0.925
2015-05-29,0.92,0.9275,0.92,0.925,2091900,0.925
2015-05-28,0.925,0.93,0.92,0.925,2106300,0.925
2015-05-27,0.925,0.927,0.92,0.925,3506000,0.925
2015-05-26,0.93,0.93,0.925,0.93,780200,0.93
2015-05-25,0.94,0.94,0.89,0.925,2354700,0.925
2015-05-22,0.94,0.94,0.93,0.935,859400,0.935
2015-05-21,0.94,0.94,0.93,0.935,1503300,0.935
2015-05-20,0.93,0.94,0.93,0.935,753900,0.935
2015-05-19,0.94,0.94,0.93,0.93,689000,0.93
2015-05-18,0.94,0.94,0.935,0.94,508300,0.94
2015-05-15,0.94,0.945,0.935,0.945,2257000,0.945
2015-05-14,0.94,0.9425,0.935,0.94,790000,0.94
2015-05-13,0.945,0.945,0.937,0.94,896300,0.94
2015-05-12,0.94,0.945,0.935,0.94,1483500,0.94
2015-05-11,0.95,0.955,0.935,0.935,773000,0.935
2015-05-08,0.95,0.955,0.94,0.95,1287900,0.95
2015-05-07,0.955,0.96,0.945,0.95,1279100,0.95
2015-05-06,0.96,0.97,0.95,0.955,2449000,0.955
2015-05-05,0.945,0.965,0.945,0.965,677900,0.965
2015-05-04,0.95,0.95,0.94,0.945,177000,0.945
2015-05-01,0.95,0.95,0.935,0.945,575100,0.945
2015-04-30,0.94,0.95,0.94,0.94,1511100,0.94
2015-04-29,0.95,0.95,0.945,0.95,257600,0.95
2015-04-28,0.94,0.95,0.94,0.945,625100,0.945
2015-04-27,0.94,0.945,0.937,0.945,783400,0.945
2015-04-24,0.925,0.94,0.925,0.94,1415900,0.94
2015-04-23,0.93,0.935,0.925,0.925,255800,0.925
2015-04-22,0.925,0.9325,0.925,0.93,1046100,0.93
2015-04-21,0.92,0.9325,0.915,0.925,5918200,0.925
2015-04-20,0.92,0.925,0.915,0.925,501800,0.925
2015-04-17,0.92,0.92,0.915,0.92,1571800,0.92
2015-04-16,0.92,0.92,0.915,0.92,549500,0.92
2015-04-15,0.92,0.92,0.915,0.92,746800,0.92
2015-04-14,0.92,0.92,0.915,0.92,1610900,0.92
2015-04-13,0.915,0.92,0.915,0.92,1146100,0.92
2015-04-10,0.92,0.92,0.915,0.92,1361200,0.92
2015-04-09,0.92,0.92,0.92,0.92,527000,0.92
2015-04-08,0.915,0.922,0.915,0.92,1033200,0.92
2015-04-07,0.92,0.92,0.915,0.915,299300,0.915
2015-04-06,0.92,0.92,0.92,0.92,000,0.92
2015-04-03,0.92,0.92,0.92,0.92,000,0.92
2015-04-02,0.92,0.925,0.915,0.92,901700,0.92
2015-04-01,0.92,0.922,0.915,0.92,557200,0.92
2015-03-31,0.925,0.93,0.915,0.925,1096600,0.925
2015-03-30,0.922,0.925,0.92,0.92,200600,0.92
2015-03-27,0.922,0.93,0.92,0.925,4165600,0.925
2015-03-26,0.922,0.925,0.915,0.915,1538300,0.915
2015-03-25,0.927,0.93,0.925,0.93,957100,0.93
2015-03-24,0.935,0.935,0.925,0.925,1666500,0.925
2015-03-23,0.93,0.94,0.925,0.935,1541600,0.935
2015-03-20,0.937,0.9375,0.925,0.93,1936200,0.93
2015-03-19,0.935,0.94,0.93,0.94,1086600,0.94
2015-03-18,0.94,0.94,0.93,0.935,1816300,0.935
2015-03-17,0.94,0.945,0.93,0.94,1345000,0.94
2015-03-16,0.935,0.94,0.93,0.94,426900,0.94
2015-03-13,0.937,0.94,0.925,0.935,1425900,0.935
2015-03-12,0.93,0.94,0.92,0.935,1268800,0.935
2015-03-11,0.925,0.935,0.92,0.935,1581700,0.935
2015-03-10,0.92,0.93,0.92,0.925,563800,0.925
2015-03-09,0.93,0.93,0.92,0.92,797500,0.92
2015-03-06,0.94,0.94,0.92,0.925,1303300,0.925
2015-03-05,0.94,0.945,0.93,0.93,247300,0.93
2015-03-04,0.95,0.95,0.94,0.94,670900,0.94
2015-03-03,0.945,0.955,0.94,0.95,3055800,0.95
2015-03-02,0.93,0.945,0.92,0.94,1075400,0.94
2015-02-27,0.92,0.94,0.91,0.92,3155400,0.92
2015-02-26,0.92,0.925,0.915,0.92,4965400,0.92
2015-02-25,0.915,0.925,0.912,0.92,1172400,0.92
2015-02-24,0.915,0.92,0.91,0.915,1753200,0.915
2015-02-23,0.915,0.9225,0.90,0.91,5865500,0.91
2015-02-20,0.91,0.91,0.905,0.905,423200,0.905
2015-02-19,0.905,0.91,0.90,0.905,867600,0.905
2015-02-18,0.91,0.915,0.90,0.91,777200,0.91
2015-02-17,0.91,0.915,0.90,0.915,495500,0.915
2015-02-16,0.89,0.915,0.89,0.91,1501800,0.91
2015-02-13,0.89,0.90,0.885,0.895,584800,0.895
2015-02-12,0.895,0.90,0.88,0.89,710300,0.89
2015-02-11,0.892,0.90,0.885,0.90,184500,0.90
2015-02-10,0.89,0.895,0.87,0.895,493900,0.895
2015-02-09,0.88,0.895,0.875,0.895,347100,0.895
2015-02-06,0.87,0.885,0.87,0.88,275400,0.88
2015-02-05,0.86,0.87,0.855,0.87,988900,0.87
2015-02-04,0.86,0.865,0.85,0.86,727800,0.86
2015-02-03,0.85,0.86,0.845,0.86,899500,0.86
2015-02-02,0.845,0.855,0.84,0.855,1131900,0.855
2015-01-30,0.84,0.8475,0.83,0.845,579100,0.845
2015-01-29,0.852,0.855,0.845,0.845,555000,0.845
2015-01-28,0.85,0.86,0.85,0.855,370800,0.855
2015-01-27,0.86,0.86,0.85,0.855,6098600,0.855
2015-01-26,0.855,0.855,0.855,0.855,000,0.855
2015-01-23,0.86,0.86,0.855,0.855,358100,0.855
2015-01-22,0.86,0.86,0.855,0.855,951500,0.855
2015-01-21,0.86,0.86,0.855,0.86,441900,0.86
2015-01-20,0.86,0.86,0.855,0.86,4554800,0.86
2015-01-19,0.86,0.86,0.855,0.855,464000,0.855
2015-01-16,0.857,0.862,0.855,0.86,544800,0.86
2015-01-15,0.86,0.865,0.855,0.86,1414600,0.86
2015-01-14,0.86,0.86,0.85,0.855,183900,0.855
2015-01-13,0.86,0.86,0.852,0.86,211400,0.86
2015-01-12,0.85,0.86,0.85,0.85,491300,0.85
2015-01-09,0.875,0.875,0.85,0.85,1146100,0.85
2015-01-08,0.872,0.875,0.865,0.875,335500,0.875
2015-01-07,0.875,0.875,0.87,0.87,392900,0.87
2015-01-06,0.88,0.885,0.87,0.875,309100,0.875
2015-01-05,0.87,0.89,0.865,0.875,703100,0.875
2015-01-02,0.865,0.875,0.865,0.87,154000,0.87
2015-01-01,0.86,0.86,0.86,0.86,000,0.86
2014-12-31,0.865,0.865,0.852,0.86,323800,0.86
2014-12-30,0.87,0.87,0.86,0.86,427600,0.86
2014-12-29,0.86,0.87,0.86,0.86,434900,0.86
2014-12-26,0.89,0.89,0.89,0.89,000,0.89
2014-12-25,0.89,0.89,0.89,0.89,000,0.89
2014-12-24,0.885,0.89,0.885,0.89,1007700,0.89
2014-12-23,0.895,0.895,0.885,0.885,67800,0.885
2014-12-22,0.885,0.8925,0.885,0.885,333800,0.885
2014-12-19,0.88,0.89,0.88,0.89,301700,0.89
2014-12-18,0.88,0.88,0.87,0.875,103100,0.875
2014-12-17,0.87,0.8775,0.87,0.875,135000,0.875
2014-12-16,0.87,0.87,0.86,0.865,658200,0.865
2014-12-15,0.88,0.88,0.865,0.865,504900,0.865
2014-12-12,0.88,0.88,0.87,0.87,472400,0.87
2014-12-11,0.88,0.89,0.877,0.88,450900,0.88
2014-12-10,0.88,0.89,0.875,0.89,96500,0.89
2014-12-09,0.895,0.895,0.87,0.875,274800,0.875
2014-12-08,0.895,0.895,0.885,0.885,282000,0.885
2014-12-05,0.895,0.897,0.885,0.895,625600,0.895
2014-12-04,0.89,0.90,0.89,0.895,285100,0.895
2014-12-03,0.897,0.90,0.89,0.89,40600,0.89
2014-12-02,0.892,0.90,0.89,0.895,303600,0.895
2014-12-01,0.90,0.90,0.885,0.895,2985200,0.895
2014-11-28,0.89,0.90,0.88,0.90,580100,0.90
2014-11-27,0.90,0.90,0.89,0.89,466700,0.89
2014-11-26,0.895,0.90,0.89,0.90,747500,0.90
2014-11-25,0.895,0.895,0.885,0.895,150900,0.895
2014-11-24,0.895,0.895,0.885,0.885,1524400,0.885
2014-11-21,0.897,0.90,0.892,0.90,170800,0.90
2014-11-20,0.895,0.90,0.895,0.90,743500,0.90
2014-11-19,0.90,0.90,0.89,0.90,916500,0.90
2014-11-18,0.89,0.905,0.89,0.90,1670800,0.90
2014-11-17,0.90,0.90,0.89,0.89,421600,0.89
2014-11-14,0.905,0.905,0.88,0.89,261900,0.89
2014-11-13,0.905,0.905,0.895,0.90,60800,0.90
2014-11-12,0.905,0.905,0.895,0.90,357100,0.90
2014-11-11,0.895,0.905,0.895,0.90,137600,0.90
2014-11-10,0.895,0.90,0.895,0.90,459800,0.90
2014-11-07,0.885,0.905,0.885,0.90,1012700,0.90
2014-11-06,0.865,0.875,0.865,0.875,5095400,0.875
2014-11-05,0.87,0.875,0.865,0.87,605600,0.87
2014-11-04,0.87,0.87,0.865,0.865,171000,0.865
2014-11-03,0.875,0.875,0.865,0.865,223000,0.865
2014-10-31,0.865,0.875,0.865,0.865,517500,0.865
2014-10-30,0.875,0.875,0.862,0.865,1429700,0.865
2014-10-29,0.875,0.88,0.865,0.87,727700,0.87
2014-10-28,0.875,0.88,0.87,0.875,599700,0.875
2014-10-27,0.875,0.875,0.865,0.865,537600,0.865
2014-10-24,0.875,0.88,0.87,0.87,252900,0.87
2014-10-23,0.865,0.875,0.865,0.87,374400,0.87
2014-10-22,0.875,0.875,0.865,0.865,120200,0.865
2014-10-21,0.875,0.88,0.87,0.875,288700,0.875
2014-10-20,0.875,0.875,0.86,0.86,301000,0.86
2014-10-17,0.88,0.88,0.87,0.87,209400,0.87
2014-10-16,0.88,0.885,0.875,0.885,78300,0.885
2014-10-15,0.875,0.885,0.865,0.885,249800,0.885
2014-10-14,0.87,0.885,0.87,0.885,74800,0.885
2014-10-13,0.88,0.89,0.86,0.89,376300,0.89
2014-10-10,0.89,0.89,0.86,0.88,625300,0.88
2014-10-09,0.89,0.895,0.875,0.88,976400,0.88
2014-10-08,0.89,0.905,0.88,0.90,508600,0.90
2014-10-07,0.89,0.91,0.88,0.90,822900,0.90
2014-10-06,0.88,0.885,0.875,0.88,342100,0.88
2014-10-03,0.895,0.895,0.88,0.885,674900,0.885
2014-10-02,0.89,0.90,0.88,0.90,266800,0.90
2014-10-01,0.905,0.905,0.88,0.89,2546400,0.89
2014-09-30,0.88,0.91,0.88,0.91,945200,0.91
2014-09-29,0.90,0.905,0.885,0.89,262400,0.89
2014-09-26,0.905,0.905,0.89,0.895,190200,0.895
2014-09-25,0.90,0.91,0.89,0.895,1827300,0.895
2014-09-24,0.90,0.92,0.89,0.90,776100,0.90
2014-09-23,0.895,0.90,0.88,0.895,2317400,0.895
2014-09-22,0.92,0.92,0.895,0.895,635800,0.895
2014-09-19,0.93,0.93,0.89,0.89,7475200,0.89
2014-09-18,0.93,0.935,0.915,0.93,570300,0.93
2014-09-17,0.935,0.935,0.92,0.925,664400,0.925
2014-09-16,0.935,0.94,0.93,0.935,676900,0.935
2014-09-15,0.92,0.935,0.92,0.93,2750600,0.93
2014-09-12,0.935,0.94,0.92,0.94,10473100,0.94
2014-09-11,0.945,0.945,0.915,0.94,270100,0.94
2014-09-10,0.94,0.95,0.935,0.945,629400,0.945
2014-09-09,0.935,0.94,0.93,0.94,629900,0.94
2014-09-08,0.93,0.94,0.925,0.94,354700,0.94
2014-09-05,0.935,0.94,0.93,0.94,1300100,0.94
2014-09-04,0.92,0.945,0.92,0.94,2166600,0.94
2014-09-03,0.895,0.915,0.895,0.915,393400,0.915
2014-09-02,0.89,0.90,0.89,0.895,108300,0.895
2014-09-01,0.89,0.90,0.88,0.90,496300,0.90
2014-08-29,0.895,0.895,0.88,0.88,1858200,0.88
2014-08-28,0.895,0.90,0.885,0.895,766300,0.895
2014-08-27,0.91,0.91,0.885,0.89,560900,0.89
2014-08-26,0.91,0.9125,0.905,0.91,681100,0.91
2014-08-25,0.915,0.915,0.905,0.905,249900,0.905
2014-08-22,0.91,0.925,0.905,0.91,1155500,0.91
2014-08-21,0.915,0.915,0.91,0.91,390200,0.91
2014-08-20,0.925,0.925,0.91,0.915,635400,0.915
2014-08-19,0.925,0.925,0.92,0.925,385600,0.925
2014-08-18,0.925,0.9275,0.92,0.925,345700,0.925
2014-08-15,0.93,0.935,0.92,0.925,814600,0.925
2014-08-14,0.93,0.935,0.925,0.925,98100,0.925
2014-08-13,0.94,0.94,0.925,0.925,127700,0.925
2014-08-12,0.925,0.94,0.92,0.94,124700,0.94
2014-08-11,0.925,0.925,0.915,0.92,97200,0.92
2014-08-08,0.93,0.93,0.905,0.92,394800,0.92
2014-08-07,0.92,0.93,0.92,0.925,428800,0.925
2014-08-06,0.93,0.935,0.925,0.93,338600,0.93
2014-08-05,0.93,0.935,0.92,0.925,286300,0.925
2014-08-04,0.925,0.935,0.92,0.93,464700,0.93
2014-08-01,0.93,0.935,0.925,0.935,718000,0.935
2014-07-31,0.94,0.94,0.925,0.935,153900,0.935
2014-07-30,0.93,0.947,0.93,0.94,378800,0.94
2014-07-29,0.935,0.94,0.93,0.94,75500,0.94
2014-07-28,0.925,0.935,0.925,0.935,108500,0.935
2014-07-25,0.93,0.94,0.92,0.935,231000,0.935
2014-07-24,0.925,0.925,0.915,0.925,5900,0.925
2014-07-23,0.92,0.925,0.915,0.925,2274300,0.925
2014-07-22,0.93,0.93,0.92,0.92,1586200,0.92
2014-07-21,0.93,0.94,0.922,0.925,1599900,0.925
2014-07-18,0.935,0.935,0.925,0.935,148000,0.935
2014-07-17,0.93,0.93,0.92,0.925,185600,0.925
2014-07-16,0.925,0.925,0.91,0.925,49000,0.925
2014-07-15,0.93,0.93,0.92,0.925,36200,0.925
2014-07-14,0.94,0.94,0.925,0.925,51400,0.925
2014-07-11,0.935,0.94,0.927,0.93,50500,0.93
2014-07-10,0.93,0.95,0.925,0.95,417600,0.95
2014-07-09,0.92,0.935,0.905,0.93,536900,0.93
2014-07-08,0.935,0.94,0.905,0.905,383900,0.905
2014-07-07,0.935,0.94,0.922,0.935,202100,0.935
2014-07-04,0.935,0.935,0.915,0.93,203300,0.93
2014-07-03,0.92,0.935,0.915,0.93,144200,0.93
2014-07-02,0.93,0.93,0.91,0.92,58300,0.92
2014-07-01,0.92,0.93,0.91,0.93,743000,0.93
2014-06-30,0.905,0.935,0.90,0.91,889100,0.91
2014-06-27,0.93,0.93,0.90,0.905,249500,0.905
2014-06-26,0.90,0.94,0.89,0.94,167500,0.94
2014-06-25,0.935,0.94,0.93,0.935,205900,0.935
2014-06-24,0.93,0.94,0.925,0.935,205500,0.935
2014-06-23,0.93,0.935,0.922,0.93,200500,0.93
2014-06-20,0.93,0.935,0.92,0.925,292300,0.925
2014-06-19,0.925,0.9325,0.92,0.925,668100,0.925
2014-06-18,0.93,0.935,0.92,0.93,248800,0.93
2014-06-17,0.93,0.935,0.92,0.935,280300,0.935
2014-06-16,0.935,0.935,0.92,0.92,1227600,0.92
2014-06-13,0.937,0.945,0.93,0.93,587100,0.93
2014-06-12,0.945,0.95,0.935,0.95,216100,0.95
2014-06-11,0.94,0.95,0.94,0.95,263400,0.95
2014-06-10,0.945,0.9475,0.935,0.935,230500,0.935
2014-06-09,0.935,0.935,0.935,0.935,000,0.935
2014-06-06,0.95,0.95,0.935,0.935,264700,0.935
2014-06-05,0.94,0.95,0.93,0.95,229900,0.95
2014-06-04,0.96,0.965,0.94,0.95,623300,0.95
2014-06-03,0.94,0.94,0.925,0.935,98200,0.935
2014-06-02,0.97,0.97,0.905,0.935,1874700,0.935
2014-05-30,0.975,0.98,0.935,0.935,6400800,0.935
2014-05-29,0.97,0.98,0.96,0.975,564200,0.975
2014-05-28,0.95,0.975,0.935,0.965,633700,0.965
2014-05-27,0.94,0.95,0.93,0.95,316500,0.95
2014-05-26,0.94,0.95,0.93,0.95,349200,0.95
2014-05-23,0.935,0.94,0.935,0.935,126000,0.935
2014-05-22,0.94,0.94,0.93,0.94,189300,0.94
2014-05-21,0.935,0.94,0.93,0.94,619100,0.94
2014-05-20,0.935,0.94,0.93,0.935,276300,0.935
2014-05-19,0.935,0.9475,0.915,0.935,2645500,0.935
2014-05-16,0.93,0.945,0.93,0.94,434900,0.94
2014-05-15,0.945,0.95,0.94,0.95,888500,0.95
2014-05-14,0.925,0.93,0.91,0.93,234000,0.93
2014-05-13,0.90,0.93,0.90,0.905,164200,0.905
2014-05-12,0.925,0.935,0.915,0.925,159800,0.925
2014-05-09,0.94,0.94,0.925,0.935,212200,0.935
2014-05-08,0.95,0.95,0.937,0.94,199500,0.94
2014-05-07,0.945,0.95,0.945,0.95,153000,0.95
2014-05-06,0.95,0.955,0.935,0.945,727000,0.945
2014-05-05,0.945,0.9525,0.94,0.95,1545100,0.95
2014-05-02,0.945,0.95,0.93,0.945,239900,0.945
2014-05-01,0.93,0.9575,0.92,0.955,101200,0.955
2014-04-30,0.91,0.92,0.91,0.92,587400,0.92
2014-04-29,0.91,0.92,0.91,0.91,163900,0.91
2014-04-28,0.8925,0.905,0.89,0.90,1313300,0.90
2014-04-25,0.90,0.90,0.90,0.90,000,0.90
2014-04-24,0.895,0.90,0.887,0.90,83700,0.90
2014-04-23,0.895,0.895,0.885,0.885,516800,0.885
2014-04-22,0.875,0.90,0.875,0.90,171600,0.90
2014-04-21,0.89,0.89,0.89,0.89,000,0.89
2014-04-18,0.89,0.89,0.89,0.89,000,0.89
2014-04-17,0.885,0.89,0.875,0.89,483400,0.89
2014-04-16,0.885,0.885,0.88,0.88,62800,0.88
2014-04-15,0.885,0.89,0.88,0.88,425500,0.88
2014-04-14,0.89,0.89,0.885,0.885,449300,0.885
2014-04-11,0.89,0.8925,0.882,0.89,1376500,0.89
2014-04-10,0.895,0.895,0.88,0.88,169600,0.88
2014-04-09,0.905,0.905,0.885,0.89,35500,0.89
2014-04-08,0.905,0.91,0.895,0.905,104200,0.905
2014-04-07,0.88,0.905,0.88,0.905,216000,0.905
2014-04-04,0.875,0.88,0.872,0.875,333400,0.875
2014-04-03,0.895,0.895,0.865,0.875,131200,0.875
2014-04-02,0.90,0.905,0.885,0.885,235000,0.885
2014-04-01,0.90,0.905,0.89,0.895,253300,0.895
2014-03-31,0.905,0.91,0.89,0.89,428400,0.89
2014-03-28,0.885,0.91,0.88,0.91,302200,0.91
2014-03-27,0.90,0.90,0.875,0.89,770600,0.89
2014-03-26,0.905,0.91,0.895,0.895,252500,0.895
2014-03-25,0.90,0.91,0.90,0.91,384600,0.91
2014-03-24,0.91,0.91,0.89,0.90,771700,0.90
2014-03-21,0.87,0.92,0.87,0.92,48154500,0.92
2014-03-20,0.86,0.87,0.855,0.87,1811300,0.87
2014-03-19,0.865,0.87,0.84,0.86,1734800,0.86
2014-03-18,0.875,0.875,0.865,0.87,583800,0.87
2014-03-17,0.87,0.875,0.865,0.87,1932100,0.87
2014-03-14,0.872,0.875,0.86,0.875,388000,0.875
2014-03-13,0.885,0.885,0.87,0.875,1045100,0.875
2014-03-12,0.88,0.885,0.855,0.885,797500,0.885
2014-03-11,0.89,0.89,0.875,0.885,485600,0.885
2014-03-10,0.885,0.89,0.875,0.89,1236500,0.89
2014-03-07,0.87,0.895,0.87,0.88,1878600,0.88
2014-03-06,0.857,0.86,0.857,0.86,2512700,0.86
2014-03-05,0.86,0.88,0.855,0.86,3613000,0.86
2014-03-04,0.865,0.87,0.85,0.86,259800,0.86
2014-03-03,0.875,0.875,0.865,0.865,102300,0.865
2014-02-28,0.875,0.88,0.87,0.875,745900,0.875
2014-02-27,0.88,0.8825,0.875,0.875,283600,0.875
2014-02-26,0.885,0.885,0.87,0.88,838500,0.88
2014-02-25,0.88,0.885,0.87,0.875,785400,0.875
2014-02-24,0.875,0.89,0.875,0.875,182200,0.875
2014-02-21,0.885,0.89,0.88,0.88,709700,0.88
2014-02-20,0.89,0.89,0.88,0.89,72700,0.89
2014-02-19,0.895,0.905,0.88,0.89,1268100,0.89
2014-02-18,0.90,0.90,0.875,0.875,231600,0.875
2014-02-17,0.90,0.90,0.885,0.885,426100,0.885
2014-02-14,0.90,0.90,0.89,0.89,564700,0.89
2014-02-13,0.905,0.91,0.895,0.90,1616000,0.90
2014-02-12,0.905,0.905,0.895,0.90,124200,0.90
2014-02-11,0.91,0.91,0.895,0.895,820500,0.895
2014-02-10,0.90,0.91,0.895,0.91,106500,0.91
2014-02-07,0.905,0.915,0.90,0.90,137700,0.90
2014-02-06,0.895,0.92,0.89,0.905,1063200,0.905
2014-02-05,0.89,0.90,0.89,0.895,846500,0.895
2014-02-04,0.885,0.91,0.885,0.90,1034000,0.90
2014-02-03,0.90,0.90,0.90,0.90,2326700,0.90
2014-01-31,0.88,0.90,0.88,0.90,1430900,0.90
2014-01-30,0.885,0.89,0.88,0.88,342700,0.88
2014-01-29,0.88,0.90,0.87,0.885,3011900,0.885
2014-01-28,0.855,0.895,0.85,0.88,462500,0.88
2014-01-27,0.865,0.865,0.865,0.865,000,0.865
2014-01-24,0.865,0.87,0.865,0.865,63500,0.865
2014-01-23,0.87,0.875,0.87,0.87,59500,0.87
2014-01-22,0.85,0.875,0.85,0.87,4156200,0.87
2014-01-21,0.87,0.87,0.84,0.87,913200,0.87
2014-01-20,0.865,0.87,0.85,0.87,847100,0.87
2014-01-17,0.865,0.87,0.865,0.87,187100,0.87
2014-01-16,0.865,0.865,0.865,0.865,73000,0.865
2014-01-15,0.87,0.87,0.87,0.87,60600,0.87
2014-01-14,0.865,0.87,0.865,0.87,46700,0.87
2014-01-13,0.875,0.885,0.865,0.865,337500,0.865
2014-01-10,0.865,0.87,0.86,0.87,12552200,0.87
2014-01-09,0.87,0.875,0.865,0.865,2165800,0.865
2014-01-08,0.87,0.88,0.87,0.88,150900,0.88
2014-01-07,0.87,0.89,0.87,0.89,127900,0.89
2014-01-06,0.87,0.895,0.865,0.89,223400,0.89
2014-01-03,0.87,0.885,0.87,0.885,33800,0.885
2014-01-02,0.87,0.88,0.87,0.88,385400,0.88
2014-01-01,0.89,0.89,0.89,0.89,000,0.89
2013-12-31,0.875,0.89,0.875,0.89,51700,0.89
2013-12-30,0.88,0.885,0.875,0.875,979600,0.875
2013-12-27,0.885,0.89,0.88,0.88,941200,0.88
2013-12-26,0.885,0.885,0.885,0.885,000,0.885
2013-12-25,0.885,0.885,0.885,0.885,000,0.885
2013-12-24,0.89,0.89,0.885,0.885,222600,0.885
2013-12-23,0.89,0.89,0.885,0.885,362900,0.885
2013-12-20,0.88,0.90,0.88,0.885,249800,0.885
2013-12-19,0.91,0.915,0.865,0.89,835100,0.89
2013-12-18,0.92,0.92,0.89,0.905,1512400,0.905
2013-12-17,0.95,0.95,0.885,0.885,3041100,0.885
