Date,Open,High,Low,Close,Volume,Adj Close
2017-01-10,1.15,1.15,1.137,1.137,33000,1.137
2017-01-09,1.15,1.15,1.15,1.15,1000,1.15
2017-01-06,1.195,1.21,1.15,1.15,321800,1.15
2017-01-05,1.145,1.17,1.145,1.17,373600,1.17
2017-01-04,1.15,1.15,1.13,1.13,17200,1.13
2017-01-03,1.11,1.14,1.11,1.14,26800,1.14
2017-01-02,1.11,1.11,1.11,1.11,000,1.11
2016-12-30,1.11,1.11,1.11,1.11,300,1.11
2016-12-29,1.14,1.14,1.14,1.14,000,1.14
2016-12-28,1.14,1.14,1.14,1.14,000,1.14
2016-12-27,1.14,1.14,1.14,1.14,000,1.14
2016-12-26,1.14,1.14,1.14,1.14,000,1.14
2016-12-23,1.15,1.15,1.14,1.14,15000,1.14
2016-12-22,1.09,1.10,1.09,1.10,23500,1.10
2016-12-21,1.09,1.09,1.075,1.09,71100,1.09
2016-12-20,1.105,1.105,1.105,1.105,000,1.105
2016-12-19,1.115,1.115,1.105,1.105,13600,1.105
2016-12-16,1.10,1.10,1.09,1.10,241600,1.10
2016-12-15,1.09,1.10,1.09,1.10,130200,1.10
2016-12-14,1.10,1.10,1.10,1.10,144200,1.10
2016-12-13,1.105,1.12,1.10,1.11,359000,1.11
2016-12-12,1.11,1.11,1.11,1.11,50100,1.11
2016-12-09,1.115,1.13,1.115,1.125,22400,1.125
2016-12-08,1.11,1.15,1.11,1.15,95800,1.15
2016-12-07,1.132,1.1325,1.105,1.12,1715400,1.12
2016-12-06,1.13,1.145,1.12,1.125,93500,1.125
2016-12-05,1.115,1.12,1.115,1.12,5900,1.12
2016-12-02,1.10,1.145,1.10,1.14,82900,1.14
2016-12-01,1.08,1.11,1.08,1.11,2014800,1.11
2016-11-30,1.09,1.09,1.07,1.09,1606200,1.09
2016-11-29,1.15,1.16,1.10,1.10,897400,1.10
2016-11-28,1.23,1.23,1.14,1.15,60400,1.15
2016-11-25,1.23,1.24,1.23,1.24,16200,1.24
2016-11-24,1.25,1.25,1.25,1.25,000,1.25
2016-11-23,1.27,1.27,1.25,1.25,34600,1.25
2016-11-22,1.28,1.305,1.27,1.305,38700,1.305
2016-11-21,1.29,1.31,1.28,1.28,71600,1.28
2016-11-18,1.30,1.31,1.28,1.31,33700,1.31
2016-11-17,1.31,1.31,1.30,1.30,5100,1.30
2016-11-16,1.29,1.30,1.29,1.30,60600,1.30
2016-11-15,1.28,1.30,1.28,1.28,79200,1.28
2016-11-14,1.28,1.30,1.28,1.30,18000,1.30
2016-11-11,1.29,1.29,1.27,1.27,15600,1.27
2016-11-10,1.32,1.32,1.27,1.28,17700,1.28
2016-11-09,1.345,1.355,1.32,1.32,137200,1.32
2016-11-08,1.355,1.375,1.35,1.375,102700,1.375
2016-11-07,1.37,1.375,1.345,1.35,92400,1.35
2016-11-04,1.35,1.35,1.33,1.33,26200,1.33
2016-11-03,1.36,1.36,1.35,1.35,35400,1.35
2016-11-02,1.37,1.38,1.36,1.37,158600,1.37
2016-11-01,1.385,1.385,1.385,1.385,1000,1.385
2016-10-31,1.39,1.40,1.38,1.40,49700,1.40
2016-10-28,1.40,1.40,1.40,1.40,000,1.40
2016-10-27,1.36,1.40,1.35,1.40,25600,1.40
2016-10-26,1.36,1.36,1.36,1.36,000,1.36
2016-10-25,1.36,1.36,1.36,1.36,000,1.36
2016-10-24,1.315,1.38,1.31,1.36,62200,1.36
2016-10-21,1.36,1.36,1.295,1.295,50500,1.295
2016-10-20,1.40,1.40,1.36,1.36,17900,1.36
2016-10-19,1.355,1.415,1.355,1.415,19200,1.415
2016-10-18,1.40,1.42,1.35,1.35,57600,1.35
2016-10-17,1.42,1.42,1.42,1.42,17100,1.42
2016-10-14,1.43,1.43,1.41,1.42,20300,1.42
2016-10-13,1.445,1.445,1.43,1.44,30500,1.44
2016-10-12,1.45,1.45,1.435,1.45,38300,1.45
2016-10-11,1.45,1.45,1.44,1.445,10800,1.445
2016-10-10,1.45,1.45,1.45,1.45,41500,1.45
2016-10-07,1.415,1.447,1.38,1.445,52500,1.445
2016-10-06,1.40,1.40,1.37,1.40,783900,1.40
2016-10-05,1.37,1.415,1.36,1.40,56200,1.40
2016-10-04,1.35,1.40,1.35,1.40,31200,1.40
2016-10-03,1.365,1.365,1.35,1.35,1200,1.35
2016-09-30,1.40,1.41,1.395,1.40,907700,1.40
2016-09-29,1.375,1.40,1.375,1.40,64400,1.40
2016-09-28,1.41,1.43,1.35,1.375,371400,1.375
2016-09-27,1.41,1.425,1.41,1.41,172200,1.41
2016-09-26,1.405,1.445,1.405,1.42,1633900,1.42
2016-09-23,1.44,1.45,1.41,1.41,45100,1.41
2016-09-22,1.41,1.45,1.41,1.45,97900,1.45
2016-09-21,1.40,1.44,1.40,1.41,82800,1.41
2016-09-20,1.41,1.45,1.40,1.40,102700,1.40
2016-09-19,1.42,1.425,1.42,1.42,55500,1.42
2016-09-16,1.46,1.46,1.42,1.42,41900,1.42
2016-09-15,1.42,1.47,1.42,1.46,203600,1.46
2016-09-14,1.45,1.45,1.45,1.45,000,1.45
2016-09-13,1.46,1.46,1.45,1.45,115000,1.45
2016-09-12,1.46,1.46,1.46,1.46,45200,1.46
2016-09-09,1.44,1.47,1.44,1.47,2926800,1.47
2016-09-08,1.41,1.445,1.405,1.44,47300,1.44
2016-09-07,1.40,1.42,1.38,1.40,3847700,1.40
2016-09-06,1.35,1.38,1.35,1.38,16900,1.38
2016-09-05,1.36,1.38,1.34,1.35,91400,1.35
2016-09-02,1.36,1.38,1.35,1.38,122700,1.38
2016-09-01,1.37,1.37,1.36,1.36,79100,1.36
2016-08-31,1.38,1.38,1.36,1.36,36200,1.36
2016-08-30,1.34,1.38,1.34,1.36,84600,1.36
2016-08-29,1.32,1.36,1.32,1.36,67000,1.36
2016-08-26,1.34,1.35,1.30,1.30,341900,1.30
2016-08-25,1.38,1.38,1.34,1.34,118600,1.34
2016-08-24,1.39,1.40,1.37,1.395,541000,1.395
2016-08-23,1.475,1.475,1.30,1.40,1149900,1.40
2016-08-22,1.49,1.51,1.475,1.485,554400,1.485
2016-08-19,1.36,1.44,1.36,1.44,228200,1.44
2016-08-18,1.35,1.36,1.35,1.36,40000,1.36
2016-08-17,1.385,1.385,1.382,1.385,25200,1.385
2016-08-16,1.377,1.385,1.375,1.385,38200,1.385
2016-08-15,1.37,1.385,1.37,1.385,100300,1.385
2016-08-12,1.32,1.32,1.312,1.32,43100,1.32
2016-08-11,1.32,1.33,1.32,1.325,35600,1.325
2016-08-10,1.34,1.35,1.32,1.32,349400,1.32
2016-08-09,1.33,1.33,1.32,1.32,700,1.32
2016-08-08,1.33,1.34,1.32,1.33,42000,1.33
2016-08-05,1.33,1.36,1.32,1.34,133600,1.34
2016-08-04,1.33,1.33,1.31,1.33,173900,1.33
2016-08-03,1.33,1.33,1.33,1.33,78600,1.33
2016-08-02,1.295,1.33,1.295,1.32,125000,1.32
2016-08-01,1.29,1.30,1.29,1.295,286500,1.295
2016-07-29,1.29,1.2925,1.28,1.29,519200,1.29
2016-07-28,1.26,1.30,1.26,1.295,104100,1.295
2016-07-27,1.23,1.26,1.23,1.26,210000,1.26
2016-07-26,1.22,1.22,1.22,1.22,85800,1.22
2016-07-25,1.215,1.24,1.20,1.22,397500,1.22
2016-07-22,1.20,1.225,1.20,1.21,37900,1.21
2016-07-21,1.23,1.23,1.22,1.23,114700,1.23
2016-07-20,1.24,1.24,1.22,1.23,480300,1.23
2016-07-19,1.23,1.24,1.23,1.24,217100,1.24
2016-07-18,1.24,1.25,1.225,1.23,96700,1.23
2016-07-15,1.25,1.25,1.225,1.235,255700,1.235
2016-07-14,1.165,1.22,1.165,1.22,133700,1.22
2016-07-13,1.16,1.18,1.16,1.16,899600,1.16
2016-07-12,1.16,1.19,1.16,1.17,191500,1.17
2016-07-11,1.18,1.18,1.175,1.175,11200,1.175
2016-07-08,1.18,1.18,1.18,1.18,22700,1.18
2016-07-07,1.15,1.18,1.15,1.18,37900,1.18
2016-07-06,1.15,1.15,1.15,1.15,1362400,1.15
2016-07-05,1.14,1.14,1.14,1.14,532500,1.14
2016-07-04,1.16,1.16,1.14,1.14,101300,1.14
2016-07-01,1.16,1.16,1.16,1.16,000,1.16
2016-06-30,1.16,1.165,1.16,1.16,615800,1.16
2016-06-29,1.13,1.18,1.13,1.15,25400,1.15
2016-06-28,1.12,1.12,1.12,1.12,11900,1.12
2016-06-27,1.09,1.12,1.09,1.12,29000,1.12
2016-06-24,1.16,1.16,1.13,1.13,57200,1.13
2016-06-23,1.16,1.165,1.155,1.155,84100,1.155
2016-06-22,1.17,1.18,1.16,1.16,328400,1.16
2016-06-21,1.16,1.18,1.155,1.18,57400,1.18
2016-06-20,1.14,1.155,1.135,1.155,18300,1.155
2016-06-17,1.14,1.16,1.14,1.15,472000,1.15
2016-06-16,1.17,1.18,1.15,1.15,87800,1.15
2016-06-15,1.18,1.18,1.16,1.16,6800,1.16
2016-06-14,1.23,1.23,1.18,1.18,14400,1.18
2016-06-13,1.23,1.23,1.23,1.23,000,1.23
2016-06-10,1.23,1.23,1.22,1.23,211400,1.23
2016-06-09,1.165,1.25,1.165,1.20,344900,1.20
2016-06-08,1.14,1.15,1.14,1.15,44800,1.15
2016-06-07,1.14,1.15,1.14,1.15,45000,1.15
2016-06-06,1.08,1.15,1.08,1.15,2601800,1.15
2016-06-03,1.08,1.13,1.08,1.13,9000,1.13
2016-06-02,1.13,1.13,1.13,1.13,45000,1.13
2016-06-01,1.07,1.07,1.065,1.065,37500,1.065
2016-05-31,1.065,1.08,1.065,1.08,28600,1.08
2016-05-30,1.06,1.065,1.06,1.065,6200,1.065
2016-05-27,1.05,1.05,1.05,1.05,2000,1.05
2016-05-26,1.07,1.07,1.05,1.05,15800,1.05
2016-05-25,1.08,1.08,1.05,1.05,240400,1.05
2016-05-24,1.10,1.10,1.10,1.10,000,1.10
2016-05-23,1.10,1.10,1.065,1.10,4800,1.10
2016-05-20,1.08,1.10,1.06,1.06,10400,1.06
2016-05-19,1.05,1.08,1.05,1.06,103300,1.06
2016-05-18,1.08,1.08,1.04,1.04,52800,1.04
2016-05-17,1.08,1.08,1.08,1.08,141500,1.08
2016-05-16,1.09,1.09,1.08,1.08,6300,1.08
2016-05-13,1.08,1.09,1.08,1.09,8100,1.09
2016-05-12,1.10,1.10,1.08,1.10,363900,1.10
2016-05-11,1.11,1.11,1.10,1.10,150400,1.10
2016-05-10,1.10,1.135,1.10,1.135,18500,1.135
2016-05-09,1.13,1.13,1.10,1.10,1448000,1.10
2016-05-06,1.10,1.135,1.06,1.135,89000,1.135
2016-05-05,1.11,1.11,1.11,1.11,176700,1.11
2016-05-04,1.10,1.115,1.10,1.115,1072200,1.115
2016-05-03,1.10,1.10,1.10,1.10,30200,1.10
2016-05-02,1.10,1.13,1.10,1.13,1300,1.13
2016-04-29,1.10,1.11,1.10,1.10,10700,1.10
2016-04-28,1.11,1.11,1.10,1.11,10900,1.11
2016-04-27,1.125,1.125,1.125,1.125,000,1.125
2016-04-26,1.09,1.125,1.09,1.125,216700,1.125
2016-04-25,1.10,1.10,1.10,1.10,000,1.10
2016-04-22,1.10,1.10,1.10,1.10,8700,1.10
2016-04-21,1.12,1.135,1.11,1.13,47800,1.13
2016-04-20,1.10,1.10,1.10,1.10,29500,1.10
2016-04-19,1.11,1.14,1.11,1.135,5100,1.135
2016-04-18,1.14,1.14,1.14,1.14,13500,1.14
2016-04-15,1.10,1.135,1.10,1.135,7100,1.135
2016-04-14,1.10,1.10,1.10,1.10,000,1.10
2016-04-13,1.14,1.14,1.095,1.10,180700,1.10
2016-04-12,1.10,1.14,1.10,1.14,53800,1.14
2016-04-11,1.11,1.14,1.10,1.10,23900,1.10
2016-04-08,1.12,1.12,1.12,1.12,15000,1.12
2016-04-07,1.12,1.14,1.12,1.14,17500,1.14
2016-04-06,1.10,1.10,1.10,1.10,16000,1.10
2016-04-05,1.085,1.105,1.08,1.10,67400,1.10
2016-04-04,1.11,1.11,1.08,1.085,112300,1.085
2016-04-01,1.12,1.12,1.11,1.11,108400,1.11
2016-03-31,1.12,1.12,1.12,1.12,1700,1.12
2016-03-30,1.12,1.12,1.12,1.12,000,1.12
2016-03-29,1.135,1.135,1.12,1.12,223700,1.12
2016-03-28,1.135,1.135,1.135,1.135,000,1.135
2016-03-25,1.135,1.135,1.135,1.135,000,1.135
2016-03-24,1.135,1.135,1.135,1.135,8500,1.135
2016-03-23,1.13,1.13,1.13,1.13,000,1.13
2016-03-22,1.13,1.13,1.13,1.13,14000,1.13
2016-03-21,1.135,1.135,1.13,1.13,40000,1.13
2016-03-18,1.14,1.14,1.135,1.14,14000,1.14
2016-03-17,1.14,1.17,1.14,1.17,68500,1.17
2016-03-16,1.165,1.17,1.14,1.14,58500,1.14
2016-03-15,1.17,1.17,1.165,1.165,233000,1.165
2016-03-14,1.16,1.17,1.16,1.17,1133200,1.17
2016-03-11,1.15,1.15,1.14,1.15,59700,1.15
2016-03-10,1.135,1.14,1.135,1.14,14200,1.14
2016-03-09,1.11,1.125,1.11,1.125,211100,1.125
2016-03-08,1.13,1.135,1.10,1.11,39900,1.11
2016-03-07,1.15,1.15,1.14,1.14,1759600,1.14
2016-03-04,1.11,1.15,1.10,1.15,65400,1.15
2016-03-03,1.08,1.10,1.08,1.10,824600,1.10
2016-03-02,1.10,1.10,1.06,1.075,484300,1.075
2016-03-01,1.08,1.08,1.08,1.08,114000,1.08
2016-02-29,1.11,1.12,1.05,1.08,117400,1.08
2016-02-26,1.07,1.10,1.07,1.10,368600,1.10
2016-02-25,1.07,1.07,0.95,1.04,402900,1.04
2016-02-24,1.15,1.165,1.13,1.13,122100,1.13
2016-02-23,1.15,1.165,1.15,1.16,138700,1.16
2016-02-22,1.15,1.15,1.15,1.15,28000,1.15
2016-02-19,1.15,1.16,1.15,1.15,48900,1.15
2016-02-18,1.15,1.16,1.14,1.16,37200,1.16
2016-02-17,1.17,1.17,1.17,1.17,66500,1.17
2016-02-16,1.135,1.17,1.12,1.17,99300,1.17
2016-02-15,1.12,1.13,1.10,1.11,239200,1.11
2016-02-12,1.08,1.12,1.08,1.12,20000,1.12
2016-02-11,1.11,1.12,1.07,1.12,107300,1.12
2016-02-10,1.12,1.12,1.12,1.12,17000,1.12
2016-02-09,1.18,1.18,1.12,1.13,36300,1.13
2016-02-08,1.195,1.195,1.17,1.18,250300,1.18
2016-02-05,1.18,1.19,1.18,1.19,76300,1.19
2016-02-04,1.17,1.17,1.15,1.17,287000,1.17
2016-02-03,1.16,1.18,1.15,1.18,21500,1.18
2016-02-02,1.17,1.17,1.16,1.16,312600,1.16
2016-02-01,1.17,1.17,1.16,1.16,20000,1.16
2016-01-29,1.17,1.17,1.17,1.17,7800,1.17
2016-01-28,1.17,1.17,1.16,1.16,511700,1.16
2016-01-27,1.18,1.19,1.17,1.17,200600,1.17
2016-01-26,1.17,1.17,1.17,1.17,000,1.17
2016-01-25,1.14,1.18,1.14,1.17,41100,1.17
2016-01-22,1.14,1.15,1.135,1.135,74000,1.135
2016-01-21,1.165,1.17,1.145,1.145,77600,1.145
2016-01-20,1.18,1.18,1.16,1.17,294900,1.17
2016-01-19,1.155,1.16,1.15,1.16,97700,1.16
2016-01-18,1.20,1.20,1.15,1.18,129700,1.18
2016-01-15,1.21,1.21,1.205,1.21,711300,1.21
2016-01-14,1.21,1.22,1.20,1.21,626300,1.21
2016-01-13,1.21,1.23,1.21,1.21,10000,1.21
2016-01-12,1.20,1.25,1.18,1.205,18200,1.205
2016-01-11,1.22,1.22,1.20,1.20,27800,1.20
2016-01-08,1.22,1.22,1.22,1.22,14100,1.22
2016-01-07,1.23,1.235,1.22,1.22,29400,1.22
2016-01-06,1.225,1.25,1.225,1.25,202600,1.25
2016-01-05,1.25,1.25,1.225,1.225,126600,1.225
2016-01-04,1.25,1.25,1.23,1.25,243400,1.25
2016-01-01,1.25,1.25,1.25,1.25,000,1.25
2015-12-31,1.23,1.25,1.23,1.25,101400,1.25
2015-12-30,1.22,1.225,1.215,1.225,43500,1.225
2015-12-29,1.20,1.215,1.17,1.215,26000,1.215
2015-12-28,1.20,1.20,1.20,1.20,000,1.20
2015-12-25,1.20,1.20,1.20,1.20,000,1.20
2015-12-24,1.20,1.20,1.20,1.20,3800,1.20
2015-12-23,1.15,1.165,1.15,1.165,8400,1.165
2015-12-22,1.11,1.15,1.11,1.15,46400,1.15
2015-12-21,1.175,1.175,1.12,1.13,108200,1.13
2015-12-18,1.17,1.18,1.155,1.17,48500,1.17
2015-12-17,1.17,1.205,1.17,1.20,53700,1.20
2015-12-16,1.22,1.22,1.17,1.17,55900,1.17
2015-12-15,1.26,1.26,1.215,1.22,365000,1.22
2015-12-14,1.25,1.27,1.25,1.265,40000,1.265
2015-12-11,1.25,1.255,1.25,1.252,69800,1.252
2015-12-10,1.27,1.27,1.25,1.27,101300,1.27
2015-12-09,1.25,1.27,1.25,1.27,1134800,1.27
2015-12-08,1.30,1.30,1.24,1.245,99100,1.245
2015-12-07,1.25,1.30,1.235,1.30,151500,1.30
2015-12-04,1.23,1.24,1.23,1.24,16800,1.24
2015-12-03,1.245,1.255,1.23,1.23,383200,1.23
2015-12-02,1.255,1.255,1.23,1.23,116600,1.23
2015-12-01,1.235,1.26,1.21,1.255,184700,1.255
2015-11-30,1.215,1.26,1.18,1.18,189000,1.18
2015-11-27,1.185,1.25,1.185,1.215,209600,1.215
2015-11-26,1.15,1.20,1.14,1.185,222800,1.185
2015-11-25,1.13,1.14,1.11,1.125,86500,1.125
2015-11-24,1.14,1.14,1.13,1.13,69000,1.13
2015-11-23,1.11,1.14,1.11,1.14,107700,1.14
2015-11-20,1.10,1.11,1.10,1.105,290100,1.105
2015-11-19,1.11,1.11,1.11,1.11,16400,1.11
2015-11-18,1.11,1.11,1.11,1.11,000,1.11
2015-11-17,1.12,1.12,1.06,1.11,47200,1.11
2015-11-16,1.09,1.11,1.055,1.10,153500,1.10
2015-11-13,1.115,1.115,1.10,1.10,472700,1.10
2015-11-12,1.11,1.14,1.11,1.12,334000,1.12
2015-11-11,1.04,1.08,1.03,1.08,1514400,1.08
2015-11-10,1.02,1.05,0.97,1.025,16451300,1.025
2015-11-09,1.04,1.05,1.00,1.02,99900,1.02
2015-11-06,1.03,1.03,1.03,1.03,6000,1.03
2015-11-05,1.02,1.02,1.02,1.02,000,1.02
2015-11-04,1.02,1.02,1.02,1.02,000,1.02
2015-11-03,1.00,1.02,1.00,1.02,65500,1.02
2015-11-02,1.01,1.02,0.955,0.955,98400,0.955
2015-10-30,1.00,1.02,1.00,1.01,226000,1.01
2015-10-29,1.00,1.00,1.00,1.00,92200,1.00
2015-10-28,1.04,1.04,1.00,1.00,156300,1.00
2015-10-27,1.025,1.05,1.02,1.05,52400,1.05
2015-10-26,1.015,1.05,1.015,1.02,143900,1.02
2015-10-23,1.025,1.05,1.00,1.03,112000,1.03
2015-10-22,1.00,1.00,1.00,1.00,52100,1.00
2015-10-21,0.96,0.99,0.96,0.99,52900,0.99
2015-10-20,0.98,0.98,0.94,0.955,75000,0.955
2015-10-19,0.975,1.02,0.95,0.99,44200,0.99
2015-10-16,0.95,0.95,0.93,0.94,135800,0.94
2015-10-15,0.955,0.955,0.945,0.95,204300,0.95
2015-10-14,0.95,0.95,0.95,0.95,000,0.95
2015-10-13,0.94,0.94,0.94,0.94,11400,0.94
2015-10-12,0.93,0.975,0.93,0.975,107600,0.975
2015-10-09,0.94,0.98,0.93,0.93,22700,0.93
2015-10-08,0.92,0.94,0.92,0.94,105100,0.94
2015-10-07,0.92,0.92,0.88,0.92,121400,0.92
2015-10-06,0.88,0.88,0.88,0.88,1800,0.88
2015-10-05,0.92,0.92,0.92,0.92,6600,0.92
2015-10-02,0.955,0.955,0.915,0.915,29000,0.915
2015-10-01,0.875,0.99,0.875,0.99,369400,0.99
2015-09-30,0.81,0.83,0.81,0.82,17000,0.82
2015-09-29,0.81,0.81,0.81,0.81,6000,0.81
2015-09-28,0.80,0.82,0.80,0.82,216900,0.82
2015-09-25,0.825,0.825,0.82,0.825,42200,0.825
2015-09-24,0.825,0.825,0.825,0.825,1000,0.825
2015-09-23,0.82,0.82,0.82,0.82,22400,0.82
2015-09-22,0.80,0.82,0.80,0.82,92800,0.82
2015-09-21,0.80,0.80,0.80,0.80,252000,0.80
2015-09-18,0.80,0.80,0.80,0.80,11200,0.80
2015-09-17,0.82,0.82,0.80,0.80,8300,0.80
2015-09-16,0.80,0.805,0.80,0.80,74600,0.80
2015-09-15,0.785,0.80,0.785,0.80,80000,0.80
2015-09-14,0.775,0.785,0.775,0.78,22800,0.78
2015-09-11,0.79,0.80,0.785,0.785,58300,0.785
2015-09-10,0.785,0.785,0.785,0.785,100,0.785
2015-09-09,0.75,0.75,0.75,0.75,000,0.75
2015-09-08,0.76,0.78,0.75,0.78,110000,0.78
2015-09-07,0.75,0.75,0.75,0.75,800,0.75
2015-09-04,0.75,0.75,0.75,0.75,69100,0.75
2015-09-03,0.74,0.74,0.74,0.74,000,0.74
2015-09-02,0.75,0.75,0.74,0.74,9500,0.74
2015-09-01,0.765,0.765,0.765,0.765,29000,0.765
2015-08-31,0.765,0.765,0.76,0.765,195000,0.765
2015-08-28,0.76,0.795,0.755,0.765,18500,0.765
2015-08-27,0.80,0.80,0.795,0.795,2600,0.795
2015-08-26,0.79,0.80,0.79,0.80,17500,0.80
2015-08-25,0.70,0.75,0.70,0.75,12700,0.75
2015-08-24,0.75,0.75,0.70,0.73,7700,0.73
2015-08-21,0.68,0.75,0.665,0.75,26900,0.75
2015-08-20,0.835,0.835,0.81,0.81,28000,0.81
2015-08-19,0.835,0.835,0.835,0.835,9500,0.835
2015-08-18,0.86,0.89,0.855,0.855,45000,0.855
2015-08-17,0.87,0.87,0.87,0.87,000,0.87
2015-08-14,0.87,0.88,0.87,0.87,49200,0.87
2015-08-13,0.87,0.87,0.87,0.87,37200,0.87
2015-08-12,0.88,0.88,0.865,0.865,41500,0.865
2015-08-11,0.88,0.88,0.87,0.87,15900,0.87
2015-08-10,0.88,0.88,0.88,0.88,20700,0.88
2015-08-07,0.87,0.87,0.865,0.865,26000,0.865
2015-08-06,0.87,0.87,0.87,0.87,20900,0.87
2015-08-05,0.88,0.88,0.87,0.87,32200,0.87
2015-08-04,0.88,0.88,0.88,0.88,000,0.88
2015-08-03,0.88,0.90,0.88,0.88,53200,0.88
2015-07-31,0.88,0.88,0.88,0.88,000,0.88
2015-07-30,0.875,0.88,0.875,0.88,51000,0.88
2015-07-29,0.855,0.90,0.855,0.875,95800,0.875
2015-07-28,0.88,0.88,0.85,0.85,29200,0.85
2015-07-27,0.88,0.88,0.88,0.88,19200,0.88
2015-07-24,0.86,0.88,0.86,0.88,22600,0.88
2015-07-23,0.85,0.85,0.835,0.85,67300,0.85
2015-07-22,0.85,0.85,0.85,0.85,11600,0.85
2015-07-21,0.86,0.86,0.86,0.86,12000,0.86
2015-07-20,0.83,0.85,0.83,0.85,44700,0.85
2015-07-17,0.80,0.83,0.80,0.83,20700,0.83
2015-07-16,0.83,0.83,0.83,0.83,000,0.83
2015-07-15,0.83,0.83,0.83,0.83,40000,0.83
2015-07-14,0.83,0.83,0.83,0.83,6500,0.83
2015-07-13,0.83,0.83,0.83,0.83,1700,0.83
2015-07-10,0.83,0.84,0.83,0.84,4700,0.84
2015-07-09,0.83,0.83,0.83,0.83,200,0.83
2015-07-08,0.83,0.83,0.83,0.83,5000,0.83
2015-07-07,0.81,0.845,0.81,0.845,52500,0.845
2015-07-06,0.81,0.81,0.81,0.81,2600,0.81
2015-07-03,0.81,0.81,0.81,0.81,000,0.81
2015-07-02,0.80,0.81,0.80,0.81,4000,0.81
2015-07-01,0.81,0.81,0.81,0.81,400,0.81
2015-06-30,0.81,0.82,0.81,0.82,40400,0.82
2015-06-29,0.82,0.82,0.81,0.81,11500,0.81
2015-06-26,0.82,0.82,0.82,0.82,000,0.82
2015-06-25,0.81,0.83,0.81,0.82,55400,0.82
2015-06-24,0.83,0.83,0.80,0.81,12800,0.81
2015-06-23,0.83,0.83,0.83,0.83,000,0.83
2015-06-22,0.85,0.85,0.83,0.83,26800,0.83
2015-06-19,0.85,0.85,0.845,0.85,39700,0.85
2015-06-18,0.85,0.85,0.85,0.85,14000,0.85
2015-06-17,0.845,0.85,0.845,0.85,5000,0.85
2015-06-16,0.84,0.845,0.84,0.845,15000,0.845
2015-06-15,0.84,0.84,0.84,0.84,35000,0.84
2015-06-12,0.84,0.84,0.84,0.84,800,0.84
2015-06-11,0.85,0.85,0.84,0.84,34300,0.84
2015-06-10,0.85,0.86,0.85,0.85,22600,0.85
2015-06-09,0.84,0.85,0.84,0.85,37800,0.85
2015-06-08,0.85,0.85,0.85,0.85,000,0.85
2015-06-05,0.84,0.85,0.84,0.85,76000,0.85
2015-06-04,0.84,0.84,0.84,0.84,51200,0.84
2015-06-03,0.84,0.84,0.84,0.84,79800,0.84
2015-06-02,0.84,0.84,0.84,0.84,8200,0.84
2015-06-01,0.84,0.84,0.84,0.84,30500,0.84
2015-05-29,0.84,0.84,0.84,0.84,1500,0.84
2015-05-28,0.84,0.85,0.84,0.84,2200,0.84
2015-05-27,0.84,0.84,0.84,0.84,68500,0.84
2015-05-26,0.84,0.84,0.84,0.84,3800,0.84
2015-05-25,0.85,0.85,0.835,0.835,26400,0.835
2015-05-22,0.85,0.85,0.85,0.85,57000,0.85
2015-05-21,0.855,0.855,0.845,0.85,32000,0.85
2015-05-20,0.88,0.88,0.88,0.88,000,0.88
2015-05-19,0.88,0.88,0.88,0.88,000,0.88
2015-05-18,0.88,0.88,0.88,0.88,000,0.88
2015-05-15,0.88,0.89,0.88,0.88,17700,0.88
2015-05-14,0.85,0.85,0.83,0.85,15000,0.85
2015-05-13,0.85,0.85,0.85,0.85,1100,0.85
2015-05-12,0.85,0.85,0.85,0.85,12400,0.85
2015-05-11,0.85,0.85,0.85,0.85,73800,0.85
2015-05-08,0.87,0.90,0.87,0.90,38400,0.90
2015-05-07,0.85,0.87,0.85,0.87,23200,0.87
2015-05-06,0.85,0.85,0.85,0.85,1300,0.85
2015-05-05,0.84,0.84,0.82,0.82,7100,0.82
2015-05-04,0.85,0.85,0.84,0.84,11900,0.84
2015-05-01,0.84,0.87,0.84,0.84,18500,0.84
2015-04-30,0.84,0.84,0.84,0.84,45500,0.84
2015-04-29,0.845,0.845,0.845,0.845,13800,0.845
2015-04-28,0.845,0.85,0.845,0.845,121200,0.845
2015-04-27,0.875,0.875,0.85,0.85,83600,0.85
2015-04-24,0.87,0.875,0.87,0.875,15200,0.875
2015-04-23,0.92,0.92,0.87,0.87,83400,0.87
2015-04-22,0.935,0.935,0.93,0.93,23100,0.93
2015-04-21,0.95,0.95,0.935,0.94,58200,0.94
2015-04-20,0.98,0.98,0.965,0.965,6900,0.965
2015-04-17,1.00,1.00,0.99,0.99,9000,0.99
2015-04-16,0.99,1.00,0.99,1.00,19000,1.00
2015-04-15,0.965,1.00,0.965,1.00,6400,1.00
2015-04-14,1.02,1.02,0.965,0.98,46500,0.98
2015-04-13,0.94,1.00,0.94,1.00,55600,1.00
2015-04-10,0.90,0.92,0.90,0.92,11500,0.92
2015-04-09,0.915,0.92,0.90,0.90,71600,0.90
2015-04-08,0.885,0.90,0.885,0.90,48700,0.90
2015-04-07,0.87,0.92,0.87,0.88,134800,0.88
2015-04-06,0.86,0.86,0.86,0.86,000,0.86
2015-04-03,0.86,0.86,0.86,0.86,000,0.86
2015-04-02,0.86,0.875,0.86,0.86,81500,0.86
2015-04-01,0.86,0.865,0.86,0.865,5000,0.865
2015-03-31,0.88,0.88,0.88,0.88,27500,0.88
2015-03-30,0.88,0.88,0.87,0.87,30000,0.87
2015-03-27,0.85,0.88,0.85,0.88,52400,0.88
2015-03-26,0.83,0.83,0.81,0.825,31200,0.825
2015-03-25,0.84,0.86,0.84,0.84,197000,0.84
2015-03-24,0.82,0.84,0.82,0.84,70400,0.84
2015-03-23,0.82,0.84,0.80,0.80,106900,0.80
2015-03-20,0.82,0.83,0.82,0.83,59100,0.83
2015-03-19,0.80,0.84,0.80,0.83,292500,0.83
2015-03-18,0.825,0.825,0.75,0.81,2273800,0.81
2015-03-17,0.93,0.93,0.80,0.88,155000,0.88
2015-03-16,0.90,0.91,0.88,0.91,555300,0.91
2015-03-13,1.00,1.00,0.88,0.92,108300,0.92
2015-03-12,1.05,1.05,0.955,0.98,100400,0.98
2015-03-11,1.13,1.13,1.08,1.08,27700,1.08
2015-03-10,1.15,1.15,1.13,1.13,72600,1.13
2015-03-09,1.165,1.17,1.155,1.16,56200,1.16
2015-03-06,1.175,1.175,1.165,1.17,113000,1.17
2015-03-05,1.165,1.175,1.16,1.17,19900,1.17
2015-03-04,1.18,1.18,1.165,1.18,17700,1.18
2015-03-03,1.25,1.25,1.17,1.18,195200,1.18
2015-03-02,1.27,1.27,1.25,1.25,66100,1.25
2015-02-27,1.31,1.35,1.27,1.27,15800,1.27
2015-02-26,1.365,1.365,1.30,1.30,31600,1.30
2015-02-25,1.37,1.37,1.25,1.28,51500,1.28
2015-02-24,1.36,1.39,1.36,1.39,14000,1.39
2015-02-23,1.30,1.37,1.30,1.36,13400,1.36
2015-02-20,1.335,1.335,1.30,1.30,54200,1.30
2015-02-19,1.365,1.37,1.30,1.34,17500,1.34
2015-02-18,1.40,1.40,1.35,1.35,26800,1.35
2015-02-17,1.435,1.45,1.40,1.40,57400,1.40
2015-02-16,1.40,1.45,1.40,1.435,15400,1.435
2015-02-13,1.39,1.405,1.38,1.40,62200,1.40
2015-02-12,1.37,1.43,1.36,1.39,50100,1.39
2015-02-11,1.36,1.45,1.35,1.35,97800,1.35
2015-02-10,1.29,1.40,1.27,1.36,215300,1.36
2015-02-09,1.295,1.295,1.25,1.295,6200,1.295
2015-02-06,1.21,1.27,1.21,1.27,25400,1.27
2015-02-05,1.25,1.25,1.225,1.225,10200,1.225
2015-02-04,1.25,1.25,1.21,1.21,31300,1.21
2015-02-03,1.25,1.25,1.24,1.25,54500,1.25
2015-02-02,1.25,1.25,1.21,1.21,22600,1.21
2015-01-30,1.27,1.27,1.25,1.25,8600,1.25
2015-01-29,1.20,1.27,1.18,1.27,27800,1.27
2015-01-28,1.20,1.21,1.20,1.21,37800,1.21
2015-01-27,1.21,1.21,1.20,1.20,68600,1.20
2015-01-26,1.22,1.22,1.22,1.22,000,1.22
2015-01-23,1.23,1.285,1.21,1.22,33900,1.22
2015-01-22,1.27,1.27,1.25,1.25,11100,1.25
2015-01-21,1.27,1.27,1.27,1.27,5500,1.27
2015-01-20,1.30,1.30,1.26,1.26,15100,1.26
2015-01-19,1.325,1.35,1.30,1.30,3800,1.30
2015-01-16,1.27,1.30,1.27,1.30,9100,1.30
2015-01-15,1.205,1.25,1.205,1.25,10400,1.25
2015-01-14,1.25,1.25,1.20,1.20,13600,1.20
2015-01-13,1.30,1.305,1.25,1.25,16200,1.25
2015-01-12,1.37,1.37,1.30,1.35,22700,1.35
2015-01-09,1.35,1.36,1.34,1.36,27400,1.36
2015-01-08,1.36,1.36,1.35,1.35,24300,1.35
2015-01-07,1.40,1.40,1.38,1.385,22700,1.385
2015-01-06,1.36,1.36,1.35,1.35,107500,1.35
2015-01-05,1.37,1.37,1.37,1.37,14000,1.37
2015-01-02,1.45,1.45,1.37,1.37,72500,1.37
2015-01-01,1.40,1.40,1.40,1.40,000,1.40
2014-12-31,1.375,1.40,1.375,1.40,27700,1.40
2014-12-30,1.345,1.365,1.345,1.36,66000,1.36
2014-12-29,1.35,1.355,1.345,1.345,31000,1.345
2014-12-26,1.35,1.35,1.35,1.35,000,1.35
2014-12-25,1.35,1.35,1.35,1.35,000,1.35
2014-12-24,1.36,1.36,1.33,1.35,54900,1.35
2014-12-23,1.29,1.35,1.29,1.33,34300,1.33
2014-12-22,1.24,1.24,1.24,1.24,000,1.24
2014-12-19,1.22,1.245,1.21,1.24,54200,1.24
2014-12-18,1.23,1.23,1.215,1.22,15600,1.22
2014-12-17,1.20,1.215,1.17,1.17,36900,1.17
2014-12-16,1.15,1.18,1.13,1.18,144600,1.18
2014-12-15,1.22,1.22,1.13,1.135,61900,1.135
2014-12-12,1.13,1.13,1.13,1.13,000,1.13
2014-12-11,1.13,1.13,1.13,1.13,000,1.13
2014-12-10,1.13,1.13,1.13,1.13,000,1.13
2014-12-09,1.13,1.13,1.13,1.13,000,1.13
2014-12-08,1.13,1.13,1.13,1.13,000,1.13
2014-12-05,1.13,1.13,1.13,1.13,000,1.13
2014-12-04,1.13,1.13,1.13,1.13,000,1.13
2014-12-03,1.13,1.13,1.13,1.13,000,1.13
2014-12-02,1.13,1.13,1.13,1.13,000,1.13
2014-12-01,1.13,1.13,1.13,1.13,000,1.13
2014-11-28,1.13,1.13,1.13,1.13,000,1.13
2014-11-27,1.13,1.13,1.13,1.13,000,1.13
2014-11-26,1.13,1.13,1.13,1.13,000,1.13
2014-11-25,1.13,1.13,1.13,1.13,000,1.13
2014-11-24,1.13,1.13,1.13,1.13,000,1.13
2014-11-21,1.13,1.13,1.13,1.13,000,1.13
2014-11-20,1.13,1.13,1.13,1.13,000,1.13
2014-11-19,1.13,1.13,1.13,1.13,000,1.13
2014-11-18,1.13,1.13,1.13,1.13,000,1.13
2014-11-17,1.13,1.13,1.13,1.13,000,1.13
2014-11-14,1.13,1.13,1.13,1.13,000,1.13
2014-11-13,1.13,1.13,1.13,1.13,000,1.13
2014-11-12,1.13,1.13,1.13,1.13,000,1.13
2014-11-11,1.13,1.13,1.13,1.13,000,1.13
2014-11-10,1.13,1.13,1.13,1.13,000,1.13
2014-11-07,1.13,1.13,1.13,1.13,000,1.13
2014-11-06,1.13,1.13,1.13,1.13,000,1.13
2014-11-05,1.13,1.13,1.13,1.13,000,1.13
2014-11-04,1.13,1.13,1.13,1.13,000,1.13
2014-11-03,1.13,1.13,1.13,1.13,000,1.13
2014-10-31,1.13,1.13,1.13,1.13,000,1.13
2014-10-30,1.23,1.23,1.13,1.13,30800,1.13
2014-10-29,1.25,1.25,1.25,1.25,000,1.25
2014-10-28,1.27,1.27,1.25,1.25,5900,1.25
2014-10-27,1.255,1.275,1.225,1.275,26100,1.275
2014-10-24,1.25,1.25,1.25,1.25,500,1.25
2014-10-23,1.25,1.25,1.22,1.22,14900,1.22
2014-10-22,1.24,1.24,1.24,1.24,1000,1.24
2014-10-21,1.25,1.25,1.24,1.24,8500,1.24
2014-10-20,1.26,1.26,1.25,1.26,3600,1.26
2014-10-17,1.26,1.26,1.26,1.26,600,1.26
2014-10-16,1.27,1.27,1.25,1.25,46400,1.25
2014-10-15,1.285,1.315,1.27,1.27,22800,1.27
2014-10-14,1.28,1.28,1.275,1.275,5700,1.275
2014-10-13,1.275,1.275,1.27,1.27,9000,1.27
2014-10-10,1.28,1.28,1.25,1.27,35900,1.27
2014-10-09,1.28,1.30,1.28,1.30,10000,1.30
2014-10-08,1.35,1.35,1.28,1.28,41500,1.28
2014-10-07,1.29,1.32,1.29,1.32,18600,1.32
2014-10-06,1.28,1.28,1.28,1.28,4100,1.28
2014-10-03,1.31,1.31,1.25,1.26,19700,1.26
2014-10-02,1.31,1.31,1.30,1.31,4800,1.31
2014-10-01,1.36,1.36,1.31,1.31,19300,1.31
2014-09-30,1.36,1.36,1.36,1.36,1500,1.36
2014-09-29,1.36,1.37,1.36,1.36,16200,1.36
2014-09-26,1.375,1.375,1.36,1.36,12000,1.36
2014-09-25,1.39,1.39,1.375,1.375,4400,1.375
2014-09-24,1.40,1.40,1.39,1.39,1700,1.39
2014-09-23,1.43,1.43,1.40,1.40,20500,1.40
2014-09-22,1.44,1.44,1.40,1.44,15400,1.44
2014-09-19,1.43,1.44,1.43,1.44,3900,1.44
2014-09-18,1.44,1.44,1.42,1.43,10800,1.43
2014-09-17,1.43,1.43,1.40,1.42,13400,1.42
2014-09-16,1.43,1.43,1.40,1.42,22700,1.42
2014-09-15,1.44,1.44,1.425,1.43,104000,1.43
2014-09-12,1.42,1.43,1.42,1.43,25800,1.43
2014-09-11,1.43,1.43,1.41,1.425,27600,1.425
2014-09-10,1.47,1.47,1.41,1.43,30100,1.43
2014-09-09,1.40,1.42,1.40,1.42,20000,1.42
2014-09-08,1.35,1.40,1.34,1.395,37100,1.395
2014-09-05,1.25,1.36,1.25,1.31,80900,1.31
2014-09-04,1.25,1.25,1.22,1.25,19200,1.25
2014-09-03,1.27,1.27,1.26,1.27,16700,1.27
2014-09-02,1.27,1.30,1.27,1.30,15800,1.30
2014-09-01,1.32,1.32,1.30,1.30,21000,1.30
2014-08-29,1.33,1.33,1.30,1.30,19700,1.30
2014-08-28,1.375,1.375,1.32,1.355,38800,1.355
2014-08-27,1.42,1.42,1.36,1.375,24200,1.375
2014-08-26,1.47,1.47,1.36,1.42,103500,1.42
2014-08-25,1.50,1.50,1.44,1.465,42800,1.465
2014-08-22,1.50,1.50,1.485,1.485,18400,1.485
2014-08-21,1.52,1.52,1.485,1.50,6200,1.50
2014-08-20,1.545,1.55,1.49,1.52,45600,1.52
2014-08-19,1.53,1.55,1.515,1.545,11800,1.545
2014-08-18,1.49,1.525,1.485,1.51,20600,1.51
2014-08-15,1.51,1.52,1.45,1.485,67600,1.485
2014-08-14,1.54,1.55,1.53,1.54,67100,1.54
2014-08-13,1.50,1.55,1.50,1.535,60200,1.535
2014-08-12,1.48,1.50,1.47,1.48,120700,1.48
2014-08-11,1.44,1.50,1.44,1.48,237500,1.48
2014-08-08,1.45,1.45,1.435,1.435,53300,1.435
2014-08-07,1.485,1.485,1.45,1.46,55900,1.46
2014-08-06,1.555,1.56,1.46,1.50,162100,1.50
2014-08-05,1.66,1.685,1.53,1.54,444100,1.54
2014-08-04,1.46,1.46,1.46,1.46,000,1.46
2014-08-01,1.50,1.50,1.46,1.46,12800,1.46
2014-07-31,1.50,1.50,1.49,1.49,14000,1.49
2014-07-30,1.47,1.48,1.47,1.48,25500,1.48
2014-07-29,1.48,1.48,1.47,1.47,43000,1.47
2014-07-28,1.45,1.48,1.43,1.465,106900,1.465
2014-07-25,1.41,1.41,1.41,1.41,12000,1.41
2014-07-24,1.40,1.40,1.40,1.40,000,1.40
2014-07-23,1.40,1.47,1.40,1.40,71200,1.40
2014-07-22,1.39,1.40,1.39,1.40,23500,1.40
2014-07-21,1.40,1.40,1.40,1.40,17100,1.40
2014-07-18,1.47,1.47,1.40,1.40,27800,1.40
2014-07-17,1.42,1.47,1.42,1.46,28500,1.46
2014-07-16,1.36,1.40,1.36,1.40,2000,1.40
2014-07-15,1.41,1.42,1.35,1.35,33500,1.35
2014-07-14,1.36,1.41,1.36,1.41,19200,1.41
2014-07-11,1.36,1.39,1.36,1.39,7100,1.39
2014-07-10,1.36,1.38,1.36,1.38,4000,1.38
2014-07-09,1.38,1.38,1.38,1.38,000,1.38
2014-07-08,1.38,1.38,1.38,1.38,4600,1.38
2014-07-07,1.38,1.38,1.36,1.36,6300,1.36
2014-07-04,1.36,1.36,1.36,1.36,3400,1.36
2014-07-03,1.33,1.36,1.33,1.36,1000,1.36
2014-07-02,1.35,1.38,1.35,1.38,29800,1.38
2014-07-01,1.30,1.38,1.25,1.38,5000,1.38
2014-06-30,1.40,1.40,1.35,1.38,27600,1.38
2014-06-27,1.40,1.40,1.38,1.40,60700,1.40
2014-06-26,1.42,1.42,1.42,1.42,7400,1.42
2014-06-25,1.40,1.40,1.40,1.40,3000,1.40
2014-06-24,1.42,1.42,1.40,1.40,28200,1.40
2014-06-23,1.425,1.425,1.42,1.42,41500,1.42
2014-06-20,1.41,1.41,1.41,1.41,2500,1.41
2014-06-19,1.45,1.45,1.45,1.45,13800,1.45
2014-06-18,1.405,1.455,1.40,1.41,4700,1.41
2014-06-17,1.50,1.50,1.40,1.40,70800,1.40
2014-06-16,1.55,1.55,1.50,1.50,15900,1.50
2014-06-13,1.59,1.59,1.55,1.55,6600,1.55
2014-06-12,1.62,1.62,1.59,1.59,9400,1.59
2014-06-11,1.61,1.68,1.61,1.62,31500,1.62
2014-06-10,1.72,1.72,1.58,1.58,44200,1.58
2014-06-09,1.73,1.73,1.73,1.73,000,1.73
2014-06-06,1.70,1.75,1.70,1.73,27200,1.73
2014-06-05,1.72,1.72,1.67,1.70,34300,1.70
2014-06-04,1.60,1.70,1.59,1.70,81700,1.70
2014-06-03,1.605,1.65,1.59,1.60,67000,1.60
2014-06-02,1.58,1.64,1.58,1.60,123100,1.60
2014-05-30,1.55,1.60,1.50,1.58,72000,1.58
2014-05-29,1.45,1.55,1.45,1.50,159800,1.50
2014-05-28,1.395,1.45,1.375,1.40,78200,1.40
2014-05-27,1.35,1.395,1.35,1.36,25800,1.36
2014-05-26,1.35,1.35,1.35,1.35,23000,1.35
2014-05-23,1.30,1.31,1.26,1.27,18500,1.27
2014-05-22,1.39,1.39,1.35,1.35,20900,1.35
2014-05-21,1.35,1.35,1.35,1.35,4500,1.35
2014-05-20,1.26,1.40,1.26,1.40,69700,1.40
2014-05-19,1.20,1.20,1.20,1.20,000,1.20
2014-05-16,1.20,1.20,1.20,1.20,000,1.20
2014-05-15,1.28,1.28,1.15,1.20,12200,1.20
2014-05-14,1.30,1.30,1.28,1.28,11700,1.28
2014-05-13,1.30,1.30,1.30,1.30,2100,1.30
2014-05-12,1.37,1.37,1.325,1.34,5000,1.34
2014-05-09,1.40,1.40,1.40,1.40,30000,1.40
2014-05-08,1.32,1.32,1.32,1.32,10500,1.32
2014-05-07,1.32,1.32,1.32,1.32,500,1.32
2014-05-06,1.35,1.35,1.31,1.35,21900,1.35
2014-05-05,1.40,1.40,1.40,1.40,12000,1.40
2014-05-02,1.40,1.45,1.35,1.45,2300,1.45
2014-05-01,1.40,1.40,1.40,1.40,1500,1.40
2014-04-30,1.455,1.455,1.455,1.455,1100,1.455
2014-04-29,1.47,1.47,1.45,1.455,16200,1.455
2014-04-28,1.44,1.47,1.44,1.47,19800,1.47
2014-04-25,1.50,1.50,1.50,1.50,000,1.50
2014-04-24,1.50,1.50,1.455,1.50,11000,1.50
2014-04-23,1.51,1.53,1.51,1.51,22900,1.51
2014-04-22,1.50,1.50,1.50,1.50,9600,1.50
2014-04-21,1.53,1.53,1.53,1.53,000,1.53
2014-04-18,1.53,1.53,1.53,1.53,000,1.53
2014-04-17,1.49,1.53,1.49,1.53,8000,1.53
2014-04-16,1.50,1.50,1.42,1.42,7500,1.42
2014-04-15,1.53,1.53,1.53,1.53,000,1.53
2014-04-14,1.53,1.53,1.53,1.53,9500,1.53
2014-04-11,1.46,1.46,1.46,1.46,000,1.46
2014-04-10,1.465,1.465,1.46,1.46,45600,1.46
2014-04-09,1.60,1.60,1.50,1.50,9100,1.50
2014-04-08,1.61,1.61,1.605,1.605,9100,1.605
2014-04-07,1.61,1.62,1.61,1.62,13500,1.62
2014-04-04,1.62,1.62,1.62,1.62,600,1.62
2014-04-03,1.70,1.70,1.63,1.63,22000,1.63
2014-04-02,1.63,1.63,1.63,1.63,7000,1.63
2014-04-01,1.63,1.63,1.63,1.63,1000,1.63
2014-03-31,1.70,1.70,1.66,1.70,10000,1.70
2014-03-28,1.65,1.65,1.65,1.65,15000,1.65
2014-03-27,1.65,1.65,1.635,1.65,40500,1.65
2014-03-26,1.70,1.70,1.65,1.65,1209300,1.65
2014-03-25,1.67,1.70,1.67,1.70,8100,1.70
2014-03-24,1.69,1.69,1.67,1.67,10900,1.67
2014-03-21,1.70,1.70,1.675,1.675,25600,1.675
2014-03-20,1.74,1.74,1.675,1.70,43000,1.70
2014-03-19,1.80,1.80,1.75,1.75,69400,1.75
2014-03-18,1.82,1.82,1.76,1.78,43900,1.78
2014-03-17,1.83,1.83,1.80,1.82,39800,1.82
2014-03-14,1.84,1.84,1.84,1.84,000,1.84
2014-03-13,1.88,1.88,1.84,1.84,7000,1.84
2014-03-12,1.81,1.81,1.81,1.81,1700,1.81
2014-03-11,1.90,1.90,1.84,1.89,24800,1.89
2014-03-10,1.90,1.98,1.85,1.85,39300,1.85
2014-03-07,1.85,1.90,1.84,1.90,17600,1.90
2014-03-06,1.85,1.85,1.82,1.82,16900,1.82
2014-03-05,1.855,1.88,1.84,1.84,33800,1.84
2014-03-04,1.80,1.85,1.79,1.84,50200,1.84
2014-03-03,1.80,1.83,1.80,1.80,25900,1.80
2014-02-28,1.84,1.87,1.78,1.80,60700,1.80
2014-02-27,1.74,1.80,1.74,1.80,76200,1.80
2014-02-26,1.70,1.75,1.70,1.75,97900,1.75
2014-02-25,1.71,1.72,1.66,1.715,70300,1.715
2014-02-24,1.80,1.81,1.72,1.72,139800,1.72
2014-02-21,1.75,1.80,1.70,1.75,409400,1.75
2014-02-20,1.53,1.61,1.53,1.605,137200,1.605
2014-02-19,1.40,1.525,1.40,1.525,26300,1.525
2014-02-18,1.35,1.35,1.30,1.30,60000,1.30
2014-02-17,1.40,1.405,1.40,1.40,62200,1.40
2014-02-14,1.48,1.49,1.40,1.40,32800,1.40
2014-02-13,1.55,1.55,1.55,1.55,000,1.55
2014-02-12,1.61,1.61,1.55,1.55,64500,1.55
2014-02-11,1.65,1.66,1.595,1.64,12700,1.64
2014-02-10,1.63,1.70,1.60,1.67,97900,1.67
2014-02-07,1.465,1.65,1.465,1.60,254100,1.60
2014-02-06,1.435,1.50,1.435,1.46,67200,1.46
2014-02-05,1.37,1.45,1.37,1.40,92100,1.40
2014-02-04,1.37,1.39,1.35,1.35,26300,1.35
2014-02-03,1.30,1.35,1.30,1.35,42900,1.35
2014-01-31,1.225,1.30,1.225,1.25,68600,1.25
2014-01-30,1.215,1.25,1.21,1.22,139100,1.22
2014-01-29,1.25,1.28,1.17,1.20,656800,1.20
2014-01-28,1.80,1.80,1.80,1.80,000,1.80
2014-01-27,1.80,1.80,1.80,1.80,000,1.80
2014-01-24,1.80,1.80,1.80,1.80,000,1.80
2014-01-23,1.80,1.80,1.80,1.80,000,1.80
2014-01-22,1.80,1.80,1.80,1.80,000,1.80
2014-01-21,1.80,1.80,1.80,1.80,000,1.80
2014-01-20,1.80,1.80,1.80,1.80,000,1.80
2014-01-17,1.80,1.80,1.80,1.80,000,1.80
2014-01-16,1.80,1.80,1.80,1.80,000,1.80
2014-01-15,1.80,1.80,1.80,1.80,000,1.80
2014-01-14,1.80,1.80,1.80,1.80,000,1.80
2014-01-13,1.80,1.80,1.80,1.80,000,1.80
2014-01-10,1.80,1.80,1.80,1.80,000,1.80
2014-01-09,1.80,1.80,1.80,1.80,000,1.80
2014-01-08,1.80,1.80,1.80,1.80,000,1.80
2014-01-07,1.80,1.80,1.80,1.80,000,1.80
2014-01-06,1.80,1.80,1.80,1.80,000,1.80
2014-01-03,1.80,1.80,1.80,1.80,000,1.80
2014-01-02,1.80,1.80,1.80,1.80,000,1.80
2014-01-01,1.80,1.80,1.80,1.80,000,1.80
2013-12-31,1.80,1.80,1.80,1.80,000,1.80
2013-12-30,1.80,1.80,1.80,1.80,000,1.80
2013-12-27,1.80,1.80,1.80,1.80,000,1.80
2013-12-26,1.80,1.80,1.80,1.80,000,1.80
2013-12-25,1.80,1.80,1.80,1.80,000,1.80
2013-12-24,1.80,1.80,1.80,1.80,000,1.80
2013-12-23,1.80,1.80,1.80,1.80,000,1.80
2013-12-20,1.80,1.80,1.80,1.80,000,1.80
2013-12-19,0.009,0.009,0.009,0.009,000,1.80
2013-12-18,0.009,0.009,0.009,0.009,000,1.80
2013-12-17,0.008,0.009,0.008,0.009,6200,1.80
2013-12-16,0.008,0.008,0.008,0.008,000,1.60
2013-12-13,0.009,0.009,0.008,0.008,2700,1.60
2013-12-12,0.009,0.01,0.009,0.01,1100,2.00
2013-12-11,0.009,0.01,0.009,0.01,600,2.00
2013-12-10,0.011,0.011,0.01,0.01,100,2.00
2013-12-09,0.013,0.016,0.01,0.01,49700,2.00
2013-12-06,0.009,0.013,0.009,0.013,30500,2.60
2013-12-05,0.007,0.009,0.007,0.009,3900,1.80
2013-12-04,0.007,0.007,0.006,0.006,10400,1.20
2013-12-03,0.007,0.007,0.007,0.007,000,1.40
2013-12-02,0.007,0.007,0.007,0.007,100,1.40
2013-11-29,0.007,0.007,0.007,0.007,000,1.40
2013-11-28,0.007,0.007,0.007,0.007,000,1.40
2013-11-27,0.007,0.007,0.007,0.007,500,1.40
2013-11-26,0.008,0.008,0.008,0.008,000,1.60
2013-11-25,0.007,0.008,0.007,0.008,600,1.60
2013-11-22,0.008,0.008,0.008,0.008,000,1.60
2013-11-21,0.008,0.008,0.008,0.008,000,1.60
2013-11-20,0.009,0.009,0.008,0.008,3600,1.60
2013-11-19,0.009,0.009,0.009,0.009,13700,1.80
2013-11-18,0.008,0.009,0.008,0.008,4500,1.60
2013-11-15,0.008,0.008,0.008,0.008,7400,1.60
2013-11-14,0.008,0.008,0.008,0.008,1100,1.60
2013-11-13,0.009,0.009,0.009,0.009,500,1.80
2013-11-12,0.009,0.009,0.009,0.009,2000,1.80
2013-11-11,0.008,0.008,0.008,0.008,000,1.60
2013-11-08,0.008,0.009,0.008,0.008,2800,1.60
2013-11-07,0.01,0.01,0.009,0.01,5700,2.00
2013-11-06,0.01,0.01,0.009,0.01,3600,2.00
2013-11-05,0.009,0.009,0.009,0.009,000,1.80
2013-11-04,0.01,0.01,0.008,0.009,20900,1.80
2013-11-01,0.012,0.012,0.01,0.01,14200,2.00
2013-10-31,0.011,0.013,0.01,0.011,25100,2.20
2013-10-30,0.023,0.025,0.011,0.011,75300,2.20
2013-10-29,0.028,0.028,0.022,0.023,16700,4.60
2013-10-28,0.023,0.028,0.019,0.028,42000,5.60
2013-10-25,0.028,0.028,0.023,0.023,14900,4.60
2013-10-24,0.028,0.028,0.025,0.027,35200,5.40
2013-10-23,0.034,0.035,0.027,0.03,39000,6.00
2013-10-22,0.04,0.04,0.03,0.033,44300,6.60
2013-10-21,0.041,0.048,0.036,0.038,138900,7.60
2013-10-18,0.02,0.035,0.019,0.035,85200,7.00
2013-10-17,0.022,0.022,0.02,0.02,17400,4.00
2013-10-16,0.023,0.025,0.02,0.022,36600,4.40
2013-10-15,0.016,0.024,0.015,0.021,46400,4.20
2013-10-14,0.019,0.019,0.016,0.016,18800,3.20
2013-10-11,0.014,0.022,0.012,0.018,35900,3.60
2013-10-10,0.013,0.017,0.01,0.014,22900,2.80
2013-10-09,0.025,0.025,0.025,0.025,000,5.00
2013-10-08,0.006,0.025,0.006,0.025,27400,5.00
2013-10-07,0.003,0.003,0.003,0.003,000,0.60
2013-10-04,0.003,0.003,0.003,0.003,000,0.60
2013-10-03,0.003,0.003,0.003,0.003,000,0.60
2013-10-02,0.003,0.003,0.003,0.003,000,0.60
2013-10-01,0.003,0.003,0.003,0.003,000,0.60
2013-09-30,0.003,0.003,0.003,0.003,000,0.60
2013-09-27,0.003,0.003,0.003,0.003,000,0.60
2013-09-26,0.003,0.003,0.003,0.003,000,0.60
2013-09-25,0.003,0.003,0.003,0.003,300,0.60
2013-09-24,0.006,0.006,0.006,0.006,000,1.20
2013-09-23,0.006,0.006,0.006,0.006,000,1.20
2013-09-20,0.006,0.006,0.006,0.006,000,1.20
2013-09-19,0.006,0.006,0.006,0.006,000,1.20
2013-09-18,0.006,0.006,0.006,0.006,000,1.20
2013-09-17,0.006,0.006,0.006,0.006,000,1.20
2013-09-16,0.006,0.006,0.006,0.006,000,1.20
2013-09-13,0.006,0.006,0.006,0.006,000,1.20
2013-09-12,0.005,0.006,0.005,0.006,3700,1.20
2013-09-11,0.005,0.005,0.005,0.005,900,1.00
2013-09-10,0.005,0.005,0.005,0.005,000,1.00
2013-09-09,0.005,0.005,0.005,0.005,000,1.00
2013-09-06,0.005,0.005,0.005,0.005,2000,1.00
2013-09-05,0.004,0.004,0.004,0.004,000,0.80
2013-09-04,0.004,0.004,0.004,0.004,000,0.80
2013-09-03,0.004,0.004,0.004,0.004,000,0.80
2013-09-02,0.004,0.004,0.004,0.004,800,0.80
2013-08-30,0.008,0.008,0.008,0.008,000,1.60
2013-08-29,0.008,0.008,0.008,0.008,800,1.60
2013-08-28,0.006,0.007,0.006,0.007,100,1.40
2013-08-27,0.005,0.005,0.005,0.005,000,1.00
2013-08-26,0.005,0.005,0.005,0.005,000,1.00
2013-08-23,0.005,0.005,0.005,0.005,000,1.00
2013-08-22,0.005,0.005,0.005,0.005,000,1.00
2013-08-21,0.005,0.005,0.005,0.005,000,1.00
2013-08-20,0.005,0.005,0.005,0.005,000,1.00
2013-08-19,0.005,0.005,0.005,0.005,000,1.00
2013-08-16,0.005,0.005,0.005,0.005,000,1.00
2013-08-15,0.005,0.005,0.005,0.005,000,1.00
2013-08-14,0.004,0.005,0.004,0.005,4100,1.00
2013-08-13,0.004,0.004,0.004,0.004,900,0.80
2013-08-12,0.003,0.003,0.003,0.003,000,0.60
2013-08-09,0.003,0.003,0.003,0.003,000,0.60
2013-08-08,0.003,0.003,0.003,0.003,000,0.60
2013-08-07,0.003,0.003,0.003,0.003,000,0.60
2013-08-06,0.003,0.003,0.003,0.003,000,0.60
2013-08-05,0.003,0.003,0.003,0.003,000,0.60
2013-08-02,0.003,0.003,0.003,0.003,000,0.60
2013-08-01,0.003,0.003,0.003,0.003,300,0.60
2013-07-31,0.003,0.003,0.003,0.003,000,0.60
2013-07-30,0.004,0.004,0.003,0.003,1100,0.60
2013-07-29,0.003,0.003,0.003,0.003,000,0.60
2013-07-26,0.003,0.003,0.003,0.003,000,0.60
2013-07-25,0.003,0.003,0.003,0.003,000,0.60
2013-07-24,0.003,0.003,0.003,0.003,000,0.60
2013-07-23,0.003,0.003,0.003,0.003,000,0.60
2013-07-22,0.003,0.003,0.003,0.003,000,0.60
2013-07-19,0.003,0.003,0.003,0.003,000,0.60
2013-07-18,0.003,0.003,0.003,0.003,000,0.60
2013-07-17,0.003,0.003,0.003,0.003,000,0.60
2013-07-16,0.003,0.003,0.003,0.003,000,0.60
2013-07-15,0.003,0.003,0.003,0.003,000,0.60
2013-07-12,0.003,0.003,0.003,0.003,000,0.60
2013-07-11,0.003,0.003,0.003,0.003,000,0.60
2013-07-10,0.003,0.003,0.003,0.003,000,0.60
2013-07-09,0.003,0.003,0.003,0.003,4000,0.60
2013-07-08,0.002,0.002,0.002,0.002,000,0.40
2013-07-05,0.002,0.002,0.002,0.002,000,0.40
2013-07-04,0.002,0.002,0.002,0.002,000,0.40
2013-07-03,0.002,0.002,0.002,0.002,000,0.40
2013-07-02,0.002,0.002,0.002,0.002,200,0.40
2013-07-01,0.002,0.002,0.002,0.002,000,0.40
2013-06-28,0.002,0.002,0.002,0.002,000,0.40
2013-06-27,0.002,0.002,0.002,0.002,100,0.40
2013-06-26,0.002,0.002,0.002,0.002,000,0.40
2013-06-25,0.002,0.002,0.002,0.002,000,0.40
2013-06-24,0.002,0.002,0.002,0.002,000,0.40
2013-06-21,0.002,0.003,0.002,0.002,1400,0.40
2013-06-20,0.002,0.002,0.002,0.002,100,0.40
2013-06-19,0.002,0.002,0.002,0.002,000,0.40
2013-06-18,0.002,0.002,0.002,0.002,000,0.40
2013-06-17,0.002,0.002,0.002,0.002,1300,0.40
2013-06-14,0.002,0.002,0.002,0.002,1100,0.40
2013-06-13,0.001,0.003,0.001,0.003,2400,0.60
2013-06-12,0.028,0.028,0.028,0.028,000,5.60
2013-06-11,0.028,0.028,0.028,0.028,000,5.60
2013-06-10,0.028,0.028,0.028,0.028,000,5.60
2013-06-07,0.028,0.028,0.028,0.028,000,5.60
2013-06-06,0.028,0.028,0.028,0.028,000,5.60
2013-06-05,0.028,0.028,0.028,0.028,000,5.60
2013-06-04,0.028,0.028,0.028,0.028,000,5.60
2013-06-03,0.028,0.028,0.028,0.028,000,5.60
2013-05-31,0.028,0.028,0.028,0.028,000,5.60
2013-05-30,0.028,0.028,0.028,0.028,000,5.60
2013-05-29,0.028,0.028,0.028,0.028,000,5.60
2013-05-28,0.028,0.028,0.028,0.028,000,5.60
2013-05-27,0.028,0.028,0.028,0.028,000,5.60
2013-05-24,0.029,0.031,0.029,0.031,200,6.20
2013-05-23,0.029,0.029,0.029,0.029,000,5.80
2013-05-22,0.029,0.029,0.029,0.029,000,5.80
2013-05-21,0.029,0.029,0.029,0.029,000,5.80
2013-05-20,0.029,0.029,0.029,0.029,000,5.80
2013-05-17,0.029,0.029,0.029,0.029,000,5.80
2013-05-16,0.029,0.029,0.029,0.029,000,5.80
2013-05-15,0.031,0.031,0.031,0.031,000,6.20
2013-05-14,0.031,0.031,0.031,0.031,000,6.20
2013-05-13,0.031,0.031,0.031,0.031,1700,6.20
2013-05-10,0.029,0.029,0.029,0.029,000,5.80
2013-05-09,0.029,0.029,0.029,0.029,000,5.80
2013-05-08,0.029,0.029,0.029,0.029,100,5.80
2013-05-07,0.029,0.029,0.029,0.029,000,5.80
2013-05-06,0.029,0.029,0.029,0.029,000,5.80
2013-05-03,0.029,0.029,0.029,0.029,000,5.80
2013-05-02,0.029,0.029,0.029,0.029,000,5.80
2013-05-01,0.029,0.029,0.029,0.029,000,5.80
2013-04-30,0.029,0.029,0.029,0.029,000,5.80
2013-04-29,0.029,0.029,0.029,0.029,000,5.80
2013-04-26,0.029,0.029,0.029,0.029,000,5.80
2013-04-25,0.029,0.029,0.029,0.029,000,5.80
2013-04-24,0.029,0.029,0.029,0.029,100,5.80
2013-04-23,0.029,0.029,0.029,0.029,000,5.80
2013-04-22,0.029,0.029,0.029,0.029,000,5.80
2013-04-19,0.029,0.029,0.029,0.029,000,5.80
2013-04-18,0.029,0.029,0.029,0.029,000,5.80
2013-04-17,0.029,0.029,0.029,0.029,000,5.80
2013-04-16,0.029,0.029,0.029,0.029,000,5.80
2013-04-15,0.029,0.029,0.029,0.029,000,5.80
2013-04-12,0.029,0.029,0.029,0.029,000,5.80
2013-04-11,0.029,0.029,0.029,0.029,000,5.80
2013-04-10,0.029,0.029,0.029,0.029,000,5.80
2013-04-09,0.029,0.029,0.029,0.029,000,5.80
2013-04-08,0.029,0.029,0.029,0.029,000,5.80
2013-04-05,0.029,0.029,0.029,0.029,1500,5.80
2013-04-04,0.028,0.028,0.028,0.028,000,5.60
2013-04-03,0.028,0.028,0.028,0.028,000,5.60
2013-04-02,0.028,0.028,0.028,0.028,000,5.60
2013-04-01,0.029,0.029,0.029,0.029,000,5.80
2013-03-29,0.029,0.029,0.029,0.029,000,5.80
2013-03-28,0.029,0.029,0.029,0.029,000,5.80
2013-03-27,0.029,0.029,0.029,0.029,000,5.80
2013-03-26,0.029,0.029,0.029,0.029,000,5.80
2013-03-25,0.029,0.029,0.029,0.029,000,5.80
2013-03-22,0.029,0.029,0.029,0.029,000,5.80
2013-03-21,0.029,0.029,0.029,0.029,000,5.80
2013-03-20,0.029,0.029,0.029,0.029,000,5.80
2013-03-19,0.029,0.029,0.029,0.029,000,5.80
2013-03-18,0.029,0.029,0.029,0.029,000,5.80
2013-03-15,0.029,0.029,0.029,0.029,000,5.80
2013-03-14,0.029,0.029,0.029,0.029,1000,5.80
2013-03-13,0.029,0.029,0.029,0.029,000,5.80
2013-03-12,0.029,0.029,0.029,0.029,000,5.80
2013-03-11,0.029,0.029,0.029,0.029,000,5.80
2013-03-08,0.029,0.029,0.029,0.029,000,5.80
2013-03-07,0.029,0.03,0.029,0.029,2600,5.80
2013-03-06,0.029,0.029,0.029,0.029,000,5.80
2013-03-05,0.029,0.029,0.029,0.029,000,5.80
2013-03-04,0.03,0.03,0.029,0.029,400,5.80
2013-03-01,0.03,0.03,0.029,0.029,2000,5.80
2013-02-28,0.03,0.03,0.03,0.03,000,6.00
2013-02-27,0.03,0.03,0.03,0.03,000,6.00
2013-02-26,0.03,0.03,0.03,0.03,1200,6.00
2013-02-25,0.031,0.031,0.031,0.031,000,6.20
2013-02-22,0.031,0.031,0.031,0.031,000,6.20
2013-02-21,0.031,0.031,0.031,0.031,200,6.20
2013-02-20,0.03,0.03,0.03,0.03,000,6.00
2013-02-19,0.03,0.03,0.03,0.03,000,6.00
2013-02-18,0.03,0.03,0.03,0.03,000,6.00
2013-02-15,0.03,0.03,0.03,0.03,000,6.00
2013-02-14,0.029,0.03,0.029,0.03,500,6.00
2013-02-13,0.03,0.03,0.03,0.03,2200,6.00
2013-02-12,0.03,0.03,0.03,0.03,400,6.00
2013-02-11,0.03,0.03,0.03,0.03,200,6.00
2013-02-08,0.029,0.03,0.029,0.03,1000,6.00
2013-02-07,0.027,0.027,0.027,0.027,000,5.40
2013-02-06,0.027,0.027,0.027,0.027,000,5.40
2013-02-05,0.027,0.027,0.027,0.027,000,5.40
2013-02-04,0.027,0.027,0.027,0.027,000,5.40
2013-02-01,0.027,0.027,0.027,0.027,000,5.40
2013-01-31,0.027,0.027,0.027,0.027,000,5.40
2013-01-30,0.027,0.027,0.027,0.027,000,5.40
2013-01-29,0.027,0.027,0.027,0.027,000,5.40
2013-01-28,0.027,0.027,0.027,0.027,000,5.40
2013-01-25,0.027,0.027,0.027,0.027,100,5.40
2013-01-24,0.027,0.027,0.027,0.027,000,5.40
2013-01-22,0.027,0.027,0.027,0.027,000,5.40
2013-01-21,0.027,0.027,0.027,0.027,000,5.40
2013-01-18,0.027,0.027,0.027,0.027,000,5.40
2013-01-17,0.027,0.027,0.027,0.027,700,5.40
2013-01-16,0.027,0.027,0.027,0.027,000,5.40
2013-01-15,0.027,0.027,0.027,0.027,600,5.40
2013-01-14,0.028,0.028,0.028,0.028,000,5.60
2013-01-11,0.028,0.028,0.028,0.028,000,5.60
2013-01-10,0.028,0.028,0.028,0.028,000,5.60
2013-01-09,0.025,0.028,0.025,0.028,1700,5.60
2013-01-08,0.024,0.025,0.024,0.025,4700,5.00
2013-01-07,0.024,0.024,0.024,0.024,000,4.80
2013-01-04,0.024,0.024,0.024,0.024,000,4.80
2013-01-03,0.024,0.024,0.024,0.024,000,4.80
2013-01-02,0.024,0.024,0.024,0.024,000,4.80
2013-01-01,0.022,0.022,0.022,0.022,000,4.40
2012-12-31,0.022,0.022,0.022,0.022,000,4.40
2012-12-28,0.022,0.022,0.022,0.022,000,4.40
2012-12-27,0.022,0.022,0.022,0.022,000,4.40
2012-12-26,0.022,0.022,0.022,0.022,000,4.40
2012-12-25,0.022,0.022,0.022,0.022,000,4.40
2012-12-24,0.022,0.022,0.022,0.022,000,4.40
2012-12-21,0.022,0.022,0.022,0.022,000,4.40
2012-12-20,0.022,0.022,0.022,0.022,000,4.40
2012-12-19,0.022,0.022,0.022,0.022,000,4.40
2012-12-18,0.022,0.022,0.022,0.022,000,4.40
2012-12-17,0.022,0.022,0.022,0.022,000,4.40
2012-12-14,0.022,0.022,0.022,0.022,000,4.40
2012-12-13,0.022,0.022,0.022,0.022,000,4.40
2012-12-12,0.022,0.022,0.022,0.022,000,4.40
2012-12-11,0.022,0.022,0.022,0.022,000,4.40
2012-12-10,0.022,0.022,0.022,0.022,000,4.40
2012-12-07,0.022,0.022,0.022,0.022,000,4.40
2012-12-06,0.022,0.022,0.022,0.022,000,4.40
2012-12-05,0.022,0.022,0.022,0.022,000,4.40
2012-12-04,0.022,0.022,0.022,0.022,000,4.40
2012-12-03,0.022,0.022,0.022,0.022,000,4.40
2012-11-30,0.022,0.022,0.022,0.022,000,4.40
2012-11-29,0.022,0.022,0.022,0.022,000,4.40
2012-11-28,0.022,0.022,0.022,0.022,000,4.40
2012-11-27,0.022,0.022,0.022,0.022,000,4.40
2012-11-26,0.022,0.022,0.022,0.022,000,4.40
2012-11-23,0.022,0.022,0.022,0.022,000,4.40
2012-11-22,0.022,0.022,0.022,0.022,000,4.40
2012-11-21,0.022,0.022,0.022,0.022,000,4.40
2012-11-20,0.022,0.022,0.022,0.022,000,4.40
2012-11-19,0.022,0.022,0.022,0.022,000,4.40
2012-11-16,0.022,0.022,0.022,0.022,000,4.40
2012-11-15,0.022,0.022,0.022,0.022,000,4.40
2012-11-14,0.022,0.022,0.022,0.022,000,4.40
2012-11-13,0.022,0.022,0.022,0.022,000,4.40
2012-11-12,0.022,0.022,0.022,0.022,000,4.40
2012-11-09,0.022,0.022,0.022,0.022,000,4.40
2012-11-08,0.022,0.022,0.022,0.022,000,4.40
2012-11-07,0.022,0.022,0.022,0.022,000,4.40
2012-11-06,0.022,0.022,0.022,0.022,000,4.40
2012-11-05,0.022,0.022,0.022,0.022,000,4.40
2012-11-02,0.022,0.022,0.022,0.022,300,4.40
2012-11-01,0.02,0.02,0.02,0.02,000,4.00
2012-10-31,0.019,0.02,0.019,0.02,500,4.00
2012-10-30,0.015,0.015,0.015,0.015,100,3.00
2012-10-29,0.013,0.013,0.013,0.013,000,2.60
2012-10-26,0.013,0.013,0.013,0.013,000,2.60
2012-10-25,0.013,0.013,0.013,0.013,000,2.60
2012-10-24,0.013,0.013,0.013,0.013,000,2.60
2012-10-23,0.013,0.013,0.013,0.013,000,2.60
2012-10-22,0.013,0.013,0.013,0.013,000,2.60
2012-10-19,0.013,0.013,0.013,0.013,200,2.60
2012-10-18,0.013,0.013,0.013,0.013,000,2.60
2012-10-17,0.013,0.013,0.013,0.013,000,2.60
2012-10-16,0.013,0.013,0.013,0.013,000,2.60
2012-10-15,0.013,0.013,0.013,0.013,000,2.60
2012-10-12,0.013,0.013,0.013,0.013,000,2.60
2012-10-11,0.013,0.013,0.013,0.013,000,2.60
2012-10-10,0.013,0.013,0.013,0.013,000,2.60
2012-10-09,0.013,0.013,0.013,0.013,000,2.60
2012-10-08,0.013,0.013,0.013,0.013,000,2.60
2012-10-05,0.011,0.011,0.011,0.011,000,2.20
2012-10-04,0.011,0.011,0.011,0.011,000,2.20
2012-10-03,0.011,0.011,0.011,0.011,000,2.20
2012-10-02,0.011,0.011,0.011,0.011,000,2.20
2012-10-01,0.011,0.011,0.011,0.011,000,2.20
2012-09-28,0.011,0.011,0.011,0.011,000,2.20
2012-09-27,0.011,0.011,0.011,0.011,000,2.20
2012-09-26,0.011,0.011,0.011,0.011,000,2.20
2012-09-25,0.015,0.015,0.015,0.015,100,3.00
2012-09-24,0.013,0.013,0.013,0.013,100,2.60
2012-09-21,0.011,0.011,0.011,0.011,000,2.20
2012-09-20,0.011,0.011,0.011,0.011,000,2.20
2012-09-19,0.011,0.011,0.011,0.011,000,2.20
2012-09-18,0.011,0.011,0.011,0.011,000,2.20
2012-09-17,0.011,0.011,0.011,0.011,000,2.20
2012-09-14,0.011,0.011,0.011,0.011,000,2.20
2012-09-13,0.011,0.011,0.011,0.011,000,2.20
2012-09-12,0.011,0.011,0.011,0.011,000,2.20
2012-09-11,0.011,0.011,0.011,0.011,300,2.20
2012-09-10,0.011,0.011,0.011,0.011,000,2.20
2012-09-07,0.011,0.011,0.011,0.011,000,2.20
2012-09-06,0.015,0.015,0.015,0.015,000,3.00
2012-09-05,0.015,0.015,0.015,0.015,000,3.00
2012-09-04,0.015,0.015,0.015,0.015,000,3.00
2012-09-03,0.015,0.015,0.015,0.015,000,3.00
2012-08-31,0.015,0.015,0.015,0.015,000,3.00
2012-08-30,0.015,0.015,0.015,0.015,000,3.00
2012-08-29,0.015,0.015,0.015,0.015,000,3.00
2012-08-28,0.015,0.015,0.015,0.015,000,3.00
2012-08-27,0.015,0.015,0.015,0.015,000,3.00
2012-08-24,0.015,0.015,0.015,0.015,000,3.00
2012-08-23,0.015,0.015,0.015,0.015,000,3.00
2012-08-22,0.015,0.015,0.015,0.015,000,3.00
2012-08-21,0.015,0.015,0.015,0.015,000,3.00
2012-08-20,0.015,0.015,0.015,0.015,000,3.00
2012-08-17,0.015,0.015,0.015,0.015,000,3.00
2012-08-16,0.015,0.015,0.015,0.015,000,3.00
2012-08-15,0.015,0.015,0.015,0.015,000,3.00
2012-08-14,0.015,0.015,0.015,0.015,000,3.00
2012-08-13,0.015,0.015,0.015,0.015,000,3.00
2012-08-10,0.015,0.015,0.015,0.015,000,3.00
2012-08-09,0.014,0.015,0.014,0.015,500,3.00
2012-08-08,0.014,0.014,0.014,0.014,500,2.80
2012-08-07,0.013,0.013,0.013,0.013,000,2.60
2012-08-06,0.013,0.013,0.013,0.013,000,2.60
2012-08-03,0.013,0.013,0.013,0.013,000,2.60
2012-08-02,0.013,0.013,0.013,0.013,000,2.60
2012-08-01,0.013,0.013,0.013,0.013,000,2.60
2012-07-31,0.013,0.013,0.013,0.013,000,2.60
2012-07-30,0.013,0.013,0.013,0.013,000,2.60
2012-07-27,0.013,0.013,0.013,0.013,000,2.60
2012-07-26,0.013,0.013,0.013,0.013,4900,2.60
2012-07-25,0.013,0.013,0.013,0.013,000,2.60
2012-07-24,0.013,0.013,0.013,0.013,000,2.60
2012-07-23,0.013,0.013,0.013,0.013,000,2.60
2012-07-20,0.011,0.011,0.011,0.011,000,2.20
2012-07-19,0.011,0.011,0.011,0.011,100,2.20
2012-07-18,0.01,0.01,0.01,0.01,000,2.00
2012-07-17,0.01,0.01,0.01,0.01,000,2.00
2012-07-16,0.01,0.01,0.01,0.01,100,2.00
2012-07-13,0.007,0.007,0.007,0.007,000,1.40
2012-07-12,0.007,0.007,0.007,0.007,000,1.40
2012-07-11,0.007,0.007,0.007,0.007,000,1.40
2012-07-10,0.007,0.007,0.007,0.007,000,1.40
2012-07-09,0.007,0.007,0.007,0.007,000,1.40
2012-07-06,0.007,0.007,0.007,0.007,000,1.40
2012-07-05,0.007,0.007,0.007,0.007,000,1.40
2012-07-04,0.013,0.013,0.007,0.007,100,1.40
2012-07-03,0.013,0.013,0.013,0.013,000,2.60
2012-07-02,0.013,0.013,0.013,0.013,000,2.60
2012-06-29,0.013,0.013,0.013,0.013,100,2.60
2012-06-28,0.013,0.013,0.013,0.013,400,2.60
2012-06-27,0.013,0.013,0.013,0.013,000,2.60
2012-06-26,0.013,0.013,0.013,0.013,100,2.60
2012-06-25,0.013,0.013,0.013,0.013,200,2.60
2012-06-22,0.013,0.013,0.013,0.013,000,2.60
2012-06-21,0.013,0.013,0.013,0.013,200,2.60
2012-06-20,0.013,0.013,0.013,0.013,000,2.60
2012-06-19,0.013,0.013,0.013,0.013,000,2.60
2012-06-18,0.013,0.013,0.013,0.013,000,2.60
2012-06-15,0.013,0.013,0.013,0.013,000,2.60
2012-06-14,0.013,0.013,0.013,0.013,000,2.60
2012-06-13,0.013,0.013,0.013,0.013,000,2.60
2012-06-12,0.015,0.015,0.015,0.015,100,3.00
2012-06-11,0.017,0.017,0.017,0.017,000,3.40
2012-06-08,0.017,0.017,0.017,0.017,000,3.40
2012-06-07,0.017,0.017,0.017,0.017,000,3.40
2012-06-06,0.017,0.017,0.017,0.017,000,3.40
2012-06-05,0.017,0.017,0.017,0.017,700,3.40
2012-06-04,0.013,0.013,0.013,0.013,000,2.60
2012-06-01,0.013,0.013,0.013,0.013,000,2.60
2012-05-31,0.013,0.013,0.013,0.013,000,2.60
2012-05-30,0.013,0.013,0.013,0.013,000,2.60
2012-05-29,0.015,0.015,0.013,0.013,200,2.60
2012-05-28,0.016,0.016,0.016,0.016,2700,3.20
2012-05-25,0.016,0.016,0.016,0.016,000,3.20
2012-05-24,0.016,0.016,0.016,0.016,100,3.20
2012-05-23,0.016,0.016,0.016,0.016,000,3.20
2012-05-22,0.016,0.016,0.016,0.016,000,3.20
2012-05-21,0.016,0.016,0.016,0.016,000,3.20
2012-05-18,0.016,0.016,0.016,0.016,000,3.20
2012-05-17,0.016,0.016,0.016,0.016,000,3.20
2012-05-16,0.016,0.016,0.016,0.016,000,3.20
2012-05-15,0.016,0.016,0.016,0.016,000,3.20
2012-05-14,0.016,0.016,0.016,0.016,000,3.20
2012-05-11,0.016,0.016,0.016,0.016,000,3.20
2012-05-10,0.016,0.016,0.016,0.016,000,3.20
2012-05-09,0.016,0.016,0.016,0.016,000,3.20
2012-05-08,0.016,0.016,0.016,0.016,000,3.20
2012-05-07,0.016,0.016,0.016,0.016,1500,3.20
2012-05-04,0.017,0.017,0.017,0.017,000,3.40
2012-05-03,0.017,0.017,0.017,0.017,000,3.40
2012-05-02,0.017,0.017,0.017,0.017,000,3.40
2012-05-01,0.017,0.017,0.017,0.017,000,3.40
2012-04-30,0.017,0.017,0.017,0.017,1000,3.40
2012-04-27,0.017,0.017,0.017,0.017,000,3.40
2012-04-26,0.017,0.017,0.017,0.017,000,3.40
2012-04-25,0.017,0.017,0.017,0.017,000,3.40
2012-04-24,0.017,0.017,0.017,0.017,000,3.40
2012-04-23,0.017,0.017,0.017,0.017,000,3.40
2012-04-20,0.017,0.017,0.017,0.017,000,3.40
2012-04-19,0.017,0.017,0.017,0.017,000,3.40
2012-04-18,0.017,0.017,0.017,0.017,000,3.40
2012-04-17,0.017,0.017,0.017,0.017,000,3.40
2012-04-16,0.017,0.017,0.017,0.017,100,3.40
2012-04-13,0.017,0.017,0.017,0.017,000,3.40
2012-04-12,0.016,0.016,0.016,0.016,000,3.20
2012-04-11,0.017,0.017,0.016,0.016,1400,3.20
2012-04-10,0.016,0.016,0.016,0.016,100,3.20
2012-04-09,0.016,0.016,0.016,0.016,000,3.20
2012-04-06,0.016,0.016,0.016,0.016,000,3.20
2012-04-05,0.016,0.016,0.016,0.016,000,3.20
2012-04-04,0.016,0.016,0.016,0.016,000,3.20
2012-04-03,0.016,0.016,0.016,0.016,000,3.20
2012-04-02,0.016,0.016,0.016,0.016,000,3.20
2012-03-30,0.016,0.016,0.016,0.016,000,3.20
2012-03-29,0.016,0.016,0.016,0.016,000,3.20
2012-03-28,0.013,0.013,0.013,0.013,000,2.60
2012-03-27,0.013,0.013,0.013,0.013,000,2.60
2012-03-26,0.013,0.013,0.013,0.013,000,2.60
2012-03-23,0.013,0.013,0.013,0.013,000,2.60
2012-03-22,0.013,0.013,0.013,0.013,000,2.60
2012-03-21,0.013,0.013,0.013,0.013,000,2.60
2012-03-20,0.013,0.013,0.013,0.013,000,2.60
2012-03-19,0.013,0.013,0.013,0.013,000,2.60
2012-03-16,0.013,0.013,0.013,0.013,000,2.60
2012-03-15,0.013,0.013,0.013,0.013,000,2.60
2012-03-14,0.013,0.013,0.013,0.013,000,2.60
2012-03-13,0.013,0.013,0.013,0.013,000,2.60
2012-03-12,0.013,0.013,0.013,0.013,000,2.60
2012-03-09,0.013,0.013,0.013,0.013,000,2.60
2012-03-08,0.013,0.013,0.013,0.013,000,2.60
2012-03-07,0.013,0.013,0.013,0.013,000,2.60
2012-03-06,0.013,0.013,0.013,0.013,100,2.60
2012-03-05,0.013,0.013,0.013,0.013,000,2.60
2012-03-02,0.013,0.013,0.013,0.013,000,2.60
2012-03-01,0.013,0.013,0.013,0.013,000,2.60
2012-02-29,0.013,0.013,0.013,0.013,000,2.60
2012-02-28,0.013,0.013,0.013,0.013,700,2.60
2012-02-27,0.015,0.015,0.015,0.015,000,3.00
2012-02-24,0.015,0.015,0.015,0.015,000,3.00
2012-02-23,0.016,0.016,0.015,0.015,2600,3.00
2012-02-22,0.018,0.018,0.018,0.018,1000,3.60
2012-02-21,0.02,0.02,0.02,0.02,000,4.00
2012-02-20,0.02,0.02,0.02,0.02,600,4.00
2012-02-17,0.029,0.029,0.029,0.029,000,5.80
2012-02-16,0.029,0.029,0.029,0.029,000,5.80
2012-02-15,0.029,0.029,0.029,0.029,000,5.80
2012-02-14,0.029,0.029,0.029,0.029,000,5.80
2012-02-13,0.029,0.029,0.029,0.029,000,5.80
2012-02-10,0.015,0.029,0.015,0.029,300,5.80
2012-02-09,0.025,0.025,0.025,0.025,000,5.00
2012-02-08,0.025,0.025,0.025,0.025,000,5.00
2012-02-07,0.025,0.025,0.025,0.025,000,5.00
2012-02-06,0.025,0.025,0.025,0.025,000,5.00
2012-02-03,0.025,0.025,0.025,0.025,1000,5.00
2012-02-02,0.015,0.015,0.015,0.015,100,3.00
2012-02-01,0.015,0.015,0.015,0.015,000,3.00
2012-01-31,0.015,0.015,0.015,0.015,000,3.00
2012-01-27,0.015,0.015,0.015,0.015,000,3.00
2012-01-26,0.015,0.015,0.015,0.015,000,3.00
2012-01-25,0.015,0.015,0.015,0.015,000,3.00
2012-01-24,0.015,0.015,0.015,0.015,200,3.00
2012-01-23,0.015,0.015,0.015,0.015,000,3.00
2012-01-20,0.015,0.015,0.015,0.015,000,3.00
2012-01-19,0.015,0.015,0.015,0.015,000,3.00
2012-01-18,0.015,0.015,0.015,0.015,000,3.00
2012-01-17,0.015,0.015,0.015,0.015,000,3.00
2012-01-16,0.015,0.015,0.015,0.015,000,3.00
2012-01-13,0.015,0.015,0.015,0.015,000,3.00
2012-01-12,0.015,0.015,0.015,0.015,000,3.00
2012-01-11,0.015,0.015,0.015,0.015,000,3.00
2012-01-10,0.015,0.015,0.015,0.015,000,3.00
2012-01-09,0.025,0.025,0.025,0.025,000,5.00
2012-01-06,0.025,0.025,0.025,0.025,000,5.00
2012-01-05,0.025,0.025,0.025,0.025,000,5.00
2012-01-04,0.025,0.025,0.025,0.025,000,5.00
2012-01-03,0.025,0.025,0.025,0.025,000,5.00
2012-01-02,0.025,0.025,0.025,0.025,000,5.00
2011-12-30,0.025,0.025,0.025,0.025,000,5.00
2011-12-29,0.025,0.025,0.025,0.025,000,5.00
2011-12-28,0.025,0.025,0.025,0.025,000,5.00
2011-12-27,0.025,0.025,0.025,0.025,000,5.00
2011-12-26,0.025,0.025,0.025,0.025,000,5.00
2011-12-23,0.025,0.025,0.025,0.025,000,5.00
2011-12-22,0.025,0.025,0.025,0.025,000,5.00
2011-12-21,0.025,0.025,0.025,0.025,000,5.00
2011-12-20,0.025,0.025,0.025,0.025,000,5.00
2011-12-19,0.025,0.025,0.025,0.025,000,5.00
2011-12-16,0.025,0.025,0.025,0.025,000,5.00
2011-12-15,0.025,0.025,0.025,0.025,000,5.00
2011-12-14,0.025,0.025,0.025,0.025,000,5.00
2011-12-13,0.025,0.025,0.025,0.025,000,5.00
2011-12-12,0.025,0.025,0.025,0.025,000,5.00
2011-12-09,0.025,0.025,0.025,0.025,000,5.00
2011-12-08,0.025,0.025,0.025,0.025,000,5.00
2011-12-07,0.024,0.025,0.024,0.025,100,5.00
2011-12-06,0.02,0.02,0.02,0.02,000,4.00
2011-12-05,0.02,0.02,0.02,0.02,000,4.00
2011-12-02,0.02,0.02,0.02,0.02,000,4.00
2011-12-01,0.012,0.012,0.012,0.012,000,2.40
2011-11-30,0.012,0.012,0.012,0.012,000,2.40
2011-11-29,0.012,0.012,0.012,0.012,000,2.40
2011-11-28,0.012,0.012,0.012,0.012,000,2.40
2011-11-25,0.012,0.012,0.012,0.012,000,2.40
2011-11-24,0.012,0.012,0.012,0.012,000,2.40
2011-11-23,0.012,0.012,0.012,0.012,000,2.40
2011-11-22,0.012,0.012,0.012,0.012,000,2.40
2011-11-21,0.012,0.012,0.012,0.012,000,2.40
2011-11-18,0.012,0.012,0.012,0.012,000,2.40
2011-11-17,0.012,0.012,0.012,0.012,000,2.40
2011-11-16,0.013,0.013,0.012,0.012,49100,2.40
2011-11-15,0.015,0.015,0.014,0.014,21900,2.80
2011-11-14,0.015,0.016,0.015,0.015,3600,3.00
2011-11-10,0.015,0.016,0.015,0.016,100,3.20
2011-11-09,0.019,0.019,0.019,0.019,000,3.80
2011-11-03,0.02,0.02,0.019,0.019,1400,3.80
2011-11-01,0.022,0.022,0.022,0.022,000,4.40
2011-10-19,0.028,0.028,0.028,0.028,000,5.60
2011-10-18,0.028,0.028,0.028,0.028,000,5.60
2011-10-07,0.03,0.03,0.03,0.03,400,6.00
2011-10-06,0.03,0.03,0.03,0.03,100,6.00
2011-10-04,0.03,0.03,0.03,0.03,000,6.00
2011-09-30,0.022,0.022,0.022,0.022,000,4.40
2011-09-22,0.02,0.022,0.02,0.022,400,4.40
2011-09-15,0.028,0.028,0.028,0.028,000,5.60
2011-09-14,0.028,0.028,0.028,0.028,100,5.60
2011-09-13,0.028,0.028,0.028,0.028,300,5.60
2011-09-09,0.028,0.028,0.028,0.028,400,5.60
2011-09-05,0.032,0.032,0.028,0.028,100,5.60
2011-09-02,0.032,0.032,0.032,0.032,000,6.40
2011-08-31,0.032,0.032,0.032,0.032,000,6.40
2011-08-30,0.032,0.032,0.032,0.032,000,6.40
2011-08-26,0.03,0.03,0.03,0.03,000,6.00
2011-08-25,0.029,0.029,0.029,0.029,100,5.80
2011-08-24,0.025,0.025,0.025,0.025,000,5.00
2011-08-22,0.015,0.023,0.015,0.023,200,4.60
2011-08-18,0.025,0.025,0.025,0.025,000,5.00
2011-08-17,0.025,0.025,0.025,0.025,100,5.00
2011-08-16,0.026,0.026,0.026,0.026,000,5.20
2011-08-11,0.03,0.03,0.028,0.029,1900,5.80
2011-08-10,0.03,0.03,0.03,0.03,200,6.00
2011-08-09,0.03,0.03,0.03,0.03,1100,6.00
2011-08-01,0.033,0.033,0.031,0.031,4500,6.20
2011-07-28,0.031,0.031,0.031,0.031,000,6.20
2011-07-26,0.036,0.036,0.033,0.033,100,6.60
2011-07-21,0.032,0.032,0.032,0.032,000,6.40
2011-07-18,0.031,0.031,0.031,0.031,1300,6.20
2011-07-15,0.03,0.03,0.03,0.03,100,6.00
2011-07-13,0.031,0.031,0.031,0.031,300,6.20
2011-07-11,0.031,0.031,0.031,0.031,000,6.20
2011-07-08,0.031,0.031,0.031,0.031,000,6.20
2011-07-07,0.032,0.032,0.03,0.03,2900,6.00
2011-07-06,0.036,0.036,0.031,0.031,200,6.20
2011-06-24,0.038,0.038,0.038,0.038,000,7.60
2011-06-22,0.038,0.038,0.038,0.038,000,7.60
2011-06-21,0.038,0.038,0.038,0.038,200,7.60
2011-06-20,0.04,0.04,0.038,0.038,400,7.60
2011-06-17,0.041,0.041,0.04,0.04,200,8.00
2011-06-16,0.04,0.04,0.04,0.04,000,8.00
2011-06-15,0.04,0.04,0.04,0.04,100,8.00
2011-06-14,0.04,0.04,0.04,0.04,500,8.00
2011-06-01,0.04,0.04,0.04,0.04,000,8.00
2011-05-26,0.041,0.041,0.04,0.04,900,8.00
2011-05-25,0.041,0.041,0.041,0.041,000,8.20
2011-05-20,0.05,0.05,0.05,0.05,200,10.00
2011-05-19,0.055,0.055,0.05,0.055,1200,11.00
2011-05-18,0.053,0.053,0.05,0.05,600,10.00
2011-05-12,0.055,0.055,0.055,0.055,000,11.00
2011-05-11,0.055,0.055,0.055,0.055,800,11.00
2011-05-10,0.055,0.055,0.055,0.055,100,11.00
2011-05-05,0.052,0.052,0.052,0.052,000,10.40
2011-05-02,0.052,0.052,0.051,0.051,900,10.20
2011-04-28,0.051,0.051,0.051,0.051,000,10.20
2011-04-27,0.05,0.05,0.05,0.05,1200,10.00
2011-04-20,0.05,0.05,0.05,0.05,1000,10.00
2011-04-18,0.046,0.05,0.044,0.05,13200,10.00
2011-04-15,0.048,0.048,0.046,0.046,1100,9.20
2011-04-13,0.048,0.048,0.048,0.048,000,9.60
2011-04-12,0.048,0.048,0.048,0.048,100,9.60
2011-04-11,0.054,0.054,0.051,0.051,2200,10.20
2011-04-07,0.06,0.06,0.06,0.06,1400,12.00
2011-04-01,0.065,0.066,0.061,0.061,300,12.20
2011-03-31,0.062,0.065,0.059,0.06,1000,12.00
2011-03-30,0.053,0.06,0.053,0.06,1000,12.00
2011-03-28,0.046,0.048,0.046,0.048,300,9.60
2011-03-23,0.048,0.048,0.046,0.046,500,9.20
2011-03-22,0.048,0.048,0.048,0.048,500,9.60
2011-03-17,0.046,0.046,0.046,0.046,000,9.20
2011-03-15,0.046,0.046,0.046,0.046,000,9.20
2011-03-14,0.046,0.046,0.046,0.046,000,9.20
2011-03-11,0.052,0.052,0.052,0.052,200,10.40
2011-03-10,0.052,0.058,0.052,0.056,1000,11.20
2011-03-04,0.041,0.041,0.041,0.041,000,8.20
2011-02-28,0.041,0.041,0.041,0.041,200,8.20
2011-02-25,0.041,0.041,0.041,0.041,000,8.20
2011-02-24,0.041,0.041,0.041,0.041,500,8.20
2011-02-16,0.041,0.041,0.041,0.041,000,8.20
2011-02-15,0.042,0.042,0.041,0.041,500,8.20
2011-02-03,0.048,0.048,0.045,0.048,2600,9.60
2011-01-28,0.052,0.052,0.052,0.052,700,10.40
2011-01-21,0.053,0.053,0.05,0.05,1000,10.00
2011-01-19,0.053,0.053,0.053,0.053,000,10.60
2011-01-18,0.05,0.053,0.05,0.053,500,10.60
2011-01-17,0.047,0.05,0.047,0.05,1000,10.00
2011-01-13,0.049,0.05,0.049,0.05,1000,10.00
2011-01-10,0.042,0.05,0.042,0.05,1000,10.00
2010-12-24,0.04,0.04,0.04,0.04,000,8.00
2010-12-16,0.04,0.04,0.04,0.04,900,8.00
2010-12-13,0.045,0.045,0.045,0.045,000,9.00
2010-12-06,0.04,0.04,0.04,0.04,000,8.00
2010-12-03,0.04,0.04,0.04,0.04,7300,8.00
2010-11-29,0.05,0.05,0.05,0.05,100,10.00
2010-11-26,0.05,0.05,0.05,0.05,42800,10.00
2010-11-25,0.05,0.05,0.05,0.05,16100,10.00
2010-11-22,0.041,0.05,0.04,0.045,9300,9.00
2010-11-15,0.046,0.046,0.046,0.046,000,9.20
2010-11-12,0.05,0.05,0.046,0.046,100,9.20
2010-11-11,0.05,0.05,0.046,0.05,2900,10.00
2010-11-10,0.05,0.05,0.043,0.05,2700,10.00
2010-11-08,0.04,0.047,0.04,0.047,100,9.40
2010-11-05,0.041,0.041,0.04,0.04,2600,8.00
2010-11-04,0.041,0.041,0.041,0.041,600,8.20
2010-11-03,0.045,0.045,0.044,0.044,000,8.80
2010-11-02,0.045,0.05,0.045,0.05,000,10.00
2010-11-01,0.045,0.045,0.045,0.045,000,9.00
2010-10-28,0.05,0.05,0.05,0.05,000,10.00
2010-10-27,0.05,0.05,0.05,0.05,4000,10.00
2010-10-26,0.05,0.055,0.05,0.055,2500,11.00
2010-10-25,0.05,0.05,0.05,0.05,500,10.00
2010-10-22,0.044,0.044,0.044,0.044,600,8.80
2010-10-19,0.044,0.044,0.044,0.044,100,8.80
2010-10-13,0.043,0.043,0.043,0.043,000,8.60
2010-10-12,0.042,0.042,0.042,0.042,000,8.40
2010-10-08,0.05,0.05,0.042,0.042,400,8.40
2010-10-07,0.046,0.046,0.046,0.046,500,9.20
2010-10-04,0.048,0.048,0.048,0.048,000,9.60
2010-10-01,0.042,0.042,0.042,0.042,000,8.40
2010-09-24,0.045,0.045,0.042,0.042,200,8.40
2010-09-23,0.045,0.045,0.045,0.045,000,9.00
2010-09-22,0.046,0.05,0.042,0.043,2700,8.60
2010-09-21,0.045,0.046,0.045,0.046,700,9.20
2010-09-16,0.04,0.04,0.04,0.04,000,8.00
2010-09-10,0.04,0.04,0.04,0.04,200,8.00
2010-09-07,0.041,0.041,0.04,0.04,100,8.00
2010-08-30,0.041,0.041,0.041,0.041,000,8.20
2010-08-26,0.041,0.045,0.041,0.045,000,9.00
2010-08-19,0.045,0.045,0.045,0.045,700,9.00
2010-08-17,0.045,0.045,0.045,0.045,100,9.00
2010-08-13,0.045,0.045,0.045,0.045,000,9.00
2010-08-10,0.045,0.045,0.045,0.045,000,9.00
2010-08-05,0.045,0.045,0.045,0.045,700,9.00
2010-08-03,0.045,0.045,0.045,0.045,100,9.00
2010-07-26,0.041,0.041,0.041,0.041,100,8.20
2010-07-22,0.041,0.041,0.041,0.041,000,8.20
2010-07-21,0.041,0.041,0.04,0.04,000,8.00
2010-07-07,0.041,0.041,0.041,0.041,000,8.20
2010-06-29,0.041,0.041,0.041,0.041,100,8.20
2010-06-28,0.04,0.04,0.04,0.04,000,8.00
2010-06-25,0.055,0.055,0.04,0.04,000,8.00
2010-06-24,0.04,0.04,0.04,0.04,400,8.00
2010-06-23,0.055,0.055,0.04,0.04,000,8.00
2010-06-22,0.04,0.04,0.04,0.04,200,8.00
2010-06-21,0.04,0.04,0.04,0.04,000,8.00
2010-06-18,0.04,0.04,0.04,0.04,100,8.00
2010-06-17,0.04,0.04,0.033,0.033,000,6.60
2010-06-16,0.054,0.054,0.033,0.033,000,6.60
2010-06-15,0.033,0.033,0.033,0.033,400,6.60
2010-06-11,0.033,0.033,0.027,0.027,000,5.40
2010-06-10,0.033,0.033,0.025,0.025,000,5.00
2010-06-09,0.044,0.044,0.034,0.034,100,6.80
2010-06-08,0.035,0.035,0.035,0.035,000,7.00
2010-06-07,0.034,0.034,0.034,0.034,000,6.80
2010-06-04,0.035,0.035,0.034,0.034,000,6.80
2010-06-03,0.034,0.034,0.034,0.034,000,6.80
2010-06-02,0.035,0.035,0.034,0.034,000,6.80
2010-06-01,0.05,0.05,0.03,0.03,000,6.00
2010-05-31,0.05,0.05,0.03,0.03,000,6.00
2010-05-28,0.05,0.05,0.03,0.03,000,6.00
2010-05-27,0.05,0.05,0.034,0.034,000,6.80
2010-05-26,0.05,0.05,0.034,0.034,000,6.80
2010-05-25,0.05,0.05,0.035,0.035,000,7.00
2010-05-24,0.05,0.05,0.035,0.035,000,7.00
2010-05-21,0.035,0.035,0.035,0.035,100,7.00
2010-05-20,0.034,0.035,0.034,0.035,000,7.00
2010-05-19,0.035,0.035,0.035,0.035,100,7.00
2010-05-18,0.045,0.045,0.035,0.035,000,7.00
2010-05-17,0.045,0.045,0.035,0.035,000,7.00
2010-05-14,0.045,0.045,0.034,0.034,000,6.80
2010-05-13,0.033,0.033,0.033,0.033,000,6.60
2010-05-12,0.034,0.034,0.033,0.033,000,6.60
2010-05-11,0.045,0.045,0.032,0.032,000,6.40
2010-05-10,0.031,0.031,0.031,0.031,000,6.20
2010-05-07,0.03,0.03,0.03,0.03,000,6.00
2010-05-06,0.04,0.04,0.03,0.03,000,6.00
2010-05-05,0.05,0.05,0.05,0.05,000,10.00
2010-05-04,0.05,0.05,0.05,0.05,300,10.00
2010-05-03,0.05,0.05,0.027,0.027,000,5.40
2010-04-30,0.055,0.055,0.027,0.027,000,5.40
2010-04-29,0.055,0.055,0.045,0.045,000,9.00
2010-04-28,0.055,0.055,0.045,0.045,000,9.00
2010-04-27,0.055,0.055,0.055,0.055,000,11.00
2010-04-23,0.055,0.055,0.055,0.055,000,11.00
2010-04-22,0.055,0.055,0.051,0.051,000,10.20
2010-04-21,0.055,0.055,0.051,0.051,000,10.20
2010-04-20,0.055,0.055,0.051,0.051,000,10.20
2010-04-19,0.055,0.055,0.051,0.051,000,10.20
2010-04-16,0.051,0.051,0.051,0.051,000,10.20
2010-04-15,0.05,0.05,0.05,0.05,000,10.00
2010-04-14,0.059,0.059,0.045,0.045,000,9.00
2010-04-13,0.059,0.059,0.045,0.045,000,9.00
2010-04-12,0.059,0.059,0.045,0.045,000,9.00
2010-04-09,0.05,0.05,0.05,0.05,000,10.00
2010-04-08,0.046,0.046,0.046,0.046,000,9.20
2010-04-07,0.046,0.046,0.046,0.046,000,9.20
2010-04-06,0.045,0.045,0.045,0.045,000,9.00
2010-04-01,0.044,0.044,0.044,0.044,100,8.80
2010-03-31,0.044,0.044,0.044,0.044,000,8.80
2010-03-30,0.05,0.05,0.044,0.044,000,8.80
2010-03-29,0.05,0.05,0.044,0.044,000,8.80
2010-03-26,0.045,0.045,0.045,0.045,000,9.00
2010-03-25,0.044,0.044,0.044,0.044,100,8.80
2010-03-24,0.044,0.045,0.044,0.045,400,9.00
2010-03-23,0.045,0.045,0.045,0.045,1200,9.00
2010-03-22,0.044,0.045,0.044,0.045,400,9.00
2010-03-18,0.045,0.045,0.045,0.045,1300,9.00
2010-03-17,0.049,0.049,0.048,0.048,900,9.60
2010-03-16,0.049,0.049,0.049,0.049,000,9.80
2010-03-15,0.051,0.051,0.049,0.049,2000,9.80
2010-03-12,0.05,0.05,0.049,0.049,300,9.80
2010-03-11,0.05,0.05,0.05,0.05,000,10.00
2010-03-10,0.057,0.057,0.05,0.05,000,10.00
2010-03-05,0.06,0.06,0.048,0.048,000,9.60
2010-03-04,0.06,0.06,0.057,0.057,000,11.40
2010-03-02,0.069,0.069,0.057,0.057,000,11.40
2010-02-26,0.069,0.069,0.057,0.057,000,11.40
2010-02-25,0.069,0.069,0.057,0.057,000,11.40
2010-02-23,0.069,0.069,0.057,0.057,000,11.40
2010-02-22,0.069,0.069,0.057,0.057,000,11.40
2010-02-19,0.069,0.069,0.057,0.057,000,11.40
2010-02-17,0.058,0.058,0.057,0.057,600,11.40
2010-02-15,0.069,0.069,0.058,0.058,000,11.60
2010-02-12,0.069,0.069,0.06,0.06,000,12.00
2010-02-11,0.069,0.069,0.06,0.06,000,12.00
2010-02-10,0.062,0.062,0.058,0.058,1300,11.60
2010-02-09,0.07,0.07,0.062,0.062,000,12.40
2010-02-08,0.07,0.07,0.062,0.062,000,12.40
2010-02-05,0.07,0.07,0.062,0.062,000,12.40
2010-01-29,0.075,0.075,0.07,0.07,700,14.00
2010-01-28,0.10,0.10,0.075,0.075,000,15.00
2010-01-27,0.085,0.085,0.075,0.075,000,15.00
2010-01-22,0.085,0.085,0.073,0.073,000,14.60
2010-01-21,0.071,0.072,0.071,0.072,100,14.40
2010-01-18,0.085,0.085,0.071,0.071,000,14.20
2010-01-15,0.085,0.085,0.071,0.071,000,14.20
2010-01-14,0.085,0.085,0.071,0.071,000,14.20
2010-01-13,0.085,0.085,0.071,0.071,000,14.20
2010-01-12,0.085,0.085,0.071,0.071,000,14.20
2010-01-08,0.085,0.085,0.071,0.071,000,14.20
2010-01-07,0.085,0.085,0.071,0.071,000,14.20
2010-01-06,0.09,0.09,0.07,0.07,000,14.00
2010-01-05,0.09,0.09,0.07,0.07,000,14.00
2010-01-04,0.09,0.09,0.07,0.07,000,14.00
2009-12-31,0.09,0.09,0.07,0.07,000,14.00
2009-12-30,0.09,0.09,0.07,0.07,000,14.00
2009-12-24,0.09,0.09,0.07,0.07,000,14.00
2009-12-23,0.09,0.09,0.062,0.062,000,12.40
2009-12-21,0.07,0.07,0.062,0.062,000,12.40
2009-12-18,0.07,0.07,0.07,0.07,000,14.00
2009-12-17,0.07,0.07,0.062,0.062,000,12.40
2009-12-16,0.07,0.07,0.07,0.07,100,14.00
2009-12-14,0.082,0.082,0.08,0.08,1000,16.00
2009-12-11,0.09,0.09,0.09,0.09,000,18.00
2009-12-10,0.095,0.095,0.09,0.09,000,18.00
2009-12-09,0.12,0.12,0.09,0.09,000,18.00
2009-12-08,0.12,0.12,0.09,0.09,000,18.00
2009-12-07,0.12,0.12,0.09,0.09,000,18.00
2009-12-04,0.12,0.12,0.09,0.09,000,18.00
2009-12-03,0.12,0.12,0.09,0.09,000,18.00
2009-12-02,0.12,0.12,0.09,0.09,000,18.00
2009-12-01,0.12,0.12,0.09,0.09,000,18.00
2009-11-30,0.12,0.12,0.09,0.09,000,18.00
2009-11-27,0.09,0.09,0.09,0.09,000,18.00
2009-11-26,0.12,0.12,0.09,0.09,000,18.00
2009-11-25,0.091,0.091,0.08,0.08,000,16.00
2009-11-24,0.12,0.12,0.065,0.065,000,13.00
2009-11-23,0.19,0.19,0.065,0.065,000,13.00
2009-11-20,0.10,0.10,0.095,0.095,500,19.00
2009-11-19,0.10,0.10,0.09,0.09,000,18.00
2009-11-18,0.09,0.09,0.09,0.09,000,18.00
2009-11-16,0.08,0.08,0.08,0.08,000,16.00
2009-11-13,0.08,0.08,0.075,0.075,000,15.00
2009-11-12,0.08,0.08,0.075,0.075,000,15.00
2009-11-10,0.09,0.09,0.09,0.09,000,18.00
2009-11-09,0.085,0.085,0.075,0.075,000,15.00
2009-11-06,0.09,0.09,0.085,0.085,000,17.00
2009-11-05,0.085,0.085,0.085,0.085,000,17.00
2009-11-04,0.085,0.085,0.085,0.085,000,17.00
2009-11-03,0.085,0.085,0.085,0.085,000,17.00
2009-11-02,0.078,0.085,0.078,0.085,000,17.00
2009-10-30,0.09,0.095,0.09,0.095,200,19.00
2009-10-29,0.095,0.095,0.095,0.095,000,19.00
2009-10-28,0.10,0.10,0.10,0.10,000,20.00
2009-10-27,0.10,0.10,0.10,0.10,000,20.00
2009-10-26,0.10,0.12,0.10,0.10,1000,20.00
2009-10-23,0.062,0.062,0.062,0.062,000,12.40
2009-10-22,0.062,0.062,0.062,0.062,000,12.40
2009-10-21,0.062,0.062,0.062,0.062,000,12.40
2009-10-20,0.062,0.062,0.062,0.062,000,12.40
2009-10-19,0.062,0.062,0.062,0.062,000,12.40
2009-10-16,0.062,0.062,0.062,0.062,000,12.40
2009-10-15,0.066,0.066,0.066,0.066,000,13.20
2009-10-14,0.07,0.07,0.066,0.066,200,13.20
2009-10-13,0.08,0.08,0.08,0.08,000,16.00
2009-10-12,0.08,0.08,0.08,0.08,000,16.00
2009-10-09,0.08,0.08,0.08,0.08,000,16.00
2009-10-08,0.08,0.08,0.08,0.08,000,16.00
2009-10-07,0.08,0.08,0.08,0.08,000,16.00
2009-10-06,0.08,0.08,0.08,0.08,000,16.00
2009-10-05,0.08,0.08,0.08,0.08,000,16.00
2009-10-02,0.09,0.09,0.08,0.08,000,16.00
2009-10-01,0.08,0.08,0.08,0.08,000,16.00
2009-09-30,0.08,0.08,0.08,0.08,300,16.00
2009-09-29,0.08,0.08,0.08,0.08,000,16.00
2009-09-28,0.08,0.08,0.08,0.08,000,16.00
2009-09-25,0.08,0.08,0.08,0.08,200,16.00
2009-09-24,0.058,0.058,0.058,0.058,000,11.60
2009-09-23,0.058,0.058,0.058,0.058,100,11.60
2009-09-22,0.079,0.079,0.079,0.079,000,15.80
2009-09-21,0.079,0.079,0.079,0.079,000,15.80
2009-09-18,0.079,0.079,0.079,0.079,000,15.80
2009-09-17,0.079,0.079,0.079,0.079,000,15.80
2009-09-16,0.06,0.06,0.06,0.06,000,12.00
2009-09-15,0.06,0.06,0.06,0.06,000,12.00
2009-09-14,0.06,0.06,0.06,0.06,000,12.00
2009-09-11,0.06,0.06,0.06,0.06,000,12.00
2009-09-10,0.059,0.059,0.059,0.059,000,11.80
2009-09-09,0.059,0.059,0.059,0.059,000,11.80
2009-09-08,0.059,0.059,0.059,0.059,100,11.80
2009-09-07,0.059,0.059,0.059,0.059,100,11.80
2009-09-04,0.055,0.055,0.055,0.055,000,11.00
2009-09-03,0.055,0.055,0.055,0.055,000,11.00
2009-09-02,0.055,0.055,0.055,0.055,000,11.00
2009-09-01,0.059,0.059,0.059,0.059,000,11.80
2009-08-31,0.059,0.059,0.059,0.059,000,11.80
2009-08-28,0.059,0.059,0.059,0.059,000,11.80
2009-08-27,0.059,0.059,0.059,0.059,000,11.80
2009-08-26,0.059,0.059,0.059,0.059,000,11.80
2009-08-25,0.059,0.059,0.059,0.059,000,11.80
2009-08-24,0.059,0.059,0.059,0.059,000,11.80
2009-08-21,0.059,0.059,0.059,0.059,000,11.80
2009-08-20,0.05,0.05,0.05,0.05,000,10.00
2009-08-19,0.05,0.05,0.05,0.05,000,10.00
2009-08-18,0.05,0.05,0.05,0.05,000,10.00
2009-08-17,0.05,0.05,0.05,0.05,000,10.00
2009-08-14,0.05,0.05,0.05,0.05,000,10.00
2009-08-13,0.05,0.05,0.05,0.05,000,10.00
2009-08-12,0.05,0.05,0.05,0.05,000,10.00
2009-08-11,0.05,0.05,0.05,0.05,000,10.00
2009-08-10,0.05,0.05,0.05,0.05,000,10.00
2009-08-07,0.05,0.05,0.05,0.05,000,10.00
2009-08-06,0.05,0.05,0.05,0.05,000,10.00
2009-08-05,0.05,0.05,0.05,0.05,000,10.00
2009-08-04,0.05,0.05,0.05,0.05,000,10.00
2009-08-03,0.05,0.05,0.05,0.05,000,10.00
2009-07-31,0.05,0.05,0.05,0.05,000,10.00
2009-07-30,0.05,0.05,0.05,0.05,000,10.00
2009-07-29,0.05,0.05,0.05,0.05,000,10.00
2009-07-28,0.05,0.05,0.05,0.05,000,10.00
2009-07-27,0.05,0.05,0.05,0.05,000,10.00
2009-07-24,0.05,0.05,0.05,0.05,000,10.00
2009-07-23,0.05,0.05,0.05,0.05,000,10.00
2009-07-22,0.05,0.05,0.05,0.05,000,10.00
2009-07-21,0.05,0.05,0.05,0.05,000,10.00
2009-07-20,0.05,0.05,0.05,0.05,000,10.00
2009-07-17,0.05,0.05,0.05,0.05,000,10.00
2009-07-16,0.05,0.05,0.05,0.05,000,10.00
2009-07-15,0.05,0.05,0.05,0.05,000,10.00
2009-07-14,0.05,0.05,0.05,0.05,000,10.00
2009-07-13,0.05,0.05,0.05,0.05,000,10.00
2009-07-10,0.05,0.05,0.05,0.05,000,10.00
2009-07-09,0.05,0.05,0.05,0.05,100,10.00
2009-07-08,0.05,0.05,0.05,0.05,000,10.00
2009-07-07,0.05,0.05,0.05,0.05,000,10.00
2009-07-06,0.079,0.079,0.05,0.05,000,10.00
2009-07-03,0.079,0.079,0.05,0.05,000,10.00
2009-07-02,0.079,0.079,0.05,0.05,000,10.00
2009-07-01,0.05,0.05,0.05,0.05,200,10.00
2009-06-30,0.05,0.05,0.05,0.05,1800,10.00
2009-06-29,0.05,0.05,0.05,0.05,000,10.00
2009-06-26,0.079,0.079,0.05,0.05,000,10.00
2009-06-25,0.079,0.079,0.05,0.05,000,10.00
2009-06-24,0.05,0.05,0.05,0.05,100,10.00
2009-06-23,0.05,0.05,0.05,0.05,2400,10.00
2009-06-22,0.05,0.05,0.05,0.05,700,10.00
2009-06-19,0.079,0.079,0.05,0.05,000,10.00
2009-06-18,0.05,0.05,0.05,0.05,000,10.00
2009-06-17,0.05,0.05,0.05,0.05,000,10.00
2009-06-16,0.05,0.05,0.05,0.05,000,10.00
2009-06-15,0.05,0.05,0.05,0.05,000,10.00
2009-06-12,0.05,0.05,0.05,0.05,000,10.00
2009-06-11,0.05,0.05,0.05,0.05,200,10.00
2009-06-10,0.079,0.079,0.05,0.05,000,10.00
2009-06-09,0.05,0.05,0.05,0.05,000,10.00
2009-06-05,0.079,0.079,0.05,0.05,000,10.00
2009-06-04,0.05,0.05,0.05,0.05,000,10.00
2009-06-03,0.05,0.05,0.05,0.05,500,10.00
2009-06-02,0.079,0.079,0.05,0.05,000,10.00
2009-06-01,0.079,0.079,0.05,0.05,000,10.00
2009-05-29,0.05,0.05,0.05,0.05,000,10.00
2009-05-28,0.05,0.05,0.05,0.05,000,10.00
2009-05-27,0.079,0.079,0.05,0.05,000,10.00
2009-05-26,0.05,0.05,0.05,0.05,000,10.00
2009-05-25,0.085,0.085,0.085,0.085,000,17.00
2009-05-22,0.085,0.085,0.085,0.085,000,17.00
2009-05-21,0.085,0.085,0.085,0.085,000,17.00
2009-05-20,0.085,0.085,0.085,0.085,000,17.00
2009-05-19,0.085,0.085,0.085,0.085,000,17.00
2009-05-18,0.085,0.085,0.085,0.085,000,17.00
2009-05-15,0.085,0.085,0.085,0.085,000,17.00
2009-05-14,0.085,0.085,0.085,0.085,000,17.00
2009-05-13,0.085,0.085,0.085,0.085,000,17.00
2009-05-12,0.085,0.085,0.085,0.085,000,17.00
2009-05-11,0.105,0.105,0.085,0.085,000,17.00
2009-05-08,0.105,0.105,0.085,0.085,000,17.00
2009-05-07,0.085,0.085,0.085,0.085,000,17.00
2009-05-06,0.08,0.08,0.08,0.08,000,16.00
2009-05-05,0.08,0.08,0.08,0.08,000,16.00
2009-05-04,0.08,0.08,0.08,0.08,000,16.00
2009-05-01,0.08,0.08,0.08,0.08,000,16.00
2009-04-30,0.07,0.07,0.07,0.07,000,14.00
2009-04-29,0.07,0.07,0.07,0.07,000,14.00
2009-04-28,0.07,0.07,0.07,0.07,000,14.00
2009-04-27,0.08,0.08,0.07,0.07,000,14.00
2009-04-24,0.07,0.07,0.07,0.07,000,14.00
2009-04-23,0.08,0.08,0.07,0.07,000,14.00
2009-04-22,0.08,0.08,0.07,0.07,000,14.00
2009-04-21,0.08,0.08,0.07,0.07,000,14.00
2009-04-20,0.08,0.08,0.07,0.07,000,14.00
2009-04-17,0.07,0.07,0.07,0.07,000,14.00
2009-04-16,0.08,0.08,0.07,0.07,000,14.00
2009-04-15,0.07,0.07,0.07,0.07,000,14.00
2009-04-14,0.07,0.07,0.07,0.07,000,14.00
2009-04-09,0.07,0.07,0.07,0.07,000,14.00
2009-04-08,0.08,0.08,0.07,0.07,000,14.00
2009-04-07,0.08,0.08,0.07,0.07,000,14.00
2009-04-06,0.09,0.09,0.07,0.07,000,14.00
2009-04-03,0.07,0.07,0.07,0.07,000,14.00
2009-04-02,0.11,0.11,0.07,0.07,000,14.00
2009-04-01,0.11,0.11,0.07,0.07,000,14.00
2009-03-31,0.11,0.11,0.07,0.07,000,14.00
2009-03-30,0.11,0.11,0.07,0.07,000,14.00
2009-03-27,0.07,0.07,0.07,0.07,000,14.00
2009-03-26,0.11,0.11,0.07,0.07,000,14.00
2009-03-25,0.11,0.11,0.07,0.07,000,14.00
2009-03-24,0.07,0.07,0.07,0.07,000,14.00
2009-03-23,0.08,0.08,0.07,0.07,000,14.00
2009-03-20,0.07,0.07,0.07,0.07,000,14.00
2009-03-19,0.08,0.08,0.07,0.07,000,14.00
2009-03-18,0.08,0.08,0.07,0.07,000,14.00
2009-03-17,0.08,0.08,0.07,0.07,000,14.00
2009-03-16,0.08,0.08,0.07,0.07,000,14.00
2009-03-13,0.08,0.08,0.07,0.07,000,14.00
2009-03-12,0.08,0.08,0.07,0.07,000,14.00
2009-03-11,0.07,0.07,0.07,0.07,000,14.00
2009-03-10,0.07,0.07,0.07,0.07,000,14.00
2009-03-09,0.08,0.08,0.07,0.07,000,14.00
2009-03-06,0.07,0.07,0.07,0.07,000,14.00
2009-03-05,0.07,0.07,0.07,0.07,000,14.00
2009-03-04,0.07,0.07,0.07,0.07,000,14.00
2009-03-03,0.07,0.07,0.07,0.07,000,14.00
2009-03-02,0.08,0.08,0.07,0.07,000,14.00
2009-02-27,0.08,0.08,0.07,0.07,000,14.00
2009-02-26,0.08,0.08,0.07,0.07,000,14.00
2009-02-25,0.08,0.08,0.07,0.07,000,14.00
2009-02-24,0.10,0.10,0.07,0.07,000,14.00
2009-02-23,0.10,0.10,0.07,0.07,000,14.00
2009-02-20,0.07,0.07,0.07,0.07,000,14.00
2009-02-19,0.09,0.09,0.09,0.09,000,18.00
2009-02-18,0.10,0.10,0.09,0.09,000,18.00
2009-02-17,0.09,0.09,0.09,0.09,000,18.00
2009-02-16,0.10,0.10,0.09,0.09,000,18.00
2009-02-13,0.10,0.10,0.09,0.09,000,18.00
2009-02-12,0.10,0.10,0.09,0.09,000,18.00
2009-02-11,0.10,0.10,0.09,0.09,000,18.00
2009-02-10,0.10,0.10,0.09,0.09,000,18.00
2009-02-09,0.10,0.10,0.09,0.09,000,18.00
2009-02-06,0.10,0.10,0.09,0.09,000,18.00
2009-02-05,0.09,0.09,0.09,0.09,000,18.00
2009-02-04,0.10,0.10,0.10,0.10,000,20.00
2009-02-03,0.10,0.10,0.10,0.10,000,20.00
2009-02-02,0.11,0.11,0.10,0.10,000,20.00
2009-01-30,0.11,0.11,0.10,0.10,000,20.00
2009-01-29,0.11,0.11,0.10,0.10,000,20.00
2009-01-28,0.10,0.10,0.10,0.10,000,20.00
2009-01-27,0.10,0.10,0.10,0.10,000,20.00
2009-01-23,0.10,0.10,0.10,0.10,000,20.00
2009-01-22,0.10,0.10,0.10,0.10,000,20.00
2009-01-21,0.10,0.10,0.10,0.10,000,20.00
2009-01-20,0.11,0.11,0.10,0.10,000,20.00
2009-01-19,0.11,0.11,0.10,0.10,000,20.00
2009-01-16,0.11,0.11,0.10,0.10,000,20.00
2009-01-15,0.11,0.11,0.10,0.10,000,20.00
2009-01-14,0.11,0.11,0.10,0.10,000,20.00
2009-01-13,0.10,0.10,0.10,0.10,000,20.00
2009-01-12,0.11,0.11,0.10,0.10,000,20.00
2009-01-09,0.11,0.11,0.10,0.10,000,20.00
2009-01-08,0.11,0.11,0.10,0.10,000,20.00
2009-01-07,0.11,0.11,0.10,0.10,000,20.00
2009-01-06,0.11,0.11,0.10,0.10,000,20.00
2009-01-05,0.11,0.11,0.10,0.10,000,20.00
2009-01-02,0.11,0.11,0.10,0.10,000,20.00
2008-12-31,0.11,0.11,0.10,0.10,000,20.00
2008-12-30,0.11,0.11,0.10,0.10,000,20.00
2008-12-29,0.11,0.11,0.10,0.10,000,20.00
2008-12-24,0.11,0.11,0.10,0.10,000,20.00
2008-12-23,0.11,0.11,0.10,0.10,000,20.00
2008-12-22,0.10,0.10,0.10,0.10,000,20.00
2008-12-19,0.10,0.10,0.10,0.10,000,20.00
2008-12-18,0.11,0.11,0.10,0.10,000,20.00
2008-12-17,0.11,0.11,0.10,0.10,000,20.00
2008-12-16,0.10,0.10,0.10,0.10,000,20.00
2008-12-15,0.11,0.11,0.11,0.11,000,22.00
2008-12-12,0.11,0.11,0.11,0.11,000,22.00
2008-12-11,0.11,0.11,0.11,0.11,000,22.00
2008-12-10,0.11,0.11,0.11,0.11,000,22.00
2008-12-09,0.12,0.12,0.12,0.12,000,24.00
2008-12-08,0.12,0.12,0.12,0.12,000,24.00
2008-12-05,0.12,0.12,0.12,0.12,000,24.00
2008-12-04,0.12,0.12,0.12,0.12,000,24.00
2008-12-03,0.12,0.12,0.12,0.12,000,24.00
2008-12-02,0.12,0.12,0.12,0.12,000,24.00
2008-12-01,0.13,0.13,0.12,0.12,000,24.00
2008-11-28,0.12,0.12,0.12,0.12,000,24.00
2008-11-27,0.12,0.12,0.12,0.12,000,24.00
2008-11-26,0.12,0.12,0.12,0.12,000,24.00
2008-11-25,0.13,0.13,0.12,0.12,000,24.00
2008-11-24,0.13,0.13,0.12,0.12,000,24.00
2008-11-21,0.12,0.12,0.12,0.12,000,24.00
2008-11-20,0.12,0.12,0.12,0.12,000,24.00
2008-11-19,0.13,0.13,0.12,0.12,000,24.00
2008-11-18,0.12,0.12,0.12,0.12,000,24.00
2008-11-17,0.12,0.12,0.12,0.12,000,24.00
2008-11-14,0.12,0.12,0.12,0.12,000,24.00
2008-11-13,0.12,0.12,0.12,0.12,000,24.00
2008-11-12,0.125,0.125,0.12,0.12,000,24.00
2008-11-11,0.125,0.125,0.12,0.12,000,24.00
2008-11-10,0.13,0.13,0.12,0.12,000,24.00
2008-11-07,0.13,0.13,0.12,0.12,000,24.00
2008-11-06,0.13,0.13,0.12,0.12,000,24.00
2008-11-05,0.12,0.12,0.12,0.12,000,24.00
2008-11-04,0.12,0.12,0.12,0.12,000,24.00
2008-11-03,0.12,0.12,0.12,0.12,000,24.00
2008-10-31,0.13,0.13,0.12,0.12,000,24.00
2008-10-30,0.13,0.13,0.12,0.12,000,24.00
2008-10-29,0.135,0.135,0.12,0.12,000,24.00
2008-10-28,0.135,0.135,0.12,0.12,000,24.00
2008-10-27,0.135,0.135,0.12,0.12,000,24.00
2008-10-24,0.12,0.12,0.12,0.12,000,24.00
2008-10-23,0.12,0.12,0.12,0.12,000,24.00
2008-10-22,0.135,0.135,0.135,0.135,000,27.00
2008-10-21,0.13,0.135,0.13,0.135,000,27.00
2008-10-20,0.13,0.13,0.12,0.12,000,24.00
2008-10-17,0.12,0.12,0.12,0.12,000,24.00
2008-10-16,0.12,0.12,0.12,0.12,000,24.00
2008-10-15,0.13,0.13,0.12,0.12,000,24.00
2008-10-14,0.12,0.12,0.12,0.12,100,24.00
2008-10-13,0.13,0.13,0.12,0.12,000,24.00
2008-10-10,0.12,0.12,0.12,0.12,000,24.00
2008-10-09,0.125,0.125,0.12,0.12,500,24.00
2008-10-08,0.125,0.125,0.125,0.125,000,25.00
2008-10-07,0.14,0.14,0.14,0.14,000,28.00
2008-10-06,0.14,0.14,0.14,0.14,000,28.00
2008-10-03,0.14,0.14,0.14,0.14,300,28.00
2008-10-02,0.14,0.14,0.14,0.14,000,28.00
2008-10-01,0.14,0.14,0.14,0.14,000,28.00
2008-09-30,0.16,0.16,0.14,0.14,000,28.00
2008-09-29,0.13,0.13,0.13,0.13,000,26.00
2008-09-26,0.13,0.13,0.13,0.13,000,26.00
2008-09-25,0.13,0.13,0.12,0.12,000,24.00
2008-09-24,0.13,0.13,0.12,0.12,000,24.00
2008-09-23,0.13,0.13,0.12,0.12,000,24.00
2008-09-22,0.13,0.13,0.12,0.12,000,24.00
2008-09-19,0.13,0.13,0.12,0.12,000,24.00
2008-09-18,0.12,0.12,0.12,0.12,300,24.00
2008-09-17,0.125,0.125,0.12,0.12,000,24.00
2008-09-16,0.13,0.13,0.125,0.125,000,25.00
2008-09-15,0.13,0.13,0.125,0.125,000,25.00
2008-09-12,0.125,0.125,0.125,0.125,000,25.00
2008-09-11,0.125,0.125,0.125,0.125,000,25.00
2008-09-10,0.125,0.125,0.125,0.125,000,25.00
2008-09-09,0.13,0.13,0.125,0.125,000,25.00
2008-09-08,0.13,0.13,0.125,0.125,000,25.00
2008-09-05,0.13,0.13,0.125,0.125,000,25.00
2008-09-04,0.125,0.125,0.125,0.125,000,25.00
2008-09-03,0.125,0.125,0.125,0.125,000,25.00
2008-09-02,0.13,0.13,0.125,0.125,000,25.00
2008-09-01,0.13,0.13,0.125,0.125,000,25.00
2008-08-29,0.13,0.13,0.125,0.125,000,25.00
2008-08-28,0.125,0.125,0.125,0.125,000,25.00
2008-08-27,0.13,0.13,0.125,0.125,000,25.00
2008-08-26,0.12,0.12,0.12,0.12,000,24.00
2008-08-25,0.12,0.12,0.12,0.12,200,24.00
2008-08-22,0.13,0.13,0.12,0.12,200,24.00
2008-08-21,0.13,0.13,0.12,0.13,100,26.00
2008-08-20,0.13,0.13,0.12,0.13,200,26.00
2008-08-19,0.13,0.13,0.13,0.13,100,26.00
2008-08-18,0.13,0.13,0.13,0.13,000,26.00
2008-08-15,0.185,0.185,0.13,0.13,000,26.00
2008-08-14,0.185,0.185,0.13,0.13,000,26.00
2008-08-13,0.13,0.13,0.13,0.13,000,26.00
2008-08-12,0.14,0.14,0.13,0.13,000,26.00
2008-08-11,0.14,0.14,0.13,0.13,000,26.00
2008-08-08,0.14,0.14,0.13,0.13,000,26.00
2008-08-07,0.14,0.14,0.13,0.13,000,26.00
2008-08-06,0.14,0.14,0.13,0.13,000,26.00
2008-08-05,0.14,0.14,0.13,0.13,000,26.00
2008-08-04,0.13,0.13,0.13,0.13,000,26.00
2008-08-01,0.13,0.13,0.13,0.13,000,26.00
2008-07-31,0.13,0.13,0.13,0.13,000,26.00
2008-07-30,0.13,0.13,0.13,0.13,000,26.00
2008-07-29,0.13,0.13,0.13,0.13,000,26.00
2008-07-28,0.19,0.19,0.13,0.13,000,26.00
2008-07-25,0.13,0.13,0.13,0.13,000,26.00
2008-07-24,0.13,0.13,0.13,0.13,000,26.00
2008-07-23,0.19,0.19,0.13,0.13,000,26.00
2008-07-22,0.19,0.19,0.13,0.13,000,26.00
2008-07-21,0.13,0.13,0.13,0.13,000,26.00
2008-07-18,0.13,0.13,0.13,0.13,100,26.00
2008-07-17,0.13,0.13,0.13,0.13,000,26.00
2008-07-16,0.13,0.13,0.13,0.13,200,26.00
2008-07-15,0.13,0.13,0.13,0.13,000,26.00
2008-07-14,0.19,0.19,0.13,0.13,000,26.00
2008-07-11,0.19,0.19,0.13,0.13,000,26.00
2008-07-10,0.13,0.13,0.13,0.13,000,26.00
2008-07-09,0.14,0.14,0.12,0.12,000,24.00
2008-07-08,0.13,0.13,0.12,0.12,100,24.00
2008-07-07,0.14,0.14,0.13,0.13,000,26.00
2008-07-04,0.14,0.14,0.13,0.13,000,26.00
2008-07-03,0.14,0.14,0.13,0.13,000,26.00
2008-07-02,0.14,0.14,0.13,0.13,000,26.00
2008-07-01,0.14,0.14,0.13,0.13,000,26.00
2008-06-30,0.13,0.13,0.13,0.13,000,26.00
2008-06-27,0.13,0.13,0.13,0.13,000,26.00
2008-06-26,0.13,0.13,0.13,0.13,000,26.00
2008-06-25,0.135,0.135,0.13,0.13,000,26.00
2008-06-24,0.13,0.13,0.13,0.13,000,26.00
2008-06-23,0.12,0.13,0.12,0.13,100,26.00
2008-06-20,0.13,0.13,0.12,0.12,100,24.00
2008-06-19,0.14,0.14,0.13,0.13,000,26.00
2008-06-18,0.13,0.13,0.13,0.13,100,26.00
2008-06-17,0.14,0.14,0.13,0.13,000,26.00
2008-06-16,0.13,0.13,0.13,0.13,300,26.00
2008-06-13,0.13,0.13,0.13,0.13,400,26.00
2008-06-12,0.13,0.13,0.13,0.13,200,26.00
2008-06-11,0.13,0.13,0.13,0.13,200,26.00
2008-06-10,0.13,0.13,0.13,0.13,400,26.00
2008-06-06,0.13,0.13,0.13,0.13,100,26.00
2008-06-05,0.13,0.13,0.13,0.13,100,26.00
2008-06-04,0.13,0.13,0.13,0.13,100,26.00
2008-06-03,0.13,0.13,0.13,0.13,300,26.00
2008-06-02,0.13,0.13,0.13,0.13,100,26.00
2008-05-30,0.135,0.135,0.13,0.13,000,26.00
2008-05-29,0.13,0.13,0.13,0.13,000,26.00
2008-05-28,0.13,0.13,0.13,0.13,000,26.00
2008-05-27,0.14,0.14,0.125,0.125,700,25.00
2008-05-26,0.135,0.135,0.13,0.13,100,26.00
2008-05-23,0.13,0.13,0.13,0.13,000,26.00
2008-05-22,0.13,0.13,0.13,0.13,200,26.00
2008-05-21,0.14,0.14,0.13,0.13,000,26.00
2008-05-20,0.14,0.14,0.13,0.13,000,26.00
2008-05-19,0.13,0.13,0.13,0.13,000,26.00
2008-05-16,0.125,0.125,0.125,0.125,000,25.00
2008-05-15,0.125,0.125,0.125,0.125,000,25.00
2008-05-14,0.105,0.105,0.105,0.105,000,21.00
2008-05-13,0.13,0.13,0.105,0.105,000,21.00
2008-05-12,0.13,0.13,0.13,0.13,100,26.00
2008-05-09,0.14,0.14,0.14,0.14,000,28.00
2008-05-08,0.13,0.13,0.13,0.13,000,26.00
2008-05-07,0.13,0.13,0.12,0.12,200,24.00
2008-05-06,0.14,0.14,0.13,0.13,000,26.00
2008-05-05,0.13,0.13,0.13,0.13,500,26.00
2008-05-02,0.13,0.13,0.13,0.13,700,26.00
2008-05-01,0.13,0.13,0.13,0.13,700,26.00
2008-04-30,0.13,0.13,0.13,0.13,600,26.00
2008-04-29,0.13,0.13,0.13,0.13,600,26.00
2008-04-28,0.12,0.13,0.12,0.13,200,26.00
2008-04-24,0.105,0.105,0.105,0.105,000,21.00
2008-04-23,0.105,0.105,0.105,0.105,200,21.00
2008-04-22,0.105,0.105,0.105,0.105,000,21.00
2008-04-21,0.18,0.18,0.18,0.18,000,36.00
2008-04-18,0.18,0.18,0.18,0.18,000,36.00
2008-04-17,0.18,0.18,0.18,0.18,000,36.00
2008-04-16,0.18,0.18,0.18,0.18,000,36.00
2008-04-15,0.18,0.18,0.17,0.18,100,36.00
2008-04-14,0.18,0.18,0.18,0.18,100,36.00
2008-04-11,0.185,0.185,0.18,0.18,100,36.00
2008-04-10,0.185,0.185,0.185,0.185,100,37.00
2008-04-09,0.18,0.185,0.18,0.185,100,37.00
2008-04-08,0.185,0.185,0.18,0.18,100,36.00
2008-04-07,0.19,0.19,0.185,0.185,000,37.00
2008-04-04,0.19,0.19,0.185,0.185,000,37.00
2008-04-03,0.19,0.19,0.185,0.185,000,37.00
2008-04-02,0.185,0.185,0.185,0.185,000,37.00
2008-04-01,0.18,0.18,0.18,0.18,100,36.00
2008-03-31,0.19,0.19,0.19,0.19,200,38.00
2008-03-28,0.20,0.20,0.20,0.20,000,40.00
2008-03-27,0.20,0.20,0.20,0.20,100,40.00
2008-03-26,0.205,0.205,0.20,0.20,100,40.00
2008-03-25,0.205,0.205,0.205,0.205,000,41.00
2008-03-20,0.205,0.205,0.20,0.20,000,40.00
2008-03-19,0.20,0.20,0.20,0.20,000,40.00
2008-03-18,0.205,0.205,0.20,0.20,000,40.00
2008-03-17,0.20,0.20,0.195,0.20,000,40.00
2008-03-14,0.20,0.20,0.20,0.20,100,40.00
2008-03-13,0.20,0.20,0.20,0.20,200,40.00
2008-03-12,0.20,0.20,0.20,0.20,200,40.00
2008-03-11,0.20,0.20,0.20,0.20,300,40.00
2008-03-10,0.24,0.24,0.20,0.20,200,40.00
2008-03-07,0.235,0.235,0.235,0.235,100,47.00
2008-03-06,0.24,0.24,0.235,0.235,000,47.00
2008-03-05,0.235,0.235,0.235,0.235,100,47.00
2008-03-04,0.235,0.235,0.235,0.235,100,47.00
2008-03-03,0.24,0.24,0.235,0.235,000,47.00
2008-02-29,0.235,0.235,0.235,0.235,100,47.00
2008-02-28,0.235,0.235,0.235,0.235,000,47.00
2008-02-27,0.235,0.235,0.235,0.235,000,47.00
2008-02-26,0.235,0.235,0.235,0.235,000,47.00
2008-02-25,0.235,0.235,0.235,0.235,000,47.00
2008-02-22,0.245,0.245,0.235,0.235,000,47.00
2008-02-21,0.245,0.245,0.235,0.235,000,47.00
2008-02-20,0.24,0.24,0.235,0.235,200,47.00
2008-02-19,0.245,0.245,0.24,0.24,000,48.00
2008-02-18,0.24,0.24,0.23,0.24,100,48.00
2008-02-15,0.23,0.24,0.23,0.24,100,48.00
2008-02-14,0.24,0.24,0.24,0.24,000,48.00
2008-02-13,0.24,0.24,0.24,0.24,000,48.00
2008-02-12,0.24,0.24,0.24,0.24,000,48.00
2008-02-11,0.25,0.25,0.24,0.24,100,48.00
2008-02-08,0.25,0.25,0.25,0.25,100,50.00
2008-02-07,0.25,0.25,0.25,0.25,100,50.00
2008-02-06,0.25,0.25,0.25,0.25,000,50.00
2008-02-05,0.25,0.25,0.25,0.25,000,50.00
2008-02-04,0.25,0.25,0.25,0.25,100,50.00
2008-02-01,0.25,0.25,0.25,0.25,000,50.00
2008-01-31,0.25,0.25,0.25,0.25,000,50.00
2008-01-30,0.25,0.25,0.25,0.25,100,50.00
2008-01-29,0.25,0.25,0.25,0.25,000,50.00
2008-01-25,0.25,0.25,0.25,0.25,000,50.00
2008-01-24,0.255,0.255,0.255,0.255,000,51.00
2008-01-23,0.25,0.25,0.25,0.25,000,50.00
2008-01-22,0.27,0.27,0.255,0.255,000,51.00
2008-01-21,0.28,0.28,0.27,0.27,000,54.00
2008-01-18,0.28,0.28,0.27,0.27,000,54.00
2008-01-17,0.28,0.28,0.27,0.27,000,54.00
2008-01-16,0.28,0.28,0.27,0.27,000,54.00
2008-01-15,0.28,0.28,0.27,0.27,000,54.00
2008-01-14,0.28,0.28,0.27,0.27,000,54.00
2008-01-11,0.27,0.27,0.27,0.27,100,54.00
2008-01-10,0.27,0.27,0.27,0.27,100,54.00
2008-01-09,0.29,0.29,0.255,0.255,300,51.00
2008-01-08,0.29,0.29,0.285,0.285,100,57.00
2008-01-07,0.30,0.30,0.29,0.29,000,58.00
2008-01-04,0.29,0.29,0.29,0.29,000,58.00
2008-01-03,0.29,0.29,0.29,0.29,000,58.00
2008-01-02,0.285,0.29,0.285,0.29,300,58.00
2007-12-31,0.285,0.285,0.285,0.285,000,57.00
2007-12-28,0.285,0.285,0.285,0.285,000,57.00
2007-12-27,0.29,0.29,0.285,0.285,000,57.00
2007-12-24,0.285,0.285,0.285,0.285,000,57.00
2007-12-21,0.285,0.285,0.285,0.285,400,57.00
2007-12-20,0.285,0.285,0.285,0.285,000,57.00
2007-12-19,0.29,0.29,0.285,0.285,000,57.00
2007-12-18,0.29,0.29,0.29,0.29,1100,58.00
2007-12-17,0.29,0.29,0.29,0.29,200,58.00
2007-12-14,0.30,0.30,0.29,0.29,000,58.00
2007-12-13,0.30,0.30,0.29,0.29,000,58.00
2007-12-12,0.295,0.295,0.29,0.29,100,58.00
2007-12-11,0.295,0.295,0.295,0.295,000,59.00
2007-12-10,0.295,0.295,0.295,0.295,000,59.00
2007-12-07,0.30,0.30,0.295,0.295,000,59.00
2007-12-06,0.30,0.30,0.295,0.295,000,59.00
2007-12-05,0.29,0.29,0.29,0.29,300,58.00
2007-12-04,0.29,0.29,0.29,0.29,200,58.00
2007-12-03,0.29,0.29,0.29,0.29,000,58.00
2007-11-30,0.29,0.29,0.25,0.29,300,58.00
2007-11-29,0.29,0.29,0.29,0.29,000,58.00
2007-11-28,0.29,0.29,0.29,0.29,200,58.00
2007-11-27,0.30,0.30,0.30,0.30,000,60.00
2007-11-26,0.30,0.30,0.30,0.30,000,60.00
2007-11-23,0.30,0.30,0.30,0.30,000,60.00
2007-11-22,0.30,0.30,0.30,0.30,000,60.00
2007-11-21,0.30,0.30,0.30,0.30,000,60.00
2007-11-20,0.30,0.30,0.30,0.30,000,60.00
2007-11-19,0.30,0.30,0.30,0.30,000,60.00
2007-11-16,0.305,0.305,0.30,0.30,000,60.00
2007-11-15,0.30,0.30,0.30,0.30,000,60.00
2007-11-14,0.31,0.31,0.30,0.30,000,60.00
2007-11-13,0.30,0.30,0.30,0.30,000,60.00
2007-11-12,0.30,0.30,0.30,0.30,000,60.00
2007-11-09,0.30,0.30,0.30,0.30,000,60.00
2007-11-08,0.30,0.30,0.30,0.30,000,60.00
2007-11-07,0.30,0.30,0.30,0.30,300,60.00
2007-11-06,0.305,0.305,0.30,0.30,200,60.00
2007-11-05,0.30,0.30,0.30,0.30,000,60.00
2007-11-02,0.31,0.31,0.30,0.30,000,60.00
2007-11-01,0.30,0.30,0.30,0.30,100,60.00
2007-10-31,0.31,0.31,0.30,0.30,000,60.00
2007-10-30,0.30,0.30,0.29,0.30,400,60.00
2007-10-29,0.30,0.30,0.30,0.30,000,60.00
2007-10-26,0.31,0.31,0.305,0.31,200,62.00
2007-10-25,0.30,0.30,0.30,0.30,800,60.00
2007-10-24,0.30,0.30,0.30,0.30,400,60.00
2007-10-23,0.30,0.30,0.30,0.30,700,60.00
2007-10-22,0.30,0.30,0.30,0.30,000,60.00
2007-10-19,0.30,0.30,0.30,0.30,100,60.00
2007-10-18,0.30,0.30,0.30,0.30,000,60.00
2007-10-17,0.305,0.305,0.305,0.305,000,61.00
2007-10-16,0.305,0.305,0.305,0.305,000,61.00
2007-10-15,0.30,0.30,0.30,0.30,000,60.00
2007-10-12,0.30,0.30,0.30,0.30,200,60.00
2007-10-11,0.30,0.30,0.30,0.30,500,60.00
2007-10-10,0.30,0.30,0.30,0.30,000,60.00
2007-10-09,0.31,0.31,0.31,0.31,1000,62.00
2007-10-08,0.31,0.31,0.31,0.31,100,62.00
2007-10-05,0.31,0.31,0.31,0.31,000,62.00
2007-10-04,0.31,0.31,0.31,0.31,100,62.00
2007-10-03,0.32,0.32,0.31,0.31,000,62.00
2007-10-02,0.32,0.32,0.31,0.31,200,62.00
2007-10-01,0.31,0.31,0.31,0.31,300,62.00
2007-09-28,0.31,0.32,0.31,0.32,300,64.00
2007-09-27,0.31,0.31,0.31,0.31,000,62.00
2007-09-26,0.31,0.31,0.31,0.31,000,62.00
2007-09-25,0.32,0.32,0.31,0.31,100,62.00
2007-09-24,0.32,0.32,0.32,0.32,000,64.00
2007-09-21,0.325,0.325,0.32,0.32,000,64.00
2007-09-20,0.32,0.32,0.32,0.32,200,64.00
2007-09-19,0.32,0.32,0.31,0.31,000,62.00
2007-09-18,0.30,0.32,0.30,0.30,100,60.00
2007-09-17,0.315,0.315,0.30,0.30,000,60.00
2007-09-14,0.315,0.315,0.30,0.30,000,60.00
2007-09-13,0.315,0.315,0.30,0.30,600,60.00
2007-09-12,0.32,0.32,0.315,0.315,000,63.00
2007-09-11,0.32,0.32,0.315,0.315,000,63.00
2007-09-10,0.32,0.32,0.315,0.315,000,63.00
2007-09-07,0.32,0.32,0.32,0.32,100,64.00
2007-09-06,0.31,0.31,0.31,0.31,000,62.00
2007-09-05,0.31,0.31,0.31,0.31,000,62.00
2007-09-04,0.295,0.31,0.295,0.31,1000,62.00
2007-09-03,0.295,0.295,0.295,0.295,100,59.00
2007-08-31,0.295,0.295,0.295,0.295,100,59.00
2007-08-30,0.295,0.30,0.29,0.30,500,60.00
2007-08-29,0.295,0.295,0.295,0.295,900,59.00
2007-08-28,0.295,0.30,0.295,0.30,200,60.00
2007-08-27,0.30,0.30,0.295,0.295,700,59.00
2007-08-24,0.30,0.30,0.30,0.30,100,60.00
2007-08-23,0.30,0.30,0.30,0.30,100,60.00
2007-08-22,0.30,0.31,0.30,0.31,700,62.00
2007-08-21,0.31,0.31,0.30,0.30,2400,60.00
2007-08-20,0.31,0.315,0.31,0.31,100,62.00
2007-08-17,0.32,0.32,0.31,0.31,1300,62.00
2007-08-16,0.31,0.315,0.31,0.31,800,62.00
2007-08-15,0.32,0.32,0.31,0.31,1000,62.00
2007-08-14,0.305,0.33,0.305,0.33,200,66.00
2007-08-13,0.31,0.31,0.305,0.305,200,61.00
2007-08-10,0.33,0.33,0.31,0.31,300,62.00
2007-08-09,0.30,0.33,0.30,0.33,400,66.00
2007-08-08,0.32,0.32,0.30,0.30,300,60.00
2007-08-07,0.28,0.32,0.28,0.32,900,64.00
2007-08-06,0.32,0.32,0.28,0.28,300,56.00
2007-08-03,0.28,0.32,0.28,0.32,1100,64.00
2007-08-02,0.29,0.29,0.23,0.25,25900,50.00
