Date,Open,High,Low,Close,Volume,Adj Close
2017-01-10,0.33,0.33,0.33,0.33,000,0.33
2017-01-09,0.33,0.33,0.33,0.33,000,0.33
2017-01-06,0.33,0.33,0.33,0.33,000,0.33
2017-01-05,0.33,0.33,0.33,0.33,000,0.33
2017-01-04,0.33,0.33,0.33,0.33,000,0.33
2017-01-03,0.33,0.33,0.33,0.33,000,0.33
2017-01-02,0.33,0.33,0.33,0.33,000,0.33
2016-12-30,0.33,0.33,0.33,0.33,000,0.33
2016-12-29,0.33,0.33,0.33,0.33,000,0.33
2016-12-28,0.33,0.33,0.33,0.33,000,0.33
2016-12-27,0.33,0.33,0.33,0.33,000,0.33
2016-12-26,0.33,0.33,0.33,0.33,000,0.33
2016-12-23,0.33,0.33,0.33,0.33,000,0.33
2016-12-22,0.33,0.33,0.33,0.33,000,0.33
2016-12-21,0.33,0.33,0.33,0.33,000,0.33
2016-12-20,0.33,0.33,0.33,0.33,000,0.33
2016-12-19,0.33,0.33,0.33,0.33,000,0.33
2016-12-16,0.31,0.33,0.31,0.33,80000,0.33
2016-12-15,0.33,0.33,0.33,0.33,000,0.33
2016-12-14,0.33,0.33,0.33,0.33,000,0.33
2016-12-13,0.33,0.33,0.33,0.33,000,0.33
2016-12-12,0.33,0.33,0.33,0.33,000,0.33
2016-12-09,0.33,0.33,0.33,0.33,000,0.33
2016-12-08,0.33,0.33,0.33,0.33,000,0.33
2016-12-07,0.33,0.33,0.33,0.33,000,0.33
2016-12-06,0.33,0.33,0.33,0.33,000,0.33
2016-12-05,0.33,0.33,0.33,0.33,000,0.33
2016-12-02,0.33,0.33,0.33,0.33,000,0.33
2016-12-01,0.33,0.33,0.33,0.33,000,0.33
2016-11-30,0.33,0.33,0.33,0.33,000,0.33
2016-11-29,0.33,0.33,0.33,0.33,000,0.33
2016-11-28,0.315,0.33,0.315,0.33,39400,0.33
2016-11-25,0.33,0.33,0.33,0.33,000,0.33
2016-11-24,0.33,0.33,0.33,0.33,000,0.33
2016-11-23,0.33,0.33,0.33,0.33,000,0.33
2016-11-22,0.33,0.33,0.33,0.33,000,0.33
2016-11-21,0.33,0.33,0.33,0.33,000,0.33
2016-11-18,0.33,0.33,0.33,0.33,000,0.33
2016-11-17,0.33,0.33,0.33,0.33,000,0.33
2016-11-16,0.33,0.33,0.33,0.33,000,0.33
2016-11-15,0.31,0.33,0.31,0.33,30300,0.33
2016-11-14,0.33,0.33,0.33,0.33,000,0.33
2016-11-11,0.33,0.33,0.33,0.33,000,0.33
2016-11-10,0.30,0.33,0.30,0.33,51000,0.33
2016-11-09,0.33,0.33,0.33,0.33,000,0.33
2016-11-08,0.33,0.33,0.33,0.33,000,0.33
2016-11-07,0.33,0.33,0.33,0.33,000,0.33
2016-11-04,0.33,0.33,0.33,0.33,000,0.33
2016-11-03,0.33,0.33,0.33,0.33,000,0.33
2016-11-02,0.33,0.33,0.33,0.33,000,0.33
2016-11-01,0.33,0.33,0.33,0.33,000,0.33
2016-10-31,0.33,0.33,0.33,0.33,000,0.33
2016-10-28,0.29,0.33,0.29,0.33,107000,0.33
2016-10-27,0.32,0.32,0.32,0.32,000,0.32
2016-10-26,0.32,0.32,0.32,0.32,7000,0.32
2016-10-25,0.30,0.305,0.30,0.305,30600,0.305
2016-10-24,0.295,0.305,0.29,0.30,59900,0.30
2016-10-21,0.295,0.295,0.295,0.295,000,0.295
2016-10-20,0.295,0.295,0.295,0.295,000,0.295
2016-10-19,0.295,0.295,0.295,0.295,000,0.295
2016-10-18,0.295,0.295,0.295,0.295,3000,0.295
2016-10-17,0.24,0.295,0.24,0.295,127000,0.295
2016-10-14,0.295,0.295,0.295,0.295,000,0.295
2016-10-13,0.295,0.295,0.295,0.295,000,0.295
2016-10-12,0.295,0.295,0.295,0.295,000,0.295
2016-10-11,0.295,0.295,0.295,0.295,000,0.295
2016-10-10,0.295,0.295,0.295,0.295,000,0.295
2016-10-07,0.295,0.295,0.295,0.295,000,0.295
2016-10-06,0.295,0.295,0.295,0.295,000,0.295
2016-10-05,0.295,0.295,0.295,0.295,000,0.295
2016-10-04,0.295,0.295,0.295,0.295,000,0.295
2016-10-03,0.295,0.295,0.295,0.295,000,0.295
2016-09-30,0.295,0.295,0.295,0.295,000,0.295
2016-09-29,0.295,0.295,0.295,0.295,000,0.295
2016-09-28,0.295,0.295,0.295,0.295,000,0.295
2016-09-27,0.295,0.295,0.295,0.295,000,0.295
2016-09-26,0.295,0.295,0.295,0.295,000,0.295
2016-09-23,0.295,0.295,0.295,0.295,000,0.295
2016-09-22,0.295,0.295,0.295,0.295,000,0.295
2016-09-21,0.295,0.295,0.295,0.295,000,0.295
2016-09-20,0.295,0.295,0.295,0.295,000,0.295
2016-09-19,0.295,0.295,0.295,0.295,000,0.295
2016-09-16,0.295,0.295,0.295,0.295,000,0.295
2016-09-15,0.295,0.295,0.295,0.295,000,0.295
2016-09-14,0.295,0.295,0.295,0.295,000,0.295
2016-09-13,0.295,0.295,0.295,0.295,000,0.295
2016-09-12,0.295,0.295,0.295,0.295,000,0.295
2016-09-09,0.295,0.295,0.295,0.295,000,0.295
2016-09-08,0.295,0.295,0.295,0.295,000,0.295
2016-09-07,0.295,0.295,0.295,0.295,000,0.295
2016-09-06,0.295,0.295,0.295,0.295,000,0.295
2016-09-05,0.295,0.295,0.295,0.295,000,0.295
2016-09-02,0.295,0.295,0.295,0.295,000,0.295
2016-09-01,0.295,0.295,0.295,0.295,000,0.295
2016-08-31,0.29,0.295,0.29,0.295,22000,0.295
2016-08-30,0.295,0.295,0.295,0.295,000,0.295
2016-08-29,0.295,0.295,0.295,0.295,000,0.295
2016-08-26,0.295,0.295,0.295,0.295,000,0.295
2016-08-25,0.295,0.295,0.295,0.295,000,0.295
2016-08-24,0.295,0.295,0.295,0.295,000,0.295
2016-08-23,0.295,0.295,0.295,0.295,000,0.295
2016-08-22,0.295,0.295,0.295,0.295,000,0.295
2016-08-19,0.295,0.295,0.295,0.295,000,0.295
2016-08-18,0.295,0.295,0.295,0.295,000,0.295
2016-08-17,0.295,0.295,0.295,0.295,000,0.295
2016-08-16,0.295,0.295,0.295,0.295,000,0.295
2016-08-15,0.295,0.295,0.295,0.295,000,0.295
2016-08-12,0.295,0.295,0.295,0.295,000,0.295
2016-08-11,0.295,0.295,0.295,0.295,000,0.295
2016-08-10,0.295,0.295,0.295,0.295,000,0.295
2016-08-09,0.295,0.295,0.295,0.295,000,0.295
2016-08-08,0.295,0.295,0.295,0.295,000,0.295
2016-08-05,0.295,0.295,0.295,0.295,000,0.295
2016-08-04,0.295,0.295,0.295,0.295,000,0.295
2016-08-03,0.295,0.295,0.295,0.295,000,0.295
2016-08-02,0.295,0.295,0.295,0.295,000,0.295
2016-08-01,0.295,0.295,0.295,0.295,000,0.295
2016-07-29,0.295,0.295,0.295,0.295,000,0.295
2016-07-28,0.295,0.295,0.295,0.295,000,0.295
2016-07-27,0.295,0.295,0.295,0.295,000,0.295
2016-07-26,0.295,0.295,0.295,0.295,000,0.295
2016-07-25,0.295,0.295,0.295,0.295,000,0.295
2016-07-22,0.295,0.295,0.295,0.295,000,0.295
2016-07-21,0.295,0.295,0.295,0.295,5000,0.295
2016-07-20,0.29,0.29,0.29,0.29,000,0.29
2016-07-19,0.29,0.29,0.29,0.29,000,0.29
2016-07-18,0.29,0.29,0.29,0.29,000,0.29
2016-07-15,0.29,0.29,0.29,0.29,10000,0.29
2016-07-14,0.295,0.295,0.295,0.295,000,0.295
2016-07-13,0.295,0.295,0.295,0.295,000,0.295
2016-07-12,0.295,0.295,0.295,0.295,000,0.295
2016-07-11,0.295,0.295,0.295,0.295,000,0.295
2016-07-08,0.295,0.295,0.295,0.295,000,0.295
2016-07-07,0.295,0.295,0.295,0.295,000,0.295
2016-07-06,0.295,0.295,0.295,0.295,000,0.295
2016-07-05,0.295,0.295,0.295,0.295,000,0.295
2016-07-04,0.295,0.295,0.295,0.295,000,0.295
2016-07-01,0.29,0.295,0.29,0.295,6000,0.295
2016-06-30,0.29,0.29,0.29,0.29,000,0.29
2016-06-29,0.29,0.29,0.29,0.29,000,0.29
2016-06-28,0.29,0.29,0.29,0.29,000,0.29
2016-06-27,0.29,0.29,0.29,0.29,000,0.29
2016-06-24,0.28,0.29,0.28,0.29,26300,0.29
2016-06-23,0.30,0.30,0.30,0.30,000,0.30
2016-06-22,0.30,0.30,0.30,0.30,000,0.30
2016-06-21,0.30,0.30,0.30,0.30,000,0.30
2016-06-20,0.30,0.30,0.30,0.30,000,0.30
2016-06-17,0.30,0.30,0.30,0.30,000,0.30
2016-06-16,0.30,0.30,0.30,0.30,000,0.30
2016-06-15,0.30,0.30,0.30,0.30,000,0.30
2016-06-14,0.30,0.30,0.30,0.30,000,0.30
2016-06-13,0.30,0.30,0.30,0.30,000,0.30
2016-06-10,0.30,0.30,0.30,0.30,000,0.30
2016-06-09,0.30,0.30,0.30,0.30,000,0.30
2016-06-08,0.30,0.30,0.30,0.30,000,0.30
2016-06-07,0.30,0.30,0.30,0.30,000,0.30
2016-06-06,0.30,0.30,0.30,0.30,000,0.30
2016-06-03,0.30,0.30,0.30,0.30,000,0.30
2016-06-02,0.30,0.30,0.30,0.30,000,0.30
2016-06-01,0.30,0.30,0.30,0.30,000,0.30
2016-05-31,0.30,0.30,0.30,0.30,000,0.30
2016-05-30,0.30,0.30,0.30,0.30,000,0.30
2016-05-27,0.30,0.30,0.30,0.30,000,0.30
2016-05-26,0.29,0.30,0.28,0.30,69300,0.30
2016-05-25,0.30,0.30,0.29,0.30,73100,0.30
2016-05-24,0.29,0.30,0.29,0.30,20500,0.30
2016-05-23,0.29,0.30,0.29,0.30,4000,0.30
2016-05-20,0.30,0.305,0.30,0.305,8200,0.305
2016-05-19,0.29,0.31,0.29,0.29,87500,0.29
2016-05-18,0.29,0.31,0.29,0.31,84300,0.31
2016-05-17,0.29,0.30,0.29,0.30,66000,0.30
2016-05-16,0.29,0.29,0.29,0.29,11000,0.29
2016-05-13,0.27,0.30,0.26,0.26,36200,0.26
2016-05-12,0.24,0.24,0.24,0.24,000,0.24
2016-05-11,0.21,0.24,0.21,0.24,108300,0.24
2016-05-10,0.305,0.305,0.305,0.305,000,0.305
2016-05-09,0.305,0.305,0.305,0.305,000,0.305
2016-05-06,0.305,0.305,0.305,0.305,000,0.305
2016-05-05,0.305,0.305,0.305,0.305,000,0.305
2016-05-04,0.305,0.305,0.305,0.305,000,0.305
2016-05-03,0.305,0.305,0.305,0.305,000,0.305
2016-05-02,0.305,0.305,0.305,0.305,000,0.305
2016-04-29,0.305,0.305,0.305,0.305,000,0.305
2016-04-28,0.305,0.305,0.305,0.305,000,0.305
2016-04-27,0.305,0.305,0.305,0.305,000,0.305
2016-04-26,0.305,0.305,0.305,0.305,000,0.305
2016-04-25,0.305,0.305,0.305,0.305,000,0.305
2016-04-22,0.305,0.305,0.305,0.305,000,0.305
2016-04-21,0.305,0.305,0.305,0.305,000,0.305
2016-04-20,0.305,0.305,0.305,0.305,000,0.305
2016-04-19,0.305,0.305,0.305,0.305,000,0.305
2016-04-18,0.305,0.305,0.305,0.305,000,0.305
2016-04-15,0.305,0.305,0.305,0.305,000,0.305
2016-04-14,0.305,0.305,0.305,0.305,000,0.305
2016-04-13,0.305,0.305,0.305,0.305,000,0.305
2016-04-12,0.305,0.305,0.305,0.305,000,0.305
2016-04-11,0.305,0.305,0.305,0.305,000,0.305
2016-04-08,0.305,0.305,0.305,0.305,000,0.305
2016-04-07,0.305,0.305,0.305,0.305,000,0.305
2016-04-06,0.305,0.305,0.305,0.305,000,0.305
2016-04-05,0.305,0.305,0.305,0.305,000,0.305
2016-04-04,0.305,0.305,0.305,0.305,000,0.305
2016-04-01,0.305,0.305,0.305,0.305,000,0.305
2016-03-31,0.305,0.305,0.305,0.305,6600,0.305
2016-03-30,0.28,0.31,0.28,0.31,40000,0.31
2016-03-29,0.30,0.30,0.30,0.30,10000,0.30
2016-03-28,0.305,0.305,0.305,0.305,000,0.305
2016-03-25,0.305,0.305,0.305,0.305,000,0.305
2016-03-24,0.305,0.305,0.305,0.305,000,0.305
2016-03-23,0.305,0.305,0.305,0.305,000,0.305
2016-03-22,0.305,0.305,0.305,0.305,000,0.305
2016-03-21,0.305,0.305,0.305,0.305,000,0.305
2016-03-18,0.305,0.305,0.305,0.305,000,0.305
2016-03-17,0.28,0.305,0.28,0.305,11700,0.305
2016-03-16,0.30,0.30,0.30,0.30,000,0.30
2016-03-15,0.305,0.305,0.30,0.30,15000,0.30
2016-03-14,0.305,0.305,0.305,0.305,000,0.305
2016-03-11,0.29,0.305,0.29,0.305,44300,0.305
2016-03-10,0.295,0.295,0.295,0.295,000,0.295
2016-03-09,0.295,0.295,0.295,0.295,000,0.295
2016-03-08,0.28,0.295,0.28,0.295,7100,0.295
2016-03-07,0.28,0.30,0.28,0.30,28600,0.30
2016-03-04,0.31,0.31,0.31,0.31,000,0.31
2016-03-03,0.28,0.31,0.28,0.31,8600,0.31
2016-03-02,0.30,0.30,0.30,0.30,000,0.30
2016-03-01,0.30,0.30,0.30,0.30,000,0.30
2016-02-29,0.30,0.30,0.30,0.30,000,0.30
2016-02-26,0.30,0.30,0.30,0.30,000,0.30
2016-02-25,0.30,0.30,0.30,0.30,000,0.30
2016-02-24,0.30,0.30,0.30,0.30,000,0.30
2016-02-23,0.30,0.30,0.30,0.30,000,0.30
2016-02-22,0.30,0.30,0.30,0.30,000,0.30
2016-02-19,0.30,0.30,0.30,0.30,3300,0.30
2016-02-18,0.34,0.34,0.34,0.34,000,0.34
2016-02-17,0.34,0.34,0.34,0.34,000,0.34
2016-02-16,0.34,0.34,0.34,0.34,000,0.34
2016-02-15,0.32,0.34,0.32,0.34,114600,0.34
2016-02-12,0.35,0.35,0.35,0.35,000,0.35
2016-02-11,0.35,0.35,0.35,0.35,000,0.35
2016-02-10,0.325,0.35,0.325,0.35,173600,0.35
2016-02-09,0.30,0.30,0.30,0.30,4600,0.30
2016-02-08,0.28,0.30,0.28,0.30,37000,0.30
2016-02-05,0.30,0.33,0.30,0.30,28300,0.30
2016-02-04,0.30,0.31,0.28,0.30,158000,0.30
