Date,Open,High,Low,Close,Volume,Adj Close
2017-01-10,1.065,1.065,1.065,1.065,000,1.065
2017-01-09,1.065,1.07,1.065,1.065,15500,1.065
2017-01-06,1.09,1.09,1.07,1.07,27500,1.07
2017-01-05,1.07,1.09,1.07,1.09,53700,1.09
2017-01-04,1.07,1.085,1.07,1.07,6900,1.07
2017-01-03,1.10,1.105,1.10,1.10,56600,1.10
2017-01-02,1.07,1.07,1.07,1.07,000,1.07
2016-12-30,1.10,1.10,1.07,1.07,7200,1.07
2016-12-29,1.10,1.11,1.10,1.11,70800,1.11
2016-12-28,1.08,1.115,1.07,1.07,117000,1.07
2016-12-27,1.07,1.07,1.07,1.07,000,1.07
2016-12-26,1.07,1.07,1.07,1.07,000,1.07
2016-12-23,1.06,1.07,1.06,1.07,90000,1.07
2016-12-22,1.055,1.055,1.03,1.05,17300,1.05
2016-12-21,1.05,1.08,1.05,1.055,202700,1.055
2016-12-20,1.042,1.05,1.04,1.045,1159900,1.045
2016-12-19,1.02,1.045,1.02,1.04,34600,1.04
2016-12-16,1.04,1.04,1.02,1.02,33200,1.02
2016-12-15,1.02,1.02,1.015,1.02,10500,1.02
2016-12-14,1.02,1.02,1.02,1.02,10100,1.02
2016-12-13,1.02,1.02,1.01,1.01,26000,1.01
2016-12-12,1.03,1.04,1.02,1.02,31200,1.02
2016-12-09,1.03,1.03,1.02,1.03,32400,1.03
2016-12-08,1.03,1.05,1.03,1.03,13200,1.03
2016-12-07,1.04,1.04,1.03,1.03,31100,1.03
2016-12-06,1.03,1.04,1.03,1.04,52800,1.04
2016-12-05,1.03,1.03,1.02,1.02,11500,1.02
2016-12-02,1.025,1.025,1.01,1.01,38600,1.01
2016-12-01,1.01,1.02,1.01,1.02,82000,1.02
2016-11-30,0.95,1.05,0.94,1.025,155100,1.025
2016-11-29,0.945,0.95,0.93,0.95,681000,0.95
2016-11-28,0.90,0.95,0.90,0.945,62700,0.945
2016-11-25,0.90,0.90,0.90,0.90,1500,0.90
2016-11-24,0.92,0.92,0.90,0.90,16000,0.90
2016-11-23,0.945,0.96,0.945,0.95,26600,0.95
2016-11-22,0.935,0.94,0.925,0.94,92900,0.94
2016-11-21,0.93,0.935,0.90,0.92,72200,0.92
2016-11-18,0.92,0.92,0.92,0.92,12200,0.92
2016-11-17,0.89,0.92,0.89,0.92,136500,0.92
2016-11-16,0.90,0.90,0.88,0.89,30400,0.89
2016-11-15,0.90,0.91,0.895,0.895,60700,0.895
2016-11-14,0.89,0.90,0.89,0.90,94400,0.90
2016-11-11,0.89,0.89,0.88,0.89,16100,0.89
2016-11-10,0.88,0.89,0.87,0.88,27800,0.88
2016-11-09,0.88,0.88,0.85,0.865,77600,0.865
2016-11-08,0.885,0.885,0.865,0.865,13300,0.865
2016-11-07,0.88,0.91,0.88,0.90,181100,0.90
2016-11-04,0.875,0.88,0.875,0.88,62100,0.88
2016-11-03,0.88,0.89,0.87,0.87,30500,0.87
2016-11-02,0.88,0.88,0.865,0.875,28300,0.875
2016-11-01,0.88,0.90,0.87,0.87,21900,0.87
2016-10-31,0.87,0.89,0.87,0.88,57400,0.88
2016-10-28,0.855,0.88,0.855,0.865,150200,0.865
2016-10-27,0.855,0.855,0.855,0.855,24700,0.855
2016-10-26,0.85,0.86,0.84,0.84,90300,0.84
2016-10-25,0.87,0.87,0.81,0.87,121700,0.87
2016-10-24,0.92,0.92,0.86,0.895,43200,0.895
2016-10-21,0.95,0.95,0.90,0.92,106700,0.92
2016-10-20,0.915,0.94,0.915,0.94,203800,0.94
2016-10-19,0.88,0.93,0.88,0.90,836800,0.90
2016-10-18,0.785,0.84,0.785,0.835,198700,0.835
2016-10-17,0.74,0.795,0.74,0.7725,165200,0.7725
2016-10-14,0.715,0.755,0.715,0.73,404200,0.73
2016-10-13,0.71,0.72,0.71,0.715,165400,0.715
2016-10-12,0.725,0.725,0.705,0.705,47100,0.705
2016-10-11,0.71,0.725,0.70,0.70,50000,0.70
2016-10-10,0.70,0.72,0.70,0.70,114600,0.70
2016-10-07,0.725,0.725,0.70,0.70,111400,0.70
2016-10-06,0.71,0.725,0.71,0.71,33000,0.71
2016-10-05,0.715,0.715,0.705,0.71,33600,0.71
2016-10-04,0.705,0.72,0.705,0.715,16100,0.715
2016-10-03,0.725,0.725,0.70,0.715,100100,0.715
2016-09-30,0.69,0.72,0.69,0.72,90000,0.72
2016-09-29,0.67,0.71,0.67,0.68,71400,0.68
2016-09-28,0.69,0.71,0.68,0.705,108700,0.705
2016-09-27,0.725,0.725,0.655,0.69,307400,0.69
2016-09-26,0.72,0.73,0.705,0.725,76800,0.725
2016-09-23,0.75,0.75,0.70,0.72,369500,0.72
2016-09-22,0.79,0.79,0.75,0.75,220900,0.75
2016-09-21,0.83,0.83,0.79,0.80,641500,0.7556
2016-09-20,0.83,0.83,0.825,0.83,70700,0.7839
2016-09-19,0.825,0.83,0.825,0.83,10300,0.7839
2016-09-16,0.83,0.84,0.825,0.825,110700,0.7792
2016-09-15,0.835,0.845,0.825,0.83,105400,0.7839
2016-09-14,0.84,0.85,0.83,0.83,83200,0.7839
2016-09-13,0.85,0.85,0.84,0.84,83900,0.7934
2016-09-12,0.84,0.85,0.825,0.825,214200,0.7792
2016-09-09,0.84,0.85,0.84,0.85,97700,0.8028
2016-09-08,0.83,0.85,0.825,0.84,282500,0.7934
2016-09-07,0.83,0.84,0.825,0.83,167600,0.7839
2016-09-06,0.85,0.85,0.83,0.83,401500,0.7839
2016-09-05,0.85,0.85,0.84,0.85,493600,0.8028
2016-09-02,0.87,0.895,0.84,0.84,1604500,0.7934
2016-09-01,0.865,0.89,0.86,0.86,121300,0.8123
2016-08-31,0.91,0.91,0.86,0.885,322400,0.8359
2016-08-30,0.98,0.98,0.92,0.925,450500,0.8737
2016-08-29,1.015,1.025,0.96,0.98,550100,0.9256
2016-08-26,1.195,1.195,1.02,1.02,778600,0.9634
2016-08-25,1.145,1.23,1.115,1.23,122500,1.1617
2016-08-24,1.14,1.14,1.14,1.14,10000,1.0767
2016-08-23,1.13,1.145,1.105,1.105,22400,1.0437
2016-08-22,1.12,1.13,1.12,1.125,103900,1.0626
2016-08-19,1.12,1.12,1.11,1.11,48600,1.0484
2016-08-18,1.115,1.115,1.10,1.10,10000,1.039
2016-08-17,1.13,1.13,1.105,1.105,28700,1.0437
2016-08-16,1.10,1.13,1.10,1.12,31600,1.0578
2016-08-15,1.07,1.09,1.065,1.09,46600,1.0295
2016-08-12,1.04,1.05,1.035,1.035,178400,0.9776
2016-08-11,1.03,1.04,1.03,1.04,40600,0.9823
2016-08-10,1.04,1.05,1.04,1.04,549100,0.9823
2016-08-09,1.04,1.04,1.04,1.04,12100,0.9823
2016-08-08,1.05,1.05,1.04,1.045,28900,0.987
2016-08-05,1.03,1.04,1.01,1.04,603100,0.9823
2016-08-04,1.02,1.03,1.00,1.005,88700,0.9492
2016-08-03,1.00,1.01,0.995,1.00,110100,0.9445
2016-08-02,1.025,1.03,0.99,0.99,632400,0.9351
2016-08-01,1.06,1.06,1.025,1.03,420700,0.9728
2016-07-29,1.05,1.06,1.03,1.05,126900,0.9917
2016-07-28,1.025,1.07,1.025,1.05,60500,0.9917
2016-07-27,1.03,1.04,1.025,1.025,14200,0.9681
2016-07-26,1.025,1.03,1.025,1.03,22100,0.9728
2016-07-25,1.04,1.05,1.02,1.025,77900,0.9681
2016-07-22,1.03,1.04,1.02,1.02,115300,0.9634
2016-07-21,1.02,1.045,1.015,1.02,131600,0.9634
2016-07-20,1.03,1.03,1.015,1.02,82600,0.9634
2016-07-19,1.01,1.03,1.01,1.03,4900,0.9728
2016-07-18,1.01,1.02,1.00,1.01,27400,0.9539
2016-07-15,1.025,1.025,1.01,1.01,15200,0.9539
2016-07-14,1.03,1.04,1.01,1.03,15200,0.9728
2016-07-13,1.02,1.02,1.00,1.01,59000,0.9539
2016-07-12,1.045,1.045,1.01,1.015,28900,0.9587
2016-07-11,1.03,1.04,1.00,1.00,107900,0.9445
2016-07-08,1.03,1.04,1.02,1.03,22000,0.9728
2016-07-07,1.05,1.05,1.03,1.03,113400,0.9728
2016-07-06,1.01,1.04,0.96,1.04,521900,0.9823
2016-07-05,1.07,1.07,1.05,1.05,109500,0.9917
2016-07-04,1.07,1.075,1.06,1.06,6000,1.0012
2016-07-01,1.075,1.075,1.05,1.075,245200,1.0153
2016-06-30,1.075,1.075,1.06,1.075,21300,1.0153
2016-06-29,1.06,1.06,1.06,1.06,5000,1.0012
2016-06-28,1.04,1.09,1.04,1.09,57000,1.0295
2016-06-27,1.04,1.06,1.03,1.03,103300,0.9728
2016-06-24,1.04,1.06,1.04,1.05,20500,0.9917
2016-06-23,1.06,1.06,1.03,1.03,39400,0.9728
2016-06-22,1.06,1.07,1.055,1.055,26600,0.9964
2016-06-21,1.06,1.065,1.06,1.065,27300,1.0059
2016-06-20,1.08,1.08,1.05,1.065,16800,1.0059
2016-06-17,1.10,1.10,1.07,1.08,38300,1.0201
2016-06-16,1.08,1.11,1.06,1.10,126900,1.039
2016-06-15,1.03,1.09,1.03,1.085,130900,1.0248
2016-06-14,1.02,1.03,1.01,1.015,66500,0.9587
2016-06-13,1.015,1.015,1.015,1.015,000,0.9587
2016-06-10,1.015,1.02,1.01,1.015,108100,0.9587
2016-06-09,1.04,1.04,1.015,1.02,91200,0.9634
2016-06-08,1.03,1.05,1.03,1.05,75000,0.9917
2016-06-07,1.03,1.03,1.015,1.03,47900,0.9728
2016-06-06,1.095,1.095,1.02,1.05,75800,0.9917
2016-06-03,1.08,1.10,1.075,1.10,16400,1.039
2016-06-02,1.12,1.12,1.05,1.095,116300,1.0342
2016-06-01,1.12,1.125,1.12,1.12,24300,1.0578
2016-05-31,1.12,1.13,1.12,1.13,26000,1.0673
2016-05-30,1.11,1.12,1.11,1.12,18800,1.0578
2016-05-27,1.12,1.13,1.09,1.13,90200,1.0673
2016-05-26,1.12,1.12,1.11,1.11,15100,1.0484
2016-05-25,1.15,1.15,1.10,1.10,36100,1.039
2016-05-24,1.15,1.15,1.145,1.15,1100,1.0862
2016-05-23,1.17,1.17,1.10,1.15,4000,1.0862
2016-05-20,1.16,1.17,1.16,1.17,6600,1.1051
2016-05-19,1.09,1.09,1.09,1.09,2700,1.0295
2016-05-18,1.16,1.16,1.15,1.15,26000,1.0862
2016-05-17,1.12,1.15,1.08,1.08,26600,1.0201
2016-05-16,1.17,1.17,1.11,1.12,43800,1.0578
2016-05-13,1.16,1.165,1.14,1.165,67200,1.1003
2016-05-12,1.08,1.15,1.07,1.14,160300,1.0767
2016-05-11,1.04,1.08,1.04,1.05,130700,0.9917
2016-05-10,1.03,1.045,1.025,1.025,25700,0.9681
2016-05-09,1.00,1.04,1.00,1.02,237400,0.9634
2016-05-06,1.00,1.00,1.00,1.00,230500,0.9445
2016-05-05,0.985,1.02,0.98,1.02,1125000,0.9634
2016-05-04,1.01,1.02,0.985,0.99,49600,0.9351
2016-05-03,1.00,1.015,0.99,1.01,46500,0.9539
2016-05-02,1.00,1.00,0.995,1.00,61800,0.9445
2016-04-29,1.02,1.03,1.00,1.03,189600,0.9728
2016-04-28,1.015,1.03,1.00,1.03,20800,0.9728
2016-04-27,1.01,1.03,1.01,1.015,34200,0.9587
2016-04-26,0.995,1.02,0.995,1.01,2600,0.9539
2016-04-25,0.995,0.995,0.995,0.995,000,0.9398
2016-04-22,1.00,1.02,0.995,0.995,245100,0.9398
2016-04-21,1.04,1.04,0.99,0.995,116200,0.9398
2016-04-20,1.03,1.03,1.00,1.00,106800,0.9445
2016-04-19,0.995,1.04,0.99,0.99,88200,0.9351
2016-04-18,1.025,1.05,0.99,0.99,304300,0.9351
2016-04-15,1.05,1.05,1.00,1.00,348700,0.9445
2016-04-14,1.08,1.09,1.05,1.05,23200,0.9917
2016-04-13,1.08,1.09,1.05,1.05,70000,0.9917
2016-04-12,1.05,1.05,1.02,1.02,14700,0.9634
2016-04-11,1.08,1.08,1.05,1.05,58800,0.9917
2016-04-08,1.10,1.10,1.02,1.025,122700,0.9681
2016-04-07,1.10,1.12,1.10,1.115,37300,1.0531
2016-04-06,1.09,1.10,1.09,1.10,19700,1.039
2016-04-05,1.11,1.11,1.09,1.10,33200,1.039
2016-04-04,1.13,1.145,1.12,1.12,27900,1.0578
2016-04-01,1.15,1.15,1.12,1.12,81900,1.0578
2016-03-31,1.10,1.15,1.10,1.15,28700,1.0862
2016-03-30,1.07,1.08,1.06,1.06,63700,1.0012
2016-03-29,1.06,1.07,1.05,1.06,66900,1.0012
2016-03-28,1.06,1.06,1.06,1.06,000,1.0012
2016-03-25,1.06,1.06,1.06,1.06,000,1.0012
2016-03-24,1.06,1.08,1.05,1.06,63300,1.0012
2016-03-23,1.135,1.145,1.07,1.07,90600,1.0106
2016-03-22,1.10,1.10,1.06,1.06,89000,1.0012
2016-03-21,1.10,1.10,1.01,1.04,74200,0.9823
2016-03-18,1.16,1.16,1.10,1.10,56700,1.039
2016-03-17,1.18,1.21,1.15,1.15,106100,1.0862
2016-03-16,1.26,1.32,1.17,1.18,369300,1.0315
2016-03-15,1.345,1.355,1.23,1.25,137500,1.0927
2016-03-14,1.40,1.40,1.28,1.30,105100,1.1364
2016-03-11,1.26,1.345,1.24,1.345,72800,1.1758
2016-03-10,1.26,1.26,1.24,1.26,31500,1.1015
2016-03-09,1.26,1.26,1.25,1.25,39600,1.0927
2016-03-08,1.22,1.225,1.19,1.20,58800,1.049
2016-03-07,1.225,1.28,1.20,1.20,93300,1.049
2016-03-04,1.20,1.30,1.20,1.225,127800,1.0709
2016-03-03,1.24,1.29,1.20,1.20,88600,1.049
2016-03-02,1.245,1.26,1.22,1.235,41800,1.0796
2016-03-01,1.245,1.245,1.20,1.21,40600,1.0578
2016-02-29,1.21,1.25,1.19,1.19,118100,1.0403
2016-02-26,1.245,1.245,1.205,1.205,51800,1.0534
2016-02-25,1.20,1.235,1.17,1.235,110700,1.0796
2016-02-24,1.245,1.245,1.20,1.20,103900,1.049
2016-02-23,1.25,1.25,1.215,1.225,70400,1.0709
2016-02-22,1.245,1.2575,1.215,1.25,90100,1.0927
2016-02-19,1.215,1.25,1.215,1.245,305800,1.0884
2016-02-18,1.26,1.26,1.21,1.25,79200,1.0927
2016-02-17,1.25,1.265,1.23,1.26,82000,1.1015
2016-02-16,1.25,1.25,1.21,1.245,43500,1.0884
2016-02-15,1.20,1.24,1.175,1.23,385000,1.0752
2016-02-12,1.15,1.21,1.14,1.18,735200,1.0315
2016-02-11,1.125,1.18,1.10,1.14,233500,0.9966
2016-02-10,1.18,1.18,1.10,1.10,52900,0.9616
2016-02-09,1.07,1.25,1.055,1.185,216500,1.0359
2016-02-08,0.92,1.03,0.915,1.03,1143000,0.9004
2016-02-05,0.875,0.93,0.875,0.92,166100,0.8042
2016-02-04,0.835,0.89,0.835,0.87,418100,0.7605
2016-02-03,0.81,0.82,0.80,0.805,1145500,0.7037
2016-02-02,0.86,0.87,0.78,0.80,985500,0.6993
2016-02-01,0.935,0.935,0.85,0.85,206700,0.7431
2016-01-29,0.91,0.92,0.91,0.92,14200,0.8042
2016-01-28,0.91,0.91,0.90,0.90,21700,0.7868
2016-01-27,0.90,0.905,0.88,0.88,789300,0.7693
2016-01-26,0.92,0.92,0.92,0.92,000,0.8042
2016-01-25,0.925,0.925,0.89,0.92,79700,0.8042
2016-01-22,0.97,0.97,0.915,0.915,615500,0.7999
2016-01-21,0.99,0.995,0.96,0.98,30600,0.8567
2016-01-20,1.01,1.03,0.98,0.995,129500,0.8698
2016-01-19,1.00,1.00,1.00,1.00,41500,0.8742
2016-01-18,1.02,1.02,0.985,1.00,73800,0.8742
2016-01-15,1.04,1.095,1.04,1.05,145900,0.9179
2016-01-14,1.13,1.14,1.035,1.09,222900,0.9529
2016-01-13,1.25,1.30,1.10,1.14,1722300,0.9966
2016-01-12,1.60,1.60,1.59,1.59,98900,1.3899
2016-01-11,1.64,1.64,1.62,1.62,22100,1.4162
2016-01-08,1.61,1.65,1.60,1.625,396400,1.4205
2016-01-07,1.67,1.67,1.61,1.64,49100,1.4337
2016-01-06,1.685,1.70,1.665,1.665,87000,1.4555
2016-01-05,1.72,1.72,1.66,1.665,12200,1.4555
2016-01-04,1.73,1.78,1.70,1.70,42500,1.4861
2016-01-01,1.72,1.72,1.72,1.72,000,1.5036
2015-12-31,1.73,1.75,1.72,1.72,15900,1.5036
2015-12-30,1.70,1.70,1.70,1.70,18500,1.4861
2015-12-29,1.75,1.75,1.70,1.70,17700,1.4861
2015-12-28,1.72,1.72,1.72,1.72,000,1.5036
2015-12-25,1.72,1.72,1.72,1.72,000,1.5036
2015-12-24,1.71,1.72,1.71,1.72,18900,1.5036
2015-12-23,1.70,1.78,1.69,1.695,71000,1.4817
2015-12-22,1.72,1.72,1.68,1.68,2100,1.4686
2015-12-21,1.72,1.72,1.665,1.665,99100,1.4555
2015-12-18,1.64,1.72,1.64,1.665,13600,1.4555
2015-12-17,1.67,1.67,1.63,1.635,41800,1.4293
2015-12-16,1.72,1.74,1.67,1.67,52100,1.4599
2015-12-15,1.76,1.76,1.73,1.732,13800,1.5141
2015-12-14,1.725,1.765,1.725,1.76,18300,1.5386
2015-12-11,1.71,1.73,1.71,1.73,21000,1.5123
2015-12-10,1.70,1.75,1.70,1.70,54700,1.4861
2015-12-09,1.58,1.69,1.58,1.69,33600,1.4774
2015-12-08,1.75,1.75,1.58,1.59,69500,1.3899
2015-12-07,1.75,1.75,1.71,1.72,81700,1.5036
2015-12-04,1.83,1.83,1.70,1.735,44300,1.5167
2015-12-03,1.85,1.85,1.80,1.83,72300,1.5997
2015-12-02,1.85,1.90,1.85,1.85,78300,1.6172
2015-12-01,1.90,1.90,1.88,1.89,18300,1.6522
2015-11-30,1.95,1.95,1.88,1.88,81500,1.6435
2015-11-27,1.98,1.98,1.92,1.95,39000,1.7046
2015-11-26,2.05,2.05,1.92,1.92,35800,1.6784
2015-11-25,2.00,2.05,1.97,2.05,24100,1.7921
2015-11-24,1.995,2.00,1.99,2.00,20500,1.7484
2015-11-23,2.08,2.08,1.985,2.03,176000,1.7746
2015-11-20,2.10,2.10,1.987,2.00,155700,1.7484
2015-11-19,2.10,2.10,2.09,2.09,19400,1.827
2015-11-18,2.13,2.14,2.075,2.08,9100,1.8183
2015-11-17,2.10,2.17,2.06,2.06,23300,1.8008
2015-11-16,2.14,2.17,2.08,2.08,48600,1.8183
2015-11-13,2.10,2.10,2.05,2.08,43900,1.8183
2015-11-12,2.13,2.13,2.06,2.10,74200,1.8358
2015-11-11,2.15,2.17,2.12,2.13,113000,1.862
2015-11-10,2.22,2.22,2.13,2.13,85300,1.862
2015-11-09,2.22,2.26,2.21,2.22,40200,1.9407
2015-11-06,2.22,2.22,2.18,2.19,50300,1.9144
2015-11-05,2.20,2.22,2.18,2.18,102400,1.9057
2015-11-04,2.23,2.25,2.20,2.20,214200,1.9232
2015-11-03,2.15,2.24,2.15,2.18,28900,1.9057
2015-11-02,2.06,2.18,2.06,2.12,52700,1.8533
2015-10-30,2.01,2.10,2.01,2.05,1790200,1.7921
2015-10-29,2.05,2.13,2.02,2.02,188300,1.7658
2015-10-28,2.30,2.30,1.985,1.985,317900,1.7352
2015-10-27,2.35,2.37,2.29,2.30,198400,2.0106
2015-10-26,2.50,2.50,2.34,2.34,211300,2.0456
2015-10-23,2.70,2.70,2.50,2.50,241600,2.1854
2015-10-22,2.55,2.69,2.55,2.65,86400,2.3166
2015-10-21,2.64,2.68,2.42,2.50,88500,2.1854
2015-10-20,2.64,2.64,2.64,2.64,4000,2.3078
2015-10-19,2.65,2.69,2.62,2.69,1100,2.3515
2015-10-16,2.61,2.65,2.60,2.60,58100,2.2729
2015-10-15,2.67,2.70,2.61,2.68,9800,2.3428
2015-10-14,2.72,2.72,2.70,2.70,378500,2.3603
2015-10-13,2.72,2.78,2.72,2.72,139400,2.3778
2015-10-12,2.72,2.72,2.63,2.71,5900,2.369
2015-10-09,2.64,2.70,2.63,2.70,22100,2.3603
2015-10-08,2.63,2.63,2.63,2.63,000,2.2991
2015-10-07,2.66,2.66,2.61,2.63,17000,2.2991
2015-10-06,2.78,2.78,2.60,2.61,28600,2.2816
2015-10-05,2.79,2.79,2.71,2.78,45700,2.4302
2015-10-02,2.75,2.82,2.70,2.82,15900,2.4652
2015-10-01,2.80,2.80,2.70,2.75,15700,2.404
2015-09-30,2.71,2.80,2.70,2.80,34800,2.4477
2015-09-29,2.70,2.80,2.70,2.80,000,2.4477
2015-09-28,2.75,2.76,2.70,2.70,52900,2.3603
2015-09-25,2.80,2.82,2.75,2.78,10500,2.4302
2015-09-24,2.79,2.80,2.73,2.75,30800,2.404
2015-09-23,2.80,2.825,2.75,2.79,26500,2.439
2015-09-22,3.00,3.02,2.94,2.94,27200,2.4462
2015-09-21,3.05,3.05,2.95,3.00,29900,2.4961
2015-09-18,3.00,3.03,2.97,2.97,67600,2.4712
2015-09-17,3.00,3.05,2.97,2.97,77800,2.4712
2015-09-16,3.00,3.00,2.97,2.98,49800,2.4795
2015-09-15,3.10,3.10,3.00,3.05,84400,2.5377
2015-09-14,3.04,3.06,3.00,3.00,123100,2.4961
2015-09-11,2.98,3.12,2.98,3.08,3600,2.5627
2015-09-10,3.00,3.00,2.97,2.98,39400,2.4795
2015-09-09,3.00,3.13,3.00,3.00,8600,2.4961
2015-09-08,2.98,3.09,2.98,3.00,66000,2.4961
2015-09-07,3.00,3.04,2.98,2.98,41200,2.4795
2015-09-04,3.04,3.04,2.99,3.00,40600,2.4961
2015-09-03,2.99,3.03,2.97,2.98,41200,2.4795
2015-09-02,2.95,3.00,2.95,2.97,38000,2.4712
2015-09-01,3.00,3.00,2.96,2.97,20000,2.4712
2015-08-31,3.03,3.03,2.96,2.97,79000,2.4712
2015-08-28,2.98,3.00,2.98,3.00,80700,2.4961
2015-08-27,3.02,3.06,2.96,3.05,20100,2.5377
2015-08-26,3.00,3.07,3.00,3.02,19700,2.5128
2015-08-25,3.06,3.08,2.95,3.00,22100,2.4961
2015-08-24,3.15,3.15,3.01,3.06,17800,2.5461
2015-08-21,3.01,3.15,3.01,3.15,26200,2.6209
2015-08-20,3.12,3.13,2.99,3.00,26900,2.4961
2015-08-19,3.00,3.04,2.895,3.04,18500,2.5294
2015-08-18,3.00,3.00,3.00,3.00,000,2.4961
2015-08-17,3.05,3.05,2.99,3.00,13400,2.4961
2015-08-14,3.00,3.00,3.00,3.00,2500,2.4961
2015-08-13,3.03,3.03,3.03,3.03,2000,2.5211
2015-08-12,3.05,3.05,3.04,3.05,12600,2.5377
2015-08-11,3.03,3.10,3.03,3.05,10900,2.5377
2015-08-10,3.05,3.05,3.05,3.05,19400,2.5377
2015-08-07,3.05,3.05,3.05,3.05,6700,2.5377
2015-08-06,3.05,3.12,3.05,3.12,12000,2.596
2015-08-05,3.05,3.10,3.05,3.10,17300,2.5793
2015-08-04,3.12,3.12,3.03,3.05,56600,2.5377
2015-08-03,3.05,3.05,3.03,3.03,21500,2.5211
2015-07-31,3.03,3.05,3.03,3.05,27400,2.5377
2015-07-30,3.08,3.13,3.08,3.12,1600,2.596
2015-07-29,3.13,3.13,3.13,3.13,000,2.6043
2015-07-28,3.13,3.14,3.03,3.13,74200,2.6043
2015-07-27,3.13,3.13,3.10,3.10,10200,2.5793
2015-07-24,3.13,3.13,3.13,3.13,000,2.6043
2015-07-23,3.13,3.16,3.13,3.13,1100,2.6043
2015-07-22,3.10,3.13,3.10,3.13,4600,2.6043
2015-07-21,3.09,3.09,3.09,3.09,8500,2.571
2015-07-20,3.03,3.13,3.03,3.06,7800,2.5461
2015-07-17,3.12,3.13,3.10,3.11,17900,2.5877
2015-07-16,3.10,3.17,3.10,3.12,900,2.596
2015-07-15,3.10,3.10,3.10,3.10,000,2.5793
2015-07-14,3.10,3.17,3.10,3.17,2700,2.6376
2015-07-13,3.04,3.17,3.04,3.10,6300,2.5793
2015-07-10,3.03,3.09,3.03,3.09,300,2.571
2015-07-09,3.07,3.07,3.03,3.03,21800,2.5211
2015-07-08,3.045,3.07,3.045,3.07,27600,2.5544
2015-07-07,3.00,3.07,3.00,3.02,7900,2.5128
2015-07-06,3.02,3.02,3.00,3.00,6200,2.4961
2015-07-03,3.05,3.07,3.02,3.02,2400,2.5128
2015-07-02,3.07,3.07,3.07,3.07,1300,2.5544
2015-07-01,3.04,3.04,3.04,3.04,000,2.5294
2015-06-30,3.00,3.04,2.95,3.04,26400,2.5294
2015-06-29,3.04,3.04,2.99,2.99,15600,2.4878
2015-06-26,3.04,3.04,3.03,3.03,2400,2.5211
2015-06-25,3.09,3.09,3.07,3.09,7700,2.571
2015-06-24,3.10,3.12,3.08,3.12,21600,2.596
2015-06-23,3.11,3.11,3.11,3.11,800,2.5877
2015-06-22,3.13,3.13,3.13,3.13,5900,2.6043
2015-06-19,3.14,3.16,3.14,3.16,8200,2.6293
2015-06-18,3.23,3.23,3.05,3.18,18800,2.6459
2015-06-17,3.23,3.23,3.23,3.23,33700,2.6875
2015-06-16,3.18,3.24,3.18,3.18,24100,2.6459
2015-06-15,3.17,3.30,3.17,3.18,9300,2.6459
2015-06-12,3.21,3.25,3.21,3.21,14400,2.6709
2015-06-11,3.25,3.30,3.21,3.30,800,2.7457
2015-06-10,3.20,3.20,3.20,3.20,000,2.6625
2015-06-09,3.25,3.25,3.20,3.20,1600,2.6625
2015-06-08,3.25,3.25,3.25,3.25,000,2.7041
2015-06-05,3.25,3.25,3.25,3.25,000,2.7041
2015-06-04,3.28,3.30,3.27,3.30,52100,2.7457
2015-06-03,3.30,3.30,3.28,3.30,11200,2.7457
2015-06-02,3.29,3.39,3.28,3.28,16300,2.7291
2015-06-01,3.40,3.40,3.26,3.28,4000,2.7291
2015-05-29,3.45,3.45,3.45,3.45,000,2.8706
2015-05-28,3.46,3.46,3.41,3.44,48700,2.8622
2015-05-27,3.38,3.46,3.38,3.40,7600,2.829
2015-05-26,3.40,3.40,3.36,3.36,178100,2.7957
2015-05-25,3.35,3.40,3.27,3.40,9500,2.829
2015-05-22,3.35,3.35,3.26,3.35,19700,2.7873
2015-05-21,3.40,3.40,3.32,3.32,12200,2.7624
2015-05-20,3.40,3.45,3.40,3.45,15200,2.8706
2015-05-19,3.36,3.40,3.36,3.40,18000,2.829
2015-05-18,3.31,3.40,3.31,3.40,25400,2.829
2015-05-15,3.40,3.40,3.31,3.40,9200,2.829
2015-05-14,3.24,3.35,3.23,3.27,100700,2.7208
2015-05-13,3.30,3.35,3.23,3.35,44500,2.7873
2015-05-12,3.29,3.40,3.21,3.35,15400,2.7873
2015-05-11,3.40,3.40,3.40,3.40,300,2.829
2015-05-08,3.40,3.40,3.40,3.40,5400,2.829
2015-05-07,3.40,3.40,3.40,3.40,000,2.829
2015-05-06,3.38,3.43,3.37,3.43,105500,2.8539
2015-05-05,3.40,3.40,3.38,3.40,10100,2.829
2015-05-04,3.40,3.45,3.40,3.43,13700,2.8539
2015-05-01,3.37,3.45,3.37,3.45,1225000,2.8706
2015-04-30,3.36,3.36,3.32,3.36,21300,2.7957
2015-04-29,3.35,3.35,3.325,3.325,192100,2.7665
2015-04-28,3.35,3.35,3.35,3.35,28400,2.7873
2015-04-27,3.33,3.35,3.30,3.35,71800,2.7873
2015-04-24,3.40,3.40,3.30,3.35,75900,2.7873
2015-04-23,3.35,3.40,3.30,3.40,11100,2.829
2015-04-22,3.40,3.40,3.40,3.40,300000,2.829
2015-04-21,3.40,3.40,3.35,3.40,2300,2.829
2015-04-20,3.40,3.50,3.35,3.35,29300,2.7873
2015-04-17,3.45,3.45,3.43,3.43,600,2.8539
2015-04-16,3.46,3.46,3.43,3.45,5600,2.8706
2015-04-15,3.43,3.46,3.40,3.46,18000,2.8789
2015-04-14,3.43,3.43,3.40,3.43,7400,2.8539
2015-04-13,3.42,3.43,3.42,3.42,24200,2.8456
2015-04-10,3.43,3.43,3.42,3.42,11000,2.8456
2015-04-09,3.46,3.46,3.42,3.46,14200,2.8789
2015-04-08,3.46,3.46,3.42,3.46,7800,2.8789
2015-04-07,3.45,3.46,3.42,3.46,13700,2.8789
2015-04-06,3.45,3.45,3.45,3.45,000,2.8706
2015-04-03,3.45,3.45,3.45,3.45,000,2.8706
2015-04-02,3.42,3.45,3.42,3.45,6700,2.8706
2015-04-01,3.42,3.44,3.41,3.44,7200,2.8622
2015-03-31,3.42,3.42,3.42,3.42,400,2.8456
2015-03-30,3.46,3.47,3.42,3.47,7400,2.8872
2015-03-27,3.45,3.46,3.40,3.46,31700,2.8789
2015-03-26,3.47,3.47,3.45,3.46,72500,2.8789
2015-03-25,3.47,3.50,3.42,3.50,19700,2.9122
2015-03-24,3.44,3.55,3.44,3.54,193800,2.9454
2015-03-23,3.42,3.42,3.42,3.42,1800,2.8456
2015-03-20,3.45,3.49,3.40,3.46,8700,2.8789
2015-03-19,3.40,3.45,3.40,3.45,9900,2.8706
2015-03-18,3.45,3.45,3.45,3.45,9400,2.8706
2015-03-17,3.45,3.49,3.45,3.46,11500,2.8789
2015-03-16,3.50,3.50,3.40,3.49,13100,2.9038
2015-03-13,3.51,3.60,3.50,3.50,33400,2.9122
2015-03-12,3.60,3.61,3.51,3.51,115400,2.9205
2015-03-11,3.61,3.63,3.61,3.61,400200,3.0037
2015-03-10,3.62,3.64,3.60,3.61,29000,3.0037
2015-03-09,3.55,3.58,3.55,3.58,11600,2.9787
2015-03-06,3.54,3.60,3.54,3.55,65300,2.9538
2015-03-05,3.50,3.55,3.50,3.54,75300,2.9454
2015-03-04,3.48,3.53,3.48,3.50,57800,2.9122
2015-03-03,3.44,3.46,3.44,3.45,69800,2.8706
2015-03-02,3.40,3.45,3.40,3.45,18600,2.8706
2015-02-27,3.45,3.45,3.40,3.40,2300,2.829
2015-02-26,3.40,3.50,3.30,3.45,33300,2.8706
2015-02-25,3.21,3.345,3.19,3.345,104300,2.7832
2015-02-24,3.19,3.22,3.19,3.20,54100,2.6625
2015-02-23,3.37,3.37,3.15,3.20,111800,2.6625
2015-02-20,3.24,3.35,3.18,3.34,53200,2.779
2015-02-19,3.29,3.29,3.24,3.27,28500,2.7208
2015-02-18,3.30,3.30,3.15,3.29,207600,2.7374
2015-02-17,3.30,3.32,3.30,3.30,27600,2.7457
2015-02-16,3.29,3.34,3.26,3.34,26900,2.779
2015-02-13,3.34,3.34,3.26,3.29,31600,2.7374
2015-02-12,3.30,3.45,3.26,3.26,374800,2.7125
2015-02-11,3.30,3.30,3.22,3.27,33600,2.7208
2015-02-10,3.20,3.30,3.20,3.22,25400,2.6792
2015-02-09,3.12,3.20,3.12,3.20,47600,2.6625
2015-02-06,3.05,3.15,3.05,3.11,604500,2.5877
2015-02-05,3.09,3.09,3.05,3.05,24300,2.5377
2015-02-04,3.07,3.10,3.02,3.10,148300,2.5793
2015-02-03,3.06,3.07,3.04,3.07,249000,2.5544
2015-02-02,3.07,3.07,3.07,3.07,32000,2.5544
2015-01-30,3.07,3.10,3.05,3.06,82600,2.5461
2015-01-29,3.06,3.07,3.04,3.07,49900,2.5544
2015-01-28,3.05,3.06,3.02,3.03,69700,2.5211
2015-01-27,3.03,3.06,3.03,3.05,29100,2.5377
2015-01-26,3.02,3.02,3.02,3.02,000,2.5128
2015-01-23,3.02,3.02,2.99,3.02,40700,2.5128
2015-01-22,3.00,3.01,2.99,3.01,33900,2.5045
2015-01-21,3.03,3.04,3.00,3.00,19600,2.4961
2015-01-20,3.05,3.05,3.04,3.05,5800,2.5377
2015-01-19,3.00,3.04,2.98,3.03,23400,2.5211
2015-01-16,3.02,3.02,2.97,3.00,37300,2.4961
2015-01-15,3.09,3.09,3.02,3.03,34800,2.5211
2015-01-14,3.10,3.12,3.03,3.11,21900,2.5877
2015-01-13,3.12,3.12,3.00,3.06,58300,2.5461
2015-01-12,3.20,3.20,3.14,3.14,14000,2.6126
2015-01-09,3.10,3.25,3.10,3.20,19400,2.6625
2015-01-08,3.10,3.10,3.10,3.10,6000,2.5793
2015-01-07,3.05,3.10,3.05,3.10,7800,2.5793
2015-01-06,3.05,3.10,3.00,3.10,30900,2.5793
2015-01-05,2.93,3.05,2.93,3.00,111000,2.4961
2015-01-02,2.92,2.92,2.92,2.92,1000,2.4296
2015-01-01,2.92,2.92,2.92,2.92,000,2.4296
2014-12-31,2.91,2.92,2.91,2.92,2100,2.4296
2014-12-30,2.90,2.90,2.90,2.90,000,2.4129
2014-12-29,2.92,2.92,2.90,2.90,16600,2.4129
2014-12-26,2.92,2.92,2.92,2.92,000,2.4296
2014-12-25,2.92,2.92,2.92,2.92,000,2.4296
2014-12-24,2.94,2.94,2.90,2.92,29000,2.4296
2014-12-23,2.92,2.92,2.92,2.92,25400,2.4296
2014-12-22,2.90,2.93,2.90,2.92,55400,2.4296
2014-12-19,2.90,2.91,2.90,2.90,71400,2.4129
2014-12-18,2.90,2.91,2.89,2.90,237800,2.4129
2014-12-17,2.92,2.93,2.90,2.90,102300,2.4129
2014-12-16,2.93,2.94,2.90,2.90,79900,2.4129
2014-12-15,2.90,2.94,2.88,2.92,97900,2.4296
2014-12-12,2.91,2.93,2.90,2.91,1414400,2.4212
2014-12-11,2.85,2.92,2.82,2.91,634700,2.4212
2014-12-10,2.88,2.88,2.78,2.85,852600,2.3713
