Date,Open,High,Low,Close,Volume,Adj Close
2017-01-10,3.38,3.41,3.35,3.36,1204900,3.36
2017-01-09,3.35,3.39,3.31,3.37,986800,3.37
2017-01-06,3.32,3.345,3.27,3.33,950100,3.33
2017-01-05,3.37,3.37,3.31,3.31,742600,3.31
2017-01-04,3.36,3.37,3.32,3.37,901800,3.37
2017-01-03,3.28,3.355,3.27,3.34,1134600,3.34
2017-01-02,3.27,3.27,3.27,3.27,000,3.27
2016-12-30,3.26,3.28,3.23,3.27,450800,3.27
2016-12-29,3.25,3.28,3.21,3.28,414100,3.28
2016-12-28,3.21,3.25,3.20,3.25,282000,3.25
2016-12-27,3.19,3.19,3.19,3.19,000,3.19
2016-12-26,3.19,3.19,3.19,3.19,000,3.19
2016-12-23,3.21,3.23,3.19,3.19,278200,3.19
2016-12-22,3.26,3.26,3.19,3.21,1290500,3.21
2016-12-21,3.22,3.27,3.19,3.22,1309200,3.22
2016-12-20,3.14,3.22,3.13,3.20,1389400,3.20
2016-12-19,3.12,3.17,3.12,3.13,612100,3.13
2016-12-16,3.12,3.15,3.09,3.13,1011800,3.13
2016-12-15,3.12,3.15,3.09,3.12,1033300,3.12
2016-12-14,3.08,3.12,3.04,3.11,2150700,3.11
2016-12-13,3.09,3.11,3.045,3.06,1241200,3.06
2016-12-12,3.15,3.17,3.07,3.07,4385900,3.07
2016-12-09,3.06,3.145,3.04,3.12,1067800,3.12
2016-12-08,3.04,3.06,3.01,3.05,1733300,3.05
2016-12-07,3.01,3.045,3.00,3.02,732800,3.02
2016-12-06,2.95,3.02,2.95,3.00,830800,3.00
2016-12-05,2.99,3.01,2.94,2.96,1035300,2.96
2016-12-02,3.04,3.06,2.99,3.00,1404900,3.00
2016-12-01,3.04,3.05,3.00,3.03,1764900,3.03
2016-11-30,2.97,3.06,2.94,3.06,1601500,3.06
2016-11-29,2.94,2.95,2.91,2.94,827700,2.94
2016-11-28,2.98,3.00,2.955,2.96,365700,2.96
2016-11-25,2.95,2.99,2.92,2.97,619100,2.97
2016-11-24,2.94,2.98,2.92,2.96,875700,2.96
2016-11-23,2.87,2.93,2.86,2.92,663500,2.92
2016-11-22,2.81,2.89,2.81,2.88,815600,2.88
2016-11-21,2.83,2.88,2.79,2.85,769700,2.85
2016-11-18,2.79,2.83,2.78,2.82,546100,2.82
2016-11-17,2.81,2.81,2.74,2.74,1059400,2.74
2016-11-16,2.87,2.89,2.80,2.80,1256500,2.80
2016-11-15,2.84,2.86,2.82,2.83,1065100,2.83
2016-11-14,2.87,2.90,2.85,2.85,1358000,2.85
2016-11-11,2.83,2.87,2.81,2.86,1520800,2.86
2016-11-10,2.78,2.82,2.765,2.81,1224500,2.81
2016-11-09,2.81,2.82,2.67,2.71,1509600,2.71
2016-11-08,2.84,2.86,2.785,2.80,1161800,2.80
2016-11-07,2.80,2.805,2.75,2.78,2703200,2.78
2016-11-04,2.88,2.895,2.76,2.79,3232300,2.79
2016-11-03,3.01,3.04,2.98,3.02,1056500,3.02
2016-11-02,3.00,3.045,2.98,3.04,1854800,3.04
2016-11-01,3.05,3.06,3.01,3.03,755000,3.03
2016-10-31,3.01,3.06,3.00,3.06,1163800,3.06
2016-10-28,3.00,3.05,3.00,3.03,1177100,3.03
2016-10-27,2.99,3.035,2.98,3.00,2835500,3.00
2016-10-26,3.07,3.10,2.96,2.96,1632700,2.96
2016-10-25,3.01,3.085,3.01,3.07,1232400,3.07
2016-10-24,2.97,3.04,2.92,3.01,1937900,3.01
2016-10-21,2.84,2.98,2.825,2.93,1764600,2.93
2016-10-20,2.79,2.84,2.78,2.84,964100,2.84
2016-10-19,2.69,2.79,2.69,2.79,1067500,2.79
2016-10-18,2.69,2.72,2.67,2.69,806200,2.69
2016-10-17,2.75,2.76,2.67,2.68,1063900,2.68
2016-10-14,2.74,2.76,2.71,2.75,401700,2.75
2016-10-13,2.75,2.77,2.71,2.73,824400,2.73
2016-10-12,2.76,2.76,2.73,2.75,722300,2.75
2016-10-11,2.75,2.78,2.74,2.76,729000,2.76
2016-10-10,2.73,2.78,2.72,2.73,779400,2.73
2016-10-07,2.78,2.79,2.72,2.72,1177900,2.72
2016-10-06,2.75,2.81,2.75,2.78,1891300,2.78
2016-10-05,2.77,2.84,2.75,2.76,1851000,2.76
2016-10-04,2.75,2.79,2.71,2.77,2379800,2.77
2016-10-03,2.72,2.79,2.71,2.75,667900,2.75
2016-09-30,2.70,2.71,2.65,2.69,1442700,2.69
2016-09-29,2.71,2.74,2.67,2.70,941100,2.70
2016-09-28,2.70,2.71,2.63,2.70,1338900,2.70
2016-09-27,2.65,2.70,2.64,2.69,2407000,2.69
2016-09-26,2.66,2.70,2.65,2.68,1218800,2.68
2016-09-23,2.79,2.82,2.67,2.71,2493400,2.71
2016-09-22,2.79,2.81,2.77,2.77,1088900,2.77
2016-09-21,2.78,2.795,2.755,2.77,730400,2.77
2016-09-20,2.85,2.86,2.77,2.78,1571000,2.78
2016-09-19,2.86,2.89,2.83,2.89,182100,2.89
2016-09-16,2.81,2.93,2.80,2.92,1996100,2.92
2016-09-15,2.80,2.85,2.79,2.82,1258300,2.82
2016-09-14,2.87,2.88,2.83,2.84,1064800,2.84
2016-09-13,2.85,2.905,2.85,2.88,1037200,2.88
2016-09-12,2.88,2.89,2.83,2.84,990700,2.84
2016-09-09,2.92,2.97,2.89,2.89,865700,2.89
2016-09-08,2.90,2.96,2.90,2.96,1268300,2.96
2016-09-07,2.90,2.97,2.90,2.96,2429800,2.96
2016-09-06,2.95,2.96,2.91,2.94,923900,2.94
2016-09-05,2.92,2.96,2.91,2.93,427200,2.93
2016-09-02,2.92,2.95,2.90,2.92,728200,2.92
2016-09-01,2.92,2.95,2.89,2.92,906000,2.92
2016-08-31,2.94,2.95,2.88,2.92,994000,2.92
2016-08-30,2.89,2.96,2.88,2.94,691100,2.94
2016-08-29,2.94,2.955,2.87,2.89,904000,2.89
2016-08-26,2.97,2.99,2.93,2.94,714300,2.94
2016-08-25,2.94,3.03,2.94,3.01,1192700,3.01
2016-08-24,2.96,2.97,2.94,2.95,618500,2.95
2016-08-23,2.97,2.98,2.94,2.96,1287400,2.96
2016-08-22,2.97,2.98,2.95,2.96,772000,2.96
2016-08-19,2.96,2.98,2.945,2.96,774200,2.96
2016-08-18,2.97,2.98,2.94,2.95,1378900,2.95
2016-08-17,2.94,2.98,2.935,2.96,1008400,2.96
2016-08-16,2.94,2.99,2.90,2.94,1440800,2.94
2016-08-15,3.26,3.29,3.22,3.27,1770300,3.07
2016-08-12,3.26,3.28,3.21,3.26,1640800,3.06061
2016-08-11,3.25,3.31,3.23,3.26,1945600,3.06061
2016-08-10,3.19,3.25,3.185,3.24,1469400,3.04183
2016-08-09,3.24,3.24,3.17,3.19,2188200,2.99489
2016-08-08,3.24,3.295,3.22,3.23,2228700,3.03245
2016-08-05,3.12,3.25,3.085,3.19,3860500,2.99489
2016-08-04,3.16,3.20,3.09,3.11,4376800,2.91979
2016-08-03,3.12,3.17,3.03,3.10,4584600,2.9104
2016-08-02,2.93,2.96,2.875,2.90,1386300,2.72263
2016-08-01,2.97,2.99,2.91,2.91,943400,2.73202
2016-07-29,2.95,2.97,2.88,2.94,1350100,2.76018
2016-07-28,2.91,2.96,2.90,2.92,789100,2.74141
2016-07-27,2.90,2.93,2.85,2.89,744200,2.71324
2016-07-26,2.84,2.90,2.84,2.87,1160100,2.69446
2016-07-25,2.81,2.84,2.805,2.82,904400,2.64752
2016-07-22,2.81,2.83,2.74,2.75,1346700,2.5818
2016-07-21,2.85,2.85,2.81,2.81,1205200,2.63813
2016-07-20,2.84,2.85,2.81,2.82,754900,2.64752
2016-07-19,2.85,2.87,2.81,2.83,693000,2.65691
2016-07-18,2.84,2.88,2.82,2.83,538000,2.65691
2016-07-15,2.81,2.86,2.805,2.84,909500,2.6663
2016-07-14,2.79,2.81,2.78,2.79,670300,2.61936
2016-07-13,2.76,2.80,2.76,2.78,1070600,2.60997
2016-07-12,2.79,2.82,2.75,2.75,1463400,2.5818
2016-07-11,2.73,2.77,2.73,2.76,735200,2.59119
2016-07-08,2.69,2.74,2.69,2.70,825100,2.53486
2016-07-07,2.67,2.71,2.66,2.69,847600,2.52547
2016-07-06,2.64,2.67,2.605,2.66,1191600,2.49731
2016-07-05,2.72,2.73,2.66,2.66,753100,2.49731
2016-07-04,2.70,2.73,2.68,2.72,683700,2.55364
2016-07-01,2.75,2.78,2.70,2.71,993300,2.54425
2016-06-30,2.63,2.785,2.63,2.75,2365200,2.5818
2016-06-29,2.65,2.67,2.62,2.63,1512200,2.46914
2016-06-28,2.57,2.64,2.51,2.63,1943200,2.46914
2016-06-27,2.63,2.63,2.57,2.62,1293800,2.45976
2016-06-24,2.76,2.78,2.57,2.64,2830500,2.47853
2016-06-23,2.70,2.76,2.69,2.76,1541600,2.59119
2016-06-22,2.68,2.72,2.67,2.69,981400,2.52547
2016-06-21,2.67,2.69,2.62,2.67,2315800,2.5067
2016-06-20,2.65,2.69,2.605,2.67,2974000,2.5067
2016-06-17,2.58,2.585,2.54,2.57,3326900,2.41281
2016-06-16,2.62,2.62,2.55,2.56,2197500,2.40343
2016-06-15,2.61,2.64,2.58,2.59,956700,2.43159
2016-06-14,2.64,2.64,2.59,2.61,1448500,2.45037
2016-06-13,2.64,2.64,2.64,2.64,000,2.47853
2016-06-10,2.66,2.675,2.62,2.64,1174700,2.47853
2016-06-09,2.70,2.71,2.67,2.69,1752200,2.52547
2016-06-08,2.70,2.74,2.69,2.70,1078600,2.53486
2016-06-07,2.66,2.785,2.66,2.72,1315200,2.55364
2016-06-06,2.80,2.815,2.68,2.69,1123300,2.52547
2016-06-03,2.80,2.815,2.72,2.80,1530600,2.62875
2016-06-02,2.63,2.765,2.60,2.67,1120800,2.5067
2016-06-01,2.65,2.67,2.59,2.60,2103500,2.44098
2016-05-31,2.67,2.71,2.61,2.68,1744800,2.51609
2016-05-30,2.73,2.73,2.67,2.67,1034800,2.5067
2016-05-27,2.78,2.805,2.71,2.71,1525300,2.54425
2016-05-26,2.80,2.82,2.75,2.78,1076400,2.60997
2016-05-25,2.83,2.83,2.72,2.77,1829700,2.60058
2016-05-24,2.71,2.83,2.68,2.72,776500,2.55364
2016-05-23,3.19112,3.20281,3.08007,3.0976,2150600,3.39935
2016-05-20,3.12098,3.17943,3.10929,3.15605,1056700,3.46349
2016-05-19,3.14436,3.17943,3.08591,3.12098,1810100,3.42501
2016-05-18,3.07423,3.14436,3.07423,3.0976,1435200,3.39935
2016-05-17,3.13267,3.17943,3.06254,3.07423,2013400,3.3737
2016-05-16,3.14436,3.15605,3.10929,3.12098,1074600,3.42501
2016-05-13,3.15605,3.17358,3.12098,3.14436,1056000,3.45067
2016-05-12,3.13267,3.15605,3.08591,3.15605,1577100,3.46349
2016-05-11,3.06254,3.13267,3.05085,3.12098,1317400,3.42501
2016-05-10,3.02747,3.06254,3.00409,3.06254,1523400,3.36088
2016-05-09,2.9924,3.03916,2.98071,2.9924,1039000,3.2839
2016-05-06,3.01578,3.03916,2.98071,3.00409,2138300,3.29673
2016-05-05,2.92227,3.01578,2.8872,2.9924,1382000,3.2839
2016-05-04,2.87551,2.91058,2.85213,2.91058,3664000,3.19411
2016-05-03,2.80538,2.87551,2.80538,2.85213,2470400,3.12997
2016-05-02,2.85213,2.86382,2.80538,2.81707,2338200,3.09149
2016-04-29,2.79369,2.82876,2.77031,2.79369,1765900,3.06584
2016-04-28,2.782,2.81122,2.77031,2.782,1952200,3.05301
2016-04-27,2.85213,2.85213,2.73524,2.74693,2302000,3.01452
2016-04-26,2.84044,2.86382,2.782,2.782,876700,3.05301
2016-04-25,2.82876,2.82876,2.82876,2.82876,000,3.10432
2016-04-22,2.82876,2.86382,2.79369,2.82876,1756500,3.10432
2016-04-21,2.87551,2.87551,2.79369,2.79369,1501400,3.06584
2016-04-20,2.89889,2.93396,2.84044,2.84044,1085500,3.11714
2016-04-19,2.86382,2.89889,2.82876,2.8872,1510000,3.16845
2016-04-18,2.87551,2.87551,2.81707,2.82876,1177300,3.10432
2016-04-15,2.87551,2.91642,2.85213,2.86382,1564300,3.1428
2016-04-14,2.86382,2.87551,2.84044,2.85213,1473400,3.12997
2016-04-13,2.81707,2.84044,2.79369,2.81707,1618400,3.09149
2016-04-12,2.80538,2.81707,2.79369,2.80538,1553900,3.07866
2016-04-11,2.86382,2.86967,2.782,2.79369,1052100,3.06584
2016-04-08,2.8872,2.91642,2.82876,2.86382,1199700,3.1428
2016-04-07,2.91058,2.93396,2.88136,2.89889,1196300,3.18128
2016-04-06,2.87551,2.92227,2.86382,2.91058,1060900,3.19411
2016-04-05,2.93396,2.95733,2.81707,2.8872,1970600,3.16845
2016-04-04,2.94565,2.98071,2.91058,2.94565,1176500,3.2326
2016-04-01,2.45,2.545,2.42,2.51,3309500,2.75451
2016-03-31,2.44,2.52,2.37,2.49,7164100,2.73256
2016-03-30,2.32,2.33,2.28,2.30,942000,2.52406
2016-03-29,2.39,2.40,2.30,2.31,1325100,2.53503
2016-03-28,2.38,2.38,2.38,2.38,000,2.61185
2016-03-25,2.38,2.38,2.38,2.38,000,2.61185
2016-03-24,2.39,2.40,2.37,2.38,2627800,2.61185
2016-03-23,2.47,2.47,2.40,2.40,1192000,2.6338
2016-03-22,2.47,2.48,2.45,2.47,2442300,2.71061
2016-03-21,2.44,2.50,2.435,2.46,2301000,2.69964
2016-03-18,2.40,2.46,2.395,2.45,3420900,2.68866
2016-03-17,2.38,2.40,2.37,2.38,1610200,2.61185
2016-03-16,2.35,2.38,2.35,2.36,1550600,2.5899
2016-03-15,2.38,2.39,2.35,2.37,2429700,2.60087
2016-03-14,2.37,2.39,2.34,2.34,897800,2.56795
2016-03-11,2.37,2.38,2.32,2.33,661600,2.55697
2016-03-10,2.34,2.37,2.32,2.37,1169300,2.60087
2016-03-09,2.31,2.33,2.30,2.33,1435000,2.55697
2016-03-08,2.37,2.38,2.31,2.31,1374100,2.53503
2016-03-07,2.33,2.37,2.28,2.34,1835700,2.56795
2016-03-04,2.29,2.345,2.28,2.31,1568200,2.53503
2016-03-03,2.24,2.31,2.235,2.28,1332700,2.50211
2016-03-02,2.20,2.24,2.17,2.23,4120600,2.44723
2016-03-01,2.17,2.21,2.15,2.17,1189500,2.38139
2016-02-29,2.14,2.23,2.11,2.17,1208300,2.38139
2016-02-26,2.15,2.185,2.12,2.13,916100,2.33749
2016-02-25,2.17,2.18,2.08,2.14,1743700,2.34847
2016-02-24,2.21,2.23,2.12,2.14,1969500,2.34847
2016-02-23,2.25,2.29,2.21,2.21,1245400,2.42528
2016-02-22,2.26,2.275,2.22,2.25,1071100,2.46918
2016-02-19,2.27,2.27,2.235,2.24,1034800,2.45821
2016-02-18,2.24,2.29,2.22,2.26,1656700,2.48016
2016-02-17,2.25,2.26,2.19,2.20,3117800,2.41432
2016-02-16,2.47,2.47,2.40,2.42,3297700,2.46798
2016-02-15,2.34,2.44,2.34,2.41,1970500,2.45778
2016-02-12,2.37,2.41,2.26,2.32,2398000,2.36599
2016-02-11,2.35,2.41,2.30,2.40,1944800,2.44758
2016-02-10,2.42,2.44,2.28,2.33,2360200,2.37619
2016-02-09,2.47,2.47,2.34,2.42,2419000,2.46798
2016-02-08,2.63,2.63,2.46,2.48,2049500,2.52917
2016-02-05,2.60,2.66,2.45,2.65,2148400,2.70253
2016-02-04,2.51,2.59,2.50,2.54,1263200,2.59035
2016-02-03,2.50,2.52,2.47,2.51,1154400,2.55976
2016-02-02,2.58,2.595,2.53,2.54,828300,2.59035
2016-02-01,2.60,2.65,2.57,2.59,1985500,2.64135
2016-01-29,2.51,2.60,2.505,2.59,1693600,2.64135
2016-01-28,2.50,2.52,2.47,2.51,879900,2.55976
2016-01-27,2.48,2.535,2.475,2.50,1934100,2.54956
2016-01-26,2.50,2.50,2.50,2.50,000,2.54956
2016-01-25,2.45,2.51,2.45,2.50,1005400,2.54956
2016-01-22,2.43,2.44,2.39,2.41,814400,2.45778
2016-01-21,2.46,2.46,2.40,2.41,1145600,2.45778
2016-01-20,2.43,2.46,2.385,2.40,1122500,2.44758
2016-01-19,2.42,2.44,2.41,2.42,1039000,2.46798
2016-01-18,2.43,2.43,2.34,2.41,1791700,2.45778
2016-01-15,2.54,2.54,2.445,2.47,1203300,2.51897
2016-01-14,2.52,2.54,2.495,2.50,1146500,2.54956
2016-01-13,2.58,2.60,2.55,2.58,1630900,2.63115
2016-01-12,2.57,2.62,2.55,2.58,1899400,2.63115
2016-01-11,2.61,2.63,2.51,2.59,2240600,2.64135
2016-01-08,2.59,2.69,2.59,2.69,1282100,2.74333
2016-01-07,2.71,2.71,2.63,2.67,982900,2.72293
2016-01-06,2.70,2.72,2.63,2.67,909100,2.72293
2016-01-05,2.70,2.705,2.665,2.68,904000,2.73313
2016-01-04,2.77,2.78,2.73,2.73,1028900,2.78412
2016-01-01,2.76,2.76,2.76,2.76,000,2.81471
2015-12-31,2.76,2.77,2.74,2.76,225500,2.81471
2015-12-30,2.79,2.80,2.74,2.76,969800,2.81471
2015-12-29,2.65,2.75,2.64,2.75,943200,2.80451
2015-12-28,2.67,2.67,2.67,2.67,000,2.72293
2015-12-25,2.67,2.67,2.67,2.67,000,2.72293
2015-12-24,2.68,2.68,2.62,2.67,224900,2.72293
2015-12-23,2.64,2.655,2.62,2.65,483300,2.70253
2015-12-22,2.58,2.62,2.565,2.60,1085500,2.65155
2015-12-21,2.53,2.56,2.50,2.53,1065600,2.58015
2015-12-18,2.50,2.56,2.465,2.54,1746000,2.59035
2015-12-17,2.56,2.56,2.51,2.51,2105800,2.55976
2015-12-16,2.41,2.50,2.40,2.50,1169900,2.54956
2015-12-15,2.42,2.465,2.405,2.41,1182800,2.45778
2015-12-14,2.46,2.48,2.41,2.42,1020700,2.46798
2015-12-11,2.47,2.52,2.47,2.49,1055300,2.53936
2015-12-10,2.52,2.53,2.455,2.47,1455000,2.51897
2015-12-09,2.52,2.565,2.50,2.54,3146100,2.59035
2015-12-08,2.56,2.56,2.50,2.51,1847200,2.55976
2015-12-07,2.59,2.60,2.55,2.57,2481200,2.62095
2015-12-04,2.55,2.60,2.54,2.56,3184000,2.61075
2015-12-03,2.58,2.59,2.54,2.56,5401300,2.61075
2015-12-02,2.61,2.63,2.58,2.59,5137300,2.64135
2015-12-01,2.55,2.65,2.55,2.60,6294800,2.65155
2015-11-30,2.62,2.62,2.51,2.54,6340800,2.59035
2015-11-27,2.73,2.73,2.59,2.60,9096800,2.65155
2015-11-26,2.74,2.76,2.69,2.73,8426500,2.78412
2015-11-25,2.80,2.82,2.68,2.73,8471300,2.78412
2015-11-24,2.81,2.85,2.765,2.81,7154900,2.86571
2015-11-23,2.87,2.87,2.81,2.83,5993500,2.88611
2015-11-20,2.87,2.885,2.85,2.87,4672700,2.92689
2015-11-19,2.79,2.88,2.78,2.87,5405400,2.92689
2015-11-18,2.79,2.82,2.765,2.78,4462200,2.83511
2015-11-17,2.85,2.86,2.77,2.80,3623100,2.85551
2015-11-16,2.76,2.83,2.76,2.81,458400,2.86571
2015-11-13,2.82,2.83,2.77,2.83,728500,2.88611
2015-11-12,2.83,2.87,2.83,2.86,455500,2.91669
2015-11-11,2.82,2.85,2.80,2.85,483100,2.9065
2015-11-10,2.80,2.85,2.77,2.82,1040100,2.87591
2015-11-09,2.82,2.86,2.80,2.81,907000,2.86571
2015-11-06,2.85,2.86,2.82,2.84,959600,2.89631
2015-11-05,2.83,2.855,2.82,2.85,1375100,2.9065
2015-11-04,2.86,2.89,2.82,2.82,1467700,2.87591
2015-11-03,2.77,2.89,2.77,2.85,1781000,2.9065
2015-11-02,2.75,2.77,2.71,2.75,1443200,2.80451
2015-10-30,2.65,2.745,2.62,2.70,1414300,2.75353
2015-10-29,2.73,2.76,2.635,2.65,1589900,2.70253
2015-10-28,2.72,2.735,2.66,2.69,1233200,2.74333
2015-10-27,2.71,2.74,2.70,2.72,1066500,2.77393
2015-10-26,2.68,2.72,2.67,2.70,993800,2.75353
2015-10-23,2.66,2.69,2.64,2.68,1040300,2.73313
2015-10-22,2.63,2.64,2.59,2.60,776200,2.65155
2015-10-21,2.60,2.66,2.57,2.66,767900,2.71273
2015-10-20,2.61,2.66,2.59,2.60,761800,2.65155
2015-10-19,2.70,2.70,2.60,2.61,746000,2.66174
2015-10-16,2.64,2.73,2.60,2.68,2722500,2.73313
2015-10-15,2.58,2.61,2.49,2.59,1159300,2.64135
2015-10-14,2.60,2.62,2.51,2.51,1204800,2.55976
2015-10-13,2.57,2.65,2.57,2.59,1080400,2.64135
2015-10-12,2.52,2.57,2.50,2.56,1813000,2.61075
2015-10-09,2.49,2.51,2.47,2.48,540300,2.52917
2015-10-08,2.47,2.51,2.435,2.45,685700,2.49857
2015-10-07,2.46,2.47,2.39,2.41,1035800,2.45778
2015-10-06,2.40,2.46,2.38,2.45,1162500,2.49857
2015-10-05,2.35,2.39,2.35,2.38,552800,2.42718
2015-10-02,2.28,2.36,2.23,2.35,1746500,2.39659
2015-10-01,2.31,2.35,2.29,2.30,1609000,2.3456
2015-09-30,2.22,2.325,2.21,2.30,2349000,2.3456
2015-09-29,2.35,2.35,2.21,2.21,1558100,2.25381
2015-09-28,2.34,2.40,2.32,2.39,443800,2.43738
2015-09-25,2.38,2.40,2.325,2.35,634900,2.39659
2015-09-24,2.33,2.40,2.33,2.37,1476700,2.41698
2015-09-23,2.40,2.42,2.305,2.32,2498400,2.36599
2015-09-22,2.49,2.50,2.41,2.41,1536000,2.45778
2015-09-21,2.49,2.49,2.42,2.44,1349100,2.48837
2015-09-18,2.50,2.56,2.45,2.56,1699000,2.61075
2015-09-17,2.49,2.57,2.49,2.49,1929200,2.53936
2015-09-16,2.50,2.53,2.43,2.48,1984200,2.52917
2015-09-15,2.45,2.50,2.43,2.44,1748800,2.48837
2015-09-14,2.49,2.49,2.41,2.42,1100300,2.46798
2015-09-11,2.46,2.48,2.44,2.45,1091300,2.49857
2015-09-10,2.42,2.50,2.41,2.46,1189200,2.50877
2015-09-09,2.53,2.56,2.49,2.51,1107700,2.55976
2015-09-08,2.46,2.52,2.45,2.51,487200,2.55976
2015-09-07,2.46,2.48,2.40,2.44,624200,2.48837
2015-09-04,2.45,2.49,2.42,2.46,1557000,2.50877
2015-09-03,2.49,2.51,2.44,2.46,827400,2.50877
2015-09-02,2.46,2.495,2.44,2.45,2226400,2.49857
2015-09-01,2.65,2.67,2.53,2.54,2484900,2.59035
2015-08-31,2.70,2.73,2.65,2.68,2738200,2.73313
2015-08-28,2.67,2.73,2.66,2.72,1257600,2.77393
2015-08-27,2.65,2.70,2.63,2.66,3357900,2.71273
2015-08-26,2.58,2.63,2.51,2.62,1257400,2.67194
2015-08-25,2.50,2.65,2.50,2.63,1732900,2.68214
2015-08-24,2.61,2.64,2.575,2.58,14240500,2.63115
2015-08-21,2.75,2.79,2.64,2.68,2953000,2.73313
2015-08-20,2.82,2.86,2.75,2.77,4463500,2.82491
2015-08-19,2.83,2.89,2.82,2.87,3479700,2.92689
2015-08-18,3.34,3.34,3.21,3.22,3210000,3.12804
2015-08-17,3.35,3.36,3.29,3.30,1660300,3.20575
2015-08-14,3.28,3.30,3.26,3.27,1267500,3.17661
2015-08-13,3.25,3.29,3.22,3.27,1477200,3.17661
2015-08-12,3.18,3.245,3.17,3.24,2558100,3.14747
2015-08-11,3.19,3.215,3.16,3.17,3342200,3.07947
2015-08-10,3.15,3.21,3.13,3.16,2403500,3.06976
2015-08-07,3.07,3.15,3.07,3.13,1690000,3.04061
2015-08-06,3.34,3.34,3.02,3.15,7134500,3.06004
2015-08-05,3.67,3.74,3.50,3.51,6105800,3.40975
2015-08-04,3.60,3.645,3.51,3.51,1733600,3.40975
2015-08-03,3.62,3.67,3.59,3.61,778400,3.5069
2015-07-31,3.64,3.64,3.58,3.58,3238200,3.47776
2015-07-30,3.52,3.64,3.505,3.61,1736600,3.5069
2015-07-29,3.64,3.66,3.47,3.49,2139500,3.39033
2015-07-28,3.46,3.57,3.46,3.57,1967400,3.46804
2015-07-27,3.40,3.50,3.39,3.50,1360300,3.40004
2015-07-24,3.38,3.45,3.37,3.39,2127200,3.29318
2015-07-23,3.37,3.40,3.35,3.40,1287900,3.30289
2015-07-22,3.39,3.41,3.36,3.38,2082900,3.28347
2015-07-21,3.32,3.38,3.30,3.37,2893500,3.27376
2015-07-20,3.36,3.365,3.29,3.30,1244100,3.20575
2015-07-17,3.30,3.40,3.295,3.35,2745800,3.25433
2015-07-16,3.34,3.36,3.28,3.30,1168400,3.20575
2015-07-15,3.28,3.31,3.25,3.27,964600,3.17661
2015-07-14,3.25,3.29,3.21,3.26,1134700,3.1669
2015-07-13,3.18,3.24,3.15,3.20,446700,3.10861
2015-07-10,3.18,3.21,3.17,3.19,731800,3.09889
2015-07-09,3.11,3.18,3.10,3.15,736100,3.06004
2015-07-08,3.18,3.21,3.13,3.13,1344800,3.04061
2015-07-07,3.18,3.24,3.17,3.21,576500,3.11832
2015-07-06,3.20,3.20,3.14,3.16,460200,3.06976
2015-07-03,3.23,3.24,3.18,3.22,882500,3.12804
2015-07-02,3.18,3.27,3.17,3.25,1380900,3.15718
2015-07-01,3.12,3.20,3.12,3.19,587400,3.09889
2015-06-30,3.07,3.14,3.07,3.14,1177300,3.05033
2015-06-29,3.08,3.13,3.06,3.11,860100,3.02118
2015-06-26,3.20,3.20,3.105,3.15,843500,3.06004
2015-06-25,3.26,3.26,3.22,3.22,852700,3.12804
2015-06-24,3.29,3.30,3.26,3.27,681100,3.17661
2015-06-23,3.25,3.34,3.25,3.29,981100,3.19604
2015-06-22,3.30,3.32,3.24,3.30,467400,3.20575
2015-06-19,3.20,3.32,3.20,3.31,2746500,3.21547
2015-06-18,3.25,3.26,3.18,3.20,1522700,3.10861
2015-06-17,3.24,3.27,3.23,3.26,574900,3.1669
2015-06-16,3.25,3.27,3.22,3.24,501900,3.14747
2015-06-15,3.21,3.26,3.175,3.24,766500,3.14747
2015-06-12,3.23,3.26,3.20,3.25,1702400,3.15718
2015-06-11,3.17,3.265,3.17,3.25,1887500,3.15718
2015-06-10,3.14,3.15,3.08,3.15,763500,3.06004
2015-06-09,3.12,3.16,3.12,3.14,879400,3.05033
2015-06-08,3.14,3.14,3.14,3.14,000,3.05033
2015-06-05,3.16,3.17,3.12,3.14,2997100,3.05033
2015-06-04,3.08,3.10,3.04,3.06,1179200,2.97261
2015-06-03,3.09,3.10,3.07,3.08,1314700,2.99203
2015-06-02,3.14,3.14,3.08,3.11,652800,3.02118
2015-06-01,3.16,3.17,3.10,3.13,1012000,3.04061
2015-05-29,3.08,3.17,3.07,3.17,2169700,3.07947
2015-05-28,3.10,3.11,3.07,3.09,683800,3.00175
2015-05-27,3.10,3.12,3.07,3.10,6429700,3.01146
2015-05-26,3.11,3.115,3.08,3.11,914700,3.02118
2015-05-25,3.10,3.12,3.08,3.10,1819600,3.01146
2015-05-22,3.12,3.14,3.09,3.09,1965100,3.00175
2015-05-21,3.15,3.15,3.11,3.12,1170900,3.03089
2015-05-20,3.12,3.15,3.10,3.11,7261200,3.02118
2015-05-19,3.17,3.18,3.12,3.12,1606800,3.03089
2015-05-18,3.16,3.20,3.12,3.12,3225200,3.03089
2015-05-15,3.21,3.22,3.15,3.17,12120100,3.07947
2015-05-14,3.18,3.21,3.17,3.18,1926900,3.08918
2015-05-13,3.15,3.21,3.15,3.19,1848000,3.09889
2015-05-12,3.10,3.24,3.10,3.21,94277000,3.11832
2015-05-11,3.20,3.26,3.105,3.14,343400,3.05033
2015-05-08,3.12,3.28,3.12,3.16,17314300,3.06976
2015-05-07,3.15,3.16,3.06,3.09,917700,3.00175
2015-05-06,3.29,3.32,3.20,3.20,560900,3.10861
2015-05-05,3.43,3.43,3.28,3.29,2038400,3.19604
2015-05-04,3.39,3.43,3.33,3.37,840100,3.27376
2015-05-01,3.31,3.41,3.30,3.39,716300,3.29318
2015-04-30,3.27,3.42,3.27,3.36,976100,3.26404
2015-04-29,3.36,3.36,3.28,3.30,5757800,3.20575
2015-04-28,3.47,3.48,3.41,3.45,996300,3.35147
2015-04-27,3.38,3.48,3.37,3.47,997000,3.3709
2015-04-24,3.37,3.395,3.34,3.36,3179500,3.26404
2015-04-23,3.36,3.365,3.33,3.35,443900,3.25433
2015-04-22,3.37,3.42,3.34,3.36,792500,3.26404
2015-04-21,3.37,3.39,3.355,3.37,357400,3.27376
2015-04-20,3.38,3.38,3.32,3.36,731400,3.26404
2015-04-17,3.40,3.46,3.395,3.40,576000,3.30289
2015-04-16,3.45,3.45,3.40,3.43,6664200,3.33204
2015-04-15,3.42,3.45,3.40,3.44,938600,3.34176
2015-04-14,3.38,3.44,3.36,3.42,818000,3.32233
2015-04-13,3.37,3.41,3.37,3.39,474900,3.29318
2015-04-10,3.36,3.38,3.32,3.36,1024800,3.26404
2015-04-09,3.30,3.36,3.30,3.34,835800,3.24461
2015-04-08,3.27,3.30,3.25,3.30,841100,3.20575
2015-04-07,3.27,3.30,3.25,3.27,723700,3.17661
2015-04-06,3.27,3.27,3.27,3.27,000,3.17661
2015-04-03,3.27,3.27,3.27,3.27,000,3.17661
2015-04-02,3.26,3.28,3.25,3.27,456700,3.17661
2015-04-01,3.26,3.28,3.255,3.26,889100,3.1669
2015-03-31,3.26,3.32,3.26,3.30,605900,3.20575
2015-03-30,3.26,3.27,3.25,3.26,1374000,3.1669
2015-03-27,3.27,3.30,3.24,3.28,758900,3.18633
2015-03-26,3.31,3.34,3.29,3.30,1170300,3.20575
2015-03-25,3.32,3.39,3.31,3.38,1792000,3.28347
2015-03-24,3.26,3.32,3.25,3.30,812600,3.20575
2015-03-23,3.25,3.285,3.24,3.25,1279500,3.15718
2015-03-20,3.29,3.30,3.24,3.29,2910000,3.19604
2015-03-19,3.27,3.34,3.27,3.30,1005500,3.20575
2015-03-18,3.29,3.31,3.24,3.30,994600,3.20575
2015-03-17,3.29,3.33,3.26,3.30,807900,3.20575
2015-03-16,3.31,3.33,3.28,3.30,1024500,3.20575
2015-03-13,3.30,3.34,3.28,3.33,1190900,3.2349
2015-03-12,3.20,3.31,3.20,3.29,2768400,3.19604
2015-03-11,3.21,3.23,3.16,3.20,797000,3.10861
2015-03-10,3.29,3.30,3.25,3.25,561100,3.15718
2015-03-09,3.27,3.30,3.24,3.28,826800,3.18633
2015-03-06,3.26,3.32,3.25,3.30,1096900,3.20575
2015-03-05,3.26,3.26,3.21,3.25,1323900,3.15718
2015-03-04,3.30,3.35,3.26,3.27,1527800,3.17661
2015-03-03,3.28,3.34,3.21,3.33,1580400,3.2349
2015-03-02,3.32,3.35,3.24,3.28,14234700,3.18633
2015-02-27,3.30,3.34,3.27,3.32,3189000,3.22518
2015-02-26,3.27,3.33,3.23,3.30,2498300,3.20575
2015-02-25,3.28,3.31,3.26,3.31,2250800,3.21547
2015-02-24,3.30,3.30,3.24,3.26,2778200,3.1669
2015-02-23,3.35,3.37,3.30,3.30,10238400,3.20575
2015-02-20,3.33,3.34,3.30,3.33,3382700,3.2349
2015-02-19,3.37,3.40,3.30,3.32,6761700,3.22518
2015-02-18,3.20,3.40,3.20,3.32,15842200,3.22518
2015-02-17,4.34,4.37,4.30,4.30,1540400,3.88516
2015-02-16,4.36,4.37,4.28,4.32,1192900,3.90323
2015-02-13,4.37,4.38,4.31,4.32,1264900,3.90323
2015-02-12,4.25,4.345,4.18,4.28,3696000,3.86709
2015-02-11,4.25,4.30,4.12,4.19,2686800,3.78577
2015-02-10,3.96,4.01,3.92,3.94,1392800,3.55989
2015-02-09,3.91,3.98,3.85,3.98,970400,3.59603
2015-02-06,3.91,3.96,3.84,3.92,1589400,3.54182
2015-02-05,3.71,3.85,3.64,3.85,2607200,3.47857
2015-02-04,3.68,3.755,3.63,3.73,1551800,3.37015
2015-02-03,3.52,3.60,3.52,3.56,2127000,3.21655
2015-02-02,3.51,3.54,3.47,3.51,1587400,3.17137
2015-01-30,3.49,3.59,3.49,3.54,1548000,3.19848
2015-01-29,3.39,3.49,3.39,3.47,1603000,3.13523
2015-01-28,3.41,3.41,3.37,3.40,1895300,3.07198
2015-01-27,3.41,3.46,3.39,3.40,896700,3.07198
2015-01-26,3.40,3.40,3.40,3.40,000,3.07198
2015-01-23,3.42,3.43,3.32,3.40,1453700,3.07198
2015-01-22,3.44,3.52,3.39,3.41,1058200,3.08102
2015-01-21,3.35,3.43,3.35,3.43,913800,3.09909
2015-01-20,3.35,3.38,3.32,3.34,992900,3.01777
2015-01-19,3.45,3.46,3.33,3.34,895100,3.01777
2015-01-16,3.35,3.41,3.35,3.39,2441200,3.06295
2015-01-15,3.37,3.43,3.35,3.40,2098700,3.07198
2015-01-14,3.41,3.42,3.31,3.36,1150500,3.03585
2015-01-13,3.32,3.43,3.30,3.39,692700,3.06295
2015-01-12,3.33,3.41,3.31,3.34,660800,3.01777
2015-01-09,3.33,3.37,3.30,3.34,1250900,3.01777
2015-01-08,3.42,3.42,3.26,3.29,1064100,2.97259
2015-01-07,3.41,3.43,3.35,3.40,392400,3.07198
2015-01-06,3.50,3.51,3.41,3.44,561400,3.10813
2015-01-05,3.59,3.60,3.53,3.57,219200,3.22559
2015-01-02,3.63,3.64,3.59,3.62,82100,3.27076
2015-01-01,3.64,3.64,3.64,3.64,000,3.28883
2014-12-31,3.61,3.69,3.57,3.64,278900,3.28883
2014-12-30,3.69,3.69,3.56,3.60,472100,3.25269
2014-12-29,3.58,3.715,3.57,3.69,426900,3.33401
2014-12-26,3.57,3.57,3.57,3.57,000,3.22559
2014-12-25,3.57,3.57,3.57,3.57,000,3.22559
2014-12-24,3.58,3.61,3.54,3.57,161900,3.22559
2014-12-23,3.55,3.62,3.52,3.58,526500,3.23462
2014-12-22,3.46,3.57,3.46,3.54,580300,3.19848
2014-12-19,3.41,3.46,3.38,3.45,3843100,3.11716
2014-12-18,3.37,3.40,3.34,3.38,819300,3.05392
2014-12-17,3.35,3.40,3.33,3.37,400400,3.04488
2014-12-16,3.39,3.42,3.33,3.36,818900,3.03585
2014-12-15,3.35,3.42,3.35,3.39,684800,3.06295
2014-12-12,3.36,3.43,3.36,3.40,458600,3.07198
2014-12-11,3.38,3.42,3.345,3.40,968500,3.07198
2014-12-10,3.40,3.43,3.31,3.42,1195500,3.09005
2014-12-09,3.41,3.43,3.36,3.41,1333100,3.08102
2014-12-08,3.40,3.45,3.38,3.43,926900,3.09909
2014-12-05,3.37,3.43,3.36,3.36,1682900,3.03585
2014-12-04,3.36,3.41,3.36,3.38,1373800,3.05392
2014-12-03,3.37,3.42,3.35,3.40,753100,3.07198
2014-12-02,3.40,3.43,3.38,3.41,1493000,3.08102
2014-12-01,3.46,3.48,3.41,3.42,1331500,3.09005
2014-11-28,3.53,3.53,3.46,3.46,460000,3.1262
2014-11-27,3.53,3.54,3.50,3.51,389800,3.17137
2014-11-26,3.49,3.58,3.48,3.53,879300,3.18944
2014-11-25,3.48,3.53,3.43,3.44,5385100,3.10813
2014-11-24,3.43,3.56,3.42,3.52,740100,3.18041
2014-11-21,3.38,3.42,3.355,3.41,1222600,3.08102
2014-11-20,3.43,3.44,3.36,3.38,1393100,3.05392
2014-11-19,3.44,3.52,3.40,3.48,614900,3.14427
2014-11-18,3.48,3.49,3.44,3.45,552800,3.11716
2014-11-17,3.54,3.60,3.49,3.49,528900,3.15331
2014-11-14,3.63,3.63,3.51,3.54,835400,3.19848
2014-11-13,3.57,3.66,3.53,3.62,1089900,3.27076
2014-11-12,3.62,3.64,3.52,3.53,1101900,3.18944
2014-11-11,3.58,3.65,3.56,3.64,1477900,3.28883
2014-11-10,3.66,3.67,3.49,3.56,1475600,3.21655
2014-11-07,3.76,3.87,3.58,3.68,2194200,3.32497
2014-11-06,3.79,3.79,3.67,3.70,1217700,3.34305
2014-11-05,3.80,3.80,3.76,3.79,532100,3.42436
2014-11-04,3.74,3.80,3.74,3.80,449500,3.4334
2014-11-03,3.72,3.77,3.72,3.74,200500,3.37918
2014-10-31,3.75,3.77,3.70,3.72,754000,3.36111
2014-10-30,3.75,3.78,3.69,3.72,536000,3.36111
2014-10-29,3.65,3.74,3.65,3.72,986900,3.36111
2014-10-28,3.68,3.70,3.59,3.63,654100,3.27979
2014-10-27,3.58,3.70,3.57,3.68,1038400,3.32497
2014-10-24,3.60,3.64,3.53,3.54,843700,3.19848
2014-10-23,3.58,3.69,3.55,3.55,902500,3.20751
2014-10-22,3.55,3.61,3.55,3.60,651800,3.25269
2014-10-21,3.52,3.54,3.46,3.50,509800,3.16233
2014-10-20,3.50,3.51,3.46,3.50,686600,3.16233
2014-10-17,3.48,3.50,3.41,3.44,553700,3.10813
2014-10-16,3.40,3.49,3.36,3.45,1678800,3.11716
2014-10-15,3.39,3.49,3.39,3.45,628100,3.11716
2014-10-14,3.37,3.41,3.30,3.40,1344500,3.07198
2014-10-13,3.30,3.43,3.29,3.40,738000,3.07198
2014-10-10,3.35,3.51,3.34,3.46,1148200,3.1262
2014-10-09,3.36,3.47,3.32,3.45,921700,3.11716
2014-10-08,3.30,3.36,3.26,3.32,1070400,2.9997
2014-10-07,3.39,3.40,3.26,3.38,664900,3.05392
2014-10-06,3.36,3.415,3.34,3.40,404500,3.07198
2014-10-03,3.34,3.38,3.31,3.36,213200,3.03585
2014-10-02,3.43,3.44,3.35,3.37,559800,3.04488
2014-10-01,3.39,3.50,3.35,3.48,994800,3.14427
2014-09-30,3.40,3.43,3.38,3.42,701700,3.09005
2014-09-29,3.38,3.48,3.35,3.39,668900,3.06295
2014-09-26,3.33,3.41,3.27,3.40,1425200,3.07198
2014-09-25,3.38,3.39,3.31,3.37,907800,3.04488
2014-09-24,3.35,3.40,3.08,3.29,1878500,2.97259
2014-09-23,3.40,3.43,3.34,3.42,1479000,3.09005
2014-09-22,3.54,3.63,3.41,3.43,857600,3.09909
2014-09-19,3.56,3.59,3.48,3.51,997100,3.17137
2014-09-18,3.58,3.58,3.49,3.54,527000,3.19848
2014-09-17,3.49,3.59,3.47,3.52,906800,3.18041
2014-09-16,3.53,3.56,3.45,3.47,1242600,3.13523
2014-09-15,3.67,3.68,3.555,3.65,862100,3.29787
2014-09-12,3.73,3.77,3.67,3.70,549500,3.34305
2014-09-11,3.75,3.82,3.67,3.79,705200,3.42436
2014-09-10,3.71,3.76,3.69,3.72,590600,3.36111
2014-09-09,3.74,3.81,3.65,3.75,437300,3.38822
2014-09-08,3.79,3.83,3.71,3.76,252600,3.39725
2014-09-05,3.83,3.83,3.75,3.77,199600,3.40629
2014-09-04,3.83,3.87,3.75,3.83,310500,3.4605
2014-09-03,3.82,3.885,3.79,3.83,610500,3.4605
2014-09-02,3.84,3.89,3.77,3.86,1006900,3.48761
2014-09-01,3.79,3.88,3.73,3.84,857900,3.46953
2014-08-29,3.85,3.85,3.765,3.77,810400,3.40629
2014-08-28,3.82,3.88,3.81,3.84,1156500,3.46953
2014-08-27,3.80,3.90,3.77,3.83,1138800,3.4605
2014-08-26,3.70,3.84,3.70,3.77,1327800,3.40629
2014-08-25,3.64,3.69,3.62,3.69,892000,3.33401
2014-08-22,3.60,3.65,3.57,3.64,1081100,3.28883
2014-08-21,3.67,3.74,3.58,3.59,7962000,3.24366
2014-08-20,3.65,3.68,3.60,3.67,543000,3.31594
2014-08-19,3.63,3.68,3.60,3.61,929600,3.26172
2014-08-18,3.52,3.65,3.51,3.56,1828800,3.21655
2014-08-15,3.53,3.54,3.49,3.49,1599800,3.15331
2014-08-14,3.50,3.56,3.43,3.51,1345200,3.17137
2014-08-13,3.50,3.50,3.43,3.46,703600,3.1262
2014-08-12,3.52,3.53,3.47,3.50,337800,3.13142
2014-08-11,3.52,3.555,3.48,3.49,1081300,3.12248
2014-08-08,3.44,3.50,3.43,3.47,1860800,3.10458
2014-08-07,3.39,3.485,3.36,3.44,4538500,3.07774
2014-08-06,3.37,3.45,3.32,3.34,843200,2.98827
2014-08-05,3.45,3.47,3.38,3.39,1448400,3.033
2014-08-04,3.43,3.49,3.39,3.39,3141900,3.033
2014-08-01,3.38,3.50,3.38,3.43,1116900,3.06879
2014-07-31,3.53,3.56,3.37,3.45,3793000,3.08669
2014-07-30,3.36,3.60,3.35,3.59,2952800,3.21194
2014-07-29,3.29,3.31,3.24,3.27,826700,2.92564
2014-07-28,3.30,3.30,3.22,3.25,209700,2.90775
2014-07-25,3.30,3.32,3.28,3.29,179200,2.94353
2014-07-24,3.30,3.34,3.28,3.29,1345400,2.94353
2014-07-23,3.27,3.31,3.26,3.27,1454800,2.92564
2014-07-22,3.29,3.29,3.24,3.26,345000,2.9167
2014-07-21,3.28,3.29,3.22,3.27,159300,2.92564
2014-07-18,3.25,3.26,3.21,3.25,123400,2.90775
2014-07-17,3.30,3.30,3.23,3.28,150400,2.93459
2014-07-16,3.27,3.30,3.23,3.25,301800,2.90775
2014-07-15,3.21,3.25,3.18,3.25,172400,2.90775
2014-07-14,3.19,3.21,3.14,3.20,204700,2.86301
2014-07-11,3.22,3.22,2.95,3.13,1143400,2.80038
2014-07-10,3.21,3.23,3.17,3.19,136600,2.85406
2014-07-09,3.30,3.30,3.15,3.15,840100,2.81828
2014-07-08,3.32,3.34,3.29,3.30,617200,2.95248
2014-07-07,3.30,3.33,3.28,3.30,322000,2.95248
2014-07-04,3.32,3.33,3.25,3.30,203400,2.95248
2014-07-03,3.26,3.33,3.26,3.33,901000,2.97932
2014-07-02,3.20,3.25,3.20,3.25,286700,2.90775
2014-07-01,3.26,3.27,3.20,3.20,136600,2.86301
2014-06-30,3.26,3.30,3.26,3.28,619900,2.93459
2014-06-27,3.19,3.26,3.18,3.26,1615200,2.9167
2014-06-26,3.16,3.19,3.16,3.19,157100,2.85406
2014-06-25,3.10,3.19,3.10,3.16,1051400,2.82723
2014-06-24,3.05,3.11,3.05,3.08,801400,2.75565
2014-06-23,3.05,3.08,3.05,3.06,490700,2.73776
2014-06-20,3.01,3.08,3.01,3.07,208200,2.7467
2014-06-19,3.00,3.01,2.92,3.00,427200,2.68407
2014-06-18,3.01,3.04,3.00,3.00,3820700,2.68407
2014-06-17,3.02,3.04,3.00,3.02,1377600,2.70197
2014-06-16,3.07,3.12,3.02,3.02,635100,2.70197
2014-06-13,3.07,3.10,3.06,3.08,309700,2.75565
2014-06-12,3.07,3.09,3.06,3.09,242800,2.76459
2014-06-11,3.06,3.08,3.05,3.07,414100,2.7467
2014-06-10,3.08,3.12,3.06,3.06,924800,2.73776
2014-06-09,3.08,3.08,3.08,3.08,000,2.75565
2014-06-06,3.06,3.09,3.06,3.08,1023500,2.75565
2014-06-05,3.06,3.09,3.05,3.07,760200,2.7467
2014-06-04,3.05,3.08,3.025,3.04,1340200,2.71986
2014-06-03,3.14,3.14,3.00,3.05,3801500,2.72881
2014-06-02,3.18,3.19,3.12,3.14,1795900,2.80933
2014-05-30,3.16,3.18,3.145,3.16,2886500,2.82723
2014-05-29,3.09,3.16,3.09,3.16,3679500,2.82723
2014-05-28,3.07,3.09,3.04,3.09,970500,2.76459
2014-05-27,3.10,3.10,3.05,3.05,2630400,2.72881
2014-05-26,3.00,3.13,3.00,3.07,3180100,2.7467
2014-05-23,2.93,3.00,2.92,3.00,2488600,2.68407
2014-05-22,2.93,2.95,2.93,2.94,7442500,2.63039
2014-05-21,3.00,3.04,2.94,2.95,18921400,2.63934
2014-05-20,2.91,3.04,2.90,3.00,85849900,2.68407
