Date,Open,High,Low,Close,Volume,Adj Close
2017-01-10,0.975,0.975,0.975,0.975,000,0.975
2017-01-09,0.975,0.975,0.975,0.975,000,0.975
2017-01-06,0.975,0.975,0.975,0.975,300,0.975
2017-01-05,0.975,0.975,0.975,0.975,000,0.975
2017-01-04,0.975,0.975,0.975,0.975,000,0.975
2017-01-03,0.975,0.975,0.975,0.975,3100,0.975
2017-01-02,0.975,0.975,0.975,0.975,000,0.975
2016-12-30,0.975,0.975,0.975,0.975,000,0.975
2016-12-29,0.975,0.975,0.975,0.975,300,0.975
2016-12-28,0.98,0.98,0.98,0.98,000,0.98
2016-12-27,0.98,0.98,0.98,0.98,000,0.98
2016-12-26,0.98,0.98,0.98,0.98,000,0.98
2016-12-23,0.98,0.98,0.98,0.98,2500,0.98
2016-12-22,0.99,0.99,0.99,0.99,000,0.99
2016-12-21,0.99,0.99,0.99,0.99,000,0.99
2016-12-20,0.99,0.99,0.99,0.99,000,0.99
2016-12-19,0.99,0.99,0.99,0.99,000,0.99
2016-12-16,0.99,0.99,0.99,0.99,4800,0.99
2016-12-15,1.01,1.01,1.01,1.01,000,1.01
2016-12-14,1.01,1.01,1.01,1.01,000,1.01
2016-12-13,1.01,1.01,1.01,1.01,000,1.01
2016-12-12,1.01,1.01,1.01,1.01,000,1.01
2016-12-09,1.01,1.01,1.01,1.01,000,1.01
2016-12-08,1.01,1.01,1.01,1.01,000,1.01
2016-12-07,1.01,1.01,1.01,1.01,6000,1.01
2016-12-06,1.01,1.01,1.01,1.01,000,1.01
2016-12-05,1.01,1.01,1.01,1.01,000,1.01
2016-12-02,1.01,1.01,1.01,1.01,000,1.01
2016-12-01,1.01,1.01,1.01,1.01,000,1.01
2016-11-30,1.02,1.02,1.01,1.01,24800,1.01
2016-11-29,1.05,1.05,1.05,1.05,000,1.05
2016-11-28,1.05,1.05,1.05,1.05,000,1.05
2016-11-25,1.05,1.05,1.05,1.05,000,1.05
2016-11-24,1.05,1.05,1.05,1.05,000,1.05
2016-11-23,1.05,1.05,1.05,1.05,3300,1.05
2016-11-22,1.05,1.05,1.05,1.05,000,1.05
2016-11-21,1.05,1.05,1.05,1.05,000,1.05
2016-11-18,1.05,1.05,1.05,1.05,000,1.05
2016-11-17,1.05,1.05,1.05,1.05,000,1.05
2016-11-16,1.05,1.05,1.05,1.05,000,1.05
2016-11-15,1.05,1.05,1.05,1.05,000,1.05
2016-11-14,1.05,1.05,1.05,1.05,000,1.05
2016-11-11,1.045,1.05,1.045,1.05,111700,1.05
2016-11-10,1.01,1.04,1.01,1.04,52300,1.04
2016-11-09,1.005,1.005,1.005,1.005,6600,1.005
2016-11-08,1.00,1.00,1.00,1.00,000,1.00
2016-11-07,1.00,1.00,1.00,1.00,000,1.00
2016-11-04,1.00,1.00,1.00,1.00,000,1.00
2016-11-03,1.00,1.00,1.00,1.00,000,1.00
2016-11-02,1.00,1.00,1.00,1.00,000,1.00
2016-11-01,1.00,1.00,1.00,1.00,000,1.00
2016-10-31,1.00,1.00,1.00,1.00,000,1.00
2016-10-28,1.00,1.00,1.00,1.00,000,1.00
2016-10-27,1.005,1.005,1.00,1.00,6900,1.00
2016-10-26,1.005,1.005,1.005,1.005,2800,1.005
2016-10-25,1.005,1.005,1.005,1.005,2300,1.005
2016-10-24,1.005,1.005,1.005,1.005,000,1.005
2016-10-21,1.005,1.005,1.005,1.005,000,1.005
2016-10-20,1.005,1.005,1.005,1.005,1000,1.005
2016-10-19,1.005,1.005,1.005,1.005,000,1.005
2016-10-18,1.005,1.005,1.005,1.005,000,1.005
2016-10-17,1.005,1.005,1.005,1.005,2300,1.005
2016-10-14,1.005,1.005,1.005,1.005,000,1.005
2016-10-13,1.005,1.005,1.005,1.005,000,1.005
2016-10-12,1.005,1.005,1.005,1.005,000,1.005
2016-10-11,1.005,1.005,1.005,1.005,000,1.005
2016-10-10,1.005,1.005,1.005,1.005,000,1.005
2016-10-07,1.005,1.005,1.005,1.005,000,1.005
2016-10-06,1.005,1.005,1.005,1.005,000,1.005
2016-10-05,1.005,1.005,1.005,1.005,000,1.005
2016-10-04,1.005,1.005,1.005,1.005,000,1.005
2016-10-03,1.005,1.005,1.005,1.005,2300,1.005
2016-09-30,1.005,1.005,1.005,1.005,000,1.005
2016-09-29,1.05,1.05,1.005,1.005,100,1.005
2016-09-28,1.005,1.005,1.005,1.005,2300,1.005
2016-09-27,1.005,1.005,1.005,1.005,000,1.005
2016-09-26,1.005,1.005,1.005,1.005,6900,1.005
2016-09-23,1.02,1.02,1.02,1.02,000,1.02
2016-09-22,1.02,1.02,1.02,1.02,000,1.02
2016-09-21,1.02,1.02,1.02,1.02,000,1.02
2016-09-20,1.02,1.02,1.02,1.02,000,1.02
2016-09-19,1.02,1.02,1.02,1.02,000,1.02
2016-09-16,1.02,1.02,1.02,1.02,000,1.02
2016-09-15,0.95,1.02,0.95,1.02,62900,1.02
2016-09-14,0.955,0.955,0.955,0.955,000,0.955
2016-09-13,0.955,0.955,0.955,0.955,2300,0.955
2016-09-12,0.955,0.955,0.955,0.955,2300,0.955
2016-09-09,0.95,0.95,0.95,0.95,000,0.95
2016-09-08,0.95,0.95,0.95,0.95,000,0.95
2016-09-07,0.95,0.95,0.95,0.95,000,0.95
2016-09-06,0.955,0.955,0.95,0.95,7300,0.95
2016-09-05,0.955,0.955,0.955,0.955,000,0.955
2016-09-02,0.98,0.98,0.955,0.955,55700,0.955
2016-09-01,0.935,0.935,0.935,0.935,4600,0.935
2016-08-31,0.93,0.93,0.93,0.93,000,0.93
2016-08-30,0.93,0.93,0.93,0.93,33000,0.93
2016-08-29,0.95,0.95,0.95,0.95,000,0.95
2016-08-26,0.95,0.95,0.95,0.95,000,0.95
2016-08-25,0.93,0.95,0.93,0.95,27300,0.95
2016-08-24,0.945,0.945,0.945,0.945,000,0.945
2016-08-23,0.945,0.945,0.945,0.945,000,0.945
2016-08-22,0.945,0.945,0.945,0.945,2300,0.945
2016-08-19,0.93,0.93,0.93,0.93,270300,0.93
2016-08-18,0.95,0.95,0.95,0.95,000,0.95
2016-08-17,0.95,0.95,0.95,0.95,000,0.95
2016-08-16,0.95,0.95,0.95,0.95,000,0.95
2016-08-15,0.95,0.95,0.95,0.95,25000,0.95
2016-08-12,0.95,0.95,0.95,0.95,65000,0.95
2016-08-11,0.95,0.95,0.95,0.95,000,0.95
2016-08-10,0.95,0.95,0.95,0.95,000,0.95
2016-08-09,0.95,0.95,0.95,0.95,25000,0.95
2016-08-08,0.95,0.95,0.90,0.95,39800,0.95
2016-08-05,0.935,0.95,0.935,0.95,9000,0.95
2016-08-04,0.935,0.935,0.935,0.935,000,0.935
2016-08-03,0.935,0.935,0.935,0.935,000,0.935
2016-08-02,0.935,0.935,0.935,0.935,2300,0.935
2016-08-01,0.935,0.935,0.935,0.935,000,0.935
2016-07-29,0.935,0.935,0.935,0.935,9000,0.935
2016-07-28,0.93,0.93,0.93,0.93,000,0.93
2016-07-27,0.905,0.93,0.905,0.93,20000,0.93
2016-07-26,0.92,0.92,0.905,0.905,18000,0.905
2016-07-25,0.92,0.92,0.92,0.92,9000,0.92
2016-07-22,0.905,0.905,0.905,0.905,11000,0.905
2016-07-21,0.905,0.905,0.905,0.905,11000,0.905
2016-07-20,0.885,0.885,0.885,0.885,000,0.885
2016-07-19,0.905,0.905,0.885,0.885,20000,0.885
2016-07-18,0.905,0.905,0.905,0.905,000,0.905
2016-07-15,0.91,0.91,0.905,0.905,11500,0.905
2016-07-14,0.92,0.92,0.92,0.92,000,0.92
2016-07-13,0.92,0.92,0.92,0.92,000,0.92
2016-07-12,0.925,0.925,0.92,0.92,12000,0.92
2016-07-11,0.905,0.905,0.905,0.905,000,0.905
2016-07-08,0.905,0.905,0.905,0.905,000,0.905
2016-07-07,0.905,0.905,0.905,0.905,000,0.905
2016-07-06,0.905,0.905,0.905,0.905,000,0.905
2016-07-05,0.905,0.905,0.905,0.905,000,0.905
2016-07-04,0.905,0.905,0.905,0.905,2300,0.905
2016-07-01,0.91,0.91,0.91,0.91,000,0.91
2016-06-30,0.91,0.91,0.91,0.91,11000,0.91
2016-06-29,0.88,0.88,0.88,0.88,000,0.88
2016-06-28,0.88,0.88,0.88,0.88,000,0.88
2016-06-27,0.88,0.88,0.88,0.88,000,0.88
2016-06-24,0.88,0.88,0.88,0.88,000,0.88
2016-06-23,0.88,0.88,0.88,0.88,000,0.88
2016-06-22,0.88,0.88,0.88,0.88,000,0.88
2016-06-21,0.88,0.88,0.88,0.88,000,0.88
2016-06-20,0.885,0.885,0.88,0.88,28700,0.88
2016-06-17,0.885,0.885,0.885,0.885,000,0.885
2016-06-16,0.885,0.885,0.885,0.885,000,0.885
2016-06-15,0.885,0.885,0.885,0.885,2300,0.885
2016-06-14,0.88,0.88,0.88,0.88,000,0.88
2016-06-13,0.88,0.88,0.88,0.88,000,0.88
2016-06-10,0.88,0.88,0.88,0.88,000,0.88
2016-06-09,0.88,0.88,0.88,0.88,000,0.88
2016-06-08,0.88,0.88,0.88,0.88,000,0.88
2016-06-07,0.88,0.88,0.88,0.88,41500,0.88
2016-06-06,0.85,0.85,0.85,0.85,000,0.85
2016-06-03,0.85,0.85,0.85,0.85,2300,0.85
2016-06-02,0.85,0.85,0.85,0.85,000,0.85
2016-06-01,0.85,0.85,0.85,0.85,30000,0.85
2016-05-31,0.89,0.89,0.89,0.89,20000,0.89
2016-05-30,0.85,0.85,0.85,0.85,2300,0.85
2016-05-27,0.86,0.86,0.86,0.86,000,0.86
2016-05-26,0.86,0.86,0.86,0.86,000,0.86
2016-05-25,0.86,0.86,0.86,0.86,000,0.86
2016-05-24,0.86,0.86,0.86,0.86,000,0.86
2016-05-23,0.86,0.86,0.86,0.86,000,0.86
2016-05-20,0.86,0.86,0.86,0.86,000,0.86
2016-05-19,0.86,0.86,0.86,0.86,000,0.86
2016-05-18,0.86,0.86,0.86,0.86,000,0.86
2016-05-17,0.86,0.86,0.86,0.86,000,0.86
2016-05-16,0.86,0.86,0.86,0.86,000,0.86
2016-05-13,0.86,0.86,0.86,0.86,000,0.86
2016-05-12,0.85,0.86,0.85,0.86,13500,0.86
2016-05-11,0.82,0.82,0.82,0.82,000,0.82
2016-05-10,0.82,0.82,0.82,0.82,000,0.82
2016-05-09,0.82,0.82,0.82,0.82,800,0.82
2016-05-06,0.86,0.86,0.83,0.83,9200,0.83
2016-05-05,0.85,0.85,0.84,0.84,50500,0.84
2016-05-04,0.85,0.85,0.85,0.85,6200,0.85
2016-05-03,0.80,0.80,0.80,0.80,000,0.80
2016-05-02,0.80,0.80,0.80,0.80,000,0.80
2016-04-29,0.80,0.80,0.80,0.80,000,0.80
2016-04-28,0.80,0.80,0.80,0.80,000,0.80
2016-04-27,0.81,0.81,0.80,0.80,12300,0.80
2016-04-26,0.81,0.81,0.81,0.81,000,0.81
2016-04-25,0.81,0.81,0.81,0.81,000,0.81
2016-04-22,0.81,0.81,0.81,0.81,3400,0.81
2016-04-21,0.81,0.81,0.81,0.81,000,0.81
2016-04-20,0.81,0.81,0.81,0.81,000,0.81
2016-04-19,0.81,0.81,0.81,0.81,12500,0.81
2016-04-18,0.805,0.805,0.805,0.805,4000,0.805
2016-04-15,0.81,0.81,0.81,0.81,000,0.81
2016-04-14,0.81,0.81,0.81,0.81,8600,0.81
2016-04-13,0.81,0.81,0.81,0.81,000,0.81
2016-04-12,0.81,0.81,0.81,0.81,000,0.81
2016-04-11,0.81,0.81,0.81,0.81,000,0.81
2016-04-08,0.81,0.81,0.81,0.81,10000,0.81
2016-04-07,0.81,0.81,0.81,0.81,000,0.81
2016-04-06,0.81,0.81,0.81,0.81,000,0.81
2016-04-05,0.81,0.81,0.81,0.81,2300,0.81
2016-04-04,0.85,0.85,0.85,0.85,000,0.85
2016-04-01,0.85,0.85,0.85,0.85,000,0.85
2016-03-31,0.85,0.85,0.85,0.85,000,0.85
2016-03-30,0.85,0.85,0.85,0.85,000,0.85
2016-03-29,0.85,0.85,0.85,0.85,000,0.85
2016-03-28,0.85,0.85,0.85,0.85,000,0.85
2016-03-25,0.85,0.85,0.85,0.85,000,0.85
2016-03-24,0.85,0.85,0.85,0.85,000,0.85
2016-03-23,0.85,0.85,0.85,0.85,000,0.85
2016-03-22,0.85,0.85,0.85,0.85,25000,0.85
2016-03-21,0.90,0.90,0.90,0.90,000,0.90
2016-03-18,0.90,0.90,0.90,0.90,000,0.90
2016-03-17,0.90,0.90,0.90,0.90,6000,0.90
2016-03-16,0.90,0.90,0.90,0.90,2000,0.90
2016-03-15,0.90,0.90,0.90,0.90,000,0.90
2016-03-14,0.90,0.90,0.90,0.90,000,0.90
2016-03-11,0.90,0.90,0.90,0.90,6400,0.90
2016-03-10,0.805,0.805,0.805,0.805,000,0.805
2016-03-09,0.805,0.805,0.805,0.805,000,0.805
2016-03-08,0.805,0.805,0.805,0.805,000,0.805
2016-03-07,0.805,0.805,0.805,0.805,000,0.805
2016-03-04,0.805,0.805,0.805,0.805,2300,0.805
2016-03-03,0.87,0.87,0.87,0.87,000,0.87
2016-03-02,0.87,0.87,0.87,0.87,000,0.87
2016-03-01,0.87,0.87,0.87,0.87,000,0.87
2016-02-29,0.87,0.87,0.87,0.87,10000,0.87
2016-02-26,0.915,0.915,0.915,0.915,000,0.915
2016-02-25,0.915,0.915,0.915,0.915,000,0.915
2016-02-24,0.915,0.915,0.915,0.915,000,0.915
2016-02-23,0.915,0.915,0.915,0.915,000,0.915
2016-02-22,0.915,0.915,0.915,0.915,000,0.915
2016-02-19,0.915,0.915,0.915,0.915,300,0.915
2016-02-18,0.93,0.93,0.93,0.93,2600,0.93
2016-02-17,0.93,0.93,0.93,0.93,000,0.93
2016-02-16,0.93,0.93,0.93,0.93,000,0.93
2016-02-15,0.93,0.93,0.93,0.93,000,0.93
2016-02-12,0.93,0.93,0.93,0.93,000,0.93
2016-02-11,0.93,0.93,0.93,0.93,000,0.93
2016-02-10,0.93,0.93,0.93,0.93,000,0.93
2016-02-09,0.93,0.93,0.93,0.93,000,0.93
2016-02-08,0.93,0.93,0.93,0.93,2300,0.93
2016-02-05,0.93,0.93,0.93,0.93,000,0.93
2016-02-04,0.93,0.93,0.93,0.93,000,0.93
2016-02-03,0.93,0.93,0.93,0.93,000,0.93
2016-02-02,0.93,0.93,0.93,0.93,18100,0.93
2016-02-01,0.93,0.93,0.93,0.93,000,0.93
2016-01-29,0.93,0.93,0.93,0.93,000,0.93
2016-01-28,0.93,0.93,0.93,0.93,2300,0.93
2016-01-27,0.93,0.93,0.93,0.93,4600,0.93
2016-01-26,0.93,0.93,0.93,0.93,000,0.93
2016-01-25,0.93,0.93,0.93,0.93,000,0.93
2016-01-22,0.93,0.93,0.93,0.93,25000,0.93
2016-01-21,0.90,0.90,0.90,0.90,000,0.90
2016-01-20,0.90,0.90,0.90,0.90,4600,0.90
2016-01-19,0.90,0.90,0.90,0.90,000,0.90
2016-01-18,0.90,0.90,0.90,0.90,000,0.90
2016-01-15,0.90,0.90,0.90,0.90,000,0.90
2016-01-14,0.90,0.90,0.85,0.90,16900,0.90
2016-01-13,0.90,0.90,0.90,0.90,2300,0.90
2016-01-12,0.905,0.905,0.905,0.905,2300,0.905
2016-01-11,0.90,0.90,0.90,0.90,000,0.90
2016-01-08,0.90,0.90,0.90,0.90,000,0.90
2016-01-07,0.90,0.90,0.90,0.90,000,0.90
2016-01-06,0.90,0.90,0.90,0.90,000,0.90
2016-01-05,0.90,0.90,0.90,0.90,000,0.90
2016-01-04,0.90,0.90,0.90,0.90,000,0.90
2016-01-01,0.90,0.90,0.90,0.90,000,0.90
2015-12-31,0.90,0.90,0.90,0.90,000,0.90
2015-12-30,0.90,0.90,0.90,0.90,000,0.90
2015-12-29,0.90,0.90,0.90,0.90,000,0.90
2015-12-28,0.90,0.90,0.90,0.90,000,0.90
2015-12-25,0.90,0.90,0.90,0.90,000,0.90
2015-12-24,0.90,0.90,0.90,0.90,2300,0.90
2015-12-23,0.90,0.90,0.90,0.90,9400,0.90
2015-12-22,0.93,0.93,0.93,0.93,000,0.93
2015-12-21,0.90,0.93,0.90,0.93,65000,0.93
2015-12-18,0.985,0.985,0.985,0.985,000,0.985
2015-12-17,0.98,0.985,0.98,0.985,25000,0.985
2015-12-16,0.99,0.99,0.99,0.99,000,0.99
2015-12-15,0.99,0.99,0.99,0.99,000,0.99
2015-12-14,0.99,0.99,0.99,0.99,000,0.99
2015-12-11,0.99,0.99,0.99,0.99,000,0.99
2015-12-10,0.99,0.99,0.99,0.99,000,0.99
2015-12-09,0.99,0.99,0.99,0.99,000,0.99
2015-12-08,0.95,0.99,0.95,0.99,4500,0.99
2015-12-07,0.90,0.90,0.90,0.90,000,0.90
2015-12-04,0.90,0.90,0.90,0.90,000,0.90
2015-12-03,0.90,0.90,0.90,0.90,16000,0.90
2015-12-02,0.93,0.93,0.93,0.93,000,0.93
2015-12-01,0.93,0.93,0.93,0.93,000,0.93
2015-11-30,0.93,0.93,0.93,0.93,000,0.93
2015-11-27,0.93,0.93,0.93,0.93,000,0.93
2015-11-26,0.93,0.93,0.93,0.93,000,0.93
2015-11-25,0.93,0.93,0.93,0.93,000,0.93
2015-11-24,0.93,0.93,0.93,0.93,000,0.93
2015-11-23,0.93,0.93,0.93,0.93,000,0.93
2015-11-20,0.93,0.93,0.93,0.93,000,0.93
2015-11-19,0.93,0.93,0.93,0.93,000,0.93
2015-11-18,0.93,0.93,0.93,0.93,000,0.93
2015-11-17,0.93,0.93,0.93,0.93,000,0.93
2015-11-16,0.93,0.93,0.93,0.93,000,0.93
2015-11-13,0.93,0.93,0.93,0.93,30000,0.93
2015-11-12,0.93,0.93,0.93,0.93,000,0.93
2015-11-11,0.90,0.93,0.90,0.93,57300,0.93
2015-11-10,0.90,0.90,0.90,0.90,9300,0.90
2015-11-09,0.90,0.90,0.90,0.90,000,0.90
2015-11-06,0.90,0.90,0.90,0.90,000,0.90
2015-11-05,0.90,0.90,0.90,0.90,10000,0.90
2015-11-04,0.81,0.81,0.81,0.81,000,0.81
2015-11-03,0.81,0.81,0.81,0.81,000,0.81
2015-11-02,0.81,0.81,0.81,0.81,000,0.81
2015-10-30,0.81,0.81,0.81,0.81,000,0.81
2015-10-29,0.81,0.81,0.81,0.81,000,0.81
2015-10-28,0.82,0.82,0.81,0.81,7300,0.81
2015-10-27,0.93,0.93,0.93,0.93,000,0.93
2015-10-26,0.93,0.93,0.93,0.93,000,0.93
2015-10-23,0.93,0.93,0.93,0.93,000,0.93
2015-10-22,0.93,0.93,0.93,0.93,000,0.93
2015-10-21,0.93,0.93,0.93,0.93,000,0.93
2015-10-20,0.93,0.93,0.93,0.93,000,0.93
2015-10-19,0.93,0.93,0.93,0.93,000,0.93
2015-10-16,0.93,0.93,0.93,0.93,000,0.93
2015-10-15,0.93,0.93,0.93,0.93,000,0.93
2015-10-14,0.93,0.93,0.93,0.93,000,0.93
2015-10-13,0.93,0.93,0.93,0.93,000,0.93
2015-10-12,0.93,0.93,0.93,0.93,000,0.93
2015-10-09,0.93,0.93,0.93,0.93,000,0.93
2015-10-08,0.93,0.93,0.93,0.93,1000,0.93
2015-10-07,0.85,0.85,0.85,0.85,000,0.85
2015-10-06,0.85,0.85,0.85,0.85,000,0.85
2015-10-05,0.85,0.85,0.85,0.85,000,0.85
2015-10-02,0.85,0.85,0.85,0.85,000,0.85
2015-10-01,0.85,0.85,0.85,0.85,000,0.85
2015-09-30,0.85,0.85,0.85,0.85,000,0.85
2015-09-29,0.85,0.85,0.85,0.85,000,0.85
2015-09-28,0.85,0.85,0.85,0.85,000,0.85
2015-09-25,0.85,0.85,0.85,0.85,000,0.85
2015-09-24,0.85,0.85,0.85,0.85,000,0.85
2015-09-23,0.85,0.85,0.85,0.85,000,0.85
2015-09-22,0.85,0.85,0.85,0.85,000,0.85
2015-09-21,0.85,0.85,0.85,0.85,000,0.85
2015-09-18,0.85,0.85,0.85,0.85,5700,0.85
2015-09-17,0.85,0.85,0.85,0.85,000,0.85
2015-09-16,0.86,0.86,0.85,0.85,9200,0.85
2015-09-15,0.84,0.84,0.84,0.84,000,0.84
2015-09-14,0.84,0.84,0.84,0.84,000,0.84
2015-09-11,0.84,0.84,0.84,0.84,000,0.84
2015-09-10,0.84,0.84,0.84,0.84,000,0.84
2015-09-09,0.84,0.84,0.84,0.84,2300,0.84
2015-09-08,0.84,0.84,0.84,0.84,000,0.84
2015-09-07,0.84,0.84,0.84,0.84,000,0.84
2015-09-04,0.84,0.84,0.84,0.84,000,0.84
2015-09-03,0.80,0.80,0.80,0.80,13000,0.80
2015-09-02,0.76,0.76,0.76,0.76,300,0.76
2015-09-01,0.76,0.76,0.76,0.76,000,0.76
2015-08-31,0.76,0.76,0.76,0.76,000,0.76
2015-08-28,0.76,0.76,0.76,0.76,2000,0.76
2015-08-27,0.75,0.75,0.75,0.75,000,0.75
2015-08-26,0.75,0.75,0.75,0.75,5400,0.75
2015-08-25,0.70,0.70,0.70,0.70,000,0.70
2015-08-24,0.70,0.70,0.70,0.70,000,0.70
2015-08-20,0.70,0.70,0.70,0.70,000,0.70
2015-08-19,0.70,0.70,0.70,0.70,2000,0.70
2015-08-18,0.70,0.70,0.70,0.70,000,0.70
2015-08-17,0.70,0.70,0.70,0.70,000,0.70
2015-08-14,0.71,0.71,0.70,0.70,6900,0.70
2015-08-13,0.71,0.71,0.71,0.71,000,0.71
2015-08-12,0.71,0.71,0.71,0.71,000,0.71
2015-08-11,0.71,0.71,0.71,0.71,000,0.71
2015-08-10,0.71,0.71,0.71,0.71,000,0.71
2015-08-07,0.71,0.71,0.71,0.71,000,0.71
2015-08-06,0.71,0.71,0.71,0.71,000,0.71
2015-08-05,0.71,0.71,0.71,0.71,000,0.71
2015-08-04,0.71,0.71,0.71,0.71,2300,0.71
2015-08-03,0.71,0.71,0.71,0.71,000,0.71
2015-07-31,0.71,0.71,0.71,0.71,2300,0.71
2015-07-30,0.70,0.70,0.70,0.70,000,0.70
2015-07-29,0.76,0.76,0.70,0.70,15700,0.70
2015-07-28,0.75,0.75,0.75,0.75,000,0.75
2015-07-27,0.75,0.75,0.75,0.75,2300,0.75
2015-07-24,0.75,0.75,0.75,0.75,000,0.75
2015-07-23,0.78,0.78,0.75,0.75,7500,0.75
2015-07-22,0.80,0.80,0.80,0.80,000,0.80
2015-07-21,0.80,0.80,0.80,0.80,000,0.80
2015-07-20,0.80,0.80,0.80,0.80,000,0.80
2015-07-17,0.80,0.80,0.80,0.80,000,0.80
2015-07-16,0.80,0.80,0.80,0.80,7500,0.80
2015-07-15,0.77,0.77,0.77,0.77,000,0.77
2015-07-14,0.77,0.77,0.77,0.77,000,0.77
2015-07-13,0.77,0.77,0.77,0.77,000,0.77
2015-07-10,0.77,0.77,0.77,0.77,000,0.77
2015-07-09,0.80,0.80,0.77,0.77,2300,0.77
2015-07-08,0.82,0.82,0.82,0.82,000,0.82
2015-07-07,0.82,0.82,0.82,0.82,000,0.82
2015-07-06,0.82,0.82,0.82,0.82,2000,0.82
2015-07-03,0.85,0.85,0.85,0.85,000,0.85
2015-07-02,0.85,0.85,0.85,0.85,200,0.85
2015-07-01,0.85,0.85,0.85,0.85,2300,0.85
2015-06-30,0.85,0.85,0.85,0.85,000,0.85
2015-06-29,0.86,0.86,0.85,0.85,2300,0.85
2015-06-26,0.86,0.86,0.86,0.86,000,0.86
2015-06-25,0.86,0.86,0.86,0.86,000,0.86
2015-06-24,0.86,0.86,0.86,0.86,000,0.86
2015-06-23,0.86,0.86,0.86,0.86,500,0.86
2015-06-22,0.89,0.89,0.89,0.89,000,0.89
2015-06-19,0.89,0.89,0.89,0.89,500,0.89
2015-06-18,0.86,0.86,0.86,0.86,000,0.86
2015-06-17,0.90,0.90,0.86,0.86,12300,0.86
2015-06-16,0.89,0.89,0.89,0.89,000,0.89
2015-06-15,0.89,0.89,0.89,0.89,000,0.89
2015-06-12,0.89,0.89,0.89,0.89,000,0.89
2015-06-11,0.89,0.89,0.89,0.89,000,0.89
2015-06-10,0.89,0.89,0.89,0.89,7300,0.89
2015-06-09,0.90,0.90,0.90,0.90,9900,0.90
2015-06-08,0.87,0.87,0.87,0.87,000,0.87
2015-06-05,0.87,0.87,0.87,0.87,000,0.87
2015-06-04,0.87,0.87,0.87,0.87,000,0.87
2015-06-03,0.87,0.87,0.87,0.87,000,0.87
2015-06-02,0.87,0.87,0.87,0.87,800,0.87
2015-06-01,0.87,0.87,0.87,0.87,9000,0.87
2015-05-29,0.87,0.87,0.87,0.87,10500,0.87
2015-05-28,0.88,0.88,0.88,0.88,000,0.88
2015-05-27,0.90,0.90,0.88,0.88,4600,0.88
2015-05-26,0.88,0.88,0.88,0.88,24000,0.88
2015-05-25,0.90,0.90,0.90,0.90,000,0.90
2015-05-22,0.90,0.90,0.90,0.90,1000,0.90
2015-05-21,0.89,0.89,0.89,0.89,000,0.89
2015-05-20,0.89,0.89,0.89,0.89,000,0.89
2015-05-19,0.89,0.89,0.89,0.89,000,0.89
2015-05-18,0.89,0.89,0.89,0.89,17600,0.89
2015-05-15,0.90,0.90,0.90,0.90,000,0.90
2015-05-14,0.90,0.90,0.90,0.90,5000,0.90
2015-05-13,0.86,0.86,0.86,0.86,000,0.86
2015-05-12,0.86,0.86,0.86,0.86,2300,0.86
2015-05-11,0.86,0.86,0.86,0.86,000,0.86
2015-05-08,0.86,0.86,0.86,0.86,000,0.86
2015-05-07,0.90,0.90,0.86,0.86,4600,0.86
2015-05-06,0.97,0.97,0.97,0.97,000,0.97
2015-05-05,0.97,0.97,0.97,0.97,000,0.97
2015-05-04,0.97,0.97,0.97,0.97,000,0.97
2015-05-01,0.97,0.97,0.97,0.97,000,0.97
2015-04-30,0.97,0.97,0.97,0.97,000,0.97
2015-04-29,0.97,0.97,0.97,0.97,000,0.97
2015-04-28,0.97,0.97,0.97,0.97,000,0.97
2015-04-27,0.97,0.97,0.97,0.97,000,0.97
2015-04-24,0.97,0.97,0.97,0.97,000,0.97
2015-04-23,0.97,0.97,0.97,0.97,000,0.97
2015-04-22,0.97,0.97,0.97,0.97,000,0.97
2015-04-21,0.97,0.97,0.97,0.97,000,0.97
2015-04-20,0.97,0.97,0.97,0.97,000,0.97
2015-04-17,0.97,0.97,0.97,0.97,000,0.97
2015-04-16,0.97,0.97,0.97,0.97,000,0.97
2015-04-15,0.97,0.97,0.97,0.97,000,0.97
2015-04-14,0.97,0.97,0.97,0.97,000,0.97
2015-04-13,0.97,0.97,0.97,0.97,000,0.97
2015-04-10,0.90,0.97,0.90,0.97,82300,0.97
2015-04-09,0.85,0.85,0.85,0.85,000,0.85
2015-04-08,0.85,0.85,0.85,0.85,3600,0.85
2015-04-07,0.85,0.85,0.85,0.85,000,0.85
2015-04-06,0.85,0.85,0.85,0.85,000,0.85
2015-04-03,0.85,0.85,0.85,0.85,000,0.85
2015-04-02,0.85,0.85,0.85,0.85,4900,0.85
2015-04-01,0.90,0.90,0.90,0.90,000,0.90
2015-03-31,0.90,0.90,0.90,0.90,000,0.90
2015-03-30,0.90,0.90,0.90,0.90,2800,0.90
2015-03-27,0.90,0.90,0.90,0.90,000,0.90
2015-03-26,0.91,0.91,0.90,0.90,12600,0.90
2015-03-25,0.91,0.91,0.91,0.91,000,0.91
2015-03-24,0.91,0.91,0.91,0.91,000,0.91
2015-03-23,0.91,0.91,0.91,0.91,000,0.91
2015-03-20,0.91,0.91,0.91,0.91,000,0.91
2015-03-19,0.91,0.91,0.91,0.91,000,0.91
2015-03-18,0.97,0.97,0.91,0.91,6900,0.91
2015-03-17,0.97,0.97,0.97,0.97,2300,0.97
2015-03-16,0.91,0.91,0.91,0.91,000,0.91
2015-03-13,0.91,0.91,0.91,0.91,000,0.91
2015-03-12,0.91,0.91,0.91,0.91,000,0.91
2015-03-11,0.91,0.91,0.91,0.91,2300,0.91
2015-03-10,0.95,0.95,0.95,0.95,000,0.95
2015-03-09,0.95,0.95,0.95,0.95,2300,0.95
2015-03-06,1.01,1.01,1.01,1.01,000,1.01
2015-03-05,1.01,1.01,1.01,1.01,000,1.01
2015-03-04,1.01,1.01,1.01,1.01,5000,1.01
2015-03-03,1.01,1.01,1.01,1.01,000,1.01
2015-03-02,1.01,1.01,1.01,1.01,2000,1.01
2015-02-27,0.95,0.95,0.95,0.95,2300,0.95
2015-02-26,0.91,0.91,0.91,0.91,000,0.91
2015-02-25,0.95,0.95,0.91,0.91,2300,0.91
2015-02-24,0.95,0.95,0.95,0.95,000,0.95
2015-02-23,0.98,0.98,0.95,0.95,20300,0.95
2015-02-20,0.98,0.98,0.98,0.98,2300,0.98
2015-02-19,1.05,1.05,1.05,1.05,000,1.05
2015-02-18,1.05,1.05,1.05,1.05,13400,1.05
2015-02-17,1.05,1.05,1.05,1.05,000,1.05
2015-02-16,1.05,1.05,1.05,1.05,000,1.05
2015-02-13,1.05,1.05,1.05,1.05,000,1.05
2015-02-12,1.05,1.05,1.05,1.05,000,1.05
2015-02-11,1.05,1.05,1.05,1.05,000,1.05
2015-02-10,1.05,1.05,1.05,1.05,000,1.05
2015-02-09,1.05,1.05,1.05,1.05,000,1.05
2015-02-06,1.05,1.05,1.05,1.05,30600,1.05
2015-02-05,1.05,1.05,1.05,1.05,000,1.05
2015-02-04,1.05,1.05,1.05,1.05,000,1.05
2015-02-03,1.05,1.05,1.05,1.05,000,1.05
2015-02-02,1.05,1.05,1.05,1.05,2300,1.05
2015-01-30,0.96,1.05,0.95,1.05,14900,1.05
2015-01-29,1.00,1.00,1.00,1.00,000,1.00
2015-01-28,1.00,1.00,1.00,1.00,2000,1.00
2015-01-27,1.00,1.00,1.00,1.00,000,1.00
2015-01-26,1.00,1.00,1.00,1.00,000,1.00
2015-01-23,1.00,1.00,1.00,1.00,000,1.00
2015-01-22,1.00,1.00,1.00,1.00,000,1.00
2015-01-21,1.00,1.00,1.00,1.00,000,1.00
2015-01-20,1.00,1.00,1.00,1.00,000,1.00
2015-01-19,1.00,1.00,1.00,1.00,1000,1.00
2015-01-16,0.96,0.96,0.96,0.96,2300,0.96
2015-01-15,0.97,0.97,0.95,0.95,2300,0.95
2015-01-14,0.97,0.97,0.97,0.97,000,0.97
2015-01-13,0.97,0.97,0.97,0.97,000,0.97
2015-01-12,0.97,0.97,0.97,0.97,000,0.97
2015-01-09,0.97,0.97,0.97,0.97,2300,0.97
2015-01-08,1.00,1.00,1.00,1.00,2300,1.00
2015-01-07,1.00,1.00,1.00,1.00,000,1.00
2015-01-06,1.00,1.00,1.00,1.00,26000,1.00
2015-01-05,1.00,1.00,1.00,1.00,15900,1.00
2015-01-02,1.00,1.00,1.00,1.00,000,1.00
2015-01-01,1.00,1.00,1.00,1.00,000,1.00
2014-12-31,1.00,1.00,1.00,1.00,000,1.00
2014-12-30,1.00,1.00,1.00,1.00,000,1.00
2014-12-29,1.00,1.00,1.00,1.00,6900,1.00
2014-12-26,1.00,1.00,1.00,1.00,000,1.00
2014-12-25,1.00,1.00,1.00,1.00,000,1.00
2014-12-24,1.00,1.00,1.00,1.00,4600,1.00
2014-12-23,1.00,1.00,1.00,1.00,000,1.00
2014-12-22,1.00,1.00,1.00,1.00,000,1.00
2014-12-19,1.00,1.00,1.00,1.00,000,1.00
2014-12-18,1.00,1.00,1.00,1.00,000,1.00
2014-12-17,1.00,1.00,1.00,1.00,000,1.00
2014-12-16,1.00,1.00,1.00,1.00,22300,1.00
2014-12-15,1.00,1.00,1.00,1.00,000,1.00
2014-12-12,1.00,1.00,1.00,1.00,000,1.00
2014-12-11,1.00,1.00,1.00,1.00,000,1.00
2014-12-10,1.00,1.00,1.00,1.00,19400,1.00
2014-12-09,1.00,1.00,1.00,1.00,000,1.00
2014-12-08,1.00,1.00,1.00,1.00,26000,1.00
2014-12-05,1.00,1.00,1.00,1.00,000,1.00
2014-12-04,1.00,1.00,1.00,1.00,000,1.00
2014-12-03,1.00,1.00,1.00,1.00,2300,1.00
2014-12-02,1.00,1.00,1.00,1.00,000,1.00
2014-12-01,1.00,1.00,1.00,1.00,2300,1.00
2014-11-28,1.00,1.00,1.00,1.00,2300,1.00
2014-11-27,1.00,1.00,1.00,1.00,2300,1.00
2014-11-26,1.05,1.06,1.05,1.06,11700,1.06
2014-11-25,1.05,1.05,1.05,1.05,000,1.05
2014-11-24,1.10,1.10,1.05,1.05,2800,1.05
2014-11-21,1.05,1.05,1.05,1.05,14600,1.05
2014-11-20,1.05,1.05,1.05,1.05,27900,1.05
2014-11-19,1.05,1.05,1.05,1.05,14000,1.05
2014-11-18,1.05,1.05,1.05,1.05,4600,1.05
2014-11-17,1.05,1.05,1.05,1.05,000,1.05
2014-11-14,1.05,1.05,1.05,1.05,12300,1.05
2014-11-13,1.05,1.05,1.05,1.05,000,1.05
2014-11-12,1.05,1.05,1.05,1.05,000,1.05
2014-11-11,1.05,1.05,1.05,1.05,30000,1.05
2014-11-10,1.05,1.05,1.05,1.05,000,1.05
2014-11-07,1.05,1.05,1.05,1.05,000,1.05
2014-11-06,1.05,1.05,1.05,1.05,14600,1.05
2014-11-05,1.05,1.05,1.05,1.05,4600,1.05
2014-11-04,1.05,1.05,1.05,1.05,2300,1.05
2014-11-03,1.05,1.05,1.05,1.05,2300,1.05
2014-10-31,1.05,1.05,1.05,1.05,000,1.05
2014-10-30,1.05,1.05,1.05,1.05,000,1.05
2014-10-29,1.05,1.05,1.05,1.05,2300,1.05
2014-10-28,1.05,1.05,1.05,1.05,000,1.05
2014-10-27,1.05,1.05,1.05,1.05,2300,1.05
2014-10-24,1.00,1.00,1.00,1.00,000,1.00
2014-10-23,1.00,1.00,1.00,1.00,000,1.00
2014-10-22,1.00,1.05,1.00,1.00,4700,1.00
2014-10-21,1.05,1.05,1.05,1.05,000,1.05
2014-10-20,1.05,1.05,1.05,1.05,1000,1.05
2014-10-17,1.00,1.00,1.00,1.00,37800,1.00
2014-10-16,1.00,1.00,1.00,1.00,000,1.00
2014-10-15,1.00,1.00,1.00,1.00,000,1.00
2014-10-14,1.00,1.00,1.00,1.00,4600,1.00
2014-10-13,1.05,1.05,1.05,1.05,47400,1.05
2014-10-10,1.05,1.05,1.05,1.05,447500,1.05
2014-10-09,1.05,1.05,1.05,1.05,4100,1.05
2014-10-08,1.05,1.05,1.05,1.05,000,1.05
2014-10-07,1.05,1.05,1.05,1.05,000,1.05
2014-10-06,1.05,1.05,1.05,1.05,000,1.05
2014-10-03,1.05,1.05,1.05,1.05,000,1.05
2014-10-02,1.05,1.05,1.05,1.05,000,1.05
2014-10-01,1.05,1.05,1.05,1.05,000,1.05
2014-09-30,1.05,1.05,1.05,1.05,10400,1.05
2014-09-29,1.10,1.10,1.10,1.10,000,1.10
2014-09-26,1.10,1.10,1.10,1.10,000,1.10
2014-09-25,1.10,1.10,1.10,1.10,000,1.10
2014-09-24,1.10,1.10,1.10,1.10,000,1.10
2014-09-23,1.10,1.10,1.10,1.10,400,1.10
2014-09-22,1.05,1.05,1.05,1.05,118700,1.05
2014-09-19,1.06,1.06,1.05,1.05,2300,1.05
2014-09-18,1.06,1.06,1.06,1.06,6300,1.06
2014-09-17,1.08,1.08,1.08,1.08,000,1.08
2014-09-16,1.08,1.08,1.08,1.08,000,1.08
2014-09-15,1.08,1.08,1.08,1.08,000,1.08
2014-09-12,1.06,1.08,1.06,1.08,13200,1.08
2014-09-11,1.055,1.055,1.055,1.055,3300,1.055
2014-09-10,1.04,1.06,1.04,1.055,166300,1.055
2014-09-09,1.035,1.04,1.035,1.04,4600,1.04
2014-09-08,1.035,1.035,1.03,1.03,20000,1.03
2014-09-05,1.05,1.05,1.05,1.05,500,1.05
2014-09-04,1.035,1.035,1.035,1.035,000,1.035
2014-09-03,1.035,1.035,1.035,1.035,000,1.035
2014-09-02,1.035,1.035,1.035,1.035,000,1.035
2014-09-01,1.035,1.035,1.035,1.035,4600,1.035
2014-08-29,1.05,1.05,1.05,1.05,8500,1.05
2014-08-28,1.05,1.05,1.05,1.05,1000,1.05
2014-08-27,1.05,1.07,1.05,1.05,56500,1.05
2014-08-26,1.04,1.05,1.035,1.05,54500,1.05
2014-08-25,1.05,1.05,1.05,1.05,53500,1.05
2014-08-22,1.05,1.05,1.05,1.05,100000,1.05
2014-08-21,1.03,1.03,1.03,1.03,2300,1.03
2014-08-20,1.02,1.02,1.02,1.02,000,1.02
2014-08-19,1.01,1.02,1.01,1.02,29400,1.02
2014-08-18,1.00,1.00,1.00,1.00,000,1.00
2014-08-15,1.00,1.00,1.00,1.00,000,1.00
2014-08-14,1.00,1.00,1.00,1.00,000,1.00
2014-08-13,1.00,1.00,1.00,1.00,2300,1.00
2014-08-12,1.00,1.00,1.00,1.00,200,1.00
2014-08-11,1.00,1.00,1.00,1.00,000,1.00
2014-08-08,1.00,1.00,1.00,1.00,4300,1.00
2014-08-07,1.04,1.04,1.04,1.04,19700,1.04
2014-08-06,1.00,1.04,1.00,1.04,71800,1.04
2014-08-05,1.00,1.00,1.00,1.00,000,1.00
2014-08-04,1.00,1.00,1.00,1.00,2300,1.00
2014-08-01,1.00,1.00,1.00,1.00,10000,1.00
2014-07-31,1.00,1.00,1.00,1.00,000,1.00
2014-07-30,1.005,1.005,1.00,1.00,5000,1.00
2014-07-29,1.00,1.00,1.00,1.00,000,1.00
2014-07-28,1.00,1.00,1.00,1.00,000,1.00
2014-07-25,1.00,1.00,1.00,1.00,000,1.00
2014-07-24,1.00,1.00,1.00,1.00,12300,1.00
2014-07-23,1.00,1.00,1.00,1.00,300,1.00
2014-07-22,1.05,1.05,1.05,1.05,000,1.05
2014-07-21,1.05,1.05,1.05,1.05,000,1.05
2014-07-18,1.04,1.05,1.04,1.05,30000,1.05
2014-07-17,1.00,1.00,1.00,1.00,000,1.00
2014-07-16,1.00,1.00,1.00,1.00,000,1.00
2014-07-15,1.00,1.00,1.00,1.00,2300,1.00
2014-07-14,0.99,0.99,0.99,0.99,2300,0.99
2014-07-11,1.02,1.02,1.02,1.02,2300,1.02
2014-07-10,0.945,0.945,0.945,0.945,000,0.945
2014-07-09,0.945,0.945,0.945,0.945,000,0.945
2014-07-08,0.945,0.945,0.945,0.945,000,0.945
2014-07-07,0.945,0.945,0.945,0.945,000,0.945
2014-07-04,0.95,0.95,0.945,0.945,2300,0.945
2014-07-03,0.95,0.95,0.95,0.95,4600,0.95
2014-07-02,1.00,1.00,1.00,1.00,000,1.00
2014-07-01,1.02,1.02,1.00,1.00,9800,1.00
2014-06-30,1.00,1.02,1.00,1.02,21100,1.02
2014-06-27,1.02,1.02,1.02,1.02,000,1.02
2014-06-26,1.02,1.02,1.02,1.02,000,1.02
2014-06-25,1.02,1.02,1.02,1.02,000,1.02
2014-06-24,1.02,1.02,1.02,1.02,000,1.02
2014-06-23,1.00,1.02,1.00,1.02,15000,1.02
2014-06-20,1.055,1.055,1.055,1.055,000,1.055
2014-06-19,1.00,1.055,1.00,1.055,11500,1.055
2014-06-18,0.99,0.99,0.99,0.99,000,0.99
2014-06-17,0.99,0.99,0.99,0.99,217100,0.99
2014-06-16,0.99,0.99,0.99,0.99,74400,0.99
2014-06-13,0.99,0.99,0.99,0.99,38300,0.99
2014-06-12,1.00,1.00,0.99,0.99,42700,0.99
2014-06-11,0.98,1.00,0.98,0.99,186500,0.99
2014-06-10,0.96,0.96,0.96,0.96,000,0.96
2014-06-09,0.96,0.96,0.96,0.96,000,0.96
2014-06-06,0.96,0.96,0.96,0.96,2300,0.96
2014-06-05,0.97,0.97,0.97,0.97,000,0.97
2014-06-04,0.97,0.97,0.97,0.97,000,0.97
2014-06-03,0.97,0.97,0.97,0.97,000,0.97
2014-06-02,0.96,0.97,0.96,0.97,21200,0.97
2014-05-30,0.95,0.95,0.95,0.95,000,0.95
2014-05-29,0.95,0.95,0.95,0.95,000,0.95
2014-05-28,0.95,0.95,0.95,0.95,000,0.95
2014-05-27,0.95,0.95,0.95,0.95,12300,0.95
2014-05-26,0.95,0.95,0.95,0.95,000,0.95
2014-05-23,0.95,0.95,0.95,0.95,20000,0.95
2014-05-22,1.00,1.00,1.00,1.00,12400,1.00
2014-05-21,0.955,0.955,0.93,0.93,4600,0.93
2014-05-20,0.92,0.955,0.915,0.955,34200,0.955
2014-05-19,0.955,0.955,0.955,0.955,000,0.955
2014-05-16,0.955,0.955,0.955,0.955,000,0.955
2014-05-15,0.955,0.955,0.955,0.955,000,0.955
2014-05-14,0.955,0.955,0.955,0.955,000,0.955
2014-05-13,0.955,0.955,0.955,0.955,000,0.955
2014-05-12,0.955,0.955,0.955,0.955,000,0.955
2014-05-09,0.95,0.955,0.95,0.955,51000,0.955
2014-05-08,0.935,0.935,0.935,0.935,000,0.935
2014-05-07,0.935,0.935,0.935,0.935,54000,0.935
2014-05-06,0.97,0.97,0.97,0.97,000,0.97
2014-05-05,0.97,0.97,0.97,0.97,3000,0.97
2014-05-02,0.97,0.97,0.97,0.97,000,0.97
2014-05-01,0.97,0.97,0.97,0.97,15700,0.97
2014-04-30,0.96,0.97,0.96,0.97,60000,0.97
2014-04-29,0.96,0.97,0.96,0.97,55000,0.97
2014-04-28,0.985,0.99,0.985,0.99,48700,0.99
2014-04-25,0.97,0.97,0.97,0.97,000,0.97
2014-04-24,0.97,0.97,0.97,0.97,000,0.97
2014-04-23,0.95,0.97,0.95,0.97,51000,0.97
2014-04-22,0.92,0.92,0.92,0.92,9700,0.92
2014-04-21,1.00,1.00,1.00,1.00,000,1.00
2014-04-18,1.00,1.00,1.00,1.00,000,1.00
2014-04-17,1.00,1.00,1.00,1.00,000,1.00
2014-04-16,1.00,1.00,1.00,1.00,000,1.00
2014-04-15,1.00,1.00,1.00,1.00,000,1.00
2014-04-14,0.96,1.00,0.96,1.00,12900,1.00
2014-04-11,0.98,0.98,0.98,0.98,90800,0.98
2014-04-10,0.97,0.97,0.96,0.96,4200,0.96
2014-04-09,0.95,0.95,0.95,0.95,000,0.95
2014-04-08,0.95,0.95,0.95,0.95,000,0.95
2014-04-07,0.95,0.95,0.95,0.95,2300,0.95
2014-04-04,0.95,0.95,0.95,0.95,2300,0.95
2014-04-03,1.00,1.00,1.00,1.00,120000,1.00
2014-04-02,1.00,1.00,1.00,1.00,63000,1.00
2014-04-01,0.95,0.95,0.95,0.95,000,0.95
2014-03-31,0.95,0.95,0.95,0.95,000,0.95
2014-03-28,0.95,0.95,0.95,0.95,000,0.95
2014-03-27,0.95,0.95,0.95,0.95,000,0.95
2014-03-26,0.95,0.95,0.95,0.95,000,0.95
2014-03-25,0.95,0.95,0.95,0.95,000,0.95
2014-03-24,0.95,0.95,0.95,0.95,000,0.95
2014-03-21,0.95,0.95,0.95,0.95,000,0.95
2014-03-20,0.95,0.95,0.95,0.95,2300,0.95
2014-03-19,1.055,1.055,1.055,1.055,2300,1.055
2014-03-18,1.00,1.00,1.00,1.00,7300,1.00
2014-03-17,1.00,1.00,1.00,1.00,3300,1.00
2014-03-14,1.00,1.00,1.00,1.00,000,1.00
2014-03-13,1.00,1.00,1.00,1.00,1200,1.00
2014-03-12,1.00,1.00,1.00,1.00,000,1.00
2014-03-11,1.00,1.00,1.00,1.00,000,1.00
2014-03-10,1.00,1.00,1.00,1.00,2300,1.00
2014-03-07,1.00,1.00,1.00,1.00,000,1.00
2014-03-06,1.00,1.00,1.00,1.00,000,1.00
2014-03-05,1.01,1.01,1.00,1.00,2300,1.00
2014-03-04,1.01,1.01,1.01,1.01,000,1.01
2014-03-03,1.01,1.01,1.01,1.01,000,1.01
2014-02-28,1.01,1.01,1.01,1.01,52300,1.01
2014-02-27,1.01,1.01,1.01,1.01,000,1.01
2014-02-26,1.01,1.01,1.01,1.01,2300,1.01
2014-02-25,1.01,1.01,1.01,1.01,000,1.01
2014-02-24,1.01,1.01,1.01,1.01,000,1.01
2014-02-21,1.01,1.01,1.01,1.01,12300,1.01
2014-02-20,1.01,1.01,1.01,1.01,2300,1.01
2014-02-19,1.01,1.01,1.01,1.01,000,1.01
2014-02-18,1.01,1.01,1.01,1.01,000,1.01
2014-02-17,1.01,1.01,1.01,1.01,000,1.01
2014-02-14,1.02,1.02,1.01,1.01,4600,1.01
2014-02-13,1.01,1.01,1.01,1.01,000,1.01
2014-02-12,1.01,1.01,1.01,1.01,2300,1.01
2014-02-11,1.01,1.01,1.01,1.01,000,1.01
2014-02-10,1.01,1.01,1.01,1.01,000,1.01
2014-02-07,1.01,1.01,1.01,1.01,000,1.01
2014-02-06,1.05,1.05,1.00,1.01,6500,1.01
2014-02-05,1.05,1.05,1.05,1.05,300,1.05
2014-02-04,1.08,1.08,1.08,1.08,000,1.08
2014-02-03,1.08,1.08,1.08,1.08,000,1.08
2014-01-31,1.08,1.08,1.08,1.08,000,1.08
2014-01-30,1.08,1.08,1.08,1.08,000,1.08
2014-01-29,1.08,1.08,1.08,1.08,17700,1.08
2014-01-28,1.08,1.08,1.07,1.07,21600,1.07
2014-01-27,1.08,1.08,1.08,1.08,000,1.08
2014-01-24,1.08,1.08,1.08,1.08,000,1.08
2014-01-23,1.08,1.08,1.08,1.08,2300,1.08
2014-01-22,1.12,1.12,1.08,1.08,4100,1.08
2014-01-21,1.12,1.12,1.12,1.12,2300,1.12
2014-01-20,1.12,1.12,1.12,1.12,000,1.12
2014-01-17,1.12,1.12,1.12,1.12,6900,1.12
2014-01-16,1.12,1.12,1.12,1.12,4600,1.12
2014-01-15,1.10,1.10,1.08,1.08,2300,1.08
2014-01-14,1.10,1.10,1.10,1.10,2300,1.10
2014-01-13,1.065,1.065,1.065,1.065,2300,1.065
2014-01-10,1.05,1.05,1.05,1.05,000,1.05
2014-01-09,1.05,1.05,1.05,1.05,000,1.05
2014-01-08,1.05,1.05,1.05,1.05,2300,1.05
2014-01-07,1.15,1.15,1.15,1.15,000,1.15
2014-01-06,1.15,1.15,1.15,1.15,000,1.15
2014-01-03,1.15,1.15,1.15,1.15,000,1.15
2014-01-02,1.15,1.15,1.15,1.15,000,1.15
2014-01-01,1.15,1.15,1.15,1.15,000,1.15
2013-12-31,1.15,1.15,1.15,1.15,000,1.15
2013-12-30,1.15,1.15,1.15,1.15,5700,1.15
2013-12-27,1.09,1.09,1.09,1.09,000,1.09
2013-12-26,1.09,1.09,1.09,1.09,000,1.09
2013-12-25,1.09,1.09,1.09,1.09,000,1.09
2013-12-24,1.09,1.09,1.09,1.09,000,1.09
2013-12-23,1.09,1.09,1.09,1.09,000,1.09
2013-12-20,1.09,1.09,1.09,1.09,19600,1.09
2013-12-19,1.09,1.09,1.09,1.09,000,1.09
2013-12-18,1.10,1.10,1.09,1.09,2300,1.09
2013-12-17,1.09,1.09,1.09,1.09,000,1.09
2013-12-16,1.09,1.09,1.09,1.09,10000,1.09
2013-12-13,1.10,1.10,1.07,1.07,6900,1.07
2013-12-12,1.10,1.10,1.10,1.10,15000,1.10
2013-12-11,1.05,1.05,1.05,1.05,4600,1.05
2013-12-10,1.05,1.05,1.05,1.05,000,1.05
2013-12-09,1.08,1.08,1.05,1.05,6900,1.05
2013-12-06,1.08,1.08,1.08,1.08,2300,1.08
2013-12-05,1.09,1.10,1.09,1.10,102300,1.10
2013-12-04,1.10,1.10,1.07,1.07,37300,1.07
2013-12-03,1.10,1.10,1.10,1.10,45000,1.10
2013-12-02,1.10,1.10,1.05,1.05,52300,1.05
2013-11-29,1.05,1.05,1.05,1.05,000,1.05
2013-11-28,1.05,1.05,1.05,1.05,12300,1.05
2013-11-27,1.05,1.05,1.05,1.05,000,1.05
2013-11-26,1.05,1.05,1.05,1.05,2300,1.05
2013-11-25,1.10,1.10,1.05,1.05,15000,1.05
2013-11-22,1.03,1.03,1.03,1.03,000,1.03
2013-11-21,1.05,1.05,1.03,1.03,4300,1.03
2013-11-20,1.05,1.05,1.05,1.05,000,1.05
2013-11-19,1.05,1.05,1.05,1.05,000,1.05
2013-11-18,1.05,1.05,1.05,1.05,000,1.05
2013-11-15,1.05,1.05,1.05,1.05,50000,1.05
2013-11-14,1.04,1.04,1.03,1.03,29400,1.03
2013-11-13,1.02,1.02,1.02,1.02,000,1.02
2013-11-12,1.02,1.02,1.02,1.02,000,1.02
2013-11-11,1.025,1.025,1.02,1.02,4600,1.02
2013-11-08,1.03,1.03,1.025,1.025,3200,1.025
2013-11-07,1.025,1.025,1.025,1.025,2300,1.025
2013-11-06,1.01,1.01,1.01,1.01,000,1.01
2013-11-05,1.01,1.01,1.01,1.01,000,1.01
2013-11-04,1.01,1.01,1.01,1.01,2300,1.01
2013-11-01,1.01,1.05,1.01,1.05,5100,1.05
2013-10-31,1.01,1.01,1.01,1.01,2300,1.01
2013-10-30,1.07,1.07,1.07,1.07,6900,1.07
2013-10-29,1.10,1.10,1.10,1.10,000,1.10
2013-10-28,1.10,1.10,1.10,1.10,000,1.10
2013-10-25,1.10,1.10,1.10,1.10,4600,1.10
2013-10-24,1.10,1.12,1.10,1.12,20000,1.12
2013-10-23,1.065,1.065,1.065,1.065,000,1.065
2013-10-22,1.065,1.065,1.065,1.065,000,1.065
2013-10-21,1.065,1.065,1.065,1.065,000,1.065
2013-10-18,1.065,1.065,1.065,1.065,000,1.065
2013-10-17,1.065,1.065,1.065,1.065,000,1.065
2013-10-16,1.065,1.065,1.065,1.065,000,1.065
2013-10-15,1.065,1.065,1.065,1.065,000,1.065
2013-10-14,1.065,1.065,1.065,1.065,000,1.065
2013-10-11,1.065,1.065,1.065,1.065,4600,1.065
2013-10-10,1.04,1.04,1.04,1.04,2300,1.04
2013-10-09,1.045,1.10,1.04,1.10,7800,1.10
2013-10-08,1.04,1.04,1.04,1.04,000,1.04
2013-10-07,1.04,1.04,1.04,1.04,2300,1.04
2013-10-04,1.045,1.045,1.045,1.045,2300,1.045
2013-10-03,1.04,1.04,1.04,1.04,000,1.04
2013-10-02,1.04,1.04,1.04,1.04,4800,1.04
2013-10-01,1.04,1.04,1.035,1.035,20000,1.035
2013-09-30,1.04,1.04,1.04,1.04,000,1.04
2013-09-27,1.04,1.04,1.04,1.04,000,1.04
2013-09-26,1.04,1.05,1.04,1.04,7400,1.04
2013-09-25,1.05,1.05,1.05,1.05,000,1.05
2013-09-24,1.05,1.05,1.05,1.05,1200,1.05
2013-09-23,1.05,1.05,1.05,1.05,800,1.05
2013-09-20,1.04,1.04,1.04,1.04,000,1.04
2013-09-19,1.04,1.04,1.04,1.04,4600,1.04
2013-09-18,1.035,1.035,1.035,1.035,000,1.035
2013-09-17,1.04,1.04,1.035,1.035,4600,1.035
2013-09-16,1.025,1.025,1.025,1.025,2300,1.025
2013-09-13,1.01,1.01,1.01,1.01,000,1.01
2013-09-12,1.01,1.01,1.01,1.01,000,1.01
2013-09-11,1.01,1.01,1.01,1.01,000,1.01
2013-09-10,1.01,1.01,1.01,1.01,1000,1.01
2013-09-09,1.02,1.02,1.00,1.00,28000,1.00
2013-09-06,1.02,1.02,1.02,1.02,500,1.02
2013-09-05,1.03,1.03,1.03,1.03,000,1.03
2013-09-04,1.03,1.03,1.03,1.03,000,1.03
2013-09-03,1.03,1.03,1.03,1.03,000,1.03
2013-09-02,1.025,1.03,1.025,1.03,26600,1.03
2013-08-30,1.02,1.02,1.02,1.02,000,1.02
2013-08-29,1.02,1.02,1.02,1.02,10000,1.02
2013-08-28,1.045,1.045,1.04,1.04,15000,1.04
2013-08-27,1.01,1.04,1.01,1.04,17500,1.04
2013-08-26,1.01,1.01,1.01,1.01,000,1.01
2013-08-23,1.01,1.01,1.01,1.01,2300,1.01
2013-08-22,1.04,1.04,1.04,1.04,000,1.04
2013-08-21,1.02,1.04,1.02,1.04,14000,1.04
2013-08-20,1.01,1.01,1.01,1.01,000,1.01
2013-08-19,1.01,1.01,1.01,1.01,9200,1.01
2013-08-16,1.01,1.01,1.01,1.01,000,1.01
2013-08-15,1.01,1.01,1.01,1.01,2300,1.01
2013-08-14,1.01,1.01,1.01,1.01,2300,1.01
2013-08-13,1.02,1.02,1.02,1.02,000,1.02
2013-08-12,1.01,1.02,1.01,1.02,6300,1.02
2013-08-09,1.00,1.00,1.00,1.00,500,1.00
2013-08-08,1.00,1.00,1.00,1.00,000,1.00
2013-08-07,1.00,1.00,1.00,1.00,000,1.00
2013-08-06,1.00,1.00,1.00,1.00,000,1.00
2013-08-05,1.00,1.00,1.00,1.00,000,1.00
2013-08-02,1.00,1.00,1.00,1.00,2300,1.00
2013-08-01,1.00,1.00,1.00,1.00,50000,1.00
2013-07-31,0.97,0.97,0.97,0.97,2000,0.97
2013-07-30,0.98,0.98,0.97,0.97,22100,0.97
2013-07-29,0.96,0.96,0.96,0.96,4300,0.96
2013-07-26,0.95,0.96,0.95,0.96,4600,0.96
2013-07-25,1.00,1.00,1.00,1.00,20200,1.00
2013-07-24,1.00,1.00,1.00,1.00,000,1.00
2013-07-23,1.00,1.00,1.00,1.00,000,1.00
2013-07-22,1.00,1.00,1.00,1.00,000,1.00
2013-07-19,1.00,1.00,1.00,1.00,000,1.00
2013-07-18,1.00,1.00,1.00,1.00,000,1.00
2013-07-17,1.00,1.00,1.00,1.00,000,1.00
2013-07-16,1.00,1.00,1.00,1.00,20000,1.00
2013-07-15,1.00,1.00,1.00,1.00,000,1.00
2013-07-12,1.00,1.00,1.00,1.00,2300,1.00
2013-07-11,1.00,1.00,1.00,1.00,000,1.00
2013-07-10,1.00,1.00,1.00,1.00,000,1.00
2013-07-09,1.00,1.00,1.00,1.00,4300,1.00
2013-07-08,1.00,1.00,1.00,1.00,2300,1.00
2013-07-05,1.00,1.00,1.00,1.00,000,1.00
2013-07-04,1.01,1.01,1.00,1.00,32300,1.00
2013-07-03,1.00,1.00,1.00,1.00,000,1.00
2013-07-02,1.00,1.00,1.00,1.00,1100,1.00
2013-07-01,1.00,1.00,1.00,1.00,11700,1.00
2013-06-28,1.00,1.00,1.00,1.00,10000,1.00
2013-06-27,1.00,1.00,1.00,1.00,000,1.00
2013-06-26,1.04,1.04,1.00,1.00,31000,1.00
2013-06-25,1.05,1.05,1.05,1.05,000,1.05
2013-06-24,1.05,1.05,1.05,1.05,000,1.05
2013-06-21,1.05,1.05,1.05,1.05,2500,1.05
2013-06-20,1.00,1.00,1.00,1.00,40300,1.00
2013-06-19,1.00,1.00,1.00,1.00,000,1.00
2013-06-18,1.00,1.00,1.00,1.00,000,1.00
2013-06-17,1.00,1.00,1.00,1.00,10000,1.00
2013-06-14,1.00,1.00,1.00,1.00,20900,1.00
2013-06-13,1.00,1.00,1.00,1.00,268000,1.00
2013-06-12,0.96,0.96,0.96,0.96,000,0.96
2013-06-11,0.96,0.96,0.96,0.96,000,0.96
2013-06-10,0.96,0.96,0.96,0.96,000,0.96
2013-06-07,0.96,0.96,0.96,0.96,5300,0.96
2013-06-06,1.00,1.00,1.00,1.00,000,1.00
2013-06-05,1.00,1.00,1.00,1.00,000,1.00
2013-06-04,1.00,1.00,1.00,1.00,000,1.00
2013-06-03,1.00,1.00,1.00,1.00,000,1.00
2013-05-31,1.00,1.00,1.00,1.00,000,1.00
2013-05-30,1.00,1.00,1.00,1.00,000,1.00
2013-05-29,1.00,1.00,1.00,1.00,000,1.00
2013-05-28,0.90,1.00,0.90,1.00,71500,1.00
2013-05-27,0.995,0.995,0.95,0.95,54600,0.95
2013-05-24,1.01,1.01,1.01,1.01,000,1.01
2013-05-23,1.04,1.04,1.01,1.01,100000,1.01
2013-05-22,1.02,1.02,1.02,1.02,32300,1.02
2013-05-21,1.05,1.05,1.02,1.02,50000,1.02
2013-05-20,1.00,1.00,1.00,1.00,000,1.00
2013-05-17,1.01,1.01,1.00,1.00,65500,1.00
2013-05-16,1.005,1.01,1.005,1.01,104400,1.01
2013-05-15,1.00,1.00,1.00,1.00,61900,1.00
2013-05-14,1.05,1.06,1.05,1.06,27300,1.06
2013-05-13,1.00,1.00,1.00,1.00,000,1.00
2013-05-10,1.00,1.00,1.00,1.00,31600,1.00
2013-05-09,0.98,1.00,0.98,1.00,25300,1.00
2013-05-08,0.81,1.00,0.81,0.98,275700,0.98
2013-05-07,0.77,0.77,0.77,0.77,1713200,0.77
2013-05-06,0.78,0.78,0.78,0.78,4600,0.78
2013-05-03,0.78,0.78,0.77,0.78,32500,0.78
2013-05-02,0.78,0.78,0.78,0.78,000,0.78
2013-05-01,0.78,0.78,0.78,0.78,350000,0.78
2013-04-30,0.765,0.765,0.765,0.765,11500,0.765
2013-04-29,0.765,0.765,0.765,0.765,000,0.765
2013-04-26,0.765,0.765,0.765,0.765,000,0.765
2013-04-25,0.765,0.765,0.765,0.765,000,0.765
2013-04-24,0.765,0.765,0.765,0.765,000,0.765
2013-04-23,0.765,0.765,0.765,0.765,000,0.765
2013-04-22,0.765,0.765,0.765,0.765,000,0.765
2013-04-19,0.765,0.765,0.765,0.765,4600,0.765
2013-04-18,0.765,0.765,0.765,0.765,4600,0.765
2013-04-17,0.765,0.765,0.765,0.765,000,0.765
2013-04-16,0.815,0.815,0.765,0.765,4600,0.765
2013-04-15,0.80,0.815,0.80,0.815,2300,0.815
2013-04-12,0.815,0.815,0.815,0.815,000,0.815
2013-04-11,0.815,0.815,0.815,0.815,6000,0.815
2013-04-10,0.82,0.82,0.82,0.82,000,0.82
2013-04-09,0.82,0.82,0.82,0.82,7400,0.82
2013-04-08,0.83,0.83,0.83,0.83,10000,0.83
2013-04-05,0.84,0.84,0.84,0.84,10000,0.84
2013-04-04,0.84,0.84,0.835,0.835,40000,0.835
2013-04-03,0.84,0.84,0.84,0.84,14600,0.84
2013-04-02,0.855,0.855,0.855,0.855,000,0.855
2013-04-01,0.855,0.855,0.855,0.855,000,0.855
2013-03-29,0.855,0.855,0.855,0.855,000,0.855
2013-03-28,0.855,0.855,0.855,0.855,000,0.855
2013-03-27,0.855,0.855,0.855,0.855,000,0.855
2013-03-26,0.855,0.855,0.855,0.855,000,0.855
2013-03-25,0.855,0.855,0.855,0.855,000,0.855
2013-03-22,0.855,0.855,0.855,0.855,000,0.855
2013-03-21,0.855,0.855,0.855,0.855,000,0.855
2013-03-20,0.855,0.855,0.855,0.855,000,0.855
2013-03-19,0.855,0.855,0.855,0.855,000,0.855
2013-03-18,0.855,0.855,0.855,0.855,000,0.855
2013-03-15,0.84,0.855,0.84,0.855,10200,0.855
2013-03-14,0.83,0.83,0.83,0.83,10000,0.83
2013-03-13,0.84,0.84,0.83,0.84,29300,0.84
2013-03-12,0.83,0.83,0.83,0.83,000,0.83
2013-03-11,0.83,0.83,0.83,0.83,2300,0.83
2013-03-08,0.83,0.83,0.83,0.83,000,0.83
2013-03-07,0.83,0.83,0.83,0.83,2300,0.83
2013-03-06,0.83,0.83,0.83,0.83,000,0.83
2013-03-05,0.83,0.83,0.83,0.83,000,0.83
2013-03-04,0.83,0.83,0.83,0.83,000,0.83
2013-03-01,0.83,0.83,0.83,0.83,1800,0.83
2013-02-28,0.815,0.815,0.815,0.815,2300,0.815
2013-02-27,0.815,0.815,0.815,0.815,1600,0.815
2013-02-26,0.80,0.80,0.80,0.80,2300,0.80
2013-02-25,0.79,0.79,0.79,0.79,000,0.79
2013-02-22,0.815,0.815,0.79,0.79,27500,0.79
2013-02-21,0.815,0.82,0.815,0.815,68200,0.815
2013-02-20,0.83,0.83,0.815,0.815,39800,0.815
2013-02-19,0.815,0.815,0.815,0.815,000,0.815
2013-02-18,0.815,0.815,0.815,0.815,000,0.815
2013-02-15,0.815,0.815,0.815,0.815,10000,0.815
2013-02-14,0.815,0.815,0.815,0.815,5000,0.815
2013-02-13,0.815,0.815,0.815,0.815,2300,0.815
2013-02-12,0.815,0.815,0.815,0.815,4600,0.815
2013-02-11,0.815,0.815,0.815,0.815,4600,0.815
2013-02-08,0.815,0.815,0.815,0.815,1100,0.815
2013-02-07,0.815,0.815,0.815,0.815,000,0.815
2013-02-06,0.815,0.815,0.815,0.815,5000,0.815
2013-02-05,0.815,0.815,0.815,0.815,000,0.815
2013-02-04,0.815,0.815,0.815,0.815,2300,0.815
2013-02-01,0.815,0.815,0.815,0.815,000,0.815
2013-01-31,0.815,0.815,0.815,0.815,000,0.815
2013-01-30,0.815,0.815,0.815,0.815,2300,0.815
2013-01-29,0.81,0.81,0.81,0.81,000,0.81
2013-01-28,0.81,0.81,0.81,0.81,000,0.81
2013-01-25,0.81,0.81,0.81,0.81,000,0.81
2013-01-24,0.81,0.81,0.81,0.81,2300,0.81
2013-01-22,0.81,0.81,0.81,0.81,000,0.81
2013-01-21,0.81,0.81,0.81,0.81,000,0.81
2013-01-18,0.81,0.81,0.81,0.81,000,0.81
2013-01-17,0.81,0.81,0.81,0.81,30900,0.81
2013-01-16,0.81,0.81,0.81,0.81,14200,0.81
2013-01-15,0.81,0.815,0.81,0.81,9300,0.81
2013-01-14,0.82,0.82,0.82,0.82,15000,0.82
2013-01-11,0.805,0.805,0.805,0.805,000,0.805
2013-01-10,0.805,0.805,0.805,0.805,2300,0.805
2013-01-09,0.80,0.805,0.80,0.805,8000,0.805
2013-01-08,0.82,0.82,0.82,0.82,2400,0.82
2013-01-07,0.83,0.83,0.83,0.83,000,0.83
2013-01-04,0.83,0.83,0.83,0.83,2100,0.83
2013-01-03,0.83,0.83,0.83,0.83,2300,0.83
2013-01-02,0.82,0.82,0.82,0.82,000,0.82
2013-01-01,0.82,0.82,0.82,0.82,000,0.82
2012-12-31,0.82,0.82,0.82,0.82,000,0.82
2012-12-28,0.82,0.82,0.82,0.82,000,0.82
2012-12-27,0.82,0.82,0.82,0.82,000,0.82
2012-12-26,0.82,0.82,0.82,0.82,000,0.82
2012-12-25,0.82,0.82,0.82,0.82,000,0.82
2012-12-24,0.82,0.825,0.82,0.82,8900,0.82
2012-12-21,0.82,0.825,0.82,0.82,3500,0.82
2012-12-20,0.82,0.82,0.80,0.80,11200,0.80
2012-12-19,0.81,0.81,0.81,0.81,2300,0.81
2012-12-18,0.825,0.825,0.825,0.825,2100,0.825
2012-12-17,0.81,0.81,0.81,0.81,4600,0.81
2012-12-14,0.815,0.815,0.81,0.81,2300,0.81
2012-12-13,0.82,0.84,0.82,0.84,12800,0.84
2012-12-12,0.82,0.82,0.82,0.82,4600,0.82
2012-12-11,0.81,0.84,0.81,0.84,8400,0.84
2012-12-10,0.83,0.83,0.81,0.81,4600,0.81
2012-12-07,0.83,0.83,0.83,0.83,4600,0.83
2012-12-06,0.84,0.84,0.84,0.84,2100,0.84
2012-12-05,0.85,0.85,0.84,0.84,6900,0.84
2012-12-04,0.85,0.85,0.85,0.85,000,0.85
2012-12-03,0.85,0.85,0.85,0.85,2300,0.85
2012-11-30,0.84,0.86,0.84,0.85,3600,0.85
2012-11-29,0.86,0.86,0.85,0.85,5600,0.85
2012-11-28,0.865,0.865,0.865,0.865,000,0.865
2012-11-27,0.865,0.865,0.865,0.865,2100,0.865
2012-11-26,0.85,0.85,0.85,0.85,2000,0.85
2012-11-23,0.85,0.85,0.85,0.85,200,0.85
2012-11-22,0.85,0.85,0.85,0.85,000,0.85
2012-11-21,0.85,0.85,0.85,0.85,300,0.85
2012-11-20,0.85,0.85,0.85,0.85,6900,0.85
2012-11-19,0.85,0.85,0.85,0.85,22400,0.85
2012-11-16,0.85,0.85,0.85,0.85,2300,0.85
2012-11-15,0.85,0.85,0.85,0.85,9300,0.85
2012-11-14,0.89,0.89,0.89,0.89,000,0.89
2012-11-13,0.89,0.89,0.89,0.89,2300,0.89
2012-11-12,0.895,0.895,0.895,0.895,000,0.895
2012-11-09,0.89,0.895,0.89,0.895,7300,0.895
2012-11-08,0.90,0.90,0.90,0.90,2300,0.90
2012-11-07,0.90,0.90,0.90,0.90,000,0.90
2012-11-06,0.90,0.90,0.90,0.90,10000,0.90
2012-11-05,0.925,0.925,0.925,0.925,000,0.925
2012-11-02,0.925,0.925,0.925,0.925,2300,0.925
2012-11-01,0.93,0.93,0.93,0.93,10000,0.93
2012-10-31,0.93,0.93,0.93,0.93,000,0.93
2012-10-30,0.92,0.93,0.92,0.93,14400,0.93
2012-10-29,0.93,0.93,0.93,0.93,000,0.93
2012-10-26,0.93,0.93,0.93,0.93,2300,0.93
2012-10-25,0.925,0.925,0.925,0.925,000,0.925
2012-10-24,0.92,0.925,0.92,0.925,6900,0.925
2012-10-23,0.91,0.91,0.91,0.91,15800,0.91
2012-10-22,0.91,0.91,0.91,0.91,1000,0.91
2012-10-19,0.91,0.91,0.91,0.91,2300,0.91
2012-10-18,0.92,0.92,0.92,0.92,2300,0.92
2012-10-17,0.92,0.92,0.92,0.92,4600,0.92
2012-10-16,0.93,0.93,0.91,0.92,13800,0.92
2012-10-15,0.94,0.94,0.94,0.94,000,0.94
2012-10-12,0.94,0.94,0.94,0.94,5400,0.94
2012-10-11,0.94,0.94,0.94,0.94,000,0.94
2012-10-10,0.95,0.95,0.94,0.94,2700,0.94
2012-10-09,0.95,0.95,0.95,0.95,6900,0.95
2012-10-08,0.95,0.95,0.95,0.95,5100,0.95
2012-10-05,0.975,0.975,0.975,0.975,000,0.975
2012-10-04,0.97,0.98,0.97,0.975,7300,0.975
2012-10-03,0.95,0.95,0.95,0.95,2300,0.95
2012-10-02,0.95,0.955,0.95,0.955,12000,0.955
2012-10-01,0.955,0.955,0.955,0.955,000,0.955
2012-09-28,0.955,0.955,0.955,0.955,9200,0.955
2012-09-27,0.95,0.96,0.95,0.95,104600,0.95
2012-09-26,0.97,0.97,0.97,0.97,000,0.97
2012-09-25,0.97,0.97,0.97,0.97,2300,0.97
2012-09-24,0.98,0.98,0.95,0.95,7300,0.95
2012-09-21,0.98,0.98,0.98,0.98,4600,0.98
2012-09-20,0.975,0.975,0.975,0.975,2300,0.975
2012-09-19,1.00,1.00,0.975,0.98,48100,0.98
2012-09-18,0.99,0.99,0.975,0.975,4600,0.975
2012-09-17,0.99,0.99,0.99,0.99,5000,0.99
2012-09-14,1.00,1.00,0.995,0.995,62500,0.995
2012-09-13,0.99,0.99,0.99,0.99,2300,0.99
2012-09-12,1.00,1.00,1.00,1.00,27500,1.00
2012-09-11,0.995,0.995,0.995,0.995,000,0.995
2012-09-10,0.995,0.995,0.995,0.995,000,0.995
2012-09-07,1.00,1.00,0.995,0.995,12300,0.995
2012-09-06,0.99,0.99,0.99,0.99,2300,0.99
2012-09-05,0.995,1.00,0.995,1.00,28200,1.00
2012-09-04,1.00,1.00,1.00,1.00,500,1.00
2012-09-03,1.00,1.00,1.00,1.00,2300,1.00
2012-08-31,1.00,1.00,0.99,0.99,4600,0.99
2012-08-30,0.985,1.00,0.985,1.00,16200,1.00
2012-08-29,0.98,0.98,0.98,0.98,4600,0.98
2012-08-28,0.99,0.99,0.99,0.99,6100,0.99
2012-08-27,0.99,0.99,0.985,0.99,5300,0.99
2012-08-24,0.995,0.995,0.985,0.985,9200,0.985
2012-08-23,0.99,0.99,0.99,0.99,2300,0.99
2012-08-22,1.00,1.00,1.00,1.00,39800,1.00
2012-08-21,0.99,0.99,0.98,0.98,11900,0.98
2012-08-20,1.00,1.00,1.00,1.00,000,1.00
2012-08-17,0.995,0.995,0.995,0.995,2300,0.995
2012-08-16,0.995,1.00,0.98,1.00,7300,1.00
2012-08-15,0.995,0.995,0.995,0.995,12300,0.995
2012-08-14,0.995,0.995,0.995,0.995,6900,0.995
2012-08-13,0.97,0.99,0.97,0.98,181900,0.98
2012-08-10,0.97,0.97,0.97,0.97,36800,0.97
2012-08-09,0.955,0.955,0.955,0.955,000,0.955
2012-08-08,0.955,0.955,0.955,0.955,000,0.955
2012-08-07,0.955,0.955,0.955,0.955,4600,0.955
2012-08-06,0.955,0.955,0.955,0.955,2300,0.955
2012-08-03,0.955,0.955,0.955,0.955,4600,0.955
2012-08-02,1.00,1.00,1.00,1.00,10000,1.00
2012-08-01,0.95,1.00,0.95,1.00,10800,1.00
2012-07-31,1.02,1.02,1.00,1.00,29500,1.00
2012-07-30,1.02,1.02,1.00,1.00,19200,1.00
2012-07-27,1.00,1.015,1.00,1.00,375100,1.00
2012-07-26,0.98,0.98,0.98,0.98,000,0.98
2012-07-25,1.00,1.00,0.98,0.98,21500,0.98
2012-07-24,1.00,1.00,1.00,1.00,25000,1.00
2012-07-23,1.04,1.04,1.04,1.04,1000,1.04
2012-07-20,1.00,1.00,1.00,1.00,2300,1.00
2012-07-19,1.01,1.01,1.00,1.00,7800,1.00
2012-07-18,1.00,1.00,1.00,1.00,000,1.00
2012-07-17,0.99,1.00,0.99,1.00,5900,1.00
2012-07-16,1.00,1.00,1.00,1.00,4300,1.00
2012-07-13,1.00,1.00,1.00,1.00,600,1.00
2012-07-12,1.02,1.02,1.015,1.015,14600,1.015
2012-07-11,1.05,1.05,1.02,1.02,26300,1.02
2012-07-10,1.05,1.05,1.02,1.02,16700,1.02
2012-07-09,1.04,1.05,1.015,1.015,7400,1.015
2012-07-06,1.025,1.025,1.01,1.01,9200,1.01
2012-07-05,1.035,1.035,1.01,1.025,9200,1.025
2012-07-04,1.05,1.05,1.01,1.01,9900,1.01
2012-07-03,1.05,1.05,1.01,1.01,12000,1.01
2012-07-02,1.05,1.05,1.05,1.05,4600,1.05
2012-06-29,1.05,1.055,1.05,1.055,9800,1.055
2012-06-28,1.01,1.01,1.01,1.01,4600,1.01
2012-06-27,1.01,1.01,1.01,1.01,9200,1.01
2012-06-26,1.00,1.10,1.00,1.00,59200,1.00
2012-06-25,1.00,1.00,1.00,1.00,10900,1.00
2012-06-22,1.005,1.005,1.00,1.00,22300,1.00
2012-06-21,1.00,1.00,1.00,1.00,8300,1.00
2012-06-20,1.00,1.05,1.00,1.05,7700,1.05
2012-06-19,1.01,1.01,1.00,1.00,13800,1.00
2012-06-18,1.05,1.10,1.00,1.00,18700,1.00
2012-06-15,1.05,1.05,1.00,1.00,11200,1.00
2012-06-14,1.13,1.13,1.05,1.05,32900,1.05
2012-06-13,1.15,1.15,1.13,1.13,33000,1.13
2012-06-12,1.12,1.13,1.12,1.13,18400,1.13
2012-06-11,1.10,1.10,1.10,1.10,000,1.10
2012-06-08,1.185,1.185,1.10,1.10,23700,1.10
2012-06-07,1.26,1.26,1.20,1.20,92000,1.20
2012-06-06,1.27,1.27,1.26,1.26,18100,1.26
2012-06-05,1.29,1.29,1.27,1.27,38800,1.27
2012-06-04,1.29,1.29,1.26,1.29,22300,1.29
2012-06-01,1.27,1.30,1.27,1.30,33000,1.30
2012-05-31,1.20,1.30,1.20,1.30,118800,1.30
2012-05-30,1.11,1.20,1.11,1.20,156600,1.20
2012-05-29,1.05,1.10,1.05,1.08,383600,1.08
2012-05-28,1.03,1.05,1.03,1.05,25700,1.05
2012-05-25,1.01,1.03,1.01,1.03,127200,1.03
2012-05-24,1.00,1.01,1.00,1.01,107200,1.01
2012-05-23,1.00,1.03,0.985,1.00,146500,1.00
2012-05-22,1.01,1.02,1.00,1.00,240700,1.00
