Date,Open,High,Low,Close,Volume,Adj Close
2017-01-06,0.017,0.017,0.017,0.017,000,0.017
2017-01-05,0.017,0.017,0.017,0.017,000,0.017
2017-01-04,0.017,0.017,0.017,0.017,000,0.017
2017-01-03,0.017,0.017,0.017,0.017,000,0.017
2017-01-02,0.017,0.017,0.017,0.017,000,0.017
2016-12-30,0.017,0.017,0.017,0.017,000,0.017
2016-12-29,0.017,0.017,0.017,0.017,000,0.017
2016-12-28,0.017,0.017,0.017,0.017,000,0.017
2016-12-27,0.017,0.017,0.017,0.017,000,0.017
2016-12-26,0.017,0.017,0.017,0.017,000,0.017
2016-12-23,0.017,0.017,0.017,0.017,000,0.017
2016-12-22,0.017,0.017,0.017,0.017,000,0.017
2016-12-21,0.017,0.017,0.017,0.017,000,0.017
2016-12-20,0.017,0.017,0.017,0.017,000,0.017
2016-12-19,0.017,0.017,0.017,0.017,000,0.017
2016-12-16,0.017,0.017,0.017,0.017,000,0.017
2016-12-15,0.017,0.017,0.017,0.017,000,0.017
2016-12-14,0.017,0.017,0.017,0.017,000,0.017
2016-12-13,0.017,0.017,0.017,0.017,000,0.017
2016-12-12,0.017,0.017,0.017,0.017,000,0.017
2016-12-09,0.017,0.017,0.017,0.017,000,0.017
2016-12-08,0.017,0.017,0.017,0.017,000,0.017
2016-12-07,0.017,0.017,0.017,0.017,32500,0.017
2016-12-06,0.085,0.085,0.085,0.085,000,0.085
2016-12-05,0.085,0.085,0.085,0.085,000,0.085
2016-12-02,0.085,0.085,0.085,0.085,000,0.085
2016-12-01,0.085,0.085,0.085,0.085,000,0.085
2016-11-30,0.085,0.085,0.085,0.085,000,0.085
2016-11-29,0.085,0.085,0.085,0.085,000,0.085
2016-11-28,0.085,0.085,0.085,0.085,000,0.085
2016-11-25,0.085,0.085,0.085,0.085,000,0.085
2016-11-24,0.085,0.085,0.085,0.085,000,0.085
2016-11-23,0.085,0.085,0.085,0.085,000,0.085
2016-11-22,0.085,0.085,0.085,0.085,000,0.085
2016-11-21,0.085,0.085,0.085,0.085,000,0.085
2016-11-18,0.085,0.085,0.085,0.085,000,0.085
2016-11-17,0.085,0.085,0.085,0.085,000,0.085
2016-11-16,0.085,0.085,0.085,0.085,000,0.085
2016-11-15,0.085,0.085,0.085,0.085,000,0.085
2016-11-14,0.085,0.085,0.085,0.085,000,0.085
2016-11-11,0.085,0.085,0.085,0.085,000,0.085
2016-11-10,0.085,0.085,0.085,0.085,000,0.085
2016-11-09,0.085,0.085,0.085,0.085,000,0.085
2016-11-08,0.085,0.085,0.085,0.085,000,0.085
2016-11-07,0.085,0.085,0.085,0.085,000,0.085
2016-11-04,0.085,0.085,0.085,0.085,000,0.085
2016-11-03,0.085,0.085,0.085,0.085,000,0.085
2016-11-02,0.085,0.085,0.085,0.085,000,0.085
2016-11-01,0.085,0.085,0.085,0.085,000,0.085
2016-10-31,0.085,0.085,0.085,0.085,000,0.085
2016-10-28,0.085,0.085,0.085,0.085,000,0.085
2016-10-27,0.085,0.085,0.085,0.085,000,0.085
2016-10-26,0.085,0.085,0.085,0.085,000,0.085
2016-10-25,0.085,0.085,0.085,0.085,000,0.085
2016-10-24,0.085,0.085,0.085,0.085,000,0.085
2016-10-21,0.085,0.085,0.085,0.085,000,0.085
2016-10-20,0.085,0.085,0.085,0.085,000,0.085
2016-10-19,0.085,0.085,0.085,0.085,000,0.085
2016-10-18,0.085,0.085,0.085,0.085,000,0.085
2016-10-17,0.085,0.085,0.085,0.085,000,0.085
2016-10-14,0.085,0.085,0.085,0.085,000,0.085
2016-10-13,0.085,0.085,0.085,0.085,000,0.085
2016-10-12,0.085,0.085,0.085,0.085,000,0.085
2016-10-11,0.085,0.085,0.085,0.085,000,0.085
2016-10-10,0.085,0.085,0.085,0.085,000,0.085
2016-10-07,0.085,0.085,0.085,0.085,000,0.085
2016-10-06,0.085,0.085,0.085,0.085,000,0.085
2016-10-05,0.085,0.085,0.085,0.085,000,0.085
2016-10-04,0.085,0.085,0.085,0.085,000,0.085
2016-10-03,0.085,0.085,0.085,0.085,000,0.085
2016-09-30,0.085,0.085,0.085,0.085,000,0.085
2016-09-29,0.085,0.085,0.085,0.085,000,0.085
2016-09-28,0.085,0.085,0.085,0.085,000,0.085
2016-09-27,0.085,0.085,0.085,0.085,000,0.085
2016-09-26,0.085,0.085,0.085,0.085,000,0.085
2016-09-23,0.085,0.085,0.085,0.085,000,0.085
2016-09-22,0.085,0.085,0.085,0.085,000,0.085
2016-09-21,0.085,0.085,0.085,0.085,000,0.085
2016-09-20,0.085,0.085,0.085,0.085,000,0.085
2016-09-19,0.085,0.085,0.085,0.085,000,0.085
2016-09-16,0.085,0.085,0.085,0.085,000,0.085
2016-09-15,0.085,0.085,0.085,0.085,000,0.085
2016-09-14,0.085,0.085,0.085,0.085,000,0.085
2016-09-13,0.085,0.085,0.085,0.085,000,0.085
2016-09-12,0.085,0.085,0.085,0.085,000,0.085
2016-09-09,0.085,0.085,0.085,0.085,000,0.085
2016-09-08,0.085,0.085,0.085,0.085,000,0.085
2016-09-07,0.085,0.085,0.085,0.085,000,0.085
2016-09-06,0.085,0.085,0.085,0.085,000,0.085
2016-09-05,0.085,0.085,0.085,0.085,000,0.085
2016-09-02,0.085,0.085,0.085,0.085,000,0.085
2016-09-01,0.085,0.085,0.085,0.085,000,0.085
2016-08-31,0.085,0.085,0.085,0.085,000,0.085
2016-08-30,0.085,0.085,0.085,0.085,000,0.085
2016-08-29,0.085,0.085,0.085,0.085,000,0.085
2016-08-26,0.085,0.085,0.085,0.085,000,0.085
2016-08-25,0.085,0.085,0.085,0.085,000,0.085
2016-08-24,0.085,0.085,0.085,0.085,000,0.085
2016-08-23,0.085,0.085,0.085,0.085,000,0.085
2016-08-22,0.085,0.085,0.085,0.085,000,0.085
2016-08-19,0.085,0.085,0.085,0.085,000,0.085
2016-08-18,0.085,0.085,0.085,0.085,000,0.085
2016-08-17,0.085,0.085,0.085,0.085,000,0.085
2016-08-16,0.085,0.085,0.085,0.085,000,0.085
2016-08-15,0.085,0.085,0.085,0.085,000,0.085
2016-08-12,0.085,0.085,0.085,0.085,000,0.085
2016-08-11,0.085,0.085,0.085,0.085,000,0.085
2016-08-10,0.085,0.085,0.085,0.085,000,0.085
2016-08-09,0.085,0.085,0.085,0.085,000,0.085
2016-08-08,0.085,0.085,0.085,0.085,000,0.085
2016-08-05,0.085,0.085,0.085,0.085,000,0.085
2016-08-04,0.085,0.085,0.085,0.085,000,0.085
2016-08-03,0.085,0.085,0.085,0.085,000,0.085
2016-08-02,0.085,0.085,0.085,0.085,000,0.085
2016-08-01,0.085,0.085,0.085,0.085,000,0.085
2016-07-29,0.085,0.085,0.085,0.085,000,0.085
2016-07-28,0.085,0.085,0.085,0.085,000,0.085
2016-07-27,0.085,0.085,0.085,0.085,000,0.085
2016-07-26,0.085,0.085,0.085,0.085,000,0.085
2016-07-25,0.085,0.085,0.085,0.085,000,0.085
2016-07-22,0.085,0.085,0.085,0.085,000,0.085
2016-07-21,0.085,0.085,0.085,0.085,000,0.085
2016-07-20,0.085,0.085,0.085,0.085,000,0.085
2016-07-19,0.085,0.085,0.085,0.085,000,0.085
2016-07-18,0.085,0.085,0.085,0.085,000,0.085
2016-07-15,0.085,0.085,0.085,0.085,000,0.085
2016-07-14,0.085,0.085,0.085,0.085,000,0.085
2016-07-13,0.085,0.085,0.085,0.085,000,0.085
2016-07-12,0.085,0.085,0.085,0.085,000,0.085
2016-07-11,0.085,0.085,0.085,0.085,000,0.085
2016-07-08,0.085,0.085,0.085,0.085,000,0.085
2016-07-07,0.085,0.085,0.085,0.085,000,0.085
2016-07-06,0.085,0.085,0.085,0.085,000,0.085
2016-07-05,0.085,0.085,0.085,0.085,000,0.085
2016-07-04,0.085,0.085,0.085,0.085,000,0.085
2016-07-01,0.085,0.085,0.085,0.085,000,0.085
2016-06-30,0.085,0.085,0.085,0.085,000,0.085
2016-06-29,0.085,0.085,0.085,0.085,000,0.085
2016-06-28,0.085,0.085,0.085,0.085,000,0.085
2016-06-27,0.085,0.085,0.085,0.085,000,0.085
2016-06-24,0.085,0.085,0.085,0.085,000,0.085
2016-06-23,0.085,0.085,0.085,0.085,000,0.085
2016-06-22,0.085,0.085,0.085,0.085,000,0.085
2016-06-21,0.085,0.085,0.085,0.085,000,0.085
2016-06-20,0.085,0.085,0.085,0.085,000,0.085
2016-06-17,0.085,0.085,0.085,0.085,000,0.085
2016-06-16,0.085,0.085,0.085,0.085,000,0.085
2016-06-15,0.085,0.085,0.085,0.085,000,0.085
2016-06-14,0.085,0.085,0.085,0.085,000,0.085
2016-06-13,0.085,0.085,0.085,0.085,000,0.085
2016-06-10,0.085,0.085,0.085,0.085,000,0.085
2016-06-09,0.055,0.085,0.055,0.085,10200,0.085
2016-06-08,0.055,0.055,0.055,0.055,10000,0.055
2016-06-07,0.085,0.085,0.085,0.085,000,0.085
2016-06-06,0.085,0.085,0.085,0.085,000,0.085
2016-06-03,0.085,0.085,0.085,0.085,000,0.085
2016-06-02,0.085,0.085,0.085,0.085,000,0.085
2016-06-01,0.085,0.085,0.085,0.085,000,0.085
2016-05-31,0.085,0.085,0.085,0.085,000,0.085
2016-05-30,0.085,0.085,0.085,0.085,000,0.085
2016-05-27,0.085,0.085,0.085,0.085,7000,0.085
2016-05-26,0.085,0.085,0.085,0.085,000,0.085
2016-05-25,0.085,0.085,0.085,0.085,000,0.085
2016-05-24,0.085,0.085,0.085,0.085,000,0.085
2016-05-23,0.085,0.085,0.085,0.085,000,0.085
2016-05-20,0.085,0.085,0.085,0.085,000,0.085
2016-05-19,0.085,0.085,0.085,0.085,000,0.085
2016-05-18,0.085,0.085,0.085,0.085,000,0.085
2016-05-17,0.085,0.085,0.085,0.085,000,0.085
2016-05-16,0.085,0.085,0.085,0.085,000,0.085
2016-05-13,0.085,0.085,0.085,0.085,000,0.085
2016-05-12,0.085,0.085,0.085,0.085,000,0.085
2016-05-11,0.085,0.085,0.085,0.085,000,0.085
2016-05-10,0.085,0.085,0.085,0.085,000,0.085
2016-05-09,0.085,0.085,0.085,0.085,000,0.085
2016-05-06,0.085,0.085,0.085,0.085,000,0.085
2016-05-05,0.085,0.085,0.085,0.085,000,0.085
2016-05-04,0.085,0.085,0.085,0.085,000,0.085
2016-05-03,0.085,0.085,0.085,0.085,000,0.085
2016-05-02,0.085,0.085,0.085,0.085,000,0.085
2016-04-29,0.085,0.085,0.085,0.085,000,0.085
2016-04-28,0.085,0.085,0.085,0.085,000,0.085
2016-04-27,0.085,0.085,0.085,0.085,000,0.085
2016-04-26,0.085,0.085,0.085,0.085,000,0.085
2016-04-25,0.085,0.085,0.085,0.085,000,0.085
2016-04-22,0.085,0.085,0.085,0.085,000,0.085
2016-04-21,0.085,0.085,0.085,0.085,000,0.085
2016-04-20,0.085,0.085,0.085,0.085,000,0.085
2016-04-19,0.085,0.085,0.085,0.085,000,0.085
2016-04-18,0.085,0.085,0.085,0.085,000,0.085
2016-04-15,0.085,0.085,0.085,0.085,000,0.085
2016-04-14,0.085,0.085,0.085,0.085,000,0.085
2016-04-13,0.085,0.085,0.085,0.085,000,0.085
2016-04-12,0.085,0.085,0.085,0.085,000,0.085
2016-04-11,0.085,0.085,0.085,0.085,000,0.085
2016-04-08,0.085,0.085,0.085,0.085,000,0.085
2016-04-07,0.085,0.085,0.085,0.085,000,0.085
2016-04-06,0.085,0.085,0.085,0.085,000,0.085
2016-04-05,0.085,0.085,0.085,0.085,000,0.085
2016-04-04,0.085,0.085,0.085,0.085,000,0.085
2016-04-01,0.085,0.085,0.085,0.085,000,0.085
2016-03-31,0.085,0.085,0.085,0.085,000,0.085
2016-03-30,0.085,0.085,0.085,0.085,000,0.085
2016-03-29,0.085,0.085,0.085,0.085,000,0.085
2016-03-28,0.085,0.085,0.085,0.085,000,0.085
2016-03-25,0.085,0.085,0.085,0.085,000,0.085
2016-03-24,0.085,0.085,0.085,0.085,000,0.085
2016-03-23,0.085,0.085,0.085,0.085,000,0.085
2016-03-22,0.085,0.085,0.085,0.085,000,0.085
2016-03-21,0.085,0.085,0.085,0.085,000,0.085
2016-03-18,0.085,0.085,0.085,0.085,000,0.085
2016-03-17,0.085,0.085,0.085,0.085,000,0.085
2016-03-16,0.085,0.085,0.085,0.085,000,0.085
2016-03-15,0.085,0.085,0.085,0.085,000,0.085
2016-03-14,0.085,0.085,0.085,0.085,000,0.085
2016-03-11,0.085,0.085,0.085,0.085,000,0.085
2016-03-10,0.085,0.085,0.085,0.085,000,0.085
2016-03-09,0.085,0.085,0.085,0.085,000,0.085
2016-03-08,0.085,0.085,0.085,0.085,000,0.085
2016-03-07,0.085,0.085,0.085,0.085,000,0.085
2016-03-04,0.085,0.085,0.085,0.085,000,0.085
2016-03-03,0.085,0.085,0.085,0.085,000,0.085
2016-03-02,0.085,0.085,0.085,0.085,000,0.085
2016-03-01,0.085,0.085,0.085,0.085,000,0.085
2016-02-29,0.085,0.085,0.085,0.085,000,0.085
2016-02-26,0.085,0.085,0.085,0.085,000,0.085
2016-02-25,0.085,0.085,0.085,0.085,000,0.085
2016-02-24,0.085,0.085,0.085,0.085,000,0.085
2016-02-23,0.085,0.085,0.085,0.085,000,0.085
2016-02-22,0.085,0.085,0.085,0.085,000,0.085
2016-02-19,0.085,0.085,0.085,0.085,000,0.085
2016-02-18,0.085,0.085,0.085,0.085,000,0.085
2016-02-17,0.085,0.085,0.085,0.085,000,0.085
2016-02-16,0.085,0.085,0.085,0.085,000,0.085
2016-02-15,0.085,0.085,0.085,0.085,000,0.085
2016-02-12,0.085,0.085,0.085,0.085,000,0.085
2016-02-11,0.085,0.085,0.085,0.085,000,0.085
2016-02-10,0.085,0.085,0.085,0.085,000,0.085
2016-02-09,0.085,0.085,0.085,0.085,000,0.085
2016-02-08,0.085,0.085,0.085,0.085,000,0.085
2016-02-05,0.085,0.085,0.085,0.085,7000,0.085
2016-02-04,0.085,0.085,0.085,0.085,000,0.085
2016-02-03,0.085,0.085,0.085,0.085,000,0.085
2016-02-02,0.085,0.085,0.085,0.085,000,0.085
2016-02-01,0.085,0.085,0.085,0.085,000,0.085
2016-01-29,0.085,0.085,0.085,0.085,000,0.085
2016-01-28,0.085,0.085,0.085,0.085,000,0.085
2016-01-27,0.085,0.085,0.085,0.085,000,0.085
2016-01-26,0.085,0.085,0.085,0.085,000,0.085
2016-01-25,0.085,0.085,0.085,0.085,000,0.085
2016-01-22,0.085,0.085,0.085,0.085,000,0.085
2016-01-21,0.085,0.085,0.085,0.085,000,0.085
2016-01-20,0.085,0.085,0.085,0.085,7000,0.085
2016-01-19,0.15,0.15,0.15,0.15,000,0.15
2016-01-18,0.15,0.15,0.15,0.15,000,0.15
2016-01-15,0.15,0.15,0.15,0.15,000,0.15
2016-01-14,0.15,0.15,0.15,0.15,000,0.15
2016-01-13,0.15,0.15,0.15,0.15,000,0.15
2016-01-12,0.15,0.15,0.15,0.15,000,0.15
2016-01-11,0.15,0.15,0.15,0.15,000,0.15
2016-01-08,0.15,0.15,0.15,0.15,000,0.15
2016-01-07,0.15,0.15,0.15,0.15,000,0.15
2016-01-06,0.15,0.15,0.15,0.15,000,0.15
2016-01-05,0.15,0.15,0.15,0.15,000,0.15
2016-01-04,0.15,0.15,0.15,0.15,000,0.15
2016-01-01,0.15,0.15,0.15,0.15,000,0.15
2015-12-31,0.15,0.15,0.15,0.15,000,0.15
2015-12-30,0.15,0.15,0.15,0.15,000,0.15
2015-12-29,0.15,0.15,0.15,0.15,000,0.15
2015-12-28,0.15,0.15,0.15,0.15,000,0.15
2015-12-25,0.15,0.15,0.15,0.15,000,0.15
2015-12-24,0.15,0.15,0.15,0.15,000,0.15
2015-12-23,0.15,0.15,0.15,0.15,000,0.15
2015-12-22,0.15,0.15,0.15,0.15,000,0.15
2015-12-21,0.15,0.15,0.15,0.15,000,0.15
2015-12-18,0.15,0.15,0.15,0.15,000,0.15
2015-12-17,0.15,0.15,0.15,0.15,000,0.15
2015-12-16,0.15,0.15,0.15,0.15,000,0.15
2015-12-15,0.15,0.15,0.15,0.15,000,0.15
2015-12-14,0.15,0.15,0.15,0.15,000,0.15
2015-12-11,0.15,0.15,0.15,0.15,000,0.15
2015-12-10,0.15,0.15,0.15,0.15,000,0.15
2015-12-09,0.15,0.15,0.15,0.15,000,0.15
2015-12-08,0.15,0.15,0.15,0.15,000,0.15
2015-12-07,0.15,0.15,0.15,0.15,000,0.15
2015-12-04,0.15,0.15,0.15,0.15,000,0.15
2015-12-03,0.15,0.15,0.15,0.15,000,0.15
2015-12-02,0.15,0.15,0.15,0.15,000,0.15
2015-12-01,0.15,0.15,0.15,0.15,000,0.15
2015-11-30,0.15,0.15,0.15,0.15,000,0.15
2015-11-27,0.15,0.15,0.15,0.15,000,0.15
2015-11-26,0.15,0.15,0.15,0.15,000,0.15
2015-11-25,0.15,0.15,0.15,0.15,000,0.15
2015-11-24,0.15,0.15,0.15,0.15,000,0.15
2015-11-23,0.15,0.15,0.15,0.15,000,0.15
2015-11-20,0.15,0.15,0.15,0.15,000,0.15
2015-11-19,0.15,0.15,0.15,0.15,000,0.15
2015-11-18,0.15,0.15,0.15,0.15,000,0.15
2015-11-17,0.15,0.15,0.15,0.15,000,0.15
2015-11-16,0.15,0.15,0.15,0.15,000,0.15
2015-11-13,0.15,0.15,0.15,0.15,000,0.15
2015-11-12,0.15,0.15,0.15,0.15,000,0.15
2015-11-11,0.15,0.15,0.15,0.15,000,0.15
2015-11-10,0.15,0.15,0.15,0.15,000,0.15
2015-11-09,0.15,0.15,0.15,0.15,000,0.15
2015-11-06,0.15,0.15,0.15,0.15,000,0.15
2015-11-05,0.15,0.15,0.15,0.15,000,0.15
2015-11-04,0.15,0.15,0.15,0.15,000,0.15
2015-11-03,0.15,0.15,0.15,0.15,000,0.15
2015-11-02,0.15,0.15,0.15,0.15,000,0.15
2015-10-30,0.15,0.15,0.15,0.15,000,0.15
2015-10-29,0.15,0.15,0.15,0.15,000,0.15
2015-10-28,0.15,0.15,0.15,0.15,000,0.15
2015-10-27,0.15,0.15,0.15,0.15,000,0.15
2015-10-26,0.15,0.15,0.15,0.15,000,0.15
2015-10-23,0.15,0.15,0.15,0.15,000,0.15
2015-10-22,0.15,0.15,0.15,0.15,000,0.15
2015-10-21,0.15,0.15,0.15,0.15,000,0.15
2015-10-20,0.15,0.15,0.15,0.15,000,0.15
2015-10-19,0.15,0.15,0.15,0.15,000,0.15
2015-10-16,0.15,0.15,0.15,0.15,000,0.15
2015-10-15,0.15,0.15,0.15,0.15,000,0.15
2015-10-14,0.15,0.15,0.15,0.15,000,0.15
2015-10-13,0.15,0.15,0.15,0.15,000,0.15
2015-10-12,0.15,0.15,0.15,0.15,000,0.15
2015-10-09,0.15,0.15,0.15,0.15,000,0.15
2015-10-08,0.15,0.15,0.15,0.15,000,0.15
2015-10-07,0.15,0.15,0.15,0.15,000,0.15
2015-10-06,0.15,0.15,0.15,0.15,000,0.15
2015-10-05,0.15,0.15,0.15,0.15,000,0.15
2015-10-02,0.15,0.15,0.15,0.15,000,0.15
2015-10-01,0.15,0.15,0.15,0.15,000,0.15
2015-09-30,0.15,0.15,0.15,0.15,000,0.15
2015-09-29,0.15,0.15,0.15,0.15,000,0.15
2015-09-28,0.15,0.15,0.15,0.15,000,0.15
2015-09-25,0.15,0.15,0.15,0.15,000,0.15
2015-09-24,0.15,0.15,0.15,0.15,000,0.15
2015-09-23,0.15,0.15,0.15,0.15,000,0.15
2015-09-22,0.15,0.15,0.15,0.15,000,0.15
2015-09-21,0.15,0.15,0.15,0.15,000,0.15
2015-09-18,0.15,0.15,0.15,0.15,000,0.15
2015-09-17,0.15,0.15,0.15,0.15,000,0.15
2015-09-16,0.15,0.15,0.15,0.15,000,0.15
2015-09-15,0.15,0.15,0.15,0.15,000,0.15
2015-09-14,0.15,0.15,0.15,0.15,000,0.15
2015-09-11,0.15,0.15,0.15,0.15,000,0.15
2015-09-10,0.15,0.15,0.15,0.15,000,0.15
2015-09-09,0.15,0.15,0.15,0.15,000,0.15
2015-09-08,0.15,0.15,0.15,0.15,000,0.15
2015-09-07,0.15,0.15,0.15,0.15,000,0.15
2015-09-04,0.15,0.15,0.15,0.15,000,0.15
2015-09-03,0.15,0.15,0.15,0.15,000,0.15
2015-09-02,0.15,0.15,0.15,0.15,000,0.15
2015-09-01,0.15,0.15,0.15,0.15,000,0.15
2015-08-31,0.15,0.15,0.15,0.15,000,0.15
2015-08-28,0.15,0.15,0.15,0.15,000,0.15
2015-08-27,0.15,0.15,0.15,0.15,000,0.15
2015-08-26,0.15,0.15,0.15,0.15,000,0.15
2015-08-25,0.15,0.15,0.15,0.15,000,0.15
2015-08-24,0.15,0.15,0.15,0.15,000,0.15
2015-08-20,0.15,0.15,0.15,0.15,000,0.15
2015-08-19,0.15,0.15,0.15,0.15,000,0.15
2015-08-18,0.15,0.15,0.15,0.15,000,0.15
2015-08-17,0.15,0.15,0.15,0.15,000,0.15
2015-08-14,0.15,0.15,0.15,0.15,000,0.15
2015-08-13,0.15,0.15,0.15,0.15,000,0.15
2015-08-12,0.15,0.15,0.15,0.15,000,0.15
2015-08-11,0.15,0.15,0.15,0.15,000,0.15
2015-08-10,0.15,0.15,0.15,0.15,000,0.15
2015-08-07,0.15,0.15,0.15,0.15,000,0.15
2015-08-06,0.15,0.15,0.15,0.15,000,0.15
2015-08-05,0.15,0.15,0.15,0.15,000,0.15
2015-08-04,0.15,0.15,0.15,0.15,000,0.15
2015-08-03,0.15,0.15,0.15,0.15,000,0.15
2015-07-31,0.15,0.15,0.15,0.15,000,0.15
2015-07-30,0.15,0.15,0.15,0.15,000,0.15
2015-07-29,0.15,0.15,0.15,0.15,000,0.15
2015-07-28,0.15,0.15,0.15,0.15,000,0.15
2015-07-27,0.15,0.15,0.15,0.15,000,0.15
2015-07-24,0.15,0.15,0.15,0.15,000,0.15
2015-07-23,0.15,0.15,0.15,0.15,000,0.15
2015-07-22,0.15,0.15,0.15,0.15,000,0.15
2015-07-21,0.15,0.15,0.15,0.15,000,0.15
2015-07-20,0.15,0.15,0.15,0.15,000,0.15
2015-07-17,0.15,0.15,0.15,0.15,000,0.15
2015-07-16,0.15,0.15,0.15,0.15,000,0.15
2015-07-15,0.15,0.15,0.15,0.15,000,0.15
2015-07-14,0.15,0.15,0.15,0.15,000,0.15
2015-07-13,0.15,0.15,0.15,0.15,5000,0.15
2015-07-10,0.165,0.165,0.165,0.165,000,0.165
2015-07-09,0.165,0.165,0.165,0.165,000,0.165
2015-07-08,0.165,0.165,0.165,0.165,000,0.165
2015-07-07,0.165,0.165,0.165,0.165,000,0.165
2015-07-06,0.165,0.165,0.165,0.165,000,0.165
2015-07-03,0.165,0.165,0.165,0.165,2000,0.165
2015-07-02,0.165,0.165,0.165,0.165,000,0.165
2015-07-01,0.165,0.165,0.165,0.165,000,0.165
2015-06-30,0.165,0.165,0.165,0.165,10000,0.165
2015-06-29,0.175,0.175,0.175,0.175,000,0.175
2015-06-26,0.175,0.175,0.175,0.175,000,0.175
2015-06-25,0.175,0.175,0.175,0.175,000,0.175
2015-06-24,0.175,0.175,0.175,0.175,000,0.175
2015-06-23,0.175,0.175,0.175,0.175,000,0.175
2015-06-22,0.175,0.175,0.175,0.175,000,0.175
2015-06-19,0.175,0.175,0.175,0.175,000,0.175
2015-06-18,0.175,0.175,0.175,0.175,000,0.175
2015-06-17,0.175,0.175,0.175,0.175,000,0.175
2015-06-16,0.175,0.175,0.175,0.175,000,0.175
2015-06-15,0.175,0.175,0.175,0.175,000,0.175
2015-06-12,0.175,0.175,0.175,0.175,000,0.175
2015-06-11,0.175,0.175,0.175,0.175,000,0.175
2015-06-10,0.175,0.175,0.175,0.175,000,0.175
2015-06-09,0.175,0.175,0.175,0.175,000,0.175
2015-06-08,0.175,0.175,0.175,0.175,000,0.175
2015-06-05,0.175,0.175,0.175,0.175,000,0.175
2015-06-04,0.175,0.175,0.175,0.175,000,0.175
2015-06-03,0.175,0.175,0.175,0.175,000,0.175
2015-06-02,0.175,0.175,0.175,0.175,000,0.175
2015-06-01,0.175,0.175,0.175,0.175,000,0.175
2015-05-29,0.175,0.175,0.175,0.175,000,0.175
2015-05-28,0.175,0.175,0.175,0.175,000,0.175
2015-05-27,0.175,0.175,0.175,0.175,700,0.175
2015-05-26,0.175,0.175,0.175,0.175,000,0.175
2015-05-25,0.175,0.175,0.175,0.175,200,0.175
2015-05-22,0.175,0.175,0.175,0.175,000,0.175
2015-05-21,0.175,0.175,0.175,0.175,000,0.175
2015-05-20,0.175,0.175,0.175,0.175,3000,0.175
2015-05-19,0.17,0.17,0.17,0.17,000,0.17
2015-05-18,0.17,0.17,0.17,0.17,000,0.17
2015-05-15,0.17,0.17,0.17,0.17,000,0.17
2015-05-14,0.17,0.17,0.17,0.17,000,0.17
2015-05-13,0.17,0.17,0.17,0.17,2400,0.17
2015-05-12,0.02,0.02,0.02,0.02,000,0.02
2015-05-11,0.02,0.02,0.02,0.02,000,0.02
2015-05-08,0.02,0.02,0.02,0.02,000,0.02
2015-05-07,0.02,0.02,0.02,0.02,000,0.02
2015-05-06,0.02,0.02,0.02,0.02,000,0.02
2015-05-05,0.02,0.02,0.02,0.02,000,0.02
2015-05-04,0.02,0.02,0.02,0.02,000,0.02
2015-05-01,0.02,0.02,0.02,0.02,000,0.02
2015-04-30,0.02,0.02,0.02,0.02,2600,0.02
2015-04-29,0.10,0.10,0.10,0.10,000,0.10
2015-04-28,0.10,0.10,0.10,0.10,000,0.10
2015-04-27,0.10,0.10,0.10,0.10,500,0.10
2015-04-24,0.03,0.03,0.03,0.03,000,0.03
2015-04-23,0.03,0.03,0.03,0.03,000,0.03
2015-04-22,0.03,0.03,0.03,0.03,000,0.03
2015-04-21,0.03,0.03,0.03,0.03,500,0.03
2015-04-20,0.17,0.17,0.17,0.17,000,0.17
2015-04-17,0.17,0.17,0.17,0.17,000,0.17
2015-04-16,0.17,0.17,0.17,0.17,000,0.17
2015-04-15,0.17,0.17,0.17,0.17,000,0.17
2015-04-14,0.17,0.17,0.17,0.17,000,0.17
2015-04-13,0.17,0.17,0.17,0.17,000,0.17
2015-04-10,0.17,0.17,0.17,0.17,000,0.17
2015-04-09,0.17,0.17,0.17,0.17,000,0.17
2015-04-08,0.17,0.17,0.17,0.17,000,0.17
2015-04-07,0.17,0.17,0.17,0.17,000,0.17
2015-04-06,0.17,0.17,0.17,0.17,000,0.17
2015-04-03,0.17,0.17,0.17,0.17,000,0.17
2015-04-02,0.17,0.17,0.17,0.17,000,0.17
2015-04-01,0.17,0.17,0.17,0.17,000,0.17
2015-03-31,0.17,0.17,0.17,0.17,000,0.17
2015-03-30,0.17,0.17,0.17,0.17,000,0.17
2015-03-27,0.17,0.17,0.17,0.17,000,0.17
2015-03-26,0.17,0.17,0.17,0.17,000,0.17
2015-03-25,0.17,0.17,0.17,0.17,000,0.17
2015-03-24,0.17,0.17,0.17,0.17,000,0.17
2015-03-23,0.17,0.17,0.17,0.17,000,0.17
2015-03-20,0.17,0.17,0.17,0.17,000,0.17
2015-03-19,0.17,0.17,0.17,0.17,000,0.17
2015-03-18,0.17,0.17,0.17,0.17,000,0.17
2015-03-17,0.17,0.17,0.17,0.17,000,0.17
2015-03-16,0.17,0.17,0.17,0.17,000,0.17
2015-03-13,0.17,0.17,0.17,0.17,000,0.17
2015-03-12,0.17,0.17,0.17,0.17,000,0.17
2015-03-11,0.17,0.17,0.17,0.17,000,0.17
2015-03-10,0.17,0.17,0.17,0.17,000,0.17
2015-03-09,0.17,0.17,0.17,0.17,000,0.17
2015-03-06,0.17,0.17,0.17,0.17,000,0.17
2015-03-05,0.17,0.17,0.17,0.17,000,0.17
2015-03-04,0.17,0.17,0.17,0.17,000,0.17
2015-03-03,0.17,0.17,0.17,0.17,000,0.17
2015-03-02,0.17,0.17,0.17,0.17,000,0.17
2015-02-27,0.17,0.17,0.17,0.17,000,0.17
2015-02-26,0.17,0.17,0.17,0.17,000,0.17
2015-02-25,0.17,0.17,0.17,0.17,000,0.17
2015-02-24,0.17,0.17,0.17,0.17,000,0.17
2015-02-23,0.17,0.17,0.17,0.17,000,0.17
2015-02-20,0.17,0.17,0.17,0.17,000,0.17
2015-02-19,0.17,0.17,0.17,0.17,000,0.17
2015-02-18,0.17,0.17,0.17,0.17,000,0.17
2015-02-17,0.17,0.17,0.17,0.17,000,0.17
2015-02-16,0.17,0.17,0.17,0.17,000,0.17
2015-02-13,0.17,0.17,0.17,0.17,000,0.17
2015-02-12,0.17,0.17,0.17,0.17,000,0.17
2015-02-11,0.17,0.17,0.17,0.17,000,0.17
2015-02-10,0.17,0.17,0.17,0.17,000,0.17
2015-02-09,0.17,0.17,0.17,0.17,000,0.17
2015-02-06,0.17,0.17,0.17,0.17,000,0.17
2015-02-05,0.17,0.17,0.17,0.17,000,0.17
2015-02-04,0.17,0.17,0.17,0.17,000,0.17
2015-02-03,0.17,0.17,0.17,0.17,000,0.17
2015-02-02,0.17,0.17,0.17,0.17,000,0.17
2015-01-30,0.17,0.17,0.17,0.17,000,0.17
2015-01-29,0.17,0.17,0.17,0.17,000,0.17
2015-01-28,0.17,0.17,0.17,0.17,000,0.17
2015-01-27,0.17,0.17,0.17,0.17,000,0.17
2015-01-26,0.17,0.17,0.17,0.17,000,0.17
2015-01-23,0.17,0.17,0.17,0.17,000,0.17
2015-01-22,0.17,0.17,0.17,0.17,000,0.17
2015-01-21,0.17,0.17,0.17,0.17,000,0.17
2015-01-20,0.17,0.17,0.17,0.17,000,0.17
2015-01-19,0.17,0.17,0.17,0.17,000,0.17
2015-01-16,0.17,0.17,0.17,0.17,000,0.17
2015-01-15,0.17,0.17,0.17,0.17,000,0.17
2015-01-14,0.17,0.17,0.17,0.17,000,0.17
2015-01-13,0.17,0.17,0.17,0.17,000,0.17
2015-01-12,0.17,0.17,0.17,0.17,000,0.17
2015-01-09,0.17,0.17,0.17,0.17,000,0.17
2015-01-08,0.17,0.17,0.17,0.17,000,0.17
2015-01-07,0.17,0.17,0.17,0.17,000,0.17
2015-01-06,0.17,0.17,0.17,0.17,000,0.17
2015-01-05,0.17,0.17,0.17,0.17,000,0.17
2015-01-02,0.17,0.17,0.17,0.17,000,0.17
2015-01-01,0.17,0.17,0.17,0.17,000,0.17
2014-12-31,0.17,0.17,0.17,0.17,000,0.17
2014-12-30,0.17,0.17,0.17,0.17,10000,0.17
2014-12-29,0.16,0.16,0.16,0.16,000,0.16
2014-12-26,0.16,0.16,0.16,0.16,000,0.16
2014-12-25,0.16,0.16,0.16,0.16,000,0.16
2014-12-24,0.16,0.16,0.16,0.16,000,0.16
2014-12-23,0.16,0.16,0.16,0.16,000,0.16
2014-12-22,0.16,0.16,0.16,0.16,000,0.16
2014-12-19,0.16,0.16,0.16,0.16,10000,0.16
2014-12-18,0.20,0.20,0.20,0.20,000,0.20
2014-12-17,0.20,0.20,0.20,0.20,000,0.20
2014-12-16,0.20,0.20,0.20,0.20,000,0.20
2014-12-15,0.20,0.20,0.20,0.20,000,0.20
2014-12-12,0.20,0.20,0.20,0.20,000,0.20
2014-12-11,0.20,0.20,0.20,0.20,000,0.20
2014-12-10,0.20,0.20,0.20,0.20,000,0.20
2014-12-09,0.20,0.20,0.20,0.20,000,0.20
2014-12-08,0.20,0.20,0.20,0.20,000,0.20
2014-12-05,0.20,0.20,0.20,0.20,000,0.20
2014-12-04,0.20,0.20,0.20,0.20,000,0.20
2014-12-03,0.20,0.20,0.20,0.20,000,0.20
2014-12-02,0.20,0.20,0.20,0.20,000,0.20
2014-12-01,0.20,0.20,0.20,0.20,000,0.20
2014-11-28,0.20,0.20,0.20,0.20,000,0.20
2014-11-27,0.20,0.20,0.20,0.20,000,0.20
2014-11-26,0.20,0.20,0.20,0.20,000,0.20
2014-11-25,0.20,0.20,0.20,0.20,000,0.20
2014-11-24,0.20,0.20,0.20,0.20,000,0.20
2014-11-21,0.20,0.20,0.20,0.20,000,0.20
2014-11-20,0.20,0.20,0.20,0.20,000,0.20
2014-11-19,0.20,0.20,0.20,0.20,000,0.20
2014-11-18,0.20,0.20,0.20,0.20,000,0.20
2014-11-17,0.20,0.20,0.20,0.20,000,0.20
2014-11-14,0.20,0.20,0.20,0.20,000,0.20
2014-11-13,0.20,0.20,0.20,0.20,000,0.20
2014-11-12,0.20,0.20,0.20,0.20,000,0.20
2014-11-11,0.20,0.20,0.20,0.20,000,0.20
2014-11-10,0.20,0.20,0.20,0.20,000,0.20
2014-11-07,0.20,0.20,0.20,0.20,000,0.20
2014-11-06,0.20,0.20,0.20,0.20,000,0.20
2014-11-05,0.20,0.20,0.20,0.20,000,0.20
2014-11-04,0.20,0.20,0.20,0.20,000,0.20
2014-11-03,0.20,0.20,0.20,0.20,000,0.20
2014-10-31,0.20,0.20,0.20,0.20,000,0.20
2014-10-30,0.20,0.20,0.20,0.20,000,0.20
2014-10-29,0.20,0.20,0.20,0.20,000,0.20
2014-10-28,0.20,0.20,0.20,0.20,000,0.20
2014-10-27,0.20,0.20,0.20,0.20,000,0.20
2014-10-24,0.20,0.20,0.20,0.20,4900,0.20
2014-10-23,0.18,0.18,0.18,0.18,000,0.18
2014-10-22,0.18,0.18,0.18,0.18,000,0.18
2014-10-21,0.18,0.18,0.18,0.18,000,0.18
2014-10-20,0.18,0.18,0.18,0.18,000,0.18
2014-10-17,0.18,0.18,0.18,0.18,000,0.18
2014-10-16,0.18,0.18,0.18,0.18,000,0.18
2014-10-15,0.18,0.18,0.18,0.18,000,0.18
2014-10-14,0.18,0.18,0.18,0.18,000,0.18
2014-10-13,0.18,0.18,0.18,0.18,000,0.18
2014-10-10,0.18,0.18,0.18,0.18,000,0.18
2014-10-09,0.18,0.18,0.18,0.18,000,0.18
2014-10-08,0.18,0.18,0.18,0.18,000,0.18
2014-10-07,0.18,0.18,0.18,0.18,000,0.18
2014-10-06,0.18,0.18,0.18,0.18,000,0.18
2014-10-03,0.18,0.18,0.18,0.18,000,0.18
2014-10-02,0.18,0.18,0.18,0.18,000,0.18
2014-10-01,0.18,0.18,0.18,0.18,000,0.18
2014-09-30,0.18,0.18,0.18,0.18,000,0.18
2014-09-29,0.18,0.18,0.18,0.18,000,0.18
2014-09-26,0.18,0.18,0.18,0.18,000,0.18
2014-09-25,0.18,0.18,0.18,0.18,000,0.18
2014-09-24,0.18,0.18,0.18,0.18,000,0.18
2014-09-23,0.18,0.18,0.18,0.18,000,0.18
2014-09-22,0.18,0.18,0.18,0.18,000,0.18
2014-09-19,0.18,0.18,0.18,0.18,000,0.18
2014-09-18,0.18,0.18,0.18,0.18,000,0.18
2014-09-17,0.18,0.18,0.18,0.18,000,0.18
2014-09-16,0.18,0.18,0.18,0.18,000,0.18
2014-09-15,0.18,0.18,0.18,0.18,000,0.18
2014-09-12,0.18,0.18,0.18,0.18,000,0.18
2014-09-11,0.18,0.18,0.18,0.18,000,0.18
2014-09-10,0.18,0.18,0.18,0.18,000,0.18
2014-09-09,0.18,0.18,0.18,0.18,000,0.18
2014-09-08,0.18,0.18,0.18,0.18,000,0.18
2014-09-05,0.18,0.18,0.18,0.18,000,0.18
2014-09-04,0.18,0.18,0.18,0.18,000,0.18
2014-09-03,0.18,0.18,0.18,0.18,000,0.18
2014-09-02,0.18,0.18,0.18,0.18,000,0.18
2014-09-01,0.18,0.18,0.18,0.18,000,0.18
2014-08-29,0.18,0.18,0.18,0.18,000,0.18
2014-08-28,0.18,0.18,0.18,0.18,000,0.18
2014-08-27,0.18,0.18,0.18,0.18,000,0.18
2014-08-26,0.18,0.18,0.18,0.18,000,0.18
2014-08-25,0.18,0.18,0.18,0.18,000,0.18
2014-08-22,0.18,0.18,0.18,0.18,000,0.18
2014-08-21,0.18,0.18,0.18,0.18,000,0.18
2014-08-20,0.18,0.18,0.18,0.18,000,0.18
2014-08-19,0.18,0.18,0.18,0.18,000,0.18
2014-08-18,0.18,0.18,0.18,0.18,000,0.18
2014-08-15,0.18,0.18,0.18,0.18,000,0.18
2014-08-14,0.18,0.18,0.18,0.18,000,0.18
2014-08-13,0.18,0.18,0.18,0.18,000,0.18
2014-08-12,0.18,0.18,0.18,0.18,000,0.18
2014-08-11,0.18,0.18,0.18,0.18,000,0.18
2014-08-08,0.18,0.18,0.18,0.18,000,0.18
2014-08-07,0.18,0.18,0.18,0.18,000,0.18
2014-08-06,0.18,0.18,0.18,0.18,000,0.18
2014-08-05,0.18,0.18,0.18,0.18,000,0.18
2014-08-04,0.18,0.18,0.18,0.18,000,0.18
2014-08-01,0.18,0.18,0.18,0.18,000,0.18
2014-07-31,0.18,0.18,0.18,0.18,000,0.18
2014-07-30,0.18,0.18,0.18,0.18,000,0.18
2014-07-29,0.18,0.18,0.18,0.18,000,0.18
2014-07-28,0.18,0.18,0.18,0.18,000,0.18
2014-07-25,0.18,0.18,0.18,0.18,000,0.18
2014-07-24,0.18,0.18,0.18,0.18,000,0.18
2014-07-23,0.18,0.18,0.18,0.18,000,0.18
2014-07-22,0.18,0.18,0.18,0.18,000,0.18
2014-07-21,0.18,0.18,0.18,0.18,000,0.18
2014-07-18,0.18,0.18,0.18,0.18,000,0.18
2014-07-17,0.18,0.18,0.18,0.18,000,0.18
2014-07-16,0.18,0.18,0.18,0.18,000,0.18
2014-07-15,0.18,0.18,0.18,0.18,000,0.18
2014-07-14,0.18,0.18,0.18,0.18,000,0.18
2014-07-11,0.18,0.18,0.18,0.18,000,0.18
2014-07-10,0.18,0.18,0.18,0.18,000,0.18
2014-07-09,0.18,0.18,0.18,0.18,000,0.18
2014-07-08,0.18,0.18,0.18,0.18,000,0.18
2014-07-07,0.18,0.18,0.18,0.18,000,0.18
2014-07-04,0.18,0.18,0.18,0.18,000,0.18
2014-07-03,0.18,0.18,0.18,0.18,000,0.18
2014-07-02,0.18,0.18,0.18,0.18,000,0.18
2014-07-01,0.18,0.18,0.18,0.18,000,0.18
2014-06-30,0.18,0.18,0.18,0.18,000,0.18
2014-06-27,0.18,0.18,0.18,0.18,000,0.18
2014-06-26,0.18,0.18,0.18,0.18,000,0.18
2014-06-25,0.18,0.18,0.18,0.18,000,0.18
2014-06-24,0.18,0.18,0.18,0.18,000,0.18
2014-06-23,0.18,0.18,0.18,0.18,000,0.18
2014-06-20,0.18,0.18,0.18,0.18,000,0.18
2014-06-19,0.18,0.18,0.18,0.18,000,0.18
2014-06-18,0.18,0.18,0.18,0.18,000,0.18
2014-06-17,0.18,0.18,0.18,0.18,000,0.18
2014-06-16,0.18,0.18,0.18,0.18,000,0.18
2014-06-13,0.18,0.18,0.18,0.18,000,0.18
2014-06-12,0.18,0.18,0.18,0.18,000,0.18
2014-06-11,0.18,0.18,0.18,0.18,000,0.18
2014-06-10,0.18,0.18,0.18,0.18,000,0.18
2014-06-09,0.18,0.18,0.18,0.18,000,0.18
2014-06-06,0.18,0.18,0.18,0.18,43700,0.18
2014-06-05,0.21,0.21,0.21,0.21,000,0.21
2014-06-04,0.21,0.21,0.21,0.21,000,0.21
2014-06-03,0.20,0.21,0.20,0.21,11600,0.21
2014-06-02,0.16,0.16,0.16,0.16,000,0.16
2014-05-30,0.16,0.16,0.16,0.16,000,0.16
2014-05-29,0.16,0.16,0.16,0.16,000,0.16
2014-05-28,0.16,0.16,0.16,0.16,7900,0.16
2014-05-27,0.16,0.16,0.16,0.16,13600,0.16
2014-05-26,0.16,0.16,0.16,0.16,000,0.16
2014-05-23,0.16,0.16,0.16,0.16,5200,0.16
2014-05-22,0.16,0.16,0.16,0.16,000,0.16
2014-05-21,0.16,0.16,0.16,0.16,000,0.16
2014-05-20,0.16,0.16,0.16,0.16,459600,0.16
2014-05-19,0.125,0.125,0.125,0.125,000,0.125
2014-05-16,0.125,0.125,0.125,0.125,000,0.125
2014-05-15,0.125,0.125,0.125,0.125,000,0.125
2014-05-14,0.125,0.125,0.125,0.125,000,0.125
2014-05-13,0.125,0.125,0.125,0.125,000,0.125
2014-05-12,0.125,0.125,0.125,0.125,000,0.125
2014-05-09,0.125,0.125,0.125,0.125,20000,0.125
2014-05-08,0.125,0.125,0.125,0.125,95000,0.125
2014-05-07,0.12,0.125,0.12,0.125,46300,0.125
2014-05-06,0.15,0.15,0.15,0.15,000,0.15
2014-05-05,0.15,0.15,0.15,0.15,000,0.15
2014-05-02,0.15,0.15,0.15,0.15,000,0.15
2014-05-01,0.15,0.15,0.15,0.15,000,0.15
2014-04-30,0.15,0.15,0.15,0.15,000,0.15
2014-04-29,0.15,0.15,0.15,0.15,000,0.15
2014-04-28,0.15,0.15,0.15,0.15,000,0.15
2014-04-25,0.15,0.15,0.15,0.15,000,0.15
2014-04-24,0.15,0.15,0.15,0.15,000,0.15
2014-04-23,0.15,0.15,0.15,0.15,000,0.15
2014-04-22,0.15,0.15,0.15,0.15,000,0.15
2014-04-21,0.15,0.15,0.15,0.15,000,0.15
2014-04-18,0.15,0.15,0.15,0.15,000,0.15
2014-04-17,0.15,0.15,0.15,0.15,000,0.15
2014-04-16,0.15,0.15,0.15,0.15,000,0.15
2014-04-15,0.15,0.15,0.15,0.15,000,0.15
2014-04-14,0.15,0.15,0.15,0.15,000,0.15
2014-04-11,0.15,0.15,0.15,0.15,000,0.15
2014-04-10,0.15,0.15,0.15,0.15,000,0.15
2014-04-09,0.15,0.15,0.15,0.15,000,0.15
2014-04-08,0.15,0.15,0.15,0.15,000,0.15
2014-04-07,0.15,0.15,0.15,0.15,000,0.15
2014-04-04,0.15,0.15,0.15,0.15,000,0.15
2014-04-03,0.15,0.15,0.15,0.15,000,0.15
2014-04-02,0.15,0.15,0.15,0.15,000,0.15
2014-04-01,0.15,0.15,0.15,0.15,000,0.15
2014-03-31,0.15,0.15,0.15,0.15,000,0.15
2014-03-28,0.15,0.15,0.15,0.15,000,0.15
2014-03-27,0.15,0.15,0.15,0.15,000,0.15
2014-03-26,0.15,0.15,0.15,0.15,000,0.15
2014-03-25,0.15,0.15,0.15,0.15,000,0.15
2014-03-24,0.15,0.15,0.15,0.15,000,0.15
2014-03-21,0.15,0.15,0.15,0.15,000,0.15
2014-03-20,0.15,0.15,0.15,0.15,000,0.15
2014-03-19,0.15,0.15,0.15,0.15,000,0.15
2014-03-18,0.15,0.15,0.15,0.15,000,0.15
2014-03-17,0.15,0.15,0.15,0.15,000,0.15
2014-03-14,0.15,0.15,0.15,0.15,000,0.15
2014-03-13,0.15,0.15,0.15,0.15,000,0.15
2014-03-12,0.15,0.15,0.15,0.15,000,0.15
2014-03-11,0.15,0.15,0.15,0.15,000,0.15
2014-03-10,0.15,0.15,0.15,0.15,000,0.15
2014-03-07,0.15,0.15,0.15,0.15,000,0.15
2014-03-06,0.15,0.15,0.15,0.15,000,0.15
2014-03-05,0.15,0.15,0.15,0.15,000,0.15
2014-03-04,0.15,0.15,0.15,0.15,000,0.15
2014-03-03,0.15,0.15,0.15,0.15,19700,0.15
2014-02-28,0.16,0.16,0.16,0.16,000,0.16
2014-02-27,0.16,0.16,0.16,0.16,000,0.16
2014-02-26,0.16,0.16,0.16,0.16,000,0.16
2014-02-25,0.16,0.16,0.16,0.16,000,0.16
2014-02-24,0.16,0.16,0.16,0.16,000,0.16
2014-02-21,0.16,0.16,0.16,0.16,50000,0.16
2014-02-20,0.15,0.15,0.15,0.15,000,0.15
2014-02-19,0.15,0.15,0.15,0.15,000,0.15
2014-02-18,0.15,0.15,0.15,0.15,000,0.15
2014-02-17,0.15,0.15,0.15,0.15,000,0.15
2014-02-14,0.15,0.15,0.15,0.15,000,0.15
2014-02-13,0.15,0.15,0.15,0.15,000,0.15
2014-02-12,0.15,0.15,0.15,0.15,000,0.15
2014-02-11,0.15,0.15,0.15,0.15,000,0.15
2014-02-10,0.15,0.15,0.15,0.15,000,0.15
2014-02-07,0.15,0.15,0.15,0.15,30000,0.15
2014-02-06,0.14,0.15,0.14,0.15,11600,0.15
2014-02-05,0.14,0.14,0.14,0.14,000,0.14
2014-02-04,0.14,0.14,0.14,0.14,000,0.14
2014-02-03,0.14,0.14,0.14,0.14,000,0.14
2014-01-31,0.14,0.14,0.14,0.14,000,0.14
2014-01-30,0.14,0.14,0.14,0.14,000,0.14
2014-01-29,0.14,0.14,0.14,0.14,000,0.14
2014-01-28,0.14,0.14,0.14,0.14,000,0.14
2014-01-27,0.14,0.14,0.14,0.14,000,0.14
2014-01-24,0.14,0.14,0.14,0.14,000,0.14
2014-01-23,0.14,0.14,0.14,0.14,000,0.14
2014-01-22,0.14,0.14,0.14,0.14,000,0.14
2014-01-21,0.14,0.14,0.14,0.14,000,0.14
2014-01-20,0.14,0.14,0.14,0.14,000,0.14
2014-01-17,0.14,0.14,0.14,0.14,000,0.14
2014-01-16,0.14,0.14,0.14,0.14,000,0.14
2014-01-15,0.14,0.14,0.14,0.14,67900,0.14
2014-01-14,0.14,0.14,0.14,0.14,000,0.14
2014-01-13,0.14,0.14,0.14,0.14,50000,0.14
2014-01-10,0.14,0.14,0.14,0.14,2200,0.14
2014-01-09,0.12,0.12,0.12,0.12,000,0.12
2014-01-08,0.12,0.12,0.12,0.12,000,0.12
2014-01-07,0.12,0.12,0.12,0.12,000,0.12
2014-01-06,0.12,0.12,0.12,0.12,000,0.12
2014-01-03,0.12,0.12,0.12,0.12,000,0.12
2014-01-02,0.12,0.12,0.12,0.12,000,0.12
2014-01-01,0.12,0.12,0.12,0.12,000,0.12
2013-12-31,0.12,0.12,0.12,0.12,000,0.12
2013-12-30,0.12,0.12,0.12,0.12,000,0.12
2013-12-27,0.12,0.12,0.12,0.12,000,0.12
2013-12-26,0.12,0.12,0.12,0.12,000,0.12
2013-12-25,0.12,0.12,0.12,0.12,000,0.12
2013-12-24,0.12,0.12,0.12,0.12,000,0.12
2013-12-23,0.12,0.12,0.12,0.12,000,0.12
2013-12-20,0.12,0.12,0.12,0.12,000,0.12
2013-12-19,0.12,0.12,0.12,0.12,000,0.12
2013-12-18,0.12,0.12,0.12,0.12,000,0.12
2013-12-17,0.12,0.12,0.12,0.12,000,0.12
2013-12-16,0.12,0.12,0.12,0.12,000,0.12
2013-12-13,0.12,0.12,0.12,0.12,000,0.12
2013-12-12,0.12,0.12,0.12,0.12,13000,0.12
2013-12-11,0.12,0.12,0.12,0.12,171600,0.12
2013-12-10,0.10,0.10,0.10,0.10,000,0.10
2013-12-09,0.10,0.10,0.10,0.10,000,0.10
2013-12-06,0.10,0.10,0.10,0.10,000,0.10
2013-12-05,0.10,0.10,0.10,0.10,000,0.10
2013-12-04,0.10,0.10,0.10,0.10,000,0.10
2013-12-03,0.10,0.10,0.10,0.10,000,0.10
2013-12-02,0.10,0.10,0.10,0.10,000,0.10
2013-11-29,0.10,0.10,0.10,0.10,000,0.10
2013-11-28,0.10,0.10,0.10,0.10,000,0.10
2013-11-27,0.10,0.10,0.10,0.10,000,0.10
2013-11-26,0.10,0.10,0.10,0.10,000,0.10
2013-11-25,0.10,0.10,0.10,0.10,000,0.10
2013-11-22,0.10,0.10,0.10,0.10,000,0.10
2013-11-21,0.10,0.10,0.10,0.10,000,0.10
2013-11-20,0.10,0.10,0.10,0.10,000,0.10
2013-11-19,0.10,0.10,0.10,0.10,000,0.10
2013-11-18,0.10,0.10,0.10,0.10,000,0.10
2013-11-15,0.10,0.10,0.10,0.10,700,0.10
2013-11-14,0.10,0.10,0.10,0.10,000,0.10
2013-11-13,0.10,0.10,0.10,0.10,000,0.10
2013-11-12,0.10,0.10,0.10,0.10,000,0.10
2013-11-11,0.07,0.10,0.07,0.10,30000,0.10
2013-11-08,0.10,0.10,0.10,0.10,000,0.10
2013-11-07,0.10,0.10,0.10,0.10,000,0.10
2013-11-06,0.10,0.10,0.10,0.10,000,0.10
2013-11-05,0.10,0.10,0.10,0.10,000,0.10
2013-11-04,0.10,0.10,0.10,0.10,000,0.10
2013-11-01,0.10,0.10,0.10,0.10,000,0.10
2013-10-31,0.10,0.10,0.10,0.10,000,0.10
2013-10-30,0.10,0.10,0.10,0.10,000,0.10
2013-10-29,0.10,0.10,0.10,0.10,000,0.10
2013-10-28,0.10,0.10,0.10,0.10,000,0.10
2013-10-25,0.10,0.10,0.10,0.10,000,0.10
2013-10-24,0.10,0.10,0.10,0.10,000,0.10
2013-10-23,0.10,0.10,0.10,0.10,000,0.10
2013-10-22,0.10,0.10,0.10,0.10,000,0.10
2013-10-21,0.10,0.10,0.10,0.10,000,0.10
2013-10-18,0.10,0.10,0.10,0.10,000,0.10
2013-10-17,0.10,0.10,0.10,0.10,000,0.10
2013-10-16,0.10,0.10,0.10,0.10,000,0.10
2013-10-15,0.10,0.10,0.10,0.10,000,0.10
2013-10-14,0.10,0.10,0.10,0.10,000,0.10
2013-10-11,0.10,0.10,0.10,0.10,000,0.10
2013-10-10,0.10,0.10,0.10,0.10,000,0.10
2013-10-09,0.10,0.10,0.10,0.10,000,0.10
2013-10-08,0.12,0.12,0.10,0.10,126200,0.10
2013-10-07,0.12,0.12,0.12,0.12,000,0.12
2013-10-04,0.12,0.12,0.12,0.12,000,0.12
2013-10-03,0.12,0.12,0.12,0.12,1300,0.12
2013-10-02,0.12,0.12,0.12,0.12,1900,0.12
2013-10-01,0.12,0.12,0.12,0.12,2600,0.12
2013-09-30,0.135,0.135,0.135,0.135,2500,0.135
2013-09-27,0.125,0.125,0.125,0.125,000,0.125
2013-09-26,0.125,0.125,0.125,0.125,000,0.125
2013-09-25,0.125,0.125,0.125,0.125,000,0.125
2013-09-24,0.125,0.125,0.125,0.125,000,0.125
2013-09-23,0.125,0.125,0.125,0.125,000,0.125
2013-09-20,0.125,0.125,0.125,0.125,000,0.125
2013-09-19,0.125,0.125,0.125,0.125,000,0.125
2013-09-18,0.14,0.14,0.125,0.125,9100,0.125
2013-09-17,0.165,0.165,0.165,0.165,000,0.165
2013-09-16,0.165,0.165,0.165,0.165,200,0.165
2013-09-13,0.14,0.14,0.14,0.14,000,0.14
2013-09-12,0.14,0.14,0.14,0.14,000,0.14
2013-09-11,0.14,0.14,0.14,0.14,5800,0.14
2013-09-10,0.14,0.14,0.14,0.14,000,0.14
2013-09-09,0.14,0.14,0.14,0.14,2600,0.14
2013-09-06,0.13,0.13,0.13,0.13,000,0.13
2013-09-05,0.13,0.13,0.13,0.13,000,0.13
2013-09-04,0.13,0.13,0.13,0.13,2900,0.13
2013-09-03,0.155,0.155,0.135,0.135,24500,0.135
2013-09-02,0.155,0.155,0.155,0.155,000,0.155
2013-08-30,0.155,0.155,0.155,0.155,000,0.155
2013-08-29,0.155,0.155,0.155,0.155,000,0.155
2013-08-28,0.155,0.155,0.155,0.155,1300,0.155
2013-08-27,0.155,0.155,0.155,0.155,3900,0.155
2013-08-26,0.165,0.165,0.165,0.165,000,0.165
2013-08-23,0.165,0.165,0.165,0.165,3700,0.165
2013-08-22,0.155,0.155,0.155,0.155,000,0.155
2013-08-21,0.155,0.155,0.155,0.155,2200,0.155
2013-08-20,0.155,0.155,0.155,0.155,1600,0.155
2013-08-19,0.15,0.15,0.15,0.15,1900,0.15
2013-08-16,0.15,0.165,0.15,0.165,11100,0.165
2013-08-15,0.165,0.165,0.15,0.15,12300,0.15
2013-08-14,0.165,0.165,0.165,0.165,000,0.165
2013-08-13,0.165,0.165,0.165,0.165,000,0.165
2013-08-12,0.165,0.165,0.165,0.165,000,0.165
2013-08-09,0.165,0.165,0.165,0.165,000,0.165
2013-08-08,0.165,0.165,0.165,0.165,000,0.165
2013-08-07,0.17,0.17,0.165,0.165,1900,0.165
2013-08-06,0.17,0.17,0.17,0.17,000,0.17
2013-08-05,0.17,0.17,0.17,0.17,000,0.17
2013-08-02,0.17,0.17,0.17,0.17,000,0.17
2013-08-01,0.17,0.17,0.17,0.17,000,0.17
2013-07-31,0.17,0.17,0.16,0.17,5800,0.17
2013-07-30,0.17,0.17,0.17,0.17,000,0.17
2013-07-29,0.17,0.17,0.17,0.17,000,0.17
2013-07-26,0.17,0.17,0.17,0.17,000,0.17
2013-07-25,0.17,0.17,0.17,0.17,000,0.17
2013-07-24,0.17,0.17,0.17,0.17,000,0.17
2013-07-23,0.17,0.17,0.17,0.17,2600,0.17
2013-07-22,0.17,0.17,0.17,0.17,000,0.17
2013-07-19,0.17,0.17,0.17,0.17,1300,0.17
2013-07-18,0.15,0.15,0.15,0.15,000,0.15
2013-07-17,0.17,0.17,0.15,0.15,2600,0.15
2013-07-16,0.15,0.17,0.15,0.17,3900,0.17
2013-07-15,0.175,0.175,0.15,0.15,18200,0.15
2013-07-12,0.15,0.16,0.15,0.15,29000,0.15
2013-07-11,0.17,0.19,0.15,0.15,24400,0.15
2013-07-10,0.16,0.16,0.15,0.15,35200,0.15
2013-07-09,0.19,0.19,0.16,0.16,44600,0.16
2013-07-08,0.19,0.19,0.19,0.19,000,0.19
2013-07-05,0.19,0.19,0.19,0.19,312600,0.19
2013-07-04,0.20,0.20,0.19,0.19,20100,0.19
2013-07-03,0.20,0.20,0.19,0.19,17400,0.19
2013-07-02,0.18,0.20,0.18,0.20,2315900,0.20
