Date,Open,High,Low,Close,Volume,Adj Close
2016-12-09,0.022,0.022,0.022,0.022,000,0.022
2016-12-08,0.022,0.022,0.022,0.022,000,0.022
2016-12-07,0.022,0.022,0.022,0.022,000,0.022
2016-12-06,0.022,0.022,0.022,0.022,000,0.022
2016-12-05,0.022,0.022,0.022,0.022,000,0.022
2016-12-02,0.022,0.022,0.022,0.022,000,0.022
2016-12-01,0.022,0.022,0.022,0.022,000,0.022
2016-11-30,0.022,0.022,0.022,0.022,000,0.022
2016-11-29,0.022,0.022,0.022,0.022,000,0.022
2016-11-28,0.022,0.022,0.022,0.022,000,0.022
2016-11-25,0.022,0.022,0.022,0.022,000,0.022
2016-11-24,0.022,0.022,0.022,0.022,000,0.022
2016-11-23,0.022,0.022,0.022,0.022,000,0.022
2016-11-22,0.022,0.022,0.022,0.022,000,0.022
2016-11-21,0.022,0.022,0.022,0.022,000,0.022
2016-11-18,0.022,0.022,0.022,0.022,000,0.022
2016-11-17,0.022,0.022,0.022,0.022,000,0.022
2016-11-16,0.022,0.022,0.022,0.022,000,0.022
2016-11-15,0.022,0.022,0.022,0.022,000,0.022
2016-11-14,0.022,0.022,0.022,0.022,000,0.022
2016-11-11,0.022,0.022,0.022,0.022,000,0.022
2016-11-10,0.022,0.022,0.022,0.022,000,0.022
2016-11-09,0.022,0.022,0.022,0.022,000,0.022
2016-11-08,0.022,0.022,0.022,0.022,000,0.022
2016-11-07,0.022,0.022,0.022,0.022,000,0.022
2016-11-04,0.022,0.022,0.022,0.022,000,0.022
2016-11-03,0.022,0.022,0.022,0.022,000,0.022
2016-11-02,0.022,0.022,0.022,0.022,000,0.022
2016-11-01,0.022,0.022,0.022,0.022,000,0.022
2016-10-31,0.022,0.022,0.022,0.022,000,0.022
2016-10-28,0.022,0.022,0.022,0.022,000,0.022
2016-10-27,0.022,0.022,0.022,0.022,000,0.022
2016-10-26,0.022,0.022,0.022,0.022,000,0.022
2016-10-25,0.022,0.022,0.022,0.022,10000,0.022
2016-10-24,0.023,0.023,0.023,0.023,000,0.023
2016-10-21,0.023,0.023,0.023,0.023,000,0.023
2016-10-20,0.023,0.023,0.023,0.023,29000,0.023
2016-10-19,0.023,0.023,0.023,0.023,000,0.023
2016-10-18,0.023,0.023,0.023,0.023,000,0.023
2016-10-17,0.023,0.023,0.023,0.023,000,0.023
2016-10-14,0.023,0.023,0.023,0.023,000,0.023
2016-10-13,0.023,0.023,0.023,0.023,000,0.023
2016-10-12,0.023,0.023,0.023,0.023,000,0.023
2016-10-11,0.023,0.023,0.023,0.023,000,0.023
2016-10-10,0.023,0.023,0.023,0.023,000,0.023
2016-10-07,0.023,0.023,0.023,0.023,000,0.023
2016-10-06,0.023,0.023,0.023,0.023,000,0.023
2016-10-05,0.023,0.023,0.023,0.023,000,0.023
2016-10-04,0.023,0.023,0.023,0.023,000,0.023
2016-10-03,0.023,0.023,0.023,0.023,60000,0.023
2016-09-30,0.023,0.023,0.023,0.023,21800,0.023
2016-09-29,0.02,0.02,0.02,0.02,000,0.02
2016-09-28,0.02,0.02,0.02,0.02,000,0.02
2016-09-27,0.02,0.02,0.02,0.02,000,0.02
2016-09-26,0.02,0.02,0.02,0.02,000,0.02
2016-09-23,0.02,0.02,0.02,0.02,000,0.02
2016-09-22,0.02,0.02,0.02,0.02,000,0.02
2016-09-21,0.02,0.02,0.02,0.02,000,0.02
2016-09-20,0.02,0.02,0.02,0.02,000,0.02
2016-09-19,0.02,0.02,0.02,0.02,000,0.02
2016-09-16,0.02,0.02,0.02,0.02,000,0.02
2016-09-15,0.02,0.02,0.02,0.02,21200,0.02
2016-09-14,0.021,0.021,0.021,0.021,000,0.021
2016-09-13,0.021,0.021,0.021,0.021,000,0.021
2016-09-12,0.021,0.021,0.021,0.021,000,0.021
2016-09-09,0.021,0.021,0.021,0.021,000,0.021
2016-09-08,0.021,0.021,0.021,0.021,000,0.021
2016-09-07,0.021,0.021,0.021,0.021,000,0.021
2016-09-06,0.021,0.021,0.021,0.021,000,0.021
2016-09-05,0.021,0.021,0.021,0.021,000,0.021
2016-09-02,0.021,0.021,0.021,0.021,000,0.021
2016-09-01,0.021,0.021,0.021,0.021,000,0.021
2016-08-31,0.021,0.021,0.021,0.021,000,0.021
2016-08-30,0.021,0.021,0.021,0.021,000,0.021
2016-08-29,0.021,0.021,0.021,0.021,000,0.021
2016-08-26,0.021,0.021,0.021,0.021,000,0.021
2016-08-25,0.021,0.021,0.021,0.021,000,0.021
2016-08-24,0.021,0.021,0.021,0.021,000,0.021
2016-08-23,0.021,0.021,0.021,0.021,000,0.021
2016-08-22,0.021,0.021,0.021,0.021,000,0.021
2016-08-19,0.021,0.021,0.021,0.021,000,0.021
2016-08-18,0.021,0.021,0.021,0.021,000,0.021
2016-08-17,0.021,0.021,0.021,0.021,000,0.021
2016-08-16,0.021,0.021,0.021,0.021,000,0.021
2016-08-15,0.021,0.021,0.021,0.021,000,0.021
2016-08-12,0.021,0.021,0.021,0.021,000,0.021
2016-08-11,0.021,0.021,0.021,0.021,000,0.021
2016-08-10,0.021,0.021,0.021,0.021,000,0.021
2016-08-09,0.021,0.021,0.021,0.021,000,0.021
2016-08-08,0.021,0.021,0.021,0.021,000,0.021
2016-08-05,0.021,0.021,0.021,0.021,000,0.021
2016-08-04,0.021,0.021,0.021,0.021,000,0.021
2016-08-03,0.021,0.021,0.021,0.021,000,0.021
2016-08-02,0.021,0.021,0.021,0.021,000,0.021
2016-08-01,0.021,0.021,0.021,0.021,000,0.021
2016-07-29,0.021,0.021,0.021,0.021,000,0.021
2016-07-28,0.021,0.021,0.021,0.021,000,0.021
2016-07-27,0.021,0.021,0.021,0.021,000,0.021
2016-07-26,0.021,0.021,0.021,0.021,000,0.021
2016-07-25,0.021,0.021,0.021,0.021,000,0.021
2016-07-22,0.021,0.021,0.021,0.021,000,0.021
2016-07-21,0.021,0.021,0.021,0.021,000,0.021
2016-07-20,0.021,0.021,0.021,0.021,000,0.021
2016-07-19,0.021,0.021,0.021,0.021,000,0.021
2016-07-18,0.021,0.021,0.021,0.021,000,0.021
2016-07-15,0.021,0.021,0.021,0.021,000,0.021
2016-07-14,0.021,0.021,0.021,0.021,000,0.021
2016-07-13,0.021,0.021,0.021,0.021,6300,0.021
2016-07-12,0.021,0.021,0.021,0.021,75000,0.021
2016-07-11,0.017,0.017,0.017,0.017,000,0.017
2016-07-08,0.017,0.017,0.017,0.017,000,0.017
2016-07-07,0.017,0.017,0.017,0.017,000,0.017
2016-07-06,0.017,0.017,0.017,0.017,9500,0.017
2016-07-05,0.015,0.015,0.015,0.015,000,0.015
2016-07-04,0.015,0.015,0.015,0.015,000,0.015
2016-07-01,0.015,0.015,0.015,0.015,000,0.015
2016-06-30,0.015,0.015,0.015,0.015,50000,0.015
2016-06-29,0.014,0.014,0.014,0.014,10000,0.014
2016-06-28,0.013,0.013,0.013,0.013,000,0.013
2016-06-27,0.013,0.013,0.013,0.013,000,0.013
2016-06-24,0.013,0.013,0.013,0.013,10000,0.013
2016-06-23,0.013,0.013,0.013,0.013,000,0.013
2016-06-22,0.013,0.013,0.013,0.013,000,0.013
2016-06-21,0.013,0.013,0.013,0.013,000,0.013
2016-06-20,0.013,0.013,0.013,0.013,10000,0.013
2016-06-17,0.013,0.013,0.013,0.013,000,0.013
2016-06-16,0.013,0.013,0.013,0.013,000,0.013
2016-06-15,0.013,0.013,0.013,0.013,000,0.013
2016-06-14,0.013,0.013,0.013,0.013,000,0.013
2016-06-13,0.013,0.013,0.013,0.013,000,0.013
2016-06-10,0.013,0.013,0.013,0.013,000,0.013
2016-06-09,0.013,0.013,0.013,0.013,000,0.013
2016-06-08,0.013,0.013,0.013,0.013,000,0.013
2016-06-07,0.013,0.013,0.013,0.013,000,0.013
2016-06-06,0.013,0.013,0.013,0.013,000,0.013
2016-06-03,0.013,0.013,0.013,0.013,000,0.013
2016-06-02,0.013,0.013,0.013,0.013,000,0.013
2016-06-01,0.013,0.013,0.013,0.013,000,0.013
2016-05-31,0.013,0.013,0.013,0.013,000,0.013
2016-05-30,0.013,0.013,0.013,0.013,000,0.013
2016-05-27,0.013,0.013,0.013,0.013,000,0.013
2016-05-26,0.013,0.013,0.013,0.013,000,0.013
2016-05-25,0.013,0.013,0.013,0.013,000,0.013
2016-05-24,0.013,0.013,0.013,0.013,000,0.013
2016-05-23,0.013,0.013,0.013,0.013,000,0.013
2016-05-20,0.013,0.013,0.013,0.013,000,0.013
2016-05-19,0.013,0.013,0.013,0.013,000,0.013
2016-05-18,0.013,0.013,0.013,0.013,000,0.013
2016-05-17,0.013,0.013,0.013,0.013,000,0.013
2016-05-16,0.013,0.013,0.013,0.013,000,0.013
2016-05-13,0.013,0.013,0.013,0.013,000,0.013
2016-05-12,0.013,0.013,0.013,0.013,000,0.013
2016-05-11,0.013,0.013,0.013,0.013,000,0.013
2016-05-10,0.013,0.013,0.013,0.013,000,0.013
2016-05-09,0.013,0.013,0.013,0.013,000,0.013
2016-05-06,0.013,0.013,0.013,0.013,000,0.013
2016-05-05,0.013,0.013,0.013,0.013,000,0.013
2016-05-04,0.013,0.013,0.013,0.013,000,0.013
2016-05-03,0.013,0.013,0.013,0.013,000,0.013
2016-05-02,0.013,0.013,0.013,0.013,000,0.013
2016-04-29,0.013,0.013,0.013,0.013,000,0.013
2016-04-28,0.013,0.013,0.013,0.013,000,0.013
2016-04-27,0.013,0.013,0.013,0.013,000,0.013
2016-04-26,0.013,0.013,0.013,0.013,000,0.013
2016-04-25,0.013,0.013,0.013,0.013,000,0.013
2016-04-22,0.013,0.013,0.013,0.013,000,0.013
2016-04-21,0.013,0.013,0.013,0.013,000,0.013
2016-04-20,0.013,0.013,0.013,0.013,000,0.013
2016-04-19,0.013,0.013,0.013,0.013,000,0.013
2016-04-18,0.013,0.013,0.013,0.013,000,0.013
2016-04-15,0.013,0.013,0.013,0.013,000,0.013
2016-04-14,0.013,0.013,0.013,0.013,000,0.013
2016-04-13,0.013,0.013,0.013,0.013,000,0.013
2016-04-12,0.013,0.013,0.013,0.013,000,0.013
2016-04-11,0.013,0.013,0.013,0.013,000,0.013
2016-04-08,0.013,0.013,0.013,0.013,000,0.013
2016-04-07,0.013,0.013,0.013,0.013,000,0.013
2016-04-06,0.013,0.013,0.013,0.013,000,0.013
2016-04-05,0.013,0.013,0.013,0.013,000,0.013
2016-04-04,0.013,0.013,0.013,0.013,000,0.013
2016-04-01,0.013,0.013,0.013,0.013,000,0.013
2016-03-31,0.013,0.013,0.013,0.013,000,0.013
2016-03-30,0.013,0.013,0.013,0.013,000,0.013
2016-03-29,0.013,0.013,0.013,0.013,000,0.013
2016-03-28,0.013,0.013,0.013,0.013,000,0.013
2016-03-25,0.013,0.013,0.013,0.013,000,0.013
2016-03-24,0.013,0.013,0.013,0.013,000,0.013
2016-03-23,0.013,0.013,0.013,0.013,000,0.013
2016-03-22,0.013,0.013,0.013,0.013,000,0.013
2016-03-21,0.013,0.013,0.013,0.013,000,0.013
2016-03-18,0.013,0.013,0.013,0.013,000,0.013
2016-03-17,0.013,0.013,0.013,0.013,000,0.013
2016-03-16,0.013,0.013,0.013,0.013,000,0.013
2016-03-15,0.013,0.013,0.013,0.013,000,0.013
2016-03-14,0.013,0.013,0.013,0.013,000,0.013
2016-03-11,0.013,0.013,0.013,0.013,000,0.013
2016-03-10,0.013,0.013,0.013,0.013,000,0.013
2016-03-09,0.013,0.013,0.013,0.013,000,0.013
2016-03-08,0.013,0.013,0.013,0.013,000,0.013
2016-03-07,0.013,0.013,0.013,0.013,000,0.013
2016-03-04,0.013,0.013,0.013,0.013,000,0.013
2016-03-03,0.013,0.013,0.013,0.013,000,0.013
2016-03-02,0.013,0.013,0.013,0.013,000,0.013
2016-03-01,0.013,0.013,0.013,0.013,000,0.013
2016-02-29,0.013,0.013,0.013,0.013,000,0.013
2016-02-26,0.013,0.013,0.013,0.013,000,0.013
2016-02-25,0.013,0.013,0.013,0.013,000,0.013
2016-02-24,0.013,0.013,0.013,0.013,000,0.013
2016-02-23,0.013,0.013,0.013,0.013,000,0.013
2016-02-22,0.013,0.013,0.013,0.013,000,0.013
2016-02-19,0.013,0.013,0.013,0.013,000,0.013
2016-02-18,0.013,0.013,0.013,0.013,000,0.013
2016-02-17,0.013,0.013,0.013,0.013,000,0.013
2016-02-16,0.013,0.013,0.013,0.013,000,0.013
2016-02-15,0.013,0.013,0.013,0.013,000,0.013
2016-02-12,0.013,0.013,0.013,0.013,000,0.013
2016-02-11,0.013,0.013,0.013,0.013,000,0.013
2016-02-10,0.013,0.013,0.013,0.013,000,0.013
2016-02-09,0.013,0.013,0.013,0.013,000,0.013
2016-02-08,0.013,0.013,0.013,0.013,000,0.013
2016-02-05,0.013,0.013,0.013,0.013,000,0.013
2016-02-04,0.013,0.013,0.013,0.013,000,0.013
2016-02-03,0.013,0.013,0.013,0.013,000,0.013
2016-02-02,0.013,0.013,0.013,0.013,000,0.013
2016-02-01,0.013,0.013,0.013,0.013,000,0.013
2016-01-29,0.013,0.013,0.013,0.013,000,0.013
2016-01-28,0.013,0.013,0.013,0.013,000,0.013
2016-01-27,0.013,0.013,0.013,0.013,000,0.013
2016-01-26,0.013,0.013,0.013,0.013,000,0.013
2016-01-25,0.013,0.013,0.013,0.013,000,0.013
2016-01-22,0.013,0.013,0.013,0.013,000,0.013
2016-01-21,0.013,0.013,0.013,0.013,000,0.013
2016-01-20,0.013,0.013,0.013,0.013,000,0.013
2016-01-19,0.013,0.013,0.013,0.013,000,0.013
2016-01-18,0.013,0.013,0.013,0.013,000,0.013
2016-01-15,0.013,0.013,0.013,0.013,000,0.013
2016-01-14,0.013,0.013,0.013,0.013,000,0.013
2016-01-13,0.013,0.013,0.013,0.013,000,0.013
2016-01-12,0.013,0.013,0.013,0.013,000,0.013
2016-01-11,0.013,0.013,0.013,0.013,000,0.013
2016-01-08,0.013,0.013,0.013,0.013,000,0.013
2016-01-07,0.013,0.013,0.013,0.013,000,0.013
2016-01-06,0.013,0.013,0.013,0.013,000,0.013
2016-01-05,0.013,0.013,0.013,0.013,000,0.013
2016-01-04,0.013,0.013,0.013,0.013,000,0.013
2016-01-01,0.013,0.013,0.013,0.013,000,0.013
2015-12-31,0.013,0.013,0.013,0.013,000,0.013
2015-12-30,0.013,0.013,0.013,0.013,000,0.013
2015-12-29,0.013,0.013,0.013,0.013,000,0.013
2015-12-28,0.013,0.013,0.013,0.013,000,0.013
2015-12-25,0.013,0.013,0.013,0.013,000,0.013
2015-12-24,0.013,0.013,0.013,0.013,000,0.013
2015-12-23,0.013,0.013,0.013,0.013,000,0.013
2015-12-22,0.013,0.013,0.013,0.013,000,0.013
2015-12-21,0.013,0.013,0.013,0.013,000,0.013
2015-12-18,0.013,0.013,0.013,0.013,000,0.013
2015-12-17,0.013,0.013,0.013,0.013,000,0.013
2015-12-16,0.013,0.013,0.013,0.013,000,0.013
2015-12-15,0.013,0.013,0.013,0.013,000,0.013
2015-12-14,0.013,0.013,0.013,0.013,000,0.013
2015-12-11,0.013,0.013,0.013,0.013,000,0.013
2015-12-10,0.013,0.013,0.013,0.013,000,0.013
2015-12-09,0.013,0.013,0.013,0.013,000,0.013
2015-12-08,0.013,0.013,0.013,0.013,000,0.013
2015-12-07,0.013,0.013,0.013,0.013,10000,0.013
2015-12-04,0.014,0.014,0.014,0.014,000,0.014
2015-12-03,0.014,0.014,0.014,0.014,000,0.014
2015-12-02,0.014,0.014,0.014,0.014,000,0.014
2015-12-01,0.014,0.014,0.014,0.014,000,0.014
2015-11-30,0.014,0.014,0.014,0.014,000,0.014
2015-11-27,0.014,0.014,0.014,0.014,000,0.014
2015-11-26,0.014,0.014,0.014,0.014,000,0.014
2015-11-25,0.014,0.014,0.014,0.014,000,0.014
2015-11-24,0.014,0.014,0.014,0.014,000,0.014
2015-11-23,0.014,0.014,0.014,0.014,000,0.014
2015-11-20,0.014,0.014,0.014,0.014,000,0.014
2015-11-19,0.014,0.014,0.014,0.014,000,0.014
2015-11-18,0.014,0.014,0.014,0.014,000,0.014
2015-11-17,0.014,0.014,0.014,0.014,000,0.014
2015-11-16,0.014,0.014,0.014,0.014,000,0.014
2015-11-13,0.014,0.014,0.014,0.014,10000,0.014
2015-11-12,0.01,0.01,0.01,0.01,000,0.01
2015-11-11,0.01,0.01,0.01,0.01,000,0.01
2015-11-10,0.01,0.01,0.01,0.01,000,0.01
2015-11-09,0.01,0.01,0.01,0.01,000,0.01
2015-11-06,0.01,0.01,0.01,0.01,000,0.01
2015-11-05,0.01,0.01,0.01,0.01,000,0.01
2015-11-04,0.01,0.01,0.01,0.01,000,0.01
2015-11-03,0.01,0.01,0.01,0.01,000,0.01
2015-11-02,0.01,0.01,0.01,0.01,000,0.01
2015-10-30,0.01,0.01,0.01,0.01,000,0.01
2015-10-29,0.01,0.01,0.01,0.01,000,0.01
2015-10-28,0.01,0.01,0.01,0.01,000,0.01
2015-10-27,0.01,0.01,0.01,0.01,000,0.01
2015-10-26,0.01,0.01,0.01,0.01,000,0.01
2015-10-23,0.01,0.01,0.01,0.01,000,0.01
2015-10-22,0.01,0.01,0.01,0.01,000,0.01
2015-10-21,0.01,0.01,0.01,0.01,000,0.01
2015-10-20,0.01,0.01,0.01,0.01,000,0.01
2015-10-19,0.01,0.01,0.01,0.01,000,0.01
2015-10-16,0.01,0.01,0.01,0.01,000,0.01
2015-10-15,0.01,0.01,0.01,0.01,000,0.01
2015-10-14,0.01,0.01,0.01,0.01,261700,0.01
2015-10-13,0.015,0.015,0.015,0.015,000,0.015
2015-10-12,0.015,0.015,0.015,0.015,000,0.015
2015-10-09,0.015,0.015,0.015,0.015,57200,0.015
2015-10-08,0.018,0.018,0.018,0.018,000,0.018
2015-10-07,0.018,0.018,0.018,0.018,000,0.018
2015-10-06,0.018,0.018,0.018,0.018,000,0.018
2015-10-05,0.018,0.018,0.018,0.018,000,0.018
2015-10-02,0.018,0.018,0.018,0.018,000,0.018
2015-10-01,0.018,0.018,0.018,0.018,000,0.018
2015-09-30,0.018,0.018,0.018,0.018,000,0.018
2015-09-29,0.018,0.018,0.018,0.018,000,0.018
2015-09-28,0.018,0.018,0.018,0.018,000,0.018
2015-09-25,0.018,0.018,0.018,0.018,29000,0.018
2015-09-24,0.015,0.015,0.015,0.015,000,0.015
2015-09-23,0.015,0.015,0.015,0.015,000,0.015
2015-09-22,0.015,0.015,0.015,0.015,000,0.015
2015-09-21,0.015,0.015,0.015,0.015,000,0.015
2015-09-18,0.015,0.015,0.015,0.015,000,0.015
2015-09-17,0.015,0.015,0.015,0.015,000,0.015
2015-09-16,0.015,0.015,0.015,0.015,000,0.015
2015-09-15,0.015,0.015,0.015,0.015,000,0.015
2015-09-14,0.015,0.015,0.015,0.015,10000,0.015
2015-09-11,0.015,0.015,0.015,0.015,000,0.015
2015-09-10,0.015,0.015,0.015,0.015,000,0.015
2015-09-09,0.015,0.015,0.015,0.015,000,0.015
2015-09-08,0.015,0.015,0.015,0.015,000,0.015
2015-09-07,0.015,0.015,0.015,0.015,000,0.015
2015-09-04,0.015,0.015,0.015,0.015,000,0.015
2015-09-03,0.02,0.02,0.015,0.015,250000,0.015
2015-09-02,0.02,0.02,0.02,0.02,25000,0.02
2015-09-01,0.02,0.02,0.02,0.02,000,0.02
2015-08-31,0.02,0.02,0.02,0.02,50000,0.02
2015-08-28,0.023,0.023,0.023,0.023,000,0.023
2015-08-27,0.023,0.023,0.023,0.023,000,0.023
2015-08-26,0.023,0.023,0.023,0.023,000,0.023
2015-08-25,0.023,0.023,0.023,0.023,000,0.023
2015-08-24,0.023,0.023,0.023,0.023,000,0.023
2015-08-20,0.023,0.023,0.023,0.023,000,0.023
2015-08-19,0.023,0.023,0.023,0.023,000,0.023
2015-08-18,0.023,0.023,0.023,0.023,000,0.023
2015-08-17,0.023,0.023,0.023,0.023,000,0.023
2015-08-14,0.023,0.023,0.023,0.023,000,0.023
2015-08-13,0.023,0.023,0.023,0.023,000,0.023
2015-08-12,0.023,0.023,0.023,0.023,000,0.023
2015-08-11,0.023,0.023,0.023,0.023,000,0.023
2015-08-10,0.023,0.023,0.023,0.023,000,0.023
2015-08-07,0.023,0.023,0.023,0.023,000,0.023
2015-08-06,0.023,0.023,0.023,0.023,000,0.023
2015-08-05,0.023,0.023,0.023,0.023,000,0.023
2015-08-04,0.023,0.023,0.023,0.023,000,0.023
2015-08-03,0.023,0.023,0.023,0.023,000,0.023
2015-07-31,0.023,0.023,0.023,0.023,000,0.023
2015-07-30,0.023,0.023,0.023,0.023,000,0.023
2015-07-29,0.023,0.023,0.023,0.023,000,0.023
2015-07-28,0.023,0.023,0.023,0.023,000,0.023
2015-07-27,0.023,0.023,0.023,0.023,000,0.023
2015-07-24,0.023,0.023,0.023,0.023,000,0.023
2015-07-23,0.023,0.023,0.023,0.023,000,0.023
2015-07-22,0.023,0.023,0.023,0.023,000,0.023
2015-07-21,0.023,0.023,0.023,0.023,000,0.023
2015-07-20,0.023,0.023,0.023,0.023,000,0.023
2015-07-17,0.023,0.023,0.023,0.023,22000,0.023
2015-07-16,0.021,0.021,0.021,0.021,000,0.021
2015-07-15,0.021,0.021,0.021,0.021,000,0.021
2015-07-14,0.021,0.021,0.021,0.021,000,0.021
2015-07-13,0.021,0.021,0.021,0.021,000,0.021
2015-07-10,0.021,0.021,0.021,0.021,000,0.021
2015-07-09,0.021,0.021,0.021,0.021,000,0.021
2015-07-08,0.021,0.021,0.021,0.021,50000,0.021
2015-07-07,0.017,0.017,0.017,0.017,000,0.017
2015-07-06,0.017,0.017,0.017,0.017,000,0.017
2015-07-03,0.017,0.017,0.017,0.017,000,0.017
2015-07-02,0.017,0.017,0.017,0.017,000,0.017
2015-07-01,0.017,0.017,0.017,0.017,000,0.017
2015-06-30,0.017,0.017,0.017,0.017,26000,0.017
2015-06-29,0.012,0.012,0.012,0.012,000,0.012
2015-06-26,0.012,0.012,0.012,0.012,000,0.012
2015-06-25,0.012,0.012,0.012,0.012,000,0.012
2015-06-24,0.012,0.012,0.012,0.012,000,0.012
2015-06-23,0.012,0.012,0.012,0.012,000,0.012
2015-06-22,0.012,0.012,0.012,0.012,000,0.012
2015-06-19,0.028,0.028,0.012,0.012,10000,0.012
2015-06-18,0.027,0.027,0.027,0.027,000,0.027
2015-06-17,0.027,0.027,0.027,0.027,000,0.027
2015-06-16,0.027,0.027,0.027,0.027,000,0.027
2015-06-15,0.027,0.027,0.027,0.027,000,0.027
2015-06-12,0.027,0.027,0.027,0.027,000,0.027
2015-06-11,0.027,0.027,0.027,0.027,000,0.027
2015-06-10,0.027,0.027,0.027,0.027,000,0.027
2015-06-09,0.027,0.027,0.027,0.027,000,0.027
2015-06-08,0.027,0.027,0.027,0.027,000,0.027
2015-06-05,0.027,0.027,0.027,0.027,25700,0.027
2015-06-04,0.027,0.027,0.027,0.027,200,0.027
2015-06-03,0.026,0.026,0.026,0.026,000,0.026
2015-06-02,0.026,0.026,0.026,0.026,000,0.026
2015-06-01,0.026,0.026,0.026,0.026,49000,0.026
2015-05-29,0.026,0.026,0.026,0.026,000,0.026
2015-05-28,0.026,0.026,0.026,0.026,000,0.026
2015-05-27,0.026,0.026,0.026,0.026,20000,0.026
2015-05-26,0.023,0.023,0.023,0.023,000,0.023
2015-05-25,0.023,0.023,0.023,0.023,000,0.023
2015-05-22,0.023,0.023,0.023,0.023,000,0.023
2015-05-21,0.023,0.023,0.023,0.023,000,0.023
2015-05-20,0.023,0.023,0.023,0.023,000,0.023
2015-05-19,0.023,0.023,0.023,0.023,000,0.023
2015-05-18,0.023,0.023,0.023,0.023,000,0.023
2015-05-15,0.023,0.023,0.023,0.023,000,0.023
2015-05-14,0.023,0.023,0.023,0.023,000,0.023
2015-05-13,0.023,0.023,0.023,0.023,000,0.023
2015-05-12,0.023,0.023,0.023,0.023,8700,0.023
2015-05-11,0.023,0.023,0.023,0.023,2000,0.023
2015-05-08,0.023,0.023,0.023,0.023,000,0.023
2015-05-07,0.023,0.023,0.023,0.023,000,0.023
2015-05-06,0.023,0.023,0.023,0.023,000,0.023
2015-05-05,0.023,0.023,0.023,0.023,000,0.023
2015-05-04,0.023,0.023,0.023,0.023,000,0.023
2015-05-01,0.023,0.023,0.023,0.023,000,0.023
2015-04-30,0.023,0.023,0.023,0.023,000,0.023
2015-04-29,0.023,0.023,0.023,0.023,000,0.023
2015-04-28,0.023,0.023,0.023,0.023,000,0.023
2015-04-27,0.023,0.023,0.023,0.023,000,0.023
2015-04-24,0.023,0.023,0.023,0.023,000,0.023
2015-04-23,0.023,0.023,0.023,0.023,000,0.023
2015-04-22,0.023,0.023,0.023,0.023,000,0.023
2015-04-21,0.023,0.023,0.023,0.023,000,0.023
2015-04-20,0.023,0.023,0.023,0.023,000,0.023
2015-04-17,0.023,0.023,0.023,0.023,000,0.023
2015-04-16,0.023,0.023,0.023,0.023,000,0.023
2015-04-15,0.023,0.023,0.023,0.023,000,0.023
2015-04-14,0.023,0.023,0.023,0.023,000,0.023
2015-04-13,0.023,0.023,0.023,0.023,000,0.023
2015-04-10,0.023,0.023,0.023,0.023,000,0.023
2015-04-09,0.023,0.023,0.023,0.023,000,0.023
2015-04-08,0.023,0.023,0.023,0.023,000,0.023
2015-04-07,0.023,0.023,0.023,0.023,000,0.023
2015-04-06,0.023,0.023,0.023,0.023,000,0.023
2015-04-03,0.023,0.023,0.023,0.023,000,0.023
2015-04-02,0.023,0.023,0.023,0.023,000,0.023
2015-04-01,0.023,0.023,0.023,0.023,000,0.023
2015-03-31,0.023,0.023,0.023,0.023,000,0.023
2015-03-30,0.023,0.023,0.023,0.023,000,0.023
2015-03-27,0.023,0.023,0.023,0.023,10000,0.023
2015-03-26,0.023,0.023,0.023,0.023,000,0.023
2015-03-25,0.023,0.023,0.023,0.023,000,0.023
2015-03-24,0.023,0.023,0.023,0.023,000,0.023
2015-03-23,0.023,0.023,0.023,0.023,000,0.023
2015-03-20,0.023,0.023,0.023,0.023,000,0.023
2015-03-19,0.023,0.023,0.023,0.023,000,0.023
2015-03-18,0.023,0.023,0.023,0.023,000,0.023
2015-03-17,0.023,0.023,0.023,0.023,000,0.023
2015-03-16,0.023,0.023,0.023,0.023,000,0.023
2015-03-13,0.023,0.023,0.023,0.023,000,0.023
2015-03-12,0.023,0.023,0.023,0.023,000,0.023
2015-03-11,0.023,0.023,0.023,0.023,000,0.023
2015-03-10,0.023,0.023,0.023,0.023,000,0.023
2015-03-09,0.023,0.023,0.023,0.023,000,0.023
2015-03-06,0.023,0.023,0.023,0.023,000,0.023
2015-03-05,0.023,0.023,0.023,0.023,000,0.023
2015-03-04,0.023,0.023,0.023,0.023,000,0.023
2015-03-03,0.02,0.023,0.02,0.023,45000,0.023
2015-03-02,0.012,0.012,0.012,0.012,000,0.012
2015-02-27,0.012,0.012,0.012,0.012,000,0.012
2015-02-26,0.02,0.02,0.012,0.012,67000,0.012
2015-02-25,0.02,0.02,0.02,0.02,000,0.02
2015-02-24,0.02,0.02,0.02,0.02,000,0.02
2015-02-23,0.02,0.02,0.02,0.02,000,0.02
2015-02-20,0.02,0.02,0.02,0.02,000,0.02
2015-02-19,0.02,0.02,0.02,0.02,000,0.02
2015-02-18,0.02,0.02,0.02,0.02,000,0.02
2015-02-17,0.02,0.02,0.02,0.02,000,0.02
2015-02-16,0.02,0.02,0.02,0.02,000,0.02
2015-02-13,0.02,0.02,0.02,0.02,000,0.02
2015-02-12,0.02,0.02,0.02,0.02,000,0.02
2015-02-11,0.02,0.02,0.02,0.02,000,0.02
2015-02-10,0.02,0.02,0.02,0.02,000,0.02
2015-02-09,0.02,0.02,0.02,0.02,000,0.02
2015-02-06,0.02,0.02,0.02,0.02,000,0.02
2015-02-05,0.02,0.02,0.02,0.02,000,0.02
2015-02-04,0.02,0.02,0.02,0.02,000,0.02
2015-02-03,0.02,0.02,0.02,0.02,000,0.02
2015-02-02,0.02,0.02,0.02,0.02,000,0.02
2015-01-30,0.02,0.02,0.02,0.02,000,0.02
2015-01-29,0.02,0.02,0.02,0.02,000,0.02
2015-01-28,0.02,0.02,0.02,0.02,000,0.02
2015-01-27,0.02,0.02,0.02,0.02,000,0.02
2015-01-26,0.02,0.02,0.02,0.02,000,0.02
2015-01-23,0.02,0.02,0.02,0.02,000,0.02
2015-01-22,0.02,0.02,0.02,0.02,000,0.02
2015-01-21,0.02,0.02,0.02,0.02,000,0.02
2015-01-20,0.02,0.02,0.02,0.02,000,0.02
2015-01-19,0.02,0.02,0.02,0.02,000,0.02
2015-01-16,0.02,0.02,0.02,0.02,000,0.02
2015-01-15,0.02,0.02,0.02,0.02,55000,0.02
2015-01-14,0.02,0.02,0.02,0.02,000,0.02
2015-01-13,0.02,0.02,0.02,0.02,000,0.02
2015-01-12,0.022,0.022,0.02,0.02,78300,0.02
2015-01-09,0.02,0.02,0.02,0.02,000,0.02
2015-01-08,0.02,0.02,0.02,0.02,000,0.02
2015-01-07,0.02,0.02,0.02,0.02,000,0.02
2015-01-06,0.02,0.02,0.02,0.02,000,0.02
2015-01-05,0.02,0.02,0.02,0.02,107000,0.02
2015-01-02,0.026,0.026,0.026,0.026,000,0.026
2015-01-01,0.026,0.026,0.026,0.026,000,0.026
2014-12-31,0.026,0.026,0.026,0.026,000,0.026
2014-12-30,0.026,0.026,0.026,0.026,000,0.026
2014-12-29,0.026,0.026,0.026,0.026,000,0.026
2014-12-26,0.026,0.026,0.026,0.026,000,0.026
2014-12-25,0.026,0.026,0.026,0.026,000,0.026
2014-12-24,0.026,0.026,0.026,0.026,000,0.026
2014-12-23,0.026,0.026,0.026,0.026,000,0.026
2014-12-22,0.026,0.026,0.026,0.026,000,0.026
2014-12-19,0.026,0.026,0.026,0.026,000,0.026
2014-12-18,0.026,0.026,0.026,0.026,000,0.026
2014-12-17,0.026,0.026,0.026,0.026,000,0.026
2014-12-16,0.026,0.026,0.026,0.026,000,0.026
2014-12-15,0.026,0.026,0.026,0.026,000,0.026
2014-12-12,0.026,0.026,0.026,0.026,000,0.026
2014-12-11,0.026,0.026,0.026,0.026,000,0.026
2014-12-10,0.026,0.026,0.026,0.026,000,0.026
2014-12-09,0.026,0.026,0.026,0.026,000,0.026
2014-12-08,0.026,0.026,0.026,0.026,000,0.026
2014-12-05,0.026,0.026,0.026,0.026,000,0.026
2014-12-04,0.026,0.026,0.026,0.026,000,0.026
2014-12-03,0.026,0.026,0.026,0.026,000,0.026
2014-12-02,0.026,0.026,0.026,0.026,000,0.026
2014-12-01,0.026,0.026,0.026,0.026,000,0.026
2014-11-28,0.026,0.026,0.026,0.026,000,0.026
2014-11-27,0.026,0.026,0.026,0.026,000,0.026
2014-11-26,0.026,0.026,0.026,0.026,000,0.026
2014-11-25,0.026,0.026,0.026,0.026,000,0.026
2014-11-24,0.026,0.026,0.026,0.026,000,0.026
2014-11-21,0.026,0.026,0.026,0.026,000,0.026
2014-11-20,0.026,0.026,0.026,0.026,000,0.026
2014-11-19,0.026,0.026,0.026,0.026,000,0.026
2014-11-18,0.026,0.026,0.026,0.026,000,0.026
2014-11-17,0.026,0.026,0.026,0.026,000,0.026
2014-11-14,0.026,0.026,0.026,0.026,000,0.026
2014-11-13,0.026,0.026,0.026,0.026,000,0.026
2014-11-12,0.026,0.026,0.026,0.026,000,0.026
2014-11-11,0.026,0.026,0.026,0.026,000,0.026
2014-11-10,0.026,0.026,0.026,0.026,000,0.026
2014-11-07,0.026,0.026,0.026,0.026,000,0.026
2014-11-06,0.026,0.026,0.026,0.026,000,0.026
2014-11-05,0.026,0.026,0.026,0.026,000,0.026
2014-11-04,0.026,0.026,0.026,0.026,000,0.026
2014-11-03,0.026,0.026,0.026,0.026,000,0.026
2014-10-31,0.026,0.026,0.026,0.026,000,0.026
2014-10-30,0.026,0.026,0.026,0.026,000,0.026
2014-10-29,0.026,0.026,0.026,0.026,000,0.026
2014-10-28,0.026,0.026,0.026,0.026,000,0.026
2014-10-27,0.026,0.026,0.026,0.026,000,0.026
2014-10-24,0.026,0.026,0.026,0.026,000,0.026
2014-10-23,0.026,0.026,0.026,0.026,000,0.026
2014-10-22,0.026,0.026,0.026,0.026,000,0.026
2014-10-21,0.026,0.026,0.026,0.026,000,0.026
2014-10-20,0.026,0.026,0.026,0.026,000,0.026
2014-10-17,0.026,0.026,0.026,0.026,000,0.026
2014-10-16,0.026,0.026,0.026,0.026,000,0.026
2014-10-15,0.026,0.026,0.026,0.026,000,0.026
2014-10-14,0.026,0.026,0.026,0.026,000,0.026
2014-10-13,0.026,0.026,0.026,0.026,000,0.026
2014-10-10,0.026,0.026,0.026,0.026,000,0.026
2014-10-09,0.026,0.026,0.026,0.026,000,0.026
2014-10-08,0.026,0.026,0.026,0.026,000,0.026
2014-10-07,0.026,0.026,0.026,0.026,000,0.026
2014-10-06,0.026,0.026,0.026,0.026,000,0.026
2014-10-03,0.026,0.026,0.026,0.026,000,0.026
2014-10-02,0.026,0.026,0.026,0.026,000,0.026
2014-10-01,0.026,0.026,0.026,0.026,000,0.026
2014-09-30,0.026,0.026,0.026,0.026,000,0.026
2014-09-29,0.026,0.026,0.026,0.026,000,0.026
2014-09-26,0.026,0.026,0.026,0.026,000,0.026
2014-09-25,0.026,0.026,0.026,0.026,000,0.026
2014-09-24,0.026,0.026,0.026,0.026,10000,0.026
2014-09-23,0.024,0.024,0.024,0.024,000,0.024
2014-09-22,0.024,0.024,0.024,0.024,000,0.024
2014-09-19,0.024,0.024,0.024,0.024,000,0.024
2014-09-18,0.024,0.024,0.024,0.024,000,0.024
2014-09-17,0.024,0.024,0.024,0.024,000,0.024
2014-09-16,0.024,0.024,0.024,0.024,000,0.024
2014-09-15,0.024,0.024,0.024,0.024,000,0.024
2014-09-12,0.024,0.024,0.024,0.024,000,0.024
2014-09-11,0.024,0.024,0.024,0.024,000,0.024
2014-09-10,0.024,0.024,0.024,0.024,000,0.024
2014-09-09,0.024,0.024,0.024,0.024,000,0.024
2014-09-08,0.024,0.024,0.024,0.024,000,0.024
2014-09-05,0.024,0.024,0.024,0.024,000,0.024
2014-09-04,0.024,0.024,0.024,0.024,000,0.024
2014-09-03,0.024,0.024,0.024,0.024,000,0.024
2014-09-02,0.024,0.024,0.024,0.024,000,0.024
2014-09-01,0.024,0.024,0.024,0.024,000,0.024
2014-08-29,0.024,0.024,0.024,0.024,000,0.024
2014-08-28,0.024,0.024,0.024,0.024,000,0.024
2014-08-27,0.024,0.024,0.024,0.024,000,0.024
2014-08-26,0.024,0.024,0.024,0.024,000,0.024
2014-08-25,0.024,0.024,0.024,0.024,000,0.024
2014-08-22,0.024,0.024,0.024,0.024,000,0.024
2014-08-21,0.024,0.024,0.024,0.024,000,0.024
2014-08-20,0.024,0.024,0.024,0.024,000,0.024
2014-08-19,0.024,0.024,0.024,0.024,000,0.024
2014-08-18,0.024,0.024,0.024,0.024,000,0.024
2014-08-15,0.024,0.024,0.024,0.024,000,0.024
2014-08-14,0.024,0.024,0.024,0.024,000,0.024
2014-08-13,0.024,0.024,0.024,0.024,000,0.024
2014-08-12,0.024,0.024,0.024,0.024,000,0.024
2014-08-11,0.024,0.024,0.024,0.024,000,0.024
2014-08-08,0.024,0.024,0.024,0.024,000,0.024
2014-08-07,0.024,0.024,0.024,0.024,000,0.024
2014-08-06,0.024,0.024,0.024,0.024,000,0.024
2014-08-05,0.024,0.024,0.024,0.024,000,0.024
2014-08-04,0.024,0.024,0.024,0.024,000,0.024
2014-08-01,0.024,0.024,0.024,0.024,000,0.024
2014-07-31,0.024,0.024,0.024,0.024,000,0.024
2014-07-30,0.024,0.024,0.024,0.024,000,0.024
2014-07-29,0.024,0.024,0.024,0.024,000,0.024
2014-07-28,0.024,0.024,0.024,0.024,000,0.024
2014-07-25,0.024,0.024,0.024,0.024,000,0.024
2014-07-24,0.024,0.024,0.024,0.024,000,0.024
2014-07-23,0.024,0.024,0.024,0.024,000,0.024
2014-07-22,0.024,0.024,0.024,0.024,000,0.024
2014-07-21,0.024,0.024,0.024,0.024,000,0.024
2014-07-18,0.024,0.024,0.024,0.024,25000,0.024
2014-07-17,0.023,0.023,0.023,0.023,000,0.023
2014-07-16,0.023,0.023,0.023,0.023,000,0.023
2014-07-15,0.023,0.023,0.023,0.023,000,0.023
2014-07-14,0.023,0.023,0.023,0.023,000,0.023
2014-07-11,0.023,0.023,0.023,0.023,000,0.023
2014-07-10,0.023,0.023,0.023,0.023,000,0.023
2014-07-09,0.023,0.023,0.023,0.023,000,0.023
2014-07-08,0.023,0.023,0.023,0.023,000,0.023
2014-07-07,0.023,0.023,0.023,0.023,000,0.023
2014-07-04,0.023,0.023,0.023,0.023,000,0.023
2014-07-03,0.023,0.023,0.023,0.023,000,0.023
2014-07-02,0.023,0.023,0.023,0.023,000,0.023
2014-07-01,0.023,0.023,0.023,0.023,50000,0.023
2014-06-30,0.026,0.026,0.023,0.023,50000,0.023
2014-06-27,0.026,0.026,0.026,0.026,000,0.026
2014-06-26,0.026,0.026,0.026,0.026,28600,0.026
2014-06-25,0.024,0.024,0.024,0.024,000,0.024
2014-06-24,0.024,0.024,0.024,0.024,000,0.024
2014-06-23,0.024,0.024,0.024,0.024,000,0.024
2014-06-20,0.024,0.024,0.024,0.024,000,0.024
2014-06-19,0.024,0.024,0.024,0.024,000,0.024
2014-06-18,0.024,0.024,0.024,0.024,000,0.024
2014-06-17,0.024,0.024,0.024,0.024,000,0.024
2014-06-16,0.024,0.024,0.024,0.024,000,0.024
2014-06-13,0.024,0.024,0.024,0.024,000,0.024
2014-06-12,0.024,0.024,0.024,0.024,000,0.024
2014-06-11,0.024,0.024,0.024,0.024,000,0.024
2014-06-10,0.024,0.024,0.024,0.024,50000,0.024
2014-06-09,0.023,0.023,0.023,0.023,000,0.023
2014-06-06,0.023,0.023,0.023,0.023,000,0.023
2014-06-05,0.023,0.023,0.023,0.023,000,0.023
2014-06-04,0.023,0.023,0.023,0.023,000,0.023
2014-06-03,0.023,0.023,0.023,0.023,000,0.023
2014-06-02,0.023,0.023,0.023,0.023,000,0.023
2014-05-30,0.023,0.023,0.023,0.023,000,0.023
2014-05-29,0.023,0.023,0.023,0.023,000,0.023
2014-05-28,0.023,0.023,0.023,0.023,10000,0.023
2014-05-27,0.02,0.02,0.02,0.02,000,0.02
2014-05-26,0.02,0.02,0.02,0.02,000,0.02
2014-05-23,0.02,0.02,0.02,0.02,000,0.02
2014-05-22,0.02,0.02,0.02,0.02,000,0.02
2014-05-21,0.02,0.02,0.02,0.02,000,0.02
2014-05-20,0.02,0.02,0.02,0.02,000,0.02
2014-05-19,0.02,0.02,0.02,0.02,000,0.02
2014-05-16,0.02,0.02,0.02,0.02,000,0.02
2014-05-15,0.02,0.02,0.02,0.02,000,0.02
2014-05-14,0.02,0.02,0.02,0.02,000,0.02
2014-05-13,0.02,0.02,0.02,0.02,000,0.02
2014-05-12,0.02,0.02,0.02,0.02,000,0.02
2014-05-09,0.02,0.02,0.02,0.02,000,0.02
2014-05-08,0.022,0.022,0.02,0.02,175000,0.02
2014-05-07,0.02,0.02,0.02,0.02,000,0.02
2014-05-06,0.02,0.02,0.02,0.02,000,0.02
2014-05-05,0.02,0.02,0.02,0.02,000,0.02
2014-05-02,0.02,0.02,0.02,0.02,000,0.02
2014-05-01,0.02,0.02,0.02,0.02,000,0.02
2014-04-30,0.02,0.02,0.02,0.02,000,0.02
2014-04-29,0.02,0.02,0.02,0.02,000,0.02
2014-04-28,0.02,0.02,0.02,0.02,000,0.02
2014-04-25,0.02,0.02,0.02,0.02,000,0.02
2014-04-24,0.02,0.02,0.02,0.02,000,0.02
2014-04-23,0.02,0.02,0.02,0.02,000,0.02
2014-04-22,0.02,0.02,0.02,0.02,000,0.02
2014-04-21,0.02,0.02,0.02,0.02,000,0.02
2014-04-18,0.02,0.02,0.02,0.02,000,0.02
2014-04-17,0.02,0.02,0.02,0.02,000,0.02
2014-04-16,0.02,0.02,0.02,0.02,000,0.02
2014-04-15,0.02,0.02,0.02,0.02,000,0.02
2014-04-14,0.02,0.02,0.02,0.02,000,0.02
2014-04-11,0.02,0.02,0.02,0.02,000,0.02
2014-04-10,0.02,0.02,0.02,0.02,000,0.02
2014-04-09,0.02,0.02,0.02,0.02,60000,0.02
2014-04-08,0.025,0.025,0.025,0.025,000,0.025
2014-04-07,0.025,0.025,0.025,0.025,000,0.025
2014-04-04,0.025,0.025,0.025,0.025,000,0.025
2014-04-03,0.025,0.025,0.025,0.025,000,0.025
2014-04-02,0.025,0.025,0.025,0.025,000,0.025
2014-04-01,0.025,0.025,0.025,0.025,000,0.025
2014-03-31,0.025,0.025,0.025,0.025,000,0.025
2014-03-28,0.025,0.025,0.025,0.025,000,0.025
2014-03-27,0.025,0.025,0.025,0.025,000,0.025
2014-03-26,0.026,0.026,0.025,0.025,100000,0.025
2014-03-25,0.028,0.028,0.028,0.028,000,0.028
2014-03-24,0.028,0.028,0.028,0.028,000,0.028
2014-03-21,0.028,0.028,0.028,0.028,15000,0.028
2014-03-20,0.028,0.028,0.028,0.028,000,0.028
2014-03-19,0.028,0.028,0.028,0.028,000,0.028
2014-03-18,0.028,0.028,0.028,0.028,000,0.028
2014-03-17,0.028,0.028,0.028,0.028,000,0.028
2014-03-14,0.028,0.028,0.028,0.028,000,0.028
2014-03-13,0.028,0.028,0.028,0.028,000,0.028
2014-03-12,0.028,0.028,0.028,0.028,000,0.028
2014-03-11,0.028,0.028,0.028,0.028,000,0.028
2014-03-10,0.028,0.028,0.028,0.028,000,0.028
2014-03-07,0.028,0.028,0.028,0.028,000,0.028
2014-03-06,0.028,0.028,0.028,0.028,000,0.028
2014-03-05,0.028,0.028,0.028,0.028,000,0.028
2014-03-04,0.028,0.028,0.028,0.028,000,0.028
2014-03-03,0.028,0.028,0.028,0.028,000,0.028
2014-02-28,0.028,0.028,0.028,0.028,000,0.028
2014-02-27,0.028,0.028,0.028,0.028,000,0.028
2014-02-26,0.028,0.028,0.028,0.028,000,0.028
2014-02-25,0.028,0.028,0.028,0.028,000,0.028
2014-02-24,0.028,0.028,0.028,0.028,000,0.028
2014-02-21,0.028,0.028,0.028,0.028,5000,0.028
2014-02-20,0.023,0.023,0.023,0.023,000,0.023
2014-02-19,0.023,0.023,0.023,0.023,000,0.023
2014-02-18,0.023,0.023,0.023,0.023,000,0.023
2014-02-17,0.023,0.023,0.023,0.023,000,0.023
2014-02-14,0.023,0.023,0.023,0.023,000,0.023
2014-02-13,0.023,0.023,0.023,0.023,000,0.023
2014-02-12,0.023,0.023,0.023,0.023,000,0.023
2014-02-11,0.023,0.023,0.023,0.023,000,0.023
2014-02-10,0.023,0.023,0.023,0.023,000,0.023
2014-02-07,0.023,0.023,0.023,0.023,000,0.023
2014-02-06,0.023,0.023,0.023,0.023,000,0.023
2014-02-05,0.023,0.023,0.023,0.023,000,0.023
2014-02-04,0.023,0.023,0.023,0.023,000,0.023
2014-02-03,0.023,0.023,0.023,0.023,000,0.023
2014-01-31,0.023,0.023,0.023,0.023,000,0.023
2014-01-30,0.023,0.023,0.023,0.023,000,0.023
2014-01-29,0.023,0.023,0.023,0.023,000,0.023
2014-01-28,0.023,0.023,0.023,0.023,000,0.023
2014-01-27,0.023,0.023,0.023,0.023,000,0.023
2014-01-24,0.023,0.023,0.023,0.023,000,0.023
2014-01-23,0.023,0.023,0.023,0.023,000,0.023
2014-01-22,0.023,0.023,0.023,0.023,000,0.023
2014-01-21,0.023,0.023,0.023,0.023,000,0.023
2014-01-20,0.023,0.023,0.023,0.023,000,0.023
2014-01-17,0.023,0.023,0.023,0.023,000,0.023
2014-01-16,0.023,0.023,0.023,0.023,000,0.023
2014-01-15,0.023,0.023,0.023,0.023,000,0.023
2014-01-14,0.023,0.023,0.023,0.023,000,0.023
2014-01-13,0.023,0.023,0.023,0.023,000,0.023
2014-01-10,0.023,0.023,0.023,0.023,000,0.023
2014-01-09,0.023,0.023,0.023,0.023,000,0.023
2014-01-08,0.025,0.025,0.023,0.023,100000,0.023
2014-01-07,0.023,0.023,0.023,0.023,000,0.023
2014-01-06,0.023,0.023,0.023,0.023,000,0.023
2014-01-03,0.023,0.023,0.023,0.023,000,0.023
2014-01-02,0.023,0.023,0.023,0.023,000,0.023
2014-01-01,0.023,0.023,0.023,0.023,000,0.023
2013-12-31,0.023,0.023,0.023,0.023,000,0.023
2013-12-30,0.023,0.023,0.023,0.023,000,0.023
2013-12-27,0.023,0.023,0.023,0.023,000,0.023
2013-12-26,0.023,0.023,0.023,0.023,000,0.023
2013-12-25,0.023,0.023,0.023,0.023,000,0.023
2013-12-24,0.023,0.023,0.023,0.023,000,0.023
2013-12-23,0.023,0.023,0.023,0.023,308300,0.023
2013-12-20,0.025,0.025,0.025,0.025,000,0.025
2013-12-19,0.025,0.025,0.025,0.025,000,0.025
2013-12-18,0.025,0.025,0.025,0.025,000,0.025
2013-12-17,0.025,0.025,0.025,0.025,000,0.025
2013-12-16,0.025,0.025,0.025,0.025,000,0.025
2013-12-13,0.025,0.025,0.025,0.025,10000,0.025
2013-12-12,0.03,0.03,0.03,0.03,000,0.03
2013-12-11,0.03,0.03,0.03,0.03,000,0.03
2013-12-10,0.03,0.03,0.03,0.03,000,0.03
2013-12-09,0.03,0.03,0.03,0.03,000,0.03
2013-12-06,0.03,0.03,0.03,0.03,000,0.03
2013-12-05,0.03,0.03,0.03,0.03,000,0.03
2013-12-04,0.03,0.03,0.03,0.03,000,0.03
2013-12-03,0.03,0.03,0.03,0.03,000,0.03
2013-12-02,0.03,0.03,0.03,0.03,000,0.03
2013-11-29,0.03,0.03,0.03,0.03,000,0.03
2013-11-28,0.03,0.03,0.03,0.03,000,0.03
2013-11-27,0.03,0.03,0.03,0.03,000,0.03
2013-11-26,0.03,0.03,0.03,0.03,000,0.03
2013-11-25,0.03,0.03,0.03,0.03,000,0.03
2013-11-22,0.03,0.03,0.03,0.03,000,0.03
2013-11-21,0.03,0.03,0.03,0.03,000,0.03
2013-11-20,0.03,0.03,0.03,0.03,000,0.03
2013-11-19,0.03,0.03,0.03,0.03,000,0.03
2013-11-18,0.03,0.03,0.03,0.03,000,0.03
2013-11-15,0.03,0.03,0.03,0.03,000,0.03
2013-11-14,0.03,0.03,0.03,0.03,000,0.03
2013-11-13,0.03,0.03,0.03,0.03,125000,0.03
2013-11-12,0.03,0.03,0.03,0.03,50000,0.03
2013-11-11,0.03,0.03,0.03,0.03,000,0.03
2013-11-08,0.03,0.03,0.03,0.03,000,0.03
2013-11-07,0.03,0.03,0.03,0.03,000,0.03
2013-11-06,0.03,0.03,0.03,0.03,000,0.03
2013-11-05,0.03,0.03,0.03,0.03,000,0.03
2013-11-04,0.03,0.03,0.03,0.03,000,0.03
2013-11-01,0.03,0.03,0.03,0.03,000,0.03
2013-10-31,0.03,0.03,0.03,0.03,000,0.03
2013-10-30,0.03,0.03,0.03,0.03,000,0.03
2013-10-29,0.03,0.03,0.03,0.03,000,0.03
2013-10-28,0.03,0.03,0.03,0.03,000,0.03
2013-10-25,0.03,0.03,0.03,0.03,000,0.03
2013-10-24,0.03,0.03,0.03,0.03,000,0.03
2013-10-23,0.03,0.03,0.03,0.03,000,0.03
2013-10-22,0.03,0.03,0.03,0.03,000,0.03
2013-10-21,0.03,0.03,0.03,0.03,000,0.03
2013-10-18,0.03,0.03,0.03,0.03,000,0.03
2013-10-17,0.03,0.03,0.03,0.03,000,0.03
2013-10-16,0.03,0.03,0.03,0.03,000,0.03
2013-10-15,0.03,0.03,0.03,0.03,000,0.03
2013-10-14,0.03,0.03,0.03,0.03,90000,0.03
2013-10-11,0.032,0.032,0.032,0.032,000,0.032
2013-10-10,0.032,0.032,0.032,0.032,000,0.032
2013-10-09,0.032,0.032,0.032,0.032,000,0.032
2013-10-08,0.032,0.032,0.032,0.032,000,0.032
2013-10-07,0.032,0.032,0.032,0.032,000,0.032
2013-10-04,0.032,0.032,0.032,0.032,000,0.032
2013-10-03,0.032,0.032,0.032,0.032,000,0.032
2013-10-02,0.032,0.032,0.032,0.032,000,0.032
2013-10-01,0.032,0.032,0.032,0.032,000,0.032
2013-09-30,0.032,0.032,0.032,0.032,000,0.032
2013-09-27,0.032,0.032,0.032,0.032,000,0.032
2013-09-26,0.032,0.032,0.032,0.032,000,0.032
2013-09-25,0.032,0.032,0.032,0.032,000,0.032
2013-09-24,0.032,0.032,0.032,0.032,000,0.032
2013-09-23,0.032,0.032,0.032,0.032,000,0.032
2013-09-20,0.032,0.032,0.032,0.032,000,0.032
2013-09-19,0.032,0.032,0.032,0.032,000,0.032
2013-09-18,0.032,0.032,0.032,0.032,000,0.032
2013-09-17,0.032,0.032,0.032,0.032,000,0.032
2013-09-16,0.032,0.032,0.032,0.032,000,0.032
2013-09-13,0.032,0.032,0.032,0.032,000,0.032
2013-09-12,0.032,0.032,0.032,0.032,000,0.032
2013-09-11,0.032,0.032,0.032,0.032,000,0.032
2013-09-10,0.032,0.032,0.032,0.032,29000,0.032
2013-09-09,0.032,0.032,0.032,0.032,000,0.032
2013-09-06,0.032,0.032,0.032,0.032,000,0.032
2013-09-05,0.032,0.032,0.032,0.032,000,0.032
2013-09-04,0.032,0.032,0.032,0.032,000,0.032
2013-09-03,0.032,0.032,0.032,0.032,000,0.032
2013-09-02,0.032,0.032,0.032,0.032,000,0.032
2013-08-30,0.032,0.032,0.032,0.032,000,0.032
2013-08-29,0.032,0.032,0.032,0.032,000,0.032
2013-08-28,0.032,0.032,0.032,0.032,000,0.032
2013-08-27,0.032,0.032,0.032,0.032,000,0.032
2013-08-26,0.032,0.032,0.032,0.032,000,0.032
2013-08-23,0.032,0.032,0.032,0.032,000,0.032
2013-08-22,0.032,0.032,0.032,0.032,000,0.032
2013-08-21,0.032,0.032,0.032,0.032,000,0.032
2013-08-20,0.032,0.032,0.032,0.032,000,0.032
2013-08-19,0.032,0.032,0.032,0.032,000,0.032
2013-08-16,0.032,0.032,0.032,0.032,000,0.032
2013-08-15,0.032,0.032,0.032,0.032,000,0.032
2013-08-14,0.032,0.032,0.032,0.032,000,0.032
2013-08-13,0.032,0.032,0.032,0.032,000,0.032
2013-08-12,0.032,0.032,0.032,0.032,50000,0.032
2013-08-09,0.025,0.025,0.025,0.025,000,0.025
2013-08-08,0.025,0.025,0.025,0.025,000,0.025
2013-08-07,0.025,0.025,0.025,0.025,000,0.025
2013-08-06,0.025,0.025,0.025,0.025,000,0.025
2013-08-05,0.025,0.025,0.025,0.025,10000,0.025
2013-08-02,0.038,0.038,0.038,0.038,000,0.038
2013-08-01,0.038,0.038,0.038,0.038,000,0.038
2013-07-31,0.038,0.038,0.038,0.038,000,0.038
2013-07-30,0.038,0.038,0.038,0.038,000,0.038
2013-07-29,0.038,0.038,0.038,0.038,000,0.038
2013-07-26,0.038,0.038,0.038,0.038,000,0.038
2013-07-25,0.038,0.038,0.038,0.038,000,0.038
2013-07-24,0.038,0.038,0.038,0.038,000,0.038
2013-07-23,0.038,0.038,0.038,0.038,000,0.038
2013-07-22,0.038,0.038,0.038,0.038,000,0.038
2013-07-19,0.038,0.038,0.038,0.038,000,0.038
2013-07-18,0.038,0.038,0.038,0.038,000,0.038
2013-07-17,0.038,0.038,0.038,0.038,000,0.038
2013-07-16,0.038,0.038,0.038,0.038,000,0.038
2013-07-15,0.038,0.038,0.038,0.038,000,0.038
2013-07-12,0.038,0.038,0.038,0.038,000,0.038
2013-07-11,0.038,0.038,0.038,0.038,000,0.038
2013-07-10,0.038,0.038,0.038,0.038,000,0.038
2013-07-09,0.038,0.038,0.038,0.038,000,0.038
2013-07-08,0.038,0.038,0.038,0.038,000,0.038
2013-07-05,0.038,0.038,0.038,0.038,000,0.038
2013-07-04,0.038,0.038,0.038,0.038,000,0.038
2013-07-03,0.038,0.038,0.038,0.038,000,0.038
2013-07-02,0.038,0.038,0.038,0.038,000,0.038
2013-07-01,0.038,0.038,0.038,0.038,000,0.038
2013-06-28,0.038,0.038,0.038,0.038,000,0.038
2013-06-27,0.038,0.038,0.038,0.038,000,0.038
2013-06-26,0.038,0.038,0.038,0.038,000,0.038
2013-06-25,0.038,0.038,0.038,0.038,000,0.038
2013-06-24,0.038,0.038,0.038,0.038,000,0.038
2013-06-21,0.038,0.038,0.038,0.038,000,0.038
2013-06-20,0.038,0.038,0.038,0.038,10000,0.038
2013-06-19,0.038,0.038,0.038,0.038,000,0.038
2013-06-18,0.038,0.038,0.038,0.038,000,0.038
2013-06-17,0.038,0.038,0.038,0.038,000,0.038
2013-06-14,0.038,0.038,0.038,0.038,24500,0.038
2013-06-13,0.039,0.039,0.039,0.039,000,0.039
2013-06-12,0.039,0.039,0.039,0.039,16700,0.039
2013-06-11,0.039,0.039,0.039,0.039,000,0.039
2013-06-10,0.039,0.039,0.039,0.039,000,0.039
2013-06-07,0.039,0.039,0.039,0.039,000,0.039
2013-06-06,0.039,0.039,0.039,0.039,000,0.039
2013-06-05,0.039,0.039,0.039,0.039,000,0.039
2013-06-04,0.039,0.039,0.039,0.039,000,0.039
2013-06-03,0.039,0.039,0.039,0.039,000,0.039
2013-05-31,0.039,0.039,0.039,0.039,000,0.039
2013-05-30,0.039,0.039,0.039,0.039,000,0.039
2013-05-29,0.039,0.039,0.039,0.039,000,0.039
2013-05-28,0.039,0.039,0.039,0.039,000,0.039
2013-05-27,0.039,0.039,0.039,0.039,21200,0.039
2013-05-24,0.039,0.039,0.039,0.039,28700,0.039
2013-05-23,0.04,0.04,0.04,0.04,000,0.04
2013-05-22,0.04,0.04,0.04,0.04,000,0.04
2013-05-21,0.04,0.04,0.04,0.04,50000,0.04
2013-05-20,0.04,0.04,0.04,0.04,000,0.04
2013-05-17,0.04,0.04,0.04,0.04,000,0.04
2013-05-16,0.04,0.04,0.04,0.04,10000,0.04
2013-05-15,0.04,0.04,0.04,0.04,000,0.04
2013-05-14,0.04,0.04,0.04,0.04,000,0.04
2013-05-13,0.04,0.04,0.04,0.04,000,0.04
2013-05-10,0.04,0.04,0.04,0.04,000,0.04
2013-05-09,0.04,0.04,0.04,0.04,000,0.04
2013-05-08,0.04,0.04,0.04,0.04,000,0.04
2013-05-07,0.04,0.04,0.04,0.04,000,0.04
2013-05-06,0.04,0.04,0.04,0.04,000,0.04
2013-05-03,0.04,0.04,0.04,0.04,000,0.04
2013-05-02,0.04,0.04,0.04,0.04,000,0.04
2013-05-01,0.04,0.04,0.04,0.04,000,0.04
2013-04-30,0.04,0.04,0.04,0.04,000,0.04
2013-04-29,0.04,0.04,0.04,0.04,000,0.04
2013-04-26,0.04,0.04,0.04,0.04,000,0.04
2013-04-25,0.04,0.04,0.04,0.04,000,0.04
2013-04-24,0.04,0.04,0.04,0.04,000,0.04
2013-04-23,0.04,0.04,0.04,0.04,000,0.04
2013-04-22,0.04,0.04,0.04,0.04,000,0.04
2013-04-19,0.04,0.04,0.04,0.04,000,0.04
2013-04-18,0.04,0.04,0.04,0.04,000,0.04
2013-04-17,0.04,0.04,0.04,0.04,000,0.04
2013-04-16,0.04,0.04,0.04,0.04,000,0.04
2013-04-15,0.04,0.04,0.04,0.04,000,0.04
2013-04-12,0.04,0.04,0.04,0.04,000,0.04
2013-04-11,0.04,0.04,0.04,0.04,000,0.04
2013-04-10,0.04,0.04,0.04,0.04,000,0.04
2013-04-09,0.04,0.04,0.04,0.04,000,0.04
2013-04-08,0.04,0.04,0.04,0.04,000,0.04
2013-04-05,0.04,0.04,0.04,0.04,120000,0.04
2013-04-04,0.042,0.042,0.042,0.042,000,0.042
2013-04-03,0.043,0.043,0.042,0.042,100000,0.042
2013-04-02,0.042,0.042,0.042,0.042,10000,0.042
2013-04-01,0.046,0.046,0.046,0.046,000,0.046
2013-03-29,0.046,0.046,0.046,0.046,000,0.046
2013-03-28,0.046,0.046,0.046,0.046,000,0.046
2013-03-27,0.046,0.046,0.046,0.046,000,0.046
2013-03-26,0.046,0.046,0.046,0.046,000,0.046
2013-03-25,0.046,0.046,0.046,0.046,000,0.046
2013-03-22,0.046,0.046,0.046,0.046,000,0.046
2013-03-21,0.046,0.046,0.046,0.046,000,0.046
2013-03-20,0.046,0.046,0.046,0.046,000,0.046
2013-03-19,0.046,0.046,0.046,0.046,000,0.046
2013-03-18,0.046,0.046,0.046,0.046,000,0.046
2013-03-15,0.046,0.046,0.046,0.046,000,0.046
2013-03-14,0.046,0.046,0.046,0.046,000,0.046
2013-03-13,0.046,0.046,0.046,0.046,000,0.046
2013-03-12,0.046,0.046,0.046,0.046,000,0.046
2013-03-11,0.046,0.046,0.046,0.046,000,0.046
2013-03-08,0.046,0.046,0.046,0.046,000,0.046
2013-03-07,0.046,0.046,0.046,0.046,000,0.046
2013-03-06,0.046,0.046,0.046,0.046,000,0.046
2013-03-05,0.046,0.046,0.046,0.046,000,0.046
2013-03-04,0.046,0.046,0.046,0.046,000,0.046
2013-03-01,0.046,0.046,0.046,0.046,000,0.046
2013-02-28,0.046,0.046,0.046,0.046,000,0.046
2013-02-27,0.046,0.046,0.046,0.046,000,0.046
2013-02-26,0.046,0.046,0.046,0.046,000,0.046
2013-02-25,0.046,0.046,0.046,0.046,000,0.046
2013-02-22,0.046,0.046,0.046,0.046,000,0.046
2013-02-21,0.046,0.046,0.046,0.046,000,0.046
2013-02-20,0.046,0.046,0.046,0.046,000,0.046
2013-02-19,0.046,0.046,0.046,0.046,000,0.046
2013-02-18,0.046,0.046,0.046,0.046,000,0.046
2013-02-15,0.046,0.046,0.046,0.046,000,0.046
2013-02-14,0.046,0.046,0.046,0.046,000,0.046
2013-02-13,0.046,0.046,0.046,0.046,000,0.046
2013-02-12,0.046,0.046,0.046,0.046,000,0.046
2013-02-11,0.046,0.046,0.046,0.046,000,0.046
2013-02-08,0.046,0.046,0.046,0.046,000,0.046
2013-02-07,0.046,0.046,0.046,0.046,000,0.046
2013-02-06,0.046,0.046,0.046,0.046,000,0.046
2013-02-05,0.046,0.046,0.046,0.046,000,0.046
2013-02-04,0.046,0.046,0.046,0.046,000,0.046
2013-02-01,0.046,0.046,0.046,0.046,10000,0.046
2013-01-31,0.04,0.04,0.04,0.04,000,0.04
2013-01-30,0.04,0.04,0.04,0.04,000,0.04
2013-01-29,0.04,0.04,0.04,0.04,000,0.04
2013-01-28,0.04,0.04,0.04,0.04,000,0.04
2013-01-25,0.04,0.04,0.04,0.04,000,0.04
2013-01-24,0.04,0.04,0.04,0.04,000,0.04
2013-01-22,0.04,0.04,0.04,0.04,000,0.04
2013-01-21,0.04,0.04,0.04,0.04,000,0.04
2013-01-18,0.04,0.04,0.04,0.04,000,0.04
2013-01-17,0.04,0.04,0.04,0.04,10000,0.04
2013-01-16,0.045,0.045,0.045,0.045,000,0.045
2013-01-15,0.045,0.045,0.045,0.045,000,0.045
2013-01-14,0.045,0.045,0.045,0.045,000,0.045
2013-01-11,0.045,0.045,0.045,0.045,000,0.045
2013-01-10,0.045,0.045,0.045,0.045,000,0.045
2013-01-09,0.045,0.045,0.045,0.045,000,0.045
2013-01-08,0.045,0.045,0.045,0.045,000,0.045
2013-01-07,0.045,0.045,0.045,0.045,000,0.045
2013-01-04,0.045,0.045,0.045,0.045,000,0.045
2013-01-03,0.045,0.045,0.045,0.045,000,0.045
2013-01-02,0.045,0.045,0.045,0.045,000,0.045
2013-01-01,0.045,0.045,0.045,0.045,000,0.045
2012-12-31,0.045,0.045,0.045,0.045,000,0.045
2012-12-28,0.045,0.045,0.045,0.045,000,0.045
2012-12-27,0.045,0.045,0.045,0.045,000,0.045
2012-12-26,0.045,0.045,0.045,0.045,000,0.045
2012-12-25,0.045,0.045,0.045,0.045,000,0.045
2012-12-24,0.045,0.045,0.045,0.045,000,0.045
2012-12-21,0.045,0.045,0.045,0.045,000,0.045
2012-12-20,0.045,0.045,0.045,0.045,000,0.045
2012-12-19,0.045,0.045,0.045,0.045,000,0.045
2012-12-18,0.045,0.045,0.045,0.045,000,0.045
2012-12-17,0.045,0.045,0.045,0.045,000,0.045
2012-12-14,0.045,0.045,0.045,0.045,000,0.045
2012-12-13,0.045,0.045,0.045,0.045,000,0.045
2012-12-12,0.045,0.045,0.045,0.045,000,0.045
2012-12-11,0.045,0.045,0.045,0.045,200000,0.045
2012-12-10,0.05,0.05,0.05,0.05,000,0.05
2012-12-07,0.05,0.05,0.05,0.05,000,0.05
2012-12-06,0.05,0.05,0.05,0.05,000,0.05
2012-12-05,0.05,0.05,0.05,0.05,000,0.05
2012-12-04,0.05,0.05,0.05,0.05,000,0.05
2012-12-03,0.05,0.05,0.05,0.05,000,0.05
2012-11-30,0.05,0.05,0.05,0.05,000,0.05
2012-11-29,0.05,0.05,0.05,0.05,000,0.05
2012-11-28,0.05,0.05,0.05,0.05,000,0.05
2012-11-27,0.05,0.05,0.05,0.05,000,0.05
2012-11-26,0.05,0.05,0.05,0.05,000,0.05
2012-11-23,0.05,0.05,0.05,0.05,000,0.05
2012-11-22,0.05,0.05,0.05,0.05,000,0.05
2012-11-21,0.05,0.05,0.05,0.05,000,0.05
2012-11-20,0.05,0.05,0.05,0.05,000,0.05
2012-11-19,0.05,0.05,0.05,0.05,000,0.05
2012-11-16,0.05,0.05,0.05,0.05,100000,0.05
2012-11-15,0.05,0.05,0.05,0.05,39900,0.05
2012-11-14,0.05,0.05,0.05,0.05,149000,0.05
2012-11-13,0.055,0.055,0.05,0.05,120000,0.05
2012-11-12,0.055,0.055,0.055,0.055,000,0.055
2012-11-09,0.055,0.055,0.055,0.055,000,0.055
2012-11-08,0.055,0.055,0.055,0.055,000,0.055
2012-11-07,0.055,0.055,0.055,0.055,10000,0.055
2012-11-06,0.065,0.065,0.065,0.065,000,0.065
2012-11-05,0.065,0.065,0.065,0.065,000,0.065
2012-11-02,0.065,0.065,0.065,0.065,000,0.065
2012-11-01,0.065,0.065,0.065,0.065,000,0.065
2012-10-31,0.065,0.065,0.065,0.065,000,0.065
2012-10-30,0.065,0.065,0.065,0.065,000,0.065
2012-10-29,0.065,0.065,0.065,0.065,000,0.065
2012-10-26,0.065,0.065,0.065,0.065,000,0.065
2012-10-25,0.065,0.065,0.065,0.065,000,0.065
2012-10-24,0.065,0.065,0.065,0.065,000,0.065
2012-10-23,0.065,0.065,0.065,0.065,67500,0.065
2012-10-22,0.069,0.069,0.069,0.069,000,0.069
2012-10-19,0.069,0.069,0.069,0.069,000,0.069
2012-10-18,0.069,0.069,0.069,0.069,000,0.069
2012-10-17,0.069,0.069,0.069,0.069,000,0.069
2012-10-16,0.069,0.069,0.069,0.069,000,0.069
2012-10-15,0.069,0.069,0.069,0.069,000,0.069
2012-10-12,0.069,0.069,0.069,0.069,000,0.069
2012-10-11,0.069,0.069,0.069,0.069,000,0.069
2012-10-10,0.069,0.069,0.069,0.069,000,0.069
2012-10-09,0.069,0.069,0.069,0.069,000,0.069
2012-10-08,0.069,0.069,0.069,0.069,000,0.069
2012-10-05,0.069,0.069,0.069,0.069,000,0.069
2012-10-04,0.069,0.069,0.069,0.069,000,0.069
2012-10-03,0.069,0.069,0.069,0.069,100000,0.069
2012-10-02,0.065,0.065,0.065,0.065,000,0.065
2012-10-01,0.065,0.065,0.065,0.065,000,0.065
2012-09-28,0.065,0.065,0.065,0.065,000,0.065
2012-09-27,0.065,0.065,0.065,0.065,000,0.065
2012-09-26,0.065,0.065,0.065,0.065,000,0.065
2012-09-25,0.065,0.065,0.065,0.065,000,0.065
2012-09-24,0.065,0.065,0.065,0.065,000,0.065
2012-09-21,0.065,0.065,0.065,0.065,000,0.065
2012-09-20,0.065,0.065,0.065,0.065,000,0.065
2012-09-19,0.065,0.065,0.065,0.065,000,0.065
2012-09-18,0.065,0.065,0.065,0.065,000,0.065
2012-09-17,0.065,0.065,0.065,0.065,000,0.065
2012-09-14,0.065,0.065,0.065,0.065,000,0.065
2012-09-13,0.065,0.065,0.065,0.065,000,0.065
2012-09-12,0.065,0.065,0.065,0.065,000,0.065
2012-09-11,0.065,0.065,0.065,0.065,000,0.065
2012-09-10,0.065,0.065,0.065,0.065,000,0.065
2012-09-07,0.065,0.065,0.065,0.065,70000,0.065
2012-09-06,0.065,0.065,0.065,0.065,000,0.065
2012-09-05,0.065,0.065,0.065,0.065,000,0.065
2012-09-04,0.065,0.065,0.065,0.065,000,0.065
2012-09-03,0.065,0.065,0.065,0.065,000,0.065
2012-08-31,0.065,0.065,0.065,0.065,000,0.065
2012-08-30,0.065,0.065,0.065,0.065,000,0.065
2012-08-29,0.065,0.065,0.065,0.065,000,0.065
2012-08-28,0.065,0.065,0.065,0.065,40000,0.065
2012-08-27,0.07,0.07,0.07,0.07,000,0.07
2012-08-24,0.07,0.07,0.07,0.07,000,0.07
2012-08-23,0.07,0.07,0.07,0.07,000,0.07
2012-08-22,0.07,0.07,0.07,0.07,42500,0.07
2012-08-21,0.07,0.07,0.07,0.07,100000,0.07
2012-08-20,0.064,0.064,0.064,0.064,000,0.064
2012-08-17,0.064,0.064,0.064,0.064,000,0.064
2012-08-16,0.064,0.064,0.064,0.064,7200,0.064
2012-08-15,0.064,0.064,0.064,0.064,92700,0.064
2012-08-14,0.055,0.055,0.055,0.055,000,0.055
2012-08-13,0.055,0.055,0.055,0.055,000,0.055
2012-08-10,0.055,0.055,0.055,0.055,000,0.055
2012-08-09,0.055,0.055,0.055,0.055,000,0.055
2012-08-08,0.055,0.055,0.055,0.055,000,0.055
2012-08-07,0.055,0.055,0.055,0.055,000,0.055
2012-08-06,0.055,0.055,0.055,0.055,000,0.055
2012-08-03,0.055,0.055,0.055,0.055,000,0.055
2012-08-02,0.055,0.055,0.055,0.055,000,0.055
2012-08-01,0.055,0.055,0.055,0.055,000,0.055
2012-07-31,0.055,0.055,0.055,0.055,000,0.055
2012-07-30,0.055,0.055,0.055,0.055,000,0.055
2012-07-27,0.055,0.055,0.055,0.055,000,0.055
2012-07-26,0.055,0.055,0.055,0.055,000,0.055
2012-07-25,0.055,0.055,0.055,0.055,000,0.055
2012-07-24,0.055,0.055,0.055,0.055,000,0.055
2012-07-23,0.055,0.055,0.055,0.055,000,0.055
2012-07-20,0.055,0.055,0.055,0.055,000,0.055
2012-07-19,0.055,0.055,0.055,0.055,000,0.055
2012-07-18,0.055,0.055,0.055,0.055,000,0.055
2012-07-17,0.055,0.055,0.055,0.055,50000,0.055
2012-07-16,0.054,0.054,0.054,0.054,000,0.054
2012-07-13,0.054,0.054,0.054,0.054,000,0.054
2012-07-12,0.054,0.054,0.054,0.054,000,0.054
2012-07-11,0.054,0.054,0.054,0.054,000,0.054
2012-07-10,0.054,0.054,0.054,0.054,25000,0.054
2012-07-09,0.051,0.051,0.051,0.051,000,0.051
2012-07-06,0.051,0.051,0.051,0.051,000,0.051
2012-07-05,0.051,0.051,0.051,0.051,000,0.051
2012-07-04,0.051,0.051,0.051,0.051,000,0.051
2012-07-03,0.051,0.051,0.051,0.051,000,0.051
2012-07-02,0.051,0.051,0.051,0.051,000,0.051
2012-06-29,0.051,0.051,0.051,0.051,50000,0.051
2012-06-28,0.047,0.047,0.047,0.047,000,0.047
2012-06-27,0.047,0.047,0.047,0.047,000,0.047
2012-06-26,0.047,0.047,0.047,0.047,000,0.047
2012-06-25,0.045,0.047,0.045,0.047,144900,0.047
2012-06-22,0.04,0.04,0.04,0.04,000,0.04
2012-06-21,0.04,0.04,0.04,0.04,000,0.04
2012-06-20,0.04,0.04,0.04,0.04,000,0.04
2012-06-19,0.04,0.04,0.04,0.04,11000,0.04
2012-06-18,0.045,0.045,0.045,0.045,000,0.045
2012-06-15,0.045,0.045,0.045,0.045,000,0.045
2012-06-14,0.045,0.045,0.045,0.045,000,0.045
2012-06-13,0.045,0.045,0.045,0.045,000,0.045
2012-06-12,0.045,0.045,0.045,0.045,000,0.045
2012-06-11,0.045,0.045,0.045,0.045,000,0.045
2012-06-08,0.045,0.045,0.045,0.045,000,0.045
2012-06-07,0.045,0.045,0.045,0.045,000,0.045
2012-06-06,0.045,0.045,0.045,0.045,000,0.045
2012-06-05,0.045,0.045,0.045,0.045,000,0.045
2012-06-04,0.045,0.045,0.045,0.045,000,0.045
2012-06-01,0.045,0.045,0.045,0.045,000,0.045
2012-05-31,0.045,0.045,0.045,0.045,000,0.045
2012-05-30,0.045,0.045,0.045,0.045,000,0.045
2012-05-29,0.045,0.045,0.045,0.045,000,0.045
2012-05-28,0.045,0.045,0.045,0.045,150000,0.045
2012-05-25,0.043,0.043,0.043,0.043,000,0.043
2012-05-24,0.043,0.043,0.043,0.043,000,0.043
2012-05-23,0.043,0.043,0.043,0.043,000,0.043
2012-05-22,0.043,0.043,0.043,0.043,000,0.043
2012-05-21,0.043,0.043,0.043,0.043,000,0.043
2012-05-18,0.043,0.043,0.043,0.043,000,0.043
2012-05-17,0.043,0.043,0.043,0.043,000,0.043
2012-05-16,0.043,0.043,0.043,0.043,000,0.043
2012-05-15,0.044,0.044,0.043,0.043,250000,0.043
2012-05-14,0.045,0.045,0.045,0.045,000,0.045
2012-05-11,0.045,0.045,0.045,0.045,000,0.045
2012-05-10,0.045,0.045,0.045,0.045,000,0.045
2012-05-09,0.045,0.045,0.045,0.045,000,0.045
2012-05-08,0.045,0.045,0.045,0.045,000,0.045
2012-05-07,0.044,0.045,0.044,0.045,11200,0.045
2012-05-04,0.045,0.045,0.045,0.045,000,0.045
2012-05-03,0.047,0.047,0.045,0.045,240000,0.045
2012-05-02,0.05,0.05,0.05,0.05,000,0.05
2012-05-01,0.05,0.05,0.05,0.05,000,0.05
2012-04-30,0.05,0.05,0.05,0.05,000,0.05
2012-04-27,0.05,0.05,0.05,0.05,000,0.05
2012-04-26,0.05,0.05,0.05,0.05,000,0.05
2012-04-25,0.05,0.05,0.05,0.05,000,0.05
2012-04-24,0.05,0.05,0.05,0.05,000,0.05
2012-04-23,0.05,0.05,0.05,0.05,000,0.05
2012-04-20,0.05,0.05,0.05,0.05,48700,0.05
2012-04-19,0.04,0.04,0.04,0.04,000,0.04
2012-04-18,0.04,0.04,0.04,0.04,000,0.04
2012-04-17,0.05,0.05,0.04,0.04,650000,0.04
2012-04-16,0.05,0.05,0.048,0.049,590000,0.049
2012-04-13,0.06,0.06,0.06,0.06,000,0.06
2012-04-12,0.06,0.06,0.06,0.06,000,0.06
2012-04-11,0.06,0.06,0.06,0.06,000,0.06
2012-04-10,0.06,0.06,0.06,0.06,000,0.06
2012-04-09,0.06,0.06,0.06,0.06,000,0.06
2012-04-06,0.06,0.06,0.06,0.06,000,0.06
2012-04-05,0.06,0.06,0.06,0.06,000,0.06
2012-04-04,0.06,0.06,0.06,0.06,000,0.06
2012-04-03,0.06,0.06,0.06,0.06,000,0.06
2012-04-02,0.06,0.06,0.06,0.06,000,0.06
2012-03-30,0.06,0.06,0.06,0.06,000,0.06
2012-03-29,0.06,0.06,0.06,0.06,000,0.06
2012-03-28,0.06,0.06,0.06,0.06,26500,0.06
2012-03-27,0.06,0.06,0.06,0.06,000,0.06
2012-03-26,0.06,0.06,0.06,0.06,71500,0.06
2012-03-23,0.06,0.06,0.06,0.06,000,0.06
2012-03-22,0.06,0.06,0.06,0.06,000,0.06
2012-03-21,0.06,0.06,0.06,0.06,000,0.06
2012-03-20,0.06,0.06,0.06,0.06,000,0.06
2012-03-19,0.06,0.06,0.06,0.06,000,0.06
2012-03-16,0.06,0.06,0.06,0.06,000,0.06
2012-03-15,0.06,0.06,0.06,0.06,000,0.06
2012-03-14,0.06,0.06,0.06,0.06,000,0.06
2012-03-13,0.06,0.06,0.06,0.06,000,0.06
2012-03-12,0.06,0.06,0.06,0.06,000,0.06
2012-03-09,0.06,0.06,0.06,0.06,000,0.06
2012-03-08,0.06,0.06,0.06,0.06,000,0.06
2012-03-07,0.055,0.055,0.055,0.055,11200,0.055
2012-03-06,0.06,0.06,0.06,0.06,000,0.06
2012-03-05,0.06,0.06,0.06,0.06,000,0.06
2012-03-02,0.06,0.06,0.06,0.06,48700,0.06
2012-03-01,0.055,0.055,0.055,0.055,000,0.055
2012-02-29,0.055,0.055,0.055,0.055,000,0.055
2012-02-28,0.055,0.055,0.055,0.055,000,0.055
2012-02-27,0.055,0.055,0.055,0.055,1200,0.055
2012-02-24,0.052,0.052,0.052,0.052,000,0.052
2012-02-23,0.052,0.052,0.052,0.052,000,0.052
2012-02-22,0.052,0.052,0.052,0.052,000,0.052
2012-02-21,0.052,0.052,0.052,0.052,000,0.052
2012-02-20,0.052,0.052,0.052,0.052,000,0.052
2012-02-17,0.052,0.052,0.052,0.052,000,0.052
2012-02-16,0.052,0.052,0.052,0.052,000,0.052
2012-02-15,0.052,0.052,0.052,0.052,50000,0.052
2012-02-14,0.05,0.05,0.05,0.05,000,0.05
2012-02-13,0.05,0.05,0.05,0.05,000,0.05
2012-02-10,0.05,0.05,0.05,0.05,000,0.05
2012-02-09,0.05,0.05,0.05,0.05,000,0.05
2012-02-08,0.05,0.05,0.05,0.05,000,0.05
2012-02-07,0.05,0.05,0.05,0.05,000,0.05
2012-02-06,0.05,0.05,0.05,0.05,000,0.05
2012-02-03,0.05,0.05,0.05,0.05,000,0.05
2012-02-02,0.05,0.05,0.05,0.05,000,0.05
2012-02-01,0.05,0.05,0.05,0.05,000,0.05
2012-01-31,0.05,0.05,0.05,0.05,000,0.05
2012-01-30,0.05,0.05,0.05,0.05,25000,0.05
2012-01-27,0.05,0.05,0.05,0.05,000,0.05
2012-01-26,0.05,0.05,0.05,0.05,000,0.05
2012-01-25,0.05,0.05,0.05,0.05,000,0.05
2012-01-24,0.05,0.05,0.05,0.05,000,0.05
2012-01-23,0.05,0.05,0.05,0.05,000,0.05
2012-01-20,0.05,0.05,0.05,0.05,000,0.05
2012-01-19,0.05,0.05,0.05,0.05,000,0.05
2012-01-18,0.05,0.05,0.05,0.05,000,0.05
2012-01-17,0.05,0.05,0.05,0.05,000,0.05
2012-01-16,0.05,0.05,0.05,0.05,000,0.05
2012-01-13,0.05,0.05,0.05,0.05,000,0.05
2012-01-12,0.05,0.05,0.05,0.05,000,0.05
2012-01-11,0.05,0.05,0.05,0.05,000,0.05
2012-01-10,0.05,0.05,0.05,0.05,000,0.05
2012-01-09,0.05,0.05,0.05,0.05,000,0.05
2012-01-06,0.05,0.05,0.05,0.05,000,0.05
2012-01-05,0.05,0.05,0.05,0.05,000,0.05
2012-01-04,0.05,0.05,0.05,0.05,000,0.05
2012-01-03,0.05,0.05,0.05,0.05,000,0.05
2012-01-02,0.05,0.05,0.05,0.05,000,0.05
2011-12-30,0.05,0.05,0.05,0.05,000,0.05
2011-12-29,0.05,0.05,0.05,0.05,10000,0.05
2011-12-28,0.06,0.06,0.06,0.06,000,0.06
2011-12-27,0.06,0.06,0.06,0.06,000,0.06
2011-12-26,0.06,0.06,0.06,0.06,000,0.06
2011-12-23,0.06,0.06,0.06,0.06,000,0.06
2011-12-22,0.06,0.06,0.06,0.06,000,0.06
2011-12-21,0.06,0.06,0.06,0.06,000,0.06
2011-12-20,0.06,0.06,0.06,0.06,000,0.06
2011-12-19,0.06,0.06,0.06,0.06,000,0.06
2011-12-16,0.06,0.06,0.06,0.06,000,0.06
2011-12-15,0.06,0.06,0.06,0.06,000,0.06
2011-12-14,0.06,0.06,0.06,0.06,000,0.06
2011-12-13,0.06,0.06,0.06,0.06,000,0.06
2011-12-12,0.06,0.06,0.06,0.06,000,0.06
2011-12-09,0.06,0.06,0.06,0.06,000,0.06
2011-12-08,0.06,0.06,0.06,0.06,000,0.06
2011-12-07,0.06,0.06,0.06,0.06,000,0.06
2011-12-06,0.06,0.06,0.06,0.06,000,0.06
2011-12-05,0.06,0.06,0.06,0.06,000,0.06
2011-12-02,0.06,0.06,0.06,0.06,000,0.06
2011-12-01,0.06,0.06,0.06,0.06,000,0.06
2011-11-30,0.06,0.06,0.06,0.06,000,0.06
2011-11-29,0.06,0.06,0.06,0.06,000,0.06
2011-11-28,0.06,0.06,0.06,0.06,000,0.06
2011-11-25,0.06,0.06,0.06,0.06,000,0.06
2011-11-24,0.06,0.06,0.06,0.06,10000,0.06
2011-11-23,0.065,0.065,0.065,0.065,000,0.065
2011-11-22,0.065,0.065,0.065,0.065,10000,0.065
2011-11-21,0.075,0.075,0.075,0.075,000,0.075
2011-11-18,0.075,0.075,0.075,0.075,000,0.075
2011-11-17,0.075,0.075,0.075,0.075,000,0.075
2011-11-09,0.075,0.075,0.075,0.075,17000,0.075
2011-10-28,0.083,0.083,0.07,0.07,24200,0.07
2011-10-20,0.08,0.08,0.08,0.08,50000,0.08
2011-10-04,0.07,0.07,0.07,0.07,10000,0.07
2011-09-29,0.075,0.075,0.075,0.075,10000,0.075
2011-09-28,0.075,0.075,0.075,0.075,10000,0.075
2011-09-21,0.09,0.09,0.085,0.085,50000,0.085
2011-09-16,0.094,0.095,0.094,0.095,59900,0.095
2011-09-15,0.09,0.09,0.09,0.09,10000,0.09
2011-09-12,0.083,0.083,0.083,0.083,10000,0.083
2011-09-08,0.09,0.09,0.09,0.09,65000,0.09
2011-08-30,0.073,0.08,0.073,0.08,95000,0.08
2011-08-29,0.075,0.075,0.075,0.075,22600,0.075
2011-08-17,0.075,0.081,0.075,0.079,148300,0.079
2011-08-16,0.07,0.078,0.07,0.07,215700,0.07
2011-07-29,0.09,0.09,0.089,0.09,321000,0.09
2011-07-25,0.105,0.105,0.105,0.105,50000,0.105
2011-07-22,0.11,0.11,0.105,0.105,239900,0.105
2011-07-21,0.095,0.105,0.095,0.105,165000,0.105
2011-07-20,0.09,0.09,0.09,0.09,130000,0.09
2011-07-18,0.08,0.085,0.08,0.08,115000,0.08
2011-07-14,0.07,0.07,0.07,0.07,6000,0.07
2011-07-05,0.062,0.064,0.062,0.064,75000,0.064
2011-07-04,0.062,0.062,0.062,0.062,40000,0.062
2011-06-30,0.06,0.06,0.06,0.06,50000,0.06
2011-06-27,0.06,0.06,0.06,0.06,20000,0.06
2011-06-23,0.06,0.06,0.06,0.06,100000,0.06
2011-06-22,0.06,0.061,0.06,0.061,150000,0.061
2011-06-21,0.06,0.06,0.06,0.06,100000,0.06
2011-06-20,0.06,0.06,0.06,0.06,15000,0.06
2011-06-17,0.06,0.06,0.06,0.06,200000,0.06
2011-05-30,0.07,0.07,0.07,0.07,10000,0.07
2011-05-25,0.07,0.07,0.07,0.07,50000,0.07
2011-05-24,0.071,0.071,0.07,0.07,145000,0.07
2011-05-06,0.095,0.095,0.095,0.095,50000,0.095
2011-05-03,0.07,0.07,0.07,0.07,5000,0.07
2011-05-02,0.075,0.075,0.075,0.075,11000,0.075
2011-04-06,0.07,0.07,0.07,0.07,50000,0.07
2011-03-29,0.07,0.07,0.07,0.07,20000,0.07
2011-03-28,0.07,0.07,0.07,0.07,5000,0.07
2011-03-21,0.07,0.07,0.07,0.07,5000,0.07
2011-03-11,0.07,0.07,0.07,0.07,20000,0.07
2011-03-10,0.07,0.07,0.07,0.07,200000,0.07
2011-03-03,0.072,0.072,0.072,0.072,55000,0.072
2011-02-28,0.075,0.075,0.075,0.075,100000,0.075
2011-02-24,0.072,0.072,0.072,0.072,25000,0.072
2011-02-15,0.075,0.08,0.075,0.08,31700,0.08
2011-02-09,0.075,0.075,0.075,0.075,50000,0.075
2011-02-04,0.075,0.075,0.075,0.075,50000,0.075
2011-02-03,0.08,0.08,0.08,0.08,1800,0.08
2011-01-25,0.088,0.088,0.088,0.088,40000,0.088
2011-01-20,0.096,0.096,0.09,0.09,61000,0.09
2011-01-14,0.093,0.093,0.093,0.093,100000,0.093
2011-01-04,0.086,0.086,0.086,0.086,15000,0.086
2010-12-29,0.081,0.081,0.081,0.081,10000,0.081
2010-12-24,0.082,0.082,0.08,0.08,65000,0.08
2010-12-21,0.08,0.08,0.08,0.08,26300,0.08
2010-12-20,0.085,0.085,0.085,0.085,100000,0.085
2010-12-03,0.09,0.09,0.09,0.09,20000,0.09
2010-12-02,0.089,0.095,0.089,0.095,158000,0.095
2010-11-30,0.08,0.08,0.08,0.08,22000,0.08
2010-11-29,0.07,0.07,0.07,0.07,250000,0.07
2010-11-04,0.061,0.061,0.052,0.052,250500,0.052
2010-09-30,0.041,0.041,0.041,0.041,500,0.041
2010-09-17,0.04,0.041,0.04,0.041,25000,0.041
2010-09-13,0.038,0.038,0.038,0.038,100000,0.038
2010-09-06,0.041,0.041,0.041,0.041,225500,0.041
2010-08-31,0.045,0.045,0.045,0.045,13500,0.045
2010-08-27,0.045,0.045,0.045,0.045,10000,0.045
2010-08-24,0.045,0.045,0.045,0.045,10000,0.045
2010-08-19,0.045,0.045,0.045,0.045,000,0.045
2010-08-12,0.046,0.046,0.046,0.046,30000,0.046
2010-08-09,0.046,0.046,0.046,0.046,20000,0.046
2010-07-26,0.045,0.045,0.045,0.045,200000,0.045
2010-07-23,0.041,0.041,0.041,0.041,4500,0.041
2010-06-28,0.042,0.042,0.042,0.042,10000,0.042
2010-06-25,0.058,0.058,0.043,0.043,000,0.043
2010-06-24,0.058,0.058,0.043,0.043,000,0.043
2010-06-23,0.043,0.043,0.043,0.043,10000,0.043
2010-06-22,0.043,0.043,0.043,0.043,20000,0.043
2010-06-21,0.058,0.058,0.043,0.043,000,0.043
2010-06-18,0.058,0.058,0.04,0.04,000,0.04
2010-06-17,0.058,0.058,0.04,0.04,000,0.04
2010-06-16,0.058,0.058,0.04,0.04,000,0.04
2010-06-15,0.058,0.058,0.035,0.035,000,0.035
2010-06-11,0.058,0.058,0.035,0.035,000,0.035
2010-06-10,0.058,0.058,0.035,0.035,000,0.035
2010-06-09,0.058,0.058,0.035,0.035,000,0.035
2010-06-08,0.06,0.06,0.035,0.035,000,0.035
2010-06-07,0.06,0.06,0.035,0.035,000,0.035
2010-06-04,0.06,0.06,0.035,0.035,000,0.035
2010-06-03,0.06,0.06,0.035,0.035,000,0.035
2010-06-02,0.06,0.06,0.035,0.035,000,0.035
2010-06-01,0.06,0.06,0.035,0.035,000,0.035
2010-05-31,0.06,0.06,0.06,0.06,48000,0.06
2010-05-28,0.05,0.05,0.05,0.05,25000,0.05
2010-05-27,0.05,0.05,0.05,0.05,10000,0.05
2010-05-26,0.06,0.06,0.05,0.05,000,0.05
2010-05-25,0.06,0.06,0.05,0.05,000,0.05
2010-05-24,0.06,0.06,0.05,0.05,000,0.05
2010-05-21,0.06,0.06,0.05,0.05,000,0.05
2010-05-20,0.06,0.06,0.05,0.05,000,0.05
2010-05-19,0.06,0.06,0.05,0.05,000,0.05
2010-05-18,0.06,0.06,0.05,0.05,000,0.05
2010-05-17,0.06,0.06,0.04,0.04,000,0.04
2010-05-14,0.06,0.06,0.04,0.04,000,0.04
2010-05-13,0.06,0.06,0.035,0.035,000,0.035
2010-05-12,0.10,0.10,0.032,0.032,000,0.032
2010-05-11,0.10,0.10,0.034,0.034,000,0.034
2010-05-07,0.10,0.10,0.032,0.032,000,0.032
2010-05-06,0.10,0.10,0.045,0.045,000,0.045
2010-05-05,0.10,0.10,0.045,0.045,000,0.045
2010-05-04,0.10,0.10,0.045,0.045,000,0.045
2010-05-03,0.10,0.10,0.04,0.04,000,0.04
2010-04-30,0.10,0.10,0.04,0.04,000,0.04
2010-04-29,0.10,0.10,0.05,0.05,000,0.05
2010-04-28,0.10,0.10,0.05,0.05,000,0.05
2010-04-27,0.10,0.10,0.05,0.05,000,0.05
2010-04-23,0.08,0.08,0.05,0.05,000,0.05
2010-04-22,0.08,0.08,0.05,0.05,000,0.05
2010-04-21,0.08,0.08,0.05,0.05,000,0.05
2010-04-20,0.05,0.05,0.05,0.05,116500,0.05
2010-04-19,0.05,0.05,0.05,0.05,8500,0.05
2010-04-16,0.05,0.05,0.05,0.05,1500,0.05
2010-04-15,0.06,0.06,0.05,0.05,000,0.05
2010-04-14,0.05,0.05,0.05,0.05,40000,0.05
2010-04-13,0.06,0.06,0.05,0.05,000,0.05
2010-04-12,0.06,0.06,0.05,0.05,000,0.05
2010-04-09,0.06,0.06,0.06,0.06,252500,0.06
2010-04-08,0.06,0.06,0.05,0.05,000,0.05
2010-04-07,0.06,0.06,0.05,0.05,000,0.05
2010-04-06,0.06,0.06,0.06,0.06,100000,0.06
2010-04-01,0.06,0.06,0.05,0.05,000,0.05
2010-03-31,0.06,0.06,0.05,0.05,000,0.05
2010-03-30,0.06,0.06,0.05,0.05,000,0.05
2010-03-29,0.06,0.06,0.05,0.05,000,0.05
2010-03-26,0.06,0.06,0.05,0.05,000,0.05
2010-03-25,0.06,0.06,0.05,0.05,000,0.05
2010-03-24,0.06,0.06,0.05,0.05,000,0.05
2010-03-23,0.06,0.06,0.05,0.05,000,0.05
2010-03-22,0.06,0.06,0.05,0.05,000,0.05
2010-03-19,0.06,0.06,0.05,0.05,000,0.05
2010-03-18,0.06,0.06,0.047,0.047,000,0.047
2010-03-17,0.06,0.06,0.045,0.045,000,0.045
2010-03-16,0.06,0.06,0.06,0.06,72500,0.06
2010-03-15,0.05,0.05,0.042,0.042,000,0.042
2010-03-12,0.05,0.05,0.042,0.042,000,0.042
2010-03-11,0.05,0.05,0.04,0.04,000,0.04
2010-03-10,0.05,0.05,0.04,0.04,000,0.04
2010-03-09,0.05,0.05,0.04,0.04,000,0.04
2010-03-08,0.05,0.05,0.04,0.04,000,0.04
2010-03-05,0.05,0.05,0.04,0.04,000,0.04
2010-03-04,0.05,0.05,0.04,0.04,000,0.04
2010-03-03,0.05,0.05,0.04,0.04,000,0.04
2010-03-02,0.05,0.05,0.04,0.04,000,0.04
2010-03-01,0.06,0.06,0.04,0.04,000,0.04
2010-02-26,0.06,0.06,0.04,0.04,000,0.04
2010-02-25,0.06,0.06,0.04,0.04,000,0.04
2010-02-24,0.06,0.06,0.04,0.04,000,0.04
2010-02-23,0.06,0.06,0.04,0.04,000,0.04
2010-02-22,0.06,0.06,0.04,0.04,000,0.04
2010-02-19,0.06,0.06,0.043,0.043,000,0.043
2010-02-18,0.06,0.06,0.043,0.043,000,0.043
2010-02-17,0.06,0.06,0.04,0.04,000,0.04
2010-02-16,0.06,0.06,0.04,0.04,000,0.04
2010-02-15,0.06,0.06,0.042,0.042,000,0.042
2010-02-12,0.06,0.06,0.046,0.046,000,0.046
2010-02-11,0.06,0.06,0.038,0.038,000,0.038
2010-02-10,0.06,0.06,0.06,0.06,2500,0.06
2010-02-09,0.07,0.07,0.06,0.06,000,0.06
2010-02-08,0.07,0.07,0.06,0.06,000,0.06
2010-02-05,0.07,0.07,0.06,0.06,000,0.06
2010-02-04,0.07,0.07,0.06,0.06,000,0.06
2010-02-03,0.07,0.07,0.06,0.06,000,0.06
2010-01-29,0.09,0.09,0.06,0.06,000,0.06
2010-01-28,0.09,0.09,0.06,0.06,000,0.06
2010-01-27,0.09,0.09,0.06,0.06,000,0.06
2010-01-25,0.09,0.09,0.06,0.06,000,0.06
2010-01-22,0.089,0.089,0.06,0.06,000,0.06
2010-01-21,0.089,0.089,0.06,0.06,000,0.06
2010-01-20,0.06,0.06,0.06,0.06,100000,0.06
2010-01-19,0.089,0.089,0.06,0.06,000,0.06
2010-01-18,0.089,0.089,0.06,0.06,000,0.06
2010-01-14,0.089,0.089,0.06,0.06,000,0.06
2010-01-13,0.089,0.089,0.06,0.06,000,0.06
2010-01-12,0.089,0.089,0.06,0.06,000,0.06
2010-01-11,0.089,0.089,0.06,0.06,000,0.06
2010-01-08,0.089,0.089,0.06,0.06,000,0.06
2010-01-07,0.089,0.089,0.06,0.06,000,0.06
2010-01-06,0.089,0.089,0.06,0.06,000,0.06
2010-01-05,0.089,0.089,0.06,0.06,000,0.06
2010-01-04,0.10,0.10,0.06,0.06,000,0.06
2009-12-31,0.10,0.10,0.06,0.06,000,0.06
2009-12-30,0.10,0.10,0.06,0.06,000,0.06
2009-12-24,0.10,0.10,0.06,0.06,000,0.06
2009-12-23,0.10,0.10,0.06,0.06,000,0.06
2009-12-22,0.10,0.10,0.06,0.06,000,0.06
2009-12-21,0.10,0.10,0.08,0.08,000,0.08
2009-12-18,0.10,0.10,0.08,0.08,000,0.08
2009-12-17,0.10,0.10,0.06,0.06,000,0.06
2009-12-16,0.10,0.10,0.06,0.06,000,0.06
2009-12-15,0.10,0.10,0.06,0.06,000,0.06
2009-12-14,0.10,0.10,0.08,0.08,000,0.08
2009-12-11,0.08,0.08,0.08,0.08,25000,0.08
2009-12-10,0.08,0.08,0.08,0.08,20000,0.08
2009-12-09,0.09,0.09,0.08,0.08,000,0.08
2009-12-08,0.09,0.09,0.08,0.08,000,0.08
2009-12-07,0.09,0.09,0.08,0.08,000,0.08
2009-12-04,0.08,0.08,0.08,0.08,40000,0.08
2009-12-03,0.09,0.09,0.08,0.08,000,0.08
2009-12-02,0.09,0.09,0.08,0.08,000,0.08
2009-12-01,0.08,0.08,0.08,0.08,237600,0.08
2009-11-30,0.08,0.08,0.08,0.08,50000,0.08
2009-11-27,0.09,0.09,0.08,0.08,000,0.08
2009-11-26,0.09,0.09,0.09,0.09,75000,0.09
2009-11-25,0.10,0.10,0.09,0.09,000,0.09
2009-11-24,0.10,0.10,0.09,0.09,000,0.09
2009-11-23,0.10,0.10,0.09,0.09,000,0.09
2009-11-20,0.10,0.10,0.09,0.09,000,0.09
2009-11-19,0.089,0.09,0.089,0.09,25000,0.09
2009-11-18,0.089,0.089,0.08,0.08,000,0.08
2009-11-17,0.089,0.089,0.08,0.08,000,0.08
2009-11-16,0.089,0.089,0.06,0.06,000,0.06
2009-11-13,0.09,0.09,0.09,0.09,000,0.09
2009-11-12,0.09,0.09,0.08,0.08,000,0.08
2009-11-11,0.09,0.09,0.08,0.08,000,0.08
2009-11-10,0.10,0.10,0.08,0.08,000,0.08
2009-11-06,0.10,0.10,0.08,0.08,000,0.08
2009-11-05,0.08,0.08,0.08,0.08,000,0.08
2009-11-04,0.08,0.08,0.08,0.08,000,0.08
2009-11-03,0.08,0.08,0.08,0.08,000,0.08
2009-11-02,0.08,0.08,0.08,0.08,000,0.08
2009-10-30,0.08,0.08,0.08,0.08,000,0.08
2009-10-29,0.08,0.08,0.08,0.08,000,0.08
2009-10-28,0.08,0.08,0.08,0.08,000,0.08
2009-10-27,0.08,0.08,0.08,0.08,000,0.08
2009-10-26,0.08,0.08,0.08,0.08,000,0.08
2009-10-23,0.08,0.08,0.08,0.08,000,0.08
2009-10-22,0.08,0.08,0.08,0.08,000,0.08
2009-10-21,0.08,0.08,0.08,0.08,27000,0.08
2009-10-20,0.10,0.10,0.10,0.10,000,0.10
2009-10-19,0.10,0.10,0.10,0.10,000,0.10
2009-10-16,0.08,0.10,0.08,0.10,250500,0.10
2009-10-15,0.08,0.08,0.08,0.08,000,0.08
2009-10-14,0.08,0.08,0.08,0.08,000,0.08
2009-10-13,0.08,0.08,0.08,0.08,000,0.08
2009-10-12,0.08,0.08,0.08,0.08,000,0.08
2009-10-09,0.076,0.08,0.076,0.08,50000,0.08
2009-10-08,0.08,0.08,0.077,0.077,89500,0.077
2009-10-07,0.08,0.08,0.08,0.08,22000,0.08
2009-10-06,0.09,0.09,0.09,0.09,000,0.09
2009-10-05,0.09,0.09,0.09,0.09,000,0.09
2009-10-02,0.09,0.09,0.09,0.09,000,0.09
2009-10-01,0.09,0.09,0.09,0.09,42000,0.09
2009-09-30,0.09,0.09,0.09,0.09,000,0.09
2009-09-29,0.09,0.09,0.09,0.09,000,0.09
2009-09-28,0.09,0.09,0.09,0.09,000,0.09
2009-09-25,0.09,0.09,0.09,0.09,000,0.09
2009-09-24,0.09,0.09,0.09,0.09,000,0.09
2009-09-23,0.09,0.09,0.09,0.09,000,0.09
2009-09-22,0.09,0.09,0.09,0.09,000,0.09
2009-09-21,0.09,0.09,0.09,0.09,000,0.09
2009-09-18,0.09,0.09,0.09,0.09,000,0.09
2009-09-17,0.09,0.09,0.09,0.09,000,0.09
2009-09-16,0.09,0.09,0.09,0.09,50000,0.09
2009-09-15,0.08,0.08,0.08,0.08,000,0.08
2009-09-14,0.08,0.08,0.08,0.08,000,0.08
2009-09-11,0.08,0.08,0.08,0.08,88400,0.08
2009-09-10,0.08,0.085,0.077,0.077,73100,0.077
2009-09-09,0.08,0.08,0.08,0.08,47000,0.08
2009-09-08,0.08,0.08,0.08,0.08,22000,0.08
2009-09-07,0.08,0.08,0.08,0.08,78000,0.08
2009-09-04,0.09,0.09,0.09,0.09,000,0.09
2009-09-03,0.09,0.09,0.09,0.09,000,0.09
2009-09-02,0.09,0.09,0.09,0.09,000,0.09
2009-09-01,0.085,0.09,0.085,0.09,100000,0.09
2009-08-31,0.075,0.075,0.075,0.075,50000,0.075
2009-08-28,0.061,0.061,0.061,0.061,000,0.061
2009-08-27,0.061,0.061,0.061,0.061,000,0.061
2009-08-26,0.061,0.061,0.061,0.061,000,0.061
2009-08-25,0.061,0.061,0.061,0.061,000,0.061
2009-08-24,0.061,0.061,0.061,0.061,20000,0.061
2009-08-21,0.06,0.061,0.06,0.061,139000,0.061
2009-08-20,0.051,0.051,0.051,0.051,000,0.051
2009-08-19,0.051,0.051,0.051,0.051,000,0.051
2009-08-18,0.051,0.051,0.051,0.051,000,0.051
2009-08-17,0.051,0.051,0.051,0.051,43300,0.051
2009-08-14,0.049,0.049,0.049,0.049,000,0.049
2009-08-13,0.049,0.049,0.049,0.049,45000,0.049
2009-08-12,0.049,0.049,0.049,0.049,000,0.049
2009-08-11,0.049,0.049,0.049,0.049,000,0.049
2009-08-10,0.049,0.049,0.049,0.049,10000,0.049
2009-08-07,0.062,0.062,0.062,0.062,000,0.062
2009-08-06,0.062,0.062,0.062,0.062,000,0.062
2009-08-05,0.062,0.062,0.062,0.062,000,0.062
2009-08-04,0.062,0.062,0.062,0.062,100000,0.062
2009-08-03,0.06,0.06,0.06,0.06,000,0.06
2009-07-31,0.06,0.06,0.06,0.06,50000,0.06
2009-07-30,0.048,0.048,0.048,0.048,000,0.048
2009-07-29,0.048,0.048,0.048,0.048,000,0.048
2009-07-28,0.048,0.048,0.048,0.048,000,0.048
2009-07-27,0.048,0.048,0.048,0.048,000,0.048
2009-07-24,0.048,0.048,0.048,0.048,000,0.048
2009-07-23,0.048,0.048,0.048,0.048,000,0.048
2009-07-22,0.048,0.048,0.048,0.048,000,0.048
2009-07-21,0.048,0.048,0.048,0.048,000,0.048
2009-07-20,0.048,0.048,0.048,0.048,000,0.048
2009-07-17,0.048,0.048,0.048,0.048,000,0.048
2009-07-16,0.048,0.048,0.048,0.048,000,0.048
2009-07-15,0.048,0.048,0.048,0.048,000,0.048
2009-07-14,0.048,0.048,0.048,0.048,000,0.048
2009-07-13,0.048,0.048,0.048,0.048,000,0.048
2009-07-10,0.048,0.048,0.048,0.048,000,0.048
2009-07-09,0.048,0.048,0.048,0.048,000,0.048
2009-07-08,0.048,0.048,0.048,0.048,000,0.048
2009-07-07,0.048,0.048,0.048,0.048,000,0.048
2009-07-06,0.06,0.06,0.048,0.048,000,0.048
2009-07-03,0.06,0.06,0.048,0.048,000,0.048
2009-07-02,0.06,0.06,0.048,0.048,000,0.048
2009-07-01,0.048,0.048,0.048,0.048,27000,0.048
2009-06-30,0.048,0.048,0.048,0.048,000,0.048
2009-06-29,0.048,0.048,0.048,0.048,20000,0.048
2009-06-26,0.048,0.048,0.048,0.048,000,0.048
2009-06-25,0.048,0.048,0.048,0.048,53000,0.048
2009-06-24,0.06,0.06,0.06,0.06,000,0.06
2009-06-23,0.06,0.06,0.06,0.06,000,0.06
2009-06-22,0.06,0.06,0.06,0.06,000,0.06
2009-06-19,0.06,0.06,0.06,0.06,000,0.06
2009-06-18,0.06,0.06,0.06,0.06,47200,0.06
2009-06-17,0.046,0.046,0.046,0.046,10000,0.046
2009-06-16,0.06,0.06,0.046,0.046,000,0.046
2009-06-15,0.046,0.046,0.046,0.046,30000,0.046
2009-06-12,0.046,0.049,0.046,0.049,137900,0.049
2009-06-11,0.046,0.046,0.046,0.046,125000,0.046
2009-06-10,0.047,0.047,0.046,0.046,000,0.046
2009-06-09,0.047,0.047,0.046,0.046,000,0.046
2009-06-05,0.049,0.049,0.046,0.046,000,0.046
2009-06-04,0.049,0.049,0.046,0.046,000,0.046
2009-06-03,0.046,0.046,0.046,0.046,10000,0.046
2009-06-02,0.05,0.05,0.046,0.046,000,0.046
2009-06-01,0.05,0.05,0.046,0.046,000,0.046
2009-05-29,0.05,0.05,0.047,0.047,000,0.047
2009-05-28,0.05,0.05,0.047,0.047,000,0.047
2009-05-27,0.05,0.05,0.047,0.047,000,0.047
2009-05-26,0.05,0.05,0.047,0.047,000,0.047
2009-05-25,0.055,0.055,0.047,0.047,000,0.047
2009-05-22,0.055,0.055,0.047,0.047,000,0.047
2009-05-21,0.06,0.06,0.047,0.047,000,0.047
2009-05-20,0.06,0.06,0.047,0.047,000,0.047
2009-05-19,0.06,0.06,0.047,0.047,000,0.047
2009-05-18,0.06,0.06,0.047,0.047,000,0.047
2009-05-15,0.06,0.06,0.047,0.047,000,0.047
2009-05-14,0.06,0.06,0.045,0.045,000,0.045
2009-05-13,0.045,0.045,0.045,0.045,125000,0.045
2009-05-12,0.06,0.06,0.045,0.045,000,0.045
2009-05-11,0.06,0.06,0.045,0.045,000,0.045
2009-05-08,0.06,0.06,0.045,0.045,000,0.045
2009-05-07,0.045,0.045,0.045,0.045,80000,0.045
2009-05-06,0.05,0.05,0.05,0.05,000,0.05
2009-05-05,0.05,0.05,0.05,0.05,000,0.05
2009-05-04,0.05,0.05,0.05,0.05,000,0.05
2009-05-01,0.05,0.05,0.05,0.05,25000,0.05
2009-04-30,0.06,0.06,0.06,0.06,000,0.06
2009-04-29,0.06,0.06,0.06,0.06,000,0.06
2009-04-28,0.06,0.06,0.06,0.06,000,0.06
2009-04-27,0.06,0.06,0.06,0.06,000,0.06
2009-04-24,0.06,0.06,0.06,0.06,000,0.06
2009-04-23,0.06,0.06,0.06,0.06,000,0.06
2009-04-22,0.06,0.06,0.06,0.06,000,0.06
2009-04-21,0.06,0.06,0.06,0.06,000,0.06
2009-04-20,0.06,0.06,0.06,0.06,000,0.06
2009-04-17,0.06,0.06,0.06,0.06,000,0.06
2009-04-16,0.06,0.06,0.06,0.06,000,0.06
2009-04-15,0.06,0.06,0.06,0.06,000,0.06
2009-04-14,0.06,0.06,0.06,0.06,10000,0.06
2009-04-09,0.06,0.06,0.06,0.06,10000,0.06
2009-04-08,0.05,0.05,0.05,0.05,000,0.05
2009-04-07,0.05,0.05,0.05,0.05,000,0.05
2009-04-06,0.05,0.05,0.05,0.05,000,0.05
2009-04-03,0.05,0.05,0.05,0.05,000,0.05
2009-04-02,0.05,0.05,0.05,0.05,000,0.05
2009-04-01,0.05,0.05,0.05,0.05,59600,0.05
2009-03-31,0.05,0.05,0.04,0.04,000,0.04
2009-03-30,0.05,0.05,0.04,0.04,000,0.04
2009-03-27,0.041,0.041,0.041,0.041,000,0.041
2009-03-26,0.041,0.041,0.041,0.041,000,0.041
2009-03-25,0.041,0.041,0.041,0.041,000,0.041
2009-03-24,0.04,0.041,0.04,0.041,127100,0.041
2009-03-23,0.038,0.038,0.038,0.038,43000,0.038
2009-03-20,0.048,0.048,0.048,0.048,000,0.048
2009-03-19,0.048,0.048,0.048,0.048,000,0.048
2009-03-18,0.048,0.048,0.048,0.048,000,0.048
2009-03-17,0.048,0.048,0.048,0.048,000,0.048
2009-03-16,0.048,0.048,0.048,0.048,000,0.048
2009-03-13,0.048,0.048,0.048,0.048,000,0.048
2009-03-12,0.048,0.048,0.048,0.048,000,0.048
2009-03-11,0.048,0.048,0.048,0.048,000,0.048
2009-03-10,0.048,0.048,0.048,0.048,000,0.048
2009-03-09,0.048,0.048,0.048,0.048,000,0.048
2009-03-06,0.048,0.048,0.048,0.048,000,0.048
2009-03-05,0.048,0.048,0.048,0.048,000,0.048
2009-03-04,0.048,0.048,0.048,0.048,000,0.048
2009-03-03,0.048,0.048,0.048,0.048,000,0.048
2009-03-02,0.048,0.048,0.048,0.048,000,0.048
2009-02-27,0.048,0.048,0.048,0.048,000,0.048
2009-02-26,0.048,0.048,0.048,0.048,000,0.048
2009-02-25,0.048,0.048,0.048,0.048,000,0.048
2009-02-24,0.048,0.048,0.048,0.048,000,0.048
2009-02-23,0.048,0.048,0.048,0.048,000,0.048
2009-02-20,0.048,0.048,0.048,0.048,000,0.048
2009-02-19,0.044,0.048,0.044,0.048,111200,0.048
2009-02-18,0.04,0.04,0.04,0.04,151700,0.04
2009-02-17,0.058,0.058,0.04,0.04,000,0.04
2009-02-16,0.058,0.058,0.04,0.04,000,0.04
2009-02-13,0.04,0.04,0.04,0.04,37000,0.04
2009-02-12,0.04,0.04,0.04,0.04,000,0.04
2009-02-11,0.04,0.04,0.04,0.04,000,0.04
2009-02-10,0.04,0.04,0.04,0.04,000,0.04
2009-02-09,0.04,0.04,0.04,0.04,000,0.04
2009-02-06,0.04,0.04,0.04,0.04,000,0.04
2009-02-05,0.04,0.04,0.04,0.04,000,0.04
2009-02-04,0.04,0.04,0.04,0.04,000,0.04
2009-02-03,0.04,0.04,0.04,0.04,000,0.04
2009-02-02,0.04,0.04,0.04,0.04,000,0.04
2009-01-30,0.04,0.04,0.04,0.04,000,0.04
2009-01-29,0.04,0.04,0.04,0.04,000,0.04
2009-01-28,0.04,0.04,0.04,0.04,000,0.04
2009-01-27,0.04,0.04,0.04,0.04,000,0.04
2009-01-23,0.04,0.04,0.04,0.04,000,0.04
2009-01-22,0.04,0.04,0.04,0.04,000,0.04
2009-01-21,0.04,0.04,0.04,0.04,000,0.04
2009-01-20,0.04,0.04,0.04,0.04,000,0.04
2009-01-19,0.04,0.04,0.04,0.04,000,0.04
2009-01-16,0.04,0.04,0.04,0.04,000,0.04
2009-01-15,0.04,0.04,0.04,0.04,000,0.04
2009-01-14,0.04,0.04,0.04,0.04,000,0.04
2009-01-13,0.04,0.04,0.04,0.04,000,0.04
2009-01-12,0.04,0.04,0.04,0.04,000,0.04
2009-01-09,0.04,0.04,0.04,0.04,100000,0.04
2009-01-08,0.04,0.04,0.025,0.025,000,0.025
2009-01-07,0.058,0.058,0.025,0.025,000,0.025
2009-01-06,0.058,0.058,0.025,0.025,000,0.025
2009-01-05,0.058,0.058,0.025,0.025,000,0.025
2009-01-02,0.025,0.025,0.025,0.025,10000,0.025
2008-12-31,0.03,0.033,0.03,0.033,355000,0.033
2008-12-30,0.021,0.021,0.021,0.021,000,0.021
2008-12-29,0.021,0.021,0.021,0.021,000,0.021
2008-12-24,0.021,0.021,0.021,0.021,000,0.021
2008-12-23,0.033,0.033,0.021,0.021,000,0.021
2008-12-22,0.035,0.035,0.021,0.021,000,0.021
2008-12-19,0.035,0.035,0.021,0.021,000,0.021
2008-12-18,0.035,0.035,0.021,0.021,000,0.021
2008-12-17,0.035,0.035,0.021,0.021,000,0.021
2008-12-16,0.035,0.035,0.021,0.021,000,0.021
2008-12-15,0.035,0.035,0.021,0.021,000,0.021
2008-12-12,0.035,0.035,0.021,0.021,000,0.021
2008-12-11,0.035,0.035,0.021,0.021,000,0.021
2008-12-10,0.035,0.035,0.021,0.021,000,0.021
2008-12-09,0.035,0.035,0.021,0.021,000,0.021
2008-12-08,0.035,0.035,0.021,0.021,000,0.021
2008-12-05,0.035,0.035,0.021,0.021,000,0.021
2008-12-04,0.021,0.021,0.021,0.021,20000,0.021
2008-12-03,0.036,0.036,0.036,0.036,000,0.036
2008-12-02,0.036,0.036,0.036,0.036,000,0.036
2008-12-01,0.036,0.036,0.036,0.036,000,0.036
2008-11-28,0.036,0.036,0.036,0.036,000,0.036
2008-11-27,0.036,0.036,0.036,0.036,000,0.036
2008-11-26,0.036,0.036,0.036,0.036,000,0.036
2008-11-25,0.036,0.036,0.036,0.036,000,0.036
2008-11-24,0.036,0.036,0.036,0.036,000,0.036
2008-11-21,0.036,0.036,0.036,0.036,000,0.036
2008-11-20,0.036,0.036,0.036,0.036,000,0.036
2008-11-19,0.036,0.036,0.036,0.036,000,0.036
2008-11-18,0.036,0.036,0.036,0.036,13000,0.036
2008-11-17,0.04,0.04,0.04,0.04,000,0.04
2008-11-14,0.04,0.04,0.04,0.04,50000,0.04
2008-11-13,0.036,0.036,0.036,0.036,25000,0.036
2008-11-12,0.036,0.036,0.036,0.036,25000,0.036
2008-11-11,0.058,0.058,0.036,0.036,000,0.036
2008-11-10,0.06,0.06,0.036,0.036,000,0.036
2008-11-07,0.06,0.06,0.036,0.036,000,0.036
2008-11-06,0.06,0.06,0.036,0.036,000,0.036
2008-11-05,0.06,0.06,0.036,0.036,000,0.036
2008-11-04,0.06,0.06,0.036,0.036,000,0.036
2008-11-03,0.06,0.06,0.036,0.036,000,0.036
2008-10-31,0.06,0.06,0.036,0.036,000,0.036
2008-10-30,0.06,0.06,0.036,0.036,000,0.036
2008-10-29,0.06,0.06,0.036,0.036,000,0.036
2008-10-28,0.036,0.036,0.036,0.036,10000,0.036
2008-10-27,0.075,0.075,0.036,0.036,000,0.036
2008-10-24,0.075,0.075,0.036,0.036,000,0.036
2008-10-23,0.036,0.036,0.036,0.036,10000,0.036
2008-10-22,0.031,0.031,0.031,0.031,000,0.031
2008-10-21,0.031,0.031,0.031,0.031,000,0.031
2008-10-20,0.031,0.031,0.031,0.031,000,0.031
2008-10-17,0.031,0.031,0.031,0.031,000,0.031
2008-10-16,0.031,0.031,0.031,0.031,000,0.031
2008-10-15,0.031,0.031,0.031,0.031,000,0.031
2008-10-14,0.031,0.031,0.031,0.031,000,0.031
2008-10-13,0.031,0.031,0.031,0.031,000,0.031
2008-10-10,0.031,0.031,0.031,0.031,000,0.031
2008-10-09,0.045,0.045,0.031,0.031,100000,0.031
2008-10-08,0.03,0.03,0.03,0.03,000,0.03
2008-10-07,0.03,0.03,0.03,0.03,000,0.03
2008-10-06,0.03,0.03,0.03,0.03,000,0.03
2008-10-03,0.03,0.03,0.03,0.03,000,0.03
2008-10-02,0.05,0.05,0.03,0.03,10000,0.03
2008-10-01,0.06,0.06,0.05,0.05,000,0.05
2008-09-30,0.075,0.075,0.05,0.05,000,0.05
2008-09-29,0.075,0.075,0.05,0.05,000,0.05
2008-09-26,0.075,0.075,0.05,0.05,000,0.05
2008-09-25,0.075,0.075,0.05,0.05,000,0.05
2008-09-24,0.075,0.075,0.05,0.05,000,0.05
2008-09-23,0.05,0.05,0.05,0.05,10000,0.05
2008-09-22,0.075,0.075,0.05,0.05,000,0.05
2008-09-19,0.05,0.05,0.05,0.05,137200,0.05
2008-09-18,0.053,0.053,0.05,0.05,162700,0.05
2008-09-17,0.07,0.07,0.07,0.07,000,0.07
2008-09-16,0.07,0.07,0.07,0.07,000,0.07
2008-09-15,0.075,0.075,0.07,0.07,140000,0.07
2008-09-12,0.075,0.075,0.055,0.055,000,0.055
2008-09-11,0.055,0.055,0.055,0.055,10000,0.055
2008-09-10,0.075,0.075,0.055,0.055,000,0.055
2008-09-09,0.055,0.055,0.055,0.055,50000,0.055
2008-09-08,0.075,0.075,0.055,0.055,000,0.055
2008-09-05,0.075,0.075,0.053,0.053,000,0.053
2008-09-04,0.075,0.075,0.053,0.053,000,0.053
2008-09-03,0.075,0.075,0.053,0.053,000,0.053
2008-09-02,0.075,0.075,0.053,0.053,000,0.053
2008-09-01,0.075,0.075,0.053,0.053,000,0.053
2008-08-29,0.075,0.075,0.053,0.053,000,0.053
2008-08-28,0.053,0.053,0.053,0.053,88000,0.053
2008-08-27,0.075,0.075,0.053,0.053,000,0.053
2008-08-26,0.075,0.075,0.053,0.053,000,0.053
2008-08-25,0.075,0.075,0.053,0.053,000,0.053
2008-08-22,0.053,0.053,0.053,0.053,4200,0.053
2008-08-21,0.075,0.075,0.053,0.053,000,0.053
2008-08-20,0.053,0.053,0.053,0.053,75000,0.053
2008-08-19,0.053,0.053,0.053,0.053,10000,0.053
2008-08-18,0.05,0.05,0.05,0.05,000,0.05
2008-08-15,0.05,0.05,0.05,0.05,000,0.05
2008-08-14,0.05,0.05,0.05,0.05,000,0.05
2008-08-13,0.05,0.05,0.05,0.05,000,0.05
2008-08-12,0.05,0.05,0.05,0.05,000,0.05
2008-08-11,0.05,0.05,0.05,0.05,000,0.05
2008-08-08,0.05,0.05,0.05,0.05,000,0.05
2008-08-07,0.075,0.075,0.051,0.051,000,0.051
2008-08-06,0.056,0.058,0.05,0.05,140000,0.05
2008-08-05,0.075,0.075,0.056,0.056,000,0.056
2008-08-04,0.056,0.056,0.056,0.056,10000,0.056
2008-08-01,0.075,0.075,0.056,0.056,000,0.056
2008-07-31,0.075,0.075,0.056,0.056,000,0.056
2008-07-30,0.055,0.055,0.055,0.055,66900,0.055
2008-07-29,0.056,0.07,0.055,0.055,461100,0.055
2008-07-28,0.06,0.06,0.06,0.06,000,0.06
2008-07-25,0.06,0.06,0.06,0.06,000,0.06
2008-07-24,0.06,0.06,0.06,0.06,000,0.06
2008-07-23,0.06,0.06,0.06,0.06,000,0.06
2008-07-22,0.06,0.06,0.06,0.06,000,0.06
2008-07-21,0.06,0.06,0.06,0.06,000,0.06
2008-07-18,0.06,0.06,0.06,0.06,000,0.06
2008-07-17,0.06,0.06,0.06,0.06,100000,0.06
2008-07-16,0.07,0.07,0.06,0.06,304900,0.06
2008-07-15,0.075,0.075,0.075,0.075,23000,0.075
2008-07-14,0.085,0.085,0.085,0.085,000,0.085
2008-07-11,0.085,0.085,0.085,0.085,000,0.085
2008-07-10,0.085,0.085,0.085,0.085,000,0.085
2008-07-09,0.085,0.085,0.085,0.085,000,0.085
2008-07-08,0.085,0.085,0.085,0.085,000,0.085
2008-07-07,0.085,0.085,0.085,0.085,000,0.085
2008-07-04,0.085,0.085,0.085,0.085,000,0.085
2008-07-03,0.086,0.086,0.085,0.085,130000,0.085
2008-07-02,0.10,0.10,0.086,0.086,000,0.086
2008-07-01,0.085,0.085,0.085,0.085,100000,0.085
2008-06-30,0.071,0.071,0.071,0.071,20000,0.071
2008-06-27,0.07,0.075,0.07,0.07,193000,0.07
2008-06-26,0.085,0.085,0.083,0.083,32000,0.083
2008-06-25,0.10,0.10,0.10,0.10,000,0.10
2008-06-24,0.10,0.10,0.10,0.10,000,0.10
2008-06-23,0.10,0.10,0.10,0.10,9000,0.10
2008-06-20,0.083,0.10,0.083,0.10,50000,0.10
2008-06-19,0.07,0.07,0.07,0.07,485000,0.07
2008-06-18,0.10,0.11,0.10,0.10,90000,0.10
2008-06-17,0.10,0.10,0.10,0.10,000,0.10
2008-06-16,0.10,0.10,0.10,0.10,000,0.10
2008-06-13,0.10,0.10,0.10,0.10,000,0.10
2008-06-12,0.10,0.10,0.10,0.10,100000,0.10
2008-06-11,0.10,0.10,0.10,0.10,35000,0.10
2008-06-10,0.125,0.125,0.10,0.10,000,0.10
2008-06-06,0.10,0.10,0.10,0.10,100000,0.10
2008-06-05,0.125,0.125,0.10,0.10,000,0.10
2008-06-04,0.125,0.125,0.10,0.10,000,0.10
2008-06-03,0.125,0.125,0.10,0.10,000,0.10
2008-06-02,0.125,0.125,0.10,0.10,000,0.10
2008-05-30,0.10,0.10,0.10,0.10,10000,0.10
2008-05-29,0.095,0.10,0.095,0.10,20000,0.10
2008-05-28,0.13,0.13,0.095,0.095,000,0.095
2008-05-27,0.09,0.095,0.09,0.095,44400,0.095
2008-05-26,0.09,0.09,0.09,0.09,000,0.09
2008-05-23,0.09,0.09,0.09,0.09,000,0.09
2008-05-22,0.09,0.09,0.09,0.09,000,0.09
2008-05-21,0.09,0.09,0.09,0.09,000,0.09
2008-05-20,0.09,0.09,0.09,0.09,000,0.09
2008-05-19,0.09,0.09,0.09,0.09,000,0.09
2008-05-16,0.09,0.09,0.09,0.09,5600,0.09
2008-05-15,0.10,0.10,0.10,0.10,000,0.10
2008-05-14,0.10,0.10,0.10,0.10,000,0.10
2008-05-13,0.10,0.10,0.10,0.10,000,0.10
2008-05-12,0.10,0.10,0.10,0.10,000,0.10
2008-05-09,0.098,0.10,0.098,0.10,50000,0.10
2008-05-08,0.06,0.06,0.06,0.06,000,0.06
2008-05-07,0.06,0.06,0.06,0.06,000,0.06
2008-05-06,0.06,0.06,0.06,0.06,000,0.06
2008-05-05,0.098,0.098,0.062,0.062,000,0.062
2008-05-02,0.06,0.06,0.06,0.06,50000,0.06
2008-05-01,0.07,0.095,0.06,0.07,125000,0.07
2008-04-30,0.10,0.10,0.10,0.10,000,0.10
2008-04-29,0.10,0.10,0.10,0.10,000,0.10
2008-04-28,0.10,0.10,0.10,0.10,000,0.10
2008-04-24,0.10,0.10,0.10,0.10,000,0.10
2008-04-23,0.10,0.10,0.10,0.10,000,0.10
2008-04-22,0.10,0.10,0.10,0.10,000,0.10
2008-04-21,0.10,0.10,0.10,0.10,000,0.10
2008-04-18,0.10,0.10,0.10,0.10,000,0.10
2008-04-17,0.10,0.10,0.10,0.10,000,0.10
2008-04-16,0.10,0.10,0.10,0.10,000,0.10
2008-04-15,0.10,0.10,0.10,0.10,000,0.10
2008-04-14,0.10,0.10,0.10,0.10,000,0.10
2008-04-11,0.10,0.10,0.10,0.10,3000,0.10
2008-04-10,0.10,0.10,0.10,0.10,12000,0.10
2008-04-09,0.12,0.12,0.10,0.10,000,0.10
2008-04-08,0.12,0.12,0.10,0.10,000,0.10
2008-04-07,0.10,0.10,0.10,0.10,20000,0.10
2008-04-04,0.095,0.099,0.095,0.099,15000,0.099
2008-04-03,0.10,0.10,0.10,0.10,000,0.10
2008-04-02,0.10,0.10,0.10,0.10,000,0.10
2008-04-01,0.10,0.10,0.10,0.10,000,0.10
2008-03-31,0.10,0.10,0.10,0.10,000,0.10
2008-03-28,0.10,0.10,0.10,0.10,000,0.10
2008-03-27,0.099,0.10,0.099,0.10,20000,0.10
2008-03-26,0.10,0.10,0.10,0.10,000,0.10
2008-03-25,0.10,0.10,0.10,0.10,000,0.10
2008-03-20,0.10,0.10,0.10,0.10,000,0.10
2008-03-19,0.10,0.10,0.10,0.10,000,0.10
2008-03-18,0.10,0.10,0.10,0.10,000,0.10
2008-03-17,0.10,0.10,0.10,0.10,000,0.10
2008-03-14,0.10,0.10,0.10,0.10,000,0.10
2008-03-13,0.10,0.10,0.10,0.10,000,0.10
2008-03-12,0.10,0.10,0.10,0.10,000,0.10
2008-03-11,0.10,0.10,0.10,0.10,000,0.10
2008-03-10,0.10,0.10,0.10,0.10,6900,0.10
2008-03-07,0.105,0.105,0.10,0.10,000,0.10
2008-03-06,0.105,0.105,0.10,0.10,000,0.10
2008-03-05,0.105,0.105,0.10,0.10,000,0.10
2008-03-04,0.105,0.105,0.10,0.10,000,0.10
2008-03-03,0.105,0.105,0.10,0.10,000,0.10
2008-02-29,0.105,0.105,0.10,0.10,000,0.10
2008-02-28,0.10,0.10,0.10,0.10,10000,0.10
2008-02-27,0.105,0.105,0.105,0.105,000,0.105
2008-02-26,0.105,0.105,0.105,0.105,000,0.105
2008-02-25,0.105,0.105,0.105,0.105,60000,0.105
2008-02-22,0.12,0.12,0.12,0.12,000,0.12
2008-02-21,0.12,0.12,0.12,0.12,000,0.12
2008-02-20,0.12,0.12,0.12,0.12,000,0.12
2008-02-19,0.12,0.12,0.12,0.12,000,0.12
2008-02-18,0.12,0.12,0.12,0.12,10000,0.12
2008-02-15,0.10,0.10,0.10,0.10,33000,0.10
2008-02-14,0.08,0.08,0.07,0.071,80000,0.071
2008-02-13,0.09,0.09,0.09,0.09,000,0.09
2008-02-12,0.09,0.09,0.09,0.09,000,0.09
2008-02-11,0.09,0.09,0.09,0.09,5000,0.09
2008-02-08,0.09,0.09,0.09,0.09,20000,0.09
2008-02-07,0.10,0.10,0.10,0.10,000,0.10
2008-02-06,0.10,0.10,0.10,0.10,000,0.10
2008-02-05,0.10,0.10,0.10,0.10,1900,0.10
2008-02-04,0.10,0.10,0.10,0.10,25000,0.10
2008-02-01,0.099,0.10,0.099,0.10,23000,0.10
2008-01-31,0.09,0.09,0.09,0.09,10000,0.09
2008-01-30,0.10,0.10,0.10,0.10,000,0.10
2008-01-29,0.10,0.10,0.10,0.10,000,0.10
2008-01-25,0.10,0.10,0.10,0.10,000,0.10
2008-01-24,0.10,0.10,0.10,0.10,000,0.10
2008-01-23,0.10,0.10,0.10,0.10,000,0.10
2008-01-22,0.10,0.10,0.10,0.10,000,0.10
2008-01-21,0.10,0.10,0.10,0.10,000,0.10
2008-01-18,0.10,0.10,0.10,0.10,60000,0.10
2008-01-17,0.10,0.10,0.085,0.085,000,0.085
2008-01-16,0.10,0.10,0.085,0.085,000,0.085
2008-01-15,0.085,0.085,0.085,0.085,25000,0.085
2008-01-14,0.11,0.11,0.11,0.11,000,0.11
2008-01-11,0.11,0.11,0.11,0.11,100000,0.11
2008-01-10,0.11,0.11,0.09,0.09,225000,0.09
2008-01-09,0.13,0.13,0.11,0.11,000,0.11
2008-01-08,0.14,0.14,0.11,0.11,000,0.11
2008-01-07,0.11,0.11,0.11,0.11,25000,0.11
2008-01-04,0.11,0.11,0.11,0.11,75000,0.11
2008-01-03,0.10,0.10,0.10,0.10,140500,0.10
2008-01-02,0.10,0.10,0.10,0.10,9500,0.10
2007-12-31,0.105,0.105,0.105,0.105,000,0.105
2007-12-28,0.105,0.105,0.105,0.105,000,0.105
2007-12-27,0.12,0.12,0.105,0.105,000,0.105
2007-12-24,0.105,0.105,0.105,0.105,35000,0.105
2007-12-21,0.10,0.10,0.10,0.10,000,0.10
2007-12-20,0.10,0.10,0.10,0.10,000,0.10
2007-12-19,0.10,0.10,0.10,0.10,000,0.10
2007-12-18,0.10,0.10,0.10,0.10,5500,0.10
2007-12-17,0.125,0.125,0.125,0.125,000,0.125
2007-12-14,0.125,0.125,0.125,0.125,000,0.125
2007-12-13,0.125,0.125,0.125,0.125,10000,0.125
2007-12-12,0.11,0.11,0.11,0.11,000,0.11
2007-12-11,0.11,0.11,0.11,0.11,000,0.11
2007-12-10,0.11,0.11,0.11,0.11,000,0.11
2007-12-07,0.11,0.11,0.11,0.11,5000,0.11
2007-12-06,0.14,0.14,0.11,0.11,000,0.11
2007-12-05,0.11,0.11,0.11,0.11,20000,0.11
2007-12-04,0.15,0.15,0.11,0.11,000,0.11
2007-12-03,0.12,0.12,0.11,0.11,40000,0.11
2007-11-30,0.12,0.12,0.12,0.12,000,0.12
2007-11-29,0.12,0.12,0.12,0.12,000,0.12
2007-11-28,0.12,0.12,0.12,0.12,10000,0.12
2007-11-27,0.12,0.12,0.12,0.12,000,0.12
2007-11-26,0.12,0.12,0.12,0.12,000,0.12
2007-11-23,0.12,0.12,0.12,0.12,000,0.12
2007-11-22,0.125,0.125,0.12,0.12,124900,0.12
2007-11-21,0.13,0.13,0.125,0.125,125000,0.125
2007-11-20,0.15,0.15,0.13,0.13,000,0.13
2007-11-19,0.13,0.13,0.13,0.13,50000,0.13
2007-11-16,0.15,0.15,0.13,0.13,000,0.13
2007-11-15,0.13,0.13,0.13,0.13,90000,0.13
2007-11-14,0.15,0.15,0.13,0.13,000,0.13
2007-11-13,0.15,0.15,0.13,0.13,000,0.13
2007-11-12,0.15,0.15,0.13,0.13,000,0.13
2007-11-09,0.15,0.15,0.13,0.13,000,0.13
2007-11-08,0.13,0.13,0.13,0.13,10000,0.13
2007-11-07,0.135,0.135,0.135,0.135,75800,0.135
2007-11-06,0.15,0.15,0.135,0.135,17000,0.135
2007-11-05,0.145,0.145,0.145,0.145,20000,0.145
2007-11-02,0.15,0.15,0.15,0.15,000,0.15
2007-11-01,0.15,0.15,0.15,0.15,47500,0.15
2007-10-31,0.15,0.15,0.15,0.15,150000,0.15
2007-10-30,0.135,0.135,0.135,0.135,100,0.135
2007-10-29,0.13,0.135,0.13,0.135,14000,0.135
2007-10-26,0.13,0.13,0.125,0.125,50000,0.125
2007-10-25,0.135,0.135,0.13,0.13,000,0.13
2007-10-24,0.135,0.135,0.13,0.13,000,0.13
2007-10-23,0.13,0.13,0.13,0.13,20000,0.13
2007-10-22,0.135,0.135,0.13,0.13,000,0.13
2007-10-19,0.135,0.135,0.13,0.13,000,0.13
2007-10-18,0.13,0.13,0.13,0.13,30000,0.13
2007-10-17,0.135,0.135,0.13,0.13,65000,0.13
2007-10-16,0.135,0.135,0.135,0.135,20000,0.135
2007-10-15,0.13,0.13,0.13,0.13,30000,0.13
2007-10-12,0.125,0.125,0.125,0.125,10000,0.125
2007-10-11,0.135,0.135,0.135,0.135,000,0.135
2007-10-10,0.125,0.135,0.125,0.135,22500,0.135
2007-10-09,0.125,0.125,0.125,0.125,15500,0.125
2007-10-08,0.125,0.125,0.125,0.125,5000,0.125
2007-10-05,0.13,0.13,0.125,0.125,000,0.125
2007-10-04,0.13,0.13,0.125,0.125,000,0.125
2007-10-03,0.13,0.13,0.125,0.125,90000,0.125
2007-10-02,0.13,0.13,0.13,0.13,18000,0.13
2007-10-01,0.135,0.135,0.135,0.135,10000,0.135
2007-09-28,0.13,0.13,0.13,0.13,10000,0.13
2007-09-27,0.135,0.135,0.125,0.125,000,0.125
2007-09-26,0.135,0.135,0.125,0.125,000,0.125
2007-09-25,0.125,0.125,0.125,0.125,10000,0.125
2007-09-24,0.12,0.12,0.115,0.115,35000,0.115
2007-09-21,0.135,0.135,0.135,0.135,000,0.135
2007-09-20,0.135,0.135,0.135,0.135,000,0.135
2007-09-19,0.135,0.135,0.135,0.135,000,0.135
2007-09-18,0.125,0.135,0.125,0.135,20000,0.135
2007-09-17,0.135,0.135,0.115,0.115,000,0.115
2007-09-14,0.135,0.135,0.11,0.11,000,0.11
2007-09-13,0.135,0.135,0.11,0.11,000,0.11
2007-09-12,0.115,0.115,0.11,0.11,10000,0.11
2007-09-11,0.115,0.115,0.115,0.115,9800,0.115
2007-09-10,0.115,0.115,0.115,0.115,70200,0.115
2007-09-07,0.11,0.11,0.11,0.11,000,0.11
2007-09-06,0.115,0.115,0.11,0.11,70000,0.11
2007-09-05,0.12,0.12,0.115,0.115,000,0.115
2007-09-04,0.12,0.12,0.115,0.115,000,0.115
2007-09-03,0.105,0.11,0.10,0.11,70000,0.11
2007-08-31,0.125,0.125,0.10,0.10,000,0.10
2007-08-30,0.12,0.12,0.10,0.10,35000,0.10
2007-08-29,0.13,0.13,0.13,0.13,000,0.13
2007-08-28,0.13,0.13,0.13,0.13,5000,0.13
2007-08-27,0.13,0.13,0.13,0.13,11400,0.13
2007-08-24,0.13,0.13,0.13,0.13,10000,0.13
2007-08-23,0.12,0.13,0.12,0.13,20000,0.13
2007-08-22,0.12,0.125,0.12,0.125,221000,0.125
2007-08-21,0.125,0.125,0.125,0.125,40000,0.125
2007-08-20,0.14,0.14,0.125,0.125,35000,0.125
2007-08-17,0.125,0.14,0.125,0.14,50000,0.14
2007-08-16,0.125,0.125,0.125,0.125,10000,0.125
2007-08-15,0.15,0.15,0.15,0.15,15000,0.15
2007-08-14,0.15,0.15,0.15,0.15,15000,0.15
2007-08-13,0.17,0.17,0.13,0.15,82700,0.15
2007-08-10,0.18,0.18,0.145,0.17,411200,0.17
