Date,Open,High,Low,Close,Volume,Adj Close
2017-01-10,1.59,1.60,1.54,1.59,95600,1.59
2017-01-09,1.515,1.57,1.515,1.57,105800,1.57
2017-01-06,1.53,1.53,1.52,1.52,5500,1.52
2017-01-05,1.52,1.54,1.52,1.54,52300,1.54
2017-01-04,1.505,1.505,1.50,1.50,19100,1.50
2017-01-03,1.53,1.53,1.50,1.52,54500,1.52
2017-01-02,1.51,1.51,1.51,1.51,000,1.51
2016-12-30,1.50,1.51,1.50,1.51,28600,1.51
2016-12-29,1.53,1.53,1.49,1.50,26400,1.50
2016-12-28,1.47,1.50,1.46,1.50,53900,1.50
2016-12-27,1.48,1.48,1.48,1.48,000,1.48
2016-12-26,1.48,1.48,1.48,1.48,000,1.48
2016-12-23,1.52,1.52,1.48,1.48,6000,1.48
2016-12-22,1.50,1.50,1.495,1.495,21100,1.495
2016-12-21,1.53,1.54,1.50,1.50,744500,1.50
2016-12-20,1.44,1.535,1.435,1.52,135300,1.52
2016-12-19,1.425,1.425,1.40,1.40,14600,1.40
2016-12-16,1.425,1.43,1.40,1.40,31700,1.40
2016-12-15,1.40,1.43,1.40,1.43,62700,1.43
2016-12-14,1.40,1.40,1.38,1.40,23900,1.40
2016-12-13,1.39,1.39,1.38,1.38,22800,1.38
2016-12-12,1.30,1.40,1.30,1.39,92300,1.39
2016-12-09,1.30,1.30,1.30,1.30,82900,1.30
2016-12-08,1.30,1.30,1.30,1.30,65700,1.30
2016-12-07,1.265,1.265,1.265,1.265,1000,1.265
2016-12-06,1.23,1.23,1.23,1.23,000,1.23
2016-12-05,1.23,1.23,1.23,1.23,000,1.23
2016-12-02,1.35,1.35,1.23,1.23,88500,1.23
2016-12-01,1.22,1.35,1.22,1.285,66600,1.285
2016-11-30,1.22,1.22,1.22,1.22,000,1.22
2016-11-29,1.20,1.25,1.20,1.22,40000,1.22
2016-11-28,1.25,1.25,1.25,1.25,12000,1.25
2016-11-25,1.17,1.25,1.17,1.25,60200,1.25
2016-11-24,1.14,1.17,1.14,1.17,9000,1.17
2016-11-23,1.14,1.14,1.14,1.14,18800,1.14
2016-11-22,1.14,1.14,1.14,1.14,000,1.14
2016-11-21,1.14,1.14,1.14,1.14,5000,1.14
2016-11-18,1.10,1.16,1.10,1.16,28000,1.16
2016-11-17,1.10,1.10,1.07,1.075,11200,1.075
2016-11-16,1.16,1.16,1.16,1.16,000,1.16
2016-11-15,1.16,1.17,1.16,1.16,21300,1.16
2016-11-14,1.16,1.16,1.16,1.16,000,1.16
2016-11-11,1.125,1.16,1.12,1.16,21300,1.16
2016-11-10,1.08,1.08,1.08,1.08,000,1.08
2016-11-09,1.08,1.08,1.08,1.08,000,1.08
2016-11-08,1.08,1.08,1.08,1.08,4500,1.08
2016-11-07,1.195,1.195,1.195,1.195,000,1.195
2016-11-04,1.195,1.195,1.195,1.195,000,1.195
2016-11-03,1.195,1.195,1.195,1.195,000,1.195
2016-11-02,1.195,1.195,1.195,1.195,000,1.195
2016-11-01,1.195,1.195,1.195,1.195,000,1.195
2016-10-31,1.195,1.195,1.195,1.195,000,1.195
2016-10-28,1.195,1.195,1.195,1.195,000,1.195
2016-10-27,1.20,1.20,1.195,1.195,4300,1.195
2016-10-26,1.18,1.20,1.15,1.20,38500,1.20
2016-10-25,1.185,1.185,1.185,1.185,000,1.185
2016-10-24,1.185,1.185,1.185,1.185,000,1.185
2016-10-21,1.185,1.185,1.185,1.185,000,1.185
2016-10-20,1.16,1.185,1.16,1.185,4100,1.185
2016-10-19,1.20,1.20,1.20,1.20,000,1.20
2016-10-18,1.20,1.20,1.20,1.20,000,1.20
2016-10-17,1.20,1.20,1.20,1.20,000,1.20
2016-10-14,1.20,1.20,1.20,1.20,12500,1.20
2016-10-13,1.19,1.20,1.19,1.20,29600,1.20
2016-10-12,1.15,1.20,1.15,1.20,18100,1.20
2016-10-11,1.12,1.21,1.11,1.21,53000,1.21
2016-10-10,1.09,1.12,1.09,1.12,10400,1.12
2016-10-07,1.065,1.065,1.065,1.065,2600,1.065
2016-10-06,1.06,1.06,1.06,1.06,000,1.06
2016-10-05,1.06,1.06,1.06,1.06,000,1.06
2016-10-04,1.06,1.06,1.06,1.06,000,1.06
2016-10-03,1.06,1.06,1.06,1.06,000,1.06
2016-09-30,1.06,1.06,1.06,1.06,000,1.06
2016-09-29,1.07,1.10,1.06,1.06,57300,1.06
2016-09-28,1.10,1.10,1.10,1.10,000,1.10
2016-09-27,1.10,1.10,1.10,1.10,000,1.10
2016-09-26,1.10,1.10,1.10,1.10,000,1.10
2016-09-23,1.085,1.10,1.085,1.10,20000,1.10
2016-09-22,1.07,1.08,1.07,1.08,23200,1.08
2016-09-21,1.07,1.07,1.07,1.07,10000,1.07
2016-09-20,1.05,1.05,1.05,1.05,15000,1.05
2016-09-19,1.08,1.08,1.08,1.08,000,1.08
2016-09-16,1.08,1.08,1.08,1.08,4100,1.08
2016-09-15,1.08,1.08,1.08,1.08,000,1.08
2016-09-14,1.08,1.10,1.08,1.08,29800,1.08
2016-09-13,1.13,1.13,1.13,1.13,000,1.13
2016-09-12,1.13,1.13,1.13,1.13,000,1.13
2016-09-09,1.13,1.13,1.13,1.13,15400,1.13
2016-09-08,1.13,1.15,1.13,1.13,9800,1.13
2016-09-07,1.15,1.15,1.13,1.13,24700,1.13
2016-09-06,1.15,1.15,1.08,1.08,33800,1.08
2016-09-05,1.23,1.23,1.10,1.16,27800,1.16
2016-09-02,1.26,1.26,1.26,1.26,000,1.26
2016-09-01,1.26,1.26,1.26,1.26,000,1.26
2016-08-31,1.26,1.26,1.26,1.26,000,1.26
2016-08-30,1.26,1.26,1.26,1.26,000,1.26
2016-08-29,1.26,1.26,1.26,1.26,3200,1.26
2016-08-26,1.24,1.27,1.24,1.27,39100,1.27
2016-08-25,1.21,1.21,1.10,1.10,29100,1.10
2016-08-24,1.23,1.25,1.21,1.21,32700,1.21
2016-08-23,1.24,1.24,1.24,1.24,000,1.24
2016-08-22,1.24,1.24,1.24,1.24,000,1.24
2016-08-19,1.22,1.24,1.22,1.24,12500,1.24
2016-08-18,1.18,1.18,1.17,1.17,31000,1.17
2016-08-17,1.22,1.22,1.18,1.18,47000,1.18
2016-08-16,1.18,1.24,1.18,1.24,90000,1.24
2016-08-15,1.14,1.18,1.14,1.17,12400,1.17
2016-08-12,1.145,1.145,1.14,1.14,15300,1.14
2016-08-11,1.15,1.15,1.15,1.15,22500,1.15
2016-08-10,1.12,1.15,1.12,1.15,19100,1.15
2016-08-09,1.12,1.12,1.12,1.12,8900,1.12
2016-08-08,1.10,1.10,1.10,1.10,000,1.10
2016-08-05,1.10,1.10,1.10,1.10,10000,1.10
2016-08-04,1.06,1.14,1.06,1.14,18400,1.14
2016-08-03,1.02,1.02,1.02,1.02,7100,1.02
2016-08-02,1.00,1.01,1.00,1.01,21100,1.01
2016-08-01,0.98,0.98,0.98,0.98,200,0.98
2016-07-29,0.99,0.99,0.99,0.99,14700,0.99
2016-07-28,1.00,1.00,1.00,1.00,6300,1.00
2016-07-27,0.99,1.00,0.96,1.00,45000,1.00
2016-07-26,0.985,0.985,0.985,0.985,000,0.985
2016-07-25,0.985,0.985,0.985,0.985,000,0.985
2016-07-22,0.985,0.985,0.985,0.985,000,0.985
2016-07-21,0.95,0.985,0.89,0.985,21900,0.985
2016-07-20,0.96,0.96,0.96,0.96,000,0.96
2016-07-19,0.96,0.96,0.96,0.96,000,0.96
2016-07-18,0.96,0.96,0.96,0.96,1500,0.96
2016-07-15,0.88,0.88,0.88,0.88,10500,0.88
2016-07-14,0.96,0.96,0.96,0.96,900,0.96
2016-07-13,0.94,0.96,0.94,0.96,15600,0.96
2016-07-12,0.94,0.94,0.94,0.94,10000,0.94
2016-07-11,0.94,0.94,0.88,0.94,33100,0.94
2016-07-08,0.905,0.905,0.905,0.905,1800,0.905
2016-07-07,0.92,0.92,0.92,0.92,000,0.92
2016-07-06,0.93,0.93,0.92,0.92,35000,0.92
2016-07-05,0.95,0.95,0.95,0.95,000,0.95
2016-07-04,0.95,0.95,0.95,0.95,25000,0.95
2016-07-01,0.95,0.95,0.95,0.95,10000,0.95
2016-06-30,0.93,0.95,0.93,0.95,7500,0.95
2016-06-29,0.94,0.94,0.94,0.94,000,0.94
2016-06-28,0.94,0.94,0.94,0.94,000,0.94
2016-06-27,0.94,0.94,0.94,0.94,000,0.94
2016-06-24,0.94,0.94,0.94,0.94,000,0.94
2016-06-23,0.94,0.94,0.94,0.94,000,0.94
2016-06-22,0.94,0.94,0.94,0.94,000,0.94
2016-06-21,0.94,0.94,0.94,0.94,5400,0.94
2016-06-20,0.95,0.95,0.95,0.95,9500,0.95
2016-06-17,0.95,0.95,0.95,0.95,000,0.95
2016-06-16,0.97,0.97,0.95,0.95,34400,0.95
2016-06-15,0.98,0.98,0.98,0.98,000,0.98
2016-06-14,0.98,0.98,0.98,0.98,000,0.98
2016-06-13,0.98,0.98,0.98,0.98,000,0.98
2016-06-10,0.98,0.98,0.98,0.98,000,0.98
2016-06-09,0.98,0.98,0.98,0.98,000,0.98
2016-06-08,0.98,0.98,0.98,0.98,000,0.98
2016-06-07,0.98,0.98,0.98,0.98,000,0.98
2016-06-06,0.98,0.98,0.98,0.98,000,0.98
2016-06-03,0.98,0.98,0.98,0.98,000,0.98
2016-06-02,0.98,0.98,0.98,0.98,000,0.98
2016-06-01,0.98,0.98,0.98,0.98,000,0.98
2016-05-31,0.98,0.98,0.98,0.98,000,0.98
2016-05-30,0.98,0.98,0.98,0.98,000,0.98
2016-05-27,0.98,0.98,0.98,0.98,4100,0.98
2016-05-26,0.98,0.98,0.98,0.98,000,0.98
2016-05-25,0.98,0.98,0.98,0.98,000,0.98
2016-05-24,0.98,0.98,0.98,0.98,000,0.98
2016-05-23,0.98,0.98,0.98,0.98,000,0.98
2016-05-20,0.98,0.98,0.98,0.98,000,0.98
2016-05-19,0.98,0.98,0.98,0.98,5100,0.98
2016-05-18,0.98,0.98,0.98,0.98,000,0.98
2016-05-17,0.98,0.98,0.98,0.98,000,0.98
2016-05-16,0.98,0.98,0.98,0.98,000,0.98
2016-05-13,0.97,0.98,0.96,0.98,14400,0.98
2016-05-12,0.97,0.97,0.97,0.97,1000,0.97
2016-05-11,0.97,0.97,0.97,0.97,000,0.97
2016-05-10,0.97,0.97,0.97,0.97,7000,0.97
2016-05-09,0.97,0.97,0.97,0.97,000,0.97
2016-05-06,0.97,0.97,0.97,0.97,000,0.97
2016-05-05,0.97,0.97,0.97,0.97,5000,0.97
2016-05-04,0.98,0.98,0.98,0.98,000,0.98
2016-05-03,0.98,0.98,0.98,0.98,000,0.98
2016-05-02,0.99,0.99,0.98,0.98,3000,0.98
2016-04-29,0.99,0.99,0.99,0.99,000,0.99
2016-04-28,0.99,0.99,0.99,0.99,000,0.99
2016-04-27,0.99,0.99,0.99,0.99,000,0.99
2016-04-26,0.99,0.99,0.99,0.99,900,0.99
2016-04-25,0.98,0.98,0.98,0.98,000,0.98
2016-04-22,0.98,0.98,0.98,0.98,5000,0.98
2016-04-21,1.00,1.00,1.00,1.00,000,1.00
2016-04-20,0.99,1.00,0.99,1.00,10000,1.00
2016-04-19,0.99,0.99,0.99,0.99,500,0.99
2016-04-18,0.99,0.99,0.98,0.98,5200,0.98
2016-04-15,0.995,0.995,0.995,0.995,000,0.995
2016-04-14,0.99,0.995,0.99,0.995,20000,0.995
2016-04-13,0.98,0.98,0.98,0.98,000,0.98
2016-04-12,0.98,0.98,0.98,0.98,000,0.98
2016-04-11,0.98,0.98,0.98,0.98,000,0.98
2016-04-08,0.995,0.995,0.98,0.98,6000,0.98
2016-04-07,1.00,1.00,1.00,1.00,000,1.00
2016-04-06,1.00,1.00,1.00,1.00,000,1.00
2016-04-05,1.00,1.00,1.00,1.00,000,1.00
2016-04-04,1.00,1.00,1.00,1.00,1100,1.00
2016-04-01,1.00,1.00,1.00,1.00,000,1.00
2016-03-31,0.97,1.00,0.97,1.00,14000,1.00
2016-03-30,0.96,0.96,0.96,0.96,000,0.96
2016-03-29,0.965,0.965,0.96,0.96,2500,0.96
2016-03-28,1.04,1.04,1.04,1.04,000,1.04
2016-03-25,1.04,1.04,1.04,1.04,000,1.04
2016-03-24,1.00,1.04,1.00,1.04,6400,1.04
2016-03-23,0.96,0.96,0.96,0.96,000,0.96
2016-03-22,0.96,0.96,0.96,0.96,000,0.96
2016-03-21,0.96,0.96,0.96,0.96,000,0.96
2016-03-18,0.96,0.96,0.96,0.96,000,0.96
2016-03-17,0.96,0.96,0.96,0.96,000,0.96
2016-03-16,0.96,0.96,0.96,0.96,000,0.96
2016-03-15,0.96,0.96,0.96,0.96,000,0.96
2016-03-14,1.00,1.00,0.96,0.96,6100,0.96
2016-03-11,1.00,1.00,1.00,1.00,9800,1.00
2016-03-10,1.00,1.00,1.00,1.00,000,1.00
2016-03-09,1.00,1.00,1.00,1.00,000,1.00
2016-03-08,1.00,1.00,1.00,1.00,000,1.00
2016-03-07,1.00,1.00,1.00,1.00,000,1.00
2016-03-04,1.00,1.00,1.00,1.00,000,1.00
2016-03-03,1.00,1.00,1.00,1.00,000,1.00
2016-03-02,1.00,1.00,1.00,1.00,000,1.00
2016-03-01,1.00,1.00,1.00,1.00,000,1.00
2016-02-29,1.00,1.00,1.00,1.00,000,1.00
2016-02-26,1.00,1.00,1.00,1.00,000,1.00
2016-02-25,1.00,1.00,1.00,1.00,4800,1.00
2016-02-24,0.97,0.97,0.97,0.97,100,0.97
2016-02-23,1.05,1.05,1.05,1.05,000,1.05
2016-02-22,1.05,1.05,1.05,1.05,759000,1.05
2016-02-19,1.10,1.10,1.10,1.10,6700,1.10
2016-02-18,1.05,1.10,1.05,1.05,7600,1.05
2016-02-17,1.10,1.10,1.10,1.10,000,1.10
2016-02-16,1.10,1.10,1.10,1.10,000,1.10
2016-02-15,1.10,1.10,1.10,1.10,000,1.10
2016-02-12,1.10,1.10,1.10,1.10,000,1.10
2016-02-11,1.10,1.10,1.10,1.10,000,1.10
2016-02-10,1.10,1.10,1.10,1.10,3300,1.10
2016-02-09,1.10,1.14,1.10,1.14,2500,1.14
2016-02-08,1.05,1.10,1.05,1.10,4100,1.10
