Date,Open,High,Low,Close,Volume,Adj Close
2017-01-10,2.81,2.81,2.77,2.79,241300,2.79
2017-01-09,2.79,2.80,2.78,2.80,157000,2.80
2017-01-06,2.80,2.805,2.78,2.79,101000,2.79
2017-01-05,2.82,2.82,2.79,2.80,103900,2.80
2017-01-04,2.82,2.83,2.78,2.80,462700,2.80
2017-01-03,2.85,2.85,2.80,2.81,122800,2.81
2017-01-02,2.84,2.84,2.84,2.84,000,2.84
2016-12-30,2.78,2.86,2.76,2.84,326400,2.84
2016-12-29,2.82,2.82,2.73,2.79,367400,2.79
2016-12-28,2.87,2.95,2.87,2.92,298200,2.698
2016-12-27,2.82,2.82,2.82,2.82,000,2.6056
2016-12-26,2.82,2.82,2.82,2.82,000,2.6056
2016-12-23,2.89,2.89,2.81,2.82,423500,2.6056
2016-12-22,2.76,2.88,2.75,2.83,620400,2.6148
2016-12-21,2.72,2.75,2.71,2.74,341500,2.5317
2016-12-20,2.72,2.72,2.68,2.70,2943800,2.4947
2016-12-19,2.72,2.73,2.69,2.69,227100,2.4855
2016-12-16,2.75,2.76,2.71,2.72,451400,2.5132
2016-12-15,2.75,2.76,2.71,2.74,183400,2.5317
2016-12-14,2.75,2.78,2.72,2.74,726400,2.5317
2016-12-13,2.78,2.79,2.70,2.74,406900,2.5317
2016-12-12,2.73,2.83,2.73,2.78,112600,2.5686
2016-12-09,2.74,2.77,2.73,2.73,298500,2.5224
2016-12-08,2.74,2.75,2.71,2.71,225300,2.504
2016-12-07,2.70,2.75,2.70,2.71,81600,2.504
2016-12-06,2.69,2.76,2.69,2.71,274100,2.504
2016-12-05,2.72,2.74,2.685,2.69,126800,2.4855
2016-12-02,2.71,2.77,2.70,2.72,61300,2.5132
2016-12-01,2.69,2.75,2.69,2.70,64500,2.4947
2016-11-30,2.74,2.78,2.69,2.69,229900,2.4855
2016-11-29,2.71,2.76,2.70,2.72,487900,2.5132
2016-11-28,2.72,2.73,2.69,2.70,320100,2.4947
2016-11-25,2.73,2.76,2.70,2.72,215000,2.5132
2016-11-24,2.70,2.74,2.69,2.69,255400,2.4855
2016-11-23,2.73,2.74,2.68,2.69,218400,2.4855
2016-11-22,2.75,2.75,2.68,2.68,185100,2.4762
2016-11-21,2.70,2.74,2.68,2.72,86700,2.5132
2016-11-18,2.65,2.68,2.64,2.68,150400,2.4762
2016-11-17,2.63,2.66,2.62,2.64,461100,2.4393
2016-11-16,2.64,2.64,2.61,2.62,461400,2.4208
2016-11-15,2.65,2.65,2.58,2.61,658900,2.4116
2016-11-14,2.70,2.70,2.61,2.64,347900,2.4393
2016-11-11,2.72,2.76,2.61,2.65,507800,2.4485
2016-11-10,2.85,2.86,2.70,2.71,311500,2.504
2016-11-09,2.82,2.84,2.74,2.77,393100,2.5594
2016-11-08,2.80,2.87,2.78,2.81,282900,2.5964
2016-11-07,2.78,2.89,2.75,2.78,305600,2.5686
2016-11-04,2.78,2.84,2.78,2.78,83800,2.5686
2016-11-03,2.80,2.83,2.78,2.78,179200,2.5686
2016-11-02,2.80,2.85,2.78,2.82,155100,2.6056
2016-11-01,2.80,2.87,2.80,2.83,170100,2.6148
2016-10-31,2.79,2.87,2.77,2.82,179000,2.6056
2016-10-28,2.90,2.90,2.79,2.79,213700,2.5779
2016-10-27,2.85,2.90,2.83,2.84,165000,2.6241
2016-10-26,2.90,2.90,2.81,2.84,111600,2.6241
2016-10-25,2.86,2.90,2.82,2.85,137800,2.6333
2016-10-24,2.87,2.90,2.80,2.80,281300,2.5871
2016-10-21,2.88,2.88,2.85,2.86,105100,2.6426
2016-10-20,2.88,2.91,2.82,2.88,244700,2.661
2016-10-19,2.85,2.895,2.82,2.86,125200,2.6426
2016-10-18,2.86,2.86,2.82,2.82,332100,2.6056
2016-10-17,2.90,2.90,2.85,2.85,147500,2.6333
2016-10-14,2.89,2.905,2.86,2.87,1028200,2.6518
2016-10-13,2.90,2.91,2.85,2.85,187300,2.6333
2016-10-12,2.93,2.94,2.89,2.89,175200,2.6703
2016-10-11,2.99,3.03,2.88,2.91,245600,2.6888
2016-10-10,3.02,3.03,2.95,2.99,358400,2.7627
2016-10-07,3.04,3.04,2.99,2.99,131700,2.7627
2016-10-06,3.00,3.04,2.99,3.01,157100,2.7812
2016-10-05,3.03,3.03,2.99,2.99,156700,2.7627
2016-10-04,3.03,3.04,2.99,2.99,153400,2.7627
2016-10-03,3.08,3.10,3.00,3.02,81900,2.7904
2016-09-30,3.05,3.06,2.99,3.00,284700,2.7719
2016-09-29,3.07,3.11,3.02,3.08,74700,2.8458
2016-09-28,3.07,3.13,3.065,3.08,76700,2.8458
2016-09-27,3.04,3.06,3.03,3.06,51900,2.8274
2016-09-26,3.00,3.06,3.00,3.03,62200,2.7996
2016-09-23,3.05,3.07,2.99,2.99,267900,2.7627
2016-09-22,3.03,3.07,3.02,3.05,94000,2.8181
2016-09-21,3.03,3.09,2.98,3.00,124500,2.7719
2016-09-20,3.09,3.13,3.01,3.01,244100,2.7812
2016-09-19,3.15,3.15,3.06,3.10,4800,2.8643
2016-09-16,3.04,3.16,3.035,3.16,260500,2.9198
2016-09-15,2.98,3.04,2.97,3.03,86800,2.7996
2016-09-14,3.01,3.05,3.00,3.00,288200,2.7719
2016-09-13,2.98,3.02,2.91,3.02,108900,2.7904
2016-09-12,3.03,3.05,2.975,3.00,271300,2.7719
2016-09-09,3.13,3.13,3.02,3.05,62200,2.8181
2016-09-08,3.08,3.12,3.05,3.05,177400,2.8181
2016-09-07,3.09,3.15,3.08,3.10,307500,2.8643
2016-09-06,3.11,3.14,3.08,3.08,44500,2.8458
2016-09-05,3.13,3.14,3.06,3.11,448400,2.8736
2016-09-02,3.15,3.15,3.05,3.05,613500,2.8181
2016-09-01,3.14,3.18,3.11,3.13,78900,2.892
2016-08-31,3.18,3.19,3.12,3.12,45100,2.8828
2016-08-30,3.20,3.20,3.14,3.15,132000,2.9105
2016-08-29,3.19,3.19,3.11,3.15,106300,2.9105
2016-08-26,3.15,3.20,3.15,3.16,130300,2.9198
2016-08-25,3.12,3.17,3.05,3.13,104400,2.892
2016-08-24,3.10,3.15,3.00,3.04,228500,2.8089
2016-08-23,3.08,3.16,3.08,3.16,60400,2.9198
2016-08-22,3.17,3.17,3.02,3.15,69900,2.9105
2016-08-19,3.17,3.17,3.10,3.12,107400,2.8828
2016-08-18,3.14,3.16,3.10,3.16,100500,2.9198
2016-08-17,3.16,3.16,3.10,3.13,104100,2.892
2016-08-16,3.18,3.18,3.12,3.16,50500,2.9198
2016-08-15,3.20,3.20,3.12,3.12,65000,2.8828
2016-08-12,3.14,3.19,3.10,3.19,79200,2.9475
2016-08-11,3.14,3.18,3.11,3.13,39500,2.892
2016-08-10,3.15,3.15,3.06,3.14,40600,2.9013
2016-08-09,3.15,3.17,3.06,3.07,190100,2.8366
2016-08-08,3.09,3.16,3.09,3.15,117600,2.9105
2016-08-05,3.11,3.11,3.06,3.10,41900,2.8643
2016-08-04,3.07,3.085,3.04,3.05,60800,2.8181
2016-08-03,3.06,3.10,3.03,3.07,63800,2.8366
2016-08-02,3.10,3.14,3.09,3.09,86500,2.8551
2016-08-01,3.11,3.15,3.10,3.11,67200,2.8736
2016-07-29,3.12,3.16,3.10,3.10,63400,2.8643
2016-07-28,3.14,3.18,3.11,3.11,56100,2.8736
2016-07-27,3.18,3.18,3.11,3.11,56000,2.8736
2016-07-26,3.14,3.18,3.10,3.17,117500,2.929
2016-07-25,3.15,3.26,3.09,3.13,125800,2.892
2016-07-22,3.25,3.27,3.16,3.16,54800,2.9198
2016-07-21,3.24,3.26,3.20,3.23,128800,2.9844
2016-07-20,3.28,3.28,3.15,3.22,214400,2.9752
2016-07-19,3.29,3.29,3.13,3.28,56100,3.0306
2016-07-18,3.16,3.31,3.16,3.31,48500,3.0583
2016-07-15,3.30,3.30,3.15,3.18,36800,2.9382
2016-07-14,3.25,3.30,3.20,3.30,97900,3.0491
2016-07-13,3.24,3.25,3.17,3.17,39100,2.929
2016-07-12,3.15,3.22,3.10,3.18,103900,2.9382
2016-07-11,3.03,3.14,3.00,3.14,48500,2.9013
2016-07-08,3.01,3.095,2.985,2.99,85500,2.7627
2016-07-07,2.99,3.05,2.99,3.00,24200,2.7719
2016-07-06,3.025,3.05,2.98,3.02,75000,2.7904
2016-07-05,3.05,3.07,3.02,3.04,74700,2.8089
2016-07-04,3.00,3.05,2.93,3.03,74900,2.7996
2016-07-01,3.11,3.11,2.97,3.01,130800,2.7812
2016-06-30,3.06,3.15,3.02,3.11,195500,2.8736
2016-06-29,3.12,3.17,3.03,3.07,142800,2.8366
2016-06-28,3.065,3.13,3.02,3.12,86800,2.7969
2016-06-27,2.92,3.05,2.92,2.97,142600,2.6624
2016-06-24,3.10,3.11,2.92,2.92,547800,2.6176
2016-06-23,3.03,3.10,3.01,3.04,113400,2.7252
2016-06-22,3.11,3.14,3.03,3.03,168600,2.7162
2016-06-21,3.06,3.08,3.00,3.02,232700,2.7072
2016-06-20,3.14,3.14,3.06,3.07,363300,2.752
2016-06-17,3.07,3.14,3.07,3.12,272700,2.7969
2016-06-16,3.07,3.15,3.05,3.05,146800,2.7341
2016-06-15,3.08,3.10,3.04,3.07,279700,2.752
2016-06-14,3.25,3.25,3.06,3.06,91200,2.7431
2016-06-13,3.23,3.23,3.23,3.23,000,2.8955
2016-06-10,3.19,3.27,3.19,3.23,47200,2.8955
2016-06-09,3.20,3.22,3.16,3.19,61200,2.8596
2016-06-08,3.15,3.23,3.11,3.19,80200,2.8596
2016-06-07,3.10,3.17,3.10,3.16,154200,2.8327
2016-06-06,3.08,3.11,3.07,3.10,91300,2.7789
2016-06-03,3.00,3.075,2.97,3.04,59200,2.7252
2016-06-02,3.08,3.10,2.98,3.00,89500,2.6893
2016-06-01,3.26,3.26,3.05,3.10,142400,2.7789
2016-05-31,2.95,3.12,2.94,3.12,440400,2.7969
2016-05-30,2.96,3.03,2.95,2.99,95000,2.6803
2016-05-27,2.93,2.97,2.91,2.95,108900,2.6445
2016-05-26,2.93,2.93,2.87,2.93,333200,2.6265
2016-05-25,2.90,2.94,2.87,2.90,159300,2.5997
2016-05-24,2.85,2.89,2.85,2.88,333700,2.5817
2016-05-23,2.84,2.85,2.81,2.84,437700,2.5459
2016-05-20,2.85,2.85,2.80,2.82,128700,2.5279
2016-05-19,2.79,2.84,2.775,2.84,265800,2.5459
2016-05-18,2.79,2.79,2.75,2.75,63200,2.4652
2016-05-17,2.80,2.80,2.76,2.80,64300,2.51
2016-05-16,2.78,2.80,2.74,2.80,165900,2.51
2016-05-13,2.78,2.79,2.745,2.76,336000,2.4741
2016-05-12,2.79,2.79,2.72,2.78,1417300,2.4921
2016-05-11,2.80,2.80,2.73,2.79,59100,2.501
2016-05-10,2.80,2.80,2.76,2.80,110800,2.51
2016-05-09,2.80,2.80,2.74,2.80,104400,2.51
2016-05-06,2.79,2.81,2.78,2.80,115000,2.51
2016-05-05,2.77,2.81,2.74,2.79,105600,2.501
2016-05-04,2.73,2.75,2.72,2.74,71800,2.4562
2016-05-03,2.71,2.74,2.70,2.72,33000,2.4383
2016-05-02,2.74,2.75,2.69,2.69,45600,2.4114
2016-04-29,2.71,2.75,2.71,2.75,43200,2.4652
2016-04-28,2.70,2.76,2.68,2.74,161800,2.4562
2016-04-27,2.72,2.72,2.70,2.70,10300,2.4204
2016-04-26,2.69,2.72,2.69,2.72,81100,2.4383
2016-04-25,2.69,2.69,2.69,2.69,000,2.4114
2016-04-22,2.72,2.72,2.69,2.69,65700,2.4114
2016-04-21,2.78,2.78,2.71,2.72,191700,2.4383
2016-04-20,2.73,2.79,2.73,2.78,19900,2.4921
2016-04-19,2.70,2.79,2.70,2.79,60600,2.501
2016-04-18,2.74,2.74,2.68,2.74,32100,2.4562
2016-04-15,2.72,2.75,2.69,2.69,59100,2.4114
2016-04-14,2.70,2.75,2.68,2.69,163500,2.4114
2016-04-13,2.78,2.78,2.67,2.67,31300,2.3935
2016-04-12,2.68,2.73,2.68,2.68,741500,2.4024
2016-04-11,2.79,2.79,2.67,2.67,108800,2.3935
2016-04-08,2.72,2.75,2.67,2.67,185100,2.3935
2016-04-07,2.78,2.79,2.71,2.71,48400,2.4293
2016-04-06,2.75,2.79,2.68,2.68,63000,2.4024
2016-04-05,2.73,2.79,2.68,2.68,87300,2.4024
2016-04-04,2.73,2.78,2.72,2.73,20000,2.4473
2016-04-01,2.72,2.76,2.72,2.74,32700,2.4562
2016-03-31,2.72,2.79,2.72,2.76,47100,2.4741
2016-03-30,2.76,2.79,2.75,2.78,46400,2.4921
2016-03-29,2.75,2.79,2.75,2.77,75700,2.4831
2016-03-28,2.76,2.76,2.76,2.76,000,2.4741
2016-03-25,2.76,2.76,2.76,2.76,000,2.4741
2016-03-24,2.74,2.79,2.66,2.76,88300,2.4741
2016-03-23,2.69,2.77,2.675,2.74,91800,2.4562
2016-03-22,2.70,2.70,2.66,2.67,84800,2.3935
2016-03-21,2.70,2.73,2.67,2.69,201100,2.4114
2016-03-18,2.69,2.70,2.62,2.62,264600,2.3486
2016-03-17,2.64,2.66,2.62,2.65,140100,2.3755
2016-03-16,2.58,2.65,2.58,2.61,246800,2.3397
2016-03-15,2.66,2.67,2.59,2.59,114800,2.3218
2016-03-14,2.60,2.65,2.60,2.65,76200,2.3755
2016-03-11,2.63,2.65,2.60,2.60,149300,2.3307
2016-03-10,2.65,2.65,2.61,2.65,147900,2.3755
2016-03-09,2.63,2.64,2.58,2.61,89100,2.3397
2016-03-08,2.64,2.66,2.60,2.63,109400,2.3576
2016-03-07,2.67,2.68,2.60,2.64,127400,2.3666
2016-03-04,2.63,2.66,2.56,2.57,239700,2.3038
2016-03-03,2.59,2.64,2.59,2.64,239400,2.3666
2016-03-02,2.55,2.60,2.54,2.59,142700,2.3218
2016-03-01,2.57,2.57,2.50,2.54,114900,2.2769
2016-02-29,2.55,2.57,2.53,2.53,113100,2.268
2016-02-26,2.54,2.56,2.49,2.53,87100,2.268
2016-02-25,2.50,2.56,2.42,2.51,241900,2.25
2016-02-24,2.50,2.53,2.47,2.49,409900,2.2321
2016-02-23,2.53,2.54,2.49,2.50,89500,2.2411
2016-02-22,2.53,2.54,2.51,2.51,62500,2.25
2016-02-19,2.55,2.56,2.50,2.50,50100,2.2411
2016-02-18,2.53,2.56,2.53,2.56,38000,2.2949
2016-02-17,2.52,2.53,2.49,2.52,84300,2.259
2016-02-16,2.54,2.54,2.49,2.51,361900,2.25
2016-02-15,2.54,2.54,2.51,2.52,44900,2.259
2016-02-12,2.53,2.53,2.50,2.51,28000,2.25
2016-02-11,2.54,2.54,2.50,2.54,94400,2.2769
2016-02-10,2.60,2.60,2.50,2.50,65300,2.2411
2016-02-09,2.57,2.57,2.51,2.51,74800,2.25
2016-02-08,2.57,2.59,2.55,2.55,52400,2.2859
2016-02-05,2.59,2.63,2.55,2.57,44800,2.3038
2016-02-04,2.60,2.66,2.58,2.65,91800,2.3755
2016-02-03,2.62,2.635,2.58,2.58,64900,2.3128
2016-02-02,2.65,2.65,2.59,2.60,22700,2.3307
2016-02-01,2.58,2.69,2.58,2.59,73000,2.3218
2016-01-29,2.62,2.63,2.60,2.62,51500,2.3486
2016-01-28,2.60,2.63,2.60,2.61,42100,2.3397
2016-01-27,2.58,2.62,2.57,2.61,51800,2.3397
2016-01-26,2.57,2.57,2.57,2.57,000,2.3038
2016-01-25,2.56,2.60,2.54,2.57,110800,2.3038
2016-01-22,2.55,2.58,2.52,2.53,44300,2.268
2016-01-21,2.53,2.57,2.52,2.55,114400,2.2859
2016-01-20,2.57,2.58,2.52,2.53,29400,2.268
2016-01-19,2.56,2.60,2.54,2.56,24300,2.2949
2016-01-18,2.54,2.57,2.52,2.53,85800,2.268
2016-01-15,2.58,2.62,2.55,2.58,64300,2.3128
2016-01-14,2.62,2.62,2.55,2.62,65600,2.3486
2016-01-13,2.59,2.62,2.59,2.62,24200,2.3486
2016-01-12,2.58,2.60,2.54,2.60,91500,2.3307
2016-01-11,2.60,2.60,2.57,2.57,125500,2.3038
2016-01-08,2.62,2.62,2.57,2.60,99000,2.3307
2016-01-07,2.63,2.63,2.57,2.62,66400,2.3486
2016-01-06,2.63,2.64,2.56,2.58,57900,2.3128
2016-01-05,2.66,2.66,2.60,2.64,16000,2.3666
2016-01-04,2.62,2.63,2.60,2.61,67400,2.3397
2016-01-01,2.66,2.66,2.66,2.66,000,2.3845
2015-12-31,2.62,2.66,2.59,2.66,15100,2.3845
2015-12-30,2.57,2.69,2.56,2.63,155500,2.3576
2015-12-29,2.59,2.59,2.56,2.58,56200,2.3128
2015-12-28,2.69,2.69,2.69,2.69,000,2.3307
2015-12-25,2.69,2.69,2.69,2.69,000,2.3307
2015-12-24,2.70,2.70,2.64,2.69,62700,2.3307
2015-12-23,2.62,2.68,2.62,2.68,28400,2.3221
2015-12-22,2.58,2.61,2.58,2.60,197300,2.2527
2015-12-21,2.64,2.65,2.57,2.59,145600,2.2441
2015-12-18,2.64,2.685,2.62,2.65,340200,2.2961
2015-12-17,2.60,2.66,2.60,2.62,117300,2.2701
2015-12-16,2.60,2.61,2.54,2.60,79800,2.2527
2015-12-15,2.58,2.61,2.53,2.55,262200,2.2094
2015-12-14,2.58,2.62,2.57,2.58,127600,2.2354
2015-12-11,2.60,2.60,2.56,2.58,97600,2.2354
2015-12-10,2.57,2.60,2.55,2.55,138600,2.2094
2015-12-09,2.59,2.595,2.56,2.58,67900,2.2354
2015-12-08,2.52,2.59,2.51,2.56,31000,2.2181
2015-12-07,2.55,2.58,2.515,2.52,44600,2.1834
2015-12-04,2.58,2.58,2.52,2.53,165400,2.1921
2015-12-03,2.55,2.64,2.54,2.59,64000,2.2441
2015-12-02,2.61,2.64,2.55,2.55,105100,2.2094
2015-12-01,2.60,2.65,2.60,2.62,50700,2.2701
2015-11-30,2.56,2.65,2.55,2.61,104600,2.2614
2015-11-27,2.60,2.60,2.56,2.56,387400,2.2181
2015-11-26,2.58,2.61,2.56,2.61,121800,2.2614
2015-11-25,2.52,2.58,2.515,2.57,82100,2.2267
2015-11-24,2.53,2.55,2.50,2.52,95900,2.1834
2015-11-23,2.53,2.56,2.50,2.56,75600,2.2181
2015-11-20,2.52,2.53,2.50,2.51,112500,2.1748
2015-11-19,2.54,2.58,2.54,2.55,53000,2.2094
2015-11-18,2.52,2.55,2.50,2.54,39400,2.2008
2015-11-17,2.52,2.56,2.50,2.51,194700,2.1748
2015-11-16,2.50,2.54,2.50,2.51,78900,2.1748
2015-11-13,2.51,2.52,2.50,2.51,54500,2.1748
2015-11-12,2.55,2.55,2.49,2.51,209800,2.1748
2015-11-11,2.55,2.57,2.52,2.53,220400,2.1921
2015-11-10,2.55,2.56,2.52,2.55,142900,2.2094
2015-11-09,2.56,2.57,2.55,2.55,85100,2.2094
2015-11-06,2.575,2.58,2.56,2.56,66200,2.2181
2015-11-05,2.60,2.60,2.56,2.58,130900,2.2354
2015-11-04,2.60,2.60,2.55,2.60,198900,2.2527
2015-11-03,2.58,2.60,2.57,2.59,55300,2.2441
2015-11-02,2.59,2.59,2.56,2.57,35700,2.2267
2015-10-30,2.59,2.61,2.57,2.57,57900,2.2267
2015-10-29,2.59,2.61,2.56,2.59,100500,2.2441
2015-10-28,2.60,2.63,2.57,2.57,141200,2.2267
2015-10-27,2.62,2.65,2.595,2.61,72100,2.2614
2015-10-26,2.58,2.66,2.58,2.64,82800,2.2874
2015-10-23,2.63,2.63,2.57,2.57,113200,2.2267
2015-10-22,2.63,2.64,2.60,2.60,118400,2.2527
2015-10-21,2.62,2.66,2.60,2.63,35100,2.2787
2015-10-20,2.64,2.64,2.59,2.62,96600,2.2701
2015-10-19,2.61,2.67,2.60,2.61,53200,2.2614
2015-10-16,2.61,2.62,2.57,2.60,84000,2.2527
2015-10-15,2.60,2.62,2.57,2.62,256100,2.2701
2015-10-14,2.59,2.59,2.54,2.55,69500,2.2094
2015-10-13,2.58,2.60,2.54,2.55,171200,2.2094
2015-10-12,2.62,2.67,2.55,2.58,95700,2.2354
2015-10-09,2.58,2.63,2.58,2.63,47600,2.2787
2015-10-08,2.58,2.64,2.57,2.62,62200,2.2701
2015-10-07,2.58,2.60,2.56,2.60,35700,2.2527
2015-10-06,2.62,2.64,2.57,2.57,15400,2.2267
2015-10-05,2.58,2.64,2.58,2.63,51500,2.2787
2015-10-02,2.54,2.59,2.53,2.58,50100,2.2354
2015-10-01,2.56,2.57,2.53,2.54,100600,2.2008
2015-09-30,2.57,2.59,2.53,2.57,213600,2.2267
2015-09-29,2.57,2.58,2.53,2.53,129900,2.1921
2015-09-28,2.55,2.59,2.54,2.58,66900,2.2354
2015-09-25,2.60,2.60,2.54,2.54,43700,2.2008
2015-09-24,2.52,2.60,2.52,2.57,27400,2.2267
2015-09-23,2.56,2.57,2.53,2.55,73400,2.2094
2015-09-22,2.59,2.59,2.56,2.56,1938300,2.2181
2015-09-21,2.62,2.62,2.54,2.55,109600,2.2094
2015-09-18,2.67,2.67,2.58,2.59,105000,2.2441
2015-09-17,2.67,2.70,2.64,2.67,2586000,2.3134
2015-09-16,2.67,2.70,2.64,2.67,22000,2.3134
2015-09-15,2.67,2.71,2.67,2.67,49000,2.3134
2015-09-14,2.67,2.76,2.62,2.69,80000,2.3307
2015-09-11,2.64,2.70,2.64,2.67,451500,2.3134
2015-09-10,2.64,2.68,2.61,2.64,698000,2.2874
2015-09-09,2.66,2.72,2.59,2.66,618300,2.3047
2015-09-08,2.58,2.66,2.58,2.66,128400,2.3047
2015-09-07,2.57,2.60,2.55,2.60,52800,2.2527
2015-09-04,2.55,2.60,2.54,2.60,88800,2.2527
2015-09-03,2.59,2.60,2.54,2.58,39500,2.2354
2015-09-02,2.59,2.59,2.53,2.55,104000,2.2094
2015-09-01,2.60,2.60,2.545,2.57,38500,2.2267
2015-08-31,2.63,2.63,2.53,2.60,216600,2.2527
2015-08-28,2.59,2.65,2.58,2.60,43800,2.2527
2015-08-27,2.59,2.66,2.52,2.58,62500,2.2354
2015-08-26,2.53,2.60,2.52,2.60,80900,2.2527
2015-08-25,2.49,2.59,2.40,2.55,106700,2.2094
2015-08-24,2.52,2.59,2.49,2.53,144300,2.1921
2015-08-21,2.57,2.60,2.50,2.59,44300,2.2441
2015-08-20,2.56,2.60,2.55,2.55,55200,2.2094
2015-08-19,2.60,2.60,2.55,2.60,33700,2.2527
2015-08-18,2.60,2.65,2.58,2.58,50700,2.2354
2015-08-17,2.60,2.63,2.60,2.60,35200,2.2527
2015-08-14,2.61,2.625,2.60,2.60,40600,2.2527
2015-08-13,2.60,2.62,2.60,2.62,157500,2.2701
2015-08-12,2.60,2.62,2.60,2.60,119600,2.2527
2015-08-11,2.62,2.64,2.60,2.60,112000,2.2527
2015-08-10,2.65,2.65,2.61,2.63,71000,2.2787
2015-08-07,2.64,2.65,2.61,2.65,94700,2.2961
2015-08-06,2.64,2.64,2.60,2.63,28300,2.2787
2015-08-05,2.60,2.64,2.59,2.64,93900,2.2874
2015-08-04,2.63,2.64,2.59,2.63,1704200,2.2787
2015-08-03,2.63,2.64,2.58,2.59,138500,2.2441
2015-07-31,2.60,2.64,2.58,2.63,116800,2.2787
2015-07-30,2.57,2.60,2.57,2.58,22200,2.2354
2015-07-29,2.57,2.60,2.56,2.60,50400,2.2527
2015-07-28,2.60,2.62,2.56,2.59,89300,2.2441
2015-07-27,2.64,2.64,2.575,2.62,82500,2.2701
2015-07-24,2.65,2.65,2.61,2.62,52600,2.2701
2015-07-23,2.64,2.65,2.61,2.62,69700,2.2701
2015-07-22,2.63,2.65,2.60,2.62,161500,2.2701
2015-07-21,2.64,2.64,2.61,2.62,47000,2.2701
2015-07-20,2.60,2.63,2.59,2.62,818800,2.2701
2015-07-17,2.60,2.62,2.60,2.60,50400,2.2527
2015-07-16,2.61,2.66,2.56,2.60,70900,2.2527
2015-07-15,2.55,2.61,2.53,2.60,194000,2.2527
2015-07-14,2.58,2.58,2.51,2.58,86200,2.2354
2015-07-13,2.57,2.57,2.53,2.53,38400,2.1921
2015-07-10,2.57,2.57,2.52,2.55,107500,2.2094
2015-07-09,2.57,2.57,2.51,2.54,203700,2.2008
2015-07-08,2.60,2.60,2.51,2.56,154800,2.2181
2015-07-07,2.53,2.60,2.52,2.52,83700,2.1834
2015-07-06,2.60,2.60,2.53,2.53,28800,2.1921
2015-07-03,2.64,2.64,2.51,2.60,78300,2.2527
2015-07-02,2.62,2.65,2.57,2.64,1007400,2.2874
2015-07-01,2.58,2.60,2.57,2.60,107100,2.2527
2015-06-30,2.58,2.58,2.50,2.57,100400,2.2267
2015-06-29,2.62,2.69,2.62,2.67,157200,2.2406
2015-06-26,2.67,2.67,2.61,2.67,131900,2.2406
2015-06-25,2.67,2.68,2.64,2.67,105700,2.2406
2015-06-24,2.69,2.69,2.63,2.67,58400,2.2406
2015-06-23,2.64,2.68,2.62,2.67,396100,2.2406
2015-06-22,2.67,2.67,2.59,2.67,71300,2.2406
2015-06-19,2.67,2.68,2.62,2.66,301700,2.2322
2015-06-18,2.67,2.68,2.62,2.67,333900,2.2406
2015-06-17,2.63,2.68,2.63,2.68,166800,2.249
2015-06-16,2.53,2.65,2.53,2.60,197800,2.1819
2015-06-15,2.53,2.57,2.50,2.56,156400,2.1483
2015-06-12,2.53,2.55,2.45,2.54,397100,2.1315
2015-06-11,2.46,2.51,2.45,2.49,212900,2.0896
2015-06-10,2.45,2.50,2.42,2.46,329200,2.0644
2015-06-09,2.50,2.51,2.43,2.45,160200,2.056
2015-06-08,2.51,2.51,2.51,2.51,000,2.1063
2015-06-05,2.51,2.53,2.49,2.51,83900,2.1063
2015-06-04,2.56,2.565,2.49,2.53,267200,2.1231
2015-06-03,2.58,2.58,2.50,2.50,384000,2.098
2015-06-02,2.55,2.59,2.50,2.59,257600,2.1735
2015-06-01,2.58,2.59,2.525,2.55,213200,2.1399
2015-05-29,2.61,2.62,2.57,2.59,141300,2.1735
2015-05-28,2.64,2.64,2.56,2.61,150800,2.1903
2015-05-27,2.64,2.65,2.61,2.61,200700,2.1903
2015-05-26,2.63,2.67,2.63,2.63,245700,2.207
2015-05-25,2.66,2.695,2.63,2.63,123200,2.207
2015-05-22,2.69,2.69,2.65,2.66,148100,2.2322
2015-05-21,2.675,2.70,2.66,2.67,497300,2.2406
2015-05-20,2.69,2.70,2.65,2.70,30800,2.2658
2015-05-19,2.63,2.71,2.63,2.66,396300,2.2322
2015-05-18,2.66,2.695,2.63,2.65,112600,2.2238
2015-05-15,2.67,2.68,2.63,2.64,96000,2.2154
2015-05-14,2.65,2.67,2.61,2.67,280200,2.2406
2015-05-13,2.67,2.69,2.63,2.67,287100,2.2406
2015-05-12,2.69,2.70,2.63,2.66,78500,2.2322
2015-05-11,2.70,2.72,2.66,2.71,51500,2.2742
2015-05-08,2.65,2.715,2.65,2.68,32300,2.249
2015-05-07,2.685,2.69,2.64,2.65,112200,2.2238
2015-05-06,2.71,2.72,2.67,2.72,75400,2.2826
2015-05-05,2.71,2.72,2.69,2.72,102400,2.2826
2015-05-04,2.67,2.71,2.67,2.70,14100,2.2658
2015-05-01,2.70,2.72,2.66,2.69,68000,2.2574
2015-04-30,2.65,2.70,2.65,2.70,64900,2.2658
2015-04-29,2.73,2.73,2.65,2.65,73700,2.2238
2015-04-28,2.70,2.72,2.67,2.68,97200,2.249
2015-04-27,2.71,2.76,2.70,2.72,113100,2.2826
2015-04-24,2.70,2.72,2.65,2.70,44300,2.2658
2015-04-23,2.76,2.76,2.72,2.73,78500,2.291
2015-04-22,2.68,2.76,2.67,2.76,319000,2.3161
2015-04-21,2.72,2.72,2.65,2.70,77800,2.2658
2015-04-20,2.60,2.725,2.60,2.69,425500,2.2574
2015-04-17,2.65,2.65,2.60,2.63,112200,2.207
2015-04-16,2.65,2.65,2.62,2.63,643400,2.207
2015-04-15,2.62,2.65,2.61,2.65,123100,2.2238
2015-04-14,2.70,2.705,2.61,2.62,135500,2.1987
2015-04-13,2.72,2.73,2.69,2.70,57800,2.2658
2015-04-10,2.71,2.72,2.66,2.69,135000,2.2574
2015-04-09,2.70,2.74,2.68,2.69,246700,2.2574
2015-04-08,2.74,2.75,2.72,2.74,41100,2.2994
2015-04-07,2.785,2.86,2.74,2.74,323200,2.2994
2015-04-06,2.78,2.78,2.78,2.78,000,2.3329
2015-04-03,2.78,2.78,2.78,2.78,000,2.3329
2015-04-02,2.77,2.78,2.73,2.78,93900,2.3329
2015-04-01,2.77,2.77,2.72,2.76,94900,2.3161
2015-03-31,2.70,2.78,2.70,2.76,95400,2.3161
2015-03-30,2.70,2.74,2.68,2.74,163900,2.2994
2015-03-27,2.71,2.75,2.68,2.74,73400,2.2994
2015-03-26,2.77,2.77,2.71,2.73,210400,2.291
2015-03-25,2.785,2.79,2.75,2.76,179400,2.3161
2015-03-24,2.81,2.81,2.78,2.80,158400,2.3497
2015-03-23,2.77,2.85,2.77,2.82,64900,2.3665
2015-03-20,2.78,2.80,2.72,2.79,1847100,2.3413
2015-03-19,2.84,2.84,2.77,2.80,187700,2.3497
2015-03-18,2.77,2.81,2.74,2.75,369100,2.3077
2015-03-17,2.75,2.82,2.73,2.81,380100,2.3581
2015-03-16,2.84,2.84,2.75,2.75,85600,2.3077
2015-03-13,2.74,2.86,2.73,2.84,401100,2.3833
2015-03-12,2.70,2.74,2.67,2.73,97800,2.291
2015-03-11,2.74,2.74,2.67,2.70,114300,2.2658
2015-03-10,2.70,2.73,2.69,2.73,61000,2.291
2015-03-09,2.71,2.75,2.66,2.72,163200,2.2826
2015-03-06,2.70,2.73,2.62,2.73,85700,2.291
2015-03-05,2.57,2.70,2.57,2.70,359500,2.2658
2015-03-04,2.62,2.64,2.56,2.56,27800,2.1483
2015-03-03,2.64,2.64,2.58,2.60,92900,2.1819
2015-03-02,2.59,2.635,2.58,2.62,69500,2.1987
2015-02-27,2.55,2.58,2.51,2.58,224300,2.1651
2015-02-26,2.56,2.56,2.52,2.54,99100,2.1315
2015-02-25,2.53,2.56,2.50,2.54,348400,2.1315
2015-02-24,2.54,2.55,2.52,2.53,38300,2.1231
2015-02-23,2.55,2.58,2.54,2.57,16000,2.1567
2015-02-20,2.57,2.59,2.56,2.58,48800,2.1651
2015-02-19,2.56,2.59,2.54,2.58,135100,2.1651
2015-02-18,2.55,2.59,2.525,2.57,117300,2.1567
2015-02-17,2.55,2.59,2.52,2.55,79900,2.1399
2015-02-16,2.60,2.60,2.505,2.52,160800,2.1147
2015-02-13,2.59,2.60,2.56,2.59,137100,2.1735
2015-02-12,2.60,2.62,2.57,2.59,141700,2.1735
2015-02-11,2.60,2.64,2.60,2.60,309700,2.1819
2015-02-10,2.59,2.605,2.58,2.60,89000,2.1819
2015-02-09,2.58,2.60,2.58,2.60,81600,2.1819
2015-02-06,2.65,2.65,2.58,2.58,102300,2.1651
2015-02-05,2.62,2.64,2.61,2.64,101800,2.2154
2015-02-04,2.65,2.66,2.63,2.64,172000,2.2154
2015-02-03,2.65,2.66,2.58,2.65,303400,2.2238
2015-02-02,2.63,2.63,2.56,2.60,177300,2.1819
2015-01-30,2.62,2.64,2.59,2.64,59300,2.2154
2015-01-29,2.61,2.63,2.59,2.61,92000,2.1903
2015-01-28,2.62,2.64,2.61,2.63,87800,2.207
2015-01-27,2.68,2.68,2.62,2.64,45100,2.2154
2015-01-26,2.62,2.62,2.62,2.62,000,2.1987
2015-01-23,2.63,2.65,2.62,2.62,101200,2.1987
2015-01-22,2.64,2.67,2.63,2.63,154500,2.207
2015-01-21,2.62,2.685,2.60,2.63,81900,2.207
2015-01-20,2.65,2.66,2.60,2.61,48600,2.1903
2015-01-19,2.60,2.66,2.58,2.66,67100,2.2322
2015-01-16,2.56,2.60,2.56,2.60,23500,2.1819
2015-01-15,2.56,2.59,2.55,2.58,112900,2.1651
2015-01-14,2.57,2.58,2.55,2.58,31200,2.1651
2015-01-13,2.56,2.58,2.54,2.57,38300,2.1567
2015-01-12,2.52,2.59,2.52,2.57,68900,2.1567
2015-01-09,2.55,2.58,2.52,2.56,108900,2.1483
2015-01-08,2.51,2.58,2.51,2.54,190400,2.1315
2015-01-07,2.56,2.57,2.51,2.51,61400,2.1063
2015-01-06,2.57,2.60,2.56,2.57,116100,2.1567
2015-01-05,2.60,2.60,2.56,2.60,63500,2.1819
2015-01-02,2.60,2.61,2.58,2.60,14900,2.1819
2015-01-01,2.61,2.61,2.61,2.61,000,2.1903
2014-12-31,2.59,2.63,2.58,2.61,24800,2.1903
2014-12-30,2.60,2.66,2.58,2.60,83100,2.1819
2014-12-29,2.64,2.64,2.59,2.60,97400,2.1819
2014-12-26,2.69,2.69,2.69,2.69,000,2.1911
2014-12-25,2.69,2.69,2.69,2.69,000,2.1911
2014-12-24,2.68,2.70,2.65,2.69,46000,2.1911
2014-12-23,2.70,2.71,2.59,2.63,143300,2.1422
2014-12-22,2.75,2.75,2.65,2.70,147400,2.1992
2014-12-19,2.57,2.65,2.50,2.64,296600,2.1504
2014-12-18,2.55,2.59,2.51,2.59,347100,2.1096
2014-12-17,2.50,2.53,2.50,2.52,32500,2.0526
2014-12-16,2.50,2.53,2.50,2.50,81900,2.0363
2014-12-15,2.48,2.53,2.47,2.47,45700,2.0119
2014-12-12,2.52,2.52,2.47,2.47,279400,2.0119
2014-12-11,2.54,2.54,2.46,2.46,114700,2.0038
2014-12-10,2.54,2.59,2.54,2.55,90800,2.0771
2014-12-09,2.52,2.60,2.52,2.53,91000,2.0608
2014-12-08,2.59,2.59,2.51,2.51,105800,2.0445
2014-12-05,2.55,2.58,2.52,2.52,109600,2.0526
2014-12-04,2.42,2.59,2.42,2.54,187400,2.0689
2014-12-03,2.43,2.47,2.43,2.47,62100,2.0119
2014-12-02,2.42,2.45,2.39,2.45,268300,1.9956
2014-12-01,2.36,2.42,2.36,2.40,159000,1.9549
2014-11-28,2.36,2.45,2.36,2.43,210000,1.9793
2014-11-27,2.39,2.40,2.36,2.36,83400,1.9223
2014-11-26,2.35,2.43,2.35,2.41,135500,1.963
2014-11-25,2.36,2.385,2.31,2.31,254300,1.8816
2014-11-24,2.36,2.39,2.35,2.36,348800,1.9223
2014-11-21,2.41,2.41,2.36,2.36,305700,1.9223
2014-11-20,2.40,2.42,2.37,2.37,676100,1.9304
2014-11-19,2.45,2.45,2.40,2.40,199900,1.9549
2014-11-18,2.47,2.47,2.44,2.45,183000,1.9956
2014-11-17,2.455,2.48,2.44,2.48,60000,2.02
2014-11-14,2.45,2.51,2.44,2.45,208200,1.9956
2014-11-13,2.45,2.51,2.44,2.45,176500,1.9956
2014-11-12,2.53,2.54,2.44,2.45,184300,1.9956
2014-11-11,2.47,2.53,2.43,2.50,143800,2.0363
2014-11-10,2.41,2.53,2.41,2.46,242400,2.0038
2014-11-07,2.36,2.41,2.33,2.41,103700,1.963
2014-11-06,2.41,2.45,2.32,2.32,149600,1.8897
2014-11-05,2.38,2.43,2.38,2.40,146700,1.9549
2014-11-04,2.40,2.45,2.38,2.41,134700,1.963
2014-11-03,2.36,2.45,2.36,2.40,114100,1.9549
2014-10-31,2.34,2.39,2.33,2.39,305600,1.9467
2014-10-30,2.31,2.34,2.30,2.33,167900,1.8979
2014-10-29,2.30,2.33,2.30,2.31,289800,1.8816
2014-10-28,2.32,2.32,2.30,2.30,202400,1.8734
2014-10-27,2.315,2.315,2.30,2.30,70700,1.8734
2014-10-24,2.32,2.32,2.30,2.30,123400,1.8734
2014-10-23,2.35,2.35,2.31,2.32,132600,1.8897
2014-10-22,2.34,2.35,2.31,2.35,119000,1.9142
2014-10-21,2.31,2.35,2.30,2.34,188300,1.906
2014-10-20,2.32,2.35,2.29,2.29,264800,1.8653
2014-10-17,2.30,2.32,2.29,2.29,618700,1.8653
2014-10-16,2.33,2.33,2.29,2.30,194600,1.8734
2014-10-15,2.32,2.36,2.32,2.33,3231800,1.8979
2014-10-14,2.30,2.35,2.30,2.32,59800,1.8897
2014-10-13,2.32,2.33,2.28,2.33,314800,1.8979
2014-10-10,2.38,2.38,2.29,2.31,304300,1.8816
2014-10-09,2.39,2.40,2.36,2.36,84400,1.9223
2014-10-08,2.32,2.39,2.31,2.39,175200,1.9467
2014-10-07,2.35,2.37,2.32,2.35,89500,1.9142
2014-10-06,2.34,2.37,2.32,2.37,60700,1.9304
2014-10-03,2.34,2.35,2.29,2.34,108400,1.906
2014-10-02,2.28,2.35,2.28,2.34,184200,1.906
2014-10-01,2.29,2.29,2.26,2.28,447900,1.8571
2014-09-30,2.29,2.30,2.28,2.29,321300,1.8653
2014-09-29,2.32,2.32,2.29,2.29,214800,1.8653
2014-09-26,2.30,2.32,2.29,2.30,216600,1.8734
2014-09-25,2.33,2.35,2.30,2.30,125300,1.8734
2014-09-24,2.35,2.37,2.30,2.32,226600,1.8897
2014-09-23,2.37,2.38,2.33,2.38,314300,1.9386
2014-09-22,2.37,2.40,2.34,2.38,174400,1.9386
2014-09-19,2.34,2.40,2.33,2.40,513600,1.9549
2014-09-18,2.34,2.36,2.32,2.34,83900,1.906
2014-09-17,2.36,2.36,2.30,2.31,1300100,1.8816
2014-09-16,2.35,2.37,2.335,2.36,266700,1.9223
2014-09-15,2.37,2.38,2.32,2.35,419000,1.9142
2014-09-12,2.35,2.40,2.33,2.40,233700,1.9549
2014-09-11,2.35,2.36,2.33,2.35,122500,1.9142
2014-09-10,2.35,2.39,2.35,2.36,146600,1.9223
2014-09-09,2.34,2.38,2.33,2.38,232300,1.9386
2014-09-08,2.35,2.37,2.33,2.34,127100,1.906
2014-09-05,2.37,2.37,2.33,2.34,83100,1.906
2014-09-04,2.35,2.38,2.34,2.37,130100,1.9304
2014-09-03,2.36,2.36,2.34,2.34,52000,1.906
2014-09-02,2.36,2.38,2.34,2.35,188900,1.9142
2014-09-01,2.35,2.38,2.33,2.37,89500,1.9304
2014-08-29,2.26,2.31,2.26,2.28,645000,1.8571
2014-08-28,2.36,2.39,2.25,2.30,220900,1.8734
2014-08-27,2.34,2.40,2.34,2.40,87200,1.9549
2014-08-26,2.36,2.37,2.32,2.35,97100,1.9142
2014-08-25,2.33,2.39,2.33,2.37,128900,1.9304
2014-08-22,2.30,2.39,2.30,2.32,236700,1.8897
2014-08-21,2.34,2.39,2.31,2.33,449500,1.8979
2014-08-20,2.31,2.38,2.31,2.34,583700,1.906
2014-08-19,2.24,2.36,2.24,2.30,416500,1.8734
2014-08-18,2.21,2.245,2.21,2.23,351200,1.8164
2014-08-15,2.18,2.185,2.15,2.18,372200,1.7757
2014-08-14,2.15,2.18,2.13,2.14,520100,1.7431
2014-08-13,2.12,2.20,2.105,2.15,406200,1.7513
2014-08-12,2.11,2.12,2.10,2.10,606900,1.7105
2014-08-11,2.10,2.12,2.09,2.11,600800,1.7187
2014-08-08,2.11,2.11,2.09,2.10,389800,1.7105
2014-08-07,2.10,2.12,2.09,2.10,1349100,1.7105
2014-08-06,2.10,2.10,2.09,2.10,68100,1.7105
2014-08-05,2.10,2.11,2.09,2.09,100200,1.7024
2014-08-04,2.10,2.10,2.09,2.09,149100,1.7024
2014-08-01,2.10,2.11,2.09,2.10,282500,1.7105
2014-07-31,2.10,2.11,2.09,2.09,424400,1.7024
2014-07-30,2.10,2.11,2.09,2.10,81800,1.7105
2014-07-29,2.10,2.10,2.09,2.09,48800,1.7024
2014-07-28,2.09,2.105,2.08,2.09,148200,1.7024
2014-07-25,2.10,2.11,2.09,2.09,207800,1.7024
2014-07-24,2.10,2.105,2.09,2.10,383700,1.7105
2014-07-23,2.10,2.12,2.09,2.10,393200,1.7105
2014-07-22,2.10,2.10,2.09,2.10,236100,1.7105
2014-07-21,2.10,2.11,2.09,2.10,258800,1.7105
2014-07-18,2.11,2.12,2.095,2.10,342100,1.7105
2014-07-17,2.11,2.12,2.10,2.11,305900,1.7187
2014-07-16,2.10,2.13,2.10,2.11,387800,1.7187
2014-07-15,2.10,2.11,2.09,2.09,232300,1.7024
2014-07-14,2.11,2.13,2.095,2.10,301100,1.7105
2014-07-11,2.11,2.14,2.10,2.10,131700,1.7105
2014-07-10,2.13,2.14,2.11,2.13,252300,1.735
2014-07-09,2.12,2.15,2.11,2.11,494500,1.7187
2014-07-08,2.13,2.13,2.11,2.12,309300,1.7268
2014-07-07,2.14,2.14,2.12,2.13,204500,1.735
2014-07-04,2.12,2.15,2.12,2.14,256100,1.7431
2014-07-03,2.08,2.15,2.08,2.12,1795300,1.7268
2014-07-02,2.04,2.07,2.04,2.07,234200,1.6861
2014-07-01,2.06,2.06,2.01,2.02,641600,1.6454
2014-06-30,2.09,2.10,2.05,2.05,364900,1.6698
2014-06-27,2.06,2.08,2.05,2.05,365200,1.6698
2014-06-26,2.07,2.07,2.03,2.05,346200,1.6698
2014-06-25,2.12,2.13,2.10,2.12,172500,1.6551
2014-06-24,2.11,2.13,2.10,2.12,243500,1.6551
2014-06-23,2.105,2.13,2.10,2.11,314000,1.6473
2014-06-20,2.10,2.12,2.10,2.10,245200,1.6395
2014-06-19,2.10,2.105,2.09,2.09,73100,1.6317
2014-06-18,2.11,2.11,2.09,2.11,94600,1.6473
2014-06-17,2.10,2.12,2.08,2.10,1104800,1.6395
2014-06-16,2.09,2.13,2.09,2.09,156500,1.6317
2014-06-13,2.09,2.10,2.08,2.10,95400,1.6395
2014-06-12,2.09,2.12,2.09,2.09,154300,1.6317
2014-06-11,2.10,2.11,2.08,2.10,27400,1.6395
2014-06-10,2.10,2.11,2.09,2.10,33900,1.6395
2014-06-09,2.11,2.11,2.11,2.11,000,1.6473
2014-06-06,2.08,2.11,2.08,2.11,532400,1.6473
2014-06-05,2.13,2.13,2.08,2.08,96100,1.6239
2014-06-04,2.12,2.15,2.08,2.13,124300,1.6629
2014-06-03,2.09,2.145,2.07,2.13,2855800,1.6629
2014-06-02,2.065,2.08,2.06,2.08,55400,1.6239
2014-05-30,2.07,2.07,2.05,2.05,248000,1.6005
2014-05-29,2.08,2.10,2.05,2.06,295000,1.6083
2014-05-28,2.08,2.09,2.08,2.08,64100,1.6239
2014-05-27,2.10,2.10,2.08,2.08,71500,1.6239
2014-05-26,2.08,2.105,2.08,2.10,116800,1.6395
2014-05-23,2.11,2.11,2.07,2.07,21600,1.6161
2014-05-22,2.08,2.11,2.07,2.07,121800,1.6161
2014-05-21,2.10,2.10,2.08,2.08,44100,1.6239
2014-05-20,2.07,2.10,2.07,2.10,79500,1.6395
2014-05-19,2.09,2.10,2.07,2.07,60000,1.6161
2014-05-16,2.06,2.09,2.06,2.08,70000,1.6239
2014-05-15,2.09,2.10,2.06,2.06,143000,1.6083
2014-05-14,2.11,2.11,2.08,2.08,119500,1.6239
2014-05-13,2.09,2.10,2.08,2.08,50800,1.6239
2014-05-12,2.07,2.10,2.06,2.09,50900,1.6317
2014-05-09,2.10,2.10,2.08,2.10,13200,1.6395
2014-05-08,2.08,2.10,2.06,2.06,71100,1.6083
2014-05-07,2.12,2.14,2.08,2.08,162000,1.6239
2014-05-06,2.08,2.16,2.08,2.12,262700,1.6551
2014-05-05,2.09,2.09,2.08,2.09,57100,1.6317
2014-05-02,2.08,2.09,2.07,2.09,192100,1.6317
2014-05-01,2.08,2.09,2.075,2.09,42600,1.6317
2014-04-30,2.08,2.08,2.06,2.06,104200,1.6083
2014-04-29,2.06,2.08,2.06,2.08,59600,1.6239
2014-04-28,2.06,2.09,2.05,2.06,118000,1.6083
2014-04-25,2.08,2.08,2.08,2.08,000,1.6239
2014-04-24,2.10,2.10,2.07,2.08,39000,1.6239
2014-04-23,2.08,2.10,2.06,2.10,85100,1.6395
2014-04-22,2.08,2.10,2.05,2.05,74400,1.6005
2014-04-21,2.08,2.08,2.08,2.08,000,1.6239
2014-04-18,2.08,2.08,2.08,2.08,000,1.6239
2014-04-17,2.06,2.08,2.04,2.08,127100,1.6239
2014-04-16,2.07,2.08,2.04,2.06,780200,1.6083
2014-04-15,2.04,2.04,2.02,2.03,139900,1.5849
2014-04-14,2.05,2.05,2.03,2.03,85000,1.5849
2014-04-11,2.04,2.065,2.04,2.05,93600,1.6005
2014-04-10,2.04,2.06,2.035,2.04,410500,1.5927
2014-04-09,2.03,2.06,2.03,2.04,243300,1.5927
2014-04-08,2.03,2.035,2.02,2.03,61200,1.5849
2014-04-07,2.02,2.06,2.02,2.04,208300,1.5927
2014-04-04,2.05,2.06,2.03,2.04,129400,1.5927
2014-04-03,2.03,2.06,2.03,2.03,67600,1.5849
2014-04-02,2.03,2.05,2.02,2.02,75100,1.5771
2014-04-01,1.98,2.06,1.98,2.03,153500,1.5849
2014-03-31,2.00,2.01,1.96,1.99,852100,1.5536
2014-03-28,2.01,2.04,1.98,2.00,802600,1.5614
2014-03-27,2.05,2.05,1.995,2.00,277500,1.5614
2014-03-26,2.02,2.07,1.995,2.01,489400,1.5693
2014-03-25,2.04,2.08,2.02,2.02,119200,1.5771
2014-03-24,2.05,2.09,1.995,2.05,772700,1.6005
2014-03-21,2.09,2.10,2.04,2.04,10794400,1.5927
2014-03-20,2.09,2.10,2.07,2.07,543300,1.6161
2014-03-19,2.105,2.115,2.09,2.09,368100,1.6317
2014-03-18,2.10,2.11,2.10,2.11,564100,1.6473
2014-03-17,2.11,2.12,2.10,2.10,534800,1.6395
2014-03-14,2.12,2.12,2.10,2.10,486300,1.6395
2014-03-13,2.11,2.17,2.09,2.13,505900,1.6629
2014-03-12,2.10,2.11,2.09,2.09,196000,1.6317
2014-03-11,2.10,2.11,2.09,2.10,209900,1.6395
2014-03-10,2.10,2.11,2.10,2.10,958600,1.6395
2014-03-07,2.08,2.11,2.08,2.10,446900,1.6395
2014-03-06,2.06,2.09,2.06,2.09,128500,1.6317
2014-03-05,1.995,2.10,1.995,2.06,469000,1.6083
2014-03-04,1.99,1.995,1.99,1.995,36500,1.5575
2014-03-03,1.985,1.99,1.96,1.97,120800,1.538
2014-02-28,1.98,1.995,1.98,1.99,235400,1.5536
2014-02-27,1.99,1.99,1.98,1.99,216200,1.5536
2014-02-26,1.99,1.995,1.99,1.99,50600,1.5536
2014-02-25,2.00,2.00,1.99,1.995,99100,1.5575
2014-02-24,2.00,2.00,1.99,1.99,530600,1.5536
2014-02-21,2.00,2.00,1.99,1.995,668400,1.5575
2014-02-20,2.00,2.01,1.99,2.00,679400,1.5614
2014-02-19,2.01,2.03,2.01,2.02,101000,1.5771
2014-02-18,2.005,2.02,2.00,2.02,300000,1.5771
2014-02-17,2.00,2.01,2.00,2.00,32500,1.5614
2014-02-14,2.02,2.02,2.00,2.00,138500,1.5614
2014-02-13,2.02,2.03,2.01,2.02,48100,1.5771
2014-02-12,2.02,2.03,2.00,2.03,143000,1.5849
2014-02-11,2.02,2.05,2.02,2.02,909000,1.5771
2014-02-10,2.03,2.04,2.02,2.02,340800,1.5771
2014-02-07,2.02,2.05,2.015,2.02,265600,1.5771
2014-02-06,2.01,2.03,2.01,2.02,217800,1.5771
2014-02-05,2.00,2.04,1.98,2.01,917300,1.5693
2014-02-04,2.00,2.03,1.97,2.00,117200,1.5614
2014-02-03,2.00,2.02,1.99,2.00,164600,1.5614
2014-01-31,2.03,2.03,1.99,2.02,189500,1.5771
2014-01-30,2.02,2.04,2.02,2.03,132200,1.5849
2014-01-29,2.05,2.05,2.02,2.02,76400,1.5771
2014-01-28,2.04,2.04,2.02,2.04,121900,1.5927
2014-01-27,2.04,2.04,2.04,2.04,000,1.5927
2014-01-24,2.04,2.05,2.04,2.04,146300,1.5927
2014-01-23,2.05,2.06,2.05,2.05,15100,1.6005
2014-01-22,2.05,2.06,2.05,2.06,352500,1.6083
2014-01-21,2.07,2.07,2.05,2.05,197200,1.6005
2014-01-20,2.07,2.07,2.06,2.07,33800,1.6161
2014-01-17,2.07,2.07,2.06,2.07,72500,1.6161
2014-01-16,2.07,2.09,2.05,2.09,80300,1.6317
2014-01-15,2.07,2.08,2.06,2.07,113200,1.6161
2014-01-14,2.06,2.07,2.05,2.07,91100,1.6161
2014-01-13,2.04,2.09,2.04,2.06,60600,1.6083
2014-01-10,2.06,2.07,2.05,2.05,435900,1.6005
2014-01-09,2.06,2.08,2.02,2.05,227300,1.6005
2014-01-08,2.00,2.03,1.99,2.03,378700,1.5849
2014-01-07,2.01,2.01,1.99,1.995,502100,1.5575
2014-01-06,2.01,2.02,2.00,2.01,74100,1.5693
2014-01-03,2.00,2.00,2.00,2.00,9000,1.5614
2014-01-02,2.02,2.02,1.995,2.00,20800,1.5614
2014-01-01,2.02,2.02,2.02,2.02,000,1.5771
2013-12-31,2.02,2.02,2.00,2.02,152400,1.5771
2013-12-30,2.00,2.02,2.00,2.02,192100,1.5771
2013-12-27,1.95,1.975,1.95,1.975,145100,1.5419
2013-12-26,1.99,1.99,1.99,1.99,000,1.5536
2013-12-25,1.99,1.99,1.99,1.99,000,1.5536
2013-12-24,2.04,2.04,1.99,1.99,17800,1.5536
2013-12-23,2.03,2.04,2.02,2.04,16200,1.5927
2013-12-20,1.96,2.01,1.95,1.995,310100,1.5575
2013-12-19,1.92,1.96,1.92,1.96,221600,1.5302
2013-12-18,1.92,1.94,1.90,1.90,3400400,1.4834
2013-12-17,1.94,1.9425,1.915,1.915,1027700,1.4951
2013-12-16,1.91,1.94,1.91,1.91,1004700,1.4912
2013-12-13,2.00,2.00,1.93,1.935,2060300,1.5107
2013-12-12,2.03,2.04,2.00,2.00,1598100,1.5614
2013-12-11,2.06,2.06,2.02,2.02,3956100,1.5771
2013-12-10,2.08,2.09,2.04,2.07,21322900,1.6161
