Date,Open,High,Low,Close,Volume,Adj Close
2017-01-10,0.265,0.265,0.265,0.265,20000,0.265
2017-01-09,0.26,0.27,0.255,0.26,113500,0.26
2017-01-06,0.27,0.275,0.27,0.27,271200,0.27
2017-01-05,0.28,0.28,0.27,0.27,31700,0.27
2017-01-04,0.28,0.285,0.28,0.28,64900,0.28
2017-01-03,0.28,0.285,0.275,0.28,1427700,0.28
2017-01-02,0.285,0.285,0.285,0.285,000,0.285
2016-12-30,0.265,0.285,0.265,0.285,462500,0.285
2016-12-29,0.265,0.27,0.265,0.27,11700,0.27
2016-12-28,0.265,0.265,0.265,0.265,41900,0.265
2016-12-27,0.265,0.265,0.265,0.265,000,0.265
2016-12-26,0.265,0.265,0.265,0.265,000,0.265
2016-12-23,0.265,0.265,0.265,0.265,000,0.265
2016-12-22,0.26,0.265,0.26,0.265,8200,0.265
2016-12-21,0.265,0.265,0.255,0.255,234900,0.255
2016-12-20,0.27,0.275,0.265,0.27,317900,0.27
2016-12-19,0.28,0.28,0.27,0.27,299700,0.27
2016-12-16,0.26,0.28,0.26,0.28,684400,0.28
2016-12-15,0.24,0.26,0.24,0.26,280100,0.26
2016-12-14,0.23,0.245,0.23,0.24,450200,0.24
2016-12-13,0.25,0.25,0.23,0.23,490200,0.23
2016-12-12,0.25,0.26,0.245,0.245,377500,0.245
2016-12-09,0.27,0.275,0.255,0.255,349200,0.255
2016-12-08,0.26,0.265,0.26,0.265,107000,0.265
2016-12-07,0.27,0.27,0.26,0.26,89800,0.26
2016-12-06,0.27,0.28,0.265,0.27,224100,0.27
2016-12-05,0.275,0.28,0.27,0.27,244800,0.27
2016-12-02,0.27,0.27,0.27,0.27,000,0.27
2016-12-01,0.27,0.275,0.27,0.27,216700,0.27
2016-11-30,0.26,0.28,0.26,0.28,1192200,0.28
2016-11-29,0.265,0.265,0.265,0.265,18800,0.265
2016-11-28,0.27,0.27,0.26,0.26,51000,0.26
2016-11-25,0.27,0.27,0.26,0.27,353100,0.27
2016-11-24,0.27,0.28,0.27,0.28,178500,0.28
2016-11-23,0.27,0.28,0.27,0.275,674400,0.275
2016-11-22,0.26,0.265,0.255,0.265,252400,0.265
2016-11-21,0.255,0.255,0.25,0.255,252100,0.255
2016-11-18,0.265,0.265,0.255,0.255,80300,0.255
2016-11-17,0.265,0.265,0.265,0.265,99600,0.265
2016-11-16,0.27,0.27,0.255,0.255,602300,0.255
2016-11-15,0.27,0.27,0.265,0.27,229500,0.27
2016-11-14,0.275,0.275,0.26,0.26,217500,0.26
2016-11-11,0.27,0.28,0.27,0.27,1191900,0.27
2016-11-10,0.255,0.275,0.25,0.27,656200,0.27
2016-11-09,0.255,0.255,0.225,0.255,999700,0.255
2016-11-08,0.28,0.285,0.255,0.27,533900,0.27
2016-11-07,0.245,0.28,0.245,0.28,1073700,0.28
2016-11-04,0.26,0.26,0.235,0.235,854000,0.235
2016-11-03,0.28,0.28,0.265,0.265,341700,0.265
2016-11-02,0.295,0.295,0.27,0.275,957100,0.275
2016-11-01,0.295,0.295,0.28,0.295,545300,0.295
2016-10-31,0.27,0.305,0.27,0.30,2237200,0.30
2016-10-28,0.26,0.27,0.26,0.27,925000,0.27
2016-10-27,0.27,0.28,0.265,0.265,540500,0.265
2016-10-26,0.285,0.285,0.275,0.275,597900,0.275
2016-10-25,0.285,0.285,0.265,0.285,564800,0.285
2016-10-24,0.27,0.29,0.265,0.28,1091000,0.28
2016-10-21,0.27,0.275,0.265,0.27,186100,0.27
2016-10-20,0.275,0.28,0.255,0.27,422500,0.27
2016-10-19,0.28,0.28,0.265,0.28,505000,0.28
2016-10-18,0.295,0.295,0.275,0.28,804300,0.28
2016-10-17,0.295,0.31,0.285,0.29,1986600,0.29
2016-10-14,0.27,0.29,0.265,0.29,959200,0.29
2016-10-13,0.25,0.28,0.25,0.265,2165700,0.265
2016-10-12,0.23,0.26,0.23,0.25,1345200,0.25
2016-10-11,0.23,0.24,0.23,0.235,162500,0.235
2016-10-10,0.24,0.245,0.23,0.24,773600,0.24
2016-10-07,0.235,0.245,0.23,0.24,2125800,0.24
2016-10-06,0.23,0.26,0.227,0.23,7500100,0.23
2016-10-05,0.22,0.22,0.22,0.22,000,0.22
2016-10-04,0.22,0.22,0.22,0.22,000,0.22
2016-10-03,0.187,0.22,0.187,0.22,1849000,0.22
2016-09-30,0.19,0.19,0.185,0.185,559800,0.185
2016-09-29,0.175,0.19,0.17,0.19,1723000,0.19
2016-09-28,0.165,0.175,0.165,0.175,656900,0.175
2016-09-27,0.17,0.17,0.165,0.165,373300,0.165
2016-09-26,0.165,0.175,0.165,0.175,235300,0.175
2016-09-23,0.165,0.175,0.165,0.17,1149200,0.17
2016-09-22,0.18,0.18,0.175,0.175,401000,0.175
2016-09-21,0.19,0.19,0.177,0.18,710500,0.18
2016-09-20,0.185,0.20,0.185,0.185,2291600,0.185
2016-09-19,0.19,0.19,0.185,0.185,813000,0.185
2016-09-16,0.195,0.195,0.16,0.185,2186900,0.185
2016-09-15,0.17,0.195,0.17,0.195,2855400,0.195
2016-09-14,0.16,0.17,0.16,0.17,1042000,0.17
2016-09-13,0.15,0.165,0.15,0.16,1805400,0.16
2016-09-12,0.14,0.145,0.135,0.14,2133400,0.14
2016-09-09,0.14,0.14,0.13,0.14,1414800,0.14
2016-09-08,0.13,0.14,0.13,0.14,2003500,0.14
2016-09-07,0.14,0.14,0.13,0.135,353600,0.135
2016-09-06,0.13,0.14,0.13,0.14,399100,0.14
2016-09-05,0.13,0.14,0.125,0.135,292400,0.135
2016-09-02,0.13,0.13,0.12,0.125,591900,0.125
2016-09-01,0.135,0.135,0.135,0.135,74000,0.135
2016-08-31,0.125,0.135,0.125,0.13,974000,0.13
2016-08-30,0.13,0.13,0.125,0.125,451500,0.125
2016-08-29,0.125,0.125,0.12,0.12,158600,0.12
2016-08-26,0.13,0.135,0.13,0.13,219500,0.13
2016-08-25,0.135,0.14,0.115,0.125,2095500,0.125
2016-08-24,0.13,0.135,0.13,0.13,86600,0.13
2016-08-23,0.135,0.14,0.13,0.13,289300,0.13
2016-08-22,0.125,0.13,0.125,0.13,343300,0.13
2016-08-19,0.125,0.13,0.125,0.13,453000,0.13
2016-08-18,0.14,0.14,0.125,0.13,1065500,0.13
2016-08-17,0.14,0.145,0.14,0.14,323700,0.14
2016-08-16,0.14,0.14,0.14,0.14,266900,0.14
2016-08-15,0.145,0.145,0.14,0.14,86000,0.14
2016-08-12,0.145,0.145,0.145,0.145,226800,0.145
2016-08-11,0.15,0.15,0.145,0.145,578000,0.145
2016-08-10,0.15,0.16,0.15,0.155,564900,0.155
2016-08-09,0.15,0.15,0.15,0.15,227700,0.15
2016-08-08,0.15,0.15,0.145,0.15,233300,0.15
2016-08-05,0.145,0.15,0.145,0.145,104200,0.145
2016-08-04,0.145,0.155,0.145,0.15,269400,0.15
2016-08-03,0.15,0.155,0.15,0.15,307400,0.15
2016-08-02,0.15,0.155,0.145,0.145,333100,0.145
2016-08-01,0.155,0.16,0.15,0.16,160800,0.16
2016-07-29,0.165,0.165,0.155,0.155,80400,0.155
2016-07-28,0.16,0.165,0.16,0.165,162100,0.165
2016-07-27,0.15,0.155,0.15,0.155,233500,0.155
2016-07-26,0.16,0.16,0.145,0.145,526500,0.145
2016-07-25,0.15,0.16,0.15,0.16,122000,0.16
2016-07-22,0.16,0.16,0.16,0.16,34600,0.16
2016-07-21,0.165,0.165,0.155,0.16,475300,0.16
2016-07-20,0.175,0.175,0.16,0.16,431100,0.16
2016-07-19,0.165,0.17,0.165,0.17,204300,0.17
2016-07-18,0.175,0.18,0.165,0.165,1059300,0.165
2016-07-15,0.18,0.185,0.175,0.175,603200,0.175
2016-07-14,0.185,0.19,0.175,0.175,1808800,0.175
2016-07-13,0.165,0.17,0.16,0.17,989100,0.17
2016-07-12,0.155,0.17,0.155,0.165,1066200,0.165
2016-07-11,0.155,0.16,0.15,0.15,271800,0.15
2016-07-08,0.155,0.155,0.15,0.15,99300,0.15
2016-07-07,0.15,0.15,0.15,0.15,188600,0.15
2016-07-06,0.15,0.15,0.145,0.145,193600,0.145
2016-07-05,0.15,0.15,0.15,0.15,448500,0.15
2016-07-04,0.155,0.16,0.145,0.155,265300,0.155
2016-07-01,0.155,0.16,0.15,0.155,731600,0.155
2016-06-30,0.155,0.155,0.145,0.15,895600,0.15
2016-06-29,0.155,0.16,0.15,0.15,811100,0.15
2016-06-28,0.145,0.155,0.145,0.155,547400,0.155
2016-06-27,0.15,0.16,0.145,0.145,1406500,0.145
2016-06-24,0.17,0.175,0.13,0.155,3424000,0.155
2016-06-23,0.17,0.175,0.165,0.17,843800,0.17
2016-06-22,0.18,0.18,0.165,0.175,1379100,0.175
2016-06-21,0.175,0.18,0.175,0.18,440700,0.18
2016-06-20,0.185,0.19,0.17,0.18,1315800,0.18
2016-06-17,0.165,0.195,0.165,0.18,5648500,0.18
2016-06-16,0.14,0.165,0.14,0.16,3844000,0.16
2016-06-15,0.13,0.14,0.125,0.14,2514500,0.14
2016-06-14,0.145,0.145,0.125,0.125,1607500,0.125
2016-06-13,0.145,0.145,0.145,0.145,000,0.145
2016-06-10,0.155,0.155,0.145,0.145,603200,0.145
2016-06-09,0.155,0.16,0.15,0.15,1254100,0.15
2016-06-08,0.17,0.17,0.15,0.15,3313300,0.15
2016-06-07,0.15,0.175,0.145,0.175,4519900,0.175
2016-06-06,0.14,0.15,0.14,0.145,1680100,0.145
2016-06-03,0.13,0.14,0.13,0.135,1589600,0.135
2016-06-02,0.125,0.13,0.12,0.125,1575500,0.125
2016-06-01,0.12,0.125,0.115,0.125,2251600,0.125
2016-05-31,0.12,0.127,0.11,0.12,2654700,0.12
2016-05-30,0.105,0.125,0.105,0.12,5138500,0.12
2016-05-27,0.089,0.105,0.088,0.099,3298400,0.099
2016-05-26,0.088,0.091,0.087,0.089,2231200,0.089
2016-05-25,0.085,0.091,0.085,0.088,1392100,0.088
2016-05-24,0.074,0.09,0.074,0.083,1269300,0.083
2016-05-23,0.076,0.078,0.073,0.073,623500,0.073
2016-05-20,0.073,0.08,0.072,0.08,558200,0.08
2016-05-19,0.073,0.073,0.073,0.073,900,0.073
2016-05-18,0.074,0.074,0.073,0.073,99300,0.073
2016-05-17,0.077,0.077,0.074,0.076,471600,0.076
2016-05-16,0.078,0.079,0.077,0.078,238900,0.078
2016-05-13,0.079,0.08,0.077,0.078,645700,0.078
2016-05-12,0.079,0.079,0.078,0.079,401000,0.079
2016-05-11,0.08,0.08,0.078,0.079,1170200,0.079
2016-05-10,0.08,0.081,0.078,0.08,826900,0.08
2016-05-09,0.08,0.08,0.079,0.08,1378300,0.08
2016-05-06,0.079,0.08,0.078,0.078,193500,0.078
2016-05-05,0.079,0.079,0.079,0.079,14000,0.079
2016-05-04,0.078,0.08,0.077,0.08,476600,0.08
2016-05-03,0.078,0.078,0.075,0.076,824900,0.076
2016-05-02,0.075,0.077,0.075,0.076,165300,0.076
2016-04-29,0.071,0.075,0.071,0.075,200200,0.075
2016-04-28,0.076,0.077,0.07,0.073,610400,0.073
2016-04-27,0.079,0.08,0.076,0.076,427800,0.076
2016-04-26,0.078,0.08,0.078,0.08,135000,0.08
2016-04-25,0.08,0.08,0.08,0.08,000,0.08
2016-04-22,0.08,0.08,0.076,0.08,241500,0.08
2016-04-21,0.083,0.084,0.08,0.08,1507200,0.08
2016-04-20,0.078,0.081,0.076,0.081,3022100,0.081
2016-04-19,0.077,0.079,0.076,0.078,290600,0.078
2016-04-18,0.075,0.078,0.075,0.078,43300,0.078
2016-04-15,0.075,0.077,0.073,0.077,402000,0.077
2016-04-14,0.077,0.08,0.077,0.08,16800,0.08
2016-04-13,0.076,0.078,0.075,0.077,126500,0.077
2016-04-12,0.075,0.075,0.075,0.075,83300,0.075
2016-04-11,0.077,0.078,0.075,0.078,150000,0.078
2016-04-08,0.07,0.076,0.07,0.076,328000,0.076
2016-04-07,0.076,0.077,0.076,0.076,96600,0.076
2016-04-06,0.075,0.076,0.075,0.076,23000,0.076
2016-04-05,0.077,0.08,0.076,0.077,782500,0.077
2016-04-04,0.079,0.08,0.077,0.079,269800,0.079
2016-04-01,0.079,0.081,0.079,0.081,157300,0.081
2016-03-31,0.08,0.083,0.08,0.081,356100,0.081
2016-03-30,0.072,0.078,0.072,0.078,167700,0.078
2016-03-29,0.078,0.078,0.072,0.078,141700,0.078
2016-03-28,0.078,0.078,0.078,0.078,000,0.078
2016-03-25,0.078,0.078,0.078,0.078,000,0.078
2016-03-24,0.078,0.078,0.078,0.078,4200,0.078
2016-03-23,0.077,0.078,0.073,0.078,171000,0.078
2016-03-22,0.078,0.078,0.077,0.077,177000,0.077
2016-03-21,0.08,0.08,0.077,0.079,289400,0.079
2016-03-18,0.078,0.079,0.077,0.079,111800,0.079
2016-03-17,0.078,0.08,0.078,0.08,121900,0.08
2016-03-16,0.077,0.08,0.077,0.08,90200,0.08
2016-03-15,0.075,0.077,0.075,0.077,274000,0.077
2016-03-14,0.073,0.076,0.073,0.073,170200,0.073
2016-03-11,0.078,0.078,0.075,0.078,356000,0.078
2016-03-10,0.083,0.083,0.078,0.08,92400,0.08
2016-03-09,0.085,0.085,0.079,0.084,532100,0.084
2016-03-08,0.09,0.09,0.09,0.09,000,0.09
2016-03-07,0.09,0.09,0.09,0.09,000,0.09
2016-03-04,0.089,0.09,0.083,0.09,330500,0.09
2016-03-03,0.088,0.089,0.083,0.089,276200,0.089
2016-03-02,0.09,0.09,0.08,0.09,553500,0.09
2016-03-01,0.091,0.093,0.089,0.09,392300,0.09
2016-02-29,0.09,0.097,0.088,0.094,719300,0.094
2016-02-26,0.085,0.089,0.08,0.089,440300,0.089
2016-02-25,0.076,0.085,0.076,0.085,700600,0.085
2016-02-24,0.076,0.078,0.075,0.077,540400,0.077
2016-02-23,0.073,0.076,0.073,0.076,532600,0.076
2016-02-22,0.07,0.074,0.07,0.073,293700,0.073
2016-02-19,0.071,0.072,0.07,0.072,809800,0.072
2016-02-18,0.069,0.071,0.069,0.071,44100,0.071
2016-02-17,0.07,0.07,0.067,0.067,242600,0.067
2016-02-16,0.07,0.07,0.066,0.07,383000,0.07
2016-02-15,0.07,0.073,0.07,0.072,347700,0.072
2016-02-12,0.071,0.074,0.067,0.07,367700,0.07
2016-02-11,0.066,0.071,0.066,0.071,512200,0.071
2016-02-10,0.069,0.072,0.066,0.07,207500,0.07
2016-02-09,0.072,0.074,0.07,0.07,402500,0.07
2016-02-08,0.066,0.073,0.066,0.071,335400,0.071
2016-02-05,0.065,0.066,0.064,0.064,587100,0.064
2016-02-04,0.064,0.067,0.061,0.066,261700,0.066
2016-02-03,0.06,0.063,0.06,0.063,270000,0.063
2016-02-02,0.063,0.064,0.06,0.06,119100,0.06
2016-02-01,0.06,0.064,0.06,0.063,306000,0.063
2016-01-29,0.062,0.062,0.058,0.061,683600,0.061
2016-01-28,0.068,0.068,0.063,0.063,565000,0.063
2016-01-27,0.073,0.08,0.064,0.067,1836000,0.067
2016-01-26,0.067,0.067,0.067,0.067,000,0.067
2016-01-25,0.066,0.068,0.064,0.067,398500,0.067
2016-01-22,0.06,0.066,0.058,0.066,214200,0.066
2016-01-21,0.058,0.063,0.058,0.063,112900,0.063
2016-01-20,0.056,0.061,0.056,0.061,95200,0.061
2016-01-19,0.058,0.058,0.058,0.058,000,0.058
2016-01-18,0.054,0.06,0.054,0.058,619000,0.058
2016-01-15,0.052,0.056,0.052,0.056,43300,0.056
2016-01-14,0.055,0.055,0.055,0.055,65000,0.055
2016-01-13,0.056,0.058,0.056,0.058,165000,0.058
2016-01-12,0.058,0.058,0.055,0.058,347700,0.058
2016-01-11,0.059,0.06,0.057,0.06,110000,0.06
2016-01-08,0.059,0.059,0.059,0.059,30800,0.059
2016-01-07,0.059,0.059,0.059,0.059,000,0.059
2016-01-06,0.059,0.059,0.059,0.059,100000,0.059
2016-01-05,0.061,0.061,0.059,0.059,434100,0.059
2016-01-04,0.061,0.061,0.059,0.059,215000,0.059
2016-01-01,0.06,0.06,0.06,0.06,000,0.06
2015-12-31,0.06,0.06,0.06,0.06,000,0.06
2015-12-30,0.06,0.06,0.06,0.06,300000,0.06
2015-12-29,0.066,0.066,0.066,0.066,000,0.066
2015-12-28,0.066,0.066,0.066,0.066,000,0.066
2015-12-25,0.066,0.066,0.066,0.066,000,0.066
2015-12-24,0.06,0.066,0.06,0.066,60000,0.066
2015-12-23,0.06,0.06,0.057,0.06,122500,0.06
2015-12-22,0.06,0.06,0.06,0.06,61600,0.06
2015-12-21,0.06,0.06,0.06,0.06,48000,0.06
2015-12-18,0.066,0.066,0.066,0.066,000,0.066
2015-12-17,0.065,0.066,0.06,0.066,728000,0.066
2015-12-16,0.065,0.065,0.063,0.065,165200,0.065
2015-12-15,0.066,0.068,0.066,0.067,646600,0.067
2015-12-14,0.062,0.062,0.062,0.062,000,0.062
2015-12-11,0.063,0.065,0.062,0.062,53800,0.062
2015-12-10,0.065,0.065,0.061,0.061,270900,0.061
2015-12-09,0.067,0.067,0.065,0.066,685800,0.066
2015-12-08,0.071,0.071,0.067,0.07,644300,0.07
2015-12-07,0.078,0.078,0.07,0.07,609000,0.07
2015-12-04,0.065,0.08,0.064,0.075,428800,0.075
2015-12-03,0.064,0.065,0.063,0.064,687000,0.064
2015-12-02,0.06,0.06,0.06,0.06,527700,0.06
2015-12-01,0.058,0.058,0.057,0.058,468700,0.058
2015-11-30,0.058,0.061,0.056,0.058,1115400,0.058
2015-11-27,0.05,0.058,0.05,0.057,803600,0.057
2015-11-26,0.05,0.05,0.049,0.05,112600,0.05
2015-11-25,0.049,0.05,0.047,0.05,380000,0.05
2015-11-24,0.049,0.049,0.047,0.049,331600,0.049
2015-11-23,0.053,0.053,0.049,0.049,117000,0.049
2015-11-20,0.05,0.054,0.05,0.054,264700,0.054
2015-11-19,0.05,0.051,0.049,0.05,345000,0.05
2015-11-18,0.049,0.053,0.049,0.053,471700,0.053
2015-11-17,0.056,0.064,0.049,0.049,1634600,0.049
2015-11-16,0.051,0.053,0.05,0.05,112900,0.05
2015-11-13,0.053,0.053,0.053,0.053,000,0.053
2015-11-12,0.053,0.053,0.053,0.053,000,0.053
2015-11-11,0.05,0.053,0.05,0.053,200000,0.053
2015-11-10,0.05,0.056,0.05,0.056,17000,0.056
2015-11-09,0.052,0.052,0.05,0.05,223400,0.05
2015-11-06,0.056,0.056,0.056,0.056,000,0.056
2015-11-05,0.055,0.056,0.05,0.056,648900,0.056
2015-11-04,0.054,0.054,0.054,0.054,25700,0.054
2015-11-03,0.05,0.05,0.05,0.05,000,0.05
2015-11-02,0.056,0.056,0.05,0.05,227100,0.05
2015-10-30,0.057,0.058,0.056,0.058,123600,0.058
2015-10-29,0.056,0.057,0.056,0.057,224700,0.057
2015-10-28,0.057,0.057,0.057,0.057,10400,0.057
2015-10-27,0.057,0.057,0.054,0.057,208100,0.057
2015-10-26,0.055,0.055,0.055,0.055,75200,0.055
2015-10-23,0.057,0.058,0.053,0.053,446300,0.053
2015-10-22,0.058,0.059,0.057,0.057,169400,0.057
2015-10-21,0.059,0.059,0.058,0.058,180400,0.058
2015-10-20,0.055,0.06,0.055,0.06,272200,0.06
2015-10-19,0.056,0.056,0.056,0.056,45700,0.056
2015-10-16,0.059,0.061,0.058,0.061,138800,0.061
2015-10-15,0.059,0.059,0.056,0.056,205400,0.056
2015-10-14,0.059,0.059,0.059,0.059,4900,0.059
2015-10-13,0.06,0.06,0.06,0.06,92100,0.06
2015-10-12,0.06,0.063,0.06,0.061,462800,0.061
2015-10-09,0.06,0.06,0.06,0.06,95400,0.06
2015-10-08,0.06,0.064,0.06,0.061,70500,0.061
2015-10-07,0.063,0.063,0.063,0.063,118400,0.063
2015-10-06,0.06,0.063,0.06,0.061,193800,0.061
2015-10-05,0.06,0.06,0.06,0.06,109400,0.06
2015-10-02,0.062,0.064,0.062,0.064,1000,0.064
2015-10-01,0.058,0.062,0.058,0.062,155100,0.062
2015-09-30,0.058,0.058,0.058,0.058,000,0.058
2015-09-29,0.058,0.058,0.058,0.058,65600,0.058
2015-09-28,0.062,0.062,0.062,0.062,000,0.062
2015-09-25,0.06,0.062,0.06,0.062,230600,0.062
2015-09-24,0.062,0.062,0.062,0.062,000,0.062
2015-09-23,0.062,0.062,0.062,0.062,60000,0.062
2015-09-22,0.06,0.063,0.06,0.06,30500,0.06
2015-09-21,0.062,0.062,0.058,0.061,488800,0.061
2015-09-18,0.059,0.063,0.059,0.063,69600,0.063
2015-09-17,0.06,0.06,0.06,0.06,182100,0.06
2015-09-16,0.06,0.065,0.056,0.065,479300,0.065
2015-09-15,0.06,0.06,0.06,0.06,32900,0.06
2015-09-14,0.062,0.066,0.061,0.061,412700,0.061
2015-09-11,0.061,0.064,0.06,0.06,136000,0.06
2015-09-10,0.061,0.061,0.06,0.06,86400,0.06
2015-09-09,0.06,0.061,0.06,0.061,419700,0.061
2015-09-08,0.061,0.062,0.061,0.062,88700,0.062
2015-09-07,0.06,0.06,0.06,0.06,17400,0.06
2015-09-04,0.058,0.062,0.058,0.059,83200,0.059
2015-09-03,0.058,0.062,0.058,0.06,299300,0.06
2015-09-02,0.059,0.06,0.058,0.058,338100,0.058
2015-09-01,0.06,0.06,0.058,0.059,269200,0.059
2015-08-31,0.057,0.06,0.057,0.06,867100,0.06
2015-08-28,0.057,0.057,0.057,0.057,150900,0.057
2015-08-27,0.056,0.058,0.055,0.055,177100,0.055
2015-08-26,0.055,0.055,0.053,0.053,21700,0.053
2015-08-25,0.051,0.055,0.051,0.055,583900,0.055
2015-08-24,0.059,0.06,0.056,0.06,1036600,0.06
2015-08-21,0.059,0.062,0.059,0.062,55700,0.062
2015-08-20,0.061,0.061,0.059,0.059,342400,0.059
2015-08-19,0.06,0.061,0.06,0.061,143300,0.061
2015-08-18,0.063,0.063,0.059,0.059,343700,0.059
2015-08-17,0.064,0.066,0.062,0.064,1055300,0.064
2015-08-14,0.062,0.063,0.06,0.063,108500,0.063
2015-08-13,0.06,0.063,0.06,0.06,105100,0.06
2015-08-12,0.064,0.064,0.058,0.06,262400,0.06
2015-08-11,0.06,0.064,0.06,0.064,327000,0.064
2015-08-10,0.061,0.063,0.059,0.06,816700,0.06
2015-08-07,0.067,0.067,0.062,0.063,272000,0.063
2015-08-06,0.061,0.067,0.061,0.066,741200,0.066
2015-08-05,0.061,0.062,0.059,0.06,970300,0.06
2015-08-04,0.064,0.066,0.058,0.062,1488500,0.062
2015-08-03,0.073,0.073,0.061,0.066,2137100,0.066
2015-07-31,0.076,0.076,0.072,0.072,1304100,0.072
2015-07-30,0.08,0.08,0.076,0.079,206800,0.079
2015-07-29,0.083,0.084,0.077,0.077,567900,0.077
2015-07-28,0.08,0.082,0.077,0.082,496200,0.082
2015-07-27,0.084,0.085,0.08,0.082,957700,0.082
2015-07-24,0.093,0.094,0.084,0.085,1592700,0.085
2015-07-23,0.09,0.105,0.08,0.09,6649900,0.09
2015-07-22,0.082,0.083,0.08,0.083,102700,0.083
2015-07-21,0.087,0.087,0.08,0.081,277100,0.081
2015-07-20,0.086,0.09,0.086,0.088,1241300,0.088
2015-07-17,0.077,0.085,0.077,0.085,776700,0.085
2015-07-16,0.075,0.078,0.074,0.074,934200,0.074
2015-07-15,0.074,0.075,0.07,0.075,109700,0.075
2015-07-14,0.075,0.077,0.07,0.074,1628400,0.074
2015-07-13,0.074,0.076,0.074,0.075,54000,0.075
2015-07-10,0.077,0.077,0.06,0.06,127600,0.06
2015-07-09,0.078,0.079,0.073,0.075,49500,0.075
2015-07-08,0.08433,0.08433,0.07571,0.07667,694000,0.07667
2015-07-07,0.07954,0.08242,0.07571,0.08146,378500,0.08146
2015-07-06,0.08625,0.08625,0.07858,0.0805,563300,0.0805
2015-07-03,0.07858,0.092,0.07571,0.09008,2306700,0.09008
2015-07-02,0.06613,0.07667,0.06613,0.07283,646700,0.07283
2015-07-01,0.06229,0.06421,0.06038,0.06421,850600,0.06421
2015-06-30,0.05942,0.06229,0.0575,0.06038,887800,0.06038
2015-06-29,0.06325,0.06325,0.05942,0.05942,539100,0.05942
2015-06-26,0.07667,0.07667,0.06708,0.06708,375000,0.06708
2015-06-25,0.08146,0.08146,0.07475,0.07475,503600,0.07475
2015-06-24,0.08146,0.08433,0.08146,0.08338,190900,0.08338
2015-06-23,0.08146,0.08146,0.07954,0.07954,116800,0.07954
2015-06-22,0.08625,0.08625,0.08146,0.08146,212400,0.08146
2015-06-19,0.07763,0.08433,0.07571,0.08433,328500,0.08433
2015-06-18,0.0805,0.0805,0.0805,0.0805,19800,0.0805
2015-06-17,0.08529,0.08529,0.08529,0.08529,12000,0.08529
2015-06-16,0.07667,0.08529,0.07667,0.08529,25100,0.08529
2015-06-15,0.08242,0.08242,0.07571,0.07667,483600,0.07667
2015-06-12,0.08146,0.08146,0.08146,0.08146,000,0.08146
2015-06-11,0.08146,0.08146,0.08146,0.08146,000,0.08146
2015-06-10,0.08913,0.09008,0.08146,0.08146,137700,0.08146
2015-06-09,0.08817,0.09104,0.08817,0.09008,90700,0.09008
2015-06-08,0.08817,0.08817,0.08817,0.08817,000,0.08817
2015-06-05,0.09392,0.09392,0.08817,0.08817,121200,0.08817
2015-06-04,0.09008,0.11021,0.09008,0.09583,748200,0.09583
2015-06-03,0.06708,0.08433,0.06708,0.08433,414500,0.08433
2015-06-02,0.06613,0.06613,0.06325,0.06613,98400,0.06613
2015-06-01,0.06517,0.06708,0.06421,0.06421,409000,0.06421
2015-05-29,0.05271,0.06421,0.04888,0.06421,686000,0.06421
2015-05-28,0.0575,0.0575,0.05558,0.05558,89200,0.05558
2015-05-27,0.05942,0.06133,0.0575,0.06038,750200,0.06038
2015-05-26,0.06133,0.06325,0.05942,0.06325,219600,0.06325
2015-05-25,0.06133,0.06421,0.06133,0.06421,58400,0.06421
2015-05-22,0.06421,0.069,0.06038,0.06517,680500,0.06517
2015-05-21,0.06708,0.06708,0.06708,0.06708,21400,0.06708
2015-05-20,0.06708,0.06708,0.06708,0.06708,65400,0.06708
2015-05-19,0.07283,0.07283,0.06613,0.06708,934500,0.06708
2015-05-18,0.07763,0.07763,0.07379,0.07379,135600,0.07379
2015-05-15,0.08146,0.08146,0.07858,0.07858,174800,0.07858
2015-05-14,0.08146,0.08146,0.08146,0.08146,104300,0.08146
2015-05-13,0.07954,0.08146,0.07954,0.08146,46100,0.08146
2015-05-12,0.08146,0.08146,0.07954,0.07954,114500,0.07954
2015-05-11,0.08146,0.08146,0.07954,0.07954,50400,0.07954
2015-05-08,0.07954,0.08146,0.07954,0.08146,32900,0.08146
2015-05-07,0.07858,0.08529,0.07858,0.0805,39000,0.0805
2015-05-06,0.07858,0.07858,0.07858,0.07858,31300,0.07858
2015-05-05,0.08146,0.08146,0.07667,0.07858,171300,0.07858
2015-05-04,0.08146,0.08146,0.08146,0.08146,9300,0.08146
2015-05-01,0.08625,0.08625,0.08146,0.08146,184500,0.08146
2015-04-30,0.07954,0.08913,0.07954,0.08817,319200,0.08817
2015-04-29,0.0805,0.0805,0.07763,0.07763,320500,0.07763
2015-04-28,0.08721,0.08721,0.08146,0.08146,334100,0.08146
2015-04-27,0.08721,0.08913,0.08338,0.08913,86500,0.08913
2015-04-24,0.09008,0.09008,0.08529,0.08721,344300,0.08721
2015-04-23,0.09583,0.10063,0.07667,0.08817,1477800,0.08817
2015-04-22,0.10063,0.10063,0.09583,0.09583,226600,0.09583
2015-04-21,0.10542,0.10542,0.10063,0.10063,119900,0.10063
2015-04-20,0.115,0.115,0.10542,0.10542,708500,0.10542
2015-04-17,0.11021,0.11021,0.10542,0.10542,655400,0.10542
2015-04-16,0.115,0.12938,0.11021,0.115,585200,0.115
2015-04-15,0.09583,0.11021,0.09583,0.11021,347700,0.11021
2015-04-14,0.09583,0.10063,0.09583,0.10063,453100,0.10063
2015-04-13,0.10063,0.10063,0.09583,0.10063,156500,0.10063
2015-04-10,0.10063,0.11021,0.10063,0.11021,146800,0.11021
2015-04-09,0.10063,0.10542,0.10063,0.10063,205400,0.10063
2015-04-08,0.10542,0.10542,0.10063,0.10542,85700,0.10542
2015-04-07,0.10542,0.11021,0.10542,0.10542,211700,0.10542
2015-04-06,0.10063,0.10063,0.10063,0.10063,000,0.10063
2015-04-03,0.10063,0.10063,0.10063,0.10063,000,0.10063
2015-04-02,0.11021,0.11021,0.10063,0.10063,107800,0.10063
2015-04-01,0.11021,0.11021,0.10063,0.11021,436900,0.11021
2015-03-31,0.115,0.11979,0.11021,0.11021,550100,0.11021
2015-03-30,0.13417,0.13896,0.11021,0.11021,1082400,0.11021
2015-03-27,0.11021,0.12458,0.11021,0.11979,379800,0.11979
2015-03-26,0.11021,0.11021,0.11021,0.11021,147900,0.11021
2015-03-25,0.10542,0.115,0.10542,0.11021,382200,0.11021
2015-03-24,0.10542,0.10542,0.10542,0.10542,261400,0.10542
2015-03-23,0.10063,0.115,0.10063,0.10542,287500,0.10542
2015-03-20,0.10542,0.10542,0.10542,0.10542,000,0.10542
2015-03-19,0.10542,0.10542,0.10542,0.10542,000,0.10542
2015-03-18,0.10542,0.11021,0.10542,0.10542,79100,0.10542
2015-03-17,0.11021,0.11021,0.10542,0.11021,371000,0.11021
2015-03-16,0.11021,0.11021,0.11021,0.11021,84500,0.11021
2015-03-13,0.11021,0.115,0.11021,0.115,111900,0.115
2015-03-12,0.11021,0.11021,0.11021,0.11021,97700,0.11021
2015-03-11,0.10542,0.11021,0.10542,0.11021,256300,0.11021
2015-03-10,0.10542,0.10542,0.10542,0.10542,87900,0.10542
2015-03-09,0.11021,0.11021,0.10063,0.10542,27400,0.10542
2015-03-06,0.10542,0.115,0.10542,0.115,289000,0.115
2015-03-05,0.10063,0.11021,0.10063,0.10542,225400,0.10542
2015-03-04,0.11021,0.11021,0.10063,0.10063,376900,0.10063
2015-03-03,0.10542,0.11021,0.10542,0.11021,153500,0.11021
2015-03-02,0.10542,0.11021,0.10542,0.11021,440900,0.11021
2015-02-27,0.115,0.11979,0.10542,0.11979,669400,0.11979
2015-02-26,0.12458,0.12458,0.115,0.115,143000,0.115
2015-02-25,0.11979,0.12458,0.115,0.12458,64800,0.12458
2015-02-24,0.11979,0.11979,0.115,0.115,37300,0.115
2015-02-23,0.12458,0.12458,0.11021,0.11979,270600,0.11979
2015-02-20,0.11021,0.115,0.11021,0.115,35400,0.115
2015-02-19,0.115,0.12458,0.115,0.11979,295800,0.11979
2015-02-18,0.115,0.12458,0.11021,0.11021,294000,0.11021
2015-02-17,0.11021,0.11021,0.11021,0.11021,79900,0.11021
2015-02-16,0.11979,0.11979,0.115,0.115,103800,0.115
2015-02-13,0.115,0.115,0.11021,0.115,104600,0.115
2015-02-12,0.11979,0.11979,0.11021,0.11979,206300,0.11979
2015-02-11,0.11979,0.11979,0.11979,0.11979,000,0.11979
2015-02-10,0.12458,0.12458,0.11979,0.11979,73900,0.11979
2015-02-09,0.13417,0.13417,0.12458,0.12458,205600,0.12458
2015-02-06,0.11021,0.12938,0.11021,0.12938,101100,0.12938
2015-02-05,0.11979,0.12458,0.10542,0.12458,296800,0.12458
2015-02-04,0.12938,0.12938,0.10542,0.11979,1169900,0.11979
2015-02-03,0.13896,0.13896,0.12938,0.13417,285200,0.13417
2015-02-02,0.14375,0.14375,0.13417,0.13896,193000,0.13896
2015-01-30,0.13896,0.14375,0.13417,0.14375,165000,0.14375
2015-01-29,0.14375,0.14375,0.13896,0.13896,54500,0.13896
2015-01-28,0.14375,0.14375,0.13896,0.14375,83300,0.14375
2015-01-27,0.14375,0.14854,0.13896,0.13896,249800,0.13896
2015-01-26,0.14375,0.14375,0.14375,0.14375,000,0.14375
2015-01-23,0.14854,0.14854,0.14375,0.14375,26000,0.14375
2015-01-22,0.14375,0.14854,0.13896,0.14854,105000,0.14854
2015-01-21,0.14375,0.14375,0.13896,0.14375,92700,0.14375
2015-01-20,0.13896,0.14375,0.13896,0.14375,338600,0.14375
2015-01-19,0.12938,0.14375,0.12938,0.14375,136500,0.14375
2015-01-16,0.13896,0.13896,0.12938,0.12938,82900,0.12938
2015-01-15,0.13417,0.13896,0.12938,0.13896,173700,0.13896
2015-01-14,0.13417,0.14375,0.13417,0.14375,168700,0.14375
2015-01-13,0.13417,0.14375,0.13417,0.14375,202900,0.14375
2015-01-12,0.14375,0.14375,0.13417,0.14375,383100,0.14375
2015-01-09,0.14854,0.15333,0.14375,0.14375,52300,0.14375
2015-01-08,0.15813,0.15813,0.14854,0.14854,120900,0.14854
2015-01-07,0.14854,0.16771,0.14854,0.16771,70900,0.16771
2015-01-06,0.15333,0.15333,0.14854,0.15333,171500,0.15333
2015-01-05,0.15813,0.15813,0.13417,0.15333,110500,0.15333
2015-01-02,0.16771,0.16771,0.16292,0.16292,148800,0.16292
2015-01-01,0.16771,0.16771,0.16771,0.16771,000,0.16771
2014-12-31,0.14854,0.16771,0.14854,0.16771,23300,0.16771
2014-12-30,0.16292,0.16292,0.16292,0.16292,000,0.16292
2014-12-29,0.15813,0.16771,0.13417,0.16292,180100,0.16292
2014-12-26,0.15813,0.15813,0.15813,0.15813,000,0.15813
2014-12-25,0.15813,0.15813,0.15813,0.15813,000,0.15813
2014-12-24,0.15333,0.15813,0.14375,0.15813,123100,0.15813
2014-12-23,0.15813,0.15813,0.14854,0.14854,260000,0.14854
2014-12-22,0.16292,0.16292,0.14854,0.15813,285200,0.15813
2014-12-19,0.17729,0.17729,0.16771,0.16771,324500,0.16771
2014-12-18,0.17729,0.18208,0.17729,0.17729,189000,0.17729
2014-12-17,0.18208,0.18208,0.17729,0.17729,217600,0.17729
2014-12-16,0.18688,0.19646,0.1725,0.18208,398100,0.18208
2014-12-15,0.19167,0.19167,0.17729,0.17729,303800,0.17729
2014-12-12,0.19167,0.20125,0.18208,0.19167,468600,0.19167
2014-12-11,0.18208,0.19646,0.18208,0.19167,161900,0.19167
2014-12-10,0.20125,0.21083,0.14854,0.19167,2655600,0.19167
2014-12-09,0.19167,0.23,0.18208,0.19167,4506500,0.19167
2014-12-08,0.1725,0.19167,0.16292,0.18208,1090700,0.18208
2014-12-05,0.13417,0.15813,0.12458,0.14854,829900,0.14854
2014-12-04,0.15813,0.15813,0.12938,0.12938,660300,0.12938
2014-12-03,0.19167,0.19167,0.14375,0.14854,2525900,0.14854
2014-12-02,0.25875,0.25875,0.14375,0.17729,7010900,0.17729
2014-12-01,0.31625,0.31625,0.31625,0.31625,000,0.31625
2014-11-28,0.31625,0.31625,0.31625,0.31625,000,0.31625
2014-11-27,0.31625,0.31625,0.31625,0.31625,000,0.31625
2014-11-26,0.31625,0.31625,0.31625,0.31625,000,0.31625
2014-11-25,0.31625,0.31625,0.31625,0.31625,000,0.31625
2014-11-24,0.31625,0.31625,0.31625,0.31625,000,0.31625
2014-11-21,0.31625,0.31625,0.31625,0.31625,000,0.31625
2014-11-20,0.31625,0.31625,0.31625,0.31625,000,0.31625
2014-11-19,0.31625,0.31625,0.31625,0.31625,000,0.31625
2014-11-18,0.31625,0.31625,0.31625,0.31625,000,0.31625
2014-11-17,0.31625,0.31625,0.31625,0.31625,000,0.31625
2014-11-14,0.31625,0.31625,0.31625,0.31625,000,0.31625
2014-11-13,0.31625,0.31625,0.31625,0.31625,000,0.31625
2014-11-12,0.31625,0.31625,0.31625,0.31625,000,0.31625
2014-11-11,0.31625,0.31625,0.31625,0.31625,000,0.31625
2014-11-10,0.31625,0.31625,0.31625,0.31625,000,0.31625
2014-11-07,0.31625,0.31625,0.31625,0.31625,000,0.31625
2014-11-06,0.31625,0.31625,0.31625,0.31625,000,0.31625
2014-11-05,0.31625,0.31625,0.31625,0.31625,000,0.31625
2014-11-04,0.31625,0.31625,0.31625,0.31625,000,0.31625
2014-11-03,0.31625,0.31625,0.31625,0.31625,000,0.31625
2014-10-31,0.31625,0.31625,0.31625,0.31625,000,0.31625
2014-10-30,0.31625,0.31625,0.31625,0.31625,000,0.31625
2014-10-29,0.34979,0.35938,0.31146,0.31625,600500,0.31625
2014-10-28,0.37854,0.39292,0.35458,0.36417,63500,0.36417
2014-10-27,0.38333,0.4025,0.36896,0.38813,65900,0.38813
2014-10-24,0.37375,0.38333,0.34979,0.37854,213000,0.37854
2014-10-23,0.42167,0.42167,0.37088,0.37375,160400,0.37375
2014-10-22,0.47917,0.52708,0.42646,0.43125,396000,0.43125
2014-10-21,0.43125,0.43125,0.43125,0.43125,000,0.43125
2014-10-20,0.43125,0.43125,0.43125,0.43125,000,0.43125
2014-10-17,0.43125,0.43125,0.43125,0.43125,000,0.43125
2014-10-16,0.43125,0.43125,0.43125,0.43125,000,0.43125
2014-10-15,0.43125,0.43125,0.43125,0.43125,000,0.43125
2014-10-14,0.42167,0.43125,0.41208,0.43125,73300,0.43125
2014-10-13,0.43125,0.43125,0.41688,0.43125,8000,0.43125
2014-10-10,0.47438,0.47438,0.42646,0.43125,296200,0.43125
2014-10-09,0.46,0.47917,0.43604,0.47917,239100,0.47917
2014-10-08,0.43125,0.46479,0.43125,0.45042,144100,0.45042
2014-10-07,0.43125,0.44563,0.42167,0.44083,53000,0.44083
2014-10-06,0.45042,0.45042,0.43125,0.43125,10500,0.43125
2014-10-03,0.41688,0.45042,0.41688,0.45042,338200,0.45042
2014-10-02,0.38333,0.44563,0.38333,0.40729,1684400,0.40729
2014-10-01,0.35458,0.39292,0.34021,0.38333,655900,0.38333
2014-09-30,0.41208,0.42167,0.33542,0.36417,2389900,0.36417
2014-09-29,0.5175,0.5175,0.43125,0.44083,1363400,0.44083
2014-09-26,0.55104,0.55583,0.54146,0.54146,85400,0.54146
2014-09-25,0.56063,0.57021,0.55583,0.57021,84800,0.57021
2014-09-24,0.56542,0.57979,0.56542,0.57979,53500,0.57979
2014-09-23,0.56542,0.56542,0.56542,0.56542,4100,0.56542
2014-09-22,0.57979,0.58458,0.56063,0.56542,152500,0.56542
2014-09-19,0.575,0.59417,0.56063,0.57979,317100,0.57979
2014-09-18,0.60375,0.60375,0.55583,0.56542,257500,0.56542
2014-09-17,0.57979,0.60375,0.56063,0.57021,123200,0.57021
2014-09-16,0.54625,0.575,0.53667,0.56542,220000,0.56542
2014-09-15,0.59896,0.61813,0.5175,0.52708,583700,0.52708
2014-09-12,0.62292,0.62771,0.59417,0.59896,260600,0.59896
2014-09-11,0.62292,0.64208,0.61333,0.61333,221900,0.61333
2014-09-10,0.6325,0.63729,0.60854,0.62771,117200,0.62771
2014-09-09,0.68042,0.68042,0.62292,0.62292,114800,0.62292
2014-09-08,0.68042,0.69,0.66125,0.67083,482900,0.67083
2014-09-05,0.68521,0.69,0.67083,0.68042,291600,0.68042
2014-09-04,0.66604,0.69958,0.66125,0.69958,234800,0.69958
2014-09-03,0.69958,0.69958,0.66125,0.67083,329900,0.67083
2014-09-02,0.69,0.70917,0.67563,0.69958,206500,0.69958
2014-09-01,0.71875,0.71875,0.67083,0.69479,220100,0.69479
2014-08-29,0.71875,0.73792,0.71396,0.71875,316700,0.71875
2014-08-28,0.73792,0.7475,0.70917,0.71396,306000,0.71396
2014-08-27,0.70438,0.73792,0.70438,0.73313,187300,0.73313
2014-08-26,0.69958,0.70917,0.69479,0.70917,150200,0.70917
2014-08-25,0.70917,0.71396,0.69,0.69958,188500,0.69958
2014-08-22,0.69479,0.71396,0.69479,0.70438,220800,0.70438
2014-08-21,0.62771,0.69,0.62771,0.69,271300,0.69
2014-08-20,0.62292,0.6325,0.61333,0.62292,245600,0.62292
2014-08-19,0.61333,0.62771,0.60854,0.60854,130800,0.60854
2014-08-18,0.61813,0.63729,0.59896,0.60854,168700,0.60854
2014-08-15,0.62292,0.6325,0.61333,0.61813,316300,0.61813
2014-08-14,0.62771,0.6325,0.61813,0.62771,241400,0.62771
2014-08-13,0.6325,0.64208,0.60854,0.62771,214700,0.62771
2014-08-12,0.59417,0.64208,0.59417,0.62771,1100400,0.62771
2014-08-11,0.66125,0.68042,0.58458,0.58938,1034400,0.58938
2014-08-08,0.69479,0.71875,0.65646,0.67083,706200,0.67083
2014-08-07,0.73792,0.75708,0.68042,0.69479,953700,0.69479
2014-08-06,0.74271,0.74271,0.72833,0.73313,252100,0.73313
2014-08-05,0.76667,0.76667,0.73792,0.75708,342100,0.75708
2014-08-04,0.75708,0.78104,0.75229,0.76188,325500,0.76188
2014-08-01,0.74271,0.7475,0.72354,0.74271,390700,0.74271
2014-07-31,0.7475,0.76667,0.73313,0.7475,719000,0.7475
2014-07-30,0.81458,0.81458,0.7475,0.7475,1399300,0.7475
2014-07-29,0.81938,0.82896,0.81458,0.81938,480300,0.81938
2014-07-28,0.84333,0.84813,0.805,0.80979,545500,0.80979
2014-07-25,0.82896,0.83854,0.80979,0.82417,2025200,0.82417
2014-07-24,0.81458,0.81458,0.78583,0.805,414100,0.805
2014-07-23,0.81458,0.83854,0.80979,0.81458,528600,0.81458
2014-07-22,0.83375,0.83375,0.80979,0.81458,289100,0.81458
2014-07-21,0.81458,0.82417,0.79063,0.81458,543100,0.81458
2014-07-18,0.80979,0.80979,0.77146,0.79542,1189500,0.79542
2014-07-17,0.83375,0.84333,0.81458,0.81458,546200,0.81458
2014-07-16,0.82417,0.84046,0.805,0.82417,1144500,0.82417
2014-07-15,0.84333,0.85771,0.79063,0.79542,929400,0.79542
2014-07-14,0.83375,0.85292,0.82896,0.83854,597300,0.83854
2014-07-11,0.78104,0.82896,0.78104,0.81938,3110400,0.81938
2014-07-10,0.75708,0.76188,0.7475,0.76188,1031700,0.76188
2014-07-09,0.77146,0.77625,0.73313,0.75229,1470300,0.75229
2014-07-08,0.83854,0.83854,0.76667,0.80021,1355600,0.80021
2014-07-07,0.92958,0.93917,0.82417,0.8625,2119300,0.8625
2014-07-04,0.8625,0.8625,0.8625,0.8625,000,0.8625
2014-07-03,0.8625,0.8625,0.8625,0.8625,000,0.8625
2014-07-02,0.8625,0.8625,0.8625,0.8625,000,0.8625
2014-07-01,0.8625,0.8625,0.8625,0.8625,000,0.8625
2014-06-30,0.92,0.93438,0.8625,0.8625,2723900,0.8625
2014-06-27,0.83854,0.89604,0.82417,0.89125,2234100,0.89125
2014-06-26,0.75708,0.80979,0.74271,0.80979,1309700,0.80979
2014-06-25,0.75708,0.76667,0.73313,0.75229,675800,0.75229
2014-06-24,0.76667,0.805,0.72833,0.7475,1182300,0.7475
2014-06-23,0.75229,0.77146,0.7475,0.76188,424400,0.76188
2014-06-20,0.76667,0.76667,0.75229,0.76188,285400,0.76188
2014-06-19,0.75708,0.76667,0.71396,0.75708,740700,0.75708
2014-06-18,0.79542,0.83375,0.7475,0.7475,3019400,0.7475
2014-06-17,0.67083,0.67083,0.67083,0.67083,000,0.67083
2014-06-16,0.67083,0.67083,0.67083,0.67083,000,0.67083
2014-06-13,0.58458,0.69,0.56063,0.67083,1825800,0.67083
2014-06-12,0.66604,0.69,0.61333,0.61333,2044600,0.61333
2014-06-11,0.73313,0.74271,0.69,0.69479,726000,0.69479
2014-06-10,0.74271,0.75708,0.73792,0.74271,404100,0.74271
2014-06-09,0.72354,0.72354,0.72354,0.72354,000,0.72354
2014-06-06,0.71875,0.75708,0.71875,0.72354,530600,0.72354
2014-06-05,0.71875,0.72833,0.71396,0.71875,377600,0.71875
2014-06-04,0.73792,0.73792,0.71396,0.71875,311100,0.71875
2014-06-03,0.79063,0.79542,0.75708,0.76667,491000,0.76667
2014-06-02,0.72833,0.77625,0.71875,0.77625,1001800,0.77625
2014-05-30,0.72833,0.7475,0.70438,0.7475,288500,0.7475
2014-05-29,0.72833,0.72833,0.69958,0.71396,782700,0.71396
2014-05-28,0.75229,0.76667,0.73313,0.73792,428000,0.73792
2014-05-27,0.77146,0.77146,0.73792,0.7475,323200,0.7475
2014-05-26,0.79542,0.805,0.76667,0.77625,390800,0.77625
2014-05-23,0.75229,0.79542,0.7475,0.77625,557400,0.77625
2014-05-22,0.74271,0.7475,0.72833,0.74271,70200,0.74271
2014-05-21,0.75708,0.76667,0.73313,0.73313,128500,0.73313
2014-05-20,0.72833,0.76188,0.72833,0.7475,248200,0.7475
2014-05-19,0.73313,0.75229,0.72833,0.72833,347900,0.72833
2014-05-16,0.7475,0.75229,0.70917,0.73792,560800,0.73792
2014-05-15,0.76188,0.76188,0.74271,0.75229,178400,0.75229
2014-05-14,0.75708,0.77625,0.74271,0.75708,174900,0.75708
2014-05-13,0.75708,0.78583,0.75708,0.76667,278600,0.76667
2014-05-12,0.75708,0.76667,0.7475,0.7475,95900,0.7475
2014-05-09,0.74271,0.77625,0.74271,0.75708,118300,0.75708
2014-05-08,0.75708,0.75708,0.71875,0.74271,306800,0.74271
2014-05-07,0.76667,0.76667,0.73313,0.76188,234000,0.76188
2014-05-06,0.78104,0.82896,0.76667,0.77625,1359600,0.77625
2014-05-05,0.75708,0.76188,0.73313,0.7475,266800,0.7475
2014-05-02,0.75708,0.77625,0.75229,0.77625,551700,0.77625
2014-05-01,0.77625,0.77625,0.7475,0.76188,111100,0.76188
2014-04-30,0.71875,0.78583,0.71875,0.78583,596900,0.78583
2014-04-29,0.71875,0.73313,0.69958,0.70438,735400,0.70438
2014-04-28,0.73792,0.7475,0.71875,0.72833,668300,0.72833
2014-04-25,0.77625,0.77625,0.77625,0.77625,000,0.77625
2014-04-24,0.77625,0.79063,0.71875,0.77625,1030500,0.77625
2014-04-23,0.80021,0.82417,0.75708,0.75708,736700,0.75708
2014-04-22,0.72833,0.78583,0.72833,0.78583,964600,0.78583
2014-04-21,0.71396,0.71396,0.71396,0.71396,000,0.71396
2014-04-18,0.71396,0.71396,0.71396,0.71396,000,0.71396
2014-04-17,0.72354,0.72354,0.70917,0.71396,88900,0.71396
2014-04-16,0.72833,0.73313,0.7015,0.72833,504300,0.72833
2014-04-15,0.70438,0.7475,0.70438,0.71396,453500,0.71396
2014-04-14,0.68521,0.72833,0.68042,0.69,609200,0.69
2014-04-11,0.68042,0.71875,0.65646,0.68521,1191100,0.68521
2014-04-10,0.80979,0.81458,0.71875,0.71875,494200,0.71875
2014-04-09,0.80021,0.84333,0.77625,0.80021,662900,0.80021
2014-04-08,0.78104,0.81458,0.7475,0.80021,760300,0.80021
2014-04-07,0.83854,0.83854,0.805,0.81938,528100,0.81938
2014-04-04,0.8625,0.87208,0.81938,0.85292,873800,0.85292
2014-04-03,0.78104,0.83854,0.78104,0.82896,991800,0.82896
2014-04-02,0.71396,0.79542,0.70917,0.76188,1682900,0.76188
2014-04-01,0.75708,0.75708,0.64208,0.68042,2451400,0.68042
2014-03-31,0.81458,0.81458,0.72833,0.75708,1200700,0.75708
2014-03-28,0.75708,0.85292,0.72833,0.82896,1398000,0.82896
2014-03-27,0.8625,0.91521,0.79063,0.79542,1737100,0.79542
2014-03-26,0.92,0.92958,0.85771,0.8625,1284700,0.8625
2014-03-25,0.89604,0.95833,0.84333,0.91042,2271400,0.91042
2014-03-24,0.74271,0.92479,0.73313,0.89604,4284500,0.89604
2014-03-21,0.64208,0.70438,0.6325,0.70438,1292300,0.70438
2014-03-20,0.69,0.71875,0.6325,0.64208,1672400,0.64208
2014-03-19,0.575,0.67083,0.575,0.67083,2540300,0.67083
2014-03-18,0.57979,0.58171,0.56542,0.575,732400,0.575
2014-03-17,0.64208,0.64688,0.55583,0.58458,1439200,0.58458
2014-03-14,0.60375,0.62771,0.58458,0.59417,1439600,0.59417
2014-03-13,0.55104,0.62292,0.53667,0.60375,3080800,0.60375
2014-03-12,0.49833,0.53667,0.48875,0.53188,1101600,0.53188
2014-03-11,0.46,0.48875,0.44083,0.47917,971200,0.47917
2014-03-10,0.47438,0.49833,0.45042,0.46479,1297300,0.46479
2014-03-07,0.47438,0.50313,0.46479,0.47917,526500,0.47917
2014-03-06,0.51271,0.53667,0.46958,0.46958,2135400,0.46958
2014-03-05,0.48875,0.49833,0.45521,0.48875,2755400,0.48875
2014-03-04,0.37375,0.46479,0.37375,0.45042,2246200,0.45042
2014-03-03,0.38813,0.39292,0.36417,0.38813,768600,0.38813
2014-02-28,0.37375,0.39771,0.37375,0.38333,1003300,0.38333
2014-02-27,0.34979,0.37375,0.33542,0.36896,1424700,0.36896
2014-02-26,0.30667,0.345,0.30667,0.345,980900,0.345
2014-02-25,0.30667,0.31146,0.30188,0.30667,193400,0.30667
2014-02-24,0.32583,0.33542,0.30188,0.30188,1340800,0.30188
2014-02-21,0.2875,0.31625,0.2875,0.31625,1332900,0.31625
2014-02-20,0.2875,0.2875,0.27313,0.2875,451300,0.2875
2014-02-19,0.29708,0.29708,0.2875,0.2875,424600,0.2875
2014-02-18,0.28271,0.29708,0.26833,0.29708,335000,0.29708
2014-02-17,0.30188,0.30188,0.28271,0.2875,381600,0.2875
2014-02-14,0.29229,0.30667,0.2875,0.30188,846000,0.30188
2014-02-13,0.29229,0.29708,0.29229,0.29229,63800,0.29229
2014-02-12,0.29229,0.30667,0.29229,0.29229,217900,0.29229
2014-02-11,0.29708,0.30188,0.2875,0.29229,710000,0.29229
2014-02-10,0.30667,0.30667,0.30667,0.30667,000,0.30667
2014-02-07,0.30667,0.30667,0.30667,0.30667,000,0.30667
2014-02-06,0.2875,0.30667,0.2875,0.30667,212200,0.30667
2014-02-05,0.30667,0.30667,0.27792,0.2875,298700,0.2875
2014-02-04,0.30667,0.33063,0.29229,0.30667,764300,0.30667
2014-02-03,0.30188,0.345,0.30188,0.33063,652300,0.33063
2014-01-31,0.2875,0.31625,0.28271,0.29708,670900,0.29708
2014-01-30,0.28271,0.28271,0.27313,0.28271,172900,0.28271
2014-01-29,0.27313,0.2875,0.27313,0.27792,200900,0.27792
2014-01-28,0.25396,0.26354,0.23958,0.26354,402500,0.26354
2014-01-27,0.25875,0.25875,0.25875,0.25875,000,0.25875
2014-01-24,0.25875,0.26833,0.25875,0.25875,232500,0.25875
2014-01-23,0.26833,0.26833,0.24438,0.25875,220500,0.25875
2014-01-22,0.28271,0.28271,0.26354,0.26833,335800,0.26833
2014-01-21,0.29708,0.30188,0.26833,0.28271,489300,0.28271
2014-01-20,0.31625,0.31625,0.29229,0.29708,421400,0.29708
2014-01-17,0.2875,0.30188,0.28271,0.2875,222400,0.2875
2014-01-16,0.32104,0.32583,0.26833,0.26833,2061100,0.26833
2014-01-15,0.26833,0.32104,0.26833,0.32104,1988600,0.32104
2014-01-14,0.26833,0.26833,0.24917,0.26833,1237400,0.26833
2014-01-13,0.23,0.28271,0.22042,0.27313,1103200,0.27313
2014-01-10,0.19646,0.21563,0.19167,0.21563,867000,0.21563
2014-01-09,0.21083,0.22042,0.19646,0.19646,773900,0.19646
2014-01-08,0.18688,0.21083,0.18688,0.20125,293100,0.20125
2014-01-07,0.20125,0.20604,0.18208,0.18208,805500,0.18208
2014-01-06,0.17729,0.21083,0.17729,0.19646,1219500,0.19646
2014-01-03,0.17729,0.17729,0.1725,0.17729,100000,0.17729
2014-01-02,0.16771,0.17729,0.16771,0.17729,171600,0.17729
2014-01-01,0.16292,0.16292,0.16292,0.16292,000,0.16292
2013-12-31,0.16771,0.16771,0.16292,0.16292,495300,0.16292
2013-12-30,0.16771,0.16771,0.15813,0.15813,477500,0.15813
2013-12-27,0.16771,0.16771,0.15813,0.16292,151000,0.16292
2013-12-26,0.16771,0.16771,0.16771,0.16771,000,0.16771
2013-12-25,0.16771,0.16771,0.16771,0.16771,000,0.16771
2013-12-24,0.16771,0.1725,0.16771,0.16771,223900,0.16771
2013-12-23,0.16292,0.16292,0.15813,0.15813,130400,0.15813
2013-12-20,0.1725,0.17729,0.15813,0.1725,283300,0.1725
2013-12-19,0.16771,0.1725,0.16771,0.16771,165000,0.16771
2013-12-18,0.18208,0.18208,0.18208,0.18208,000,0.18208
2013-12-17,0.18208,0.18208,0.18208,0.18208,000,0.18208
2013-12-16,0.18208,0.18208,0.1725,0.18208,267600,0.18208
2013-12-13,0.19167,0.19167,0.17729,0.18208,81500,0.18208
2013-12-12,0.18208,0.18688,0.1725,0.17729,205800,0.17729
2013-12-11,0.18688,0.19167,0.17729,0.18688,391900,0.18688
2013-12-10,0.20604,0.23,0.18688,0.18688,1460600,0.18688
2013-12-09,0.18208,0.21083,0.18208,0.19646,1086600,0.19646
2013-12-06,0.1725,0.18688,0.1725,0.18688,330700,0.18688
2013-12-05,0.17729,0.18208,0.1725,0.1725,184100,0.1725
2013-12-04,0.16292,0.19167,0.16292,0.17729,662400,0.17729
2013-12-03,0.16292,0.16292,0.15333,0.16292,292100,0.16292
2013-12-02,0.15333,0.15813,0.15333,0.15813,91800,0.15813
2013-11-29,0.16292,0.16292,0.14854,0.14854,148100,0.14854
2013-11-28,0.16771,0.17729,0.15333,0.16292,938300,0.16292
2013-11-27,0.15813,0.16771,0.14854,0.16771,316000,0.16771
2013-11-26,0.16292,0.16292,0.14854,0.15333,545300,0.15333
2013-11-25,0.16292,0.16292,0.14854,0.16292,581000,0.16292
2013-11-22,0.16771,0.17729,0.15813,0.16292,182500,0.16292
2013-11-21,0.16771,0.16771,0.16292,0.16771,287400,0.16771
2013-11-20,0.1725,0.1725,0.16292,0.16771,502200,0.16771
2013-11-19,0.21563,0.21563,0.16771,0.17729,1115500,0.17729
2013-11-18,0.16771,0.21083,0.16771,0.21083,1448500,0.21083
2013-11-15,0.15333,0.16292,0.15333,0.16292,512800,0.16292
2013-11-14,0.15333,0.15333,0.14375,0.15333,347200,0.15333
2013-11-13,0.16292,0.16292,0.14854,0.15813,163400,0.15813
2013-11-12,0.1725,0.17729,0.15333,0.16771,960300,0.16771
2013-11-11,0.13417,0.1725,0.13417,0.15813,1428600,0.15813
2013-11-08,0.092,0.13417,0.09008,0.12938,2278900,0.12938
2013-11-07,0.09104,0.09488,0.09104,0.09488,199400,0.09488
2013-11-06,0.09008,0.09583,0.08625,0.09104,976900,0.09104
2013-11-05,0.08913,0.08913,0.08913,0.08913,131400,0.08913
2013-11-04,0.092,0.092,0.08913,0.09104,522500,0.09104
2013-11-01,0.08625,0.09488,0.08625,0.09296,360700,0.09296
2013-10-31,0.09104,0.09296,0.08625,0.08625,233200,0.08625
2013-10-30,0.08625,0.09104,0.08625,0.09104,257700,0.09104
2013-10-29,0.09583,0.09583,0.08625,0.08625,78900,0.08625
2013-10-28,0.08242,0.09583,0.08242,0.09583,524800,0.09583
2013-10-25,0.07188,0.08146,0.07188,0.07763,478900,0.07763
2013-10-24,0.06229,0.06708,0.06229,0.06708,383800,0.06708
2013-10-23,0.06421,0.06517,0.06229,0.06229,104800,0.06229
2013-10-22,0.06421,0.06421,0.06325,0.06325,220800,0.06325
2013-10-21,0.06229,0.06229,0.06229,0.06229,000,0.06229
2013-10-18,0.06229,0.06229,0.06229,0.06229,000,0.06229
2013-10-17,0.06229,0.06229,0.06229,0.06229,93900,0.06229
2013-10-16,0.05942,0.06229,0.05942,0.06229,70800,0.06229
2013-10-15,0.06229,0.06229,0.06229,0.06229,2400,0.06229
2013-10-14,0.06229,0.06229,0.06229,0.06229,73000,0.06229
2013-10-11,0.06229,0.06229,0.06229,0.06229,000,0.06229
2013-10-10,0.06325,0.06325,0.06038,0.06229,154000,0.06229
2013-10-09,0.06517,0.06517,0.06421,0.06421,156500,0.06421
2013-10-08,0.07188,0.07188,0.07188,0.07188,000,0.07188
2013-10-07,0.07379,0.07379,0.07188,0.07188,52100,0.07188
2013-10-04,0.07571,0.07571,0.07571,0.07571,000,0.07571
2013-10-03,0.07571,0.07571,0.07571,0.07571,1000,0.07571
2013-10-02,0.07283,0.07571,0.07283,0.07571,147400,0.07571
2013-10-01,0.07188,0.07379,0.07188,0.07379,369100,0.07379
2013-09-30,0.07571,0.07571,0.06708,0.06708,55500,0.06708
2013-09-27,0.07283,0.07571,0.07283,0.07283,624900,0.07283
2013-09-26,0.07283,0.07283,0.07092,0.07092,148600,0.07092
2013-09-25,0.06133,0.07667,0.05942,0.07667,267500,0.07667
2013-09-24,0.05846,0.05846,0.05846,0.05846,18200,0.05846
2013-09-23,0.05271,0.06038,0.05271,0.06038,185900,0.06038
2013-09-20,0.0575,0.0575,0.05175,0.05175,107600,0.05175
2013-09-19,0.04792,0.04792,0.04792,0.04792,000,0.04792
2013-09-18,0.04792,0.04792,0.04792,0.04792,000,0.04792
2013-09-17,0.04792,0.04792,0.04792,0.04792,000,0.04792
2013-09-16,0.0575,0.0575,0.04792,0.04792,148000,0.04792
2013-09-13,0.0575,0.0575,0.0575,0.0575,99100,0.0575
2013-09-12,0.05271,0.05271,0.05271,0.05271,000,0.05271
2013-09-11,0.05271,0.05271,0.05271,0.05271,20800,0.05271
2013-09-10,0.04792,0.04792,0.04792,0.04792,000,0.04792
2013-09-09,0.04792,0.04792,0.04792,0.04792,000,0.04792
2013-09-06,0.0575,0.0575,0.04792,0.04792,76200,0.04792
2013-09-05,0.0575,0.0575,0.0575,0.0575,000,0.0575
2013-09-04,0.0575,0.0575,0.0575,0.0575,000,0.0575
2013-09-03,0.0575,0.0575,0.0575,0.0575,20800,0.0575
2013-09-02,0.06038,0.06038,0.0575,0.0575,49700,0.0575
2013-08-30,0.05079,0.05079,0.05079,0.05079,000,0.05079
2013-08-29,0.05079,0.05079,0.05079,0.05079,000,0.05079
2013-08-28,0.05079,0.05079,0.05079,0.05079,000,0.05079
2013-08-27,0.05079,0.05079,0.05079,0.05079,000,0.05079
2013-08-26,0.05271,0.05271,0.04983,0.05079,152400,0.05079
2013-08-23,0.05271,0.05271,0.05271,0.05271,20800,0.05271
2013-08-22,0.04888,0.05271,0.04888,0.05271,46900,0.05271
2013-08-21,0.04696,0.04696,0.04313,0.04313,1671000,0.04313
2013-08-20,0.046,0.04696,0.046,0.04696,220500,0.04696
2013-08-19,0.04217,0.04217,0.04217,0.04217,000,0.04217
2013-08-16,0.04217,0.04217,0.04217,0.04217,1043400,0.04217
2013-08-15,0.04696,0.04696,0.04696,0.04696,104300,0.04696
2013-08-14,0.04696,0.04696,0.04696,0.04696,000,0.04696
2013-08-13,0.04696,0.04696,0.04696,0.04696,532800,0.04696
2013-08-12,0.04696,0.04696,0.04696,0.04696,000,0.04696
2013-08-09,0.04696,0.04696,0.04696,0.04696,000,0.04696
2013-08-08,0.04696,0.04696,0.04504,0.04696,117200,0.04696
2013-08-07,0.04696,0.04696,0.046,0.046,273300,0.046
2013-08-06,0.04696,0.04696,0.04504,0.04504,143200,0.04504
2013-08-05,0.04792,0.04888,0.04504,0.04504,43100,0.04504
2013-08-02,0.04983,0.04983,0.04983,0.04983,000,0.04983
2013-08-01,0.04983,0.04983,0.04983,0.04983,22900,0.04983
2013-07-31,0.05367,0.05367,0.04792,0.04792,232600,0.04792
2013-07-30,0.05079,0.05367,0.05079,0.05367,78200,0.05367
2013-07-29,0.05846,0.05846,0.05846,0.05846,000,0.05846
2013-07-26,0.05846,0.05846,0.05846,0.05846,000,0.05846
2013-07-25,0.05271,0.05846,0.05271,0.05846,31300,0.05846
2013-07-24,0.04792,0.04792,0.04792,0.04792,31300,0.04792
2013-07-23,0.04792,0.04792,0.03833,0.04313,349500,0.04313
2013-07-22,0.0575,0.0575,0.0575,0.0575,000,0.0575
2013-07-19,0.0575,0.0575,0.0575,0.0575,000,0.0575
2013-07-18,0.0575,0.0575,0.0575,0.0575,10400,0.0575
2013-07-17,0.0575,0.0575,0.0575,0.0575,000,0.0575
2013-07-16,0.0575,0.0575,0.0575,0.0575,42900,0.0575
2013-07-15,0.0575,0.0575,0.0575,0.0575,8200,0.0575
2013-07-12,0.0575,0.0575,0.0575,0.0575,2100,0.0575
2013-07-11,0.06229,0.06229,0.0575,0.0575,104300,0.0575
2013-07-10,0.06804,0.06804,0.0575,0.0575,86500,0.0575
2013-07-09,0.07188,0.07188,0.07188,0.07188,000,0.07188
2013-07-08,0.07188,0.07188,0.07188,0.07188,000,0.07188
2013-07-05,0.07475,0.07475,0.07188,0.07188,82400,0.07188
2013-07-04,0.07667,0.07667,0.07667,0.07667,000,0.07667
2013-07-03,0.07667,0.07667,0.07667,0.07667,104300,0.07667
2013-07-02,0.07667,0.07667,0.07667,0.07667,000,0.07667
2013-07-01,0.07667,0.07667,0.07667,0.07667,26000,0.07667
2013-06-28,0.07667,0.07667,0.07667,0.07667,26000,0.07667
2013-06-27,0.07188,0.07188,0.07188,0.07188,000,0.07188
2013-06-26,0.07188,0.07188,0.07188,0.07188,32300,0.07188
2013-06-25,0.07667,0.07667,0.07667,0.07667,104300,0.07667
2013-06-24,0.08625,0.09104,0.08625,0.09104,182600,0.09104
2013-06-21,0.08625,0.09104,0.08625,0.09104,208600,0.09104
2013-06-20,0.08625,0.08625,0.08625,0.08625,26000,0.08625
2013-06-19,0.08625,0.08625,0.08625,0.08625,000,0.08625
2013-06-18,0.08625,0.08625,0.08625,0.08625,53900,0.08625
2013-06-17,0.09104,0.09583,0.09104,0.09104,44800,0.09104
2013-06-14,0.08625,0.08625,0.08625,0.08625,000,0.08625
2013-06-13,0.08625,0.08625,0.08625,0.08625,40200,0.08625
2013-06-12,0.08625,0.08625,0.08625,0.08625,302300,0.08625
2013-06-11,0.08625,0.08625,0.08625,0.08625,000,0.08625
2013-06-10,0.08625,0.08625,0.08625,0.08625,000,0.08625
2013-06-07,0.09583,0.09583,0.08625,0.08625,207600,0.08625
2013-06-06,0.10063,0.10063,0.09583,0.09583,130600,0.09583
2013-06-05,0.09583,0.09583,0.09583,0.09583,20800,0.09583
2013-06-04,0.08146,0.08625,0.08146,0.08625,24000,0.08625
2013-06-03,0.08625,0.08625,0.07667,0.07667,33700,0.07667
2013-05-31,0.09104,0.09104,0.07667,0.07667,25600,0.07667
2013-05-30,0.08146,0.08625,0.08146,0.08625,114700,0.08625
2013-05-29,0.07379,0.08146,0.07379,0.08146,14700,0.08146
2013-05-28,0.06708,0.06708,0.06708,0.06708,2000,0.06708
2013-05-27,0.0575,0.0575,0.0575,0.0575,36500,0.0575
2013-05-24,0.06229,0.06229,0.0575,0.0575,38100,0.0575
2013-05-23,0.06708,0.06708,0.0575,0.06229,77200,0.06229
2013-05-22,0.07188,0.07188,0.07188,0.07188,14600,0.07188
2013-05-21,0.06708,0.06708,0.06708,0.06708,65300,0.06708
2013-05-20,0.05367,0.0575,0.05367,0.0575,26700,0.0575
2013-05-17,0.06421,0.06421,0.05463,0.05463,63400,0.05463
2013-05-16,0.069,0.069,0.06708,0.06708,177300,0.06708
2013-05-15,0.08146,0.08146,0.08146,0.08146,000,0.08146
2013-05-14,0.07475,0.08146,0.07475,0.08146,151700,0.08146
2013-05-13,0.06708,0.06708,0.06229,0.06708,803400,0.06708
2013-05-10,0.06708,0.06708,0.06708,0.06708,26000,0.06708
2013-05-09,0.06708,0.06708,0.06708,0.06708,000,0.06708
2013-05-08,0.06708,0.06708,0.06708,0.06708,210700,0.06708
2013-05-07,0.07092,0.07092,0.07092,0.07092,20800,0.07092
2013-05-06,0.07188,0.07188,0.06708,0.07092,490400,0.07092
2013-05-03,0.06613,0.06613,0.06613,0.06613,000,0.06613
2013-05-02,0.06517,0.06613,0.06517,0.06613,17100,0.06613
2013-05-01,0.06229,0.06708,0.06229,0.06708,146900,0.06708
2013-04-30,0.06229,0.06229,0.06229,0.06229,000,0.06229
2013-04-29,0.06229,0.06229,0.06229,0.06229,64400,0.06229
2013-04-26,0.07667,0.07667,0.0575,0.0575,1702900,0.0575
2013-04-25,0.07667,0.07667,0.07667,0.07667,000,0.07667
2013-04-24,0.07667,0.07667,0.07667,0.07667,000,0.07667
2013-04-23,0.07667,0.07667,0.07667,0.07667,000,0.07667
2013-04-22,0.07667,0.07667,0.07667,0.07667,17500,0.07667
2013-04-19,0.07667,0.07667,0.07667,0.07667,000,0.07667
2013-04-18,0.09488,0.10063,0.07667,0.07667,78500,0.07667
2013-04-17,0.09104,0.09104,0.09104,0.09104,000,0.09104
2013-04-16,0.08625,0.09104,0.08625,0.09104,156500,0.09104
2013-04-15,0.08625,0.08625,0.08625,0.08625,000,0.08625
2013-04-12,0.09104,0.09104,0.08625,0.08625,78200,0.08625
2013-04-11,0.09104,0.09104,0.09104,0.09104,000,0.09104
2013-04-10,0.09104,0.09104,0.09104,0.09104,000,0.09104
2013-04-09,0.09104,0.09104,0.09104,0.09104,000,0.09104
2013-04-08,0.09104,0.09104,0.09104,0.09104,000,0.09104
2013-04-05,0.09104,0.09104,0.09104,0.09104,000,0.09104
2013-04-04,0.092,0.092,0.09104,0.09104,28300,0.09104
2013-04-03,0.09583,0.09583,0.09583,0.09583,52100,0.09583
2013-04-02,0.11979,0.11979,0.11979,0.11979,000,0.11979
2013-04-01,0.11979,0.11979,0.11979,0.11979,000,0.11979
2013-03-29,0.11979,0.11979,0.11979,0.11979,000,0.11979
2013-03-28,0.11979,0.11979,0.11979,0.11979,000,0.11979
2013-03-27,0.11979,0.11979,0.11979,0.11979,000,0.11979
2013-03-26,0.11979,0.11979,0.11979,0.11979,000,0.11979
2013-03-25,0.11979,0.11979,0.10542,0.11979,81000,0.11979
2013-03-22,0.11979,0.11979,0.11979,0.11979,000,0.11979
2013-03-21,0.11979,0.11979,0.11979,0.11979,000,0.11979
2013-03-20,0.11979,0.11979,0.11979,0.11979,000,0.11979
2013-03-19,0.11979,0.11979,0.11979,0.11979,000,0.11979
2013-03-18,0.12458,0.12458,0.11979,0.11979,31300,0.11979
2013-03-15,0.12458,0.12458,0.12458,0.12458,000,0.12458
2013-03-14,0.12458,0.12458,0.12458,0.12458,20300,0.12458
2013-03-13,0.13417,0.13417,0.11979,0.12458,91300,0.12458
2013-03-12,0.14375,0.14375,0.12938,0.12938,23000,0.12938
2013-03-11,0.11979,0.11979,0.115,0.115,22900,0.115
2013-03-08,0.115,0.115,0.115,0.115,9000,0.115
2013-03-07,0.10542,0.115,0.10063,0.10063,57400,0.10063
2013-03-06,0.10542,0.10542,0.10542,0.10542,18900,0.10542
2013-03-05,0.10063,0.10063,0.10063,0.10063,67800,0.10063
2013-03-04,0.11021,0.11021,0.10542,0.10542,57300,0.10542
2013-03-01,0.10063,0.10063,0.10063,0.10063,10400,0.10063
2013-02-28,0.11021,0.115,0.11021,0.11021,36500,0.11021
2013-02-27,0.10542,0.10542,0.10063,0.10063,16600,0.10063
2013-02-26,0.115,0.115,0.115,0.115,17300,0.115
2013-02-25,0.115,0.115,0.115,0.115,3400,0.115
2013-02-22,0.12938,0.12938,0.12458,0.12458,78200,0.12458
2013-02-21,0.12938,0.12938,0.12938,0.12938,104300,0.12938
2013-02-20,0.12938,0.12938,0.12938,0.12938,000,0.12938
2013-02-19,0.14375,0.14375,0.12938,0.12938,179400,0.12938
2013-02-18,0.11021,0.13417,0.10063,0.13417,175800,0.13417
2013-02-15,0.11021,0.11021,0.09104,0.09104,40200,0.09104
2013-02-14,0.09583,0.09583,0.09583,0.09583,15600,0.09583
2013-02-13,0.09583,0.09583,0.09583,0.09583,000,0.09583
2013-02-12,0.10542,0.10542,0.09583,0.09583,89800,0.09583
2013-02-11,0.09583,0.09583,0.09583,0.09583,698800,0.09583
2013-02-08,0.09583,0.09583,0.09583,0.09583,000,0.09583
2013-02-07,0.09583,0.09583,0.09583,0.09583,83400,0.09583
2013-02-06,0.11021,0.11021,0.11021,0.11021,000,0.11021
2013-02-05,0.11021,0.11021,0.11021,0.11021,50700,0.11021
2013-02-04,0.11021,0.11021,0.11021,0.11021,000,0.11021
2013-02-01,0.11021,0.11021,0.11021,0.11021,4200,0.11021
2013-01-31,0.11979,0.11979,0.11979,0.11979,000,0.11979
2013-01-30,0.11979,0.11979,0.11979,0.11979,000,0.11979
2013-01-29,0.11979,0.11979,0.11979,0.11979,000,0.11979
2013-01-28,0.11979,0.11979,0.11979,0.11979,000,0.11979
2013-01-25,0.12458,0.12458,0.11979,0.11979,41700,0.11979
2013-01-24,0.12938,0.12938,0.12938,0.12938,12700,0.12938
2013-01-22,0.14375,0.14375,0.14375,0.14375,000,0.14375
2013-01-21,0.14375,0.14375,0.14375,0.14375,35900,0.14375
2013-01-18,0.14375,0.14375,0.14375,0.14375,000,0.14375
2013-01-17,0.14375,0.14375,0.14375,0.14375,13900,0.14375
2013-01-16,0.14375,0.14375,0.14375,0.14375,20800,0.14375
2013-01-15,0.13417,0.13417,0.12458,0.12458,20800,0.12458
2013-01-14,0.14375,0.14375,0.13896,0.13896,221000,0.13896
2013-01-11,0.14375,0.14375,0.14375,0.14375,000,0.14375
2013-01-10,0.14375,0.15813,0.14375,0.14375,714900,0.14375
2013-01-09,0.13417,0.13417,0.13417,0.13417,20800,0.13417
2013-01-08,0.13417,0.13417,0.13417,0.13417,000,0.13417
2013-01-07,0.13417,0.13417,0.13417,0.13417,20800,0.13417
2013-01-04,0.12458,0.12458,0.12458,0.12458,000,0.12458
2013-01-03,0.14375,0.14375,0.12458,0.12458,29200,0.12458
2013-01-02,0.12458,0.13896,0.12458,0.13896,33300,0.13896
2013-01-01,0.13896,0.13896,0.13896,0.13896,000,0.13896
2012-12-31,0.13896,0.13896,0.13896,0.13896,000,0.13896
2012-12-28,0.13896,0.13896,0.13896,0.13896,000,0.13896
2012-12-27,0.13896,0.13896,0.13896,0.13896,000,0.13896
2012-12-26,0.13896,0.13896,0.13896,0.13896,000,0.13896
2012-12-25,0.13896,0.13896,0.13896,0.13896,000,0.13896
2012-12-24,0.13896,0.13896,0.13896,0.13896,000,0.13896
2012-12-21,0.13896,0.13896,0.13896,0.13896,9900,0.13896
2012-12-20,0.11979,0.11979,0.11979,0.11979,10400,0.11979
2012-12-19,0.11979,0.11979,0.115,0.11979,226400,0.11979
2012-12-18,0.12458,0.12458,0.12458,0.12458,10400,0.12458
2012-12-17,0.115,0.12458,0.115,0.12458,4600,0.12458
2012-12-14,0.115,0.115,0.115,0.115,7300,0.115
2012-12-13,0.14375,0.14375,0.14375,0.14375,000,0.14375
2012-12-12,0.14375,0.14375,0.14375,0.14375,20800,0.14375
2012-12-11,0.14375,0.14375,0.14375,0.14375,000,0.14375
2012-12-10,0.14375,0.14375,0.14375,0.14375,000,0.14375
2012-12-07,0.14375,0.14375,0.14375,0.14375,000,0.14375
2012-12-06,0.14375,0.14375,0.14375,0.14375,000,0.14375
2012-12-05,0.14375,0.14375,0.14375,0.14375,000,0.14375
2012-12-04,0.14375,0.14375,0.14375,0.14375,000,0.14375
2012-12-03,0.15333,0.15333,0.14375,0.14375,167400,0.14375
2012-11-30,0.20604,0.20604,0.20604,0.20604,000,0.20604
2012-11-29,0.20604,0.20604,0.20604,0.20604,000,0.20604
2012-11-28,0.19167,0.20604,0.19167,0.20604,28000,0.20604
2012-11-27,0.21083,0.21083,0.21083,0.21083,17700,0.21083
2012-11-26,0.16292,0.19167,0.16292,0.19167,185800,0.19167
2012-11-23,0.1725,0.1725,0.1725,0.1725,000,0.1725
2012-11-22,0.1725,0.1725,0.1725,0.1725,30900,0.1725
2012-11-21,0.18208,0.18208,0.1725,0.1725,68200,0.1725
2012-11-20,0.18208,0.18208,0.18208,0.18208,000,0.18208
2012-11-19,0.18208,0.18208,0.18208,0.18208,8300,0.18208
2012-11-16,0.1725,0.18688,0.16292,0.18208,92800,0.18208
2012-11-15,0.18688,0.18688,0.18688,0.18688,000,0.18688
2012-11-14,0.19167,0.19167,0.18208,0.18688,85800,0.18688
2012-11-13,0.19167,0.19167,0.19167,0.19167,000,0.19167
2012-11-12,0.19167,0.19167,0.19167,0.19167,000,0.19167
2012-11-09,0.19167,0.19167,0.19167,0.19167,000,0.19167
2012-11-08,0.19167,0.19167,0.19167,0.19167,99100,0.19167
2012-11-07,0.19167,0.19167,0.19167,0.19167,17000,0.19167
2012-11-06,0.21083,0.22042,0.21083,0.22042,26000,0.22042
2012-11-05,0.24438,0.24438,0.14375,0.19167,116900,0.19167
2012-11-02,0.24917,0.24917,0.24917,0.24917,000,0.24917
2012-11-01,0.24438,0.24917,0.24438,0.24917,11200,0.24917
2012-10-31,0.25875,0.25875,0.24438,0.24438,79300,0.24438
2012-10-30,0.2875,0.2875,0.26833,0.26833,233500,0.26833
2012-10-29,0.2875,0.2875,0.2875,0.2875,000,0.2875
2012-10-26,0.2875,0.2875,0.2875,0.2875,17000,0.2875
2012-10-25,0.25875,0.27792,0.25875,0.27792,53300,0.27792
2012-10-24,0.2875,0.2875,0.27313,0.27313,49400,0.27313
2012-10-23,0.27792,0.2875,0.25875,0.2875,50400,0.2875
2012-10-22,0.27313,0.29229,0.27313,0.29229,122800,0.29229
2012-10-19,0.27792,0.2875,0.27792,0.2875,62600,0.2875
2012-10-18,0.2875,0.2875,0.28271,0.2875,151300,0.2875
2012-10-17,0.26833,0.2875,0.26833,0.27313,180400,0.27313
2012-10-16,0.27792,0.2875,0.25875,0.25875,1190100,0.25875
2012-10-15,0.25396,0.25396,0.24438,0.24917,317300,0.24917
2012-10-12,0.24917,0.25396,0.24917,0.25396,29200,0.25396
2012-10-11,0.25396,0.25396,0.25396,0.25396,84300,0.25396
2012-10-10,0.25396,0.25875,0.25396,0.25875,121500,0.25875
2012-10-09,0.26354,0.26354,0.24917,0.24917,22400,0.24917
2012-10-08,0.27792,0.27792,0.25875,0.27792,123800,0.27792
2012-10-05,0.27792,0.27792,0.27792,0.27792,000,0.27792
2012-10-04,0.27792,0.27792,0.27792,0.27792,5200,0.27792
2012-10-03,0.26833,0.26833,0.26833,0.26833,115400,0.26833
2012-10-02,0.2875,0.29708,0.26833,0.26833,374000,0.26833
2012-10-01,0.27792,0.27792,0.27792,0.27792,000,0.27792
2012-09-28,0.2875,0.2875,0.27792,0.27792,336900,0.27792
2012-09-27,0.29708,0.29708,0.28271,0.2875,693500,0.2875
2012-09-26,0.26354,0.33542,0.26354,0.30667,508500,0.30667
2012-09-25,0.23,0.24917,0.23,0.24917,130400,0.24917
2012-09-24,0.24917,0.24917,0.23,0.23,48900,0.23
2012-09-21,0.23,0.23,0.23,0.23,15600,0.23
2012-09-20,0.24917,0.24917,0.24917,0.24917,000,0.24917
2012-09-19,0.26354,0.26354,0.24438,0.24917,60000,0.24917
2012-09-18,0.2875,0.2875,0.2875,0.2875,000,0.2875
2012-09-17,0.2875,0.2875,0.2875,0.2875,000,0.2875
2012-09-14,0.26833,0.2875,0.26833,0.2875,52500,0.2875
2012-09-13,0.25875,0.26833,0.25875,0.26833,73000,0.26833
2012-09-12,0.26833,0.26833,0.26833,0.26833,52100,0.26833
2012-09-11,0.27313,0.27313,0.23958,0.27313,153300,0.27313
2012-09-10,0.24917,0.27313,0.24917,0.27313,45100,0.27313
2012-09-07,0.23,0.24917,0.23,0.24917,114700,0.24917
2012-09-06,0.24917,0.24917,0.24917,0.24917,000,0.24917
2012-09-05,0.23,0.24917,0.23,0.24917,41700,0.24917
2012-09-04,0.23958,0.24917,0.23958,0.24917,54900,0.24917
2012-09-03,0.30667,0.30667,0.2875,0.2875,127300,0.2875
2012-08-31,0.30667,0.30667,0.29708,0.30667,118100,0.30667
2012-08-30,0.32583,0.32583,0.32583,0.32583,36500,0.32583
2012-08-29,0.31625,0.31625,0.31625,0.31625,10400,0.31625
2012-08-28,0.31625,0.32583,0.31625,0.32583,169300,0.32583
2012-08-27,0.33542,0.33542,0.33542,0.33542,104300,0.33542
2012-08-24,0.34021,0.345,0.33542,0.33542,97000,0.33542
2012-08-23,0.345,0.345,0.345,0.345,000,0.345
2012-08-22,0.345,0.345,0.345,0.345,000,0.345
2012-08-21,0.33542,0.345,0.32583,0.345,375600,0.345
2012-08-20,0.33063,0.33542,0.30667,0.30667,757500,0.30667
2012-08-17,0.32583,0.33542,0.32583,0.33542,285900,0.33542
2012-08-16,0.30667,0.30667,0.30667,0.30667,52100,0.30667
2012-08-15,0.29708,0.29708,0.29708,0.29708,000,0.29708
2012-08-14,0.31625,0.31625,0.29708,0.29708,142500,0.29708
2012-08-13,0.32583,0.32583,0.31625,0.31625,85600,0.31625
2012-08-10,0.33542,0.33542,0.33542,0.33542,000,0.33542
2012-08-09,0.33542,0.33542,0.33542,0.33542,3100,0.33542
2012-08-08,0.33542,0.33542,0.33542,0.33542,000,0.33542
2012-08-07,0.33542,0.33542,0.33542,0.33542,000,0.33542
2012-08-06,0.33542,0.33542,0.33542,0.33542,10400,0.33542
2012-08-03,0.33542,0.33542,0.33542,0.33542,000,0.33542
2012-08-02,0.33542,0.33542,0.33542,0.33542,8700,0.33542
2012-08-01,0.33542,0.33542,0.33542,0.33542,154400,0.33542
2012-07-31,0.345,0.345,0.345,0.345,20800,0.345
2012-07-30,0.33542,0.33542,0.33542,0.33542,15600,0.33542
2012-07-27,0.345,0.345,0.33542,0.33542,26000,0.33542
2012-07-26,0.345,0.345,0.345,0.345,5200,0.345
2012-07-25,0.345,0.345,0.345,0.345,33500,0.345
2012-07-24,0.33542,0.38333,0.33542,0.37375,148500,0.37375
2012-07-23,0.29708,0.33542,0.29708,0.31146,55300,0.31146
2012-07-20,0.33542,0.33542,0.33542,0.33542,32600,0.33542
2012-07-19,0.29708,0.33542,0.29708,0.33542,57300,0.33542
2012-07-18,0.33542,0.33542,0.33542,0.33542,6300,0.33542
2012-07-17,0.345,0.345,0.345,0.345,32800,0.345
2012-07-16,0.36417,0.36417,0.36417,0.36417,10400,0.36417
2012-07-13,0.36417,0.36417,0.36417,0.36417,000,0.36417
2012-07-12,0.37375,0.37375,0.36417,0.36417,31300,0.36417
2012-07-11,0.36417,0.38333,0.36417,0.38333,15600,0.38333
2012-07-10,0.38333,0.38333,0.37375,0.38333,136600,0.38333
2012-07-09,0.34979,0.34979,0.34979,0.34979,6200,0.34979
2012-07-06,0.36417,0.36417,0.33542,0.35458,102900,0.35458
2012-07-05,0.36417,0.36417,0.35458,0.35458,31300,0.35458
2012-07-04,0.35938,0.35938,0.35938,0.35938,000,0.35938
2012-07-03,0.35938,0.35938,0.35938,0.35938,10400,0.35938
2012-07-02,0.38333,0.38333,0.38333,0.38333,10400,0.38333
2012-06-29,0.37375,0.37375,0.35458,0.36417,120200,0.36417
2012-06-28,0.36896,0.37375,0.36417,0.36417,39800,0.36417
2012-06-27,0.35458,0.35458,0.35458,0.35458,17700,0.35458
2012-06-26,0.37375,0.37375,0.37375,0.37375,000,0.37375
2012-06-25,0.37375,0.38333,0.37375,0.37375,140300,0.37375
2012-06-22,0.38333,0.38333,0.35938,0.37375,71700,0.37375
2012-06-21,0.38333,0.39292,0.38333,0.38333,69900,0.38333
2012-06-20,0.38333,0.38333,0.38333,0.38333,20800,0.38333
2012-06-19,0.39292,0.39292,0.38333,0.38333,58600,0.38333
2012-06-18,0.43125,0.43125,0.38333,0.39292,192500,0.39292
2012-06-15,0.39292,0.43125,0.38333,0.43125,400200,0.43125
2012-06-14,0.33542,0.38333,0.32583,0.38333,300200,0.38333
2012-06-13,0.30667,0.32583,0.29229,0.32583,340800,0.32583
2012-06-12,0.2875,0.33542,0.2875,0.30667,1322300,0.30667
2012-06-11,0.23,0.23,0.23,0.23,000,0.23
2012-06-08,0.23,0.23,0.23,0.23,000,0.23
2012-06-07,0.23,0.23,0.23,0.23,000,0.23
2012-06-06,0.23,0.23,0.23,0.23,000,0.23
2012-06-05,0.23,0.23,0.23,0.23,000,0.23
2012-06-04,0.23,0.23,0.23,0.23,000,0.23
2012-06-01,0.23,0.23,0.23,0.23,000,0.23
2012-05-31,0.23,0.23,0.23,0.23,000,0.23
2012-05-30,0.23,0.23,0.23,0.23,000,0.23
2012-05-29,0.23,0.23,0.23,0.23,000,0.23
2012-05-28,0.23,0.23,0.23,0.23,000,0.23
2012-05-25,0.23,0.23,0.23,0.23,000,0.23
2012-05-24,0.23,0.23,0.23,0.23,000,0.23
2012-05-23,0.23,0.23,0.23,0.23,000,0.23
2012-05-22,0.01438,0.01438,0.01438,0.01438,000,0.23
2012-05-21,0.01438,0.01438,0.01438,0.01438,000,0.23
2012-05-18,0.01438,0.01438,0.01438,0.01438,000,0.23
2012-05-17,0.01438,0.01438,0.01438,0.01438,000,0.23
2012-05-16,0.01438,0.01438,0.01438,0.01438,000,0.23
2012-05-15,0.01438,0.01438,0.01438,0.01438,000,0.23
2012-05-14,0.01438,0.01438,0.01438,0.01438,000,0.23
2012-05-11,0.01438,0.01438,0.01438,0.01438,000,0.23
2012-05-10,0.01438,0.01438,0.01438,0.01438,000,0.23
2012-05-09,0.01438,0.01438,0.01438,0.01438,000,0.23
2012-05-08,0.01438,0.01438,0.01438,0.01438,000,0.23
2012-05-07,0.01438,0.01438,0.01438,0.01438,23600,0.23
2012-05-04,0.01438,0.01438,0.01438,0.01438,000,0.23
2012-05-03,0.01438,0.01438,0.01438,0.01438,36100,0.23
2012-05-02,0.01533,0.01533,0.01533,0.01533,000,0.24533
2012-05-01,0.01533,0.01533,0.01533,0.01533,000,0.24533
2012-04-30,0.01533,0.01533,0.01533,0.01533,000,0.24533
2012-04-27,0.01533,0.01533,0.01533,0.01533,000,0.24533
2012-04-26,0.01533,0.01533,0.01533,0.01533,000,0.24533
2012-04-25,0.01533,0.01533,0.01533,0.01533,000,0.24533
2012-04-24,0.01533,0.01533,0.01533,0.01533,000,0.24533
2012-04-23,0.01533,0.01533,0.01533,0.01533,000,0.24533
2012-04-20,0.01533,0.01533,0.01533,0.01533,000,0.24533
2012-04-19,0.01533,0.01533,0.01533,0.01533,000,0.24533
2012-04-18,0.01533,0.01533,0.01533,0.01533,000,0.24533
2012-04-17,0.01533,0.01533,0.01533,0.01533,000,0.24533
2012-04-16,0.01533,0.01533,0.01533,0.01533,000,0.24533
2012-04-13,0.01533,0.01533,0.01533,0.01533,000,0.24533
2012-04-12,0.01533,0.01533,0.01533,0.01533,000,0.24533
2012-04-11,0.01533,0.01533,0.01533,0.01533,000,0.24533
2012-04-10,0.01533,0.01533,0.01533,0.01533,000,0.24533
2012-04-09,0.01533,0.01533,0.01533,0.01533,000,0.24533
2012-04-06,0.01533,0.01533,0.01533,0.01533,000,0.24533
2012-04-05,0.01533,0.01533,0.01533,0.01533,000,0.24533
2012-04-04,0.01533,0.01533,0.01533,0.01533,000,0.24533
2012-04-03,0.01533,0.01533,0.01533,0.01533,000,0.24533
2012-04-02,0.01533,0.01533,0.01533,0.01533,000,0.24533
2012-03-30,0.01533,0.01533,0.01533,0.01533,000,0.24533
2012-03-29,0.01533,0.01533,0.01533,0.01533,000,0.24533
2012-03-28,0.01533,0.01533,0.01533,0.01533,000,0.24533
2012-03-27,0.01533,0.01533,0.01533,0.01533,000,0.24533
2012-03-26,0.01533,0.01533,0.01533,0.01533,000,0.24533
2012-03-23,0.01533,0.01533,0.01533,0.01533,000,0.24533
2012-03-22,0.01533,0.01533,0.01533,0.01533,000,0.24533
2012-03-21,0.01533,0.01533,0.01533,0.01533,000,0.24533
2012-03-20,0.01533,0.01533,0.01533,0.01533,000,0.24533
2012-03-19,0.01533,0.01533,0.01533,0.01533,000,0.24533
2012-03-16,0.01533,0.01533,0.01533,0.01533,000,0.24533
2012-03-15,0.01533,0.01533,0.01533,0.01533,000,0.24533
2012-03-14,0.01533,0.01533,0.01533,0.01533,000,0.24533
2012-03-13,0.01533,0.01533,0.01533,0.01533,000,0.24533
2012-03-12,0.01533,0.01533,0.01533,0.01533,000,0.24533
2012-03-09,0.01533,0.01533,0.01533,0.01533,000,0.24533
2012-03-08,0.01533,0.01533,0.01533,0.01533,000,0.24533
2012-03-07,0.01533,0.01533,0.01533,0.01533,000,0.24533
2012-03-06,0.01533,0.01533,0.01533,0.01533,000,0.24533
2012-03-05,0.01533,0.01533,0.01533,0.01533,000,0.24533
2012-03-02,0.01533,0.01533,0.01533,0.01533,000,0.24533
2012-03-01,0.01533,0.01533,0.01533,0.01533,000,0.24533
2012-02-29,0.01533,0.01533,0.01533,0.01533,000,0.24533
2012-02-28,0.01533,0.01533,0.01533,0.01533,000,0.24533
2012-02-27,0.01533,0.01533,0.01533,0.01533,000,0.24533
2012-02-24,0.01533,0.01533,0.01533,0.01533,11300,0.24533
2012-02-23,0.01438,0.01438,0.01438,0.01438,000,0.23
2012-02-22,0.01438,0.01438,0.01438,0.01438,4500,0.23
2012-02-21,0.01438,0.01438,0.01438,0.01438,7800,0.23
2012-02-20,0.02396,0.02396,0.02396,0.02396,000,0.38333
2012-02-17,0.02396,0.02396,0.02396,0.02396,000,0.38333
2012-02-16,0.02396,0.02396,0.02396,0.02396,1900,0.38333
2012-02-15,0.02492,0.02492,0.02396,0.02396,2600,0.38333
2012-02-14,0.01438,0.02396,0.01438,0.02396,15700,0.38333
2012-02-13,0.00958,0.00958,0.00958,0.00958,000,0.15333
2012-02-10,0.00958,0.00958,0.00958,0.00958,000,0.15333
2012-02-09,0.00958,0.00958,0.00958,0.00958,000,0.15333
2012-02-08,0.00958,0.00958,0.00958,0.00958,000,0.15333
2012-02-07,0.00958,0.00958,0.00958,0.00958,000,0.15333
2012-02-06,0.00958,0.00958,0.00958,0.00958,000,0.15333
2012-02-03,0.00958,0.00958,0.00958,0.00958,000,0.15333
2012-02-02,0.00958,0.00958,0.00958,0.00958,000,0.15333
2012-02-01,0.00958,0.00958,0.00958,0.00958,000,0.15333
2012-01-31,0.00958,0.00958,0.00958,0.00958,000,0.15333
2012-01-30,0.00958,0.00958,0.00958,0.00958,6600,0.15333
2012-01-27,0.00958,0.00958,0.00958,0.00958,000,0.15333
2012-01-26,0.00958,0.00958,0.00958,0.00958,000,0.15333
2012-01-25,0.00958,0.00958,0.00958,0.00958,000,0.15333
2012-01-24,0.00958,0.00958,0.00958,0.00958,000,0.15333
2012-01-23,0.0115,0.0115,0.00958,0.00958,3700,0.15333
2012-01-20,0.00862,0.00862,0.00862,0.00862,000,0.138
2012-01-19,0.00862,0.00862,0.00862,0.00862,000,0.138
2012-01-18,0.00862,0.00862,0.00862,0.00862,000,0.138
2012-01-17,0.00862,0.00862,0.00862,0.00862,000,0.138
2012-01-16,0.00862,0.00862,0.00862,0.00862,800,0.138
2012-01-13,0.00958,0.00958,0.00958,0.00958,000,0.15333
2012-01-12,0.00958,0.00958,0.00958,0.00958,000,0.15333
2012-01-11,0.00958,0.00958,0.00958,0.00958,000,0.15333
2012-01-10,0.00958,0.00958,0.00958,0.00958,000,0.15333
2012-01-09,0.00958,0.00958,0.00958,0.00958,000,0.15333
2012-01-06,0.00958,0.00958,0.00958,0.00958,000,0.15333
2012-01-05,0.00958,0.00958,0.00958,0.00958,000,0.15333
2012-01-04,0.00958,0.00958,0.00958,0.00958,000,0.15333
2012-01-03,0.00958,0.00958,0.00958,0.00958,000,0.15333
2012-01-02,0.00958,0.00958,0.00958,0.00958,000,0.15333
2011-12-30,0.00958,0.00958,0.00958,0.00958,000,0.15333
2011-12-29,0.00958,0.00958,0.00958,0.00958,000,0.15333
2011-12-28,0.00958,0.00958,0.00958,0.00958,000,0.15333
2011-12-27,0.00958,0.00958,0.00958,0.00958,000,0.15333
2011-12-26,0.00958,0.00958,0.00958,0.00958,000,0.15333
2011-12-23,0.00958,0.00958,0.00958,0.00958,000,0.15333
2011-12-22,0.00958,0.00958,0.00958,0.00958,000,0.15333
2011-12-21,0.00958,0.00958,0.00958,0.00958,000,0.15333
2011-12-20,0.00958,0.00958,0.00958,0.00958,000,0.15333
2011-12-19,0.00958,0.00958,0.00958,0.00958,000,0.15333
2011-12-16,0.00958,0.00958,0.00958,0.00958,000,0.15333
2011-12-15,0.00958,0.00958,0.00958,0.00958,000,0.15333
2011-12-14,0.00958,0.00958,0.00958,0.00958,000,0.15333
2011-12-13,0.00958,0.00958,0.00958,0.00958,000,0.15333
2011-12-12,0.00958,0.00958,0.00958,0.00958,000,0.15333
2011-12-09,0.00958,0.00958,0.00958,0.00958,000,0.15333
2011-12-08,0.00958,0.00958,0.00958,0.00958,000,0.15333
2011-12-07,0.00958,0.00958,0.00958,0.00958,16900,0.15333
2011-12-06,0.00767,0.00767,0.00767,0.00767,000,0.12267
2011-12-05,0.00767,0.00767,0.00767,0.00767,000,0.12267
2011-12-02,0.00767,0.00767,0.00767,0.00767,000,0.12267
2011-12-01,0.00767,0.00767,0.00767,0.00767,000,0.12267
2011-11-30,0.00767,0.00767,0.00767,0.00767,000,0.12267
2011-11-29,0.00767,0.00767,0.00767,0.00767,000,0.12267
2011-11-28,0.00767,0.00767,0.00767,0.00767,000,0.12267
2011-11-25,0.00767,0.00767,0.00767,0.00767,000,0.12267
2011-11-24,0.00767,0.00767,0.00767,0.00767,000,0.12267
2011-11-23,0.00767,0.00767,0.00767,0.00767,6600,0.12267
2011-11-22,0.00767,0.00767,0.00767,0.00767,000,0.12267
2011-11-21,0.00767,0.00767,0.00767,0.00767,000,0.12267
2011-11-18,0.00767,0.00767,0.00767,0.00767,000,0.12267
2011-11-17,0.00767,0.00767,0.00767,0.00767,000,0.12267
2011-11-15,0.00862,0.00862,0.00767,0.00767,39100,0.12267
2011-11-10,0.00958,0.00958,0.00958,0.00958,13000,0.15333
2011-11-07,0.0115,0.0115,0.01054,0.01054,9700,0.16867
2011-10-12,0.01438,0.01438,0.01438,0.01438,13000,0.23
2011-10-06,0.02396,0.02396,0.01917,0.01917,7800,0.30667
2011-09-16,0.02108,0.02108,0.02108,0.02108,6500,0.33733
2011-09-01,0.01917,0.01917,0.01917,0.01917,5800,0.30667
2011-08-22,0.01438,0.01438,0.01438,0.01438,3200,0.23
2011-08-19,0.01917,0.01917,0.01342,0.01342,4900,0.21467
2011-08-18,0.01917,0.01917,0.01917,0.01917,19200,0.30667
2011-08-17,0.01438,0.01438,0.01438,0.01438,3800,0.23
2011-08-15,0.01246,0.01246,0.01246,0.01246,1300,0.19933
2011-08-12,0.01246,0.01246,0.00671,0.00958,43500,0.15333
2011-08-09,0.01917,0.01917,0.01917,0.01917,3200,0.30667
2011-06-30,0.01917,0.01917,0.01917,0.01917,1900,0.30667
2011-06-29,0.01917,0.01917,0.01917,0.01917,6600,0.30667
2011-06-28,0.02108,0.02108,0.01725,0.01725,7000,0.276
2011-06-27,0.01917,0.02108,0.01917,0.02108,1200,0.33733
2011-06-24,0.01917,0.01917,0.01917,0.01917,100,0.30667
2011-06-01,0.01917,0.01917,0.01917,0.01917,600,0.30667
2011-05-31,0.01917,0.01917,0.01917,0.01917,100,0.30667
2011-04-27,0.01725,0.01725,0.01725,0.01725,2100,0.276
2011-04-05,0.04025,0.04025,0.04025,0.04025,1000,0.644
2011-03-31,0.04025,0.04025,0.04025,0.04025,300,0.644
2011-03-30,0.04025,0.04025,0.04025,0.04025,700,0.644
2010-09-27,0.03833,0.03833,0.03642,0.03642,6500,0.58267
2010-09-23,0.03546,0.03546,0.03546,0.03546,2600,0.56733
2010-09-14,0.08146,0.08146,0.08146,0.08146,300,1.30333
2010-08-30,0.11979,0.11979,0.11979,0.11979,000,1.91667
2010-08-27,0.11979,0.11979,0.11979,0.11979,000,1.91667
2010-08-26,0.11979,0.11979,0.11979,0.11979,000,1.91667
2010-08-25,0.11979,0.11979,0.11979,0.11979,600,1.91667
2010-08-16,0.12458,0.12458,0.12458,0.12458,600,1.99333
2010-08-12,0.12937,0.12937,0.12937,0.12937,400,2.07
2010-08-05,0.12458,0.12458,0.12458,0.12458,600,1.99333
2010-08-02,0.14375,0.14375,0.14375,0.14375,300,2.30
2010-07-26,0.14375,0.14375,0.14375,0.14375,900,2.30
2010-07-23,0.12458,0.12458,0.12458,0.12458,12800,1.99333
2010-07-08,0.09583,0.09583,0.09583,0.09583,200,1.53333
2010-06-25,0.12458,0.12458,0.09583,0.09583,000,1.53333
2010-06-24,0.12458,0.12458,0.09583,0.09583,000,1.53333
2010-06-23,0.12458,0.12458,0.10542,0.10542,000,1.68667
2010-06-22,0.12458,0.12458,0.10542,0.10542,000,1.68667
2010-06-21,0.12458,0.12458,0.10542,0.10542,000,1.68667
2010-06-18,0.12458,0.12458,0.10542,0.10542,000,1.68667
2010-06-17,0.115,0.115,0.10542,0.10542,000,1.68667
2010-06-16,0.115,0.115,0.09583,0.09583,000,1.53333
2010-06-15,0.115,0.115,0.115,0.115,200,1.84
2010-06-11,0.12458,0.12458,0.115,0.115,000,1.84
2010-06-10,0.12458,0.12458,0.115,0.115,000,1.84
2010-06-09,0.11979,0.11979,0.115,0.115,000,1.84
2010-06-08,0.11979,0.11979,0.115,0.115,000,1.84
2010-06-07,0.12458,0.12458,0.09583,0.09583,000,1.53333
2010-06-04,0.14375,0.14375,0.10542,0.10542,000,1.68667
2010-06-03,0.12458,0.12458,0.12458,0.12458,1300,1.99333
2010-06-02,0.14375,0.14375,0.12458,0.12458,000,1.99333
2010-06-01,0.14375,0.14375,0.12458,0.12458,000,1.99333
2010-05-31,0.14375,0.14375,0.12458,0.12458,000,1.99333
2010-05-28,0.14375,0.14375,0.12458,0.12458,000,1.99333
2010-05-27,0.14375,0.14375,0.12458,0.12458,000,1.99333
2010-05-26,0.18688,0.18688,0.12458,0.12458,000,1.99333
2010-05-25,0.19167,0.19167,0.12458,0.12458,000,1.99333
2010-05-24,0.14375,0.14375,0.14375,0.14375,1500,2.30
2010-05-21,0.14375,0.14375,0.11979,0.11979,000,1.91667
2010-05-20,0.33062,0.33062,0.11979,0.11979,000,1.91667
2010-05-19,0.33062,0.33062,0.14375,0.14375,000,2.30
2010-05-18,0.33062,0.33062,0.14375,0.14375,000,2.30
2010-05-17,0.33062,0.33062,0.14375,0.14375,000,2.30
2010-05-14,0.33062,0.33062,0.14375,0.14375,000,2.30
2010-05-13,0.33062,0.33062,0.14375,0.14375,000,2.30
2010-05-12,0.33062,0.33062,0.11021,0.11021,000,1.76333
2010-05-11,0.33062,0.33062,0.10542,0.10542,000,1.68667
2010-05-07,0.33062,0.33062,0.09583,0.09583,000,1.53333
2010-05-06,0.33062,0.33062,0.09583,0.09583,000,1.53333
2010-05-05,0.33062,0.33062,0.09583,0.09583,000,1.53333
2010-05-04,0.33062,0.33062,0.19167,0.19167,000,3.06667
2010-05-03,0.20992,0.20992,0.1506,0.1506,000,2.40957
2010-04-30,0.22818,0.22818,0.16429,0.16429,1600,2.62862
2010-04-29,0.36509,0.36509,0.22818,0.22818,000,3.65087
2010-04-28,0.36509,0.36509,0.22818,0.22818,000,3.65087
2010-04-27,0.36509,0.36509,0.22818,0.22818,000,3.65087
2010-04-23,0.36509,0.36509,0.22818,0.22818,000,3.65087
2010-04-22,0.36509,0.36509,0.22818,0.22818,000,3.65087
2010-04-21,0.36509,0.36509,0.22818,0.22818,000,3.65087
2010-04-20,0.36509,0.36509,0.22818,0.22818,000,3.65087
2010-04-19,0.36509,0.36509,0.22818,0.22818,000,3.65087
2010-04-16,0.36509,0.36509,0.22818,0.22818,000,3.65087
2010-04-15,0.27382,0.27382,0.27382,0.27382,000,4.38104
2010-04-14,0.27382,0.27382,0.27382,0.27382,000,4.38104
2010-04-13,0.27382,0.27382,0.27382,0.27382,000,4.38104
2010-04-12,0.27382,0.27382,0.27382,0.27382,000,4.38104
2010-04-09,0.27382,0.27382,0.27382,0.27382,1300,4.38104
2010-04-08,0.3012,0.3012,0.27382,0.27382,500,4.38104
2010-04-07,0.36509,0.36509,0.3012,0.3012,000,4.81915
2010-04-06,0.3012,0.3012,0.3012,0.3012,100,4.81915
2010-04-01,0.32858,0.32858,0.3012,0.3012,000,4.81915
2010-03-31,0.32858,0.32858,0.3012,0.3012,000,4.81915
2010-03-30,0.32858,0.32858,0.27838,0.27838,000,4.45406
2010-03-29,0.31032,0.31032,0.3012,0.3012,500,4.81915
2010-03-26,0.32858,0.32858,0.31032,0.31032,000,4.96518
2010-03-25,0.32858,0.32858,0.31032,0.31032,000,4.96518
2010-03-24,0.32858,0.32858,0.3012,0.3012,000,4.81915
2010-03-23,0.32858,0.32858,0.3012,0.3012,000,4.81915
2010-03-22,0.32858,0.32858,0.3012,0.3012,000,4.81915
2010-03-19,0.31032,0.31032,0.31032,0.31032,300,4.96518
2010-03-18,0.36509,0.36509,0.31032,0.31032,000,4.96518
2010-03-17,0.36509,0.36509,0.27838,0.27838,000,4.45406
2010-03-16,0.36509,0.36509,0.27838,0.27838,000,4.45406
2010-03-15,0.36509,0.36509,0.27838,0.27838,000,4.45406
2010-03-12,0.36509,0.36509,0.27838,0.27838,000,4.45406
2010-03-11,0.36509,0.36509,0.27838,0.27838,000,4.45406
2010-03-10,0.36509,0.36509,0.27838,0.27838,000,4.45406
2010-03-09,0.36509,0.36509,0.27838,0.27838,000,4.45406
2010-03-08,0.36509,0.36509,0.27838,0.27838,000,4.45406
2010-03-05,0.36509,0.36509,0.27838,0.27838,000,4.45406
2010-03-04,0.36509,0.36509,0.27838,0.27838,000,4.45406
2010-03-03,0.36509,0.36509,0.27838,0.27838,000,4.45406
2010-03-02,0.36509,0.36509,0.27838,0.27838,000,4.45406
2010-03-01,0.36509,0.36509,0.27838,0.27838,000,4.45406
2010-02-26,0.36509,0.36509,0.28294,0.28294,000,4.52708
2010-02-25,0.36509,0.36509,0.28294,0.28294,000,4.52708
2010-02-24,0.36509,0.36509,0.28294,0.28294,000,4.52708
2010-02-23,0.36509,0.36509,0.28294,0.28294,000,4.52708
2010-02-22,0.36509,0.36509,0.28294,0.28294,000,4.52708
2010-02-19,0.36052,0.36052,0.28294,0.28294,000,4.52708
2010-02-18,0.36052,0.36052,0.28294,0.28294,000,4.52708
2010-02-17,0.35596,0.35596,0.27838,0.27838,000,4.45406
2010-02-16,0.35596,0.35596,0.27838,0.27838,000,4.45406
2010-02-15,0.35596,0.35596,0.27838,0.27838,000,4.45406
2010-02-12,0.35596,0.35596,0.27838,0.27838,000,4.45406
2010-02-11,0.35596,0.35596,0.27838,0.27838,000,4.45406
2010-02-10,0.35596,0.35596,0.27838,0.27838,000,4.45406
2010-02-09,0.35596,0.35596,0.27838,0.27838,000,4.45406
2010-02-08,0.35596,0.35596,0.27382,0.27382,000,4.38104
2010-02-05,0.31032,0.31032,0.28294,0.28294,1800,4.52708
2010-02-04,0.31945,0.31945,0.29207,0.29207,000,4.67311
2010-02-03,0.29207,0.31945,0.29207,0.31945,1100,5.11121
2010-02-01,0.31489,0.31489,0.29207,0.29207,100,4.67311
2010-01-29,0.33314,0.33314,0.31945,0.31945,000,5.11121
2010-01-28,0.31945,0.31945,0.31945,0.31945,000,5.11121
2010-01-27,0.33314,0.33314,0.31945,0.31945,000,5.11121
2010-01-25,0.33314,0.33314,0.31945,0.31945,000,5.11121
2010-01-22,0.3377,0.3377,0.31945,0.31945,000,5.11121
2010-01-21,0.3377,0.3377,0.29663,0.29663,000,4.74613
2010-01-20,0.3377,0.3377,0.29663,0.29663,000,4.74613
2010-01-19,0.3377,0.3377,0.29663,0.29663,000,4.74613
2010-01-18,0.3377,0.3377,0.29663,0.29663,000,4.74613
2010-01-15,0.34227,0.34227,0.29663,0.29663,000,4.74613
2010-01-14,0.36509,0.36509,0.29663,0.29663,000,4.74613
2010-01-13,0.36509,0.36509,0.29663,0.29663,000,4.74613
2010-01-12,0.36509,0.36509,0.29663,0.29663,000,4.74613
2010-01-11,0.36509,0.36509,0.27382,0.27382,000,4.38104
2010-01-08,0.36509,0.36509,0.27382,0.27382,000,4.38104
2010-01-07,0.36509,0.36509,0.27382,0.27382,000,4.38104
2010-01-05,0.4381,0.4381,0.36509,0.36509,000,5.84139
2010-01-04,0.4381,0.4381,0.36509,0.36509,000,5.84139
2009-12-31,0.45636,0.45636,0.36509,0.36509,000,5.84139
2009-12-30,0.45636,0.45636,0.36509,0.36509,000,5.84139
2009-12-24,0.45636,0.45636,0.27382,0.27382,000,4.38104
2009-12-23,0.45636,0.45636,0.27382,0.27382,000,4.38104
2009-12-22,0.45636,0.45636,0.27382,0.27382,000,4.38104
2009-12-21,0.34986,0.34986,0.34986,0.34986,800,5.5978
2009-12-18,0.36508,0.36508,0.34683,0.34683,000,5.54924
2009-12-17,0.36508,0.36508,0.31032,0.31032,000,4.96511
2009-12-16,0.36508,0.36508,0.30119,0.30119,000,4.81908
2009-12-15,0.36508,0.36508,0.30119,0.30119,000,4.81908
2009-12-14,0.36508,0.36508,0.30119,0.30119,000,4.81908
2009-12-11,0.36508,0.36508,0.30119,0.30119,000,4.81908
2009-12-10,0.36508,0.36508,0.30119,0.30119,000,4.81908
2009-12-09,0.36508,0.36508,0.30119,0.30119,000,4.81908
2009-12-08,0.36508,0.36508,0.30119,0.30119,000,4.81908
2009-12-07,0.30613,0.30613,0.30613,0.30613,300,4.89807
2009-12-04,0.31945,0.31945,0.27381,0.27381,000,4.38098
2009-12-03,0.27989,0.30613,0.27989,0.30613,300,4.89807
2009-12-01,0.31945,0.31945,0.29206,0.29206,000,4.67304
2009-11-30,0.26677,0.26677,0.2624,0.2624,6000,4.19835
2009-11-27,0.29206,0.29206,0.27381,0.27381,000,4.38098
2009-11-26,0.27989,0.27989,0.27114,0.27114,5700,4.33829
2009-11-25,0.31945,0.31945,0.29206,0.29206,000,4.67304
2009-11-24,0.31945,0.31945,0.29206,0.29206,000,4.67304
2009-11-23,0.28864,0.28864,0.28864,0.28864,400,4.61818
2009-11-20,0.29738,0.29738,0.28864,0.28864,6200,4.61818
2009-11-19,0.31032,0.31032,0.29206,0.29206,000,4.67304
2009-11-18,0.29738,0.30613,0.29738,0.29738,4600,4.75813
2009-11-17,0.28864,0.34986,0.28864,0.33237,13500,5.31791
2009-11-16,0.30119,0.30119,0.2373,0.2373,000,3.79685
2009-11-13,0.34683,0.34683,0.2373,0.2373,000,3.79685
2009-11-12,0.34683,0.34683,0.2373,0.2373,000,3.79685
2009-11-11,0.30613,0.30613,0.30613,0.30613,1700,4.89807
2009-11-10,0.34683,0.34683,0.27837,0.27837,000,4.45399
2009-11-09,0.34683,0.34683,0.27837,0.27837,000,4.45399
2009-11-06,0.36508,0.36508,0.24187,0.24187,000,3.86986
2009-11-05,0.34112,0.34112,0.34112,0.34112,200,5.45785
2009-11-04,0.34986,0.34986,0.34986,0.34986,000,5.5978
2009-11-03,0.34986,0.34986,0.34986,0.34986,000,5.5978
2009-11-02,0.34986,0.34986,0.34986,0.34986,000,5.5978
2009-10-30,0.34986,0.34986,0.34986,0.34986,100,5.5978
2009-10-29,0.34986,0.34986,0.34986,0.34986,000,5.5978
2009-10-28,0.34986,0.34986,0.34986,0.34986,700,5.5978
2009-10-27,0.34986,0.34986,0.34986,0.34986,000,5.5978
2009-10-26,0.34986,0.34986,0.34986,0.34986,100,5.5978
2009-10-23,0.33674,0.34986,0.33674,0.34986,700,5.5978
2009-10-22,0.34549,0.34549,0.34549,0.34549,000,5.52783
2009-10-21,0.34549,0.34549,0.34549,0.34549,000,5.52783
2009-10-20,0.34549,0.34549,0.34549,0.34549,000,5.52783
2009-10-19,0.34549,0.34549,0.34549,0.34549,000,5.52783
2009-10-16,0.34549,0.34549,0.34549,0.34549,000,5.52783
2009-10-15,0.32362,0.34549,0.32362,0.34549,000,5.52783
2009-10-14,0.34986,0.34986,0.34986,0.34986,000,5.5978
2009-10-13,0.34986,0.34986,0.34986,0.34986,700,5.5978
2009-10-12,0.36736,0.36736,0.36736,0.36736,000,5.87769
2009-10-09,0.36736,0.36736,0.36736,0.36736,000,5.87769
2009-10-08,0.36736,0.36736,0.36736,0.36736,100,5.87769
2009-10-07,0.34986,0.34986,0.34986,0.34986,000,5.5978
2009-10-06,0.34986,0.34986,0.34986,0.34986,000,5.5978
2009-10-05,0.34986,0.34986,0.34986,0.34986,000,5.5978
2009-10-02,0.34986,0.34986,0.34986,0.34986,000,5.5978
2009-10-01,0.34986,0.34986,0.34986,0.34986,000,5.5978
2009-09-30,0.34986,0.34986,0.34986,0.34986,200,5.5978
2009-09-29,0.34986,0.34986,0.34986,0.34986,000,5.5978
2009-09-28,0.34986,0.34986,0.34986,0.34986,000,5.5978
2009-09-25,0.34986,0.34986,0.34986,0.34986,000,5.5978
2009-09-24,0.34986,0.34986,0.34986,0.34986,000,5.5978
2009-09-23,0.34986,0.34986,0.34986,0.34986,000,5.5978
2009-09-22,0.34986,0.34986,0.34986,0.34986,000,5.5978
2009-09-21,0.34986,0.34986,0.34986,0.34986,000,5.5978
2009-09-18,0.34986,0.34986,0.34986,0.34986,000,5.5978
2009-09-17,0.34986,0.34986,0.34986,0.34986,1700,5.5978
2009-09-16,0.34986,0.34986,0.34986,0.34986,000,5.5978
2009-09-15,0.34986,0.34986,0.34986,0.34986,700,5.5978
2009-09-14,0.41109,0.41109,0.34986,0.34986,3700,5.5978
2009-09-11,0.38048,0.38048,0.38048,0.38048,000,6.08761
2009-09-10,0.38048,0.38048,0.38048,0.38048,000,6.08761
2009-09-09,0.38048,0.38048,0.38048,0.38048,000,6.08761
2009-09-08,0.38048,0.38048,0.38048,0.38048,000,6.08761
2009-09-07,0.38048,0.38048,0.38048,0.38048,000,6.08761
2009-09-04,0.38048,0.38048,0.38048,0.38048,000,6.08761
2009-09-03,0.38048,0.38048,0.38048,0.38048,200,6.08761
2009-09-02,0.5073,0.5073,0.5073,0.5073,000,8.11681
2009-09-01,0.5073,0.5073,0.5073,0.5073,000,8.11681
2009-08-31,0.5073,0.5073,0.5073,0.5073,000,8.11681
2009-08-28,0.5073,0.5073,0.5073,0.5073,000,8.11681
2009-08-27,0.5073,0.5073,0.5073,0.5073,000,8.11681
2009-08-26,0.5073,0.5073,0.5073,0.5073,000,8.11681
2009-08-25,0.5073,0.5073,0.5073,0.5073,000,8.11681
2009-08-24,0.5073,0.5073,0.5073,0.5073,000,8.11681
2009-08-21,0.5073,0.5073,0.5073,0.5073,000,8.11681
2009-08-20,0.5073,0.5073,0.5073,0.5073,000,8.11681
2009-08-19,0.5073,0.5073,0.5073,0.5073,000,8.11681
2009-08-18,0.5073,0.5073,0.5073,0.5073,000,8.11681
2009-08-17,0.5073,0.5073,0.5073,0.5073,000,8.11681
2009-08-14,0.5073,0.5073,0.5073,0.5073,000,8.11681
2009-08-13,0.5073,0.5073,0.5073,0.5073,000,8.11681
2009-08-12,0.5073,0.5073,0.5073,0.5073,000,8.11681
2009-08-11,0.47448,0.47448,0.47448,0.47448,000,7.59165
2009-08-10,0.40903,0.40903,0.40903,0.40903,100,6.54453
2009-08-07,0.32723,0.32723,0.32723,0.32723,000,5.23562
2009-08-06,0.32723,0.32723,0.32723,0.32723,000,5.23562
2009-08-05,0.32723,0.32723,0.32723,0.32723,000,5.23562
2009-08-04,0.32723,0.32723,0.31905,0.32723,3000,5.23562
2009-08-03,0.33541,0.33541,0.33541,0.33541,200,5.36651
2009-07-31,0.32723,0.32723,0.32723,0.32723,000,5.23562
2009-07-30,0.32723,0.32723,0.32723,0.32723,000,5.23562
2009-07-29,0.32723,0.32723,0.32723,0.32723,000,5.23562
2009-07-28,0.32723,0.32723,0.32723,0.32723,000,5.23562
2009-07-27,0.32723,0.32723,0.32723,0.32723,000,5.23562
2009-07-24,0.32723,0.32723,0.32723,0.32723,000,5.23562
2009-07-23,0.32723,0.32723,0.32723,0.32723,000,5.23562
2009-07-22,0.32723,0.32723,0.32723,0.32723,000,5.23562
2009-07-21,0.32723,0.32723,0.32723,0.32723,000,5.23562
2009-07-20,0.32723,0.32723,0.32723,0.32723,000,5.23562
2009-07-17,0.32723,0.32723,0.32723,0.32723,000,5.23562
2009-07-16,0.32723,0.32723,0.32723,0.32723,000,5.23562
2009-07-15,0.32723,0.32723,0.32723,0.32723,000,5.23562
2009-07-14,0.32723,0.32723,0.32723,0.32723,400,5.23562
2009-07-13,0.32723,0.32723,0.32723,0.32723,000,5.23562
2009-07-10,0.32723,0.32723,0.32723,0.32723,300,5.23562
2009-07-09,0.34359,0.34359,0.34359,0.34359,000,5.4974
2009-07-08,0.37631,0.37631,0.34359,0.34359,600,5.4974
2009-07-07,0.37631,0.37631,0.37631,0.37631,000,6.02096
2009-07-06,0.37631,0.37631,0.37631,0.37631,700,6.02096
2009-07-03,0.37631,0.37631,0.37631,0.37631,000,6.02096
2009-07-02,0.40903,0.40903,0.37631,0.37631,400,6.02096
2009-07-01,0.40903,0.40903,0.40903,0.40903,000,6.54453
2009-06-30,0.40903,0.40903,0.40903,0.40903,000,6.54453
2009-06-29,0.40903,0.40903,0.40903,0.40903,000,6.54453
2009-06-26,0.40903,0.40903,0.40903,0.40903,000,6.54453
2009-06-25,0.40903,0.40903,0.40903,0.40903,000,6.54453
2009-06-24,0.40903,0.40903,0.40903,0.40903,000,6.54453
2009-06-23,0.40903,0.40903,0.40903,0.40903,700,6.54453
2009-06-22,0.38449,0.38449,0.38449,0.38449,000,6.15185
2009-06-19,0.38449,0.38449,0.38449,0.38449,000,6.15185
2009-06-18,0.39267,0.39267,0.38449,0.38449,500,6.15185
2009-06-17,0.38449,0.38449,0.38449,0.38449,000,6.15185
2009-06-16,0.38449,0.38449,0.38449,0.38449,000,6.15185
2009-06-15,0.38449,0.38449,0.38449,0.38449,000,6.15185
2009-06-12,0.38449,0.38449,0.38449,0.38449,000,6.15185
2009-06-11,0.38449,0.38449,0.38449,0.38449,400,6.15185
2009-06-10,0.38449,0.38449,0.38449,0.38449,000,6.15185
2009-06-09,0.36813,0.38449,0.36813,0.38449,900,6.15185
2009-06-05,0.36813,0.36813,0.36813,0.36813,300,5.89007
2009-06-04,0.38858,0.40903,0.38858,0.40903,700,6.54453
2009-06-03,0.31495,0.31495,0.31495,0.31495,400,5.03928
2009-06-02,0.2945,0.32723,0.2945,0.32723,2700,5.23562
2009-06-01,0.40903,0.40903,0.20452,0.31087,12500,4.97384
2009-05-29,0.57265,0.57265,0.57265,0.57265,000,9.16234
2009-05-28,0.57265,0.57265,0.57265,0.57265,000,9.16234
2009-05-27,0.57265,0.57265,0.57265,0.57265,000,9.16234
2009-05-26,0.57265,0.57265,0.57265,0.57265,000,9.16234
2009-05-25,0.57265,0.57265,0.57265,0.57265,000,9.16234
2009-05-22,0.57265,0.57265,0.57265,0.57265,000,9.16234
2009-05-21,0.57265,0.57265,0.57265,0.57265,000,9.16234
2009-05-20,0.57265,0.57265,0.57265,0.57265,000,9.16234
2009-05-19,0.57265,0.57265,0.57265,0.57265,000,9.16234
2009-05-18,0.57265,0.57265,0.57265,0.57265,000,9.16234
2009-05-15,0.57265,0.57265,0.57265,0.57265,000,9.16234
2009-05-14,0.57265,0.57265,0.57265,0.57265,000,9.16234
2009-05-13,0.57265,0.57265,0.57265,0.57265,000,9.16234
2009-05-12,0.57265,0.57265,0.57265,0.57265,100,9.16234
2009-05-11,0.49084,0.49084,0.49084,0.49084,000,7.85343
2009-05-08,0.49084,0.49084,0.49084,0.49084,000,7.85343
2009-05-07,0.49084,0.49084,0.49084,0.49084,000,7.85343
2009-05-06,0.49084,0.49084,0.49084,0.49084,000,7.85343
2009-05-05,0.63891,0.63891,0.502,0.502,000,8.03197
2009-05-04,0.49084,0.49084,0.49084,0.49084,400,7.85343
2009-05-01,0.54763,0.54763,0.502,0.502,000,8.03197
2009-04-30,0.49084,0.49084,0.49084,0.49084,100,7.85343
2009-04-29,0.72105,0.72105,0.54763,0.54763,000,8.76215
2009-04-28,0.72105,0.72105,0.54763,0.54763,000,8.76215
2009-04-27,0.72105,0.72105,0.54763,0.54763,000,8.76215
2009-04-24,0.72105,0.72105,0.54763,0.54763,000,8.76215
2009-04-23,0.72105,0.72105,0.54763,0.54763,000,8.76215
2009-04-22,0.53174,0.53174,0.53174,0.53174,100,8.50788
2009-04-21,0.72105,0.72105,0.54763,0.54763,000,8.76215
2009-04-20,0.72105,0.72105,0.54763,0.54763,000,8.76215
2009-04-17,0.72105,0.72105,0.54763,0.54763,000,8.76215
2009-04-16,0.72105,0.72105,0.54763,0.54763,000,8.76215
2009-04-15,0.72105,0.72105,0.54763,0.54763,000,8.76215
2009-04-14,0.72105,0.72105,0.54763,0.54763,000,8.76215
2009-04-09,0.72105,0.72105,0.54763,0.54763,000,8.76215
2009-04-08,0.72105,0.72105,0.54763,0.54763,000,8.76215
2009-04-07,0.54401,0.54401,0.54401,0.54401,100,8.70422
2009-04-06,0.49902,0.54401,0.49902,0.54401,300,8.70422
2009-04-03,0.49902,0.49902,0.49902,0.49902,000,7.98432
2009-04-02,0.53174,0.53174,0.49902,0.49902,900,7.98432
2009-04-01,0.65445,0.65445,0.65445,0.65445,000,10.4712
2009-03-31,0.65445,0.65445,0.65445,0.65445,000,10.4712
2009-03-30,0.65445,0.65445,0.65445,0.65445,000,10.4712
2009-03-27,0.65445,0.65445,0.65445,0.65445,000,10.4712
2009-03-26,0.65445,0.65445,0.65445,0.65445,000,10.4712
2009-03-25,0.65445,0.65445,0.65445,0.65445,000,10.4712
2009-03-24,0.65445,0.65445,0.65445,0.65445,000,10.4712
2009-03-23,0.65445,0.65445,0.65445,0.65445,000,10.4712
2009-03-20,0.65445,0.65445,0.65445,0.65445,000,10.4712
2009-03-19,0.65445,0.65445,0.65445,0.65445,000,10.4712
2009-03-18,0.65445,0.65445,0.65445,0.65445,000,10.4712
2009-03-17,0.64764,0.64764,0.64764,0.64764,000,10.3623
2009-03-16,0.64764,0.64764,0.64764,0.64764,000,10.3623
2009-03-13,0.73018,0.73018,0.64803,0.64803,000,10.3685
2009-03-12,0.73018,0.73018,0.64803,0.64803,000,10.3685
2009-03-11,0.64764,0.64764,0.64764,0.64764,600,10.3623
2009-03-10,0.73018,0.73018,0.6389,0.6389,000,10.2224
2009-03-09,0.73018,0.73018,0.6389,0.6389,000,10.2224
2009-03-06,0.74843,0.74843,0.6389,0.6389,000,10.2224
2009-03-05,0.74843,0.74843,0.6389,0.6389,000,10.2224
2009-03-04,0.61526,0.61526,0.61526,0.61526,000,9.84423
2009-03-03,0.61526,0.61526,0.61526,0.61526,000,9.84423
2009-03-02,0.61526,0.61526,0.61526,0.61526,000,9.84423
2009-02-27,0.66384,0.66384,0.61526,0.61526,200,9.84423
2009-02-26,0.60717,0.60717,0.60717,0.60717,100,9.7147
2009-02-25,0.73018,0.73018,0.68454,0.68454,000,10.9526
2009-02-24,0.74843,0.74843,0.68454,0.68454,000,10.9526
2009-02-23,0.74843,0.74843,0.68454,0.68454,000,10.9526
2009-02-20,0.68813,0.68813,0.68813,0.68813,100,11.01
2009-02-19,0.7286,0.7286,0.7286,0.7286,000,11.6576
2009-02-18,0.7286,0.7286,0.7286,0.7286,1700,11.6576
2009-02-17,0.7286,0.7286,0.7286,0.7286,000,11.6576
2009-02-16,0.7286,0.7286,0.7286,0.7286,000,11.6576
2009-02-13,0.7286,0.7286,0.7286,0.7286,000,11.6576
2009-02-12,0.7286,0.7286,0.7286,0.7286,000,11.6576
2009-02-11,0.7286,0.7286,0.7286,0.7286,000,11.6576
2009-02-10,0.7286,0.7286,0.7286,0.7286,400,11.6576
2009-02-09,0.7286,0.7286,0.7286,0.7286,000,11.6576
2009-02-06,0.7286,0.7286,0.7286,0.7286,000,11.6576
2009-02-05,0.7286,0.7286,0.7286,0.7286,000,11.6576
2009-02-04,0.7286,0.7286,0.7286,0.7286,000,11.6576
2009-02-03,0.7286,0.7286,0.7286,0.7286,000,11.6576
2009-02-02,0.7286,0.7286,0.7286,0.7286,000,11.6576
2009-01-30,0.7286,0.7286,0.7286,0.7286,600,11.6576
2009-01-29,0.7286,0.7286,0.7286,0.7286,000,11.6576
2009-01-28,0.7286,0.7286,0.7286,0.7286,100,11.6576
2009-01-27,0.76908,0.76908,0.76908,0.76908,000,12.3053
2009-01-23,0.78123,0.78123,0.76908,0.76908,200,12.3053
2009-01-22,0.80146,0.80146,0.78527,0.78527,100,12.5643
2009-01-21,0.80956,0.80956,0.80956,0.80956,000,12.9529
2009-01-20,0.80956,0.80956,0.80956,0.80956,000,12.9529
2009-01-19,0.80956,0.80956,0.80956,0.80956,000,12.9529
2009-01-16,0.76908,0.76908,0.76908,0.76908,000,12.3053
2009-01-15,0.76908,0.76908,0.76908,0.76908,000,12.3053
2009-01-14,0.76908,0.76908,0.76908,0.76908,000,12.3053
2009-01-13,0.76908,0.76908,0.76908,0.76908,000,12.3053
2009-01-12,0.76908,0.76908,0.76908,0.76908,100,12.3053
2009-01-09,0.80146,0.80146,0.80146,0.80146,000,12.8234
2009-01-08,0.80146,0.80146,0.80146,0.80146,000,12.8234
2009-01-07,0.80146,0.80146,0.80146,0.80146,000,12.8234
2009-01-06,0.80146,0.80146,0.80146,0.80146,000,12.8234
2009-01-05,0.80146,0.80146,0.80146,0.80146,000,12.8234
2009-01-02,0.80146,0.80146,0.80146,0.80146,000,12.8234
2008-12-31,0.80146,0.80146,0.80146,0.80146,000,12.8234
2008-12-30,0.80146,0.80146,0.80146,0.80146,000,12.8234
2008-12-29,0.90359,0.90359,0.81232,0.81232,000,12.9971
2008-12-24,0.90359,0.90359,0.81232,0.81232,000,12.9971
2008-12-23,0.90359,0.90359,0.81232,0.81232,000,12.9971
2008-12-22,0.90359,0.90359,0.81232,0.81232,000,12.9971
2008-12-19,0.90359,0.90359,0.81232,0.81232,000,12.9971
2008-12-18,0.80146,0.80146,0.80146,0.80146,400,12.8234
2008-12-17,0.80956,0.80956,0.80956,0.80956,000,12.9529
2008-12-16,0.80956,0.80956,0.80956,0.80956,000,12.9529
2008-12-15,0.80956,0.80956,0.80956,0.80956,200,12.9529
2008-12-12,0.80956,0.80956,0.80956,0.80956,000,12.9529
2008-12-11,0.80956,0.80956,0.80956,0.80956,000,12.9529
2008-12-10,0.80956,0.80956,0.80956,0.80956,000,12.9529
2008-12-09,0.80956,0.80956,0.80146,0.80146,300,12.8234
2008-12-08,0.84194,0.85004,0.84194,0.85004,100,13.6006
2008-12-05,0.85004,0.85004,0.85004,0.85004,000,13.6006
2008-12-04,0.85004,0.85004,0.85004,0.85004,000,13.6006
2008-12-03,0.85004,0.85004,0.85004,0.85004,000,13.6006
2008-12-02,0.85004,0.85004,0.85004,0.85004,300,13.6006
2008-12-01,0.80956,0.80956,0.80956,0.80956,000,12.9529
2008-11-28,0.80956,0.80956,0.80956,0.80956,100,12.9529
2008-11-27,0.80956,0.80956,0.80956,0.80956,000,12.9529
2008-11-26,0.80956,0.80956,0.80956,0.80956,100,12.9529
2008-11-25,0.80956,0.80956,0.80956,0.80956,000,12.9529
2008-11-24,0.80956,0.80956,0.80956,0.80956,000,12.9529
2008-11-21,0.80956,0.80956,0.80956,0.80956,000,12.9529
2008-11-20,0.80956,0.80956,0.80956,0.80956,1000,12.9529
2008-11-19,0.80956,0.85004,0.80956,0.85004,1800,13.6006
2008-11-18,0.80956,0.80956,0.80956,0.80956,1600,12.9529
2008-11-17,0.85004,0.85004,0.85004,0.85004,300,13.6006
2008-11-14,0.80956,0.80956,0.80956,0.80956,000,12.9529
2008-11-13,0.80956,0.80956,0.80956,0.80956,000,12.9529
2008-11-12,0.80956,0.80956,0.80956,0.80956,1600,12.9529
2008-11-11,0.85004,0.85004,0.85004,0.85004,000,13.6006
2008-11-10,0.85004,0.85004,0.85004,0.85004,600,13.6006
2008-11-07,0.80956,0.80956,0.80956,0.80956,000,12.9529
2008-11-06,0.80956,0.80956,0.80956,0.80956,2000,12.9529
2008-11-05,0.85004,0.85004,0.85004,0.85004,500,13.6006
2008-11-04,0.85004,0.85004,0.85004,0.85004,000,13.6006
2008-11-03,0.80956,0.80956,0.80956,0.80956,100,12.9529
2008-10-31,0.85004,0.86218,0.85004,0.85004,1000,13.6006
2008-10-30,0.85004,0.85004,0.76908,0.80956,2400,12.9529
