Date,Open,High,Low,Close,Volume,Adj Close
2017-01-10,0.035,0.035,0.035,0.035,000,0.035
2017-01-09,0.035,0.035,0.035,0.035,000,0.035
2017-01-06,0.035,0.035,0.035,0.035,000,0.035
2017-01-05,0.035,0.035,0.035,0.035,000,0.035
2017-01-04,0.035,0.035,0.035,0.035,000,0.035
2017-01-03,0.036,0.036,0.035,0.035,340400,0.035
2017-01-02,0.036,0.036,0.036,0.036,000,0.036
2016-12-30,0.036,0.036,0.036,0.036,000,0.036
2016-12-29,0.036,0.036,0.036,0.036,000,0.036
2016-12-28,0.037,0.037,0.036,0.036,250000,0.036
2016-12-27,0.04,0.04,0.04,0.04,000,0.04
2016-12-26,0.04,0.04,0.04,0.04,000,0.04
2016-12-23,0.04,0.04,0.04,0.04,000,0.04
2016-12-22,0.039,0.04,0.039,0.04,405200,0.04
2016-12-21,0.034,0.037,0.034,0.037,3901800,0.037
2016-12-20,0.03,0.03,0.03,0.03,000,0.03
2016-12-19,0.03,0.03,0.03,0.03,000,0.03
2016-12-16,0.03,0.03,0.03,0.03,238600,0.03
2016-12-15,0.031,0.031,0.031,0.031,50000,0.031
2016-12-14,0.037,0.037,0.037,0.037,000,0.037
2016-12-13,0.037,0.037,0.037,0.037,000,0.037
2016-12-12,0.035,0.037,0.035,0.037,1065800,0.037
2016-12-09,0.036,0.036,0.035,0.035,447000,0.035
2016-12-08,0.035,0.036,0.035,0.036,214300,0.036
2016-12-07,0.033,0.033,0.033,0.033,100000,0.033
2016-12-06,0.036,0.036,0.035,0.035,118000,0.035
2016-12-05,0.036,0.036,0.036,0.036,85000,0.036
2016-12-02,0.03,0.036,0.03,0.036,467000,0.036
2016-12-01,0.03,0.03,0.03,0.03,470000,0.03
2016-11-30,0.026,0.026,0.026,0.026,000,0.026
2016-11-29,0.026,0.026,0.026,0.026,238000,0.026
2016-11-28,0.024,0.025,0.024,0.025,338000,0.025
2016-11-25,0.024,0.024,0.021,0.021,789000,0.021
2016-11-24,0.026,0.026,0.02,0.021,677100,0.021
2016-11-23,0.023,0.023,0.023,0.023,88300,0.023
2016-11-22,0.025,0.026,0.022,0.025,472400,0.025
2016-11-21,0.026,0.026,0.025,0.025,250000,0.025
2016-11-18,0.03,0.03,0.025,0.025,205600,0.025
2016-11-17,0.025,0.03,0.025,0.029,229000,0.029
2016-11-16,0.028,0.028,0.028,0.028,30000,0.028
2016-11-15,0.03,0.03,0.03,0.03,000,0.03
2016-11-14,0.03,0.03,0.03,0.03,19900,0.03
2016-11-11,0.025,0.027,0.025,0.027,230000,0.027
2016-11-10,0.025,0.025,0.025,0.025,100000,0.025
2016-11-09,0.025,0.025,0.025,0.025,66800,0.025
2016-11-08,0.025,0.025,0.025,0.025,33100,0.025
2016-11-07,0.026,0.026,0.026,0.026,125000,0.026
2016-11-04,0.03,0.03,0.03,0.03,000,0.03
2016-11-03,0.03,0.03,0.03,0.03,000,0.03
2016-11-02,0.025,0.03,0.025,0.03,41300,0.03
2016-11-01,0.026,0.026,0.025,0.025,254500,0.025
2016-10-31,0.03,0.03,0.029,0.03,408000,0.03
2016-10-28,0.034,0.034,0.034,0.034,000,0.034
2016-10-27,0.034,0.034,0.034,0.034,000,0.034
2016-10-26,0.034,0.034,0.034,0.034,000,0.034
2016-10-25,0.034,0.034,0.034,0.034,000,0.034
2016-10-24,0.034,0.034,0.034,0.034,000,0.034
2016-10-21,0.031,0.034,0.031,0.034,80000,0.034
2016-10-20,0.029,0.029,0.029,0.029,000,0.029
2016-10-19,0.029,0.029,0.029,0.029,50000,0.029
2016-10-18,0.037,0.037,0.035,0.035,90500,0.035
2016-10-17,0.034,0.039,0.034,0.039,559800,0.039
2016-10-14,0.032,0.033,0.032,0.033,20400,0.033
2016-10-13,0.033,0.035,0.033,0.033,135000,0.033
2016-10-12,0.03,0.033,0.03,0.033,540000,0.033
2016-10-11,0.03,0.03,0.03,0.03,100000,0.03
2016-10-10,0.035,0.035,0.035,0.035,000,0.035
2016-10-07,0.035,0.035,0.035,0.035,000,0.035
2016-10-06,0.035,0.035,0.035,0.035,000,0.035
2016-10-05,0.028,0.035,0.028,0.035,600000,0.035
2016-10-04,0.029,0.029,0.029,0.029,000,0.029
2016-10-03,0.029,0.029,0.029,0.029,150600,0.029
2016-09-30,0.035,0.035,0.029,0.029,600300,0.029
2016-09-29,0.035,0.035,0.035,0.035,50000,0.035
2016-09-28,0.032,0.032,0.032,0.032,350000,0.032
2016-09-27,0.031,0.031,0.031,0.031,100000,0.031
2016-09-26,0.031,0.031,0.031,0.031,175000,0.031
2016-09-23,0.03,0.03,0.029,0.029,80000,0.029
2016-09-22,0.031,0.031,0.031,0.031,000,0.031
2016-09-21,0.031,0.031,0.031,0.031,000,0.031
2016-09-20,0.031,0.031,0.031,0.031,250000,0.031
2016-09-19,0.038,0.038,0.038,0.038,000,0.038
2016-09-16,0.038,0.038,0.038,0.038,000,0.038
2016-09-15,0.038,0.038,0.038,0.038,000,0.038
2016-09-14,0.038,0.038,0.038,0.038,000,0.038
2016-09-13,0.038,0.038,0.038,0.038,000,0.038
2016-09-12,0.036,0.038,0.036,0.038,320000,0.038
2016-09-09,0.038,0.038,0.038,0.038,414000,0.038
2016-09-08,0.038,0.039,0.038,0.039,20400,0.039
2016-09-07,0.036,0.036,0.036,0.036,379500,0.036
2016-09-06,0.034,0.034,0.033,0.033,216300,0.033
2016-09-05,0.034,0.034,0.034,0.034,000,0.034
2016-09-02,0.034,0.034,0.034,0.034,000,0.034
2016-09-01,0.037,0.037,0.034,0.034,159600,0.034
2016-08-31,0.038,0.038,0.038,0.038,000,0.038
2016-08-30,0.038,0.038,0.037,0.038,485000,0.038
2016-08-29,0.039,0.039,0.038,0.038,15000,0.038
2016-08-26,0.037,0.037,0.036,0.036,115400,0.036
2016-08-25,0.037,0.037,0.037,0.037,150000,0.037
2016-08-24,0.04,0.04,0.036,0.036,674400,0.036
2016-08-23,0.035,0.04,0.035,0.04,727900,0.04
2016-08-22,0.036,0.036,0.036,0.036,20000,0.036
2016-08-19,0.034,0.034,0.034,0.034,000,0.034
2016-08-18,0.034,0.034,0.034,0.034,000,0.034
2016-08-17,0.034,0.034,0.034,0.034,000,0.034
2016-08-16,0.036,0.036,0.033,0.034,156600,0.034
2016-08-15,0.038,0.038,0.036,0.036,300000,0.036
2016-08-12,0.04,0.04,0.04,0.04,000,0.04
2016-08-11,0.04,0.04,0.04,0.04,000,0.04
2016-08-10,0.04,0.04,0.04,0.04,000,0.04
2016-08-09,0.042,0.042,0.04,0.04,587000,0.04
2016-08-08,0.045,0.045,0.045,0.045,32200,0.045
2016-08-05,0.045,0.045,0.045,0.045,78700,0.045
2016-08-04,0.043,0.045,0.043,0.045,110000,0.045
2016-08-03,0.048,0.048,0.048,0.048,000,0.048
2016-08-02,0.046,0.048,0.046,0.048,300400,0.048
2016-08-01,0.05,0.05,0.05,0.05,6500,0.05
2016-07-29,0.047,0.048,0.047,0.048,140000,0.048
2016-07-28,0.04,0.045,0.04,0.045,124400,0.045
2016-07-27,0.04,0.04,0.04,0.04,000,0.04
2016-07-26,0.04,0.04,0.04,0.04,166900,0.04
2016-07-25,0.043,0.043,0.042,0.042,18400,0.042
2016-07-22,0.04,0.04,0.04,0.04,000,0.04
2016-07-21,0.042,0.042,0.039,0.04,270900,0.04
2016-07-20,0.042,0.042,0.042,0.042,236600,0.042
2016-07-19,0.038,0.038,0.038,0.038,000,0.038
2016-07-18,0.042,0.042,0.038,0.038,19700,0.038
2016-07-15,0.044,0.044,0.044,0.044,12500,0.044
2016-07-14,0.039,0.039,0.039,0.039,22300,0.039
2016-07-13,0.041,0.041,0.041,0.041,25000,0.041
2016-07-12,0.035,0.042,0.035,0.041,737500,0.041
2016-07-11,0.033,0.033,0.03,0.03,1150800,0.03
2016-07-08,0.035,0.036,0.032,0.036,1624200,0.036
2016-07-07,0.038,0.038,0.032,0.032,985200,0.032
2016-07-06,0.037,0.037,0.037,0.037,000,0.037
2016-07-05,0.039,0.039,0.037,0.037,119800,0.037
2016-07-04,0.037,0.037,0.037,0.037,32800,0.037
2016-07-01,0.037,0.037,0.037,0.037,43600,0.037
2016-06-30,0.035,0.035,0.035,0.035,100000,0.035
2016-06-29,0.031,0.031,0.031,0.031,000,0.031
2016-06-28,0.031,0.031,0.031,0.031,24500,0.031
2016-06-27,0.033,0.033,0.028,0.029,266600,0.029
2016-06-24,0.04,0.04,0.033,0.033,96600,0.033
2016-06-23,0.04,0.04,0.04,0.04,15000,0.04
2016-06-22,0.04,0.04,0.04,0.04,000,0.04
2016-06-21,0.04,0.04,0.04,0.04,000,0.04
2016-06-20,0.04,0.04,0.04,0.04,5000,0.04
2016-06-17,0.04,0.04,0.04,0.04,9700,0.04
2016-06-16,0.04,0.04,0.04,0.04,40000,0.04
2016-06-15,0.033,0.033,0.03,0.032,126600,0.032
2016-06-14,0.041,0.041,0.041,0.041,1400,0.041
2016-06-13,0.042,0.042,0.042,0.042,000,0.042
2016-06-10,0.041,0.042,0.041,0.042,161200,0.042
2016-06-09,0.039,0.042,0.039,0.042,127100,0.042
2016-06-08,0.04,0.04,0.033,0.033,15400,0.033
2016-06-07,0.044,0.044,0.044,0.044,34800,0.044
2016-06-06,0.038,0.04,0.038,0.04,277100,0.04
2016-06-03,0.038,0.038,0.038,0.038,000,0.038
2016-06-02,0.036,0.038,0.035,0.038,132200,0.038
2016-06-01,0.033,0.035,0.033,0.035,86200,0.035
2016-05-31,0.034,0.035,0.033,0.033,67400,0.033
2016-05-30,0.045,0.045,0.032,0.032,185200,0.032
2016-05-27,0.049,0.049,0.049,0.049,7200,0.049
2016-05-26,0.05,0.05,0.05,0.05,10000,0.05
2016-05-25,0.055,0.055,0.055,0.055,000,0.055
2016-05-24,0.055,0.055,0.055,0.055,000,0.055
2016-05-23,0.055,0.055,0.055,0.055,50000,0.055
2016-05-20,0.062,0.062,0.062,0.062,000,0.062
2016-05-19,0.062,0.062,0.062,0.062,000,0.062
2016-05-18,0.062,0.062,0.062,0.062,000,0.062
2016-05-17,0.062,0.062,0.062,0.062,000,0.062
2016-05-16,0.062,0.062,0.062,0.062,000,0.062
2016-05-13,0.062,0.062,0.062,0.062,11000,0.062
2016-05-12,0.063,0.065,0.063,0.065,80700,0.065
2016-05-11,0.06,0.063,0.06,0.063,7100,0.063
2016-05-10,0.065,0.065,0.065,0.065,000,0.065
2016-05-09,0.065,0.065,0.065,0.065,46100,0.065
2016-05-06,0.065,0.065,0.065,0.065,600,0.065
2016-05-05,0.075,0.075,0.075,0.075,000,0.075
2016-05-04,0.075,0.075,0.075,0.075,2100,0.075
2016-05-03,0.077,0.077,0.077,0.077,232000,0.077
2016-05-02,0.082,0.082,0.075,0.075,226100,0.075
2016-04-29,0.085,0.087,0.083,0.083,47000,0.083
2016-04-28,0.087,0.087,0.087,0.087,000,0.087
2016-04-27,0.087,0.087,0.087,0.087,33800,0.087
2016-04-26,0.09,0.09,0.09,0.09,55200,0.09
2016-04-25,0.087,0.087,0.087,0.087,000,0.087
2016-04-22,0.09,0.09,0.087,0.087,158900,0.087
2016-04-21,0.093,0.093,0.09,0.09,165000,0.09
2016-04-20,0.091,0.091,0.091,0.091,26500,0.091
2016-04-19,0.091,0.091,0.091,0.091,20900,0.091
2016-04-18,0.095,0.098,0.095,0.096,50000,0.096
2016-04-15,0.09,0.095,0.09,0.095,244200,0.095
2016-04-14,0.085,0.085,0.085,0.085,50500,0.085
2016-04-13,0.081,0.081,0.08,0.08,92400,0.08
2016-04-12,0.095,0.095,0.083,0.083,293400,0.083
2016-04-11,0.095,0.095,0.095,0.095,000,0.095
2016-04-08,0.098,0.098,0.094,0.095,80700,0.095
2016-04-07,0.098,0.098,0.095,0.098,60300,0.098
2016-04-06,0.095,0.095,0.09,0.093,405700,0.093
2016-04-05,0.091,0.091,0.091,0.091,10000,0.091
2016-04-04,0.088,0.088,0.088,0.088,000,0.088
2016-04-01,0.088,0.088,0.088,0.088,6600,0.088
2016-03-31,0.089,0.089,0.085,0.088,680100,0.088
2016-03-30,0.09,0.09,0.09,0.09,000,0.09
2016-03-29,0.091,0.091,0.09,0.09,302400,0.09
2016-03-28,0.091,0.091,0.091,0.091,000,0.091
2016-03-25,0.091,0.091,0.091,0.091,000,0.091
2016-03-24,0.091,0.091,0.091,0.091,000,0.091
2016-03-23,0.092,0.092,0.091,0.091,102100,0.091
2016-03-22,0.093,0.093,0.092,0.092,56300,0.092
2016-03-21,0.092,0.093,0.091,0.091,341900,0.091
2016-03-18,0.092,0.092,0.092,0.092,123100,0.092
2016-03-17,0.091,0.091,0.091,0.091,7800,0.091
2016-03-16,0.095,0.098,0.09,0.09,111800,0.09
2016-03-15,0.09,0.09,0.09,0.09,000,0.09
2016-03-14,0.095,0.095,0.09,0.09,56400,0.09
2016-03-11,0.10,0.10,0.10,0.10,000,0.10
2016-03-10,0.115,0.115,0.10,0.10,156800,0.10
2016-03-09,0.10,0.115,0.10,0.11,482900,0.11
2016-03-08,0.091,0.091,0.091,0.091,000,0.091
2016-03-07,0.091,0.091,0.091,0.091,000,0.091
2016-03-04,0.091,0.091,0.091,0.091,8000,0.091
2016-03-03,0.085,0.085,0.085,0.085,68100,0.085
2016-03-02,0.081,0.081,0.081,0.081,000,0.081
2016-03-01,0.081,0.081,0.081,0.081,000,0.081
2016-02-29,0.085,0.085,0.081,0.081,78400,0.081
2016-02-26,0.085,0.085,0.085,0.085,47500,0.085
2016-02-25,0.085,0.085,0.085,0.085,000,0.085
2016-02-24,0.085,0.085,0.085,0.085,000,0.085
2016-02-23,0.085,0.085,0.085,0.085,000,0.085
2016-02-22,0.085,0.085,0.085,0.085,000,0.085
2016-02-19,0.085,0.085,0.085,0.085,000,0.085
2016-02-18,0.085,0.085,0.085,0.085,000,0.085
2016-02-17,0.085,0.085,0.085,0.085,15300,0.085
2016-02-16,0.09,0.09,0.085,0.085,300000,0.085
2016-02-15,0.085,0.086,0.085,0.086,60500,0.086
2016-02-12,0.10,0.10,0.10,0.10,000,0.10
2016-02-11,0.10,0.10,0.10,0.10,3300,0.10
2016-02-10,0.10,0.10,0.10,0.10,000,0.10
2016-02-09,0.10,0.10,0.10,0.10,696600,0.10
2016-02-08,0.105,0.105,0.105,0.105,000,0.105
2016-02-05,0.105,0.105,0.105,0.105,000,0.105
2016-02-04,0.105,0.105,0.105,0.105,000,0.105
2016-02-03,0.105,0.105,0.105,0.105,146900,0.105
2016-02-02,0.11,0.11,0.105,0.105,8600,0.105
2016-02-01,0.11,0.11,0.11,0.11,15000,0.11
2016-01-29,0.11,0.11,0.11,0.11,000,0.11
2016-01-28,0.11,0.11,0.11,0.11,3500,0.11
2016-01-27,0.11,0.11,0.11,0.11,6600,0.11
2016-01-26,0.105,0.105,0.105,0.105,000,0.105
2016-01-25,0.105,0.105,0.105,0.105,17500,0.105
2016-01-22,0.11,0.11,0.11,0.11,10000,0.11
2016-01-21,0.115,0.115,0.115,0.115,99300,0.115
2016-01-20,0.12,0.12,0.12,0.12,000,0.12
2016-01-19,0.12,0.12,0.12,0.12,000,0.12
2016-01-18,0.125,0.125,0.12,0.12,135000,0.12
2016-01-15,0.13,0.13,0.125,0.125,155300,0.125
2016-01-14,0.115,0.14,0.115,0.125,640500,0.125
2016-01-13,0.10,0.11,0.10,0.11,107300,0.11
2016-01-12,0.10,0.105,0.09,0.105,74300,0.105
2016-01-11,0.099,0.099,0.099,0.099,000,0.099
2016-01-08,0.099,0.099,0.099,0.099,000,0.099
2016-01-07,0.096,0.099,0.085,0.099,106800,0.099
2016-01-06,0.10,0.10,0.10,0.10,000,0.10
2016-01-05,0.10,0.10,0.10,0.10,36800,0.10
2016-01-04,0.096,0.096,0.096,0.096,000,0.096
2016-01-01,0.096,0.096,0.096,0.096,000,0.096
2015-12-31,0.096,0.096,0.096,0.096,32100,0.096
2015-12-30,0.09,0.09,0.09,0.09,17000,0.09
2015-12-29,0.082,0.082,0.082,0.082,7000,0.082
2015-12-28,0.075,0.075,0.075,0.075,000,0.075
2015-12-25,0.075,0.075,0.075,0.075,000,0.075
2015-12-24,0.075,0.075,0.075,0.075,000,0.075
2015-12-23,0.091,0.091,0.075,0.075,2028600,0.075
2015-12-22,0.091,0.091,0.091,0.091,30000,0.091
2015-12-21,0.09,0.09,0.09,0.09,000,0.09
2015-12-18,0.09,0.09,0.09,0.09,7900,0.09
2015-12-17,0.09,0.09,0.09,0.09,000,0.09
2015-12-16,0.094,0.094,0.09,0.09,100400,0.09
2015-12-15,0.098,0.099,0.095,0.099,356700,0.099
2015-12-14,0.097,0.097,0.097,0.097,000,0.097
2015-12-11,0.097,0.097,0.097,0.097,94700,0.097
2015-12-10,0.095,0.095,0.092,0.095,417600,0.095
2015-12-09,0.094,0.094,0.094,0.094,000,0.094
2015-12-08,0.094,0.094,0.094,0.094,21200,0.094
2015-12-07,0.094,0.094,0.094,0.094,000,0.094
2015-12-04,0.094,0.094,0.094,0.094,000,0.094
2015-12-03,0.094,0.094,0.094,0.094,000,0.094
2015-12-02,0.094,0.094,0.094,0.094,101600,0.094
2015-12-01,0.097,0.097,0.094,0.094,15000,0.094
2015-11-30,0.092,0.092,0.092,0.092,000,0.092
2015-11-27,0.092,0.092,0.092,0.092,000,0.092
2015-11-26,0.092,0.092,0.092,0.092,000,0.092
2015-11-25,0.093,0.093,0.092,0.092,31200,0.092
2015-11-24,0.105,0.105,0.10,0.105,207600,0.105
2015-11-23,0.115,0.115,0.105,0.105,306100,0.105
2015-11-20,0.11,0.12,0.11,0.11,298900,0.11
2015-11-19,0.096,0.105,0.096,0.105,306900,0.105
2015-11-18,0.095,0.096,0.095,0.096,323500,0.096
2015-11-17,0.085,0.085,0.085,0.085,000,0.085
2015-11-16,0.09,0.09,0.085,0.085,551400,0.085
2015-11-13,0.086,0.086,0.086,0.086,10800,0.086
2015-11-12,0.085,0.085,0.085,0.085,000,0.085
2015-11-11,0.085,0.085,0.085,0.085,15000,0.085
2015-11-10,0.089,0.089,0.089,0.089,300,0.089
2015-11-09,0.09,0.09,0.09,0.09,22200,0.09
2015-11-06,0.089,0.089,0.089,0.089,000,0.089
2015-11-05,0.089,0.089,0.089,0.089,000,0.089
2015-11-04,0.089,0.089,0.089,0.089,000,0.089
2015-11-03,0.089,0.09,0.089,0.089,82300,0.089
2015-11-02,0.089,0.089,0.089,0.089,000,0.089
2015-10-30,0.096,0.096,0.089,0.089,164000,0.089
2015-10-29,0.092,0.092,0.092,0.092,000,0.092
2015-10-28,0.095,0.095,0.092,0.092,150000,0.092
2015-10-27,0.095,0.10,0.095,0.10,30000,0.10
2015-10-26,0.10,0.10,0.10,0.10,30600,0.10
2015-10-23,0.10,0.10,0.10,0.10,000,0.10
2015-10-22,0.10,0.10,0.10,0.10,69300,0.10
2015-10-21,0.10,0.10,0.09,0.09,22400,0.09
2015-10-20,0.11,0.11,0.11,0.11,000,0.11
2015-10-19,0.105,0.11,0.105,0.11,223800,0.11
2015-10-16,0.10,0.12,0.10,0.12,30800,0.12
2015-10-15,0.105,0.105,0.10,0.10,71800,0.10
2015-10-14,0.11,0.11,0.10,0.10,193000,0.10
2015-10-13,0.13,0.13,0.13,0.13,000,0.13
2015-10-12,0.13,0.13,0.13,0.13,79700,0.13
2015-10-09,0.125,0.125,0.125,0.125,000,0.125
2015-10-08,0.125,0.125,0.125,0.125,9800,0.125
2015-10-07,0.10,0.10,0.10,0.10,000,0.10
2015-10-06,0.135,0.135,0.10,0.10,377100,0.10
2015-10-05,0.11,0.11,0.11,0.11,000,0.11
2015-10-02,0.11,0.11,0.11,0.11,100000,0.11
2015-10-01,0.11,0.11,0.11,0.11,3700,0.11
2015-09-30,0.11,0.11,0.11,0.11,000,0.11
2015-09-29,0.11,0.11,0.11,0.11,000,0.11
2015-09-28,0.11,0.11,0.11,0.11,7100,0.11
2015-09-25,0.12,0.12,0.11,0.11,150000,0.11
2015-09-24,0.105,0.105,0.105,0.105,000,0.105
2015-09-23,0.13,0.13,0.105,0.105,36000,0.105
2015-09-22,0.135,0.135,0.13,0.13,102500,0.13
2015-09-21,0.14,0.14,0.14,0.14,82400,0.14
2015-09-18,0.14,0.14,0.13,0.14,189600,0.14
2015-09-17,0.15,0.15,0.14,0.14,261400,0.14
2015-09-16,0.14,0.14,0.14,0.14,18500,0.14
2015-09-15,0.10,0.12,0.10,0.12,103300,0.12
2015-09-14,0.10,0.10,0.10,0.10,000,0.10
2015-09-11,0.10,0.10,0.10,0.10,168800,0.10
2015-09-10,0.10,0.10,0.10,0.10,000,0.10
2015-09-09,0.11,0.11,0.10,0.10,216500,0.10
2015-09-08,0.10,0.10,0.10,0.10,000,0.10
2015-09-07,0.10,0.10,0.10,0.10,000,0.10
2015-09-04,0.10,0.10,0.10,0.10,000,0.10
2015-09-03,0.10,0.10,0.10,0.10,000,0.10
2015-09-02,0.10,0.10,0.10,0.10,31200,0.10
2015-09-01,0.105,0.105,0.10,0.10,77500,0.10
2015-08-31,0.11,0.11,0.11,0.11,23700,0.11
2015-08-28,0.11,0.11,0.11,0.11,000,0.11
2015-08-27,0.11,0.11,0.11,0.11,10000,0.11
2015-08-26,0.11,0.11,0.11,0.11,000,0.11
2015-08-25,0.11,0.11,0.11,0.11,246200,0.11
2015-08-24,0.11,0.12,0.11,0.12,109800,0.12
2015-08-21,0.12,0.12,0.11,0.11,116200,0.11
2015-08-20,0.12,0.12,0.12,0.12,596200,0.12
2015-08-19,0.135,0.135,0.115,0.115,188300,0.115
2015-08-18,0.12,0.12,0.12,0.12,000,0.12
2015-08-17,0.12,0.12,0.12,0.12,000,0.12
2015-08-14,0.125,0.125,0.12,0.12,70000,0.12
2015-08-13,0.14,0.14,0.14,0.14,000,0.14
2015-08-12,0.14,0.14,0.14,0.14,000,0.14
2015-08-11,0.13,0.14,0.125,0.14,96200,0.14
2015-08-10,0.125,0.125,0.125,0.125,000,0.125
2015-08-07,0.13,0.13,0.125,0.125,10200,0.125
2015-08-06,0.14,0.14,0.14,0.14,3900,0.14
2015-08-05,0.135,0.135,0.135,0.135,65000,0.135
2015-08-04,0.13,0.13,0.13,0.13,53100,0.13
2015-08-03,0.135,0.135,0.12,0.125,229000,0.125
2015-07-31,0.16,0.16,0.16,0.16,000,0.16
2015-07-30,0.16,0.16,0.16,0.16,000,0.16
2015-07-29,0.16,0.16,0.16,0.16,000,0.16
2015-07-28,0.155,0.16,0.15,0.16,85300,0.16
2015-07-27,0.155,0.155,0.155,0.155,10000,0.155
2015-07-24,0.145,0.145,0.145,0.145,000,0.145
2015-07-23,0.145,0.145,0.145,0.145,000,0.145
2015-07-22,0.145,0.145,0.145,0.145,30000,0.145
2015-07-21,0.15,0.15,0.15,0.15,000,0.15
2015-07-20,0.15,0.15,0.15,0.15,000,0.15
2015-07-17,0.15,0.15,0.15,0.15,4200,0.15
2015-07-16,0.14,0.14,0.135,0.135,37300,0.135
2015-07-15,0.14,0.14,0.14,0.14,17600,0.14
2015-07-14,0.15,0.15,0.15,0.15,000,0.15
2015-07-13,0.16,0.16,0.15,0.15,29400,0.15
2015-07-10,0.14,0.14,0.14,0.14,000,0.14
2015-07-09,0.14,0.14,0.14,0.14,60000,0.14
2015-07-08,0.15,0.155,0.14,0.14,76000,0.14
2015-07-07,0.165,0.165,0.165,0.165,000,0.165
2015-07-06,0.165,0.165,0.165,0.165,1000,0.165
2015-07-03,0.135,0.135,0.135,0.135,000,0.135
2015-07-02,0.145,0.165,0.135,0.135,97200,0.135
2015-07-01,0.12,0.12,0.12,0.12,000,0.12
2015-06-30,0.125,0.125,0.12,0.12,115000,0.12
2015-06-29,0.155,0.155,0.155,0.155,000,0.155
2015-06-26,0.155,0.155,0.155,0.155,000,0.155
2015-06-25,0.155,0.155,0.155,0.155,000,0.155
2015-06-24,0.155,0.155,0.155,0.155,000,0.155
2015-06-23,0.155,0.155,0.155,0.155,55900,0.155
2015-06-22,0.16,0.16,0.15,0.155,118600,0.155
2015-06-19,0.16,0.16,0.15,0.15,30000,0.15
2015-06-18,0.16,0.16,0.16,0.16,45300,0.16
2015-06-17,0.16,0.16,0.16,0.16,60000,0.16
2015-06-16,0.16,0.16,0.16,0.16,44600,0.16
2015-06-15,0.165,0.165,0.16,0.16,26200,0.16
2015-06-12,0.16,0.16,0.16,0.16,1300,0.16
2015-06-11,0.155,0.155,0.15,0.15,20000,0.15
2015-06-10,0.15,0.15,0.15,0.15,23100,0.15
2015-06-09,0.15,0.15,0.15,0.15,000,0.15
2015-06-08,0.15,0.15,0.15,0.15,000,0.15
2015-06-05,0.16,0.165,0.15,0.15,222500,0.15
2015-06-04,0.165,0.165,0.16,0.16,13100,0.16
2015-06-03,0.16,0.16,0.16,0.16,131100,0.16
2015-06-02,0.16,0.16,0.16,0.16,24700,0.16
2015-06-01,0.17,0.17,0.17,0.17,000,0.17
2015-05-29,0.17,0.17,0.17,0.17,50000,0.17
2015-05-28,0.165,0.165,0.165,0.165,4300,0.165
2015-05-27,0.16,0.175,0.16,0.175,379900,0.175
2015-05-26,0.18,0.18,0.16,0.16,134900,0.16
2015-05-25,0.18,0.18,0.18,0.18,10000,0.18
2015-05-22,0.19,0.195,0.19,0.19,53000,0.19
2015-05-21,0.18,0.185,0.18,0.185,128000,0.185
2015-05-20,0.185,0.185,0.185,0.185,6900,0.185
2015-05-19,0.19,0.19,0.185,0.19,79700,0.19
2015-05-18,0.195,0.195,0.19,0.19,79900,0.19
2015-05-15,0.19,0.195,0.18,0.195,875300,0.195
2015-05-14,0.18,0.19,0.18,0.19,491600,0.19
2015-05-13,0.18,0.19,0.17,0.18,660500,0.18
2015-05-12,0.18,0.18,0.18,0.18,168000,0.18
2015-05-11,0.19,0.19,0.185,0.185,471600,0.185
2015-05-08,0.18,0.18,0.175,0.18,187600,0.18
2015-05-07,0.18,0.185,0.18,0.18,106100,0.18
2015-05-06,0.20,0.20,0.19,0.19,200000,0.19
2015-05-05,0.20,0.205,0.20,0.20,1468900,0.20
2015-05-04,0.185,0.21,0.18,0.195,592700,0.195
2015-05-01,0.175,0.185,0.175,0.185,202800,0.185
2015-04-30,0.17,0.175,0.17,0.175,559800,0.175
2015-04-29,0.17,0.175,0.17,0.175,1773700,0.175
2015-04-28,0.175,0.175,0.17,0.17,79900,0.17
2015-04-27,0.17,0.17,0.17,0.17,811600,0.17
2015-04-24,0.17,0.17,0.17,0.17,18300,0.17
2015-04-23,0.175,0.18,0.175,0.175,73000,0.175
2015-04-22,0.17,0.175,0.17,0.175,155000,0.175
2015-04-21,0.17,0.175,0.17,0.175,136500,0.175
2015-04-20,0.175,0.175,0.175,0.175,000,0.175
2015-04-17,0.17,0.175,0.17,0.175,100000,0.175
2015-04-16,0.16,0.17,0.16,0.17,208800,0.17
2015-04-15,0.17,0.17,0.17,0.17,000,0.17
2015-04-14,0.15,0.17,0.15,0.17,97600,0.17
2015-04-13,0.15,0.16,0.15,0.16,92900,0.16
2015-04-10,0.15,0.15,0.15,0.15,107900,0.15
2015-04-09,0.145,0.15,0.145,0.145,220000,0.145
2015-04-08,0.14,0.145,0.14,0.145,223500,0.145
2015-04-07,0.13,0.14,0.13,0.14,403200,0.14
2015-04-06,0.125,0.125,0.125,0.125,000,0.125
2015-04-03,0.125,0.125,0.125,0.125,000,0.125
2015-04-02,0.125,0.125,0.125,0.125,000,0.125
2015-04-01,0.125,0.125,0.125,0.125,000,0.125
2015-03-31,0.135,0.135,0.125,0.125,69000,0.125
2015-03-30,0.135,0.135,0.135,0.135,000,0.135
2015-03-27,0.135,0.135,0.135,0.135,50600,0.135
2015-03-26,0.135,0.135,0.135,0.135,18700,0.135
2015-03-25,0.13,0.13,0.13,0.13,000,0.13
2015-03-24,0.13,0.13,0.13,0.13,000,0.13
2015-03-23,0.13,0.13,0.13,0.13,17700,0.13
2015-03-20,0.14,0.145,0.125,0.125,273400,0.125
2015-03-19,0.14,0.14,0.14,0.14,000,0.14
2015-03-18,0.14,0.14,0.14,0.14,10000,0.14
2015-03-17,0.135,0.135,0.135,0.135,000,0.135
2015-03-16,0.135,0.135,0.135,0.135,000,0.135
2015-03-13,0.135,0.135,0.135,0.135,000,0.135
2015-03-12,0.135,0.135,0.135,0.135,000,0.135
2015-03-11,0.135,0.135,0.135,0.135,000,0.135
2015-03-10,0.135,0.135,0.135,0.135,000,0.135
2015-03-09,0.135,0.135,0.135,0.135,000,0.135
2015-03-06,0.135,0.135,0.135,0.135,000,0.135
2015-03-05,0.135,0.135,0.135,0.135,000,0.135
2015-03-04,0.135,0.135,0.135,0.135,000,0.135
2015-03-03,0.135,0.135,0.135,0.135,7200,0.135
2015-03-02,0.13,0.135,0.13,0.135,6400,0.135
2015-02-27,0.14,0.14,0.13,0.13,19100,0.13
2015-02-26,0.14,0.14,0.135,0.14,123000,0.14
2015-02-25,0.14,0.145,0.14,0.145,109400,0.145
2015-02-24,0.14,0.14,0.14,0.14,000,0.14
2015-02-23,0.14,0.14,0.14,0.14,000,0.14
2015-02-20,0.135,0.14,0.135,0.14,36400,0.14
2015-02-19,0.135,0.145,0.13,0.145,298600,0.145
2015-02-18,0.11,0.11,0.11,0.11,000,0.11
2015-02-17,0.11,0.11,0.11,0.11,5000,0.11
2015-02-16,0.115,0.115,0.10,0.11,168100,0.11
2015-02-13,0.13,0.135,0.115,0.135,349200,0.135
2015-02-12,0.15,0.15,0.15,0.15,000,0.15
2015-02-11,0.15,0.15,0.15,0.15,10000,0.15
2015-02-10,0.14,0.14,0.14,0.14,000,0.14
2015-02-09,0.125,0.14,0.125,0.14,44200,0.14
2015-02-06,0.135,0.135,0.13,0.13,29200,0.13
2015-02-05,0.14,0.14,0.14,0.14,10000,0.14
2015-02-04,0.13,0.14,0.13,0.14,111200,0.14
2015-02-03,0.13,0.13,0.13,0.13,000,0.13
2015-02-02,0.13,0.13,0.13,0.13,24700,0.13
2015-01-30,0.13,0.13,0.13,0.13,5600,0.13
2015-01-29,0.135,0.135,0.135,0.135,17200,0.135
2015-01-28,0.135,0.135,0.135,0.135,67700,0.135
2015-01-27,0.12,0.12,0.12,0.12,78400,0.12
2015-01-26,0.135,0.135,0.135,0.135,000,0.135
2015-01-23,0.135,0.135,0.135,0.135,000,0.135
2015-01-22,0.135,0.135,0.135,0.135,000,0.135
2015-01-21,0.135,0.135,0.135,0.135,000,0.135
2015-01-20,0.135,0.135,0.135,0.135,000,0.135
2015-01-19,0.135,0.135,0.135,0.135,21500,0.135
2015-01-16,0.13,0.13,0.13,0.13,61800,0.13
2015-01-15,0.135,0.135,0.135,0.135,000,0.135
2015-01-14,0.135,0.135,0.135,0.135,000,0.135
2015-01-13,0.145,0.145,0.135,0.135,71000,0.135
2015-01-12,0.145,0.145,0.145,0.145,100000,0.145
2015-01-09,0.145,0.145,0.145,0.145,000,0.145
2015-01-08,0.145,0.145,0.145,0.145,100000,0.145
2015-01-07,0.135,0.135,0.135,0.135,000,0.135
2015-01-06,0.135,0.135,0.135,0.135,000,0.135
2015-01-05,0.135,0.135,0.135,0.135,000,0.135
2015-01-02,0.135,0.135,0.135,0.135,21000,0.135
2015-01-01,0.145,0.145,0.145,0.145,000,0.145
2014-12-31,0.145,0.145,0.145,0.145,000,0.145
2014-12-30,0.145,0.145,0.145,0.145,3000,0.145
2014-12-29,0.135,0.145,0.135,0.145,204000,0.145
2014-12-26,0.14,0.14,0.14,0.14,000,0.14
2014-12-25,0.14,0.14,0.14,0.14,000,0.14
2014-12-24,0.145,0.145,0.14,0.14,161900,0.14
2014-12-23,0.14,0.14,0.14,0.14,50000,0.14
2014-12-22,0.145,0.145,0.14,0.14,25900,0.14
2014-12-19,0.15,0.15,0.14,0.14,155900,0.14
2014-12-18,0.145,0.155,0.145,0.145,452200,0.145
2014-12-17,0.135,0.135,0.135,0.135,000,0.135
2014-12-16,0.135,0.135,0.13,0.135,64000,0.135
2014-12-15,0.13,0.13,0.13,0.13,26000,0.13
2014-12-12,0.13,0.13,0.13,0.13,32900,0.13
2014-12-11,0.135,0.135,0.135,0.135,000,0.135
2014-12-10,0.135,0.135,0.135,0.135,54000,0.135
2014-12-09,0.145,0.145,0.135,0.135,119000,0.135
2014-12-08,0.15,0.15,0.145,0.145,80000,0.145
2014-12-05,0.17,0.17,0.145,0.15,349700,0.15
2014-12-04,0.145,0.185,0.145,0.175,879400,0.175
2014-12-03,0.145,0.17,0.145,0.16,162300,0.16
2014-12-02,0.14,0.15,0.14,0.15,40000,0.15
2014-12-01,0.14,0.14,0.14,0.14,000,0.14
2014-11-28,0.14,0.14,0.14,0.14,10000,0.14
2014-11-27,0.15,0.15,0.15,0.15,71500,0.15
2014-11-26,0.14,0.14,0.14,0.14,20000,0.14
2014-11-25,0.14,0.14,0.14,0.14,78400,0.14
2014-11-24,0.14,0.14,0.14,0.14,000,0.14
2014-11-21,0.14,0.14,0.14,0.14,000,0.14
2014-11-20,0.14,0.14,0.14,0.14,3900,0.14
2014-11-19,0.145,0.145,0.145,0.145,6500,0.145
2014-11-18,0.145,0.145,0.145,0.145,000,0.145
2014-11-17,0.145,0.145,0.145,0.145,000,0.145
2014-11-14,0.145,0.145,0.145,0.145,14000,0.145
2014-11-13,0.14,0.15,0.14,0.15,10900,0.15
2014-11-12,0.14,0.14,0.14,0.14,000,0.14
2014-11-11,0.14,0.14,0.14,0.14,000,0.14
2014-11-10,0.14,0.14,0.14,0.14,4900,0.14
2014-11-07,0.15,0.15,0.15,0.15,000,0.15
2014-11-06,0.15,0.15,0.15,0.15,000,0.15
2014-11-05,0.15,0.15,0.145,0.15,196000,0.15
2014-11-04,0.15,0.16,0.15,0.15,165000,0.15
2014-11-03,0.145,0.15,0.145,0.15,47000,0.15
2014-10-31,0.14,0.14,0.14,0.14,000,0.14
2014-10-30,0.14,0.14,0.14,0.14,20000,0.14
2014-10-29,0.145,0.145,0.145,0.145,000,0.145
2014-10-28,0.14,0.145,0.14,0.145,87800,0.145
2014-10-27,0.14,0.14,0.135,0.135,55900,0.135
2014-10-24,0.14,0.145,0.14,0.145,140000,0.145
2014-10-23,0.14,0.14,0.14,0.14,60000,0.14
2014-10-22,0.135,0.135,0.135,0.135,41000,0.135
2014-10-21,0.125,0.125,0.125,0.125,000,0.125
2014-10-20,0.125,0.14,0.125,0.125,195900,0.125
2014-10-17,0.11,0.11,0.11,0.11,000,0.11
2014-10-16,0.11,0.11,0.11,0.11,000,0.11
2014-10-15,0.11,0.11,0.11,0.11,000,0.11
2014-10-14,0.11,0.11,0.11,0.11,000,0.11
2014-10-13,0.11,0.11,0.11,0.11,000,0.11
2014-10-10,0.11,0.11,0.11,0.11,000,0.11
2014-10-09,0.11,0.11,0.11,0.11,000,0.11
2014-10-08,0.11,0.11,0.11,0.11,000,0.11
2014-10-07,0.11,0.11,0.11,0.11,65300,0.11
2014-10-06,0.12,0.12,0.12,0.12,1300,0.12
2014-10-03,0.12,0.12,0.12,0.12,000,0.12
2014-10-02,0.125,0.125,0.11,0.12,547300,0.12
2014-10-01,0.125,0.125,0.125,0.125,000,0.125
2014-09-30,0.125,0.125,0.125,0.125,10000,0.125
2014-09-29,0.14,0.14,0.14,0.14,000,0.14
2014-09-26,0.14,0.14,0.14,0.14,000,0.14
2014-09-25,0.14,0.14,0.14,0.14,000,0.14
2014-09-24,0.14,0.14,0.14,0.14,000,0.14
2014-09-23,0.14,0.14,0.14,0.14,000,0.14
2014-09-22,0.14,0.14,0.14,0.14,000,0.14
2014-09-19,0.14,0.14,0.14,0.14,000,0.14
2014-09-18,0.14,0.14,0.14,0.14,10000,0.14
2014-09-17,0.13,0.13,0.13,0.13,000,0.13
2014-09-16,0.13,0.13,0.13,0.13,58900,0.13
2014-09-15,0.13,0.13,0.13,0.13,150000,0.13
2014-09-12,0.115,0.13,0.115,0.13,15000,0.13
2014-09-11,0.10,0.10,0.10,0.10,000,0.10
2014-09-10,0.12,0.12,0.10,0.10,200000,0.10
2014-09-09,0.13,0.13,0.125,0.125,50000,0.125
2014-09-08,0.145,0.145,0.14,0.14,91600,0.14
2014-09-05,0.13,0.13,0.12,0.12,27700,0.12
2014-09-04,0.14,0.145,0.14,0.145,51900,0.145
2014-09-03,0.135,0.15,0.135,0.15,107000,0.15
2014-09-02,0.14,0.14,0.14,0.14,000,0.14
2014-09-01,0.135,0.14,0.135,0.14,146000,0.14
2014-08-29,0.125,0.13,0.125,0.13,88300,0.13
2014-08-28,0.115,0.12,0.115,0.12,30000,0.12
2014-08-27,0.125,0.125,0.11,0.115,322300,0.115
2014-08-26,0.125,0.13,0.125,0.13,124000,0.13
2014-08-25,0.12,0.13,0.105,0.13,236000,0.13
2014-08-22,0.14,0.14,0.14,0.14,000,0.14
2014-08-21,0.14,0.14,0.14,0.14,20000,0.14
2014-08-20,0.14,0.14,0.14,0.14,000,0.14
2014-08-19,0.14,0.14,0.14,0.14,000,0.14
2014-08-18,0.14,0.14,0.14,0.14,000,0.14
2014-08-15,0.14,0.14,0.14,0.14,000,0.14
2014-08-14,0.14,0.14,0.14,0.14,30000,0.14
2014-08-13,0.145,0.145,0.145,0.145,000,0.145
2014-08-12,0.145,0.145,0.145,0.145,150000,0.145
2014-08-11,0.14,0.14,0.14,0.14,000,0.14
2014-08-08,0.14,0.14,0.14,0.14,50000,0.14
2014-08-07,0.15,0.15,0.15,0.15,000,0.15
2014-08-06,0.15,0.15,0.15,0.15,000,0.15
2014-08-05,0.15,0.15,0.15,0.15,000,0.15
2014-08-04,0.15,0.15,0.15,0.15,000,0.15
2014-08-01,0.15,0.15,0.15,0.15,110000,0.15
2014-07-31,0.15,0.15,0.15,0.15,000,0.15
2014-07-30,0.15,0.15,0.15,0.15,75000,0.15
2014-07-29,0.17,0.17,0.17,0.17,53000,0.17
2014-07-28,0.155,0.165,0.14,0.165,305500,0.165
2014-07-25,0.155,0.17,0.155,0.16,55100,0.16
2014-07-24,0.16,0.16,0.16,0.16,79700,0.16
2014-07-23,0.15,0.15,0.145,0.145,25200,0.145
2014-07-22,0.145,0.145,0.145,0.145,50000,0.145
2014-07-21,0.185,0.185,0.185,0.185,000,0.185
2014-07-18,0.185,0.185,0.185,0.185,000,0.185
2014-07-17,0.155,0.185,0.155,0.185,200000,0.185
2014-07-16,0.16,0.16,0.155,0.155,232500,0.155
2014-07-15,0.145,0.165,0.145,0.16,400000,0.16
2014-07-14,0.155,0.155,0.155,0.155,20000,0.155
2014-07-11,0.155,0.165,0.15,0.155,78100,0.155
2014-07-10,0.165,0.165,0.16,0.16,121300,0.16
2014-07-09,0.14,0.14,0.14,0.14,237300,0.14
2014-07-08,0.15,0.17,0.14,0.17,155000,0.17
2014-07-07,0.15,0.15,0.15,0.15,65000,0.15
2014-07-04,0.15,0.15,0.145,0.15,153000,0.15
2014-07-03,0.18,0.18,0.18,0.18,000,0.18
2014-07-02,0.17,0.18,0.16,0.18,140000,0.18
2014-07-01,0.175,0.175,0.175,0.175,000,0.175
2014-06-30,0.16,0.175,0.15,0.175,134000,0.175
2014-06-27,0.16,0.175,0.16,0.175,90200,0.175
2014-06-26,0.175,0.175,0.175,0.175,000,0.175
2014-06-25,0.175,0.175,0.175,0.175,200000,0.175
2014-06-24,0.18,0.18,0.18,0.18,000,0.18
2014-06-23,0.18,0.18,0.18,0.18,32000,0.18
2014-06-20,0.19,0.19,0.185,0.185,15800,0.185
2014-06-19,0.18,0.20,0.18,0.195,461600,0.195
2014-06-18,0.175,0.19,0.17,0.185,343800,0.185
2014-06-17,0.18,0.18,0.18,0.18,000,0.18
2014-06-16,0.17,0.18,0.17,0.18,15000,0.18
2014-06-13,0.16,0.16,0.16,0.16,12100,0.16
2014-06-12,0.14,0.15,0.14,0.14,273800,0.14
2014-06-11,0.17,0.17,0.155,0.155,104700,0.155
2014-06-10,0.18,0.18,0.18,0.18,10000,0.18
2014-06-09,0.19,0.19,0.19,0.19,000,0.19
2014-06-06,0.19,0.19,0.19,0.19,000,0.19
2014-06-05,0.19,0.19,0.19,0.19,000,0.19
2014-06-04,0.19,0.19,0.19,0.19,2800,0.19
2014-06-03,0.17,0.19,0.17,0.19,10000,0.19
2014-06-02,0.18,0.19,0.18,0.19,15000,0.19
2014-05-30,0.19,0.195,0.18,0.18,653400,0.18
2014-05-29,0.18,0.19,0.18,0.185,120000,0.185
2014-05-28,0.16,0.16,0.16,0.16,000,0.16
2014-05-27,0.16,0.16,0.16,0.16,1900,0.16
2014-05-26,0.175,0.19,0.16,0.19,123200,0.19
2014-05-23,0.17,0.17,0.17,0.17,000,0.17
2014-05-22,0.17,0.17,0.17,0.17,000,0.17
2014-05-21,0.175,0.175,0.17,0.17,159100,0.17
2014-05-20,0.18,0.19,0.18,0.19,101300,0.19
2014-05-19,0.175,0.18,0.175,0.18,106600,0.18
2014-05-16,0.17,0.19,0.16,0.18,310000,0.18
2014-05-15,0.15,0.17,0.15,0.17,290000,0.17
2014-05-14,0.15,0.16,0.15,0.16,15000,0.16
2014-05-13,0.15,0.15,0.15,0.15,20000,0.15
2014-05-12,0.16,0.16,0.16,0.16,000,0.16
2014-05-09,0.17,0.17,0.16,0.16,86700,0.16
2014-05-08,0.17,0.17,0.165,0.165,77600,0.165
2014-05-07,0.155,0.165,0.15,0.165,227300,0.165
2014-05-06,0.15,0.155,0.15,0.15,67900,0.15
2014-05-05,0.165,0.18,0.16,0.16,412600,0.16
2014-05-02,0.20,0.20,0.15,0.175,1433500,0.175
2014-05-01,0.225,0.225,0.225,0.225,000,0.225
2014-04-30,0.225,0.225,0.225,0.225,000,0.225
2014-04-29,0.225,0.225,0.225,0.225,000,0.225
2014-04-28,0.225,0.225,0.225,0.225,000,0.225
2014-04-25,0.225,0.225,0.225,0.225,000,0.225
2014-04-24,0.225,0.225,0.225,0.225,000,0.225
2014-04-23,0.225,0.225,0.225,0.225,000,0.225
2014-04-22,0.225,0.225,0.225,0.225,000,0.225
2014-04-21,0.225,0.225,0.225,0.225,000,0.225
2014-04-18,0.225,0.225,0.225,0.225,000,0.225
2014-04-17,0.225,0.225,0.225,0.225,000,0.225
2014-04-16,0.225,0.225,0.225,0.225,000,0.225
2014-04-15,0.225,0.225,0.225,0.225,000,0.225
2014-04-14,0.225,0.225,0.225,0.225,000,0.225
2014-04-11,0.225,0.225,0.225,0.225,000,0.225
2014-04-10,0.225,0.225,0.225,0.225,000,0.225
2014-04-09,0.225,0.225,0.225,0.225,000,0.225
2014-04-08,0.225,0.225,0.225,0.225,000,0.225
2014-04-07,0.225,0.225,0.225,0.225,000,0.225
2014-04-04,0.225,0.225,0.225,0.225,000,0.225
2014-04-03,0.225,0.225,0.225,0.225,000,0.225
2014-04-02,0.225,0.225,0.225,0.225,000,0.225
2014-04-01,0.225,0.225,0.225,0.225,000,0.225
2014-03-31,0.225,0.225,0.225,0.225,000,0.225
2014-03-28,0.225,0.225,0.225,0.225,000,0.225
2014-03-27,0.225,0.225,0.225,0.225,000,0.225
2014-03-26,0.225,0.225,0.225,0.225,000,0.225
2014-03-25,0.225,0.225,0.225,0.225,000,0.225
2014-03-24,0.225,0.225,0.225,0.225,000,0.225
2014-03-21,0.225,0.225,0.225,0.225,000,0.225
2014-03-20,0.225,0.225,0.225,0.225,000,0.225
2014-03-19,0.225,0.225,0.225,0.225,000,0.225
2014-03-18,0.225,0.225,0.225,0.225,000,0.225
2014-03-17,0.015,0.015,0.015,0.015,000,0.225
2014-03-14,0.015,0.015,0.015,0.015,000,0.225
2014-03-13,0.015,0.015,0.015,0.015,104500,0.225
2014-03-12,0.015,0.015,0.015,0.015,26600,0.225
2014-03-11,0.015,0.015,0.015,0.015,62400,0.225
2014-03-10,0.016,0.016,0.015,0.015,88600,0.225
2014-03-07,0.015,0.015,0.015,0.015,4200,0.225
2014-03-06,0.015,0.015,0.015,0.015,000,0.225
2014-03-05,0.015,0.015,0.015,0.015,000,0.225
2014-03-04,0.014,0.015,0.014,0.015,103000,0.225
2014-03-03,0.014,0.014,0.014,0.014,52500,0.21
2014-02-28,0.014,0.014,0.014,0.014,73300,0.21
2014-02-27,0.014,0.014,0.013,0.013,104900,0.195
2014-02-26,0.017,0.017,0.017,0.017,000,0.255
2014-02-25,0.015,0.017,0.015,0.017,28600,0.255
2014-02-24,0.015,0.015,0.015,0.015,53300,0.225
2014-02-21,0.014,0.014,0.014,0.014,2500,0.21
2014-02-20,0.016,0.016,0.015,0.015,68600,0.225
2014-02-19,0.014,0.016,0.014,0.016,159000,0.24
2014-02-18,0.015,0.015,0.014,0.014,44000,0.21
2014-02-17,0.015,0.015,0.015,0.015,66600,0.225
2014-02-14,0.015,0.015,0.015,0.015,15400,0.225
2014-02-13,0.017,0.017,0.017,0.017,000,0.255
2014-02-12,0.016,0.018,0.016,0.017,175000,0.255
2014-02-11,0.017,0.017,0.016,0.016,8800,0.24
2014-02-10,0.016,0.017,0.016,0.017,93300,0.255
2014-02-07,0.015,0.015,0.015,0.015,181100,0.225
2014-02-06,0.013,0.015,0.013,0.015,110700,0.225
2014-02-05,0.014,0.014,0.013,0.013,27300,0.195
2014-02-04,0.015,0.015,0.013,0.013,28500,0.195
2014-02-03,0.014,0.014,0.014,0.014,000,0.21
2014-01-31,0.014,0.014,0.014,0.014,000,0.21
2014-01-30,0.014,0.014,0.014,0.014,000,0.21
2014-01-29,0.014,0.014,0.014,0.014,000,0.21
2014-01-28,0.014,0.014,0.014,0.014,6600,0.21
2014-01-27,0.013,0.013,0.013,0.013,000,0.195
2014-01-24,0.011,0.013,0.011,0.013,8600,0.195
2014-01-23,0.013,0.013,0.011,0.011,13300,0.165
2014-01-22,0.013,0.013,0.012,0.013,20000,0.195
2014-01-21,0.014,0.014,0.011,0.011,99000,0.165
2014-01-20,0.015,0.015,0.015,0.015,32600,0.225
2014-01-17,0.017,0.017,0.016,0.016,211200,0.24
2014-01-16,0.017,0.017,0.017,0.017,000,0.255
2014-01-15,0.016,0.017,0.016,0.017,30100,0.255
2014-01-14,0.017,0.017,0.017,0.017,000,0.255
2014-01-13,0.017,0.017,0.017,0.017,000,0.255
2014-01-10,0.018,0.018,0.017,0.017,19900,0.255
2014-01-09,0.017,0.017,0.017,0.017,103300,0.255
2014-01-08,0.015,0.017,0.015,0.017,9300,0.255
2014-01-07,0.015,0.017,0.015,0.016,94600,0.24
2014-01-06,0.015,0.015,0.015,0.015,000,0.225
2014-01-03,0.016,0.016,0.015,0.015,96700,0.225
2014-01-02,0.017,0.017,0.017,0.017,000,0.255
2014-01-01,0.017,0.017,0.017,0.017,000,0.255
2013-12-31,0.016,0.017,0.016,0.017,79000,0.255
2013-12-30,0.016,0.017,0.016,0.016,128700,0.24
2013-12-27,0.018,0.018,0.016,0.016,36800,0.24
2013-12-26,0.018,0.018,0.018,0.018,000,0.27
2013-12-25,0.018,0.018,0.018,0.018,000,0.27
2013-12-24,0.018,0.02,0.018,0.018,823100,0.27
2013-12-23,0.018,0.018,0.018,0.018,000,0.27
2013-12-20,0.019,0.019,0.018,0.018,86200,0.27
2013-12-19,0.019,0.019,0.018,0.019,97900,0.285
2013-12-18,0.018,0.019,0.015,0.019,392800,0.285
2013-12-17,0.019,0.019,0.018,0.018,168600,0.27
2013-12-16,0.017,0.018,0.017,0.018,100700,0.27
2013-12-13,0.019,0.019,0.015,0.017,296400,0.255
2013-12-12,0.022,0.022,0.018,0.019,308100,0.285
2013-12-11,0.02,0.024,0.02,0.021,1308000,0.315
2013-12-10,0.019,0.02,0.018,0.02,423900,0.30
2013-12-09,0.023,0.025,0.019,0.019,1075100,0.285
2013-12-06,0.021,0.024,0.02,0.023,1374200,0.345
2013-12-05,0.018,0.021,0.018,0.02,1446700,0.30
2013-12-04,0.016,0.018,0.015,0.018,1156900,0.27
2013-12-03,0.017,0.022,0.015,0.015,2188100,0.225
2013-12-02,0.012,0.016,0.012,0.016,709000,0.24
2013-11-29,0.01,0.013,0.01,0.011,1147400,0.165
2013-11-28,0.01,0.014,0.01,0.011,1566100,0.165
2013-11-27,0.007,0.007,0.007,0.007,000,0.105
2013-11-26,0.007,0.007,0.007,0.007,000,0.105
2013-11-25,0.008,0.008,0.007,0.007,46600,0.105
2013-11-22,0.008,0.008,0.008,0.008,10000,0.12
2013-11-21,0.007,0.007,0.007,0.007,6600,0.105
2013-11-20,0.009,0.009,0.009,0.009,58100,0.135
2013-11-19,0.007,0.007,0.007,0.007,6600,0.105
2013-11-18,0.008,0.008,0.007,0.007,33300,0.105
2013-11-15,0.007,0.007,0.007,0.007,23300,0.105
2013-11-14,0.008,0.008,0.008,0.008,000,0.12
2013-11-13,0.008,0.008,0.008,0.008,000,0.12
2013-11-12,0.008,0.008,0.008,0.008,000,0.12
2013-11-11,0.008,0.008,0.008,0.008,4600,0.12
2013-11-08,0.008,0.008,0.008,0.008,38900,0.12
2013-11-07,0.008,0.008,0.008,0.008,5500,0.12
2013-11-06,0.008,0.008,0.008,0.008,3200,0.12
2013-11-05,0.008,0.008,0.008,0.008,30000,0.12
2013-11-04,0.009,0.009,0.009,0.009,000,0.135
2013-11-01,0.009,0.009,0.009,0.009,33500,0.135
2013-10-31,0.007,0.007,0.007,0.007,000,0.105
2013-10-30,0.007,0.007,0.007,0.007,79800,0.105
2013-10-29,0.008,0.008,0.007,0.007,40200,0.105
2013-10-28,0.007,0.008,0.007,0.008,86400,0.12
2013-10-25,0.008,0.008,0.008,0.008,000,0.12
2013-10-24,0.008,0.008,0.008,0.008,25300,0.12
2013-10-23,0.009,0.009,0.006,0.007,129700,0.105
2013-10-22,0.011,0.012,0.009,0.009,180100,0.135
2013-10-21,0.008,0.013,0.008,0.011,551700,0.165
2013-10-18,0.008,0.008,0.007,0.008,136500,0.12
2013-10-17,0.006,0.01,0.006,0.008,488100,0.12
2013-10-16,0.005,0.005,0.005,0.005,33300,0.075
2013-10-15,0.003,0.003,0.003,0.003,000,0.045
2013-10-14,0.003,0.003,0.003,0.003,000,0.045
2013-10-11,0.003,0.003,0.003,0.003,000,0.045
2013-10-10,0.003,0.003,0.003,0.003,000,0.045
2013-10-09,0.003,0.003,0.003,0.003,000,0.045
2013-10-08,0.003,0.003,0.003,0.003,000,0.045
2013-10-07,0.003,0.003,0.003,0.003,000,0.045
2013-10-04,0.003,0.003,0.003,0.003,000,0.045
2013-10-03,0.003,0.003,0.003,0.003,000,0.045
2013-10-02,0.003,0.003,0.003,0.003,3300,0.045
2013-10-01,0.002,0.002,0.002,0.002,000,0.03
2013-09-30,0.002,0.002,0.002,0.002,000,0.03
2013-09-27,0.002,0.002,0.002,0.002,000,0.03
2013-09-26,0.002,0.002,0.002,0.002,000,0.03
2013-09-25,0.002,0.002,0.002,0.002,000,0.03
2013-09-24,0.002,0.002,0.002,0.002,000,0.03
2013-09-23,0.002,0.002,0.002,0.002,000,0.03
2013-09-20,0.002,0.002,0.002,0.002,000,0.03
2013-09-19,0.002,0.002,0.002,0.002,000,0.03
2013-09-18,0.002,0.002,0.002,0.002,000,0.03
2013-09-17,0.002,0.002,0.002,0.002,1300,0.03
2013-09-16,0.003,0.003,0.003,0.003,000,0.045
2013-09-13,0.003,0.003,0.003,0.003,000,0.045
2013-09-12,0.003,0.003,0.003,0.003,000,0.045
2013-09-11,0.003,0.003,0.003,0.003,000,0.045
2013-09-10,0.003,0.003,0.003,0.003,000,0.045
2013-09-09,0.003,0.003,0.003,0.003,000,0.045
2013-09-06,0.003,0.003,0.003,0.003,000,0.045
2013-09-05,0.003,0.003,0.003,0.003,000,0.045
2013-09-04,0.003,0.003,0.003,0.003,000,0.045
2013-09-03,0.003,0.003,0.003,0.003,000,0.045
2013-09-02,0.003,0.003,0.003,0.003,000,0.045
2013-08-30,0.003,0.003,0.003,0.003,000,0.045
2013-08-29,0.003,0.003,0.003,0.003,000,0.045
2013-08-28,0.003,0.003,0.003,0.003,000,0.045
2013-08-27,0.003,0.003,0.003,0.003,000,0.045
2013-08-26,0.003,0.003,0.003,0.003,3600,0.045
2013-08-23,0.004,0.004,0.004,0.004,000,0.06
2013-08-22,0.004,0.004,0.004,0.004,000,0.06
2013-08-21,0.004,0.004,0.004,0.004,3000,0.06
2013-08-20,0.004,0.004,0.004,0.004,000,0.06
2013-08-19,0.004,0.004,0.004,0.004,000,0.06
2013-08-16,0.004,0.004,0.004,0.004,000,0.06
2013-08-15,0.004,0.004,0.004,0.004,000,0.06
2013-08-14,0.004,0.004,0.004,0.004,000,0.06
2013-08-13,0.004,0.004,0.004,0.004,000,0.06
2013-08-12,0.004,0.004,0.004,0.004,19100,0.06
2013-08-09,0.004,0.004,0.004,0.004,000,0.06
2013-08-08,0.004,0.004,0.004,0.004,000,0.06
2013-08-07,0.004,0.004,0.004,0.004,46600,0.06
2013-08-06,0.004,0.004,0.004,0.004,000,0.06
2013-08-05,0.004,0.004,0.004,0.004,000,0.06
2013-08-02,0.004,0.004,0.004,0.004,000,0.06
2013-08-01,0.004,0.004,0.004,0.004,000,0.06
2013-07-31,0.004,0.004,0.004,0.004,000,0.06
2013-07-30,0.004,0.004,0.004,0.004,000,0.06
2013-07-29,0.004,0.004,0.004,0.004,000,0.06
2013-07-26,0.004,0.004,0.004,0.004,000,0.06
2013-07-25,0.004,0.004,0.004,0.004,000,0.06
2013-07-24,0.004,0.004,0.004,0.004,000,0.06
2013-07-23,0.004,0.004,0.004,0.004,000,0.06
2013-07-22,0.004,0.004,0.004,0.004,000,0.06
2013-07-19,0.004,0.004,0.004,0.004,000,0.06
2013-07-18,0.004,0.004,0.004,0.004,000,0.06
2013-07-17,0.004,0.004,0.004,0.004,000,0.06
2013-07-16,0.004,0.004,0.004,0.004,000,0.06
2013-07-15,0.004,0.004,0.004,0.004,000,0.06
2013-07-12,0.004,0.004,0.004,0.004,000,0.06
2013-07-11,0.004,0.004,0.004,0.004,44400,0.06
2013-07-10,0.003,0.003,0.003,0.003,000,0.045
2013-07-09,0.003,0.003,0.003,0.003,000,0.045
2013-07-08,0.003,0.003,0.003,0.003,000,0.045
2013-07-05,0.003,0.003,0.003,0.003,000,0.045
2013-07-04,0.003,0.003,0.003,0.003,000,0.045
2013-07-03,0.003,0.003,0.003,0.003,000,0.045
2013-07-02,0.003,0.003,0.003,0.003,000,0.045
2013-07-01,0.003,0.003,0.003,0.003,800,0.045
2013-06-28,0.003,0.003,0.003,0.003,000,0.045
2013-06-27,0.003,0.003,0.003,0.003,13300,0.045
2013-06-26,0.003,0.003,0.003,0.003,35000,0.045
2013-06-25,0.002,0.002,0.002,0.002,000,0.03
2013-06-24,0.003,0.003,0.002,0.002,140400,0.03
2013-06-21,0.003,0.003,0.003,0.003,1600,0.045
2013-06-20,0.004,0.004,0.004,0.004,000,0.06
2013-06-19,0.004,0.004,0.004,0.004,000,0.06
2013-06-18,0.004,0.004,0.004,0.004,000,0.06
2013-06-17,0.004,0.004,0.004,0.004,33300,0.06
2013-06-14,0.004,0.004,0.004,0.004,000,0.06
2013-06-13,0.004,0.004,0.004,0.004,000,0.06
2013-06-12,0.004,0.004,0.004,0.004,000,0.06
2013-06-11,0.004,0.004,0.004,0.004,000,0.06
2013-06-10,0.004,0.004,0.004,0.004,000,0.06
2013-06-07,0.004,0.004,0.004,0.004,000,0.06
2013-06-06,0.004,0.004,0.004,0.004,000,0.06
2013-06-05,0.004,0.004,0.004,0.004,39000,0.06
2013-06-04,0.004,0.004,0.004,0.004,000,0.06
2013-06-03,0.004,0.004,0.004,0.004,000,0.06
2013-05-31,0.004,0.004,0.004,0.004,000,0.06
2013-05-30,0.004,0.004,0.004,0.004,000,0.06
2013-05-29,0.004,0.004,0.004,0.004,000,0.06
2013-05-28,0.004,0.004,0.004,0.004,000,0.06
2013-05-27,0.004,0.004,0.004,0.004,000,0.06
2013-05-24,0.004,0.004,0.004,0.004,000,0.06
2013-05-23,0.004,0.004,0.004,0.004,000,0.06
2013-05-22,0.004,0.004,0.004,0.004,000,0.06
2013-05-21,0.004,0.004,0.004,0.004,000,0.06
2013-05-20,0.004,0.004,0.004,0.004,000,0.06
2013-05-17,0.004,0.004,0.004,0.004,000,0.06
2013-05-16,0.004,0.004,0.004,0.004,000,0.06
2013-05-15,0.004,0.004,0.004,0.004,000,0.06
2013-05-14,0.004,0.004,0.004,0.004,000,0.06
2013-05-13,0.004,0.004,0.004,0.004,000,0.06
2013-05-10,0.004,0.004,0.004,0.004,000,0.06
2013-05-09,0.004,0.004,0.004,0.004,000,0.06
2013-05-08,0.004,0.004,0.004,0.004,000,0.06
2013-05-07,0.004,0.004,0.004,0.004,000,0.06
2013-05-06,0.004,0.004,0.004,0.004,000,0.06
2013-05-03,0.004,0.004,0.004,0.004,000,0.06
2013-05-02,0.004,0.004,0.004,0.004,000,0.06
2013-05-01,0.004,0.004,0.004,0.004,24300,0.06
2013-04-30,0.004,0.004,0.003,0.003,47000,0.045
2013-04-29,0.005,0.005,0.005,0.005,000,0.075
2013-04-26,0.005,0.005,0.005,0.005,000,0.075
2013-04-25,0.005,0.005,0.005,0.005,000,0.075
2013-04-24,0.005,0.005,0.005,0.005,000,0.075
2013-04-23,0.006,0.006,0.005,0.005,79700,0.075
2013-04-22,0.006,0.006,0.006,0.006,000,0.09
2013-04-19,0.006,0.006,0.006,0.006,000,0.09
2013-04-18,0.006,0.006,0.006,0.006,000,0.09
2013-04-17,0.006,0.006,0.006,0.006,000,0.09
2013-04-16,0.006,0.007,0.006,0.006,56500,0.09
2013-04-15,0.006,0.006,0.006,0.006,162600,0.09
2013-04-12,0.007,0.007,0.007,0.007,000,0.105
2013-04-11,0.007,0.007,0.007,0.007,000,0.105
2013-04-10,0.007,0.007,0.007,0.007,000,0.105
2013-04-09,0.007,0.007,0.007,0.007,52800,0.105
2013-04-08,0.007,0.007,0.007,0.007,20000,0.105
2013-04-05,0.007,0.007,0.007,0.007,000,0.105
2013-04-04,0.008,0.008,0.007,0.007,7500,0.105
2013-04-03,0.008,0.008,0.008,0.008,000,0.12
2013-04-02,0.008,0.008,0.008,0.008,70200,0.12
2013-04-01,0.008,0.008,0.008,0.008,000,0.12
2013-03-29,0.008,0.008,0.008,0.008,000,0.12
2013-03-28,0.008,0.008,0.008,0.008,240000,0.12
2013-03-27,0.008,0.008,0.008,0.008,000,0.12
2013-03-26,0.008,0.008,0.008,0.008,41600,0.12
2013-03-25,0.007,0.007,0.007,0.007,10000,0.105
2013-03-22,0.006,0.006,0.006,0.006,000,0.09
2013-03-21,0.006,0.006,0.006,0.006,000,0.09
2013-03-20,0.006,0.006,0.006,0.006,000,0.09
2013-03-19,0.007,0.007,0.006,0.006,17300,0.09
2013-03-18,0.008,0.008,0.008,0.008,000,0.12
2013-03-15,0.008,0.008,0.008,0.008,000,0.12
2013-03-14,0.008,0.008,0.008,0.008,7300,0.12
2013-03-13,0.008,0.008,0.008,0.008,000,0.12
2013-03-12,0.008,0.008,0.008,0.008,6600,0.12
2013-03-11,0.008,0.008,0.008,0.008,36600,0.12
2013-03-08,0.009,0.009,0.009,0.009,000,0.135
2013-03-07,0.009,0.009,0.009,0.009,16600,0.135
2013-03-06,0.008,0.008,0.008,0.008,000,0.12
2013-03-05,0.008,0.008,0.008,0.008,000,0.12
2013-03-04,0.008,0.008,0.008,0.008,000,0.12
2013-03-01,0.008,0.008,0.008,0.008,000,0.12
2013-02-28,0.008,0.008,0.008,0.008,000,0.12
2013-02-27,0.008,0.008,0.008,0.008,000,0.12
2013-02-26,0.008,0.008,0.008,0.008,39400,0.12
2013-02-25,0.008,0.008,0.008,0.008,000,0.12
2013-02-22,0.008,0.008,0.008,0.008,30500,0.12
2013-02-21,0.009,0.009,0.009,0.009,000,0.135
2013-02-20,0.009,0.009,0.009,0.009,31000,0.135
2013-02-19,0.009,0.009,0.009,0.009,000,0.135
2013-02-18,0.009,0.009,0.009,0.009,000,0.135
2013-02-15,0.009,0.009,0.009,0.009,000,0.135
2013-02-14,0.009,0.009,0.009,0.009,000,0.135
2013-02-13,0.009,0.009,0.009,0.009,000,0.135
2013-02-12,0.01,0.01,0.009,0.009,75500,0.135
2013-02-11,0.009,0.009,0.009,0.009,303900,0.135
2013-02-08,0.01,0.01,0.01,0.01,000,0.15
2013-02-07,0.01,0.01,0.01,0.01,000,0.15
2013-02-06,0.01,0.01,0.01,0.01,000,0.15
2013-02-05,0.01,0.01,0.01,0.01,000,0.15
2013-02-04,0.011,0.011,0.01,0.01,141400,0.15
2013-02-01,0.011,0.011,0.011,0.011,65300,0.165
2013-01-31,0.01,0.01,0.01,0.01,41900,0.15
2013-01-30,0.011,0.011,0.011,0.011,000,0.165
2013-01-29,0.011,0.011,0.011,0.011,000,0.165
2013-01-28,0.011,0.011,0.011,0.011,000,0.165
2013-01-25,0.011,0.011,0.011,0.011,000,0.165
2013-01-24,0.011,0.011,0.011,0.011,20000,0.165
2013-01-23,0.011,0.011,0.011,0.011,34700,0.165
2013-01-22,0.011,0.011,0.011,0.011,151000,0.165
2013-01-21,0.012,0.012,0.012,0.012,49600,0.18
2013-01-18,0.012,0.012,0.012,0.012,000,0.18
2013-01-17,0.012,0.012,0.012,0.012,000,0.18
2013-01-16,0.012,0.012,0.012,0.012,30000,0.18
2013-01-15,0.012,0.012,0.012,0.012,43300,0.18
2013-01-14,0.012,0.012,0.012,0.012,163000,0.18
2013-01-11,0.013,0.013,0.012,0.012,43300,0.18
2013-01-10,0.012,0.014,0.012,0.014,245000,0.21
2013-01-09,0.012,0.012,0.012,0.012,75800,0.18
2013-01-08,0.012,0.012,0.012,0.012,2500,0.18
2013-01-07,0.013,0.013,0.012,0.012,60600,0.18
2013-01-04,0.012,0.013,0.012,0.013,21300,0.195
2013-01-03,0.012,0.012,0.012,0.012,70000,0.18
2013-01-02,0.013,0.013,0.012,0.012,86600,0.18
2013-01-01,0.013,0.013,0.013,0.013,000,0.195
2012-12-31,0.013,0.013,0.013,0.013,26600,0.195
2012-12-28,0.013,0.013,0.013,0.013,000,0.195
2012-12-27,0.012,0.013,0.012,0.013,55700,0.195
2012-12-26,0.012,0.012,0.012,0.012,000,0.18
2012-12-25,0.012,0.012,0.012,0.012,000,0.18
2012-12-24,0.011,0.012,0.011,0.012,70900,0.18
2012-12-21,0.009,0.01,0.009,0.01,113300,0.15
2012-12-20,0.01,0.01,0.008,0.008,102800,0.12
2012-12-19,0.032,0.032,0.032,0.032,000,0.48
2012-12-18,0.032,0.032,0.032,0.032,000,0.48
2012-12-17,0.032,0.032,0.032,0.032,000,0.48
2012-12-14,0.032,0.032,0.032,0.032,000,0.48
2012-12-13,0.032,0.032,0.032,0.032,000,0.48
2012-12-12,0.032,0.032,0.032,0.032,000,0.48
2012-12-11,0.032,0.032,0.032,0.032,000,0.48
2012-12-10,0.032,0.032,0.032,0.032,000,0.48
2012-12-07,0.032,0.032,0.032,0.032,000,0.48
2012-12-06,0.032,0.032,0.032,0.032,000,0.48
2012-12-05,0.032,0.032,0.032,0.032,000,0.48
2012-12-04,0.032,0.032,0.032,0.032,000,0.48
2012-12-03,0.032,0.032,0.032,0.032,000,0.48
2012-11-30,0.032,0.032,0.032,0.032,000,0.48
2012-11-29,0.032,0.032,0.032,0.032,000,0.48
2012-11-28,0.032,0.032,0.032,0.032,000,0.48
2012-11-27,0.032,0.032,0.032,0.032,000,0.48
2012-11-26,0.032,0.032,0.032,0.032,000,0.48
2012-11-23,0.032,0.032,0.032,0.032,000,0.48
2012-11-22,0.032,0.032,0.032,0.032,000,0.48
2012-11-21,0.032,0.032,0.032,0.032,000,0.48
2012-11-20,0.032,0.032,0.032,0.032,000,0.48
2012-11-19,0.032,0.032,0.032,0.032,000,0.48
2012-11-16,0.032,0.032,0.032,0.032,000,0.48
2012-11-15,0.032,0.032,0.032,0.032,000,0.48
2012-11-14,0.032,0.032,0.032,0.032,000,0.48
2012-11-13,0.032,0.032,0.032,0.032,000,0.48
2012-11-12,0.032,0.032,0.032,0.032,000,0.48
2012-11-09,0.032,0.032,0.032,0.032,000,0.48
2012-11-08,0.032,0.032,0.032,0.032,000,0.48
2012-11-07,0.032,0.032,0.032,0.032,000,0.48
2012-11-06,0.032,0.032,0.032,0.032,000,0.48
2012-11-05,0.032,0.032,0.032,0.032,000,0.48
2012-11-02,0.032,0.032,0.032,0.032,000,0.48
2012-11-01,0.032,0.032,0.032,0.032,000,0.48
2012-10-31,0.032,0.032,0.032,0.032,000,0.48
2012-10-30,0.032,0.032,0.032,0.032,000,0.48
2012-10-29,0.032,0.032,0.032,0.032,000,0.48
2012-10-26,0.032,0.032,0.032,0.032,000,0.48
2012-10-25,0.032,0.032,0.032,0.032,000,0.48
2012-10-24,0.032,0.032,0.032,0.032,000,0.48
2012-10-23,0.032,0.032,0.032,0.032,000,0.48
2012-10-22,0.032,0.032,0.032,0.032,000,0.48
2012-10-19,0.032,0.032,0.032,0.032,000,0.48
2012-10-18,0.032,0.032,0.032,0.032,000,0.48
2012-10-17,0.032,0.032,0.032,0.032,000,0.48
2012-10-16,0.032,0.032,0.032,0.032,000,0.48
2012-10-15,0.032,0.032,0.032,0.032,000,0.48
2012-10-12,0.032,0.032,0.032,0.032,000,0.48
2012-10-11,0.032,0.032,0.032,0.032,000,0.48
2012-10-10,0.032,0.032,0.032,0.032,000,0.48
2012-10-09,0.032,0.032,0.032,0.032,000,0.48
2012-10-08,0.032,0.032,0.032,0.032,000,0.48
2012-10-05,0.032,0.032,0.032,0.032,000,0.48
2012-10-04,0.032,0.032,0.032,0.032,000,0.48
2012-10-03,0.032,0.032,0.032,0.032,000,0.48
2012-10-02,0.032,0.032,0.032,0.032,000,0.48
2012-10-01,0.032,0.032,0.032,0.032,000,0.48
2012-09-28,0.032,0.032,0.032,0.032,000,0.48
2012-09-27,0.032,0.032,0.032,0.032,000,0.48
2012-09-26,0.032,0.032,0.032,0.032,000,0.48
2012-09-25,0.032,0.032,0.032,0.032,000,0.48
2012-09-24,0.032,0.032,0.032,0.032,000,0.48
2012-09-21,0.032,0.032,0.032,0.032,000,0.48
2012-09-20,0.032,0.032,0.032,0.032,000,0.48
2012-09-19,0.032,0.032,0.032,0.032,000,0.48
2012-09-18,0.032,0.032,0.032,0.032,000,0.48
2012-09-17,0.032,0.032,0.032,0.032,000,0.48
2012-09-14,0.032,0.032,0.032,0.032,000,0.48
2012-09-13,0.032,0.032,0.032,0.032,000,0.48
2012-09-12,0.032,0.032,0.032,0.032,000,0.48
2012-09-11,0.032,0.032,0.032,0.032,000,0.48
2012-09-10,0.032,0.032,0.032,0.032,000,0.48
2012-09-07,0.032,0.032,0.032,0.032,000,0.48
2012-09-06,0.032,0.032,0.032,0.032,000,0.48
2012-09-05,0.032,0.032,0.032,0.032,000,0.48
2012-09-04,0.032,0.032,0.032,0.032,000,0.48
2012-09-03,0.032,0.032,0.032,0.032,000,0.48
2012-08-31,0.032,0.032,0.032,0.032,000,0.48
2012-08-30,0.032,0.032,0.032,0.032,000,0.48
2012-08-29,0.032,0.032,0.032,0.032,000,0.48
2012-08-28,0.032,0.032,0.032,0.032,000,0.96
2012-08-27,0.032,0.032,0.032,0.032,000,0.96
2012-08-24,0.032,0.032,0.032,0.032,000,0.96
2012-08-23,0.032,0.032,0.032,0.032,000,0.96
2012-08-22,0.032,0.032,0.032,0.032,000,0.96
2012-08-21,0.032,0.032,0.032,0.032,000,0.96
2012-08-20,0.032,0.032,0.032,0.032,000,0.96
2012-08-17,0.032,0.032,0.032,0.032,000,0.96
2012-08-16,0.032,0.032,0.032,0.032,000,0.96
2012-08-15,0.032,0.032,0.032,0.032,000,0.96
2012-08-14,0.032,0.032,0.032,0.032,000,0.96
2012-08-13,0.032,0.032,0.032,0.032,000,0.96
2012-08-10,0.032,0.032,0.032,0.032,000,0.96
2012-08-09,0.032,0.032,0.032,0.032,000,0.96
2012-08-08,0.032,0.032,0.032,0.032,000,0.96
2012-08-07,0.032,0.032,0.032,0.032,000,0.96
2012-08-06,0.032,0.032,0.032,0.032,000,0.96
2012-08-03,0.032,0.032,0.032,0.032,000,0.96
2012-08-02,0.032,0.032,0.032,0.032,000,0.96
2012-08-01,0.032,0.032,0.032,0.032,000,0.96
2012-07-31,0.032,0.032,0.032,0.032,000,0.96
2012-07-30,0.032,0.032,0.032,0.032,000,0.96
2012-07-27,0.032,0.032,0.032,0.032,000,0.96
2012-07-26,0.032,0.032,0.032,0.032,000,0.96
2012-07-25,0.032,0.032,0.032,0.032,000,0.96
2012-07-24,0.032,0.032,0.032,0.032,000,0.96
2012-07-23,0.032,0.032,0.032,0.032,000,0.96
2012-07-20,0.032,0.032,0.032,0.032,000,0.96
2012-07-19,0.032,0.032,0.032,0.032,000,0.96
2012-07-18,0.032,0.032,0.032,0.032,000,0.96
2012-07-17,0.032,0.032,0.032,0.032,000,0.96
2012-07-16,0.032,0.032,0.032,0.032,000,0.96
2012-07-13,0.032,0.032,0.032,0.032,000,0.96
2012-07-12,0.032,0.032,0.032,0.032,000,0.96
2012-07-11,0.032,0.032,0.032,0.032,000,0.96
2012-07-10,0.032,0.032,0.032,0.032,000,0.96
2012-07-09,0.032,0.032,0.032,0.032,000,0.96
2012-07-06,0.032,0.032,0.032,0.032,000,0.96
2012-07-05,0.032,0.032,0.032,0.032,000,0.96
2012-07-04,0.032,0.032,0.032,0.032,000,0.96
2012-07-03,0.032,0.032,0.032,0.032,000,0.96
2012-07-02,0.032,0.032,0.032,0.032,000,0.96
2012-06-29,0.032,0.032,0.032,0.032,000,0.96
2012-06-28,0.032,0.032,0.032,0.032,000,0.96
2012-06-27,0.032,0.032,0.032,0.032,000,0.96
2012-06-26,0.032,0.032,0.032,0.032,000,0.96
2012-06-25,0.032,0.032,0.032,0.032,000,0.96
2012-06-22,0.032,0.032,0.032,0.032,000,0.96
2012-06-21,0.032,0.032,0.032,0.032,000,0.96
2012-06-20,0.032,0.032,0.032,0.032,000,0.96
2012-06-19,0.032,0.032,0.032,0.032,000,0.96
2012-06-18,0.032,0.032,0.032,0.032,000,0.96
2012-06-15,0.032,0.032,0.032,0.032,000,0.96
2012-06-14,0.032,0.032,0.032,0.032,000,0.96
2012-06-13,0.032,0.032,0.032,0.032,000,0.96
2012-06-12,0.032,0.032,0.032,0.032,000,0.96
2012-06-11,0.032,0.032,0.032,0.032,000,0.96
2012-06-08,0.032,0.032,0.032,0.032,000,0.96
2012-06-07,0.032,0.032,0.032,0.032,000,0.96
2012-06-06,0.032,0.032,0.032,0.032,000,0.96
2012-06-05,0.032,0.032,0.032,0.032,000,0.96
2012-06-04,0.032,0.032,0.032,0.032,000,0.96
2012-06-01,0.032,0.032,0.032,0.032,000,0.96
2012-05-31,0.032,0.032,0.032,0.032,000,0.96
2012-05-30,0.032,0.032,0.032,0.032,000,0.96
2012-05-29,0.032,0.032,0.032,0.032,000,0.96
2012-05-28,0.032,0.032,0.032,0.032,000,0.96
2012-05-25,0.032,0.032,0.032,0.032,000,0.96
2012-05-24,0.032,0.032,0.032,0.032,000,0.96
2012-05-23,0.032,0.032,0.032,0.032,000,0.96
2012-05-22,0.032,0.032,0.032,0.032,000,0.96
2012-05-21,0.032,0.032,0.032,0.032,000,0.96
2012-05-18,0.032,0.032,0.032,0.032,000,0.96
2012-05-17,0.032,0.032,0.032,0.032,000,0.96
2012-05-16,0.032,0.032,0.032,0.032,000,0.96
2012-05-15,0.032,0.032,0.032,0.032,000,0.96
2012-05-14,0.032,0.032,0.032,0.032,000,0.96
2012-05-11,0.032,0.032,0.032,0.032,000,0.96
2012-05-10,0.032,0.032,0.032,0.032,000,0.96
2012-05-09,0.032,0.032,0.032,0.032,000,0.96
2012-05-08,0.032,0.032,0.032,0.032,000,0.96
2012-05-07,0.032,0.032,0.032,0.032,000,0.96
2012-05-04,0.032,0.032,0.032,0.032,000,0.96
2012-05-03,0.032,0.032,0.032,0.032,000,0.96
2012-05-02,0.032,0.032,0.032,0.032,000,0.96
2012-05-01,0.032,0.032,0.032,0.032,000,0.96
2012-04-30,0.032,0.032,0.032,0.032,000,0.96
2012-04-27,0.032,0.032,0.032,0.032,000,0.96
2012-04-26,0.032,0.032,0.032,0.032,000,0.96
2012-04-25,0.032,0.032,0.032,0.032,000,0.96
2012-04-24,0.032,0.032,0.032,0.032,000,0.96
2012-04-23,0.032,0.032,0.032,0.032,000,0.96
2012-04-20,0.032,0.032,0.032,0.032,000,0.96
2012-04-19,0.032,0.032,0.032,0.032,000,0.96
2012-04-18,0.032,0.032,0.032,0.032,000,0.96
2012-04-17,0.032,0.032,0.032,0.032,000,0.96
2012-04-16,0.032,0.032,0.032,0.032,000,0.96
2012-04-13,0.032,0.032,0.032,0.032,000,0.96
2012-04-12,0.032,0.032,0.032,0.032,000,0.96
2012-04-11,0.032,0.032,0.032,0.032,000,0.96
2012-04-10,0.032,0.032,0.032,0.032,000,0.96
2012-04-09,0.032,0.032,0.032,0.032,000,0.96
2012-04-06,0.032,0.032,0.032,0.032,000,0.96
2012-04-05,0.032,0.032,0.032,0.032,000,0.96
2012-04-04,0.032,0.032,0.032,0.032,000,0.96
2012-04-03,0.032,0.032,0.032,0.032,000,0.96
2012-04-02,0.032,0.032,0.032,0.032,000,0.96
2012-03-30,0.032,0.032,0.032,0.032,000,0.96
2012-03-29,0.032,0.032,0.032,0.032,000,0.96
2012-03-28,0.032,0.032,0.032,0.032,000,0.96
2012-03-27,0.032,0.032,0.032,0.032,000,0.96
2012-03-26,0.032,0.032,0.032,0.032,000,0.96
2012-03-23,0.032,0.032,0.032,0.032,000,0.96
2012-03-22,0.032,0.032,0.032,0.032,000,0.96
2012-03-21,0.032,0.032,0.032,0.032,000,0.96
2012-03-20,0.032,0.032,0.032,0.032,000,0.96
2012-03-19,0.032,0.032,0.032,0.032,000,0.96
2012-03-16,0.032,0.032,0.032,0.032,000,0.96
2012-03-15,0.032,0.032,0.032,0.032,000,0.96
2012-03-14,0.032,0.032,0.032,0.032,000,0.96
2012-03-13,0.032,0.032,0.032,0.032,000,0.96
2012-03-12,0.032,0.032,0.032,0.032,000,0.96
2012-03-09,0.032,0.032,0.032,0.032,000,0.96
2012-03-08,0.032,0.032,0.032,0.032,000,0.96
2012-03-07,0.032,0.032,0.032,0.032,000,0.96
2012-03-06,0.032,0.032,0.032,0.032,000,0.96
2012-03-05,0.032,0.032,0.032,0.032,000,0.96
2012-03-02,0.032,0.032,0.032,0.032,000,0.96
2012-03-01,0.032,0.032,0.032,0.032,000,0.96
2012-02-29,0.032,0.032,0.032,0.032,000,0.96
2012-02-28,0.032,0.032,0.032,0.032,000,0.96
2012-02-27,0.032,0.032,0.032,0.032,000,0.96
2012-02-24,0.032,0.032,0.032,0.032,000,0.96
2012-02-23,0.032,0.032,0.032,0.032,000,0.96
2012-02-22,0.032,0.032,0.032,0.032,000,0.96
2012-02-21,0.032,0.032,0.032,0.032,000,0.96
2012-02-20,0.032,0.032,0.032,0.032,000,0.96
2012-02-17,0.032,0.032,0.032,0.032,000,0.96
2012-02-16,0.032,0.032,0.032,0.032,000,0.96
2012-02-15,0.032,0.032,0.032,0.032,000,0.96
2012-02-14,0.032,0.032,0.032,0.032,000,0.96
2012-02-13,0.032,0.032,0.032,0.032,000,0.96
2012-02-10,0.032,0.032,0.032,0.032,000,0.96
2012-02-09,0.032,0.032,0.032,0.032,000,0.96
2012-02-08,0.032,0.032,0.032,0.032,000,0.96
2012-02-07,0.032,0.032,0.032,0.032,000,0.96
2012-02-06,0.032,0.032,0.032,0.032,000,0.96
2012-02-03,0.032,0.032,0.032,0.032,000,0.96
2012-02-02,0.032,0.032,0.032,0.032,000,0.96
2012-02-01,0.032,0.032,0.032,0.032,000,0.96
2012-01-31,0.032,0.032,0.032,0.032,000,0.96
2012-01-27,0.032,0.032,0.032,0.032,000,0.96
2012-01-26,0.032,0.032,0.032,0.032,000,0.96
2012-01-25,0.032,0.032,0.032,0.032,000,0.96
2012-01-24,0.032,0.032,0.032,0.032,000,0.96
2012-01-23,0.032,0.032,0.032,0.032,000,0.96
2012-01-20,0.032,0.032,0.032,0.032,000,0.96
2012-01-19,0.032,0.032,0.032,0.032,000,0.96
2012-01-18,0.032,0.032,0.032,0.032,000,0.96
2012-01-17,0.032,0.032,0.032,0.032,000,0.96
2012-01-16,0.032,0.032,0.032,0.032,000,0.96
2012-01-13,0.032,0.032,0.032,0.032,000,0.96
2012-01-12,0.032,0.032,0.032,0.032,000,0.96
2012-01-11,0.032,0.032,0.032,0.032,000,0.96
2012-01-10,0.032,0.032,0.032,0.032,000,0.96
2012-01-09,0.032,0.032,0.032,0.032,000,0.96
2012-01-06,0.032,0.032,0.032,0.032,000,0.96
2012-01-05,0.032,0.032,0.032,0.032,000,0.96
2012-01-04,0.032,0.032,0.032,0.032,000,0.96
2012-01-03,0.032,0.032,0.032,0.032,000,0.96
2012-01-02,0.032,0.032,0.032,0.032,000,0.96
2011-12-30,0.032,0.032,0.032,0.032,000,0.96
2011-12-29,0.032,0.032,0.032,0.032,000,0.96
2011-12-28,0.032,0.032,0.032,0.032,000,0.96
2011-12-27,0.032,0.032,0.032,0.032,000,0.96
2011-12-26,0.032,0.032,0.032,0.032,000,0.96
2011-12-23,0.032,0.032,0.032,0.032,000,0.96
2011-12-22,0.032,0.032,0.032,0.032,000,0.96
2011-12-21,0.032,0.032,0.032,0.032,000,0.96
2011-12-20,0.032,0.032,0.032,0.032,000,0.96
2011-12-19,0.032,0.032,0.032,0.032,000,0.96
2011-12-16,0.032,0.032,0.032,0.032,000,0.96
2011-12-15,0.032,0.032,0.032,0.032,000,0.96
2011-12-14,0.032,0.032,0.032,0.032,000,0.96
2011-12-13,0.032,0.032,0.032,0.032,000,0.96
2011-12-12,0.032,0.032,0.032,0.032,000,0.96
2011-12-09,0.032,0.032,0.032,0.032,000,0.96
2011-12-08,0.032,0.032,0.032,0.032,000,0.96
2011-12-07,0.032,0.032,0.032,0.032,000,0.96
2011-12-06,0.032,0.032,0.032,0.032,000,0.96
2011-12-05,0.032,0.032,0.032,0.032,000,0.96
2011-12-02,0.032,0.032,0.032,0.032,000,0.96
2011-12-01,0.032,0.032,0.032,0.032,000,0.96
2011-11-30,0.032,0.032,0.032,0.032,000,0.96
2011-11-29,0.032,0.032,0.032,0.032,000,0.96
2011-11-28,0.032,0.032,0.032,0.032,000,0.96
2011-11-25,0.032,0.032,0.032,0.032,000,0.96
2011-11-24,0.032,0.032,0.032,0.032,000,0.96
2011-11-23,0.032,0.032,0.032,0.032,000,0.96
2011-11-22,0.032,0.032,0.032,0.032,000,0.96
2011-11-21,0.032,0.032,0.032,0.032,000,0.96
2011-11-18,0.032,0.032,0.032,0.032,000,0.96
2011-11-17,0.032,0.032,0.032,0.032,000,0.96
2011-09-30,0.03,0.032,0.03,0.032,2500,0.96
2011-09-29,0.028,0.028,0.028,0.028,2500,0.84
2011-09-22,0.035,0.035,0.03,0.03,5600,0.90
2011-09-21,0.028,0.028,0.028,0.028,5000,0.84
2011-09-20,0.035,0.035,0.035,0.035,1200,1.05
2011-09-19,0.03,0.03,0.03,0.03,2800,0.90
2011-09-16,0.03,0.03,0.03,0.03,4700,0.90
2011-09-15,0.032,0.032,0.03,0.03,20500,0.90
2011-09-14,0.035,0.035,0.035,0.035,900,1.05
2011-09-12,0.035,0.035,0.035,0.035,16600,1.05
2011-09-09,0.035,0.035,0.035,0.035,500,1.05
2011-09-06,0.035,0.035,0.034,0.034,1000,1.02
2011-09-01,0.036,0.036,0.036,0.036,10000,1.08
2011-08-25,0.036,0.036,0.035,0.035,1000,1.05
2011-08-19,0.034,0.034,0.034,0.034,600,1.02
2011-08-18,0.033,0.033,0.033,0.033,1300,0.99
2011-08-15,0.035,0.035,0.033,0.033,1600,0.99
2011-08-12,0.037,0.037,0.037,0.037,600,1.11
2011-08-09,0.035,0.035,0.035,0.035,1600,1.05
2011-08-03,0.045,0.045,0.045,0.045,7800,1.35
2011-08-02,0.041,0.045,0.041,0.045,11500,1.35
2011-07-29,0.047,0.047,0.047,0.047,500,1.41
2011-07-27,0.045,0.048,0.045,0.048,1900,1.44
2011-07-22,0.048,0.048,0.045,0.045,1400,1.35
2011-07-21,0.046,0.046,0.046,0.046,3300,1.38
2011-07-19,0.05,0.05,0.05,0.05,1900,1.50
2011-07-14,0.057,0.057,0.057,0.057,600,1.71
2011-07-13,0.058,0.058,0.058,0.058,600,1.74
2011-07-12,0.058,0.058,0.058,0.058,100,1.74
2011-07-07,0.058,0.06,0.055,0.06,3900,1.80
2011-07-06,0.052,0.055,0.05,0.055,8900,1.65
2011-07-05,0.05,0.051,0.05,0.051,6900,1.53
2011-07-04,0.05,0.05,0.05,0.05,4100,1.50
2011-07-01,0.056,0.056,0.045,0.045,6000,1.35
2011-06-30,0.07,0.07,0.041,0.055,14700,1.65
2011-06-29,0.07,0.07,0.07,0.07,2500,2.10
2011-06-27,0.06,0.065,0.06,0.065,5900,1.95
2011-06-24,0.06,0.06,0.06,0.06,500,1.80
2011-06-23,0.06,0.061,0.06,0.06,4500,1.80
2011-06-22,0.061,0.061,0.06,0.06,2300,1.80
2011-06-21,0.06,0.065,0.06,0.065,7000,1.95
2011-06-20,0.06,0.06,0.06,0.06,1300,1.80
2011-06-17,0.063,0.063,0.063,0.063,300,1.89
2011-06-16,0.057,0.057,0.056,0.056,2500,1.68
2011-06-15,0.06,0.06,0.056,0.057,7300,1.71
2011-06-14,0.055,0.059,0.055,0.059,3600,1.77
2011-06-10,0.05,0.056,0.05,0.055,13800,1.65
2011-06-09,0.038,0.051,0.038,0.05,12500,1.50
2011-06-08,0.04,0.04,0.038,0.038,9900,1.14
2011-06-07,0.046,0.046,0.045,0.045,3700,1.35
2011-06-06,0.039,0.045,0.038,0.045,1600,1.35
2011-06-03,0.05,0.05,0.039,0.039,5300,1.17
2011-06-02,0.047,0.05,0.047,0.05,1300,1.50
2011-06-01,0.052,0.052,0.047,0.047,7900,1.41
2011-05-31,0.05,0.051,0.048,0.051,8500,1.53
2011-05-30,0.052,0.058,0.046,0.046,10000,1.38
2011-05-27,0.09,0.09,0.053,0.06,14100,1.80
2011-05-26,0.09,0.09,0.085,0.09,1600,2.70
2011-05-25,0.10,0.105,0.10,0.105,1300,3.15
2011-05-24,0.09,0.093,0.09,0.09,2400,2.70
2011-05-23,0.12,0.13,0.12,0.13,600,3.90
2011-05-20,0.13,0.145,0.11,0.11,3500,3.30
2011-05-11,0.11,0.11,0.11,0.11,300,3.30
2011-05-10,0.12,0.12,0.11,0.11,1000,3.30
2011-05-03,0.11,0.11,0.10,0.10,1600,3.00
2011-05-02,0.11,0.13,0.11,0.13,1200,3.90
2011-04-28,0.10,0.10,0.10,0.10,000,3.00
2011-04-19,0.08,0.08,0.08,0.08,500,2.40
2011-04-18,0.10,0.10,0.10,0.10,500,3.00
2011-04-15,0.10,0.10,0.10,0.10,3300,3.00
2011-04-13,0.125,0.125,0.11,0.11,900,3.30
2011-04-07,0.12,0.12,0.12,0.12,400,3.60
2011-04-04,0.115,0.115,0.115,0.115,1400,3.45
2011-03-30,0.145,0.145,0.14,0.14,700,4.20
2011-03-23,0.15,0.15,0.15,0.15,100,4.50
2011-03-16,0.15,0.15,0.14,0.14,2500,4.20
2011-03-15,0.16,0.16,0.145,0.145,1100,4.35
2011-03-14,0.19,0.19,0.19,0.19,000,5.70
2011-03-11,0.17,0.18,0.15,0.18,2300,5.40
2011-03-10,0.20,0.20,0.19,0.19,2800,5.70
2011-03-09,0.19,0.21,0.19,0.21,7900,6.30
2011-03-08,0.165,0.195,0.165,0.195,1500,5.85
2011-03-07,0.185,0.185,0.185,0.185,000,5.55
2011-03-04,0.18,0.18,0.18,0.18,000,5.40
2011-03-03,0.175,0.175,0.175,0.175,200,5.25
2011-03-02,0.15,0.16,0.145,0.16,4500,4.80
2011-03-01,0.16,0.16,0.16,0.16,100,4.80
2011-02-28,0.17,0.17,0.17,0.17,13300,5.10
2011-02-22,0.14,0.14,0.14,0.14,900,4.20
2011-02-21,0.14,0.14,0.135,0.135,1500,4.05
2011-02-18,0.15,0.15,0.135,0.135,2700,4.05
2011-02-17,0.15,0.15,0.15,0.15,300,4.50
2011-02-14,0.15,0.15,0.15,0.15,900,4.50
2011-02-11,0.17,0.17,0.165,0.17,12900,5.10
2011-02-09,0.175,0.175,0.17,0.17,2200,5.10
2011-01-31,0.20,0.20,0.20,0.20,100,6.00
2011-01-27,0.18,0.18,0.17,0.17,1300,5.10
2011-01-25,0.19,0.21,0.185,0.21,5600,6.30
2011-01-24,0.19,0.19,0.19,0.19,1700,5.70
2011-01-21,0.20,0.22,0.19,0.22,2800,6.60
2011-01-20,0.20,0.20,0.20,0.20,1300,6.00
2011-01-18,0.21,0.225,0.20,0.225,20400,6.75
2011-01-17,0.22,0.22,0.21,0.21,4500,6.30
2011-01-14,0.215,0.235,0.215,0.235,3200,7.05
2011-01-13,0.215,0.215,0.215,0.215,500,6.45
2011-01-12,0.22,0.22,0.215,0.22,5700,6.60
2011-01-11,0.215,0.22,0.21,0.21,1800,6.30
2011-01-10,0.21,0.21,0.21,0.21,500,6.30
2011-01-07,0.215,0.22,0.215,0.22,2000,6.60
2011-01-06,0.19,0.205,0.19,0.20,2900,6.00
2011-01-05,0.19,0.19,0.18,0.19,2800,5.70
2011-01-04,0.19,0.19,0.19,0.19,100,5.70
2010-12-30,0.18,0.18,0.18,0.18,100,5.40
2010-12-29,0.18,0.18,0.18,0.18,5000,5.40
2010-12-23,0.20,0.22,0.20,0.22,3100,6.60
2010-12-21,0.16,0.16,0.15,0.15,1600,4.50
2010-12-20,0.16,0.16,0.15,0.15,1100,4.50
2010-12-17,0.14,0.145,0.13,0.145,5800,4.35
2010-12-16,0.14,0.14,0.14,0.14,200,4.20
2010-12-13,0.14,0.14,0.14,0.14,1100,4.20
2010-12-10,0.13,0.135,0.13,0.135,3700,4.05
2010-12-09,0.11,0.12,0.11,0.12,4300,3.60
2010-12-08,0.105,0.105,0.105,0.105,1600,3.15
2010-12-07,0.11,0.11,0.11,0.11,2000,3.30
2010-12-03,0.11,0.11,0.11,0.11,2800,3.30
2010-12-02,0.11,0.11,0.11,0.11,2500,3.30
2010-12-01,0.10,0.10,0.10,0.10,2600,3.00
2010-11-30,0.10,0.10,0.10,0.10,1600,3.00
2010-11-26,0.092,0.092,0.092,0.092,1600,2.76
2010-11-23,0.081,0.081,0.075,0.075,3000,2.25
2010-11-22,0.085,0.085,0.085,0.085,500,2.55
2010-11-19,0.065,0.085,0.065,0.085,19900,2.55
2010-11-16,0.08,0.08,0.08,0.08,1600,2.40
2010-11-03,0.09,0.09,0.08,0.08,1000,2.40
2010-10-28,0.09,0.095,0.09,0.09,12700,2.70
2010-10-27,0.09,0.09,0.09,0.09,1500,2.70
2010-10-26,0.086,0.086,0.085,0.085,1900,2.55
2010-10-15,0.081,0.081,0.081,0.081,800,2.43
2010-10-12,0.081,0.081,0.081,0.081,600,2.43
2010-10-11,0.08,0.08,0.08,0.08,600,2.40
2010-10-08,0.10,0.10,0.10,0.10,100,3.00
2010-10-06,0.095,0.095,0.095,0.095,100,2.85
2010-10-05,0.10,0.10,0.10,0.10,200,3.00
2010-09-29,0.10,0.11,0.10,0.10,6800,3.00
2010-09-28,0.12,0.12,0.11,0.11,7900,3.30
2010-09-20,0.115,0.12,0.11,0.12,5700,3.60
2010-09-17,0.115,0.115,0.11,0.11,6100,3.30
2010-09-16,0.13,0.13,0.12,0.12,1100,3.60
2010-09-15,0.15,0.15,0.15,0.15,800,4.50
2010-09-10,0.13,0.13,0.13,0.13,000,3.90
2010-09-08,0.135,0.135,0.13,0.13,2500,3.90
2010-09-07,0.14,0.14,0.14,0.14,400,4.20
2010-09-02,0.145,0.15,0.145,0.15,7500,4.50
2010-09-01,0.145,0.145,0.13,0.145,10700,4.35
2010-08-30,0.145,0.145,0.145,0.145,1600,4.35
2010-08-27,0.145,0.145,0.145,0.145,2800,4.35
2010-08-25,0.145,0.145,0.145,0.145,1600,4.35
2010-08-24,0.16,0.16,0.15,0.15,1200,4.50
2010-08-23,0.14,0.14,0.14,0.14,1600,4.20
2010-08-16,0.14,0.14,0.14,0.14,3200,4.20
2010-08-11,0.17,0.18,0.15,0.16,8200,4.80
2010-08-06,0.16,0.16,0.16,0.16,100,4.80
2010-08-04,0.16,0.18,0.16,0.18,700,5.40
2010-08-03,0.16,0.16,0.16,0.16,300,4.80
2010-07-30,0.15,0.15,0.15,0.15,200,4.50
2010-07-23,0.20,0.22,0.20,0.215,1300,6.45
2010-07-22,0.20,0.20,0.20,0.20,500,6.00
2010-07-21,0.22,0.24,0.20,0.20,1300,6.00
2010-07-20,0.18,0.20,0.18,0.20,3200,6.00
2010-07-15,0.16,0.16,0.16,0.16,300,4.80
2010-07-14,0.14,0.14,0.14,0.14,000,4.20
2010-07-09,0.155,0.155,0.155,0.155,100,4.65
2010-07-02,0.15,0.165,0.15,0.165,300,4.95
2010-06-30,0.15,0.15,0.125,0.125,1900,3.75
2010-06-25,0.15,0.15,0.15,0.15,200,4.50
2010-06-24,0.15,0.15,0.15,0.15,000,4.50
2010-06-23,0.16,0.16,0.16,0.16,000,4.80
2010-06-22,0.20,0.21,0.20,0.21,1500,6.30
2010-06-21,0.16,0.16,0.16,0.16,400,4.80
2010-06-18,0.20,0.20,0.16,0.16,000,4.80
2010-06-17,0.20,0.20,0.16,0.16,000,4.80
2010-06-16,0.20,0.21,0.20,0.21,1200,6.30
2010-06-15,0.18,0.20,0.18,0.20,500,6.00
2010-06-11,0.20,0.22,0.20,0.22,300,6.60
2010-06-10,0.20,0.20,0.18,0.18,000,5.40
2010-06-09,0.215,0.215,0.18,0.18,000,5.40
2010-06-08,0.215,0.215,0.18,0.18,000,5.40
2010-06-07,0.215,0.215,0.18,0.18,000,5.40
2010-06-04,0.215,0.215,0.18,0.18,000,5.40
2010-06-03,0.215,0.215,0.18,0.18,000,5.40
2010-06-02,0.20,0.22,0.20,0.22,1100,6.60
2010-06-01,0.20,0.20,0.18,0.18,000,5.40
2010-05-31,0.20,0.20,0.18,0.18,000,5.40
2010-05-28,0.20,0.20,0.18,0.18,000,5.40
2010-05-27,0.20,0.20,0.18,0.18,000,5.40
2010-05-26,0.20,0.20,0.18,0.18,000,5.40
2010-05-25,0.20,0.20,0.18,0.18,000,5.40
2010-05-24,0.20,0.20,0.18,0.18,000,5.40
2010-05-21,0.20,0.20,0.18,0.18,000,5.40
2010-05-20,0.20,0.20,0.18,0.18,000,5.40
2010-05-19,0.20,0.20,0.18,0.18,000,5.40
2010-05-18,0.20,0.20,0.18,0.18,000,5.40
2010-05-17,0.20,0.20,0.18,0.18,000,5.40
2010-05-14,0.20,0.20,0.18,0.18,000,5.40
2010-05-13,0.20,0.20,0.18,0.18,000,5.40
2010-05-12,0.20,0.20,0.18,0.18,000,5.40
2010-05-11,0.20,0.20,0.18,0.18,000,5.40
2010-05-07,0.20,0.20,0.18,0.18,000,5.40
2010-05-06,0.20,0.20,0.18,0.18,000,5.40
2010-05-05,0.20,0.20,0.18,0.18,000,5.40
2010-05-04,0.20,0.20,0.18,0.18,000,5.40
2010-05-03,0.22,0.22,0.18,0.18,000,5.40
2010-04-30,0.22,0.22,0.18,0.18,000,5.40
2010-04-29,0.22,0.22,0.18,0.18,000,5.40
2010-04-28,0.22,0.22,0.22,0.22,000,6.60
2010-04-27,0.245,0.245,0.22,0.22,000,6.60
2010-04-23,0.245,0.245,0.22,0.22,000,6.60
2010-04-22,0.245,0.245,0.22,0.22,000,6.60
2010-04-21,0.245,0.245,0.22,0.22,000,6.60
2010-04-20,0.245,0.245,0.22,0.22,000,6.60
2010-04-15,0.245,0.245,0.22,0.22,000,6.60
2010-04-14,0.245,0.245,0.22,0.22,000,6.60
2010-04-13,0.23,0.25,0.23,0.25,2500,7.50
2010-04-12,0.22,0.22,0.22,0.22,900,6.60
2010-04-08,0.21,0.21,0.21,0.21,400,6.30
2010-04-07,0.18,0.205,0.18,0.205,1800,6.15
2010-04-06,0.20,0.20,0.18,0.18,000,5.40
2010-04-01,0.18,0.18,0.18,0.18,100,5.40
2010-03-31,0.185,0.185,0.18,0.18,700,5.40
2010-03-30,0.20,0.20,0.185,0.185,000,5.55
2010-03-29,0.185,0.20,0.185,0.20,3600,6.00
2010-03-25,0.18,0.18,0.18,0.18,800,5.40
2010-03-24,0.18,0.18,0.155,0.155,000,4.65
2010-03-23,0.18,0.18,0.18,0.18,1600,5.40
2010-03-22,0.215,0.215,0.18,0.18,000,5.40
2010-03-19,0.245,0.245,0.18,0.18,000,5.40
2010-03-18,0.245,0.245,0.23,0.23,000,6.90
2010-03-17,0.245,0.245,0.23,0.23,000,6.90
2010-03-16,0.23,0.23,0.23,0.23,100,6.90
2010-03-12,0.25,0.25,0.25,0.25,100,7.50
2010-03-11,0.25,0.25,0.235,0.235,000,7.05
2010-03-10,0.26,0.26,0.24,0.24,000,7.20
2010-03-09,0.26,0.26,0.24,0.24,000,7.20
2010-03-08,0.26,0.26,0.24,0.24,000,7.20
2010-03-05,0.26,0.26,0.24,0.24,000,7.20
2010-03-04,0.255,0.26,0.255,0.26,600,7.80
2010-03-03,0.26,0.26,0.235,0.235,000,7.05
2010-03-02,0.235,0.235,0.235,0.235,000,7.05
2010-02-26,0.235,0.235,0.235,0.235,1500,7.05
2010-02-25,0.235,0.235,0.235,0.235,000,7.05
2010-02-24,0.26,0.26,0.235,0.235,000,7.05
2010-02-23,0.25,0.25,0.245,0.245,800,7.35
2010-02-22,0.26,0.26,0.25,0.25,100,7.50
2010-02-19,0.275,0.275,0.275,0.275,100,8.25
2010-02-18,0.26,0.26,0.25,0.25,200,7.50
2010-02-17,0.25,0.26,0.25,0.26,700,7.80
2010-02-16,0.26,0.26,0.26,0.26,000,7.80
2010-02-15,0.23,0.26,0.23,0.26,3200,7.80
2010-02-12,0.285,0.285,0.24,0.24,300,7.20
2010-02-11,0.285,0.285,0.16,0.16,000,4.80
2010-02-10,0.285,0.285,0.17,0.17,000,5.10
2010-02-09,0.29,0.29,0.29,0.29,200,8.70
2010-02-02,0.29,0.295,0.29,0.295,300,8.85
2010-01-29,0.26,0.26,0.26,0.26,1100,7.80
2010-01-28,0.29,0.29,0.25,0.25,000,7.50
2010-01-27,0.29,0.29,0.235,0.235,000,7.05
2010-01-25,0.295,0.295,0.235,0.235,000,7.05
2010-01-22,0.295,0.295,0.235,0.235,000,7.05
2010-01-21,0.285,0.295,0.285,0.295,300,8.85
2010-01-20,0.295,0.295,0.295,0.295,100,8.85
2010-01-19,0.235,0.235,0.235,0.235,1100,7.05
2010-01-18,0.255,0.30,0.255,0.30,600,9.00
2010-01-15,0.255,0.255,0.255,0.255,1400,7.65
2010-01-14,0.265,0.265,0.265,0.265,1600,7.95
2010-01-13,0.27,0.27,0.27,0.27,600,8.10
2010-01-12,0.27,0.27,0.27,0.27,500,8.10
2010-01-11,0.30,0.30,0.26,0.26,300,7.80
2010-01-08,0.30,0.30,0.30,0.30,100,9.00
2010-01-07,0.315,0.32,0.30,0.30,1500,9.00
2010-01-06,0.32,0.32,0.25,0.25,000,7.50
2010-01-05,0.32,0.32,0.25,0.25,000,7.50
2010-01-04,0.315,0.315,0.315,0.315,300,9.45
2009-12-31,0.34,0.34,0.25,0.25,000,7.50
2009-12-30,0.34,0.34,0.26,0.26,000,7.80
2009-12-23,0.34,0.34,0.23,0.23,000,6.90
2009-12-22,0.345,0.345,0.29,0.29,000,8.70
2009-12-21,0.35,0.35,0.30,0.30,000,9.00
2009-12-18,0.35,0.35,0.23,0.23,000,6.90
2009-12-17,0.35,0.35,0.30,0.30,000,9.00
2009-12-16,0.35,0.35,0.22,0.22,000,6.60
2009-12-15,0.32,0.32,0.32,0.32,300,9.60
2009-12-11,0.36,0.36,0.35,0.35,000,10.50
2009-12-10,0.37,0.37,0.35,0.35,100,10.50
2009-12-09,0.36,0.36,0.36,0.36,500,10.80
2009-12-08,0.36,0.36,0.36,0.36,100,10.80
2009-12-07,0.37,0.37,0.37,0.37,300,11.10
2009-12-04,0.38,0.38,0.37,0.37,000,11.10
2009-12-03,0.38,0.38,0.36,0.36,3000,10.80
2009-12-02,0.37,0.37,0.37,0.37,100,11.10
2009-12-01,0.37,0.38,0.37,0.37,500,11.10
2009-11-30,0.35,0.38,0.35,0.38,1700,11.40
2009-11-27,0.32,0.32,0.30,0.31,1800,9.30
2009-11-26,0.345,0.345,0.32,0.32,1500,9.60
2009-11-24,0.38,0.38,0.37,0.37,000,11.10
2009-11-23,0.38,0.38,0.36,0.36,000,10.80
2009-11-20,0.39,0.39,0.35,0.36,2900,10.80
2009-11-19,0.39,0.39,0.39,0.39,000,11.70
2009-11-18,0.395,0.395,0.36,0.395,13400,11.85
2009-11-17,0.395,0.415,0.395,0.415,1800,12.45
2009-11-16,0.41,0.41,0.395,0.40,1700,12.00
2009-11-13,0.37,0.49,0.365,0.45,12900,13.50
2009-11-12,0.34,0.38,0.34,0.37,1400,11.10
2009-11-11,0.38,0.38,0.34,0.34,000,10.20
2009-11-10,0.39,0.39,0.34,0.34,000,10.20
2009-11-09,0.38,0.385,0.38,0.385,700,11.55
