Date,Open,High,Low,Close,Volume,Adj Close
2016-11-08,2.40,2.40,2.40,2.40,000,2.40
2016-11-07,2.40,2.40,2.40,2.40,000,2.40
2016-11-04,2.40,2.40,2.40,2.40,000,2.40
2016-11-03,2.40,2.40,2.40,2.40,000,2.40
2016-11-02,2.40,2.40,2.40,2.40,000,2.40
2016-11-01,2.40,2.40,2.40,2.40,000,2.40
2016-10-31,2.40,2.40,2.40,2.40,000,2.40
2016-10-28,2.40,2.40,2.40,2.40,000,2.40
2016-10-27,2.40,2.40,2.40,2.40,000,2.40
2016-10-26,2.40,2.40,2.40,2.40,000,2.40
2016-10-25,2.40,2.40,2.40,2.40,000,2.40
2016-10-24,2.40,2.40,2.40,2.40,000,2.40
2016-10-21,2.40,2.40,2.40,2.40,000,2.40
2016-10-20,2.40,2.40,2.40,2.40,000,2.40
2016-10-19,2.40,2.40,2.40,2.40,000,2.40
2016-10-18,2.40,2.40,2.40,2.40,000,2.40
2016-10-17,2.40,2.40,2.40,2.40,000,2.40
2016-10-14,2.40,2.40,2.40,2.40,000,2.40
2016-10-13,2.40,2.40,2.40,2.40,000,2.40
2016-10-12,2.40,2.40,2.40,2.40,000,2.40
2016-10-11,2.40,2.40,2.40,2.40,000,2.40
2016-10-10,2.40,2.40,2.40,2.40,000,2.40
2016-10-07,2.40,2.40,2.40,2.40,000,2.40
2016-10-06,2.40,2.40,2.40,2.40,000,2.40
2016-10-05,2.40,2.40,2.40,2.40,000,2.40
2016-10-04,2.40,2.40,2.40,2.40,000,2.40
2016-10-03,2.40,2.40,2.40,2.40,000,2.40
2016-09-30,2.40,2.40,2.40,2.40,000,2.40
2016-09-29,2.40,2.40,2.40,2.40,000,2.40
2016-09-28,2.40,2.40,2.40,2.40,000,2.40
2016-09-27,2.40,2.40,2.40,2.40,000,2.40
2016-09-26,2.40,2.40,2.40,2.40,000,2.40
2016-09-23,2.40,2.40,2.40,2.40,000,2.40
2016-09-22,2.40,2.40,2.40,2.40,000,2.40
2016-09-21,2.40,2.40,2.40,2.40,000,2.40
2016-09-20,2.40,2.40,2.40,2.40,000,2.40
2016-09-19,2.40,2.40,2.40,2.40,000,2.40
2016-09-16,2.40,2.40,2.40,2.40,000,2.40
2016-09-15,2.40,2.40,2.40,2.40,000,2.40
2016-09-14,2.40,2.40,2.40,2.40,000,2.40
2016-09-13,2.40,2.40,2.40,2.40,000,2.40
2016-09-12,2.40,2.40,2.40,2.40,000,2.40
2016-09-09,2.40,2.40,2.40,2.40,000,2.40
2016-09-08,2.40,2.40,2.40,2.40,000,2.40
2016-09-07,2.40,2.40,2.40,2.40,000,2.40
2016-09-06,2.40,2.40,2.40,2.40,000,2.40
2016-09-05,2.40,2.40,2.40,2.40,000,2.40
2016-09-02,2.40,2.40,2.40,2.40,000,2.40
2016-09-01,2.40,2.40,2.40,2.40,000,2.40
2016-08-31,2.40,2.40,2.40,2.40,000,2.40
2016-08-30,2.40,2.40,2.40,2.40,000,2.40
2016-08-29,2.40,2.40,2.40,2.40,000,2.40
2016-08-26,2.40,2.40,2.40,2.40,000,2.40
2016-08-25,2.40,2.40,2.40,2.40,000,2.40
2016-08-24,2.40,2.40,2.40,2.40,000,2.40
2016-08-23,2.40,2.40,2.40,2.40,000,2.40
2016-08-22,2.40,2.40,2.40,2.40,000,2.40
2016-08-19,2.40,2.40,2.40,2.40,000,2.40
2016-08-18,2.40,2.40,2.40,2.40,000,2.40
2016-08-17,2.40,2.40,2.40,2.40,000,2.40
2016-08-16,2.40,2.40,2.40,2.40,000,2.40
2016-08-15,2.40,2.40,2.40,2.40,000,2.40
2016-08-12,2.40,2.40,2.40,2.40,000,2.40
2016-08-11,2.40,2.40,2.40,2.40,000,2.40
2016-08-10,2.40,2.40,2.40,2.40,000,2.40
2016-08-09,2.40,2.40,2.40,2.40,000,2.40
2016-08-08,2.40,2.40,2.40,2.40,000,2.40
2016-08-05,2.40,2.40,2.40,2.40,000,2.40
2016-08-04,2.40,2.40,2.40,2.40,000,2.40
2016-08-03,2.40,2.40,2.40,2.40,000,2.40
2016-08-02,2.40,2.40,2.40,2.40,000,2.40
2016-08-01,2.40,2.40,2.40,2.40,000,2.40
2016-07-29,2.40,2.40,2.40,2.40,000,2.40
2016-07-28,2.40,2.40,2.40,2.40,000,2.40
2016-07-27,2.40,2.40,2.40,2.40,000,2.40
2016-07-26,2.40,2.40,2.40,2.40,000,2.40
2016-07-25,2.40,2.40,2.40,2.40,000,2.40
2016-07-22,2.40,2.40,2.40,2.40,000,2.40
2016-07-21,2.40,2.40,2.40,2.40,000,2.40
2016-07-20,2.40,2.40,2.40,2.40,000,2.40
2016-07-19,2.40,2.40,2.40,2.40,000,2.40
2016-07-18,2.40,2.40,2.40,2.40,000,2.40
2016-07-15,2.40,2.40,2.40,2.40,000,2.40
2016-07-14,2.40,2.40,2.40,2.40,000,2.40
2016-07-13,2.40,2.40,2.40,2.40,000,2.40
2016-07-12,2.40,2.40,2.40,2.40,000,2.40
2016-07-11,2.40,2.40,2.40,2.40,000,2.40
2016-07-08,2.40,2.40,2.40,2.40,000,2.40
2016-07-07,2.40,2.40,2.40,2.40,000,2.40
2016-07-06,2.40,2.40,2.40,2.40,000,2.40
2016-07-05,2.40,2.40,2.40,2.40,000,2.40
2016-07-04,2.40,2.40,2.40,2.40,000,2.40
2016-07-01,2.40,2.40,2.40,2.40,000,2.40
2016-06-30,2.40,2.40,2.40,2.40,000,2.40
2016-06-29,2.40,2.40,2.40,2.40,000,2.40
2016-06-28,2.40,2.40,2.40,2.40,000,2.40
2016-06-27,2.40,2.40,2.40,2.40,000,2.40
2016-06-24,2.40,2.40,2.40,2.40,000,2.40
2016-06-23,2.40,2.40,2.40,2.40,000,2.40
2016-06-22,2.40,2.40,2.40,2.40,000,2.40
2016-06-21,2.40,2.40,2.40,2.40,000,2.40
2016-06-20,2.40,2.40,2.40,2.40,000,2.40
2016-06-17,2.40,2.40,2.40,2.40,000,2.40
2016-06-16,2.40,2.40,2.40,2.40,000,2.40
2016-06-15,2.40,2.40,2.40,2.40,000,2.40
2016-06-14,2.40,2.40,2.40,2.40,000,2.40
2016-06-13,2.40,2.40,2.40,2.40,000,2.40
2016-06-10,2.40,2.40,2.40,2.40,000,2.40
2016-06-09,2.40,2.40,2.40,2.40,000,2.40
2016-06-08,2.40,2.40,2.40,2.40,000,2.40
2016-06-07,2.40,2.40,2.40,2.40,000,2.40
2016-06-06,2.40,2.40,2.40,2.40,000,2.40
2016-06-03,2.40,2.40,2.40,2.40,000,2.40
2016-06-02,2.40,2.40,2.40,2.40,000,960.00
2016-06-01,2.40,2.40,2.40,2.40,000,960.00
2016-05-31,2.40,2.40,2.40,2.40,000,384000.0153
2016-05-30,2.40,2.40,2.40,2.40,000,384000.0153
2016-05-27,2.40,2.40,2.40,2.40,000,384000.0153
2016-05-26,2.40,2.40,2.40,2.40,000,384000.0153
2016-05-25,2.40,2.40,2.40,2.40,000,384000.0153
2016-05-24,2.40,2.40,2.40,2.40,000,384000.0153
2016-05-23,2.40,2.40,2.40,2.40,000,384000.0153
2016-05-20,2.40,2.40,2.40,2.40,000,384000.0153
2016-05-19,2.40,2.40,2.40,2.40,000,384000.0153
2016-05-18,2.40,2.40,2.40,2.40,000,384000.0153
2016-05-17,2.40,2.40,2.40,2.40,000,384000.0153
2016-05-16,2.40,2.40,2.40,2.40,000,384000.0153
2016-05-13,2.40,2.40,2.40,2.40,000,384000.0153
2016-05-12,2.40,2.40,2.40,2.40,000,384000.0153
2016-05-11,2.40,2.40,2.40,2.40,000,384000.0153
2016-05-10,2.40,2.40,2.40,2.40,000,384000.0153
2016-05-09,2.40,2.40,2.40,2.40,000,384000.0153
2016-05-06,2.40,2.40,2.40,2.40,000,384000.0153
2016-05-05,2.40,2.40,2.40,2.40,000,384000.0153
2016-05-04,2.40,2.40,2.40,2.40,000,384000.0153
2016-05-03,2.40,2.40,2.40,2.40,000,384000.0153
2016-05-02,2.40,2.40,2.40,2.40,000,384000.0153
2016-04-29,0.006,0.006,0.006,0.006,000,960.00
2016-04-28,0.006,0.006,0.006,0.006,000,960.00
2016-04-27,0.00,0.00,0.00,0.00,000,2.40
2016-04-26,0.00,0.00,0.00,0.00,000,2.40
2016-04-25,0.00,0.00,0.00,0.00,000,2.40
2016-04-22,0.00,0.00,0.00,0.00,000,2.40
2016-04-21,0.00,0.00,0.00,0.00,000,2.40
2016-04-20,0.00,0.00,0.00,0.00,000,2.40
2016-04-19,0.00,0.00,0.00,0.00,000,2.40
2016-04-18,0.00,0.00,0.00,0.00,000,2.40
2016-04-15,0.00,0.00,0.00,0.00,000,2.40
2016-04-14,0.00,0.00,0.00,0.00,000,2.40
2016-04-13,0.00,0.00,0.00,0.00,000,2.40
2016-04-12,0.00,0.00,0.00,0.00,000,2.40
2016-04-11,0.00,0.00,0.00,0.00,000,2.40
2016-04-08,0.00,0.00,0.00,0.00,000,2.40
2016-04-07,0.00,0.00,0.00,0.00,000,2.40
2016-04-06,0.00,0.00,0.00,0.00,000,2.40
2016-04-05,0.00,0.00,0.00,0.00,000,2.40
2016-04-04,0.00,0.00,0.00,0.00,000,2.40
2016-04-01,0.00,0.00,0.00,0.00,000,2.40
2016-03-31,0.00,0.00,0.00,0.00,000,2.40
2016-03-30,0.00,0.00,0.00,0.00,000,2.40
2016-03-29,0.00,0.00,0.00,0.00,000,2.40
2016-03-28,0.00,0.00,0.00,0.00,000,2.40
2016-03-25,0.00,0.00,0.00,0.00,000,2.40
2016-03-24,0.00,0.00,0.00,0.00,000,2.40
2016-03-23,0.00,0.00,0.00,0.00,000,2.40
2016-03-22,0.00,0.00,0.00,0.00,000,2.40
2016-03-21,0.00,0.00,0.00,0.00,000,2.40
2016-03-18,0.00,0.00,0.00,0.00,000,2.40
2016-03-17,0.00,0.00,0.00,0.00,000,2.40
2016-03-16,0.00,0.00,0.00,0.00,000,2.40
2016-03-15,0.00,0.00,0.00,0.00,000,2.40
2016-03-14,0.00,0.00,0.00,0.00,000,2.40
2016-03-11,0.00,0.00,0.00,0.00,000,2.40
2016-03-10,0.00,0.00,0.00,0.00,000,2.40
2016-03-09,0.00,0.00,0.00,0.00,000,2.40
2016-03-08,0.00,0.00,0.00,0.00,000,2.40
2016-03-07,0.00,0.00,0.00,0.00,000,2.40
2016-03-04,0.00,0.00,0.00,0.00,000,2.40
2016-03-03,0.00,0.00,0.00,0.00,000,2.40
2016-03-02,0.00,0.00,0.00,0.00,000,2.40
2016-03-01,0.00,0.00,0.00,0.00,000,2.40
2016-02-29,0.00,0.00,0.00,0.00,000,2.40
2016-02-26,0.00,0.00,0.00,0.00,000,2.40
2016-02-25,0.00,0.00,0.00,0.00,000,2.40
2016-02-24,0.00,0.00,0.00,0.00,000,2.40
2016-02-23,0.00,0.00,0.00,0.00,000,2.40
2016-02-22,0.00,0.00,0.00,0.00,000,2.40
2016-02-19,0.00,0.00,0.00,0.00,000,2.40
2016-02-18,0.00,0.00,0.00,0.00,000,2.40
2016-02-17,0.00,0.00,0.00,0.00,000,2.40
2016-02-16,0.00,0.00,0.00,0.00,000,2.40
2016-02-15,0.00,0.00,0.00,0.00,000,2.40
2016-02-12,0.00,0.00,0.00,0.00,000,2.40
2016-02-11,0.00,0.00,0.00,0.00,000,2.40
2016-02-10,0.00,0.00,0.00,0.00,000,2.40
2016-02-09,0.00,0.00,0.00,0.00,000,2.40
2016-02-08,0.00,0.00,0.00,0.00,000,2.40
2016-02-05,0.00,0.00,0.00,0.00,000,2.40
2016-02-04,0.00,0.00,0.00,0.00,000,2.40
2016-02-03,0.00,0.00,0.00,0.00,000,2.40
2016-02-02,0.00,0.00,0.00,0.00,000,2.40
2016-02-01,0.00,0.00,0.00,0.00,000,2.40
2016-01-29,0.00,0.00,0.00,0.00,000,2.40
2016-01-28,0.00,0.00,0.00,0.00,000,2.40
2016-01-27,0.00,0.00,0.00,0.00,000,2.40
2016-01-26,0.00,0.00,0.00,0.00,000,2.40
2016-01-25,0.00,0.00,0.00,0.00,000,2.40
2016-01-22,0.00,0.00,0.00,0.00,000,2.40
2016-01-21,0.00,0.00,0.00,0.00,000,2.40
2016-01-20,0.00,0.00,0.00,0.00,000,2.40
2016-01-19,0.00,0.00,0.00,0.00,000,2.40
2016-01-18,0.00,0.00,0.00,0.00,000,2.40
2016-01-15,0.00,0.00,0.00,0.00,000,2.40
2016-01-14,0.00,0.00,0.00,0.00,000,2.40
2016-01-13,0.00,0.00,0.00,0.00,000,2.40
2016-01-12,0.00,0.00,0.00,0.00,000,2.40
2016-01-11,0.00,0.00,0.00,0.00,000,2.40
2016-01-08,0.00,0.00,0.00,0.00,000,2.40
2016-01-07,0.00,0.00,0.00,0.00,000,2.40
2016-01-06,0.00,0.00,0.00,0.00,000,2.40
2016-01-05,0.00,0.00,0.00,0.00,000,2.40
2016-01-04,0.00,0.00,0.00,0.00,000,2.40
2016-01-01,0.00,0.00,0.00,0.00,000,2.40
2015-12-31,0.00,0.00,0.00,0.00,000,2.40
2015-12-30,0.00,0.00,0.00,0.00,000,2.40
2015-12-29,0.00,0.00,0.00,0.00,000,2.40
2015-12-28,0.00,0.00,0.00,0.00,000,2.40
2015-12-25,0.00,0.00,0.00,0.00,000,2.40
2015-12-24,0.00,0.00,0.00,0.00,000,2.40
2015-12-23,0.00,0.00,0.00,0.00,000,2.40
2015-12-22,0.00,0.00,0.00,0.00,000,2.40
2015-12-21,0.00,0.00,0.00,0.00,000,2.40
2015-12-18,0.00,0.00,0.00,0.00,000,2.40
2015-12-17,0.00,0.00,0.00,0.00,000,2.40
2015-12-16,0.00,0.00,0.00,0.00,000,2.40
2015-12-15,0.00,0.00,0.00,0.00,000,2.40
2015-12-14,0.00,0.00,0.00,0.00,000,2.40
2015-12-11,0.00,0.00,0.00,0.00,000,2.40
2015-12-10,0.00,0.00,0.00,0.00,000,2.40
2015-12-09,0.00,0.00,0.00,0.00,000,2.40
2015-12-08,0.00,0.00,0.00,0.00,000,2.40
2015-12-07,0.00,0.00,0.00,0.00,000,2.40
2015-12-04,0.00,0.00,0.00,0.00,000,2.40
2015-12-03,0.00,0.00,0.00,0.00,000,2.40
2015-12-02,0.00,0.00,0.00,0.00,000,2.40
2015-12-01,0.00,0.00,0.00,0.00,000,2.40
2015-11-30,0.00,0.00,0.00,0.00,000,2.40
2015-11-27,0.00,0.00,0.00,0.00,000,2.40
2015-11-26,0.00,0.00,0.00,0.00,000,2.40
2015-11-25,0.00,0.00,0.00,0.00,000,2.40
2015-11-24,0.00,0.00,0.00,0.00,000,2.40
2015-11-23,0.00,0.00,0.00,0.00,000,2.40
2015-11-20,0.00,0.00,0.00,0.00,000,2.40
2015-11-19,0.00,0.00,0.00,0.00,000,2.40
2015-11-18,0.00,0.00,0.00,0.00,000,2.40
2015-11-17,0.00,0.00,0.00,0.00,000,2.40
2015-11-16,0.00,0.00,0.00,0.00,000,2.40
2015-11-13,0.00,0.00,0.00,0.00,000,2.40
2015-11-12,0.00,0.00,0.00,0.00,000,2.40
2015-11-11,0.00,0.00,0.00,0.00,000,2.40
2015-11-10,0.00,0.00,0.00,0.00,000,2.40
2015-11-09,0.00,0.00,0.00,0.00,000,2.40
2015-11-06,0.00,0.00,0.00,0.00,000,2.40
2015-11-05,0.00,0.00,0.00,0.00,000,2.40
2015-11-04,0.00,0.00,0.00,0.00,000,2.40
2015-11-03,0.00,0.00,0.00,0.00,000,2.40
2015-11-02,0.00,0.00,0.00,0.00,000,2.40
2015-10-30,0.00,0.00,0.00,0.00,000,2.40
2015-10-29,0.00,0.00,0.00,0.00,000,2.40
2015-10-28,0.00,0.00,0.00,0.00,000,2.40
2015-10-27,0.00,0.00,0.00,0.00,000,2.40
2015-10-26,0.00,0.00,0.00,0.00,000,2.40
2015-10-23,0.00,0.00,0.00,0.00,000,2.40
2015-10-22,0.00,0.00,0.00,0.00,000,2.40
2015-10-21,0.00,0.00,0.00,0.00,000,2.40
2015-10-20,0.00,0.00,0.00,0.00,000,2.40
2015-10-19,0.00,0.00,0.00,0.00,000,2.40
2015-10-16,0.00,0.00,0.00,0.00,000,2.40
2015-10-15,0.00,0.00,0.00,0.00,000,2.40
2015-10-14,0.00,0.00,0.00,0.00,000,2.40
2015-10-13,0.00,0.00,0.00,0.00,000,2.40
2015-10-12,0.00,0.00,0.00,0.00,000,2.40
2015-10-09,0.00,0.00,0.00,0.00,000,2.40
2015-10-08,0.00,0.00,0.00,0.00,000,2.40
2015-10-07,0.00,0.00,0.00,0.00,000,2.40
2015-10-06,0.00,0.00,0.00,0.00,000,2.40
2015-10-05,0.00,0.00,0.00,0.00,000,2.40
2015-10-02,0.00,0.00,0.00,0.00,000,2.40
2015-10-01,0.00,0.00,0.00,0.00,000,2.40
2015-09-30,0.00,0.00,0.00,0.00,000,2.40
2015-09-29,0.00,0.00,0.00,0.00,000,2.40
2015-09-28,0.00,0.00,0.00,0.00,000,2.40
2015-09-25,0.00,0.00,0.00,0.00,000,2.40
2015-09-24,0.00,0.00,0.00,0.00,000,2.40
2015-09-23,0.00,0.00,0.00,0.00,000,2.40
2015-09-22,0.00,0.00,0.00,0.00,000,2.40
2015-09-21,0.00,0.00,0.00,0.00,000,2.40
2015-09-18,0.00,0.00,0.00,0.00,000,2.40
2015-09-17,0.00,0.00,0.00,0.00,000,2.40
2015-09-16,0.00,0.00,0.00,0.00,000,2.40
2015-09-15,0.00,0.00,0.00,0.00,000,2.40
2015-09-14,0.00,0.00,0.00,0.00,000,2.40
2015-09-11,0.00,0.00,0.00,0.00,000,2.40
2015-09-10,0.00,0.00,0.00,0.00,000,2.40
2015-09-09,0.00,0.00,0.00,0.00,000,2.40
2015-09-08,0.00,0.00,0.00,0.00,000,2.40
2015-09-07,0.00,0.00,0.00,0.00,000,2.40
2015-09-04,0.00,0.00,0.00,0.00,000,2.40
2015-09-03,0.00,0.00,0.00,0.00,000,2.40
2015-09-02,0.00,0.00,0.00,0.00,000,2.40
2015-09-01,0.00,0.00,0.00,0.00,000,2.40
2015-08-31,0.00,0.00,0.00,0.00,000,2.40
2015-08-28,0.00,0.00,0.00,0.00,000,2.40
2015-08-27,0.00,0.00,0.00,0.00,000,2.40
2015-08-26,0.00,0.00,0.00,0.00,000,2.40
2015-08-25,0.00,0.00,0.00,0.00,000,2.40
2015-08-24,0.00,0.00,0.00,0.00,000,2.40
2015-08-20,0.00,0.00,0.00,0.00,000,2.40
2015-08-19,0.00,0.00,0.00,0.00,000,2.40
2015-08-18,0.00,0.00,0.00,0.00,000,2.40
2015-08-17,0.00,0.00,0.00,0.00,000,2.40
2015-08-14,0.00,0.00,0.00,0.00,000,2.40
2015-08-13,0.00,0.00,0.00,0.00,000,2.40
2015-08-12,0.00,0.00,0.00,0.00,000,2.40
2015-08-11,0.00,0.00,0.00,0.00,000,2.40
2015-08-10,0.00,0.00,0.00,0.00,000,2.40
2015-08-07,0.00,0.00,0.00,0.00,000,2.40
2015-08-06,0.00,0.00,0.00,0.00,000,2.40
2015-08-05,0.00,0.00,0.00,0.00,000,2.40
2015-08-04,0.00,0.00,0.00,0.00,000,2.40
2015-08-03,0.00,0.00,0.00,0.00,000,2.40
2015-07-31,0.00,0.00,0.00,0.00,000,2.40
2015-07-30,0.00,0.00,0.00,0.00,000,2.40
2015-07-29,0.00,0.00,0.00,0.00,000,2.40
2015-07-28,0.00,0.00,0.00,0.00,000,2.40
2015-07-27,0.00,0.00,0.00,0.00,000,2.40
2015-07-24,0.00,0.00,0.00,0.00,000,2.40
2015-07-23,0.00,0.00,0.00,0.00,000,2.40
2015-07-22,0.00,0.00,0.00,0.00,000,2.40
2015-07-21,0.00,0.00,0.00,0.00,000,2.40
2015-07-20,0.00,0.00,0.00,0.00,000,2.40
2015-07-17,0.00,0.00,0.00,0.00,000,2.40
2015-07-16,0.00,0.00,0.00,0.00,000,2.40
2015-07-15,0.00,0.00,0.00,0.00,000,2.40
2015-07-14,0.00,0.00,0.00,0.00,000,2.40
2015-07-13,0.00,0.00,0.00,0.00,000,2.40
2015-07-10,0.00,0.00,0.00,0.00,000,2.40
2015-07-09,0.00,0.00,0.00,0.00,000,2.40
2015-07-08,0.00,0.00,0.00,0.00,000,2.40
2015-07-07,0.00,0.00,0.00,0.00,000,2.40
2015-07-06,0.00,0.00,0.00,0.00,000,2.40
2015-07-03,0.00,0.00,0.00,0.00,000,2.40
2015-07-02,0.00,0.00,0.00,0.00,000,2.40
2015-07-01,0.00,0.00,0.00,0.00,000,2.40
2015-06-30,0.00,0.00,0.00,0.00,000,2.40
2015-06-29,0.00,0.00,0.00,0.00,000,2.40
2015-06-26,0.00,0.00,0.00,0.00,000,2.40
2015-06-25,0.00,0.00,0.00,0.00,000,2.40
2015-06-24,0.00,0.00,0.00,0.00,000,2.40
2015-06-23,0.00,0.00,0.00,0.00,000,2.40
2015-06-22,0.00,0.00,0.00,0.00,000,2.40
2015-06-19,0.00,0.00,0.00,0.00,000,2.40
2015-06-18,0.00,0.00,0.00,0.00,000,2.40
2015-06-17,0.00,0.00,0.00,0.00,000,2.40
2015-06-16,0.00,0.00,0.00,0.00,000,2.40
2015-06-15,0.00,0.00,0.00,0.00,000,2.40
2015-06-12,0.00,0.00,0.00,0.00,000,2.40
2015-06-11,0.00,0.00,0.00,0.00,000,2.40
2015-06-10,0.00,0.00,0.00,0.00,000,2.40
2015-06-09,0.00,0.00,0.00,0.00,000,2.40
2015-06-08,0.00,0.00,0.00,0.00,000,2.40
2015-06-05,0.00,0.00,0.00,0.00,000,2.40
2015-06-04,0.00,0.00,0.00,0.00,000,2.40
2015-06-03,0.00,0.00,0.00,0.00,000,2.40
2015-06-02,0.00,0.00,0.00,0.00,000,2.40
2015-06-01,0.00,0.00,0.00,0.00,000,2.40
2015-05-29,0.00,0.00,0.00,0.00,000,2.40
2015-05-28,0.00,0.00,0.00,0.00,000,2.40
2015-05-27,0.00,0.00,0.00,0.00,000,2.40
2015-05-26,0.00,0.00,0.00,0.00,000,2.40
2015-05-25,0.00,0.00,0.00,0.00,000,2.40
2015-05-22,0.00,0.00,0.00,0.00,000,2.40
2015-05-21,0.00,0.00,0.00,0.00,000,2.40
2015-05-20,0.00,0.00,0.00,0.00,000,2.40
2015-05-19,0.00,0.00,0.00,0.00,000,2.40
2015-05-18,0.00,0.00,0.00,0.00,000,2.40
2015-05-15,0.00,0.00,0.00,0.00,000,2.40
2015-05-14,0.00,0.00,0.00,0.00,000,2.40
2015-05-13,0.00,0.00,0.00,0.00,000,2.40
2015-05-12,0.00,0.00,0.00,0.00,000,2.40
2015-05-11,0.00,0.00,0.00,0.00,000,2.40
2015-05-08,0.00,0.00,0.00,0.00,000,2.40
2015-05-07,0.00,0.00,0.00,0.00,000,2.40
2015-05-06,0.00,0.00,0.00,0.00,000,2.40
2015-05-05,0.00,0.00,0.00,0.00,000,2.40
2015-05-04,0.00,0.00,0.00,0.00,000,2.40
2015-05-01,0.00,0.00,0.00,0.00,000,2.40
2015-04-30,0.00,0.00,0.00,0.00,000,2.40
2015-04-29,0.00,0.00,0.00,0.00,000,2.40
2015-04-28,0.00,0.00,0.00,0.00,000,2.40
2015-04-27,0.00,0.00,0.00,0.00,000,2.40
2015-04-24,0.00,0.00,0.00,0.00,000,2.40
2015-04-23,0.00,0.00,0.00,0.00,000,2.40
2015-04-22,0.00,0.00,0.00,0.00,000,2.40
2015-04-21,0.00,0.00,0.00,0.00,000,2.40
2015-04-20,0.00,0.00,0.00,0.00,000,2.40
2015-04-17,0.00,0.00,0.00,0.00,000,2.40
2015-04-16,0.00,0.00,0.00,0.00,000,2.40
2015-04-15,0.00,0.00,0.00,0.00,000,2.40
2015-04-14,0.00,0.00,0.00,0.00,000,2.40
2015-04-13,0.00,0.00,0.00,0.00,000,2.40
2015-04-10,0.00,0.00,0.00,0.00,000,2.40
2015-04-09,0.00,0.00,0.00,0.00,000,2.40
2015-04-08,0.00,0.00,0.00,0.00,000,2.40
2015-04-07,0.00,0.00,0.00,0.00,000,2.40
2015-04-06,0.00,0.00,0.00,0.00,000,2.40
2015-04-03,0.00,0.00,0.00,0.00,000,2.40
2015-04-02,0.00,0.00,0.00,0.00,000,2.40
2015-04-01,0.00,0.00,0.00,0.00,000,2.40
2015-03-31,0.00,0.00,0.00,0.00,000,2.40
2015-03-30,0.00,0.00,0.00,0.00,000,2.40
2015-03-27,0.00,0.00,0.00,0.00,000,2.40
2015-03-26,0.00,0.00,0.00,0.00,000,2.40
2015-03-25,0.00,0.00,0.00,0.00,000,2.40
2015-03-24,0.00,0.00,0.00,0.00,000,2.40
2015-03-23,0.00,0.00,0.00,0.00,000,2.40
2015-03-20,0.00,0.00,0.00,0.00,000,2.40
2015-03-19,0.00,0.00,0.00,0.00,000,2.40
2015-03-18,0.00,0.00,0.00,0.00,000,2.40
2015-03-17,0.00,0.00,0.00,0.00,000,2.40
2015-03-16,0.00,0.00,0.00,0.00,30700,2.40
2015-03-13,0.00,0.00,0.00,0.00,000,2.80
2015-03-12,0.00,0.00,0.00,0.00,3200,2.80
2015-03-11,0.00,0.00,0.00,0.00,5100,2.80
2015-03-10,0.00,0.00,0.00,0.00,15100,2.80
2015-03-09,0.00,0.00,0.00,0.00,1000,2.80
2015-03-06,0.00,0.00,0.00,0.00,6900,3.20
2015-03-05,0.00,0.00,0.00,0.00,4800,2.80
2015-03-04,0.00,0.00,0.00,0.00,600,3.20
2015-03-03,0.00,0.00,0.00,0.00,3400,2.80
2015-03-02,0.00,0.00,0.00,0.00,15200,2.80
2015-02-27,0.00,0.00,0.00,0.00,19000,3.20
2015-02-26,0.00,0.00,0.00,0.00,3100,3.60
2015-02-25,0.00,0.00,0.00,0.00,5200,3.20
2015-02-24,0.00,0.00,0.00,0.00,12900,3.60
2015-02-23,0.00,0.00,0.00,0.00,4200,3.60
2015-02-20,0.00,0.00,0.00,0.00,2000,3.60
2015-02-19,0.00,0.00,0.00,0.00,5200,3.60
2015-02-18,0.00,0.00,0.00,0.00,11800,3.20
2015-02-17,0.00,0.00,0.00,0.00,000,4.00
2015-02-16,0.00,0.00,0.00,0.00,000,4.00
2015-02-13,0.00,0.00,0.00,0.00,1100,4.00
2015-02-12,0.00,0.00,0.00,0.00,11400,3.60
2015-02-11,0.00,0.00,0.00,0.00,000,4.40
2015-02-10,0.00,0.00,0.00,0.00,000,4.40
2015-02-09,0.00,0.00,0.00,0.00,000,4.40
2015-02-06,0.00,0.00,0.00,0.00,13900,4.40
2015-02-05,0.00,0.00,0.00,0.00,600,4.80
2015-02-04,0.00,0.00,0.00,0.00,16900,4.40
2015-02-03,0.00,0.00,0.00,0.00,5600,4.40
2015-02-02,0.00,0.00,0.00,0.00,5200,4.40
2015-01-30,0.00,0.00,0.00,0.00,1100,4.40
2015-01-29,0.00,0.00,0.00,0.00,000,4.40
2015-01-28,0.00,0.00,0.00,0.00,4800,4.40
2015-01-27,0.00,0.00,0.00,0.00,7200,4.40
2015-01-26,0.00,0.00,0.00,0.00,000,4.80
2015-01-23,0.00,0.00,0.00,0.00,3400,4.80
2015-01-22,0.00,0.00,0.00,0.00,11900,4.40
2015-01-21,0.00,0.00,0.00,0.00,6200,4.80
2015-01-20,0.00,0.00,0.00,0.00,2500,5.20
2015-01-19,0.00,0.00,0.00,0.00,17300,6.00
2015-01-16,0.00,0.00,0.00,0.00,3000,5.60
2015-01-15,0.00,0.00,0.00,0.00,2500,5.20
2015-01-14,0.00,0.00,0.00,0.00,11000,5.60
2015-01-13,0.00,0.00,0.00,0.00,10500,5.20
2015-01-12,0.00,0.00,0.00,0.00,31900,6.40
2015-01-09,0.00,0.00,0.00,0.00,13200,4.40
2015-01-08,0.00,0.00,0.00,0.00,3000,4.80
2015-01-07,0.00,0.00,0.00,0.00,3100,4.80
2015-01-06,0.00,0.00,0.00,0.00,5300,4.80
2015-01-05,0.00,0.00,0.00,0.00,4000,5.20
2015-01-02,0.00,0.00,0.00,0.00,1200,5.20
2015-01-01,0.00,0.00,0.00,0.00,000,4.80
2014-12-31,0.00,0.00,0.00,0.00,2300,4.80
2014-12-30,0.00,0.00,0.00,0.00,700,4.40
2014-12-29,0.00,0.00,0.00,0.00,1900,4.40
2014-12-26,0.00,0.00,0.00,0.00,000,4.40
2014-12-25,0.00,0.00,0.00,0.00,000,4.40
2014-12-24,0.00,0.00,0.00,0.00,1700,4.40
2014-12-23,0.00,0.00,0.00,0.00,4100,4.40
2014-12-22,0.00,0.00,0.00,0.00,000,4.00
2014-12-19,0.00,0.00,0.00,0.00,6300,4.00
2014-12-18,0.00,0.00,0.00,0.00,2400,4.40
2014-12-17,0.00,0.00,0.00,0.00,900,4.00
2014-12-16,0.00,0.00,0.00,0.00,8500,4.40
2014-12-15,0.00,0.00,0.00,0.00,1700,3.60
2014-12-12,0.00,0.00,0.00,0.00,6300,3.60
2014-12-11,0.00,0.00,0.00,0.00,1400,3.60
2014-12-10,0.00,0.00,0.00,0.00,12000,4.00
2014-12-09,0.00,0.00,0.00,0.00,6300,4.40
2014-12-08,0.00,0.00,0.00,0.00,3600,4.40
2014-12-05,0.00,0.00,0.00,0.00,500,4.80
2014-12-04,0.00,0.00,0.00,0.00,2700,5.20
2014-12-03,0.00,0.00,0.00,0.00,2700,4.80
2014-12-02,0.00,0.00,0.00,0.00,2800,5.20
2014-12-01,0.00,0.00,0.00,0.00,7700,5.20
2014-11-28,0.00,0.00,0.00,0.00,1600,6.00
2014-11-27,0.00,0.00,0.00,0.00,2700,6.40
2014-11-26,0.00,0.00,0.00,0.00,4900,6.40
2014-11-25,0.00,0.00,0.00,0.00,2500,6.40
2014-11-24,0.00,0.00,0.00,0.00,10000,5.60
2014-11-21,0.00,0.00,0.00,0.00,000,5.20
2014-11-20,0.00,0.00,0.00,0.00,2400,5.20
2014-11-19,0.00,0.00,0.00,0.00,000,5.60
2014-11-18,0.00,0.00,0.00,0.00,1200,5.60
2014-11-17,0.00,0.00,0.00,0.00,11200,5.20
2014-11-14,0.00,0.00,0.00,0.00,6100,5.20
2014-11-13,0.00,0.00,0.00,0.00,3000,5.20
2014-11-12,0.00,0.00,0.00,0.00,3100,5.20
2014-11-11,0.00,0.00,0.00,0.00,1700,6.00
2014-11-10,0.00,0.00,0.00,0.00,4200,5.60
2014-11-07,0.00,0.00,0.00,0.00,12400,6.40
2014-11-06,0.00,0.00,0.00,0.00,800,6.40
2014-11-05,0.00,0.00,0.00,0.00,2100,6.40
2014-11-04,0.00,0.00,0.00,0.00,2300,6.40
2014-11-03,0.00,0.00,0.00,0.00,2000,6.80
2014-10-31,0.00,0.00,0.00,0.00,22300,6.40
2014-10-30,0.00,0.00,0.00,0.00,5300,6.80
2014-10-29,0.00,0.00,0.00,0.00,2700,7.20
2014-10-28,0.00,0.00,0.00,0.00,5400,6.80
2014-10-27,0.00,0.00,0.00,0.00,9300,6.80
2014-10-24,0.00,0.00,0.00,0.00,3600,7.60
2014-10-23,0.00,0.0001,0.00,0.00,46100,7.60
2014-10-22,0.00,0.00,0.00,0.00,9200,5.60
2014-10-21,0.00,0.00,0.00,0.00,4200,6.40
2014-10-20,0.00,0.00,0.00,0.00,2800,6.40
2014-10-17,0.00,0.00,0.00,0.00,500,6.40
2014-10-16,0.00,0.00,0.00,0.00,600,6.40
2014-10-15,0.00,0.00,0.00,0.00,1200,6.40
2014-10-14,0.00,0.00,0.00,0.00,6700,6.40
2014-10-13,0.00,0.00,0.00,0.00,1400,6.80
2014-10-10,0.00,0.00,0.00,0.00,400,6.40
2014-10-09,0.00,0.00,0.00,0.00,1400,6.80
2014-10-08,0.00,0.00,0.00,0.00,1200,6.00
2014-10-07,0.00,0.00,0.00,0.00,4400,6.80
2014-10-06,0.00,0.00,0.00,0.00,13700,6.00
2014-10-03,0.00,0.00,0.00,0.00,500,7.20
2014-10-02,0.00,0.00,0.00,0.00,8800,7.60
2014-10-01,0.00,0.00,0.00,0.00,1900,7.60
2014-09-30,0.00,0.00,0.00,0.00,4800,7.60
2014-09-29,0.00,0.00,0.00,0.00,000,8.00
2014-09-26,0.00,0.0001,0.00,0.0001,4500,8.40
2014-09-25,0.00,0.00,0.00,0.00,5400,8.00
2014-09-24,0.00,0.0001,0.00,0.00,10500,8.00
2014-09-23,0.0001,0.0001,0.00,0.00,29000,7.60
2014-09-22,0.0001,0.0001,0.0001,0.0001,7600,8.40
2014-09-19,0.0001,0.0001,0.0001,0.0001,9200,9.20
2014-09-18,0.0001,0.0001,0.0001,0.0001,1200,10.00
2014-09-17,0.0001,0.0001,0.0001,0.0001,3000,9.60
2014-09-16,0.0001,0.0001,0.0001,0.0001,5800,10.00
2014-09-15,0.0001,0.0001,0.0001,0.0001,5200,10.40
2014-09-12,0.0001,0.0001,0.0001,0.0001,2600,9.60
2014-09-11,0.0001,0.0001,0.0001,0.0001,3800,10.00
2014-09-10,0.0001,0.0001,0.0001,0.0001,7200,10.00
2014-09-09,0.0001,0.0001,0.0001,0.0001,500,10.40
2014-09-08,0.0001,0.0001,0.0001,0.0001,3300,10.40
2014-09-05,0.0001,0.0001,0.0001,0.0001,4000,10.40
2014-09-04,0.0001,0.0001,0.0001,0.0001,6400,10.80
2014-09-03,0.0001,0.0001,0.0001,0.0001,2600,11.60
2014-09-02,0.0001,0.0001,0.0001,0.0001,5100,11.20
2014-09-01,0.0001,0.0001,0.0001,0.0001,1000,11.60
2014-08-29,0.0001,0.0001,0.0001,0.0001,1200,12.00
2014-08-28,0.0001,0.0001,0.0001,0.0001,3500,11.60
2014-08-27,0.0001,0.0001,0.0001,0.0001,2600,12.00
2014-08-26,0.0001,0.0001,0.0001,0.0001,16100,12.00
2014-08-25,0.0001,0.0001,0.0001,0.0001,3900,13.20
2014-08-22,0.0001,0.0001,0.0001,0.0001,4200,13.60
2014-08-21,0.0001,0.0001,0.0001,0.0001,5400,14.80
2014-08-20,0.0001,0.0001,0.0001,0.0001,8400,14.80
2014-08-19,0.0001,0.0001,0.0001,0.0001,4500,13.20
2014-08-18,0.0001,0.0001,0.0001,0.0001,16200,14.40
2014-08-15,0.0001,0.0001,0.0001,0.0001,000,15.20
2014-08-14,0.0001,0.0001,0.0001,0.0001,000,15.20
2014-08-13,0.0001,0.0001,0.0001,0.0001,12100,15.20
2014-08-12,0.0001,0.0001,0.0001,0.0001,6800,13.20
2014-08-11,0.0001,0.0001,0.0001,0.0001,4700,11.60
2014-08-08,0.0001,0.0001,0.0001,0.0001,900,10.80
2014-08-07,0.0001,0.0001,0.0001,0.0001,300,10.80
2014-08-06,0.0001,0.0001,0.0001,0.0001,4800,10.80
2014-08-05,0.0001,0.0001,0.0001,0.0001,5900,11.60
2014-08-04,0.0001,0.0001,0.0001,0.0001,8300,11.60
2014-08-01,0.0001,0.0001,0.0001,0.0001,000,10.80
2014-07-31,0.0001,0.0001,0.0001,0.0001,000,10.80
2014-07-30,0.0001,0.0001,0.0001,0.0001,1500,10.80
2014-07-29,0.0001,0.0001,0.0001,0.0001,1300,11.20
2014-07-28,0.0001,0.0001,0.0001,0.0001,1300,10.80
2014-07-25,0.0001,0.0001,0.0001,0.0001,1200,11.60
2014-07-24,0.0001,0.0001,0.0001,0.0001,8600,11.20
2014-07-23,0.0001,0.0001,0.0001,0.0001,5800,10.80
2014-07-22,0.0001,0.0001,0.0001,0.0001,11000,10.40
2014-07-21,0.0001,0.0001,0.0001,0.0001,3700,10.00
2014-07-18,0.0001,0.0001,0.0001,0.0001,4500,10.80
2014-07-17,0.0001,0.0001,0.0001,0.0001,5400,10.80
2014-07-16,0.0001,0.0001,0.0001,0.0001,2600,10.80
2014-07-15,0.0001,0.0001,0.0001,0.0001,3500,11.20
2014-07-14,0.0001,0.0001,0.0001,0.0001,10500,10.80
2014-07-11,0.0001,0.0001,0.0001,0.0001,10200,12.00
2014-07-10,0.0001,0.0001,0.0001,0.0001,3700,11.60
2014-07-09,0.0001,0.0001,0.0001,0.0001,3900,11.20
2014-07-08,0.0001,0.0001,0.0001,0.0001,5400,11.20
2014-07-07,0.0001,0.0001,0.0001,0.0001,2100,11.20
2014-07-04,0.0001,0.0001,0.0001,0.0001,1800,11.60
2014-07-03,0.0001,0.0001,0.0001,0.0001,1700,11.60
2014-07-02,0.0001,0.0001,0.0001,0.0001,2800,11.20
2014-07-01,0.0001,0.0001,0.0001,0.0001,8500,11.20
2014-06-30,0.0001,0.0001,0.0001,0.0001,13500,10.80
2014-06-27,0.0001,0.0001,0.0001,0.0001,5700,12.00
2014-06-26,0.0001,0.0001,0.0001,0.0001,6100,12.40
2014-06-25,0.0001,0.0001,0.0001,0.0001,21500,10.80
2014-06-24,0.0001,0.0001,0.0001,0.0001,9800,12.40
2014-06-23,0.0001,0.0001,0.0001,0.0001,5600,13.20
2014-06-20,0.0001,0.0001,0.0001,0.0001,11800,12.40
2014-06-19,0.0001,0.0001,0.0001,0.0001,10900,12.00
2014-06-18,0.0001,0.0001,0.0001,0.0001,4800,12.40
2014-06-17,0.0001,0.0001,0.0001,0.0001,16000,13.20
2014-06-16,0.0001,0.0001,0.0001,0.0001,8300,14.40
2014-06-13,0.0001,0.0001,0.0001,0.0001,13400,14.80
2014-06-12,0.0001,0.0001,0.0001,0.0001,11200,12.80
2014-06-11,0.0001,0.0001,0.0001,0.0001,2700,14.40
2014-06-10,0.0001,0.0001,0.0001,0.0001,13400,14.80
2014-06-09,0.0001,0.0001,0.0001,0.0001,000,16.00
2014-06-06,0.0001,0.0001,0.0001,0.0001,5000,16.00
2014-06-05,0.0001,0.0001,0.0001,0.0001,6500,16.00
2014-06-04,0.0001,0.0001,0.0001,0.0001,2800,16.00
2014-06-03,0.0001,0.0001,0.0001,0.0001,2600,15.60
2014-06-02,0.0001,0.0001,0.0001,0.0001,12900,15.60
2014-05-30,0.0001,0.0001,0.0001,0.0001,14900,16.80
2014-05-29,0.0001,0.0001,0.0001,0.0001,000,19.60
2014-05-28,0.0001,0.0001,0.0001,0.0001,000,19.60
2014-05-27,0.0001,0.0001,0.0001,0.0001,4800,19.60
2014-05-26,0.0001,0.0001,0.0001,0.0001,2600,19.60
2014-05-23,0.0001,0.0001,0.0001,0.0001,4700,20.80
2014-05-22,0.0001,0.0001,0.0001,0.0001,10000,18.40
2014-05-21,0.0001,0.0001,0.0001,0.0001,7400,20.80
2014-05-20,0.0001,0.0001,0.0001,0.0001,4500,21.60
2014-05-19,0.0001,0.0001,0.0001,0.0001,1400,22.80
2014-05-16,0.0001,0.0001,0.0001,0.0001,1600,23.60
2014-05-15,0.0001,0.0001,0.0001,0.0001,4300,22.80
2014-05-14,0.0001,0.0002,0.0001,0.0001,2700,23.60
2014-05-13,0.0001,0.0001,0.0001,0.0001,2300,22.40
2014-05-12,0.0001,0.0001,0.0001,0.0001,2800,22.00
2014-05-09,0.0001,0.0001,0.0001,0.0001,3900,22.00
2014-05-08,0.0001,0.0001,0.0001,0.0001,1200,22.80
2014-05-07,0.0001,0.0001,0.0001,0.0001,600,23.20
2014-05-06,0.0001,0.0001,0.0001,0.0001,4200,23.20
2014-05-05,0.0001,0.0002,0.0001,0.0001,2200,23.60
2014-05-02,0.0002,0.0002,0.0001,0.0001,12800,24.00
2014-05-01,0.0002,0.0002,0.0002,0.0002,4300,25.20
2014-04-30,0.0002,0.0002,0.0002,0.0002,500,27.20
2014-04-29,0.0002,0.0002,0.0002,0.0002,2100,27.20
2014-04-28,0.0002,0.0002,0.0002,0.0002,1000,26.80
2014-04-25,0.0002,0.0002,0.0002,0.0002,000,27.20
2014-04-24,0.0002,0.0002,0.0002,0.0002,700,27.20
2014-04-23,0.0002,0.0002,0.0002,0.0002,1900,26.80
2014-04-22,0.0002,0.0002,0.0002,0.0002,3000,27.20
2014-04-21,0.0002,0.0002,0.0002,0.0002,000,28.00
2014-04-18,0.0002,0.0002,0.0002,0.0002,000,28.00
2014-04-17,0.0002,0.0002,0.0002,0.0002,8100,28.00
2014-04-16,0.0002,0.0002,0.0002,0.0002,300,28.80
2014-04-15,0.0002,0.0002,0.0002,0.0002,6200,28.00
2014-04-14,0.0002,0.0002,0.0002,0.0002,1800,29.60
2014-04-11,0.0002,0.0002,0.0002,0.0002,2700,29.60
2014-04-10,0.0002,0.0002,0.0002,0.0002,1500,29.20
2014-04-09,0.0002,0.0002,0.0002,0.0002,400,29.60
2014-04-08,0.0002,0.0002,0.0002,0.0002,4600,28.80
2014-04-07,0.0002,0.0002,0.0002,0.0002,900,30.00
2014-04-04,0.0002,0.0002,0.0002,0.0002,1000,30.00
2014-04-03,0.0002,0.0002,0.0002,0.0002,900,29.60
2014-04-02,0.0002,0.0002,0.0002,0.0002,3800,30.00
2014-04-01,0.0002,0.0002,0.0002,0.0002,7700,29.60
2014-03-31,0.0002,0.0002,0.0002,0.0002,3700,30.80
2014-03-28,0.0002,0.0002,0.0002,0.0002,5200,30.40
2014-03-27,0.0002,0.0002,0.0002,0.0002,1800,30.80
2014-03-26,0.0002,0.0002,0.0002,0.0002,2800,30.80
2014-03-25,0.0002,0.0002,0.0002,0.0002,5600,31.20
2014-03-24,0.0002,0.0002,0.0002,0.0002,8000,31.20
2014-03-21,0.0002,0.0002,0.0002,0.0002,4700,29.60
2014-03-20,0.0002,0.0002,0.0002,0.0002,6300,27.60
2014-03-19,0.0002,0.0002,0.0002,0.0002,26300,29.20
2014-03-18,0.0002,0.0002,0.0002,0.0002,000,27.20
2014-03-17,0.0002,0.0002,0.0002,0.0002,000,27.20
2014-03-14,0.0002,0.0002,0.0002,0.0002,000,27.20
2014-03-13,0.0002,0.0002,0.0002,0.0002,000,27.20
2014-03-12,0.0002,0.0002,0.0002,0.0002,000,27.20
2014-03-11,0.0002,0.0002,0.0002,0.0002,2300,27.20
2014-03-10,0.0002,0.0002,0.0002,0.0002,1600,26.40
2014-03-07,0.0002,0.0002,0.0002,0.0002,2200,26.80
2014-03-06,0.0002,0.0002,0.0002,0.0002,3300,27.60
2014-03-05,0.0002,0.0002,0.0002,0.0002,3000,25.20
2014-03-04,0.0002,0.0002,0.0002,0.0002,2200,27.20
2014-03-03,0.0002,0.0002,0.0002,0.0002,2900,27.20
2014-02-28,0.0002,0.0002,0.0002,0.0002,800,26.40
2014-02-27,0.0002,0.0002,0.0002,0.0002,1200,27.20
2014-02-26,0.0002,0.0002,0.0002,0.0002,6400,27.20
2014-02-25,0.0002,0.0002,0.0002,0.0002,7000,28.00
2014-02-24,0.0002,0.0002,0.0002,0.0002,4000,26.40
2014-02-21,0.0002,0.0002,0.0001,0.0002,4700,24.80
2014-02-20,0.0001,0.0002,0.0001,0.0001,1700,24.00
2014-02-19,0.0001,0.0001,0.0001,0.0001,3300,23.60
2014-02-18,0.0001,0.0002,0.0001,0.0001,4800,23.60
2014-02-17,0.0001,0.0001,0.0001,0.0001,6000,22.80
2014-02-14,0.0001,0.0001,0.0001,0.0001,6900,23.20
2014-02-13,0.0001,0.0001,0.0001,0.0001,5400,23.20
2014-02-12,0.0001,0.0001,0.0001,0.0001,2800,23.20
2014-02-11,0.0001,0.0001,0.0001,0.0001,12800,23.20
2014-02-10,0.0001,0.0002,0.0001,0.0001,1400,23.20
2014-02-07,0.0001,0.0002,0.0001,0.0001,4100,23.60
2014-02-06,0.0001,0.0002,0.0001,0.0001,6300,23.60
2014-02-05,0.0001,0.0002,0.0001,0.0001,6300,24.00
2014-02-04,0.0002,0.0002,0.0001,0.0001,5000,23.60
2014-02-03,0.0002,0.0002,0.0002,0.0002,4500,24.80
2014-01-31,0.0002,0.0002,0.0002,0.0002,4700,28.00
2014-01-30,0.0002,0.0002,0.0002,0.0002,8300,27.60
2014-01-29,0.0002,0.0002,0.0002,0.0002,6200,28.00
2014-01-28,0.0002,0.0002,0.0002,0.0002,7600,28.80
2014-01-27,0.0002,0.0002,0.0002,0.0002,000,29.60
2014-01-24,0.0002,0.0002,0.0002,0.0002,13500,29.60
2014-01-23,0.0002,0.0002,0.0002,0.0002,2300,26.40
2014-01-22,0.0002,0.0002,0.0002,0.0002,3600,26.40
2014-01-21,0.0002,0.0002,0.0002,0.0002,3600,26.40
2014-01-20,0.0001,0.0002,0.0001,0.0002,7700,26.80
2014-01-17,0.0001,0.0001,0.0001,0.0001,6800,22.40
2014-01-16,0.0001,0.0001,0.0001,0.0001,12600,21.20
2014-01-15,0.0001,0.0001,0.0001,0.0001,1200,20.40
2014-01-14,0.0001,0.0001,0.0001,0.0001,5800,20.80
2014-01-13,0.0001,0.0001,0.0001,0.0001,1800,20.40
2014-01-10,0.0001,0.0001,0.0001,0.0001,1900,19.20
2014-01-09,0.0001,0.0001,0.0001,0.0001,500,19.20
2014-01-08,0.0001,0.0001,0.0001,0.0001,4200,18.80
2014-01-07,0.0001,0.0001,0.0001,0.0001,7800,20.00
2014-01-06,0.0001,0.0001,0.0001,0.0001,14800,20.40
2014-01-03,0.0001,0.0001,0.0001,0.0001,6700,19.20
2014-01-02,0.0001,0.0001,0.0001,0.0001,2400,17.60
2014-01-01,0.0001,0.0001,0.0001,0.0001,000,17.20
2013-12-31,0.0001,0.0001,0.0001,0.0001,700,17.20
2013-12-30,0.0001,0.0001,0.0001,0.0001,3100,16.80
2013-12-27,0.0001,0.0001,0.0001,0.0001,2300,16.80
2013-12-26,0.0001,0.0001,0.0001,0.0001,000,17.20
2013-12-25,0.0001,0.0001,0.0001,0.0001,000,17.20
2013-12-24,0.0001,0.0001,0.0001,0.0001,2500,17.20
2013-12-23,0.0001,0.0001,0.0001,0.0001,400,16.80
2013-12-20,0.0001,0.0001,0.0001,0.0001,6500,16.40
2013-12-19,0.0001,0.0001,0.0001,0.0001,6500,17.20
2013-12-18,0.0001,0.0001,0.0001,0.0001,3200,16.40
2013-12-17,0.0001,0.0001,0.0001,0.0001,5800,16.80
2013-12-16,0.0001,0.0001,0.0001,0.0001,4500,17.60
2013-12-13,0.0001,0.0001,0.0001,0.0001,1100,19.60
2013-12-12,0.0001,0.0001,0.0001,0.0001,100,19.20
2013-12-11,0.0001,0.0001,0.0001,0.0001,2800,19.20
2013-12-10,0.0001,0.0001,0.0001,0.0001,1100,19.20
2013-12-09,0.0001,0.0001,0.0001,0.0001,3000,19.60
2013-12-06,0.0001,0.0001,0.0001,0.0001,2700,19.20
2013-12-05,0.0001,0.0001,0.0001,0.0001,2100,19.20
2013-12-04,0.0001,0.0001,0.0001,0.0001,1800,18.40
2013-12-03,0.0001,0.0001,0.0001,0.0001,4400,19.20
2013-12-02,0.0001,0.0001,0.0001,0.0001,1500,20.00
2013-11-29,0.0001,0.0001,0.0001,0.0001,1400,20.80
2013-11-28,0.0001,0.0001,0.0001,0.0001,3000,20.40
2013-11-27,0.0001,0.0001,0.0001,0.0001,1900,20.00
2013-11-26,0.0001,0.0001,0.0001,0.0001,2200,20.40
2013-11-25,0.0001,0.0001,0.0001,0.0001,6100,20.80
2013-11-22,0.0001,0.0002,0.0001,0.0001,3000,23.60
2013-11-21,0.0002,0.0002,0.0001,0.0001,9200,22.40
2013-11-20,0.0002,0.0002,0.0002,0.0002,1600,24.80
2013-11-19,0.0002,0.0002,0.0002,0.0002,500,25.60
2013-11-18,0.0002,0.0002,0.0002,0.0002,3600,24.40
2013-11-15,0.0002,0.0002,0.0002,0.0002,2000,24.80
2013-11-14,0.0002,0.0002,0.0002,0.0002,4500,24.40
2013-11-13,0.0002,0.0002,0.0002,0.0002,600,26.80
2013-11-12,0.0002,0.0002,0.0002,0.0002,4200,26.80
2013-11-11,0.0002,0.0002,0.0002,0.0002,900,28.00
2013-11-08,0.0002,0.0002,0.0002,0.0002,2200,27.20
2013-11-07,0.0002,0.0002,0.0002,0.0002,2100,27.20
2013-11-06,0.0002,0.0002,0.0002,0.0002,4000,28.80
2013-11-05,0.0002,0.0002,0.0002,0.0002,2600,28.00
2013-11-04,0.0002,0.0002,0.0002,0.0002,6600,28.80
2013-11-01,0.0002,0.0002,0.0002,0.0002,9100,27.60
2013-10-31,0.0002,0.0002,0.0002,0.0002,4800,26.00
2013-10-30,0.0002,0.0002,0.0002,0.0002,1400,24.80
2013-10-29,0.0002,0.0002,0.0002,0.0002,2200,24.40
2013-10-28,0.0002,0.0002,0.0001,0.0001,4900,24.00
2013-10-25,0.0002,0.0002,0.0002,0.0002,800,24.80
2013-10-24,0.0002,0.0002,0.0002,0.0002,1700,25.20
2013-10-23,0.0001,0.0002,0.0001,0.0002,2000,24.80
2013-10-22,0.0002,0.0002,0.0001,0.0001,8200,23.60
2013-10-21,0.0002,0.0002,0.0002,0.0002,1300,25.20
2013-10-18,0.0002,0.0002,0.0002,0.0002,1300,26.00
2013-10-17,0.0002,0.0002,0.0001,0.0002,2600,24.80
2013-10-16,0.0001,0.0002,0.0001,0.0002,6200,25.20
2013-10-15,0.0002,0.0002,0.0002,0.0002,1600,26.00
2013-10-14,0.0002,0.0002,0.0002,0.0002,3200,26.80
2013-10-11,0.0002,0.0002,0.0002,0.0002,2500,24.80
2013-10-10,0.0002,0.0002,0.0002,0.0002,4300,27.20
2013-10-09,0.0002,0.0002,0.0002,0.0002,4200,26.40
2013-10-08,0.0002,0.0002,0.0001,0.0001,32700,23.60
2013-10-07,0.0002,0.0002,0.0002,0.0002,000,28.8584
2013-10-04,0.0002,0.0002,0.0002,0.0002,000,28.8584
2013-10-03,0.0002,0.0002,0.0002,0.0002,1200,28.8584
2013-10-02,0.0002,0.0002,0.0002,0.0002,1500,28.8584
2013-10-01,0.0002,0.0002,0.0002,0.0002,1800,27.6724
2013-09-30,0.0002,0.0002,0.0002,0.0002,2400,28.8584
2013-09-27,0.0002,0.0002,0.0002,0.0002,2600,28.8584
2013-09-26,0.0002,0.0002,0.0002,0.0002,1900,28.8584
2013-09-25,0.0002,0.0002,0.0002,0.0002,3800,28.8584
2013-09-24,0.0002,0.0002,0.0002,0.0002,7500,25.6958
2013-09-23,0.0002,0.0002,0.0002,0.0002,7700,27.6724
2013-09-20,0.0002,0.0002,0.0002,0.0002,4000,30.0443
2013-09-19,0.0002,0.0002,0.0002,0.0002,6500,30.0443
2013-09-18,0.0002,0.0002,0.0002,0.0002,6300,29.649
2013-09-17,0.0002,0.0002,0.0002,0.0002,4400,30.0443
2013-09-16,0.0002,0.0002,0.0002,0.0002,11100,31.2303
2013-09-13,0.0002,0.0002,0.0002,0.0002,3300,30.8349
2013-09-12,0.0002,0.0002,0.0002,0.0002,1300,30.4396
2013-09-11,0.0002,0.0002,0.0002,0.0002,1300,30.4396
2013-09-10,0.0002,0.0002,0.0002,0.0002,3400,31.2303
2013-09-09,0.0002,0.0002,0.0002,0.0002,1500,30.8349
2013-09-06,0.0002,0.0002,0.0002,0.0002,2400,31.6256
2013-09-05,0.0002,0.0002,0.0002,0.0002,2300,31.2303
2013-09-04,0.0002,0.0002,0.0002,0.0002,900,29.649
2013-09-03,0.0002,0.0002,0.0002,0.0002,2300,28.8584
2013-09-02,0.0002,0.0002,0.0002,0.0002,1200,30.4396
2013-08-30,0.0002,0.0002,0.0002,0.0002,2300,30.4396
2013-08-29,0.0002,0.0002,0.0002,0.0002,10000,29.2537
2013-08-28,0.0002,0.0002,0.0002,0.0002,8100,32.0209
2013-08-27,0.0002,0.0002,0.0002,0.0002,8000,32.4162
2013-08-26,0.0002,0.0002,0.0002,0.0002,7000,34.3928
2013-08-23,0.0002,0.0002,0.0002,0.0002,17800,32.8115
2013-08-22,0.0002,0.0002,0.0002,0.0002,3300,35.5788
2013-08-21,0.0002,0.0002,0.0002,0.0002,3000,35.9741
2013-08-20,0.0002,0.0002,0.0002,0.0002,4200,35.5788
2013-08-19,0.0002,0.0002,0.0002,0.0002,19600,35.1835
2013-08-16,0.0002,0.0002,0.0002,0.0002,7300,36.3694
2013-08-15,0.0002,0.0002,0.0002,0.0002,6900,35.9741
2013-08-14,0.0002,0.0002,0.0002,0.0002,5800,36.3694
2013-08-13,0.0002,0.0002,0.0002,0.0002,9800,37.1601
2013-08-12,0.0002,0.0002,0.0002,0.0002,6300,35.9741
2013-08-09,0.0002,0.0002,0.0002,0.0002,8000,36.7647
2013-08-08,0.0002,0.0002,0.0002,0.0002,7500,31.2303
2013-08-07,0.0002,0.0002,0.0002,0.0002,14000,33.2069
2013-08-06,0.0002,0.0002,0.0002,0.0002,000,37.5554
2013-08-05,0.0002,0.0002,0.0002,0.0002,000,37.5554
2013-08-02,0.0002,0.0002,0.0002,0.0002,000,37.5554
2013-08-01,0.0002,0.0003,0.0002,0.0002,46400,37.5554
2013-07-31,0.0002,0.0002,0.0002,0.0002,17100,32.4162
2013-07-30,0.0002,0.0002,0.0002,0.0002,13200,28.0677
2013-07-29,0.0002,0.0002,0.0001,0.0001,9700,23.7192
2013-07-26,0.0001,0.0002,0.0001,0.0001,2300,22.1379
2013-07-25,0.0001,0.0001,0.0001,0.0001,3900,20.952
2013-07-24,0.0002,0.0002,0.0001,0.0001,5500,22.9286
2013-07-23,0.0001,0.0002,0.0001,0.0002,6100,24.5098
2013-07-22,0.0001,0.0001,0.0001,0.0001,9700,21.7426
2013-07-19,0.0001,0.0001,0.0001,0.0001,7000,19.766
2013-07-18,0.0001,0.0001,0.0001,0.0001,19900,16.9988
2013-07-17,0.0001,0.0001,0.0001,0.0001,6800,16.9988
2013-07-16,0.0001,0.0001,0.0001,0.0001,4900,15.8128
2013-07-15,0.0001,0.0001,0.0001,0.0001,2200,15.4175
2013-07-12,0.0001,0.0001,0.0001,0.0001,4800,16.2081
2013-07-11,0.0001,0.0001,0.0001,0.0001,9700,16.2081
2013-07-10,0.0001,0.0001,0.0001,0.0001,4900,16.6034
2013-07-09,0.0001,0.0001,0.0001,0.0001,8100,15.8128
2013-07-08,0.0001,0.0001,0.0001,0.0001,3800,18.1847
2013-07-05,0.0001,0.0001,0.0001,0.0001,900,19.3707
2013-07-04,0.0001,0.0001,0.0001,0.0001,1700,18.58
2013-07-03,0.0001,0.0001,0.0001,0.0001,1500,19.3707
2013-07-02,0.0001,0.0001,0.0001,0.0001,3500,19.766
2013-07-01,0.0001,0.0001,0.0001,0.0001,3800,20.952
2013-06-28,0.0001,0.0001,0.0001,0.0001,2700,19.3707
2013-06-27,0.0001,0.0001,0.0001,0.0001,5900,19.766
2013-06-26,0.0001,0.0001,0.0001,0.0001,2000,21.3473
2013-06-25,0.0001,0.0001,0.0001,0.0001,800,21.7426
2013-06-24,0.0001,0.0001,0.0001,0.0001,4700,20.1613
2013-06-21,0.0002,0.0002,0.0001,0.0001,4500,23.7192
2013-06-20,0.0002,0.0002,0.0002,0.0002,2200,26.0911
2013-06-19,0.0002,0.0002,0.0002,0.0002,600,26.8818
2013-06-18,0.0002,0.0002,0.0002,0.0002,2500,27.2771
2013-06-17,0.0002,0.0002,0.0002,0.0002,1100,28.463
2013-06-14,0.0002,0.0002,0.0002,0.0002,3200,28.0677
2013-06-13,0.0002,0.0002,0.0002,0.0002,1600,26.8818
2013-06-12,0.0002,0.0002,0.0002,0.0002,3300,26.0911
2013-06-11,0.0002,0.0002,0.0002,0.0002,2600,27.6724
2013-06-10,0.0002,0.0002,0.0002,0.0002,000,27.6724
2013-06-07,0.0002,0.0002,0.0002,0.0002,1400,27.6724
2013-06-06,0.0002,0.0002,0.0002,0.0002,900,26.4864
2013-06-05,0.0002,0.0002,0.0002,0.0002,000,26.8818
2013-06-04,0.0002,0.0002,0.0002,0.0002,6100,26.0911
2013-06-03,0.0002,0.0002,0.0002,0.0002,6400,25.6958
2013-05-31,0.0001,0.0001,0.0001,0.0001,000,22.5332
2013-05-30,0.0001,0.0001,0.0001,0.0001,000,22.5332
2013-05-29,0.0001,0.0001,0.0001,0.0001,800,22.5332
2013-05-28,0.0001,0.0001,0.0001,0.0001,400,23.3239
2013-05-27,0.0001,0.0001,0.0001,0.0001,400,22.5332
2013-05-24,0.0001,0.0002,0.0001,0.0001,1100,22.9286
2013-05-23,0.0001,0.0001,0.0001,0.0001,1000,22.5332
2013-05-22,0.0001,0.0001,0.0001,0.0001,100,22.9286
2013-05-21,0.0001,0.0001,0.0001,0.0001,700,23.3239
2013-05-20,0.0001,0.0001,0.0001,0.0001,000,21.3473
2013-05-17,0.0001,0.0001,0.0001,0.0001,3400,21.3473
2013-05-16,0.0001,0.0001,0.0001,0.0001,1800,20.5566
2013-05-15,0.0001,0.0001,0.0001,0.0001,2300,21.7426
2013-05-14,0.0001,0.0001,0.0001,0.0001,800,23.7192
2013-05-13,0.0002,0.0002,0.0001,0.0001,7100,22.9286
2013-05-10,0.0002,0.0002,0.0002,0.0002,6300,26.8818
2013-05-09,0.0001,0.0002,0.0001,0.0002,2700,25.6958
2013-05-08,0.0001,0.0001,0.0001,0.0001,2700,22.1379
2013-05-07,0.0001,0.0001,0.0001,0.0001,2300,21.7426
2013-05-06,0.0001,0.0001,0.0001,0.0001,3200,20.1613
2013-05-03,0.0001,0.0001,0.0001,0.0001,3900,18.58
2013-05-02,0.0001,0.0001,0.0001,0.0001,8600,19.3707
2013-05-01,0.0001,0.0001,0.0001,0.0001,10400,19.766
2013-04-30,0.0001,0.0001,0.0001,0.0001,4700,20.5566
2013-04-29,0.0001,0.0001,0.0001,0.0001,1200,20.952
2013-04-26,0.0001,0.0001,0.0001,0.0001,9600,20.952
2013-04-25,0.0001,0.0001,0.0001,0.0001,000,20.5566
2013-04-24,0.0002,0.0002,0.0001,0.0001,10400,20.5566
2013-04-23,0.0002,0.0002,0.0002,0.0002,1900,24.9051
2013-04-22,0.0002,0.0002,0.0002,0.0002,2600,28.8584
2013-04-19,0.0002,0.0002,0.0002,0.0002,1100,27.2771
2013-04-18,0.0002,0.0002,0.0002,0.0002,2200,24.5098
2013-04-17,0.0002,0.0002,0.0002,0.0002,2300,25.6958
2013-04-16,0.0002,0.0002,0.0002,0.0002,5500,26.8818
2013-04-15,0.0002,0.0002,0.0002,0.0002,3500,28.463
2013-04-12,0.0002,0.0002,0.0002,0.0002,2200,32.0209
2013-04-11,0.0002,0.0002,0.0002,0.0002,4600,35.9741
2013-04-10,0.0002,0.0002,0.0002,0.0002,1100,32.8115
2013-04-09,0.0002,0.0002,0.0002,0.0002,77100,32.8115
2013-04-08,0.0002,0.0002,0.0002,0.0002,6800,33.2069
2013-04-05,0.0002,0.0002,0.0002,0.0002,9400,28.0677
2013-04-04,0.0002,0.0002,0.0002,0.0002,6700,28.8584
2013-04-03,0.0002,0.0002,0.0002,0.0002,4000,32.0209
2013-04-02,0.0002,0.0002,0.0002,0.0002,2700,35.5788
2013-04-01,0.0002,0.0002,0.0002,0.0002,000,36.7647
2013-03-29,0.0002,0.0002,0.0002,0.0002,000,36.7647
2013-03-28,0.0002,0.0002,0.0002,0.0002,2800,36.7647
2013-03-27,0.0002,0.0002,0.0002,0.0002,3000,37.9507
2013-03-26,0.0002,0.0002,0.0002,0.0002,3700,37.9507
2013-03-25,0.0002,0.0002,0.0002,0.0002,1000,39.1367
2013-03-22,0.0002,0.0002,0.0002,0.0002,3900,38.7413
2013-03-21,0.0002,0.0002,0.0002,0.0002,4000,36.7647
2013-03-20,0.0002,0.0002,0.0002,0.0002,3200,37.9507
2013-03-19,0.0002,0.0002,0.0002,0.0002,3400,39.1367
2013-03-18,0.0002,0.0002,0.0002,0.0002,8600,39.532
2013-03-15,0.0002,0.0003,0.0002,0.0002,6300,38.346
2013-03-14,0.0002,0.0003,0.0002,0.0002,5000,39.1367
2013-03-13,0.0002,0.0002,0.0002,0.0002,2300,38.7413
2013-03-12,0.0002,0.0002,0.0002,0.0002,1300,39.1367
2013-03-11,0.0002,0.0002,0.0002,0.0002,1300,38.346
2013-03-08,0.0002,0.0002,0.0002,0.0002,2200,37.5554
2013-03-07,0.0002,0.0002,0.0002,0.0002,4000,38.7413
2013-03-06,0.0002,0.0002,0.0002,0.0002,3600,38.7413
2013-03-05,0.0003,0.0003,0.0002,0.0002,6900,39.532
2013-03-04,0.0002,0.0003,0.0002,0.0003,8800,41.5086
2013-03-01,0.0002,0.0003,0.0002,0.0002,7800,39.532
2013-02-28,0.0002,0.0002,0.0002,0.0002,5500,39.532
2013-02-27,0.0002,0.0003,0.0002,0.0002,2300,39.1367
2013-02-26,0.0003,0.0003,0.0002,0.0002,8100,39.1367
2013-02-25,0.0003,0.0003,0.0002,0.0002,16100,39.532
2013-02-22,0.0002,0.0002,0.0002,0.0002,2500,38.7413
2013-02-21,0.0002,0.0002,0.0002,0.0002,3500,38.346
2013-02-20,0.0002,0.0003,0.0002,0.0002,1800,39.532
2013-02-19,0.0002,0.0003,0.0002,0.0002,1900,39.532
2013-02-18,0.0003,0.0003,0.0002,0.0002,12800,38.346
2013-02-15,0.0003,0.0003,0.0003,0.0003,3500,41.5086
2013-02-14,0.0003,0.0003,0.0003,0.0003,5200,41.5086
2013-02-13,0.0003,0.0003,0.0003,0.0003,2600,43.4852
2013-02-12,0.0003,0.0003,0.0003,0.0003,1800,43.4852
2013-02-11,0.0003,0.0003,0.0003,0.0003,4100,41.5086
2013-02-08,0.0003,0.0003,0.0003,0.0003,6000,43.4852
2013-02-07,0.0003,0.0003,0.0003,0.0003,1200,45.4618
2013-02-06,0.0003,0.0003,0.0003,0.0003,5400,45.4618
2013-02-05,0.0003,0.0003,0.0003,0.0003,2100,45.4618
2013-02-04,0.0003,0.0003,0.0003,0.0003,3000,45.4618
2013-02-01,0.0003,0.0003,0.0003,0.0003,2300,45.4618
2013-01-31,0.0003,0.0003,0.0003,0.0003,6800,45.4618
2013-01-30,0.0003,0.0003,0.0003,0.0003,12100,49.415
2013-01-29,0.0003,0.0003,0.0003,0.0003,9400,51.3916
2013-01-28,0.0003,0.0003,0.0003,0.0003,000,51.3916
2013-01-25,0.0003,0.0003,0.0003,0.0003,7000,51.3916
2013-01-24,0.0003,0.0003,0.0003,0.0003,2600,49.415
2013-01-23,0.0003,0.0003,0.0003,0.0003,7600,45.4618
2013-01-22,0.0003,0.0003,0.0003,0.0003,6100,49.415
2013-01-21,0.0003,0.0003,0.0003,0.0003,4700,45.4618
2013-01-18,0.0003,0.0003,0.0003,0.0003,12100,49.415
2013-01-17,0.0003,0.0003,0.0003,0.0003,6400,47.4384
2013-01-16,0.0003,0.0003,0.0003,0.0003,000,53.3682
2013-01-15,0.0003,0.0003,0.0003,0.0003,4100,53.3682
2013-01-14,0.0003,0.0003,0.0003,0.0003,8100,49.415
2013-01-11,0.0003,0.0003,0.0003,0.0003,8400,43.4852
2013-01-10,0.0003,0.0003,0.0002,0.0003,4100,41.5086
2013-01-09,0.0003,0.0003,0.0003,0.0003,1300,43.4852
2013-01-08,0.0003,0.0003,0.0003,0.0003,1300,43.4852
2013-01-07,0.0003,0.0003,0.0003,0.0003,2400,43.4852
2013-01-04,0.0003,0.0003,0.0003,0.0003,4600,43.4852
2013-01-03,0.0003,0.0003,0.0003,0.0003,2600,43.4852
2013-01-02,0.0003,0.0003,0.0003,0.0003,3200,47.4384
2013-01-01,0.0003,0.0003,0.0003,0.0003,000,47.4384
2012-12-31,0.0003,0.0003,0.0003,0.0003,1400,47.4384
2012-12-28,0.0003,0.0003,0.0003,0.0003,1100,43.4852
2012-12-27,0.0003,0.0003,0.0003,0.0003,1300,41.5086
2012-12-26,0.0003,0.0003,0.0003,0.0003,000,41.5086
2012-12-25,0.0003,0.0003,0.0003,0.0003,000,41.5086
2012-12-24,0.0003,0.0003,0.0003,0.0003,1600,41.5086
2012-12-21,0.0003,0.0003,0.0003,0.0003,2800,41.5086
2012-12-20,0.0003,0.0003,0.0003,0.0003,2100,43.4852
2012-12-19,0.0003,0.0003,0.0003,0.0003,2900,45.4618
2012-12-18,0.0003,0.0003,0.0003,0.0003,4900,43.4852
2012-12-17,0.0003,0.0003,0.0003,0.0003,3600,43.4852
2012-12-14,0.0003,0.0003,0.0002,0.0002,9500,39.532
2012-12-13,0.0003,0.0003,0.0003,0.0003,10000,41.5086
2012-12-12,0.0003,0.0003,0.0003,0.0003,8800,43.4852
2012-12-11,0.0003,0.0003,0.0003,0.0003,13700,45.4618
2012-12-10,0.0003,0.0003,0.0003,0.0003,14900,45.4618
2012-12-07,0.0003,0.0003,0.0003,0.0003,8800,45.4618
2012-12-06,0.0003,0.0003,0.0003,0.0003,2600,49.415
2012-12-05,0.0003,0.0003,0.0003,0.0003,200,53.3682
2012-12-04,0.0003,0.0003,0.0003,0.0003,100,55.3448
2012-12-03,0.0003,0.0003,0.0003,0.0003,100,51.3916
2012-11-30,0.0003,0.0003,0.0003,0.0003,1300,53.3682
2012-11-29,0.0003,0.0003,0.0003,0.0003,300,53.3682
2012-11-28,0.0003,0.0003,0.0003,0.0003,300,55.3448
2012-11-27,0.0003,0.0003,0.0003,0.0003,400,53.3682
2012-11-26,0.0003,0.0003,0.0003,0.0003,800,53.3682
2012-11-23,0.0004,0.0004,0.0003,0.0003,200,55.3448
2012-11-22,0.0003,0.0003,0.0003,0.0003,200,55.3448
2012-11-21,0.0003,0.0003,0.0003,0.0003,400,53.3682
2012-11-20,0.0004,0.0004,0.0003,0.0004,3900,57.3214
2012-11-19,0.0004,0.0004,0.0003,0.0004,1300,57.3214
2012-11-16,0.0004,0.0004,0.0004,0.0004,100,57.3214
2012-11-15,0.0004,0.0004,0.0004,0.0004,500,59.298
2012-11-14,0.0004,0.0004,0.0004,0.0004,1000,59.298
2012-11-13,0.0004,0.0004,0.0004,0.0004,300,57.3214
2012-11-12,0.0004,0.0004,0.0004,0.0004,500,59.298
2012-11-09,0.0004,0.0004,0.0004,0.0004,100,59.298
2012-11-08,0.0004,0.0004,0.0004,0.0004,400,61.2746
2012-11-07,0.0004,0.0004,0.0004,0.0004,900,61.2746
2012-11-06,0.0004,0.0004,0.0004,0.0004,900,59.298
2012-11-05,0.0004,0.0004,0.0004,0.0004,2400,61.2746
2012-11-02,0.0004,0.0004,0.0004,0.0004,3300,61.2746
2012-11-01,0.0004,0.0004,0.0004,0.0004,5800,63.2512
2012-10-31,0.0004,0.0004,0.0004,0.0004,000,63.2512
2012-10-30,0.0004,0.0004,0.0004,0.0004,000,63.2512
2012-10-29,0.0004,0.0004,0.0004,0.0004,000,63.2512
2012-10-26,0.0004,0.0004,0.0004,0.0004,000,63.2512
2012-10-25,0.0004,0.0004,0.0004,0.0004,000,63.2512
2012-10-24,0.0004,0.0004,0.0004,0.0004,000,63.2512
2012-10-23,0.0004,0.0004,0.0003,0.0004,6000,63.2512
2012-10-22,0.0003,0.0004,0.0003,0.0003,5700,55.3448
2012-10-19,0.0003,0.0004,0.0003,0.0004,7100,57.3214
2012-10-18,0.0003,0.0003,0.0003,0.0003,100,51.3916
2012-10-17,0.0003,0.0003,0.0003,0.0003,2400,49.415
2012-10-16,0.0003,0.0003,0.0003,0.0003,1600,49.415
2012-10-15,0.0003,0.0003,0.0003,0.0003,1800,47.4384
2012-10-12,0.0003,0.0003,0.0003,0.0003,1000,45.4618
2012-10-11,0.0003,0.0003,0.0003,0.0003,1300,45.4618
2012-10-10,0.0003,0.0003,0.0003,0.0003,1100,45.4618
2012-10-09,0.0003,0.0003,0.0003,0.0003,400,47.4384
2012-10-08,0.0003,0.0003,0.0003,0.0003,4300,47.4384
2012-10-05,0.0003,0.0003,0.0003,0.0003,4400,49.415
2012-10-04,0.0003,0.0003,0.0003,0.0003,7000,43.4852
2012-10-03,0.0003,0.0003,0.0003,0.0003,5200,45.4618
2012-10-02,0.0004,0.0004,0.0003,0.0003,14000,47.4384
2012-10-01,0.0004,0.0004,0.0004,0.0004,1000,59.298
2012-09-28,0.0004,0.0004,0.0004,0.0004,1100,59.298
2012-09-27,0.0003,0.0004,0.0003,0.0004,3200,59.298
2012-09-26,0.0004,0.0004,0.0003,0.0003,1200,55.3448
2012-09-25,0.0004,0.0004,0.0004,0.0004,2000,59.298
2012-09-24,0.0004,0.0004,0.0004,0.0004,4300,63.2512
2012-09-21,0.0004,0.0004,0.0004,0.0004,5000,65.2278
2012-09-20,0.0004,0.0004,0.0004,0.0004,3000,65.2278
2012-09-19,0.0004,0.0005,0.0004,0.0004,26500,65.2278
2012-09-18,0.0004,0.0004,0.0004,0.0004,1300,67.2044
2012-09-17,0.0004,0.0004,0.0004,0.0004,1900,65.2278
2012-09-14,0.0004,0.0004,0.0004,0.0004,3400,63.2512
2012-09-13,0.0004,0.0004,0.0004,0.0004,3500,63.2512
2012-09-12,0.0004,0.0004,0.0004,0.0004,6800,63.2512
2012-09-11,0.0004,0.0004,0.0004,0.0004,9100,63.2512
2012-09-10,0.0004,0.0004,0.0004,0.0004,4900,57.3214
2012-09-07,0.0003,0.0004,0.0003,0.0004,10900,57.3214
2012-09-06,0.0003,0.0004,0.0003,0.0003,1600,53.3682
2012-09-05,0.0003,0.0003,0.0003,0.0003,800,55.3448
2012-09-04,0.0004,0.0004,0.0004,0.0004,2300,57.3214
2012-09-03,0.0003,0.0004,0.0003,0.0004,1800,57.3214
2012-08-31,0.0003,0.0003,0.0003,0.0003,2000,51.3916
2012-08-30,0.0003,0.0004,0.0003,0.0003,1900,55.3448
2012-08-29,0.0003,0.0004,0.0003,0.0004,2000,57.3214
2012-08-28,0.0004,0.0004,0.0003,0.0003,2200,53.3682
2012-08-27,0.0003,0.0004,0.0003,0.0004,2900,57.3214
2012-08-24,0.0003,0.0003,0.0003,0.0003,1900,53.3682
2012-08-23,0.0003,0.0003,0.0003,0.0003,2300,55.3448
2012-08-22,0.0003,0.0003,0.0003,0.0003,800,53.3682
2012-08-21,0.0004,0.0004,0.0003,0.0003,2400,53.3682
2012-08-20,0.0003,0.0004,0.0003,0.0003,7300,55.3448
2012-08-17,0.0003,0.0003,0.0003,0.0003,1100,49.415
2012-08-16,0.0003,0.0003,0.0003,0.0003,1700,49.415
2012-08-15,0.0003,0.0003,0.0003,0.0003,1600,51.3916
2012-08-14,0.0003,0.0003,0.0003,0.0003,1900,47.4384
2012-08-13,0.0003,0.0003,0.0003,0.0003,700,49.415
2012-08-10,0.0003,0.0003,0.0003,0.0003,1100,51.3916
2012-08-09,0.0003,0.0003,0.0003,0.0003,2800,51.3916
2012-08-08,0.0003,0.0003,0.0003,0.0003,300,49.415
2012-08-07,0.0003,0.0003,0.0003,0.0003,300,49.415
2012-08-06,0.0003,0.0003,0.0003,0.0003,1700,51.3916
2012-08-03,0.0003,0.0003,0.0003,0.0003,2300,51.3916
2012-08-02,0.0004,0.0004,0.0004,0.0004,000,59.298
2012-08-01,0.0004,0.0004,0.0004,0.0004,000,59.298
2012-07-31,0.0004,0.0004,0.0003,0.0004,2500,59.298
2012-07-30,0.0003,0.0004,0.0003,0.0003,3200,55.3448
2012-07-27,0.0003,0.0003,0.0003,0.0003,500,43.4852
2012-07-26,0.0003,0.0003,0.0003,0.0003,500,47.4384
2012-07-25,0.0003,0.0003,0.0003,0.0003,500,45.4618
2012-07-24,0.0002,0.0003,0.0002,0.0003,400,45.4618
2012-07-23,0.0002,0.0002,0.0002,0.0002,100,39.532
2012-07-20,0.0002,0.0002,0.0002,0.0002,000,39.532
2012-07-19,0.0002,0.0002,0.0002,0.0002,100,39.532
2012-07-18,0.0002,0.0002,0.0002,0.0002,400,39.532
2012-07-17,0.0002,0.0003,0.0002,0.0002,1500,39.532
2012-07-16,0.0002,0.0003,0.0002,0.0003,700,41.5086
2012-07-13,0.0002,0.0002,0.0002,0.0002,500,39.532
2012-07-12,0.0003,0.0003,0.0002,0.0002,1400,37.5554
2012-07-11,0.0003,0.0003,0.0003,0.0003,100,41.5086
2012-07-10,0.0003,0.0003,0.0003,0.0003,300,41.5086
2012-07-09,0.0003,0.0003,0.0003,0.0003,800,41.5086
2012-07-06,0.0003,0.0003,0.0003,0.0003,000,43.4852
2012-07-05,0.0003,0.0003,0.0003,0.0003,700,43.4852
2012-07-04,0.0003,0.0003,0.0003,0.0003,600,43.4852
2012-07-03,0.0003,0.0003,0.0003,0.0003,700,43.4852
2012-07-02,0.0003,0.0003,0.0003,0.0003,700,43.4852
2012-06-29,0.0003,0.0003,0.0003,0.0003,1000,43.4852
2012-06-28,0.0003,0.0003,0.0003,0.0003,200,43.4852
2012-06-27,0.0003,0.0003,0.0003,0.0003,400,41.5086
2012-06-26,0.0003,0.0003,0.0003,0.0003,600,47.4384
2012-06-25,0.0003,0.0003,0.0003,0.0003,1100,45.4618
2012-06-22,0.0003,0.0003,0.0003,0.0003,2000,53.3682
2012-06-21,0.0003,0.0003,0.0003,0.0003,300,49.415
2012-06-20,0.0003,0.0004,0.0003,0.0003,2700,51.3916
2012-06-19,0.0003,0.0003,0.0003,0.0003,3200,53.3682
2012-06-18,0.0003,0.0003,0.0003,0.0003,400,51.3916
2012-06-15,0.0003,0.0003,0.0003,0.0003,500,53.3682
2012-06-14,0.0003,0.0003,0.0003,0.0003,400,53.3682
2012-06-13,0.0003,0.0003,0.0003,0.0003,1300,51.3916
2012-06-12,0.0003,0.0004,0.0003,0.0004,700,57.3214
2012-06-11,0.0004,0.0004,0.0004,0.0004,000,57.3214
2012-06-08,0.0003,0.0004,0.0003,0.0004,600,57.3214
2012-06-07,0.0003,0.0003,0.0003,0.0003,1000,53.3682
2012-06-06,0.0003,0.0003,0.0003,0.0003,800,51.3916
2012-06-05,0.0003,0.0003,0.0003,0.0003,100,47.4384
2012-06-04,0.0003,0.0003,0.0003,0.0003,900,47.4384
2012-06-01,0.0003,0.0003,0.0003,0.0003,200,49.415
2012-05-31,0.0003,0.0003,0.0003,0.0003,100,49.415
2012-05-30,0.0003,0.0003,0.0003,0.0003,000,51.3916
2012-05-29,0.0003,0.0003,0.0003,0.0003,200,53.3682
2012-05-28,0.0003,0.0003,0.0003,0.0003,100,53.3682
2012-05-25,0.0003,0.0003,0.0003,0.0003,200,53.3682
2012-05-24,0.0003,0.0003,0.0003,0.0003,100,53.3682
2012-05-23,0.0003,0.0003,0.0003,0.0003,100,49.415
2012-05-22,0.0003,0.0003,0.0003,0.0003,100,53.3682
2012-05-21,0.0003,0.0003,0.0003,0.0003,000,53.3682
2012-05-18,0.0003,0.0003,0.0003,0.0003,1500,47.4384
2012-05-17,0.0003,0.0003,0.0003,0.0003,1200,49.415
2012-05-16,0.0003,0.0003,0.0003,0.0003,2000,47.4384
2012-05-15,0.0004,0.0004,0.0003,0.0003,2000,53.3682
2012-05-14,0.0004,0.0004,0.0004,0.0004,800,59.298
2012-05-11,0.0004,0.0004,0.0004,0.0004,000,59.298
2012-05-10,0.0004,0.0004,0.0004,0.0004,000,57.3214
2012-05-09,0.0004,0.0004,0.0003,0.0004,2100,57.3214
2012-05-08,0.0004,0.0004,0.0004,0.0004,900,59.298
2012-05-07,0.0004,0.0004,0.0004,0.0004,800,67.2044
2012-05-04,0.0004,0.0004,0.0004,0.0004,12600,69.181
2012-05-03,0.0004,0.0004,0.0004,0.0004,2800,63.2512
2012-05-02,0.0004,0.0004,0.0004,0.0004,000,59.298
2012-05-01,0.0004,0.0004,0.0004,0.0004,000,59.298
2012-04-30,0.0003,0.0004,0.0003,0.0004,2400,59.298
2012-04-27,0.0003,0.0004,0.0003,0.0004,2200,59.298
2012-04-26,0.0004,0.0004,0.0003,0.0003,500,55.3448
2012-04-25,0.0003,0.0003,0.0003,0.0003,000,55.3448
2012-04-24,0.0003,0.0003,0.0003,0.0003,000,55.3448
2012-04-23,0.0004,0.0004,0.0003,0.0004,1300,57.3214
2012-04-20,0.0004,0.0004,0.0004,0.0004,400,59.298
2012-04-19,0.0004,0.0004,0.0004,0.0004,1600,59.298
2012-04-18,0.0004,0.0004,0.0003,0.0004,1500,57.3214
2012-04-17,0.0004,0.0004,0.0004,0.0004,3900,57.3214
2012-04-16,0.0004,0.0004,0.0004,0.0004,2000,63.2512
2012-04-13,0.0004,0.0004,0.0004,0.0004,1800,63.2512
2012-04-12,0.0004,0.0004,0.0004,0.0004,1200,67.2044
2012-04-11,0.0004,0.0004,0.0004,0.0004,1200,69.181
2012-04-10,0.0004,0.0004,0.0004,0.0004,1300,71.1576
2012-04-09,0.0005,0.0005,0.0005,0.0005,000,73.1342
2012-04-06,0.0005,0.0005,0.0005,0.0005,000,73.1342
2012-04-05,0.0004,0.0005,0.0004,0.0005,1700,73.1342
2012-04-04,0.0005,0.0005,0.0004,0.0004,7400,71.1576
2012-04-03,0.0005,0.0005,0.0004,0.0004,11500,71.1576
2012-04-02,0.0005,0.0005,0.0004,0.0005,7200,77.0874
2012-03-30,0.0004,0.0005,0.0004,0.0005,3700,73.1342
2012-03-29,0.0004,0.0004,0.0004,0.0004,6600,61.2746
2012-03-28,0.0004,0.0004,0.0004,0.0004,1400,59.298
2012-03-27,0.0004,0.0004,0.0004,0.0004,1200,57.3214
2012-03-26,0.0003,0.0004,0.0003,0.0004,500,57.3214
2012-03-23,0.0003,0.0003,0.0003,0.0003,500,53.3682
2012-03-22,0.0003,0.0003,0.0003,0.0003,000,55.3448
2012-03-21,0.0003,0.0003,0.0003,0.0003,1200,55.3448
2012-03-20,0.0004,0.0004,0.0004,0.0004,100,57.3214
2012-03-19,0.0004,0.0004,0.0004,0.0004,100,57.3214
2012-03-16,0.0004,0.0004,0.0004,0.0004,100,57.3214
2012-03-15,0.0004,0.0004,0.0004,0.0004,000,57.3214
2012-03-14,0.0004,0.0004,0.0004,0.0004,400,57.3214
2012-03-13,0.0004,0.0004,0.0003,0.0004,100,59.298
2012-03-12,0.0004,0.0004,0.0004,0.0004,600,57.3214
2012-03-09,0.0004,0.0004,0.0004,0.0004,700,59.298
2012-03-08,0.0004,0.0004,0.0004,0.0004,200,65.2278
2012-03-07,0.0004,0.0004,0.0004,0.0004,600,65.2278
2012-03-06,0.0004,0.0004,0.0004,0.0004,1600,65.2278
2012-03-05,0.0004,0.0004,0.0004,0.0004,2800,65.2278
2012-03-02,0.0004,0.0004,0.0004,0.0004,300,59.298
2012-03-01,0.0004,0.0004,0.0004,0.0004,400,59.298
2012-02-29,0.0004,0.0004,0.0004,0.0004,2000,65.2278
2012-02-28,0.0004,0.0004,0.0003,0.0004,600,59.298
2012-02-27,0.0004,0.0004,0.0004,0.0004,600,59.298
2012-02-24,0.0004,0.0004,0.0004,0.0004,500,57.3214
2012-02-23,0.0004,0.0004,0.0004,0.0004,400,61.2746
2012-02-22,0.0004,0.0004,0.0003,0.0003,100,55.3448
2012-02-21,0.0004,0.0004,0.0004,0.0004,000,61.2746
2012-02-20,0.0003,0.0003,0.0003,0.0003,000,55.3448
2012-02-17,0.0003,0.0003,0.0003,0.0003,200,55.3448
2012-02-16,0.0003,0.0003,0.0003,0.0003,700,53.3682
2012-02-15,0.0003,0.0003,0.0003,0.0003,000,53.3682
2012-02-14,0.0004,0.0004,0.0003,0.0003,200,55.3448
2012-02-13,0.0004,0.0004,0.0004,0.0004,000,57.3214
2012-02-10,0.0004,0.0004,0.0003,0.0004,700,57.3214
2012-02-09,0.0004,0.0004,0.0004,0.0004,000,61.2746
2012-02-08,0.0004,0.0004,0.0004,0.0004,1000,61.2746
2012-02-07,0.0004,0.0004,0.0004,0.0004,600,61.2746
2012-02-06,0.0003,0.0004,0.0003,0.0004,1400,59.298
2012-02-03,0.0003,0.0003,0.0003,0.0003,200,53.3682
2012-02-02,0.0003,0.0003,0.0003,0.0003,100,55.3448
2012-02-01,0.0003,0.0003,0.0003,0.0003,2400,55.3448
2012-01-31,0.0003,0.0003,0.0003,0.0003,800,51.3916
2012-01-30,0.0003,0.0003,0.0003,0.0003,700,51.3916
2012-01-27,0.0003,0.0003,0.0003,0.0003,500,51.3916
2012-01-26,0.0003,0.0003,0.0003,0.0003,000,53.3682
2012-01-25,0.0003,0.0003,0.0003,0.0003,500,53.3682
2012-01-24,0.0003,0.0003,0.0003,0.0003,000,53.3682
2012-01-23,0.0003,0.0003,0.0003,0.0003,600,53.3682
2012-01-20,0.0003,0.0003,0.0003,0.0003,500,51.3916
2012-01-19,0.0003,0.0003,0.0003,0.0003,1100,51.3916
2012-01-18,0.0003,0.0003,0.0003,0.0003,000,51.3916
2012-01-17,0.0003,0.0003,0.0003,0.0003,300,51.3916
2012-01-16,0.0003,0.0003,0.0003,0.0003,200,51.3916
2012-01-13,0.0003,0.0003,0.0003,0.0003,100,53.3682
2012-01-12,0.0003,0.0003,0.0003,0.0003,000,51.3916
2012-01-11,0.0003,0.0003,0.0003,0.0003,100,53.3682
2012-01-10,0.0003,0.0003,0.0003,0.0003,500,49.415
2012-01-09,0.0003,0.0003,0.0003,0.0003,000,47.4384
2012-01-06,0.0003,0.0003,0.0003,0.0003,600,47.4384
2012-01-05,0.0003,0.0003,0.0003,0.0003,100,55.3448
2012-01-04,0.0003,0.0003,0.0003,0.0003,100,49.415
2012-01-03,0.0003,0.0003,0.0003,0.0003,300,47.4384
2012-01-02,0.0003,0.0003,0.0003,0.0003,000,47.4384
2011-12-30,0.0003,0.0003,0.0003,0.0003,000,47.4384
2011-12-29,0.0003,0.0003,0.0003,0.0003,000,47.4384
2011-12-28,0.0003,0.0003,0.0003,0.0003,300,51.3916
2011-12-27,0.0003,0.0003,0.0003,0.0003,000,53.3682
2011-12-26,0.0003,0.0003,0.0003,0.0003,000,53.3682
2011-12-23,0.0003,0.0003,0.0003,0.0003,000,53.3682
2011-12-22,0.0003,0.0003,0.0003,0.0003,800,53.3682
2011-12-21,0.0003,0.0003,0.0003,0.0003,900,53.3682
2011-12-20,0.0004,0.0004,0.0002,0.0003,3300,47.4384
2011-12-19,0.0004,0.0004,0.0003,0.0004,700,59.298
2011-12-16,0.0004,0.0004,0.0004,0.0004,100,57.3214
2011-12-15,0.0004,0.0004,0.0004,0.0004,800,57.3214
2011-12-14,0.0004,0.0004,0.0004,0.0004,500,63.2512
2011-12-13,0.0004,0.0004,0.0004,0.0004,400,61.2746
2011-12-12,0.0004,0.0004,0.0004,0.0004,700,59.298
2011-12-09,0.0004,0.0004,0.0004,0.0004,400,65.2278
2011-12-08,0.0004,0.0004,0.0004,0.0004,100,63.2512
2011-12-07,0.0004,0.0004,0.0004,0.0004,200,59.298
2011-12-06,0.0004,0.0004,0.0004,0.0004,300,61.2746
2011-12-05,0.0004,0.0004,0.0004,0.0004,200,63.2512
2011-12-02,0.0004,0.0004,0.0004,0.0004,100,65.2278
2011-12-01,0.0004,0.0004,0.0004,0.0004,400,65.2278
2011-11-30,0.0004,0.0004,0.0004,0.0004,100,65.2278
2011-11-29,0.0004,0.0004,0.0004,0.0004,300,63.2512
2011-11-28,0.0004,0.0004,0.0004,0.0004,600,63.2512
2011-11-25,0.0004,0.0004,0.0004,0.0004,800,61.2746
2011-11-24,0.0004,0.0004,0.0004,0.0004,200,65.2278
2011-11-23,0.0004,0.0004,0.0004,0.0004,200,61.2746
2011-11-22,0.0004,0.0004,0.0004,0.0004,1000,65.2278
2011-11-21,0.0004,0.0004,0.0004,0.0004,400,67.2044
2011-11-18,0.0004,0.0004,0.0004,0.0004,800,67.2044
2011-11-17,0.0004,0.0004,0.0004,0.0004,600,69.181
2011-11-16,0.0004,0.0004,0.0004,0.0004,800,65.2278
2011-11-15,0.0004,0.0004,0.0004,0.0004,1300,63.2512
2011-11-14,0.0004,0.0004,0.0004,0.0004,1000,67.2044
2011-11-11,0.0004,0.0004,0.0004,0.0004,200,67.2044
2011-11-10,0.0004,0.0004,0.0004,0.0004,500,65.2278
2011-11-09,0.0004,0.0004,0.0004,0.0004,200,69.181
2011-11-08,0.0004,0.0004,0.0004,0.0004,500,65.2278
2011-11-07,0.0004,0.0004,0.0004,0.0004,400,63.2512
2011-11-04,0.0004,0.0004,0.0004,0.0004,1400,61.2746
2011-11-03,0.0004,0.0004,0.0004,0.0004,1000,57.3214
2011-11-02,0.0004,0.0004,0.0004,0.0004,1200,61.2746
2011-11-01,0.0004,0.0004,0.0004,0.0004,1300,71.1576
2011-10-31,0.0004,0.0004,0.0004,0.0004,700,67.2044
2011-10-28,0.0004,0.0004,0.0004,0.0004,2600,71.1576
2011-10-27,0.0004,0.0004,0.0004,0.0004,1300,71.1576
2011-10-26,0.0004,0.0004,0.0004,0.0004,200,71.1576
2011-10-25,0.0004,0.0004,0.0004,0.0004,1100,71.1576
2011-10-24,0.0005,0.0005,0.0004,0.0004,2000,71.1576
2011-10-21,0.0004,0.0005,0.0004,0.0005,1300,73.1342
2011-10-20,0.0004,0.0004,0.0004,0.0004,2300,67.2044
2011-10-19,0.0004,0.0004,0.0004,0.0004,1100,65.2278
2011-10-18,0.0004,0.0004,0.0004,0.0004,500,63.2512
2011-10-17,0.0004,0.0004,0.0004,0.0004,2400,65.2278
2011-10-14,0.0004,0.0004,0.0004,0.0004,1700,57.3214
2011-10-13,0.0004,0.0004,0.0004,0.0004,1200,57.3214
2011-10-12,0.0004,0.0004,0.0004,0.0004,900,59.298
2011-10-11,0.0004,0.0004,0.0004,0.0004,1300,57.3214
2011-10-10,0.0003,0.0004,0.0003,0.0004,6900,57.3214
2011-10-07,0.0003,0.0003,0.0003,0.0003,2000,53.3682
2011-10-06,0.0003,0.0003,0.0003,0.0003,2000,51.3916
2011-10-05,0.0003,0.0003,0.0003,0.0003,1400,49.415
2011-10-04,0.0003,0.0003,0.0003,0.0003,1200,49.415
2011-10-03,0.0003,0.0003,0.0003,0.0003,100,49.415
2011-09-30,0.0003,0.0003,0.0003,0.0003,1700,49.415
2011-09-29,0.0003,0.0003,0.0003,0.0003,100,51.3916
2011-09-27,0.0003,0.0003,0.0003,0.0003,900,55.3448
2011-09-26,0.0003,0.0003,0.0003,0.0003,600,51.3916
2011-09-23,0.0003,0.0003,0.0003,0.0003,3000,51.3916
2011-09-22,0.0004,0.0004,0.0003,0.0003,2300,53.3682
2011-09-21,0.0004,0.0004,0.0004,0.0004,2200,63.2512
2011-09-20,0.0004,0.0004,0.0004,0.0004,100,63.2512
2011-09-19,0.0004,0.0004,0.0004,0.0004,100,65.2278
2011-09-16,0.0004,0.0005,0.0004,0.0004,700,69.181
2011-09-13,0.0004,0.0004,0.0004,0.0004,100,69.181
2011-09-12,0.0004,0.0004,0.0004,0.0004,600,69.181
2011-09-09,0.0004,0.0004,0.0004,0.0004,700,69.181
2011-09-08,0.0005,0.0005,0.0004,0.0005,2100,73.1342
2011-09-07,0.0004,0.0005,0.0004,0.0004,2600,71.1576
2011-09-06,0.0004,0.0004,0.0004,0.0004,000,67.2044
2011-09-05,0.0004,0.0004,0.0004,0.0004,1100,67.2044
2011-09-02,0.0004,0.0004,0.0004,0.0004,700,67.2044
2011-09-01,0.0004,0.0004,0.0004,0.0004,300,65.2278
2011-08-31,0.0004,0.0005,0.0004,0.0004,300,67.2044
2011-08-30,0.0004,0.0004,0.0004,0.0004,000,71.1576
2011-08-29,0.0004,0.0004,0.0004,0.0004,200,71.1576
2011-08-25,0.0004,0.0004,0.0004,0.0004,400,71.1576
2011-08-24,0.0004,0.0004,0.0004,0.0004,500,71.1576
2011-08-23,0.0005,0.0005,0.0004,0.0004,300,71.1576
2011-08-22,0.0004,0.0005,0.0004,0.0005,500,73.1342
2011-08-19,0.0005,0.0005,0.0005,0.0005,1100,75.1108
2011-08-18,0.0005,0.0005,0.0005,0.0005,000,77.0874
2011-08-17,0.0005,0.0005,0.0005,0.0005,1100,79.064
2011-08-16,0.0005,0.0005,0.0005,0.0005,200,79.064
2011-08-15,0.0005,0.0005,0.0005,0.0005,400,83.0172
2011-08-12,0.0005,0.0006,0.0005,0.0006,500,88.947
2011-08-11,0.0005,0.0005,0.0005,0.0005,600,77.0874
2011-08-10,0.0005,0.0005,0.0004,0.0005,100,75.1108
2011-08-09,0.0004,0.0004,0.0004,0.0004,1300,67.2044
2011-08-08,0.0005,0.0005,0.0004,0.0004,1100,65.2278
2011-08-05,0.0005,0.0005,0.0004,0.0005,2200,73.1342
2011-08-04,0.0006,0.0006,0.0006,0.0006,700,88.947
2011-08-03,0.0005,0.0005,0.0005,0.0005,2700,86.9704
2011-08-02,0.0005,0.0005,0.0005,0.0005,000,81.0406
2011-08-01,0.0005,0.0005,0.0005,0.0005,100,79.064
2011-07-29,0.0005,0.0005,0.0005,0.0005,100,79.064
2011-07-28,0.0005,0.0005,0.0005,0.0005,1700,79.064
2011-07-27,0.0005,0.0005,0.0005,0.0005,500,83.0172
2011-07-26,0.0005,0.0005,0.0005,0.0005,1700,84.9938
2011-07-25,0.0005,0.0005,0.0005,0.0005,000,77.0874
2011-07-22,0.0005,0.0005,0.0005,0.0005,100,86.9704
2011-07-21,0.0004,0.0005,0.0004,0.0005,3300,83.0172
2011-07-20,0.0004,0.0004,0.0004,0.0004,500,69.181
2011-07-19,0.0004,0.0004,0.0004,0.0004,1100,71.1576
2011-07-18,0.0004,0.0005,0.0004,0.0005,400,73.1342
2011-07-15,0.0005,0.0005,0.0004,0.0004,400,71.1576
2011-07-14,0.0005,0.0005,0.0005,0.0005,400,75.1108
2011-07-13,0.0005,0.0005,0.0004,0.0005,600,73.1342
2011-07-12,0.0005,0.0005,0.0005,0.0005,300,75.1108
2011-07-11,0.0005,0.0005,0.0005,0.0005,800,79.064
2011-07-08,0.0005,0.0005,0.0005,0.0005,900,77.0874
2011-07-07,0.0005,0.0005,0.0005,0.0005,300,81.0406
2011-07-06,0.0005,0.0005,0.0005,0.0005,400,83.0172
2011-07-05,0.0005,0.0005,0.0005,0.0005,500,83.0172
2011-07-04,0.0005,0.0005,0.0005,0.0005,1100,81.0406
2011-07-01,0.0005,0.0005,0.0005,0.0005,900,83.0172
2011-06-30,0.0005,0.0006,0.0005,0.0005,7900,86.9704
2011-06-29,0.0005,0.0005,0.0005,0.0005,400,79.064
2011-06-28,0.0005,0.0006,0.0005,0.0005,1200,83.0172
2011-06-27,0.0005,0.0005,0.0005,0.0005,300,83.0172
2011-06-24,0.0005,0.0005,0.0005,0.0005,900,84.9938
2011-06-22,0.0005,0.0005,0.0005,0.0005,300,86.9704
2011-06-21,0.0005,0.0006,0.0005,0.0005,600,79.064
2011-06-20,0.0005,0.0005,0.0005,0.0005,1300,86.9704
2011-06-17,0.0006,0.0006,0.0005,0.0005,500,83.0172
2011-06-16,0.0006,0.0006,0.0006,0.0006,100,90.9236
2011-06-15,0.0006,0.0006,0.0006,0.0006,100,92.9002
2011-06-14,0.0006,0.0006,0.0006,0.0006,800,96.8533
2011-06-10,0.0006,0.0006,0.0006,0.0006,300,96.8533
2011-06-09,0.0006,0.0006,0.0006,0.0006,400,90.9236
2011-06-08,0.0006,0.0006,0.0006,0.0006,100,90.9236
2011-06-07,0.0005,0.0006,0.0005,0.0006,400,90.9236
2011-06-06,0.0006,0.0006,0.0006,0.0006,700,90.9236
2011-06-03,0.0006,0.0006,0.0006,0.0006,500,96.8533
2011-06-02,0.0006,0.0006,0.0006,0.0006,300,102.783
2011-06-01,0.0006,0.0006,0.0006,0.0006,1600,96.8533
2011-05-31,0.0006,0.0006,0.0005,0.0006,2400,96.8533
2011-05-30,0.0006,0.0006,0.0006,0.0006,700,90.9236
2011-05-27,0.0006,0.0006,0.0006,0.0006,200,94.8767
2011-05-26,0.0006,0.0006,0.0006,0.0006,600,94.8767
2011-05-25,0.0006,0.0006,0.0006,0.0006,2000,100.807
2011-05-24,0.0006,0.0006,0.0006,0.0006,000,100.807
2011-05-23,0.0006,0.0007,0.0006,0.0006,1200,100.807
2011-05-20,0.0006,0.0006,0.0006,0.0006,500,100.807
2011-05-19,0.0006,0.0006,0.0006,0.0006,1100,98.8299
2011-05-18,0.0006,0.0006,0.0006,0.0006,1200,92.9002
2011-05-17,0.0006,0.0007,0.0006,0.0006,400,98.8299
2011-05-16,0.0006,0.0006,0.0006,0.0006,800,100.807
2011-05-13,0.0007,0.0007,0.0006,0.0006,700,98.8299
2011-05-12,0.0007,0.0007,0.0007,0.0007,600,106.736
2011-05-11,0.0007,0.0007,0.0007,0.0007,1900,108.713
2011-05-10,0.0007,0.0007,0.0007,0.0007,900,106.736
2011-05-09,0.0007,0.0007,0.0007,0.0007,300,106.736
2011-05-06,0.0007,0.0007,0.0006,0.0006,400,102.783
2011-05-05,0.0006,0.0007,0.0006,0.0007,700,106.736
2011-05-04,0.0007,0.0007,0.0006,0.0006,2000,102.783
2011-05-03,0.0007,0.0007,0.0006,0.0007,400,104.76
2011-05-02,0.0007,0.0007,0.0007,0.0007,5100,110.69
2011-04-29,0.0007,0.0007,0.0006,0.0007,1600,106.736
2011-04-28,0.0007,0.0007,0.0007,0.0007,1300,112.666
2011-04-27,0.0007,0.0007,0.0007,0.0007,1500,116.619
2011-04-21,0.0007,0.0008,0.0007,0.0007,5100,114.643
2011-04-20,0.0008,0.0008,0.0007,0.0007,2700,112.666
2011-04-19,0.0007,0.0007,0.0007,0.0007,1400,116.619
2011-04-18,0.0008,0.0008,0.0008,0.0008,300,122.549
2011-04-15,0.0007,0.0008,0.0007,0.0008,600,122.549
2011-04-14,0.0008,0.0008,0.0007,0.0008,1000,122.549
2011-04-13,0.0007,0.0008,0.0007,0.0008,1300,122.549
2011-04-12,0.0008,0.0008,0.0007,0.0007,200,118.596
2011-04-11,0.0007,0.0008,0.0007,0.0008,1800,124.526
2011-04-08,0.0008,0.0008,0.0007,0.0007,5200,118.596
2011-04-07,0.0008,0.0008,0.0007,0.0008,3300,132.432
2011-04-04,0.0008,0.0008,0.0008,0.0008,1800,128.479
2011-04-01,0.0008,0.0008,0.0008,0.0008,700,132.432
2011-03-31,0.0008,0.0008,0.0008,0.0008,3600,132.432
2011-03-30,0.0008,0.0009,0.0008,0.0008,3500,132.432
2011-03-29,0.0009,0.0009,0.0008,0.0008,3400,134.409
2011-03-28,0.0009,0.0009,0.0008,0.0008,2600,134.409
2011-03-25,0.0008,0.0009,0.0008,0.0009,2300,138.362
2011-03-24,0.0007,0.0008,0.0007,0.0008,3600,130.456
2011-03-23,0.0008,0.0008,0.0007,0.0007,2400,112.666
2011-03-22,0.0008,0.0008,0.0008,0.0008,900,124.526
2011-03-21,0.0008,0.0008,0.0008,0.0008,2000,120.573
2011-03-18,0.0008,0.0008,0.0007,0.0008,1900,120.573
2011-03-17,0.0007,0.0008,0.0007,0.0008,2700,122.549
2011-03-16,0.0007,0.0008,0.0007,0.0007,1300,116.619
2011-03-15,0.0007,0.0008,0.0006,0.0007,7400,104.76
2011-03-14,0.0008,0.0008,0.0007,0.0007,3300,114.643
2011-03-11,0.0008,0.0009,0.0008,0.0008,1900,132.432
2011-03-10,0.0009,0.0009,0.0008,0.0008,5900,130.456
2011-03-09,0.0009,0.0009,0.0008,0.0009,5300,148.245
2011-03-08,0.0009,0.0009,0.0009,0.0009,8400,138.362
2011-03-07,0.0009,0.001,0.0009,0.0009,21600,146.268
2011-03-04,0.0007,0.0008,0.0007,0.0007,10000,118.596
2011-03-03,0.0007,0.0007,0.0007,0.0007,800,110.69
2011-03-02,0.0007,0.0007,0.0007,0.0007,1100,114.643
2011-03-01,0.0007,0.0007,0.0007,0.0007,800,112.666
2011-02-28,0.0008,0.0008,0.0007,0.0007,1700,114.643
2011-02-25,0.0006,0.0009,0.0006,0.0007,2300,118.596
2011-02-24,0.0006,0.0006,0.0006,0.0006,1400,100.807
2011-02-23,0.0006,0.0006,0.0006,0.0006,3100,98.8299
2011-02-22,0.0006,0.0007,0.0006,0.0006,4300,98.8299
2011-02-21,0.0006,0.0006,0.0006,0.0006,4400,98.8299
2011-02-18,0.0006,0.0007,0.0006,0.0006,8700,96.8533
2011-02-15,0.0005,0.0006,0.0005,0.0006,4000,92.9002
2011-02-14,0.0005,0.0005,0.0005,0.0005,1000,75.1108
2011-02-11,0.0005,0.0005,0.0005,0.0005,1500,77.0874
2011-02-10,0.0005,0.0005,0.0005,0.0005,1000,75.1108
2011-02-09,0.0005,0.0005,0.0005,0.0005,1500,79.064
2011-02-08,0.0005,0.0005,0.0004,0.0005,600,73.1342
2011-02-07,0.0004,0.0005,0.0004,0.0005,900,73.1342
2011-02-04,0.0004,0.0005,0.0004,0.0005,800,73.1342
2011-02-03,0.0004,0.0004,0.0004,0.0004,600,69.181
2011-02-02,0.0004,0.0004,0.0004,0.0004,100,69.181
2011-02-01,0.0004,0.0004,0.0004,0.0004,600,67.2044
2011-01-31,0.0004,0.0004,0.0004,0.0004,800,69.181
2011-01-28,0.0004,0.0004,0.0004,0.0004,400,69.181
2011-01-27,0.0005,0.0005,0.0004,0.0004,700,71.1576
2011-01-25,0.0004,0.0004,0.0004,0.0004,1300,71.1576
2011-01-24,0.0004,0.0004,0.0004,0.0004,600,71.1576
2011-01-21,0.0005,0.0005,0.0005,0.0005,1000,75.1108
2011-01-20,0.0005,0.0005,0.0005,0.0005,200,75.1108
2011-01-19,0.0005,0.0005,0.0005,0.0005,600,77.0874
2011-01-18,0.0005,0.0005,0.0005,0.0005,000,77.0874
2011-01-17,0.0005,0.0005,0.0005,0.0005,600,79.064
2011-01-14,0.0005,0.0005,0.0005,0.0005,1700,79.064
2011-01-13,0.0005,0.0005,0.0005,0.0005,400,73.1342
2011-01-12,0.0005,0.0005,0.0005,0.0005,1000,75.1108
2011-01-11,0.0005,0.0005,0.0005,0.0005,300,75.1108
2011-01-10,0.0005,0.0005,0.0005,0.0005,1000,79.064
2011-01-07,0.0005,0.0005,0.0005,0.0005,1300,79.064
2011-01-06,0.0005,0.0005,0.0005,0.0005,700,77.0874
2011-01-05,0.0005,0.0005,0.0005,0.0005,1400,77.0874
2011-01-04,0.0005,0.0005,0.0005,0.0005,3500,81.0406
2010-12-31,0.0006,0.0006,0.0005,0.0005,1500,81.0406
2010-12-30,0.0004,0.0005,0.0004,0.0005,8700,86.9704
2010-12-29,0.0004,0.0004,0.0004,0.0004,800,65.2278
2010-12-24,0.0004,0.0004,0.0004,0.0004,900,59.298
2010-12-23,0.0004,0.0004,0.0004,0.0004,600,65.2278
2010-12-22,0.0004,0.0004,0.0004,0.0004,1500,65.2278
2010-12-21,0.0004,0.0004,0.0004,0.0004,1000,67.2044
2010-12-20,0.0004,0.0004,0.0004,0.0004,1400,67.2044
2010-12-17,0.0004,0.0004,0.0004,0.0004,1700,67.2044
2010-12-16,0.0004,0.0004,0.0004,0.0004,900,65.2278
2010-12-15,0.0004,0.0004,0.0004,0.0004,2500,63.2512
2010-12-14,0.0004,0.0004,0.0004,0.0004,1500,65.2278
2010-12-13,0.0004,0.0004,0.0004,0.0004,2100,69.181
2010-12-10,0.0004,0.0005,0.0004,0.0004,8800,69.181
2010-12-09,0.0005,0.0005,0.0004,0.0004,15200,67.2044
2010-12-08,0.0004,0.0004,0.0004,0.0004,000,59.298
