Date,Open,High,Low,Close,Volume,Adj Close
2017-01-10,2.08,2.10,2.08,2.10,66000,2.10
2017-01-09,2.10,2.10,2.08,2.08,941200,2.08
2017-01-06,2.10,2.10,2.08,2.10,63300,2.10
2017-01-05,2.08,2.10,2.08,2.10,159500,2.10
2017-01-04,2.10,2.10,2.08,2.08,28500,2.08
2017-01-03,2.08,2.10,2.075,2.10,135900,2.10
2017-01-02,2.10,2.10,2.10,2.10,000,2.10
2016-12-30,2.09,2.11,2.07,2.10,157100,2.10
2016-12-29,2.06,2.13,2.06,2.07,60500,2.07
2016-12-28,2.12,2.14,2.12,2.14,328700,2.06
2016-12-27,2.13,2.13,2.13,2.13,000,2.05037
2016-12-26,2.13,2.13,2.13,2.13,000,2.05037
2016-12-23,2.12,2.13,2.11,2.13,82000,2.05037
2016-12-22,2.11,2.12,2.10,2.12,81300,2.04075
2016-12-21,2.11,2.12,2.09,2.11,101400,2.03112
2016-12-20,2.10,2.11,2.08,2.09,254300,2.01187
2016-12-19,2.09,2.10,2.07,2.10,148200,2.0215
2016-12-16,2.08,2.10,2.07,2.10,317100,2.0215
2016-12-15,2.07,2.10,2.06,2.08,267800,2.00224
2016-12-14,2.08,2.09,2.07,2.07,116900,1.99262
2016-12-13,2.07,2.08,2.07,2.08,983200,2.00224
2016-12-12,2.07,2.08,2.06,2.08,67500,2.00224
2016-12-09,2.07,2.09,2.06,2.08,300800,2.00224
2016-12-08,2.055,2.08,2.055,2.06,118900,1.98299
2016-12-07,2.06,2.06,2.04,2.06,95900,1.98299
2016-12-06,2.05,2.07,2.04,2.05,69300,1.97336
2016-12-05,2.04,2.06,2.04,2.04,36500,1.96374
2016-12-02,2.06,2.06,2.04,2.04,99900,1.96374
2016-12-01,2.05,2.06,2.04,2.06,131800,1.98299
2016-11-30,2.06,2.09,2.04,2.06,344500,1.98299
2016-11-29,2.04,2.07,2.03,2.04,179600,1.96374
2016-11-28,2.04,2.055,2.04,2.05,89500,1.97336
2016-11-25,2.04,2.04,2.02,2.03,189800,1.95411
2016-11-24,2.04,2.06,2.02,2.04,403600,1.96374
2016-11-23,2.07,2.07,2.03,2.04,267700,1.96374
2016-11-22,2.06,2.07,2.05,2.07,32200,1.99262
2016-11-21,2.05,2.08,2.04,2.04,107900,1.96374
2016-11-18,2.03,2.08,2.03,2.08,53900,2.00224
2016-11-17,2.05,2.08,2.04,2.06,511000,1.98299
2016-11-16,2.05,2.06,2.03,2.05,1230300,1.97336
2016-11-15,2.05,2.06,2.00,2.04,113000,1.96374
2016-11-14,2.06,2.06,2.03,2.05,91400,1.97336
2016-11-11,2.05,2.09,2.05,2.07,74100,1.99262
2016-11-10,2.10,2.10,2.05,2.07,176600,1.99262
2016-11-09,2.10,2.10,2.09,2.10,165900,2.0215
2016-11-08,2.12,2.12,2.085,2.10,211900,2.0215
2016-11-07,2.10,2.12,2.07,2.12,58800,2.04075
2016-11-04,2.08,2.10,2.07,2.08,346600,2.00224
2016-11-03,2.10,2.12,2.07,2.07,92000,1.99262
2016-11-02,2.10,2.12,2.07,2.12,39600,2.04075
2016-11-01,2.11,2.135,2.07,2.11,80400,2.03112
2016-10-31,2.11,2.14,2.07,2.13,291900,2.05037
2016-10-28,2.09,2.11,2.08,2.11,49500,2.03112
2016-10-27,2.11,2.11,2.09,2.09,61500,2.01187
2016-10-26,2.11,2.12,2.10,2.11,33400,2.03112
2016-10-25,2.12,2.12,2.09,2.12,38500,2.04075
2016-10-24,2.13,2.13,2.08,2.09,106800,2.01187
2016-10-21,2.10,2.14,2.09,2.14,165500,2.06
2016-10-20,2.07,2.11,2.07,2.11,83700,2.03112
2016-10-19,2.10,2.10,2.07,2.08,272300,2.00224
2016-10-18,2.07,2.09,2.06,2.09,50000,2.01187
2016-10-17,2.08,2.09,2.07,2.08,169200,2.00224
2016-10-14,2.08,2.09,2.075,2.09,217700,2.01187
2016-10-13,2.07,2.08,2.06,2.07,273600,1.99262
2016-10-12,2.06,2.08,2.05,2.07,208000,1.99262
2016-10-11,2.08,2.09,2.05,2.06,229100,1.98299
2016-10-10,2.09,2.11,2.08,2.09,249300,2.01187
2016-10-07,2.12,2.12,2.09,2.11,171300,2.03112
2016-10-06,2.12,2.12,2.10,2.12,129700,2.04075
2016-10-05,2.12,2.13,2.11,2.12,264400,2.04075
2016-10-04,2.13,2.14,2.11,2.12,161100,2.04075
2016-10-03,2.135,2.14,2.125,2.13,199300,2.05037
2016-09-30,2.13,2.14,2.11,2.13,254200,2.05037
2016-09-29,2.14,2.14,2.12,2.14,175300,2.06
2016-09-28,2.13,2.14,2.12,2.14,200700,2.06
2016-09-27,2.14,2.14,2.13,2.14,65100,2.06
2016-09-26,2.14,2.14,2.13,2.14,52600,2.06
2016-09-23,2.13,2.145,2.12,2.14,1406000,2.06
2016-09-22,2.14,2.15,2.12,2.12,92600,2.04075
2016-09-21,2.13,2.14,2.12,2.13,493200,2.05037
2016-09-20,2.17,2.18,2.15,2.15,115300,2.06963
2016-09-19,2.14,2.18,2.14,2.17,22500,2.08888
2016-09-16,2.13,2.17,2.13,2.17,409200,2.08888
2016-09-15,2.13,2.15,2.13,2.15,158100,2.06963
2016-09-14,2.13,2.15,2.12,2.12,439100,2.04075
2016-09-13,2.13,2.15,2.12,2.13,298300,2.05037
2016-09-12,2.14,2.14,2.12,2.13,522200,2.05037
2016-09-09,2.14,2.18,2.14,2.18,344500,2.0985
2016-09-08,2.15,2.15,2.13,2.13,75600,2.05037
2016-09-07,2.18,2.18,2.12,2.12,199800,2.04075
2016-09-06,2.18,2.19,2.17,2.17,80400,2.08888
2016-09-05,2.19,2.20,2.17,2.17,106500,2.08888
2016-09-02,2.15,2.245,2.15,2.19,643800,2.10813
2016-09-01,2.136,2.136,2.136,2.136,000,2.05615
2016-08-31,2.18591,2.18591,2.136,2.136,114100,2.05615
2016-08-30,2.18591,2.18591,2.15596,2.18591,32500,2.10419
2016-08-29,2.19589,2.19589,2.18092,2.18591,26300,2.10419
2016-08-26,2.19589,2.20587,2.16594,2.19589,170100,2.1138
2016-08-25,2.19589,2.20587,2.17592,2.18591,188600,2.10419
2016-08-24,2.18591,2.19589,2.15596,2.18591,90000,2.10419
2016-08-23,2.19589,2.19589,2.15596,2.18591,44700,2.10419
2016-08-22,2.20587,2.22583,2.18591,2.19589,41500,2.1138
2016-08-19,2.18591,2.23581,2.18591,2.20587,29200,2.12341
2016-08-18,2.22583,2.22583,2.17592,2.18591,63800,2.10419
2016-08-17,2.23581,2.23581,2.22583,2.22583,000,2.14262
2016-08-16,2.23581,2.24579,2.20587,2.24579,18600,2.16184
2016-08-15,2.24579,2.24579,2.22084,2.23581,14700,2.15223
2016-08-12,2.23581,2.2408,2.20587,2.20587,112200,2.12341
2016-08-11,2.23581,2.23581,2.23082,2.23581,300,2.15223
2016-08-10,2.25577,2.25577,2.22583,2.23581,13900,2.15223
2016-08-09,2.25577,2.25577,2.22583,2.23581,38700,2.15223
2016-08-08,2.24579,2.26576,2.2408,2.25577,112800,2.17144
2016-08-05,2.23581,2.26576,2.21585,2.24579,66900,2.16184
2016-08-04,2.22583,2.24579,2.21585,2.24579,11900,2.16184
2016-08-03,2.23581,2.24579,2.21585,2.24579,28900,2.16184
2016-08-02,2.23581,2.25577,2.22583,2.25577,63800,2.17144
2016-08-01,2.23581,2.24579,2.22583,2.24579,64600,2.16184
2016-07-29,2.20587,2.25577,2.19589,2.23581,196200,2.15223
2016-07-28,2.22583,2.24579,2.18591,2.20587,135900,2.12341
2016-07-27,2.23581,2.24579,2.21585,2.22583,59500,2.14262
2016-07-26,2.21585,2.22583,2.19589,2.20587,138500,2.12341
2016-07-25,2.18591,2.25577,2.18591,2.22583,33300,2.14262
2016-07-22,2.22583,2.24579,2.19589,2.21585,42800,2.13301
2016-07-21,2.22583,2.25577,2.19589,2.24579,81900,2.16184
2016-07-20,2.25577,2.26576,2.22583,2.25577,209900,2.17144
2016-07-19,2.26576,2.27574,2.22583,2.24579,90500,2.16184
2016-07-18,2.23581,2.28572,2.22583,2.26576,16900,2.18106
2016-07-15,2.23581,2.24579,2.20587,2.23581,6300,2.15223
2016-07-14,2.23581,2.23581,2.19589,2.23581,17800,2.15223
2016-07-13,2.25577,2.27574,2.20587,2.23581,78400,2.15223
2016-07-12,2.24579,2.28572,2.24579,2.27574,81500,2.19067
2016-07-11,2.14598,2.26576,2.14598,2.21585,71100,2.13301
2016-07-08,2.14598,2.14598,2.136,2.136,22800,2.05615
2016-07-07,2.14598,2.14598,2.12602,2.14598,33900,2.06576
2016-07-06,2.12602,2.15097,2.12602,2.12602,96700,2.04654
2016-07-05,2.136,2.15596,2.136,2.136,39200,2.05615
2016-07-04,2.136,2.14598,2.12103,2.14598,154100,2.06576
2016-07-01,2.136,2.15097,2.12602,2.12602,128000,2.04654
2016-06-30,2.17592,2.17592,2.12602,2.136,141100,2.05615
2016-06-29,2.18591,2.18591,2.09108,2.12602,63400,2.04654
2016-06-28,2.17592,2.19589,2.16594,2.16594,146300,2.00796
2016-06-27,2.16594,2.19589,2.14598,2.16594,163900,2.00796
2016-06-24,2.18591,2.18591,2.14598,2.16594,146700,2.00796
2016-06-23,2.17592,2.18591,2.15596,2.16594,46500,2.00796
2016-06-22,2.14598,2.18591,2.14099,2.18591,89000,2.02647
2016-06-21,2.12602,2.14598,2.12602,2.136,167000,1.9802
2016-06-20,2.136,2.136,2.11604,2.11604,25800,1.9617
2016-06-17,2.11604,2.136,2.11604,2.136,58100,1.9802
2016-06-16,2.11604,2.12602,2.11604,2.11604,2631100,1.9617
2016-06-15,2.10606,2.12103,2.09607,2.11604,274000,1.9617
2016-06-14,2.11604,2.12602,2.10606,2.10606,36100,1.95245
2016-06-13,2.11604,2.11604,2.11604,2.11604,000,1.9617
2016-06-10,2.12602,2.136,2.10606,2.11604,47300,1.9617
2016-06-09,2.12602,2.136,2.10606,2.12602,116200,1.97095
2016-06-08,2.12602,2.136,2.11604,2.12602,167700,1.97095
2016-06-07,2.12602,2.13101,2.10606,2.12602,58600,1.97095
2016-06-06,2.10606,2.136,2.10606,2.11604,62200,1.9617
2016-06-03,2.10606,2.11604,2.09607,2.09607,10400,1.94319
2016-06-02,2.10606,2.11604,2.09607,2.09607,3000,1.94319
2016-06-01,2.10606,2.11604,2.09607,2.10606,65600,1.95245
2016-05-31,2.09607,2.11604,2.09607,2.10606,75000,1.95245
2016-05-30,2.10606,2.10606,2.09607,2.09607,33700,1.94319
2016-05-27,2.08609,2.10606,2.08609,2.10606,56600,1.95245
2016-05-26,2.10606,2.10606,2.08609,2.08609,1174100,1.93394
2016-05-25,2.09607,2.10606,2.08609,2.10606,42600,1.95245
2016-05-24,2.09607,2.09607,2.07611,2.09607,59700,1.94319
2016-05-23,2.09607,2.10606,2.07611,2.09607,315900,1.94319
2016-05-20,2.09607,2.10606,2.08609,2.09607,57600,1.94319
2016-05-19,2.06613,2.07611,2.06613,2.07611,605700,1.92468
2016-05-18,2.07611,2.08609,2.06613,2.07611,61600,1.92468
2016-05-17,2.08609,2.09607,2.07611,2.07611,111900,1.92468
2016-05-16,2.09607,2.09607,2.08609,2.08609,42100,1.93394
2016-05-13,2.09607,2.10606,2.08609,2.09607,74200,1.94319
2016-05-12,2.12602,2.12602,2.04617,2.09607,122000,1.94319
2016-05-11,2.12602,2.12602,2.10606,2.12602,15800,1.97095
2016-05-10,2.09607,2.12602,2.08609,2.12602,56000,1.97095
2016-05-09,2.09607,2.09607,2.07611,2.09607,91800,1.94319
2016-05-06,2.10606,2.12602,2.09607,2.12602,75100,1.97095
2016-05-05,2.09607,2.15596,2.09607,2.12602,229800,1.97095
2016-05-04,2.07611,2.10606,2.07611,2.09607,93800,1.94319
2016-05-03,2.04617,2.08609,2.03619,2.07611,166800,1.92468
2016-05-02,2.07611,2.07611,2.04118,2.04617,98200,1.89693
2016-04-29,2.07611,2.08609,2.06613,2.08609,69400,1.93394
2016-04-28,2.05615,2.07611,2.03619,2.06613,226000,1.91543
2016-04-27,2.04617,2.07611,2.04617,2.05615,105700,1.90618
2016-04-26,2.04617,2.06613,2.04617,2.04617,58000,1.89693
2016-04-25,2.04617,2.04617,2.04617,2.04617,000,1.89693
2016-04-22,2.04118,2.05615,2.03619,2.04617,68200,1.89693
2016-04-21,2.03619,2.05615,2.03619,2.04617,55600,1.89693
2016-04-20,2.06613,2.06613,2.0262,2.03619,179900,1.88767
2016-04-19,2.05615,2.06613,2.05615,2.05615,35700,1.90618
2016-04-18,2.04617,2.06613,2.0262,2.06613,174900,1.91543
2016-04-15,2.05615,2.06613,2.04617,2.04617,20800,1.89693
2016-04-14,2.05116,2.07611,2.04617,2.07611,45000,1.92468
2016-04-13,2.06613,2.06613,2.04617,2.04617,50400,1.89693
2016-04-12,2.05615,2.06613,2.05615,2.06613,33700,1.91543
2016-04-11,2.06613,2.06613,2.05615,2.06613,31400,1.91543
2016-04-08,2.05615,2.05615,2.04617,2.05615,47100,1.90618
2016-04-07,2.09607,2.09607,2.04617,2.06613,46300,1.91543
2016-04-06,2.05615,2.09607,2.04617,2.06613,63700,1.91543
2016-04-05,2.04617,2.06613,2.04617,2.06613,18400,1.91543
2016-04-04,2.06613,2.08609,2.03619,2.05615,101500,1.90618
2016-04-01,2.06613,2.06613,2.04617,2.04617,71700,1.89693
2016-03-31,2.07611,2.07611,2.03619,2.04617,132000,1.89693
2016-03-30,2.10606,2.10606,2.04617,2.07611,59300,1.92468
2016-03-29,2.10606,2.10606,2.08609,2.09607,23900,1.94319
2016-03-28,2.10606,2.10606,2.10606,2.10606,000,1.95245
2016-03-25,2.10606,2.10606,2.10606,2.10606,000,1.95245
2016-03-24,2.05615,2.10606,2.05615,2.10606,23700,1.95245
2016-03-23,2.09607,2.09607,2.05615,2.05615,91700,1.90618
2016-03-22,2.08609,2.09607,2.07611,2.08609,79800,1.93394
2016-03-21,2.10606,2.10606,2.09607,2.09607,23400,1.94319
2016-03-18,2.09607,2.09607,2.07112,2.09607,262600,1.94319
2016-03-17,2.0811,2.09607,2.07611,2.09607,90000,1.94319
2016-03-16,2.06613,2.09607,2.03619,2.09607,374900,1.94319
2016-03-15,2.07611,2.07611,2.05615,2.05615,75600,1.90618
2016-03-14,2.07611,2.07611,2.06613,2.07611,31800,1.92468
2016-03-11,2.06114,2.07112,2.05615,2.06613,63300,1.91543
2016-03-10,2.04617,2.07611,2.03619,2.07611,26800,1.92468
2016-03-09,2.05615,2.05615,2.03619,2.03619,52500,1.88767
2016-03-08,2.08609,2.09607,2.03619,2.03619,95500,1.88767
2016-03-07,2.11604,2.12602,2.07611,2.07611,52300,1.92468
2016-03-04,2.10606,2.12602,2.07611,2.11604,44700,1.9617
2016-03-03,2.12602,2.12602,2.07611,2.09607,180300,1.94319
2016-03-02,2.09607,2.14598,2.0811,2.08609,17500,1.93394
2016-03-01,2.136,2.136,2.07611,2.07611,25900,1.92468
2016-02-29,2.10606,2.136,2.09108,2.136,153200,1.9802
2016-02-26,2.10606,2.10606,2.03619,2.05615,37700,1.90618
2016-02-25,2.136,2.136,2.05615,2.08609,170800,1.93394
2016-02-24,2.11604,2.15596,2.08609,2.15596,85800,1.99871
2016-02-23,2.09607,2.12602,2.06613,2.12602,76700,1.97095
2016-02-22,2.06613,2.08609,2.06613,2.07611,126700,1.92468
2016-02-19,2.09607,2.09607,2.04617,2.05615,59600,1.90618
2016-02-18,2.06613,2.09607,2.03619,2.07611,100900,1.92468
2016-02-17,2.04617,2.09607,2.03619,2.06613,35600,1.91543
2016-02-16,2.05615,2.15596,2.04617,2.15596,101500,1.99871
2016-02-15,2.0262,2.05615,2.0262,2.04617,105200,1.89693
2016-02-12,2.03619,2.04617,1.99626,2.04617,178500,1.89693
2016-02-11,2.03619,2.03619,2.0262,2.0262,86600,1.87841
2016-02-10,2.04617,2.04617,2.0262,2.0262,124300,1.87841
2016-02-09,2.03619,2.04617,2.0262,2.04617,59300,1.89693
2016-02-08,2.03619,2.03619,2.0262,2.0262,32200,1.87841
2016-02-05,2.02121,2.03619,2.02121,2.0262,30600,1.87841
2016-02-04,2.01622,2.03619,2.01622,2.02121,36100,1.87379
2016-02-03,2.0262,2.03619,1.94635,2.01622,91600,1.86916
2016-02-02,2.03619,2.03619,2.0262,2.03619,30900,1.88767
2016-02-01,2.03619,2.04617,2.0262,2.0262,21600,1.87841
2016-01-29,2.04617,2.04617,2.03619,2.04617,63200,1.89693
2016-01-28,2.0262,2.04617,2.0262,2.04617,137800,1.89693
2016-01-27,2.0312,2.04617,2.0262,2.03619,40700,1.88767
2016-01-26,2.0262,2.0262,2.0262,2.0262,000,1.87841
2016-01-25,2.04617,2.04617,2.0262,2.0262,26900,1.87841
2016-01-22,2.04617,2.05615,2.03619,2.04617,81900,1.89693
2016-01-21,2.0262,2.04617,2.0262,2.03619,106500,1.88767
2016-01-20,2.04617,2.04617,2.0262,2.04617,27800,1.89693
2016-01-19,2.0262,2.04617,2.0262,2.0262,46700,1.87841
2016-01-18,2.01622,2.06613,2.00624,2.06613,135500,1.91543
2016-01-15,2.0262,2.04617,2.01622,2.03619,260000,1.88767
2016-01-14,2.08609,2.08609,2.0262,2.0262,53400,1.87841
2016-01-13,2.06613,2.08609,2.0262,2.08609,62000,1.93394
2016-01-12,2.06613,2.08609,2.05615,2.08609,165500,1.93394
2016-01-11,2.06613,2.07611,2.05615,2.06613,70600,1.91543
2016-01-08,2.07611,2.07611,2.06613,2.06613,79700,1.91543
2016-01-07,2.05615,2.07611,2.05615,2.07611,43000,1.92468
2016-01-06,2.07611,2.09607,2.05615,2.05615,93500,1.90618
2016-01-05,2.09607,2.09607,2.05615,2.08609,57700,1.93394
2016-01-04,2.136,2.136,2.07611,2.09607,25600,1.94319
2016-01-01,2.136,2.136,2.136,2.136,000,1.9802
2015-12-31,2.09607,2.136,2.07611,2.136,43300,1.9802
2015-12-30,2.06613,2.08609,2.06114,2.07611,176800,1.92468
2015-12-29,2.09607,2.09607,2.06613,2.06613,30600,1.91543
2015-12-28,2.16594,2.16594,2.16594,2.16594,000,1.93843
2015-12-25,2.16594,2.16594,2.16594,2.16594,000,1.93843
2015-12-24,2.15596,2.17592,2.14598,2.16594,51700,1.93843
2015-12-23,2.17592,2.17592,2.14598,2.15596,177500,1.9295
2015-12-22,2.12602,2.18591,2.09607,2.18591,205300,1.9563
2015-12-21,2.12602,2.12602,2.09607,2.09607,6600,1.8759
2015-12-18,2.09607,2.11604,2.07611,2.10606,407500,1.88484
2015-12-17,2.10606,2.11604,2.09607,2.09607,34500,1.8759
2015-12-16,2.09108,2.11604,2.07611,2.09607,289100,1.8759
2015-12-15,2.08609,2.10606,2.07611,2.09607,366200,1.8759
2015-12-14,2.11604,2.11604,2.03619,2.07611,86900,1.85804
2015-12-11,2.09607,2.11604,2.09607,2.10606,337200,1.88484
2015-12-10,2.09607,2.10606,2.09108,2.09607,130700,1.8759
2015-12-09,2.09607,2.10606,2.09607,2.09607,85900,1.8759
2015-12-08,2.11604,2.11604,2.09607,2.09607,64600,1.8759
2015-12-07,2.10606,2.10606,2.09607,2.09607,92900,1.8759
2015-12-04,2.09607,2.10606,2.09607,2.09607,383900,1.8759
2015-12-03,2.10606,2.10606,2.09607,2.10606,119100,1.88484
2015-12-02,2.12602,2.12602,2.09607,2.12602,60700,1.9027
2015-12-01,2.12602,2.12602,2.09607,2.09607,203200,1.8759
2015-11-30,2.10606,2.12602,2.09607,2.12602,83000,1.9027
2015-11-27,2.10606,2.10606,2.07611,2.09607,215600,1.8759
2015-11-26,2.0811,2.10606,2.07611,2.09607,282100,1.8759
2015-11-25,2.11604,2.11604,2.04617,2.07611,117400,1.85804
2015-11-24,2.09607,2.11604,2.06613,2.11604,244000,1.89377
2015-11-23,2.09607,2.10606,2.05615,2.09607,361000,1.8759
2015-11-20,2.08609,2.10606,2.07112,2.09607,110600,1.8759
2015-11-19,2.06613,2.09607,2.06613,2.09607,57700,1.8759
2015-11-18,2.05615,2.08609,2.05615,2.08609,12700,1.86697
2015-11-17,2.04617,2.07611,2.03619,2.07611,112900,1.85804
2015-11-16,2.08609,2.08609,2.03619,2.03619,18700,1.82231
2015-11-13,2.05615,2.08609,2.03619,2.08609,167900,1.86697
2015-11-12,2.04617,2.07611,2.03619,2.04617,131800,1.83124
2015-11-11,2.05615,2.07611,2.03619,2.07611,175700,1.85804
2015-11-10,2.04617,2.07611,2.03619,2.07611,346200,1.85804
2015-11-09,2.07611,2.07611,2.03619,2.04617,144100,1.83124
2015-11-06,2.06613,2.06613,2.03619,2.04617,311600,1.83124
2015-11-05,2.08609,2.09607,2.04617,2.07611,396700,1.85804
2015-11-04,2.04617,2.06613,2.03619,2.04617,1931700,1.83124
2015-11-03,2.04617,2.07611,2.03619,2.04617,162700,1.83124
2015-11-02,2.04617,2.06613,2.0262,2.06613,161600,1.84911
2015-10-30,2.03619,2.04617,2.00624,2.04617,587200,1.83124
2015-10-29,1.99626,2.03619,1.99626,2.00624,360700,1.79551
2015-10-28,1.98628,2.01622,1.98129,2.01622,250600,1.80444
2015-10-27,1.97131,1.99626,1.97131,1.98628,330200,1.77764
2015-10-26,1.98628,1.99626,1.9763,1.9763,413900,1.76871
2015-10-23,2.00624,2.00624,1.9763,1.9763,405400,1.76871
2015-10-22,1.99626,2.01123,1.99127,1.99626,440700,1.78657
2015-10-21,1.98628,2.00624,1.98129,2.00624,436800,1.79551
2015-10-20,1.97131,1.99626,1.97131,1.99626,188000,1.78657
2015-10-19,1.99127,1.99127,1.97131,1.97131,91800,1.76425
2015-10-16,1.99626,2.00624,1.9733,1.99127,415800,1.78211
2015-10-15,2.00624,2.01622,1.99127,2.01622,311400,1.80444
2015-10-14,2.01622,2.03619,1.99626,2.01622,132600,1.80444
2015-10-13,1.99626,2.03619,1.99127,2.03619,489300,1.82231
2015-10-12,1.99626,2.01622,1.99127,2.00624,756300,1.79551
2015-10-09,1.99626,2.01622,1.98129,1.99626,91900,1.78657
2015-10-08,1.99626,2.01622,1.97829,1.99626,371100,1.78657
2015-10-07,1.99626,2.00624,1.9733,2.00624,281000,1.79551
2015-10-06,1.98628,2.01622,1.98129,2.01622,170900,1.80444
2015-10-05,1.9763,1.98129,1.96133,1.9763,29500,1.76871
2015-10-02,1.99127,1.99127,1.9763,1.99127,72500,1.78211
2015-10-01,1.9763,1.99127,1.97131,1.99127,174500,1.78211
2015-09-30,1.96632,1.99127,1.94635,1.99127,281800,1.78211
2015-09-29,1.98129,1.98129,1.93637,1.95634,234400,1.75085
2015-09-28,1.96632,1.98129,1.95334,1.98129,201700,1.77318
2015-09-25,1.98129,1.98129,1.93138,1.96632,165400,1.75978
2015-09-24,1.95634,1.98628,1.95135,1.96133,242100,1.75531
2015-09-23,1.94635,1.99127,1.94635,1.99127,775100,1.78211
2015-09-22,1.9214,1.96632,1.91641,1.94635,352800,1.74191
2015-09-21,1.91641,1.92639,1.89645,1.9214,1524300,1.71958
2015-09-18,1.85652,1.94136,1.85153,1.90144,2806800,1.70171
2015-09-17,1.85652,1.87149,1.83157,1.85153,107500,1.65705
2015-09-16,1.84654,1.87149,1.83656,1.8665,174300,1.67044
2015-09-15,1.8665,1.87149,1.83656,1.83656,81800,1.64365
2015-09-14,1.87149,1.87149,1.85652,1.87149,98100,1.67491
2015-09-11,1.8665,1.88148,1.85652,1.85652,160700,1.66151
2015-09-10,1.87649,1.88647,1.8665,1.87649,78900,1.67938
2015-09-09,1.88148,1.88647,1.86151,1.88647,45400,1.68832
2015-09-08,1.88148,1.88647,1.86151,1.88647,76600,1.68832
2015-09-07,1.87149,1.89146,1.85652,1.88148,76000,1.68385
2015-09-04,1.8665,1.90643,1.85652,1.89645,188600,1.69725
2015-09-03,1.8665,1.87649,1.85652,1.85652,308300,1.66151
2015-09-02,1.86151,1.87149,1.85652,1.87149,151300,1.67491
2015-09-01,1.87649,1.87649,1.85652,1.8665,93400,1.67044
2015-08-31,1.87649,1.88148,1.85652,1.87649,178500,1.67938
2015-08-28,1.87149,1.87649,1.85652,1.87149,165000,1.67491
2015-08-27,1.85652,1.87149,1.84155,1.87149,87200,1.67491
2015-08-26,1.8166,1.86151,1.8166,1.86151,211700,1.66598
2015-08-25,1.80662,1.84654,1.80163,1.84155,125000,1.64811
2015-08-24,1.82658,1.83656,1.8166,1.82658,189900,1.63472
2015-08-21,1.84654,1.85652,1.84654,1.85153,347800,1.65705
2015-08-20,1.84654,1.85652,1.84654,1.85153,385900,1.65705
2015-08-19,1.85153,1.85652,1.84654,1.85153,351700,1.65705
2015-08-18,1.85153,1.85652,1.84654,1.85652,387500,1.66151
2015-08-17,1.85652,1.85652,1.84654,1.85652,182500,1.66151
2015-08-14,1.84654,1.85652,1.84654,1.85153,191000,1.65705
2015-08-13,1.85153,1.86151,1.84654,1.85652,76100,1.66151
2015-08-12,1.85153,1.85153,1.84654,1.84654,251800,1.65258
2015-08-11,1.85652,1.85652,1.84654,1.85153,220500,1.65705
2015-08-10,1.85652,1.85652,1.84654,1.85652,115600,1.66151
2015-08-07,1.85652,1.85652,1.84155,1.84654,204400,1.65258
2015-08-06,1.86151,1.86151,1.84654,1.85153,211600,1.65705
2015-08-05,1.85652,1.86151,1.85153,1.86151,312000,1.66598
2015-08-04,1.8665,1.8665,1.84654,1.85652,173100,1.66151
2015-08-03,1.83656,1.8665,1.83656,1.8665,193600,1.67044
2015-07-31,1.83157,1.85153,1.83157,1.84654,166300,1.65258
2015-07-30,1.85652,1.85652,1.84654,1.84654,790800,1.65258
2015-07-29,1.88148,1.88148,1.84654,1.85652,109900,1.66151
2015-07-28,1.88148,1.88647,1.8665,1.88647,188500,1.68832
2015-07-27,1.85652,1.87649,1.83157,1.87149,208600,1.67491
2015-07-24,1.86151,1.8665,1.84654,1.85652,118300,1.66151
2015-07-23,1.84654,1.8665,1.83656,1.85153,159700,1.65705
2015-07-22,1.81161,1.84654,1.81161,1.84654,339400,1.65258
2015-07-21,1.79663,1.81161,1.79663,1.80163,93500,1.61239
2015-07-20,1.79663,1.82658,1.79164,1.80662,131200,1.61685
2015-07-17,1.80662,1.8166,1.78665,1.78665,142300,1.59898
2015-07-16,1.78166,1.82658,1.78166,1.79663,306600,1.60791
2015-07-15,1.77667,1.79663,1.76669,1.79663,431500,1.60791
2015-07-14,1.83157,1.83157,1.75172,1.78665,670600,1.59898
2015-07-13,1.83357,1.83656,1.8166,1.82159,157700,1.63025
2015-07-10,1.84654,1.84654,1.82658,1.83656,116500,1.64365
2015-07-09,1.83656,1.85153,1.82658,1.85153,246400,1.65705
2015-07-08,1.83157,1.83656,1.82658,1.83656,72400,1.64365
2015-07-07,1.83656,1.84155,1.82658,1.83157,142700,1.63918
2015-07-06,1.84654,1.84654,1.83656,1.83656,87900,1.64365
2015-07-03,1.85652,1.85652,1.83656,1.84654,169800,1.65258
2015-07-02,1.85153,1.85652,1.83656,1.85652,579400,1.66151
2015-07-01,1.84654,1.85652,1.83656,1.85153,828800,1.65705
2015-06-30,1.8665,1.88148,1.84654,1.84654,260000,1.65258
2015-06-29,1.85153,1.8665,1.83656,1.86151,367100,1.66598
2015-06-26,1.85153,1.86151,1.84654,1.86151,218300,1.66598
2015-06-25,1.9214,1.94136,1.91142,1.94136,1215500,1.66728
2015-06-24,1.93138,1.93388,1.90643,1.92639,723000,1.65442
2015-06-23,1.9214,1.93138,1.90144,1.92639,1547000,1.65442
2015-06-22,1.95634,1.96133,1.9214,1.9214,843000,1.65013
2015-06-19,1.94136,1.96632,1.92639,1.96632,2228800,1.68871
2015-06-18,1.94635,1.98628,1.9214,1.94136,966600,1.66728
2015-06-17,2.05615,2.06613,2.05615,2.06613,64600,1.77443
2015-06-16,2.07611,2.07611,2.05615,2.05615,83000,1.76586
2015-06-15,2.05615,2.07611,2.04617,2.07611,182400,1.783
2015-06-12,2.06613,2.07611,2.04617,2.04617,44200,1.75729
2015-06-11,2.08609,2.08609,2.06613,2.07611,315300,1.783
2015-06-10,2.07611,2.08609,2.06613,2.07611,449600,1.783
2015-06-09,2.07611,2.08609,2.06613,2.07611,454900,1.783
2015-06-08,2.08609,2.08609,2.08609,2.08609,000,1.79157
2015-06-05,2.07611,2.08609,2.06613,2.08609,200900,1.79157
2015-06-04,2.06613,2.0811,2.06613,2.07611,407100,1.783
2015-06-03,2.09607,2.09607,2.06613,2.06613,175700,1.77443
2015-06-02,2.07611,2.10606,2.07611,2.10606,155400,1.80872
2015-06-01,2.07611,2.08609,2.07611,2.07611,109300,1.783
2015-05-29,2.08609,2.09607,2.07611,2.07611,280400,1.783
2015-05-28,2.07611,2.09607,2.06613,2.07611,212700,1.783
2015-05-27,2.07611,2.10106,2.07611,2.07611,304800,1.783
2015-05-26,2.08609,2.09607,2.06613,2.06613,288300,1.77443
2015-05-25,2.07611,2.11604,2.06613,2.08609,241000,1.79157
2015-05-22,2.05615,2.08609,2.05615,2.08609,387200,1.79157
2015-05-21,2.05615,2.06613,2.04617,2.05615,138100,1.76586
2015-05-20,2.05615,2.06613,2.05615,2.05615,28700,1.76586
2015-05-19,2.05615,2.07611,2.05615,2.05615,135600,1.76586
2015-05-18,2.05615,2.06613,2.04617,2.04617,354300,1.75729
2015-05-15,2.05615,2.07611,2.04617,2.05615,110700,1.76586
2015-05-14,2.05615,2.06613,2.04617,2.05615,104100,1.76586
2015-05-13,2.05615,2.06613,2.03619,2.04617,354400,1.75729
2015-05-12,2.05615,2.06613,2.04617,2.06613,108900,1.77443
2015-05-11,2.04617,2.06613,2.04617,2.06613,226400,1.77443
2015-05-08,2.0262,2.06613,2.0262,2.05615,122500,1.76586
2015-05-07,2.05615,2.06613,2.00624,2.0262,359000,1.74014
2015-05-06,2.05615,2.06613,2.04617,2.05615,153200,1.76586
2015-05-05,2.05615,2.06613,2.05615,2.06613,85400,1.77443
2015-05-04,2.05615,2.06613,2.04617,2.06613,50300,1.77443
2015-05-01,2.05615,2.06613,2.05615,2.05615,51400,1.76586
2015-04-30,2.05615,2.06613,2.04617,2.06613,109200,1.77443
2015-04-29,2.05615,2.06613,2.04617,2.05615,601000,1.76586
2015-04-28,2.05615,2.06613,2.04617,2.05615,121900,1.76586
2015-04-27,2.05615,2.05615,2.03619,2.05615,41900,1.76586
2015-04-24,2.04617,2.05615,2.04617,2.05615,34800,1.76586
2015-04-23,2.03619,2.05615,2.03619,2.05615,112900,1.76586
2015-04-22,2.05615,2.05615,2.0262,2.04617,69400,1.75729
2015-04-21,2.05615,2.07611,2.0262,2.03619,193800,1.74872
2015-04-20,2.03619,2.07611,2.0262,2.05615,167700,1.76586
2015-04-17,2.04617,2.04617,2.0312,2.04617,109800,1.75729
2015-04-16,2.03619,2.04617,2.0262,2.0262,189000,1.74014
2015-04-15,2.00624,2.03619,2.00624,2.03619,295000,1.74872
2015-04-14,2.01622,2.0262,2.01622,2.01622,136400,1.73157
2015-04-13,2.01622,2.01622,2.00125,2.00624,636400,1.723
2015-04-10,2.01622,2.0262,2.01622,2.0262,156100,1.74014
2015-04-09,2.00624,2.0262,2.00125,2.0262,167000,1.74014
2015-04-08,2.01622,2.0262,1.99626,2.00624,76800,1.723
2015-04-07,2.01622,2.04118,1.99127,2.03619,537400,1.74872
2015-04-06,2.00624,2.00624,2.00624,2.00624,000,1.723
2015-04-03,2.00624,2.00624,2.00624,2.00624,000,1.723
2015-04-02,1.98628,2.01622,1.98628,2.00624,185800,1.723
2015-04-01,1.99127,1.99626,1.98329,1.99626,463200,1.71443
2015-03-31,1.99626,1.99626,1.98628,1.99626,297000,1.71443
2015-03-30,2.00624,2.01622,1.98628,1.99127,431200,1.71014
2015-03-27,1.98129,2.01622,1.98129,2.01622,575500,1.73157
2015-03-26,1.99127,1.99127,1.9763,1.98129,587000,1.70157
2015-03-25,1.98628,2.00624,1.98129,2.00624,808100,1.723
2015-03-24,1.98628,1.99127,1.9763,1.98129,118700,1.70157
2015-03-23,1.96632,1.99127,1.96632,1.98628,319400,1.70585
2015-03-20,1.98628,1.99127,1.96632,1.96632,136600,1.68871
2015-03-19,1.9763,1.99626,1.9763,1.99626,132000,1.71443
2015-03-18,1.97829,1.99127,1.96632,1.96632,122900,1.68871
2015-03-17,1.99127,1.99127,1.9763,1.9763,184600,1.69728
2015-03-16,1.99127,1.99127,1.98129,1.99127,188800,1.71014
2015-03-13,1.99626,1.99626,1.98129,1.98129,213900,1.70157
2015-03-12,1.98129,1.99626,1.98129,1.98628,190700,1.70585
2015-03-11,1.9763,1.99626,1.9763,1.98129,474600,1.70157
2015-03-10,1.96632,1.99127,1.96332,1.98129,235300,1.70157
2015-03-09,1.98129,1.98129,1.95634,1.96133,229500,1.68443
2015-03-06,1.99127,1.99626,1.9763,1.98628,270700,1.70585
2015-03-05,2.00624,2.00624,1.97829,1.98628,439000,1.70585
2015-03-04,2.00624,2.00624,1.98828,1.99626,303000,1.71443
2015-03-03,2.00624,2.01622,1.99626,2.00624,302700,1.723
2015-03-02,1.99626,2.01622,1.99626,2.00624,451000,1.723
2015-02-27,2.00624,2.01622,1.99626,1.99626,325100,1.71443
2015-02-26,2.0262,2.0262,2.00624,2.01622,1127300,1.73157
2015-02-25,2.01622,2.0262,2.00624,2.0262,252800,1.74014
2015-02-24,2.03619,2.03619,2.00624,2.01622,1030900,1.73157
2015-02-23,2.03619,2.05615,2.0262,2.04617,974800,1.75729
2015-02-20,2.05615,2.05615,2.03619,2.03619,820000,1.74872
2015-02-19,2.06613,2.07611,2.05615,2.05615,318000,1.76586
2015-02-18,2.06613,2.07611,2.05615,2.06613,324500,1.77443
2015-02-17,2.08609,2.08609,2.05615,2.06613,392500,1.77443
2015-02-16,2.06114,2.07611,2.04617,2.07611,433400,1.783
2015-02-13,2.07611,2.07611,2.04617,2.04617,265100,1.75729
2015-02-12,2.04617,2.08609,2.03619,2.07611,499100,1.783
2015-02-11,2.01622,2.04617,2.01622,2.04617,575400,1.75729
2015-02-10,1.99626,2.00624,1.98628,1.99626,630700,1.71443
2015-02-09,2.00624,2.01622,1.98628,1.98628,724800,1.70585
2015-02-06,2.01622,2.02121,2.00624,2.00624,831200,1.723
2015-02-05,2.01622,2.01622,1.99626,2.01622,791800,1.73157
2015-02-04,2.04617,2.04617,1.99626,2.01622,1412700,1.73157
2015-02-03,2.01622,2.04617,2.00624,2.03619,919200,1.74872
2015-02-02,2.01622,2.01622,2.00624,2.00624,882700,1.723
2015-01-30,2.01622,2.01622,2.00624,2.01622,620700,1.73157
2015-01-29,2.01622,2.01622,2.00624,2.00624,275600,1.723
2015-01-28,2.00624,2.01622,2.00125,2.01622,321300,1.73157
2015-01-27,2.00624,2.0262,2.00624,2.00624,290900,1.723
2015-01-26,2.01622,2.01622,2.01622,2.01622,000,1.73157
2015-01-23,1.99626,2.01622,1.99626,2.01622,502300,1.73157
2015-01-22,2.00624,2.01622,1.99626,2.00624,976500,1.723
2015-01-21,2.0262,2.03619,2.00624,2.00624,694000,1.723
2015-01-20,2.0262,2.04617,2.0262,2.03619,93100,1.74872
2015-01-19,2.00624,2.04617,2.00624,2.0262,78700,1.74014
2015-01-16,2.00624,2.01622,2.00624,2.00624,122800,1.723
2015-01-15,2.01622,2.01622,1.99626,2.01622,229700,1.73157
2015-01-14,2.01622,2.01622,2.00125,2.01622,118200,1.73157
2015-01-13,2.01123,2.01123,1.99626,1.99626,481200,1.71443
2015-01-12,2.00624,2.01622,2.00624,2.00624,108100,1.723
2015-01-09,2.01622,2.0262,2.00624,2.00624,144000,1.723
2015-01-08,1.99626,2.01622,1.99626,2.00624,205600,1.723
2015-01-07,1.98129,2.01622,1.98129,1.99127,107400,1.71014
2015-01-06,2.01622,2.01622,1.9763,1.9763,88300,1.69728
2015-01-05,2.04617,2.05615,2.00624,2.01622,154900,1.73157
2015-01-02,1.99626,2.04617,1.99626,2.04617,16500,1.75729
2015-01-01,1.99626,1.99626,1.99626,1.99626,000,1.71443
2014-12-31,2.00624,2.03619,1.99626,1.99626,74900,1.71443
2014-12-30,2.0262,2.03619,2.00624,2.00624,31500,1.723
2014-12-29,2.03619,2.05615,2.00624,2.0262,29700,1.74014
2014-12-26,2.03619,2.03619,2.03619,2.03619,000,1.67692
2014-12-25,2.03619,2.03619,2.03619,2.03619,000,1.67692
2014-12-24,2.05615,2.09607,2.03619,2.03619,91200,1.67692
2014-12-23,2.07611,2.08609,2.03619,2.03619,85200,1.67692
2014-12-22,2.03619,2.07611,2.03619,2.07611,184800,1.7098
2014-12-19,2.03619,2.08609,2.03619,2.03619,256100,1.67692
2014-12-18,2.01622,2.03619,2.01622,2.01622,154600,1.66047
2014-12-17,2.01622,2.0262,2.01622,2.01622,232400,1.66047
2014-12-16,2.00624,2.0262,1.99626,2.0262,129600,1.66869
2014-12-15,2.01622,2.02121,1.99626,2.00624,213300,1.65225
2014-12-12,2.01123,2.0262,1.99626,2.00624,149000,1.65225
2014-12-11,1.99626,2.0262,1.99626,2.00624,186700,1.65225
2014-12-10,2.00624,2.00624,1.98628,1.99626,53200,1.64404
2014-12-09,2.00624,2.01622,1.9763,1.9763,145900,1.6276
2014-12-08,2.0262,2.03619,2.01622,2.0262,145600,1.66869
2014-12-05,2.0262,2.0312,2.01622,2.01622,161100,1.66047
2014-12-04,2.0262,2.03619,2.01622,2.0262,141900,1.66869
2014-12-03,2.00624,2.03619,1.99626,2.03619,156900,1.67692
2014-12-02,1.99127,2.00624,1.99127,2.00624,156800,1.65225
2014-12-01,2.00624,2.01622,1.98628,1.98628,83500,1.63582
2014-11-28,1.99626,2.01622,1.98628,1.98628,191800,1.63582
2014-11-27,1.98628,2.00624,1.98628,2.00624,308600,1.65225
2014-11-26,1.98628,1.99626,1.98129,1.98628,145000,1.63582
2014-11-25,1.9763,1.98628,1.96632,1.9763,241000,1.6276
2014-11-24,1.98628,1.99626,1.96632,1.96632,165600,1.61938
2014-11-21,1.98628,1.98628,1.9763,1.9763,671200,1.6276
2014-11-20,1.98628,1.98878,1.9763,1.98628,165300,1.63582
2014-11-19,1.98628,1.99127,1.9763,1.9763,168400,1.6276
2014-11-18,1.98129,2.00624,1.9763,1.98628,301700,1.63582
2014-11-17,1.98129,1.98129,1.97131,1.9763,288100,1.6276
2014-11-14,1.99127,1.99127,1.96632,1.9763,166100,1.6276
2014-11-13,1.98628,1.98628,1.9763,1.9763,153600,1.6276
2014-11-12,1.98628,1.99127,1.98628,1.98628,164400,1.63582
2014-11-11,1.99626,1.99626,1.9763,1.98129,282900,1.63171
2014-11-10,1.99327,1.99626,1.98628,1.99127,156400,1.63993
2014-11-07,1.98628,1.99626,1.9763,1.99626,215900,1.64404
2014-11-06,1.99127,1.99626,1.97131,1.97131,257000,1.62349
2014-11-05,1.99127,1.99127,1.9763,1.9763,291400,1.6276
2014-11-04,2.00624,2.01622,1.99626,1.99626,64200,1.64404
2014-11-03,2.00624,2.01622,1.99127,2.01622,109200,1.66047
2014-10-31,1.99626,2.01622,1.99127,1.99127,97000,1.63993
2014-10-30,1.99626,2.00624,1.99127,1.99127,120700,1.63993
2014-10-29,1.99626,1.99626,1.99127,1.99626,92600,1.64404
2014-10-28,2.00624,2.00624,1.98628,1.98628,72400,1.63582
2014-10-27,1.98628,2.01622,1.98628,2.01622,283600,1.66047
2014-10-24,1.98628,1.99626,1.9763,1.9763,103900,1.6276
2014-10-23,1.98129,1.99626,1.9763,1.98628,254100,1.63582
2014-10-22,1.98628,1.99626,1.98129,1.99127,224000,1.63993
2014-10-21,1.99626,2.01622,1.98628,1.99127,237600,1.63993
2014-10-20,1.99626,2.01622,1.9763,2.01622,154300,1.66047
2014-10-17,1.99127,1.99626,1.98129,1.99626,187700,1.64404
2014-10-16,1.97131,1.99626,1.96133,1.99626,203200,1.64404
2014-10-15,1.9733,1.99127,1.96632,1.96632,291600,1.61938
2014-10-14,1.97131,1.9763,1.96632,1.9763,231900,1.6276
2014-10-13,1.99626,1.99626,1.96332,1.96632,469800,1.61938
2014-10-10,1.99127,2.00624,1.95634,2.00624,399000,1.65225
2014-10-09,1.97131,2.00624,1.96133,1.99626,125700,1.64404
2014-10-08,1.95634,1.96632,1.95634,1.96632,156500,1.61938
2014-10-07,1.96632,1.96632,1.95634,1.96632,141100,1.61938
2014-10-06,1.96632,1.96632,1.95634,1.95634,54900,1.61116
2014-10-03,1.96133,1.96632,1.94635,1.95634,209400,1.61116
2014-10-02,1.95634,1.96632,1.94635,1.95634,262800,1.61116
2014-10-01,1.95634,1.97131,1.95135,1.96133,320900,1.61527
2014-09-30,1.95634,1.96632,1.94635,1.96632,203100,1.61938
2014-09-29,1.94635,1.9763,1.93138,1.96133,119200,1.61527
2014-09-26,1.94635,1.94635,1.92639,1.92639,149700,1.58649
2014-09-25,1.96632,1.96632,1.94635,1.94635,260300,1.60293
2014-09-24,1.96632,1.96632,1.94635,1.96632,294900,1.61938
2014-09-23,1.96133,1.9763,1.96133,1.96632,243800,1.61938
2014-09-22,1.9763,1.9763,1.95634,1.95634,206200,1.61116
2014-09-19,1.96632,1.99127,1.96133,1.9763,476700,1.6276
2014-09-18,1.9763,1.98129,1.95634,1.97131,382200,1.62349
2014-09-17,1.98129,2.00624,1.97131,1.97131,266800,1.62349
2014-09-16,1.99626,1.99626,1.97131,1.9763,191100,1.6276
2014-09-15,2.01622,2.0262,1.99127,1.99626,498900,1.64404
2014-09-12,2.03619,2.06114,2.01622,2.04617,319800,1.68514
2014-09-11,2.03619,2.06613,2.01622,2.0262,147700,1.66869
2014-09-10,2.04617,2.06114,2.03619,2.03619,180100,1.67692
2014-09-09,2.03619,2.06613,2.03619,2.06613,310500,1.70158
2014-09-08,2.04617,2.04617,2.03619,2.04617,108100,1.68514
2014-09-05,2.0262,2.04617,2.0262,2.04617,294900,1.68514
2014-09-04,2.03619,2.04617,2.01622,2.04617,543000,1.68514
2014-09-03,2.00624,2.0262,1.99626,2.0262,506600,1.66869
2014-09-02,1.99626,2.00624,1.99626,2.00624,1125600,1.65225
2014-09-01,2.00624,2.00624,1.99626,1.99626,488400,1.64404
2014-08-29,2.00624,2.00624,1.99127,2.00624,329200,1.65225
2014-08-28,1.99626,2.00624,1.99127,2.00624,507500,1.65225
2014-08-27,2.00624,2.01622,1.99626,2.00624,1056500,1.65225
2014-08-26,2.01622,2.0262,1.99626,1.99626,1360600,1.64404
2014-08-25,2.00624,2.06613,1.99626,2.00624,356400,1.65225
2014-08-22,1.99127,2.01622,1.98828,1.99626,416500,1.64404
2014-08-21,1.99127,1.99626,1.98129,1.99626,289300,1.64404
2014-08-20,1.98129,1.99626,1.97131,1.9763,317900,1.6276
2014-08-19,1.9763,1.98129,1.97131,1.97131,203700,1.62349
2014-08-18,1.99127,1.99626,1.98329,1.99127,196200,1.63993
2014-08-15,1.98628,1.99626,1.9763,1.9763,282500,1.6276
2014-08-14,1.9763,1.99127,1.9763,1.99127,271500,1.63993
2014-08-13,1.98628,1.99626,1.96632,1.99626,86700,1.64404
2014-08-12,1.96133,1.98628,1.95634,1.98628,126700,1.63582
2014-08-11,1.96133,1.99626,1.95135,1.95135,133500,1.60705
2014-08-08,1.96632,1.9763,1.95135,1.95634,214000,1.61116
2014-08-07,1.9763,1.98628,1.95634,1.97131,117800,1.62349
2014-08-06,1.9763,1.98628,1.95634,1.95634,203300,1.61116
2014-08-05,1.98628,1.99127,1.96632,1.96632,148100,1.61938
2014-08-04,1.9763,1.98628,1.97131,1.98129,119200,1.63171
2014-08-01,1.9763,1.98628,1.97131,1.97131,71400,1.62349
2014-07-31,1.9763,1.98628,1.97131,1.9763,154700,1.6276
2014-07-30,1.9763,1.98628,1.96133,1.9763,162200,1.6276
2014-07-29,1.97131,1.98628,1.96632,1.96632,190100,1.61938
2014-07-28,1.99626,1.99626,1.96632,1.98628,173100,1.63582
2014-07-25,1.98129,1.99626,1.96632,1.98628,161900,1.63582
2014-07-24,1.98129,1.99626,1.9763,1.99127,174300,1.63993
2014-07-23,1.98628,1.99626,1.97131,1.98628,160300,1.63582
2014-07-22,1.97131,1.99626,1.97131,1.99127,117900,1.63993
2014-07-21,1.97131,1.99127,1.96632,1.98628,181300,1.63582
2014-07-18,1.97131,1.9763,1.96133,1.96632,62700,1.61938
2014-07-17,1.96632,1.96632,1.94635,1.96632,203500,1.61938
2014-07-16,1.9763,1.98628,1.96133,1.96632,107000,1.61938
2014-07-15,1.9763,1.98628,1.96632,1.97131,229400,1.62349
2014-07-14,1.98628,1.98628,1.96632,1.97131,177000,1.62349
2014-07-11,2.01622,2.01622,1.9763,1.98129,241900,1.63171
2014-07-10,1.99626,2.0262,1.98628,2.01622,284400,1.66047
2014-07-09,1.97131,1.99127,1.96632,1.99127,162600,1.63993
2014-07-08,1.99127,1.99127,1.95135,1.96133,160500,1.61527
2014-07-07,1.97131,1.98628,1.96632,1.98129,116200,1.63171
2014-07-04,1.96632,2.00624,1.96632,1.97131,145200,1.62349
2014-07-03,1.9763,1.98129,1.94635,1.95634,194000,1.61116
2014-07-02,1.94635,2.00624,1.94635,1.98129,123400,1.63171
2014-07-01,1.95634,1.96632,1.94136,1.94136,133100,1.59882
2014-06-30,1.95634,1.96133,1.93637,1.93637,148900,1.59471
2014-06-27,1.95634,1.96632,1.94635,1.95135,247800,1.60705
2014-06-26,1.93637,1.96632,1.93637,1.95135,149600,1.60705
2014-06-25,2.03619,2.04617,2.0312,2.03619,208400,1.59835
2014-06-24,2.0262,2.03619,2.01622,2.0262,214900,1.59051
2014-06-23,2.0262,2.0262,2.01622,2.0262,324900,1.59051
2014-06-20,2.0262,2.0262,2.00624,2.0262,295300,1.59051
2014-06-19,2.0262,2.0262,2.00624,2.0262,166200,1.59051
2014-06-18,2.01622,2.0262,2.01622,2.0262,140900,1.59051
2014-06-17,2.01622,2.0262,2.00624,2.0262,211000,1.59051
2014-06-16,2.01622,2.0262,2.01622,2.0262,92000,1.59051
2014-06-13,2.0262,2.0262,2.00624,2.00624,162100,1.57484
2014-06-12,2.0262,2.0262,2.01622,2.0262,143200,1.59051
2014-06-11,2.0262,2.03619,2.00624,2.01622,216600,1.58268
2014-06-10,2.04617,2.04617,2.00624,2.0262,164200,1.59051
2014-06-09,2.04617,2.04617,2.04617,2.04617,000,1.60619
2014-06-06,2.01622,2.04617,2.00624,2.04617,163000,1.60619
2014-06-05,1.99626,2.01622,1.99626,2.01622,127600,1.58268
2014-06-04,1.98129,2.01622,1.96133,2.01622,270700,1.58268
2014-06-03,1.99626,2.01622,1.9763,1.98628,330900,1.55918
2014-06-02,2.00624,2.01622,1.99626,1.99626,189600,1.56701
2014-05-30,1.99626,2.00624,1.98628,1.99626,1024800,1.56701
2014-05-29,1.99626,1.99626,1.98628,1.99127,71500,1.56309
2014-05-28,1.98628,2.00624,1.98628,1.99626,486800,1.56701
2014-05-27,2.00624,2.00624,1.98628,1.98628,445100,1.55918
2014-05-26,1.99626,2.00624,1.99127,2.00624,248900,1.57484
2014-05-23,1.98129,2.01622,1.98129,2.01622,295300,1.58268
2014-05-22,1.99127,1.99127,1.96632,1.98628,81700,1.55918
2014-05-21,1.96632,1.99626,1.95634,1.99127,338200,1.56309
2014-05-20,1.96632,2.01622,1.95135,2.01622,168100,1.58268
2014-05-19,1.96632,1.96632,1.95634,1.96133,214100,1.53959
2014-05-16,1.96632,1.96632,1.95634,1.96632,211800,1.54351
2014-05-15,1.95634,1.96632,1.95634,1.95634,131900,1.53567
2014-05-14,1.94136,1.96133,1.94136,1.95634,81100,1.53567
2014-05-13,1.94635,1.96133,1.94136,1.94136,306000,1.52391
2014-05-12,1.94136,1.95634,1.93637,1.94136,155100,1.52391
2014-05-09,1.93637,1.94635,1.93637,1.94136,103100,1.52391
2014-05-08,1.93637,1.94136,1.93138,1.93637,66200,1.52
2014-05-07,1.91641,1.94136,1.91641,1.93637,71300,1.52
2014-05-06,1.92639,1.93637,1.91641,1.92639,190400,1.51216
2014-05-05,1.92639,1.93637,1.92639,1.92639,167300,1.51216
2014-05-02,1.91641,1.94136,1.91641,1.9214,181600,1.50825
2014-05-01,1.9214,1.93637,1.90144,1.91142,126200,1.50041
2014-04-30,1.92639,1.93637,1.89645,1.90643,228300,1.4965
2014-04-29,1.93637,1.94635,1.91142,1.92639,173400,1.51216
2014-04-28,1.92639,1.93637,1.92639,1.92639,95800,1.51216
2014-04-25,1.9214,1.9214,1.9214,1.9214,000,1.50825
2014-04-24,1.9214,1.92639,1.91641,1.9214,237700,1.50825
2014-04-23,1.91641,1.9214,1.90643,1.90643,81200,1.4965
2014-04-22,1.91641,1.9214,1.90643,1.91641,49700,1.50433
2014-04-21,1.9214,1.9214,1.9214,1.9214,000,1.50825
2014-04-18,1.9214,1.9214,1.9214,1.9214,000,1.50825
2014-04-17,1.91641,1.92639,1.90643,1.9214,231800,1.50825
2014-04-16,1.9214,1.92639,1.91641,1.9214,63900,1.50825
2014-04-15,1.89645,1.9214,1.89645,1.90643,126100,1.4965
2014-04-14,1.90643,1.92639,1.87649,1.89645,320900,1.48866
2014-04-11,1.90144,1.91641,1.87649,1.91641,245600,1.50433
2014-04-10,1.91641,1.9214,1.90144,1.90144,252500,1.49258
2014-04-09,1.91142,1.9214,1.91142,1.9214,172600,1.50825
2014-04-08,1.91142,1.91142,1.90643,1.91142,42200,1.50041
2014-04-07,1.91641,1.9214,1.89645,1.9214,116100,1.50825
2014-04-04,1.90144,1.9214,1.89645,1.91641,79900,1.50433
2014-04-03,1.90643,1.91142,1.87649,1.89645,404600,1.48866
2014-04-02,1.87649,1.90144,1.87649,1.89645,595400,1.48866
2014-04-01,1.83656,1.88148,1.82658,1.87649,584400,1.47299
2014-03-31,1.87149,1.87149,1.80163,1.83157,1557100,1.43773
2014-03-28,1.87149,1.89146,1.84155,1.84654,518600,1.44948
2014-03-27,1.89645,1.89645,1.85153,1.85652,664100,1.45732
2014-03-26,1.89645,1.91142,1.86151,1.90643,784600,1.4965
2014-03-25,1.89645,1.90144,1.88647,1.88647,538600,1.48083
2014-03-24,1.90643,1.91641,1.88647,1.89645,941200,1.48866
2014-03-21,1.95634,1.95634,1.89645,1.89645,8894200,1.48866
2014-03-20,1.94635,1.95634,1.94635,1.95634,792500,1.53567
2014-03-19,1.96133,1.96133,1.95135,1.95634,631400,1.53567
2014-03-18,1.95634,1.96632,1.94635,1.96133,446200,1.53959
2014-03-17,1.95634,1.96632,1.95135,1.96133,188800,1.53959
2014-03-14,1.94635,1.96133,1.94635,1.96133,594100,1.53959
2014-03-13,1.93637,1.95634,1.93637,1.95634,584900,1.53567
2014-03-12,1.95634,1.95634,1.93637,1.94136,350700,1.52391
2014-03-11,1.95634,1.96133,1.94136,1.96133,2180500,1.53959
2014-03-10,1.95135,1.96632,1.95135,1.96632,236900,1.54351
2014-03-07,1.93138,1.96133,1.93138,1.94635,318600,1.52783
2014-03-06,1.91641,1.93637,1.91641,1.93637,160400,1.52
2014-03-05,1.92639,1.93637,1.92639,1.92639,238600,1.51216
2014-03-04,1.93637,1.94136,1.91641,1.91641,129500,1.50433
2014-03-03,1.9214,1.93637,1.9214,1.93637,130900,1.52
2014-02-28,1.94635,1.95634,1.92639,1.93138,412600,1.51608
2014-02-27,1.93637,1.93637,1.92639,1.92639,360600,1.51216
2014-02-26,1.93637,1.93637,1.93138,1.93637,270200,1.52
2014-02-25,1.93637,1.93637,1.93138,1.93637,264800,1.52
2014-02-24,1.9214,1.94635,1.9214,1.93637,529000,1.52
2014-02-21,1.91142,1.95135,1.90643,1.95135,216000,1.53176
2014-02-20,1.94635,1.94635,1.91142,1.91142,393900,1.50041
2014-02-19,1.95634,1.96133,1.94635,1.95634,93700,1.53567
2014-02-18,1.94635,1.96133,1.93637,1.94635,245600,1.52783
2014-02-17,1.94136,1.95135,1.93637,1.94635,101500,1.52783
2014-02-14,1.94635,1.95634,1.94635,1.94635,89700,1.52783
2014-02-13,1.95135,1.96632,1.93138,1.93637,317000,1.52
2014-02-12,1.95135,1.95135,1.93138,1.95135,126600,1.53176
2014-02-11,1.94635,1.95135,1.93637,1.94635,150600,1.52783
2014-02-10,1.94635,1.94635,1.93637,1.94136,93000,1.52391
2014-02-07,1.94635,1.95135,1.93637,1.94635,56100,1.52783
2014-02-06,1.93138,1.93637,1.92639,1.93637,174400,1.52
2014-02-05,1.93637,1.93637,1.9214,1.93637,292200,1.52
2014-02-04,1.95634,1.95634,1.93138,1.93637,220100,1.52
2014-02-03,1.95634,1.96632,1.93637,1.95634,189600,1.53567
2014-01-31,1.96632,1.97131,1.93637,1.93637,220800,1.52
2014-01-30,1.93637,1.94635,1.92639,1.94635,117400,1.52783
2014-01-29,1.93138,1.94635,1.93138,1.93637,163200,1.52
2014-01-28,1.93637,1.93637,1.91641,1.9214,215600,1.50825
2014-01-27,1.93138,1.93138,1.93138,1.93138,000,1.51608
2014-01-24,1.92639,1.94136,1.9214,1.93138,318100,1.51608
2014-01-23,1.92639,1.93637,1.92639,1.92639,359900,1.51216
2014-01-22,1.93138,1.93637,1.91641,1.91641,542600,1.50433
2014-01-21,1.9214,1.93138,1.91641,1.93138,321100,1.51608
2014-01-20,1.9214,1.92639,1.91641,1.91641,274100,1.50433
2014-01-17,1.91641,1.9214,1.91641,1.91641,361600,1.50433
2014-01-16,1.90643,1.91641,1.90643,1.91641,479300,1.50433
2014-01-15,1.90144,1.90643,1.89645,1.90144,361400,1.49258
2014-01-14,1.90643,1.90643,1.89645,1.90144,420000,1.49258
2014-01-13,1.90144,1.91142,1.88148,1.88647,451500,1.48083
2014-01-10,1.88647,1.89645,1.88647,1.89146,322600,1.48474
2014-01-09,1.87649,1.89645,1.87649,1.88647,619000,1.48083
2014-01-08,1.88647,1.89645,1.8665,1.87649,479800,1.47299
2014-01-07,1.89645,1.89645,1.88647,1.88647,649700,1.48083
2014-01-06,1.89645,1.91142,1.89146,1.89645,225400,1.48866
2014-01-03,1.88647,1.89645,1.88647,1.88647,137300,1.48083
2014-01-02,1.89645,1.90643,1.89645,1.89645,64400,1.48866
2014-01-01,1.88647,1.88647,1.88647,1.88647,000,1.48083
2013-12-31,1.90144,1.91142,1.88647,1.88647,100400,1.48083
2013-12-30,1.90643,1.90643,1.89146,1.90144,162500,1.49258
2013-12-27,1.90144,1.90643,1.89645,1.89645,208900,1.48866
2013-12-26,1.90144,1.90144,1.90144,1.90144,000,1.49258
2013-12-25,1.90144,1.90144,1.90144,1.90144,000,1.49258
2013-12-24,1.89146,1.90144,1.89146,1.90144,101600,1.49258
2013-12-23,1.88647,1.89645,1.87649,1.89645,157600,1.48866
2013-12-20,1.87649,1.88647,1.87149,1.87149,307300,1.46907
2013-12-19,1.87649,1.88148,1.84654,1.87649,327800,1.47299
2013-12-18,1.83656,1.87149,1.83656,1.87149,478500,1.46907
2013-12-17,1.88647,1.88647,1.83656,1.83656,824600,1.44165
2013-12-16,1.82658,1.88647,1.82658,1.88148,484900,1.47691
2013-12-13,1.85153,1.8665,1.82658,1.82658,1160700,1.43382
2013-12-12,1.8166,1.85153,1.80163,1.80662,1447600,1.41815
2013-12-11,1.82658,1.86151,1.81161,1.81161,1001200,1.42206
2013-12-10,1.8665,1.88148,1.8166,1.82658,1164700,1.43382
2013-12-09,1.90643,1.90643,1.82658,1.83157,1925300,1.43773
2013-12-06,1.88647,1.90643,1.87649,1.89645,1000000,1.48866
2013-12-05,1.9214,1.92639,1.89645,1.89645,1604000,1.48866
2013-12-04,1.88647,1.92639,1.88647,1.90643,3402900,1.4965
