Date,Open,High,Low,Close,Volume,Adj Close
2016-11-08,0.066,0.066,0.066,0.066,000,0.066
2016-11-07,0.066,0.066,0.066,0.066,000,0.066
2016-11-04,0.066,0.066,0.066,0.066,000,0.066
2016-11-03,0.066,0.066,0.066,0.066,000,0.066
2016-11-02,0.066,0.066,0.066,0.066,000,0.066
2016-11-01,0.066,0.066,0.066,0.066,000,0.066
2016-10-31,0.066,0.066,0.066,0.066,000,0.066
2016-10-28,0.066,0.066,0.066,0.066,000,0.066
2016-10-27,0.066,0.066,0.066,0.066,000,0.066
2016-10-26,0.066,0.066,0.066,0.066,000,0.066
2016-10-25,0.066,0.066,0.066,0.066,000,0.066
2016-10-24,0.066,0.066,0.066,0.066,000,0.066
2016-10-21,0.066,0.066,0.066,0.066,000,0.066
2016-10-20,0.066,0.066,0.066,0.066,000,0.066
2016-10-19,0.066,0.066,0.066,0.066,000,0.066
2016-10-18,0.066,0.066,0.066,0.066,000,0.066
2016-10-17,0.066,0.066,0.066,0.066,000,0.066
2016-10-14,0.066,0.066,0.066,0.066,000,0.066
2016-10-13,0.066,0.066,0.066,0.066,000,0.066
2016-10-12,0.066,0.066,0.066,0.066,000,0.066
2016-10-11,0.066,0.066,0.066,0.066,000,0.066
2016-10-10,0.066,0.066,0.066,0.066,000,0.066
2016-10-07,0.066,0.066,0.066,0.066,000,0.066
2016-10-06,0.066,0.066,0.066,0.066,000,0.066
2016-10-05,0.066,0.066,0.066,0.066,000,0.066
2016-10-04,0.066,0.066,0.066,0.066,000,0.066
2016-10-03,0.066,0.066,0.066,0.066,000,0.066
2016-09-30,0.066,0.066,0.066,0.066,000,0.066
2016-09-29,0.066,0.066,0.066,0.066,000,0.066
2016-09-28,0.066,0.066,0.066,0.066,000,0.066
2016-09-27,0.066,0.066,0.066,0.066,000,0.066
2016-09-26,0.066,0.066,0.066,0.066,000,0.066
2016-09-23,0.066,0.066,0.066,0.066,000,0.066
2016-09-22,0.066,0.066,0.066,0.066,000,0.066
2016-09-21,0.066,0.066,0.066,0.066,000,0.066
2016-09-20,0.066,0.066,0.066,0.066,000,0.066
2016-09-19,0.066,0.066,0.066,0.066,000,0.066
2016-09-16,0.066,0.066,0.066,0.066,000,0.066
2016-09-15,0.066,0.066,0.066,0.066,000,0.066
2016-09-14,0.066,0.066,0.066,0.066,000,0.066
2016-09-13,0.066,0.066,0.066,0.066,000,0.066
2016-09-12,0.066,0.066,0.066,0.066,000,0.066
2016-09-09,0.066,0.066,0.066,0.066,000,0.066
2016-09-08,0.066,0.066,0.066,0.066,000,0.066
2016-09-07,0.066,0.066,0.066,0.066,000,0.066
2016-09-06,0.066,0.066,0.066,0.066,000,0.066
2016-09-05,0.066,0.066,0.066,0.066,000,0.066
2016-09-02,0.066,0.066,0.066,0.066,000,0.066
2016-09-01,0.066,0.066,0.066,0.066,000,0.066
2016-08-31,0.066,0.066,0.066,0.066,000,0.066
2016-08-30,0.066,0.066,0.066,0.066,000,0.066
2016-08-29,0.066,0.066,0.066,0.066,000,0.066
2016-08-26,0.066,0.066,0.066,0.066,000,0.066
2016-08-25,0.066,0.066,0.066,0.066,000,0.066
2016-08-24,0.066,0.066,0.066,0.066,000,0.066
2016-08-23,0.066,0.066,0.066,0.066,000,0.066
2016-08-22,0.066,0.066,0.066,0.066,000,0.066
2016-08-19,0.066,0.066,0.066,0.066,000,0.066
2016-08-18,0.066,0.066,0.066,0.066,000,0.066
2016-08-17,0.066,0.066,0.066,0.066,000,0.066
2016-08-16,0.066,0.066,0.066,0.066,000,0.066
2016-08-15,0.066,0.066,0.066,0.066,000,0.066
2016-08-12,0.066,0.066,0.066,0.066,000,0.066
2016-08-11,0.066,0.066,0.066,0.066,000,0.066
2016-08-10,0.066,0.066,0.066,0.066,000,0.066
2016-08-09,0.066,0.066,0.066,0.066,000,0.066
2016-08-08,0.066,0.066,0.066,0.066,000,0.066
2016-08-05,0.066,0.066,0.066,0.066,000,0.066
2016-08-04,0.066,0.066,0.066,0.066,000,0.066
2016-08-03,0.066,0.066,0.066,0.066,000,0.066
2016-08-02,0.066,0.066,0.066,0.066,000,0.066
2016-08-01,0.066,0.066,0.066,0.066,000,0.066
2016-07-29,0.066,0.066,0.066,0.066,000,0.066
2016-07-28,0.066,0.066,0.066,0.066,000,0.066
2016-07-27,0.066,0.066,0.066,0.066,000,0.066
2016-07-26,0.066,0.066,0.066,0.066,000,0.066
2016-07-25,0.066,0.066,0.066,0.066,000,0.066
2016-07-22,0.066,0.066,0.066,0.066,000,0.066
2016-07-21,0.066,0.066,0.066,0.066,000,0.066
2016-07-20,0.066,0.066,0.066,0.066,000,0.066
2016-07-19,0.066,0.066,0.066,0.066,000,0.066
2016-07-18,0.066,0.066,0.066,0.066,000,0.066
2016-07-15,0.066,0.066,0.066,0.066,000,0.066
2016-07-14,0.066,0.066,0.066,0.066,000,0.066
2016-07-13,0.066,0.066,0.066,0.066,000,0.066
2016-07-12,0.066,0.066,0.066,0.066,000,0.066
2016-07-11,0.066,0.066,0.066,0.066,000,0.066
2016-07-08,0.066,0.066,0.066,0.066,000,0.066
2016-07-07,0.066,0.066,0.066,0.066,000,0.066
2016-07-06,0.066,0.066,0.066,0.066,000,0.066
2016-07-05,0.066,0.066,0.066,0.066,000,0.066
2016-07-04,0.066,0.066,0.066,0.066,000,0.066
2016-07-01,0.066,0.066,0.066,0.066,000,0.066
2016-06-30,0.066,0.066,0.066,0.066,000,0.066
2016-06-29,0.066,0.066,0.066,0.066,000,0.066
2016-06-28,0.066,0.066,0.066,0.066,000,0.066
2016-06-27,0.066,0.066,0.066,0.066,000,0.066
2016-06-24,0.066,0.066,0.066,0.066,000,0.066
2016-06-23,0.066,0.066,0.066,0.066,000,0.066
2016-06-22,0.066,0.066,0.066,0.066,000,0.066
2016-06-21,0.066,0.066,0.066,0.066,000,0.066
2016-06-20,0.066,0.066,0.066,0.066,000,0.066
2016-06-17,0.066,0.066,0.066,0.066,000,0.066
2016-06-16,0.066,0.066,0.066,0.066,000,0.066
2016-06-15,0.066,0.066,0.066,0.066,000,0.066
2016-06-14,0.066,0.066,0.066,0.066,000,0.066
2016-06-13,0.066,0.066,0.066,0.066,000,0.066
2016-06-10,0.066,0.066,0.066,0.066,31200,0.066
2016-06-09,0.053,0.053,0.053,0.053,000,0.053
2016-06-08,0.053,0.053,0.053,0.053,000,0.053
2016-06-07,0.053,0.053,0.053,0.053,000,0.053
2016-06-06,0.053,0.053,0.053,0.053,000,0.053
2016-06-03,0.053,0.053,0.053,0.053,000,0.053
2016-06-02,0.053,0.053,0.053,0.053,000,0.053
2016-06-01,0.053,0.053,0.053,0.053,000,0.053
2016-05-31,0.053,0.053,0.053,0.053,000,0.053
2016-05-30,0.053,0.053,0.053,0.053,000,0.053
2016-05-27,0.053,0.053,0.053,0.053,000,0.053
2016-05-26,0.053,0.053,0.053,0.053,000,0.053
2016-05-25,0.053,0.053,0.053,0.053,000,0.053
2016-05-24,0.053,0.053,0.053,0.053,000,0.053
2016-05-23,0.053,0.053,0.053,0.053,000,0.053
2016-05-20,0.053,0.053,0.053,0.053,000,0.053
2016-05-19,0.053,0.053,0.053,0.053,000,0.053
2016-05-18,0.053,0.053,0.053,0.053,000,0.053
2016-05-17,0.053,0.053,0.053,0.053,31200,0.053
2016-05-16,0.055,0.055,0.055,0.055,000,0.055
2016-05-13,0.055,0.055,0.055,0.055,000,0.055
2016-05-12,0.055,0.055,0.055,0.055,000,0.055
2016-05-11,0.055,0.055,0.055,0.055,000,0.055
2016-05-10,0.055,0.055,0.055,0.055,000,0.055
2016-05-09,0.055,0.055,0.055,0.055,000,0.055
2016-05-06,0.055,0.055,0.055,0.055,000,0.055
2016-05-05,0.055,0.055,0.055,0.055,000,0.055
2016-05-04,0.055,0.055,0.055,0.055,000,0.055
2016-05-03,0.055,0.055,0.055,0.055,000,0.055
2016-05-02,0.055,0.055,0.055,0.055,000,0.055
2016-04-29,0.055,0.055,0.055,0.055,000,0.055
2016-04-28,0.055,0.055,0.055,0.055,000,0.055
2016-04-27,0.055,0.055,0.055,0.055,000,0.055
2016-04-26,0.055,0.055,0.055,0.055,000,0.055
2016-04-25,0.055,0.055,0.055,0.055,000,0.055
2016-04-22,0.055,0.055,0.055,0.055,000,0.055
2016-04-21,0.055,0.055,0.055,0.055,000,0.055
2016-04-20,0.055,0.055,0.055,0.055,000,0.055
2016-04-19,0.055,0.055,0.055,0.055,000,0.055
2016-04-18,0.055,0.055,0.055,0.055,000,0.055
2016-04-15,0.055,0.055,0.055,0.055,000,0.055
2016-04-14,0.055,0.055,0.055,0.055,000,0.055
2016-04-13,0.055,0.055,0.055,0.055,000,0.055
2016-04-12,0.055,0.055,0.055,0.055,000,0.055
2016-04-11,0.055,0.055,0.055,0.055,000,0.055
2016-04-08,0.055,0.055,0.055,0.055,000,0.055
2016-04-07,0.055,0.055,0.055,0.055,000,0.055
2016-04-06,0.055,0.055,0.055,0.055,000,0.055
2016-04-05,0.055,0.055,0.055,0.055,000,0.055
2016-04-04,0.055,0.055,0.055,0.055,000,0.055
2016-04-01,0.055,0.055,0.055,0.055,000,0.055
2016-03-31,0.055,0.055,0.055,0.055,000,0.055
2016-03-30,0.055,0.055,0.055,0.055,000,0.055
2016-03-29,0.055,0.055,0.055,0.055,000,0.055
2016-03-28,0.055,0.055,0.055,0.055,000,0.055
2016-03-25,0.055,0.055,0.055,0.055,000,0.055
2016-03-24,0.055,0.055,0.055,0.055,000,0.055
2016-03-23,0.055,0.055,0.055,0.055,000,0.055
2016-03-22,0.055,0.055,0.055,0.055,000,0.055
2016-03-21,0.055,0.055,0.055,0.055,000,0.055
2016-03-18,0.055,0.055,0.055,0.055,000,0.055
2016-03-17,0.055,0.055,0.055,0.055,000,0.055
2016-03-16,0.055,0.055,0.055,0.055,000,0.055
2016-03-15,0.055,0.055,0.055,0.055,000,0.055
2016-03-14,0.055,0.055,0.055,0.055,000,0.055
2016-03-11,0.055,0.055,0.055,0.055,000,0.055
2016-03-10,0.055,0.055,0.055,0.055,000,0.055
2016-03-09,0.055,0.055,0.055,0.055,000,0.055
2016-03-08,0.055,0.055,0.055,0.055,000,0.055
2016-03-07,0.055,0.055,0.055,0.055,000,0.055
2016-03-04,0.055,0.055,0.055,0.055,000,0.055
2016-03-03,0.055,0.055,0.055,0.055,000,0.055
2016-03-02,0.055,0.055,0.055,0.055,000,0.055
2016-03-01,0.055,0.055,0.055,0.055,000,0.055
2016-02-29,0.055,0.055,0.055,0.055,000,0.055
2016-02-26,0.055,0.055,0.055,0.055,000,0.055
2016-02-25,0.055,0.055,0.055,0.055,000,0.055
2016-02-24,0.055,0.055,0.055,0.055,000,0.055
2016-02-23,0.055,0.055,0.055,0.055,000,0.055
2016-02-22,0.055,0.055,0.055,0.055,000,0.055
2016-02-19,0.055,0.055,0.055,0.055,000,0.055
2016-02-18,0.055,0.055,0.055,0.055,000,0.055
2016-02-17,0.055,0.055,0.055,0.055,000,0.055
2016-02-16,0.055,0.055,0.055,0.055,000,0.055
2016-02-15,0.055,0.055,0.055,0.055,000,0.055
2016-02-12,0.055,0.055,0.055,0.055,000,0.055
2016-02-11,0.055,0.055,0.055,0.055,000,0.055
2016-02-10,0.055,0.055,0.055,0.055,000,0.055
2016-02-09,0.055,0.055,0.055,0.055,000,0.055
2016-02-08,0.055,0.055,0.055,0.055,000,0.055
2016-02-05,0.055,0.055,0.055,0.055,000,0.055
2016-02-04,0.055,0.055,0.055,0.055,000,0.055
2016-02-03,0.055,0.055,0.055,0.055,000,0.055
2016-02-02,0.055,0.055,0.055,0.055,000,0.055
2016-02-01,0.055,0.055,0.055,0.055,000,0.055
2016-01-29,0.055,0.055,0.055,0.055,000,0.055
2016-01-28,0.055,0.055,0.055,0.055,000,0.055
2016-01-27,0.055,0.055,0.055,0.055,000,0.055
2016-01-26,0.055,0.055,0.055,0.055,000,0.055
2016-01-25,0.055,0.055,0.055,0.055,000,0.055
2016-01-22,0.055,0.055,0.055,0.055,000,0.055
2016-01-21,0.055,0.055,0.055,0.055,000,0.055
2016-01-20,0.055,0.055,0.055,0.055,000,0.055
2016-01-19,0.055,0.055,0.055,0.055,000,0.055
2016-01-18,0.055,0.055,0.055,0.055,000,0.055
2016-01-15,0.055,0.055,0.055,0.055,000,0.055
2016-01-14,0.055,0.055,0.055,0.055,000,0.055
2016-01-13,0.055,0.055,0.055,0.055,000,0.055
2016-01-12,0.055,0.055,0.055,0.055,000,0.055
2016-01-11,0.055,0.055,0.055,0.055,000,0.055
2016-01-08,0.055,0.055,0.055,0.055,000,0.055
2016-01-07,0.055,0.055,0.055,0.055,000,0.055
2016-01-06,0.055,0.055,0.055,0.055,000,0.055
2016-01-05,0.055,0.055,0.055,0.055,000,0.055
2016-01-04,0.055,0.055,0.055,0.055,000,0.055
2016-01-01,0.055,0.055,0.055,0.055,000,0.055
2015-12-31,0.055,0.055,0.055,0.055,000,0.055
2015-12-30,0.055,0.055,0.055,0.055,000,0.055
2015-12-29,0.055,0.055,0.055,0.055,000,0.055
2015-12-28,0.055,0.055,0.055,0.055,000,0.055
2015-12-25,0.055,0.055,0.055,0.055,000,0.055
2015-12-24,0.055,0.055,0.055,0.055,000,0.055
2015-12-23,0.055,0.055,0.055,0.055,20000,0.055
2015-12-22,0.033,0.033,0.033,0.033,000,0.033
2015-12-21,0.033,0.033,0.033,0.033,000,0.033
2015-12-18,0.033,0.033,0.033,0.033,000,0.033
2015-12-17,0.033,0.033,0.033,0.033,000,0.033
2015-12-16,0.033,0.033,0.033,0.033,000,0.033
2015-12-15,0.033,0.033,0.033,0.033,000,0.033
2015-12-14,0.033,0.033,0.033,0.033,000,0.033
2015-12-11,0.033,0.033,0.033,0.033,000,0.033
2015-12-10,0.033,0.033,0.033,0.033,000,0.033
2015-12-09,0.033,0.033,0.033,0.033,000,0.033
2015-12-08,0.033,0.033,0.033,0.033,000,0.033
2015-12-07,0.033,0.033,0.033,0.033,000,0.033
2015-12-04,0.033,0.033,0.033,0.033,000,0.033
2015-12-03,0.033,0.033,0.033,0.033,000,0.033
2015-12-02,0.033,0.033,0.033,0.033,000,0.033
2015-12-01,0.033,0.033,0.033,0.033,000,0.033
2015-11-30,0.033,0.033,0.033,0.033,000,0.033
2015-11-27,0.033,0.033,0.033,0.033,000,0.033
2015-11-26,0.033,0.033,0.033,0.033,000,0.033
2015-11-25,0.033,0.033,0.033,0.033,000,0.033
2015-11-24,0.033,0.033,0.033,0.033,000,0.033
2015-11-23,0.033,0.033,0.033,0.033,000,0.033
2015-11-20,0.033,0.033,0.033,0.033,000,0.033
2015-11-19,0.033,0.033,0.033,0.033,000,0.033
2015-11-18,0.033,0.033,0.033,0.033,000,0.033
2015-11-17,0.033,0.033,0.033,0.033,000,0.033
2015-11-16,0.033,0.033,0.033,0.033,000,0.033
2015-11-13,0.033,0.033,0.033,0.033,000,0.033
2015-11-12,0.033,0.033,0.033,0.033,000,0.033
2015-11-11,0.033,0.033,0.033,0.033,000,0.033
2015-11-10,0.033,0.033,0.033,0.033,000,0.033
2015-11-09,0.033,0.033,0.033,0.033,000,0.033
2015-11-06,0.033,0.033,0.033,0.033,000,0.033
2015-11-05,0.033,0.033,0.033,0.033,000,0.033
2015-11-04,0.033,0.033,0.033,0.033,000,0.033
2015-11-03,0.033,0.033,0.033,0.033,000,0.033
2015-11-02,0.033,0.033,0.033,0.033,000,0.033
2015-10-30,0.033,0.033,0.033,0.033,000,0.033
2015-10-29,0.033,0.033,0.033,0.033,000,0.033
2015-10-28,0.033,0.033,0.033,0.033,000,0.033
2015-10-27,0.033,0.033,0.033,0.033,000,0.033
2015-10-26,0.033,0.033,0.033,0.033,000,0.033
2015-10-23,0.033,0.033,0.033,0.033,000,0.033
2015-10-22,0.033,0.033,0.033,0.033,000,0.033
2015-10-21,0.033,0.033,0.033,0.033,000,0.033
2015-10-20,0.033,0.033,0.033,0.033,000,0.033
2015-10-19,0.033,0.033,0.033,0.033,000,0.033
2015-10-16,0.033,0.033,0.033,0.033,000,0.033
2015-10-15,0.033,0.033,0.033,0.033,000,0.033
2015-10-14,0.033,0.033,0.033,0.033,000,0.033
2015-10-13,0.033,0.033,0.033,0.033,000,0.033
2015-10-12,0.033,0.033,0.033,0.033,000,0.033
2015-10-09,0.033,0.033,0.033,0.033,000,0.033
2015-10-08,0.033,0.033,0.033,0.033,000,0.033
2015-10-07,0.033,0.033,0.033,0.033,000,0.033
2015-10-06,0.033,0.033,0.033,0.033,000,0.033
2015-10-05,0.033,0.033,0.033,0.033,000,0.033
2015-10-02,0.033,0.033,0.033,0.033,000,0.033
2015-10-01,0.033,0.033,0.033,0.033,000,0.033
2015-09-30,0.033,0.033,0.033,0.033,000,0.033
2015-09-29,0.033,0.033,0.033,0.033,000,0.033
2015-09-28,0.033,0.033,0.033,0.033,000,0.033
2015-09-25,0.033,0.033,0.033,0.033,000,0.033
2015-09-24,0.033,0.033,0.033,0.033,000,0.033
2015-09-23,0.033,0.033,0.033,0.033,000,0.033
2015-09-22,0.033,0.033,0.033,0.033,000,0.033
2015-09-21,0.033,0.033,0.033,0.033,000,0.033
2015-09-18,0.033,0.033,0.033,0.033,000,0.033
2015-09-17,0.033,0.033,0.033,0.033,000,0.033
2015-09-16,0.033,0.033,0.033,0.033,000,0.033
2015-09-15,0.033,0.033,0.033,0.033,000,0.033
2015-09-14,0.033,0.033,0.033,0.033,000,0.033
2015-09-11,0.033,0.033,0.033,0.033,000,0.033
2015-09-10,0.033,0.033,0.033,0.033,000,0.033
2015-09-09,0.033,0.033,0.033,0.033,000,0.033
2015-09-08,0.033,0.033,0.033,0.033,000,0.033
2015-09-07,0.033,0.033,0.033,0.033,000,0.033
2015-09-04,0.033,0.033,0.033,0.033,000,0.033
2015-09-03,0.033,0.033,0.033,0.033,000,0.033
2015-09-02,0.033,0.033,0.033,0.033,000,0.033
2015-09-01,0.033,0.033,0.033,0.033,000,0.033
2015-08-31,0.033,0.033,0.033,0.033,000,0.033
2015-08-28,0.033,0.033,0.033,0.033,000,0.033
2015-08-27,0.033,0.033,0.033,0.033,000,0.033
2015-08-26,0.033,0.033,0.033,0.033,000,0.033
2015-08-25,0.033,0.033,0.033,0.033,000,0.033
2015-08-24,0.033,0.033,0.033,0.033,000,0.033
2015-08-21,0.033,0.033,0.033,0.033,000,0.033
2015-08-20,0.033,0.033,0.033,0.033,000,0.033
2015-08-19,0.033,0.033,0.033,0.033,000,0.033
2015-08-18,0.06,0.06,0.06,0.06,000,0.06
2015-08-17,0.06,0.06,0.06,0.06,000,0.06
2015-08-14,0.06,0.06,0.06,0.06,000,0.06
2015-08-13,0.06,0.06,0.06,0.06,000,0.06
2015-08-12,0.06,0.06,0.06,0.06,000,0.06
2015-08-11,0.06,0.06,0.06,0.06,000,0.06
2015-08-10,0.06,0.06,0.06,0.06,000,0.06
2015-08-07,0.06,0.06,0.06,0.06,000,0.06
2015-08-06,0.06,0.06,0.06,0.06,000,0.06
2015-08-05,0.06,0.06,0.06,0.06,000,0.06
2015-08-04,0.06,0.06,0.06,0.06,000,0.06
2015-08-03,0.06,0.06,0.06,0.06,000,0.06
2015-07-31,0.06,0.06,0.06,0.06,000,0.06
2015-07-30,0.06,0.06,0.06,0.06,000,0.06
2015-07-29,0.06,0.06,0.06,0.06,000,0.06
2015-07-28,0.06,0.06,0.06,0.06,000,0.06
2015-07-27,0.06,0.06,0.06,0.06,000,0.06
2015-07-24,0.06,0.06,0.06,0.06,000,0.06
2015-07-23,0.06,0.06,0.06,0.06,000,0.06
2015-07-22,0.06,0.06,0.06,0.06,000,0.06
2015-07-21,0.06,0.06,0.06,0.06,000,0.06
2015-07-20,0.06,0.06,0.06,0.06,000,0.06
2015-07-17,0.06,0.06,0.06,0.06,000,0.06
2015-07-16,0.06,0.06,0.06,0.06,000,0.06
2015-07-15,0.06,0.06,0.06,0.06,000,0.06
2015-07-14,0.06,0.06,0.06,0.06,000,0.06
2015-07-13,0.06,0.06,0.06,0.06,000,0.06
2015-07-10,0.06,0.06,0.06,0.06,000,0.06
2015-07-09,0.06,0.06,0.06,0.06,000,0.06
2015-07-08,0.06,0.06,0.06,0.06,000,0.06
2015-07-07,0.06,0.06,0.06,0.06,000,0.06
2015-07-06,0.06,0.06,0.06,0.06,000,0.06
2015-07-03,0.06,0.06,0.06,0.06,000,0.06
2015-07-02,0.06,0.06,0.06,0.06,000,0.06
2015-07-01,0.06,0.06,0.06,0.06,000,0.06
2015-06-30,0.06,0.06,0.06,0.06,000,0.06
2015-06-29,0.06,0.06,0.06,0.06,000,0.06
2015-06-26,0.06,0.06,0.06,0.06,000,0.06
2015-06-25,0.06,0.06,0.06,0.06,000,0.06
2015-06-24,0.06,0.06,0.06,0.06,000,0.06
2015-06-23,0.06,0.06,0.06,0.06,000,0.06
2015-06-22,0.06,0.06,0.06,0.06,000,0.06
2015-06-19,0.06,0.06,0.06,0.06,000,0.06
2015-06-18,0.06,0.06,0.06,0.06,000,0.06
2015-06-17,0.06,0.06,0.06,0.06,000,0.06
2015-06-16,0.06,0.06,0.06,0.06,000,0.06
2015-06-15,0.06,0.06,0.06,0.06,000,0.06
2015-06-12,0.06,0.06,0.06,0.06,000,0.06
2015-06-11,0.06,0.06,0.06,0.06,000,0.06
2015-06-10,0.06,0.06,0.06,0.06,000,0.06
2015-06-09,0.06,0.06,0.06,0.06,000,0.06
2015-06-08,0.06,0.06,0.06,0.06,000,0.06
2015-06-05,0.06,0.06,0.06,0.06,000,0.06
2015-06-04,0.06,0.06,0.06,0.06,000,0.06
2015-06-03,0.06,0.06,0.06,0.06,000,0.06
2015-06-02,0.06,0.06,0.06,0.06,000,0.06
2015-06-01,0.06,0.06,0.06,0.06,000,0.06
2015-05-29,0.06,0.06,0.06,0.06,000,0.06
2015-05-28,0.06,0.06,0.06,0.06,000,0.06
2015-05-27,0.06,0.06,0.06,0.06,000,0.06
2015-05-26,0.06,0.06,0.06,0.06,000,0.06
2015-05-25,0.06,0.06,0.06,0.06,000,0.06
2015-05-22,0.06,0.06,0.06,0.06,000,0.06
2015-05-21,0.06,0.06,0.06,0.06,000,0.06
2015-05-20,0.06,0.06,0.06,0.06,000,0.06
2015-05-19,0.06,0.06,0.06,0.06,000,0.06
2015-05-18,0.06,0.06,0.06,0.06,000,0.06
2015-05-15,0.06,0.06,0.06,0.06,000,0.06
2015-05-14,0.06,0.06,0.06,0.06,000,0.06
2015-05-13,0.06,0.06,0.06,0.06,000,0.06
2015-05-12,0.06,0.06,0.06,0.06,000,0.06
2015-05-11,0.06,0.06,0.06,0.06,000,0.06
2015-05-08,0.06,0.06,0.06,0.06,000,0.06
2015-05-07,0.06,0.06,0.06,0.06,000,0.06
2015-05-06,0.06,0.06,0.06,0.06,000,0.06
2015-05-05,0.06,0.06,0.06,0.06,000,0.06
2015-05-04,0.06,0.06,0.06,0.06,000,0.06
2015-05-01,0.06,0.06,0.06,0.06,000,0.06
2015-04-30,0.06,0.06,0.06,0.06,000,0.06
2015-04-29,0.06,0.06,0.06,0.06,000,0.06
2015-04-28,0.06,0.06,0.06,0.06,000,0.06
2015-04-27,0.06,0.06,0.06,0.06,000,0.06
2015-04-24,0.06,0.06,0.06,0.06,000,0.06
2015-04-23,0.06,0.06,0.06,0.06,000,0.06
2015-04-22,0.06,0.06,0.06,0.06,000,0.06
2015-04-21,0.06,0.06,0.06,0.06,000,0.06
2015-04-20,0.06,0.06,0.06,0.06,000,0.06
2015-04-17,0.06,0.06,0.06,0.06,000,0.06
2015-04-16,0.06,0.06,0.06,0.06,000,0.06
2015-04-15,0.06,0.06,0.06,0.06,000,0.06
2015-04-14,0.06,0.06,0.06,0.06,000,0.06
2015-04-13,0.06,0.06,0.06,0.06,000,0.06
2015-04-10,0.06,0.06,0.06,0.06,000,0.06
2015-04-09,0.06,0.06,0.06,0.06,000,0.06
2015-04-08,0.06,0.06,0.06,0.06,000,0.06
2015-04-07,0.06,0.06,0.06,0.06,000,0.06
2015-04-06,0.06,0.06,0.06,0.06,000,0.06
2015-04-03,0.06,0.06,0.06,0.06,000,0.06
2015-04-02,0.06,0.06,0.06,0.06,000,0.06
2015-04-01,0.06,0.06,0.06,0.06,000,0.06
2015-03-31,0.06,0.06,0.06,0.06,000,0.06
2015-03-30,0.06,0.06,0.06,0.06,000,0.06
2015-03-27,0.06,0.06,0.06,0.06,000,0.06
2015-03-26,0.06,0.06,0.06,0.06,000,0.06
2015-03-25,0.06,0.06,0.06,0.06,000,0.06
2015-03-24,0.06,0.06,0.06,0.06,000,0.06
2015-03-23,0.06,0.06,0.06,0.06,000,0.06
2015-03-20,0.06,0.06,0.06,0.06,000,0.06
2015-03-19,0.06,0.06,0.06,0.06,000,0.06
2015-03-18,0.06,0.06,0.06,0.06,000,0.06
2015-03-17,0.06,0.06,0.06,0.06,000,0.06
2015-03-16,0.06,0.06,0.06,0.06,000,0.06
2015-03-13,0.06,0.06,0.06,0.06,000,0.06
2015-03-12,0.06,0.06,0.06,0.06,000,0.06
2015-03-11,0.06,0.06,0.06,0.06,000,0.06
2015-03-10,0.06,0.06,0.06,0.06,000,0.06
2015-03-09,0.06,0.06,0.06,0.06,000,0.06
2015-03-06,0.06,0.06,0.06,0.06,000,0.06
2015-03-05,0.06,0.06,0.06,0.06,000,0.06
2015-03-04,0.06,0.06,0.06,0.06,000,0.06
2015-03-03,0.06,0.06,0.06,0.06,000,0.06
2015-03-02,0.06,0.06,0.06,0.06,000,0.06
2015-02-27,0.06,0.06,0.06,0.06,000,0.06
2015-02-26,0.06,0.06,0.06,0.06,000,0.06
2015-02-25,0.06,0.06,0.06,0.06,000,0.06
2015-02-24,0.06,0.06,0.06,0.06,000,0.06
2015-02-23,0.06,0.06,0.06,0.06,000,0.06
2015-02-20,0.06,0.06,0.06,0.06,000,0.06
2015-02-19,0.06,0.06,0.06,0.06,000,0.06
2015-02-18,0.06,0.06,0.06,0.06,000,0.06
2015-02-17,0.06,0.06,0.06,0.06,000,0.06
2015-02-16,0.06,0.06,0.06,0.06,000,0.06
2015-02-13,0.06,0.06,0.06,0.06,000,0.06
2015-02-12,0.06,0.06,0.06,0.06,000,0.06
2015-02-11,0.06,0.06,0.06,0.06,000,0.06
2015-02-10,0.06,0.06,0.06,0.06,000,0.06
2015-02-09,0.06,0.06,0.06,0.06,000,0.06
2015-02-06,0.06,0.06,0.06,0.06,000,0.06
2015-02-05,0.06,0.06,0.06,0.06,000,0.06
2015-02-04,0.06,0.06,0.06,0.06,000,0.06
2015-02-03,0.06,0.06,0.06,0.06,000,0.06
2015-02-02,0.06,0.06,0.06,0.06,000,0.06
2015-01-30,0.06,0.06,0.06,0.06,000,0.06
2015-01-29,0.06,0.06,0.06,0.06,000,0.06
2015-01-28,0.06,0.06,0.06,0.06,000,0.06
2015-01-27,0.06,0.06,0.06,0.06,000,0.06
2015-01-26,0.06,0.06,0.06,0.06,000,0.06
2015-01-23,0.06,0.06,0.06,0.06,000,0.06
2015-01-22,0.06,0.06,0.06,0.06,000,0.06
2015-01-21,0.06,0.06,0.06,0.06,000,0.06
2015-01-20,0.06,0.06,0.06,0.06,000,0.06
2015-01-19,0.06,0.06,0.06,0.06,000,0.06
2015-01-16,0.06,0.06,0.06,0.06,000,0.06
2015-01-15,0.06,0.06,0.06,0.06,000,0.06
2015-01-14,0.06,0.06,0.06,0.06,000,0.06
2015-01-13,0.06,0.06,0.06,0.06,000,0.06
2015-01-12,0.06,0.06,0.06,0.06,000,0.06
2015-01-09,0.06,0.06,0.06,0.06,000,0.06
2015-01-08,0.06,0.06,0.06,0.06,000,0.06
2015-01-07,0.06,0.06,0.06,0.06,000,0.06
2015-01-06,0.06,0.06,0.06,0.06,000,0.06
2015-01-05,0.06,0.06,0.06,0.06,000,0.06
2015-01-02,0.06,0.06,0.06,0.06,000,0.06
2015-01-01,0.06,0.06,0.06,0.06,000,0.06
2014-12-31,0.06,0.06,0.06,0.06,000,0.06
2014-12-30,0.06,0.06,0.06,0.06,000,0.06
2014-12-29,0.06,0.06,0.06,0.06,000,0.06
2014-12-26,0.06,0.06,0.06,0.06,000,0.06
2014-12-25,0.06,0.06,0.06,0.06,000,0.06
2014-12-24,0.06,0.06,0.06,0.06,000,0.06
2014-12-23,0.06,0.06,0.06,0.06,000,0.06
2014-12-22,0.06,0.06,0.06,0.06,000,0.06
2014-12-19,0.06,0.06,0.06,0.06,000,0.06
2014-12-18,0.06,0.06,0.06,0.06,000,0.06
2014-12-17,0.06,0.06,0.06,0.06,000,0.06
2014-12-16,0.06,0.06,0.06,0.06,000,0.06
2014-12-15,0.06,0.06,0.06,0.06,000,0.06
2014-12-12,0.06,0.06,0.06,0.06,000,0.06
2014-12-11,0.06,0.06,0.06,0.06,000,0.06
2014-12-10,0.06,0.06,0.06,0.06,000,0.06
2014-12-09,0.06,0.06,0.06,0.06,000,0.06
2014-12-08,0.06,0.06,0.06,0.06,000,0.06
2014-12-05,0.06,0.06,0.06,0.06,000,0.06
2014-12-04,0.06,0.06,0.06,0.06,000,0.06
2014-12-03,0.06,0.06,0.06,0.06,000,0.06
2014-12-02,0.06,0.06,0.06,0.06,000,0.06
2014-12-01,0.06,0.06,0.06,0.06,000,0.06
2014-11-28,0.06,0.06,0.06,0.06,000,0.06
2014-11-27,0.06,0.06,0.06,0.06,000,0.06
2014-11-26,0.06,0.06,0.06,0.06,000,0.06
2014-11-25,0.06,0.06,0.06,0.06,000,0.06
2014-11-24,0.06,0.06,0.06,0.06,000,0.06
2014-11-21,0.06,0.06,0.06,0.06,000,0.06
2014-11-20,0.06,0.06,0.06,0.06,000,0.06
2014-11-19,0.06,0.06,0.06,0.06,000,0.06
2014-11-18,0.06,0.06,0.06,0.06,000,0.06
2014-11-17,0.06,0.06,0.06,0.06,000,0.06
2014-11-14,0.06,0.06,0.06,0.06,000,0.06
2014-11-13,0.06,0.06,0.06,0.06,000,0.06
2014-11-12,0.06,0.06,0.06,0.06,000,0.06
2014-11-11,0.06,0.06,0.06,0.06,000,0.06
2014-11-10,0.06,0.06,0.06,0.06,000,0.06
2014-11-07,0.06,0.06,0.06,0.06,000,0.06
2014-11-06,0.06,0.06,0.06,0.06,000,0.06
2014-11-05,0.06,0.06,0.06,0.06,000,0.06
2014-11-04,0.06,0.06,0.06,0.06,000,0.06
2014-11-03,0.06,0.06,0.06,0.06,000,0.06
2014-10-31,0.06,0.06,0.06,0.06,000,0.06
2014-10-30,0.06,0.06,0.06,0.06,000,0.06
2014-10-29,0.06,0.06,0.06,0.06,000,0.06
2014-10-28,0.06,0.06,0.06,0.06,000,0.06
2014-10-27,0.06,0.06,0.06,0.06,000,0.06
2014-10-24,0.06,0.06,0.06,0.06,000,0.06
2014-10-23,0.06,0.06,0.06,0.06,000,0.06
2014-10-22,0.06,0.06,0.06,0.06,000,0.06
2014-10-21,0.06,0.06,0.06,0.06,000,0.06
2014-10-20,0.06,0.06,0.06,0.06,000,0.06
2014-10-17,0.06,0.06,0.06,0.06,000,0.06
2014-10-16,0.06,0.06,0.06,0.06,000,0.06
2014-10-15,0.06,0.06,0.06,0.06,000,0.06
2014-10-14,0.06,0.06,0.06,0.06,000,0.06
2014-10-13,0.06,0.06,0.06,0.06,000,0.06
2014-10-10,0.06,0.06,0.06,0.06,000,0.06
2014-10-09,0.06,0.06,0.06,0.06,000,0.06
2014-10-08,0.06,0.06,0.06,0.06,000,0.06
2014-10-07,0.06,0.06,0.06,0.06,000,0.06
2014-10-06,0.06,0.06,0.06,0.06,000,0.06
2014-10-03,0.06,0.06,0.06,0.06,000,0.06
2014-10-02,0.06,0.06,0.06,0.06,000,0.06
2014-10-01,0.06,0.06,0.06,0.06,000,0.06
2014-09-30,0.06,0.06,0.06,0.06,000,0.06
2014-09-29,0.06,0.06,0.06,0.06,000,0.06
2014-09-26,0.06,0.06,0.06,0.06,000,0.06
2014-09-25,0.06,0.06,0.06,0.06,000,0.06
2014-09-24,0.06,0.06,0.06,0.06,000,0.06
2014-09-23,0.06,0.06,0.06,0.06,000,0.06
2014-09-22,0.06,0.06,0.06,0.06,000,0.06
2014-09-19,0.06,0.06,0.06,0.06,000,0.06
2014-09-18,0.06,0.06,0.06,0.06,000,0.06
2014-09-17,0.06,0.06,0.06,0.06,000,0.06
2014-09-16,0.06,0.06,0.06,0.06,000,0.06
2014-09-15,0.06,0.06,0.06,0.06,000,0.06
2014-09-12,0.06,0.06,0.06,0.06,000,0.06
2014-09-11,0.06,0.06,0.06,0.06,000,0.06
2014-09-10,0.06,0.06,0.06,0.06,000,0.06
2014-09-09,0.06,0.06,0.06,0.06,000,0.06
2014-09-08,0.06,0.06,0.06,0.06,000,0.06
2014-09-05,0.06,0.06,0.06,0.06,000,0.06
2014-09-04,0.06,0.06,0.06,0.06,000,0.06
2014-09-03,0.06,0.06,0.06,0.06,000,0.06
2014-09-02,0.06,0.06,0.06,0.06,000,0.06
2014-09-01,0.06,0.06,0.06,0.06,000,0.06
2014-08-29,0.06,0.06,0.06,0.06,000,0.06
2014-08-28,0.06,0.06,0.06,0.06,000,0.06
2014-08-27,0.06,0.06,0.06,0.06,000,0.06
2014-08-26,0.06,0.06,0.06,0.06,000,0.06
2014-08-25,0.06,0.06,0.06,0.06,000,0.06
2014-08-22,0.06,0.06,0.06,0.06,000,0.06
2014-08-21,0.06,0.06,0.06,0.06,000,0.06
2014-08-20,0.06,0.06,0.06,0.06,000,0.06
2014-08-19,0.06,0.06,0.06,0.06,000,0.06
2014-08-18,0.06,0.06,0.06,0.06,000,0.06
2014-08-15,0.06,0.06,0.06,0.06,000,0.06
2014-08-14,0.06,0.06,0.06,0.06,000,0.06
2014-08-13,0.06,0.06,0.06,0.06,000,0.06
2014-08-12,0.06,0.06,0.06,0.06,000,0.06
2014-08-11,0.06,0.06,0.06,0.06,000,0.06
2014-08-08,0.06,0.06,0.06,0.06,000,0.06
2014-08-07,0.06,0.06,0.06,0.06,000,0.06
2014-08-06,0.06,0.06,0.06,0.06,000,0.06
2014-08-05,0.06,0.06,0.06,0.06,000,0.06
2014-08-04,0.06,0.06,0.06,0.06,000,0.06
2014-08-01,0.06,0.06,0.06,0.06,000,0.06
2014-07-31,0.06,0.06,0.06,0.06,000,0.06
2014-07-30,0.06,0.06,0.06,0.06,000,0.06
2014-07-29,0.06,0.06,0.06,0.06,000,0.06
2014-07-28,0.06,0.06,0.06,0.06,000,0.06
2014-07-25,0.06,0.06,0.06,0.06,000,0.06
2014-07-24,0.06,0.06,0.06,0.06,000,0.06
2014-07-23,0.06,0.06,0.06,0.06,000,0.06
2014-07-22,0.06,0.06,0.06,0.06,000,0.06
2014-07-21,0.06,0.06,0.06,0.06,000,0.06
2014-07-18,0.06,0.06,0.06,0.06,000,0.06
2014-07-17,0.06,0.06,0.06,0.06,000,0.06
2014-07-16,0.06,0.06,0.06,0.06,000,0.06
2014-07-15,0.06,0.06,0.06,0.06,000,0.06
2014-07-14,0.06,0.06,0.06,0.06,000,0.06
2014-07-11,0.06,0.06,0.06,0.06,000,0.06
2014-07-10,0.06,0.06,0.06,0.06,000,0.06
2014-07-09,0.06,0.06,0.06,0.06,000,0.06
2014-07-08,0.06,0.06,0.06,0.06,000,0.06
2014-07-07,0.06,0.06,0.06,0.06,000,0.06
2014-07-04,0.06,0.06,0.06,0.06,000,0.06
2014-07-03,0.06,0.06,0.06,0.06,000,0.06
2014-07-02,0.06,0.06,0.06,0.06,000,0.06
2014-07-01,0.06,0.06,0.06,0.06,000,0.06
2014-06-30,0.06,0.06,0.06,0.06,000,0.06
2014-06-27,0.06,0.06,0.06,0.06,000,0.06
2014-06-26,0.06,0.06,0.06,0.06,000,0.06
2014-06-25,0.06,0.06,0.06,0.06,000,0.06
2014-06-24,0.06,0.06,0.06,0.06,000,0.06
2014-06-23,0.06,0.06,0.06,0.06,000,0.06
2014-06-20,0.06,0.06,0.06,0.06,000,0.06
2014-06-19,0.06,0.06,0.06,0.06,000,0.06
2014-06-18,0.06,0.06,0.06,0.06,000,0.06
2014-06-17,0.06,0.06,0.06,0.06,000,0.06
2014-06-16,0.06,0.06,0.06,0.06,000,0.06
2014-06-13,0.06,0.06,0.06,0.06,000,0.06
2014-06-12,0.06,0.06,0.06,0.06,000,0.06
2014-06-11,0.06,0.06,0.06,0.06,000,0.06
2014-06-10,0.06,0.06,0.06,0.06,000,0.06
2014-06-09,0.06,0.06,0.06,0.06,000,0.06
2014-06-06,0.06,0.06,0.06,0.06,000,0.06
2014-06-05,0.06,0.06,0.06,0.06,62500,0.06
2014-06-04,0.029,0.029,0.029,0.029,000,0.029
2014-06-03,0.029,0.029,0.029,0.029,000,0.029
2014-06-02,0.029,0.029,0.029,0.029,000,0.029
2014-05-30,0.029,0.029,0.029,0.029,000,0.029
2014-05-29,0.029,0.029,0.029,0.029,000,0.029
2014-05-28,0.029,0.029,0.029,0.029,000,0.029
2014-05-27,0.029,0.029,0.029,0.029,000,0.029
2014-05-26,0.029,0.029,0.029,0.029,000,0.029
2014-05-23,0.029,0.029,0.029,0.029,000,0.029
2014-05-22,0.029,0.029,0.029,0.029,000,0.029
2014-05-21,0.029,0.029,0.029,0.029,000,0.029
2014-05-20,0.029,0.029,0.029,0.029,4900,0.029
2014-05-19,0.019,0.019,0.019,0.019,000,0.019
2014-05-16,0.019,0.019,0.019,0.019,000,0.019
2014-05-15,0.019,0.019,0.019,0.019,000,0.019
2014-05-14,0.019,0.019,0.019,0.019,000,0.019
2014-05-13,0.019,0.019,0.019,0.019,000,0.019
2014-05-12,0.019,0.019,0.019,0.019,000,0.019
2014-05-09,0.019,0.019,0.019,0.019,000,0.019
2014-05-08,0.019,0.019,0.019,0.019,000,0.019
2014-05-07,0.019,0.019,0.019,0.019,000,0.019
2014-05-06,0.019,0.019,0.019,0.019,000,0.019
2014-05-05,0.019,0.019,0.019,0.019,000,0.019
2014-05-02,0.019,0.019,0.019,0.019,000,0.019
2014-05-01,0.019,0.019,0.019,0.019,000,0.019
2014-04-30,0.019,0.019,0.019,0.019,000,0.019
2014-04-29,0.019,0.019,0.019,0.019,000,0.019
2014-04-28,0.019,0.019,0.019,0.019,000,0.019
2014-04-25,0.019,0.019,0.019,0.019,000,0.019
2014-04-24,0.019,0.019,0.019,0.019,000,0.019
2014-04-23,0.019,0.019,0.019,0.019,000,0.019
2014-04-22,0.019,0.019,0.019,0.019,000,0.019
2014-04-21,0.019,0.019,0.019,0.019,000,0.019
2014-04-18,0.019,0.019,0.019,0.019,000,0.019
2014-04-17,0.019,0.019,0.019,0.019,000,0.019
2014-04-16,0.019,0.019,0.019,0.019,4900,0.019
2014-04-15,0.011,0.011,0.011,0.011,000,0.011
2014-04-14,0.011,0.011,0.011,0.011,000,0.011
2014-04-11,0.011,0.011,0.011,0.011,000,0.011
2014-04-10,0.011,0.011,0.011,0.011,000,0.011
2014-04-09,0.011,0.011,0.011,0.011,000,0.011
2014-04-08,0.011,0.011,0.011,0.011,000,0.011
2014-04-07,0.011,0.011,0.011,0.011,000,0.011
2014-04-04,0.011,0.011,0.011,0.011,000,0.011
2014-04-03,0.011,0.011,0.011,0.011,000,0.011
2014-04-02,0.011,0.011,0.011,0.011,000,0.011
2014-04-01,0.011,0.011,0.011,0.011,000,0.011
2014-03-31,0.011,0.011,0.011,0.011,000,0.011
2014-03-28,0.011,0.011,0.011,0.011,000,0.011
2014-03-27,0.011,0.011,0.011,0.011,000,0.011
2014-03-26,0.011,0.011,0.011,0.011,000,0.011
2014-03-25,0.011,0.011,0.011,0.011,000,0.011
2014-03-24,0.011,0.011,0.011,0.011,000,0.011
2014-03-21,0.011,0.011,0.011,0.011,000,0.011
2014-03-20,0.011,0.011,0.011,0.011,000,0.011
2014-03-19,0.011,0.011,0.011,0.011,000,0.011
2014-03-18,0.011,0.011,0.011,0.011,000,0.011
2014-03-17,0.011,0.011,0.011,0.011,000,0.011
2014-03-14,0.011,0.011,0.011,0.011,000,0.011
2014-03-13,0.011,0.011,0.011,0.011,000,0.011
2014-03-12,0.011,0.011,0.011,0.011,000,0.011
2014-03-11,0.011,0.011,0.011,0.011,000,0.011
2014-03-10,0.011,0.011,0.011,0.011,000,0.011
2014-03-07,0.011,0.011,0.011,0.011,000,0.011
2014-03-06,0.011,0.011,0.011,0.011,000,0.011
2014-03-05,0.011,0.011,0.011,0.011,000,0.011
2014-03-04,0.011,0.011,0.011,0.011,000,0.011
2014-03-03,0.011,0.011,0.011,0.011,000,0.011
2014-02-28,0.011,0.011,0.011,0.011,000,0.011
2014-02-27,0.011,0.011,0.011,0.011,000,0.011
2014-02-26,0.011,0.011,0.011,0.011,000,0.011
2014-02-25,0.011,0.011,0.011,0.011,000,0.011
2014-02-24,0.011,0.011,0.011,0.011,000,0.011
2014-02-21,0.011,0.011,0.011,0.011,000,0.011
2014-02-20,0.011,0.011,0.011,0.011,000,0.011
2014-02-19,0.011,0.011,0.011,0.011,000,0.011
2014-02-18,0.011,0.011,0.011,0.011,000,0.011
2014-02-17,0.011,0.011,0.011,0.011,000,0.011
2014-02-14,0.011,0.011,0.011,0.011,000,0.011
2014-02-13,0.011,0.011,0.011,0.011,000,0.011
2014-02-12,0.011,0.011,0.011,0.011,000,0.011
2014-02-11,0.011,0.011,0.011,0.011,000,0.011
2014-02-10,0.011,0.011,0.011,0.011,000,0.011
2014-02-07,0.011,0.011,0.011,0.011,000,0.011
2014-02-06,0.011,0.011,0.011,0.011,000,0.011
2014-02-05,0.011,0.011,0.011,0.011,000,0.011
2014-02-04,0.011,0.011,0.011,0.011,000,0.011
2014-02-03,0.011,0.011,0.011,0.011,000,0.011
2014-01-31,0.011,0.011,0.011,0.011,000,0.011
2014-01-30,0.011,0.011,0.011,0.011,000,0.011
2014-01-29,0.011,0.011,0.011,0.011,000,0.011
2014-01-28,0.011,0.011,0.011,0.011,000,0.011
2014-01-27,0.011,0.011,0.011,0.011,000,0.011
2014-01-24,0.011,0.011,0.011,0.011,000,0.011
2014-01-23,0.011,0.011,0.011,0.011,000,0.011
2014-01-22,0.011,0.011,0.011,0.011,000,0.011
2014-01-21,0.011,0.011,0.011,0.011,000,0.011
2014-01-20,0.011,0.011,0.011,0.011,000,0.011
2014-01-17,0.011,0.011,0.011,0.011,000,0.011
2014-01-16,0.011,0.011,0.011,0.011,000,0.011
2014-01-15,0.011,0.011,0.011,0.011,000,0.011
2014-01-14,0.011,0.011,0.011,0.011,000,0.011
2014-01-13,0.011,0.011,0.011,0.011,000,0.011
2014-01-10,0.011,0.011,0.011,0.011,000,0.011
2014-01-09,0.011,0.011,0.011,0.011,000,0.011
2014-01-08,0.011,0.011,0.011,0.011,000,0.011
2014-01-07,0.011,0.011,0.011,0.011,000,0.011
2014-01-06,0.011,0.011,0.011,0.011,000,0.011
2014-01-03,0.011,0.011,0.011,0.011,000,0.011
2014-01-02,0.011,0.011,0.011,0.011,000,0.011
2014-01-01,0.011,0.011,0.011,0.011,000,0.011
2013-12-31,0.011,0.011,0.011,0.011,000,0.011
2013-12-30,0.011,0.011,0.011,0.011,000,0.011
2013-12-27,0.011,0.011,0.011,0.011,000,0.011
2013-12-26,0.011,0.011,0.011,0.011,000,0.011
2013-12-25,0.011,0.011,0.011,0.011,000,0.011
2013-12-24,0.011,0.011,0.011,0.011,000,0.011
2013-12-23,0.011,0.011,0.011,0.011,000,0.011
2013-12-20,0.011,0.011,0.011,0.011,000,0.011
2013-12-19,0.011,0.011,0.011,0.011,000,0.011
2013-12-18,0.011,0.011,0.011,0.011,000,0.011
2013-12-17,0.011,0.011,0.011,0.011,000,0.011
2013-12-16,0.011,0.011,0.011,0.011,000,0.011
2013-12-13,0.011,0.011,0.011,0.011,000,0.011
2013-12-12,0.011,0.011,0.011,0.011,000,0.011
2013-12-11,0.011,0.011,0.011,0.011,000,0.011
2013-12-10,0.011,0.011,0.011,0.011,000,0.011
2013-12-09,0.011,0.011,0.011,0.011,000,0.011
2013-12-06,0.011,0.011,0.011,0.011,000,0.011
2013-12-05,0.011,0.011,0.011,0.011,000,0.011
2013-12-04,0.011,0.011,0.011,0.011,000,0.011
2013-12-03,0.011,0.011,0.011,0.011,000,0.011
2013-12-02,0.011,0.011,0.011,0.011,000,0.011
2013-11-29,0.011,0.011,0.011,0.011,000,0.011
2013-11-28,0.011,0.011,0.011,0.011,000,0.011
2013-11-27,0.011,0.011,0.011,0.011,000,0.011
2013-11-26,0.011,0.011,0.011,0.011,000,0.011
2013-11-25,0.011,0.011,0.011,0.011,000,0.011
2013-11-22,0.011,0.011,0.011,0.011,000,0.011
2013-11-21,0.011,0.011,0.011,0.011,000,0.011
2013-11-20,0.011,0.011,0.011,0.011,000,0.011
2013-11-19,0.011,0.011,0.011,0.011,000,0.011
2013-11-18,0.011,0.011,0.011,0.011,000,0.011
2013-11-15,0.011,0.011,0.011,0.011,000,0.011
2013-11-14,0.011,0.011,0.011,0.011,000,0.011
2013-11-13,0.011,0.011,0.011,0.011,000,0.011
2013-11-12,0.011,0.011,0.011,0.011,000,0.011
2013-11-11,0.011,0.011,0.011,0.011,000,0.011
2013-11-08,0.011,0.011,0.011,0.011,000,0.011
2013-11-07,0.011,0.011,0.011,0.011,000,0.011
2013-11-06,0.011,0.011,0.011,0.011,000,0.011
2013-11-05,0.011,0.011,0.011,0.011,000,0.011
2013-11-04,0.011,0.011,0.011,0.011,000,0.011
2013-11-01,0.011,0.011,0.011,0.011,000,0.011
2013-10-31,0.011,0.011,0.011,0.011,000,0.011
2013-10-30,0.011,0.011,0.011,0.011,000,0.011
2013-10-29,0.011,0.011,0.011,0.011,000,0.011
2013-10-28,0.011,0.011,0.011,0.011,000,0.011
2013-10-25,0.011,0.011,0.011,0.011,000,0.011
2013-10-24,0.011,0.011,0.011,0.011,000,0.011
2013-10-23,0.011,0.011,0.011,0.011,000,0.011
2013-10-22,0.011,0.011,0.011,0.011,000,0.011
2013-10-21,0.011,0.011,0.011,0.011,000,0.011
2013-10-18,0.011,0.011,0.011,0.011,000,0.011
2013-10-17,0.011,0.011,0.011,0.011,000,0.011
2013-10-16,0.011,0.011,0.011,0.011,000,0.011
2013-10-15,0.011,0.011,0.011,0.011,000,0.011
2013-10-14,0.011,0.011,0.011,0.011,000,0.011
2013-10-11,0.011,0.011,0.011,0.011,000,0.011
2013-10-10,0.011,0.011,0.011,0.011,000,0.011
2013-10-09,0.011,0.011,0.011,0.011,000,0.011
2013-10-08,0.011,0.011,0.011,0.011,000,0.011
2013-10-07,0.011,0.011,0.011,0.011,000,0.011
2013-10-04,0.011,0.011,0.011,0.011,000,0.011
2013-10-03,0.011,0.011,0.011,0.011,000,0.011
2013-10-02,0.011,0.011,0.011,0.011,000,0.011
2013-10-01,0.011,0.011,0.011,0.011,000,0.011
2013-09-30,0.011,0.011,0.011,0.011,000,0.011
2013-09-27,0.011,0.011,0.011,0.011,000,0.011
2013-09-26,0.011,0.011,0.011,0.011,000,0.011
2013-09-25,0.011,0.011,0.011,0.011,000,0.011
2013-09-24,0.011,0.011,0.011,0.011,000,0.011
2013-09-23,0.01,0.01,0.01,0.01,000,0.01
2013-09-20,0.01,0.01,0.01,0.01,000,0.01
2013-09-19,0.01,0.01,0.01,0.01,000,0.01
2013-09-18,0.01,0.01,0.01,0.01,000,0.01
2013-09-17,0.01,0.01,0.01,0.01,000,0.01
2013-09-16,0.01,0.01,0.01,0.01,000,0.01
2013-09-13,0.01,0.01,0.01,0.01,000,0.01
2013-09-12,0.01,0.01,0.01,0.01,000,0.01
2013-09-11,0.01,0.01,0.01,0.01,000,0.01
2013-09-10,0.01,0.01,0.01,0.01,000,0.01
2013-09-09,0.01,0.01,0.01,0.01,000,0.01
2013-09-06,0.01,0.01,0.01,0.01,000,0.01
2013-09-05,0.01,0.01,0.01,0.01,000,0.01
2013-09-04,0.01,0.01,0.01,0.01,000,0.01
2013-09-03,0.01,0.01,0.01,0.01,000,0.01
2013-09-02,0.01,0.01,0.01,0.01,000,0.01
2013-08-30,0.01,0.01,0.01,0.01,000,0.01
2013-08-29,0.01,0.01,0.01,0.01,000,0.01
2013-08-28,0.01,0.01,0.01,0.01,000,0.01
2013-08-27,0.01,0.01,0.01,0.01,000,0.01
2013-08-26,0.01,0.01,0.01,0.01,000,0.01
2013-08-23,0.01,0.01,0.01,0.01,000,0.01
2013-08-22,0.01,0.01,0.01,0.01,000,0.01
2013-08-21,0.01,0.01,0.01,0.01,000,0.01
2013-08-20,0.01,0.01,0.01,0.01,000,0.01
2013-08-19,0.01,0.01,0.01,0.01,000,0.01
2013-08-16,0.01,0.01,0.01,0.01,000,0.01
2013-08-15,0.01,0.01,0.01,0.01,000,0.01
2013-08-14,0.01,0.01,0.01,0.01,000,0.01
2013-08-13,0.01,0.01,0.01,0.01,000,0.01
2013-08-12,0.01,0.01,0.01,0.01,000,0.01
2013-08-09,0.01,0.01,0.01,0.01,000,0.01
2013-08-08,0.01,0.01,0.01,0.01,000,0.01
2013-08-07,0.01,0.01,0.01,0.01,000,0.01
2013-08-06,0.01,0.01,0.01,0.01,000,0.01
2013-08-05,0.01,0.01,0.01,0.01,000,0.01
2013-08-02,0.01,0.01,0.01,0.01,000,0.01
2013-08-01,0.01,0.01,0.01,0.01,000,0.01
2013-07-31,0.01,0.01,0.01,0.01,000,0.01
2013-07-30,0.01,0.01,0.01,0.01,000,0.01
2013-07-29,0.01,0.01,0.01,0.01,000,0.01
2013-07-26,0.01,0.01,0.01,0.01,000,0.01
2013-07-25,0.01,0.01,0.01,0.01,000,0.01
2013-07-24,0.01,0.01,0.01,0.01,000,0.01
2013-07-23,0.01,0.01,0.01,0.01,000,0.01
2013-07-22,0.01,0.01,0.01,0.01,000,0.01
2013-07-19,0.01,0.01,0.01,0.01,000,0.01
2013-07-18,0.01,0.01,0.01,0.01,000,0.01
2013-07-17,0.01,0.01,0.01,0.01,000,0.01
2013-07-16,0.01,0.01,0.01,0.01,000,0.01
2013-07-15,0.01,0.01,0.01,0.01,000,0.01
2013-07-12,0.01,0.01,0.01,0.01,000,0.01
2013-07-11,0.01,0.01,0.01,0.01,000,0.01
2013-07-10,0.01,0.01,0.01,0.01,000,0.01
2013-07-09,0.01,0.01,0.01,0.01,000,0.01
2013-07-08,0.01,0.01,0.01,0.01,000,0.01
2013-07-05,0.01,0.01,0.01,0.01,000,0.01
2013-07-04,0.01,0.01,0.01,0.01,000,0.01
2013-07-03,0.01,0.01,0.01,0.01,000,0.01
2013-07-02,0.01,0.01,0.01,0.01,000,0.01
2013-07-01,0.01,0.01,0.01,0.01,000,0.01
2013-06-28,0.01,0.01,0.01,0.01,000,0.01
2013-06-27,0.01,0.01,0.01,0.01,000,0.01
2013-06-26,0.01,0.01,0.01,0.01,000,0.01
2013-06-25,0.01,0.01,0.01,0.01,000,0.01
2013-06-24,0.01,0.01,0.01,0.01,000,0.01
2013-06-21,0.01,0.01,0.01,0.01,000,0.01
2013-06-20,0.01,0.01,0.01,0.01,000,0.01
2013-06-19,0.01,0.01,0.01,0.01,000,0.01
2013-06-18,0.01,0.01,0.01,0.01,000,0.01
2013-06-17,0.01,0.01,0.01,0.01,000,0.01
2013-06-14,0.01,0.01,0.01,0.01,000,0.01
2013-06-13,0.01,0.01,0.01,0.01,000,0.01
2013-06-12,0.01,0.01,0.01,0.01,000,0.01
2013-06-11,0.01,0.01,0.01,0.01,000,0.01
2013-06-10,0.01,0.01,0.01,0.01,000,0.01
2013-06-07,0.01,0.01,0.01,0.01,000,0.01
2013-06-06,0.01,0.01,0.01,0.01,000,0.01
2013-06-05,0.01,0.01,0.01,0.01,000,0.01
2013-06-04,0.01,0.01,0.01,0.01,000,0.01
2013-06-03,0.01,0.01,0.01,0.01,000,0.01
2013-05-31,0.01,0.01,0.01,0.01,000,0.01
2013-05-30,0.01,0.01,0.01,0.01,000,0.01
2013-05-29,0.01,0.01,0.01,0.01,000,0.01
2013-05-28,0.01,0.01,0.01,0.01,000,0.01
2013-05-27,0.01,0.01,0.01,0.01,000,0.01
2013-05-24,0.01,0.01,0.01,0.01,000,0.01
2013-05-23,0.01,0.01,0.01,0.01,000,0.01
2013-05-22,0.01,0.01,0.01,0.01,000,0.01
2013-05-21,0.01,0.01,0.01,0.01,000,0.01
2013-05-20,0.01,0.01,0.01,0.01,000,0.01
2013-05-17,0.01,0.01,0.01,0.01,000,0.01
2013-05-16,0.01,0.01,0.01,0.01,000,0.01
2013-05-15,0.01,0.01,0.01,0.01,000,0.01
2013-05-14,0.01,0.01,0.01,0.01,000,0.01
2013-05-13,0.01,0.01,0.01,0.01,000,0.01
2013-05-10,0.01,0.01,0.01,0.01,000,0.01
2013-05-09,0.01,0.01,0.01,0.01,000,0.01
2013-05-08,0.01,0.01,0.01,0.01,000,0.01
2013-05-07,0.01,0.01,0.01,0.01,000,0.01
2013-05-06,0.01,0.01,0.01,0.01,000,0.01
2013-05-03,0.01,0.01,0.01,0.01,000,0.01
2013-05-02,0.01,0.01,0.01,0.01,000,0.01
2013-05-01,0.01,0.01,0.01,0.01,000,0.01
2013-04-30,0.01,0.01,0.01,0.01,000,0.01
2013-04-29,0.01,0.01,0.01,0.01,000,0.01
2013-04-26,0.01,0.01,0.01,0.01,000,0.01
2013-04-25,0.01,0.01,0.01,0.01,000,0.01
2013-04-24,0.01,0.01,0.01,0.01,000,0.01
2013-04-23,0.01,0.01,0.01,0.01,000,0.01
2013-04-22,0.01,0.01,0.01,0.01,000,0.01
2013-04-19,0.01,0.01,0.01,0.01,000,0.01
2013-04-18,0.01,0.01,0.01,0.01,000,0.01
2013-04-17,0.01,0.01,0.01,0.01,000,0.01
2013-04-16,0.01,0.01,0.01,0.01,000,0.01
2013-04-15,0.01,0.01,0.01,0.01,000,0.01
2013-04-12,0.01,0.01,0.01,0.01,000,0.01
2013-04-11,0.01,0.01,0.01,0.01,000,0.01
2013-04-10,0.01,0.01,0.01,0.01,000,0.01
2013-04-09,0.01,0.01,0.01,0.01,000,0.01
2013-04-08,0.01,0.01,0.01,0.01,000,0.01
2013-04-05,0.01,0.01,0.01,0.01,000,0.01
2013-04-04,0.01,0.01,0.01,0.01,000,0.01
2013-04-03,0.01,0.01,0.01,0.01,000,0.01
2013-04-02,0.01,0.01,0.01,0.01,000,0.01
2013-04-01,0.01,0.01,0.01,0.01,000,0.01
2013-03-29,0.01,0.01,0.01,0.01,000,0.01
2013-03-28,0.01,0.01,0.01,0.01,000,0.01
2013-03-27,0.01,0.01,0.01,0.01,000,0.01
2013-03-26,0.01,0.01,0.01,0.01,000,0.01
2013-03-25,0.01,0.01,0.01,0.01,000,0.01
2013-03-22,0.01,0.01,0.01,0.01,000,0.01
2013-03-21,0.01,0.01,0.01,0.01,000,0.01
2013-03-20,0.01,0.01,0.01,0.01,000,0.01
2013-03-19,0.01,0.01,0.01,0.01,000,0.01
2013-03-18,0.01,0.01,0.01,0.01,000,0.01
2013-03-15,0.01,0.01,0.01,0.01,000,0.01
2013-03-14,0.01,0.01,0.01,0.01,000,0.01
2013-03-13,0.01,0.01,0.01,0.01,000,0.01
2013-03-12,0.01,0.01,0.01,0.01,000,0.01
2013-03-11,0.01,0.01,0.01,0.01,000,0.01
2013-03-08,0.01,0.01,0.01,0.01,000,0.01
2013-03-07,0.01,0.01,0.01,0.01,000,0.01
2013-03-06,0.01,0.01,0.01,0.01,000,0.01
2013-03-05,0.01,0.01,0.01,0.01,000,0.01
2013-03-04,0.01,0.01,0.01,0.01,000,0.01
2013-03-01,0.01,0.01,0.01,0.01,000,0.01
2013-02-28,0.01,0.01,0.01,0.01,000,0.01
2013-02-27,0.01,0.01,0.01,0.01,000,0.01
2013-02-26,0.01,0.01,0.01,0.01,000,0.01
2013-02-25,0.01,0.01,0.01,0.01,000,0.01
2013-02-22,0.01,0.01,0.01,0.01,000,0.01
2013-02-21,0.01,0.01,0.01,0.01,000,0.01
2013-02-20,0.01,0.01,0.01,0.01,000,0.01
2013-02-19,0.01,0.01,0.01,0.01,000,0.01
2013-02-18,0.01,0.01,0.01,0.01,000,0.01
2013-02-15,0.01,0.01,0.01,0.01,000,0.01
2013-02-14,0.01,0.01,0.01,0.01,000,0.01
2013-02-13,0.01,0.01,0.01,0.01,000,0.01
2013-02-12,0.01,0.01,0.01,0.01,000,0.01
2013-02-11,0.01,0.01,0.01,0.01,000,0.01
2013-02-08,0.01,0.01,0.01,0.01,000,0.01
2013-02-07,0.01,0.01,0.01,0.01,000,0.01
2013-02-06,0.01,0.01,0.01,0.01,000,0.01
2013-02-05,0.01,0.01,0.01,0.01,000,0.01
2013-02-04,0.01,0.01,0.01,0.01,000,0.01
2013-02-01,0.01,0.01,0.01,0.01,000,0.01
2013-01-31,0.01,0.01,0.01,0.01,000,0.01
2013-01-30,0.01,0.01,0.01,0.01,000,0.01
2013-01-29,0.01,0.01,0.01,0.01,000,0.01
2013-01-28,0.01,0.01,0.01,0.01,000,0.01
2013-01-25,0.01,0.01,0.01,0.01,000,0.01
2013-01-24,0.01,0.01,0.01,0.01,000,0.01
2013-01-22,0.01,0.01,0.01,0.01,000,0.01
2013-01-21,0.01,0.01,0.01,0.01,000,0.01
2013-01-18,0.01,0.01,0.01,0.01,000,0.01
2013-01-17,0.01,0.01,0.01,0.01,000,0.01
2013-01-16,0.01,0.01,0.01,0.01,000,0.01
2013-01-15,0.01,0.01,0.01,0.01,000,0.01
2013-01-14,0.01,0.01,0.01,0.01,000,0.01
2013-01-11,0.01,0.01,0.01,0.01,000,0.01
2013-01-10,0.01,0.01,0.01,0.01,000,0.01
2013-01-09,0.01,0.01,0.01,0.01,000,0.01
2013-01-08,0.01,0.01,0.01,0.01,000,0.01
2013-01-07,0.01,0.01,0.01,0.01,000,0.01
2013-01-04,0.01,0.01,0.01,0.01,000,0.01
2013-01-03,0.01,0.01,0.01,0.01,000,0.01
2013-01-02,0.01,0.01,0.01,0.01,000,0.01
2013-01-01,0.01,0.01,0.01,0.01,000,0.01
2012-12-31,0.01,0.01,0.01,0.01,000,0.01
2012-12-28,0.01,0.01,0.01,0.01,000,0.01
2012-12-27,0.01,0.01,0.01,0.01,000,0.01
2012-12-26,0.01,0.01,0.01,0.01,000,0.01
2012-12-25,0.01,0.01,0.01,0.01,000,0.01
2012-12-24,0.01,0.01,0.01,0.01,000,0.01
2012-12-21,0.01,0.01,0.01,0.01,000,0.01
2012-12-20,0.01,0.01,0.01,0.01,000,0.01
2012-12-19,0.01,0.01,0.01,0.01,000,0.01
2012-12-18,0.01,0.01,0.01,0.01,000,0.01
2012-12-17,0.01,0.01,0.01,0.01,000,0.01
2012-12-14,0.01,0.01,0.01,0.01,000,0.01
2012-12-13,0.01,0.01,0.01,0.01,000,0.01
2012-12-12,0.01,0.01,0.01,0.01,000,0.01
2012-12-11,0.01,0.01,0.01,0.01,000,0.01
2012-12-10,0.01,0.01,0.01,0.01,000,0.01
2012-12-07,0.01,0.01,0.01,0.01,000,0.01
2012-12-06,0.01,0.01,0.01,0.01,000,0.01
2012-12-05,0.01,0.01,0.01,0.01,000,0.01
2012-12-04,0.01,0.01,0.01,0.01,000,0.01
2012-12-03,0.01,0.01,0.01,0.01,000,0.01
2012-11-30,0.01,0.01,0.01,0.01,000,0.01
2012-11-29,0.01,0.01,0.01,0.01,000,0.01
2012-11-28,0.01,0.01,0.01,0.01,000,0.01
2012-11-27,0.01,0.01,0.01,0.01,000,0.01
2012-11-26,0.01,0.01,0.01,0.01,000,0.01
2012-11-23,0.01,0.01,0.01,0.01,000,0.01
2012-11-22,0.01,0.01,0.01,0.01,000,0.01
2012-11-21,0.01,0.01,0.01,0.01,000,0.01
2012-11-20,0.01,0.01,0.01,0.01,000,0.01
2012-11-19,0.01,0.01,0.01,0.01,000,0.01
2012-11-16,0.01,0.01,0.01,0.01,000,0.01
2012-11-15,0.01,0.01,0.01,0.01,000,0.01
2012-11-14,0.01,0.01,0.01,0.01,000,0.01
2012-11-13,0.01,0.01,0.01,0.01,000,0.01
2012-11-12,0.01,0.01,0.01,0.01,000,0.01
2012-11-09,0.01,0.01,0.01,0.01,000,0.01
2012-11-08,0.01,0.01,0.01,0.01,000,0.01
2012-11-07,0.01,0.01,0.01,0.01,000,0.01
2012-11-06,0.01,0.01,0.01,0.01,000,0.01
2012-11-05,0.01,0.01,0.01,0.01,000,0.01
2012-11-02,0.01,0.01,0.01,0.01,000,0.01
2012-11-01,0.01,0.01,0.01,0.01,000,0.01
2012-10-31,0.01,0.01,0.01,0.01,000,0.01
2012-10-30,0.01,0.01,0.01,0.01,000,0.01
2012-10-29,0.01,0.01,0.01,0.01,000,0.01
2012-10-26,0.01,0.01,0.01,0.01,000,0.01
2012-10-25,0.01,0.01,0.01,0.01,000,0.01
2012-10-24,0.01,0.01,0.01,0.01,000,0.01
2012-10-23,0.01,0.01,0.01,0.01,000,0.01
2012-10-22,0.01,0.01,0.01,0.01,000,0.01
2012-10-19,0.01,0.01,0.01,0.01,000,0.01
2012-10-18,0.01,0.01,0.01,0.01,000,0.01
2012-10-17,0.01,0.01,0.01,0.01,000,0.01
2012-10-16,0.01,0.01,0.01,0.01,000,0.01
2012-10-15,0.01,0.01,0.01,0.01,000,0.01
2012-10-12,0.01,0.01,0.01,0.01,000,0.01
2012-10-11,0.01,0.01,0.01,0.01,000,0.01
2012-10-10,0.01,0.01,0.01,0.01,000,0.01
2012-10-09,0.01,0.01,0.01,0.01,000,0.01
2012-10-08,0.01,0.01,0.01,0.01,000,0.01
2012-10-05,0.01,0.01,0.01,0.01,000,0.01
2012-10-04,0.01,0.01,0.01,0.01,000,0.01
2012-10-03,0.01,0.01,0.01,0.01,000,0.01
2012-10-02,0.01,0.01,0.01,0.01,000,0.01
2012-10-01,0.01,0.01,0.01,0.01,000,0.01
2012-09-28,0.01,0.01,0.01,0.01,000,0.01
2012-09-27,0.01,0.01,0.01,0.01,000,0.01
2012-09-26,0.01,0.01,0.01,0.01,000,0.01
2012-09-25,0.01,0.01,0.01,0.01,000,0.01
2012-09-24,0.01,0.01,0.01,0.01,000,0.01
2012-09-21,0.01,0.01,0.01,0.01,000,0.01
2012-09-20,0.01,0.01,0.01,0.01,000,0.01
2012-09-19,0.01,0.01,0.01,0.01,000,0.01
2012-09-18,0.01,0.01,0.01,0.01,000,0.01
2012-09-17,0.01,0.01,0.01,0.01,000,0.01
2012-09-14,0.01,0.01,0.01,0.01,000,0.01
2012-09-13,0.01,0.01,0.01,0.01,000,0.01
2012-09-12,0.01,0.01,0.01,0.01,000,0.01
2012-09-11,0.01,0.01,0.01,0.01,000,0.01
2012-09-10,0.01,0.01,0.01,0.01,000,0.01
2012-09-07,0.01,0.01,0.01,0.01,000,0.01
2012-09-06,0.01,0.01,0.01,0.01,000,0.01
2012-09-05,0.01,0.01,0.01,0.01,000,0.01
2012-09-04,0.01,0.01,0.01,0.01,000,0.01
2012-09-03,0.01,0.01,0.01,0.01,000,0.01
2012-08-31,0.01,0.01,0.01,0.01,000,0.01
2012-08-30,0.01,0.01,0.01,0.01,000,0.01
2012-08-29,0.01,0.01,0.01,0.01,000,0.01
2012-08-28,0.01,0.01,0.01,0.01,000,0.01
2012-08-27,0.01,0.01,0.01,0.01,000,0.01
2012-08-24,0.01,0.01,0.01,0.01,000,0.01
2012-08-23,0.01,0.01,0.01,0.01,000,0.01
2012-08-22,0.01,0.01,0.01,0.01,000,0.01
2012-08-21,0.01,0.01,0.01,0.01,000,0.01
2012-08-20,0.01,0.01,0.01,0.01,000,0.01
2012-08-17,0.01,0.01,0.01,0.01,000,0.01
2012-08-16,0.01,0.01,0.01,0.01,000,0.01
2012-08-15,0.01,0.01,0.01,0.01,000,0.01
2012-08-14,0.01,0.01,0.01,0.01,000,0.01
2012-08-13,0.01,0.01,0.01,0.01,000,0.01
2012-08-10,0.01,0.01,0.01,0.01,000,0.01
2012-08-09,0.01,0.01,0.01,0.01,000,0.01
2012-08-08,0.01,0.01,0.01,0.01,000,0.01
2012-08-07,0.01,0.01,0.01,0.01,000,0.01
2012-08-06,0.01,0.01,0.01,0.01,000,0.01
2012-08-03,0.01,0.01,0.01,0.01,000,0.01
2012-08-02,0.01,0.01,0.01,0.01,000,0.01
2012-08-01,0.01,0.01,0.01,0.01,000,0.01
2012-07-31,0.01,0.01,0.01,0.01,000,0.01
2012-07-30,0.01,0.01,0.01,0.01,000,0.01
2012-07-27,0.01,0.01,0.01,0.01,000,0.01
2012-07-26,0.01,0.01,0.01,0.01,000,0.01
2012-07-25,0.01,0.01,0.01,0.01,000,0.01
2012-07-24,0.01,0.01,0.01,0.01,000,0.01
2012-07-23,0.01,0.01,0.01,0.01,000,0.01
2012-07-20,0.01,0.01,0.01,0.01,000,0.01
2012-07-19,0.01,0.01,0.01,0.01,000,0.01
2012-07-18,0.01,0.01,0.01,0.01,000,0.01
2012-07-17,0.01,0.01,0.01,0.01,000,0.01
2012-07-16,0.01,0.01,0.01,0.01,000,0.01
2012-07-13,0.01,0.01,0.01,0.01,000,0.01
2012-07-12,0.01,0.01,0.01,0.01,000,0.01
2012-07-11,0.01,0.01,0.01,0.01,000,0.01
2012-07-10,0.01,0.01,0.01,0.01,000,0.01
2012-07-09,0.01,0.01,0.01,0.01,000,0.01
2012-07-06,0.01,0.01,0.01,0.01,000,0.01
2012-07-05,0.01,0.01,0.01,0.01,000,0.01
2012-07-04,0.01,0.01,0.01,0.01,000,0.01
2012-07-03,0.01,0.01,0.01,0.01,000,0.01
2012-07-02,0.01,0.01,0.01,0.01,000,0.01
2012-06-29,0.01,0.01,0.01,0.01,000,0.01
2012-06-28,0.01,0.01,0.01,0.01,000,0.01
2012-06-27,0.01,0.01,0.01,0.01,000,0.01
2012-06-26,0.01,0.01,0.01,0.01,000,0.01
2012-06-25,0.01,0.01,0.01,0.01,000,0.01
2012-06-22,0.01,0.01,0.01,0.01,000,0.01
2012-06-21,0.01,0.01,0.01,0.01,000,0.01
2012-06-20,0.01,0.01,0.01,0.01,000,0.01
2012-06-19,0.01,0.01,0.01,0.01,000,0.01
2012-06-18,0.01,0.01,0.01,0.01,000,0.01
2012-06-15,0.01,0.01,0.01,0.01,000,0.01
2012-06-14,0.01,0.01,0.01,0.01,000,0.01
2012-06-13,0.01,0.01,0.01,0.01,000,0.01
2012-06-12,0.01,0.01,0.01,0.01,000,0.01
2012-06-11,0.01,0.01,0.01,0.01,000,0.01
2012-06-08,0.01,0.01,0.01,0.01,000,0.01
2012-06-07,0.01,0.01,0.01,0.01,000,0.01
2012-06-06,0.01,0.01,0.01,0.01,000,0.01
2012-06-05,0.01,0.01,0.01,0.01,000,0.01
2012-06-04,0.01,0.01,0.01,0.01,000,0.01
2012-06-01,0.01,0.01,0.01,0.01,000,0.01
2012-05-31,0.01,0.01,0.01,0.01,000,0.01
2012-05-30,0.01,0.01,0.01,0.01,000,0.01
2012-05-29,0.01,0.01,0.01,0.01,000,0.01
2012-05-28,0.01,0.01,0.01,0.01,000,0.01
2012-05-25,0.01,0.01,0.01,0.01,000,0.01
2012-05-24,0.01,0.01,0.01,0.01,000,0.01
2012-05-23,0.01,0.01,0.01,0.01,000,0.01
2012-05-22,0.01,0.01,0.01,0.01,000,0.01
2012-05-21,0.01,0.01,0.01,0.01,000,0.01
2012-05-18,0.01,0.01,0.01,0.01,000,0.01
2012-05-17,0.01,0.01,0.01,0.01,000,0.01
2012-05-16,0.01,0.01,0.01,0.01,000,0.01
2012-05-15,0.01,0.01,0.01,0.01,000,0.01
2012-05-14,0.01,0.01,0.01,0.01,000,0.01
2012-05-11,0.01,0.01,0.01,0.01,000,0.01
2012-05-10,0.01,0.01,0.01,0.01,000,0.01
2012-05-09,0.01,0.01,0.01,0.01,000,0.01
2012-05-08,0.01,0.01,0.01,0.01,000,0.01
2012-05-07,0.01,0.01,0.01,0.01,000,0.01
2012-05-04,0.01,0.01,0.01,0.01,000,0.01
2012-05-03,0.01,0.01,0.01,0.01,000,0.01
2012-05-02,0.01,0.01,0.01,0.01,000,0.01
2012-05-01,0.01,0.01,0.01,0.01,000,0.01
2012-04-30,0.01,0.01,0.01,0.01,000,0.01
2012-04-27,0.01,0.01,0.01,0.01,000,0.01
2012-04-26,0.01,0.01,0.01,0.01,000,0.01
2012-04-25,0.01,0.01,0.01,0.01,000,0.01
2012-04-24,0.01,0.01,0.01,0.01,000,0.01
2012-04-23,0.01,0.01,0.01,0.01,000,0.01
2012-04-20,0.01,0.01,0.01,0.01,000,0.01
2012-04-19,0.01,0.01,0.01,0.01,000,0.01
2012-04-18,0.01,0.01,0.01,0.01,000,0.01
2012-04-17,0.01,0.01,0.01,0.01,000,0.01
2012-04-16,0.01,0.01,0.01,0.01,000,0.01
2012-04-13,0.01,0.01,0.01,0.01,000,0.01
2012-04-12,0.01,0.01,0.01,0.01,000,0.01
2012-04-11,0.01,0.01,0.01,0.01,000,0.01
2012-04-10,0.01,0.01,0.01,0.01,000,0.01
2012-04-09,0.01,0.01,0.01,0.01,000,0.01
2012-04-06,0.01,0.01,0.01,0.01,000,0.01
2012-04-05,0.01,0.01,0.01,0.01,000,0.01
2012-04-04,0.01,0.01,0.01,0.01,000,0.01
2012-04-03,0.01,0.01,0.01,0.01,000,0.01
2012-04-02,0.01,0.01,0.01,0.01,000,0.01
2012-03-30,0.01,0.01,0.01,0.01,000,0.01
2012-03-29,0.01,0.01,0.01,0.01,000,0.01
2012-03-28,0.01,0.01,0.01,0.01,000,0.01
2012-03-27,0.01,0.01,0.01,0.01,000,0.01
2012-03-26,0.01,0.01,0.01,0.01,000,0.01
2012-03-23,0.01,0.01,0.01,0.01,000,0.01
2012-03-22,0.01,0.01,0.01,0.01,000,0.01
2012-03-21,0.01,0.01,0.01,0.01,000,0.01
2012-03-20,0.01,0.01,0.01,0.01,000,0.01
2012-03-19,0.01,0.01,0.01,0.01,000,0.01
2012-03-16,0.01,0.01,0.01,0.01,000,0.01
2012-03-15,0.01,0.01,0.01,0.01,000,0.01
2012-03-14,0.01,0.01,0.01,0.01,000,0.01
2012-03-13,0.01,0.01,0.01,0.01,000,0.01
2012-03-12,0.01,0.01,0.01,0.01,000,0.01
2012-03-09,0.01,0.01,0.01,0.01,000,0.01
2012-03-08,0.01,0.01,0.01,0.01,000,0.01
2012-03-07,0.01,0.01,0.01,0.01,000,0.01
2012-03-06,0.01,0.01,0.01,0.01,000,0.01
2012-03-05,0.01,0.01,0.01,0.01,000,0.01
2012-03-02,0.01,0.01,0.01,0.01,000,0.01
2012-03-01,0.01,0.01,0.01,0.01,000,0.01
2012-02-29,0.01,0.01,0.01,0.01,000,0.01
2012-02-28,0.01,0.01,0.01,0.01,000,0.01
2012-02-27,0.01,0.01,0.01,0.01,000,0.01
2012-02-24,0.01,0.01,0.01,0.01,000,0.01
2012-02-23,0.01,0.01,0.01,0.01,000,0.01
2012-02-22,0.01,0.01,0.01,0.01,000,0.01
2012-02-21,0.01,0.01,0.01,0.01,000,0.01
2012-02-20,0.01,0.01,0.01,0.01,000,0.01
2012-02-17,0.01,0.01,0.01,0.01,000,0.01
2012-02-16,0.01,0.01,0.01,0.01,000,0.01
2012-02-15,0.01,0.01,0.01,0.01,000,0.01
2012-02-14,0.01,0.01,0.01,0.01,000,0.01
2012-02-13,0.01,0.01,0.01,0.01,000,0.01
2012-02-10,0.01,0.01,0.01,0.01,000,0.01
2012-02-09,0.01,0.01,0.01,0.01,000,0.01
2012-02-08,0.01,0.01,0.01,0.01,000,0.01
2012-02-07,0.01,0.01,0.01,0.01,000,0.01
2012-02-06,0.01,0.01,0.01,0.01,000,0.01
2012-02-03,0.01,0.01,0.01,0.01,000,0.01
2012-02-02,0.01,0.01,0.01,0.01,000,0.01
2012-02-01,0.01,0.01,0.01,0.01,000,0.01
2012-01-31,0.01,0.01,0.01,0.01,000,0.01
2012-01-27,0.01,0.01,0.01,0.01,000,0.01
2012-01-26,0.01,0.01,0.01,0.01,000,0.01
2012-01-25,0.01,0.01,0.01,0.01,000,0.01
2012-01-24,0.01,0.01,0.01,0.01,000,0.01
2012-01-23,0.01,0.01,0.01,0.01,000,0.01
2012-01-20,0.01,0.01,0.01,0.01,000,0.01
2012-01-19,0.01,0.01,0.01,0.01,000,0.01
2012-01-18,0.01,0.01,0.01,0.01,000,0.01
2012-01-17,0.01,0.01,0.01,0.01,000,0.01
2012-01-16,0.01,0.01,0.01,0.01,000,0.01
2012-01-13,0.01,0.01,0.01,0.01,000,0.01
2012-01-12,0.01,0.01,0.01,0.01,000,0.01
2012-01-11,0.01,0.01,0.01,0.01,000,0.01
2012-01-10,0.01,0.01,0.01,0.01,000,0.01
2012-01-09,0.01,0.01,0.01,0.01,000,0.01
2012-01-06,0.01,0.01,0.01,0.01,000,0.01
2012-01-05,0.01,0.01,0.01,0.01,000,0.01
2012-01-04,0.01,0.01,0.01,0.01,000,0.01
2012-01-03,0.01,0.01,0.01,0.01,000,0.01
2012-01-02,0.01,0.01,0.01,0.01,000,0.01
2011-12-30,0.01,0.01,0.01,0.01,000,0.01
2011-12-29,0.01,0.01,0.01,0.01,000,0.01
2011-12-28,0.01,0.01,0.01,0.01,000,0.01
2011-12-27,0.01,0.01,0.01,0.01,000,0.01
2011-12-26,0.01,0.01,0.01,0.01,000,0.01
2011-12-23,0.01,0.01,0.01,0.01,000,0.01
2011-12-22,0.01,0.01,0.01,0.01,000,0.01
2011-12-21,0.01,0.01,0.01,0.01,000,0.01
2011-12-20,0.01,0.01,0.01,0.01,000,0.01
2011-12-19,0.01,0.01,0.01,0.01,000,0.01
2011-12-16,0.01,0.01,0.01,0.01,000,0.01
2011-12-15,0.01,0.01,0.01,0.01,000,0.01
2011-12-14,0.01,0.01,0.01,0.01,000,0.01
2011-12-13,0.01,0.01,0.01,0.01,000,0.01
2011-12-12,0.01,0.01,0.01,0.01,000,0.01
2011-12-09,0.01,0.01,0.01,0.01,000,0.01
2011-12-08,0.01,0.01,0.01,0.01,000,0.01
2011-12-07,0.01,0.01,0.01,0.01,000,0.01
2011-12-06,0.01,0.01,0.01,0.01,000,0.01
2011-12-05,0.01,0.01,0.01,0.01,000,0.01
2011-12-02,0.01,0.01,0.01,0.01,000,0.01
2011-12-01,0.01,0.01,0.01,0.01,000,0.01
2011-11-30,0.01,0.01,0.01,0.01,000,0.01
2011-11-29,0.01,0.01,0.01,0.01,000,0.01
2011-11-28,0.01,0.01,0.01,0.01,000,0.01
2011-11-25,0.01,0.01,0.01,0.01,000,0.01
2011-11-24,0.01,0.01,0.01,0.01,000,0.01
2011-11-23,0.01,0.01,0.01,0.01,000,0.01
2011-11-22,0.01,0.01,0.01,0.01,000,0.01
2011-11-21,0.01,0.01,0.01,0.01,000,0.01
2011-11-18,0.01,0.01,0.01,0.01,000,0.01
2011-11-17,0.01,0.01,0.01,0.01,000,0.01
2010-06-11,0.01,0.01,0.01,0.01,40100,0.01
2010-04-09,0.033,0.033,0.033,0.033,7200,0.033
2010-02-23,0.033,0.033,0.033,0.033,000,0.033
2010-02-09,0.05,0.05,0.05,0.05,20000,0.05
2010-01-22,0.04,0.04,0.04,0.04,20000,0.04
2009-12-18,0.07,0.07,0.07,0.07,000,0.07
2009-08-11,0.07,0.07,0.07,0.07,20000,0.07
2008-02-22,0.07,0.07,0.07,0.07,20000,0.07
2007-06-22,0.06,0.06,0.06,0.06,17000,0.06
2007-05-23,0.065,0.065,0.065,0.065,36200,0.065
2007-05-15,0.06,0.06,0.06,0.06,20000,0.06
2007-04-24,0.045,0.045,0.045,0.045,50000,0.045
2007-04-23,0.04,0.04,0.04,0.04,6200,0.04
2006-09-08,0.045,0.045,0.045,0.045,14800,0.045
2006-09-07,0.045,0.045,0.045,0.045,55100,0.045
2006-06-27,0.019,0.019,0.019,0.019,100,0.019
2006-05-29,0.016,0.016,0.016,0.016,000,0.016
2006-05-05,0.015,0.015,0.015,0.015,2500,0.015
2005-10-24,0.045,0.045,0.045,0.045,37500,0.045
2005-09-27,0.039,0.039,0.039,0.039,12500,0.039
2005-06-03,0.037,0.037,0.037,0.037,62500,0.037
2005-04-01,0.041,0.041,0.041,0.041,300,0.041
2005-03-31,0.049,0.049,0.049,0.049,20000,0.049
2005-03-22,0.042,0.042,0.042,0.042,6200,0.042
2005-03-11,0.037,0.037,0.037,0.037,20200,0.037
2005-03-04,0.06,0.06,0.06,0.06,20200,0.06
2005-03-03,0.04,0.04,0.036,0.036,142700,0.036
2005-01-13,0.04,0.04,0.04,0.04,85000,0.04
2004-12-23,0.032,0.032,0.032,0.032,90000,0.032
2004-09-23,0.022,0.022,0.022,0.022,100,0.022
2004-08-05,0.035,0.035,0.035,0.035,12500,0.035
2004-07-26,0.031,0.031,0.028,0.028,70000,0.028
2004-07-16,0.036,0.036,0.036,0.036,27500,0.036
2004-07-12,0.037,0.037,0.037,0.037,90000,0.037
2004-07-05,0.032,0.032,0.032,0.032,27500,0.032
2004-06-15,0.029,0.029,0.029,0.029,25000,0.029
2004-06-10,0.025,0.025,0.025,0.025,252500,0.025
2004-06-09,0.02,0.02,0.02,0.02,000,0.02
2004-04-30,0.033,0.033,0.033,0.033,12500,0.033
2004-03-16,0.045,0.045,0.045,0.045,15000,0.045
2004-01-29,0.045,0.045,0.045,0.045,90000,0.045
2004-01-28,0.052,0.052,0.052,0.052,2400,0.052
2003-12-16,0.028,0.028,0.028,0.028,3700,0.028
2003-12-04,0.028,0.028,0.028,0.028,28700,0.028
2003-12-02,0.028,0.028,0.028,0.028,000,0.028
2003-11-14,0.033,0.033,0.033,0.033,10200,0.033
2003-11-13,0.033,0.033,0.033,0.033,000,0.033
2003-11-12,0.049,0.049,0.049,0.049,15000,0.049
2003-11-11,0.049,0.049,0.049,0.049,50000,0.049
2003-11-03,0.048,0.048,0.048,0.048,62500,0.048
2003-10-20,0.048,0.048,0.048,0.048,25000,0.048
2003-10-16,0.048,0.048,0.048,0.048,60000,0.048
2003-10-15,0.03,0.03,0.03,0.03,10400,0.03
2003-10-08,0.043,0.043,0.043,0.043,50000,0.043
2003-10-03,0.048,0.048,0.048,0.048,1200,0.048
2003-09-09,0.021,0.045,0.021,0.045,47100,0.045
2003-08-15,0.038,0.04,0.038,0.04,27500,0.04
2003-07-22,0.026,0.026,0.026,0.026,2500,0.026
2003-07-01,0.04,0.04,0.04,0.04,12500,0.04
2003-05-27,0.03,0.03,0.03,0.03,125100,0.03
2002-08-26,0.012,0.012,0.012,0.012,5000,0.012
2002-04-29,0.012,0.012,0.012,0.012,9300,0.012
2002-02-06,0.01,0.01,0.01,0.01,5000,0.01
2002-02-05,0.01,0.01,0.01,0.01,34900,0.01
2001-09-19,0.05,0.05,0.05,0.05,40000,0.05
2001-08-31,0.025,0.025,0.025,0.025,100,0.025
2001-06-28,0.02,0.02,0.02,0.02,5000,0.16
2001-06-21,0.02,0.02,0.02,0.02,6200,0.16
2001-02-09,0.02,0.02,0.02,0.02,18700,0.16
2000-09-22,0.02,0.02,0.02,0.02,2500,0.16
2000-08-31,0.02,0.02,0.02,0.02,6200,0.16
2000-08-29,0.02,0.02,0.02,0.02,3700,0.16
2000-05-02,0.02,0.02,0.02,0.02,4300,0.16
1998-12-31,0.026,0.026,0.026,0.026,000,0.208
1998-11-30,0.026,0.026,0.026,0.026,000,0.208
1998-10-30,0.026,0.026,0.026,0.026,000,0.208
1998-09-30,0.03,0.03,0.03,0.03,000,0.24
1998-08-31,0.03,0.03,0.03,0.03,000,0.24
1998-07-31,0.03,0.03,0.03,0.03,000,0.24
1998-06-30,0.025,0.025,0.025,0.025,000,0.20
1998-05-29,0.034,0.034,0.034,0.034,000,0.272
1998-04-30,0.033,0.033,0.033,0.033,000,0.264
1998-03-31,0.032,0.032,0.032,0.032,000,0.256
1998-02-27,0.05,0.05,0.05,0.05,000,0.40
1998-01-30,0.05,0.05,0.05,0.05,000,0.40
1997-12-31,0.05,0.05,0.05,0.05,000,0.40
1997-11-28,0.055,0.055,0.055,0.055,000,0.44
1997-10-31,0.05,0.05,0.05,0.05,000,0.40
1997-09-30,0.09,0.09,0.09,0.09,000,0.72
1997-08-29,0.08,0.08,0.08,0.08,000,0.64
1997-07-31,0.12,0.12,0.12,0.12,000,0.96
1997-06-30,0.079,0.079,0.079,0.079,000,0.632
1997-05-30,0.09,0.09,0.09,0.09,000,0.72
1997-04-30,0.19,0.19,0.19,0.19,000,1.52
1997-03-27,0.048,0.048,0.048,0.048,000,0.384
1997-02-28,0.048,0.048,0.048,0.048,000,0.384
1997-01-31,0.048,0.048,0.048,0.048,000,0.384
1996-12-31,0.048,0.048,0.048,0.048,000,0.384
1996-11-29,0.048,0.048,0.048,0.048,000,0.384
1996-10-31,0.048,0.048,0.048,0.048,000,0.384
1996-09-30,0.048,0.048,0.048,0.048,000,0.384
1996-08-30,0.048,0.048,0.048,0.048,000,0.384
1996-07-31,0.048,0.048,0.048,0.048,000,0.384
1996-06-28,0.03,0.03,0.03,0.03,000,0.24
1996-05-31,0.10,0.10,0.10,0.10,000,0.80
1996-04-30,0.10,0.10,0.10,0.10,000,0.80
1996-03-29,0.10,0.10,0.10,0.10,000,0.80
1996-02-29,0.10,0.10,0.10,0.10,000,0.80
1996-01-31,0.10,0.10,0.10,0.10,000,0.80
1995-12-29,0.07,0.07,0.07,0.07,000,0.56
1995-11-30,0.07,0.07,0.07,0.07,000,0.56
1995-10-31,0.07,0.07,0.07,0.07,000,0.56
1995-09-29,0.07,0.07,0.07,0.07,000,0.56
1995-08-31,0.09,0.09,0.09,0.09,000,0.72
1995-07-31,0.09,0.09,0.09,0.09,000,0.72
1995-06-30,0.09,0.09,0.09,0.09,000,0.72
1995-05-31,0.09,0.09,0.09,0.09,000,0.72
1995-04-28,0.11,0.11,0.11,0.11,000,0.88
1995-03-31,0.11,0.11,0.11,0.11,000,0.88
1995-02-28,0.11,0.11,0.11,0.11,000,0.88
1995-01-31,0.12,0.12,0.12,0.12,000,0.96
1994-12-30,0.12,0.12,0.12,0.12,000,0.96
1994-11-30,0.12,0.12,0.12,0.12,000,0.96
1994-10-31,0.16,0.16,0.16,0.16,000,1.28
1994-09-30,0.16,0.16,0.16,0.16,000,1.28
1994-08-31,0.19,0.19,0.19,0.19,000,1.52
1994-07-29,0.19,0.19,0.19,0.19,000,1.52
1994-06-30,0.21,0.21,0.21,0.21,000,1.68
1994-05-31,0.20,0.20,0.20,0.20,000,1.60
1994-04-29,0.22,0.22,0.22,0.22,000,1.76
1994-03-31,0.20,0.20,0.20,0.20,000,1.60
1994-02-28,0.27,0.27,0.27,0.27,000,2.16
1994-01-31,0.26,0.26,0.26,0.26,000,2.08
1993-12-31,0.25,0.25,0.25,0.25,000,2.00
1993-11-30,0.25,0.25,0.25,0.25,000,2.00
1993-10-29,0.25,0.25,0.25,0.25,000,2.00
1993-09-30,0.18,0.18,0.18,0.18,000,1.44
1993-08-31,0.18,0.18,0.18,0.18,000,1.44
1993-07-30,0.18,0.18,0.18,0.18,000,1.44
1993-06-30,0.22,0.22,0.22,0.22,000,1.76
1993-05-31,0.19,0.19,0.19,0.19,000,1.52
1993-04-30,0.19,0.19,0.19,0.19,000,1.52
1993-03-31,0.21,0.21,0.21,0.21,000,1.68
