Date,Open,High,Low,Close,Volume,Adj Close
2017-01-10,0.016,0.016,0.016,0.016,000,0.016
2017-01-09,0.016,0.016,0.016,0.016,000,0.016
2017-01-06,0.016,0.016,0.016,0.016,000,0.016
2017-01-05,0.016,0.016,0.016,0.016,000,0.016
2017-01-04,0.016,0.016,0.016,0.016,000,0.016
2017-01-03,0.016,0.016,0.016,0.016,000,0.016
2017-01-02,0.016,0.016,0.016,0.016,000,0.016
2016-12-30,0.016,0.016,0.016,0.016,000,0.016
2016-12-29,0.016,0.016,0.016,0.016,000,0.016
2016-12-28,0.016,0.016,0.016,0.016,000,0.016
2016-12-27,0.016,0.016,0.016,0.016,000,0.016
2016-12-26,0.016,0.016,0.016,0.016,000,0.016
2016-12-23,0.016,0.016,0.016,0.016,000,0.016
2016-12-22,0.016,0.016,0.016,0.016,000,0.016
2016-12-21,0.016,0.016,0.016,0.016,50000,0.016
2016-12-20,0.016,0.016,0.016,0.016,000,0.016
2016-12-19,0.016,0.016,0.016,0.016,000,0.016
2016-12-16,0.016,0.016,0.016,0.016,000,0.016
2016-12-15,0.016,0.016,0.016,0.016,160000,0.016
2016-12-14,0.013,0.013,0.013,0.013,000,0.013
2016-12-13,0.013,0.013,0.013,0.013,000,0.013
2016-12-12,0.013,0.013,0.013,0.013,000,0.013
2016-12-09,0.013,0.013,0.013,0.013,14300,0.013
2016-12-08,0.013,0.013,0.013,0.013,000,0.013
2016-12-07,0.013,0.013,0.013,0.013,000,0.013
2016-12-06,0.013,0.013,0.013,0.013,000,0.013
2016-12-05,0.013,0.013,0.013,0.013,000,0.013
2016-12-02,0.013,0.013,0.013,0.013,10000,0.013
2016-12-01,0.013,0.013,0.013,0.013,4000,0.013
2016-11-30,0.013,0.013,0.013,0.013,000,0.013
2016-11-29,0.013,0.013,0.013,0.013,000,0.013
2016-11-28,0.013,0.013,0.013,0.013,000,0.013
2016-11-25,0.013,0.013,0.013,0.013,000,0.013
2016-11-24,0.013,0.013,0.013,0.013,000,0.013
2016-11-23,0.013,0.013,0.013,0.013,150000,0.013
2016-11-22,0.016,0.016,0.016,0.016,000,0.016
2016-11-21,0.016,0.016,0.016,0.016,000,0.016
2016-11-18,0.016,0.016,0.016,0.016,000,0.016
2016-11-17,0.016,0.016,0.016,0.016,000,0.016
2016-11-16,0.016,0.016,0.016,0.016,000,0.016
2016-11-15,0.016,0.016,0.016,0.016,000,0.016
2016-11-14,0.016,0.016,0.016,0.016,000,0.016
2016-11-11,0.016,0.016,0.016,0.016,000,0.016
2016-11-10,0.016,0.016,0.016,0.016,000,0.016
2016-11-09,0.016,0.016,0.016,0.016,000,0.016
2016-11-08,0.016,0.016,0.016,0.016,000,0.016
2016-11-07,0.016,0.016,0.016,0.016,000,0.016
2016-11-04,0.016,0.016,0.016,0.016,000,0.016
2016-11-03,0.016,0.016,0.016,0.016,000,0.016
2016-11-02,0.016,0.016,0.016,0.016,9000,0.016
2016-11-01,0.016,0.016,0.016,0.016,000,0.016
2016-10-31,0.016,0.016,0.016,0.016,000,0.016
2016-10-28,0.016,0.016,0.016,0.016,000,0.016
2016-10-27,0.016,0.016,0.016,0.016,000,0.016
2016-10-26,0.016,0.016,0.016,0.016,000,0.016
2016-10-25,0.016,0.016,0.016,0.016,000,0.016
2016-10-24,0.016,0.016,0.016,0.016,000,0.016
2016-10-21,0.016,0.016,0.016,0.016,34000,0.016
2016-10-20,0.016,0.016,0.016,0.016,000,0.016
2016-10-19,0.016,0.016,0.016,0.016,000,0.016
2016-10-18,0.016,0.016,0.016,0.016,49500,0.016
2016-10-17,0.016,0.016,0.016,0.016,15000,0.016
2016-10-14,0.016,0.016,0.016,0.016,000,0.016
2016-10-13,0.016,0.016,0.016,0.016,000,0.016
2016-10-12,0.016,0.016,0.016,0.016,000,0.016
2016-10-11,0.016,0.016,0.016,0.016,000,0.016
2016-10-10,0.016,0.016,0.016,0.016,3000,0.016
2016-10-07,0.016,0.016,0.016,0.016,000,0.016
2016-10-06,0.016,0.016,0.016,0.016,000,0.016
2016-10-05,0.016,0.016,0.016,0.016,000,0.016
2016-10-04,0.016,0.016,0.016,0.016,000,0.016
2016-10-03,0.016,0.016,0.016,0.016,12000,0.016
2016-09-30,0.016,0.016,0.016,0.016,000,0.016
2016-09-29,0.016,0.016,0.016,0.016,000,0.016
2016-09-28,0.016,0.016,0.016,0.016,000,0.016
2016-09-27,0.016,0.016,0.016,0.016,500000,0.016
2016-09-26,0.015,0.015,0.015,0.015,000,0.015
2016-09-23,0.015,0.015,0.015,0.015,000,0.015
2016-09-22,0.015,0.015,0.015,0.015,000,0.015
2016-09-21,0.015,0.015,0.015,0.015,000,0.015
2016-09-20,0.015,0.015,0.015,0.015,55400,0.015
2016-09-19,0.015,0.015,0.015,0.015,000,0.015
2016-09-16,0.015,0.015,0.015,0.015,000,0.015
2016-09-15,0.015,0.015,0.015,0.015,000,0.015
2016-09-14,0.015,0.015,0.015,0.015,000,0.015
2016-09-13,0.015,0.015,0.015,0.015,000,0.015
2016-09-12,0.015,0.015,0.015,0.015,000,0.015
2016-09-09,0.015,0.015,0.015,0.015,000,0.015
2016-09-08,0.015,0.015,0.015,0.015,14000,0.015
2016-09-07,0.015,0.015,0.015,0.015,3000,0.015
2016-09-06,0.015,0.015,0.015,0.015,20000,0.015
2016-09-05,0.017,0.017,0.017,0.017,000,0.017
2016-09-02,0.017,0.017,0.017,0.017,000,0.017
2016-09-01,0.017,0.017,0.017,0.017,000,0.017
2016-08-31,0.017,0.017,0.017,0.017,000,0.017
2016-08-30,0.017,0.017,0.017,0.017,200000,0.017
2016-08-29,0.017,0.017,0.017,0.017,000,0.017
2016-08-26,0.017,0.017,0.017,0.017,54800,0.017
2016-08-25,0.017,0.017,0.017,0.017,000,0.017
2016-08-24,0.017,0.017,0.017,0.017,000,0.017
2016-08-23,0.017,0.017,0.017,0.017,000,0.017
2016-08-22,0.017,0.017,0.015,0.017,201500,0.017
2016-08-19,0.017,0.017,0.017,0.017,000,0.017
2016-08-18,0.017,0.017,0.017,0.017,60000,0.017
2016-08-17,0.016,0.019,0.016,0.019,209700,0.019
2016-08-16,0.016,0.016,0.016,0.016,1150000,0.016
2016-08-15,0.015,0.015,0.015,0.015,000,0.015
2016-08-12,0.015,0.015,0.015,0.015,000,0.015
2016-08-11,0.015,0.015,0.015,0.015,000,0.015
2016-08-10,0.015,0.015,0.015,0.015,000,0.015
2016-08-09,0.014,0.015,0.014,0.015,400000,0.015
2016-08-08,0.015,0.015,0.015,0.015,000,0.015
2016-08-05,0.015,0.015,0.015,0.015,000,0.015
2016-08-04,0.015,0.015,0.015,0.015,000,0.015
2016-08-03,0.015,0.015,0.015,0.015,000,0.015
2016-08-02,0.015,0.015,0.015,0.015,000,0.015
2016-08-01,0.015,0.015,0.015,0.015,000,0.015
2016-07-29,0.015,0.015,0.015,0.015,000,0.015
2016-07-28,0.015,0.015,0.015,0.015,000,0.015
2016-07-27,0.015,0.015,0.015,0.015,000,0.015
2016-07-26,0.015,0.015,0.015,0.015,700,0.015
2016-07-25,0.012,0.012,0.012,0.012,000,0.012
2016-07-22,0.012,0.012,0.012,0.012,000,0.012
2016-07-21,0.012,0.012,0.012,0.012,000,0.012
2016-07-20,0.012,0.012,0.012,0.012,000,0.012
2016-07-19,0.012,0.012,0.012,0.012,000,0.012
2016-07-18,0.012,0.012,0.012,0.012,000,0.012
2016-07-15,0.012,0.012,0.012,0.012,21000,0.012
2016-07-14,0.012,0.012,0.012,0.012,000,0.012
2016-07-13,0.012,0.012,0.012,0.012,000,0.012
2016-07-12,0.012,0.012,0.012,0.012,000,0.012
2016-07-11,0.012,0.012,0.012,0.012,000,0.012
2016-07-08,0.012,0.012,0.012,0.012,000,0.012
2016-07-07,0.012,0.012,0.012,0.012,000,0.012
2016-07-06,0.012,0.012,0.012,0.012,000,0.012
2016-07-05,0.012,0.012,0.012,0.012,000,0.012
2016-07-04,0.012,0.012,0.012,0.012,000,0.012
2016-07-01,0.012,0.012,0.012,0.012,000,0.012
2016-06-30,0.012,0.012,0.012,0.012,212900,0.012
2016-06-29,0.012,0.012,0.012,0.012,000,0.012
2016-06-28,0.012,0.012,0.012,0.012,000,0.012
2016-06-27,0.012,0.012,0.012,0.012,6200,0.012
2016-06-24,0.015,0.015,0.015,0.015,000,0.015
2016-06-23,0.015,0.015,0.015,0.015,000,0.015
2016-06-22,0.015,0.015,0.015,0.015,139700,0.015
2016-06-21,0.012,0.012,0.012,0.012,000,0.012
2016-06-20,0.012,0.012,0.012,0.012,000,0.012
2016-06-17,0.012,0.012,0.012,0.012,000,0.012
2016-06-16,0.012,0.012,0.012,0.012,100000,0.012
2016-06-15,0.012,0.012,0.012,0.012,305600,0.012
2016-06-14,0.012,0.012,0.011,0.011,500000,0.011
2016-06-13,0.012,0.012,0.012,0.012,000,0.012
2016-06-10,0.012,0.012,0.012,0.012,10000,0.012
2016-06-09,0.011,0.011,0.011,0.011,000,0.011
2016-06-08,0.011,0.011,0.011,0.011,000,0.011
2016-06-07,0.011,0.011,0.011,0.011,29800,0.011
2016-06-06,0.012,0.012,0.012,0.012,3000,0.012
2016-06-03,0.012,0.012,0.012,0.012,219000,0.012
2016-06-02,0.011,0.011,0.011,0.011,30000,0.011
2016-06-01,0.01,0.01,0.01,0.01,000,0.01
2016-05-31,0.01,0.01,0.01,0.01,82000,0.01
2016-05-30,0.01,0.01,0.01,0.01,000,0.01
2016-05-27,0.01,0.01,0.01,0.01,000,0.01
2016-05-26,0.01,0.01,0.01,0.01,000,0.01
2016-05-25,0.01,0.01,0.01,0.01,150000,0.01
2016-05-24,0.01,0.01,0.01,0.01,000,0.01
2016-05-23,0.01,0.01,0.01,0.01,000,0.01
2016-05-20,0.01,0.01,0.01,0.01,12800,0.01
2016-05-19,0.01,0.01,0.01,0.01,000,0.01
2016-05-18,0.01,0.01,0.01,0.01,000,0.01
2016-05-17,0.01,0.01,0.01,0.01,000,0.01
2016-05-16,0.01,0.01,0.01,0.01,000,0.01
2016-05-13,0.01,0.01,0.01,0.01,15000,0.01
2016-05-12,0.012,0.012,0.012,0.012,000,0.012
2016-05-11,0.01,0.012,0.01,0.012,569000,0.012
2016-05-10,0.009,0.01,0.009,0.01,1174600,0.01
2016-05-09,0.011,0.011,0.011,0.01,4100,0.01
2016-05-06,0.011,0.011,0.011,0.011,000,0.011
2016-05-05,0.011,0.011,0.011,0.011,3400,0.011
2016-05-04,0.011,0.011,0.011,0.011,51200,0.011
2016-05-03,0.011,0.011,0.011,0.011,000,0.011
2016-05-02,0.011,0.011,0.011,0.011,000,0.011
2016-04-29,0.011,0.011,0.011,0.011,000,0.011
2016-04-28,0.011,0.011,0.011,0.011,000,0.011
2016-04-27,0.011,0.011,0.011,0.011,40000,0.011
2016-04-26,0.011,0.011,0.011,0.011,000,0.011
2016-04-25,0.011,0.011,0.011,0.011,000,0.011
2016-04-22,0.011,0.011,0.011,0.011,000,0.011
2016-04-21,0.011,0.011,0.011,0.011,000,0.011
2016-04-20,0.011,0.011,0.011,0.011,000,0.011
2016-04-19,0.011,0.011,0.011,0.011,000,0.011
2016-04-18,0.011,0.011,0.011,0.011,000,0.011
2016-04-15,0.011,0.011,0.011,0.011,000,0.011
2016-04-14,0.011,0.011,0.011,0.011,3400,0.011
2016-04-13,0.012,0.012,0.012,0.012,000,0.012
2016-04-12,0.012,0.012,0.012,0.012,000,0.012
2016-04-11,0.012,0.012,0.012,0.012,30000,0.012
2016-04-08,0.01,0.01,0.01,0.01,400000,0.01
2016-04-07,0.01,0.01,0.01,0.01,000,0.01
2016-04-06,0.01,0.01,0.01,0.01,000,0.01
2016-04-05,0.01,0.01,0.01,0.01,26600,0.01
2016-04-04,0.01,0.01,0.01,0.01,000,0.01
2016-04-01,0.01,0.01,0.01,0.01,000,0.01
2016-03-31,0.01,0.01,0.01,0.01,40000,0.01
2016-03-30,0.01,0.01,0.01,0.01,000,0.01
2016-03-29,0.01,0.01,0.01,0.01,000,0.01
2016-03-28,0.01,0.01,0.01,0.01,000,0.01
2016-03-25,0.01,0.01,0.01,0.01,000,0.01
2016-03-24,0.01,0.01,0.01,0.01,000,0.01
2016-03-23,0.01,0.01,0.01,0.01,000,0.01
2016-03-22,0.01,0.01,0.01,0.01,000,0.01
2016-03-21,0.01,0.01,0.01,0.01,000,0.01
2016-03-18,0.01,0.01,0.01,0.01,000,0.01
2016-03-17,0.01,0.01,0.01,0.01,000,0.01
2016-03-16,0.01,0.01,0.01,0.01,37700,0.01
2016-03-15,0.01,0.01,0.01,0.01,000,0.01
2016-03-14,0.01,0.01,0.01,0.01,000,0.01
2016-03-11,0.01,0.01,0.01,0.01,000,0.01
2016-03-10,0.01,0.01,0.01,0.01,000,0.01
2016-03-09,0.01,0.01,0.01,0.01,9200,0.01
2016-03-08,0.012,0.012,0.012,0.012,000,0.012
2016-03-07,0.012,0.012,0.012,0.012,000,0.012
2016-03-04,0.012,0.012,0.012,0.012,000,0.012
2016-03-03,0.012,0.012,0.012,0.012,109200,0.012
2016-03-02,0.009,0.009,0.009,0.009,000,0.009
2016-03-01,0.009,0.009,0.009,0.009,000,0.009
2016-02-29,0.009,0.009,0.009,0.009,000,0.009
2016-02-26,0.009,0.009,0.009,0.009,000,0.009
2016-02-25,0.009,0.009,0.009,0.009,000,0.009
2016-02-24,0.009,0.009,0.009,0.009,000,0.009
2016-02-23,0.007,0.009,0.007,0.009,57700,0.009
2016-02-22,0.012,0.012,0.012,0.012,000,0.012
2016-02-19,0.012,0.012,0.012,0.012,000,0.012
2016-02-18,0.012,0.012,0.012,0.012,000,0.012
2016-02-17,0.012,0.012,0.012,0.012,000,0.012
2016-02-16,0.012,0.012,0.012,0.012,000,0.012
2016-02-15,0.012,0.012,0.012,0.012,000,0.012
2016-02-12,0.012,0.012,0.012,0.012,000,0.012
2016-02-11,0.012,0.012,0.012,0.012,000,0.012
2016-02-10,0.012,0.012,0.012,0.012,000,0.012
2016-02-09,0.012,0.012,0.012,0.012,000,0.012
2016-02-08,0.012,0.012,0.012,0.012,000,0.012
2016-02-05,0.012,0.012,0.012,0.012,000,0.012
2016-02-04,0.012,0.012,0.012,0.012,000,0.012
2016-02-03,0.012,0.012,0.012,0.012,000,0.012
2016-02-02,0.012,0.012,0.012,0.012,000,0.012
2016-02-01,0.012,0.012,0.012,0.012,000,0.012
2016-01-29,0.012,0.012,0.012,0.012,000,0.012
2016-01-28,0.012,0.012,0.012,0.012,000,0.012
2016-01-27,0.012,0.012,0.012,0.012,000,0.012
2016-01-26,0.012,0.012,0.012,0.012,000,0.012
2016-01-25,0.012,0.012,0.012,0.012,000,0.012
2016-01-22,0.012,0.012,0.012,0.012,000,0.012
2016-01-21,0.012,0.012,0.012,0.012,000,0.012
2016-01-20,0.012,0.012,0.012,0.012,000,0.012
2016-01-19,0.012,0.012,0.012,0.012,000,0.012
2016-01-18,0.012,0.012,0.012,0.012,000,0.012
2016-01-15,0.012,0.012,0.012,0.012,000,0.012
2016-01-14,0.012,0.012,0.012,0.012,000,0.012
2016-01-13,0.012,0.012,0.012,0.012,436600,0.012
2016-01-12,0.012,0.012,0.012,0.012,000,0.012
2016-01-11,0.012,0.012,0.012,0.012,84800,0.012
2016-01-08,0.014,0.014,0.012,0.012,663300,0.012
2016-01-07,0.012,0.012,0.012,0.012,10900,0.012
2016-01-06,0.012,0.012,0.012,0.012,000,0.012
2016-01-05,0.012,0.012,0.012,0.012,000,0.012
2016-01-04,0.012,0.012,0.012,0.012,000,0.012
2016-01-01,0.012,0.012,0.012,0.012,000,0.012
2015-12-31,0.012,0.012,0.012,0.012,000,0.012
2015-12-30,0.012,0.012,0.012,0.012,000,0.012
2015-12-29,0.012,0.012,0.012,0.012,000,0.012
2015-12-28,0.012,0.012,0.012,0.012,000,0.012
2015-12-25,0.012,0.012,0.012,0.012,000,0.012
2015-12-24,0.012,0.012,0.012,0.012,000,0.012
2015-12-23,0.012,0.012,0.012,0.012,000,0.012
2015-12-22,0.012,0.012,0.012,0.012,000,0.012
2015-12-21,0.012,0.012,0.012,0.012,000,0.012
2015-12-18,0.012,0.012,0.012,0.012,000,0.012
2015-12-17,0.012,0.012,0.012,0.012,400000,0.012
2015-12-16,0.012,0.012,0.012,0.012,1047500,0.012
2015-12-15,0.012,0.012,0.012,0.012,8000,0.012
2015-12-14,0.014,0.014,0.014,0.014,000,0.014
2015-12-11,0.014,0.014,0.014,0.014,000,0.014
2015-12-10,0.014,0.014,0.014,0.014,000,0.014
2015-12-09,0.014,0.014,0.014,0.014,000,0.014
2015-12-08,0.014,0.014,0.014,0.014,000,0.014
2015-12-07,0.014,0.014,0.014,0.014,000,0.014
2015-12-04,0.014,0.014,0.014,0.014,000,0.014
2015-12-03,0.014,0.014,0.014,0.014,000,0.014
2015-12-02,0.014,0.014,0.014,0.014,000,0.014
2015-12-01,0.014,0.014,0.014,0.014,000,0.014
2015-11-30,0.014,0.014,0.014,0.014,000,0.014
2015-11-27,0.014,0.014,0.014,0.014,000,0.014
2015-11-26,0.014,0.014,0.014,0.014,000,0.014
2015-11-25,0.014,0.014,0.014,0.014,000,0.014
2015-11-24,0.014,0.014,0.014,0.014,000,0.014
2015-11-23,0.014,0.014,0.014,0.014,000,0.014
2015-11-20,0.014,0.014,0.014,0.014,000,0.014
2015-11-19,0.014,0.014,0.014,0.014,100000,0.014
2015-11-18,0.014,0.014,0.014,0.014,000,0.014
2015-11-17,0.014,0.014,0.014,0.014,000,0.014
2015-11-16,0.014,0.014,0.014,0.014,000,0.014
2015-11-13,0.014,0.014,0.014,0.014,000,0.014
2015-11-12,0.014,0.014,0.014,0.014,000,0.014
2015-11-11,0.014,0.014,0.014,0.014,000,0.014
2015-11-10,0.014,0.014,0.014,0.014,75000,0.014
2015-11-09,0.014,0.014,0.014,0.014,160500,0.014
2015-11-06,0.015,0.015,0.015,0.015,000,0.015
2015-11-05,0.015,0.015,0.015,0.015,000,0.015
2015-11-04,0.015,0.015,0.015,0.015,000,0.015
2015-11-03,0.015,0.015,0.014,0.015,238000,0.015
2015-11-02,0.018,0.018,0.018,0.018,000,0.018
2015-10-30,0.018,0.018,0.018,0.018,359500,0.018
2015-10-29,0.018,0.018,0.018,0.018,14700,0.018
2015-10-28,0.016,0.016,0.016,0.016,000,0.016
2015-10-27,0.016,0.016,0.016,0.016,000,0.016
2015-10-26,0.016,0.016,0.016,0.016,000,0.016
2015-10-23,0.016,0.016,0.016,0.016,000,0.016
2015-10-22,0.016,0.016,0.016,0.016,000,0.016
2015-10-21,0.016,0.016,0.016,0.016,000,0.016
2015-10-20,0.016,0.016,0.016,0.016,000,0.016
2015-10-19,0.016,0.016,0.016,0.016,000,0.016
2015-10-16,0.016,0.016,0.016,0.016,35000,0.016
2015-10-15,0.014,0.014,0.014,0.014,000,0.014
2015-10-14,0.014,0.014,0.014,0.014,000,0.014
2015-10-13,0.014,0.014,0.014,0.014,000,0.014
2015-10-12,0.014,0.014,0.014,0.014,101000,0.014
2015-10-09,0.013,0.013,0.013,0.013,000,0.013
2015-10-08,0.013,0.013,0.013,0.013,000,0.013
2015-10-07,0.013,0.013,0.013,0.013,111500,0.013
2015-10-06,0.012,0.012,0.012,0.012,000,0.012
2015-10-05,0.012,0.012,0.012,0.012,000,0.012
2015-10-02,0.012,0.012,0.012,0.012,000,0.012
2015-10-01,0.012,0.012,0.012,0.012,000,0.012
2015-09-30,0.012,0.012,0.012,0.012,000,0.012
2015-09-29,0.012,0.012,0.012,0.012,10000,0.012
2015-09-28,0.012,0.012,0.012,0.012,000,0.012
2015-09-25,0.012,0.012,0.012,0.012,000,0.012
2015-09-24,0.012,0.012,0.012,0.012,000,0.012
2015-09-23,0.012,0.012,0.012,0.012,40000,0.012
2015-09-22,0.012,0.012,0.012,0.012,20000,0.012
2015-09-21,0.012,0.012,0.012,0.012,000,0.012
2015-09-18,0.012,0.012,0.012,0.012,000,0.012
2015-09-17,0.012,0.012,0.012,0.012,1955200,0.012
2015-09-16,0.013,0.013,0.013,0.013,000,0.013
2015-09-15,0.013,0.013,0.013,0.013,000,0.013
2015-09-14,0.013,0.013,0.013,0.013,281500,0.013
2015-09-11,0.013,0.013,0.013,0.013,18400,0.013
2015-09-10,0.015,0.015,0.015,0.015,000,0.015
2015-09-09,0.015,0.015,0.015,0.015,000,0.015
2015-09-08,0.015,0.015,0.015,0.015,000,0.015
2015-09-07,0.015,0.015,0.015,0.015,000,0.015
2015-09-04,0.015,0.015,0.015,0.015,000,0.015
2015-09-03,0.015,0.015,0.015,0.015,000,0.015
2015-09-02,0.015,0.015,0.015,0.015,000,0.015
2015-09-01,0.015,0.015,0.015,0.015,000,0.015
2015-08-31,0.015,0.015,0.015,0.015,000,0.015
2015-08-28,0.013,0.015,0.013,0.015,300000,0.015
2015-08-27,0.014,0.014,0.014,0.014,50000,0.014
2015-08-26,0.012,0.012,0.012,0.012,000,0.012
2015-08-25,0.014,0.014,0.012,0.012,115000,0.012
2015-08-24,0.015,0.015,0.015,0.015,000,0.015
2015-08-21,0.015,0.015,0.015,0.015,35000,0.015
2015-08-20,0.015,0.017,0.015,0.017,305000,0.017
2015-08-19,0.012,0.012,0.012,0.012,60000,0.012
2015-08-18,0.012,0.012,0.012,0.012,000,0.012
2015-08-17,0.012,0.012,0.012,0.012,50000,0.012
2015-08-14,0.012,0.012,0.012,0.012,000,0.012
2015-08-13,0.012,0.012,0.012,0.012,85000,0.012
2015-08-12,0.014,0.014,0.014,0.014,000,0.014
2015-08-11,0.014,0.014,0.014,0.014,000,0.014
2015-08-10,0.014,0.014,0.014,0.014,000,0.014
2015-08-07,0.014,0.014,0.014,0.014,9500,0.014
2015-08-06,0.014,0.014,0.014,0.014,10000,0.014
2015-08-05,0.015,0.015,0.014,0.014,74300,0.014
2015-08-04,0.015,0.015,0.015,0.015,102000,0.015
2015-08-03,0.015,0.015,0.015,0.015,372800,0.015
2015-07-31,0.016,0.016,0.016,0.016,000,0.016
2015-07-30,0.016,0.016,0.016,0.016,27500,0.016
2015-07-29,0.014,0.016,0.014,0.016,32500,0.016
2015-07-28,0.016,0.016,0.016,0.016,140000,0.016
2015-07-27,0.019,0.019,0.019,0.019,000,0.019
2015-07-24,0.019,0.019,0.019,0.019,000,0.019
2015-07-23,0.019,0.019,0.019,0.019,000,0.019
2015-07-22,0.019,0.019,0.019,0.019,30000,0.019
2015-07-21,0.019,0.019,0.019,0.019,000,0.019
2015-07-20,0.019,0.019,0.019,0.019,230000,0.019
2015-07-17,0.017,0.019,0.017,0.019,480700,0.019
2015-07-16,0.016,0.016,0.016,0.016,000,0.016
2015-07-15,0.016,0.016,0.016,0.016,000,0.016
2015-07-14,0.016,0.016,0.016,0.016,000,0.016
2015-07-13,0.016,0.016,0.016,0.016,28900,0.016
2015-07-10,0.016,0.016,0.016,0.016,250000,0.016
2015-07-09,0.016,0.016,0.016,0.016,000,0.016
2015-07-08,0.017,0.017,0.016,0.016,377000,0.016
2015-07-07,0.018,0.018,0.018,0.018,36000,0.018
2015-07-06,0.016,0.016,0.016,0.016,000,0.016
2015-07-03,0.016,0.016,0.016,0.016,200000,0.016
2015-07-02,0.015,0.015,0.015,0.015,000,0.015
2015-07-01,0.015,0.015,0.015,0.015,000,0.015
2015-06-30,0.016,0.016,0.015,0.015,254500,0.015
2015-06-29,0.018,0.018,0.016,0.016,29500,0.016
2015-06-26,0.018,0.018,0.018,0.018,25000,0.018
2015-06-25,0.018,0.018,0.018,0.018,000,0.018
2015-06-24,0.018,0.018,0.018,0.018,18000,0.018
2015-06-23,0.018,0.018,0.018,0.018,40000,0.018
2015-06-22,0.018,0.018,0.018,0.018,164500,0.018
2015-06-19,0.019,0.019,0.019,0.019,160000,0.019
2015-06-18,0.019,0.019,0.019,0.019,66500,0.019
2015-06-17,0.019,0.024,0.019,0.024,151300,0.024
2015-06-16,0.019,0.019,0.019,0.019,4000,0.019
2015-06-15,0.019,0.019,0.019,0.019,000,0.019
2015-06-12,0.018,0.019,0.017,0.019,190000,0.019
2015-06-11,0.018,0.018,0.018,0.018,000,0.018
2015-06-10,0.018,0.018,0.018,0.018,65000,0.018
2015-06-09,0.018,0.018,0.018,0.018,000,0.018
2015-06-08,0.018,0.018,0.018,0.018,000,0.018
2015-06-05,0.018,0.018,0.018,0.018,30000,0.018
2015-06-04,0.015,0.015,0.015,0.015,105000,0.015
2015-06-03,0.016,0.016,0.016,0.016,40000,0.016
2015-06-02,0.015,0.015,0.015,0.015,20000,0.015
2015-06-01,0.018,0.018,0.018,0.018,101600,0.018
2015-05-29,0.015,0.018,0.013,0.018,483900,0.018
2015-05-28,0.016,0.018,0.016,0.018,817900,0.018
2015-05-27,0.015,0.015,0.015,0.015,000,0.015
2015-05-26,0.015,0.015,0.015,0.015,28100,0.015
2015-05-25,0.015,0.015,0.015,0.015,70000,0.015
2015-05-22,0.014,0.014,0.014,0.014,000,0.014
2015-05-21,0.015,0.015,0.014,0.014,583000,0.014
2015-05-20,0.016,0.016,0.015,0.015,161400,0.015
2015-05-19,0.016,0.016,0.016,0.016,8500,0.016
2015-05-18,0.017,0.017,0.016,0.016,200000,0.016
2015-05-15,0.014,0.017,0.014,0.017,603900,0.017
2015-05-14,0.014,0.014,0.014,0.014,700000,0.014
2015-05-13,0.014,0.014,0.014,0.014,000,0.014
2015-05-12,0.014,0.014,0.014,0.014,38000,0.014
2015-05-11,0.014,0.014,0.014,0.014,000,0.014
2015-05-08,0.014,0.014,0.014,0.014,000,0.014
2015-05-07,0.014,0.014,0.014,0.014,17000,0.014
2015-05-06,0.014,0.014,0.014,0.014,000,0.014
2015-05-05,0.015,0.015,0.014,0.014,214000,0.014
2015-05-04,0.014,0.014,0.014,0.014,240000,0.014
2015-05-01,0.015,0.015,0.012,0.012,438700,0.012
2015-04-30,0.015,0.017,0.015,0.017,324000,0.017
2015-04-29,0.015,0.015,0.015,0.015,97900,0.015
2015-04-28,0.012,0.013,0.012,0.013,365900,0.013
2015-04-27,0.013,0.013,0.013,0.013,150000,0.013
2015-04-24,0.012,0.012,0.012,0.012,51700,0.012
2015-04-23,0.014,0.014,0.014,0.014,400000,0.014
2015-04-22,0.015,0.015,0.015,0.015,000,0.015
2015-04-21,0.015,0.015,0.015,0.015,000,0.015
2015-04-20,0.014,0.015,0.014,0.015,355400,0.015
2015-04-17,0.011,0.012,0.01,0.012,600000,0.012
2015-04-16,0.011,0.011,0.011,0.011,25400,0.011
2015-04-15,0.011,0.011,0.011,0.011,000,0.011
2015-04-14,0.011,0.011,0.011,0.011,2900,0.011
2015-04-13,0.011,0.011,0.011,0.011,50000,0.011
2015-04-10,0.011,0.011,0.011,0.011,000,0.011
2015-04-09,0.011,0.011,0.011,0.011,000,0.011
2015-04-08,0.01,0.011,0.01,0.011,214500,0.011
2015-04-07,0.01,0.01,0.01,0.01,000,0.01
2015-04-06,0.01,0.01,0.01,0.01,000,0.01
2015-04-03,0.01,0.01,0.01,0.01,000,0.01
2015-04-02,0.012,0.012,0.01,0.01,943300,0.01
2015-04-01,0.013,0.013,0.013,0.013,136100,0.013
2015-03-31,0.014,0.015,0.013,0.015,231400,0.015
2015-03-30,0.015,0.015,0.014,0.014,81600,0.014
2015-03-27,0.015,0.015,0.015,0.015,000,0.015
2015-03-26,0.015,0.015,0.015,0.015,000,0.015
2015-03-25,0.014,0.015,0.014,0.015,40000,0.015
2015-03-24,0.014,0.014,0.014,0.014,80000,0.014
2015-03-23,0.015,0.015,0.015,0.015,000,0.015
2015-03-20,0.015,0.015,0.015,0.015,000,0.015
2015-03-19,0.013,0.015,0.013,0.015,93900,0.015
2015-03-18,0.014,0.014,0.013,0.013,108500,0.013
2015-03-17,0.014,0.015,0.014,0.015,89000,0.015
2015-03-16,0.015,0.015,0.015,0.015,162000,0.015
2015-03-13,0.015,0.015,0.015,0.015,44100,0.015
2015-03-12,0.015,0.015,0.015,0.015,8000,0.015
2015-03-11,0.015,0.015,0.015,0.015,429400,0.015
2015-03-10,0.017,0.017,0.016,0.016,470600,0.016
2015-03-09,0.016,0.016,0.016,0.016,000,0.016
2015-03-06,0.016,0.016,0.016,0.016,000,0.016
2015-03-05,0.016,0.016,0.016,0.016,000,0.016
2015-03-04,0.016,0.016,0.016,0.016,60000,0.016
2015-03-03,0.016,0.016,0.016,0.016,000,0.016
2015-03-02,0.016,0.016,0.016,0.016,000,0.016
2015-02-27,0.016,0.016,0.016,0.016,000,0.016
2015-02-26,0.016,0.016,0.016,0.016,000,0.016
2015-02-25,0.016,0.016,0.016,0.016,450000,0.016
2015-02-24,0.016,0.016,0.016,0.016,000,0.016
2015-02-23,0.02,0.02,0.016,0.016,104500,0.016
2015-02-20,0.015,0.015,0.015,0.015,113900,0.015
2015-02-19,0.015,0.015,0.015,0.015,000,0.015
2015-02-18,0.016,0.016,0.015,0.015,350000,0.015
2015-02-17,0.015,0.015,0.015,0.015,000,0.015
2015-02-16,0.015,0.015,0.015,0.015,000,0.015
2015-02-13,0.016,0.016,0.015,0.015,400000,0.015
2015-02-12,0.016,0.016,0.016,0.016,000,0.016
2015-02-11,0.016,0.016,0.016,0.016,000,0.016
2015-02-10,0.016,0.016,0.016,0.016,200000,0.016
2015-02-09,0.017,0.017,0.017,0.017,000,0.017
2015-02-06,0.017,0.017,0.017,0.017,000,0.017
2015-02-05,0.017,0.017,0.017,0.017,000,0.017
2015-02-04,0.017,0.017,0.017,0.017,14200,0.017
2015-02-03,0.017,0.017,0.017,0.017,33700,0.017
2015-02-02,0.017,0.018,0.017,0.018,84600,0.018
2015-01-30,0.02,0.02,0.017,0.018,753900,0.018
2015-01-29,0.021,0.021,0.021,0.021,300000,0.021
2015-01-28,0.022,0.022,0.021,0.021,42100,0.021
2015-01-27,0.022,0.022,0.022,0.022,10000,0.022
2015-01-26,0.022,0.022,0.022,0.022,000,0.022
2015-01-23,0.022,0.022,0.022,0.022,91000,0.022
2015-01-22,0.02,0.02,0.02,0.02,000,0.02
2015-01-21,0.02,0.02,0.02,0.02,40000,0.02
2015-01-20,0.02,0.02,0.02,0.02,000,0.02
2015-01-19,0.02,0.02,0.02,0.02,000,0.02
2015-01-16,0.02,0.02,0.02,0.02,000,0.02
2015-01-15,0.02,0.02,0.02,0.02,16600,0.02
2015-01-14,0.025,0.025,0.025,0.025,000,0.025
2015-01-13,0.025,0.025,0.025,0.025,000,0.025
2015-01-12,0.025,0.025,0.025,0.025,115000,0.025
2015-01-09,0.027,0.027,0.027,0.027,000,0.027
2015-01-08,0.027,0.027,0.027,0.027,000,0.027
2015-01-07,0.022,0.027,0.021,0.027,284400,0.027
2015-01-06,0.017,0.02,0.017,0.02,365500,0.02
2015-01-05,0.017,0.017,0.017,0.017,000,0.017
2015-01-02,0.016,0.017,0.015,0.017,165300,0.017
2015-01-01,0.016,0.016,0.016,0.016,000,0.016
2014-12-31,0.016,0.016,0.016,0.016,000,0.016
2014-12-30,0.016,0.016,0.016,0.016,72500,0.016
2014-12-29,0.017,0.017,0.016,0.016,245500,0.016
2014-12-26,0.017,0.017,0.017,0.017,000,0.017
2014-12-25,0.017,0.017,0.017,0.017,000,0.017
2014-12-24,0.017,0.017,0.017,0.017,000,0.017
2014-12-23,0.017,0.017,0.017,0.017,194700,0.017
2014-12-22,0.017,0.017,0.017,0.017,000,0.017
2014-12-19,0.017,0.017,0.017,0.017,20000,0.017
2014-12-18,0.017,0.02,0.017,0.02,200000,0.02
2014-12-17,0.021,0.021,0.02,0.02,200000,0.02
2014-12-16,0.021,0.021,0.021,0.021,386600,0.021
2014-12-15,0.023,0.023,0.023,0.023,9100,0.023
2014-12-12,0.024,0.024,0.024,0.024,000,0.024
2014-12-11,0.024,0.024,0.024,0.024,260800,0.024
2014-12-10,0.027,0.027,0.024,0.024,387900,0.024
2014-12-09,0.026,0.026,0.026,0.026,000,0.026
2014-12-08,0.026,0.026,0.025,0.026,223000,0.026
2014-12-05,0.026,0.026,0.025,0.025,419400,0.025
2014-12-04,0.026,0.027,0.026,0.026,300900,0.026
2014-12-03,0.027,0.027,0.025,0.025,234100,0.025
2014-12-02,0.025,0.025,0.025,0.025,75800,0.025
2014-12-01,0.026,0.026,0.026,0.026,149200,0.026
2014-11-28,0.031,0.031,0.029,0.029,1020000,0.029
2014-11-27,0.037,0.038,0.031,0.031,776600,0.031
2014-11-26,0.039,0.039,0.037,0.037,1280900,0.037
2014-11-25,0.042,0.042,0.038,0.038,1013600,0.038
2014-11-24,0.042,0.042,0.04,0.04,476000,0.04
2014-11-21,0.041,0.042,0.04,0.042,288100,0.042
2014-11-20,0.043,0.043,0.041,0.041,479800,0.041
2014-11-19,0.047,0.05,0.041,0.042,2303300,0.042
2014-11-18,0.056,0.065,0.046,0.046,8271700,0.046
2014-11-17,0.075,0.105,0.049,0.052,19004400,0.052
2014-11-14,0.34,0.345,0.33,0.33,321100,0.33
2014-11-13,0.35,0.35,0.33,0.33,342900,0.33
2014-11-12,0.35,0.36,0.34,0.35,364900,0.35
2014-11-11,0.36,0.36,0.34,0.35,278800,0.35
2014-11-10,0.35,0.38,0.35,0.365,387800,0.365
2014-11-07,0.32,0.35,0.32,0.34,211100,0.34
2014-11-06,0.31,0.32,0.31,0.32,420100,0.32
2014-11-05,0.32,0.32,0.31,0.31,63100,0.31
2014-11-04,0.33,0.33,0.31,0.32,99500,0.32
2014-11-03,0.35,0.35,0.31,0.32,239200,0.32
2014-10-31,0.34,0.355,0.33,0.35,549400,0.35
2014-10-30,0.36,0.36,0.36,0.36,000,0.36
2014-10-29,0.36,0.36,0.36,0.36,000,0.36
2014-10-28,0.355,0.36,0.35,0.36,13300,0.36
2014-10-27,0.355,0.355,0.345,0.35,192700,0.35
2014-10-24,0.36,0.36,0.35,0.355,106500,0.355
2014-10-23,0.345,0.36,0.345,0.35,75000,0.35
2014-10-22,0.34,0.35,0.34,0.34,27400,0.34
2014-10-21,0.355,0.355,0.34,0.34,108000,0.34
2014-10-20,0.34,0.345,0.34,0.345,92900,0.345
2014-10-17,0.34,0.34,0.34,0.34,5000,0.34
2014-10-16,0.34,0.345,0.335,0.34,105000,0.34
2014-10-15,0.34,0.34,0.34,0.34,36000,0.34
2014-10-14,0.35,0.35,0.34,0.34,61600,0.34
2014-10-13,0.37,0.37,0.33,0.33,173300,0.33
2014-10-10,0.37,0.375,0.34,0.37,221000,0.37
2014-10-09,0.365,0.38,0.36,0.375,281200,0.375
2014-10-08,0.355,0.355,0.355,0.355,13900,0.355
2014-10-07,0.345,0.345,0.34,0.34,115000,0.34
2014-10-06,0.36,0.36,0.34,0.34,138800,0.34
2014-10-03,0.36,0.365,0.32,0.34,3455300,0.34
2014-10-02,0.37,0.385,0.36,0.36,247500,0.36
2014-10-01,0.355,0.37,0.35,0.37,42200,0.37
2014-09-30,0.35,0.35,0.345,0.345,124400,0.345
2014-09-29,0.355,0.355,0.35,0.35,108400,0.35
2014-09-26,0.365,0.375,0.365,0.375,92500,0.375
2014-09-25,0.37,0.375,0.36,0.365,87700,0.365
2014-09-24,0.37,0.375,0.37,0.37,68000,0.37
2014-09-23,0.36,0.365,0.33,0.365,222200,0.365
2014-09-22,0.38,0.39,0.36,0.36,68500,0.36
2014-09-19,0.37,0.39,0.37,0.39,199600,0.39
2014-09-18,0.395,0.395,0.335,0.365,775400,0.365
2014-09-17,0.405,0.41,0.395,0.395,37500,0.395
2014-09-16,0.40,0.41,0.40,0.41,78500,0.41
2014-09-15,0.39,0.405,0.39,0.405,154400,0.405
2014-09-12,0.39,0.39,0.385,0.39,73300,0.39
2014-09-11,0.40,0.40,0.40,0.40,12500,0.40
2014-09-10,0.41,0.41,0.40,0.40,171100,0.40
2014-09-09,0.40,0.41,0.40,0.41,143800,0.41
2014-09-08,0.415,0.415,0.40,0.40,188500,0.40
2014-09-05,0.405,0.41,0.405,0.41,96100,0.41
2014-09-04,0.41,0.41,0.40,0.40,433800,0.40
2014-09-03,0.40,0.415,0.40,0.415,240100,0.415
2014-09-02,0.40,0.40,0.40,0.40,108500,0.40
2014-09-01,0.41,0.41,0.40,0.40,196100,0.40
2014-08-29,0.40,0.41,0.40,0.40,213200,0.40
2014-08-28,0.39,0.40,0.39,0.40,224200,0.40
2014-08-27,0.40,0.40,0.385,0.385,127000,0.385
2014-08-26,0.415,0.42,0.39,0.40,379200,0.40
2014-08-25,0.41,0.425,0.405,0.405,541800,0.405
2014-08-22,0.375,0.40,0.375,0.40,361200,0.40
2014-08-21,0.40,0.40,0.37,0.38,188800,0.38
2014-08-20,0.36,0.41,0.36,0.395,562900,0.395
2014-08-19,0.335,0.355,0.335,0.355,609500,0.355
2014-08-18,0.33,0.335,0.33,0.335,50000,0.335
2014-08-15,0.32,0.345,0.32,0.335,39300,0.335
2014-08-14,0.32,0.32,0.32,0.32,8500,0.32
2014-08-13,0.33,0.33,0.33,0.33,66500,0.33
2014-08-12,0.33,0.33,0.33,0.33,000,0.33
2014-08-11,0.33,0.33,0.33,0.33,33500,0.33
2014-08-08,0.325,0.33,0.325,0.33,35700,0.33
2014-08-07,0.335,0.335,0.33,0.33,59700,0.33
2014-08-06,0.345,0.345,0.335,0.335,127700,0.335
2014-08-05,0.335,0.34,0.335,0.335,144000,0.335
2014-08-04,0.33,0.33,0.33,0.33,50100,0.33
2014-08-01,0.315,0.33,0.315,0.32,41600,0.32
2014-07-31,0.32,0.32,0.30,0.31,127300,0.31
2014-07-30,0.31,0.325,0.31,0.325,26000,0.325
2014-07-29,0.315,0.325,0.30,0.325,77900,0.325
2014-07-28,0.31,0.315,0.30,0.315,89400,0.315
2014-07-25,0.305,0.31,0.305,0.31,69300,0.31
2014-07-24,0.315,0.315,0.305,0.305,24800,0.305
2014-07-23,0.31,0.315,0.31,0.315,18100,0.315
2014-07-22,0.305,0.31,0.305,0.31,45000,0.31
2014-07-21,0.30,0.31,0.30,0.31,79000,0.31
2014-07-18,0.31,0.31,0.30,0.30,39900,0.30
2014-07-17,0.31,0.315,0.31,0.315,9500,0.315
2014-07-16,0.29,0.31,0.29,0.31,59300,0.31
2014-07-15,0.285,0.29,0.285,0.29,215800,0.29
2014-07-14,0.30,0.30,0.285,0.285,71700,0.285
2014-07-11,0.31,0.31,0.285,0.30,121200,0.30
2014-07-10,0.325,0.325,0.32,0.32,66000,0.32
2014-07-09,0.35,0.35,0.31,0.335,264500,0.335
2014-07-08,0.34,0.35,0.34,0.35,298900,0.35
2014-07-07,0.315,0.345,0.315,0.33,261200,0.33
2014-07-04,0.295,0.315,0.295,0.31,346400,0.31
2014-07-03,0.285,0.30,0.285,0.295,557600,0.295
2014-07-02,0.28,0.28,0.275,0.28,260400,0.28
2014-07-01,0.275,0.285,0.275,0.28,269400,0.28
2014-06-30,0.275,0.275,0.275,0.275,57200,0.275
2014-06-27,0.265,0.285,0.265,0.275,167400,0.275
2014-06-26,0.265,0.265,0.265,0.265,30100,0.265
2014-06-25,0.26,0.265,0.26,0.265,446900,0.265
2014-06-24,0.25,0.25,0.25,0.25,10000,0.25
2014-06-23,0.25,0.25,0.25,0.25,14000,0.25
2014-06-20,0.26,0.265,0.25,0.265,155100,0.265
2014-06-19,0.25,0.25,0.25,0.25,30000,0.25
2014-06-18,0.26,0.26,0.26,0.26,7000,0.26
2014-06-17,0.26,0.26,0.26,0.26,000,0.26
2014-06-16,0.25,0.26,0.25,0.26,100000,0.26
2014-06-13,0.245,0.25,0.245,0.25,10500,0.25
2014-06-12,0.255,0.255,0.25,0.25,159200,0.25
2014-06-11,0.265,0.265,0.26,0.26,81500,0.26
2014-06-10,0.265,0.265,0.265,0.265,88600,0.265
2014-06-09,0.265,0.265,0.265,0.265,000,0.265
2014-06-06,0.28,0.28,0.265,0.265,15000,0.265
2014-06-05,0.27,0.27,0.27,0.27,8300,0.27
2014-06-04,0.285,0.285,0.27,0.27,15600,0.27
2014-06-03,0.27,0.275,0.27,0.275,34300,0.275
2014-06-02,0.28,0.28,0.28,0.28,28500,0.28
2014-05-30,0.29,0.29,0.28,0.28,107400,0.28
2014-05-29,0.27,0.27,0.27,0.27,3700,0.27
2014-05-28,0.26,0.26,0.26,0.26,000,0.26
2014-05-27,0.26,0.26,0.26,0.26,30000,0.26
2014-05-26,0.26,0.26,0.26,0.26,36100,0.26
2014-05-23,0.26,0.26,0.26,0.26,1800,0.26
2014-05-22,0.265,0.265,0.26,0.26,156700,0.26
2014-05-21,0.27,0.27,0.27,0.27,000,0.27
2014-05-20,0.28,0.28,0.265,0.27,133400,0.27
2014-05-19,0.29,0.295,0.27,0.27,128900,0.27
2014-05-16,0.295,0.295,0.285,0.29,228500,0.29
2014-05-15,0.30,0.31,0.30,0.31,44700,0.31
2014-05-14,0.30,0.30,0.30,0.30,16400,0.30
2014-05-13,0.31,0.31,0.30,0.30,4000,0.30
2014-05-12,0.295,0.32,0.295,0.32,112900,0.32
2014-05-09,0.29,0.29,0.29,0.29,15000,0.29
2014-05-08,0.29,0.295,0.29,0.295,52800,0.295
2014-05-07,0.285,0.30,0.285,0.285,176100,0.285
2014-05-06,0.28,0.28,0.28,0.28,44700,0.28
2014-05-05,0.28,0.28,0.28,0.28,85200,0.28
2014-05-02,0.28,0.285,0.28,0.285,700,0.285
2014-05-01,0.29,0.29,0.29,0.29,5100,0.29
2014-04-30,0.285,0.285,0.285,0.285,20000,0.285
2014-04-29,0.28,0.28,0.28,0.28,8500,0.28
2014-04-28,0.28,0.28,0.28,0.28,31100,0.28
2014-04-25,0.28,0.28,0.28,0.28,000,0.28
2014-04-24,0.28,0.28,0.28,0.28,40000,0.28
2014-04-23,0.285,0.285,0.285,0.285,000,0.285
2014-04-22,0.27,0.285,0.27,0.285,5800,0.285
2014-04-21,0.26,0.26,0.26,0.26,000,0.26
2014-04-18,0.26,0.26,0.26,0.26,000,0.26
2014-04-17,0.26,0.265,0.26,0.26,53800,0.26
2014-04-16,0.27,0.27,0.27,0.27,6100,0.27
2014-04-15,0.27,0.27,0.27,0.27,000,0.27
2014-04-14,0.27,0.27,0.27,0.27,40000,0.27
2014-04-11,0.28,0.28,0.27,0.27,47400,0.27
2014-04-10,0.285,0.285,0.275,0.28,60900,0.28
2014-04-09,0.29,0.29,0.29,0.29,42500,0.29
2014-04-08,0.295,0.295,0.295,0.295,37700,0.295
2014-04-07,0.28,0.29,0.28,0.29,33400,0.29
2014-04-04,0.28,0.28,0.28,0.28,12200,0.28
2014-04-03,0.28,0.28,0.28,0.28,000,0.28
2014-04-02,0.275,0.28,0.275,0.28,14400,0.28
2014-04-01,0.28,0.285,0.275,0.275,56100,0.275
2014-03-31,0.29,0.29,0.29,0.29,4100,0.29
2014-03-28,0.285,0.285,0.285,0.285,000,0.285
2014-03-27,0.285,0.285,0.285,0.285,000,0.285
2014-03-26,0.285,0.285,0.285,0.285,34900,0.285
2014-03-25,0.30,0.30,0.295,0.295,102400,0.295
2014-03-24,0.305,0.305,0.30,0.30,82400,0.30
2014-03-21,0.33,0.33,0.31,0.32,294700,0.32
2014-03-20,0.33,0.335,0.33,0.335,124100,0.335
2014-03-19,0.32,0.345,0.32,0.33,110800,0.33
2014-03-18,0.295,0.34,0.295,0.34,626900,0.34
2014-03-17,0.28,0.295,0.28,0.295,8300,0.295
2014-03-14,0.285,0.285,0.28,0.28,162400,0.28
2014-03-13,0.275,0.295,0.275,0.295,233600,0.295
2014-03-12,0.265,0.265,0.265,0.265,20000,0.265
2014-03-11,0.27,0.27,0.27,0.27,69000,0.27
2014-03-10,0.28,0.28,0.28,0.28,000,0.28
2014-03-07,0.28,0.28,0.28,0.28,3000,0.28
2014-03-06,0.285,0.285,0.285,0.285,000,0.285
2014-03-05,0.285,0.285,0.285,0.285,000,0.285
2014-03-04,0.29,0.29,0.285,0.285,17500,0.285
2014-03-03,0.29,0.29,0.29,0.29,37000,0.29
2014-02-28,0.30,0.30,0.30,0.30,2000,0.30
2014-02-27,0.295,0.30,0.295,0.30,81000,0.30
2014-02-26,0.29,0.29,0.29,0.29,85000,0.29
2014-02-25,0.27,0.27,0.27,0.27,000,0.27
2014-02-24,0.27,0.27,0.27,0.27,000,0.27
2014-02-21,0.27,0.27,0.27,0.27,000,0.27
2014-02-20,0.26,0.27,0.26,0.27,112000,0.27
2014-02-19,0.26,0.27,0.255,0.255,57700,0.255
2014-02-18,0.26,0.26,0.255,0.26,38000,0.26
2014-02-17,0.255,0.255,0.255,0.255,4000,0.255
2014-02-14,0.26,0.26,0.255,0.255,16300,0.255
2014-02-13,0.26,0.265,0.255,0.255,147400,0.255
2014-02-12,0.26,0.26,0.26,0.26,3700,0.26
2014-02-11,0.26,0.27,0.26,0.27,11200,0.27
2014-02-10,0.265,0.265,0.265,0.265,000,0.265
2014-02-07,0.265,0.265,0.265,0.265,34700,0.265
2014-02-06,0.26,0.26,0.26,0.26,000,0.26
2014-02-05,0.265,0.265,0.26,0.26,75000,0.26
2014-02-04,0.275,0.28,0.27,0.27,25400,0.27
2014-02-03,0.285,0.285,0.28,0.28,44800,0.28
2014-01-31,0.28,0.285,0.28,0.285,37200,0.285
2014-01-30,0.275,0.275,0.275,0.275,12800,0.275
2014-01-29,0.27,0.275,0.27,0.275,10000,0.275
2014-01-28,0.28,0.28,0.255,0.255,225200,0.255
2014-01-27,0.28,0.28,0.28,0.28,000,0.28
2014-01-24,0.285,0.285,0.28,0.28,19200,0.28
2014-01-23,0.275,0.275,0.275,0.275,000,0.275
2014-01-22,0.275,0.275,0.27,0.275,42500,0.275
2014-01-21,0.29,0.29,0.29,0.29,34200,0.29
2014-01-20,0.285,0.285,0.285,0.285,3000,0.285
2014-01-17,0.295,0.295,0.265,0.265,21600,0.265
2014-01-16,0.28,0.30,0.28,0.30,219700,0.30
2014-01-15,0.285,0.285,0.28,0.285,207000,0.285
2014-01-14,0.285,0.285,0.275,0.285,155700,0.285
2014-01-13,0.285,0.29,0.285,0.285,23000,0.285
2014-01-10,0.29,0.29,0.29,0.29,000,0.29
2014-01-09,0.29,0.29,0.285,0.29,64500,0.29
2014-01-08,0.29,0.29,0.29,0.29,000,0.29
2014-01-07,0.29,0.29,0.29,0.29,7000,0.29
2014-01-06,0.29,0.29,0.29,0.29,17100,0.29
2014-01-03,0.285,0.29,0.285,0.29,129000,0.29
2014-01-02,0.285,0.29,0.28,0.29,117800,0.29
2014-01-01,0.285,0.285,0.285,0.285,000,0.285
2013-12-31,0.285,0.285,0.285,0.285,000,0.285
2013-12-30,0.285,0.285,0.285,0.285,21000,0.285
2013-12-27,0.295,0.295,0.295,0.295,000,0.295
2013-12-26,0.295,0.295,0.295,0.295,000,0.295
2013-12-25,0.295,0.295,0.295,0.295,000,0.295
2013-12-24,0.285,0.295,0.285,0.295,150000,0.295
2013-12-23,0.27,0.285,0.27,0.285,58700,0.285
2013-12-20,0.27,0.275,0.27,0.275,106100,0.275
2013-12-19,0.27,0.28,0.27,0.275,331000,0.275
2013-12-18,0.27,0.27,0.26,0.265,55400,0.265
2013-12-17,0.27,0.27,0.27,0.27,212100,0.27
2013-12-16,0.27,0.27,0.265,0.265,27900,0.265
2013-12-13,0.27,0.27,0.27,0.27,79200,0.27
2013-12-12,0.265,0.265,0.265,0.265,6000,0.265
2013-12-11,0.275,0.275,0.27,0.27,48500,0.27
2013-12-10,0.275,0.275,0.27,0.27,75600,0.27
2013-12-09,0.275,0.275,0.275,0.275,000,0.275
2013-12-06,0.275,0.275,0.27,0.275,116700,0.275
2013-12-05,0.27,0.275,0.27,0.275,6200,0.275
2013-12-04,0.28,0.28,0.27,0.27,126600,0.27
2013-12-03,0.26,0.275,0.26,0.26,210000,0.26
2013-12-02,0.285,0.285,0.26,0.26,293200,0.26
2013-11-29,0.34,0.34,0.27,0.29,494800,0.29
2013-11-28,0.35,0.35,0.35,0.35,000,0.35
2013-11-27,0.345,0.365,0.33,0.35,61700,0.35
2013-11-26,0.35,0.35,0.31,0.31,84100,0.31
2013-11-25,0.39,0.39,0.39,0.39,000,0.39
2013-11-22,0.39,0.39,0.39,0.39,000,0.39
2013-11-21,0.39,0.39,0.39,0.39,10000,0.39
2013-11-20,0.355,0.39,0.355,0.39,96600,0.39
2013-11-19,0.36,0.39,0.36,0.39,74100,0.39
2013-11-18,0.31,0.31,0.31,0.31,000,0.31
2013-11-15,0.31,0.31,0.31,0.31,000,0.31
2013-11-14,0.31,0.31,0.31,0.31,000,0.31
2013-11-13,0.31,0.31,0.31,0.31,000,0.31
2013-11-12,0.31,0.31,0.31,0.31,000,0.31
2013-11-11,0.31,0.31,0.31,0.31,000,0.31
2013-11-08,0.31,0.31,0.31,0.31,26000,0.31
2013-11-07,0.35,0.355,0.32,0.32,29000,0.32
2013-11-06,0.355,0.355,0.355,0.355,000,0.355
2013-11-05,0.355,0.355,0.355,0.355,000,0.355
2013-11-04,0.34,0.355,0.34,0.355,35000,0.355
2013-11-01,0.31,0.31,0.31,0.31,000,0.31
2013-10-31,0.31,0.31,0.31,0.31,000,0.31
2013-10-30,0.31,0.31,0.31,0.31,4400,0.31
2013-10-29,0.295,0.295,0.295,0.295,000,0.295
2013-10-28,0.30,0.30,0.295,0.295,14500,0.295
2013-10-25,0.30,0.30,0.295,0.30,304200,0.30
2013-10-24,0.32,0.32,0.29,0.30,248900,0.30
2013-10-23,0.32,0.32,0.32,0.32,3900,0.32
2013-10-22,0.315,0.315,0.315,0.315,20100,0.315
2013-10-21,0.335,0.335,0.315,0.32,58000,0.32
2013-10-18,0.32,0.32,0.32,0.32,000,0.32
2013-10-17,0.345,0.345,0.32,0.32,51700,0.32
2013-10-16,0.345,0.345,0.345,0.345,42500,0.345
2013-10-15,0.36,0.36,0.35,0.35,162500,0.35
2013-10-14,0.35,0.35,0.35,0.35,10000,0.35
2013-10-11,0.35,0.35,0.35,0.35,25000,0.35
2013-10-10,0.35,0.35,0.35,0.35,80000,0.35
2013-10-09,0.34,0.35,0.32,0.35,27700,0.35
2013-10-08,0.36,0.36,0.315,0.315,48700,0.315
2013-10-07,0.38,0.38,0.38,0.38,90000,0.38
2013-10-04,0.38,0.38,0.38,0.38,10000,0.38
2013-10-03,0.38,0.38,0.38,0.38,75000,0.38
2013-10-02,0.36,0.415,0.36,0.38,187200,0.38
2013-10-01,0.34,0.35,0.34,0.35,70400,0.35
2013-09-30,0.335,0.34,0.335,0.34,17500,0.34
2013-09-27,0.33,0.33,0.33,0.33,18000,0.33
2013-09-26,0.295,0.35,0.295,0.35,152000,0.35
2013-09-25,0.28,0.28,0.28,0.28,25000,0.28
2013-09-24,0.28,0.28,0.28,0.28,5000,0.28
2013-09-23,0.28,0.295,0.28,0.295,70800,0.295
2013-09-20,0.28,0.28,0.275,0.275,15000,0.275
2013-09-19,0.295,0.295,0.295,0.295,61700,0.295
2013-09-18,0.28,0.295,0.28,0.295,84300,0.295
2013-09-17,0.27,0.29,0.27,0.29,73500,0.29
2013-09-16,0.28,0.28,0.275,0.275,51000,0.275
2013-09-13,0.28,0.29,0.28,0.29,35000,0.29
2013-09-12,0.29,0.295,0.27,0.295,235900,0.295
2013-09-11,0.305,0.325,0.305,0.305,62200,0.305
2013-09-10,0.31,0.32,0.305,0.305,539600,0.305
2013-09-09,0.31,0.33,0.30,0.32,930000,0.32
2013-09-06,0.305,0.325,0.30,0.31,431300,0.31
2013-09-05,0.28,0.31,0.28,0.31,1899400,0.31
2013-09-04,0.265,0.27,0.265,0.27,425000,0.27
2013-09-03,0.255,0.255,0.255,0.255,59700,0.255
2013-09-02,0.255,0.255,0.245,0.255,57800,0.255
2013-08-30,0.26,0.26,0.26,0.26,000,0.26
2013-08-29,0.25,0.265,0.25,0.26,128000,0.26
2013-08-28,0.26,0.26,0.26,0.26,000,0.26
2013-08-27,0.26,0.26,0.26,0.26,000,0.26
2013-08-26,0.25,0.26,0.25,0.26,87300,0.26
2013-08-23,0.25,0.25,0.245,0.25,59400,0.25
2013-08-22,0.25,0.25,0.25,0.25,92000,0.25
2013-08-21,0.26,0.26,0.26,0.26,47200,0.26
2013-08-20,0.26,0.26,0.26,0.26,10000,0.26
2013-08-19,0.26,0.26,0.26,0.26,000,0.26
2013-08-16,0.255,0.27,0.255,0.26,131800,0.26
2013-08-15,0.255,0.26,0.25,0.25,117000,0.25
2013-08-14,0.255,0.255,0.255,0.255,24500,0.255
2013-08-13,0.25,0.26,0.25,0.26,122200,0.26
2013-08-12,0.25,0.25,0.25,0.25,218900,0.25
2013-08-09,0.25,0.25,0.245,0.245,102000,0.245
2013-08-08,0.25,0.25,0.25,0.25,42000,0.25
2013-08-07,0.24,0.25,0.24,0.25,11000,0.25
2013-08-06,0.24,0.24,0.24,0.24,33000,0.24
2013-08-05,0.24,0.24,0.23,0.23,42000,0.23
2013-08-02,0.24,0.24,0.24,0.24,18900,0.24
2013-08-01,0.25,0.25,0.25,0.25,000,0.25
2013-07-31,0.25,0.25,0.25,0.25,25000,0.25
2013-07-30,0.245,0.25,0.245,0.25,36700,0.25
2013-07-29,0.25,0.25,0.245,0.25,46200,0.25
2013-07-26,0.235,0.235,0.235,0.235,000,0.235
2013-07-25,0.235,0.235,0.235,0.235,000,0.235
2013-07-24,0.24,0.24,0.235,0.235,154000,0.235
2013-07-23,0.25,0.25,0.245,0.245,28300,0.245
2013-07-22,0.25,0.25,0.25,0.25,49200,0.25
2013-07-19,0.25,0.25,0.25,0.25,244500,0.25
2013-07-18,0.245,0.25,0.245,0.25,234900,0.25
2013-07-17,0.24,0.24,0.24,0.24,000,0.24
2013-07-16,0.24,0.24,0.24,0.24,000,0.24
2013-07-15,0.245,0.245,0.24,0.24,14500,0.24
2013-07-12,0.245,0.245,0.245,0.245,2100,0.245
2013-07-11,0.24,0.24,0.24,0.24,000,0.24
2013-07-10,0.24,0.24,0.24,0.24,20000,0.24
2013-07-09,0.24,0.24,0.24,0.24,25000,0.24
2013-07-08,0.245,0.245,0.245,0.245,25000,0.245
2013-07-05,0.245,0.25,0.245,0.25,80000,0.25
2013-07-04,0.23,0.245,0.23,0.245,44200,0.245
2013-07-03,0.25,0.25,0.25,0.25,000,0.25
2013-07-02,0.25,0.25,0.25,0.25,10000,0.25
2013-07-01,0.25,0.25,0.25,0.25,120000,0.25
2013-06-28,0.24,0.25,0.24,0.25,373700,0.25
2013-06-27,0.24,0.245,0.24,0.24,28000,0.24
2013-06-26,0.23,0.23,0.23,0.23,000,0.23
2013-06-25,0.24,0.24,0.23,0.23,39400,0.23
2013-06-24,0.24,0.24,0.24,0.24,000,0.24
2013-06-21,0.24,0.24,0.24,0.24,47400,0.24
2013-06-20,0.25,0.25,0.25,0.25,55500,0.25
2013-06-19,0.245,0.25,0.245,0.25,4800,0.25
2013-06-18,0.245,0.245,0.24,0.245,18400,0.245
2013-06-17,0.245,0.245,0.245,0.245,2500,0.245
2013-06-14,0.23,0.23,0.23,0.23,000,0.23
2013-06-13,0.245,0.25,0.23,0.23,206000,0.23
2013-06-12,0.25,0.25,0.24,0.24,77000,0.24
2013-06-11,0.25,0.25,0.25,0.25,4000,0.25
2013-06-10,0.25,0.25,0.25,0.25,000,0.25
2013-06-07,0.24,0.25,0.24,0.25,50300,0.25
2013-06-06,0.24,0.24,0.24,0.24,000,0.24
2013-06-05,0.245,0.25,0.24,0.24,50000,0.24
2013-06-04,0.245,0.245,0.245,0.245,000,0.245
2013-06-03,0.245,0.245,0.245,0.245,10000,0.245
2013-05-31,0.25,0.25,0.25,0.25,80000,0.25
2013-05-30,0.25,0.25,0.25,0.25,64500,0.25
2013-05-29,0.25,0.25,0.25,0.25,127500,0.25
2013-05-28,0.25,0.25,0.25,0.25,321100,0.25
2013-05-27,0.25,0.25,0.25,0.25,6000,0.25
2013-05-24,0.25,0.25,0.25,0.25,54200,0.25
2013-05-23,0.25,0.25,0.245,0.25,180700,0.25
2013-05-22,0.25,0.25,0.24,0.25,152000,0.25
2013-05-21,0.25,0.255,0.24,0.24,259700,0.24
2013-05-20,0.22,0.22,0.22,0.22,194000,0.22
2013-05-17,0.24,0.24,0.22,0.22,148000,0.22
2013-05-16,0.255,0.255,0.245,0.245,95200,0.245
2013-05-15,0.25,0.26,0.25,0.26,55700,0.26
2013-05-14,0.25,0.25,0.25,0.25,37000,0.25
2013-05-13,0.27,0.27,0.27,0.27,100000,0.27
2013-05-10,0.27,0.27,0.27,0.27,2000,0.27
2013-05-09,0.27,0.27,0.27,0.27,29000,0.27
2013-05-08,0.25,0.27,0.235,0.27,186900,0.27
2013-05-07,0.30,0.30,0.26,0.26,55000,0.26
2013-05-06,0.30,0.30,0.30,0.30,21200,0.30
2013-05-03,0.30,0.315,0.30,0.31,39000,0.31
2013-05-02,0.30,0.33,0.30,0.32,122000,0.32
2013-05-01,0.34,0.35,0.325,0.325,86700,0.325
2013-04-30,0.43,0.43,0.32,0.35,169400,0.35
