Date,Open,High,Low,Close,Volume,Adj Close
2017-01-09,187.00,187.00,185.50,185.60,600,185.60
2017-01-06,185.70,185.95,185.58,185.95,200,185.95
2017-01-05,190.10,190.10,188.21,188.85,300,188.85
2017-01-04,188.41,188.41,187.44,187.90,2300,187.90
2017-01-03,189.04,189.04,187.60,187.60,800,187.60
2016-12-30,187.50,187.50,186.71,187.15,200,187.15
2016-12-29,189.00,189.12,187.96,187.96,400,187.96
2016-12-28,188.90,190.73,188.90,189.60,300,189.60
2016-12-23,188.53,188.90,188.23,188.90,2500,188.90
2016-12-22,190.00,190.00,188.90,188.90,200,188.90
2016-12-21,190.11,190.24,189.65,189.90,600,189.90
2016-12-20,199.36,199.36,188.15,188.88,1700,188.88
2016-12-19,187.75,187.75,186.65,187.07,600,187.07
2016-12-16,190.00,199.50,185.60,185.64,500,185.64
2016-12-15,183.40,183.40,181.97,182.96,700,182.96
2016-12-14,183.26,183.49,182.96,183.47,4100,183.47
2016-12-13,182.00,183.40,182.00,182.36,400,182.36
2016-12-12,186.05,186.37,185.10,185.10,900,185.10
2016-12-09,185.25,186.03,185.25,185.25,800,185.25
2016-12-08,182.00,182.03,181.74,181.74,600,181.74
2016-12-07,180.87,181.18,180.86,181.18,400,181.18
2016-12-06,178.00,179.41,178.00,179.28,2000,179.28
2016-12-05,175.63,175.63,175.60,175.60,300,175.60
2016-12-02,176.80,176.80,176.31,176.51,900,176.51
2016-12-01,178.17,178.68,178.07,178.68,200,178.68
2016-11-30,177.00,177.20,177.00,177.20,100,177.20
2016-11-29,177.82,177.82,177.00,177.30,1000,177.30
2016-11-28,190.00,190.00,179.06,179.06,300,179.06
2016-11-25,180.90,181.00,180.80,180.88,300,180.88
2016-11-23,179.91,180.06,179.40,179.52,600,179.52
2016-11-22,179.24,179.61,178.40,179.51,1200,179.51
2016-11-21,180.32,180.32,178.82,179.57,1100,179.57
2016-11-18,176.99,177.07,176.295,176.65,700,176.65
2016-11-17,172.52,174.39,172.52,174.39,300,174.39
2016-11-16,172.00,172.00,171.94,172.00,600,172.00
2016-11-15,169.40,171.86,169.40,171.54,1000,171.54
2016-11-14,169.35,170.255,169.04,169.70,700,169.70
2016-11-11,163.23,165.36,163.23,164.56,5000,164.56
2016-11-10,159.87,160.05,159.51,160.05,1000,160.05
2016-11-09,155.44,155.44,148.00,148.00,4500,148.00
2016-11-08,153.70,153.77,153.51,153.77,000,153.77
2016-11-07,153.15,153.35,153.15,153.35,800,153.35
2016-11-04,149.83,150.12,149.83,150.11,200,150.11
2016-11-03,151.00,151.00,150.52,150.52,300,150.52
2016-11-02,153.00,153.09,152.91,153.09,1800,153.09
2016-11-01,156.05,156.05,156.05,156.05,100,156.05
2016-10-31,155.40,155.75,155.375,155.75,300,155.75
2016-10-28,155.60,155.60,155.47,155.47,200,155.47
2016-10-27,156.57,157.00,156.57,156.89,300,156.89
2016-10-26,159.35,159.35,156.86,157.15,500,157.15
2016-10-25,160.35,160.35,160.20,160.30,200,160.30
2016-10-24,159.56,159.67,159.52,159.52,400,159.52
2016-10-21,158.75,158.75,158.44,158.48,900,158.48
2016-10-20,157.75,158.67,157.75,158.67,300,158.67
2016-10-19,158.14,158.17,157.32,157.88,300,157.88
2016-10-14,159.47,159.57,159.14,159.57,800,159.57
2016-10-13,161.35,161.35,160.40,160.51,4000,160.51
2016-10-12,162.12,162.12,161.54,161.54,000,161.54
2016-10-11,163.70,164.50,163.70,164.48,400,164.48
2016-10-10,161.91,161.93,161.88,161.88,400,161.88
2016-10-07,163.25,163.32,163.01,163.32,2600,163.32
2016-10-06,162.92,162.92,162.74,162.80,000,162.80
2016-10-05,161.64,161.67,161.30,161.67,3500,161.67
2016-10-04,161.68,161.68,161.44,161.44,000,161.44
2016-10-03,162.35,162.66,162.35,162.61,100,162.61
2016-09-30,160.90,161.00,160.64,160.64,300,160.64
2016-09-29,162.00,162.68,162.00,162.68,400,162.68
2016-09-28,161.08,161.08,160.96,161.07,000,161.07
2016-09-27,161.84,161.98,161.63,161.98,100,161.98
2016-09-26,163.74,163.74,163.18,163.40,200,163.40
2016-09-23,164.54,164.84,164.54,164.70,1400,164.70
2016-09-22,162.24,162.54,162.12,162.12,300,162.12
2016-09-21,161.54,161.78,161.29,161.29,3000,161.29
2016-09-20,163.14,163.14,162.82,162.82,2000,162.82
2016-09-19,162.35,162.48,162.21,162.48,100,162.48
2016-09-16,162.20,162.21,161.88,162.21,2000,162.21
2016-09-15,161.22,161.45,160.92,161.45,200,161.45
2016-09-14,162.16,162.16,161.68,161.88,800,161.88
2016-09-13,162.42,162.66,162.30,162.56,300,162.56
2016-09-12,159.90,159.90,159.20,159.20,400,159.20
2016-09-09,163.48,163.60,163.45,163.60,400,163.60
2016-09-08,163.50,163.50,163.40,163.40,100,163.40
2016-09-06,163.30,163.30,163.04,163.08,300,163.08
2016-09-05,164.50,164.50,164.20,164.24,100,164.24
2016-09-02,163.24,163.24,163.10,163.10,700,163.10
2016-09-01,164.03,164.22,163.98,164.22,1500,164.22
2016-08-31,164.76,164.76,164.64,164.64,800,164.64
2016-08-30,163.50,163.85,163.50,163.68,700,163.68
2016-08-29,163.30,163.30,163.30,163.30,200,163.30
2016-08-26,161.66,161.80,161.66,161.76,200,161.76
2016-08-25,161.32,161.32,161.24,161.24,300,161.24
2016-08-24,162.96,163.02,162.94,163.02,400,163.02
2016-08-23,161.37,161.37,161.17,161.20,1000,161.20
2016-08-22,161.02,161.64,161.02,161.55,500,161.55
2016-08-19,160.00,161.00,160.00,161.00,300,161.00
2016-08-18,159.03,159.03,158.62,158.88,400,158.88
2016-08-17,159.58,159.60,159.30,159.60,200,159.60
2016-08-16,161.00,161.00,160.35,160.35,100,160.35
2016-08-15,159.16,160.22,159.16,159.94,1000,159.94
2016-08-12,159.00,159.03,158.76,158.76,700,158.76
2016-08-11,157.80,157.80,157.54,157.54,100,157.54
2016-08-10,158.98,158.98,158.77,158.87,100,158.87
2016-08-09,160.32,160.48,160.12,160.12,200,160.12
2016-08-08,160.84,160.84,160.45,160.45,200,160.45
2016-08-05,158.00,158.00,157.98,157.98,000,157.98
2016-08-04,158.71,158.71,158.06,158.42,400,158.42
2016-08-03,157.28,157.28,157.26,157.26,100,157.26
2016-08-02,160.96,161.30,160.96,161.00,900,161.00
2016-08-01,159.96,160.23,159.93,160.14,11300,160.14
2016-07-29,160.58,160.60,160.45,160.60,800,160.60
2016-07-28,161.48,161.54,161.17,161.22,600,161.22
2016-07-27,160.98,162.30,160.98,161.74,400,161.74
2016-07-26,160.74,160.84,159.82,159.97,300,159.97
2016-07-25,161.00,161.20,161.00,161.08,1600,161.08
2016-07-22,160.00,160.00,159.55,159.55,600,159.55
2016-07-21,160.64,161.03,160.64,160.91,600,160.91
2016-07-20,159.10,159.10,159.00,159.08,800,159.08
2016-07-19,159.37,159.37,159.15,159.27,200,159.27
2016-07-18,158.26,158.26,157.96,157.96,100,157.96
2016-07-15,156.63,156.63,155.95,155.95,500,155.95
2016-07-14,156.91,157.07,156.20,157.07,1500,157.07
2016-07-13,157.21,157.63,157.21,157.32,1400,157.32
2016-07-12,156.30,156.34,155.94,156.34,2000,156.34
2016-07-11,154.27,155.20,154.27,155.01,400,155.01
2016-07-08,152.23,152.73,152.04,152.04,500,152.04
2016-07-07,152.04,152.04,151.76,151.76,000,151.76
2016-07-06,152.48,152.48,152.05,152.48,300,152.48
2016-07-05,153.74,153.74,153.11,153.31,800,153.31
2016-07-04,154.34,154.83,154.30,154.50,300,154.50
2016-07-01,153.81,154.54,153.81,154.21,5600,154.21
2016-06-30,151.94,151.94,151.94,151.94,100,151.94
2016-06-29,149.60,150.29,149.60,150.11,100,150.11
2016-06-28,147.70,148.20,147.70,148.13,400,148.13
2016-06-27,147.00,150.14,147.00,150.14,700,150.14
2016-06-24,154.40,154.40,148.62,148.62,16500,148.62
2016-06-23,153.28,153.34,153.24,153.34,1400,153.34
2016-06-22,154.71,154.71,154.15,154.15,400,154.15
2016-06-21,154.80,154.88,154.35,154.88,3100,154.88
2016-06-20,154.98,155.06,154.88,154.88,300,154.88
2016-06-17,155.43,155.44,155.32,155.42,2900,155.42
2016-06-16,154.24,154.88,154.14,154.18,4300,154.18
2016-06-15,155.28,155.79,155.28,155.47,500,155.47
2016-06-14,155.28,155.28,155.00,155.00,3000,155.00
2016-06-10,158.50,158.50,158.24,158.42,1000,158.42
2016-06-09,158.00,158.42,158.00,158.30,1000,158.30
2016-06-08,157.92,157.98,157.50,157.50,100,157.50
2016-06-07,159.00,159.20,158.68,159.16,600,159.16
2016-06-06,160.00,160.00,157.92,157.92,000,157.92
2016-06-02,159.30,159.67,159.30,159.55,100,159.55
2016-06-01,158.94,159.00,158.02,158.02,5200,158.02
2016-05-31,159.61,159.71,158.62,158.62,400,158.62
2016-05-30,160.16,160.56,160.16,160.56,600,160.56
2016-05-27,157.23,157.41,157.20,157.41,400,157.41
2016-05-26,157.66,158.20,157.32,157.32,3000,157.32
2016-05-25,157.50,157.50,157.33,157.45,300,157.45
2016-05-24,153.35,153.82,153.33,153.82,100,153.82
2016-05-23,153.29,153.37,153.12,153.12,100,153.12
2016-05-20,151.10,151.47,151.10,151.36,900,151.36
2016-05-19,151.76,151.83,151.62,151.80,5600,151.80
2016-05-18,150.25,150.25,149.87,149.87,3400,149.87
2016-05-17,152.22,152.22,150.81,151.07,7100,151.07
2016-05-16,150.98,150.98,150.98,150.98,000,150.98
2016-05-13,150.78,150.78,150.50,150.50,1900,150.50
2016-05-12,150.74,151.29,150.58,151.26,2900,151.26
2016-05-11,152.14,152.50,152.14,152.19,100,152.19
2016-05-10,152.12,152.30,151.81,152.30,1600,152.30
2016-05-09,149.00,151.10,149.00,151.10,7600,151.10
2016-05-06,148.83,149.04,148.83,148.94,000,148.94
2016-05-05,148.87,148.87,148.12,148.12,200,148.12
2016-05-04,149.01,149.02,148.60,148.60,3900,148.60
2016-05-03,147.78,149.90,147.29,149.90,800,149.90
2016-05-02,147.87,148.73,147.87,148.73,200,148.73
2016-04-29,149.26,149.26,148.59,148.59,200,148.59
2016-04-28,151.30,151.58,150.06,150.06,2400,150.06
2016-04-27,147.39,149.91,147.39,149.81,500,149.81
2016-04-26,147.30,147.30,146.83,147.19,200,147.19
2016-04-22,145.46,146.08,145.46,146.08,1000,146.08
2016-04-21,145.59,145.88,145.59,145.78,2400,145.78
2016-04-20,145.39,145.41,145.17,145.33,500,145.33
2016-04-19,145.86,145.86,145.50,145.76,500,145.76
2016-04-15,145.77,145.96,145.77,145.96,000,145.96
2016-04-14,146.45,147.21,146.40,147.09,1500,147.09
2016-04-13,143.28,143.78,143.01,143.78,300,143.78
2016-04-12,142.99,143.08,142.33,142.87,12900,142.87
2016-04-11,144.40,144.40,144.14,144.20,500,144.20
2016-04-08,144.90,145.14,144.58,145.13,600,145.13
2016-04-07,145.35,145.35,144.45,144.45,100,144.45
2016-04-06,145.02,145.02,144.87,144.94,000,144.94
2016-04-05,145.03,145.31,144.39,145.31,000,145.31
2016-04-04,144.56,145.68,144.56,145.59,200,145.59
2016-04-01,144.22,144.27,144.00,144.27,500,144.27
2016-03-31,144.64,144.64,144.20,144.20,300,144.20
2016-03-30,144.62,145.20,144.61,145.20,500,145.20
2016-03-29,142.31,142.50,142.08,142.35,200,142.35
2016-03-24,142.75,142.75,142.23,142.68,200,142.68
2016-03-23,143.75,143.75,143.15,143.62,100,143.62
2016-03-22,144.61,144.61,144.29,144.29,200,144.29
2016-03-21,143.98,144.75,143.98,144.54,700,144.54
2016-03-18,141.90,142.47,141.90,142.47,200,142.47
2016-03-17,142.47,142.47,141.26,141.26,400,141.26
2016-03-16,142.67,143.02,142.47,142.47,1000,142.47
2016-03-15,144.04,144.04,143.73,143.73,200,143.73
2016-03-14,143.80,143.80,142.73,142.73,100,142.73
2016-03-11,142.50,142.64,142.08,142.64,200,142.64
2016-03-10,143.80,143.80,143.51,143.51,100,143.51
2016-03-09,144.21,144.21,143.70,143.73,100,143.73
2016-03-08,146.70,146.73,145.91,146.10,600,146.10
2016-03-07,145.00,145.50,145.00,145.50,100,145.50
2016-03-04,145.50,145.62,145.40,145.62,2400,145.62
2016-03-03,146.09,146.09,145.25,145.25,9800,145.25
2016-03-02,146.94,146.94,145.77,146.00,100,146.00
2016-03-01,144.88,144.88,144.60,144.78,100,144.78
2016-02-29,145.00,145.08,144.48,144.48,300,144.48
2016-02-26,142.01,142.11,142.01,142.11,100,142.11
2016-02-25,142.37,142.67,141.71,141.71,700,141.71
2016-02-24,140.22,140.22,140.01,140.01,000,140.01
2016-02-23,140.76,140.76,139.33,139.33,100,139.33
2016-02-22,140.70,141.32,140.56,141.32,600,141.32
2016-02-19,140.81,140.81,140.43,140.43,000,140.43
2016-02-18,141.23,141.23,140.60,140.75,100,140.75
2016-02-17,140.25,140.25,139.24,139.24,300,139.24
2016-02-16,137.00,137.99,136.88,137.99,500,137.99
2016-02-12,133.35,134.22,133.29,133.56,700,133.56
2016-02-11,135.32,135.32,133.54,133.54,100,133.54
2016-02-10,135.56,136.12,135.29,135.29,1300,135.29
2016-02-09,137.09,137.09,136.03,136.55,700,136.55
2016-02-08,138.57,139.13,138.39,139.12,3900,139.12
2016-02-05,140.60,140.61,140.00,140.51,300,140.51
2016-02-04,140.59,140.97,140.59,140.62,100,140.62
2016-02-03,143.24,143.24,143.00,143.00,200,143.00
2016-02-02,144.82,144.82,143.57,144.00,1300,144.00
2016-02-01,145.28,145.80,145.28,145.57,800,145.57
2016-01-29,140.64,141.74,140.64,141.01,300,141.01
2016-01-28,142.91,142.91,142.00,142.00,1000,142.00
2016-01-27,143.59,143.59,143.54,143.54,400,143.54
2016-01-25,145.53,145.53,144.84,144.84,500,144.84
2016-01-22,140.90,142.13,140.90,141.63,800,141.63
2016-01-21,143.61,144.87,143.55,144.51,2700,144.51
2016-01-20,142.49,143.37,141.72,141.72,4200,141.72
2016-01-19,146.50,147.61,146.50,147.61,300,147.61
2016-01-18,146.47,146.47,145.67,145.78,100,145.78
2016-01-15,145.53,146.70,145.36,145.36,1300,145.36
2016-01-14,145.00,145.60,145.00,145.24,300,145.24
2016-01-13,148.49,148.53,148.20,148.53,700,148.53
2016-01-12,148.69,149.03,147.68,147.68,600,147.68
2016-01-11,149.16,149.48,148.64,149.04,1700,149.04
2016-01-08,151.09,151.68,150.50,151.50,17000,151.50
2016-01-07,154.08,154.08,152.85,152.85,2400,152.85
2016-01-06,153.74,154.28,153.48,153.51,1200,153.51
2016-01-05,154.58,154.71,153.59,153.59,2000,153.59
2016-01-04,155.38,156.39,154.77,154.77,11500,154.77
2015-12-30,158.12,159.03,158.12,158.33,000,158.33
2015-12-29,157.75,157.75,157.65,157.65,100,157.65
2015-12-24,158.73,158.73,158.66,158.66,000,157.946
2015-12-23,157.00,157.14,157.00,157.11,200,156.403
2015-12-22,156.55,156.70,156.19,156.19,400,155.487
2015-12-21,156.58,156.58,156.18,156.35,300,155.646
2015-12-18,159.08,159.08,157.66,157.66,1600,156.95
2015-12-17,158.83,159.42,158.83,159.17,3600,158.454
2015-12-16,156.53,157.58,156.53,157.35,1100,156.642
2015-12-15,154.23,154.30,153.49,153.53,700,152.839
2015-12-14,156.53,156.72,156.20,156.20,2800,155.497
2015-12-11,157.50,158.60,157.50,158.35,2700,157.637
2015-12-10,158.75,158.75,156.49,156.88,400,156.174
2015-12-09,159.62,160.65,159.62,160.62,200,159.897
2015-12-08,160.00,160.51,160.00,160.15,100,159.429
2015-12-07,161.20,161.20,160.67,161.11,1900,160.385
2015-12-04,160.86,160.86,159.84,160.09,300,159.37
2015-12-03,163.61,163.85,163.56,163.62,200,162.884
2015-12-02,164.21,164.50,164.21,164.34,1400,163.60
2015-12-01,165.92,165.92,164.99,164.99,700,164.247
2015-11-30,166.41,167.26,166.41,166.76,400,166.009
2015-11-27,165.17,166.05,165.17,165.87,600,165.124
2015-11-26,164.50,165.63,164.50,165.36,300,164.616
2015-11-25,163.00,163.00,163.00,163.00,300,162.266
2015-11-24,163.00,164.05,163.00,163.40,1400,162.665
2015-11-23,163.25,163.40,163.25,163.40,800,162.665
2015-11-20,162.00,162.00,160.96,161.12,400,160.395
2015-11-19,164.32,164.32,163.41,163.41,300,162.675
2015-11-18,161.95,162.07,161.62,162.07,100,161.341
2015-11-17,162.23,162.63,162.18,162.42,200,161.689
2015-11-16,160.02,160.02,159.80,159.80,200,159.081
2015-11-13,161.99,162.00,161.61,161.67,1300,160.942
2015-11-12,166.29,166.34,164.00,164.27,500,163.531
2015-11-11,168.85,168.85,167.73,168.28,400,167.523
2015-11-10,167.25,167.25,167.25,167.25,200,166.497
2015-11-09,170.33,170.42,170.00,170.00,500,169.235
2015-11-06,165.99,165.99,165.90,165.90,400,165.153
2015-11-05,165.69,165.69,165.69,165.69,000,164.944
2015-11-04,164.82,164.82,164.82,164.82,000,164.078
2015-11-03,164.99,165.07,164.29,164.29,100,163.551
2015-11-02,161.40,161.40,161.40,161.40,400,160.674
2015-10-30,163.90,164.99,163.74,164.99,200,164.247
2015-10-29,165.44,165.44,164.81,164.81,200,164.068
2015-10-28,158.70,160.56,158.70,160.56,200,159.837
2015-10-27,158.97,159.23,158.81,159.23,100,158.513
2015-10-26,160.50,160.50,159.27,159.50,1300,158.782
2015-10-23,160.50,160.50,159.41,159.50,500,158.782
2015-10-22,158.37,158.52,157.87,158.40,2000,157.687
2015-10-21,159.51,159.54,159.30,159.42,500,158.703
2015-10-20,158.98,159.60,158.95,159.60,200,158.882
2015-10-19,159.55,159.81,159.00,159.00,100,158.284
2015-10-16,158.36,159.18,158.36,159.00,200,158.284
2015-10-15,155.57,155.57,154.83,155.14,400,154.442
2015-10-14,157.47,158.01,157.27,157.27,100,156.562
2015-10-13,157.80,157.80,157.56,157.56,400,156.851
2015-10-12,158.50,158.50,157.30,157.37,100,156.662
2015-10-09,158.72,159.80,158.72,159.74,000,159.021
2015-10-08,159.00,159.95,159.00,159.12,100,158.404
2015-10-07,156.53,157.00,156.25,156.25,1300,155.547
2015-10-06,159.49,160.33,159.38,159.60,700,158.882
2015-10-05,157.50,157.50,156.96,156.96,000,156.254
2015-10-02,155.84,155.84,155.57,155.60,300,154.90
2015-10-01,155.94,156.77,155.94,156.77,800,156.064
2015-09-30,154.44,154.86,154.00,154.86,1700,154.163
2015-09-29,156.49,156.49,155.50,156.12,600,155.417
2015-09-28,157.55,159.00,157.48,159.00,300,158.284
2015-09-25,162.30,162.35,162.30,162.33,400,161.599
2015-09-24,162.73,162.73,162.06,162.09,100,161.361
2015-09-23,160.34,161.39,160.34,160.92,300,160.196
2015-09-22,162.48,163.01,162.18,162.18,500,161.45
2015-09-21,161.53,162.00,160.53,162.00,600,161.271
2015-09-18,163.35,163.50,163.22,163.22,100,162.485
2015-09-17,163.24,163.50,162.72,163.35,200,162.615
2015-09-16,163.06,163.08,162.33,163.08,700,162.346
2015-09-15,160.88,161.91,160.75,161.88,18300,161.151
2015-09-14,163.52,163.62,163.00,163.22,500,162.485
2015-09-11,163.07,163.85,162.98,163.85,200,163.113
2015-09-10,164.79,164.79,163.35,163.35,400,162.615
2015-09-09,165.00,165.78,165.00,165.78,1000,165.034
2015-09-08,165.35,165.35,164.69,165.01,900,164.267
2015-09-07,163.42,165.96,163.42,165.86,2600,165.114
2015-09-04,162.79,163.25,162.68,162.77,900,162.037
2015-09-03,162.70,162.70,162.67,162.67,000,161.938
2015-09-02,161.20,162.80,161.20,162.03,1000,161.301
2015-09-01,160.50,160.50,159.18,159.18,1900,158.464
2015-08-31,161.42,161.65,160.77,160.94,600,160.216
2015-08-28,159.99,159.99,159.99,159.99,000,159.27
2015-08-27,158.21,159.15,158.21,158.76,18300,158.046
2015-08-26,154.45,157.28,153.30,156.87,2900,156.164
2015-08-25,154.50,156.56,154.41,154.53,5000,153.835
2015-08-24,157.44,158.00,154.10,155.66,2000,154.959
2015-08-21,158.22,159.01,157.69,158.22,1000,157.508
2015-08-20,162.87,162.87,162.08,162.77,400,162.037
2015-08-19,165.03,165.17,164.17,164.17,800,163.431
2015-08-18,165.73,165.75,165.08,165.14,200,164.397
2015-08-17,163.59,164.43,163.14,163.90,800,163.162
2015-08-14,162.49,162.63,162.49,162.50,300,161.769
2015-08-13,163.21,163.35,162.75,163.35,1800,162.615
2015-08-12,164.90,165.54,164.71,164.90,1200,164.158
2015-08-11,163.62,165.45,163.62,165.41,1100,164.666
2015-08-10,162.27,163.00,162.27,163.00,100,162.266
2015-08-07,165.00,165.00,163.82,164.37,2300,163.63
2015-08-06,166.75,167.25,165.76,166.53,1200,165.781
2015-08-05,165.84,166.45,165.18,166.00,1400,165.253
2015-08-04,168.36,168.36,166.92,166.92,1200,166.169
2015-08-03,168.62,168.92,168.24,168.36,500,167.602
2015-07-31,167.70,167.85,167.70,167.82,100,167.065
2015-07-30,167.48,167.55,166.32,166.95,1600,166.199
2015-07-29,166.30,166.35,166.21,166.30,400,165.552
2015-07-28,166.88,166.92,165.83,166.30,600,165.552
2015-07-27,167.50,168.06,167.41,167.70,2500,166.945
2015-07-24,169.03,170.58,168.72,170.25,1500,169.484
2015-07-23,169.92,170.56,169.92,170.56,500,169.792
2015-07-22,169.62,169.62,167.70,167.70,300,166.945
2015-07-21,170.24,170.88,170.01,170.79,1700,170.021
2015-07-20,171.21,171.58,171.00,171.00,600,170.23
2015-07-17,170.97,170.97,170.83,170.85,400,170.081
2015-07-16,171.60,172.04,171.60,171.99,600,171.216
2015-07-15,169.70,170.06,169.64,169.99,2100,169.225
2015-07-14,169.82,169.95,169.50,169.53,2600,168.767
2015-07-13,166.89,167.01,166.89,167.00,1400,166.248
2015-07-10,165.31,165.63,165.31,165.53,800,164.785
2015-07-09,165.68,165.68,164.95,165.03,6300,164.287
2015-07-08,165.87,166.64,165.87,166.15,2600,165.402
2015-07-07,167.04,167.22,166.45,166.45,200,165.701
2015-07-06,163.37,163.37,163.30,163.36,100,162.625
2015-07-03,162.78,163.35,162.78,163.35,100,162.615
2015-07-02,164.01,164.49,164.00,164.36,1200,162.90
2015-07-01,162.80,162.92,162.80,162.90,200,161.453
2015-06-30,162.54,163.19,162.41,163.07,15700,161.621
2015-06-29,164.50,164.50,164.00,164.00,700,162.543
2015-06-26,165.33,166.22,165.33,166.19,1800,164.714
2015-06-25,166.61,166.61,165.83,166.19,400,164.714
2015-06-24,167.35,167.35,166.80,167.24,300,165.754
2015-06-23,166.63,167.97,166.63,167.97,1500,166.478
2015-06-22,165.66,165.66,165.12,165.12,600,163.653
2015-06-19,164.43,164.94,164.43,164.94,100,163.475
2015-06-18,163.30,163.30,162.81,162.84,400,161.393
2015-06-17,163.80,164.49,163.80,164.49,1500,163.029
2015-06-16,162.32,162.32,161.42,161.44,1700,160.006
2015-06-15,163.03,163.03,162.70,162.70,500,161.255
2015-06-12,163.25,163.35,162.91,162.91,100,161.463
2015-06-11,163.76,163.76,162.79,162.81,000,161.364
2015-06-10,162.74,162.74,162.00,162.00,100,160.561
2015-06-09,162.46,162.98,162.30,162.30,1100,160.858
2015-06-05,162.12,162.18,162.12,162.18,7500,160.739
2015-06-04,163.11,163.11,162.99,163.09,200,161.641
2015-06-03,161.12,161.12,159.52,160.00,3400,158.579
2015-06-02,163.11,163.11,162.83,162.83,000,161.383
2015-06-01,163.04,163.04,162.80,162.80,100,161.354
2015-05-29,163.05,163.83,162.75,163.49,2800,162.037
2015-05-28,161.52,162.78,161.52,162.27,500,160.828
2015-05-27,159.19,159.63,159.18,159.25,300,157.835
2015-05-26,159.40,159.40,158.76,158.76,300,157.35
2015-05-25,159.60,159.60,159.42,159.48,100,158.063
2015-05-22,158.45,158.51,158.10,158.28,100,156.874
2015-05-21,158.78,158.78,157.98,157.98,600,156.576
2015-05-20,158.00,158.00,157.46,157.98,2000,156.576
2015-05-19,156.96,157.67,156.69,156.69,400,155.298
2015-05-18,154.25,154.59,153.98,154.56,200,153.187
2015-05-15,153.69,153.98,153.60,153.75,900,152.384
2015-05-14,154.02,154.02,150.71,150.78,10300,149.44
2015-05-13,154.19,154.32,154.04,154.16,300,152.79
2015-05-12,155.58,155.77,154.83,155.13,400,153.752
2015-05-11,155.45,155.45,155.45,155.45,100,154.069
2015-05-08,154.05,155.45,154.05,155.45,000,154.069
2015-05-07,152.23,152.90,151.85,152.40,400,151.046
2015-05-06,153.29,153.29,152.80,152.80,100,151.442
2015-05-05,155.84,156.27,155.84,155.90,200,154.515
2015-05-04,155.40,156.50,155.40,155.90,1200,154.515
2015-05-01,154.39,154.40,153.96,154.00,1700,152.632
2015-04-30,154.62,154.86,154.28,154.83,200,153.454
2015-04-29,157.23,157.36,156.95,157.23,1300,155.833
2015-04-28,159.06,159.06,158.00,158.72,200,157.31
2015-04-27,161.44,161.44,160.92,161.34,100,159.907
2015-04-24,162.99,163.02,162.40,162.40,600,160.957
2015-04-23,162.69,162.69,162.26,162.58,100,161.136
2015-04-22,163.55,163.55,162.12,162.12,1000,160.68
2015-04-21,163.01,164.12,163.01,163.65,1600,162.196
2015-04-20,161.00,161.00,160.00,160.00,4900,158.579
2015-04-17,163.42,163.42,163.17,163.17,100,161.72
2015-04-16,165.68,165.68,163.53,164.00,1000,162.543
2015-04-15,165.75,166.29,165.75,166.00,100,164.525
2015-04-14,165.70,165.73,165.66,165.73,200,164.258
2015-04-10,163.06,163.06,162.67,162.70,500,161.255
2015-04-09,164.18,164.18,163.52,163.54,100,162.087
2015-04-08,162.50,162.50,162.35,162.35,100,160.908
2015-04-07,164.98,165.28,162.83,162.83,900,161.383
2015-04-02,163.86,164.55,163.86,164.22,800,162.761
2015-04-01,163.01,163.98,161.09,162.14,800,160.699
2015-03-31,163.31,163.31,163.00,163.28,200,161.829
2015-03-30,159.11,159.77,159.11,159.77,200,158.351
2015-03-27,156.80,157.82,156.77,157.82,600,156.418
2015-03-26,156.80,157.44,156.80,157.44,300,156.041
2015-03-25,160.75,160.75,159.58,159.58,1700,157.672
2015-03-24,160.28,160.28,160.01,160.14,100,158.225
2015-03-23,162.71,162.71,161.63,161.63,1500,159.698
2015-03-20,163.11,163.43,162.98,163.43,500,161.476
2015-03-19,160.60,160.74,160.60,160.72,1200,158.799
2015-03-18,162.09,162.53,162.09,162.42,100,160.478
2015-03-17,160.71,161.69,160.71,161.57,300,159.638
2015-03-16,160.80,160.80,160.00,160.71,1200,158.789
2015-03-13,160.38,160.80,159.89,160.80,900,158.878
2015-03-12,160.59,160.59,160.16,160.16,500,158.245
2015-03-11,158.04,159.48,158.04,159.30,800,157.395
2015-03-10,158.02,159.55,158.02,159.10,600,157.198
2015-03-09,157.62,157.80,157.39,157.80,300,155.913
2015-03-06,158.10,158.10,157.88,157.96,700,156.072
2015-03-05,156.80,157.23,156.80,157.16,400,155.281
2015-03-04,157.46,157.46,157.46,157.46,000,155.577
2015-03-03,159.30,159.30,157.50,157.50,1000,155.617
2015-03-02,158.20,158.20,158.13,158.20,700,156.309
2015-02-27,158.54,158.64,157.90,157.90,1300,156.012
2015-02-26,156.21,156.97,156.00,156.29,700,154.421
2015-02-25,157.46,157.46,156.00,156.29,1100,154.421
2015-02-24,156.94,158.00,156.94,158.00,700,156.111
2015-02-23,156.63,156.70,155.91,156.40,1500,154.53
2015-02-20,157.00,157.00,157.00,157.00,000,155.123
2015-02-19,156.64,156.64,156.04,156.04,900,154.174
2015-02-18,156.57,156.57,156.46,156.55,300,154.678
2015-02-17,156.40,156.78,155.80,155.80,200,153.937
2015-02-16,156.96,156.96,155.87,156.38,1400,154.51
2015-02-13,155.80,156.35,155.80,155.90,900,154.036
2015-02-12,155.60,156.29,155.54,156.29,300,154.421
2015-02-11,153.00,153.95,153.00,153.84,800,152.001
2015-02-10,153.25,153.25,152.18,152.18,400,150.361
2015-02-09,154.28,154.32,153.71,154.10,2000,152.258
2015-02-06,153.30,153.59,153.00,153.47,700,151.635
2015-02-05,151.93,152.05,151.50,151.94,300,150.123
2015-02-04,152.26,152.96,152.26,152.76,400,150.934
2015-02-03,149.90,152.54,149.20,152.54,1600,150.716
2015-02-02,149.35,149.50,148.77,149.50,2600,147.713
2015-01-30,152.28,152.57,152.10,152.10,2900,150.282
2015-01-29,147.93,148.35,147.60,148.35,2800,146.576
2015-01-28,150.58,150.91,150.02,150.91,4000,149.106
2015-01-27,150.76,151.21,150.50,150.51,5600,148.711
2015-01-23,147.82,147.82,147.50,147.68,5000,145.914
2015-01-22,143.61,143.95,143.45,143.95,800,142.229
2015-01-21,143.05,143.05,141.64,141.64,400,139.947
2015-01-16,139.00,139.00,138.50,138.50,700,136.844
2015-01-15,144.00,144.05,143.22,143.50,200,141.784
2015-01-14,144.22,144.92,142.76,144.64,1200,142.911
2015-01-13,144.46,144.46,143.22,143.22,700,141.508
2015-01-12,143.54,143.54,142.13,142.65,3100,140.945
2015-01-09,146.20,146.20,146.09,146.09,100,144.343
2015-01-08,143.73,145.14,143.73,145.14,000,143.405
2015-01-07,142.86,143.59,142.86,143.59,200,141.873
2015-01-06,146.00,146.10,144.90,144.90,2700,143.168
2015-01-05,155.00,155.00,146.40,146.93,1000,145.173
2015-01-02,147.25,148.57,146.98,148.57,600,146.794
2014-12-30,149.61,149.66,149.60,149.60,3500,147.811
2014-12-29,149.00,149.20,148.64,148.64,1000,146.863
2014-12-24,148.45,148.45,148.45,148.45,000,146.141
2014-12-23,147.05,147.69,147.04,147.69,400,145.393
2014-12-22,146.53,146.53,145.89,146.19,1900,143.917
2014-12-19,145.74,145.74,145.74,145.74,000,143.474
2014-12-18,144.58,144.59,144.07,144.10,900,141.859
2014-12-17,139.09,139.38,139.09,139.17,4200,137.006
2014-12-16,138.50,139.24,138.50,138.83,1600,136.671
2014-12-15,139.90,139.90,139.90,139.90,000,137.724
2014-12-12,140.55,140.69,139.95,139.95,2000,137.774
2014-12-11,139.65,139.65,139.30,139.30,800,137.134
2014-12-10,142.40,143.22,142.00,142.00,2200,139.792
2014-12-09,140.84,141.00,140.64,140.95,1100,138.758
2014-12-08,142.34,142.65,142.00,142.65,3600,140.432
2014-12-05,139.60,139.66,139.50,139.50,100,137.331
2014-12-04,139.74,140.40,139.74,140.40,2300,138.217
2014-12-03,137.95,138.68,137.95,138.50,4100,136.346
2014-12-02,135.72,135.72,135.57,135.57,300,133.462
2014-12-01,137.99,138.03,137.59,138.03,3700,135.884
2014-11-28,139.07,140.01,139.07,140.01,3000,137.833
2014-11-27,138.56,138.78,138.33,138.48,300,136.327
2014-11-26,138.56,138.65,138.54,138.54,100,136.386
2014-11-24,134.80,134.80,134.47,134.48,200,132.389
2014-11-21,135.00,135.36,134.80,134.80,200,132.704
2014-11-20,134.25,134.49,134.06,134.06,3800,131.975
2014-11-13,135.12,135.80,135.12,135.80,100,133.688
2014-11-12,135.21,135.53,135.10,135.10,300,132.999
2014-11-11,135.91,136.12,135.64,136.12,200,134.003
2014-11-10,135.20,135.20,134.63,134.88,300,132.783
2014-11-07,136.29,136.52,136.12,136.21,200,134.092
2014-11-06,135.33,135.45,134.93,134.93,1400,132.832
2014-11-05,132.35,133.37,132.35,133.37,100,131.296
2014-11-04,134.00,134.22,133.67,133.67,900,131.591
2014-11-03,132.87,133.83,132.87,133.58,300,131.503
2014-10-31,129.90,130.70,129.90,130.70,1500,128.668
2014-10-30,129.71,129.83,129.71,129.83,100,127.811
2014-10-29,128.60,129.04,128.60,128.60,700,126.60
2014-10-28,126.50,126.55,126.10,126.10,700,124.139
2014-10-27,126.81,126.81,126.10,126.25,1000,124.287
2014-10-24,126.50,127.23,126.16,126.82,1500,124.848
2014-10-23,125.28,125.28,124.81,125.00,2200,123.056
2014-10-22,126.06,126.10,126.06,126.10,200,124.139
2014-10-21,124.20,124.20,123.20,123.20,200,121.284
2014-10-20,124.32,124.32,124.01,124.01,500,122.082
2014-10-17,123.42,123.42,123.33,123.33,1500,121.412
2014-10-16,121.12,121.12,121.12,121.12,000,119.237
2014-10-15,122.41,122.41,121.60,121.60,100,119.709
2014-10-14,119.40,120.00,119.40,119.70,500,117.839
2014-10-13,120.22,120.36,120.22,120.27,200,118.40
2014-10-10,120.62,121.58,120.62,121.15,1000,119.266
2014-10-09,123.55,123.55,123.25,123.35,400,121.432
2014-10-08,121.50,122.70,121.50,122.70,500,120.792
2014-10-07,124.39,124.70,123.70,124.70,2200,122.761
2014-10-06,126.82,126.97,126.82,126.97,800,124.996
2014-10-03,124.47,124.48,124.47,124.48,100,122.544
2014-10-02,123.83,123.83,122.71,122.71,500,120.802
2014-10-01,125.17,126.32,125.17,126.05,400,124.09
2014-09-30,127.90,127.90,127.20,127.20,400,125.222
2014-09-29,127.50,127.87,127.30,127.84,16000,125.852
2014-09-26,126.07,126.07,126.02,126.03,000,124.07
2014-09-25,126.34,127.09,126.34,127.09,5400,125.114
2014-09-24,126.09,126.09,125.49,125.85,6700,123.549
2014-09-23,126.99,126.99,126.65,126.65,200,124.334
2014-09-22,127.92,127.92,127.31,127.31,5500,124.982
2014-09-19,130.05,130.05,129.83,129.83,1300,127.456
2014-09-18,128.00,128.41,128.00,128.36,2300,126.013
2014-09-17,126.44,126.64,126.44,126.64,900,124.324
2014-09-16,126.65,126.65,126.59,126.65,100,124.334
2014-09-15,128.13,128.13,127.70,127.70,500,125.365
2014-09-12,128.11,129.04,128.11,128.70,300,126.347
2014-09-11,126.64,126.64,125.72,125.72,000,123.421
2014-09-10,125.49,125.49,125.49,125.49,100,123.195
2014-09-09,125.43,126.08,125.43,125.98,200,123.676
2014-09-05,124.53,124.56,124.53,124.56,100,122.282
2014-09-04,125.19,125.19,124.56,124.56,100,122.282
2014-09-03,126.15,126.64,126.15,126.50,900,124.187
2014-09-02,125.37,125.60,125.37,125.60,000,123.303
2014-09-01,125.00,125.00,124.97,125.00,200,122.714
2014-08-29,124.70,124.70,124.24,124.24,400,121.968
2014-08-28,124.66,124.66,124.41,124.41,300,122.135
2014-08-27,125.92,125.92,125.39,125.40,500,123.107
2014-08-26,124.88,124.88,124.88,124.88,400,122.596
2014-08-25,124.51,124.67,124.51,124.67,300,122.39
2014-08-22,124.19,124.19,124.11,124.11,600,121.841
2014-08-21,123.95,124.50,123.95,124.50,000,122.223
2014-08-20,123.93,124.05,123.86,123.99,1200,121.723
2014-08-19,123.84,123.84,123.43,123.55,1200,121.291
2014-08-18,122.30,122.50,122.30,122.50,700,120.26
2014-08-15,122.42,122.42,122.33,122.33,100,120.093
2014-08-14,122.36,122.53,122.06,122.06,100,119.828
2014-08-13,122.08,122.08,121.81,121.81,700,119.583
2014-08-12,122.33,123.08,122.33,122.42,1000,120.181
2014-08-11,121.40,121.44,120.96,121.36,1200,119.141
2014-08-08,120.03,120.38,119.72,119.72,1500,117.531
2014-08-06,119.73,119.92,119.73,119.92,000,117.727
2014-08-05,119.50,119.92,119.50,119.92,600,117.727
2014-08-04,118.77,119.47,118.77,119.44,1700,117.256
2014-07-31,122.00,122.00,121.82,121.82,7700,119.592
2014-07-30,120.81,121.32,120.81,121.32,200,119.102
2014-07-29,120.66,120.66,120.63,120.63,100,118.424
2014-07-28,121.04,121.13,120.64,121.13,200,118.915
2014-07-25,121.93,121.98,121.93,121.98,000,119.75
2014-07-24,121.58,121.66,121.58,121.65,1000,119.426
2014-07-23,121.80,121.80,121.25,121.51,900,119.288
2014-07-22,121.28,121.28,121.28,121.28,000,119.062
2014-07-21,121.39,121.39,121.39,121.39,500,119.17
2014-07-18,120.80,120.80,120.05,120.05,200,117.855
2014-07-17,121.70,121.84,121.70,121.70,600,119.475
2014-07-16,122.88,122.94,122.88,122.94,100,120.692
2014-07-14,123.24,123.30,123.16,123.18,000,120.928
2014-07-11,123.16,123.16,122.70,122.70,100,120.456
2014-07-10,123.64,124.23,123.64,124.23,000,121.958
2014-07-09,124.61,124.61,124.60,124.60,000,122.322
2014-07-08,125.35,125.35,125.35,125.35,200,123.058
2014-07-07,127.93,128.51,127.93,128.28,700,125.934
2014-07-04,128.35,128.35,128.35,128.35,000,126.003
2014-07-03,127.27,127.31,127.27,127.31,000,124.982
2014-07-02,127.02,127.53,127.02,127.38,600,124.573
2014-07-01,126.67,126.77,126.62,126.77,1300,123.976
2014-06-30,125.63,125.63,125.63,125.63,000,122.861
2014-06-27,125.10,125.10,124.13,124.13,300,121.394
2014-06-26,125.10,125.10,125.10,125.10,000,122.343
2014-06-25,124.86,124.86,124.59,124.59,3000,121.844
2014-06-24,125.05,125.07,124.84,125.07,1200,122.314
2014-06-23,125.73,125.74,125.51,125.74,3400,122.969
2014-06-20,125.50,125.55,125.50,125.50,300,122.734
2014-06-18,125.20,125.20,125.20,125.20,100,122.441
2014-06-17,123.56,124.75,123.56,124.75,200,122.001
2014-06-16,122.59,122.59,122.58,122.58,100,119.879
2014-06-13,122.96,123.14,122.49,123.14,1200,120.426
2014-06-12,124.27,124.39,123.77,123.91,200,121.179
2014-06-11,124.42,124.42,124.22,124.22,000,121.482
2014-06-10,125.45,125.46,125.00,125.00,400,122.245
2014-06-06,123.10,123.52,122.94,123.52,100,120.798
2014-06-04,121.28,121.28,120.59,120.59,100,117.932
2014-06-03,121.63,121.63,121.25,121.28,100,118.607
2014-06-02,121.63,122.33,121.63,122.31,900,119.615
2014-05-30,122.00,122.00,121.92,121.92,400,119.233
2014-05-29,122.50,122.50,122.02,122.02,200,119.331
2014-05-28,122.75,123.10,122.75,123.10,600,120.387
2014-05-27,121.60,121.60,121.43,121.43,200,118.754
2014-05-26,121.16,121.70,121.16,121.70,900,119.018
2014-05-23,119.89,120.42,119.89,120.42,900,117.766
2014-05-22,118.99,119.00,118.88,118.88,1200,116.26
2014-05-21,117.93,118.45,117.93,118.45,000,115.84
2014-05-20,118.26,119.37,118.26,119.06,1200,116.436
2014-05-19,117.01,117.10,117.01,117.10,200,114.519
2014-05-16,116.36,116.94,116.33,116.69,500,114.118
2014-05-15,117.69,117.69,116.95,116.95,700,114.373
2014-05-14,119.54,119.54,118.88,118.88,000,116.26
2014-05-13,120.07,120.85,120.07,120.80,900,118.138
2014-05-12,117.93,117.93,117.82,117.82,000,115.223
2014-05-08,118.24,118.24,117.90,117.96,1000,115.36
2014-05-07,118.50,118.50,118.10,118.23,400,115.624
2014-05-06,120.50,120.50,120.50,120.50,400,117.844
2014-05-05,120.72,120.90,120.72,120.90,200,118.236
2014-05-02,120.80,121.06,120.80,120.80,100,118.138
2014-05-01,120.52,120.92,120.52,120.84,400,118.177
2014-04-30,119.80,119.80,119.80,119.80,000,117.16
2014-04-29,120.47,120.47,120.45,120.45,200,117.796
2014-04-28,120.55,120.55,120.45,120.55,1800,117.893
2014-04-24,123.21,123.67,123.21,123.45,100,120.729
2014-04-23,123.53,123.93,123.53,123.93,100,121.199
2014-04-22,121.23,121.40,121.22,121.22,500,118.549
2014-04-17,119.75,119.78,119.60,119.60,600,116.964
2014-04-16,119.50,119.50,119.50,119.50,000,116.866
2014-04-15,118.16,118.16,118.16,118.16,100,115.556
2014-04-14,118.18,118.18,117.47,118.01,1000,115.409
2014-04-11,119.09,119.95,119.09,119.41,2000,116.778
2014-04-10,123.25,123.25,122.21,122.71,2200,120.006
2014-04-09,121.91,121.91,121.52,121.61,400,118.93
2014-04-08,121.90,121.90,121.90,121.90,400,119.214
2014-04-07,123.92,123.92,123.30,123.30,2300,120.583
2014-04-04,127.50,127.61,127.40,127.40,1500,124.592
2014-04-03,128.34,128.83,128.32,128.72,800,125.883
2014-04-02,127.41,128.35,127.41,128.15,600,125.326
2014-04-01,125.81,125.81,125.60,125.60,900,122.832
2014-03-31,124.25,124.96,124.10,124.96,400,122.206
2014-03-28,124.05,124.05,123.50,123.50,1200,120.778
2014-03-27,124.97,124.97,124.40,124.49,400,121.746
2014-03-26,128.37,128.37,127.90,127.92,700,125.101
2014-03-25,129.00,129.00,128.19,128.19,400,125.051
2014-03-24,131.33,131.33,131.33,131.33,000,128.114
2014-03-21,131.87,132.30,131.72,131.72,200,128.494
2014-03-20,131.58,132.24,131.58,131.68,400,128.455
2014-03-19,131.03,131.16,131.03,131.15,000,127.938
2014-03-18,130.10,130.43,129.63,130.13,200,126.943
2014-03-17,130.42,130.44,129.80,129.80,500,126.621
2014-03-14,130.42,130.43,129.82,130.43,400,127.236
2014-03-13,131.90,131.90,130.96,130.96,1700,127.753
2014-03-12,131.51,131.90,131.38,131.90,300,128.67
2014-03-11,132.54,132.54,131.98,131.98,100,128.748
2014-03-10,131.92,131.92,131.92,131.92,100,128.69
2014-03-07,131.84,131.84,131.81,131.81,000,128.582
2014-03-06,133.00,133.64,132.71,133.64,200,130.367
2014-03-05,134.13,134.13,133.37,133.81,400,130.533
2014-03-04,130.75,131.25,130.75,131.18,900,127.968
2014-03-03,131.25,131.25,130.75,130.75,100,127.548
2014-02-28,132.19,132.19,132.00,132.00,100,128.768
2014-02-27,131.80,131.80,131.80,131.80,400,128.572
2014-02-26,130.20,130.59,130.20,130.59,200,127.392
2014-02-25,128.98,129.58,128.98,129.58,000,126.407
2014-02-24,129.44,129.50,128.90,128.90,300,125.744
2014-02-21,128.63,128.91,128.63,128.91,800,125.753
2014-02-20,127.58,127.58,127.35,127.35,200,124.231
2014-02-19,127.58,127.58,127.58,127.58,000,124.456
2014-02-18,126.70,126.99,126.10,126.11,3800,123.022
2014-02-17,126.88,126.88,126.11,126.20,500,123.11
2014-02-14,126.80,126.93,126.80,126.88,500,123.773
2014-02-13,125.08,126.05,125.00,126.05,3700,122.963
2014-02-12,124.44,124.44,124.44,124.44,000,121.393
2014-02-11,124.55,124.55,124.07,124.12,3600,121.081
2014-02-10,124.26,124.26,123.95,124.25,1000,121.207
2014-02-07,122.50,122.80,122.44,122.63,2100,119.627
2014-02-06,121.61,121.67,121.45,121.45,200,118.476
2014-02-05,123.50,123.50,122.47,122.79,400,119.783
2014-02-04,126.95,126.95,123.24,123.24,5400,120.222
2014-02-03,128.05,128.83,128.05,128.83,100,125.675
2014-01-31,128.50,128.54,128.40,128.50,900,125.353
2014-01-30,128.19,128.64,127.84,128.64,2200,125.49
2014-01-29,129.71,129.71,129.24,129.56,3900,126.387
2014-01-28,128.28,128.37,127.75,128.00,700,124.866
2014-01-24,133.40,133.53,132.98,133.20,1400,129.938
2014-01-23,132.84,132.87,132.84,132.87,100,129.616
2014-01-22,132.68,132.68,131.74,131.91,1000,128.68
2014-01-20,132.53,132.55,132.10,132.33,200,129.09
2014-01-17,132.04,132.27,132.04,132.27,000,129.031
2014-01-16,130.31,132.09,130.31,132.09,600,128.855
2014-01-15,129.04,129.59,128.99,129.59,300,126.417
2014-01-14,126.15,126.79,126.15,126.79,200,123.685
2014-01-13,129.49,129.49,127.50,127.50,1500,124.378
2014-01-10,129.67,129.70,129.52,129.70,600,126.524
2014-01-09,129.35,129.35,129.35,129.35,000,126.182
2014-01-08,129.03,129.10,128.66,128.99,2500,125.831
2014-01-06,128.04,128.40,127.76,128.00,3400,124.866
2014-01-03,128.17,128.69,128.17,128.27,1500,125.129
2014-01-02,130.00,130.00,130.00,130.00,300,126.817
2013-12-31,130.00,130.00,129.35,129.35,300,126.182
2013-12-30,130.38,130.38,130.02,130.02,600,126.836
2013-12-27,130.00,130.00,129.80,129.80,600,126.621
2013-12-23,128.60,128.75,128.60,128.75,900,125.27
2013-12-20,126.93,126.93,126.41,126.70,500,123.275
2013-12-19,128.14,128.16,127.87,127.87,1900,124.414
2013-12-18,125.27,125.27,125.20,125.20,000,121.816
2013-12-17,125.06,125.06,124.58,124.58,600,121.212
2013-12-16,123.23,123.26,123.23,123.26,600,119.928
2013-12-13,123.43,123.43,123.23,123.23,200,119.899
2013-12-12,121.49,121.49,121.49,121.49,000,118.206
2013-12-11,122.61,122.79,122.20,122.62,500,119.305
2013-12-10,124.10,124.37,123.95,123.95,300,120.599
2013-12-09,124.06,124.06,123.81,123.81,600,120.463
2013-12-06,123.50,123.93,123.33,123.90,1100,120.551
2013-12-05,123.50,123.73,123.50,123.73,5200,120.385
2013-12-04,123.73,123.73,123.73,123.73,000,120.385
2013-12-03,124.30,124.30,124.00,124.00,400,120.648
2013-12-02,125.23,125.25,124.30,124.30,800,120.94
2013-11-29,125.24,125.50,124.98,125.50,200,122.108
2013-11-28,124.95,124.95,124.77,124.77,4100,121.397
2013-11-27,123.32,124.22,123.32,124.22,400,120.862
2013-11-25,122.85,122.85,122.77,122.77,200,119.451
2013-11-21,117.74,117.81,117.50,117.81,1200,114.625
2013-11-20,116.40,116.63,116.40,116.40,300,113.254
2013-11-19,117.80,117.84,117.80,117.80,600,114.616
2013-11-15,118.87,118.87,118.87,118.87,200,115.657
2013-11-14,118.50,118.50,118.45,118.48,100,115.277
2013-11-13,117.75,118.17,117.75,117.92,200,114.732
2013-11-12,117.33,117.61,117.33,117.61,200,114.431
2013-11-11,116.34,116.34,116.34,116.34,100,113.195
2013-11-07,115.60,115.60,114.80,115.38,400,112.261
2013-11-06,115.26,115.60,115.26,115.60,000,112.475
2013-11-05,115.50,116.00,115.50,116.00,1500,112.864
2013-11-04,115.05,115.05,114.83,114.96,400,111.852
2013-11-01,115.85,116.15,115.85,116.15,400,113.01
2013-10-31,116.20,116.20,115.50,115.53,700,112.407
2013-10-30,117.88,118.02,117.88,117.88,3200,114.694
2013-10-29,116.86,116.86,116.86,116.86,400,113.701
2013-10-28,115.70,116.41,115.70,116.41,200,113.263
2013-10-25,115.75,115.89,115.75,115.89,100,112.757
2013-10-24,114.66,114.66,114.66,114.66,400,111.561
2013-10-23,114.45,114.45,113.98,113.98,300,110.899
2013-10-22,114.78,114.84,114.32,114.32,200,111.23
2013-10-21,114.95,114.95,114.88,114.88,500,111.775
2013-10-18,113.98,114.40,113.98,114.07,300,110.987
2013-10-17,113.87,113.96,113.86,113.87,1000,110.792
2013-10-16,113.50,113.75,113.50,113.75,100,110.675
2013-10-15,114.15,114.18,114.00,114.00,400,110.918
2013-10-11,112.35,112.44,112.15,112.40,700,109.362
2013-10-10,110.33,110.95,110.33,110.95,400,107.951
2013-10-09,110.64,110.90,110.60,110.90,400,107.902
2013-10-08,112.46,112.46,112.22,112.22,100,109.187
2013-10-07,112.78,112.78,112.78,112.78,200,109.731
2013-10-04,112.60,112.60,112.60,112.60,100,109.556
2013-10-03,114.25,114.44,113.70,114.44,3600,111.347
2013-10-02,115.15,115.15,115.15,115.15,000,112.037
2013-10-01,114.22,114.22,113.90,113.90,100,110.821
2013-09-30,114.00,114.00,114.00,114.00,000,110.918
2013-09-27,114.75,115.16,114.75,114.80,600,111.697
2013-09-26,114.15,114.21,114.15,114.21,000,111.123
2013-09-24,113.58,113.58,113.45,113.45,200,110.383
2013-09-23,114.05,114.05,113.70,113.70,200,110.336
2013-09-20,113.45,113.65,113.45,113.65,500,110.287
2013-09-19,114.03,114.03,112.90,113.00,1400,109.657
2013-09-18,113.76,114.00,113.76,114.00,400,110.627
2013-09-17,113.58,113.58,112.63,112.63,2000,109.298
2013-09-16,113.81,114.27,113.81,114.27,300,110.889
2013-09-13,113.00,113.00,113.00,113.00,000,109.657
2013-09-12,112.60,113.79,112.60,113.79,400,110.423
2013-09-11,112.80,113.22,112.75,112.75,400,109.414
2013-09-10,113.03,113.03,112.14,112.42,700,109.094
2013-09-09,111.96,111.96,111.96,111.96,000,108.647
2013-09-06,111.85,111.95,111.85,111.95,400,108.638
2013-09-05,111.75,111.75,111.55,111.60,600,108.298
2013-09-04,111.89,111.89,111.55,111.55,500,108.25
2013-09-03,113.08,113.08,113.05,113.05,800,109.705
2013-09-02,113.63,113.64,113.20,113.20,500,109.851
2013-08-30,114.58,114.89,114.58,114.89,700,111.491
2013-08-29,113.55,113.55,112.41,112.41,100,109.084
2013-08-28,113.78,113.78,112.60,113.54,800,110.181
2013-08-27,114.57,115.06,114.57,115.06,300,111.656
2013-08-26,115.00,115.00,114.82,114.82,300,111.423
2013-08-23,114.76,114.76,114.21,114.67,1000,111.277
2013-08-22,112.84,112.84,112.84,112.84,100,109.501
2013-08-20,110.50,111.55,110.50,111.55,700,108.25
2013-08-19,110.98,111.09,110.58,110.60,1300,107.328
2013-08-16,112.87,112.87,111.42,111.81,900,108.502
2013-08-15,113.92,113.92,113.55,113.63,2800,110.268
2013-08-14,115.27,115.27,115.27,115.27,200,111.86
2013-08-13,114.82,115.44,114.82,115.12,1000,111.714
2013-08-12,113.81,113.81,112.84,113.36,100,110.006
2013-08-09,114.72,114.72,114.23,114.23,10500,110.85
2013-08-08,115.72,115.75,115.56,115.56,100,112.141
2013-08-07,116.51,116.86,116.18,116.18,1300,112.743
2013-08-06,118.43,118.43,117.65,117.65,100,114.169
2013-08-05,118.43,118.44,118.43,118.44,100,114.936
2013-08-02,117.85,118.46,117.85,118.46,2200,114.955
2013-08-01,116.71,116.79,116.71,116.79,500,113.335
2013-07-31,115.43,115.55,115.40,115.43,10700,112.015
2013-07-30,113.26,113.26,113.26,113.26,000,109.909
2013-07-29,112.94,112.94,112.17,112.17,1100,108.851
2013-07-26,113.35,113.58,113.20,113.20,1500,109.851
2013-07-25,113.76,113.80,113.76,113.80,200,110.433
2013-07-24,113.10,113.31,112.66,113.29,400,109.938
2013-07-23,113.39,113.48,113.14,113.14,1000,109.793
2013-07-22,113.74,114.02,113.52,113.60,500,110.239
2013-07-19,113.46,113.46,113.14,113.14,4200,109.793
2013-07-18,111.55,112.51,111.55,112.51,100,109.181
2013-07-17,112.01,112.25,112.01,112.24,900,108.919
2013-07-16,113.50,113.90,112.95,112.95,300,109.608
2013-07-15,113.35,113.35,113.17,113.17,100,109.822
2013-07-12,111.95,111.95,111.95,111.95,100,108.638
2013-07-11,110.83,110.83,110.56,110.56,300,107.289
2013-07-10,110.49,110.52,110.10,110.10,7000,106.842
2013-07-09,110.42,110.79,110.31,110.59,1900,107.318
2013-07-08,110.98,110.98,110.69,110.70,500,107.425
2013-07-05,109.35,109.35,109.35,109.35,000,106.115
2013-07-04,108.61,108.61,108.43,108.43,100,105.222
2013-07-02,107.26,107.95,107.26,107.95,600,104.492
2013-07-01,106.49,106.49,105.79,105.79,100,102.401
2013-06-28,106.04,106.04,105.71,106.00,600,102.605
2013-06-27,103.63,103.63,103.50,103.50,900,100.185
2013-06-26,103.27,103.27,102.85,103.14,300,99.836
2013-06-24,103.88,103.88,103.88,103.88,700,100.553
2013-06-20,106.06,106.10,106.06,106.10,000,102.702
2013-06-19,105.73,105.73,105.16,105.16,400,101.792
2013-06-18,103.29,103.73,103.29,103.73,000,100.407
2013-06-17,101.97,102.38,101.97,102.38,700,99.101
2013-06-14,102.70,102.94,102.63,102.63,2400,99.343
2013-06-13,101.66,101.80,101.20,101.20,600,97.958
2013-06-12,104.18,104.18,103.68,103.85,200,100.524
2013-06-11,105.00,105.26,104.80,104.80,100,101.443
2013-06-07,102.20,102.96,102.20,102.30,4600,99.023
2013-06-05,101.72,101.86,101.70,101.70,2200,98.442
2013-06-04,100.92,101.13,100.92,101.13,000,97.891
2013-06-03,102.59,102.59,101.94,101.96,2400,98.694
2013-05-31,102.41,102.70,102.41,102.70,100,99.41
2013-05-30,102.51,102.51,101.40,101.63,700,98.375
2013-05-29,103.58,103.77,103.14,103.77,4900,100.446
2013-05-28,102.83,102.83,102.52,102.60,300,99.314
2013-05-27,102.13,102.31,102.13,102.31,200,99.033
2013-05-24,101.70,101.86,101.70,101.86,000,98.597
2013-05-23,101.72,101.72,100.92,100.92,3600,97.687
2013-05-21,101.72,101.72,101.20,101.20,200,97.958
2013-05-20,101.49,101.60,101.44,101.44,1600,98.191
2013-05-17,100.69,100.94,100.69,100.94,5000,97.707
2013-05-16,99.23,99.50,98.92,99.50,3400,96.313
2013-05-15,99.02,99.26,99.00,99.26,800,96.081
2013-05-14,97.02,97.37,97.02,97.25,100,94.135
2013-05-13,96.88,96.96,96.88,96.89,400,93.787
2013-05-10,95.83,95.88,95.70,95.88,4900,92.809
2013-05-09,94.00,94.00,94.00,94.00,100,90.989
2013-05-08,94.67,94.67,94.28,94.64,600,91.609
2013-05-06,92.00,92.00,92.00,92.00,000,89.053
2013-05-03,90.90,91.25,90.80,91.25,2400,88.327
2013-05-02,89.62,90.30,89.62,90.30,3000,87.408
2013-05-01,90.64,91.09,90.64,91.00,400,88.085
2013-04-29,90.40,90.40,90.40,90.40,000,87.504
2013-04-26,90.54,90.54,90.54,90.54,000,87.64
2013-04-24,90.46,90.46,90.46,90.46,1600,87.562
2013-04-22,88.56,88.56,88.44,88.44,400,85.607
2013-04-19,87.30,87.30,87.30,87.30,000,84.504
2013-04-18,87.75,87.75,87.44,87.44,300,84.639
2013-04-16,87.85,87.85,87.50,87.50,1600,84.697
2013-04-15,89.14,89.56,89.14,89.56,100,86.691
2013-04-12,89.30,89.30,89.30,89.30,000,86.44
2013-04-11,89.38,89.38,89.30,89.30,400,86.44
2013-04-09,88.61,89.25,88.61,89.25,1200,86.391
2013-04-08,88.30,88.59,88.30,88.59,100,85.752
2013-04-02,89.49,89.49,89.49,89.49,000,86.624
2013-03-28,90.40,90.41,90.35,90.35,300,87.456
2013-03-27,90.35,90.36,90.35,90.36,100,87.466
2013-03-26,90.26,90.35,90.25,90.35,300,87.456
2013-03-22,90.38,90.38,90.38,90.38,700,87.244
2013-03-21,91.34,91.34,91.34,91.34,100,88.17
2013-03-20,90.52,90.52,90.51,90.51,900,87.369
2013-03-15,91.73,91.73,91.41,91.41,200,88.238
2013-03-14,91.20,91.20,91.20,91.20,200,88.035
2013-03-13,91.00,91.09,91.00,91.09,200,87.929
2013-03-12,91.44,91.49,91.44,91.49,200,88.315
2013-03-11,91.64,91.91,91.64,91.91,200,88.721
2013-03-08,90.63,90.83,90.47,90.83,1300,87.678
2013-03-07,90.58,90.58,90.00,90.26,700,87.128
2013-03-06,89.77,89.77,89.73,89.73,200,86.616
2013-03-04,88.97,89.30,88.94,89.30,200,86.201
2013-02-28,88.56,88.56,88.56,88.56,000,85.487
2013-02-27,87.27,87.46,87.09,87.09,1000,84.068
2013-02-25,88.73,88.73,88.73,88.73,100,85.651
2013-02-21,89.00,89.00,88.82,88.85,800,85.767
2013-02-19,89.00,89.08,88.85,89.08,100,85.989
2013-02-18,89.31,89.43,89.31,89.35,500,86.249
2013-02-13,89.17,89.18,88.14,88.14,400,85.081
2013-02-12,88.64,88.70,88.62,88.62,1400,85.545
2013-02-11,87.90,88.27,87.90,88.27,100,85.207
2013-02-06,87.04,87.44,87.04,87.40,100,84.367
2013-02-05,85.80,86.43,85.77,86.43,1800,83.431
2013-02-01,86.11,86.45,86.11,86.45,400,83.45
2013-01-31,85.55,85.55,85.42,85.46,500,82.494
2013-01-30,86.11,86.39,86.11,86.38,400,83.382
2013-01-18,83.75,83.75,83.75,83.75,100,80.844
2013-01-16,83.06,83.09,83.06,83.09,200,80.207
2013-01-15,82.68,82.68,82.68,82.68,100,79.811
2013-01-11,83.04,83.04,82.98,82.98,300,80.10
2013-01-10,82.88,82.88,82.88,82.88,000,80.004
2013-01-08,82.89,83.10,82.89,83.10,300,80.216
2013-01-04,82.76,82.92,82.76,82.92,500,80.043
2013-01-03,81.90,82.55,81.90,82.55,100,79.685
2012-12-28,80.62,80.62,80.45,80.45,300,77.658
2012-12-21,80.00,80.00,79.69,79.69,300,76.925
2012-12-20,80.55,80.55,80.23,80.23,300,77.446
2012-12-19,80.94,81.02,80.94,81.02,700,77.543
2012-12-18,79.70,79.96,79.70,79.96,200,76.528
2012-12-17,78.70,78.71,78.70,78.71,100,75.332
2012-12-14,78.68,78.72,78.60,78.60,500,75.227
2012-12-13,78.98,78.98,78.98,78.98,200,75.59
2012-12-11,78.66,78.78,78.66,78.78,300,75.399
2012-12-05,78.52,78.62,78.52,78.62,600,75.246
2012-12-04,78.47,78.47,78.34,78.34,100,74.978
2012-11-26,76.89,76.89,76.89,76.89,000,73.59
2012-11-23,77.27,77.27,77.27,77.27,000,73.954
2012-11-22,77.27,77.27,77.27,77.27,000,73.954
2012-11-21,76.47,76.47,76.47,76.47,000,73.188
2012-11-19,75.64,75.64,75.50,75.50,600,72.26
2012-11-16,74.27,74.52,74.27,74.52,300,71.322
2012-11-15,74.50,74.50,74.50,74.50,100,71.303
2012-11-13,75.84,75.84,75.84,75.84,000,72.585
2012-11-12,76.07,76.07,76.07,76.07,000,72.805
2012-11-07,78.53,78.54,78.53,78.54,400,75.169
2012-11-02,79.65,79.65,79.65,79.65,000,76.232
2012-11-01,78.68,78.68,78.68,78.68,000,75.303
2012-10-30,78.42,78.42,77.96,77.96,200,74.614
2012-10-25,79.38,79.38,79.38,79.38,000,75.973
2012-10-24,79.64,79.64,79.60,79.60,100,76.184
2012-10-19,80.82,80.82,80.82,80.82,000,77.352
2012-10-18,81.19,81.19,81.14,81.14,200,77.658
2012-10-17,81.20,81.20,80.85,80.85,800,77.38
2012-10-16,80.86,80.95,80.84,80.87,700,77.399
2012-10-12,81.23,81.23,80.87,80.87,300,77.399
2012-10-09,81.85,81.85,81.85,81.85,100,78.337
2012-10-08,82.76,82.76,82.76,82.76,000,79.208
2012-10-03,81.73,81.73,81.73,81.73,000,78.222
2012-10-01,80.62,80.62,80.55,80.55,200,77.093
2012-09-27,80.60,80.60,80.60,80.60,000,77.141
2012-09-26,80.90,80.90,80.90,80.90,200,77.428
2012-09-21,81.91,81.91,81.91,81.91,000,78.281
2012-09-20,81.87,81.96,81.87,81.96,100,78.329
2012-09-19,82.20,82.21,82.20,82.21,6000,78.568
2012-09-18,82.31,82.31,82.31,82.31,000,78.663
2012-09-14,81.32,81.32,81.32,81.32,5000,77.717
2012-09-12,80.22,80.22,80.22,80.22,000,76.666
2012-09-10,80.82,80.82,80.82,80.82,000,77.239
2012-09-07,80.50,80.50,80.50,80.50,000,76.933
2012-09-05,80.48,80.48,80.48,80.48,5000,76.914
2012-09-04,79.60,79.62,79.50,79.50,19900,75.978
2012-08-27,77.75,77.75,77.75,77.75,000,74.305
2012-08-24,77.13,77.13,77.13,77.13,200,73.713
2012-08-22,77.55,77.55,77.55,77.55,000,74.114
2012-08-21,77.71,77.71,77.71,77.71,000,74.267
2012-08-17,77.35,77.35,77.32,77.32,200,73.894
2012-08-16,76.44,76.44,76.44,76.44,000,73.053
2012-08-15,75.92,76.00,75.92,75.94,11900,72.576
2012-08-14,76.13,76.16,76.02,76.16,10000,72.786
2012-08-03,73.44,73.44,73.33,73.33,100,70.081
2012-08-01,74.75,74.75,74.75,74.75,6000,71.438
2012-07-30,75.74,75.74,75.74,75.74,5000,72.384
2012-07-27,74.52,74.52,74.52,74.52,300,71.218
2012-07-26,74.55,74.55,74.55,74.55,000,71.247
2012-07-25,74.41,74.48,74.41,74.48,10000,71.18
2012-07-18,78.26,78.26,78.26,78.26,000,74.793
2012-07-17,77.31,77.59,77.31,77.59,000,74.152
2012-07-16,78.11,78.11,78.11,78.11,000,74.649
2012-07-13,77.67,77.67,77.67,77.67,000,74.229
2012-07-10,78.36,78.36,78.36,78.36,000,74.888
2012-07-09,78.94,78.94,78.94,78.94,800,75.443
2012-07-03,78.53,78.53,78.53,78.53,000,75.051
2012-06-29,76.74,76.88,76.74,76.88,400,73.474
2012-06-28,76.70,76.70,76.32,76.32,000,72.939
2012-06-26,76.17,76.55,76.17,76.55,000,73.032
2012-06-22,76.55,76.55,76.55,76.55,100,73.032
2012-06-20,77.28,77.28,76.83,76.83,000,73.30
2012-06-19,77.02,77.02,77.02,77.02,000,73.481
2012-06-18,77.02,77.02,77.02,77.02,000,73.481
2012-06-14,75.63,75.63,75.63,75.63,000,72.155
2012-06-13,76.69,76.69,76.69,76.69,000,73.166
2012-06-07,77.50,77.50,77.50,77.50,100,73.939
2012-06-06,76.53,76.53,76.53,76.53,100,73.013
2012-06-01,78.30,78.30,77.97,78.08,5500,74.492
2012-05-31,78.65,78.65,78.09,78.09,300,74.502
2012-05-30,78.87,78.87,78.87,78.87,000,75.246
2012-05-28,78.42,78.42,78.42,78.42,5000,74.817
2012-05-25,78.57,78.57,78.57,78.57,000,74.96
2012-05-23,77.54,77.54,77.54,77.54,000,73.977
2012-05-22,77.19,77.19,77.19,77.19,000,73.643
2012-05-17,77.95,77.95,77.95,77.95,000,74.368
2012-05-16,78.38,78.38,78.35,78.35,100,74.75
2012-05-15,78.02,78.02,78.02,78.02,000,74.435
2012-05-08,77.74,77.76,77.74,77.76,2000,74.187
2012-05-07,76.94,76.94,76.94,76.94,000,73.405
2012-05-04,78.67,78.67,78.27,78.34,300,74.74
2012-05-01,78.70,78.77,78.70,78.70,100,75.084
2012-04-30,79.16,79.83,79.16,79.83,300,76.162
2012-04-27,78.33,78.33,78.33,78.33,200,74.731
2012-04-19,77.52,77.52,77.52,77.52,100,73.958
2012-04-18,77.40,77.40,77.40,77.40,100,73.843
2012-04-16,76.79,76.86,76.79,76.86,500,73.328
2012-04-13,77.68,77.68,77.68,77.68,000,74.111
2012-04-11,77.04,77.04,76.90,76.90,300,73.366
2012-04-05,79.73,79.73,79.60,79.60,600,75.942
2012-04-03,80.53,80.68,80.53,80.68,400,76.973
2012-03-28,80.53,80.53,80.53,80.53,300,76.83
2012-03-27,80.60,80.60,80.21,80.60,65100,76.896
2012-03-26,79.16,79.68,79.16,79.68,2000,76.019
2012-03-22,79.58,79.62,79.38,79.38,1300,75.732
2012-03-21,79.20,79.24,79.19,79.24,200,75.599
2012-03-16,79.01,79.01,79.01,79.01,000,75.379
2012-03-15,78.66,79.01,78.66,79.01,200,75.379
2012-03-14,79.02,79.02,78.58,78.58,400,74.969
2012-03-13,77.55,77.55,77.50,77.50,300,73.939
2012-03-12,77.58,77.58,77.58,77.58,000,74.015
2012-03-09,75.61,75.70,75.61,75.70,000,72.222
2012-03-08,75.23,75.23,75.23,75.23,200,71.773
2012-03-07,74.50,74.78,74.50,74.55,200,71.124
2012-03-06,75.50,75.50,75.50,75.50,100,72.031
2012-02-29,76.44,76.44,76.44,76.44,000,72.928
2012-02-28,76.60,76.60,76.60,76.60,000,73.08
2012-02-24,77.64,77.64,77.64,77.64,400,74.072
2012-02-23,76.50,76.50,76.48,76.48,000,72.966
2012-02-21,77.49,77.50,77.49,77.50,5000,73.939
2012-02-20,77.35,77.35,77.35,77.35,200,73.796
2012-02-17,76.67,76.67,76.67,76.67,200,73.147
2012-02-16,76.20,76.20,75.80,75.80,300,72.317
2012-02-14,76.86,76.86,76.86,76.86,000,73.328
2012-02-08,76.67,76.67,76.67,76.67,000,73.147
2012-02-07,77.28,77.28,76.84,76.84,1500,73.309
2012-02-06,76.75,76.75,76.75,76.75,000,73.223
2012-02-03,76.02,76.02,76.02,76.02,200,72.527
2012-02-02,75.71,75.71,75.71,75.71,000,72.231
2012-01-30,75.07,75.07,75.07,75.07,300,71.621
2012-01-25,75.17,75.17,75.17,75.17,000,71.716
2012-01-23,74.80,74.80,74.80,74.80,000,71.363
2012-01-20,74.61,74.61,74.61,74.61,000,71.182
2012-01-18,73.98,73.98,73.98,73.98,100,70.581
2012-01-17,74.41,74.50,74.10,74.10,700,70.695
2012-01-16,74.50,74.50,73.87,73.87,1000,70.476
2012-01-13,74.10,74.10,74.10,74.10,000,70.695
2012-01-12,74.57,74.57,74.57,74.57,000,71.143
2012-01-10,73.49,73.49,73.06,73.06,15500,69.703
2012-01-09,73.49,73.49,73.49,73.49,400,70.113
2012-01-06,72.67,72.67,72.67,72.67,200,69.331
2011-12-28,73.46,73.46,73.46,73.46,2100,70.084
2011-12-23,73.41,73.41,73.41,73.41,000,70.037
2011-12-22,73.50,73.50,73.50,73.50,300,70.123
2011-12-21,72.98,72.98,72.97,72.97,6000,69.617
2011-12-20,72.35,72.35,72.35,72.35,000,69.025
2011-12-19,72.72,72.86,72.38,72.75,60000,69.407
2011-12-16,72.53,72.53,72.53,72.53,000,69.197
2011-12-09,72.50,72.50,71.40,71.40,6800,68.119
2011-12-07,72.86,72.86,72.86,72.86,10000,69.512
2011-12-06,72.36,72.36,72.36,72.36,000,69.035
2011-12-05,72.80,72.80,72.80,72.80,000,69.455
2011-12-02,71.89,71.89,71.89,71.89,000,68.587
2011-12-01,72.40,72.40,72.40,72.40,000,69.073
2011-11-30,69.00,69.00,69.00,69.00,2600,65.829
2011-11-28,69.04,69.25,69.04,69.08,26300,65.906
2011-11-23,70.50,70.50,70.47,70.47,3100,67.232
2011-11-18,72.12,72.12,72.12,72.12,000,68.806
2011-11-17,72.57,72.57,72.29,72.29,300,68.968
2011-11-16,73.34,73.34,73.34,73.34,000,69.97
2011-11-14,72.24,72.34,72.24,72.34,000,69.016
2011-11-11,71.00,71.47,71.00,71.47,000,68.186
2011-11-08,71.51,71.51,71.51,71.51,000,68.224
2011-11-07,72.06,72.06,72.06,72.06,000,68.749
2011-11-01,70.18,70.18,70.18,70.18,100,66.955
2011-10-31,70.71,70.71,70.56,70.56,3100,67.318
2011-10-28,71.40,71.40,71.40,71.40,000,68.119
2011-10-27,69.81,69.81,69.81,69.81,000,66.602
2011-10-19,69.18,69.18,69.18,69.18,000,66.001
2011-10-18,67.60,67.60,67.10,67.10,100,64.017
2011-10-13,68.51,68.51,68.51,68.51,100,65.362
2011-10-07,68.48,68.48,68.48,68.48,000,65.333
2011-10-05,67.42,67.42,67.36,67.36,3000,64.265
2011-10-04,63.97,63.97,63.97,63.97,000,61.031
2011-10-03,66.64,66.64,66.64,66.64,000,63.578
2011-09-28,68.16,68.16,68.14,68.14,000,65.009
2011-09-27,67.82,67.82,67.82,67.82,000,64.704
2011-09-26,67.27,67.27,67.27,67.27,000,64.179
2011-09-23,66.35,66.35,66.35,66.35,100,63.301
2011-09-20,68.10,68.10,68.10,68.10,000,64.971
2011-09-19,69.00,69.00,69.00,69.00,000,65.829
2011-09-15,68.30,68.58,68.30,68.58,900,65.429
2011-09-14,64.40,67.20,64.40,66.80,4200,63.731
2011-09-12,64.32,64.37,64.32,64.37,2500,61.412
2011-09-01,68.21,68.54,68.21,68.54,10000,65.391
2011-08-30,68.25,68.32,68.00,68.15,2000,65.018
2011-08-23,63.18,63.19,62.68,62.68,1900,59.80
2011-08-18,66.65,66.65,66.65,66.65,000,63.587
2011-08-17,67.50,67.53,67.50,67.53,000,64.427
2011-08-09,62.79,62.90,62.79,62.90,700,60.01
2011-08-05,69.83,69.83,69.18,69.18,200,66.001
2011-08-04,72.64,72.64,72.64,72.64,000,69.302
2011-08-01,72.88,72.88,72.88,72.88,000,69.531
2011-07-28,72.70,72.70,72.70,72.70,000,69.359
2011-07-27,74.48,74.80,74.48,74.80,200,71.363
2011-07-25,77.12,77.12,77.12,77.12,000,73.576
2011-07-19,76.60,76.60,76.60,76.60,000,73.08
2011-07-18,77.51,78.18,77.51,77.61,100,74.044
2011-07-15,76.50,76.50,76.50,76.50,000,72.985
2011-07-14,77.25,77.50,77.25,77.50,700,73.939
2011-07-13,78.15,78.15,78.15,78.15,100,74.559
2011-07-12,77.95,77.95,77.95,77.95,000,74.368
2011-07-11,79.64,79.64,79.64,79.64,000,75.981
2011-07-06,78.81,78.85,78.81,78.85,1800,75.227
2011-06-27,76.14,76.14,76.14,76.14,000,72.641
2011-06-17,74.60,74.66,74.60,74.66,100,71.229
2011-06-16,74.40,74.60,74.40,74.60,100,71.172
2011-06-14,74.09,74.17,74.09,74.17,000,70.762
2011-06-07,74.25,74.25,74.25,74.25,100,70.838
2011-06-06,75.52,75.52,75.52,75.52,100,72.05
2011-06-02,77.67,77.67,77.67,77.67,000,74.101
2011-05-31,78.49,78.68,78.49,78.68,1000,75.065
2011-05-26,77.77,77.77,77.77,77.77,000,74.196
2011-05-19,78.49,78.49,78.49,78.49,000,74.883
2011-05-17,78.24,78.24,78.24,78.24,000,74.645
2011-05-16,78.99,79.24,78.99,79.24,000,75.599
2011-05-13,80.12,80.12,79.50,79.50,100,75.847
2011-05-11,78.58,78.58,78.58,78.58,500,74.969
2011-05-10,78.34,78.37,78.34,78.37,300,74.769
2011-05-09,77.50,77.75,77.50,77.75,500,74.177
2011-05-05,78.32,78.32,78.32,78.32,000,74.721
2011-05-04,78.17,78.17,78.17,78.17,200,74.578
2011-05-02,79.95,79.95,79.95,79.95,000,76.276
2011-04-29,78.90,79.00,78.90,79.00,200,75.37
2011-04-27,78.75,78.82,78.75,78.82,100,75.198
2011-04-20,78.58,78.58,78.58,78.58,1000,74.969
2011-04-19,78.45,78.45,78.45,78.45,000,74.845
2011-04-18,79.42,79.42,78.93,78.93,200,75.303
2011-04-15,78.80,78.80,78.70,78.70,100,75.084
2011-04-14,78.30,78.30,78.30,78.30,1000,74.702
2011-04-11,79.80,79.80,79.80,79.80,000,76.133
2011-04-08,80.90,80.90,80.90,80.90,3000,77.183
2011-04-07,82.00,82.00,82.00,82.00,100,78.232
2011-04-05,82.36,82.36,82.36,82.36,3000,78.576
2011-04-04,83.09,83.09,83.09,83.09,400,79.272
2011-04-01,81.88,81.96,81.83,81.96,600,78.194
2011-03-31,81.47,81.47,81.47,81.47,000,77.726
2011-03-28,80.78,80.78,80.78,80.78,300,77.068
2011-03-25,79.89,79.89,79.89,79.89,000,76.219
2011-03-18,80.38,80.38,80.38,80.38,000,76.687
2011-03-16,79.98,79.98,79.98,79.98,000,76.305
2011-03-15,79.14,79.14,78.49,78.52,700,74.912
2011-03-14,75.01,79.82,75.01,79.82,300,76.152
2011-03-11,79.95,80.24,79.95,80.24,1500,76.553
2011-03-10,80.75,80.75,80.75,80.75,000,77.04
2011-03-09,82.02,82.02,81.27,81.27,300,77.536
2011-03-08,80.83,80.83,80.23,80.23,100,76.543
2011-03-07,81.52,81.52,81.52,81.52,100,77.774
2011-03-04,82.24,82.25,81.68,82.13,800,78.356
2011-03-03,80.38,80.38,80.38,80.38,000,76.687
2011-03-02,79.26,79.26,79.26,79.26,000,75.618
2011-03-01,81.35,81.35,81.34,81.34,200,77.602
2011-02-24,78.25,78.25,78.25,78.25,300,74.654
2011-02-22,82.46,82.77,82.46,82.70,400,78.90
2011-02-21,82.57,84.14,82.57,84.14,400,80.274
2011-02-17,82.88,82.88,82.50,82.76,300,78.957
2011-02-16,82.70,82.70,82.70,82.70,000,78.90
2011-02-14,81.60,81.60,81.60,81.60,300,77.85
2011-02-10,79.70,80.67,79.70,80.67,100,76.963
2011-02-09,80.53,80.53,78.45,78.45,300,74.845
2011-02-04,78.50,78.50,78.50,78.50,100,74.893
2011-02-01,78.05,78.05,78.05,78.05,1000,74.464
2011-01-31,78.00,78.45,78.00,78.00,300,74.416
2011-01-28,80.35,80.53,80.20,80.53,600,76.83
2011-01-27,79.50,79.50,79.31,79.31,200,75.666
2011-01-25,78.70,78.70,78.70,78.70,000,75.084
2011-01-24,78.05,78.05,78.05,78.05,500,74.464
2011-01-19,81.40,81.40,80.90,81.18,500,77.45
2011-01-18,81.33,81.33,81.31,81.31,100,77.574
2011-01-17,81.29,81.76,81.29,81.76,100,78.003
2011-01-14,80.70,80.70,80.65,80.65,100,76.944
2011-01-13,80.70,80.70,80.50,80.69,900,76.982
2011-01-12,80.91,80.91,80.91,80.91,000,77.192
2011-01-11,81.50,81.50,80.50,80.80,300,77.087
2011-01-10,79.50,79.50,79.26,79.26,400,75.618
2011-01-07,79.79,79.79,79.24,79.24,200,75.599
2011-01-06,79.92,80.00,79.92,80.00,1700,76.324
2011-01-05,78.34,78.48,78.34,78.48,500,74.874
2010-12-31,77.46,78.09,77.46,78.09,100,74.502
2010-12-30,78.00,78.00,77.40,77.40,300,73.843
2010-12-29,78.42,78.42,78.42,78.42,100,74.817
2010-12-23,79.37,79.37,79.34,79.34,000,75.694
2010-12-22,80.04,80.04,79.96,79.96,200,76.286
2010-12-21,79.38,79.38,79.38,79.38,000,75.732
2010-12-16,78.52,78.60,78.52,78.60,100,74.988
2010-12-15,78.07,78.07,78.07,78.07,200,74.483
2010-12-14,78.15,78.15,78.15,78.15,200,74.559
2010-12-13,79.42,79.45,79.38,79.45,700,75.799
2010-12-08,78.22,78.22,78.22,78.22,000,74.626
2010-12-06,76.29,76.29,76.29,76.29,000,72.784
2010-12-01,75.60,76.27,75.60,76.22,31600,72.718
2010-11-29,74.45,74.45,74.45,74.45,000,71.029
2010-11-26,74.45,74.45,74.45,74.45,000,71.029
2010-11-25,75.67,75.78,75.55,75.78,400,72.298
2010-11-24,73.87,74.44,73.87,74.44,300,71.019
2010-11-23,73.00,74.17,73.00,74.17,000,70.762
2010-11-22,73.32,73.32,73.30,73.30,300,69.932
2010-11-19,73.03,73.53,73.03,73.53,000,70.151
2010-11-17,72.28,72.28,72.28,72.28,000,68.959
2010-11-16,73.42,73.42,73.38,73.38,000,70.008
2010-11-15,73.47,73.47,73.39,73.39,300,70.018
2010-11-04,71.11,71.11,71.11,71.11,000,67.842
2010-11-02,70.59,70.59,70.59,70.59,4900,67.346
2010-10-29,72.20,72.20,71.39,71.80,000,68.501
2010-10-28,72.89,72.89,72.89,72.89,000,69.541
2010-10-26,71.43,71.43,71.43,71.43,100,68.148
2010-10-25,71.50,71.50,71.50,71.50,000,68.215
2010-10-21,71.50,71.81,71.50,71.81,100,68.51
2010-10-19,71.53,71.53,71.15,71.50,100,68.215
2010-10-18,71.58,71.58,71.54,71.54,000,68.253
2010-10-15,71.40,71.83,71.40,71.83,500,68.529
2010-10-14,71.30,71.30,71.30,71.30,000,68.024
2010-10-13,70.36,70.36,70.36,70.36,100,67.127
2010-10-12,70.30,70.30,70.30,70.30,000,67.07
2010-10-11,70.15,70.15,70.15,70.15,100,66.927
2010-10-08,70.48,70.48,70.27,70.27,100,67.041
2010-10-07,70.54,70.54,70.54,70.54,000,67.299
2010-10-06,70.90,70.90,70.90,70.90,000,67.642
2010-10-04,70.26,70.26,70.26,70.26,000,67.032
2010-10-01,70.26,70.26,70.26,70.26,000,67.032
2010-09-30,69.99,69.99,69.99,69.99,100,66.774
2010-09-29,69.83,69.83,69.83,69.83,100,66.621
2010-09-27,70.61,70.61,69.83,69.83,400,66.621
2010-09-23,69.45,69.45,69.37,69.37,400,66.182
2010-09-22,70.20,70.20,70.20,70.20,000,66.974
2010-09-21,71.00,71.00,70.59,70.59,100,67.346
2010-09-16,69.80,69.80,69.80,69.80,400,66.593
2010-09-14,70.43,70.43,70.32,70.32,300,67.089
2010-09-10,69.31,69.31,69.31,69.31,100,66.125
2010-09-08,69.10,69.10,69.10,69.10,100,65.925
2010-09-07,70.40,70.40,70.40,70.40,600,67.165
2010-09-06,70.26,70.26,70.26,70.26,000,67.032
2010-09-03,69.96,69.96,69.96,69.96,000,66.745
2010-08-31,67.50,67.50,67.50,67.50,400,64.398
2010-08-27,67.66,67.66,67.66,67.66,100,64.551
2010-08-25,67.62,67.62,67.19,67.19,100,64.103
2010-08-24,67.62,67.62,67.62,67.62,200,64.513
2010-08-23,69.35,69.35,68.73,68.73,100,65.572
2010-08-19,70.17,70.17,70.17,70.17,000,66.946
2010-08-18,69.00,69.00,69.00,69.00,500,65.829
2010-08-17,69.07,69.07,69.07,69.07,000,65.896
2010-08-16,68.55,68.69,68.55,68.69,300,65.534
2010-08-13,69.08,69.08,68.55,68.55,200,65.40
2010-08-12,68.57,68.57,68.57,68.57,200,65.419
2010-08-11,70.70,71.21,70.70,71.21,100,67.938
2010-08-10,72.40,72.40,72.36,72.36,1000,69.035
2010-08-09,71.38,71.38,71.23,71.23,5100,67.957
2010-08-06,72.37,72.37,72.37,72.37,000,69.045
2010-08-05,72.37,72.37,72.37,72.37,000,69.045
2010-08-04,72.37,72.37,72.37,72.37,100,69.045
2010-08-03,72.82,72.82,72.82,72.82,000,69.474
2010-08-02,72.37,72.37,72.37,72.37,000,69.045
2010-07-30,72.46,72.46,72.37,72.37,100,69.045
2010-07-29,73.20,73.20,73.20,73.20,300,69.836
2010-07-28,73.19,73.19,73.19,73.19,000,69.827
2010-07-27,73.37,73.37,73.19,73.19,3000,69.827
2010-07-26,73.28,73.28,73.28,73.28,200,69.913
2010-07-23,70.10,70.10,70.10,70.10,000,66.879
2010-07-22,70.10,70.10,70.10,70.10,700,66.879
2010-07-21,70.18,70.18,70.18,70.18,000,66.955
2010-07-20,70.18,70.18,70.18,70.18,000,66.955
2010-07-19,70.96,71.04,70.96,71.04,100,67.776
2010-07-16,72.51,72.56,72.50,72.50,300,69.169
2010-07-15,73.75,73.75,73.75,73.75,000,70.361
2010-07-14,73.75,73.75,73.75,73.75,300,70.361
2010-07-13,71.71,71.71,71.71,71.71,100,68.415
2010-07-12,71.20,71.20,71.20,71.20,000,67.928
2010-07-09,71.20,71.20,71.20,71.20,000,67.928
2010-07-08,71.30,71.30,70.51,70.51,200,67.27
2010-07-07,69.69,69.69,69.64,69.64,200,66.44
2010-07-06,71.34,71.34,71.27,71.27,400,67.995
2010-07-05,71.30,71.30,71.26,71.26,400,67.986
2010-07-02,72.11,72.11,71.48,71.48,100,68.195
2010-07-01,73.15,73.15,73.15,73.15,000,69.789
2010-06-30,73.32,73.32,73.32,73.32,000,69.951
2010-06-29,74.46,74.46,74.46,74.46,700,71.039
2010-06-28,74.52,74.52,74.52,74.52,000,71.096
2010-06-25,74.20,74.20,74.15,74.20,3000,70.79
2010-06-24,74.20,74.20,74.20,74.20,300,70.79
2010-06-23,75.24,75.24,74.84,74.84,200,71.401
2010-06-22,75.24,75.24,75.24,75.24,000,71.783
2010-06-21,77.00,77.13,77.00,77.13,200,73.586
2010-06-18,77.38,77.38,76.59,76.59,200,73.071
2010-06-17,77.67,77.67,77.53,77.62,300,74.053
2010-06-16,76.36,76.36,76.36,76.36,000,72.851
2010-06-15,76.36,76.36,76.36,76.36,000,72.851
2010-06-11,75.98,75.98,75.98,75.98,100,72.489
2010-06-10,74.49,74.49,74.49,74.49,000,71.067
2010-06-09,75.17,75.17,75.17,75.17,000,71.716
2010-06-08,76.61,76.61,76.04,76.50,200,72.985
2010-06-07,78.11,78.11,77.90,77.90,200,74.32
2010-06-04,78.55,78.55,78.55,78.55,000,74.941
2010-06-03,78.11,78.73,78.11,78.55,000,74.941
2010-06-02,77.75,77.88,77.75,77.88,200,74.301
2010-06-01,79.22,79.22,79.22,79.22,000,75.58
2010-05-31,79.22,79.22,79.22,79.22,000,75.58
2010-05-28,79.22,79.22,79.22,79.22,000,75.58
2010-05-27,78.60,78.60,77.71,77.71,100,74.139
2010-05-26,78.59,78.59,78.59,78.59,000,74.979
2010-05-25,78.64,78.64,78.64,78.64,000,75.026
2010-05-24,78.89,78.89,78.64,78.64,000,75.026
2010-05-21,78.24,78.25,77.41,77.41,1200,73.853
2010-05-20,79.76,79.76,79.76,79.76,000,76.095
2010-05-19,79.51,79.51,79.51,79.51,000,75.856
2010-05-18,79.51,79.51,79.51,79.51,000,75.856
2010-05-17,79.00,79.21,78.45,78.62,300,75.007
2010-05-14,80.23,80.77,80.23,80.77,300,77.059
2010-05-13,77.14,77.14,77.14,77.14,000,73.595
2010-05-12,77.12,77.14,77.12,77.14,200,73.595
2010-05-11,76.20,76.77,76.20,76.77,100,73.242
2010-05-10,75.85,75.85,75.85,75.85,000,72.365
2010-05-07,75.29,75.88,75.24,75.85,400,72.365
2010-05-06,77.14,77.14,77.14,77.14,000,73.595
2010-05-05,77.90,78.30,77.90,78.30,300,74.702
2010-05-04,79.15,79.15,79.15,79.15,2100,75.513
2010-05-03,78.76,78.76,78.76,78.76,000,75.141
2010-04-30,78.76,78.76,78.76,78.76,000,75.141
2010-04-29,78.60,78.77,78.60,78.76,23500,75.141
2010-04-28,78.70,78.86,78.70,78.86,400,75.236
2010-04-27,79.50,79.50,79.50,79.50,000,75.847
2010-04-23,79.49,79.49,79.49,79.49,500,75.837
2010-04-22,78.36,78.36,78.36,78.36,000,74.759
2010-04-21,78.16,78.16,78.16,78.16,000,74.569
2010-04-20,79.50,79.50,79.50,79.50,000,75.847
2010-04-19,77.35,77.35,77.35,77.35,000,73.796
2010-04-16,77.94,77.94,77.94,77.94,000,74.359
2010-04-15,79.50,79.50,79.50,79.50,000,75.847
2010-04-14,76.46,76.46,76.00,76.00,300,72.508
2010-04-13,75.69,75.90,75.60,75.90,2200,72.412
2010-04-12,75.16,79.50,75.16,75.16,000,71.706
2010-04-09,75.16,75.16,75.16,75.16,200,71.706
2010-04-08,75.85,75.85,75.13,75.13,400,71.678
2010-04-07,75.40,75.97,75.40,75.97,300,72.479
2010-04-06,74.44,74.44,74.44,74.44,000,71.019
2010-04-01,74.44,74.44,74.44,74.44,000,71.019
2010-03-31,74.41,74.41,74.41,74.41,000,70.991
2010-03-30,75.50,75.50,75.50,75.50,000,72.031
2010-03-29,75.50,75.50,75.50,75.50,100,72.031
2010-03-26,75.57,75.57,75.57,75.57,000,72.098
2010-03-25,75.86,75.86,75.57,75.57,200,72.098
2010-03-24,75.74,75.74,75.74,75.74,000,72.26
2010-03-23,74.83,74.83,74.83,74.83,000,71.392
2010-03-22,74.83,74.83,74.83,74.83,000,71.392
2010-03-19,74.83,74.83,74.83,74.83,000,71.392
2010-03-18,74.79,74.79,74.79,74.79,000,71.353
2010-03-17,74.35,74.35,74.35,74.35,000,70.934
2010-03-16,73.77,74.35,73.77,74.35,100,70.934
2010-03-15,73.75,73.75,73.75,73.75,000,70.361
2010-03-12,73.75,73.75,73.75,73.75,000,70.361
2010-03-11,74.31,74.31,73.75,73.75,200,70.361
2010-03-10,73.77,73.77,73.77,73.77,000,70.38
2010-03-09,73.82,73.82,73.77,73.77,100,70.38
2010-03-08,72.90,72.90,72.90,72.90,200,69.55
2010-03-05,72.29,72.29,72.29,72.29,000,68.968
2010-03-04,72.29,72.29,72.29,72.29,000,68.968
2010-03-03,71.51,71.51,71.51,71.51,000,68.224
2010-03-02,71.82,71.82,71.82,71.82,000,68.52
2010-03-01,70.28,70.28,70.28,70.28,000,67.051
2010-02-26,70.28,70.28,70.28,70.28,000,67.051
2010-02-25,70.28,70.28,70.28,70.28,000,67.051
2010-02-24,70.76,70.76,70.76,70.76,000,67.509
2010-02-23,70.76,70.76,70.76,70.76,000,67.509
2010-02-22,70.04,70.04,70.04,70.04,000,66.822
2010-02-19,70.55,70.55,70.55,70.55,000,67.308
2010-02-18,70.23,70.23,70.23,70.23,000,67.003
2010-02-17,68.91,68.91,68.91,68.91,000,65.744
2010-02-16,69.49,69.49,69.49,69.49,000,66.297
2010-02-15,67.73,67.73,67.73,67.73,000,64.618
2010-02-12,67.73,67.73,67.73,67.73,000,64.618
2010-02-11,67.73,67.73,67.73,67.73,000,64.618
2010-02-10,67.73,67.73,67.73,67.73,000,64.618
2010-02-09,68.44,68.44,67.73,67.73,000,64.618
2010-02-08,68.05,68.05,68.05,68.05,000,64.923
2010-02-05,67.90,67.90,67.90,67.90,000,64.78
2010-02-04,66.58,66.58,66.58,66.58,000,63.521
2010-02-03,66.58,66.58,66.58,66.58,000,63.521
2010-02-02,67.90,67.90,67.90,67.90,000,64.78
2010-02-01,67.84,67.90,67.84,67.90,000,64.78
2010-01-29,66.58,66.58,66.58,66.58,000,63.521
2010-01-28,66.58,66.58,66.58,66.58,000,63.521
2010-01-27,68.29,68.29,68.29,68.29,000,65.152
2010-01-25,68.83,68.83,68.83,68.83,300,65.667
2010-01-22,66.58,66.58,66.58,66.58,000,63.521
2010-01-21,66.58,66.58,66.58,66.58,000,63.521
2010-01-20,66.58,66.58,66.58,66.58,000,63.521
2010-01-19,69.12,69.12,68.98,69.12,300,65.944
2010-01-18,69.44,69.44,69.13,69.13,100,65.953
2010-01-15,66.58,66.58,66.58,66.58,000,63.521
2010-01-14,66.58,66.58,66.58,66.58,000,63.521
2010-01-13,66.58,66.58,66.58,66.58,000,63.521
2010-01-12,69.54,69.54,69.54,69.54,100,66.345
2010-01-11,70.11,70.11,70.11,70.11,000,66.888
2010-01-08,70.11,70.11,70.11,70.11,000,66.888
2010-01-07,70.11,70.11,70.11,70.11,000,66.888
2010-01-06,70.11,70.11,70.11,70.11,000,66.888
2010-01-05,70.11,70.11,70.11,70.11,100,66.888
2010-01-04,71.22,71.22,71.22,71.22,000,67.947
2009-12-31,71.22,71.22,71.22,71.22,000,67.947
2009-12-30,71.22,71.22,71.22,71.22,200,67.947
2009-12-29,72.12,72.12,72.12,72.12,000,68.806
2009-12-24,72.12,72.12,72.12,72.12,000,68.806
2009-12-23,69.51,69.51,69.51,69.51,000,66.316
2009-12-22,69.51,69.51,69.51,69.51,000,66.316
2009-12-21,69.24,69.51,69.24,69.51,500,66.316
2009-12-18,68.46,68.46,68.46,68.46,000,65.314
2009-12-17,68.66,69.08,68.21,69.08,200,65.906
2009-12-16,68.20,68.20,68.20,68.20,000,65.066
2009-12-15,63.28,63.28,63.28,63.28,000,60.372
2009-12-14,63.28,63.28,63.28,63.28,000,60.372
2009-12-11,63.28,63.28,63.28,63.28,000,60.372
2009-12-10,63.28,63.28,63.28,63.28,000,60.372
2009-12-09,63.28,63.28,63.28,63.28,000,60.372
2009-12-08,63.28,63.28,63.28,63.28,000,60.372
2009-12-07,63.28,63.28,63.28,63.28,000,60.372
2009-12-04,64.70,64.70,64.29,64.29,400,61.336
2009-12-03,64.10,64.10,64.10,64.10,000,61.155
2009-12-02,64.10,64.10,64.10,64.10,000,61.155
2009-12-01,63.12,63.12,63.12,63.12,200,60.22
2009-11-30,64.09,64.09,64.09,64.09,000,61.145
2009-11-27,64.09,64.09,64.09,64.09,200,61.145
2009-11-26,64.55,64.55,64.55,64.55,000,61.584
2009-11-25,64.55,64.55,64.55,64.55,400,61.584
2009-11-24,64.52,64.52,64.52,64.52,000,61.555
2009-11-23,64.52,64.52,64.52,64.52,000,61.555
2009-11-20,64.88,64.88,64.88,64.88,000,61.899
2009-11-19,64.88,64.88,64.88,64.88,000,61.899
2009-11-18,64.88,64.88,64.88,64.88,300,61.899
2009-11-17,64.77,64.77,64.77,64.77,000,61.794
2009-11-16,61.18,69.88,61.18,61.18,000,58.369
2009-11-13,63.72,63.72,63.72,63.72,000,60.792
2009-11-12,63.72,63.72,63.72,63.72,000,60.792
2009-11-11,63.72,63.72,63.72,63.72,100,60.792
2009-11-10,63.56,63.67,63.56,63.67,400,60.744
2009-11-09,63.06,63.06,62.86,62.86,000,59.972
2009-11-06,63.70,63.70,63.06,63.06,1500,60.162
2009-11-05,63.04,63.04,61.62,61.62,2400,58.789
2009-11-04,63.46,63.46,63.43,63.43,2000,60.515
2009-11-03,62.05,62.86,62.05,62.86,900,59.972
2009-11-02,62.85,63.18,62.67,62.67,1900,59.79
2009-10-30,64.73,64.73,64.73,64.73,000,61.756
2009-10-29,64.73,64.73,64.73,64.73,000,61.756
2009-10-28,64.88,64.88,64.73,64.73,200,61.756
2009-10-27,64.88,69.88,64.88,64.88,000,61.899
2009-10-26,65.28,65.28,65.28,65.28,000,62.28
2009-10-23,67.41,67.41,67.41,67.41,000,64.312
2009-10-22,67.41,67.41,67.41,67.41,000,64.312
2009-10-21,67.41,67.41,67.41,67.41,000,64.312
2009-10-20,67.41,67.41,67.41,67.41,000,64.312
2009-10-19,67.56,67.56,67.41,67.41,100,64.312
2009-10-16,67.82,67.82,67.82,67.82,000,64.704
2009-10-15,68.07,68.07,68.07,68.07,000,64.942
2009-10-14,68.07,68.07,68.07,68.07,000,64.942
2009-10-13,68.43,68.43,68.43,68.43,000,65.286
2009-10-12,68.37,68.43,68.37,68.43,100,65.286
2009-10-09,68.07,68.07,68.07,68.07,000,64.942
2009-10-08,68.07,68.07,68.07,68.07,000,64.942
2009-10-07,68.07,68.07,68.07,68.07,000,64.942
2009-10-06,68.88,68.88,68.88,68.88,000,65.715
2009-10-05,68.88,68.88,68.88,68.88,000,65.715
2009-10-02,68.88,68.88,68.88,68.88,000,65.715
2009-10-01,68.88,68.88,68.88,68.88,100,65.715
2009-09-30,68.88,68.88,68.88,68.88,000,65.715
2009-09-29,70.41,70.41,70.41,70.41,100,67.175
2009-09-28,68.88,68.88,68.88,68.88,000,65.715
2009-09-25,68.88,68.88,68.88,68.88,000,65.715
2009-09-24,70.80,70.80,70.80,70.80,100,67.547
2009-09-23,68.88,68.88,68.88,68.88,000,65.715
2009-09-22,68.88,68.88,68.88,68.88,000,65.715
2009-09-21,71.39,71.67,71.06,71.67,700,68.377
2009-09-18,71.37,71.37,71.37,71.37,000,68.091
2009-09-17,68.88,68.88,68.88,68.88,000,65.715
2009-09-16,70.48,70.48,70.48,70.48,000,67.241
2009-09-15,68.88,68.88,68.88,68.88,000,65.715
2009-09-14,69.32,69.35,69.32,69.35,200,66.163
2009-09-11,69.67,69.93,69.67,69.93,3300,66.717
2009-09-10,68.90,68.93,68.87,68.93,300,65.763
2009-09-09,67.36,67.36,67.36,67.36,100,64.265
2009-09-08,67.40,67.40,67.32,67.38,400,64.284
2009-09-07,67.28,67.29,67.28,67.29,800,64.198
2009-09-04,67.46,67.46,67.34,67.37,1600,64.274
2009-09-03,67.19,67.33,67.16,67.33,700,64.236
2009-09-02,67.91,67.91,67.89,67.89,500,64.77
2009-09-01,68.76,68.76,68.72,68.72,1100,65.562
2009-08-31,69.17,69.17,69.17,69.17,000,65.992
2009-08-28,69.98,70.00,69.98,70.00,200,66.783
2009-08-27,71.00,71.00,70.82,70.82,100,67.566
2009-08-26,69.42,69.42,69.42,69.42,000,66.23
2009-08-25,69.42,69.42,69.42,69.42,000,66.23
2009-08-24,69.98,69.98,69.98,69.98,000,66.764
2009-08-21,69.98,69.98,69.98,69.98,000,66.764
2009-08-20,69.98,69.98,69.98,69.98,000,66.764
2009-08-19,67.36,67.36,67.36,67.36,000,64.265
2009-08-18,67.36,67.36,67.36,67.36,000,64.265
2009-08-17,68.26,68.26,68.26,68.26,000,65.123
2009-08-14,68.26,68.26,68.26,68.26,000,65.123
2009-08-13,68.43,68.43,68.43,68.43,000,65.286
2009-08-12,66.99,66.99,66.99,66.99,000,63.912
2009-08-11,66.99,66.99,66.99,66.99,000,63.912
2009-08-10,66.99,66.99,66.99,66.99,000,63.912
2009-08-07,67.02,67.02,66.99,66.99,100,63.912
2009-08-06,67.87,67.87,67.87,67.87,000,64.751
2009-08-05,67.87,67.87,67.87,67.87,000,64.751
2009-08-04,67.87,67.87,67.87,67.87,000,64.751
2009-08-03,67.87,67.87,67.87,67.87,000,64.751
2009-07-31,68.07,68.07,67.87,67.87,200,64.751
2009-07-30,64.95,64.95,64.95,64.95,000,61.966
2009-07-29,64.95,64.95,64.95,64.95,000,61.966
2009-07-28,64.95,64.95,64.95,64.95,000,61.966
2009-07-27,64.95,64.95,64.95,64.95,000,61.966
2009-07-24,64.95,64.95,64.95,64.95,000,61.966
2009-07-23,64.95,64.95,64.95,64.95,000,61.966
2009-07-22,64.95,64.95,64.95,64.95,100,61.966
2009-07-21,65.07,65.07,65.07,65.07,000,62.08
2009-07-20,64.51,64.51,64.51,64.51,000,61.546
2009-07-17,64.51,64.51,64.51,64.51,000,61.546
2009-07-16,64.51,64.51,64.51,64.51,000,61.546
2009-07-15,62.01,62.01,62.01,62.01,000,59.161
2009-07-14,62.01,62.01,62.01,62.01,000,59.161
2009-07-13,62.01,62.01,62.01,62.01,000,59.161
2009-07-10,62.01,62.01,62.01,62.01,000,59.161
2009-07-09,62.00,62.01,62.00,62.01,300,59.161
2009-07-08,62.18,62.18,62.18,62.18,000,59.323
2009-07-07,64.20,64.20,64.20,64.20,000,61.25
2009-07-06,64.20,64.20,64.20,64.20,000,61.25
2009-07-03,64.20,64.20,64.20,64.20,000,61.25
2009-07-02,64.20,64.20,64.20,64.20,200,61.25
2009-07-01,63.08,63.08,63.08,63.08,000,60.181
2009-06-30,63.08,63.08,63.08,63.08,000,60.181
2009-06-29,63.08,63.08,63.08,63.08,000,60.181
2009-06-26,63.08,63.08,63.08,63.08,000,60.181
2009-06-25,63.08,63.08,63.08,63.08,000,60.181
2009-06-24,63.08,63.08,63.08,63.08,000,60.181
2009-06-23,63.02,63.08,63.02,63.08,000,60.181
2009-06-22,63.70,63.70,63.70,63.70,000,60.773
2009-06-19,64.00,64.00,63.70,63.70,100,60.773
2009-06-18,64.58,64.58,64.58,64.58,200,61.613
2009-06-17,64.90,64.90,64.90,64.90,000,61.918
2009-06-16,64.90,68.88,64.90,64.90,000,61.918
2009-06-15,64.90,68.88,64.90,64.90,000,61.918
2009-06-12,64.80,68.88,64.80,64.80,000,61.822
2009-06-11,65.55,65.55,65.55,65.55,000,62.538
2009-06-10,65.55,65.55,65.55,65.55,000,62.538
2009-06-09,65.55,65.55,65.55,65.55,000,62.538
2009-06-05,65.55,65.55,65.55,65.55,000,62.538
2009-06-04,65.55,65.55,65.55,65.55,100,62.538
2009-06-03,63.96,63.96,63.96,63.96,100,61.021
2009-06-02,61.66,61.66,61.66,61.66,000,58.827
2009-06-01,61.66,61.66,61.66,61.66,000,58.827
2009-05-29,61.66,61.66,61.66,61.66,000,58.827
2009-05-28,61.66,61.66,61.66,61.66,000,58.827
2009-05-27,61.66,61.66,61.66,61.66,000,58.827
2009-05-26,61.66,61.66,61.66,61.66,000,58.827
2009-05-25,61.66,61.66,61.66,61.66,100,58.827
2009-05-22,66.50,66.50,66.50,66.50,000,63.444
2009-05-21,66.50,66.50,66.50,66.50,000,63.444
2009-05-20,66.50,66.50,66.50,66.50,000,63.444
2009-05-19,66.50,66.50,66.50,66.50,000,63.444
2009-05-18,66.50,66.50,66.50,66.50,000,63.444
2009-05-15,66.50,66.50,66.50,66.50,000,63.444
2009-05-14,66.50,66.50,66.50,66.50,000,63.444
2009-05-13,66.50,66.50,66.50,66.50,000,63.444
2009-05-12,66.54,66.60,66.50,66.50,600,63.444
2009-05-11,67.92,67.92,67.92,67.92,000,64.799
2009-05-08,67.92,67.92,67.92,67.92,000,64.799
2009-05-07,67.92,67.92,67.92,67.92,000,64.799
2009-05-06,68.33,68.33,67.72,67.92,1600,64.799
2009-05-05,68.54,68.64,68.54,68.64,500,65.486
2009-05-04,67.00,67.00,67.00,67.00,000,63.921
2009-05-01,68.51,68.51,68.51,68.51,000,65.362
2009-04-30,68.51,68.51,68.51,68.51,000,65.362
2009-04-29,66.02,66.02,66.02,66.02,000,62.986
2009-04-28,66.02,66.02,66.02,66.02,000,62.986
2009-04-27,65.96,66.02,65.96,66.02,200,62.986
2009-04-24,66.38,66.38,66.38,66.38,000,63.33
2009-04-23,66.38,66.38,66.38,66.38,000,63.33
2009-04-22,66.18,66.54,66.18,66.54,000,63.482
2009-04-21,66.18,66.18,66.18,66.18,000,63.139
2009-04-20,66.14,66.14,66.14,66.14,100,63.101
2009-04-17,63.68,63.68,63.68,63.68,000,60.754
2009-04-16,63.83,63.83,63.68,63.68,100,60.754
2009-04-15,63.29,63.29,63.29,63.29,000,60.382
2009-04-14,63.29,63.29,63.29,63.29,000,60.382
2009-04-09,62.84,62.84,62.84,62.84,100,59.952
2009-04-08,63.41,63.41,63.41,63.41,000,60.496
2009-04-07,63.85,63.85,63.41,63.41,100,60.496
2009-04-06,63.85,64.34,63.85,63.85,000,60.916
2009-04-03,63.00,63.00,63.00,63.00,200,60.105
2009-04-02,61.80,61.80,61.80,61.80,000,58.96
2009-04-01,60.85,60.85,60.85,60.85,200,58.054
2009-03-31,60.81,60.81,60.81,60.81,000,58.016
2009-03-30,61.86,61.86,61.86,61.86,000,59.018
2009-03-27,63.16,63.49,62.91,62.94,3300,60.048
2009-03-26,61.54,61.54,61.54,61.54,000,58.712
2009-03-25,62.16,62.16,62.16,62.16,000,59.304
2009-03-24,61.83,62.16,61.83,62.16,400,59.304
2009-03-23,61.64,61.64,61.64,61.64,000,58.808
2009-03-20,61.64,61.64,61.64,61.64,000,58.808
2009-03-19,61.64,61.64,61.64,61.64,000,58.808
2009-03-18,61.64,61.64,61.64,61.64,000,58.808
2009-03-17,59.58,59.58,59.58,59.58,000,56.842
2009-03-16,60.23,60.23,60.23,60.23,000,57.462
2009-03-13,60.23,60.23,60.23,60.23,000,57.462
2009-03-12,57.12,57.12,57.12,57.12,000,54.495
2009-03-11,56.86,57.12,56.86,57.12,300,54.495
2009-03-10,54.67,54.67,54.67,54.67,100,52.158
2009-03-09,55.44,55.44,55.44,55.44,000,52.893
2009-03-06,55.55,55.55,55.44,55.44,100,52.893
2009-03-05,55.88,77.77,55.88,55.88,000,53.312
2009-03-04,57.73,57.73,57.73,57.73,500,55.077
2009-03-03,65.15,65.15,65.15,65.15,000,62.156
2009-03-02,65.15,65.15,65.15,65.15,000,62.156
2009-02-27,65.15,65.15,65.15,65.15,000,62.156
2009-02-26,65.15,65.15,65.15,65.15,000,62.156
2009-02-25,65.15,65.15,65.15,65.15,000,62.156
2009-02-24,65.17,65.17,65.17,65.17,000,62.175
2009-02-23,65.17,65.17,65.17,65.17,000,62.175
2009-02-20,65.17,65.17,65.17,65.17,000,62.175
2009-02-19,69.05,69.05,69.05,69.05,000,65.877
2009-02-18,69.05,69.05,69.05,69.05,000,65.877
2009-02-17,69.05,69.05,69.05,69.05,000,65.877
2009-02-16,69.05,69.05,69.05,69.05,000,65.877
2009-02-13,69.05,69.05,69.05,69.05,000,65.877
2009-02-12,69.05,69.05,69.05,69.05,000,65.877
2009-02-11,69.05,69.05,69.05,69.05,000,65.877
2009-02-10,68.80,69.07,68.80,69.05,2200,65.877
2009-02-09,70.30,70.30,70.30,70.30,000,67.07
2009-02-06,70.30,70.30,70.30,70.30,000,67.07
2009-02-05,70.30,70.30,70.30,70.30,000,67.07
2009-02-04,70.38,70.38,70.38,70.38,000,67.146
2009-02-03,70.38,70.38,70.38,70.38,000,67.146
2009-02-02,70.38,70.38,70.38,70.38,000,67.146
2009-01-30,70.02,70.36,70.02,70.36,1400,67.127
2009-01-29,65.17,77.77,65.17,65.17,000,62.175
2009-01-28,65.17,77.77,65.17,65.17,000,62.175
2009-01-27,65.17,77.77,65.17,65.17,000,62.175
2009-01-23,67.37,67.37,67.37,67.37,000,64.274
2009-01-22,65.17,77.77,65.17,65.17,000,62.175
2009-01-21,67.00,67.00,66.90,66.90,200,63.826
2009-01-20,69.65,69.65,69.65,69.65,000,66.45
2009-01-19,69.65,69.65,69.65,69.65,000,66.45
2009-01-16,69.65,69.65,69.65,69.65,000,66.45
2009-01-15,70.00,70.00,70.00,70.00,000,66.783
2009-01-14,70.00,70.00,70.00,70.00,000,66.783
2009-01-13,70.00,70.00,70.00,70.00,000,66.783
2009-01-12,70.00,70.00,70.00,70.00,000,66.783
2009-01-09,70.33,70.33,70.33,70.33,000,67.098
2009-01-08,70.33,70.33,70.33,70.33,100,67.098
2009-01-07,71.53,71.53,71.53,71.53,000,68.243
2009-01-06,69.39,69.39,69.39,69.39,000,66.202
2009-01-05,69.39,69.39,69.39,69.39,000,66.202
2009-01-02,69.39,69.39,69.39,69.39,000,66.202
2008-12-31,69.39,69.39,69.39,69.39,000,66.202
2008-12-30,69.39,69.39,69.39,69.39,000,66.202
2008-12-29,69.39,69.39,69.39,69.39,000,66.202
2008-12-24,69.39,69.39,69.39,69.39,000,66.202
2008-12-23,70.30,70.30,70.30,70.30,000,67.07
2008-12-22,70.30,70.30,70.30,70.30,000,67.07
2008-12-19,70.18,70.30,70.17,70.30,500,67.07
2008-12-18,72.67,72.67,72.67,72.67,000,69.331
2008-12-17,72.67,72.67,72.67,72.67,000,69.331
2008-12-16,72.67,72.67,72.67,72.67,000,69.331
2008-12-15,70.85,72.10,70.85,70.85,000,67.594
2008-12-12,72.67,72.67,72.67,72.67,000,69.331
2008-12-11,72.76,72.84,72.66,72.67,1800,69.331
2008-12-10,71.97,73.82,71.97,71.97,000,68.663
2008-12-09,72.19,73.53,72.19,72.19,000,68.873
2008-12-08,71.72,71.72,71.72,71.72,000,68.424
2008-12-05,69.09,69.25,69.09,69.23,400,66.049
2008-12-04,69.73,69.74,69.71,69.71,400,66.507
2008-12-03,68.18,68.70,68.18,68.18,000,65.047
2008-12-02,71.04,71.04,71.04,71.04,000,67.776
2008-12-01,71.96,73.02,71.96,71.96,000,68.653
2008-11-28,71.24,71.61,71.24,71.24,000,67.966
2008-11-27,71.04,71.04,71.04,71.04,000,67.776
2008-11-26,67.42,68.16,67.42,67.42,000,64.322
2008-11-25,66.85,67.93,66.85,66.85,000,63.778
2008-11-24,64.12,65.44,64.12,64.12,000,61.174
2008-11-21,63.16,75.80,63.16,63.16,000,60.258
2008-11-20,65.17,65.17,65.17,65.17,000,62.175
2008-11-19,69.53,69.53,69.53,69.53,000,66.335
2008-11-18,69.33,69.98,69.33,69.33,000,66.144
2008-11-17,69.91,70.93,69.91,69.91,000,66.698
2008-11-14,70.65,74.53,70.65,70.65,000,67.404
2008-11-13,70.42,70.42,70.42,70.42,100,67.184
2008-11-12,78.66,78.66,78.66,78.66,000,75.046
2008-11-11,78.66,78.66,78.66,78.66,000,75.046
2008-11-10,78.66,78.66,78.66,78.66,000,75.046
2008-11-07,78.66,78.66,78.66,78.66,000,75.046
2008-11-06,75.37,76.48,75.37,75.37,000,71.907
2008-11-05,78.59,78.66,78.59,78.66,600,75.046
2008-11-04,74.80,74.80,74.80,74.80,000,71.363
2008-11-03,74.80,74.80,74.80,74.80,000,71.363
2008-10-31,75.99,77.97,75.99,75.99,000,72.498
2008-10-30,71.91,76.45,71.91,71.91,000,68.606
2008-10-29,73.41,74.86,73.41,74.80,600,71.363
2008-10-28,76.60,76.60,76.60,76.60,000,73.08
2008-10-27,73.90,76.50,73.90,73.90,000,70.504
2008-10-24,76.60,76.60,76.60,76.60,000,73.08
2008-10-23,76.69,76.69,76.60,76.60,100,73.08
2008-10-22,79.60,79.60,79.60,79.60,000,75.942
2008-10-21,78.04,79.18,78.04,78.04,000,74.454
2008-10-20,75.51,76.11,75.51,76.11,000,72.613
2008-10-17,78.42,78.42,78.42,78.42,000,74.817
2008-10-16,75.24,75.24,75.24,75.24,000,71.783
2008-10-15,82.94,82.94,82.94,82.94,000,79.129
2008-10-14,82.94,82.94,82.94,82.94,100,79.129
2008-10-13,78.67,78.67,78.67,78.67,000,75.055
2008-10-10,75.66,75.66,72.85,72.85,200,69.503
2008-10-09,78.01,81.18,78.01,78.01,000,74.425
2008-10-08,79.70,79.78,79.70,79.78,300,76.114
2008-10-07,82.66,82.66,82.15,82.15,800,78.375
2008-10-06,81.43,81.43,81.32,81.32,400,77.583
2008-10-03,82.75,82.75,82.75,82.75,000,78.948
2008-10-02,84.98,84.98,83.58,83.58,300,79.739
2008-10-01,84.89,84.89,84.89,84.89,000,80.989
2008-09-30,83.26,83.26,83.26,83.26,500,79.434
2008-09-29,85.25,85.25,84.99,84.99,600,81.085
2008-09-26,82.99,84.87,82.99,82.99,000,79.177
2008-09-25,82.60,85.09,82.60,82.60,000,78.804
2008-09-24,86.10,86.10,86.10,86.10,500,82.144
2008-09-23,86.10,86.75,86.10,86.10,000,82.144
2008-09-22,89.09,89.09,89.09,89.09,000,84.996
2008-09-19,91.74,91.74,91.74,91.74,000,87.525
2008-09-18,86.27,86.27,86.27,86.27,000,82.306
2008-09-17,88.65,88.65,88.65,88.65,000,84.576
2008-09-16,85.94,86.27,85.80,86.27,200,82.306
2008-09-15,85.54,85.54,85.54,85.54,100,81.609
2008-09-12,89.11,89.59,89.11,89.11,000,85.015
2008-09-11,89.93,89.93,89.93,89.93,000,85.798
2008-09-10,88.62,88.62,88.62,88.62,000,84.548
2008-09-09,91.00,91.00,91.00,91.00,000,86.819
2008-09-08,88.31,88.31,88.31,88.31,000,84.252
2008-09-05,87.65,87.65,87.63,87.63,2600,83.603
2008-09-04,89.39,89.39,89.39,89.39,000,85.282
2008-09-03,89.46,89.46,89.46,89.46,000,85.349
2008-09-02,86.98,86.98,86.98,86.98,000,82.983
2008-09-01,86.60,86.60,86.60,86.60,000,82.621
2008-08-29,85.62,85.62,85.62,85.62,000,81.686
2008-08-28,84.50,84.50,84.50,84.50,000,80.617
2008-08-27,83.69,83.69,83.69,83.69,000,79.844
2008-08-26,84.28,84.28,84.28,84.28,000,80.407
2008-08-25,84.70,84.70,84.70,84.70,000,80.808
2008-08-22,81.61,82.30,81.61,81.61,000,77.86
2008-08-21,85.20,85.20,85.20,85.20,000,81.285
2008-08-20,83.41,84.07,83.41,83.41,000,79.577
2008-08-19,85.36,85.99,85.36,85.36,000,81.438
2008-08-18,86.00,86.47,86.00,86.00,000,82.048
2008-08-15,87.01,87.93,87.01,87.01,000,83.012
2008-08-14,85.46,85.46,85.46,85.46,000,81.533
2008-08-13,86.08,86.08,86.08,86.08,000,82.125
2008-08-12,84.94,85.43,84.94,85.43,100,81.504
2008-08-11,82.30,82.30,82.30,82.30,000,78.518
2008-08-08,79.48,80.34,79.48,79.48,000,75.828
2008-08-07,79.42,79.42,79.42,79.42,200,75.771
2008-08-06,78.12,78.12,78.12,78.12,000,74.53
2008-08-05,76.06,76.06,76.06,76.06,100,72.565
2008-08-04,76.96,76.96,76.96,76.96,000,73.424
2008-08-01,76.21,76.21,76.21,76.21,000,72.708
2008-07-31,75.45,75.45,75.45,75.45,000,71.983
2008-07-30,74.82,75.43,74.82,74.82,000,71.382
2008-07-29,72.61,72.61,72.61,72.61,000,69.274
2008-07-28,74.23,74.23,74.23,74.23,000,70.819
2008-07-25,72.81,73.33,72.81,72.81,000,69.464
2008-07-24,74.55,74.55,74.55,74.55,000,71.124
2008-07-23,73.17,73.17,73.17,73.17,000,69.808
2008-07-22,70.93,70.93,70.93,70.93,000,67.671
2008-07-21,70.60,70.60,70.60,70.60,000,67.356
2008-07-18,70.73,70.73,70.73,70.73,000,67.48
2008-07-17,69.49,69.49,69.49,69.49,000,66.297
2008-07-16,67.27,67.27,67.27,67.27,000,64.179
2008-07-15,68.47,68.47,68.47,68.47,100,65.324
2008-07-14,70.23,70.23,70.23,70.23,000,67.003
2008-07-11,69.24,69.24,69.24,69.24,000,66.058
2008-07-10,69.10,69.10,69.10,69.10,000,65.925
2008-07-09,71.33,71.33,71.33,71.33,000,68.052
2008-07-08,68.49,68.49,68.49,68.49,000,65.343
2008-07-07,69.29,69.29,69.29,69.29,000,66.106
2008-07-04,69.42,69.42,69.42,69.42,400,66.23
2008-07-03,69.80,69.83,69.78,69.83,300,66.621
2008-07-02,72.12,72.12,72.12,72.12,100,68.806
2008-07-01,72.07,72.26,72.07,72.07,000,68.758
2008-06-30,72.93,72.93,72.90,72.90,000,69.55
2008-06-27,73.32,73.32,73.32,73.32,000,69.951
2008-06-26,74.61,74.61,74.61,74.61,000,71.182
2008-06-25,73.91,73.91,73.91,73.91,300,70.514
2008-06-24,75.23,75.23,75.23,75.23,100,71.773
2008-06-23,76.61,76.61,76.61,76.61,000,73.09
2008-06-20,77.01,77.60,77.01,77.01,000,73.471
2008-06-19,77.22,77.22,77.22,77.22,000,73.672
2008-06-18,78.17,78.17,78.17,78.17,100,74.578
2008-06-17,78.65,78.65,78.65,78.65,000,75.036
2008-06-16,77.77,77.77,77.77,77.77,000,74.196
2008-06-13,76.62,76.62,76.60,76.60,300,73.08
2008-06-12,76.80,76.80,76.80,76.80,000,73.271
2008-06-11,77.32,77.32,77.32,77.32,000,73.767
2008-06-10,79.24,79.24,79.24,79.24,000,75.599
2008-06-06,79.24,79.24,79.24,79.24,000,75.599
2008-06-05,78.31,78.31,78.31,78.31,000,74.712
2008-06-04,77.53,77.53,77.53,77.53,000,73.967
2008-06-03,77.57,77.57,77.57,77.57,400,74.006
2008-06-02,78.26,78.26,78.26,78.26,100,74.664
2008-05-30,77.99,77.99,77.99,77.99,100,74.406
2008-05-29,76.60,76.60,76.60,76.60,000,73.08
2008-05-28,76.30,76.30,76.30,76.30,000,72.794
2008-05-27,75.31,75.31,75.31,75.31,000,71.849
2008-05-26,75.31,75.31,75.31,75.31,000,71.849
2008-05-23,76.64,76.64,76.64,76.64,100,73.118
2008-05-22,75.92,75.92,75.92,75.92,000,72.431
2008-05-21,76.92,76.92,76.92,76.92,200,73.385
2008-05-20,77.33,77.33,77.33,77.33,000,73.777
2008-05-19,77.33,77.33,77.33,77.33,000,73.777
2008-05-16,78.84,78.96,78.84,78.96,200,75.332
2008-05-15,78.50,78.50,78.50,78.50,000,74.893
2008-05-14,78.66,78.66,78.52,78.52,000,74.912
2008-05-13,77.27,77.27,77.27,77.27,000,73.719
2008-05-12,76.26,76.26,76.26,76.26,000,72.756
2008-05-09,76.26,76.26,76.26,76.26,000,72.756
2008-05-08,76.74,76.74,76.74,76.74,000,73.214
2008-05-07,77.21,77.21,77.21,77.21,100,73.662
2008-05-06,76.80,76.80,76.80,76.80,000,73.271
2008-05-05,76.65,76.65,76.65,76.65,000,73.128
2008-05-02,77.98,77.98,77.98,77.98,000,74.397
2008-05-01,76.47,76.47,76.47,76.47,000,72.956
2008-04-30,76.75,76.75,76.75,76.75,000,73.223
2008-04-29,77.11,77.11,77.11,77.11,000,73.567
2008-04-28,77.19,77.19,77.19,77.19,000,73.643
2008-04-24,74.62,74.62,74.62,74.62,000,71.191
2008-04-23,76.11,76.11,76.11,76.11,000,72.613
2008-04-22,76.11,76.11,76.11,76.11,000,72.613
2008-04-21,76.90,76.90,76.90,76.90,100,73.366
2008-04-18,76.30,76.30,76.30,76.30,000,72.794
2008-04-17,75.93,75.93,75.93,75.93,000,72.441
2008-04-16,74.63,74.63,74.63,74.63,000,71.201
2008-04-15,74.11,74.11,73.95,73.95,300,70.552
2008-04-14,74.78,74.78,74.78,74.78,000,71.344
2008-04-11,75.63,75.63,75.63,75.63,000,72.155
2008-04-10,76.30,76.30,74.62,74.62,600,71.191
2008-04-09,76.90,76.90,76.90,76.90,000,73.366
2008-04-08,76.60,76.60,76.60,76.60,000,73.08
2008-04-07,77.79,77.80,77.79,77.80,200,74.225
2008-04-04,77.94,77.94,77.94,77.94,000,74.359
2008-04-03,77.48,77.48,77.48,77.48,000,73.92
2008-04-02,77.50,77.50,77.50,77.50,000,73.939
2008-04-01,74.99,74.99,74.99,74.99,000,71.544
2008-03-31,74.89,74.89,74.89,74.89,000,71.449
2008-03-28,75.25,75.46,75.25,75.45,500,71.983
2008-03-27,75.35,75.35,75.35,75.35,000,71.888
2008-03-26,76.03,76.03,76.03,76.03,000,72.536
2008-03-25,76.88,76.88,76.88,76.88,000,73.347
2008-03-20,72.40,72.40,72.40,72.40,000,69.073
2008-03-19,72.74,72.74,72.74,72.74,000,69.398
2008-03-18,70.81,70.81,70.51,70.70,100,67.451
2008-03-17,70.26,70.26,69.92,69.95,300,66.736
2008-03-14,70.99,70.99,70.99,70.99,000,67.728
2008-03-13,70.66,70.66,70.66,70.66,400,67.413
2008-03-12,72.32,72.32,72.32,72.32,000,68.997
2008-03-11,69.85,69.88,69.83,69.83,300,66.621
2008-03-10,71.37,71.37,71.37,71.37,000,68.091
2008-03-07,71.37,71.37,71.37,71.37,000,68.091
2008-03-06,73.11,73.11,73.11,73.11,000,69.751
2008-03-05,73.58,73.58,73.58,73.58,000,70.199
2008-03-04,72.74,72.74,72.74,72.74,000,69.398
2008-03-03,73.44,73.44,73.44,73.44,000,70.065
2008-02-29,73.87,73.87,73.87,73.87,100,70.476
2008-02-28,75.31,75.31,75.31,75.31,100,71.849
2008-02-27,76.54,76.54,76.54,76.54,100,73.023
2008-02-26,75.98,75.98,75.98,75.98,000,72.489
2008-02-25,75.32,75.32,75.32,75.32,000,71.859
2008-02-22,75.95,75.95,75.95,75.95,000,72.46
2008-02-21,77.03,77.03,77.03,77.03,000,73.49
2008-02-20,77.00,77.00,77.00,77.00,000,73.462
2008-02-19,76.78,76.78,76.78,76.78,000,73.252
2008-02-18,76.79,76.79,76.79,76.79,000,73.261
2008-02-15,78.12,78.12,78.12,78.12,000,74.53
2008-02-14,77.99,77.99,77.99,77.99,000,74.406
2008-02-13,77.99,77.99,77.99,77.99,000,74.406
2008-02-12,77.33,77.33,77.33,77.33,000,73.777
2008-02-11,76.79,76.79,76.79,76.79,000,73.261
2008-02-08,78.54,78.54,78.54,78.54,400,74.931
2008-02-07,77.36,77.36,77.36,77.36,000,73.805
2008-02-06,78.38,78.38,78.38,78.38,000,74.778
2008-02-05,79.31,79.31,79.31,79.31,000,75.666
2008-02-04,80.77,80.80,80.77,80.80,400,77.087
2008-02-01,78.91,78.91,78.91,78.91,000,75.284
2008-01-31,76.98,76.98,76.98,76.98,000,73.443
2008-01-30,78.70,78.70,78.70,78.70,000,75.084
2008-01-29,79.02,79.02,79.02,79.02,000,75.389
2008-01-25,78.74,78.74,78.74,78.74,000,75.122
2008-01-24,79.37,79.37,79.37,79.37,000,75.723
2008-01-23,75.97,75.97,75.97,75.97,000,72.479
2008-01-22,74.37,74.37,74.37,74.37,000,70.953
2008-01-21,76.44,76.44,76.44,76.44,000,72.928
2008-01-18,78.34,78.34,78.34,78.34,000,74.74
2008-01-17,79.23,79.23,79.23,79.23,000,75.589
2008-01-16,78.53,78.53,78.53,78.53,000,74.922
2008-01-15,78.52,78.52,78.52,78.52,000,74.912
2008-01-14,78.57,78.57,78.57,78.57,000,74.96
2008-01-11,79.86,79.86,79.86,79.86,000,76.19
2008-01-10,80.28,80.28,80.28,80.28,000,76.591
2008-01-09,79.86,79.86,79.86,79.86,000,76.19
2008-01-08,82.14,82.14,82.14,82.14,000,78.366
2008-01-07,82.28,82.28,82.28,82.28,000,78.499
2008-01-04,84.41,84.41,84.41,84.41,100,80.531
2008-01-03,87.24,87.24,87.24,87.24,000,83.231
2008-01-02,87.24,87.24,87.24,87.24,000,83.231
2007-12-31,87.57,87.57,87.57,87.57,000,83.546
2007-12-28,89.39,89.39,89.39,89.39,000,85.282
2007-12-27,91.30,91.30,91.30,91.30,000,87.105
2007-12-24,91.10,91.10,91.10,91.10,000,86.914
2007-12-21,89.40,89.80,89.40,89.80,000,85.674
2007-12-20,88.29,88.29,88.29,88.29,000,84.233
2007-12-19,87.76,87.76,87.76,87.76,000,83.727
2007-12-18,86.46,86.46,86.46,86.46,000,82.487
2007-12-17,88.11,88.11,88.11,88.11,100,84.061
2007-12-14,87.94,87.94,87.94,87.94,000,83.899
2007-12-13,87.06,87.06,87.06,87.06,000,83.06
2007-12-12,87.00,87.56,87.00,87.00,000,83.002
2007-12-11,89.40,89.40,89.40,89.40,100,85.292
2007-12-10,89.42,89.50,89.42,89.50,800,85.387
2007-12-07,88.85,88.85,88.85,88.85,000,84.767
2007-12-06,88.67,88.67,88.67,88.67,000,84.596
2007-12-05,86.01,86.01,85.98,85.98,200,82.029
2007-12-04,86.73,86.73,86.73,86.73,100,82.745
2007-12-03,86.90,87.19,86.90,87.19,500,83.184
2007-11-30,86.65,86.65,86.65,86.65,000,82.668
2007-11-29,87.50,87.50,87.50,87.50,000,83.479
2007-11-28,84.78,84.94,84.32,84.32,200,80.445
2007-11-27,84.37,84.37,84.37,84.37,000,80.493
2007-11-26,86.38,86.38,86.38,86.38,000,82.411
2007-11-23,84.96,84.96,84.96,84.96,000,81.056
2007-11-22,85.50,85.50,85.50,85.50,000,81.571
2007-11-21,84.92,84.92,84.92,84.92,000,81.018
2007-11-20,85.19,86.07,85.19,86.07,200,82.115
2007-11-19,85.46,85.57,85.42,85.57,400,81.638
2007-11-16,87.00,87.00,87.00,87.00,000,83.002
2007-11-15,87.80,87.80,87.80,87.80,000,83.766
