Date,Open,High,Low,Close,Volume,Adj Close
2017-01-10,0.20,0.20,0.20,0.20,000,0.20
2017-01-09,0.20,0.20,0.20,0.20,000,0.20
2017-01-06,0.20,0.20,0.20,0.20,000,0.20
2017-01-05,0.20,0.20,0.20,0.20,000,0.20
2017-01-04,0.20,0.20,0.20,0.20,000,0.20
2017-01-03,0.20,0.20,0.20,0.20,000,0.20
2017-01-02,0.20,0.20,0.20,0.20,000,0.20
2016-12-30,0.20,0.20,0.20,0.20,000,0.20
2016-12-29,0.20,0.20,0.20,0.20,000,0.20
2016-12-28,0.20,0.20,0.20,0.20,000,0.20
2016-12-27,0.20,0.20,0.20,0.20,000,0.20
2016-12-26,0.20,0.20,0.20,0.20,000,0.20
2016-12-23,0.20,0.20,0.20,0.20,000,0.20
2016-12-22,0.20,0.20,0.20,0.20,000,0.20
2016-12-21,0.20,0.20,0.20,0.20,000,0.20
2016-12-20,0.20,0.20,0.20,0.20,000,0.20
2016-12-19,0.20,0.20,0.20,0.20,000,0.20
2016-12-16,0.20,0.20,0.20,0.20,000,0.20
2016-12-15,0.20,0.20,0.20,0.20,000,0.20
2016-12-14,0.20,0.20,0.20,0.20,000,0.20
2016-12-13,0.20,0.20,0.20,0.20,000,0.20
2016-12-12,0.20,0.20,0.20,0.20,000,0.20
2016-12-09,0.20,0.20,0.20,0.20,000,0.20
2016-12-08,0.20,0.20,0.20,0.20,000,0.20
2016-12-07,0.20,0.20,0.20,0.20,000,0.20
2016-12-06,0.20,0.20,0.20,0.20,000,0.20
2016-12-05,0.20,0.20,0.20,0.20,000,0.20
2016-12-02,0.20,0.20,0.20,0.20,000,0.20
2016-12-01,0.20,0.20,0.20,0.20,000,0.20
2016-11-30,0.20,0.20,0.20,0.20,000,0.20
2016-11-29,0.20,0.20,0.20,0.20,000,0.20
2016-11-28,0.20,0.20,0.20,0.20,2500,0.20
2016-11-25,0.20,0.20,0.20,0.20,000,0.20
2016-11-24,0.20,0.20,0.20,0.20,000,0.20
2016-11-23,0.20,0.20,0.20,0.20,000,0.20
2016-11-22,0.20,0.20,0.20,0.20,000,0.20
2016-11-21,0.20,0.20,0.20,0.20,000,0.20
2016-11-18,0.20,0.20,0.20,0.20,000,0.20
2016-11-17,0.20,0.20,0.20,0.20,000,0.20
2016-11-16,0.20,0.20,0.20,0.20,000,0.20
2016-11-15,0.20,0.20,0.20,0.20,000,0.20
2016-11-14,0.20,0.20,0.20,0.20,000,0.20
2016-11-11,0.20,0.20,0.20,0.20,000,0.20
2016-11-10,0.20,0.20,0.20,0.20,000,0.20
2016-11-09,0.20,0.20,0.20,0.20,000,0.20
2016-11-08,0.20,0.20,0.20,0.20,000,0.20
2016-11-07,0.20,0.20,0.20,0.20,000,0.20
2016-11-04,0.20,0.20,0.20,0.20,000,0.20
2016-11-03,0.20,0.20,0.20,0.20,000,0.20
2016-11-02,0.20,0.20,0.20,0.20,000,0.20
2016-11-01,0.20,0.20,0.20,0.20,000,0.20
2016-10-31,0.20,0.20,0.20,0.20,000,0.20
2016-10-28,0.20,0.20,0.20,0.20,000,0.20
2016-10-27,0.20,0.20,0.20,0.20,000,0.20
2016-10-26,0.20,0.20,0.20,0.20,000,0.20
2016-10-25,0.20,0.20,0.20,0.20,000,0.20
2016-10-24,0.20,0.20,0.20,0.20,000,0.20
2016-10-21,0.20,0.20,0.20,0.20,000,0.20
2016-10-20,0.20,0.20,0.20,0.20,000,0.20
2016-10-19,0.20,0.20,0.20,0.20,000,0.20
2016-10-18,0.20,0.20,0.20,0.20,000,0.20
2016-10-17,0.20,0.20,0.20,0.20,000,0.20
2016-10-14,0.20,0.20,0.20,0.20,000,0.20
2016-10-13,0.20,0.20,0.20,0.20,000,0.20
2016-10-12,0.20,0.20,0.20,0.20,000,0.20
2016-10-11,0.20,0.20,0.20,0.20,000,0.20
2016-10-10,0.20,0.20,0.20,0.20,000,0.20
2016-10-07,0.20,0.20,0.20,0.20,000,0.20
2016-10-06,0.20,0.20,0.20,0.20,000,0.20
2016-10-05,0.20,0.20,0.20,0.20,000,0.20
2016-10-04,0.20,0.20,0.20,0.20,000,0.20
2016-10-03,0.20,0.20,0.20,0.20,000,0.20
2016-09-30,0.20,0.20,0.20,0.20,000,0.20
2016-09-29,0.20,0.20,0.20,0.20,000,0.20
2016-09-28,0.20,0.20,0.20,0.20,000,0.20
2016-09-27,0.20,0.20,0.20,0.20,000,0.20
2016-09-26,0.20,0.20,0.20,0.20,12500,0.20
2016-09-23,0.175,0.175,0.175,0.175,370000,0.175
2016-09-22,0.17,0.17,0.17,0.17,202100,0.17
2016-09-21,0.17,0.17,0.17,0.17,300000,0.17
2016-09-20,0.165,0.165,0.165,0.165,75000,0.165
2016-09-19,0.16,0.16,0.16,0.16,000,0.16
2016-09-16,0.16,0.16,0.16,0.16,000,0.16
2016-09-15,0.16,0.16,0.16,0.16,290000,0.16
2016-09-14,0.16,0.16,0.16,0.16,000,0.16
2016-09-13,0.16,0.16,0.16,0.16,350000,0.16
2016-09-12,0.16,0.16,0.16,0.16,000,0.16
2016-09-09,0.16,0.16,0.16,0.16,303600,0.16
2016-09-08,0.16,0.16,0.16,0.16,000,0.16
2016-09-07,0.16,0.16,0.16,0.16,300000,0.16
2016-09-06,0.155,0.155,0.155,0.155,000,0.155
2016-09-05,0.15,0.155,0.15,0.155,510000,0.155
2016-09-02,0.145,0.15,0.145,0.15,400000,0.15
2016-09-01,0.18,0.18,0.14,0.14,771100,0.14
2016-08-31,0.19,0.19,0.19,0.19,330000,0.19
2016-08-30,0.20,0.20,0.20,0.20,100000,0.20
2016-08-29,0.20,0.20,0.20,0.20,50000,0.20
2016-08-26,0.195,0.195,0.195,0.195,000,0.195
2016-08-25,0.195,0.195,0.195,0.195,25000,0.195
2016-08-24,0.185,0.185,0.185,0.185,12500,0.185
2016-08-23,0.15,0.15,0.15,0.15,12500,0.15
2016-08-22,0.20,0.20,0.20,0.20,000,0.20
2016-08-19,0.20,0.20,0.20,0.20,000,0.20
2016-08-18,0.20,0.20,0.20,0.20,000,0.20
2016-08-17,0.20,0.20,0.20,0.20,000,0.20
2016-08-16,0.20,0.20,0.20,0.20,000,0.20
2016-08-15,0.20,0.20,0.20,0.20,000,0.20
2016-08-12,0.20,0.20,0.20,0.20,000,0.20
2016-08-11,0.20,0.20,0.20,0.20,000,0.20
2016-08-10,0.20,0.20,0.20,0.20,15000,0.20
2016-08-09,0.20,0.20,0.20,0.20,000,0.20
2016-08-08,0.20,0.20,0.20,0.20,000,0.20
2016-08-05,0.20,0.20,0.20,0.20,000,0.20
2016-08-04,0.20,0.20,0.20,0.20,000,0.20
2016-08-03,0.20,0.20,0.20,0.20,000,0.20
2016-08-02,0.20,0.20,0.20,0.20,000,0.20
2016-08-01,0.20,0.20,0.20,0.20,000,0.20
2016-07-29,0.20,0.20,0.20,0.20,000,0.20
2016-07-28,0.20,0.20,0.20,0.20,320000,0.20
2016-07-27,0.20,0.20,0.20,0.20,000,0.20
2016-07-26,0.20,0.20,0.20,0.20,000,0.20
2016-07-25,0.20,0.20,0.20,0.20,000,0.20
2016-07-22,0.20,0.20,0.20,0.20,000,0.20
2016-07-21,0.20,0.20,0.20,0.20,000,0.20
2016-07-20,0.20,0.20,0.20,0.20,000,0.20
2016-07-19,0.20,0.20,0.20,0.20,000,0.20
2016-07-18,0.20,0.20,0.20,0.20,000,0.20
2016-07-15,0.20,0.20,0.20,0.20,000,0.20
2016-07-14,0.20,0.20,0.20,0.20,40000,0.20
2016-07-13,0.20,0.20,0.20,0.20,10000,0.20
2016-07-12,0.20,0.20,0.20,0.20,000,0.20
2016-07-11,0.20,0.20,0.20,0.20,000,0.20
2016-07-08,0.20,0.20,0.20,0.20,32000,0.20
2016-07-07,0.20,0.20,0.20,0.20,100000,0.20
2016-07-06,0.20,0.20,0.20,0.20,000,0.20
2016-07-05,0.20,0.20,0.20,0.20,100000,0.20
2016-07-04,0.20,0.20,0.19,0.19,102100,0.19
2016-07-01,0.20,0.20,0.20,0.20,85000,0.20
2016-06-30,0.20,0.20,0.20,0.20,000,0.20
2016-06-29,0.20,0.20,0.20,0.20,200000,0.20
2016-06-28,0.20,0.20,0.20,0.20,235000,0.20
2016-06-27,0.20,0.20,0.20,0.20,200000,0.20
2016-06-24,0.20,0.20,0.20,0.20,200000,0.20
2016-06-23,0.195,0.195,0.195,0.195,153000,0.195
2016-06-22,0.195,0.195,0.195,0.195,100000,0.195
2016-06-21,0.20,0.20,0.20,0.20,100000,0.20
2016-06-20,0.24,0.24,0.24,0.24,000,0.24
2016-06-17,0.24,0.24,0.24,0.24,000,0.24
2016-06-16,0.24,0.24,0.24,0.24,000,0.24
2016-06-15,0.24,0.24,0.24,0.24,000,0.24
2016-06-14,0.24,0.24,0.24,0.24,000,0.24
2016-06-13,0.24,0.24,0.24,0.24,000,0.24
2016-06-10,0.24,0.24,0.24,0.24,000,0.24
2016-06-09,0.24,0.24,0.24,0.24,000,0.24
2016-06-08,0.24,0.24,0.24,0.24,000,0.24
2016-06-07,0.24,0.24,0.24,0.24,000,0.24
2016-06-06,0.24,0.24,0.24,0.24,000,0.24
2016-06-03,0.24,0.24,0.24,0.24,000,0.24
2016-06-02,0.24,0.24,0.24,0.24,000,0.24
2016-06-01,0.24,0.24,0.24,0.24,000,0.24
2016-05-31,0.24,0.24,0.24,0.24,000,0.24
2016-05-30,0.24,0.24,0.24,0.24,000,0.24
2016-05-27,0.24,0.24,0.24,0.24,000,0.24
2016-05-26,0.24,0.24,0.24,0.24,000,0.24
2016-05-25,0.24,0.24,0.24,0.24,000,0.24
2016-05-24,0.24,0.24,0.24,0.24,000,0.24
2016-05-23,0.24,0.24,0.24,0.24,000,0.24
2016-05-20,0.24,0.24,0.24,0.24,000,0.24
2016-05-19,0.24,0.24,0.24,0.24,7500,0.24
2016-05-18,0.245,0.245,0.245,0.245,4000,0.245
2016-05-17,0.245,0.245,0.245,0.245,000,0.245
2016-05-16,0.245,0.245,0.245,0.245,000,0.245
2016-05-13,0.245,0.245,0.245,0.245,000,0.245
2016-05-12,0.245,0.245,0.245,0.245,000,0.245
2016-05-11,0.245,0.245,0.245,0.245,000,0.245
2016-05-10,0.245,0.245,0.245,0.245,000,0.245
2016-05-09,0.245,0.245,0.245,0.245,000,0.245
2016-05-06,0.245,0.245,0.245,0.245,000,0.245
2016-05-05,0.245,0.245,0.245,0.245,000,0.245
2016-05-04,0.245,0.245,0.245,0.245,000,0.245
2016-05-03,0.245,0.245,0.245,0.245,000,0.245
2016-05-02,0.245,0.245,0.245,0.245,000,0.245
2016-04-29,0.245,0.245,0.245,0.245,000,0.245
2016-04-28,0.245,0.245,0.245,0.245,000,0.245
2016-04-27,0.245,0.245,0.245,0.245,000,0.245
2016-04-26,0.245,0.245,0.245,0.245,000,0.245
2016-04-25,0.245,0.245,0.245,0.245,000,0.245
2016-04-22,0.245,0.245,0.245,0.245,000,0.245
2016-04-21,0.245,0.245,0.245,0.245,000,0.245
2016-04-20,0.245,0.245,0.245,0.245,000,0.245
2016-04-19,0.245,0.245,0.245,0.245,000,0.245
2016-04-18,0.245,0.245,0.245,0.245,000,0.245
2016-04-15,0.245,0.245,0.245,0.245,60000,0.245
2016-04-14,0.245,0.25,0.245,0.25,60000,0.25
2016-04-13,0.245,0.25,0.245,0.25,60000,0.25
2016-04-12,0.245,0.25,0.245,0.25,60000,0.25
2016-04-11,0.245,0.25,0.245,0.25,60000,0.25
2016-04-08,0.24,0.245,0.24,0.245,60000,0.245
2016-04-07,0.25,0.25,0.25,0.25,000,0.25
2016-04-06,0.25,0.25,0.25,0.25,000,0.25
2016-04-05,0.245,0.25,0.245,0.25,80000,0.25
2016-04-04,0.25,0.25,0.25,0.25,80000,0.25
2016-04-01,0.24,0.245,0.24,0.245,212000,0.245
2016-03-31,0.245,0.25,0.245,0.25,482300,0.25
2016-03-30,0.25,0.255,0.25,0.25,417600,0.25
2016-03-29,0.25,0.25,0.25,0.25,000,0.25
2016-03-28,0.25,0.25,0.25,0.25,000,0.25
2016-03-25,0.25,0.25,0.25,0.25,000,0.25
2016-03-24,0.25,0.25,0.25,0.25,40000,0.25
2016-03-23,0.25,0.25,0.25,0.25,40000,0.25
2016-03-22,0.255,0.255,0.25,0.25,76000,0.25
2016-03-21,0.25,0.25,0.25,0.25,000,0.25
2016-03-18,0.25,0.25,0.25,0.25,000,0.25
2016-03-17,0.25,0.25,0.25,0.25,000,0.25
2016-03-16,0.25,0.25,0.25,0.25,20000,0.25
2016-03-15,0.255,0.255,0.255,0.255,224800,0.255
2016-03-14,0.26,0.26,0.255,0.255,500000,0.255
2016-03-11,0.26,0.26,0.26,0.26,122500,0.26
2016-03-10,0.26,0.26,0.26,0.26,30000,0.26
2016-03-09,0.27,0.27,0.27,0.27,000,0.27
2016-03-08,0.27,0.27,0.27,0.27,000,0.27
2016-03-07,0.27,0.27,0.27,0.27,000,0.27
2016-03-04,0.27,0.27,0.27,0.27,000,0.27
2016-03-03,0.27,0.27,0.27,0.27,000,0.27
2016-03-02,0.27,0.27,0.27,0.27,000,0.27
2016-03-01,0.27,0.27,0.27,0.27,000,0.27
2016-02-29,0.265,0.27,0.265,0.27,35000,0.27
2016-02-26,0.27,0.27,0.27,0.27,000,0.27
2016-02-25,0.265,0.27,0.265,0.27,145700,0.27
2016-02-24,0.27,0.27,0.27,0.27,000,0.27
2016-02-23,0.27,0.27,0.27,0.27,000,0.27
2016-02-22,0.27,0.27,0.27,0.27,000,0.27
2016-02-19,0.265,0.27,0.265,0.27,50000,0.27
2016-02-18,0.25,0.265,0.25,0.265,10000,0.265
2016-02-17,0.23,0.245,0.23,0.245,17500,0.245
2016-02-16,0.265,0.265,0.265,0.265,15000,0.265
2016-02-15,0.27,0.27,0.27,0.27,000,0.27
2016-02-12,0.26,0.27,0.26,0.27,60000,0.27
2016-02-11,0.26,0.26,0.26,0.26,000,0.26
2016-02-10,0.255,0.26,0.255,0.26,75000,0.26
2016-02-09,0.25,0.25,0.25,0.25,37500,0.25
2016-02-08,0.26,0.26,0.26,0.26,000,0.26
2016-02-05,0.26,0.27,0.26,0.26,234000,0.26
2016-02-04,0.28,0.28,0.265,0.265,44000,0.265
2016-02-03,0.265,0.29,0.265,0.29,242500,0.29
2016-02-02,0.265,0.265,0.26,0.265,70000,0.265
2016-02-01,0.265,0.265,0.26,0.26,20000,0.26
2016-01-29,0.265,0.265,0.265,0.265,72500,0.265
2016-01-28,0.26,0.265,0.25,0.265,105000,0.265
2016-01-27,0.26,0.26,0.255,0.26,80000,0.26
2016-01-26,0.255,0.255,0.255,0.255,000,0.255
2016-01-25,0.255,0.255,0.255,0.255,25000,0.255
2016-01-22,0.245,0.275,0.245,0.275,70000,0.275
2016-01-21,0.25,0.26,0.25,0.26,70000,0.26
2016-01-20,0.27,0.27,0.27,0.27,4074000,0.27
2016-01-19,0.27,0.28,0.27,0.27,195000,0.27
2016-01-18,0.27,0.27,0.27,0.27,50000,0.27
2016-01-15,0.26,0.26,0.26,0.26,11600,0.26
2016-01-14,0.24,0.27,0.24,0.26,507500,0.26
2016-01-13,0.26,0.26,0.25,0.25,110000,0.25
2016-01-12,0.27,0.27,0.26,0.26,180000,0.26
2016-01-11,0.27,0.27,0.27,0.27,125000,0.27
2016-01-08,0.27,0.27,0.27,0.27,27000,0.27
2016-01-07,0.27,0.27,0.27,0.27,35000,0.27
2016-01-06,0.28,0.28,0.28,0.28,155000,0.28
2016-01-05,0.24,0.24,0.24,0.24,000,0.24
2016-01-04,0.24,0.24,0.24,0.24,000,0.24
2016-01-01,0.24,0.24,0.24,0.24,000,0.24
2015-12-31,0.24,0.24,0.24,0.24,000,0.24
2015-12-30,0.24,0.24,0.24,0.24,10000,0.24
2015-12-29,0.25,0.25,0.24,0.24,51000,0.24
2015-12-28,0.245,0.245,0.245,0.245,000,0.245
2015-12-25,0.245,0.245,0.245,0.245,000,0.245
2015-12-24,0.245,0.245,0.245,0.245,000,0.245
2015-12-23,0.245,0.245,0.245,0.245,32500,0.245
2015-12-22,0.25,0.25,0.24,0.25,114000,0.25
2015-12-21,0.24,0.25,0.23,0.24,229000,0.24
2015-12-18,0.24,0.25,0.24,0.24,24100,0.24
2015-12-17,0.22,0.25,0.22,0.25,185900,0.25
2015-12-16,0.23,0.23,0.22,0.23,40000,0.23
2015-12-15,0.24,0.24,0.22,0.23,337600,0.23
2015-12-14,0.23,0.25,0.23,0.23,272000,0.23
2015-12-11,0.21,0.25,0.20,0.23,2756700,0.23
