Date,Open,High,Low,Close,Volume,Adj Close
2017-01-10,0.18,0.185,0.18,0.185,247700,0.185
2017-01-09,0.18,0.18,0.175,0.175,543600,0.175
2017-01-06,0.18,0.18,0.175,0.175,616900,0.175
2017-01-05,0.18,0.18,0.17,0.175,520800,0.175
2017-01-04,0.185,0.185,0.18,0.18,42400,0.18
2017-01-03,0.185,0.185,0.18,0.18,17000,0.18
2017-01-02,0.185,0.185,0.185,0.185,000,0.185
2016-12-30,0.18,0.185,0.18,0.185,262600,0.185
2016-12-29,0.18,0.18,0.18,0.18,000,0.18
2016-12-28,0.18,0.18,0.18,0.18,26000,0.18
2016-12-27,0.18,0.18,0.18,0.18,000,0.18
2016-12-26,0.18,0.18,0.18,0.18,000,0.18
2016-12-23,0.18,0.18,0.18,0.18,48000,0.18
2016-12-22,0.18,0.185,0.175,0.175,451100,0.175
2016-12-21,0.18,0.18,0.18,0.18,279500,0.18
2016-12-20,0.18,0.18,0.175,0.18,66700,0.18
2016-12-19,0.18,0.18,0.18,0.18,67200,0.18
2016-12-16,0.18,0.18,0.18,0.18,221900,0.18
2016-12-15,0.18,0.185,0.18,0.185,525400,0.185
2016-12-14,0.18,0.18,0.18,0.18,11800,0.18
2016-12-13,0.185,0.185,0.18,0.185,81800,0.185
2016-12-12,0.185,0.195,0.185,0.185,456200,0.185
2016-12-09,0.185,0.185,0.18,0.185,169000,0.185
2016-12-08,0.18,0.185,0.18,0.185,313200,0.185
2016-12-07,0.18,0.185,0.175,0.175,92900,0.175
2016-12-06,0.175,0.18,0.175,0.18,185400,0.18
2016-12-05,0.18,0.18,0.17,0.17,366900,0.17
2016-12-02,0.18,0.18,0.175,0.175,153700,0.175
2016-12-01,0.175,0.18,0.17,0.18,512900,0.18
2016-11-30,0.18,0.18,0.165,0.165,654100,0.165
2016-11-29,0.18,0.18,0.175,0.18,492200,0.18
2016-11-28,0.185,0.185,0.175,0.185,170800,0.185
2016-11-25,0.18,0.19,0.18,0.19,145400,0.19
2016-11-24,0.19,0.19,0.18,0.18,225700,0.18
2016-11-23,0.185,0.19,0.185,0.19,319000,0.19
2016-11-22,0.18,0.185,0.18,0.18,207500,0.18
2016-11-21,0.18,0.18,0.175,0.18,317900,0.18
2016-11-18,0.19,0.19,0.18,0.18,742900,0.18
2016-11-17,0.175,0.19,0.175,0.185,1243200,0.185
2016-11-16,0.18,0.18,0.175,0.175,229800,0.175
2016-11-15,0.185,0.185,0.185,0.185,125900,0.185
2016-11-14,0.175,0.185,0.17,0.185,569400,0.185
2016-11-11,0.17,0.17,0.165,0.17,113100,0.17
2016-11-10,0.17,0.17,0.17,0.17,217800,0.17
2016-11-09,0.17,0.175,0.165,0.165,398800,0.165
2016-11-08,0.175,0.175,0.175,0.175,40900,0.175
2016-11-07,0.185,0.185,0.175,0.175,283900,0.175
2016-11-04,0.18,0.185,0.18,0.18,562700,0.18
2016-11-03,0.185,0.19,0.175,0.175,306500,0.175
2016-11-02,0.175,0.195,0.175,0.19,1277400,0.19
2016-11-01,0.175,0.18,0.175,0.175,1083600,0.175
2016-10-31,0.16,0.165,0.157,0.165,821600,0.165
2016-10-28,0.17,0.175,0.165,0.165,870000,0.165
2016-10-27,0.19,0.195,0.165,0.165,1352800,0.165
2016-10-26,0.18,0.18,0.17,0.175,886200,0.175
2016-10-25,0.19,0.19,0.175,0.175,658500,0.175
2016-10-24,0.195,0.195,0.185,0.185,231400,0.185
2016-10-21,0.205,0.205,0.195,0.195,739400,0.195
2016-10-20,0.205,0.205,0.20,0.205,593600,0.205
2016-10-19,0.21,0.21,0.205,0.205,142000,0.205
2016-10-18,0.22,0.22,0.205,0.205,862200,0.205
2016-10-17,0.22,0.22,0.215,0.22,439700,0.22
2016-10-14,0.225,0.225,0.215,0.215,446900,0.215
2016-10-13,0.23,0.235,0.22,0.22,1208800,0.22
2016-10-12,0.23,0.24,0.225,0.235,1899000,0.235
2016-10-11,0.22,0.225,0.215,0.22,461800,0.22
2016-10-10,0.215,0.215,0.21,0.21,368900,0.21
2016-10-07,0.23,0.23,0.215,0.215,810200,0.215
2016-10-06,0.21,0.225,0.21,0.225,666000,0.225
2016-10-05,0.215,0.215,0.21,0.21,249800,0.21
2016-10-04,0.215,0.215,0.21,0.215,876800,0.215
2016-10-03,0.22,0.22,0.215,0.215,24600,0.215
2016-09-30,0.215,0.22,0.215,0.22,346900,0.22
2016-09-29,0.21,0.215,0.21,0.21,670000,0.21
2016-09-28,0.215,0.215,0.21,0.21,490900,0.21
2016-09-27,0.21,0.215,0.21,0.215,275700,0.215
2016-09-26,0.215,0.215,0.21,0.21,185800,0.21
2016-09-23,0.21,0.21,0.21,0.21,158000,0.21
2016-09-22,0.215,0.215,0.205,0.205,499800,0.205
2016-09-21,0.22,0.225,0.215,0.215,474800,0.215
2016-09-20,0.22,0.225,0.215,0.215,395500,0.215
2016-09-19,0.22,0.225,0.22,0.22,101300,0.22
2016-09-16,0.225,0.23,0.22,0.225,475500,0.225
2016-09-15,0.20,0.225,0.195,0.22,989700,0.22
2016-09-14,0.205,0.21,0.20,0.20,590600,0.20
2016-09-13,0.21,0.21,0.20,0.205,277100,0.205
2016-09-12,0.22,0.22,0.20,0.21,1152000,0.21
2016-09-09,0.22,0.22,0.21,0.22,293000,0.22
2016-09-08,0.22,0.22,0.215,0.215,285900,0.215
2016-09-07,0.22,0.22,0.215,0.22,611400,0.22
2016-09-06,0.22,0.225,0.22,0.22,534800,0.22
2016-09-05,0.225,0.225,0.21,0.215,638500,0.215
2016-09-02,0.22,0.22,0.215,0.22,618500,0.22
2016-09-01,0.225,0.225,0.215,0.22,593600,0.22
2016-08-31,0.225,0.225,0.22,0.22,790300,0.22
2016-08-30,0.225,0.225,0.215,0.22,783600,0.22
2016-08-29,0.24,0.24,0.22,0.225,1897600,0.225
2016-08-26,0.235,0.24,0.235,0.24,973200,0.24
2016-08-25,0.24,0.24,0.235,0.235,444500,0.235
2016-08-24,0.25,0.25,0.235,0.24,1443700,0.24
2016-08-23,0.26,0.26,0.245,0.25,1537400,0.25
2016-08-22,0.28,0.28,0.25,0.26,1114700,0.26
2016-08-19,0.285,0.285,0.28,0.28,775600,0.28
2016-08-18,0.255,0.29,0.25,0.285,2554400,0.285
2016-08-17,0.255,0.255,0.255,0.255,208800,0.255
2016-08-16,0.27,0.27,0.27,0.27,000,0.27
2016-08-15,0.27,0.27,0.255,0.27,586200,0.27
2016-08-12,0.28,0.28,0.265,0.27,431100,0.27
2016-08-11,0.275,0.28,0.27,0.27,239200,0.27
2016-08-10,0.285,0.295,0.27,0.27,1168800,0.27
2016-08-09,0.285,0.305,0.275,0.28,3111400,0.28
2016-08-08,0.30,0.30,0.27,0.285,2571100,0.285
2016-08-05,0.24,0.24,0.24,0.24,000,0.24
2016-08-04,0.235,0.24,0.235,0.24,69100,0.24
2016-08-03,0.24,0.24,0.24,0.24,166900,0.24
2016-08-02,0.245,0.25,0.235,0.235,151900,0.235
2016-08-01,0.25,0.26,0.25,0.255,476800,0.255
2016-07-29,0.245,0.245,0.24,0.24,272000,0.24
2016-07-28,0.245,0.26,0.24,0.245,195900,0.245
2016-07-27,0.24,0.255,0.235,0.255,439700,0.255
2016-07-26,0.24,0.24,0.235,0.235,425500,0.235
2016-07-25,0.25,0.255,0.245,0.245,265700,0.245
2016-07-22,0.26,0.26,0.25,0.26,896300,0.26
2016-07-21,0.265,0.27,0.26,0.265,485100,0.265
2016-07-20,0.265,0.27,0.265,0.27,133100,0.27
2016-07-19,0.27,0.27,0.26,0.265,456000,0.265
2016-07-18,0.275,0.275,0.265,0.265,68700,0.265
2016-07-15,0.27,0.28,0.26,0.28,478000,0.28
2016-07-14,0.27,0.275,0.27,0.275,158100,0.275
2016-07-13,0.28,0.28,0.265,0.265,77700,0.265
2016-07-12,0.265,0.29,0.26,0.275,753900,0.275
2016-07-11,0.265,0.265,0.255,0.26,168400,0.26
2016-07-08,0.25,0.26,0.25,0.255,229600,0.255
2016-07-07,0.255,0.26,0.25,0.25,176600,0.25
2016-07-06,0.265,0.265,0.25,0.255,748100,0.255
2016-07-05,0.275,0.275,0.265,0.265,326900,0.265
2016-07-04,0.275,0.28,0.27,0.27,435300,0.27
2016-07-01,0.26,0.27,0.26,0.265,327600,0.265
2016-06-30,0.27,0.27,0.255,0.26,363000,0.26
2016-06-29,0.27,0.275,0.265,0.265,535600,0.265
2016-06-28,0.265,0.285,0.265,0.27,612800,0.27
2016-06-27,0.245,0.285,0.245,0.28,792300,0.28
2016-06-24,0.28,0.28,0.24,0.25,1801800,0.25
2016-06-23,0.305,0.305,0.28,0.28,988600,0.28
2016-06-22,0.31,0.31,0.305,0.305,492600,0.305
2016-06-21,0.33,0.335,0.31,0.32,1053300,0.32
2016-06-20,0.315,0.34,0.305,0.33,1546100,0.33
2016-06-17,0.31,0.31,0.29,0.31,1004200,0.31
2016-06-16,0.29,0.325,0.29,0.31,1349400,0.31
2016-06-15,0.27,0.315,0.27,0.285,936300,0.285
2016-06-14,0.295,0.295,0.27,0.27,1254300,0.27
2016-06-13,0.295,0.295,0.295,0.295,000,0.295
2016-06-10,0.31,0.325,0.295,0.295,2011400,0.295
2016-06-09,0.265,0.305,0.265,0.30,1647400,0.30
2016-06-08,0.26,0.265,0.25,0.26,703100,0.26
2016-06-07,0.28,0.28,0.255,0.255,1292200,0.255
2016-06-06,0.265,0.2875,0.265,0.275,3017800,0.275
2016-06-03,0.225,0.26,0.225,0.255,2578500,0.255
2016-06-02,0.225,0.23,0.22,0.225,616900,0.225
2016-06-01,0.235,0.235,0.215,0.22,1311900,0.22
2016-05-31,0.195,0.235,0.195,0.225,3099700,0.225
2016-05-30,0.185,0.19,0.185,0.19,284800,0.19
2016-05-27,0.185,0.185,0.16,0.18,1233000,0.18
2016-05-26,0.19,0.19,0.18,0.18,135000,0.18
2016-05-25,0.18,0.19,0.18,0.185,463400,0.185
2016-05-24,0.185,0.185,0.18,0.18,62400,0.18
2016-05-23,0.185,0.185,0.18,0.185,159600,0.185
2016-05-20,0.185,0.19,0.185,0.19,135400,0.19
2016-05-19,0.19,0.19,0.185,0.185,434100,0.185
2016-05-18,0.195,0.20,0.19,0.19,428400,0.19
2016-05-17,0.185,0.195,0.182,0.195,623600,0.195
2016-05-16,0.205,0.205,0.19,0.19,1144200,0.19
2016-05-13,0.205,0.21,0.20,0.21,311300,0.21
2016-05-12,0.205,0.21,0.205,0.205,313900,0.205
2016-05-11,0.225,0.225,0.205,0.21,912000,0.21
2016-05-10,0.195,0.22,0.19,0.22,1617900,0.22
2016-05-09,0.19,0.195,0.19,0.195,334300,0.195
2016-05-06,0.18,0.195,0.18,0.195,618300,0.195
2016-05-05,0.18,0.185,0.18,0.18,436500,0.18
2016-05-04,0.185,0.185,0.175,0.175,566500,0.175
2016-05-03,0.18,0.195,0.18,0.185,792800,0.185
2016-05-02,0.18,0.18,0.17,0.18,460000,0.18
2016-04-29,0.19,0.19,0.177,0.19,655900,0.19
2016-04-28,0.185,0.195,0.185,0.19,1483300,0.19
2016-04-27,0.185,0.185,0.165,0.165,982900,0.165
2016-04-26,0.165,0.19,0.165,0.185,2469000,0.185
2016-04-25,0.155,0.155,0.155,0.155,000,0.155
2016-04-22,0.16,0.165,0.155,0.155,273400,0.155
2016-04-21,0.155,0.16,0.155,0.155,243600,0.155
2016-04-20,0.16,0.16,0.15,0.15,504100,0.15
2016-04-19,0.155,0.16,0.155,0.16,172900,0.16
2016-04-18,0.155,0.155,0.15,0.155,323500,0.155
2016-04-15,0.155,0.155,0.155,0.155,124100,0.155
2016-04-14,0.155,0.16,0.155,0.155,338500,0.155
2016-04-13,0.16,0.16,0.15,0.15,172100,0.15
2016-04-12,0.16,0.16,0.155,0.155,324200,0.155
2016-04-11,0.16,0.16,0.155,0.16,314900,0.16
2016-04-08,0.16,0.16,0.15,0.155,266400,0.155
2016-04-07,0.155,0.16,0.155,0.16,357900,0.16
2016-04-06,0.155,0.16,0.155,0.155,384300,0.155
2016-04-05,0.16,0.16,0.155,0.155,115700,0.155
2016-04-04,0.16,0.165,0.155,0.155,118200,0.155
2016-04-01,0.155,0.155,0.155,0.155,2000,0.155
2016-03-31,0.16,0.16,0.155,0.16,311500,0.16
2016-03-30,0.16,0.16,0.15,0.155,584500,0.155
2016-03-29,0.16,0.165,0.16,0.165,313800,0.165
2016-03-28,0.17,0.17,0.17,0.17,000,0.17
2016-03-25,0.17,0.17,0.17,0.17,000,0.17
2016-03-24,0.17,0.17,0.165,0.17,126500,0.17
2016-03-23,0.165,0.165,0.165,0.165,103500,0.165
2016-03-22,0.16,0.17,0.16,0.16,596500,0.16
2016-03-21,0.165,0.165,0.16,0.16,202000,0.16
2016-03-18,0.165,0.17,0.165,0.17,114400,0.17
2016-03-17,0.175,0.175,0.16,0.16,331800,0.16
2016-03-16,0.17,0.17,0.165,0.17,150100,0.17
2016-03-15,0.165,0.17,0.165,0.17,503200,0.17
2016-03-14,0.16,0.165,0.16,0.16,225100,0.16
2016-03-11,0.155,0.16,0.155,0.16,345600,0.16
2016-03-10,0.165,0.165,0.155,0.155,258100,0.155
2016-03-09,0.16,0.165,0.16,0.16,167700,0.16
2016-03-08,0.165,0.165,0.16,0.16,294700,0.16
2016-03-07,0.17,0.17,0.16,0.165,364800,0.165
2016-03-04,0.17,0.17,0.165,0.165,46200,0.165
2016-03-03,0.165,0.17,0.16,0.17,555500,0.17
2016-03-02,0.165,0.165,0.16,0.165,135700,0.165
2016-03-01,0.16,0.17,0.16,0.165,658600,0.165
2016-02-29,0.16,0.16,0.155,0.155,805100,0.155
2016-02-26,0.16,0.16,0.157,0.157,84800,0.157
2016-02-25,0.165,0.165,0.155,0.155,442700,0.155
2016-02-24,0.17,0.17,0.16,0.16,466400,0.16
2016-02-23,0.17,0.17,0.17,0.17,51000,0.17
2016-02-22,0.175,0.175,0.165,0.17,356400,0.17
2016-02-19,0.165,0.165,0.165,0.165,000,0.165
2016-02-18,0.165,0.165,0.165,0.165,000,0.165
2016-02-17,0.165,0.17,0.165,0.165,236400,0.165
2016-02-16,0.17,0.175,0.17,0.17,20900,0.17
2016-02-15,0.175,0.175,0.17,0.17,145700,0.17
2016-02-12,0.175,0.175,0.165,0.17,74400,0.17
2016-02-11,0.175,0.175,0.165,0.165,13800,0.165
2016-02-10,0.18,0.18,0.17,0.17,426900,0.17
2016-02-09,0.18,0.18,0.175,0.175,24400,0.175
2016-02-08,0.18,0.185,0.18,0.18,23600,0.18
2016-02-05,0.185,0.185,0.18,0.18,57200,0.18
2016-02-04,0.185,0.185,0.175,0.18,197900,0.18
2016-02-03,0.18,0.19,0.18,0.185,278900,0.185
2016-02-02,0.18,0.185,0.175,0.175,424500,0.175
2016-02-01,0.175,0.18,0.17,0.175,368300,0.175
2016-01-29,0.16,0.165,0.16,0.165,30000,0.165
2016-01-28,0.16,0.165,0.16,0.16,245100,0.16
2016-01-27,0.16,0.16,0.15,0.16,167900,0.16
2016-01-26,0.165,0.165,0.165,0.165,000,0.165
2016-01-25,0.165,0.165,0.165,0.165,3100,0.165
2016-01-22,0.17,0.17,0.16,0.16,93400,0.16
2016-01-21,0.16,0.17,0.15,0.15,180200,0.15
2016-01-20,0.175,0.175,0.155,0.155,357500,0.155
2016-01-19,0.155,0.16,0.155,0.16,105100,0.16
2016-01-18,0.15,0.155,0.145,0.155,244400,0.155
2016-01-15,0.16,0.16,0.145,0.145,191500,0.145
2016-01-14,0.15,0.15,0.145,0.15,139600,0.15
2016-01-13,0.155,0.155,0.15,0.155,161100,0.155
2016-01-12,0.16,0.16,0.16,0.16,177900,0.16
2016-01-11,0.16,0.16,0.16,0.16,000,0.16
2016-01-08,0.16,0.16,0.16,0.16,000,0.16
2016-01-07,0.165,0.165,0.16,0.16,215600,0.16
2016-01-06,0.165,0.165,0.165,0.165,148300,0.165
2016-01-05,0.165,0.175,0.165,0.165,104400,0.165
2016-01-04,0.175,0.175,0.175,0.175,000,0.175
2016-01-01,0.175,0.175,0.175,0.175,000,0.175
2015-12-31,0.17,0.175,0.17,0.175,72000,0.175
2015-12-30,0.16,0.16,0.16,0.16,40500,0.16
2015-12-29,0.16,0.17,0.15,0.17,413800,0.17
2015-12-28,0.165,0.165,0.165,0.165,000,0.165
2015-12-25,0.165,0.165,0.165,0.165,000,0.165
2015-12-24,0.16,0.165,0.16,0.165,72200,0.165
2015-12-23,0.165,0.165,0.165,0.165,5500,0.165
2015-12-22,0.16,0.16,0.16,0.16,115700,0.16
2015-12-21,0.165,0.17,0.16,0.16,331200,0.16
2015-12-18,0.16,0.165,0.16,0.165,231700,0.165
2015-12-17,0.165,0.17,0.16,0.165,54700,0.165
2015-12-16,0.17,0.175,0.155,0.165,455200,0.165
2015-12-15,0.17,0.17,0.17,0.17,23000,0.17
2015-12-14,0.17,0.17,0.16,0.165,96700,0.165
2015-12-11,0.175,0.175,0.16,0.16,355000,0.16
2015-12-10,0.18,0.18,0.17,0.17,62100,0.17
2015-12-09,0.175,0.175,0.17,0.17,102900,0.17
2015-12-08,0.18,0.18,0.17,0.17,144100,0.17
2015-12-07,0.175,0.18,0.17,0.17,217200,0.17
2015-12-04,0.17,0.17,0.17,0.17,216600,0.17
2015-12-03,0.175,0.175,0.17,0.17,43300,0.17
2015-12-02,0.175,0.175,0.17,0.175,157000,0.175
2015-12-01,0.18,0.18,0.17,0.18,355900,0.18
2015-11-30,0.18,0.19,0.18,0.18,287100,0.18
2015-11-27,0.175,0.18,0.175,0.175,100200,0.175
2015-11-26,0.185,0.185,0.175,0.175,505700,0.175
2015-11-25,0.18,0.18,0.18,0.18,7000,0.18
2015-11-24,0.185,0.195,0.185,0.19,394900,0.19
2015-11-23,0.18,0.18,0.18,0.18,95900,0.18
2015-11-20,0.175,0.18,0.175,0.18,86200,0.18
2015-11-19,0.18,0.185,0.18,0.18,613700,0.18
2015-11-18,0.185,0.185,0.18,0.185,199000,0.185
2015-11-17,0.19,0.195,0.18,0.195,119200,0.195
2015-11-16,0.185,0.19,0.18,0.19,302700,0.19
2015-11-13,0.19,0.19,0.185,0.19,461200,0.19
2015-11-12,0.19,0.19,0.19,0.19,146500,0.19
2015-11-11,0.195,0.20,0.19,0.19,297900,0.19
2015-11-10,0.205,0.21,0.195,0.195,183700,0.195
2015-11-09,0.195,0.21,0.19,0.21,537100,0.21
2015-11-06,0.20,0.20,0.19,0.19,479000,0.19
2015-11-05,0.195,0.20,0.195,0.20,129100,0.20
2015-11-04,0.20,0.20,0.195,0.195,90000,0.195
2015-11-03,0.205,0.205,0.19,0.195,651000,0.195
2015-11-02,0.22,0.22,0.20,0.20,592200,0.20
2015-10-30,0.22,0.22,0.205,0.22,652600,0.22
2015-10-29,0.22,0.23,0.22,0.22,186100,0.22
2015-10-28,0.225,0.225,0.215,0.215,292300,0.215
2015-10-27,0.23,0.23,0.225,0.225,137800,0.225
2015-10-26,0.235,0.235,0.215,0.225,762000,0.225
2015-10-23,0.235,0.24,0.225,0.235,674000,0.235
2015-10-22,0.21,0.23,0.21,0.23,1451000,0.23
2015-10-21,0.21,0.21,0.205,0.21,91900,0.21
2015-10-20,0.205,0.21,0.205,0.21,178500,0.21
2015-10-19,0.215,0.215,0.20,0.205,472000,0.205
2015-10-16,0.21,0.215,0.20,0.215,450300,0.215
2015-10-15,0.21,0.21,0.20,0.20,229300,0.20
2015-10-14,0.215,0.215,0.21,0.215,97800,0.215
2015-10-13,0.21,0.22,0.205,0.215,828600,0.215
2015-10-12,0.195,0.21,0.195,0.205,749600,0.205
2015-10-09,0.19,0.195,0.19,0.195,216800,0.195
2015-10-08,0.20,0.20,0.195,0.195,190600,0.195
2015-10-07,0.205,0.205,0.19,0.20,794100,0.20
2015-10-06,0.21,0.21,0.195,0.195,230900,0.195
2015-10-05,0.19,0.215,0.19,0.21,134000,0.21
2015-10-02,0.20,0.20,0.185,0.195,288600,0.195
2015-10-01,0.185,0.185,0.185,0.185,100000,0.185
2015-09-30,0.19,0.195,0.185,0.185,271900,0.185
2015-09-29,0.19,0.19,0.185,0.19,125700,0.19
2015-09-28,0.20,0.20,0.19,0.19,360100,0.19
2015-09-25,0.20,0.20,0.20,0.20,197400,0.20
2015-09-24,0.20,0.205,0.20,0.20,252200,0.20
2015-09-23,0.20,0.20,0.195,0.20,93500,0.20
2015-09-22,0.20,0.20,0.19,0.19,148400,0.19
2015-09-21,0.20,0.20,0.195,0.195,99600,0.195
2015-09-18,0.20,0.215,0.19,0.215,614900,0.215
2015-09-17,0.195,0.20,0.195,0.20,86800,0.20
2015-09-16,0.20,0.20,0.195,0.195,297400,0.195
2015-09-15,0.21,0.21,0.20,0.20,284100,0.20
2015-09-14,0.215,0.215,0.205,0.205,139600,0.205
2015-09-11,0.22,0.22,0.205,0.21,295700,0.21
2015-09-10,0.22,0.225,0.215,0.215,341600,0.215
2015-09-09,0.215,0.225,0.215,0.225,579400,0.225
2015-09-08,0.225,0.225,0.22,0.22,380400,0.22
2015-09-07,0.23,0.23,0.225,0.225,528100,0.225
2015-09-04,0.235,0.235,0.23,0.235,754400,0.235
2015-09-03,0.23,0.23,0.225,0.225,382900,0.225
2015-09-02,0.22,0.23,0.215,0.22,624900,0.22
2015-09-01,0.22,0.24,0.22,0.23,2484900,0.23
2015-08-31,0.20,0.205,0.185,0.205,500400,0.205
2015-08-28,0.20,0.20,0.20,0.20,266900,0.20
2015-08-27,0.20,0.20,0.195,0.20,515200,0.20
2015-08-26,0.19,0.20,0.19,0.20,758900,0.20
2015-08-25,0.185,0.205,0.18,0.19,2905600,0.19
2015-08-24,0.17,0.17,0.17,0.17,000,0.17
2015-08-20,0.16,0.175,0.16,0.17,172600,0.17
2015-08-19,0.165,0.165,0.16,0.16,110200,0.16
2015-08-18,0.175,0.175,0.165,0.165,116300,0.165
2015-08-17,0.165,0.17,0.16,0.17,394500,0.17
2015-08-14,0.165,0.17,0.16,0.16,329900,0.16
2015-08-13,0.17,0.17,0.16,0.17,894500,0.17
2015-08-12,0.175,0.175,0.165,0.17,366000,0.17
2015-08-11,0.185,0.185,0.16,0.175,1750700,0.175
2015-08-10,0.185,0.185,0.185,0.185,191100,0.185
2015-08-07,0.185,0.19,0.185,0.19,58100,0.19
2015-08-06,0.19,0.19,0.185,0.185,46600,0.185
2015-08-05,0.19,0.19,0.185,0.185,241800,0.185
2015-08-04,0.185,0.19,0.185,0.185,252100,0.185
2015-08-03,0.19,0.19,0.185,0.185,249700,0.185
2015-07-31,0.19,0.195,0.18,0.195,391800,0.195
2015-07-30,0.195,0.195,0.185,0.185,114500,0.185
2015-07-29,0.195,0.195,0.19,0.19,27500,0.19
2015-07-28,0.185,0.195,0.185,0.195,296700,0.195
2015-07-27,0.19,0.19,0.185,0.185,331400,0.185
2015-07-24,0.195,0.195,0.185,0.185,634600,0.185
2015-07-23,0.195,0.20,0.19,0.19,1087700,0.19
2015-07-22,0.19,0.19,0.185,0.185,293000,0.185
2015-07-21,0.20,0.20,0.19,0.19,620000,0.19
2015-07-20,0.205,0.205,0.195,0.195,54400,0.195
2015-07-17,0.20,0.20,0.20,0.20,361000,0.20
2015-07-16,0.205,0.205,0.195,0.195,622700,0.195
2015-07-15,0.21,0.21,0.20,0.205,956400,0.205
2015-07-14,0.19,0.20,0.19,0.19,326200,0.19
2015-07-13,0.19,0.19,0.18,0.19,190500,0.19
2015-07-10,0.18,0.185,0.18,0.18,173600,0.18
2015-07-09,0.18,0.18,0.17,0.175,266200,0.175
2015-07-08,0.185,0.185,0.18,0.185,270000,0.185
2015-07-07,0.18,0.19,0.18,0.185,486000,0.185
2015-07-06,0.19,0.19,0.185,0.185,124600,0.185
2015-07-03,0.185,0.19,0.18,0.19,246700,0.19
2015-07-02,0.18,0.18,0.175,0.18,55000,0.18
2015-07-01,0.18,0.18,0.18,0.18,170700,0.18
2015-06-30,0.175,0.18,0.17,0.18,563000,0.18
2015-06-29,0.17,0.175,0.17,0.17,164500,0.17
2015-06-26,0.175,0.185,0.17,0.17,180500,0.17
2015-06-25,0.175,0.175,0.17,0.17,619300,0.17
2015-06-24,0.18,0.18,0.175,0.175,398900,0.175
2015-06-23,0.18,0.18,0.175,0.175,563700,0.175
2015-06-22,0.185,0.185,0.18,0.18,367900,0.18
2015-06-19,0.18,0.185,0.18,0.18,81600,0.18
2015-06-18,0.18,0.185,0.18,0.185,310300,0.185
2015-06-17,0.185,0.185,0.175,0.18,321600,0.18
2015-06-16,0.18,0.195,0.175,0.175,2119800,0.175
2015-06-15,0.19,0.20,0.17,0.17,2058000,0.17
2015-06-12,0.20,0.20,0.185,0.19,613600,0.19
2015-06-11,0.205,0.205,0.20,0.20,868000,0.20
2015-06-10,0.205,0.205,0.20,0.20,290300,0.20
2015-06-09,0.205,0.21,0.20,0.20,370900,0.20
2015-06-08,0.20,0.20,0.20,0.20,000,0.20
2015-06-05,0.205,0.205,0.20,0.20,187200,0.20
2015-06-04,0.215,0.215,0.205,0.205,301500,0.205
2015-06-03,0.22,0.22,0.21,0.21,524900,0.21
2015-06-02,0.22,0.225,0.215,0.215,381900,0.215
2015-06-01,0.215,0.22,0.205,0.22,876400,0.22
2015-05-29,0.205,0.215,0.205,0.21,345500,0.21
2015-05-28,0.205,0.215,0.205,0.205,458500,0.205
2015-05-27,0.20,0.205,0.20,0.205,288100,0.205
2015-05-26,0.20,0.21,0.20,0.205,1076200,0.205
2015-05-25,0.205,0.205,0.20,0.20,213900,0.20
2015-05-22,0.20,0.20,0.195,0.195,668500,0.195
2015-05-21,0.20,0.205,0.195,0.195,575000,0.195
2015-05-20,0.20,0.205,0.19,0.19,725500,0.19
2015-05-19,0.21,0.215,0.20,0.205,1385400,0.205
2015-05-18,0.205,0.215,0.20,0.21,2205300,0.21
2015-05-15,0.19,0.195,0.19,0.195,583900,0.195
2015-05-14,0.19,0.19,0.19,0.19,252100,0.19
2015-05-13,0.19,0.19,0.185,0.19,368500,0.19
2015-05-12,0.19,0.195,0.185,0.19,254600,0.19
2015-05-11,0.195,0.195,0.19,0.19,647200,0.19
2015-05-08,0.19,0.195,0.185,0.19,403600,0.19
2015-05-07,0.185,0.19,0.185,0.19,548900,0.19
2015-05-06,0.195,0.20,0.185,0.185,1194900,0.185
2015-05-05,0.19,0.195,0.185,0.19,1058600,0.19
2015-05-04,0.185,0.19,0.18,0.18,642700,0.18
2015-05-01,0.18,0.185,0.18,0.185,187600,0.185
2015-04-30,0.18,0.18,0.175,0.18,1016000,0.18
2015-04-29,0.18,0.185,0.18,0.18,450600,0.18
2015-04-28,0.185,0.185,0.18,0.18,482700,0.18
2015-04-27,0.19,0.195,0.18,0.185,1172800,0.185
2015-04-24,0.195,0.195,0.19,0.19,948400,0.19
2015-04-23,0.21,0.21,0.19,0.19,1882200,0.19
2015-04-22,0.21,0.215,0.205,0.21,569700,0.21
2015-04-21,0.215,0.215,0.205,0.21,515000,0.21
2015-04-20,0.205,0.225,0.205,0.215,949100,0.215
2015-04-17,0.21,0.21,0.19,0.205,1398200,0.205
2015-04-16,0.20,0.20,0.20,0.20,000,0.20
2015-04-15,0.20,0.20,0.20,0.20,000,0.20
2015-04-14,0.205,0.205,0.195,0.20,573800,0.20
2015-04-13,0.21,0.21,0.205,0.205,558000,0.205
2015-04-10,0.21,0.215,0.205,0.205,824800,0.205
2015-04-09,0.22,0.22,0.20,0.205,2920600,0.205
2015-04-08,0.24,0.25,0.23,0.24,2195500,0.24
2015-04-07,0.215,0.22,0.20,0.20,399700,0.20
2015-04-06,0.21,0.21,0.21,0.21,000,0.21
2015-04-03,0.21,0.21,0.21,0.21,000,0.21
2015-04-02,0.23,0.23,0.205,0.21,1451600,0.21
2015-04-01,0.20,0.24,0.20,0.225,3317400,0.225
2015-03-31,0.215,0.215,0.195,0.195,959500,0.195
2015-03-30,0.215,0.215,0.195,0.205,1510000,0.205
2015-03-27,0.195,0.235,0.19,0.22,4562300,0.22
2015-03-26,0.18,0.18,0.165,0.165,314200,0.165
2015-03-25,0.16,0.185,0.16,0.18,1789400,0.18
2015-03-24,0.15,0.16,0.15,0.155,233900,0.155
2015-03-23,0.16,0.17,0.15,0.15,1362500,0.15
2015-03-20,0.135,0.145,0.13,0.145,298700,0.145
2015-03-19,0.145,0.145,0.135,0.135,188500,0.135
2015-03-18,0.135,0.14,0.135,0.14,105200,0.14
2015-03-17,0.145,0.145,0.135,0.145,143500,0.145
2015-03-16,0.145,0.15,0.14,0.145,298900,0.145
2015-03-13,0.145,0.145,0.145,0.145,61700,0.145
2015-03-12,0.145,0.145,0.145,0.145,120800,0.145
2015-03-11,0.15,0.155,0.145,0.145,141600,0.145
2015-03-10,0.15,0.16,0.15,0.15,155500,0.15
2015-03-09,0.155,0.155,0.15,0.15,361300,0.15
2015-03-06,0.15,0.16,0.15,0.16,116400,0.16
2015-03-05,0.16,0.16,0.155,0.16,109700,0.16
2015-03-04,0.165,0.165,0.155,0.16,711500,0.16
2015-03-03,0.17,0.17,0.16,0.16,292100,0.16
2015-03-02,0.17,0.17,0.17,0.17,52100,0.17
2015-02-27,0.17,0.175,0.165,0.17,447000,0.17
2015-02-26,0.18,0.185,0.17,0.17,835800,0.17
2015-02-25,0.175,0.18,0.175,0.175,1793600,0.175
2015-02-24,0.175,0.18,0.17,0.17,623200,0.17
2015-02-23,0.16,0.17,0.16,0.17,2088700,0.17
2015-02-20,0.16,0.16,0.155,0.155,327700,0.155
2015-02-19,0.165,0.165,0.165,0.165,8900,0.165
2015-02-18,0.17,0.17,0.155,0.155,400200,0.155
2015-02-17,0.155,0.175,0.155,0.17,494100,0.17
2015-02-16,0.155,0.155,0.145,0.15,144700,0.15
2015-02-13,0.155,0.16,0.15,0.15,307700,0.15
2015-02-12,0.155,0.155,0.155,0.155,48400,0.155
2015-02-11,0.16,0.16,0.145,0.155,216500,0.155
2015-02-10,0.15,0.165,0.15,0.155,322600,0.155
2015-02-09,0.15,0.15,0.145,0.145,316600,0.145
2015-02-06,0.155,0.16,0.15,0.15,213900,0.15
2015-02-05,0.16,0.16,0.15,0.15,142500,0.15
2015-02-04,0.15,0.16,0.15,0.16,334200,0.16
2015-02-03,0.15,0.15,0.14,0.14,152400,0.14
2015-02-02,0.15,0.155,0.145,0.15,296600,0.15
2015-01-30,0.16,0.16,0.15,0.15,21700,0.15
2015-01-29,0.16,0.16,0.155,0.155,118600,0.155
2015-01-28,0.16,0.16,0.15,0.16,175400,0.16
2015-01-27,0.165,0.165,0.16,0.165,43200,0.165
2015-01-26,0.165,0.165,0.165,0.165,000,0.165
2015-01-23,0.165,0.165,0.16,0.165,132800,0.165
2015-01-22,0.175,0.18,0.17,0.17,584000,0.17
2015-01-21,0.18,0.185,0.175,0.175,186200,0.175
2015-01-20,0.175,0.18,0.17,0.175,436700,0.175
2015-01-19,0.165,0.175,0.16,0.165,340100,0.165
2015-01-16,0.16,0.165,0.15,0.165,152500,0.165
2015-01-15,0.155,0.155,0.15,0.15,302700,0.15
2015-01-14,0.165,0.165,0.15,0.155,379600,0.155
2015-01-13,0.155,0.16,0.145,0.16,355700,0.16
2015-01-12,0.15,0.15,0.145,0.145,106500,0.145
2015-01-09,0.16,0.16,0.145,0.155,329800,0.155
2015-01-08,0.175,0.18,0.16,0.16,199200,0.16
2015-01-07,0.175,0.175,0.17,0.175,316900,0.175
2015-01-06,0.195,0.195,0.175,0.175,1036000,0.175
2015-01-05,0.165,0.205,0.165,0.19,1996900,0.19
2015-01-02,0.155,0.165,0.15,0.16,121000,0.16
2015-01-01,0.15,0.15,0.15,0.15,000,0.15
2014-12-31,0.165,0.165,0.15,0.15,158600,0.15
2014-12-30,0.135,0.165,0.135,0.16,972300,0.16
2014-12-29,0.13,0.135,0.13,0.13,225500,0.13
2014-12-26,0.125,0.125,0.125,0.125,000,0.125
2014-12-25,0.125,0.125,0.125,0.125,000,0.125
2014-12-24,0.125,0.125,0.125,0.125,51900,0.125
2014-12-23,0.125,0.125,0.12,0.12,165500,0.12
2014-12-22,0.12,0.125,0.12,0.125,57900,0.125
2014-12-19,0.125,0.13,0.12,0.12,544900,0.12
2014-12-18,0.12,0.13,0.12,0.13,289600,0.13
2014-12-17,0.12,0.125,0.12,0.12,373800,0.12
2014-12-16,0.12,0.125,0.115,0.12,618200,0.12
2014-12-15,0.125,0.135,0.12,0.12,430500,0.12
2014-12-12,0.14,0.14,0.125,0.125,658300,0.125
2014-12-11,0.145,0.145,0.135,0.135,406900,0.135
2014-12-10,0.15,0.15,0.14,0.145,377600,0.145
2014-12-09,0.165,0.175,0.145,0.155,2104100,0.155
2014-12-08,0.125,0.155,0.125,0.155,1952100,0.155
2014-12-05,0.12,0.125,0.12,0.12,592300,0.12
2014-12-04,0.13,0.13,0.11,0.12,766100,0.12
2014-12-03,0.135,0.14,0.125,0.13,453200,0.13
2014-12-02,0.135,0.14,0.13,0.13,432400,0.13
2014-12-01,0.16,0.16,0.135,0.135,1011500,0.135
2014-11-28,0.15,0.16,0.14,0.155,785000,0.155
2014-11-27,0.145,0.15,0.14,0.145,441800,0.145
2014-11-26,0.155,0.155,0.145,0.15,147800,0.15
2014-11-25,0.145,0.15,0.14,0.15,259500,0.15
2014-11-24,0.15,0.155,0.145,0.15,533100,0.15
2014-11-21,0.16,0.16,0.15,0.15,572900,0.15
2014-11-20,0.175,0.175,0.155,0.155,997000,0.155
2014-11-19,0.19,0.19,0.175,0.175,649000,0.175
2014-11-18,0.195,0.195,0.185,0.19,311600,0.19
2014-11-17,0.205,0.205,0.18,0.18,821100,0.18
2014-11-14,0.20,0.21,0.20,0.205,206500,0.205
2014-11-13,0.21,0.21,0.205,0.21,50400,0.21
2014-11-12,0.21,0.21,0.205,0.205,187700,0.205
2014-11-11,0.20,0.22,0.20,0.205,515700,0.205
2014-11-10,0.215,0.215,0.20,0.20,847700,0.20
2014-11-07,0.21,0.21,0.21,0.21,55500,0.21
2014-11-06,0.22,0.225,0.21,0.21,664400,0.21
2014-11-05,0.25,0.255,0.22,0.22,1810100,0.22
2014-11-04,0.255,0.255,0.25,0.25,239800,0.25
2014-11-03,0.255,0.26,0.25,0.25,571600,0.25
2014-10-31,0.26,0.26,0.255,0.255,165100,0.255
2014-10-30,0.275,0.275,0.255,0.255,461000,0.255
2014-10-29,0.275,0.275,0.27,0.275,626800,0.275
2014-10-28,0.265,0.27,0.262,0.27,349000,0.27
2014-10-27,0.275,0.28,0.26,0.26,851600,0.26
2014-10-24,0.30,0.30,0.265,0.27,2226500,0.27
2014-10-23,0.295,0.34,0.275,0.295,5613400,0.295
2014-10-22,0.225,0.24,0.225,0.23,493200,0.23
2014-10-21,0.24,0.245,0.22,0.22,1490700,0.22
2014-10-20,0.215,0.255,0.215,0.225,2375300,0.225
2014-10-17,0.23,0.23,0.20,0.20,664800,0.20
2014-10-16,0.235,0.235,0.22,0.22,627200,0.22
2014-10-15,0.245,0.245,0.24,0.24,82300,0.24
2014-10-14,0.235,0.25,0.23,0.24,530700,0.24
2014-10-13,0.24,0.245,0.235,0.235,141500,0.235
2014-10-10,0.245,0.25,0.227,0.25,633000,0.25
2014-10-09,0.255,0.26,0.245,0.245,100000,0.245
2014-10-08,0.26,0.26,0.23,0.25,813300,0.25
2014-10-07,0.265,0.265,0.26,0.26,144200,0.26
2014-10-06,0.27,0.275,0.265,0.275,132000,0.275
2014-10-03,0.285,0.285,0.265,0.27,518000,0.27
2014-10-02,0.29,0.30,0.27,0.29,489700,0.29
2014-10-01,0.285,0.30,0.285,0.29,180000,0.29
2014-09-30,0.285,0.305,0.275,0.285,818800,0.285
2014-09-29,0.285,0.30,0.272,0.28,258700,0.28
2014-09-26,0.28,0.29,0.265,0.28,932800,0.28
2014-09-25,0.285,0.29,0.275,0.285,198200,0.285
2014-09-24,0.285,0.285,0.275,0.275,172900,0.275
2014-09-23,0.275,0.29,0.275,0.285,573400,0.285
2014-09-22,0.30,0.30,0.27,0.275,776700,0.275
2014-09-19,0.305,0.31,0.29,0.30,452400,0.30
2014-09-18,0.305,0.305,0.29,0.30,341700,0.30
2014-09-17,0.30,0.31,0.295,0.30,207900,0.30
2014-09-16,0.275,0.305,0.27,0.29,915900,0.29
2014-09-15,0.325,0.327,0.285,0.285,1595700,0.285
2014-09-12,0.335,0.34,0.325,0.325,436600,0.325
2014-09-11,0.33,0.335,0.33,0.33,571000,0.33
2014-09-10,0.335,0.335,0.322,0.33,885000,0.33
2014-09-09,0.34,0.34,0.33,0.335,546200,0.335
2014-09-08,0.34,0.34,0.325,0.335,781200,0.335
2014-09-05,0.35,0.355,0.33,0.335,903300,0.335
2014-09-04,0.36,0.375,0.35,0.35,2349900,0.35
2014-09-03,0.345,0.36,0.342,0.355,1501100,0.355
2014-09-02,0.34,0.35,0.34,0.35,1182800,0.35
2014-09-01,0.34,0.36,0.335,0.34,1011700,0.34
2014-08-29,0.365,0.365,0.335,0.335,1237900,0.335
2014-08-28,0.315,0.36,0.315,0.355,2609400,0.355
2014-08-27,0.315,0.325,0.305,0.31,644000,0.31
2014-08-26,0.335,0.335,0.31,0.31,881800,0.31
2014-08-25,0.36,0.36,0.325,0.335,1334100,0.335
2014-08-22,0.35,0.355,0.34,0.355,1056400,0.355
2014-08-21,0.315,0.34,0.315,0.34,1182100,0.34
2014-08-20,0.32,0.325,0.305,0.315,646700,0.315
2014-08-19,0.325,0.325,0.30,0.32,1600100,0.32
2014-08-18,0.325,0.34,0.31,0.31,3471000,0.31
2014-08-15,0.285,0.31,0.285,0.30,1713500,0.30
2014-08-14,0.29,0.295,0.28,0.28,1660100,0.28
2014-08-13,0.285,0.29,0.26,0.28,4822000,0.28
2014-08-12,0.345,0.365,0.29,0.29,5875200,0.29
2014-08-11,0.32,0.33,0.305,0.325,1818900,0.325
2014-08-08,0.33,0.345,0.305,0.31,3035700,0.31
2014-08-07,0.34,0.35,0.335,0.335,1459800,0.335
2014-08-06,0.335,0.355,0.32,0.335,1672400,0.335
2014-08-05,0.385,0.40,0.345,0.345,3875800,0.345
2014-08-04,0.355,0.39,0.345,0.375,5112200,0.375
2014-08-01,0.32,0.34,0.30,0.33,6379500,0.33
2014-07-31,0.395,0.405,0.342,0.35,5431000,0.35
2014-07-30,0.36,0.415,0.34,0.395,8054100,0.395
2014-07-29,0.435,0.46,0.355,0.365,13555300,0.365
2014-07-28,0.545,0.545,0.415,0.43,14545800,0.43
2014-07-25,0.49,0.535,0.48,0.515,5148500,0.515
2014-07-24,0.575,0.58,0.505,0.505,8145500,0.505
2014-07-23,0.485,0.54,0.48,0.535,8888600,0.535
2014-07-22,0.51,0.545,0.465,0.475,9123000,0.475
2014-07-21,0.55,0.60,0.51,0.51,24935000,0.51
2014-07-18,0.37,0.475,0.365,0.46,19089100,0.46
2014-07-17,0.335,0.37,0.31,0.355,5545400,0.355
2014-07-16,0.36,0.385,0.33,0.33,13737100,0.33
2014-07-15,0.28,0.34,0.27,0.325,14019400,0.325
2014-07-14,0.26,0.315,0.26,0.275,24203200,0.275
2014-07-11,0.225,0.225,0.205,0.215,1549900,0.215
2014-07-10,0.205,0.225,0.205,0.22,3623400,0.22
2014-07-09,0.215,0.22,0.195,0.195,4235300,0.195
2014-07-08,0.255,0.255,0.22,0.23,4086400,0.23
2014-07-07,0.195,0.255,0.19,0.255,7541900,0.255
2014-07-04,0.175,0.175,0.16,0.165,2319000,0.165
2014-07-03,0.155,0.155,0.155,0.155,000,0.155
2014-07-02,0.155,0.155,0.155,0.155,000,0.155
2014-07-01,0.155,0.16,0.15,0.155,1171100,0.155
2014-06-30,0.165,0.165,0.155,0.155,1847300,0.155
2014-06-27,0.17,0.17,0.16,0.16,1394100,0.16
2014-06-26,0.155,0.165,0.155,0.155,372600,0.155
2014-06-25,0.155,0.155,0.15,0.155,120300,0.155
2014-06-24,0.155,0.155,0.15,0.155,1014400,0.155
2014-06-23,0.155,0.16,0.155,0.155,297300,0.155
2014-06-20,0.165,0.165,0.155,0.155,340800,0.155
2014-06-19,0.165,0.17,0.16,0.165,759100,0.165
2014-06-18,0.19,0.195,0.16,0.16,3725900,0.16
2014-06-17,0.17,0.175,0.165,0.165,2263600,0.165
2014-06-16,0.145,0.175,0.145,0.17,2482300,0.17
2014-06-13,0.15,0.15,0.14,0.145,263200,0.145
2014-06-12,0.15,0.155,0.15,0.15,396500,0.15
2014-06-11,0.145,0.145,0.14,0.145,2447800,0.145
2014-06-10,0.145,0.165,0.145,0.145,2052100,0.145
2014-06-09,0.13,0.13,0.13,0.13,000,0.13
2014-06-06,0.13,0.13,0.13,0.13,114000,0.13
2014-06-05,0.125,0.125,0.125,0.125,152800,0.125
2014-06-04,0.125,0.13,0.12,0.125,265700,0.125
2014-06-03,0.13,0.13,0.125,0.13,176500,0.13
2014-06-02,0.135,0.135,0.13,0.13,301300,0.13
2014-05-30,0.135,0.135,0.13,0.135,137700,0.135
2014-05-29,0.14,0.14,0.135,0.135,359800,0.135
2014-05-28,0.14,0.14,0.14,0.14,174100,0.14
2014-05-27,0.14,0.145,0.14,0.14,148300,0.14
2014-05-26,0.135,0.15,0.135,0.14,208700,0.14
2014-05-23,0.14,0.145,0.13,0.135,281200,0.135
2014-05-22,0.135,0.145,0.135,0.145,72700,0.145
2014-05-21,0.135,0.14,0.135,0.135,135200,0.135
2014-05-20,0.14,0.14,0.135,0.135,81600,0.135
2014-05-19,0.15,0.15,0.145,0.145,72700,0.145
2014-05-16,0.16,0.16,0.15,0.15,271200,0.15
2014-05-15,0.16,0.17,0.155,0.165,690800,0.165
2014-05-14,0.15,0.16,0.15,0.16,120000,0.16
2014-05-13,0.15,0.15,0.15,0.15,29000,0.15
2014-05-12,0.15,0.15,0.14,0.145,93000,0.145
2014-05-09,0.145,0.15,0.145,0.15,220100,0.15
2014-05-08,0.14,0.145,0.14,0.145,71400,0.145
2014-05-07,0.14,0.14,0.135,0.14,390900,0.14
2014-05-06,0.13,0.145,0.13,0.14,389700,0.14
2014-05-05,0.145,0.145,0.125,0.125,239500,0.125
2014-05-02,0.145,0.145,0.135,0.14,507800,0.14
2014-05-01,0.16,0.16,0.145,0.145,142300,0.145
2014-04-30,0.16,0.16,0.135,0.16,797100,0.16
2014-04-29,0.165,0.17,0.16,0.17,484100,0.17
2014-04-28,0.175,0.175,0.17,0.17,17200,0.17
2014-04-25,0.175,0.175,0.175,0.175,000,0.175
2014-04-24,0.18,0.18,0.17,0.175,164100,0.175
2014-04-23,0.18,0.185,0.17,0.17,910800,0.17
2014-04-22,0.18,0.185,0.18,0.18,555000,0.18
2014-04-21,0.18,0.18,0.18,0.18,000,0.18
2014-04-18,0.18,0.18,0.18,0.18,000,0.18
2014-04-17,0.19,0.19,0.175,0.18,399200,0.18
2014-04-16,0.175,0.19,0.175,0.19,257700,0.19
2014-04-15,0.175,0.175,0.175,0.175,123000,0.175
2014-04-14,0.18,0.18,0.175,0.175,378900,0.175
2014-04-11,0.195,0.195,0.18,0.185,358000,0.185
2014-04-10,0.185,0.20,0.185,0.20,287100,0.20
2014-04-09,0.185,0.185,0.18,0.185,490900,0.185
2014-04-08,0.18,0.185,0.18,0.18,159700,0.18
2014-04-07,0.185,0.19,0.18,0.18,661100,0.18
2014-04-04,0.185,0.19,0.18,0.185,345600,0.185
2014-04-03,0.195,0.20,0.18,0.18,416700,0.18
2014-04-02,0.18,0.20,0.18,0.19,1086000,0.19
2014-04-01,0.20,0.20,0.18,0.18,358400,0.18
2014-03-31,0.215,0.215,0.185,0.185,1102600,0.185
2014-03-28,0.23,0.24,0.21,0.215,1528300,0.215
2014-03-27,0.205,0.245,0.205,0.235,1168400,0.235
2014-03-26,0.215,0.215,0.195,0.20,1188400,0.20
2014-03-25,0.21,0.23,0.19,0.22,2714600,0.22
2014-03-24,0.155,0.21,0.155,0.20,2930600,0.20
2014-03-21,0.155,0.155,0.15,0.15,95000,0.15
2014-03-20,0.16,0.16,0.145,0.15,444000,0.15
2014-03-19,0.18,0.18,0.16,0.16,1378000,0.16
2014-03-18,0.17,0.18,0.17,0.18,100100,0.18
2014-03-17,0.18,0.20,0.17,0.17,1702000,0.17
2014-03-14,0.18,0.19,0.165,0.175,2243000,0.175
2014-03-13,0.14,0.16,0.14,0.16,390100,0.16
2014-03-12,0.14,0.14,0.14,0.14,171300,0.14
2014-03-11,0.135,0.135,0.135,0.135,55900,0.135
2014-03-10,0.12,0.13,0.12,0.13,68000,0.13
2014-03-07,0.13,0.135,0.12,0.13,144400,0.13
2014-03-06,0.125,0.125,0.125,0.125,000,0.125
2014-03-05,0.125,0.125,0.125,0.125,000,0.125
2014-03-04,0.12,0.125,0.12,0.125,121500,0.125
2014-03-03,0.12,0.12,0.12,0.12,8000,0.12
2014-02-28,0.125,0.125,0.125,0.125,150000,0.125
2014-02-27,0.12,0.12,0.12,0.12,000,0.12
2014-02-26,0.12,0.12,0.12,0.12,15000,0.12
2014-02-25,0.12,0.12,0.12,0.12,14800,0.12
2014-02-24,0.12,0.12,0.12,0.12,000,0.12
2014-02-21,0.12,0.12,0.12,0.12,000,0.12
2014-02-20,0.12,0.12,0.12,0.12,261300,0.12
2014-02-19,0.125,0.125,0.125,0.125,104700,0.125
2014-02-18,0.125,0.125,0.125,0.125,80000,0.125
2014-02-17,0.13,0.135,0.13,0.135,65400,0.135
2014-02-14,0.135,0.135,0.13,0.13,214500,0.13
2014-02-13,0.135,0.135,0.135,0.135,155000,0.135
2014-02-12,0.135,0.135,0.125,0.13,352300,0.13
2014-02-11,0.135,0.135,0.135,0.135,169000,0.135
2014-02-10,0.135,0.135,0.135,0.135,30600,0.135
2014-02-07,0.145,0.145,0.135,0.135,24200,0.135
2014-02-06,0.14,0.14,0.135,0.135,196400,0.135
2014-02-05,0.145,0.155,0.14,0.14,379400,0.14
2014-02-04,0.13,0.13,0.13,0.13,000,0.13
2014-02-03,0.12,0.135,0.12,0.13,247100,0.13
2014-01-31,0.135,0.135,0.135,0.135,000,0.135
2014-01-30,0.135,0.135,0.135,0.135,000,0.135
2014-01-29,0.135,0.135,0.13,0.135,57000,0.135
2014-01-28,0.14,0.14,0.14,0.14,75000,0.14
2014-01-27,0.145,0.145,0.145,0.145,000,0.145
2014-01-24,0.155,0.155,0.145,0.145,60000,0.145
2014-01-23,0.16,0.16,0.155,0.155,47200,0.155
2014-01-22,0.16,0.16,0.16,0.16,112900,0.16
2014-01-21,0.145,0.15,0.145,0.15,161300,0.15
2014-01-20,0.13,0.14,0.13,0.14,191500,0.14
2014-01-17,0.13,0.13,0.13,0.13,38400,0.13
2014-01-16,0.135,0.135,0.13,0.13,60000,0.13
2014-01-15,0.13,0.135,0.13,0.135,40700,0.135
2014-01-14,0.13,0.13,0.12,0.12,95000,0.12
2014-01-13,0.11,0.14,0.11,0.14,76200,0.14
2014-01-10,0.11,0.11,0.11,0.11,14000,0.11
2014-01-09,0.11,0.12,0.11,0.11,170500,0.11
2014-01-08,0.12,0.12,0.11,0.11,170500,0.11
2014-01-07,0.12,0.12,0.115,0.12,208000,0.12
2014-01-06,0.15,0.15,0.12,0.12,433200,0.12
2014-01-03,0.15,0.15,0.135,0.15,223700,0.15
2014-01-02,0.15,0.15,0.145,0.15,72700,0.15
2014-01-01,0.15,0.15,0.15,0.15,000,0.15
2013-12-31,0.135,0.15,0.135,0.15,153400,0.15
2013-12-30,0.17,0.17,0.14,0.14,294900,0.14
2013-12-27,0.15,0.175,0.14,0.16,1168800,0.16
2013-12-26,0.14,0.14,0.14,0.14,000,0.14
2013-12-25,0.14,0.14,0.14,0.14,000,0.14
2013-12-24,0.13,0.15,0.12,0.14,1156500,0.14
2013-12-23,0.12,0.20,0.12,0.13,2296700,0.13
2013-12-20,0.07,0.07,0.07,0.07,000,0.07
2013-12-19,0.07,0.07,0.07,0.07,000,0.07
2013-12-18,0.07,0.07,0.07,0.07,256200,0.07
2013-12-17,0.08,0.08,0.08,0.08,000,0.08
2013-12-16,0.08,0.08,0.08,0.08,000,0.08
2013-12-13,0.08,0.08,0.08,0.08,000,0.08
2013-12-12,0.08,0.08,0.08,0.08,000,0.08
2013-12-11,0.08,0.08,0.08,0.08,000,0.08
2013-12-10,0.08,0.08,0.08,0.08,105000,0.08
2013-12-09,0.08,0.08,0.08,0.08,000,0.08
2013-12-06,0.08,0.08,0.08,0.08,220000,0.08
2013-12-05,0.095,0.095,0.08,0.08,160900,0.08
2013-12-04,0.095,0.095,0.095,0.095,000,0.095
2013-12-03,0.10,0.10,0.095,0.095,126400,0.095
2013-12-02,0.105,0.105,0.105,0.105,46000,0.105
2013-11-29,0.105,0.105,0.105,0.105,268000,0.105
2013-11-28,0.10,0.10,0.10,0.10,000,0.10
2013-11-27,0.10,0.10,0.10,0.10,8000,0.10
2013-11-26,0.10,0.10,0.10,0.10,3500,0.10
2013-11-25,0.115,0.115,0.115,0.115,000,0.115
2013-11-22,0.105,0.115,0.105,0.115,25400,0.115
2013-11-21,0.105,0.105,0.105,0.105,20000,0.105
2013-11-20,0.11,0.11,0.105,0.105,105000,0.105
2013-11-19,0.115,0.115,0.115,0.115,25000,0.115
2013-11-18,0.115,0.115,0.115,0.115,82200,0.115
2013-11-15,0.12,0.12,0.10,0.10,185200,0.10
2013-11-14,0.125,0.125,0.125,0.125,000,0.125
2013-11-13,0.125,0.125,0.11,0.125,334100,0.125
2013-11-12,0.11,0.13,0.11,0.11,21600,0.11
2013-11-11,0.10,0.10,0.10,0.10,196200,0.10
2013-11-08,0.10,0.10,0.10,0.10,46700,0.10
2013-11-07,0.10,0.10,0.10,0.10,50800,0.10
2013-11-06,0.10,0.10,0.10,0.10,000,0.10
2013-11-05,0.10,0.10,0.10,0.10,000,0.10
2013-11-04,0.12,0.12,0.10,0.10,266300,0.10
2013-11-01,0.135,0.135,0.115,0.12,220400,0.12
2013-10-31,0.105,0.12,0.105,0.12,230700,0.12
2013-10-30,0.09,0.10,0.09,0.10,260000,0.10
2013-10-29,0.085,0.085,0.085,0.085,55000,0.085
2013-10-28,0.085,0.085,0.085,0.085,30000,0.085
2013-10-25,0.085,0.085,0.085,0.085,10000,0.085
2013-10-24,0.08,0.085,0.08,0.085,100000,0.085
2013-10-23,0.074,0.08,0.074,0.08,120000,0.08
2013-10-22,0.068,0.068,0.068,0.068,15000,0.068
2013-10-21,0.07,0.07,0.07,0.07,50000,0.07
2013-10-18,0.058,0.065,0.058,0.063,1014600,0.063
2013-10-17,0.055,0.055,0.055,0.055,200000,0.055
2013-10-16,0.05,0.05,0.05,0.05,10000,0.05
2013-10-15,0.05,0.05,0.05,0.05,11300,0.05
2013-10-14,0.05,0.05,0.05,0.05,47800,0.05
2013-10-11,0.055,0.055,0.055,0.055,11400,0.055
2013-10-10,0.058,0.058,0.058,0.058,000,0.058
2013-10-09,0.058,0.058,0.058,0.058,10000,0.058
2013-10-08,0.059,0.059,0.059,0.059,20000,0.059
2013-10-07,0.059,0.059,0.059,0.059,180000,0.059
2013-10-04,0.059,0.059,0.059,0.059,50000,0.059
2013-10-03,0.055,0.057,0.055,0.057,39900,0.057
2013-10-02,0.067,0.067,0.067,0.067,000,0.067
2013-10-01,0.067,0.067,0.067,0.067,000,0.067
2013-09-30,0.067,0.067,0.067,0.067,000,0.067
2013-09-27,0.067,0.067,0.067,0.067,000,0.067
2013-09-26,0.067,0.067,0.067,0.067,000,0.067
2013-09-25,0.067,0.067,0.067,0.067,000,0.067
2013-09-24,0.067,0.067,0.067,0.067,000,0.067
2013-09-23,0.067,0.067,0.067,0.067,22400,0.067
2013-09-20,0.069,0.069,0.069,0.069,18500,0.069
2013-09-19,0.069,0.069,0.069,0.069,4400,0.069
2013-09-18,0.07,0.071,0.069,0.069,172900,0.069
2013-09-17,0.072,0.074,0.072,0.074,20000,0.074
2013-09-16,0.074,0.074,0.074,0.074,000,0.074
2013-09-13,0.072,0.074,0.072,0.074,85500,0.074
2013-09-12,0.072,0.072,0.072,0.072,000,0.072
2013-09-11,0.07,0.072,0.07,0.072,123800,0.072
2013-09-10,0.079,0.079,0.079,0.079,000,0.079
2013-09-09,0.079,0.079,0.079,0.079,000,0.079
2013-09-06,0.079,0.079,0.079,0.079,000,0.079
2013-09-05,0.079,0.079,0.079,0.079,000,0.079
2013-09-04,0.079,0.079,0.079,0.079,000,0.079
2013-09-03,0.079,0.079,0.079,0.079,8800,0.079
2013-09-02,0.07,0.07,0.07,0.07,000,0.07
2013-08-30,0.07,0.07,0.07,0.07,000,0.07
2013-08-29,0.071,0.071,0.07,0.07,36700,0.07
2013-08-28,0.07,0.07,0.07,0.07,349700,0.07
2013-08-27,0.078,0.078,0.071,0.071,214000,0.071
2013-08-26,0.078,0.078,0.078,0.078,100000,0.078
2013-08-23,0.08,0.08,0.08,0.08,000,0.08
2013-08-22,0.08,0.08,0.08,0.08,000,0.08
2013-08-21,0.08,0.08,0.08,0.08,32000,0.08
2013-08-20,0.078,0.078,0.078,0.078,000,0.078
2013-08-19,0.08,0.08,0.077,0.078,31000,0.078
2013-08-16,0.08,0.08,0.08,0.08,000,0.08
2013-08-15,0.08,0.08,0.08,0.08,000,0.08
2013-08-14,0.08,0.08,0.08,0.08,3100,0.08
2013-08-13,0.08,0.08,0.08,0.08,000,0.08
2013-08-12,0.08,0.08,0.08,0.08,3300,0.08
2013-08-09,0.08,0.08,0.08,0.08,20000,0.08
2013-08-08,0.08,0.08,0.08,0.08,32100,0.08
2013-08-07,0.082,0.082,0.073,0.073,119900,0.073
2013-08-06,0.082,0.082,0.082,0.082,8000,0.082
2013-08-05,0.09,0.09,0.09,0.09,261500,0.09
2013-08-02,0.09,0.09,0.09,0.09,25000,0.09
2013-08-01,0.09,0.09,0.09,0.09,19100,0.09
2013-07-31,0.088,0.088,0.088,0.088,10000,0.088
2013-07-30,0.086,0.086,0.086,0.086,000,0.086
2013-07-29,0.086,0.086,0.086,0.086,12000,0.086
2013-07-26,0.082,0.082,0.082,0.082,000,0.082
2013-07-25,0.082,0.082,0.082,0.082,000,0.082
2013-07-24,0.082,0.082,0.082,0.082,2800,0.082
2013-07-23,0.085,0.085,0.082,0.082,126800,0.082
2013-07-22,0.092,0.095,0.09,0.09,92100,0.09
2013-07-19,0.099,0.10,0.091,0.091,180000,0.091
2013-07-18,0.085,0.11,0.085,0.10,795700,0.10
2013-07-17,0.075,0.079,0.075,0.079,33300,0.079
2013-07-16,0.075,0.075,0.072,0.075,414400,0.075
2013-07-15,0.08,0.08,0.08,0.08,10000,0.08
2013-07-12,0.077,0.077,0.077,0.077,000,0.077
2013-07-11,0.077,0.077,0.077,0.077,20000,0.077
2013-07-10,0.083,0.083,0.077,0.077,187000,0.077
2013-07-09,0.085,0.085,0.085,0.085,2100,0.085
2013-07-08,0.078,0.08,0.078,0.08,74300,0.08
2013-07-05,0.08,0.08,0.075,0.075,64500,0.075
2013-07-04,0.073,0.074,0.073,0.074,39000,0.074
2013-07-03,0.071,0.071,0.07,0.07,99300,0.07
2013-07-02,0.072,0.072,0.072,0.072,10000,0.072
2013-07-01,0.071,0.071,0.071,0.071,000,0.071
2013-06-28,0.071,0.071,0.07,0.071,246600,0.071
2013-06-27,0.071,0.071,0.071,0.071,20000,0.071
2013-06-26,0.077,0.079,0.07,0.07,249600,0.07
2013-06-25,0.081,0.085,0.081,0.081,222000,0.081
2013-06-24,0.078,0.08,0.078,0.08,82500,0.08
2013-06-21,0.086,0.086,0.078,0.078,378700,0.078
2013-06-20,0.094,0.095,0.094,0.095,30000,0.095
2013-06-19,0.08,0.10,0.08,0.095,1682100,0.095
2013-06-18,0.077,0.08,0.077,0.08,486100,0.08
2013-06-17,0.067,0.081,0.067,0.075,875100,0.075
2013-06-14,0.065,0.067,0.065,0.067,346600,0.067
2013-06-13,0.06,0.063,0.06,0.063,627600,0.063
2013-06-12,0.061,0.062,0.057,0.062,490100,0.062
2013-06-11,0.059,0.061,0.059,0.061,225100,0.061
2013-06-10,0.056,0.056,0.056,0.056,000,0.056
2013-06-07,0.054,0.056,0.054,0.056,719100,0.056
2013-06-06,0.055,0.056,0.055,0.056,108400,0.056
2013-06-05,0.056,0.06,0.052,0.052,699000,0.052
2013-06-04,0.052,0.052,0.052,0.052,50000,0.052
2013-06-03,0.05,0.05,0.05,0.05,25000,0.05
2013-05-31,0.047,0.047,0.047,0.047,91500,0.047
2013-05-30,0.046,0.047,0.046,0.046,130000,0.046
2013-05-29,0.053,0.053,0.05,0.05,52600,0.05
2013-05-28,0.054,0.054,0.054,0.054,000,0.054
2013-05-27,0.053,0.054,0.053,0.054,108700,0.054
2013-05-24,0.053,0.053,0.052,0.053,65000,0.053
2013-05-23,0.069,0.069,0.059,0.059,451300,0.059
2013-05-22,0.067,0.075,0.067,0.07,492200,0.07
2013-05-21,0.064,0.068,0.063,0.068,187900,0.068
2013-05-20,0.062,0.069,0.062,0.064,284700,0.064
2013-05-17,0.059,0.06,0.059,0.06,109000,0.06
2013-05-16,0.06,0.06,0.06,0.06,270200,0.06
2013-05-15,0.058,0.06,0.058,0.06,310100,0.06
2013-05-14,0.058,0.058,0.054,0.054,538600,0.054
2013-05-13,0.045,0.06,0.045,0.053,897900,0.053
2013-05-10,0.045,0.045,0.045,0.045,5000,0.045
2013-05-09,0.045,0.047,0.045,0.045,75000,0.045
2013-05-08,0.047,0.05,0.047,0.047,450000,0.047
2013-05-07,0.045,0.045,0.045,0.045,50000,0.045
2013-05-06,0.045,0.045,0.045,0.045,130000,0.045
2013-05-03,0.044,0.045,0.04,0.045,360000,0.045
2013-05-02,0.039,0.042,0.039,0.042,300000,0.042
2013-05-01,0.041,0.041,0.039,0.039,1609300,0.039
2013-04-30,0.045,0.046,0.04,0.04,685000,0.04
2013-04-29,0.05,0.05,0.045,0.045,393800,0.045
2013-04-26,0.057,0.057,0.05,0.05,226900,0.05
2013-04-25,0.06,0.06,0.06,0.06,000,0.06
2013-04-24,0.06,0.06,0.06,0.06,85000,0.06
2013-04-23,0.056,0.056,0.056,0.056,24000,0.056
2013-04-22,0.06,0.064,0.056,0.056,197000,0.056
2013-04-19,0.06,0.06,0.056,0.056,68400,0.056
2013-04-18,0.058,0.058,0.058,0.058,95500,0.058
2013-04-17,0.059,0.059,0.058,0.058,50000,0.058
2013-04-16,0.075,0.075,0.075,0.075,000,0.075
2013-04-15,0.07,0.075,0.07,0.075,34000,0.075
2013-04-12,0.068,0.07,0.068,0.07,58000,0.07
2013-04-11,0.075,0.075,0.07,0.072,165300,0.072
2013-04-10,0.08,0.08,0.08,0.08,72200,0.08
2013-04-09,0.08,0.08,0.08,0.08,10500,0.08
2013-04-08,0.087,0.087,0.087,0.087,000,0.087
2013-04-05,0.087,0.087,0.087,0.087,000,0.087
2013-04-04,0.089,0.089,0.087,0.087,63400,0.087
2013-04-03,0.092,0.092,0.088,0.09,129400,0.09
2013-04-02,0.093,0.093,0.087,0.09,271300,0.09
2013-04-01,0.093,0.093,0.093,0.093,000,0.093
2013-03-29,0.093,0.093,0.093,0.093,000,0.093
2013-03-28,0.091,0.095,0.091,0.093,114000,0.093
2013-03-27,0.091,0.091,0.091,0.091,20000,0.091
2013-03-26,0.105,0.105,0.09,0.09,307300,0.09
2013-03-25,0.12,0.12,0.11,0.11,125500,0.11
2013-03-22,0.12,0.125,0.12,0.125,167500,0.125
2013-03-21,0.115,0.115,0.115,0.115,49700,0.115
2013-03-20,0.115,0.115,0.115,0.115,000,0.115
2013-03-19,0.12,0.125,0.115,0.115,81000,0.115
2013-03-18,0.13,0.13,0.12,0.12,255000,0.12
2013-03-15,0.13,0.13,0.13,0.13,000,0.13
2013-03-14,0.13,0.13,0.13,0.13,7200,0.13
2013-03-13,0.145,0.145,0.13,0.13,12000,0.13
2013-03-12,0.14,0.14,0.125,0.13,515600,0.13
2013-03-11,0.155,0.155,0.15,0.15,142900,0.15
2013-03-08,0.15,0.165,0.14,0.155,302500,0.155
2013-03-07,0.185,0.185,0.155,0.165,355700,0.165
2013-03-06,0.18,0.185,0.18,0.185,97400,0.185
2013-03-05,0.17,0.195,0.17,0.18,507200,0.18
2013-03-04,0.16,0.175,0.16,0.17,144800,0.17
2013-03-01,0.16,0.165,0.16,0.16,46400,0.16
2013-02-28,0.17,0.17,0.165,0.165,51900,0.165
2013-02-27,0.135,0.15,0.135,0.15,62600,0.15
2013-02-26,0.14,0.14,0.105,0.14,66100,0.14
2013-02-25,0.14,0.14,0.14,0.14,8000,0.14
2013-02-22,0.165,0.165,0.165,0.165,10000,0.165
2013-02-21,0.15,0.17,0.15,0.155,145800,0.155
2013-02-20,0.18,0.18,0.18,0.18,000,0.18
2013-02-19,0.16,0.18,0.15,0.18,92000,0.18
2013-02-18,0.165,0.18,0.15,0.18,65300,0.18
2013-02-15,0.18,0.185,0.17,0.17,108600,0.17
2013-02-14,0.185,0.19,0.18,0.18,50500,0.18
2013-02-13,0.175,0.185,0.175,0.185,44200,0.185
2013-02-12,0.185,0.185,0.185,0.185,12000,0.185
2013-02-11,0.185,0.185,0.185,0.185,4700,0.185
2013-02-08,0.185,0.185,0.185,0.185,4200,0.185
2013-02-07,0.185,0.185,0.18,0.18,15700,0.18
2013-02-06,0.18,0.185,0.175,0.185,77200,0.185
2013-02-05,0.19,0.195,0.18,0.195,36200,0.195
2013-02-04,0.18,0.19,0.17,0.19,112300,0.19
2013-02-01,0.18,0.185,0.16,0.17,54200,0.17
2013-01-31,0.17,0.18,0.17,0.18,50000,0.18
2013-01-30,0.19,0.19,0.18,0.18,12500,0.18
2013-01-29,0.19,0.195,0.19,0.195,20000,0.195
2013-01-28,0.18,0.18,0.18,0.18,000,0.18
2013-01-25,0.175,0.18,0.175,0.18,36200,0.18
2013-01-24,0.16,0.17,0.16,0.17,89500,0.17
2013-01-23,0.16,0.16,0.16,0.16,186100,0.16
2013-01-22,0.165,0.165,0.16,0.16,421700,0.16
2013-01-21,0.165,0.175,0.16,0.165,211900,0.165
2013-01-18,0.175,0.175,0.17,0.17,100000,0.17
2013-01-17,0.175,0.19,0.175,0.175,570700,0.175
2013-01-16,0.175,0.18,0.17,0.175,213600,0.175
2013-01-15,0.20,0.20,0.185,0.185,37600,0.185
2013-01-14,0.20,0.20,0.175,0.20,129000,0.20
2013-01-11,0.215,0.215,0.20,0.20,410000,0.20
2013-01-10,0.27,0.275,0.21,0.225,1297700,0.225
2013-01-09,0.26,0.285,0.26,0.275,944700,0.275
2013-01-08,0.24,0.275,0.24,0.245,922600,0.245
2013-01-07,0.22,0.245,0.215,0.23,484200,0.23
2013-01-04,0.225,0.23,0.20,0.22,385500,0.22
2013-01-03,0.175,0.25,0.175,0.225,1622700,0.225
2013-01-02,0.175,0.175,0.175,0.175,211500,0.175
2013-01-01,0.17,0.17,0.17,0.17,000,0.17
2012-12-31,0.175,0.175,0.17,0.17,158800,0.17
2012-12-28,0.17,0.17,0.17,0.17,129800,0.17
2012-12-27,0.17,0.17,0.16,0.16,34200,0.16
2012-12-26,0.17,0.17,0.17,0.17,000,0.17
2012-12-25,0.17,0.17,0.17,0.17,000,0.17
2012-12-24,0.165,0.17,0.16,0.17,377100,0.17
2012-12-21,0.155,0.155,0.135,0.155,262500,0.155
2012-12-20,0.15,0.185,0.15,0.16,1492200,0.16
2012-12-19,0.13,0.145,0.13,0.14,1092400,0.14
2012-12-18,0.125,0.145,0.12,0.13,469700,0.13
2012-12-17,0.10,0.10,0.09,0.095,222100,0.095
2012-12-14,0.10,0.105,0.10,0.105,119000,0.105
2012-12-13,0.105,0.11,0.10,0.11,41000,0.11
2012-12-12,0.11,0.11,0.105,0.105,105000,0.105
2012-12-11,0.105,0.105,0.105,0.105,18500,0.105
2012-12-10,0.105,0.11,0.105,0.105,60000,0.105
2012-12-07,0.11,0.11,0.10,0.10,76000,0.10
2012-12-06,0.115,0.12,0.115,0.12,6000,0.12
2012-12-05,0.125,0.125,0.105,0.105,188800,0.105
2012-12-04,0.14,0.14,0.14,0.14,000,0.14
2012-12-03,0.125,0.14,0.125,0.14,55000,0.14
2012-11-30,0.13,0.13,0.13,0.13,20000,0.13
2012-11-29,0.135,0.145,0.13,0.145,76500,0.145
2012-11-28,0.145,0.145,0.14,0.14,30500,0.14
2012-11-27,0.155,0.155,0.14,0.14,69800,0.14
2012-11-26,0.16,0.16,0.15,0.16,189800,0.16
2012-11-23,0.14,0.155,0.14,0.15,310800,0.15
2012-11-22,0.13,0.155,0.13,0.14,874600,0.14
2012-11-21,0.11,0.13,0.11,0.13,30000,0.13
2012-11-20,0.105,0.11,0.10,0.11,183100,0.11
2012-11-19,0.11,0.11,0.11,0.11,100000,0.11
2012-11-16,0.125,0.125,0.11,0.11,26500,0.11
2012-11-15,0.14,0.14,0.125,0.125,114100,0.125
2012-11-14,0.12,0.14,0.12,0.14,48800,0.14
2012-11-13,0.135,0.135,0.125,0.13,393100,0.13
2012-11-12,0.125,0.14,0.125,0.14,60300,0.14
2012-11-09,0.12,0.13,0.11,0.13,5103800,0.13
2012-11-08,0.12,0.12,0.12,0.12,44900,0.12
2012-11-07,0.12,0.12,0.12,0.12,237600,0.12
2012-11-06,0.12,0.12,0.12,0.12,000,0.12
2012-11-05,0.115,0.12,0.115,0.12,45000,0.12
2012-11-02,0.12,0.12,0.10,0.115,371700,0.115
2012-11-01,0.12,0.12,0.12,0.12,341200,0.12
2012-10-31,0.145,0.145,0.12,0.12,525400,0.12
2012-10-30,0.155,0.155,0.135,0.145,206800,0.145
2012-10-29,0.16,0.16,0.15,0.15,67300,0.15
2012-10-26,0.145,0.155,0.145,0.155,190400,0.155
2012-10-25,0.14,0.145,0.135,0.14,361500,0.14
2012-10-24,0.14,0.145,0.135,0.145,279800,0.145
2012-10-23,0.15,0.15,0.14,0.145,305400,0.145
2012-10-22,0.17,0.17,0.15,0.15,678100,0.15
2012-10-19,0.16,0.185,0.15,0.17,1332600,0.17
2012-10-18,0.135,0.16,0.13,0.16,911100,0.16
2012-10-17,0.155,0.175,0.125,0.135,3346100,0.135
2012-10-16,0.15,0.18,0.145,0.16,4063900,0.16
2012-10-15,0.44,0.44,0.44,0.44,000,0.44
2012-10-12,0.395,0.44,0.39,0.44,1106700,0.44
2012-10-11,0.385,0.40,0.38,0.39,287500,0.39
2012-10-10,0.40,0.40,0.38,0.39,317900,0.39
2012-10-09,0.40,0.405,0.39,0.40,268600,0.40
2012-10-08,0.425,0.425,0.39,0.415,426600,0.415
2012-10-05,0.42,0.425,0.41,0.41,551300,0.41
2012-10-04,0.43,0.435,0.42,0.425,488100,0.425
2012-10-03,0.45,0.45,0.43,0.43,446400,0.43
2012-10-02,0.425,0.465,0.425,0.445,596700,0.445
2012-10-01,0.415,0.415,0.40,0.40,139800,0.40
2012-09-28,0.405,0.42,0.38,0.415,377600,0.415
2012-09-27,0.42,0.42,0.40,0.40,350300,0.40
2012-09-26,0.42,0.43,0.415,0.42,212900,0.42
2012-09-25,0.425,0.45,0.42,0.43,228700,0.43
2012-09-24,0.435,0.435,0.41,0.41,313400,0.41
2012-09-21,0.47,0.475,0.44,0.445,366000,0.445
2012-09-20,0.47,0.475,0.46,0.465,298300,0.465
2012-09-19,0.475,0.475,0.45,0.46,517100,0.46
2012-09-18,0.425,0.49,0.42,0.46,1181100,0.46
2012-09-17,0.40,0.40,0.40,0.40,000,0.40
2012-09-14,0.40,0.40,0.40,0.40,000,0.40
2012-09-13,0.42,0.425,0.39,0.40,416300,0.40
2012-09-12,0.425,0.435,0.41,0.42,416400,0.42
2012-09-11,0.485,0.505,0.415,0.415,1484000,0.415
2012-09-10,0.475,0.485,0.415,0.445,1018900,0.445
2012-09-07,0.50,0.51,0.45,0.475,823800,0.475
2012-09-06,0.52,0.52,0.46,0.47,1265200,0.47
2012-09-05,0.595,0.595,0.47,0.515,2942500,0.515
2012-09-04,0.63,0.655,0.59,0.595,2368600,0.595
2012-09-03,0.635,0.635,0.58,0.59,835900,0.59
2012-08-31,0.55,0.635,0.54,0.615,984400,0.615
2012-08-30,0.62,0.62,0.56,0.565,648800,0.565
2012-08-29,0.645,0.65,0.59,0.62,1869800,0.62
2012-08-28,0.525,0.62,0.525,0.62,3098700,0.62
2012-08-27,0.485,0.525,0.485,0.50,1167900,0.50
2012-08-24,0.48,0.495,0.46,0.46,378800,0.46
2012-08-23,0.535,0.55,0.47,0.47,1125500,0.47
2012-08-22,0.60,0.62,0.525,0.525,2370100,0.525
2012-08-21,0.50,0.575,0.485,0.57,1570400,0.57
2012-08-20,0.53,0.58,0.47,0.48,2352700,0.48
2012-08-17,0.385,0.50,0.385,0.49,3345700,0.49
2012-08-16,0.37,0.40,0.36,0.38,1235100,0.38
2012-08-15,0.42,0.445,0.36,0.37,5079600,0.37
2012-08-14,0.33,0.35,0.325,0.345,1533700,0.345
2012-08-13,0.33,0.34,0.325,0.33,400000,0.33
2012-08-10,0.315,0.335,0.315,0.335,369600,0.335
2012-08-09,0.31,0.32,0.30,0.31,210500,0.31
2012-08-08,0.33,0.33,0.245,0.31,1103000,0.31
2012-08-07,0.355,0.355,0.30,0.325,539200,0.325
2012-08-06,0.37,0.395,0.35,0.355,927800,0.355
2012-08-03,0.30,0.34,0.295,0.34,237200,0.34
2012-08-02,0.31,0.31,0.285,0.30,136300,0.30
2012-08-01,0.325,0.325,0.295,0.31,277400,0.31
2012-07-31,0.31,0.33,0.295,0.325,596700,0.325
2012-07-30,0.29,0.32,0.27,0.30,554700,0.30
2012-07-27,0.28,0.29,0.27,0.29,344300,0.29
2012-07-26,0.30,0.30,0.27,0.275,742300,0.275
2012-07-25,0.325,0.325,0.29,0.30,1278000,0.30
2012-07-24,0.28,0.33,0.27,0.315,2497600,0.315
2012-07-23,0.265,0.28,0.26,0.27,769700,0.27
2012-07-20,0.29,0.29,0.26,0.28,854700,0.28
2012-07-19,0.23,0.285,0.23,0.28,1303000,0.28
2012-07-18,0.22,0.23,0.22,0.22,286900,0.22
2012-07-17,0.225,0.225,0.21,0.21,15300,0.21
2012-07-16,0.19,0.23,0.19,0.215,266700,0.215
2012-07-13,0.19,0.19,0.185,0.185,218900,0.185
2012-07-12,0.20,0.20,0.195,0.195,278700,0.195
2012-07-11,0.23,0.23,0.19,0.20,109400,0.20
2012-07-10,0.23,0.23,0.23,0.23,000,0.23
2012-07-09,0.23,0.23,0.23,0.23,20000,0.23
2012-07-06,0.235,0.235,0.235,0.235,000,0.235
2012-07-05,0.185,0.235,0.185,0.235,24400,0.235
2012-07-04,0.20,0.20,0.18,0.18,35000,0.18
2012-07-03,0.19,0.20,0.19,0.20,85100,0.20
2012-07-02,0.20,0.20,0.19,0.19,92400,0.19
2012-06-29,0.20,0.20,0.20,0.20,27000,0.20
2012-06-28,0.25,0.25,0.20,0.20,30000,0.20
2012-06-27,0.24,0.24,0.24,0.24,000,0.24
2012-06-26,0.23,0.24,0.19,0.24,138800,0.24
2012-06-25,0.24,0.24,0.235,0.24,47000,0.24
2012-06-22,0.20,0.24,0.20,0.24,89200,0.24
2012-06-21,0.23,0.23,0.23,0.23,2500,0.23
2012-06-20,0.23,0.23,0.23,0.23,34000,0.23
2012-06-19,0.23,0.23,0.21,0.21,366500,0.21
2012-06-18,0.195,0.25,0.195,0.23,1218000,0.23
2012-06-15,0.195,0.20,0.18,0.18,55000,0.18
2012-06-14,0.22,0.22,0.185,0.185,237000,0.185
2012-06-13,0.25,0.25,0.23,0.23,65800,0.23
2012-06-12,0.25,0.25,0.25,0.25,41400,0.25
2012-06-11,0.24,0.24,0.24,0.24,000,0.24
2012-06-08,0.23,0.24,0.23,0.24,15000,0.24
2012-06-07,0.22,0.25,0.22,0.23,209000,0.23
2012-06-06,0.28,0.28,0.23,0.23,99100,0.23
2012-06-05,0.265,0.29,0.265,0.29,22900,0.29
2012-06-04,0.2431,0.25931,0.20664,0.235,1048600,0.235
2012-06-01,0.32414,0.32414,0.23095,0.25931,4157400,0.25931
2012-05-31,0.13776,0.34035,0.13776,0.26741,3216200,0.26741
2012-05-30,0.12966,0.13776,0.12966,0.13776,160900,0.13776
2012-05-29,0.13371,0.13371,0.12966,0.12966,121600,0.12966
2012-05-28,0.14586,0.14586,0.13371,0.13371,160400,0.13371
2012-05-25,0.14586,0.14586,0.14586,0.14586,117200,0.14586
2012-05-24,0.15397,0.15397,0.14586,0.14586,327000,0.14586
2012-05-23,0.11345,0.1256,0.11345,0.1256,199600,0.1256
2012-05-22,0.1094,0.1094,0.1094,0.1094,145600,0.1094
2012-05-21,0.11345,0.12155,0.11345,0.12155,123400,0.12155
2012-05-18,0.1256,0.1256,0.1256,0.1256,000,0.1256
2012-05-17,0.13371,0.13371,0.1256,0.1256,131900,0.1256
2012-05-16,0.13776,0.14586,0.13371,0.14586,216800,0.14586
2012-05-15,0.14181,0.14586,0.13776,0.14586,370200,0.14586
2012-05-14,0.14181,0.16207,0.14181,0.14586,1294500,0.14586
2012-05-11,0.14181,0.14181,0.13371,0.14181,716900,0.14181
2012-05-10,0.10535,0.16207,0.10535,0.13371,5260800,0.13371
2012-05-09,0.07131,0.11345,0.07131,0.10535,1498900,0.10535
2012-05-08,0.03809,0.03809,0.03809,0.03809,000,0.03809
2012-05-07,0.03809,0.03809,0.03809,0.03809,000,0.03809
2012-05-04,0.03809,0.03809,0.03809,0.03809,000,0.03809
2012-05-03,0.03809,0.03809,0.03809,0.03809,000,0.03809
2012-05-02,0.03809,0.03809,0.03809,0.03809,000,0.03809
2012-05-01,0.03809,0.03809,0.03809,0.03809,000,0.03809
2012-04-30,0.03809,0.03809,0.03809,0.03809,000,0.03809
2012-04-27,0.03809,0.03809,0.03809,0.03809,000,0.03809
2012-04-26,0.03809,0.03809,0.03809,0.03809,000,0.03809
2012-04-25,0.03809,0.03809,0.03809,0.03809,000,0.03809
2012-04-24,0.03809,0.03809,0.03809,0.03809,000,0.03809
2012-04-23,0.03809,0.03809,0.03809,0.03809,000,0.03809
2012-04-20,0.03809,0.03809,0.03809,0.03809,000,0.03809
2012-04-19,0.03809,0.03809,0.03809,0.03809,12300,0.03809
2012-04-18,0.03809,0.03809,0.03809,0.03809,92500,0.03809
2012-04-17,0.03809,0.03809,0.03809,0.03809,000,0.03809
2012-04-16,0.03809,0.03809,0.03809,0.03809,38100,0.03809
2012-04-13,0.03728,0.03728,0.03728,0.03728,000,0.03728
2012-04-12,0.03728,0.03728,0.03728,0.03728,000,0.03728
2012-04-11,0.03728,0.03728,0.03728,0.03728,000,0.03728
2012-04-10,0.03728,0.03728,0.03728,0.03728,000,0.03728
2012-04-09,0.03728,0.03728,0.03728,0.03728,000,0.03728
2012-04-06,0.03728,0.03728,0.03728,0.03728,000,0.03728
2012-04-05,0.03728,0.03728,0.03728,0.03728,30800,0.03728
2012-04-04,0.03809,0.03809,0.03809,0.03809,30800,0.03809
2012-04-03,0.04052,0.04052,0.04052,0.04052,000,0.04052
2012-04-02,0.04052,0.04052,0.04052,0.04052,000,0.04052
2012-03-30,0.04052,0.04052,0.04052,0.04052,000,0.04052
2012-03-29,0.04052,0.04052,0.04052,0.04052,000,0.04052
2012-03-28,0.04052,0.04052,0.04052,0.04052,000,0.04052
2012-03-27,0.04052,0.04052,0.04052,0.04052,000,0.04052
2012-03-26,0.04052,0.04052,0.04052,0.04052,123400,0.04052
2012-03-23,0.05186,0.05186,0.04214,0.04214,83900,0.04214
2012-03-22,0.05267,0.05267,0.05267,0.05267,000,0.05267
2012-03-21,0.05267,0.05267,0.05267,0.05267,000,0.05267
2012-03-20,0.05267,0.05267,0.05267,0.05267,000,0.05267
2012-03-19,0.05267,0.05267,0.05267,0.05267,24600,0.05267
2012-03-16,0.05267,0.05267,0.05267,0.05267,000,0.05267
2012-03-15,0.05267,0.05267,0.05267,0.05267,000,0.05267
2012-03-14,0.05267,0.05267,0.05267,0.05267,000,0.05267
2012-03-13,0.05267,0.05267,0.05267,0.05267,000,0.05267
2012-03-12,0.05267,0.05267,0.05267,0.05267,000,0.05267
2012-03-09,0.05267,0.05267,0.05267,0.05267,000,0.05267
2012-03-08,0.05267,0.05267,0.05267,0.05267,000,0.05267
2012-03-07,0.05267,0.05267,0.05267,0.05267,000,0.05267
2012-03-06,0.05267,0.05267,0.05186,0.05186,74000,0.05186
2012-03-05,0.05267,0.05267,0.05267,0.05267,000,0.05267
2012-03-02,0.05267,0.05267,0.05267,0.05267,000,0.05267
2012-03-01,0.05267,0.05267,0.05267,0.05267,000,0.05267
2012-02-29,0.05267,0.05267,0.05267,0.05267,49300,0.05267
2012-02-28,0.05672,0.05672,0.05672,0.05672,000,0.05672
2012-02-27,0.05672,0.05672,0.05672,0.05672,000,0.05672
2012-02-24,0.05672,0.05672,0.05672,0.05672,000,0.05672
2012-02-23,0.05672,0.05672,0.05672,0.05672,000,0.05672
2012-02-22,0.05672,0.05672,0.05672,0.05672,000,0.05672
2012-02-21,0.05672,0.05672,0.05672,0.05672,000,0.05672
2012-02-20,0.05672,0.05672,0.05672,0.05672,000,0.05672
2012-02-17,0.05672,0.05672,0.05672,0.05672,000,0.05672
2012-02-16,0.05672,0.05672,0.05672,0.05672,66000,0.05672
2012-02-15,0.05753,0.05753,0.05753,0.05753,000,0.05753
2012-02-14,0.05753,0.05753,0.05753,0.05753,000,0.05753
2012-02-13,0.05753,0.05753,0.05753,0.05753,000,0.05753
2012-02-10,0.05753,0.05753,0.05753,0.05753,000,0.05753
2012-02-09,0.05753,0.05753,0.05753,0.05753,000,0.05753
2012-02-08,0.05753,0.05753,0.05753,0.05753,30800,0.05753
2012-02-07,0.05672,0.05672,0.05672,0.05672,000,0.05672
2012-02-06,0.05672,0.05672,0.05672,0.05672,000,0.05672
2012-02-03,0.05672,0.05672,0.05672,0.05672,000,0.05672
2012-02-02,0.06078,0.06078,0.05672,0.05672,66600,0.05672
2012-02-01,0.06078,0.06078,0.06078,0.06078,000,0.06078
2012-01-31,0.06078,0.06078,0.06078,0.06078,000,0.06078
2012-01-27,0.06078,0.06078,0.06078,0.06078,000,0.06078
2012-01-26,0.06078,0.06078,0.06078,0.06078,000,0.06078
2012-01-25,0.06078,0.06078,0.06078,0.06078,000,0.06078
2012-01-24,0.06078,0.06078,0.06078,0.06078,000,0.06078
2012-01-23,0.06078,0.06078,0.06078,0.06078,000,0.06078
2012-01-20,0.06078,0.06078,0.06078,0.06078,000,0.06078
2012-01-19,0.06078,0.06078,0.06078,0.06078,000,0.06078
2012-01-18,0.06078,0.06078,0.06078,0.06078,000,0.06078
2012-01-17,0.06078,0.06078,0.06078,0.06078,000,0.06078
2012-01-16,0.06078,0.06078,0.06078,0.06078,000,0.06078
2012-01-13,0.06078,0.06078,0.06078,0.06078,000,0.06078
2012-01-12,0.06078,0.06078,0.06078,0.06078,000,0.06078
2012-01-11,0.06078,0.06078,0.06078,0.06078,12300,0.06078
2012-01-10,0.06078,0.06078,0.06078,0.06078,000,0.06078
2012-01-09,0.06078,0.06078,0.06078,0.06078,000,0.06078
2012-01-06,0.06078,0.06078,0.06078,0.06078,000,0.06078
2012-01-05,0.06078,0.06078,0.06078,0.06078,000,0.06078
2012-01-04,0.06078,0.06078,0.06078,0.06078,000,0.06078
2012-01-03,0.06078,0.06078,0.06078,0.06078,000,0.06078
2012-01-02,0.06078,0.06078,0.06078,0.06078,000,0.06078
2011-12-30,0.06078,0.06078,0.06078,0.06078,000,0.06078
2011-12-29,0.06078,0.06078,0.06078,0.06078,000,0.06078
2011-12-28,0.06078,0.06078,0.06078,0.06078,000,0.06078
2011-12-27,0.06078,0.06078,0.06078,0.06078,000,0.06078
2011-12-26,0.06078,0.06078,0.06078,0.06078,000,0.06078
2011-12-23,0.06078,0.06078,0.06078,0.06078,000,0.06078
2011-12-22,0.06078,0.06078,0.06078,0.06078,000,0.06078
2011-12-21,0.06078,0.06078,0.06078,0.06078,000,0.06078
2011-12-20,0.06078,0.06078,0.06078,0.06078,000,0.06078
2011-12-19,0.06078,0.06078,0.06078,0.06078,21500,0.06078
2011-12-16,0.06483,0.06483,0.06483,0.06483,000,0.06483
2011-12-15,0.06483,0.06483,0.06483,0.06483,000,0.06483
2011-12-14,0.06483,0.06483,0.06483,0.06483,000,0.06483
2011-12-13,0.06483,0.06483,0.06483,0.06483,000,0.06483
2011-12-12,0.06483,0.06483,0.06483,0.06483,000,0.06483
2011-12-09,0.06483,0.06483,0.06483,0.06483,000,0.06483
2011-12-08,0.06483,0.06483,0.06483,0.06483,000,0.06483
2011-12-07,0.06483,0.06483,0.06483,0.06483,000,0.06483
2011-12-06,0.06483,0.06483,0.06483,0.06483,000,0.06483
2011-12-05,0.06483,0.06483,0.06483,0.06483,000,0.06483
2011-12-02,0.06483,0.06483,0.06483,0.06483,000,0.06483
2011-12-01,0.06483,0.06483,0.06483,0.06483,000,0.06483
2011-11-30,0.06483,0.06483,0.06483,0.06483,30800,0.06483
2011-11-29,0.06888,0.06888,0.06888,0.06888,000,0.06888
2011-11-28,0.06888,0.06888,0.06888,0.06888,000,0.06888
2011-11-25,0.06888,0.06888,0.06888,0.06888,000,0.06888
2011-11-24,0.06888,0.06888,0.06888,0.06888,000,0.06888
2011-11-23,0.06888,0.06888,0.06888,0.06888,18500,0.06888
2011-11-22,0.06888,0.06888,0.06888,0.06888,000,0.06888
2011-11-21,0.06888,0.06888,0.06888,0.06888,000,0.06888
2011-11-18,0.06888,0.06888,0.06888,0.06888,000,0.06888
2011-11-17,0.06888,0.06888,0.06888,0.06888,000,0.06888
2011-11-15,0.06888,0.06888,0.06888,0.06888,22200,0.06888
2011-11-03,0.06888,0.06888,0.06888,0.06888,61700,0.06888
2011-10-27,0.08103,0.08103,0.08103,0.08103,6100,0.08103
2011-10-05,0.09724,0.09724,0.09319,0.09319,67800,0.09319
2011-10-04,0.10129,0.10129,0.10129,0.10129,9800,0.10129
2011-09-29,0.10129,0.10129,0.10129,0.10129,8600,0.10129
2011-09-27,0.10129,0.10129,0.10129,0.10129,12300,0.10129
2011-09-26,0.10129,0.10129,0.09724,0.10129,160400,0.10129
2011-08-24,0.09724,0.09724,0.09724,0.09724,18500,0.09724
2011-07-08,0.1256,0.1256,0.1256,0.1256,24600,0.1256
2011-07-06,0.1256,0.1256,0.1256,0.1256,61700,0.1256
2011-06-21,0.16207,0.16207,0.16207,0.16207,12300,0.16207
2011-06-03,0.18233,0.18233,0.17828,0.17828,71500,0.17828
2011-06-02,0.18233,0.18233,0.18233,0.18233,12300,0.18233
2011-06-01,0.18638,0.18638,0.18638,0.18638,21500,0.18638
2011-05-30,0.18638,0.18638,0.18638,0.18638,40100,0.18638
2011-05-24,0.18638,0.18638,0.18638,0.18638,24600,0.18638
2011-05-23,0.18638,0.18638,0.18638,0.18638,268400,0.18638
2011-05-19,0.18638,0.18638,0.18638,0.18638,61700,0.18638
2011-05-17,0.17828,0.17828,0.17828,0.17828,17200,0.17828
2011-05-16,0.18638,0.18638,0.17828,0.17828,90000,0.17828
2011-05-13,0.18638,0.19043,0.18638,0.18638,92500,0.18638
2011-05-09,0.21474,0.21474,0.21474,0.21474,28300,0.21474
2011-05-06,0.21879,0.21879,0.21879,0.21879,4900,0.21879
2011-05-05,0.23095,0.23095,0.23095,0.23095,6100,0.23095
2011-04-19,0.19043,0.19043,0.19043,0.19043,12300,0.19043
2011-04-15,0.19043,0.19043,0.19043,0.19043,12300,0.19043
2011-04-12,0.19448,0.19448,0.19448,0.19448,8600,0.19448
2011-04-11,0.19448,0.19448,0.19448,0.19448,117200,0.19448
2011-04-06,0.21069,0.21069,0.21069,0.21069,18500,0.21069
2011-04-05,0.19448,0.19448,0.19448,0.19448,24600,0.19448
2011-03-16,0.20259,0.20259,0.20259,0.20259,61700,0.20259
2011-03-15,0.20259,0.20259,0.19043,0.19043,129500,0.19043
2011-03-14,0.19853,0.19853,0.19853,0.19853,55500,0.19853
2011-03-09,0.21069,0.21069,0.20259,0.20259,62900,0.20259
2011-03-08,0.21879,0.21879,0.21879,0.21879,64100,0.21879
2011-03-04,0.21879,0.2269,0.21879,0.2269,74000,0.2269
2011-03-03,0.21879,0.21879,0.21879,0.21879,264000,0.21879
2011-02-25,0.21069,0.21069,0.20259,0.20259,172700,0.20259
2011-02-22,0.20664,0.20664,0.20664,0.20664,61700,0.20664
2011-02-21,0.21879,0.21879,0.21879,0.21879,31000,0.21879
2011-02-15,0.2269,0.2269,0.2269,0.2269,12300,0.2269
2011-02-09,0.21069,0.21069,0.21069,0.21069,12300,0.21069
2011-02-08,0.20259,0.20259,0.20259,0.20259,320800,0.20259
2011-02-04,0.21069,0.21069,0.21069,0.21069,123400,0.21069
2011-01-31,0.20664,0.20664,0.20259,0.20259,528100,0.20259
2011-01-27,0.21069,0.235,0.21069,0.235,82600,0.235
2011-01-25,0.20664,0.21879,0.20664,0.21879,265300,0.21879
2011-01-19,0.2431,0.2431,0.2431,0.2431,4900,0.2431
2011-01-17,0.20259,0.20259,0.20259,0.20259,199400,0.20259
2011-01-14,0.20259,0.20259,0.20259,0.20259,66600,0.20259
2011-01-13,0.19448,0.20259,0.19448,0.20259,107300,0.20259
2011-01-11,0.19448,0.19448,0.19448,0.19448,123400,0.19448
2011-01-06,0.20259,0.20259,0.20259,0.20259,2900,0.20259
2011-01-05,0.19853,0.19853,0.19853,0.19853,61700,0.19853
2010-12-30,0.19448,0.19448,0.18638,0.18638,43100,0.18638
2010-12-22,0.17828,0.17828,0.17828,0.17828,116000,0.17828
2010-12-21,0.17828,0.17828,0.17828,0.17828,166500,0.17828
2010-12-15,0.17828,0.17828,0.17828,0.17828,117200,0.17828
2010-12-13,0.17017,0.17017,0.17017,0.17017,61700,0.17017
2010-12-08,0.17017,0.17017,0.17017,0.17017,30800,0.17017
2010-12-06,0.17017,0.17017,0.17017,0.17017,33700,0.17017
2010-12-01,0.17828,0.17828,0.17828,0.17828,61700,0.17828
2010-11-30,0.17828,0.17828,0.17828,0.17828,6100,0.17828
2010-11-29,0.17828,0.17828,0.17828,0.17828,246800,0.17828
2010-11-23,0.19448,0.19448,0.19448,0.19448,3000,0.19448
2010-11-19,0.19448,0.19448,0.19448,0.19448,49300,0.19448
2010-11-18,0.19448,0.19448,0.19448,0.19448,111200,0.19448
2010-11-17,0.19448,0.19448,0.18638,0.19448,160400,0.19448
2010-11-16,0.19448,0.19448,0.19448,0.19448,71500,0.19448
2010-11-15,0.19448,0.19448,0.19448,0.19448,228200,0.19448
2010-11-12,0.20259,0.20259,0.19448,0.19448,181400,0.19448
2010-11-11,0.20259,0.21069,0.20259,0.21069,215900,0.21069
2010-11-10,0.20259,0.20259,0.20259,0.20259,293000,0.20259
2010-11-09,0.20259,0.20259,0.20259,0.20259,15400,0.20259
2010-11-08,0.20259,0.21069,0.20259,0.21069,67800,0.21069
2010-11-05,0.20259,0.20259,0.20259,0.20259,308500,0.20259
2010-11-04,0.19448,0.20259,0.19448,0.20259,240600,0.20259
2010-11-03,0.21069,0.21069,0.20259,0.20259,100600,0.20259
2010-11-02,0.20664,0.21069,0.19853,0.20259,188800,0.20259
2010-11-01,0.20259,0.21069,0.20259,0.21069,354100,0.21069
2010-10-29,0.19448,0.20259,0.18638,0.20259,1342600,0.20259
