Date,Open,High,Low,Close,Volume,Adj Close
2017-01-10,0.016,0.016,0.016,0.016,000,0.016
2017-01-09,0.016,0.016,0.016,0.016,000,0.016
2017-01-06,0.016,0.016,0.016,0.016,000,0.016
2017-01-05,0.016,0.016,0.016,0.016,329500,0.016
2017-01-04,0.016,0.016,0.016,0.016,165000,0.016
2017-01-03,0.016,0.016,0.016,0.016,964200,0.016
2017-01-02,0.016,0.016,0.016,0.016,000,0.016
2016-12-30,0.016,0.016,0.016,0.016,154100,0.016
2016-12-29,0.016,0.016,0.016,0.016,223800,0.016
2016-12-28,0.017,0.017,0.017,0.017,30000,0.017
2016-12-27,0.016,0.016,0.016,0.016,000,0.016
2016-12-26,0.016,0.016,0.016,0.016,000,0.016
2016-12-23,0.016,0.016,0.016,0.016,000,0.016
2016-12-22,0.016,0.016,0.016,0.016,000,0.016
2016-12-21,0.017,0.017,0.016,0.016,261000,0.016
2016-12-20,0.017,0.017,0.017,0.017,000,0.017
2016-12-19,0.017,0.017,0.017,0.017,168900,0.017
2016-12-16,0.017,0.017,0.017,0.017,000,0.017
2016-12-15,0.017,0.017,0.017,0.017,000,0.017
2016-12-14,0.016,0.017,0.016,0.017,300000,0.017
2016-12-13,0.015,0.016,0.015,0.015,515100,0.015
2016-12-12,0.012,0.016,0.012,0.015,2106000,0.015
2016-12-09,0.011,0.012,0.01,0.011,1464700,0.011
2016-12-08,0.012,0.012,0.012,0.012,000,0.012
2016-12-07,0.012,0.012,0.012,0.012,111100,0.012
2016-12-06,0.013,0.013,0.012,0.012,618400,0.012
2016-12-05,0.015,0.015,0.015,0.015,000,0.015
2016-12-02,0.013,0.015,0.013,0.015,88400,0.015
2016-12-01,0.015,0.015,0.015,0.015,7900,0.015
2016-11-30,0.015,0.015,0.015,0.015,420700,0.015
2016-11-29,0.017,0.017,0.017,0.017,000,0.017
2016-11-28,0.015,0.017,0.015,0.017,76600,0.017
2016-11-25,0.016,0.016,0.016,0.016,000,0.016
2016-11-24,0.016,0.016,0.016,0.016,000,0.016
2016-11-23,0.016,0.016,0.016,0.016,000,0.016
2016-11-22,0.016,0.016,0.016,0.016,330000,0.016
2016-11-21,0.016,0.016,0.016,0.016,300000,0.016
2016-11-18,0.017,0.017,0.015,0.015,200000,0.015
2016-11-17,0.016,0.017,0.016,0.016,1447400,0.016
2016-11-16,0.015,0.016,0.015,0.016,200400,0.016
2016-11-15,0.013,0.015,0.013,0.015,152800,0.015
2016-11-14,0.016,0.016,0.016,0.016,000,0.016
2016-11-11,0.014,0.016,0.012,0.016,313500,0.016
2016-11-10,0.016,0.016,0.014,0.014,945700,0.014
2016-11-09,0.016,0.016,0.014,0.014,3392000,0.014
2016-11-08,0.016,0.016,0.015,0.016,1823400,0.016
2016-11-07,0.016,0.016,0.016,0.016,000,0.016
2016-11-04,0.017,0.017,0.016,0.016,550000,0.016
2016-11-03,0.018,0.018,0.017,0.018,3190900,0.018
2016-11-02,0.018,0.018,0.017,0.018,717100,0.018
2016-11-01,0.019,0.019,0.019,0.019,26300,0.019
2016-10-31,0.02,0.021,0.019,0.019,3407100,0.019
2016-10-28,0.018,0.02,0.017,0.019,7262700,0.019
2016-10-27,0.017,0.017,0.017,0.017,500400,0.017
2016-10-26,0.016,0.018,0.016,0.018,2097300,0.018
2016-10-25,0.017,0.017,0.016,0.016,1884800,0.016
2016-10-24,0.018,0.018,0.017,0.017,2302600,0.017
2016-10-21,0.017,0.02,0.017,0.018,6303200,0.018
2016-10-20,0.015,0.017,0.015,0.016,3251200,0.016
2016-10-19,0.013,0.015,0.013,0.013,170500,0.013
2016-10-18,0.014,0.015,0.014,0.015,367100,0.015
2016-10-17,0.013,0.013,0.013,0.013,50000,0.013
2016-10-14,0.015,0.016,0.014,0.014,634800,0.014
2016-10-13,0.015,0.015,0.015,0.015,471500,0.015
2016-10-12,0.016,0.017,0.015,0.016,5472000,0.016
2016-10-11,0.014,0.016,0.013,0.016,1400600,0.016
2016-10-10,0.015,0.015,0.015,0.015,759300,0.015
2016-10-07,0.014,0.014,0.013,0.014,2299100,0.014
2016-10-06,0.013,0.014,0.013,0.014,3046300,0.014
2016-10-05,0.014,0.014,0.014,0.014,100000,0.014
2016-10-04,0.013,0.014,0.013,0.014,3677500,0.014
2016-10-03,0.014,0.014,0.014,0.014,1568400,0.014
2016-09-30,0.013,0.014,0.012,0.014,4441700,0.014
2016-09-29,0.013,0.013,0.012,0.013,695000,0.013
2016-09-28,0.014,0.014,0.014,0.014,579000,0.014
2016-09-27,0.014,0.014,0.014,0.014,000,0.014
2016-09-26,0.014,0.014,0.014,0.014,000,0.014
2016-09-23,0.014,0.014,0.014,0.014,224400,0.014
2016-09-22,0.015,0.016,0.013,0.014,4653500,0.014
2016-09-21,0.012,0.0145,0.012,0.014,2049000,0.014
2016-09-20,0.009,0.012,0.009,0.012,2190100,0.012
2016-09-19,0.009,0.009,0.008,0.009,1361900,0.009
2016-09-16,0.01,0.01,0.01,0.01,60800,0.01
2016-09-15,0.009,0.009,0.009,0.009,24000,0.009
2016-09-14,0.01,0.01,0.01,0.01,296100,0.01
2016-09-13,0.01,0.01,0.01,0.01,28000,0.01
2016-09-12,0.01,0.01,0.01,0.01,000,0.01
2016-09-09,0.011,0.011,0.01,0.01,280000,0.01
2016-09-08,0.01,0.01,0.01,0.01,000,0.01
2016-09-07,0.012,0.012,0.01,0.01,430700,0.01
2016-09-06,0.012,0.012,0.012,0.012,200000,0.012
2016-09-05,0.01,0.01,0.01,0.01,000,0.01
2016-09-02,0.009,0.011,0.009,0.01,614500,0.01
2016-09-01,0.009,0.009,0.009,0.009,373100,0.009
2016-08-31,0.01,0.011,0.01,0.011,18200,0.011
2016-08-30,0.01,0.01,0.01,0.01,000,0.01
2016-08-29,0.01,0.01,0.01,0.01,000,0.01
2016-08-26,0.01,0.01,0.009,0.01,913300,0.01
2016-08-25,0.011,0.011,0.011,0.011,1738500,0.011
2016-08-24,0.011,0.011,0.011,0.011,000,0.011
2016-08-23,0.011,0.011,0.011,0.011,000,0.011
2016-08-22,0.011,0.011,0.011,0.011,1876400,0.011
2016-08-19,0.012,0.012,0.012,0.012,8700,0.012
2016-08-18,0.012,0.012,0.012,0.012,000,0.012
2016-08-17,0.012,0.012,0.012,0.012,240000,0.012
2016-08-16,0.012,0.012,0.012,0.012,83300,0.012
2016-08-15,0.013,0.013,0.013,0.013,15000,0.013
2016-08-12,0.013,0.013,0.012,0.012,1469900,0.012
2016-08-11,0.013,0.013,0.013,0.013,515000,0.013
2016-08-10,0.013,0.013,0.013,0.013,000,0.013
2016-08-09,0.013,0.013,0.013,0.013,80000,0.013
2016-08-08,0.012,0.012,0.012,0.012,250000,0.012
2016-08-05,0.012,0.012,0.012,0.012,200000,0.012
2016-08-04,0.012,0.012,0.012,0.012,378000,0.012
2016-08-03,0.012,0.012,0.012,0.012,691300,0.012
2016-08-02,0.012,0.012,0.012,0.012,540200,0.012
2016-08-01,0.014,0.014,0.012,0.012,2323900,0.012
2016-07-29,0.013,0.014,0.013,0.014,592000,0.014
2016-07-28,0.015,0.015,0.014,0.014,765900,0.014
2016-07-27,0.014,0.014,0.013,0.013,398300,0.013
2016-07-26,0.014,0.014,0.014,0.014,200000,0.014
2016-07-25,0.014,0.014,0.014,0.014,390000,0.014
2016-07-22,0.015,0.015,0.015,0.015,101600,0.015
2016-07-21,0.014,0.016,0.014,0.014,2038000,0.014
2016-07-20,0.014,0.015,0.014,0.014,1241300,0.014
2016-07-19,0.014,0.014,0.014,0.014,285000,0.014
2016-07-18,0.014,0.014,0.014,0.014,611600,0.014
2016-07-15,0.013,0.016,0.013,0.016,2911400,0.016
2016-07-14,0.013,0.013,0.013,0.013,238500,0.013
2016-07-13,0.013,0.013,0.013,0.013,000,0.013
2016-07-12,0.014,0.014,0.013,0.013,633400,0.013
2016-07-11,0.014,0.014,0.014,0.014,000,0.014
2016-07-08,0.014,0.014,0.014,0.014,33400,0.014
2016-07-07,0.015,0.015,0.015,0.015,100000,0.015
2016-07-06,0.014,0.014,0.014,0.014,000,0.014
2016-07-05,0.014,0.014,0.014,0.014,000,0.014
2016-07-04,0.015,0.015,0.014,0.014,855800,0.014
2016-07-01,0.014,0.014,0.014,0.014,000,0.014
2016-06-30,0.013,0.014,0.013,0.014,80500,0.014
2016-06-29,0.013,0.013,0.013,0.013,182000,0.013
2016-06-28,0.012,0.013,0.012,0.012,553500,0.012
2016-06-27,0.013,0.013,0.013,0.013,569400,0.013
2016-06-24,0.013,0.014,0.013,0.014,454100,0.014
2016-06-23,0.013,0.013,0.013,0.013,000,0.013
2016-06-22,0.014,0.014,0.013,0.013,288000,0.013
2016-06-21,0.014,0.014,0.014,0.014,130000,0.014
2016-06-20,0.015,0.015,0.015,0.015,000,0.015
2016-06-17,0.015,0.016,0.014,0.015,2632800,0.015
2016-06-16,0.015,0.015,0.015,0.015,58200,0.015
2016-06-15,0.016,0.016,0.015,0.015,243400,0.015
2016-06-14,0.016,0.016,0.015,0.016,838200,0.016
2016-06-13,0.017,0.017,0.017,0.017,000,0.017
2016-06-10,0.015,0.017,0.015,0.017,3014600,0.017
2016-06-09,0.015,0.015,0.014,0.015,1773300,0.015
2016-06-08,0.013,0.014,0.013,0.014,290000,0.014
2016-06-07,0.014,0.014,0.013,0.013,1580400,0.013
2016-06-06,0.014,0.014,0.014,0.014,000,0.014
2016-06-03,0.014,0.014,0.013,0.014,1052100,0.014
2016-06-02,0.014,0.014,0.014,0.014,000,0.014
2016-06-01,0.014,0.014,0.014,0.014,123000,0.014
2016-05-31,0.014,0.014,0.014,0.014,000,0.014
2016-05-30,0.014,0.014,0.014,0.014,109000,0.014
2016-05-27,0.014,0.014,0.014,0.014,847300,0.014
2016-05-26,0.014,0.014,0.014,0.014,000,0.014
2016-05-25,0.014,0.014,0.014,0.014,723000,0.014
2016-05-24,0.013,0.013,0.013,0.013,000,0.013
2016-05-23,0.013,0.013,0.013,0.013,000,0.013
2016-05-20,0.014,0.014,0.013,0.013,1161900,0.013
2016-05-19,0.014,0.014,0.014,0.014,746000,0.014
2016-05-18,0.014,0.014,0.014,0.014,3000,0.014
2016-05-17,0.015,0.016,0.015,0.015,1081800,0.015
2016-05-16,0.015,0.015,0.015,0.015,000,0.015
2016-05-13,0.015,0.015,0.015,0.015,59500,0.015
2016-05-12,0.015,0.015,0.015,0.015,50000,0.015
2016-05-11,0.015,0.015,0.015,0.015,264200,0.015
2016-05-10,0.015,0.015,0.015,0.015,418800,0.015
2016-05-09,0.016,0.016,0.016,0.016,497700,0.016
2016-05-06,0.016,0.017,0.015,0.017,552300,0.017
2016-05-05,0.016,0.017,0.016,0.017,490000,0.017
2016-05-04,0.016,0.018,0.016,0.018,600300,0.018
2016-05-03,0.017,0.017,0.016,0.016,223100,0.016
2016-05-02,0.018,0.018,0.017,0.017,426400,0.017
2016-04-29,0.016,0.018,0.016,0.018,1101000,0.018
2016-04-28,0.017,0.017,0.017,0.017,155000,0.017
2016-04-27,0.017,0.017,0.017,0.017,120000,0.017
2016-04-26,0.017,0.017,0.017,0.017,000,0.017
2016-04-25,0.017,0.017,0.017,0.017,000,0.017
2016-04-22,0.017,0.017,0.017,0.017,000,0.017
2016-04-21,0.017,0.017,0.017,0.017,000,0.017
2016-04-20,0.016,0.017,0.016,0.017,269800,0.017
2016-04-19,0.017,0.017,0.017,0.017,907200,0.017
2016-04-18,0.017,0.017,0.017,0.017,5500,0.017
2016-04-15,0.018,0.018,0.016,0.018,1163000,0.018
2016-04-14,0.017,0.019,0.017,0.018,2280900,0.018
2016-04-13,0.018,0.019,0.017,0.017,2477800,0.017
2016-04-12,0.017,0.018,0.016,0.017,5257500,0.017
2016-04-11,0.014,0.016,0.014,0.015,2422200,0.015
2016-04-08,0.014,0.014,0.013,0.013,725500,0.013
2016-04-07,0.012,0.015,0.012,0.014,1459200,0.014
2016-04-06,0.012,0.014,0.012,0.013,2366700,0.013
2016-04-05,0.012,0.012,0.012,0.012,80000,0.012
2016-04-04,0.012,0.012,0.012,0.012,54200,0.012
2016-04-01,0.012,0.012,0.012,0.012,000,0.012
2016-03-31,0.012,0.012,0.012,0.012,271000,0.012
2016-03-30,0.012,0.012,0.012,0.012,000,0.012
2016-03-29,0.011,0.012,0.011,0.012,900000,0.012
2016-03-28,0.011,0.011,0.011,0.011,000,0.011
2016-03-25,0.011,0.011,0.011,0.011,000,0.011
2016-03-24,0.011,0.011,0.011,0.011,000,0.011
2016-03-23,0.011,0.011,0.011,0.011,000,0.011
2016-03-22,0.011,0.011,0.011,0.011,000,0.011
2016-03-21,0.011,0.011,0.011,0.011,222500,0.011
2016-03-18,0.011,0.011,0.011,0.011,121500,0.011
2016-03-17,0.012,0.012,0.011,0.011,1620700,0.011
2016-03-16,0.014,0.014,0.014,0.014,000,0.014
2016-03-15,0.013,0.014,0.013,0.014,416400,0.014
2016-03-14,0.012,0.012,0.012,0.012,000,0.012
2016-03-11,0.012,0.013,0.012,0.012,1089700,0.012
2016-03-10,0.011,0.012,0.011,0.011,898000,0.011
2016-03-09,0.011,0.011,0.011,0.011,165500,0.011
2016-03-08,0.012,0.012,0.01,0.011,2090500,0.011
2016-03-07,0.012,0.012,0.012,0.012,201800,0.012
2016-03-04,0.012,0.012,0.011,0.012,1061400,0.012
2016-03-03,0.015,0.015,0.013,0.013,2066000,0.013
2016-03-02,0.012,0.015,0.012,0.015,1715600,0.015
2016-03-01,0.011,0.011,0.011,0.011,000,0.011
2016-02-29,0.012,0.012,0.011,0.011,2177500,0.011
2016-02-26,0.013,0.013,0.013,0.013,50000,0.013
2016-02-25,0.013,0.013,0.013,0.013,000,0.013
2016-02-24,0.013,0.013,0.013,0.013,28900,0.013
2016-02-23,0.013,0.013,0.012,0.013,1064300,0.013
2016-02-22,0.014,0.014,0.013,0.013,356300,0.013
2016-02-19,0.014,0.014,0.014,0.014,39400,0.014
2016-02-18,0.013,0.014,0.012,0.014,1590600,0.014
2016-02-17,0.014,0.014,0.014,0.014,121800,0.014
2016-02-16,0.014,0.014,0.014,0.014,000,0.014
2016-02-15,0.014,0.014,0.014,0.014,87900,0.014
2016-02-12,0.015,0.015,0.015,0.015,261900,0.015
2016-02-11,0.014,0.014,0.014,0.014,000,0.014
2016-02-10,0.014,0.014,0.013,0.014,451700,0.014
2016-02-09,0.014,0.014,0.014,0.014,895200,0.014
2016-02-08,0.015,0.015,0.015,0.015,000,0.015
2016-02-05,0.015,0.015,0.015,0.015,000,0.015
2016-02-04,0.015,0.015,0.015,0.015,000,0.015
2016-02-03,0.016,0.016,0.015,0.015,250100,0.015
2016-02-02,0.015,0.015,0.015,0.015,101400,0.015
2016-02-01,0.018,0.018,0.014,0.015,2795400,0.015
2016-01-29,0.019,0.02,0.015,0.015,4116400,0.015
2016-01-28,0.018,0.018,0.018,0.018,128500,0.018
2016-01-27,0.019,0.019,0.018,0.018,234900,0.018
2016-01-26,0.019,0.019,0.019,0.019,000,0.019
2016-01-25,0.019,0.019,0.019,0.019,618500,0.019
2016-01-22,0.018,0.018,0.018,0.018,82900,0.018
2016-01-21,0.017,0.017,0.017,0.017,000,0.017
2016-01-20,0.016,0.018,0.016,0.017,647100,0.017
2016-01-19,0.019,0.019,0.016,0.016,959100,0.016
2016-01-18,0.018,0.018,0.018,0.018,000,0.018
2016-01-15,0.018,0.018,0.018,0.018,960000,0.018
2016-01-14,0.019,0.019,0.018,0.018,1212800,0.018
2016-01-13,0.02,0.021,0.019,0.019,2134300,0.019
2016-01-12,0.018,0.02,0.018,0.02,2311100,0.02
2016-01-11,0.018,0.018,0.017,0.018,709500,0.018
2016-01-08,0.018,0.018,0.017,0.018,1767100,0.018
2016-01-07,0.018,0.019,0.018,0.019,4799700,0.019
2016-01-06,0.018,0.02,0.018,0.018,1666600,0.018
2016-01-05,0.015,0.02,0.015,0.018,1519500,0.018
2016-01-04,0.017,0.017,0.016,0.017,1444400,0.017
2016-01-01,0.016,0.016,0.016,0.016,000,0.016
2015-12-31,0.015,0.017,0.015,0.016,1557200,0.016
2015-12-30,0.015,0.017,0.014,0.014,3211100,0.014
2015-12-29,0.015,0.015,0.013,0.014,8619100,0.014
2015-12-28,0.016,0.016,0.016,0.016,000,0.016
2015-12-25,0.016,0.016,0.016,0.016,000,0.016
2015-12-24,0.017,0.017,0.016,0.016,740000,0.016
2015-12-23,0.015,0.017,0.015,0.017,1056900,0.017
2015-12-22,0.013,0.015,0.013,0.014,1566900,0.014
2015-12-21,0.014,0.014,0.013,0.013,3000800,0.013
2015-12-18,0.014,0.014,0.014,0.014,700000,0.014
2015-12-17,0.014,0.014,0.013,0.013,216600,0.013
2015-12-16,0.015,0.015,0.013,0.013,5527800,0.013
2015-12-15,0.016,0.016,0.016,0.016,000,0.016
2015-12-14,0.016,0.016,0.016,0.016,000,0.016
2015-12-11,0.016,0.017,0.016,0.016,1636700,0.016
2015-12-10,0.015,0.016,0.015,0.016,7721200,0.016
2015-12-09,0.017,0.0175,0.016,0.016,2742000,0.016
2015-12-08,0.014,0.018,0.014,0.017,10421400,0.017
2015-12-07,0.016,0.016,0.015,0.015,409800,0.015
2015-12-04,0.014,0.017,0.014,0.016,2960200,0.016
2015-12-03,0.015,0.015,0.013,0.014,2506900,0.014
2015-12-02,0.015,0.016,0.015,0.015,2200500,0.015
2015-12-01,0.017,0.017,0.014,0.015,2510900,0.015
2015-11-30,0.019,0.019,0.017,0.017,1506800,0.017
2015-11-27,0.02,0.021,0.019,0.019,3348100,0.019
2015-11-26,0.021,0.022,0.019,0.019,3302400,0.019
2015-11-25,0.025,0.025,0.019,0.019,6734900,0.019
2015-11-24,0.017,0.025,0.017,0.023,6499300,0.023
2015-11-23,0.019,0.019,0.016,0.019,326500,0.019
2015-11-20,0.02,0.022,0.02,0.022,418900,0.022
2015-11-19,0.019,0.019,0.019,0.019,000,0.019
2015-11-18,0.019,0.019,0.019,0.019,000,0.019
2015-11-17,0.019,0.019,0.019,0.019,000,0.019
2015-11-16,0.019,0.019,0.019,0.019,000,0.019
2015-11-13,0.019,0.019,0.019,0.019,1600,0.019
2015-11-12,0.02,0.02,0.019,0.019,83600,0.019
2015-11-11,0.02,0.02,0.02,0.02,000,0.02
2015-11-10,0.02,0.021,0.02,0.02,241800,0.02
2015-11-09,0.02,0.02,0.02,0.02,000,0.02
2015-11-06,0.02,0.02,0.02,0.02,671400,0.02
2015-11-05,0.019,0.019,0.019,0.019,686900,0.019
2015-11-04,0.021,0.021,0.021,0.021,000,0.021
2015-11-03,0.021,0.021,0.021,0.021,000,0.021
2015-11-02,0.021,0.021,0.021,0.021,16600,0.021
2015-10-30,0.021,0.021,0.021,0.021,50000,0.021
2015-10-29,0.023,0.023,0.018,0.019,495800,0.019
2015-10-28,0.023,0.023,0.023,0.023,000,0.023
2015-10-27,0.023,0.023,0.023,0.023,000,0.023
2015-10-26,0.023,0.023,0.023,0.023,000,0.023
2015-10-23,0.025,0.025,0.023,0.023,346600,0.023
2015-10-22,0.025,0.025,0.025,0.025,295500,0.025
2015-10-21,0.02,0.024,0.02,0.024,1181700,0.024
2015-10-20,0.017,0.017,0.017,0.017,000,0.017
2015-10-19,0.017,0.017,0.017,0.017,000,0.017
2015-10-16,0.017,0.017,0.017,0.017,000,0.017
2015-10-15,0.018,0.018,0.011,0.017,1068900,0.017
2015-10-14,0.019,0.019,0.019,0.019,000,0.019
2015-10-13,0.019,0.019,0.019,0.019,000,0.019
2015-10-12,0.019,0.019,0.019,0.019,293500,0.019
2015-10-09,0.021,0.021,0.021,0.021,000,0.021
2015-10-08,0.021,0.021,0.021,0.021,000,0.021
2015-10-07,0.021,0.021,0.021,0.021,000,0.021
2015-10-06,0.021,0.021,0.021,0.021,000,0.021
2015-10-05,0.021,0.021,0.021,0.021,000,0.021
2015-10-02,0.021,0.021,0.021,0.021,000,0.021
2015-10-01,0.021,0.021,0.021,0.021,7600,0.021
2015-09-30,0.023,0.023,0.023,0.023,000,0.023
2015-09-29,0.023,0.023,0.023,0.023,108000,0.023
2015-09-28,0.022,0.022,0.022,0.022,000,0.022
2015-09-25,0.022,0.022,0.022,0.022,000,0.022
2015-09-24,0.02,0.022,0.019,0.022,1208200,0.022
2015-09-23,0.021,0.021,0.02,0.02,519200,0.02
2015-09-22,0.023,0.023,0.022,0.022,4213200,0.022
2015-09-21,0.024,0.024,0.023,0.023,474400,0.023
2015-09-18,0.023,0.023,0.023,0.023,000,0.023
2015-09-17,0.023,0.023,0.023,0.023,2100,0.023
2015-09-16,0.023,0.023,0.023,0.023,000,0.023
2015-09-15,0.023,0.023,0.023,0.023,000,0.023
2015-09-14,0.024,0.024,0.023,0.023,941100,0.023
2015-09-11,0.024,0.027,0.023,0.024,785300,0.024
2015-09-10,0.024,0.024,0.024,0.024,528400,0.024
2015-09-09,0.024,0.024,0.022,0.024,1183800,0.024
2015-09-08,0.024,0.024,0.024,0.024,375000,0.024
2015-09-07,0.025,0.025,0.025,0.025,74700,0.025
2015-09-04,0.024,0.025,0.024,0.025,737200,0.025
2015-09-03,0.023,0.025,0.023,0.024,1327200,0.024
2015-09-02,0.025,0.025,0.022,0.022,399400,0.022
2015-09-01,0.025,0.025,0.025,0.025,000,0.025
2015-08-31,0.025,0.025,0.025,0.025,20000,0.025
2015-08-28,0.024,0.024,0.024,0.024,000,0.024
2015-08-27,0.024,0.024,0.024,0.024,324500,0.024
2015-08-26,0.024,0.024,0.023,0.023,180200,0.023
2015-08-25,0.025,0.025,0.025,0.025,508000,0.025
2015-08-24,0.024,0.025,0.023,0.025,674800,0.025
2015-08-21,0.025,0.025,0.025,0.025,1373800,0.025
2015-08-20,0.026,0.026,0.026,0.026,19200,0.026
2015-08-19,0.026,0.026,0.026,0.026,133300,0.026
2015-08-18,0.025,0.025,0.025,0.025,336600,0.025
2015-08-17,0.027,0.027,0.027,0.027,000,0.027
2015-08-14,0.027,0.027,0.026,0.027,1201400,0.027
2015-08-13,0.027,0.027,0.027,0.027,000,0.027
2015-08-12,0.027,0.027,0.027,0.027,13700,0.027
2015-08-11,0.027,0.027,0.027,0.027,50000,0.027
2015-08-10,0.027,0.027,0.027,0.027,000,0.027
2015-08-07,0.027,0.027,0.025,0.027,713300,0.027
2015-08-06,0.027,0.027,0.027,0.027,000,0.027
2015-08-05,0.029,0.029,0.023,0.027,542700,0.027
2015-08-04,0.031,0.031,0.029,0.029,903500,0.029
2015-08-03,0.034,0.034,0.031,0.031,821000,0.031
2015-07-31,0.032,0.037,0.032,0.037,1929800,0.037
2015-07-30,0.031,0.033,0.031,0.032,582500,0.032
2015-07-29,0.034,0.034,0.031,0.031,648100,0.031
2015-07-28,0.028,0.032,0.028,0.032,583700,0.032
2015-07-27,0.025,0.025,0.025,0.025,34300,0.025
2015-07-24,0.023,0.023,0.023,0.023,000,0.023
2015-07-23,0.023,0.023,0.023,0.023,000,0.023
2015-07-22,0.023,0.023,0.023,0.023,000,0.023
2015-07-21,0.025,0.025,0.023,0.023,53300,0.023
2015-07-20,0.025,0.025,0.025,0.025,16600,0.025
2015-07-17,0.025,0.025,0.025,0.025,132000,0.025
2015-07-16,0.025,0.025,0.025,0.025,333300,0.025
2015-07-15,0.03,0.03,0.03,0.03,000,0.03
2015-07-14,0.03,0.03,0.03,0.03,000,0.03
2015-07-13,0.03,0.03,0.03,0.03,000,0.03
2015-07-10,0.03,0.03,0.03,0.03,000,0.03
2015-07-09,0.023,0.03,0.023,0.03,1008600,0.03
2015-07-08,0.023,0.023,0.023,0.023,000,0.023
2015-07-07,0.023,0.023,0.023,0.023,500,0.023
2015-07-06,0.025,0.025,0.025,0.025,1000000,0.025
2015-07-03,0.023,0.023,0.023,0.023,000,0.023
2015-07-02,0.023,0.023,0.023,0.023,98700,0.023
2015-07-01,0.023,0.023,0.023,0.023,000,0.023
2015-06-30,0.023,0.023,0.023,0.023,16500,0.023
2015-06-29,0.023,0.023,0.023,0.023,000,0.023
2015-06-26,0.023,0.023,0.023,0.023,10000,0.023
2015-06-25,0.025,0.025,0.023,0.023,171900,0.023
2015-06-24,0.028,0.028,0.025,0.025,182000,0.025
2015-06-23,0.029,0.029,0.025,0.025,270000,0.025
2015-06-22,0.029,0.029,0.029,0.029,000,0.029
2015-06-19,0.029,0.029,0.029,0.029,80000,0.029
2015-06-18,0.029,0.029,0.027,0.027,110800,0.027
2015-06-17,0.031,0.032,0.031,0.032,50000,0.032
2015-06-16,0.031,0.031,0.026,0.028,380600,0.028
2015-06-15,0.02,0.047,0.02,0.03,1544200,0.03
2015-06-11,0.016,0.016,0.016,0.016,000,0.016
2015-06-10,0.016,0.016,0.016,0.016,33300,0.016
2015-06-09,0.015,0.015,0.015,0.015,000,0.015
2015-06-08,0.02,0.02,0.02,0.02,000,0.02
2015-06-05,0.02,0.02,0.02,0.02,000,0.02
2015-06-04,0.02,0.02,0.02,0.02,000,0.02
2015-06-03,0.017,0.02,0.017,0.02,203300,0.02
2015-06-02,0.02,0.02,0.02,0.02,000,0.60
2015-06-01,0.02,0.02,0.019,0.02,500000,0.60
2015-05-29,0.03,0.03,0.03,0.03,859800,27.00
2015-05-28,0.03,0.03,0.03,0.03,506800,27.00
2015-05-27,0.03,0.03,0.03,0.03,000,27.00
2015-05-26,0.03,0.03,0.03,0.03,000,27.00
2015-05-25,0.03,0.03,0.03,0.03,000,27.00
2015-05-22,0.03,0.03,0.03,0.03,000,27.00
2015-05-21,0.03,0.03,0.03,0.03,000,27.00
2015-05-20,0.001,0.001,0.001,0.001,000,0.90
2015-05-19,0.001,0.001,0.001,0.001,133300,0.90
2015-05-18,0.001,0.001,0.001,0.001,166600,0.90
2015-05-15,0.001,0.001,0.001,0.001,000,0.90
2015-05-14,0.00,0.00,0.00,0.00,000,0.03
2015-05-13,0.00,0.00,0.00,0.00,000,0.03
2015-05-12,0.00,0.00,0.00,0.00,000,0.03
2015-05-11,0.00,0.00,0.00,0.00,000,0.03
2015-05-08,0.00,0.00,0.00,0.00,000,0.03
2015-05-07,0.00,0.00,0.00,0.00,000,0.03
2015-05-06,0.00,0.00,0.00,0.00,000,0.03
2015-05-05,0.00,0.00,0.00,0.00,000,0.03
2015-05-04,0.00,0.00,0.00,0.00,86300,0.03
2015-05-01,0.00,0.00,0.00,0.00,1399300,0.03
2015-04-30,0.00,0.00,0.00,0.00,000,0.03
2015-04-29,0.00,0.00,0.00,0.00,000,0.03
2015-04-28,0.00,0.00,0.00,0.00,000,0.03
2015-04-27,0.00,0.00,0.00,0.00,16600,0.03
2015-04-24,0.00,0.00,0.00,0.00,43400,0.03
2015-04-23,0.00,0.00,0.00,0.00,000,0.03
2015-04-22,0.00,0.00,0.00,0.00,000,0.03
2015-04-21,0.00,0.00,0.00,0.00,000,0.03
2015-04-20,0.00,0.00,0.00,0.00,000,0.03
2015-04-17,0.00,0.00,0.00,0.00,000,0.03
2015-04-16,0.00,0.00,0.00,0.00,000,0.03
2015-04-15,0.00,0.00,0.00,0.00,000,0.03
2015-04-14,0.00,0.00,0.00,0.00,000,0.03
2015-04-13,0.00,0.00,0.00,0.00,000,0.03
2015-04-10,0.00,0.00,0.00,0.00,000,0.03
2015-04-09,0.00,0.00,0.00,0.00,000,0.03
2015-04-08,0.00,0.00,0.00,0.00,000,0.03
2015-04-07,0.00,0.00,0.00,0.00,000,0.03
2015-04-06,0.00,0.00,0.00,0.00,000,0.03
2015-04-03,0.00,0.00,0.00,0.00,000,0.03
2015-04-02,0.00,0.00,0.00,0.00,000,0.03
2015-04-01,0.00,0.00,0.00,0.00,000,0.03
2015-03-31,0.00,0.00,0.00,0.00,000,0.03
2015-03-30,0.00,0.00,0.00,0.00,000,0.03
2015-03-27,0.00,0.00,0.00,0.00,000,0.03
2015-03-26,0.00,0.00,0.00,0.00,000,0.03
2015-03-25,0.0001,0.0001,0.00,0.00,318000,0.03
2015-03-24,0.00,0.00,0.00,0.00,000,0.03
2015-03-23,0.00,0.00,0.00,0.00,000,0.03
2015-03-20,0.00,0.00,0.00,0.00,666600,0.03
2015-03-19,0.00,0.00,0.00,0.00,1229600,0.03
2015-03-18,0.00,0.00,0.00,0.00,000,0.03
2015-03-17,0.00,0.00,0.00,0.00,000,0.03
2015-03-16,0.00,0.00,0.00,0.00,000,0.03
2015-03-13,0.00,0.00,0.00,0.00,000,0.03
2015-03-12,0.00,0.00,0.00,0.00,16600,0.03
2015-03-11,0.00,0.00,0.00,0.00,366600,0.03
2015-03-10,0.00,0.00,0.00,0.00,000,0.03
2015-03-09,0.00,0.00,0.00,0.00,500000,0.03
2015-03-06,0.00,0.00,0.00,0.00,39200,0.03
2015-03-05,0.00,0.00,0.00,0.00,41600,0.03
2015-03-04,0.00,0.00,0.00,0.00,10700,0.03
2015-03-03,0.00,0.00,0.00,0.00,000,0.03
2015-03-02,0.00,0.00,0.00,0.00,000,0.03
2015-02-27,0.00,0.00,0.00,0.00,000,0.03
2015-02-26,0.00,0.00,0.00,0.00,000,0.03
2015-02-25,0.00,0.00,0.00,0.00,183300,0.03
2015-02-24,0.00,0.00,0.00,0.00,000,0.03
2015-02-23,0.00,0.00,0.00,0.00,000,0.03
2015-02-20,0.00,0.00,0.00,0.00,16600,0.03
2015-02-19,0.00,0.00,0.00,0.00,166600,0.03
2015-02-18,0.00,0.00,0.00,0.00,000,0.03
2015-02-17,0.00,0.00,0.00,0.00,000,0.03
2015-02-16,0.00,0.00,0.00,0.00,000,0.03
2015-02-13,0.00,0.00,0.00,0.00,000,0.03
2015-02-12,0.00,0.00,0.00,0.00,82100,0.03
2015-02-11,0.00,0.00,0.00,0.00,000,0.03
2015-02-10,0.00,0.00,0.00,0.00,417800,0.03
2015-02-09,0.00,0.00,0.00,0.00,188800,0.03
2015-02-06,0.00,0.00,0.00,0.00,643700,0.03
2015-02-05,0.00,0.00,0.00,0.00,291600,0.03
2015-02-04,0.00,0.00,0.00,0.00,40000,0.03
2015-02-03,0.00,0.00,0.00,0.00,000,0.03
2015-02-02,0.00,0.00,0.00,0.00,47600,0.03
2015-01-30,0.00,0.00,0.00,0.00,000,0.03
2015-01-29,0.00,0.00,0.00,0.00,000,0.03
2015-01-28,0.00,0.00,0.00,0.00,000,0.03
2015-01-27,0.0001,0.0001,0.00,0.00,56600,0.03
2015-01-26,0.00,0.00,0.00,0.00,000,0.03
2015-01-23,0.00,0.00,0.00,0.00,000,0.03
2015-01-22,0.00,0.00,0.00,0.00,000,0.03
2015-01-21,0.00,0.00,0.00,0.00,000,0.03
2015-01-20,0.00,0.00,0.00,0.00,190600,0.03
2015-01-19,0.00,0.00,0.00,0.00,000,0.03
2015-01-16,0.00,0.00,0.00,0.00,000,0.03
2015-01-15,0.00,0.00,0.00,0.00,100000,0.03
2015-01-14,0.00,0.00,0.00,0.00,000,0.03
2015-01-13,0.00,0.00,0.00,0.00,000,0.03
2015-01-12,0.00,0.00,0.00,0.00,000,0.03
2015-01-09,0.00,0.00,0.00,0.00,000,0.03
2015-01-08,0.00,0.00,0.00,0.00,000,0.03
2015-01-07,0.00,0.00,0.00,0.00,000,0.03
2015-01-06,0.00,0.00,0.00,0.00,000,0.03
2015-01-05,0.00,0.00,0.00,0.00,000,0.03
2015-01-02,0.00,0.00,0.00,0.00,000,0.03
2015-01-01,0.00,0.00,0.00,0.00,000,0.03
2014-12-31,0.00,0.00,0.00,0.00,133300,0.03
2014-12-30,0.00,0.00,0.00,0.00,239500,0.03
2014-12-29,0.00,0.00,0.00,0.00,000,0.03
2014-12-26,0.00,0.00,0.00,0.00,000,0.03
2014-12-25,0.00,0.00,0.00,0.00,000,0.03
2014-12-24,0.00,0.00,0.00,0.00,000,0.03
2014-12-23,0.00,0.00,0.00,0.00,000,0.03
2014-12-22,0.00,0.00,0.00,0.00,000,0.03
2014-12-19,0.00,0.00,0.00,0.00,000,0.03
2014-12-18,0.00,0.00,0.00,0.00,000,0.03
2014-12-17,0.00,0.00,0.00,0.00,000,0.03
2014-12-16,0.00,0.00,0.00,0.00,000,0.03
2014-12-15,0.00,0.00,0.00,0.00,33300,0.03
2014-12-12,0.00,0.00,0.00,0.00,000,0.03
2014-12-11,0.00,0.00,0.00,0.00,000,0.03
2014-12-10,0.00,0.00,0.00,0.00,000,0.03
2014-12-09,0.00,0.00,0.00,0.00,50000,0.03
2014-12-08,0.00,0.00,0.00,0.00,000,0.03
2014-12-05,0.00,0.00,0.00,0.00,000,0.03
2014-12-04,0.00,0.00,0.00,0.00,000,0.03
2014-12-03,0.00,0.00,0.00,0.00,000,0.03
2014-12-02,0.00,0.00,0.00,0.00,000,0.03
2014-12-01,0.00,0.00,0.00,0.00,000,0.03
2014-11-28,0.00,0.00,0.00,0.00,23300,0.03
2014-11-27,0.0001,0.0001,0.0001,0.0001,000,0.06
2014-11-26,0.0001,0.0001,0.0001,0.0001,000,0.06
2014-11-25,0.0001,0.0001,0.0001,0.0001,000,0.06
2014-11-24,0.00,0.0001,0.00,0.0001,466600,0.06
2014-11-21,0.00,0.00,0.00,0.00,57300,0.03
2014-11-20,0.00,0.00,0.00,0.00,1206600,0.03
2014-11-19,0.00,0.00,0.00,0.00,166600,0.03
2014-11-18,0.0001,0.0001,0.0001,0.0001,000,0.06
2014-11-17,0.0001,0.0001,0.0001,0.0001,000,0.06
2014-11-14,0.0001,0.0001,0.0001,0.0001,000,0.06
2014-11-13,0.0001,0.0001,0.0001,0.0001,26600,0.06
2014-11-12,0.00,0.00,0.00,0.00,000,0.03
2014-11-11,0.00,0.00,0.00,0.00,100000,0.03
2014-11-10,0.0001,0.0001,0.0001,0.0001,333300,0.06
2014-11-07,0.0001,0.0001,0.0001,0.0001,000,0.06
2014-11-06,0.0001,0.0001,0.0001,0.0001,000,0.06
2014-11-05,0.0001,0.0001,0.0001,0.0001,000,0.06
2014-11-04,0.0001,0.0001,0.0001,0.0001,000,0.06
2014-11-03,0.0001,0.0001,0.0001,0.0001,000,0.06
2014-10-31,0.00,0.0001,0.00,0.0001,171000,0.06
2014-10-30,0.0001,0.0001,0.0001,0.0001,000,0.06
2014-10-29,0.0001,0.0001,0.0001,0.0001,10000,0.06
2014-10-28,0.0001,0.0001,0.0001,0.0001,133300,0.06
2014-10-27,0.00,0.00,0.00,0.00,000,0.03
2014-10-24,0.00,0.00,0.00,0.00,000,0.03
2014-10-23,0.00,0.00,0.00,0.00,000,0.03
2014-10-22,0.00,0.00,0.00,0.00,000,0.03
2014-10-21,0.0001,0.0001,0.00,0.00,82100,0.03
2014-10-20,0.0001,0.0001,0.0001,0.0001,000,0.06
2014-10-17,0.0001,0.0001,0.0001,0.0001,000,0.06
2014-10-16,0.0001,0.0001,0.0001,0.0001,122000,0.06
2014-10-15,0.0001,0.0001,0.0001,0.0001,46700,0.06
2014-10-14,0.0001,0.0001,0.0001,0.0001,31100,0.06
2014-10-13,0.0001,0.0001,0.0001,0.0001,746800,0.06
2014-10-10,0.0001,0.0001,0.0001,0.0001,000,0.06
2014-10-09,0.00,0.0001,0.00,0.0001,10000,0.06
2014-10-08,0.0001,0.0001,0.0001,0.0001,000,0.06
2014-10-07,0.0001,0.0001,0.0001,0.0001,344700,0.06
2014-10-06,0.0001,0.0001,0.0001,0.0001,40000,0.06
2014-10-03,0.0001,0.0001,0.0001,0.0001,336600,0.06
2014-10-02,0.0001,0.0001,0.0001,0.0001,261500,0.06
2014-10-01,0.0001,0.0001,0.0001,0.0001,000,0.06
2014-09-30,0.0001,0.0001,0.0001,0.0001,584800,0.06
2014-09-29,0.0001,0.0001,0.0001,0.0001,68900,0.06
2014-09-26,0.0001,0.0001,0.0001,0.0001,276000,0.06
2014-09-25,0.0001,0.0001,0.0001,0.0001,1083300,0.06
2014-09-24,0.0001,0.0001,0.0001,0.0001,133300,0.06
2014-09-23,0.0001,0.0001,0.0001,0.0001,163300,0.06
2014-09-22,0.0001,0.0001,0.0001,0.0001,000,0.06
2014-09-19,0.0001,0.0001,0.0001,0.0001,16600,0.06
2014-09-18,0.0001,0.0001,0.0001,0.0001,416600,0.06
2014-09-17,0.0001,0.0001,0.0001,0.0001,333300,0.06
2014-09-16,0.0001,0.0001,0.00,0.0001,1866600,0.06
2014-09-15,0.0001,0.0001,0.0001,0.0001,1607700,0.06
2014-09-12,0.0001,0.0001,0.0001,0.0001,000,0.06
2014-09-11,0.0001,0.0001,0.0001,0.0001,000,0.06
2014-09-10,0.0001,0.0001,0.0001,0.0001,000,0.06
2014-09-09,0.0001,0.0001,0.0001,0.0001,8300,0.06
2014-09-08,0.0001,0.0001,0.0001,0.0001,6600,0.06
2014-09-05,0.00,0.00,0.00,0.00,000,0.03
2014-09-04,0.00,0.00,0.00,0.00,000,0.03
2014-09-03,0.00,0.00,0.00,0.00,000,0.03
2014-09-02,0.00,0.00,0.00,0.00,000,0.03
2014-09-01,0.00,0.00,0.00,0.00,8300,0.03
2014-08-29,0.0001,0.0001,0.0001,0.0001,000,0.06
2014-08-28,0.0001,0.0001,0.0001,0.0001,000,0.06
2014-08-27,0.0001,0.0001,0.0001,0.0001,33300,0.06
2014-08-26,0.00,0.00,0.00,0.00,000,0.03
2014-08-25,0.00,0.00,0.00,0.00,000,0.03
2014-08-22,0.00,0.00,0.00,0.00,000,0.03
2014-08-21,0.00,0.00,0.00,0.00,54900,0.03
2014-08-20,0.00,0.00,0.00,0.00,28300,0.03
2014-08-19,0.00,0.00,0.00,0.00,64100,0.03
2014-08-18,0.0001,0.0001,0.0001,0.0001,28300,0.06
2014-08-15,0.00,0.00,0.00,0.00,103300,0.03
2014-08-14,0.0001,0.0001,0.0001,0.0001,8300,0.06
2014-08-13,0.0001,0.0001,0.00,0.0001,932900,0.06
2014-08-12,0.00,0.00,0.00,0.00,333300,0.03
2014-08-11,0.00,0.00,0.00,0.00,883300,0.03
2014-08-08,0.0001,0.0001,0.0001,0.0001,169800,0.06
2014-08-07,0.00,0.0001,0.00,0.0001,137300,0.06
2014-08-06,0.00,0.00,0.00,0.00,3300,0.03
2014-08-05,0.00,0.00,0.00,0.00,178400,0.03
2014-08-04,0.00,0.00,0.00,0.00,000,0.03
2014-08-01,0.00,0.0001,0.00,0.00,1025700,0.03
2014-07-31,0.0001,0.0001,0.00,0.00,400000,0.03
2014-07-30,0.00,0.00,0.00,0.00,000,0.03
2014-07-29,0.00,0.00,0.00,0.00,13400,0.03
2014-07-28,0.00,0.00,0.00,0.00,42200,0.03
2014-07-25,0.00,0.00,0.00,0.00,000,0.03
2014-07-24,0.00,0.00,0.00,0.00,000,0.03
2014-07-23,0.00,0.00,0.00,0.00,000,0.03
2014-07-22,0.00,0.00,0.00,0.00,000,0.03
2014-07-21,0.00,0.00,0.00,0.00,000,0.03
2014-07-18,0.00,0.00,0.00,0.00,3300,0.03
2014-07-17,0.00,0.00,0.00,0.00,80000,0.03
2014-07-16,0.00,0.00,0.00,0.00,000,0.03
2014-07-15,0.00,0.00,0.00,0.00,200000,0.03
2014-07-14,0.0001,0.0001,0.0001,0.0001,000,0.06
2014-07-11,0.0001,0.0001,0.0001,0.0001,000,0.06
2014-07-10,0.0001,0.0001,0.0001,0.0001,16600,0.06
2014-07-09,0.00,0.00,0.00,0.00,000,0.03
2014-07-08,0.00,0.00,0.00,0.00,20000,0.03
2014-07-07,0.00,0.00,0.00,0.00,21600,0.03
2014-07-04,0.00,0.00,0.00,0.00,000,0.03
2014-07-03,0.0001,0.0001,0.00,0.00,108000,0.03
2014-07-02,0.00,0.00,0.00,0.00,000,0.03
2014-07-01,0.00,0.00,0.00,0.00,881300,0.03
2014-06-30,0.00,0.00,0.00,0.00,2515000,0.03
2014-06-27,0.00,0.00,0.00,0.00,46000,0.03
2014-06-26,0.00,0.00,0.00,0.00,462500,0.03
2014-06-25,0.00,0.00,0.00,0.00,204400,0.03
2014-06-24,0.00,0.00,0.00,0.00,54200,0.03
2014-06-23,0.00,0.0001,0.00,0.00,1946700,0.03
2014-06-20,0.00,0.00,0.00,0.00,350100,0.03
2014-06-19,0.00,0.00,0.00,0.00,1100,0.03
2014-06-18,0.00,0.00,0.00,0.00,14400,0.03
2014-06-17,0.00,0.00,0.00,0.00,2090300,0.03
2014-06-16,0.00,0.00,0.00,0.00,66600,0.03
2014-06-13,0.00,0.00,0.00,0.00,183300,0.03
2014-06-12,0.00,0.00,0.00,0.00,16600,0.03
2014-06-11,0.0001,0.0001,0.00,0.00,100,0.03
2014-06-10,0.0001,0.0001,0.0001,0.0001,33300,0.06
2014-06-09,0.00,0.00,0.00,0.00,000,0.03
2014-06-06,0.0001,0.0001,0.00,0.00,96300,0.03
2014-06-05,0.00,0.00,0.00,0.00,33500,0.03
2014-06-04,0.00,0.00,0.00,0.00,1700,0.03
2014-06-03,0.0001,0.0001,0.0001,0.0001,16600,0.06
2014-06-02,0.00,0.00,0.00,0.00,38100,0.03
2014-05-30,0.00,0.00,0.00,0.00,000,0.03
2014-05-29,0.0001,0.0001,0.00,0.00,000,0.03
2014-05-28,0.00,0.00,0.00,0.00,4200,0.03
2014-05-27,0.00,0.00,0.00,0.00,81000,0.03
2014-05-26,0.0001,0.0001,0.0001,0.0001,6600,0.06
2014-05-23,0.00,0.0001,0.00,0.0001,664400,0.06
2014-05-22,0.00,0.00,0.00,0.00,73300,0.03
2014-05-21,0.00,0.0001,0.00,0.0001,201000,0.06
2014-05-20,0.00,0.00,0.00,0.00,35000,0.03
2014-05-19,0.00,0.00,0.00,0.00,214400,0.03
2014-05-16,0.00,0.00,0.00,0.00,000,0.03
2014-05-15,0.00,0.00,0.00,0.00,5000,0.03
2014-05-14,0.0001,0.0001,0.0001,0.0001,16600,0.06
2014-05-13,0.00,0.00,0.00,0.00,000,0.03
2014-05-12,0.0001,0.0001,0.00,0.00,22100,0.03
2014-05-09,0.0001,0.0001,0.0001,0.0001,000,0.06
2014-05-08,0.0001,0.0001,0.0001,0.0001,000,0.06
2014-05-07,0.0001,0.0001,0.0001,0.0001,4400,0.06
2014-05-06,0.00,0.00,0.00,0.00,000,0.03
2014-05-05,0.00,0.00,0.00,0.00,6600,0.03
2014-05-02,0.00,0.00,0.00,0.00,21300,0.03
2014-05-01,0.0001,0.0001,0.00,0.00,8800,0.03
2014-04-30,0.00,0.0001,0.00,0.0001,83300,0.06
2014-04-29,0.00,0.00,0.00,0.00,33500,0.03
2014-04-28,0.00,0.00,0.00,0.00,2000,0.03
2014-04-25,0.0001,0.0001,0.0001,0.0001,000,0.06
2014-04-24,0.0001,0.0001,0.0001,0.0001,100000,0.06
2014-04-23,0.0001,0.0001,0.0001,0.0001,66600,0.06
2014-04-22,0.0001,0.0001,0.0001,0.0001,000,0.06
2014-04-21,0.0001,0.0001,0.0001,0.0001,000,0.06
2014-04-18,0.0001,0.0001,0.0001,0.0001,000,0.06
2014-04-17,0.0001,0.0001,0.0001,0.0001,000,0.06
2014-04-16,0.0001,0.0001,0.0001,0.0001,13300,0.06
2014-04-15,0.0001,0.0001,0.00,0.00,40700,0.03
2014-04-14,0.00,0.00,0.00,0.00,69200,0.03
2014-04-11,0.00,0.0001,0.00,0.0001,57700,0.06
2014-04-10,0.0001,0.0001,0.0001,0.0001,000,0.06
2014-04-09,0.0001,0.0001,0.0001,0.0001,000,0.06
2014-04-08,0.0001,0.0001,0.0001,0.0001,000,0.06
2014-04-07,0.0001,0.0001,0.0001,0.0001,208300,0.06
2014-04-04,0.0001,0.0001,0.0001,0.0001,286600,0.06
2014-04-03,0.0001,0.0001,0.0001,0.0001,16600,0.06
2014-04-02,0.0001,0.0001,0.00,0.00,77100,0.03
2014-04-01,0.0001,0.0001,0.0001,0.0001,000,0.06
2014-03-31,0.0001,0.0001,0.0001,0.0001,000,0.06
2014-03-28,0.0001,0.0001,0.0001,0.0001,758600,0.06
2014-03-27,0.0001,0.0001,0.0001,0.0001,150000,0.06
2014-03-26,0.0001,0.0001,0.0001,0.0001,000,0.06
2014-03-25,0.0001,0.0001,0.0001,0.0001,000,0.06
2014-03-24,0.0001,0.0001,0.00,0.0001,321400,0.06
2014-03-21,0.0001,0.0001,0.0001,0.0001,000,0.06
2014-03-20,0.0001,0.0001,0.0001,0.0001,000,0.06
2014-03-19,0.0001,0.0001,0.0001,0.0001,000,0.06
2014-03-18,0.0001,0.0001,0.0001,0.0001,000,0.06
2014-03-17,0.0001,0.0001,0.0001,0.0001,33500,0.06
2014-03-14,0.0001,0.0001,0.0001,0.0001,33200,0.09
2014-03-13,0.0001,0.0001,0.0001,0.0001,304100,0.06
2014-03-12,0.0001,0.0001,0.0001,0.0001,000,0.06
2014-03-11,0.0001,0.0001,0.0001,0.0001,10000,0.06
2014-03-10,0.0001,0.0001,0.0001,0.0001,1135000,0.06
2014-03-07,0.0001,0.0001,0.0001,0.0001,318300,0.06
2014-03-06,0.00,0.00,0.00,0.00,39400,0.03
2014-03-05,0.0001,0.0001,0.0001,0.0001,395500,0.06
2014-03-04,0.00,0.0001,0.00,0.0001,8600,0.06
2014-03-03,0.00,0.0001,0.00,0.0001,25000,0.06
2014-02-28,0.0001,0.0001,0.0001,0.0001,16600,0.06
2014-02-27,0.0001,0.0001,0.0001,0.0001,000,0.06
2014-02-26,0.0001,0.0001,0.0001,0.0001,100000,0.06
2014-02-25,0.0001,0.0001,0.0001,0.0001,000,0.06
2014-02-24,0.0001,0.0001,0.0001,0.0001,8600,0.06
2014-02-21,0.0001,0.0001,0.0001,0.0001,333300,0.06
2014-02-20,0.0001,0.0001,0.0001,0.0001,248600,0.06
2014-02-19,0.0001,0.0001,0.0001,0.0001,48300,0.06
2014-02-18,0.0001,0.0001,0.00,0.0001,128300,0.06
2014-02-17,0.0001,0.0001,0.0001,0.0001,708300,0.06
2014-02-14,0.0001,0.0001,0.0001,0.0001,173400,0.06
2014-02-13,0.0001,0.0001,0.0001,0.0001,1448800,0.06
2014-02-12,0.0001,0.0001,0.00,0.0001,109200,0.06
2014-02-11,0.0001,0.0001,0.00,0.0001,1428600,0.06
2014-02-10,0.0001,0.0001,0.0001,0.0001,610600,0.06
2014-02-07,0.0001,0.0001,0.0001,0.0001,154000,0.06
2014-02-06,0.0001,0.0001,0.0001,0.0001,225000,0.06
2014-02-05,0.0001,0.0001,0.0001,0.0001,000,0.06
2014-02-04,0.0001,0.0001,0.0001,0.0001,55500,0.06
2014-02-03,0.0001,0.0001,0.0001,0.0001,000,0.06
2014-01-31,0.0001,0.0001,0.0001,0.0001,26000,0.06
2014-01-30,0.0001,0.0001,0.0001,0.0001,419400,0.09
2014-01-29,0.0001,0.0001,0.0001,0.0001,432800,0.09
2014-01-28,0.0001,0.0001,0.0001,0.0001,2336000,0.09
2014-01-27,0.0001,0.0001,0.0001,0.0001,000,0.09
2014-01-24,0.0001,0.0001,0.0001,0.0001,309100,0.09
2014-01-23,0.0001,0.0001,0.0001,0.0001,246600,0.12
2014-01-22,0.0001,0.0001,0.0001,0.0001,93000,0.12
2014-01-21,0.0001,0.0001,0.0001,0.0001,653400,0.12
2014-01-20,0.0001,0.0001,0.0001,0.0001,182200,0.09
2014-01-17,0.0001,0.0001,0.0001,0.0001,391600,0.09
2014-01-16,0.0001,0.0001,0.0001,0.0001,277400,0.09
2014-01-15,0.0001,0.0001,0.0001,0.0001,1115500,0.09
2014-01-14,0.0001,0.0001,0.0001,0.0001,89100,0.09
2014-01-13,0.0001,0.0001,0.0001,0.0001,196500,0.09
2014-01-10,0.0001,0.0001,0.0001,0.0001,200,0.09
2014-01-09,0.0001,0.0001,0.0001,0.0001,390400,0.09
2014-01-08,0.0001,0.0001,0.0001,0.0001,401500,0.12
2014-01-07,0.0001,0.0001,0.0001,0.0001,682500,0.12
2014-01-06,0.0001,0.0001,0.0001,0.0001,1484100,0.12
2014-01-03,0.0001,0.0001,0.0001,0.0001,33300,0.12
2014-01-02,0.0001,0.0001,0.0001,0.0001,13500,0.12
2014-01-01,0.0001,0.0001,0.0001,0.0001,000,0.12
2013-12-31,0.0001,0.0001,0.0001,0.0001,232200,0.12
2013-12-30,0.0001,0.0001,0.0001,0.0001,114500,0.12
2013-12-27,0.0001,0.0001,0.0001,0.0001,61600,0.09
2013-12-26,0.0001,0.0001,0.0001,0.0001,000,0.09
2013-12-25,0.0001,0.0001,0.0001,0.0001,000,0.09
2013-12-24,0.0001,0.0001,0.0001,0.0001,111600,0.09
2013-12-23,0.0001,0.0001,0.0001,0.0001,614900,0.09
2013-12-20,0.0001,0.0001,0.0001,0.0001,514600,0.09
2013-12-19,0.0001,0.0001,0.0001,0.0001,1014700,0.09
2013-12-18,0.0001,0.0001,0.0001,0.0001,389500,0.09
2013-12-17,0.0001,0.0001,0.0001,0.0001,2906600,0.12
2013-12-16,0.0001,0.0001,0.0001,0.0001,50800,0.12
2013-12-13,0.0001,0.0001,0.0001,0.0001,359900,0.12
2013-12-12,0.0001,0.0001,0.0001,0.0001,472600,0.09
2013-12-11,0.0001,0.0001,0.0001,0.0001,3273100,0.12
2013-12-10,0.0001,0.0002,0.0001,0.0002,1211900,0.15
2013-12-09,0.0002,0.0002,0.0001,0.0001,1575300,0.12
2013-12-06,0.0001,0.0002,0.0001,0.0002,3152200,0.18
2013-12-05,0.0001,0.0001,0.0001,0.0001,1606000,0.12
2013-12-04,0.0001,0.0001,0.0001,0.0001,638300,0.12
2013-12-03,0.0001,0.0001,0.0001,0.0001,1254300,0.09
2013-12-02,0.0001,0.0001,0.0001,0.0001,298300,0.09
2013-11-29,0.0001,0.0001,0.0001,0.0001,269300,0.09
2013-11-28,0.0001,0.0001,0.0001,0.0001,730300,0.12
2013-11-27,0.0001,0.0001,0.0001,0.0001,770300,0.09
2013-11-26,0.0001,0.0001,0.0001,0.0001,2041500,0.09
2013-11-25,0.0001,0.0001,0.0001,0.0001,498100,0.09
2013-11-22,0.0001,0.0001,0.0001,0.0001,274600,0.12
2013-11-21,0.0001,0.0001,0.0001,0.0001,57300,0.12
2013-11-20,0.0001,0.0001,0.0001,0.0001,235000,0.09
2013-11-19,0.0001,0.0001,0.0001,0.0001,1980100,0.12
2013-11-18,0.0001,0.0002,0.0001,0.0001,3369900,0.12
2013-11-15,0.0002,0.0002,0.0001,0.0002,631100,0.15
2013-11-14,0.0001,0.0001,0.0001,0.0001,736000,0.12
2013-11-13,0.0002,0.0002,0.0001,0.0001,964200,0.12
2013-11-12,0.0002,0.0002,0.0001,0.0001,1512700,0.12
2013-11-11,0.0001,0.0002,0.0001,0.0002,558000,0.15
2013-11-08,0.0002,0.0002,0.0001,0.0001,1412900,0.12
2013-11-07,0.0001,0.0002,0.0001,0.0001,347400,0.12
2013-11-06,0.0001,0.0002,0.0001,0.0002,3367300,0.15
2013-11-05,0.0001,0.0001,0.0001,0.0001,1741700,0.09
2013-11-04,0.0001,0.0001,0.0001,0.0001,334800,0.06
2013-11-01,0.0001,0.0001,0.0001,0.0001,2625200,0.09
2013-10-31,0.00,0.0001,0.00,0.0001,1444000,0.06
2013-10-30,0.00,0.00,0.00,0.00,000,0.03
2013-10-29,0.00,0.00,0.00,0.00,500000,0.03
2013-10-28,0.00,0.00,0.00,0.00,000,0.03
2013-10-25,0.00,0.00,0.00,0.00,000,0.03
2013-10-24,0.00,0.00,0.00,0.00,000,0.03
2013-10-23,0.00,0.00,0.00,0.00,30000,0.03
2013-10-22,0.00,0.00,0.00,0.00,71300,0.03
2013-10-21,0.00,0.00,0.00,0.00,8000,0.03
2013-10-18,0.00,0.00,0.00,0.00,32800,0.03
2013-10-17,0.00,0.00,0.00,0.00,000,0.03
2013-10-16,0.00,0.00,0.00,0.00,000,0.03
2013-10-15,0.00,0.00,0.00,0.00,200,0.03
2013-10-14,0.00,0.00,0.00,0.00,000,0.03
2013-10-11,0.00,0.00,0.00,0.00,000,0.03
2013-10-10,0.00,0.00,0.00,0.00,000,0.03
2013-10-09,0.00,0.00,0.00,0.00,000,0.03
2013-10-08,0.00,0.00,0.00,0.00,000,0.03
2013-10-07,0.00,0.00,0.00,0.00,000,0.03
2013-10-04,0.00,0.00,0.00,0.00,50000,0.03
2013-10-03,0.00,0.00,0.00,0.00,000,0.03
2013-10-02,0.00,0.00,0.00,0.00,000,0.03
2013-10-01,0.00,0.00,0.00,0.00,000,0.03
2013-09-30,0.00,0.00,0.00,0.00,195300,0.03
2013-09-27,0.00,0.00,0.00,0.00,000,0.03
2013-09-26,0.00,0.00,0.00,0.00,000,0.03
2013-09-25,0.00,0.00,0.00,0.00,000,0.03
2013-09-24,0.00,0.00,0.00,0.00,33300,0.03
2013-09-23,0.00,0.00,0.00,0.00,000,0.03
2013-09-20,0.00,0.00,0.00,0.00,000,0.03
2013-09-19,0.00,0.00,0.00,0.00,000,0.03
2013-09-18,0.00,0.00,0.00,0.00,500,0.03
2013-09-17,0.00,0.00,0.00,0.00,52800,0.03
2013-09-16,0.00,0.00,0.00,0.00,100,0.03
2013-09-13,0.00,0.00,0.00,0.00,33500,0.03
2013-09-12,0.00,0.00,0.00,0.00,000,0.03
2013-09-11,0.00,0.00,0.00,0.00,000,0.03
2013-09-10,0.00,0.00,0.00,0.00,100,0.03
2013-09-09,0.00,0.00,0.00,0.00,000,0.03
2013-09-06,0.00,0.00,0.00,0.00,376900,0.03
2013-09-05,0.00,0.00,0.00,0.00,6700,0.03
2013-09-04,0.00,0.00,0.00,0.00,000,0.03
2013-09-03,0.00,0.00,0.00,0.00,000,0.03
2013-09-02,0.00,0.00,0.00,0.00,000,0.03
2013-08-30,0.00,0.00,0.00,0.00,000,0.03
2013-08-29,0.00,0.00,0.00,0.00,100,0.03
2013-08-28,0.00,0.00,0.00,0.00,1100,0.03
2013-08-27,0.00,0.00,0.00,0.00,000,0.03
2013-08-26,0.00,0.00,0.00,0.00,000,0.03
2013-08-23,0.00,0.00,0.00,0.00,000,0.03
2013-08-22,0.00,0.00,0.00,0.00,000,0.03
2013-08-21,0.00,0.00,0.00,0.00,000,0.03
2013-08-20,0.00,0.00,0.00,0.00,14900,0.03
2013-08-19,0.00,0.00,0.00,0.00,000,0.03
2013-08-16,0.00,0.00,0.00,0.00,000,0.03
2013-08-15,0.00,0.00,0.00,0.00,000,0.03
2013-08-14,0.00,0.00,0.00,0.00,000,0.03
2013-08-13,0.00,0.00,0.00,0.00,000,0.03
2013-08-12,0.00,0.00,0.00,0.00,000,0.03
2013-08-09,0.00,0.00,0.00,0.00,000,0.03
2013-08-08,0.00,0.00,0.00,0.00,000,0.03
2013-08-07,0.00,0.00,0.00,0.00,000,0.03
2013-08-06,0.00,0.00,0.00,0.00,000,0.03
2013-08-05,0.00,0.00,0.00,0.00,000,0.03
2013-08-02,0.00,0.00,0.00,0.00,000,0.03
2013-08-01,0.00,0.00,0.00,0.00,000,0.03
2013-07-31,0.00,0.00,0.00,0.00,000,0.03
2013-07-30,0.00,0.00,0.00,0.00,000,0.03
2013-07-29,0.00,0.00,0.00,0.00,400,0.03
2013-07-26,0.00,0.00,0.00,0.00,300,0.03
2013-07-25,0.00,0.00,0.00,0.00,000,0.03
2013-07-24,0.00,0.00,0.00,0.00,50000,0.03
2013-07-23,0.00,0.00,0.00,0.00,166600,0.03
2013-07-22,0.00,0.00,0.00,0.00,000,0.03
2013-07-19,0.00,0.00,0.00,0.00,000,0.03
2013-07-18,0.00,0.00,0.00,0.00,000,0.03
2013-07-17,0.00,0.00,0.00,0.00,8000,0.03
2013-07-16,0.0001,0.0001,0.0001,0.0001,000,0.06
2013-07-15,0.0001,0.0001,0.0001,0.0001,000,0.06
2013-07-12,0.00,0.0001,0.00,0.0001,8800,0.06
2013-07-11,0.00,0.00,0.00,0.00,000,0.03
2013-07-10,0.0001,0.0001,0.00,0.00,000,0.03
2013-07-09,0.00,0.00,0.00,0.00,33300,0.03
2013-07-08,0.00,0.00,0.00,0.00,200,0.03
2013-07-05,0.00,0.00,0.00,0.00,000,0.03
2013-07-04,0.00,0.00,0.00,0.00,000,0.03
2013-07-03,0.00,0.00,0.00,0.00,000,0.03
2013-07-02,0.00,0.00,0.00,0.00,000,0.03
2013-07-01,0.00,0.00,0.00,0.00,100,0.03
2013-06-28,0.00,0.00,0.00,0.00,100,0.03
2013-06-27,0.00,0.00,0.00,0.00,500,0.03
2013-06-26,0.00,0.00,0.00,0.00,000,0.03
2013-06-25,0.00,0.00,0.00,0.00,000,0.03
2013-06-24,0.00,0.00,0.00,0.00,4300,0.03
2013-06-21,0.00,0.00,0.00,0.00,000,0.03
2013-06-20,0.00,0.00,0.00,0.00,000,0.03
2013-06-19,0.00,0.00,0.00,0.00,000,0.03
2013-06-18,0.00,0.00,0.00,0.00,000,0.03
2013-06-17,0.00,0.00,0.00,0.00,000,0.03
2013-06-14,0.00,0.00,0.00,0.00,000,0.03
2013-06-13,0.00,0.00,0.00,0.00,000,0.03
2013-06-12,0.00,0.00,0.00,0.00,66600,0.03
2013-06-11,0.00,0.00,0.00,0.00,399900,0.03
2013-06-10,0.00,0.00,0.00,0.00,000,0.03
2013-06-07,0.00,0.00,0.00,0.00,000,0.03
2013-06-06,0.00,0.00,0.00,0.00,000,0.03
2013-06-05,0.00,0.00,0.00,0.00,000,0.03
2013-06-04,0.00,0.00,0.00,0.00,000,0.03
2013-06-03,0.00,0.00,0.00,0.00,40000,0.03
2013-05-31,0.00,0.00,0.00,0.00,100000,0.03
2013-05-30,0.00,0.00,0.00,0.00,500,0.03
2013-05-29,0.00,0.00,0.00,0.00,302300,0.03
2013-05-28,0.00,0.00,0.00,0.00,1555900,0.03
2013-05-27,0.00,0.00,0.00,0.00,000,0.03
2013-05-24,0.00,0.00,0.00,0.00,36800,0.03
2013-05-23,0.00,0.00,0.00,0.00,1300,0.03
2013-05-22,0.00,0.00,0.00,0.00,200,0.03
2013-05-21,0.0001,0.0001,0.0001,0.0001,000,0.06
2013-05-20,0.0001,0.0001,0.0001,0.0001,000,0.06
2013-05-17,0.0001,0.0001,0.0001,0.0001,000,0.06
2013-05-16,0.0001,0.0001,0.0001,0.0001,000,0.06
2013-05-15,0.0001,0.0001,0.0001,0.0001,000,0.06
2013-05-14,0.0001,0.0001,0.0001,0.0001,8300,0.06
2013-05-13,0.00,0.0001,0.00,0.0001,338700,0.06
2013-05-10,0.00,0.00,0.00,0.00,000,0.03
2013-05-09,0.00,0.00,0.00,0.00,300,0.03
2013-05-08,0.00,0.00,0.00,0.00,000,0.03
2013-05-07,0.00,0.00,0.00,0.00,000,0.03
2013-05-06,0.00,0.00,0.00,0.00,000,0.03
2013-05-03,0.00,0.00,0.00,0.00,000,0.03
2013-05-02,0.00,0.00,0.00,0.00,000,0.03
2013-05-01,0.00,0.00,0.00,0.00,19900,0.03
2013-04-30,0.00,0.00,0.00,0.00,000,0.03
2013-04-29,0.00,0.00,0.00,0.00,000,0.03
2013-04-26,0.00,0.00,0.00,0.00,000,0.03
2013-04-25,0.00,0.00,0.00,0.00,000,0.03
2013-04-24,0.00,0.00,0.00,0.00,000,0.03
2013-04-23,0.00,0.00,0.00,0.00,000,0.03
2013-04-22,0.00,0.00,0.00,0.00,116700,0.03
2013-04-19,0.00,0.00,0.00,0.00,000,0.03
2013-04-18,0.00,0.00,0.00,0.00,000,0.03
2013-04-17,0.00,0.00,0.00,0.00,000,0.03
2013-04-16,0.00,0.00,0.00,0.00,000,0.03
2013-04-15,0.00,0.00,0.00,0.00,000,0.03
2013-04-12,0.00,0.00,0.00,0.00,000,0.03
2013-04-11,0.00,0.00,0.00,0.00,000,0.03
2013-04-10,0.00,0.00,0.00,0.00,000,0.03
2013-04-09,0.00,0.00,0.00,0.00,000,0.03
2013-04-08,0.00,0.00,0.00,0.00,000,0.03
2013-04-05,0.00,0.00,0.00,0.00,000,0.03
2013-04-04,0.00,0.00,0.00,0.00,000,0.03
2013-04-03,0.00,0.00,0.00,0.00,000,0.03
2013-04-02,0.00,0.00,0.00,0.00,000,0.03
2013-04-01,0.00,0.00,0.00,0.00,000,0.03
2013-03-29,0.00,0.00,0.00,0.00,000,0.03
2013-03-28,0.00,0.00,0.00,0.00,000,0.03
2013-03-27,0.00,0.00,0.00,0.00,000,0.03
2013-03-26,0.00,0.00,0.00,0.00,000,0.03
2013-03-25,0.00,0.00,0.00,0.00,000,0.03
2013-03-22,0.00,0.00,0.00,0.00,000,0.03
2013-03-21,0.00,0.00,0.00,0.00,000,0.03
2013-03-20,0.00,0.00,0.00,0.00,000,0.03
2013-03-19,0.00,0.00,0.00,0.00,000,0.03
2013-03-18,0.00,0.00,0.00,0.00,33800,0.03
2013-03-15,0.00,0.00,0.00,0.00,000,0.03
2013-03-14,0.00,0.00,0.00,0.00,000,0.03
2013-03-13,0.00,0.00,0.00,0.00,000,0.03
2013-03-12,0.00,0.00,0.00,0.00,500,0.03
2013-03-11,0.00,0.00,0.00,0.00,000,0.03
2013-03-08,0.00,0.00,0.00,0.00,000,0.03
2013-03-07,0.00,0.00,0.00,0.00,000,0.03
2013-03-06,0.00,0.00,0.00,0.00,27200,0.03
2013-03-05,0.00,0.00,0.00,0.00,000,0.03
2013-03-04,0.00,0.00,0.00,0.00,000,0.03
2013-03-01,0.00,0.00,0.00,0.00,000,0.03
2013-02-28,0.0001,0.0001,0.0001,0.0001,000,0.06
2013-02-27,0.0001,0.0001,0.0001,0.0001,000,0.06
2013-02-26,0.0001,0.0001,0.0001,0.0001,000,0.06
2013-02-25,0.0001,0.0001,0.0001,0.0001,000,0.06
2013-02-22,0.00,0.0001,0.00,0.0001,33600,0.06
2013-02-21,0.00,0.00,0.00,0.00,000,0.03
2013-02-20,0.00,0.00,0.00,0.00,000,0.03
2013-02-19,0.00,0.00,0.00,0.00,000,0.03
2013-02-18,0.00,0.00,0.00,0.00,000,0.03
2013-02-15,0.00,0.00,0.00,0.00,528800,0.03
2013-02-14,0.00,0.00,0.00,0.00,000,0.03
2013-02-13,0.00,0.00,0.00,0.00,000,0.03
2013-02-12,0.00,0.00,0.00,0.00,000,0.03
2013-02-11,0.00,0.00,0.00,0.00,200,0.03
2013-02-08,0.00,0.00,0.00,0.00,42200,0.03
2013-02-07,0.00,0.00,0.00,0.00,000,0.03
2013-02-06,0.0001,0.0001,0.00,0.00,11800,0.03
2013-02-05,0.00,0.0001,0.00,0.0001,17900,0.06
2013-02-04,0.0001,0.0001,0.0001,0.0001,900,0.06
2013-02-01,0.0001,0.0001,0.0001,0.0001,000,0.06
2013-01-31,0.0001,0.0001,0.0001,0.0001,000,0.06
2013-01-30,0.0001,0.0001,0.0001,0.0001,3400,0.06
2013-01-29,0.0001,0.0001,0.0001,0.0001,20500,0.06
2013-01-28,0.0001,0.0001,0.0001,0.0001,000,0.06
2013-01-25,0.0001,0.0001,0.0001,0.0001,16600,0.06
2013-01-24,0.00,0.00,0.00,0.00,000,0.03
2013-01-22,0.00,0.00,0.00,0.00,000,0.03
2013-01-21,0.00,0.00,0.00,0.00,000,0.03
2013-01-18,0.00,0.00,0.00,0.00,000,0.03
2013-01-17,0.00,0.00,0.00,0.00,000,0.03
2013-01-16,0.00,0.00,0.00,0.00,000,0.03
2013-01-15,0.00,0.00,0.00,0.00,000,0.03
2013-01-14,0.00,0.00,0.00,0.00,1000,0.03
2013-01-11,0.00,0.00,0.00,0.00,000,0.03
2013-01-10,0.0001,0.0001,0.00,0.00,44100,0.03
2013-01-09,0.0001,0.0001,0.0001,0.0001,000,0.06
2013-01-08,0.0001,0.0001,0.0001,0.0001,000,0.06
2013-01-07,0.0001,0.0001,0.0001,0.0001,41200,0.06
2013-01-04,0.00,0.00,0.00,0.00,000,0.03
2013-01-03,0.0001,0.0001,0.0001,0.0001,000,0.06
2013-01-02,0.0001,0.0001,0.0001,0.0001,39800,0.06
2013-01-01,0.0001,0.0001,0.0001,0.0001,000,0.06
2012-12-31,0.0001,0.0001,0.0001,0.0001,000,0.06
2012-12-28,0.0001,0.0001,0.0001,0.0001,000,0.06
2012-12-27,0.0001,0.0001,0.0001,0.0001,100,0.06
2012-12-26,0.0001,0.0001,0.0001,0.0001,000,0.06
2012-12-25,0.0001,0.0001,0.0001,0.0001,000,0.06
2012-12-24,0.0001,0.0001,0.0001,0.0001,000,0.06
2012-12-21,0.0001,0.0001,0.0001,0.0001,100,0.06
2012-12-20,0.0001,0.0001,0.0001,0.0001,61600,0.09
2012-12-19,0.0001,0.0001,0.0001,0.0001,000,0.09
2012-12-18,0.0001,0.0001,0.0001,0.0001,16600,0.09
2012-12-17,0.0001,0.0001,0.0001,0.0001,000,0.06
2012-12-14,0.0001,0.0001,0.0001,0.0001,000,0.06
2012-12-13,0.0001,0.0001,0.0001,0.0001,000,0.06
2012-12-12,0.0001,0.0001,0.0001,0.0001,116700,0.06
2012-12-11,0.0001,0.0001,0.0001,0.0001,16600,0.09
2012-12-10,0.0001,0.0001,0.0001,0.0001,5800,0.06
2012-12-07,0.0001,0.0001,0.0001,0.0001,000,0.06
2012-12-06,0.0001,0.0001,0.0001,0.0001,000,0.06
2012-12-05,0.0001,0.0001,0.0001,0.0001,000,0.06
2012-12-04,0.0001,0.0001,0.0001,0.0001,16800,0.06
2012-12-03,0.0001,0.0001,0.0001,0.0001,000,0.06
2012-11-30,0.0001,0.0001,0.0001,0.0001,3600,0.06
2012-11-29,0.0001,0.0001,0.0001,0.0001,33300,0.06
2012-11-28,0.0001,0.0001,0.0001,0.0001,200,0.06
2012-11-27,0.0001,0.0001,0.0001,0.0001,1600,0.06
2012-11-26,0.0001,0.0001,0.0001,0.0001,000,0.06
2012-11-23,0.0001,0.0001,0.0001,0.0001,200,0.06
2012-11-22,0.0001,0.0001,0.0001,0.0001,000,0.09
2012-11-21,0.0001,0.0001,0.0001,0.0001,000,0.09
2012-11-20,0.0001,0.0001,0.0001,0.0001,000,0.09
2012-11-19,0.0001,0.0001,0.0001,0.0001,16600,0.09
2012-11-16,0.0001,0.0001,0.0001,0.0001,000,0.06
2012-11-15,0.0001,0.0001,0.0001,0.0001,3500,0.06
2012-11-14,0.0001,0.0001,0.0001,0.0001,000,0.09
2012-11-13,0.0001,0.0001,0.0001,0.0001,000,0.09
2012-11-12,0.0001,0.0001,0.0001,0.0001,000,0.09
2012-11-09,0.0001,0.0001,0.0001,0.0001,000,0.09
2012-11-08,0.0001,0.0001,0.0001,0.0001,000,0.09
2012-11-07,0.0001,0.0001,0.0001,0.0001,000,0.09
2012-11-06,0.0001,0.0001,0.0001,0.0001,000,0.09
2012-11-05,0.0001,0.0001,0.0001,0.0001,17500,0.09
2012-11-02,0.0001,0.0001,0.0001,0.0001,4100,0.12
2012-11-01,0.0001,0.0001,0.0001,0.0001,34000,0.09
2012-10-31,0.0001,0.0001,0.0001,0.0001,000,0.12
2012-10-30,0.0001,0.0001,0.0001,0.0001,2100,0.12
2012-10-29,0.0002,0.0002,0.0002,0.0002,000,0.15
2012-10-26,0.0001,0.0002,0.0001,0.0002,66700,0.15
2012-10-25,0.0001,0.0001,0.0001,0.0001,000,0.12
2012-10-24,0.0001,0.0001,0.0001,0.0001,6600,0.12
2012-10-23,0.0001,0.0001,0.0001,0.0001,000,0.09
2012-10-22,0.0001,0.0001,0.0001,0.0001,000,0.12
2012-10-19,0.0001,0.0001,0.0001,0.0001,134600,0.12
2012-10-18,0.0001,0.0001,0.0001,0.0001,16600,0.12
2012-10-17,0.0001,0.0001,0.0001,0.0001,000,0.12
2012-10-16,0.0001,0.0001,0.0001,0.0001,000,0.12
2012-10-15,0.0001,0.0001,0.0001,0.0001,51100,0.12
2012-10-12,0.0001,0.0002,0.0001,0.0002,61700,0.15
2012-10-11,0.0001,0.0001,0.0001,0.0001,66700,0.12
2012-10-10,0.0001,0.0001,0.0001,0.0001,434900,0.12
2012-10-09,0.0001,0.0001,0.0001,0.0001,2280600,0.09
2012-10-08,0.0001,0.0001,0.0001,0.0001,000,0.12
2012-10-05,0.0001,0.0001,0.0001,0.0001,50000,0.12
2012-10-04,0.0001,0.0001,0.0001,0.0001,000,0.12
2012-10-03,0.0001,0.0001,0.0001,0.0001,000,0.12
2012-10-02,0.0001,0.0001,0.0001,0.0001,000,0.12
2012-10-01,0.0001,0.0001,0.0001,0.0001,1600,0.12
2012-09-28,0.0001,0.0001,0.0001,0.0001,555500,0.12
2012-09-27,0.0001,0.0001,0.0001,0.0001,000,0.06
2012-09-26,0.0001,0.0001,0.0001,0.0001,500,0.06
2012-09-25,0.0001,0.0001,0.0001,0.0001,000,0.09
2012-09-24,0.0001,0.0001,0.0001,0.0001,33300,0.09
2012-09-21,0.0001,0.0001,0.0001,0.0001,000,0.09
2012-09-20,0.0001,0.0001,0.0001,0.0001,000,0.09
2012-09-19,0.0001,0.0001,0.0001,0.0001,75000,0.09
2012-09-18,0.0001,0.0001,0.0001,0.0001,108200,0.09
2012-09-17,0.0001,0.0001,0.0001,0.0001,200000,0.09
2012-09-14,0.0001,0.0001,0.0001,0.0001,50000,0.09
2012-09-13,0.0001,0.0001,0.0001,0.0001,391600,0.09
2012-09-12,0.0001,0.0001,0.0001,0.0001,000,0.09
2012-09-11,0.0001,0.0001,0.0001,0.0001,000,0.09
2012-09-10,0.0001,0.0001,0.0001,0.0001,000,0.09
2012-09-07,0.0001,0.0001,0.0001,0.0001,000,0.09
2012-09-06,0.0001,0.0001,0.0001,0.0001,600,0.09
2012-09-05,0.0001,0.0001,0.0001,0.0001,10000,0.06
2012-09-04,0.0001,0.0001,0.0001,0.0001,000,0.06
2012-09-03,0.0001,0.0001,0.0001,0.0001,000,0.06
2012-08-31,0.0001,0.0001,0.0001,0.0001,000,0.06
2012-08-30,0.0001,0.0001,0.0001,0.0001,3400,0.06
2012-08-29,0.0001,0.0001,0.0001,0.0001,000,0.06
2012-08-28,0.0001,0.0001,0.0001,0.0001,000,0.06
2012-08-27,0.0001,0.0001,0.0001,0.0001,13300,0.06
2012-08-24,0.0001,0.0001,0.0001,0.0001,000,0.09
2012-08-23,0.0001,0.0001,0.0001,0.0001,100000,0.09
2012-08-22,0.0001,0.0001,0.0001,0.0001,750000,0.09
2012-08-21,0.0001,0.0001,0.0001,0.0001,1153700,0.09
2012-08-20,0.00,0.00,0.00,0.00,000,0.03
2012-08-17,0.00,0.00,0.00,0.00,000,0.03
2012-08-16,0.00,0.00,0.00,0.00,000,0.03
2012-08-15,0.00,0.00,0.00,0.00,3300,0.03
2012-08-14,0.00,0.00,0.00,0.00,000,0.03
2012-08-13,0.00,0.00,0.00,0.00,000,0.03
2012-08-10,0.00,0.00,0.00,0.00,000,0.03
2012-08-09,0.00,0.00,0.00,0.00,000,0.03
2012-08-08,0.00,0.00,0.00,0.00,000,0.03
2012-08-07,0.00,0.00,0.00,0.00,000,0.03
2012-08-06,0.00,0.00,0.00,0.00,200,0.03
2012-08-03,0.00,0.00,0.00,0.00,000,0.03
2012-08-02,0.00,0.00,0.00,0.00,000,0.03
2012-08-01,0.00,0.00,0.00,0.00,000,0.03
2012-07-31,0.00,0.00,0.00,0.00,000,0.03
2012-07-30,0.00,0.00,0.00,0.00,000,0.03
2012-07-27,0.00,0.00,0.00,0.00,000,0.03
2012-07-26,0.00,0.00,0.00,0.00,126600,0.03
2012-07-25,0.00,0.00,0.00,0.00,000,0.03
2012-07-24,0.00,0.00,0.00,0.00,000,0.03
2012-07-23,0.00,0.00,0.00,0.00,000,0.03
2012-07-20,0.00,0.00,0.00,0.00,000,0.03
2012-07-19,0.00,0.00,0.00,0.00,000,0.03
2012-07-18,0.00,0.00,0.00,0.00,5400,0.03
2012-07-17,0.00,0.00,0.00,0.00,8400,0.03
2012-07-16,0.00,0.00,0.00,0.00,50000,0.03
2012-07-13,0.00,0.00,0.00,0.00,000,0.03
2012-07-12,0.00,0.00,0.00,0.00,000,0.03
2012-07-11,0.00,0.00,0.00,0.00,000,0.03
2012-07-10,0.00,0.00,0.00,0.00,200,0.03
2012-07-09,0.00,0.00,0.00,0.00,000,0.03
2012-07-06,0.00,0.00,0.00,0.00,000,0.03
2012-07-05,0.00,0.00,0.00,0.00,000,0.03
2012-07-04,0.00,0.00,0.00,0.00,000,0.03
2012-07-03,0.00,0.00,0.00,0.00,1300,0.03
2012-07-02,0.00,0.00,0.00,0.00,000,0.03
2012-06-29,0.00,0.00,0.00,0.00,000,0.03
2012-06-28,0.00,0.00,0.00,0.00,000,0.03
2012-06-27,0.00,0.00,0.00,0.00,000,0.03
2012-06-26,0.00,0.00,0.00,0.00,000,0.03
2012-06-25,0.00,0.00,0.00,0.00,10100,0.03
2012-06-22,0.00,0.00,0.00,0.00,000,0.03
2012-06-21,0.00,0.00,0.00,0.00,14800,0.03
2012-06-20,0.00,0.00,0.00,0.00,000,0.03
2012-06-19,0.00,0.00,0.00,0.00,000,0.03
2012-06-18,0.00,0.00,0.00,0.00,000,0.03
2012-06-15,0.00,0.00,0.00,0.00,000,0.03
2012-06-14,0.00,0.00,0.00,0.00,000,0.03
2012-06-13,0.00,0.00,0.00,0.00,000,0.03
2012-06-12,0.00,0.00,0.00,0.00,166600,0.03
2012-06-11,0.00,0.00,0.00,0.00,000,0.03
2012-06-08,0.00,0.00,0.00,0.00,138000,0.03
2012-06-07,0.00,0.00,0.00,0.00,16600,0.03
2012-06-06,0.0001,0.0001,0.00,0.00,19200,0.03
2012-06-05,0.00,0.00,0.00,0.00,000,0.03
2012-06-04,0.00,0.00,0.00,0.00,28500,0.03
2012-06-01,0.00,0.00,0.00,0.00,000,0.03
2012-05-31,0.00,0.00,0.00,0.00,107700,0.03
2012-05-30,0.00,0.00,0.00,0.00,000,0.03
2012-05-29,0.00,0.00,0.00,0.00,78000,0.03
2012-05-28,0.00,0.00,0.00,0.00,16900,0.03
2012-05-25,0.00,0.00,0.00,0.00,000,0.03
2012-05-24,0.00,0.00,0.00,0.00,3700,0.03
2012-05-23,0.00,0.00,0.00,0.00,16500,0.03
2012-05-22,0.00,0.00,0.00,0.00,34600,0.03
2012-05-21,0.00,0.00,0.00,0.00,000,0.03
2012-05-18,0.00,0.00,0.00,0.00,000,0.03
2012-05-17,0.00,0.00,0.00,0.00,000,0.03
2012-05-16,0.00,0.00,0.00,0.00,127500,0.03
2012-05-15,0.00,0.00,0.00,0.00,000,0.03
2012-05-14,0.00,0.00,0.00,0.00,673000,0.03
2012-05-11,0.00,0.00,0.00,0.00,000,0.03
2012-05-10,0.00,0.00,0.00,0.00,000,0.03
2012-05-09,0.00,0.00,0.00,0.00,000,0.03
2012-05-08,0.00,0.00,0.00,0.00,000,0.03
2012-05-07,0.0001,0.0001,0.0001,0.0001,000,0.06
2012-05-04,0.0001,0.0001,0.0001,0.0001,3300,0.06
2012-05-03,0.00,0.00,0.00,0.00,000,0.03
2012-05-02,0.0001,0.0001,0.00,0.00,3400,0.03
2012-05-01,0.00,0.00,0.00,0.00,3000,0.03
2012-04-30,0.0001,0.0001,0.0001,0.0001,000,0.06
2012-04-27,0.0001,0.0001,0.0001,0.0001,000,0.06
2012-04-26,0.0001,0.0001,0.0001,0.0001,000,0.06
2012-04-25,0.0001,0.0001,0.0001,0.0001,000,0.06
2012-04-24,0.0001,0.0001,0.0001,0.0001,000,0.06
2012-04-23,0.0001,0.0001,0.0001,0.0001,000,0.06
2012-04-20,0.0001,0.0001,0.0001,0.0001,200,0.06
2012-04-19,0.0001,0.0001,0.0001,0.0001,000,0.06
2012-04-18,0.0001,0.0001,0.0001,0.0001,900,0.06
2012-04-17,0.0001,0.0001,0.0001,0.0001,1600,0.06
2012-04-16,0.00,0.0001,0.00,0.0001,5500,0.06
2012-04-13,0.0001,0.0001,0.0001,0.0001,000,0.06
2012-04-12,0.0001,0.0001,0.0001,0.0001,000,0.06
2012-04-11,0.0001,0.0001,0.0001,0.0001,000,0.06
2012-04-10,0.0001,0.0001,0.0001,0.0001,000,0.06
2012-04-09,0.0001,0.0001,0.0001,0.0001,000,0.06
2012-04-06,0.0001,0.0001,0.0001,0.0001,000,0.06
2012-04-05,0.0001,0.0001,0.0001,0.0001,000,0.06
2012-04-04,0.0001,0.0001,0.0001,0.0001,000,0.06
2012-04-03,0.0001,0.0001,0.0001,0.0001,000,0.06
2012-04-02,0.0001,0.0001,0.0001,0.0001,93300,0.06
2012-03-30,0.00,0.00,0.00,0.00,000,0.03
2012-01-30,0.0001,0.0001,0.0001,0.0001,000,0.09
2011-11-14,0.0001,0.0001,0.0001,0.0001,000,0.09
2011-11-09,0.0001,0.0001,0.0001,0.0001,000,0.09
2011-11-08,0.0001,0.0001,0.0001,0.0001,000,0.09
2011-11-07,0.0001,0.0001,0.0001,0.0001,000,0.09
2011-11-02,0.0001,0.0001,0.0001,0.0001,000,0.09
2011-11-01,0.0001,0.0001,0.0001,0.0001,000,0.09
2011-10-31,0.0001,0.0001,0.0001,0.0001,000,0.09
2011-10-26,0.0001,0.0001,0.0001,0.0001,000,0.09
2011-10-20,0.0001,0.0001,0.0001,0.0001,000,0.09
2011-10-19,0.0001,0.0001,0.0001,0.0001,000,0.09
2011-10-18,0.0001,0.0001,0.0001,0.0001,000,0.09
2011-10-17,0.0001,0.0001,0.0001,0.0001,000,0.09
2011-10-13,0.0001,0.0001,0.0001,0.0001,000,0.09
2011-10-12,0.0001,0.0001,0.0001,0.0001,000,0.09
2011-10-07,0.0001,0.0001,0.0001,0.0001,000,0.09
2011-10-05,0.0001,0.0001,0.0001,0.0001,000,0.09
2011-09-16,0.0001,0.0001,0.0001,0.0001,000,0.12
2011-09-15,0.0001,0.0001,0.0001,0.0001,000,0.12
2011-09-14,0.0001,0.0001,0.0001,0.0001,000,0.12
2011-09-12,0.0001,0.0001,0.0001,0.0001,000,0.12
2011-09-09,0.0001,0.0001,0.0001,0.0001,000,0.12
2011-09-06,0.0001,0.0001,0.0001,0.0001,000,0.12
2011-09-02,0.0001,0.0001,0.0001,0.0001,000,0.12
2011-09-01,0.0001,0.0001,0.0001,0.0001,000,0.12
2011-08-31,0.0001,0.0001,0.0001,0.0001,000,0.12
2011-08-25,0.0001,0.0001,0.0001,0.0001,000,0.12
2011-08-18,0.0001,0.0001,0.0001,0.0001,000,0.12
2011-08-17,0.0001,0.0001,0.0001,0.0001,000,0.12
2011-08-16,0.0001,0.0001,0.0001,0.0001,000,0.12
2011-08-11,0.0001,0.0001,0.0001,0.0001,000,0.12
2011-08-09,0.0001,0.0001,0.0001,0.0001,000,0.12
2011-05-24,0.0013,0.0013,0.0013,0.0013,000,1.20
2011-05-23,0.0013,0.0013,0.0013,0.0013,000,1.20
2011-05-20,0.0013,0.0013,0.0013,0.0013,000,1.20
2011-05-19,0.0013,0.0013,0.0013,0.0013,000,1.20
2011-05-18,0.0013,0.0013,0.0013,0.0013,000,1.20
2011-05-17,0.0013,0.0013,0.0013,0.0013,000,1.20
2011-05-16,0.0013,0.0013,0.0013,0.0013,000,1.20
2011-05-13,0.0013,0.0013,0.0013,0.0013,000,1.20
2011-05-12,0.0013,0.0013,0.0013,0.0013,000,1.20
2011-05-11,0.0013,0.0013,0.0013,0.0013,000,1.20
2011-05-10,0.0013,0.0013,0.0013,0.0013,000,1.20
2011-05-09,0.0013,0.0013,0.0013,0.0013,000,1.20
2011-05-06,0.0013,0.0013,0.0013,0.0013,000,1.20
2011-05-05,0.0013,0.0013,0.0013,0.0013,000,1.20
2011-05-04,0.0013,0.0013,0.0013,0.0013,000,1.20
2011-05-03,0.0013,0.0013,0.0013,0.0013,000,1.20
2011-05-02,0.0013,0.0013,0.0013,0.0013,000,1.20
2011-04-29,0.0013,0.0013,0.0013,0.0013,000,1.20
2011-04-28,0.0013,0.0013,0.0013,0.0013,000,1.20
2011-04-27,0.0013,0.0013,0.0013,0.0013,000,1.20
2011-04-26,0.0013,0.0013,0.0013,0.0013,000,1.20
2011-04-25,0.0013,0.0013,0.0013,0.0013,000,1.20
2011-04-22,0.0013,0.0013,0.0013,0.0013,000,1.20
2011-04-21,0.0013,0.0013,0.0013,0.0013,000,1.20
2011-04-20,0.0013,0.0013,0.0013,0.0013,000,1.20
2011-04-19,0.0013,0.0013,0.0013,0.0013,000,1.20
2011-04-18,0.0013,0.0013,0.0013,0.0013,000,1.20
2011-04-15,0.0013,0.0013,0.0013,0.0013,000,1.20
2011-04-14,0.0013,0.0013,0.0013,0.0013,000,1.20
2011-04-13,0.0013,0.0013,0.0013,0.0013,000,1.20
2011-04-12,0.0013,0.0013,0.0013,0.0013,000,1.20
2011-04-11,0.0013,0.0013,0.0013,0.0013,000,1.20
2010-04-05,0.00,0.00,0.00,0.00,000,0.60
2010-04-02,0.00,0.00,0.00,0.00,000,0.60
2010-03-26,0.00,0.00,0.00,0.00,000,0.60
2010-03-19,0.0001,0.0001,0.0001,0.0001,000,1.80
2010-03-17,0.0001,0.0001,0.0001,0.0001,000,1.20
2010-03-15,0.0001,0.0001,0.0001,0.0001,000,1.20
2010-03-11,0.0001,0.0001,0.0001,0.0001,000,1.20
2010-03-09,0.0001,0.0001,0.0001,0.0001,000,1.20
2010-03-03,0.0001,0.0001,0.0001,0.0001,000,1.20
2010-03-01,0.0001,0.0001,0.0001,0.0001,000,1.20
2010-02-26,0.0001,0.0001,0.0001,0.0001,000,1.20
2010-02-25,0.0001,0.0001,0.0001,0.0001,000,1.80
2010-02-22,0.0001,0.0001,0.0001,0.0001,000,1.20
2010-02-18,0.0001,0.0001,0.0001,0.0001,000,1.20
2010-02-17,0.0001,0.0001,0.0001,0.0001,000,1.20
2010-02-16,0.0001,0.0001,0.0001,0.0001,000,1.20
2010-02-10,0.0001,0.0001,0.0001,0.0001,000,1.20
2010-02-09,0.0001,0.0001,0.0001,0.0001,000,1.20
2010-02-01,0.0001,0.0001,0.0001,0.0001,000,1.80
2010-01-28,0.0001,0.0001,0.0001,0.0001,000,1.20
2010-01-26,0.0001,0.0001,0.0001,0.0001,000,1.80
2010-01-18,0.0001,0.0001,0.0001,0.0001,000,1.80
2010-01-15,0.0001,0.0001,0.0001,0.0001,000,1.80
2010-01-13,0.0001,0.0001,0.0001,0.0001,000,1.80
2010-01-11,0.0001,0.0001,0.0001,0.0001,000,1.80
2009-12-31,0.0001,0.0001,0.0001,0.0001,000,1.20
2009-12-24,0.0001,0.0001,0.0001,0.0001,000,1.80
2009-12-18,0.0001,0.0001,0.0001,0.0001,000,1.20
2009-12-16,0.0001,0.0001,0.0001,0.0001,000,1.20
2009-12-14,0.0001,0.0001,0.0001,0.0001,000,1.80
2009-12-10,0.0001,0.0001,0.0001,0.0001,000,1.80
2009-12-04,0.0001,0.0001,0.0001,0.0001,000,1.80
2009-12-02,0.0001,0.0001,0.0001,0.0001,000,1.80
2009-11-30,0.0001,0.0001,0.0001,0.0001,000,1.80
2009-11-26,0.0001,0.0001,0.0001,0.0001,000,1.80
2009-11-24,0.0001,0.0001,0.0001,0.0001,000,1.80
2009-11-20,0.0001,0.0001,0.0001,0.0001,000,1.80
2009-11-18,0.0001,0.0001,0.0001,0.0001,000,1.80
2009-11-17,0.0001,0.0001,0.0001,0.0001,000,1.80
2009-11-16,0.0001,0.0001,0.0001,0.0001,000,2.40
2009-11-12,0.0001,0.0001,0.0001,0.0001,000,1.80
2009-11-09,0.0001,0.0001,0.0001,0.0001,000,1.80
2009-11-06,0.0001,0.0001,0.0001,0.0001,000,1.80
2009-06-08,0.0001,0.0001,0.0001,0.0001,000,2.40
2009-04-13,0.0002,0.0002,0.0002,0.0002,000,3.60
2009-04-10,0.0002,0.0002,0.0002,0.0002,000,3.60
2009-01-26,0.0001,0.0001,0.0001,0.0001,000,1.80
2009-01-01,0.0001,0.0001,0.0001,0.0001,000,1.80
2008-12-26,0.0001,0.0001,0.0001,0.0001,000,1.80
2008-12-25,0.0001,0.0001,0.0001,0.0001,000,1.80
2008-02-05,0.0009,0.0009,0.0009,0.0009,000,15.60
2008-01-28,0.0008,0.0008,0.0008,0.0008,000,14.40
2008-01-01,0.001,0.001,0.001,0.001,000,17.40
2007-12-26,0.0009,0.0009,0.0009,0.0009,000,16.20
2007-12-25,0.0009,0.0009,0.0009,0.0009,000,16.20
2007-06-11,0.0021,0.0021,0.0021,0.0021,000,37.80
2007-06-04,0.0021,0.0021,0.0021,0.0021,000,38.40
2007-06-01,0.0021,0.0021,0.0021,0.0021,000,38.40
2007-05-31,0.0021,0.0021,0.0021,0.0021,000,38.40
2007-05-30,0.0021,0.0021,0.0021,0.0021,000,38.40
2007-05-29,0.0021,0.0021,0.0021,0.0021,000,38.40
2007-05-28,0.0021,0.0021,0.0021,0.0021,000,38.40
2007-05-25,0.0021,0.0021,0.0021,0.0021,000,38.40
2007-05-24,0.0021,0.0021,0.0021,0.0021,000,38.40
2007-05-23,0.0021,0.0021,0.0021,0.0021,000,38.40
2007-05-22,0.0021,0.0021,0.0021,0.0021,000,38.40
2007-04-25,0.0026,0.0026,0.0026,0.0026,000,46.20
2007-04-09,0.0023,0.0023,0.0023,0.0023,000,40.80
2007-04-06,0.0023,0.0023,0.0023,0.0023,000,40.80
2007-01-26,0.0031,0.0031,0.0031,0.0031,000,55.80
2007-01-01,0.0026,0.0026,0.0026,0.0026,000,46.20
2006-12-26,0.0026,0.0026,0.0026,0.0026,000,46.80
2006-12-25,0.0026,0.0026,0.0026,0.0026,000,46.80
2006-06-12,0.0031,0.0031,0.0031,0.0031,000,55.20
2006-04-25,0.0033,0.0033,0.0033,0.0033,000,60.00
2006-04-17,0.0037,0.0037,0.0037,0.0037,000,66.0001
2006-04-14,0.0037,0.0037,0.0037,0.0037,000,66.0001
2006-01-26,0.0027,0.0027,0.0027,0.0027,000,48.00
2006-01-02,0.0029,0.0029,0.0029,0.0029,000,52.20
2005-12-27,0.0029,0.0029,0.0029,0.0029,000,52.20
2005-12-26,0.0029,0.0029,0.0029,0.0029,000,52.20
2005-06-13,0.0048,0.0048,0.0048,0.0048,000,87.0001
2005-04-25,0.0048,0.0048,0.0048,0.0048,000,87.0001
2005-03-28,0.0037,0.0037,0.0037,0.0037,000,66.0001
2005-03-25,0.0037,0.0037,0.0037,0.0037,000,66.0001
2005-01-26,0.003,0.003,0.003,0.003,000,53.40
2005-01-03,0.003,0.003,0.003,0.003,000,54.00
2004-12-28,0.0028,0.0028,0.0028,0.0028,000,51.00
2004-12-27,0.0028,0.0028,0.0028,0.0028,000,51.00
2004-06-14,0.0035,0.0035,0.0035,0.0035,000,63.0001
2004-04-12,0.0042,0.0042,0.0042,0.0042,000,75.0001
2004-04-09,0.0042,0.0042,0.0042,0.0042,000,75.0001
2004-01-26,0.0057,0.0057,0.0057,0.0057,000,102.0001
2004-01-01,0.004,0.004,0.004,0.004,000,72.0001
2003-12-26,0.004,0.004,0.004,0.004,000,72.0001
2003-12-25,0.004,0.004,0.004,0.004,000,72.0001
2003-06-09,0.0047,0.0047,0.0047,0.0047,000,84.0001
2003-04-25,0.0038,0.0038,0.0038,0.0038,000,69.0001
2003-04-21,0.0035,0.0035,0.0035,0.0035,000,63.0001
2003-04-18,0.0035,0.0035,0.0035,0.0035,000,63.0001
2000-06-12,0.0026,0.0026,0.0026,0.0026,000,47.2272
2000-04-25,0.0033,0.0033,0.0033,0.0033,000,59.034
2000-04-24,0.0033,0.0033,0.0033,0.0033,000,59.034
2000-04-21,0.0033,0.0033,0.0033,0.0033,000,59.034
2000-01-26,0.0095,0.0095,0.0095,0.0095,000,171.1991
