Date,Open,High,Low,Close,Volume,Adj Close
2017-01-10,7.65,7.67,7.60,7.64,632800,7.64
2017-01-09,7.66,7.73,7.59,7.68,796500,7.68
2017-01-06,7.68,7.68,7.51,7.61,648600,7.61
2017-01-05,7.58,7.59,7.52,7.57,472200,7.57
2017-01-04,7.70,7.70,7.55,7.60,743800,7.60
2017-01-03,7.70,7.70,7.55,7.64,664500,7.64
2017-01-02,7.57,7.57,7.57,7.57,000,7.57
2016-12-30,7.57,7.60,7.52,7.57,332800,7.57
2016-12-29,7.52,7.56,7.43,7.55,515400,7.55
2016-12-28,7.50,7.50,7.43,7.48,626500,7.48
2016-12-27,7.44,7.44,7.44,7.44,000,7.44
2016-12-26,7.44,7.44,7.44,7.44,000,7.44
2016-12-23,7.51,7.51,7.365,7.44,719400,7.44
2016-12-22,7.41,7.48,7.38,7.46,1062200,7.46
2016-12-21,7.45,7.465,7.38,7.41,1535800,7.41
2016-12-20,7.34,7.43,7.30,7.42,1751900,7.42
2016-12-19,7.36,7.39,7.22,7.30,1058600,7.30
2016-12-16,7.19,7.37,7.14,7.36,9181700,7.36
2016-12-15,7.33,7.39,7.15,7.15,2697800,7.15
2016-12-14,7.10,7.22,7.05,7.19,6040800,7.19
2016-12-13,7.13,7.14,7.07,7.07,2932200,7.07
2016-12-12,7.20,7.21,7.03,7.10,2960500,7.10
2016-12-09,7.23,7.28,7.16,7.17,2548700,7.17
2016-12-08,7.28,7.32,7.23,7.26,1630900,7.26
2016-12-07,7.18,7.29,7.15,7.22,2237200,7.22
2016-12-06,7.30,7.34,7.11,7.12,1325900,7.12
2016-12-05,7.20,7.27,7.165,7.21,2292600,7.21
2016-12-02,7.33,7.43,7.12,7.25,2382600,7.25
2016-12-01,7.50,7.53,7.44,7.48,1215100,7.48
2016-11-30,7.50,7.55,7.45,7.49,3875100,7.49
2016-11-29,7.53,7.54,7.44,7.47,2660400,7.47
2016-11-28,7.56,7.57,7.49,7.50,799400,7.50
2016-11-25,7.55,7.59,7.48,7.54,4064000,7.54
2016-11-24,7.50,7.55,7.47,7.52,900800,7.52
2016-11-23,7.40,7.53,7.33,7.47,1203900,7.47
2016-11-22,7.38,7.47,7.36,7.44,1107200,7.44
2016-11-21,7.36,7.475,7.31,7.37,781800,7.37
2016-11-18,7.36,7.50,7.215,7.37,1231600,7.37
2016-11-17,7.45,7.50,7.33,7.45,903800,7.45
2016-11-16,7.51,7.59,7.47,7.51,1611100,7.51
2016-11-15,7.34,7.51,7.31,7.45,1156700,7.45
2016-11-14,7.26,7.37,7.19,7.37,1106300,7.37
2016-11-11,7.38,7.38,7.20,7.26,1561000,7.26
2016-11-10,7.25,7.395,7.23,7.37,1421400,7.37
2016-11-09,7.27,7.31,6.945,7.07,1948900,7.07
2016-11-08,7.25,7.26,7.14,7.25,838200,7.25
2016-11-07,7.20,7.27,7.16,7.23,940600,7.23
2016-11-04,7.15,7.225,7.13,7.16,1244400,7.16
2016-11-03,7.09,7.23,7.04,7.17,5338100,7.17
2016-11-02,7.04,7.11,7.005,7.09,1883900,7.09
2016-11-01,7.18,7.21,7.09,7.10,1225400,7.10
2016-10-31,7.30,7.33,7.19,7.20,2465400,7.20
2016-10-28,7.28,7.38,7.27,7.33,970200,7.33
2016-10-27,7.36,7.45,7.285,7.29,1496700,7.29
2016-10-26,7.60,7.64,7.36,7.39,1418900,7.39
2016-10-25,7.63,7.81,7.62,7.65,1655400,7.65
2016-10-24,7.71,7.73,7.64,7.66,1179100,7.66
2016-10-21,7.78,7.83,7.71,7.74,1239700,7.74
2016-10-20,7.68,7.79,7.65,7.76,1158600,7.76
2016-10-19,7.68,7.78,7.68,7.70,862000,7.70
2016-10-18,7.67,7.69,7.55,7.67,1081400,7.67
2016-10-17,7.58,7.67,7.515,7.63,1259500,7.63
2016-10-14,7.67,7.67,7.59,7.60,1999700,7.60
2016-10-13,8.16,8.16,7.57,7.59,2891200,7.59
2016-10-12,8.18,8.22,8.13,8.18,1148200,8.18
2016-10-11,8.20,8.25,8.16,8.20,1199200,8.20
2016-10-10,8.26,8.32,8.18,8.19,354500,8.19
2016-10-07,8.29,8.29,8.23,8.26,453200,8.26
2016-10-06,8.28,8.30,8.22,8.26,1368800,8.26
2016-10-05,8.29,8.29,8.23,8.24,1793700,8.24
2016-10-04,8.28,8.30,8.255,8.28,1432800,8.28
2016-10-03,8.30,8.32,8.255,8.27,862000,8.27
2016-09-30,8.25,8.305,8.205,8.26,1240300,8.26
2016-09-29,8.30,8.31,8.24,8.28,1096500,8.28
2016-09-28,8.21,8.26,8.13,8.21,1444500,8.21
2016-09-27,8.31,8.33,8.20,8.27,1407500,8.184
2016-09-26,8.35,8.37,8.31,8.34,927300,8.253
2016-09-23,8.32,8.38,8.22,8.35,1401200,8.263
2016-09-22,8.20,8.29,8.16,8.29,3675800,8.203
2016-09-21,8.00,8.16,8.00,8.15,1268700,8.065
2016-09-20,7.97,8.07,7.94,8.05,1579400,7.966
2016-09-19,8.00,8.02,7.95,7.975,161700,7.892
2016-09-16,7.95,8.02,7.91,7.97,4349100,7.887
2016-09-15,8.11,8.11,7.84,7.91,2536300,7.827
2016-09-14,8.03,8.07,7.90,7.96,3582600,7.877
2016-09-13,8.19,8.22,8.09,8.11,1269700,8.025
2016-09-12,8.09,8.13,8.01,8.08,1388900,7.996
2016-09-09,8.15,8.30,8.12,8.27,1540400,8.184
2016-09-08,8.35,8.46,8.20,8.23,3089300,8.144
2016-09-07,8.34,8.42,8.29,8.38,458100,8.292
2016-09-06,8.44,8.44,8.35,8.39,804600,8.302
2016-09-05,8.47,8.545,8.42,8.46,662100,8.372
2016-09-02,8.44,8.515,8.37,8.44,633200,8.352
2016-09-01,8.40,8.63,8.40,8.49,1175200,8.401
2016-08-31,8.50,8.54,8.40,8.43,819500,8.342
2016-08-30,8.39,8.645,8.39,8.50,2450700,8.411
2016-08-29,8.28,8.38,8.25,8.31,869900,8.223
2016-08-26,8.05,8.28,8.01,8.28,1357000,8.193
2016-08-25,8.21,8.30,7.87,8.00,1903700,7.916
2016-08-24,8.51,8.82,8.28,8.39,2232000,8.302
2016-08-23,8.30,8.42,8.27,8.40,459700,8.312
2016-08-22,8.40,8.41,8.28,8.28,397200,8.193
2016-08-19,8.39,8.40,8.31,8.37,449600,8.283
2016-08-18,8.41,8.43,8.30,8.32,479800,8.233
2016-08-17,8.40,8.505,8.33,8.39,454100,8.302
2016-08-16,8.32,8.38,8.30,8.35,435100,8.263
2016-08-15,8.31,8.385,8.31,8.32,185200,8.233
2016-08-12,8.30,8.39,8.29,8.30,434500,8.213
2016-08-11,8.20,8.29,8.18,8.26,387600,8.174
2016-08-10,8.12,8.335,8.12,8.23,908900,8.144
2016-08-09,8.15,8.18,8.06,8.08,1116000,7.996
2016-08-08,8.26,8.36,8.14,8.16,942500,8.075
2016-08-05,8.22,8.30,8.18,8.19,701700,8.104
2016-08-04,8.28,8.31,8.175,8.21,898300,8.124
2016-08-03,8.42,8.42,8.27,8.28,845100,8.193
2016-08-02,8.68,8.68,8.47,8.47,670200,8.382
2016-08-01,8.72,8.72,8.56,8.63,238400,8.54
2016-07-29,8.63,8.67,8.595,8.64,1163300,8.55
2016-07-28,8.85,8.85,8.58,8.60,391300,8.51
2016-07-27,8.81,8.81,8.58,8.60,495100,8.51
2016-07-26,8.66,8.69,8.55,8.57,609100,8.48
2016-07-25,8.84,8.84,8.615,8.63,988800,8.54
2016-07-22,8.84,8.84,8.71,8.73,911700,8.639
2016-07-21,9.00,9.00,8.81,8.85,521100,8.758
2016-07-20,8.80,8.82,8.77,8.80,879500,8.708
2016-07-19,8.65,8.765,8.64,8.71,1067000,8.619
2016-07-18,8.58,8.66,8.57,8.64,396700,8.55
2016-07-15,8.85,8.85,8.54,8.63,474100,8.54
2016-07-14,8.59,8.635,8.54,8.59,429200,8.50
2016-07-13,8.58,8.62,8.51,8.55,973400,8.461
2016-07-12,8.50,8.53,8.43,8.50,712500,8.411
2016-07-11,8.40,8.43,8.34,8.41,918500,8.322
2016-07-08,8.28,8.38,8.23,8.28,232400,8.193
2016-07-07,8.31,8.36,8.22,8.29,420000,8.203
2016-07-06,8.32,8.34,8.22,8.26,2376300,8.174
2016-07-05,8.54,8.55,8.30,8.34,1355700,8.253
2016-07-04,8.28,8.40,8.22,8.40,807800,8.312
2016-07-01,8.18,8.30,8.18,8.23,807800,8.144
2016-06-30,8.14,8.17,8.05,8.17,941800,8.085
2016-06-29,7.96,8.18,7.92,8.04,2361700,7.956
2016-06-28,7.73,7.91,7.72,7.90,1887700,7.817
2016-06-27,7.65,7.92,7.65,7.90,997000,7.817
2016-06-24,8.00,8.05,7.67,7.74,1176100,7.659
2016-06-23,8.09,8.12,7.98,7.99,664400,7.907
2016-06-22,8.19,8.22,8.10,8.10,841500,8.015
2016-06-21,8.22,8.31,8.08,8.18,1141100,8.095
2016-06-20,8.24,8.25,8.09,8.22,837200,8.134
2016-06-17,8.20,8.29,8.13,8.18,5391600,8.095
2016-06-16,8.28,8.31,8.19,8.23,1389800,8.144
2016-06-15,8.30,8.42,8.28,8.28,624400,8.193
2016-06-14,8.46,8.52,8.30,8.32,659400,8.233
2016-06-13,8.59,8.59,8.59,8.59,000,8.50
2016-06-10,8.50,8.61,8.45,8.59,623100,8.50
2016-06-09,8.60,8.61,8.44,8.59,868400,8.50
2016-06-08,8.64,8.75,8.50,8.59,756600,8.50
2016-06-07,8.61,8.65,8.47,8.50,1131500,8.411
2016-06-06,8.62,8.74,8.59,8.61,513600,8.52
2016-06-03,8.75,8.82,8.65,8.75,1110700,8.659
2016-06-02,8.64,8.73,8.64,8.69,2261600,8.599
2016-06-01,8.57,8.75,8.55,8.69,829000,8.599
2016-05-31,8.64,8.73,8.53,8.67,5997100,8.579
2016-05-30,8.64,8.73,8.58,8.65,428100,8.56
2016-05-27,8.55,8.675,8.49,8.63,830200,8.54
2016-05-26,8.43,8.53,8.29,8.53,772200,8.441
2016-05-25,8.52,8.58,8.41,8.45,583800,8.362
2016-05-24,8.43,8.51,8.35,8.40,514700,8.312
2016-05-23,8.36,8.39,8.23,8.34,613000,8.253
2016-05-20,8.14,8.39,8.11,8.36,1691000,8.273
2016-05-19,8.20,8.24,8.08,8.08,736000,7.996
2016-05-18,8.32,8.325,8.14,8.14,805300,8.055
2016-05-17,8.35,8.42,8.27,8.36,387600,8.273
2016-05-16,8.36,8.43,8.28,8.29,508100,8.203
2016-05-13,8.43,8.52,8.34,8.34,1197400,8.253
2016-05-12,8.20,8.40,8.18,8.34,1177600,8.253
2016-05-11,8.19,8.24,8.09,8.21,1170500,8.124
2016-05-10,8.16,8.19,8.03,8.05,702800,7.966
2016-05-09,7.93,8.12,7.93,8.12,651400,8.035
2016-05-06,7.88,8.07,7.81,7.97,894900,7.887
2016-05-05,8.03,8.08,7.98,8.01,728700,7.926
2016-05-04,8.50,8.50,8.06,8.08,650200,7.996
2016-05-03,8.25,8.26,8.09,8.14,1131600,8.055
2016-05-02,8.04,8.20,7.98,8.14,1113200,8.055
2016-04-29,8.01,8.05,7.95,8.00,402700,7.916
2016-04-28,7.90,8.00,7.87,8.00,684700,7.916
2016-04-27,8.05,8.05,7.89,7.91,388300,7.827
2016-04-26,7.95,8.10,7.90,7.95,1617700,7.867
2016-04-25,7.88,7.88,7.88,7.88,000,7.798
2016-04-22,7.93,7.97,7.88,7.88,417400,7.798
2016-04-21,8.00,8.00,7.90,7.95,522000,7.867
2016-04-20,7.96,7.98,7.90,7.93,1184400,7.847
2016-04-19,8.00,8.02,7.85,7.93,782500,7.847
2016-04-18,7.75,7.97,7.72,7.97,770000,7.887
2016-04-15,7.73,7.75,7.67,7.67,1608800,7.59
2016-04-14,7.66,7.75,7.57,7.64,668500,7.56
2016-04-13,7.68,7.72,7.63,7.68,746300,7.60
2016-04-12,7.56,7.66,7.55,7.63,599800,7.55
2016-04-11,7.46,7.63,7.46,7.61,54359200,7.53
2016-04-08,7.35,7.42,7.31,7.42,577200,7.342
2016-04-07,7.54,7.55,7.35,7.42,418700,7.342
2016-04-06,7.35,7.575,7.34,7.52,513900,7.441
2016-04-05,7.50,7.53,7.37,7.37,524800,7.293
2016-04-04,7.53,7.63,7.53,7.60,353000,7.521
2016-04-01,7.47,7.59,7.46,7.56,398800,7.481
2016-03-31,7.49,7.545,7.45,7.54,329200,7.461
2016-03-30,7.55,7.64,7.35,7.40,548700,7.323
2016-03-29,7.59,7.60,7.47,7.49,267700,7.412
2016-03-28,7.58,7.58,7.58,7.58,000,7.501
2016-03-25,7.58,7.58,7.58,7.58,000,7.501
2016-03-24,7.52,7.67,7.50,7.58,147700,7.501
2016-03-23,7.69,7.69,7.49,7.55,464800,7.471
2016-03-22,7.70,7.73,7.68,7.68,438700,7.60
2016-03-21,7.69,7.74,7.64,7.69,774300,7.61
2016-03-18,7.74,7.74,7.60,7.70,870400,7.62
2016-03-17,7.65,7.74,7.58,7.66,457500,7.58
2016-03-16,7.57,7.62,7.53,7.58,183800,7.501
2016-03-15,7.68,7.71,7.51,7.53,574600,7.451
2016-03-14,7.72,7.73,7.57,7.68,269100,7.60
2016-03-11,7.71,7.78,7.64,7.68,1133200,7.60
2016-03-10,7.67,7.74,7.55,7.62,250300,7.54
2016-03-09,7.58,7.61,7.49,7.61,1985700,7.53
2016-03-08,7.52,7.56,7.49,7.50,429100,7.422
2016-03-07,7.58,7.64,7.48,7.49,325300,7.412
2016-03-04,7.77,7.80,7.50,7.55,449700,7.471
2016-03-03,7.79,7.82,7.64,7.81,555400,7.728
2016-03-02,7.80,7.825,7.67,7.79,1089600,7.709
2016-03-01,7.55,7.77,7.51,7.77,1194400,7.689
2016-02-29,7.49,7.645,7.49,7.63,539900,7.55
2016-02-26,7.26,7.52,7.25,7.45,747500,7.372
2016-02-25,7.41,7.54,7.23,7.28,514800,7.204
2016-02-24,7.27,7.39,7.15,7.30,1054300,7.224
2016-02-23,7.37,7.44,7.21,7.26,857100,7.184
2016-02-22,7.25,7.41,7.20,7.35,1071100,7.273
2016-02-19,7.36,7.43,7.20,7.24,387200,7.164
2016-02-18,7.35,7.50,7.35,7.39,760900,7.313
2016-02-17,7.57,7.76,7.35,7.38,470500,7.303
2016-02-16,7.48,7.52,7.42,7.49,657600,7.412
2016-02-15,7.38,7.47,7.32,7.44,1061800,7.362
2016-02-12,7.23,7.29,7.22,7.23,969300,7.154
2016-02-11,7.20,7.315,7.165,7.23,15169500,7.154
2016-02-10,7.44,7.555,7.20,7.23,969700,7.154
2016-02-09,7.71,7.72,7.35,7.40,1625100,7.323
2016-02-08,7.99,7.99,7.77,7.82,490700,7.738
2016-02-05,7.92,7.95,7.74,7.94,2386600,7.857
2016-02-04,7.90,7.92,7.74,7.82,728000,7.738
2016-02-03,7.90,7.90,7.74,7.83,734200,7.748
2016-02-02,7.84,7.90,7.76,7.90,2364300,7.817
2016-02-01,7.93,7.95,7.72,7.84,566600,7.758
2016-01-29,7.55,7.82,7.54,7.82,665300,7.738
2016-01-28,7.60,7.60,7.47,7.55,878400,7.471
2016-01-27,7.62,7.71,7.62,7.62,562400,7.54
2016-01-26,7.62,7.62,7.62,7.62,000,7.54
2016-01-25,7.67,7.67,7.58,7.62,256100,7.54
2016-01-22,7.70,7.70,7.58,7.67,950600,7.59
2016-01-21,7.65,7.72,7.60,7.68,554600,7.60
2016-01-20,7.73,7.74,7.68,7.72,481200,7.639
2016-01-19,7.50,7.73,7.47,7.73,431300,7.649
2016-01-18,7.40,7.50,7.35,7.50,237200,7.422
2016-01-15,7.48,7.50,7.38,7.40,799000,7.323
2016-01-14,7.59,7.59,7.46,7.48,119400,7.402
2016-01-13,7.70,7.71,7.56,7.60,578700,7.521
2016-01-12,7.50,7.73,7.495,7.65,270100,7.57
2016-01-11,7.44,7.49,7.40,7.49,194000,7.412
2016-01-08,7.39,7.54,7.22,7.46,260100,7.382
2016-01-07,7.35,7.47,7.35,7.46,763400,7.382
2016-01-06,7.44,7.51,7.38,7.42,1409000,7.342
2016-01-05,7.35,7.51,7.33,7.42,903000,7.342
2016-01-04,7.44,7.51,7.39,7.40,335100,7.323
2016-01-01,7.45,7.45,7.45,7.45,000,7.372
2015-12-31,7.44,7.50,7.43,7.45,43700,7.372
2015-12-30,7.45,7.47,7.40,7.44,121400,7.362
2015-12-29,7.42,7.50,7.40,7.45,48400,7.372
2015-12-28,7.44,7.44,7.44,7.44,000,7.362
2015-12-25,7.44,7.44,7.44,7.44,000,7.362
2015-12-24,7.45,7.50,7.44,7.44,41500,7.362
2015-12-23,7.40,7.45,7.365,7.45,166800,7.372
2015-12-22,7.37,7.40,7.35,7.37,238800,7.293
2015-12-21,7.35,7.42,7.34,7.37,527800,7.293
2015-12-18,7.40,7.42,7.32,7.39,318900,7.313
2015-12-17,7.31,7.41,7.31,7.40,228600,7.323
2015-12-16,7.42,7.45,7.39,7.40,507700,7.323
2015-12-15,7.39,7.42,7.34,7.42,447800,7.342
2015-12-14,7.32,7.40,7.31,7.40,83700,7.323
2015-12-11,7.40,7.44,7.30,7.39,174400,7.313
2015-12-10,7.31,7.40,7.26,7.37,255600,7.293
2015-12-09,7.42,7.45,7.30,7.31,381800,7.234
2015-12-08,7.38,7.41,7.29,7.40,752500,7.323
2015-12-07,7.41,7.44,7.28,7.31,3208300,7.234
2015-12-04,7.38,7.41,7.30,7.40,581900,7.323
2015-12-03,7.29,7.36,7.25,7.36,521700,7.283
2015-12-02,7.25,7.34,7.25,7.30,241500,7.224
2015-12-01,7.27,7.30,7.16,7.29,658600,7.214
2015-11-30,7.35,7.38,7.26,7.30,403800,7.224
2015-11-27,7.36,7.37,7.29,7.35,1719800,7.273
2015-11-26,7.36,7.38,7.27,7.27,243400,7.194
2015-11-25,7.39,7.40,7.31,7.36,269600,7.283
2015-11-24,7.40,7.43,7.34,7.36,280400,7.283
2015-11-23,7.40,7.49,7.32,7.39,237900,7.313
2015-11-20,7.50,7.51,7.40,7.44,160400,7.362
2015-11-19,7.48,7.52,7.45,7.50,903800,7.422
2015-11-18,7.46,7.495,7.40,7.46,749600,7.382
2015-11-17,7.59,7.60,7.41,7.48,1988700,7.402
2015-11-16,7.40,7.55,7.32,7.51,291500,7.432
2015-11-13,7.40,7.45,7.38,7.43,1472900,7.352
2015-11-12,7.30,7.49,7.30,7.44,496600,7.362
2015-11-11,7.14,7.29,7.14,7.26,545800,7.184
2015-11-10,7.10,7.18,7.06,7.18,668700,7.105
2015-11-09,7.16,7.16,7.05,7.15,491500,7.075
2015-11-06,7.05,7.18,7.05,7.16,3740300,7.085
2015-11-05,7.05,7.07,7.05,7.06,843700,6.986
2015-11-04,7.09,7.11,7.04,7.07,1574000,6.996
2015-11-03,7.11,7.12,7.07,7.10,1614700,7.026
2015-11-02,7.12,7.17,7.09,7.12,1189100,7.046
2015-10-30,7.09,7.17,7.08,7.13,1674900,7.056
2015-10-29,7.09,7.17,7.09,7.13,2881500,7.056
2015-10-28,7.06,7.20,7.06,7.12,3768500,7.046
2015-10-27,7.10,7.12,7.055,7.07,34740200,6.996
