Date,Open,High,Low,Close,Volume,Adj Close
2017-01-10,3.95,4.00,3.95,4.00,30400,4.00
2017-01-09,3.99,4.00,3.92,3.95,53700,3.95
2017-01-06,3.95,3.99,3.89,3.99,26800,3.99
2017-01-05,3.94,3.94,3.86,3.90,46000,3.90
2017-01-04,3.90,3.91,3.86,3.87,165500,3.87
2017-01-03,3.93,3.94,3.88,3.90,177100,3.90
2017-01-02,3.90,3.90,3.90,3.90,000,3.90
2016-12-30,3.90,3.92,3.76,3.90,62200,3.90
2016-12-29,3.89,3.93,3.87,3.90,114100,3.90
2016-12-28,3.78,3.94,3.77,3.87,84800,3.87
2016-12-27,3.75,3.75,3.75,3.75,000,3.75
2016-12-26,3.75,3.75,3.75,3.75,000,3.75
2016-12-23,3.80,3.80,3.70,3.75,113000,3.75
2016-12-22,3.81,3.81,3.73,3.78,71400,3.78
2016-12-21,3.80,3.83,3.72,3.77,39500,3.77
2016-12-20,3.84,3.91,3.74,3.80,108200,3.80
2016-12-19,3.84,3.92,3.70,3.80,119400,3.80
2016-12-16,3.85,3.86,3.66,3.81,627700,3.81
2016-12-15,3.88,3.91,3.87,3.87,330400,3.87
2016-12-14,3.95,4.00,3.85,3.90,119300,3.90
2016-12-13,3.90,4.10,3.86,3.90,250000,3.90
2016-12-12,3.50,3.50,3.40,3.47,114500,3.47
2016-12-09,3.38,3.50,3.38,3.50,25300,3.50
2016-12-08,3.31,3.47,3.30,3.32,37900,3.32
2016-12-07,3.32,3.35,3.26,3.31,1079500,3.31
2016-12-06,3.11,3.34,3.11,3.27,22500,3.27
2016-12-05,3.21,3.21,3.11,3.11,14500,3.11
2016-12-02,3.40,3.47,3.21,3.21,21900,3.21
2016-12-01,3.43,3.47,3.36,3.40,14800,3.40
2016-11-30,3.48,3.48,3.30,3.30,48600,3.30
2016-11-29,3.47,3.53,3.47,3.51,24600,3.51
2016-11-28,3.48,3.51,3.46,3.50,15000,3.50
2016-11-25,3.43,3.55,3.43,3.50,60700,3.50
2016-11-24,3.50,3.53,3.40,3.43,39000,3.43
2016-11-23,3.55,3.55,3.49,3.50,28000,3.50
2016-11-22,3.54,3.60,3.49,3.56,30000,3.56
2016-11-21,3.55,3.55,3.46,3.48,162800,3.48
2016-11-18,3.58,3.58,3.50,3.55,59900,3.55
2016-11-17,3.55,3.56,3.50,3.55,277400,3.55
2016-11-16,3.52,3.56,3.45,3.55,72100,3.55
2016-11-15,3.59,3.59,3.50,3.50,13800,3.50
2016-11-14,3.45,3.60,3.41,3.59,158500,3.59
2016-11-11,3.50,3.55,3.36,3.36,230400,3.36
2016-11-10,3.40,3.60,3.38,3.53,44200,3.53
2016-11-09,3.47,3.47,3.22,3.36,30300,3.36
2016-11-08,3.44,3.50,3.43,3.47,19300,3.47
2016-11-07,3.21,3.44,3.21,3.44,35100,3.44
2016-11-04,3.36,3.36,3.135,3.17,103300,3.17
2016-11-03,3.38,3.40,3.36,3.36,5600,3.36
2016-11-02,3.37,3.49,3.35,3.46,27600,3.46
2016-11-01,3.39,3.50,3.34,3.35,36300,3.35
2016-10-31,3.40,3.43,3.34,3.39,51700,3.39
2016-10-28,3.35,3.42,3.35,3.37,36600,3.37
2016-10-27,3.40,3.45,3.31,3.35,107100,3.35
2016-10-26,3.78,3.78,3.24,3.46,199100,3.46
2016-10-25,3.47,3.78,3.26,3.78,75700,3.78
2016-10-24,3.30,3.51,3.26,3.45,175100,3.45
2016-10-21,3.36,3.40,3.26,3.34,50200,3.34
2016-10-20,3.35,3.41,3.34,3.38,17600,3.38
2016-10-19,3.37,3.46,3.33,3.37,32100,3.37
2016-10-18,3.54,3.54,3.35,3.35,57400,3.35
2016-10-17,3.50,3.54,3.41,3.51,101500,3.51
2016-10-14,3.32,3.54,3.32,3.48,50600,3.48
2016-10-13,3.35,3.42,3.30,3.36,26500,3.36
2016-10-12,3.37,3.48,3.30,3.30,53100,3.30
2016-10-11,3.35,3.44,3.31,3.36,35700,3.36
2016-10-10,3.25,3.31,3.235,3.31,34000,3.31
2016-10-07,3.33,3.33,3.25,3.31,31400,3.31
2016-10-06,3.38,3.42,3.35,3.35,86900,3.35
2016-10-05,3.40,3.40,3.35,3.37,39500,3.37
2016-10-04,3.49,3.50,3.35,3.35,49200,3.35
2016-10-03,3.52,3.52,3.45,3.47,41300,3.47
2016-09-30,3.43,3.51,3.41,3.51,76200,3.51
2016-09-29,3.51,3.51,3.40,3.45,60800,3.45
2016-09-28,3.35,3.51,3.35,3.45,44000,3.45
2016-09-27,3.37,3.44,3.33,3.36,47200,3.36
2016-09-26,3.38,3.47,3.32,3.33,80100,3.33
2016-09-23,3.25,3.43,3.25,3.38,74500,3.38
2016-09-22,3.20,3.31,3.18,3.25,65400,3.25
2016-09-21,3.15,3.29,3.12,3.20,31200,3.20
2016-09-20,3.17,3.175,3.12,3.15,543300,3.15
2016-09-19,3.14,3.20,3.14,3.16,32800,3.16
2016-09-16,3.00,3.17,2.975,3.06,56600,3.06
2016-09-15,2.96,3.02,2.955,3.00,134500,3.00
2016-09-14,2.96,2.98,2.90,2.95,79900,2.95
2016-09-13,2.88,3.04,2.87,2.99,110600,2.961
2016-09-12,2.90,2.90,2.785,2.85,31600,2.823
2016-09-09,2.97,3.00,2.91,2.91,22200,2.882
2016-09-08,2.99,3.02,2.97,2.97,32800,2.942
2016-09-07,3.02,3.03,2.98,3.03,7000,3.001
2016-09-06,3.05,3.05,2.99,3.00,15500,2.971
2016-09-05,3.05,3.05,2.99,3.05,27500,3.021
2016-09-02,3.00,3.04,2.97,3.01,26400,2.981
2016-09-01,3.09,3.09,3.00,3.00,62600,2.971
2016-08-31,2.93,3.09,2.92,3.05,67500,3.021
2016-08-30,2.96,3.00,2.91,2.91,54400,2.882
2016-08-29,2.92,2.95,2.90,2.95,54300,2.922
2016-08-26,2.90,2.94,2.90,2.91,23400,2.882
2016-08-25,2.95,2.96,2.86,2.90,66200,2.872
2016-08-24,2.94,2.965,2.85,2.95,96700,2.922
2016-08-23,2.90,2.91,2.62,2.91,432800,2.882
2016-08-22,2.99,3.09,2.82,3.00,72200,2.971
2016-08-19,2.89,3.03,2.83,3.00,668300,2.971
2016-08-18,2.87,2.90,2.745,2.89,93400,2.862
2016-08-17,2.86,2.97,2.85,2.85,283300,2.823
2016-08-16,2.83,2.85,2.685,2.82,55300,2.793
2016-08-15,2.83,2.86,2.69,2.79,54000,2.763
2016-08-12,2.80,2.91,2.76,2.83,51600,2.803
2016-08-11,2.73,2.74,2.67,2.74,31700,2.714
2016-08-10,2.62,2.78,2.61,2.76,90200,2.734
2016-08-09,2.59,2.70,2.59,2.62,127700,2.595
2016-08-08,2.54,2.65,2.51,2.60,64200,2.575
2016-08-05,2.46,2.53,2.46,2.50,54300,2.476
2016-08-04,2.45,2.48,2.40,2.43,100100,2.407
2016-08-03,2.55,2.55,2.44,2.49,27900,2.466
2016-08-02,2.65,2.71,2.56,2.56,157000,2.536
2016-08-01,2.69,2.70,2.57,2.58,106700,2.555
2016-07-29,2.69,2.73,2.68,2.69,158500,2.664
2016-07-28,2.71,2.78,2.68,2.70,156100,2.674
2016-07-27,2.70,2.72,2.65,2.69,108100,2.664
2016-07-26,2.66,2.74,2.62,2.69,406300,2.664
2016-07-25,2.63,2.74,2.55,2.66,109100,2.635
2016-07-22,2.63,2.76,2.545,2.63,160100,2.605
2016-07-21,2.48,2.76,2.48,2.64,79700,2.615
2016-07-20,2.49,2.55,2.40,2.55,88100,2.526
2016-07-19,2.42,2.53,2.42,2.49,102000,2.466
2016-07-18,2.40,2.53,2.39,2.50,165900,2.476
2016-07-15,2.40,2.48,2.30,2.40,166100,2.377
2016-07-14,2.48,2.48,2.30,2.41,108200,2.387
2016-07-13,2.42,2.54,2.40,2.50,245900,2.476
2016-07-12,2.39,2.43,2.35,2.40,124100,2.377
2016-07-11,2.32,2.43,2.28,2.39,39900,2.367
2016-07-08,2.32,2.40,2.28,2.29,106200,2.268
2016-07-07,2.28,2.335,2.25,2.31,86500,2.288
2016-07-06,2.24,2.28,2.19,2.28,62100,2.258
2016-07-05,2.26,2.30,2.23,2.24,41700,2.219
2016-07-04,2.28,2.30,2.24,2.24,29900,2.219
2016-07-01,2.32,2.32,2.26,2.28,24800,2.258
2016-06-30,2.30,2.35,2.25,2.32,447100,2.298
2016-06-29,2.26,2.32,2.22,2.30,86600,2.278
2016-06-28,2.35,2.35,2.23,2.25,68700,2.228
2016-06-27,2.36,2.40,2.30,2.35,148200,2.328
2016-06-24,2.47,2.49,2.38,2.43,246300,2.407
2016-06-23,2.55,2.58,2.45,2.47,129800,2.446
2016-06-22,2.44,2.60,2.44,2.56,277100,2.536
2016-06-21,2.43,2.45,2.40,2.43,244400,2.407
2016-06-20,2.45,2.50,2.41,2.43,231800,2.407
2016-06-17,2.36,2.49,2.35,2.44,222100,2.417
2016-06-16,2.40,2.45,2.36,2.40,99500,2.377
2016-06-15,2.32,2.40,2.32,2.38,71000,2.357
2016-06-14,2.42,2.42,2.22,2.35,153100,2.328
2016-06-13,2.44,2.44,2.44,2.44,000,2.417
2016-06-10,2.28,2.45,2.27,2.44,394800,2.417
2016-06-09,2.05,2.30,2.05,2.30,345600,2.278
2016-06-08,2.03,2.04,1.99,1.99,29800,1.971
2016-06-07,2.03,2.06,1.99,2.04,17600,2.02
2016-06-06,2.04,2.05,2.00,2.00,29300,1.981
2016-06-03,2.06,2.08,2.03,2.05,88300,2.03
2016-06-02,2.06,2.08,2.03,2.06,412700,2.04
2016-06-01,2.06,2.07,2.03,2.04,28900,2.02
2016-05-31,2.06,2.10,2.04,2.06,58300,2.04
2016-05-30,2.05,2.10,2.05,2.09,140400,2.07
2016-05-27,1.985,2.105,1.985,2.07,356400,2.05
2016-05-26,1.93,1.98,1.90,1.98,332500,1.961
2016-05-25,1.93,1.93,1.85,1.925,1571000,1.907
2016-05-24,2.01,2.02,1.865,1.94,416700,1.921
2016-05-23,2.03,2.05,2.01,2.02,136600,2.001
2016-05-20,2.03,2.05,2.01,2.03,251700,2.011
2016-05-19,2.06,2.08,2.03,2.03,137100,2.011
2016-05-18,2.08,2.09,2.05,2.05,131400,2.03
2016-05-17,2.10,2.11,2.05,2.08,37000,2.06
2016-05-16,2.05,2.10,2.05,2.10,90800,2.08
2016-05-13,2.09,2.12,2.05,2.05,303300,2.03
2016-05-12,2.08,2.10,2.05,2.09,122200,2.07
2016-05-11,2.09,2.16,2.03,2.07,44200,2.05
2016-05-10,2.21,2.21,2.15,2.15,73600,2.129
2016-05-09,2.25,2.29,2.18,2.18,50200,2.159
2016-05-06,2.28,2.28,2.16,2.18,36700,2.159
2016-05-05,2.30,2.36,2.27,2.28,170300,2.258
2016-05-04,2.21,2.36,2.17,2.22,193700,2.199
2016-05-03,2.12,2.21,2.12,2.18,138200,2.159
2016-05-02,2.06,2.15,2.03,2.15,172100,2.129
2016-04-29,2.06,2.10,2.05,2.06,400500,2.04
2016-04-28,2.05,2.07,2.02,2.07,360300,2.05
2016-04-27,2.05,2.06,2.01,2.02,175000,2.001
2016-04-26,2.03,2.05,2.00,2.05,61600,2.03
2016-04-25,2.03,2.03,2.03,2.03,000,2.011
2016-04-22,2.05,2.05,2.02,2.03,244800,2.011
2016-04-21,2.13,2.14,2.02,2.05,208000,2.03
2016-04-20,2.08,2.15,2.08,2.13,103800,2.11
2016-04-19,2.02,2.15,2.00,2.08,228700,2.06
2016-04-18,2.06,2.09,2.00,2.02,373300,2.001
2016-04-15,2.06,2.09,2.05,2.09,77600,2.07
2016-04-14,2.19,2.19,2.03,2.05,138100,2.03
2016-04-13,2.04,2.185,2.04,2.18,22900,2.159
2016-04-12,2.21,2.21,1.98,2.03,237600,2.011
2016-04-11,2.16,2.25,2.13,2.20,26500,2.179
2016-04-08,2.28,2.35,2.20,2.31,21700,2.288
2016-04-07,2.25,2.37,2.25,2.26,30700,2.238
2016-04-06,2.38,2.39,2.23,2.28,132200,2.258
2016-04-05,2.36,2.40,2.36,2.37,14800,2.347
2016-04-04,2.39,2.42,2.35,2.39,41700,2.367
2016-04-01,2.39,2.40,2.35,2.37,32400,2.347
2016-03-31,2.40,2.42,2.35,2.39,80800,2.367
2016-03-30,2.39,2.40,2.35,2.35,38800,2.328
2016-03-29,2.40,2.40,2.35,2.36,45900,2.337
2016-03-28,2.40,2.40,2.40,2.40,000,2.377
2016-03-25,2.40,2.40,2.40,2.40,000,2.377
2016-03-24,2.395,2.41,2.38,2.40,196400,2.377
2016-03-23,2.39,2.45,2.37,2.42,26400,2.397
2016-03-22,2.42,2.45,2.37,2.40,124800,2.377
2016-03-21,2.41,2.45,2.37,2.42,39300,2.397
2016-03-18,2.45,2.49,2.38,2.40,13900,2.377
2016-03-17,2.40,2.52,2.37,2.50,202900,2.476
2016-03-16,2.34,2.41,2.34,2.41,23400,2.387
2016-03-15,2.33,2.39,2.30,2.33,143900,2.308
2016-03-14,2.42,2.42,2.33,2.36,26400,2.337
2016-03-11,2.34,2.44,2.25,2.40,268400,2.377
2016-03-10,2.46,2.46,2.38,2.41,60500,2.30
2016-03-09,2.46,2.46,2.37,2.46,688300,2.347
2016-03-08,2.45,2.46,2.37,2.40,195100,2.29
2016-03-07,2.40,2.46,2.35,2.43,48100,2.319
2016-03-04,2.42,2.43,2.32,2.37,54400,2.261
2016-03-03,2.36,2.45,2.36,2.42,78800,2.309
2016-03-02,2.47,2.49,2.34,2.34,46600,2.233
2016-03-01,2.49,2.49,2.35,2.40,60500,2.29
2016-02-29,2.46,2.50,2.35,2.35,61500,2.242
2016-02-26,2.37,2.50,2.37,2.45,193700,2.338
2016-02-25,2.33,2.38,2.33,2.36,79900,2.252
2016-02-24,2.39,2.39,2.30,2.33,874300,2.223
2016-02-23,2.36,2.39,2.315,2.33,1771100,2.223
2016-02-22,2.20,2.34,2.20,2.34,277700,2.233
2016-02-19,2.10,2.24,2.10,2.20,201900,2.099
2016-02-18,2.03,2.13,2.00,2.03,1083700,1.937
2016-02-17,2.05,2.05,1.96,2.03,36000,1.937
2016-02-16,2.05,2.05,1.96,2.01,32400,1.918
2016-02-15,2.08,2.08,2.00,2.05,32700,1.956
2016-02-12,2.10,2.13,2.00,2.00,199200,1.908
2016-02-11,2.10,2.17,2.08,2.10,287700,2.004
2016-02-10,2.10,2.17,2.08,2.10,207000,2.004
2016-02-09,2.06,2.15,2.05,2.09,94100,1.994
2016-02-08,2.05,2.14,1.987,2.08,660900,1.985
2016-02-05,2.10,2.18,2.02,2.04,186300,1.947
2016-02-04,2.10,2.17,2.08,2.11,146200,2.013
2016-02-03,2.07,2.20,2.00,2.10,266400,2.004
2016-02-02,2.18,2.22,2.04,2.06,275400,1.966
2016-02-01,2.34,2.39,2.15,2.19,484000,2.09
2016-01-29,2.46,2.50,2.18,2.25,1533800,2.147
2016-01-28,2.20,2.59,2.20,2.37,3999900,2.261
2016-01-27,3.61,3.70,3.61,3.68,17400,3.512
2016-01-26,3.60,3.60,3.60,3.60,000,3.435
2016-01-25,3.60,3.68,3.60,3.60,86300,3.435
2016-01-22,3.60,3.64,3.585,3.60,132900,3.435
2016-01-21,3.60,3.70,3.54,3.65,67100,3.483
2016-01-20,3.62,3.68,3.55,3.62,79900,3.454
2016-01-19,3.59,3.68,3.59,3.67,5900,3.502
2016-01-18,3.51,3.67,3.50,3.62,25300,3.454
2016-01-15,3.55,3.69,3.50,3.69,55100,3.521
2016-01-14,3.55,3.55,3.52,3.54,25300,3.378
2016-01-13,3.51,3.69,3.50,3.61,49800,3.445
2016-01-12,3.51,3.63,3.50,3.63,9500,3.464
2016-01-11,3.63,3.64,3.50,3.50,35900,3.34
2016-01-08,3.55,3.65,3.51,3.63,23500,3.464
2016-01-07,3.51,3.59,3.47,3.55,134600,3.387
2016-01-06,3.59,3.61,3.56,3.60,22100,3.435
2016-01-05,3.72,3.75,3.54,3.59,48900,3.426
2016-01-04,3.59,3.70,3.57,3.70,62400,3.531
2016-01-01,3.68,3.68,3.68,3.68,000,3.512
2015-12-31,3.78,3.78,3.62,3.68,23700,3.512
2015-12-30,3.69,3.79,3.60,3.78,53500,3.607
2015-12-29,3.65,3.69,3.51,3.61,57900,3.445
2015-12-28,3.65,3.65,3.65,3.65,000,3.483
2015-12-25,3.65,3.65,3.65,3.65,000,3.483
2015-12-24,3.46,3.65,3.435,3.65,43300,3.483
2015-12-23,3.45,3.52,3.42,3.50,305800,3.34
2015-12-22,3.39,3.49,3.36,3.45,73000,3.292
2015-12-21,3.41,3.41,3.34,3.36,85000,3.206
2015-12-18,3.49,3.49,3.41,3.45,100900,3.292
2015-12-17,3.48,3.50,3.43,3.45,74200,3.292
2015-12-16,3.45,3.54,3.41,3.50,197400,3.34
2015-12-15,3.57,3.59,3.41,3.41,32700,3.254
2015-12-14,3.50,3.60,3.465,3.55,639200,3.387
2015-12-11,3.56,3.58,3.52,3.53,36300,3.368
2015-12-10,3.55,3.60,3.51,3.55,90400,3.387
2015-12-09,3.43,3.65,3.40,3.56,279400,3.397
2015-12-08,3.43,3.45,3.38,3.40,38700,3.244
2015-12-07,3.46,3.50,3.43,3.43,37400,3.273
2015-12-04,3.48,3.50,3.42,3.45,131200,3.292
2015-12-03,3.48,3.535,3.45,3.50,119900,3.34
2015-12-02,3.50,3.62,3.45,3.50,84100,3.34
2015-12-01,3.40,3.50,3.38,3.50,108500,3.34
2015-11-30,3.38,3.43,3.38,3.41,66800,3.254
2015-11-27,3.40,3.42,3.38,3.42,77600,3.263
2015-11-26,3.40,3.43,3.39,3.39,122600,3.235
2015-11-25,3.36,3.44,3.32,3.43,386900,3.273
2015-11-24,3.32,3.40,3.23,3.36,106400,3.206
2015-11-23,3.22,3.32,3.22,3.32,79000,3.168
2015-11-20,3.18,3.29,3.12,3.20,571200,3.053
2015-11-19,3.25,3.32,2.91,3.05,784400,2.91
2015-11-18,3.30,3.40,3.07,3.21,1039300,3.063
2015-11-17,3.33,3.48,3.33,3.48,81500,3.321
2015-11-16,3.29,3.37,3.23,3.35,112400,3.197
2015-11-13,3.17,3.31,3.17,3.31,228500,3.158
2015-11-12,3.31,3.31,3.15,3.15,97500,3.006
2015-11-11,3.35,3.37,3.255,3.35,61500,3.197
2015-11-10,3.36,3.39,3.26,3.26,100100,3.111
2015-11-09,3.38,3.43,3.35,3.36,128100,3.206
2015-11-06,3.28,3.40,3.28,3.38,117900,3.225
2015-11-05,3.20,3.31,3.20,3.28,83900,3.13
2015-11-04,3.13,3.285,3.13,3.21,52800,3.063
2015-11-03,3.16,3.18,3.11,3.11,39700,2.968
2015-11-02,3.25,3.25,3.13,3.16,85500,3.015
2015-10-30,3.25,3.38,3.16,3.36,18700,3.206
2015-10-29,3.13,3.39,3.13,3.27,141700,3.12
2015-10-28,3.15,3.20,3.08,3.11,809000,2.968
2015-10-27,3.17,3.20,3.14,3.15,35200,3.006
2015-10-26,3.15,3.24,3.15,3.15,75800,3.006
2015-10-23,3.11,3.18,3.11,3.15,235400,3.006
2015-10-22,3.10,3.12,3.09,3.11,129500,2.968
2015-10-21,3.12,3.12,3.08,3.11,46300,2.968
2015-10-20,3.14,3.16,3.12,3.15,81200,3.006
2015-10-19,3.12,3.15,3.10,3.15,60000,3.006
2015-10-16,3.10,3.15,3.06,3.12,96600,2.977
2015-10-15,3.08,3.10,3.05,3.09,64000,2.949
2015-10-14,3.01,3.09,2.99,3.05,79500,2.91
2015-10-13,3.06,3.06,2.96,3.01,55200,2.872
2015-10-12,3.03,3.09,3.03,3.06,112500,2.92
2015-10-09,3.12,3.15,3.00,3.03,76700,2.891
2015-10-08,3.04,3.14,3.03,3.10,118600,2.958
2015-10-07,2.95,3.11,2.95,3.04,78700,2.901
2015-10-06,2.90,2.97,2.89,2.90,115500,2.767
2015-10-05,3.00,3.05,2.85,2.97,105500,2.834
2015-10-02,3.10,3.10,2.96,3.04,23100,2.901
2015-10-01,3.00,3.17,2.95,3.02,235500,2.882
2015-09-30,2.84,3.02,2.84,3.00,1022900,2.863
2015-09-29,2.73,2.85,2.66,2.79,96500,2.662
2015-09-28,2.80,2.81,2.70,2.74,2019600,2.615
2015-09-25,2.90,2.90,2.83,2.85,564200,2.72
2015-09-24,2.90,2.95,2.88,2.90,347400,2.767
2015-09-23,2.95,2.95,2.88,2.90,365700,2.767
2015-09-22,2.98,3.02,2.93,2.95,197400,2.815
2015-09-21,3.05,3.055,2.91,2.99,314800,2.853
2015-09-18,3.34,3.34,3.09,3.13,758000,2.987
2015-09-17,3.39,3.44,3.37,3.44,144300,3.282
2015-09-16,3.36,3.40,3.34,3.38,65800,3.225
2015-09-15,3.40,3.43,3.37,3.40,89600,3.244
2015-09-14,3.30,3.45,3.29,3.40,620200,3.244
2015-09-11,3.23,3.36,3.23,3.25,117900,3.101
2015-09-10,3.25,3.28,3.25,3.28,12400,3.074
2015-09-09,3.19,3.30,3.175,3.28,53400,3.074
2015-09-08,3.18,3.20,3.14,3.20,91100,2.999
2015-09-07,3.15,3.26,3.12,3.16,69000,2.962
2015-09-04,3.30,3.30,3.18,3.22,119400,3.018
2015-09-03,3.36,3.36,3.275,3.30,176400,3.093
2015-09-02,3.35,3.37,3.32,3.37,32400,3.159
2015-09-01,3.35,3.44,3.335,3.35,195100,3.14
2015-08-31,3.45,3.45,3.38,3.44,26800,3.224
2015-08-28,3.50,3.50,3.30,3.45,157400,3.234
2015-08-27,3.44,3.55,3.40,3.54,77900,3.318
2015-08-26,3.30,3.42,3.26,3.42,301400,3.206
2015-08-25,3.20,3.35,3.16,3.34,199700,3.131
2015-08-24,3.40,3.40,3.15,3.26,158700,3.056
2015-08-21,3.37,3.46,3.32,3.46,121300,3.243
2015-08-20,3.33,3.415,3.32,3.38,127400,3.168
2015-08-19,3.40,3.41,3.31,3.35,226400,3.14
2015-08-18,3.35,3.49,3.33,3.35,237600,3.14
2015-08-17,3.37,3.40,3.32,3.35,29900,3.14
2015-08-14,3.38,3.50,3.31,3.49,69500,3.271
2015-08-13,3.27,3.42,3.27,3.32,33500,3.112
2015-08-12,3.55,3.55,3.21,3.30,106100,3.093
2015-08-11,3.40,3.50,3.38,3.50,238600,3.281
2015-08-10,3.33,3.45,3.33,3.38,28800,3.168
2015-08-07,3.33,3.43,3.30,3.35,72700,3.14
2015-08-06,3.52,3.52,3.33,3.33,36500,3.121
2015-08-05,3.52,3.57,3.50,3.51,11100,3.29
2015-08-04,3.54,3.60,3.52,3.60,23400,3.374
2015-08-03,3.68,3.68,3.54,3.61,89100,3.384
2015-07-31,3.70,3.70,3.54,3.66,37300,3.431
2015-07-30,3.30,3.66,3.30,3.66,60900,3.431
2015-07-29,3.55,3.65,3.21,3.35,58600,3.14
2015-07-28,3.75,3.75,3.55,3.55,73500,3.327
2015-07-27,3.53,3.78,3.52,3.75,84500,3.515
2015-07-24,3.60,3.64,3.51,3.53,238900,3.309
2015-07-23,3.53,3.65,3.53,3.60,44500,3.374
2015-07-22,3.47,3.61,3.47,3.53,52700,3.309
2015-07-21,3.35,3.48,3.34,3.48,275600,3.262
2015-07-20,3.33,3.48,3.33,3.40,188900,3.187
2015-07-17,3.31,3.40,3.25,3.40,28900,3.187
2015-07-16,3.23,3.39,3.23,3.31,30200,3.102
2015-07-15,3.22,3.27,3.22,3.23,87800,3.027
2015-07-14,3.22,3.24,3.15,3.24,65400,3.037
2015-07-13,3.15,3.20,3.10,3.20,47500,2.999
2015-07-10,3.11,3.20,3.11,3.16,83300,2.962
2015-07-09,3.30,3.30,3.07,3.12,57400,2.924
2015-07-08,3.30,3.32,3.23,3.30,64700,3.093
2015-07-07,3.39,3.39,3.31,3.31,54300,3.102
2015-07-06,3.35,3.39,3.30,3.31,299700,3.102
2015-07-03,3.40,3.44,3.35,3.35,19800,3.14
2015-07-02,3.40,3.60,3.35,3.44,346700,3.224
2015-07-01,3.37,3.40,3.35,3.35,236300,3.14
2015-06-30,3.40,3.50,3.36,3.40,64700,3.187
2015-06-29,3.48,3.48,3.36,3.45,138600,3.234
2015-06-26,3.41,3.51,3.41,3.50,97800,3.281
2015-06-25,3.49,3.49,3.38,3.44,8000,3.224
2015-06-24,3.60,3.61,3.41,3.43,63800,3.215
2015-06-23,3.55,3.70,3.38,3.61,58300,3.384
2015-06-22,3.51,3.55,3.49,3.54,66100,3.318
2015-06-19,3.49,3.52,3.35,3.50,216700,3.281
2015-06-18,3.44,3.49,3.44,3.47,326700,3.252
2015-06-17,3.35,3.50,3.34,3.44,383900,3.224
2015-06-16,3.38,3.39,3.34,3.39,51200,3.177
2015-06-15,3.33,3.36,3.32,3.36,24900,3.149
2015-06-12,3.40,3.43,3.35,3.35,165700,3.14
2015-06-11,3.33,3.39,3.26,3.39,184800,3.177
2015-06-10,3.26,3.35,3.26,3.30,391400,3.093
2015-06-09,3.24,3.30,3.21,3.30,140300,3.093
2015-06-08,3.24,3.24,3.24,3.24,000,3.037
2015-06-05,3.24,3.30,3.21,3.24,88600,3.037
2015-06-04,3.24,3.30,3.21,3.30,75900,3.093
2015-06-03,3.28,3.30,3.235,3.25,67800,3.046
2015-06-02,3.22,3.28,3.21,3.26,75400,3.056
2015-06-01,3.28,3.28,3.21,3.25,31800,3.046
2015-05-29,3.16,3.29,3.16,3.29,963600,3.084
2015-05-28,3.24,3.25,3.15,3.20,104200,2.999
2015-05-27,3.22,3.25,3.20,3.20,337300,2.999
2015-05-26,3.20,3.25,3.18,3.24,59000,3.037
2015-05-25,3.10,3.24,3.10,3.20,69500,2.999
2015-05-22,3.18,3.23,3.13,3.20,79300,2.999
2015-05-21,3.24,3.25,3.20,3.20,82400,2.999
2015-05-20,3.20,3.25,3.20,3.20,27800,2.999
2015-05-19,3.34,3.34,3.21,3.23,65800,3.027
2015-05-18,3.26,3.41,3.23,3.27,476200,3.065
2015-05-15,3.16,3.30,3.16,3.25,209000,3.046
2015-05-14,3.09,3.15,3.08,3.15,8600,2.952
2015-05-13,3.15,3.15,3.05,3.05,18200,2.859
2015-05-12,3.08,3.17,3.05,3.16,179200,2.962
2015-05-11,3.15,3.20,3.06,3.08,35400,2.887
2015-05-08,3.19,3.20,3.11,3.13,606200,2.934
2015-05-07,3.07,3.20,3.05,3.14,75800,2.943
2015-05-06,3.10,3.13,3.01,3.12,125300,2.924
2015-05-05,3.09,3.14,3.05,3.05,101800,2.859
2015-05-04,3.14,3.14,3.05,3.07,31000,2.878
2015-05-01,3.05,3.15,3.02,3.14,52600,2.943
2015-04-30,3.12,3.14,3.02,3.11,151400,2.915
2015-04-29,3.19,3.20,3.09,3.13,121100,2.934
2015-04-28,3.10,3.19,3.07,3.19,326700,2.99
2015-04-27,3.09,3.14,3.06,3.10,259800,2.906
2015-04-24,3.05,3.10,3.02,3.08,187700,2.887
2015-04-23,2.85,3.06,2.85,3.01,929100,2.821
2015-04-22,2.77,2.97,2.74,2.81,140400,2.634
2015-04-21,2.77,2.79,2.70,2.77,137700,2.596
2015-04-20,2.83,2.83,2.73,2.73,162100,2.559
2015-04-17,2.75,2.89,2.75,2.84,148700,2.662
2015-04-16,2.75,2.80,2.75,2.78,121400,2.606
2015-04-15,2.75,2.76,2.70,2.75,308100,2.578
2015-04-14,2.75,2.77,2.68,2.69,50100,2.521
2015-04-13,2.70,2.79,2.70,2.76,105800,2.587
2015-04-10,2.66,2.75,2.61,2.70,444300,2.531
2015-04-09,2.62,2.70,2.61,2.65,404800,2.484
2015-04-08,2.60,2.62,2.55,2.55,114300,2.39
2015-04-07,2.62,2.65,2.54,2.60,327500,2.437
2015-04-06,2.61,2.61,2.61,2.61,000,2.446
2015-04-03,2.61,2.61,2.61,2.61,000,2.446
2015-04-02,2.60,2.615,2.55,2.61,179100,2.446
2015-04-01,2.50,2.625,2.50,2.60,243500,2.437
2015-03-31,2.45,2.50,2.44,2.50,37400,2.343
2015-03-30,2.50,2.50,2.45,2.49,22500,2.334
2015-03-27,2.50,2.56,2.50,2.50,86700,2.343
2015-03-26,2.40,2.70,2.40,2.50,107600,2.343
2015-03-25,2.38,2.47,2.38,2.40,541100,2.16
2015-03-24,2.39,2.39,2.37,2.37,404200,2.133
2015-03-23,2.40,2.40,2.39,2.39,146700,2.151
2015-03-20,2.40,2.40,2.38,2.40,134400,2.16
2015-03-19,2.34,2.36,2.34,2.34,124400,2.106
2015-03-18,2.35,2.37,2.33,2.34,187300,2.106
2015-03-17,2.38,2.385,2.32,2.33,67500,2.097
2015-03-16,2.37,2.40,2.35,2.36,59100,2.124
2015-03-13,2.41,2.41,2.35,2.37,113400,2.133
2015-03-12,2.35,2.40,2.35,2.39,224400,2.151
2015-03-11,2.34,2.37,2.32,2.35,40500,2.115
2015-03-10,2.39,2.40,2.31,2.40,1442400,2.16
2015-03-09,2.36,2.40,2.29,2.36,423000,2.124
2015-03-06,2.38,2.38,2.32,2.32,1244100,2.088
2015-03-05,2.34,2.38,2.32,2.35,82400,2.115
2015-03-04,2.38,2.38,2.35,2.35,140300,2.115
2015-03-03,2.32,2.40,2.27,2.35,316800,2.115
2015-03-02,2.30,2.35,2.30,2.32,147900,2.088
2015-02-27,2.29,2.31,2.25,2.30,437900,2.07
2015-02-26,2.30,2.30,2.25,2.25,108400,2.025
2015-02-25,2.28,2.31,2.23,2.29,122800,2.061
2015-02-24,2.30,2.30,2.28,2.28,19700,2.052
2015-02-23,2.33,2.34,2.29,2.30,1055600,2.07
2015-02-20,2.31,2.34,2.29,2.32,161600,2.088
2015-02-19,2.31,2.34,2.25,2.31,166100,2.079
2015-02-18,2.35,2.35,2.31,2.31,73600,2.079
2015-02-17,2.35,2.35,2.30,2.35,110500,2.115
2015-02-16,2.41,2.42,2.35,2.35,29400,2.115
2015-02-13,2.45,2.45,2.40,2.40,79000,2.16
2015-02-12,2.46,2.46,2.44,2.44,142600,2.196
2015-02-11,2.43,2.46,2.43,2.45,280400,2.205
2015-02-10,2.43,2.44,2.42,2.44,351000,2.196
2015-02-09,2.37,2.42,2.29,2.40,1186900,2.16
2015-02-06,2.37,2.39,2.35,2.36,48600,2.124
2015-02-05,2.37,2.40,2.35,2.37,272700,2.133
2015-02-04,2.42,2.42,2.35,2.40,110400,2.16
2015-02-03,2.45,2.45,2.40,2.42,88700,2.178
2015-02-02,2.42,2.50,2.42,2.45,167000,2.205
2015-01-30,2.34,2.44,2.33,2.44,630300,2.196
2015-01-29,2.36,2.365,2.32,2.34,87700,2.106
2015-01-28,2.32,2.39,2.30,2.35,185300,2.115
2015-01-27,2.39,2.39,2.32,2.32,117500,2.088
2015-01-26,2.40,2.40,2.40,2.40,000,2.16
2015-01-23,2.40,2.40,2.38,2.40,235600,2.16
2015-01-22,2.37,2.44,2.35,2.40,382600,2.16
2015-01-21,2.39,2.40,2.35,2.36,130300,2.124
2015-01-20,2.40,2.41,2.37,2.39,79500,2.151
2015-01-19,2.42,2.42,2.35,2.40,57800,2.16
2015-01-16,2.45,2.45,2.39,2.43,95100,2.187
2015-01-15,2.45,2.48,2.40,2.47,116500,2.223
2015-01-14,2.49,2.50,2.45,2.46,78000,2.214
2015-01-13,2.44,2.50,2.43,2.50,165900,2.25
2015-01-12,2.50,2.55,2.45,2.45,158400,2.205
2015-01-09,2.54,2.65,2.47,2.49,197300,2.241
2015-01-08,2.45,2.54,2.42,2.50,217600,2.25
2015-01-07,2.31,2.45,2.30,2.43,696900,2.187
2015-01-06,2.31,2.33,2.29,2.33,104700,2.097
2015-01-05,2.31,2.35,2.30,2.34,172600,2.106
2015-01-02,2.31,2.33,2.30,2.33,17000,2.097
2015-01-01,2.34,2.34,2.34,2.34,000,2.106
2014-12-31,2.28,2.34,2.28,2.34,78800,2.106
2014-12-30,2.30,2.33,2.30,2.30,122800,2.07
2014-12-29,2.31,2.33,2.30,2.32,77300,2.088
2014-12-26,2.30,2.30,2.30,2.30,000,2.07
2014-12-25,2.30,2.30,2.30,2.30,000,2.07
2014-12-24,2.29,2.31,2.29,2.30,283300,2.07
2014-12-23,2.28,2.31,2.23,2.30,642500,2.07
2014-12-22,2.26,2.43,2.26,2.27,739200,2.043
2014-12-19,2.16,2.28,2.16,2.27,1136100,2.043
2014-12-18,2.12,2.16,2.00,2.14,4838500,1.926
