Date,Open,High,Low,Close,Volume,Adj Close
2017-01-10,0.059,0.059,0.059,0.059,9000,0.059
2017-01-09,0.055,0.055,0.055,0.055,000,0.055
2017-01-06,0.055,0.055,0.055,0.055,15000,0.055
2017-01-05,0.055,0.055,0.055,0.055,000,0.055
2017-01-04,0.055,0.055,0.055,0.055,000,0.055
2017-01-03,0.055,0.055,0.055,0.055,000,0.055
2017-01-02,0.055,0.055,0.055,0.055,000,0.055
2016-12-30,0.055,0.055,0.055,0.055,000,0.055
2016-12-29,0.055,0.055,0.055,0.055,000,0.055
2016-12-28,0.055,0.055,0.055,0.055,000,0.055
2016-12-27,0.055,0.055,0.055,0.055,000,0.055
2016-12-26,0.055,0.055,0.055,0.055,000,0.055
2016-12-23,0.055,0.055,0.055,0.055,000,0.055
2016-12-22,0.055,0.055,0.055,0.055,000,0.055
2016-12-21,0.055,0.055,0.055,0.055,000,0.055
2016-12-20,0.055,0.055,0.055,0.055,000,0.055
2016-12-19,0.055,0.055,0.055,0.055,000,0.055
2016-12-16,0.055,0.055,0.055,0.055,65000,0.055
2016-12-15,0.05,0.05,0.05,0.05,000,0.05
2016-12-14,0.05,0.05,0.05,0.05,000,0.05
2016-12-13,0.05,0.05,0.05,0.05,000,0.05
2016-12-12,0.05,0.05,0.05,0.05,000,0.05
2016-12-09,0.05,0.05,0.05,0.05,000,0.05
2016-12-08,0.05,0.05,0.05,0.05,000,0.05
2016-12-07,0.05,0.05,0.05,0.05,000,0.05
2016-12-06,0.05,0.05,0.05,0.05,000,0.05
2016-12-05,0.05,0.05,0.05,0.05,000,0.05
2016-12-02,0.05,0.05,0.05,0.05,000,0.05
2016-12-01,0.05,0.05,0.05,0.05,000,0.05
2016-11-30,0.05,0.05,0.05,0.05,000,0.05
2016-11-29,0.05,0.05,0.05,0.05,000,0.05
2016-11-28,0.05,0.05,0.05,0.05,000,0.05
2016-11-25,0.05,0.05,0.05,0.05,000,0.05
2016-11-24,0.05,0.05,0.05,0.05,000,0.05
2016-11-23,0.05,0.05,0.05,0.05,000,0.05
2016-11-22,0.05,0.05,0.05,0.05,000,0.05
2016-11-21,0.05,0.05,0.05,0.05,000,0.05
2016-11-18,0.05,0.05,0.05,0.05,000,0.05
2016-11-17,0.05,0.05,0.05,0.05,000,0.05
2016-11-16,0.05,0.05,0.05,0.05,000,0.05
2016-11-15,0.05,0.05,0.05,0.05,000,0.05
2016-11-14,0.05,0.05,0.05,0.05,000,0.05
2016-11-11,0.05,0.05,0.05,0.05,000,0.05
2016-11-10,0.05,0.05,0.05,0.05,000,0.05
2016-11-09,0.05,0.05,0.05,0.05,000,0.05
2016-11-08,0.05,0.05,0.05,0.05,000,0.05
2016-11-07,0.05,0.05,0.05,0.05,000,0.05
2016-11-04,0.05,0.05,0.05,0.05,000,0.05
2016-11-03,0.05,0.05,0.05,0.05,000,0.05
2016-11-02,0.05,0.05,0.05,0.05,000,0.05
2016-11-01,0.05,0.05,0.05,0.05,000,0.05
2016-10-31,0.05,0.05,0.05,0.05,000,0.05
2016-10-28,0.05,0.05,0.05,0.05,000,0.05
2016-10-27,0.05,0.05,0.05,0.05,000,0.05
2016-10-26,0.05,0.05,0.05,0.05,000,0.05
2016-10-25,0.05,0.05,0.05,0.05,000,0.05
2016-10-24,0.05,0.05,0.05,0.05,24000,0.05
2016-10-21,0.05,0.05,0.05,0.05,000,0.05
2016-10-20,0.05,0.05,0.05,0.05,000,0.05
2016-10-19,0.05,0.05,0.05,0.05,000,0.05
2016-10-18,0.05,0.05,0.05,0.05,10000,0.05
2016-10-17,0.05,0.05,0.05,0.05,000,0.05
2016-10-14,0.05,0.05,0.05,0.05,000,0.05
2016-10-13,0.05,0.05,0.05,0.05,000,0.05
2016-10-12,0.05,0.05,0.05,0.05,000,0.05
2016-10-11,0.05,0.05,0.05,0.05,000,0.05
2016-10-10,0.05,0.05,0.05,0.05,000,0.05
2016-10-07,0.05,0.05,0.05,0.05,000,0.05
2016-10-06,0.052,0.052,0.05,0.05,10000,0.05
2016-10-05,0.05,0.05,0.05,0.05,000,0.05
2016-10-04,0.05,0.05,0.05,0.05,000,0.05
2016-10-03,0.05,0.05,0.05,0.05,000,0.05
2016-09-30,0.05,0.05,0.05,0.05,000,0.05
2016-09-29,0.05,0.05,0.05,0.05,1000,0.05
2016-09-28,0.05,0.05,0.05,0.05,6600,0.05
2016-09-27,0.06,0.06,0.06,0.06,000,0.06
2016-09-26,0.06,0.06,0.06,0.06,000,0.06
2016-09-23,0.06,0.06,0.06,0.06,000,0.06
2016-09-22,0.06,0.06,0.06,0.06,000,0.06
2016-09-21,0.06,0.06,0.06,0.06,000,0.06
2016-09-20,0.06,0.06,0.06,0.06,184000,0.06
2016-09-19,0.06,0.06,0.06,0.06,000,0.06
2016-09-16,0.06,0.06,0.06,0.06,000,0.06
2016-09-15,0.06,0.06,0.06,0.06,000,0.06
2016-09-14,0.06,0.06,0.06,0.06,000,0.06
2016-09-13,0.06,0.06,0.06,0.06,000,0.06
2016-09-12,0.06,0.06,0.06,0.06,90000,0.06
2016-09-09,0.06,0.06,0.06,0.06,000,0.06
2016-09-08,0.06,0.06,0.06,0.06,000,0.06
2016-09-07,0.06,0.06,0.06,0.06,7600,0.06
2016-09-06,0.06,0.06,0.06,0.06,000,0.06
2016-09-05,0.06,0.06,0.06,0.06,000,0.06
2016-09-02,0.06,0.06,0.06,0.06,000,0.06
2016-09-01,0.06,0.06,0.06,0.06,20000,0.06
2016-08-31,0.075,0.075,0.075,0.075,000,0.075
2016-08-30,0.075,0.075,0.075,0.075,000,0.075
2016-08-29,0.075,0.075,0.075,0.075,000,0.075
2016-08-26,0.075,0.075,0.075,0.075,000,0.075
2016-08-25,0.075,0.075,0.075,0.075,000,0.075
2016-08-24,0.075,0.075,0.075,0.075,000,0.075
2016-08-23,0.075,0.075,0.075,0.075,000,0.075
2016-08-22,0.075,0.075,0.075,0.075,000,0.075
2016-08-19,0.075,0.075,0.075,0.075,000,0.075
2016-08-18,0.075,0.075,0.075,0.075,000,0.075
2016-08-17,0.075,0.075,0.075,0.075,000,0.075
2016-08-16,0.075,0.075,0.075,0.075,000,0.075
2016-08-15,0.075,0.075,0.075,0.075,000,0.075
2016-08-12,0.075,0.075,0.075,0.075,200000,0.075
2016-08-11,0.075,0.075,0.075,0.075,000,0.075
2016-08-10,0.075,0.075,0.075,0.075,000,0.075
2016-08-09,0.075,0.075,0.075,0.075,44000,0.075
2016-08-08,0.075,0.075,0.075,0.075,6600,0.075
2016-08-05,0.075,0.075,0.075,0.075,75000,0.075
2016-08-04,0.072,0.072,0.072,0.072,10000,0.072
2016-08-03,0.07,0.07,0.07,0.07,5000,0.07
2016-08-02,0.064,0.064,0.064,0.064,000,0.064
2016-08-01,0.066,0.066,0.064,0.064,55000,0.064
2016-07-29,0.055,0.055,0.055,0.055,5000,0.055
2016-07-28,0.053,0.053,0.053,0.053,30000,0.053
2016-07-27,0.053,0.053,0.053,0.053,000,0.053
2016-07-26,0.053,0.053,0.053,0.053,000,0.053
2016-07-25,0.053,0.053,0.053,0.053,000,0.053
2016-07-22,0.053,0.053,0.053,0.053,45000,0.053
2016-07-21,0.054,0.054,0.053,0.053,235000,0.053
2016-07-20,0.053,0.053,0.053,0.053,000,0.053
2016-07-19,0.053,0.053,0.053,0.053,000,0.053
2016-07-18,0.053,0.053,0.053,0.053,000,0.053
2016-07-15,0.053,0.053,0.053,0.053,135000,0.053
2016-07-14,0.053,0.053,0.053,0.053,22500,0.053
2016-07-13,0.053,0.054,0.053,0.053,52000,0.053
2016-07-12,0.051,0.051,0.051,0.051,000,0.051
2016-07-11,0.051,0.051,0.051,0.051,22500,0.051
2016-07-08,0.05,0.05,0.05,0.05,000,0.05
2016-07-07,0.05,0.05,0.05,0.05,556200,0.05
2016-07-06,0.042,0.042,0.042,0.042,000,0.042
2016-07-05,0.042,0.042,0.042,0.042,000,0.042
2016-07-04,0.042,0.042,0.042,0.042,000,0.042
2016-07-01,0.042,0.042,0.042,0.042,000,0.042
2016-06-30,0.042,0.042,0.042,0.042,000,0.042
2016-06-29,0.042,0.042,0.042,0.042,000,0.042
2016-06-28,0.042,0.042,0.042,0.042,000,0.042
2016-06-27,0.042,0.042,0.042,0.042,000,0.042
2016-06-24,0.042,0.042,0.042,0.042,100000,0.042
2016-06-23,0.043,0.043,0.043,0.043,000,0.043
2016-06-22,0.043,0.043,0.043,0.043,000,0.043
2016-06-21,0.043,0.043,0.043,0.043,000,0.043
2016-06-20,0.043,0.043,0.043,0.043,000,0.043
2016-06-17,0.043,0.043,0.043,0.043,000,0.043
2016-06-16,0.043,0.043,0.043,0.043,000,0.043
2016-06-15,0.043,0.043,0.043,0.043,000,0.043
2016-06-14,0.043,0.043,0.043,0.043,000,0.043
2016-06-13,0.043,0.043,0.043,0.043,000,0.043
2016-06-10,0.043,0.043,0.043,0.043,000,0.043
2016-06-09,0.043,0.043,0.043,0.043,000,0.043
2016-06-08,0.043,0.043,0.043,0.043,000,0.043
2016-06-07,0.043,0.043,0.043,0.043,000,0.043
2016-06-06,0.043,0.043,0.041,0.043,185000,0.043
2016-06-03,0.045,0.045,0.045,0.045,000,0.045
2016-06-02,0.045,0.045,0.045,0.045,000,0.045
2016-06-01,0.045,0.045,0.045,0.045,000,0.045
2016-05-31,0.045,0.045,0.045,0.045,000,0.045
2016-05-30,0.045,0.045,0.045,0.045,000,0.045
2016-05-27,0.045,0.045,0.045,0.045,000,0.045
2016-05-26,0.045,0.045,0.045,0.045,000,0.045
2016-05-25,0.045,0.045,0.045,0.045,000,0.045
2016-05-24,0.045,0.045,0.045,0.045,50000,0.045
2016-05-23,0.043,0.043,0.043,0.043,000,0.043
2016-05-20,0.043,0.043,0.043,0.043,000,0.043
2016-05-19,0.043,0.043,0.043,0.043,000,0.043
2016-05-18,0.043,0.043,0.043,0.043,000,0.043
2016-05-17,0.043,0.043,0.043,0.043,000,0.043
2016-05-16,0.043,0.043,0.043,0.043,000,0.043
2016-05-13,0.043,0.043,0.043,0.043,000,0.043
2016-05-12,0.047,0.047,0.043,0.043,380000,0.043
2016-05-11,0.05,0.05,0.05,0.05,000,0.05
2016-05-10,0.05,0.05,0.05,0.05,20000,0.05
2016-05-09,0.047,0.047,0.047,0.047,48000,0.047
2016-05-06,0.046,0.046,0.046,0.046,000,0.046
2016-05-05,0.046,0.046,0.046,0.046,000,0.046
2016-05-04,0.046,0.046,0.046,0.046,000,0.046
2016-05-03,0.046,0.046,0.046,0.046,000,0.046
2016-05-02,0.046,0.046,0.046,0.046,000,0.046
2016-04-29,0.046,0.046,0.046,0.046,000,0.046
2016-04-28,0.046,0.046,0.046,0.046,000,0.046
2016-04-27,0.046,0.046,0.046,0.046,000,0.046
2016-04-26,0.046,0.046,0.046,0.046,000,0.046
2016-04-25,0.046,0.046,0.046,0.046,000,0.046
2016-04-22,0.046,0.046,0.046,0.046,000,0.046
2016-04-21,0.045,0.046,0.045,0.046,90000,0.046
2016-04-20,0.042,0.042,0.042,0.042,000,0.042
2016-04-19,0.042,0.042,0.042,0.042,000,0.042
2016-04-18,0.042,0.042,0.042,0.042,000,0.042
2016-04-15,0.042,0.042,0.042,0.042,000,0.042
2016-04-14,0.042,0.042,0.042,0.042,000,0.042
2016-04-13,0.042,0.042,0.042,0.042,000,0.042
2016-04-12,0.042,0.042,0.042,0.042,000,0.042
2016-04-11,0.042,0.042,0.042,0.042,000,0.042
2016-04-08,0.042,0.042,0.042,0.042,000,0.042
2016-04-07,0.042,0.042,0.042,0.042,000,0.042
2016-04-06,0.042,0.042,0.042,0.042,000,0.042
2016-04-05,0.042,0.042,0.042,0.042,000,0.042
2016-04-04,0.042,0.042,0.042,0.042,000,0.042
2016-04-01,0.042,0.042,0.042,0.042,000,0.042
2016-03-31,0.042,0.042,0.042,0.042,000,0.042
2016-03-30,0.042,0.042,0.042,0.042,000,0.042
2016-03-29,0.043,0.043,0.042,0.042,50000,0.042
2016-03-28,0.045,0.045,0.045,0.045,000,0.045
2016-03-25,0.045,0.045,0.045,0.045,000,0.045
2016-03-24,0.045,0.045,0.045,0.045,000,0.045
2016-03-23,0.045,0.045,0.045,0.045,000,0.045
2016-03-22,0.045,0.045,0.045,0.045,000,0.045
2016-03-21,0.045,0.045,0.045,0.045,000,0.045
2016-03-18,0.045,0.045,0.045,0.045,000,0.045
2016-03-17,0.045,0.045,0.045,0.045,000,0.045
2016-03-16,0.045,0.045,0.045,0.045,62500,0.045
2016-03-15,0.04,0.04,0.04,0.04,000,0.04
2016-03-14,0.04,0.04,0.04,0.04,000,0.04
2016-03-11,0.04,0.04,0.04,0.04,12500,0.04
2016-03-10,0.041,0.041,0.041,0.041,000,0.041
2016-03-09,0.041,0.041,0.041,0.041,000,0.041
2016-03-08,0.041,0.041,0.041,0.041,000,0.041
2016-03-07,0.041,0.041,0.041,0.041,000,0.041
2016-03-04,0.041,0.041,0.041,0.041,000,0.041
2016-03-03,0.041,0.041,0.041,0.041,000,0.041
2016-03-02,0.042,0.042,0.041,0.041,50000,0.041
2016-03-01,0.042,0.042,0.042,0.042,000,0.042
2016-02-29,0.042,0.042,0.042,0.042,000,0.042
2016-02-26,0.042,0.042,0.042,0.042,000,0.042
2016-02-25,0.042,0.042,0.042,0.042,000,0.042
2016-02-24,0.042,0.042,0.042,0.042,000,0.042
2016-02-23,0.042,0.042,0.042,0.042,000,0.042
2016-02-22,0.042,0.042,0.042,0.042,000,0.042
2016-02-19,0.042,0.042,0.042,0.042,000,0.042
2016-02-18,0.042,0.042,0.042,0.042,000,0.042
2016-02-17,0.042,0.042,0.042,0.042,000,0.042
2016-02-16,0.042,0.042,0.042,0.042,000,0.042
2016-02-15,0.042,0.042,0.042,0.042,000,0.042
2016-02-12,0.042,0.042,0.042,0.042,000,0.042
2016-02-11,0.042,0.042,0.042,0.042,208000,0.042
2016-02-10,0.04,0.04,0.04,0.04,385000,0.04
2016-02-09,0.039,0.039,0.039,0.039,000,0.039
2016-02-08,0.039,0.039,0.039,0.039,000,0.039
2016-02-05,0.039,0.039,0.039,0.039,000,0.039
2016-02-04,0.039,0.039,0.039,0.039,000,0.039
2016-02-03,0.039,0.039,0.039,0.039,000,0.039
2016-02-02,0.039,0.039,0.039,0.039,000,0.039
2016-02-01,0.039,0.039,0.039,0.039,000,0.039
2016-01-29,0.039,0.039,0.039,0.039,000,0.039
2016-01-28,0.039,0.039,0.039,0.039,100000,0.039
2016-01-27,0.038,0.038,0.038,0.038,000,0.038
2016-01-26,0.038,0.038,0.038,0.038,000,0.038
2016-01-25,0.038,0.038,0.038,0.038,000,0.038
2016-01-22,0.038,0.038,0.038,0.038,000,0.038
2016-01-21,0.038,0.038,0.038,0.038,000,0.038
2016-01-20,0.038,0.038,0.038,0.038,000,0.038
2016-01-19,0.038,0.038,0.038,0.038,625000,0.038
2016-01-18,0.04,0.04,0.04,0.04,000,0.04
2016-01-15,0.04,0.04,0.04,0.04,000,0.04
2016-01-14,0.04,0.04,0.04,0.04,000,0.04
2016-01-13,0.04,0.04,0.04,0.04,000,0.04
2016-01-12,0.04,0.04,0.04,0.04,000,0.04
2016-01-11,0.04,0.04,0.04,0.04,000,0.04
2016-01-08,0.04,0.04,0.04,0.04,000,0.04
2016-01-07,0.04,0.04,0.04,0.04,000,0.04
2016-01-06,0.04,0.04,0.04,0.04,000,0.04
2016-01-05,0.04,0.04,0.04,0.04,000,0.04
2016-01-04,0.04,0.04,0.04,0.04,000,0.04
2016-01-01,0.04,0.04,0.04,0.04,000,0.04
2015-12-31,0.04,0.04,0.04,0.04,000,0.04
2015-12-30,0.04,0.04,0.04,0.04,000,0.04
2015-12-29,0.04,0.04,0.04,0.04,000,0.04
2015-12-28,0.04,0.04,0.04,0.04,000,0.04
2015-12-25,0.04,0.04,0.04,0.04,000,0.04
2015-12-24,0.04,0.04,0.04,0.04,000,0.04
2015-12-23,0.04,0.04,0.04,0.04,000,0.04
2015-12-22,0.04,0.04,0.04,0.04,000,0.04
2015-12-21,0.04,0.04,0.04,0.04,000,0.04
2015-12-18,0.04,0.04,0.04,0.04,000,0.04
2015-12-17,0.04,0.04,0.04,0.04,000,0.04
2015-12-16,0.04,0.04,0.04,0.04,10000,0.04
2015-12-15,0.043,0.043,0.043,0.043,000,0.043
2015-12-14,0.044,0.044,0.043,0.043,1025000,0.043
2015-12-11,0.043,0.043,0.043,0.043,000,0.043
2015-12-10,0.043,0.043,0.043,0.043,000,0.043
2015-12-09,0.043,0.043,0.043,0.043,000,0.043
2015-12-08,0.043,0.043,0.043,0.043,000,0.043
2015-12-07,0.043,0.043,0.043,0.043,000,0.043
2015-12-04,0.043,0.043,0.043,0.043,000,0.043
2015-12-03,0.043,0.043,0.043,0.043,000,0.043
2015-12-02,0.043,0.043,0.043,0.043,000,0.043
2015-12-01,0.043,0.043,0.043,0.043,000,0.043
2015-11-30,0.043,0.043,0.043,0.043,000,0.043
2015-11-27,0.043,0.043,0.043,0.043,000,0.043
2015-11-26,0.043,0.043,0.043,0.043,000,0.043
2015-11-25,0.043,0.043,0.043,0.043,000,0.043
2015-11-24,0.043,0.043,0.043,0.043,000,0.043
2015-11-23,0.043,0.043,0.043,0.043,000,0.043
2015-11-20,0.043,0.043,0.043,0.043,000,0.043
2015-11-19,0.043,0.043,0.043,0.043,000,0.043
2015-11-18,0.043,0.043,0.043,0.043,10000,0.043
2015-11-17,0.043,0.043,0.043,0.043,000,0.043
2015-11-16,0.043,0.043,0.043,0.043,10000,0.043
2015-11-13,0.06,0.06,0.06,0.06,000,0.06
2015-11-12,0.06,0.06,0.06,0.06,000,0.06
2015-11-11,0.06,0.06,0.06,0.06,000,0.06
2015-11-10,0.06,0.06,0.06,0.06,000,0.06
2015-11-09,0.06,0.06,0.06,0.06,000,0.06
2015-11-06,0.06,0.06,0.06,0.06,000,0.06
2015-11-05,0.06,0.06,0.06,0.06,000,0.06
2015-11-04,0.06,0.06,0.06,0.06,000,0.06
2015-11-03,0.06,0.06,0.06,0.06,000,0.06
2015-11-02,0.06,0.06,0.06,0.06,000,0.06
2015-10-30,0.06,0.06,0.06,0.06,000,0.06
2015-10-29,0.06,0.06,0.06,0.06,000,0.06
2015-10-28,0.06,0.06,0.06,0.06,000,0.06
2015-10-27,0.06,0.06,0.06,0.06,000,0.06
2015-10-26,0.06,0.06,0.06,0.06,000,0.06
2015-10-23,0.06,0.06,0.06,0.06,000,0.06
2015-10-22,0.06,0.06,0.06,0.06,000,0.06
2015-10-21,0.06,0.06,0.06,0.06,000,0.06
2015-10-20,0.06,0.06,0.06,0.06,17800,0.06
2015-10-19,0.035,0.035,0.035,0.035,000,0.035
2015-10-16,0.035,0.035,0.035,0.035,000,0.035
2015-10-15,0.035,0.035,0.035,0.035,000,0.035
2015-10-14,0.035,0.035,0.035,0.035,000,0.035
2015-10-13,0.035,0.035,0.035,0.035,000,0.035
2015-10-12,0.035,0.035,0.035,0.035,000,0.035
2015-10-09,0.035,0.035,0.035,0.035,000,0.035
2015-10-08,0.035,0.035,0.035,0.035,000,0.035
2015-10-07,0.035,0.035,0.035,0.035,000,0.035
2015-10-06,0.035,0.035,0.035,0.035,000,0.035
2015-10-05,0.035,0.035,0.035,0.035,000,0.035
2015-10-02,0.035,0.035,0.035,0.035,000,0.035
2015-10-01,0.035,0.035,0.035,0.035,000,0.035
2015-09-30,0.035,0.035,0.035,0.035,000,0.035
2015-09-29,0.035,0.035,0.035,0.035,000,0.035
2015-09-28,0.035,0.035,0.035,0.035,000,0.035
2015-09-25,0.035,0.035,0.035,0.035,000,0.035
2015-09-24,0.035,0.035,0.035,0.035,000,0.035
2015-09-23,0.035,0.035,0.035,0.035,000,0.035
2015-09-22,0.035,0.035,0.035,0.035,000,0.035
2015-09-21,0.035,0.035,0.035,0.035,000,0.035
2015-09-18,0.035,0.035,0.035,0.035,000,0.035
2015-09-17,0.035,0.035,0.035,0.035,000,0.035
2015-09-16,0.035,0.035,0.035,0.035,000,0.035
2015-09-15,0.035,0.035,0.035,0.035,000,0.035
2015-09-14,0.035,0.035,0.035,0.035,000,0.035
2015-09-11,0.035,0.035,0.035,0.035,000,0.035
2015-09-10,0.035,0.035,0.035,0.035,000,0.035
2015-09-09,0.035,0.035,0.035,0.035,000,0.035
2015-09-08,0.035,0.035,0.035,0.035,000,0.035
2015-09-07,0.035,0.035,0.035,0.035,000,0.035
2015-09-04,0.035,0.035,0.035,0.035,000,0.035
2015-09-03,0.035,0.035,0.035,0.035,000,0.035
2015-09-02,0.035,0.035,0.035,0.035,000,0.035
2015-09-01,0.035,0.035,0.035,0.035,000,0.035
2015-08-31,0.035,0.035,0.035,0.035,000,0.035
2015-08-28,0.035,0.035,0.035,0.035,000,0.035
2015-08-27,0.035,0.035,0.035,0.035,000,0.035
2015-08-26,0.035,0.035,0.035,0.035,000,0.035
2015-08-25,0.035,0.035,0.035,0.035,20000,0.035
2015-08-24,0.032,0.032,0.032,0.032,000,0.032
2015-08-20,0.032,0.032,0.032,0.032,000,0.032
2015-08-19,0.032,0.032,0.032,0.032,000,0.032
2015-08-18,0.032,0.032,0.032,0.032,000,0.032
2015-08-17,0.032,0.032,0.032,0.032,000,0.032
2015-08-14,0.032,0.032,0.032,0.032,000,0.032
2015-08-13,0.032,0.032,0.032,0.032,000,0.032
2015-08-12,0.032,0.032,0.032,0.032,000,0.032
2015-08-11,0.032,0.032,0.032,0.032,30000,0.032
2015-08-10,0.031,0.031,0.031,0.031,000,0.031
2015-08-07,0.031,0.031,0.031,0.031,000,0.031
2015-08-06,0.031,0.031,0.031,0.031,000,0.031
2015-08-05,0.031,0.031,0.031,0.031,000,0.031
2015-08-04,0.031,0.031,0.031,0.031,000,0.031
2015-08-03,0.031,0.031,0.031,0.031,000,0.031
2015-07-31,0.031,0.031,0.031,0.031,000,0.031
2015-07-30,0.031,0.031,0.031,0.031,000,0.031
2015-07-29,0.031,0.031,0.031,0.031,000,0.031
2015-07-28,0.031,0.031,0.031,0.031,000,0.031
2015-07-27,0.031,0.031,0.031,0.031,000,0.031
2015-07-24,0.031,0.031,0.031,0.031,000,0.031
2015-07-23,0.031,0.031,0.031,0.031,000,0.031
2015-07-22,0.031,0.031,0.031,0.031,000,0.031
2015-07-21,0.031,0.031,0.031,0.031,000,0.031
2015-07-20,0.031,0.031,0.031,0.031,000,0.031
2015-07-17,0.031,0.031,0.031,0.031,000,0.031
2015-07-16,0.031,0.031,0.031,0.031,000,0.031
2015-07-15,0.031,0.031,0.031,0.031,000,0.031
2015-07-14,0.031,0.031,0.031,0.031,000,0.031
2015-07-13,0.031,0.031,0.031,0.031,000,0.031
2015-07-10,0.031,0.031,0.031,0.031,000,0.031
2015-07-09,0.031,0.031,0.031,0.031,000,0.031
2015-07-08,0.031,0.031,0.031,0.031,000,0.031
2015-07-07,0.031,0.031,0.031,0.031,000,0.031
2015-07-06,0.031,0.031,0.031,0.031,000,0.031
2015-07-03,0.031,0.031,0.031,0.031,250000,0.031
2015-07-02,0.031,0.031,0.031,0.031,000,0.031
2015-07-01,0.031,0.031,0.031,0.031,000,0.031
2015-06-30,0.032,0.032,0.031,0.031,300000,0.031
2015-06-29,0.032,0.032,0.032,0.032,20000,0.032
2015-06-26,0.032,0.032,0.032,0.032,25000,0.032
2015-06-25,0.032,0.032,0.032,0.032,10000,0.032
2015-06-24,0.032,0.032,0.032,0.032,000,0.032
2015-06-23,0.033,0.033,0.032,0.032,70000,0.032
2015-06-22,0.033,0.033,0.033,0.033,50000,0.033
2015-06-19,0.032,0.032,0.032,0.032,000,0.032
2015-06-18,0.032,0.032,0.032,0.032,000,0.032
2015-06-17,0.032,0.032,0.032,0.032,000,0.032
2015-06-16,0.032,0.032,0.032,0.032,000,0.032
2015-06-15,0.032,0.032,0.032,0.032,000,0.032
2015-06-12,0.032,0.032,0.032,0.032,000,0.032
2015-06-11,0.032,0.032,0.032,0.032,20000,0.032
2015-06-10,0.032,0.032,0.032,0.032,000,0.032
2015-06-09,0.032,0.032,0.032,0.032,000,0.032
2015-06-08,0.032,0.032,0.032,0.032,000,0.032
2015-06-05,0.032,0.032,0.032,0.032,000,0.032
2015-06-04,0.032,0.032,0.032,0.032,000,0.032
2015-06-03,0.032,0.032,0.032,0.032,000,0.032
2015-06-02,0.032,0.032,0.032,0.032,000,0.032
2015-06-01,0.032,0.032,0.032,0.032,000,0.032
2015-05-29,0.032,0.032,0.032,0.032,000,0.032
2015-05-28,0.032,0.032,0.032,0.032,000,0.032
2015-05-27,0.032,0.032,0.032,0.032,000,0.032
2015-05-26,0.032,0.032,0.032,0.032,000,0.032
2015-05-25,0.032,0.032,0.032,0.032,10000,0.032
2015-05-22,0.032,0.032,0.032,0.032,000,0.032
2015-05-21,0.032,0.032,0.032,0.032,000,0.032
2015-05-20,0.032,0.032,0.032,0.032,000,0.032
2015-05-19,0.032,0.032,0.032,0.032,000,0.032
2015-05-18,0.032,0.032,0.032,0.032,000,0.032
2015-05-15,0.032,0.032,0.032,0.032,000,0.032
2015-05-14,0.032,0.032,0.032,0.032,10000,0.032
2015-05-13,0.033,0.033,0.033,0.033,000,0.033
2015-05-12,0.033,0.033,0.033,0.033,000,0.033
2015-05-11,0.033,0.033,0.033,0.033,000,0.033
2015-05-08,0.033,0.033,0.033,0.033,000,0.033
2015-05-07,0.033,0.033,0.033,0.033,000,0.033
2015-05-06,0.033,0.033,0.033,0.033,000,0.033
2015-05-05,0.033,0.033,0.033,0.033,000,0.033
2015-05-04,0.033,0.033,0.033,0.033,000,0.033
2015-05-01,0.033,0.033,0.033,0.033,100000,0.033
2015-04-30,0.032,0.032,0.032,0.032,000,0.032
2015-04-29,0.032,0.032,0.032,0.032,20000,0.032
2015-04-28,0.032,0.032,0.032,0.032,000,0.032
2015-04-27,0.032,0.032,0.032,0.032,000,0.032
2015-04-24,0.032,0.032,0.032,0.032,000,0.032
2015-04-23,0.032,0.032,0.032,0.032,000,0.032
2015-04-22,0.032,0.032,0.032,0.032,000,0.032
2015-04-21,0.032,0.032,0.032,0.032,000,0.032
2015-04-20,0.032,0.032,0.032,0.032,000,0.032
2015-04-17,0.032,0.032,0.032,0.032,000,0.032
2015-04-16,0.032,0.032,0.032,0.032,10000,0.032
2015-04-15,0.034,0.034,0.034,0.034,000,0.034
2015-04-14,0.034,0.034,0.034,0.034,000,0.034
2015-04-13,0.034,0.034,0.034,0.034,000,0.034
2015-04-10,0.034,0.034,0.034,0.034,000,0.034
2015-04-09,0.034,0.034,0.034,0.034,000,0.034
2015-04-08,0.034,0.034,0.034,0.034,000,0.034
2015-04-07,0.034,0.034,0.034,0.034,000,0.034
2015-04-06,0.034,0.034,0.034,0.034,000,0.034
2015-04-03,0.034,0.034,0.034,0.034,000,0.034
2015-04-02,0.034,0.034,0.034,0.034,000,0.034
2015-04-01,0.034,0.034,0.034,0.034,000,0.034
2015-03-31,0.034,0.034,0.034,0.034,000,0.034
2015-03-30,0.034,0.034,0.034,0.034,000,0.034
2015-03-27,0.034,0.034,0.034,0.034,000,0.034
2015-03-26,0.034,0.034,0.034,0.034,000,0.034
2015-03-25,0.034,0.034,0.034,0.034,000,0.034
2015-03-24,0.034,0.034,0.034,0.034,000,0.034
2015-03-23,0.034,0.034,0.034,0.034,000,0.034
2015-03-20,0.034,0.034,0.034,0.034,000,0.034
2015-03-19,0.034,0.034,0.034,0.034,000,0.034
2015-03-18,0.034,0.034,0.034,0.034,000,0.034
2015-03-17,0.034,0.034,0.034,0.034,000,0.034
2015-03-16,0.034,0.034,0.034,0.034,000,0.034
2015-03-13,0.034,0.034,0.034,0.034,000,0.034
2015-03-12,0.034,0.034,0.034,0.034,000,0.034
2015-03-11,0.034,0.034,0.034,0.034,000,0.034
2015-03-10,0.034,0.034,0.034,0.034,000,0.034
2015-03-09,0.034,0.034,0.034,0.034,000,0.034
2015-03-06,0.034,0.034,0.034,0.034,000,0.034
2015-03-05,0.034,0.034,0.034,0.034,000,0.034
2015-03-04,0.034,0.034,0.034,0.034,000,0.034
2015-03-03,0.034,0.034,0.034,0.034,000,0.034
2015-03-02,0.034,0.034,0.034,0.034,000,0.034
2015-02-27,0.034,0.034,0.034,0.034,000,0.034
2015-02-26,0.034,0.034,0.034,0.034,000,0.034
2015-02-25,0.034,0.034,0.034,0.034,000,0.034
2015-02-24,0.034,0.034,0.034,0.034,000,0.034
2015-02-23,0.034,0.034,0.034,0.034,000,0.034
2015-02-20,0.034,0.034,0.034,0.034,000,0.034
2015-02-19,0.034,0.034,0.034,0.034,000,0.034
2015-02-18,0.034,0.034,0.034,0.034,000,0.034
2015-02-17,0.034,0.034,0.034,0.034,000,0.034
2015-02-16,0.034,0.034,0.034,0.034,000,0.034
2015-02-13,0.034,0.034,0.034,0.034,000,0.034
2015-02-12,0.034,0.034,0.034,0.034,000,0.034
2015-02-11,0.034,0.034,0.034,0.034,000,0.034
2015-02-10,0.034,0.034,0.034,0.034,000,0.034
2015-02-09,0.034,0.034,0.034,0.034,000,0.034
2015-02-06,0.034,0.034,0.034,0.034,000,0.034
2015-02-05,0.034,0.034,0.034,0.034,000,0.034
2015-02-04,0.034,0.034,0.034,0.034,000,0.034
2015-02-03,0.034,0.034,0.034,0.034,000,0.034
2015-02-02,0.034,0.034,0.034,0.034,000,0.034
2015-01-30,0.034,0.034,0.034,0.034,000,0.034
2015-01-29,0.034,0.034,0.034,0.034,000,0.034
2015-01-28,0.034,0.034,0.034,0.034,000,0.034
2015-01-27,0.034,0.034,0.034,0.034,000,0.034
2015-01-26,0.034,0.034,0.034,0.034,000,0.034
2015-01-23,0.034,0.034,0.034,0.034,000,0.034
2015-01-22,0.034,0.034,0.034,0.034,000,0.034
2015-01-21,0.034,0.034,0.034,0.034,42000,0.034
2015-01-20,0.036,0.036,0.036,0.036,000,0.036
2015-01-19,0.036,0.036,0.036,0.036,000,0.036
2015-01-16,0.036,0.036,0.036,0.036,000,0.036
2015-01-15,0.036,0.036,0.036,0.036,000,0.036
2015-01-14,0.036,0.036,0.036,0.036,000,0.036
2015-01-13,0.036,0.036,0.036,0.036,000,0.036
2015-01-12,0.036,0.036,0.036,0.036,000,0.036
2015-01-09,0.036,0.036,0.036,0.036,000,0.036
2015-01-08,0.036,0.036,0.036,0.036,000,0.036
2015-01-07,0.036,0.036,0.036,0.036,000,0.036
2015-01-06,0.036,0.036,0.036,0.036,000,0.036
2015-01-05,0.036,0.036,0.036,0.036,000,0.036
2015-01-02,0.036,0.036,0.036,0.036,000,0.036
2015-01-01,0.036,0.036,0.036,0.036,000,0.036
2014-12-31,0.036,0.036,0.036,0.036,000,0.036
2014-12-30,0.036,0.036,0.036,0.036,000,0.036
2014-12-29,0.036,0.036,0.036,0.036,000,0.036
2014-12-26,0.036,0.036,0.036,0.036,000,0.036
2014-12-25,0.036,0.036,0.036,0.036,000,0.036
2014-12-24,0.036,0.036,0.036,0.036,000,0.036
2014-12-23,0.036,0.036,0.036,0.036,000,0.036
2014-12-22,0.036,0.036,0.036,0.036,000,0.036
2014-12-19,0.036,0.036,0.036,0.036,000,0.036
2014-12-18,0.036,0.036,0.036,0.036,000,0.036
2014-12-17,0.036,0.036,0.036,0.036,000,0.036
2014-12-16,0.036,0.036,0.036,0.036,000,0.036
2014-12-15,0.036,0.036,0.036,0.036,000,0.036
2014-12-12,0.036,0.036,0.036,0.036,000,0.036
2014-12-11,0.036,0.036,0.036,0.036,000,0.036
2014-12-10,0.036,0.036,0.036,0.036,000,0.036
2014-12-09,0.036,0.036,0.036,0.036,000,0.036
2014-12-08,0.036,0.036,0.036,0.036,000,0.036
2014-12-05,0.036,0.036,0.036,0.036,000,0.036
2014-12-04,0.036,0.036,0.036,0.036,000,0.036
2014-12-03,0.036,0.036,0.036,0.036,000,0.036
2014-12-02,0.036,0.036,0.036,0.036,000,0.036
2014-12-01,0.036,0.036,0.036,0.036,000,0.036
2014-11-28,0.036,0.036,0.036,0.036,000,0.036
2014-11-27,0.036,0.036,0.036,0.036,000,0.036
2014-11-26,0.036,0.036,0.036,0.036,000,0.036
2014-11-25,0.036,0.036,0.036,0.036,000,0.036
2014-11-24,0.036,0.036,0.036,0.036,000,0.036
2014-11-21,0.036,0.036,0.036,0.036,000,0.036
2014-11-20,0.036,0.036,0.036,0.036,000,0.036
2014-11-19,0.036,0.036,0.036,0.036,20000,0.036
2014-11-18,0.035,0.035,0.035,0.035,000,0.035
2014-11-17,0.035,0.035,0.035,0.035,000,0.035
2014-11-14,0.035,0.035,0.035,0.035,000,0.035
2014-11-13,0.035,0.035,0.035,0.035,000,0.035
2014-11-12,0.035,0.035,0.035,0.035,000,0.035
2014-11-11,0.035,0.035,0.035,0.035,000,0.035
2014-11-10,0.035,0.035,0.035,0.035,32000,0.035
2014-11-07,0.034,0.034,0.034,0.034,000,0.034
2014-11-06,0.034,0.034,0.034,0.034,000,0.034
2014-11-05,0.034,0.034,0.034,0.034,000,0.034
2014-11-04,0.034,0.034,0.034,0.034,000,0.034
2014-11-03,0.034,0.034,0.034,0.034,000,0.034
2014-10-31,0.034,0.034,0.034,0.034,000,0.034
2014-10-30,0.034,0.034,0.034,0.034,000,0.034
2014-10-29,0.034,0.034,0.034,0.034,000,0.034
2014-10-28,0.034,0.034,0.034,0.034,50000,0.034
2014-10-27,0.034,0.034,0.034,0.034,000,0.034
2014-10-24,0.034,0.034,0.034,0.034,000,0.034
2014-10-23,0.034,0.034,0.034,0.034,000,0.034
2014-10-22,0.034,0.034,0.034,0.034,000,0.034
2014-10-21,0.034,0.034,0.034,0.034,000,0.034
2014-10-20,0.034,0.034,0.034,0.034,30000,0.034
2014-10-17,0.032,0.032,0.032,0.032,000,0.032
2014-10-16,0.032,0.032,0.032,0.032,15000,0.032
2014-10-15,0.032,0.032,0.032,0.032,000,0.032
2014-10-14,0.032,0.032,0.032,0.032,000,0.032
2014-10-13,0.032,0.032,0.032,0.032,000,0.032
2014-10-10,0.032,0.032,0.032,0.032,000,0.032
2014-10-09,0.032,0.032,0.032,0.032,000,0.032
2014-10-08,0.032,0.032,0.032,0.032,000,0.032
2014-10-07,0.032,0.032,0.032,0.032,000,0.032
2014-10-06,0.032,0.032,0.032,0.032,000,0.032
2014-10-03,0.032,0.032,0.032,0.032,000,0.032
2014-10-02,0.032,0.032,0.032,0.032,000,0.032
2014-10-01,0.032,0.032,0.032,0.032,000,0.032
2014-09-30,0.032,0.032,0.032,0.032,20000,0.032
2014-09-29,0.032,0.032,0.032,0.032,000,0.032
2014-09-26,0.032,0.032,0.032,0.032,000,0.032
2014-09-25,0.032,0.032,0.032,0.032,000,0.032
2014-09-24,0.032,0.032,0.032,0.032,000,0.032
2014-09-23,0.032,0.032,0.032,0.032,000,0.032
2014-09-22,0.032,0.032,0.032,0.032,000,0.032
2014-09-19,0.032,0.032,0.032,0.032,000,0.032
2014-09-18,0.032,0.032,0.032,0.032,000,0.032
2014-09-17,0.032,0.032,0.032,0.032,000,0.032
2014-09-16,0.032,0.032,0.032,0.032,000,0.032
2014-09-15,0.032,0.032,0.032,0.032,000,0.032
2014-09-12,0.032,0.032,0.032,0.032,000,0.032
2014-09-11,0.032,0.032,0.032,0.032,000,0.032
2014-09-10,0.032,0.032,0.032,0.032,000,0.032
2014-09-09,0.032,0.032,0.032,0.032,000,0.032
2014-09-08,0.032,0.032,0.032,0.032,000,0.032
2014-09-05,0.032,0.032,0.032,0.032,000,0.032
2014-09-04,0.032,0.032,0.032,0.032,000,0.032
2014-09-03,0.032,0.032,0.032,0.032,000,0.032
2014-09-02,0.032,0.032,0.032,0.032,000,0.032
2014-09-01,0.032,0.032,0.032,0.032,000,0.032
2014-08-29,0.032,0.032,0.032,0.032,1200000,0.032
2014-08-28,0.031,0.031,0.031,0.031,000,0.031
2014-08-27,0.031,0.031,0.031,0.031,000,0.031
2014-08-26,0.031,0.031,0.031,0.031,000,0.031
2014-08-25,0.031,0.031,0.031,0.031,000,0.031
2014-08-22,0.031,0.031,0.031,0.031,000,0.031
2014-08-21,0.031,0.031,0.031,0.031,000,0.031
2014-08-20,0.031,0.031,0.031,0.031,000,0.031
2014-08-19,0.031,0.031,0.031,0.031,000,0.031
2014-08-18,0.031,0.031,0.031,0.031,000,0.031
2014-08-15,0.031,0.031,0.031,0.031,000,0.031
2014-08-14,0.031,0.031,0.031,0.031,000,0.031
2014-08-13,0.031,0.031,0.031,0.031,000,0.031
2014-08-12,0.031,0.031,0.031,0.031,000,0.031
2014-08-11,0.031,0.031,0.031,0.031,000,0.031
2014-08-08,0.031,0.031,0.031,0.031,000,0.031
2014-08-07,0.031,0.031,0.031,0.031,000,0.031
2014-08-06,0.031,0.031,0.031,0.031,000,0.031
2014-08-05,0.031,0.031,0.031,0.031,100000,0.031
2014-08-04,0.031,0.031,0.031,0.031,000,0.031
2014-08-01,0.031,0.031,0.031,0.031,000,0.031
2014-07-31,0.031,0.031,0.031,0.031,000,0.031
2014-07-30,0.031,0.031,0.031,0.031,000,0.031
2014-07-29,0.031,0.031,0.031,0.031,000,0.031
2014-07-28,0.031,0.031,0.031,0.031,000,0.031
2014-07-25,0.031,0.031,0.031,0.031,000,0.031
2014-07-24,0.031,0.031,0.031,0.031,000,0.031
2014-07-23,0.031,0.031,0.031,0.031,000,0.031
2014-07-22,0.031,0.031,0.031,0.031,000,0.031
2014-07-21,0.031,0.031,0.031,0.031,000,0.031
2014-07-18,0.031,0.031,0.031,0.031,000,0.031
2014-07-17,0.035,0.035,0.031,0.031,10600,0.031
2014-07-16,0.035,0.035,0.035,0.035,000,0.035
2014-07-15,0.034,0.035,0.034,0.035,20700,0.035
2014-07-14,0.034,0.034,0.034,0.034,9400,0.034
2014-07-11,0.033,0.033,0.033,0.033,000,0.033
2014-07-10,0.033,0.033,0.033,0.033,6200,0.033
2014-07-09,0.034,0.034,0.034,0.034,000,0.034
2014-07-08,0.034,0.034,0.034,0.034,000,0.034
2014-07-07,0.034,0.034,0.034,0.034,000,0.034
2014-07-04,0.033,0.034,0.033,0.034,363300,0.034
2014-07-03,0.035,0.035,0.035,0.035,000,0.035
2014-07-02,0.035,0.035,0.035,0.035,000,0.035
2014-07-01,0.035,0.035,0.035,0.035,000,0.035
2014-06-30,0.035,0.035,0.035,0.035,000,0.035
2014-06-27,0.035,0.035,0.035,0.035,000,0.035
2014-06-26,0.035,0.035,0.035,0.035,000,0.035
2014-06-25,0.035,0.035,0.035,0.035,000,0.035
2014-06-24,0.035,0.035,0.035,0.035,000,0.035
2014-06-23,0.035,0.035,0.035,0.035,000,0.035
2014-06-20,0.035,0.035,0.035,0.035,000,0.035
2014-06-19,0.035,0.035,0.035,0.035,000,0.035
2014-06-18,0.035,0.035,0.035,0.035,000,0.035
2014-06-17,0.035,0.035,0.035,0.035,000,0.035
2014-06-16,0.035,0.035,0.035,0.035,000,0.035
2014-06-13,0.035,0.035,0.035,0.035,30000,0.035
2014-06-12,0.045,0.045,0.045,0.045,000,0.045
2014-06-11,0.045,0.045,0.045,0.045,000,0.045
2014-06-10,0.045,0.045,0.045,0.045,000,0.045
2014-06-09,0.045,0.045,0.045,0.045,000,0.045
2014-06-06,0.045,0.045,0.045,0.045,10000,0.045
2014-06-05,0.05,0.05,0.05,0.05,000,0.05
2014-06-04,0.05,0.05,0.05,0.05,20000,0.05
2014-06-03,0.05,0.05,0.05,0.05,000,0.05
2014-06-02,0.05,0.05,0.05,0.05,000,0.05
2014-05-30,0.05,0.05,0.05,0.05,000,0.05
2014-05-29,0.05,0.05,0.05,0.05,000,0.05
2014-05-28,0.05,0.05,0.05,0.05,000,0.05
2014-05-27,0.05,0.05,0.05,0.05,000,0.05
2014-05-26,0.05,0.05,0.05,0.05,000,0.05
2014-05-23,0.05,0.05,0.05,0.05,000,0.05
2014-05-22,0.05,0.05,0.05,0.05,000,0.05
2014-05-21,0.05,0.05,0.05,0.05,000,0.05
2014-05-20,0.05,0.05,0.05,0.05,000,0.05
2014-05-19,0.05,0.05,0.05,0.05,000,0.05
2014-05-16,0.05,0.05,0.05,0.05,000,0.05
2014-05-15,0.05,0.05,0.05,0.05,000,0.05
2014-05-14,0.05,0.05,0.05,0.05,000,0.05
2014-05-13,0.05,0.05,0.05,0.05,000,0.05
2014-05-12,0.05,0.05,0.05,0.05,000,0.05
2014-05-09,0.05,0.05,0.05,0.05,000,0.05
2014-05-08,0.05,0.05,0.05,0.05,10000,0.05
2014-05-07,0.05,0.05,0.05,0.05,000,0.05
2014-05-06,0.05,0.05,0.05,0.05,000,0.05
2014-05-05,0.05,0.05,0.05,0.05,000,0.05
2014-05-02,0.05,0.05,0.05,0.05,000,0.05
2014-05-01,0.05,0.05,0.05,0.05,000,0.05
2014-04-30,0.05,0.05,0.05,0.05,000,0.05
2014-04-29,0.05,0.05,0.05,0.05,000,0.05
2014-04-28,0.05,0.05,0.05,0.05,000,0.05
2014-04-25,0.05,0.05,0.05,0.05,000,0.05
2014-04-24,0.048,0.05,0.048,0.05,50000,0.05
2014-04-23,0.045,0.045,0.045,0.045,10000,0.045
2014-04-22,0.035,0.035,0.035,0.035,000,0.035
2014-04-21,0.035,0.035,0.035,0.035,000,0.035
2014-04-18,0.035,0.035,0.035,0.035,000,0.035
2014-04-17,0.035,0.035,0.035,0.035,000,0.035
2014-04-16,0.035,0.035,0.035,0.035,10000,0.035
2014-04-15,0.035,0.035,0.035,0.035,000,0.035
2014-04-14,0.035,0.035,0.035,0.035,000,0.035
2014-04-11,0.035,0.035,0.035,0.035,20000,0.035
2014-04-10,0.04,0.04,0.04,0.04,000,0.04
2014-04-09,0.04,0.04,0.04,0.04,000,0.04
2014-04-08,0.04,0.04,0.04,0.04,000,0.04
2014-04-07,0.04,0.04,0.04,0.04,000,0.04
2014-04-04,0.04,0.04,0.04,0.04,000,0.04
2014-04-03,0.04,0.04,0.04,0.04,000,0.04
2014-04-02,0.035,0.04,0.035,0.04,138000,0.04
2014-04-01,0.035,0.037,0.035,0.037,106500,0.037
2014-03-31,0.035,0.035,0.035,0.035,000,0.035
2014-03-28,0.035,0.035,0.035,0.035,000,0.035
2014-03-27,0.035,0.035,0.035,0.035,000,0.035
2014-03-26,0.035,0.035,0.035,0.035,000,0.035
2014-03-25,0.035,0.035,0.035,0.035,000,0.035
2014-03-24,0.055,0.055,0.035,0.035,37900,0.035
2014-03-21,0.035,0.035,0.035,0.035,000,0.035
2014-03-20,0.035,0.035,0.035,0.035,000,0.035
2014-03-19,0.035,0.035,0.035,0.035,000,0.035
2014-03-18,0.035,0.035,0.035,0.035,10000,0.035
2014-03-17,0.04,0.04,0.04,0.04,000,0.04
2014-03-14,0.04,0.04,0.04,0.04,000,0.04
2014-03-13,0.04,0.04,0.04,0.04,20000,0.04
2014-03-12,0.04,0.04,0.04,0.04,000,0.04
2014-03-11,0.04,0.04,0.04,0.04,000,0.04
2014-03-10,0.04,0.04,0.04,0.04,000,0.04
2014-03-07,0.04,0.04,0.04,0.04,000,0.04
2014-03-06,0.04,0.04,0.04,0.04,000,0.04
2014-03-05,0.04,0.04,0.04,0.04,14000,0.04
2014-03-04,0.04,0.04,0.04,0.04,000,0.04
2014-03-03,0.04,0.04,0.04,0.04,000,0.04
2014-02-28,0.04,0.04,0.04,0.04,000,0.04
2014-02-27,0.04,0.04,0.04,0.04,000,0.04
2014-02-26,0.04,0.04,0.04,0.04,000,0.04
2014-02-25,0.04,0.04,0.04,0.04,000,0.04
2014-02-24,0.04,0.04,0.04,0.04,000,0.04
2014-02-21,0.04,0.04,0.04,0.04,10000,0.04
2014-02-20,0.045,0.045,0.045,0.045,000,0.045
2014-02-19,0.045,0.045,0.045,0.045,000,0.045
2014-02-18,0.045,0.045,0.045,0.045,000,0.045
2014-02-17,0.045,0.045,0.045,0.045,000,0.045
2014-02-14,0.045,0.045,0.045,0.045,000,0.045
2014-02-13,0.045,0.045,0.045,0.045,000,0.045
2014-02-12,0.045,0.045,0.045,0.045,150000,0.045
2014-02-11,0.05,0.05,0.05,0.05,000,0.05
2014-02-10,0.05,0.05,0.05,0.05,000,0.05
2014-02-07,0.05,0.05,0.05,0.05,000,0.05
2014-02-06,0.05,0.05,0.05,0.05,000,0.05
2014-02-05,0.05,0.05,0.05,0.05,000,0.05
2014-02-04,0.05,0.05,0.05,0.05,000,0.05
2014-02-03,0.05,0.05,0.05,0.05,100000,0.05
2014-01-31,0.05,0.05,0.05,0.05,000,0.05
2014-01-30,0.05,0.05,0.05,0.05,000,0.05
2014-01-29,0.05,0.05,0.05,0.05,000,0.05
2014-01-28,0.05,0.05,0.05,0.05,4000,0.05
2014-01-27,0.05,0.05,0.05,0.05,000,0.05
2014-01-24,0.05,0.05,0.05,0.05,000,0.05
2014-01-23,0.05,0.05,0.05,0.05,000,0.05
2014-01-22,0.05,0.05,0.05,0.05,000,0.05
2014-01-21,0.05,0.05,0.05,0.05,000,0.05
2014-01-20,0.05,0.05,0.05,0.05,000,0.05
2014-01-17,0.05,0.05,0.05,0.05,000,0.05
2014-01-16,0.05,0.05,0.05,0.05,000,0.05
2014-01-15,0.05,0.05,0.05,0.05,000,0.05
2014-01-14,0.05,0.05,0.05,0.05,000,0.05
2014-01-13,0.05,0.05,0.05,0.05,11800,0.05
2014-01-10,0.05,0.05,0.05,0.05,000,0.05
2014-01-09,0.05,0.05,0.05,0.05,000,0.05
2014-01-08,0.05,0.05,0.05,0.05,2500,0.05
2014-01-07,0.05,0.05,0.05,0.05,000,0.05
2014-01-06,0.05,0.05,0.05,0.05,000,0.05
2014-01-03,0.05,0.05,0.05,0.05,000,0.05
2014-01-02,0.05,0.05,0.05,0.05,000,0.05
2014-01-01,0.05,0.05,0.05,0.05,000,0.05
2013-12-31,0.05,0.05,0.05,0.05,000,0.05
2013-12-30,0.05,0.05,0.05,0.05,000,0.05
2013-12-27,0.05,0.05,0.05,0.05,000,0.05
2013-12-26,0.05,0.05,0.05,0.05,000,0.05
2013-12-25,0.05,0.05,0.05,0.05,000,0.05
2013-12-24,0.05,0.05,0.05,0.05,000,0.05
2013-12-23,0.05,0.05,0.05,0.05,000,0.05
2013-12-20,0.05,0.05,0.05,0.05,000,0.05
2013-12-19,0.05,0.05,0.05,0.05,000,0.05
2013-12-18,0.05,0.05,0.05,0.05,000,0.05
2013-12-17,0.05,0.05,0.05,0.05,000,0.05
2013-12-16,0.05,0.05,0.05,0.05,000,0.05
2013-12-13,0.05,0.05,0.05,0.05,000,0.05
2013-12-12,0.05,0.05,0.05,0.05,000,0.05
2013-12-11,0.05,0.05,0.05,0.05,000,0.05
2013-12-10,0.05,0.05,0.05,0.05,000,0.05
2013-12-09,0.05,0.05,0.05,0.05,000,0.05
2013-12-06,0.05,0.05,0.05,0.05,000,0.05
2013-12-05,0.05,0.05,0.05,0.05,000,0.05
2013-12-04,0.05,0.05,0.05,0.05,000,0.05
2013-12-03,0.05,0.05,0.05,0.05,000,0.05
2013-12-02,0.05,0.05,0.05,0.05,000,0.05
2013-11-29,0.05,0.05,0.05,0.05,000,0.05
2013-11-28,0.05,0.05,0.05,0.05,000,0.05
2013-11-27,0.05,0.05,0.05,0.05,000,0.05
2013-11-26,0.05,0.05,0.05,0.05,000,0.05
2013-11-25,0.05,0.05,0.05,0.05,000,0.05
2013-11-22,0.05,0.05,0.05,0.05,000,0.05
2013-11-21,0.05,0.05,0.05,0.05,000,0.05
2013-11-20,0.05,0.05,0.05,0.05,000,0.05
2013-11-19,0.05,0.05,0.05,0.05,000,0.05
2013-11-18,0.05,0.05,0.05,0.05,000,0.05
2013-11-15,0.05,0.05,0.05,0.05,000,0.05
2013-11-14,0.05,0.05,0.05,0.05,000,0.05
2013-11-13,0.05,0.05,0.05,0.05,000,0.05
2013-11-12,0.05,0.05,0.05,0.05,000,0.05
2013-11-11,0.05,0.05,0.05,0.05,000,0.05
2013-11-08,0.05,0.05,0.05,0.05,30600,0.05
2013-11-07,0.045,0.045,0.045,0.045,000,0.045
2013-11-06,0.045,0.045,0.045,0.045,1500000,0.045
2013-11-05,0.045,0.045,0.045,0.045,000,0.045
2013-11-04,0.045,0.045,0.045,0.045,000,0.045
2013-11-01,0.045,0.045,0.045,0.045,000,0.045
2013-10-31,0.045,0.045,0.045,0.045,15000,0.045
2013-10-30,0.035,0.035,0.035,0.035,000,0.035
2013-10-29,0.035,0.035,0.035,0.035,000,0.035
2013-10-28,0.035,0.035,0.035,0.035,000,0.035
2013-10-25,0.035,0.035,0.035,0.035,000,0.035
2013-10-24,0.035,0.035,0.035,0.035,000,0.035
2013-10-23,0.035,0.035,0.035,0.035,000,0.035
2013-10-22,0.035,0.035,0.035,0.035,000,0.035
2013-10-21,0.035,0.035,0.035,0.035,000,0.035
2013-10-18,0.035,0.035,0.035,0.035,7500,0.035
2013-10-17,0.035,0.035,0.035,0.035,000,0.035
2013-10-16,0.035,0.035,0.035,0.035,000,0.035
2013-10-15,0.035,0.035,0.035,0.035,2200,0.035
2013-10-14,0.042,0.042,0.042,0.042,59700,0.042
2013-10-11,0.051,0.051,0.051,0.051,000,0.051
2013-10-10,0.051,0.051,0.051,0.051,000,0.051
2013-10-09,0.051,0.051,0.051,0.051,000,0.051
2013-10-08,0.051,0.051,0.051,0.051,000,0.051
2013-10-07,0.051,0.051,0.051,0.051,000,0.051
2013-10-04,0.051,0.051,0.051,0.051,000,0.051
2013-10-03,0.051,0.051,0.051,0.051,000,0.051
2013-10-02,0.051,0.051,0.051,0.051,000,0.051
2013-10-01,0.051,0.051,0.051,0.051,000,0.051
2013-09-30,0.051,0.051,0.051,0.051,000,0.051
2013-09-27,0.051,0.051,0.051,0.051,000,0.051
2013-09-26,0.051,0.051,0.051,0.051,000,0.051
2013-09-25,0.051,0.051,0.051,0.051,000,0.051
2013-09-24,0.051,0.051,0.051,0.051,100000,0.051
2013-09-23,0.05,0.05,0.05,0.05,000,0.05
2013-09-20,0.05,0.05,0.05,0.05,000,0.05
2013-09-19,0.05,0.05,0.05,0.05,000,0.05
2013-09-18,0.05,0.05,0.05,0.05,000,0.05
2013-09-17,0.05,0.05,0.05,0.05,000,0.05
2013-09-16,0.05,0.05,0.05,0.05,000,0.05
2013-09-13,0.05,0.05,0.05,0.05,000,0.05
2013-09-12,0.05,0.05,0.05,0.05,000,0.05
2013-09-11,0.05,0.05,0.05,0.05,000,0.05
2013-09-10,0.05,0.05,0.05,0.05,50000,0.05
2013-09-09,0.05,0.05,0.05,0.05,000,0.05
2013-09-06,0.045,0.05,0.045,0.05,82000,0.05
2013-09-05,0.043,0.043,0.043,0.043,000,0.043
2013-09-04,0.043,0.043,0.043,0.043,000,0.043
2013-09-03,0.043,0.043,0.043,0.043,000,0.043
2013-09-02,0.043,0.043,0.043,0.043,100000,0.043
2013-08-30,0.044,0.044,0.044,0.044,000,0.044
2013-08-29,0.044,0.044,0.044,0.044,000,0.044
2013-08-28,0.03,0.044,0.03,0.044,542400,0.044
2013-08-27,0.02,0.02,0.02,0.02,000,0.02
2013-08-26,0.02,0.02,0.02,0.02,000,0.02
2013-08-23,0.02,0.02,0.02,0.02,000,0.02
2013-08-22,0.02,0.02,0.02,0.02,143500,0.02
2013-08-21,0.016,0.016,0.016,0.016,000,0.016
2013-08-20,0.016,0.016,0.016,0.016,000,0.016
2013-08-19,0.016,0.016,0.016,0.016,000,0.016
2013-08-16,0.016,0.016,0.016,0.016,000,0.016
2013-08-15,0.016,0.016,0.016,0.016,000,0.016
2013-08-14,0.016,0.016,0.016,0.016,000,0.016
2013-08-13,0.016,0.016,0.016,0.016,000,0.016
2013-08-12,0.016,0.016,0.016,0.016,000,0.016
2013-08-09,0.016,0.016,0.016,0.016,000,0.016
2013-08-08,0.016,0.016,0.016,0.016,000,0.016
2013-08-07,0.016,0.016,0.016,0.016,000,0.016
2013-08-06,0.016,0.016,0.016,0.016,000,0.016
2013-08-05,0.016,0.016,0.016,0.016,000,0.016
2013-08-02,0.016,0.016,0.016,0.016,000,0.016
2013-08-01,0.016,0.016,0.016,0.016,000,0.016
2013-07-31,0.016,0.016,0.016,0.016,000,0.016
2013-07-30,0.016,0.016,0.016,0.016,000,0.016
2013-07-29,0.016,0.016,0.016,0.016,000,0.016
2013-07-26,0.016,0.016,0.016,0.016,000,0.016
2013-07-25,0.016,0.016,0.016,0.016,000,0.016
2013-07-24,0.016,0.016,0.016,0.016,000,0.016
2013-07-23,0.016,0.016,0.016,0.016,000,0.016
2013-07-22,0.016,0.016,0.016,0.016,000,0.016
2013-07-19,0.016,0.016,0.016,0.016,160000,0.016
2013-07-18,0.015,0.015,0.015,0.015,000,0.015
2013-07-17,0.015,0.015,0.015,0.015,000,0.015
2013-07-16,0.015,0.015,0.015,0.015,000,0.015
2013-07-15,0.015,0.015,0.015,0.015,000,0.015
2013-07-12,0.015,0.015,0.015,0.015,000,0.015
2013-07-11,0.015,0.015,0.015,0.015,10000,0.015
2013-07-10,0.014,0.014,0.014,0.014,000,0.014
2013-07-09,0.014,0.014,0.014,0.014,000,0.014
2013-07-08,0.014,0.014,0.014,0.014,000,0.014
2013-07-05,0.014,0.014,0.014,0.014,000,0.014
2013-07-04,0.014,0.014,0.014,0.014,000,0.014
2013-07-03,0.014,0.014,0.014,0.014,000,0.014
2013-07-02,0.014,0.014,0.014,0.014,000,0.014
2013-07-01,0.014,0.014,0.014,0.014,000,0.014
2013-06-28,0.014,0.014,0.014,0.014,12000,0.014
2013-06-27,0.014,0.014,0.014,0.014,000,0.014
2013-06-26,0.014,0.014,0.014,0.014,000,0.014
2013-06-25,0.014,0.014,0.014,0.014,10000,0.014
2013-06-24,0.013,0.013,0.013,0.013,121500,0.013
2013-06-21,0.013,0.013,0.013,0.013,000,0.013
2013-06-20,0.013,0.013,0.013,0.013,000,0.013
2013-06-19,0.013,0.013,0.013,0.013,000,0.013
2013-06-18,0.013,0.013,0.013,0.013,000,0.013
2013-06-17,0.013,0.013,0.013,0.013,000,0.013
2013-06-14,0.013,0.013,0.013,0.013,000,0.013
2013-06-13,0.013,0.013,0.013,0.013,22000,0.013
2013-06-12,0.013,0.013,0.012,0.012,60000,0.012
2013-06-11,0.02,0.02,0.02,0.02,000,0.02
2013-06-10,0.02,0.02,0.02,0.02,000,0.02
2013-06-07,0.02,0.02,0.02,0.02,000,0.02
2013-06-06,0.02,0.02,0.02,0.02,000,0.02
2013-06-05,0.02,0.02,0.02,0.02,000,0.02
2013-06-04,0.02,0.02,0.02,0.02,000,0.02
2013-06-03,0.02,0.02,0.02,0.02,000,0.02
2013-05-31,0.02,0.02,0.02,0.02,000,0.02
2013-05-30,0.02,0.02,0.02,0.02,000,0.02
2013-05-29,0.02,0.02,0.02,0.02,10200,0.02
2013-05-28,0.02,0.02,0.02,0.02,9700,0.02
2013-05-27,0.02,0.02,0.02,0.02,20000,0.02
2013-05-24,0.021,0.021,0.021,0.021,000,0.021
2013-05-23,0.021,0.021,0.021,0.021,000,0.021
2013-05-22,0.021,0.021,0.021,0.021,000,0.021
2013-05-21,0.021,0.021,0.021,0.021,15000,0.021
2013-05-20,0.021,0.021,0.021,0.021,12500,0.021
2013-05-17,0.021,0.021,0.021,0.021,000,0.021
2013-05-16,0.021,0.021,0.021,0.021,000,0.021
2013-05-15,0.021,0.021,0.021,0.021,25000,0.021
2013-05-14,0.02,0.02,0.02,0.02,000,0.02
2013-05-13,0.02,0.02,0.02,0.02,000,0.02
2013-05-10,0.02,0.02,0.02,0.02,000,0.02
2013-05-09,0.02,0.02,0.02,0.02,000,0.02
2013-05-08,0.02,0.02,0.02,0.02,000,0.02
2013-05-07,0.02,0.02,0.02,0.02,000,0.02
2013-05-06,0.02,0.02,0.02,0.02,000,0.02
2013-05-03,0.02,0.02,0.02,0.02,000,0.02
2013-05-02,0.02,0.02,0.02,0.02,000,0.02
2013-05-01,0.02,0.02,0.02,0.02,000,0.02
2013-04-30,0.02,0.02,0.02,0.02,000,0.02
2013-04-29,0.02,0.02,0.02,0.02,000,0.02
2013-04-26,0.02,0.02,0.02,0.02,000,0.02
2013-04-25,0.02,0.02,0.02,0.02,000,0.02
2013-04-24,0.021,0.021,0.02,0.02,178200,0.02
2013-04-23,0.025,0.025,0.02,0.02,1480600,0.02
2013-04-22,0.038,0.038,0.038,0.038,000,0.038
2013-04-19,0.038,0.038,0.038,0.038,000,0.038
2013-04-18,0.038,0.038,0.038,0.038,15000,0.038
2013-04-17,0.04,0.04,0.04,0.04,000,0.04
2013-04-16,0.04,0.04,0.04,0.04,000,0.04
2013-04-15,0.04,0.04,0.04,0.04,000,0.04
2013-04-12,0.04,0.04,0.04,0.04,000,0.04
2013-04-11,0.04,0.04,0.04,0.04,000,0.04
2013-04-10,0.04,0.04,0.04,0.04,000,0.04
2013-04-09,0.04,0.04,0.04,0.04,000,0.04
2013-04-08,0.04,0.04,0.04,0.04,000,0.04
2013-04-05,0.04,0.04,0.04,0.04,100000,0.04
2013-04-04,0.05,0.05,0.045,0.045,50000,0.045
2013-04-03,0.065,0.065,0.065,0.065,000,0.065
2013-04-02,0.065,0.065,0.065,0.065,000,0.065
2013-04-01,0.065,0.065,0.065,0.065,000,0.065
2013-03-29,0.065,0.065,0.065,0.065,000,0.065
2013-03-28,0.065,0.065,0.065,0.065,000,0.065
2013-03-27,0.065,0.065,0.065,0.065,000,0.065
2013-03-26,0.065,0.065,0.065,0.065,000,0.065
2013-03-25,0.065,0.065,0.065,0.065,000,0.065
2013-03-22,0.065,0.065,0.065,0.065,000,0.065
2013-03-21,0.065,0.065,0.065,0.065,000,0.065
2013-03-20,0.065,0.065,0.065,0.065,000,0.065
2013-03-19,0.065,0.065,0.065,0.065,000,0.065
2013-03-18,0.065,0.065,0.065,0.065,000,0.065
2013-03-15,0.065,0.065,0.065,0.065,000,0.065
2013-03-14,0.065,0.065,0.065,0.065,000,0.065
2013-03-13,0.065,0.065,0.065,0.065,000,0.065
2013-03-12,0.065,0.065,0.065,0.065,100000,0.065
2013-03-11,0.09,0.09,0.09,0.09,000,0.09
2013-03-08,0.09,0.09,0.09,0.09,70000,0.09
2013-03-07,0.10,0.10,0.10,0.10,000,0.10
2013-03-06,0.10,0.10,0.10,0.10,000,0.10
2013-03-05,0.10,0.10,0.10,0.10,000,0.10
2013-03-04,0.10,0.10,0.10,0.10,000,0.10
2013-03-01,0.10,0.10,0.10,0.10,000,0.10
2013-02-28,0.10,0.10,0.10,0.10,000,0.10
2013-02-27,0.10,0.10,0.10,0.10,000,0.10
2013-02-26,0.10,0.10,0.10,0.10,000,0.10
2013-02-25,0.10,0.10,0.10,0.10,000,0.10
2013-02-22,0.10,0.10,0.10,0.10,000,0.10
2013-02-21,0.10,0.10,0.10,0.10,000,0.10
2013-02-20,0.10,0.10,0.10,0.10,000,0.10
2013-02-19,0.10,0.10,0.10,0.10,000,0.10
2013-02-18,0.10,0.10,0.10,0.10,000,0.10
2013-02-15,0.10,0.10,0.10,0.10,000,0.10
2013-02-14,0.10,0.10,0.10,0.10,000,0.10
2013-02-13,0.10,0.10,0.10,0.10,000,0.10
2013-02-12,0.10,0.10,0.10,0.10,000,0.10
2013-02-11,0.10,0.10,0.10,0.10,000,0.10
2013-02-08,0.10,0.10,0.10,0.10,000,0.10
2013-02-07,0.10,0.10,0.10,0.10,000,0.10
2013-02-06,0.10,0.10,0.10,0.10,57400,0.10
2013-02-05,0.10,0.10,0.10,0.10,000,0.10
2013-02-04,0.10,0.10,0.10,0.10,20000,0.10
2013-02-01,0.10,0.10,0.10,0.10,20500,0.10
2013-01-31,0.10,0.10,0.10,0.10,000,0.10
2013-01-30,0.10,0.10,0.10,0.10,000,0.10
2013-01-29,0.10,0.10,0.10,0.10,000,0.10
2013-01-28,0.10,0.10,0.10,0.10,000,0.10
2013-01-25,0.10,0.10,0.10,0.10,000,0.10
2013-01-24,0.10,0.10,0.10,0.10,000,0.10
2013-01-23,0.10,0.10,0.10,0.10,25000,0.10
2013-01-22,0.10,0.10,0.10,0.10,000,0.10
2013-01-21,0.10,0.10,0.10,0.10,000,0.10
2013-01-18,0.10,0.10,0.10,0.10,19000,0.10
2013-01-17,0.10,0.10,0.10,0.10,000,0.10
2013-01-16,0.10,0.10,0.10,0.10,000,0.10
2013-01-15,0.10,0.10,0.10,0.10,000,0.10
2013-01-14,0.10,0.10,0.10,0.10,000,0.10
2013-01-11,0.10,0.10,0.10,0.10,000,0.10
2013-01-10,0.10,0.10,0.10,0.10,000,0.10
2013-01-09,0.10,0.10,0.10,0.10,000,0.10
2013-01-08,0.10,0.10,0.10,0.10,280900,0.10
2013-01-07,0.10,0.10,0.10,0.10,000,0.10
2013-01-04,0.10,0.10,0.10,0.10,10000,0.10
2013-01-03,0.10,0.10,0.10,0.10,000,0.10
2013-01-02,0.10,0.10,0.10,0.10,50000,0.10
2013-01-01,0.10,0.10,0.10,0.10,000,0.10
2012-12-31,0.10,0.10,0.10,0.10,000,0.10
2012-12-28,0.10,0.10,0.10,0.10,000,0.10
2012-12-27,0.10,0.10,0.10,0.10,000,0.10
2012-12-26,0.10,0.10,0.10,0.10,000,0.10
2012-12-25,0.10,0.10,0.10,0.10,000,0.10
2012-12-24,0.10,0.10,0.10,0.10,000,0.10
2012-12-21,0.10,0.10,0.10,0.10,220000,0.10
2012-12-20,0.10,0.10,0.10,0.10,000,0.10
2012-12-19,0.10,0.10,0.10,0.10,000,0.10
2012-12-18,0.10,0.10,0.10,0.10,23100,0.10
2012-12-17,0.10,0.10,0.10,0.10,9800,0.10
2012-12-14,0.10,0.10,0.10,0.10,000,0.10
2012-12-13,0.10,0.10,0.10,0.10,2200,0.10
2012-12-12,0.11,0.11,0.11,0.11,64500,0.11
2012-12-11,0.10,0.10,0.10,0.10,000,0.10
2012-12-10,0.10,0.10,0.10,0.10,000,0.10
2012-12-07,0.10,0.10,0.10,0.10,000,0.10
2012-12-06,0.10,0.10,0.10,0.10,000,0.10
2012-12-05,0.10,0.10,0.10,0.10,000,0.10
2012-12-04,0.10,0.10,0.10,0.10,000,0.10
2012-12-03,0.10,0.10,0.10,0.10,000,0.10
2012-11-30,0.10,0.10,0.10,0.10,000,0.10
2012-11-29,0.10,0.10,0.10,0.10,000,0.10
2012-11-28,0.10,0.10,0.10,0.10,000,0.10
2012-11-27,0.10,0.10,0.10,0.10,000,0.10
2012-11-26,0.10,0.10,0.10,0.10,000,0.10
2012-11-23,0.10,0.10,0.10,0.10,000,0.10
2012-11-22,0.10,0.10,0.10,0.10,000,0.10
2012-11-21,0.10,0.10,0.10,0.10,000,0.10
2012-11-20,0.10,0.10,0.10,0.10,000,0.10
2012-11-19,0.10,0.10,0.10,0.10,000,0.10
2012-11-16,0.10,0.10,0.10,0.10,000,0.10
2012-11-15,0.10,0.10,0.10,0.10,000,0.10
2012-11-14,0.10,0.10,0.10,0.10,000,0.10
2012-11-13,0.10,0.10,0.10,0.10,000,0.10
2012-11-12,0.10,0.10,0.10,0.10,000,0.10
2012-11-09,0.10,0.10,0.10,0.10,000,0.10
2012-11-08,0.10,0.10,0.10,0.10,000,0.10
2012-11-07,0.10,0.10,0.10,0.10,000,0.10
2012-11-06,0.10,0.10,0.10,0.10,000,0.10
2012-11-05,0.10,0.10,0.10,0.10,000,0.10
2012-11-02,0.10,0.10,0.10,0.10,000,0.10
2012-11-01,0.10,0.10,0.10,0.10,000,0.10
2012-10-31,0.10,0.10,0.10,0.10,000,0.10
2012-10-30,0.10,0.10,0.10,0.10,000,0.10
2012-10-29,0.10,0.10,0.10,0.10,000,0.10
2012-10-26,0.10,0.10,0.10,0.10,22000,0.10
2012-10-25,0.105,0.105,0.105,0.105,000,0.105
2012-10-24,0.105,0.105,0.105,0.105,000,0.105
2012-10-23,0.105,0.105,0.105,0.105,8000,0.105
2012-10-22,0.105,0.105,0.105,0.105,000,0.105
2012-10-19,0.105,0.105,0.105,0.105,10000,0.105
2012-10-18,0.105,0.105,0.105,0.105,000,0.105
2012-10-17,0.105,0.105,0.105,0.105,000,0.105
2012-10-16,0.105,0.105,0.105,0.105,000,0.105
2012-10-15,0.105,0.105,0.105,0.105,000,0.105
2012-10-12,0.105,0.105,0.105,0.105,000,0.105
2012-10-11,0.105,0.105,0.105,0.105,000,0.105
2012-10-10,0.105,0.105,0.105,0.105,000,0.105
2012-10-09,0.105,0.105,0.105,0.105,14900,0.105
2012-10-08,0.11,0.11,0.11,0.11,000,0.11
2012-10-05,0.11,0.11,0.11,0.11,10400,0.11
2012-10-04,0.11,0.11,0.11,0.11,000,0.11
2012-10-03,0.105,0.11,0.105,0.11,35000,0.11
2012-10-02,0.105,0.11,0.105,0.11,35000,0.11
2012-10-01,0.10,0.10,0.10,0.10,000,0.10
2012-09-28,0.10,0.10,0.10,0.10,000,0.10
2012-09-27,0.10,0.10,0.10,0.10,000,0.10
2012-09-26,0.10,0.10,0.10,0.10,000,0.10
2012-09-25,0.115,0.115,0.10,0.10,36000,0.10
2012-09-24,0.11,0.11,0.11,0.11,000,0.11
2012-09-21,0.11,0.11,0.11,0.11,000,0.11
2012-09-20,0.10,0.11,0.10,0.11,19600,0.11
2012-09-19,0.11,0.11,0.11,0.11,000,0.11
2012-09-18,0.11,0.11,0.11,0.11,4500,0.11
2012-09-17,0.11,0.11,0.11,0.11,000,0.11
2012-09-14,0.11,0.11,0.11,0.11,000,0.11
2012-09-13,0.11,0.11,0.11,0.11,38900,0.11
2012-09-12,0.11,0.11,0.11,0.11,000,0.11
2012-09-11,0.11,0.11,0.11,0.11,29200,0.11
2012-09-10,0.11,0.11,0.11,0.11,51800,0.11
2012-09-07,0.11,0.11,0.11,0.11,20000,0.11
2012-09-06,0.10,0.10,0.10,0.10,000,0.10
2012-09-05,0.10,0.10,0.10,0.10,000,0.10
2012-09-04,0.10,0.10,0.10,0.10,000,0.10
2012-09-03,0.10,0.10,0.10,0.10,000,0.10
2012-08-31,0.10,0.10,0.10,0.10,10000,0.10
2012-08-30,0.10,0.10,0.10,0.10,000,0.10
2012-08-29,0.10,0.10,0.10,0.10,000,0.10
2012-08-28,0.10,0.10,0.10,0.10,000,0.10
2012-08-27,0.10,0.10,0.10,0.10,000,0.10
2012-08-24,0.10,0.10,0.10,0.10,000,0.10
2012-08-23,0.10,0.10,0.10,0.10,000,0.10
2012-08-22,0.10,0.10,0.10,0.10,000,0.10
2012-08-21,0.10,0.10,0.10,0.10,000,0.10
2012-08-20,0.11,0.11,0.10,0.10,28600,0.10
2012-08-17,0.11,0.11,0.11,0.11,1300,0.11
2012-08-16,0.11,0.11,0.11,0.11,25500,0.11
2012-08-15,0.135,0.135,0.135,0.135,52900,0.135
2012-08-14,0.11,0.11,0.11,0.11,000,0.11
2012-08-13,0.11,0.11,0.11,0.11,12000,0.11
2012-08-10,0.10,0.10,0.10,0.10,000,0.10
2012-08-09,0.10,0.10,0.10,0.10,8000,0.10
2012-08-08,0.08,0.08,0.08,0.08,8200,0.08
2012-08-07,0.08,0.08,0.08,0.08,000,0.08
2012-08-06,0.08,0.08,0.08,0.08,000,0.08
2012-08-03,0.08,0.08,0.08,0.08,24500,0.08
2012-08-02,0.10,0.10,0.10,0.10,000,0.10
2012-08-01,0.10,0.10,0.10,0.10,000,0.10
2012-07-31,0.10,0.10,0.10,0.10,000,0.10
2012-07-30,0.10,0.10,0.10,0.10,000,0.10
2012-07-27,0.10,0.10,0.10,0.10,21100,0.10
2012-07-26,0.16,0.16,0.16,0.16,000,0.16
2012-07-25,0.16,0.16,0.16,0.16,000,0.16
2012-07-24,0.16,0.16,0.16,0.16,000,0.16
2012-07-23,0.16,0.16,0.16,0.16,000,0.16
2012-07-20,0.16,0.16,0.16,0.16,000,0.16
2012-07-19,0.16,0.16,0.16,0.16,000,0.16
2012-07-18,0.16,0.16,0.16,0.16,000,0.16
2012-07-17,0.16,0.16,0.16,0.16,000,0.16
2012-07-16,0.16,0.16,0.16,0.16,000,0.16
2012-07-13,0.16,0.16,0.16,0.16,000,0.16
2012-07-12,0.16,0.16,0.16,0.16,000,0.16
2012-07-11,0.16,0.16,0.16,0.16,000,0.16
2012-07-10,0.16,0.16,0.16,0.16,000,0.16
2012-07-09,0.16,0.16,0.16,0.16,000,0.16
2012-07-06,0.16,0.16,0.16,0.16,000,0.16
2012-07-05,0.16,0.16,0.16,0.16,000,0.16
2012-07-04,0.16,0.16,0.16,0.16,000,0.16
2012-07-03,0.16,0.16,0.16,0.16,000,0.16
2012-07-02,0.16,0.16,0.16,0.16,000,0.16
2012-06-29,0.16,0.16,0.16,0.16,000,0.16
2012-06-28,0.16,0.16,0.16,0.16,000,0.16
2012-06-27,0.16,0.16,0.16,0.16,000,0.16
2012-06-26,0.16,0.16,0.16,0.16,000,0.16
2012-06-25,0.16,0.16,0.16,0.16,000,0.16
2012-06-22,0.16,0.16,0.16,0.16,000,0.16
2012-06-21,0.16,0.16,0.16,0.16,000,0.16
2012-06-20,0.16,0.16,0.16,0.16,000,0.16
2012-06-19,0.16,0.16,0.16,0.16,000,0.16
2012-06-18,0.16,0.16,0.16,0.16,000,0.16
2012-06-15,0.16,0.16,0.16,0.16,000,0.16
2012-06-14,0.16,0.16,0.16,0.16,000,0.16
2012-06-13,0.16,0.16,0.16,0.16,000,0.16
2012-06-12,0.16,0.16,0.16,0.16,000,0.16
2012-06-11,0.16,0.16,0.16,0.16,000,0.16
2012-06-08,0.16,0.16,0.16,0.16,000,0.16
2012-06-07,0.16,0.16,0.16,0.16,000,0.16
2012-06-06,0.16,0.16,0.16,0.16,000,0.16
2012-06-05,0.16,0.16,0.16,0.16,000,0.16
2012-06-04,0.16,0.16,0.16,0.16,000,0.16
2012-06-01,0.16,0.16,0.16,0.16,000,0.16
2012-05-31,0.16,0.16,0.16,0.16,000,0.16
2012-05-30,0.16,0.16,0.16,0.16,000,0.16
2012-05-29,0.16,0.16,0.16,0.16,000,0.16
2012-05-28,0.16,0.16,0.16,0.16,000,0.16
2012-05-25,0.16,0.16,0.16,0.16,000,0.16
2012-05-24,0.16,0.16,0.16,0.16,000,0.16
2012-05-23,0.16,0.16,0.16,0.16,000,0.16
2012-05-22,0.16,0.16,0.16,0.16,000,0.16
2012-05-21,0.16,0.16,0.16,0.16,000,0.16
2012-05-18,0.16,0.16,0.16,0.16,000,0.16
2012-05-17,0.16,0.16,0.16,0.16,000,0.16
2012-05-16,0.16,0.16,0.16,0.16,000,0.16
2012-05-15,0.16,0.16,0.16,0.16,000,0.16
2012-05-14,0.16,0.16,0.16,0.16,000,0.16
2012-05-11,0.16,0.16,0.16,0.16,000,0.16
2012-05-10,0.16,0.16,0.16,0.16,000,0.16
2012-05-09,0.16,0.16,0.16,0.16,000,0.16
2012-05-08,0.16,0.16,0.16,0.16,000,0.16
2012-05-07,0.16,0.16,0.16,0.16,000,0.16
2012-05-04,0.16,0.16,0.16,0.16,000,0.16
2012-05-03,0.16,0.16,0.16,0.16,000,0.16
2012-05-02,0.16,0.16,0.16,0.16,000,0.16
2012-05-01,0.16,0.16,0.16,0.16,000,0.16
2012-04-30,0.16,0.16,0.16,0.16,000,0.16
2012-04-27,0.16,0.16,0.16,0.16,000,0.16
2012-04-26,0.16,0.16,0.16,0.16,000,0.16
2012-04-25,0.16,0.16,0.16,0.16,000,0.16
2012-04-24,0.16,0.16,0.16,0.16,000,0.16
2012-04-23,0.16,0.16,0.16,0.16,20000,0.16
2012-04-20,0.16,0.16,0.16,0.16,000,0.16
2012-04-19,0.16,0.16,0.16,0.16,000,0.16
2012-04-18,0.16,0.16,0.16,0.16,25000,0.16
2012-04-17,0.17,0.17,0.17,0.17,000,0.17
2012-04-16,0.17,0.17,0.17,0.17,000,0.17
2012-04-13,0.17,0.17,0.17,0.17,000,0.17
2012-04-12,0.17,0.17,0.17,0.17,000,0.17
2012-04-11,0.16,0.17,0.16,0.17,64000,0.17
2012-04-10,0.175,0.175,0.175,0.175,000,0.175
2012-04-09,0.175,0.175,0.175,0.175,000,0.175
2012-04-06,0.175,0.175,0.175,0.175,000,0.175
2012-04-05,0.175,0.175,0.175,0.175,10000,0.175
2012-04-04,0.16,0.18,0.16,0.18,200000,0.18
2012-04-03,0.14,0.16,0.14,0.15,135900,0.15
2012-04-02,0.075,0.075,0.075,0.075,000,0.075
2012-03-30,0.075,0.075,0.075,0.075,000,0.075
2012-03-29,0.075,0.075,0.075,0.075,000,0.075
2012-03-28,0.075,0.075,0.075,0.075,000,0.075
2012-03-27,0.075,0.075,0.075,0.075,000,0.075
2012-03-26,0.075,0.075,0.075,0.075,000,0.075
2012-03-23,0.075,0.075,0.075,0.075,000,0.075
2012-03-22,0.075,0.075,0.075,0.075,000,0.075
2012-03-21,0.075,0.075,0.075,0.075,000,0.075
2012-03-20,0.075,0.075,0.075,0.075,000,0.075
2012-03-19,0.075,0.075,0.075,0.075,000,0.075
2012-03-16,0.075,0.075,0.075,0.075,000,0.075
2012-03-15,0.075,0.075,0.075,0.075,000,0.075
2012-03-14,0.075,0.075,0.075,0.075,1100,0.075
2012-03-13,0.075,0.075,0.075,0.075,000,0.075
2012-03-12,0.075,0.075,0.075,0.075,000,0.075
2012-03-09,0.075,0.075,0.075,0.075,2500,0.075
2012-03-08,0.081,0.081,0.081,0.081,000,0.081
2012-03-07,0.081,0.081,0.081,0.081,000,0.081
2012-03-06,0.081,0.081,0.081,0.081,000,0.081
2012-03-05,0.075,0.075,0.075,0.075,50000,0.075
2012-03-02,0.081,0.081,0.081,0.081,000,0.081
2012-03-01,0.081,0.081,0.081,0.081,000,0.081
2012-02-29,0.081,0.081,0.081,0.081,000,0.081
2012-02-28,0.081,0.081,0.081,0.081,000,0.081
2012-02-27,0.081,0.081,0.081,0.081,90000,0.081
2012-02-24,0.081,0.081,0.081,0.081,000,0.081
2012-02-23,0.081,0.081,0.081,0.081,000,0.081
2012-02-22,0.081,0.081,0.081,0.081,000,0.081
2012-02-21,0.081,0.081,0.081,0.081,000,0.081
2012-02-20,0.081,0.081,0.081,0.081,000,0.081
2012-02-17,0.081,0.081,0.081,0.081,000,0.081
2012-02-16,0.081,0.081,0.081,0.081,000,0.081
2012-02-15,0.081,0.081,0.081,0.081,10000,0.081
2012-02-14,0.08,0.08,0.08,0.08,000,0.08
2012-02-13,0.08,0.08,0.08,0.08,000,0.08
2012-02-10,0.08,0.08,0.08,0.08,8700,0.08
2012-02-09,0.08,0.08,0.08,0.08,000,0.08
2012-02-08,0.08,0.08,0.08,0.08,000,0.08
2012-02-07,0.08,0.08,0.08,0.08,000,0.08
2012-02-06,0.08,0.08,0.08,0.08,000,0.08
2012-02-03,0.08,0.08,0.08,0.08,000,0.08
2012-02-02,0.08,0.08,0.08,0.08,3200,0.08
2012-02-01,0.08,0.08,0.08,0.08,000,0.08
2012-01-31,0.08,0.08,0.08,0.08,000,0.08
2012-01-27,0.08,0.08,0.08,0.08,000,0.08
2012-01-26,0.08,0.08,0.08,0.08,000,0.08
2012-01-25,0.08,0.08,0.08,0.08,000,0.08
2012-01-24,0.08,0.08,0.08,0.08,10000,0.08
2012-01-23,0.075,0.075,0.075,0.075,000,0.075
2012-01-20,0.075,0.075,0.075,0.075,000,0.075
2012-01-19,0.075,0.075,0.075,0.075,000,0.075
2012-01-18,0.075,0.075,0.075,0.075,000,0.075
2012-01-17,0.075,0.075,0.075,0.075,000,0.075
2012-01-16,0.075,0.075,0.075,0.075,000,0.075
2012-01-13,0.075,0.075,0.075,0.075,000,0.075
2012-01-12,0.075,0.075,0.075,0.075,000,0.075
2012-01-11,0.075,0.075,0.075,0.075,000,0.075
2012-01-10,0.075,0.075,0.075,0.075,000,0.075
2012-01-09,0.075,0.075,0.075,0.075,000,0.075
2012-01-06,0.075,0.075,0.075,0.075,000,0.075
2012-01-05,0.075,0.075,0.075,0.075,000,0.075
2012-01-04,0.075,0.075,0.075,0.075,000,0.075
2012-01-03,0.075,0.075,0.075,0.075,000,0.075
2012-01-02,0.075,0.075,0.075,0.075,000,0.075
2011-12-30,0.075,0.075,0.075,0.075,000,0.075
2011-12-29,0.075,0.075,0.075,0.075,000,0.075
2011-12-28,0.075,0.075,0.075,0.075,000,0.075
2011-12-27,0.075,0.075,0.075,0.075,000,0.075
2011-12-26,0.075,0.075,0.075,0.075,000,0.075
2011-12-23,0.075,0.075,0.075,0.075,000,0.075
2011-12-22,0.075,0.075,0.075,0.075,000,0.075
2011-12-21,0.075,0.075,0.075,0.075,000,0.075
2011-12-20,0.075,0.075,0.075,0.075,6500,0.075
2011-12-19,0.10,0.10,0.10,0.10,000,0.10
2011-12-16,0.10,0.10,0.10,0.10,000,0.10
2011-12-15,0.10,0.10,0.10,0.10,000,0.10
2011-12-14,0.10,0.10,0.10,0.10,000,0.10
2011-12-13,0.10,0.10,0.10,0.10,000,0.10
2011-12-12,0.10,0.10,0.10,0.10,000,0.10
2011-12-09,0.10,0.10,0.10,0.10,3100,0.10
2011-12-08,0.10,0.10,0.10,0.10,000,0.10
2011-12-07,0.10,0.10,0.10,0.10,000,0.10
2011-12-06,0.10,0.10,0.10,0.10,4400,0.10
2011-12-05,0.10,0.10,0.10,0.10,000,0.10
2011-12-02,0.10,0.10,0.10,0.10,000,0.10
2011-12-01,0.10,0.10,0.10,0.10,000,0.10
2011-11-30,0.10,0.10,0.10,0.10,000,0.10
2011-11-29,0.10,0.10,0.10,0.10,000,0.10
2011-11-28,0.10,0.10,0.10,0.10,000,0.10
2011-11-25,0.10,0.10,0.10,0.10,000,0.10
2011-11-24,0.10,0.10,0.10,0.10,000,0.10
2011-11-23,0.10,0.10,0.10,0.10,109900,0.10
2011-11-22,0.10,0.10,0.10,0.10,000,0.10
2011-11-21,0.10,0.10,0.10,0.10,000,0.10
2011-11-18,0.10,0.10,0.10,0.10,000,0.10
2011-11-17,0.10,0.10,0.10,0.10,20000,0.10
2011-11-11,0.10,0.10,0.10,0.10,7500,0.10
2011-11-03,0.12,0.12,0.12,0.12,5700,0.12
2011-10-26,0.12,0.12,0.12,0.12,2100,0.12
2011-10-03,0.12,0.12,0.12,0.12,16500,0.12
2011-09-30,0.12,0.12,0.12,0.12,800,0.12
2011-09-26,0.12,0.12,0.12,0.12,57500,0.12
2011-09-15,0.13,0.13,0.125,0.125,25000,0.125
2011-09-14,0.13,0.13,0.13,0.13,4900,0.13
2011-09-13,0.125,0.125,0.125,0.125,6000,0.125
2011-09-09,0.125,0.125,0.12,0.12,16500,0.12
2011-09-08,0.125,0.125,0.12,0.12,25000,0.12
2011-08-17,0.15,0.15,0.15,0.15,400,0.15
2011-07-07,0.16,0.16,0.16,0.16,000,0.16
2011-07-04,0.14,0.14,0.14,0.14,34100,0.14
2011-06-30,0.14,0.14,0.14,0.14,20000,0.14
2011-06-29,0.15,0.15,0.15,0.15,10000,0.15
2011-06-17,0.15,0.15,0.15,0.15,50000,0.15
2011-06-09,0.155,0.155,0.155,0.155,10000,0.155
2011-06-08,0.16,0.16,0.16,0.16,10000,0.16
2011-06-07,0.15,0.15,0.15,0.15,600,0.15
2011-06-06,0.15,0.15,0.15,0.15,6100,0.15
2011-06-01,0.15,0.15,0.15,0.15,100000,0.15
2011-05-25,0.15,0.15,0.15,0.15,98800,0.15
2011-05-19,0.16,0.16,0.16,0.16,20000,0.16
2011-05-16,0.17,0.17,0.16,0.17,71300,0.17
2011-05-11,0.17,0.17,0.17,0.17,4000,0.17
2011-05-10,0.17,0.17,0.17,0.17,35000,0.17
2011-05-06,0.17,0.17,0.17,0.17,1200,0.17
2011-05-05,0.16,0.16,0.16,0.16,48700,0.16
2011-05-03,0.17,0.17,0.17,0.17,10000,0.17
2011-04-29,0.17,0.17,0.17,0.17,4100,0.17
2011-04-28,0.18,0.18,0.17,0.17,60000,0.17
2011-04-15,0.18,0.18,0.18,0.18,10000,0.18
2011-04-08,0.215,0.215,0.215,0.215,600,0.215
2011-04-07,0.175,0.175,0.175,0.175,25000,0.175
2011-04-05,0.175,0.175,0.175,0.175,41200,0.175
2011-03-31,0.175,0.175,0.175,0.175,4700,0.175
2011-03-29,0.175,0.175,0.175,0.175,20000,0.175
2011-03-25,0.175,0.175,0.175,0.175,900,0.175
2011-03-23,0.19,0.19,0.19,0.19,000,0.19
2011-03-22,0.21,0.21,0.21,0.21,12000,0.21
2011-03-21,0.20,0.20,0.20,0.20,60000,0.20
2011-03-18,0.19,0.19,0.19,0.19,94200,0.19
2011-03-15,0.205,0.21,0.20,0.21,20300,0.21
2011-03-07,0.20,0.215,0.20,0.215,39200,0.215
2011-03-03,0.205,0.205,0.20,0.20,224000,0.20
2011-02-28,0.21,0.21,0.205,0.205,10000,0.205
2011-02-25,0.21,0.21,0.21,0.21,11700,0.21
2011-02-22,0.21,0.21,0.21,0.21,48200,0.21
2011-02-11,0.22,0.22,0.22,0.22,136300,0.22
2011-02-10,0.22,0.22,0.22,0.22,33000,0.22
2011-02-09,0.22,0.22,0.22,0.22,66600,0.22
2011-02-08,0.22,0.22,0.22,0.22,10000,0.22
2011-02-07,0.22,0.22,0.22,0.22,40000,0.22
2011-02-04,0.21,0.21,0.205,0.205,10000,0.205
2011-02-03,0.21,0.21,0.21,0.21,20000,0.21
2011-01-27,0.205,0.205,0.205,0.205,55000,0.205
2011-01-25,0.205,0.205,0.205,0.205,15000,0.205
2011-01-21,0.23,0.23,0.205,0.205,197900,0.205
2011-01-19,0.235,0.24,0.235,0.235,82400,0.235
2011-01-18,0.24,0.24,0.23,0.23,28100,0.23
2011-01-17,0.23,0.23,0.23,0.23,17800,0.23
2011-01-14,0.245,0.245,0.23,0.23,110700,0.23
2011-01-11,0.245,0.245,0.245,0.245,43000,0.245
2011-01-04,0.255,0.255,0.255,0.255,15700,0.255
2010-12-31,0.255,0.255,0.25,0.25,81900,0.25
2010-12-23,0.26,0.26,0.26,0.26,22500,0.26
2010-12-21,0.27,0.28,0.27,0.28,18600,0.28
2010-12-17,0.255,0.28,0.255,0.28,85700,0.28
2010-12-16,0.28,0.28,0.28,0.28,35000,0.28
2010-12-15,0.26,0.30,0.26,0.30,272200,0.30
2010-12-14,0.24,0.24,0.23,0.23,78700,0.23
2010-12-13,0.24,0.24,0.24,0.24,15500,0.24
2010-12-10,0.24,0.24,0.24,0.24,20000,0.24
2010-12-08,0.24,0.24,0.24,0.24,22000,0.24
2010-12-07,0.25,0.26,0.25,0.25,35500,0.25
2010-12-06,0.24,0.25,0.24,0.25,45200,0.25
2010-12-03,0.24,0.24,0.24,0.24,4000,0.24
2010-12-02,0.23,0.23,0.23,0.23,6000,0.23
2010-12-01,0.25,0.25,0.23,0.23,12000,0.23
2010-11-29,0.265,0.265,0.25,0.25,56000,0.25
2010-11-26,0.265,0.265,0.255,0.255,60000,0.255
2010-11-25,0.275,0.275,0.275,0.275,7400,0.275
2010-11-24,0.285,0.285,0.275,0.275,52300,0.275
2010-11-23,0.28,0.285,0.265,0.285,211100,0.285
2010-11-22,0.29,0.29,0.28,0.28,228200,0.28
2010-11-19,0.25,0.28,0.25,0.28,97500,0.28
2010-11-18,0.25,0.25,0.25,0.25,8600,0.25
2010-11-16,0.225,0.235,0.225,0.225,40000,0.225
2010-11-12,0.22,0.24,0.21,0.21,61500,0.21
2010-11-11,0.215,0.22,0.215,0.22,158000,0.22
2010-11-10,0.21,0.215,0.21,0.215,394200,0.215
2010-11-09,0.21,0.21,0.21,0.21,325700,0.21
2010-11-08,0.205,0.21,0.205,0.21,228000,0.21
2010-11-05,0.21,0.21,0.205,0.21,333900,0.21
2010-11-04,0.205,0.205,0.205,0.205,105000,0.205
2010-11-01,0.20,0.20,0.20,0.20,4900,0.20
2010-10-28,0.20,0.20,0.20,0.20,10000,0.20
2010-10-27,0.20,0.20,0.20,0.20,55000,0.20
2010-10-26,0.20,0.20,0.20,0.20,10000,0.20
2010-10-22,0.21,0.21,0.20,0.20,34800,0.20
2010-10-21,0.21,0.21,0.21,0.21,30000,0.21
2010-10-20,0.21,0.21,0.21,0.21,6000,0.21
2010-10-13,0.20,0.21,0.20,0.21,305000,0.21
2010-10-07,0.20,0.20,0.20,0.20,2500,0.20
2010-10-06,0.20,0.20,0.20,0.20,509500,0.20
2010-10-05,0.195,0.195,0.195,0.195,60000,0.195
2010-10-01,0.20,0.20,0.20,0.20,15000,0.20
2010-09-30,0.20,0.20,0.20,0.20,40000,0.20
2010-09-29,0.19,0.195,0.19,0.195,220200,0.195
2010-09-28,0.19,0.19,0.19,0.19,15000,0.19
2010-09-27,0.195,0.195,0.195,0.195,27700,0.195
2010-09-22,0.19,0.195,0.19,0.195,6100,0.195
2010-09-20,0.195,0.195,0.195,0.195,6000,0.195
2010-09-14,0.19,0.19,0.19,0.19,10000,0.19
2010-09-07,0.20,0.20,0.20,0.20,100000,0.20
2010-09-03,0.19,0.19,0.19,0.19,8000,0.19
2010-09-01,0.19,0.20,0.19,0.20,27000,0.20
2010-08-31,0.20,0.20,0.19,0.20,60500,0.20
2010-08-25,0.19,0.20,0.19,0.20,37600,0.20
2010-08-24,0.19,0.19,0.19,0.19,10000,0.19
2010-08-20,0.20,0.20,0.20,0.20,190000,0.20
2010-08-19,0.195,0.195,0.195,0.195,10000,0.195
2010-08-17,0.19,0.19,0.19,0.19,50000,0.19
2010-08-16,0.195,0.195,0.19,0.19,10000,0.19
2010-08-13,0.20,0.20,0.20,0.20,32500,0.20
2010-08-12,0.20,0.20,0.19,0.19,75000,0.19
2010-08-11,0.20,0.205,0.20,0.205,150700,0.205
2010-08-09,0.19,0.19,0.19,0.19,50000,0.19
2010-08-05,0.20,0.205,0.20,0.20,141200,0.20
