Date,Open,High,Low,Close,Volume,Adj Close
2016-12-09,6.28,6.28,6.28,6.28,000,6.28
2016-12-08,6.28,6.28,6.28,6.28,000,6.28
2016-12-07,6.28,6.28,6.28,6.28,000,6.28
2016-12-06,6.28,6.28,6.28,6.28,000,6.28
2016-12-05,6.28,6.28,6.28,6.28,000,6.28
2016-12-02,6.28,6.28,6.28,6.28,000,6.28
2016-12-01,6.28,6.28,6.28,6.28,000,6.28
2016-11-30,6.28,6.28,6.28,6.28,000,6.28
2016-11-29,6.28,6.28,6.28,6.28,000,6.28
2016-11-28,6.28,6.28,6.28,6.28,000,6.28
2016-11-25,6.28,6.28,6.28,6.28,000,6.28
2016-11-24,6.28,6.28,6.28,6.28,000,6.28
2016-11-23,6.28,6.28,6.28,6.28,000,6.28
2016-11-22,6.28,6.28,6.28,6.28,000,6.28
2016-11-21,6.28,6.28,6.28,6.28,000,6.28
2016-11-18,6.28,6.28,6.28,6.28,000,6.28
2016-11-17,6.28,6.28,6.28,6.28,000,6.28
2016-11-16,6.28,6.28,6.28,6.28,000,6.28
2016-11-15,6.28,6.28,6.28,6.28,000,6.28
2016-11-14,6.28,6.28,6.28,6.28,000,6.28
2016-11-11,6.68,6.68,6.68,6.68,000,6.68
2016-11-10,6.68,6.68,6.68,6.68,000,6.68
2016-11-09,6.68,6.68,6.68,6.68,000,6.68
2016-11-08,6.68,6.68,6.68,6.68,000,6.68
2016-11-07,6.68,6.68,6.68,6.68,000,6.68
2016-11-04,6.68,6.68,6.68,6.68,000,6.68
2016-11-03,6.68,6.68,6.68,6.68,000,6.68
2016-11-02,6.68,6.68,6.68,6.68,000,6.68
2016-11-01,6.68,6.68,6.68,6.68,000,6.68
2016-10-31,6.68,6.68,6.68,6.68,000,6.68
2016-10-28,6.68,6.68,6.68,6.68,500,6.68
2016-10-27,5.90,5.90,5.90,5.90,000,5.90
2016-10-26,5.90,5.90,5.90,5.90,000,5.90
2016-10-25,5.90,5.90,5.90,5.90,000,5.90
2016-10-24,5.90,5.90,5.90,5.90,000,5.90
2016-10-21,5.90,5.90,5.90,5.90,000,5.90
2016-10-20,5.90,5.90,5.90,5.90,000,5.90
2016-10-19,5.90,5.90,5.90,5.90,000,5.90
2016-10-18,5.90,5.90,5.90,5.90,000,5.90
2016-10-17,5.90,5.90,5.90,5.90,000,5.90
2016-10-14,5.90,5.90,5.90,5.90,000,5.90
2016-10-13,5.90,5.90,5.90,5.90,000,5.90
2016-10-12,5.90,5.90,5.90,5.90,000,5.90
2016-10-11,5.90,5.90,5.90,5.90,000,5.90
2016-10-10,5.90,5.90,5.90,5.90,000,5.90
2016-10-07,5.90,5.90,5.90,5.90,000,5.90
2016-10-06,5.90,5.90,5.90,5.90,000,5.90
2016-10-05,5.90,5.90,5.90,5.90,000,5.90
2016-10-04,5.90,5.90,5.90,5.90,000,5.90
2016-10-03,5.90,5.90,5.90,5.90,000,5.90
2016-09-30,5.90,5.90,5.90,5.90,000,5.90
2016-09-29,5.90,5.90,5.90,5.90,000,5.90
2016-09-28,5.90,5.90,5.90,5.90,2700,5.90
2016-09-27,5.90,5.90,5.90,5.90,300,5.90
2016-09-26,5.90,5.90,5.90,5.90,000,5.90
2016-09-23,5.90,5.90,5.90,5.90,000,5.90
2016-09-22,5.90,5.90,5.90,5.90,000,5.90
2016-09-21,5.90,5.90,5.90,5.90,000,5.90
2016-09-20,5.90,5.90,5.90,5.90,000,5.90
2016-09-19,5.90,5.90,5.90,5.90,000,5.90
2016-09-16,5.90,5.90,5.90,5.90,000,5.90
2016-09-15,5.90,5.90,5.90,5.90,000,5.90
2016-09-14,5.90,5.90,5.90,5.90,000,5.90
2016-09-13,5.90,5.90,5.90,5.90,000,5.90
2016-09-12,5.90,5.90,5.90,5.90,000,5.90
2016-09-09,5.90,5.90,5.90,5.90,000,5.90
2016-09-08,5.90,5.90,5.90,5.90,000,5.90
2016-09-07,5.80,5.80,5.80,5.80,000,5.80
2016-09-06,5.80,5.80,5.80,5.80,1700,5.80
2016-09-05,5.37,5.37,5.37,5.37,000,5.37
2016-09-02,5.37,5.37,5.37,5.37,200,5.37
2016-09-01,5.37,5.37,5.37,5.37,000,5.37
2016-08-31,5.37,5.37,5.37,5.37,000,5.37
2016-08-30,5.37,5.37,5.37,5.37,000,5.37
2016-08-29,5.37,5.37,5.37,5.37,000,5.37
2016-08-26,5.37,5.37,5.37,5.37,000,5.37
2016-08-25,5.37,5.37,5.37,5.37,000,5.37
2016-08-24,5.37,5.37,5.37,5.37,000,5.37
2016-08-23,5.37,5.37,5.37,5.37,300,5.37
2016-08-22,5.37,5.37,5.37,5.37,000,5.37
2016-08-19,5.37,5.37,5.37,5.37,000,5.37
2016-08-18,5.37,5.37,5.37,5.37,000,5.37
2016-08-17,5.37,5.37,5.37,5.37,000,5.37
2016-08-16,5.37,5.37,5.37,5.37,000,5.37
2016-08-15,5.37,5.37,5.37,5.37,000,5.37
2016-08-12,5.37,5.37,5.37,5.37,000,5.37
2016-08-11,5.37,5.37,5.37,5.37,000,5.37
2016-08-10,5.37,5.37,5.37,5.37,000,5.37
2016-08-09,5.37,5.37,5.37,5.37,000,5.37
2016-08-08,5.37,5.37,5.37,5.37,000,5.37
2016-08-05,5.37,5.37,5.37,5.37,000,5.37
2016-08-04,5.37,5.37,5.37,5.37,000,5.37
2016-08-03,5.37,5.37,5.37,5.37,000,5.37
2016-08-02,5.37,5.37,5.37,5.37,000,5.37
2016-08-01,5.37,5.37,5.37,5.37,000,5.37
2016-07-29,5.37,5.37,5.37,5.37,000,5.37
2016-07-28,5.37,5.37,5.37,5.37,000,5.37
2016-07-27,5.37,5.37,5.37,5.37,000,5.37
2016-07-26,5.37,5.37,5.37,5.37,000,5.37
2016-07-25,5.37,5.37,5.37,5.37,000,5.37
2016-07-22,5.37,5.37,5.37,5.37,000,5.37
2016-07-21,5.37,5.37,5.37,5.37,000,5.37
2016-07-20,5.37,5.37,5.37,5.37,000,5.37
2016-07-19,5.37,5.37,5.37,5.37,000,5.37
2016-07-18,5.37,5.37,5.37,5.37,000,5.37
2016-07-15,5.37,5.37,5.37,5.37,000,5.37
2016-07-14,5.37,5.37,5.37,5.37,000,5.37
2016-07-13,5.37,5.37,5.37,5.37,000,5.37
2016-07-12,5.37,5.37,5.37,5.37,000,5.37
2016-07-11,5.37,5.37,5.37,5.37,000,5.37
2016-07-08,5.37,5.37,5.37,5.37,000,5.37
2016-07-07,5.37,5.37,5.37,5.37,000,5.37
2016-07-06,5.37,5.37,5.37,5.37,200,5.37
2016-07-05,5.50,5.50,5.50,5.50,000,5.50
2016-07-04,5.50,5.50,5.50,5.50,000,5.50
2016-07-01,5.50,5.50,5.50,5.50,000,5.50
2016-06-30,5.50,5.50,5.50,5.50,000,5.50
2016-06-29,5.50,5.50,5.50,5.50,000,5.50
2016-06-28,5.50,5.50,5.50,5.50,000,5.50
2016-06-27,5.50,5.50,5.50,5.50,000,5.50
2016-06-24,5.50,5.50,5.50,5.50,000,5.50
2016-06-23,5.50,5.50,5.50,5.50,000,5.50
2016-06-22,5.50,5.50,5.50,5.50,000,5.50
2016-06-21,5.50,5.50,5.50,5.50,000,5.50
2016-06-20,5.50,5.50,5.50,5.50,5700,5.50
2016-06-17,5.50,5.50,5.50,5.50,300,5.50
2016-06-16,5.80,5.80,5.80,5.80,000,5.80
2016-06-15,5.80,5.80,5.80,5.80,000,5.80
2016-06-14,5.80,5.80,5.80,5.80,1500,5.80
2016-06-13,6.20,6.20,6.20,6.20,000,6.20
2016-06-10,6.20,6.20,6.20,6.20,000,6.20
2016-06-09,6.20,6.20,6.20,6.20,000,6.20
2016-06-08,6.20,6.20,6.20,6.20,000,6.20
2016-06-07,6.20,6.20,6.20,6.20,000,6.20
2016-06-06,6.20,6.20,6.20,6.20,000,6.20
2016-06-03,6.20,6.20,6.20,6.20,000,6.20
2016-06-02,6.20,6.20,6.20,6.20,000,6.20
2016-06-01,6.20,6.20,6.20,6.20,000,6.20
2016-05-31,6.20,6.20,6.20,6.20,000,6.20
2016-05-30,6.20,6.20,6.20,6.20,000,6.20
2016-05-27,6.20,6.20,6.20,6.20,000,6.20
2016-05-26,6.20,6.20,6.20,6.20,000,6.20
2016-05-25,6.20,6.20,6.20,6.20,000,6.20
2016-05-24,6.20,6.20,6.20,6.20,000,6.20
2016-05-23,6.20,6.20,6.20,6.20,000,6.20
2016-05-20,6.20,6.20,6.20,6.20,000,6.20
2016-05-19,6.20,6.20,6.20,6.20,000,6.20
2016-05-18,6.20,6.20,6.20,6.20,000,6.20
2016-05-17,6.20,6.20,6.20,6.20,000,6.20
2016-05-16,6.20,6.20,6.20,6.20,000,6.20
2016-05-13,6.20,6.20,6.20,6.20,000,6.20
2016-05-12,6.20,6.20,6.20,6.20,000,6.20
2016-05-11,6.20,6.20,6.20,6.20,000,6.20
2016-05-10,6.20,6.20,6.20,6.20,000,6.20
2016-05-09,6.20,6.20,6.20,6.20,000,6.20
2016-05-06,6.20,6.20,6.20,6.20,000,6.20
2016-05-05,6.20,6.20,6.20,6.20,000,6.20
2016-05-04,6.20,6.20,6.20,6.20,000,6.20
2016-05-03,6.20,6.20,6.20,6.20,000,6.20
2016-05-02,6.20,6.20,6.20,6.20,000,6.20
2016-04-29,6.20,6.20,6.20,6.20,000,6.20
2016-04-28,6.20,6.20,6.20,6.20,000,6.20
2016-04-27,6.20,6.20,6.20,6.20,000,6.20
2016-04-26,6.20,6.20,6.20,6.20,000,6.20
2016-04-25,6.20,6.20,6.20,6.20,000,6.20
2016-04-22,6.20,6.20,6.20,6.20,000,6.20
2016-04-21,6.20,6.20,6.20,6.20,000,6.20
2016-04-20,6.20,6.20,6.20,6.20,000,6.20
2016-04-19,6.20,6.20,6.20,6.20,000,6.20
2016-04-18,6.20,6.20,6.20,6.20,000,6.20
2016-04-15,6.20,6.20,6.20,6.20,000,6.20
2016-04-14,6.20,6.20,6.20,6.20,000,6.20
2016-04-13,6.20,6.20,6.20,6.20,000,6.20
2016-04-12,6.20,6.20,6.20,6.20,000,6.20
2016-04-11,6.20,6.20,6.20,6.20,000,6.20
2016-04-08,6.20,6.20,6.20,6.20,000,6.20
2016-04-07,6.20,6.20,6.20,6.20,000,6.20
2016-04-06,6.20,6.20,6.20,6.20,000,6.20
2016-04-05,6.20,6.20,6.20,6.20,000,6.20
2016-04-04,6.20,6.20,6.20,6.20,000,6.20
2016-04-01,6.20,6.20,6.20,6.20,000,6.20
2016-03-31,6.20,6.20,6.20,6.20,000,6.20
2016-03-30,6.20,6.20,6.20,6.20,000,6.20
2016-03-29,6.20,6.20,6.20,6.20,000,6.20
2016-03-28,6.20,6.20,6.20,6.20,000,6.20
2016-03-25,6.20,6.20,6.20,6.20,000,6.20
2016-03-24,6.20,6.20,6.20,6.20,000,6.20
2016-03-23,6.20,6.20,6.20,6.20,000,6.20
2016-03-22,6.20,6.20,6.20,6.20,000,6.20
2016-03-21,6.20,6.20,6.20,6.20,000,6.20
2016-03-18,6.20,6.20,6.20,6.20,000,6.20
2016-03-17,6.20,6.20,6.20,6.20,000,6.20
2016-03-16,6.20,6.20,6.20,6.20,000,6.20
2016-03-15,6.20,6.20,6.20,6.20,000,6.20
2016-03-14,6.20,6.20,6.20,6.20,000,6.20
2016-03-11,6.20,6.20,6.20,6.20,000,6.20
2016-03-10,6.20,6.20,6.20,6.20,000,6.20
2016-03-09,6.20,6.20,6.20,6.20,000,6.20
2016-03-08,6.20,6.20,6.20,6.20,000,6.20
2016-03-07,6.20,6.20,6.20,6.20,000,6.20
2016-03-04,6.20,6.20,6.20,6.20,000,6.20
2016-03-03,6.20,6.20,6.20,6.20,000,6.20
2016-03-02,6.20,6.20,6.20,6.20,000,6.20
2016-03-01,6.20,6.20,6.20,6.20,000,6.20
2016-02-29,6.20,6.20,6.20,6.20,000,6.20
2016-02-26,6.20,6.20,6.20,6.20,000,6.20
2016-02-25,6.20,6.20,6.20,6.20,000,6.20
2016-02-24,6.20,6.20,6.20,6.20,000,6.20
2016-02-23,6.20,6.20,6.20,6.20,000,6.20
2016-02-22,6.20,6.20,6.20,6.20,000,6.20
2016-02-19,6.20,6.20,6.20,6.20,000,6.20
2016-02-18,6.20,6.20,6.20,6.20,000,6.20
2016-02-17,6.20,6.20,6.20,6.20,000,6.20
2016-02-16,6.20,6.20,6.20,6.20,000,6.20
2016-02-15,6.20,6.20,6.20,6.20,000,6.20
2016-02-12,6.20,6.20,6.20,6.20,000,6.20
2016-02-11,6.20,6.20,6.20,6.20,000,6.20
2016-02-10,6.20,6.20,6.20,6.20,000,6.20
2016-02-09,6.20,6.20,6.20,6.20,000,6.20
2016-02-08,6.20,6.20,6.20,6.20,000,6.20
2016-02-05,6.20,6.20,6.20,6.20,000,6.20
2016-02-04,6.20,6.20,6.20,6.20,000,6.20
2016-02-03,6.20,6.20,6.20,6.20,000,6.20
2016-02-02,6.20,6.20,6.20,6.20,000,6.20
2016-02-01,6.20,6.20,6.20,6.20,500,6.20
2016-01-29,6.20,6.20,6.20,6.20,000,6.20
2016-01-28,6.20,6.20,6.20,6.20,000,6.20
2016-01-27,6.20,6.20,6.20,6.20,000,6.20
2016-01-26,6.20,6.20,6.20,6.20,000,6.20
2016-01-25,6.20,6.20,6.20,6.20,000,6.20
2016-01-22,6.20,6.20,6.20,6.20,000,6.20
2016-01-21,6.20,6.20,6.20,6.20,000,6.20
2016-01-20,6.20,6.20,6.20,6.20,000,6.20
2016-01-19,6.20,6.20,6.20,6.20,000,6.20
2016-01-18,6.20,6.20,6.20,6.20,1300,6.20
2016-01-15,6.20,6.20,6.20,6.20,1600,6.20
2016-01-14,6.20,6.20,6.20,6.20,000,6.20
2016-01-13,6.20,6.20,6.20,6.20,100,6.20
2016-01-12,6.00,6.00,6.00,6.00,100,6.00
2016-01-11,5.75,5.75,5.75,5.75,000,5.75
2016-01-08,5.75,5.75,5.75,5.75,000,5.75
2016-01-07,5.75,5.75,5.75,5.75,000,5.75
2016-01-06,5.75,5.75,5.75,5.75,5500,5.75
2016-01-05,5.50,5.50,5.50,5.50,500,5.50
2016-01-04,5.75,5.75,5.75,5.75,000,5.75
2016-01-01,5.75,5.75,5.75,5.75,000,5.75
2015-12-31,5.75,5.75,5.75,5.75,000,5.75
2015-12-30,5.75,5.75,5.75,5.75,000,5.75
2015-12-29,5.75,5.75,5.75,5.75,000,5.75
2015-12-28,5.75,5.75,5.75,5.75,000,5.75
2015-12-25,5.75,5.75,5.75,5.75,000,5.75
2015-12-24,5.75,5.75,5.75,5.75,000,5.75
2015-12-23,5.75,5.75,5.75,5.75,1700,5.75
2015-12-22,5.75,5.75,5.75,5.75,200,5.75
2015-12-21,6.00,6.00,6.00,6.00,000,6.00
2015-12-18,6.00,6.00,6.00,6.00,000,6.00
2015-12-17,6.00,6.00,6.00,6.00,000,6.00
2015-12-16,6.00,6.00,6.00,6.00,000,6.00
2015-12-15,6.00,6.00,6.00,6.00,000,6.00
2015-12-14,6.00,6.00,6.00,6.00,000,6.00
2015-12-11,6.00,6.00,6.00,6.00,000,6.00
2015-12-10,6.00,6.00,6.00,6.00,1000,6.00
2015-12-09,6.15,6.15,6.15,6.15,000,6.15
2015-12-08,6.15,6.15,6.15,6.15,000,6.15
2015-12-07,6.15,6.15,6.15,6.15,000,6.15
2015-12-04,6.15,6.15,6.15,6.15,000,6.15
2015-12-03,6.15,6.15,6.15,6.15,000,6.15
2015-12-02,6.15,6.15,6.15,6.15,000,6.15
2015-12-01,6.15,6.15,6.15,6.15,000,6.15
2015-11-30,6.15,6.15,6.15,6.15,000,6.15
2015-11-27,6.15,6.15,6.15,6.15,000,6.15
2015-11-26,6.15,6.15,6.15,6.15,000,6.15
2015-11-25,6.15,6.15,6.15,6.15,000,6.15
2015-11-24,6.15,6.15,6.15,6.15,000,6.15
2015-11-23,6.15,6.15,6.15,6.15,000,6.15
2015-11-20,6.15,6.15,6.15,6.15,000,6.15
2015-11-19,6.15,6.15,6.15,6.15,000,6.15
2015-11-18,6.15,6.15,6.15,6.15,000,6.15
2015-11-17,6.15,6.15,6.15,6.15,000,6.15
2015-11-16,6.15,6.15,6.15,6.15,000,6.15
2015-11-13,6.15,6.15,6.15,6.15,000,6.15
2015-11-12,6.15,6.15,6.15,6.15,000,6.15
2015-11-11,6.15,6.15,6.15,6.15,000,6.15
2015-11-10,6.15,6.15,6.15,6.15,000,6.15
2015-11-09,6.15,6.15,6.15,6.15,000,6.15
2015-11-06,6.15,6.15,6.15,6.15,000,6.15
2015-11-05,6.15,6.15,6.15,6.15,000,6.15
2015-11-04,6.15,6.15,6.15,6.15,000,6.15
2015-11-03,6.15,6.15,6.15,6.15,000,6.15
2015-11-02,6.15,6.15,6.15,6.15,000,6.15
2015-10-30,6.15,6.15,6.15,6.15,000,6.15
2015-10-29,6.15,6.15,6.15,6.15,000,6.15
2015-10-28,6.15,6.15,6.15,6.15,000,6.15
2015-10-27,6.15,6.15,6.15,6.15,000,6.15
2015-10-26,6.15,6.15,6.15,6.15,000,6.15
2015-10-23,6.15,6.15,6.15,6.15,000,6.15
2015-10-22,6.15,6.15,6.15,6.15,000,6.15
2015-10-21,6.15,6.15,6.15,6.15,000,6.15
2015-10-20,6.15,6.15,6.15,6.15,000,6.15
2015-10-19,6.15,6.15,6.15,6.15,100,6.15
2015-10-16,6.30,6.30,6.30,6.30,000,6.30
2015-10-15,6.30,6.30,6.30,6.30,000,6.30
2015-10-14,6.30,6.30,6.30,6.30,000,6.30
2015-10-13,6.30,6.30,6.30,6.30,000,6.30
2015-10-12,6.30,6.30,6.30,6.30,000,6.30
2015-10-09,6.30,6.30,6.30,6.30,000,6.30
2015-10-08,6.30,6.30,6.30,6.30,000,6.30
2015-10-07,6.30,6.30,6.30,6.30,000,6.30
2015-10-06,6.30,6.30,6.30,6.30,000,6.30
2015-10-05,6.30,6.30,6.30,6.30,000,6.30
2015-10-02,6.30,6.30,6.30,6.30,000,6.30
2015-10-01,6.30,6.30,6.30,6.30,000,6.30
2015-09-30,6.30,6.30,6.30,6.30,000,6.30
2015-09-29,6.30,6.30,6.30,6.30,000,6.30
2015-09-28,6.30,6.30,6.30,6.30,000,6.30
2015-09-25,6.30,6.30,6.30,6.30,000,6.30
2015-09-24,6.30,6.30,6.30,6.30,000,6.30
2015-09-23,6.30,6.30,6.30,6.30,000,6.30
2015-09-22,6.30,6.30,6.30,6.30,000,6.30
2015-09-21,6.30,6.30,6.30,6.30,000,6.30
2015-09-18,6.30,6.30,6.30,6.30,000,6.30
2015-09-17,6.30,6.30,6.30,6.30,000,6.30
2015-09-16,6.30,6.30,6.30,6.30,000,6.30
2015-09-15,6.30,6.30,6.30,6.30,000,6.30
2015-09-14,6.30,6.30,6.30,6.30,000,6.30
2015-09-11,6.30,6.30,6.30,6.30,000,6.30
2015-09-10,6.30,6.30,6.30,6.30,000,6.30
2015-09-09,6.30,6.30,6.30,6.30,000,6.30
2015-09-08,6.30,6.30,6.30,6.30,000,6.30
2015-09-07,6.30,6.30,6.30,6.30,000,6.30
2015-09-04,6.30,6.30,6.30,6.30,000,6.30
2015-09-03,6.30,6.30,6.30,6.30,000,6.30
2015-09-02,6.30,6.30,6.30,6.30,000,6.30
2015-09-01,6.30,6.30,6.30,6.30,000,6.30
2015-08-31,6.30,6.30,6.30,6.30,000,6.30
2015-08-28,6.30,6.30,6.30,6.30,000,6.30
2015-08-27,6.30,6.30,6.30,6.30,000,6.30
2015-08-26,6.30,6.30,6.30,6.30,000,6.30
2015-08-25,6.30,6.30,6.30,6.30,000,6.30
2015-08-24,6.30,6.30,6.30,6.30,000,6.30
2015-08-20,6.30,6.30,6.30,6.30,000,6.30
2015-08-19,6.30,6.30,6.30,6.30,000,6.30
2015-08-18,6.30,6.30,6.30,6.30,000,6.30
2015-08-17,6.30,6.30,6.30,6.30,000,6.30
2015-08-14,6.30,6.30,6.30,6.30,200,6.30
2015-08-13,6.51,6.51,6.51,6.51,000,6.51
2015-08-12,6.51,6.51,6.51,6.51,000,6.51
2015-08-11,6.51,6.51,6.51,6.51,000,6.51
2015-08-10,6.51,6.51,6.51,6.51,000,6.51
2015-08-07,6.51,6.51,6.51,6.51,000,6.51
2015-08-06,6.51,6.51,6.51,6.51,000,6.51
2015-08-05,6.51,6.51,6.51,6.51,000,6.51
2015-08-04,6.51,6.51,6.51,6.51,000,6.51
2015-08-03,6.51,6.51,6.51,6.51,000,6.51
2015-07-31,6.51,6.51,6.51,6.51,000,6.51
2015-07-30,6.51,6.51,6.51,6.51,000,6.51
2015-07-29,6.51,6.51,6.51,6.51,000,6.51
2015-07-28,6.51,6.51,6.51,6.51,000,6.51
2015-07-27,6.51,6.51,6.51,6.51,000,6.51
2015-07-24,6.51,6.51,6.51,6.51,000,6.51
2015-07-23,6.51,6.51,6.51,6.51,000,6.51
2015-07-22,6.51,6.51,6.51,6.51,000,6.51
2015-07-21,6.51,6.51,6.51,6.51,000,6.51
2015-07-20,6.51,6.51,6.51,6.51,000,6.51
2015-07-17,6.51,6.51,6.51,6.51,000,6.51
2015-07-16,6.51,6.51,6.51,6.51,000,6.51
2015-07-15,6.51,6.51,6.51,6.51,000,6.51
2015-07-14,6.51,6.51,6.51,6.51,000,6.51
2015-07-13,6.51,6.51,6.51,6.51,000,6.51
2015-07-10,6.51,6.51,6.51,6.51,000,6.51
2015-07-09,6.51,6.51,6.51,6.51,000,6.51
2015-07-08,6.51,6.51,6.51,6.51,000,6.51
2015-07-07,6.51,6.51,6.51,6.51,000,6.51
2015-07-06,6.51,6.51,6.51,6.51,000,6.51
2015-07-03,6.51,6.51,6.51,6.51,000,6.51
2015-07-02,6.51,6.51,6.51,6.51,000,6.51
2015-07-01,6.51,6.51,6.51,6.51,000,6.51
2015-06-30,6.51,6.51,6.51,6.51,000,6.51
2015-06-29,6.51,6.51,6.51,6.51,000,6.51
2015-06-26,6.51,6.51,6.51,6.51,000,6.51
2015-06-25,6.51,6.51,6.51,6.51,000,6.51
2015-06-24,6.51,6.51,6.51,6.51,000,6.51
2015-06-23,6.51,6.51,6.51,6.51,000,6.51
2015-06-22,6.51,6.51,6.51,6.51,000,6.51
2015-06-19,6.51,6.51,6.51,6.51,000,6.51
2015-06-18,6.51,6.51,6.51,6.51,000,6.51
2015-06-17,6.51,6.51,6.51,6.51,000,6.51
2015-06-16,6.51,6.51,6.51,6.51,000,6.51
2015-06-15,6.51,6.51,6.51,6.51,000,6.51
2015-06-12,6.51,6.51,6.51,6.51,000,6.51
2015-06-11,6.51,6.51,6.51,6.51,000,6.51
2015-06-10,6.51,6.51,6.51,6.51,000,6.51
2015-06-09,6.51,6.51,6.51,6.51,000,6.51
2015-06-08,6.51,6.51,6.51,6.51,000,6.51
2015-06-05,6.51,6.51,6.51,6.51,000,6.51
2015-06-04,6.51,6.51,6.51,6.51,000,6.51
2015-06-03,6.51,6.51,6.51,6.51,000,6.51
2015-06-02,6.51,6.51,6.51,6.51,000,6.51
2015-06-01,6.51,6.51,6.51,6.51,000,6.51
2015-05-29,6.51,6.51,6.51,6.51,000,6.51
2015-05-28,6.51,6.51,6.51,6.51,000,6.51
2015-05-27,6.51,6.51,6.51,6.51,000,6.51
2015-05-26,6.51,6.51,6.51,6.51,000,6.51
2015-05-25,6.51,6.51,6.51,6.51,000,6.51
2015-05-22,6.51,6.51,6.51,6.51,000,6.51
2015-05-21,6.51,6.51,6.51,6.51,000,6.51
2015-05-20,6.51,6.51,6.51,6.51,000,6.51
2015-05-19,6.51,6.51,6.51,6.51,000,6.51
2015-05-18,6.51,6.51,6.51,6.51,000,6.51
2015-05-15,6.51,6.51,6.51,6.51,000,6.51
2015-05-14,6.51,6.51,6.51,6.51,000,6.51
2015-05-13,6.51,6.51,6.51,6.51,000,6.51
2015-05-12,6.51,6.51,6.51,6.51,000,6.51
2015-05-11,6.51,6.51,6.51,6.51,000,6.51
2015-05-08,6.51,6.51,6.51,6.51,000,6.51
2015-05-07,6.51,6.51,6.51,6.51,000,6.51
2015-05-06,6.51,6.51,6.51,6.51,000,6.51
2015-05-05,6.51,6.51,6.51,6.51,000,6.51
2015-05-04,6.51,6.51,6.51,6.51,000,6.51
2015-05-01,6.51,6.51,6.51,6.51,000,6.51
2015-04-30,6.51,6.51,6.51,6.51,000,6.51
2015-04-29,6.51,6.51,6.51,6.51,000,6.51
2015-04-28,6.51,6.51,6.51,6.51,000,6.51
2015-04-27,6.51,6.51,6.51,6.51,000,6.51
2015-04-24,6.51,6.51,6.51,6.51,000,6.51
2015-04-23,6.51,6.51,6.51,6.51,000,6.51
2015-04-22,6.51,6.51,6.51,6.51,000,6.51
2015-04-21,6.51,6.51,6.51,6.51,000,6.51
2015-04-20,6.51,6.51,6.51,6.51,000,6.51
2015-04-17,6.51,6.51,6.51,6.51,000,6.51
2015-04-16,6.51,6.51,6.51,6.51,000,6.51
2015-04-15,6.51,6.51,6.51,6.51,000,6.51
2015-04-14,6.51,6.51,6.51,6.51,000,6.51
2015-04-13,6.51,6.51,6.51,6.51,000,6.51
2015-04-10,6.51,6.51,6.51,6.51,000,6.51
2015-04-09,6.51,6.51,6.51,6.51,000,6.51
2015-04-08,6.51,6.51,6.51,6.51,000,6.51
2015-04-07,6.51,6.51,6.51,6.51,000,6.51
2015-04-06,6.51,6.51,6.51,6.51,000,6.51
2015-04-03,6.51,6.51,6.51,6.51,000,6.51
2015-04-02,6.51,6.51,6.51,6.51,000,6.51
2015-04-01,6.51,6.51,6.51,6.51,000,6.51
2015-03-31,6.51,6.51,6.51,6.51,000,6.51
2015-03-30,6.51,6.51,6.51,6.51,000,6.51
2015-03-27,6.51,6.51,6.51,6.51,000,6.51
2015-03-26,6.51,6.51,6.51,6.51,000,6.51
2015-03-25,6.51,6.51,6.51,6.51,000,6.51
2015-03-24,6.51,6.51,6.51,6.51,000,6.51
2015-03-23,6.51,6.51,6.51,6.51,000,6.51
2015-03-20,6.51,6.51,6.51,6.51,000,6.51
2015-03-19,6.51,6.51,6.51,6.51,000,6.51
2015-03-18,6.51,6.51,6.51,6.51,000,6.51
2015-03-17,6.51,6.51,6.51,6.51,000,6.51
2015-03-16,6.51,6.51,6.51,6.51,000,6.51
2015-03-13,6.51,6.51,6.51,6.51,000,6.51
2015-03-12,6.51,6.51,6.51,6.51,000,6.51
2015-03-11,6.51,6.51,6.51,6.51,000,6.51
2015-03-10,6.51,6.51,6.51,6.51,000,6.51
2015-03-09,6.51,6.51,6.51,6.51,000,6.51
2015-03-06,6.51,6.51,6.51,6.51,000,6.51
2015-03-05,6.51,6.51,6.51,6.51,000,6.51
2015-03-04,6.51,6.51,6.51,6.51,000,6.51
2015-03-03,6.51,6.51,6.51,6.51,000,6.51
2015-03-02,6.51,6.51,6.51,6.51,000,6.51
2015-02-27,6.51,6.51,6.51,6.51,000,6.51
2015-02-26,6.51,6.51,6.51,6.51,000,6.51
2015-02-25,6.51,6.51,6.51,6.51,000,6.51
2015-02-24,6.51,6.51,6.51,6.51,000,6.51
2015-02-23,6.51,6.51,6.51,6.51,000,6.51
2015-02-20,6.51,6.51,6.51,6.51,000,6.51
2015-02-19,6.51,6.51,6.51,6.51,000,6.51
2015-02-18,6.51,6.51,6.51,6.51,000,6.51
2015-02-17,6.51,6.51,6.51,6.51,000,6.51
2015-02-16,6.51,6.51,6.51,6.51,000,6.51
2015-02-13,6.51,6.51,6.51,6.51,000,6.51
2015-02-12,6.51,6.51,6.51,6.51,000,6.51
2015-02-11,6.51,6.51,6.51,6.51,000,6.51
2015-02-10,6.51,6.51,6.51,6.51,000,6.51
2015-02-09,6.51,6.51,6.51,6.51,000,6.51
2015-02-06,6.51,6.51,6.51,6.51,000,6.51
2015-02-05,6.51,6.51,6.51,6.51,000,6.51
2015-02-04,6.51,6.51,6.51,6.51,000,6.51
2015-02-03,6.51,6.51,6.51,6.51,000,6.51
2015-02-02,6.51,6.51,6.51,6.51,000,6.51
2015-01-30,6.51,6.51,6.51,6.51,000,6.51
2015-01-29,6.51,6.51,6.51,6.51,000,6.51
2015-01-28,6.51,6.51,6.51,6.51,000,6.51
2015-01-27,6.51,6.51,6.51,6.51,000,6.51
2015-01-26,6.51,6.51,6.51,6.51,000,6.51
2015-01-23,6.51,6.51,6.51,6.51,000,6.51
2015-01-22,6.51,6.51,6.51,6.51,000,6.51
2015-01-21,6.51,6.51,6.51,6.51,000,6.51
2015-01-20,6.51,6.51,6.51,6.51,000,6.51
2015-01-19,6.51,6.51,6.51,6.51,000,6.51
2015-01-16,6.51,6.51,6.51,6.51,000,6.51
2015-01-15,6.51,6.51,6.51,6.51,000,6.51
2015-01-14,6.51,6.51,6.51,6.51,000,6.51
2015-01-13,6.51,6.51,6.51,6.51,000,6.51
2015-01-12,6.51,6.51,6.51,6.51,000,6.51
2015-01-09,6.51,6.51,6.51,6.51,000,6.51
2015-01-08,6.51,6.51,6.51,6.51,000,6.51
2015-01-07,6.51,6.51,6.51,6.51,000,6.51
2015-01-06,6.51,6.51,6.51,6.51,000,6.51
2015-01-05,6.51,6.51,6.51,6.51,000,6.51
2015-01-02,6.51,6.51,6.51,6.51,000,6.51
2015-01-01,6.51,6.51,6.51,6.51,000,6.51
2014-12-31,6.51,6.51,6.51,6.51,000,6.51
2014-12-30,6.51,6.51,6.51,6.51,000,6.51
2014-12-29,6.51,6.51,6.51,6.51,000,6.51
2014-12-26,6.51,6.51,6.51,6.51,000,6.51
2014-12-25,6.51,6.51,6.51,6.51,000,6.51
2014-12-24,6.51,6.51,6.51,6.51,000,6.51
2014-12-23,6.51,6.51,6.51,6.51,000,6.51
2014-12-22,6.51,6.51,6.51,6.51,000,6.51
2014-12-19,6.51,6.51,6.51,6.51,000,6.51
2014-12-18,6.51,6.51,6.51,6.51,000,6.51
2014-12-17,6.51,6.51,6.51,6.51,000,6.51
2014-12-16,6.51,6.51,6.51,6.51,000,6.51
2014-12-15,6.51,6.51,6.51,6.51,000,6.51
2014-12-12,6.51,6.51,6.51,6.51,000,6.51
2014-12-11,6.51,6.51,6.51,6.51,000,6.51
2014-12-10,6.51,6.51,6.51,6.51,000,6.51
2014-12-09,6.51,6.51,6.51,6.51,000,6.51
2014-12-08,6.51,6.51,6.51,6.51,000,6.51
2014-12-05,6.51,6.51,6.51,6.51,000,6.51
2014-12-04,6.51,6.51,6.51,6.51,000,6.51
2014-12-03,6.51,6.51,6.51,6.51,000,6.51
2014-12-02,6.51,6.51,6.51,6.51,000,6.51
2014-12-01,6.51,6.51,6.51,6.51,000,6.51
2014-11-28,6.51,6.51,6.51,6.51,000,6.51
2014-11-27,6.51,6.51,6.51,6.51,000,6.51
2014-11-26,6.51,6.51,6.51,6.51,000,6.51
2014-11-25,6.51,6.51,6.51,6.51,000,6.51
2014-11-24,6.51,6.51,6.51,6.51,000,6.51
2014-11-21,6.51,6.51,6.51,6.51,000,6.51
2014-11-20,6.51,6.51,6.51,6.51,000,6.51
2014-11-19,6.51,6.51,6.51,6.51,000,6.51
2014-11-18,6.51,6.51,6.51,6.51,000,6.51
2014-11-17,6.51,6.51,6.51,6.51,000,6.51
2014-11-14,6.51,6.51,6.51,6.51,000,6.51
2014-11-13,6.51,6.51,6.51,6.51,000,6.51
2014-11-12,6.51,6.51,6.51,6.51,000,6.51
2014-11-11,6.51,6.51,6.51,6.51,000,6.51
2014-11-10,6.51,6.51,6.51,6.51,000,6.51
2014-11-07,6.51,6.51,6.51,6.51,000,6.51
2014-11-06,6.51,6.51,6.51,6.51,000,6.51
2014-11-05,6.51,6.51,6.51,6.51,000,6.51
2014-11-04,6.51,6.51,6.51,6.51,000,6.51
2014-11-03,6.51,6.51,6.51,6.51,000,6.51
2014-10-31,6.51,6.51,6.51,6.51,000,6.51
2014-10-30,6.51,6.51,6.51,6.51,000,6.51
2014-10-29,6.51,6.51,6.51,6.51,000,6.51
2014-10-28,6.51,6.51,6.51,6.51,000,6.51
2014-10-27,6.51,6.51,6.51,6.51,000,6.51
2014-10-24,6.51,6.51,6.51,6.51,000,6.51
2014-10-23,6.51,6.51,6.51,6.51,000,6.51
2014-10-22,6.51,6.51,6.51,6.51,000,6.51
2014-10-21,6.51,6.51,6.51,6.51,000,6.51
2014-10-20,6.51,6.51,6.51,6.51,000,6.51
2014-10-17,6.51,6.51,6.51,6.51,000,6.51
2014-10-16,6.51,6.51,6.51,6.51,000,6.51
2014-10-15,6.51,6.51,6.51,6.51,000,6.51
2014-10-14,6.51,6.51,6.51,6.51,000,6.51
2014-10-13,6.51,6.51,6.51,6.51,000,6.51
2014-10-10,6.51,6.51,6.51,6.51,000,6.51
2014-10-09,6.51,6.51,6.51,6.51,000,6.51
2014-10-08,6.51,6.51,6.51,6.51,000,6.51
2014-10-07,6.51,6.51,6.51,6.51,000,6.51
2014-10-06,6.51,6.51,6.51,6.51,000,6.51
2014-10-03,6.51,6.51,6.51,6.51,000,6.51
2014-10-02,6.51,6.51,6.51,6.51,000,6.51
2014-10-01,6.51,6.51,6.51,6.51,000,6.51
2014-09-30,6.51,6.51,6.51,6.51,000,6.51
2014-09-29,6.51,6.51,6.51,6.51,000,6.51
2014-09-26,6.51,6.51,6.51,6.51,000,6.51
2014-09-25,6.51,6.51,6.51,6.51,000,6.51
2014-09-24,6.51,6.51,6.51,6.51,000,6.51
2014-09-23,6.51,6.51,6.51,6.51,000,6.51
2014-09-22,6.51,6.51,6.51,6.51,000,6.51
2014-09-19,6.51,6.51,6.51,6.51,000,6.51
2014-09-18,6.51,6.51,6.51,6.51,000,6.51
2014-09-17,6.51,6.51,6.51,6.51,000,6.51
2014-09-16,6.51,6.51,6.51,6.51,000,6.51
2014-09-15,6.51,6.51,6.51,6.51,000,6.51
2014-09-12,6.51,6.51,6.51,6.51,000,6.51
2014-09-11,6.51,6.51,6.51,6.51,000,6.51
2014-09-10,6.51,6.51,6.51,6.51,000,6.51
2014-09-09,6.51,6.51,6.51,6.51,000,6.51
2014-09-08,6.51,6.51,6.51,6.51,000,6.51
2014-09-05,6.51,6.51,6.51,6.51,000,6.51
2014-09-04,6.51,6.51,6.51,6.51,000,6.51
2014-09-03,6.51,6.51,6.51,6.51,000,6.51
2014-09-02,6.51,6.51,6.51,6.51,000,6.51
2014-09-01,6.51,6.51,6.51,6.51,000,6.51
2014-08-29,6.51,6.51,6.51,6.51,000,6.51
2014-08-28,6.51,6.51,6.51,6.51,000,6.51
2014-08-27,6.51,6.51,6.51,6.51,000,6.51
2014-08-26,6.51,6.51,6.51,6.51,000,6.51
2014-08-25,6.51,6.51,6.51,6.51,000,6.51
2014-08-22,6.51,6.51,6.51,6.51,000,6.51
2014-08-21,6.51,6.51,6.51,6.51,000,6.51
2014-08-20,6.51,6.51,6.51,6.51,000,6.51
2014-08-19,6.51,6.51,6.51,6.51,000,6.51
2014-08-18,6.51,6.51,6.51,6.51,000,6.51
2014-08-15,6.51,6.51,6.51,6.51,3500,6.51
2014-08-14,6.51,6.51,6.51,6.51,2500,6.51
2014-08-13,6.35,6.35,6.35,6.35,000,6.35
2014-08-12,6.35,6.35,6.35,6.35,7200,6.35
2014-08-11,6.40,6.40,6.20,6.35,7500,6.35
2014-08-08,6.43,6.43,6.43,6.43,4600,6.43
2014-08-07,6.43,6.43,6.43,6.43,000,6.43
2014-08-06,6.43,6.43,6.43,6.43,000,6.43
2014-08-05,6.43,6.43,6.43,6.43,000,6.43
2014-08-04,6.43,6.43,6.43,6.43,000,6.43
2014-08-01,6.43,6.43,6.43,6.43,2000,6.43
2014-07-31,6.39,6.39,6.39,6.39,000,6.39
2014-07-30,6.39,6.39,6.39,6.39,000,6.39
2014-07-29,6.42,6.42,6.38,6.39,7100,6.39
2014-07-28,6.42,6.42,6.42,6.42,000,6.42
2014-07-25,6.42,6.42,6.42,6.42,000,6.42
2014-07-24,6.42,6.42,6.42,6.42,1800,6.42
2014-07-23,6.40,6.40,6.40,6.40,000,6.40
2014-07-22,6.40,6.40,6.40,6.40,3100,6.40
2014-07-21,6.41,6.41,6.41,6.41,000,6.41
2014-07-18,6.41,6.41,6.41,6.41,7500,6.41
2014-07-17,6.44,6.44,6.44,6.44,000,6.44
2014-07-16,6.44,6.44,6.44,6.44,6000,6.44
2014-07-15,6.44,6.44,6.44,6.44,2500,6.44
2014-07-14,6.41,6.41,6.41,6.41,000,6.41
2014-07-11,6.41,6.41,6.41,6.41,000,6.41
2014-07-10,6.41,6.41,6.41,6.41,000,6.41
2014-07-09,6.41,6.41,6.41,6.41,000,6.41
2014-07-08,6.41,6.41,6.41,6.41,000,6.41
2014-07-07,6.41,6.41,6.41,6.41,000,6.41
2014-07-04,6.41,6.41,6.41,6.41,000,6.41
2014-07-03,6.41,6.41,6.41,6.41,2600,6.41
2014-07-02,6.41,6.41,6.41,6.41,000,6.41
2014-07-01,6.41,6.41,6.41,6.41,1300,6.41
2014-06-30,6.53,6.53,6.53,6.53,000,6.53
2014-06-27,6.53,6.53,6.53,6.53,000,6.53
2014-06-26,6.53,6.53,6.53,6.53,000,6.53
2014-06-25,6.53,6.53,6.53,6.53,000,6.45
2014-06-24,6.53,6.53,6.53,6.53,000,6.45
2014-06-23,6.53,6.53,6.53,6.53,1400,6.45
2014-06-20,6.49,6.49,6.49,6.49,000,6.41
2014-06-19,6.49,6.49,6.49,6.49,000,6.41
2014-06-18,6.49,6.49,6.49,6.49,000,6.41
2014-06-17,6.49,6.49,6.49,6.49,000,6.41
2014-06-16,6.49,6.49,6.49,6.49,23400,6.41
2014-06-13,6.49,6.49,6.49,6.49,35000,6.41
2014-06-12,6.49,6.49,6.48,6.48,35000,6.40
2014-06-11,6.52,6.52,6.51,6.51,35000,6.43
2014-06-10,6.52,6.52,6.48,6.48,30000,6.40
2014-06-09,6.50,6.50,6.50,6.50,000,6.42
2014-06-06,6.47,6.50,6.47,6.50,27000,6.42
2014-06-05,6.51,6.51,6.50,6.50,13300,6.42
2014-06-04,6.51,6.51,6.51,6.51,000,6.43
2014-06-03,6.51,6.51,6.51,6.51,100,6.43
2014-06-02,6.50,6.50,6.50,6.50,000,6.42
2014-05-30,6.55,6.55,6.55,6.55,000,6.47
2014-05-29,6.55,6.55,6.55,6.55,400,6.47
2014-05-28,6.51,6.55,6.51,6.55,6200,6.47
2014-05-27,6.51,6.51,6.51,6.51,5300,6.43
2014-05-26,6.47,6.47,6.47,6.47,000,6.39
2014-05-23,6.47,6.47,6.47,6.47,10200,6.39
2014-05-22,6.54,6.54,6.54,6.54,000,6.46
2014-05-21,6.54,6.54,6.54,6.54,000,6.46
2014-05-20,6.54,6.54,6.54,6.54,000,6.46
2014-05-19,6.52,6.54,6.52,6.54,300,6.46
2014-05-16,6.47,6.52,6.47,6.52,4200,6.44
2014-05-15,6.52,6.52,6.52,6.52,7000,6.44
2014-05-14,6.34,6.35,6.34,6.35,29700,6.27
2014-05-13,6.53,6.53,6.53,6.53,2100,6.45
2014-05-12,6.54,6.54,6.54,6.54,000,6.46
2014-05-09,6.54,6.54,6.54,6.54,3000,6.46
2014-05-08,6.54,6.54,6.54,6.54,000,6.46
2014-05-07,6.59,6.59,6.54,6.54,11300,6.46
2014-05-06,6.50,6.50,6.50,6.50,000,6.42
2014-05-05,6.50,6.50,6.50,6.50,000,6.42
2014-05-02,6.50,6.50,6.50,6.50,1000,6.42
2014-05-01,6.51,6.51,6.51,6.51,100,6.43
2014-04-30,6.51,6.51,6.51,6.51,1900,6.43
2014-04-29,6.51,6.51,6.50,6.51,6600,6.43
2014-04-28,6.56,6.56,6.56,6.56,100,6.48
2014-04-25,6.56,6.56,6.56,6.56,000,6.48
2014-04-24,6.56,6.56,6.56,6.56,000,6.48
2014-04-23,6.56,6.56,6.56,6.56,100,6.48
2014-04-22,6.51,6.56,6.51,6.56,3000,6.48
2014-04-21,6.51,6.51,6.51,6.51,000,6.43
2014-04-18,6.51,6.51,6.51,6.51,000,6.43
2014-04-17,6.51,6.51,6.51,6.51,000,6.43
2014-04-16,6.51,6.51,6.51,6.51,11000,6.43
2014-04-15,6.56,6.56,6.56,6.56,000,6.48
2014-04-14,6.56,6.56,6.56,6.56,000,6.48
2014-04-11,6.56,6.56,6.56,6.56,600,6.48
2014-04-10,6.48,6.48,6.48,6.48,000,6.40
2014-04-09,6.48,6.48,6.48,6.48,000,6.40
2014-04-08,6.48,6.48,6.48,6.48,000,6.40
2014-04-07,6.48,6.48,6.48,6.48,000,6.40
2014-04-04,6.48,6.48,6.48,6.48,1000,6.40
2014-04-03,6.48,6.48,6.48,6.48,1000,6.40
2014-04-02,6.53,6.53,6.53,6.53,2900,6.45
2014-04-01,6.52,6.52,6.52,6.52,000,6.44
2014-03-31,6.53,6.53,6.52,6.52,4200,6.44
2014-03-28,6.53,6.53,6.53,6.53,000,6.45
2014-03-27,6.53,6.53,6.53,6.53,000,6.45
2014-03-26,6.53,6.53,6.52,6.53,6900,6.45
2014-03-25,6.53,6.53,6.53,6.53,700,6.45
2014-03-24,6.59,6.59,6.59,6.59,000,6.51
2014-03-21,6.59,6.59,6.59,6.59,000,6.51
2014-03-20,6.59,6.59,6.59,6.59,000,6.51
2014-03-19,6.59,6.59,6.59,6.59,100,6.51
2014-03-18,6.53,6.54,6.53,6.54,3600,6.46
2014-03-17,6.53,6.53,6.53,6.53,5900,6.45
2014-03-14,6.53,6.53,6.53,6.53,7700,6.45
2014-03-13,6.53,6.53,6.53,6.53,1700,6.45
2014-03-12,6.42,6.42,6.42,6.42,000,6.34
2014-03-11,6.42,6.42,6.42,6.42,200,6.34
2014-03-10,6.43,6.43,6.43,6.43,7000,6.35
2014-03-07,6.36,6.36,6.36,6.36,18900,6.28
2014-03-06,6.36,6.36,6.36,6.36,100,6.28
2014-03-05,6.44,6.44,6.44,6.44,000,6.36
2014-03-04,6.44,6.44,6.44,6.44,000,6.36
2014-03-03,6.44,6.44,6.44,6.44,000,6.36
2014-02-28,6.44,6.44,6.44,6.44,000,6.36
2014-02-27,6.36,6.36,6.36,6.36,5900,6.28
2014-02-26,6.44,6.44,6.44,6.44,000,6.36
2014-02-25,6.44,6.44,6.44,6.44,6100,6.36
2014-02-24,6.44,6.44,6.44,6.44,1200,6.36
2014-02-21,6.36,6.36,6.36,6.36,3300,6.28
2014-02-20,6.40,6.40,6.40,6.40,300,6.32
2014-02-19,6.48,6.48,6.48,6.48,000,6.40
2014-02-18,6.48,6.48,6.48,6.48,000,6.40
2014-02-17,6.48,6.48,6.48,6.48,6400,6.40
2014-02-14,6.48,6.48,6.48,6.48,000,6.40
2014-02-13,6.48,6.48,6.48,6.48,1500,6.40
2014-02-12,6.41,6.41,6.40,6.41,10700,6.33
2014-02-11,6.50,6.50,6.50,6.50,900,6.42
2014-02-10,6.50,6.50,6.50,6.50,000,6.42
2014-02-07,6.50,6.50,6.50,6.50,000,6.42
2014-02-06,6.41,6.41,6.41,6.41,100,6.33
2014-02-05,6.50,6.50,6.50,6.50,400,6.42
2014-02-04,6.50,6.50,6.50,6.50,000,6.42
2014-02-03,6.50,6.50,6.50,6.50,000,6.42
2014-01-31,6.50,6.50,6.50,6.50,000,6.42
2014-01-30,6.50,6.50,6.50,6.50,000,6.42
2014-01-29,6.50,6.50,6.50,6.50,1300,6.42
2014-01-28,6.41,6.41,6.41,6.41,2900,6.33
2014-01-27,6.41,6.41,6.41,6.41,000,6.33
2014-01-24,6.41,6.41,6.41,6.41,14000,6.33
2014-01-23,6.42,6.42,6.42,6.42,000,6.34
2014-01-22,6.42,6.42,6.42,6.42,000,6.34
2014-01-21,6.42,6.42,6.42,6.42,2000,6.34
2014-01-20,6.44,6.51,6.44,6.51,4500,6.43
2014-01-17,6.51,6.51,6.44,6.44,3200,6.36
2014-01-16,6.44,6.44,6.44,6.44,000,6.36
2014-01-15,6.43,6.45,6.43,6.44,7300,6.36
2014-01-14,6.43,6.43,6.40,6.43,2400,6.35
2014-01-13,6.43,6.43,6.43,6.43,000,6.35
2014-01-10,6.43,6.43,6.43,6.43,3000,6.35
2014-01-09,6.51,6.51,6.51,6.51,000,6.43
2014-01-08,6.51,6.51,6.51,6.51,3300,6.43
2014-01-07,6.51,6.51,6.51,6.51,4700,6.43
2014-01-06,6.40,6.40,6.40,6.40,000,6.32
2014-01-03,6.40,6.40,6.40,6.40,000,6.32
2014-01-02,6.40,6.40,6.40,6.40,000,6.32
2014-01-01,6.40,6.40,6.40,6.40,000,6.32
2013-12-31,6.40,6.40,6.40,6.40,8800,6.32
2013-12-30,6.51,6.51,6.51,6.51,000,6.43
2013-12-27,6.51,6.51,6.51,6.51,2800,6.43
2013-12-26,6.45,6.45,6.45,6.45,000,6.37
2013-12-25,6.45,6.45,6.45,6.45,000,6.37
2013-12-24,6.45,6.45,6.45,6.45,000,6.37
2013-12-23,6.45,6.45,6.45,6.45,1600,6.37
2013-12-20,6.50,6.50,6.50,6.50,3800,6.38
2013-12-19,6.55,6.55,6.55,6.55,400,6.42
2013-12-18,6.55,6.55,6.55,6.55,000,6.42
2013-12-17,6.55,6.55,6.55,6.55,000,6.42
2013-12-16,6.55,6.55,6.55,6.55,1800,6.42
2013-12-13,6.55,6.55,6.55,6.55,000,6.42
2013-12-12,6.55,6.55,6.55,6.55,000,6.42
2013-12-11,6.55,6.55,6.55,6.55,1600,6.42
2013-12-10,6.55,6.55,6.55,6.55,7100,6.42
2013-12-09,6.55,6.55,6.55,6.55,300,6.42
2013-12-06,6.47,6.47,6.47,6.47,000,6.35
2013-12-05,6.47,6.47,6.47,6.47,000,6.35
2013-12-04,6.47,6.47,6.47,6.47,000,6.35
2013-12-03,6.55,6.55,6.47,6.47,700,6.35
2013-12-02,6.55,6.55,6.55,6.55,200,6.42
2013-11-29,6.55,6.55,6.55,6.55,000,6.42
2013-11-28,6.55,6.55,6.55,6.55,4900,6.42
2013-11-27,6.55,6.55,6.55,6.55,1400,6.42
2013-11-26,6.55,6.55,6.55,6.55,000,6.42
2013-11-25,6.55,6.55,6.55,6.55,8200,6.42
2013-11-22,6.54,6.55,6.54,6.55,4300,6.42
2013-11-21,6.54,6.54,6.54,6.54,000,6.42
2013-11-20,6.46,6.54,6.46,6.54,4700,6.42
2013-11-19,6.55,6.55,6.55,6.55,000,6.42
2013-11-18,6.55,6.55,6.55,6.55,6100,6.42
2013-11-15,6.61,6.61,6.61,6.61,000,6.48
2013-11-14,6.61,6.61,6.61,6.61,1600,6.48
2013-11-13,6.61,6.61,6.61,6.61,000,6.48
2013-11-12,6.61,6.61,6.61,6.61,000,6.48
2013-11-11,6.61,6.61,6.61,6.61,000,6.48
2013-11-08,6.61,6.61,6.61,6.61,3300,6.48
2013-11-07,6.48,6.48,6.48,6.48,000,6.36
2013-11-06,6.48,6.48,6.48,6.48,7100,6.36
2013-11-05,6.48,6.48,6.48,6.48,100,6.36
2013-11-04,6.48,6.49,6.48,6.48,6800,6.36
2013-11-01,6.48,6.48,6.48,6.48,000,6.36
2013-10-31,6.48,6.48,6.48,6.48,000,6.36
2013-10-30,6.48,6.48,6.48,6.48,11100,6.36
2013-10-29,6.48,6.48,6.48,6.48,10000,6.36
2013-10-28,6.56,6.56,6.56,6.56,1300,6.43
2013-10-25,6.54,6.54,6.54,6.54,8100,6.42
2013-10-24,6.56,6.56,6.56,6.56,4600,6.43
2013-10-23,6.48,6.48,6.48,6.48,000,6.36
2013-10-22,6.48,6.48,6.48,6.48,3500,6.36
2013-10-21,6.48,6.48,6.48,6.48,000,6.36
2013-10-18,6.48,6.48,6.48,6.48,3700,6.36
2013-10-17,6.49,6.49,6.49,6.49,5000,6.37
2013-10-16,6.60,6.60,6.60,6.60,000,6.47
2013-10-15,6.60,6.60,6.60,6.60,000,6.47
2013-10-14,6.60,6.60,6.60,6.60,000,6.47
2013-10-11,6.60,6.60,6.60,6.60,4900,6.47
2013-10-10,6.60,6.60,6.60,6.60,000,6.47
2013-10-09,6.54,6.60,6.54,6.60,3300,6.47
2013-10-08,6.60,6.60,6.60,6.60,000,6.47
2013-10-07,6.60,6.60,6.60,6.60,000,6.47
2013-10-04,6.60,6.60,6.60,6.60,000,6.47
2013-10-03,6.60,6.60,6.60,6.60,000,6.47
2013-10-02,6.60,6.60,6.60,6.60,000,6.47
2013-10-01,6.60,6.60,6.60,6.60,000,6.47
2013-09-30,6.60,6.60,6.60,6.60,000,6.47
2013-09-27,6.60,6.60,6.60,6.60,700,6.47
2013-09-26,6.63,6.63,6.63,6.63,000,6.50
2013-09-25,6.63,6.63,6.63,6.63,000,6.50
2013-09-24,6.63,6.63,6.63,6.63,000,6.50
2013-09-23,6.63,6.63,6.63,6.63,5500,6.50
2013-09-20,6.71,6.71,6.67,6.67,10700,6.54
2013-09-19,6.71,6.71,6.71,6.71,000,6.58
2013-09-18,6.71,6.71,6.71,6.71,000,6.58
2013-09-17,6.71,6.71,6.71,6.71,000,6.58
2013-09-16,6.71,6.71,6.71,6.71,000,6.58
2013-09-13,6.71,6.71,6.71,6.71,200,6.58
2013-09-12,6.67,6.67,6.67,6.67,200,6.54
2013-09-11,6.65,6.65,6.65,6.65,000,6.52
2013-09-10,6.65,6.65,6.65,6.65,1000,6.52
2013-09-09,6.63,6.63,6.63,6.63,000,6.50
2013-09-06,6.68,6.68,6.63,6.63,6000,6.50
2013-09-05,6.68,6.68,6.68,6.68,000,6.55
2013-09-04,6.68,6.68,6.68,6.68,000,6.55
2013-09-03,6.68,6.68,6.68,6.68,000,6.55
2013-09-02,6.68,6.68,6.68,6.68,7300,6.55
2013-08-30,6.55,6.56,6.55,6.56,9100,6.43
2013-08-29,6.55,6.55,6.55,6.55,000,6.42
2013-08-28,6.56,6.56,6.55,6.55,11800,6.42
2013-08-27,6.56,6.56,6.56,6.56,2500,6.43
2013-08-26,6.56,6.56,6.56,6.56,600,6.43
2013-08-23,6.56,6.56,6.56,6.56,300,6.43
2013-08-22,6.54,6.56,6.54,6.56,21400,6.43
2013-08-21,6.55,6.55,6.55,6.55,000,6.42
2013-08-20,6.55,6.55,6.55,6.55,000,6.42
2013-08-19,6.55,6.56,6.55,6.55,10000,6.42
2013-08-16,6.55,6.55,6.55,6.55,10000,6.42
2013-08-15,6.55,6.55,6.55,6.55,12000,6.42
2013-08-14,6.55,6.55,6.55,6.55,10000,6.42
2013-08-13,6.55,6.55,6.55,6.55,5400,6.42
2013-08-12,6.55,6.55,6.55,6.55,4000,6.42
2013-08-09,6.58,6.58,6.57,6.57,17600,6.44
2013-08-08,6.66,6.66,6.66,6.66,1300,6.53
2013-08-07,6.62,6.66,6.62,6.66,11700,6.53
2013-08-06,6.61,6.61,6.61,6.61,000,6.48
2013-08-05,6.61,6.62,6.61,6.61,5500,6.48
2013-08-02,6.61,6.61,6.61,6.61,6600,6.48
2013-08-01,6.59,6.59,6.59,6.59,000,6.46
2013-07-31,6.59,6.59,6.59,6.59,000,6.46
2013-07-30,6.59,6.59,6.59,6.59,000,6.46
2013-07-29,6.59,6.59,6.59,6.59,1700,6.46
2013-07-26,6.55,6.55,6.55,6.55,000,6.42
2013-07-25,6.55,6.55,6.55,6.55,4100,6.42
2013-07-24,6.57,6.58,6.55,6.55,15400,6.42
2013-07-23,6.49,6.49,6.49,6.49,000,6.37
2013-07-22,6.49,6.49,6.49,6.49,000,6.37
2013-07-19,6.49,6.49,6.49,6.49,3000,6.37
2013-07-18,6.41,6.41,6.41,6.41,200,6.29
2013-07-17,6.42,6.42,6.42,6.42,600,6.30
2013-07-16,6.38,6.38,6.38,6.38,000,6.26
2013-07-15,6.38,6.38,6.38,6.38,000,6.26
2013-07-12,6.38,6.38,6.38,6.38,000,6.26
2013-07-11,6.38,6.38,6.38,6.38,25500,6.26
2013-07-10,6.38,6.38,6.38,6.38,10300,6.26
2013-07-09,6.35,6.38,6.35,6.38,12500,6.26
2013-07-08,6.41,6.41,6.38,6.38,10000,6.26
2013-07-05,6.41,6.41,6.41,6.41,19000,6.29
2013-07-04,6.41,6.41,6.41,6.41,5000,6.29
2013-07-03,6.42,6.42,6.42,6.42,5100,6.30
2013-07-02,6.42,6.42,6.42,6.42,2100,6.30
2013-07-01,6.42,6.42,6.42,6.42,000,6.30
2013-06-28,6.42,6.42,6.42,6.42,000,6.30
2013-06-27,6.41,6.42,6.40,6.42,30000,6.30
2013-06-26,6.41,6.41,6.41,6.41,17500,6.29
2013-06-25,6.41,6.41,6.41,6.41,2000,6.29
2013-06-24,6.50,6.50,6.50,6.50,1200,6.38
2013-06-21,6.62,6.62,6.50,6.61,10100,6.44
2013-06-20,6.62,6.62,6.62,6.62,12000,6.45
2013-06-19,6.62,6.62,6.62,6.62,5000,6.45
2013-06-18,6.64,6.64,6.64,6.64,1500,6.47
2013-06-17,6.65,6.65,6.65,6.65,4600,6.48
2013-06-14,6.65,6.65,6.65,6.65,2500,6.48
2013-06-13,6.64,6.64,6.64,6.64,000,6.47
2013-06-12,6.65,6.65,6.64,6.64,20900,6.47
2013-06-11,6.65,6.65,6.60,6.65,10400,6.48
2013-06-10,6.60,6.60,6.60,6.60,000,6.43
2013-06-07,6.65,6.65,6.60,6.60,1100,6.43
2013-06-06,6.65,6.65,6.65,6.65,000,6.48
2013-06-05,6.65,6.65,6.65,6.65,500,6.48
2013-06-04,6.65,6.65,6.65,6.65,15800,6.48
2013-06-03,6.69,6.69,6.69,6.69,300,6.52
2013-05-31,6.65,6.65,6.65,6.65,000,6.48
2013-05-30,6.65,6.65,6.65,6.65,000,6.48
2013-05-29,6.69,6.69,6.65,6.65,600,6.48
2013-05-28,6.69,6.69,6.65,6.65,3000,6.48
2013-05-27,6.70,6.70,6.70,6.70,2000,6.53
2013-05-24,6.70,6.70,6.70,6.70,500,6.53
2013-05-23,6.70,6.70,6.70,6.70,300,6.53
2013-05-22,6.70,6.70,6.69,6.70,6900,6.53
2013-05-21,6.70,6.70,6.69,6.69,14800,6.52
2013-05-20,6.70,6.70,6.70,6.70,6200,6.53
2013-05-17,6.69,6.70,6.69,6.70,700,6.53
2013-05-16,6.75,6.75,6.75,6.75,1000,6.57
2013-05-15,6.69,6.69,6.69,6.69,000,6.52
2013-05-14,6.69,6.77,6.69,6.77,23200,6.59
2013-05-13,6.67,6.69,6.60,6.60,23500,6.43
2013-05-10,6.67,6.67,6.67,6.67,21800,6.50
2013-05-09,6.75,6.75,6.75,6.75,700,6.57
2013-05-08,6.75,6.75,6.75,6.75,3300,6.57
2013-05-07,6.68,6.68,6.68,6.68,000,6.51
2013-05-06,6.68,6.68,6.68,6.68,2000,6.51
2013-05-03,6.60,6.60,6.60,6.60,000,6.43
2013-05-02,6.68,6.68,6.60,6.60,8200,6.43
2013-05-01,6.68,6.68,6.68,6.68,10000,6.51
2013-04-30,6.68,6.68,6.68,6.68,8500,6.51
2013-04-29,6.69,6.69,6.69,6.69,000,6.52
2013-04-26,6.69,6.69,6.69,6.69,6600,6.52
2013-04-25,6.69,6.69,6.69,6.69,000,6.52
2013-04-24,6.69,6.69,6.69,6.69,000,6.52
2013-04-23,6.70,6.70,6.69,6.69,1000,6.52
2013-04-22,6.63,6.67,6.63,6.67,33400,6.50
2013-04-19,6.67,6.67,6.67,6.67,000,6.50
2013-04-18,6.65,6.67,6.65,6.67,4300,6.50
2013-04-17,6.67,6.67,6.67,6.67,000,6.50
2013-04-16,6.67,6.67,6.67,6.67,9900,6.50
2013-04-15,6.67,6.67,6.67,6.67,000,6.50
2013-04-12,6.67,6.67,6.67,6.67,000,6.50
2013-04-11,6.67,6.67,6.67,6.67,000,6.50
2013-04-10,6.68,6.68,6.67,6.67,100,6.50
2013-04-09,6.68,6.68,6.68,6.68,000,6.51
2013-04-08,6.68,6.68,6.68,6.68,000,6.51
2013-04-05,6.68,6.68,6.68,6.68,30600,6.51
2013-04-04,6.68,6.68,6.68,6.68,000,6.51
2013-04-03,6.68,6.68,6.68,6.68,000,6.51
2013-04-02,6.68,6.68,6.68,6.68,000,6.51
2013-04-01,6.68,6.68,6.68,6.68,000,6.51
2013-03-29,6.68,6.68,6.68,6.68,000,6.51
2013-03-28,6.68,6.68,6.68,6.68,000,6.51
2013-03-27,6.68,6.68,6.68,6.68,300,6.51
2013-03-26,6.68,6.68,6.68,6.68,000,6.51
2013-03-25,6.68,6.68,6.68,6.68,6300,6.51
2013-03-22,6.68,6.68,6.68,6.68,000,6.51
2013-03-21,6.68,6.68,6.68,6.68,1000,6.51
2013-03-20,6.68,6.68,6.68,6.68,000,6.51
2013-03-19,6.68,6.68,6.68,6.68,000,6.51
2013-03-18,6.68,6.68,6.68,6.68,9200,6.51
2013-03-15,6.68,6.68,6.68,6.68,000,6.51
2013-03-14,6.68,6.68,6.68,6.68,30000,6.51
2013-03-13,6.68,6.68,6.68,6.68,000,6.51
2013-03-12,6.69,6.69,6.68,6.68,30000,6.51
2013-03-11,6.70,6.70,6.70,6.70,000,6.53
2013-03-08,6.70,6.70,6.70,6.70,3400,6.53
2013-03-07,6.77,6.77,6.77,6.77,400,6.59
2013-03-06,6.79,6.79,6.79,6.79,000,6.61
2013-03-05,6.79,6.79,6.79,6.79,000,6.61
2013-03-04,6.79,6.79,6.79,6.79,000,6.61
2013-03-01,6.79,6.79,6.79,6.79,000,6.61
2013-02-28,6.79,6.79,6.79,6.79,62900,6.61
2013-02-27,6.79,6.79,6.79,6.79,10000,6.61
2013-02-26,6.86,6.86,6.86,6.86,000,6.68
2013-02-25,6.86,6.86,6.86,6.86,32600,6.68
2013-02-22,6.86,6.86,6.86,6.86,40000,6.68
2013-02-21,6.88,6.88,6.88,6.88,000,6.70
2013-02-20,6.88,6.88,6.88,6.88,100,6.70
2013-02-19,6.78,6.78,6.78,6.78,000,6.60
2013-02-18,6.78,6.78,6.78,6.78,38900,6.60
2013-02-15,6.78,6.78,6.78,6.78,000,6.60
2013-02-14,6.78,6.78,6.78,6.78,000,6.60
2013-02-13,6.78,6.78,6.78,6.78,15000,6.60
2013-02-12,6.78,6.78,6.78,6.78,9100,6.60
2013-02-11,6.78,6.78,6.78,6.78,4700,6.60
2013-02-08,6.80,6.80,6.80,6.80,000,6.62
2013-02-07,6.80,6.80,6.80,6.80,000,6.62
2013-02-06,6.80,6.80,6.80,6.80,1000,6.62
2013-02-05,6.80,6.80,6.80,6.80,000,6.62
2013-02-04,6.80,6.80,6.80,6.80,000,6.62
2013-02-01,6.80,6.80,6.80,6.80,2300,6.62
2013-01-31,6.80,6.80,6.80,6.80,000,6.62
2013-01-30,6.88,6.88,6.80,6.80,2800,6.62
2013-01-29,6.83,6.83,6.83,6.83,000,6.65
2013-01-28,6.83,6.83,6.83,6.83,000,6.65
2013-01-25,6.83,6.83,6.83,6.83,000,6.65
2013-01-24,6.83,6.83,6.83,6.83,000,6.65
2013-01-23,6.75,6.83,6.75,6.83,1500,6.65
2013-01-22,6.70,6.70,6.70,6.70,000,6.53
2013-01-21,6.70,6.70,6.70,6.70,11000,6.53
2013-01-18,6.73,6.73,6.73,6.73,8800,6.55
2013-01-17,6.81,6.81,6.81,6.81,000,6.63
2013-01-16,6.81,6.81,6.81,6.81,000,6.63
2013-01-15,6.81,6.81,6.81,6.81,000,6.63
2013-01-14,6.81,6.81,6.81,6.81,000,6.63
2013-01-11,6.81,6.81,6.81,6.81,2000,6.63
2013-01-10,6.71,6.71,6.71,6.71,000,6.54
2013-01-09,6.71,6.71,6.71,6.71,000,6.54
2013-01-08,6.71,6.71,6.71,6.71,22100,6.54
2013-01-07,6.80,6.80,6.80,6.80,000,6.62
2013-01-04,6.80,6.80,6.80,6.80,000,6.62
2013-01-03,6.80,6.80,6.80,6.80,000,6.62
2013-01-02,6.80,6.80,6.80,6.80,000,6.62
2013-01-01,6.80,6.80,6.80,6.80,000,6.62
2012-12-31,6.80,6.80,6.80,6.80,700,6.62
2012-12-28,6.75,6.75,6.75,6.75,000,6.57
2012-12-27,6.75,6.75,6.75,6.75,1100,6.57
2012-12-26,6.83,6.83,6.83,6.83,000,6.65
2012-12-25,6.83,6.83,6.83,6.83,000,6.65
2012-12-24,6.83,6.83,6.83,6.83,000,6.65
2012-12-21,6.83,6.83,6.83,6.83,000,6.65
2012-12-20,6.83,6.83,6.83,6.83,200,6.58
2012-12-19,6.86,6.86,6.86,6.86,000,6.61
2012-12-18,6.86,6.86,6.86,6.86,000,6.61
2012-12-17,6.86,6.86,6.86,6.86,000,6.61
2012-12-14,6.86,6.86,6.86,6.86,000,6.61
2012-12-13,6.86,6.86,6.86,6.86,000,6.61
2012-12-12,6.86,6.86,6.86,6.86,000,6.61
2012-12-11,6.86,6.86,6.86,6.86,000,6.61
2012-12-10,6.86,6.86,6.86,6.86,000,6.61
2012-12-07,6.86,6.86,6.86,6.86,000,6.61
2012-12-06,6.86,6.86,6.86,6.86,000,6.61
2012-12-05,6.86,6.86,6.86,6.86,000,6.61
2012-12-04,6.86,6.86,6.86,6.86,000,6.61
2012-12-03,6.86,6.86,6.86,6.86,000,6.61
2012-11-30,6.86,6.86,6.86,6.86,700,6.61
2012-11-29,6.86,6.86,6.86,6.86,4200,6.61
2012-11-28,6.90,6.90,6.90,6.90,000,6.65
2012-11-27,6.90,6.90,6.90,6.90,000,6.65
2012-11-26,6.90,6.90,6.90,6.90,000,6.65
2012-11-23,6.90,6.90,6.90,6.90,000,6.65
2012-11-22,6.90,6.90,6.90,6.90,000,6.65
2012-11-21,6.90,6.90,6.90,6.90,000,6.65
2012-11-20,6.90,6.90,6.90,6.90,3600,6.65
2012-11-19,6.94,6.94,6.94,6.94,000,6.69
2012-11-16,6.94,6.94,6.94,6.94,000,6.69
2012-11-15,6.94,6.94,6.94,6.94,000,6.69
2012-11-14,6.94,6.94,6.94,6.94,000,6.69
2012-11-13,6.94,6.94,6.94,6.94,000,6.69
2012-11-12,6.94,6.94,6.94,6.94,000,6.69
2012-11-09,6.94,6.94,6.94,6.94,000,6.69
2012-11-08,6.94,6.94,6.94,6.94,000,6.69
2012-11-07,6.94,6.94,6.94,6.94,000,6.69
2012-11-06,6.94,6.94,6.94,6.94,000,6.69
2012-11-05,6.94,6.94,6.94,6.94,000,6.69
2012-11-02,6.94,6.94,6.94,6.94,000,6.69
2012-11-01,6.94,6.94,6.94,6.94,4200,6.69
2012-10-31,6.94,6.94,6.94,6.94,000,6.69
2012-10-30,6.94,6.94,6.94,6.94,000,6.69
2012-10-29,6.98,6.98,6.98,6.98,10000,6.73
2012-10-26,6.94,6.94,6.94,6.94,000,6.69
2012-10-25,6.94,6.94,6.94,6.94,000,6.69
2012-10-24,6.94,6.94,6.94,6.94,000,6.69
2012-10-23,6.94,6.94,6.94,6.94,000,6.69
2012-10-22,6.94,6.94,6.94,6.94,000,6.69
2012-10-19,6.94,6.94,6.94,6.94,000,6.69
2012-10-18,6.94,6.94,6.94,6.94,000,6.69
2012-10-17,6.94,6.94,6.94,6.94,000,6.69
2012-10-16,6.94,6.94,6.94,6.94,000,6.69
2012-10-15,6.94,6.94,6.94,6.94,23500,6.69
2012-10-12,7.00,7.00,7.00,7.00,000,6.75
2012-10-11,7.00,7.00,7.00,7.00,000,6.75
2012-10-10,7.00,7.00,7.00,7.00,000,6.75
2012-10-09,7.00,7.00,7.00,7.00,000,6.75
2012-10-08,7.00,7.00,7.00,7.00,5200,6.75
2012-10-05,7.00,7.00,7.00,7.00,46600,6.75
2012-10-04,7.00,7.00,7.00,7.00,100,6.75
2012-10-03,7.10,7.10,7.10,7.10,000,6.84
2012-10-02,7.10,7.10,7.10,7.10,000,6.84
2012-10-01,7.10,7.10,7.10,7.10,6800,6.84
2012-09-28,7.10,7.10,7.10,7.10,5900,6.84
2012-09-27,7.02,7.02,7.02,7.02,000,6.77
2012-09-26,7.02,7.02,7.02,7.02,000,6.77
2012-09-25,7.02,7.02,7.02,7.02,2600,6.77
2012-09-24,7.02,7.02,7.02,7.02,6000,6.77
2012-09-21,6.97,6.97,6.97,6.97,000,6.72
2012-09-20,6.97,6.97,6.97,6.97,000,6.72
2012-09-19,6.97,6.97,6.97,6.97,000,6.72
2012-09-18,6.97,6.97,6.97,6.97,000,6.72
2012-09-17,6.97,6.97,6.97,6.97,000,6.72
2012-09-14,6.97,6.97,6.97,6.97,000,6.72
2012-09-13,6.97,6.97,6.97,6.97,3900,6.72
2012-09-12,6.88,6.88,6.88,6.88,000,6.63
2012-09-11,6.88,6.88,6.88,6.88,000,6.63
2012-09-10,6.88,6.88,6.88,6.88,000,6.63
2012-09-07,6.88,6.88,6.88,6.88,000,6.63
2012-09-06,6.88,6.88,6.88,6.88,000,6.63
2012-09-05,6.88,6.88,6.88,6.88,6500,6.63
2012-09-04,6.87,6.87,6.87,6.87,000,6.62
2012-09-03,6.87,6.87,6.87,6.87,000,6.62
2012-08-31,6.87,6.87,6.87,6.87,000,6.62
2012-08-30,6.87,6.87,6.87,6.87,000,6.62
2012-08-29,6.87,6.87,6.87,6.87,000,6.62
2012-08-28,6.87,6.87,6.87,6.87,000,6.62
2012-08-27,6.87,6.87,6.87,6.87,38700,6.62
2012-08-24,6.87,6.87,6.87,6.87,000,6.62
2012-08-23,6.87,6.87,6.87,6.87,18700,6.62
2012-08-22,6.87,6.87,6.87,6.87,6200,6.62
2012-08-21,6.76,6.76,6.76,6.76,000,6.52
2012-08-20,6.76,6.76,6.76,6.76,900,6.52
2012-08-17,6.84,6.84,6.84,6.84,5700,6.59
2012-08-16,6.84,6.84,6.84,6.84,000,6.59
2012-08-15,6.84,6.84,6.84,6.84,17300,6.59
2012-08-14,6.75,6.75,6.75,6.75,000,6.51
2012-08-13,6.75,6.75,6.75,6.75,000,6.51
2012-08-10,6.75,6.75,6.75,6.75,000,6.51
2012-08-09,6.75,6.75,6.75,6.75,000,6.51
2012-08-08,6.75,6.75,6.75,6.75,400,6.51
2012-08-07,6.82,6.82,6.82,6.82,83600,6.57
2012-08-06,6.82,6.82,6.82,6.82,7500,6.57
2012-08-03,6.80,6.80,6.80,6.80,000,6.56
2012-08-02,6.82,6.82,6.80,6.80,27100,6.56
2012-08-01,6.82,6.82,6.82,6.82,3900,6.57
2012-07-31,6.78,6.79,6.78,6.79,8800,6.55
2012-07-30,6.70,6.78,6.70,6.78,26600,6.54
2012-07-27,6.70,6.70,6.70,6.70,000,6.46
2012-07-26,6.70,6.70,6.70,6.70,100,6.46
2012-07-25,6.97,6.97,6.97,6.97,1600,6.72
2012-07-24,6.96,6.96,6.96,6.96,000,6.71
2012-07-23,6.96,6.96,6.96,6.96,000,6.71
2012-07-20,6.96,6.96,6.96,6.96,000,6.71
2012-07-19,6.96,6.96,6.96,6.96,000,6.71
2012-07-18,6.96,6.96,6.96,6.96,000,6.71
2012-07-17,6.96,6.96,6.96,6.96,000,6.71
2012-07-16,6.96,6.96,6.96,6.96,000,6.71
2012-07-13,6.96,6.96,6.96,6.96,8300,6.71
2012-07-12,6.96,6.96,6.96,6.96,000,6.71
2012-07-11,6.96,6.96,6.96,6.96,000,6.71
2012-07-10,6.96,6.96,6.96,6.96,000,6.71
2012-07-09,6.96,6.96,6.96,6.96,000,6.71
2012-07-06,6.96,6.96,6.96,6.96,5000,6.71
2012-07-05,7.49,7.49,7.49,7.49,000,7.22
2012-07-04,7.49,7.49,7.49,7.49,000,7.22
2012-07-03,7.49,7.49,7.49,7.49,000,7.22
2012-07-02,7.49,7.49,7.49,7.49,000,7.22
2012-06-29,7.49,7.49,7.49,7.49,000,7.22
2012-06-28,7.49,7.49,7.49,7.49,000,7.22
2012-06-27,7.49,7.49,7.49,7.49,000,7.22
2012-06-26,7.49,7.49,7.49,7.49,000,7.22
2012-06-25,7.49,7.49,7.49,7.49,000,7.22
2012-06-22,7.49,7.49,7.49,7.49,000,6.86
2012-06-21,7.49,7.49,7.49,7.49,000,6.86
2012-06-20,7.49,7.49,7.49,7.49,100,6.86
2012-06-19,7.45,7.45,7.45,7.45,000,6.83
2012-06-18,7.45,7.45,7.45,7.45,000,6.83
2012-06-15,7.45,7.45,7.45,7.45,000,6.83
2012-06-14,7.45,7.45,7.45,7.45,000,6.83
2012-06-13,7.45,7.45,7.45,7.45,000,6.83
2012-06-12,7.45,7.45,7.45,7.45,000,6.83
2012-06-11,7.45,7.45,7.45,7.45,000,6.83
2012-06-08,7.45,7.45,7.45,7.45,000,6.83
2012-06-07,7.45,7.45,7.45,7.45,14600,6.83
2012-06-06,7.49,7.49,7.49,7.49,000,6.86
2012-06-05,7.49,7.49,7.49,7.49,000,6.86
2012-06-04,7.49,7.49,7.49,7.49,000,6.86
2012-06-01,7.49,7.49,7.49,7.49,000,6.86
2012-05-31,7.49,7.49,7.49,7.49,000,6.86
2012-05-30,7.49,7.49,7.49,7.49,000,6.86
2012-05-29,7.49,7.49,7.49,7.49,000,6.86
2012-05-28,7.49,7.49,7.49,7.49,000,6.86
2012-05-25,7.49,7.49,7.49,7.49,14400,6.86
2012-05-24,7.49,7.49,7.49,7.49,10000,6.86
2012-05-23,7.57,7.57,7.57,7.57,000,6.94
2012-05-22,7.57,7.57,7.57,7.57,000,6.94
2012-05-21,7.57,7.57,7.57,7.57,000,6.94
2012-05-18,7.57,7.57,7.57,7.57,000,6.94
2012-05-17,7.57,7.57,7.57,7.57,000,6.94
2012-05-16,7.57,7.57,7.57,7.57,000,6.94
2012-05-15,7.57,7.57,7.57,7.57,000,6.94
2012-05-14,7.57,7.57,7.57,7.57,000,6.94
2012-05-11,7.57,7.57,7.57,7.57,000,6.94
2012-05-10,7.57,7.57,7.57,7.57,000,6.94
2012-05-09,7.57,7.57,7.57,7.57,000,6.94
2012-05-08,7.57,7.57,7.57,7.57,000,6.94
2012-05-07,7.57,7.57,7.57,7.57,000,6.94
2012-05-04,7.57,7.57,7.57,7.57,36300,6.94
2012-05-03,7.57,7.57,7.57,7.57,000,6.94
2012-05-02,7.57,7.57,7.57,7.57,39700,6.94
2012-05-01,7.55,7.55,7.55,7.55,000,6.92
2012-04-30,7.55,7.55,7.55,7.55,000,6.92
2012-04-27,7.55,7.55,7.55,7.55,000,6.92
2012-04-26,7.55,7.55,7.55,7.55,1000,6.92
2012-04-25,7.56,7.56,7.56,7.56,000,6.93
2012-04-24,7.56,7.56,7.56,7.56,000,6.93
2012-04-23,7.56,7.56,7.56,7.56,000,6.93
2012-04-20,7.64,7.64,7.56,7.56,100,6.93
2012-04-19,7.65,7.65,7.65,7.65,13300,7.01
2012-04-18,7.65,7.65,7.65,7.65,000,7.01
2012-04-17,7.65,7.65,7.65,7.65,000,7.01
2012-04-16,7.65,7.65,7.65,7.65,000,7.01
2012-04-13,7.65,7.65,7.65,7.65,000,7.01
2012-04-12,7.65,7.65,7.65,7.65,000,7.01
2012-04-11,7.65,7.65,7.65,7.65,000,7.01
2012-04-10,7.65,7.65,7.65,7.65,3400,7.01
2012-04-09,7.65,7.65,7.65,7.65,000,7.01
2012-04-06,7.65,7.65,7.65,7.65,000,7.01
2012-04-05,7.65,7.65,7.65,7.65,1500,7.01
2012-04-04,7.62,7.62,7.62,7.62,000,6.98
2012-04-03,7.62,7.62,7.62,7.62,000,6.98
2012-04-02,7.62,7.62,7.62,7.62,000,6.98
2012-03-30,7.62,7.62,7.62,7.62,000,6.98
2012-03-29,7.62,7.62,7.62,7.62,000,6.98
2012-03-28,7.62,7.62,7.62,7.62,000,6.98
2012-03-27,7.62,7.62,7.62,7.62,000,6.98
2012-03-26,7.62,7.62,7.62,7.62,000,6.98
2012-03-23,7.62,7.62,7.62,7.62,000,6.98
2012-03-22,7.62,7.62,7.62,7.62,000,6.98
2012-03-21,7.62,7.62,7.62,7.62,000,6.98
2012-03-20,7.62,7.62,7.62,7.62,000,6.98
2012-03-19,7.62,7.62,7.62,7.62,000,6.98
2012-03-16,7.62,7.62,7.62,7.62,000,6.98
2012-03-15,7.62,7.62,7.62,7.62,000,6.98
2012-03-14,7.62,7.62,7.62,7.62,18100,6.98
2012-03-13,7.51,7.51,7.51,7.51,000,6.88
2012-03-12,7.51,7.51,7.51,7.51,000,6.88
2012-03-09,7.51,7.51,7.51,7.51,000,6.88
2012-03-08,7.51,7.51,7.51,7.51,000,6.88
2012-03-07,7.51,7.51,7.51,7.51,000,6.88
2012-03-06,7.51,7.51,7.51,7.51,000,6.88
2012-03-05,7.51,7.51,7.51,7.51,000,6.88
2012-03-02,7.51,7.51,7.51,7.51,17700,6.88
2012-03-01,7.51,7.51,7.51,7.51,000,6.88
2012-02-29,7.51,7.51,7.51,7.51,000,6.88
2012-02-28,7.51,7.51,7.51,7.51,000,6.88
2012-02-27,7.51,7.51,7.51,7.51,000,6.88
2012-02-24,7.51,7.51,7.51,7.51,000,6.88
2012-02-23,7.51,7.51,7.51,7.51,000,6.88
2012-02-22,7.51,7.51,7.51,7.51,300,6.88
2012-02-21,7.51,7.51,7.51,7.51,000,6.88
2012-02-20,7.51,7.51,7.51,7.51,12900,6.88
2012-02-17,7.43,7.43,7.43,7.43,000,6.81
2012-02-16,7.43,7.43,7.43,7.43,000,6.81
2012-02-15,7.43,7.43,7.43,7.43,000,6.81
2012-02-14,7.43,7.43,7.43,7.43,000,6.81
2012-02-13,7.43,7.43,7.43,7.43,000,6.81
2012-02-10,7.43,7.43,7.43,7.43,000,6.81
2012-02-09,7.43,7.43,7.43,7.43,000,6.81
2012-02-08,7.43,7.43,7.43,7.43,000,6.81
2012-02-07,7.43,7.43,7.43,7.43,000,6.81
2012-02-06,7.43,7.43,7.43,7.43,000,6.81
2012-02-03,7.43,7.43,7.43,7.43,10000,6.81
2012-02-02,7.35,7.35,7.35,7.35,000,6.73
2012-02-01,7.35,7.35,7.35,7.35,000,6.73
2012-01-31,7.35,7.35,7.35,7.35,000,6.73
2012-01-27,7.35,7.35,7.35,7.35,000,6.73
2012-01-26,7.35,7.35,7.35,7.35,000,6.73
2012-01-25,7.35,7.35,7.35,7.35,000,6.73
2012-01-24,7.35,7.35,7.35,7.35,4900,6.73
2012-01-23,7.35,7.35,7.35,7.35,000,6.73
2012-01-20,7.35,7.35,7.35,7.35,200,6.73
2012-01-19,7.36,7.36,7.36,7.36,000,6.74
2012-01-18,7.36,7.36,7.36,7.36,000,6.74
2012-01-17,7.36,7.36,7.36,7.36,000,6.74
2012-01-16,7.36,7.36,7.36,7.36,000,6.74
2012-01-13,7.36,7.36,7.36,7.36,000,6.74
2012-01-12,7.36,7.36,7.36,7.36,17500,6.74
2012-01-11,7.36,7.36,7.36,7.36,000,6.74
2012-01-10,7.36,7.36,7.36,7.36,10000,6.74
2012-01-09,7.44,7.44,7.44,7.44,000,6.82
2012-01-06,7.44,7.44,7.44,7.44,000,6.82
2012-01-05,7.44,7.44,7.44,7.44,10000,6.82
2012-01-04,7.37,7.37,7.37,7.37,000,6.75
2012-01-03,7.37,7.37,7.37,7.37,000,6.75
2012-01-02,7.37,7.37,7.37,7.37,000,6.75
2011-12-30,7.37,7.37,7.37,7.37,000,6.75
2011-12-29,7.37,7.37,7.37,7.37,000,6.75
2011-12-28,7.37,7.37,7.37,7.37,000,6.75
2011-12-27,7.37,7.37,7.37,7.37,000,6.75
2011-12-26,7.37,7.37,7.37,7.37,000,6.75
2011-12-23,7.37,7.37,7.37,7.37,000,6.75
2011-12-22,7.37,7.37,7.37,7.37,000,6.75
2011-12-21,7.37,7.37,7.37,7.37,8000,6.75
2011-12-20,7.37,7.37,7.37,7.37,000,6.75
2011-12-19,7.37,7.37,7.37,7.37,000,6.75
2011-12-16,7.37,7.37,7.37,7.37,000,6.75
2011-12-15,7.37,7.37,7.37,7.37,000,6.75
2011-12-14,7.37,7.37,7.37,7.37,1000,6.75
2011-12-13,7.37,7.37,7.37,7.37,4000,6.75
2011-12-12,7.45,7.45,7.45,7.45,000,6.82
2011-12-09,7.45,7.45,7.45,7.45,000,6.82
2011-12-08,7.45,7.45,7.45,7.45,000,6.82
2011-12-07,7.45,7.45,7.45,7.45,000,6.82
2011-12-06,7.45,7.45,7.45,7.45,000,6.82
2011-12-05,7.45,7.45,7.45,7.45,000,6.82
2011-12-02,7.45,7.45,7.45,7.45,000,6.82
2011-12-01,7.45,7.45,7.45,7.45,000,6.82
2011-11-30,7.45,7.45,7.45,7.45,000,6.82
2011-11-29,7.45,7.45,7.45,7.45,000,6.82
2011-11-28,7.45,7.45,7.45,7.45,000,6.82
2011-11-25,7.45,7.45,7.45,7.45,000,6.82
2011-11-24,7.45,7.45,7.45,7.45,14000,6.82
2011-11-23,7.36,7.36,7.36,7.36,000,6.74
2011-11-22,7.36,7.36,7.36,7.36,000,6.74
2011-11-21,7.36,7.36,7.36,7.36,000,6.74
2011-11-18,7.36,7.36,7.36,7.36,000,6.74
2011-11-17,7.36,7.36,7.36,7.36,000,6.74
2011-11-09,7.36,7.36,7.36,7.36,7900,6.74
2011-10-31,7.36,7.44,7.36,7.36,24000,6.74
2011-08-31,8.06,8.06,8.06,8.06,15000,7.38
2011-08-05,8.06,8.06,8.06,8.06,53200,7.38
2011-07-28,8.06,8.06,8.06,8.06,100,7.38
2011-07-22,8.14,8.14,8.14,8.14,13100,7.45
2011-07-01,8.10,8.10,8.10,8.10,900,7.41
2011-06-21,8.19,8.19,8.16,8.16,2500,6.94
2011-06-10,8.19,8.19,8.19,8.19,500,6.97
2011-06-06,8.26,8.26,8.26,8.26,13600,7.02
2011-06-02,8.18,8.18,8.18,8.18,13400,6.96
2011-05-30,8.18,8.18,8.18,8.18,300,6.96
2011-05-25,8.18,8.18,8.18,8.18,14000,6.96
2011-05-23,8.26,8.26,8.26,8.26,21100,7.02
2011-05-18,8.18,8.18,8.18,8.18,600,6.96
2011-05-09,8.02,8.02,8.02,8.02,200,6.82
2011-05-03,8.10,8.10,8.10,8.10,14500,6.89
2011-04-06,8.00,8.00,8.00,8.00,35400,6.80
2011-03-28,8.00,8.00,8.00,8.00,2200,6.80
2011-03-17,8.08,8.08,8.08,8.08,1700,6.87
2011-02-21,7.76,7.80,7.76,7.80,61700,6.63
2011-01-17,7.88,7.88,7.88,7.88,200,6.70
2010-12-14,7.59,7.60,7.59,7.60,4700,6.46
2010-12-03,7.54,7.54,7.54,7.54,1300,6.41
2010-12-02,7.54,7.54,7.54,7.54,1300,6.41
2010-11-15,7.54,7.54,7.54,7.54,4500,6.41
2010-10-07,7.19,7.19,7.19,7.19,10900,6.11
2010-09-28,7.19,7.19,7.19,7.19,600,6.11
2010-09-23,7.19,7.19,7.19,7.19,700,6.11
2010-09-09,7.16,7.16,7.16,7.16,5000,6.08
2010-09-01,7.29,7.29,7.29,7.29,200,6.19
2010-08-25,7.29,7.29,7.29,7.29,3400,6.19
2010-08-10,7.28,7.28,7.28,7.28,4500,6.18
2010-08-09,7.28,7.28,7.28,7.28,30900,6.18
2010-08-04,7.28,7.28,7.28,7.28,2500,6.18
2010-08-02,7.28,7.28,7.28,7.28,500,6.18
2010-07-28,7.30,7.30,7.30,7.30,500,6.20
2010-06-25,7.29,7.29,7.29,7.29,5000,6.19
2010-06-15,7.82,7.82,7.82,7.82,400,6.31
2010-06-11,7.82,7.82,7.82,7.82,5000,6.31
2010-05-21,7.82,7.82,7.82,7.82,1000,6.31
2010-05-11,7.80,7.80,7.80,7.80,100,6.29
2010-04-19,7.72,7.72,7.72,7.72,300,6.23
2010-04-16,7.72,7.72,7.72,7.72,6000,6.23
2010-04-06,7.46,7.46,7.46,7.46,5000,6.02
2010-03-24,7.54,7.54,7.54,7.54,2600,6.08
2010-03-19,7.46,7.46,7.46,7.46,1600,6.02
2010-03-11,7.46,7.46,7.46,7.46,11700,6.02
2010-03-01,7.46,7.46,7.46,7.46,100,6.02
2010-01-05,7.65,7.65,7.65,7.65,300,6.17
2009-11-13,7.35,7.35,7.35,7.35,1200,5.92
2009-11-11,7.35,7.35,7.35,7.35,23300,5.92
2009-11-10,7.35,7.35,7.35,7.35,19500,5.92
2009-11-05,7.34,7.34,7.34,7.34,000,5.91
2009-11-04,7.34,7.34,7.34,7.34,000,5.91
2009-11-03,7.34,7.34,7.34,7.34,000,5.91
2009-11-02,7.34,7.34,7.34,7.34,000,5.91
2009-10-30,7.34,7.34,7.34,7.34,000,5.91
2009-10-29,7.34,7.34,7.34,7.34,000,5.91
2009-10-28,7.34,7.34,7.34,7.34,000,5.91
2009-10-27,7.34,7.34,7.34,7.34,400,5.91
2009-10-26,7.34,7.34,7.34,7.34,000,5.91
2009-10-23,7.34,7.34,7.34,7.34,000,5.91
2009-10-22,7.34,7.34,7.34,7.34,000,5.91
2009-10-21,7.34,7.34,7.34,7.34,000,5.91
2009-10-20,7.34,7.34,7.34,7.34,000,5.91
2009-10-19,7.34,7.34,7.34,7.34,15000,5.91
2009-10-16,7.34,7.34,7.34,7.34,000,5.91
2009-10-15,7.34,7.34,7.34,7.34,000,5.91
2009-10-14,7.34,7.34,7.34,7.34,5000,5.91
2009-10-13,7.45,7.45,7.26,7.26,7600,5.84
2009-10-12,7.66,7.66,7.66,7.66,000,6.16
2009-10-09,7.66,7.66,7.66,7.66,000,6.16
2009-10-08,7.66,7.66,7.66,7.66,000,6.16
2009-10-07,7.66,7.66,7.66,7.66,000,6.16
2009-10-06,7.66,7.66,7.66,7.66,000,6.16
2009-10-05,7.58,7.58,7.58,7.58,000,6.10
2009-10-02,7.58,7.58,7.58,7.58,3000,6.10
2009-10-01,7.58,7.58,7.58,7.58,000,6.10
2009-09-30,7.58,7.58,7.58,7.58,000,6.10
2009-09-29,7.58,7.58,7.58,7.58,000,6.10
2009-09-28,7.58,7.58,7.58,7.58,000,6.10
2009-09-25,7.58,7.58,7.58,7.58,000,6.10
2009-09-24,7.58,7.58,7.58,7.58,000,6.10
2009-09-23,7.58,7.58,7.58,7.58,000,6.10
2009-09-22,7.58,7.58,7.58,7.58,000,6.10
2009-09-21,7.58,7.58,7.58,7.58,000,6.10
2009-09-18,7.58,7.58,7.58,7.58,000,6.10
2009-09-17,7.58,7.58,7.58,7.58,000,6.10
2009-09-16,7.58,7.58,7.58,7.58,000,6.10
2009-09-15,7.58,7.58,7.58,7.58,11600,6.10
2009-09-14,7.34,7.34,7.34,7.34,5000,5.91
2009-09-11,7.26,7.26,7.26,7.26,200,5.84
2009-09-10,7.26,7.26,7.26,7.26,000,5.84
2009-09-09,7.26,7.26,7.26,7.26,000,5.84
2009-09-08,7.26,7.26,7.26,7.26,000,5.84
2009-09-07,7.26,7.26,7.26,7.26,000,5.84
2009-09-04,7.26,7.26,7.26,7.26,000,5.84
2009-09-03,7.26,7.26,7.26,7.26,000,5.84
2009-09-02,7.26,7.26,7.26,7.26,000,5.84
2009-09-01,7.26,7.26,7.26,7.26,500,5.84
2009-08-31,7.26,7.26,7.26,7.26,000,5.84
2009-08-28,7.26,7.26,7.26,7.26,000,5.84
2009-08-27,7.26,7.26,7.26,7.26,000,5.84
2009-08-26,7.26,7.26,7.26,7.26,000,5.84
2009-08-25,7.26,7.26,7.26,7.26,000,5.84
2009-08-24,7.26,7.26,7.26,7.26,000,5.84
2009-08-21,7.34,7.34,7.26,7.26,100,5.84
2009-08-20,7.34,7.34,7.34,7.34,000,5.91
2009-08-19,7.34,7.34,7.34,7.34,000,5.91
2009-08-18,7.34,7.34,7.34,7.34,000,5.91
2009-08-17,7.34,7.34,7.34,7.34,7500,5.91
2009-08-14,7.12,7.12,7.12,7.12,000,5.73
2009-08-13,7.12,7.12,7.12,7.12,000,5.73
2009-08-12,7.12,7.12,7.12,7.12,000,5.73
2009-08-11,7.12,7.12,7.12,7.12,2900,5.73
2009-08-10,7.04,7.04,7.04,7.04,000,5.67
2009-08-07,7.04,7.04,7.04,7.04,2300,5.67
2009-08-06,7.12,7.12,7.12,7.12,000,5.73
2009-08-05,7.12,7.12,7.12,7.12,000,5.73
2009-08-04,7.12,7.12,7.12,7.12,000,5.73
2009-08-03,7.12,7.12,7.12,7.12,4400,5.73
2009-07-31,7.04,7.04,7.04,7.04,000,5.67
2009-07-30,7.04,7.04,7.04,7.04,000,5.67
2009-07-29,7.04,7.04,7.04,7.04,000,5.67
2009-07-28,7.05,7.05,7.04,7.04,2000,5.67
2009-07-27,7.12,7.12,7.04,7.04,3100,5.67
2009-07-24,7.21,7.21,7.21,7.21,000,5.80
2009-07-23,7.21,7.21,7.21,7.21,000,5.80
2009-07-22,7.21,7.21,7.21,7.21,000,5.80
2009-07-21,7.21,7.21,7.21,7.21,000,5.80
2009-07-20,7.21,7.21,7.21,7.21,000,5.80
2009-07-17,7.21,7.21,7.21,7.21,000,5.80
2009-07-16,7.21,7.21,7.21,7.21,000,5.80
2009-07-15,7.21,7.21,7.21,7.21,000,5.80
2009-07-14,7.21,7.21,7.21,7.21,8000,5.80
2009-07-13,7.13,7.13,7.13,7.13,000,5.74
2009-07-10,7.13,7.13,7.13,7.13,4500,5.74
2009-07-09,7.13,7.13,7.13,7.13,17500,5.74
2009-07-08,7.13,7.13,7.13,7.13,000,5.74
2009-07-07,7.13,7.13,7.13,7.13,10500,5.74
2009-07-06,7.13,7.13,7.13,7.13,2500,5.74
2009-07-03,7.13,7.13,7.13,7.13,1500,5.74
2009-07-02,7.21,7.21,7.21,7.21,4300,5.80
2009-07-01,7.21,7.21,7.13,7.13,8400,5.74
2009-06-30,7.13,7.13,7.13,7.13,000,5.74
2009-06-29,7.13,7.13,7.13,7.13,5000,5.74
2009-06-26,7.21,7.21,7.21,7.21,000,5.80
2009-06-25,7.21,7.21,7.21,7.21,000,5.80
2009-06-24,7.21,7.21,7.21,7.21,1000,5.80
2009-06-23,7.46,7.46,7.46,7.46,000,5.86
2009-06-22,7.46,7.46,7.46,7.46,000,5.86
2009-06-19,7.46,7.46,7.46,7.46,4900,5.86
2009-06-18,7.16,7.16,7.16,7.16,000,5.63
2009-06-17,7.16,7.16,7.16,7.16,000,5.63
2009-06-16,7.16,7.16,7.16,7.16,000,5.63
2009-06-15,7.16,7.16,7.16,7.16,000,5.63
2009-06-12,7.16,7.16,7.16,7.16,000,5.63
2009-06-11,7.16,7.16,7.16,7.16,9700,5.63
2009-06-10,7.08,7.08,7.08,7.08,000,5.56
2009-06-09,7.08,7.08,7.08,7.08,000,5.56
2009-06-05,7.08,7.08,7.08,7.08,10000,5.56
2009-06-04,7.16,7.16,7.16,7.16,000,5.63
2009-06-03,7.16,7.16,7.16,7.16,000,5.63
2009-06-02,7.08,7.16,7.08,7.16,6900,5.63
2009-06-01,7.16,7.16,7.16,7.16,000,5.63
2009-05-29,7.16,7.16,7.16,7.16,000,5.63
2009-05-28,7.16,7.16,7.16,7.16,000,5.63
2009-05-27,7.16,7.16,7.16,7.16,000,5.63
2009-05-26,7.16,7.16,7.16,7.16,2700,5.63
2009-05-25,7.24,7.24,7.24,7.24,000,5.69
2009-05-22,7.24,7.24,7.24,7.24,000,5.69
2009-05-21,7.24,7.24,7.24,7.24,000,5.69
2009-05-20,7.24,7.24,7.24,7.24,000,5.69
2009-05-19,7.24,7.24,7.24,7.24,000,5.69
2009-05-18,7.24,7.24,7.24,7.24,000,5.69
2009-05-15,7.24,7.24,7.24,7.24,000,5.69
2009-05-14,7.24,7.24,7.24,7.24,5000,5.69
2009-05-13,7.24,7.24,7.24,7.24,000,5.69
2009-05-12,7.24,7.24,7.24,7.24,000,5.69
2009-05-11,7.24,7.24,7.24,7.24,4100,5.69
2009-05-08,7.16,7.16,7.16,7.16,2300,5.63
2009-05-07,7.30,7.30,7.30,7.30,000,5.74
2009-05-06,7.30,7.30,7.30,7.30,000,5.74
2009-05-05,7.30,7.30,7.30,7.30,000,5.74
2009-05-04,7.30,7.30,7.30,7.30,000,5.74
2009-05-01,7.30,7.30,7.30,7.30,000,5.74
2009-04-30,7.30,7.30,7.30,7.30,000,5.74
2009-04-29,7.30,7.30,7.30,7.30,000,5.74
2009-04-28,7.30,7.30,7.30,7.30,000,5.74
2009-04-27,7.30,7.30,7.30,7.30,000,5.74
2009-04-24,7.30,7.30,7.30,7.30,000,5.74
2009-04-23,7.30,7.30,7.30,7.30,000,5.74
2009-04-22,7.30,7.30,7.30,7.30,000,5.74
2009-04-21,7.30,7.30,7.30,7.30,000,5.74
2009-04-20,7.30,7.30,7.30,7.30,000,5.74
2009-04-17,7.30,7.30,7.30,7.30,000,5.74
2009-04-16,7.30,7.30,7.30,7.30,000,5.74
2009-04-15,7.30,7.30,7.30,7.30,000,5.74
2009-04-14,7.30,7.30,7.30,7.30,000,5.74
2009-04-09,7.30,7.30,7.30,7.30,000,5.74
2009-04-08,7.30,7.30,7.30,7.30,000,5.74
2009-04-07,7.30,7.30,7.30,7.30,000,5.74
2009-04-06,7.30,7.30,7.30,7.30,000,5.74
2009-04-03,7.30,7.30,7.30,7.30,000,5.74
2009-04-02,7.30,7.30,7.30,7.30,000,5.74
2009-04-01,7.30,7.30,7.30,7.30,000,5.74
2009-03-31,7.30,7.30,7.30,7.30,6600,5.74
2009-03-30,7.25,7.25,7.25,7.25,000,5.70
2009-03-27,7.25,7.25,7.25,7.25,000,5.70
2009-03-26,7.25,7.25,7.25,7.25,000,5.70
2009-03-25,7.25,7.25,7.25,7.25,000,5.70
2009-03-24,7.25,7.25,7.25,7.25,000,5.70
2009-03-23,7.25,7.25,7.25,7.25,000,5.70
2009-03-20,7.25,7.25,7.25,7.25,000,5.70
2009-03-19,7.25,7.25,7.25,7.25,000,5.70
2009-03-18,7.25,7.25,7.25,7.25,000,5.70
2009-03-17,7.25,7.25,7.25,7.25,000,5.70
2009-03-16,7.25,7.25,7.25,7.25,000,5.70
2009-03-13,7.25,7.25,7.25,7.25,000,5.70
2009-03-12,7.25,7.25,7.25,7.25,000,5.70
2009-03-11,7.25,7.25,7.25,7.25,000,5.70
2009-03-10,7.25,7.25,7.25,7.25,000,5.70
2009-03-09,7.25,7.25,7.25,7.25,000,5.70
2009-03-06,7.25,7.25,7.25,7.25,000,5.70
2009-03-05,7.25,7.25,7.25,7.25,000,5.70
2009-03-04,7.25,7.25,7.25,7.25,000,5.70
2009-03-03,7.25,7.25,7.25,7.25,000,5.70
2009-03-02,7.25,7.25,7.25,7.25,000,5.70
2009-02-27,7.25,7.25,7.25,7.25,2500,5.70
2009-02-26,7.25,7.25,7.25,7.25,2500,5.70
2009-02-25,7.25,7.25,7.25,7.25,000,5.70
2009-02-24,7.25,7.25,7.25,7.25,000,5.70
2009-02-23,7.25,7.25,7.25,7.25,000,5.70
2009-02-20,7.25,7.25,7.25,7.25,000,5.70
2009-02-19,7.25,7.25,7.25,7.25,000,5.70
2009-02-18,7.25,7.25,7.25,7.25,000,5.70
2009-02-17,7.25,7.25,7.25,7.25,000,5.70
2009-02-16,7.25,7.25,7.25,7.25,000,5.70
2009-02-13,7.25,7.25,7.25,7.25,2500,5.70
2009-02-12,6.96,6.96,6.96,6.96,000,5.47
2009-02-11,6.96,6.96,6.96,6.96,000,5.47
2009-02-10,6.96,6.96,6.96,6.96,000,5.47
2009-02-09,6.96,6.96,6.96,6.96,000,5.47
2009-02-06,6.96,6.96,6.96,6.96,1500,5.47
2009-02-05,7.07,7.07,7.07,7.07,000,5.56
2009-02-04,7.07,7.07,7.07,7.07,000,5.56
2009-02-03,7.07,7.07,7.07,7.07,000,5.56
2009-02-02,7.07,7.07,7.07,7.07,000,5.56
2009-01-30,7.07,7.07,7.07,7.07,000,5.56
2009-01-29,7.07,7.07,7.07,7.07,000,5.56
2009-01-28,7.07,7.07,7.07,7.07,000,5.56
2009-01-27,7.07,7.07,7.07,7.07,000,5.56
2009-01-23,7.07,7.07,7.07,7.07,000,5.56
2009-01-22,7.07,7.07,7.07,7.07,000,5.56
2009-01-21,7.07,7.07,7.07,7.07,000,5.56
2009-01-20,7.07,7.07,7.07,7.07,000,5.56
2009-01-19,7.07,7.07,7.07,7.07,000,5.56
2009-01-16,7.07,7.07,7.07,7.07,000,5.56
2009-01-15,7.07,7.07,7.07,7.07,000,5.56
2009-01-14,7.07,7.07,7.07,7.07,000,5.56
2009-01-13,7.07,7.07,7.07,7.07,000,5.56
2009-01-12,7.07,7.07,7.07,7.07,1400,5.56
2009-01-09,7.07,7.07,7.07,7.07,000,5.56
2009-01-08,7.07,7.07,7.07,7.07,000,5.56
2009-01-07,7.07,7.07,7.07,7.07,600,5.56
2009-01-06,7.15,7.15,7.15,7.15,000,5.62
2009-01-05,7.15,7.15,7.15,7.15,000,5.62
2009-01-02,7.15,7.15,7.15,7.15,000,5.62
2008-12-31,7.15,7.15,7.15,7.15,000,5.62
2008-12-30,7.15,7.15,7.15,7.15,000,5.62
2008-12-29,7.15,7.15,7.15,7.15,000,5.62
2008-12-24,7.15,7.15,7.15,7.15,000,5.62
2008-12-23,7.15,7.15,7.15,7.15,000,5.62
2008-12-22,7.15,7.15,7.15,7.15,100,5.62
2008-12-19,7.21,7.21,7.21,7.21,000,5.67
2008-12-18,7.21,7.21,7.21,7.21,000,5.67
2008-12-17,7.21,7.21,7.21,7.21,000,5.67
2008-12-16,7.21,7.21,7.21,7.21,000,5.67
2008-12-15,7.21,7.21,7.21,7.21,000,5.67
2008-12-12,7.21,7.21,7.21,7.21,000,5.67
2008-12-11,7.21,7.21,7.21,7.21,2900,5.67
2008-12-10,7.11,7.11,7.11,7.11,000,5.59
2008-12-09,7.11,7.11,7.11,7.11,000,5.59
2008-12-08,7.11,7.11,7.11,7.11,000,5.59
2008-12-05,7.11,7.11,7.11,7.11,000,5.59
2008-12-04,7.11,7.11,7.11,7.11,000,5.59
2008-12-03,7.11,7.11,7.11,7.11,000,5.59
2008-12-02,7.11,7.11,7.11,7.11,000,5.59
2008-12-01,7.11,7.11,7.11,7.11,000,5.59
2008-11-28,7.11,7.11,7.11,7.11,000,5.59
2008-11-27,7.11,7.11,7.11,7.11,72800,5.59
2008-11-26,7.11,7.11,7.11,7.11,20000,5.59
2008-11-25,7.11,7.11,7.11,7.11,18400,5.59
2008-11-24,7.11,7.11,7.11,7.11,000,5.59
2008-11-21,7.11,7.11,7.11,7.11,000,5.59
2008-11-20,7.11,7.11,7.11,7.11,100,5.59
2008-11-19,8.44,8.44,8.44,8.44,000,6.63
2008-11-18,8.44,8.44,8.44,8.44,000,6.63
2008-11-17,8.44,8.44,8.44,8.44,000,6.63
2008-11-14,8.44,8.44,8.44,8.44,000,6.63
2008-11-13,8.44,8.44,8.44,8.44,000,6.63
2008-11-12,8.44,8.44,8.44,8.44,000,6.63
2008-11-11,8.44,8.44,8.44,8.44,000,6.63
2008-11-10,8.44,8.44,8.44,8.44,000,6.63
2008-11-07,8.44,8.44,8.44,8.44,000,6.63
2008-11-06,8.44,8.44,8.44,8.44,000,6.63
2008-11-05,8.44,8.44,8.44,8.44,000,6.63
2008-11-04,8.44,8.44,8.44,8.44,000,6.63
2008-11-03,8.44,8.44,8.44,8.44,000,6.63
2008-10-31,8.44,8.44,8.44,8.44,000,6.63
2008-10-30,8.44,8.44,8.44,8.44,000,6.63
2008-10-29,8.44,8.44,8.44,8.44,000,6.63
2008-10-28,8.44,8.44,8.44,8.44,000,6.63
2008-10-27,8.44,8.44,8.44,8.44,000,6.63
2008-10-24,8.44,8.44,8.44,8.44,000,6.63
2008-10-23,8.44,8.44,8.44,8.44,000,6.63
2008-10-22,8.44,8.44,8.44,8.44,000,6.63
2008-10-21,8.44,8.44,8.44,8.44,000,6.63
2008-10-20,8.44,8.44,8.44,8.44,000,6.63
2008-10-17,8.44,8.44,8.44,8.44,000,6.63
2008-10-16,8.44,8.44,8.44,8.44,000,6.63
2008-10-15,8.44,8.44,8.44,8.44,000,6.63
2008-10-14,8.44,8.44,8.44,8.44,000,6.63
2008-10-13,8.44,8.44,8.44,8.44,000,6.63
2008-10-10,8.44,8.44,8.44,8.44,000,6.63
2008-10-09,8.44,8.44,8.44,8.44,000,6.63
2008-10-08,8.44,8.44,8.44,8.44,000,6.63
2008-10-07,8.44,8.44,8.44,8.44,000,6.63
2008-10-06,8.44,8.44,8.44,8.44,000,6.63
2008-10-03,8.44,8.44,8.44,8.44,000,6.63
2008-10-02,8.44,8.44,8.44,8.44,000,6.63
2008-10-01,8.44,8.44,8.44,8.44,000,6.63
2008-09-30,8.44,8.44,8.44,8.44,000,6.63
2008-09-29,8.44,8.44,8.44,8.44,000,6.63
2008-09-26,8.44,8.44,8.44,8.44,000,6.63
2008-09-25,8.45,8.45,8.44,8.44,1000,6.63
2008-09-24,8.44,8.44,8.44,8.44,000,6.63
2008-09-23,8.44,8.44,8.44,8.44,000,6.63
2008-09-22,8.44,8.44,8.44,8.44,200,6.63
2008-09-19,8.44,8.44,8.44,8.44,200,6.63
2008-09-18,8.44,8.44,8.44,8.44,000,6.63
2008-09-17,8.44,8.44,8.44,8.44,100,6.63
2008-09-16,8.51,8.51,8.51,8.51,000,6.69
2008-09-15,8.51,8.51,8.51,8.51,000,6.69
2008-09-12,8.51,8.51,8.51,8.51,000,6.69
2008-09-11,8.51,8.51,8.51,8.51,000,6.69
2008-09-10,8.51,8.51,8.51,8.51,000,6.69
2008-09-09,8.51,8.51,8.51,8.51,000,6.69
2008-09-08,8.51,8.51,8.51,8.51,000,6.69
2008-09-05,8.51,8.51,8.51,8.51,000,6.69
2008-09-04,8.51,8.51,8.51,8.51,000,6.69
2008-09-03,8.51,8.51,8.51,8.51,000,6.69
2008-09-02,8.51,8.51,8.51,8.51,000,6.69
2008-09-01,8.51,8.51,8.51,8.51,000,6.69
2008-08-29,8.45,8.51,8.45,8.51,9100,6.69
2008-08-28,8.46,8.46,8.46,8.46,000,6.65
2008-08-27,8.46,8.46,8.46,8.46,000,6.65
2008-08-26,8.46,8.46,8.46,8.46,000,6.65
2008-08-25,8.46,8.46,8.46,8.46,2600,6.65
2008-08-22,8.70,8.70,8.70,8.70,000,6.84
2008-08-21,8.70,8.70,8.70,8.70,000,6.84
2008-08-20,8.70,8.70,8.70,8.70,000,6.84
2008-08-19,8.70,8.70,8.70,8.70,000,6.84
2008-08-18,8.70,8.70,8.70,8.70,000,6.84
2008-08-15,8.70,8.70,8.70,8.70,000,6.84
2008-08-14,8.70,8.70,8.70,8.70,500,6.84
2008-08-13,8.77,8.77,8.77,8.77,000,6.89
2008-08-12,8.77,8.77,8.77,8.77,000,6.89
2008-08-11,8.77,8.77,8.77,8.77,000,6.89
2008-08-08,8.77,8.77,8.77,8.77,000,6.89
2008-08-07,8.77,8.77,8.77,8.77,000,6.89
2008-08-06,8.77,8.77,8.77,8.77,000,6.89
2008-08-05,8.77,8.77,8.77,8.77,000,6.89
2008-08-04,8.77,8.77,8.77,8.77,000,6.89
2008-08-01,8.77,8.77,8.77,8.77,000,6.89
2008-07-31,8.77,8.77,8.77,8.77,000,6.89
2008-07-30,8.77,8.77,8.77,8.77,000,6.89
2008-07-29,8.77,8.77,8.77,8.77,000,6.89
2008-07-28,8.77,8.77,8.77,8.77,000,6.89
2008-07-25,8.77,8.77,8.77,8.77,000,6.89
2008-07-24,8.77,8.77,8.77,8.77,2500,6.89
2008-07-23,8.69,8.69,8.69,8.69,000,6.83
2008-07-22,8.69,8.69,8.69,8.69,000,6.83
2008-07-21,8.69,8.69,8.69,8.69,000,6.83
2008-07-18,8.69,8.69,8.69,8.69,000,6.83
2008-07-17,8.69,8.69,8.69,8.69,000,6.83
2008-07-16,8.69,8.69,8.69,8.69,2500,6.83
2008-07-15,8.69,8.69,8.69,8.69,55000,6.83
2008-07-14,8.44,8.44,8.44,8.44,000,6.63
2008-07-11,8.44,8.44,8.44,8.44,000,6.63
2008-07-10,8.44,8.44,8.44,8.44,000,6.63
2008-07-09,8.44,8.44,8.44,8.44,000,6.63
2008-07-08,8.44,8.44,8.44,8.44,5000,6.63
2008-07-07,9.30,9.30,9.30,9.30,000,7.31
2008-07-04,9.30,9.30,9.30,9.30,000,7.31
2008-07-03,9.30,9.30,9.30,9.30,000,7.31
2008-07-02,9.30,9.30,9.30,9.30,000,7.31
2008-07-01,9.30,9.30,9.30,9.30,000,7.31
2008-06-30,9.30,9.30,9.30,9.30,000,7.31
2008-06-27,9.30,9.30,9.30,9.30,000,7.31
2008-06-26,9.30,9.30,9.30,9.30,000,7.31
2008-06-25,9.30,9.30,9.30,9.30,000,7.31
2008-06-24,9.30,9.30,9.30,9.30,000,7.31
2008-06-23,9.30,9.30,9.30,9.30,1400,6.86
2008-06-20,9.30,9.30,9.30,9.30,000,6.86
2008-06-19,9.30,9.30,9.30,9.30,000,6.86
2008-06-18,9.30,9.30,9.30,9.30,000,6.86
2008-06-17,9.10,9.10,9.10,9.10,000,6.71
2008-06-16,9.10,9.10,9.10,9.10,400,6.71
2008-06-13,8.98,8.98,8.98,8.98,000,6.62
2008-06-12,8.98,8.98,8.98,8.98,000,6.62
2008-06-11,8.98,8.98,8.98,8.98,000,6.62
2008-06-10,8.98,8.98,8.98,8.98,000,6.62
2008-06-06,8.98,8.98,8.98,8.98,000,6.62
2008-06-05,8.98,8.98,8.98,8.98,000,6.62
2008-06-04,8.98,8.98,8.98,8.98,000,6.62
2008-06-03,8.98,8.98,8.98,8.98,000,6.62
2008-06-02,8.98,8.98,8.98,8.98,000,6.62
2008-05-30,8.98,8.98,8.98,8.98,2500,6.62
2008-05-29,8.98,8.98,8.98,8.98,000,6.62
2008-05-28,8.98,8.98,8.98,8.98,000,6.62
2008-05-27,8.98,8.98,8.98,8.98,000,6.62
2008-05-26,8.98,8.98,8.98,8.98,000,6.62
2008-05-23,8.98,8.98,8.98,8.98,000,6.62
2008-05-22,8.98,8.98,8.98,8.98,000,6.62
2008-05-21,8.98,8.98,8.98,8.98,000,6.62
2008-05-20,8.98,8.98,8.98,8.98,200,6.62
2008-05-19,9.19,9.19,9.19,9.19,000,6.78
2008-05-16,9.19,9.19,9.19,9.19,000,6.78
2008-05-15,9.19,9.19,9.19,9.19,000,6.78
2008-05-14,9.19,9.19,9.19,9.19,000,6.78
2008-05-13,9.19,9.19,9.19,9.19,000,6.78
2008-05-12,9.19,9.19,9.19,9.19,000,6.78
2008-05-09,9.19,9.19,9.19,9.19,000,6.78
2008-05-08,9.19,9.19,9.19,9.19,000,6.78
2008-05-07,9.19,9.19,9.19,9.19,000,6.78
2008-05-06,9.19,9.19,9.19,9.19,000,6.78
2008-05-05,9.19,9.19,9.19,9.19,000,6.78
2008-05-02,9.19,9.19,9.19,9.19,000,6.78
2008-05-01,9.19,9.19,9.19,9.19,000,6.78
2008-04-30,9.19,9.19,9.19,9.19,000,6.78
2008-04-29,9.19,9.19,9.19,9.19,000,6.78
2008-04-28,9.19,9.19,9.19,9.19,000,6.78
2008-04-24,9.19,9.19,9.19,9.19,000,6.78
2008-04-23,9.19,9.19,9.19,9.19,000,6.78
2008-04-22,9.19,9.19,9.19,9.19,000,6.78
2008-04-21,9.19,9.19,9.19,9.19,000,6.78
2008-04-18,9.19,9.19,9.19,9.19,000,6.78
2008-04-17,9.19,9.19,9.19,9.19,000,6.78
2008-04-16,9.19,9.19,9.19,9.19,000,6.78
2008-04-15,9.19,9.19,9.19,9.19,000,6.78
2008-04-14,9.19,9.19,9.19,9.19,000,6.78
2008-04-11,9.19,9.19,9.19,9.19,000,6.78
2008-04-10,9.19,9.19,9.19,9.19,000,6.78
2008-04-09,9.19,9.19,9.19,9.19,000,6.78
2008-04-08,9.19,9.19,9.19,9.19,000,6.78
2008-04-07,9.19,9.19,9.19,9.19,000,6.78
2008-04-04,9.19,9.19,9.19,9.19,000,6.78
2008-04-03,9.19,9.19,9.19,9.19,000,6.78
2008-04-02,9.19,9.19,9.19,9.19,000,6.78
2008-04-01,9.19,9.19,9.19,9.19,000,6.78
2008-03-31,9.19,9.19,9.19,9.19,000,6.78
2008-03-28,9.19,9.19,9.19,9.19,2600,6.78
2008-03-27,9.19,9.19,9.19,9.19,200,6.78
2008-03-26,9.27,9.27,9.19,9.19,000,6.78
2008-03-25,9.27,9.27,9.19,9.19,000,6.78
2008-03-20,9.27,9.27,9.19,9.19,000,6.78
2008-03-19,9.27,9.27,9.19,9.19,000,6.78
2008-03-18,9.19,9.19,9.19,9.19,400,6.78
2008-03-17,9.19,9.19,9.19,9.19,200,6.78
2008-03-14,9.08,9.08,9.00,9.00,000,6.64
2008-03-13,9.08,9.08,9.00,9.00,000,6.64
2008-03-12,9.02,9.02,9.02,9.02,2500,6.65
2008-03-11,9.08,9.08,9.00,9.00,000,6.64
2008-03-10,9.08,9.08,9.00,9.00,000,6.64
2008-03-07,9.08,9.08,9.00,9.00,000,6.64
2008-03-06,9.08,9.08,9.00,9.00,000,6.64
2008-03-05,9.08,9.08,9.00,9.00,000,6.64
2008-03-04,9.08,9.08,9.00,9.00,000,6.64
2008-03-03,9.02,9.02,9.02,9.02,4500,6.65
2008-02-29,9.08,9.08,9.00,9.00,000,6.64
2008-02-28,9.08,9.08,9.00,9.00,000,6.64
2008-02-27,9.08,9.08,9.00,9.00,000,6.64
2008-02-26,9.08,9.08,9.00,9.00,000,6.64
2008-02-25,9.08,9.08,9.00,9.00,000,6.64
2008-02-22,9.08,9.08,9.00,9.00,000,6.64
2008-02-21,9.08,9.08,9.00,9.00,000,6.64
2008-02-20,9.00,9.00,9.00,9.00,600,6.64
2008-02-19,9.08,9.08,9.00,9.00,000,6.64
2008-02-18,9.08,9.08,9.00,9.00,000,6.64
2008-02-15,9.08,9.08,9.00,9.00,000,6.64
2008-02-14,9.11,9.11,9.03,9.03,000,6.66
2008-02-13,9.11,9.11,9.03,9.03,000,6.66
2008-02-12,9.11,9.11,9.03,9.03,000,6.66
2008-02-11,9.11,9.11,9.03,9.03,000,6.66
2008-02-08,9.11,9.11,9.03,9.03,000,6.66
2008-02-07,9.07,9.07,9.07,9.07,1600,6.69
2008-02-06,9.11,9.11,9.03,9.03,000,6.66
2008-02-05,9.07,9.07,9.07,9.07,7000,6.69
2008-02-04,9.10,9.10,9.03,9.03,000,6.66
2008-02-01,9.10,9.10,9.03,9.03,000,6.66
2008-01-31,9.11,9.11,9.03,9.03,000,6.66
2008-01-30,9.11,9.11,9.03,9.03,000,6.66
2008-01-29,9.11,9.11,9.03,9.03,000,6.66
2008-01-25,9.11,9.11,9.03,9.03,000,6.66
2008-01-24,9.11,9.11,9.03,9.03,000,6.66
2008-01-23,9.11,9.11,9.03,9.03,000,6.66
2008-01-22,9.05,9.05,9.05,9.05,500,6.67
2008-01-21,9.11,9.11,9.05,9.05,000,6.67
2008-01-18,9.11,9.11,9.05,9.05,000,6.67
2008-01-17,9.11,9.11,9.05,9.05,000,6.67
2008-01-16,9.10,9.10,9.05,9.05,000,6.67
2008-01-15,9.03,9.03,9.03,9.03,200,6.66
2008-01-14,9.10,9.10,9.03,9.03,000,6.66
2008-01-11,9.10,9.10,9.03,9.03,000,6.66
2008-01-10,8.95,8.95,8.95,8.95,4800,6.60
2008-01-09,9.03,9.03,8.95,8.95,000,6.60
2008-01-08,9.03,9.03,8.95,8.95,000,6.60
2008-01-07,9.03,9.03,8.95,8.95,000,6.60
2008-01-04,9.03,9.03,8.95,8.95,000,6.60
2008-01-03,9.03,9.03,8.95,8.95,000,6.60
2008-01-02,9.03,9.03,8.95,8.95,000,6.60
2007-12-31,9.03,9.03,8.95,8.95,000,6.60
2007-12-28,9.03,9.03,8.95,8.95,000,6.60
2007-12-27,9.03,9.03,8.95,8.95,000,6.60
2007-12-24,9.03,9.03,8.95,8.95,000,6.60
2007-12-21,9.03,9.03,9.03,9.03,500,6.66
2007-12-20,9.23,9.23,8.95,8.95,000,6.50
2007-12-19,9.23,9.23,9.23,9.23,100,6.70
2007-12-18,9.23,9.23,9.23,9.23,400,6.70
2007-12-17,9.72,9.72,9.68,9.68,1300,7.03
2007-12-14,9.76,9.76,9.72,9.72,000,7.06
2007-12-13,9.76,9.76,9.72,9.72,000,7.06
2007-12-12,9.76,9.76,9.72,9.72,000,7.06
2007-12-11,9.76,9.76,9.72,9.72,000,7.06
2007-12-10,9.76,9.76,9.72,9.72,000,7.06
2007-12-07,9.76,9.76,9.70,9.70,000,7.04
2007-12-06,9.76,9.76,9.68,9.68,000,7.03
2007-12-05,9.76,9.76,9.68,9.68,000,7.03
2007-12-04,9.76,9.76,9.68,9.68,000,7.03
2007-12-03,9.81,9.81,9.73,9.73,000,7.06
2007-11-30,9.73,9.73,9.32,9.32,1300,6.77
2007-11-29,9.73,9.73,9.73,9.73,200,7.06
2007-11-28,9.81,9.81,9.73,9.73,000,7.06
2007-11-27,9.81,9.81,9.73,9.73,000,7.06
2007-11-26,9.81,9.81,9.73,9.73,000,7.06
2007-11-23,9.81,9.81,9.73,9.73,000,7.06
2007-11-22,9.81,9.81,9.73,9.73,000,7.06
2007-11-21,9.81,9.81,9.73,9.73,000,7.06
2007-11-20,9.73,9.73,9.73,9.73,1000,7.06
2007-11-19,9.81,9.81,9.81,9.81,200,7.12
2007-11-16,9.32,9.32,9.32,9.32,1000,6.77
2007-11-15,9.32,9.32,9.32,9.32,500,6.77
2007-11-14,9.32,9.32,9.32,9.32,500,6.77
2007-11-13,9.32,9.32,9.25,9.25,000,6.71
2007-11-12,9.25,9.25,9.25,9.25,000,6.71
2007-11-09,9.32,9.32,9.32,9.32,100,6.77
2007-11-08,9.32,9.32,9.32,9.32,800,6.77
2007-11-07,9.32,9.32,9.25,9.25,000,6.71
2007-11-06,9.32,9.32,9.25,9.25,000,6.71
2007-11-05,9.32,9.32,9.25,9.25,000,6.71
2007-11-02,9.32,9.32,9.25,9.25,000,6.71
2007-11-01,9.32,9.32,9.25,9.25,000,6.71
2007-10-31,9.32,9.32,9.32,9.32,5900,6.77
2007-10-30,9.32,9.32,9.32,9.32,200,6.77
2007-10-29,8.35,8.35,8.35,8.35,000,6.06
2007-10-26,8.35,8.35,8.35,8.35,000,6.06
2007-10-25,8.35,8.35,8.35,8.35,000,6.06
2007-10-24,8.35,8.35,8.35,8.35,000,6.06
2007-10-23,8.35,8.35,8.35,8.35,000,6.06
2007-10-22,8.35,8.35,8.35,8.35,000,6.06
2007-10-19,8.35,8.35,8.35,8.35,000,6.06
2007-10-18,8.35,8.35,8.35,8.35,000,6.06
2007-10-17,8.35,8.35,8.35,8.35,000,6.06
2007-10-16,8.35,8.35,8.35,8.35,000,6.06
2007-10-15,9.24,9.24,8.35,8.35,200,6.06
2007-10-12,9.20,9.20,9.20,9.20,000,6.68
2007-10-11,9.50,9.50,9.50,9.50,000,6.90
2007-10-10,9.50,9.50,9.50,9.50,000,6.90
2007-10-09,9.50,9.50,9.50,9.50,000,6.90
2007-10-08,9.50,9.50,9.50,9.50,000,6.90
2007-10-05,9.50,9.50,9.50,9.50,000,6.90
2007-10-04,9.20,9.20,9.20,9.20,000,6.68
2007-10-03,9.20,9.20,9.20,9.20,000,6.68
2007-10-02,9.20,9.20,9.20,9.20,000,6.68
2007-10-01,9.20,9.20,9.20,9.20,000,6.68
2007-09-28,9.20,9.20,9.20,9.20,000,6.68
2007-09-27,9.20,9.20,9.20,9.20,000,6.68
2007-09-26,9.20,9.20,9.20,9.20,000,6.68
2007-09-25,9.20,9.20,9.20,9.20,200,6.68
2007-09-24,9.20,9.20,9.20,9.20,000,6.68
2007-09-21,9.20,9.20,9.20,9.20,000,6.68
2007-09-20,9.20,9.20,9.20,9.20,000,6.68
2007-09-19,9.20,9.20,9.20,9.20,000,6.68
2007-09-18,9.20,9.20,9.20,9.20,000,6.68
2007-09-17,9.20,9.20,9.20,9.20,000,6.68
2007-09-14,9.20,9.20,9.20,9.20,000,6.68
2007-09-13,9.20,9.20,9.20,9.20,200,6.68
2007-09-12,9.50,9.50,9.20,9.20,000,6.68
2007-09-11,9.50,9.50,9.25,9.25,11800,6.71
2007-09-10,10.38,10.38,10.38,10.38,200,7.53
2007-09-07,10.35,10.35,10.35,10.35,000,7.51
2007-09-06,10.38,10.38,10.38,10.38,000,7.53
2007-09-05,10.38,10.38,10.38,10.38,000,7.53
2007-09-04,10.38,10.38,10.38,10.38,000,7.53
2007-09-03,10.35,10.35,10.35,10.35,900,7.51
2007-08-31,10.38,10.38,10.35,10.35,1500,7.51
2007-08-30,10.38,10.38,10.38,10.38,000,7.53
2007-08-29,10.38,10.38,10.38,10.38,000,7.53
2007-08-28,10.38,10.38,10.38,10.38,1000,7.53
2007-08-27,10.38,10.38,10.38,10.38,000,7.53
2007-08-24,10.38,10.38,10.38,10.38,200,7.53
2007-08-23,10.38,10.38,10.35,10.35,000,7.51
2007-08-22,10.38,10.38,10.35,10.35,000,7.51
2007-08-21,10.38,10.38,10.35,10.35,000,7.51
2007-08-20,10.35,10.35,10.35,10.35,000,7.51
2007-08-17,10.35,10.35,10.35,10.35,000,7.51
2007-08-16,10.35,10.35,10.35,10.35,100,7.51
2007-08-15,10.35,10.35,10.35,10.35,000,7.51
2007-08-14,10.35,10.35,10.35,10.35,200,7.51
2007-08-13,9.50,9.50,9.50,9.50,000,6.90
2007-08-10,9.50,9.50,9.50,9.50,000,6.90
2007-08-09,9.50,9.50,9.50,9.50,200,6.90
2007-08-08,10.00,10.00,10.00,10.00,000,7.26
2007-08-07,10.00,10.00,10.00,10.00,5000,7.26
2007-08-06,10.35,10.35,10.00,10.00,300,7.26
2007-08-03,10.35,10.35,10.35,10.35,000,7.51
2007-08-02,10.35,10.35,10.35,10.35,400,7.51
2007-08-01,9.50,9.50,9.50,9.50,000,6.90
2007-07-31,9.50,9.50,9.50,9.50,000,6.90
2007-07-30,10.25,10.25,10.25,10.25,200,7.44
2007-07-27,10.50,10.50,10.35,10.35,000,7.51
2007-07-26,10.50,10.50,10.35,10.35,000,7.51
2007-07-25,9.80,10.25,9.80,10.25,4200,7.44
2007-07-24,9.80,9.80,9.55,9.55,000,6.93
2007-07-23,9.90,9.90,9.55,9.55,000,6.93
2007-07-20,9.90,9.90,9.55,9.55,000,6.93
2007-07-19,9.90,9.90,9.55,9.55,000,6.93
2007-07-18,9.90,9.90,9.55,9.55,000,6.93
2007-07-17,9.90,9.90,9.55,9.55,000,6.93
2007-07-16,9.90,9.90,9.55,9.55,000,6.93
2007-07-13,9.89,9.90,9.89,9.90,1000,7.19
2007-07-12,10.55,10.55,10.55,10.55,000,7.66
2007-07-11,10.55,10.55,10.55,10.55,000,7.66
2007-07-10,10.55,10.55,10.55,10.55,000,7.66
2007-07-09,10.55,10.55,10.55,10.55,000,7.66
2007-07-06,10.55,10.55,10.55,10.55,000,7.66
2007-07-05,10.55,10.55,10.55,10.55,000,7.66
2007-07-04,10.55,10.55,10.55,10.55,000,7.66
2007-07-03,10.55,10.55,10.55,10.55,000,7.66
2007-07-02,10.55,10.55,10.55,10.55,000,7.66
2007-06-29,10.55,10.55,10.55,10.55,000,7.66
2007-06-28,10.55,10.55,10.55,10.55,000,7.66
2007-06-27,10.55,10.55,10.55,10.55,000,7.66
2007-06-26,10.55,10.55,10.55,10.55,000,7.66
2007-06-25,10.55,10.55,10.55,10.55,000,7.66
2007-06-22,10.55,10.55,10.55,10.55,000,7.05
2007-06-21,10.55,10.55,10.55,10.55,000,7.05
2007-06-20,10.55,10.55,10.55,10.55,000,7.05
2007-06-19,10.55,10.55,10.55,10.55,000,7.05
2007-06-18,10.55,10.55,10.55,10.55,400,7.05
2007-06-15,10.50,10.50,10.50,10.50,000,7.02
2007-06-14,10.50,10.50,10.50,10.50,000,7.02
2007-06-13,10.52,10.52,10.50,10.50,1000,7.02
2007-06-12,10.52,10.52,10.52,10.52,000,7.03
2007-06-08,10.52,10.52,10.52,10.52,000,7.03
2007-06-07,10.52,10.52,10.52,10.52,000,7.03
2007-06-06,10.52,10.52,10.52,10.52,400,7.03
2007-06-05,10.52,10.52,10.52,10.52,000,7.03
2007-06-04,10.50,10.50,10.50,10.50,000,7.02
2007-06-01,10.50,10.50,10.50,10.50,000,7.02
2007-05-31,10.50,10.50,10.50,10.50,000,7.02
2007-05-30,10.50,10.50,10.50,10.50,000,7.02
2007-05-29,10.50,10.50,10.50,10.50,000,7.02
2007-05-28,10.50,10.50,10.50,10.50,000,7.02
2007-05-25,10.50,10.50,10.50,10.50,000,7.02
2007-05-24,10.50,10.50,10.50,10.50,000,7.02
2007-05-23,10.50,10.50,10.50,10.50,300,7.02
2007-05-22,10.30,10.30,10.30,10.30,000,6.89
2007-05-21,10.30,10.30,10.30,10.30,000,6.89
2007-05-18,10.30,10.30,10.30,10.30,000,6.89
2007-05-17,10.30,10.30,10.30,10.30,000,6.89
2007-05-16,10.30,10.30,10.30,10.30,100,6.89
2007-05-15,10.20,10.20,10.20,10.20,000,6.82
2007-05-14,10.20,10.20,10.20,10.20,000,6.82
2007-05-11,10.20,10.20,10.20,10.20,000,6.82
2007-05-10,10.20,10.20,10.20,10.20,000,6.82
2007-05-09,10.20,10.20,10.20,10.20,000,6.82
2007-05-08,10.18,10.18,10.18,10.18,000,6.81
2007-05-07,10.18,10.18,10.18,10.18,100,6.81
2007-05-04,10.18,10.18,10.18,10.18,000,6.81
2007-05-03,10.18,10.18,10.18,10.18,000,6.81
2007-05-02,10.18,10.18,10.18,10.18,000,6.81
2007-05-01,10.18,10.18,10.18,10.18,000,6.81
2007-04-30,10.18,10.18,10.18,10.18,000,6.81
2007-04-27,10.18,10.18,10.18,10.18,200,6.81
2007-04-26,10.18,10.18,10.18,10.18,000,6.81
2007-04-24,10.18,10.18,10.18,10.18,000,6.81
2007-04-23,10.18,10.18,10.18,10.18,000,6.81
2007-04-20,10.07,10.07,10.07,10.07,000,6.73
2007-04-19,10.07,10.07,10.07,10.07,000,6.73
2007-04-18,10.07,10.07,10.07,10.07,000,6.73
2007-04-17,10.07,10.07,10.07,10.07,000,6.73
2007-04-16,10.07,10.07,10.07,10.07,500,6.73
2007-04-13,9.95,9.95,9.95,9.95,000,6.65
2007-04-12,9.90,9.90,9.90,9.90,200,6.62
2007-04-11,9.90,9.90,9.90,9.90,000,6.62
2007-04-10,9.90,9.90,9.90,9.90,000,6.62
2007-04-05,9.90,9.90,9.90,9.90,000,6.62
2007-04-04,9.90,9.90,9.90,9.90,000,6.62
2007-04-03,9.90,9.90,9.90,9.90,000,6.62
2007-04-02,9.90,9.90,9.90,9.90,200,6.62
2007-03-30,9.90,9.90,9.90,9.90,200,6.62
2007-03-29,9.90,9.90,9.90,9.90,000,6.62
2007-03-28,9.90,9.90,9.90,9.90,000,6.62
2007-03-27,9.90,9.90,9.90,9.90,000,6.62
2007-03-26,9.90,9.90,9.90,9.90,000,6.62
2007-03-23,9.90,9.90,9.90,9.90,200,6.62
2007-03-22,9.90,9.90,9.90,9.90,500,6.62
2007-03-21,9.90,9.90,9.90,9.90,500,6.62
2007-03-20,10.00,10.00,10.00,10.00,000,6.69
2007-03-19,10.00,10.00,10.00,10.00,000,6.69
2007-03-16,10.00,10.00,10.00,10.00,000,6.69
2007-03-15,10.00,10.00,10.00,10.00,000,6.69
2007-03-14,10.00,10.00,10.00,10.00,000,6.69
2007-03-13,10.00,10.00,10.00,10.00,000,6.69
2007-03-12,10.00,10.00,10.00,10.00,000,6.69
2007-03-09,10.00,10.00,10.00,10.00,000,6.69
2007-03-08,10.00,10.00,10.00,10.00,000,6.69
2007-03-07,10.00,10.00,10.00,10.00,000,6.69
2007-03-06,10.00,10.00,10.00,10.00,000,6.69
2007-03-05,10.00,10.00,10.00,10.00,200,6.69
2007-03-02,10.00,10.00,10.00,10.00,000,6.69
2007-03-01,10.00,10.00,10.00,10.00,000,6.69
2007-02-28,10.00,10.00,10.00,10.00,200,6.69
2007-02-27,10.00,10.00,10.00,10.00,000,6.69
2007-02-26,10.00,10.00,10.00,10.00,000,6.69
2007-02-23,10.00,10.00,10.00,10.00,000,6.69
2007-02-22,10.00,10.00,10.00,10.00,000,6.69
2007-02-21,10.00,10.00,10.00,10.00,000,6.69
2007-02-20,10.00,10.00,10.00,10.00,000,6.69
2007-02-19,10.00,10.00,10.00,10.00,000,6.69
2007-02-16,10.00,10.00,10.00,10.00,100,6.69
2007-02-15,10.00,10.00,10.00,10.00,000,6.69
2007-02-14,10.05,10.05,10.00,10.00,000,6.69
2007-02-13,10.00,10.00,10.00,10.00,2900,6.69
2007-02-12,10.00,10.00,10.00,10.00,000,6.69
2007-02-09,10.00,10.00,10.00,10.00,200,6.69
2007-02-08,10.00,10.00,10.00,10.00,5000,6.69
2007-02-07,10.00,10.00,10.00,10.00,000,6.69
2007-02-06,10.00,10.00,10.00,10.00,000,6.69
2007-02-05,10.00,10.00,10.00,10.00,000,6.69
2007-02-02,10.00,10.00,10.00,10.00,000,6.69
2007-02-01,10.00,10.00,10.00,10.00,200,6.69
2007-01-31,10.00,10.00,10.00,10.00,000,6.69
2007-01-30,10.00,10.00,10.00,10.00,200,6.69
2007-01-29,10.05,10.05,10.00,10.00,000,6.69
2007-01-25,10.05,10.05,10.05,10.05,1000,6.72
2007-01-24,10.05,10.05,10.05,10.05,1800,6.72
2007-01-23,10.00,10.00,10.00,10.00,000,6.69
2007-01-22,10.00,10.00,10.00,10.00,000,6.69
2007-01-19,10.00,10.00,10.00,10.00,000,6.69
2007-01-18,10.00,10.00,10.00,10.00,600,6.69
2007-01-17,10.00,10.00,10.00,10.00,000,6.69
2007-01-16,10.00,10.00,10.00,10.00,000,6.69
2007-01-15,10.00,10.00,10.00,10.00,400,6.69
2007-01-12,10.05,10.05,10.05,10.05,600,6.72
2007-01-11,10.00,10.00,10.00,10.00,1200,6.69
2007-01-10,9.90,10.00,9.90,10.00,600,6.69
2007-01-09,9.85,9.85,9.85,9.85,000,6.59
2007-01-08,9.85,9.85,9.85,9.85,800,6.59
2007-01-05,10.00,10.00,10.00,10.00,000,6.69
2007-01-04,10.00,10.00,10.00,10.00,000,6.69
2007-01-03,10.00,10.00,10.00,10.00,000,6.69
2007-01-02,10.00,10.00,10.00,10.00,000,6.69
2006-12-29,10.00,10.00,10.00,10.00,000,6.69
2006-12-28,10.00,10.00,10.00,10.00,000,6.69
2006-12-27,10.00,10.00,10.00,10.00,000,6.69
2006-12-22,10.00,10.00,10.00,10.00,000,6.69
2006-12-21,10.00,10.00,10.00,10.00,000,6.69
2006-12-20,10.00,10.00,10.00,10.00,500,6.69
