Date,Open,High,Low,Close,Volume,Adj Close
2017-01-10,0.22,0.22,0.22,0.22,1500,0.22
2017-01-09,0.24,0.24,0.24,0.24,000,0.24
2017-01-06,0.24,0.24,0.24,0.24,000,0.24
2017-01-05,0.24,0.24,0.24,0.24,000,0.24
2017-01-04,0.24,0.24,0.24,0.24,000,0.24
2017-01-03,0.24,0.24,0.24,0.24,000,0.24
2017-01-02,0.24,0.24,0.24,0.24,000,0.24
2016-12-30,0.24,0.24,0.24,0.24,000,0.24
2016-12-29,0.24,0.24,0.24,0.24,000,0.24
2016-12-28,0.24,0.24,0.24,0.24,000,0.24
2016-12-27,0.24,0.24,0.24,0.24,000,0.24
2016-12-26,0.24,0.24,0.24,0.24,000,0.24
2016-12-23,0.24,0.24,0.24,0.24,000,0.24
2016-12-22,0.24,0.24,0.24,0.24,000,0.24
2016-12-21,0.24,0.24,0.24,0.24,000,0.24
2016-12-20,0.24,0.24,0.24,0.24,000,0.24
2016-12-19,0.24,0.24,0.24,0.24,000,0.24
2016-12-16,0.24,0.24,0.24,0.24,000,0.24
2016-12-15,0.24,0.24,0.24,0.24,000,0.24
2016-12-14,0.24,0.24,0.24,0.24,000,0.24
2016-12-13,0.24,0.24,0.24,0.24,000,0.24
2016-12-12,0.24,0.24,0.24,0.24,000,0.24
2016-12-09,0.24,0.24,0.24,0.24,000,0.24
2016-12-08,0.24,0.24,0.24,0.24,000,0.24
2016-12-07,0.24,0.24,0.24,0.24,000,0.24
2016-12-06,0.24,0.24,0.24,0.24,000,0.24
2016-12-05,0.24,0.24,0.24,0.24,000,0.24
2016-12-02,0.24,0.24,0.24,0.24,000,0.24
2016-12-01,0.024,0.024,0.024,0.024,000,0.24
2016-11-30,0.023,0.024,0.023,0.024,133900,0.24
2016-11-29,0.025,0.025,0.025,0.025,000,0.25
2016-11-28,0.025,0.025,0.025,0.025,000,0.25
2016-11-25,0.025,0.025,0.025,0.025,000,0.25
2016-11-24,0.025,0.025,0.025,0.025,000,0.25
2016-11-23,0.025,0.025,0.025,0.025,000,0.25
2016-11-22,0.025,0.025,0.025,0.025,000,0.25
2016-11-21,0.025,0.025,0.025,0.025,000,0.25
2016-11-18,0.025,0.025,0.025,0.025,000,0.25
2016-11-17,0.025,0.025,0.025,0.025,000,0.25
2016-11-16,0.025,0.025,0.025,0.025,000,0.25
2016-11-15,0.025,0.025,0.025,0.025,000,0.25
2016-11-14,0.025,0.025,0.025,0.025,000,0.25
2016-11-11,0.025,0.025,0.025,0.025,000,0.25
2016-11-10,0.025,0.025,0.025,0.025,000,0.25
2016-11-09,0.025,0.025,0.025,0.025,000,0.25
2016-11-08,0.025,0.025,0.025,0.025,000,0.25
2016-11-07,0.025,0.025,0.025,0.025,000,0.25
2016-11-04,0.025,0.025,0.025,0.025,000,0.25
2016-11-03,0.025,0.025,0.025,0.025,000,0.25
2016-11-02,0.025,0.025,0.025,0.025,000,0.25
2016-11-01,0.025,0.025,0.025,0.025,000,0.25
2016-10-31,0.003,0.003,0.003,0.003,000,0.025
2016-10-28,0.003,0.003,0.003,0.003,000,0.025
2016-10-27,0.003,0.003,0.003,0.003,000,0.025
2016-10-26,0.003,0.003,0.003,0.003,000,0.025
2016-10-25,0.003,0.003,0.003,0.003,000,0.025
2016-10-24,0.003,0.003,0.003,0.003,000,0.025
2016-10-21,0.003,0.003,0.003,0.003,000,0.025
2016-10-20,0.003,0.003,0.003,0.003,000,0.025
2016-10-19,0.003,0.003,0.003,0.003,000,0.025
2016-10-18,0.003,0.003,0.003,0.003,000,0.025
2016-10-17,0.003,0.003,0.003,0.003,000,0.025
2016-10-14,0.003,0.003,0.003,0.003,000,0.025
2016-10-13,0.003,0.003,0.003,0.003,000,0.025
2016-10-12,0.003,0.003,0.003,0.003,000,0.025
2016-10-11,0.003,0.003,0.003,0.003,000,0.025
2016-10-10,0.003,0.003,0.003,0.003,000,0.025
2016-10-07,0.003,0.003,0.003,0.003,000,0.025
2016-10-06,0.003,0.003,0.003,0.003,000,0.025
2016-10-05,0.003,0.003,0.003,0.003,000,0.025
2016-10-04,0.003,0.003,0.003,0.003,000,0.025
2016-10-03,0.003,0.003,0.003,0.003,000,0.025
2016-09-30,0.003,0.003,0.003,0.003,000,0.025
2016-09-29,0.003,0.003,0.003,0.003,000,0.025
2016-09-28,0.003,0.003,0.003,0.003,000,0.025
2016-09-27,0.003,0.003,0.003,0.003,000,0.025
2016-09-26,0.003,0.003,0.003,0.003,000,0.025
2016-09-23,0.003,0.003,0.003,0.003,000,0.025
2016-09-22,0.003,0.003,0.003,0.003,000,0.025
2016-09-21,0.003,0.003,0.003,0.003,50000,0.025
2016-09-20,0.003,0.003,0.003,0.003,000,0.025
2016-09-19,0.003,0.003,0.003,0.003,000,0.025
2016-09-16,0.003,0.003,0.003,0.003,000,0.025
2016-09-15,0.003,0.003,0.003,0.003,000,0.025
2016-09-14,0.003,0.003,0.003,0.003,160000,0.025
2016-09-13,0.003,0.003,0.003,0.003,000,0.031
2016-09-12,0.003,0.003,0.003,0.003,000,0.031
2016-09-09,0.003,0.003,0.003,0.003,000,0.031
2016-09-08,0.003,0.003,0.003,0.003,106200,0.031
2016-09-07,0.003,0.003,0.003,0.003,000,0.027
2016-09-06,0.003,0.003,0.003,0.003,000,0.027
2016-09-05,0.003,0.003,0.003,0.003,000,0.027
2016-09-02,0.003,0.003,0.003,0.003,69200,0.027
2016-09-01,0.003,0.003,0.003,0.003,50000,0.03
2016-08-31,0.003,0.003,0.003,0.003,000,0.027
2016-08-30,0.003,0.003,0.003,0.003,000,0.027
2016-08-29,0.003,0.003,0.003,0.003,000,0.027
2016-08-26,0.003,0.003,0.003,0.003,4800,0.027
2016-08-25,0.003,0.003,0.003,0.003,94400,0.026
2016-08-24,0.003,0.003,0.003,0.003,000,0.026
2016-08-23,0.003,0.003,0.003,0.003,000,0.026
2016-08-22,0.003,0.003,0.003,0.003,000,0.026
2016-08-19,0.003,0.003,0.003,0.003,000,0.026
2016-08-18,0.003,0.003,0.003,0.003,000,0.026
2016-08-17,0.003,0.003,0.003,0.003,20000,0.026
2016-08-16,0.002,0.002,0.002,0.002,000,0.023
2016-08-15,0.002,0.002,0.002,0.002,000,0.023
2016-08-12,0.002,0.002,0.002,0.002,000,0.023
2016-08-11,0.002,0.002,0.002,0.002,65500,0.023
2016-08-10,0.002,0.002,0.002,0.002,000,0.023
2016-08-09,0.002,0.002,0.002,0.002,20000,0.023
2016-08-08,0.002,0.002,0.002,0.002,000,0.022
2016-08-05,0.002,0.002,0.002,0.002,000,0.022
2016-08-04,0.002,0.002,0.002,0.002,000,0.022
2016-08-03,0.002,0.002,0.002,0.002,10000,0.022
2016-08-02,0.002,0.002,0.002,0.002,10000,0.022
2016-08-01,0.003,0.003,0.001,0.001,12500,0.015
2016-07-29,0.003,0.003,0.003,0.003,000,0.03
2016-07-28,0.004,0.004,0.003,0.003,663500,0.03
2016-07-27,0.004,0.004,0.004,0.004,25000,0.036
2016-07-26,0.003,0.003,0.003,0.003,25000,0.033
2016-07-25,0.003,0.003,0.003,0.003,408200,0.03
2016-07-22,0.003,0.003,0.003,0.003,40000,0.03
2016-07-21,0.003,0.003,0.003,0.003,35000,0.03
2016-07-20,0.003,0.003,0.003,0.003,000,0.03
2016-07-19,0.003,0.003,0.003,0.003,000,0.03
2016-07-18,0.003,0.003,0.003,0.003,000,0.03
2016-07-15,0.003,0.003,0.003,0.003,000,0.03
2016-07-14,0.003,0.003,0.003,0.003,000,0.03
2016-07-13,0.003,0.003,0.003,0.003,000,0.03
2016-07-12,0.003,0.003,0.003,0.003,000,0.03
2016-07-11,0.003,0.003,0.003,0.003,000,0.03
2016-07-08,0.003,0.003,0.003,0.003,000,0.03
2016-07-07,0.003,0.003,0.003,0.003,000,0.03
2016-07-06,0.003,0.003,0.003,0.003,000,0.03
2016-07-05,0.003,0.003,0.003,0.003,000,0.03
2016-07-04,0.003,0.003,0.003,0.003,000,0.03
2016-07-01,0.003,0.003,0.003,0.003,000,0.03
2016-06-30,0.003,0.003,0.003,0.003,000,0.03
2016-06-29,0.003,0.003,0.003,0.003,000,0.03
2016-06-28,0.003,0.003,0.003,0.003,000,0.03
2016-06-27,0.003,0.003,0.003,0.003,000,0.03
2016-06-24,0.003,0.003,0.003,0.003,000,0.03
2016-06-23,0.003,0.003,0.003,0.003,000,0.03
2016-06-22,0.003,0.003,0.003,0.003,000,0.03
2016-06-21,0.003,0.003,0.003,0.003,000,0.03
2016-06-20,0.003,0.003,0.003,0.003,000,0.03
2016-06-17,0.003,0.003,0.003,0.003,000,0.03
2016-06-16,0.003,0.003,0.003,0.003,000,0.03
2016-06-15,0.003,0.003,0.003,0.003,000,0.03
2016-06-14,0.003,0.003,0.003,0.003,000,0.03
2016-06-13,0.003,0.003,0.003,0.003,000,0.03
2016-06-10,0.003,0.003,0.003,0.003,50000,0.03
2016-06-09,0.003,0.003,0.003,0.003,40000,0.03
2016-06-08,0.003,0.003,0.003,0.003,000,0.03
2016-06-07,0.003,0.003,0.003,0.003,000,0.03
2016-06-06,0.003,0.003,0.003,0.003,000,0.03
2016-06-03,0.003,0.003,0.003,0.003,99300,0.03
2016-06-02,0.003,0.003,0.003,0.003,000,0.03
2016-06-01,0.003,0.003,0.003,0.003,000,0.03
2016-05-31,0.003,0.003,0.003,0.003,000,0.03
2016-05-30,0.003,0.003,0.003,0.003,000,0.03
2016-05-27,0.003,0.003,0.003,0.003,000,0.03
2016-05-26,0.003,0.003,0.003,0.003,000,0.03
2016-05-25,0.003,0.003,0.003,0.003,000,0.03
2016-05-24,0.003,0.003,0.003,0.003,36000,0.03
2016-05-23,0.003,0.003,0.003,0.003,000,0.03
2016-05-20,0.003,0.003,0.003,0.003,000,0.03
2016-05-19,0.003,0.003,0.003,0.003,000,0.03
2016-05-18,0.003,0.003,0.003,0.003,000,0.03
2016-05-17,0.003,0.003,0.003,0.003,000,0.03
2016-05-16,0.003,0.003,0.003,0.003,000,0.03
2016-05-13,0.003,0.003,0.003,0.003,000,0.03
2016-05-12,0.003,0.003,0.003,0.003,000,0.03
2016-05-11,0.003,0.003,0.003,0.003,000,0.03
2016-05-10,0.003,0.003,0.003,0.003,000,0.03
2016-05-09,0.003,0.003,0.003,0.003,000,0.03
2016-05-06,0.003,0.003,0.003,0.003,000,0.03
2016-05-05,0.003,0.003,0.003,0.003,000,0.03
2016-05-04,0.003,0.003,0.003,0.003,000,0.03
2016-05-03,0.003,0.003,0.003,0.003,000,0.03
2016-05-02,0.003,0.003,0.003,0.003,000,0.03
2016-04-29,0.003,0.003,0.003,0.003,000,0.03
2016-04-28,0.003,0.003,0.003,0.003,000,0.03
2016-04-27,0.003,0.003,0.003,0.003,000,0.03
2016-04-26,0.003,0.003,0.003,0.003,000,0.03
2016-04-25,0.003,0.003,0.003,0.003,000,0.03
2016-04-22,0.003,0.003,0.003,0.003,000,0.03
2016-04-21,0.003,0.003,0.003,0.003,000,0.03
2016-04-20,0.003,0.003,0.003,0.003,000,0.03
2016-04-19,0.003,0.003,0.003,0.003,30000,0.03
2016-04-18,0.003,0.003,0.003,0.003,000,0.03
2016-04-15,0.003,0.003,0.003,0.003,000,0.03
2016-04-14,0.003,0.003,0.003,0.003,000,0.03
2016-04-13,0.003,0.003,0.003,0.003,000,0.03
2016-04-12,0.003,0.003,0.003,0.003,000,0.03
2016-04-11,0.003,0.003,0.003,0.003,000,0.03
2016-04-08,0.003,0.003,0.003,0.003,000,0.03
2016-04-07,0.003,0.003,0.003,0.003,000,0.03
2016-04-06,0.003,0.003,0.003,0.003,000,0.03
2016-04-05,0.003,0.003,0.003,0.003,000,0.03
2016-04-04,0.003,0.003,0.003,0.003,000,0.03
2016-04-01,0.003,0.003,0.003,0.003,000,0.03
2016-03-31,0.003,0.003,0.003,0.003,000,0.03
2016-03-30,0.003,0.003,0.003,0.003,20000,0.03
2016-03-29,0.003,0.003,0.003,0.003,000,0.025
2016-03-28,0.003,0.003,0.003,0.003,000,0.025
2016-03-25,0.003,0.003,0.003,0.003,000,0.025
2016-03-24,0.003,0.003,0.003,0.003,000,0.025
2016-03-23,0.003,0.003,0.003,0.003,36300,0.025
2016-03-22,0.003,0.003,0.003,0.003,69100,0.025
2016-03-21,0.003,0.003,0.003,0.003,000,0.03
2016-03-18,0.003,0.003,0.003,0.003,000,0.03
2016-03-17,0.003,0.003,0.003,0.003,000,0.03
2016-03-16,0.003,0.003,0.003,0.003,000,0.03
2016-03-15,0.003,0.003,0.003,0.003,000,0.03
2016-03-14,0.003,0.003,0.003,0.003,000,0.03
2016-03-11,0.003,0.003,0.003,0.003,000,0.03
2016-03-10,0.003,0.003,0.003,0.003,000,0.03
2016-03-09,0.003,0.003,0.003,0.003,000,0.03
2016-03-08,0.003,0.003,0.003,0.003,000,0.03
2016-03-07,0.003,0.003,0.003,0.003,000,0.03
2016-03-04,0.003,0.003,0.003,0.003,000,0.03
2016-03-03,0.003,0.003,0.003,0.003,000,0.03
2016-03-02,0.003,0.003,0.003,0.003,000,0.03
2016-03-01,0.003,0.003,0.003,0.003,000,0.03
2016-02-29,0.003,0.003,0.003,0.003,000,0.03
2016-02-26,0.003,0.003,0.003,0.003,000,0.03
2016-02-25,0.003,0.003,0.003,0.003,000,0.03
2016-02-24,0.003,0.003,0.003,0.003,000,0.03
2016-02-23,0.003,0.003,0.003,0.003,000,0.03
2016-02-22,0.003,0.003,0.003,0.003,000,0.03
2016-02-19,0.003,0.003,0.003,0.003,000,0.03
2016-02-18,0.003,0.003,0.003,0.003,000,0.03
2016-02-17,0.003,0.003,0.003,0.003,000,0.03
2016-02-16,0.003,0.003,0.003,0.003,000,0.03
2016-02-15,0.003,0.003,0.003,0.003,20000,0.03
2016-02-12,0.003,0.003,0.003,0.003,000,0.033
2016-02-11,0.003,0.003,0.003,0.003,000,0.033
2016-02-10,0.003,0.003,0.003,0.003,000,0.033
2016-02-09,0.003,0.003,0.003,0.003,000,0.033
2016-02-08,0.003,0.003,0.003,0.003,000,0.033
2016-02-05,0.003,0.003,0.003,0.003,000,0.033
2016-02-04,0.003,0.003,0.003,0.003,000,0.033
2016-02-03,0.003,0.003,0.003,0.003,000,0.033
2016-02-02,0.003,0.003,0.003,0.003,000,0.033
2016-02-01,0.003,0.003,0.003,0.003,000,0.033
2016-01-29,0.003,0.003,0.003,0.003,000,0.033
2016-01-28,0.003,0.003,0.003,0.003,000,0.033
2016-01-27,0.003,0.003,0.003,0.003,000,0.033
2016-01-26,0.003,0.003,0.003,0.003,000,0.033
2016-01-25,0.003,0.003,0.003,0.003,000,0.033
2016-01-22,0.003,0.003,0.003,0.003,000,0.033
2016-01-21,0.003,0.003,0.003,0.003,000,0.033
2016-01-20,0.003,0.003,0.003,0.003,000,0.033
2016-01-19,0.003,0.003,0.003,0.003,000,0.033
2016-01-18,0.003,0.003,0.003,0.003,000,0.033
2016-01-15,0.003,0.003,0.003,0.003,000,0.033
2016-01-14,0.003,0.003,0.003,0.003,000,0.033
2016-01-13,0.003,0.003,0.003,0.003,000,0.033
2016-01-12,0.003,0.003,0.003,0.003,000,0.033
2016-01-11,0.003,0.003,0.003,0.003,000,0.033
2016-01-08,0.003,0.003,0.003,0.003,000,0.033
2016-01-07,0.003,0.003,0.003,0.003,000,0.033
2016-01-06,0.003,0.003,0.003,0.003,000,0.033
2016-01-05,0.003,0.003,0.003,0.003,000,0.033
2016-01-04,0.003,0.003,0.003,0.003,000,0.033
2016-01-01,0.003,0.003,0.003,0.003,000,0.033
2015-12-31,0.003,0.003,0.003,0.003,000,0.033
2015-12-30,0.003,0.003,0.003,0.003,000,0.033
2015-12-29,0.003,0.003,0.003,0.003,000,0.033
2015-12-28,0.003,0.003,0.003,0.003,000,0.033
2015-12-25,0.003,0.003,0.003,0.003,000,0.033
2015-12-24,0.003,0.003,0.003,0.003,000,0.033
2015-12-23,0.003,0.003,0.003,0.003,000,0.033
2015-12-22,0.003,0.003,0.003,0.003,000,0.033
2015-12-21,0.003,0.003,0.003,0.003,000,0.033
2015-12-18,0.003,0.003,0.003,0.003,000,0.033
2015-12-17,0.003,0.003,0.003,0.003,000,0.033
2015-12-16,0.003,0.003,0.003,0.003,000,0.033
2015-12-15,0.003,0.003,0.003,0.003,000,0.033
2015-12-14,0.003,0.003,0.003,0.003,000,0.033
2015-12-11,0.003,0.003,0.003,0.003,000,0.033
2015-12-10,0.003,0.003,0.003,0.003,000,0.033
2015-12-09,0.003,0.003,0.003,0.003,000,0.033
2015-12-08,0.003,0.003,0.003,0.003,000,0.033
2015-12-07,0.003,0.003,0.003,0.003,000,0.033
2015-12-04,0.003,0.003,0.003,0.003,000,0.033
2015-12-03,0.003,0.003,0.003,0.003,000,0.033
2015-12-02,0.003,0.003,0.003,0.003,000,0.033
2015-12-01,0.003,0.003,0.003,0.003,000,0.033
2015-11-30,0.003,0.003,0.003,0.003,000,0.033
2015-11-27,0.003,0.003,0.003,0.003,000,0.033
2015-11-26,0.003,0.003,0.003,0.003,000,0.033
2015-11-25,0.003,0.003,0.003,0.003,000,0.033
2015-11-24,0.003,0.003,0.003,0.003,000,0.033
2015-11-23,0.003,0.003,0.003,0.003,000,0.033
2015-11-20,0.003,0.003,0.003,0.003,000,0.033
2015-11-19,0.003,0.003,0.003,0.003,000,0.033
2015-11-18,0.003,0.003,0.003,0.003,000,0.033
2015-11-17,0.003,0.003,0.003,0.003,000,0.033
2015-11-16,0.003,0.003,0.003,0.003,000,0.033
2015-11-13,0.003,0.003,0.003,0.003,000,0.033
2015-11-12,0.003,0.003,0.003,0.003,000,0.033
2015-11-11,0.003,0.003,0.003,0.003,000,0.033
2015-11-10,0.003,0.003,0.003,0.003,000,0.033
2015-11-09,0.003,0.003,0.003,0.003,000,0.033
2015-11-06,0.003,0.003,0.003,0.003,000,0.033
2015-11-05,0.003,0.003,0.003,0.003,000,0.033
2015-11-04,0.003,0.003,0.003,0.003,000,0.033
2015-11-03,0.003,0.003,0.003,0.003,000,0.033
2015-11-02,0.003,0.003,0.003,0.003,000,0.033
2015-10-30,0.003,0.003,0.003,0.003,000,0.033
2015-10-29,0.003,0.003,0.003,0.003,000,0.033
2015-10-28,0.003,0.003,0.003,0.003,000,0.033
2015-10-27,0.003,0.003,0.003,0.003,000,0.033
2015-10-26,0.003,0.003,0.003,0.003,000,0.033
2015-10-23,0.003,0.003,0.003,0.003,000,0.033
2015-10-22,0.003,0.003,0.003,0.003,000,0.033
2015-10-21,0.003,0.003,0.003,0.003,15000,0.033
2015-10-20,0.004,0.004,0.004,0.004,000,0.039
2015-10-19,0.004,0.004,0.004,0.004,000,0.039
2015-10-16,0.004,0.004,0.004,0.004,000,0.039
2015-10-15,0.004,0.004,0.004,0.004,000,0.039
2015-10-14,0.004,0.004,0.004,0.004,000,0.039
2015-10-13,0.004,0.004,0.004,0.004,000,0.039
2015-10-12,0.004,0.004,0.004,0.004,000,0.039
2015-10-09,0.004,0.004,0.004,0.004,000,0.039
2015-10-08,0.004,0.004,0.004,0.004,000,0.039
2015-10-07,0.004,0.004,0.004,0.004,000,0.039
2015-10-06,0.004,0.004,0.004,0.004,000,0.039
2015-10-05,0.004,0.004,0.004,0.004,000,0.039
2015-10-02,0.004,0.004,0.004,0.004,000,0.039
2015-10-01,0.004,0.004,0.004,0.004,000,0.039
2015-09-30,0.004,0.004,0.004,0.004,000,0.039
2015-09-29,0.004,0.004,0.004,0.004,000,0.039
2015-09-28,0.004,0.004,0.004,0.004,000,0.039
2015-09-25,0.004,0.004,0.004,0.004,000,0.039
2015-09-24,0.004,0.004,0.004,0.004,000,0.039
2015-09-23,0.004,0.004,0.004,0.004,000,0.039
2015-09-22,0.004,0.004,0.004,0.004,000,0.039
2015-09-21,0.004,0.004,0.004,0.004,000,0.039
2015-09-18,0.004,0.004,0.004,0.004,000,0.039
2015-09-17,0.004,0.004,0.004,0.004,000,0.039
2015-09-16,0.004,0.004,0.004,0.004,000,0.039
2015-09-15,0.004,0.004,0.004,0.004,000,0.039
2015-09-14,0.004,0.004,0.004,0.004,000,0.039
2015-09-11,0.004,0.004,0.004,0.004,000,0.039
2015-09-10,0.004,0.004,0.004,0.004,000,0.039
2015-09-09,0.004,0.004,0.004,0.004,000,0.039
2015-09-08,0.004,0.004,0.004,0.004,000,0.039
2015-09-07,0.004,0.004,0.004,0.004,000,0.039
2015-09-04,0.004,0.004,0.004,0.004,000,0.039
2015-09-03,0.004,0.004,0.004,0.004,000,0.039
2015-09-02,0.004,0.004,0.004,0.004,000,0.039
2015-09-01,0.004,0.004,0.004,0.004,000,0.039
2015-08-31,0.004,0.004,0.004,0.004,000,0.039
2015-08-28,0.004,0.004,0.004,0.004,000,0.039
2015-08-27,0.004,0.004,0.004,0.004,000,0.039
2015-08-26,0.004,0.004,0.004,0.004,000,0.039
2015-08-25,0.004,0.004,0.004,0.004,000,0.039
2015-08-24,0.004,0.004,0.004,0.004,000,0.039
2015-08-20,0.004,0.004,0.004,0.004,000,0.039
2015-08-19,0.004,0.004,0.004,0.004,000,0.039
2015-08-18,0.004,0.004,0.004,0.004,000,0.039
2015-08-17,0.004,0.004,0.004,0.004,000,0.039
2015-08-14,0.004,0.004,0.004,0.004,000,0.039
2015-08-13,0.004,0.004,0.004,0.004,000,0.039
2015-08-12,0.004,0.004,0.004,0.004,000,0.039
2015-08-11,0.004,0.004,0.004,0.004,000,0.039
2015-08-10,0.004,0.004,0.004,0.004,000,0.039
2015-08-07,0.004,0.004,0.004,0.004,000,0.039
2015-08-06,0.004,0.004,0.004,0.004,000,0.039
2015-08-05,0.004,0.004,0.004,0.004,000,0.039
2015-08-04,0.004,0.004,0.004,0.004,000,0.039
2015-08-03,0.004,0.004,0.004,0.004,000,0.039
2015-07-31,0.004,0.004,0.004,0.004,51200,0.039
2015-07-30,0.004,0.004,0.004,0.004,000,0.039
2015-07-29,0.004,0.004,0.004,0.004,76900,0.039
2015-07-28,0.004,0.004,0.004,0.004,284800,0.039
2015-07-27,0.004,0.004,0.004,0.004,769100,0.04
2015-07-24,0.004,0.004,0.004,0.004,400000,0.036
2015-07-23,0.004,0.004,0.004,0.004,000,0.036
2015-07-22,0.004,0.004,0.004,0.004,30000,0.036
2015-07-21,0.004,0.004,0.004,0.004,000,0.037
2015-07-20,0.004,0.004,0.004,0.004,000,0.037
2015-07-17,0.004,0.004,0.004,0.004,000,0.037
2015-07-16,0.004,0.004,0.004,0.004,000,0.037
2015-07-15,0.004,0.004,0.004,0.004,000,0.037
2015-07-14,0.004,0.004,0.004,0.004,000,0.037
2015-07-13,0.004,0.004,0.004,0.004,000,0.037
2015-07-10,0.004,0.004,0.004,0.004,000,0.037
2015-07-09,0.004,0.004,0.004,0.004,000,0.037
2015-07-08,0.004,0.004,0.004,0.004,000,0.037
2015-07-07,0.004,0.004,0.004,0.004,000,0.037
2015-07-06,0.004,0.004,0.004,0.004,000,0.037
2015-07-03,0.004,0.004,0.004,0.004,000,0.037
2015-07-02,0.004,0.004,0.004,0.004,000,0.037
2015-07-01,0.004,0.004,0.004,0.004,000,0.037
2015-06-30,0.004,0.004,0.004,0.004,000,0.037
2015-06-29,0.004,0.004,0.004,0.004,000,0.037
2015-06-26,0.004,0.004,0.004,0.004,000,0.037
2015-06-25,0.004,0.004,0.004,0.004,000,0.037
2015-06-24,0.004,0.004,0.004,0.004,000,0.037
2015-06-23,0.004,0.004,0.004,0.004,000,0.037
2015-06-22,0.004,0.004,0.004,0.004,000,0.037
2015-06-19,0.004,0.004,0.004,0.004,000,0.037
2015-06-18,0.004,0.004,0.004,0.004,000,0.037
2015-06-17,0.004,0.004,0.004,0.004,000,0.037
2015-06-16,0.004,0.004,0.004,0.004,000,0.037
2015-06-15,0.004,0.004,0.004,0.004,000,0.037
2015-06-12,0.004,0.004,0.004,0.004,000,0.037
2015-06-11,0.004,0.004,0.004,0.004,000,0.037
2015-06-10,0.004,0.004,0.004,0.004,000,0.037
2015-06-09,0.004,0.004,0.004,0.004,000,0.037
2015-06-08,0.004,0.004,0.004,0.004,000,0.037
2015-06-05,0.004,0.004,0.004,0.004,000,0.037
2015-06-04,0.004,0.004,0.004,0.004,000,0.037
2015-06-03,0.004,0.004,0.004,0.004,000,0.037
2015-06-02,0.004,0.004,0.004,0.004,000,0.037
2015-06-01,0.004,0.004,0.004,0.004,000,0.037
2015-05-29,0.004,0.004,0.004,0.004,000,0.037
2015-05-28,0.004,0.004,0.004,0.004,000,0.037
2015-05-27,0.004,0.004,0.004,0.004,000,0.037
2015-05-26,0.004,0.004,0.004,0.004,000,0.037
2015-05-25,0.004,0.004,0.004,0.004,000,0.037
2015-05-22,0.004,0.004,0.004,0.004,000,0.037
2015-05-21,0.004,0.004,0.004,0.004,000,0.037
2015-05-20,0.004,0.004,0.004,0.004,000,0.037
2015-05-19,0.004,0.004,0.004,0.004,81300,0.037
2015-05-18,0.004,0.004,0.004,0.004,000,0.04
2015-05-15,0.004,0.004,0.004,0.004,000,0.04
2015-05-14,0.004,0.004,0.004,0.004,000,0.04
2015-05-13,0.004,0.004,0.004,0.004,000,0.04
2015-05-12,0.004,0.004,0.004,0.004,000,0.04
2015-05-11,0.004,0.004,0.004,0.004,000,0.04
2015-05-08,0.004,0.004,0.004,0.004,000,0.04
2015-05-07,0.004,0.004,0.004,0.004,000,0.04
2015-05-06,0.004,0.004,0.004,0.004,000,0.04
2015-05-05,0.004,0.004,0.004,0.004,000,0.04
2015-05-04,0.004,0.004,0.004,0.004,000,0.04
2015-05-01,0.004,0.004,0.004,0.004,000,0.04
2015-04-30,0.004,0.004,0.004,0.004,000,0.04
2015-04-29,0.004,0.004,0.004,0.004,000,0.04
2015-04-28,0.004,0.004,0.004,0.004,100000,0.04
2015-04-27,0.004,0.004,0.004,0.004,000,0.044
2015-04-24,0.004,0.004,0.004,0.004,000,0.044
2015-04-23,0.004,0.004,0.004,0.004,000,0.044
2015-04-22,0.004,0.004,0.004,0.004,000,0.044
2015-04-21,0.004,0.004,0.004,0.004,000,0.044
2015-04-20,0.004,0.004,0.004,0.004,000,0.044
2015-04-17,0.004,0.004,0.004,0.004,225000,0.044
2015-04-16,0.004,0.004,0.004,0.004,000,0.041
2015-04-15,0.004,0.004,0.004,0.004,000,0.041
2015-04-14,0.004,0.004,0.004,0.004,000,0.041
2015-04-13,0.004,0.004,0.004,0.004,000,0.041
2015-04-10,0.004,0.004,0.004,0.004,000,0.041
2015-04-09,0.004,0.004,0.004,0.004,000,0.041
2015-04-08,0.004,0.004,0.004,0.004,000,0.041
2015-04-07,0.004,0.004,0.004,0.004,000,0.041
2015-04-06,0.004,0.004,0.004,0.004,000,0.041
2015-04-03,0.004,0.004,0.004,0.004,000,0.041
2015-04-02,0.004,0.004,0.004,0.004,000,0.041
2015-04-01,0.004,0.004,0.004,0.004,100000,0.041
2015-03-31,0.004,0.004,0.004,0.004,000,0.037
2015-03-30,0.004,0.004,0.004,0.004,000,0.037
2015-03-27,0.004,0.004,0.004,0.004,000,0.037
2015-03-26,0.004,0.004,0.004,0.004,000,0.037
2015-03-25,0.004,0.004,0.004,0.004,38800,0.037
2015-03-24,0.004,0.004,0.004,0.004,000,0.038
2015-03-23,0.004,0.004,0.004,0.004,000,0.038
2015-03-20,0.004,0.004,0.004,0.004,000,0.038
2015-03-19,0.004,0.004,0.004,0.004,000,0.038
2015-03-18,0.004,0.004,0.004,0.004,000,0.038
2015-03-17,0.004,0.004,0.004,0.004,000,0.038
2015-03-16,0.004,0.004,0.004,0.004,000,0.038
2015-03-13,0.004,0.004,0.004,0.004,000,0.038
2015-03-12,0.004,0.004,0.004,0.004,720600,0.038
2015-03-11,0.004,0.004,0.004,0.004,440000,0.038
2015-03-10,0.004,0.004,0.004,0.004,000,0.04
2015-03-09,0.004,0.004,0.004,0.004,000,0.04
2015-03-06,0.004,0.004,0.004,0.004,000,0.04
2015-03-05,0.004,0.004,0.004,0.004,000,0.04
2015-03-04,0.004,0.004,0.004,0.004,000,0.04
2015-03-03,0.004,0.004,0.004,0.004,000,0.04
2015-03-02,0.004,0.004,0.004,0.004,000,0.04
2015-02-27,0.004,0.004,0.004,0.004,000,0.04
2015-02-26,0.004,0.004,0.004,0.004,000,0.04
2015-02-25,0.004,0.004,0.004,0.004,000,0.04
2015-02-24,0.004,0.004,0.004,0.004,000,0.04
2015-02-23,0.004,0.004,0.004,0.004,000,0.04
2015-02-20,0.004,0.004,0.004,0.004,000,0.04
2015-02-19,0.004,0.004,0.004,0.004,000,0.04
2015-02-18,0.004,0.004,0.004,0.004,000,0.04
2015-02-17,0.004,0.004,0.004,0.004,000,0.04
2015-02-16,0.004,0.004,0.004,0.004,000,0.04
2015-02-13,0.004,0.004,0.004,0.004,000,0.04
2015-02-12,0.004,0.004,0.004,0.004,000,0.04
2015-02-11,0.004,0.004,0.004,0.004,000,0.04
2015-02-10,0.004,0.004,0.004,0.004,000,0.04
2015-02-09,0.004,0.004,0.004,0.004,000,0.04
2015-02-06,0.004,0.004,0.004,0.004,309000,0.04
2015-02-05,0.005,0.005,0.005,0.005,000,0.045
2015-02-04,0.005,0.005,0.005,0.005,000,0.045
2015-02-03,0.005,0.005,0.005,0.005,000,0.045
2015-02-02,0.005,0.005,0.005,0.005,000,0.045
2015-01-30,0.005,0.005,0.005,0.005,000,0.045
2015-01-29,0.005,0.005,0.005,0.005,000,0.045
2015-01-28,0.005,0.005,0.005,0.005,000,0.045
2015-01-27,0.005,0.005,0.005,0.005,1566100,0.045
2015-01-26,0.005,0.005,0.005,0.005,000,0.048
2015-01-23,0.005,0.005,0.005,0.005,000,0.048
2015-01-22,0.005,0.005,0.005,0.005,000,0.048
2015-01-21,0.005,0.005,0.005,0.005,62800,0.048
2015-01-20,0.005,0.005,0.005,0.005,182500,0.048
2015-01-19,0.005,0.005,0.005,0.005,000,0.048
2015-01-16,0.005,0.005,0.005,0.005,000,0.048
2015-01-15,0.005,0.005,0.005,0.005,328000,0.048
2015-01-14,0.005,0.005,0.005,0.005,60000,0.048
2015-01-13,0.005,0.005,0.005,0.005,860000,0.048
2015-01-12,0.005,0.005,0.005,0.005,000,0.048
2015-01-09,0.005,0.005,0.005,0.005,000,0.048
2015-01-08,0.005,0.005,0.005,0.005,000,0.048
2015-01-07,0.005,0.005,0.005,0.005,000,0.048
2015-01-06,0.005,0.005,0.005,0.005,000,0.048
2015-01-05,0.005,0.005,0.005,0.005,000,0.048
2015-01-02,0.005,0.005,0.005,0.005,000,0.048
2015-01-01,0.005,0.005,0.005,0.005,000,0.048
2014-12-31,0.005,0.005,0.005,0.005,60000,0.048
2014-12-30,0.005,0.005,0.005,0.005,000,0.048
2014-12-29,0.005,0.005,0.005,0.005,50000,0.048
2014-12-26,0.005,0.005,0.005,0.005,000,0.045
2014-12-25,0.005,0.005,0.005,0.005,000,0.045
2014-12-24,0.005,0.005,0.005,0.005,000,0.045
2014-12-23,0.005,0.005,0.005,0.005,000,0.045
2014-12-22,0.005,0.005,0.005,0.005,000,0.045
2014-12-19,0.005,0.005,0.005,0.005,000,0.045
2014-12-18,0.005,0.005,0.005,0.005,000,0.045
2014-12-17,0.005,0.005,0.005,0.005,000,0.045
2014-12-16,0.005,0.005,0.005,0.005,000,0.045
2014-12-15,0.005,0.005,0.005,0.005,000,0.045
2014-12-12,0.005,0.005,0.005,0.005,000,0.045
2014-12-11,0.005,0.005,0.005,0.005,000,0.045
2014-12-10,0.005,0.005,0.005,0.005,000,0.045
2014-12-09,0.005,0.005,0.005,0.005,000,0.045
2014-12-08,0.005,0.005,0.005,0.005,000,0.045
2014-12-05,0.005,0.005,0.005,0.005,000,0.045
2014-12-04,0.005,0.005,0.005,0.005,286500,0.045
2014-12-03,0.003,0.004,0.003,0.004,129700,0.044
2014-12-02,0.003,0.003,0.003,0.003,000,0.031
2014-12-01,0.003,0.003,0.003,0.003,000,0.031
2014-11-28,0.003,0.003,0.003,0.003,000,0.031
2014-11-27,0.003,0.003,0.003,0.003,50000,0.031
2014-11-26,0.003,0.003,0.003,0.003,000,0.03
2014-11-25,0.003,0.003,0.003,0.003,000,0.03
2014-11-24,0.003,0.003,0.003,0.003,000,0.03
2014-11-21,0.003,0.003,0.003,0.003,000,0.03
2014-11-20,0.003,0.003,0.003,0.003,000,0.03
2014-11-19,0.003,0.003,0.003,0.003,000,0.03
2014-11-18,0.003,0.003,0.003,0.003,000,0.03
2014-11-17,0.003,0.003,0.003,0.003,000,0.03
2014-11-14,0.003,0.003,0.003,0.003,000,0.03
2014-11-13,0.003,0.003,0.003,0.003,300000,0.03
2014-11-12,0.003,0.003,0.003,0.003,000,0.033
2014-11-11,0.003,0.003,0.003,0.003,000,0.033
2014-11-10,0.003,0.003,0.003,0.003,000,0.033
2014-11-07,0.003,0.003,0.003,0.003,000,0.033
2014-11-06,0.003,0.003,0.003,0.003,000,0.033
2014-11-05,0.003,0.003,0.003,0.003,389500,0.033
2014-11-04,0.003,0.003,0.003,0.003,000,0.027
2014-11-03,0.003,0.003,0.003,0.003,000,0.027
2014-10-31,0.003,0.003,0.003,0.003,000,0.027
2014-10-30,0.003,0.003,0.003,0.003,000,0.027
2014-10-29,0.003,0.003,0.003,0.003,45000,0.027
2014-10-28,0.003,0.003,0.003,0.003,000,0.026
2014-10-27,0.003,0.003,0.003,0.003,000,0.026
2014-10-24,0.003,0.003,0.003,0.003,36100,0.026
2014-10-23,0.001,0.001,0.001,0.001,179300,0.015
2014-10-22,0.003,0.003,0.003,0.003,000,0.027
2014-10-21,0.003,0.003,0.003,0.003,000,0.027
2014-10-20,0.002,0.003,0.002,0.003,55000,0.027
2014-10-17,0.003,0.003,0.003,0.003,000,0.025
2014-10-16,0.003,0.003,0.003,0.003,000,0.025
2014-10-15,0.003,0.003,0.003,0.003,000,0.025
2014-10-14,0.003,0.003,0.003,0.003,000,0.025
2014-10-13,0.003,0.003,0.003,0.003,000,0.025
2014-10-10,0.003,0.003,0.003,0.003,000,0.025
2014-10-09,0.003,0.003,0.003,0.003,000,0.025
2014-10-08,0.003,0.003,0.003,0.003,000,0.025
2014-10-07,0.003,0.003,0.003,0.003,000,0.025
2014-10-06,0.003,0.003,0.003,0.003,000,0.025
2014-10-03,0.003,0.003,0.003,0.003,74000,0.025
2014-10-02,0.003,0.003,0.003,0.003,100000,0.028
2014-10-01,0.003,0.003,0.003,0.003,000,0.025
2014-09-30,0.003,0.003,0.003,0.003,100000,0.025
2014-09-29,0.003,0.003,0.003,0.003,435000,0.025
2014-09-26,0.003,0.003,0.003,0.003,40000,0.025
2014-09-25,0.004,0.004,0.004,0.004,000,0.035
2014-09-24,0.004,0.004,0.004,0.004,000,0.035
2014-09-23,0.004,0.004,0.004,0.004,50000,0.035
2014-09-22,0.004,0.004,0.004,0.004,200000,0.035
2014-09-19,0.004,0.004,0.004,0.004,000,0.035
2014-09-18,0.004,0.004,0.004,0.004,000,0.035
2014-09-17,0.004,0.004,0.004,0.004,000,0.035
2014-09-16,0.004,0.004,0.004,0.004,100000,0.035
2014-09-15,0.004,0.004,0.004,0.004,000,0.04
2014-09-12,0.004,0.004,0.004,0.004,000,0.04
2014-09-11,0.004,0.004,0.004,0.004,000,0.04
2014-09-10,0.004,0.004,0.004,0.004,90000,0.04
2014-09-09,0.005,0.005,0.005,0.005,000,0.05
2014-09-08,0.005,0.005,0.005,0.005,000,0.05
2014-09-05,0.005,0.005,0.005,0.005,000,0.05
2014-09-04,0.005,0.005,0.005,0.005,000,0.05
2014-09-03,0.005,0.005,0.005,0.005,000,0.05
2014-09-02,0.005,0.005,0.005,0.005,113400,0.05
2014-09-01,0.005,0.005,0.005,0.005,000,0.048
2014-08-29,0.005,0.005,0.005,0.005,000,0.048
2014-08-28,0.005,0.005,0.005,0.005,000,0.048
2014-08-27,0.005,0.005,0.005,0.005,70000,0.048
2014-08-26,0.006,0.006,0.006,0.006,000,0.055
2014-08-25,0.006,0.006,0.006,0.006,000,0.055
2014-08-22,0.004,0.006,0.004,0.006,356500,0.055
2014-08-21,0.005,0.005,0.005,0.005,000,0.053
2014-08-20,0.005,0.005,0.005,0.005,000,0.053
2014-08-19,0.005,0.005,0.005,0.005,000,0.053
2014-08-18,0.005,0.005,0.005,0.005,000,0.053
2014-08-15,0.005,0.005,0.005,0.005,000,0.053
2014-08-14,0.005,0.005,0.005,0.005,000,0.053
2014-08-13,0.005,0.005,0.005,0.005,000,0.053
2014-08-12,0.005,0.005,0.005,0.005,000,0.053
2014-08-11,0.005,0.005,0.005,0.005,000,0.053
2014-08-08,0.005,0.005,0.005,0.005,000,0.053
2014-08-07,0.005,0.005,0.005,0.005,000,0.053
2014-08-06,0.005,0.005,0.005,0.005,000,0.053
2014-08-05,0.005,0.005,0.005,0.005,000,0.053
2014-08-04,0.005,0.005,0.005,0.005,000,0.053
2014-08-01,0.005,0.005,0.005,0.005,000,0.053
2014-07-31,0.005,0.005,0.005,0.005,000,0.053
2014-07-30,0.005,0.005,0.005,0.005,000,0.053
2014-07-29,0.005,0.005,0.005,0.005,000,0.053
2014-07-28,0.006,0.006,0.005,0.005,90000,0.053
2014-07-25,0.006,0.006,0.006,0.006,293400,0.055
2014-07-24,0.005,0.005,0.005,0.005,000,0.049
2014-07-23,0.005,0.005,0.005,0.005,000,0.049
2014-07-22,0.005,0.005,0.005,0.005,000,0.049
2014-07-21,0.005,0.005,0.005,0.005,000,0.049
2014-07-18,0.005,0.005,0.005,0.005,000,0.049
2014-07-17,0.005,0.005,0.005,0.005,000,0.049
2014-07-16,0.005,0.005,0.005,0.005,000,0.049
2014-07-15,0.005,0.005,0.005,0.005,000,0.049
2014-07-14,0.005,0.005,0.005,0.005,000,0.049
2014-07-11,0.005,0.005,0.005,0.005,000,0.049
2014-07-10,0.005,0.005,0.005,0.005,000,0.049
2014-07-09,0.005,0.005,0.005,0.005,000,0.049
2014-07-08,0.005,0.005,0.005,0.005,000,0.049
2014-07-07,0.005,0.005,0.005,0.005,000,0.049
2014-07-04,0.005,0.005,0.005,0.005,000,0.049
2014-07-03,0.005,0.005,0.005,0.005,380000,0.049
2014-07-02,0.005,0.005,0.005,0.005,117000,0.045
2014-07-01,0.005,0.005,0.005,0.005,000,0.045
2014-06-30,0.005,0.005,0.005,0.005,000,0.045
2014-06-27,0.005,0.005,0.005,0.005,000,0.045
2014-06-26,0.005,0.005,0.005,0.005,000,0.045
2014-06-25,0.005,0.005,0.005,0.005,000,0.045
2014-06-24,0.005,0.005,0.005,0.005,000,0.045
2014-06-23,0.005,0.005,0.005,0.005,000,0.045
2014-06-20,0.005,0.005,0.005,0.005,8000,0.045
2014-06-19,0.005,0.005,0.005,0.005,000,0.045
2014-06-18,0.005,0.005,0.005,0.005,100000,0.045
2014-06-17,0.005,0.005,0.005,0.005,200000,0.045
2014-06-16,0.005,0.005,0.005,0.005,000,0.05
2014-06-13,0.005,0.005,0.005,0.005,000,0.05
2014-06-12,0.005,0.005,0.005,0.005,000,0.05
2014-06-11,0.005,0.005,0.005,0.005,000,0.05
2014-06-10,0.005,0.005,0.005,0.005,100000,0.05
2014-06-09,0.006,0.006,0.006,0.006,000,0.06
2014-06-06,0.006,0.006,0.006,0.006,000,0.06
2014-06-05,0.006,0.006,0.006,0.006,000,0.06
2014-06-04,0.006,0.006,0.006,0.006,000,0.06
2014-06-03,0.006,0.006,0.006,0.006,000,0.06
2014-06-02,0.006,0.006,0.006,0.006,71500,0.06
2014-05-30,0.005,0.005,0.005,0.005,100000,0.05
2014-05-29,0.005,0.005,0.005,0.005,000,0.052
2014-05-28,0.005,0.005,0.005,0.005,125000,0.052
2014-05-27,0.005,0.005,0.005,0.005,405000,0.052
2014-05-26,0.006,0.006,0.006,0.006,000,0.063
2014-05-23,0.006,0.006,0.006,0.006,000,0.063
2014-05-22,0.006,0.006,0.006,0.006,100000,0.063
2014-05-21,0.006,0.006,0.006,0.006,150000,0.062
2014-05-20,0.006,0.006,0.006,0.006,000,0.06
2014-05-19,0.006,0.006,0.006,0.006,000,0.06
2014-05-16,0.006,0.006,0.006,0.006,000,0.06
2014-05-15,0.006,0.006,0.006,0.006,000,0.06
2014-05-14,0.006,0.006,0.006,0.006,000,0.06
2014-05-13,0.006,0.006,0.006,0.006,000,0.06
2014-05-12,0.006,0.006,0.006,0.006,000,0.06
2014-05-09,0.006,0.006,0.006,0.006,000,0.06
2014-05-08,0.006,0.006,0.006,0.006,000,0.06
2014-05-07,0.006,0.006,0.006,0.006,000,0.06
2014-05-06,0.006,0.006,0.006,0.006,000,0.06
2014-05-05,0.006,0.006,0.006,0.006,000,0.06
2014-05-02,0.006,0.006,0.006,0.006,000,0.06
2014-05-01,0.006,0.006,0.006,0.006,50000,0.06
2014-04-30,0.006,0.006,0.006,0.006,000,0.06
2014-04-29,0.006,0.006,0.006,0.006,000,0.06
2014-04-28,0.006,0.006,0.006,0.006,000,0.06
2014-04-25,0.006,0.006,0.006,0.006,000,0.06
2014-04-24,0.006,0.006,0.006,0.006,000,0.06
2014-04-23,0.006,0.006,0.006,0.006,30000,0.06
2014-04-22,0.006,0.006,0.006,0.006,000,0.06
2014-04-21,0.006,0.006,0.006,0.006,000,0.06
2014-04-18,0.006,0.006,0.006,0.006,000,0.06
2014-04-17,0.006,0.006,0.006,0.006,000,0.06
2014-04-16,0.006,0.006,0.006,0.006,000,0.06
2014-04-15,0.006,0.006,0.006,0.006,000,0.06
2014-04-14,0.006,0.006,0.006,0.006,000,0.06
2014-04-11,0.006,0.006,0.006,0.006,000,0.06
2014-04-10,0.006,0.006,0.006,0.006,000,0.06
2014-04-09,0.006,0.006,0.006,0.006,9100,0.06
2014-04-08,0.006,0.006,0.006,0.006,000,0.064
2014-04-07,0.006,0.006,0.006,0.006,000,0.064
2014-04-04,0.006,0.006,0.006,0.006,000,0.064
2014-04-03,0.006,0.006,0.006,0.006,000,0.064
2014-04-02,0.006,0.006,0.006,0.006,000,0.064
2014-04-01,0.006,0.006,0.006,0.006,100000,0.064
2014-03-31,0.006,0.006,0.006,0.006,000,0.065
2014-03-28,0.006,0.006,0.006,0.006,000,0.065
2014-03-27,0.006,0.006,0.006,0.006,000,0.065
2014-03-26,0.006,0.006,0.006,0.006,000,0.065
2014-03-25,0.006,0.006,0.006,0.006,20000,0.065
2014-03-24,0.006,0.006,0.006,0.006,000,0.064
2014-03-21,0.006,0.006,0.006,0.006,000,0.064
2014-03-20,0.006,0.006,0.006,0.006,000,0.064
2014-03-19,0.006,0.006,0.006,0.006,000,0.064
2014-03-18,0.006,0.006,0.006,0.006,75000,0.064
2014-03-17,0.006,0.006,0.006,0.006,000,0.065
2014-03-14,0.006,0.006,0.006,0.006,000,0.065
2014-03-13,0.006,0.006,0.006,0.006,000,0.065
2014-03-12,0.006,0.006,0.006,0.006,000,0.065
2014-03-11,0.006,0.006,0.006,0.006,000,0.065
2014-03-10,0.006,0.006,0.006,0.006,000,0.065
2014-03-07,0.006,0.006,0.006,0.006,000,0.065
2014-03-06,0.006,0.006,0.006,0.006,202400,0.065
2014-03-05,0.007,0.007,0.007,0.007,000,0.068
2014-03-04,0.007,0.007,0.007,0.007,000,0.068
2014-03-03,0.007,0.007,0.007,0.007,000,0.068
2014-02-28,0.007,0.007,0.007,0.007,000,0.068
2014-02-27,0.007,0.007,0.007,0.007,000,0.068
2014-02-26,0.007,0.007,0.007,0.007,000,0.068
2014-02-25,0.007,0.007,0.007,0.007,000,0.068
2014-02-24,0.006,0.007,0.006,0.007,215000,0.068
2014-02-21,0.006,0.006,0.006,0.006,35000,0.065
2014-02-20,0.006,0.006,0.006,0.006,000,0.065
2014-02-19,0.006,0.006,0.006,0.006,000,0.065
2014-02-18,0.006,0.006,0.006,0.006,000,0.065
2014-02-17,0.006,0.006,0.006,0.006,200000,0.065
2014-02-14,0.006,0.006,0.006,0.006,000,0.06
2014-02-13,0.006,0.006,0.006,0.006,100000,0.06
2014-02-12,0.006,0.006,0.006,0.006,000,0.055
2014-02-11,0.006,0.006,0.006,0.006,000,0.055
2014-02-10,0.006,0.006,0.006,0.006,000,0.055
2014-02-07,0.006,0.006,0.006,0.006,000,0.055
2014-02-06,0.006,0.006,0.006,0.006,000,0.055
2014-02-05,0.006,0.006,0.006,0.006,000,0.055
2014-02-04,0.006,0.006,0.006,0.006,000,0.055
2014-02-03,0.006,0.006,0.006,0.006,000,0.055
2014-01-31,0.006,0.006,0.006,0.006,10000,0.055
2014-01-30,0.006,0.006,0.006,0.006,000,0.063
2014-01-29,0.006,0.006,0.006,0.006,000,0.063
2014-01-28,0.006,0.006,0.006,0.006,000,0.063
2014-01-27,0.006,0.006,0.006,0.006,000,0.063
2014-01-24,0.006,0.006,0.006,0.006,000,0.063
2014-01-23,0.006,0.006,0.006,0.006,000,0.063
2014-01-22,0.006,0.006,0.006,0.006,000,0.063
2014-01-21,0.006,0.006,0.006,0.006,000,0.063
2014-01-20,0.006,0.006,0.006,0.006,150000,0.063
2014-01-17,0.006,0.006,0.006,0.006,000,0.059
2014-01-16,0.006,0.006,0.006,0.006,000,0.059
2014-01-15,0.006,0.006,0.006,0.006,000,0.059
2014-01-14,0.006,0.006,0.006,0.006,36800,0.062
2014-01-13,0.006,0.006,0.006,0.006,150000,0.059
2014-01-10,0.006,0.006,0.006,0.006,000,0.063
2014-01-09,0.006,0.006,0.006,0.006,000,0.063
2014-01-08,0.006,0.006,0.006,0.006,000,0.063
2014-01-07,0.006,0.006,0.006,0.006,000,0.063
2014-01-06,0.006,0.006,0.006,0.006,000,0.063
2014-01-03,0.006,0.006,0.006,0.006,000,0.063
2014-01-02,0.006,0.006,0.006,0.006,000,0.063
2014-01-01,0.006,0.006,0.006,0.006,000,0.063
2013-12-31,0.006,0.006,0.006,0.006,000,0.063
2013-12-30,0.006,0.006,0.006,0.006,000,0.063
2013-12-27,0.006,0.006,0.006,0.006,000,0.063
2013-12-26,0.006,0.006,0.006,0.006,000,0.063
2013-12-25,0.006,0.006,0.006,0.006,000,0.063
2013-12-24,0.006,0.006,0.006,0.006,000,0.063
2013-12-23,0.006,0.006,0.006,0.006,000,0.063
2013-12-20,0.006,0.006,0.006,0.006,000,0.063
2013-12-19,0.006,0.006,0.006,0.006,000,0.063
2013-12-18,0.006,0.006,0.006,0.006,000,0.063
2013-12-17,0.006,0.006,0.006,0.006,000,0.063
2013-12-16,0.006,0.006,0.006,0.006,000,0.063
2013-12-13,0.006,0.006,0.006,0.006,000,0.063
2013-12-12,0.006,0.006,0.006,0.006,000,0.063
2013-12-11,0.006,0.006,0.006,0.006,000,0.063
2013-12-10,0.006,0.006,0.006,0.006,190000,0.063
2013-12-09,0.006,0.006,0.006,0.006,1800,0.056
2013-12-06,0.006,0.006,0.006,0.006,000,0.056
2013-12-05,0.006,0.006,0.006,0.006,000,0.056
2013-12-04,0.006,0.006,0.006,0.006,000,0.056
2013-12-03,0.006,0.006,0.006,0.006,000,0.056
2013-12-02,0.006,0.006,0.006,0.006,000,0.056
2013-11-29,0.006,0.006,0.006,0.006,330000,0.056
2013-11-28,0.006,0.006,0.006,0.006,000,0.065
2013-11-27,0.006,0.006,0.006,0.006,000,0.065
2013-11-26,0.006,0.006,0.006,0.006,000,0.065
2013-11-25,0.006,0.006,0.006,0.006,12100,0.065
2013-11-22,0.006,0.006,0.006,0.006,000,0.065
2013-11-21,0.006,0.006,0.006,0.006,164500,0.065
2013-11-20,0.006,0.006,0.006,0.006,000,0.06
2013-11-19,0.006,0.006,0.006,0.006,000,0.06
2013-11-18,0.006,0.006,0.006,0.006,000,0.06
2013-11-15,0.006,0.006,0.006,0.006,000,0.06
2013-11-14,0.006,0.006,0.006,0.006,100000,0.06
2013-11-13,0.006,0.006,0.006,0.006,000,0.065
2013-11-12,0.006,0.006,0.006,0.006,000,0.065
2013-11-11,0.006,0.006,0.006,0.006,000,0.065
2013-11-08,0.006,0.006,0.006,0.006,000,0.065
2013-11-07,0.006,0.006,0.006,0.006,000,0.065
2013-11-06,0.006,0.006,0.006,0.006,000,0.065
2013-11-05,0.006,0.006,0.006,0.006,000,0.065
2013-11-04,0.006,0.006,0.006,0.006,000,0.065
2013-11-01,0.006,0.006,0.006,0.006,000,0.065
2013-10-31,0.006,0.006,0.006,0.006,000,0.065
2013-10-30,0.006,0.006,0.006,0.006,8000,0.065
2013-10-29,0.005,0.005,0.005,0.005,2000,0.05
2013-10-28,0.006,0.006,0.006,0.006,000,0.06
2013-10-25,0.006,0.006,0.006,0.006,000,0.06
2013-10-24,0.006,0.006,0.006,0.006,140000,0.06
2013-10-23,0.006,0.006,0.006,0.006,000,0.061
2013-10-22,0.006,0.006,0.006,0.006,100000,0.061
2013-10-21,0.007,0.007,0.007,0.007,000,0.069
2013-10-18,0.007,0.007,0.007,0.007,145000,0.069
2013-10-17,0.007,0.007,0.007,0.007,000,0.069
2013-10-16,0.007,0.007,0.007,0.007,000,0.069
2013-10-15,0.007,0.007,0.007,0.007,000,0.069
2013-10-14,0.007,0.007,0.007,0.007,100000,0.069
2013-10-11,0.007,0.007,0.007,0.007,000,0.07
2013-10-10,0.007,0.007,0.007,0.007,000,0.07
2013-10-09,0.007,0.007,0.007,0.007,000,0.07
2013-10-08,0.007,0.007,0.007,0.007,13500,0.07
2013-10-07,0.007,0.007,0.007,0.007,100000,0.069
2013-10-04,0.007,0.007,0.007,0.007,000,0.068
2013-10-03,0.007,0.007,0.007,0.007,330000,0.068
2013-10-02,0.007,0.007,0.007,0.007,400000,0.068
2013-10-01,0.007,0.007,0.007,0.007,000,0.068
2013-09-30,0.007,0.007,0.007,0.007,000,0.068
2013-09-27,0.007,0.007,0.007,0.007,000,0.068
2013-09-26,0.007,0.007,0.007,0.007,000,0.068
2013-09-25,0.007,0.007,0.007,0.007,000,0.068
2013-09-24,0.007,0.007,0.007,0.007,100000,0.068
2013-09-23,0.006,0.006,0.006,0.006,000,0.065
2013-09-20,0.006,0.006,0.006,0.006,5500,0.065
2013-09-19,0.007,0.007,0.007,0.007,000,0.069
2013-09-18,0.007,0.007,0.007,0.007,000,0.069
2013-09-17,0.007,0.007,0.007,0.007,000,0.069
2013-09-16,0.007,0.007,0.007,0.007,000,0.069
2013-09-13,0.007,0.007,0.007,0.007,000,0.069
2013-09-12,0.007,0.007,0.007,0.007,000,0.069
2013-09-11,0.007,0.007,0.007,0.007,000,0.069
2013-09-10,0.007,0.007,0.007,0.007,000,0.069
2013-09-09,0.007,0.007,0.007,0.007,000,0.069
2013-09-06,0.007,0.007,0.007,0.007,000,0.069
2013-09-05,0.007,0.007,0.007,0.007,000,0.069
2013-09-04,0.007,0.007,0.007,0.007,000,0.069
2013-09-03,0.007,0.007,0.007,0.007,75000,0.069
2013-09-02,0.009,0.009,0.009,0.009,000,0.087
2013-08-30,0.009,0.009,0.009,0.009,000,0.087
2013-08-29,0.009,0.009,0.009,0.009,000,0.087
2013-08-28,0.009,0.009,0.009,0.009,150000,0.087
2013-08-27,0.007,0.009,0.007,0.009,380000,0.088
2013-08-26,0.006,0.006,0.006,0.006,000,0.065
2013-08-23,0.006,0.006,0.006,0.006,000,0.065
2013-08-22,0.006,0.006,0.006,0.006,330000,0.065
2013-08-21,0.007,0.007,0.006,0.006,202000,0.065
2013-08-20,0.007,0.007,0.007,0.007,110000,0.066
2013-08-19,0.007,0.007,0.007,0.007,000,0.067
2013-08-16,0.007,0.007,0.007,0.007,000,0.067
2013-08-15,0.007,0.007,0.007,0.007,000,0.067
2013-08-14,0.007,0.007,0.007,0.007,141000,0.067
2013-08-13,0.007,0.007,0.007,0.007,5000,0.07
2013-08-12,0.007,0.007,0.007,0.007,000,0.07
2013-08-09,0.007,0.007,0.007,0.007,000,0.07
2013-08-08,0.007,0.007,0.007,0.007,80000,0.07
2013-08-07,0.007,0.007,0.007,0.007,000,0.072
2013-08-06,0.007,0.007,0.007,0.007,000,0.072
2013-08-05,0.007,0.007,0.007,0.007,000,0.072
2013-08-02,0.007,0.007,0.007,0.007,000,0.072
2013-08-01,0.007,0.007,0.007,0.007,000,0.072
2013-07-31,0.007,0.007,0.007,0.007,87500,0.072
2013-07-30,0.007,0.007,0.007,0.007,000,0.07
2013-07-29,0.007,0.007,0.007,0.007,000,0.07
2013-07-26,0.007,0.007,0.007,0.007,80000,0.07
2013-07-25,0.006,0.006,0.006,0.006,000,0.06
2013-07-24,0.006,0.006,0.006,0.006,50000,0.06
2013-07-23,0.008,0.008,0.008,0.008,000,0.08
2013-07-22,0.006,0.008,0.006,0.008,212200,0.08
2013-07-19,0.008,0.008,0.008,0.008,000,0.08
2013-07-18,0.008,0.008,0.008,0.008,000,0.08
2013-07-17,0.008,0.008,0.008,0.008,000,0.08
2013-07-16,0.008,0.008,0.008,0.008,000,0.08
2013-07-15,0.008,0.008,0.008,0.008,4400,0.08
2013-07-12,0.007,0.007,0.007,0.007,000,0.07
2013-07-11,0.007,0.007,0.007,0.007,22000,0.07
2013-07-10,0.009,0.009,0.009,0.009,22000,0.09
2013-07-09,0.009,0.009,0.009,0.009,000,0.09
2013-07-08,0.009,0.009,0.009,0.009,000,0.09
2013-07-05,0.009,0.009,0.009,0.009,000,0.09
2013-07-04,0.009,0.009,0.009,0.009,000,0.09
2013-07-03,0.009,0.009,0.009,0.009,000,0.09
2013-07-02,0.009,0.009,0.009,0.009,000,0.09
2013-07-01,0.009,0.009,0.009,0.009,000,0.09
2013-06-28,0.009,0.009,0.009,0.009,000,0.09
2013-06-27,0.009,0.009,0.009,0.009,000,0.09
2013-06-26,0.009,0.009,0.009,0.009,000,0.09
2013-06-25,0.009,0.009,0.009,0.009,000,0.09
2013-06-24,0.009,0.009,0.009,0.009,000,0.09
2013-06-21,0.009,0.009,0.009,0.009,000,0.09
2013-06-20,0.008,0.009,0.008,0.009,74800,0.09
2013-06-19,0.009,0.009,0.009,0.009,000,0.09
2013-06-18,0.009,0.009,0.009,0.009,000,0.09
2013-06-17,0.009,0.009,0.009,0.009,000,0.09
2013-06-14,0.009,0.009,0.009,0.009,000,0.09
2013-06-13,0.009,0.009,0.009,0.009,000,0.09
2013-06-12,0.009,0.009,0.009,0.009,000,0.09
2013-06-11,0.009,0.009,0.009,0.009,000,0.09
2013-06-10,0.009,0.009,0.009,0.009,000,0.09
2013-06-07,0.009,0.009,0.009,0.009,000,0.09
2013-06-06,0.009,0.009,0.009,0.009,50000,0.09
2013-06-05,0.009,0.009,0.009,0.009,000,0.091
2013-06-04,0.009,0.009,0.009,0.009,000,0.091
2013-06-03,0.009,0.009,0.009,0.009,000,0.091
2013-05-31,0.009,0.009,0.009,0.009,000,0.091
2013-05-30,0.009,0.009,0.009,0.009,000,0.091
2013-05-29,0.009,0.009,0.009,0.009,000,0.091
2013-05-28,0.009,0.009,0.009,0.009,000,0.091
2013-05-27,0.009,0.009,0.009,0.009,200000,0.091
2013-05-24,0.01,0.01,0.01,0.01,000,0.10
2013-05-23,0.01,0.01,0.01,0.01,000,0.10
2013-05-22,0.01,0.01,0.01,0.01,000,0.10
2013-05-21,0.01,0.01,0.01,0.01,000,0.10
2013-05-20,0.01,0.01,0.01,0.01,000,0.10
2013-05-17,0.01,0.01,0.01,0.01,000,0.10
2013-05-16,0.01,0.01,0.01,0.01,000,0.10
2013-05-15,0.009,0.01,0.009,0.01,75000,0.10
2013-05-14,0.011,0.011,0.011,0.011,000,0.11
2013-05-13,0.011,0.011,0.011,0.011,000,0.11
2013-05-10,0.011,0.011,0.011,0.011,000,0.11
2013-05-09,0.011,0.011,0.011,0.011,000,0.11
2013-05-08,0.011,0.011,0.011,0.011,000,0.11
2013-05-07,0.011,0.011,0.011,0.011,000,0.11
2013-05-06,0.012,0.012,0.011,0.011,261500,0.11
2013-05-03,0.011,0.011,0.011,0.011,517400,0.11
2013-05-02,0.01,0.01,0.01,0.01,100000,0.105
2013-05-01,0.01,0.01,0.01,0.01,000,0.105
2013-04-30,0.01,0.01,0.01,0.01,000,0.105
2013-04-29,0.01,0.01,0.01,0.01,000,0.105
2013-04-26,0.009,0.011,0.009,0.01,326100,0.105
2013-04-25,0.009,0.009,0.009,0.009,000,0.09
2013-04-24,0.009,0.009,0.009,0.009,54600,0.09
2013-04-23,0.009,0.009,0.009,0.009,317000,0.09
2013-04-22,0.008,0.008,0.008,0.008,5200,0.08
2013-04-19,0.008,0.008,0.008,0.008,75000,0.08
2013-04-18,0.008,0.008,0.008,0.008,000,0.08
2013-04-17,0.008,0.008,0.008,0.008,193500,0.08
2013-04-16,0.009,0.009,0.009,0.009,000,0.085
2013-04-15,0.009,0.009,0.009,0.009,000,0.085
2013-04-12,0.009,0.009,0.009,0.009,000,0.085
2013-04-11,0.009,0.009,0.009,0.009,100000,0.085
2013-04-10,0.008,0.008,0.008,0.008,38800,0.08
2013-04-09,0.008,0.008,0.008,0.008,1100,0.08
2013-04-08,0.008,0.008,0.008,0.008,150000,0.08
2013-04-05,0.008,0.008,0.008,0.008,100000,0.08
2013-04-04,0.008,0.008,0.008,0.008,47500,0.08
2013-04-03,0.008,0.008,0.008,0.008,115000,0.083
2013-04-02,0.008,0.008,0.008,0.008,000,0.08
2013-04-01,0.008,0.008,0.008,0.008,000,0.08
2013-03-29,0.008,0.008,0.008,0.008,000,0.08
2013-03-28,0.008,0.008,0.008,0.008,000,0.08
2013-03-27,0.006,0.008,0.006,0.008,17500,0.08
2013-03-26,0.009,0.009,0.008,0.008,620000,0.08
