Date,Open,High,Low,Close,Volume,Adj Close
2017-01-10,0.38,0.38,0.38,0.38,000,0.38
2017-01-09,0.395,0.395,0.38,0.38,44200,0.38
2017-01-06,0.39,0.39,0.39,0.39,000,0.39
2017-01-05,0.39,0.39,0.39,0.39,000,0.39
2017-01-04,0.40,0.40,0.39,0.39,25300,0.39
2017-01-03,0.42,0.42,0.42,0.42,177200,0.42
2017-01-02,0.42,0.42,0.42,0.42,000,0.42
2016-12-30,0.42,0.42,0.42,0.42,10000,0.42
2016-12-29,0.425,0.43,0.425,0.43,25500,0.43
2016-12-28,0.43,0.43,0.42,0.425,127600,0.425
2016-12-27,0.42,0.42,0.42,0.42,000,0.42
2016-12-26,0.42,0.42,0.42,0.42,000,0.42
2016-12-23,0.42,0.42,0.42,0.42,2800,0.42
2016-12-22,0.435,0.435,0.435,0.435,000,0.435
2016-12-21,0.435,0.435,0.435,0.435,3300,0.435
2016-12-20,0.41,0.44,0.39,0.435,329100,0.435
2016-12-19,0.425,0.425,0.41,0.41,4000,0.41
2016-12-16,0.425,0.425,0.425,0.425,25000,0.425
2016-12-15,0.39,0.39,0.39,0.39,000,0.39
2016-12-14,0.39,0.39,0.39,0.39,6000,0.39
2016-12-13,0.39,0.39,0.37,0.39,156500,0.39
2016-12-12,0.41,0.41,0.40,0.40,73600,0.40
2016-12-09,0.43,0.43,0.43,0.43,000,0.43
2016-12-08,0.43,0.43,0.43,0.43,000,0.43
2016-12-07,0.435,0.435,0.39,0.43,80400,0.43
2016-12-06,0.45,0.45,0.43,0.43,270900,0.43
2016-12-05,0.45,0.47,0.45,0.46,202800,0.46
2016-12-02,0.45,0.45,0.445,0.445,27200,0.445
2016-12-01,0.475,0.475,0.45,0.45,193500,0.45
2016-11-30,0.485,0.49,0.475,0.475,88200,0.475
2016-11-29,0.475,0.50,0.475,0.48,585400,0.48
2016-11-28,0.49,0.49,0.46,0.47,213400,0.47
2016-11-25,0.47,0.49,0.47,0.48,175300,0.48
2016-11-24,0.455,0.465,0.455,0.46,200600,0.46
2016-11-23,0.46,0.47,0.45,0.455,193000,0.455
2016-11-22,0.44,0.45,0.44,0.445,351100,0.445
2016-11-21,0.42,0.42,0.41,0.42,128900,0.42
2016-11-18,0.39,0.42,0.39,0.42,265500,0.42
2016-11-17,0.365,0.40,0.365,0.39,183500,0.39
2016-11-16,0.34,0.35,0.33,0.35,527300,0.35
2016-11-15,0.34,0.34,0.325,0.325,116700,0.325
2016-11-14,0.34,0.34,0.32,0.325,124600,0.325
2016-11-11,0.32,0.33,0.32,0.33,189100,0.33
2016-11-10,0.27,0.305,0.27,0.305,231200,0.305
2016-11-09,0.29,0.29,0.27,0.27,99800,0.27
2016-11-08,0.29,0.29,0.29,0.29,000,0.29
2016-11-07,0.29,0.29,0.29,0.29,000,0.29
2016-11-04,0.295,0.295,0.29,0.29,67700,0.29
2016-11-03,0.30,0.30,0.30,0.30,000,0.30
2016-11-02,0.30,0.30,0.30,0.30,000,0.30
2016-11-01,0.30,0.30,0.30,0.30,10000,0.30
2016-10-31,0.30,0.30,0.30,0.30,50000,0.30
2016-10-28,0.30,0.30,0.295,0.30,84600,0.30
2016-10-27,0.30,0.30,0.30,0.30,500,0.30
2016-10-26,0.30,0.30,0.295,0.30,249500,0.30
2016-10-25,0.30,0.31,0.30,0.30,70000,0.30
2016-10-24,0.30,0.30,0.30,0.30,179900,0.30
2016-10-21,0.30,0.30,0.30,0.30,10000,0.30
2016-10-20,0.31,0.32,0.295,0.30,38100,0.30
2016-10-19,0.285,0.32,0.285,0.32,134600,0.32
2016-10-18,0.265,0.285,0.265,0.285,56400,0.285
2016-10-17,0.28,0.28,0.26,0.26,90800,0.26
2016-10-14,0.27,0.28,0.265,0.28,107200,0.28
2016-10-13,0.27,0.32,0.27,0.27,246700,0.27
2016-10-12,0.23,0.25,0.23,0.25,125800,0.25
2016-10-11,0.23,0.23,0.23,0.23,42300,0.23
2016-10-10,0.22,0.23,0.22,0.23,38000,0.23
2016-10-07,0.19,0.19,0.19,0.19,3000,0.19
2016-10-06,0.20,0.20,0.19,0.19,26000,0.19
2016-10-05,0.19,0.19,0.19,0.19,000,0.19
2016-10-04,0.19,0.19,0.19,0.19,10000,0.19
2016-10-03,0.19,0.19,0.19,0.19,9000,0.19
2016-09-30,0.20,0.20,0.20,0.20,000,0.20
2016-09-29,0.20,0.20,0.20,0.20,000,0.20
2016-09-28,0.20,0.20,0.20,0.20,000,0.20
2016-09-27,0.20,0.20,0.20,0.20,67800,0.20
2016-09-26,0.20,0.20,0.20,0.20,34000,0.20
2016-09-23,0.20,0.20,0.20,0.20,7000,0.20
2016-09-22,0.235,0.235,0.22,0.22,12400,0.22
2016-09-21,0.22,0.22,0.22,0.22,19500,0.22
2016-09-20,0.21,0.22,0.21,0.215,39000,0.215
2016-09-19,0.195,0.195,0.195,0.195,000,0.195
2016-09-16,0.21,0.21,0.195,0.195,34000,0.195
2016-09-15,0.19,0.19,0.19,0.19,000,0.19
2016-09-14,0.19,0.19,0.19,0.19,16100,0.19
2016-09-13,0.19,0.19,0.19,0.19,25000,0.19
2016-09-12,0.19,0.19,0.19,0.19,50000,0.19
2016-09-09,0.175,0.175,0.175,0.175,000,0.175
2016-09-08,0.175,0.175,0.175,0.175,000,0.175
2016-09-07,0.18,0.18,0.175,0.175,22700,0.175
2016-09-06,0.175,0.175,0.175,0.175,34500,0.175
2016-09-05,0.175,0.175,0.175,0.175,000,0.175
2016-09-02,0.18,0.18,0.175,0.175,27000,0.175
2016-09-01,0.175,0.175,0.175,0.175,000,0.175
2016-08-31,0.175,0.175,0.175,0.175,1300,0.175
2016-08-30,0.175,0.175,0.175,0.175,000,0.175
2016-08-29,0.165,0.175,0.165,0.175,17900,0.175
2016-08-26,0.185,0.185,0.185,0.185,10000,0.185
2016-08-25,0.16,0.16,0.16,0.16,000,0.16
2016-08-24,0.16,0.16,0.16,0.16,2000,0.16
2016-08-23,0.19,0.19,0.19,0.19,000,0.19
2016-08-22,0.19,0.21,0.19,0.19,11000,0.19
2016-08-19,0.18,0.18,0.18,0.18,26500,0.18
2016-08-18,0.16,0.18,0.16,0.16,28100,0.16
2016-08-17,0.18,0.18,0.17,0.175,15400,0.175
2016-08-16,0.19,0.19,0.19,0.19,000,0.19
2016-08-15,0.19,0.19,0.19,0.19,000,0.19
2016-08-12,0.20,0.20,0.19,0.19,15700,0.19
2016-08-11,0.20,0.20,0.20,0.20,000,0.20
2016-08-10,0.21,0.21,0.20,0.20,12900,0.20
2016-08-09,0.19,0.20,0.19,0.20,15000,0.20
2016-08-08,0.19,0.19,0.19,0.19,300,0.19
2016-08-05,0.20,0.20,0.20,0.20,000,0.20
2016-08-04,0.20,0.20,0.20,0.20,000,0.20
2016-08-03,0.20,0.20,0.20,0.20,000,0.20
2016-08-02,0.20,0.20,0.20,0.20,23000,0.20
2016-08-01,0.19,0.19,0.19,0.19,000,0.19
2016-07-29,0.19,0.19,0.19,0.19,000,0.19
2016-07-28,0.19,0.19,0.19,0.19,000,0.19
2016-07-27,0.19,0.19,0.19,0.19,5000,0.19
2016-07-26,0.165,0.20,0.165,0.20,50000,0.20
2016-07-25,0.175,0.175,0.175,0.175,17200,0.175
2016-07-22,0.17,0.17,0.17,0.17,000,0.17
2016-07-21,0.17,0.17,0.17,0.17,6400,0.17
2016-07-20,0.17,0.17,0.17,0.17,33600,0.17
2016-07-19,0.15,0.15,0.15,0.15,3400,0.15
2016-07-18,0.15,0.15,0.15,0.15,33600,0.15
2016-07-15,0.17,0.17,0.17,0.17,000,0.17
2016-07-14,0.17,0.17,0.17,0.17,7500,0.17
2016-07-13,0.13,0.15,0.13,0.15,213600,0.15
2016-07-12,0.13,0.13,0.12,0.12,108500,0.12
2016-07-11,0.125,0.13,0.125,0.13,66000,0.13
2016-07-08,0.12,0.12,0.12,0.12,5000,0.12
2016-07-07,0.125,0.125,0.125,0.125,000,0.125
2016-07-06,0.125,0.125,0.125,0.125,5700,0.125
2016-07-05,0.11,0.11,0.11,0.11,9200,0.11
2016-07-04,0.11,0.11,0.11,0.11,56700,0.11
2016-07-01,0.11,0.11,0.11,0.11,13200,0.11
2016-06-30,0.11,0.11,0.11,0.11,68600,0.11
2016-06-29,0.115,0.115,0.11,0.11,20000,0.11
2016-06-28,0.115,0.115,0.115,0.115,25500,0.115
2016-06-27,0.115,0.115,0.115,0.115,98200,0.115
2016-06-24,0.115,0.115,0.115,0.115,000,0.115
2016-06-23,0.115,0.12,0.115,0.115,132000,0.115
2016-06-22,0.12,0.12,0.115,0.115,27400,0.115
2016-06-21,0.12,0.12,0.12,0.12,000,0.12
2016-06-20,0.12,0.12,0.12,0.12,182000,0.12
2016-06-17,0.12,0.12,0.115,0.115,89000,0.115
2016-06-16,0.12,0.12,0.12,0.12,14500,0.12
2016-06-15,0.115,0.125,0.11,0.125,24400,0.125
2016-06-14,0.135,0.135,0.11,0.115,99800,0.115
2016-06-13,0.135,0.135,0.135,0.135,000,0.135
2016-06-10,0.135,0.135,0.135,0.135,5000,0.135
2016-06-09,0.14,0.14,0.135,0.14,17000,0.14
2016-06-08,0.14,0.14,0.135,0.135,25000,0.135
2016-06-07,0.16,0.16,0.16,0.16,000,0.16
2016-06-06,0.15,0.16,0.15,0.16,6500,0.16
2016-06-03,0.15,0.15,0.15,0.15,17900,0.15
2016-06-02,0.15,0.15,0.15,0.15,6000,0.15
2016-06-01,0.14,0.14,0.14,0.14,000,0.14
2016-05-31,0.14,0.14,0.14,0.14,9900,0.14
2016-05-30,0.15,0.15,0.15,0.15,10000,0.15
2016-05-27,0.14,0.14,0.14,0.14,000,0.14
2016-05-26,0.15,0.15,0.14,0.14,26800,0.14
2016-05-25,0.15,0.15,0.15,0.15,13600,0.15
2016-05-24,0.14,0.14,0.14,0.14,14600,0.14
2016-05-23,0.15,0.16,0.15,0.16,28000,0.16
2016-05-20,0.14,0.14,0.14,0.14,000,0.14
2016-05-19,0.14,0.14,0.14,0.14,19800,0.14
2016-05-18,0.14,0.14,0.135,0.14,45000,0.14
2016-05-17,0.14,0.14,0.14,0.14,000,0.14
2016-05-16,0.14,0.14,0.14,0.14,10000,0.14
2016-05-13,0.135,0.135,0.135,0.135,3400,0.135
2016-05-12,0.15,0.15,0.15,0.15,000,0.15
2016-05-11,0.15,0.15,0.15,0.15,3800,0.15
2016-05-10,0.15,0.15,0.15,0.15,11000,0.15
2016-05-09,0.16,0.16,0.15,0.15,8000,0.15
2016-05-06,0.15,0.15,0.15,0.15,000,0.15
2016-05-05,0.16,0.16,0.15,0.15,10300,0.15
2016-05-04,0.165,0.165,0.165,0.165,900,0.165
2016-05-03,0.16,0.16,0.16,0.16,3100,0.16
2016-05-02,0.16,0.16,0.16,0.16,4500,0.16
2016-04-29,0.155,0.155,0.155,0.155,5000,0.155
2016-04-28,0.155,0.155,0.155,0.155,000,0.155
2016-04-27,0.165,0.165,0.155,0.155,15600,0.155
2016-04-26,0.165,0.17,0.165,0.17,25800,0.17
2016-04-25,0.17,0.17,0.17,0.17,000,0.17
2016-04-22,0.165,0.17,0.165,0.17,51100,0.17
2016-04-21,0.165,0.165,0.165,0.165,15000,0.165
2016-04-20,0.16,0.165,0.16,0.165,397700,0.165
2016-04-19,0.16,0.165,0.16,0.165,165000,0.165
2016-04-18,0.16,0.16,0.16,0.16,34000,0.16
2016-04-15,0.155,0.165,0.155,0.165,172000,0.165
2016-04-14,0.16,0.16,0.155,0.155,56000,0.155
2016-04-13,0.165,0.165,0.16,0.165,202000,0.165
2016-04-12,0.165,0.165,0.165,0.165,8000,0.165
2016-04-11,0.17,0.17,0.17,0.17,2000,0.17
2016-04-08,0.17,0.17,0.17,0.17,000,0.17
2016-04-07,0.175,0.175,0.17,0.17,20000,0.17
2016-04-06,0.18,0.18,0.18,0.18,000,0.18
2016-04-05,0.18,0.18,0.18,0.18,75700,0.18
2016-04-04,0.165,0.165,0.165,0.165,000,0.165
2016-04-01,0.165,0.165,0.165,0.165,000,0.165
2016-03-31,0.165,0.165,0.165,0.165,000,0.165
2016-03-30,0.165,0.165,0.165,0.165,120000,0.165
2016-03-29,0.16,0.16,0.16,0.16,000,0.16
2016-03-28,0.16,0.16,0.16,0.16,000,0.16
2016-03-25,0.16,0.16,0.16,0.16,000,0.16
2016-03-24,0.165,0.165,0.16,0.16,14000,0.16
2016-03-23,0.18,0.18,0.18,0.18,000,0.18
2016-03-22,0.18,0.18,0.18,0.18,40000,0.18
2016-03-21,0.165,0.165,0.165,0.165,47000,0.165
2016-03-18,0.16,0.16,0.16,0.16,000,0.16
2016-03-17,0.16,0.16,0.16,0.16,000,0.16
2016-03-16,0.16,0.16,0.16,0.16,000,0.16
2016-03-15,0.16,0.16,0.16,0.16,208000,0.16
2016-03-14,0.16,0.16,0.16,0.16,55000,0.16
2016-03-11,0.16,0.16,0.16,0.16,000,0.16
2016-03-10,0.16,0.16,0.16,0.16,500000,0.16
2016-03-09,0.165,0.165,0.16,0.16,1153300,0.16
2016-03-08,0.16,0.165,0.16,0.165,1960000,0.165
2016-03-07,0.15,0.15,0.15,0.15,5800,0.15
2016-03-04,0.155,0.16,0.155,0.155,47600,0.155
2016-03-03,0.15,0.15,0.15,0.15,14400,0.15
2016-03-02,0.15,0.15,0.15,0.15,43500,0.15
2016-03-01,0.155,0.155,0.155,0.155,5000,0.155
2016-02-29,0.155,0.155,0.155,0.155,000,0.155
2016-02-26,0.155,0.155,0.155,0.155,104800,0.155
2016-02-25,0.155,0.155,0.155,0.155,000,0.155
2016-02-24,0.17,0.17,0.155,0.155,15000,0.155
2016-02-23,0.18,0.18,0.18,0.18,000,0.18
2016-02-22,0.18,0.18,0.18,0.18,5000,0.18
2016-02-19,0.16,0.16,0.16,0.16,20000,0.16
2016-02-18,0.175,0.175,0.155,0.16,80100,0.16
2016-02-17,0.185,0.185,0.18,0.18,111500,0.18
2016-02-16,0.185,0.185,0.185,0.185,5000,0.185
2016-02-15,0.185,0.185,0.185,0.185,17900,0.185
2016-02-12,0.185,0.185,0.185,0.185,000,0.185
2016-02-11,0.19,0.19,0.185,0.185,8400,0.185
2016-02-10,0.185,0.185,0.185,0.185,000,0.185
2016-02-09,0.185,0.185,0.185,0.185,000,0.185
2016-02-08,0.185,0.185,0.185,0.185,000,0.185
2016-02-05,0.185,0.185,0.185,0.185,000,0.185
2016-02-04,0.185,0.185,0.185,0.185,7500,0.185
2016-02-03,0.19,0.19,0.185,0.185,18000,0.185
2016-02-02,0.19,0.19,0.19,0.19,7000,0.19
2016-02-01,0.20,0.20,0.20,0.20,50000,0.20
2016-01-29,0.20,0.20,0.19,0.19,22000,0.19
2016-01-28,0.20,0.20,0.20,0.20,000,0.20
2016-01-27,0.20,0.20,0.20,0.20,63000,0.20
2016-01-26,0.20,0.20,0.20,0.20,000,0.20
2016-01-25,0.20,0.20,0.20,0.20,1000,0.20
2016-01-22,0.20,0.21,0.20,0.21,168600,0.21
2016-01-21,0.20,0.20,0.20,0.20,17000,0.20
2016-01-20,0.21,0.21,0.21,0.21,000,0.21
2016-01-19,0.21,0.21,0.21,0.21,20000,0.21
2016-01-18,0.21,0.21,0.21,0.21,000,0.21
2016-01-15,0.21,0.21,0.21,0.21,000,0.21
2016-01-14,0.21,0.21,0.21,0.21,000,0.21
2016-01-13,0.21,0.21,0.21,0.21,4200,0.21
2016-01-12,0.21,0.21,0.21,0.21,000,0.21
2016-01-11,0.21,0.21,0.21,0.21,000,0.21
2016-01-08,0.21,0.21,0.21,0.21,000,0.21
2016-01-07,0.21,0.21,0.21,0.21,000,0.21
2016-01-06,0.21,0.21,0.21,0.21,000,0.21
2016-01-05,0.21,0.21,0.21,0.21,000,0.21
2016-01-04,0.21,0.21,0.21,0.21,1200,0.21
2016-01-01,0.21,0.21,0.21,0.21,000,0.21
2015-12-31,0.21,0.21,0.21,0.21,000,0.21
2015-12-30,0.21,0.21,0.21,0.21,000,0.21
2015-12-29,0.22,0.22,0.21,0.21,56600,0.21
2015-12-28,0.22,0.22,0.22,0.22,000,0.22
2015-12-25,0.22,0.22,0.22,0.22,000,0.22
2015-12-24,0.22,0.22,0.22,0.22,000,0.22
2015-12-23,0.22,0.22,0.22,0.22,25300,0.22
2015-12-22,0.22,0.22,0.22,0.22,49300,0.22
2015-12-21,0.22,0.22,0.22,0.22,000,0.22
2015-12-18,0.22,0.22,0.22,0.22,000,0.22
2015-12-17,0.22,0.22,0.22,0.22,000,0.22
2015-12-16,0.22,0.22,0.22,0.22,000,0.22
2015-12-15,0.22,0.22,0.22,0.22,13000,0.22
2015-12-14,0.23,0.255,0.23,0.255,75000,0.255
2015-12-11,0.22,0.22,0.22,0.22,10000,0.22
2015-12-10,0.22,0.22,0.22,0.22,28000,0.22
2015-12-09,0.205,0.22,0.205,0.22,27400,0.22
2015-12-08,0.23,0.23,0.205,0.205,64600,0.205
2015-12-07,0.235,0.235,0.235,0.235,000,0.235
2015-12-04,0.235,0.235,0.235,0.235,000,0.235
2015-12-03,0.235,0.235,0.235,0.235,000,0.235
2015-12-02,0.235,0.235,0.235,0.235,41000,0.235
2015-12-01,0.235,0.245,0.235,0.245,14100,0.245
2015-11-30,0.235,0.235,0.235,0.235,5000,0.235
2015-11-27,0.23,0.23,0.23,0.23,000,0.23
2015-11-26,0.23,0.23,0.23,0.23,000,0.23
2015-11-25,0.235,0.235,0.23,0.23,20000,0.23
2015-11-24,0.235,0.235,0.235,0.235,000,0.235
2015-11-23,0.235,0.235,0.235,0.235,000,0.235
2015-11-20,0.235,0.235,0.235,0.235,000,0.235
2015-11-19,0.24,0.24,0.235,0.235,32000,0.235
2015-11-18,0.24,0.24,0.24,0.24,000,0.24
2015-11-17,0.24,0.24,0.24,0.24,000,0.24
2015-11-16,0.24,0.24,0.24,0.24,000,0.24
2015-11-13,0.24,0.24,0.24,0.24,000,0.24
2015-11-12,0.24,0.245,0.24,0.24,24600,0.24
2015-11-11,0.245,0.245,0.245,0.245,000,0.245
2015-11-10,0.245,0.245,0.245,0.245,000,0.245
2015-11-09,0.245,0.245,0.245,0.245,000,0.245
2015-11-06,0.245,0.245,0.245,0.245,2000,0.245
2015-11-05,0.245,0.245,0.245,0.245,55000,0.245
2015-11-04,0.24,0.24,0.24,0.24,12600,0.24
2015-11-03,0.235,0.235,0.235,0.235,000,0.235
2015-11-02,0.235,0.235,0.235,0.235,13900,0.235
2015-10-30,0.23,0.24,0.23,0.24,82200,0.24
2015-10-29,0.23,0.24,0.23,0.23,20700,0.23
2015-10-28,0.235,0.24,0.22,0.22,37300,0.22
2015-10-27,0.22,0.22,0.22,0.22,11200,0.22
2015-10-26,0.22,0.22,0.22,0.22,44900,0.22
2015-10-23,0.24,0.24,0.22,0.22,18700,0.22
2015-10-22,0.24,0.24,0.23,0.24,29100,0.24
2015-10-21,0.20,0.20,0.20,0.20,2800,0.20
2015-10-20,0.20,0.20,0.20,0.20,20000,0.20
2015-10-19,0.24,0.24,0.20,0.20,47900,0.20
2015-10-16,0.23,0.24,0.23,0.24,7200,0.24
2015-10-15,0.21,0.21,0.21,0.21,25100,0.21
2015-10-14,0.23,0.23,0.23,0.23,30000,0.23
2015-10-13,0.23,0.23,0.23,0.23,000,0.23
2015-10-12,0.23,0.23,0.23,0.23,000,0.23
2015-10-09,0.23,0.23,0.23,0.23,40000,0.23
2015-10-08,0.21,0.21,0.21,0.21,20000,0.21
2015-10-07,0.21,0.21,0.18,0.21,114200,0.21
2015-10-06,0.19,0.19,0.19,0.19,000,0.19
2015-10-05,0.21,0.21,0.19,0.19,100000,0.19
2015-10-02,0.20,0.20,0.20,0.20,000,0.20
2015-10-01,0.21,0.21,0.20,0.20,18700,0.20
2015-09-30,0.245,0.245,0.21,0.21,60000,0.21
2015-09-29,0.245,0.245,0.245,0.245,5000,0.245
2015-09-28,0.24,0.24,0.24,0.24,5500,0.24
2015-09-25,0.235,0.235,0.235,0.235,756800,0.235
2015-09-24,0.24,0.24,0.24,0.24,59000,0.24
2015-09-23,0.24,0.24,0.24,0.24,000,0.24
2015-09-22,0.24,0.24,0.24,0.24,15500,0.24
2015-09-21,0.23,0.23,0.23,0.23,24000,0.23
2015-09-18,0.22,0.22,0.22,0.22,000,0.22
2015-09-17,0.21,0.22,0.21,0.22,44700,0.22
2015-09-16,0.20,0.21,0.20,0.21,125000,0.21
2015-09-15,0.20,0.20,0.20,0.20,38700,0.20
2015-09-14,0.21,0.21,0.20,0.205,106000,0.205
2015-09-11,0.24,0.24,0.235,0.235,2092300,0.235
2015-09-10,0.24,0.24,0.24,0.24,6700,0.24
2015-09-09,0.25,0.25,0.24,0.24,14200,0.24
2015-09-08,0.23,0.24,0.23,0.24,24100,0.24
2015-09-07,0.21,0.23,0.21,0.23,103400,0.23
2015-09-04,0.20,0.20,0.20,0.20,000,0.20
2015-09-03,0.20,0.20,0.20,0.20,000,0.20
2015-09-02,0.195,0.20,0.195,0.20,53200,0.20
2015-09-01,0.205,0.205,0.205,0.205,2700,0.205
2015-08-31,0.20,0.22,0.20,0.22,77900,0.22
2015-08-28,0.21,0.22,0.19,0.19,235200,0.19
2015-08-27,0.20,0.21,0.20,0.21,122900,0.21
2015-08-26,0.17,0.17,0.17,0.17,50000,0.17
2015-08-25,0.185,0.185,0.18,0.18,41700,0.18
2015-08-24,0.20,0.20,0.18,0.19,125100,0.19
2015-08-21,0.20,0.20,0.20,0.20,50000,0.20
2015-08-20,0.19,0.19,0.19,0.19,61400,0.19
2015-08-19,0.18,0.22,0.18,0.195,266600,0.195
2015-08-18,0.17,0.18,0.17,0.18,11500,0.18
2015-08-17,0.18,0.18,0.18,0.18,4700,0.18
2015-08-14,0.195,0.195,0.18,0.18,99800,0.18
2015-08-13,0.18,0.20,0.18,0.20,36700,0.20
2015-08-12,0.19,0.19,0.19,0.19,12400,0.19
2015-08-11,0.18,0.18,0.18,0.18,000,0.18
2015-08-10,0.175,0.18,0.17,0.18,13100,0.18
2015-08-07,0.175,0.175,0.175,0.175,167400,0.175
2015-08-06,0.175,0.175,0.175,0.175,000,0.175
2015-08-05,0.17,0.175,0.17,0.175,56200,0.175
2015-08-04,0.175,0.175,0.175,0.175,000,0.175
2015-08-03,0.175,0.175,0.175,0.175,15000,0.175
2015-07-31,0.185,0.185,0.185,0.185,2800,0.185
2015-07-30,0.17,0.18,0.17,0.18,76000,0.18
2015-07-29,0.18,0.185,0.17,0.17,49500,0.17
2015-07-28,0.17,0.17,0.17,0.17,152200,0.17
2015-07-27,0.16,0.16,0.16,0.16,85400,0.16
2015-07-24,0.17,0.17,0.16,0.16,23000,0.16
2015-07-23,0.17,0.17,0.165,0.17,171500,0.17
2015-07-22,0.17,0.17,0.17,0.17,10000,0.17
2015-07-21,0.18,0.18,0.18,0.18,2700,0.18
2015-07-20,0.18,0.18,0.18,0.18,20000,0.18
2015-07-17,0.18,0.18,0.17,0.17,30300,0.17
2015-07-16,0.17,0.17,0.17,0.17,8500,0.17
2015-07-15,0.17,0.18,0.17,0.18,100700,0.18
2015-07-14,0.175,0.18,0.17,0.18,100500,0.18
2015-07-13,0.175,0.175,0.175,0.175,3000,0.175
2015-07-10,0.18,0.18,0.18,0.18,80000,0.18
2015-07-09,0.18,0.18,0.18,0.18,20000,0.18
2015-07-08,0.175,0.175,0.175,0.175,000,0.175
2015-07-07,0.18,0.185,0.175,0.175,78300,0.175
2015-07-06,0.17,0.17,0.17,0.17,000,0.17
2015-07-03,0.17,0.17,0.17,0.17,33900,0.17
2015-07-02,0.175,0.175,0.16,0.165,111700,0.165
2015-07-01,0.17,0.18,0.17,0.18,240700,0.18
2015-06-30,0.155,0.16,0.155,0.16,1346400,0.16
2015-06-29,0.175,0.175,0.15,0.15,636200,0.15
2015-06-26,0.18,0.18,0.18,0.18,53200,0.18
2015-06-25,0.17,0.17,0.17,0.17,55300,0.17
2015-06-24,0.18,0.18,0.17,0.17,16400,0.17
2015-06-23,0.17,0.17,0.16,0.17,75900,0.17
2015-06-22,0.17,0.17,0.17,0.17,4700,0.17
2015-06-19,0.17,0.17,0.17,0.17,2200,0.17
2015-06-18,0.175,0.18,0.175,0.18,371400,0.18
2015-06-17,0.19,0.19,0.175,0.175,162800,0.175
2015-06-16,0.185,0.185,0.18,0.18,343900,0.18
2015-06-15,0.185,0.185,0.18,0.185,198700,0.185
2015-06-12,0.20,0.20,0.195,0.195,50000,0.195
2015-06-11,0.185,0.20,0.185,0.20,19000,0.20
2015-06-10,0.18,0.185,0.18,0.185,33600,0.185
2015-06-09,0.19,0.19,0.19,0.19,75000,0.19
2015-06-08,0.195,0.195,0.195,0.195,000,0.195
2015-06-05,0.20,0.20,0.195,0.195,14600,0.195
2015-06-04,0.20,0.20,0.20,0.20,33000,0.20
2015-06-03,0.20,0.20,0.195,0.195,12700,0.195
2015-06-02,0.20,0.20,0.195,0.195,35800,0.195
2015-06-01,0.20,0.20,0.195,0.20,50100,0.20
2015-05-29,0.195,0.195,0.195,0.195,19000,0.195
2015-05-28,0.22,0.22,0.195,0.195,107600,0.195
2015-05-27,0.22,0.22,0.22,0.22,17300,0.22
2015-05-26,0.24,0.24,0.22,0.22,62600,0.22
2015-05-25,0.23,0.235,0.23,0.235,146000,0.235
2015-05-22,0.23,0.23,0.23,0.23,48500,0.23
2015-05-21,0.23,0.23,0.23,0.23,8100,0.23
2015-05-20,0.23,0.23,0.23,0.23,000,0.23
2015-05-19,0.23,0.23,0.23,0.23,6100,0.23
2015-05-18,0.23,0.23,0.23,0.23,24200,0.23
2015-05-15,0.24,0.24,0.23,0.23,23000,0.23
2015-05-14,0.23,0.23,0.23,0.23,80200,0.23
2015-05-13,0.23,0.235,0.23,0.23,111000,0.23
2015-05-12,0.23,0.23,0.23,0.23,270400,0.23
2015-05-11,0.23,0.23,0.23,0.23,60500,0.23
2015-05-08,0.23,0.23,0.23,0.23,2000,0.23
2015-05-07,0.235,0.235,0.235,0.235,5700,0.235
2015-05-06,0.24,0.24,0.24,0.24,30000,0.24
2015-05-05,0.23,0.23,0.23,0.23,000,0.23
2015-05-04,0.23,0.23,0.23,0.23,1200,0.23
2015-05-01,0.235,0.235,0.23,0.23,33100,0.23
2015-04-30,0.24,0.245,0.24,0.24,19000,0.24
2015-04-29,0.24,0.24,0.23,0.23,22500,0.23
2015-04-28,0.24,0.24,0.24,0.24,159700,0.24
2015-04-27,0.24,0.24,0.24,0.24,000,0.24
2015-04-24,0.24,0.24,0.24,0.24,46700,0.24
2015-04-23,0.25,0.25,0.25,0.25,000,0.25
2015-04-22,0.25,0.25,0.25,0.25,000,0.25
2015-04-21,0.25,0.25,0.25,0.25,25000,0.25
2015-04-20,0.25,0.25,0.25,0.25,2200,0.25
2015-04-17,0.22,0.23,0.22,0.23,48300,0.23
2015-04-16,0.215,0.22,0.215,0.22,20000,0.22
2015-04-15,0.24,0.24,0.24,0.24,10000,0.24
2015-04-14,0.22,0.235,0.22,0.22,48500,0.22
2015-04-13,0.24,0.24,0.22,0.22,332100,0.22
2015-04-10,0.245,0.245,0.235,0.235,9300,0.235
2015-04-09,0.245,0.245,0.245,0.245,6500,0.245
2015-04-08,0.26,0.26,0.255,0.255,48100,0.255
2015-04-07,0.27,0.27,0.27,0.27,000,0.27
2015-04-06,0.27,0.27,0.27,0.27,000,0.27
2015-04-03,0.27,0.27,0.27,0.27,000,0.27
2015-04-02,0.27,0.27,0.27,0.27,000,0.27
2015-04-01,0.27,0.27,0.27,0.27,8700,0.27
2015-03-31,0.27,0.27,0.245,0.245,15900,0.245
2015-03-30,0.27,0.27,0.27,0.27,18000,0.27
2015-03-27,0.275,0.275,0.275,0.275,000,0.275
2015-03-26,0.275,0.275,0.275,0.275,000,0.275
2015-03-25,0.26,0.275,0.26,0.275,36200,0.275
2015-03-24,0.25,0.27,0.25,0.27,155300,0.27
2015-03-23,0.24,0.25,0.23,0.25,73300,0.25
2015-03-20,0.245,0.245,0.245,0.245,000,0.245
2015-03-19,0.245,0.245,0.245,0.245,000,0.245
2015-03-18,0.25,0.25,0.245,0.245,60000,0.245
2015-03-17,0.245,0.245,0.245,0.245,000,0.245
2015-03-16,0.245,0.245,0.245,0.245,5100,0.245
2015-03-13,0.245,0.245,0.245,0.245,000,0.245
2015-03-12,0.295,0.295,0.245,0.245,33000,0.245
2015-03-11,0.285,0.285,0.285,0.285,000,0.285
2015-03-10,0.24,0.285,0.24,0.285,22900,0.271
2015-03-09,0.245,0.245,0.245,0.245,29000,0.233
2015-03-06,0.23,0.23,0.23,0.23,5000,0.218
2015-03-05,0.245,0.245,0.245,0.245,14000,0.233
2015-03-04,0.285,0.285,0.26,0.26,14400,0.247
2015-03-03,0.30,0.30,0.285,0.285,11100,0.271
2015-03-02,0.33,0.33,0.31,0.31,62700,0.294
2015-02-27,0.34,0.345,0.34,0.345,48800,0.328
2015-02-26,0.32,0.32,0.32,0.32,000,0.304
2015-02-25,0.32,0.32,0.32,0.32,000,0.304
2015-02-24,0.32,0.32,0.32,0.32,000,0.304
2015-02-23,0.32,0.32,0.32,0.32,13200,0.304
2015-02-20,0.325,0.325,0.325,0.325,1031700,0.309
2015-02-19,0.31,0.31,0.31,0.31,20000,0.294
2015-02-18,0.29,0.30,0.29,0.30,43700,0.285
2015-02-17,0.275,0.29,0.275,0.29,32300,0.275
2015-02-16,0.255,0.275,0.255,0.275,155000,0.261
2015-02-13,0.26,0.275,0.26,0.275,30500,0.261
2015-02-12,0.25,0.275,0.25,0.275,8100,0.261
2015-02-11,0.25,0.25,0.25,0.25,000,0.237
2015-02-10,0.25,0.25,0.25,0.25,14100,0.237
2015-02-09,0.25,0.25,0.25,0.25,10000,0.237
2015-02-06,0.23,0.23,0.23,0.23,12000,0.218
2015-02-05,0.22,0.225,0.22,0.22,106300,0.209
2015-02-04,0.23,0.23,0.22,0.23,650600,0.218
2015-02-03,0.23,0.23,0.23,0.23,64200,0.218
2015-02-02,0.225,0.225,0.225,0.225,381100,0.214
2015-01-30,0.23,0.245,0.23,0.24,672900,0.228
2015-01-29,0.24,0.24,0.24,0.24,12500,0.228
2015-01-28,0.225,0.24,0.225,0.24,135700,0.228
2015-01-27,0.225,0.23,0.225,0.23,55600,0.218
2015-01-26,0.225,0.225,0.225,0.225,000,0.214
2015-01-23,0.23,0.23,0.225,0.225,72800,0.214
2015-01-22,0.23,0.23,0.23,0.23,133500,0.218
2015-01-21,0.235,0.235,0.23,0.235,254300,0.223
2015-01-20,0.235,0.235,0.235,0.235,29100,0.223
2015-01-19,0.24,0.24,0.24,0.24,26500,0.228
2015-01-16,0.24,0.24,0.24,0.24,33400,0.228
2015-01-15,0.23,0.25,0.225,0.25,38900,0.237
2015-01-14,0.25,0.25,0.24,0.24,176400,0.228
2015-01-13,0.255,0.26,0.25,0.25,46000,0.237
2015-01-12,0.26,0.26,0.255,0.255,73700,0.242
2015-01-09,0.26,0.26,0.26,0.26,000,0.247
2015-01-08,0.26,0.26,0.26,0.26,000,0.247
2015-01-07,0.26,0.26,0.26,0.26,589400,0.247
2015-01-06,0.26,0.26,0.26,0.26,10100,0.247
2015-01-05,0.27,0.27,0.26,0.26,3300,0.247
2015-01-02,0.27,0.27,0.27,0.27,5400,0.256
2015-01-01,0.26,0.26,0.26,0.26,000,0.247
2014-12-31,0.26,0.26,0.26,0.26,700,0.247
2014-12-30,0.26,0.26,0.26,0.26,000,0.247
2014-12-29,0.25,0.26,0.25,0.26,408300,0.247
2014-12-26,0.24,0.24,0.24,0.24,000,0.228
2014-12-25,0.24,0.24,0.24,0.24,000,0.228
2014-12-24,0.25,0.265,0.24,0.24,58800,0.228
2014-12-23,0.265,0.265,0.265,0.265,20000,0.252
2014-12-22,0.27,0.27,0.265,0.265,70000,0.252
2014-12-19,0.265,0.265,0.26,0.26,13000,0.247
2014-12-18,0.25,0.26,0.25,0.26,122000,0.247
2014-12-17,0.25,0.25,0.245,0.245,9000,0.233
2014-12-16,0.245,0.245,0.245,0.245,24700,0.233
2014-12-15,0.24,0.24,0.24,0.24,000,0.228
2014-12-12,0.245,0.245,0.24,0.24,10000,0.228
2014-12-11,0.24,0.24,0.24,0.24,6700,0.228
2014-12-10,0.245,0.25,0.24,0.24,9576300,0.228
2014-12-09,0.24,0.26,0.24,0.245,53900,0.233
2014-12-08,0.25,0.26,0.25,0.26,208700,0.247
2014-12-05,0.24,0.245,0.24,0.245,52800,0.233
2014-12-04,0.25,0.25,0.25,0.25,205700,0.237
2014-12-03,0.25,0.25,0.25,0.25,2000,0.237
2014-12-02,0.26,0.295,0.25,0.295,257600,0.28
2014-12-01,0.28,0.28,0.25,0.265,421200,0.252
2014-11-28,0.28,0.29,0.28,0.29,17400,0.275
2014-11-27,0.29,0.29,0.28,0.28,112200,0.266
2014-11-26,0.29,0.29,0.29,0.29,9100,0.275
2014-11-25,0.28,0.295,0.28,0.295,52400,0.28
2014-11-24,0.30,0.31,0.295,0.295,163300,0.28
2014-11-21,0.32,0.32,0.30,0.30,618600,0.285
2014-11-20,0.35,0.35,0.35,0.35,000,0.332
2014-11-19,0.365,0.37,0.34,0.35,44200,0.332
2014-11-18,0.38,0.38,0.365,0.365,55300,0.347
2014-11-17,0.39,0.39,0.38,0.38,16000,0.361
2014-11-14,0.38,0.38,0.38,0.38,000,0.361
2014-11-13,0.38,0.38,0.38,0.38,30000,0.361
2014-11-12,0.42,0.42,0.40,0.40,58900,0.38
2014-11-11,0.45,0.45,0.43,0.43,452700,0.408
2014-11-10,0.46,0.46,0.45,0.45,67800,0.427
2014-11-07,0.45,0.46,0.45,0.46,10700,0.437
2014-11-06,0.50,0.50,0.50,0.50,000,0.475
2014-11-05,0.505,0.505,0.50,0.50,80800,0.475
2014-11-04,0.535,0.535,0.50,0.505,65400,0.48
2014-11-03,0.535,0.535,0.535,0.535,10000,0.508
2014-10-31,0.535,0.535,0.535,0.535,000,0.508
2014-10-30,0.535,0.535,0.535,0.535,10000,0.508
2014-10-29,0.53,0.53,0.53,0.53,000,0.503
2014-10-28,0.53,0.53,0.53,0.53,3000,0.503
2014-10-27,0.53,0.535,0.53,0.535,9400,0.508
2014-10-24,0.51,0.51,0.51,0.51,000,0.484
2014-10-23,0.52,0.52,0.51,0.51,20000,0.484
2014-10-22,0.53,0.53,0.52,0.52,5200,0.494
2014-10-21,0.535,0.535,0.535,0.535,000,0.508
2014-10-20,0.535,0.535,0.535,0.535,000,0.508
2014-10-17,0.535,0.535,0.535,0.535,000,0.508
2014-10-16,0.535,0.535,0.535,0.535,000,0.508
2014-10-15,0.535,0.535,0.535,0.535,31400,0.508
2014-10-14,0.535,0.535,0.53,0.535,51300,0.508
2014-10-13,0.57,0.57,0.565,0.565,20000,0.537
2014-10-10,0.61,0.62,0.58,0.58,22400,0.551
2014-10-09,0.565,0.60,0.565,0.60,30300,0.57
2014-10-08,0.52,0.52,0.52,0.52,8300,0.494
2014-10-07,0.55,0.55,0.52,0.52,17100,0.494
2014-10-06,0.60,0.60,0.58,0.58,23500,0.551
2014-10-03,0.625,0.625,0.62,0.62,70000,0.589
2014-10-02,0.64,0.65,0.64,0.64,15500,0.608
2014-10-01,0.67,0.67,0.64,0.64,18700,0.608
2014-09-30,0.65,0.67,0.63,0.65,90000,0.617
2014-09-29,0.655,0.66,0.655,0.66,40000,0.627
2014-09-26,0.625,0.625,0.625,0.625,6200,0.594
2014-09-25,0.66,0.66,0.66,0.66,52700,0.627
2014-09-24,0.63,0.63,0.63,0.63,11000,0.598
2014-09-23,0.645,0.66,0.645,0.645,33000,0.594
2014-09-22,0.66,0.66,0.63,0.63,13000,0.58
2014-09-19,0.66,0.66,0.66,0.66,21000,0.607
2014-09-18,0.66,0.66,0.65,0.65,77000,0.598
2014-09-17,0.67,0.675,0.65,0.675,31100,0.621
2014-09-16,0.665,0.665,0.665,0.665,10000,0.612
2014-09-15,0.665,0.665,0.665,0.665,000,0.612
2014-09-12,0.645,0.675,0.64,0.665,616900,0.612
2014-09-11,0.63,0.65,0.63,0.635,87700,0.584
2014-09-10,0.60,0.62,0.60,0.62,112500,0.571
2014-09-09,0.58,0.60,0.57,0.59,29500,0.543
2014-09-08,0.575,0.595,0.575,0.595,80500,0.548
2014-09-05,0.575,0.575,0.575,0.575,14300,0.529
2014-09-04,0.57,0.575,0.57,0.575,7700,0.529
2014-09-03,0.535,0.56,0.53,0.56,73200,0.515
2014-09-02,0.54,0.54,0.53,0.53,42800,0.488
2014-09-01,0.52,0.54,0.52,0.54,105900,0.497
2014-08-29,0.53,0.53,0.52,0.53,4116200,0.488
2014-08-28,0.515,0.55,0.515,0.54,51800,0.497
2014-08-27,0.50,0.50,0.50,0.50,40000,0.46
2014-08-26,0.505,0.51,0.48,0.50,195800,0.46
2014-08-25,0.53,0.535,0.515,0.52,346100,0.479
2014-08-22,0.53,0.57,0.525,0.525,79000,0.483
2014-08-21,0.53,0.53,0.53,0.53,17000,0.488
2014-08-20,0.535,0.535,0.525,0.525,3400,0.483
2014-08-19,0.53,0.54,0.53,0.535,9500,0.492
2014-08-18,0.54,0.54,0.52,0.53,135600,0.488
2014-08-15,0.545,0.56,0.545,0.56,56200,0.515
2014-08-14,0.56,0.56,0.55,0.55,52400,0.506
2014-08-13,0.52,0.56,0.52,0.56,390000,0.515
2014-08-12,0.50,0.50,0.50,0.50,12300,0.46
2014-08-11,0.49,0.50,0.48,0.48,35200,0.442
2014-08-08,0.49,0.49,0.48,0.48,26000,0.442
2014-08-07,0.48,0.48,0.48,0.48,24300,0.442
2014-08-06,0.45,0.48,0.45,0.48,131400,0.442
2014-08-05,0.48,0.48,0.46,0.46,84400,0.423
2014-08-04,0.437,0.48,0.437,0.48,899600,0.442
2014-08-01,0.43,0.437,0.42,0.437,87200,0.402
2014-07-31,0.425,0.425,0.42,0.42,19700,0.387
2014-07-30,0.43,0.43,0.43,0.43,24200,0.396
2014-07-29,0.43,0.43,0.43,0.43,15400,0.396
2014-07-28,0.44,0.44,0.435,0.435,95300,0.40
2014-07-25,0.44,0.44,0.435,0.435,136000,0.40
2014-07-24,0.44,0.44,0.44,0.44,143300,0.405
2014-07-23,0.43,0.44,0.43,0.44,35600,0.405
2014-07-22,0.43,0.43,0.43,0.43,000,0.396
2014-07-21,0.43,0.43,0.43,0.43,3700,0.396
2014-07-18,0.44,0.44,0.44,0.44,000,0.405
2014-07-17,0.43,0.44,0.43,0.44,55700,0.405
2014-07-16,0.415,0.415,0.415,0.415,2100,0.382
2014-07-15,0.44,0.44,0.44,0.44,51400,0.405
2014-07-14,0.43,0.44,0.39,0.39,51200,0.359
2014-07-11,0.44,0.44,0.415,0.415,47200,0.382
2014-07-10,0.44,0.44,0.44,0.44,000,0.405
2014-07-09,0.44,0.44,0.44,0.44,8000,0.405
2014-07-08,0.44,0.44,0.44,0.44,98000,0.405
2014-07-07,0.45,0.45,0.45,0.45,150000,0.414
2014-07-04,0.46,0.46,0.455,0.455,15300,0.419
2014-07-03,0.47,0.47,0.47,0.47,20000,0.433
2014-07-02,0.47,0.47,0.47,0.47,52200,0.433
2014-07-01,0.48,0.48,0.47,0.47,32400,0.433
2014-06-30,0.48,0.48,0.455,0.455,100200,0.419
2014-06-27,0.44,0.46,0.44,0.46,32800,0.423
2014-06-26,0.44,0.44,0.435,0.435,117600,0.40
2014-06-25,0.445,0.445,0.43,0.44,2098000,0.405
2014-06-24,0.445,0.45,0.445,0.445,17200,0.41
2014-06-23,0.42,0.46,0.42,0.45,2684500,0.414
2014-06-20,0.41,0.42,0.41,0.42,27400,0.387
2014-06-19,0.42,0.44,0.41,0.41,852800,0.377
2014-06-18,0.41,0.42,0.41,0.42,57600,0.387
2014-06-17,0.42,0.42,0.42,0.42,45100,0.387
2014-06-16,0.42,0.42,0.42,0.42,1037300,0.387
2014-06-13,0.42,0.42,0.40,0.41,108500,0.377
2014-06-12,0.40,0.42,0.40,0.42,6400,0.387
2014-06-11,0.395,0.41,0.385,0.40,1770900,0.368
2014-06-10,0.45,0.45,0.40,0.40,71600,0.368
2014-06-09,0.44,0.44,0.44,0.44,000,0.405
2014-06-06,0.445,0.445,0.44,0.44,81100,0.405
2014-06-05,0.44,0.44,0.42,0.42,21900,0.387
2014-06-04,0.43,0.43,0.42,0.42,15200,0.387
2014-06-03,0.43,0.43,0.43,0.43,5500,0.396
2014-06-02,0.43,0.45,0.43,0.45,93300,0.414
2014-05-30,0.45,0.45,0.45,0.45,10000,0.414
2014-05-29,0.45,0.45,0.45,0.45,16000,0.414
2014-05-28,0.45,0.48,0.45,0.47,41300,0.433
2014-05-27,0.46,0.46,0.45,0.45,60700,0.414
2014-05-26,0.48,0.48,0.45,0.45,22200,0.414
2014-05-23,0.48,0.48,0.48,0.48,000,0.442
2014-05-22,0.48,0.48,0.48,0.48,000,0.442
2014-05-21,0.48,0.48,0.48,0.48,000,0.442
2014-05-20,0.48,0.48,0.44,0.48,96900,0.442
2014-05-19,0.49,0.49,0.49,0.49,10000,0.451
2014-05-16,0.50,0.50,0.48,0.48,64500,0.442
2014-05-15,0.48,0.48,0.48,0.48,11600,0.442
2014-05-14,0.51,0.51,0.48,0.48,30800,0.442
2014-05-13,0.51,0.51,0.51,0.51,4000,0.469
2014-05-12,0.51,0.52,0.51,0.52,93200,0.479
2014-05-09,0.51,0.51,0.51,0.51,6900,0.469
2014-05-08,0.505,0.53,0.505,0.53,12900,0.488
2014-05-07,0.50,0.53,0.50,0.51,11200,0.469
2014-05-06,0.505,0.53,0.50,0.53,38200,0.488
2014-05-05,0.54,0.54,0.54,0.54,000,0.497
2014-05-02,0.535,0.54,0.535,0.54,27500,0.497
2014-05-01,0.56,0.56,0.55,0.55,10000,0.506
2014-04-30,0.56,0.56,0.56,0.56,000,0.515
2014-04-29,0.565,0.565,0.56,0.56,32500,0.515
2014-04-28,0.58,0.58,0.58,0.58,000,0.534
2014-04-25,0.58,0.58,0.58,0.58,000,0.534
2014-04-24,0.56,0.58,0.56,0.58,20100,0.534
2014-04-23,0.57,0.57,0.57,0.57,000,0.525
2014-04-22,0.565,0.57,0.565,0.57,41700,0.525
2014-04-21,0.57,0.57,0.57,0.57,000,0.525
2014-04-18,0.57,0.57,0.57,0.57,000,0.525
2014-04-17,0.57,0.57,0.57,0.57,000,0.525
2014-04-16,0.58,0.59,0.57,0.57,22700,0.525
2014-04-15,0.58,0.58,0.58,0.58,22400,0.534
2014-04-14,0.56,0.58,0.56,0.58,23400,0.534
2014-04-11,0.565,0.565,0.56,0.565,12400,0.52
2014-04-10,0.565,0.565,0.56,0.565,31100,0.52
2014-04-09,0.57,0.60,0.55,0.55,51400,0.506
2014-04-08,0.58,0.58,0.57,0.57,32000,0.525
2014-04-07,0.58,0.58,0.57,0.58,51900,0.534
2014-04-04,0.57,0.59,0.57,0.58,79700,0.534
2014-04-03,0.55,0.555,0.55,0.555,87400,0.511
2014-04-02,0.52,0.54,0.52,0.54,23100,0.497
2014-04-01,0.52,0.52,0.50,0.50,44800,0.46
2014-03-31,0.52,0.535,0.50,0.53,32400,0.488
2014-03-28,0.535,0.535,0.535,0.535,000,0.492
2014-03-27,0.50,0.535,0.50,0.535,13000,0.492
2014-03-26,0.55,0.55,0.50,0.50,45100,0.46
2014-03-25,0.535,0.535,0.535,0.535,5000,0.492
2014-03-24,0.53,0.53,0.53,0.53,16500,0.488
2014-03-21,0.55,0.55,0.55,0.55,000,0.506
2014-03-20,0.55,0.55,0.55,0.55,35000,0.506
2014-03-19,0.57,0.58,0.57,0.57,8800,0.525
2014-03-18,0.58,0.59,0.58,0.58,45300,0.534
2014-03-17,0.58,0.58,0.58,0.58,1400,0.534
2014-03-14,0.57,0.57,0.57,0.57,12200,0.525
2014-03-13,0.56,0.57,0.545,0.57,88100,0.525
2014-03-12,0.555,0.57,0.555,0.57,3000,0.525
2014-03-11,0.58,0.58,0.58,0.58,000,0.534
2014-03-10,0.58,0.58,0.575,0.58,6700,0.534
2014-03-07,0.60,0.60,0.58,0.58,15400,0.534
2014-03-06,0.56,0.61,0.55,0.61,37800,0.548
2014-03-05,0.53,0.55,0.53,0.53,125800,0.476
2014-03-04,0.52,0.525,0.52,0.52,22400,0.467
2014-03-03,0.50,0.53,0.48,0.52,180400,0.467
2014-02-28,0.57,0.57,0.495,0.495,1379600,0.445
2014-02-27,0.58,0.58,0.58,0.58,40300,0.521
2014-02-26,0.585,0.615,0.565,0.60,81500,0.539
2014-02-25,0.63,0.65,0.60,0.65,590500,0.584
2014-02-24,0.61,0.65,0.61,0.65,36800,0.584
2014-02-21,0.63,0.63,0.585,0.60,60900,0.539
2014-02-20,0.65,0.65,0.63,0.63,14600,0.566
2014-02-19,0.64,0.65,0.64,0.65,18600,0.584
2014-02-18,0.65,0.655,0.64,0.64,25500,0.575
2014-02-17,0.65,0.65,0.65,0.65,50400,0.584
2014-02-14,0.66,0.66,0.61,0.64,13000,0.575
2014-02-13,0.63,0.66,0.61,0.66,77900,0.593
2014-02-12,0.67,0.67,0.67,0.67,1900,0.602
2014-02-11,0.665,0.67,0.63,0.67,27400,0.602
2014-02-10,0.69,0.69,0.67,0.67,71200,0.602
2014-02-07,0.68,0.69,0.675,0.69,34600,0.62
2014-02-06,0.68,0.68,0.675,0.68,33400,0.611
2014-02-05,0.68,0.68,0.68,0.68,000,0.611
2014-02-04,0.69,0.70,0.68,0.68,63300,0.611
2014-02-03,0.70,0.70,0.685,0.70,39500,0.629
2014-01-31,0.68,0.73,0.68,0.73,7700,0.656
2014-01-30,0.68,0.695,0.68,0.695,8600,0.625
2014-01-29,0.72,0.72,0.70,0.70,47300,0.629
2014-01-28,0.74,0.74,0.72,0.72,23300,0.647
2014-01-27,0.72,0.72,0.72,0.72,000,0.647
2014-01-24,0.715,0.72,0.715,0.72,8300,0.647
2014-01-23,0.71,0.71,0.71,0.71,5000,0.638
2014-01-22,0.70,0.71,0.70,0.71,1015000,0.638
2014-01-21,0.71,0.71,0.70,0.70,13700,0.629
2014-01-20,0.70,0.70,0.70,0.70,000,0.629
2014-01-17,0.71,0.71,0.70,0.70,18300,0.629
2014-01-16,0.70,0.73,0.70,0.70,39500,0.629
2014-01-15,0.70,0.735,0.70,0.735,15500,0.661
2014-01-14,0.70,0.71,0.69,0.69,99500,0.62
2014-01-13,0.69,0.765,0.69,0.69,102900,0.62
2014-01-10,0.665,0.665,0.665,0.665,000,0.598
2014-01-09,0.695,0.695,0.665,0.665,35200,0.598
2014-01-08,0.71,0.71,0.70,0.70,39100,0.629
2014-01-07,0.70,0.705,0.70,0.705,1000,0.634
2014-01-06,0.71,0.71,0.71,0.71,8900,0.638
2014-01-03,0.73,0.73,0.70,0.71,97300,0.638
2014-01-02,0.76,0.76,0.73,0.73,14700,0.656
2014-01-01,0.77,0.77,0.77,0.77,000,0.692
2013-12-31,0.77,0.77,0.77,0.77,000,0.692
2013-12-30,0.77,0.77,0.77,0.77,000,0.692
2013-12-27,0.76,0.77,0.76,0.77,12900,0.692
2013-12-26,0.76,0.76,0.76,0.76,000,0.683
2013-12-25,0.76,0.76,0.76,0.76,000,0.683
2013-12-24,0.76,0.76,0.76,0.76,000,0.683
2013-12-23,0.76,0.76,0.75,0.76,106900,0.683
2013-12-20,0.75,0.76,0.75,0.76,8300,0.683
2013-12-19,0.75,0.76,0.74,0.75,19500,0.674
2013-12-18,0.74,0.75,0.73,0.75,25800,0.674
2013-12-17,0.72,0.73,0.72,0.73,29900,0.656
2013-12-16,0.70,0.71,0.70,0.71,57100,0.638
2013-12-13,0.70,0.70,0.70,0.70,9300,0.629
2013-12-12,0.72,0.72,0.70,0.70,23300,0.629
2013-12-11,0.70,0.70,0.70,0.70,90200,0.629
2013-12-10,0.70,0.75,0.70,0.75,63200,0.674
2013-12-09,0.70,0.70,0.70,0.70,000,0.629
2013-12-06,0.70,0.70,0.70,0.70,000,0.629
2013-12-05,0.70,0.70,0.70,0.70,000,0.629
2013-12-04,0.715,0.725,0.70,0.70,83200,0.629
2013-12-03,0.75,0.75,0.70,0.70,56200,0.629
2013-12-02,0.78,0.78,0.70,0.70,43900,0.629
2013-11-29,0.75,0.75,0.75,0.75,15000,0.674
2013-11-28,0.75,0.75,0.75,0.75,56400,0.674
2013-11-27,0.70,0.75,0.70,0.75,108100,0.674
2013-11-26,0.78,0.78,0.71,0.71,101600,0.638
2013-11-25,0.84,0.86,0.80,0.80,67800,0.719
2013-11-22,0.85,0.87,0.82,0.82,20600,0.737
2013-11-21,0.87,0.87,0.85,0.85,34300,0.764
2013-11-20,0.89,0.89,0.89,0.89,66900,0.80
2013-11-19,0.88,0.88,0.88,0.88,76400,0.791
2013-11-18,0.91,0.91,0.88,0.88,39900,0.791
2013-11-15,0.95,0.96,0.90,0.90,103300,0.809
2013-11-14,0.94,0.95,0.94,0.95,12700,0.854
2013-11-13,0.95,0.95,0.95,0.95,1500,0.854
2013-11-12,0.95,0.96,0.92,0.92,150600,0.827
2013-11-11,0.93,0.93,0.93,0.93,000,0.836
2013-11-08,0.92,0.93,0.92,0.93,25200,0.836
2013-11-07,0.925,0.925,0.91,0.91,5800,0.818
2013-11-06,0.99,0.99,0.885,0.90,659300,0.809
2013-11-05,0.99,1.00,0.99,0.99,45700,0.89
2013-11-04,1.015,1.015,0.99,0.99,14600,0.89
2013-11-01,0.99,1.015,0.99,1.015,10300,0.912
2013-10-31,1.03,1.03,0.99,0.995,175700,0.894
2013-10-30,1.06,1.06,1.03,1.03,4100,0.926
2013-10-29,1.08,1.085,1.06,1.06,22900,0.953
2013-10-28,1.09,1.09,1.04,1.09,12200,0.98
2013-10-25,1.10,1.10,1.10,1.10,5000,0.989
2013-10-24,1.005,1.10,1.005,1.10,280300,0.989
2013-10-23,1.065,1.10,1.065,1.10,21200,0.989
2013-10-22,1.03,1.05,1.01,1.05,60700,0.944
2013-10-21,1.10,1.10,1.03,1.03,77500,0.926
2013-10-18,1.075,1.10,1.075,1.10,23200,0.989
2013-10-17,1.085,1.085,1.07,1.085,50500,0.975
2013-10-16,1.00,1.05,1.00,1.05,75600,0.944
2013-10-15,1.015,1.05,1.015,1.05,45100,0.944
2013-10-14,1.015,1.02,1.00,1.02,36200,0.917
2013-10-11,0.98,1.02,0.98,1.02,34600,0.917
2013-10-10,0.96,1.01,0.96,1.01,8400,0.908
2013-10-09,0.97,0.97,0.95,0.95,93900,0.854
2013-10-08,1.00,1.00,0.98,0.98,12200,0.881
2013-10-07,1.00,1.00,1.00,1.00,000,0.899
2013-10-04,1.00,1.00,1.00,1.00,18900,0.899
2013-10-03,1.00,1.02,1.00,1.02,29000,0.917
2013-10-02,1.00,1.02,1.00,1.02,23900,0.917
2013-10-01,0.97,0.97,0.97,0.97,233000,0.872
2013-09-30,1.01,1.02,0.935,0.97,203600,0.872
2013-09-27,1.035,1.035,0.99,0.99,51800,0.89
2013-09-26,1.05,1.06,1.05,1.06,480900,0.953
2013-09-25,1.085,1.085,1.085,1.085,19100,0.975
2013-09-24,1.05,1.05,1.05,1.05,14500,0.944
2013-09-23,1.095,1.095,1.03,1.04,115300,0.935
2013-09-20,1.15,1.18,1.15,1.15,105800,0.987
2013-09-19,1.10,1.12,1.10,1.12,1038300,0.962
2013-09-18,1.04,1.07,1.03,1.07,1586600,0.919
2013-09-17,0.98,1.02,0.98,1.02,27300,0.876
2013-09-16,0.98,0.99,0.975,0.975,55600,0.837
2013-09-13,1.045,1.07,0.98,0.98,147400,0.841
2013-09-12,1.03,1.07,1.03,1.05,143400,0.902
2013-09-11,0.95,1.05,0.95,1.03,119600,0.884
2013-09-10,0.95,0.96,0.95,0.95,12100,0.816
2013-09-09,0.945,0.95,0.94,0.95,14100,0.816
2013-09-06,0.98,0.98,0.95,0.95,8000,0.816
2013-09-05,0.96,0.98,0.955,0.98,79900,0.841
2013-09-04,0.91,0.975,0.91,0.91,144900,0.781
2013-09-03,0.885,0.915,0.88,0.915,80000,0.786
2013-09-02,0.87,0.885,0.87,0.88,83500,0.756
2013-08-30,0.89,0.91,0.87,0.89,16500,0.764
2013-08-29,0.90,0.93,0.90,0.915,77300,0.786
2013-08-28,0.89,0.90,0.89,0.89,68100,0.764
2013-08-27,0.90,0.90,0.89,0.895,32100,0.769
2013-08-26,0.92,0.92,0.89,0.89,17400,0.764
2013-08-23,0.87,0.92,0.87,0.92,14900,0.79
2013-08-22,0.90,0.90,0.87,0.87,16500,0.747
2013-08-21,0.90,0.92,0.90,0.92,65000,0.79
2013-08-20,0.93,0.93,0.90,0.905,48200,0.777
2013-08-19,0.97,0.97,0.92,0.92,33200,0.79
2013-08-16,0.95,0.99,0.95,0.97,20600,0.833
2013-08-15,0.94,0.95,0.93,0.95,19200,0.816
2013-08-14,0.90,0.92,0.90,0.92,11700,0.79
2013-08-13,0.89,0.94,0.89,0.90,44900,0.773
2013-08-12,0.85,0.90,0.85,0.86,116100,0.738
2013-08-09,0.78,0.825,0.78,0.82,69700,0.704
2013-08-08,0.775,0.79,0.74,0.78,39100,0.67
2013-08-07,0.73,0.77,0.73,0.76,10300,0.653
2013-08-06,0.74,0.74,0.73,0.73,13600,0.627
2013-08-05,0.725,0.74,0.72,0.74,25600,0.635
2013-08-02,0.72,0.74,0.72,0.74,6500,0.635
2013-08-01,0.70,0.74,0.70,0.72,45200,0.618
2013-07-31,0.78,0.78,0.67,0.74,73900,0.635
2013-07-30,0.71,0.78,0.71,0.78,13900,0.67
2013-07-29,0.70,0.70,0.70,0.70,8000,0.601
2013-07-26,0.69,0.70,0.69,0.70,52300,0.601
2013-07-25,0.69,0.69,0.68,0.68,37700,0.584
2013-07-24,0.685,0.685,0.67,0.675,939900,0.58
2013-07-23,0.68,0.69,0.68,0.685,46600,0.588
2013-07-22,0.66,0.70,0.66,0.67,61300,0.575
2013-07-19,0.65,0.66,0.65,0.65,113000,0.558
2013-07-18,0.63,0.70,0.625,0.68,72700,0.584
2013-07-17,0.68,0.68,0.61,0.63,390000,0.541
2013-07-16,0.68,0.695,0.68,0.68,39800,0.584
2013-07-15,0.70,0.70,0.68,0.69,51400,0.592
2013-07-12,0.685,0.70,0.68,0.69,21800,0.592
2013-07-11,0.70,0.70,0.68,0.68,222000,0.584
2013-07-10,0.70,0.70,0.695,0.695,19700,0.597
2013-07-09,0.71,0.71,0.695,0.705,33700,0.605
2013-07-08,0.71,0.73,0.705,0.71,51700,0.61
2013-07-05,0.695,0.73,0.69,0.69,40000,0.592
2013-07-04,0.70,0.72,0.69,0.69,21600,0.592
2013-07-03,0.70,0.70,0.695,0.70,4900,0.601
2013-07-02,0.70,0.70,0.70,0.70,2800,0.601
2013-07-01,0.70,0.71,0.70,0.71,13000,0.61
2013-06-28,0.71,0.72,0.70,0.70,46300,0.601
2013-06-27,0.75,0.77,0.71,0.71,80600,0.61
2013-06-26,0.75,0.76,0.715,0.725,38900,0.623
2013-06-25,0.71,0.755,0.70,0.755,86700,0.648
2013-06-24,0.71,0.72,0.71,0.72,222300,0.618
2013-06-21,0.75,0.75,0.745,0.75,39200,0.644
2013-06-20,0.71,0.735,0.71,0.735,14500,0.631
2013-06-19,0.72,0.75,0.72,0.735,40800,0.631
2013-06-18,0.68,0.74,0.68,0.74,48000,0.635
2013-06-17,0.63,0.65,0.63,0.63,29000,0.541
2013-06-14,0.62,0.62,0.62,0.62,14000,0.532
2013-06-13,0.65,0.65,0.62,0.62,31300,0.532
2013-06-12,0.69,0.69,0.65,0.65,32300,0.558
2013-06-11,0.70,0.705,0.68,0.69,29400,0.592
2013-06-10,0.70,0.70,0.70,0.70,000,0.601
2013-06-07,0.72,0.73,0.70,0.70,589700,0.601
2013-06-06,0.73,0.73,0.72,0.72,26800,0.618
2013-06-05,0.75,0.75,0.74,0.74,859600,0.635
2013-06-04,0.73,0.78,0.73,0.75,1433700,0.644
2013-06-03,0.765,0.78,0.735,0.735,36400,0.631
2013-05-31,0.80,0.805,0.76,0.78,152200,0.67
2013-05-30,0.80,0.83,0.80,0.83,16300,0.713
2013-05-29,0.815,0.815,0.78,0.79,64000,0.678
2013-05-28,0.82,0.84,0.81,0.83,28100,0.713
2013-05-27,0.795,0.80,0.78,0.80,106900,0.687
2013-05-24,0.855,0.855,0.77,0.79,57700,0.678
2013-05-23,0.865,0.87,0.86,0.86,42100,0.738
2013-05-22,0.88,0.88,0.85,0.86,152300,0.738
2013-05-21,0.92,0.92,0.82,0.88,18900,0.756
2013-05-20,1.00,1.00,0.95,0.95,14600,0.816
2013-05-17,1.00,1.00,1.00,1.00,22300,0.859
2013-05-16,1.025,1.04,1.00,1.02,78000,0.876
2013-05-15,1.01,1.11,1.00,1.025,28800,0.88
2013-05-14,1.05,1.095,1.00,1.00,2728200,0.859
2013-05-13,1.08,1.08,1.05,1.05,19200,0.902
2013-05-10,1.085,1.10,1.085,1.10,15000,0.945
2013-05-09,1.12,1.125,1.10,1.10,91700,0.945
2013-05-08,1.10,1.125,1.10,1.12,246000,0.962
2013-05-07,1.12,1.12,1.12,1.12,9100,0.962
2013-05-06,1.20,1.20,1.13,1.13,48600,0.97
2013-05-03,1.15,1.20,1.14,1.14,19500,0.979
2013-05-02,1.155,1.175,1.14,1.14,11200,0.979
2013-05-01,1.155,1.185,1.155,1.18,23400,1.013
2013-04-30,1.15,1.19,1.15,1.15,50500,0.987
2013-04-29,1.13,1.15,1.10,1.15,38800,0.987
2013-04-26,1.09,1.13,1.09,1.12,233300,0.962
2013-04-25,1.08,1.08,1.08,1.08,000,0.927
2013-04-24,1.055,1.09,1.05,1.08,271700,0.927
2013-04-23,1.09,1.09,1.055,1.06,65700,0.91
2013-04-22,1.12,1.125,1.05,1.05,67000,0.902
2013-04-19,1.13,1.13,1.11,1.13,61000,0.97
2013-04-18,1.25,1.25,1.16,1.16,64300,0.996
2013-04-17,1.25,1.25,1.25,1.25,10000,1.073
2013-04-16,1.275,1.275,1.24,1.25,46300,1.073
2013-04-15,1.38,1.38,1.31,1.31,49000,1.125
2013-04-12,1.375,1.38,1.35,1.38,24300,1.185
2013-04-11,1.375,1.38,1.36,1.36,53300,1.168
2013-04-10,1.30,1.36,1.30,1.36,35600,1.168
2013-04-09,1.305,1.305,1.285,1.30,396500,1.116
2013-04-08,1.33,1.33,1.305,1.305,8900,1.121
2013-04-05,1.35,1.37,1.33,1.33,145100,1.142
2013-04-04,1.36,1.39,1.34,1.35,49500,1.159
2013-04-03,1.405,1.405,1.355,1.36,12900,1.168
2013-04-02,1.40,1.42,1.39,1.405,15500,1.206
2013-04-01,1.38,1.38,1.38,1.38,000,1.185
2013-03-29,1.38,1.38,1.38,1.38,000,1.185
2013-03-28,1.40,1.40,1.35,1.38,122600,1.185
2013-03-27,1.40,1.40,1.35,1.40,95200,1.202
2013-03-26,1.43,1.43,1.40,1.40,872700,1.202
2013-03-25,1.49,1.50,1.40,1.45,287100,1.245
2013-03-22,1.50,1.50,1.45,1.50,45800,1.288
2013-03-21,1.44,1.50,1.44,1.50,55500,1.288
2013-03-20,1.52,1.53,1.44,1.44,149900,1.236
2013-03-19,1.58,1.58,1.53,1.54,84600,1.322
2013-03-18,1.57,1.59,1.545,1.59,25600,1.365
2013-03-15,1.55,1.595,1.50,1.595,123000,1.37
2013-03-14,1.64,1.64,1.60,1.60,3512600,1.374
2013-03-13,1.665,1.665,1.63,1.665,29200,1.43
2013-03-12,1.65,1.67,1.645,1.67,43500,1.434
2013-03-11,1.625,1.65,1.62,1.65,32200,1.417
2013-03-08,1.65,1.65,1.61,1.65,23000,1.417
2013-03-07,1.60,1.63,1.58,1.625,48200,1.367
2013-03-06,1.57,1.59,1.555,1.57,42700,1.321
2013-03-05,1.58,1.58,1.56,1.57,63600,1.321
2013-03-04,1.575,1.59,1.56,1.58,65800,1.329
2013-03-01,1.57,1.65,1.555,1.575,156200,1.325
2013-02-28,1.595,1.595,1.55,1.57,174600,1.321
2013-02-27,1.76,1.76,1.56,1.59,706700,1.338
2013-02-26,1.83,1.87,1.83,1.83,78500,1.539
2013-02-25,1.79,1.845,1.765,1.845,24900,1.552
2013-02-22,1.80,1.81,1.76,1.76,40900,1.481
2013-02-21,1.85,1.85,1.765,1.785,43300,1.502
2013-02-20,1.85,1.87,1.80,1.82,240800,1.531
2013-02-19,1.89,1.89,1.85,1.85,60300,1.556
2013-02-18,1.88,1.89,1.85,1.89,74100,1.59
2013-02-15,1.87,1.91,1.86,1.89,74200,1.59
2013-02-14,1.85,1.88,1.835,1.85,1709300,1.556
2013-02-13,1.77,1.85,1.77,1.82,136900,1.531
2013-02-12,1.75,1.78,1.75,1.76,54900,1.481
2013-02-11,1.75,1.75,1.745,1.75,32300,1.472
2013-02-08,1.77,1.77,1.73,1.745,36500,1.468
2013-02-07,1.71,1.79,1.70,1.77,399800,1.489
2013-02-06,1.65,1.71,1.63,1.68,95400,1.413
2013-02-05,1.62,1.65,1.55,1.61,108100,1.354
2013-02-04,1.675,1.705,1.62,1.62,169500,1.363
2013-02-01,1.70,1.735,1.66,1.675,294200,1.409
2013-01-31,1.76,1.76,1.66,1.70,280800,1.43
2013-01-30,1.81,1.81,1.77,1.775,201700,1.493
2013-01-29,1.86,1.86,1.83,1.84,141600,1.548
2013-01-28,1.89,1.89,1.89,1.89,000,1.59
2013-01-25,1.88,1.91,1.875,1.89,79000,1.59
2013-01-24,1.89,1.89,1.835,1.87,824100,1.573
2013-01-23,1.85,1.97,1.85,1.89,869200,1.59
2013-01-22,1.79,1.84,1.79,1.80,158300,1.514
2013-01-21,1.75,1.79,1.75,1.79,173100,1.506
2013-01-18,1.73,1.75,1.705,1.73,136900,1.455
2013-01-17,1.70,1.73,1.70,1.71,146500,1.439
2013-01-16,1.695,1.70,1.69,1.70,50100,1.43
2013-01-15,1.67,1.69,1.66,1.67,63000,1.405
2013-01-14,1.70,1.70,1.65,1.655,43200,1.392
2013-01-11,1.61,1.615,1.58,1.58,60700,1.329
2013-01-10,1.62,1.62,1.62,1.62,33000,1.363
2013-01-09,1.70,1.70,1.60,1.61,94400,1.354
2013-01-08,1.75,1.75,1.70,1.70,62000,1.43
2013-01-07,1.78,1.78,1.74,1.74,70800,1.464
2013-01-04,1.77,1.77,1.74,1.76,43100,1.481
2013-01-03,1.70,1.81,1.70,1.74,54600,1.464
2013-01-02,1.59,1.66,1.59,1.66,33400,1.396
2013-01-01,1.55,1.55,1.55,1.55,000,1.304
2012-12-31,1.50,1.55,1.50,1.55,48300,1.304
2012-12-28,1.49,1.55,1.48,1.55,4100,1.304
2012-12-27,1.48,1.48,1.48,1.48,000,1.245
2012-12-26,1.48,1.48,1.48,1.48,000,1.245
2012-12-25,1.48,1.48,1.48,1.48,000,1.245
2012-12-24,1.50,1.50,1.47,1.48,16300,1.245
2012-12-21,1.50,1.50,1.46,1.465,14100,1.232
2012-12-20,1.49,1.49,1.43,1.435,34700,1.207
2012-12-19,1.405,1.515,1.405,1.50,89700,1.262
2012-12-18,1.40,1.445,1.40,1.41,18300,1.186
2012-12-17,1.31,1.39,1.31,1.39,114600,1.169
2012-12-14,1.27,1.33,1.26,1.32,1026700,1.11
2012-12-13,1.30,1.30,1.28,1.28,117800,1.077
2012-12-12,1.31,1.31,1.30,1.30,48000,1.094
2012-12-11,1.31,1.31,1.305,1.31,53000,1.102
2012-12-10,1.30,1.35,1.28,1.35,92100,1.136
2012-12-07,1.335,1.345,1.28,1.30,158900,1.094
2012-12-06,1.345,1.35,1.29,1.35,96100,1.136
2012-12-05,1.345,1.35,1.30,1.345,43700,1.131
2012-12-04,1.335,1.35,1.30,1.345,47700,1.131
2012-12-03,1.37,1.39,1.30,1.35,106400,1.136
2012-11-30,1.40,1.40,1.30,1.39,61000,1.169
2012-11-29,1.49,1.49,1.395,1.43,388300,1.203
2012-11-28,1.62,1.62,1.48,1.52,99300,1.279
2012-11-27,1.58,1.655,1.58,1.63,24400,1.371
2012-11-26,1.59,1.59,1.59,1.59,10000,1.338
2012-11-23,1.65,1.65,1.65,1.65,22100,1.388
2012-11-22,1.65,1.65,1.56,1.65,63300,1.388
2012-11-21,1.64,1.65,1.64,1.65,35000,1.388
2012-11-20,1.69,1.69,1.61,1.66,61100,1.396
2012-11-19,1.69,1.70,1.66,1.70,31100,1.43
2012-11-16,1.68,1.70,1.68,1.70,109400,1.43
2012-11-15,1.69,1.70,1.69,1.70,12200,1.43
2012-11-14,1.675,1.69,1.675,1.69,6400,1.422
2012-11-13,1.665,1.675,1.66,1.675,234700,1.409
2012-11-12,1.705,1.705,1.675,1.675,16400,1.409
2012-11-09,1.71,1.71,1.705,1.705,10000,1.434
2012-11-08,1.675,1.72,1.675,1.705,31100,1.434
2012-11-07,1.67,1.72,1.67,1.72,16800,1.447
2012-11-06,1.67,1.68,1.66,1.67,18700,1.405
2012-11-05,1.665,1.73,1.665,1.665,9600,1.401
2012-11-02,1.73,1.75,1.665,1.665,75800,1.401
2012-11-01,1.71,1.75,1.71,1.75,13600,1.472
2012-10-31,1.74,1.75,1.67,1.75,72900,1.472
2012-10-30,1.75,1.77,1.74,1.75,34400,1.472
2012-10-29,1.70,1.76,1.70,1.75,43900,1.472
2012-10-26,1.75,1.75,1.68,1.68,35300,1.413
2012-10-25,1.80,1.80,1.75,1.75,745700,1.472
2012-10-24,1.79,1.80,1.78,1.79,21400,1.506
2012-10-23,1.77,1.79,1.70,1.79,40600,1.506
2012-10-22,1.69,1.78,1.68,1.78,64300,1.497
2012-10-19,1.69,1.70,1.61,1.69,47100,1.422
2012-10-18,1.65,1.71,1.65,1.69,48500,1.422
2012-10-17,1.61,1.66,1.60,1.60,34800,1.346
2012-10-16,1.58,1.61,1.58,1.61,10100,1.354
2012-10-15,1.65,1.65,1.60,1.60,32400,1.346
2012-10-12,1.58,1.65,1.58,1.64,16600,1.38
2012-10-11,1.59,1.59,1.58,1.58,7700,1.329
2012-10-10,1.56,1.61,1.55,1.61,56300,1.354
2012-10-09,1.60,1.60,1.56,1.57,97500,1.321
2012-10-08,1.67,1.67,1.60,1.60,39800,1.346
2012-10-05,1.65,1.67,1.65,1.67,14500,1.405
2012-10-04,1.695,1.695,1.65,1.675,11300,1.409
2012-10-03,1.70,1.70,1.63,1.695,25700,1.426
2012-10-02,1.66,1.73,1.65,1.73,105300,1.455
2012-10-01,1.62,1.66,1.60,1.66,3600,1.396
2012-09-28,1.66,1.67,1.62,1.66,17100,1.396
2012-09-27,1.60,1.67,1.60,1.67,8700,1.405
2012-09-26,1.735,1.735,1.60,1.69,72400,1.422
2012-09-25,1.75,1.75,1.75,1.75,500,1.472
2012-09-24,1.75,1.75,1.735,1.75,19500,1.472
2012-09-21,1.85,1.85,1.84,1.84,36400,1.49
2012-09-20,1.85,1.85,1.83,1.85,29100,1.498
2012-09-19,1.93,1.93,1.83,1.83,95500,1.482
2012-09-18,1.87,1.94,1.87,1.94,46500,1.571
2012-09-17,1.91,1.94,1.89,1.89,1022100,1.531
2012-09-14,1.86,1.88,1.86,1.88,33900,1.523
2012-09-13,1.93,1.93,1.87,1.88,75600,1.523
2012-09-12,1.935,1.935,1.935,1.935,000,1.567
2012-09-11,1.87,1.94,1.87,1.935,150500,1.567
2012-09-10,1.87,1.90,1.87,1.895,27000,1.535
2012-09-07,1.83,1.87,1.83,1.87,6000,1.514
2012-09-06,1.85,1.87,1.85,1.87,5200,1.514
2012-09-05,1.87,1.87,1.84,1.84,202500,1.49
2012-09-04,1.87,1.87,1.87,1.87,10000,1.514
2012-09-03,1.945,1.945,1.85,1.85,50100,1.498
2012-08-31,1.96,1.96,1.945,1.95,18800,1.579
2012-08-30,2.00,2.00,1.95,1.98,27500,1.604
2012-08-29,1.97,2.00,1.90,2.00,124000,1.62
2012-08-28,1.95,1.97,1.95,1.97,29200,1.595
2012-08-27,1.92,1.97,1.92,1.97,94300,1.595
2012-08-24,1.84,1.90,1.84,1.90,42400,1.539
2012-08-23,1.85,1.86,1.81,1.835,67500,1.486
2012-08-22,1.85,1.93,1.845,1.89,35900,1.531
2012-08-21,1.91,1.91,1.86,1.89,20200,1.531
2012-08-20,1.90,1.90,1.89,1.90,25500,1.539
2012-08-17,1.86,1.90,1.86,1.89,13500,1.531
2012-08-16,1.81,1.84,1.80,1.82,16400,1.474
2012-08-15,1.80,1.82,1.75,1.82,206500,1.474
2012-08-14,1.87,1.87,1.75,1.83,64100,1.482
2012-08-13,1.97,1.97,1.90,1.91,248000,1.547
2012-08-10,1.96,1.97,1.96,1.97,331500,1.595
2012-08-09,1.97,1.97,1.95,1.96,659000,1.587
2012-08-08,1.97,1.97,1.96,1.97,18900,1.595
2012-08-07,1.95,1.95,1.95,1.95,50100,1.579
2012-08-06,1.95,1.98,1.95,1.98,29800,1.604
2012-08-03,1.99,1.99,1.98,1.98,3900,1.604
2012-08-02,1.995,1.995,1.995,1.995,20000,1.616
2012-08-01,1.95,1.95,1.92,1.95,78700,1.579
2012-07-31,1.95,1.95,1.95,1.95,1100,1.579
2012-07-30,1.90,1.93,1.90,1.90,101200,1.539
2012-07-27,1.925,1.925,1.90,1.90,42800,1.539
2012-07-26,1.96,1.97,1.95,1.95,93700,1.579
2012-07-25,1.95,1.96,1.95,1.95,82000,1.579
2012-07-24,1.92,1.95,1.92,1.94,97900,1.571
2012-07-23,2.03,2.03,2.00,2.01,19900,1.628
2012-07-20,2.10,2.10,2.01,2.07,92400,1.676
2012-07-19,2.05,2.10,2.05,2.10,21700,1.701
2012-07-18,2.11,2.13,2.10,2.10,81100,1.701
2012-07-17,2.08,2.12,2.08,2.10,150100,1.701
2012-07-16,2.10,2.11,2.10,2.10,16000,1.701
2012-07-13,2.10,2.10,2.10,2.10,13100,1.701
2012-07-12,2.05,2.09,2.00,2.09,44100,1.693
2012-07-11,2.14,2.14,2.14,2.14,000,1.733
2012-07-10,2.14,2.19,2.13,2.14,185000,1.733
2012-07-09,2.11,2.14,2.11,2.14,25100,1.733
2012-07-06,2.20,2.20,2.19,2.19,63000,1.774
2012-07-05,2.19,2.24,2.19,2.24,52200,1.814
2012-07-04,2.12,2.23,2.12,2.23,85100,1.806
2012-07-03,2.10,2.10,2.10,2.10,000,1.701
2012-07-02,2.10,2.10,2.10,2.10,000,1.701
2012-06-29,2.04,2.15,2.03,2.10,100200,1.701
2012-06-28,2.10,2.10,2.06,2.09,15300,1.693
2012-06-27,2.06,2.09,2.00,2.03,40300,1.644
2012-06-26,2.10,2.10,2.04,2.05,30200,1.66
2012-06-25,2.13,2.15,2.11,2.11,22200,1.709
2012-06-22,2.07,2.15,2.07,2.13,22400,1.725
2012-06-21,2.13,2.13,2.08,2.10,50500,1.701
2012-06-20,2.15,2.15,2.14,2.14,432200,1.733
2012-06-19,2.12,2.12,2.10,2.12,5200,1.717
2012-06-18,2.18,2.18,2.12,2.12,19000,1.717
2012-06-15,2.20,2.20,2.11,2.11,7500,1.709
2012-06-14,2.14,2.21,2.11,2.20,22400,1.782
2012-06-13,2.13,2.25,2.13,2.25,69000,1.822
2012-06-12,2.11,2.12,2.10,2.11,586800,1.709
2012-06-11,2.11,2.11,2.11,2.11,000,1.709
2012-06-08,2.25,2.27,2.10,2.11,29700,1.709
2012-06-07,2.27,2.32,2.21,2.27,33800,1.838
2012-06-06,2.25,2.25,2.25,2.25,80000,1.822
2012-06-05,2.19,2.20,2.14,2.20,268400,1.782
2012-06-04,2.22,2.22,2.12,2.19,22900,1.774
2012-06-01,2.22,2.29,2.22,2.29,7600,1.855
2012-05-31,2.30,2.30,2.21,2.30,15900,1.863
2012-05-30,2.31,2.39,2.29,2.29,84200,1.855
2012-05-29,2.10,2.29,2.10,2.29,77700,1.855
2012-05-28,2.00,2.05,2.00,2.05,8800,1.66
2012-05-25,1.96,1.99,1.96,1.99,14800,1.612
2012-05-24,1.95,1.95,1.95,1.95,9000,1.579
2012-05-23,1.94,1.99,1.93,1.95,132600,1.579
2012-05-22,1.99,2.00,1.93,1.94,75300,1.571
2012-05-21,2.06,2.06,1.895,1.93,158200,1.563
2012-05-18,2.06,2.06,2.01,2.06,89200,1.668
2012-05-17,2.05,2.06,2.05,2.06,122000,1.668
2012-05-16,2.06,2.09,2.03,2.05,175800,1.66
2012-05-15,2.12,2.12,2.08,2.09,151400,1.693
2012-05-14,2.12,2.12,2.09,2.10,22700,1.701
2012-05-11,2.12,2.16,2.12,2.12,28900,1.717
2012-05-10,2.14,2.15,2.12,2.12,57700,1.717
2012-05-09,2.19,2.20,2.15,2.15,30000,1.741
2012-05-08,2.16,2.28,2.15,2.20,766000,1.782
2012-05-07,2.12,2.16,2.09,2.15,59500,1.741
2012-05-04,2.25,2.25,2.12,2.16,110800,1.749
2012-05-03,2.37,2.37,2.25,2.25,49100,1.822
2012-05-02,2.39,2.40,2.39,2.39,19900,1.936
2012-05-01,2.33,2.39,2.32,2.39,31400,1.936
2012-04-30,2.30,2.35,2.28,2.30,21400,1.863
2012-04-27,2.26,2.28,2.26,2.28,16300,1.847
2012-04-26,2.28,2.29,2.26,2.26,50200,1.83
2012-04-25,2.28,2.28,2.28,2.28,000,1.847
2012-04-24,2.31,2.39,2.28,2.28,32300,1.847
2012-04-23,2.36,2.39,2.34,2.35,39400,1.903
2012-04-20,2.34,2.34,2.34,2.34,26400,1.895
2012-04-19,2.38,2.38,2.36,2.36,38100,1.911
2012-04-18,2.38,2.39,2.37,2.38,101300,1.928
2012-04-17,2.29,2.39,2.28,2.38,86400,1.928
2012-04-16,2.25,2.30,2.25,2.27,44200,1.838
2012-04-13,2.29,2.31,2.25,2.31,57800,1.871
2012-04-12,2.29,2.29,2.25,2.28,41000,1.847
2012-04-11,2.31,2.31,2.27,2.27,332400,1.838
2012-04-10,2.35,2.35,2.25,2.34,170600,1.895
2012-04-09,2.35,2.35,2.35,2.35,000,1.903
2012-04-06,2.35,2.35,2.35,2.35,000,1.903
2012-04-05,2.34,2.37,2.34,2.35,29800,1.903
2012-04-04,2.40,2.40,2.33,2.37,191100,1.919
2012-04-03,2.39,2.43,2.39,2.40,3116900,1.944
2012-04-02,2.42,2.44,2.39,2.39,63400,1.936
2012-03-30,2.44,2.44,2.43,2.43,21600,1.968
2012-03-29,2.40,2.45,2.40,2.45,32400,1.984
2012-03-28,2.40,2.40,2.39,2.40,78400,1.944
2012-03-27,2.47,2.47,2.38,2.39,109600,1.936
2012-03-26,2.48,2.48,2.45,2.47,38500,2.00
2012-03-23,2.48,2.50,2.48,2.48,23600,2.008
2012-03-22,2.41,2.45,2.41,2.45,27600,1.984
2012-03-21,2.41,2.42,2.41,2.42,5500,1.96
2012-03-20,2.39,2.45,2.39,2.45,76900,1.984
2012-03-19,2.44,2.44,2.36,2.37,61400,1.919
2012-03-16,2.45,2.45,2.44,2.44,22800,1.976
2012-03-15,2.45,2.48,2.45,2.45,70100,1.984
2012-03-14,2.45,2.50,2.45,2.49,57600,2.017
2012-03-13,2.47,2.50,2.44,2.45,76800,1.984
2012-03-12,2.43,2.50,2.43,2.47,60400,2.00
2012-03-09,2.39,2.50,2.39,2.42,63700,1.96
2012-03-08,2.32,2.44,2.32,2.39,74900,1.901
2012-03-07,2.34,2.34,2.26,2.34,101900,1.861
2012-03-06,2.36,2.45,2.35,2.40,236600,1.909
2012-03-05,2.42,2.55,2.42,2.50,465800,1.988
2012-03-02,2.40,2.41,2.36,2.36,179200,1.877
2012-03-01,2.35,2.42,2.35,2.38,224700,1.893
2012-02-29,2.27,2.40,2.20,2.32,694600,1.845
2012-02-28,2.05,2.29,2.05,2.27,527600,1.805
2012-02-27,2.00,2.00,1.95,2.00,198100,1.591
2012-02-24,1.93,2.00,1.93,1.99,193700,1.583
2012-02-23,1.90,1.92,1.90,1.92,86200,1.527
2012-02-22,1.90,1.91,1.86,1.90,38000,1.511
2012-02-21,1.90,1.90,1.89,1.89,44100,1.503
2012-02-20,1.88,1.88,1.86,1.86,45200,1.479
2012-02-17,1.86,1.895,1.85,1.85,82900,1.471
2012-02-16,1.86,1.86,1.79,1.85,91100,1.471
2012-02-15,1.90,1.90,1.85,1.90,48300,1.511
2012-02-14,1.97,1.97,1.92,1.92,51600,1.527
2012-02-13,1.96,2.00,1.96,1.97,45600,1.567
2012-02-10,1.98,1.98,1.94,1.94,20900,1.543
2012-02-09,1.93,2.00,1.93,1.95,40600,1.551
2012-02-08,1.99,2.00,1.88,1.88,115500,1.495
2012-02-07,2.00,2.00,1.98,1.99,83800,1.583
2012-02-06,1.90,2.00,1.90,2.00,119500,1.591
2012-02-03,1.88,1.90,1.88,1.90,133200,1.511
2012-02-02,1.83,1.88,1.83,1.88,46200,1.495
2012-02-01,1.80,1.80,1.80,1.80,12800,1.432
2012-01-31,1.74,1.80,1.74,1.80,65000,1.432
2012-01-30,1.80,1.81,1.78,1.78,53900,1.416
2012-01-27,1.83,1.85,1.80,1.80,30400,1.432
2012-01-26,1.82,1.82,1.82,1.82,000,1.448
2012-01-25,1.80,1.83,1.80,1.82,50900,1.448
2012-01-24,1.76,1.78,1.76,1.78,86300,1.416
2012-01-23,1.72,1.76,1.72,1.76,71200,1.40
2012-01-20,1.65,1.71,1.65,1.70,176100,1.352
2012-01-19,1.64,1.65,1.63,1.65,18200,1.312
2012-01-18,1.65,1.66,1.64,1.64,61500,1.304
2012-01-17,1.67,1.68,1.66,1.66,9900,1.32
2012-01-16,1.66,1.69,1.66,1.66,70600,1.32
2012-01-13,1.68,1.69,1.68,1.68,51900,1.336
2012-01-12,1.69,1.69,1.63,1.64,30700,1.304
2012-01-11,1.69,1.69,1.69,1.69,54600,1.344
2012-01-10,1.67,1.68,1.645,1.66,73400,1.32
2012-01-09,1.69,1.69,1.65,1.65,52000,1.312
2012-01-06,1.68,1.68,1.68,1.68,19800,1.336
2012-01-05,1.70,1.70,1.68,1.68,104000,1.336
2012-01-04,1.65,1.73,1.65,1.70,122000,1.352
2012-01-03,1.60,1.62,1.58,1.58,109400,1.257
2012-01-02,1.59,1.59,1.59,1.59,000,1.265
2011-12-30,1.58,1.60,1.58,1.59,32100,1.265
2011-12-29,1.57,1.60,1.57,1.60,43000,1.273
2011-12-28,1.56,1.56,1.56,1.56,6000,1.241
2011-12-27,1.52,1.52,1.52,1.52,000,1.209
2011-12-26,1.52,1.52,1.52,1.52,000,1.209
2011-12-23,1.52,1.56,1.52,1.56,266800,1.241
2011-12-22,1.55,1.55,1.52,1.52,141000,1.209
2011-12-21,1.515,1.55,1.515,1.55,214800,1.233
2011-12-20,1.46,1.46,1.46,1.46,47000,1.161
2011-12-19,1.49,1.49,1.47,1.47,57600,1.169
2011-12-16,1.52,1.52,1.52,1.52,000,1.209
2011-12-15,1.50,1.53,1.50,1.52,69600,1.209
2011-12-14,1.47,1.475,1.47,1.475,10500,1.173
2011-12-13,1.45,1.45,1.45,1.45,000,1.153
2011-12-12,1.45,1.45,1.45,1.45,000,1.153
2011-12-09,1.45,1.45,1.45,1.45,000,1.153
2011-12-08,1.53,1.53,1.45,1.45,8300,1.153
2011-12-07,1.48,1.53,1.48,1.53,63300,1.217
2011-12-06,1.475,1.475,1.475,1.475,000,1.173
2011-12-05,1.44,1.475,1.44,1.475,44600,1.173
2011-12-02,1.44,1.44,1.44,1.44,000,1.145
2011-12-01,1.45,1.45,1.44,1.44,20500,1.145
2011-11-30,1.38,1.40,1.38,1.40,41200,1.113
2011-11-29,1.38,1.38,1.38,1.38,14000,1.098
2011-11-28,1.36,1.36,1.36,1.36,000,1.082
2011-11-25,1.36,1.36,1.36,1.36,1500,1.082
2011-11-24,1.35,1.36,1.35,1.36,313000,1.082
2011-11-23,1.345,1.345,1.345,1.345,5200,1.07
2011-11-22,1.34,1.35,1.34,1.35,125700,1.074
2011-11-21,1.35,1.35,1.35,1.35,33500,1.074
2011-11-18,1.315,1.33,1.315,1.33,80000,1.058
2011-11-17,1.37,1.37,1.34,1.34,27400,1.066
2011-11-16,1.375,1.375,1.375,1.375,37000,1.094
2011-11-14,1.375,1.375,1.37,1.37,5000,1.09
2011-11-10,1.375,1.375,1.375,1.375,15000,1.094
2011-11-09,1.375,1.375,1.37,1.375,16400,1.094
2011-11-08,1.375,1.375,1.375,1.375,300000,1.094
2011-11-07,1.375,1.375,1.375,1.375,20000,1.094
2011-11-03,1.37,1.37,1.37,1.37,800,1.09
2011-11-01,1.38,1.38,1.37,1.37,7600,1.09
2011-10-31,1.40,1.40,1.39,1.39,8000,1.106
2011-10-28,1.425,1.425,1.41,1.41,39500,1.121
2011-10-27,1.41,1.41,1.41,1.41,8000,1.121
2011-10-26,1.38,1.38,1.38,1.38,11500,1.098
2011-10-25,1.39,1.39,1.38,1.385,350300,1.102
2011-10-19,1.39,1.39,1.385,1.385,7700,1.102
2011-10-14,1.38,1.38,1.37,1.37,22400,1.09
2011-10-13,1.38,1.38,1.38,1.38,200,1.098
2011-10-12,1.39,1.40,1.39,1.40,5200,1.113
2011-10-10,1.42,1.42,1.42,1.42,700,1.129
2011-10-07,1.41,1.45,1.41,1.42,27600,1.129
2011-10-06,1.39,1.41,1.39,1.39,24700,1.106
2011-10-05,1.40,1.40,1.385,1.385,13000,1.102
2011-09-21,1.47,1.47,1.47,1.47,400,1.007
2011-09-20,1.47,1.47,1.47,1.47,400,1.007
2011-09-19,1.47,1.47,1.44,1.44,32500,0.986
2011-09-16,1.49,1.49,1.49,1.49,10000,1.02
2011-09-15,1.44,1.50,1.44,1.50,29400,1.027
2011-09-14,1.47,1.47,1.46,1.46,8400,1.00
2011-09-13,1.45,1.45,1.45,1.45,3600,0.993
2011-09-12,1.50,1.50,1.45,1.45,254200,0.993
2011-09-09,1.50,1.51,1.495,1.495,29400,1.024
2011-09-07,1.525,1.525,1.505,1.51,34000,1.034
2011-09-06,1.52,1.52,1.48,1.48,21400,1.013
2011-09-02,1.535,1.535,1.50,1.50,49500,1.027
2011-09-01,1.55,1.55,1.55,1.55,15000,1.061
2011-08-31,1.57,1.57,1.53,1.55,67500,1.061
2011-08-30,1.52,1.59,1.52,1.565,48200,1.072
2011-08-29,1.475,1.49,1.475,1.49,61100,1.02
2011-08-26,1.45,1.45,1.45,1.45,400,0.993
2011-08-25,1.42,1.45,1.42,1.45,26700,0.993
2011-08-24,1.42,1.42,1.40,1.40,88700,0.959
2011-08-23,1.35,1.42,1.35,1.40,48900,0.959
2011-08-22,1.40,1.40,1.40,1.40,20000,0.959
2011-08-19,1.39,1.39,1.39,1.39,48900,0.952
2011-08-18,1.405,1.405,1.40,1.40,44800,0.959
2011-08-17,1.36,1.40,1.36,1.39,19200,0.952
2011-08-16,1.36,1.36,1.35,1.36,32300,0.931
2011-08-11,1.35,1.35,1.35,1.35,7500,0.924
2011-08-10,1.34,1.37,1.34,1.355,138800,0.928
2011-08-08,1.39,1.39,1.39,1.39,56200,0.952
2011-08-05,1.47,1.47,1.40,1.40,60800,0.959
2011-08-04,1.49,1.52,1.49,1.52,1600,1.041
2011-08-03,1.52,1.52,1.51,1.51,45000,1.034
2011-08-02,1.55,1.55,1.53,1.55,28000,1.061
2011-08-01,1.535,1.55,1.535,1.55,3300,1.061
2011-07-29,1.48,1.585,1.465,1.585,219300,1.085
2011-07-28,1.44,1.44,1.43,1.43,17000,0.979
2011-07-27,1.40,1.40,1.40,1.40,18800,0.959
2011-07-26,1.395,1.40,1.37,1.40,61200,0.959
2011-07-25,1.405,1.405,1.37,1.40,72400,0.959
2011-07-22,1.42,1.42,1.40,1.42,12100,0.972
2011-07-21,1.44,1.44,1.44,1.44,56100,0.986
2011-07-20,1.445,1.45,1.445,1.45,8400,0.993
2011-07-18,1.45,1.45,1.45,1.45,26000,0.993
2011-07-15,1.45,1.50,1.45,1.50,18900,1.027
2011-07-14,1.46,1.46,1.45,1.45,10600,0.993
2011-07-13,1.44,1.50,1.44,1.50,12300,1.027
2011-07-12,1.46,1.46,1.40,1.40,13800,0.959
2011-07-11,1.47,1.47,1.43,1.43,42300,0.979
2011-07-08,1.52,1.53,1.52,1.53,40300,1.048
2011-07-06,1.43,1.43,1.43,1.43,7800,0.979
2011-07-04,1.44,1.45,1.44,1.45,19600,0.993
2011-07-01,1.435,1.44,1.435,1.44,8300,0.986
2011-06-30,1.43,1.44,1.42,1.42,38500,0.972
2011-06-29,1.42,1.42,1.42,1.42,5400,0.972
2011-06-28,1.43,1.43,1.40,1.40,48000,0.959
2011-06-27,1.43,1.43,1.40,1.40,79900,0.959
2011-06-24,1.42,1.44,1.42,1.44,30000,0.986
2011-06-23,1.42,1.45,1.42,1.42,49300,0.972
2011-06-22,1.425,1.425,1.42,1.42,50000,0.972
2011-06-20,1.44,1.44,1.44,1.44,141500,0.986
2011-06-17,1.48,1.48,1.415,1.43,46500,0.979
2011-06-16,1.48,1.48,1.46,1.46,56900,1.00
2011-06-15,1.485,1.485,1.48,1.48,7000,1.013
2011-06-14,1.46,1.46,1.45,1.46,18800,1.00
2011-06-10,1.43,1.43,1.40,1.43,35000,0.979
2011-06-09,1.415,1.45,1.41,1.41,51400,0.965
2011-06-08,1.415,1.415,1.41,1.41,117900,0.965
2011-06-07,1.445,1.445,1.40,1.415,96800,0.969
2011-06-06,1.42,1.445,1.42,1.445,9500,0.989
2011-06-03,1.445,1.445,1.41,1.42,28500,0.972
2011-06-02,1.42,1.44,1.42,1.44,81200,0.986
2011-06-01,1.415,1.42,1.41,1.42,27500,0.972
2011-05-31,1.44,1.44,1.415,1.415,6500,0.969
2011-05-27,1.40,1.43,1.40,1.41,46600,0.965
2011-05-26,1.40,1.43,1.40,1.43,37100,0.979
2011-05-25,1.43,1.43,1.40,1.40,40900,0.959
2011-05-20,1.40,1.45,1.40,1.40,564900,0.959
2011-05-19,1.40,1.405,1.40,1.40,142000,0.959
2011-05-18,1.42,1.42,1.40,1.40,59100,0.959
2011-05-17,1.44,1.44,1.41,1.43,42500,0.979
2011-05-16,1.46,1.48,1.46,1.46,108200,1.00
2011-05-13,1.42,1.42,1.42,1.42,10000,0.972
2011-05-12,1.41,1.42,1.41,1.42,19400,0.972
2011-05-11,1.43,1.43,1.40,1.40,15000,0.959
2011-05-10,1.45,1.45,1.40,1.40,130600,0.959
2011-05-09,1.48,1.48,1.45,1.45,57100,0.993
2011-05-06,1.50,1.50,1.50,1.50,8500,1.027
2011-05-04,1.50,1.50,1.50,1.50,1000,1.027
2011-05-03,1.52,1.52,1.50,1.50,14000,1.027
2011-04-29,1.53,1.53,1.50,1.52,362300,1.041
2011-04-28,1.57,1.57,1.54,1.54,21200,1.054
2011-04-27,1.54,1.54,1.54,1.54,15000,1.054
2011-04-21,1.51,1.535,1.50,1.52,74500,1.041
2011-04-20,1.50,1.51,1.50,1.51,35400,1.034
2011-04-19,1.57,1.57,1.57,1.57,5000,1.075
2011-04-18,1.61,1.61,1.57,1.57,28600,1.075
2011-04-15,1.60,1.60,1.60,1.60,335000,1.096
2011-04-14,1.60,1.60,1.60,1.60,13000,1.096
2011-04-13,1.64,1.65,1.60,1.60,33200,1.096
2011-04-12,1.67,1.67,1.67,1.67,24800,1.143
2011-04-11,1.62,1.67,1.62,1.67,9400,1.143
2011-04-08,1.70,1.70,1.70,1.70,11400,1.164
2011-04-07,1.60,1.70,1.60,1.70,100300,1.164
2011-04-06,1.57,1.60,1.57,1.60,96800,1.096
2011-04-05,1.55,1.62,1.55,1.585,30300,1.085
2011-04-04,1.55,1.56,1.55,1.56,4800,1.068
2011-04-01,1.59,1.59,1.58,1.58,12100,1.082
2011-03-31,1.60,1.62,1.58,1.59,49100,1.089
2011-03-30,1.58,1.62,1.58,1.60,42100,1.096
2011-03-29,1.55,1.60,1.55,1.60,131300,1.096
2011-03-28,1.55,1.55,1.51,1.52,53900,1.041
2011-03-25,1.52,1.55,1.52,1.55,34900,1.061
2011-03-24,1.50,1.50,1.50,1.50,34600,1.027
2011-03-22,1.51,1.52,1.50,1.52,67400,1.041
2011-03-21,1.50,1.56,1.465,1.56,92300,1.068
2011-03-18,1.52,1.52,1.50,1.50,44800,1.027
2011-03-17,1.53,1.53,1.53,1.53,6800,1.048
2011-03-16,1.55,1.56,1.55,1.555,94000,1.065
2011-03-15,1.60,1.60,1.56,1.56,186500,1.068
2011-03-14,1.60,1.60,1.60,1.60,231400,1.096
2011-03-11,1.575,1.60,1.575,1.60,133900,1.096
2011-03-10,1.60,1.62,1.60,1.60,273600,1.072
2011-03-09,1.605,1.605,1.60,1.60,1198500,1.072
2011-03-08,1.60,1.605,1.56,1.605,28000,1.075
2011-03-07,1.56,1.58,1.55,1.57,291400,1.052
2011-03-04,1.55,1.55,1.54,1.55,52500,1.039
2011-03-03,1.51,1.55,1.51,1.55,112500,1.039
2011-03-02,1.52,1.53,1.51,1.51,154800,1.012
2011-03-01,1.50,1.50,1.50,1.50,30900,1.005
2011-02-25,1.48,1.50,1.48,1.50,6800,1.005
2011-02-23,1.40,1.48,1.40,1.48,85300,0.992
2011-02-22,1.40,1.40,1.40,1.40,11700,0.938
2011-02-21,1.44,1.44,1.40,1.41,157800,0.945
2011-02-18,1.47,1.47,1.44,1.44,56100,0.965
2011-02-17,1.48,1.48,1.455,1.48,71500,0.992
2011-02-16,1.43,1.46,1.43,1.46,31500,0.978
2011-02-15,1.44,1.44,1.44,1.44,34400,0.965
2011-02-14,1.41,1.48,1.40,1.44,131100,0.965
2011-02-11,1.38,1.40,1.36,1.40,119100,0.938
2011-02-10,1.43,1.45,1.39,1.43,80000,0.958
2011-02-09,1.45,1.45,1.36,1.45,37700,0.972
2011-02-08,1.50,1.50,1.45,1.45,71500,0.972
2011-02-07,1.50,1.50,1.465,1.50,6900,1.005
2011-02-03,1.55,1.55,1.55,1.55,25000,1.039
2011-02-02,1.52,1.52,1.50,1.50,4900,1.005
2011-01-28,1.51,1.55,1.51,1.54,9100,1.032
2011-01-27,1.50,1.53,1.50,1.53,13400,1.025
2011-01-25,1.50,1.53,1.50,1.50,400300,1.005
2011-01-24,1.55,1.55,1.55,1.55,12500,1.039
2011-01-21,1.585,1.585,1.505,1.55,43200,1.039
2011-01-20,1.55,1.56,1.55,1.56,43300,1.045
2011-01-19,1.55,1.55,1.51,1.51,12300,1.012
2011-01-18,1.59,1.59,1.56,1.56,7000,1.045
2011-01-14,1.53,1.60,1.50,1.60,158300,1.072
2011-01-13,1.46,1.52,1.46,1.52,60400,1.018
2011-01-12,1.47,1.47,1.45,1.45,12600,0.972
2011-01-11,1.52,1.52,1.52,1.52,37000,1.018
2011-01-10,1.47,1.52,1.47,1.52,13200,1.018
2011-01-07,1.48,1.50,1.42,1.50,58400,1.005
2011-01-06,1.55,1.55,1.52,1.52,5200,1.018
2011-01-05,1.58,1.58,1.56,1.56,14500,1.045
2011-01-04,1.58,1.58,1.57,1.57,24900,1.052
2010-12-30,1.58,1.60,1.58,1.60,16800,1.072
2010-12-29,1.61,1.63,1.60,1.63,47700,1.092
2010-12-24,1.58,1.60,1.58,1.60,21900,1.072
2010-12-23,1.60,1.60,1.60,1.60,32600,1.072
2010-12-22,1.63,1.63,1.60,1.60,90500,1.072
2010-12-21,1.60,1.65,1.60,1.65,46700,1.106
2010-12-20,1.58,1.60,1.58,1.60,340400,1.072
2010-12-17,1.55,1.55,1.54,1.55,77800,1.039
2010-12-16,1.55,1.57,1.55,1.55,49300,1.039
2010-12-15,1.52,1.55,1.52,1.55,25700,1.039
2010-12-14,1.52,1.52,1.52,1.52,55200,1.018
2010-12-13,1.52,1.55,1.52,1.52,49100,1.018
2010-12-10,1.52,1.55,1.52,1.52,13800,1.018
2010-12-09,1.495,1.52,1.495,1.52,210100,1.018
2010-12-08,1.46,1.495,1.46,1.495,8600,1.002
2010-12-07,1.46,1.46,1.46,1.46,10500,0.978
2010-12-03,1.415,1.42,1.415,1.42,24900,0.951
2010-12-02,1.43,1.43,1.43,1.43,19500,0.958
2010-12-01,1.40,1.41,1.40,1.41,47300,0.945
2010-11-29,1.36,1.40,1.35,1.37,29400,0.918
2010-11-26,1.415,1.415,1.415,1.415,5000,0.948
2010-11-25,1.35,1.42,1.35,1.415,12800,0.948
2010-11-23,1.38,1.38,1.35,1.35,15000,0.905
2010-11-22,1.345,1.35,1.345,1.35,50100,0.905
2010-11-19,1.38,1.40,1.325,1.325,47300,0.888
2010-11-18,1.38,1.42,1.38,1.40,15300,0.938
2010-11-17,1.39,1.40,1.305,1.39,114000,0.931
2010-11-16,1.46,1.46,1.39,1.42,63600,0.951
2010-11-15,1.49,1.50,1.46,1.47,43700,0.985
2010-11-12,1.46,1.50,1.45,1.485,35300,0.995
2010-11-11,1.50,1.50,1.49,1.49,86800,0.998
2010-11-10,1.55,1.55,1.50,1.50,51200,1.005
2010-11-09,1.57,1.57,1.55,1.55,76800,1.039
2010-11-08,1.55,1.60,1.53,1.58,43900,1.059
2010-11-05,1.50,1.55,1.50,1.55,57400,1.039
2010-11-04,1.51,1.51,1.50,1.50,88800,1.005
2010-11-03,1.50,1.51,1.49,1.51,76800,1.012
2010-11-02,1.50,1.50,1.50,1.50,23300,1.005
2010-11-01,1.47,1.50,1.47,1.50,156600,1.005
2010-10-29,1.47,1.49,1.45,1.47,100900,0.985
2010-10-28,1.42,1.49,1.42,1.45,109700,0.972
2010-10-27,1.38,1.43,1.38,1.42,153500,0.951
2010-10-26,1.33,1.37,1.33,1.35,99500,0.905
2010-10-25,1.31,1.33,1.31,1.325,169000,0.888
2010-10-22,1.24,1.31,1.24,1.31,172100,0.878
2010-10-21,1.23,1.235,1.23,1.235,120100,0.828
2010-10-20,1.225,1.23,1.22,1.23,265800,0.824
2010-10-19,1.25,1.25,1.23,1.23,142100,0.824
2010-10-18,1.26,1.26,1.26,1.26,600,0.844
2010-10-15,1.245,1.245,1.245,1.245,132000,0.834
2010-10-14,1.245,1.245,1.245,1.245,30000,0.834
2010-10-13,1.25,1.26,1.245,1.245,139400,0.834
2010-10-12,1.265,1.265,1.25,1.25,48200,0.838
2010-10-11,1.25,1.265,1.25,1.265,20700,0.848
2010-10-08,1.245,1.25,1.245,1.25,34700,0.838
2010-10-07,1.265,1.265,1.24,1.25,141800,0.838
2010-10-06,1.25,1.265,1.24,1.265,125500,0.848
2010-10-04,1.22,1.25,1.21,1.25,246000,0.838
2010-10-01,1.23,1.23,1.21,1.22,294800,0.817
2010-09-30,1.25,1.25,1.23,1.23,30000,0.824
2010-09-29,1.25,1.25,1.25,1.25,74100,0.838
2010-09-28,1.25,1.25,1.25,1.25,53600,0.838
2010-09-27,1.25,1.25,1.23,1.25,165800,0.838
2010-09-24,1.215,1.22,1.215,1.22,118600,0.817
2010-09-22,1.21,1.22,1.21,1.21,50000,0.811
2010-09-21,1.23,1.24,1.22,1.23,136200,0.813
2010-09-20,1.23,1.23,1.23,1.23,16800,0.813
2010-09-17,1.22,1.25,1.22,1.25,88100,0.826
2010-09-16,1.27,1.27,1.22,1.22,13600,0.806
2010-09-15,1.24,1.27,1.24,1.27,69100,0.839
2010-09-14,1.20,1.22,1.20,1.22,93000,0.806
2010-09-13,1.20,1.20,1.18,1.20,330600,0.793
2010-09-10,1.18,1.19,1.18,1.19,30000,0.786
2010-09-09,1.19,1.19,1.18,1.18,80000,0.78
2010-09-08,1.15,1.19,1.15,1.19,65200,0.786
2010-09-07,1.14,1.15,1.14,1.14,89200,0.753
2010-09-06,1.14,1.14,1.14,1.14,34600,0.753
2010-09-03,1.12,1.14,1.12,1.12,174700,0.74
2010-09-02,1.10,1.12,1.10,1.11,38300,0.733
2010-09-01,1.10,1.10,1.10,1.10,31100,0.727
2010-08-31,1.12,1.12,1.10,1.11,68900,0.733
2010-08-30,1.07,1.11,1.07,1.11,100800,0.733
2010-08-27,1.11,1.135,1.10,1.10,194600,0.727
2010-08-26,1.10,1.11,1.10,1.11,28000,0.733
2010-08-25,1.10,1.10,1.06,1.06,24700,0.70
2010-08-24,1.135,1.135,1.10,1.10,65000,0.727
2010-08-23,1.15,1.15,1.15,1.15,35800,0.76
2010-08-20,1.11,1.11,1.11,1.11,25000,0.733
2010-08-19,1.12,1.12,1.12,1.12,10000,0.74
2010-08-18,1.12,1.12,1.12,1.12,137600,0.74
2010-08-17,1.11,1.12,1.10,1.10,71000,0.727
2010-08-16,1.08,1.10,1.08,1.10,22500,0.727
2010-08-13,1.09,1.10,1.09,1.10,20000,0.727
2010-08-12,1.12,1.12,1.12,1.12,7300,0.74
2010-08-11,1.12,1.12,1.11,1.12,41500,0.74
2010-08-10,1.14,1.165,1.14,1.14,307200,0.753
2010-08-09,1.10,1.15,1.10,1.14,422100,0.753
2010-08-06,1.06,1.11,1.06,1.10,131500,0.727
2010-08-05,1.08,1.08,1.075,1.075,34800,0.71
2010-08-04,1.08,1.08,1.06,1.08,288600,0.714
2010-08-03,1.07,1.08,1.05,1.08,33100,0.714
2010-08-02,1.07,1.08,1.07,1.08,73400,0.714
2010-07-30,1.06,1.07,1.06,1.06,167200,0.70
2010-07-29,1.07,1.07,1.04,1.04,149500,0.687
2010-07-28,1.05,1.05,1.05,1.05,23000,0.694
2010-07-27,1.05,1.05,1.05,1.05,2000,0.694
2010-07-26,1.00,1.04,1.00,1.04,102500,0.687
2010-07-23,1.04,1.04,1.03,1.03,73900,0.681
2010-07-21,1.05,1.05,1.05,1.05,2500,0.694
2010-07-20,1.065,1.065,1.04,1.04,166300,0.687
2010-07-19,1.07,1.10,1.07,1.07,53400,0.707
2010-07-16,1.07,1.09,1.07,1.07,273000,0.707
2010-07-15,1.07,1.07,1.05,1.05,48400,0.694
2010-07-14,1.02,1.05,1.02,1.05,117000,0.694
2010-07-13,1.01,1.02,1.01,1.02,14500,0.674
2010-07-12,1.00,1.02,1.00,1.02,182300,0.674
2010-07-09,1.00,1.01,1.00,1.00,51500,0.661
2010-07-08,0.97,1.00,0.97,1.00,209300,0.661
2010-07-07,0.97,0.97,0.97,0.97,3000,0.641
2010-07-06,0.98,0.98,0.98,0.98,8000,0.647
2010-07-05,1.00,1.00,0.965,0.98,10500,0.647
2010-07-02,1.00,1.00,1.00,1.00,25000,0.661
2010-07-01,0.97,1.00,0.95,1.00,58100,0.661
2010-06-30,0.98,0.98,0.95,0.97,93900,0.641
2010-06-29,0.96,1.00,0.96,0.98,83000,0.647
2010-06-28,0.95,0.96,0.95,0.95,53500,0.628
2010-06-25,0.95,0.955,0.925,0.925,313600,0.611
2010-06-24,0.95,0.98,0.95,0.95,75000,0.628
2010-06-23,0.98,0.98,0.98,0.98,8500,0.647
2010-06-22,0.92,0.98,0.92,0.98,67800,0.647
2010-06-21,0.93,0.95,0.93,0.94,116200,0.621
2010-06-18,0.93,0.93,0.92,0.92,70000,0.608
2010-06-17,0.94,0.94,0.94,0.94,1400,0.621
2010-06-16,0.94,0.94,0.92,0.92,32100,0.608
2010-06-15,0.90,0.94,0.90,0.94,2000,0.621
2010-06-11,0.86,0.86,0.86,0.86,55000,0.568
2010-06-10,0.85,0.90,0.85,0.86,136300,0.568
2010-06-09,0.85,0.85,0.85,0.85,14000,0.562
2010-06-08,0.88,0.88,0.87,0.87,30000,0.575
2010-06-07,0.88,0.88,0.86,0.86,694400,0.568
2010-06-04,0.94,0.94,0.90,0.90,000,0.595
2010-06-03,0.90,0.90,0.90,0.90,30500,0.595
2010-06-02,0.90,0.90,0.89,0.90,54200,0.595
2010-06-01,0.90,0.94,0.88,0.905,89800,0.598
2010-05-31,0.90,0.90,0.89,0.89,000,0.588
2010-05-28,0.95,0.95,0.95,0.95,1000,0.628
2010-05-27,0.945,0.945,0.90,0.90,113800,0.595
2010-05-26,0.945,0.945,0.90,0.90,33400,0.595
2010-05-25,0.95,0.95,0.945,0.945,55300,0.624
2010-05-24,0.95,0.95,0.95,0.95,24000,0.628
2010-05-21,0.87,0.90,0.85,0.90,31000,0.595
2010-05-20,0.92,0.95,0.90,0.95,81200,0.628
2010-05-19,0.92,0.92,0.90,0.90,97200,0.595
2010-05-18,0.96,0.97,0.96,0.96,107000,0.634
2010-05-17,1.00,1.00,0.97,0.97,28000,0.641
2010-05-14,1.015,1.02,1.00,1.00,112400,0.661
2010-05-13,1.05,1.05,1.015,1.015,46900,0.671
2010-05-12,1.07,1.07,1.03,1.03,215100,0.681
2010-05-11,1.09,1.10,1.05,1.05,726500,0.694
2010-05-10,1.12,1.12,1.07,1.07,1632600,0.707
2010-05-07,1.00,1.115,1.00,1.10,1041200,0.727
