Date,Open,High,Low,Close,Volume,Adj Close
2016-11-08,0.012,0.012,0.012,0.012,000,0.012
2016-11-07,0.012,0.012,0.012,0.012,000,0.012
2016-11-04,0.012,0.012,0.012,0.012,000,0.012
2016-11-03,0.012,0.012,0.012,0.012,000,0.012
2016-11-02,0.012,0.012,0.012,0.012,000,0.012
2016-11-01,0.012,0.012,0.012,0.012,000,0.012
2016-10-31,0.012,0.012,0.012,0.012,000,0.012
2016-10-28,0.012,0.012,0.012,0.012,000,0.012
2016-10-27,0.012,0.012,0.012,0.012,000,0.012
2016-10-26,0.012,0.012,0.012,0.012,000,0.012
2016-10-25,0.012,0.012,0.012,0.012,000,0.012
2016-10-24,0.012,0.012,0.012,0.012,000,0.012
2016-10-21,0.012,0.012,0.012,0.012,000,0.012
2016-10-20,0.012,0.012,0.012,0.012,000,0.012
2016-10-19,0.012,0.012,0.012,0.012,000,0.012
2016-10-18,0.012,0.012,0.012,0.012,000,0.012
2016-10-17,0.012,0.012,0.012,0.012,000,0.012
2016-10-14,0.012,0.012,0.012,0.012,000,0.012
2016-10-13,0.012,0.012,0.012,0.012,000,0.012
2016-10-12,0.012,0.012,0.012,0.012,000,0.012
2016-10-11,0.012,0.012,0.012,0.012,000,0.012
2016-10-10,0.012,0.012,0.012,0.012,000,0.012
2016-10-07,0.012,0.012,0.012,0.012,000,0.012
2016-10-06,0.012,0.012,0.012,0.012,000,0.012
2016-10-05,0.012,0.012,0.012,0.012,000,0.012
2016-10-04,0.012,0.012,0.012,0.012,000,0.012
2016-10-03,0.012,0.012,0.012,0.012,000,0.012
2016-09-30,0.012,0.012,0.012,0.012,000,0.012
2016-09-29,0.012,0.012,0.012,0.012,000,0.012
2016-09-28,0.012,0.012,0.012,0.012,000,0.012
2016-09-27,0.012,0.012,0.012,0.012,000,0.012
2016-09-26,0.012,0.012,0.012,0.012,000,0.012
2016-09-23,0.012,0.012,0.012,0.012,000,0.012
2016-09-22,0.012,0.012,0.012,0.012,000,0.012
2016-09-21,0.012,0.012,0.012,0.012,000,0.012
2016-09-20,0.012,0.012,0.012,0.012,000,0.012
2016-09-19,0.012,0.012,0.012,0.012,000,0.012
2016-09-16,0.012,0.012,0.012,0.012,000,0.012
2016-09-15,0.012,0.012,0.012,0.012,000,0.012
2016-09-14,0.012,0.012,0.012,0.012,000,0.012
2016-09-13,0.012,0.012,0.012,0.012,000,0.012
2016-09-12,0.012,0.012,0.012,0.012,000,0.012
2016-09-09,0.012,0.012,0.012,0.012,000,0.012
2016-09-08,0.012,0.012,0.012,0.012,000,0.012
2016-09-07,0.012,0.012,0.012,0.012,000,0.012
2016-09-06,0.012,0.012,0.012,0.012,000,0.012
2016-09-05,0.012,0.012,0.012,0.012,000,0.012
2016-09-02,0.012,0.012,0.012,0.012,000,0.012
2016-09-01,0.012,0.012,0.012,0.012,000,0.012
2016-08-31,0.012,0.012,0.012,0.012,000,0.012
2016-08-30,0.012,0.012,0.012,0.012,000,0.012
2016-08-29,0.012,0.012,0.012,0.012,000,0.012
2016-08-26,0.012,0.012,0.012,0.012,000,0.012
2016-08-25,0.012,0.012,0.012,0.012,000,0.012
2016-08-24,0.012,0.012,0.012,0.012,000,0.012
2016-08-23,0.012,0.012,0.012,0.012,000,0.012
2016-08-22,0.012,0.012,0.012,0.012,000,0.012
2016-08-19,0.012,0.012,0.012,0.012,000,0.012
2016-08-18,0.012,0.012,0.012,0.012,000,0.012
2016-08-17,0.012,0.012,0.012,0.012,000,0.012
2016-08-16,0.012,0.012,0.012,0.012,000,0.012
2016-08-15,0.012,0.012,0.012,0.012,000,0.012
2016-08-12,0.012,0.012,0.012,0.012,000,0.012
2016-08-11,0.012,0.012,0.012,0.012,000,0.012
2016-08-10,0.012,0.012,0.012,0.012,000,0.012
2016-08-09,0.012,0.012,0.012,0.012,000,0.012
2016-08-08,0.012,0.012,0.012,0.012,000,0.012
2016-08-05,0.012,0.012,0.012,0.012,000,0.012
2016-08-04,0.012,0.012,0.012,0.012,000,0.012
2016-08-03,0.012,0.012,0.012,0.012,000,0.012
2016-08-02,0.012,0.012,0.012,0.012,000,0.012
2016-08-01,0.012,0.012,0.012,0.012,000,0.012
2016-07-29,0.012,0.012,0.012,0.012,000,0.012
2016-07-28,0.012,0.012,0.012,0.012,000,0.012
2016-07-27,0.012,0.012,0.012,0.012,000,0.012
2016-07-26,0.012,0.012,0.012,0.012,000,0.012
2016-07-25,0.012,0.012,0.012,0.012,000,0.012
2016-07-22,0.012,0.012,0.012,0.012,000,0.012
2016-07-21,0.012,0.012,0.012,0.012,000,0.012
2016-07-20,0.012,0.012,0.012,0.012,000,0.012
2016-07-19,0.012,0.012,0.012,0.012,000,0.012
2016-07-18,0.012,0.012,0.012,0.012,000,0.012
2016-07-15,0.012,0.012,0.012,0.012,000,0.012
2016-07-14,0.012,0.012,0.012,0.012,000,0.012
2016-07-13,0.012,0.012,0.012,0.012,000,0.012
2016-07-12,0.012,0.012,0.012,0.012,000,0.012
2016-07-11,0.012,0.012,0.012,0.012,000,0.012
2016-07-08,0.012,0.012,0.012,0.012,000,0.012
2016-07-07,0.012,0.012,0.012,0.012,000,0.012
2016-07-06,0.012,0.012,0.012,0.012,000,0.012
2016-07-05,0.012,0.012,0.012,0.012,000,0.012
2016-07-04,0.012,0.012,0.012,0.012,000,0.012
2016-07-01,0.012,0.012,0.012,0.012,000,0.012
2016-06-30,0.012,0.012,0.012,0.012,000,0.012
2016-06-29,0.012,0.012,0.012,0.012,000,0.012
2016-06-28,0.012,0.012,0.012,0.012,000,0.012
2016-06-27,0.012,0.012,0.012,0.012,000,0.012
2016-06-24,0.012,0.012,0.012,0.012,000,0.012
2016-06-23,0.012,0.012,0.012,0.012,000,0.012
2016-06-22,0.012,0.012,0.012,0.012,000,0.012
2016-06-21,0.012,0.012,0.012,0.012,000,0.012
2016-06-20,0.012,0.012,0.012,0.012,000,0.012
2016-06-17,0.012,0.012,0.012,0.012,000,0.012
2016-06-16,0.012,0.012,0.012,0.012,000,0.012
2016-06-15,0.012,0.012,0.012,0.012,000,0.012
2016-06-14,0.012,0.012,0.012,0.012,000,0.012
2016-06-13,0.012,0.012,0.012,0.012,000,0.012
2016-06-10,0.012,0.012,0.012,0.012,000,0.012
2016-06-09,0.012,0.012,0.012,0.012,000,0.012
2016-06-08,0.012,0.012,0.012,0.012,000,0.012
2016-06-07,0.012,0.012,0.012,0.012,000,0.012
2016-06-06,0.012,0.012,0.012,0.012,000,0.012
2016-06-03,0.012,0.012,0.012,0.012,000,0.012
2016-06-02,0.012,0.012,0.012,0.012,000,0.012
2016-06-01,0.012,0.012,0.012,0.012,000,0.012
2016-05-31,0.012,0.012,0.012,0.012,000,0.012
2016-05-30,0.012,0.012,0.012,0.012,000,0.012
2016-05-27,0.012,0.012,0.012,0.012,000,0.012
2016-05-26,0.012,0.012,0.012,0.012,000,0.012
2016-05-25,0.012,0.012,0.012,0.012,000,0.012
2016-05-24,0.012,0.012,0.012,0.012,000,0.012
2016-05-23,0.012,0.012,0.012,0.012,000,0.012
2016-05-20,0.012,0.012,0.012,0.012,000,0.012
2016-05-19,0.012,0.012,0.012,0.012,000,0.012
2016-05-18,0.012,0.012,0.012,0.012,000,0.012
2016-05-17,0.012,0.012,0.012,0.012,000,0.012
2016-05-16,0.012,0.012,0.012,0.012,000,0.012
2016-05-13,0.012,0.012,0.012,0.012,000,0.012
2016-05-12,0.012,0.012,0.012,0.012,000,0.012
2016-05-11,0.012,0.012,0.012,0.012,000,0.012
2016-05-10,0.012,0.012,0.012,0.012,000,0.012
2016-05-09,0.012,0.012,0.012,0.012,000,0.012
2016-05-06,0.012,0.012,0.012,0.012,000,0.012
2016-05-05,0.012,0.012,0.012,0.012,000,0.012
2016-05-04,0.012,0.012,0.012,0.012,000,0.012
2016-05-03,0.012,0.012,0.012,0.012,000,0.012
2016-05-02,0.012,0.012,0.012,0.012,000,0.012
2016-04-29,0.012,0.012,0.012,0.012,000,0.012
2016-04-28,0.012,0.012,0.012,0.012,000,0.012
2016-04-27,0.012,0.012,0.012,0.012,000,0.012
2016-04-26,0.012,0.012,0.012,0.012,000,0.012
2016-04-25,0.012,0.012,0.012,0.012,000,0.012
2016-04-22,0.012,0.012,0.012,0.012,000,0.012
2016-04-21,0.012,0.012,0.012,0.012,000,0.012
2016-04-20,0.012,0.012,0.012,0.012,000,0.012
2016-04-19,0.012,0.012,0.012,0.012,000,0.012
2016-04-18,0.012,0.012,0.012,0.012,000,0.012
2016-04-15,0.012,0.012,0.012,0.012,000,0.012
2016-04-14,0.012,0.012,0.012,0.012,000,0.012
2016-04-13,0.012,0.012,0.012,0.012,000,0.012
2016-04-12,0.012,0.012,0.012,0.012,000,0.012
2016-04-11,0.012,0.012,0.012,0.012,000,0.012
2016-04-08,0.012,0.012,0.012,0.012,000,0.012
2016-04-07,0.012,0.012,0.012,0.012,000,0.012
2016-04-06,0.012,0.012,0.012,0.012,000,0.012
2016-04-05,0.012,0.012,0.012,0.012,000,0.012
2016-04-04,0.012,0.012,0.012,0.012,000,0.012
2016-04-01,0.012,0.012,0.012,0.012,000,0.012
2016-03-31,0.012,0.012,0.012,0.012,000,0.012
2016-03-30,0.012,0.012,0.012,0.012,000,0.012
2016-03-29,0.012,0.012,0.012,0.012,000,0.012
2016-03-28,0.012,0.012,0.012,0.012,000,0.012
2016-03-25,0.012,0.012,0.012,0.012,000,0.012
2016-03-24,0.012,0.012,0.012,0.012,000,0.012
2016-03-23,0.012,0.012,0.012,0.012,000,0.012
2016-03-22,0.012,0.012,0.012,0.012,000,0.012
2016-03-21,0.012,0.012,0.012,0.012,000,0.012
2016-03-18,0.012,0.012,0.012,0.012,000,0.012
2016-03-17,0.012,0.012,0.012,0.012,000,0.012
2016-03-16,0.012,0.012,0.012,0.012,000,0.012
2016-03-15,0.012,0.012,0.012,0.012,000,0.012
2016-03-14,0.012,0.012,0.012,0.012,000,0.012
2016-03-11,0.012,0.012,0.012,0.012,000,0.012
2016-03-10,0.012,0.012,0.012,0.012,000,0.012
2016-03-09,0.012,0.012,0.012,0.012,000,0.012
2016-03-08,0.012,0.012,0.012,0.012,000,0.012
2016-03-07,0.012,0.012,0.012,0.012,000,0.012
2016-03-04,0.012,0.012,0.012,0.012,000,0.012
2016-03-03,0.012,0.012,0.012,0.012,000,0.012
2016-03-02,0.012,0.012,0.012,0.012,000,0.012
2016-03-01,0.012,0.012,0.012,0.012,000,0.012
2016-02-29,0.012,0.012,0.012,0.012,000,0.012
2016-02-26,0.012,0.012,0.012,0.012,000,0.012
2016-02-25,0.012,0.012,0.012,0.012,000,0.012
2016-02-24,0.012,0.012,0.012,0.012,000,0.012
2016-02-23,0.012,0.012,0.012,0.012,000,0.012
2016-02-22,0.012,0.012,0.012,0.012,000,0.012
2016-02-19,0.012,0.012,0.012,0.012,000,0.012
2016-02-18,0.012,0.012,0.012,0.012,000,0.012
2016-02-17,0.012,0.012,0.012,0.012,000,0.012
2016-02-16,0.012,0.012,0.012,0.012,000,0.012
2016-02-15,0.012,0.012,0.012,0.012,000,0.012
2016-02-12,0.012,0.012,0.012,0.012,000,0.012
2016-02-11,0.012,0.012,0.012,0.012,000,0.012
2016-02-10,0.012,0.012,0.012,0.012,000,0.012
2016-02-09,0.012,0.012,0.012,0.012,000,0.012
2016-02-08,0.012,0.012,0.012,0.012,000,0.012
2016-02-05,0.012,0.012,0.012,0.012,000,0.012
2016-02-04,0.012,0.012,0.012,0.012,000,0.012
2016-02-03,0.012,0.012,0.012,0.012,000,0.012
2016-02-02,0.012,0.012,0.012,0.012,000,0.012
2016-02-01,0.012,0.012,0.012,0.012,000,0.012
2016-01-29,0.012,0.012,0.012,0.012,000,0.012
2016-01-28,0.012,0.012,0.012,0.012,000,0.012
2016-01-27,0.012,0.012,0.012,0.012,000,0.012
2016-01-26,0.012,0.012,0.012,0.012,000,0.012
2016-01-25,0.012,0.012,0.012,0.012,000,0.012
2016-01-22,0.012,0.012,0.012,0.012,000,0.012
2016-01-21,0.012,0.012,0.012,0.012,000,0.012
2016-01-20,0.012,0.012,0.012,0.012,000,0.012
2016-01-19,0.012,0.012,0.012,0.012,000,0.012
2016-01-18,0.012,0.012,0.012,0.012,000,0.012
2016-01-15,0.012,0.012,0.012,0.012,000,0.012
2016-01-14,0.012,0.012,0.012,0.012,000,0.012
2016-01-13,0.012,0.012,0.012,0.012,000,0.012
2016-01-12,0.012,0.012,0.012,0.012,000,0.012
2016-01-11,0.012,0.012,0.012,0.012,000,0.012
2016-01-08,0.012,0.012,0.012,0.012,000,0.012
2016-01-07,0.012,0.012,0.012,0.012,000,0.012
2016-01-06,0.012,0.012,0.012,0.012,000,0.012
2016-01-05,0.012,0.012,0.012,0.012,000,0.012
2016-01-04,0.012,0.012,0.012,0.012,000,0.012
2016-01-01,0.012,0.012,0.012,0.012,000,0.012
2015-12-31,0.012,0.012,0.012,0.012,000,0.012
2015-12-30,0.012,0.012,0.012,0.012,000,0.012
2015-12-29,0.012,0.012,0.012,0.012,000,0.012
2015-12-28,0.012,0.012,0.012,0.012,000,0.012
2015-12-25,0.012,0.012,0.012,0.012,000,0.012
2015-12-24,0.012,0.012,0.012,0.012,000,0.012
2015-12-23,0.012,0.012,0.012,0.012,000,0.012
2015-12-22,0.012,0.012,0.012,0.012,000,0.012
2015-12-21,0.012,0.012,0.012,0.012,000,0.012
2015-12-18,0.012,0.012,0.012,0.012,000,0.012
2015-12-17,0.012,0.012,0.012,0.012,000,0.012
2015-12-16,0.012,0.012,0.012,0.012,000,0.012
2015-12-15,0.012,0.012,0.012,0.012,000,0.012
2015-12-14,0.012,0.012,0.012,0.012,000,0.012
2015-12-11,0.012,0.012,0.012,0.012,000,0.012
2015-12-10,0.012,0.012,0.012,0.012,000,0.012
2015-12-09,0.012,0.012,0.012,0.012,000,0.012
2015-12-08,0.012,0.012,0.012,0.012,000,0.012
2015-12-07,0.012,0.012,0.012,0.012,000,0.012
2015-12-04,0.012,0.012,0.012,0.012,000,0.012
2015-12-03,0.012,0.012,0.012,0.012,000,0.012
2015-12-02,0.012,0.012,0.012,0.012,000,0.012
2015-12-01,0.012,0.012,0.012,0.012,000,0.012
2015-11-30,0.012,0.012,0.012,0.012,000,0.012
2015-11-27,0.012,0.012,0.012,0.012,000,0.012
2015-11-26,0.012,0.012,0.012,0.012,000,0.012
2015-11-25,0.012,0.012,0.012,0.012,000,0.012
2015-11-24,0.012,0.012,0.012,0.012,000,0.012
2015-11-23,0.012,0.012,0.012,0.012,000,0.012
2015-11-20,0.012,0.012,0.012,0.012,000,0.012
2015-11-19,0.012,0.012,0.012,0.012,000,0.012
2015-11-18,0.012,0.012,0.012,0.012,000,0.012
2015-11-17,0.012,0.012,0.012,0.012,000,0.012
2015-11-16,0.012,0.012,0.012,0.012,000,0.012
2015-11-13,0.012,0.012,0.012,0.012,000,0.012
2015-11-12,0.012,0.012,0.012,0.012,000,0.012
2015-11-11,0.012,0.012,0.012,0.012,000,0.012
2015-11-10,0.012,0.012,0.012,0.012,000,0.012
2015-11-09,0.012,0.012,0.012,0.012,000,0.012
2015-11-06,0.012,0.012,0.012,0.012,000,0.012
2015-11-05,0.012,0.012,0.012,0.012,000,0.012
2015-11-04,0.012,0.012,0.012,0.012,000,0.012
2015-11-03,0.012,0.012,0.012,0.012,000,0.012
2015-11-02,0.012,0.012,0.012,0.012,000,0.012
2015-10-30,0.012,0.012,0.012,0.012,000,0.012
2015-10-29,0.012,0.012,0.012,0.012,000,0.012
2015-10-28,0.012,0.012,0.012,0.012,000,0.012
2015-10-27,0.012,0.012,0.012,0.012,000,0.012
2015-10-26,0.012,0.012,0.012,0.012,000,0.012
2015-10-23,0.012,0.012,0.012,0.012,000,0.012
2015-10-22,0.012,0.012,0.012,0.012,000,0.012
2015-10-21,0.012,0.012,0.012,0.012,000,0.012
2015-10-20,0.012,0.012,0.012,0.012,000,0.012
2015-10-19,0.012,0.012,0.012,0.012,000,0.012
2015-10-16,0.012,0.012,0.012,0.012,000,0.012
2015-10-15,0.012,0.012,0.012,0.012,000,0.012
2015-10-14,0.012,0.012,0.012,0.012,000,0.012
2015-10-13,0.012,0.012,0.012,0.012,000,0.012
2015-10-12,0.012,0.012,0.012,0.012,573000,0.012
2015-10-09,0.013,0.013,0.013,0.013,000,0.013
2015-10-08,0.013,0.013,0.013,0.013,000,0.013
2015-10-07,0.013,0.013,0.013,0.013,000,0.013
2015-10-06,0.013,0.013,0.013,0.013,000,0.013
2015-10-05,0.013,0.013,0.013,0.013,000,0.013
2015-10-02,0.013,0.013,0.013,0.013,000,0.013
2015-10-01,0.011,0.013,0.011,0.013,185000,0.013
2015-09-30,0.011,0.011,0.011,0.011,100000,0.011
2015-09-29,0.011,0.011,0.011,0.011,000,0.011
2015-09-28,0.011,0.011,0.011,0.011,61600,0.011
2015-09-25,0.011,0.011,0.011,0.011,500000,0.011
2015-09-24,0.012,0.012,0.012,0.012,000,0.012
2015-09-23,0.012,0.012,0.012,0.012,100000,0.012
2015-09-22,0.012,0.012,0.012,0.012,100000,0.012
2015-09-21,0.012,0.012,0.012,0.012,88300,0.012
2015-09-18,0.013,0.013,0.013,0.013,000,0.013
2015-09-17,0.013,0.013,0.013,0.013,000,0.013
2015-09-16,0.013,0.013,0.013,0.013,000,0.013
2015-09-15,0.013,0.013,0.013,0.013,500000,0.013
2015-09-14,0.011,0.012,0.011,0.012,881600,0.012
2015-09-11,0.011,0.011,0.011,0.011,000,0.011
2015-09-10,0.011,0.011,0.011,0.011,1150000,0.011
2015-09-09,0.01,0.011,0.01,0.01,1040000,0.01
2015-09-08,0.01,0.01,0.01,0.01,000,0.01
2015-09-07,0.01,0.01,0.01,0.01,50000,0.01
2015-09-04,0.01,0.01,0.01,0.01,000,0.01
2015-09-03,0.01,0.01,0.01,0.01,000,0.01
2015-09-02,0.01,0.01,0.01,0.01,100000,0.01
2015-09-01,0.011,0.011,0.011,0.011,000,0.011
2015-08-31,0.011,0.011,0.011,0.011,000,0.011
2015-08-28,0.011,0.011,0.011,0.011,000,0.011
2015-08-27,0.011,0.011,0.011,0.011,000,0.011
2015-08-26,0.011,0.011,0.011,0.011,36100,0.011
2015-08-25,0.011,0.011,0.01,0.01,200000,0.01
2015-08-24,0.012,0.012,0.01,0.01,979900,0.01
2015-08-21,0.012,0.012,0.012,0.012,150000,0.012
2015-08-20,0.012,0.012,0.012,0.012,700000,0.012
2015-08-19,0.012,0.012,0.012,0.012,300000,0.012
2015-08-18,0.013,0.013,0.013,0.013,000,0.013
2015-08-17,0.013,0.013,0.013,0.013,000,0.013
2015-08-14,0.013,0.013,0.013,0.013,132200,0.013
2015-08-13,0.013,0.013,0.013,0.013,000,0.013
2015-08-12,0.013,0.013,0.013,0.013,440000,0.013
2015-08-11,0.014,0.014,0.014,0.014,000,0.014
2015-08-10,0.014,0.014,0.014,0.014,285700,0.014
2015-08-07,0.014,0.014,0.014,0.014,000,0.014
2015-08-06,0.014,0.014,0.014,0.014,000,0.014
2015-08-05,0.015,0.015,0.013,0.014,3031400,0.014
2015-08-04,0.015,0.015,0.014,0.015,1066200,0.015
2015-08-03,0.015,0.015,0.015,0.015,000,0.015
2015-07-31,0.015,0.015,0.015,0.015,250000,0.015
2015-07-30,0.015,0.015,0.015,0.015,500000,0.015
2015-07-29,0.015,0.016,0.014,0.014,700000,0.014
2015-07-28,0.015,0.015,0.013,0.015,1900000,0.015
2015-07-27,0.014,0.017,0.014,0.015,1381000,0.015
2015-07-24,0.012,0.012,0.012,0.012,000,0.012
2015-07-23,0.012,0.012,0.012,0.012,000,0.012
2015-07-22,0.012,0.012,0.012,0.012,350000,0.012
2015-07-21,0.012,0.012,0.012,0.012,125000,0.012
2015-07-20,0.011,0.011,0.011,0.011,117800,0.011
2015-07-17,0.013,0.013,0.013,0.013,130300,0.013
2015-07-16,0.011,0.011,0.011,0.011,60000,0.011
2015-07-15,0.01,0.01,0.01,0.01,000,0.01
2015-07-14,0.01,0.01,0.01,0.01,000,0.01
2015-07-13,0.01,0.01,0.01,0.01,000,0.01
2015-07-10,0.01,0.01,0.01,0.01,000,0.01
2015-07-09,0.01,0.01,0.01,0.01,2900,0.01
2015-07-08,0.01,0.01,0.01,0.01,000,0.01
2015-07-07,0.01,0.01,0.01,0.01,000,0.01
2015-07-06,0.01,0.01,0.01,0.01,000,0.01
2015-07-03,0.01,0.01,0.01,0.01,000,0.01
2015-07-02,0.01,0.01,0.01,0.01,150000,0.01
2015-07-01,0.012,0.012,0.012,0.012,60000,0.012
2015-06-30,0.011,0.011,0.01,0.01,1000000,0.01
2015-06-29,0.011,0.011,0.011,0.011,000,0.011
2015-06-26,0.011,0.011,0.011,0.011,000,0.011
2015-06-25,0.012,0.012,0.011,0.011,250000,0.011
2015-06-24,0.014,0.014,0.014,0.014,517700,0.014
2015-06-23,0.014,0.014,0.014,0.014,000,0.014
2015-06-22,0.014,0.014,0.014,0.014,000,0.014
2015-06-19,0.013,0.014,0.013,0.014,693700,0.014
2015-06-18,0.014,0.015,0.014,0.015,409200,0.015
2015-06-17,0.011,0.012,0.011,0.012,1632000,0.012
2015-06-16,0.011,0.011,0.011,0.011,000,0.011
2015-06-15,0.011,0.011,0.011,0.011,000,0.011
2015-06-12,0.011,0.011,0.011,0.011,000,0.011
2015-06-11,0.011,0.011,0.011,0.011,000,0.011
2015-06-10,0.011,0.011,0.011,0.011,1000000,0.011
2015-06-09,0.011,0.011,0.011,0.011,000,0.011
2015-06-08,0.011,0.011,0.011,0.011,000,0.011
2015-06-05,0.01,0.011,0.01,0.011,207500,0.011
2015-06-04,0.011,0.011,0.011,0.011,540900,0.011
2015-06-03,0.01,0.01,0.01,0.01,492400,0.01
2015-06-02,0.011,0.011,0.011,0.011,1000000,0.011
2015-06-01,0.011,0.011,0.011,0.011,1000000,0.011
2015-05-29,0.01,0.01,0.01,0.01,000,0.01
2015-05-28,0.01,0.01,0.01,0.01,988800,0.01
2015-05-27,0.01,0.011,0.01,0.011,3260000,0.011
2015-05-26,0.012,0.012,0.012,0.012,000,0.012
2015-05-25,0.012,0.012,0.012,0.012,000,0.012
2015-05-22,0.012,0.012,0.012,0.012,000,0.012
2015-05-21,0.012,0.012,0.012,0.012,000,0.012
2015-05-20,0.012,0.012,0.012,0.012,000,0.012
2015-05-19,0.012,0.012,0.012,0.012,000,0.012
2015-05-18,0.012,0.012,0.012,0.012,000,0.012
2015-05-15,0.012,0.012,0.012,0.012,000,0.012
2015-05-14,0.012,0.012,0.012,0.012,000,0.012
2015-05-13,0.012,0.012,0.012,0.012,000,0.012
2015-05-12,0.012,0.012,0.012,0.012,000,0.012
2015-05-11,0.011,0.012,0.011,0.012,440000,0.012
2015-05-08,0.01,0.01,0.01,0.01,000,0.01
2015-05-07,0.01,0.01,0.01,0.01,000,0.01
2015-05-06,0.01,0.01,0.01,0.01,000,0.01
2015-05-05,0.01,0.01,0.01,0.01,000,0.01
2015-05-04,0.01,0.01,0.01,0.01,60000,0.01
2015-05-01,0.01,0.01,0.01,0.01,000,0.01
2015-04-30,0.01,0.01,0.01,0.01,000,0.01
2015-04-29,0.01,0.01,0.01,0.01,000,0.01
2015-04-28,0.01,0.01,0.01,0.01,000,0.01
2015-04-27,0.01,0.01,0.01,0.01,120000,0.01
2015-04-24,0.01,0.01,0.01,0.01,000,0.01
2015-04-23,0.01,0.01,0.01,0.01,000,0.01
2015-04-22,0.01,0.01,0.01,0.01,000,0.01
2015-04-21,0.01,0.01,0.01,0.01,000,0.01
2015-04-20,0.01,0.01,0.01,0.01,240900,0.01
2015-04-17,0.009,0.009,0.009,0.009,000,0.009
2015-04-16,0.009,0.009,0.009,0.009,20000,0.009
2015-04-15,0.009,0.009,0.009,0.009,000,0.009
2015-04-14,0.009,0.009,0.009,0.009,000,0.009
2015-04-13,0.009,0.009,0.009,0.009,000,0.009
2015-04-10,0.009,0.009,0.009,0.009,000,0.009
2015-04-09,0.009,0.009,0.009,0.009,000,0.009
2015-04-08,0.009,0.009,0.009,0.009,000,0.009
2015-04-07,0.009,0.009,0.009,0.009,000,0.009
2015-04-06,0.009,0.009,0.009,0.009,000,0.009
2015-04-03,0.009,0.009,0.009,0.009,000,0.009
2015-04-02,0.009,0.009,0.009,0.009,000,0.009
2015-04-01,0.009,0.009,0.009,0.009,10000,0.009
2015-03-31,0.009,0.009,0.009,0.009,270900,0.009
2015-03-30,0.011,0.011,0.011,0.011,000,0.011
2015-03-27,0.011,0.011,0.011,0.011,000,0.011
2015-03-26,0.011,0.011,0.011,0.011,000,0.011
2015-03-25,0.011,0.011,0.011,0.011,000,0.011
2015-03-24,0.01,0.011,0.01,0.011,535100,0.011
2015-03-23,0.011,0.011,0.011,0.011,000,0.011
2015-03-20,0.01,0.011,0.01,0.011,200000,0.011
2015-03-19,0.01,0.01,0.01,0.01,000,0.01
2015-03-18,0.01,0.01,0.01,0.01,000,0.01
2015-03-17,0.01,0.01,0.01,0.01,000,0.01
2015-03-16,0.01,0.01,0.01,0.01,000,0.01
2015-03-13,0.01,0.01,0.01,0.01,000,0.01
2015-03-12,0.01,0.01,0.01,0.01,500000,0.01
2015-03-11,0.011,0.011,0.011,0.011,000,0.011
2015-03-10,0.011,0.011,0.011,0.011,000,0.011
2015-03-09,0.01,0.011,0.01,0.011,270900,0.011
2015-03-06,0.01,0.011,0.01,0.011,900000,0.011
2015-03-05,0.01,0.01,0.01,0.01,000,0.01
2015-03-04,0.009,0.01,0.009,0.01,1030000,0.01
2015-03-03,0.008,0.008,0.008,0.008,000,0.008
2015-03-02,0.008,0.008,0.008,0.008,000,0.008
2015-02-27,0.008,0.008,0.008,0.008,95000,0.008
2015-02-26,0.007,0.007,0.007,0.007,000,0.007
2015-02-25,0.007,0.007,0.007,0.007,000,0.007
2015-02-24,0.007,0.007,0.007,0.007,000,0.007
2015-02-23,0.007,0.007,0.007,0.007,000,0.007
2015-02-20,0.007,0.007,0.007,0.007,000,0.007
2015-02-19,0.007,0.007,0.007,0.007,000,0.007
2015-02-18,0.007,0.007,0.007,0.007,000,0.007
2015-02-17,0.007,0.007,0.007,0.007,000,0.007
2015-02-16,0.007,0.007,0.007,0.007,000,0.007
2015-02-13,0.007,0.007,0.007,0.007,000,0.007
2015-02-12,0.007,0.007,0.007,0.007,718100,0.007
2015-02-11,0.007,0.007,0.007,0.007,000,0.007
2015-02-10,0.007,0.007,0.007,0.007,000,0.007
2015-02-09,0.007,0.007,0.007,0.007,000,0.007
2015-02-06,0.007,0.007,0.007,0.007,000,0.007
2015-02-05,0.007,0.007,0.007,0.007,000,0.007
2015-02-04,0.007,0.007,0.007,0.007,000,0.007
2015-02-03,0.007,0.007,0.007,0.007,000,0.007
2015-02-02,0.007,0.007,0.007,0.007,000,0.007
2015-01-30,0.007,0.007,0.007,0.007,281800,0.007
2015-01-29,0.007,0.007,0.007,0.007,000,0.007
2015-01-28,0.007,0.007,0.007,0.007,000,0.007
2015-01-27,0.007,0.007,0.007,0.007,000,0.007
2015-01-26,0.007,0.007,0.007,0.007,000,0.007
2015-01-23,0.007,0.007,0.007,0.007,000,0.007
2015-01-22,0.007,0.007,0.007,0.007,000,0.007
2015-01-21,0.007,0.007,0.007,0.007,000,0.007
2015-01-20,0.007,0.007,0.007,0.007,000,0.007
2015-01-19,0.007,0.007,0.007,0.007,000,0.007
2015-01-16,0.007,0.007,0.007,0.007,000,0.007
2015-01-15,0.007,0.007,0.007,0.007,000,0.007
2015-01-14,0.007,0.007,0.007,0.007,900000,0.007
2015-01-13,0.007,0.007,0.007,0.007,000,0.007
2015-01-12,0.007,0.007,0.007,0.007,100000,0.007
2015-01-09,0.007,0.007,0.007,0.007,000,0.007
2015-01-08,0.007,0.007,0.007,0.007,3996100,0.007
2015-01-07,0.009,0.009,0.009,0.009,000,0.009
2015-01-06,0.009,0.009,0.009,0.009,000,0.009
2015-01-05,0.009,0.009,0.009,0.009,000,0.009
2015-01-02,0.009,0.009,0.009,0.009,000,0.009
2015-01-01,0.009,0.009,0.009,0.009,000,0.009
2014-12-31,0.009,0.009,0.009,0.009,000,0.009
2014-12-30,0.009,0.009,0.009,0.009,000,0.009
2014-12-29,0.009,0.009,0.009,0.009,000,0.009
2014-12-26,0.009,0.009,0.009,0.009,000,0.009
2014-12-25,0.009,0.009,0.009,0.009,000,0.009
2014-12-24,0.009,0.009,0.009,0.009,000,0.009
2014-12-23,0.009,0.009,0.009,0.009,000,0.009
2014-12-22,0.009,0.009,0.009,0.009,000,0.009
2014-12-19,0.009,0.009,0.009,0.009,000,0.009
2014-12-18,0.009,0.009,0.009,0.009,000,0.009
2014-12-17,0.009,0.009,0.009,0.009,000,0.009
2014-12-16,0.009,0.009,0.009,0.009,000,0.009
2014-12-15,0.009,0.009,0.009,0.009,000,0.009
2014-12-12,0.009,0.009,0.009,0.009,000,0.009
2014-12-11,0.009,0.009,0.009,0.009,000,0.009
2014-12-10,0.009,0.009,0.009,0.009,000,0.009
2014-12-09,0.009,0.009,0.009,0.009,000,0.009
2014-12-08,0.01,0.01,0.009,0.009,1020000,0.009
2014-12-05,0.012,0.012,0.012,0.012,000,0.012
2014-12-04,0.012,0.012,0.012,0.012,000,0.012
2014-12-03,0.012,0.012,0.012,0.012,000,0.012
2014-12-02,0.012,0.012,0.012,0.012,000,0.012
2014-12-01,0.012,0.012,0.012,0.012,000,0.012
2014-11-28,0.012,0.012,0.012,0.012,000,0.012
2014-11-27,0.012,0.012,0.012,0.012,000,0.012
2014-11-26,0.012,0.012,0.012,0.012,000,0.012
2014-11-25,0.012,0.012,0.012,0.012,000,0.012
2014-11-24,0.012,0.012,0.012,0.012,000,0.012
2014-11-21,0.012,0.012,0.012,0.012,000,0.012
2014-11-20,0.012,0.012,0.012,0.012,000,0.012
2014-11-19,0.012,0.012,0.012,0.012,000,0.012
2014-11-18,0.012,0.012,0.012,0.012,000,0.012
2014-11-17,0.012,0.012,0.012,0.012,000,0.012
2014-11-14,0.012,0.012,0.012,0.012,000,0.012
2014-11-13,0.012,0.012,0.012,0.012,000,0.012
2014-11-12,0.012,0.012,0.012,0.012,000,0.012
2014-11-11,0.012,0.012,0.012,0.012,000,0.012
2014-11-10,0.012,0.012,0.012,0.012,000,0.012
2014-11-07,0.012,0.012,0.012,0.012,000,0.012
2014-11-06,0.012,0.012,0.012,0.012,000,0.012
2014-11-05,0.012,0.012,0.012,0.012,000,0.012
2014-11-04,0.012,0.012,0.012,0.012,000,0.012
2014-11-03,0.012,0.012,0.012,0.012,000,0.012
2014-10-31,0.012,0.012,0.012,0.012,000,0.012
2014-10-30,0.012,0.012,0.012,0.012,000,0.012
2014-10-29,0.012,0.012,0.012,0.012,000,0.012
2014-10-28,0.012,0.012,0.012,0.012,000,0.012
2014-10-27,0.012,0.012,0.012,0.012,000,0.012
2014-10-24,0.012,0.012,0.012,0.012,000,0.012
2014-10-23,0.012,0.012,0.012,0.012,000,0.012
2014-10-22,0.012,0.012,0.012,0.012,000,0.012
2014-10-21,0.012,0.012,0.012,0.012,000,0.012
2014-10-20,0.012,0.012,0.012,0.012,000,0.012
2014-10-17,0.012,0.012,0.012,0.012,000,0.012
2014-10-16,0.012,0.012,0.012,0.012,000,0.012
2014-10-15,0.012,0.012,0.012,0.012,000,0.012
2014-10-14,0.012,0.012,0.012,0.012,000,0.012
2014-10-13,0.012,0.012,0.012,0.012,000,0.012
2014-10-10,0.012,0.012,0.012,0.012,000,0.012
2014-10-09,0.012,0.012,0.012,0.012,000,0.012
2014-10-08,0.012,0.012,0.012,0.012,000,0.012
2014-10-07,0.012,0.012,0.012,0.012,000,0.012
2014-10-06,0.012,0.012,0.012,0.012,000,0.012
2014-10-03,0.012,0.012,0.012,0.012,000,0.012
2014-10-02,0.012,0.012,0.012,0.012,100000,0.012
2014-10-01,0.011,0.011,0.011,0.011,000,0.011
2014-09-30,0.011,0.011,0.011,0.011,000,0.011
2014-09-29,0.011,0.011,0.011,0.011,000,0.011
2014-09-26,0.011,0.011,0.011,0.011,150000,0.011
2014-09-25,0.01,0.01,0.01,0.01,000,0.01
2014-09-24,0.01,0.01,0.01,0.01,000,0.01
2014-09-23,0.01,0.01,0.01,0.01,000,0.01
2014-09-22,0.01,0.01,0.01,0.01,000,0.01
2014-09-19,0.01,0.01,0.01,0.01,000,0.01
2014-09-18,0.01,0.01,0.01,0.01,000,0.01
2014-09-17,0.01,0.01,0.01,0.01,000,0.01
2014-09-16,0.01,0.01,0.01,0.01,000,0.01
2014-09-15,0.01,0.01,0.01,0.01,100000,0.01
2014-09-12,0.01,0.01,0.01,0.01,250000,0.01
2014-09-11,0.01,0.01,0.01,0.01,500000,0.01
2014-09-10,0.01,0.01,0.01,0.01,000,0.01
2014-09-09,0.01,0.01,0.01,0.01,000,0.01
2014-09-08,0.01,0.01,0.01,0.01,000,0.01
2014-09-05,0.01,0.01,0.01,0.01,000,0.01
2014-09-04,0.01,0.01,0.01,0.01,450000,0.01
2014-09-03,0.01,0.01,0.01,0.01,000,0.01
2014-09-02,0.01,0.01,0.01,0.01,000,0.01
2014-09-01,0.01,0.01,0.01,0.01,350000,0.01
2014-08-29,0.01,0.01,0.01,0.01,000,0.01
2014-08-28,0.01,0.01,0.01,0.01,000,0.01
2014-08-27,0.01,0.01,0.01,0.01,000,0.01
2014-08-26,0.01,0.01,0.01,0.01,200000,0.01
2014-08-25,0.008,0.008,0.008,0.008,000,0.008
2014-08-22,0.008,0.008,0.008,0.008,000,0.008
2014-08-21,0.008,0.008,0.008,0.008,000,0.008
2014-08-20,0.008,0.008,0.008,0.008,000,0.008
2014-08-19,0.008,0.008,0.008,0.008,000,0.008
2014-08-18,0.008,0.008,0.008,0.008,000,0.008
2014-08-15,0.008,0.008,0.008,0.008,000,0.008
2014-08-14,0.008,0.008,0.008,0.008,000,0.008
2014-08-13,0.008,0.008,0.008,0.008,000,0.008
2014-08-12,0.008,0.008,0.008,0.008,000,0.008
2014-08-11,0.008,0.008,0.008,0.008,000,0.008
2014-08-08,0.008,0.008,0.008,0.008,000,0.008
2014-08-07,0.008,0.008,0.008,0.008,000,0.008
2014-08-06,0.008,0.008,0.008,0.008,214200,0.008
2014-08-05,0.008,0.008,0.008,0.008,000,0.008
2014-08-04,0.008,0.008,0.008,0.008,100000,0.008
2014-08-01,0.008,0.008,0.008,0.008,30000,0.008
2014-07-31,0.008,0.008,0.008,0.008,000,0.008
2014-07-30,0.008,0.008,0.008,0.008,100000,0.008
2014-07-29,0.008,0.008,0.008,0.008,000,0.008
2014-07-28,0.008,0.008,0.008,0.008,000,0.008
2014-07-25,0.008,0.008,0.008,0.008,100000,0.008
2014-07-24,0.015,0.015,0.015,0.015,000,0.015
2014-07-23,0.015,0.015,0.015,0.015,000,0.015
2014-07-22,0.015,0.015,0.015,0.015,000,0.015
2014-07-21,0.015,0.015,0.015,0.015,000,0.015
2014-07-18,0.015,0.015,0.015,0.015,000,0.015
2014-07-17,0.015,0.015,0.015,0.015,000,0.015
2014-07-16,0.015,0.015,0.015,0.015,000,0.015
2014-07-15,0.015,0.015,0.015,0.015,000,0.015
2014-07-14,0.015,0.015,0.015,0.015,000,0.015
2014-07-11,0.015,0.015,0.015,0.015,000,0.015
2014-07-10,0.015,0.015,0.015,0.015,000,0.015
2014-07-09,0.015,0.015,0.015,0.015,000,0.015
2014-07-08,0.015,0.015,0.015,0.015,200000,0.015
2014-07-07,0.014,0.014,0.014,0.014,000,0.014
2014-07-04,0.014,0.014,0.014,0.014,000,0.014
2014-07-03,0.014,0.014,0.014,0.014,000,0.014
2014-07-02,0.014,0.014,0.014,0.014,000,0.014
2014-07-01,0.014,0.014,0.014,0.014,000,0.014
2014-06-30,0.014,0.014,0.014,0.014,000,0.014
2014-06-27,0.014,0.014,0.014,0.014,000,0.014
2014-06-26,0.014,0.014,0.014,0.014,000,0.014
2014-06-25,0.014,0.014,0.014,0.014,000,0.014
2014-06-24,0.014,0.014,0.014,0.014,000,0.014
2014-06-23,0.014,0.014,0.014,0.014,35700,0.014
2014-06-20,0.013,0.013,0.013,0.013,000,0.013
2014-06-19,0.013,0.013,0.013,0.013,000,0.013
2014-06-18,0.013,0.013,0.013,0.013,250000,0.013
2014-06-17,0.009,0.012,0.009,0.012,173800,0.012
2014-06-16,0.006,0.006,0.006,0.006,50000,0.006
2014-06-13,0.007,0.007,0.007,0.007,000,0.007
2014-06-12,0.007,0.007,0.007,0.007,000,0.007
2014-06-11,0.007,0.007,0.007,0.007,500000,0.007
2014-06-10,0.005,0.006,0.005,0.006,1000000,0.006
2014-06-09,0.004,0.004,0.004,0.004,000,0.004
2014-06-06,0.004,0.004,0.004,0.004,000,0.004
2014-06-05,0.004,0.004,0.004,0.004,100000,0.004
2014-06-04,0.004,0.004,0.004,0.004,000,0.004
2014-06-03,0.004,0.004,0.004,0.004,000,0.004
2014-06-02,0.004,0.004,0.004,0.004,100000,0.004
2014-05-30,0.004,0.004,0.004,0.004,000,0.004
2014-05-29,0.004,0.004,0.004,0.004,000,0.004
2014-05-28,0.004,0.004,0.004,0.004,000,0.004
2014-05-27,0.004,0.004,0.004,0.004,10000,0.004
2014-05-26,0.005,0.005,0.005,0.005,000,0.005
2014-05-23,0.005,0.005,0.005,0.005,220000,0.005
2014-05-22,0.005,0.005,0.005,0.005,000,0.005
2014-05-21,0.005,0.005,0.005,0.005,10000,0.005
2014-05-20,0.006,0.006,0.006,0.006,000,0.006
2014-05-19,0.006,0.006,0.006,0.006,223800,0.006
2014-05-16,0.007,0.007,0.007,0.007,26100,0.007
2014-05-15,0.007,0.007,0.007,0.007,900000,0.007
2014-05-14,0.007,0.007,0.007,0.007,000,0.007
2014-05-13,0.007,0.007,0.007,0.007,000,0.007
2014-05-12,0.007,0.007,0.007,0.007,1136300,0.007
2014-05-09,0.007,0.007,0.007,0.007,000,0.007
2014-05-08,0.007,0.007,0.007,0.007,000,0.007
2014-05-07,0.007,0.007,0.007,0.007,000,0.007
2014-05-06,0.007,0.007,0.007,0.007,000,0.007
2014-05-05,0.007,0.007,0.007,0.007,000,0.007
2014-05-02,0.007,0.007,0.007,0.007,000,0.007
2014-05-01,0.007,0.007,0.007,0.007,12500,0.007
2014-04-30,0.007,0.007,0.007,0.007,000,0.007
2014-04-29,0.007,0.007,0.007,0.007,000,0.007
2014-04-28,0.007,0.007,0.007,0.007,000,0.007
2014-04-25,0.007,0.007,0.007,0.007,000,0.007
2014-04-24,0.007,0.007,0.007,0.007,000,0.007
2014-04-23,0.007,0.007,0.007,0.007,000,0.007
2014-04-22,0.007,0.007,0.007,0.007,000,0.007
2014-04-21,0.007,0.007,0.007,0.007,000,0.007
2014-04-18,0.007,0.007,0.007,0.007,000,0.007
2014-04-17,0.007,0.007,0.007,0.007,000,0.007
2014-04-16,0.007,0.007,0.007,0.007,000,0.007
2014-04-15,0.007,0.007,0.007,0.007,000,0.007
2014-04-14,0.007,0.007,0.007,0.007,25000,0.007
2014-04-11,0.005,0.005,0.005,0.005,000,0.005
2014-04-10,0.005,0.005,0.005,0.005,000,0.005
2014-04-09,0.005,0.005,0.005,0.005,000,0.005
2014-04-08,0.005,0.005,0.005,0.005,90900,0.005
2014-04-07,0.018,0.018,0.018,0.018,000,0.018
2014-04-04,0.018,0.018,0.018,0.018,000,0.018
2014-04-03,0.018,0.018,0.018,0.018,000,0.018
2014-04-02,0.018,0.018,0.018,0.018,000,0.018
2014-04-01,0.018,0.02,0.018,0.018,1224500,0.018
2014-03-31,0.017,0.017,0.017,0.017,000,0.017
2014-03-28,0.017,0.017,0.017,0.017,000,0.017
2014-03-27,0.017,0.017,0.017,0.017,000,0.017
2014-03-26,0.017,0.017,0.017,0.017,000,0.017
2014-03-25,0.017,0.017,0.017,0.017,000,0.017
2014-03-24,0.017,0.017,0.017,0.017,000,0.017
2014-03-21,0.017,0.017,0.017,0.017,000,0.017
2014-03-20,0.017,0.017,0.017,0.017,000,0.017
2014-03-19,0.017,0.017,0.017,0.017,000,0.017
2014-03-18,0.017,0.017,0.017,0.017,000,0.017
2014-03-17,0.017,0.017,0.017,0.017,000,0.017
2014-03-14,0.017,0.017,0.017,0.017,000,0.017
2014-03-13,0.017,0.017,0.017,0.017,000,0.017
2014-03-12,0.017,0.017,0.017,0.017,000,0.017
2014-03-11,0.017,0.017,0.017,0.017,000,0.017
2014-03-10,0.017,0.017,0.017,0.017,000,0.017
2014-03-07,0.017,0.017,0.017,0.017,000,0.017
2014-03-06,0.017,0.017,0.017,0.017,000,0.017
2014-03-05,0.017,0.017,0.017,0.017,000,0.017
2014-03-04,0.017,0.017,0.017,0.017,000,0.017
2014-03-03,0.017,0.017,0.017,0.017,000,0.017
2014-02-28,0.017,0.017,0.017,0.017,000,0.017
2014-02-27,0.017,0.017,0.017,0.017,25400,0.017
2014-02-26,0.018,0.018,0.018,0.018,000,0.018
2014-02-25,0.018,0.018,0.018,0.018,000,0.018
2014-02-24,0.018,0.018,0.018,0.018,000,0.018
2014-02-21,0.018,0.018,0.018,0.018,000,0.018
2014-02-20,0.018,0.018,0.018,0.018,000,0.018
2014-02-19,0.018,0.018,0.018,0.018,000,0.018
2014-02-18,0.018,0.018,0.018,0.018,000,0.018
2014-02-17,0.018,0.018,0.018,0.018,000,0.018
2014-02-14,0.018,0.018,0.018,0.018,000,0.018
2014-02-13,0.018,0.018,0.018,0.018,100000,0.018
2014-02-12,0.017,0.017,0.017,0.017,000,0.017
2014-02-11,0.017,0.017,0.017,0.017,000,0.017
2014-02-10,0.017,0.017,0.017,0.017,000,0.017
2014-02-07,0.017,0.017,0.017,0.017,54500,0.017
2014-02-06,0.023,0.023,0.023,0.023,000,0.023
2014-02-05,0.023,0.023,0.023,0.023,000,0.023
2014-02-04,0.023,0.023,0.023,0.023,000,0.023
2014-02-03,0.023,0.023,0.023,0.023,000,0.023
2014-01-31,0.023,0.023,0.023,0.023,000,0.023
2014-01-30,0.023,0.023,0.023,0.023,000,0.023
2014-01-29,0.023,0.023,0.023,0.023,000,0.023
2014-01-28,0.023,0.023,0.023,0.023,000,0.023
2014-01-27,0.023,0.023,0.023,0.023,000,0.023
2014-01-24,0.023,0.023,0.023,0.023,000,0.023
2014-01-23,0.023,0.023,0.023,0.023,000,0.023
2014-01-22,0.023,0.023,0.023,0.023,000,0.023
2014-01-21,0.023,0.023,0.023,0.023,000,0.023
2014-01-20,0.023,0.023,0.023,0.023,000,0.023
2014-01-17,0.023,0.023,0.023,0.023,000,0.023
2014-01-16,0.023,0.023,0.023,0.023,000,0.023
2014-01-15,0.023,0.023,0.023,0.023,000,0.023
2014-01-14,0.023,0.023,0.023,0.023,88800,0.023
2014-01-13,0.023,0.023,0.023,0.023,000,0.023
2014-01-10,0.023,0.023,0.023,0.023,000,0.023
2014-01-09,0.023,0.023,0.023,0.023,2500,0.023
2014-01-08,0.023,0.023,0.023,0.023,000,0.023
2014-01-07,0.023,0.023,0.023,0.023,000,0.023
2014-01-06,0.023,0.023,0.023,0.023,000,0.023
2014-01-03,0.023,0.023,0.023,0.023,000,0.023
2014-01-02,0.023,0.023,0.023,0.023,000,0.023
2014-01-01,0.023,0.023,0.023,0.023,000,0.023
2013-12-31,0.023,0.023,0.023,0.023,000,0.023
2013-12-30,0.023,0.023,0.023,0.023,000,0.023
2013-12-27,0.023,0.023,0.023,0.023,000,0.023
2013-12-26,0.023,0.023,0.023,0.023,000,0.023
2013-12-25,0.023,0.023,0.023,0.023,000,0.023
2013-12-24,0.023,0.023,0.023,0.023,000,0.023
2013-12-23,0.024,0.024,0.023,0.023,19900,0.023
2013-12-20,0.02,0.02,0.02,0.02,000,0.02
2013-12-19,0.02,0.02,0.02,0.02,000,0.02
2013-12-18,0.02,0.02,0.02,0.02,000,0.02
2013-12-17,0.02,0.02,0.02,0.02,000,0.02
2013-12-16,0.02,0.02,0.02,0.02,000,0.02
2013-12-13,0.02,0.02,0.02,0.02,000,0.02
2013-12-12,0.022,0.022,0.02,0.02,143300,0.02
2013-12-11,0.02,0.02,0.02,0.02,000,0.02
2013-12-10,0.02,0.02,0.02,0.02,000,0.02
2013-12-09,0.02,0.02,0.02,0.02,000,0.02
2013-12-06,0.02,0.02,0.02,0.02,000,0.02
2013-12-05,0.02,0.02,0.02,0.02,000,0.02
2013-12-04,0.02,0.02,0.02,0.02,000,0.02
2013-12-03,0.02,0.02,0.02,0.02,000,0.02
2013-12-02,0.02,0.02,0.02,0.02,000,0.02
2013-11-29,0.02,0.02,0.02,0.02,000,0.02
2013-11-28,0.02,0.02,0.02,0.02,000,0.02
2013-11-27,0.02,0.02,0.02,0.02,000,0.02
2013-11-26,0.02,0.02,0.02,0.02,200000,0.02
2013-11-25,0.02,0.02,0.02,0.02,000,0.02
2013-11-22,0.02,0.02,0.02,0.02,350000,0.02
2013-11-21,0.02,0.02,0.02,0.02,000,0.02
2013-11-20,0.02,0.02,0.02,0.02,300000,0.02
2013-11-19,0.021,0.021,0.021,0.021,300000,0.021
2013-11-18,0.02,0.02,0.02,0.02,115000,0.02
2013-11-15,0.021,0.021,0.02,0.02,200000,0.02
2013-11-14,0.02,0.02,0.02,0.02,000,0.02
2013-11-13,0.02,0.02,0.02,0.02,000,0.02
2013-11-12,0.02,0.02,0.02,0.02,000,0.02
2013-11-11,0.02,0.02,0.02,0.02,000,0.02
2013-11-08,0.02,0.02,0.02,0.02,000,0.02
2013-11-07,0.02,0.02,0.02,0.02,000,0.02
2013-11-06,0.02,0.02,0.02,0.02,000,0.02
2013-11-05,0.02,0.02,0.02,0.02,000,0.02
2013-11-04,0.02,0.02,0.02,0.02,000,0.02
2013-11-01,0.02,0.02,0.02,0.02,000,0.02
2013-10-31,0.02,0.02,0.02,0.02,000,0.02
2013-10-30,0.02,0.02,0.02,0.02,000,0.02
2013-10-29,0.02,0.02,0.02,0.02,300000,0.02
2013-10-28,0.02,0.02,0.02,0.02,000,0.02
2013-10-25,0.02,0.02,0.02,0.02,000,0.02
2013-10-24,0.02,0.02,0.02,0.02,000,0.02
2013-10-23,0.02,0.02,0.02,0.02,12200,0.02
2013-10-22,0.021,0.021,0.021,0.021,000,0.021
2013-10-21,0.021,0.021,0.021,0.021,000,0.021
2013-10-18,0.021,0.021,0.021,0.021,000,0.021
2013-10-17,0.021,0.021,0.021,0.021,603400,0.021
2013-10-16,0.023,0.023,0.023,0.023,000,0.023
2013-10-15,0.023,0.023,0.023,0.023,000,0.023
2013-10-14,0.023,0.023,0.023,0.023,000,0.023
2013-10-11,0.023,0.023,0.023,0.023,000,0.023
2013-10-10,0.023,0.023,0.023,0.023,000,0.023
2013-10-09,0.023,0.023,0.023,0.023,000,0.023
2013-10-08,0.023,0.023,0.023,0.023,102600,0.023
2013-10-07,0.023,0.023,0.023,0.023,000,0.023
2013-10-04,0.023,0.023,0.023,0.023,000,0.023
2013-10-03,0.025,0.025,0.023,0.023,129400,0.023
2013-10-02,0.025,0.025,0.025,0.025,000,0.025
2013-10-01,0.025,0.025,0.025,0.025,000,0.025
2013-09-30,0.025,0.025,0.025,0.025,45000,0.025
2013-09-27,0.025,0.025,0.025,0.025,000,0.025
2013-09-26,0.025,0.025,0.025,0.025,000,0.025
2013-09-25,0.025,0.025,0.025,0.025,2800,0.025
2013-09-24,0.021,0.025,0.021,0.025,390000,0.025
2013-09-23,0.025,0.025,0.025,0.025,250000,0.025
2013-09-20,0.02,0.02,0.02,0.02,137700,0.02
2013-09-19,0.017,0.017,0.017,0.017,000,0.017
2013-09-18,0.018,0.018,0.017,0.017,80000,0.017
2013-09-17,0.018,0.018,0.018,0.018,000,0.018
2013-09-16,0.018,0.018,0.018,0.018,000,0.018
2013-09-13,0.018,0.018,0.018,0.018,6300,0.018
2013-09-12,0.018,0.018,0.018,0.018,000,0.018
2013-09-11,0.018,0.018,0.018,0.018,100000,0.018
2013-09-10,0.017,0.017,0.017,0.017,25000,0.017
2013-09-09,0.02,0.02,0.02,0.02,000,0.02
2013-09-06,0.02,0.02,0.02,0.02,000,0.02
2013-09-05,0.02,0.02,0.02,0.02,000,0.02
2013-09-04,0.02,0.02,0.02,0.02,000,0.02
2013-09-03,0.02,0.02,0.02,0.02,000,0.02
2013-09-02,0.02,0.02,0.02,0.02,000,0.02
2013-08-30,0.02,0.02,0.02,0.02,38200,0.02
2013-08-29,0.02,0.02,0.02,0.02,000,0.02
2013-08-28,0.02,0.02,0.02,0.02,000,0.02
2013-08-27,0.02,0.02,0.02,0.02,11700,0.02
2013-08-26,0.02,0.02,0.02,0.02,000,0.02
2013-08-23,0.02,0.02,0.02,0.02,000,0.02
2013-08-22,0.02,0.02,0.02,0.02,000,0.02
2013-08-21,0.02,0.02,0.02,0.02,000,0.02
2013-08-20,0.02,0.02,0.02,0.02,000,0.02
2013-08-19,0.02,0.02,0.02,0.02,11800,0.02
2013-08-16,0.017,0.02,0.016,0.02,1376800,0.02
2013-08-15,0.021,0.021,0.021,0.021,000,0.021
2013-08-14,0.02,0.021,0.02,0.021,185000,0.021
2013-08-13,0.023,0.023,0.021,0.021,433000,0.021
2013-08-12,0.025,0.025,0.025,0.025,108100,0.025
2013-08-09,0.025,0.025,0.025,0.025,000,0.025
2013-08-08,0.025,0.025,0.025,0.025,66300,0.025
2013-08-07,0.027,0.027,0.025,0.025,221700,0.025
2013-08-06,0.027,0.027,0.027,0.027,000,0.027
2013-08-05,0.027,0.027,0.027,0.027,100000,0.027
2013-08-02,0.025,0.025,0.025,0.025,000,0.025
2013-08-01,0.025,0.025,0.025,0.025,000,0.025
2013-07-31,0.025,0.025,0.025,0.025,000,0.025
2013-07-30,0.025,0.025,0.025,0.025,000,0.025
2013-07-29,0.027,0.03,0.025,0.025,1716600,0.025
2013-07-26,0.025,0.025,0.025,0.025,000,0.025
2013-07-25,0.025,0.025,0.025,0.025,000,0.025
2013-07-24,0.025,0.025,0.025,0.025,000,0.025
2013-07-23,0.025,0.025,0.025,0.025,000,0.025
2013-07-22,0.025,0.025,0.025,0.025,000,0.025
2013-07-19,0.025,0.025,0.025,0.025,60000,0.025
2013-07-18,0.025,0.025,0.025,0.025,000,0.025
2013-07-17,0.025,0.025,0.025,0.025,200000,0.025
2013-07-16,0.021,0.021,0.021,0.021,1000000,0.021
2013-07-15,0.02,0.02,0.02,0.02,000,0.02
2013-07-12,0.02,0.02,0.02,0.02,184900,0.02
2013-07-11,0.024,0.024,0.024,0.024,100000,0.024
2013-07-10,0.025,0.025,0.025,0.025,965000,0.025
2013-07-09,0.025,0.025,0.025,0.025,000,0.025
2013-07-08,0.025,0.025,0.025,0.025,000,0.025
2013-07-05,0.025,0.025,0.025,0.025,150000,0.025
2013-07-04,0.02,0.02,0.02,0.02,000,0.02
2013-07-03,0.025,0.025,0.02,0.02,1650000,0.02
2013-07-02,0.02,0.02,0.02,0.02,1000000,0.02
2013-07-01,0.023,0.023,0.023,0.023,000,0.023
2013-06-28,0.023,0.023,0.023,0.023,30000,0.023
2013-06-27,0.023,0.023,0.023,0.023,000,0.023
2013-06-26,0.023,0.023,0.023,0.023,30000,0.023
2013-06-25,0.034,0.034,0.034,0.034,000,0.034
2013-06-24,0.034,0.034,0.034,0.034,000,0.034
2013-06-21,0.034,0.034,0.034,0.034,000,0.034
2013-06-20,0.034,0.034,0.034,0.034,000,0.034
2013-06-19,0.035,0.035,0.034,0.034,177900,0.034
2013-06-18,0.033,0.033,0.033,0.033,000,0.033
2013-06-17,0.033,0.033,0.033,0.033,000,0.033
2013-06-14,0.032,0.033,0.032,0.033,277100,0.033
2013-06-13,0.035,0.035,0.033,0.033,1200000,0.033
2013-06-12,0.035,0.035,0.035,0.035,000,0.035
2013-06-11,0.035,0.035,0.035,0.035,200000,0.035
2013-06-10,0.035,0.035,0.035,0.035,000,0.035
2013-06-07,0.035,0.035,0.035,0.035,000,0.035
2013-06-06,0.035,0.035,0.035,0.035,200000,0.035
2013-06-05,0.033,0.033,0.033,0.033,000,0.033
2013-06-04,0.035,0.035,0.033,0.033,99700,0.033
2013-06-03,0.035,0.035,0.035,0.035,200000,0.035
2013-05-31,0.035,0.035,0.035,0.035,200000,0.035
2013-05-30,0.03,0.03,0.03,0.03,000,0.03
2013-05-29,0.03,0.03,0.03,0.03,100000,0.03
2013-05-28,0.03,0.03,0.03,0.03,000,0.03
2013-05-27,0.03,0.03,0.03,0.03,000,0.03
2013-05-24,0.035,0.035,0.03,0.03,600000,0.03
2013-05-23,0.043,0.043,0.043,0.043,000,0.043
2013-05-22,0.043,0.043,0.043,0.043,610200,0.043
2013-05-21,0.043,0.043,0.043,0.043,000,0.043
2013-05-20,0.043,0.043,0.043,0.043,100900,0.043
2013-05-17,0.04,0.043,0.04,0.043,288800,0.043
2013-05-16,0.04,0.043,0.04,0.04,251100,0.04
2013-05-15,0.04,0.04,0.04,0.04,168800,0.04
2013-05-14,0.062,0.062,0.062,0.062,000,0.062
2013-05-13,0.062,0.062,0.062,0.062,000,0.062
2013-05-10,0.062,0.062,0.062,0.062,000,0.062
2013-05-09,0.062,0.062,0.062,0.062,000,0.062
2013-05-08,0.062,0.062,0.062,0.062,000,0.062
2013-05-07,0.062,0.062,0.062,0.062,000,0.062
2013-05-06,0.062,0.062,0.062,0.062,000,0.062
2013-05-03,0.062,0.062,0.062,0.062,000,0.062
2013-05-02,0.062,0.062,0.062,0.062,000,0.062
2013-05-01,0.062,0.062,0.062,0.062,000,0.062
2013-04-30,0.062,0.062,0.062,0.062,000,0.062
2013-04-29,0.062,0.062,0.062,0.062,000,0.062
2013-04-26,0.062,0.062,0.062,0.062,40000,0.062
2013-04-25,0.065,0.065,0.065,0.065,000,0.065
2013-04-24,0.065,0.065,0.065,0.065,000,0.065
2013-04-23,0.065,0.065,0.065,0.065,000,0.065
2013-04-22,0.065,0.065,0.065,0.065,000,0.065
2013-04-19,0.063,0.065,0.063,0.065,106300,0.065
2013-04-18,0.06,0.06,0.06,0.06,115400,0.06
2013-04-17,0.06,0.06,0.06,0.06,000,0.06
2013-04-16,0.06,0.06,0.06,0.06,11200,0.06
2013-04-15,0.07,0.07,0.07,0.07,000,0.07
2013-04-12,0.07,0.07,0.07,0.07,000,0.07
2013-04-11,0.07,0.07,0.07,0.07,515400,0.07
2013-04-10,0.07,0.07,0.07,0.07,499300,0.07
2013-04-09,0.07,0.07,0.07,0.07,413600,0.07
2013-04-08,0.078,0.078,0.078,0.078,10000,0.078
2013-04-05,0.079,0.08,0.079,0.08,110000,0.08
2013-04-04,0.08,0.08,0.08,0.08,250000,0.08
2013-04-03,0.08,0.08,0.08,0.08,140000,0.08
2013-04-02,0.075,0.08,0.075,0.08,827500,0.08
2013-04-01,0.065,0.065,0.065,0.065,000,0.065
2013-03-29,0.065,0.065,0.065,0.065,000,0.065
2013-03-28,0.065,0.065,0.065,0.065,30000,0.065
2013-03-27,0.06,0.06,0.06,0.06,49500,0.06
2013-03-26,0.07,0.07,0.07,0.07,000,0.07
2013-03-25,0.07,0.07,0.07,0.07,000,0.07
2013-03-22,0.07,0.07,0.07,0.07,000,0.07
2013-03-21,0.07,0.07,0.07,0.07,000,0.07
2013-03-20,0.07,0.07,0.07,0.07,000,0.07
2013-03-19,0.07,0.07,0.07,0.07,000,0.07
2013-03-18,0.07,0.07,0.07,0.07,000,0.07
2013-03-15,0.07,0.07,0.07,0.07,000,0.07
2013-03-14,0.07,0.07,0.07,0.07,000,0.07
2013-03-13,0.07,0.07,0.07,0.07,000,0.07
2013-03-12,0.07,0.07,0.07,0.07,000,0.07
2013-03-11,0.07,0.07,0.07,0.07,000,0.07
2013-03-08,0.07,0.07,0.07,0.07,000,0.07
2013-03-07,0.07,0.07,0.07,0.07,000,0.07
2013-03-06,0.07,0.07,0.07,0.07,000,0.07
2013-03-05,0.07,0.07,0.07,0.07,000,0.07
2013-03-04,0.07,0.07,0.07,0.07,000,0.07
2013-03-01,0.07,0.07,0.07,0.07,000,0.07
2013-02-28,0.07,0.07,0.07,0.07,156300,0.07
2013-02-27,0.071,0.071,0.07,0.07,232200,0.07
2013-02-26,0.075,0.075,0.075,0.075,000,0.075
2013-02-25,0.075,0.075,0.075,0.075,000,0.075
2013-02-22,0.075,0.075,0.075,0.075,209500,0.075
2013-02-21,0.071,0.071,0.071,0.071,000,0.071
2013-02-20,0.071,0.071,0.071,0.071,000,0.071
2013-02-19,0.071,0.071,0.071,0.071,10000,0.071
2013-02-18,0.08,0.08,0.08,0.08,000,0.08
2013-02-15,0.08,0.08,0.08,0.08,25500,0.08
2013-02-14,0.08,0.08,0.08,0.08,29400,0.08
2013-02-13,0.08,0.08,0.08,0.08,000,0.08
2013-02-12,0.08,0.08,0.08,0.08,150000,0.08
2013-02-11,0.08,0.08,0.08,0.08,30500,0.08
2013-02-08,0.095,0.095,0.095,0.095,000,0.095
2013-02-07,0.095,0.095,0.095,0.095,000,0.095
2013-02-06,0.095,0.095,0.095,0.095,000,0.095
2013-02-05,0.095,0.095,0.095,0.095,000,0.095
2013-02-04,0.095,0.095,0.095,0.095,000,0.095
2013-02-01,0.095,0.095,0.095,0.095,000,0.095
2013-01-31,0.095,0.095,0.095,0.095,000,0.095
2013-01-30,0.095,0.095,0.095,0.095,000,0.095
2013-01-29,0.095,0.095,0.095,0.095,000,0.095
2013-01-28,0.095,0.095,0.095,0.095,000,0.095
2013-01-25,0.095,0.095,0.095,0.095,000,0.095
2013-01-24,0.095,0.095,0.095,0.095,000,0.095
2013-01-22,0.095,0.095,0.095,0.095,000,0.095
2013-01-21,0.095,0.095,0.095,0.095,50000,0.095
2013-01-18,0.09,0.09,0.09,0.09,000,0.09
2013-01-17,0.09,0.09,0.09,0.09,000,0.09
2013-01-16,0.09,0.09,0.09,0.09,000,0.09
2013-01-15,0.09,0.09,0.09,0.09,000,0.09
2013-01-14,0.09,0.09,0.09,0.09,000,0.09
2013-01-11,0.09,0.09,0.09,0.09,10500,0.09
2013-01-10,0.10,0.10,0.09,0.09,209100,0.09
2013-01-09,0.10,0.10,0.10,0.10,000,0.10
2013-01-08,0.10,0.10,0.10,0.10,000,0.10
2013-01-07,0.11,0.115,0.10,0.10,46300,0.10
2013-01-04,0.115,0.115,0.115,0.115,000,0.115
2013-01-03,0.115,0.115,0.115,0.115,000,0.115
2013-01-02,0.115,0.115,0.115,0.115,000,0.115
2013-01-01,0.115,0.115,0.115,0.115,000,0.115
2012-12-31,0.115,0.115,0.115,0.115,000,0.115
2012-12-28,0.115,0.115,0.115,0.115,000,0.115
2012-12-27,0.115,0.115,0.115,0.115,10000,0.115
2012-12-26,0.11,0.11,0.11,0.11,000,0.11
2012-12-25,0.11,0.11,0.11,0.11,000,0.11
2012-12-24,0.11,0.11,0.11,0.11,000,0.11
2012-12-21,0.11,0.11,0.11,0.11,000,0.11
2012-12-20,0.11,0.11,0.11,0.11,000,0.11
2012-12-19,0.11,0.11,0.11,0.11,000,0.11
2012-12-18,0.11,0.11,0.11,0.11,000,0.11
2012-12-17,0.11,0.11,0.11,0.11,000,0.11
2012-12-14,0.11,0.11,0.11,0.11,000,0.11
2012-12-13,0.11,0.11,0.11,0.11,000,0.11
2012-12-12,0.11,0.11,0.11,0.11,000,0.11
2012-12-11,0.11,0.11,0.11,0.11,000,0.11
2012-12-10,0.11,0.11,0.11,0.11,000,0.11
2012-12-07,0.11,0.11,0.11,0.11,10000,0.11
2012-12-06,0.11,0.11,0.11,0.11,000,0.11
2012-12-05,0.11,0.11,0.11,0.11,000,0.11
2012-12-04,0.11,0.11,0.11,0.11,000,0.11
2012-12-03,0.10,0.11,0.10,0.11,152900,0.11
2012-11-30,0.09,0.09,0.09,0.09,000,0.09
2012-11-29,0.08,0.09,0.08,0.09,745400,0.09
2012-11-28,0.10,0.10,0.10,0.10,000,0.10
2012-11-27,0.10,0.10,0.10,0.10,000,0.10
2012-11-26,0.10,0.10,0.10,0.10,000,0.10
2012-11-23,0.10,0.10,0.10,0.10,000,0.10
2012-11-22,0.10,0.10,0.10,0.10,000,0.10
2012-11-21,0.10,0.10,0.10,0.10,000,0.10
2012-11-20,0.10,0.10,0.10,0.10,000,0.10
2012-11-19,0.10,0.10,0.10,0.10,000,0.10
2012-11-16,0.10,0.10,0.10,0.10,000,0.10
2012-11-15,0.10,0.10,0.10,0.10,98000,0.10
2012-11-14,0.11,0.11,0.11,0.11,000,0.11
2012-11-13,0.11,0.11,0.11,0.11,000,0.11
2012-11-12,0.11,0.11,0.11,0.11,000,0.11
2012-11-09,0.11,0.11,0.11,0.11,000,0.11
2012-11-08,0.11,0.11,0.11,0.11,000,0.11
2012-11-07,0.11,0.11,0.11,0.11,000,0.11
2012-11-06,0.11,0.11,0.11,0.11,000,0.11
2012-11-05,0.11,0.11,0.11,0.11,000,0.11
2012-11-02,0.11,0.11,0.11,0.11,000,0.11
2012-11-01,0.115,0.115,0.11,0.11,69100,0.11
2012-10-31,0.11,0.11,0.11,0.11,40800,0.11
2012-10-30,0.10,0.10,0.10,0.10,000,0.10
2012-10-29,0.10,0.11,0.10,0.11,56300,0.11
2012-10-26,0.10,0.10,0.10,0.10,10000,0.10
2012-10-25,0.105,0.11,0.105,0.11,105000,0.11
2012-10-24,0.11,0.11,0.11,0.11,89700,0.11
2012-10-23,0.11,0.11,0.11,0.11,60200,0.11
2012-10-22,0.115,0.115,0.115,0.115,13000,0.115
2012-10-19,0.12,0.12,0.12,0.12,25000,0.12
2012-10-18,0.11,0.11,0.11,0.11,000,0.11
2012-10-17,0.11,0.11,0.11,0.11,000,0.11
2012-10-16,0.11,0.11,0.11,0.11,100000,0.11
2012-10-15,0.11,0.11,0.11,0.11,000,0.11
2012-10-12,0.11,0.11,0.11,0.11,000,0.11
2012-10-11,0.11,0.11,0.11,0.11,000,0.11
2012-10-10,0.11,0.11,0.11,0.11,000,0.11
2012-10-09,0.11,0.11,0.11,0.11,000,0.11
2012-10-08,0.11,0.11,0.11,0.11,000,0.11
2012-10-05,0.11,0.11,0.11,0.11,000,0.11
2012-10-04,0.11,0.11,0.11,0.11,000,0.11
2012-10-03,0.11,0.11,0.11,0.11,000,0.11
2012-10-02,0.11,0.11,0.11,0.11,000,0.11
2012-10-01,0.11,0.11,0.11,0.11,000,0.11
2012-09-28,0.11,0.11,0.11,0.11,000,0.11
2012-09-27,0.11,0.11,0.11,0.11,000,0.11
2012-09-26,0.11,0.11,0.11,0.11,000,0.11
2012-09-25,0.11,0.11,0.11,0.11,000,0.11
2012-09-24,0.11,0.11,0.11,0.11,000,0.11
2012-09-21,0.11,0.11,0.11,0.11,000,0.11
2012-09-20,0.11,0.11,0.11,0.11,000,0.11
2012-09-19,0.11,0.11,0.11,0.11,000,0.11
2012-09-18,0.11,0.11,0.11,0.11,000,0.11
2012-09-17,0.11,0.11,0.11,0.11,000,0.11
2012-09-14,0.11,0.11,0.11,0.11,000,0.11
2012-09-13,0.11,0.11,0.11,0.11,000,0.11
2012-09-12,0.11,0.11,0.11,0.11,000,0.11
2012-09-11,0.11,0.11,0.11,0.11,27000,0.11
2012-09-10,0.11,0.11,0.11,0.11,000,0.11
2012-09-07,0.11,0.11,0.11,0.11,5000,0.11
2012-09-06,0.11,0.11,0.11,0.11,000,0.11
2012-09-05,0.10,0.11,0.10,0.11,217900,0.11
2012-09-04,0.115,0.115,0.115,0.115,000,0.115
2012-09-03,0.115,0.115,0.115,0.115,000,0.115
2012-08-31,0.115,0.115,0.115,0.115,000,0.115
2012-08-30,0.115,0.115,0.115,0.115,000,0.115
2012-08-29,0.115,0.115,0.115,0.115,000,0.115
2012-08-28,0.115,0.115,0.115,0.115,000,0.115
2012-08-27,0.115,0.115,0.115,0.115,000,0.115
2012-08-24,0.115,0.115,0.115,0.115,000,0.115
2012-08-23,0.115,0.115,0.115,0.115,000,0.115
2012-08-22,0.115,0.115,0.115,0.115,000,0.115
2012-08-21,0.115,0.115,0.115,0.115,000,0.115
2012-08-20,0.115,0.115,0.115,0.115,000,0.115
2012-08-17,0.115,0.115,0.115,0.115,000,0.115
2012-08-16,0.115,0.115,0.115,0.115,000,0.115
2012-08-15,0.115,0.115,0.115,0.115,000,0.115
2012-08-14,0.115,0.115,0.115,0.115,000,0.115
2012-08-13,0.115,0.115,0.115,0.115,50000,0.115
2012-08-10,0.12,0.12,0.115,0.115,54000,0.115
2012-08-09,0.12,0.12,0.12,0.12,20000,0.12
2012-08-08,0.12,0.12,0.12,0.12,50000,0.12
2012-08-07,0.12,0.12,0.12,0.12,000,0.12
2012-08-06,0.12,0.12,0.12,0.12,000,0.12
2012-08-03,0.12,0.12,0.12,0.12,50000,0.12
2012-08-02,0.12,0.12,0.12,0.12,000,0.12
2012-08-01,0.12,0.12,0.12,0.12,000,0.12
2012-07-31,0.12,0.12,0.12,0.12,000,0.12
2012-07-30,0.115,0.12,0.115,0.12,120900,0.12
2012-07-27,0.10,0.10,0.10,0.10,000,0.10
2012-07-26,0.10,0.10,0.10,0.10,000,0.10
2012-07-25,0.10,0.10,0.10,0.10,66000,0.10
2012-07-24,0.11,0.11,0.11,0.11,000,0.11
2012-07-23,0.11,0.11,0.11,0.11,000,0.11
2012-07-20,0.11,0.11,0.11,0.11,000,0.11
2012-07-19,0.11,0.11,0.11,0.11,000,0.11
2012-07-18,0.11,0.11,0.11,0.11,000,0.11
2012-07-17,0.11,0.11,0.11,0.11,000,0.11
2012-07-16,0.11,0.11,0.11,0.11,000,0.11
2012-07-13,0.11,0.11,0.11,0.11,93000,0.11
2012-07-12,0.11,0.11,0.11,0.11,6900,0.11
2012-07-11,0.11,0.11,0.11,0.11,000,0.11
2012-07-10,0.115,0.115,0.11,0.11,64800,0.11
2012-07-09,0.115,0.115,0.115,0.115,000,0.115
2012-07-06,0.115,0.115,0.115,0.115,50000,0.115
2012-07-05,0.105,0.105,0.105,0.105,17900,0.105
2012-07-04,0.105,0.105,0.105,0.105,32000,0.105
2012-07-03,0.105,0.105,0.105,0.105,000,0.105
2012-07-02,0.105,0.105,0.105,0.105,000,0.105
2012-06-29,0.105,0.105,0.105,0.105,000,0.105
2012-06-28,0.105,0.105,0.105,0.105,000,0.105
2012-06-27,0.105,0.105,0.105,0.105,000,0.105
2012-06-26,0.105,0.105,0.105,0.105,90900,0.105
2012-06-25,0.115,0.115,0.115,0.115,27000,0.115
2012-06-22,0.115,0.115,0.115,0.115,000,0.115
2012-06-21,0.115,0.115,0.115,0.115,181800,0.115
2012-06-20,0.115,0.115,0.115,0.115,000,0.115
2012-06-19,0.115,0.115,0.115,0.115,000,0.115
2012-06-18,0.12,0.12,0.115,0.115,80000,0.115
2012-06-15,0.145,0.145,0.145,0.145,000,0.145
2012-06-14,0.145,0.145,0.145,0.145,000,0.145
2012-06-13,0.145,0.145,0.145,0.145,000,0.145
2012-06-12,0.145,0.145,0.145,0.145,000,0.145
2012-06-11,0.145,0.145,0.145,0.145,000,0.145
2012-06-08,0.145,0.145,0.145,0.145,000,0.145
2012-06-07,0.145,0.145,0.145,0.145,000,0.145
2012-06-06,0.145,0.145,0.145,0.145,000,0.145
2012-06-05,0.145,0.145,0.145,0.145,000,0.145
2012-06-04,0.145,0.145,0.145,0.145,000,0.145
2012-06-01,0.145,0.145,0.145,0.145,000,0.145
2012-05-31,0.145,0.145,0.145,0.145,000,0.145
2012-05-30,0.145,0.145,0.145,0.145,000,0.145
2012-05-29,0.145,0.145,0.145,0.145,1000000,0.145
2012-05-28,0.15,0.15,0.15,0.15,507000,0.15
2012-05-25,0.145,0.145,0.145,0.145,000,0.145
2012-05-24,0.145,0.145,0.145,0.145,000,0.145
2012-05-23,0.145,0.145,0.145,0.145,000,0.145
2012-05-22,0.145,0.145,0.145,0.145,000,0.145
2012-05-21,0.145,0.145,0.145,0.145,000,0.145
2012-05-18,0.145,0.145,0.145,0.145,000,0.145
2012-05-17,0.145,0.145,0.145,0.145,000,0.145
2012-05-16,0.145,0.145,0.145,0.145,000,0.145
2012-05-15,0.15,0.15,0.145,0.145,170000,0.145
2012-05-14,0.165,0.165,0.165,0.165,000,0.165
2012-05-11,0.165,0.165,0.165,0.165,000,0.165
2012-05-10,0.165,0.165,0.165,0.165,000,0.165
2012-05-09,0.16,0.165,0.16,0.165,93000,0.165
2012-05-08,0.16,0.16,0.16,0.16,000,0.16
2012-05-07,0.16,0.16,0.16,0.16,20000,0.16
2012-05-04,0.16,0.16,0.16,0.16,125000,0.16
2012-05-03,0.165,0.165,0.165,0.165,000,0.165
2012-05-02,0.165,0.165,0.165,0.165,50000,0.165
2012-05-01,0.16,0.16,0.16,0.16,000,0.16
2012-04-30,0.16,0.16,0.16,0.16,000,0.16
2012-04-27,0.16,0.16,0.16,0.16,1000000,0.16
2012-04-26,0.17,0.17,0.16,0.16,200000,0.16
2012-04-25,0.175,0.175,0.175,0.175,000,0.175
2012-04-24,0.175,0.175,0.175,0.175,000,0.175
2012-04-23,0.17,0.175,0.165,0.175,212000,0.175
2012-04-20,0.17,0.17,0.17,0.17,000,0.17
2012-04-19,0.17,0.17,0.17,0.17,177200,0.17
2012-04-18,0.175,0.175,0.175,0.175,000,0.175
2012-04-17,0.17,0.175,0.17,0.175,150000,0.175
2012-04-16,0.19,0.19,0.19,0.19,000,0.19
2012-04-13,0.19,0.19,0.19,0.19,000,0.19
2012-04-12,0.19,0.19,0.19,0.19,000,0.19
2012-04-11,0.19,0.19,0.19,0.19,000,0.19
2012-04-10,0.19,0.19,0.19,0.19,18900,0.19
2012-04-09,0.20,0.20,0.20,0.20,000,0.20
2012-04-06,0.20,0.20,0.20,0.20,000,0.20
2012-04-05,0.19,0.20,0.19,0.20,156200,0.20
2012-04-04,0.18,0.19,0.18,0.19,63700,0.19
2012-04-03,0.18,0.18,0.175,0.18,91400,0.18
2012-04-02,0.165,0.175,0.165,0.175,272700,0.175
2012-03-30,0.18,0.18,0.18,0.18,000,0.18
2012-03-29,0.18,0.18,0.18,0.18,000,0.18
2012-03-28,0.18,0.18,0.18,0.18,16400,0.18
2012-03-27,0.18,0.18,0.18,0.18,000,0.18
2012-03-26,0.185,0.185,0.18,0.18,10000,0.18
2012-03-23,0.185,0.185,0.185,0.185,570000,0.185
2012-03-22,0.185,0.185,0.185,0.185,000,0.185
2012-03-21,0.185,0.185,0.185,0.185,340900,0.185
2012-03-20,0.175,0.175,0.175,0.175,000,0.175
2012-03-19,0.18,0.18,0.175,0.175,61900,0.175
2012-03-16,0.18,0.18,0.18,0.18,681800,0.18
2012-03-15,0.185,0.185,0.185,0.185,000,0.185
2012-03-14,0.19,0.19,0.185,0.185,100000,0.185
2012-03-13,0.19,0.19,0.19,0.19,000,0.19
2012-03-12,0.205,0.205,0.19,0.19,308500,0.19
2012-03-09,0.19,0.19,0.17,0.19,834900,0.19
2012-03-08,0.19,0.19,0.19,0.19,129800,0.19
2012-03-07,0.21,0.21,0.21,0.21,000,0.21
2012-03-06,0.205,0.205,0.205,0.205,50000,0.205
2012-03-05,0.21,0.21,0.21,0.21,111000,0.21
2012-03-02,0.21,0.21,0.21,0.21,000,0.21
2012-03-01,0.21,0.21,0.21,0.21,402900,0.21
2012-02-29,0.21,0.21,0.205,0.205,191000,0.205
2012-02-28,0.21,0.21,0.21,0.21,73400,0.21
2012-02-27,0.21,0.21,0.205,0.205,180500,0.205
2012-02-24,0.205,0.21,0.20,0.21,381400,0.21
2012-02-23,0.20,0.205,0.20,0.205,51900,0.205
2012-02-22,0.21,0.215,0.20,0.20,902300,0.20
2012-02-21,0.215,0.215,0.20,0.21,586400,0.21
2012-02-20,0.22,0.22,0.21,0.21,130000,0.21
2012-02-17,0.21,0.22,0.21,0.21,216300,0.21
2012-02-16,0.21,0.215,0.205,0.215,100000,0.215
2012-02-15,0.195,0.21,0.195,0.21,550000,0.21
2012-02-14,0.20,0.20,0.20,0.20,200000,0.20
2012-02-13,0.19,0.205,0.19,0.205,57700,0.205
2012-02-10,0.205,0.21,0.205,0.205,125000,0.205
2012-02-09,0.205,0.22,0.205,0.21,380800,0.21
2012-02-08,0.215,0.215,0.21,0.21,313400,0.21
2012-02-07,0.205,0.23,0.205,0.22,416500,0.22
2012-02-06,0.185,0.205,0.185,0.205,446700,0.205
2012-02-03,0.185,0.185,0.18,0.18,225000,0.18
2012-02-02,0.18,0.19,0.18,0.19,1297100,0.19
2012-02-01,0.16,0.16,0.16,0.16,000,0.16
2012-01-31,0.16,0.16,0.16,0.16,000,0.16
2012-01-30,0.175,0.175,0.16,0.16,60800,0.16
2012-01-27,0.175,0.175,0.175,0.175,000,0.175
2012-01-26,0.175,0.175,0.175,0.175,000,0.175
2012-01-25,0.175,0.175,0.175,0.175,52000,0.175
2012-01-24,0.18,0.18,0.18,0.18,000,0.18
2012-01-23,0.18,0.18,0.18,0.18,26400,0.18
2012-01-20,0.18,0.18,0.18,0.18,000,0.18
2012-01-19,0.18,0.18,0.18,0.18,000,0.18
2012-01-18,0.175,0.18,0.175,0.18,148300,0.18
2012-01-17,0.185,0.195,0.18,0.18,411300,0.18
2012-01-16,0.185,0.185,0.185,0.185,2700,0.185
2012-01-13,0.17,0.17,0.17,0.17,000,0.17
2012-01-12,0.17,0.17,0.17,0.17,000,0.17
2012-01-11,0.18,0.18,0.17,0.17,206800,0.17
2012-01-10,0.18,0.18,0.18,0.18,27100,0.18
2012-01-09,0.185,0.185,0.185,0.185,3800,0.185
2012-01-06,0.19,0.19,0.19,0.19,000,0.19
2012-01-05,0.19,0.19,0.19,0.19,000,0.19
2012-01-04,0.185,0.19,0.185,0.19,62400,0.19
2012-01-03,0.17,0.17,0.17,0.17,000,0.17
2012-01-02,0.17,0.17,0.17,0.17,000,0.17
2011-12-30,0.17,0.17,0.17,0.17,120000,0.17
2011-12-29,0.19,0.20,0.19,0.20,50000,0.20
2011-12-28,0.17,0.17,0.17,0.17,000,0.17
2011-12-27,0.17,0.17,0.17,0.17,000,0.17
2011-12-26,0.17,0.17,0.17,0.17,000,0.17
2011-12-23,0.16,0.19,0.15,0.19,325000,0.19
2011-12-22,0.17,0.17,0.17,0.17,000,0.17
2011-12-21,0.17,0.17,0.17,0.17,000,0.17
2011-12-20,0.175,0.175,0.17,0.17,55000,0.17
2011-12-19,0.185,0.185,0.17,0.17,320400,0.17
2011-12-16,0.185,0.19,0.185,0.185,580000,0.185
2011-12-15,0.185,0.185,0.185,0.185,250000,0.185
2011-12-14,0.185,0.185,0.185,0.185,203100,0.185
2011-12-13,0.18,0.185,0.18,0.185,138200,0.185
2011-12-12,0.185,0.185,0.18,0.18,266000,0.18
2011-12-09,0.20,0.20,0.20,0.20,000,0.20
2011-12-08,0.205,0.205,0.20,0.20,125000,0.20
2011-12-07,0.19,0.22,0.19,0.19,700000,0.19
2011-12-06,0.22,0.22,0.22,0.22,000,0.22
2011-12-05,0.22,0.22,0.22,0.22,000,0.22
2011-12-02,0.22,0.22,0.22,0.22,000,0.22
2011-12-01,0.22,0.22,0.22,0.22,000,0.22
2011-11-30,0.22,0.22,0.22,0.22,000,0.22
2011-11-29,0.22,0.22,0.22,0.22,000,0.22
2011-11-28,0.22,0.22,0.22,0.22,000,0.22
2011-11-25,0.22,0.22,0.22,0.22,000,0.22
2011-11-24,0.22,0.22,0.22,0.22,000,0.22
2011-11-23,0.22,0.22,0.22,0.22,000,0.22
2011-11-22,0.22,0.22,0.22,0.22,000,0.22
2011-11-21,0.22,0.22,0.22,0.22,000,0.22
2011-11-18,0.22,0.22,0.22,0.22,000,0.22
2011-11-17,0.22,0.22,0.22,0.22,000,0.22
2011-11-04,0.23,0.23,0.22,0.22,67000,0.22
2011-10-28,0.26,0.26,0.26,0.26,2500,0.26
2011-10-27,0.25,0.25,0.25,0.25,000,0.25
2011-10-26,0.25,0.25,0.25,0.25,99900,0.25
2011-10-25,0.25,0.26,0.25,0.26,175000,0.26
2011-10-24,0.27,0.28,0.26,0.26,115000,0.26
2011-10-20,0.23,0.23,0.23,0.23,40000,0.23
2011-10-19,0.22,0.23,0.21,0.23,150000,0.23
2011-10-18,0.24,0.24,0.23,0.23,30000,0.23
2011-10-17,0.23,0.24,0.22,0.24,100000,0.24
2011-10-12,0.23,0.23,0.23,0.23,20000,0.23
2011-10-11,0.23,0.25,0.23,0.23,191000,0.23
2011-10-10,0.21,0.22,0.21,0.22,9900,0.22
2011-10-06,0.22,0.22,0.22,0.22,55000,0.22
2011-10-05,0.22,0.24,0.22,0.24,91000,0.24
2011-09-28,0.25,0.25,0.25,0.25,140000,0.25
2011-09-27,0.23,0.25,0.20,0.25,259900,0.25
2011-09-20,0.23,0.23,0.23,0.23,10000,0.23
2011-09-14,0.23,0.23,0.23,0.23,2500,0.23
2011-09-13,0.23,0.23,0.23,0.23,2000,0.23
2011-09-12,0.23,0.23,0.23,0.23,7400,0.23
2011-09-09,0.20,0.23,0.20,0.23,52500,0.23
2011-08-30,0.20,0.20,0.20,0.20,10000,0.20
2011-08-25,0.20,0.20,0.20,0.20,25000,0.20
2011-08-24,0.20,0.20,0.20,0.20,25000,0.20
2011-07-18,0.20,0.20,0.20,0.20,100000,0.20
2011-07-13,0.205,0.205,0.20,0.20,100000,0.20
2011-07-06,0.205,0.205,0.205,0.205,25000,0.205
2011-06-28,0.20,0.20,0.20,0.20,70000,0.20
2011-06-27,0.20,0.20,0.20,0.20,10000,0.20
2011-06-24,0.20,0.20,0.20,0.20,10000,0.20
2011-06-20,0.20,0.20,0.20,0.20,10000,0.20
2011-06-16,0.21,0.21,0.20,0.20,140000,0.20
2011-06-15,0.205,0.205,0.205,0.205,25000,0.205
2011-06-08,0.21,0.21,0.21,0.21,100000,0.21
2011-06-07,0.21,0.21,0.21,0.21,10000,0.21
2011-06-02,0.21,0.21,0.21,0.21,10000,0.21
2011-06-01,0.21,0.21,0.21,0.21,10000,0.21
2011-05-31,0.21,0.21,0.21,0.21,20000,0.21
2011-05-25,0.205,0.205,0.205,0.205,38900,0.205
2011-05-18,0.205,0.205,0.205,0.205,50000,0.205
2011-05-17,0.205,0.205,0.205,0.205,25000,0.205
2011-05-09,0.225,0.225,0.225,0.225,10000,0.225
2011-05-06,0.21,0.21,0.21,0.21,20000,0.21
2011-05-05,0.25,0.26,0.25,0.26,60000,0.26
2011-05-04,0.22,0.22,0.22,0.22,900,0.22
2011-05-03,0.205,0.205,0.205,0.205,20000,0.205
2011-05-02,0.22,0.22,0.215,0.215,95000,0.215
2011-04-29,0.23,0.23,0.22,0.22,50000,0.22
2011-04-20,0.25,0.25,0.25,0.25,54900,0.25
2011-04-15,0.25,0.25,0.25,0.25,5000,0.25
2011-04-14,0.24,0.25,0.24,0.25,99900,0.25
2011-04-13,0.23,0.23,0.23,0.23,25000,0.23
2011-04-11,0.215,0.24,0.215,0.24,60000,0.24
2011-04-06,0.21,0.21,0.21,0.21,70000,0.21
2011-03-29,0.21,0.21,0.20,0.20,57000,0.20
2011-03-15,0.23,0.23,0.21,0.21,25000,0.21
2011-03-10,0.28,0.28,0.28,0.28,10000,0.28
2011-03-09,0.285,0.285,0.28,0.285,72500,0.285
2011-03-07,0.285,0.285,0.28,0.28,15000,0.28
2011-03-02,0.285,0.285,0.285,0.285,10500,0.285
2011-03-01,0.31,0.31,0.31,0.31,9500,0.31
2011-02-23,0.31,0.31,0.31,0.31,66000,0.31
2011-02-22,0.335,0.335,0.33,0.33,18000,0.33
2011-02-21,0.33,0.33,0.33,0.33,10000,0.33
2011-02-18,0.34,0.34,0.34,0.34,10000,0.34
2011-02-16,0.38,0.38,0.38,0.38,14000,0.38
2011-02-15,0.36,0.36,0.36,0.36,35000,0.36
2011-02-10,0.33,0.34,0.33,0.335,95000,0.335
2011-02-08,0.29,0.30,0.29,0.30,45000,0.30
2011-02-03,0.27,0.27,0.27,0.27,10000,0.27
2011-01-24,0.25,0.25,0.25,0.25,40000,0.25
2010-12-20,0.27,0.27,0.27,0.27,9300,0.27
2010-12-17,0.275,0.275,0.27,0.27,10000,0.27
2010-12-16,0.27,0.27,0.27,0.27,18600,0.27
2010-12-08,0.25,0.25,0.25,0.25,33100,0.25
2010-12-07,0.22,0.25,0.22,0.25,110500,0.25
2010-12-02,0.225,0.225,0.22,0.22,27200,0.22
2010-11-29,0.22,0.22,0.22,0.22,30000,0.22
2010-11-26,0.22,0.22,0.22,0.22,18200,0.22
2010-11-25,0.215,0.215,0.215,0.215,20000,0.215
2010-11-18,0.215,0.215,0.21,0.21,75000,0.21
2010-11-16,0.22,0.22,0.22,0.22,60200,0.22
2010-11-15,0.22,0.22,0.22,0.22,4700,0.22
2010-11-11,0.22,0.22,0.22,0.22,45200,0.22
2010-11-10,0.22,0.22,0.215,0.215,54700,0.215
2010-11-09,0.225,0.225,0.22,0.22,110000,0.22
2010-11-05,0.22,0.23,0.22,0.22,60000,0.22
2010-11-04,0.22,0.22,0.22,0.22,100000,0.22
2010-11-02,0.205,0.205,0.205,0.205,39200,0.205
2010-11-01,0.205,0.205,0.20,0.20,51000,0.20
2010-10-28,0.21,0.21,0.205,0.205,20000,0.205
2010-10-27,0.205,0.21,0.205,0.21,119200,0.21
2010-10-26,0.21,0.21,0.21,0.21,10200,0.21
2010-10-25,0.21,0.215,0.21,0.21,165500,0.21
2010-10-22,0.21,0.21,0.21,0.21,49500,0.21
2010-10-21,0.22,0.22,0.22,0.22,10500,0.22
2010-10-20,0.25,0.25,0.22,0.22,90000,0.22
