Date,Open,High,Low,Close,Volume,Adj Close
2017-01-10,0.335,0.36,0.33,0.36,763300,0.36
2017-01-09,0.38,0.385,0.33,0.34,595900,0.34
2017-01-06,0.42,0.43,0.365,0.365,1056100,0.365
2017-01-05,0.415,0.43,0.405,0.405,143300,0.405
2017-01-04,0.40,0.435,0.395,0.405,219900,0.405
2017-01-03,0.375,0.395,0.365,0.395,10800,0.395
2017-01-02,0.385,0.385,0.385,0.385,000,0.385
2016-12-30,0.355,0.385,0.355,0.385,51400,0.385
2016-12-29,0.345,0.375,0.34,0.37,159900,0.37
2016-12-28,0.36,0.375,0.34,0.34,242500,0.34
2016-12-27,0.36,0.36,0.36,0.36,000,0.36
2016-12-26,0.36,0.36,0.36,0.36,000,0.36
2016-12-23,0.38,0.38,0.355,0.36,172100,0.36
2016-12-22,0.43,0.43,0.37,0.375,323000,0.375
2016-12-21,0.38,0.385,0.355,0.385,228100,0.385
2016-12-20,0.40,0.405,0.375,0.385,184800,0.385
2016-12-19,0.40,0.40,0.37,0.37,132100,0.37
2016-12-16,0.40,0.40,0.40,0.40,66500,0.40
2016-12-15,0.40,0.425,0.395,0.40,140200,0.40
2016-12-14,0.42,0.42,0.38,0.395,975000,0.395
2016-12-13,0.445,0.445,0.415,0.415,351000,0.415
2016-12-12,0.475,0.48,0.415,0.44,795900,0.44
2016-12-09,0.46,0.485,0.44,0.465,484600,0.465
2016-12-08,0.46,0.49,0.44,0.46,788900,0.46
2016-12-07,0.41,0.46,0.41,0.45,559900,0.45
2016-12-06,0.44,0.44,0.41,0.42,479900,0.42
2016-12-05,0.46,0.47,0.42,0.435,1292100,0.435
2016-12-02,0.45,0.475,0.435,0.46,1068800,0.46
2016-12-01,0.42,0.47,0.40,0.46,976400,0.46
2016-11-30,0.44,0.44,0.40,0.40,859600,0.40
2016-11-29,0.45,0.45,0.395,0.44,3002700,0.44
2016-11-28,0.46,0.49,0.44,0.45,1840700,0.45
2016-11-25,0.55,0.555,0.455,0.47,5411500,0.47
2016-11-24,0.485,0.55,0.47,0.545,3832200,0.545
2016-11-23,0.39,0.445,0.385,0.445,1697900,0.445
2016-11-22,0.41,0.42,0.38,0.39,2418700,0.39
2016-11-21,0.35,0.395,0.335,0.39,650000,0.39
2016-11-18,0.35,0.37,0.315,0.35,776700,0.35
2016-11-17,0.37,0.375,0.35,0.35,847100,0.35
2016-11-16,0.35,0.385,0.345,0.37,968500,0.37
2016-11-15,0.33,0.34,0.31,0.34,727500,0.34
2016-11-14,0.34,0.345,0.31,0.33,954200,0.33
2016-11-11,0.315,0.345,0.285,0.345,4906200,0.345
2016-11-10,0.265,0.29,0.265,0.28,1851700,0.28
2016-11-09,0.285,0.29,0.235,0.24,3113800,0.24
2016-11-08,0.31,0.31,0.275,0.28,1639500,0.28
2016-11-07,0.30,0.335,0.285,0.30,3796400,0.30
2016-11-04,0.255,0.31,0.25,0.285,6079000,0.285
