Date,Open,High,Low,Close,Volume,Adj Close
2017-01-10,0.585,0.585,0.56,0.58,249700,0.58
2017-01-09,0.565,0.585,0.565,0.585,316300,0.585
2017-01-06,0.55,0.57,0.55,0.555,138400,0.555
2017-01-05,0.55,0.55,0.545,0.55,271100,0.55
2017-01-04,0.545,0.545,0.54,0.54,7800,0.54
2017-01-03,0.54,0.55,0.54,0.545,29200,0.545
2017-01-02,0.55,0.55,0.55,0.55,000,0.55
2016-12-30,0.55,0.57,0.535,0.55,74000,0.55
2016-12-29,0.53,0.55,0.53,0.55,19900,0.55
2016-12-28,0.525,0.54,0.52,0.54,148500,0.54
2016-12-27,0.53,0.53,0.53,0.53,000,0.53
2016-12-26,0.53,0.53,0.53,0.53,000,0.53
2016-12-23,0.54,0.545,0.50,0.53,317000,0.53
2016-12-22,0.535,0.56,0.53,0.555,94400,0.555
2016-12-21,0.55,0.56,0.535,0.55,113000,0.55
2016-12-20,0.55,0.55,0.54,0.54,222900,0.54
2016-12-19,0.55,0.56,0.54,0.54,15800,0.54
2016-12-16,0.54,0.55,0.525,0.55,368300,0.55
2016-12-15,0.54,0.55,0.53,0.54,216300,0.54
2016-12-14,0.56,0.56,0.54,0.55,350400,0.55
2016-12-13,0.565,0.585,0.55,0.565,364600,0.565
2016-12-12,0.54,0.575,0.535,0.55,218400,0.55
2016-12-09,0.52,0.58,0.52,0.53,405000,0.53
2016-12-08,0.545,0.545,0.51,0.52,95000,0.52
2016-12-07,0.53,0.53,0.515,0.53,65900,0.53
2016-12-06,0.525,0.54,0.515,0.53,32100,0.53
2016-12-05,0.52,0.54,0.51,0.54,83200,0.54
2016-12-02,0.51,0.53,0.51,0.52,24100,0.52
2016-12-01,0.52,0.535,0.52,0.53,7034000,0.53
2016-11-30,0.535,0.535,0.515,0.52,195100,0.52
2016-11-29,0.53,0.535,0.525,0.535,52200,0.535
2016-11-28,0.52,0.53,0.52,0.52,108900,0.52
2016-11-25,0.50,0.525,0.50,0.52,71800,0.52
2016-11-24,0.52,0.525,0.50,0.50,40100,0.50
2016-11-23,0.50,0.535,0.50,0.515,192800,0.515
2016-11-22,0.48,0.505,0.48,0.50,558700,0.50
2016-11-21,0.465,0.495,0.465,0.48,98900,0.48
2016-11-18,0.465,0.48,0.465,0.465,74100,0.465
2016-11-17,0.47,0.475,0.465,0.47,531900,0.47
2016-11-16,0.46,0.47,0.46,0.47,582200,0.47
2016-11-15,0.48,0.48,0.465,0.475,1135100,0.475
2016-11-14,0.475,0.49,0.475,0.48,781300,0.48
2016-11-11,0.48,0.485,0.47,0.475,943100,0.475
2016-11-10,0.485,0.50,0.48,0.48,634800,0.48
2016-11-09,0.495,0.50,0.475,0.485,1647700,0.485
2016-11-08,0.52,0.52,0.46,0.47,5661200,0.47
2016-11-07,0.64,0.64,0.62,0.635,60300,0.635
2016-11-04,0.625,0.63,0.615,0.63,50700,0.63
2016-11-03,0.615,0.645,0.61,0.645,118300,0.645
2016-11-02,0.615,0.635,0.61,0.63,411600,0.63
2016-11-01,0.615,0.625,0.605,0.615,107400,0.615
2016-10-31,0.625,0.63,0.615,0.625,63000,0.625
2016-10-28,0.63,0.635,0.63,0.63,425800,0.63
2016-10-27,0.63,0.635,0.62,0.635,198000,0.635
2016-10-26,0.64,0.64,0.63,0.635,599600,0.635
2016-10-25,0.65,0.66,0.63,0.64,411200,0.64
2016-10-24,0.65,0.65,0.635,0.635,92500,0.635
2016-10-21,0.645,0.65,0.63,0.64,2164300,0.64
2016-10-20,0.66,0.66,0.635,0.64,2506300,0.64
2016-10-19,0.635,0.65,0.63,0.64,7447300,0.64
2016-10-18,0.63,0.64,0.63,0.635,523300,0.635
2016-10-17,0.645,0.65,0.62,0.635,463900,0.635
2016-10-14,0.64,0.65,0.635,0.645,191500,0.645
2016-10-13,0.65,0.655,0.625,0.64,541700,0.64
2016-10-12,0.665,0.685,0.66,0.685,1599300,0.657
2016-10-11,0.67,0.67,0.66,0.66,2707600,0.633
2016-10-10,0.67,0.67,0.655,0.66,666200,0.633
2016-10-07,0.69,0.69,0.66,0.68,1448000,0.652
2016-10-06,0.71,0.71,0.69,0.705,43500,0.676
2016-10-05,0.70,0.71,0.70,0.71,57900,0.681
2016-10-04,0.71,0.71,0.68,0.705,26600,0.676
2016-10-03,0.70,0.72,0.655,0.71,58200,0.681
2016-09-30,0.695,0.71,0.65,0.68,408200,0.652
2016-09-29,0.72,0.725,0.685,0.70,517400,0.671
2016-09-28,0.72,0.75,0.705,0.725,849800,0.695
2016-09-27,0.735,0.74,0.72,0.725,157400,0.695
2016-09-26,0.725,0.75,0.725,0.745,40000,0.715
2016-09-23,0.725,0.755,0.725,0.74,343900,0.71
2016-09-22,0.74,0.75,0.725,0.75,216400,0.719
2016-09-21,0.72,0.75,0.715,0.725,247700,0.695
2016-09-20,0.73,0.74,0.71,0.725,1093700,0.695
2016-09-19,0.75,0.75,0.75,0.75,2300,0.719
2016-09-16,0.75,0.75,0.71,0.73,3262300,0.70
2016-09-15,0.75,0.755,0.73,0.74,774600,0.71
2016-09-14,0.75,0.755,0.745,0.75,390400,0.719
2016-09-13,0.75,0.765,0.745,0.745,460600,0.715
2016-09-12,0.745,0.76,0.74,0.75,1079900,0.719
2016-09-09,0.74,0.765,0.73,0.75,1268900,0.719
2016-09-08,0.765,0.765,0.74,0.755,2142600,0.724
2016-09-07,0.73,0.755,0.73,0.75,1247700,0.719
2016-09-06,0.70,0.735,0.69,0.72,120200,0.691
2016-09-05,0.71,0.75,0.69,0.73,205100,0.70
2016-09-02,0.735,0.76,0.712,0.745,269600,0.715
2016-09-01,0.76,0.76,0.735,0.75,172500,0.719
2016-08-31,0.76,0.775,0.755,0.76,347100,0.729
2016-08-30,0.76,0.78,0.755,0.76,87400,0.729
2016-08-29,0.785,0.79,0.755,0.775,149100,0.743
2016-08-26,0.80,0.805,0.76,0.785,416000,0.753
2016-08-25,0.80,0.81,0.767,0.785,359300,0.753
2016-08-24,0.81,0.83,0.80,0.81,437800,0.777
2016-08-23,0.78,0.82,0.78,0.82,98400,0.787
2016-08-22,0.78,0.80,0.775,0.785,163900,0.753
2016-08-19,0.79,0.805,0.775,0.80,56900,0.767
2016-08-18,0.80,0.83,0.79,0.81,69700,0.777
2016-08-17,0.82,0.84,0.775,0.83,908700,0.796
2016-08-16,0.845,0.855,0.81,0.83,225000,0.796
2016-08-15,0.89,0.89,0.845,0.85,104300,0.815
2016-08-12,0.84,0.885,0.84,0.885,311300,0.849
2016-08-11,0.89,0.89,0.825,0.84,228200,0.806
2016-08-10,0.875,0.90,0.875,0.89,507200,0.854
2016-08-09,0.87,0.89,0.865,0.87,639900,0.835
2016-08-08,0.875,0.89,0.86,0.875,397200,0.839
2016-08-05,0.89,0.905,0.855,0.88,146800,0.844
2016-08-04,0.89,0.915,0.885,0.895,5492600,0.859
2016-08-03,0.85,0.88,0.85,0.875,1179500,0.839
2016-08-02,0.805,0.845,0.805,0.825,116600,0.791
2016-08-01,0.785,0.825,0.785,0.81,456600,0.777
2016-07-29,0.775,0.81,0.775,0.795,751400,0.763
2016-07-28,0.76,0.785,0.76,0.775,858300,0.743
2016-07-27,0.77,0.77,0.74,0.76,259300,0.729
2016-07-26,0.735,0.755,0.735,0.755,561300,0.724
2016-07-25,0.74,0.75,0.73,0.74,549900,0.71
2016-07-22,0.755,0.77,0.73,0.75,1044600,0.719
2016-07-21,0.73,0.79,0.727,0.76,1174400,0.729
2016-07-20,0.70,0.725,0.69,0.725,1860100,0.695
2016-07-19,0.68,0.70,0.68,0.70,627900,0.671
2016-07-18,0.68,0.685,0.675,0.675,2190700,0.647
2016-07-15,0.68,0.69,0.67,0.68,874200,0.652
2016-07-14,0.69,0.695,0.665,0.67,2142000,0.643
2016-07-13,0.66,0.695,0.652,0.67,398500,0.643
2016-07-12,0.675,0.685,0.66,0.67,237300,0.643
2016-07-11,0.675,0.70,0.655,0.68,326800,0.652
2016-07-08,0.67,0.70,0.655,0.675,439900,0.647
2016-07-07,0.70,0.705,0.65,0.685,4261900,0.657
2016-07-06,0.71,0.71,0.685,0.70,7143000,0.671
2016-07-05,0.70,0.725,0.67,0.725,251200,0.695
2016-07-04,0.67,0.725,0.66,0.70,554200,0.671
2016-07-01,0.72,0.73,0.665,0.685,3709400,0.657
2016-06-30,0.725,0.74,0.69,0.73,1775000,0.70
2016-06-29,0.71,0.745,0.71,0.725,494400,0.695
2016-06-28,0.77,0.77,0.70,0.71,728400,0.681
2016-06-27,0.90,0.90,0.765,0.77,1082600,0.739
