Date,Open,High,Low,Close,Volume,Adj Close
2017-01-10,0.435,0.435,0.43,0.43,13000,0.43
2017-01-09,0.47,0.47,0.45,0.45,39100,0.45
2017-01-06,0.44,0.47,0.44,0.455,27700,0.455
2017-01-05,0.43,0.43,0.425,0.43,32300,0.43
2017-01-04,0.41,0.43,0.41,0.43,24600,0.43
2017-01-03,0.41,0.41,0.40,0.40,47600,0.40
2017-01-02,0.39,0.39,0.39,0.39,000,0.39
2016-12-30,0.39,0.39,0.39,0.39,000,0.39
2016-12-29,0.39,0.39,0.39,0.39,900,0.39
2016-12-28,0.41,0.41,0.40,0.41,32500,0.41
2016-12-27,0.38,0.38,0.38,0.38,000,0.38
2016-12-26,0.38,0.38,0.38,0.38,000,0.38
2016-12-23,0.38,0.38,0.38,0.38,000,0.38
2016-12-22,0.38,0.38,0.38,0.38,000,0.38
2016-12-21,0.375,0.38,0.375,0.38,37400,0.38
2016-12-20,0.38,0.38,0.34,0.375,58900,0.375
2016-12-19,0.36,0.40,0.36,0.38,156200,0.38
2016-12-16,0.40,0.40,0.40,0.40,50000,0.40
2016-12-15,0.40,0.40,0.40,0.40,000,0.40
2016-12-14,0.39,0.40,0.38,0.40,23500,0.40
2016-12-13,0.40,0.40,0.38,0.395,187600,0.395
2016-12-12,0.42,0.42,0.415,0.415,5700,0.415
2016-12-09,0.425,0.425,0.42,0.42,5000,0.42
2016-12-08,0.44,0.44,0.44,0.44,000,0.44
2016-12-07,0.44,0.44,0.44,0.44,000,0.44
2016-12-06,0.44,0.44,0.44,0.44,5000,0.44
2016-12-05,0.40,0.40,0.40,0.40,000,0.40
2016-12-02,0.405,0.405,0.40,0.40,65000,0.40
2016-12-01,0.435,0.435,0.405,0.405,24100,0.405
2016-11-30,0.45,0.45,0.435,0.435,133000,0.435
2016-11-29,0.42,0.43,0.42,0.43,5400,0.43
2016-11-28,0.41,0.43,0.405,0.405,79200,0.405
2016-11-25,0.44,0.44,0.425,0.425,26500,0.425
2016-11-24,0.445,0.445,0.44,0.44,31300,0.44
2016-11-23,0.45,0.45,0.45,0.45,000,0.45
2016-11-22,0.435,0.45,0.40,0.45,87700,0.45
2016-11-21,0.45,0.45,0.40,0.45,141300,0.45
2016-11-18,0.46,0.46,0.46,0.46,10000,0.46
2016-11-17,0.47,0.47,0.47,0.47,1100,0.47
2016-11-16,0.48,0.48,0.48,0.48,10000,0.48
2016-11-15,0.48,0.48,0.48,0.48,000,0.48
2016-11-14,0.48,0.48,0.48,0.48,000,0.48
2016-11-11,0.46,0.48,0.45,0.48,32000,0.48
2016-11-10,0.48,0.48,0.48,0.48,8700,0.48
2016-11-09,0.48,0.48,0.43,0.43,56900,0.43
2016-11-08,0.50,0.50,0.50,0.50,000,0.50
2016-11-07,0.47,0.50,0.46,0.50,69900,0.50
2016-11-04,0.47,0.47,0.47,0.47,4000,0.47
2016-11-03,0.49,0.49,0.49,0.49,000,0.49
2016-11-02,0.49,0.49,0.49,0.49,000,0.49
2016-11-01,0.49,0.49,0.49,0.49,17000,0.49
2016-10-31,0.50,0.50,0.48,0.49,264000,0.49
2016-10-28,0.50,0.52,0.50,0.52,98900,0.52
2016-10-27,0.51,0.52,0.50,0.50,82400,0.50
2016-10-26,0.50,0.50,0.50,0.50,74500,0.50
2016-10-25,0.51,0.51,0.50,0.50,5000,0.50
2016-10-24,0.52,0.52,0.51,0.52,15000,0.52
2016-10-21,0.515,0.53,0.50,0.52,153900,0.52
2016-10-20,0.535,0.535,0.535,0.535,1200,0.535
2016-10-19,0.55,0.55,0.535,0.535,13700,0.535
2016-10-18,0.53,0.55,0.53,0.55,23500,0.55
2016-10-17,0.51,0.51,0.51,0.51,000,0.51
2016-10-14,0.51,0.51,0.51,0.51,000,0.51
2016-10-13,0.565,0.565,0.51,0.51,36500,0.51
2016-10-12,0.585,0.585,0.54,0.55,389000,0.55
2016-10-11,0.595,0.595,0.595,0.595,1600,0.595
2016-10-10,0.59,0.595,0.55,0.595,48800,0.595
2016-10-07,0.58,0.59,0.58,0.59,15500,0.59
2016-10-06,0.58,0.58,0.58,0.58,15000,0.58
2016-10-05,0.595,0.595,0.595,0.595,000,0.595
2016-10-04,0.58,0.595,0.58,0.595,17700,0.595
2016-10-03,0.58,0.58,0.58,0.58,000,0.58
2016-09-30,0.57,0.58,0.57,0.58,6000,0.58
2016-09-29,0.56,0.57,0.53,0.57,93700,0.57
2016-09-28,0.56,0.56,0.56,0.56,16700,0.56
2016-09-27,0.55,0.55,0.55,0.55,5700,0.55
2016-09-26,0.55,0.60,0.55,0.595,13300,0.595
2016-09-23,0.60,0.60,0.55,0.55,30300,0.55
2016-09-22,0.61,0.62,0.59,0.60,180500,0.60
2016-09-21,0.60,0.60,0.60,0.60,36600,0.60
2016-09-20,0.60,0.62,0.58,0.60,177000,0.60
2016-09-19,0.605,0.62,0.575,0.60,121400,0.60
2016-09-16,0.60,0.60,0.60,0.60,208000,0.60
2016-09-15,0.555,0.555,0.555,0.555,53300,0.555
2016-09-14,0.55,0.555,0.55,0.555,48500,0.555
2016-09-13,0.54,0.555,0.53,0.555,175400,0.555
2016-09-12,0.54,0.55,0.535,0.535,139000,0.535
2016-09-09,0.50,0.50,0.48,0.50,157800,0.50
2016-09-08,0.545,0.56,0.50,0.52,196200,0.52
2016-09-07,0.52,0.53,0.50,0.52,330500,0.52
2016-09-06,0.47,0.52,0.47,0.485,119400,0.485
2016-09-05,0.45,0.45,0.45,0.45,58100,0.45
2016-09-02,0.45,0.45,0.45,0.45,21000,0.45
2016-09-01,0.45,0.45,0.45,0.45,40000,0.45
2016-08-31,0.44,0.44,0.43,0.43,97000,0.43
2016-08-30,0.41,0.42,0.41,0.42,30400,0.42
2016-08-29,0.40,0.40,0.40,0.40,38000,0.40
2016-08-26,0.41,0.41,0.41,0.41,20700,0.41
2016-08-25,0.41,0.41,0.41,0.41,2500,0.41
2016-08-24,0.36,0.40,0.36,0.40,86000,0.40
2016-08-23,0.37,0.37,0.35,0.355,55200,0.355
2016-08-22,0.39,0.39,0.39,0.39,000,0.39
2016-08-19,0.39,0.39,0.39,0.39,000,0.39
2016-08-18,0.39,0.39,0.39,0.39,000,0.39
2016-08-17,0.39,0.39,0.39,0.39,000,0.39
2016-08-16,0.39,0.39,0.39,0.39,10800,0.39
2016-08-15,0.37,0.39,0.37,0.39,100900,0.39
2016-08-12,0.365,0.365,0.365,0.365,14500,0.365
2016-08-11,0.35,0.355,0.345,0.355,67500,0.355
2016-08-10,0.345,0.345,0.345,0.345,30000,0.345
2016-08-09,0.35,0.35,0.35,0.35,000,0.35
2016-08-08,0.35,0.35,0.35,0.35,000,0.35
2016-08-05,0.35,0.35,0.35,0.35,15000,0.35
2016-08-04,0.355,0.355,0.355,0.355,5600,0.355
2016-08-03,0.34,0.34,0.34,0.34,15000,0.34
2016-08-02,0.35,0.365,0.34,0.365,22700,0.365
2016-08-01,0.36,0.36,0.36,0.36,000,0.36
2016-07-29,0.365,0.365,0.36,0.36,533400,0.36
2016-07-28,0.37,0.37,0.37,0.37,000,0.37
2016-07-27,0.37,0.37,0.37,0.37,000,0.37
2016-07-26,0.37,0.37,0.37,0.37,000,0.37
2016-07-25,0.37,0.37,0.37,0.37,10000,0.37
2016-07-22,0.36,0.36,0.35,0.36,261000,0.36
2016-07-21,0.365,0.365,0.36,0.36,50000,0.36
2016-07-20,0.375,0.39,0.37,0.39,93800,0.39
2016-07-19,0.36,0.36,0.355,0.36,9700,0.36
2016-07-18,0.36,0.36,0.355,0.355,83800,0.355
2016-07-15,0.355,0.355,0.355,0.355,98000,0.355
2016-07-14,0.355,0.36,0.355,0.36,64200,0.36
2016-07-13,0.36,0.36,0.36,0.36,13000,0.36
2016-07-12,0.36,0.36,0.36,0.36,1500,0.36
2016-07-11,0.35,0.35,0.35,0.35,000,0.35
2016-07-08,0.35,0.35,0.35,0.35,15000,0.35
2016-07-07,0.34,0.34,0.34,0.34,000,0.34
2016-07-06,0.37,0.37,0.34,0.34,104300,0.34
2016-07-05,0.37,0.37,0.36,0.37,63700,0.37
2016-07-04,0.39,0.39,0.39,0.39,24900,0.39
2016-07-01,0.35,0.39,0.35,0.39,5000,0.39
2016-06-30,0.35,0.35,0.35,0.35,17000,0.35
2016-06-29,0.35,0.35,0.35,0.35,5700,0.35
2016-06-28,0.34,0.34,0.33,0.33,50000,0.33
2016-06-27,0.345,0.345,0.345,0.345,000,0.345
2016-06-24,0.335,0.345,0.335,0.345,27500,0.345
2016-06-23,0.35,0.35,0.35,0.35,14000,0.35
2016-06-22,0.35,0.35,0.35,0.35,20000,0.35
2016-06-21,0.35,0.35,0.35,0.35,30000,0.35
2016-06-20,0.335,0.35,0.335,0.35,146200,0.35
2016-06-17,0.335,0.335,0.33,0.33,52500,0.33
2016-06-16,0.335,0.34,0.335,0.335,72000,0.335
2016-06-15,0.35,0.35,0.35,0.35,000,0.35
2016-06-14,0.32,0.35,0.32,0.35,95500,0.35
2016-06-13,0.35,0.35,0.35,0.35,000,0.35
2016-06-10,0.35,0.35,0.35,0.35,000,0.35
2016-06-09,0.33,0.35,0.33,0.35,217400,0.35
2016-06-08,0.32,0.32,0.32,0.32,8000,0.32
2016-06-07,0.30,0.32,0.30,0.32,46300,0.32
2016-06-06,0.30,0.30,0.30,0.30,000,0.30
2016-06-03,0.31,0.31,0.30,0.30,25000,0.30
2016-06-02,0.32,0.32,0.32,0.32,000,0.32
2016-06-01,0.32,0.32,0.32,0.32,5000,0.32
2016-05-31,0.32,0.32,0.32,0.32,000,0.32
2016-05-30,0.32,0.32,0.32,0.32,000,0.32
2016-05-27,0.32,0.32,0.32,0.32,10000,0.32
2016-05-26,0.32,0.32,0.32,0.32,000,0.32
2016-05-25,0.32,0.32,0.32,0.32,12500,0.32
2016-05-24,0.32,0.32,0.32,0.32,2000,0.32
2016-05-23,0.30,0.30,0.30,0.30,20000,0.30
2016-05-20,0.30,0.30,0.30,0.30,6700,0.30
2016-05-19,0.30,0.30,0.30,0.30,70000,0.30
2016-05-18,0.30,0.30,0.30,0.30,42800,0.30
2016-05-17,0.30,0.30,0.30,0.30,130000,0.30
2016-05-16,0.30,0.30,0.30,0.30,25000,0.30
2016-05-13,0.32,0.32,0.32,0.32,000,0.32
2016-05-12,0.32,0.32,0.32,0.32,25000,0.32
2016-05-11,0.325,0.33,0.325,0.33,10800,0.33
2016-05-10,0.325,0.325,0.325,0.325,000,0.325
2016-05-09,0.325,0.325,0.325,0.325,9300,0.325
2016-05-06,0.33,0.33,0.32,0.32,41100,0.32
2016-05-05,0.32,0.32,0.32,0.32,14000,0.32
2016-05-04,0.33,0.33,0.32,0.32,302800,0.32
2016-05-03,0.325,0.33,0.325,0.33,161400,0.33
2016-05-02,0.33,0.345,0.33,0.345,52000,0.345
2016-04-29,0.35,0.35,0.35,0.35,000,0.35
2016-04-28,0.35,0.35,0.35,0.35,262500,0.35
2016-04-27,0.35,0.35,0.33,0.35,65700,0.35
2016-04-26,0.35,0.35,0.35,0.35,000,0.35
2016-04-25,0.35,0.35,0.35,0.35,000,0.35
2016-04-22,0.34,0.35,0.34,0.35,14000,0.35
2016-04-21,0.32,0.34,0.32,0.34,18000,0.34
2016-04-20,0.31,0.31,0.31,0.31,50000,0.31
2016-04-19,0.305,0.305,0.305,0.305,000,0.305
2016-04-18,0.33,0.33,0.305,0.305,6700,0.305
2016-04-15,0.30,0.30,0.30,0.30,000,0.30
2016-04-14,0.30,0.30,0.30,0.30,19000,0.30
2016-04-13,0.32,0.32,0.31,0.31,25000,0.31
2016-04-12,0.32,0.32,0.32,0.32,000,0.32
2016-04-11,0.33,0.33,0.305,0.32,295000,0.32
2016-04-08,0.33,0.33,0.33,0.33,000,0.33
2016-04-07,0.33,0.33,0.33,0.33,20000,0.33
2016-04-06,0.34,0.34,0.33,0.33,54100,0.33
2016-04-05,0.33,0.35,0.32,0.35,35000,0.35
2016-04-04,0.30,0.30,0.30,0.30,000,0.30
2016-04-01,0.30,0.30,0.30,0.30,000,0.30
2016-03-31,0.31,0.31,0.30,0.30,190000,0.30
2016-03-30,0.31,0.31,0.30,0.30,25500,0.30
2016-03-29,0.33,0.33,0.33,0.33,2000,0.33
2016-03-28,0.30,0.30,0.30,0.30,000,0.30
2016-03-25,0.30,0.30,0.30,0.30,000,0.30
2016-03-24,0.33,0.33,0.30,0.30,28500,0.30
2016-03-23,0.33,0.33,0.33,0.33,000,0.33
2016-03-22,0.33,0.33,0.33,0.33,000,0.33
2016-03-21,0.33,0.33,0.33,0.33,000,0.33
2016-03-18,0.33,0.33,0.31,0.33,51400,0.33
2016-03-17,0.31,0.32,0.31,0.32,59700,0.32
2016-03-16,0.305,0.31,0.305,0.31,1900,0.31
2016-03-15,0.305,0.305,0.305,0.305,10000,0.305
2016-03-14,0.31,0.31,0.31,0.31,000,0.31
2016-03-11,0.31,0.31,0.31,0.31,2000,0.31
2016-03-10,0.30,0.30,0.28,0.295,519000,0.295
2016-03-09,0.30,0.30,0.30,0.30,000,0.30
2016-03-08,0.30,0.30,0.30,0.30,5000,0.30
2016-03-07,0.29,0.29,0.29,0.29,7700,0.29
2016-03-04,0.28,0.29,0.28,0.29,13500,0.29
2016-03-03,0.28,0.28,0.28,0.28,26400,0.28
2016-03-02,0.28,0.28,0.28,0.28,2000,0.28
2016-03-01,0.28,0.28,0.28,0.28,000,0.28
2016-02-29,0.28,0.28,0.28,0.28,000,0.28
2016-02-26,0.27,0.28,0.27,0.28,2000,0.28
2016-02-25,0.27,0.27,0.27,0.27,4000,0.27
2016-02-24,0.28,0.28,0.28,0.28,000,0.28
2016-02-23,0.28,0.28,0.28,0.28,000,0.28
2016-02-22,0.28,0.28,0.28,0.28,3000,0.28
2016-02-19,0.27,0.27,0.26,0.26,26000,0.26
2016-02-18,0.29,0.29,0.28,0.28,57000,0.28
2016-02-17,0.30,0.30,0.30,0.30,000,0.30
2016-02-16,0.30,0.30,0.30,0.30,3000,0.30
2016-02-15,0.26,0.29,0.26,0.29,70200,0.29
2016-02-12,0.30,0.30,0.30,0.30,000,0.30
2016-02-11,0.30,0.30,0.30,0.30,000,0.30
2016-02-10,0.30,0.30,0.30,0.30,000,0.30
2016-02-09,0.30,0.30,0.30,0.30,000,0.30
2016-02-08,0.30,0.30,0.30,0.30,000,0.30
2016-02-05,0.30,0.30,0.30,0.30,000,0.30
2016-02-04,0.30,0.30,0.30,0.30,000,0.30
2016-02-03,0.30,0.30,0.30,0.30,000,0.30
2016-02-02,0.30,0.30,0.30,0.30,000,0.30
2016-02-01,0.30,0.30,0.30,0.30,000,0.30
2016-01-29,0.30,0.30,0.30,0.30,4000,0.30
2016-01-28,0.32,0.32,0.32,0.32,000,0.32
2016-01-27,0.32,0.32,0.32,0.32,000,0.32
2016-01-26,0.32,0.32,0.32,0.32,000,0.32
2016-01-25,0.32,0.32,0.32,0.32,000,0.32
2016-01-22,0.32,0.32,0.32,0.32,000,0.32
2016-01-21,0.32,0.32,0.32,0.32,000,0.32
2016-01-20,0.32,0.32,0.32,0.32,000,0.32
2016-01-19,0.32,0.32,0.32,0.32,000,0.32
2016-01-18,0.32,0.32,0.32,0.32,000,0.32
2016-01-15,0.32,0.32,0.32,0.32,000,0.32
2016-01-14,0.32,0.32,0.32,0.32,000,0.32
2016-01-13,0.32,0.32,0.32,0.32,7700,0.32
2016-01-12,0.30,0.30,0.30,0.30,000,0.30
2016-01-11,0.30,0.30,0.30,0.30,000,0.30
2016-01-08,0.30,0.30,0.30,0.30,000,0.30
2016-01-07,0.30,0.30,0.30,0.30,000,0.30
2016-01-06,0.30,0.30,0.30,0.30,000,0.30
2016-01-05,0.30,0.30,0.30,0.30,000,0.30
2016-01-04,0.30,0.30,0.30,0.30,000,0.30
2016-01-01,0.30,0.30,0.30,0.30,000,0.30
2015-12-31,0.30,0.30,0.30,0.30,000,0.30
2015-12-30,0.30,0.30,0.30,0.30,2000,0.30
2015-12-29,0.33,0.33,0.33,0.33,000,0.33
2015-12-28,0.33,0.33,0.33,0.33,000,0.33
2015-12-25,0.33,0.33,0.33,0.33,000,0.33
2015-12-24,0.33,0.33,0.33,0.33,000,0.33
2015-12-23,0.33,0.33,0.33,0.33,000,0.33
2015-12-22,0.33,0.33,0.33,0.33,000,0.33
2015-12-21,0.33,0.33,0.33,0.33,4200,0.33
2015-12-18,0.31,0.31,0.31,0.31,000,0.31
2015-12-17,0.31,0.32,0.31,0.31,29000,0.31
2015-12-16,0.315,0.315,0.31,0.31,13000,0.31
2015-12-15,0.31,0.31,0.31,0.31,000,0.31
2015-12-14,0.31,0.31,0.31,0.31,1000,0.31
2015-12-11,0.34,0.34,0.31,0.34,22700,0.34
2015-12-10,0.31,0.34,0.31,0.34,35500,0.34
2015-12-09,0.315,0.32,0.31,0.32,164400,0.32
2015-12-08,0.325,0.325,0.325,0.325,000,0.325
2015-12-07,0.325,0.325,0.325,0.325,10000,0.325
2015-12-04,0.32,0.32,0.31,0.31,20000,0.31
2015-12-03,0.32,0.32,0.31,0.31,17100,0.31
2015-12-02,0.34,0.34,0.32,0.32,11400,0.32
2015-12-01,0.31,0.31,0.31,0.31,000,0.31
2015-11-30,0.31,0.31,0.31,0.31,000,0.31
2015-11-27,0.32,0.32,0.31,0.31,39700,0.31
2015-11-26,0.33,0.33,0.33,0.33,2700,0.33
2015-11-25,0.33,0.33,0.33,0.33,000,0.33
2015-11-24,0.33,0.35,0.33,0.33,48000,0.33
2015-11-23,0.34,0.34,0.34,0.34,38200,0.34
2015-11-20,0.32,0.35,0.32,0.33,156200,0.33
2015-11-19,0.315,0.315,0.315,0.315,24900,0.315
2015-11-18,0.30,0.30,0.30,0.30,11000,0.30
2015-11-17,0.30,0.315,0.30,0.315,50000,0.315
2015-11-16,0.28,0.28,0.28,0.28,20700,0.28
2015-11-13,0.32,0.32,0.32,0.32,26000,0.32
2015-11-12,0.28,0.28,0.28,0.28,000,0.28
2015-11-11,0.28,0.28,0.27,0.28,36400,0.28
2015-11-10,0.305,0.305,0.305,0.305,000,0.305
2015-11-09,0.30,0.305,0.30,0.305,25500,0.305
2015-11-06,0.28,0.28,0.28,0.28,000,0.28
2015-11-05,0.28,0.28,0.28,0.28,000,0.28
2015-11-04,0.30,0.30,0.28,0.28,15000,0.28
2015-11-03,0.30,0.30,0.30,0.30,20000,0.30
2015-11-02,0.29,0.29,0.29,0.29,26000,0.29
2015-10-30,0.28,0.28,0.28,0.28,000,0.28
2015-10-29,0.28,0.28,0.28,0.28,000,0.28
2015-10-28,0.28,0.28,0.28,0.28,000,0.28
2015-10-27,0.28,0.28,0.28,0.28,11400,0.28
2015-10-26,0.30,0.30,0.30,0.30,000,0.30
2015-10-23,0.30,0.30,0.30,0.30,000,0.30
2015-10-22,0.30,0.30,0.30,0.30,000,0.30
2015-10-21,0.30,0.30,0.30,0.30,000,0.30
2015-10-20,0.30,0.30,0.30,0.30,000,0.30
2015-10-19,0.30,0.30,0.30,0.30,000,0.30
2015-10-16,0.32,0.32,0.30,0.30,30000,0.30
2015-10-15,0.30,0.30,0.30,0.30,000,0.30
2015-10-14,0.30,0.30,0.30,0.30,000,0.30
2015-10-13,0.30,0.30,0.30,0.30,000,0.30
2015-10-12,0.30,0.30,0.30,0.30,000,0.30
2015-10-09,0.315,0.33,0.30,0.30,70300,0.30
2015-10-08,0.29,0.29,0.29,0.29,000,0.29
2015-10-07,0.30,0.315,0.29,0.29,46000,0.29
2015-10-06,0.29,0.30,0.29,0.30,6000,0.30
2015-10-05,0.25,0.30,0.25,0.30,60000,0.30
2015-10-02,0.30,0.30,0.30,0.30,000,0.30
2015-10-01,0.30,0.30,0.30,0.30,000,0.30
2015-09-30,0.30,0.30,0.30,0.30,000,0.30
2015-09-29,0.30,0.30,0.30,0.30,000,0.30
2015-09-28,0.30,0.30,0.30,0.30,000,0.30
2015-09-25,0.30,0.30,0.30,0.30,4000,0.30
2015-09-24,0.32,0.32,0.30,0.30,14800,0.30
2015-09-23,0.33,0.33,0.33,0.33,000,0.33
2015-09-22,0.32,0.33,0.32,0.33,7700,0.33
2015-09-21,0.33,0.33,0.33,0.33,1700,0.33
2015-09-18,0.30,0.33,0.30,0.33,15100,0.33
2015-09-17,0.315,0.315,0.315,0.315,6000,0.315
2015-09-16,0.305,0.305,0.305,0.305,10000,0.305
2015-09-15,0.32,0.32,0.32,0.32,000,0.32
2015-09-14,0.32,0.32,0.32,0.32,2000,0.32
2015-09-11,0.32,0.32,0.32,0.32,000,0.32
2015-09-10,0.32,0.32,0.32,0.32,000,0.32
2015-09-09,0.315,0.325,0.315,0.32,23000,0.32
2015-09-08,0.31,0.31,0.28,0.28,201400,0.28
2015-09-07,0.32,0.32,0.32,0.32,000,0.32
2015-09-04,0.32,0.32,0.32,0.32,13300,0.32
2015-09-03,0.33,0.33,0.33,0.33,000,0.33
2015-09-02,0.33,0.33,0.33,0.33,000,0.33
2015-09-01,0.33,0.33,0.33,0.33,000,0.33
2015-08-31,0.33,0.33,0.33,0.33,4000,0.33
2015-08-28,0.34,0.34,0.34,0.34,3000,0.34
2015-08-27,0.31,0.31,0.31,0.31,000,0.31
2015-08-26,0.31,0.31,0.31,0.31,000,0.31
2015-08-25,0.31,0.31,0.31,0.31,7500,0.31
2015-08-24,0.35,0.35,0.35,0.35,1200,0.35
2015-08-21,0.35,0.35,0.35,0.35,48700,0.35
2015-08-20,0.33,0.35,0.31,0.35,31900,0.35
2015-08-19,0.40,0.40,0.35,0.37,134200,0.37
