Date,Open,High,Low,Close,Volume,Adj Close
2017-01-10,0.78,0.78,0.73,0.78,1148300,0.78
2017-01-09,0.78,0.785,0.775,0.78,79400,0.78
2017-01-06,0.785,0.785,0.775,0.78,566100,0.78
2017-01-05,0.78,0.785,0.775,0.78,1053400,0.78
2017-01-04,0.78,0.78,0.77,0.775,149200,0.775
2017-01-03,0.78,0.78,0.765,0.78,61700,0.78
2017-01-02,0.78,0.78,0.78,0.78,000,0.78
2016-12-30,0.77,0.78,0.76,0.78,411900,0.78
2016-12-29,0.76,0.76,0.73,0.76,457300,0.76
2016-12-28,0.78,0.785,0.76,0.78,240200,0.753
2016-12-27,0.775,0.775,0.775,0.775,000,0.7482
2016-12-26,0.775,0.775,0.775,0.775,000,0.7482
2016-12-23,0.75,0.775,0.745,0.775,701600,0.7482
2016-12-22,0.75,0.75,0.745,0.745,388300,0.7192
2016-12-21,0.75,0.755,0.745,0.745,5400600,0.7192
2016-12-20,0.74,0.75,0.735,0.75,12780700,0.724
2016-12-19,0.745,0.745,0.735,0.745,971600,0.7192
2016-12-16,0.735,0.745,0.73,0.745,2689400,0.7192
2016-12-15,0.74,0.745,0.73,0.73,580400,0.7047
2016-12-14,0.735,0.745,0.73,0.74,4046100,0.7144
2016-12-13,0.72,0.735,0.72,0.73,2805200,0.7047
2016-12-12,0.72,0.73,0.715,0.725,142500,0.6999
2016-12-09,0.705,0.725,0.705,0.715,377800,0.6902
2016-12-08,0.715,0.7175,0.70,0.71,2185800,0.6854
2016-12-07,0.695,0.71,0.69,0.71,920500,0.6854
2016-12-06,0.71,0.71,0.69,0.695,3071700,0.6709
2016-12-05,0.705,0.71,0.69,0.695,1053700,0.6709
2016-12-02,0.72,0.72,0.69,0.705,4256400,0.6806
2016-12-01,0.73,0.73,0.715,0.72,1317700,0.6951
2016-11-30,0.725,0.735,0.72,0.725,186000,0.6999
2016-11-29,0.725,0.73,0.712,0.72,8824500,0.6951
2016-11-28,0.73,0.735,0.725,0.725,199300,0.6999
2016-11-25,0.725,0.735,0.725,0.73,358800,0.7047
2016-11-24,0.73,0.735,0.725,0.735,813400,0.7096
2016-11-23,0.73,0.735,0.725,0.735,918500,0.7096
2016-11-22,0.72,0.725,0.715,0.72,1518000,0.6951
2016-11-21,0.715,0.725,0.715,0.72,914300,0.6951
2016-11-18,0.73,0.73,0.715,0.72,669700,0.6951
2016-11-17,0.725,0.73,0.71,0.725,976200,0.6999
2016-11-16,0.73,0.735,0.725,0.725,135700,0.6999
2016-11-15,0.745,0.745,0.72,0.73,704300,0.7047
2016-11-14,0.72,0.74,0.72,0.73,230300,0.7047
2016-11-11,0.75,0.75,0.71,0.73,1652800,0.7047
2016-11-10,0.75,0.755,0.725,0.755,684700,0.7289
2016-11-09,0.76,0.765,0.71,0.735,3117300,0.7096
2016-11-08,0.76,0.765,0.755,0.76,1415000,0.7337
2016-11-07,0.75,0.76,0.735,0.755,262300,0.7289
2016-11-04,0.72,0.74,0.72,0.73,2860600,0.7047
2016-11-03,0.72,0.73,0.705,0.725,573400,0.6999
2016-11-02,0.75,0.75,0.72,0.725,1612600,0.6999
2016-11-01,0.74,0.75,0.73,0.74,865800,0.7144
2016-10-31,0.74,0.745,0.725,0.73,959100,0.7047
2016-10-28,0.76,0.76,0.735,0.74,1063500,0.7144
2016-10-27,0.765,0.77,0.745,0.75,3127300,0.724
2016-10-26,0.77,0.777,0.745,0.76,2919500,0.7337
2016-10-25,0.78,0.79,0.775,0.775,279600,0.7482
2016-10-24,0.795,0.795,0.775,0.775,626700,0.7482
2016-10-21,0.80,0.80,0.785,0.785,7545700,0.7578
2016-10-20,0.78,0.80,0.775,0.795,2562900,0.7675
2016-10-19,0.745,0.78,0.745,0.78,4661800,0.753
2016-10-18,0.72,0.735,0.72,0.735,6371600,0.7096
2016-10-17,0.70,0.725,0.70,0.72,2129500,0.6951
2016-10-14,0.695,0.70,0.685,0.695,1432900,0.6709
2016-10-13,0.685,0.69,0.675,0.685,5306700,0.6613
2016-10-12,0.68,0.68,0.675,0.68,1705700,0.6565
2016-10-11,0.69,0.695,0.67,0.675,2946400,0.6516
2016-10-10,0.715,0.715,0.685,0.69,2008100,0.6661
2016-10-07,0.725,0.725,0.71,0.71,2018300,0.6854
2016-10-06,0.725,0.745,0.715,0.725,581800,0.6999
2016-10-05,0.735,0.735,0.71,0.72,3436500,0.6951
2016-10-04,0.74,0.75,0.72,0.73,1939500,0.7047
2016-10-03,0.73,0.75,0.725,0.735,453100,0.7096
2016-09-30,0.725,0.7325,0.725,0.725,1678000,0.6999
2016-09-29,0.725,0.74,0.72,0.72,661400,0.6951
2016-09-28,0.725,0.75,0.725,0.725,1893500,0.6999
2016-09-27,0.74,0.745,0.725,0.725,384300,0.6999
2016-09-26,0.73,0.74,0.725,0.73,2138300,0.7047
2016-09-23,0.735,0.74,0.73,0.73,2031700,0.7047
2016-09-22,0.735,0.755,0.73,0.73,653500,0.7047
2016-09-21,0.75,0.75,0.735,0.735,1578600,0.7096
2016-09-20,0.755,0.755,0.74,0.745,2317200,0.7192
2016-09-19,0.76,0.76,0.755,0.755,100000,0.7289
2016-09-16,0.77,0.775,0.755,0.755,2424800,0.7289
2016-09-15,0.765,0.765,0.745,0.75,2189000,0.724
2016-09-14,0.745,0.76,0.74,0.76,4759400,0.7337
2016-09-13,0.75,0.755,0.73,0.74,2163300,0.7144
2016-09-12,0.77,0.77,0.735,0.75,2051800,0.724
2016-09-09,0.78,0.785,0.77,0.78,5036300,0.753
2016-09-08,0.80,0.80,0.775,0.78,1194600,0.753
2016-09-07,0.80,0.80,0.79,0.795,1120800,0.7675
2016-09-06,0.80,0.80,0.795,0.80,2715600,0.7723
2016-09-05,0.81,0.815,0.80,0.805,1214800,0.7771
2016-09-02,0.805,0.805,0.80,0.80,1970400,0.7723
2016-09-01,0.81,0.81,0.795,0.80,2191600,0.7723
2016-08-31,0.82,0.82,0.81,0.81,1401600,0.782
2016-08-30,0.82,0.825,0.815,0.82,1349100,0.7916
2016-08-29,0.83,0.83,0.82,0.82,1881700,0.7916
2016-08-26,0.83,0.835,0.815,0.825,660800,0.7964
2016-08-25,0.815,0.835,0.81,0.83,1031900,0.8013
2016-08-24,0.81,0.82,0.81,0.81,621600,0.782
2016-08-23,0.797,0.817,0.797,0.805,4892200,0.7771
2016-08-22,0.79,0.80,0.79,0.795,4914800,0.7675
2016-08-19,0.78,0.79,0.78,0.79,5987900,0.7627
2016-08-18,0.80,0.80,0.77,0.775,14522500,0.7482
2016-08-17,0.815,0.815,0.80,0.80,1513800,0.7723
2016-08-16,0.81,0.81,0.805,0.81,3444900,0.782
2016-08-15,0.81,0.815,0.805,0.81,4579600,0.782
2016-08-12,0.825,0.825,0.805,0.805,3648100,0.7771
2016-08-11,0.82,0.83,0.81,0.825,4248000,0.7964
2016-08-10,0.83,0.83,0.815,0.815,9468900,0.7868
2016-08-09,0.855,0.855,0.79,0.82,25328800,0.7916
2016-08-08,0.865,0.87,0.86,0.86,10836400,0.8302
2016-08-05,0.82,0.87,0.81,0.86,73454800,0.8302
