Date,Open,High,Low,Close,Volume,Adj Close
2017-01-10,0.94,0.96,0.94,0.945,55200,0.945
2017-01-09,0.91,0.91,0.91,0.91,000,0.91
2017-01-06,0.91,0.91,0.91,0.91,000,0.91
2017-01-05,0.91,0.91,0.91,0.91,000,0.91
2017-01-04,0.91,0.91,0.91,0.91,000,0.91
2017-01-03,0.91,0.91,0.91,0.91,000,0.91
2017-01-02,0.91,0.91,0.91,0.91,000,0.91
2016-12-30,0.91,0.91,0.91,0.91,000,0.91
2016-12-29,0.91,0.91,0.91,0.91,000,0.91
2016-12-28,0.91,0.91,0.91,0.91,000,0.91
2016-12-27,0.91,0.91,0.91,0.91,000,0.91
2016-12-26,0.91,0.91,0.91,0.91,000,0.91
2016-12-23,0.91,0.91,0.91,0.91,4400,0.91
2016-12-22,0.91,0.91,0.91,0.91,11700,0.91
2016-12-21,0.92,0.92,0.92,0.92,000,0.92
2016-12-20,0.92,0.92,0.92,0.92,000,0.92
2016-12-19,0.92,0.92,0.92,0.92,000,0.92
2016-12-16,0.92,0.92,0.92,0.92,000,0.92
2016-12-15,0.92,0.92,0.92,0.92,300,0.92
2016-12-14,0.84,0.925,0.84,0.92,1100,0.92
2016-12-13,0.86,0.86,0.86,0.86,000,0.86
2016-12-12,0.86,0.86,0.86,0.86,000,0.86
2016-12-09,0.86,0.86,0.86,0.86,000,0.86
2016-12-08,0.85,0.86,0.85,0.86,5000,0.86
2016-12-07,0.85,0.85,0.85,0.85,5000,0.85
2016-12-06,0.835,0.835,0.835,0.835,1000,0.835
2016-12-05,0.85,0.85,0.83,0.83,9100,0.83
2016-12-02,0.84,0.85,0.84,0.84,44600,0.84
2016-12-01,0.82,0.82,0.82,0.82,000,0.82
2016-11-30,0.80,0.82,0.80,0.82,57900,0.82
2016-11-29,0.88,0.88,0.88,0.88,000,0.88
2016-11-28,0.88,0.88,0.88,0.88,000,0.88
2016-11-25,0.88,0.88,0.88,0.88,000,0.88
2016-11-24,0.88,0.88,0.88,0.88,000,0.88
2016-11-23,0.88,0.88,0.88,0.88,4400,0.88
2016-11-22,0.88,0.88,0.88,0.88,000,0.88
2016-11-21,0.88,0.88,0.88,0.88,000,0.88
2016-11-18,0.87,0.87,0.87,0.87,000,0.87
2016-11-17,0.88,0.88,0.88,0.88,20000,0.88
2016-11-16,0.84,0.84,0.84,0.84,000,0.84
2016-11-15,0.84,0.84,0.84,0.84,000,0.84
2016-11-14,0.84,0.84,0.84,0.84,000,0.84
2016-11-11,0.835,0.835,0.835,0.835,000,0.835
2016-11-10,0.85,0.85,0.85,0.85,000,0.85
2016-11-09,0.90,0.90,0.85,0.85,16400,0.85
2016-11-08,0.90,0.90,0.90,0.90,000,0.90
2016-11-07,0.90,0.90,0.90,0.90,000,0.90
2016-11-04,0.90,0.90,0.90,0.90,000,0.90
2016-11-03,0.90,0.90,0.90,0.90,350000,0.90
2016-11-02,0.87,0.87,0.87,0.87,000,0.87
2016-11-01,0.87,0.87,0.87,0.87,1000,0.87
2016-10-31,0.83,0.83,0.83,0.83,000,0.83
2016-10-28,0.83,0.83,0.83,0.83,000,0.83
2016-10-27,0.83,0.83,0.83,0.83,2800,0.83
2016-10-26,0.83,0.83,0.83,0.83,000,0.83
2016-10-25,0.83,0.83,0.83,0.83,000,0.83
2016-10-24,0.83,0.83,0.83,0.83,000,0.83
2016-10-21,0.83,0.83,0.83,0.83,300000,0.83
2016-10-20,0.92,0.92,0.92,0.92,800200,0.92
2016-10-19,0.90,0.92,0.90,0.92,5100,0.92
2016-10-18,0.855,0.855,0.855,0.855,000,0.855
2016-10-17,0.855,0.855,0.855,0.855,000,0.855
2016-10-14,0.86,0.86,0.85,0.85,38600,0.85
2016-10-13,0.85,0.85,0.85,0.85,000,0.85
2016-10-12,0.85,0.85,0.85,0.85,000,0.85
2016-10-11,0.85,0.85,0.85,0.85,000,0.85
2016-10-10,0.85,0.85,0.85,0.85,000,0.85
2016-10-07,0.85,0.85,0.85,0.85,000,0.85
2016-10-06,0.85,0.85,0.85,0.85,000,0.85
2016-10-05,0.85,0.85,0.85,0.85,700,0.85
2016-10-04,0.84,0.84,0.84,0.84,000,0.84
2016-10-03,0.84,0.84,0.84,0.84,000,0.84
2016-09-30,0.84,0.84,0.84,0.84,5000,0.84
2016-09-29,0.85,0.85,0.85,0.85,000,0.85
2016-09-28,0.85,0.85,0.85,0.85,000,0.85
2016-09-27,0.85,0.85,0.85,0.85,000,0.85
2016-09-26,0.85,0.85,0.85,0.85,19000,0.85
2016-09-23,0.85,0.85,0.85,0.85,15200,0.85
2016-09-22,0.84,0.84,0.84,0.84,000,0.84
2016-09-21,0.84,0.84,0.84,0.84,5000,0.84
2016-09-20,0.825,0.825,0.825,0.825,000,0.825
2016-09-19,0.825,0.825,0.825,0.825,000,0.825
2016-09-16,0.825,0.825,0.825,0.825,000,0.825
2016-09-15,0.825,0.825,0.825,0.825,000,0.825
2016-09-14,0.825,0.825,0.825,0.825,000,0.825
2016-09-13,0.825,0.825,0.825,0.825,000,0.825
2016-09-12,0.825,0.825,0.825,0.825,000,0.825
2016-09-09,0.825,0.825,0.825,0.825,800,0.825
2016-09-08,0.85,0.85,0.85,0.85,23000,0.85
2016-09-07,0.85,0.85,0.85,0.85,000,0.85
2016-09-06,0.85,0.85,0.85,0.85,000,0.85
2016-09-05,0.85,0.85,0.85,0.85,000,0.85
2016-09-02,0.85,0.85,0.85,0.85,000,0.85
2016-09-01,0.85,0.85,0.85,0.85,000,0.85
2016-08-31,0.85,0.85,0.85,0.85,000,0.85
2016-08-30,0.85,0.85,0.85,0.85,000,0.85
2016-08-29,0.85,0.85,0.85,0.85,40000,0.85
2016-08-26,0.85,0.85,0.85,0.85,3900,0.85
2016-08-25,0.90,0.90,0.90,0.90,000,0.90
2016-08-24,0.90,0.90,0.90,0.90,000,0.90
2016-08-23,0.90,0.90,0.90,0.90,000,0.90
2016-08-22,0.90,0.90,0.88,0.90,38800,0.90
2016-08-19,0.87,0.87,0.87,0.87,000,0.87
2016-08-18,0.87,0.87,0.87,0.87,000,0.87
2016-08-17,0.87,0.87,0.87,0.87,000,0.87
2016-08-16,0.87,0.87,0.87,0.87,000,0.87
2016-08-15,0.87,0.87,0.87,0.87,000,0.87
2016-08-12,0.87,0.87,0.87,0.87,000,0.87
2016-08-11,0.87,0.87,0.87,0.87,000,0.87
2016-08-10,0.87,0.87,0.87,0.87,30000,0.87
2016-08-09,0.865,0.865,0.865,0.865,000,0.865
2016-08-08,0.865,0.865,0.865,0.865,1600,0.865
2016-08-05,0.865,0.865,0.865,0.865,000,0.865
2016-08-04,0.86,0.86,0.85,0.85,65800,0.85
2016-08-03,0.86,0.86,0.86,0.86,000,0.86
2016-08-02,0.86,0.86,0.86,0.86,000,0.86
2016-08-01,0.86,0.86,0.86,0.86,000,0.86
2016-07-29,0.86,0.86,0.86,0.86,1300,0.86
2016-07-28,0.86,0.86,0.86,0.86,23800,0.86
2016-07-27,0.85,0.85,0.85,0.85,000,0.85
2016-07-26,0.85,0.85,0.85,0.85,000,0.85
2016-07-25,0.85,0.85,0.85,0.85,15700,0.85
2016-07-22,0.85,0.85,0.85,0.85,700,0.85
2016-07-21,0.87,0.87,0.87,0.87,000,0.87
2016-07-20,0.87,0.87,0.87,0.87,000,0.87
2016-07-19,0.87,0.87,0.87,0.87,000,0.87
2016-07-18,0.87,0.87,0.87,0.87,000,0.87
2016-07-15,0.87,0.87,0.87,0.87,000,0.87
2016-07-14,0.87,0.87,0.87,0.87,000,0.87
2016-07-13,0.87,0.87,0.87,0.87,000,0.87
2016-07-12,0.87,0.87,0.87,0.87,000,0.87
2016-07-11,0.87,0.87,0.87,0.87,000,0.87
2016-07-08,0.87,0.87,0.87,0.87,000,0.87
2016-07-07,0.87,0.87,0.87,0.87,10000,0.87
2016-07-06,0.845,0.86,0.845,0.86,15000,0.86
2016-07-05,0.83,0.83,0.83,0.83,000,0.83
2016-07-04,0.83,0.83,0.83,0.83,000,0.83
2016-07-01,0.84,0.84,0.83,0.83,20000,0.83
2016-06-30,0.85,0.85,0.85,0.85,2500,0.85
2016-06-29,0.80,0.80,0.80,0.80,000,0.80
2016-06-28,0.80,0.80,0.80,0.80,000,0.80
2016-06-27,0.80,0.80,0.80,0.80,35000,0.80
2016-06-24,0.84,0.84,0.84,0.84,000,0.84
2016-06-23,0.84,0.84,0.84,0.84,5000,0.84
2016-06-22,0.84,0.84,0.84,0.84,000,0.84
2016-06-21,0.84,0.84,0.84,0.84,000,0.84
2016-06-20,0.84,0.84,0.84,0.84,10000,0.84
2016-06-17,0.83,0.83,0.83,0.83,1000,0.83
2016-06-16,0.83,0.83,0.83,0.83,000,0.83
2016-06-15,0.83,0.83,0.83,0.83,20000,0.83
2016-06-14,0.83,0.83,0.83,0.83,105000,0.83
2016-06-13,0.85,0.85,0.85,0.85,000,0.85
2016-06-10,0.85,0.85,0.85,0.85,000,0.85
2016-06-09,0.85,0.85,0.85,0.85,000,0.85
2016-06-08,0.85,0.85,0.85,0.85,000,0.85
2016-06-07,0.805,0.85,0.805,0.85,48300,0.85
2016-06-06,0.825,0.825,0.825,0.825,000,0.825
2016-06-03,0.805,0.825,0.805,0.825,26500,0.825
2016-06-02,0.80,0.80,0.80,0.80,000,0.80
2016-06-01,0.82,0.83,0.82,0.83,35500,0.83
2016-05-31,0.80,0.80,0.80,0.80,38600,0.80
2016-05-30,0.78,0.78,0.78,0.78,22000,0.78
2016-05-27,0.775,0.775,0.775,0.775,000,0.775
2016-05-26,0.775,0.775,0.775,0.775,17800,0.775
2016-05-25,0.79,0.79,0.79,0.79,000,0.79
2016-05-24,0.78,0.79,0.78,0.79,38500,0.79
2016-05-23,0.76,0.76,0.76,0.76,1600,0.76
2016-05-20,0.76,0.76,0.76,0.76,000,0.76
2016-05-19,0.81,0.81,0.81,0.81,000,0.81
2016-05-18,0.815,0.815,0.81,0.81,25300,0.81
2016-05-17,0.81,0.815,0.81,0.815,97600,0.815
2016-05-16,0.84,0.85,0.84,0.85,7700,0.85
2016-05-13,0.845,0.845,0.845,0.845,500,0.845
2016-05-12,0.81,0.81,0.81,0.81,121100,0.81
2016-05-11,0.82,0.82,0.82,0.82,220000,0.82
2016-05-10,0.83,0.83,0.83,0.83,4000,0.83
2016-05-09,0.82,0.82,0.82,0.82,20000,0.82
2016-05-06,0.83,0.83,0.83,0.83,1000,0.83
2016-05-05,0.825,0.825,0.825,0.825,2000,0.825
2016-05-04,0.80,0.80,0.80,0.80,000,0.80
2016-05-03,0.80,0.80,0.80,0.80,000,0.80
2016-05-02,0.80,0.80,0.80,0.80,000,0.80
2016-04-29,0.80,0.80,0.80,0.80,000,0.80
2016-04-28,0.80,0.80,0.80,0.80,60000,0.80
2016-04-27,0.80,0.80,0.80,0.80,000,0.80
2016-04-26,0.80,0.80,0.80,0.80,45900,0.80
2016-04-25,0.80,0.80,0.80,0.80,000,0.80
2016-04-22,0.80,0.80,0.80,0.80,000,0.80
2016-04-21,0.80,0.80,0.80,0.80,000,0.80
2016-04-20,0.80,0.80,0.80,0.80,2600,0.80
2016-04-19,0.80,0.80,0.80,0.80,000,0.80
2016-04-18,0.80,0.80,0.80,0.80,000,0.80
2016-04-15,0.80,0.80,0.80,0.80,51800,0.80
2016-04-14,0.80,0.80,0.80,0.80,000,0.80
2016-04-13,0.80,0.80,0.80,0.80,000,0.80
2016-04-12,0.80,0.80,0.80,0.80,000,0.80
2016-04-11,0.80,0.80,0.80,0.80,000,0.80
2016-04-08,0.80,0.80,0.80,0.80,000,0.80
2016-04-07,0.80,0.80,0.80,0.80,000,0.80
2016-04-06,0.80,0.80,0.80,0.80,6000,0.80
2016-04-05,0.84,0.84,0.84,0.84,000,0.84
2016-04-04,0.83,0.83,0.83,0.83,000,0.83
2016-04-01,0.83,0.83,0.83,0.83,000,0.83
2016-03-31,0.83,0.83,0.83,0.83,000,0.83
2016-03-30,0.83,0.83,0.83,0.83,000,0.83
2016-03-29,0.84,0.84,0.84,0.84,000,0.84
2016-03-28,0.84,0.84,0.84,0.84,000,0.84
2016-03-25,0.84,0.84,0.84,0.84,000,0.84
2016-03-24,0.84,0.84,0.84,0.84,000,0.84
2016-03-23,0.845,0.845,0.845,0.845,5000,0.845
2016-03-22,0.85,0.85,0.85,0.85,000,0.85
2016-03-21,0.80,0.80,0.80,0.80,000,0.80
2016-03-18,0.80,0.80,0.80,0.80,000,0.80
2016-03-17,0.80,0.805,0.80,0.80,80000,0.80
2016-03-16,0.85,0.85,0.85,0.85,000,0.85
2016-03-15,0.85,0.85,0.85,0.85,8600,0.85
2016-03-14,0.84,0.84,0.84,0.84,000,0.84
2016-03-11,0.84,0.84,0.84,0.84,000,0.84
2016-03-10,0.78,0.82,0.78,0.82,60000,0.82
2016-03-09,0.76,0.76,0.75,0.76,11300,0.76
2016-03-08,0.78,0.78,0.73,0.73,700,0.73
2016-03-07,0.78,0.78,0.78,0.78,95000,0.78
2016-03-04,0.78,0.78,0.78,0.78,000,0.78
2016-03-03,0.74,0.78,0.74,0.78,21400,0.78
2016-03-02,0.70,0.74,0.70,0.74,14900,0.74
2016-03-01,0.68,0.68,0.68,0.68,000,0.68
2016-02-29,0.68,0.68,0.68,0.68,000,0.68
2016-02-26,0.68,0.68,0.68,0.68,10600,0.68
2016-02-25,0.80,0.80,0.80,0.80,000,0.80
2016-02-24,0.80,0.80,0.80,0.80,000,0.80
2016-02-23,0.80,0.80,0.80,0.80,000,0.80
2016-02-22,0.80,0.80,0.80,0.80,000,0.80
2016-02-19,0.80,0.80,0.80,0.80,000,0.80
2016-02-18,0.80,0.80,0.80,0.80,000,0.80
2016-02-17,0.80,0.80,0.80,0.80,000,0.80
2016-02-16,0.80,0.80,0.80,0.80,17900,0.80
2016-02-15,0.80,0.80,0.80,0.80,000,0.80
2016-02-12,0.80,0.80,0.80,0.80,000,0.80
2016-02-11,0.80,0.80,0.80,0.80,000,0.80
2016-02-10,0.82,0.82,0.80,0.80,37000,0.80
2016-02-09,0.82,0.82,0.82,0.82,760000,0.82
2016-02-08,0.80,0.80,0.80,0.80,000,0.80
2016-02-05,0.80,0.80,0.80,0.80,000,0.80
2016-02-04,0.80,0.80,0.80,0.80,000,0.80
2016-02-03,0.80,0.80,0.80,0.80,000,0.80
2016-02-02,0.80,0.80,0.80,0.80,5000,0.80
2016-02-01,0.75,0.75,0.75,0.75,000,0.75
2016-01-29,0.80,0.80,0.80,0.80,000,0.80
2016-01-28,0.80,0.80,0.80,0.80,12300,0.80
2016-01-27,0.80,0.80,0.80,0.80,000,0.80
2016-01-26,0.80,0.80,0.80,0.80,000,0.80
2016-01-25,0.80,0.80,0.80,0.80,000,0.80
2016-01-22,0.80,0.80,0.80,0.80,5000,0.80
2016-01-21,0.80,0.80,0.80,0.80,000,0.80
2016-01-20,0.80,0.80,0.80,0.80,21500,0.80
2016-01-19,0.81,0.81,0.80,0.80,14000,0.80
2016-01-18,0.90,0.90,0.80,0.80,94600,0.80
2016-01-15,0.94,0.94,0.94,0.94,000,0.94
2016-01-14,0.94,0.94,0.94,0.94,3900,0.94
2016-01-13,0.94,0.94,0.94,0.94,000,0.94
2016-01-12,0.94,0.94,0.94,0.94,000,0.94
2016-01-11,0.94,0.94,0.94,0.94,000,0.94
2016-01-08,0.94,0.94,0.94,0.94,000,0.94
2016-01-07,0.94,0.94,0.94,0.94,000,0.94
2016-01-06,0.94,0.94,0.94,0.94,1700,0.94
2016-01-05,0.95,0.95,0.95,0.95,000,0.95
2016-01-04,0.95,0.95,0.95,0.95,5000,0.95
2016-01-01,0.95,0.95,0.95,0.95,000,0.95
2015-12-31,0.95,0.95,0.95,0.95,000,0.95
2015-12-30,0.95,0.95,0.95,0.95,000,0.95
2015-12-29,0.95,0.95,0.95,0.95,000,0.95
2015-12-28,0.95,0.95,0.95,0.95,000,0.95
2015-12-25,0.95,0.95,0.95,0.95,000,0.95
2015-12-24,0.95,0.95,0.95,0.95,000,0.95
2015-12-23,0.95,0.95,0.95,0.95,000,0.95
2015-12-22,0.95,0.95,0.95,0.95,6800,0.95
2015-12-21,0.95,0.95,0.95,0.95,000,0.95
2015-12-18,0.95,0.95,0.95,0.95,000,0.95
2015-12-17,0.95,0.95,0.95,0.95,000,0.95
2015-12-16,0.95,0.95,0.95,0.95,000,0.95
2015-12-15,0.95,0.95,0.95,0.95,000,0.95
2015-12-14,0.95,0.95,0.95,0.95,000,0.95
2015-12-11,0.95,0.95,0.95,0.95,000,0.95
2015-12-10,0.95,0.95,0.95,0.95,000,0.95
2015-12-09,1.00,1.00,0.95,0.95,55000,0.95
2015-12-08,1.10,1.10,1.10,1.10,000,1.10
2015-12-07,1.10,1.10,1.10,1.10,000,1.10
2015-12-04,1.10,1.10,1.10,1.10,000,1.10
2015-12-03,1.10,1.10,1.10,1.10,000,1.10
2015-12-02,1.10,1.10,1.10,1.10,000,1.10
2015-12-01,1.10,1.10,1.10,1.10,700,1.10
2015-11-30,1.10,1.10,1.10,1.10,000,1.10
2015-11-27,1.10,1.10,1.10,1.10,5200,1.10
2015-11-26,1.15,1.15,1.15,1.15,5600,1.15
2015-11-25,1.15,1.15,1.15,1.15,2000,1.15
2015-11-24,1.16,1.16,1.15,1.15,18500,1.15
2015-11-23,1.15,1.15,1.15,1.15,000,1.15
2015-11-20,1.15,1.15,1.15,1.15,000,1.15
2015-11-19,1.15,1.15,1.15,1.15,000,1.15
2015-11-18,1.15,1.15,1.15,1.15,000,1.15
2015-11-17,1.16,1.16,1.15,1.15,7500,1.15
2015-11-16,1.15,1.15,1.15,1.15,000,1.15
2015-11-13,1.15,1.15,1.15,1.15,000,1.15
2015-11-12,1.15,1.15,1.15,1.15,000,1.15
2015-11-11,1.15,1.15,1.15,1.15,000,1.15
2015-11-10,1.15,1.15,1.15,1.15,000,1.15
2015-11-09,1.15,1.15,1.15,1.15,000,1.15
2015-11-06,1.15,1.15,1.15,1.15,000,1.15
2015-11-05,1.15,1.15,1.15,1.15,3100,1.15
2015-11-04,1.10,1.10,1.10,1.10,000,1.10
2015-11-03,1.10,1.10,1.10,1.10,14000,1.10
2015-11-02,1.11,1.11,1.11,1.11,20000,1.11
2015-10-30,1.12,1.12,1.12,1.12,000,1.12
2015-10-29,1.12,1.12,1.12,1.12,000,1.12
2015-10-28,1.19,1.19,1.12,1.12,25000,1.12
2015-10-27,1.19,1.19,1.19,1.19,000,1.19
2015-10-26,1.19,1.19,1.19,1.19,000,1.19
2015-10-23,1.19,1.19,1.18,1.19,12300,1.19
2015-10-22,1.19,1.19,1.19,1.19,000,1.19
2015-10-21,1.19,1.19,1.19,1.19,000,1.19
2015-10-20,1.19,1.19,1.19,1.19,000,1.19
2015-10-19,1.19,1.19,1.19,1.19,000,1.19
2015-10-16,1.19,1.19,1.19,1.19,900,1.19
2015-10-15,1.16,1.16,1.16,1.16,2000,1.16
2015-10-14,1.17,1.17,1.16,1.16,25500,1.16
2015-10-13,1.25,1.25,1.25,1.25,000,1.25
2015-10-12,1.25,1.25,1.25,1.25,000,1.25
2015-10-09,1.25,1.25,1.25,1.25,000,1.25
2015-10-08,1.25,1.25,1.25,1.25,000,1.25
2015-10-07,1.25,1.25,1.25,1.25,000,1.25
2015-10-06,1.25,1.25,1.25,1.25,2600,1.25
2015-10-05,1.25,1.25,1.25,1.25,000,1.25
2015-10-02,1.25,1.25,1.25,1.25,000,1.25
2015-10-01,1.25,1.25,1.25,1.25,000,1.25
2015-09-30,1.25,1.25,1.25,1.25,000,1.25
2015-09-29,1.25,1.25,1.25,1.25,800,1.25
2015-09-28,1.25,1.25,1.25,1.25,000,1.25
2015-09-25,1.25,1.25,1.25,1.25,000,1.25
2015-09-24,1.24,1.25,1.24,1.25,43000,1.25
2015-09-23,1.235,1.235,1.19,1.19,9100,1.19
2015-09-22,1.24,1.24,1.24,1.24,000,1.24
2015-09-21,1.24,1.24,1.24,1.24,100,1.24
2015-09-18,1.25,1.25,1.25,1.25,000,1.25
2015-09-17,1.25,1.25,1.25,1.25,000,1.25
2015-09-16,1.25,1.25,1.25,1.25,800,1.25
2015-09-15,1.25,1.25,1.25,1.25,000,1.25
2015-09-14,1.28,1.28,1.25,1.25,12400,1.25
2015-09-11,1.28,1.28,1.28,1.28,18400,1.28
2015-09-10,1.28,1.28,1.28,1.28,13300,1.28
2015-09-09,1.28,1.28,1.28,1.28,48700,1.28
2015-09-08,1.33,1.33,1.33,1.33,000,1.33
2015-09-07,1.30,1.33,1.30,1.33,5400,1.33
2015-09-04,1.34,1.34,1.30,1.33,301700,1.33
2015-09-03,1.35,1.35,1.35,1.35,000,1.35
2015-09-02,1.35,1.35,1.35,1.35,13200,1.35
2015-09-01,1.41,1.41,1.41,1.41,000,1.41
2015-08-31,1.41,1.41,1.41,1.41,000,1.41
2015-08-28,1.41,1.41,1.41,1.41,000,1.41
2015-08-27,1.41,1.41,1.41,1.41,3400,1.41
2015-08-26,1.41,1.41,1.41,1.41,2100,1.41
2015-08-25,1.42,1.42,1.42,1.42,500,1.42
2015-08-24,1.42,1.42,1.42,1.42,9500,1.42
2015-08-21,1.48,1.48,1.41,1.42,43000,1.42
2015-08-20,1.42,1.42,1.42,1.42,000,1.42
2015-08-19,1.42,1.42,1.42,1.42,000,1.42
2015-08-18,1.495,1.495,1.42,1.42,44600,1.42
2015-08-17,1.50,1.50,1.50,1.50,3000,1.50
2015-08-14,1.495,1.495,1.495,1.495,6000,1.495
2015-08-13,1.495,1.495,1.495,1.495,000,1.495
2015-08-12,1.44,1.495,1.44,1.495,25600,1.495
2015-08-11,1.30,1.30,1.30,1.30,17600,1.30
2015-08-10,1.30,1.30,1.30,1.30,000,1.30
2015-08-07,1.30,1.30,1.30,1.30,13100,1.30
2015-08-06,1.30,1.30,1.30,1.30,000,1.30
2015-08-05,1.35,1.35,1.30,1.30,16100,1.30
2015-08-04,1.35,1.35,1.35,1.35,2600,1.35
2015-08-03,1.35,1.35,1.35,1.35,000,1.35
2015-07-31,1.40,1.40,1.40,1.40,000,1.40
2015-07-30,1.40,1.40,1.40,1.40,000,1.40
2015-07-29,1.40,1.40,1.40,1.40,000,1.40
2015-07-28,1.40,1.40,1.40,1.40,000,1.40
2015-07-27,1.39,1.40,1.39,1.40,24000,1.40
2015-07-24,1.40,1.40,1.40,1.40,000,1.40
2015-07-23,1.40,1.40,1.40,1.40,000,1.40
2015-07-22,1.40,1.40,1.40,1.40,000,1.40
2015-07-21,1.40,1.40,1.40,1.40,000,1.40
2015-07-20,1.40,1.40,1.40,1.40,000,1.40
2015-07-17,1.40,1.40,1.40,1.40,000,1.40
2015-07-16,1.40,1.40,1.40,1.40,000,1.40
2015-07-15,1.40,1.40,1.40,1.40,000,1.40
2015-07-14,1.40,1.40,1.40,1.40,000,1.40
2015-07-13,1.40,1.40,1.40,1.40,000,1.40
2015-07-10,1.40,1.40,1.40,1.40,000,1.40
2015-07-09,1.40,1.40,1.40,1.40,000,1.40
2015-07-08,1.40,1.40,1.40,1.40,000,1.40
2015-07-07,1.40,1.40,1.40,1.40,5800,1.40
2015-07-06,1.355,1.355,1.355,1.355,000,1.355
2015-07-03,1.355,1.355,1.355,1.355,3400,1.355
2015-07-02,1.355,1.355,1.355,1.355,2100,1.355
2015-07-01,1.33,1.33,1.33,1.33,000,1.33
2015-06-30,1.33,1.33,1.33,1.33,000,1.33
2015-06-29,1.34,1.355,1.33,1.33,37800,1.33
2015-06-26,1.34,1.34,1.31,1.31,2900,1.31
2015-06-25,1.29,1.29,1.29,1.29,6900,1.29
2015-06-24,1.28,1.28,1.28,1.28,000,1.28
2015-06-23,1.30,1.30,1.28,1.28,23400,1.28
2015-06-22,1.30,1.30,1.30,1.30,000,1.30
2015-06-19,1.30,1.30,1.30,1.30,000,1.30
2015-06-18,1.36,1.36,1.30,1.30,51900,1.30
2015-06-17,1.35,1.36,1.35,1.36,15000,1.36
2015-06-16,1.35,1.35,1.35,1.35,000,1.35
2015-06-15,1.35,1.35,1.35,1.35,3400,1.35
2015-06-12,1.35,1.35,1.35,1.35,8500,1.35
2015-06-11,1.36,1.36,1.35,1.35,19100,1.35
2015-06-10,1.40,1.40,1.40,1.40,000,1.40
2015-06-09,1.40,1.40,1.40,1.40,000,1.40
2015-06-08,1.40,1.40,1.40,1.40,000,1.40
2015-06-05,1.39,1.40,1.39,1.40,4600,1.40
2015-06-04,1.40,1.40,1.40,1.40,000,1.40
2015-06-03,1.40,1.40,1.40,1.40,000,1.40
2015-06-02,1.40,1.40,1.40,1.40,000,1.40
2015-06-01,1.40,1.40,1.40,1.40,000,1.40
2015-05-29,1.39,1.40,1.39,1.40,103000,1.40
2015-05-28,1.40,1.40,1.40,1.40,000,1.40
2015-05-27,1.40,1.40,1.40,1.40,000,1.40
2015-05-26,1.40,1.40,1.40,1.40,000,1.40
2015-05-25,1.40,1.40,1.40,1.40,000,1.40
2015-05-22,1.40,1.40,1.40,1.40,2500,1.40
2015-05-21,1.40,1.40,1.40,1.40,000,1.40
2015-05-20,1.40,1.40,1.40,1.40,000,1.40
2015-05-19,1.41,1.41,1.40,1.40,502000,1.40
2015-05-18,1.43,1.43,1.43,1.43,000,1.43
2015-05-15,1.43,1.43,1.43,1.43,000,1.43
2015-05-14,1.43,1.43,1.425,1.43,78500,1.43
2015-05-13,1.445,1.445,1.445,1.445,000,1.445
2015-05-12,1.45,1.45,1.445,1.445,5300,1.445
2015-05-11,1.43,1.43,1.43,1.43,000,1.43
2015-05-08,1.43,1.43,1.43,1.43,000,1.43
2015-05-07,1.43,1.43,1.43,1.43,000,1.43
2015-05-06,1.43,1.43,1.43,1.43,000,1.43
2015-05-05,1.43,1.43,1.43,1.43,000,1.43
2015-05-04,1.43,1.43,1.43,1.43,000,1.43
2015-05-01,1.43,1.43,1.43,1.43,2700,1.43
2015-04-30,1.43,1.43,1.43,1.43,000,1.43
2015-04-29,1.43,1.43,1.43,1.43,000,1.43
2015-04-28,1.43,1.43,1.43,1.43,000,1.43
2015-04-27,1.43,1.43,1.43,1.43,19600,1.43
2015-04-24,1.39,1.39,1.39,1.39,000,1.39
2015-04-23,1.39,1.39,1.39,1.39,000,1.39
2015-04-22,1.40,1.40,1.39,1.39,1900,1.39
2015-04-21,1.38,1.38,1.38,1.38,000,1.38
2015-04-20,1.40,1.40,1.38,1.38,13000,1.38
2015-04-17,1.41,1.41,1.40,1.40,7000,1.40
2015-04-16,1.41,1.41,1.41,1.41,2200,1.41
2015-04-15,1.42,1.42,1.42,1.42,23200,1.42
2015-04-14,1.45,1.45,1.45,1.45,4100,1.45
2015-04-13,1.45,1.45,1.45,1.45,7000,1.45
2015-04-10,1.45,1.45,1.45,1.45,000,1.45
2015-04-09,1.45,1.45,1.45,1.45,000,1.45
2015-04-08,1.45,1.45,1.45,1.45,19600,1.45
2015-04-07,1.43,1.43,1.43,1.43,000,1.43
2015-04-06,1.43,1.43,1.43,1.43,000,1.43
2015-04-03,1.43,1.43,1.43,1.43,000,1.43
2015-04-02,1.43,1.43,1.43,1.43,000,1.43
2015-04-01,1.45,1.45,1.43,1.43,14300,1.43
2015-03-31,1.45,1.45,1.45,1.45,600,1.45
2015-03-30,1.495,1.495,1.45,1.45,6400,1.45
2015-03-27,1.50,1.50,1.50,1.50,000,1.50
2015-03-26,1.50,1.50,1.50,1.50,000,1.50
2015-03-25,1.445,1.50,1.445,1.50,13600,1.50
2015-03-24,1.445,1.445,1.445,1.445,155000,1.445
2015-03-23,1.41,1.41,1.41,1.41,000,1.41
2015-03-20,1.41,1.41,1.41,1.41,000,1.41
2015-03-19,1.41,1.41,1.41,1.41,000,1.41
2015-03-18,1.41,1.41,1.41,1.41,000,1.41
2015-03-17,1.41,1.41,1.41,1.41,12100,1.41
2015-03-16,1.41,1.41,1.41,1.41,2800,1.41
2015-03-13,1.39,1.40,1.39,1.40,30900,1.40
2015-03-12,1.38,1.39,1.38,1.38,42200,1.38
2015-03-11,1.38,1.38,1.38,1.38,20000,1.38
2015-03-10,1.36,1.36,1.36,1.36,3200,1.36
2015-03-09,1.365,1.365,1.36,1.36,27200,1.36
2015-03-06,1.365,1.365,1.36,1.365,21100,1.365
2015-03-05,1.39,1.39,1.39,1.39,000,1.39
2015-03-04,1.39,1.39,1.39,1.39,000,1.39
2015-03-03,1.38,1.39,1.35,1.39,16100,1.39
2015-03-02,1.40,1.40,1.38,1.38,18300,1.38
2015-02-27,1.40,1.40,1.40,1.40,000,1.40
2015-02-26,1.45,1.45,1.40,1.40,202600,1.40
2015-02-25,1.44,1.45,1.40,1.45,10400,1.45
2015-02-24,1.44,1.44,1.43,1.44,17700,1.44
2015-02-23,1.41,1.44,1.41,1.415,6400,1.415
2015-02-20,1.40,1.40,1.40,1.40,000,1.40
2015-02-19,1.40,1.40,1.40,1.40,000,1.40
2015-02-18,1.40,1.40,1.40,1.40,1300,1.40
2015-02-17,1.42,1.42,1.42,1.42,000,1.42
2015-02-16,1.42,1.42,1.42,1.42,600,1.42
2015-02-13,1.40,1.40,1.40,1.40,10900,1.40
2015-02-12,1.40,1.40,1.40,1.40,000,1.40
2015-02-11,1.40,1.40,1.40,1.40,5000,1.40
2015-02-10,1.39,1.40,1.39,1.40,31200,1.40
2015-02-09,1.35,1.35,1.35,1.35,000,1.35
2015-02-06,1.35,1.35,1.35,1.35,000,1.35
2015-02-05,1.35,1.35,1.35,1.35,000,1.35
2015-02-04,1.35,1.35,1.35,1.35,000,1.35
2015-02-03,1.36,1.36,1.35,1.35,5000,1.35
2015-02-02,1.36,1.36,1.36,1.36,20000,1.36
2015-01-30,1.39,1.39,1.39,1.39,000,1.39
2015-01-29,1.39,1.39,1.36,1.39,37200,1.39
2015-01-28,1.37,1.39,1.37,1.39,213800,1.39
2015-01-27,1.34,1.37,1.34,1.37,9000,1.37
2015-01-26,1.35,1.35,1.35,1.35,000,1.35
2015-01-23,1.35,1.35,1.35,1.35,250000,1.35
2015-01-22,1.38,1.38,1.38,1.38,000,1.38
2015-01-21,1.38,1.38,1.38,1.38,4800,1.38
2015-01-20,1.38,1.38,1.38,1.38,8600,1.38
2015-01-19,1.38,1.38,1.38,1.38,6500,1.38
2015-01-16,1.38,1.38,1.38,1.38,000,1.38
2015-01-15,1.35,1.38,1.35,1.38,51600,1.38
2015-01-14,1.38,1.38,1.38,1.38,700,1.38
2015-01-13,1.40,1.40,1.40,1.40,000,1.40
2015-01-12,1.40,1.40,1.40,1.40,000,1.40
2015-01-09,1.40,1.40,1.40,1.40,000,1.40
2015-01-08,1.39,1.40,1.39,1.40,57200,1.40
2015-01-07,1.39,1.39,1.39,1.39,000,1.39
2015-01-06,1.39,1.39,1.39,1.39,000,1.39
2015-01-05,1.39,1.39,1.39,1.39,000,1.39
2015-01-02,1.39,1.39,1.39,1.39,000,1.39
2015-01-01,1.39,1.39,1.39,1.39,000,1.39
2014-12-31,1.39,1.39,1.39,1.39,000,1.39
2014-12-30,1.39,1.39,1.39,1.39,000,1.39
2014-12-29,1.38,1.39,1.38,1.39,11200,1.39
2014-12-26,1.38,1.38,1.38,1.38,000,1.38
2014-12-25,1.38,1.38,1.38,1.38,000,1.38
2014-12-24,1.38,1.38,1.38,1.38,000,1.38
2014-12-23,1.38,1.38,1.38,1.38,5400,1.38
2014-12-22,1.36,1.36,1.36,1.36,7400,1.36
2014-12-19,1.39,1.39,1.36,1.36,51200,1.36
2014-12-18,1.39,1.39,1.39,1.39,000,1.39
2014-12-17,1.39,1.39,1.39,1.39,000,1.39
2014-12-16,1.39,1.39,1.39,1.39,000,1.39
2014-12-15,1.39,1.39,1.39,1.39,000,1.39
2014-12-12,1.39,1.39,1.38,1.39,42200,1.39
2014-12-11,1.39,1.39,1.39,1.39,000,1.39
2014-12-10,1.39,1.39,1.39,1.39,000,1.39
2014-12-09,1.40,1.40,1.39,1.39,233500,1.39
2014-12-08,1.38,1.38,1.36,1.36,4500,1.36
2014-12-05,1.45,1.45,1.45,1.45,5600,1.45
2014-12-04,1.45,1.45,1.45,1.45,2200,1.45
2014-12-03,1.38,1.38,1.38,1.38,5000,1.38
2014-12-02,1.45,1.45,1.45,1.45,000,1.45
2014-12-01,1.45,1.45,1.45,1.45,4900,1.45
2014-11-28,1.44,1.455,1.44,1.455,47000,1.455
2014-11-27,1.45,1.45,1.45,1.45,000,1.45
2014-11-26,1.45,1.45,1.45,1.45,000,1.45
2014-11-25,1.45,1.45,1.45,1.45,16900,1.45
2014-11-24,1.36,1.36,1.355,1.355,4700,1.355
2014-11-21,1.36,1.36,1.36,1.36,10000,1.36
2014-11-20,1.37,1.37,1.37,1.37,000,1.37
2014-11-19,1.37,1.37,1.37,1.37,000,1.37
2014-11-18,1.37,1.37,1.37,1.37,000,1.37
2014-11-17,1.37,1.37,1.37,1.37,2000,1.37
2014-11-14,1.45,1.45,1.45,1.45,000,1.45
2014-11-13,1.45,1.45,1.45,1.45,4200,1.45
2014-11-12,1.45,1.45,1.45,1.45,000,1.45
2014-11-11,1.41,1.45,1.41,1.45,5000,1.45
2014-11-10,1.36,1.36,1.36,1.36,000,1.36
2014-11-07,1.36,1.36,1.36,1.36,000,1.36
2014-11-06,1.36,1.36,1.36,1.36,400,1.36
2014-11-05,1.34,1.34,1.34,1.34,000,1.34
2014-11-04,1.34,1.34,1.34,1.34,000,1.34
2014-11-03,1.34,1.34,1.34,1.34,000,1.34
2014-10-31,1.34,1.34,1.34,1.34,000,1.34
2014-10-30,1.34,1.34,1.34,1.34,000,1.34
2014-10-29,1.34,1.34,1.34,1.34,3000,1.34
2014-10-28,1.30,1.30,1.30,1.30,19400,1.30
2014-10-27,1.25,1.30,1.25,1.30,34900,1.30
2014-10-24,1.28,1.30,1.275,1.275,36000,1.275
2014-10-23,1.28,1.28,1.28,1.28,1200,1.28
2014-10-22,1.30,1.30,1.275,1.275,3000,1.275
2014-10-21,1.30,1.30,1.30,1.30,10000,1.30
2014-10-20,1.30,1.30,1.30,1.30,1000,1.30
2014-10-17,1.35,1.35,1.35,1.35,000,1.35
2014-10-16,1.35,1.35,1.35,1.35,4600,1.35
2014-10-15,1.35,1.35,1.35,1.35,000,1.35
2014-10-14,1.35,1.35,1.35,1.35,000,1.35
2014-10-13,1.35,1.35,1.35,1.35,3400,1.35
2014-10-10,1.36,1.36,1.36,1.36,000,1.36
2014-10-09,1.36,1.36,1.36,1.36,000,1.36
2014-10-08,1.36,1.36,1.36,1.36,4000,1.36
2014-10-07,1.39,1.39,1.39,1.39,000,1.39
2014-10-06,1.39,1.39,1.39,1.39,000,1.39
2014-10-03,1.39,1.40,1.39,1.39,18500,1.39
2014-10-02,1.40,1.40,1.39,1.39,22600,1.39
2014-10-01,1.39,1.39,1.39,1.39,000,1.39
2014-09-30,1.39,1.39,1.39,1.39,000,1.39
2014-09-29,1.39,1.39,1.39,1.39,1500,1.39
2014-09-26,1.40,1.40,1.40,1.40,2500,1.40
2014-09-25,1.40,1.40,1.40,1.40,2500,1.40
2014-09-24,1.40,1.40,1.40,1.40,000,1.40
2014-09-23,1.40,1.40,1.40,1.40,000,1.40
2014-09-22,1.40,1.40,1.40,1.40,5700,1.40
2014-09-19,1.40,1.40,1.40,1.40,1600,1.40
2014-09-18,1.39,1.39,1.39,1.39,4000,1.39
2014-09-17,1.385,1.385,1.385,1.385,34000,1.385
2014-09-16,1.39,1.39,1.385,1.385,5700,1.385
2014-09-15,1.415,1.415,1.415,1.415,000,1.415
2014-09-12,1.41,1.415,1.40,1.415,11200,1.415
2014-09-11,1.43,1.43,1.41,1.41,300,1.41
2014-09-10,1.43,1.43,1.43,1.43,162200,1.43
2014-09-09,1.46,1.46,1.45,1.45,27100,1.45
2014-09-08,1.45,1.45,1.45,1.45,800,1.45
2014-09-05,1.45,1.45,1.45,1.45,000,1.45
2014-09-04,1.45,1.46,1.45,1.45,97300,1.45
2014-09-03,1.455,1.455,1.45,1.45,25000,1.45
2014-09-02,1.43,1.43,1.43,1.43,11300,1.43
2014-09-01,1.38,1.40,1.38,1.40,52000,1.40
2014-08-29,1.40,1.40,1.35,1.35,41700,1.35
2014-08-28,1.40,1.40,1.40,1.40,64900,1.40
2014-08-27,1.40,1.40,1.40,1.40,000,1.40
2014-08-26,1.40,1.40,1.40,1.40,000,1.40
2014-08-25,1.41,1.41,1.40,1.40,10000,1.40
2014-08-22,1.45,1.47,1.40,1.40,156800,1.40
2014-08-21,1.51,1.51,1.51,1.51,351600,1.51
2014-08-20,1.50,1.51,1.50,1.51,2300,1.51
2014-08-19,1.40,1.50,1.40,1.50,34000,1.50
2014-08-18,1.35,1.36,1.35,1.36,8300,1.36
2014-08-15,1.28,1.37,1.28,1.37,39200,1.37
2014-08-14,1.20,1.20,1.20,1.20,000,1.20
2014-08-13,1.20,1.20,1.20,1.20,000,1.20
2014-08-12,1.20,1.20,1.20,1.20,000,1.20
2014-08-11,1.20,1.20,1.20,1.20,000,1.20
2014-08-08,1.20,1.20,1.20,1.20,4500,1.20
2014-08-07,1.24,1.24,1.24,1.24,000,1.24
2014-08-06,1.24,1.24,1.24,1.24,1500,1.24
2014-08-05,1.25,1.25,1.24,1.24,23200,1.24
2014-08-04,1.22,1.25,1.20,1.25,147000,1.25
2014-08-01,1.22,1.22,1.22,1.22,000,1.22
2014-07-31,1.20,1.22,1.20,1.22,44100,1.22
2014-07-30,1.15,1.15,1.15,1.15,000,1.15
2014-07-29,1.14,1.15,1.14,1.15,17200,1.15
2014-07-28,1.11,1.11,1.11,1.11,2000,1.11
2014-07-25,1.11,1.11,1.11,1.11,5000,1.11
2014-07-24,1.10,1.10,1.10,1.10,000,1.10
2014-07-23,1.10,1.10,1.10,1.10,000,1.10
2014-07-22,1.10,1.10,1.10,1.10,4000,1.10
2014-07-21,1.14,1.14,1.14,1.14,000,1.14
2014-07-18,1.14,1.14,1.14,1.14,000,1.14
2014-07-17,1.14,1.14,1.14,1.14,4000,1.14
2014-07-16,1.07,1.07,1.07,1.07,000,1.07
2014-07-15,1.07,1.07,1.07,1.07,000,1.07
2014-07-14,1.07,1.07,1.07,1.07,45000,1.07
2014-07-11,1.07,1.07,1.07,1.07,000,1.07
2014-07-10,1.07,1.07,1.07,1.07,000,1.07
2014-07-09,1.07,1.07,1.07,1.07,000,1.07
2014-07-08,1.07,1.07,1.07,1.07,000,1.07
2014-07-07,1.07,1.07,1.07,1.07,000,1.07
2014-07-04,1.07,1.07,1.07,1.07,000,1.07
2014-07-03,1.07,1.07,1.07,1.07,000,1.07
2014-07-02,1.08,1.08,1.07,1.07,2300,1.07
2014-07-01,1.08,1.08,1.08,1.08,000,1.08
2014-06-30,1.08,1.08,1.08,1.08,3500,1.08
2014-06-27,1.08,1.08,1.08,1.08,000,1.08
2014-06-26,1.08,1.08,1.08,1.08,000,1.08
2014-06-25,1.08,1.08,1.08,1.08,4000,1.08
2014-06-24,1.08,1.08,1.08,1.08,7000,1.08
2014-06-23,1.09,1.10,1.09,1.10,35000,1.10
2014-06-20,1.10,1.10,1.10,1.10,000,1.10
2014-06-19,1.10,1.10,1.10,1.10,000,1.10
2014-06-18,1.10,1.10,1.10,1.10,000,1.10
2014-06-17,1.10,1.10,1.10,1.10,000,1.10
2014-06-16,1.10,1.10,1.10,1.10,000,1.10
2014-06-13,1.10,1.10,1.10,1.10,000,1.10
2014-06-12,1.10,1.10,1.10,1.10,000,1.10
2014-06-11,1.08,1.10,1.08,1.10,2500,1.10
2014-06-10,1.07,1.07,1.07,1.07,10000,1.07
2014-06-09,1.07,1.07,1.07,1.07,000,1.07
2014-06-06,1.07,1.07,1.07,1.07,100,1.07
2014-06-05,1.07,1.07,1.07,1.07,000,1.07
2014-06-04,1.07,1.07,1.07,1.07,54000,1.07
2014-06-03,1.08,1.08,1.07,1.07,1000,1.07
2014-06-02,1.07,1.07,1.07,1.07,000,1.07
2014-05-30,1.03,1.07,1.03,1.07,26900,1.07
2014-05-29,1.03,1.03,1.03,1.03,000,1.03
2014-05-28,1.02,1.03,1.02,1.03,7500,1.03
2014-05-27,1.02,1.02,1.02,1.02,20000,1.02
2014-05-26,1.01,1.01,1.01,1.01,23000,1.01
2014-05-23,1.02,1.02,1.02,1.02,1900,1.02
2014-05-22,1.00,1.01,1.00,1.01,77200,1.01
2014-05-21,1.01,1.01,1.01,1.01,1800,1.01
2014-05-20,1.00,1.00,1.00,1.00,20000,1.00
2014-05-19,0.96,1.00,0.96,1.00,41000,1.00
2014-05-16,0.905,0.905,0.90,0.90,113500,0.90
2014-05-15,0.905,0.905,0.905,0.905,000,0.905
2014-05-14,0.905,0.905,0.905,0.905,000,0.905
2014-05-13,0.905,0.905,0.905,0.905,000,0.905
2014-05-12,0.905,0.905,0.905,0.905,000,0.905
2014-05-09,0.905,0.905,0.905,0.905,10100,0.905
2014-05-08,0.905,0.905,0.90,0.90,10000,0.90
2014-05-07,0.90,0.90,0.90,0.90,000,0.90
2014-05-06,0.905,0.905,0.90,0.90,15000,0.90
2014-05-05,0.92,0.92,0.92,0.92,10000,0.92
2014-05-02,0.885,0.885,0.885,0.885,000,0.885
2014-05-01,0.885,0.885,0.885,0.885,000,0.885
2014-04-30,0.885,0.885,0.885,0.885,000,0.885
2014-04-29,0.885,0.885,0.885,0.885,000,0.885
2014-04-28,0.885,0.885,0.885,0.885,000,0.885
2014-04-25,0.885,0.885,0.885,0.885,000,0.885
2014-04-24,0.885,0.885,0.885,0.885,5000,0.885
2014-04-23,0.885,0.885,0.885,0.885,000,0.885
2014-04-22,0.885,0.885,0.88,0.885,29600,0.885
2014-04-21,0.90,0.90,0.90,0.90,000,0.90
2014-04-18,0.90,0.90,0.90,0.90,000,0.90
2014-04-17,0.90,0.90,0.90,0.90,000,0.90
2014-04-16,0.89,0.90,0.89,0.90,13500,0.90
2014-04-15,0.89,0.89,0.89,0.89,000,0.89
2014-04-14,0.89,0.89,0.89,0.89,725000,0.89
2014-04-11,0.885,0.885,0.885,0.885,000,0.885
2014-04-10,0.885,0.885,0.885,0.885,000,0.885
2014-04-09,0.86,0.90,0.85,0.885,70600,0.885
2014-04-08,0.895,0.895,0.895,0.895,000,0.895
2014-04-07,0.88,0.895,0.88,0.895,43600,0.895
2014-04-04,0.905,0.905,0.90,0.90,101800,0.90
2014-04-03,0.90,0.91,0.885,0.90,76500,0.90
2014-04-02,0.90,0.91,0.88,0.88,41700,0.88
2014-04-01,0.88,0.88,0.88,0.88,166600,0.88
2014-03-31,0.90,0.90,0.90,0.90,300,0.90
2014-03-28,0.90,0.90,0.90,0.90,9300,0.90
2014-03-27,0.90,0.91,0.90,0.91,6100,0.91
2014-03-26,0.85,0.85,0.85,0.85,000,0.85
2014-03-25,0.85,0.85,0.85,0.85,000,0.85
2014-03-24,0.85,0.85,0.85,0.85,000,0.85
2014-03-21,0.85,0.85,0.85,0.85,000,0.85
2014-03-20,0.85,0.85,0.85,0.85,000,0.85
2014-03-19,0.85,0.85,0.85,0.85,000,0.85
2014-03-18,0.85,0.85,0.85,0.85,000,0.85
2014-03-17,0.85,0.85,0.85,0.85,1400,0.85
2014-03-14,0.845,0.845,0.845,0.845,18900,0.845
2014-03-13,0.87,0.87,0.87,0.87,9500,0.87
2014-03-12,0.88,0.90,0.88,0.90,206000,0.90
2014-03-11,0.83,0.83,0.83,0.83,000,0.83
2014-03-10,0.83,0.83,0.83,0.83,000,0.83
2014-03-07,0.85,0.865,0.83,0.83,45000,0.83
2014-03-06,0.84,0.84,0.84,0.84,000,0.84
2014-03-05,0.84,0.84,0.84,0.84,000,0.84
2014-03-04,0.84,0.84,0.84,0.84,000,0.84
2014-03-03,0.84,0.84,0.83,0.84,30400,0.84
2014-02-28,0.82,0.82,0.82,0.82,3300,0.82
2014-02-27,0.82,0.84,0.82,0.84,19900,0.84
2014-02-26,0.79,0.80,0.79,0.80,107900,0.80
2014-02-25,0.805,0.805,0.805,0.805,000,0.805
2014-02-24,0.805,0.805,0.805,0.805,000,0.805
2014-02-21,0.805,0.805,0.805,0.805,5200,0.805
2014-02-20,0.79,0.82,0.79,0.82,10500,0.82
2014-02-19,0.825,0.825,0.825,0.825,4500,0.825
2014-02-18,0.78,0.78,0.78,0.78,000,0.78
2014-02-17,0.78,0.78,0.78,0.78,000,0.78
2014-02-14,0.775,0.78,0.77,0.78,31000,0.78
2014-02-13,0.765,0.765,0.765,0.765,000,0.765
2014-02-12,0.765,0.765,0.765,0.765,000,0.765
2014-02-11,0.765,0.765,0.765,0.765,000,0.765
2014-02-10,0.77,0.77,0.765,0.765,20000,0.765
2014-02-07,0.765,0.765,0.765,0.765,2000,0.765
2014-02-06,0.76,0.76,0.76,0.76,000,0.76
2014-02-05,0.76,0.76,0.76,0.76,20000,0.76
2014-02-04,0.76,0.76,0.76,0.76,000,0.76
2014-02-03,0.76,0.76,0.76,0.76,000,0.76
2014-01-31,0.76,0.76,0.76,0.76,000,0.76
2014-01-30,0.76,0.76,0.76,0.76,000,0.76
2014-01-29,0.76,0.76,0.76,0.76,000,0.76
2014-01-28,0.76,0.76,0.76,0.76,000,0.76
2014-01-27,0.76,0.76,0.76,0.76,000,0.76
2014-01-24,0.76,0.76,0.76,0.76,000,0.76
2014-01-23,0.76,0.76,0.76,0.76,3000,0.76
2014-01-22,0.80,0.80,0.80,0.80,000,0.80
2014-01-21,0.80,0.80,0.80,0.80,5000,0.80
2014-01-20,0.80,0.80,0.80,0.80,8000,0.80
2014-01-17,0.80,0.80,0.80,0.80,10000,0.80
2014-01-16,0.80,0.80,0.80,0.80,000,0.80
2014-01-15,0.80,0.80,0.80,0.80,207200,0.80
2014-01-14,0.80,0.80,0.80,0.80,190100,0.80
2014-01-13,0.785,0.785,0.785,0.785,4300,0.785
2014-01-10,0.84,0.84,0.84,0.84,000,0.84
2014-01-09,0.84,0.84,0.84,0.84,000,0.84
2014-01-08,0.80,0.84,0.80,0.84,21300,0.84
2014-01-07,0.85,0.85,0.85,0.85,000,0.85
2014-01-06,0.85,0.85,0.85,0.85,000,0.85
2014-01-03,0.85,0.85,0.85,0.85,000,0.85
2014-01-02,0.85,0.85,0.85,0.85,000,0.85
2014-01-01,0.85,0.85,0.85,0.85,000,0.85
2013-12-31,0.85,0.85,0.85,0.85,000,0.85
2013-12-30,0.85,0.85,0.85,0.85,2200,0.85
2013-12-27,0.82,0.82,0.82,0.82,000,0.82
2013-12-26,0.82,0.82,0.82,0.82,000,0.82
2013-12-25,0.82,0.82,0.82,0.82,000,0.82
2013-12-24,0.82,0.82,0.82,0.82,000,0.82
2013-12-23,0.82,0.82,0.82,0.82,000,0.82
2013-12-20,0.825,0.85,0.82,0.82,61700,0.82
2013-12-19,0.80,0.80,0.80,0.80,000,0.80
2013-12-18,0.80,0.80,0.80,0.80,000,0.80
2013-12-17,0.80,0.80,0.80,0.80,000,0.80
2013-12-16,0.80,0.80,0.80,0.80,47500,0.80
2013-12-13,0.80,0.80,0.80,0.80,000,0.80
2013-12-12,0.80,0.80,0.80,0.80,70500,0.80
2013-12-11,0.80,0.80,0.80,0.80,000,0.80
2013-12-10,0.80,0.80,0.80,0.80,10000,0.80
2013-12-09,0.77,0.77,0.77,0.77,000,0.77
2013-12-06,0.77,0.77,0.77,0.77,000,0.77
2013-12-05,0.76,0.77,0.76,0.77,64400,0.77
2013-12-04,0.76,0.76,0.76,0.76,000,0.76
2013-12-03,0.76,0.76,0.76,0.76,000,0.76
2013-12-02,0.76,0.76,0.76,0.76,000,0.76
2013-11-29,0.76,0.76,0.76,0.76,000,0.76
2013-11-28,0.76,0.76,0.76,0.76,000,0.76
2013-11-27,0.76,0.76,0.76,0.76,000,0.76
2013-11-26,0.76,0.76,0.76,0.76,000,0.76
2013-11-25,0.76,0.76,0.76,0.76,000,0.76
2013-11-22,0.76,0.76,0.76,0.76,000,0.76
2013-11-21,0.76,0.76,0.76,0.76,204000,0.76
2013-11-20,0.76,0.80,0.76,0.80,101400,0.80
2013-11-19,0.76,0.76,0.75,0.75,45900,0.75
2013-11-18,0.74,0.75,0.74,0.75,121800,0.75
2013-11-15,0.73,0.73,0.73,0.73,000,0.73
2013-11-14,0.73,0.73,0.73,0.73,000,0.73
2013-11-13,0.73,0.73,0.73,0.73,000,0.73
2013-11-12,0.73,0.74,0.73,0.73,42200,0.73
2013-11-11,0.72,0.74,0.72,0.74,73700,0.74
2013-11-08,0.72,0.72,0.72,0.72,000,0.72
2013-11-07,0.72,0.72,0.72,0.72,80000,0.72
2013-11-06,0.685,0.685,0.685,0.685,000,0.685
2013-11-05,0.70,0.70,0.685,0.685,49100,0.685
2013-11-04,0.725,0.725,0.725,0.725,2600,0.725
2013-11-01,0.74,0.74,0.74,0.74,000,0.74
2013-10-31,0.74,0.74,0.74,0.74,000,0.74
2013-10-30,0.74,0.74,0.74,0.74,000,0.74
2013-10-29,0.74,0.74,0.74,0.74,17000,0.74
2013-10-28,0.74,0.74,0.74,0.74,000,0.74
2013-10-25,0.74,0.74,0.74,0.74,3000,0.74
2013-10-24,0.74,0.74,0.74,0.74,000,0.74
2013-10-23,0.74,0.74,0.74,0.74,000,0.74
2013-10-22,0.74,0.74,0.74,0.74,000,0.74
2013-10-21,0.70,0.74,0.70,0.74,34000,0.74
2013-10-18,0.74,0.74,0.74,0.74,1300,0.74
2013-10-17,0.78,0.78,0.78,0.78,000,0.78
2013-10-16,0.78,0.78,0.78,0.78,000,0.78
2013-10-15,0.78,0.78,0.78,0.78,3000,0.78
2013-10-14,0.71,0.71,0.71,0.71,000,0.71
2013-10-11,0.71,0.71,0.71,0.71,24700,0.71
2013-10-10,0.69,0.69,0.69,0.69,000,0.69
2013-10-09,0.71,0.71,0.68,0.69,47000,0.69
2013-10-08,0.74,0.74,0.74,0.74,5000,0.74
2013-10-07,0.70,0.71,0.70,0.71,11700,0.71
2013-10-04,0.70,0.70,0.70,0.70,000,0.70
2013-10-03,0.74,0.74,0.68,0.70,29000,0.70
2013-10-02,0.73,0.73,0.73,0.73,000,0.73
2013-10-01,0.73,0.73,0.73,0.73,000,0.73
2013-09-30,0.75,0.75,0.73,0.73,52800,0.73
2013-09-27,0.73,0.73,0.73,0.73,000,0.73
2013-09-26,0.73,0.73,0.73,0.73,000,0.73
2013-09-25,0.73,0.73,0.73,0.73,2700,0.73
2013-09-24,0.78,0.78,0.78,0.78,000,0.78
2013-09-23,0.78,0.78,0.78,0.78,000,0.78
2013-09-20,0.78,0.78,0.78,0.78,000,0.78
2013-09-19,0.78,0.78,0.78,0.78,6900,0.78
2013-09-18,0.765,0.765,0.765,0.765,000,0.765
2013-09-17,0.765,0.765,0.765,0.765,000,0.765
2013-09-16,0.765,0.765,0.765,0.765,000,0.765
2013-09-13,0.79,0.79,0.765,0.765,35000,0.765
2013-09-12,0.75,0.75,0.73,0.73,21500,0.73
2013-09-11,0.75,0.80,0.75,0.80,16000,0.80
2013-09-10,0.76,0.76,0.74,0.74,43000,0.74
2013-09-09,0.695,0.72,0.695,0.72,34000,0.72
2013-09-06,0.69,0.69,0.69,0.69,5600,0.69
2013-09-05,0.69,0.69,0.69,0.69,1400,0.69
2013-09-04,0.65,0.665,0.65,0.665,80900,0.665
2013-09-03,0.65,0.665,0.65,0.65,703000,0.65
2013-09-02,0.63,0.63,0.63,0.63,000,0.63
2013-08-30,0.715,0.725,0.565,0.63,23600,0.63
2013-08-29,0.655,0.655,0.655,0.655,000,0.655
2013-08-28,0.65,0.70,0.65,0.655,525400,0.655
2013-08-27,0.55,0.63,0.55,0.63,71800,0.63
2013-08-26,0.52,0.525,0.52,0.525,8600,0.525
2013-08-23,0.52,0.52,0.52,0.52,5500,0.52
2013-08-22,0.52,0.52,0.52,0.52,10000,0.52
2013-08-21,0.50,0.50,0.50,0.50,000,0.50
2013-08-20,0.50,0.50,0.50,0.50,000,0.50
2013-08-19,0.50,0.50,0.50,0.50,87500,0.50
2013-08-16,0.495,0.495,0.44,0.45,115100,0.45
2013-08-15,0.47,0.525,0.47,0.475,78300,0.475
2013-08-14,0.445,0.445,0.44,0.445,67200,0.445
2013-08-13,0.455,0.50,0.43,0.44,201700,0.44
2013-08-12,0.42,0.48,0.42,0.455,260300,0.455
2013-08-09,0.40,0.42,0.40,0.42,170000,0.42
2013-08-08,0.40,0.41,0.40,0.40,522600,0.40
2013-08-07,0.38,0.38,0.38,0.38,441400,0.38
2013-08-06,0.355,0.37,0.355,0.37,2273200,0.37
2013-08-05,0.39,0.39,0.39,0.39,50000,0.39
2013-08-02,0.395,0.395,0.395,0.395,000,0.395
2013-08-01,0.395,0.395,0.395,0.395,4000,0.395
2013-07-31,0.43,0.43,0.43,0.43,000,0.43
2013-07-30,0.43,0.43,0.43,0.43,000,0.43
2013-07-29,0.43,0.43,0.43,0.43,000,0.43
2013-07-26,0.31,0.43,0.31,0.43,65400,0.43
2013-07-25,0.29,0.29,0.29,0.29,000,0.29
2013-07-24,0.29,0.29,0.29,0.29,1300,0.29
2013-07-23,0.25,0.265,0.25,0.265,85000,0.265
2013-07-22,0.21,0.21,0.21,0.21,000,0.21
2013-07-19,0.21,0.21,0.21,0.21,000,0.21
2013-07-18,0.21,0.21,0.21,0.21,000,0.21
2013-07-17,0.21,0.21,0.21,0.21,000,0.21
2013-07-16,0.21,0.21,0.21,0.21,000,0.21
2013-07-15,0.21,0.21,0.21,0.21,000,0.21
2013-07-12,0.21,0.21,0.21,0.21,000,0.21
2013-07-11,0.21,0.21,0.21,0.21,000,0.21
2013-07-10,0.21,0.21,0.21,0.21,000,0.21
2013-07-09,0.21,0.21,0.21,0.21,000,0.21
2013-07-08,0.21,0.21,0.21,0.21,000,0.21
2013-07-05,0.21,0.21,0.21,0.21,000,0.21
2013-07-04,0.21,0.21,0.21,0.21,000,0.21
2013-07-03,0.21,0.21,0.21,0.21,000,0.21
2013-07-02,0.21,0.21,0.21,0.21,000,0.21
2013-07-01,0.21,0.21,0.21,0.21,000,0.21
2013-06-28,0.21,0.21,0.21,0.21,1100,0.21
2013-06-27,0.21,0.21,0.21,0.21,000,0.21
2013-06-26,0.21,0.21,0.21,0.21,10000,0.21
2013-06-25,0.20,0.20,0.20,0.20,000,0.20
2013-06-24,0.20,0.20,0.20,0.20,000,0.20
2013-06-21,0.20,0.20,0.20,0.20,86600,0.20
2013-06-20,0.245,0.245,0.245,0.245,000,0.245
2013-06-19,0.245,0.245,0.245,0.245,000,0.245
2013-06-18,0.245,0.245,0.245,0.245,000,0.245
2013-06-17,0.245,0.245,0.245,0.245,000,0.245
2013-06-14,0.245,0.245,0.245,0.245,000,0.245
2013-06-13,0.245,0.245,0.245,0.245,12000,0.245
2013-06-12,0.25,0.25,0.25,0.25,000,0.25
2013-06-11,0.25,0.25,0.25,0.25,000,0.25
2013-06-10,0.25,0.25,0.25,0.25,000,0.25
2013-06-07,0.25,0.25,0.25,0.25,000,0.25
2013-06-06,0.25,0.25,0.25,0.25,000,0.25
2013-06-05,0.25,0.25,0.25,0.25,000,0.25
2013-06-04,0.245,0.25,0.245,0.25,9300,0.25
2013-06-03,0.245,0.245,0.245,0.245,000,0.245
2013-05-31,0.245,0.245,0.245,0.245,000,0.245
2013-05-30,0.245,0.245,0.245,0.245,4000,0.245
2013-05-29,0.245,0.245,0.245,0.245,000,0.245
2013-05-28,0.245,0.245,0.245,0.245,000,0.245
2013-05-27,0.245,0.245,0.245,0.245,32200,0.245
2013-05-24,0.23,0.23,0.23,0.23,000,0.23
2013-05-23,0.23,0.23,0.23,0.23,108000,0.23
2013-05-22,0.23,0.23,0.23,0.23,250000,0.23
2013-05-21,0.22,0.22,0.22,0.22,000,0.22
2013-05-20,0.22,0.22,0.22,0.22,000,0.22
2013-05-17,0.22,0.22,0.22,0.22,000,0.22
2013-05-16,0.22,0.22,0.22,0.22,97500,0.22
2013-05-15,0.19,0.22,0.19,0.22,5500,0.22
2013-05-14,0.19,0.19,0.19,0.19,000,0.19
2013-05-13,0.19,0.19,0.19,0.19,000,0.19
2013-05-10,0.19,0.19,0.19,0.19,000,0.19
2013-05-09,0.19,0.19,0.19,0.19,000,0.19
2013-05-08,0.19,0.19,0.19,0.19,000,0.19
2013-05-07,0.19,0.19,0.19,0.19,000,0.19
2013-05-06,0.19,0.19,0.19,0.19,000,0.19
2013-05-03,0.19,0.19,0.19,0.19,000,0.19
2013-05-02,0.19,0.19,0.19,0.19,000,0.19
2013-05-01,0.19,0.19,0.19,0.19,000,0.19
2013-04-30,0.19,0.19,0.19,0.19,000,0.19
2013-04-29,0.19,0.19,0.19,0.19,000,0.19
2013-04-26,0.19,0.19,0.19,0.19,5000,0.19
2013-04-25,0.17,0.17,0.17,0.17,000,0.17
2013-04-24,0.17,0.17,0.17,0.17,000,0.17
2013-04-23,0.17,0.17,0.17,0.17,000,0.17
2013-04-22,0.17,0.17,0.17,0.17,000,0.17
2013-04-19,0.17,0.17,0.17,0.17,000,0.17
2013-04-18,0.17,0.17,0.17,0.17,000,0.17
2013-04-17,0.17,0.17,0.17,0.17,000,0.17
2013-04-16,0.17,0.17,0.17,0.17,000,0.17
2013-04-15,0.17,0.17,0.17,0.17,000,0.17
2013-04-12,0.18,0.18,0.17,0.17,5000,0.17
2013-04-11,0.18,0.18,0.18,0.18,2500,0.18
2013-04-10,0.19,0.19,0.19,0.19,000,0.19
2013-04-09,0.19,0.19,0.19,0.19,000,0.19
2013-04-08,0.19,0.19,0.19,0.19,000,0.19
2013-04-05,0.19,0.19,0.19,0.19,000,0.19
2013-04-04,0.19,0.19,0.19,0.19,7700,0.19
2013-04-03,0.22,0.22,0.22,0.22,000,0.22
2013-04-02,0.22,0.22,0.22,0.22,000,0.22
2013-04-01,0.22,0.22,0.22,0.22,000,0.22
2013-03-29,0.22,0.22,0.22,0.22,000,0.22
2013-03-28,0.22,0.22,0.22,0.22,000,0.22
2013-03-27,0.22,0.22,0.22,0.22,000,0.22
2013-03-26,0.22,0.22,0.22,0.22,000,0.22
2013-03-25,0.22,0.22,0.22,0.22,000,0.22
2013-03-22,0.22,0.22,0.22,0.22,000,0.22
2013-03-21,0.22,0.22,0.22,0.22,000,0.22
2013-03-20,0.22,0.22,0.22,0.22,000,0.22
2013-03-19,0.22,0.22,0.22,0.22,000,0.22
2013-03-18,0.22,0.22,0.22,0.22,000,0.22
2013-03-15,0.22,0.22,0.22,0.22,000,0.22
2013-03-14,0.22,0.22,0.22,0.22,1800,0.22
2013-03-13,0.28,0.28,0.28,0.28,000,0.28
2013-03-12,0.28,0.28,0.28,0.28,000,0.28
2013-03-11,0.28,0.28,0.28,0.28,000,0.28
2013-03-08,0.28,0.28,0.28,0.28,000,0.28
2013-03-07,0.28,0.28,0.28,0.28,000,0.28
2013-03-06,0.28,0.28,0.28,0.28,000,0.28
2013-03-05,0.28,0.28,0.28,0.28,000,0.28
2013-03-04,0.28,0.28,0.28,0.28,000,0.28
2013-03-01,0.28,0.28,0.28,0.28,000,0.28
2013-02-28,0.26,0.28,0.26,0.28,5000,0.28
2013-02-27,0.22,0.22,0.22,0.22,000,0.22
2013-02-26,0.22,0.22,0.22,0.22,000,0.22
2013-02-25,0.22,0.22,0.22,0.22,000,0.22
2013-02-22,0.22,0.22,0.22,0.22,10000,0.22
2013-02-21,0.22,0.22,0.22,0.22,000,0.22
2013-02-20,0.22,0.22,0.22,0.22,000,0.22
2013-02-19,0.22,0.22,0.22,0.22,1900,0.22
2013-02-18,0.22,0.22,0.22,0.22,21000,0.22
2013-02-15,0.22,0.22,0.22,0.22,73700,0.22
2013-02-14,0.205,0.235,0.20,0.22,64000,0.22
2013-02-13,0.28,0.28,0.28,0.28,000,0.28
2013-02-12,0.28,0.28,0.28,0.28,000,0.28
2013-02-11,0.28,0.28,0.28,0.28,000,0.28
2013-02-08,0.28,0.28,0.28,0.28,000,0.28
2013-02-07,0.28,0.28,0.28,0.28,000,0.28
2013-02-06,0.28,0.28,0.28,0.28,000,0.28
2013-02-05,0.28,0.28,0.28,0.28,000,0.28
2013-02-04,0.27,0.28,0.27,0.28,14500,0.28
2013-02-01,0.30,0.30,0.30,0.30,000,0.30
2013-01-31,0.30,0.30,0.30,0.30,000,0.30
2013-01-30,0.30,0.30,0.30,0.30,000,0.30
2013-01-29,0.29,0.30,0.29,0.30,17900,0.30
2013-01-28,0.26,0.26,0.26,0.26,000,0.26
2013-01-25,0.26,0.26,0.26,0.26,3000,0.26
2013-01-24,0.24,0.24,0.24,0.24,000,0.24
2013-01-22,0.24,0.24,0.24,0.24,000,0.24
2013-01-21,0.24,0.24,0.24,0.24,2500,0.24
2013-01-18,0.235,0.235,0.235,0.235,000,0.235
2013-01-17,0.235,0.235,0.235,0.235,000,0.235
2013-01-16,0.24,0.24,0.23,0.235,7900,0.235
2013-01-15,0.21,0.21,0.21,0.21,000,0.21
2013-01-14,0.21,0.21,0.21,0.21,000,0.21
2013-01-11,0.21,0.21,0.21,0.21,000,0.21
2013-01-10,0.21,0.21,0.21,0.21,000,0.21
2013-01-09,0.21,0.21,0.21,0.21,000,0.21
2013-01-08,0.21,0.21,0.21,0.21,000,0.21
2013-01-07,0.21,0.21,0.21,0.21,000,0.21
2013-01-04,0.21,0.21,0.21,0.21,000,0.21
2013-01-03,0.21,0.21,0.21,0.21,000,0.21
2013-01-02,0.21,0.21,0.21,0.21,000,0.21
2013-01-01,0.21,0.21,0.21,0.21,000,0.21
2012-12-31,0.21,0.21,0.21,0.21,000,0.21
2012-12-28,0.21,0.21,0.21,0.21,000,0.21
2012-12-27,0.21,0.21,0.21,0.21,000,0.21
2012-12-26,0.21,0.21,0.21,0.21,000,0.21
2012-12-25,0.21,0.21,0.21,0.21,000,0.21
2012-12-24,0.21,0.21,0.21,0.21,16000,0.21
2012-12-21,0.21,0.21,0.21,0.21,000,0.21
2012-12-20,0.21,0.21,0.21,0.21,000,0.21
2012-12-19,0.21,0.21,0.21,0.21,000,0.21
2012-12-18,0.21,0.21,0.21,0.21,3900,0.21
2012-12-17,0.21,0.21,0.21,0.21,000,0.21
2012-12-14,0.21,0.21,0.21,0.21,000,0.21
2012-12-13,0.21,0.21,0.21,0.21,000,0.21
2012-12-12,0.21,0.21,0.21,0.21,000,0.21
2012-12-11,0.21,0.21,0.21,0.21,000,0.21
2012-12-10,0.21,0.21,0.21,0.21,000,0.21
2012-12-07,0.21,0.22,0.21,0.21,25500,0.21
2012-12-06,0.16,0.16,0.16,0.16,000,0.16
2012-12-05,0.16,0.16,0.16,0.16,000,0.16
2012-12-04,0.16,0.16,0.16,0.16,000,0.16
2012-12-03,0.16,0.16,0.16,0.16,000,0.16
2012-11-30,0.16,0.16,0.16,0.16,000,0.16
2012-11-29,0.16,0.16,0.16,0.16,000,0.16
2012-11-28,0.16,0.16,0.16,0.16,000,0.16
2012-11-27,0.16,0.16,0.16,0.16,50000,0.16
2012-11-26,0.15,0.15,0.14,0.14,104700,0.14
2012-11-23,0.14,0.14,0.14,0.14,3400,0.14
2012-11-22,0.13,0.13,0.13,0.13,000,0.13
2012-11-21,0.13,0.13,0.13,0.13,000,0.13
2012-11-20,0.13,0.13,0.13,0.13,000,0.13
2012-11-19,0.13,0.13,0.13,0.13,000,0.13
2012-11-16,0.13,0.13,0.13,0.13,000,0.13
2012-11-15,0.13,0.13,0.13,0.13,000,0.13
2012-11-14,0.13,0.13,0.13,0.13,000,0.13
2012-11-13,0.13,0.13,0.13,0.13,000,0.13
2012-11-12,0.13,0.13,0.13,0.13,000,0.13
2012-11-09,0.13,0.13,0.13,0.13,000,0.13
2012-11-08,0.13,0.13,0.13,0.13,000,0.13
2012-11-07,0.13,0.13,0.13,0.13,000,0.13
2012-11-06,0.13,0.13,0.13,0.13,000,0.13
2012-11-05,0.13,0.13,0.13,0.13,70000,0.13
2012-11-02,0.125,0.125,0.125,0.125,000,0.125
2012-11-01,0.125,0.125,0.125,0.125,000,0.125
2012-10-31,0.125,0.125,0.125,0.125,000,0.125
2012-10-30,0.125,0.125,0.125,0.125,125000,0.125
2012-10-29,0.12,0.12,0.12,0.12,000,0.12
2012-10-26,0.12,0.12,0.12,0.12,000,0.12
2012-10-25,0.12,0.12,0.12,0.12,000,0.12
2012-10-24,0.12,0.12,0.12,0.12,000,0.12
2012-10-23,0.12,0.12,0.12,0.12,000,0.12
2012-10-22,0.12,0.12,0.12,0.12,50000,0.12
2012-10-19,0.12,0.12,0.12,0.12,000,0.12
2012-10-18,0.12,0.12,0.12,0.12,000,0.12
2012-10-17,0.115,0.12,0.115,0.12,109900,0.12
2012-10-16,0.105,0.105,0.10,0.10,70000,0.10
2012-10-15,0.11,0.11,0.11,0.11,10000,0.11
2012-10-12,0.10,0.10,0.10,0.10,000,0.10
2012-10-11,0.10,0.10,0.10,0.10,000,0.10
2012-10-10,0.10,0.10,0.10,0.10,10000,0.10
2012-10-09,0.091,0.091,0.091,0.091,000,0.091
2012-10-08,0.091,0.091,0.091,0.091,000,0.091
2012-10-05,0.091,0.091,0.091,0.091,000,0.091
2012-10-04,0.091,0.091,0.091,0.091,000,0.091
2012-10-03,0.091,0.091,0.091,0.091,39500,0.091
2012-10-02,0.091,0.091,0.091,0.091,25500,0.091
2012-10-01,0.091,0.091,0.091,0.091,000,0.091
2012-09-28,0.091,0.091,0.091,0.091,000,0.091
2012-09-27,0.091,0.091,0.091,0.091,000,0.091
2012-09-26,0.091,0.091,0.091,0.091,000,0.091
2012-09-25,0.091,0.091,0.091,0.091,000,0.091
2012-09-24,0.091,0.091,0.091,0.091,000,0.091
2012-09-21,0.091,0.091,0.091,0.091,000,0.091
2012-09-20,0.091,0.091,0.091,0.091,000,0.091
2012-09-19,0.091,0.091,0.091,0.091,000,0.091
2012-09-18,0.091,0.091,0.091,0.091,000,0.091
2012-09-17,0.091,0.091,0.091,0.091,000,0.091
2012-09-14,0.091,0.095,0.091,0.091,10500,0.091
2012-09-13,0.091,0.091,0.091,0.091,16000,0.091
2012-09-12,0.092,0.092,0.091,0.091,26000,0.091
2012-09-11,0.095,0.095,0.095,0.095,000,0.095
2012-09-10,0.095,0.095,0.095,0.095,000,0.095
2012-09-07,0.095,0.095,0.095,0.095,000,0.095
2012-09-06,0.09,0.095,0.09,0.095,31000,0.095
2012-09-05,0.09,0.09,0.09,0.09,2000,0.09
2012-09-04,0.095,0.095,0.095,0.095,98000,0.095
2012-09-03,0.088,0.088,0.088,0.088,000,0.088
2012-08-31,0.088,0.088,0.088,0.088,000,0.088
2012-08-30,0.088,0.088,0.088,0.088,000,0.088
2012-08-29,0.088,0.088,0.088,0.088,000,0.088
2012-08-28,0.088,0.088,0.088,0.088,000,0.088
2012-08-27,0.088,0.088,0.088,0.088,000,0.088
2012-08-24,0.088,0.088,0.088,0.088,000,0.088
2012-08-23,0.088,0.088,0.088,0.088,000,0.088
2012-08-22,0.088,0.088,0.088,0.088,000,0.088
2012-08-21,0.088,0.088,0.088,0.088,000,0.088
2012-08-20,0.088,0.088,0.088,0.088,000,0.088
2012-08-17,0.088,0.088,0.088,0.088,2000,0.088
2012-08-16,0.09,0.09,0.09,0.09,10000,0.09
2012-08-15,0.10,0.10,0.10,0.10,000,0.10
2012-08-14,0.10,0.10,0.10,0.10,000,0.10
2012-08-13,0.10,0.10,0.10,0.10,000,0.10
2012-08-10,0.10,0.10,0.10,0.10,000,0.10
2012-08-09,0.10,0.10,0.10,0.10,000,0.10
2012-08-08,0.10,0.10,0.10,0.10,000,0.10
2012-08-07,0.10,0.10,0.10,0.10,000,0.10
2012-08-06,0.10,0.10,0.10,0.10,000,0.10
2012-08-03,0.10,0.10,0.10,0.10,000,0.10
2012-08-02,0.10,0.10,0.10,0.10,000,0.10
2012-08-01,0.10,0.10,0.10,0.10,000,0.10
2012-07-31,0.10,0.10,0.10,0.10,000,0.10
2012-07-30,0.10,0.10,0.10,0.10,000,0.10
2012-07-27,0.10,0.10,0.10,0.10,000,0.10
2012-07-26,0.10,0.10,0.10,0.10,000,0.10
2012-07-25,0.10,0.10,0.10,0.10,000,0.10
2012-07-24,0.10,0.10,0.10,0.10,000,0.10
2012-07-23,0.10,0.10,0.10,0.10,000,0.10
2012-07-20,0.10,0.10,0.10,0.10,000,0.10
2012-07-19,0.10,0.10,0.10,0.10,000,0.10
2012-07-18,0.10,0.10,0.10,0.10,000,0.10
2012-07-17,0.10,0.10,0.10,0.10,000,0.10
2012-07-16,0.10,0.10,0.10,0.10,000,0.10
2012-07-13,0.10,0.10,0.10,0.10,000,0.10
2012-07-12,0.10,0.10,0.10,0.10,000,0.10
2012-07-11,0.10,0.10,0.10,0.10,000,0.10
2012-07-10,0.10,0.10,0.10,0.10,000,0.10
2012-07-09,0.10,0.10,0.10,0.10,000,0.10
2012-07-06,0.10,0.10,0.10,0.10,000,0.10
2012-07-05,0.10,0.10,0.10,0.10,10000,0.10
2012-07-04,0.105,0.105,0.105,0.105,000,0.105
2012-07-03,0.105,0.105,0.105,0.105,000,0.105
2012-07-02,0.105,0.105,0.105,0.105,000,0.105
2012-06-29,0.10,0.11,0.10,0.105,30000,0.105
2012-06-28,0.095,0.095,0.095,0.095,20000,0.095
2012-06-27,0.12,0.12,0.12,0.12,000,0.12
2012-06-26,0.12,0.12,0.12,0.12,000,0.12
2012-06-25,0.12,0.12,0.12,0.12,000,0.12
2012-06-22,0.11,0.12,0.11,0.12,19000,0.12
2012-06-21,0.10,0.11,0.10,0.11,3127100,0.11
2012-06-20,0.097,0.097,0.097,0.097,50000,0.097
2012-06-19,0.10,0.10,0.095,0.095,115000,0.095
2012-06-18,0.10,0.10,0.10,0.10,45000,0.10
2012-06-15,0.095,0.095,0.095,0.095,19500,0.095
2012-06-14,0.10,0.10,0.10,0.10,30000,0.10
2012-06-13,0.095,0.095,0.095,0.095,90300,0.095
2012-06-12,0.11,0.11,0.11,0.11,50000,0.11
2012-06-11,0.11,0.11,0.11,0.11,000,0.11
2012-06-08,0.11,0.11,0.11,0.11,43000,0.11
2012-06-07,0.11,0.11,0.11,0.11,000,0.11
2012-06-06,0.11,0.11,0.11,0.11,000,0.11
2012-06-05,0.11,0.11,0.11,0.11,000,0.11
2012-06-04,0.11,0.11,0.11,0.11,000,0.11
2012-06-01,0.11,0.11,0.11,0.11,000,0.11
2012-05-31,0.105,0.11,0.105,0.11,51800,0.11
2012-05-30,0.11,0.11,0.11,0.11,000,0.11
2012-05-29,0.11,0.11,0.11,0.11,000,0.11
2012-05-28,0.115,0.115,0.11,0.11,24100,0.11
2012-05-25,0.115,0.115,0.115,0.115,000,0.115
2012-05-24,0.115,0.115,0.115,0.115,000,0.115
2012-05-23,0.115,0.115,0.115,0.115,000,0.115
2012-05-22,0.115,0.115,0.115,0.115,9700,0.115
2012-05-21,0.115,0.115,0.115,0.115,000,0.115
2012-05-18,0.115,0.115,0.115,0.115,5000,0.115
2012-05-17,0.11,0.11,0.11,0.11,000,0.11
2012-05-16,0.11,0.11,0.11,0.11,000,0.11
2012-05-15,0.11,0.11,0.11,0.11,000,0.11
2012-05-14,0.11,0.11,0.11,0.11,000,0.11
2012-05-11,0.11,0.11,0.11,0.11,000,0.11
2012-05-10,0.11,0.11,0.11,0.11,5000,0.11
2012-05-09,0.13,0.13,0.13,0.13,000,0.13
2012-05-08,0.13,0.13,0.13,0.13,000,0.13
2012-05-07,0.13,0.13,0.13,0.13,000,0.13
2012-05-04,0.13,0.13,0.13,0.13,15000,0.13
2012-05-03,0.13,0.13,0.13,0.13,4000,0.13
2012-05-02,0.13,0.13,0.13,0.13,50000,0.13
2012-05-01,0.13,0.13,0.13,0.13,000,0.13
2012-04-30,0.13,0.13,0.13,0.13,10000,0.13
2012-04-27,0.13,0.13,0.13,0.13,000,0.13
2012-04-26,0.13,0.13,0.13,0.13,000,0.13
2012-04-25,0.13,0.13,0.13,0.13,000,0.13
2012-04-24,0.13,0.13,0.13,0.13,000,0.13
2012-04-23,0.13,0.13,0.13,0.13,000,0.13
2012-04-20,0.13,0.13,0.13,0.13,4000,0.13
2012-04-19,0.14,0.14,0.13,0.13,64000,0.13
2012-04-18,0.155,0.155,0.155,0.155,000,0.155
2012-04-17,0.155,0.155,0.155,0.155,000,0.155
2012-04-16,0.155,0.155,0.155,0.155,000,0.155
2012-04-13,0.155,0.155,0.155,0.155,000,0.155
2012-04-12,0.155,0.155,0.155,0.155,000,0.155
2012-04-11,0.155,0.155,0.155,0.155,000,0.155
2012-04-10,0.155,0.155,0.155,0.155,000,0.155
2012-04-09,0.155,0.155,0.155,0.155,000,0.155
2012-04-06,0.155,0.155,0.155,0.155,000,0.155
2012-04-05,0.155,0.155,0.155,0.155,000,0.155
2012-04-04,0.155,0.155,0.155,0.155,000,0.155
2012-04-03,0.155,0.155,0.155,0.155,000,0.155
2012-04-02,0.155,0.155,0.155,0.155,000,0.155
2012-03-30,0.155,0.155,0.155,0.155,000,0.155
2012-03-29,0.155,0.155,0.155,0.155,000,0.155
2012-03-28,0.155,0.155,0.155,0.155,000,0.155
2012-03-27,0.155,0.155,0.155,0.155,2000,0.155
2012-03-26,0.135,0.135,0.135,0.135,6000,0.135
2012-03-23,0.135,0.135,0.135,0.135,000,0.135
2012-03-22,0.135,0.135,0.135,0.135,000,0.135
2012-03-21,0.135,0.135,0.135,0.135,000,0.135
2012-03-20,0.135,0.135,0.135,0.135,000,0.135
2012-03-19,0.135,0.135,0.135,0.135,000,0.135
2012-03-16,0.135,0.135,0.135,0.135,000,0.135
2012-03-15,0.135,0.135,0.135,0.135,000,0.135
2012-03-14,0.11,0.135,0.11,0.135,277800,0.135
2012-03-13,0.13,0.13,0.13,0.13,000,0.13
2012-03-12,0.13,0.13,0.13,0.13,000,0.13
2012-03-09,0.13,0.13,0.13,0.13,000,0.13
2012-03-08,0.13,0.13,0.13,0.13,000,0.13
2012-03-07,0.13,0.13,0.13,0.13,000,0.13
2012-03-06,0.13,0.13,0.13,0.13,000,0.13
2012-03-05,0.13,0.13,0.13,0.13,000,0.13
2012-03-02,0.13,0.13,0.13,0.13,000,0.13
2012-03-01,0.13,0.13,0.13,0.13,000,0.13
2012-02-29,0.13,0.13,0.13,0.13,2000,0.13
2012-02-28,0.12,0.12,0.12,0.12,000,0.12
2012-02-27,0.12,0.12,0.12,0.12,55000,0.12
2012-02-24,0.12,0.12,0.12,0.12,10000,0.12
2012-02-23,0.14,0.14,0.14,0.14,000,0.14
2012-02-22,0.14,0.14,0.14,0.14,12000,0.14
2012-02-21,0.16,0.16,0.16,0.16,000,0.16
2012-02-20,0.16,0.16,0.16,0.16,000,0.16
2012-02-17,0.16,0.16,0.16,0.16,000,0.16
2012-02-16,0.16,0.16,0.16,0.16,000,0.16
2012-02-15,0.16,0.16,0.16,0.16,000,0.16
2012-02-14,0.16,0.16,0.16,0.16,000,0.16
2012-02-13,0.16,0.16,0.16,0.16,25800,0.16
2012-02-10,0.155,0.155,0.155,0.155,000,0.155
2012-02-09,0.155,0.155,0.155,0.155,20000,0.155
2012-02-08,0.145,0.145,0.145,0.145,000,0.145
2012-02-07,0.145,0.145,0.145,0.145,80000,0.145
2012-02-06,0.155,0.155,0.155,0.155,000,0.155
2012-02-03,0.155,0.155,0.155,0.155,000,0.155
2012-02-02,0.155,0.155,0.155,0.155,000,0.155
2012-02-01,0.155,0.155,0.155,0.155,000,0.155
2012-01-31,0.145,0.155,0.145,0.155,68000,0.155
2012-01-27,0.135,0.135,0.135,0.135,4000,0.135
2012-01-26,0.12,0.12,0.12,0.12,000,0.12
2012-01-25,0.12,0.12,0.12,0.12,000,0.12
2012-01-24,0.12,0.12,0.12,0.12,000,0.12
2012-01-23,0.12,0.12,0.12,0.12,000,0.12
2012-01-20,0.12,0.12,0.12,0.12,000,0.12
2012-01-19,0.12,0.12,0.12,0.12,000,0.12
2012-01-18,0.12,0.12,0.12,0.12,000,0.12
2012-01-17,0.12,0.12,0.12,0.12,000,0.12
2012-01-16,0.12,0.12,0.12,0.12,000,0.12
2012-01-13,0.12,0.12,0.12,0.12,000,0.12
2012-01-12,0.12,0.12,0.12,0.12,000,0.12
2012-01-11,0.12,0.12,0.12,0.12,000,0.12
2012-01-10,0.12,0.12,0.12,0.12,000,0.12
2012-01-09,0.12,0.12,0.12,0.12,000,0.12
2012-01-06,0.12,0.12,0.12,0.12,000,0.12
2012-01-05,0.12,0.12,0.12,0.12,000,0.12
2012-01-04,0.13,0.13,0.12,0.12,20000,0.12
2012-01-03,0.13,0.13,0.13,0.13,000,0.13
2012-01-02,0.13,0.13,0.13,0.13,000,0.13
2011-12-30,0.13,0.13,0.13,0.13,000,0.13
2011-12-29,0.13,0.13,0.13,0.13,000,0.13
2011-12-28,0.13,0.13,0.13,0.13,000,0.13
2011-12-27,0.13,0.13,0.13,0.13,000,0.13
2011-12-26,0.13,0.13,0.13,0.13,000,0.13
2011-12-23,0.13,0.13,0.13,0.13,000,0.13
2011-12-22,0.13,0.13,0.13,0.13,000,0.13
2011-12-21,0.13,0.13,0.13,0.13,000,0.13
2011-12-20,0.13,0.13,0.13,0.13,000,0.13
2011-12-19,0.13,0.13,0.13,0.13,000,0.13
2011-12-16,0.13,0.13,0.13,0.13,4000,0.13
2011-12-15,0.15,0.15,0.15,0.15,000,0.15
2011-12-14,0.15,0.15,0.15,0.15,26700,0.15
2011-12-13,0.14,0.15,0.14,0.15,214000,0.15
2011-12-12,0.12,0.12,0.12,0.12,000,0.12
2011-12-09,0.12,0.12,0.12,0.12,000,0.12
2011-12-08,0.12,0.12,0.12,0.12,55000,0.12
2011-12-07,0.12,0.12,0.12,0.12,000,0.12
2011-12-06,0.12,0.12,0.12,0.12,000,0.12
2011-12-05,0.12,0.12,0.12,0.12,100000,0.12
2011-12-02,0.14,0.14,0.12,0.12,70000,0.12
2011-12-01,0.14,0.14,0.14,0.14,000,0.14
2011-11-30,0.14,0.14,0.14,0.14,000,0.14
2011-11-29,0.14,0.14,0.14,0.14,000,0.14
2011-11-28,0.14,0.14,0.14,0.14,53000,0.14
2011-11-25,0.13,0.13,0.13,0.13,9000,0.13
2011-11-24,0.13,0.13,0.13,0.13,000,0.13
2011-11-23,0.13,0.13,0.13,0.13,000,0.13
2011-11-22,0.13,0.13,0.13,0.13,11000,0.13
2011-11-21,0.12,0.12,0.12,0.12,000,0.12
2011-11-18,0.12,0.12,0.12,0.12,000,0.12
2011-11-17,0.12,0.12,0.12,0.12,000,0.12
2011-11-15,0.12,0.12,0.12,0.12,40000,0.12
2011-10-31,0.12,0.12,0.11,0.115,134500,0.115
2011-10-24,0.12,0.12,0.12,0.12,7000,0.12
2011-10-05,0.13,0.13,0.125,0.125,200000,0.125
2011-10-04,0.13,0.13,0.13,0.13,90000,0.13
2011-09-29,0.13,0.13,0.13,0.13,10000,0.13
2011-09-28,0.135,0.135,0.135,0.135,37000,0.135
2011-09-27,0.14,0.14,0.14,0.14,40000,0.14
2011-09-08,0.15,0.15,0.15,0.15,100000,0.15
2011-09-07,0.14,0.14,0.14,0.14,7000,0.14
2011-09-01,0.135,0.135,0.135,0.135,8000,0.135
2011-08-31,0.135,0.135,0.135,0.135,10000,0.135
2011-08-29,0.135,0.135,0.135,0.135,550000,0.135
2011-08-25,0.135,0.135,0.135,0.135,3000,0.135
2011-08-23,0.14,0.14,0.135,0.135,81000,0.135
2011-08-22,0.14,0.14,0.14,0.14,50000,0.14
2011-08-19,0.14,0.14,0.14,0.14,11000,0.14
2011-08-11,0.13,0.13,0.13,0.13,5000,0.13
2011-08-09,0.13,0.13,0.13,0.13,240000,0.13
2011-08-08,0.13,0.13,0.13,0.13,40000,0.13
2011-08-05,0.14,0.14,0.14,0.14,80000,0.14
2011-08-02,0.14,0.14,0.14,0.14,70000,0.14
2011-07-15,0.14,0.14,0.14,0.14,000,0.14
2011-07-01,0.16,0.16,0.16,0.16,50000,0.16
2011-06-30,0.15,0.15,0.15,0.15,78000,0.15
2011-06-29,0.14,0.14,0.14,0.14,52000,0.14
2011-06-28,0.11,0.15,0.11,0.15,398100,0.15
2011-06-27,0.12,0.12,0.10,0.10,14000,0.10
2011-06-24,0.12,0.12,0.12,0.12,25000,0.12
2011-06-22,0.12,0.12,0.12,0.12,10900,0.12
2011-06-21,0.12,0.12,0.12,0.12,10000,0.12
2011-06-20,0.145,0.15,0.14,0.14,101800,0.14
2011-06-17,0.15,0.15,0.145,0.145,7200,0.145
2011-06-16,0.15,0.15,0.15,0.15,47700,0.15
2011-06-15,0.15,0.15,0.15,0.15,51200,0.15
2011-06-14,0.155,0.155,0.15,0.15,120000,0.15
2011-06-10,0.155,0.16,0.155,0.16,62000,0.16
2011-06-01,0.165,0.165,0.15,0.15,2293600,0.15
2011-05-27,0.15,0.15,0.15,0.15,18000,0.15
2011-05-26,0.155,0.155,0.15,0.15,34000,0.15
2011-05-25,0.155,0.155,0.155,0.155,45000,0.155
2011-05-20,0.16,0.16,0.15,0.15,230600,0.15
2011-05-18,0.15,0.155,0.15,0.155,229000,0.155
2011-05-11,0.165,0.165,0.165,0.165,47000,0.165
2011-05-10,0.15,0.15,0.15,0.15,50000,0.15
2011-05-09,0.155,0.155,0.155,0.155,43000,0.155
2011-05-05,0.155,0.155,0.15,0.155,25000,0.155
2011-05-04,0.165,0.165,0.16,0.16,13000,0.16
2011-05-03,0.165,0.165,0.165,0.165,2000,0.165
2011-05-02,0.165,0.165,0.165,0.165,60000,0.165
2011-04-28,0.165,0.165,0.16,0.165,15000,0.165
2011-04-27,0.20,0.20,0.20,0.20,2500,0.20
2011-04-21,0.175,0.175,0.165,0.17,145000,0.17
2011-04-19,0.175,0.175,0.175,0.175,3900,0.175
2011-04-18,0.175,0.175,0.175,0.175,79500,0.175
2011-04-14,0.17,0.17,0.17,0.17,16000,0.17
2011-04-13,0.16,0.16,0.16,0.16,10000,0.16
2011-04-11,0.18,0.18,0.175,0.175,352000,0.175
2011-04-08,0.18,0.18,0.18,0.18,15000,0.18
2011-04-06,0.18,0.18,0.18,0.18,15500,0.18
2011-04-04,0.185,0.185,0.185,0.185,40000,0.185
2011-04-01,0.18,0.19,0.18,0.19,17000,0.19
2011-03-30,0.195,0.195,0.19,0.19,100000,0.19
2011-03-25,0.19,0.19,0.19,0.19,17000,0.19
2011-03-24,0.20,0.20,0.19,0.19,39000,0.19
2011-03-23,0.20,0.20,0.20,0.20,4000,0.20
2011-03-22,0.19,0.20,0.19,0.20,38000,0.20
2011-03-18,0.20,0.20,0.175,0.175,115000,0.175
2011-03-17,0.19,0.19,0.19,0.19,25000,0.19
2011-03-16,0.20,0.20,0.19,0.19,201800,0.19
2011-03-15,0.21,0.21,0.20,0.20,43000,0.20
2011-03-11,0.215,0.215,0.21,0.21,419000,0.21
2011-03-10,0.225,0.225,0.22,0.22,383000,0.22
2011-03-09,0.225,0.225,0.22,0.22,59200,0.22
2011-03-08,0.22,0.22,0.22,0.22,200700,0.22
2011-03-07,0.23,0.23,0.225,0.225,75000,0.225
2011-03-04,0.23,0.235,0.23,0.235,60000,0.235
2011-03-03,0.23,0.24,0.23,0.23,217400,0.23
2011-03-02,0.23,0.24,0.225,0.225,136700,0.225
2011-03-01,0.23,0.24,0.23,0.24,190000,0.24
2011-02-28,0.215,0.225,0.205,0.225,93600,0.225
2011-02-25,0.22,0.22,0.22,0.22,93600,0.22
2011-02-24,0.23,0.23,0.225,0.225,85000,0.225
2011-02-23,0.23,0.23,0.225,0.225,31200,0.225
2011-02-22,0.23,0.23,0.23,0.23,48000,0.23
2011-02-21,0.245,0.255,0.23,0.23,201500,0.23
2011-02-18,0.23,0.255,0.23,0.255,512600,0.255
2011-02-17,0.245,0.245,0.23,0.24,1150700,0.24
2011-02-16,0.245,0.25,0.235,0.245,260300,0.245
2011-02-15,0.23,0.255,0.23,0.245,449000,0.245
2011-02-14,0.235,0.235,0.22,0.225,347600,0.225
2011-02-11,0.235,0.24,0.22,0.235,664200,0.235
2011-02-10,0.27,0.27,0.23,0.24,779500,0.24
2011-02-09,0.29,0.325,0.27,0.275,816800,0.275
2011-02-08,0.40,0.40,0.26,0.26,918500,0.26
2011-02-07,0.60,0.60,0.38,0.405,520700,0.405
2011-02-04,0.77,0.77,0.77,0.77,15000,0.77
2011-02-03,0.79,0.79,0.79,0.79,2500,0.79
2011-01-27,0.80,0.80,0.80,0.80,8000,0.80
2011-01-21,0.85,0.85,0.84,0.84,198200,0.84
2011-01-20,0.85,0.85,0.85,0.85,17000,0.85
2011-01-18,0.85,0.85,0.85,0.85,8000,0.85
2011-01-17,0.825,0.825,0.825,0.825,10000,0.825
2011-01-12,0.825,0.825,0.825,0.825,1500,0.825
2011-01-11,0.74,0.825,0.71,0.825,5700,0.825
2011-01-07,0.825,0.825,0.825,0.825,4200,0.825
2010-12-24,0.83,0.83,0.825,0.825,23700,0.825
2010-12-23,0.85,0.85,0.84,0.84,9200,0.84
2010-12-21,0.85,0.85,0.85,0.85,5000,0.85
2010-12-20,0.86,0.86,0.85,0.85,6000,0.85
2010-12-17,0.89,0.89,0.89,0.89,2000,0.89
2010-12-15,0.86,0.86,0.86,0.86,35000,0.86
2010-12-14,0.895,0.895,0.88,0.895,16200,0.895
2010-12-08,0.88,0.88,0.865,0.88,62000,0.88
2010-12-06,0.88,0.88,0.88,0.88,72000,0.88
2010-12-03,0.88,0.915,0.88,0.915,12000,0.915
2010-12-02,0.925,0.925,0.92,0.92,32000,0.92
2010-12-01,0.945,0.945,0.94,0.94,35100,0.94
2010-11-30,0.90,0.90,0.90,0.90,2500,0.90
2010-11-29,0.92,0.92,0.88,0.88,10700,0.88
2010-11-25,0.90,0.90,0.88,0.88,27000,0.88
2010-11-08,0.98,0.98,0.98,0.98,6000,0.98
2010-11-05,0.97,1.00,0.95,0.99,25900,0.99
2010-11-04,0.99,0.99,0.97,0.97,4000,0.97
2010-11-02,1.00,1.00,0.99,0.99,15000,0.99
2010-11-01,1.01,1.01,1.01,1.01,90000,1.01
2010-10-27,1.01,1.01,1.01,1.01,15000,1.01
2010-10-26,1.02,1.02,1.01,1.02,20000,1.02
2010-10-25,1.03,1.03,1.00,1.00,45000,1.00
2010-10-22,1.03,1.03,1.00,1.00,589000,1.00
2010-10-21,1.06,1.06,1.06,1.06,70000,1.06
2010-10-20,1.01,1.03,1.01,1.03,39000,1.03
2010-10-19,1.02,1.02,1.02,1.02,10000,1.02
2010-10-18,1.07,1.07,1.06,1.06,14000,1.06
2010-10-15,1.08,1.08,1.08,1.08,20000,1.08
2010-10-14,1.10,1.10,1.09,1.09,19500,1.09
2010-10-13,1.10,1.10,1.10,1.10,62000,1.10
2010-10-12,1.14,1.14,1.14,1.14,20000,1.14
2010-10-11,1.14,1.14,1.14,1.14,50000,1.14
2010-10-07,1.14,1.14,1.12,1.14,13900,1.14
2010-10-06,1.14,1.14,1.14,1.14,92000,1.14
2010-10-05,1.16,1.16,1.14,1.14,89000,1.14
2010-10-04,1.18,1.18,1.17,1.17,186000,1.17
2010-09-30,1.20,1.20,1.20,1.20,21500,1.20
2010-09-27,1.24,1.24,1.24,1.24,18500,1.24
2010-09-24,1.20,1.20,1.20,1.20,84400,1.20
2010-09-23,1.20,1.20,1.15,1.20,1047800,1.20
2010-09-22,1.20,1.20,1.20,1.20,14700,1.20
2010-09-21,1.115,1.20,1.11,1.20,196900,1.20
