Date,Open,High,Low,Close,Volume,Adj Close
2017-01-10,0.175,0.18,0.175,0.18,132800,0.18
2017-01-09,0.175,0.175,0.17,0.175,459200,0.175
2017-01-06,0.16,0.17,0.16,0.17,543600,0.17
2017-01-05,0.155,0.16,0.155,0.16,172900,0.16
2017-01-04,0.165,0.165,0.155,0.155,34400,0.155
2017-01-03,0.17,0.17,0.16,0.16,575700,0.16
2017-01-02,0.165,0.165,0.165,0.165,000,0.165
2016-12-30,0.185,0.185,0.165,0.165,1471900,0.165
2016-12-29,0.185,0.185,0.17,0.185,4903600,0.185
2016-12-28,0.165,0.165,0.165,0.165,000,0.165
2016-12-27,0.165,0.165,0.165,0.165,000,0.165
2016-12-26,0.165,0.165,0.165,0.165,000,0.165
2016-12-23,0.165,0.165,0.165,0.165,62900,0.165
2016-12-22,0.17,0.17,0.17,0.17,000,0.17
2016-12-21,0.17,0.17,0.16,0.17,340300,0.17
2016-12-20,0.165,0.165,0.165,0.165,000,0.165
2016-12-19,0.17,0.175,0.165,0.165,294300,0.165
2016-12-16,0.16,0.17,0.16,0.17,183500,0.17
2016-12-15,0.18,0.18,0.16,0.16,401500,0.16
2016-12-14,0.18,0.18,0.18,0.18,5300,0.18
2016-12-13,0.18,0.18,0.17,0.18,67200,0.18
2016-12-12,0.175,0.175,0.155,0.16,412200,0.16
2016-12-09,0.175,0.18,0.175,0.175,53000,0.175
2016-12-08,0.18,0.19,0.18,0.19,567700,0.19
2016-12-07,0.17,0.18,0.17,0.18,371800,0.18
2016-12-06,0.165,0.17,0.165,0.17,284600,0.17
2016-12-05,0.17,0.17,0.165,0.165,100900,0.165
2016-12-02,0.17,0.175,0.17,0.175,24300,0.175
2016-12-01,0.18,0.18,0.16,0.16,175500,0.16
2016-11-30,0.16,0.18,0.16,0.18,774800,0.18
2016-11-29,0.15,0.155,0.15,0.155,130600,0.155
2016-11-28,0.15,0.155,0.15,0.15,231200,0.15
2016-11-25,0.15,0.15,0.15,0.15,25000,0.15
2016-11-24,0.15,0.15,0.145,0.145,136300,0.145
2016-11-23,0.145,0.145,0.145,0.145,000,0.145
2016-11-22,0.15,0.15,0.14,0.145,85600,0.145
2016-11-21,0.15,0.15,0.145,0.15,106100,0.15
2016-11-18,0.155,0.155,0.15,0.15,116000,0.15
2016-11-17,0.15,0.15,0.15,0.15,000,0.15
2016-11-16,0.15,0.155,0.15,0.15,115800,0.15
2016-11-15,0.15,0.15,0.145,0.15,66600,0.15
2016-11-14,0.155,0.155,0.15,0.15,93500,0.15
2016-11-11,0.155,0.16,0.15,0.155,371200,0.155
2016-11-10,0.15,0.155,0.145,0.155,77300,0.155
2016-11-09,0.15,0.155,0.14,0.15,383800,0.15
2016-11-08,0.14,0.155,0.14,0.155,106500,0.155
2016-11-07,0.145,0.145,0.14,0.14,40500,0.14
2016-11-04,0.145,0.15,0.145,0.15,102000,0.15
2016-11-03,0.155,0.155,0.155,0.155,000,0.155
2016-11-02,0.155,0.155,0.155,0.155,000,0.155
2016-11-01,0.16,0.16,0.15,0.155,126100,0.155
2016-10-31,0.155,0.155,0.155,0.155,609100,0.155
2016-10-28,0.155,0.155,0.155,0.155,55000,0.155
2016-10-27,0.155,0.155,0.155,0.155,000,0.155
2016-10-26,0.155,0.155,0.155,0.155,79300,0.155
2016-10-25,0.16,0.16,0.155,0.16,168300,0.16
2016-10-24,0.145,0.155,0.145,0.155,335700,0.155
2016-10-21,0.145,0.155,0.145,0.155,147600,0.155
2016-10-20,0.14,0.145,0.14,0.145,2600,0.145
2016-10-19,0.14,0.14,0.135,0.135,7100,0.135
2016-10-18,0.14,0.145,0.13,0.14,457200,0.14
2016-10-17,0.145,0.145,0.135,0.135,341700,0.135
2016-10-14,0.15,0.15,0.15,0.15,7000,0.15
2016-10-13,0.145,0.145,0.145,0.145,000,0.145
2016-10-12,0.145,0.145,0.145,0.145,60100,0.145
2016-10-11,0.145,0.145,0.14,0.145,376900,0.145
2016-10-10,0.15,0.15,0.145,0.145,189100,0.145
2016-10-07,0.15,0.155,0.145,0.15,360900,0.15
2016-10-06,0.145,0.15,0.14,0.14,105000,0.14
2016-10-05,0.16,0.16,0.14,0.14,449200,0.14
2016-10-04,0.155,0.155,0.155,0.155,000,0.155
2016-10-03,0.155,0.155,0.155,0.155,000,0.155
2016-09-30,0.155,0.155,0.155,0.155,200000,0.155
2016-09-29,0.15,0.16,0.15,0.155,261000,0.155
2016-09-28,0.15,0.155,0.14,0.15,59500,0.15
2016-09-27,0.16,0.165,0.16,0.16,188600,0.16
2016-09-26,0.14,0.155,0.14,0.155,320200,0.155
2016-09-23,0.15,0.15,0.15,0.15,33000,0.15
2016-09-22,0.155,0.155,0.155,0.155,152200,0.155
2016-09-21,0.145,0.15,0.145,0.15,47700,0.15
2016-09-20,0.145,0.145,0.145,0.145,25000,0.145
2016-09-19,0.135,0.135,0.135,0.135,000,0.135
2016-09-16,0.14,0.14,0.135,0.135,15500,0.135
2016-09-15,0.145,0.145,0.135,0.135,60300,0.135
2016-09-14,0.14,0.14,0.14,0.14,10000,0.14
2016-09-13,0.14,0.145,0.14,0.145,10800,0.145
2016-09-12,0.14,0.145,0.135,0.14,63700,0.14
2016-09-09,0.14,0.14,0.14,0.14,50000,0.14
2016-09-08,0.14,0.14,0.14,0.14,000,0.14
2016-09-07,0.14,0.14,0.14,0.14,000,0.14
2016-09-06,0.14,0.14,0.135,0.14,84100,0.14
2016-09-05,0.14,0.14,0.14,0.14,60000,0.14
2016-09-02,0.135,0.135,0.135,0.135,000,0.135
2016-09-01,0.135,0.135,0.135,0.135,33000,0.135
2016-08-31,0.14,0.14,0.14,0.14,000,0.14
2016-08-30,0.14,0.14,0.14,0.14,000,0.14
2016-08-29,0.14,0.14,0.14,0.14,19000,0.14
2016-08-26,0.155,0.155,0.155,0.155,000,0.155
2016-08-25,0.155,0.155,0.14,0.155,76000,0.155
2016-08-24,0.155,0.155,0.155,0.155,2600,0.155
2016-08-23,0.16,0.16,0.155,0.155,1100,0.155
2016-08-22,0.155,0.155,0.155,0.155,000,0.155
2016-08-19,0.16,0.16,0.155,0.155,57900,0.155
2016-08-18,0.15,0.16,0.15,0.16,99200,0.16
2016-08-17,0.145,0.15,0.145,0.15,87200,0.15
2016-08-16,0.145,0.145,0.145,0.145,84400,0.145
2016-08-15,0.145,0.155,0.14,0.14,292100,0.14
2016-08-12,0.14,0.15,0.14,0.145,252100,0.145
2016-08-11,0.14,0.145,0.14,0.145,152600,0.145
2016-08-10,0.145,0.145,0.14,0.145,82900,0.145
2016-08-09,0.14,0.14,0.14,0.14,10000,0.14
2016-08-08,0.145,0.145,0.145,0.145,20000,0.145
2016-08-05,0.13,0.155,0.13,0.145,1385000,0.145
2016-08-04,0.125,0.13,0.12,0.12,84200,0.12
2016-08-03,0.14,0.14,0.125,0.125,60100,0.125
2016-08-02,0.125,0.13,0.12,0.13,80400,0.13
2016-08-01,0.13,0.13,0.12,0.125,77500,0.125
2016-07-29,0.13,0.13,0.13,0.13,12000,0.13
2016-07-28,0.135,0.135,0.13,0.13,18600,0.13
2016-07-27,0.135,0.135,0.135,0.135,82700,0.135
2016-07-26,0.14,0.14,0.14,0.14,11100,0.14
2016-07-25,0.14,0.14,0.14,0.14,19400,0.14
2016-07-22,0.13,0.14,0.13,0.14,127800,0.14
2016-07-21,0.14,0.14,0.12,0.13,353500,0.13
2016-07-20,0.14,0.14,0.13,0.13,106000,0.13
2016-07-19,0.145,0.145,0.135,0.14,296400,0.14
2016-07-18,0.13,0.135,0.13,0.135,20900,0.135
2016-07-15,0.145,0.145,0.145,0.145,000,0.145
2016-07-14,0.145,0.145,0.145,0.145,000,0.145
2016-07-13,0.14,0.145,0.13,0.145,91900,0.145
2016-07-12,0.145,0.145,0.13,0.13,153500,0.13
2016-07-11,0.15,0.15,0.14,0.14,164400,0.14
2016-07-08,0.15,0.15,0.15,0.15,87500,0.15
2016-07-07,0.15,0.15,0.14,0.15,62000,0.15
2016-07-06,0.155,0.155,0.155,0.155,5000,0.155
2016-07-05,0.15,0.15,0.15,0.15,8500,0.15
2016-07-04,0.155,0.165,0.15,0.16,392600,0.16
2016-07-01,0.125,0.15,0.125,0.15,68600,0.15
2016-06-30,0.125,0.145,0.125,0.125,121800,0.125
2016-06-29,0.12,0.125,0.11,0.11,129000,0.11
2016-06-28,0.13,0.15,0.125,0.13,239600,0.13
2016-06-27,0.15,0.15,0.15,0.15,3000,0.15
2016-06-24,0.155,0.155,0.15,0.15,317000,0.15
2016-06-23,0.16,0.16,0.155,0.155,227200,0.155
2016-06-22,0.157,0.157,0.157,0.157,60000,0.157
2016-06-21,0.155,0.16,0.155,0.16,131000,0.16
2016-06-20,0.155,0.155,0.15,0.155,45000,0.155
2016-06-17,0.155,0.155,0.155,0.155,000,0.155
2016-06-16,0.155,0.155,0.155,0.155,35000,0.155
2016-06-15,0.16,0.16,0.155,0.155,133500,0.155
2016-06-14,0.16,0.16,0.16,0.16,14500,0.16
2016-06-13,0.16,0.16,0.16,0.16,000,0.16
2016-06-10,0.16,0.16,0.16,0.16,195000,0.16
2016-06-09,0.165,0.165,0.16,0.16,199200,0.16
2016-06-08,0.165,0.165,0.16,0.165,155300,0.165
2016-06-07,0.165,0.17,0.165,0.165,79000,0.165
2016-06-06,0.165,0.165,0.16,0.16,80000,0.16
2016-06-03,0.16,0.165,0.16,0.165,167000,0.165
2016-06-02,0.165,0.165,0.165,0.165,294600,0.165
2016-06-01,0.165,0.17,0.165,0.165,797000,0.165
2016-05-31,0.16,0.17,0.16,0.165,309900,0.165
2016-05-30,0.165,0.165,0.16,0.165,362700,0.165
2016-05-27,0.16,0.165,0.16,0.16,316500,0.16
2016-05-26,0.16,0.16,0.16,0.16,6400,0.16
2016-05-25,0.16,0.16,0.16,0.16,10000,0.16
2016-05-24,0.16,0.165,0.16,0.16,179900,0.16
2016-05-23,0.16,0.16,0.16,0.16,64500,0.16
2016-05-20,0.155,0.155,0.155,0.155,5000,0.155
2016-05-19,0.155,0.155,0.15,0.15,83000,0.15
2016-05-18,0.165,0.165,0.155,0.155,55000,0.155
2016-05-17,0.17,0.17,0.16,0.16,78000,0.16
2016-05-16,0.16,0.17,0.16,0.165,146800,0.165
2016-05-13,0.165,0.165,0.155,0.155,113600,0.155
2016-05-12,0.16,0.165,0.16,0.165,24000,0.165
2016-05-11,0.165,0.165,0.165,0.165,000,0.165
2016-05-10,0.155,0.165,0.155,0.165,167400,0.165
2016-05-09,0.16,0.17,0.16,0.16,316600,0.16
2016-05-06,0.16,0.16,0.155,0.155,134500,0.155
2016-05-05,0.16,0.16,0.155,0.155,63200,0.155
2016-05-04,0.165,0.165,0.165,0.165,000,0.165
2016-05-03,0.165,0.165,0.165,0.165,000,0.165
2016-05-02,0.16,0.165,0.16,0.165,131500,0.165
2016-04-29,0.165,0.165,0.16,0.16,259400,0.16
2016-04-28,0.165,0.165,0.165,0.165,220600,0.165
2016-04-27,0.165,0.165,0.165,0.165,000,0.165
2016-04-26,0.165,0.165,0.165,0.165,69000,0.165
2016-04-25,0.165,0.165,0.165,0.165,000,0.165
2016-04-22,0.17,0.17,0.165,0.165,65000,0.165
2016-04-21,0.17,0.17,0.16,0.165,256500,0.165
2016-04-20,0.16,0.16,0.16,0.16,000,0.16
2016-04-19,0.165,0.165,0.16,0.16,38600,0.16
2016-04-18,0.165,0.165,0.165,0.165,93900,0.165
2016-04-15,0.16,0.165,0.16,0.165,165200,0.165
2016-04-14,0.175,0.175,0.16,0.16,368000,0.16
2016-04-13,0.17,0.17,0.165,0.17,67000,0.17
2016-04-12,0.17,0.17,0.165,0.17,405100,0.17
2016-04-11,0.18,0.18,0.17,0.17,17800,0.17
2016-04-08,0.17,0.185,0.17,0.18,661600,0.18
2016-04-07,0.175,0.18,0.17,0.17,113000,0.17
2016-04-06,0.17,0.17,0.165,0.165,5800,0.165
2016-04-05,0.18,0.18,0.16,0.165,364100,0.165
2016-04-04,0.17,0.175,0.17,0.175,71700,0.175
2016-04-01,0.17,0.17,0.17,0.17,88800,0.17
2016-03-31,0.18,0.18,0.165,0.165,82400,0.165
2016-03-30,0.17,0.18,0.16,0.18,352200,0.18
2016-03-29,0.18,0.18,0.165,0.17,485200,0.17
2016-03-28,0.175,0.175,0.175,0.175,000,0.175
2016-03-25,0.175,0.175,0.175,0.175,000,0.175
2016-03-24,0.175,0.175,0.175,0.175,9000,0.175
2016-03-23,0.185,0.19,0.18,0.18,160600,0.18
2016-03-22,0.18,0.185,0.175,0.185,362500,0.185
2016-03-21,0.18,0.18,0.17,0.175,106300,0.175
2016-03-18,0.165,0.175,0.165,0.175,158400,0.175
2016-03-17,0.16,0.18,0.16,0.16,252800,0.16
2016-03-16,0.16,0.16,0.15,0.16,355500,0.16
2016-03-15,0.195,0.195,0.16,0.16,521900,0.16
2016-03-14,0.16,0.185,0.16,0.18,1021700,0.18
2016-03-11,0.13,0.16,0.13,0.155,689200,0.155
2016-03-10,0.13,0.13,0.13,0.13,154400,0.13
2016-03-09,0.15,0.155,0.125,0.125,756400,0.125
2016-03-08,0.12,0.135,0.12,0.135,515900,0.135
2016-03-07,0.105,0.11,0.10,0.11,369100,0.11
2016-03-04,0.092,0.10,0.092,0.10,232100,0.10
2016-03-03,0.092,0.094,0.09,0.092,90900,0.092
2016-03-02,0.085,0.095,0.085,0.091,252100,0.091
2016-03-01,0.08,0.08,0.075,0.075,26000,0.075
2016-02-29,0.08,0.089,0.08,0.085,140000,0.085
2016-02-26,0.077,0.077,0.07,0.071,323400,0.071
2016-02-25,0.083,0.083,0.079,0.079,147500,0.079
2016-02-24,0.082,0.082,0.082,0.082,55100,0.082
2016-02-23,0.081,0.085,0.081,0.085,30000,0.085
2016-02-22,0.082,0.084,0.082,0.084,23500,0.084
2016-02-19,0.08,0.08,0.08,0.08,92300,0.08
2016-02-18,0.08,0.08,0.08,0.08,000,0.08
2016-02-17,0.08,0.08,0.08,0.08,202500,0.08
2016-02-16,0.083,0.084,0.079,0.079,109000,0.079
2016-02-15,0.08,0.08,0.08,0.08,000,0.08
2016-02-12,0.08,0.08,0.08,0.08,4400,0.08
2016-02-11,0.08,0.08,0.08,0.08,000,0.08
2016-02-10,0.082,0.082,0.08,0.08,162200,0.08
2016-02-09,0.082,0.082,0.081,0.082,332800,0.082
2016-02-08,0.08,0.09,0.08,0.085,60000,0.085
2016-02-05,0.085,0.085,0.08,0.08,20000,0.08
2016-02-04,0.089,0.089,0.089,0.089,000,0.089
2016-02-03,0.089,0.089,0.089,0.089,000,0.089
2016-02-02,0.089,0.089,0.089,0.089,000,0.089
2016-02-01,0.09,0.09,0.089,0.089,80100,0.089
2016-01-29,0.09,0.09,0.09,0.09,000,0.09
2016-01-28,0.09,0.09,0.09,0.09,50000,0.09
2016-01-27,0.10,0.10,0.09,0.09,11700,0.09
2016-01-26,0.09,0.09,0.09,0.09,000,0.09
2016-01-25,0.092,0.095,0.09,0.09,145000,0.09
2016-01-22,0.09,0.094,0.09,0.094,40000,0.094
2016-01-21,0.092,0.092,0.09,0.09,22700,0.09
2016-01-20,0.092,0.092,0.092,0.092,000,0.092
2016-01-19,0.092,0.092,0.092,0.092,000,0.092
2016-01-18,0.094,0.095,0.092,0.092,147600,0.092
2016-01-15,0.105,0.105,0.094,0.094,138100,0.094
2016-01-14,0.096,0.096,0.096,0.096,50000,0.096
2016-01-13,0.095,0.099,0.095,0.098,147500,0.098
2016-01-12,0.095,0.095,0.095,0.095,20000,0.095
2016-01-11,0.094,0.094,0.092,0.092,96100,0.092
2016-01-08,0.095,0.095,0.095,0.095,000,0.095
2016-01-07,0.095,0.095,0.095,0.095,000,0.095
2016-01-06,0.095,0.095,0.095,0.095,000,0.095
2016-01-05,0.095,0.095,0.095,0.095,000,0.095
2016-01-04,0.095,0.095,0.095,0.095,20000,0.095
2016-01-01,0.094,0.094,0.094,0.094,000,0.094
2015-12-31,0.094,0.094,0.094,0.094,43700,0.094
2015-12-30,0.095,0.095,0.095,0.095,159800,0.095
2015-12-29,0.096,0.096,0.093,0.093,53500,0.093
2015-12-28,0.099,0.099,0.099,0.099,000,0.099
2015-12-25,0.099,0.099,0.099,0.099,000,0.099
2015-12-24,0.099,0.099,0.099,0.099,000,0.099
2015-12-23,0.10,0.10,0.099,0.099,72000,0.099
2015-12-22,0.10,0.10,0.10,0.10,000,0.10
2015-12-21,0.10,0.10,0.10,0.10,30000,0.10
2015-12-18,0.096,0.096,0.096,0.096,2500,0.096
2015-12-17,0.10,0.10,0.10,0.10,40300,0.10
2015-12-16,0.097,0.097,0.096,0.096,65000,0.096
2015-12-15,0.10,0.10,0.10,0.10,000,0.10
2015-12-14,0.095,0.10,0.095,0.10,60000,0.10
2015-12-11,0.10,0.10,0.095,0.095,60200,0.095
2015-12-10,0.098,0.098,0.098,0.098,8700,0.098
2015-12-09,0.10,0.105,0.098,0.098,360900,0.098
2015-12-08,0.105,0.105,0.105,0.105,000,0.105
2015-12-07,0.105,0.105,0.105,0.105,19500,0.105
2015-12-04,0.105,0.105,0.105,0.105,5000,0.105
2015-12-03,0.10,0.105,0.10,0.105,251000,0.105
2015-12-02,0.10,0.105,0.10,0.105,18300,0.105
2015-12-01,0.105,0.11,0.10,0.11,102000,0.11
2015-11-30,0.11,0.11,0.105,0.105,27000,0.105
2015-11-27,0.10,0.11,0.10,0.105,129000,0.105
2015-11-26,0.10,0.105,0.10,0.10,195200,0.10
2015-11-25,0.10,0.11,0.10,0.10,363400,0.10
2015-11-24,0.11,0.12,0.094,0.10,1616500,0.10
2015-11-23,0.09,0.09,0.088,0.09,183900,0.09
2015-11-20,0.095,0.096,0.091,0.092,135700,0.092
2015-11-19,0.10,0.10,0.095,0.095,132600,0.095
2015-11-18,0.10,0.105,0.10,0.105,94100,0.105
2015-11-17,0.11,0.11,0.09,0.10,726700,0.10
2015-11-16,0.115,0.115,0.11,0.115,599800,0.115
2015-11-13,0.11,0.125,0.11,0.115,186500,0.115
2015-11-12,0.12,0.125,0.115,0.125,166800,0.125
2015-11-11,0.125,0.13,0.115,0.115,260600,0.115
2015-11-10,0.115,0.12,0.115,0.12,95800,0.12
2015-11-09,0.12,0.125,0.12,0.125,111500,0.125
2015-11-06,0.125,0.13,0.125,0.13,70000,0.13
2015-11-05,0.13,0.13,0.115,0.12,266500,0.12
2015-11-04,0.12,0.13,0.12,0.12,188700,0.12
2015-11-03,0.13,0.13,0.13,0.13,100,0.13
2015-11-02,0.135,0.14,0.13,0.13,394500,0.13
2015-10-30,0.12,0.135,0.115,0.135,412200,0.135
2015-10-29,0.125,0.125,0.125,0.125,000,0.125
2015-10-28,0.12,0.125,0.12,0.125,166500,0.125
2015-10-27,0.12,0.125,0.11,0.115,815400,0.115
2015-10-26,0.12,0.12,0.115,0.115,81100,0.115
2015-10-23,0.12,0.12,0.115,0.115,34400,0.115
2015-10-22,0.12,0.12,0.115,0.115,39300,0.115
2015-10-21,0.115,0.115,0.115,0.115,5000,0.115
2015-10-20,0.12,0.12,0.115,0.115,58000,0.115
2015-10-19,0.12,0.12,0.12,0.12,39800,0.12
2015-10-16,0.125,0.125,0.115,0.12,239800,0.12
2015-10-15,0.12,0.12,0.12,0.12,105900,0.12
2015-10-14,0.115,0.12,0.115,0.12,103000,0.12
2015-10-13,0.12,0.12,0.115,0.12,280500,0.12
2015-10-12,0.115,0.115,0.11,0.11,70000,0.11
2015-10-09,0.115,0.115,0.115,0.115,65500,0.115
2015-10-08,0.11,0.115,0.11,0.115,79600,0.115
2015-10-07,0.115,0.115,0.11,0.11,82900,0.11
2015-10-06,0.12,0.12,0.11,0.11,221600,0.11
2015-10-05,0.11,0.12,0.11,0.12,107200,0.12
2015-10-02,0.115,0.115,0.11,0.11,150900,0.11
2015-10-01,0.115,0.115,0.115,0.115,4000,0.115
2015-09-30,0.11,0.115,0.11,0.115,143800,0.115
2015-09-29,0.11,0.11,0.11,0.11,12600,0.11
2015-09-28,0.11,0.11,0.11,0.11,60000,0.11
2015-09-25,0.115,0.115,0.115,0.115,44000,0.115
2015-09-24,0.115,0.115,0.115,0.115,4400,0.115
2015-09-23,0.115,0.115,0.115,0.115,80000,0.115
2015-09-22,0.115,0.12,0.115,0.12,11200,0.12
2015-09-21,0.115,0.12,0.115,0.115,117700,0.115
2015-09-18,0.115,0.12,0.115,0.115,40600,0.115
2015-09-17,0.12,0.12,0.115,0.115,26000,0.115
2015-09-16,0.12,0.12,0.12,0.12,50000,0.12
2015-09-15,0.12,0.12,0.12,0.12,10000,0.12
2015-09-14,0.115,0.115,0.11,0.115,48100,0.115
2015-09-11,0.115,0.115,0.115,0.115,88200,0.115
2015-09-10,0.12,0.12,0.115,0.12,97900,0.12
2015-09-09,0.13,0.13,0.11,0.115,615500,0.115
2015-09-08,0.125,0.13,0.125,0.13,57600,0.13
2015-09-07,0.125,0.125,0.125,0.125,000,0.125
2015-09-04,0.115,0.125,0.115,0.125,44000,0.125
2015-09-03,0.12,0.125,0.115,0.115,578000,0.115
2015-09-02,0.115,0.125,0.115,0.125,13200,0.125
2015-09-01,0.11,0.11,0.11,0.11,3300,0.11
2015-08-31,0.12,0.12,0.11,0.11,120000,0.11
2015-08-28,0.12,0.12,0.11,0.115,226800,0.115
2015-08-27,0.12,0.125,0.115,0.115,62800,0.115
2015-08-26,0.12,0.125,0.115,0.115,144100,0.115
2015-08-25,0.105,0.145,0.10,0.12,327100,0.12
2015-08-24,0.12,0.125,0.11,0.11,346000,0.11
2015-08-21,0.125,0.13,0.12,0.125,356600,0.125
2015-08-20,0.13,0.13,0.125,0.13,173500,0.13
2015-08-19,0.135,0.14,0.13,0.14,381100,0.14
2015-08-18,0.135,0.135,0.135,0.135,162700,0.135
2015-08-17,0.145,0.145,0.135,0.135,110100,0.135
2015-08-14,0.145,0.145,0.145,0.145,000,0.145
2015-08-13,0.145,0.145,0.14,0.145,98000,0.145
2015-08-12,0.15,0.15,0.15,0.15,000,0.15
2015-08-11,0.15,0.155,0.15,0.15,93800,0.15
2015-08-10,0.13,0.16,0.13,0.15,266600,0.15
2015-08-07,0.135,0.14,0.13,0.13,75200,0.13
2015-08-06,0.135,0.135,0.13,0.135,109600,0.135
2015-08-05,0.135,0.145,0.135,0.14,121300,0.14
2015-08-04,0.135,0.145,0.125,0.135,240900,0.135
2015-08-03,0.145,0.155,0.135,0.155,113200,0.155
2015-07-31,0.145,0.145,0.14,0.145,106000,0.145
2015-07-30,0.155,0.155,0.145,0.145,104100,0.145
2015-07-29,0.15,0.15,0.15,0.15,000,0.15
2015-07-28,0.16,0.16,0.15,0.15,71300,0.15
2015-07-27,0.16,0.16,0.155,0.16,60100,0.16
2015-07-24,0.16,0.165,0.16,0.16,33000,0.16
2015-07-23,0.16,0.165,0.16,0.165,16000,0.165
2015-07-22,0.16,0.16,0.155,0.155,162700,0.155
2015-07-21,0.16,0.16,0.16,0.16,16500,0.16
2015-07-20,0.17,0.17,0.17,0.17,108500,0.17
2015-07-17,0.18,0.18,0.18,0.18,000,0.18
2015-07-16,0.165,0.18,0.16,0.18,95700,0.18
2015-07-15,0.16,0.175,0.16,0.165,53000,0.165
2015-07-14,0.165,0.165,0.155,0.155,15200,0.155
2015-07-13,0.145,0.16,0.14,0.16,162700,0.16
2015-07-10,0.145,0.155,0.145,0.145,74000,0.145
2015-07-09,0.145,0.145,0.145,0.145,000,0.145
2015-07-08,0.145,0.145,0.145,0.145,14500,0.145
2015-07-07,0.155,0.155,0.155,0.155,000,0.155
2015-07-06,0.155,0.155,0.155,0.155,58600,0.155
2015-07-03,0.16,0.16,0.155,0.155,30200,0.155
2015-07-02,0.16,0.16,0.16,0.16,39500,0.16
2015-07-01,0.15,0.16,0.15,0.16,19400,0.16
2015-06-30,0.145,0.175,0.145,0.15,103000,0.15
2015-06-29,0.155,0.155,0.14,0.14,427000,0.14
2015-06-26,0.17,0.17,0.165,0.165,135900,0.165
2015-06-25,0.175,0.175,0.17,0.17,274600,0.17
2015-06-24,0.18,0.18,0.175,0.175,11600,0.175
2015-06-23,0.19,0.19,0.18,0.18,129300,0.18
2015-06-22,0.175,0.195,0.175,0.195,173700,0.195
2015-06-19,0.185,0.185,0.175,0.175,133100,0.175
2015-06-18,0.20,0.20,0.185,0.185,142500,0.185
2015-06-17,0.205,0.22,0.19,0.20,1184700,0.20
2015-06-16,0.18,0.21,0.18,0.21,1401200,0.21
2015-06-15,0.18,0.185,0.175,0.18,123100,0.18
2015-06-12,0.185,0.185,0.18,0.18,85300,0.18
2015-06-11,0.185,0.185,0.18,0.185,57900,0.185
2015-06-10,0.18,0.18,0.18,0.18,82900,0.18
2015-06-09,0.19,0.195,0.185,0.185,240400,0.185
2015-06-08,0.185,0.185,0.185,0.185,000,0.185
2015-06-05,0.19,0.19,0.185,0.185,398500,0.185
2015-06-04,0.18,0.18,0.175,0.18,293300,0.18
2015-06-03,0.195,0.195,0.175,0.175,839500,0.175
2015-06-02,0.185,0.205,0.175,0.195,2309300,0.195
2015-06-01,0.15,0.195,0.15,0.18,1918100,0.18
2015-05-29,0.155,0.155,0.145,0.145,331900,0.145
2015-05-28,0.15,0.155,0.15,0.15,425300,0.15
2015-05-27,0.145,0.145,0.145,0.145,125300,0.145
2015-05-26,0.13,0.15,0.13,0.14,237700,0.14
2015-05-25,0.14,0.145,0.125,0.125,687100,0.125
2015-05-22,0.135,0.135,0.135,0.135,000,0.135
2015-05-21,0.13,0.135,0.125,0.135,34600,0.135
2015-05-20,0.13,0.13,0.13,0.13,000,0.13
2015-05-19,0.135,0.14,0.13,0.13,157500,0.13
2015-05-18,0.13,0.135,0.125,0.125,100000,0.125
2015-05-15,0.14,0.14,0.135,0.135,296700,0.135
2015-05-14,0.135,0.135,0.135,0.135,3000,0.135
2015-05-13,0.135,0.135,0.135,0.135,60000,0.135
2015-05-12,0.14,0.14,0.14,0.14,147300,0.14
2015-05-11,0.155,0.155,0.14,0.14,251500,0.14
2015-05-08,0.145,0.155,0.14,0.155,57600,0.155
2015-05-07,0.145,0.145,0.145,0.145,45100,0.145
2015-05-06,0.15,0.15,0.145,0.145,59200,0.145
2015-05-05,0.145,0.15,0.145,0.15,139600,0.15
2015-05-04,0.15,0.15,0.15,0.15,10000,0.15
2015-05-01,0.145,0.15,0.14,0.15,76400,0.15
2015-04-30,0.15,0.155,0.15,0.15,267700,0.15
2015-04-29,0.145,0.145,0.145,0.145,2000,0.145
2015-04-28,0.145,0.145,0.145,0.145,10000,0.145
2015-04-27,0.155,0.155,0.14,0.14,173300,0.14
2015-04-24,0.15,0.155,0.15,0.155,643100,0.155
2015-04-23,0.15,0.15,0.14,0.145,216000,0.145
2015-04-22,0.145,0.15,0.14,0.14,345200,0.14
2015-04-21,0.14,0.14,0.135,0.135,58800,0.135
2015-04-20,0.135,0.14,0.13,0.135,217700,0.135
2015-04-17,0.14,0.14,0.135,0.14,122300,0.14
2015-04-16,0.13,0.13,0.13,0.13,190000,0.13
2015-04-15,0.135,0.135,0.13,0.135,75200,0.135
2015-04-14,0.135,0.14,0.135,0.14,8700,0.14
2015-04-13,0.125,0.135,0.115,0.135,537300,0.135
2015-04-10,0.13,0.13,0.13,0.13,98200,0.13
2015-04-09,0.14,0.14,0.13,0.13,324800,0.13
2015-04-08,0.14,0.145,0.14,0.14,197200,0.14
2015-04-07,0.16,0.165,0.135,0.135,1501300,0.135
2015-04-06,0.14,0.14,0.14,0.14,000,0.14
2015-04-03,0.14,0.14,0.14,0.14,000,0.14
2015-04-02,0.13,0.14,0.13,0.14,181100,0.14
2015-04-01,0.135,0.14,0.135,0.14,80000,0.14
2015-03-31,0.14,0.14,0.14,0.14,000,0.14
2015-03-30,0.14,0.14,0.14,0.14,5100,0.14
2015-03-27,0.14,0.14,0.14,0.14,000,0.14
2015-03-26,0.14,0.14,0.14,0.14,000,0.14
2015-03-25,0.145,0.145,0.135,0.14,433900,0.14
2015-03-24,0.145,0.15,0.145,0.15,80600,0.15
2015-03-23,0.15,0.15,0.14,0.145,189500,0.145
2015-03-20,0.16,0.16,0.15,0.15,2573300,0.15
2015-03-19,0.15,0.15,0.15,0.15,20000,0.15
2015-03-18,0.14,0.145,0.135,0.145,24000,0.145
2015-03-17,0.145,0.155,0.14,0.14,452000,0.14
2015-03-16,0.16,0.16,0.145,0.145,391900,0.145
2015-03-13,0.15,0.165,0.15,0.16,373000,0.16
2015-03-12,0.165,0.165,0.155,0.16,278500,0.16
2015-03-11,0.16,0.165,0.16,0.16,250000,0.16
2015-03-10,0.16,0.165,0.155,0.155,269900,0.155
2015-03-09,0.155,0.165,0.155,0.165,49500,0.165
2015-03-06,0.145,0.155,0.14,0.155,404500,0.155
2015-03-05,0.15,0.15,0.14,0.15,105300,0.15
2015-03-04,0.155,0.165,0.14,0.155,480500,0.155
2015-03-03,0.16,0.165,0.16,0.16,60000,0.16
2015-03-02,0.165,0.165,0.155,0.155,86500,0.155
2015-02-27,0.16,0.17,0.16,0.16,202800,0.16
2015-02-26,0.17,0.175,0.165,0.165,130100,0.165
2015-02-25,0.16,0.16,0.16,0.16,000,0.16
2015-02-24,0.16,0.16,0.16,0.16,000,0.16
2015-02-23,0.17,0.17,0.16,0.16,210500,0.16
2015-02-20,0.16,0.18,0.16,0.18,673400,0.18
2015-02-19,0.16,0.16,0.16,0.16,4000,0.16
2015-02-18,0.16,0.16,0.15,0.15,45200,0.15
2015-02-17,0.15,0.15,0.15,0.15,101100,0.15
2015-02-16,0.145,0.16,0.145,0.16,120700,0.16
2015-02-13,0.14,0.14,0.14,0.14,167200,0.14
2015-02-12,0.145,0.15,0.145,0.15,24800,0.15
2015-02-11,0.155,0.155,0.15,0.15,116700,0.15
2015-02-10,0.155,0.16,0.155,0.16,88700,0.16
2015-02-09,0.155,0.155,0.155,0.155,000,0.155
2015-02-06,0.155,0.155,0.155,0.155,65600,0.155
2015-02-05,0.16,0.16,0.155,0.16,96000,0.16
2015-02-04,0.155,0.165,0.155,0.16,190600,0.16
2015-02-03,0.155,0.155,0.155,0.155,26100,0.155
2015-02-02,0.165,0.17,0.155,0.16,156700,0.16
2015-01-30,0.17,0.17,0.165,0.165,42500,0.165
2015-01-29,0.18,0.18,0.17,0.17,48300,0.17
2015-01-28,0.18,0.18,0.18,0.18,6500,0.18
2015-01-27,0.16,0.175,0.16,0.175,112600,0.175
2015-01-26,0.16,0.16,0.16,0.16,000,0.16
2015-01-23,0.155,0.16,0.155,0.16,79400,0.16
2015-01-22,0.16,0.16,0.16,0.16,80900,0.16
2015-01-21,0.165,0.165,0.155,0.16,153500,0.16
2015-01-20,0.16,0.165,0.155,0.16,110100,0.16
2015-01-19,0.16,0.16,0.16,0.16,26400,0.16
2015-01-16,0.16,0.16,0.16,0.16,30000,0.16
2015-01-15,0.16,0.165,0.155,0.165,39500,0.165
2015-01-14,0.16,0.165,0.16,0.165,105800,0.165
2015-01-13,0.16,0.16,0.16,0.16,000,0.16
2015-01-12,0.165,0.165,0.16,0.16,106100,0.16
2015-01-09,0.16,0.16,0.16,0.16,000,0.16
2015-01-08,0.155,0.16,0.15,0.16,103500,0.16
2015-01-07,0.16,0.16,0.155,0.155,22500,0.155
2015-01-06,0.16,0.16,0.16,0.16,139700,0.16
2015-01-05,0.16,0.165,0.16,0.16,62800,0.16
2015-01-02,0.16,0.16,0.16,0.16,87900,0.16
2015-01-01,0.16,0.16,0.16,0.16,000,0.16
2014-12-31,0.16,0.16,0.16,0.16,000,0.16
2014-12-30,0.16,0.16,0.16,0.16,000,0.16
2014-12-29,0.155,0.16,0.155,0.16,37000,0.16
2014-12-26,0.155,0.155,0.155,0.155,000,0.155
2014-12-25,0.155,0.155,0.155,0.155,000,0.155
2014-12-24,0.155,0.155,0.155,0.155,90000,0.155
2014-12-23,0.155,0.155,0.15,0.15,73500,0.15
2014-12-22,0.15,0.16,0.15,0.16,123400,0.16
2014-12-19,0.165,0.17,0.145,0.16,639000,0.16
2014-12-18,0.14,0.16,0.14,0.16,54600,0.16
2014-12-17,0.145,0.145,0.145,0.145,73500,0.145
2014-12-16,0.155,0.155,0.145,0.145,23900,0.145
2014-12-15,0.15,0.15,0.145,0.15,110000,0.15
2014-12-12,0.15,0.15,0.145,0.15,112200,0.15
2014-12-11,0.17,0.17,0.15,0.15,339600,0.15
2014-12-10,0.155,0.17,0.155,0.17,172000,0.17
2014-12-09,0.145,0.155,0.145,0.155,220700,0.155
2014-12-08,0.13,0.14,0.125,0.14,207200,0.14
2014-12-05,0.13,0.13,0.13,0.13,154600,0.13
2014-12-04,0.125,0.13,0.11,0.125,137000,0.125
2014-12-03,0.13,0.13,0.125,0.125,150000,0.125
2014-12-02,0.145,0.145,0.14,0.14,48200,0.14
2014-12-01,0.145,0.15,0.14,0.145,140000,0.145
2014-11-28,0.145,0.145,0.145,0.145,76800,0.145
2014-11-27,0.15,0.15,0.14,0.14,37300,0.14
2014-11-26,0.145,0.15,0.14,0.14,373300,0.14
2014-11-25,0.15,0.15,0.14,0.14,210000,0.14
2014-11-24,0.145,0.15,0.145,0.15,61300,0.15
2014-11-21,0.17,0.17,0.145,0.145,110800,0.145
2014-11-20,0.15,0.17,0.145,0.17,296500,0.17
2014-11-19,0.175,0.175,0.15,0.15,611600,0.15
2014-11-18,0.16,0.175,0.16,0.175,92600,0.175
2014-11-17,0.16,0.16,0.155,0.155,79000,0.155
2014-11-14,0.175,0.185,0.17,0.17,235200,0.17
2014-11-13,0.16,0.16,0.155,0.155,160300,0.155
2014-11-12,0.175,0.175,0.155,0.155,62100,0.155
2014-11-11,0.18,0.18,0.18,0.18,000,0.18
2014-11-10,0.16,0.18,0.155,0.18,119200,0.18
2014-11-07,0.15,0.165,0.15,0.155,450300,0.155
2014-11-06,0.14,0.155,0.14,0.15,493700,0.15
2014-11-05,0.15,0.15,0.135,0.14,402500,0.14
2014-11-04,0.16,0.16,0.155,0.155,89800,0.155
2014-11-03,0.165,0.165,0.165,0.165,000,0.165
2014-10-31,0.165,0.165,0.165,0.165,000,0.165
2014-10-30,0.165,0.165,0.165,0.165,32100,0.165
2014-10-29,0.17,0.17,0.16,0.165,100800,0.165
2014-10-28,0.17,0.175,0.17,0.175,35000,0.175
2014-10-27,0.17,0.17,0.16,0.165,143100,0.165
2014-10-24,0.17,0.18,0.17,0.18,264100,0.18
2014-10-23,0.18,0.18,0.165,0.17,115700,0.17
2014-10-22,0.175,0.175,0.165,0.165,251700,0.165
2014-10-21,0.175,0.18,0.175,0.18,156600,0.18
2014-10-20,0.19,0.19,0.18,0.18,63300,0.18
2014-10-17,0.20,0.20,0.19,0.19,276600,0.19
2014-10-16,0.195,0.20,0.195,0.20,65100,0.20
2014-10-15,0.20,0.205,0.18,0.20,562700,0.20
2014-10-14,0.185,0.195,0.185,0.195,179600,0.195
2014-10-13,0.185,0.185,0.175,0.18,171500,0.18
2014-10-10,0.145,0.195,0.145,0.16,811100,0.16
2014-10-09,0.17,0.215,0.135,0.145,2288600,0.145
2014-10-08,0.14,0.14,0.14,0.14,000,0.14
2014-10-07,0.10,0.15,0.10,0.14,744600,0.14
2014-10-06,0.23,0.23,0.23,0.23,12500,0.23
2014-10-03,0.255,0.255,0.20,0.24,434300,0.24
2014-10-02,0.26,0.265,0.255,0.265,117100,0.265
2014-10-01,0.245,0.27,0.245,0.27,70400,0.27
2014-09-30,0.235,0.255,0.235,0.24,287700,0.24
2014-09-29,0.24,0.245,0.235,0.235,472900,0.235
2014-09-26,0.255,0.255,0.24,0.255,244200,0.255
2014-09-25,0.275,0.275,0.255,0.26,503100,0.26
2014-09-24,0.275,0.285,0.275,0.28,99000,0.28
2014-09-23,0.27,0.28,0.27,0.275,186500,0.275
2014-09-22,0.27,0.27,0.265,0.265,109900,0.265
2014-09-19,0.27,0.275,0.27,0.275,40600,0.275
2014-09-18,0.275,0.275,0.275,0.275,36000,0.275
2014-09-17,0.285,0.29,0.28,0.28,85800,0.28
2014-09-16,0.28,0.285,0.28,0.28,189800,0.28
2014-09-15,0.295,0.295,0.28,0.29,198500,0.29
2014-09-12,0.295,0.30,0.28,0.295,212400,0.295
2014-09-11,0.32,0.33,0.30,0.30,1259900,0.30
2014-09-10,0.29,0.31,0.29,0.305,566100,0.305
2014-09-09,0.28,0.29,0.27,0.29,237800,0.29
2014-09-08,0.275,0.285,0.275,0.28,124600,0.28
2014-09-05,0.275,0.275,0.27,0.27,62000,0.27
2014-09-04,0.275,0.275,0.265,0.275,113600,0.275
2014-09-03,0.275,0.275,0.275,0.275,79700,0.275
2014-09-02,0.28,0.28,0.275,0.28,143800,0.28
2014-09-01,0.28,0.28,0.28,0.28,31400,0.28
2014-08-29,0.285,0.29,0.28,0.29,188800,0.29
2014-08-28,0.275,0.29,0.275,0.29,132100,0.29
2014-08-27,0.275,0.285,0.265,0.27,475300,0.27
2014-08-26,0.26,0.275,0.26,0.275,165400,0.275
2014-08-25,0.265,0.265,0.26,0.26,180700,0.26
2014-08-22,0.27,0.275,0.26,0.26,470800,0.26
2014-08-21,0.265,0.265,0.265,0.265,70400,0.265
2014-08-20,0.275,0.275,0.255,0.255,278000,0.255
2014-08-19,0.26,0.285,0.26,0.27,648400,0.27
2014-08-18,0.26,0.26,0.25,0.255,110200,0.255
2014-08-15,0.25,0.26,0.25,0.255,233000,0.255
2014-08-14,0.255,0.255,0.24,0.255,377900,0.255
2014-08-13,0.26,0.26,0.255,0.255,51900,0.255
2014-08-12,0.26,0.265,0.24,0.26,678000,0.26
2014-08-11,0.26,0.26,0.26,0.26,31900,0.26
2014-08-08,0.275,0.275,0.25,0.26,1105200,0.26
2014-08-07,0.285,0.285,0.285,0.285,000,0.285
2014-08-06,0.285,0.285,0.285,0.285,000,0.285
2014-08-05,0.285,0.285,0.285,0.285,45000,0.285
2014-08-04,0.29,0.29,0.285,0.285,30400,0.285
2014-08-01,0.31,0.31,0.29,0.29,142500,0.29
2014-07-31,0.30,0.31,0.30,0.31,119600,0.31
2014-07-30,0.30,0.30,0.30,0.30,30000,0.30
2014-07-29,0.30,0.30,0.295,0.30,13800,0.30
2014-07-28,0.30,0.30,0.30,0.30,3200,0.30
2014-07-25,0.30,0.30,0.30,0.30,49500,0.30
2014-07-24,0.31,0.31,0.295,0.295,22500,0.295
2014-07-23,0.30,0.305,0.30,0.30,135100,0.30
2014-07-22,0.30,0.30,0.30,0.30,22000,0.30
2014-07-21,0.30,0.30,0.30,0.30,124000,0.30
2014-07-18,0.29,0.30,0.29,0.30,79600,0.30
2014-07-17,0.32,0.32,0.285,0.285,545500,0.285
2014-07-16,0.315,0.325,0.315,0.32,103700,0.32
2014-07-15,0.33,0.33,0.28,0.315,546700,0.315
2014-07-14,0.34,0.35,0.33,0.33,191900,0.33
2014-07-11,0.355,0.36,0.33,0.35,337600,0.35
2014-07-10,0.38,0.39,0.35,0.36,168600,0.36
2014-07-09,0.37,0.37,0.37,0.37,149300,0.37
2014-07-08,0.38,0.39,0.36,0.37,299700,0.37
2014-07-07,0.37,0.38,0.35,0.38,62400,0.38
2014-07-04,0.38,0.385,0.38,0.38,60000,0.38
2014-07-03,0.37,0.385,0.35,0.385,116700,0.385
2014-07-02,0.38,0.385,0.38,0.385,10000,0.385
2014-07-01,0.385,0.385,0.385,0.385,11300,0.385
2014-06-30,0.37,0.39,0.37,0.39,89000,0.39
2014-06-27,0.365,0.37,0.355,0.37,39400,0.37
2014-06-26,0.385,0.385,0.35,0.37,136200,0.37
2014-06-25,0.385,0.395,0.385,0.385,39600,0.385
2014-06-24,0.38,0.38,0.38,0.38,3000,0.38
2014-06-23,0.395,0.395,0.38,0.38,142900,0.38
2014-06-20,0.39,0.395,0.39,0.39,30100,0.39
2014-06-19,0.375,0.40,0.375,0.395,458000,0.395
2014-06-18,0.37,0.38,0.36,0.38,103500,0.38
2014-06-17,0.365,0.375,0.36,0.37,144600,0.37
2014-06-16,0.375,0.38,0.355,0.37,167700,0.37
2014-06-13,0.375,0.375,0.375,0.375,24800,0.375
2014-06-12,0.38,0.385,0.36,0.37,65500,0.37
2014-06-11,0.365,0.395,0.36,0.36,132500,0.36
2014-06-10,0.34,0.365,0.34,0.355,185100,0.355
2014-06-09,0.34,0.34,0.34,0.34,000,0.34
2014-06-06,0.335,0.34,0.33,0.34,200400,0.34
2014-06-05,0.345,0.345,0.33,0.33,115900,0.33
2014-06-04,0.35,0.35,0.345,0.345,35100,0.345
2014-06-03,0.35,0.365,0.345,0.345,187000,0.345
2014-06-02,0.36,0.36,0.345,0.35,50000,0.35
2014-05-30,0.36,0.37,0.36,0.37,83400,0.37
2014-05-29,0.36,0.37,0.36,0.36,73600,0.36
2014-05-28,0.37,0.37,0.35,0.36,126500,0.36
2014-05-27,0.37,0.37,0.35,0.35,20700,0.35
2014-05-26,0.36,0.36,0.34,0.35,439500,0.35
2014-05-23,0.37,0.37,0.355,0.355,45000,0.355
2014-05-22,0.37,0.375,0.355,0.355,187200,0.355
2014-05-21,0.385,0.385,0.375,0.38,135200,0.38
2014-05-20,0.38,0.385,0.38,0.38,31900,0.38
2014-05-19,0.395,0.395,0.39,0.39,8300,0.39
2014-05-16,0.395,0.395,0.395,0.395,8000,0.395
2014-05-15,0.40,0.40,0.38,0.40,160200,0.40
2014-05-14,0.40,0.42,0.38,0.40,406000,0.40
2014-05-13,0.375,0.38,0.36,0.38,105000,0.38
2014-05-12,0.36,0.37,0.355,0.37,114900,0.37
2014-05-09,0.36,0.37,0.355,0.36,64500,0.36
2014-05-08,0.35,0.355,0.35,0.35,69600,0.35
2014-05-07,0.35,0.35,0.335,0.35,177200,0.35
2014-05-06,0.36,0.36,0.35,0.355,90000,0.355
2014-05-05,0.36,0.36,0.35,0.36,154000,0.36
2014-05-02,0.355,0.39,0.345,0.36,275600,0.36
2014-05-01,0.365,0.365,0.355,0.355,128700,0.355
2014-04-30,0.375,0.375,0.365,0.365,106000,0.365
2014-04-29,0.38,0.385,0.355,0.375,440500,0.375
2014-04-28,0.425,0.43,0.39,0.39,207500,0.39
2014-04-25,0.43,0.43,0.43,0.43,000,0.43
2014-04-24,0.43,0.43,0.43,0.43,5000,0.43
2014-04-23,0.44,0.44,0.42,0.42,24000,0.42
2014-04-22,0.40,0.435,0.40,0.42,136800,0.42
2014-04-21,0.41,0.41,0.41,0.41,000,0.41
2014-04-18,0.41,0.41,0.41,0.41,000,0.41
2014-04-17,0.43,0.43,0.40,0.41,73200,0.41
2014-04-16,0.445,0.445,0.42,0.43,96400,0.43
2014-04-15,0.44,0.445,0.44,0.445,18200,0.445
2014-04-14,0.455,0.455,0.435,0.44,269800,0.44
2014-04-11,0.45,0.47,0.45,0.47,25200,0.47
2014-04-10,0.45,0.46,0.44,0.46,58700,0.46
2014-04-09,0.445,0.47,0.445,0.45,82900,0.45
2014-04-08,0.44,0.445,0.435,0.445,80100,0.445
2014-04-07,0.445,0.445,0.44,0.44,13100,0.44
2014-04-04,0.445,0.445,0.44,0.445,180600,0.445
2014-04-03,0.44,0.445,0.44,0.44,44300,0.44
2014-04-02,0.435,0.44,0.435,0.44,47300,0.44
2014-04-01,0.44,0.44,0.42,0.43,175500,0.43
2014-03-31,0.45,0.45,0.44,0.44,190100,0.44
2014-03-28,0.45,0.45,0.45,0.45,177400,0.45
2014-03-27,0.47,0.47,0.45,0.465,333300,0.465
2014-03-26,0.495,0.52,0.45,0.465,1271300,0.465
2014-03-25,0.485,0.49,0.48,0.48,66900,0.48
2014-03-24,0.49,0.49,0.48,0.48,137100,0.48
2014-03-21,0.47,0.505,0.47,0.48,484700,0.48
2014-03-20,0.475,0.48,0.47,0.47,172200,0.47
2014-03-19,0.475,0.475,0.465,0.475,253900,0.475
2014-03-18,0.47,0.475,0.455,0.47,221700,0.47
2014-03-17,0.49,0.49,0.47,0.47,139200,0.47
2014-03-14,0.50,0.50,0.49,0.49,92200,0.49
2014-03-13,0.50,0.50,0.485,0.49,113400,0.49
2014-03-12,0.47,0.49,0.47,0.485,198300,0.485
2014-03-11,0.47,0.47,0.45,0.47,235800,0.47
2014-03-10,0.46,0.475,0.46,0.47,35800,0.47
2014-03-07,0.47,0.485,0.46,0.46,87600,0.46
2014-03-06,0.495,0.505,0.465,0.465,491200,0.465
2014-03-05,0.47,0.48,0.47,0.47,92000,0.47
2014-03-04,0.47,0.47,0.46,0.46,26900,0.46
2014-03-03,0.485,0.49,0.465,0.465,156500,0.465
2014-02-28,0.485,0.495,0.475,0.495,199100,0.495
2014-02-27,0.495,0.50,0.485,0.485,101300,0.485
2014-02-26,0.50,0.515,0.50,0.50,216500,0.50
2014-02-25,0.515,0.515,0.485,0.50,204100,0.50
2014-02-24,0.52,0.525,0.515,0.515,210900,0.515
2014-02-21,0.515,0.53,0.505,0.52,241400,0.52
2014-02-20,0.495,0.52,0.495,0.515,360000,0.515
2014-02-19,0.49,0.495,0.485,0.495,103000,0.495
2014-02-18,0.485,0.50,0.485,0.485,238900,0.485
2014-02-17,0.485,0.495,0.485,0.485,146100,0.485
2014-02-14,0.495,0.495,0.48,0.485,104000,0.485
2014-02-13,0.49,0.49,0.475,0.49,166400,0.49
2014-02-12,0.475,0.49,0.46,0.49,107900,0.49
2014-02-11,0.485,0.49,0.48,0.485,124000,0.485
2014-02-10,0.465,0.485,0.46,0.48,167600,0.48
2014-02-07,0.435,0.48,0.435,0.465,368200,0.465
2014-02-06,0.40,0.43,0.395,0.43,223000,0.43
2014-02-05,0.42,0.42,0.395,0.40,453700,0.40
2014-02-04,0.40,0.42,0.355,0.42,382800,0.42
2014-02-03,0.45,0.45,0.40,0.425,329400,0.425
2014-01-31,0.44,0.465,0.44,0.45,73900,0.45
2014-01-30,0.45,0.45,0.41,0.44,225700,0.44
2014-01-29,0.47,0.47,0.445,0.465,180400,0.465
2014-01-28,0.49,0.49,0.45,0.46,310100,0.46
2014-01-27,0.48,0.48,0.48,0.48,000,0.48
2014-01-24,0.48,0.49,0.47,0.48,364300,0.48
2014-01-23,0.52,0.52,0.48,0.49,336600,0.49
2014-01-22,0.54,0.555,0.50,0.51,1109200,0.51
2014-01-21,0.48,0.50,0.48,0.49,109200,0.49
2014-01-20,0.50,0.50,0.475,0.48,176100,0.48
2014-01-17,0.50,0.50,0.49,0.49,77100,0.49
2014-01-16,0.50,0.50,0.49,0.49,66200,0.49
2014-01-15,0.495,0.51,0.48,0.50,120600,0.50
2014-01-14,0.51,0.51,0.46,0.50,248800,0.50
2014-01-13,0.51,0.51,0.50,0.50,72100,0.50
2014-01-10,0.495,0.51,0.485,0.50,201800,0.50
2014-01-09,0.515,0.52,0.47,0.485,366100,0.485
2014-01-08,0.53,0.535,0.51,0.51,640900,0.51
2014-01-07,0.50,0.535,0.50,0.52,870900,0.52
2014-01-06,0.455,0.495,0.45,0.49,417000,0.49
2014-01-03,0.455,0.46,0.455,0.46,119100,0.46
2014-01-02,0.46,0.465,0.445,0.46,469800,0.46
2014-01-01,0.46,0.46,0.46,0.46,000,0.46
2013-12-31,0.435,0.465,0.43,0.46,313500,0.46
2013-12-30,0.385,0.45,0.385,0.435,754000,0.435
2013-12-27,0.37,0.385,0.37,0.37,80200,0.37
2013-12-26,0.37,0.37,0.37,0.37,000,0.37
2013-12-25,0.37,0.37,0.37,0.37,000,0.37
2013-12-24,0.355,0.37,0.355,0.37,81500,0.37
2013-12-23,0.38,0.385,0.35,0.35,243200,0.35
2013-12-20,0.365,0.38,0.365,0.37,45700,0.37
2013-12-19,0.385,0.39,0.365,0.365,209700,0.365
2013-12-18,0.39,0.395,0.37,0.39,162500,0.39
2013-12-17,0.395,0.43,0.39,0.39,128200,0.39
2013-12-16,0.395,0.40,0.39,0.395,137500,0.395
2013-12-13,0.37,0.415,0.37,0.385,156900,0.385
2013-12-12,0.43,0.43,0.37,0.37,915500,0.37
2013-12-11,0.46,0.46,0.42,0.43,359400,0.43
2013-12-10,0.49,0.49,0.45,0.45,504800,0.45
2013-12-09,0.515,0.54,0.49,0.49,576600,0.49
2013-12-06,0.48,0.51,0.475,0.51,154500,0.51
2013-12-05,0.46,0.495,0.46,0.485,156600,0.485
2013-12-04,0.47,0.495,0.45,0.46,572000,0.46
2013-12-03,0.49,0.495,0.47,0.47,590000,0.47
2013-12-02,0.51,0.515,0.48,0.49,1074400,0.49
2013-11-29,0.55,0.55,0.505,0.52,621500,0.52
2013-11-28,0.55,0.555,0.535,0.54,574100,0.54
2013-11-27,0.59,0.59,0.52,0.53,1437300,0.53
2013-11-26,0.605,0.66,0.575,0.575,1706700,0.575
2013-11-25,0.50,0.62,0.50,0.60,2069200,0.60
2013-11-22,0.495,0.51,0.495,0.495,374400,0.495
2013-11-21,0.52,0.52,0.485,0.51,368900,0.51
2013-11-20,0.47,0.515,0.46,0.515,276100,0.515
2013-11-19,0.52,0.525,0.455,0.46,647100,0.46
2013-11-18,0.46,0.555,0.46,0.49,1390500,0.49
2013-11-15,0.38,0.46,0.38,0.43,1570700,0.43
2013-11-14,0.31,0.37,0.31,0.37,2592900,0.37
2013-11-13,0.29,0.30,0.28,0.28,581600,0.28
2013-11-12,0.29,0.29,0.285,0.29,135500,0.29
2013-11-11,0.28,0.29,0.28,0.29,171500,0.29
2013-11-08,0.285,0.30,0.275,0.275,1777800,0.275
2013-11-07,0.245,0.26,0.245,0.26,497300,0.26
2013-11-06,0.245,0.25,0.245,0.25,26000,0.25
2013-11-05,0.25,0.25,0.245,0.25,55000,0.25
2013-11-04,0.25,0.25,0.25,0.25,102000,0.25
2013-11-01,0.245,0.245,0.245,0.245,000,0.245
2013-10-31,0.255,0.255,0.245,0.245,96900,0.245
2013-10-30,0.245,0.255,0.245,0.255,162800,0.255
2013-10-29,0.245,0.245,0.245,0.245,22000,0.245
2013-10-28,0.245,0.245,0.24,0.24,267800,0.24
2013-10-25,0.245,0.245,0.245,0.245,17100,0.245
2013-10-24,0.26,0.26,0.245,0.245,498400,0.245
2013-10-23,0.27,0.27,0.26,0.26,376600,0.26
2013-10-22,0.27,0.27,0.27,0.27,20000,0.27
2013-10-21,0.265,0.27,0.265,0.27,86000,0.27
2013-10-18,0.27,0.27,0.265,0.265,65000,0.265
2013-10-17,0.275,0.275,0.265,0.275,58100,0.275
2013-10-16,0.27,0.275,0.27,0.275,52600,0.275
2013-10-15,0.28,0.28,0.27,0.27,40000,0.27
2013-10-14,0.28,0.28,0.28,0.28,3700,0.28
2013-10-11,0.28,0.28,0.28,0.28,119800,0.28
2013-10-10,0.27,0.275,0.27,0.27,75300,0.27
2013-10-09,0.27,0.27,0.265,0.265,40100,0.265
2013-10-08,0.275,0.275,0.265,0.265,29000,0.265
2013-10-07,0.27,0.27,0.27,0.27,62800,0.27
2013-10-04,0.275,0.275,0.27,0.27,101600,0.27
2013-10-03,0.28,0.28,0.275,0.275,43200,0.275
2013-10-02,0.28,0.28,0.28,0.28,47400,0.28
2013-10-01,0.28,0.28,0.28,0.28,13500,0.28
2013-09-30,0.28,0.28,0.26,0.265,252000,0.265
2013-09-27,0.28,0.28,0.275,0.28,187800,0.28
2013-09-26,0.28,0.28,0.28,0.28,32600,0.28
2013-09-25,0.275,0.28,0.27,0.27,513000,0.27
2013-09-24,0.27,0.275,0.27,0.275,120600,0.275
2013-09-23,0.27,0.27,0.27,0.27,113300,0.27
2013-09-20,0.27,0.27,0.26,0.27,366600,0.27
2013-09-19,0.285,0.29,0.25,0.27,1381200,0.27
