Date,Open,High,Low,Close,Volume,Adj Close
2016-11-08,0.05,0.05,0.05,0.05,000,0.05
2016-11-07,0.05,0.05,0.05,0.05,000,0.05
2016-11-04,0.05,0.05,0.05,0.05,000,0.05
2016-11-03,0.05,0.05,0.05,0.05,000,0.05
2016-11-02,0.05,0.05,0.05,0.05,000,0.05
2016-11-01,0.05,0.05,0.05,0.05,000,0.05
2016-10-31,0.05,0.05,0.05,0.05,000,0.05
2016-10-28,0.05,0.05,0.05,0.05,000,0.05
2016-10-27,0.05,0.05,0.05,0.05,000,0.05
2016-10-26,0.05,0.05,0.05,0.05,000,0.05
2016-10-25,0.05,0.05,0.05,0.05,000,0.05
2016-10-24,0.05,0.05,0.05,0.05,000,0.05
2016-10-21,0.05,0.05,0.05,0.05,000,0.05
2016-10-20,0.05,0.05,0.05,0.05,000,0.05
2016-10-19,0.05,0.05,0.05,0.05,000,0.05
2016-10-18,0.05,0.05,0.05,0.05,000,0.05
2016-10-17,0.05,0.05,0.05,0.05,000,0.05
2016-10-14,0.05,0.05,0.05,0.05,000,0.05
2016-10-13,0.05,0.05,0.05,0.05,000,0.05
2016-10-12,0.05,0.05,0.05,0.05,000,0.05
2016-10-11,0.05,0.05,0.05,0.05,000,0.05
2016-10-10,0.05,0.05,0.05,0.05,000,0.05
2016-10-07,0.05,0.05,0.05,0.05,000,0.05
2016-10-06,0.05,0.05,0.05,0.05,000,0.05
2016-10-05,0.05,0.05,0.05,0.05,000,0.05
2016-10-04,0.05,0.05,0.05,0.05,000,0.05
2016-10-03,0.05,0.05,0.05,0.05,000,0.05
2016-09-30,0.05,0.05,0.05,0.05,000,0.05
2016-09-29,0.05,0.05,0.05,0.05,000,0.05
2016-09-28,0.05,0.05,0.05,0.05,000,0.05
2016-09-27,0.05,0.05,0.05,0.05,000,0.05
2016-09-26,0.05,0.05,0.05,0.05,000,0.05
2016-09-23,0.05,0.05,0.05,0.05,000,0.05
2016-09-22,0.05,0.05,0.05,0.05,200,0.05
2016-09-21,0.05,0.05,0.05,0.05,000,0.05
2016-09-20,0.05,0.05,0.05,0.05,000,0.05
2016-09-19,0.05,0.05,0.05,0.05,000,0.05
2016-09-16,0.05,0.05,0.05,0.05,000,0.05
2016-09-15,0.05,0.05,0.05,0.05,000,0.05
2016-09-14,0.05,0.05,0.05,0.05,000,0.05
2016-09-13,0.05,0.05,0.05,0.05,000,0.05
2016-09-12,0.05,0.05,0.05,0.05,000,0.05
2016-09-09,0.05,0.05,0.05,0.05,000,0.05
2016-09-08,0.05,0.05,0.05,0.05,000,0.05
2016-09-07,0.05,0.05,0.05,0.05,000,0.05
2016-09-06,0.05,0.05,0.05,0.05,000,0.05
2016-09-05,0.05,0.05,0.05,0.05,000,0.05
2016-09-02,0.05,0.05,0.05,0.05,000,0.05
2016-09-01,0.05,0.05,0.05,0.05,000,0.05
2016-08-31,0.05,0.05,0.05,0.05,000,0.05
2016-08-30,0.05,0.05,0.05,0.05,000,0.05
2016-08-29,0.05,0.05,0.05,0.05,000,0.05
2016-08-26,0.05,0.05,0.05,0.05,000,0.05
2016-08-25,0.05,0.05,0.05,0.05,000,0.05
2016-08-24,0.05,0.05,0.05,0.05,000,0.05
2016-08-23,0.05,0.05,0.05,0.05,000,0.05
2016-08-22,0.05,0.05,0.05,0.05,000,0.05
2016-08-19,0.05,0.05,0.05,0.05,000,0.05
2016-08-18,0.05,0.05,0.05,0.05,000,0.05
2016-08-17,0.05,0.05,0.05,0.05,000,0.05
2016-08-16,0.05,0.05,0.05,0.05,000,0.05
2016-08-15,0.05,0.05,0.05,0.05,000,0.05
2016-08-12,0.05,0.05,0.05,0.05,000,0.05
2016-08-11,0.05,0.05,0.05,0.05,000,0.05
2016-08-10,0.05,0.05,0.05,0.05,000,0.05
2016-08-09,0.05,0.05,0.05,0.05,000,0.05
2016-08-08,0.05,0.05,0.05,0.05,000,0.05
2016-08-05,0.05,0.05,0.05,0.05,000,0.05
2016-08-04,0.05,0.05,0.05,0.05,000,0.05
2016-08-03,0.05,0.05,0.05,0.05,000,0.05
2016-08-02,0.05,0.05,0.05,0.05,000,0.05
2016-08-01,0.05,0.05,0.05,0.05,000,0.05
2016-07-29,0.05,0.05,0.05,0.05,000,0.05
2016-07-28,0.05,0.05,0.05,0.05,000,0.05
2016-07-27,0.05,0.05,0.05,0.05,000,0.05
2016-07-26,0.05,0.05,0.05,0.05,000,0.05
2016-07-25,0.05,0.05,0.05,0.05,000,0.05
2016-07-22,0.05,0.05,0.05,0.05,000,0.05
2016-07-21,0.05,0.05,0.05,0.05,000,0.05
2016-07-20,0.05,0.05,0.05,0.05,000,0.05
2016-07-19,0.05,0.05,0.05,0.05,000,0.05
2016-07-18,0.05,0.05,0.05,0.05,000,0.05
2016-07-15,0.05,0.05,0.05,0.05,000,0.05
2016-07-14,0.05,0.05,0.05,0.05,000,0.05
2016-07-13,0.05,0.05,0.05,0.05,000,0.05
2016-07-12,0.05,0.05,0.05,0.05,000,0.05
2016-07-11,0.05,0.05,0.05,0.05,000,0.05
2016-07-08,0.05,0.05,0.05,0.05,000,0.05
2016-07-07,0.05,0.05,0.05,0.05,000,0.05
2016-07-06,0.05,0.05,0.05,0.05,000,0.05
2016-07-05,0.05,0.05,0.05,0.05,000,0.05
2016-07-04,0.05,0.05,0.05,0.05,000,0.05
2016-07-01,0.05,0.05,0.05,0.05,000,0.05
2016-06-30,0.05,0.05,0.05,0.05,000,0.05
2016-06-29,0.05,0.05,0.05,0.05,000,0.05
2016-06-28,0.05,0.05,0.05,0.05,1000,0.05
2016-06-27,0.05,0.05,0.05,0.05,47000,0.05
2016-06-24,0.079,0.079,0.079,0.079,000,0.079
2016-06-23,0.079,0.079,0.079,0.079,000,0.079
2016-06-22,0.079,0.079,0.079,0.079,000,0.079
2016-06-21,0.079,0.079,0.079,0.079,000,0.079
2016-06-20,0.079,0.079,0.079,0.079,000,0.079
2016-06-17,0.079,0.079,0.079,0.079,000,0.079
2016-06-16,0.079,0.079,0.079,0.079,000,0.079
2016-06-15,0.079,0.079,0.079,0.079,000,0.079
2016-06-14,0.079,0.079,0.079,0.079,000,0.079
2016-06-13,0.079,0.079,0.079,0.079,000,0.079
2016-06-10,0.079,0.079,0.079,0.079,000,0.079
2016-06-09,0.079,0.079,0.079,0.079,000,0.079
2016-06-08,0.079,0.079,0.079,0.079,000,0.079
2016-06-07,0.079,0.079,0.079,0.079,50000,0.079
2016-06-06,0.10,0.10,0.10,0.10,000,0.10
2016-06-03,0.10,0.10,0.10,0.10,000,0.10
2016-06-02,0.10,0.10,0.10,0.10,000,0.10
2016-06-01,0.10,0.10,0.10,0.10,000,0.10
2016-05-31,0.10,0.10,0.10,0.10,000,0.10
2016-05-30,0.10,0.10,0.10,0.10,000,0.10
2016-05-27,0.10,0.10,0.10,0.10,000,0.10
2016-05-26,0.10,0.10,0.10,0.10,000,0.10
2016-05-25,0.10,0.10,0.10,0.10,000,0.10
2016-05-24,0.10,0.10,0.10,0.10,000,0.10
2016-05-23,0.10,0.10,0.10,0.10,000,0.10
2016-05-20,0.10,0.10,0.10,0.10,000,0.10
2016-05-19,0.10,0.10,0.10,0.10,000,0.10
2016-05-18,0.10,0.10,0.10,0.10,000,0.10
2016-05-17,0.10,0.10,0.10,0.10,000,0.10
2016-05-16,0.10,0.10,0.10,0.10,000,0.10
2016-05-13,0.10,0.10,0.10,0.10,000,0.10
2016-05-12,0.10,0.10,0.10,0.10,000,0.10
2016-05-11,0.10,0.10,0.10,0.10,000,0.10
2016-05-10,0.10,0.10,0.10,0.10,000,0.10
2016-05-09,0.10,0.10,0.10,0.10,000,0.10
2016-05-06,0.10,0.10,0.10,0.10,000,0.10
2016-05-05,0.10,0.10,0.10,0.10,000,0.10
2016-05-04,0.10,0.10,0.10,0.10,000,0.10
2016-05-03,0.10,0.10,0.10,0.10,000,0.10
2016-05-02,0.10,0.10,0.10,0.10,000,0.10
2016-04-29,0.10,0.10,0.10,0.10,000,0.10
2016-04-28,0.10,0.10,0.10,0.10,000,0.10
2016-04-27,0.10,0.10,0.10,0.10,000,0.10
2016-04-26,0.10,0.10,0.10,0.10,000,0.10
2016-04-25,0.10,0.10,0.10,0.10,000,0.10
2016-04-22,0.10,0.10,0.10,0.10,000,0.10
2016-04-21,0.10,0.10,0.10,0.10,000,0.10
2016-04-20,0.10,0.10,0.10,0.10,000,0.10
2016-04-19,0.10,0.10,0.10,0.10,000,0.10
2016-04-18,0.10,0.10,0.10,0.10,000,0.10
2016-04-15,0.10,0.10,0.10,0.10,000,0.10
2016-04-14,0.10,0.10,0.10,0.10,000,0.10
2016-04-13,0.10,0.10,0.10,0.10,000,0.10
2016-04-12,0.10,0.10,0.10,0.10,000,0.10
2016-04-11,0.10,0.10,0.10,0.10,000,0.10
2016-04-08,0.10,0.10,0.10,0.10,000,0.10
2016-04-07,0.10,0.10,0.10,0.10,000,0.10
2016-04-06,0.10,0.10,0.10,0.10,000,0.10
2016-04-05,0.10,0.10,0.10,0.10,000,0.10
2016-04-04,0.10,0.10,0.10,0.10,000,0.10
2016-04-01,0.10,0.10,0.10,0.10,000,0.10
2016-03-31,0.10,0.10,0.10,0.10,000,0.10
2016-03-30,0.10,0.10,0.10,0.10,000,0.10
2016-03-29,0.10,0.10,0.10,0.10,000,0.10
2016-03-28,0.10,0.10,0.10,0.10,000,0.10
2016-03-25,0.10,0.10,0.10,0.10,000,0.10
2016-03-24,0.10,0.10,0.10,0.10,000,0.10
2016-03-23,0.10,0.10,0.10,0.10,000,0.10
2016-03-22,0.10,0.10,0.10,0.10,000,0.10
2016-03-21,0.10,0.10,0.10,0.10,000,0.10
2016-03-18,0.10,0.10,0.10,0.10,000,0.10
2016-03-17,0.10,0.10,0.10,0.10,000,0.10
2016-03-16,0.10,0.10,0.10,0.10,000,0.10
2016-03-15,0.10,0.10,0.10,0.10,000,0.10
2016-03-14,0.10,0.10,0.10,0.10,000,0.10
2016-03-11,0.10,0.10,0.10,0.10,000,0.10
2016-03-10,0.10,0.10,0.10,0.10,000,0.10
2016-03-09,0.10,0.10,0.10,0.10,000,0.10
2016-03-08,0.10,0.10,0.10,0.10,000,0.10
2016-03-07,0.10,0.10,0.10,0.10,000,0.10
2016-03-04,0.10,0.10,0.10,0.10,000,0.10
2016-03-03,0.10,0.10,0.10,0.10,000,0.10
2016-03-02,0.10,0.10,0.10,0.10,000,0.10
2016-03-01,0.10,0.10,0.10,0.10,000,0.10
2016-02-29,0.10,0.10,0.10,0.10,2900,0.10
2016-02-26,0.08,0.08,0.08,0.08,000,0.08
2016-02-25,0.08,0.08,0.08,0.08,000,0.08
2016-02-24,0.08,0.08,0.08,0.08,000,0.08
2016-02-23,0.08,0.08,0.08,0.08,000,0.08
2016-02-22,0.08,0.08,0.08,0.08,000,0.08
2016-02-19,0.08,0.08,0.08,0.08,000,0.08
2016-02-18,0.08,0.08,0.08,0.08,000,0.08
2016-02-17,0.08,0.08,0.08,0.08,000,0.08
2016-02-16,0.08,0.08,0.08,0.08,26000,0.08
2016-02-15,0.105,0.105,0.105,0.105,000,0.105
2016-02-12,0.105,0.105,0.105,0.105,000,0.105
2016-02-11,0.105,0.105,0.105,0.105,000,0.105
2016-02-10,0.105,0.105,0.105,0.105,000,0.105
2016-02-09,0.105,0.105,0.105,0.105,000,0.105
2016-02-08,0.105,0.105,0.105,0.105,000,0.105
2016-02-05,0.105,0.105,0.105,0.105,000,0.105
2016-02-04,0.105,0.105,0.105,0.105,000,0.105
2016-02-03,0.105,0.105,0.105,0.105,000,0.105
2016-02-02,0.105,0.105,0.105,0.105,000,0.105
2016-02-01,0.105,0.105,0.105,0.105,000,0.105
2016-01-29,0.105,0.105,0.105,0.105,70000,0.105
2016-01-28,0.13,0.13,0.13,0.13,000,0.13
2016-01-27,0.13,0.13,0.13,0.13,000,0.13
2016-01-26,0.13,0.13,0.13,0.13,000,0.13
2016-01-25,0.13,0.13,0.13,0.13,000,0.13
2016-01-22,0.13,0.13,0.13,0.13,000,0.13
2016-01-21,0.13,0.13,0.13,0.13,000,0.13
2016-01-20,0.13,0.13,0.13,0.13,000,0.13
2016-01-19,0.13,0.13,0.13,0.13,000,0.13
2016-01-18,0.13,0.13,0.13,0.13,000,0.13
2016-01-15,0.13,0.13,0.13,0.13,000,0.13
2016-01-14,0.13,0.13,0.13,0.13,000,0.13
2016-01-13,0.13,0.13,0.13,0.13,000,0.13
2016-01-12,0.13,0.13,0.13,0.13,000,0.13
2016-01-11,0.13,0.13,0.13,0.13,000,0.13
2016-01-08,0.13,0.13,0.13,0.13,000,0.13
2016-01-07,0.13,0.13,0.13,0.13,96200,0.13
2016-01-06,0.13,0.13,0.13,0.13,000,0.13
2016-01-05,0.10,0.13,0.10,0.13,458600,0.13
2016-01-04,0.13,0.13,0.13,0.13,000,0.13
2016-01-01,0.13,0.13,0.13,0.13,000,0.13
2015-12-31,0.13,0.13,0.13,0.13,000,0.13
2015-12-30,0.13,0.13,0.13,0.13,000,0.13
2015-12-29,0.13,0.13,0.13,0.13,000,0.13
2015-12-28,0.13,0.13,0.13,0.13,000,0.13
2015-12-25,0.13,0.13,0.13,0.13,000,0.13
2015-12-24,0.13,0.13,0.13,0.13,000,0.13
2015-12-23,0.13,0.13,0.13,0.13,000,0.13
2015-12-22,0.13,0.13,0.13,0.13,000,0.13
2015-12-21,0.13,0.13,0.13,0.13,000,0.13
2015-12-18,0.13,0.13,0.13,0.13,000,0.13
2015-12-17,0.13,0.13,0.13,0.13,000,0.13
2015-12-16,0.13,0.13,0.13,0.13,000,0.13
2015-12-15,0.12,0.13,0.12,0.13,90000,0.13
2015-12-14,0.10,0.10,0.10,0.10,000,0.10
2015-12-11,0.10,0.10,0.10,0.10,000,0.10
2015-12-10,0.10,0.10,0.10,0.10,101000,0.10
2015-12-09,0.09,0.09,0.09,0.09,129000,0.09
2015-12-08,0.067,0.07,0.067,0.07,368300,0.07
2015-12-07,0.07,0.07,0.07,0.07,2800,0.07
2015-12-04,0.07,0.07,0.07,0.07,315000,0.07
2015-12-03,0.055,0.055,0.055,0.055,32100,0.055
2015-12-02,0.05,0.05,0.05,0.05,000,0.05
2015-12-01,0.05,0.05,0.05,0.05,000,0.05
2015-11-30,0.05,0.05,0.05,0.05,000,0.05
2015-11-27,0.05,0.05,0.05,0.05,000,0.05
2015-11-26,0.05,0.05,0.05,0.05,000,0.05
2015-11-25,0.05,0.05,0.05,0.05,000,0.05
2015-11-24,0.05,0.05,0.05,0.05,000,0.05
2015-11-23,0.05,0.05,0.05,0.05,000,0.05
2015-11-20,0.05,0.05,0.05,0.05,30000,0.05
2015-11-19,0.035,0.035,0.035,0.035,000,0.035
2015-11-18,0.035,0.035,0.035,0.035,000,0.035
2015-11-17,0.035,0.035,0.035,0.035,000,0.035
2015-11-16,0.035,0.035,0.035,0.035,000,0.035
2015-11-13,0.035,0.035,0.035,0.035,32200,0.035
2015-11-12,0.025,0.025,0.025,0.025,000,0.025
2015-11-11,0.025,0.025,0.025,0.025,000,0.025
2015-11-10,0.025,0.025,0.025,0.025,000,0.025
2015-11-09,0.025,0.025,0.025,0.025,000,0.025
2015-11-06,0.025,0.025,0.025,0.025,000,0.025
2015-11-05,0.025,0.025,0.025,0.025,000,0.025
2015-11-04,0.025,0.025,0.025,0.025,000,0.025
2015-11-03,0.025,0.025,0.025,0.025,000,0.025
2015-11-02,0.025,0.025,0.025,0.025,000,0.025
2015-10-30,0.025,0.025,0.025,0.025,000,0.025
2015-10-29,0.025,0.025,0.025,0.025,000,0.025
2015-10-28,0.025,0.025,0.025,0.025,000,0.025
2015-10-27,0.025,0.025,0.025,0.025,000,0.025
2015-10-26,0.025,0.025,0.025,0.025,000,0.025
2015-10-23,0.025,0.025,0.025,0.025,000,0.025
2015-10-22,0.025,0.025,0.025,0.025,000,0.025
2015-10-21,0.025,0.025,0.025,0.025,000,0.025
2015-10-20,0.025,0.025,0.025,0.025,000,0.025
2015-10-19,0.025,0.025,0.025,0.025,000,0.025
2015-10-16,0.025,0.025,0.025,0.025,000,0.025
2015-10-15,0.025,0.025,0.025,0.025,11500,0.025
2015-10-14,0.03,0.03,0.03,0.03,3500,0.03
2015-10-13,0.033,0.033,0.033,0.033,000,0.033
2015-10-12,0.033,0.033,0.033,0.033,000,0.033
2015-10-09,0.033,0.033,0.033,0.033,000,0.033
2015-10-08,0.033,0.033,0.033,0.033,000,0.033
2015-10-07,0.033,0.033,0.033,0.033,000,0.033
2015-10-06,0.033,0.033,0.033,0.033,000,0.033
2015-10-05,0.033,0.033,0.033,0.033,000,0.033
2015-10-02,0.033,0.033,0.033,0.033,000,0.033
2015-10-01,0.033,0.033,0.033,0.033,000,0.033
2015-09-30,0.033,0.033,0.033,0.033,000,0.033
2015-09-29,0.033,0.033,0.033,0.033,000,0.033
2015-09-28,0.033,0.033,0.033,0.033,000,0.033
2015-09-25,0.033,0.033,0.033,0.033,000,0.033
2015-09-24,0.033,0.033,0.033,0.033,000,0.033
2015-09-23,0.033,0.033,0.033,0.033,000,0.033
2015-09-22,0.033,0.033,0.033,0.033,000,0.033
2015-09-21,0.033,0.033,0.033,0.033,10000,0.033
2015-09-18,0.033,0.033,0.033,0.033,000,0.033
2015-09-17,0.033,0.033,0.033,0.033,120000,0.033
2015-09-16,0.03,0.03,0.03,0.03,000,0.03
2015-09-15,0.03,0.03,0.03,0.03,000,0.03
2015-09-14,0.03,0.03,0.03,0.03,000,0.03
2015-09-11,0.03,0.03,0.03,0.03,000,0.03
2015-09-10,0.03,0.03,0.03,0.03,000,0.03
2015-09-09,0.03,0.03,0.03,0.03,000,0.03
2015-09-08,0.03,0.03,0.03,0.03,000,0.03
2015-09-07,0.03,0.03,0.03,0.03,000,0.03
2015-09-04,0.03,0.03,0.03,0.03,000,0.03
2015-09-03,0.03,0.03,0.03,0.03,000,0.03
2015-09-02,0.03,0.03,0.03,0.03,000,0.03
2015-09-01,0.03,0.03,0.03,0.03,000,0.03
2015-08-31,0.03,0.03,0.03,0.03,000,0.03
2015-08-28,0.03,0.03,0.03,0.03,000,0.03
2015-08-27,0.03,0.03,0.03,0.03,000,0.03
2015-08-26,0.03,0.03,0.03,0.03,000,0.03
2015-08-25,0.03,0.03,0.03,0.03,000,0.03
2015-08-24,0.03,0.03,0.03,0.03,184000,0.03
2015-08-20,0.031,0.031,0.031,0.031,000,0.031
2015-08-19,0.031,0.031,0.031,0.031,000,0.031
2015-08-18,0.031,0.031,0.031,0.031,000,0.031
2015-08-17,0.031,0.031,0.031,0.031,000,0.031
2015-08-14,0.031,0.031,0.031,0.031,000,0.031
2015-08-13,0.031,0.031,0.031,0.031,000,0.031
2015-08-12,0.031,0.031,0.031,0.031,262300,0.031
2015-08-11,0.031,0.031,0.031,0.031,60000,0.031
2015-08-10,0.031,0.031,0.031,0.031,000,0.031
2015-08-07,0.031,0.031,0.031,0.031,21000,0.031
2015-08-06,0.03,0.03,0.03,0.03,000,0.03
2015-08-05,0.03,0.03,0.03,0.03,000,0.03
2015-08-04,0.03,0.03,0.03,0.03,000,0.03
2015-08-03,0.03,0.03,0.03,0.03,000,0.03
2015-07-31,0.03,0.03,0.03,0.03,12500,0.03
2015-07-30,0.035,0.035,0.035,0.035,000,0.035
2015-07-29,0.035,0.035,0.035,0.035,000,0.035
2015-07-28,0.035,0.035,0.035,0.035,000,0.035
2015-07-27,0.035,0.035,0.035,0.035,000,0.035
2015-07-24,0.035,0.035,0.035,0.035,000,0.035
2015-07-23,0.035,0.035,0.035,0.035,000,0.035
2015-07-22,0.035,0.035,0.035,0.035,000,0.035
2015-07-21,0.035,0.035,0.035,0.035,000,0.035
2015-07-20,0.035,0.035,0.035,0.035,000,0.035
2015-07-17,0.035,0.035,0.035,0.035,000,0.035
2015-07-16,0.035,0.035,0.035,0.035,000,0.035
2015-07-15,0.035,0.035,0.035,0.035,000,0.035
2015-07-14,0.035,0.035,0.035,0.035,000,0.035
2015-07-13,0.035,0.035,0.035,0.035,000,0.035
2015-07-10,0.035,0.035,0.035,0.035,000,0.035
2015-07-09,0.035,0.035,0.035,0.035,000,0.035
2015-07-08,0.035,0.035,0.035,0.035,000,0.035
2015-07-07,0.035,0.035,0.035,0.035,000,0.035
2015-07-06,0.035,0.035,0.035,0.035,000,0.035
2015-07-03,0.035,0.035,0.035,0.035,000,0.035
2015-07-02,0.035,0.035,0.035,0.035,000,0.035
2015-07-01,0.035,0.035,0.035,0.035,000,0.035
2015-06-30,0.035,0.035,0.035,0.035,000,0.035
2015-06-29,0.035,0.035,0.035,0.035,000,0.035
2015-06-26,0.035,0.035,0.035,0.035,000,0.035
2015-06-25,0.035,0.035,0.035,0.035,000,0.035
2015-06-24,0.03,0.035,0.03,0.035,30000,0.035
2015-06-23,0.023,0.023,0.021,0.021,7000,0.021
2015-06-22,0.035,0.035,0.035,0.035,000,0.035
2015-06-19,0.035,0.035,0.035,0.035,000,0.035
2015-06-18,0.035,0.035,0.035,0.035,000,0.035
2015-06-17,0.035,0.035,0.035,0.035,000,0.035
2015-06-16,0.035,0.035,0.035,0.035,000,0.035
2015-06-15,0.035,0.035,0.035,0.035,000,0.035
2015-06-12,0.035,0.035,0.035,0.035,000,0.035
2015-06-11,0.035,0.035,0.035,0.035,000,0.035
2015-06-10,0.035,0.035,0.035,0.035,000,0.035
2015-06-09,0.031,0.035,0.031,0.035,28500,0.035
2015-06-08,0.04,0.04,0.04,0.04,000,0.04
2015-06-05,0.04,0.04,0.04,0.04,000,0.04
2015-06-04,0.04,0.04,0.04,0.04,000,0.04
2015-06-03,0.04,0.04,0.04,0.04,000,0.04
2015-06-02,0.04,0.04,0.04,0.04,000,0.04
2015-06-01,0.04,0.04,0.04,0.04,000,0.04
2015-05-29,0.04,0.04,0.04,0.04,000,0.04
2015-05-28,0.04,0.04,0.04,0.04,000,0.04
2015-05-27,0.04,0.04,0.04,0.04,000,0.04
2015-05-26,0.04,0.04,0.04,0.04,000,0.04
2015-05-25,0.04,0.04,0.04,0.04,000,0.04
2015-05-22,0.04,0.04,0.04,0.04,000,0.04
2015-05-21,0.04,0.04,0.04,0.04,000,0.04
2015-05-20,0.04,0.04,0.04,0.04,000,0.04
2015-05-19,0.04,0.04,0.04,0.04,25000,0.04
2015-05-18,0.04,0.04,0.04,0.04,000,0.04
2015-05-15,0.04,0.04,0.04,0.04,70000,0.04
2015-05-14,0.04,0.04,0.04,0.04,146000,0.04
2015-05-13,0.065,0.065,0.065,0.065,000,0.065
2015-05-12,0.065,0.065,0.065,0.065,000,0.065
2015-05-11,0.065,0.065,0.065,0.065,000,0.065
2015-05-08,0.065,0.065,0.065,0.065,000,0.065
2015-05-07,0.065,0.065,0.065,0.065,000,0.065
2015-05-06,0.065,0.065,0.065,0.065,000,0.065
2015-05-05,0.065,0.065,0.065,0.065,000,0.065
2015-05-04,0.065,0.065,0.065,0.065,000,0.065
2015-05-01,0.065,0.065,0.065,0.065,456900,0.065
2015-04-30,0.055,0.055,0.055,0.055,000,0.055
2015-04-29,0.055,0.055,0.055,0.055,000,0.055
2015-04-28,0.055,0.055,0.055,0.055,000,0.055
2015-04-27,0.055,0.055,0.055,0.055,000,0.055
2015-04-24,0.055,0.055,0.055,0.055,000,0.055
2015-04-23,0.055,0.055,0.055,0.055,000,0.055
2015-04-22,0.055,0.055,0.055,0.055,25000,0.055
2015-04-21,0.055,0.055,0.055,0.055,000,0.055
2015-04-20,0.055,0.055,0.055,0.055,62100,0.055
2015-04-17,0.055,0.055,0.055,0.055,50000,0.055
2015-04-16,0.055,0.055,0.055,0.055,10000,0.055
2015-04-15,0.055,0.055,0.055,0.055,9500,0.055
2015-04-14,0.046,0.055,0.046,0.055,29000,0.055
2015-04-13,0.525,0.525,0.525,0.525,000,0.525
2015-04-10,0.525,0.525,0.525,0.525,000,0.525
2015-04-09,0.525,0.525,0.525,0.525,000,0.525
2015-04-08,0.52,0.525,0.52,0.525,129500,0.525
2015-04-07,0.51,0.51,0.51,0.51,000,0.51
2015-04-06,0.51,0.51,0.51,0.51,000,0.51
2015-04-03,0.51,0.51,0.51,0.51,000,0.51
2015-04-02,0.51,0.52,0.51,0.51,180000,0.51
2015-04-01,0.51,0.51,0.51,0.51,116800,0.51
2015-03-31,0.49,0.49,0.49,0.49,000,0.49
2015-03-30,0.49,0.49,0.49,0.49,20000,0.49
2015-03-27,0.48,0.48,0.48,0.48,10000,0.48
2015-03-26,0.46,0.46,0.46,0.46,000,0.46
2015-03-25,0.46,0.46,0.46,0.46,000,0.46
2015-03-24,0.465,0.465,0.45,0.46,50300,0.46
2015-03-23,0.465,0.465,0.465,0.465,000,0.465
2015-03-20,0.465,0.465,0.465,0.465,000,0.465
2015-03-19,0.465,0.465,0.465,0.465,000,0.465
2015-03-18,0.465,0.465,0.465,0.465,000,0.465
2015-03-17,0.465,0.465,0.465,0.465,000,0.465
2015-03-16,0.49,0.49,0.465,0.465,26000,0.465
2015-03-13,0.46,0.46,0.46,0.46,000,0.46
2015-03-12,0.46,0.46,0.46,0.46,000,0.46
2015-03-11,0.46,0.46,0.45,0.46,130000,0.46
2015-03-10,0.46,0.46,0.46,0.46,000,0.46
2015-03-09,0.46,0.46,0.45,0.46,50000,0.46
2015-03-06,0.46,0.46,0.46,0.46,1000,0.46
2015-03-05,0.45,0.46,0.45,0.45,21000,0.45
2015-03-04,0.465,0.465,0.465,0.465,000,0.465
2015-03-03,0.465,0.465,0.465,0.465,000,0.465
2015-03-02,0.47,0.47,0.465,0.465,65000,0.465
2015-02-27,0.525,0.525,0.525,0.525,000,0.525
2015-02-26,0.525,0.525,0.525,0.525,000,0.525
2015-02-25,0.525,0.525,0.525,0.525,000,0.525
2015-02-24,0.525,0.525,0.525,0.525,50000,0.525
2015-02-23,0.53,0.53,0.53,0.53,000,0.53
2015-02-20,0.53,0.53,0.53,0.53,000,0.53
2015-02-19,0.53,0.53,0.53,0.53,000,0.53
2015-02-18,0.53,0.53,0.53,0.53,000,0.53
2015-02-17,0.53,0.53,0.53,0.53,000,0.53
2015-02-16,0.53,0.53,0.53,0.53,000,0.53
2015-02-13,0.53,0.53,0.53,0.53,5000,0.53
2015-02-12,0.54,0.54,0.54,0.54,000,0.54
2015-02-11,0.54,0.54,0.54,0.54,000,0.54
2015-02-10,0.54,0.54,0.54,0.54,000,0.54
2015-02-09,0.54,0.54,0.54,0.54,000,0.54
2015-02-06,0.54,0.54,0.54,0.54,4000,0.54
2015-02-05,0.54,0.54,0.54,0.54,1000,0.54
2015-02-04,0.54,0.54,0.54,0.54,000,0.54
2015-02-03,0.54,0.54,0.54,0.54,10200,0.54
2015-02-02,0.55,0.55,0.55,0.55,000,0.55
2015-01-30,0.55,0.55,0.55,0.55,31700,0.55
2015-01-29,0.55,0.55,0.55,0.55,000,0.55
2015-01-28,0.55,0.55,0.55,0.55,000,0.55
2015-01-27,0.55,0.55,0.55,0.55,20000,0.55
2015-01-26,0.55,0.55,0.55,0.55,000,0.55
2015-01-23,0.55,0.55,0.55,0.55,000,0.55
2015-01-22,0.55,0.55,0.55,0.55,100000,0.55
2015-01-21,0.55,0.55,0.55,0.55,000,0.55
2015-01-20,0.55,0.55,0.55,0.55,000,0.55
2015-01-19,0.55,0.55,0.55,0.55,000,0.55
2015-01-16,0.55,0.55,0.55,0.55,1000,0.55
2015-01-15,0.55,0.55,0.55,0.55,97900,0.55
2015-01-14,0.55,0.55,0.55,0.55,50300,0.55
2015-01-13,0.55,0.55,0.55,0.55,119600,0.55
2015-01-12,0.535,0.535,0.535,0.535,000,0.535
2015-01-09,0.535,0.535,0.535,0.535,000,0.535
2015-01-08,0.535,0.535,0.535,0.535,000,0.535
2015-01-07,0.535,0.535,0.535,0.535,000,0.535
2015-01-06,0.535,0.535,0.535,0.535,000,0.535
2015-01-05,0.535,0.535,0.535,0.535,000,0.535
2015-01-02,0.535,0.535,0.535,0.535,000,0.535
2015-01-01,0.535,0.535,0.535,0.535,000,0.535
2014-12-31,0.535,0.535,0.535,0.535,000,0.535
2014-12-30,0.535,0.535,0.535,0.535,000,0.535
2014-12-29,0.535,0.535,0.535,0.535,58300,0.535
2014-12-26,0.53,0.53,0.53,0.53,000,0.53
2014-12-25,0.53,0.53,0.53,0.53,000,0.53
2014-12-24,0.53,0.53,0.53,0.53,000,0.53
2014-12-23,0.53,0.53,0.53,0.53,000,0.53
2014-12-22,0.53,0.53,0.53,0.53,000,0.53
2014-12-19,0.53,0.53,0.53,0.53,3300,0.53
2014-12-18,0.48,0.48,0.48,0.48,000,0.48
2014-12-17,0.48,0.48,0.48,0.48,000,0.48
2014-12-16,0.48,0.48,0.48,0.48,000,0.48
2014-12-15,0.48,0.48,0.48,0.48,000,0.48
2014-12-12,0.48,0.48,0.48,0.48,000,0.48
2014-12-11,0.48,0.48,0.48,0.48,000,0.48
2014-12-10,0.48,0.48,0.48,0.48,7800,0.48
2014-12-09,0.51,0.51,0.51,0.51,000,0.51
2014-12-08,0.51,0.51,0.51,0.51,000,0.51
2014-12-05,0.51,0.51,0.51,0.51,000,0.51
2014-12-04,0.51,0.51,0.51,0.51,000,0.51
2014-12-03,0.51,0.51,0.51,0.51,000,0.51
2014-12-02,0.51,0.51,0.51,0.51,000,0.51
2014-12-01,0.51,0.51,0.51,0.51,000,0.51
2014-11-28,0.51,0.51,0.51,0.51,000,0.51
2014-11-27,0.51,0.51,0.51,0.51,000,0.51
2014-11-26,0.51,0.51,0.51,0.51,000,0.51
2014-11-25,0.51,0.51,0.51,0.51,000,0.51
2014-11-24,0.51,0.51,0.51,0.51,000,0.51
2014-11-21,0.51,0.51,0.51,0.51,000,0.51
2014-11-20,0.51,0.51,0.51,0.51,2000,0.51
2014-11-19,0.51,0.51,0.51,0.51,000,0.51
2014-11-18,0.51,0.51,0.51,0.51,000,0.51
2014-11-17,0.51,0.51,0.51,0.51,000,0.51
2014-11-14,0.51,0.51,0.51,0.51,000,0.51
2014-11-13,0.51,0.51,0.51,0.51,000,0.51
2014-11-12,0.51,0.51,0.51,0.51,000,0.51
2014-11-11,0.51,0.51,0.51,0.51,10000,0.51
2014-11-10,0.51,0.51,0.51,0.51,000,0.51
2014-11-07,0.51,0.51,0.51,0.51,000,0.51
2014-11-06,0.51,0.51,0.51,0.51,000,0.51
2014-11-05,0.51,0.51,0.51,0.51,2000,0.51
2014-11-04,0.51,0.51,0.51,0.51,000,0.51
2014-11-03,0.51,0.51,0.51,0.51,000,0.51
2014-10-31,0.51,0.51,0.51,0.51,000,0.51
2014-10-30,0.51,0.51,0.51,0.51,000,0.51
2014-10-29,0.51,0.51,0.51,0.51,000,0.51
2014-10-28,0.51,0.51,0.51,0.51,000,0.51
2014-10-27,0.51,0.51,0.51,0.51,000,0.51
2014-10-24,0.51,0.51,0.51,0.51,000,0.51
2014-10-23,0.51,0.51,0.51,0.51,000,0.51
2014-10-22,0.51,0.51,0.51,0.51,000,0.51
2014-10-21,0.51,0.51,0.51,0.51,000,0.51
2014-10-20,0.51,0.51,0.51,0.51,2500,0.51
2014-10-17,0.51,0.51,0.51,0.51,2500,0.51
2014-10-16,0.50,0.50,0.50,0.50,000,0.50
2014-10-15,0.50,0.50,0.50,0.50,000,0.50
2014-10-14,0.50,0.50,0.50,0.50,000,0.50
2014-10-13,0.50,0.50,0.50,0.50,000,0.50
2014-10-10,0.50,0.50,0.50,0.50,000,0.50
2014-10-09,0.50,0.50,0.50,0.50,000,0.50
2014-10-08,0.50,0.50,0.50,0.50,4000,0.50
2014-10-07,0.62,0.62,0.62,0.62,000,0.606
2014-10-06,0.62,0.62,0.62,0.62,000,0.606
2014-10-03,0.62,0.62,0.62,0.62,000,0.606
2014-10-02,0.62,0.62,0.62,0.62,000,0.606
2014-10-01,0.62,0.62,0.62,0.62,000,0.606
2014-09-30,0.62,0.62,0.62,0.62,000,0.606
2014-09-29,0.62,0.62,0.62,0.62,000,0.606
2014-09-26,0.62,0.62,0.62,0.62,000,0.606
2014-09-25,0.62,0.62,0.62,0.62,000,0.606
2014-09-24,0.62,0.62,0.62,0.62,000,0.606
2014-09-23,0.62,0.62,0.62,0.62,000,0.606
2014-09-22,0.62,0.62,0.62,0.62,1000,0.606
2014-09-19,0.62,0.62,0.62,0.62,000,0.606
2014-09-18,0.62,0.62,0.62,0.62,000,0.606
2014-09-17,0.62,0.62,0.62,0.62,2500,0.606
2014-09-16,0.62,0.62,0.62,0.62,000,0.606
2014-09-15,0.62,0.62,0.62,0.62,000,0.606
2014-09-12,0.62,0.62,0.62,0.62,000,0.606
2014-09-11,0.62,0.62,0.62,0.62,10000,0.606
2014-09-10,0.65,0.65,0.65,0.65,000,0.635
2014-09-09,0.65,0.65,0.65,0.65,000,0.635
2014-09-08,0.65,0.65,0.65,0.65,15400,0.635
2014-09-05,0.62,0.62,0.62,0.62,000,0.606
2014-09-04,0.62,0.62,0.62,0.62,50000,0.606
2014-09-03,0.615,0.615,0.615,0.615,000,0.601
2014-09-02,0.615,0.615,0.615,0.615,000,0.601
2014-09-01,0.615,0.615,0.615,0.615,000,0.601
2014-08-29,0.615,0.615,0.615,0.615,5500,0.601
2014-08-28,0.61,0.61,0.61,0.61,000,0.596
2014-08-27,0.61,0.61,0.61,0.61,000,0.596
2014-08-26,0.61,0.61,0.61,0.61,000,0.596
2014-08-25,0.61,0.61,0.61,0.61,000,0.596
2014-08-22,0.61,0.61,0.61,0.61,000,0.596
2014-08-21,0.61,0.61,0.61,0.61,000,0.596
2014-08-20,0.61,0.61,0.61,0.61,000,0.596
2014-08-19,0.61,0.61,0.61,0.61,000,0.596
2014-08-18,0.615,0.615,0.61,0.61,1000,0.596
2014-08-15,0.68,0.68,0.68,0.68,000,0.664
2014-08-14,0.68,0.68,0.68,0.68,000,0.664
2014-08-13,0.68,0.68,0.68,0.68,000,0.664
2014-08-12,0.68,0.68,0.68,0.68,000,0.664
2014-08-11,0.68,0.68,0.68,0.68,000,0.664
2014-08-08,0.68,0.68,0.68,0.68,000,0.664
2014-08-07,0.68,0.68,0.68,0.68,000,0.664
2014-08-06,0.68,0.68,0.68,0.68,15000,0.664
2014-08-05,0.60,0.60,0.60,0.60,000,0.586
2014-08-04,0.60,0.60,0.60,0.60,000,0.586
2014-08-01,0.60,0.60,0.60,0.60,000,0.586
2014-07-31,0.60,0.60,0.60,0.60,10000,0.586
2014-07-30,0.60,0.60,0.60,0.60,000,0.586
2014-07-29,0.60,0.60,0.60,0.60,000,0.586
2014-07-28,0.60,0.60,0.60,0.60,000,0.586
2014-07-25,0.60,0.60,0.60,0.60,000,0.586
2014-07-24,0.60,0.60,0.60,0.60,2400,0.586
2014-07-23,0.575,0.575,0.575,0.575,000,0.562
2014-07-22,0.575,0.575,0.575,0.575,000,0.562
2014-07-21,0.575,0.575,0.575,0.575,2500,0.562
2014-07-18,0.60,0.60,0.60,0.60,000,0.586
2014-07-17,0.60,0.60,0.60,0.60,1700,0.586
2014-07-16,0.575,0.575,0.575,0.575,000,0.562
2014-07-15,0.575,0.575,0.575,0.575,000,0.562
2014-07-14,0.575,0.575,0.575,0.575,000,0.562
2014-07-11,0.575,0.575,0.575,0.575,000,0.562
2014-07-10,0.575,0.575,0.575,0.575,000,0.562
2014-07-09,0.575,0.575,0.575,0.575,000,0.562
2014-07-08,0.575,0.575,0.575,0.575,000,0.562
2014-07-07,0.575,0.575,0.575,0.575,2000,0.562
2014-07-04,0.60,0.60,0.60,0.60,000,0.586
2014-07-03,0.60,0.60,0.60,0.60,000,0.586
2014-07-02,0.60,0.60,0.60,0.60,000,0.586
2014-07-01,0.60,0.60,0.60,0.60,16600,0.586
2014-06-30,0.60,0.60,0.60,0.60,000,0.586
2014-06-27,0.60,0.60,0.60,0.60,103300,0.586
2014-06-26,0.60,0.60,0.60,0.60,20000,0.586
2014-06-25,0.60,0.60,0.60,0.60,000,0.586
2014-06-24,0.585,0.60,0.585,0.60,37200,0.586
2014-06-23,0.605,0.605,0.605,0.605,000,0.591
2014-06-20,0.605,0.605,0.605,0.605,000,0.591
2014-06-19,0.605,0.605,0.605,0.605,000,0.591
2014-06-18,0.605,0.605,0.605,0.605,15000,0.591
2014-06-17,0.605,0.605,0.605,0.605,000,0.591
2014-06-16,0.605,0.605,0.605,0.605,000,0.591
2014-06-13,0.605,0.605,0.605,0.605,000,0.591
2014-06-12,0.60,0.605,0.60,0.605,46200,0.591
2014-06-11,0.60,0.60,0.60,0.60,000,0.586
2014-06-10,0.60,0.60,0.60,0.60,000,0.586
2014-06-09,0.60,0.60,0.60,0.60,000,0.586
2014-06-06,0.60,0.60,0.60,0.60,000,0.586
2014-06-05,0.60,0.60,0.60,0.60,000,0.586
2014-06-04,0.60,0.60,0.60,0.60,000,0.586
2014-06-03,0.60,0.60,0.60,0.60,000,0.586
2014-06-02,0.60,0.60,0.60,0.60,000,0.586
2014-05-30,0.60,0.60,0.60,0.60,000,0.586
2014-05-29,0.60,0.60,0.60,0.60,000,0.586
2014-05-28,0.60,0.60,0.60,0.60,000,0.586
2014-05-27,0.60,0.60,0.60,0.60,000,0.586
2014-05-26,0.60,0.60,0.60,0.60,000,0.586
2014-05-23,0.60,0.60,0.60,0.60,000,0.586
2014-05-22,0.60,0.60,0.60,0.60,000,0.586
2014-05-21,0.585,0.60,0.58,0.60,31000,0.586
2014-05-20,0.58,0.58,0.58,0.58,000,0.567
2014-05-19,0.58,0.58,0.58,0.58,000,0.567
2014-05-16,0.58,0.58,0.58,0.58,5000,0.567
2014-05-15,0.57,0.57,0.57,0.57,000,0.557
2014-05-14,0.57,0.57,0.57,0.57,000,0.557
2014-05-13,0.58,0.58,0.57,0.57,50000,0.557
2014-05-12,0.58,0.58,0.58,0.58,000,0.567
2014-05-09,0.58,0.58,0.58,0.58,25000,0.567
2014-05-08,0.56,0.56,0.56,0.56,000,0.547
2014-05-07,0.56,0.56,0.56,0.56,000,0.547
2014-05-06,0.56,0.56,0.56,0.56,000,0.547
2014-05-05,0.56,0.56,0.56,0.56,000,0.547
2014-05-02,0.56,0.56,0.56,0.56,000,0.547
2014-05-01,0.56,0.56,0.56,0.56,150900,0.547
2014-04-30,0.56,0.56,0.56,0.56,20000,0.547
2014-04-29,0.56,0.56,0.56,0.56,000,0.547
2014-04-28,0.56,0.56,0.56,0.56,000,0.547
2014-04-25,0.56,0.56,0.56,0.56,000,0.547
2014-04-24,0.56,0.56,0.56,0.56,20000,0.547
2014-04-23,0.54,0.54,0.54,0.54,000,0.528
2014-04-22,0.54,0.54,0.54,0.54,1000,0.528
2014-04-21,0.54,0.54,0.54,0.54,000,0.528
2014-04-18,0.54,0.54,0.54,0.54,000,0.528
2014-04-17,0.54,0.54,0.54,0.54,000,0.528
2014-04-16,0.54,0.54,0.54,0.54,000,0.528
2014-04-15,0.54,0.54,0.54,0.54,000,0.528
2014-04-14,0.54,0.54,0.54,0.54,20000,0.528
2014-04-11,0.55,0.55,0.55,0.55,25000,0.537
2014-04-10,0.57,0.57,0.56,0.56,110000,0.547
2014-04-09,0.55,0.55,0.55,0.55,25000,0.537
2014-04-08,0.545,0.545,0.545,0.545,000,0.532
2014-04-07,0.545,0.545,0.545,0.545,000,0.532
2014-04-04,0.545,0.545,0.545,0.545,000,0.532
2014-04-03,0.56,0.56,0.545,0.545,24500,0.532
2014-04-02,0.55,0.55,0.55,0.55,000,0.537
2014-04-01,0.55,0.55,0.55,0.55,000,0.537
2014-03-31,0.55,0.55,0.55,0.55,000,0.537
2014-03-28,0.55,0.55,0.55,0.55,000,0.537
2014-03-27,0.55,0.55,0.55,0.55,000,0.537
2014-03-26,0.55,0.55,0.55,0.55,000,0.537
2014-03-25,0.55,0.55,0.55,0.55,1000,0.537
2014-03-24,0.56,0.56,0.55,0.55,22000,0.537
2014-03-21,0.56,0.56,0.56,0.56,12300,0.547
2014-03-20,0.62,0.62,0.62,0.62,000,0.606
2014-03-19,0.62,0.62,0.62,0.62,000,0.606
2014-03-18,0.62,0.62,0.62,0.62,000,0.606
2014-03-17,0.62,0.62,0.62,0.62,000,0.606
2014-03-14,0.60,0.62,0.60,0.62,16000,0.606
2014-03-13,0.62,0.62,0.62,0.62,000,0.606
2014-03-12,0.62,0.62,0.62,0.62,000,0.606
2014-03-11,0.62,0.62,0.62,0.62,1000,0.606
2014-03-10,0.62,0.62,0.62,0.62,1000,0.606
2014-03-07,0.63,0.63,0.63,0.63,000,0.615
2014-03-06,0.63,0.63,0.63,0.63,000,0.615
2014-03-05,0.63,0.63,0.63,0.63,000,0.615
2014-03-04,0.63,0.63,0.63,0.63,15000,0.615
2014-03-03,0.62,0.62,0.62,0.62,000,0.606
2014-02-28,0.62,0.62,0.62,0.62,000,0.606
2014-02-27,0.61,0.62,0.61,0.62,52100,0.606
2014-02-26,0.67,0.67,0.61,0.63,119500,0.615
2014-02-25,0.65,0.65,0.65,0.65,20000,0.635
2014-02-24,0.65,0.65,0.65,0.65,100000,0.635
2014-02-21,0.65,0.65,0.65,0.65,000,0.635
2014-02-20,0.65,0.65,0.65,0.65,10000,0.635
2014-02-19,0.63,0.63,0.63,0.63,000,0.615
2014-02-18,0.63,0.63,0.63,0.63,000,0.615
2014-02-17,0.66,0.66,0.63,0.63,10000,0.615
2014-02-14,0.72,0.72,0.72,0.72,000,0.703
2014-02-13,0.72,0.72,0.72,0.72,000,0.703
2014-02-12,0.72,0.72,0.72,0.72,000,0.703
2014-02-11,0.72,0.72,0.72,0.72,000,0.703
2014-02-10,0.72,0.72,0.72,0.72,000,0.703
2014-02-07,0.70,0.72,0.70,0.72,6000,0.703
2014-02-06,0.70,0.70,0.70,0.70,5000,0.684
2014-02-05,0.65,0.70,0.65,0.70,110600,0.684
2014-02-04,0.685,0.685,0.685,0.685,000,0.669
2014-02-03,0.685,0.685,0.685,0.685,000,0.669
2014-01-31,0.685,0.685,0.685,0.685,000,0.669
2014-01-30,0.685,0.685,0.685,0.685,000,0.669
2014-01-29,0.685,0.685,0.685,0.685,000,0.669
2014-01-28,0.685,0.685,0.685,0.685,000,0.669
2014-01-27,0.685,0.685,0.685,0.685,000,0.669
2014-01-24,0.685,0.685,0.685,0.685,000,0.669
2014-01-23,0.685,0.685,0.685,0.685,000,0.669
2014-01-22,0.685,0.685,0.685,0.685,000,0.669
2014-01-21,0.685,0.685,0.685,0.685,000,0.669
2014-01-20,0.685,0.685,0.685,0.685,000,0.669
2014-01-17,0.685,0.685,0.685,0.685,000,0.669
2014-01-16,0.685,0.685,0.685,0.685,000,0.669
2014-01-15,0.685,0.685,0.685,0.685,000,0.669
2014-01-14,0.68,0.685,0.68,0.685,6400,0.669
2014-01-13,0.685,0.685,0.685,0.685,000,0.669
2014-01-10,0.69,0.69,0.685,0.685,24000,0.669
2014-01-09,0.69,0.69,0.69,0.69,10000,0.674
2014-01-08,0.67,0.67,0.67,0.67,1500,0.655
2014-01-07,0.65,0.65,0.65,0.65,000,0.635
2014-01-06,0.65,0.65,0.65,0.65,000,0.635
2014-01-03,0.65,0.65,0.65,0.65,000,0.635
2014-01-02,0.65,0.65,0.65,0.65,000,0.635
2014-01-01,0.65,0.65,0.65,0.65,000,0.635
2013-12-31,0.65,0.65,0.65,0.65,000,0.635
2013-12-30,0.65,0.65,0.65,0.65,000,0.635
2013-12-27,0.65,0.65,0.65,0.65,000,0.635
2013-12-26,0.65,0.65,0.65,0.65,000,0.635
2013-12-25,0.65,0.65,0.65,0.65,000,0.635
2013-12-24,0.65,0.65,0.65,0.65,000,0.635
2013-12-23,0.65,0.65,0.65,0.65,000,0.635
2013-12-20,0.65,0.65,0.65,0.65,000,0.635
2013-12-19,0.65,0.65,0.65,0.65,000,0.635
2013-12-18,0.65,0.65,0.65,0.65,000,0.635
2013-12-17,0.65,0.65,0.65,0.65,000,0.635
2013-12-16,0.65,0.65,0.65,0.65,000,0.635
2013-12-13,0.65,0.65,0.65,0.65,000,0.635
2013-12-12,0.65,0.65,0.65,0.65,000,0.635
2013-12-11,0.65,0.65,0.65,0.65,000,0.635
2013-12-10,0.65,0.65,0.65,0.65,000,0.635
2013-12-09,0.65,0.65,0.65,0.65,000,0.635
2013-12-06,0.65,0.65,0.65,0.65,000,0.635
2013-12-05,0.65,0.65,0.65,0.65,000,0.635
2013-12-04,0.65,0.65,0.65,0.65,000,0.635
2013-12-03,0.65,0.65,0.65,0.65,000,0.635
2013-12-02,0.65,0.65,0.65,0.65,000,0.635
2013-11-29,0.65,0.65,0.65,0.65,000,0.635
2013-11-28,0.65,0.65,0.65,0.65,000,0.635
2013-11-27,0.65,0.65,0.65,0.65,000,0.635
2013-11-26,0.65,0.65,0.65,0.65,000,0.635
2013-11-25,0.65,0.65,0.65,0.65,000,0.635
2013-11-22,0.65,0.65,0.65,0.65,000,0.635
2013-11-21,0.65,0.65,0.65,0.65,000,0.635
2013-11-20,0.65,0.65,0.65,0.65,000,0.635
2013-11-19,0.65,0.65,0.65,0.65,000,0.635
2013-11-18,0.65,0.65,0.65,0.65,000,0.635
2013-11-15,0.65,0.65,0.65,0.65,50000,0.635
2013-11-14,0.57,0.57,0.57,0.57,000,0.557
2013-11-13,0.57,0.57,0.57,0.57,000,0.557
2013-11-12,0.57,0.57,0.57,0.57,000,0.557
2013-11-11,0.57,0.57,0.57,0.57,000,0.557
2013-11-08,0.57,0.57,0.57,0.57,000,0.557
2013-11-07,0.57,0.57,0.57,0.57,500,0.557
2013-11-06,0.65,0.65,0.65,0.65,000,0.635
2013-11-05,0.65,0.65,0.65,0.65,000,0.635
2013-11-04,0.65,0.65,0.65,0.65,35000,0.635
2013-11-01,0.57,0.57,0.57,0.57,000,0.557
2013-10-31,0.57,0.57,0.57,0.57,000,0.557
2013-10-30,0.57,0.57,0.57,0.57,1000,0.557
2013-10-29,0.50,0.50,0.50,0.50,000,0.488
2013-10-28,0.50,0.50,0.50,0.50,000,0.488
2013-10-25,0.50,0.50,0.50,0.50,000,0.488
2013-10-24,0.50,0.50,0.50,0.50,000,0.488
2013-10-23,0.50,0.50,0.50,0.50,000,0.488
2013-10-22,0.50,0.50,0.50,0.50,000,0.488
2013-10-21,0.50,0.50,0.50,0.50,000,0.488
2013-10-18,0.50,0.50,0.50,0.50,000,0.488
2013-10-17,0.50,0.50,0.50,0.50,000,0.488
2013-10-16,0.50,0.50,0.50,0.50,000,0.488
2013-10-15,0.50,0.50,0.50,0.50,000,0.488
2013-10-14,0.50,0.50,0.50,0.50,000,0.488
2013-10-11,0.50,0.50,0.50,0.50,000,0.488
2013-10-10,0.50,0.50,0.50,0.50,000,0.488
2013-10-09,0.50,0.50,0.50,0.50,000,0.488
2013-10-08,0.50,0.50,0.50,0.50,000,0.488
2013-10-07,0.50,0.50,0.50,0.50,25000,0.488
2013-10-04,0.45,0.45,0.45,0.45,000,0.44
2013-10-03,0.45,0.45,0.45,0.45,000,0.44
2013-10-02,0.45,0.45,0.45,0.45,000,0.44
2013-10-01,0.45,0.45,0.45,0.45,000,0.44
2013-09-30,0.45,0.45,0.45,0.45,000,0.44
2013-09-27,0.45,0.45,0.45,0.45,000,0.44
2013-09-26,0.45,0.45,0.45,0.45,000,0.44
2013-09-25,0.45,0.45,0.45,0.45,000,0.44
2013-09-24,0.45,0.45,0.45,0.45,000,0.44
2013-09-23,0.45,0.45,0.45,0.45,000,0.44
2013-09-20,0.45,0.45,0.45,0.45,000,0.44
2013-09-19,0.45,0.45,0.45,0.45,8000,0.44
2013-09-18,0.42,0.42,0.42,0.42,1000,0.41
2013-09-17,0.43,0.43,0.43,0.43,000,0.42
2013-09-16,0.43,0.43,0.43,0.43,000,0.42
2013-09-13,0.43,0.43,0.43,0.43,000,0.42
2013-09-12,0.43,0.43,0.43,0.43,000,0.42
2013-09-11,0.455,0.47,0.43,0.43,80700,0.42
2013-09-10,0.425,0.425,0.425,0.425,000,0.415
2013-09-09,0.425,0.425,0.425,0.425,000,0.415
2013-09-06,0.425,0.425,0.425,0.425,000,0.415
2013-09-05,0.425,0.425,0.425,0.425,000,0.415
2013-09-04,0.425,0.425,0.425,0.425,000,0.415
2013-09-03,0.425,0.425,0.425,0.425,000,0.415
2013-09-02,0.425,0.425,0.425,0.425,000,0.415
2013-08-30,0.425,0.425,0.425,0.425,000,0.415
2013-08-29,0.425,0.425,0.425,0.425,000,0.415
2013-08-28,0.425,0.425,0.425,0.425,000,0.415
2013-08-27,0.425,0.425,0.425,0.425,2900,0.415
2013-08-26,0.425,0.425,0.425,0.425,000,0.415
2013-08-23,0.425,0.425,0.425,0.425,000,0.415
2013-08-22,0.425,0.425,0.425,0.425,1000,0.415
2013-08-21,0.42,0.42,0.42,0.42,000,0.41
2013-08-20,0.42,0.42,0.42,0.42,000,0.41
2013-08-19,0.42,0.42,0.42,0.42,000,0.41
2013-08-16,0.42,0.42,0.42,0.42,000,0.41
2013-08-15,0.42,0.42,0.42,0.42,4200,0.41
2013-08-14,0.30,0.30,0.30,0.30,000,0.293
2013-08-13,0.30,0.30,0.30,0.30,000,0.293
2013-08-12,0.30,0.30,0.30,0.30,000,0.293
2013-08-09,0.30,0.30,0.30,0.30,1000,0.293
2013-08-08,0.30,0.30,0.30,0.30,000,0.293
2013-08-07,0.30,0.30,0.30,0.30,000,0.293
2013-08-06,0.30,0.30,0.30,0.30,000,0.293
2013-08-05,0.30,0.30,0.30,0.30,25000,0.293
2013-08-02,0.325,0.325,0.325,0.325,000,0.318
2013-08-01,0.325,0.325,0.325,0.325,000,0.318
2013-07-31,0.325,0.325,0.325,0.325,14000,0.318
2013-07-30,0.25,0.25,0.25,0.25,000,0.244
2013-07-29,0.25,0.25,0.25,0.25,000,0.244
2013-07-26,0.25,0.25,0.25,0.25,000,0.244
2013-07-25,0.25,0.25,0.25,0.25,000,0.244
2013-07-24,0.25,0.25,0.25,0.25,000,0.244
2013-07-23,0.25,0.25,0.25,0.25,000,0.244
2013-07-22,0.25,0.25,0.25,0.25,000,0.244
2013-07-19,0.25,0.25,0.25,0.25,000,0.244
2013-07-18,0.25,0.25,0.25,0.25,000,0.244
2013-07-17,0.25,0.25,0.25,0.25,000,0.244
2013-07-16,0.25,0.25,0.25,0.25,000,0.244
2013-07-15,0.25,0.25,0.25,0.25,000,0.244
2013-07-12,0.25,0.25,0.25,0.25,000,0.244
2013-07-11,0.25,0.25,0.25,0.25,000,0.244
2013-07-10,0.25,0.25,0.25,0.25,000,0.244
2013-07-09,0.25,0.25,0.25,0.25,000,0.244
2013-07-08,0.25,0.25,0.25,0.25,000,0.244
2013-07-05,0.25,0.25,0.25,0.25,000,0.244
2013-07-04,0.25,0.25,0.25,0.25,30000,0.244
2013-07-03,0.25,0.25,0.25,0.25,000,0.244
2013-07-02,0.25,0.25,0.25,0.25,000,0.244
2013-07-01,0.25,0.25,0.25,0.25,2500,0.244
2013-06-28,0.25,0.25,0.25,0.25,000,0.244
2013-06-27,0.25,0.25,0.25,0.25,000,0.244
2013-06-26,0.25,0.25,0.25,0.25,000,0.244
2013-06-25,0.25,0.25,0.25,0.25,12100,0.244
2013-06-24,0.35,0.35,0.35,0.35,000,0.342
2013-06-21,0.35,0.35,0.35,0.35,000,0.342
2013-06-20,0.35,0.35,0.35,0.35,000,0.342
2013-06-19,0.36,0.36,0.35,0.35,2500,0.342
2013-06-18,0.36,0.36,0.36,0.36,000,0.352
2013-06-17,0.36,0.36,0.36,0.36,97900,0.352
2013-06-14,0.36,0.36,0.36,0.36,000,0.352
2013-06-13,0.36,0.36,0.36,0.36,1000,0.352
2013-06-12,0.35,0.35,0.35,0.35,000,0.342
2013-06-11,0.35,0.35,0.35,0.35,000,0.342
2013-06-10,0.35,0.35,0.35,0.35,000,0.342
2013-06-07,0.35,0.35,0.35,0.35,000,0.342
2013-06-06,0.35,0.35,0.35,0.35,000,0.342
2013-06-05,0.35,0.35,0.35,0.35,000,0.342
2013-06-04,0.35,0.35,0.35,0.35,2000,0.342
2013-06-03,0.35,0.35,0.35,0.35,000,0.342
2013-05-31,0.35,0.35,0.35,0.35,000,0.342
2013-05-30,0.35,0.35,0.35,0.35,000,0.342
2013-05-29,0.35,0.35,0.35,0.35,000,0.342
2013-05-28,0.35,0.35,0.35,0.35,000,0.342
2013-05-27,0.35,0.35,0.35,0.35,000,0.342
2013-05-24,0.35,0.35,0.35,0.35,3000,0.342
2013-05-23,0.35,0.35,0.35,0.35,000,0.342
2013-05-22,0.35,0.35,0.35,0.35,000,0.342
2013-05-21,0.35,0.35,0.35,0.35,000,0.342
2013-05-20,0.35,0.35,0.35,0.35,000,0.342
2013-05-17,0.35,0.35,0.35,0.35,7500,0.342
2013-05-16,0.35,0.35,0.35,0.35,000,0.342
2013-05-15,0.35,0.35,0.35,0.35,1000,0.342
2013-05-14,0.355,0.355,0.355,0.355,000,0.347
2013-05-13,0.355,0.355,0.355,0.355,000,0.347
2013-05-10,0.355,0.355,0.355,0.355,000,0.347
2013-05-09,0.355,0.355,0.355,0.355,000,0.347
2013-05-08,0.355,0.355,0.355,0.355,000,0.347
2013-05-07,0.355,0.355,0.355,0.355,000,0.347
2013-05-06,0.355,0.355,0.355,0.355,000,0.347
2013-05-03,0.355,0.355,0.355,0.355,000,0.347
2013-05-02,0.355,0.355,0.355,0.355,000,0.347
2013-05-01,0.355,0.355,0.355,0.355,000,0.347
2013-04-30,0.395,0.395,0.355,0.355,4600,0.347
2013-04-29,0.35,0.35,0.35,0.35,2500,0.342
2013-04-26,0.35,0.35,0.35,0.35,000,0.342
2013-04-25,0.35,0.35,0.35,0.35,000,0.342
2013-04-24,0.35,0.35,0.35,0.35,2000,0.342
2013-04-23,0.35,0.35,0.35,0.35,000,0.342
2013-04-22,0.35,0.35,0.35,0.35,1000,0.342
2013-04-19,0.35,0.35,0.35,0.35,45000,0.342
2013-04-18,0.35,0.35,0.35,0.35,7500,0.342
2013-04-17,0.35,0.35,0.35,0.35,10000,0.342
2013-04-16,0.335,0.335,0.335,0.335,000,0.327
2013-04-15,0.335,0.335,0.335,0.335,000,0.327
2013-04-12,0.335,0.335,0.335,0.335,000,0.327
2013-04-11,0.335,0.335,0.335,0.335,000,0.327
2013-04-10,0.335,0.335,0.335,0.335,000,0.327
2013-04-09,0.335,0.335,0.335,0.335,000,0.327
2013-04-08,0.335,0.335,0.335,0.335,000,0.327
2013-04-05,0.335,0.335,0.335,0.335,000,0.327
2013-04-04,0.35,0.35,0.335,0.335,2500,0.327
2013-04-03,0.35,0.35,0.35,0.35,4500,0.342
2013-04-02,0.325,0.325,0.325,0.325,000,0.318
2013-04-01,0.325,0.325,0.325,0.325,000,0.318
2013-03-29,0.325,0.325,0.325,0.325,000,0.318
2013-03-28,0.325,0.325,0.325,0.325,2500,0.318
2013-03-27,0.325,0.325,0.325,0.325,000,0.318
2013-03-26,0.325,0.325,0.325,0.325,5000,0.318
2013-03-25,0.325,0.325,0.325,0.325,000,0.318
2013-03-22,0.325,0.325,0.325,0.325,1000,0.318
2013-03-21,0.32,0.32,0.32,0.32,000,0.313
2013-03-20,0.32,0.32,0.32,0.32,100,0.313
2013-03-19,0.35,0.35,0.35,0.35,000,0.342
2013-03-18,0.35,0.35,0.35,0.35,000,0.342
2013-03-15,0.35,0.35,0.35,0.35,000,0.342
2013-03-14,0.35,0.35,0.35,0.35,000,0.342
2013-03-13,0.35,0.35,0.35,0.35,000,0.342
2013-03-12,0.35,0.35,0.35,0.35,000,0.342
2013-03-11,0.35,0.35,0.35,0.35,000,0.342
2013-03-08,0.35,0.35,0.35,0.35,000,0.342
2013-03-07,0.35,0.35,0.35,0.35,000,0.342
2013-03-06,0.35,0.35,0.35,0.35,000,0.342
2013-03-05,0.35,0.35,0.35,0.35,000,0.342
2013-03-04,0.35,0.35,0.35,0.35,000,0.342
2013-03-01,0.35,0.35,0.35,0.35,000,0.342
2013-02-28,0.35,0.35,0.35,0.35,000,0.342
2013-02-27,0.35,0.35,0.35,0.35,000,0.342
2013-02-26,0.35,0.35,0.35,0.35,000,0.342
2013-02-25,0.35,0.35,0.35,0.35,000,0.342
2013-02-22,0.35,0.35,0.35,0.35,000,0.342
2013-02-21,0.35,0.35,0.35,0.35,000,0.342
2013-02-20,0.35,0.35,0.35,0.35,000,0.342
2013-02-19,0.35,0.35,0.35,0.35,000,0.342
2013-02-18,0.35,0.35,0.35,0.35,000,0.342
2013-02-15,0.35,0.35,0.35,0.35,000,0.342
2013-02-14,0.30,0.35,0.30,0.35,467000,0.342
2013-02-13,0.265,0.265,0.265,0.265,000,0.259
2013-02-12,0.265,0.265,0.265,0.265,000,0.259
2013-02-11,0.265,0.265,0.265,0.265,000,0.259
2013-02-08,0.265,0.265,0.265,0.265,000,0.259
2013-02-07,0.265,0.265,0.265,0.265,000,0.259
2013-02-06,0.265,0.265,0.265,0.265,000,0.259
2013-02-05,0.265,0.265,0.265,0.265,000,0.259
2013-02-04,0.265,0.265,0.265,0.265,900,0.259
2013-02-01,0.25,0.25,0.25,0.25,000,0.244
2013-01-31,0.25,0.25,0.25,0.25,000,0.244
2013-01-30,0.25,0.25,0.25,0.25,000,0.244
2013-01-29,0.25,0.25,0.25,0.25,000,0.244
2013-01-28,0.25,0.25,0.25,0.25,000,0.244
2013-01-25,0.25,0.25,0.25,0.25,000,0.244
2013-01-24,0.25,0.25,0.25,0.25,000,0.244
2013-01-22,0.25,0.25,0.25,0.25,000,0.244
2013-01-21,0.25,0.25,0.25,0.25,000,0.244
2013-01-18,0.25,0.25,0.25,0.25,000,0.244
2013-01-17,0.25,0.25,0.25,0.25,1000,0.244
2013-01-16,0.25,0.25,0.25,0.25,000,0.244
2013-01-15,0.25,0.25,0.25,0.25,000,0.244
2013-01-14,0.25,0.25,0.25,0.25,000,0.244
2013-01-11,0.25,0.25,0.25,0.25,000,0.244
2013-01-10,0.25,0.25,0.25,0.25,000,0.244
2013-01-09,0.25,0.25,0.25,0.25,000,0.244
2013-01-08,0.25,0.25,0.25,0.25,000,0.244
2013-01-07,0.25,0.25,0.25,0.25,66600,0.244
2013-01-04,0.24,0.24,0.24,0.24,000,0.234
2013-01-03,0.24,0.24,0.24,0.24,000,0.234
2013-01-02,0.24,0.24,0.24,0.24,000,0.234
2013-01-01,0.24,0.24,0.24,0.24,000,0.234
2012-12-31,0.24,0.24,0.24,0.24,000,0.234
2012-12-28,0.24,0.24,0.24,0.24,000,0.234
2012-12-27,0.24,0.24,0.24,0.24,000,0.234
2012-12-26,0.24,0.24,0.24,0.24,000,0.234
2012-12-25,0.24,0.24,0.24,0.24,000,0.234
2012-12-24,0.24,0.24,0.24,0.24,000,0.234
2012-12-21,0.24,0.24,0.24,0.24,000,0.234
2012-12-20,0.24,0.24,0.24,0.24,000,0.234
2012-12-19,0.24,0.24,0.24,0.24,000,0.234
2012-12-18,0.24,0.24,0.24,0.24,000,0.234
2012-12-17,0.24,0.24,0.24,0.24,000,0.234
2012-12-14,0.24,0.24,0.24,0.24,000,0.234
2012-12-13,0.24,0.24,0.24,0.24,000,0.234
2012-12-12,0.24,0.24,0.24,0.24,000,0.234
2012-12-11,0.24,0.24,0.24,0.24,000,0.234
2012-12-10,0.24,0.24,0.24,0.24,1000,0.234
2012-12-07,0.29,0.29,0.29,0.29,000,0.283
2012-12-06,0.29,0.29,0.29,0.29,000,0.283
2012-12-05,0.29,0.29,0.29,0.29,000,0.283
2012-12-04,0.29,0.29,0.29,0.29,000,0.283
2012-12-03,0.29,0.29,0.29,0.29,000,0.283
2012-11-30,0.29,0.29,0.29,0.29,000,0.283
2012-11-29,0.29,0.29,0.29,0.29,000,0.283
2012-11-28,0.29,0.29,0.29,0.29,000,0.283
2012-11-27,0.29,0.29,0.29,0.29,500,0.283
2012-11-26,0.29,0.29,0.29,0.29,000,0.283
2012-11-23,0.29,0.29,0.29,0.29,000,0.283
2012-11-22,0.29,0.29,0.29,0.29,000,0.283
2012-11-21,0.29,0.29,0.29,0.29,000,0.283
2012-11-20,0.29,0.29,0.29,0.29,000,0.283
2012-11-19,0.29,0.29,0.29,0.29,000,0.283
2012-11-16,0.29,0.29,0.29,0.29,000,0.283
2012-11-15,0.29,0.29,0.29,0.29,000,0.283
2012-11-14,0.29,0.29,0.29,0.29,000,0.283
2012-11-13,0.29,0.29,0.29,0.29,000,0.283
2012-11-12,0.29,0.29,0.29,0.29,000,0.283
2012-11-09,0.29,0.29,0.29,0.29,000,0.283
2012-11-08,0.29,0.29,0.29,0.29,000,0.283
2012-11-07,0.29,0.29,0.29,0.29,000,0.283
2012-11-06,0.29,0.29,0.29,0.29,000,0.283
2012-11-05,0.29,0.29,0.29,0.29,000,0.283
2012-11-02,0.29,0.29,0.29,0.29,000,0.283
2012-11-01,0.29,0.29,0.29,0.29,000,0.283
2012-10-31,0.29,0.29,0.29,0.29,000,0.283
2012-10-30,0.29,0.29,0.29,0.29,000,0.283
2012-10-29,0.29,0.29,0.29,0.29,000,0.283
2012-10-26,0.29,0.29,0.29,0.29,000,0.283
2012-10-25,0.29,0.29,0.29,0.29,000,0.283
2012-10-24,0.29,0.29,0.29,0.29,000,0.283
2012-10-23,0.29,0.29,0.29,0.29,2500,0.283
2012-10-22,0.29,0.29,0.29,0.29,000,0.283
2012-10-19,0.29,0.29,0.29,0.29,000,0.283
2012-10-18,0.29,0.29,0.29,0.29,5000,0.283
2012-10-17,0.25,0.25,0.25,0.25,000,0.244
2012-10-16,0.25,0.25,0.25,0.25,000,0.244
2012-10-15,0.25,0.25,0.25,0.25,000,0.244
2012-10-12,0.25,0.25,0.25,0.25,000,0.244
2012-10-11,0.25,0.25,0.25,0.25,000,0.244
2012-10-10,0.25,0.25,0.25,0.25,000,0.244
2012-10-09,0.25,0.25,0.25,0.25,000,0.244
2012-10-08,0.25,0.25,0.25,0.25,000,0.244
2012-10-05,0.25,0.25,0.25,0.25,000,0.244
2012-10-04,0.25,0.25,0.25,0.25,000,0.244
2012-10-03,0.25,0.25,0.25,0.25,000,0.244
2012-10-02,0.25,0.25,0.25,0.25,000,0.244
2012-10-01,0.25,0.25,0.25,0.25,000,0.244
2012-09-28,0.25,0.25,0.25,0.25,000,0.244
2012-09-27,0.25,0.25,0.25,0.25,000,0.244
2012-09-26,0.25,0.25,0.25,0.25,000,0.244
2012-09-25,0.25,0.25,0.25,0.25,2200,0.244
2012-09-24,0.25,0.25,0.25,0.25,000,0.244
2012-09-21,0.25,0.25,0.25,0.25,3500,0.244
2012-09-20,0.25,0.25,0.25,0.25,000,0.244
2012-09-19,0.25,0.25,0.25,0.25,000,0.244
2012-09-18,0.25,0.25,0.25,0.25,000,0.244
2012-09-17,0.25,0.25,0.25,0.25,000,0.244
2012-09-14,0.25,0.25,0.25,0.25,1000,0.244
2012-09-13,0.25,0.25,0.25,0.25,000,0.244
2012-09-12,0.245,0.245,0.245,0.25,2100,0.244
2012-09-11,0.22,0.22,0.22,0.22,7100,0.215
2012-09-10,0.215,0.215,0.215,0.215,000,0.21
2012-09-07,0.215,0.215,0.215,0.215,8000,0.21
2012-09-06,0.215,0.215,0.215,0.215,000,0.21
2012-09-05,0.215,0.215,0.215,0.215,000,0.21
2012-09-04,0.215,0.215,0.215,0.215,000,0.21
2012-09-03,0.215,0.215,0.215,0.215,000,0.21
2012-08-31,0.215,0.215,0.215,0.215,2000,0.21
2012-08-30,0.20,0.20,0.20,0.20,000,0.195
2012-08-29,0.20,0.20,0.20,0.20,000,0.195
2012-08-28,0.20,0.20,0.20,0.20,000,0.195
2012-08-27,0.20,0.20,0.20,0.20,000,0.195
2012-08-24,0.20,0.20,0.20,0.20,000,0.195
2012-08-23,0.20,0.20,0.20,0.20,000,0.195
2012-08-22,0.20,0.20,0.20,0.20,000,0.195
2012-08-21,0.20,0.20,0.20,0.20,000,0.195
2012-08-20,0.20,0.20,0.20,0.20,000,0.195
2012-08-17,0.20,0.20,0.20,0.20,000,0.195
2012-08-16,0.20,0.20,0.20,0.20,000,0.195
2012-08-15,0.20,0.20,0.20,0.20,000,0.195
2012-08-14,0.20,0.20,0.20,0.20,000,0.195
2012-08-13,0.20,0.20,0.20,0.20,000,0.195
2012-08-10,0.20,0.20,0.20,0.20,000,0.195
2012-08-09,0.20,0.20,0.20,0.20,000,0.195
2012-08-08,0.20,0.20,0.20,0.20,000,0.195
2012-08-07,0.20,0.20,0.20,0.20,000,0.195
2012-08-06,0.20,0.20,0.20,0.20,000,0.195
2012-08-03,0.20,0.20,0.20,0.20,000,0.195
2012-08-02,0.20,0.20,0.20,0.20,000,0.195
2012-08-01,0.20,0.20,0.20,0.20,000,0.195
2012-07-31,0.20,0.20,0.20,0.20,000,0.195
2012-07-30,0.20,0.20,0.20,0.20,2200,0.195
2012-07-27,0.20,0.20,0.20,0.20,000,0.195
2012-07-26,0.20,0.20,0.20,0.20,000,0.195
2012-07-25,0.20,0.20,0.20,0.20,000,0.195
2012-07-24,0.20,0.20,0.20,0.20,000,0.195
2012-07-23,0.20,0.20,0.20,0.20,000,0.195
2012-07-20,0.20,0.20,0.20,0.20,000,0.195
2012-07-19,0.20,0.20,0.20,0.20,000,0.195
2012-07-18,0.20,0.20,0.20,0.20,000,0.195
2012-07-17,0.20,0.20,0.20,0.20,000,0.195
2012-07-16,0.20,0.20,0.20,0.20,000,0.195
2012-07-13,0.20,0.20,0.20,0.20,000,0.195
2012-07-12,0.20,0.20,0.20,0.20,000,0.195
2012-07-11,0.20,0.20,0.20,0.20,000,0.195
2012-07-10,0.20,0.20,0.20,0.20,000,0.195
2012-07-09,0.20,0.20,0.20,0.20,000,0.195
2012-07-06,0.20,0.20,0.20,0.20,1000,0.195
2012-07-05,0.20,0.20,0.20,0.20,000,0.195
2012-07-04,0.20,0.20,0.20,0.20,1500,0.195
2012-07-03,0.20,0.20,0.20,0.20,000,0.195
2012-07-02,0.20,0.20,0.20,0.20,000,0.195
2012-06-29,0.20,0.20,0.20,0.20,000,0.195
2012-06-28,0.20,0.20,0.20,0.20,000,0.195
2012-06-27,0.20,0.20,0.20,0.20,000,0.195
2012-06-26,0.20,0.20,0.20,0.20,000,0.195
2012-06-25,0.20,0.20,0.20,0.20,000,0.195
2012-06-22,0.20,0.20,0.20,0.20,000,0.195
2012-06-21,0.20,0.20,0.20,0.20,1000,0.195
2012-06-20,0.215,0.215,0.215,0.215,000,0.21
2012-06-19,0.215,0.215,0.215,0.215,000,0.21
2012-06-18,0.215,0.215,0.215,0.215,2000,0.21
2012-06-15,0.215,0.215,0.215,0.215,000,0.21
2012-06-14,0.215,0.215,0.215,0.215,000,0.21
2012-06-13,0.215,0.215,0.215,0.215,2500,0.21
2012-06-12,0.215,0.215,0.215,0.215,1000,0.21
2012-06-11,0.215,0.215,0.215,0.215,000,0.21
2012-06-08,0.215,0.215,0.215,0.215,000,0.21
2012-06-07,0.215,0.215,0.215,0.215,000,0.21
2012-06-06,0.215,0.215,0.215,0.215,000,0.21
2012-06-05,0.215,0.215,0.215,0.215,000,0.21
2012-06-04,0.215,0.215,0.215,0.215,000,0.21
2012-06-01,0.215,0.215,0.215,0.215,1000,0.21
2012-05-31,0.215,0.215,0.215,0.215,000,0.21
2012-05-30,0.215,0.215,0.215,0.215,000,0.21
2012-05-29,0.215,0.215,0.215,0.215,000,0.21
2012-05-28,0.215,0.215,0.215,0.215,666600,0.21
2012-05-25,0.21,0.21,0.21,0.21,000,0.205
2012-05-24,0.21,0.21,0.21,0.21,3400,0.205
2012-05-23,0.21,0.21,0.21,0.21,000,0.205
2012-05-22,0.21,0.21,0.21,0.21,000,0.205
2012-05-21,0.21,0.21,0.21,0.21,000,0.205
2012-05-18,0.21,0.21,0.21,0.21,000,0.205
2012-05-17,0.21,0.21,0.21,0.21,2500,0.205
2012-05-16,0.205,0.205,0.205,0.205,000,0.20
2012-05-15,0.205,0.205,0.205,0.205,000,0.20
2012-05-14,0.205,0.205,0.205,0.205,000,0.20
2012-05-11,0.205,0.205,0.205,0.205,000,0.20
2012-05-10,0.205,0.205,0.205,0.205,000,0.20
2012-05-09,0.205,0.205,0.205,0.205,000,0.20
2012-05-08,0.205,0.205,0.205,0.205,000,0.20
2012-05-07,0.205,0.205,0.205,0.205,000,0.20
2012-05-04,0.205,0.205,0.205,0.205,000,0.20
2012-05-03,0.205,0.205,0.205,0.205,000,0.20
2012-05-02,0.205,0.205,0.205,0.205,000,0.20
2012-05-01,0.21,0.21,0.205,0.205,6300,0.20
2012-04-30,0.21,0.21,0.21,0.21,000,0.205
2012-04-27,0.21,0.21,0.21,0.21,000,0.205
2012-04-26,0.21,0.21,0.21,0.21,000,0.205
2012-04-25,0.21,0.21,0.21,0.21,000,0.205
2012-04-24,0.21,0.21,0.21,0.21,000,0.205
2012-04-23,0.21,0.21,0.21,0.21,000,0.205
2012-04-20,0.21,0.21,0.21,0.21,2100,0.205
2012-04-19,0.22,0.22,0.22,0.22,000,0.215
2012-04-18,0.22,0.22,0.22,0.22,000,0.215
2012-04-17,0.22,0.22,0.22,0.22,000,0.215
2012-04-16,0.22,0.22,0.22,0.22,2500,0.215
2012-04-13,0.20,0.20,0.20,0.20,000,0.195
2012-04-12,0.20,0.20,0.20,0.20,000,0.195
2012-04-11,0.20,0.20,0.20,0.20,000,0.195
2012-04-10,0.20,0.20,0.20,0.20,000,0.195
2012-04-09,0.20,0.20,0.20,0.20,000,0.195
2012-04-06,0.20,0.20,0.20,0.20,000,0.195
2012-04-05,0.20,0.20,0.20,0.20,1000,0.195
2012-04-04,0.25,0.25,0.25,0.25,000,0.244
2012-04-03,0.25,0.25,0.25,0.25,000,0.244
2012-04-02,0.25,0.25,0.25,0.25,16100,0.244
2012-03-30,0.30,0.30,0.30,0.30,2000,0.293
2012-03-29,0.50,0.50,0.50,0.50,000,0.488
2012-03-28,0.50,0.50,0.50,0.50,000,0.488
2012-03-27,0.50,0.50,0.50,0.50,000,0.488
2012-03-26,0.50,0.50,0.50,0.50,000,0.488
2012-03-23,0.50,0.50,0.50,0.50,000,0.488
2012-03-22,0.50,0.50,0.50,0.50,000,0.488
2012-03-21,0.50,0.50,0.50,0.50,000,0.488
2012-03-20,0.50,0.50,0.50,0.50,000,0.488
2012-03-19,0.50,0.50,0.50,0.50,000,0.488
2012-03-16,0.50,0.50,0.50,0.50,000,0.488
2012-03-15,0.50,0.50,0.50,0.50,000,0.488
2012-03-14,0.50,0.50,0.50,0.50,000,0.488
2012-03-13,0.50,0.50,0.50,0.50,000,0.488
2012-03-12,0.50,0.50,0.50,0.50,000,0.488
2012-03-09,0.50,0.50,0.50,0.50,000,0.488
2012-03-08,0.50,0.50,0.50,0.50,000,0.488
2012-03-07,0.50,0.50,0.50,0.50,000,0.488
2012-03-06,0.50,0.50,0.50,0.50,000,0.488
2012-03-05,0.50,0.50,0.50,0.50,000,0.488
2012-03-02,0.50,0.50,0.50,0.50,000,0.488
2012-03-01,0.50,0.50,0.50,0.50,000,0.488
2012-02-29,0.50,0.50,0.50,0.50,000,0.488
2012-02-28,0.50,0.50,0.50,0.50,000,0.488
2012-02-27,0.50,0.50,0.50,0.50,000,0.488
2012-02-24,0.50,0.50,0.50,0.50,000,0.488
2012-02-23,0.50,0.50,0.50,0.50,000,0.488
2012-02-22,0.50,0.50,0.50,0.50,000,0.488
2012-02-21,0.50,0.50,0.50,0.50,000,0.488
2012-02-20,0.50,0.50,0.50,0.50,000,0.488
2012-02-17,0.50,0.50,0.50,0.50,1500,0.488
2012-02-16,0.50,0.50,0.50,0.50,000,0.488
2012-02-15,0.50,0.50,0.50,0.50,000,0.488
2012-02-14,0.50,0.50,0.50,0.50,000,0.488
2012-02-13,0.50,0.50,0.50,0.50,000,0.488
2012-02-10,0.50,0.50,0.50,0.50,000,0.488
2012-02-09,0.50,0.50,0.50,0.50,000,0.488
2012-02-08,0.50,0.50,0.50,0.50,000,0.488
2012-02-07,0.50,0.50,0.50,0.50,000,0.488
2012-02-06,0.50,0.50,0.50,0.50,000,0.488
2012-02-03,0.50,0.50,0.50,0.50,000,0.488
2012-02-02,0.50,0.50,0.50,0.50,000,0.488
2012-02-01,0.50,0.50,0.50,0.50,000,0.488
2012-01-31,0.50,0.50,0.50,0.50,000,0.488
2012-01-27,0.50,0.50,0.50,0.50,000,0.488
2012-01-26,0.50,0.50,0.50,0.50,000,0.488
2012-01-25,0.50,0.50,0.50,0.50,000,0.488
2012-01-24,0.50,0.50,0.50,0.50,000,0.488
2012-01-23,0.50,0.50,0.50,0.50,000,0.488
2012-01-20,0.50,0.50,0.50,0.50,000,0.488
2012-01-19,0.50,0.50,0.50,0.50,000,0.488
2012-01-18,0.50,0.50,0.50,0.50,2500,0.488
2012-01-17,0.50,0.50,0.50,0.50,000,0.488
2012-01-16,0.50,0.50,0.50,0.50,000,0.488
2012-01-13,0.50,0.50,0.50,0.50,000,0.488
2012-01-12,0.50,0.50,0.50,0.50,000,0.488
2012-01-11,0.50,0.50,0.50,0.50,000,0.488
2012-01-10,0.50,0.50,0.50,0.50,000,0.488
2012-01-09,0.50,0.50,0.50,0.50,000,0.488
2012-01-06,0.50,0.50,0.50,0.50,000,0.488
2012-01-05,0.50,0.50,0.50,0.50,000,0.488
2012-01-04,0.50,0.50,0.50,0.50,000,0.488
2012-01-03,0.50,0.50,0.50,0.50,000,0.488
2012-01-02,0.50,0.50,0.50,0.50,000,0.488
2011-12-30,0.50,0.50,0.50,0.50,000,0.488
2011-12-29,0.50,0.50,0.50,0.50,000,0.488
2011-12-28,0.50,0.50,0.50,0.50,000,0.488
2011-12-27,0.50,0.50,0.50,0.50,000,0.488
2011-12-26,0.50,0.50,0.50,0.50,000,0.488
2011-12-23,0.50,0.50,0.50,0.50,000,0.488
2011-12-22,0.50,0.50,0.50,0.50,000,0.488
2011-12-21,0.50,0.50,0.50,0.50,1000,0.488
2011-12-20,0.60,0.60,0.60,0.60,000,0.586
2011-12-19,0.60,0.60,0.60,0.60,000,0.586
2011-12-16,0.60,0.60,0.60,0.60,000,0.586
2011-12-15,0.60,0.60,0.60,0.60,000,0.586
2011-12-14,0.60,0.60,0.60,0.60,000,0.586
2011-12-13,0.60,0.60,0.60,0.60,000,0.586
2011-12-12,0.60,0.60,0.60,0.60,000,0.586
2011-12-09,0.60,0.60,0.60,0.60,4000,0.586
2011-12-08,0.70,0.70,0.70,0.70,000,0.684
2011-12-07,0.70,0.70,0.70,0.70,000,0.684
2011-12-06,0.70,0.70,0.70,0.70,000,0.684
2011-12-05,0.70,0.70,0.70,0.70,000,0.684
2011-12-02,0.70,0.70,0.70,0.70,000,0.684
2011-12-01,0.70,0.70,0.70,0.70,000,0.684
2011-11-30,0.68,0.70,0.68,0.70,10000,0.684
2011-11-29,0.85,0.85,0.85,0.85,000,0.83
2011-11-28,0.85,0.85,0.85,0.85,000,0.83
2011-11-25,0.85,0.85,0.85,0.85,000,0.83
2011-11-24,0.85,0.85,0.85,0.85,000,0.83
2011-11-23,0.85,0.85,0.85,0.85,000,0.83
2011-11-22,0.85,0.85,0.85,0.85,000,0.83
2011-11-21,0.85,0.85,0.85,0.85,000,0.83
2011-11-18,0.85,0.85,0.85,0.85,000,0.83
2011-11-17,0.85,0.85,0.85,0.85,000,0.83
2011-08-09,0.85,0.85,0.85,0.85,1400,0.83
2011-08-02,0.85,0.85,0.85,0.85,2500,0.83
2011-07-27,0.85,0.85,0.85,0.85,1000,0.83
2011-06-23,0.82,0.82,0.82,0.82,1000,0.801
2011-06-20,0.85,0.85,0.82,0.82,5100,0.801
2011-06-15,0.85,0.85,0.85,0.85,7000,0.83
2011-06-10,1.00,1.00,0.90,0.90,2600,0.879
2011-06-09,0.95,0.95,0.95,0.95,7500,0.928
2011-06-08,1.00,1.00,1.00,1.00,000,0.977
2011-06-07,1.00,1.00,1.00,1.00,39400,0.977
2011-06-01,1.00,1.00,1.00,1.00,2200,0.977
2011-05-17,1.03,1.03,1.00,1.00,4000,0.977
2011-05-16,1.025,1.025,1.025,1.025,2000,1.001
2011-05-12,1.00,1.00,1.00,1.00,1000,0.977
2011-05-05,1.00,1.00,1.00,1.00,2500,0.977
2011-05-04,1.00,1.00,1.00,1.00,2500,0.977
2011-04-20,1.15,1.15,1.15,1.15,2500,1.124
2011-04-18,1.15,1.15,1.15,1.15,1000,1.124
2011-04-13,1.15,1.15,1.15,1.15,2500,1.124
2011-04-11,1.15,1.15,1.15,1.15,6000,1.124
2011-04-08,1.20,1.20,1.20,1.20,20600,1.172
2011-04-05,0.90,0.90,0.90,0.90,3000,0.879
2011-02-22,1.00,1.00,0.90,0.90,1000,0.879
2011-02-16,1.02,1.02,1.00,1.00,7700,0.977
2011-02-14,1.00,1.00,1.00,1.00,5000,0.977
2011-02-11,1.01,1.01,1.01,1.01,5000,0.987
2010-12-22,1.25,1.25,1.10,1.10,7500,1.075
2010-12-21,1.25,1.25,1.25,1.25,2500,1.221
2010-12-20,1.30,1.30,1.25,1.25,4800,1.221
2010-12-06,1.15,1.15,1.15,1.15,1000,1.124
2010-11-26,1.15,1.15,1.15,1.15,1000,1.124
2010-11-23,1.25,1.25,1.12,1.12,4000,1.094
2010-11-18,1.30,1.30,1.30,1.30,2000,1.27
2010-11-02,1.30,1.35,1.30,1.35,18300,1.319
2010-10-18,1.20,1.20,1.10,1.10,4000,1.075
2010-10-14,1.15,1.15,1.15,1.15,700,1.124
2010-10-12,1.10,1.10,1.10,1.10,500,1.075
2010-10-06,1.10,1.10,1.10,1.10,2100,1.075
2010-10-04,1.40,1.40,1.40,1.40,400,1.368
2010-09-23,1.40,1.40,1.40,1.40,1000,1.368
2010-09-22,1.50,1.50,1.50,1.50,1500,1.465
2010-09-20,1.55,1.55,1.55,1.55,4000,1.514
2010-08-30,1.60,1.60,1.60,1.60,500,1.563
2010-08-25,1.60,1.60,1.60,1.60,2000,1.563
2010-08-17,1.60,1.60,1.60,1.60,1000,1.563
2010-08-12,1.56,1.56,1.56,1.56,1600,1.524
2010-08-10,1.56,1.56,1.56,1.56,1000,1.524
2010-08-06,1.56,1.56,1.56,1.56,1000,1.524
2010-08-03,1.56,1.56,1.56,1.56,500,1.524
2010-07-23,1.75,1.75,1.75,1.75,2000,1.71
2010-07-20,1.75,1.75,1.75,1.75,5700,1.71
2010-07-19,1.75,1.89,1.75,1.89,4500,1.846
2010-07-13,2.00,2.00,2.00,2.00,300,1.954
