Date,Open,High,Low,Close,Volume,Adj Close
2017-01-10,3.55,3.59,3.54,3.55,632600,3.55
2017-01-09,3.53,3.58,3.49,3.57,252300,3.57
2017-01-06,3.45,3.49,3.41,3.48,286800,3.48
2017-01-05,3.51,3.52,3.38,3.44,305100,3.44
2017-01-04,3.54,3.54,3.48,3.50,107000,3.50
2017-01-03,3.55,3.58,3.48,3.49,270900,3.49
2017-01-02,3.50,3.50,3.50,3.50,000,3.50
2016-12-30,3.45,3.53,3.45,3.50,200900,3.50
2016-12-29,3.49,3.50,3.43,3.45,251200,3.45
2016-12-28,3.39,3.51,3.39,3.50,405500,3.50
2016-12-27,3.40,3.40,3.40,3.40,000,3.40
2016-12-26,3.40,3.40,3.40,3.40,000,3.40
2016-12-23,3.33,3.42,3.32,3.40,200900,3.40
2016-12-22,3.28,3.33,3.265,3.33,495900,3.33
2016-12-21,3.23,3.29,3.20,3.28,177200,3.28
2016-12-20,3.23,3.24,3.19,3.20,288100,3.20
2016-12-19,3.23,3.26,3.20,3.23,1080500,3.23
2016-12-16,3.17,3.235,3.17,3.22,637100,3.22
2016-12-15,3.15,3.185,3.15,3.16,144400,3.16
2016-12-14,3.14,3.18,3.13,3.15,588500,3.15
2016-12-13,3.20,3.22,3.08,3.14,1636100,3.14
2016-12-12,3.10,3.14,3.09,3.10,1618200,3.10
2016-12-09,3.09,3.09,3.05,3.09,76600,3.09
2016-12-08,3.15,3.15,3.07,3.10,544300,3.10
2016-12-07,3.10,3.12,3.09,3.10,1091000,3.10
2016-12-06,3.06,3.12,3.06,3.10,1359000,3.10
2016-12-05,3.13,3.13,3.03,3.04,332400,3.04
2016-12-02,3.14,3.19,3.13,3.15,388400,3.15
2016-12-01,3.14,3.20,3.12,3.14,680600,3.14
2016-11-30,3.17,3.17,3.09,3.11,267100,3.11
2016-11-29,3.27,3.27,3.10,3.16,368800,3.16
2016-11-28,3.29,3.30,3.22,3.23,394800,3.23
2016-11-25,3.25,3.34,3.23,3.25,630900,3.25
2016-11-24,3.16,3.27,3.16,3.20,955700,3.20
2016-11-23,3.12,3.14,3.11,3.12,376300,3.12
2016-11-22,3.13,3.18,3.11,3.12,615700,3.12
2016-11-21,3.14,3.19,3.04,3.10,640000,3.10
2016-11-18,3.13,3.165,3.12,3.13,424700,3.13
2016-11-17,3.13,3.15,3.10,3.12,325700,3.12
2016-11-16,3.12,3.15,3.09,3.10,1852600,3.10
2016-11-15,3.20,3.20,3.02,3.07,2497900,3.07
2016-11-14,3.23,3.25,3.165,3.18,1662300,3.18
2016-11-11,3.31,3.31,3.23,3.26,320900,3.26
2016-11-10,3.31,3.35,3.27,3.31,426000,3.31
2016-11-09,3.40,3.40,3.12,3.21,2306600,3.21
2016-11-08,3.47,3.475,3.33,3.39,1075000,3.39
2016-11-07,3.41,3.48,3.41,3.43,361000,3.43
2016-11-04,3.62,3.62,3.40,3.50,3043500,3.50
2016-11-03,3.93,3.93,3.93,3.93,000,3.93
2016-11-02,3.93,3.93,3.93,3.93,000,3.93
2016-11-01,4.00,4.01,3.86,3.93,120300,3.93
2016-10-31,3.99,4.14,3.98,3.99,290000,3.99
2016-10-28,3.98,3.98,3.92,3.95,348400,3.95
2016-10-27,3.91,3.97,3.90,3.96,314300,3.96
2016-10-26,3.92,3.98,3.85,3.86,141100,3.86
2016-10-25,3.90,3.96,3.85,3.93,171400,3.93
2016-10-24,3.88,3.95,3.85,3.89,68400,3.89
2016-10-21,3.89,3.89,3.81,3.85,139900,3.85
2016-10-20,3.81,3.88,3.75,3.80,190500,3.80
2016-10-19,3.86,3.86,3.76,3.81,437000,3.81
2016-10-18,3.86,3.90,3.83,3.86,243700,3.86
2016-10-17,3.86,3.89,3.83,3.86,291100,3.86
2016-10-14,3.84,3.90,3.82,3.85,91000,3.85
2016-10-13,3.76,3.98,3.75,3.90,113100,3.90
2016-10-12,3.72,3.81,3.72,3.77,128300,3.77
2016-10-11,3.71,3.82,3.66,3.73,337600,3.73
2016-10-10,3.70,3.73,3.67,3.71,239400,3.71
2016-10-07,3.67,3.76,3.66,3.70,484600,3.70
2016-10-06,3.75,3.75,3.66,3.71,217600,3.71
2016-10-05,3.69,3.82,3.67,3.73,292800,3.73
2016-10-04,3.88,3.91,3.63,3.75,317700,3.75
2016-10-03,3.90,3.91,3.83,3.88,68300,3.88
2016-09-30,3.96,3.975,3.90,3.90,265800,3.90
2016-09-29,4.01,4.01,3.95,3.95,101800,3.95
2016-09-28,3.98,4.01,3.97,4.00,179000,4.00
2016-09-27,3.96,4.00,3.95,4.00,326400,4.00
2016-09-26,3.96,3.99,3.95,3.99,152600,3.99
2016-09-23,3.91,3.98,3.91,3.96,106300,3.96
2016-09-22,3.89,3.97,3.84,3.92,208600,3.92
2016-09-21,3.80,3.89,3.80,3.88,144700,3.88
2016-09-20,3.75,3.83,3.73,3.80,435300,3.80
2016-09-19,3.88,3.88,3.76,3.78,119200,3.78
2016-09-16,3.73,3.89,3.73,3.89,409800,3.89
2016-09-15,3.85,3.86,3.73,3.83,332100,3.83
2016-09-14,3.73,3.81,3.70,3.81,254600,3.81
2016-09-13,3.79,3.85,3.70,3.72,477800,3.72
2016-09-12,3.90,3.90,3.79,3.82,135400,3.82
2016-09-09,3.96,3.97,3.88,3.90,54700,3.90
2016-09-08,3.81,3.87,3.81,3.85,233300,3.85
2016-09-07,3.80,3.83,3.795,3.81,217500,3.81
2016-09-06,3.82,3.84,3.75,3.80,253300,3.80
2016-09-05,3.86,3.93,3.79,3.80,117400,3.80
2016-09-02,3.83,3.89,3.80,3.85,202700,3.8043
2016-09-01,3.87,3.90,3.78,3.82,197500,3.7747
2016-08-31,3.95,3.98,3.85,3.89,269300,3.8438
2016-08-30,4.02,4.04,3.96,4.00,186900,3.9525
2016-08-29,4.04,4.07,3.99,4.04,171200,3.992
2016-08-26,3.96,4.14,3.95,4.12,296700,4.0711
2016-08-25,3.91,4.08,3.91,3.99,940600,3.9426
2016-08-24,3.63,3.86,3.61,3.83,1784300,3.7845
2016-08-23,3.57,3.64,3.55,3.61,80300,3.5671
2016-08-22,3.61,3.63,3.54,3.57,155400,3.5276
2016-08-19,3.66,3.68,3.51,3.59,255500,3.5474
2016-08-18,3.63,3.70,3.60,3.64,841400,3.5968
2016-08-17,3.62,3.73,3.62,3.63,416400,3.5869
2016-08-16,3.64,3.70,3.58,3.66,251600,3.6166
2016-08-15,3.66,3.68,3.58,3.60,360300,3.5573
2016-08-12,3.57,3.64,3.55,3.60,657600,3.5573
2016-08-11,3.60,3.60,3.56,3.57,105100,3.5276
2016-08-10,3.58,3.61,3.51,3.60,576300,3.5573
2016-08-09,3.61,3.66,3.55,3.56,489100,3.5177
2016-08-08,3.67,3.67,3.67,3.67,000,3.6264
2016-08-05,3.65,3.72,3.62,3.67,162100,3.6264
2016-08-04,3.64,3.67,3.55,3.62,308500,3.577
2016-08-03,3.80,3.81,3.60,3.67,199000,3.6264
2016-08-02,3.85,3.90,3.80,3.80,126800,3.7549
2016-08-01,3.85,3.87,3.81,3.82,254800,3.7747
2016-07-29,4.00,4.00,3.85,3.88,130900,3.8339
2016-07-28,4.02,4.03,3.96,3.99,141100,3.9426
2016-07-27,3.95,4.10,3.94,3.99,207000,3.9426
2016-07-26,3.83,4.145,3.80,3.95,356200,3.9031
2016-07-25,3.79,3.82,3.75,3.82,51000,3.7747
2016-07-22,3.61,3.77,3.55,3.77,70700,3.7252
2016-07-21,3.69,3.75,3.60,3.61,46800,3.5671
2016-07-20,3.67,3.77,3.60,3.69,17000,3.6462
2016-07-19,3.65,3.70,3.55,3.66,136100,3.6166
2016-07-18,3.70,3.71,3.53,3.57,49300,3.5276
2016-07-15,3.645,3.70,3.59,3.69,19800,3.6462
2016-07-14,3.60,3.66,3.56,3.59,83600,3.5474
2016-07-13,3.59,3.63,3.55,3.59,111200,3.5474
2016-07-12,3.60,3.60,3.55,3.56,9000,3.5177
2016-07-11,3.54,3.54,3.50,3.52,58100,3.4782
2016-07-08,3.52,3.56,3.49,3.53,17800,3.4881
2016-07-07,3.60,3.60,3.51,3.54,14200,3.498
2016-07-06,3.57,3.58,3.45,3.50,193800,3.4585
2016-07-05,3.63,3.72,3.56,3.59,166500,3.5474
2016-07-04,3.58,3.65,3.51,3.65,86400,3.6067
2016-07-01,3.74,3.74,3.54,3.59,55800,3.5474
2016-06-30,3.75,3.89,3.57,3.57,106900,3.5276
2016-06-29,3.50,3.69,3.49,3.69,333900,3.6462
2016-06-28,3.48,3.48,3.34,3.45,367200,3.409
2016-06-27,3.55,3.55,3.45,3.50,129700,3.4585
2016-06-24,3.67,3.68,3.58,3.58,33000,3.5375
2016-06-23,3.68,3.70,3.65,3.69,101600,3.6462
2016-06-22,3.74,3.74,3.65,3.73,94300,3.6857
2016-06-21,3.52,3.74,3.52,3.74,42900,3.6956
2016-06-20,3.50,3.54,3.49,3.50,209900,3.4585
2016-06-17,3.55,3.65,3.43,3.53,262400,3.4881
2016-06-16,3.75,3.75,3.59,3.59,602300,3.5474
2016-06-15,3.77,3.84,3.76,3.78,66500,3.7351
2016-06-14,3.83,3.99,3.76,3.80,312700,3.7549
2016-06-13,3.90,3.90,3.90,3.90,000,3.8537
2016-06-10,3.85,3.95,3.80,3.90,79600,3.8537
2016-06-09,3.855,3.88,3.78,3.87,158400,3.8241
2016-06-08,3.93,3.93,3.80,3.86,94800,3.8142
2016-06-07,3.93,3.96,3.91,3.95,68200,3.9031
2016-06-06,3.90,3.98,3.90,3.92,76700,3.8735
2016-06-03,3.98,3.99,3.92,3.93,16900,3.8834
2016-06-02,3.98,3.98,3.95,3.98,47400,3.9328
2016-06-01,3.91,4.00,3.91,3.98,69700,3.9328
2016-05-31,4.15,4.19,3.92,3.98,124600,3.9328
2016-05-30,4.11,4.15,4.05,4.09,174800,4.0415
2016-05-27,4.01,4.10,4.01,4.07,292900,4.0217
2016-05-26,3.96,3.98,3.94,3.96,153500,3.913
2016-05-25,3.97,4.01,3.96,3.98,70600,3.9328
2016-05-24,4.03,4.04,3.90,3.99,114700,3.9426
2016-05-23,3.96,4.15,3.72,4.03,131700,3.9822
2016-05-20,4.14,4.24,4.14,4.19,153200,4.1403
2016-05-19,4.02,4.22,4.02,4.13,536400,4.081
2016-05-18,4.22,4.29,4.08,4.09,92700,4.0415
2016-05-17,4.32,4.39,4.12,4.20,41100,4.1501
2016-05-16,4.36,4.365,4.30,4.32,25200,4.2687
2016-05-13,4.43,4.45,4.31,4.34,28900,4.2885
2016-05-12,4.50,4.50,4.42,4.42,154900,4.3675
2016-05-11,4.43,4.58,4.43,4.45,156100,4.3972
2016-05-10,4.54,4.60,4.32,4.39,55300,4.3379
2016-05-09,4.47,4.60,4.40,4.50,71100,4.4466
2016-05-06,4.50,4.60,4.44,4.47,154600,4.4169
2016-05-05,4.60,4.61,4.44,4.50,250300,4.4466
2016-05-04,4.80,4.80,4.50,4.55,121800,4.496
2016-05-03,4.75,4.82,4.66,4.70,109300,4.6442
2016-05-02,4.59,4.75,4.56,4.70,518800,4.6442
2016-04-29,4.55,4.60,4.545,4.59,27800,4.5355
2016-04-28,4.48,4.57,4.48,4.56,15700,4.5059
2016-04-27,4.52,4.55,4.48,4.50,13200,4.4466
2016-04-26,4.50,4.535,4.48,4.50,21400,4.4466
2016-04-25,4.50,4.50,4.50,4.50,000,4.4466
2016-04-22,4.50,4.54,4.43,4.50,32400,4.4466
2016-04-21,4.55,4.55,4.45,4.48,73900,4.4268
2016-04-20,4.52,4.59,4.47,4.51,7400,4.4565
2016-04-19,4.48,4.61,4.43,4.50,83800,4.4466
2016-04-18,4.65,4.65,4.46,4.46,20000,4.4071
2016-04-15,4.62,4.63,4.46,4.52,38400,4.4663
2016-04-14,4.45,4.62,4.45,4.61,20900,4.5553
2016-04-13,4.40,4.48,4.40,4.45,20300,4.3972
2016-04-12,4.42,4.46,4.33,4.40,316700,4.3478
2016-04-11,4.45,4.46,4.40,4.40,344900,4.3478
2016-04-08,4.45,4.57,4.40,4.45,146400,4.3972
2016-04-07,4.56,4.61,4.41,4.50,50400,4.4466
2016-04-06,4.55,4.61,4.55,4.57,99200,4.5158
2016-04-05,4.60,4.635,4.56,4.59,13200,4.5355
2016-04-04,4.55,4.67,4.51,4.64,46700,4.5849
2016-04-01,4.62,4.62,4.55,4.60,21600,4.5454
2016-03-31,4.67,4.70,4.60,4.60,123200,4.5454
2016-03-30,4.62,4.72,4.43,4.67,348900,4.6146
2016-03-29,4.57,4.64,4.54,4.61,44300,4.5553
2016-03-28,4.60,4.60,4.60,4.60,000,4.5454
2016-03-25,4.60,4.60,4.60,4.60,000,4.5454
2016-03-24,4.65,4.66,4.53,4.60,34900,4.5454
2016-03-23,4.67,4.67,4.61,4.66,18300,4.6047
2016-03-22,4.55,4.68,4.55,4.67,114500,4.6146
2016-03-21,4.55,4.55,4.38,4.53,46500,4.4762
2016-03-18,4.37,4.45,4.21,4.41,1677200,4.3577
2016-03-17,4.55,4.61,4.33,4.40,157900,4.3478
2016-03-16,4.55,4.70,4.53,4.55,148800,4.496
2016-03-15,4.61,4.66,4.44,4.59,48600,4.5355
2016-03-14,4.44,4.89,4.43,4.67,112000,4.6146
2016-03-11,4.38,4.40,4.33,4.39,118700,4.3379
2016-03-10,4.40,4.40,4.29,4.32,239300,4.2687
2016-03-09,4.39,4.39,4.31,4.35,33200,4.2984
2016-03-08,4.35,4.40,4.30,4.36,107700,4.3082
2016-03-07,4.39,4.39,4.34,4.36,32600,4.3082
2016-03-04,4.35,4.40,4.31,4.34,131900,4.2885
2016-03-03,4.17,4.30,4.10,4.25,122200,4.1996
2016-03-02,4.20,4.35,4.10,4.25,74900,4.148
2016-03-01,4.30,4.45,4.29,4.34,188600,4.2359
2016-02-29,4.30,4.46,4.07,4.40,121500,4.2944
2016-02-26,4.50,4.50,4.21,4.36,67800,4.2554
2016-02-25,4.59,4.60,4.37,4.50,214400,4.392
2016-02-24,4.57,4.62,4.41,4.59,26600,4.4799
2016-02-23,4.54,4.67,4.38,4.60,23300,4.4896
2016-02-22,4.39,4.55,4.29,4.55,56400,4.4408
2016-02-19,4.44,4.44,4.25,4.29,118600,4.1871
2016-02-18,4.44,4.56,4.36,4.43,113400,4.3237
2016-02-17,4.43,4.51,4.25,4.45,39000,4.3432
2016-02-16,4.29,4.50,4.27,4.43,152500,4.3237
2016-02-15,4.28,4.34,4.22,4.26,45000,4.1578
2016-02-12,4.45,4.62,4.23,4.28,365300,4.1773
2016-02-11,4.65,4.69,4.56,4.63,24900,4.5189
2016-02-10,4.70,4.71,4.41,4.65,376900,4.5384
2016-02-09,4.66,4.66,4.51,4.61,353400,4.4994
2016-02-08,4.75,4.75,4.67,4.70,12500,4.5872
2016-02-05,4.80,4.80,4.68,4.75,133900,4.636
2016-02-04,4.72,4.82,4.71,4.80,63500,4.6848
2016-02-03,4.80,4.80,4.59,4.70,698900,4.5872
2016-02-02,4.80,4.84,4.76,4.79,390700,4.6751
2016-02-01,4.69,4.86,4.62,4.86,164700,4.7434
2016-01-29,4.70,4.70,4.59,4.70,85900,4.5872
2016-01-28,4.68,4.70,4.57,4.63,2700,4.5189
2016-01-27,4.51,4.65,4.51,4.65,44300,4.5384
2016-01-26,4.42,4.42,4.42,4.42,000,4.3139
2016-01-25,4.25,4.63,4.21,4.42,223600,4.3139
2016-01-22,4.20,4.25,4.15,4.23,57400,4.1285
2016-01-21,4.18,4.32,4.12,4.20,43400,4.0992
2016-01-20,4.13,4.16,4.13,4.15,110800,4.0504
2016-01-19,4.14,4.17,4.05,4.11,65000,4.0114
2016-01-18,4.25,4.25,4.07,4.17,83400,4.0699
2016-01-15,4.25,4.35,4.23,4.30,61200,4.1968
2016-01-14,4.36,4.37,4.20,4.30,40600,4.1968
2016-01-13,4.40,4.40,4.30,4.39,137300,4.2847
2016-01-12,4.40,4.41,4.28,4.35,81700,4.2456
2016-01-11,4.25,4.58,4.22,4.35,97500,4.2456
2016-01-08,4.18,4.25,4.09,4.21,1226700,4.109
2016-01-07,4.25,4.30,4.14,4.20,1486500,4.0992
2016-01-06,4.28,4.35,4.22,4.27,36200,4.1675
2016-01-05,4.28,4.30,4.20,4.29,27100,4.1871
2016-01-04,4.16,4.30,4.16,4.25,37100,4.148
2016-01-01,4.15,4.15,4.15,4.15,000,4.0504
2015-12-31,4.17,4.19,4.14,4.15,24000,4.0504
2015-12-30,4.07,4.19,4.04,4.18,308400,4.0797
2015-12-29,3.99,4.05,3.97,4.04,71600,3.9431
2015-12-28,3.97,3.97,3.97,3.97,000,3.8747
2015-12-25,3.97,3.97,3.97,3.97,000,3.8747
2015-12-24,4.07,4.10,3.95,3.97,20500,3.8747
2015-12-23,4.05,4.20,4.05,4.08,18100,3.9821
2015-12-22,4.18,4.18,4.06,4.13,300,4.0309
2015-12-21,4.02,4.15,4.02,4.14,26800,4.0407
2015-12-18,4.07,4.225,4.07,4.15,33400,4.0504
2015-12-17,3.95,4.09,3.95,4.07,36100,3.9723
2015-12-16,4.15,4.15,3.95,4.02,23800,3.9235
2015-12-15,4.14,4.30,4.05,4.15,198900,4.0504
2015-12-14,4.23,4.29,4.17,4.17,373800,4.0699
2015-12-11,4.23,4.25,4.20,4.23,412200,4.1285
2015-12-10,4.31,4.32,4.09,4.22,188600,4.1187
2015-12-09,4.29,4.36,4.26,4.30,423300,4.1968
2015-12-08,4.16,4.38,4.16,4.30,179200,4.1968
2015-12-07,4.01,4.14,4.01,4.14,2899400,4.0407
2015-12-04,3.99,4.20,3.95,4.01,127700,3.9138
2015-12-03,3.98,4.00,3.88,4.00,185500,3.904
2015-12-02,3.78,4.06,3.76,4.00,465700,3.904
2015-12-01,4.09,4.14,3.70,3.81,447100,3.7186
2015-11-30,4.30,4.30,4.10,4.24,142800,4.1383
2015-11-27,4.30,4.39,4.21,4.30,575200,4.1968
2015-11-26,4.33,4.33,4.22,4.30,660200,4.1968
2015-11-25,4.49,4.49,4.35,4.38,38400,4.2749
2015-11-24,4.39,4.42,4.30,4.35,48700,4.2456
2015-11-23,4.10,4.50,4.10,4.38,130100,4.2749
2015-11-20,4.30,4.30,4.05,4.24,204500,4.1383
2015-11-19,4.60,4.60,3.89,4.32,208600,4.2163
2015-11-18,4.57,4.60,4.52,4.57,34800,4.4604
2015-11-17,4.60,4.67,4.52,4.60,145300,4.4896
2015-11-16,4.69,4.69,4.53,4.60,39800,4.4896
2015-11-13,4.50,4.79,4.50,4.70,505600,4.5872
2015-11-12,4.55,4.70,4.55,4.67,59800,4.558
2015-11-11,4.71,4.78,4.32,4.52,160800,4.4115
2015-11-10,4.65,4.67,4.28,4.60,1130700,4.4896
2015-11-09,4.75,4.75,4.51,4.56,602100,4.4506
2015-11-06,4.78,4.80,4.69,4.71,92900,4.597
2015-11-05,4.76,4.835,4.70,4.80,23500,4.6848
2015-11-04,4.80,4.89,4.76,4.84,516500,4.7239
2015-11-03,4.85,4.90,4.83,4.84,49000,4.7239
2015-11-02,4.75,4.90,4.74,4.77,42600,4.6556
2015-10-30,4.75,4.89,4.75,4.77,438600,4.6556
2015-10-29,4.99,4.99,4.72,4.73,78900,4.6165
2015-10-28,5.00,5.01,4.81,4.88,108400,4.7629
2015-10-27,5.00,5.19,4.95,4.96,119400,4.841
2015-10-26,4.80,5.10,4.80,4.93,1983100,4.8117
2015-10-23,4.76,4.91,4.73,4.78,219700,4.6653
2015-10-22,4.73,4.87,4.72,4.75,291500,4.636
2015-10-21,4.60,4.73,4.60,4.72,510800,4.6068
2015-10-20,4.66,4.66,4.45,4.60,139700,4.4896
2015-10-19,4.55,4.80,4.55,4.61,183100,4.4994
2015-10-16,4.35,4.575,4.30,4.55,462100,4.4408
2015-10-15,4.39,4.42,4.30,4.37,51800,4.2651
2015-10-14,4.10,4.55,4.10,4.45,159300,4.3432
2015-10-13,4.10,4.12,4.06,4.07,124500,3.9723
2015-10-12,4.05,4.13,4.05,4.08,34800,3.9821
2015-10-09,4.07,4.10,4.05,4.05,77600,3.9528
2015-10-08,4.09,4.15,4.05,4.06,33900,3.9626
2015-10-07,4.13,4.13,4.05,4.08,31500,3.9821
2015-10-06,4.09,4.17,4.06,4.13,109800,4.0309
2015-10-05,4.38,4.40,4.03,4.15,46000,4.0504
2015-10-02,4.41,4.41,4.30,4.37,11100,4.2651
2015-10-01,4.29,4.44,4.29,4.40,26200,4.2944
2015-09-30,4.35,4.42,4.29,4.40,43300,4.2944
2015-09-29,4.48,4.48,4.30,4.38,52000,4.2749
2015-09-28,4.37,4.55,4.36,4.42,38100,4.3139
2015-09-25,4.50,4.50,4.22,4.26,651900,4.1578
2015-09-24,4.40,4.47,4.38,4.47,106700,4.3627
2015-09-23,4.44,4.45,4.37,4.40,464700,4.2944
2015-09-22,4.15,4.42,4.12,4.35,111700,4.2456
2015-09-21,4.15,4.19,4.12,4.13,34300,4.0309
2015-09-18,4.14,4.20,4.14,4.15,105800,4.0504
2015-09-17,4.03,4.15,4.00,4.14,29300,4.0407
2015-09-16,4.06,4.08,3.99,3.99,23900,3.8943
2015-09-15,4.16,4.21,4.03,4.06,60000,3.9626
2015-09-14,4.20,4.20,4.12,4.16,65600,4.0602
2015-09-11,4.20,4.20,3.965,4.15,94800,4.0504
2015-09-10,3.98,4.19,3.96,4.15,89600,4.0504
2015-09-09,3.74,4.00,3.73,4.00,100500,3.904
2015-09-08,3.80,3.80,3.71,3.76,31000,3.6698
2015-09-07,3.67,3.80,3.67,3.80,331100,3.7088
2015-09-04,3.86,3.86,3.67,3.70,22600,3.6112
2015-09-03,3.94,3.94,3.85,3.90,62800,3.7646
2015-09-02,3.91,3.96,3.84,3.90,50800,3.7646
2015-09-01,3.79,3.99,3.79,3.93,59300,3.7936
2015-08-31,3.75,3.77,3.69,3.76,40200,3.6295
2015-08-28,3.80,3.80,3.60,3.70,1305900,3.5715
2015-08-27,4.00,4.00,3.74,3.80,57000,3.6681
2015-08-26,3.48,4.00,3.47,3.93,36600,3.7936
2015-08-25,3.36,3.49,3.36,3.49,113000,3.3688
2015-08-24,3.45,3.53,3.40,3.45,302900,3.3302
2015-08-21,3.35,3.73,3.35,3.45,18800,3.3302
2015-08-20,3.37,3.39,3.35,3.35,29500,3.2337
2015-08-19,3.50,3.56,3.36,3.37,17000,3.253
2015-08-18,3.44,3.48,3.35,3.39,20900,3.2723
2015-08-17,3.49,3.50,3.40,3.44,16700,3.3206
2015-08-14,3.60,3.60,3.48,3.48,59600,3.3592
2015-08-13,3.67,3.67,3.57,3.60,11100,3.475
2015-08-12,3.73,3.73,3.62,3.70,33000,3.5715
2015-08-11,3.75,3.75,3.72,3.74,16900,3.6102
2015-08-10,3.75,3.75,3.70,3.75,20500,3.6198
2015-08-07,3.74,3.76,3.73,3.75,63800,3.6198
2015-08-06,3.65,3.80,3.65,3.75,148100,3.6198
2015-08-05,3.65,3.73,3.60,3.61,52200,3.4847
2015-08-04,3.75,3.75,3.60,3.64,86500,3.5136
2015-08-03,3.50,3.78,3.50,3.75,128300,3.6198
2015-07-31,3.42,3.48,3.395,3.48,415900,3.3592
2015-07-30,3.45,3.47,3.42,3.45,52400,3.3302
2015-07-29,3.28,3.50,3.25,3.45,1664400,3.3302
2015-07-28,3.25,3.25,3.15,3.25,29000,3.1372
2015-07-27,3.29,3.29,3.15,3.25,41300,3.1372
2015-07-24,3.35,3.35,3.29,3.29,22000,3.1758
2015-07-23,3.40,3.40,3.31,3.31,24300,3.1951
2015-07-22,3.47,3.53,3.40,3.40,72400,3.282
2015-07-21,3.30,3.45,3.30,3.36,73300,3.2433
2015-07-20,3.15,3.40,3.15,3.25,50100,3.1372
2015-07-17,3.10,3.15,3.09,3.11,10300,3.002
2015-07-16,3.12,3.14,3.10,3.10,5200,2.9924
2015-07-15,3.10,3.15,3.05,3.14,51200,3.031
2015-07-14,3.09,3.20,3.08,3.12,55600,3.0117
2015-07-13,2.94,3.15,2.94,3.08,128500,2.9731
2015-07-10,2.69,2.90,2.69,2.88,16500,2.78
2015-07-09,2.80,2.80,2.70,2.70,14700,2.6063
2015-07-08,2.80,2.81,2.79,2.80,226300,2.7028
2015-07-07,2.80,2.81,2.78,2.80,60300,2.7028
2015-07-06,2.83,2.85,2.70,2.78,112500,2.6835
2015-07-03,2.83,2.83,2.82,2.82,000,2.7221
2015-07-02,2.85,2.88,2.81,2.86,34100,2.7607
2015-07-01,2.85,2.90,2.85,2.85,2600,2.7511
2015-06-30,2.85,2.99,2.83,2.99,27500,2.8862
2015-06-29,2.88,2.88,2.81,2.88,134100,2.78
2015-06-26,2.87,2.90,2.87,2.87,700,2.7704
2015-06-25,2.90,2.90,2.88,2.88,157600,2.78
2015-06-24,2.92,2.92,2.87,2.87,8600,2.7704
2015-06-23,2.90,2.91,2.86,2.87,139200,2.7704
2015-06-22,2.90,2.91,2.90,2.90,3800,2.7993
2015-06-19,2.95,2.96,2.90,2.91,26600,2.809
2015-06-18,2.91,2.91,2.90,2.91,4700,2.809
2015-06-17,2.90,2.95,2.90,2.91,2059800,2.809
2015-06-16,2.91,2.91,2.91,2.91,000,2.809
2015-06-15,2.95,2.99,2.92,2.93,36200,2.8283
2015-06-12,2.88,2.88,2.88,2.88,000,2.78
2015-06-11,2.88,2.88,2.88,2.88,000,2.78
2015-06-10,2.93,2.93,2.86,2.88,16000,2.78
2015-06-09,2.92,2.93,2.92,2.93,6000,2.8283
2015-06-08,2.92,2.92,2.92,2.92,000,2.8186
2015-06-05,2.92,2.92,2.92,2.92,6100,2.8186
2015-06-04,2.92,2.92,2.90,2.91,7500,2.809
2015-06-03,2.94,2.94,2.90,2.90,30100,2.7993
2015-06-02,2.95,2.95,2.90,2.93,18700,2.8283
2015-06-01,2.99,2.99,2.95,2.99,7600,2.8862
2015-05-29,2.86,2.99,2.86,2.99,119500,2.8862
2015-05-28,2.95,3.00,2.88,2.96,35800,2.8572
2015-05-27,2.94,2.98,2.93,2.96,18500,2.8572
2015-05-26,2.90,2.99,2.90,2.94,20900,2.8379
2015-05-25,2.84,2.92,2.80,2.90,25000,2.7993
2015-05-22,2.80,2.84,2.80,2.84,13500,2.7414
2015-05-21,2.83,2.85,2.80,2.80,27400,2.7028
2015-05-20,2.72,2.85,2.71,2.81,61300,2.7124
2015-05-19,2.72,2.72,2.72,2.72,000,2.6256
2015-05-18,2.75,2.75,2.69,2.71,8300,2.6159
2015-05-15,2.80,2.95,2.77,2.77,15400,2.6738
2015-05-14,2.71,2.80,2.69,2.80,1034800,2.7028
2015-05-13,2.70,2.74,2.70,2.74,8200,2.6449
2015-05-12,2.69,2.70,2.66,2.70,28000,2.6063
2015-05-11,2.67,2.68,2.67,2.68,1015000,2.587
2015-05-08,2.69,2.69,2.69,2.69,000,2.5966
2015-05-07,2.69,2.70,2.65,2.69,90500,2.5966
2015-05-06,2.69,2.73,2.69,2.70,18000,2.6063
2015-05-05,2.69,2.70,2.69,2.70,14600,2.6063
2015-05-04,2.66,2.69,2.66,2.69,35000,2.5966
2015-05-01,2.68,2.69,2.66,2.68,9400,2.587
2015-04-30,2.55,2.62,2.55,2.62,308200,2.529
2015-04-29,2.70,2.70,2.55,2.55,67700,2.4615
2015-04-28,2.75,2.77,2.67,2.67,24500,2.5773
2015-04-27,2.78,2.78,2.72,2.75,26400,2.6545
2015-04-24,2.78,2.80,2.71,2.78,19600,2.6835
2015-04-23,2.77,2.78,2.66,2.78,54000,2.6835
2015-04-22,2.70,2.75,2.69,2.69,11000,2.5966
2015-04-21,2.68,2.70,2.65,2.66,48600,2.5676
2015-04-20,2.79,2.80,2.69,2.69,22500,2.5966
2015-04-17,2.69,2.80,2.69,2.80,92900,2.7028
2015-04-16,2.53,2.67,2.53,2.67,394100,2.5773
2015-04-15,2.50,2.50,2.49,2.50,27900,2.4132
2015-04-14,2.53,2.54,2.50,2.50,16100,2.4132
2015-04-13,2.53,2.54,2.51,2.53,14900,2.4422
2015-04-10,2.53,2.54,2.53,2.53,10500,2.4422
2015-04-09,2.55,2.55,2.54,2.54,000,2.4518
2015-04-08,2.55,2.55,2.47,2.55,2700,2.4615
2015-04-07,2.55,2.55,2.47,2.55,10600,2.4615
2015-04-06,2.55,2.55,2.55,2.55,000,2.4615
2015-04-03,2.55,2.55,2.55,2.55,000,2.4615
2015-04-02,2.53,2.55,2.53,2.55,11900,2.4615
2015-04-01,2.55,2.55,2.50,2.50,9700,2.4132
2015-03-31,2.60,2.60,2.45,2.57,22600,2.4808
2015-03-30,2.55,2.60,2.55,2.60,900,2.5097
2015-03-27,2.61,2.61,2.55,2.60,12200,2.5097
2015-03-26,2.56,2.62,2.55,2.62,40000,2.529
2015-03-25,2.52,2.60,2.50,2.60,24600,2.5097
2015-03-24,2.62,2.62,2.50,2.60,12900,2.5097
2015-03-23,2.65,2.70,2.60,2.60,52800,2.5097
2015-03-20,2.70,2.70,2.61,2.65,24700,2.558
2015-03-19,2.65,2.70,2.64,2.70,45200,2.6063
2015-03-18,2.60,2.74,2.60,2.70,54700,2.6063
2015-03-17,2.50,2.60,2.50,2.55,49200,2.4615
2015-03-16,2.23,2.30,2.22,2.30,15200,2.2201
2015-03-13,2.21,2.23,2.21,2.23,687000,2.1526
2015-03-12,2.16,2.23,2.16,2.16,13400,2.085
2015-03-11,2.13,2.13,2.13,2.13,000,2.056
2015-03-10,2.04,2.13,2.04,2.13,23500,2.056
2015-03-09,2.12,2.12,2.04,2.04,63600,1.9692
2015-03-06,2.15,2.15,2.09,2.15,11500,2.0754
2015-03-05,2.18,2.18,2.09,2.15,8800,2.0754
2015-03-04,2.07,2.19,2.07,2.14,12200,2.0657
2015-03-03,2.14,2.19,2.13,2.13,36700,2.0097
2015-03-02,2.30,2.30,2.14,2.14,38100,2.0192
2015-02-27,2.20,2.30,2.20,2.22,410100,2.0946
2015-02-26,2.00,2.16,2.00,2.14,114600,2.0192
2015-02-25,1.98,2.05,1.98,2.00,181300,1.8871
2015-02-24,1.98,1.98,1.98,1.98,000,1.8682
2015-02-23,1.96,1.98,1.95,1.98,10500,1.8682
2015-02-20,1.95,1.98,1.95,1.98,64400,1.8682
2015-02-19,1.91,1.95,1.91,1.95,75700,1.8399
2015-02-18,1.90,1.91,1.90,1.91,15100,1.8021
2015-02-17,1.93,1.93,1.91,1.91,46800,1.8021
2015-02-16,1.92,1.935,1.90,1.90,21600,1.7927
2015-02-13,1.98,1.98,1.98,1.98,000,1.8682
2015-02-12,1.98,1.98,1.98,1.98,000,1.8682
2015-02-11,1.98,1.98,1.98,1.98,000,1.8682
2015-02-10,1.95,2.00,1.95,1.98,197300,1.8682
2015-02-09,1.895,1.95,1.895,1.95,49100,1.8399
2015-02-06,1.81,1.895,1.79,1.895,156800,1.788
2015-02-05,1.86,1.86,1.80,1.80,19900,1.6984
2015-02-04,1.845,1.86,1.845,1.86,30300,1.755
2015-02-03,1.855,1.855,1.82,1.845,15200,1.7408
2015-02-02,1.85,1.855,1.85,1.855,255000,1.7502
2015-01-30,1.85,1.85,1.84,1.85,12500,1.7455
2015-01-29,1.79,1.86,1.79,1.85,45200,1.7455
2015-01-28,1.79,1.845,1.79,1.845,9100,1.7408
2015-01-27,1.70,1.80,1.70,1.79,41000,1.6889
2015-01-26,1.72,1.72,1.72,1.72,000,1.6229
2015-01-23,1.73,1.73,1.72,1.72,10100,1.6229
2015-01-22,1.73,1.75,1.73,1.75,900,1.6512
2015-01-21,1.72,1.80,1.72,1.80,4500,1.6984
2015-01-20,1.72,1.72,1.72,1.72,44600,1.6229
2015-01-19,1.75,1.80,1.72,1.80,11100,1.6984
2015-01-16,1.75,1.80,1.75,1.80,900,1.6984
2015-01-15,1.80,1.80,1.80,1.80,000,1.6984
2015-01-14,1.78,1.78,1.78,1.78,8000,1.6795
2015-01-13,1.75,1.80,1.75,1.80,10100,1.6984
2015-01-12,1.77,1.835,1.77,1.835,31800,1.7314
2015-01-09,1.835,1.835,1.835,1.835,000,1.7314
2015-01-08,1.835,1.835,1.835,1.835,000,1.7314
2015-01-07,1.835,1.835,1.835,1.835,000,1.7314
2015-01-06,1.805,1.835,1.805,1.835,1500,1.7314
2015-01-05,1.76,1.835,1.76,1.835,89800,1.7314
2015-01-02,1.84,1.84,1.84,1.84,000,1.7361
2015-01-01,1.84,1.84,1.84,1.84,000,1.7361
2014-12-31,1.84,1.84,1.84,1.84,000,1.7361
2014-12-30,1.725,1.84,1.715,1.84,30600,1.7361
2014-12-29,1.85,1.85,1.85,1.85,000,1.7455
2014-12-26,1.85,1.85,1.85,1.85,000,1.7455
2014-12-25,1.85,1.85,1.85,1.85,000,1.7455
2014-12-24,1.85,1.85,1.85,1.85,000,1.7455
2014-12-23,1.85,1.85,1.85,1.85,000,1.7455
2014-12-22,1.85,1.85,1.80,1.85,10200,1.7455
2014-12-19,1.70,1.72,1.69,1.72,24400,1.6229
2014-12-18,1.75,1.75,1.73,1.745,87500,1.6465
2014-12-17,1.73,1.75,1.73,1.75,1000,1.6512
2014-12-16,1.75,1.75,1.75,1.75,000,1.6512
2014-12-15,1.77,1.77,1.75,1.75,5000,1.6512
2014-12-12,1.77,1.77,1.77,1.77,000,1.67
2014-12-11,1.70,1.77,1.69,1.77,62800,1.67
2014-12-10,1.78,1.78,1.78,1.78,000,1.6795
2014-12-09,1.69,1.78,1.69,1.78,22500,1.6795
2014-12-08,1.80,1.81,1.80,1.81,10300,1.7078
2014-12-05,1.845,1.845,1.845,1.845,000,1.7408
2014-12-04,1.83,1.845,1.795,1.845,50800,1.7408
2014-12-03,1.88,1.88,1.88,1.88,000,1.7738
2014-12-02,1.88,1.88,1.88,1.88,000,1.7738
2014-12-01,1.88,1.88,1.88,1.88,000,1.7738
2014-11-28,1.865,1.88,1.845,1.88,61600,1.7738
2014-11-27,1.88,1.88,1.88,1.88,000,1.7738
2014-11-26,1.865,1.88,1.865,1.88,713300,1.7738
2014-11-25,1.89,1.90,1.88,1.90,72200,1.7927
2014-11-24,1.89,1.945,1.89,1.93,55500,1.821
2014-11-21,1.89,1.935,1.89,1.935,200,1.8257
2014-11-20,1.945,1.945,1.945,1.945,000,1.8352
2014-11-19,1.945,1.945,1.945,1.945,000,1.8352
2014-11-18,1.945,1.945,1.945,1.945,1502300,1.8352
2014-11-17,1.95,1.95,1.95,1.95,4600,1.8399
2014-11-14,1.95,1.95,1.95,1.95,000,1.8399
2014-11-13,1.96,1.96,1.95,1.95,9300,1.8399
2014-11-12,1.94,1.96,1.94,1.96,73800,1.8493
2014-11-11,1.97,1.97,1.97,1.97,000,1.8588
2014-11-10,1.965,1.97,1.965,1.97,19500,1.8588
2014-11-07,1.93,1.97,1.93,1.97,28200,1.8588
2014-11-06,1.925,1.925,1.91,1.92,91100,1.8116
2014-11-05,1.95,1.95,1.95,1.95,000,1.8399
2014-11-04,1.95,1.95,1.95,1.95,20100,1.8399
2014-11-03,2.00,2.00,1.95,1.95,39700,1.8399
2014-10-31,1.95,1.97,1.95,1.97,36900,1.8588
2014-10-30,1.95,1.96,1.95,1.96,95700,1.8493
2014-10-29,1.90,1.95,1.90,1.92,16700,1.8116
2014-10-28,1.90,1.91,1.88,1.90,101300,1.7927
2014-10-27,1.90,1.9025,1.89,1.90,15900,1.7927
2014-10-24,1.90,1.935,1.88,1.90,214400,1.7927
2014-10-23,1.925,1.925,1.865,1.87,51400,1.7644
2014-10-22,1.96,1.965,1.905,1.94,78400,1.8304
2014-10-21,1.96,1.96,1.925,1.96,28500,1.8493
2014-10-20,1.96,2.00,1.96,1.99,52000,1.8776
2014-10-17,1.96,1.98,1.96,1.96,317500,1.8493
2014-10-16,1.96,1.96,1.93,1.96,44500,1.8493
2014-10-15,1.96,1.97,1.96,1.96,24500,1.8493
2014-10-14,2.00,2.00,2.00,2.00,10000,1.8871
2014-10-13,1.99,2.00,1.98,2.00,27300,1.8871
2014-10-10,1.98,2.01,1.96,2.01,50300,1.8965
2014-10-09,2.00,2.005,1.98,1.995,84600,1.8823
2014-10-08,2.00,2.02,2.00,2.01,68600,1.8965
2014-10-07,2.01,2.06,2.00,2.02,112200,1.9059
2014-10-06,2.01,2.01,2.01,2.01,000,1.8965
2014-10-03,2.04,2.04,2.04,2.04,000,1.9248
2014-10-02,2.05,2.05,2.03,2.05,65200,1.9342
2014-10-01,2.07,2.07,2.05,2.05,64500,1.9342
2014-09-30,2.05,2.07,2.04,2.06,77000,1.9437
2014-09-29,2.02,2.07,2.02,2.07,63900,1.9531
2014-09-26,2.08,2.08,2.08,2.08,800,1.9625
2014-09-25,2.07,2.10,2.07,2.10,106200,1.9814
2014-09-24,2.08,2.10,2.05,2.10,198600,1.9814
2014-09-23,2.05,2.06,2.02,2.06,96800,1.9437
2014-09-22,2.08,2.09,2.05,2.05,173200,1.9342
2014-09-19,2.09,2.09,2.08,2.08,16000,1.9625
2014-09-18,2.08,2.09,2.08,2.09,22400,1.972
2014-09-17,2.11,2.11,2.07,2.09,78600,1.972
2014-09-16,2.10,2.11,2.08,2.11,129100,1.9908
2014-09-15,2.10,2.11,2.09,2.11,53600,1.9908
2014-09-12,2.10,2.10,2.10,2.10,45500,1.9814
2014-09-11,2.09,2.10,2.09,2.10,45500,1.9814
2014-09-10,2.13,2.13,2.10,2.11,63700,1.9908
2014-09-09,2.12,2.13,2.10,2.13,223400,2.0097
2014-09-08,2.15,2.15,2.13,2.14,149100,2.0192
2014-09-05,2.14,2.15,2.13,2.15,59800,2.0286
2014-09-04,2.12,2.15,2.12,2.12,85100,2.0003
2014-09-03,2.11,2.16,2.11,2.15,374500,2.0286
2014-09-02,2.05,2.11,2.05,2.11,473000,1.9908
2014-09-01,2.03,2.05,2.03,2.05,383600,1.9342
2014-08-29,2.00,2.03,2.00,2.03,521000,1.9154
2014-08-28,1.99,2.00,1.99,2.00,133400,1.8871
2014-08-27,2.00,2.00,1.99,1.99,485100,1.8776
2014-08-26,2.00,2.01,2.00,2.00,75000,1.8871
2014-08-25,2.01,2.01,2.00,2.00,219000,1.8871
2014-08-22,2.04,2.04,2.00,2.02,71000,1.9059
2014-08-21,1.98,2.02,1.97,2.01,155600,1.8965
2014-08-20,2.06,2.06,2.00,2.00,153200,1.8871
2014-08-19,2.07,2.07,2.04,2.06,114100,1.9437
2014-08-18,2.11,2.11,2.07,2.08,56100,1.9625
2014-08-15,2.10,2.12,2.09,2.11,358600,1.9908
2014-08-14,2.11,2.11,2.05,2.10,247900,1.9814
2014-08-13,2.06,2.10,2.03,2.10,869000,1.9814
2014-08-12,1.95,2.13,1.95,2.10,2694000,1.9814
