Date,Open,High,Low,Close,Volume,Adj Close
2017-01-10,0.71,0.725,0.71,0.712,826400,0.712
2017-01-09,0.71,0.725,0.70,0.705,1092100,0.705
2017-01-06,0.715,0.735,0.715,0.725,91200,0.725
2017-01-05,0.72,0.735,0.70,0.715,180900,0.715
2017-01-04,0.725,0.74,0.72,0.72,134000,0.72
2017-01-03,0.75,0.75,0.725,0.725,209600,0.725
2017-01-02,0.745,0.745,0.745,0.745,000,0.745
2016-12-30,0.74,0.77,0.74,0.745,167400,0.745
2016-12-29,0.745,0.75,0.74,0.745,60300,0.745
2016-12-28,0.75,0.75,0.73,0.745,146800,0.745
2016-12-27,0.735,0.735,0.735,0.735,000,0.735
2016-12-26,0.735,0.735,0.735,0.735,000,0.735
2016-12-23,0.70,0.765,0.70,0.735,264400,0.735
2016-12-22,0.715,0.715,0.695,0.695,263900,0.695
2016-12-21,0.775,0.78,0.73,0.73,410500,0.73
2016-12-20,0.84,0.84,0.775,0.79,354700,0.79
2016-12-19,0.94,0.945,0.80,0.825,308700,0.825
2016-12-16,0.98,0.98,0.93,0.95,84900,0.95
2016-12-15,0.992,1.005,0.98,0.995,91300,0.995
2016-12-14,1.01,1.015,0.985,1.00,10000,1.00
2016-12-13,1.01,1.025,1.00,1.02,20000,1.02
2016-12-12,1.02,1.055,1.015,1.025,80100,1.025
2016-12-09,1.00,1.05,1.00,1.05,20400,1.05
2016-12-08,0.965,1.045,0.96,0.99,93900,0.99
2016-12-07,1.05,1.05,0.98,1.00,262500,1.00
2016-12-06,1.04,1.07,1.02,1.035,34700,1.035
2016-12-05,1.05,1.07,1.04,1.07,28000,1.07
2016-12-02,1.07,1.10,1.06,1.08,22700,1.08
2016-12-01,1.105,1.105,1.06,1.10,106100,1.10
2016-11-30,1.12,1.145,1.11,1.13,18400,1.13
2016-11-29,1.125,1.145,1.12,1.135,22500,1.135
2016-11-28,1.14,1.15,1.14,1.15,27000,1.15
2016-11-25,1.11,1.15,1.11,1.15,41800,1.15
2016-11-24,1.15,1.15,1.125,1.14,23900,1.14
2016-11-23,1.16,1.16,1.16,1.16,000,1.16
2016-11-22,1.105,1.16,1.10,1.16,37000,1.16
2016-11-21,1.10,1.15,1.10,1.10,30100,1.10
2016-11-18,1.11,1.13,1.11,1.13,14100,1.13
2016-11-17,1.125,1.13,1.11,1.11,55600,1.11
2016-11-16,1.11,1.15,1.11,1.125,1877000,1.125
2016-11-15,1.165,1.17,1.13,1.145,28700,1.145
2016-11-14,1.17,1.17,1.14,1.16,79700,1.16
2016-11-11,1.17,1.20,1.165,1.19,40200,1.19
2016-11-10,1.20,1.20,1.155,1.17,102900,1.17
2016-11-09,1.23,1.23,1.155,1.17,28900,1.17
2016-11-08,1.26,1.26,1.20,1.23,425200,1.23
2016-11-07,1.24,1.245,1.175,1.245,118800,1.245
2016-11-04,1.25,1.25,1.20,1.245,19600,1.245
2016-11-03,1.20,1.26,1.20,1.255,46800,1.255
2016-11-02,1.275,1.275,1.255,1.26,18800,1.26
2016-11-01,1.25,1.25,1.23,1.25,11300,1.25
2016-10-31,1.275,1.275,1.16,1.25,269800,1.25
2016-10-28,1.25,1.285,1.25,1.28,32300,1.28
2016-10-27,1.27,1.285,1.25,1.27,43800,1.27
2016-10-26,1.26,1.30,1.26,1.285,22500,1.285
2016-10-25,1.20,1.29,1.20,1.29,114900,1.29
2016-10-24,1.30,1.30,1.25,1.28,27100,1.28
2016-10-21,1.345,1.35,1.30,1.30,40500,1.30
2016-10-20,1.45,1.45,1.315,1.35,319400,1.35
2016-10-19,1.455,1.47,1.455,1.47,1137500,1.47
2016-10-18,1.45,1.49,1.445,1.48,56200,1.48
2016-10-17,1.45,1.455,1.45,1.455,9200,1.455
2016-10-14,1.46,1.465,1.44,1.45,55800,1.45
2016-10-13,1.495,1.495,1.465,1.495,26300,1.495
2016-10-12,1.48,1.48,1.45,1.45,60900,1.45
2016-10-11,1.46,1.49,1.46,1.49,1700,1.49
2016-10-10,1.45,1.57,1.425,1.425,148300,1.425
2016-10-07,1.36,1.425,1.35,1.425,43800,1.425
2016-10-06,1.35,1.38,1.335,1.38,83200,1.38
2016-10-05,1.29,1.35,1.29,1.35,64400,1.35
2016-10-04,1.34,1.34,1.305,1.33,23300,1.33
2016-10-03,1.37,1.37,1.315,1.34,11300,1.34
2016-09-30,1.36,1.365,1.30,1.365,38100,1.365
2016-09-29,1.30,1.375,1.30,1.375,64700,1.375
2016-09-28,1.31,1.33,1.30,1.33,47800,1.33
2016-09-27,1.31,1.335,1.30,1.305,21700,1.305
2016-09-26,1.295,1.34,1.295,1.315,63100,1.315
2016-09-23,1.25,1.325,1.235,1.295,112400,1.295
2016-09-22,1.39,1.39,1.33,1.33,21500,1.33
2016-09-21,1.395,1.40,1.36,1.36,74000,1.36
2016-09-20,1.335,1.405,1.335,1.405,132000,1.405
2016-09-19,1.32,1.35,1.32,1.35,17800,1.35
2016-09-16,1.31,1.36,1.30,1.325,117600,1.325
2016-09-15,1.31,1.32,1.275,1.30,122300,1.30
2016-09-14,1.27,1.32,1.265,1.31,147100,1.31
2016-09-13,1.23,1.275,1.225,1.27,106800,1.27
2016-09-12,1.23,1.23,1.14,1.22,179600,1.22
2016-09-09,1.255,1.28,1.255,1.265,12500,1.265
2016-09-08,1.27,1.32,1.27,1.30,2217900,1.275
2016-09-07,1.26,1.28,1.25,1.28,168600,1.25538
2016-09-06,1.24,1.28,1.23,1.265,65800,1.24067
2016-09-05,1.215,1.235,1.20,1.235,205000,1.21125
2016-09-02,1.21,1.23,1.20,1.23,31900,1.20635
2016-09-01,1.20,1.235,1.19,1.21,48600,1.18673
2016-08-31,1.255,1.255,1.19,1.195,166800,1.17202
2016-08-30,1.22,1.275,1.22,1.25,63900,1.22596
2016-08-29,1.335,1.335,1.25,1.25,69300,1.22596
2016-08-26,1.31,1.32,1.295,1.31,84000,1.28481
2016-08-25,1.30,1.345,1.28,1.295,177400,1.2701
2016-08-24,1.20,1.33,1.20,1.25,396000,1.22596
2016-08-23,1.35,1.38,1.30,1.34,65300,1.31423
2016-08-22,1.35,1.45,1.30,1.30,217000,1.275
2016-08-19,1.21,1.26,1.20,1.26,183400,1.23577
2016-08-18,1.135,1.16,1.11,1.15,43000,1.12788
2016-08-17,1.16,1.165,1.12,1.12,183000,1.09846
2016-08-16,1.11,1.135,1.105,1.135,67200,1.11317
2016-08-15,1.10,1.117,1.10,1.10,44900,1.07885
2016-08-12,1.08,1.125,1.08,1.125,1597700,1.10337
2016-08-11,1.13,1.13,1.07,1.13,415000,1.10827
2016-08-10,1.10,1.10,1.06,1.06,364900,1.03962
2016-08-09,1.11,1.14,1.105,1.115,348400,1.09356
2016-08-08,1.10,1.135,1.10,1.135,59300,1.11317
2016-08-05,1.065,1.13,1.055,1.13,19300,1.10827
2016-08-04,1.055,1.105,1.05,1.085,61900,1.06413
2016-08-03,1.11,1.11,1.05,1.05,104700,1.02981
2016-08-02,1.14,1.145,1.085,1.085,113900,1.06413
2016-08-01,1.10,1.15,1.09,1.12,65800,1.09846
2016-07-29,1.10,1.14,1.10,1.10,175600,1.07885
2016-07-28,1.095,1.10,1.067,1.10,630400,1.07885
2016-07-27,1.08,1.11,1.08,1.095,297000,1.07394
2016-07-26,1.09,1.10,1.08,1.10,52000,1.07885
2016-07-25,1.105,1.125,1.08,1.09,77600,1.06904
2016-07-22,1.12,1.155,1.08,1.10,88000,1.07885
2016-07-21,1.11,1.18,1.095,1.105,202300,1.08375
2016-07-20,1.10,1.135,1.10,1.115,34800,1.09356
2016-07-19,1.09,1.125,1.09,1.10,97400,1.07885
2016-07-18,1.10,1.115,1.10,1.105,7700,1.08375
2016-07-15,1.085,1.13,1.07,1.10,63400,1.07885
2016-07-14,1.11,1.15,1.10,1.10,29100,1.07885
2016-07-13,1.10,1.145,1.10,1.10,24000,1.07885
2016-07-12,1.14,1.15,1.12,1.12,79900,1.09846
2016-07-11,1.07,1.13,1.07,1.13,160800,1.10827
2016-07-08,1.05,1.08,1.035,1.075,208500,1.05433
2016-07-07,1.01,1.05,1.00,1.04,122400,1.02
2016-07-06,1.005,1.045,1.00,1.045,162700,1.0249
2016-07-05,0.995,1.06,0.995,1.035,82100,1.0151
2016-07-04,1.05,1.065,1.045,1.06,19300,1.03962
2016-07-01,1.07,1.08,1.045,1.045,53600,1.0249
2016-06-30,1.05,1.07,1.015,1.07,509300,1.04942
2016-06-29,1.09,1.10,1.03,1.05,244500,1.02981
2016-06-28,1.11,1.12,1.07,1.10,240200,1.07885
2016-06-27,1.07,1.12,1.065,1.12,77300,1.09846
2016-06-24,1.07,1.085,1.03,1.07,235300,1.04942
2016-06-23,1.10,1.12,1.08,1.12,36100,1.09846
2016-06-22,1.12,1.16,1.07,1.095,265400,1.07394
2016-06-21,1.12,1.16,1.11,1.15,28000,1.12788
2016-06-20,1.13,1.155,1.12,1.15,51800,1.12788
2016-06-17,1.12,1.15,1.11,1.125,61500,1.10337
2016-06-16,1.12,1.15,1.115,1.115,59800,1.09356
2016-06-15,1.17,1.18,1.11,1.15,94800,1.12788
2016-06-14,1.17,1.22,1.14,1.20,185000,1.17692
2016-06-13,1.175,1.175,1.175,1.175,000,1.1524
2016-06-10,1.16,1.175,1.12,1.175,9000,1.1524
2016-06-09,1.165,1.175,1.14,1.17,20600,1.1475
2016-06-08,1.17,1.18,1.125,1.17,543900,1.1475
2016-06-07,1.17,1.19,1.15,1.175,105500,1.1524
2016-06-06,1.19,1.20,1.175,1.175,27000,1.1524
2016-06-03,1.21,1.22,1.185,1.19,38700,1.16712
2016-06-02,1.22,1.23,1.205,1.22,75200,1.19654
2016-06-01,1.25,1.255,1.22,1.225,67500,1.20144
2016-05-31,1.22,1.25,1.22,1.25,93100,1.22596
2016-05-30,1.24,1.24,1.20,1.22,106300,1.19654
2016-05-27,1.245,1.245,1.20,1.245,95500,1.22106
2016-05-26,1.245,1.25,1.20,1.25,76600,1.22596
2016-05-25,1.255,1.26,1.215,1.26,114600,1.23577
2016-05-24,1.16,1.275,1.16,1.27,185600,1.24558
2016-05-23,1.14,1.175,1.115,1.175,180100,1.1524
2016-05-20,1.13,1.15,1.13,1.15,39800,1.12788
2016-05-19,1.13,1.16,1.127,1.16,47400,1.13769
2016-05-18,1.15,1.15,1.11,1.13,33000,1.10827
2016-05-17,1.125,1.16,1.12,1.15,68200,1.12788
2016-05-16,1.12,1.16,1.08,1.12,211400,1.09846
2016-05-13,1.16,1.175,1.15,1.155,280300,1.13279
2016-05-12,1.17,1.18,1.15,1.165,145300,1.1426
2016-05-11,1.17,1.185,1.137,1.18,206900,1.15731
2016-05-10,1.18,1.20,1.115,1.16,268400,1.13769
2016-05-09,1.17,1.195,1.16,1.195,110700,1.17202
2016-05-06,1.185,1.19,1.155,1.18,257300,1.15731
2016-05-05,1.18,1.22,1.17,1.20,304400,1.17692
2016-05-04,1.175,1.24,1.175,1.22,760700,1.19654
2016-05-03,1.19,1.22,1.18,1.22,703700,1.19654
2016-05-02,1.19,1.235,1.14,1.225,218800,1.20144
2016-04-29,1.175,1.265,1.17,1.25,1471000,1.22596
2016-04-28,1.24,1.27,1.18,1.185,388400,1.16221
2016-04-27,1.24,1.245,1.165,1.225,470700,1.20144
2016-04-26,1.26,1.275,1.24,1.27,421400,1.24558
2016-04-25,1.265,1.265,1.265,1.265,000,1.24067
2016-04-22,1.335,1.335,1.24,1.265,796200,1.24067
2016-04-21,1.20,1.33,1.20,1.33,1054200,1.30442
2016-04-20,1.11,1.25,1.085,1.19,1039800,1.16712
2016-04-19,1.145,1.145,1.075,1.115,784300,1.09356
2016-04-18,0.98,1.14,0.97,1.12,1309700,1.09846
2016-04-15,0.91,0.975,0.865,0.965,575300,0.94644
2016-04-14,0.84,0.91,0.835,0.91,786500,0.8925
2016-04-13,0.825,0.84,0.82,0.84,668100,0.82385
2016-04-12,0.835,0.84,0.82,0.83,352400,0.81404
2016-04-11,0.81,0.835,0.81,0.82,164000,0.80423
2016-04-08,0.81,0.835,0.805,0.82,133300,0.80423
2016-04-07,0.855,0.855,0.815,0.815,136700,0.79933
2016-04-06,0.84,0.855,0.82,0.855,354300,0.83856
2016-04-05,0.86,0.875,0.845,0.845,293500,0.82875
2016-04-04,0.865,0.875,0.845,0.86,150200,0.84346
2016-04-01,0.84,0.87,0.84,0.85,390000,0.83365
2016-03-31,0.83,0.845,0.82,0.83,435800,0.81404
2016-03-30,0.79,0.825,0.775,0.795,463200,0.77971
2016-03-29,0.81,0.83,0.78,0.78,222200,0.765
2016-03-28,0.80,0.80,0.80,0.80,000,0.78462
2016-03-25,0.80,0.80,0.80,0.80,000,0.78462
2016-03-24,0.81,0.835,0.79,0.80,301900,0.78462
2016-03-23,0.865,0.865,0.81,0.82,516400,0.80423
2016-03-22,0.86,0.90,0.83,0.85,1175900,0.83365
2016-03-21,0.81,0.88,0.795,0.855,1263700,0.83856
2016-03-18,0.80,0.83,0.787,0.805,1923900,0.78952
2016-03-17,0.79,0.81,0.77,0.80,463800,0.78462
2016-03-16,0.74,0.805,0.74,0.79,2180200,0.77481
2016-03-15,0.765,0.775,0.72,0.75,915700,0.73558
2016-03-14,0.80,0.80,0.74,0.755,918800,0.74048
2016-03-11,0.79,0.805,0.79,0.80,451500,0.78462
2016-03-10,0.805,0.81,0.785,0.79,129900,0.77481
2016-03-09,0.83,0.83,0.79,0.805,700300,0.78952
2016-03-08,0.835,0.85,0.775,0.815,1576700,0.79933
2016-03-07,0.81,0.845,0.80,0.835,1249200,0.81894
2016-03-04,0.785,0.815,0.785,0.81,825900,0.79442
2016-03-03,0.81,0.83,0.775,0.795,938600,0.77971
2016-03-02,0.805,0.84,0.75,0.805,1432000,0.78952
2016-03-01,0.69,0.82,0.687,0.80,2173700,0.78462
2016-02-29,0.67,0.73,0.665,0.695,870900,0.68163
2016-02-26,0.70,0.705,0.665,0.665,708800,0.65221
2016-02-25,0.70,0.73,0.68,0.69,1336900,0.67673
2016-02-24,0.725,0.725,0.69,0.705,474200,0.69144
2016-02-23,0.715,0.76,0.60,0.725,2328600,0.71106
2016-02-22,0.645,0.745,0.61,0.74,1502600,0.72577
2016-02-19,0.66,0.67,0.635,0.64,460000,0.62769
2016-02-18,0.67,0.67,0.635,0.645,1142700,0.6326
2016-02-17,0.615,0.69,0.605,0.65,786600,0.6375
2016-02-16,0.585,0.625,0.58,0.61,943200,0.59827
2016-02-15,0.60,0.605,0.57,0.575,713300,0.56394
2016-02-12,0.565,0.595,0.55,0.59,1355900,0.57865
2016-02-11,0.59,0.595,0.57,0.575,581200,0.56394
2016-02-10,0.63,0.63,0.565,0.585,1443000,0.57375
2016-02-09,0.635,0.64,0.59,0.62,1622700,0.60808
2016-02-08,0.67,0.67,0.60,0.635,1303700,0.62279
2016-02-05,0.685,0.70,0.65,0.67,892800,0.65712
2016-02-04,0.71,0.74,0.63,0.685,5465500,0.67183
2016-02-03,0.565,0.66,0.55,0.66,3959300,0.64731
2016-02-02,0.575,0.60,0.55,0.55,3804700,0.53942
2016-02-01,0.56,0.61,0.54,0.56,9003000,0.54923
2016-01-29,0.55,0.66,0.47,0.535,38956000,0.52471
2016-01-28,2.00,2.00,2.00,2.00,000,1.96154
2016-01-27,2.00,2.00,2.00,2.00,000,1.96154
2016-01-26,2.00,2.00,2.00,2.00,000,1.96154
2016-01-25,2.00,2.00,2.00,2.00,000,1.96154
2016-01-22,2.00,2.00,2.00,2.00,000,1.96154
2016-01-21,2.00,2.00,2.00,2.00,000,1.96154
2016-01-20,2.00,2.00,2.00,2.00,000,1.96154
2016-01-19,2.00,2.00,2.00,2.00,000,1.96154
2016-01-18,1.91,2.00,1.91,2.00,226600,1.96154
2016-01-15,2.00,2.00,1.945,1.95,42900,1.9125
2016-01-14,1.94,2.00,1.93,2.00,204900,1.96154
2016-01-13,1.995,2.00,1.93,1.95,90700,1.9125
2016-01-12,1.905,2.00,1.895,2.00,264200,1.96154
2016-01-11,1.95,2.02,1.89,2.00,37000,1.96154
2016-01-08,1.885,2.02,1.88,2.00,109100,1.96154
2016-01-07,1.90,1.975,1.90,1.90,25900,1.86346
2016-01-06,1.99,1.99,1.90,1.90,46100,1.86346
2016-01-05,1.95,2.00,1.95,2.00,37300,1.96154
2016-01-04,1.95,1.995,1.895,1.925,54000,1.88798
2016-01-01,1.975,1.975,1.975,1.975,000,1.93702
2015-12-31,1.98,2.02,1.95,1.975,36200,1.93702
2015-12-30,1.91,2.03,1.91,2.03,42300,1.99096
2015-12-29,1.90,1.925,1.90,1.915,35000,1.87817
2015-12-28,1.90,1.90,1.90,1.90,000,1.86346
2015-12-25,1.90,1.90,1.90,1.90,000,1.86346
2015-12-24,1.885,1.915,1.885,1.90,45400,1.86346
2015-12-23,1.90,1.922,1.89,1.92,75300,1.88308
2015-12-22,1.89,1.93,1.89,1.91,40900,1.87327
2015-12-21,1.88,1.90,1.875,1.89,28700,1.85365
2015-12-18,1.90,1.90,1.872,1.88,108500,1.84385
2015-12-17,1.91,1.92,1.867,1.90,135700,1.86346
2015-12-16,1.83,1.93,1.82,1.905,114800,1.86837
2015-12-15,1.81,1.87,1.805,1.83,63500,1.79481
2015-12-14,1.82,1.835,1.78,1.805,130500,1.77029
2015-12-11,1.86,1.86,1.81,1.82,49400,1.785
2015-12-10,1.93,1.93,1.845,1.865,44400,1.82913
2015-12-09,1.96,1.96,1.89,1.905,97900,1.86837
2015-12-08,2.06,2.06,1.94,1.975,60500,1.93702
2015-12-07,2.10,2.11,2.05,2.06,54800,2.02038
2015-12-04,2.06,2.07,2.00,2.07,81100,2.03019
2015-12-03,2.00,2.10,1.99,2.10,1020100,2.05962
2015-12-02,2.00,2.035,1.977,2.01,86100,1.97135
2015-12-01,1.90,2.07,1.90,2.00,328000,1.96154
2015-11-30,1.86,1.97,1.86,1.95,214800,1.9125
2015-11-27,1.88,1.88,1.805,1.83,1291700,1.79481
2015-11-26,1.99,1.99,1.74,1.89,1072000,1.85365
2015-11-25,2.075,2.08,1.97,1.97,171800,1.93212
2015-11-24,2.09,2.10,2.05,2.09,277600,2.04981
2015-11-23,2.10,2.14,2.10,2.10,655800,2.05962
2015-11-20,2.26,2.26,2.10,2.10,69200,2.05962
2015-11-19,2.15,2.25,2.15,2.25,104100,2.20673
2015-11-18,2.12,2.15,2.08,2.13,99600,2.08904
2015-11-17,2.10,2.11,2.08,2.10,65700,2.05962
2015-11-16,2.06,2.11,2.00,2.10,32200,2.05962
2015-11-13,2.01,2.04,1.98,2.01,86600,1.97135
2015-11-12,2.14,2.14,2.01,2.02,197100,1.98115
2015-11-11,2.16,2.16,2.12,2.12,34300,2.07923
2015-11-10,2.20,2.22,2.13,2.16,372500,2.11846
2015-11-09,2.12,2.20,2.11,2.20,249700,2.15769
2015-11-06,2.15,2.20,2.08,2.11,163600,2.06942
2015-11-05,2.17,2.20,2.16,2.20,271600,2.15769
2015-11-04,2.20,2.21,2.15,2.18,162200,2.13808
2015-11-03,2.20,2.20,2.17,2.20,26300,2.15769
2015-11-02,2.21,2.22,2.19,2.20,46600,2.15769
2015-10-30,2.20,2.22,2.16,2.21,123900,2.1675
2015-10-29,2.27,2.27,2.20,2.20,30700,2.15769
2015-10-28,2.33,2.335,2.22,2.25,69700,2.20673
2015-10-27,2.28,2.35,2.26,2.33,78200,2.28519
2015-10-26,2.23,2.33,2.23,2.27,140100,2.22635
2015-10-23,2.15,2.20,2.13,2.18,234900,2.13808
2015-10-22,2.15,2.16,2.10,2.14,99400,2.09885
2015-10-21,2.15,2.21,2.13,2.15,649000,2.10865
2015-10-20,2.16,2.17,2.12,2.15,117200,2.10865
2015-10-19,2.03,2.20,2.03,2.16,122000,2.11846
2015-10-16,2.05,2.05,2.005,2.01,224900,1.97135
2015-10-15,2.04,2.04,1.97,1.985,190600,1.94683
2015-10-14,2.03,2.07,2.02,2.04,85600,2.00077
2015-10-13,2.01,2.05,2.00,2.01,84600,1.97135
2015-10-12,1.94,2.03,1.91,2.00,102900,1.96154
2015-10-09,1.905,1.985,1.905,1.94,53100,1.90269
2015-10-08,1.93,1.96,1.90,1.93,150100,1.89288
2015-10-07,2.00,2.00,1.93,1.935,61300,1.89779
2015-10-06,2.04,2.04,1.99,1.995,57300,1.95663
2015-10-05,2.10,2.10,2.00,2.00,40200,1.96154
2015-10-02,2.06,2.10,2.05,2.10,11000,2.05962
2015-10-01,2.06,2.09,2.00,2.05,97600,2.01058
2015-09-30,2.11,2.16,2.05,2.10,165000,2.05962
2015-09-29,2.06,2.08,1.99,2.08,168200,2.04
2015-09-28,2.12,2.15,2.07,2.07,88500,2.03019
2015-09-25,2.13,2.13,2.08,2.12,55200,2.07923
2015-09-24,2.15,2.17,2.11,2.14,161200,2.09885
2015-09-23,2.19,2.20,2.13,2.15,70300,2.10865
2015-09-22,2.15,2.21,2.15,2.18,87100,2.13808
2015-09-21,2.14,2.26,2.12,2.26,93200,2.21654
2015-09-18,2.19,2.27,2.14,2.27,140100,2.22635
2015-09-17,2.15,2.19,2.04,2.16,136500,2.11846
2015-09-16,2.24,2.24,2.195,2.20,124000,2.15769
2015-09-15,2.18,2.24,2.15,2.20,78600,2.15769
2015-09-14,2.17,2.20,2.15,2.18,1706800,2.13808
2015-09-11,2.24,2.29,2.14,2.20,76900,2.15769
2015-09-10,2.15,2.25,2.14,2.25,521600,2.20673
2015-09-09,2.15,2.19,2.11,2.15,306500,2.09149
2015-09-08,2.17,2.18,2.14,2.15,172700,2.09149
2015-09-07,2.26,2.26,2.12,2.19,174700,2.1304
2015-09-04,2.27,2.30,2.24,2.26,380900,2.1985
2015-09-03,2.32,2.33,2.26,2.28,274400,2.21795
2015-09-02,2.28,2.28,2.20,2.25,121300,2.18877
2015-09-01,2.40,2.40,2.25,2.25,141500,2.18877
2015-08-31,2.40,2.41,2.36,2.38,114900,2.31523
2015-08-28,2.51,2.55,2.33,2.40,592600,2.33469
2015-08-27,2.31,2.40,2.30,2.40,80500,2.33469
2015-08-26,2.30,2.41,2.29,2.32,79700,2.25686
2015-08-25,2.26,2.30,2.25,2.30,113300,2.23741
2015-08-24,2.37,2.37,2.26,2.27,115500,2.20822
2015-08-21,2.35,2.40,2.32,2.38,47800,2.31523
2015-08-20,2.32,2.40,2.32,2.36,40700,2.29578
2015-08-19,2.38,2.48,2.33,2.37,42100,2.3055
2015-08-18,2.39,2.49,2.35,2.35,283900,2.28605
2015-08-17,2.51,2.51,2.38,2.38,107200,2.31523
2015-08-14,2.46,2.49,2.40,2.49,37600,2.42224
2015-08-13,2.50,2.51,2.40,2.40,59900,2.33469
2015-08-12,2.44,2.51,2.40,2.48,51400,2.41251
2015-08-11,2.48,2.54,2.37,2.42,178200,2.35414
2015-08-10,2.55,2.55,2.42,2.48,153700,2.41251
2015-08-07,2.50,2.63,2.50,2.54,156500,2.47088
2015-08-06,2.67,2.68,2.48,2.50,309300,2.43197
2015-08-05,2.57,2.71,2.51,2.71,98100,2.63625
2015-08-04,2.37,2.57,2.36,2.57,116800,2.50006
2015-08-03,2.33,2.37,2.31,2.35,58200,2.28605
2015-07-31,2.35,2.35,2.33,2.33,11100,2.26659
2015-07-30,2.25,2.35,2.25,2.35,50600,2.28605
2015-07-29,2.30,2.30,2.25,2.25,517000,2.18877
2015-07-28,2.37,2.39,2.29,2.30,72300,2.23741
2015-07-27,2.37,2.47,2.37,2.45,50500,2.38333
2015-07-24,2.35,2.46,2.35,2.45,12600,2.38333
2015-07-23,2.49,2.49,2.34,2.34,140500,2.27632
2015-07-22,2.47,2.49,2.44,2.49,75000,2.42224
2015-07-21,2.55,2.56,2.47,2.50,90700,2.43197
2015-07-20,2.54,2.65,2.51,2.54,137400,2.47088
2015-07-17,2.46,2.57,2.46,2.51,120000,2.44169
2015-07-16,2.38,2.45,2.33,2.45,81100,2.38333
2015-07-15,2.35,2.45,2.35,2.37,48900,2.3055
2015-07-14,2.25,2.35,2.25,2.35,125300,2.28605
2015-07-13,2.32,2.39,2.24,2.25,107900,2.18877
2015-07-10,2.40,2.45,2.32,2.35,67100,2.28605
2015-07-09,2.41,2.42,2.36,2.39,300600,2.32496
2015-07-08,2.43,2.50,2.40,2.42,55700,2.35414
2015-07-07,2.50,2.50,2.35,2.45,79700,2.38333
2015-07-06,2.53,2.55,2.46,2.50,140900,2.43197
2015-07-03,2.60,2.60,2.53,2.55,46200,2.4806
2015-07-02,2.55,2.63,2.53,2.62,245800,2.5487
2015-07-01,2.46,2.56,2.46,2.55,79900,2.4806
2015-06-30,2.45,2.59,2.33,2.46,479600,2.39305
2015-06-29,2.51,2.52,2.41,2.50,353500,2.43197
2015-06-26,2.61,2.65,2.58,2.60,137100,2.52924
2015-06-25,2.61,2.66,2.56,2.60,57700,2.52924
2015-06-24,2.62,2.66,2.52,2.61,145400,2.53897
2015-06-23,2.70,2.72,2.62,2.65,116300,2.57788
2015-06-22,2.77,2.79,2.69,2.70,74100,2.62652
2015-06-19,2.77,2.83,2.71,2.80,663400,2.7238
2015-06-18,2.82,2.86,2.77,2.77,24100,2.69462
2015-06-17,2.89,2.90,2.82,2.84,67800,2.76271
2015-06-16,2.88,2.92,2.78,2.85,713500,2.77244
2015-06-15,2.80,2.88,2.77,2.88,121800,2.80162
2015-06-12,2.80,2.81,2.76,2.80,30700,2.7238
2015-06-11,2.75,2.79,2.72,2.78,37900,2.70435
2015-06-10,2.79,2.79,2.66,2.72,857700,2.64598
2015-06-09,2.79,2.83,2.78,2.79,852600,2.71407
2015-06-08,2.78,2.78,2.78,2.78,000,2.70435
2015-06-05,2.80,2.90,2.75,2.78,35200,2.70435
2015-06-04,2.94,2.95,2.80,2.80,32600,2.7238
2015-06-03,2.90,2.94,2.87,2.91,165600,2.83081
2015-06-02,2.86,2.92,2.85,2.89,140400,2.81135
2015-06-01,2.89,2.92,2.81,2.91,268500,2.83081
2015-05-29,2.84,2.90,2.79,2.81,732600,2.73353
2015-05-28,2.89,2.95,2.82,2.84,101900,2.76271
2015-05-27,2.81,2.97,2.80,2.89,1105100,2.81135
2015-05-26,2.79,2.83,2.79,2.80,86000,2.7238
2015-05-25,2.83,2.84,2.74,2.79,122900,2.71407
2015-05-22,2.85,2.89,2.77,2.85,284900,2.77244
2015-05-21,2.995,3.00,2.85,2.89,113900,2.81135
2015-05-20,3.04,3.045,2.97,2.99,109600,2.90863
2015-05-19,3.03,3.06,3.01,3.02,36300,2.93781
2015-05-18,3.06,3.07,3.02,3.02,48200,2.93781
2015-05-15,2.98,3.12,2.98,3.06,169800,2.97673
2015-05-14,3.00,3.02,2.96,2.99,25300,2.90863
2015-05-13,2.98,3.01,2.98,2.98,445100,2.8989
2015-05-12,3.02,3.02,2.97,3.01,181400,2.92809
2015-05-11,2.99,3.00,2.95,3.00,184100,2.91836
2015-05-08,3.05,3.05,2.94,3.00,27800,2.91836
2015-05-07,3.00,3.05,3.00,3.04,159800,2.95727
2015-05-06,3.12,3.13,3.04,3.05,245600,2.967
2015-05-05,3.00,3.08,3.00,3.05,160500,2.967
2015-05-04,2.98,3.03,2.96,3.00,314700,2.91836
2015-05-01,3.06,3.06,2.98,2.99,80900,2.90863
2015-04-30,3.06,3.09,3.03,3.03,350600,2.94754
2015-04-29,3.07,3.12,3.02,3.05,1417000,2.967
2015-04-28,3.11,3.14,3.07,3.07,9900,2.98645
2015-04-27,3.13,3.15,3.09,3.14,123800,3.05455
2015-04-24,3.05,3.14,3.01,3.09,61500,3.00591
2015-04-23,3.02,3.02,3.00,3.01,57200,2.92809
2015-04-22,3.04,3.04,2.99,3.01,209200,2.92809
2015-04-21,3.00,3.05,2.98,3.02,58300,2.93781
2015-04-20,3.02,3.02,2.92,3.00,131000,2.91836
2015-04-17,3.10,3.15,3.06,3.06,94300,2.97673
2015-04-16,3.16,3.16,3.10,3.12,45800,3.03509
2015-04-15,3.16,3.16,3.10,3.15,65000,3.06428
2015-04-14,3.08,3.24,3.08,3.18,74800,3.09346
2015-04-13,3.05,3.08,3.01,3.08,48400,2.99618
2015-04-10,3.08,3.13,3.01,3.03,141800,2.94754
2015-04-09,3.12,3.18,3.08,3.09,65500,3.00591
2015-04-08,3.21,3.21,3.11,3.15,102000,3.06428
2015-04-07,3.23,3.25,3.20,3.22,81500,3.13237
2015-04-06,3.21,3.21,3.21,3.21,000,3.12264
2015-04-03,3.21,3.21,3.21,3.21,000,3.12264
2015-04-02,3.21,3.26,3.17,3.21,149000,3.12264
2015-04-01,3.25,3.26,3.17,3.21,188200,3.12264
2015-03-31,3.33,3.33,3.24,3.26,90200,3.17128
2015-03-30,3.30,3.38,3.26,3.27,188000,3.18101
2015-03-27,3.30,3.33,3.23,3.33,57600,3.23938
2015-03-26,3.27,3.37,3.23,3.26,83900,3.17128
2015-03-25,3.38,3.38,3.26,3.32,84000,3.22965
2015-03-24,3.25,3.32,3.225,3.28,124500,3.19074
2015-03-23,3.24,3.32,3.23,3.26,58100,3.17128
2015-03-20,3.38,3.39,3.22,3.22,1265000,3.13237
2015-03-19,3.29,3.45,3.29,3.36,221600,3.26856
2015-03-18,3.27,3.29,3.25,3.29,249500,3.20047
2015-03-17,3.22,3.29,3.20,3.24,258400,3.15183
2015-03-16,3.14,3.22,3.10,3.18,71800,3.09346
2015-03-13,3.14,3.20,3.12,3.15,60800,3.06428
2015-03-12,3.15,3.21,3.09,3.19,133700,3.10319
2015-03-11,3.12,3.15,3.07,3.11,200300,3.02537
2015-03-10,3.21,3.22,3.13,3.15,58700,3.06428
2015-03-09,3.22,3.29,3.12,3.21,86200,3.12264
2015-03-06,3.11,3.35,3.10,3.30,342500,3.21019
2015-03-05,3.14,3.14,3.04,3.07,79000,2.98645
2015-03-04,3.16,3.16,3.14,3.14,120900,3.05455
2015-03-03,3.16,3.17,3.14,3.16,88300,3.074
2015-03-02,3.10,3.17,3.10,3.16,117100,3.074
2015-02-27,3.16,3.17,3.10,3.13,93800,3.04482
2015-02-26,3.15,3.19,3.09,3.18,49300,3.09346
2015-02-25,3.13,3.18,3.09,3.15,76500,3.06428
2015-02-24,3.13,3.15,3.10,3.15,64100,3.06428
2015-02-23,3.15,3.20,3.13,3.14,79300,3.05455
2015-02-20,3.15,3.20,3.12,3.15,41000,3.06428
2015-02-19,3.15,3.18,3.11,3.15,53700,3.06428
2015-02-18,3.17,3.20,3.12,3.19,52100,3.10319
2015-02-17,3.205,3.205,3.10,3.17,90800,3.08373
2015-02-16,3.27,3.29,3.18,3.23,330600,3.1421
2015-02-13,3.15,3.25,3.12,3.22,275500,3.13237
2015-02-12,3.00,3.10,3.00,3.10,115600,3.01564
2015-02-11,3.03,3.13,2.80,3.00,364100,2.91836
2015-02-10,3.00,3.01,2.93,3.00,146600,2.91836
2015-02-09,2.90,2.99,2.90,2.98,167200,2.8989
2015-02-06,2.94,2.94,2.87,2.90,54900,2.82108
2015-02-05,2.91,2.93,2.89,2.90,113400,2.82108
2015-02-04,2.84,2.93,2.83,2.91,518800,2.83081
2015-02-03,2.80,2.84,2.78,2.84,51200,2.76271
2015-02-02,2.85,2.85,2.75,2.80,213300,2.7238
2015-01-30,2.785,2.87,2.75,2.85,66000,2.77244
2015-01-29,2.88,2.88,2.76,2.80,127700,2.7238
2015-01-28,2.65,2.90,2.63,2.88,289100,2.80162
2015-01-27,2.80,2.82,2.51,2.65,218000,2.57788
2015-01-26,2.84,2.84,2.84,2.84,000,2.76271
2015-01-23,2.90,2.90,2.81,2.84,121500,2.76271
2015-01-22,2.98,2.98,2.90,2.92,39400,2.84054
2015-01-21,2.90,2.99,2.89,2.95,73800,2.86972
2015-01-20,2.94,2.94,2.88,2.89,41300,2.81135
2015-01-19,2.95,2.96,2.92,2.93,35500,2.85026
2015-01-16,2.93,2.95,2.86,2.91,71900,2.83081
2015-01-15,2.91,2.99,2.91,2.96,36200,2.87945
2015-01-14,2.93,2.98,2.91,2.94,38700,2.85999
2015-01-13,2.98,2.98,2.93,2.95,34700,2.86972
2015-01-12,2.99,2.995,2.95,2.95,39700,2.86972
2015-01-09,3.00,3.01,2.97,2.99,72200,2.90863
2015-01-08,2.99,3.00,2.97,3.00,35900,2.91836
2015-01-07,3.00,3.01,2.96,2.97,27400,2.88918
2015-01-06,3.00,3.03,2.95,3.00,42200,2.91836
2015-01-05,3.05,3.06,2.99,2.99,51300,2.90863
2015-01-02,3.01,3.05,2.98,3.05,27000,2.967
2015-01-01,3.01,3.01,3.01,3.01,000,2.92809
2014-12-31,3.07,3.08,3.00,3.01,41300,2.92809
2014-12-30,3.06,3.06,2.99,3.04,39000,2.95727
2014-12-29,3.07,3.08,2.99,3.06,102700,2.97673
2014-12-26,3.09,3.09,3.09,3.09,000,3.00591
2014-12-25,3.09,3.09,3.09,3.09,000,3.00591
2014-12-24,3.00,3.09,2.95,3.09,61400,3.00591
2014-12-23,3.04,3.04,2.96,3.00,44200,2.91836
2014-12-22,3.01,3.05,2.92,3.05,133200,2.967
2014-12-19,2.99,3.04,2.94,3.00,73700,2.91836
2014-12-18,2.90,2.98,2.86,2.98,75000,2.8989
2014-12-17,2.79,2.82,2.74,2.82,60700,2.74326
2014-12-16,2.95,2.95,2.79,2.80,159600,2.7238
2014-12-15,2.95,3.00,2.86,2.95,69600,2.86972
2014-12-12,3.04,3.04,2.89,2.95,42600,2.86972
2014-12-11,2.92,3.08,2.82,3.00,94600,2.91836
2014-12-10,2.99,3.00,2.85,2.94,273000,2.85999
2014-12-09,3.00,3.05,2.93,2.98,293500,2.8989
2014-12-08,3.04,3.15,2.99,3.05,161400,2.967
2014-12-05,2.98,3.05,2.95,2.96,220700,2.87945
2014-12-04,2.83,3.01,2.83,2.90,95300,2.82108
2014-12-03,2.76,2.85,2.76,2.84,193100,2.76271
2014-12-02,2.74,2.82,2.74,2.75,24400,2.67516
2014-12-01,2.87,2.87,2.68,2.73,228000,2.65571
2014-11-28,2.79,2.89,2.76,2.76,137900,2.68489
2014-11-27,2.74,2.78,2.74,2.75,46600,2.67516
2014-11-26,2.76,2.78,2.72,2.75,393100,2.67516
2014-11-25,2.73,2.78,2.70,2.78,105100,2.70435
2014-11-24,2.70,2.74,2.65,2.70,84000,2.62652
2014-11-21,2.66,2.67,2.62,2.65,202500,2.57788
2014-11-20,2.67,2.68,2.65,2.65,131600,2.57788
2014-11-19,2.69,2.70,2.65,2.67,670000,2.59734
2014-11-18,2.66,2.70,2.66,2.67,240800,2.59734
2014-11-17,2.66,2.68,2.65,2.66,40600,2.58761
2014-11-14,2.65,2.68,2.64,2.64,78200,2.56816
2014-11-13,2.64,2.68,2.64,2.65,125000,2.57788
2014-11-12,2.65,2.65,2.62,2.64,134600,2.56816
2014-11-11,2.67,2.68,2.64,2.66,81500,2.58761
2014-11-10,2.67,2.70,2.66,2.67,59800,2.59734
2014-11-07,2.64,2.67,2.63,2.67,202600,2.59734
2014-11-06,2.68,2.68,2.64,2.67,181700,2.59734
2014-11-05,2.72,2.72,2.68,2.68,113800,2.60707
2014-11-04,2.76,2.77,2.72,2.72,167800,2.64598
2014-11-03,2.63,2.75,2.61,2.72,291300,2.64598
2014-10-31,2.61,2.645,2.60,2.60,458700,2.52924
2014-10-30,2.64,2.645,2.60,2.60,371100,2.52924
2014-10-29,2.54,2.66,2.50,2.60,17604700,2.52924
2014-10-28,2.77,2.80,2.71,2.72,424600,2.64598
2014-10-27,2.74,2.75,2.70,2.75,507200,2.67516
2014-10-24,2.71,2.75,2.70,2.70,238500,2.62652
2014-10-23,2.74,2.81,2.69,2.70,236800,2.62652
2014-10-22,2.65,2.76,2.65,2.70,181500,2.62652
2014-10-21,2.67,2.68,2.64,2.64,40000,2.56816
2014-10-20,2.69,2.70,2.62,2.62,79100,2.5487
2014-10-17,2.62,2.75,2.62,2.69,47500,2.6168
2014-10-16,2.69,2.69,2.60,2.68,65000,2.60707
2014-10-15,2.68,2.69,2.60,2.68,31500,2.60707
2014-10-14,2.59,2.69,2.58,2.60,29700,2.52924
2014-10-13,2.63,2.64,2.59,2.59,79300,2.51952
2014-10-10,2.72,2.75,2.63,2.63,81400,2.55843
2014-10-09,2.70,2.73,2.69,2.70,86200,2.62652
2014-10-08,2.69,2.78,2.66,2.70,90500,2.62652
2014-10-07,2.68,2.73,2.64,2.66,71200,2.58761
2014-10-06,2.65,2.69,2.64,2.65,42600,2.57788
2014-10-03,2.61,2.61,2.57,2.57,558200,2.50006
2014-10-02,2.63,2.63,2.58,2.59,756000,2.51952
2014-10-01,2.57,2.68,2.57,2.64,1200600,2.56816
2014-09-30,2.59,2.59,2.55,2.58,35800,2.50979
2014-09-29,2.69,2.69,2.60,2.60,343000,2.52924
2014-09-26,2.65,2.65,2.60,2.60,157600,2.52924
2014-09-25,2.73,2.73,2.68,2.70,79200,2.62652
2014-09-24,2.65,2.74,2.65,2.70,586900,2.62652
2014-09-23,2.65,2.68,2.60,2.68,278500,2.60707
2014-09-22,2.78,2.85,2.68,2.68,182500,2.60707
2014-09-19,2.58,2.78,2.56,2.70,137400,2.62652
2014-09-18,2.55,2.60,2.52,2.55,44700,2.4806
2014-09-17,2.55,2.55,2.52,2.52,46200,2.45142
2014-09-16,2.54,2.55,2.50,2.55,56600,2.4806
2014-09-15,2.57,2.57,2.51,2.51,182800,2.44169
2014-09-12,2.51,2.58,2.51,2.55,217100,2.4806
2014-09-11,2.51,2.53,2.50,2.52,87800,2.45142
2014-09-10,2.58,2.58,2.50,2.51,74400,2.42467
2014-09-09,2.59,2.60,2.52,2.52,111400,2.43433
2014-09-08,2.58,2.59,2.55,2.59,163000,2.50195
2014-09-05,2.55,2.58,2.54,2.55,78400,2.46331
2014-09-04,2.52,2.55,2.49,2.55,126100,2.46331
2014-09-03,2.55,2.58,2.51,2.51,90500,2.42467
2014-09-02,2.49,2.62,2.49,2.52,217100,2.43433
2014-09-01,2.33,2.38,2.33,2.36,149700,2.27977
2014-08-29,2.35,2.35,2.30,2.31,66200,2.23147
2014-08-28,2.35,2.35,2.33,2.35,99600,2.27011
2014-08-27,2.33,2.37,2.32,2.35,80900,2.27011
2014-08-26,2.29,2.40,2.29,2.40,141400,2.31841
2014-08-25,2.30,2.30,2.28,2.28,44400,2.20249
2014-08-22,2.30,2.35,2.29,2.30,41800,2.22181
2014-08-21,2.29,2.30,2.29,2.30,148600,2.22181
2014-08-20,2.34,2.34,2.28,2.30,55300,2.22181
2014-08-19,2.35,2.35,2.345,2.35,119900,2.27011
2014-08-18,2.30,2.32,2.28,2.32,152200,2.24113
2014-08-15,2.26,2.32,2.26,2.30,317700,2.22181
2014-08-14,2.25,2.30,2.25,2.29,24200,2.21215
2014-08-13,2.25,2.30,2.23,2.23,120900,2.15419
2014-08-12,2.23,2.26,2.23,2.25,12200,2.17351
2014-08-11,2.27,2.28,2.23,2.23,70700,2.15419
2014-08-08,2.25,2.27,2.24,2.24,14200,2.16385
2014-08-07,2.25,2.25,2.25,2.25,98200,2.17351
2014-08-06,2.23,2.25,2.22,2.23,21400,2.15419
2014-08-05,2.25,2.25,2.25,2.25,000,2.17351
2014-08-04,2.26,2.26,2.25,2.25,25800,2.17351
2014-08-01,2.29,2.29,2.25,2.26,10700,2.18317
2014-07-31,2.30,2.30,2.27,2.30,37000,2.22181
2014-07-30,2.27,2.30,2.27,2.30,29000,2.22181
2014-07-29,2.30,2.31,2.28,2.30,112700,2.22181
2014-07-28,2.32,2.32,2.32,2.32,6000,2.24113
2014-07-25,2.33,2.33,2.33,2.33,900,2.25079
2014-07-24,2.35,2.35,2.35,2.35,000,2.27011
2014-07-23,2.35,2.35,2.35,2.35,42900,2.27011
2014-07-22,2.34,2.35,2.32,2.35,30300,2.27011
2014-07-21,2.35,2.35,2.32,2.35,26100,2.27011
2014-07-18,2.26,2.35,2.26,2.35,24800,2.27011
2014-07-17,2.35,2.35,2.35,2.35,000,2.27011
2014-07-16,2.32,2.35,2.30,2.35,205700,2.27011
2014-07-15,2.35,2.35,2.30,2.35,19700,2.27011
2014-07-14,2.35,2.36,2.30,2.30,199600,2.22181
2014-07-11,2.36,2.36,2.35,2.35,1900,2.27011
2014-07-10,2.45,2.45,2.36,2.36,18800,2.27977
2014-07-09,2.45,2.45,2.45,2.45,000,2.36671
2014-07-08,2.45,2.45,2.45,2.45,000,2.36671
2014-07-07,2.45,2.48,2.45,2.45,113300,2.36671
2014-07-04,2.39,2.45,2.34,2.45,33100,2.36671
2014-07-03,2.43,2.43,2.34,2.39,18000,2.30875
2014-07-02,2.35,2.35,2.34,2.34,17200,2.26045
2014-07-01,2.34,2.35,2.28,2.35,911300,2.27011
2014-06-30,2.45,2.45,2.45,2.45,000,2.36671
2014-06-27,2.45,2.45,2.40,2.45,14600,2.36671
2014-06-26,2.45,2.45,2.45,2.45,000,2.36671
2014-06-25,2.32,2.45,2.30,2.45,36100,2.36671
2014-06-24,2.30,2.35,2.30,2.35,27300,2.27011
2014-06-23,2.30,2.30,2.30,2.30,000,2.22181
2014-06-20,2.35,2.35,2.26,2.30,32400,2.22181
2014-06-19,2.35,2.35,2.35,2.35,000,2.27011
2014-06-18,2.35,2.35,2.35,2.35,800,2.27011
2014-06-17,2.35,2.35,2.35,2.35,000,2.27011
2014-06-16,2.25,2.35,2.25,2.35,35900,2.27011
2014-06-13,2.21085,2.30911,2.21085,2.30911,38400,2.23061
2014-06-12,2.21085,2.26981,2.08311,2.26981,385000,2.19265
2014-06-11,2.06346,2.10276,2.05363,2.05363,6200,1.98381
2014-06-10,2.11259,2.11259,2.07329,2.08311,17500,2.01229
2014-06-09,2.11259,2.11259,2.11259,2.11259,000,2.04077
2014-06-06,2.10276,2.11259,2.04381,2.11259,287500,2.04077
2014-06-05,2.12242,2.12242,2.11259,2.11259,11000,2.04077
2014-06-04,2.09294,2.10276,2.02416,2.02416,78000,1.95535
2014-06-03,2.12242,2.14207,2.07329,2.12242,68700,2.05027
2014-06-02,2.08311,2.17646,2.08311,2.16172,18600,2.08823
2014-05-30,2.18137,2.1912,2.11259,2.16172,62200,2.08823
2014-05-29,2.25998,2.25998,2.18137,2.1912,41500,2.11671
2014-05-28,2.21085,2.25998,2.21085,2.25998,449300,2.18315
2014-05-27,2.16172,2.21085,2.16172,2.21085,7000,2.13569
2014-05-26,2.13224,2.17155,2.13224,2.16172,309100,2.08823
2014-05-23,2.12242,2.14207,2.12242,2.14207,2000,2.06925
2014-05-22,2.12242,2.14207,2.11259,2.11259,70300,2.04077
2014-05-21,2.12242,2.16172,2.12242,2.16172,17300,2.08823
2014-05-20,2.14207,2.16172,2.12242,2.16172,49900,2.08823
2014-05-19,2.15189,2.16172,2.15189,2.16172,7800,2.08823
2014-05-16,2.14207,2.16172,2.14207,2.16172,36100,2.08823
2014-05-15,2.11259,2.16172,2.06346,2.16172,46200,2.08823
2014-05-14,2.16172,2.18137,2.16172,2.16172,343600,2.08823
2014-05-13,2.22068,2.22068,2.10276,2.18137,45100,2.10721
2014-05-12,2.24033,2.25015,2.2305,2.2305,545900,2.15467
2014-05-09,2.24033,2.24033,2.24033,2.24033,4000,2.16417
2014-05-08,2.30911,2.31894,2.30911,2.31894,1498200,2.2401
2014-05-07,2.31894,2.31894,2.30911,2.31894,17100,2.2401
2014-05-06,2.39754,2.39754,2.39754,2.39754,000,2.31603
2014-05-05,2.40737,2.40737,2.35824,2.39754,27400,2.31603
2014-05-02,2.40737,2.40737,2.30911,2.32876,38100,2.24959
2014-05-01,2.43685,2.43685,2.43685,2.43685,000,2.35401
2014-04-30,2.30911,2.43685,2.30911,2.43685,7600,2.35401
2014-04-29,2.35824,2.37789,2.30911,2.37789,31400,2.29705
2014-04-28,2.34841,2.35824,2.34841,2.35824,17000,2.27807
2014-04-25,2.33859,2.33859,2.33859,2.33859,000,2.25909
2014-04-24,2.31894,2.33859,2.31894,2.33859,500,2.25909
2014-04-23,2.30911,2.32876,2.30911,2.32876,28000,2.24959
2014-04-22,2.30911,2.32876,2.30911,2.32876,90800,2.24959
2014-04-21,2.30911,2.30911,2.30911,2.30911,000,2.23061
2014-04-18,2.30911,2.30911,2.30911,2.30911,000,2.23061
2014-04-17,2.30911,2.30911,2.30911,2.30911,73800,2.23061
2014-04-16,2.30911,2.31894,2.30911,2.30911,98500,2.23061
2014-04-15,2.30911,2.32876,2.29928,2.31894,75500,2.2401
2014-04-14,2.32876,2.32876,2.32876,2.32876,4500,2.24959
2014-04-11,2.30911,2.34841,2.28946,2.30911,34800,2.23061
2014-04-10,2.30911,2.31894,2.30911,2.31894,122400,2.2401
2014-04-09,2.38772,2.38772,2.28946,2.34841,59400,2.26857
2014-04-08,2.36807,2.39754,2.30911,2.39754,13800,2.31603
2014-04-07,2.40737,2.4172,2.36807,2.40737,55300,2.32553
2014-04-04,2.40737,2.50563,2.40737,2.4565,12100,2.37299
2014-04-03,2.25998,2.35824,2.25998,2.35824,273700,2.27807
2014-04-02,2.25998,2.28946,2.25998,2.25998,230200,2.18315
2014-04-01,2.25998,2.28946,2.2305,2.25998,154600,2.18315
2014-03-31,2.21085,2.25998,2.21085,2.25998,68400,2.18315
2014-03-28,2.16172,2.21085,2.16172,2.21085,999600,2.13569
2014-03-27,2.21085,2.21085,2.1912,2.21085,17000,2.13569
2014-03-26,2.20102,2.21085,2.18137,2.21085,21600,2.13569
2014-03-25,2.21085,2.21085,2.1912,2.1912,2900,2.11671
2014-03-24,2.22068,2.22068,2.16172,2.16172,41000,2.08823
2014-03-21,2.10276,2.16172,2.10276,2.16172,9100,2.08823
2014-03-20,2.09294,2.10276,2.08311,2.10276,14300,2.03127
2014-03-19,2.07329,2.11259,2.06346,2.09294,67400,2.02179
2014-03-18,2.05363,2.14207,2.01433,2.14207,96800,2.06925
2014-03-17,2.08311,2.08311,1.99468,2.01433,47700,1.94585
2014-03-14,2.12242,2.12242,2.07329,2.08311,48400,2.01229
2014-03-13,2.04381,2.16172,2.04381,2.12242,123000,2.05027
2014-03-12,2.01433,2.01433,1.93081,1.99468,32000,1.92687
2014-03-11,1.9652,1.97503,1.95046,1.97503,16100,1.90789
2014-03-10,1.90624,2.01433,1.90624,2.01433,39800,1.94585
2014-03-07,1.89642,1.90624,1.87677,1.89642,152100,1.83195
2014-03-06,1.90624,1.90624,1.88659,1.90624,32900,1.82453
2014-03-05,1.90133,1.90624,1.88168,1.90133,38400,1.81983
2014-03-04,1.86694,1.90133,1.83746,1.90133,157500,1.81983
2014-03-03,1.83746,1.86694,1.83746,1.86694,44800,1.78691
2014-02-28,1.88659,1.88659,1.86203,1.86694,108300,1.78691
2014-02-27,1.86694,1.89151,1.86694,1.88659,52600,1.80572
2014-02-26,1.79816,1.9259,1.79816,1.89642,724800,1.81513
2014-02-25,1.76868,1.78833,1.71955,1.78833,13900,1.71167
2014-02-24,1.7392,1.76868,1.7392,1.76868,50100,1.69287
2014-02-21,1.72938,1.76868,1.72938,1.7392,23500,1.66465
2014-02-20,1.76868,1.79816,1.76868,1.79816,125300,1.72108
2014-02-19,1.76868,1.80798,1.76868,1.80798,119300,1.73048
2014-02-18,1.78833,1.79816,1.76868,1.79816,85600,1.72108
2014-02-17,1.80798,1.80798,1.80798,1.80798,000,1.73048
2014-02-14,1.80798,1.80798,1.80798,1.80798,8100,1.73048
2014-02-13,1.8129,1.8129,1.8129,1.8129,48600,1.73519
2014-02-12,1.8129,1.8129,1.79325,1.8129,27500,1.73519
2014-02-11,1.78833,1.78833,1.78833,1.78833,000,1.71167
2014-02-10,1.76868,1.78833,1.76868,1.78833,26900,1.71167
2014-02-07,1.71955,1.76868,1.71955,1.76868,17500,1.69287
2014-02-06,1.72938,1.72938,1.72938,1.72938,000,1.65525
2014-02-05,1.72938,1.72938,1.72938,1.72938,7600,1.65525
2014-02-04,1.67042,1.74903,1.67042,1.74903,64400,1.67406
2014-02-03,1.77851,1.77851,1.77851,1.77851,000,1.70228
2014-01-31,1.76868,1.78833,1.63112,1.77851,551400,1.70228
2014-01-30,1.81781,1.81781,1.81781,1.81781,000,1.73989
2014-01-29,1.81781,1.81781,1.81781,1.81781,000,1.73989
2014-01-28,1.72938,1.81781,1.72938,1.81781,21800,1.73989
2014-01-27,1.81781,1.81781,1.81781,1.81781,000,1.73989
2014-01-24,1.76868,1.81781,1.76868,1.81781,67300,1.73989
2014-01-23,1.78833,1.81781,1.76868,1.81781,17300,1.73989
2014-01-22,1.81781,1.81781,1.81781,1.81781,000,1.73989
2014-01-21,1.81781,1.81781,1.81781,1.81781,11400,1.73989
2014-01-20,1.79816,1.79816,1.77359,1.77359,4000,1.69757
2014-01-17,1.78833,1.78833,1.78833,1.78833,15900,1.71167
2014-01-16,1.76868,1.80798,1.76868,1.78833,15600,1.71167
2014-01-15,1.76868,1.76868,1.76868,1.76868,1000,1.69287
2014-01-14,1.78833,1.78833,1.78833,1.78833,1500,1.71167
2014-01-13,1.76868,1.79816,1.76868,1.76868,15900,1.69287
2014-01-10,1.78833,1.78833,1.76868,1.76868,9100,1.69287
2014-01-09,1.80798,1.80798,1.80798,1.80798,000,1.73048
2014-01-08,1.80798,1.80798,1.80798,1.80798,8100,1.73048
2014-01-07,1.80798,1.80798,1.80798,1.80798,5500,1.73048
2014-01-06,1.78833,1.80798,1.78833,1.80798,10600,1.73048
2014-01-03,1.81781,1.81781,1.73429,1.76868,10600,1.69287
2014-01-02,1.76868,1.81781,1.76868,1.81781,4500,1.73989
2014-01-01,1.76868,1.76868,1.76868,1.76868,000,1.69287
2013-12-31,1.76868,1.76868,1.76868,1.76868,20300,1.69287
2013-12-30,1.80798,1.85711,1.73429,1.73429,22400,1.65995
2013-12-27,1.73429,1.73429,1.73429,1.73429,000,1.65995
2013-12-26,1.73429,1.73429,1.73429,1.73429,000,1.65995
2013-12-25,1.73429,1.73429,1.73429,1.73429,000,1.65995
2013-12-24,1.73429,1.73429,1.70972,1.73429,17100,1.65995
2013-12-23,1.73429,1.74903,1.73429,1.74903,6600,1.67406
2013-12-20,1.71955,1.73429,1.71955,1.73429,4600,1.65995
2013-12-19,1.70972,1.74903,1.70972,1.71955,16000,1.64584
2013-12-18,1.76868,1.76868,1.70972,1.70972,24100,1.63643
2013-12-17,1.7392,1.74903,1.7392,1.74903,4200,1.67406
2013-12-16,1.76868,1.76868,1.75885,1.76377,44400,1.68817
2013-12-13,1.76868,1.76868,1.76868,1.76868,000,1.69287
2013-12-12,1.74903,1.76868,1.74903,1.76868,24400,1.69287
2013-12-11,1.74903,1.78342,1.71955,1.78342,269000,1.70697
2013-12-10,1.78833,1.8129,1.78833,1.8129,88500,1.73519
2013-12-09,1.83746,1.85711,1.77851,1.81781,214200,1.73989
2013-12-06,1.81781,1.85711,1.77851,1.83746,246800,1.7587
2013-12-05,1.81781,1.81781,1.81781,1.81781,21500,1.73989
2013-12-04,1.79816,1.80798,1.77851,1.80798,47600,1.73048
2013-12-03,1.82272,1.82272,1.76868,1.81781,18200,1.73989
2013-12-02,1.78833,1.78833,1.75394,1.78833,39400,1.71167
2013-11-29,1.75885,1.78833,1.74903,1.78833,36200,1.71167
2013-11-28,1.75885,1.75885,1.70481,1.75885,16600,1.68346
2013-11-27,1.72938,1.74903,1.71955,1.74903,23600,1.67406
2013-11-26,1.68516,1.72938,1.68516,1.72938,141400,1.65525
2013-11-25,1.67533,1.69007,1.67042,1.67042,1347100,1.59882
2013-11-22,1.6999,1.6999,1.6999,1.6999,22800,1.62703
2013-11-21,1.70972,1.70972,1.6999,1.6999,134600,1.62703
2013-11-20,1.71955,1.71955,1.71955,1.71955,000,1.64584
2013-11-19,1.71955,1.71955,1.71955,1.71955,000,1.64584
2013-11-18,1.75885,1.75885,1.6999,1.71955,42500,1.64584
2013-11-15,1.71955,1.75885,1.70972,1.75885,51500,1.68346
2013-11-14,1.6999,1.72938,1.6999,1.71955,1332700,1.64584
2013-11-13,1.6999,1.6999,1.67042,1.67042,49900,1.59882
2013-11-12,1.6999,1.6999,1.6999,1.6999,000,1.62703
2013-11-11,1.69007,1.6999,1.69007,1.6999,20100,1.62703
2013-11-08,1.68025,1.69007,1.59673,1.69007,52500,1.61763
2013-11-07,1.6999,1.6999,1.6999,1.6999,000,1.62703
2013-11-06,1.71955,1.72938,1.6999,1.6999,46800,1.62703
2013-11-05,1.71955,1.71955,1.6999,1.71955,7000,1.64584
2013-11-04,1.74903,1.74903,1.71955,1.72938,191100,1.65525
2013-11-01,1.72938,1.76377,1.72938,1.76377,9800,1.68817
2013-10-31,1.6999,1.72938,1.6999,1.72938,7500,1.65525
2013-10-30,1.73429,1.73429,1.72938,1.72938,33800,1.65525
2013-10-29,1.72938,1.75885,1.72938,1.75885,13400,1.68346
2013-10-28,1.7392,1.7392,1.72938,1.72938,47800,1.65525
2013-10-25,1.7392,1.75885,1.67042,1.71955,52100,1.64584
2013-10-24,1.7392,1.75885,1.67042,1.7392,26000,1.66465
2013-10-23,1.65077,1.78833,1.64094,1.72938,534200,1.65525
2013-10-22,1.61146,1.64094,1.61146,1.64094,38100,1.5706
2013-10-21,1.56725,1.57216,1.56233,1.56233,128200,1.49536
2013-10-18,1.55251,1.55251,1.54268,1.55251,64400,1.48596
2013-10-17,1.57707,1.58199,1.57216,1.57216,30500,1.50477
2013-10-16,1.57707,1.59181,1.56233,1.57707,102900,1.50947
2013-10-15,1.53777,1.60164,1.52303,1.58199,678000,1.51418
2013-10-14,1.65077,1.65077,1.64094,1.64094,65600,1.5706
2013-10-11,1.63603,1.66059,1.63603,1.66059,1700,1.58941
2013-10-10,1.62129,1.66551,1.62129,1.62129,43300,1.55179
2013-10-09,1.6262,1.6262,1.62129,1.62129,47100,1.55179
2013-10-08,1.66551,1.67042,1.66551,1.67042,5000,1.59882
2013-10-07,1.66059,1.67042,1.6262,1.67042,7800,1.59882
2013-10-04,1.62129,1.6262,1.62129,1.6262,61400,1.55649
2013-10-03,1.62129,1.62129,1.62129,1.62129,30800,1.55179
2013-10-02,1.62129,1.6262,1.62129,1.62129,236400,1.55179
2013-10-01,1.62129,1.65568,1.60655,1.6262,169400,1.55649
2013-09-30,1.62129,1.62129,1.61146,1.61146,91400,1.54239
2013-09-27,1.62129,1.62129,1.62129,1.62129,5000,1.55179
2013-09-26,1.57216,1.65568,1.57216,1.65568,1085300,1.58471
2013-09-25,1.56233,1.57216,1.54268,1.57216,39600,1.50477
2013-09-24,1.54268,1.58199,1.54268,1.58199,42200,1.51418
2013-09-23,1.54268,1.54268,1.53777,1.53777,44900,1.47185
2013-09-20,1.58199,1.58199,1.54268,1.54268,51100,1.47655
2013-09-19,1.58199,1.58199,1.58199,1.58199,764400,1.51418
2013-09-18,1.62129,1.62129,1.57216,1.58199,52800,1.51418
2013-09-17,1.62129,1.64094,1.60655,1.60655,258800,1.53769
2013-09-16,1.63112,1.63112,1.63112,1.63112,000,1.5612
2013-09-13,1.63112,1.63112,1.63112,1.63112,17600,1.5612
2013-09-12,1.62129,1.62129,1.60164,1.60164,570900,1.53299
2013-09-11,1.62129,1.64094,1.61638,1.62129,762000,1.54007
2013-09-10,1.59181,1.62129,1.58199,1.58199,149200,1.50274
2013-09-09,1.67042,1.67042,1.59181,1.59181,77000,1.51207
2013-09-06,1.67042,1.67042,1.67042,1.67042,13300,1.58674
2013-09-05,1.67533,1.70481,1.67042,1.67042,63800,1.58674
2013-09-04,1.72938,1.72938,1.67042,1.67042,363900,1.58674
2013-09-03,1.71955,1.72938,1.71955,1.72938,474000,1.64274
2013-09-02,1.71955,1.72938,1.71955,1.71955,556500,1.63341
2013-08-30,1.75885,1.75885,1.73429,1.73429,11900,1.64741
2013-08-29,1.67042,1.67042,1.66059,1.66059,118900,1.5774
2013-08-28,1.67042,1.67042,1.65077,1.65077,24800,1.56807
2013-08-27,1.71955,1.71955,1.71955,1.71955,35300,1.63341
2013-08-26,1.71955,1.71955,1.67042,1.71955,110700,1.63341
2013-08-23,1.6999,1.71955,1.6999,1.71955,10100,1.63341
2013-08-22,1.67042,1.67042,1.64094,1.67042,21300,1.58674
2013-08-21,1.62129,1.67042,1.62129,1.67042,91800,1.58674
2013-08-20,1.62129,1.62129,1.59181,1.59181,13000,1.51207
2013-08-19,1.6999,1.6999,1.67042,1.67042,10100,1.58674
2013-08-16,1.71955,1.71955,1.71955,1.71955,138500,1.63341
2013-08-15,1.75885,1.75885,1.74903,1.74903,8100,1.66141
2013-08-14,1.71464,1.71955,1.71464,1.71955,13100,1.63341
2013-08-13,1.67533,1.71955,1.67533,1.68025,35800,1.59608
2013-08-12,1.6999,1.6999,1.67042,1.67042,20500,1.58674
2013-08-09,1.71955,1.71955,1.70481,1.70481,25400,1.61941
2013-08-08,1.67042,1.70972,1.67042,1.70972,39600,1.62407
2013-08-07,1.69007,1.71955,1.67042,1.67042,827700,1.58674
2013-08-06,1.62129,1.72446,1.62129,1.71955,1168000,1.63341
2013-08-05,1.66551,1.66551,1.66551,1.66551,000,1.58207
2013-08-02,1.62129,1.66551,1.62129,1.66551,10600,1.58207
2013-08-01,1.63112,1.65077,1.62129,1.62129,42200,1.54007
2013-07-31,1.60164,1.60164,1.60164,1.60164,12200,1.5214
2013-07-30,1.59181,1.61146,1.59181,1.60164,13300,1.5214
2013-07-29,1.60164,1.60164,1.59181,1.59181,37500,1.51207
2013-07-26,1.60164,1.63112,1.59181,1.60164,100100,1.5214
2013-07-25,1.58199,1.60655,1.58199,1.58199,35800,1.50274
2013-07-24,1.57216,1.62129,1.57216,1.57216,188200,1.4934
2013-07-23,1.57216,1.59181,1.57216,1.57216,236900,1.4934
2013-07-22,1.58199,1.58199,1.57216,1.57216,29500,1.4934
2013-07-19,1.5869,1.63112,1.58199,1.62129,39100,1.54007
2013-07-18,1.63112,1.63112,1.62129,1.63112,9100,1.54941
2013-07-17,1.63112,1.63112,1.61146,1.63112,198600,1.54941
2013-07-16,1.61146,1.67042,1.61146,1.67042,27400,1.58674
2013-07-15,1.55251,1.61146,1.55251,1.61146,27300,1.53073
2013-07-12,1.59181,1.61146,1.57216,1.57216,56500,1.4934
2013-07-11,1.60164,1.62129,1.57216,1.57216,32500,1.4934
2013-07-10,1.58199,1.65077,1.58199,1.60164,64000,1.5214
2013-07-09,1.53286,1.55251,1.53286,1.55251,52500,1.47474
2013-07-08,1.5132,1.58199,1.5132,1.58199,67700,1.50274
2013-07-05,1.50338,1.50338,1.49847,1.49847,15200,1.4234
2013-07-04,1.45425,1.52303,1.45425,1.50338,153600,1.42807
2013-07-03,1.45425,1.45425,1.45425,1.45425,69800,1.3814
2013-07-02,1.44442,1.46407,1.44442,1.46407,58000,1.39073
2013-07-01,1.46407,1.46407,1.44442,1.44442,406700,1.37206
2013-06-28,1.44934,1.46407,1.44442,1.44934,125900,1.37673
2013-06-27,1.45425,1.4739,1.44442,1.44442,64400,1.37206
2013-06-26,1.4346,1.4739,1.4346,1.46407,53200,1.39073
2013-06-25,1.42477,1.4346,1.42477,1.42968,109900,1.35806
2013-06-24,1.4346,1.4346,1.42477,1.42477,25400,1.35339
2013-06-21,1.41494,1.42477,1.41494,1.42477,183300,1.35339
2013-06-20,1.42477,1.42477,1.42477,1.42477,38100,1.35339
2013-06-19,1.4346,1.44442,1.42477,1.43951,95700,1.3674
2013-06-18,1.4346,1.4346,1.42477,1.42477,171900,1.35339
2013-06-17,1.42477,1.44442,1.42477,1.4346,184300,1.36273
2013-06-14,1.40512,1.4346,1.39529,1.4346,145300,1.36273
2013-06-13,1.37564,1.38055,1.37564,1.38055,486800,1.31139
2013-06-12,1.37564,1.41494,1.37564,1.38547,166000,1.31606
2013-06-11,1.38547,1.39038,1.38055,1.38547,120000,1.31606
2013-06-10,1.39529,1.39529,1.39529,1.39529,000,1.32539
2013-06-07,1.42477,1.4346,1.39529,1.39529,45700,1.32539
2013-06-06,1.48373,1.48373,1.42477,1.42477,45700,1.35339
2013-06-05,1.4739,1.48373,1.45425,1.4739,477100,1.40006
2013-06-04,1.46407,1.48373,1.46407,1.48373,231200,1.4094
2013-06-03,1.4346,1.45425,1.41494,1.45425,144500,1.3814
2013-05-31,1.39529,1.4346,1.39529,1.4346,92200,1.36273
2013-05-30,1.40512,1.40512,1.38547,1.39529,103800,1.32539
2013-05-29,1.41494,1.41494,1.40512,1.40512,98600,1.33473
2013-05-28,1.42477,1.45425,1.42477,1.42477,148100,1.35339
2013-05-27,1.41986,1.42477,1.41986,1.42477,191500,1.35339
2013-05-24,1.4346,1.45916,1.42477,1.42477,313500,1.35339
2013-05-23,1.4346,1.4346,1.40512,1.42477,660300,1.35339
2013-05-22,1.4346,1.4346,1.41494,1.42968,572900,1.35806
2013-05-21,1.45425,1.45425,1.41986,1.42477,715100,1.35339
2013-05-20,1.4346,1.46407,1.41986,1.45916,1405200,1.38606
2013-05-17,1.4739,1.4739,1.42477,1.42477,859300,1.35339
2013-05-16,1.50829,1.5132,1.41986,1.4739,1501800,1.40006
2013-05-15,1.37564,1.48864,1.32651,1.48864,12241300,1.41406
