Date,Open,High,Low,Close,Volume,Adj Close
2017-01-10,4.48,4.57,4.46,4.52,65200,4.52
2017-01-09,4.50,4.50,4.44,4.48,64600,4.48
2017-01-06,4.55,4.55,4.45,4.48,16900,4.48
2017-01-05,4.62,4.63,4.35,4.53,86300,4.53
2017-01-04,4.69,4.69,4.62,4.62,59600,4.62
2017-01-03,4.59,4.68,4.55,4.62,45800,4.62
2017-01-02,4.59,4.59,4.59,4.59,000,4.59
2016-12-30,4.51,4.59,4.51,4.59,13400,4.59
2016-12-29,4.54,4.59,4.50,4.58,47600,4.58
2016-12-28,4.42,4.60,4.42,4.54,78000,4.54
2016-12-27,4.47,4.47,4.47,4.47,000,4.47
2016-12-26,4.47,4.47,4.47,4.47,000,4.47
2016-12-23,4.43,4.47,4.40,4.47,35800,4.47
2016-12-22,4.46,4.46,4.355,4.42,72300,4.42
2016-12-21,4.43,4.46,4.42,4.45,60300,4.45
2016-12-20,4.35,4.51,4.305,4.42,91000,4.42
2016-12-19,4.39,4.40,4.34,4.34,20100,4.34
2016-12-16,4.30,4.40,4.28,4.40,50100,4.40
2016-12-15,4.34,4.39,4.28,4.35,78200,4.35
2016-12-14,4.30,4.38,4.30,4.35,53300,4.35
2016-12-13,4.25,4.37,4.24,4.27,135100,4.27
2016-12-12,4.25,4.29,4.21,4.25,98800,4.25
2016-12-09,4.10,4.28,4.07,4.25,201300,4.25
2016-12-08,3.97,4.06,3.96,4.06,94500,4.06
2016-12-07,3.87,3.96,3.77,3.96,108400,3.96
2016-12-06,3.97,3.97,3.88,3.92,120100,3.92
2016-12-05,3.95,4.00,3.90,4.00,98100,4.00
2016-12-02,4.00,4.02,3.63,3.95,241100,3.95
2016-12-01,4.05,4.06,3.99,4.02,72000,4.02
2016-11-30,4.05,4.06,4.00,4.04,113600,4.04
2016-11-29,4.05,4.08,4.05,4.05,41900,4.05
2016-11-28,4.06,4.10,4.05,4.05,24100,4.05
2016-11-25,4.12,4.12,4.06,4.06,48900,4.06
2016-11-24,4.13,4.16,4.10,4.13,37700,4.13
2016-11-23,4.11,4.18,4.10,4.15,62900,4.15
2016-11-22,4.13,4.15,4.08,4.09,70800,4.09
2016-11-21,4.15,4.18,4.14,4.18,51400,4.18
2016-11-18,4.17,4.20,4.14,4.19,102000,4.19
2016-11-17,4.15,4.19,4.11,4.16,93500,4.16
2016-11-16,4.21,4.21,4.12,4.14,58900,4.14
2016-11-15,4.31,4.31,4.13,4.14,17100,4.14
2016-11-14,4.34,4.34,4.13,4.14,25700,4.14
2016-11-11,4.21,4.28,4.18,4.18,40500,4.18
2016-11-10,4.14,4.24,4.13,4.24,222200,4.24
2016-11-09,4.11,4.17,4.05,4.12,375200,4.12
2016-11-08,4.11,4.15,4.08,4.10,85400,4.10
2016-11-07,4.10,4.15,4.03,4.07,146600,4.07
2016-11-04,4.19,4.19,4.06,4.10,123300,4.10
2016-11-03,4.11,4.21,4.11,4.19,52800,4.19
2016-11-02,4.23,4.24,4.12,4.19,193600,4.19
2016-11-01,4.28,4.28,4.23,4.24,40600,4.24
2016-10-31,4.35,4.35,4.26,4.27,108200,4.27
2016-10-28,4.35,4.42,4.31,4.40,140500,4.40
2016-10-27,4.43,4.50,4.35,4.35,179500,4.35
2016-10-26,4.32,4.43,4.32,4.38,125500,4.38
2016-10-25,4.23,4.32,4.21,4.29,75500,4.29
2016-10-24,4.23,4.26,4.21,4.22,57900,4.22
2016-10-21,4.29,4.31,4.23,4.23,111600,4.23
2016-10-20,4.33,4.34,4.29,4.29,86900,4.29
2016-10-19,4.36,4.42,4.31,4.31,85700,4.31
2016-10-18,4.30,4.37,4.27,4.34,277500,4.34
2016-10-17,4.42,4.42,4.27,4.30,162900,4.30
2016-10-14,4.28,4.45,4.23,4.37,583000,4.37
2016-10-13,4.42,4.43,4.25,4.25,374000,4.25
2016-10-12,4.44,4.45,4.42,4.42,73500,4.42
2016-10-11,4.43,4.44,4.41,4.42,78600,4.42
2016-10-10,4.29,4.46,4.29,4.43,61900,4.43
2016-10-07,4.36,4.36,4.26,4.29,56000,4.29
2016-10-06,4.33,4.40,4.32,4.36,39300,4.36
2016-10-05,4.44,4.44,4.32,4.32,89200,4.32
2016-10-04,4.46,4.46,4.41,4.43,78200,4.43
2016-10-03,4.53,4.53,4.44,4.46,16100,4.46
2016-09-30,4.52,4.52,4.44,4.44,87300,4.44
2016-09-29,4.46,4.54,4.44,4.48,44100,4.48
2016-09-28,4.475,4.52,4.44,4.48,140300,4.48
2016-09-27,4.44,4.50,4.43,4.47,46800,4.47
2016-09-26,4.53,4.54,4.43,4.46,65900,4.46
2016-09-23,4.55,4.55,4.45,4.45,81200,4.45
2016-09-22,4.48,4.54,4.36,4.48,224200,4.48
2016-09-21,4.55,4.55,4.50,4.51,55600,4.403
2016-09-20,4.62,4.65,4.50,4.53,90400,4.422
2016-09-19,4.70,4.70,4.61,4.63,13300,4.52
2016-09-16,4.56,4.71,4.51,4.71,325000,4.598
2016-09-15,4.59,4.63,4.53,4.55,114900,4.442
2016-09-14,4.52,4.63,4.51,4.59,91500,4.481
2016-09-13,4.60,4.60,4.50,4.52,44500,4.413
2016-09-12,4.60,4.60,4.50,4.50,66700,4.393
2016-09-09,4.63,4.64,4.58,4.58,52000,4.471
2016-09-08,4.61,4.675,4.60,4.63,62700,4.52
2016-09-07,4.57,4.65,4.55,4.61,78200,4.501
2016-09-06,4.58,4.61,4.545,4.57,52700,4.461
2016-09-05,4.53,4.57,4.37,4.55,242700,4.442
2016-09-02,4.58,4.62,4.53,4.53,116800,4.422
2016-09-01,4.64,4.64,4.58,4.59,36600,4.481
2016-08-31,4.62,4.66,4.60,4.62,41400,4.51
2016-08-30,4.67,4.69,4.59,4.61,41500,4.501
2016-08-29,4.77,4.77,4.57,4.67,117500,4.559
2016-08-26,4.75,4.79,4.65,4.67,111200,4.559
2016-08-25,4.79,4.80,4.755,4.77,86200,4.657
2016-08-24,4.77,4.79,4.74,4.78,72600,4.666
2016-08-23,4.78,4.80,4.75,4.78,135500,4.666
2016-08-22,4.72,4.83,4.70,4.78,85700,4.666
2016-08-19,4.79,4.79,4.71,4.73,46900,4.618
2016-08-18,4.77,4.81,4.75,4.80,115000,4.686
2016-08-17,4.75,4.83,4.75,4.79,96100,4.676
2016-08-16,4.77,4.84,4.76,4.76,256000,4.647
2016-08-15,4.70,4.80,4.70,4.75,206000,4.637
2016-08-12,4.74,4.75,4.68,4.71,458000,4.598
2016-08-11,4.70,4.81,4.65,4.72,810500,4.608
2016-08-10,4.27,4.48,4.26,4.40,250400,4.296
2016-08-09,4.25,4.27,4.23,4.25,61300,4.149
2016-08-08,4.26,4.27,4.21,4.24,346700,4.139
2016-08-05,4.31,4.31,4.25,4.27,66600,4.169
2016-08-04,4.37,4.38,4.28,4.30,443400,4.198
2016-08-03,4.31,4.35,4.28,4.34,161500,4.237
2016-08-02,4.24,4.34,4.23,4.30,224200,4.198
2016-08-01,4.10,4.29,4.10,4.24,106200,4.139
2016-07-29,4.10,4.17,4.03,4.11,218300,4.012
2016-07-28,4.24,4.37,4.04,4.10,96100,4.003
2016-07-27,4.30,4.30,4.20,4.25,96000,4.149
2016-07-26,4.28,4.30,4.21,4.27,48900,4.169
2016-07-25,4.30,4.38,4.25,4.28,29900,4.178
2016-07-22,4.38,4.38,4.25,4.28,12300,4.178
2016-07-21,4.28,4.35,4.25,4.29,102400,4.188
2016-07-20,4.30,4.31,4.25,4.28,58200,4.178
2016-07-19,4.28,4.30,4.28,4.30,205800,4.198
2016-07-18,4.28,4.30,4.25,4.30,41800,4.198
2016-07-15,4.30,4.30,4.21,4.30,54000,4.198
2016-07-14,4.27,4.39,4.25,4.30,17700,4.198
2016-07-13,4.37,4.40,4.25,4.30,41000,4.198
2016-07-12,4.32,4.44,4.28,4.37,58300,4.266
2016-07-11,4.35,4.43,4.30,4.34,53400,4.237
2016-07-08,4.30,4.38,4.30,4.33,34400,4.227
2016-07-07,4.30,4.37,4.28,4.35,74300,4.247
2016-07-06,4.27,4.34,4.22,4.30,61000,4.198
2016-07-05,4.16,4.29,4.16,4.23,67900,4.13
2016-07-04,4.12,4.22,4.12,4.19,66400,4.09
2016-07-01,4.11,4.15,4.09,4.10,128500,4.003
2016-06-30,4.06,4.13,4.04,4.08,139700,3.983
2016-06-29,4.09,4.14,4.00,4.06,193100,3.964
2016-06-28,4.06,4.17,3.99,4.09,219300,3.993
2016-06-27,4.16,4.16,3.84,4.10,279000,4.003
2016-06-24,4.26,4.35,4.05,4.17,131700,4.071
2016-06-23,4.32,4.36,4.21,4.29,365500,4.188
2016-06-22,4.42,4.42,4.35,4.36,57500,4.256
2016-06-21,4.47,4.50,4.38,4.41,86300,4.305
2016-06-20,4.45,4.50,4.41,4.50,44100,4.393
2016-06-17,4.42,4.46,4.41,4.45,57300,4.344
2016-06-16,4.49,4.51,4.42,4.42,72400,4.315
2016-06-15,4.42,4.49,4.36,4.48,89300,4.374
2016-06-14,4.52,4.55,4.41,4.42,76100,4.315
2016-06-13,4.57,4.57,4.57,4.57,000,4.461
2016-06-10,4.63,4.64,4.54,4.57,45100,4.461
2016-06-09,4.65,4.65,4.61,4.64,71700,4.53
2016-06-08,4.60,4.655,4.56,4.64,129600,4.53
2016-06-07,4.57,4.57,4.50,4.56,67100,4.452
2016-06-06,4.60,4.60,4.55,4.57,90200,4.461
2016-06-03,4.64,4.64,4.52,4.60,80100,4.491
2016-06-02,4.52,4.64,4.50,4.64,54900,4.53
2016-06-01,4.62,4.63,4.54,4.57,35600,4.461
2016-05-31,4.63,4.65,4.60,4.61,66100,4.501
2016-05-30,4.58,4.65,4.57,4.60,63400,4.491
2016-05-27,4.55,4.63,4.50,4.57,61700,4.461
2016-05-26,4.63,4.63,4.46,4.51,94700,4.403
2016-05-25,4.56,4.68,4.54,4.61,66500,4.501
2016-05-24,4.46,4.64,4.40,4.56,105900,4.452
2016-05-23,4.44,4.49,4.31,4.40,91500,4.296
2016-05-20,4.49,4.50,4.36,4.46,65600,4.354
2016-05-19,4.53,4.58,4.44,4.44,1433200,4.335
2016-05-18,4.60,4.60,4.50,4.55,41400,4.442
2016-05-17,4.55,4.60,4.48,4.60,50800,4.491
2016-05-16,4.60,4.65,4.52,4.53,82200,4.422
2016-05-13,4.65,4.70,4.57,4.61,37600,4.501
2016-05-12,4.66,4.66,4.57,4.61,71600,4.501
2016-05-11,4.62,4.69,4.62,4.66,39000,4.549
2016-05-10,4.55,4.63,4.48,4.60,128200,4.491
2016-05-09,4.70,4.735,4.47,4.62,257200,4.51
2016-05-06,4.63,4.70,4.63,4.69,145500,4.579
2016-05-05,4.68,4.70,4.60,4.63,59600,4.52
2016-05-04,4.62,4.70,4.61,4.65,75300,4.54
2016-05-03,4.60,4.69,4.56,4.62,94300,4.51
2016-05-02,4.68,4.71,4.52,4.55,220600,4.442
2016-04-29,4.67,4.69,4.61,4.65,61800,4.54
2016-04-28,4.69,4.73,4.64,4.67,199200,4.559
2016-04-27,4.70,4.85,4.65,4.67,287500,4.559
2016-04-26,4.46,4.61,4.45,4.61,160300,4.501
2016-04-25,4.45,4.45,4.45,4.45,000,4.344
2016-04-22,4.45,4.48,4.42,4.45,105900,4.344
2016-04-21,4.48,4.50,4.42,4.45,241900,4.344
2016-04-20,4.48,4.48,4.44,4.46,86000,4.354
2016-04-19,4.50,4.51,4.44,4.47,158000,4.364
2016-04-18,4.48,4.59,4.40,4.50,282800,4.393
2016-04-15,4.41,4.42,4.39,4.41,413500,4.305
2016-04-14,4.35,4.42,4.345,4.40,101900,4.296
2016-04-13,4.355,4.41,4.34,4.35,92900,4.247
2016-04-12,4.39,4.43,4.35,4.38,92300,4.276
2016-04-11,4.40,4.42,4.36,4.40,135000,4.296
2016-04-08,4.27,4.40,4.27,4.35,105100,4.247
2016-04-07,4.35,4.35,4.26,4.29,115100,4.188
2016-04-06,4.27,4.40,4.23,4.33,186900,4.227
2016-04-05,4.30,4.32,4.24,4.28,71100,4.178
2016-04-04,4.48,4.50,4.31,4.33,165700,4.227
2016-04-01,4.23,4.45,4.23,4.42,88100,4.315
2016-03-31,4.23,4.38,4.23,4.29,70200,4.188
2016-03-30,4.39,4.39,4.23,4.27,187800,4.106
2016-03-29,4.26,4.44,4.26,4.38,185700,4.212
2016-03-28,4.17,4.17,4.17,4.17,000,4.01
2016-03-25,4.17,4.17,4.17,4.17,000,4.01
2016-03-24,4.35,4.35,4.13,4.17,190900,4.01
2016-03-23,4.38,4.48,4.17,4.33,277600,4.164
2016-03-22,4.24,4.35,4.21,4.35,156400,4.183
2016-03-21,4.22,4.25,4.18,4.20,81600,4.039
2016-03-18,4.30,4.31,4.10,4.20,1429700,4.039
2016-03-17,4.20,4.29,4.20,4.29,315600,4.125
2016-03-16,4.18,4.20,4.12,4.15,160900,3.99
2016-03-15,4.27,4.35,4.16,4.20,178900,4.039
2016-03-14,4.23,4.30,4.17,4.30,216900,4.135
2016-03-11,4.11,4.26,4.11,4.21,341200,4.048
2016-03-10,3.88,4.18,3.88,4.07,211000,3.914
2016-03-09,3.81,3.92,3.81,3.88,140200,3.731
2016-03-08,3.90,3.91,3.81,3.85,128800,3.702
2016-03-07,4.05,4.08,3.81,3.86,187500,3.712
2016-03-04,4.10,4.10,4.00,4.05,138200,3.894
2016-03-03,3.99,4.06,3.95,3.97,161700,3.817
2016-03-02,3.99,4.09,3.97,3.98,249800,3.827
2016-03-01,3.94,4.00,3.91,4.00,81000,3.846
2016-02-29,3.94,3.95,3.91,3.94,49300,3.789
2016-02-26,3.90,4.00,3.87,3.95,129900,3.798
2016-02-25,3.97,4.00,3.86,3.86,72900,3.712
2016-02-24,4.02,4.05,3.93,3.96,94300,3.808
2016-02-23,4.00,4.04,3.98,4.00,84900,3.846
2016-02-22,4.00,4.04,3.95,4.00,160900,3.846
2016-02-19,4.00,4.05,3.96,3.99,125700,3.837
2016-02-18,3.99,4.05,3.98,4.00,176600,3.846
2016-02-17,4.13,4.13,3.90,3.96,151900,3.808
2016-02-16,4.26,4.35,4.11,4.13,326800,3.971
2016-02-15,3.90,4.06,3.88,4.06,130400,3.904
2016-02-12,3.84,3.98,3.83,3.90,122800,3.75
2016-02-11,3.80,3.90,3.77,3.87,72800,3.721
2016-02-10,3.89,3.94,3.70,3.77,110000,3.625
2016-02-09,3.95,3.95,3.88,3.89,78100,3.74
2016-02-08,4.00,4.00,3.87,4.00,85000,3.846
2016-02-05,3.86,4.07,3.86,4.03,98000,3.875
2016-02-04,3.77,3.85,3.75,3.85,153500,3.702
2016-02-03,3.80,3.80,3.72,3.75,45100,3.606
2016-02-02,3.76,3.80,3.76,3.77,54200,3.625
2016-02-01,3.74,3.80,3.65,3.76,59000,3.615
2016-01-29,3.77,3.78,3.70,3.75,23500,3.606
2016-01-28,3.75,3.80,3.70,3.78,69500,3.635
2016-01-27,3.75,3.80,3.70,3.76,25800,3.615
2016-01-26,3.78,3.78,3.78,3.78,000,3.635
2016-01-25,3.74,3.80,3.60,3.78,44800,3.635
2016-01-22,3.58,3.72,3.57,3.72,39100,3.577
2016-01-21,3.60,3.61,3.50,3.55,15800,3.414
2016-01-20,3.47,3.65,3.47,3.61,75600,3.471
2016-01-19,3.38,3.50,3.35,3.45,42500,3.317
2016-01-18,3.43,3.50,3.35,3.43,39700,3.298
2016-01-15,3.42,3.55,3.42,3.50,21800,3.365
2016-01-14,3.32,3.45,3.30,3.45,51300,3.317
2016-01-13,3.30,3.32,3.25,3.30,409400,3.173
2016-01-12,3.33,3.33,3.14,3.28,336800,3.154
2016-01-11,3.36,3.38,3.33,3.33,130000,3.202
2016-01-08,3.42,3.45,3.35,3.36,96400,3.231
2016-01-07,3.40,3.46,3.35,3.44,45600,3.308
2016-01-06,3.44,3.50,3.44,3.47,29100,3.337
2016-01-05,3.33,3.51,3.33,3.46,66600,3.327
2016-01-04,3.53,3.59,3.44,3.49,29600,3.356
2016-01-01,3.58,3.58,3.58,3.58,000,3.442
2015-12-31,3.56,3.60,3.53,3.58,76200,3.442
2015-12-30,3.58,3.61,3.50,3.58,105800,3.442
2015-12-29,3.60,3.60,3.53,3.56,49300,3.423
2015-12-28,3.60,3.60,3.60,3.60,000,3.462
2015-12-25,3.60,3.60,3.60,3.60,000,3.462
2015-12-24,3.67,3.74,3.59,3.60,107000,3.462
2015-12-23,3.64,3.68,3.63,3.64,52700,3.50
2015-12-22,3.59,3.73,3.59,3.65,38000,3.51
2015-12-21,3.75,3.75,3.60,3.60,14300,3.462
2015-12-18,3.65,3.75,3.61,3.75,36600,3.606
2015-12-17,3.60,3.65,3.50,3.65,40700,3.51
2015-12-16,3.43,3.60,3.39,3.60,134200,3.462
2015-12-15,3.45,3.46,3.29,3.40,129500,3.269
2015-12-14,3.52,3.60,3.47,3.50,222800,3.365
2015-12-11,3.60,3.60,3.50,3.56,29600,3.423
2015-12-10,3.55,3.62,3.55,3.60,20200,3.462
2015-12-09,3.53,3.62,3.52,3.55,76200,3.414
2015-12-08,3.57,3.57,3.52,3.52,44000,3.385
2015-12-07,3.60,3.64,3.50,3.57,54000,3.433
2015-12-04,3.62,3.65,3.53,3.63,106000,3.49
2015-12-03,3.68,3.69,3.64,3.66,34100,3.519
2015-12-02,3.68,3.71,3.66,3.69,59700,3.548
2015-12-01,3.61,3.71,3.61,3.70,114600,3.558
2015-11-30,3.63,3.695,3.61,3.61,52500,3.471
2015-11-27,3.70,3.75,3.65,3.65,26200,3.51
2015-11-26,3.75,3.75,3.70,3.70,101100,3.558
2015-11-25,3.795,3.80,3.70,3.70,73400,3.558
2015-11-24,3.80,3.86,3.75,3.75,125300,3.606
2015-11-23,3.74,3.92,3.73,3.85,167100,3.702
2015-11-20,3.70,3.77,3.66,3.70,111400,3.558
2015-11-19,3.57,3.74,3.57,3.70,103200,3.558
2015-11-18,3.46,3.60,3.45,3.49,105100,3.356
2015-11-17,3.49,3.53,3.45,3.46,137900,3.327
2015-11-16,3.48,3.50,3.47,3.49,70700,3.356
2015-11-13,3.49,3.54,3.49,3.50,70900,3.365
2015-11-12,3.50,3.55,3.45,3.50,86900,3.365
2015-11-11,3.50,3.58,3.48,3.55,84500,3.414
2015-11-10,3.52,3.52,3.46,3.49,74200,3.356
2015-11-09,3.43,3.57,3.40,3.53,112200,3.394
2015-11-06,3.56,3.56,3.37,3.39,146700,3.26
2015-11-05,3.57,3.58,3.51,3.56,97000,3.423
2015-11-04,3.75,3.75,3.62,3.62,124500,3.481
2015-11-03,3.74,3.78,3.65,3.75,68400,3.606
2015-11-02,3.67,3.89,3.62,3.70,181300,3.558
2015-10-30,3.53,3.70,3.525,3.66,25000,3.519
2015-10-29,3.64,3.64,3.48,3.50,281000,3.365
2015-10-28,3.62,3.67,3.55,3.55,473100,3.414
2015-10-27,3.51,3.63,3.51,3.56,259900,3.423
2015-10-26,3.60,3.60,3.54,3.58,41200,3.442
2015-10-23,3.50,3.59,3.47,3.59,236500,3.452
2015-10-22,3.50,3.52,3.47,3.50,174400,3.365
2015-10-21,3.57,3.57,3.48,3.50,217400,3.365
2015-10-20,3.48,3.59,3.48,3.57,311100,3.433
2015-10-19,3.65,3.65,3.56,3.58,222000,3.442
2015-10-16,3.50,3.65,3.50,3.60,191200,3.462
2015-10-15,3.48,3.50,3.47,3.49,75300,3.356
2015-10-14,3.48,3.50,3.47,3.48,180700,3.346
2015-10-13,3.39,3.47,3.37,3.47,137500,3.337
2015-10-12,3.27,3.39,3.27,3.38,125600,3.25
2015-10-09,3.46,3.46,3.21,3.24,209800,3.115
2015-10-08,3.50,3.50,3.46,3.48,291300,3.346
2015-10-07,3.38,3.57,3.38,3.48,469100,3.346
2015-10-06,3.35,3.38,3.28,3.36,279600,3.231
2015-10-05,3.38,3.38,3.31,3.33,102200,3.202
2015-10-02,3.26,3.39,3.26,3.38,191700,3.25
2015-10-01,3.23,3.28,3.22,3.27,184800,3.144
2015-09-30,3.29,3.29,3.14,3.20,207800,3.077
2015-09-29,3.10,3.20,3.06,3.20,174000,3.077
2015-09-28,3.11,3.20,3.11,3.15,420300,3.029
2015-09-25,3.05,3.07,3.02,3.05,270400,2.933
2015-09-24,3.00,3.05,3.00,3.01,699600,2.894
2015-09-23,2.99,3.15,2.99,3.10,201300,2.981
2015-09-22,3.04,3.10,2.99,3.05,751100,2.933
2015-09-21,3.06,3.065,2.95,3.02,666400,2.904
2015-09-18,3.16,3.20,3.04,3.06,1876900,2.942
2015-09-17,2.77,2.77,2.77,2.77,000,2.663
2015-09-16,2.77,2.77,2.77,2.77,000,2.663
2015-09-15,2.77,2.82,2.75,2.77,54900,2.663
2015-09-14,2.61,2.73,2.61,2.70,118300,2.596
2015-09-11,2.52,2.60,2.52,2.60,11700,2.50
2015-09-10,2.49,2.50,2.49,2.50,23200,2.404
2015-09-09,2.47,2.52,2.47,2.52,66100,2.368
2015-09-08,2.50,2.50,2.50,2.50,10000,2.349
2015-09-07,2.50,2.50,2.50,2.50,6100,2.349
2015-09-04,2.47,2.50,2.47,2.47,5500,2.321
2015-09-03,2.44,2.44,2.44,2.44,4400,2.293
2015-09-02,2.49,2.49,2.44,2.44,7500,2.293
2015-09-01,2.50,2.54,2.48,2.50,133000,2.349
2015-08-31,2.44,2.45,2.44,2.45,2400,2.302
2015-08-28,2.49,2.50,2.43,2.43,25300,2.284
2015-08-27,2.50,2.50,2.50,2.50,9300,2.349
2015-08-26,2.49,2.50,2.46,2.50,22500,2.349
2015-08-25,2.40,2.49,2.34,2.49,6500,2.34
2015-08-24,2.42,2.45,2.33,2.33,35100,2.19
2015-08-21,2.42,2.45,2.41,2.42,43100,2.274
2015-08-20,2.45,2.45,2.37,2.38,25600,2.237
2015-08-19,2.55,2.55,2.45,2.45,70900,2.302
2015-08-18,2.40,2.40,2.40,2.40,000,2.255
2015-08-17,2.50,2.50,2.40,2.40,11000,2.255
2015-08-14,2.40,2.40,2.40,2.40,7000,2.255
2015-08-13,2.37,2.37,2.37,2.37,000,2.227
2015-08-12,2.37,2.37,2.37,2.37,600,2.227
2015-08-11,2.35,2.40,2.35,2.40,12800,2.255
2015-08-10,2.37,2.37,2.35,2.35,6300,2.208
2015-08-07,2.37,2.37,2.37,2.37,000,2.227
2015-08-06,2.34,2.37,2.34,2.37,3800,2.227
2015-08-05,2.33,2.34,2.30,2.30,24500,2.161
2015-08-04,2.33,2.33,2.33,2.33,800,2.19
2015-08-03,2.30,2.33,2.30,2.33,7400,2.19
2015-07-31,2.24,2.28,2.24,2.28,27200,2.143
2015-07-30,2.16,2.23,2.15,2.23,10800,2.096
2015-07-29,2.25,2.27,2.10,2.15,92700,2.02
2015-07-28,2.27,2.29,2.25,2.25,17400,2.114
2015-07-27,2.30,2.30,2.30,2.30,8600,2.161
2015-07-24,2.30,2.32,2.29,2.29,16700,2.152
2015-07-23,2.30,2.30,2.24,2.27,34000,2.133
2015-07-22,2.33,2.34,2.30,2.30,6000,2.161
2015-07-21,2.30,2.33,2.26,2.33,21000,2.19
2015-07-20,2.30,2.30,2.30,2.30,8300,2.161
2015-07-17,2.30,2.37,2.30,2.35,9300,2.208
2015-07-16,2.30,2.39,2.24,2.30,19500,2.161
2015-07-15,2.31,2.31,2.21,2.30,13000,2.161
2015-07-14,2.35,2.35,2.31,2.31,9200,2.171
2015-07-13,2.38,2.38,2.38,2.38,000,2.237
2015-07-10,2.39,2.39,2.38,2.38,11800,2.237
2015-07-09,2.25,2.25,2.20,2.20,15000,2.067
2015-07-08,2.32,2.34,2.25,2.25,15200,2.114
2015-07-07,2.25,2.25,2.22,2.22,2000,2.086
2015-07-06,2.21,2.31,2.20,2.25,20600,2.114
2015-07-03,2.29,2.29,2.21,2.21,4900,2.077
2015-07-02,2.21,2.21,2.21,2.21,000,2.077
2015-07-01,2.19,2.21,2.19,2.21,95600,2.077
2015-06-30,2.19,2.19,2.18,2.19,14700,2.058
2015-06-29,2.25,2.25,2.15,2.17,49900,2.039
2015-06-26,2.21,2.28,2.21,2.22,8700,2.086
2015-06-25,2.25,2.25,2.21,2.21,8600,2.077
2015-06-24,2.19,2.24,2.19,2.24,26100,2.105
2015-06-23,2.33,2.35,2.14,2.18,40600,2.049
2015-06-22,2.33,2.35,2.32,2.32,26400,2.18
2015-06-19,2.38,2.42,2.32,2.33,16100,2.19
2015-06-18,2.34,2.38,2.33,2.38,11000,2.237
2015-06-17,2.35,2.38,2.33,2.34,30900,2.199
2015-06-16,2.33,2.38,2.33,2.33,20500,2.19
2015-06-15,2.49,2.49,2.23,2.33,645400,2.19
2015-06-12,2.54,2.54,2.49,2.49,38300,2.34
2015-06-11,2.52,2.52,2.51,2.51,9000,2.359
2015-06-10,2.52,2.52,2.51,2.51,5000,2.359
2015-06-09,2.52,2.52,2.52,2.52,2000,2.368
2015-06-08,2.54,2.54,2.54,2.54,000,2.387
2015-06-05,2.54,2.54,2.54,2.54,3400,2.387
2015-06-04,2.52,2.52,2.52,2.52,000,2.368
2015-06-03,2.52,2.55,2.51,2.52,7900,2.368
2015-06-02,2.54,2.55,2.54,2.54,12600,2.387
2015-06-01,2.55,2.55,2.54,2.55,18000,2.396
2015-05-29,2.55,2.55,2.55,2.55,7000,2.396
2015-05-28,2.51,2.55,2.51,2.55,15900,2.396
2015-05-27,2.51,2.51,2.51,2.51,17100,2.359
2015-05-26,2.55,2.55,2.51,2.51,4100,2.359
2015-05-25,2.51,2.51,2.50,2.51,13400,2.359
2015-05-22,2.51,2.54,2.50,2.51,53400,2.359
2015-05-21,2.51,2.54,2.51,2.51,1000,2.359
2015-05-20,2.51,2.56,2.51,2.51,79700,2.359
2015-05-19,2.58,2.58,2.51,2.51,3800,2.359
2015-05-18,2.58,2.58,2.51,2.52,8600,2.368
2015-05-15,2.55,2.55,2.51,2.52,14200,2.368
2015-05-14,2.50,2.55,2.50,2.53,5200,2.378
2015-05-13,2.51,2.51,2.50,2.50,3900,2.349
2015-05-12,2.54,2.57,2.51,2.51,2100,2.359
2015-05-11,2.55,2.56,2.51,2.55,28700,2.396
2015-05-08,2.57,2.58,2.55,2.57,31500,2.415
2015-05-07,2.53,2.58,2.52,2.53,45000,2.378
2015-05-06,2.58,2.58,2.55,2.57,32100,2.415
2015-05-05,2.58,2.58,2.58,2.58,20400,2.425
2015-05-04,2.60,2.60,2.57,2.57,8000,2.415
2015-05-01,2.55,2.60,2.53,2.60,20200,2.443
2015-04-30,2.60,2.60,2.55,2.60,36200,2.443
2015-04-29,2.59,2.60,2.56,2.60,21000,2.443
2015-04-28,2.60,2.60,2.60,2.60,43300,2.443
2015-04-27,2.55,2.60,2.54,2.60,24100,2.443
2015-04-24,2.58,2.58,2.54,2.55,19100,2.396
2015-04-23,2.54,2.58,2.52,2.58,15800,2.425
2015-04-22,2.55,2.58,2.55,2.58,8900,2.425
2015-04-21,2.50,2.58,2.50,2.58,68800,2.425
2015-04-20,2.50,2.58,2.50,2.58,5000,2.425
2015-04-17,2.54,2.60,2.52,2.58,36600,2.425
2015-04-16,2.53,2.55,2.51,2.54,28900,2.387
2015-04-15,2.53,2.53,2.48,2.53,12100,2.378
2015-04-14,2.54,2.54,2.50,2.53,19900,2.378
2015-04-13,2.58,2.58,2.51,2.51,23800,2.359
2015-04-10,2.59,2.60,2.54,2.58,32100,2.425
2015-04-09,2.58,2.59,2.58,2.59,41400,2.434
2015-04-08,2.55,2.57,2.55,2.57,20600,2.415
2015-04-07,2.56,2.60,2.54,2.60,16100,2.443
2015-04-06,2.56,2.56,2.56,2.56,000,2.406
2015-04-03,2.56,2.56,2.56,2.56,000,2.406
2015-04-02,2.58,2.58,2.55,2.56,24600,2.406
2015-04-01,2.56,2.56,2.55,2.55,10000,2.396
2015-03-31,2.60,2.60,2.55,2.56,65400,2.406
2015-03-30,2.60,2.60,2.60,2.60,5100,2.392
2015-03-27,2.60,2.60,2.60,2.60,108600,2.392
2015-03-26,2.60,2.60,2.54,2.60,25900,2.392
2015-03-25,2.50,2.60,2.50,2.60,951400,2.392
2015-03-24,2.50,2.50,2.48,2.50,87100,2.30
2015-03-23,2.49,2.53,2.46,2.46,16800,2.264
2015-03-20,2.50,2.50,2.50,2.50,67100,2.30
2015-03-19,2.53,2.53,2.50,2.53,27900,2.328
2015-03-18,2.50,2.50,2.50,2.50,2300,2.30
2015-03-17,2.50,2.50,2.45,2.45,23600,2.254
2015-03-16,2.50,2.53,2.47,2.48,36500,2.282
2015-03-13,2.43,2.50,2.43,2.50,10900,2.30
2015-03-12,2.50,2.50,2.42,2.43,25800,2.236
2015-03-11,2.44,2.50,2.44,2.50,22000,2.30
2015-03-10,2.45,2.48,2.44,2.44,4000,2.245
2015-03-09,2.39,2.41,2.39,2.41,7300,2.218
2015-03-06,2.45,2.45,2.37,2.40,19900,2.208
2015-03-05,2.53,2.53,2.45,2.50,43500,2.30
2015-03-04,2.54,2.54,2.54,2.54,2000,2.337
2015-03-03,2.55,2.59,2.55,2.55,27500,2.346
2015-03-02,2.54,2.55,2.53,2.55,13400,2.346
2015-02-27,2.50,2.59,2.50,2.55,42600,2.346
2015-02-26,2.50,2.60,2.50,2.50,47600,2.30
2015-02-25,2.55,2.57,2.36,2.50,35500,2.30
2015-02-24,2.63,2.65,2.56,2.59,52600,2.383
2015-02-23,2.66,2.66,2.60,2.60,55200,2.392
2015-02-20,2.47,2.55,2.47,2.54,63200,2.337
2015-02-19,2.35,2.45,2.35,2.42,65800,2.227
2015-02-18,2.35,2.42,2.32,2.32,48900,2.135
2015-02-17,2.35,2.36,2.35,2.35,41800,2.162
2015-02-16,2.37,2.37,2.32,2.35,56200,2.162
2015-02-13,2.37,2.37,2.35,2.35,67300,2.162
2015-02-12,2.38,2.38,2.32,2.35,39300,2.162
2015-02-11,2.40,2.43,2.39,2.39,63300,2.199
2015-02-10,2.36,2.40,2.33,2.40,161200,2.208
2015-02-09,2.36,2.37,2.31,2.36,130300,2.172
2015-02-06,2.45,2.45,2.35,2.37,169400,2.181
2015-02-05,2.29,2.30,2.27,2.27,28300,2.089
2015-02-04,2.30,2.30,2.29,2.29,39100,2.107
2015-02-03,2.29,2.30,2.27,2.30,48000,2.116
2015-02-02,2.30,2.30,2.29,2.29,25000,2.107
2015-01-30,2.30,2.30,2.30,2.30,31800,2.116
2015-01-29,2.30,2.30,2.29,2.30,141300,2.116
2015-01-28,2.30,2.36,2.25,2.25,85600,2.07
2015-01-27,2.12,2.25,2.12,2.21,9200,2.034
2015-01-26,2.10,2.10,2.10,2.10,000,1.932
2015-01-23,2.05,2.10,2.05,2.10,18500,1.932
2015-01-22,2.03,2.03,2.03,2.03,600,1.868
2015-01-21,2.02,2.02,2.02,2.02,500,1.859
2015-01-20,2.00,2.02,2.00,2.00,10400,1.84
2015-01-19,1.98,2.00,1.98,2.00,4500,1.84
2015-01-16,1.95,1.98,1.95,1.97,4100,1.813
2015-01-15,1.95,1.98,1.95,1.95,23000,1.794
2015-01-14,1.95,1.95,1.95,1.95,10300,1.794
2015-01-13,1.95,1.97,1.95,1.95,3000,1.794
2015-01-12,1.95,1.97,1.95,1.95,2100,1.794
2015-01-09,1.95,1.98,1.95,1.95,8700,1.794
2015-01-08,1.90,1.97,1.90,1.95,6400,1.794
2015-01-07,1.96,1.97,1.95,1.95,22500,1.794
2015-01-06,1.96,1.96,1.96,1.96,000,1.803
2015-01-05,2.00,2.05,1.96,1.96,16500,1.803
2015-01-02,2.01,2.01,2.00,2.00,2000,1.84
2015-01-01,2.00,2.00,2.00,2.00,000,1.84
2014-12-31,2.00,2.00,2.00,2.00,000,1.84
2014-12-30,2.00,2.02,2.00,2.00,3800,1.84
2014-12-29,1.96,2.00,1.96,1.96,25400,1.803
2014-12-26,1.96,1.96,1.96,1.96,000,1.803
2014-12-25,1.96,1.96,1.96,1.96,000,1.803
2014-12-24,2.00,2.00,1.96,1.96,10200,1.803
2014-12-23,1.98,2.00,1.98,2.00,104700,1.84
2014-12-22,1.98,1.985,1.95,1.95,16100,1.794
2014-12-19,1.99,1.99,1.97,1.97,12900,1.813
2014-12-18,1.88,1.90,1.88,1.90,000,1.748
2014-12-17,1.88,1.88,1.88,1.88,000,1.73
2014-12-16,1.88,1.88,1.88,1.88,4500,1.73
2014-12-15,1.90,1.90,1.885,1.89,19800,1.739
2014-12-12,1.95,1.95,1.95,1.95,4000,1.794
2014-12-11,1.98,1.98,1.90,1.90,4400,1.748
2014-12-10,1.98,1.98,1.98,1.98,500,1.822
2014-12-09,2.00,2.00,2.00,2.00,000,1.84
2014-12-08,2.00,2.00,1.99,2.00,45000,1.84
2014-12-05,1.99,2.00,1.99,1.995,6700,1.836
2014-12-04,2.00,2.00,1.98,1.98,15900,1.822
2014-12-03,2.00,2.00,1.98,1.98,25300,1.822
2014-12-02,1.88,2.00,1.88,1.99,15000,1.831
2014-12-01,1.97,1.98,1.88,1.88,16300,1.73
2014-11-28,1.95,1.96,1.95,1.96,61800,1.803
2014-11-27,1.95,1.95,1.94,1.94,19300,1.785
2014-11-26,1.95,1.97,1.95,1.97,9500,1.813
2014-11-25,1.96,1.97,1.94,1.945,6000,1.79
2014-11-24,1.97,1.99,1.94,1.95,107100,1.794
2014-11-21,1.85,1.97,1.85,1.97,8100,1.813
2014-11-20,1.80,1.85,1.80,1.85,8600,1.702
2014-11-19,1.80,1.80,1.80,1.80,000,1.656
2014-11-18,1.80,1.80,1.80,1.80,000,1.656
2014-11-17,1.80,1.89,1.80,1.80,37300,1.656
2014-11-14,1.88,1.88,1.80,1.80,10900,1.656
2014-11-13,1.78,1.89,1.78,1.89,24100,1.739
2014-11-12,1.80,1.80,1.80,1.80,000,1.656
2014-11-11,1.80,1.80,1.80,1.80,000,1.656
2014-11-10,1.80,1.80,1.80,1.80,3532200,1.656
2014-11-07,1.80,1.805,1.74,1.74,11200,1.601
2014-11-06,1.80,1.80,1.80,1.80,25000,1.656
2014-11-05,1.73,1.73,1.73,1.73,507400,1.592
2014-11-04,1.73,1.73,1.73,1.73,1300,1.592
2014-11-03,1.795,1.795,1.74,1.74,26500,1.601
2014-10-31,1.78,1.785,1.78,1.785,8500,1.642
2014-10-30,1.73,1.775,1.73,1.745,6500,1.606
2014-10-29,1.775,1.775,1.775,1.775,000,1.633
2014-10-28,1.74,1.76,1.74,1.76,3700,1.619
2014-10-27,1.78,1.78,1.78,1.78,000,1.638
2014-10-24,1.73,1.78,1.73,1.78,2700,1.638
2014-10-23,1.73,1.78,1.73,1.78,1400,1.638
2014-10-22,1.74,1.74,1.73,1.73,44300,1.592
2014-10-21,1.73,1.73,1.73,1.73,1500,1.592
2014-10-20,1.73,1.74,1.73,1.74,9800,1.601
2014-10-17,1.73,1.73,1.73,1.73,2800,1.592
2014-10-16,1.73,1.79,1.73,1.73,17200,1.592
2014-10-15,1.74,1.74,1.73,1.73,13100,1.592
2014-10-14,1.75,1.79,1.73,1.79,10700,1.647
2014-10-13,1.75,1.75,1.75,1.75,1100,1.61
2014-10-10,1.75,1.75,1.73,1.73,3600,1.592
2014-10-09,1.745,1.81,1.745,1.75,4700,1.61
2014-10-08,1.76,1.76,1.76,1.76,1000,1.619
2014-10-07,1.73,1.73,1.73,1.73,5000,1.592
2014-10-06,1.73,1.73,1.73,1.73,000,1.592
2014-10-03,1.73,1.78,1.73,1.73,17200,1.592
2014-10-02,1.72,1.72,1.72,1.72,12500,1.583
2014-10-01,1.76,1.78,1.72,1.72,11500,1.583
2014-09-30,1.82,1.82,1.75,1.76,7900,1.571
2014-09-29,1.79,1.84,1.78,1.84,10400,1.642
2014-09-26,1.78,1.80,1.78,1.79,15500,1.598
2014-09-25,1.77,1.80,1.77,1.78,448400,1.589
2014-09-24,1.76,1.78,1.76,1.77,184400,1.58
2014-09-23,1.77,1.77,1.765,1.765,5100,1.575
2014-09-22,1.79,1.79,1.765,1.765,16800,1.575
2014-09-19,1.80,1.80,1.795,1.80,11200,1.607
2014-09-18,1.79,1.79,1.79,1.79,4100,1.598
2014-09-17,1.79,1.79,1.79,1.79,5300,1.598
2014-09-16,1.79,1.79,1.79,1.79,000,1.598
2014-09-15,1.80,1.80,1.79,1.79,2100,1.598
2014-09-12,1.79,1.79,1.79,1.79,3500,1.598
2014-09-11,1.79,1.79,1.79,1.79,000,1.598
2014-09-10,1.82,1.85,1.79,1.79,26700,1.598
2014-09-09,1.84,1.84,1.84,1.84,000,1.642
2014-09-08,1.84,1.84,1.84,1.84,000,1.642
2014-09-05,1.84,1.84,1.84,1.84,5000,1.642
2014-09-04,1.84,1.85,1.84,1.85,10700,1.651
2014-09-03,1.83,1.85,1.83,1.85,27300,1.651
2014-09-02,1.83,1.83,1.83,1.83,000,1.633
2014-09-01,1.83,1.83,1.83,1.83,5400,1.633
2014-08-29,1.80,1.83,1.77,1.83,13600,1.633
2014-08-28,1.80,1.80,1.80,1.80,1100,1.607
2014-08-27,1.80,1.80,1.75,1.75,1721700,1.562
2014-08-26,1.80,1.80,1.80,1.80,400,1.607
2014-08-25,1.80,1.80,1.80,1.80,15000,1.607
2014-08-22,1.75,1.75,1.75,1.75,000,1.562
2014-08-21,1.76,1.76,1.75,1.75,9800,1.562
2014-08-20,1.76,1.76,1.76,1.76,297300,1.571
2014-08-19,1.76,1.76,1.76,1.76,3300,1.571
2014-08-18,1.79,1.79,1.79,1.79,000,1.598
2014-08-15,1.84,1.85,1.79,1.79,19300,1.598
2014-08-14,1.85,1.85,1.85,1.85,000,1.651
2014-08-13,1.85,1.85,1.85,1.85,400,1.651
2014-08-12,1.85,1.855,1.85,1.855,2400,1.656
2014-08-11,1.79,1.79,1.79,1.79,000,1.598
2014-08-08,1.79,1.79,1.79,1.79,6000,1.598
2014-08-07,1.77,1.77,1.77,1.77,000,1.58
2014-08-06,1.77,1.77,1.77,1.77,000,1.58
2014-08-05,1.77,1.77,1.77,1.77,5000,1.58
2014-08-04,1.75,1.77,1.745,1.77,14900,1.58
2014-08-01,1.75,1.76,1.75,1.76,9300,1.571
2014-07-31,1.755,1.755,1.75,1.75,15000,1.562
2014-07-30,1.75,1.75,1.75,1.75,000,1.562
2014-07-29,1.75,1.75,1.75,1.75,000,1.562
2014-07-28,1.76,1.76,1.75,1.75,18000,1.562
2014-07-25,1.76,1.76,1.76,1.76,600,1.571
2014-07-24,1.80,1.80,1.80,1.80,200,1.607
2014-07-23,1.78,1.785,1.76,1.785,12000,1.593
2014-07-22,1.80,1.80,1.80,1.80,000,1.607
2014-07-21,1.80,1.80,1.80,1.80,000,1.607
2014-07-18,1.80,1.80,1.80,1.80,100,1.607
2014-07-17,1.86,1.86,1.86,1.86,000,1.66
2014-07-16,1.86,1.86,1.86,1.86,600,1.66
2014-07-15,1.86,1.86,1.86,1.86,3200,1.66
2014-07-14,1.775,1.775,1.76,1.77,806900,1.58
2014-07-11,1.765,1.775,1.765,1.775,000,1.584
2014-07-10,1.765,1.765,1.765,1.765,000,1.575
2014-07-09,1.80,1.84,1.76,1.765,17300,1.575
2014-07-08,1.80,1.80,1.78,1.80,400,1.607
2014-07-07,1.76,1.80,1.76,1.78,7500,1.589
2014-07-04,1.76,1.76,1.76,1.76,000,1.571
2014-07-03,1.75,1.75,1.75,1.75,000,1.562
2014-07-02,1.80,1.80,1.75,1.75,20000,1.562
2014-07-01,1.85,1.85,1.80,1.80,300,1.607
2014-06-30,1.89,1.89,1.89,1.89,000,1.687
2014-06-27,1.87,1.89,1.87,1.89,11300,1.687
2014-06-26,1.84,1.87,1.84,1.87,5800,1.669
2014-06-25,1.805,1.805,1.79,1.79,900,1.598
2014-06-24,1.80,1.82,1.76,1.805,5500,1.611
2014-06-23,1.80,1.80,1.80,1.80,500,1.607
2014-06-20,1.80,1.80,1.80,1.80,13300,1.607
2014-06-19,1.76,1.80,1.76,1.80,19000,1.607
2014-06-18,1.80,1.80,1.80,1.80,000,1.607
2014-06-17,1.76,1.80,1.76,1.80,10600,1.607
2014-06-16,1.80,1.80,1.80,1.80,000,1.607
2014-06-13,1.80,1.80,1.78,1.80,7500,1.607
2014-06-12,1.75,1.80,1.75,1.76,15800,1.571
2014-06-11,1.75,1.80,1.75,1.75,3800,1.562
2014-06-10,1.75,1.80,1.72,1.75,60900,1.562
2014-06-09,1.80,1.80,1.80,1.80,000,1.607
2014-06-06,1.80,1.80,1.80,1.80,000,1.607
2014-06-05,1.79,1.80,1.74,1.80,49500,1.607
2014-06-04,1.79,1.79,1.79,1.79,000,1.598
2014-06-03,1.745,1.80,1.74,1.79,26400,1.598
2014-06-02,1.79,1.80,1.74,1.74,38900,1.553
2014-05-30,1.79,1.79,1.79,1.79,000,1.598
2014-05-29,1.75,1.75,1.75,1.75,249100,1.562
2014-05-28,1.79,1.79,1.73,1.75,13300,1.562
2014-05-27,1.79,1.79,1.79,1.79,000,1.598
2014-05-26,1.79,1.80,1.79,1.79,15500,1.598
2014-05-23,1.80,1.80,1.79,1.80,12300,1.607
2014-05-22,1.78,1.80,1.78,1.80,20000,1.607
2014-05-21,1.80,1.80,1.78,1.78,1681000,1.589
2014-05-20,1.78,1.80,1.73,1.79,19800,1.598
2014-05-19,1.78,1.78,1.78,1.78,000,1.589
2014-05-16,1.78,1.78,1.78,1.78,000,1.589
2014-05-15,1.80,1.84,1.73,1.78,63600,1.589
2014-05-14,1.78,1.82,1.77,1.80,179600,1.607
2014-05-13,1.78,1.78,1.78,1.78,000,1.589
2014-05-12,1.79,1.79,1.78,1.78,10100,1.589
2014-05-09,1.78,1.84,1.73,1.78,16200,1.589
2014-05-08,1.78,1.85,1.78,1.85,17600,1.651
2014-05-07,1.80,1.80,1.785,1.785,32600,1.593
2014-05-06,1.82,1.86,1.76,1.84,77700,1.642
2014-05-05,1.86,1.87,1.82,1.86,13000,1.66
2014-05-02,1.865,1.87,1.81,1.85,9000,1.651
2014-05-01,1.87,1.87,1.85,1.865,5700,1.665
2014-04-30,1.87,1.87,1.87,1.87,000,1.669
2014-04-29,1.84,1.89,1.84,1.87,9000,1.669
2014-04-28,1.84,1.89,1.84,1.89,10100,1.687
2014-04-25,1.89,1.89,1.89,1.89,000,1.687
2014-04-24,1.89,1.89,1.89,1.89,000,1.687
2014-04-23,1.89,1.89,1.89,1.89,13000,1.687
2014-04-22,1.89,1.90,1.89,1.90,6800,1.696
2014-04-21,1.89,1.89,1.89,1.89,000,1.687
2014-04-18,1.89,1.89,1.89,1.89,000,1.687
2014-04-17,1.845,1.89,1.845,1.89,10200,1.687
2014-04-16,1.815,1.815,1.815,1.815,1600,1.62
2014-04-15,1.815,1.815,1.815,1.815,900,1.62
2014-04-14,1.86,1.86,1.80,1.85,17100,1.651
2014-04-11,1.90,1.90,1.85,1.89,36700,1.687
2014-04-10,1.91,1.91,1.89,1.89,100,1.687
2014-04-09,1.89,1.94,1.89,1.91,9200,1.705
2014-04-08,1.97,1.97,1.87,1.87,18500,1.669
2014-04-07,1.99,1.99,1.99,1.99,000,1.776
2014-04-04,1.99,1.99,1.98,1.99,10900,1.776
2014-04-03,1.99,1.99,1.99,1.99,000,1.776
2014-04-02,1.90,1.99,1.87,1.99,3700,1.776
2014-04-01,1.94,1.94,1.90,1.90,16400,1.696
2014-03-31,2.00,2.00,1.95,1.95,57000,1.74
2014-03-28,1.90,1.97,1.90,1.97,13000,1.758
2014-03-27,1.855,1.90,1.855,1.87,13700,1.669
2014-03-26,1.835,1.855,1.835,1.855,904700,1.656
2014-03-25,1.82,1.82,1.76,1.82,229800,1.624
2014-03-24,1.81,1.81,1.73,1.75,8000,1.562
2014-03-21,1.82,1.82,1.80,1.82,4200,1.578
2014-03-20,1.815,1.82,1.80,1.82,16400,1.578
2014-03-19,1.82,1.82,1.82,1.82,11700,1.578
2014-03-18,1.80,1.82,1.77,1.82,28000,1.578
2014-03-17,1.80,1.80,1.80,1.80,15500,1.56
2014-03-14,1.79,1.82,1.78,1.80,42900,1.56
2014-03-13,1.80,1.80,1.79,1.79,2800,1.552
2014-03-12,1.80,1.80,1.77,1.79,8200,1.552
2014-03-11,1.79,1.80,1.77,1.80,38800,1.56
2014-03-10,1.80,1.80,1.80,1.80,1800,1.56
2014-03-07,1.80,1.80,1.77,1.80,15400,1.56
2014-03-06,1.80,1.80,1.785,1.80,161900,1.56
2014-03-05,1.83,1.845,1.80,1.80,40400,1.56
2014-03-04,1.85,1.85,1.835,1.835,28400,1.591
2014-03-03,1.80,1.90,1.785,1.80,30300,1.56
2014-02-28,1.82,1.82,1.82,1.82,1015300,1.578
2014-02-27,1.79,1.82,1.79,1.82,35100,1.578
2014-02-26,1.75,1.79,1.72,1.79,33300,1.552
2014-02-25,1.80,1.80,1.78,1.78,7500,1.543
2014-02-24,1.795,1.80,1.795,1.80,18600,1.56
2014-02-21,1.75,1.80,1.75,1.80,7000,1.56
2014-02-20,1.67,1.67,1.67,1.67,5400,1.448
2014-02-19,1.665,1.665,1.635,1.66,31200,1.439
2014-02-18,1.66,1.68,1.64,1.67,113000,1.448
2014-02-17,1.635,1.635,1.61,1.635,13300,1.417
2014-02-14,1.625,1.64,1.625,1.635,36700,1.417
2014-02-13,1.63,1.63,1.62,1.62,7500,1.404
2014-02-12,1.645,1.645,1.63,1.63,32100,1.413
2014-02-11,1.645,1.655,1.645,1.645,6300,1.426
2014-02-10,1.645,1.645,1.645,1.645,8600,1.426
2014-02-07,1.62,1.645,1.62,1.645,10000,1.426
2014-02-06,1.57,1.59,1.57,1.57,335800,1.361
2014-02-05,1.56,1.56,1.54,1.56,420800,1.352
2014-02-04,1.61,1.61,1.55,1.55,91700,1.344
2014-02-03,1.60,1.60,1.59,1.59,39000,1.378
2014-01-31,1.59,1.59,1.59,1.59,5000,1.378
2014-01-30,1.62,1.62,1.58,1.58,1000,1.37
2014-01-29,1.59,1.63,1.585,1.62,27000,1.404
2014-01-28,1.60,1.60,1.59,1.59,16600,1.378
2014-01-27,1.59,1.59,1.59,1.59,000,1.378
2014-01-24,1.595,1.60,1.59,1.59,76500,1.378
2014-01-23,1.63,1.63,1.60,1.60,39900,1.387
2014-01-22,1.63,1.63,1.63,1.63,000,1.413
2014-01-21,1.63,1.63,1.62,1.63,308200,1.413
2014-01-20,1.65,1.65,1.65,1.65,2700,1.43
2014-01-17,1.65,1.67,1.62,1.65,15200,1.43
2014-01-16,1.60,1.65,1.60,1.65,38100,1.43
2014-01-15,1.59,1.62,1.59,1.62,51300,1.404
2014-01-14,1.59,1.59,1.58,1.58,3700,1.37
2014-01-13,1.53,1.62,1.53,1.60,228600,1.387
2014-01-10,1.53,1.53,1.53,1.53,24000,1.326
2014-01-09,1.52,1.52,1.52,1.52,000,1.318
2014-01-08,1.52,1.52,1.52,1.52,000,1.318
2014-01-07,1.53,1.53,1.52,1.52,18000,1.318
2014-01-06,1.54,1.54,1.52,1.53,64100,1.326
2014-01-03,1.56,1.56,1.54,1.54,29100,1.335
2014-01-02,1.56,1.56,1.56,1.56,7200,1.352
2014-01-01,1.56,1.56,1.56,1.56,000,1.352
2013-12-31,1.56,1.56,1.56,1.56,000,1.352
2013-12-30,1.56,1.56,1.56,1.56,800,1.352
2013-12-27,1.55,1.55,1.55,1.55,000,1.344
2013-12-26,1.55,1.55,1.55,1.55,000,1.344
2013-12-25,1.55,1.55,1.55,1.55,000,1.344
2013-12-24,1.57,1.58,1.55,1.55,31400,1.344
2013-12-23,1.53,1.55,1.52,1.55,122800,1.344
2013-12-20,1.55,1.55,1.52,1.52,13100,1.318
2013-12-19,1.59,1.60,1.59,1.60,15800,1.387
2013-12-18,1.55,1.60,1.55,1.60,12500,1.387
2013-12-17,1.55,1.55,1.52,1.55,30900,1.344
2013-12-16,1.51,1.55,1.51,1.55,3700,1.344
2013-12-13,1.51,1.51,1.51,1.51,000,1.309
2013-12-12,1.51,1.51,1.50,1.51,221700,1.309
2013-12-11,1.55,1.55,1.55,1.55,000,1.344
2013-12-10,1.52,1.55,1.52,1.55,9900,1.344
2013-12-09,1.52,1.53,1.51,1.52,11600,1.318
2013-12-06,1.505,1.505,1.505,1.505,10000,1.305
2013-12-05,1.51,1.51,1.505,1.505,11000,1.305
2013-12-04,1.50,1.50,1.47,1.50,33700,1.30
2013-12-03,1.52,1.52,1.47,1.47,60500,1.274
2013-12-02,1.55,1.55,1.50,1.50,13000,1.30
2013-11-29,1.55,1.55,1.55,1.55,3200,1.344
2013-11-28,1.55,1.56,1.55,1.56,2000,1.352
2013-11-27,1.58,1.58,1.55,1.55,161300,1.344
2013-11-26,1.58,1.58,1.495,1.58,256500,1.37
2013-11-25,1.59,1.59,1.58,1.58,168500,1.37
2013-11-22,1.51,1.59,1.51,1.59,13200,1.378
2013-11-21,1.49,1.505,1.49,1.505,66100,1.305
2013-11-20,1.475,1.48,1.465,1.48,35100,1.283
2013-11-19,1.475,1.48,1.465,1.475,431300,1.279
2013-11-18,1.475,1.475,1.46,1.475,351300,1.279
2013-11-15,1.47,1.475,1.47,1.475,61900,1.279
2013-11-14,1.42,1.47,1.42,1.47,380700,1.274
2013-11-13,1.445,1.46,1.42,1.42,37800,1.231
2013-11-12,1.45,1.46,1.45,1.45,257900,1.257
2013-11-11,1.47,1.47,1.47,1.47,3600,1.274
2013-11-08,1.48,1.485,1.47,1.47,50900,1.274
2013-11-07,1.48,1.48,1.48,1.48,10000,1.283
2013-11-06,1.48,1.48,1.45,1.45,31000,1.257
2013-11-05,1.48,1.48,1.475,1.48,26300,1.283
2013-11-04,1.47,1.485,1.45,1.45,53500,1.257
2013-11-01,1.44,1.47,1.43,1.45,42900,1.257
2013-10-31,1.43,1.44,1.425,1.44,24700,1.248
2013-10-30,1.42,1.45,1.42,1.42,63900,1.231
2013-10-29,1.405,1.42,1.39,1.42,320200,1.231
2013-10-28,1.425,1.425,1.38,1.405,108200,1.218
2013-10-25,1.475,1.475,1.45,1.45,59300,1.257
2013-10-24,1.45,1.485,1.45,1.455,71700,1.261
2013-10-23,1.475,1.475,1.46,1.46,166400,1.266
2013-10-22,1.49,1.49,1.45,1.47,122700,1.274
2013-10-21,1.53,1.53,1.495,1.495,130900,1.296
2013-10-18,1.515,1.52,1.51,1.52,232600,1.318
2013-10-17,1.51,1.55,1.50,1.50,1116900,1.30
2013-10-16,1.51,1.55,1.455,1.50,2482700,1.30
