Date,Open,High,Low,Close,Volume,Adj Close
2017-01-10,0.61,0.61,0.61,0.61,000,0.61
2017-01-09,0.61,0.61,0.61,0.61,000,0.61
2017-01-06,0.61,0.61,0.61,0.61,10000,0.61
2017-01-05,0.63,0.63,0.63,0.63,1700,0.63
2017-01-04,0.62,0.64,0.62,0.64,30000,0.64
2017-01-03,0.61,0.61,0.61,0.61,10000,0.61
2017-01-02,0.61,0.61,0.61,0.61,000,0.61
2016-12-30,0.61,0.61,0.61,0.61,000,0.61
2016-12-29,0.62,0.62,0.61,0.61,10000,0.61
2016-12-28,0.62,0.62,0.61,0.61,49800,0.61
2016-12-27,0.61,0.61,0.61,0.61,000,0.61
2016-12-26,0.61,0.61,0.61,0.61,000,0.61
2016-12-23,0.61,0.61,0.61,0.61,000,0.61
2016-12-22,0.61,0.61,0.61,0.61,25400,0.61
2016-12-21,0.61,0.61,0.61,0.61,000,0.61
2016-12-20,0.61,0.61,0.61,0.61,7000,0.61
2016-12-19,0.59,0.60,0.59,0.60,137700,0.60
2016-12-16,0.58,0.59,0.58,0.58,29000,0.58
2016-12-15,0.555,0.555,0.555,0.555,000,0.555
2016-12-14,0.555,0.555,0.555,0.555,000,0.555
2016-12-13,0.565,0.565,0.555,0.555,8900,0.555
2016-12-12,0.55,0.55,0.55,0.55,000,0.55
2016-12-09,0.55,0.575,0.55,0.55,25700,0.55
2016-12-08,0.54,0.54,0.54,0.54,000,0.54
2016-12-07,0.54,0.54,0.54,0.54,000,0.54
2016-12-06,0.54,0.54,0.54,0.54,000,0.54
2016-12-05,0.55,0.55,0.54,0.54,34300,0.54
2016-12-02,0.54,0.54,0.54,0.54,000,0.54
2016-12-01,0.55,0.56,0.54,0.54,909900,0.54
2016-11-30,0.545,0.545,0.54,0.54,205500,0.54
2016-11-29,0.53,0.53,0.53,0.53,000,0.53
2016-11-28,0.53,0.53,0.53,0.53,000,0.53
2016-11-25,0.53,0.53,0.53,0.53,000,0.53
2016-11-24,0.53,0.53,0.53,0.53,000,0.53
2016-11-23,0.54,0.54,0.53,0.53,55000,0.53
2016-11-22,0.52,0.54,0.52,0.54,536500,0.54
2016-11-21,0.54,0.55,0.54,0.54,58500,0.54
2016-11-18,0.54,0.54,0.54,0.54,10000,0.54
2016-11-17,0.52,0.52,0.51,0.52,33300,0.52
2016-11-16,0.52,0.52,0.52,0.52,000,0.52
2016-11-15,0.52,0.54,0.51,0.52,94200,0.52
2016-11-14,0.52,0.52,0.52,0.52,888200,0.52
2016-11-11,0.54,0.54,0.52,0.52,33400,0.52
2016-11-10,0.53,0.54,0.52,0.54,45400,0.54
2016-11-09,0.54,0.54,0.54,0.54,22600,0.54
2016-11-08,0.53,0.54,0.53,0.53,22000,0.53
2016-11-07,0.53,0.53,0.53,0.53,000,0.53
2016-11-04,0.53,0.53,0.53,0.53,3000,0.53
2016-11-03,0.54,0.54,0.54,0.54,000,0.54
2016-11-02,0.54,0.54,0.54,0.54,20000,0.54
2016-11-01,0.57,0.57,0.57,0.57,000,0.57
2016-10-31,0.54,0.57,0.54,0.57,12400,0.57
2016-10-28,0.57,0.57,0.57,0.57,000,0.57
2016-10-27,0.565,0.57,0.565,0.57,7200,0.57
2016-10-26,0.57,0.57,0.57,0.57,000,0.57
2016-10-25,0.57,0.57,0.57,0.57,000,0.57
2016-10-24,0.57,0.57,0.57,0.57,4500,0.57
2016-10-21,0.565,0.565,0.565,0.565,000,0.565
2016-10-20,0.55,0.565,0.55,0.565,62800,0.565
2016-10-19,0.55,0.55,0.55,0.55,17000,0.55
2016-10-18,0.565,0.565,0.56,0.56,11500,0.56
2016-10-17,0.535,0.535,0.535,0.535,000,0.535
2016-10-14,0.54,0.54,0.535,0.535,4200,0.535
2016-10-13,0.55,0.55,0.55,0.55,20000,0.55
2016-10-12,0.55,0.55,0.55,0.55,1300,0.55
2016-10-11,0.55,0.55,0.55,0.55,000,0.55
2016-10-10,0.53,0.55,0.53,0.55,700,0.55
2016-10-07,0.55,0.55,0.55,0.55,000,0.55
2016-10-06,0.565,0.565,0.55,0.55,70400,0.55
2016-10-05,0.565,0.565,0.565,0.565,2000,0.565
2016-10-04,0.565,0.565,0.565,0.565,29700,0.565
2016-10-03,0.57,0.57,0.57,0.57,5600,0.57
2016-09-30,0.57,0.57,0.57,0.57,000,0.57
2016-09-29,0.57,0.57,0.57,0.57,000,0.57
2016-09-28,0.57,0.57,0.57,0.57,000,0.57
2016-09-27,0.55,0.57,0.55,0.57,32000,0.57
2016-09-26,0.56,0.58,0.55,0.58,74200,0.58
2016-09-23,0.55,0.57,0.55,0.57,51200,0.57
2016-09-22,0.59,0.59,0.59,0.59,34000,0.561
2016-09-21,0.575,0.575,0.575,0.575,5000,0.547
2016-09-20,0.55,0.55,0.55,0.55,7200,0.523
2016-09-19,0.575,0.575,0.56,0.56,15000,0.533
2016-09-16,0.59,0.59,0.59,0.59,79400,0.561
2016-09-15,0.59,0.59,0.59,0.59,24800,0.561
2016-09-14,0.59,0.59,0.575,0.59,39400,0.561
2016-09-13,0.59,0.59,0.59,0.59,54000,0.561
2016-09-12,0.59,0.59,0.59,0.59,000,0.561
2016-09-09,0.59,0.59,0.59,0.59,24000,0.561
2016-09-08,0.57,0.57,0.57,0.57,000,0.542
2016-09-07,0.57,0.57,0.57,0.57,41300,0.542
2016-09-06,0.58,0.59,0.57,0.59,99300,0.561
2016-09-05,0.57,0.57,0.57,0.57,000,0.542
2016-09-02,0.57,0.57,0.57,0.57,13500,0.542
2016-09-01,0.57,0.59,0.57,0.59,50000,0.561
2016-08-31,0.565,0.565,0.565,0.565,900,0.538
2016-08-30,0.59,0.59,0.585,0.59,40000,0.561
2016-08-29,0.595,0.595,0.595,0.595,000,0.566
2016-08-26,0.56,0.595,0.56,0.595,81000,0.566
2016-08-25,0.55,0.55,0.55,0.55,32000,0.523
2016-08-24,0.57,0.57,0.535,0.535,212600,0.509
2016-08-23,0.61,0.61,0.59,0.60,65000,0.571
2016-08-22,0.58,0.58,0.58,0.58,000,0.552
2016-08-19,0.58,0.58,0.58,0.58,000,0.552
2016-08-18,0.57,0.58,0.565,0.58,42200,0.552
2016-08-17,0.56,0.56,0.56,0.56,57900,0.533
2016-08-16,0.565,0.57,0.565,0.57,13000,0.542
2016-08-15,0.57,0.57,0.565,0.565,14200,0.538
2016-08-12,0.565,0.575,0.565,0.575,68900,0.547
2016-08-11,0.56,0.56,0.56,0.56,18700,0.533
2016-08-10,0.54,0.54,0.54,0.54,30000,0.514
2016-08-09,0.53,0.53,0.53,0.53,000,0.504
2016-08-08,0.535,0.535,0.53,0.53,41500,0.504
2016-08-05,0.545,0.545,0.53,0.53,70000,0.504
2016-08-04,0.525,0.535,0.525,0.535,34000,0.509
2016-08-03,0.53,0.53,0.51,0.51,134100,0.485
2016-08-02,0.53,0.53,0.53,0.53,000,0.504
2016-08-01,0.515,0.53,0.515,0.53,59800,0.504
2016-07-29,0.52,0.52,0.515,0.515,41200,0.49
2016-07-28,0.53,0.53,0.53,0.53,000,0.504
2016-07-27,0.53,0.53,0.53,0.53,20000,0.504
2016-07-26,0.53,0.53,0.53,0.53,2000,0.504
2016-07-25,0.53,0.53,0.53,0.53,000,0.504
2016-07-22,0.52,0.53,0.52,0.53,18200,0.504
2016-07-21,0.52,0.52,0.52,0.52,12000,0.495
2016-07-20,0.515,0.515,0.515,0.515,000,0.49
2016-07-19,0.515,0.515,0.515,0.515,1600,0.49
2016-07-18,0.515,0.515,0.515,0.515,2000,0.49
2016-07-15,0.51,0.515,0.505,0.515,31000,0.49
2016-07-14,0.51,0.51,0.51,0.51,28000,0.485
2016-07-13,0.51,0.51,0.51,0.51,000,0.485
2016-07-12,0.52,0.53,0.51,0.51,62800,0.485
2016-07-11,0.52,0.52,0.52,0.52,9900,0.495
2016-07-08,0.52,0.52,0.52,0.52,20000,0.495
2016-07-07,0.52,0.52,0.52,0.52,14000,0.495
2016-07-06,0.52,0.53,0.52,0.53,2000,0.504
2016-07-05,0.505,0.505,0.505,0.505,000,0.481
2016-07-04,0.505,0.505,0.505,0.505,000,0.481
2016-07-01,0.505,0.505,0.505,0.505,000,0.481
2016-06-30,0.505,0.505,0.505,0.505,000,0.481
2016-06-29,0.51,0.51,0.505,0.505,24000,0.481
2016-06-28,0.525,0.525,0.52,0.52,18800,0.495
2016-06-27,0.52,0.52,0.52,0.52,6200,0.495
2016-06-24,0.51,0.52,0.505,0.52,33800,0.495
2016-06-23,0.51,0.51,0.51,0.51,000,0.485
2016-06-22,0.51,0.51,0.51,0.51,82400,0.485
2016-06-21,0.515,0.53,0.50,0.53,95600,0.504
2016-06-20,0.505,0.515,0.505,0.515,24000,0.49
2016-06-17,0.51,0.51,0.51,0.51,14000,0.485
2016-06-16,0.53,0.53,0.51,0.525,25000,0.50
2016-06-15,0.52,0.53,0.51,0.53,52800,0.504
2016-06-14,0.525,0.525,0.52,0.52,11100,0.495
2016-06-13,0.51,0.51,0.51,0.51,000,0.485
2016-06-10,0.54,0.54,0.51,0.51,62600,0.485
2016-06-09,0.54,0.54,0.515,0.515,54000,0.49
2016-06-08,0.54,0.54,0.54,0.54,20000,0.514
2016-06-07,0.53,0.53,0.53,0.53,6500,0.504
2016-06-06,0.53,0.53,0.53,0.53,34600,0.504
2016-06-03,0.55,0.55,0.55,0.55,000,0.523
2016-06-02,0.54,0.55,0.53,0.55,55000,0.523
2016-06-01,0.55,0.55,0.55,0.55,1000,0.523
2016-05-31,0.55,0.55,0.55,0.55,000,0.523
2016-05-30,0.54,0.55,0.54,0.55,37000,0.523
2016-05-27,0.55,0.55,0.55,0.55,77000,0.523
2016-05-26,0.54,0.54,0.53,0.53,70000,0.504
2016-05-25,0.545,0.545,0.54,0.54,12300,0.514
2016-05-24,0.54,0.55,0.54,0.55,61000,0.523
2016-05-23,0.535,0.54,0.535,0.54,47000,0.514
2016-05-20,0.53,0.53,0.53,0.53,1200,0.504
2016-05-19,0.51,0.52,0.51,0.52,40800,0.495
2016-05-18,0.525,0.525,0.525,0.525,1500,0.50
2016-05-17,0.52,0.52,0.51,0.51,6500,0.485
2016-05-16,0.52,0.52,0.52,0.52,40000,0.495
2016-05-13,0.515,0.515,0.51,0.51,11000,0.485
2016-05-12,0.515,0.515,0.515,0.515,4000,0.49
2016-05-11,0.51,0.51,0.51,0.51,000,0.485
2016-05-10,0.53,0.53,0.51,0.51,40700,0.485
2016-05-09,0.525,0.53,0.525,0.53,19400,0.504
2016-05-06,0.53,0.53,0.52,0.52,25000,0.495
2016-05-05,0.525,0.525,0.525,0.525,000,0.50
2016-05-04,0.54,0.54,0.525,0.525,44800,0.50
2016-05-03,0.53,0.53,0.52,0.52,51200,0.495
2016-05-02,0.52,0.52,0.52,0.52,000,0.495
2016-04-29,0.54,0.54,0.52,0.52,2200,0.495
2016-04-28,0.54,0.54,0.52,0.52,20200,0.495
2016-04-27,0.55,0.55,0.55,0.55,2000,0.523
2016-04-26,0.52,0.52,0.515,0.515,150000,0.49
2016-04-25,0.55,0.55,0.55,0.55,000,0.523
2016-04-22,0.55,0.55,0.55,0.55,000,0.523
2016-04-21,0.55,0.55,0.55,0.55,000,0.523
2016-04-20,0.55,0.55,0.55,0.55,000,0.523
2016-04-19,0.55,0.55,0.55,0.55,000,0.523
2016-04-18,0.53,0.55,0.53,0.55,18000,0.523
2016-04-15,0.55,0.55,0.55,0.55,000,0.523
2016-04-14,0.55,0.55,0.55,0.55,20000,0.523
2016-04-13,0.54,0.54,0.54,0.54,000,0.514
2016-04-12,0.54,0.54,0.54,0.54,000,0.514
2016-04-11,0.54,0.54,0.54,0.54,18500,0.514
2016-04-08,0.54,0.54,0.54,0.54,2000,0.514
2016-04-07,0.53,0.54,0.525,0.54,30000,0.514
2016-04-06,0.515,0.515,0.515,0.515,000,0.49
2016-04-05,0.52,0.52,0.51,0.515,111300,0.49
2016-04-04,0.53,0.53,0.51,0.51,333600,0.485
2016-04-01,0.535,0.535,0.53,0.53,55400,0.504
2016-03-31,0.535,0.535,0.535,0.535,20000,0.509
2016-03-30,0.535,0.535,0.535,0.535,12000,0.509
2016-03-29,0.545,0.545,0.545,0.545,000,0.519
2016-03-28,0.545,0.545,0.545,0.545,000,0.519
2016-03-25,0.545,0.545,0.545,0.545,000,0.519
2016-03-24,0.54,0.545,0.535,0.545,30600,0.519
2016-03-23,0.55,0.55,0.54,0.54,20000,0.514
2016-03-22,0.55,0.55,0.55,0.55,20000,0.523
2016-03-21,0.55,0.55,0.55,0.55,30400,0.523
2016-03-18,0.57,0.57,0.55,0.55,36900,0.523
2016-03-17,0.55,0.55,0.55,0.55,000,0.523
2016-03-16,0.56,0.56,0.55,0.55,10000,0.523
2016-03-15,0.54,0.54,0.54,0.54,000,0.514
2016-03-14,0.54,0.55,0.54,0.54,17500,0.514
2016-03-11,0.53,0.53,0.53,0.53,15000,0.504
2016-03-10,0.53,0.53,0.53,0.53,61700,0.504
2016-03-09,0.57,0.57,0.54,0.54,15000,0.514
2016-03-08,0.57,0.57,0.55,0.55,20000,0.523
2016-03-07,0.57,0.57,0.57,0.57,000,0.515
2016-03-04,0.57,0.57,0.57,0.57,20000,0.515
2016-03-03,0.56,0.56,0.56,0.56,000,0.506
2016-03-02,0.56,0.56,0.56,0.56,200,0.506
2016-03-01,0.56,0.56,0.56,0.56,000,0.506
2016-02-29,0.56,0.56,0.56,0.56,000,0.506
2016-02-26,0.56,0.56,0.56,0.56,20000,0.506
2016-02-25,0.56,0.56,0.56,0.56,000,0.506
2016-02-24,0.56,0.56,0.55,0.56,128700,0.506
2016-02-23,0.54,0.54,0.53,0.53,81200,0.479
2016-02-22,0.545,0.55,0.545,0.55,6300,0.497
2016-02-19,0.53,0.55,0.53,0.55,34000,0.497
2016-02-18,0.55,0.55,0.55,0.55,000,0.497
2016-02-17,0.55,0.55,0.55,0.55,000,0.497
2016-02-16,0.55,0.55,0.55,0.55,20000,0.497
2016-02-15,0.555,0.555,0.555,0.555,000,0.502
2016-02-12,0.555,0.555,0.555,0.555,000,0.502
2016-02-11,0.56,0.56,0.55,0.555,44400,0.502
2016-02-10,0.57,0.57,0.55,0.56,219500,0.506
2016-02-09,0.575,0.575,0.575,0.575,000,0.52
2016-02-08,0.575,0.575,0.575,0.575,000,0.52
2016-02-05,0.575,0.575,0.575,0.575,000,0.52
2016-02-04,0.575,0.575,0.575,0.575,000,0.52
2016-02-03,0.575,0.575,0.575,0.575,37300,0.52
2016-02-02,0.575,0.575,0.575,0.575,5000,0.52
2016-02-01,0.61,0.61,0.575,0.575,71000,0.52
2016-01-29,0.60,0.60,0.60,0.60,000,0.542
2016-01-28,0.60,0.60,0.60,0.60,1000,0.542
2016-01-27,0.58,0.58,0.58,0.58,4600,0.524
2016-01-26,0.585,0.585,0.585,0.585,000,0.529
2016-01-25,0.59,0.59,0.585,0.585,35300,0.529
2016-01-22,0.59,0.59,0.59,0.59,000,0.533
2016-01-21,0.59,0.59,0.59,0.59,000,0.533
2016-01-20,0.595,0.595,0.59,0.59,61200,0.533
2016-01-19,0.61,0.61,0.61,0.61,000,0.551
2016-01-18,0.61,0.61,0.61,0.61,000,0.551
2016-01-15,0.60,0.61,0.60,0.61,40000,0.551
2016-01-14,0.585,0.585,0.585,0.585,000,0.529
2016-01-13,0.585,0.585,0.585,0.585,000,0.529
2016-01-12,0.585,0.585,0.585,0.585,000,0.529
2016-01-11,0.585,0.585,0.585,0.585,40000,0.529
2016-01-08,0.585,0.585,0.585,0.585,000,0.529
2016-01-07,0.585,0.585,0.585,0.585,000,0.529
2016-01-06,0.585,0.585,0.585,0.585,000,0.529
2016-01-05,0.585,0.585,0.585,0.585,12000,0.529
2016-01-04,0.585,0.585,0.585,0.585,1800,0.529
2016-01-01,0.585,0.585,0.585,0.585,000,0.529
2015-12-31,0.585,0.585,0.585,0.585,21600,0.529
2015-12-30,0.585,0.585,0.585,0.585,000,0.529
2015-12-29,0.585,0.585,0.585,0.585,10000,0.529
2015-12-28,0.585,0.585,0.585,0.585,000,0.529
2015-12-25,0.585,0.585,0.585,0.585,000,0.529
2015-12-24,0.585,0.585,0.585,0.585,2000,0.529
2015-12-23,0.585,0.585,0.585,0.585,000,0.529
2015-12-22,0.585,0.585,0.585,0.585,4000,0.529
2015-12-21,0.585,0.585,0.57,0.57,27000,0.515
2015-12-18,0.575,0.575,0.57,0.57,20000,0.515
2015-12-17,0.57,0.57,0.57,0.57,000,0.515
2015-12-16,0.57,0.57,0.57,0.57,000,0.515
2015-12-15,0.58,0.58,0.57,0.57,217800,0.515
2015-12-14,0.57,0.57,0.57,0.57,31500,0.515
2015-12-11,0.60,0.60,0.60,0.60,000,0.542
2015-12-10,0.57,0.60,0.57,0.60,72900,0.542
2015-12-09,0.63,0.63,0.63,0.63,000,0.569
2015-12-08,0.61,0.63,0.61,0.63,7600,0.569
2015-12-07,0.59,0.60,0.59,0.60,64500,0.542
2015-12-04,0.59,0.59,0.59,0.59,160000,0.533
2015-12-03,0.59,0.60,0.59,0.59,36500,0.533
2015-12-02,0.58,0.58,0.58,0.58,88200,0.524
2015-12-01,0.585,0.585,0.58,0.58,39700,0.524
2015-11-30,0.585,0.585,0.585,0.585,10000,0.529
2015-11-27,0.585,0.585,0.585,0.585,1500,0.529
2015-11-26,0.585,0.61,0.585,0.585,18700,0.529
2015-11-25,0.585,0.585,0.585,0.585,56500,0.529
2015-11-24,0.565,0.58,0.565,0.58,109300,0.524
2015-11-23,0.58,0.59,0.57,0.57,78000,0.515
2015-11-20,0.575,0.575,0.57,0.57,95000,0.515
2015-11-19,0.565,0.57,0.565,0.57,135000,0.515
2015-11-18,0.57,0.57,0.57,0.57,119600,0.515
2015-11-17,0.57,0.58,0.57,0.58,25000,0.524
2015-11-16,0.59,0.59,0.57,0.57,75300,0.515
2015-11-13,0.59,0.60,0.59,0.60,99000,0.542
2015-11-12,0.605,0.605,0.595,0.595,24500,0.538
2015-11-11,0.61,0.62,0.61,0.62,7000,0.56
2015-11-10,0.60,0.61,0.60,0.60,306000,0.542
2015-11-09,0.605,0.605,0.605,0.605,000,0.547
2015-11-06,0.605,0.605,0.605,0.605,000,0.547
2015-11-05,0.60,0.605,0.60,0.605,30000,0.547
2015-11-04,0.605,0.605,0.60,0.605,988600,0.547
2015-11-03,0.61,0.62,0.61,0.62,40000,0.56
2015-11-02,0.60,0.60,0.60,0.60,1500,0.542
2015-10-30,0.60,0.60,0.60,0.60,5000,0.542
2015-10-29,0.605,0.615,0.60,0.60,33100,0.542
2015-10-28,0.605,0.605,0.605,0.605,21000,0.547
2015-10-27,0.62,0.62,0.615,0.615,10200,0.556
2015-10-26,0.61,0.615,0.605,0.615,48700,0.556
2015-10-23,0.60,0.61,0.60,0.61,23000,0.551
2015-10-22,0.605,0.605,0.605,0.605,10800,0.547
2015-10-21,0.60,0.60,0.60,0.60,000,0.542
2015-10-20,0.60,0.60,0.60,0.60,10000,0.542
2015-10-19,0.60,0.60,0.60,0.60,100000,0.542
2015-10-16,0.605,0.615,0.605,0.615,37500,0.556
2015-10-15,0.585,0.585,0.585,0.585,000,0.529
2015-10-14,0.58,0.585,0.58,0.585,42700,0.529
2015-10-13,0.61,0.61,0.61,0.61,6300,0.551
2015-10-12,0.61,0.61,0.61,0.61,16500,0.551
2015-10-09,0.60,0.60,0.60,0.60,5000,0.542
2015-10-08,0.59,0.60,0.58,0.60,51100,0.542
2015-10-07,0.59,0.59,0.59,0.59,3000,0.533
2015-10-06,0.59,0.59,0.59,0.59,000,0.533
2015-10-05,0.59,0.59,0.59,0.59,6900,0.533
2015-10-02,0.59,0.59,0.59,0.59,2000,0.533
2015-10-01,0.60,0.60,0.60,0.60,13800,0.542
2015-09-30,0.59,0.60,0.59,0.60,15600,0.542
2015-09-29,0.58,0.58,0.58,0.58,000,0.524
2015-09-28,0.58,0.58,0.58,0.58,22600,0.524
2015-09-25,0.60,0.60,0.60,0.60,300,0.542
2015-09-24,0.61,0.61,0.61,0.61,000,0.551
2015-09-23,0.625,0.635,0.61,0.61,40600,0.551
2015-09-22,0.62,0.62,0.62,0.62,000,0.56
2015-09-21,0.62,0.62,0.62,0.62,10000,0.56
2015-09-18,0.62,0.62,0.62,0.62,000,0.56
2015-09-17,0.62,0.62,0.62,0.62,15000,0.56
2015-09-16,0.62,0.62,0.62,0.62,000,0.56
2015-09-15,0.62,0.62,0.62,0.62,5000,0.56
2015-09-14,0.62,0.62,0.62,0.62,6200,0.56
2015-09-11,0.58,0.62,0.58,0.62,12700,0.56
2015-09-10,0.66,0.66,0.66,0.66,000,0.597
2015-09-09,0.66,0.66,0.66,0.66,20000,0.597
2015-09-08,0.66,0.66,0.66,0.66,1800,0.597
2015-09-07,0.66,0.66,0.66,0.66,48100,0.597
2015-09-04,0.685,0.685,0.685,0.685,000,0.619
2015-09-03,0.67,0.685,0.67,0.685,9400,0.567
2015-09-02,0.66,0.66,0.66,0.66,000,0.547
2015-09-01,0.685,0.685,0.66,0.66,22200,0.547
2015-08-31,0.68,0.73,0.68,0.685,199800,0.567
2015-08-28,0.68,0.68,0.67,0.67,27800,0.555
2015-08-27,0.665,0.70,0.66,0.66,133700,0.547
2015-08-26,0.57,0.65,0.57,0.65,305500,0.538
2015-08-25,0.525,0.54,0.525,0.54,20300,0.447
2015-08-24,0.52,0.52,0.515,0.515,30100,0.427
2015-08-21,0.55,0.59,0.51,0.59,40100,0.489
2015-08-20,0.55,0.55,0.55,0.55,000,0.456
2015-08-19,0.555,0.56,0.55,0.55,37100,0.456
2015-08-18,0.57,0.57,0.555,0.555,33000,0.46
2015-08-17,0.59,0.59,0.57,0.57,11400,0.472
2015-08-14,0.59,0.59,0.59,0.59,552000,0.489
2015-08-13,0.57,0.57,0.57,0.57,000,0.472
2015-08-12,0.555,0.57,0.555,0.57,43000,0.472
2015-08-11,0.57,0.57,0.57,0.57,500,0.472
2015-08-10,0.59,0.59,0.59,0.59,000,0.489
2015-08-07,0.59,0.59,0.59,0.59,9500,0.489
2015-08-06,0.59,0.59,0.59,0.59,000,0.489
2015-08-05,0.57,0.59,0.57,0.59,26600,0.489
2015-08-04,0.57,0.59,0.57,0.59,200000,0.489
2015-08-03,0.55,0.58,0.55,0.55,22200,0.456
2015-07-31,0.56,0.56,0.55,0.55,57700,0.456
2015-07-30,0.555,0.565,0.55,0.55,32700,0.456
2015-07-29,0.57,0.57,0.555,0.56,33700,0.464
2015-07-28,0.57,0.57,0.57,0.57,21800,0.472
2015-07-27,0.57,0.57,0.55,0.55,150900,0.456
2015-07-24,0.57,0.57,0.57,0.57,35100,0.472
2015-07-23,0.56,0.56,0.56,0.56,13000,0.464
2015-07-22,0.56,0.57,0.54,0.54,57100,0.447
2015-07-21,0.58,0.58,0.58,0.58,800,0.48
2015-07-20,0.58,0.58,0.58,0.58,10000,0.48
2015-07-17,0.60,0.60,0.60,0.60,000,0.497
2015-07-16,0.60,0.60,0.60,0.60,000,0.497
2015-07-15,0.58,0.60,0.58,0.60,17000,0.497
2015-07-14,0.58,0.60,0.57,0.57,42500,0.472
2015-07-13,0.59,0.59,0.58,0.58,95000,0.48
2015-07-10,0.60,0.61,0.595,0.595,11600,0.493
2015-07-09,0.585,0.585,0.585,0.585,28000,0.485
2015-07-08,0.59,0.61,0.59,0.59,19300,0.489
2015-07-07,0.62,0.62,0.58,0.58,112000,0.48
2015-07-06,0.60,0.62,0.60,0.62,5000,0.514
2015-07-03,0.58,0.58,0.57,0.57,71500,0.472
2015-07-02,0.60,0.60,0.60,0.60,1000,0.497
2015-07-01,0.60,0.60,0.60,0.60,000,0.497
2015-06-30,0.59,0.60,0.59,0.60,29500,0.497
2015-06-29,0.595,0.595,0.59,0.59,17400,0.489
2015-06-26,0.60,0.60,0.59,0.59,65400,0.489
2015-06-25,0.59,0.60,0.59,0.60,184300,0.497
2015-06-24,0.66,0.67,0.57,0.59,350300,0.489
2015-06-23,0.67,0.69,0.67,0.69,72700,0.572
2015-06-22,0.66,0.66,0.66,0.66,5000,0.547
2015-06-19,0.65,0.65,0.65,0.65,16300,0.538
2015-06-18,0.62,0.62,0.62,0.62,000,0.514
2015-06-17,0.66,0.66,0.62,0.62,138100,0.514
2015-06-16,0.65,0.66,0.65,0.66,61000,0.547
2015-06-15,0.64,0.64,0.63,0.64,12000,0.53
2015-06-12,0.66,0.66,0.66,0.66,8700,0.547
2015-06-11,0.64,0.66,0.63,0.66,1335700,0.547
2015-06-10,0.65,0.66,0.65,0.66,204100,0.547
2015-06-09,0.655,0.655,0.655,0.655,000,0.543
2015-06-08,0.655,0.655,0.655,0.655,000,0.543
2015-06-05,0.655,0.655,0.655,0.655,1500,0.543
2015-06-04,0.65,0.655,0.63,0.655,370400,0.543
2015-06-03,0.665,0.665,0.65,0.65,22300,0.538
2015-06-02,0.665,0.665,0.665,0.665,50000,0.551
2015-06-01,0.65,0.67,0.65,0.67,160900,0.555
2015-05-29,0.65,0.65,0.635,0.635,124000,0.526
2015-05-28,0.64,0.65,0.64,0.65,55600,0.538
2015-05-27,0.645,0.645,0.64,0.64,123200,0.53
2015-05-26,0.63,0.63,0.63,0.63,000,0.522
2015-05-25,0.64,0.64,0.63,0.63,55000,0.522
2015-05-22,0.655,0.655,0.63,0.63,2500,0.522
2015-05-21,0.64,0.66,0.64,0.66,5000,0.547
2015-05-20,0.66,0.66,0.64,0.64,63400,0.53
2015-05-19,0.65,0.66,0.65,0.65,30000,0.538
2015-05-18,0.65,0.65,0.64,0.64,71000,0.53
2015-05-15,0.67,0.67,0.65,0.65,8400,0.538
2015-05-14,0.65,0.67,0.65,0.65,33500,0.538
2015-05-13,0.65,0.65,0.65,0.65,14800,0.538
2015-05-12,0.65,0.65,0.65,0.65,000,0.538
2015-05-11,0.65,0.65,0.65,0.65,000,0.538
2015-05-08,0.65,0.65,0.62,0.65,142600,0.538
2015-05-07,0.625,0.625,0.62,0.62,33800,0.514
2015-05-06,0.64,0.64,0.62,0.62,91700,0.514
2015-05-05,0.635,0.635,0.62,0.62,38700,0.514
2015-05-04,0.64,0.64,0.64,0.64,21500,0.53
2015-05-01,0.66,0.66,0.64,0.64,124500,0.53
2015-04-30,0.64,0.655,0.64,0.655,58900,0.543
2015-04-29,0.65,0.65,0.63,0.635,90100,0.526
2015-04-28,0.64,0.645,0.64,0.645,45500,0.534
2015-04-27,0.64,0.65,0.64,0.64,45300,0.53
2015-04-24,0.66,0.66,0.65,0.65,105300,0.538
2015-04-23,0.63,0.66,0.62,0.66,81600,0.547
2015-04-22,0.66,0.67,0.65,0.67,159900,0.555
2015-04-21,0.66,0.67,0.66,0.66,25400,0.547
2015-04-20,0.67,0.67,0.65,0.65,26000,0.538
2015-04-17,0.66,0.67,0.655,0.655,54000,0.543
2015-04-16,0.685,0.69,0.655,0.66,73800,0.547
2015-04-15,0.68,0.71,0.68,0.685,17600,0.567
2015-04-14,0.675,0.70,0.675,0.68,41000,0.563
2015-04-13,0.69,0.70,0.675,0.675,91700,0.559
2015-04-10,0.69,0.71,0.69,0.69,11000,0.572
2015-04-09,0.70,0.71,0.69,0.70,68300,0.58
2015-04-08,0.70,0.70,0.695,0.70,34400,0.58
2015-04-07,0.70,0.71,0.70,0.70,40700,0.58
2015-04-06,0.70,0.70,0.70,0.70,000,0.58
2015-04-03,0.70,0.70,0.70,0.70,000,0.58
2015-04-02,0.705,0.705,0.70,0.70,18600,0.58
2015-04-01,0.70,0.70,0.70,0.70,000,0.58
2015-03-31,0.705,0.71,0.70,0.70,3300,0.58
2015-03-30,0.685,0.71,0.685,0.69,25700,0.572
2015-03-27,0.68,0.68,0.68,0.68,1900,0.563
2015-03-26,0.675,0.675,0.675,0.675,000,0.559
2015-03-25,0.675,0.685,0.675,0.675,18300,0.559
2015-03-24,0.68,0.685,0.68,0.68,39900,0.563
2015-03-23,0.695,0.70,0.675,0.675,51000,0.559
2015-03-20,0.68,0.68,0.68,0.68,17000,0.563
2015-03-19,0.69,0.69,0.68,0.68,13000,0.563
2015-03-18,0.68,0.68,0.67,0.67,5300,0.555
2015-03-17,0.68,0.68,0.68,0.68,20200,0.563
2015-03-16,0.69,0.69,0.68,0.68,30000,0.563
2015-03-13,0.69,0.69,0.69,0.69,42200,0.572
2015-03-12,0.68,0.69,0.675,0.69,38200,0.572
2015-03-11,0.67,0.68,0.67,0.68,6600,0.563
2015-03-10,0.70,0.70,0.67,0.67,52300,0.555
2015-03-09,0.68,0.70,0.68,0.68,48500,0.563
2015-03-06,0.70,0.70,0.675,0.68,22100,0.563
2015-03-05,0.71,0.71,0.71,0.71,10000,0.565
2015-03-04,0.71,0.71,0.705,0.71,54400,0.565
2015-03-03,0.73,0.73,0.72,0.72,26800,0.572
2015-03-02,0.73,0.73,0.72,0.73,66000,0.58
2015-02-27,0.75,0.75,0.73,0.73,130000,0.58
2015-02-26,0.74,0.76,0.725,0.725,99500,0.576
2015-02-25,0.745,0.75,0.74,0.75,70600,0.596
2015-02-24,0.80,0.80,0.73,0.74,206500,0.588
2015-02-23,0.82,0.82,0.775,0.80,62300,0.636
2015-02-20,0.80,0.80,0.78,0.80,124700,0.636
2015-02-19,0.755,0.80,0.755,0.79,568500,0.628
2015-02-18,0.75,0.76,0.75,0.76,37000,0.604
2015-02-17,0.74,0.75,0.74,0.75,122300,0.596
2015-02-16,0.745,0.745,0.74,0.74,50000,0.588
2015-02-13,0.75,0.765,0.73,0.73,131500,0.58
2015-02-12,0.735,0.74,0.735,0.74,56200,0.588
2015-02-11,0.75,0.75,0.73,0.74,73200,0.588
2015-02-10,0.755,0.76,0.73,0.73,173900,0.58
2015-02-09,0.735,0.755,0.73,0.74,134700,0.588
2015-02-06,0.715,0.73,0.715,0.72,322000,0.572
2015-02-05,0.73,0.75,0.715,0.73,113500,0.58
2015-02-04,0.72,0.755,0.72,0.755,34600,0.60
2015-02-03,0.72,0.75,0.71,0.715,287200,0.568
2015-02-02,0.765,0.765,0.705,0.71,319800,0.565
2015-01-30,0.765,0.77,0.76,0.77,533600,0.612
2015-01-29,0.80,0.80,0.62,0.775,1325900,0.616
2015-01-28,0.945,0.95,0.94,0.95,31400,0.755
2015-01-27,0.95,0.95,0.94,0.95,87800,0.755
2015-01-26,0.95,0.95,0.95,0.95,000,0.755
2015-01-23,0.945,0.95,0.945,0.95,22500,0.755
2015-01-22,0.95,0.95,0.945,0.945,41500,0.751
2015-01-21,0.95,0.95,0.94,0.95,86300,0.755
2015-01-20,0.95,0.95,0.935,0.95,38100,0.755
2015-01-19,0.94,0.95,0.93,0.95,73500,0.755
2015-01-16,0.945,0.945,0.94,0.94,42300,0.747
2015-01-15,0.94,0.955,0.94,0.95,95100,0.755
2015-01-14,0.955,0.955,0.94,0.94,96600,0.747
2015-01-13,0.96,0.96,0.95,0.96,22700,0.763
2015-01-12,0.95,0.97,0.95,0.965,55400,0.767
2015-01-09,0.96,0.96,0.95,0.95,60000,0.755
2015-01-08,0.96,0.96,0.95,0.96,32900,0.763
2015-01-07,0.955,0.96,0.95,0.95,70000,0.755
2015-01-06,0.97,0.97,0.95,0.96,141100,0.763
2015-01-05,0.95,0.97,0.95,0.965,175700,0.767
2015-01-02,0.92,0.95,0.92,0.95,7800,0.755
2015-01-01,0.92,0.92,0.92,0.92,000,0.731
2014-12-31,0.92,0.92,0.92,0.92,000,0.731
2014-12-30,0.91,0.92,0.91,0.92,67500,0.731
2014-12-29,0.90,0.905,0.90,0.90,27000,0.716
2014-12-26,0.90,0.90,0.90,0.90,000,0.716
2014-12-25,0.90,0.90,0.90,0.90,000,0.716
2014-12-24,0.905,0.91,0.89,0.90,57300,0.716
2014-12-23,0.91,0.91,0.91,0.91,102900,0.724
2014-12-22,0.92,0.925,0.905,0.91,309400,0.724
2014-12-19,0.91,0.92,0.91,0.92,84400,0.731
2014-12-18,0.90,0.91,0.90,0.91,23600,0.724
2014-12-17,0.91,0.91,0.90,0.90,58100,0.716
2014-12-16,0.92,0.92,0.90,0.90,241800,0.716
2014-12-15,0.92,0.95,0.915,0.92,343200,0.731
2014-12-12,0.91,0.93,0.91,0.92,267700,0.731
2014-12-11,0.91,0.91,0.91,0.91,58900,0.724
2014-12-10,0.91,0.91,0.905,0.91,81400,0.724
2014-12-09,0.915,0.92,0.90,0.91,225800,0.724
2014-12-08,0.89,0.90,0.89,0.90,22000,0.716
2014-12-05,0.91,0.91,0.89,0.89,17800,0.708
2014-12-04,0.90,0.90,0.90,0.90,000,0.716
2014-12-03,0.88,0.91,0.88,0.90,68900,0.716
2014-12-02,0.90,0.915,0.90,0.915,27000,0.728
2014-12-01,0.90,0.90,0.90,0.90,15000,0.716
2014-11-28,0.93,0.93,0.90,0.925,62600,0.735
2014-11-27,0.94,0.94,0.92,0.93,21700,0.739
2014-11-26,0.97,0.97,0.95,0.96,56500,0.763
2014-11-25,0.97,0.98,0.97,0.97,16700,0.771
2014-11-24,0.95,0.95,0.95,0.95,700,0.755
2014-11-21,0.94,0.95,0.93,0.93,20400,0.739
2014-11-20,0.94,0.94,0.94,0.94,30000,0.747
2014-11-19,0.92,0.92,0.92,0.92,000,0.731
2014-11-18,0.90,0.92,0.88,0.92,62000,0.731
2014-11-17,0.91,0.91,0.87,0.90,56900,0.716
2014-11-14,0.89,0.90,0.89,0.90,19700,0.716
2014-11-13,0.88,0.89,0.88,0.89,9100,0.708
2014-11-12,0.86,0.88,0.86,0.88,27400,0.70
2014-11-11,0.855,0.855,0.85,0.855,72200,0.68
2014-11-10,0.855,0.87,0.855,0.855,20000,0.68
2014-11-07,0.85,0.86,0.85,0.85,67100,0.676
2014-11-06,0.85,0.87,0.85,0.87,56000,0.692
2014-11-05,0.855,0.855,0.855,0.855,11700,0.68
2014-11-04,0.87,0.87,0.86,0.87,44300,0.692
2014-11-03,0.87,0.87,0.86,0.86,121000,0.684
2014-10-31,0.88,0.90,0.86,0.90,94600,0.716
2014-10-30,0.91,0.91,0.90,0.91,59800,0.724
2014-10-29,0.91,0.91,0.91,0.91,22400,0.724
2014-10-28,0.88,0.88,0.88,0.88,000,0.70
2014-10-27,0.86,0.88,0.86,0.88,44600,0.70
2014-10-24,0.86,0.86,0.835,0.845,113600,0.672
2014-10-23,0.875,0.875,0.86,0.86,15800,0.684
2014-10-22,0.90,0.90,0.875,0.88,50300,0.70
2014-10-21,0.86,0.86,0.86,0.86,000,0.684
2014-10-20,0.87,0.875,0.86,0.86,110700,0.684
2014-10-17,0.865,0.87,0.865,0.865,28500,0.688
2014-10-16,0.86,0.87,0.86,0.86,58800,0.684
2014-10-15,0.845,0.845,0.84,0.845,18500,0.672
2014-10-14,0.845,0.86,0.845,0.845,43600,0.672
2014-10-13,0.86,0.87,0.86,0.87,11500,0.692
2014-10-10,0.875,0.875,0.82,0.86,96900,0.684
2014-10-09,0.89,0.89,0.89,0.89,000,0.708
2014-10-08,0.90,0.90,0.89,0.89,29500,0.708
2014-10-07,0.90,0.90,0.90,0.90,000,0.716
2014-10-06,0.90,0.90,0.90,0.90,000,0.716
2014-10-03,0.90,0.90,0.90,0.90,000,0.716
2014-10-02,0.89,0.90,0.89,0.90,16700,0.716
2014-10-01,0.89,0.89,0.89,0.89,31500,0.708
2014-09-30,0.89,0.89,0.89,0.89,7000,0.708
2014-09-29,0.89,0.89,0.89,0.89,32600,0.708
2014-09-26,0.92,0.935,0.89,0.89,33900,0.708
2014-09-25,0.915,0.925,0.91,0.92,55500,0.731
2014-09-24,0.905,0.91,0.90,0.90,40100,0.716
2014-09-23,0.905,0.905,0.905,0.905,4000,0.72
2014-09-22,0.905,0.905,0.905,0.905,5700,0.72
2014-09-19,0.905,0.905,0.905,0.905,10000,0.72
2014-09-18,0.91,0.91,0.905,0.905,42300,0.72
2014-09-17,0.91,0.91,0.905,0.905,26300,0.72
2014-09-16,0.92,0.92,0.90,0.90,54800,0.716
2014-09-15,0.925,0.925,0.91,0.91,10000,0.724
2014-09-12,0.95,0.95,0.95,0.95,22000,0.755
2014-09-11,0.94,0.95,0.93,0.95,62300,0.755
2014-09-10,0.94,0.94,0.93,0.94,43400,0.747
2014-09-09,0.95,0.95,0.94,0.94,59100,0.747
2014-09-08,0.98,0.98,0.95,0.95,21400,0.755
2014-09-05,1.00,1.00,0.99,0.99,24300,0.787
2014-09-04,1.00,1.00,1.00,1.00,5309000,0.795
2014-09-03,1.00,1.01,0.99,0.995,207300,0.791
2014-09-02,1.03,1.03,0.995,1.02,109700,0.766
2014-09-01,1.035,1.035,1.005,1.03,51600,0.773
2014-08-29,1.02,1.03,1.01,1.01,75400,0.758
2014-08-28,1.015,1.03,1.005,1.02,169200,0.766
2014-08-27,0.995,1.05,0.995,1.045,161900,0.784
2014-08-26,0.96,0.99,0.96,0.99,123800,0.743
2014-08-25,0.965,0.97,0.95,0.96,92000,0.721
2014-08-22,0.97,0.97,0.965,0.965,19000,0.724
2014-08-21,0.935,0.98,0.92,0.97,267900,0.728
2014-08-20,0.91,0.91,0.91,0.91,6700,0.683
2014-08-19,0.92,0.92,0.92,0.92,25000,0.691
2014-08-18,0.91,0.91,0.91,0.91,000,0.683
2014-08-15,0.92,0.93,0.91,0.91,73600,0.683
2014-08-14,0.92,0.92,0.90,0.91,56200,0.683
2014-08-13,0.91,0.91,0.895,0.91,70300,0.683
2014-08-12,0.90,0.90,0.89,0.90,103900,0.675
2014-08-11,0.885,0.885,0.885,0.885,32300,0.664
2014-08-08,0.90,0.90,0.90,0.90,11000,0.675
2014-08-07,0.89,0.89,0.885,0.885,29000,0.664
2014-08-06,0.90,0.91,0.89,0.89,145100,0.668
2014-08-05,0.91,0.91,0.90,0.90,10000,0.675
2014-08-04,0.93,0.93,0.93,0.93,10600,0.698
2014-08-01,0.91,0.94,0.885,0.94,190500,0.706
2014-07-31,0.89,0.89,0.89,0.89,24700,0.668
2014-07-30,0.89,0.90,0.89,0.89,60200,0.668
2014-07-29,0.90,0.90,0.895,0.895,18600,0.672
2014-07-28,0.89,0.89,0.89,0.89,17700,0.668
2014-07-25,0.90,0.91,0.90,0.91,41000,0.683
2014-07-24,0.88,0.89,0.88,0.89,33500,0.668
2014-07-23,0.88,0.88,0.88,0.88,29000,0.66
2014-07-22,0.90,0.90,0.90,0.90,32800,0.675
2014-07-21,0.92,0.92,0.90,0.91,37200,0.683
2014-07-18,0.89,0.90,0.88,0.90,23100,0.675
2014-07-17,0.90,0.90,0.89,0.90,32500,0.675
2014-07-16,0.92,0.92,0.92,0.92,30000,0.691
2014-07-15,0.90,0.92,0.90,0.92,15400,0.691
2014-07-14,0.90,0.92,0.90,0.90,23100,0.675
2014-07-11,0.90,0.90,0.90,0.90,14700,0.675
2014-07-10,0.88,0.88,0.88,0.88,10000,0.66
2014-07-09,0.92,0.92,0.90,0.90,45700,0.675
2014-07-08,0.86,0.86,0.86,0.86,000,0.645
2014-07-07,0.86,0.86,0.86,0.86,000,0.645
2014-07-04,0.92,0.96,0.86,0.86,136900,0.645
2014-07-03,0.925,0.93,0.92,0.92,64500,0.691
2014-07-02,0.925,0.93,0.925,0.925,11000,0.694
2014-07-01,0.90,0.92,0.90,0.92,123100,0.691
2014-06-30,0.87,0.88,0.86,0.88,91600,0.66
2014-06-27,0.86,0.86,0.86,0.86,19500,0.645
2014-06-26,0.86,0.86,0.86,0.86,300,0.645
2014-06-25,0.855,0.86,0.855,0.86,29700,0.645
2014-06-24,0.84,0.87,0.84,0.85,104900,0.638
2014-06-23,0.85,0.85,0.85,0.85,25000,0.638
2014-06-20,0.79,0.79,0.79,0.79,72800,0.593
2014-06-19,0.79,0.79,0.76,0.79,81900,0.593
2014-06-18,0.79,0.79,0.79,0.79,7300,0.593
2014-06-17,0.795,0.795,0.795,0.795,000,0.597
2014-06-16,0.795,0.795,0.795,0.795,11100,0.597
2014-06-13,0.785,0.795,0.775,0.795,46400,0.597
2014-06-12,0.795,0.795,0.79,0.79,38100,0.593
2014-06-11,0.79,0.79,0.79,0.79,000,0.593
2014-06-10,0.83,0.83,0.79,0.79,9300,0.593
2014-06-09,0.81,0.81,0.81,0.81,000,0.608
2014-06-06,0.79,0.81,0.79,0.81,10000,0.608
2014-06-05,0.79,0.79,0.78,0.785,48300,0.589
2014-06-04,0.81,0.81,0.79,0.79,37700,0.593
2014-06-03,0.81,0.825,0.81,0.81,46100,0.608
2014-06-02,0.81,0.81,0.81,0.81,64100,0.608
2014-05-30,0.81,0.81,0.81,0.81,7500,0.608
2014-05-29,0.79,0.79,0.79,0.79,000,0.593
2014-05-28,0.80,0.80,0.79,0.79,42400,0.593
2014-05-27,0.80,0.81,0.79,0.81,79000,0.608
2014-05-26,0.795,0.80,0.795,0.80,30000,0.60
2014-05-23,0.78,0.80,0.78,0.80,20600,0.60
2014-05-22,0.78,0.78,0.78,0.78,000,0.585
2014-05-21,0.77,0.78,0.77,0.78,38200,0.585
2014-05-20,0.78,0.78,0.78,0.78,8100,0.585
2014-05-19,0.79,0.79,0.79,0.79,000,0.593
2014-05-16,0.78,0.83,0.77,0.79,72100,0.593
2014-05-15,0.825,0.825,0.79,0.79,130500,0.593
2014-05-14,0.825,0.825,0.825,0.825,3800,0.619
2014-05-13,0.795,0.80,0.795,0.80,25200,0.60
2014-05-12,0.80,0.80,0.80,0.80,000,0.60
2014-05-09,0.80,0.80,0.79,0.80,18000,0.60
2014-05-08,0.80,0.80,0.80,0.80,3500,0.60
2014-05-07,0.80,0.80,0.797,0.797,163100,0.598
2014-05-06,0.80,0.80,0.80,0.80,000,0.60
2014-05-05,0.82,0.82,0.80,0.80,26500,0.60
2014-05-02,0.82,0.82,0.82,0.82,000,0.615
2014-05-01,0.82,0.82,0.82,0.82,14700,0.615
2014-04-30,0.79,0.82,0.79,0.82,68800,0.615
2014-04-29,0.80,0.80,0.78,0.78,31700,0.585
2014-04-28,0.80,0.82,0.80,0.82,115200,0.615
2014-04-25,0.82,0.82,0.82,0.82,000,0.615
2014-04-24,0.82,0.82,0.815,0.82,37200,0.615
2014-04-23,0.82,0.82,0.82,0.82,20000,0.615
2014-04-22,0.82,0.82,0.82,0.82,148000,0.615
2014-04-21,0.82,0.82,0.82,0.82,000,0.615
2014-04-18,0.82,0.82,0.82,0.82,000,0.615
2014-04-17,0.82,0.82,0.82,0.82,69000,0.615
2014-04-16,0.82,0.82,0.815,0.82,15200,0.615
2014-04-15,0.84,0.84,0.83,0.83,28200,0.623
2014-04-14,0.84,0.84,0.84,0.84,6000,0.63
2014-04-11,0.83,0.85,0.83,0.85,11800,0.638
2014-04-10,0.83,0.83,0.83,0.83,30000,0.623
2014-04-09,0.80,0.80,0.79,0.80,63900,0.60
2014-04-08,0.80,0.80,0.80,0.80,23200,0.60
2014-04-07,0.81,0.83,0.80,0.80,73000,0.60
2014-04-04,0.81,0.81,0.80,0.80,37400,0.60
2014-04-03,0.83,0.83,0.81,0.81,71200,0.608
2014-04-02,0.835,0.84,0.835,0.84,5000,0.63
2014-04-01,0.84,0.84,0.835,0.835,5000,0.627
2014-03-31,0.85,0.85,0.85,0.85,000,0.638
2014-03-28,0.85,0.85,0.85,0.85,8400,0.638
2014-03-27,0.88,0.88,0.835,0.835,68700,0.627
2014-03-26,0.84,0.85,0.84,0.85,21500,0.638
2014-03-25,0.84,0.84,0.84,0.84,000,0.63
2014-03-24,0.845,0.845,0.84,0.84,18400,0.63
2014-03-21,0.89,0.89,0.87,0.87,70800,0.653
2014-03-20,0.87,0.87,0.87,0.87,8500,0.653
2014-03-19,0.865,0.865,0.865,0.865,000,0.649
2014-03-18,0.87,0.87,0.865,0.865,23500,0.649
2014-03-17,0.865,0.865,0.865,0.865,000,0.649
2014-03-14,0.88,0.88,0.865,0.865,4600,0.649
2014-03-13,0.89,0.89,0.89,0.89,000,0.668
2014-03-12,0.92,0.92,0.89,0.89,37400,0.668
2014-03-11,0.93,0.93,0.93,0.93,000,0.698
2014-03-10,0.93,0.93,0.93,0.93,2100,0.698
2014-03-07,0.93,0.93,0.93,0.93,17300,0.698
2014-03-06,0.93,0.93,0.93,0.93,35000,0.698
2014-03-05,0.93,0.93,0.93,0.93,000,0.698
2014-03-04,0.93,0.93,0.93,0.93,000,0.698
2014-03-03,0.93,0.93,0.93,0.93,000,0.698
2014-02-28,0.92,0.93,0.92,0.93,19000,0.677
2014-02-27,0.935,0.935,0.935,0.935,15000,0.68
2014-02-26,0.93,0.93,0.90,0.90,11000,0.655
2014-02-25,0.875,0.89,0.875,0.89,24400,0.647
2014-02-24,0.84,0.84,0.83,0.83,22200,0.604
2014-02-21,0.87,0.87,0.86,0.86,81000,0.626
2014-02-20,0.85,0.87,0.85,0.86,63000,0.626
2014-02-19,0.84,0.85,0.84,0.85,16400,0.618
2014-02-18,0.85,0.85,0.84,0.85,70000,0.618
2014-02-17,0.85,0.85,0.85,0.85,000,0.618
2014-02-14,0.85,0.85,0.85,0.85,22500,0.618
2014-02-13,0.86,0.86,0.86,0.86,000,0.626
2014-02-12,0.86,0.86,0.86,0.86,000,0.626
2014-02-11,0.85,0.86,0.85,0.86,144600,0.626
2014-02-10,0.86,0.87,0.85,0.87,51700,0.633
2014-02-07,0.87,0.875,0.86,0.86,41700,0.626
2014-02-06,0.86,0.86,0.86,0.86,000,0.626
2014-02-05,0.86,0.86,0.86,0.86,800,0.626
2014-02-04,0.85,0.85,0.85,0.85,12900,0.618
2014-02-03,0.85,0.86,0.85,0.86,23300,0.626
2014-01-31,0.85,0.85,0.84,0.84,11000,0.611
2014-01-30,0.875,0.875,0.875,0.875,000,0.637
2014-01-29,0.93,0.93,0.87,0.875,110400,0.637
2014-01-28,0.92,0.92,0.92,0.92,100,0.669
2014-01-27,0.92,0.92,0.92,0.92,000,0.669
2014-01-24,0.92,0.92,0.92,0.92,000,0.669
2014-01-23,0.92,0.93,0.92,0.92,80700,0.669
2014-01-22,0.92,0.92,0.92,0.92,000,0.669
2014-01-21,0.92,0.92,0.92,0.92,000,0.669
2014-01-20,0.90,0.92,0.90,0.92,5000,0.669
2014-01-17,0.87,0.90,0.87,0.90,23000,0.655
2014-01-16,0.88,0.88,0.88,0.88,7000,0.64
2014-01-15,0.88,0.90,0.88,0.88,60600,0.64
2014-01-14,0.88,0.88,0.88,0.88,2000,0.64
2014-01-13,0.90,0.90,0.90,0.90,000,0.655
2014-01-10,0.90,0.90,0.90,0.90,4700,0.655
2014-01-09,0.91,0.91,0.91,0.91,000,0.662
2014-01-08,0.90,0.91,0.90,0.91,6000,0.662
2014-01-07,0.91,0.91,0.91,0.91,000,0.662
2014-01-06,0.91,0.91,0.91,0.91,10000,0.662
2014-01-03,0.92,0.92,0.92,0.92,000,0.669
2014-01-02,0.92,0.92,0.92,0.92,2000,0.669
2014-01-01,0.92,0.92,0.92,0.92,000,0.669
2013-12-31,0.92,0.92,0.92,0.92,000,0.669
2013-12-30,0.90,0.92,0.90,0.92,17000,0.669
2013-12-27,0.875,0.875,0.875,0.875,000,0.637
2013-12-26,0.875,0.875,0.875,0.875,000,0.637
2013-12-25,0.875,0.875,0.875,0.875,000,0.637
2013-12-24,0.875,0.875,0.875,0.875,5300,0.637
2013-12-23,0.89,0.89,0.89,0.89,8000,0.647
2013-12-20,0.84,0.85,0.84,0.85,32700,0.618
2013-12-19,0.85,0.85,0.85,0.85,5300,0.618
2013-12-18,0.785,0.82,0.785,0.82,14100,0.597
2013-12-17,0.835,0.835,0.75,0.78,65900,0.567
2013-12-16,0.845,0.85,0.83,0.835,60700,0.607
2013-12-13,0.85,0.86,0.845,0.845,53500,0.615
2013-12-12,0.90,0.90,0.90,0.90,000,0.655
2013-12-11,0.91,0.91,0.90,0.90,18900,0.655
2013-12-10,0.94,0.94,0.94,0.94,35000,0.684
2013-12-09,0.95,0.95,0.94,0.94,3700,0.684
2013-12-06,0.975,0.975,0.975,0.975,10000,0.709
2013-12-05,0.94,1.00,0.94,1.00,354300,0.727
2013-12-04,0.88,0.96,0.88,0.935,54100,0.68
2013-12-03,0.85,0.93,0.85,0.93,20400,0.677
2013-12-02,0.83,0.85,0.83,0.85,11500,0.618
2013-11-29,0.83,0.83,0.81,0.82,47000,0.597
2013-11-28,0.81,0.81,0.79,0.80,26000,0.582
2013-11-27,0.88,0.88,0.88,0.88,600,0.64
2013-11-26,0.89,0.89,0.89,0.89,1500,0.647
2013-11-25,0.91,0.91,0.91,0.91,000,0.662
2013-11-22,0.91,0.91,0.91,0.91,000,0.662
2013-11-21,0.91,0.91,0.91,0.91,21100,0.662
2013-11-20,0.92,0.92,0.92,0.92,000,0.669
2013-11-19,0.93,0.93,0.92,0.92,15500,0.669
2013-11-18,0.925,0.93,0.925,0.93,5200,0.677
2013-11-15,0.925,0.925,0.925,0.925,000,0.673
2013-11-14,0.925,0.925,0.92,0.925,37000,0.673
2013-11-13,0.90,0.925,0.90,0.925,76900,0.673
2013-11-12,0.93,0.93,0.93,0.93,000,0.677
2013-11-11,0.93,0.93,0.93,0.93,000,0.677
2013-11-08,0.90,0.93,0.90,0.93,31000,0.677
2013-11-07,0.92,0.92,0.92,0.92,000,0.669
2013-11-06,0.92,0.92,0.92,0.92,000,0.669
2013-11-05,0.92,0.92,0.92,0.92,000,0.669
2013-11-04,0.93,0.93,0.92,0.92,6200,0.669
2013-11-01,0.90,0.93,0.90,0.93,47000,0.677
2013-10-31,0.905,0.905,0.90,0.905,29200,0.658
2013-10-30,0.91,0.91,0.90,0.90,20000,0.655
2013-10-29,0.91,0.91,0.91,0.91,2000,0.662
2013-10-28,0.92,0.93,0.91,0.91,12800,0.662
2013-10-25,0.95,0.95,0.92,0.92,39200,0.669
2013-10-24,0.92,0.93,0.92,0.93,18600,0.677
2013-10-23,0.91,0.91,0.90,0.90,85000,0.655
2013-10-22,0.92,0.92,0.92,0.92,17800,0.669
2013-10-21,0.92,0.92,0.915,0.92,67000,0.669
2013-10-18,0.92,0.92,0.915,0.915,35500,0.666
2013-10-17,0.91,0.91,0.905,0.905,11000,0.658
2013-10-16,0.905,0.905,0.905,0.905,000,0.658
2013-10-15,0.905,0.905,0.905,0.905,000,0.658
2013-10-14,0.91,0.91,0.905,0.905,11600,0.658
2013-10-11,0.92,0.92,0.91,0.91,11000,0.662
2013-10-10,0.93,0.93,0.93,0.93,1000,0.677
2013-10-09,0.91,0.93,0.87,0.90,77500,0.655
2013-10-08,0.89,0.91,0.885,0.91,138600,0.662
2013-10-07,0.89,0.90,0.89,0.90,40800,0.655
2013-10-04,0.89,0.89,0.89,0.89,11000,0.647
2013-10-03,0.88,0.88,0.88,0.88,4600,0.64
2013-10-02,0.87,0.90,0.87,0.90,18200,0.655
2013-10-01,0.88,0.88,0.865,0.87,55000,0.633
2013-09-30,0.885,0.885,0.885,0.885,19400,0.644
2013-09-27,0.895,0.895,0.885,0.885,7200,0.644
2013-09-26,0.89,0.89,0.88,0.88,10000,0.64
2013-09-25,0.895,0.895,0.895,0.895,21000,0.651
2013-09-24,0.89,0.895,0.89,0.89,22100,0.647
2013-09-23,0.90,0.90,0.895,0.895,38500,0.651
2013-09-20,0.91,0.91,0.91,0.91,000,0.662
2013-09-19,0.91,0.91,0.89,0.91,24000,0.662
2013-09-18,0.90,0.90,0.89,0.89,10000,0.647
2013-09-17,0.91,0.91,0.90,0.90,105000,0.655
2013-09-16,0.90,0.90,0.90,0.90,000,0.655
2013-09-13,0.94,0.94,0.90,0.90,40100,0.655
2013-09-12,0.92,0.94,0.92,0.94,28500,0.684
2013-09-11,0.91,0.92,0.91,0.92,58700,0.669
2013-09-10,0.90,0.905,0.88,0.90,169900,0.655
2013-09-09,0.89,0.90,0.855,0.89,150500,0.647
2013-09-06,0.89,0.89,0.87,0.87,17000,0.633
2013-09-05,0.87,0.89,0.86,0.86,66900,0.626
2013-09-04,0.85,0.87,0.85,0.87,26800,0.633
2013-09-03,0.88,0.89,0.835,0.85,466400,0.618
2013-09-02,0.90,0.90,0.88,0.88,56100,0.64
2013-08-30,0.93,0.93,0.92,0.92,160900,0.638
2013-08-29,0.92,0.94,0.92,0.925,279500,0.642
2013-08-28,0.91,0.92,0.91,0.92,52600,0.638
2013-08-27,0.94,0.94,0.91,0.915,115900,0.635
2013-08-26,0.95,0.95,0.94,0.94,140400,0.652
2013-08-23,0.90,0.90,0.895,0.90,122200,0.624
2013-08-22,0.91,0.91,0.895,0.90,155200,0.624
2013-08-21,0.95,0.95,0.91,0.91,104100,0.631
2013-08-20,0.95,0.95,0.95,0.95,13100,0.659
2013-08-19,0.925,0.925,0.925,0.925,9000,0.642
2013-08-16,0.91,0.93,0.905,0.93,130300,0.645
2013-08-15,0.91,0.92,0.91,0.92,87700,0.638
2013-08-14,0.91,0.91,0.90,0.90,7500,0.624
2013-08-13,0.92,0.92,0.915,0.915,17200,0.635
2013-08-12,0.915,0.92,0.90,0.91,61600,0.631
2013-08-09,0.885,0.90,0.885,0.89,63000,0.617
2013-08-08,0.91,0.91,0.88,0.88,27700,0.61
2013-08-07,0.87,0.93,0.87,0.92,69700,0.638
2013-08-06,0.845,0.87,0.845,0.87,70900,0.603
2013-08-05,0.85,0.85,0.84,0.84,22500,0.583
2013-08-02,0.84,0.85,0.84,0.845,97500,0.586
2013-08-01,0.84,0.86,0.84,0.85,24100,0.59
2013-07-31,0.83,0.84,0.83,0.84,75100,0.583
2013-07-30,0.84,0.84,0.84,0.84,000,0.583
2013-07-29,0.84,0.86,0.84,0.84,63100,0.583
2013-07-26,0.82,0.84,0.82,0.84,40400,0.583
2013-07-25,0.84,0.84,0.82,0.82,11000,0.569
2013-07-24,0.85,0.865,0.83,0.84,73200,0.583
2013-07-23,0.87,0.87,0.85,0.85,10500,0.59
2013-07-22,0.87,0.87,0.84,0.87,110600,0.603
2013-07-19,0.83,0.84,0.83,0.84,43000,0.583
2013-07-18,0.83,0.84,0.82,0.83,33400,0.576
2013-07-17,0.83,0.83,0.83,0.83,25300,0.576
2013-07-16,0.805,0.83,0.805,0.83,69000,0.576
2013-07-15,0.80,0.80,0.80,0.80,30200,0.555
2013-07-12,0.795,0.795,0.77,0.79,106600,0.548
2013-07-11,0.79,0.79,0.79,0.79,27300,0.548
2013-07-10,0.76,0.79,0.75,0.79,62000,0.548
2013-07-09,0.75,0.76,0.74,0.75,20000,0.52
2013-07-08,0.74,0.74,0.74,0.74,7000,0.513
2013-07-05,0.74,0.74,0.73,0.73,35100,0.506
2013-07-04,0.735,0.735,0.735,0.735,000,0.51
2013-07-03,0.72,0.735,0.71,0.735,15000,0.51
2013-07-02,0.72,0.73,0.72,0.72,49500,0.499
2013-07-01,0.72,0.72,0.71,0.72,43900,0.499
2013-06-28,0.68,0.68,0.68,0.68,54900,0.472
2013-06-27,0.735,0.735,0.70,0.70,44700,0.486
2013-06-26,0.725,0.725,0.72,0.72,25800,0.499
2013-06-25,0.725,0.74,0.725,0.73,80800,0.506
2013-06-24,0.74,0.74,0.725,0.74,54500,0.513
2013-06-21,0.73,0.735,0.73,0.735,39100,0.51
2013-06-20,0.73,0.73,0.725,0.725,56200,0.503
2013-06-19,0.74,0.74,0.735,0.735,88200,0.51
2013-06-18,0.737,0.74,0.737,0.74,75000,0.513
2013-06-17,0.745,0.745,0.73,0.74,100400,0.513
2013-06-14,0.735,0.75,0.735,0.745,227900,0.517
2013-06-13,0.73,0.74,0.72,0.735,159200,0.51
2013-06-12,0.70,0.70,0.70,0.70,000,0.486
2013-06-11,0.705,0.705,0.70,0.70,40700,0.486
2013-06-10,0.735,0.735,0.735,0.735,000,0.51
2013-06-07,0.74,0.74,0.735,0.735,58700,0.51
2013-06-06,0.735,0.735,0.735,0.735,26400,0.51
2013-06-05,0.71,0.74,0.71,0.74,105700,0.513
2013-06-04,0.71,0.71,0.70,0.71,51000,0.492
2013-06-03,0.68,0.68,0.68,0.68,21000,0.472
2013-05-31,0.71,0.71,0.71,0.71,000,0.492
2013-05-30,0.70,0.71,0.70,0.71,8200,0.492
2013-05-29,0.70,0.70,0.70,0.70,8000,0.486
2013-05-28,0.695,0.695,0.695,0.695,55000,0.482
2013-05-27,0.655,0.655,0.655,0.655,33700,0.454
2013-05-24,0.66,0.66,0.655,0.655,10200,0.454
2013-05-23,0.67,0.67,0.67,0.67,4600,0.465
2013-05-22,0.69,0.69,0.69,0.69,10300,0.479
2013-05-21,0.70,0.75,0.69,0.69,35600,0.479
2013-05-20,0.73,0.73,0.70,0.70,51000,0.486
2013-05-17,0.74,0.75,0.74,0.75,25000,0.52
2013-05-16,0.72,0.75,0.72,0.75,22000,0.52
2013-05-15,0.75,0.75,0.72,0.72,27200,0.499
2013-05-14,0.72,0.725,0.72,0.725,22200,0.503
2013-05-13,0.755,0.755,0.72,0.72,74700,0.499
2013-05-10,0.70,0.70,0.70,0.70,8000,0.486
2013-05-09,0.70,0.70,0.70,0.70,137000,0.486
2013-05-08,0.68,0.70,0.68,0.68,70000,0.472
2013-05-07,0.655,0.655,0.655,0.655,12600,0.454
2013-05-06,0.70,0.70,0.655,0.655,69900,0.454
2013-05-03,0.70,0.705,0.70,0.705,64800,0.489
2013-05-02,0.705,0.705,0.70,0.70,14400,0.486
2013-05-01,0.70,0.70,0.70,0.70,000,0.486
2013-04-30,0.70,0.715,0.70,0.70,66200,0.486
2013-04-29,0.70,0.705,0.70,0.705,4800,0.489
2013-04-26,0.70,0.70,0.70,0.70,000,0.486
2013-04-25,0.70,0.70,0.70,0.70,000,0.486
2013-04-24,0.715,0.715,0.70,0.70,71700,0.486
2013-04-23,0.73,0.74,0.71,0.715,132000,0.496
2013-04-22,0.74,0.74,0.74,0.74,5000,0.513
2013-04-19,0.74,0.74,0.74,0.74,000,0.513
2013-04-18,0.73,0.74,0.70,0.74,133700,0.513
2013-04-17,0.715,0.74,0.70,0.74,73200,0.513
2013-04-16,0.75,0.75,0.75,0.75,1100,0.52
2013-04-15,0.76,0.78,0.76,0.78,65200,0.541
2013-04-12,0.78,0.78,0.77,0.77,16000,0.534
2013-04-11,0.775,0.775,0.77,0.77,20000,0.534
2013-04-10,0.80,0.80,0.78,0.80,26800,0.555
2013-04-09,0.80,0.80,0.80,0.80,3000,0.555
2013-04-08,0.79,0.80,0.79,0.80,29200,0.555
2013-04-05,0.78,0.79,0.78,0.79,15000,0.548
2013-04-04,0.785,0.80,0.77,0.77,69600,0.534
2013-04-03,0.76,0.765,0.75,0.75,13000,0.52
2013-04-02,0.79,0.79,0.76,0.76,40300,0.527
2013-04-01,0.80,0.80,0.80,0.80,000,0.555
2013-03-29,0.80,0.80,0.80,0.80,000,0.555
2013-03-28,0.80,0.80,0.80,0.80,000,0.555
2013-03-27,0.795,0.80,0.795,0.80,38700,0.555
2013-03-26,0.80,0.80,0.76,0.76,22900,0.527
2013-03-25,0.78,0.78,0.78,0.78,000,0.541
2013-03-22,0.80,0.80,0.78,0.78,120000,0.541
2013-03-21,0.80,0.81,0.80,0.81,13400,0.562
2013-03-20,0.81,0.81,0.80,0.805,135000,0.558
2013-03-19,0.81,0.81,0.81,0.81,6900,0.562
2013-03-18,0.80,0.81,0.79,0.81,27600,0.562
2013-03-15,0.80,0.80,0.80,0.80,38000,0.555
2013-03-14,0.81,0.81,0.80,0.80,74200,0.555
2013-03-13,0.82,0.82,0.82,0.82,42000,0.569
2013-03-12,0.77,0.82,0.77,0.82,83200,0.569
2013-03-11,0.81,0.81,0.76,0.795,35500,0.551
2013-03-08,0.85,0.85,0.80,0.815,6126100,0.565
2013-03-07,0.85,0.85,0.85,0.85,500,0.59
2013-03-06,0.865,0.865,0.865,0.865,20000,0.60
2013-03-05,0.90,0.90,0.865,0.865,36500,0.60
2013-03-04,0.89,0.89,0.89,0.89,000,0.617
2013-03-01,0.87,0.895,0.87,0.89,37000,0.597
2013-02-28,0.855,0.87,0.855,0.87,48600,0.584
2013-02-27,0.83,0.83,0.82,0.83,130300,0.557
2013-02-26,0.89,0.89,0.85,0.85,69800,0.571
2013-02-25,0.85,0.85,0.85,0.85,000,0.571
2013-02-22,0.88,0.88,0.85,0.85,27400,0.571
2013-02-21,0.85,0.855,0.85,0.85,38700,0.571
2013-02-20,0.84,0.89,0.84,0.85,36500,0.571
2013-02-19,0.90,0.90,0.845,0.85,54200,0.571
2013-02-18,0.86,0.90,0.86,0.89,96300,0.597
2013-02-15,0.85,0.86,0.85,0.86,30000,0.577
2013-02-14,0.85,0.86,0.85,0.86,22500,0.577
2013-02-13,0.855,0.855,0.85,0.85,30000,0.571
2013-02-12,0.88,0.88,0.865,0.865,14500,0.581
2013-02-11,0.89,0.89,0.89,0.89,000,0.597
2013-02-08,0.89,0.89,0.89,0.89,25000,0.597
2013-02-07,0.86,0.86,0.86,0.86,15100,0.577
2013-02-06,0.86,0.86,0.86,0.86,61400,0.577
2013-02-05,0.90,0.90,0.90,0.90,000,0.604
2013-02-04,0.85,0.90,0.84,0.90,168000,0.604
2013-02-01,0.83,0.84,0.83,0.84,18300,0.564
2013-01-31,0.82,0.82,0.82,0.82,6400,0.55
2013-01-30,0.84,0.86,0.81,0.81,101900,0.544
2013-01-29,0.835,0.85,0.835,0.84,73100,0.564
2013-01-28,0.81,0.81,0.81,0.81,000,0.544
2013-01-25,0.815,0.815,0.805,0.81,7600,0.544
2013-01-24,0.80,0.82,0.80,0.82,22800,0.55
2013-01-23,0.86,0.87,0.82,0.82,182500,0.55
2013-01-22,0.81,0.84,0.81,0.84,39000,0.564
2013-01-21,0.835,0.845,0.835,0.845,22100,0.567
2013-01-18,0.845,0.845,0.805,0.84,143600,0.564
2013-01-17,0.80,0.80,0.795,0.80,85000,0.537
2013-01-16,0.79,0.80,0.79,0.80,88600,0.537
2013-01-15,0.77,0.78,0.77,0.78,15100,0.524
2013-01-14,0.795,0.795,0.77,0.77,30000,0.517
2013-01-11,0.77,0.80,0.77,0.80,84000,0.537
2013-01-10,0.78,0.78,0.765,0.765,18800,0.514
2013-01-09,0.79,0.79,0.79,0.79,000,0.53
2013-01-08,0.795,0.81,0.79,0.79,52200,0.53
2013-01-07,0.805,0.845,0.80,0.80,22700,0.537
2013-01-04,0.80,0.80,0.80,0.80,000,0.537
2013-01-03,0.80,0.80,0.80,0.80,25400,0.537
2013-01-02,0.785,0.80,0.785,0.80,73200,0.537
2013-01-01,0.78,0.78,0.78,0.78,000,0.524
2012-12-31,0.78,0.78,0.77,0.78,16200,0.524
2012-12-28,0.80,0.80,0.80,0.80,2500,0.537
2012-12-27,0.80,0.80,0.80,0.80,000,0.537
2012-12-26,0.80,0.80,0.80,0.80,000,0.537
2012-12-25,0.80,0.80,0.80,0.80,000,0.537
2012-12-24,0.80,0.80,0.80,0.80,000,0.537
2012-12-21,0.80,0.80,0.80,0.80,42900,0.537
2012-12-20,0.78,0.80,0.78,0.80,157800,0.537
2012-12-19,0.785,0.79,0.78,0.78,604100,0.524
2012-12-18,0.75,0.79,0.75,0.78,93600,0.524
2012-12-17,0.75,0.75,0.75,0.75,10000,0.504
2012-12-14,0.74,0.75,0.74,0.75,11000,0.504
2012-12-13,0.74,0.74,0.71,0.71,55000,0.477
2012-12-12,0.73,0.73,0.73,0.73,10000,0.49
2012-12-11,0.73,0.74,0.73,0.74,39500,0.497
2012-12-10,0.74,0.74,0.73,0.73,75500,0.49
2012-12-07,0.72,0.72,0.72,0.72,000,0.483
2012-12-06,0.73,0.73,0.72,0.72,11200,0.483
2012-12-05,0.735,0.735,0.73,0.73,3000,0.49
2012-12-04,0.74,0.74,0.74,0.74,10000,0.497
2012-12-03,0.73,0.73,0.73,0.73,000,0.49
2012-11-30,0.73,0.73,0.73,0.73,6000,0.49
2012-11-29,0.725,0.725,0.72,0.72,20000,0.483
2012-11-28,0.72,0.74,0.72,0.74,5500,0.497
2012-11-27,0.71,0.74,0.71,0.74,10500,0.497
2012-11-26,0.74,0.74,0.74,0.74,000,0.497
2012-11-23,0.70,0.745,0.70,0.74,27200,0.497
2012-11-22,0.70,0.70,0.70,0.70,26500,0.47
2012-11-21,0.725,0.725,0.725,0.725,000,0.487
2012-11-20,0.70,0.725,0.69,0.725,9300,0.487
2012-11-19,0.665,0.70,0.665,0.70,50600,0.47
2012-11-16,0.66,0.66,0.65,0.65,28800,0.436
2012-11-15,0.695,0.695,0.65,0.65,81100,0.436
2012-11-14,0.695,0.70,0.695,0.70,79800,0.47
2012-11-13,0.695,0.70,0.695,0.695,86000,0.467
2012-11-12,0.715,0.715,0.70,0.70,20800,0.47
2012-11-09,0.73,0.735,0.73,0.735,33000,0.493
2012-11-08,0.68,0.735,0.68,0.735,27400,0.493
2012-11-07,0.68,0.68,0.68,0.68,2000,0.457
2012-11-06,0.65,0.655,0.65,0.655,18800,0.44
2012-11-05,0.63,0.63,0.63,0.63,000,0.423
2012-11-02,0.64,0.64,0.63,0.63,8000,0.423
2012-11-01,0.63,0.64,0.63,0.64,50800,0.43
2012-10-31,0.64,0.64,0.64,0.64,000,0.43
2012-10-30,0.64,0.64,0.64,0.64,5000,0.43
2012-10-29,0.65,0.65,0.64,0.64,28500,0.43
2012-10-26,0.64,0.64,0.64,0.64,19900,0.43
2012-10-25,0.63,0.63,0.62,0.62,63200,0.416
2012-10-24,0.61,0.61,0.61,0.61,10000,0.41
2012-10-23,0.62,0.62,0.61,0.61,10000,0.41
2012-10-22,0.62,0.63,0.62,0.63,17000,0.423
2012-10-19,0.63,0.63,0.63,0.63,20400,0.423
2012-10-18,0.62,0.62,0.62,0.62,38100,0.416
2012-10-17,0.61,0.63,0.61,0.63,64400,0.423
2012-10-16,0.61,0.61,0.55,0.61,142400,0.41
2012-10-15,0.615,0.62,0.61,0.62,88500,0.416
2012-10-12,0.60,0.60,0.60,0.60,000,0.403
2012-10-11,0.61,0.61,0.60,0.60,30000,0.403
2012-10-10,0.60,0.60,0.60,0.60,137400,0.403
2012-10-09,0.60,0.60,0.60,0.60,000,0.403
2012-10-08,0.60,0.60,0.60,0.60,3900,0.403
2012-10-05,0.58,0.62,0.575,0.62,49000,0.416
2012-10-04,0.555,0.57,0.555,0.57,94200,0.383
2012-10-03,0.54,0.54,0.54,0.54,16400,0.363
2012-10-02,0.52,0.52,0.52,0.52,000,0.349
2012-10-01,0.52,0.52,0.52,0.52,000,0.349
2012-09-28,0.52,0.52,0.52,0.52,000,0.349
2012-09-27,0.52,0.52,0.52,0.52,000,0.349
2012-09-26,0.52,0.52,0.52,0.52,9000,0.349
2012-09-25,0.54,0.54,0.54,0.54,18600,0.363
2012-09-24,0.52,0.54,0.52,0.54,56500,0.363
2012-09-21,0.53,0.53,0.53,0.53,10000,0.356
2012-09-20,0.53,0.53,0.53,0.53,000,0.356
2012-09-19,0.52,0.53,0.52,0.53,5900,0.356
2012-09-18,0.54,0.54,0.515,0.515,57000,0.346
2012-09-17,0.55,0.55,0.55,0.55,7000,0.369
2012-09-14,0.56,0.56,0.55,0.55,20500,0.369
2012-09-13,0.555,0.56,0.555,0.56,75900,0.376
2012-09-12,0.56,0.56,0.56,0.56,5000,0.376
2012-09-11,0.55,0.55,0.55,0.55,9400,0.369
2012-09-10,0.55,0.55,0.55,0.55,000,0.369
2012-09-07,0.55,0.55,0.55,0.55,000,0.369
2012-09-06,0.55,0.55,0.55,0.55,500,0.369
2012-09-05,0.545,0.55,0.54,0.54,109000,0.363
2012-09-04,0.54,0.54,0.54,0.54,23500,0.363
2012-09-03,0.575,0.575,0.55,0.55,73500,0.369
2012-08-31,0.58,0.58,0.58,0.58,75000,0.389
2012-08-30,0.575,0.575,0.575,0.575,9500,0.386
2012-08-29,0.55,0.575,0.55,0.57,61500,0.383
2012-08-28,0.57,0.625,0.555,0.555,55000,0.373
2012-08-27,0.665,0.675,0.655,0.675,277600,0.376
2012-08-24,0.705,0.71,0.665,0.665,254800,0.371
2012-08-23,0.66,0.665,0.65,0.665,188400,0.371
2012-08-22,0.64,0.68,0.64,0.645,258800,0.36
2012-08-21,0.58,0.635,0.58,0.635,726200,0.354
2012-08-20,0.57,0.575,0.565,0.57,138600,0.318
2012-08-17,0.56,0.565,0.55,0.565,110000,0.315
2012-08-16,0.58,0.58,0.57,0.57,27100,0.318
2012-08-15,0.58,0.58,0.58,0.58,000,0.323
2012-08-14,0.58,0.58,0.58,0.58,000,0.323
2012-08-13,0.58,0.58,0.58,0.58,13100,0.323
2012-08-10,0.58,0.58,0.58,0.58,000,0.323
2012-08-09,0.58,0.58,0.58,0.58,10000,0.323
2012-08-08,0.60,0.60,0.60,0.60,11800,0.335
2012-08-07,0.59,0.59,0.59,0.59,82700,0.329
2012-08-06,0.595,0.595,0.595,0.595,12300,0.332
2012-08-03,0.59,0.595,0.59,0.595,119500,0.332
2012-08-02,0.565,0.59,0.565,0.58,225900,0.323
2012-08-01,0.53,0.545,0.52,0.525,95500,0.293
2012-07-31,0.52,0.53,0.52,0.53,80400,0.296
2012-07-30,0.515,0.515,0.515,0.515,13700,0.287
2012-07-27,0.50,0.51,0.50,0.50,363800,0.279
2012-07-26,0.49,0.50,0.49,0.49,476500,0.273
2012-07-25,0.46,0.48,0.46,0.48,10800,0.268
2012-07-24,0.47,0.47,0.45,0.45,30000,0.251
2012-07-23,0.49,0.49,0.49,0.49,000,0.273
2012-07-20,0.495,0.495,0.49,0.49,95100,0.273
2012-07-19,0.50,0.50,0.50,0.50,000,0.279
2012-07-18,0.50,0.50,0.48,0.50,18500,0.279
2012-07-17,0.50,0.50,0.50,0.50,36700,0.279
2012-07-16,0.485,0.485,0.485,0.485,000,0.27
2012-07-13,0.485,0.485,0.485,0.485,000,0.27
2012-07-12,0.485,0.485,0.485,0.485,70000,0.27
2012-07-11,0.485,0.485,0.485,0.485,35000,0.27
2012-07-10,0.485,0.485,0.485,0.485,58300,0.27
2012-07-09,0.48,0.48,0.48,0.48,11600,0.268
2012-07-06,0.485,0.485,0.48,0.48,16900,0.268
2012-07-05,0.485,0.49,0.48,0.48,242000,0.268
2012-07-04,0.475,0.49,0.475,0.485,279500,0.27
2012-07-03,0.485,0.485,0.47,0.47,236800,0.262
2012-07-02,0.44,0.44,0.44,0.44,40000,0.245
2012-06-29,0.42,0.42,0.42,0.42,000,0.234
2012-06-28,0.42,0.42,0.42,0.42,000,0.234
2012-06-27,0.42,0.42,0.42,0.42,10000,0.234
2012-06-26,0.42,0.42,0.42,0.42,17000,0.234
2012-06-25,0.42,0.42,0.42,0.42,000,0.234
2012-06-22,0.415,0.42,0.415,0.42,47000,0.234
2012-06-21,0.44,0.44,0.44,0.44,000,0.245
2012-06-20,0.44,0.44,0.44,0.44,88900,0.245
2012-06-19,0.445,0.445,0.44,0.44,72500,0.245
2012-06-18,0.44,0.44,0.44,0.44,000,0.245
2012-06-15,0.44,0.44,0.44,0.44,000,0.245
2012-06-14,0.44,0.44,0.44,0.44,000,0.245
2012-06-13,0.44,0.44,0.44,0.44,10000,0.245
2012-06-12,0.47,0.47,0.45,0.45,3700,0.251
2012-06-11,0.46,0.46,0.46,0.46,000,0.257
2012-06-08,0.46,0.46,0.46,0.46,000,0.257
2012-06-07,0.46,0.46,0.46,0.46,000,0.257
2012-06-06,0.46,0.46,0.46,0.46,000,0.257
2012-06-05,0.46,0.46,0.46,0.46,000,0.257
2012-06-04,0.46,0.46,0.46,0.46,000,0.257
2012-06-01,0.46,0.46,0.46,0.46,000,0.257
2012-05-31,0.46,0.475,0.46,0.46,11800,0.257
2012-05-30,0.46,0.46,0.46,0.46,000,0.257
2012-05-29,0.46,0.46,0.46,0.46,4000,0.257
2012-05-28,0.46,0.46,0.46,0.46,000,0.257
2012-05-25,0.46,0.46,0.46,0.46,000,0.257
2012-05-24,0.46,0.46,0.46,0.46,16000,0.257
2012-05-23,0.45,0.45,0.45,0.45,000,0.251
2012-05-22,0.45,0.45,0.45,0.45,000,0.251
2012-05-21,0.45,0.45,0.45,0.45,000,0.251
2012-05-18,0.45,0.45,0.45,0.45,000,0.251
2012-05-17,0.45,0.45,0.45,0.45,000,0.251
2012-05-16,0.45,0.45,0.45,0.45,15000,0.251
2012-05-15,0.45,0.45,0.45,0.45,20000,0.251
2012-05-14,0.455,0.455,0.455,0.455,000,0.254
2012-05-11,0.455,0.455,0.45,0.455,12200,0.254
2012-05-10,0.45,0.45,0.45,0.45,000,0.251
2012-05-09,0.45,0.45,0.45,0.45,000,0.251
2012-05-08,0.45,0.45,0.45,0.45,42500,0.251
2012-05-07,0.49,0.49,0.49,0.49,000,0.273
2012-05-04,0.49,0.49,0.49,0.49,000,0.273
2012-05-03,0.48,0.49,0.48,0.49,165400,0.273
2012-05-02,0.47,0.47,0.47,0.47,47000,0.262
2012-05-01,0.47,0.47,0.47,0.47,000,0.262
2012-04-30,0.47,0.47,0.47,0.47,30000,0.262
2012-04-27,0.46,0.46,0.46,0.46,000,0.257
2012-04-26,0.47,0.47,0.46,0.46,20000,0.257
2012-04-25,0.47,0.47,0.47,0.47,000,0.262
2012-04-24,0.47,0.47,0.47,0.47,000,0.262
2012-04-23,0.47,0.47,0.47,0.47,000,0.262
2012-04-20,0.47,0.47,0.47,0.47,000,0.262
2012-04-19,0.47,0.47,0.47,0.47,000,0.262
2012-04-18,0.47,0.47,0.47,0.47,000,0.262
2012-04-17,0.47,0.47,0.47,0.47,1900,0.262
2012-04-16,0.47,0.47,0.47,0.47,10000,0.262
2012-04-13,0.475,0.475,0.47,0.47,73500,0.262
2012-04-12,0.48,0.48,0.475,0.475,10000,0.265
2012-04-11,0.48,0.48,0.48,0.48,000,0.268
2012-04-10,0.48,0.48,0.48,0.48,000,0.268
2012-04-09,0.48,0.48,0.48,0.48,000,0.268
2012-04-06,0.48,0.48,0.48,0.48,000,0.268
2012-04-05,0.48,0.48,0.48,0.48,000,0.268
2012-04-04,0.48,0.48,0.48,0.48,000,0.268
2012-04-03,0.48,0.48,0.48,0.48,000,0.268
2012-04-02,0.48,0.48,0.48,0.48,000,0.268
2012-03-30,0.48,0.48,0.48,0.48,000,0.268
2012-03-29,0.47,0.48,0.47,0.48,64000,0.268
2012-03-28,0.48,0.48,0.48,0.48,44400,0.268
2012-03-27,0.48,0.485,0.48,0.485,39800,0.27
2012-03-26,0.475,0.50,0.475,0.50,46600,0.279
2012-03-23,0.46,0.46,0.46,0.46,000,0.257
2012-03-22,0.475,0.475,0.46,0.46,60000,0.257
2012-03-21,0.475,0.475,0.475,0.475,24800,0.265
2012-03-20,0.50,0.50,0.50,0.50,000,0.279
2012-03-19,0.50,0.50,0.50,0.50,8000,0.279
2012-03-16,0.50,0.50,0.50,0.50,6500,0.279
2012-03-15,0.49,0.49,0.49,0.49,000,0.273
2012-03-14,0.49,0.49,0.49,0.49,000,0.273
2012-03-13,0.49,0.49,0.49,0.49,000,0.273
2012-03-12,0.49,0.49,0.49,0.49,000,0.273
2012-03-09,0.49,0.49,0.49,0.49,000,0.273
2012-03-08,0.485,0.49,0.485,0.49,33500,0.273
2012-03-07,0.50,0.50,0.50,0.50,000,0.279
2012-03-06,0.50,0.50,0.50,0.50,000,0.279
2012-03-05,0.50,0.50,0.50,0.50,000,0.279
2012-03-02,0.495,0.50,0.495,0.50,26000,0.279
2012-03-01,0.50,0.50,0.50,0.50,000,0.279
2012-02-29,0.50,0.50,0.50,0.50,000,0.279
2012-02-28,0.50,0.50,0.50,0.50,53300,0.279
2012-02-27,0.50,0.50,0.50,0.50,000,0.279
2012-02-24,0.50,0.50,0.50,0.50,30000,0.271
2012-02-23,0.50,0.50,0.50,0.50,000,0.271
2012-02-22,0.50,0.50,0.50,0.50,000,0.271
2012-02-21,0.50,0.50,0.50,0.50,000,0.271
2012-02-20,0.50,0.50,0.50,0.50,000,0.271
2012-02-17,0.49,0.50,0.49,0.50,43700,0.271
2012-02-16,0.48,0.48,0.48,0.48,000,0.26
2012-02-15,0.48,0.48,0.48,0.48,1500,0.26
2012-02-14,0.48,0.48,0.48,0.48,000,0.26
2012-02-13,0.48,0.48,0.48,0.48,25400,0.26
2012-02-10,0.48,0.48,0.48,0.48,22000,0.26
2012-02-09,0.48,0.48,0.48,0.48,000,0.26
2012-02-08,0.48,0.48,0.48,0.48,000,0.26
2012-02-07,0.485,0.485,0.48,0.48,40000,0.26
2012-02-06,0.485,0.485,0.485,0.485,3000,0.263
2012-02-03,0.49,0.49,0.49,0.49,13700,0.265
2012-02-02,0.49,0.49,0.49,0.49,000,0.265
2012-02-01,0.49,0.49,0.49,0.49,000,0.265
2012-01-31,0.49,0.49,0.49,0.49,000,0.265
2012-01-27,0.49,0.49,0.49,0.49,18000,0.265
2012-01-26,0.49,0.49,0.49,0.49,000,0.265
2012-01-25,0.49,0.49,0.49,0.49,000,0.265
2012-01-24,0.49,0.49,0.49,0.49,000,0.265
2012-01-23,0.515,0.515,0.49,0.49,15000,0.265
2012-01-20,0.515,0.515,0.515,0.515,10000,0.279
2012-01-19,0.48,0.48,0.48,0.48,000,0.26
2012-01-18,0.48,0.48,0.48,0.48,000,0.26
2012-01-17,0.48,0.48,0.48,0.48,000,0.26
2012-01-16,0.48,0.48,0.48,0.48,000,0.26
2012-01-13,0.48,0.48,0.48,0.48,000,0.26
2012-01-12,0.48,0.48,0.48,0.48,000,0.26
2012-01-11,0.48,0.48,0.48,0.48,000,0.26
2012-01-10,0.48,0.48,0.48,0.48,000,0.26
2012-01-09,0.48,0.48,0.48,0.48,000,0.26
2012-01-06,0.48,0.48,0.48,0.48,000,0.26
2012-01-05,0.48,0.48,0.48,0.48,000,0.26
2012-01-04,0.48,0.48,0.48,0.48,000,0.26
2012-01-03,0.48,0.48,0.48,0.48,6000,0.26
2012-01-02,0.48,0.48,0.48,0.48,000,0.26
2011-12-30,0.48,0.48,0.48,0.48,000,0.26
2011-12-29,0.48,0.48,0.48,0.48,000,0.26
2011-12-28,0.48,0.48,0.48,0.48,000,0.26
2011-12-27,0.48,0.48,0.48,0.48,000,0.26
2011-12-26,0.48,0.48,0.48,0.48,000,0.26
2011-12-23,0.48,0.48,0.48,0.48,000,0.26
2011-12-22,0.48,0.48,0.48,0.48,000,0.26
2011-12-21,0.48,0.48,0.48,0.48,000,0.26
2011-12-20,0.48,0.48,0.48,0.48,000,0.26
2011-12-19,0.48,0.48,0.48,0.48,000,0.26
2011-12-16,0.48,0.48,0.48,0.48,000,0.26
2011-12-15,0.48,0.48,0.48,0.48,000,0.26
2011-12-14,0.48,0.48,0.48,0.48,000,0.26
2011-12-13,0.48,0.48,0.48,0.48,000,0.26
2011-12-12,0.48,0.48,0.48,0.48,000,0.26
2011-12-09,0.48,0.48,0.48,0.48,000,0.26
2011-12-08,0.48,0.48,0.48,0.48,15100,0.26
2011-12-07,0.485,0.485,0.48,0.48,17900,0.26
2011-12-06,0.485,0.485,0.485,0.485,000,0.263
2011-12-05,0.485,0.485,0.485,0.485,000,0.263
2011-12-02,0.485,0.485,0.485,0.485,100000,0.263
2011-12-01,0.485,0.485,0.485,0.485,74600,0.263
2011-11-30,0.485,0.485,0.485,0.485,000,0.263
2011-11-29,0.485,0.485,0.485,0.485,50000,0.263
2011-11-28,0.485,0.485,0.485,0.485,53000,0.263
2011-11-25,0.485,0.485,0.485,0.485,000,0.263
2011-11-24,0.485,0.485,0.485,0.485,000,0.263
2011-11-23,0.485,0.485,0.485,0.485,100000,0.263
2011-11-22,0.51,0.51,0.51,0.51,000,0.276
2011-11-21,0.51,0.51,0.485,0.51,110000,0.276
2011-11-18,0.50,0.50,0.50,0.50,000,0.271
2011-11-17,0.50,0.50,0.50,0.50,40000,0.271
2011-11-16,0.485,0.485,0.48,0.48,20000,0.26
2011-11-14,0.50,0.50,0.50,0.50,3300,0.271
2011-11-11,0.50,0.50,0.50,0.50,1600,0.271
2011-11-09,0.485,0.485,0.485,0.485,4000,0.263
2011-11-08,0.485,0.485,0.48,0.48,68700,0.26
2011-11-07,0.51,0.51,0.48,0.48,5000,0.26
2011-11-02,0.49,0.49,0.49,0.49,2500,0.265
2011-10-28,0.505,0.51,0.505,0.51,22000,0.276
2011-10-26,0.505,0.51,0.505,0.51,5000,0.276
2011-10-25,0.50,0.505,0.50,0.505,25000,0.274
2011-10-21,0.47,0.48,0.47,0.48,19900,0.26
2011-10-20,0.48,0.48,0.465,0.465,139100,0.252
2011-10-18,0.50,0.505,0.50,0.505,44000,0.274
2011-10-17,0.49,0.50,0.49,0.50,36000,0.271
2011-10-13,0.48,0.48,0.48,0.48,21000,0.26
2011-09-30,0.47,0.47,0.47,0.47,11600,0.255
2011-09-29,0.47,0.47,0.47,0.47,1500,0.255
2011-09-28,0.48,0.48,0.48,0.48,9500,0.26
2011-09-27,0.48,0.48,0.48,0.48,10500,0.26
2011-09-21,0.48,0.48,0.48,0.48,8000,0.26
2011-09-09,0.48,0.51,0.48,0.51,16200,0.276
2011-09-08,0.51,0.51,0.51,0.51,10200,0.276
2011-09-02,0.505,0.505,0.505,0.505,38000,0.274
2011-08-29,0.53,0.53,0.53,0.53,19200,0.267
2011-08-25,0.53,0.53,0.53,0.53,20000,0.267
2011-08-23,0.50,0.50,0.48,0.48,95000,0.242
2011-08-22,0.51,0.51,0.51,0.51,5000,0.257
2011-08-19,0.50,0.50,0.50,0.50,27000,0.252
2011-08-18,0.515,0.515,0.515,0.515,2500,0.259
2011-08-16,0.50,0.50,0.49,0.49,24300,0.247
2011-08-12,0.50,0.50,0.49,0.49,10000,0.247
2011-08-11,0.49,0.50,0.49,0.50,24000,0.252
2011-08-09,0.47,0.47,0.46,0.47,47800,0.237
2011-08-05,0.485,0.485,0.485,0.485,89200,0.244
2011-08-03,0.485,0.485,0.485,0.485,20000,0.244
2011-08-02,0.50,0.50,0.50,0.50,74700,0.252
2011-07-29,0.52,0.52,0.50,0.50,31700,0.252
2011-07-28,0.53,0.53,0.52,0.52,52000,0.262
2011-07-22,0.52,0.535,0.52,0.53,153700,0.267
2011-07-21,0.515,0.515,0.515,0.515,9100,0.259
2011-07-15,0.50,0.50,0.50,0.50,1025000,0.252
2011-07-14,0.50,0.50,0.50,0.50,26500,0.252
2011-07-13,0.50,0.50,0.50,0.50,20000,0.252
2011-07-12,0.54,0.54,0.54,0.54,3200,0.272
2011-07-08,0.505,0.505,0.485,0.50,27200,0.252
2011-07-07,0.50,0.505,0.50,0.505,53900,0.254
2011-07-06,0.51,0.51,0.48,0.48,48500,0.242
2011-07-01,0.52,0.52,0.515,0.515,15000,0.259
2011-06-27,0.52,0.52,0.52,0.52,22000,0.262
2011-06-24,0.545,0.545,0.545,0.545,20000,0.275
2011-06-23,0.515,0.515,0.515,0.515,16000,0.259
2011-06-22,0.53,0.53,0.53,0.53,13000,0.267
2011-06-21,0.525,0.525,0.525,0.525,1000,0.264
2011-06-20,0.525,0.525,0.525,0.525,2000,0.264
2011-06-15,0.51,0.51,0.51,0.51,5000,0.257
2011-06-10,0.43,0.485,0.43,0.485,53400,0.244
2011-06-09,0.48,0.48,0.405,0.43,35500,0.217
2011-06-08,0.49,0.49,0.48,0.48,18000,0.242
2011-06-06,0.50,0.50,0.50,0.50,8000,0.252
2011-06-03,0.50,0.50,0.50,0.50,20000,0.252
2011-06-02,0.50,0.50,0.485,0.485,54000,0.244
2011-06-01,0.50,0.50,0.50,0.50,8000,0.252
2011-05-25,0.52,0.52,0.52,0.52,2000,0.262
2011-05-24,0.535,0.535,0.535,0.535,1000,0.269
2011-05-16,0.525,0.525,0.525,0.525,20000,0.264
2011-05-13,0.53,0.54,0.53,0.53,102700,0.267
2011-05-12,0.53,0.53,0.53,0.53,33500,0.267
2011-05-10,0.53,0.53,0.53,0.53,50000,0.267
2011-04-28,0.535,0.535,0.53,0.53,64000,0.267
2011-04-27,0.53,0.53,0.53,0.53,2000,0.267
2011-04-21,0.53,0.53,0.53,0.53,10000,0.267
2011-04-20,0.53,0.53,0.53,0.53,4000,0.267
2011-04-19,0.54,0.54,0.54,0.54,10000,0.272
2011-04-15,0.54,0.54,0.54,0.54,80000,0.272
2011-04-12,0.55,0.56,0.55,0.56,125000,0.282
2011-04-11,0.54,0.54,0.54,0.54,4000,0.272
2011-04-08,0.54,0.54,0.54,0.54,4500,0.272
2011-04-06,0.55,0.55,0.54,0.55,70400,0.277
2011-04-05,0.55,0.55,0.55,0.55,62000,0.277
2011-04-04,0.55,0.55,0.55,0.55,18000,0.277
2011-03-30,0.54,0.55,0.54,0.55,25200,0.277
2011-03-28,0.53,0.54,0.53,0.54,14700,0.272
2011-03-23,0.52,0.52,0.52,0.52,13000,0.262
2011-03-22,0.525,0.525,0.525,0.525,10000,0.264
2011-03-18,0.525,0.525,0.52,0.52,20000,0.262
2011-03-16,0.52,0.525,0.52,0.525,22200,0.264
2011-03-11,0.545,0.545,0.54,0.54,52800,0.272
2011-03-09,0.55,0.55,0.55,0.55,9000,0.277
2011-03-07,0.545,0.545,0.545,0.545,10000,0.275
2011-03-04,0.545,0.545,0.545,0.545,11000,0.275
2011-03-03,0.54,0.54,0.54,0.54,108000,0.272
2011-03-02,0.54,0.54,0.54,0.54,50300,0.272
2011-02-28,0.55,0.55,0.55,0.55,1800,0.277
2011-02-25,0.54,0.54,0.53,0.53,18000,0.267
2011-02-24,0.525,0.53,0.52,0.52,58000,0.255
2011-02-22,0.565,0.565,0.54,0.54,38200,0.265
2011-02-21,0.565,0.575,0.565,0.575,94300,0.282
2011-02-18,0.56,0.56,0.555,0.56,17300,0.274
2011-02-16,0.56,0.57,0.56,0.57,67300,0.279
2011-02-14,0.56,0.56,0.56,0.56,30000,0.274
2011-02-10,0.57,0.57,0.57,0.57,46000,0.279
2011-02-09,0.565,0.575,0.565,0.575,14700,0.282
2011-02-08,0.565,0.565,0.56,0.56,89700,0.274
2011-02-07,0.565,0.565,0.565,0.565,12000,0.277
2011-02-03,0.56,0.56,0.56,0.56,80000,0.274
2011-02-01,0.57,0.575,0.57,0.575,20000,0.282
2011-01-31,0.565,0.565,0.535,0.535,10000,0.262
2011-01-27,0.565,0.565,0.565,0.565,9000,0.277
2011-01-25,0.57,0.57,0.56,0.56,14900,0.274
2011-01-24,0.555,0.555,0.555,0.555,50000,0.272
2011-01-21,0.555,0.555,0.555,0.555,4000,0.272
2011-01-19,0.56,0.56,0.555,0.555,2900,0.272
2011-01-17,0.565,0.565,0.56,0.56,20000,0.274
2011-01-10,0.585,0.59,0.585,0.59,16000,0.289
2011-01-07,0.59,0.59,0.59,0.59,8400,0.289
2011-01-05,0.56,0.57,0.56,0.57,29000,0.279
2010-12-29,0.55,0.55,0.55,0.55,29000,0.269
2010-12-23,0.56,0.56,0.56,0.56,20000,0.274
2010-12-21,0.57,0.57,0.55,0.55,75000,0.269
2010-12-17,0.55,0.575,0.55,0.57,93900,0.279
2010-12-16,0.54,0.54,0.54,0.54,19000,0.265
2010-12-15,0.52,0.52,0.52,0.52,10000,0.255
2010-12-14,0.535,0.54,0.535,0.54,10000,0.265
2010-12-13,0.52,0.52,0.52,0.52,60000,0.255
2010-12-08,0.52,0.52,0.52,0.52,2000,0.255
2010-12-01,0.52,0.52,0.52,0.52,15000,0.255
2010-11-30,0.52,0.52,0.52,0.52,33000,0.255
2010-11-24,0.55,0.55,0.52,0.525,25200,0.257
2010-11-23,0.52,0.545,0.52,0.545,23600,0.267
2010-11-22,0.50,0.50,0.50,0.50,112100,0.245
2010-11-19,0.505,0.505,0.49,0.49,95000,0.24
2010-11-18,0.55,0.55,0.48,0.505,215700,0.247
2010-11-17,0.55,0.55,0.55,0.55,21300,0.269
2010-11-15,0.58,0.58,0.55,0.55,16000,0.269
2010-11-12,0.575,0.575,0.575,0.575,10000,0.282
2010-11-11,0.57,0.57,0.55,0.55,46000,0.269
2010-11-10,0.58,0.58,0.57,0.57,31300,0.279
2010-11-08,0.59,0.59,0.59,0.59,21700,0.289
2010-11-05,0.59,0.595,0.57,0.57,55000,0.279
2010-11-04,0.585,0.59,0.585,0.59,61000,0.289
2010-11-03,0.59,0.59,0.59,0.59,9900,0.289
2010-11-02,0.57,0.58,0.57,0.57,6700,0.279
2010-10-29,0.56,0.59,0.56,0.59,4700,0.289
2010-10-28,0.57,0.57,0.56,0.56,12700,0.274
2010-10-25,0.59,0.60,0.58,0.60,37500,0.294
2010-10-22,0.59,0.59,0.59,0.59,16000,0.289
2010-10-21,0.57,0.58,0.565,0.57,337000,0.279
2010-10-20,0.56,0.56,0.52,0.55,49000,0.269
2010-10-19,0.54,0.56,0.54,0.56,83900,0.274
2010-10-18,0.55,0.55,0.55,0.55,21100,0.269
2010-10-15,0.52,0.57,0.52,0.57,127000,0.279
2010-10-14,0.52,0.52,0.52,0.52,92500,0.255
2010-10-13,0.50,0.515,0.50,0.515,68400,0.252
2010-10-12,0.505,0.51,0.50,0.50,61900,0.245
2010-10-11,0.50,0.505,0.50,0.505,43000,0.247
2010-10-08,0.49,0.49,0.49,0.49,99000,0.24
2010-10-06,0.49,0.495,0.49,0.495,32500,0.242
2010-10-01,0.45,0.45,0.45,0.45,10000,0.22
2010-09-28,0.50,0.50,0.47,0.47,14000,0.23
2010-09-24,0.50,0.50,0.50,0.50,2500,0.245
2010-09-23,0.51,0.51,0.50,0.50,56100,0.245
2010-09-22,0.51,0.52,0.51,0.51,64000,0.25
2010-09-21,0.49,0.51,0.49,0.51,144900,0.25
2010-09-17,0.49,0.49,0.49,0.49,18000,0.24
2010-09-16,0.48,0.48,0.48,0.48,12000,0.235
2010-09-15,0.45,0.475,0.45,0.475,27500,0.233
2010-09-14,0.475,0.475,0.44,0.44,48000,0.216
2010-09-13,0.45,0.46,0.45,0.46,40000,0.225
2010-09-10,0.45,0.45,0.445,0.45,28000,0.22
2010-09-08,0.475,0.475,0.475,0.475,10000,0.233
2010-09-06,0.50,0.50,0.50,0.50,6000,0.245
2010-08-30,0.50,0.51,0.50,0.51,69800,0.232
2010-08-27,0.50,0.50,0.50,0.50,4500,0.228
2010-08-26,0.50,0.50,0.50,0.50,5000,0.228
2010-08-25,0.50,0.50,0.50,0.50,000,0.228
2010-08-24,0.47,0.50,0.47,0.50,78100,0.228
2010-08-20,0.46,0.465,0.46,0.465,5000,0.212
2010-08-19,0.44,0.45,0.44,0.45,24000,0.205
2010-08-17,0.45,0.45,0.45,0.45,4000,0.205
2010-08-13,0.43,0.43,0.43,0.43,8000,0.196
2010-08-12,0.435,0.435,0.43,0.43,10000,0.196
2010-08-11,0.45,0.45,0.435,0.435,35000,0.198
2010-08-10,0.45,0.45,0.45,0.45,5400,0.205
2010-08-09,0.435,0.435,0.435,0.435,10000,0.198
2010-08-05,0.44,0.44,0.435,0.435,21000,0.198
2010-08-03,0.445,0.445,0.44,0.44,30000,0.20
2010-07-30,0.435,0.435,0.435,0.435,12200,0.198
2010-07-29,0.435,0.435,0.435,0.435,10000,0.198
2010-07-20,0.43,0.43,0.43,0.43,17000,0.196
2010-07-16,0.43,0.43,0.43,0.43,11900,0.196
2010-07-15,0.41,0.425,0.41,0.425,20000,0.194
2010-07-12,0.435,0.435,0.43,0.435,21300,0.198
2010-07-08,0.43,0.45,0.43,0.45,41800,0.205
2010-07-06,0.435,0.435,0.435,0.435,47500,0.198
2010-07-05,0.435,0.435,0.435,0.435,9000,0.198
2010-07-01,0.435,0.435,0.435,0.435,6100,0.198
2010-06-30,0.43,0.43,0.43,0.43,3000,0.196
2010-06-29,0.43,0.43,0.43,0.43,33000,0.196
2010-06-28,0.46,0.46,0.45,0.45,35000,0.205
2010-06-25,0.41,0.44,0.41,0.44,48800,0.20
2010-06-24,0.41,0.41,0.41,0.41,16100,0.187
2010-06-23,0.39,0.40,0.39,0.40,35000,0.182
2010-06-22,0.39,0.40,0.39,0.40,75000,0.182
2010-06-21,0.35,0.35,0.35,0.35,4000,0.159
2010-06-18,0.36,0.36,0.36,0.36,10100,0.164
2010-06-17,0.35,0.35,0.35,0.35,13000,0.159
2010-06-16,0.34,0.35,0.34,0.35,7600,0.159
2010-06-15,0.38,0.38,0.34,0.34,000,0.155
2010-06-11,0.335,0.335,0.335,0.335,15000,0.153
2010-06-10,0.38,0.38,0.38,0.38,7300,0.173
2010-06-09,0.42,0.42,0.325,0.325,000,0.148
2010-06-08,0.42,0.42,0.325,0.325,000,0.148
2010-06-07,0.42,0.42,0.30,0.30,000,0.137
2010-06-04,0.385,0.385,0.38,0.38,20000,0.173
2010-06-03,0.425,0.425,0.41,0.41,23000,0.187
2010-06-02,0.425,0.425,0.385,0.385,000,0.175
2010-06-01,0.39,0.425,0.39,0.425,50000,0.194
2010-05-31,0.40,0.40,0.40,0.40,8500,0.182
2010-05-28,0.42,0.425,0.42,0.42,48900,0.191
2010-05-27,0.39,0.42,0.39,0.42,57300,0.191
2010-05-26,0.40,0.40,0.39,0.39,83900,0.178
2010-05-25,0.41,0.42,0.40,0.40,95200,0.182
2010-05-24,0.41,0.41,0.41,0.41,20000,0.187
2010-05-21,0.39,0.41,0.39,0.41,53800,0.187
2010-05-20,0.42,0.42,0.41,0.41,40000,0.187
2010-05-19,0.43,0.43,0.43,0.43,19000,0.196
2010-05-18,0.435,0.435,0.43,0.43,000,0.196
2010-05-17,0.43,0.43,0.43,0.43,225500,0.196
2010-05-14,0.44,0.44,0.43,0.43,000,0.196
2010-05-13,0.43,0.43,0.43,0.43,53000,0.196
2010-05-12,0.43,0.43,0.43,0.43,10000,0.196
2010-05-11,0.425,0.44,0.425,0.43,97000,0.196
2010-05-10,0.42,0.42,0.42,0.42,7400,0.191
2010-05-07,0.42,0.42,0.41,0.41,68600,0.187
2010-05-06,0.42,0.42,0.42,0.42,3000,0.191
2010-05-05,0.41,0.415,0.41,0.415,84400,0.189
2010-05-04,0.435,0.435,0.435,0.435,30000,0.198
2010-05-03,0.44,0.44,0.415,0.415,000,0.189
2010-04-30,0.45,0.45,0.425,0.425,000,0.194
2010-04-29,0.45,0.45,0.425,0.45,145000,0.205
2010-04-28,0.45,0.45,0.45,0.45,96400,0.205
2010-04-27,0.475,0.475,0.43,0.43,000,0.196
2010-04-23,0.48,0.48,0.45,0.45,000,0.205
2010-04-22,0.43,0.43,0.43,0.43,2300,0.196
2010-04-21,0.47,0.48,0.47,0.48,121000,0.219
2010-04-20,0.47,0.47,0.465,0.47,37500,0.214
2010-04-19,0.47,0.47,0.425,0.425,000,0.194
2010-04-16,0.47,0.47,0.425,0.425,000,0.194
2010-04-15,0.47,0.47,0.47,0.47,53500,0.214
2010-04-14,0.47,0.47,0.46,0.47,45500,0.214
2010-04-13,0.46,0.47,0.46,0.47,45500,0.214
2010-04-12,0.47,0.47,0.425,0.425,000,0.194
2010-04-09,0.43,0.47,0.43,0.47,121800,0.214
2010-04-08,0.41,0.42,0.40,0.42,52800,0.191
2010-04-07,0.42,0.42,0.40,0.40,000,0.182
2010-04-06,0.40,0.40,0.40,0.40,53000,0.182
2010-04-01,0.38,0.39,0.38,0.39,88000,0.178
2010-03-31,0.38,0.38,0.38,0.38,67900,0.173
2010-03-30,0.38,0.38,0.38,0.38,70000,0.173
2010-03-29,0.38,0.38,0.38,0.38,19400,0.173
2010-03-26,0.375,0.38,0.375,0.38,73300,0.173
2010-03-25,0.38,0.38,0.355,0.355,000,0.162
2010-03-24,0.36,0.36,0.36,0.36,19400,0.164
2010-03-23,0.36,0.36,0.36,0.36,20000,0.164
2010-03-22,0.37,0.37,0.36,0.36,72000,0.164
2010-03-19,0.37,0.38,0.37,0.38,30200,0.173
2010-03-18,0.37,0.37,0.37,0.37,26500,0.169
2010-03-17,0.37,0.37,0.36,0.36,000,0.164
2010-03-16,0.36,0.36,0.36,0.36,31800,0.164
2010-03-15,0.38,0.38,0.36,0.36,000,0.164
2010-03-12,0.36,0.36,0.36,0.36,16300,0.164
2010-03-10,0.36,0.36,0.36,0.36,1000,0.164
2010-03-09,0.39,0.39,0.36,0.36,000,0.164
2010-03-08,0.37,0.39,0.37,0.39,74000,0.178
2010-03-05,0.37,0.37,0.36,0.36,000,0.164
2010-03-04,0.38,0.38,0.36,0.36,000,0.164
2010-03-03,0.38,0.38,0.36,0.36,000,0.164
2010-03-02,0.38,0.38,0.35,0.35,000,0.159
2010-03-01,0.38,0.38,0.35,0.35,000,0.159
2010-02-26,0.39,0.39,0.35,0.35,000,0.159
2010-02-25,0.36,0.38,0.36,0.38,81000,0.167
2010-02-23,0.35,0.37,0.35,0.37,119900,0.162
2010-02-22,0.35,0.35,0.35,0.35,20000,0.153
2010-02-19,0.38,0.38,0.34,0.34,000,0.149
2010-02-18,0.35,0.35,0.35,0.35,7200,0.153
2010-02-17,0.38,0.38,0.35,0.35,000,0.153
2010-02-16,0.38,0.38,0.35,0.35,000,0.153
2010-02-15,0.38,0.38,0.35,0.35,000,0.153
2010-02-12,0.35,0.35,0.35,0.35,1200,0.153
2010-02-11,0.35,0.35,0.35,0.35,10000,0.153
2010-02-10,0.35,0.35,0.35,0.35,12000,0.153
2010-02-09,0.355,0.37,0.35,0.37,32400,0.162
2010-02-05,0.355,0.36,0.355,0.36,28000,0.158
2010-02-02,0.36,0.38,0.36,0.38,103800,0.167
2010-02-01,0.38,0.38,0.38,0.38,10000,0.167
2010-01-29,0.38,0.38,0.38,0.38,52000,0.167
2010-01-28,0.395,0.395,0.36,0.36,000,0.158
2010-01-27,0.37,0.37,0.36,0.36,60000,0.158
2010-01-25,0.38,0.38,0.38,0.38,10000,0.167
2010-01-22,0.40,0.40,0.40,0.40,7200,0.175
2010-01-21,0.40,0.40,0.40,0.40,72700,0.175
2010-01-20,0.40,0.40,0.40,0.40,35600,0.175
2010-01-19,0.38,0.39,0.38,0.39,65000,0.171
2010-01-18,0.39,0.39,0.39,0.39,10000,0.171
2010-01-15,0.41,0.41,0.36,0.36,000,0.158
2010-01-14,0.41,0.41,0.36,0.36,000,0.158
2010-01-13,0.405,0.41,0.405,0.41,100000,0.18
2010-01-12,0.40,0.40,0.40,0.40,11500,0.175
2010-01-11,0.39,0.395,0.39,0.395,30000,0.173
2010-01-08,0.395,0.395,0.39,0.39,10900,0.171
2010-01-07,0.395,0.395,0.395,0.395,19000,0.173
2010-01-06,0.395,0.395,0.36,0.36,000,0.158
2010-01-05,0.42,0.42,0.36,0.36,000,0.158
2010-01-04,0.42,0.42,0.355,0.355,000,0.156
2009-12-31,0.39,0.39,0.39,0.39,31500,0.171
2009-12-30,0.385,0.39,0.385,0.39,27500,0.171
2009-12-24,0.35,0.36,0.35,0.36,36000,0.158
2009-12-23,0.36,0.36,0.36,0.36,34000,0.158
2009-12-22,0.36,0.36,0.36,0.36,61000,0.158
2009-12-21,0.355,0.355,0.35,0.35,38100,0.153
2009-12-17,0.38,0.38,0.37,0.37,000,0.162
2009-12-16,0.38,0.38,0.365,0.365,000,0.16
2009-12-15,0.38,0.38,0.365,0.365,000,0.16
2009-12-14,0.38,0.38,0.355,0.355,000,0.156
2009-12-11,0.38,0.38,0.355,0.355,000,0.156
2009-12-10,0.38,0.38,0.355,0.355,000,0.156
2009-12-09,0.38,0.38,0.355,0.355,000,0.156
2009-12-08,0.38,0.38,0.35,0.35,000,0.153
2009-12-07,0.38,0.38,0.35,0.35,000,0.153
2009-12-04,0.38,0.38,0.35,0.35,000,0.153
2009-12-03,0.38,0.38,0.345,0.345,000,0.151
2009-12-02,0.365,0.38,0.365,0.38,35000,0.167
2009-11-30,0.355,0.355,0.355,0.355,15500,0.156
2009-11-27,0.355,0.355,0.355,0.355,2500,0.156
2009-11-25,0.375,0.375,0.375,0.375,20000,0.164
2009-11-24,0.35,0.375,0.35,0.375,45000,0.164
2009-11-23,0.34,0.34,0.34,0.34,20000,0.149
2009-11-20,0.35,0.35,0.335,0.335,000,0.147
2009-11-19,0.35,0.35,0.335,0.335,000,0.147
2009-11-18,0.375,0.375,0.335,0.335,000,0.147
2009-11-17,0.35,0.35,0.33,0.33,15000,0.145
2009-11-16,0.355,0.355,0.335,0.335,52000,0.147
2009-11-13,0.355,0.355,0.355,0.355,10000,0.156
2009-11-12,0.38,0.38,0.355,0.355,000,0.156
2009-11-11,0.36,0.375,0.36,0.36,48400,0.158
2009-11-09,0.335,0.345,0.335,0.34,64600,0.149
2009-11-06,0.35,0.35,0.335,0.335,54500,0.147
2009-11-05,0.35,0.35,0.345,0.345,57000,0.151
2009-11-04,0.35,0.35,0.35,0.35,10000,0.153
2009-11-03,0.32,0.34,0.315,0.34,790800,0.149
2009-11-02,0.32,0.32,0.32,0.32,106400,0.14
2009-10-30,0.30,0.30,0.30,0.30,201700,0.131
2009-10-29,0.295,0.295,0.295,0.295,2000,0.129
2009-10-28,0.30,0.30,0.295,0.295,10000,0.129
2009-10-27,0.30,0.31,0.295,0.30,189300,0.131
2009-10-26,0.305,0.305,0.305,0.305,30000,0.134
2009-10-23,0.305,0.305,0.305,0.305,10000,0.134
2009-10-22,0.30,0.32,0.30,0.30,82200,0.131
2009-10-21,0.30,0.30,0.30,0.30,50000,0.131
2009-10-20,0.31,0.315,0.30,0.30,60000,0.131
2009-10-19,0.31,0.315,0.31,0.31,302700,0.136
2009-10-16,0.305,0.31,0.305,0.31,120000,0.136
2009-10-15,0.32,0.32,0.29,0.29,85700,0.127
2009-10-14,0.33,0.33,0.31,0.32,46100,0.14
2009-10-13,0.34,0.34,0.34,0.34,000,0.149
2009-10-12,0.34,0.34,0.34,0.34,30000,0.149
2009-10-09,0.35,0.35,0.35,0.35,42000,0.153
2009-10-08,0.35,0.35,0.35,0.35,000,0.153
2009-10-07,0.345,0.35,0.345,0.35,63600,0.153
2009-10-06,0.35,0.35,0.35,0.35,20000,0.153
2009-10-05,0.35,0.35,0.35,0.35,000,0.153
2009-10-02,0.35,0.35,0.35,0.35,000,0.153
2009-10-01,0.35,0.35,0.35,0.35,203900,0.153
2009-09-30,0.335,0.335,0.335,0.335,000,0.147
2009-09-29,0.335,0.34,0.335,0.335,93000,0.147
2009-09-28,0.34,0.34,0.325,0.325,95400,0.142
2009-09-25,0.35,0.35,0.35,0.35,93000,0.153
2009-09-24,0.37,0.37,0.37,0.37,000,0.162
2009-09-23,0.39,0.39,0.37,0.37,24200,0.162
2009-09-22,0.39,0.39,0.39,0.39,000,0.171
2009-09-21,0.38,0.39,0.38,0.39,143000,0.171
2009-09-18,0.35,0.365,0.35,0.365,58000,0.16
2009-09-17,0.33,0.34,0.33,0.34,15000,0.149
2009-09-16,0.33,0.33,0.33,0.33,000,0.145
2009-09-15,0.34,0.34,0.33,0.33,81000,0.145
2009-09-14,0.34,0.34,0.34,0.34,6000,0.149
2009-09-11,0.35,0.35,0.35,0.35,10000,0.153
2009-09-10,0.35,0.35,0.35,0.35,000,0.153
2009-09-09,0.35,0.35,0.35,0.35,1500,0.153
2009-09-08,0.35,0.35,0.35,0.35,28500,0.153
2009-09-07,0.35,0.35,0.35,0.35,5000,0.153
2009-09-04,0.34,0.34,0.34,0.34,000,0.149
2009-09-03,0.35,0.35,0.34,0.34,50000,0.149
2009-09-02,0.36,0.36,0.36,0.36,000,0.158
2009-09-01,0.36,0.36,0.36,0.36,000,0.158
2009-08-31,0.36,0.36,0.355,0.36,32000,0.145
2009-08-28,0.37,0.37,0.37,0.37,36900,0.149
2009-08-27,0.385,0.385,0.38,0.38,32100,0.153
2009-08-26,0.36,0.38,0.36,0.38,68900,0.153
2009-08-25,0.35,0.35,0.35,0.35,121000,0.141
2009-08-24,0.335,0.335,0.335,0.335,22000,0.135
2009-08-21,0.335,0.335,0.335,0.335,5000,0.135
2009-08-20,0.31,0.32,0.31,0.32,40000,0.129
2009-08-19,0.30,0.30,0.30,0.30,141900,0.121
2009-08-18,0.30,0.30,0.30,0.30,5000,0.121
2009-08-17,0.30,0.31,0.30,0.31,266000,0.125
2009-08-14,0.295,0.30,0.295,0.30,24000,0.121
2009-08-13,0.30,0.30,0.30,0.30,000,0.121
2009-08-12,0.30,0.30,0.30,0.30,000,0.121
2009-08-11,0.30,0.30,0.30,0.30,000,0.121
2009-08-10,0.30,0.30,0.30,0.30,000,0.121
2009-08-07,0.30,0.30,0.30,0.30,000,0.121
2009-08-06,0.27,0.32,0.27,0.30,99000,0.121
2009-08-05,0.29,0.29,0.29,0.29,000,0.117
2009-08-04,0.29,0.29,0.29,0.29,11700,0.117
2009-08-03,0.32,0.32,0.32,0.32,6000,0.129
2009-07-31,0.325,0.325,0.325,0.325,000,0.131
2009-07-30,0.325,0.325,0.325,0.325,20000,0.131
2009-07-29,0.325,0.325,0.325,0.325,25000,0.131
2009-07-28,0.32,0.32,0.32,0.32,5000,0.129
2009-07-27,0.31,0.31,0.31,0.31,11000,0.125
2009-07-24,0.33,0.33,0.31,0.31,30000,0.125
2009-07-23,0.33,0.33,0.33,0.33,40600,0.133
2009-07-22,0.31,0.33,0.31,0.33,65000,0.133
2009-07-21,0.31,0.31,0.31,0.31,10000,0.125
2009-07-20,0.28,0.28,0.28,0.28,000,0.113
2009-07-17,0.28,0.28,0.28,0.28,000,0.113
2009-07-16,0.30,0.30,0.28,0.28,18000,0.113
2009-07-15,0.30,0.30,0.30,0.30,14000,0.121
2009-07-14,0.30,0.30,0.30,0.30,6000,0.121
2009-07-13,0.30,0.30,0.30,0.30,10000,0.121
2009-07-10,0.285,0.29,0.285,0.29,40000,0.117
2009-07-09,0.27,0.27,0.27,0.27,000,0.109
2009-07-08,0.27,0.27,0.27,0.27,000,0.109
2009-07-07,0.27,0.27,0.27,0.27,000,0.109
2009-07-06,0.285,0.285,0.27,0.27,000,0.109
2009-07-03,0.285,0.285,0.27,0.27,000,0.109
2009-07-02,0.27,0.27,0.27,0.27,5000,0.109
2009-07-01,0.26,0.26,0.25,0.25,230400,0.101
2009-06-30,0.25,0.26,0.22,0.25,463500,0.101
2009-06-29,0.27,0.28,0.25,0.25,14800,0.101
2009-06-26,0.28,0.28,0.28,0.28,7200,0.113
2009-06-25,0.29,0.29,0.27,0.27,000,0.109
2009-06-24,0.29,0.29,0.27,0.27,000,0.109
2009-06-23,0.285,0.285,0.27,0.27,000,0.109
2009-06-22,0.285,0.285,0.27,0.275,92500,0.111
2009-06-19,0.295,0.295,0.275,0.275,000,0.111
2009-06-18,0.27,0.27,0.27,0.27,20000,0.109
2009-06-17,0.295,0.295,0.27,0.27,000,0.109
2009-06-16,0.30,0.30,0.27,0.27,000,0.109
2009-06-15,0.275,0.275,0.27,0.27,6000,0.109
2009-06-12,0.295,0.30,0.27,0.27,336000,0.109
2009-06-11,0.31,0.31,0.30,0.30,000,0.121
2009-06-10,0.31,0.31,0.295,0.295,000,0.119
2009-06-09,0.295,0.295,0.295,0.295,1400,0.119
2009-06-05,0.30,0.30,0.30,0.30,33500,0.121
2009-06-04,0.31,0.31,0.30,0.30,25000,0.121
2009-06-03,0.30,0.30,0.30,0.30,15000,0.121
2009-06-02,0.30,0.30,0.295,0.295,000,0.119
2009-06-01,0.30,0.30,0.295,0.295,000,0.119
2009-05-29,0.30,0.30,0.295,0.295,000,0.119
2009-05-28,0.32,0.32,0.295,0.295,000,0.119
2009-05-27,0.305,0.305,0.30,0.30,20000,0.121
2009-05-26,0.305,0.305,0.305,0.305,5000,0.123
2009-05-25,0.32,0.32,0.305,0.305,000,0.123
2009-05-22,0.35,0.35,0.305,0.305,000,0.123
2009-05-21,0.35,0.35,0.305,0.305,000,0.123
2009-05-20,0.37,0.37,0.30,0.30,000,0.121
2009-05-19,0.30,0.30,0.30,0.30,20000,0.121
2009-05-18,0.30,0.30,0.30,0.30,10000,0.121
2009-05-15,0.34,0.34,0.30,0.30,000,0.121
2009-05-14,0.34,0.34,0.30,0.30,000,0.121
2009-05-13,0.34,0.34,0.30,0.30,000,0.121
2009-05-12,0.30,0.30,0.295,0.295,15000,0.119
2009-05-11,0.32,0.32,0.32,0.32,30000,0.129
2009-05-08,0.32,0.32,0.30,0.30,40000,0.121
2009-05-07,0.34,0.34,0.32,0.32,000,0.129
2009-05-06,0.32,0.32,0.32,0.32,30000,0.129
2009-05-05,0.33,0.33,0.32,0.32,000,0.129
2009-05-04,0.34,0.34,0.32,0.32,000,0.129
2009-05-01,0.36,0.36,0.32,0.32,22500,0.129
2009-04-30,0.38,0.38,0.36,0.36,000,0.145
2009-04-29,0.38,0.38,0.36,0.36,000,0.145
2009-04-28,0.37,0.37,0.36,0.36,18000,0.145
2009-04-27,0.37,0.37,0.37,0.37,5700,0.149
2009-04-24,0.40,0.40,0.38,0.38,000,0.153
2009-04-23,0.39,0.39,0.39,0.39,43200,0.157
2009-04-22,0.39,0.39,0.36,0.36,000,0.145
2009-04-21,0.39,0.39,0.36,0.36,000,0.145
2009-04-20,0.36,0.36,0.36,0.36,101400,0.145
2009-04-17,0.39,0.39,0.35,0.35,000,0.141
2009-04-16,0.39,0.39,0.34,0.34,000,0.137
2009-04-15,0.34,0.34,0.34,0.34,72800,0.137
2009-04-14,0.34,0.34,0.34,0.34,000,0.137
2009-04-09,0.335,0.34,0.335,0.34,10000,0.137
2009-04-08,0.30,0.31,0.30,0.31,51000,0.125
2009-04-07,0.31,0.31,0.31,0.31,50100,0.125
2009-04-06,0.31,0.31,0.30,0.30,000,0.121
2009-04-03,0.31,0.31,0.30,0.30,000,0.121
2009-04-02,0.30,0.30,0.30,0.30,23000,0.121
2009-04-01,0.31,0.31,0.31,0.31,16000,0.125
2009-03-31,0.31,0.31,0.29,0.29,000,0.117
2009-03-30,0.31,0.31,0.29,0.29,000,0.117
2009-03-27,0.29,0.29,0.29,0.29,27000,0.117
2009-03-26,0.30,0.30,0.29,0.29,000,0.117
2009-03-25,0.305,0.305,0.29,0.29,000,0.117
2009-03-24,0.30,0.30,0.30,0.30,10000,0.121
2009-03-23,0.32,0.32,0.32,0.32,000,0.129
2009-03-20,0.32,0.32,0.32,0.32,15600,0.129
2009-03-19,0.31,0.31,0.31,0.31,1000,0.125
2009-03-18,0.30,0.30,0.30,0.30,000,0.121
2009-03-17,0.30,0.30,0.30,0.30,000,0.121
2009-03-16,0.30,0.30,0.30,0.30,000,0.121
2009-03-13,0.30,0.30,0.30,0.30,000,0.121
2009-03-12,0.30,0.30,0.30,0.30,4000,0.121
2009-03-11,0.30,0.30,0.26,0.26,000,0.105
2009-03-10,0.31,0.31,0.26,0.26,000,0.105
2009-03-09,0.31,0.31,0.26,0.26,000,0.105
2009-03-06,0.26,0.26,0.26,0.26,1700,0.105
2009-03-05,0.34,0.34,0.26,0.26,000,0.105
2009-03-04,0.34,0.34,0.26,0.26,000,0.105
2009-03-03,0.34,0.34,0.26,0.26,000,0.105
2009-03-02,0.27,0.27,0.27,0.27,000,0.109
2009-02-27,0.27,0.27,0.27,0.27,000,0.109
2009-02-26,0.295,0.295,0.27,0.27,000,0.103
2009-02-25,0.295,0.295,0.27,0.27,000,0.103
2009-02-24,0.295,0.295,0.27,0.27,000,0.103
2009-02-23,0.295,0.295,0.27,0.27,000,0.103
2009-02-20,0.31,0.31,0.27,0.27,000,0.103
2009-02-19,0.28,0.30,0.27,0.27,44000,0.103
2009-02-18,0.28,0.28,0.28,0.28,3000,0.107
2009-02-17,0.31,0.31,0.31,0.31,000,0.118
2009-02-16,0.31,0.31,0.31,0.31,6100,0.118
2009-02-13,0.285,0.29,0.285,0.29,10000,0.111
2009-02-12,0.285,0.285,0.27,0.27,000,0.103
2009-02-11,0.285,0.285,0.27,0.27,000,0.103
2009-02-10,0.285,0.285,0.27,0.27,000,0.103
2009-02-09,0.285,0.285,0.27,0.27,000,0.103
2009-02-06,0.29,0.29,0.27,0.27,000,0.103
2009-02-05,0.29,0.29,0.27,0.27,000,0.103
2009-02-04,0.28,0.28,0.275,0.275,49900,0.105
2009-02-03,0.29,0.29,0.28,0.28,000,0.107
2009-02-02,0.29,0.29,0.29,0.29,5000,0.111
2009-01-30,0.285,0.285,0.285,0.285,20000,0.109
2009-01-29,0.29,0.29,0.29,0.29,4000,0.111
2009-01-28,0.31,0.31,0.31,0.31,000,0.118
2009-01-27,0.31,0.31,0.31,0.31,000,0.118
2009-01-23,0.31,0.31,0.31,0.31,000,0.118
2009-01-22,0.31,0.31,0.31,0.31,000,0.118
2009-01-21,0.31,0.31,0.31,0.31,000,0.118
2009-01-20,0.315,0.315,0.31,0.31,60800,0.118
2009-01-19,0.34,0.34,0.34,0.34,000,0.13
2009-01-16,0.34,0.34,0.34,0.34,3000,0.13
2009-01-15,0.37,0.37,0.34,0.34,000,0.13
2009-01-14,0.34,0.34,0.34,0.34,10000,0.13
2009-01-13,0.34,0.34,0.31,0.31,000,0.118
2009-01-12,0.32,0.325,0.31,0.31,95200,0.118
2009-01-09,0.32,0.325,0.32,0.325,74900,0.124
2009-01-08,0.31,0.31,0.31,0.31,20000,0.118
2009-01-07,0.30,0.30,0.30,0.30,20000,0.115
2009-01-06,0.30,0.30,0.30,0.30,000,0.115
2009-01-05,0.30,0.30,0.30,0.30,19000,0.115
2009-01-02,0.275,0.30,0.275,0.30,55000,0.115
2008-12-31,0.275,0.275,0.25,0.25,000,0.096
2008-12-30,0.275,0.275,0.245,0.245,000,0.094
2008-12-29,0.24,0.24,0.24,0.24,8200,0.092
2008-12-24,0.28,0.28,0.24,0.24,000,0.092
2008-12-23,0.24,0.24,0.24,0.24,8200,0.092
2008-12-22,0.28,0.28,0.24,0.24,000,0.092
2008-12-19,0.28,0.28,0.235,0.235,000,0.09
2008-12-18,0.26,0.26,0.24,0.24,59000,0.092
2008-12-17,0.30,0.30,0.30,0.30,000,0.115
2008-12-16,0.25,0.30,0.25,0.30,23000,0.115
2008-12-15,0.28,0.28,0.24,0.24,74000,0.092
2008-12-12,0.28,0.28,0.28,0.28,40000,0.107
2008-12-11,0.30,0.30,0.30,0.30,19000,0.115
2008-12-10,0.32,0.32,0.32,0.32,000,0.122
2008-12-09,0.32,0.32,0.32,0.32,000,0.122
2008-12-08,0.34,0.34,0.32,0.32,21900,0.122
2008-12-05,0.34,0.34,0.32,0.32,000,0.122
2008-12-04,0.34,0.34,0.32,0.32,000,0.122
2008-12-03,0.34,0.34,0.33,0.33,31000,0.126
2008-12-02,0.33,0.34,0.33,0.34,21000,0.13
2008-12-01,0.34,0.34,0.34,0.34,4000,0.13
2008-11-28,0.34,0.37,0.34,0.37,10000,0.141
2008-11-27,0.39,0.39,0.28,0.28,000,0.107
2008-11-26,0.28,0.28,0.28,0.28,3000,0.107
2008-11-25,0.26,0.26,0.23,0.23,70000,0.088
2008-11-24,0.26,0.26,0.25,0.25,62000,0.096
2008-11-21,0.28,0.28,0.26,0.26,000,0.099
2008-11-20,0.29,0.29,0.25,0.25,170000,0.096
2008-11-19,0.30,0.30,0.29,0.29,20000,0.111
2008-11-18,0.32,0.32,0.30,0.30,26000,0.115
2008-11-17,0.32,0.32,0.32,0.32,5000,0.122
2008-11-14,0.36,0.40,0.36,0.40,20000,0.153
2008-11-13,0.35,0.35,0.34,0.34,14700,0.13
2008-11-12,0.36,0.36,0.35,0.35,45700,0.134
2008-11-11,0.40,0.40,0.40,0.40,000,0.153
2008-11-10,0.40,0.40,0.40,0.40,3000,0.153
2008-11-07,0.40,0.40,0.36,0.36,000,0.138
2008-11-06,0.36,0.36,0.36,0.36,25000,0.138
2008-11-05,0.38,0.38,0.355,0.355,20000,0.136
2008-11-04,0.40,0.40,0.38,0.38,20000,0.145
2008-11-03,0.40,0.40,0.40,0.40,20000,0.153
2008-10-31,0.39,0.40,0.39,0.40,61700,0.153
2008-10-30,0.38,0.38,0.38,0.38,5000,0.145
2008-10-29,0.39,0.39,0.385,0.385,47500,0.147
2008-10-28,0.385,0.385,0.38,0.38,000,0.145
2008-10-27,0.40,0.40,0.38,0.39,21000,0.149
2008-10-24,0.40,0.40,0.40,0.40,8000,0.153
2008-10-23,0.40,0.40,0.39,0.39,46000,0.149
2008-10-22,0.48,0.48,0.395,0.395,000,0.151
2008-10-21,0.47,0.47,0.395,0.395,000,0.151
2008-10-20,0.39,0.39,0.39,0.39,30000,0.149
2008-10-17,0.39,0.39,0.39,0.39,1000,0.149
2008-10-16,0.43,0.43,0.40,0.43,70600,0.164
2008-10-15,0.48,0.48,0.475,0.475,23000,0.182
2008-10-14,0.48,0.48,0.48,0.48,10000,0.183
2008-10-13,0.44,0.44,0.42,0.44,125000,0.168
2008-10-10,0.41,0.41,0.36,0.38,150500,0.145
2008-10-09,0.50,0.50,0.40,0.40,9200,0.153
2008-10-08,0.50,0.54,0.50,0.54,11000,0.206
2008-10-07,0.51,0.51,0.50,0.50,21000,0.191
2008-10-06,0.54,0.54,0.54,0.54,1600,0.206
2008-10-03,0.535,0.535,0.535,0.535,10000,0.204
2008-10-02,0.53,0.54,0.53,0.54,79300,0.206
2008-10-01,0.53,0.53,0.53,0.53,300,0.203
2008-09-30,0.54,0.54,0.515,0.525,71700,0.201
2008-09-29,0.55,0.55,0.55,0.55,2500,0.21
2008-09-26,0.55,0.55,0.55,0.55,10000,0.21
2008-09-25,0.55,0.55,0.55,0.55,20000,0.21
2008-09-24,0.55,0.55,0.54,0.54,000,0.206
2008-09-23,0.55,0.55,0.55,0.55,28300,0.21
2008-09-22,0.55,0.55,0.55,0.55,18600,0.21
2008-09-19,0.55,0.55,0.55,0.55,1000,0.21
2008-09-18,0.57,0.57,0.57,0.57,2000,0.218
2008-09-17,0.57,0.57,0.55,0.55,000,0.21
2008-09-16,0.55,0.55,0.55,0.55,17000,0.21
2008-09-15,0.57,0.57,0.56,0.56,16400,0.214
2008-09-12,0.57,0.57,0.57,0.57,19500,0.218
2008-09-11,0.57,0.57,0.57,0.57,8400,0.218
2008-09-10,0.58,0.59,0.58,0.59,10300,0.225
2008-09-09,0.58,0.58,0.58,0.58,19600,0.222
2008-09-08,0.58,0.58,0.57,0.57,7000,0.218
2008-09-05,0.60,0.60,0.60,0.60,800,0.229
2008-09-04,0.58,0.60,0.58,0.60,34500,0.229
2008-09-03,0.58,0.58,0.58,0.58,9400,0.222
2008-09-02,0.60,0.60,0.60,0.60,9500,0.229
2008-09-01,0.61,0.61,0.605,0.605,10000,0.22
2008-08-29,0.615,0.615,0.60,0.60,26000,0.218
2008-08-28,0.60,0.615,0.60,0.615,121100,0.224
2008-08-27,0.60,0.62,0.60,0.615,57300,0.224
2008-08-26,0.60,0.60,0.59,0.59,74300,0.215
2008-08-25,0.59,0.59,0.59,0.59,9400,0.215
2008-08-22,0.60,0.60,0.59,0.59,25000,0.215
2008-08-21,0.60,0.60,0.60,0.60,52000,0.218
2008-08-20,0.59,0.59,0.58,0.58,4000,0.211
2008-08-19,0.60,0.60,0.60,0.60,68000,0.218
2008-08-18,0.60,0.60,0.59,0.59,000,0.215
2008-08-15,0.60,0.60,0.60,0.60,000,0.218
2008-08-14,0.61,0.61,0.60,0.60,9000,0.218
2008-08-13,0.61,0.61,0.60,0.60,000,0.218
2008-08-12,0.61,0.61,0.61,0.61,3000,0.222
2008-08-11,0.61,0.61,0.60,0.60,000,0.218
2008-08-08,0.61,0.61,0.60,0.60,000,0.218
2008-08-07,0.61,0.61,0.61,0.61,25000,0.222
2008-08-06,0.62,0.62,0.61,0.61,25000,0.222
2008-08-05,0.63,0.63,0.63,0.63,6700,0.229
2008-08-04,0.62,0.62,0.62,0.62,20000,0.226
2008-08-01,0.62,0.62,0.62,0.62,30000,0.226
2008-07-31,0.62,0.62,0.61,0.61,000,0.222
2008-07-30,0.60,0.60,0.60,0.60,94200,0.218
2008-07-29,0.60,0.60,0.60,0.60,65400,0.218
2008-07-28,0.60,0.60,0.60,0.60,9500,0.218
2008-07-25,0.62,0.62,0.60,0.60,48000,0.218
2008-07-24,0.65,0.65,0.65,0.65,4800,0.237
2008-07-23,0.60,0.65,0.60,0.65,13300,0.237
2008-07-22,0.60,0.60,0.60,0.60,25900,0.218
2008-07-21,0.60,0.60,0.60,0.60,19500,0.218
2008-07-18,0.60,0.60,0.60,0.60,55000,0.218
2008-07-17,0.58,0.58,0.58,0.58,500,0.211
2008-07-16,0.58,0.60,0.56,0.58,39100,0.211
2008-07-15,0.53,0.53,0.53,0.53,11800,0.193
2008-07-14,0.55,0.55,0.55,0.55,50000,0.20
2008-07-11,0.565,0.565,0.565,0.565,20000,0.206
2008-07-10,0.565,0.565,0.565,0.565,10000,0.206
2008-07-09,0.565,0.565,0.565,0.565,49000,0.206
2008-07-08,0.59,0.59,0.57,0.57,10800,0.208
2008-07-07,0.565,0.60,0.565,0.60,15500,0.218
2008-07-04,0.59,0.59,0.56,0.56,60000,0.204
2008-07-03,0.605,0.605,0.60,0.60,11000,0.218
2008-07-02,0.61,0.61,0.60,0.60,11500,0.218
2008-07-01,0.61,0.61,0.60,0.60,000,0.218
2008-06-30,0.60,0.60,0.60,0.60,40000,0.218
2008-06-27,0.61,0.61,0.60,0.60,000,0.218
2008-06-26,0.61,0.61,0.61,0.61,20000,0.222
2008-06-25,0.61,0.61,0.61,0.61,2000,0.222
2008-06-24,0.645,0.65,0.645,0.65,1000,0.237
2008-06-23,0.62,0.62,0.61,0.61,50000,0.222
2008-06-20,0.62,0.62,0.62,0.62,27000,0.226
2008-06-19,0.62,0.65,0.62,0.65,50000,0.237
2008-06-18,0.62,0.62,0.62,0.62,37500,0.226
2008-06-17,0.64,0.64,0.64,0.64,37500,0.233
2008-06-16,0.65,0.65,0.65,0.65,000,0.237
2008-06-13,0.65,0.65,0.65,0.65,68700,0.237
2008-06-12,0.67,0.67,0.645,0.65,50900,0.237
2008-06-11,0.67,0.67,0.67,0.67,16000,0.244
2008-06-10,0.67,0.67,0.665,0.67,15800,0.244
2008-06-06,0.655,0.655,0.65,0.65,206700,0.237
2008-06-05,0.655,0.655,0.65,0.65,129200,0.237
2008-06-04,0.645,0.655,0.645,0.655,125500,0.238
2008-06-03,0.65,0.65,0.62,0.62,000,0.226
2008-06-02,0.62,0.62,0.62,0.62,79600,0.226
2008-05-30,0.61,0.61,0.61,0.61,24400,0.222
2008-05-29,0.62,0.62,0.61,0.61,24500,0.222
2008-05-28,0.61,0.61,0.61,0.61,42000,0.222
2008-05-27,0.62,0.62,0.61,0.61,61000,0.222
2008-05-26,0.62,0.63,0.62,0.62,780000,0.226
2008-05-23,0.63,0.63,0.62,0.62,000,0.226
2008-05-22,0.62,0.62,0.62,0.62,10000,0.226
2008-05-21,0.615,0.615,0.61,0.61,30000,0.222
2008-05-20,0.615,0.615,0.615,0.615,3000,0.224
2008-05-19,0.615,0.615,0.615,0.615,10000,0.224
2008-05-16,0.615,0.615,0.615,0.615,18000,0.224
2008-05-15,0.605,0.65,0.605,0.615,57600,0.224
2008-05-14,0.605,0.605,0.605,0.605,10000,0.22
2008-05-13,0.61,0.61,0.61,0.61,26000,0.222
2008-05-12,0.61,0.61,0.61,0.61,30000,0.222
2008-05-09,0.61,0.61,0.61,0.61,11000,0.222
2008-05-08,0.61,0.61,0.61,0.61,10000,0.222
2008-05-07,0.615,0.615,0.61,0.61,56300,0.222
2008-05-06,0.64,0.64,0.615,0.615,000,0.224
2008-05-05,0.60,0.60,0.60,0.60,26500,0.218
2008-05-02,0.60,0.60,0.60,0.60,10000,0.218
2008-05-01,0.64,0.64,0.60,0.60,000,0.218
2008-04-30,0.60,0.60,0.60,0.60,50000,0.218
2008-04-29,0.60,0.60,0.60,0.60,4000,0.218
2008-04-28,0.64,0.64,0.60,0.60,000,0.218
2008-04-24,0.61,0.61,0.60,0.60,30000,0.218
2008-04-23,0.64,0.64,0.60,0.60,000,0.218
2008-04-22,0.63,0.65,0.60,0.60,21000,0.218
2008-04-21,0.62,0.62,0.60,0.60,52000,0.218
2008-04-18,0.63,0.63,0.62,0.62,000,0.226
2008-04-17,0.63,0.63,0.61,0.61,000,0.222
2008-04-16,0.61,0.61,0.60,0.61,60000,0.222
2008-04-15,0.63,0.63,0.61,0.61,000,0.222
2008-04-14,0.62,0.63,0.62,0.63,17600,0.229
2008-04-11,0.63,0.63,0.62,0.63,33300,0.229
2008-04-10,0.65,0.65,0.63,0.63,000,0.229
2008-04-09,0.65,0.65,0.63,0.63,000,0.229
2008-04-08,0.63,0.63,0.63,0.63,17200,0.229
2008-04-07,0.61,0.65,0.61,0.65,17300,0.237
2008-04-04,0.61,0.61,0.61,0.61,14400,0.222
2008-04-03,0.65,0.65,0.61,0.61,000,0.222
2008-04-02,0.60,0.60,0.60,0.60,30000,0.218
2008-04-01,0.65,0.65,0.60,0.60,000,0.218
2008-03-31,0.59,0.59,0.59,0.59,3800,0.215
2008-03-28,0.59,0.59,0.57,0.57,15000,0.208
2008-03-27,0.60,0.60,0.59,0.59,72100,0.215
2008-03-26,0.60,0.60,0.60,0.60,32500,0.218
2008-03-25,0.60,0.60,0.60,0.60,25000,0.218
2008-03-20,0.60,0.60,0.60,0.60,000,0.218
2008-03-19,0.57,0.60,0.55,0.60,69000,0.218
2008-03-18,0.55,0.55,0.54,0.54,4000,0.197
2008-03-17,0.57,0.57,0.57,0.57,67900,0.208
2008-03-14,0.59,0.59,0.57,0.57,000,0.208
2008-03-13,0.58,0.58,0.58,0.58,2000,0.211
2008-03-12,0.60,0.60,0.60,0.60,30000,0.218
2008-03-11,0.60,0.60,0.55,0.55,000,0.20
2008-03-10,0.55,0.55,0.55,0.55,54000,0.20
2008-03-07,0.57,0.57,0.55,0.55,60000,0.20
2008-03-06,0.59,0.59,0.58,0.58,875000,0.211
2008-03-05,0.60,0.60,0.60,0.60,12500,0.218
2008-03-04,0.605,0.61,0.60,0.60,69000,0.218
2008-03-03,0.61,0.62,0.61,0.61,88500,0.222
2008-02-29,0.605,0.62,0.605,0.62,143500,0.226
2008-02-28,0.63,0.635,0.63,0.63,27500,0.224
2008-02-27,0.64,0.67,0.64,0.67,53000,0.238
2008-02-26,0.65,0.65,0.64,0.64,20000,0.228
2008-02-25,0.65,0.65,0.65,0.65,100000,0.231
2008-02-22,0.65,0.65,0.65,0.65,000,0.231
2008-02-21,0.63,0.65,0.62,0.65,239800,0.231
2008-02-20,0.63,0.63,0.63,0.63,30000,0.224
2008-02-19,0.61,0.63,0.61,0.62,112900,0.221
2008-02-18,0.60,0.61,0.60,0.605,74500,0.215
2008-02-15,0.57,0.57,0.50,0.50,7600,0.178
2008-02-14,0.56,0.57,0.56,0.57,2400,0.203
2008-02-13,0.56,0.56,0.56,0.56,000,0.199
2008-02-12,0.58,0.60,0.55,0.56,56200,0.199
2008-02-11,0.585,0.585,0.58,0.58,50000,0.206
2008-02-08,0.585,0.585,0.585,0.585,120000,0.208
2008-02-07,0.595,0.595,0.58,0.58,120000,0.206
2008-02-06,0.60,0.60,0.595,0.595,54400,0.212
2008-02-05,0.65,0.65,0.60,0.61,26500,0.217
2008-02-04,0.62,0.63,0.62,0.63,37500,0.224
2008-02-01,0.63,0.63,0.61,0.61,000,0.217
2008-01-31,0.64,0.64,0.58,0.585,123900,0.208
2008-01-30,0.67,0.67,0.64,0.64,26000,0.228
2008-01-29,0.635,0.67,0.635,0.67,54800,0.238
2008-01-25,0.62,0.62,0.62,0.62,14000,0.221
2008-01-24,0.63,0.63,0.62,0.62,65000,0.221
2008-01-23,0.65,0.65,0.61,0.63,141100,0.224
2008-01-22,0.64,0.64,0.59,0.61,104000,0.217
2008-01-21,0.675,0.68,0.64,0.64,35000,0.228
2008-01-18,0.66,0.675,0.64,0.675,84300,0.24
2008-01-17,0.675,0.675,0.675,0.675,20000,0.24
2008-01-16,0.67,0.67,0.65,0.65,179300,0.231
2008-01-15,0.675,0.68,0.675,0.675,91000,0.24
2008-01-14,0.675,0.675,0.675,0.675,24000,0.24
2008-01-11,0.69,0.70,0.69,0.69,57900,0.246
2008-01-10,0.68,0.68,0.68,0.68,54000,0.242
2008-01-09,0.70,0.70,0.67,0.675,21000,0.24
2008-01-08,0.70,0.70,0.69,0.69,67600,0.246
2008-01-07,0.695,0.70,0.69,0.70,36000,0.249
2008-01-04,0.71,0.71,0.70,0.70,103000,0.249
2008-01-03,0.71,0.71,0.70,0.71,31000,0.253
2008-01-02,0.71,0.715,0.705,0.715,55500,0.254
2007-12-31,0.69,0.69,0.69,0.69,7000,0.246
2007-12-28,0.70,0.70,0.70,0.70,20000,0.249
2007-12-27,0.70,0.70,0.70,0.70,10000,0.249
2007-12-24,0.69,0.69,0.69,0.69,40000,0.246
2007-12-21,0.69,0.70,0.69,0.69,49300,0.246
2007-12-20,0.69,0.69,0.68,0.68,34000,0.242
2007-12-19,0.69,0.69,0.69,0.69,20000,0.246
2007-12-18,0.69,0.70,0.685,0.70,95000,0.249
2007-12-17,0.71,0.71,0.685,0.69,277200,0.246
2007-12-14,0.71,0.71,0.70,0.70,100000,0.249
2007-12-13,0.74,0.74,0.70,0.71,226100,0.253
2007-12-12,0.72,0.74,0.72,0.74,102300,0.263
2007-12-11,0.72,0.75,0.70,0.74,334400,0.263
2007-12-10,0.75,0.75,0.70,0.72,103300,0.256
2007-12-07,0.74,0.80,0.74,0.77,461400,0.274
2007-12-06,0.68,0.75,0.68,0.72,467700,0.256
2007-12-05,0.67,0.70,0.65,0.68,3884500,0.242
