Date,Open,High,Low,Close,Volume,Adj Close
2016-11-08,0.003,0.003,0.003,0.003,000,0.003
2016-11-07,0.003,0.003,0.003,0.003,000,0.003
2016-11-04,0.003,0.003,0.003,0.003,000,0.003
2016-11-03,0.003,0.003,0.003,0.003,000,0.003
2016-11-02,0.003,0.003,0.003,0.003,000,0.003
2016-11-01,0.003,0.003,0.003,0.003,000,0.003
2016-10-31,0.003,0.003,0.003,0.003,000,0.003
2016-10-28,0.003,0.003,0.003,0.003,000,0.003
2016-10-27,0.003,0.003,0.003,0.003,000,0.003
2016-10-26,0.003,0.003,0.003,0.003,000,0.003
2016-10-25,0.003,0.003,0.003,0.003,000,0.003
2016-10-24,0.003,0.003,0.003,0.003,000,0.003
2016-10-21,0.003,0.003,0.003,0.003,000,0.003
2016-10-20,0.003,0.003,0.003,0.003,000,0.003
2016-10-19,0.003,0.003,0.003,0.003,000,0.003
2016-10-18,0.003,0.003,0.003,0.003,000,0.003
2016-10-17,0.003,0.003,0.003,0.003,000,0.003
2016-10-14,0.003,0.003,0.003,0.003,000,0.003
2016-10-13,0.003,0.003,0.003,0.003,000,0.003
2016-10-12,0.003,0.003,0.003,0.003,000,0.003
2016-10-11,0.003,0.003,0.003,0.003,000,0.003
2016-10-10,0.003,0.003,0.003,0.003,000,0.003
2016-10-07,0.003,0.003,0.003,0.003,000,0.003
2016-10-06,0.003,0.003,0.003,0.003,000,0.003
2016-10-05,0.003,0.003,0.003,0.003,000,0.003
2016-10-04,0.003,0.003,0.003,0.003,000,0.003
2016-10-03,0.003,0.003,0.003,0.003,000,0.003
2016-09-30,0.003,0.003,0.003,0.003,000,0.003
2016-09-29,0.003,0.003,0.003,0.003,000,0.003
2016-09-28,0.003,0.003,0.003,0.003,000,0.003
2016-09-27,0.003,0.003,0.003,0.003,000,0.003
2016-09-26,0.003,0.003,0.003,0.003,000,0.003
2016-09-23,0.003,0.003,0.003,0.003,000,0.003
2016-09-22,0.003,0.003,0.003,0.003,000,0.003
2016-09-21,0.003,0.003,0.003,0.003,000,0.003
2016-09-20,0.003,0.003,0.003,0.003,000,0.003
2016-09-19,0.003,0.003,0.003,0.003,000,0.003
2016-09-16,0.003,0.003,0.003,0.003,000,0.003
2016-09-15,0.003,0.003,0.003,0.003,000,0.003
2016-09-14,0.003,0.003,0.003,0.003,000,0.003
2016-09-13,0.003,0.003,0.003,0.003,000,0.003
2016-09-12,0.003,0.003,0.003,0.003,000,0.003
2016-09-09,0.003,0.003,0.003,0.003,000,0.003
2016-09-08,0.003,0.003,0.003,0.003,000,0.003
2016-09-07,0.003,0.003,0.003,0.003,000,0.003
2016-09-06,0.003,0.003,0.003,0.003,000,0.003
2016-09-05,0.003,0.003,0.003,0.003,000,0.003
2016-09-02,0.003,0.003,0.003,0.003,000,0.003
2016-09-01,0.003,0.003,0.003,0.003,000,0.003
2016-08-31,0.003,0.003,0.003,0.003,000,0.003
2016-08-30,0.003,0.003,0.003,0.003,000,0.003
2016-08-29,0.003,0.003,0.003,0.003,000,0.003
2016-08-26,0.003,0.003,0.003,0.003,000,0.003
2016-08-25,0.003,0.003,0.003,0.003,000,0.003
2016-08-24,0.003,0.003,0.003,0.003,000,0.003
2016-08-23,0.003,0.003,0.003,0.003,000,0.003
2016-08-22,0.003,0.003,0.003,0.003,000,0.003
2016-08-19,0.003,0.003,0.003,0.003,000,0.003
2016-08-18,0.003,0.003,0.003,0.003,000,0.003
2016-08-17,0.003,0.003,0.003,0.003,000,0.003
2016-08-16,0.003,0.003,0.003,0.003,000,0.003
2016-08-15,0.003,0.003,0.003,0.003,000,0.003
2016-08-12,0.003,0.003,0.003,0.003,000,0.003
2016-08-11,0.003,0.003,0.003,0.003,000,0.003
2016-08-10,0.003,0.003,0.003,0.003,000,0.003
2016-08-09,0.003,0.003,0.003,0.003,000,0.003
2016-08-08,0.003,0.003,0.003,0.003,000,0.003
2016-08-05,0.003,0.003,0.003,0.003,000,0.003
2016-08-04,0.003,0.003,0.003,0.003,000,0.003
2016-08-03,0.003,0.003,0.003,0.003,000,0.003
2016-08-02,0.003,0.003,0.003,0.003,000,0.003
2016-08-01,0.003,0.003,0.003,0.003,000,0.003
2016-07-29,0.003,0.003,0.003,0.003,000,0.003
2016-07-28,0.003,0.003,0.003,0.003,000,0.003
2016-07-27,0.003,0.003,0.003,0.003,000,0.003
2016-07-26,0.003,0.003,0.003,0.003,000,0.003
2016-07-25,0.003,0.003,0.003,0.003,000,0.003
2016-07-22,0.003,0.003,0.003,0.003,000,0.003
2016-07-21,0.003,0.003,0.003,0.003,000,0.003
2016-07-20,0.003,0.003,0.003,0.003,000,0.003
2016-07-19,0.003,0.003,0.003,0.003,000,0.003
2016-07-18,0.003,0.003,0.003,0.003,000,0.003
2016-07-15,0.003,0.003,0.003,0.003,000,0.003
2016-07-14,0.003,0.003,0.003,0.003,000,0.003
2016-07-13,0.003,0.003,0.003,0.003,000,0.003
2016-07-12,0.003,0.003,0.003,0.003,000,0.003
2016-07-11,0.003,0.003,0.003,0.003,000,0.003
2016-07-08,0.003,0.003,0.003,0.003,000,0.003
2016-07-07,0.003,0.003,0.003,0.003,000,0.003
2016-07-06,0.003,0.003,0.003,0.003,000,0.003
2016-07-05,0.003,0.003,0.003,0.003,000,0.003
2016-07-04,0.003,0.003,0.003,0.003,000,0.003
2016-07-01,0.003,0.003,0.003,0.003,000,0.003
2016-06-30,0.003,0.003,0.003,0.003,000,0.003
2016-06-29,0.003,0.003,0.003,0.003,000,0.003
2016-06-28,0.003,0.003,0.003,0.003,000,0.003
2016-06-27,0.003,0.003,0.003,0.003,000,0.003
2016-06-24,0.003,0.003,0.003,0.003,000,0.003
2016-06-23,0.003,0.003,0.003,0.003,000,0.003
2016-06-22,0.003,0.003,0.003,0.003,000,0.003
2016-06-21,0.003,0.003,0.003,0.003,000,0.003
2016-06-20,0.003,0.003,0.003,0.003,000,0.003
2016-06-17,0.003,0.003,0.003,0.003,000,0.003
2016-06-16,0.003,0.003,0.003,0.003,000,0.003
2016-06-15,0.003,0.003,0.003,0.003,000,0.003
2016-06-14,0.003,0.003,0.003,0.003,000,0.003
2016-06-13,0.003,0.003,0.003,0.003,000,0.003
2016-06-10,0.003,0.003,0.003,0.003,000,0.003
2016-06-09,0.003,0.003,0.003,0.003,000,0.003
2016-06-08,0.003,0.003,0.003,0.003,000,0.003
2016-06-07,0.003,0.003,0.003,0.003,000,0.003
2016-06-06,0.003,0.003,0.003,0.003,000,0.003
2016-06-03,0.003,0.003,0.003,0.003,000,0.003
2016-06-02,0.003,0.003,0.003,0.003,000,0.003
2016-06-01,0.003,0.003,0.003,0.003,000,0.003
2016-05-31,0.003,0.003,0.003,0.003,000,0.003
2016-05-30,0.003,0.003,0.003,0.003,000,0.003
2016-05-27,0.003,0.003,0.003,0.003,000,0.003
2016-05-26,0.003,0.003,0.003,0.003,000,0.003
2016-05-25,0.003,0.003,0.003,0.003,000,0.003
2016-05-24,0.003,0.003,0.003,0.003,000,0.003
2016-05-23,0.003,0.003,0.003,0.003,000,0.003
2016-05-20,0.003,0.003,0.003,0.003,000,0.003
2016-05-19,0.003,0.003,0.003,0.003,000,0.003
2016-05-18,0.003,0.003,0.003,0.003,000,0.003
2016-05-17,0.003,0.003,0.003,0.003,000,0.003
2016-05-16,0.003,0.003,0.003,0.003,000,0.003
2016-05-13,0.003,0.003,0.003,0.003,000,0.003
2016-05-12,0.003,0.003,0.003,0.003,000,0.003
2016-05-11,0.003,0.003,0.003,0.003,000,0.003
2016-05-10,0.003,0.003,0.003,0.003,000,0.003
2016-05-09,0.003,0.003,0.003,0.003,000,0.003
2016-05-06,0.003,0.003,0.003,0.003,000,0.003
2016-05-05,0.003,0.003,0.003,0.003,000,0.003
2016-05-04,0.003,0.003,0.003,0.003,000,0.003
2016-05-03,0.003,0.003,0.003,0.003,000,0.003
2016-05-02,0.003,0.003,0.003,0.003,000,0.003
2016-04-29,0.003,0.003,0.003,0.003,000,0.003
2016-04-28,0.003,0.003,0.003,0.003,000,0.003
2016-04-27,0.003,0.003,0.003,0.003,000,0.003
2016-04-26,0.003,0.003,0.003,0.003,000,0.003
2016-04-25,0.003,0.003,0.003,0.003,000,0.003
2016-04-22,0.003,0.003,0.003,0.003,000,0.003
2016-04-21,0.003,0.003,0.003,0.003,000,0.003
2016-04-20,0.003,0.003,0.003,0.003,000,0.003
2016-04-19,0.003,0.003,0.003,0.003,000,0.003
2016-04-18,0.003,0.003,0.003,0.003,000,0.003
2016-04-15,0.003,0.003,0.003,0.003,000,0.003
2016-04-14,0.003,0.003,0.003,0.003,000,0.003
2016-04-13,0.003,0.003,0.003,0.003,000,0.003
2016-04-12,0.003,0.003,0.003,0.003,000,0.003
2016-04-11,0.003,0.003,0.003,0.003,000,0.003
2016-04-08,0.003,0.003,0.003,0.003,000,0.003
2016-04-07,0.003,0.003,0.003,0.003,000,0.003
2016-04-06,0.003,0.003,0.003,0.003,000,0.003
2016-04-05,0.003,0.003,0.003,0.003,000,0.003
2016-04-04,0.003,0.003,0.003,0.003,000,0.003
2016-04-01,0.003,0.003,0.003,0.003,000,0.003
2016-03-31,0.003,0.003,0.003,0.003,000,0.003
2016-03-30,0.003,0.003,0.003,0.003,000,0.003
2016-03-29,0.003,0.003,0.003,0.003,000,0.003
2016-03-28,0.003,0.003,0.003,0.003,000,0.003
2016-03-25,0.003,0.003,0.003,0.003,000,0.003
2016-03-24,0.003,0.003,0.003,0.003,000,0.003
2016-03-23,0.003,0.003,0.003,0.003,000,0.003
2016-03-22,0.003,0.003,0.003,0.003,000,0.003
2016-03-21,0.003,0.003,0.003,0.003,000,0.003
2016-03-18,0.003,0.003,0.003,0.003,000,0.003
2016-03-17,0.003,0.003,0.003,0.003,000,0.003
2016-03-16,0.003,0.003,0.003,0.003,000,0.003
2016-03-15,0.003,0.003,0.003,0.003,000,0.003
2016-03-14,0.003,0.003,0.003,0.003,000,0.003
2016-03-11,0.003,0.003,0.003,0.003,000,0.003
2016-03-10,0.003,0.003,0.003,0.003,000,0.003
2016-03-09,0.003,0.003,0.003,0.003,000,0.003
2016-03-08,0.003,0.003,0.003,0.003,000,0.003
2016-03-07,0.003,0.003,0.003,0.003,000,0.003
2016-03-04,0.003,0.003,0.003,0.003,000,0.003
2016-03-03,0.003,0.003,0.003,0.003,000,0.003
2016-03-02,0.003,0.003,0.003,0.003,000,0.003
2016-03-01,0.003,0.003,0.003,0.003,000,0.003
2016-02-29,0.003,0.003,0.003,0.003,000,0.003
2016-02-26,0.003,0.003,0.003,0.003,000,0.003
2016-02-25,0.003,0.003,0.003,0.003,000,0.003
2016-02-24,0.003,0.003,0.003,0.003,000,0.003
2016-02-23,0.003,0.003,0.003,0.003,000,0.003
2016-02-22,0.003,0.003,0.003,0.003,000,0.003
2016-02-19,0.003,0.003,0.003,0.003,000,0.003
2016-02-18,0.003,0.003,0.003,0.003,000,0.003
2016-02-17,0.003,0.003,0.003,0.003,000,0.003
2016-02-16,0.003,0.003,0.003,0.003,000,0.003
2016-02-15,0.003,0.003,0.003,0.003,000,0.003
2016-02-12,0.003,0.003,0.003,0.003,000,0.003
2016-02-11,0.003,0.003,0.003,0.003,000,0.003
2016-02-10,0.003,0.003,0.003,0.003,000,0.003
2016-02-09,0.003,0.003,0.003,0.003,000,0.003
2016-02-08,0.003,0.003,0.003,0.003,600000,0.003
2016-02-05,0.002,0.002,0.002,0.002,000,0.002
2016-02-04,0.002,0.002,0.002,0.002,000,0.002
2016-02-03,0.002,0.002,0.002,0.002,000,0.002
2016-02-02,0.002,0.002,0.002,0.002,000,0.002
2016-02-01,0.002,0.002,0.002,0.002,000,0.002
2016-01-29,0.002,0.002,0.002,0.002,000,0.002
2016-01-28,0.002,0.002,0.002,0.002,000,0.002
2016-01-27,0.002,0.002,0.002,0.002,000,0.002
2016-01-26,0.002,0.002,0.002,0.002,000,0.002
2016-01-25,0.002,0.002,0.002,0.002,000,0.002
2016-01-22,0.002,0.002,0.002,0.002,000,0.002
2016-01-21,0.002,0.002,0.002,0.002,000,0.002
2016-01-20,0.002,0.002,0.002,0.002,000,0.002
2016-01-19,0.002,0.002,0.002,0.002,000,0.002
2016-01-18,0.002,0.002,0.002,0.002,000,0.002
2016-01-15,0.002,0.002,0.002,0.002,000,0.002
2016-01-14,0.002,0.002,0.002,0.002,000,0.002
2016-01-13,0.002,0.002,0.002,0.002,000,0.002
2016-01-12,0.002,0.002,0.002,0.002,000,0.002
2016-01-11,0.002,0.002,0.002,0.002,000,0.002
2016-01-08,0.002,0.002,0.002,0.002,000,0.002
2016-01-07,0.002,0.002,0.002,0.002,000,0.002
2016-01-06,0.002,0.002,0.002,0.002,000,0.002
2016-01-05,0.002,0.002,0.002,0.002,000,0.002
2016-01-04,0.002,0.002,0.002,0.002,000,0.002
2016-01-01,0.002,0.002,0.002,0.002,000,0.002
2015-12-31,0.002,0.002,0.002,0.002,000,0.002
2015-12-30,0.002,0.002,0.002,0.002,000,0.002
2015-12-29,0.002,0.002,0.002,0.002,000,0.002
2015-12-28,0.002,0.002,0.002,0.002,000,0.002
2015-12-25,0.002,0.002,0.002,0.002,000,0.002
2015-12-24,0.002,0.002,0.002,0.002,000,0.002
2015-12-23,0.002,0.002,0.002,0.002,000,0.002
2015-12-22,0.002,0.002,0.002,0.002,000,0.002
2015-12-21,0.002,0.002,0.002,0.002,000,0.002
2015-12-18,0.002,0.002,0.002,0.002,000,0.002
2015-12-17,0.002,0.002,0.002,0.002,000,0.002
2015-12-16,0.002,0.002,0.002,0.002,000,0.002
2015-12-15,0.002,0.002,0.002,0.002,000,0.002
2015-12-14,0.002,0.002,0.002,0.002,000,0.002
2015-12-11,0.002,0.002,0.002,0.002,000,0.002
2015-12-10,0.002,0.002,0.002,0.002,000,0.002
2015-12-09,0.002,0.002,0.002,0.002,000,0.002
2015-12-08,0.002,0.002,0.002,0.002,000,0.002
2015-12-07,0.002,0.002,0.002,0.002,000,0.002
2015-12-04,0.002,0.002,0.002,0.002,000,0.002
2015-12-03,0.002,0.002,0.002,0.002,000,0.002
2015-12-02,0.002,0.002,0.002,0.002,000,0.002
2015-12-01,0.002,0.002,0.002,0.002,000,0.002
2015-11-30,0.002,0.002,0.002,0.002,000,0.002
2015-11-27,0.002,0.002,0.002,0.002,000,0.002
2015-11-26,0.002,0.002,0.002,0.002,849400,0.002
2015-11-25,0.002,0.002,0.002,0.002,350000,0.002
2015-11-24,0.002,0.002,0.002,0.002,000,0.002
2015-11-23,0.002,0.002,0.002,0.002,000,0.002
2015-11-20,0.002,0.002,0.002,0.002,000,0.002
2015-11-19,0.002,0.002,0.002,0.002,000,0.002
2015-11-18,0.002,0.002,0.002,0.002,000,0.002
2015-11-17,0.002,0.002,0.002,0.002,250000,0.002
2015-11-16,0.002,0.002,0.002,0.002,000,0.002
2015-11-13,0.002,0.002,0.002,0.002,000,0.002
2015-11-12,0.002,0.002,0.002,0.002,000,0.002
2015-11-11,0.002,0.002,0.002,0.002,000,0.002
2015-11-10,0.002,0.002,0.002,0.002,000,0.002
2015-11-09,0.002,0.002,0.002,0.002,000,0.002
2015-11-06,0.002,0.002,0.002,0.002,000,0.002
2015-11-05,0.002,0.002,0.002,0.002,000,0.002
2015-11-04,0.002,0.002,0.002,0.002,000,0.002
2015-11-03,0.002,0.002,0.002,0.002,000,0.002
2015-11-02,0.002,0.002,0.002,0.002,70000,0.002
2015-10-30,0.002,0.002,0.002,0.002,000,0.002
2015-10-29,0.002,0.002,0.002,0.002,000,0.002
2015-10-28,0.002,0.002,0.002,0.002,000,0.002
2015-10-27,0.002,0.002,0.002,0.002,000,0.002
2015-10-26,0.002,0.002,0.002,0.002,000,0.002
2015-10-23,0.002,0.002,0.002,0.002,000,0.002
2015-10-22,0.002,0.002,0.002,0.002,000,0.002
2015-10-21,0.002,0.002,0.002,0.002,000,0.002
2015-10-20,0.002,0.002,0.002,0.002,000,0.002
2015-10-19,0.002,0.002,0.002,0.002,000,0.002
2015-10-16,0.002,0.002,0.002,0.002,000,0.002
2015-10-15,0.002,0.002,0.002,0.002,583300,0.002
2015-10-14,0.002,0.002,0.002,0.002,000,0.002
2015-10-13,0.002,0.002,0.002,0.002,000,0.002
2015-10-12,0.002,0.002,0.002,0.002,000,0.002
2015-10-09,0.002,0.002,0.002,0.002,000,0.002
2015-10-08,0.002,0.002,0.002,0.002,150000,0.002
2015-10-07,0.002,0.002,0.002,0.002,000,0.002
2015-10-06,0.002,0.002,0.002,0.002,000,0.002
2015-10-05,0.002,0.002,0.002,0.002,000,0.002
2015-10-02,0.002,0.002,0.002,0.002,000,0.002
2015-10-01,0.002,0.002,0.002,0.002,000,0.002
2015-09-30,0.002,0.002,0.002,0.002,000,0.002
2015-09-29,0.002,0.002,0.002,0.002,000,0.002
2015-09-28,0.002,0.002,0.002,0.002,000,0.002
2015-09-25,0.002,0.002,0.002,0.002,1000000,0.002
2015-09-24,0.002,0.002,0.002,0.002,000,0.002
2015-09-23,0.002,0.002,0.002,0.002,000,0.002
2015-09-22,0.002,0.002,0.002,0.002,000,0.002
2015-09-21,0.002,0.002,0.002,0.002,000,0.002
2015-09-18,0.002,0.002,0.002,0.002,000,0.002
2015-09-17,0.002,0.002,0.002,0.002,000,0.002
2015-09-16,0.002,0.002,0.002,0.002,000,0.002
2015-09-15,0.002,0.002,0.002,0.002,000,0.002
2015-09-14,0.002,0.002,0.002,0.002,000,0.002
2015-09-11,0.002,0.002,0.002,0.002,000,0.002
2015-09-10,0.002,0.002,0.002,0.002,000,0.002
2015-09-09,0.002,0.002,0.002,0.002,000,0.002
2015-09-08,0.002,0.002,0.002,0.002,000,0.002
2015-09-07,0.002,0.002,0.002,0.002,000,0.002
2015-09-04,0.002,0.002,0.002,0.002,000,0.002
2015-09-03,0.002,0.002,0.002,0.002,000,0.002
2015-09-02,0.002,0.002,0.002,0.002,000,0.002
2015-09-01,0.002,0.002,0.002,0.002,000,0.002
2015-08-31,0.002,0.002,0.002,0.002,000,0.002
2015-08-28,0.002,0.002,0.002,0.002,000,0.002
2015-08-27,0.002,0.002,0.002,0.002,000,0.002
2015-08-26,0.002,0.002,0.002,0.002,100000,0.002
2015-08-25,0.002,0.002,0.002,0.002,226300,0.002
2015-08-24,0.002,0.002,0.002,0.002,500000,0.002
2015-08-21,0.002,0.002,0.002,0.002,1434900,0.002
2015-08-20,0.002,0.002,0.002,0.002,30000,0.002
2015-08-19,0.002,0.002,0.002,0.002,000,0.002
2015-08-18,0.002,0.002,0.002,0.002,000,0.002
2015-08-17,0.002,0.002,0.002,0.002,000,0.002
2015-08-14,0.002,0.002,0.002,0.002,000,0.002
2015-08-13,0.002,0.002,0.002,0.002,000,0.002
2015-08-12,0.002,0.002,0.002,0.002,1700000,0.002
2015-08-11,0.002,0.002,0.002,0.002,300000,0.002
2015-08-10,0.002,0.002,0.002,0.002,000,0.002
2015-08-07,0.002,0.002,0.002,0.002,000,0.002
2015-08-06,0.002,0.002,0.002,0.002,000,0.002
2015-08-05,0.002,0.002,0.002,0.002,000,0.002
2015-08-04,0.002,0.002,0.002,0.002,250000,0.002
2015-08-03,0.002,0.002,0.002,0.002,000,0.002
2015-07-31,0.002,0.002,0.002,0.002,1000000,0.002
2015-07-30,0.002,0.002,0.002,0.002,000,0.002
2015-07-29,0.002,0.002,0.002,0.002,000,0.002
2015-07-28,0.002,0.002,0.002,0.002,000,0.002
2015-07-27,0.002,0.002,0.002,0.002,000,0.002
2015-07-24,0.002,0.002,0.002,0.002,000,0.002
2015-07-23,0.002,0.002,0.002,0.002,000,0.002
2015-07-22,0.002,0.002,0.002,0.002,800000,0.002
2015-07-21,0.002,0.002,0.002,0.002,000,0.002
2015-07-20,0.002,0.002,0.002,0.002,000,0.002
2015-07-17,0.002,0.002,0.002,0.002,000,0.002
2015-07-16,0.002,0.002,0.002,0.002,000,0.002
2015-07-15,0.002,0.002,0.002,0.002,000,0.002
2015-07-14,0.002,0.002,0.002,0.002,000,0.002
2015-07-13,0.002,0.002,0.002,0.002,000,0.002
2015-07-10,0.002,0.002,0.002,0.002,350000,0.002
2015-07-09,0.002,0.002,0.002,0.002,000,0.002
2015-07-08,0.002,0.002,0.002,0.002,4148000,0.002
2015-07-07,0.001,0.001,0.001,0.001,000,0.001
2015-07-06,0.001,0.001,0.001,0.001,000,0.001
2015-07-03,0.001,0.001,0.001,0.001,000,0.001
2015-07-02,0.001,0.001,0.001,0.001,000,0.001
2015-07-01,0.001,0.001,0.001,0.001,000,0.001
2015-06-30,0.001,0.001,0.001,0.001,000,0.001
2015-06-29,0.001,0.001,0.001,0.001,6377200,0.001
2015-06-26,0.001,0.001,0.001,0.001,1131800,0.001
2015-06-25,0.002,0.002,0.002,0.002,000,0.002
2015-06-24,0.002,0.002,0.002,0.002,000,0.002
2015-06-23,0.002,0.002,0.002,0.002,000,0.002
2015-06-22,0.002,0.002,0.002,0.002,000,0.002
2015-06-19,0.002,0.002,0.002,0.002,000,0.002
2015-06-18,0.002,0.002,0.002,0.002,000,0.002
2015-06-17,0.002,0.002,0.002,0.002,000,0.002
2015-06-16,0.002,0.002,0.002,0.002,1095800,0.002
2015-06-15,0.001,0.001,0.001,0.001,000,0.001
2015-06-12,0.001,0.001,0.001,0.001,000,0.001
2015-06-11,0.001,0.001,0.001,0.001,600000,0.001
2015-06-10,0.001,0.001,0.001,0.001,100000,0.001
2015-06-09,0.002,0.002,0.002,0.002,000,0.002
2015-06-08,0.002,0.002,0.002,0.002,000,0.002
2015-06-05,0.002,0.002,0.002,0.002,000,0.002
2015-06-04,0.002,0.002,0.002,0.002,000,0.002
2015-06-03,0.002,0.002,0.002,0.002,000,0.002
2015-06-02,0.002,0.002,0.002,0.002,1000000,0.002
2015-06-01,0.001,0.001,0.001,0.001,000,0.001
2015-05-29,0.001,0.001,0.001,0.001,000,0.001
2015-05-28,0.001,0.001,0.001,0.001,695000,0.001
2015-05-27,0.001,0.001,0.001,0.001,000,0.001
2015-05-26,0.001,0.001,0.001,0.001,000,0.001
2015-05-25,0.001,0.001,0.001,0.001,000,0.001
2015-05-22,0.001,0.001,0.001,0.001,250000,0.001
2015-05-21,0.001,0.001,0.001,0.001,000,0.001
2015-05-20,0.001,0.001,0.001,0.001,000,0.001
2015-05-19,0.001,0.001,0.001,0.001,000,0.001
2015-05-18,0.001,0.001,0.001,0.001,000,0.001
2015-05-15,0.001,0.001,0.001,0.001,700000,0.001
2015-05-14,0.001,0.001,0.001,0.001,000,0.001
2015-05-13,0.001,0.001,0.001,0.001,000,0.001
2015-05-12,0.001,0.001,0.001,0.001,000,0.001
2015-05-11,0.001,0.001,0.001,0.001,182800,0.001
2015-05-08,0.001,0.001,0.001,0.001,000,0.001
2015-05-07,0.001,0.001,0.001,0.001,000,0.001
2015-05-06,0.001,0.001,0.001,0.001,000,0.001
2015-05-05,0.001,0.001,0.001,0.001,000,0.001
2015-05-04,0.001,0.001,0.001,0.001,000,0.001
2015-05-01,0.001,0.001,0.001,0.001,000,0.001
2015-04-30,0.001,0.001,0.001,0.001,000,0.001
2015-04-29,0.001,0.001,0.001,0.001,000,0.001
2015-04-28,0.001,0.001,0.001,0.001,000,0.001
2015-04-27,0.001,0.001,0.001,0.001,000,0.001
2015-04-24,0.001,0.001,0.001,0.001,000,0.001
2015-04-23,0.001,0.001,0.001,0.001,000,0.001
2015-04-22,0.001,0.001,0.001,0.001,000,0.001
2015-04-21,0.001,0.001,0.001,0.001,000,0.001
2015-04-20,0.001,0.001,0.001,0.001,000,0.001
2015-04-17,0.001,0.001,0.001,0.001,000,0.001
2015-04-16,0.001,0.001,0.001,0.001,000,0.001
2015-04-15,0.001,0.001,0.001,0.001,140000,0.001
2015-04-14,0.001,0.001,0.001,0.001,50000,0.001
2015-04-13,0.001,0.001,0.001,0.001,000,0.001
2015-04-10,0.001,0.001,0.001,0.001,000,0.001
2015-04-09,0.001,0.001,0.001,0.001,25000,0.001
2015-04-08,0.001,0.001,0.001,0.001,000,0.001
2015-04-07,0.001,0.001,0.001,0.001,000,0.001
2015-04-06,0.001,0.001,0.001,0.001,000,0.001
2015-04-03,0.001,0.001,0.001,0.001,000,0.001
2015-04-02,0.001,0.001,0.001,0.001,000,0.001
2015-04-01,0.001,0.001,0.001,0.001,2039700,0.001
2015-03-31,0.002,0.002,0.002,0.002,000,0.002
2015-03-30,0.002,0.002,0.002,0.002,000,0.002
2015-03-27,0.002,0.002,0.002,0.002,000,0.002
2015-03-26,0.002,0.002,0.002,0.002,000,0.002
2015-03-25,0.002,0.002,0.002,0.002,000,0.002
2015-03-24,0.002,0.002,0.002,0.002,000,0.002
2015-03-23,0.001,0.002,0.001,0.002,4841900,0.002
2015-03-20,0.001,0.001,0.001,0.001,000,0.001
2015-03-19,0.001,0.001,0.001,0.001,000,0.001
2015-03-18,0.001,0.001,0.001,0.001,000,0.001
2015-03-17,0.001,0.001,0.001,0.001,000,0.001
2015-03-16,0.001,0.001,0.001,0.001,000,0.001
2015-03-13,0.001,0.001,0.001,0.001,000,0.001
2015-03-12,0.001,0.001,0.001,0.001,000,0.001
2015-03-11,0.001,0.001,0.001,0.001,000,0.001
2015-03-10,0.001,0.001,0.001,0.001,000,0.001
2015-03-09,0.001,0.001,0.001,0.001,000,0.001
2015-03-06,0.001,0.001,0.001,0.001,733800,0.001
2015-03-05,0.001,0.001,0.001,0.001,000,0.001
2015-03-04,0.001,0.001,0.001,0.001,000,0.001
2015-03-03,0.001,0.001,0.001,0.001,000,0.001
2015-03-02,0.001,0.001,0.001,0.001,000,0.001
2015-02-27,0.001,0.001,0.001,0.001,000,0.001
2015-02-26,0.001,0.001,0.001,0.001,100800,0.001
2015-02-25,0.001,0.001,0.001,0.001,000,0.001
2015-02-24,0.001,0.001,0.001,0.001,000,0.001
2015-02-23,0.001,0.001,0.001,0.001,000,0.001
2015-02-20,0.001,0.001,0.001,0.001,000,0.001
2015-02-19,0.001,0.001,0.001,0.001,000,0.001
2015-02-18,0.001,0.001,0.001,0.001,000,0.001
2015-02-17,0.001,0.001,0.001,0.001,000,0.001
2015-02-16,0.001,0.001,0.001,0.001,000,0.001
2015-02-13,0.001,0.001,0.001,0.001,000,0.001
2015-02-12,0.001,0.001,0.001,0.001,000,0.001
2015-02-11,0.001,0.001,0.001,0.001,000,0.001
2015-02-10,0.001,0.001,0.001,0.001,000,0.001
2015-02-09,0.001,0.001,0.001,0.001,000,0.001
2015-02-06,0.001,0.001,0.001,0.001,000,0.001
2015-02-05,0.001,0.001,0.001,0.001,000,0.001
2015-02-04,0.001,0.001,0.001,0.001,000,0.001
2015-02-03,0.001,0.001,0.001,0.001,000,0.001
2015-02-02,0.001,0.001,0.001,0.001,000,0.001
2015-01-30,0.001,0.001,0.001,0.001,1965400,0.001
2015-01-29,0.001,0.001,0.001,0.001,000,0.001
2015-01-28,0.001,0.001,0.001,0.001,000,0.001
2015-01-27,0.001,0.001,0.001,0.001,1015900,0.001
2015-01-26,0.001,0.001,0.001,0.001,000,0.001
2015-01-23,0.001,0.001,0.001,0.001,000,0.001
2015-01-22,0.001,0.001,0.001,0.001,000,0.001
2015-01-21,0.001,0.001,0.001,0.001,000,0.001
2015-01-20,0.001,0.001,0.001,0.001,000,0.001
2015-01-19,0.001,0.001,0.001,0.001,000,0.001
2015-01-16,0.001,0.001,0.001,0.001,000,0.001
2015-01-15,0.001,0.001,0.001,0.001,000,0.001
2015-01-14,0.001,0.001,0.001,0.001,000,0.001
2015-01-13,0.001,0.001,0.001,0.001,000,0.001
2015-01-12,0.001,0.001,0.001,0.001,1000000,0.001
2015-01-09,0.001,0.001,0.001,0.001,000,0.001
2015-01-08,0.001,0.001,0.001,0.001,000,0.001
2015-01-07,0.001,0.001,0.001,0.001,000,0.001
2015-01-06,0.001,0.001,0.001,0.001,000,0.001
2015-01-05,0.001,0.001,0.001,0.001,000,0.001
2015-01-02,0.001,0.001,0.001,0.001,000,0.001
2015-01-01,0.001,0.001,0.001,0.001,000,0.001
2014-12-31,0.001,0.001,0.001,0.001,000,0.001
2014-12-30,0.001,0.001,0.001,0.001,000,0.001
2014-12-29,0.001,0.001,0.001,0.001,000,0.001
2014-12-26,0.001,0.001,0.001,0.001,000,0.001
2014-12-25,0.001,0.001,0.001,0.001,000,0.001
2014-12-24,0.001,0.001,0.001,0.001,000,0.001
2014-12-23,0.001,0.001,0.001,0.001,000,0.001
2014-12-22,0.001,0.001,0.001,0.001,000,0.001
2014-12-19,0.001,0.001,0.001,0.001,000,0.001
2014-12-18,0.001,0.001,0.001,0.001,000,0.001
2014-12-17,0.001,0.001,0.001,0.001,4540000,0.001
2014-12-16,0.001,0.001,0.001,0.001,1238100,0.001
2014-12-15,0.001,0.001,0.001,0.001,000,0.001
2014-12-12,0.001,0.001,0.001,0.001,000,0.001
2014-12-11,0.001,0.001,0.001,0.001,000,0.001
2014-12-10,0.001,0.001,0.001,0.001,000,0.001
2014-12-09,0.001,0.001,0.001,0.001,000,0.001
2014-12-08,0.001,0.001,0.001,0.001,000,0.001
2014-12-05,0.001,0.001,0.001,0.001,000,0.001
2014-12-04,0.001,0.001,0.001,0.001,000,0.001
2014-12-03,0.001,0.001,0.001,0.001,000,0.001
2014-12-02,0.001,0.001,0.001,0.001,000,0.001
2014-12-01,0.001,0.001,0.001,0.001,000,0.001
2014-11-28,0.001,0.001,0.001,0.001,000,0.001
2014-11-27,0.001,0.001,0.001,0.001,000,0.001
2014-11-26,0.001,0.001,0.001,0.001,000,0.001
2014-11-25,0.001,0.001,0.001,0.001,000,0.001
2014-11-24,0.001,0.001,0.001,0.001,000,0.001
2014-11-21,0.001,0.001,0.001,0.001,3365000,0.001
2014-11-20,0.001,0.001,0.001,0.001,000,0.001
2014-11-19,0.001,0.001,0.001,0.001,000,0.001
2014-11-18,0.001,0.001,0.001,0.001,000,0.001
2014-11-17,0.001,0.001,0.001,0.001,000,0.001
2014-11-14,0.001,0.001,0.001,0.001,000,0.001
2014-11-13,0.001,0.001,0.001,0.001,000,0.001
2014-11-12,0.001,0.001,0.001,0.001,000,0.001
2014-11-11,0.001,0.001,0.001,0.001,000,0.001
2014-11-10,0.001,0.001,0.001,0.001,000,0.001
2014-11-07,0.001,0.001,0.001,0.001,2350000,0.001
2014-11-06,0.001,0.001,0.001,0.001,000,0.001
2014-11-05,0.001,0.001,0.001,0.001,000,0.001
2014-11-04,0.001,0.001,0.001,0.001,000,0.001
2014-11-03,0.001,0.001,0.001,0.001,000,0.001
2014-10-31,0.001,0.001,0.001,0.001,000,0.001
2014-10-30,0.001,0.001,0.001,0.001,000,0.001
2014-10-29,0.001,0.001,0.001,0.001,900000,0.001
2014-10-28,0.002,0.002,0.002,0.002,000,0.002
2014-10-27,0.002,0.002,0.002,0.002,000,0.002
2014-10-24,0.002,0.002,0.002,0.002,000,0.002
2014-10-23,0.002,0.002,0.002,0.002,000,0.002
2014-10-22,0.002,0.002,0.002,0.002,000,0.002
2014-10-21,0.002,0.002,0.002,0.002,000,0.002
2014-10-20,0.002,0.002,0.002,0.002,000,0.002
2014-10-17,0.002,0.002,0.002,0.002,000,0.002
2014-10-16,0.002,0.002,0.002,0.002,000,0.002
2014-10-15,0.002,0.002,0.002,0.002,000,0.002
2014-10-14,0.002,0.002,0.002,0.002,000,0.002
2014-10-13,0.002,0.002,0.002,0.002,000,0.002
2014-10-10,0.002,0.002,0.002,0.002,000,0.002
2014-10-09,0.002,0.002,0.002,0.002,000,0.002
2014-10-08,0.002,0.002,0.002,0.002,1415000,0.002
2014-10-07,0.001,0.001,0.001,0.001,000,0.001
2014-10-06,0.001,0.001,0.001,0.001,000,0.001
2014-10-03,0.001,0.001,0.001,0.001,000,0.001
2014-10-02,0.001,0.001,0.001,0.001,000,0.001
2014-10-01,0.001,0.001,0.001,0.001,1249200,0.001
2014-09-30,0.001,0.001,0.001,0.001,13000,0.001
2014-09-29,0.002,0.002,0.002,0.002,000,0.002
2014-09-26,0.002,0.002,0.002,0.002,000,0.002
2014-09-25,0.002,0.002,0.002,0.002,000,0.002
2014-09-24,0.002,0.002,0.002,0.002,000,0.002
2014-09-23,0.002,0.002,0.002,0.002,000,0.002
2014-09-22,0.002,0.002,0.002,0.002,000,0.002
2014-09-19,0.002,0.002,0.002,0.002,000,0.002
2014-09-18,0.002,0.002,0.002,0.002,000,0.002
2014-09-17,0.002,0.002,0.002,0.002,000,0.002
2014-09-16,0.002,0.002,0.002,0.002,000,0.002
2014-09-15,0.002,0.002,0.002,0.002,000,0.002
2014-09-12,0.002,0.002,0.002,0.002,000,0.002
2014-09-11,0.002,0.002,0.002,0.002,000,0.002
2014-09-10,0.002,0.002,0.002,0.002,000,0.002
2014-09-09,0.002,0.002,0.002,0.002,250000,0.002
2014-09-08,0.002,0.002,0.002,0.002,000,0.002
2014-09-05,0.002,0.002,0.002,0.002,000,0.002
2014-09-04,0.002,0.002,0.002,0.002,000,0.002
2014-09-03,0.002,0.002,0.002,0.002,000,0.002
2014-09-02,0.002,0.002,0.002,0.002,000,0.002
2014-09-01,0.002,0.002,0.002,0.002,000,0.002
2014-08-29,0.002,0.002,0.002,0.002,000,0.002
2014-08-28,0.002,0.002,0.002,0.002,000,0.002
2014-08-27,0.002,0.002,0.002,0.002,000,0.002
2014-08-26,0.002,0.002,0.002,0.002,000,0.002
2014-08-25,0.002,0.002,0.002,0.002,000,0.002
2014-08-22,0.002,0.002,0.002,0.002,000,0.002
2014-08-21,0.002,0.002,0.002,0.002,000,0.002
2014-08-20,0.002,0.002,0.002,0.002,000,0.002
2014-08-19,0.002,0.002,0.002,0.002,000,0.002
2014-08-18,0.002,0.002,0.002,0.002,000,0.002
2014-08-15,0.002,0.002,0.002,0.002,000,0.002
2014-08-14,0.002,0.002,0.002,0.002,000,0.002
2014-08-13,0.002,0.002,0.002,0.002,000,0.002
2014-08-12,0.002,0.002,0.002,0.002,250000,0.002
2014-08-11,0.002,0.002,0.002,0.002,000,0.002
2014-08-08,0.002,0.002,0.002,0.002,000,0.002
2014-08-07,0.002,0.002,0.002,0.002,500000,0.002
2014-08-06,0.002,0.002,0.002,0.002,000,0.002
2014-08-05,0.002,0.002,0.002,0.002,000,0.002
2014-08-04,0.002,0.002,0.002,0.002,000,0.002
2014-08-01,0.002,0.002,0.002,0.002,000,0.002
2014-07-31,0.002,0.002,0.002,0.002,000,0.002
2014-07-30,0.002,0.002,0.002,0.002,750700,0.002
2014-07-29,0.002,0.002,0.002,0.002,749200,0.002
2014-07-28,0.002,0.002,0.002,0.002,000,0.002
2014-07-25,0.002,0.002,0.002,0.002,000,0.002
2014-07-24,0.002,0.002,0.002,0.002,000,0.002
2014-07-23,0.002,0.002,0.002,0.002,000,0.002
2014-07-22,0.002,0.002,0.002,0.002,400700,0.002
2014-07-21,0.002,0.003,0.002,0.002,999200,0.002
2014-07-18,0.001,0.001,0.001,0.001,000,0.001
2014-07-17,0.001,0.001,0.001,0.001,000,0.001
2014-07-16,0.001,0.001,0.001,0.001,000,0.001
2014-07-15,0.001,0.001,0.001,0.001,10000,0.001
2014-07-14,0.002,0.002,0.002,0.002,000,0.002
2014-07-11,0.002,0.002,0.002,0.002,000,0.002
2014-07-10,0.002,0.002,0.002,0.002,000,0.002
2014-07-09,0.002,0.002,0.002,0.002,2700000,0.002
2014-07-08,0.002,0.002,0.002,0.002,300000,0.002
2014-07-07,0.002,0.002,0.002,0.002,000,0.002
2014-07-04,0.002,0.002,0.002,0.002,1000000,0.002
2014-07-03,0.002,0.002,0.002,0.002,000,0.002
2014-07-02,0.002,0.002,0.002,0.002,000,0.002
2014-07-01,0.002,0.002,0.002,0.002,1000000,0.002
2014-06-30,0.002,0.002,0.002,0.002,2263600,0.002
2014-06-27,0.002,0.002,0.002,0.002,000,0.002
2014-06-26,0.002,0.002,0.002,0.002,000,0.002
2014-06-25,0.002,0.002,0.002,0.002,300000,0.002
2014-06-24,0.003,0.003,0.003,0.003,650000,0.003
2014-06-23,0.003,0.003,0.003,0.003,700000,0.003
2014-06-20,0.003,0.003,0.003,0.003,000,0.003
2014-06-19,0.003,0.003,0.003,0.003,000,0.003
2014-06-18,0.003,0.003,0.003,0.003,333300,0.003
2014-06-17,0.003,0.003,0.003,0.003,000,0.003
2014-06-16,0.003,0.003,0.003,0.003,000,0.003
2014-06-13,0.003,0.003,0.003,0.003,000,0.003
2014-06-12,0.003,0.003,0.003,0.003,100000,0.003
2014-06-11,0.002,0.002,0.002,0.002,200000,0.002
2014-06-10,0.004,0.005,0.002,0.002,8231400,0.002
2014-06-09,0.003,0.003,0.003,0.003,000,0.003
2014-06-06,0.002,0.004,0.002,0.003,11843600,0.003
2014-06-05,0.001,0.001,0.001,0.001,000,0.001
2014-06-04,0.001,0.001,0.001,0.001,000,0.001
2014-06-03,0.001,0.001,0.001,0.001,350000,0.001
2014-06-02,0.001,0.001,0.001,0.001,000,0.001
2014-05-30,0.001,0.001,0.001,0.001,000,0.001
2014-05-29,0.001,0.001,0.001,0.001,000,0.001
2014-05-28,0.001,0.001,0.001,0.001,000,0.001
2014-05-27,0.001,0.001,0.001,0.001,000,0.001
2014-05-26,0.001,0.001,0.001,0.001,000,0.001
2014-05-23,0.001,0.001,0.001,0.001,000,0.001
2014-05-22,0.001,0.001,0.001,0.001,000,0.001
2014-05-21,0.001,0.001,0.001,0.001,000,0.001
2014-05-20,0.001,0.001,0.001,0.001,000,0.001
2014-05-19,0.001,0.001,0.001,0.001,000,0.001
2014-05-16,0.001,0.001,0.001,0.001,10000,0.001
2014-05-15,0.001,0.001,0.001,0.001,000,0.001
2014-05-14,0.001,0.001,0.001,0.001,000,0.001
2014-05-13,0.001,0.001,0.001,0.001,000,0.001
2014-05-12,0.001,0.001,0.001,0.001,000,0.001
2014-05-09,0.001,0.001,0.001,0.001,000,0.001
2014-05-08,0.001,0.001,0.001,0.001,000,0.001
2014-05-07,0.001,0.001,0.001,0.001,000,0.001
2014-05-06,0.001,0.001,0.001,0.001,000,0.001
2014-05-05,0.001,0.001,0.001,0.001,395000,0.001
2014-05-02,0.001,0.001,0.001,0.001,000,0.001
2014-05-01,0.001,0.001,0.001,0.001,3000000,0.001
2014-04-30,0.002,0.002,0.002,0.002,000,0.002
2014-04-29,0.002,0.002,0.002,0.002,000,0.002
2014-04-28,0.002,0.002,0.002,0.002,000,0.002
2014-04-25,0.002,0.002,0.002,0.002,000,0.002
2014-04-24,0.002,0.002,0.002,0.002,000,0.002
2014-04-23,0.002,0.002,0.002,0.002,000,0.002
2014-04-22,0.002,0.002,0.002,0.002,000,0.002
2014-04-21,0.002,0.002,0.002,0.002,000,0.002
2014-04-18,0.002,0.002,0.002,0.002,000,0.002
2014-04-17,0.002,0.002,0.002,0.002,2440000,0.002
2014-04-16,0.001,0.001,0.001,0.001,000,0.001
2014-04-15,0.001,0.001,0.001,0.001,000,0.001
2014-04-14,0.001,0.001,0.001,0.001,000,0.001
2014-04-11,0.001,0.001,0.001,0.001,000,0.001
2014-04-10,0.001,0.001,0.001,0.001,000,0.001
2014-04-09,0.001,0.001,0.001,0.001,000,0.001
2014-04-08,0.001,0.001,0.001,0.001,000,0.001
2014-04-07,0.001,0.001,0.001,0.001,000,0.001
2014-04-04,0.001,0.001,0.001,0.001,000,0.001
2014-04-03,0.001,0.001,0.001,0.001,000,0.001
2014-04-02,0.001,0.001,0.001,0.001,000,0.001
2014-04-01,0.001,0.001,0.001,0.001,000,0.001
2014-03-31,0.001,0.001,0.001,0.001,000,0.001
2014-03-28,0.001,0.001,0.001,0.001,000,0.001
2014-03-27,0.001,0.001,0.001,0.001,000,0.001
2014-03-26,0.001,0.001,0.001,0.001,000,0.001
2014-03-25,0.001,0.001,0.001,0.001,000,0.001
2014-03-24,0.001,0.001,0.001,0.001,000,0.001
2014-03-21,0.001,0.001,0.001,0.001,000,0.001
2014-03-20,0.001,0.001,0.001,0.001,000,0.001
2014-03-19,0.001,0.001,0.001,0.001,000,0.001
2014-03-18,0.001,0.001,0.001,0.001,000,0.001
2014-03-17,0.001,0.001,0.001,0.001,000,0.001
2014-03-14,0.001,0.001,0.001,0.001,000,0.001
2014-03-13,0.001,0.001,0.001,0.001,000,0.001
2014-03-12,0.001,0.001,0.001,0.001,000,0.001
2014-03-11,0.001,0.001,0.001,0.001,000,0.001
2014-03-10,0.001,0.001,0.001,0.001,000,0.001
2014-03-07,0.001,0.001,0.001,0.001,000,0.001
2014-03-06,0.001,0.001,0.001,0.001,000,0.001
2014-03-05,0.001,0.001,0.001,0.001,13700,0.001
2014-03-04,0.001,0.001,0.001,0.001,000,0.001
2014-03-03,0.001,0.001,0.001,0.001,000,0.001
2014-02-28,0.001,0.001,0.001,0.001,000,0.001
2014-02-27,0.001,0.001,0.001,0.001,000,0.001
2014-02-26,0.001,0.001,0.001,0.001,200000,0.001
2014-02-25,0.002,0.002,0.002,0.002,000,0.002
2014-02-24,0.002,0.002,0.002,0.002,000,0.002
2014-02-21,0.002,0.002,0.002,0.002,000,0.002
2014-02-20,0.002,0.002,0.002,0.002,2149900,0.002
2014-02-19,0.001,0.001,0.001,0.001,000,0.001
2014-02-18,0.001,0.001,0.001,0.001,000,0.001
2014-02-17,0.001,0.001,0.001,0.001,000,0.001
2014-02-14,0.001,0.001,0.001,0.001,74900,0.001
2014-02-13,0.001,0.001,0.001,0.001,000,0.001
2014-02-12,0.001,0.001,0.001,0.001,000,0.001
2014-02-11,0.001,0.001,0.001,0.001,000,0.001
2014-02-10,0.001,0.001,0.001,0.001,1000000,0.001
2014-02-07,0.001,0.001,0.001,0.001,27300,0.001
2014-02-06,0.002,0.002,0.002,0.002,000,0.002
2014-02-05,0.002,0.002,0.002,0.002,000,0.002
2014-02-04,0.002,0.002,0.002,0.002,000,0.002
2014-02-03,0.002,0.002,0.002,0.002,000,0.002
2014-01-31,0.002,0.002,0.002,0.002,000,0.002
2014-01-30,0.002,0.002,0.002,0.002,000,0.002
2014-01-29,0.002,0.002,0.002,0.002,000,0.002
2014-01-28,0.002,0.002,0.002,0.002,000,0.002
2014-01-27,0.002,0.002,0.002,0.002,000,0.002
2014-01-24,0.002,0.002,0.002,0.002,000,0.002
2014-01-23,0.002,0.002,0.002,0.002,000,0.002
2014-01-22,0.002,0.002,0.002,0.002,000,0.002
2014-01-21,0.002,0.002,0.002,0.002,000,0.002
2014-01-20,0.002,0.002,0.002,0.002,000,0.002
2014-01-17,0.002,0.002,0.002,0.002,000,0.002
2014-01-16,0.002,0.002,0.002,0.002,000,0.002
2014-01-15,0.002,0.002,0.002,0.002,000,0.002
2014-01-14,0.002,0.002,0.002,0.002,000,0.002
2014-01-13,0.002,0.002,0.002,0.002,000,0.002
2014-01-10,0.002,0.002,0.002,0.002,000,0.002
2014-01-09,0.002,0.002,0.002,0.002,000,0.002
2014-01-08,0.002,0.002,0.002,0.002,000,0.002
2014-01-07,0.002,0.002,0.002,0.002,000,0.002
2014-01-06,0.002,0.002,0.002,0.002,000,0.002
2014-01-03,0.002,0.002,0.002,0.002,000,0.002
2014-01-02,0.002,0.002,0.002,0.002,1135000,0.002
2014-01-01,0.002,0.002,0.002,0.002,000,0.002
2013-12-31,0.002,0.002,0.002,0.002,000,0.002
2013-12-30,0.002,0.002,0.002,0.002,000,0.002
2013-12-27,0.002,0.002,0.002,0.002,000,0.002
2013-12-26,0.002,0.002,0.002,0.002,000,0.002
2013-12-25,0.002,0.002,0.002,0.002,000,0.002
2013-12-24,0.002,0.002,0.002,0.002,000,0.002
2013-12-23,0.002,0.002,0.002,0.002,000,0.002
2013-12-20,0.002,0.002,0.002,0.002,000,0.002
2013-12-19,0.002,0.002,0.002,0.002,000,0.002
2013-12-18,0.002,0.002,0.002,0.002,000,0.002
2013-12-17,0.002,0.002,0.002,0.002,000,0.002
2013-12-16,0.002,0.002,0.002,0.002,000,0.002
2013-12-13,0.002,0.002,0.002,0.002,000,0.002
2013-12-12,0.002,0.002,0.002,0.002,000,0.002
2013-12-11,0.002,0.002,0.002,0.002,000,0.002
2013-12-10,0.002,0.002,0.002,0.002,000,0.002
2013-12-09,0.002,0.002,0.002,0.002,750000,0.002
2013-12-06,0.001,0.001,0.001,0.001,100000,0.001
2013-12-05,0.001,0.001,0.001,0.001,8400,0.001
2013-12-04,0.001,0.001,0.001,0.001,000,0.001
2013-12-03,0.001,0.001,0.001,0.001,000,0.001
2013-12-02,0.001,0.001,0.001,0.001,000,0.001
2013-11-29,0.001,0.001,0.001,0.001,000,0.001
2013-11-28,0.001,0.001,0.001,0.001,1314200,0.001
2013-11-27,0.001,0.001,0.001,0.001,000,0.001
2013-11-26,0.001,0.001,0.001,0.001,000,0.001
2013-11-25,0.001,0.001,0.001,0.001,25000,0.001
2013-11-22,0.001,0.001,0.001,0.001,000,0.001
2013-11-21,0.001,0.001,0.001,0.001,000,0.001
2013-11-20,0.001,0.001,0.001,0.001,000,0.001
2013-11-19,0.001,0.001,0.001,0.001,000,0.001
2013-11-18,0.001,0.001,0.001,0.001,000,0.001
2013-11-15,0.001,0.001,0.001,0.001,000,0.001
2013-11-14,0.001,0.001,0.001,0.001,000,0.001
2013-11-13,0.001,0.001,0.001,0.001,000,0.001
2013-11-12,0.001,0.001,0.001,0.001,000,0.001
2013-11-11,0.001,0.001,0.001,0.001,000,0.001
2013-11-08,0.001,0.001,0.001,0.001,000,0.001
2013-11-07,0.001,0.001,0.001,0.001,000,0.001
2013-11-06,0.001,0.001,0.001,0.001,35400,0.001
2013-11-05,0.002,0.002,0.002,0.002,000,0.002
2013-11-04,0.002,0.002,0.002,0.002,883700,0.002
2013-11-01,0.002,0.002,0.002,0.002,116200,0.002
2013-10-31,0.002,0.002,0.002,0.002,500000,0.002
2013-10-30,0.002,0.002,0.002,0.002,837500,0.002
2013-10-29,0.001,0.001,0.001,0.001,000,0.001
2013-10-28,0.001,0.001,0.001,0.001,000,0.001
2013-10-25,0.001,0.001,0.001,0.001,000,0.001
2013-10-24,0.001,0.001,0.001,0.001,000,0.001
2013-10-23,0.001,0.001,0.001,0.001,1000000,0.001
2013-10-22,0.002,0.002,0.002,0.002,000,0.002
2013-10-21,0.002,0.002,0.002,0.002,000,0.002
2013-10-18,0.002,0.002,0.002,0.002,000,0.002
2013-10-17,0.002,0.002,0.002,0.002,000,0.002
2013-10-16,0.002,0.002,0.002,0.002,000,0.002
2013-10-15,0.002,0.002,0.002,0.002,000,0.002
2013-10-14,0.002,0.002,0.002,0.002,000,0.002
2013-10-11,0.002,0.002,0.002,0.002,000,0.002
2013-10-10,0.002,0.002,0.002,0.002,000,0.002
2013-10-09,0.002,0.002,0.002,0.002,000,0.002
2013-10-08,0.002,0.002,0.002,0.002,000,0.002
2013-10-07,0.002,0.002,0.002,0.002,000,0.002
2013-10-04,0.001,0.002,0.001,0.002,152000,0.002
2013-10-03,0.002,0.002,0.002,0.002,000,0.002
2013-10-02,0.002,0.002,0.002,0.002,000,0.002
2013-10-01,0.002,0.002,0.002,0.002,000,0.002
2013-09-30,0.002,0.002,0.002,0.002,1863700,0.002
2013-09-27,0.002,0.002,0.002,0.002,000,0.002
2013-09-26,0.002,0.002,0.002,0.002,000,0.002
2013-09-25,0.002,0.002,0.002,0.002,000,0.002
2013-09-24,0.002,0.002,0.002,0.002,000,0.002
2013-09-23,0.002,0.002,0.002,0.002,000,0.002
2013-09-20,0.002,0.002,0.002,0.002,000,0.002
2013-09-19,0.002,0.002,0.002,0.002,000,0.002
2013-09-18,0.002,0.002,0.002,0.002,000,0.002
2013-09-17,0.002,0.002,0.002,0.002,000,0.002
2013-09-16,0.002,0.002,0.002,0.002,000,0.002
2013-09-13,0.002,0.002,0.002,0.002,000,0.002
2013-09-12,0.002,0.002,0.002,0.002,000,0.002
2013-09-11,0.002,0.002,0.002,0.002,000,0.002
2013-09-10,0.002,0.002,0.002,0.002,000,0.002
2013-09-09,0.002,0.002,0.002,0.002,000,0.002
2013-09-06,0.002,0.002,0.002,0.002,000,0.002
2013-09-05,0.002,0.002,0.002,0.002,18600,0.002
2013-09-04,0.003,0.003,0.003,0.003,000,0.003
2013-09-03,0.003,0.003,0.003,0.003,000,0.003
2013-09-02,0.003,0.003,0.003,0.003,000,0.003
2013-08-30,0.003,0.003,0.003,0.003,000,0.003
2013-08-29,0.003,0.003,0.003,0.003,500000,0.003
2013-08-28,0.003,0.003,0.003,0.003,129900,0.003
2013-08-27,0.003,0.003,0.003,0.003,000,0.003
2013-08-26,0.003,0.003,0.003,0.003,350000,0.003
2013-08-23,0.004,0.004,0.004,0.004,000,0.004
2013-08-22,0.004,0.004,0.004,0.004,000,0.004
2013-08-21,0.004,0.004,0.004,0.004,000,0.004
2013-08-20,0.004,0.004,0.004,0.004,1000000,0.004
2013-08-19,0.006,0.006,0.006,0.006,000,0.006
2013-08-16,0.004,0.006,0.004,0.006,1330000,0.006
2013-08-15,0.003,0.003,0.003,0.003,500000,0.003
2013-08-14,0.002,0.002,0.002,0.002,000,0.002
2013-08-13,0.002,0.002,0.002,0.002,000,0.002
2013-08-12,0.002,0.002,0.002,0.002,000,0.002
2013-08-09,0.002,0.002,0.002,0.002,000,0.002
2013-08-08,0.002,0.002,0.002,0.002,000,0.002
2013-08-07,0.002,0.002,0.002,0.002,18500,0.002
2013-08-06,0.003,0.003,0.003,0.003,000,0.003
2013-08-05,0.003,0.003,0.003,0.003,79000,0.003
2013-08-02,0.003,0.003,0.003,0.003,000,0.003
2013-08-01,0.003,0.003,0.003,0.003,000,0.003
2013-07-31,0.003,0.003,0.003,0.003,000,0.003
2013-07-30,0.003,0.003,0.003,0.003,000,0.003
2013-07-29,0.003,0.003,0.003,0.003,000,0.003
2013-07-26,0.003,0.003,0.003,0.003,000,0.003
2013-07-25,0.003,0.003,0.003,0.003,000,0.003
2013-07-24,0.003,0.003,0.003,0.003,000,0.003
2013-07-23,0.003,0.003,0.003,0.003,171000,0.003
2013-07-22,0.002,0.002,0.002,0.002,000,0.002
2013-07-19,0.002,0.002,0.002,0.002,000,0.002
2013-07-18,0.002,0.002,0.002,0.002,000,0.002
2013-07-17,0.002,0.002,0.002,0.002,228600,0.002
2013-07-16,0.003,0.003,0.002,0.002,300000,0.002
2013-07-15,0.002,0.002,0.002,0.002,000,0.002
2013-07-12,0.002,0.002,0.002,0.002,000,0.002
2013-07-11,0.002,0.002,0.002,0.002,000,0.002
2013-07-10,0.002,0.002,0.002,0.002,000,0.002
2013-07-09,0.002,0.002,0.002,0.002,000,0.002
2013-07-08,0.002,0.002,0.002,0.002,000,0.002
2013-07-05,0.002,0.002,0.002,0.002,000,0.002
2013-07-04,0.002,0.002,0.002,0.002,000,0.002
2013-07-03,0.002,0.002,0.002,0.002,18200,0.002
2013-07-02,0.002,0.002,0.002,0.002,000,0.002
2013-07-01,0.002,0.002,0.002,0.002,000,0.002
2013-06-28,0.002,0.002,0.002,0.002,000,0.002
2013-06-27,0.002,0.002,0.002,0.002,000,0.002
2013-06-26,0.002,0.002,0.002,0.002,000,0.002
2013-06-25,0.002,0.002,0.002,0.002,000,0.002
2013-06-24,0.002,0.002,0.002,0.002,000,0.002
2013-06-21,0.002,0.002,0.002,0.002,000,0.002
2013-06-20,0.002,0.002,0.002,0.002,000,0.002
2013-06-19,0.002,0.002,0.002,0.002,000,0.002
2013-06-18,0.002,0.002,0.002,0.002,000,0.002
2013-06-17,0.002,0.002,0.002,0.002,000,0.002
2013-06-14,0.002,0.002,0.002,0.002,000,0.002
2013-06-13,0.002,0.002,0.002,0.002,174300,0.002
2013-06-12,0.002,0.002,0.002,0.002,000,0.002
2013-06-11,0.002,0.002,0.002,0.002,000,0.002
2013-06-10,0.002,0.002,0.002,0.002,000,0.002
2013-06-07,0.002,0.002,0.002,0.002,281700,0.002
2013-06-06,0.002,0.002,0.002,0.002,17500,0.002
2013-06-05,0.003,0.003,0.003,0.003,370000,0.003
2013-06-04,0.002,0.002,0.002,0.002,000,0.002
2013-06-03,0.002,0.002,0.002,0.002,000,0.002
2013-05-31,0.002,0.002,0.002,0.002,000,0.002
2013-05-30,0.002,0.002,0.002,0.002,000,0.002
2013-05-29,0.002,0.002,0.002,0.002,000,0.002
2013-05-28,0.002,0.002,0.002,0.002,000,0.002
2013-05-27,0.002,0.002,0.002,0.002,000,0.002
2013-05-24,0.002,0.002,0.002,0.002,000,0.002
2013-05-23,0.002,0.002,0.002,0.002,000,0.002
2013-05-22,0.002,0.002,0.002,0.002,000,0.002
2013-05-21,0.002,0.002,0.002,0.002,000,0.002
2013-05-20,0.002,0.002,0.002,0.002,000,0.002
2013-05-17,0.002,0.002,0.002,0.002,000,0.002
2013-05-16,0.002,0.002,0.002,0.002,000,0.002
2013-05-15,0.002,0.002,0.002,0.002,500000,0.002
2013-05-14,0.002,0.002,0.002,0.002,000,0.002
2013-05-13,0.002,0.002,0.002,0.002,000,0.002
2013-05-10,0.002,0.002,0.002,0.002,000,0.002
2013-05-09,0.002,0.002,0.002,0.002,000,0.002
2013-05-08,0.002,0.002,0.002,0.002,000,0.002
2013-05-07,0.002,0.002,0.002,0.002,4210800,0.002
2013-05-06,0.002,0.002,0.002,0.002,10700,0.002
2013-05-03,0.002,0.002,0.002,0.002,000,0.002
2013-05-02,0.002,0.002,0.002,0.002,000,0.002
2013-05-01,0.002,0.002,0.002,0.002,000,0.002
2013-04-30,0.002,0.002,0.002,0.002,000,0.002
2013-04-29,0.002,0.002,0.002,0.002,000,0.002
2013-04-26,0.002,0.002,0.002,0.002,000,0.002
2013-04-25,0.002,0.002,0.002,0.002,000,0.002
2013-04-24,0.002,0.002,0.002,0.002,000,0.002
2013-04-23,0.002,0.002,0.002,0.002,442000,0.002
2013-04-22,0.002,0.002,0.002,0.002,100000,0.002
2013-04-19,0.002,0.002,0.002,0.002,000,0.002
2013-04-18,0.002,0.002,0.002,0.002,814600,0.002
2013-04-17,0.002,0.002,0.002,0.002,000,0.002
2013-04-16,0.002,0.002,0.002,0.002,350000,0.002
2013-04-15,0.002,0.002,0.002,0.002,000,0.002
2013-04-12,0.002,0.002,0.002,0.002,000,0.002
2013-04-11,0.002,0.002,0.002,0.002,000,0.002
2013-04-10,0.002,0.002,0.002,0.002,200000,0.002
2013-04-09,0.003,0.003,0.003,0.003,000,0.003
2013-04-08,0.003,0.003,0.003,0.003,000,0.003
2013-04-05,0.003,0.003,0.003,0.003,000,0.003
2013-04-04,0.002,0.003,0.002,0.003,2360000,0.003
2013-04-03,0.002,0.002,0.002,0.002,000,0.002
2013-04-02,0.002,0.002,0.002,0.002,000,0.002
2013-04-01,0.002,0.002,0.002,0.002,000,0.002
2013-03-29,0.002,0.002,0.002,0.002,000,0.002
2013-03-28,0.002,0.002,0.002,0.002,000,0.002
2013-03-27,0.002,0.002,0.002,0.002,000,0.002
2013-03-26,0.002,0.002,0.002,0.002,000,0.002
2013-03-25,0.002,0.002,0.002,0.002,000,0.002
2013-03-22,0.002,0.002,0.002,0.002,500000,0.002
2013-03-21,0.002,0.002,0.002,0.002,225000,0.002
2013-03-20,0.002,0.002,0.002,0.002,000,0.002
2013-03-19,0.002,0.002,0.002,0.002,000,0.002
2013-03-18,0.002,0.002,0.002,0.002,000,0.002
2013-03-15,0.002,0.002,0.002,0.002,000,0.002
2013-03-14,0.002,0.002,0.002,0.002,000,0.002
2013-03-13,0.002,0.002,0.002,0.002,000,0.002
2013-03-12,0.002,0.002,0.002,0.002,1166000,0.002
2013-03-11,0.003,0.003,0.003,0.003,000,0.003
2013-03-08,0.003,0.003,0.003,0.003,730000,0.003
2013-03-07,0.003,0.003,0.003,0.003,166600,0.003
2013-03-06,0.003,0.003,0.003,0.003,000,0.003
2013-03-05,0.003,0.003,0.003,0.003,640000,0.003
2013-03-04,0.004,0.004,0.004,0.004,000,0.004
2013-03-01,0.004,0.004,0.004,0.004,150000,0.004
2013-02-28,0.005,0.005,0.005,0.005,000,0.005
2013-02-27,0.005,0.005,0.005,0.005,000,0.005
2013-02-26,0.005,0.005,0.005,0.005,000,0.005
2013-02-25,0.005,0.005,0.005,0.005,000,0.005
2013-02-22,0.005,0.005,0.005,0.005,000,0.005
2013-02-21,0.005,0.005,0.005,0.005,000,0.005
2013-02-20,0.005,0.005,0.005,0.005,000,0.005
2013-02-19,0.005,0.005,0.005,0.005,000,0.005
2013-02-18,0.005,0.005,0.005,0.005,000,0.005
2013-02-15,0.005,0.005,0.005,0.005,000,0.005
2013-02-14,0.005,0.005,0.005,0.005,000,0.005
2013-02-13,0.005,0.005,0.005,0.005,000,0.005
2013-02-12,0.005,0.005,0.005,0.005,000,0.005
2013-02-11,0.005,0.005,0.005,0.005,000,0.005
2013-02-08,0.005,0.005,0.005,0.005,000,0.005
2013-02-07,0.005,0.005,0.005,0.005,000,0.005
2013-02-06,0.005,0.005,0.005,0.005,000,0.005
2013-02-05,0.005,0.005,0.005,0.005,000,0.005
2013-02-04,0.005,0.005,0.005,0.005,000,0.005
2013-02-01,0.005,0.005,0.005,0.005,000,0.005
2013-01-31,0.005,0.005,0.005,0.005,248000,0.005
2013-01-30,0.004,0.004,0.004,0.004,500000,0.004
2013-01-29,0.005,0.005,0.005,0.005,000,0.005
2013-01-28,0.005,0.005,0.005,0.005,000,0.005
2013-01-25,0.005,0.005,0.005,0.005,000,0.005
2013-01-24,0.005,0.005,0.005,0.005,000,0.005
2013-01-22,0.005,0.005,0.005,0.005,000,0.005
2013-01-21,0.005,0.005,0.005,0.005,000,0.005
2013-01-18,0.005,0.005,0.005,0.005,000,0.005
2013-01-17,0.005,0.005,0.005,0.005,000,0.005
2013-01-16,0.005,0.005,0.005,0.005,000,0.005
2013-01-15,0.005,0.005,0.005,0.005,20500,0.005
2013-01-14,0.005,0.005,0.005,0.005,000,0.005
2013-01-11,0.005,0.005,0.005,0.005,000,0.005
2013-01-10,0.005,0.005,0.005,0.005,000,0.005
2013-01-09,0.005,0.005,0.005,0.005,000,0.005
2013-01-08,0.005,0.005,0.005,0.005,000,0.005
2013-01-07,0.005,0.005,0.005,0.005,000,0.005
2013-01-04,0.005,0.005,0.005,0.005,000,0.005
2013-01-03,0.005,0.005,0.005,0.005,000,0.005
2013-01-02,0.005,0.005,0.005,0.005,000,0.005
2013-01-01,0.005,0.005,0.005,0.005,000,0.005
2012-12-31,0.005,0.005,0.005,0.005,342200,0.005
2012-12-28,0.005,0.005,0.005,0.005,386000,0.005
2012-12-27,0.006,0.006,0.006,0.006,000,0.006
2012-12-26,0.006,0.006,0.006,0.006,000,0.006
2012-12-25,0.006,0.006,0.006,0.006,000,0.006
2012-12-24,0.006,0.006,0.006,0.006,000,0.006
2012-12-21,0.006,0.006,0.006,0.006,000,0.006
2012-12-20,0.006,0.006,0.006,0.006,000,0.006
2012-12-19,0.006,0.006,0.006,0.006,000,0.006
2012-12-18,0.006,0.006,0.006,0.006,000,0.006
2012-12-17,0.006,0.006,0.006,0.006,000,0.006
2012-12-14,0.006,0.006,0.006,0.006,000,0.006
2012-12-13,0.006,0.006,0.006,0.006,000,0.006
2012-12-12,0.006,0.006,0.006,0.006,000,0.006
2012-12-11,0.006,0.006,0.006,0.006,000,0.006
2012-12-10,0.006,0.006,0.006,0.006,000,0.006
2012-12-07,0.006,0.006,0.006,0.006,000,0.006
2012-12-06,0.006,0.006,0.006,0.006,000,0.006
2012-12-05,0.006,0.006,0.006,0.006,000,0.006
2012-12-04,0.006,0.006,0.006,0.006,401100,0.006
2012-12-03,0.005,0.006,0.005,0.006,1716800,0.006
2012-11-30,0.005,0.005,0.005,0.005,000,0.005
2012-11-29,0.005,0.005,0.005,0.005,000,0.005
2012-11-28,0.005,0.005,0.005,0.005,000,0.005
2012-11-27,0.005,0.005,0.005,0.005,000,0.005
2012-11-26,0.005,0.005,0.005,0.005,000,0.005
2012-11-23,0.005,0.005,0.005,0.005,000,0.005
2012-11-22,0.005,0.005,0.005,0.005,000,0.005
2012-11-21,0.005,0.005,0.005,0.005,000,0.005
2012-11-20,0.005,0.005,0.005,0.005,000,0.005
2012-11-19,0.005,0.005,0.005,0.005,000,0.005
2012-11-16,0.005,0.005,0.005,0.005,000,0.005
2012-11-15,0.005,0.005,0.005,0.005,000,0.005
2012-11-14,0.005,0.005,0.005,0.005,000,0.005
2012-11-13,0.005,0.005,0.005,0.005,000,0.005
2012-11-12,0.005,0.005,0.005,0.005,000,0.005
2012-11-09,0.005,0.005,0.005,0.005,000,0.005
2012-11-08,0.005,0.005,0.005,0.005,000,0.005
2012-11-07,0.005,0.005,0.005,0.005,000,0.005
2012-11-06,0.005,0.005,0.005,0.005,000,0.005
2012-11-05,0.005,0.005,0.005,0.005,000,0.005
2012-11-02,0.005,0.005,0.005,0.005,000,0.005
2012-11-01,0.005,0.005,0.005,0.005,000,0.005
2012-10-31,0.005,0.005,0.005,0.005,125000,0.005
2012-10-30,0.004,0.004,0.004,0.004,000,0.004
2012-10-29,0.004,0.004,0.004,0.004,000,0.004
2012-10-26,0.004,0.004,0.004,0.004,000,0.004
2012-10-25,0.004,0.004,0.004,0.004,1000000,0.004
2012-10-24,0.004,0.004,0.004,0.004,000,0.004
2012-10-23,0.004,0.004,0.004,0.004,000,0.004
2012-10-22,0.004,0.004,0.004,0.004,000,0.004
2012-10-19,0.004,0.004,0.004,0.004,000,0.004
2012-10-18,0.004,0.004,0.004,0.004,000,0.004
2012-10-17,0.004,0.004,0.004,0.004,1000000,0.004
2012-10-16,0.006,0.006,0.004,0.004,2638000,0.004
2012-10-15,0.006,0.006,0.006,0.006,000,0.006
2012-10-12,0.005,0.006,0.005,0.006,1350000,0.006
2012-10-11,0.005,0.005,0.005,0.005,000,0.005
2012-10-10,0.005,0.005,0.005,0.005,000,0.005
2012-10-09,0.005,0.005,0.005,0.005,000,0.005
2012-10-08,0.005,0.005,0.005,0.005,000,0.005
2012-10-05,0.005,0.005,0.005,0.005,000,0.005
2012-10-04,0.005,0.005,0.005,0.005,000,0.005
2012-10-03,0.005,0.005,0.005,0.005,1100000,0.005
2012-10-02,0.004,0.004,0.004,0.004,000,0.004
2012-10-01,0.004,0.004,0.004,0.004,000,0.004
2012-09-28,0.004,0.004,0.004,0.004,000,0.004
2012-09-27,0.004,0.004,0.004,0.004,000,0.004
2012-09-26,0.004,0.004,0.004,0.004,000,0.004
2012-09-25,0.004,0.004,0.004,0.004,000,0.004
2012-09-24,0.004,0.004,0.004,0.004,000,0.004
2012-09-21,0.004,0.004,0.004,0.004,000,0.004
2012-09-20,0.004,0.004,0.004,0.004,37500,0.004
2012-09-19,0.004,0.004,0.004,0.004,12500,0.004
2012-09-18,0.004,0.004,0.004,0.004,1000000,0.004
2012-09-17,0.003,0.003,0.003,0.003,000,0.003
2012-09-14,0.003,0.003,0.003,0.003,000,0.003
2012-09-13,0.003,0.003,0.003,0.003,000,0.003
2012-09-12,0.003,0.003,0.003,0.003,000,0.003
2012-09-11,0.003,0.003,0.003,0.003,000,0.003
2012-09-10,0.003,0.003,0.003,0.003,000,0.003
2012-09-07,0.003,0.003,0.003,0.003,000,0.003
2012-09-06,0.003,0.003,0.003,0.003,000,0.003
2012-09-05,0.003,0.003,0.003,0.003,000,0.003
2012-09-04,0.003,0.003,0.003,0.003,000,0.003
2012-09-03,0.003,0.003,0.003,0.003,75000,0.003
2012-08-31,0.003,0.003,0.003,0.003,000,0.003
2012-08-30,0.003,0.003,0.003,0.003,000,0.003
2012-08-29,0.003,0.003,0.003,0.003,4225000,0.003
2012-08-28,0.004,0.004,0.003,0.003,267500,0.003
2012-08-27,0.006,0.006,0.006,0.006,000,0.006
2012-08-24,0.006,0.006,0.006,0.006,000,0.006
2012-08-23,0.006,0.006,0.006,0.006,000,0.006
2012-08-22,0.006,0.006,0.006,0.006,000,0.006
2012-08-21,0.006,0.006,0.006,0.006,000,0.006
2012-08-20,0.006,0.006,0.006,0.006,000,0.006
2012-08-17,0.006,0.006,0.006,0.006,000,0.006
2012-08-16,0.006,0.006,0.006,0.006,000,0.006
2012-08-15,0.006,0.006,0.006,0.006,000,0.006
2012-08-14,0.006,0.006,0.006,0.006,000,0.006
2012-08-13,0.006,0.006,0.006,0.006,000,0.006
2012-08-10,0.006,0.006,0.006,0.006,000,0.006
2012-08-09,0.006,0.006,0.006,0.006,000,0.006
2012-08-08,0.006,0.006,0.006,0.006,000,0.006
2012-08-07,0.006,0.006,0.006,0.006,000,0.006
2012-08-06,0.006,0.006,0.006,0.006,000,0.006
2012-08-03,0.006,0.006,0.006,0.006,000,0.006
2012-08-02,0.006,0.006,0.006,0.006,000,0.006
2012-08-01,0.006,0.006,0.006,0.006,000,0.006
2012-07-31,0.006,0.006,0.006,0.006,000,0.006
2012-07-30,0.006,0.006,0.006,0.006,000,0.006
2012-07-27,0.006,0.006,0.006,0.006,000,0.006
2012-07-26,0.006,0.006,0.006,0.006,000,0.006
2012-07-25,0.006,0.006,0.006,0.006,000,0.006
2012-07-24,0.006,0.006,0.006,0.006,000,0.006
2012-07-23,0.006,0.006,0.006,0.006,000,0.006
2012-07-20,0.006,0.006,0.006,0.006,117300,0.006
2012-07-19,0.006,0.006,0.006,0.006,000,0.006
2012-07-18,0.006,0.006,0.006,0.006,000,0.006
2012-07-17,0.006,0.006,0.006,0.006,000,0.006
2012-07-16,0.006,0.006,0.006,0.006,25000,0.006
2012-07-13,0.005,0.005,0.005,0.005,000,0.005
2012-07-12,0.005,0.005,0.005,0.005,000,0.005
2012-07-11,0.005,0.005,0.005,0.005,000,0.005
2012-07-10,0.005,0.005,0.005,0.005,000,0.005
2012-07-09,0.005,0.005,0.005,0.005,000,0.005
2012-07-06,0.005,0.005,0.005,0.005,000,0.005
2012-07-05,0.005,0.005,0.005,0.005,000,0.005
2012-07-04,0.005,0.005,0.005,0.005,000,0.005
2012-07-03,0.005,0.005,0.005,0.005,000,0.005
2012-07-02,0.005,0.005,0.005,0.005,000,0.005
2012-06-29,0.005,0.005,0.005,0.005,000,0.005
2012-06-28,0.005,0.005,0.005,0.005,1706200,0.005
2012-06-27,0.006,0.006,0.005,0.005,600000,0.005
2012-06-26,0.007,0.007,0.007,0.007,000,0.007
2012-06-25,0.007,0.007,0.007,0.007,000,0.007
2012-06-22,0.007,0.007,0.007,0.007,000,0.007
2012-06-21,0.007,0.007,0.007,0.007,000,0.007
2012-06-20,0.007,0.007,0.007,0.007,000,0.007
2012-06-19,0.007,0.007,0.007,0.007,000,0.007
2012-06-18,0.007,0.007,0.007,0.007,000,0.007
2012-06-15,0.007,0.007,0.007,0.007,000,0.007
2012-06-14,0.007,0.007,0.007,0.007,000,0.007
2012-06-13,0.007,0.007,0.007,0.007,000,0.007
2012-06-12,0.007,0.007,0.007,0.007,000,0.007
2012-06-11,0.007,0.007,0.007,0.007,000,0.007
2012-06-08,0.007,0.007,0.007,0.007,000,0.007
2012-06-07,0.007,0.007,0.007,0.007,000,0.007
2012-06-06,0.007,0.007,0.007,0.007,000,0.007
2012-06-05,0.007,0.007,0.007,0.007,000,0.007
2012-06-04,0.007,0.007,0.007,0.007,000,0.007
2012-06-01,0.007,0.007,0.007,0.007,000,0.007
2012-05-31,0.007,0.007,0.007,0.007,000,0.007
2012-05-30,0.007,0.007,0.007,0.007,000,0.007
2012-05-29,0.007,0.007,0.007,0.007,212400,0.007
2012-05-28,0.007,0.007,0.007,0.007,000,0.007
2012-05-25,0.007,0.007,0.007,0.007,000,0.007
2012-05-24,0.007,0.007,0.007,0.007,000,0.007
2012-05-23,0.007,0.007,0.007,0.007,000,0.007
2012-05-22,0.007,0.007,0.007,0.007,000,0.007
2012-05-21,0.007,0.007,0.007,0.007,000,0.007
2012-05-18,0.007,0.007,0.007,0.007,10000,0.007
2012-05-17,0.007,0.007,0.007,0.007,250000,0.007
2012-05-16,0.007,0.007,0.007,0.007,000,0.007
2012-05-15,0.007,0.007,0.007,0.007,400000,0.007
2012-05-14,0.009,0.009,0.009,0.009,000,0.009
2012-05-11,0.009,0.009,0.009,0.009,000,0.009
2012-05-10,0.009,0.009,0.009,0.009,000,0.009
2012-05-09,0.009,0.009,0.009,0.009,343700,0.009
2012-05-08,0.009,0.009,0.009,0.009,000,0.009
2012-05-07,0.009,0.009,0.009,0.009,000,0.009
2012-05-04,0.009,0.009,0.009,0.009,000,0.009
2012-05-03,0.009,0.009,0.009,0.009,000,0.009
2012-05-02,0.009,0.009,0.009,0.009,000,0.009
2012-05-01,0.009,0.009,0.009,0.009,56200,0.009
2012-04-30,0.009,0.009,0.009,0.009,000,0.009
2012-04-27,0.01,0.01,0.01,0.01,1000000,0.01
2012-04-26,0.01,0.01,0.01,0.01,000,0.01
2012-04-25,0.01,0.01,0.01,0.01,000,0.01
2012-04-24,0.01,0.01,0.01,0.01,645800,0.01
2012-04-23,0.01,0.01,0.01,0.01,000,0.01
2012-04-20,0.01,0.01,0.01,0.01,000,0.01
2012-04-19,0.01,0.01,0.01,0.01,000,0.01
2012-04-18,0.01,0.01,0.01,0.01,000,0.01
2012-04-17,0.01,0.01,0.01,0.01,000,0.01
2012-04-16,0.01,0.01,0.01,0.01,000,0.01
2012-04-13,0.01,0.01,0.01,0.01,000,0.01
2012-04-12,0.01,0.01,0.01,0.01,000,0.01
2012-04-11,0.011,0.011,0.01,0.01,100000,0.01
2012-04-10,0.011,0.011,0.011,0.011,15000,0.011
2012-04-09,0.01,0.01,0.01,0.01,000,0.01
2012-04-06,0.01,0.01,0.01,0.01,000,0.01
2012-04-05,0.01,0.01,0.01,0.01,000,0.01
2012-04-04,0.01,0.01,0.01,0.01,000,0.01
2012-04-03,0.01,0.01,0.01,0.01,000,0.01
2012-04-02,0.01,0.01,0.01,0.01,000,0.01
2012-03-30,0.01,0.01,0.01,0.01,000,0.01
2012-03-29,0.01,0.01,0.01,0.01,1090000,0.01
2012-03-28,0.009,0.009,0.009,0.009,150000,0.009
2012-03-27,0.009,0.009,0.009,0.009,000,0.009
2012-03-26,0.009,0.009,0.009,0.009,000,0.009
2012-03-23,0.009,0.009,0.009,0.009,000,0.009
2012-03-22,0.009,0.009,0.009,0.009,000,0.009
2012-03-21,0.009,0.009,0.009,0.009,937400,0.009
2012-03-20,0.009,0.009,0.009,0.009,436400,0.009
2012-03-19,0.009,0.009,0.009,0.009,80000,0.009
2012-03-16,0.009,0.009,0.009,0.009,000,0.009
2012-03-15,0.009,0.009,0.009,0.009,200000,0.009
2012-03-14,0.008,0.008,0.008,0.008,000,0.008
2012-03-13,0.008,0.008,0.008,0.008,000,0.008
2012-03-12,0.008,0.008,0.008,0.008,000,0.008
2012-03-09,0.006,0.008,0.006,0.008,481400,0.008
2012-03-08,0.008,0.008,0.008,0.008,000,0.008
2012-03-07,0.008,0.008,0.008,0.008,000,0.008
2012-03-06,0.008,0.008,0.008,0.008,000,0.008
2012-03-05,0.008,0.008,0.008,0.008,000,0.008
2012-03-02,0.008,0.008,0.008,0.008,263600,0.008
2012-03-01,0.008,0.008,0.008,0.008,000,0.008
2012-02-29,0.008,0.008,0.008,0.008,1000000,0.008
2012-02-28,0.008,0.008,0.008,0.008,000,0.008
2012-02-27,0.008,0.008,0.008,0.008,000,0.008
2012-02-24,0.008,0.008,0.008,0.008,000,0.008
2012-02-23,0.008,0.008,0.008,0.008,000,0.008
2012-02-22,0.009,0.009,0.008,0.008,960000,0.008
2012-02-21,0.009,0.009,0.009,0.009,1000000,0.009
2012-02-20,0.009,0.009,0.009,0.009,000,0.009
2012-02-17,0.009,0.009,0.009,0.009,000,0.009
2012-02-16,0.009,0.009,0.009,0.009,000,0.009
2012-02-15,0.009,0.009,0.009,0.009,000,0.009
2012-02-14,0.009,0.009,0.009,0.009,1271400,0.009
2012-02-13,0.01,0.01,0.01,0.01,100000,0.01
2012-02-10,0.01,0.01,0.01,0.01,000,0.01
2012-02-09,0.01,0.01,0.01,0.01,000,0.01
2012-02-08,0.01,0.01,0.01,0.01,000,0.01
2012-02-07,0.01,0.01,0.01,0.01,1000000,0.01
2012-02-06,0.011,0.011,0.011,0.011,000,0.011
2012-02-03,0.011,0.011,0.011,0.011,000,0.011
2012-02-02,0.011,0.011,0.011,0.011,000,0.011
2012-02-01,0.011,0.011,0.011,0.011,000,0.011
2012-01-31,0.011,0.011,0.011,0.011,000,0.011
2012-01-27,0.011,0.011,0.011,0.011,000,0.011
2012-01-26,0.011,0.011,0.011,0.011,000,0.011
2012-01-25,0.011,0.011,0.011,0.011,000,0.011
2012-01-24,0.011,0.011,0.011,0.011,500000,0.011
2012-01-23,0.011,0.011,0.011,0.011,000,0.011
2012-01-20,0.011,0.011,0.011,0.011,000,0.011
2012-01-19,0.011,0.011,0.011,0.011,000,0.011
2012-01-18,0.011,0.011,0.011,0.011,000,0.011
2012-01-17,0.011,0.011,0.011,0.011,000,0.011
2012-01-16,0.011,0.011,0.011,0.011,000,0.011
2012-01-13,0.011,0.011,0.011,0.011,000,0.011
2012-01-12,0.011,0.011,0.011,0.011,000,0.011
2012-01-11,0.011,0.011,0.011,0.011,000,0.011
2012-01-10,0.011,0.011,0.011,0.011,000,0.011
2012-01-09,0.011,0.011,0.011,0.011,000,0.011
2012-01-06,0.011,0.011,0.011,0.011,45800,0.011
2012-01-05,0.012,0.012,0.012,0.012,254100,0.012
2012-01-04,0.014,0.014,0.014,0.014,000,0.014
2012-01-03,0.014,0.014,0.014,0.014,000,0.014
2012-01-02,0.014,0.014,0.014,0.014,000,0.014
2011-12-30,0.014,0.014,0.014,0.014,000,0.014
2011-12-29,0.014,0.014,0.014,0.014,000,0.014
2011-12-28,0.014,0.014,0.014,0.014,000,0.014
2011-12-27,0.014,0.014,0.014,0.014,000,0.014
2011-12-26,0.014,0.014,0.014,0.014,000,0.014
2011-12-23,0.014,0.014,0.014,0.014,000,0.014
2011-12-22,0.014,0.014,0.014,0.014,000,0.014
2011-12-21,0.014,0.014,0.014,0.014,000,0.014
2011-12-20,0.014,0.014,0.014,0.014,000,0.014
2011-12-19,0.014,0.014,0.014,0.014,000,0.014
2011-12-16,0.014,0.014,0.014,0.014,000,0.014
2011-12-15,0.014,0.014,0.014,0.014,000,0.014
2011-12-14,0.014,0.014,0.014,0.014,000,0.014
2011-12-13,0.014,0.014,0.014,0.014,000,0.014
2011-12-12,0.014,0.014,0.014,0.014,103700,0.014
2011-12-09,0.014,0.014,0.014,0.014,000,0.014
2011-12-08,0.014,0.014,0.014,0.014,000,0.014
2011-12-07,0.014,0.014,0.014,0.014,000,0.014
2011-12-06,0.015,0.015,0.014,0.014,1200000,0.014
2011-12-05,0.014,0.014,0.014,0.014,000,0.014
2011-12-02,0.014,0.014,0.014,0.014,000,0.014
2011-12-01,0.014,0.014,0.014,0.014,000,0.014
2011-11-30,0.014,0.014,0.014,0.014,520000,0.014
2011-11-29,0.015,0.015,0.015,0.015,000,0.015
2011-11-28,0.015,0.015,0.015,0.015,000,0.015
2011-11-25,0.015,0.015,0.015,0.015,000,0.015
2011-11-24,0.015,0.015,0.015,0.015,1053700,0.015
2011-11-23,0.015,0.015,0.015,0.015,000,0.015
2011-11-22,0.015,0.015,0.015,0.015,000,0.015
2011-11-21,0.015,0.015,0.015,0.015,000,0.015
2011-11-18,0.015,0.015,0.015,0.015,101500,0.015
2011-11-17,0.014,0.014,0.014,0.014,231800,0.014
2011-11-16,0.015,0.015,0.013,0.014,866600,0.014
2011-11-15,0.016,0.016,0.015,0.016,986000,0.016
2011-11-14,0.018,0.018,0.016,0.016,500000,0.016
2011-11-11,0.018,0.018,0.018,0.018,400000,0.018
2011-11-09,0.019,0.02,0.019,0.019,777300,0.019
2011-11-08,0.016,0.019,0.016,0.019,1272600,0.019
2011-11-07,0.016,0.016,0.016,0.016,100000,0.016
2011-11-03,0.016,0.016,0.016,0.016,200000,0.016
2011-11-02,0.016,0.016,0.015,0.015,364800,0.015
2011-10-28,0.016,0.016,0.016,0.016,312000,0.016
2011-10-26,0.015,0.015,0.015,0.015,250000,0.015
2011-10-24,0.015,0.015,0.015,0.015,70000,0.015
2011-10-21,0.016,0.016,0.015,0.015,400000,0.015
2011-10-19,0.015,0.015,0.015,0.015,450000,0.015
2011-10-18,0.015,0.015,0.015,0.015,150000,0.015
2011-10-17,0.017,0.017,0.017,0.017,272900,0.017
2011-10-14,0.017,0.017,0.017,0.017,267000,0.017
2011-10-13,0.016,0.017,0.016,0.017,160000,0.017
2011-10-12,0.015,0.015,0.015,0.015,50000,0.015
2011-10-11,0.015,0.015,0.015,0.015,110000,0.015
2011-10-10,0.014,0.014,0.014,0.014,150000,0.014
2011-10-05,0.012,0.012,0.012,0.012,50000,0.012
2011-10-04,0.012,0.012,0.012,0.012,381000,0.012
2011-10-03,0.012,0.012,0.012,0.012,120000,0.012
2011-09-30,0.012,0.012,0.012,0.012,132600,0.012
2011-09-28,0.013,0.013,0.012,0.012,900000,0.012
2011-09-27,0.013,0.013,0.013,0.013,250000,0.013
2011-09-23,0.015,0.015,0.013,0.013,1367300,0.013
2011-09-20,0.015,0.015,0.015,0.015,8000,0.015
2011-09-19,0.015,0.015,0.015,0.015,1380000,0.015
2011-09-16,0.015,0.015,0.014,0.014,445000,0.014
2011-09-15,0.015,0.015,0.015,0.015,50000,0.015
2011-09-14,0.015,0.015,0.015,0.015,100000,0.015
2011-09-12,0.015,0.015,0.015,0.015,532600,0.015
2011-09-09,0.015,0.015,0.015,0.015,750000,0.015
2011-09-06,0.016,0.016,0.016,0.016,1167300,0.016
2011-09-05,0.016,0.016,0.015,0.016,1520000,0.016
2011-08-31,0.018,0.019,0.018,0.018,265000,0.018
2011-08-30,0.018,0.018,0.018,0.018,145000,0.018
2011-08-29,0.017,0.018,0.017,0.018,621000,0.018
2011-08-25,0.017,0.017,0.017,0.017,179000,0.017
2011-08-23,0.017,0.017,0.017,0.017,250000,0.017
2011-08-19,0.017,0.017,0.014,0.014,512500,0.014
2011-08-18,0.018,0.018,0.017,0.017,710000,0.017
2011-08-17,0.017,0.017,0.017,0.017,100000,0.017
2011-08-10,0.016,0.016,0.015,0.015,500000,0.015
2011-08-09,0.016,0.016,0.015,0.015,1990000,0.015
2011-08-08,0.019,0.019,0.019,0.019,100000,0.019
2011-08-05,0.02,0.02,0.016,0.019,2138100,0.019
2011-08-04,0.022,0.022,0.021,0.021,569600,0.021
2011-08-03,0.022,0.022,0.022,0.022,97200,0.022
2011-08-02,0.02,0.022,0.02,0.022,145700,0.022
2011-08-01,0.02,0.023,0.019,0.023,660500,0.023
2011-07-29,0.019,0.019,0.017,0.018,2875300,0.018
2011-07-28,0.019,0.02,0.019,0.02,358500,0.02
2011-07-27,0.021,0.025,0.018,0.019,3043200,0.019
2011-07-26,0.019,0.027,0.019,0.024,8553600,0.024
2011-07-25,0.016,0.017,0.016,0.017,192100,0.017
2011-07-22,0.015,0.015,0.015,0.015,268200,0.015
2011-07-21,0.015,0.015,0.015,0.015,614100,0.015
2011-07-20,0.015,0.016,0.015,0.016,187500,0.016
2011-07-19,0.014,0.015,0.014,0.014,4016800,0.014
2011-07-18,0.014,0.014,0.014,0.014,550000,0.014
2011-07-15,0.013,0.013,0.013,0.013,300000,0.013
2011-07-14,0.013,0.013,0.013,0.013,597500,0.013
2011-07-13,0.013,0.014,0.013,0.013,1600000,0.013
2011-07-12,0.013,0.014,0.013,0.013,950000,0.013
2011-07-08,0.014,0.014,0.014,0.014,75000,0.014
2011-07-07,0.013,0.013,0.013,0.013,300000,0.013
2011-07-06,0.013,0.013,0.013,0.013,249900,0.013
2011-07-05,0.013,0.013,0.013,0.013,75300,0.013
2011-06-30,0.012,0.012,0.012,0.012,10000,0.012
2011-06-29,0.013,0.013,0.012,0.012,500000,0.012
2011-06-28,0.012,0.012,0.012,0.012,414700,0.012
2011-06-27,0.011,0.012,0.011,0.012,1232300,0.012
2011-06-24,0.012,0.012,0.011,0.011,997700,0.011
2011-06-22,0.013,0.013,0.011,0.011,977500,0.011
2011-06-21,0.016,0.016,0.015,0.015,293400,0.015
2011-06-20,0.012,0.014,0.011,0.014,1165500,0.014
2011-06-17,0.011,0.012,0.011,0.011,2191000,0.011
2011-06-16,0.011,0.011,0.009,0.011,1846800,0.011
2011-06-10,0.012,0.013,0.01,0.012,1200000,0.012
2011-06-09,0.013,0.014,0.013,0.014,380000,0.014
2011-06-08,0.013,0.014,0.013,0.013,350000,0.013
2011-06-07,0.014,0.014,0.013,0.013,986100,0.013
2011-06-06,0.013,0.013,0.013,0.013,594700,0.013
2011-06-02,0.012,0.012,0.011,0.011,400000,0.011
2011-06-01,0.012,0.013,0.012,0.013,800000,0.013
2011-05-31,0.012,0.012,0.01,0.01,1418400,0.01
2011-05-30,0.011,0.012,0.011,0.012,510000,0.012
2011-05-27,0.014,0.014,0.014,0.014,1000000,0.014
2011-05-26,0.013,0.013,0.013,0.013,135000,0.013
2011-05-25,0.013,0.013,0.013,0.013,200000,0.013
2011-05-23,0.015,0.015,0.015,0.015,32500,0.015
2011-05-19,0.015,0.015,0.015,0.015,12500,0.015
2011-05-18,0.014,0.014,0.014,0.014,130000,0.014
2011-05-16,0.014,0.014,0.014,0.014,25000,0.014
2011-05-13,0.015,0.015,0.015,0.015,50000,0.015
2011-05-09,0.016,0.016,0.016,0.016,242600,0.016
2011-05-05,0.016,0.016,0.016,0.016,25300,0.016
2011-05-04,0.016,0.016,0.016,0.016,300000,0.016
2011-04-20,0.015,0.017,0.015,0.017,80000,0.017
2011-04-15,0.016,0.016,0.016,0.016,570000,0.016
2011-04-13,0.015,0.015,0.015,0.015,20000,0.015
2011-04-11,0.017,0.017,0.017,0.017,430000,0.017
2011-04-06,0.014,0.017,0.014,0.017,359600,0.017
2011-04-05,0.014,0.014,0.014,0.014,200000,0.014
2011-04-01,0.016,0.016,0.014,0.014,782800,0.014
2011-03-25,0.016,0.016,0.016,0.016,41000,0.016
2011-03-21,0.013,0.013,0.013,0.013,12500,0.013
2011-03-14,0.017,0.017,0.017,0.017,55000,0.017
2011-03-08,0.017,0.017,0.016,0.017,85000,0.017
2011-03-07,0.018,0.018,0.017,0.017,7000,0.017
2011-03-04,0.018,0.018,0.018,0.018,50000,0.018
2011-03-03,0.02,0.02,0.018,0.018,998200,0.018
2011-03-02,0.018,0.018,0.018,0.018,75000,0.018
2011-02-11,0.02,0.022,0.02,0.022,1357500,0.022
2011-01-31,0.02,0.02,0.02,0.02,109500,0.02
2011-01-24,0.021,0.021,0.019,0.02,208100,0.02
2011-01-21,0.02,0.021,0.02,0.021,1125800,0.021
2011-01-20,0.02,0.02,0.02,0.02,950000,0.02
2011-01-18,0.022,0.022,0.019,0.019,2340100,0.019
2011-01-17,0.021,0.024,0.021,0.024,1659500,0.024
2011-01-14,0.018,0.025,0.018,0.023,4357400,0.023
2011-01-11,0.015,0.016,0.015,0.016,245000,0.016
2011-01-04,0.017,0.017,0.016,0.016,190000,0.016
2010-12-30,0.017,0.017,0.017,0.017,30000,0.017
2010-12-15,0.017,0.017,0.015,0.015,353100,0.015
2010-12-09,0.02,0.02,0.02,0.02,109500,0.02
2010-12-01,0.018,0.018,0.015,0.015,567700,0.015
2010-11-23,0.019,0.019,0.018,0.018,346500,0.018
2010-11-12,0.021,0.021,0.02,0.02,220000,0.02
2010-11-05,0.019,0.021,0.019,0.021,255000,0.021
2010-10-28,0.021,0.021,0.021,0.021,1049500,0.021
2010-10-27,0.021,0.021,0.021,0.021,950400,0.021
2010-10-25,0.021,0.021,0.021,0.021,49500,0.021
2010-10-22,0.022,0.022,0.021,0.021,1009100,0.021
2010-10-21,0.02,0.02,0.02,0.02,70000,0.02
2010-10-20,0.022,0.022,0.022,0.022,1000000,0.022
2010-10-18,0.023,0.023,0.02,0.02,829500,0.02
2010-10-15,0.023,0.023,0.023,0.023,300000,0.023
2010-10-14,0.023,0.023,0.02,0.02,675700,0.02
2010-10-12,0.023,0.023,0.023,0.023,167000,0.023
2010-10-07,0.023,0.023,0.022,0.023,128000,0.023
2010-10-06,0.023,0.023,0.023,0.023,400000,0.023
2010-10-01,0.028,0.028,0.027,0.027,150000,0.027
2010-09-22,0.027,0.027,0.027,0.027,100000,0.027
2010-09-17,0.022,0.03,0.022,0.03,524700,0.03
2010-09-16,0.021,0.021,0.02,0.02,30500,0.02
2010-09-15,0.016,0.021,0.016,0.021,1611600,0.021
2010-09-13,0.014,0.014,0.014,0.014,310000,0.014
2010-09-10,0.014,0.014,0.014,0.014,460000,0.014
2010-09-09,0.014,0.014,0.014,0.014,40000,0.014
2010-09-07,0.013,0.013,0.012,0.012,624000,0.012
2010-09-06,0.014,0.014,0.013,0.013,585900,0.013
2010-09-03,0.014,0.014,0.014,0.014,865000,0.014
2010-08-23,0.014,0.014,0.014,0.014,255000,0.014
2010-08-09,0.019,0.019,0.018,0.018,30000,0.018
2010-08-02,0.02,0.02,0.019,0.019,365000,0.019
2010-07-30,0.017,0.017,0.017,0.017,885000,0.017
2010-07-29,0.017,0.017,0.017,0.017,115000,0.017
2010-07-28,0.017,0.02,0.017,0.02,150000,0.02
2010-07-20,0.017,0.017,0.017,0.017,55000,0.017
2010-07-19,0.02,0.02,0.017,0.017,95000,0.017
2010-07-14,0.02,0.02,0.02,0.02,10000,0.02
2010-07-13,0.02,0.02,0.02,0.02,75000,0.02
2010-07-09,0.02,0.02,0.018,0.018,50000,0.018
2010-07-06,0.017,0.017,0.017,0.017,50000,0.017
2010-07-01,0.017,0.017,0.017,0.017,27400,0.017
2010-06-30,0.019,0.019,0.019,0.019,180000,0.019
2010-06-29,0.019,0.019,0.019,0.019,30000,0.019
2010-06-28,0.018,0.018,0.018,0.018,20000,0.018
2010-06-25,0.018,0.018,0.018,0.018,150000,0.018
2010-06-24,0.02,0.02,0.018,0.018,000,0.018
2010-06-23,0.017,0.017,0.017,0.017,60000,0.017
2010-06-22,0.023,0.023,0.017,0.017,000,0.017
2010-06-21,0.024,0.024,0.017,0.017,000,0.017
2010-06-18,0.024,0.024,0.017,0.017,000,0.017
2010-06-17,0.024,0.024,0.017,0.017,000,0.017
2010-06-16,0.023,0.024,0.023,0.024,20500,0.024
2010-06-15,0.023,0.023,0.022,0.022,000,0.022
2010-06-11,0.025,0.025,0.022,0.022,000,0.022
2010-06-10,0.025,0.025,0.021,0.021,000,0.021
2010-06-09,0.023,0.025,0.022,0.025,550000,0.025
2010-06-08,0.022,0.025,0.022,0.025,550000,0.025
2010-06-07,0.02,0.02,0.02,0.02,780000,0.02
2010-06-04,0.022,0.022,0.019,0.019,000,0.019
2010-06-03,0.017,0.017,0.016,0.017,525000,0.017
2010-06-02,0.019,0.019,0.017,0.017,000,0.017
2010-06-01,0.019,0.019,0.017,0.017,000,0.017
2010-05-31,0.019,0.019,0.019,0.019,184500,0.019
2010-05-28,0.02,0.02,0.019,0.019,000,0.019
2010-05-27,0.02,0.02,0.019,0.019,000,0.019
2010-05-26,0.02,0.02,0.019,0.019,000,0.019
2010-05-25,0.02,0.02,0.019,0.019,000,0.019
2010-05-24,0.02,0.02,0.019,0.019,000,0.019
2010-05-21,0.019,0.019,0.019,0.019,170000,0.019
2010-05-20,0.019,0.019,0.019,0.019,20000,0.019
2010-05-19,0.02,0.02,0.019,0.019,905400,0.019
2010-05-18,0.023,0.023,0.019,0.019,000,0.019
2010-05-17,0.023,0.023,0.019,0.019,000,0.019
2010-05-14,0.023,0.023,0.019,0.019,360000,0.019
2010-05-13,0.023,0.023,0.022,0.022,000,0.022
2010-05-12,0.021,0.024,0.021,0.024,50000,0.024
2010-05-11,0.02,0.02,0.02,0.02,100000,0.02
2010-05-10,0.019,0.019,0.019,0.019,000,0.019
2010-05-07,0.021,0.021,0.021,0.021,200000,0.021
2010-05-06,0.024,0.024,0.02,0.02,000,0.02
2010-05-05,0.024,0.024,0.02,0.02,000,0.02
2010-05-04,0.024,0.024,0.021,0.021,000,0.021
2010-05-03,0.025,0.025,0.025,0.025,1000000,0.025
2010-04-30,0.026,0.026,0.021,0.021,000,0.021
2010-04-29,0.021,0.021,0.021,0.021,75000,0.021
2010-04-28,0.021,0.021,0.019,0.021,1242000,0.021
2010-04-27,0.026,0.026,0.021,0.021,000,0.021
2010-04-23,0.026,0.026,0.023,0.023,2296100,0.023
2010-04-22,0.026,0.026,0.026,0.026,79100,0.026
2010-04-21,0.026,0.026,0.025,0.025,170000,0.025
2010-04-20,0.029,0.029,0.026,0.026,000,0.026
2010-04-19,0.026,0.026,0.026,0.026,100000,0.026
2010-04-16,0.03,0.03,0.026,0.026,000,0.026
2010-04-15,0.028,0.028,0.026,0.026,339500,0.026
2010-04-14,0.03,0.03,0.028,0.028,000,0.028
2010-04-13,0.03,0.03,0.028,0.028,423300,0.028
2010-04-12,0.031,0.031,0.03,0.03,000,0.03
2010-04-09,0.029,0.031,0.029,0.031,900000,0.031
2010-04-08,0.029,0.029,0.025,0.025,000,0.025
2010-04-07,0.029,0.029,0.025,0.025,000,0.025
2010-04-06,0.029,0.029,0.026,0.026,118500,0.026
2010-04-01,0.027,0.027,0.026,0.027,1189300,0.027
2010-03-31,0.03,0.03,0.027,0.027,000,0.027
2010-03-30,0.03,0.031,0.027,0.027,420600,0.027
2010-03-29,0.03,0.03,0.028,0.028,000,0.028
2010-03-26,0.029,0.029,0.028,0.028,540000,0.028
2010-03-25,0.028,0.03,0.027,0.03,620000,0.03
2010-03-24,0.028,0.028,0.028,0.028,20000,0.028
2010-03-23,0.03,0.03,0.03,0.03,25000,0.03
2010-03-22,0.033,0.033,0.032,0.032,350000,0.032
2010-03-19,0.034,0.035,0.034,0.035,92500,0.035
2010-03-18,0.032,0.034,0.032,0.034,100000,0.034
2010-03-17,0.032,0.032,0.03,0.032,770000,0.032
2010-03-16,0.03,0.033,0.03,0.033,2985600,0.033
2010-03-15,0.03,0.03,0.03,0.03,66600,0.03
2010-03-12,0.029,0.03,0.029,0.03,1000000,0.03
2010-03-11,0.026,0.03,0.026,0.03,195000,0.03
2010-03-10,0.03,0.03,0.026,0.026,000,0.026
2010-03-09,0.026,0.026,0.025,0.025,120500,0.025
2010-03-08,0.03,0.03,0.029,0.029,157600,0.029
2010-03-05,0.028,0.029,0.026,0.029,355000,0.029
2010-03-04,0.03,0.03,0.028,0.03,1220000,0.03
2010-03-03,0.029,0.03,0.029,0.03,784100,0.03
2010-03-02,0.027,0.031,0.027,0.031,496700,0.031
2010-03-01,0.025,0.027,0.025,0.027,100000,0.027
2010-02-26,0.025,0.025,0.025,0.025,75700,0.025
2010-02-25,0.024,0.024,0.024,0.024,218000,0.024
2010-02-24,0.024,0.025,0.024,0.025,210000,0.025
2010-02-23,0.025,0.025,0.025,0.025,1474200,0.025
2010-02-22,0.025,0.025,0.023,0.025,1012700,0.025
2010-02-19,0.025,0.025,0.025,0.025,550000,0.025
2010-02-18,0.025,0.025,0.023,0.023,000,0.023
2010-02-17,0.025,0.027,0.023,0.025,582000,0.025
2010-02-16,0.025,0.026,0.022,0.022,920000,0.022
2010-02-15,0.026,0.026,0.023,0.023,000,0.023
2010-02-11,0.026,0.026,0.026,0.026,25000,0.026
2010-02-10,0.028,0.029,0.026,0.026,452000,0.026
2010-02-09,0.03,0.03,0.028,0.028,000,0.028
2010-02-08,0.03,0.03,0.028,0.028,000,0.028
2010-02-04,0.03,0.031,0.03,0.03,1000000,0.03
2010-02-02,0.03,0.031,0.029,0.029,3500000,0.029
2010-02-01,0.03,0.03,0.029,0.029,999900,0.029
2010-01-29,0.031,0.031,0.029,0.03,300000,0.03
2010-01-28,0.032,0.032,0.032,0.032,62100,0.032
2010-01-27,0.032,0.032,0.03,0.03,564100,0.03
2010-01-25,0.032,0.032,0.031,0.031,305300,0.031
2010-01-22,0.039,0.039,0.032,0.032,000,0.032
2010-01-21,0.036,0.036,0.036,0.036,200000,0.036
2010-01-20,0.041,0.041,0.034,0.034,000,0.034
2010-01-19,0.041,0.041,0.034,0.034,000,0.034
2010-01-18,0.036,0.036,0.036,0.036,750000,0.036
2010-01-15,0.04,0.04,0.036,0.036,471100,0.036
2010-01-14,0.043,0.043,0.043,0.043,23000,0.043
2010-01-13,0.043,0.043,0.034,0.034,000,0.034
2010-01-12,0.04,0.04,0.038,0.04,426500,0.04
2010-01-11,0.043,0.043,0.04,0.04,000,0.04
2010-01-08,0.043,0.043,0.039,0.039,000,0.039
2010-01-07,0.04,0.04,0.04,0.04,100000,0.04
2010-01-06,0.043,0.043,0.039,0.039,000,0.039
2010-01-05,0.038,0.039,0.038,0.039,226300,0.039
2010-01-04,0.044,0.045,0.044,0.045,128700,0.045
2009-12-31,0.045,0.045,0.045,0.045,40000,0.045
2009-12-30,0.045,0.045,0.038,0.038,000,0.038
2009-12-24,0.044,0.044,0.038,0.038,000,0.038
2009-12-23,0.04,0.04,0.04,0.04,205000,0.04
2009-12-22,0.04,0.045,0.04,0.045,162000,0.045
2009-12-21,0.045,0.045,0.043,0.043,000,0.043
2009-12-18,0.05,0.05,0.05,0.05,000,0.05
2009-12-17,0.05,0.05,0.04,0.04,000,0.04
2009-12-16,0.05,0.05,0.044,0.044,000,0.044
2009-12-15,0.05,0.05,0.044,0.044,000,0.044
2009-12-14,0.054,0.054,0.052,0.052,257000,0.052
2009-12-11,0.061,0.061,0.055,0.055,000,0.055
2009-12-10,0.06,0.06,0.06,0.06,22800,0.06
2009-12-09,0.061,0.061,0.06,0.06,91300,0.06
2009-12-08,0.065,0.066,0.061,0.061,28500,0.061
2009-12-07,0.055,0.06,0.055,0.06,35300,0.06
2009-12-04,0.069,0.069,0.055,0.055,000,0.055
2009-12-03,0.069,0.069,0.055,0.055,000,0.055
2009-12-02,0.07,0.07,0.055,0.055,000,0.055
2009-12-01,0.07,0.07,0.053,0.053,000,0.053
2009-11-30,0.065,0.065,0.052,0.052,000,0.052
2009-11-27,0.07,0.07,0.052,0.052,000,0.052
2009-11-25,0.07,0.07,0.055,0.055,000,0.055
2009-11-24,0.07,0.07,0.055,0.055,000,0.055
2009-11-23,0.07,0.07,0.055,0.055,000,0.055
2009-11-20,0.07,0.07,0.055,0.055,000,0.055
2009-11-18,0.08,0.08,0.07,0.07,000,0.07
2009-11-17,0.08,0.08,0.07,0.07,000,0.07
2009-11-16,0.075,0.075,0.07,0.07,88700,0.07
2009-11-13,0.08,0.08,0.075,0.075,000,0.075
2009-11-12,0.08,0.08,0.075,0.075,000,0.075
2009-11-11,0.08,0.08,0.075,0.075,000,0.075
2009-11-10,0.08,0.08,0.075,0.075,000,0.075
2009-11-09,0.08,0.08,0.075,0.075,000,0.075
2009-11-06,0.08,0.08,0.075,0.075,000,0.075
2009-11-05,0.08,0.08,0.08,0.08,9000,0.08
2009-11-04,0.075,0.08,0.075,0.08,17000,0.08
2009-11-03,0.075,0.075,0.075,0.075,60000,0.075
2009-11-02,0.085,0.085,0.085,0.085,000,0.085
2009-10-30,0.085,0.085,0.085,0.085,000,0.085
2009-10-29,0.085,0.085,0.085,0.085,000,0.085
2009-10-28,0.085,0.085,0.085,0.085,000,0.085
2009-10-27,0.085,0.085,0.085,0.085,000,0.085
2009-10-26,0.085,0.085,0.085,0.085,000,0.085
2009-10-23,0.085,0.085,0.085,0.085,000,0.085
2009-10-22,0.085,0.085,0.085,0.085,000,0.085
2009-10-21,0.085,0.085,0.085,0.085,000,0.085
2009-10-20,0.085,0.085,0.085,0.085,000,0.085
2009-10-19,0.085,0.085,0.085,0.085,000,0.085
2009-10-16,0.085,0.085,0.085,0.085,000,0.085
2009-10-15,0.085,0.085,0.085,0.085,000,0.085
2009-10-14,0.085,0.085,0.085,0.085,000,0.085
2009-10-13,0.085,0.085,0.085,0.085,000,0.085
2009-10-12,0.085,0.085,0.085,0.085,000,0.085
2009-10-09,0.085,0.085,0.085,0.085,000,0.085
2009-10-08,0.085,0.085,0.085,0.085,000,0.085
2009-10-07,0.085,0.085,0.085,0.085,000,0.085
2009-10-06,0.085,0.085,0.085,0.085,6600,0.085
2009-10-05,0.089,0.089,0.089,0.089,000,0.089
2009-10-02,0.089,0.089,0.089,0.089,000,0.089
2009-10-01,0.079,0.089,0.079,0.089,25000,0.089
2009-09-30,0.085,0.085,0.085,0.085,000,0.085
2009-09-29,0.085,0.085,0.085,0.085,000,0.085
2009-09-28,0.085,0.085,0.085,0.085,000,0.085
2009-09-25,0.086,0.086,0.085,0.085,102500,0.085
2009-09-24,0.085,0.085,0.085,0.085,247500,0.085
2009-09-23,0.085,0.085,0.085,0.085,2500,0.085
2009-09-22,0.08,0.08,0.08,0.08,25000,0.08
2009-09-21,0.09,0.09,0.09,0.09,000,0.09
2009-09-18,0.09,0.09,0.09,0.09,000,0.09
2009-09-17,0.074,0.09,0.074,0.09,360000,0.09
2009-09-16,0.073,0.073,0.073,0.073,75000,0.073
2009-09-15,0.073,0.073,0.073,0.073,000,0.073
2009-09-14,0.073,0.073,0.073,0.073,67700,0.073
2009-09-11,0.073,0.073,0.073,0.073,000,0.073
2009-09-10,0.073,0.073,0.073,0.073,30000,0.073
2009-09-09,0.075,0.075,0.075,0.075,27300,0.075
2009-09-08,0.07,0.075,0.065,0.075,557700,0.075
2009-09-07,0.075,0.075,0.075,0.075,16200,0.075
2009-09-04,0.063,0.065,0.063,0.065,216700,0.065
2009-09-03,0.065,0.065,0.065,0.065,000,0.065
2009-09-02,0.065,0.065,0.065,0.065,100000,0.065
2009-09-01,0.055,0.055,0.055,0.055,000,0.055
2009-08-31,0.055,0.055,0.055,0.055,000,0.055
2009-08-28,0.055,0.055,0.055,0.055,000,0.055
2009-08-27,0.055,0.055,0.055,0.055,000,0.055
2009-08-26,0.055,0.055,0.055,0.055,000,0.055
2009-08-25,0.055,0.055,0.055,0.055,000,0.055
2009-08-24,0.055,0.055,0.055,0.055,000,0.055
2009-08-21,0.055,0.055,0.055,0.055,000,0.055
2009-08-20,0.055,0.055,0.055,0.055,100000,0.055
2009-08-19,0.056,0.056,0.056,0.056,000,0.056
2009-08-18,0.056,0.056,0.056,0.056,000,0.056
2009-08-17,0.057,0.057,0.056,0.056,25000,0.056
2009-08-14,0.06,0.06,0.06,0.06,000,0.06
2009-08-13,0.06,0.06,0.06,0.06,000,0.06
2009-08-12,0.072,0.072,0.06,0.06,750000,0.06
2009-08-11,0.08,0.08,0.08,0.08,000,0.08
2009-08-10,0.08,0.08,0.08,0.08,000,0.08
2009-08-07,0.08,0.08,0.08,0.08,000,0.08
2009-08-06,0.08,0.08,0.08,0.08,000,0.08
2009-08-05,0.08,0.08,0.08,0.08,000,0.08
2009-08-04,0.08,0.08,0.08,0.08,000,0.08
2009-08-03,0.08,0.08,0.08,0.08,000,0.08
2009-07-31,0.08,0.08,0.08,0.08,000,0.08
2009-07-30,0.08,0.08,0.08,0.08,000,0.08
2009-07-29,0.08,0.08,0.08,0.08,000,0.08
2009-07-28,0.08,0.08,0.08,0.08,50000,0.08
2009-07-27,0.059,0.065,0.059,0.065,53800,0.065
2009-07-24,0.055,0.055,0.055,0.055,250000,0.055
2009-07-23,0.059,0.059,0.059,0.059,100000,0.059
2009-07-22,0.059,0.059,0.057,0.057,346100,0.057
2009-07-21,0.064,0.064,0.059,0.059,229700,0.059
2009-07-20,0.07,0.07,0.07,0.07,25000,0.07
2009-07-17,0.064,0.064,0.064,0.064,10000,0.064
2009-07-16,0.055,0.06,0.055,0.06,214100,0.06
2009-07-15,0.05,0.05,0.05,0.05,000,0.05
2009-07-14,0.05,0.05,0.05,0.05,000,0.05
2009-07-13,0.05,0.05,0.05,0.05,60000,0.05
2009-07-10,0.05,0.05,0.05,0.05,000,0.05
2009-07-09,0.05,0.05,0.05,0.05,000,0.05
2009-07-08,0.05,0.05,0.05,0.05,90000,0.05
2009-07-07,0.045,0.045,0.045,0.045,000,0.045
2009-07-06,0.045,0.045,0.045,0.045,10000,0.045
2009-07-03,0.064,0.064,0.064,0.064,000,0.064
2009-07-02,0.064,0.064,0.064,0.064,000,0.064
2009-07-01,0.064,0.064,0.064,0.064,000,0.064
2009-06-30,0.064,0.064,0.064,0.064,000,0.064
2009-06-29,0.064,0.064,0.064,0.064,000,0.064
2009-06-26,0.064,0.064,0.064,0.064,000,0.064
2009-06-25,0.064,0.064,0.064,0.064,000,0.064
2009-06-24,0.064,0.064,0.064,0.064,000,0.064
2009-06-23,0.064,0.064,0.064,0.064,000,0.064
2009-06-22,0.064,0.064,0.064,0.064,000,0.064
2009-06-19,0.064,0.064,0.064,0.064,000,0.064
2009-06-18,0.064,0.064,0.064,0.064,000,0.064
2009-06-17,0.064,0.064,0.064,0.064,295000,0.064
2009-06-16,0.061,0.063,0.061,0.063,350000,0.063
2009-06-15,0.06,0.06,0.05,0.05,000,0.05
2009-06-12,0.06,0.06,0.049,0.049,000,0.049
2009-06-11,0.049,0.049,0.049,0.049,19000,0.049
2009-06-10,0.053,0.053,0.053,0.053,000,0.053
2009-06-09,0.053,0.053,0.053,0.053,10000,0.053
2009-06-05,0.06,0.06,0.049,0.049,000,0.049
2009-06-04,0.053,0.053,0.049,0.049,100000,0.049
2009-06-03,0.052,0.052,0.052,0.052,000,0.052
2009-06-02,0.047,0.052,0.047,0.052,331000,0.052
2009-06-01,0.041,0.046,0.041,0.046,498100,0.046
2009-05-29,0.04,0.04,0.039,0.039,000,0.039
2009-05-28,0.039,0.039,0.038,0.038,167800,0.038
2009-05-27,0.039,0.039,0.039,0.039,10000,0.039
2009-05-26,0.039,0.039,0.039,0.039,62200,0.039
2009-05-25,0.04,0.04,0.039,0.039,000,0.039
2009-05-22,0.04,0.04,0.04,0.04,000,0.04
2009-05-21,0.04,0.04,0.04,0.04,000,0.04
2009-05-20,0.04,0.04,0.04,0.04,000,0.04
2009-05-19,0.04,0.04,0.04,0.04,120000,0.04
2009-05-18,0.048,0.048,0.048,0.048,000,0.048
2009-05-15,0.048,0.048,0.048,0.048,000,0.048
2009-05-14,0.038,0.048,0.038,0.048,105000,0.048
2009-05-13,0.037,0.037,0.037,0.037,220000,0.037
2009-05-12,0.045,0.045,0.04,0.04,000,0.04
2009-05-11,0.045,0.045,0.04,0.04,000,0.04
2009-05-08,0.04,0.04,0.04,0.04,25000,0.04
2009-05-07,0.04,0.04,0.04,0.04,500000,0.04
2009-05-06,0.048,0.048,0.04,0.04,000,0.04
2009-05-05,0.04,0.04,0.04,0.04,68800,0.04
2009-05-04,0.037,0.037,0.037,0.037,150300,0.037
2009-05-01,0.04,0.04,0.04,0.04,000,0.04
2009-04-30,0.04,0.04,0.04,0.04,000,0.04
2009-04-29,0.04,0.04,0.04,0.04,000,0.04
2009-04-28,0.04,0.04,0.04,0.04,000,0.04
2009-04-27,0.04,0.04,0.04,0.04,25000,0.04
2009-04-24,0.048,0.048,0.048,0.048,000,0.048
2009-04-23,0.048,0.048,0.048,0.048,000,0.048
2009-04-22,0.048,0.048,0.048,0.048,000,0.048
2009-04-21,0.048,0.048,0.048,0.048,000,0.048
2009-04-20,0.048,0.048,0.048,0.048,000,0.048
2009-04-17,0.048,0.048,0.048,0.048,000,0.048
2009-04-16,0.048,0.048,0.048,0.048,000,0.048
2009-04-15,0.048,0.048,0.048,0.048,160000,0.048
2009-04-14,0.048,0.048,0.048,0.048,000,0.048
2009-04-09,0.048,0.048,0.048,0.048,000,0.048
2009-04-08,0.048,0.048,0.048,0.048,000,0.048
2009-04-07,0.048,0.048,0.048,0.048,14000,0.048
2009-04-06,0.045,0.048,0.045,0.048,205000,0.048
2009-04-03,0.048,0.048,0.048,0.048,000,0.048
2009-04-02,0.037,0.048,0.037,0.048,106800,0.048
2009-04-01,0.036,0.036,0.036,0.036,143100,0.036
2009-03-31,0.048,0.048,0.048,0.048,000,0.048
2009-03-30,0.048,0.048,0.048,0.048,000,0.048
2009-03-27,0.04,0.048,0.04,0.048,400800,0.048
2009-03-26,0.035,0.035,0.035,0.035,21000,0.035
2009-03-25,0.04,0.04,0.04,0.04,000,0.04
2009-03-24,0.04,0.04,0.04,0.04,000,0.04
2009-03-23,0.04,0.04,0.04,0.04,000,0.04
2009-03-20,0.035,0.04,0.035,0.04,60000,0.04
2009-03-19,0.065,0.065,0.035,0.035,000,0.035
2009-03-18,0.065,0.065,0.035,0.035,000,0.035
2009-03-17,0.065,0.065,0.035,0.035,000,0.035
2009-03-16,0.036,0.036,0.035,0.035,160000,0.035
2009-03-13,0.045,0.045,0.036,0.036,000,0.036
2009-03-12,0.045,0.045,0.036,0.036,000,0.036
2009-03-11,0.036,0.036,0.036,0.036,50000,0.036
2009-03-10,0.033,0.033,0.033,0.033,000,0.033
2009-03-09,0.033,0.033,0.033,0.033,000,0.033
2009-03-06,0.033,0.033,0.033,0.033,000,0.033
2009-03-05,0.033,0.033,0.033,0.033,000,0.033
2009-03-04,0.033,0.033,0.033,0.033,000,0.033
2009-03-03,0.033,0.033,0.033,0.033,16700,0.033
2009-03-02,0.045,0.045,0.033,0.033,000,0.033
2009-02-27,0.045,0.045,0.033,0.033,000,0.033
2009-02-26,0.045,0.045,0.033,0.033,000,0.033
2009-02-25,0.045,0.045,0.033,0.033,000,0.033
2009-02-24,0.045,0.045,0.033,0.033,000,0.033
2009-02-23,0.045,0.045,0.033,0.033,000,0.033
2009-02-20,0.045,0.045,0.033,0.033,000,0.033
2009-02-19,0.045,0.045,0.033,0.033,000,0.033
2009-02-18,0.045,0.045,0.033,0.033,000,0.033
2009-02-17,0.045,0.045,0.033,0.033,000,0.033
2009-02-16,0.045,0.045,0.033,0.033,000,0.033
2009-02-13,0.045,0.045,0.033,0.033,000,0.033
2009-02-12,0.033,0.033,0.033,0.033,000,0.033
2009-02-11,0.044,0.044,0.033,0.033,000,0.033
2009-02-10,0.044,0.044,0.033,0.033,000,0.033
2009-02-09,0.044,0.044,0.033,0.033,000,0.033
2009-02-06,0.044,0.044,0.033,0.033,000,0.033
2009-02-05,0.045,0.045,0.033,0.033,000,0.033
2009-02-04,0.033,0.033,0.033,0.033,000,0.033
2009-02-03,0.033,0.033,0.033,0.033,30000,0.033
2009-02-02,0.035,0.035,0.035,0.035,000,0.035
2009-01-30,0.035,0.035,0.035,0.035,000,0.035
2009-01-29,0.035,0.035,0.035,0.035,30000,0.035
2009-01-28,0.045,0.045,0.035,0.035,000,0.035
2009-01-27,0.035,0.035,0.035,0.035,000,0.035
2009-01-23,0.035,0.035,0.035,0.035,000,0.035
2009-01-22,0.035,0.035,0.035,0.035,100000,0.035
2009-01-21,0.045,0.045,0.045,0.045,000,0.045
2009-01-20,0.045,0.045,0.045,0.045,000,0.045
2009-01-19,0.045,0.045,0.045,0.045,000,0.045
2009-01-16,0.045,0.045,0.045,0.045,000,0.045
2009-01-15,0.045,0.045,0.045,0.045,000,0.045
2009-01-14,0.045,0.045,0.045,0.045,000,0.045
2009-01-13,0.045,0.045,0.045,0.045,000,0.045
2009-01-12,0.045,0.045,0.045,0.045,000,0.045
2009-01-09,0.045,0.045,0.045,0.045,000,0.045
2009-01-08,0.045,0.045,0.045,0.045,000,0.045
2009-01-07,0.065,0.065,0.045,0.045,000,0.045
2009-01-06,0.065,0.065,0.045,0.045,000,0.045
2009-01-05,0.05,0.05,0.045,0.045,250000,0.045
2009-01-02,0.07,0.07,0.07,0.07,000,0.07
2008-12-31,0.07,0.07,0.07,0.07,000,0.07
2008-12-30,0.07,0.07,0.07,0.07,000,0.07
2008-12-29,0.07,0.07,0.07,0.07,000,0.07
2008-12-24,0.07,0.07,0.07,0.07,000,0.07
2008-12-23,0.07,0.07,0.07,0.07,000,0.07
2008-12-22,0.07,0.07,0.07,0.07,000,0.07
2008-12-19,0.07,0.07,0.07,0.07,7200,0.07
2008-12-18,0.068,0.068,0.068,0.068,000,0.068
2008-12-17,0.068,0.068,0.068,0.068,15000,0.068
2008-12-16,0.068,0.068,0.068,0.068,35000,0.068
2008-12-15,0.07,0.07,0.07,0.07,000,0.07
2008-12-12,0.07,0.07,0.07,0.07,000,0.07
2008-12-11,0.07,0.07,0.07,0.07,000,0.07
2008-12-10,0.07,0.07,0.07,0.07,000,0.07
2008-12-09,0.07,0.07,0.07,0.07,000,0.07
2008-12-08,0.07,0.07,0.07,0.07,000,0.07
2008-12-05,0.07,0.07,0.07,0.07,000,0.07
2008-12-04,0.07,0.07,0.07,0.07,000,0.07
2008-12-03,0.07,0.07,0.07,0.07,000,0.07
2008-12-02,0.07,0.07,0.07,0.07,50000,0.07
2008-12-01,0.069,0.069,0.069,0.069,000,0.069
2008-11-28,0.069,0.069,0.069,0.069,80000,0.069
2008-11-27,0.055,0.055,0.055,0.055,000,0.055
2008-11-26,0.05,0.055,0.05,0.055,40000,0.055
2008-11-25,0.04,0.04,0.04,0.04,000,0.04
2008-11-24,0.04,0.04,0.04,0.04,000,0.04
2008-11-21,0.04,0.04,0.04,0.04,000,0.04
2008-11-20,0.04,0.04,0.04,0.04,000,0.04
2008-11-19,0.04,0.04,0.04,0.04,000,0.04
2008-11-18,0.04,0.04,0.04,0.04,000,0.04
2008-11-17,0.04,0.04,0.04,0.04,000,0.04
2008-11-14,0.04,0.04,0.04,0.04,000,0.04
2008-11-13,0.04,0.04,0.04,0.04,000,0.04
2008-11-12,0.04,0.04,0.04,0.04,000,0.04
2008-11-11,0.04,0.04,0.04,0.04,000,0.04
2008-11-10,0.04,0.04,0.04,0.04,25000,0.04
2008-11-07,0.05,0.05,0.05,0.05,000,0.05
2008-11-06,0.05,0.05,0.05,0.05,000,0.05
2008-11-05,0.05,0.05,0.05,0.05,000,0.05
2008-11-04,0.05,0.05,0.05,0.05,35000,0.05
2008-11-03,0.05,0.05,0.04,0.04,000,0.04
2008-10-31,0.05,0.05,0.04,0.04,000,0.04
2008-10-30,0.05,0.05,0.04,0.04,000,0.04
2008-10-29,0.05,0.05,0.04,0.04,000,0.04
2008-10-28,0.05,0.05,0.04,0.04,000,0.04
2008-10-27,0.059,0.059,0.04,0.04,000,0.04
2008-10-24,0.059,0.059,0.04,0.04,000,0.04
2008-10-23,0.04,0.04,0.04,0.04,195300,0.04
2008-10-22,0.045,0.045,0.045,0.045,000,0.045
2008-10-21,0.045,0.045,0.045,0.045,11500,0.045
2008-10-20,0.059,0.059,0.045,0.045,000,0.045
2008-10-17,0.05,0.05,0.045,0.045,000,0.045
2008-10-16,0.045,0.045,0.045,0.045,000,0.045
2008-10-15,0.045,0.045,0.045,0.045,49400,0.045
2008-10-14,0.04,0.04,0.04,0.04,81000,0.04
2008-10-13,0.06,0.06,0.06,0.06,000,0.06
2008-10-10,0.06,0.06,0.06,0.06,000,0.06
2008-10-09,0.06,0.06,0.06,0.06,000,0.06
2008-10-08,0.06,0.06,0.06,0.06,000,0.06
2008-10-07,0.06,0.06,0.06,0.06,000,0.06
2008-10-06,0.06,0.06,0.06,0.06,14100,0.06
2008-10-03,0.065,0.065,0.065,0.065,000,0.065
2008-10-02,0.065,0.065,0.065,0.065,000,0.065
2008-10-01,0.065,0.065,0.065,0.065,5000,0.065
2008-09-30,0.065,0.065,0.06,0.06,000,0.06
2008-09-29,0.07,0.07,0.06,0.06,165000,0.06
2008-09-26,0.08,0.08,0.07,0.07,000,0.07
2008-09-25,0.08,0.08,0.07,0.07,000,0.07
2008-09-24,0.075,0.075,0.07,0.07,100000,0.07
2008-09-23,0.07,0.07,0.07,0.07,000,0.07
2008-09-22,0.07,0.07,0.07,0.07,45300,0.07
2008-09-19,0.065,0.065,0.065,0.065,000,0.065
2008-09-18,0.065,0.065,0.065,0.065,000,0.065
2008-09-17,0.065,0.065,0.065,0.065,90000,0.065
2008-09-16,0.065,0.065,0.065,0.065,10000,0.065
2008-09-15,0.08,0.08,0.08,0.08,6700,0.08
2008-09-12,0.089,0.089,0.08,0.08,000,0.08
2008-09-11,0.089,0.089,0.08,0.08,000,0.08
2008-09-10,0.089,0.089,0.08,0.08,000,0.08
2008-09-09,0.089,0.089,0.08,0.08,000,0.08
2008-09-08,0.089,0.089,0.08,0.08,000,0.08
2008-09-05,0.08,0.08,0.08,0.08,6500,0.08
2008-09-04,0.08,0.08,0.08,0.08,150000,0.08
2008-09-03,0.08,0.08,0.08,0.08,150000,0.08
2008-09-02,0.094,0.094,0.08,0.08,000,0.08
2008-09-01,0.08,0.08,0.08,0.08,5000,0.08
2008-08-29,0.094,0.094,0.08,0.08,000,0.08
2008-08-28,0.08,0.08,0.08,0.08,100000,0.08
2008-08-27,0.08,0.08,0.08,0.08,150000,0.08
2008-08-26,0.081,0.081,0.08,0.08,185000,0.08
2008-08-25,0.08,0.08,0.08,0.08,16700,0.08
2008-08-22,0.10,0.10,0.08,0.08,000,0.08
2008-08-21,0.08,0.08,0.08,0.08,000,0.08
2008-08-20,0.08,0.08,0.08,0.08,000,0.08
2008-08-19,0.08,0.08,0.08,0.08,000,0.08
2008-08-18,0.08,0.08,0.08,0.08,000,0.08
2008-08-15,0.08,0.08,0.08,0.08,103400,0.08
2008-08-14,0.08,0.08,0.08,0.08,103400,0.08
2008-08-13,0.09,0.09,0.09,0.09,000,0.09
2008-08-12,0.09,0.09,0.09,0.09,000,0.09
2008-08-11,0.09,0.09,0.09,0.09,11300,0.09
2008-08-08,0.099,0.099,0.09,0.09,000,0.09
2008-08-07,0.099,0.099,0.09,0.09,000,0.09
2008-08-06,0.099,0.099,0.09,0.09,000,0.09
2008-08-05,0.09,0.09,0.09,0.09,150000,0.09
2008-08-04,0.094,0.094,0.09,0.09,000,0.09
2008-08-01,0.095,0.095,0.09,0.09,135000,0.09
2008-07-31,0.09,0.09,0.09,0.09,250000,0.09
2008-07-30,0.085,0.09,0.085,0.09,400000,0.09
2008-07-29,0.095,0.095,0.08,0.08,000,0.08
2008-07-28,0.095,0.095,0.08,0.08,000,0.08
2008-07-25,0.08,0.08,0.08,0.08,94400,0.08
2008-07-24,0.072,0.072,0.072,0.072,000,0.072
2008-07-23,0.075,0.075,0.072,0.072,194400,0.072
2008-07-22,0.087,0.087,0.087,0.087,000,0.087
2008-07-21,0.09,0.09,0.087,0.087,76300,0.087
2008-07-18,0.095,0.095,0.095,0.095,40000,0.095
2008-07-17,0.095,0.095,0.09,0.09,000,0.09
2008-07-16,0.095,0.095,0.089,0.089,000,0.089
2008-07-15,0.09,0.09,0.09,0.09,100000,0.09
2008-07-14,0.10,0.10,0.09,0.09,000,0.09
2008-07-11,0.10,0.10,0.089,0.089,000,0.089
2008-07-10,0.089,0.089,0.089,0.089,95000,0.089
2008-07-09,0.10,0.10,0.10,0.10,8300,0.10
2008-07-08,0.10,0.10,0.10,0.10,10000,0.10
2008-07-07,0.105,0.105,0.105,0.105,000,0.105
2008-07-04,0.10,0.105,0.10,0.105,25000,0.105
2008-07-03,0.10,0.10,0.10,0.10,000,0.10
2008-07-02,0.10,0.10,0.10,0.10,1200,0.10
2008-07-01,0.09,0.09,0.09,0.09,000,0.09
2008-06-30,0.089,0.09,0.088,0.09,88900,0.09
2008-06-27,0.105,0.105,0.105,0.105,50000,0.105
2008-06-26,0.105,0.105,0.105,0.105,1000000,0.105
2008-06-25,0.115,0.115,0.10,0.10,000,0.10
2008-06-24,0.10,0.115,0.10,0.10,625000,0.10
2008-06-23,0.10,0.10,0.10,0.10,500000,0.10
2008-06-20,0.097,0.097,0.087,0.087,50000,0.087
2008-06-19,0.11,0.11,0.11,0.11,2500,0.11
2008-06-18,0.11,0.11,0.11,0.11,15000,0.11
2008-06-17,0.105,0.105,0.10,0.10,40000,0.10
2008-06-16,0.11,0.11,0.11,0.11,000,0.11
2008-06-13,0.11,0.11,0.11,0.11,000,0.11
2008-06-12,0.11,0.11,0.11,0.11,000,0.11
2008-06-11,0.11,0.11,0.11,0.11,000,0.11
2008-06-10,0.11,0.11,0.11,0.11,000,0.11
2008-06-06,0.11,0.11,0.11,0.11,2500,0.11
2008-06-05,0.097,0.11,0.097,0.11,243000,0.11
2008-06-04,0.092,0.092,0.092,0.092,000,0.092
2008-06-03,0.092,0.092,0.092,0.092,28000,0.092
2008-06-02,0.105,0.105,0.09,0.09,000,0.09
2008-05-30,0.10,0.10,0.09,0.09,100000,0.09
2008-05-29,0.10,0.10,0.10,0.10,24000,0.10
2008-05-28,0.095,0.095,0.095,0.095,000,0.095
2008-05-27,0.095,0.095,0.095,0.095,000,0.095
2008-05-26,0.095,0.095,0.095,0.095,000,0.095
2008-05-23,0.095,0.095,0.095,0.095,55000,0.095
2008-05-22,0.10,0.10,0.10,0.10,000,0.10
2008-05-21,0.10,0.105,0.10,0.10,100000,0.10
2008-05-20,0.10,0.10,0.09,0.09,50000,0.09
2008-05-19,0.10,0.10,0.10,0.10,100000,0.10
2008-05-16,0.09,0.09,0.09,0.09,5700,0.09
2008-05-15,0.11,0.11,0.09,0.09,190000,0.09
2008-05-14,0.11,0.11,0.10,0.10,000,0.10
2008-05-13,0.10,0.10,0.10,0.10,40000,0.10
2008-05-12,0.105,0.105,0.091,0.091,100000,0.091
2008-05-09,0.10,0.10,0.10,0.10,000,0.10
2008-05-08,0.10,0.10,0.093,0.10,334600,0.10
2008-05-07,0.125,0.125,0.125,0.125,000,0.125
2008-05-06,0.125,0.125,0.125,0.125,000,0.125
2008-05-05,0.115,0.125,0.115,0.125,200000,0.125
2008-05-02,0.10,0.10,0.10,0.10,50000,0.10
2008-05-01,0.12,0.12,0.10,0.10,000,0.10
2008-04-30,0.12,0.12,0.10,0.10,000,0.10
2008-04-29,0.10,0.10,0.10,0.10,300000,0.10
2008-04-28,0.115,0.115,0.10,0.10,280000,0.10
2008-04-24,0.13,0.13,0.13,0.13,33000,0.13
2008-04-23,0.13,0.13,0.13,0.13,000,0.13
2008-04-22,0.13,0.13,0.13,0.13,30000,0.13
2008-04-21,0.11,0.115,0.11,0.115,100400,0.115
2008-04-18,0.11,0.11,0.11,0.11,000,0.11
2008-04-17,0.11,0.11,0.11,0.11,000,0.11
2008-04-16,0.11,0.11,0.11,0.11,27200,0.11
2008-04-15,0.11,0.11,0.10,0.10,000,0.10
2008-04-14,0.10,0.10,0.10,0.10,25100,0.10
2008-04-11,0.10,0.10,0.10,0.10,75000,0.10
2008-04-10,0.087,0.088,0.087,0.088,637500,0.088
2008-04-09,0.088,0.088,0.088,0.088,104900,0.088
2008-04-08,0.088,0.088,0.088,0.088,5100,0.088
2008-04-07,0.10,0.10,0.10,0.10,11000,0.10
2008-04-04,0.11,0.11,0.11,0.11,000,0.11
2008-04-03,0.11,0.11,0.11,0.11,6000,0.11
2008-04-02,0.115,0.115,0.115,0.115,20000,0.115
2008-04-01,0.095,0.095,0.095,0.095,000,0.095
2008-03-31,0.095,0.095,0.095,0.095,000,0.095
2008-03-28,0.095,0.095,0.095,0.095,5500,0.095
2008-03-27,0.10,0.10,0.095,0.095,70000,0.095
2008-03-26,0.12,0.12,0.10,0.10,71100,0.10
2008-03-25,0.12,0.12,0.12,0.12,70000,0.12
2008-03-20,0.12,0.12,0.10,0.10,000,0.10
2008-03-19,0.10,0.10,0.10,0.10,20000,0.10
2008-03-18,0.10,0.10,0.10,0.10,157500,0.10
2008-03-17,0.13,0.13,0.13,0.13,000,0.13
2008-03-14,0.13,0.13,0.13,0.13,000,0.13
2008-03-13,0.13,0.13,0.13,0.13,000,0.13
2008-03-12,0.125,0.14,0.125,0.13,286500,0.13
2008-03-11,0.13,0.13,0.12,0.12,59000,0.12
2008-03-10,0.14,0.14,0.14,0.14,000,0.14
2008-03-07,0.14,0.14,0.14,0.14,000,0.14
2008-03-06,0.14,0.14,0.14,0.14,000,0.14
2008-03-05,0.14,0.14,0.14,0.14,48000,0.14
2008-03-04,0.16,0.16,0.16,0.16,3400,0.16
2008-03-03,0.17,0.17,0.17,0.17,300,0.17
2008-02-29,0.17,0.175,0.16,0.175,115000,0.175
2008-02-28,0.175,0.175,0.15,0.175,47700,0.175
2008-02-27,0.16,0.165,0.16,0.165,199400,0.165
2008-02-26,0.17,0.17,0.16,0.16,400,0.16
2008-02-25,0.18,0.18,0.18,0.18,1700,0.18
2008-02-22,0.12,0.185,0.115,0.185,350700,0.185
2008-02-21,0.13,0.14,0.13,0.14,7800,0.14
2008-02-20,0.15,0.15,0.13,0.13,11000,0.13
2008-02-19,0.15,0.15,0.145,0.145,000,0.145
2008-02-18,0.145,0.145,0.14,0.14,000,0.14
2008-02-15,0.135,0.15,0.135,0.145,25000,0.145
2008-02-14,0.15,0.15,0.145,0.145,106000,0.145
2008-02-13,0.15,0.15,0.145,0.145,65300,0.145
2008-02-12,0.16,0.16,0.15,0.15,42500,0.15
2008-02-11,0.165,0.165,0.165,0.165,15000,0.165
2008-02-08,0.16,0.16,0.16,0.16,120000,0.16
2008-02-07,0.17,0.17,0.165,0.165,118000,0.165
2008-02-06,0.17,0.17,0.17,0.17,80000,0.17
2008-02-05,0.17,0.17,0.17,0.17,7000,0.17
2008-02-04,0.165,0.165,0.165,0.165,12000,0.165
2008-02-01,0.165,0.165,0.165,0.165,2300,0.165
2008-01-31,0.16,0.165,0.15,0.165,35200,0.165
2008-01-30,0.15,0.17,0.15,0.17,17300,0.17
2008-01-29,0.15,0.15,0.15,0.15,80900,0.15
2008-01-25,0.17,0.17,0.165,0.165,21400,0.165
2008-01-24,0.15,0.165,0.15,0.165,15400,0.165
2008-01-23,0.16,0.17,0.16,0.17,97900,0.17
2008-01-22,0.15,0.15,0.145,0.15,40900,0.15
2008-01-21,0.17,0.17,0.165,0.165,12000,0.165
2008-01-18,0.175,0.175,0.17,0.17,000,0.17
2008-01-17,0.175,0.175,0.17,0.175,37100,0.175
2008-01-16,0.175,0.175,0.175,0.175,10000,0.175
2008-01-15,0.18,0.18,0.18,0.18,41500,0.18
2008-01-14,0.19,0.19,0.19,0.19,000,0.19
2008-01-11,0.19,0.19,0.165,0.19,228600,0.19
2008-01-10,0.18,0.19,0.18,0.19,95800,0.19
2008-01-09,0.18,0.18,0.18,0.18,27300,0.18
2008-01-08,0.19,0.19,0.18,0.18,78400,0.18
2008-01-07,0.195,0.20,0.18,0.18,155400,0.18
2008-01-04,0.20,0.20,0.20,0.20,80600,0.20
2008-01-03,0.20,0.20,0.20,0.20,25600,0.20
2008-01-02,0.205,0.205,0.195,0.195,111000,0.195
2007-12-31,0.20,0.205,0.20,0.20,54400,0.20
2007-12-28,0.20,0.20,0.20,0.20,75000,0.20
2007-12-27,0.19,0.20,0.19,0.195,298000,0.195
2007-12-24,0.185,0.19,0.185,0.19,38000,0.19
2007-12-21,0.19,0.19,0.18,0.18,52700,0.18
2007-12-20,0.185,0.185,0.18,0.18,64800,0.18
2007-12-19,0.185,0.19,0.185,0.185,53800,0.185
2007-12-18,0.19,0.19,0.185,0.185,155200,0.185
2007-12-17,0.195,0.20,0.19,0.19,510600,0.19
2007-12-14,0.19,0.19,0.19,0.19,209400,0.19
2007-12-13,0.20,0.20,0.19,0.19,113000,0.19
2007-12-12,0.20,0.20,0.19,0.20,298000,0.20
2007-12-11,0.20,0.23,0.20,0.21,1607500,0.21
2007-12-07,0.20,0.20,0.20,0.20,000,0.20
