Date,Open,High,Low,Close,Volume,Adj Close
2017-01-10,0.015,0.015,0.015,0.015,500000,0.015
2017-01-09,0.016,0.016,0.016,0.016,000,0.016
2017-01-06,0.016,0.016,0.016,0.016,000,0.016
2017-01-05,0.016,0.016,0.016,0.016,000,0.016
2017-01-04,0.016,0.016,0.016,0.016,000,0.016
2017-01-03,0.016,0.016,0.016,0.016,000,0.016
2017-01-02,0.016,0.016,0.016,0.016,000,0.016
2016-12-30,0.016,0.016,0.016,0.016,123700,0.016
2016-12-29,0.016,0.016,0.016,0.016,9405200,0.016
2016-12-28,0.015,0.015,0.015,0.015,5249800,0.015
2016-12-27,0.016,0.016,0.016,0.016,000,0.016
2016-12-26,0.016,0.016,0.016,0.016,000,0.016
2016-12-23,0.016,0.016,0.016,0.016,000,0.016
2016-12-22,0.016,0.016,0.016,0.016,397200,0.016
2016-12-21,0.016,0.016,0.016,0.016,9227700,0.016
2016-12-20,0.015,0.016,0.015,0.016,5697800,0.016
2016-12-19,0.017,0.017,0.017,0.017,000,0.017
2016-12-16,0.014,0.017,0.014,0.017,18288100,0.017
2016-12-15,0.016,0.017,0.016,0.017,4687700,0.017
2016-12-14,0.015,0.017,0.014,0.017,2011600,0.017
2016-12-13,0.017,0.017,0.017,0.017,000,0.017
2016-12-12,0.017,0.017,0.016,0.017,5000000,0.017
2016-12-09,0.016,0.017,0.016,0.017,3000000,0.017
2016-12-08,0.016,0.016,0.016,0.016,000,0.016
2016-12-07,0.016,0.016,0.016,0.016,1000000,0.016
2016-12-06,0.016,0.016,0.016,0.016,2000000,0.016
2016-12-05,0.014,0.017,0.014,0.017,6500000,0.017
2016-12-02,0.017,0.017,0.017,0.017,000,0.017
2016-12-01,0.017,0.017,0.017,0.017,000,0.017
2016-11-30,0.017,0.017,0.017,0.017,3000000,0.017
2016-11-29,0.016,0.017,0.015,0.015,4037900,0.015
2016-11-28,0.017,0.017,0.017,0.017,000,0.017
2016-11-25,0.017,0.017,0.017,0.017,000,0.017
2016-11-24,0.017,0.017,0.017,0.017,000,0.017
2016-11-23,0.016,0.017,0.016,0.017,4198700,0.017
2016-11-22,0.015,0.016,0.015,0.016,1155000,0.016
2016-11-21,0.017,0.017,0.017,0.017,000,0.017
2016-11-18,0.017,0.017,0.017,0.017,000,0.017
2016-11-17,0.017,0.017,0.017,0.017,000,0.017
2016-11-16,0.017,0.017,0.017,0.017,000,0.017
2016-11-15,0.017,0.017,0.017,0.017,2000000,0.017
2016-11-14,0.017,0.017,0.017,0.017,000,0.017
2016-11-11,0.017,0.017,0.017,0.017,1886200,0.017
2016-11-10,0.017,0.018,0.017,0.017,3500000,0.017
2016-11-09,0.015,0.017,0.015,0.017,4785700,0.017
2016-11-08,0.015,0.015,0.014,0.014,3275400,0.014
2016-11-07,0.017,0.018,0.016,0.017,11363300,0.017
2016-11-04,0.017,0.018,0.016,0.018,6120000,0.018
2016-11-03,0.018,0.018,0.018,0.018,000,0.018
2016-11-02,0.018,0.018,0.018,0.018,000,0.018
2016-11-01,0.016,0.018,0.016,0.018,3840300,0.018
2016-10-31,0.018,0.018,0.018,0.018,000,0.018
2016-10-28,0.016,0.018,0.015,0.018,4359700,0.018
2016-10-27,0.017,0.018,0.016,0.016,3347800,0.016
2016-10-26,0.015,0.018,0.015,0.018,2119700,0.018
2016-10-25,0.016,0.017,0.014,0.016,8144300,0.016
2016-10-24,0.018,0.018,0.018,0.018,000,0.018
2016-10-21,0.018,0.018,0.017,0.018,3384000,0.018
2016-10-20,0.016,0.019,0.016,0.018,8678000,0.018
2016-10-19,0.014,0.017,0.014,0.0165,4568700,0.0165
2016-10-18,0.015,0.015,0.013,0.014,1883800,0.014
2016-10-17,0.014,0.014,0.014,0.014,453900,0.014
2016-10-14,0.015,0.015,0.015,0.015,000,0.015
2016-10-13,0.015,0.015,0.015,0.015,000,0.015
2016-10-12,0.014,0.015,0.013,0.015,1303400,0.015
2016-10-11,0.014,0.015,0.013,0.015,3534600,0.015
2016-10-10,0.013,0.013,0.013,0.013,175800,0.013
2016-10-07,0.013,0.013,0.012,0.013,2234800,0.013
2016-10-06,0.014,0.015,0.013,0.013,1974600,0.013
2016-10-05,0.014,0.014,0.014,0.014,000,0.014
2016-10-04,0.014,0.014,0.014,0.014,63500,0.014
2016-10-03,0.015,0.015,0.015,0.015,450000,0.015
2016-09-30,0.016,0.016,0.015,0.015,250000,0.015
2016-09-29,0.015,0.015,0.015,0.015,1557200,0.015
2016-09-28,0.015,0.015,0.015,0.015,466600,0.015
2016-09-27,0.015,0.015,0.015,0.015,000,0.015
2016-09-26,0.015,0.015,0.015,0.015,250000,0.015
2016-09-23,0.015,0.015,0.015,0.015,146200,0.015
2016-09-22,0.015,0.015,0.015,0.015,1733000,0.015
2016-09-21,0.015,0.015,0.015,0.015,5190400,0.015
2016-09-20,0.015,0.015,0.014,0.015,4385000,0.015
2016-09-19,0.015,0.015,0.015,0.015,000,0.015
2016-09-16,0.015,0.016,0.015,0.016,989100,0.016
2016-09-15,0.015,0.015,0.014,0.014,1148400,0.014
2016-09-14,0.014,0.015,0.014,0.014,1075500,0.014
2016-09-13,0.015,0.016,0.015,0.015,1571600,0.015
2016-09-12,0.014,0.015,0.013,0.014,8128400,0.014
2016-09-09,0.013,0.013,0.013,0.013,000,0.013
2016-09-08,0.013,0.013,0.013,0.013,000,0.013
2016-09-07,0.013,0.013,0.013,0.013,1260000,0.013
2016-09-06,0.015,0.015,0.015,0.015,730000,0.015
2016-09-05,0.013,0.017,0.013,0.016,3788700,0.016
2016-09-02,0.013,0.013,0.013,0.013,000,0.013
2016-09-01,0.013,0.013,0.013,0.013,000,0.013
2016-08-31,0.014,0.014,0.013,0.013,1361700,0.013
2016-08-30,0.013,0.013,0.013,0.013,000,0.013
2016-08-29,0.013,0.013,0.013,0.013,125000,0.013
2016-08-26,0.014,0.014,0.014,0.014,498800,0.014
2016-08-25,0.016,0.016,0.014,0.014,1698000,0.014
2016-08-24,0.016,0.016,0.016,0.016,293500,0.016
2016-08-23,0.017,0.017,0.017,0.017,000,0.017
2016-08-22,0.017,0.017,0.017,0.017,000,0.017
2016-08-19,0.017,0.017,0.017,0.017,300000,0.017
2016-08-18,0.016,0.016,0.014,0.016,2699800,0.016
2016-08-17,0.018,0.018,0.018,0.018,000,0.018
2016-08-16,0.018,0.018,0.018,0.018,000,0.018
2016-08-15,0.016,0.018,0.016,0.018,2806200,0.018
2016-08-12,0.016,0.016,0.016,0.016,3625000,0.016
2016-08-11,0.016,0.017,0.015,0.015,8159000,0.015
2016-08-10,0.016,0.016,0.014,0.015,3417500,0.015
2016-08-09,0.014,0.016,0.014,0.016,2526600,0.016
2016-08-08,0.014,0.014,0.014,0.014,500000,0.014
2016-08-05,0.015,0.015,0.015,0.015,200000,0.015
2016-08-04,0.015,0.015,0.015,0.015,000,0.015
2016-08-03,0.015,0.015,0.015,0.015,000,0.015
2016-08-02,0.015,0.015,0.015,0.015,33300,0.015
2016-08-01,0.014,0.014,0.014,0.014,000,0.014
2016-07-29,0.014,0.014,0.014,0.014,240000,0.014
2016-07-28,0.016,0.016,0.016,0.016,000,0.016
2016-07-27,0.016,0.016,0.016,0.016,000,0.016
2016-07-26,0.016,0.016,0.016,0.016,000,0.016
2016-07-25,0.016,0.016,0.016,0.016,000,0.016
2016-07-22,0.016,0.016,0.016,0.016,138300,0.016
2016-07-21,0.016,0.016,0.016,0.016,38500,0.016
2016-07-20,0.013,0.013,0.013,0.013,162700,0.013
2016-07-19,0.013,0.013,0.013,0.013,000,0.013
2016-07-18,0.013,0.013,0.013,0.013,62700,0.013
2016-07-15,0.014,0.014,0.014,0.014,35000,0.014
2016-07-14,0.014,0.014,0.014,0.014,000,0.014
2016-07-13,0.017,0.017,0.013,0.014,2383800,0.014
2016-07-12,0.015,0.018,0.015,0.016,7830000,0.016
2016-07-11,0.015,0.016,0.015,0.015,2204800,0.015
2016-07-08,0.015,0.016,0.013,0.014,4625500,0.014
2016-07-07,0.012,0.014,0.012,0.014,5688500,0.014
2016-07-06,0.011,0.011,0.011,0.011,000,0.011
2016-07-05,0.011,0.011,0.011,0.011,000,0.011
2016-07-04,0.012,0.012,0.011,0.011,100000,0.011
2016-07-01,0.011,0.011,0.011,0.011,750000,0.011
2016-06-30,0.01,0.01,0.01,0.01,113900,0.01
2016-06-29,0.011,0.011,0.011,0.011,000,0.011
2016-06-28,0.011,0.011,0.011,0.011,000,0.011
2016-06-27,0.011,0.011,0.011,0.011,000,0.011
2016-06-24,0.013,0.013,0.01,0.011,2350000,0.011
2016-06-23,0.011,0.011,0.011,0.011,650000,0.011
2016-06-22,0.011,0.011,0.011,0.011,000,0.011
2016-06-21,0.011,0.011,0.011,0.011,600000,0.011
2016-06-20,0.011,0.011,0.011,0.011,000,0.011
2016-06-17,0.011,0.011,0.011,0.011,88800,0.011
2016-06-16,0.011,0.011,0.01,0.01,371300,0.01
2016-06-15,0.012,0.012,0.012,0.012,000,0.012
2016-06-14,0.012,0.012,0.012,0.012,000,0.012
2016-06-13,0.012,0.012,0.012,0.012,000,0.012
2016-06-10,0.012,0.012,0.012,0.012,000,0.012
2016-06-09,0.012,0.012,0.012,0.012,41800,0.012
2016-06-08,0.01,0.013,0.01,0.012,1289500,0.012
2016-06-07,0.009,0.009,0.009,0.009,000,0.009
2016-06-06,0.009,0.009,0.009,0.009,000,0.009
2016-06-03,0.009,0.009,0.009,0.009,000,0.009
2016-06-02,0.009,0.009,0.009,0.009,000,0.009
2016-06-01,0.009,0.009,0.009,0.009,1300000,0.009
2016-05-31,0.009,0.009,0.009,0.009,000,0.009
2016-05-30,0.009,0.009,0.009,0.009,000,0.009
2016-05-27,0.009,0.009,0.009,0.009,000,0.009
2016-05-26,0.009,0.009,0.009,0.009,000,0.009
2016-05-25,0.009,0.009,0.009,0.009,000,0.009
2016-05-24,0.009,0.009,0.009,0.009,000,0.009
2016-05-23,0.01,0.01,0.009,0.009,200000,0.009
2016-05-20,0.01,0.01,0.01,0.01,175000,0.01
2016-05-19,0.01,0.01,0.01,0.01,000,0.01
2016-05-18,0.01,0.01,0.01,0.01,000,0.01
2016-05-17,0.01,0.01,0.01,0.01,000,0.01
2016-05-16,0.01,0.01,0.01,0.01,000,0.01
2016-05-13,0.01,0.01,0.01,0.01,1000000,0.01
2016-05-12,0.01,0.01,0.01,0.01,000,0.01
2016-05-11,0.011,0.011,0.01,0.01,350000,0.01
2016-05-10,0.011,0.011,0.009,0.01,1969000,0.01
2016-05-09,0.012,0.012,0.012,0.012,000,0.012
2016-05-06,0.012,0.012,0.012,0.012,000,0.012
2016-05-05,0.012,0.012,0.012,0.012,000,0.012
2016-05-04,0.012,0.012,0.012,0.012,5000,0.012
2016-05-03,0.012,0.012,0.012,0.012,40000,0.012
2016-05-02,0.012,0.012,0.012,0.012,500000,0.012
2016-04-29,0.012,0.012,0.012,0.012,000,0.012
2016-04-28,0.012,0.012,0.012,0.012,000,0.012
2016-04-27,0.012,0.012,0.012,0.012,000,0.012
2016-04-26,0.012,0.012,0.012,0.012,000,0.012
2016-04-25,0.012,0.012,0.012,0.012,000,0.012
2016-04-22,0.012,0.012,0.012,0.012,100000,0.012
2016-04-21,0.013,0.013,0.011,0.011,940000,0.011
2016-04-20,0.011,0.011,0.011,0.011,000,0.011
2016-04-19,0.011,0.011,0.011,0.011,680000,0.011
2016-04-18,0.011,0.011,0.011,0.011,58000,0.011
2016-04-15,0.011,0.011,0.011,0.011,000,0.011
2016-04-14,0.011,0.011,0.011,0.011,000,0.011
2016-04-13,0.011,0.011,0.011,0.011,000,0.011
2016-04-12,0.012,0.012,0.011,0.011,617200,0.011
2016-04-11,0.011,0.011,0.01,0.01,201000,0.01
2016-04-08,0.013,0.013,0.013,0.013,000,0.013
2016-04-07,0.013,0.013,0.013,0.013,50000,0.013
2016-04-06,0.014,0.014,0.014,0.014,200000,0.014
2016-04-05,0.013,0.014,0.013,0.013,1250000,0.013
2016-04-04,0.013,0.013,0.013,0.013,000,0.013
2016-04-01,0.013,0.013,0.013,0.013,000,0.013
2016-03-31,0.013,0.013,0.013,0.013,000,0.013
2016-03-30,0.013,0.013,0.013,0.013,000,0.013
2016-03-29,0.013,0.013,0.013,0.013,000,0.013
2016-03-28,0.013,0.013,0.013,0.013,000,0.013
2016-03-25,0.013,0.013,0.013,0.013,000,0.013
2016-03-24,0.013,0.013,0.013,0.013,100000,0.013
2016-03-23,0.012,0.012,0.012,0.012,000,0.012
2016-03-22,0.012,0.012,0.012,0.012,000,0.012
2016-03-21,0.012,0.012,0.012,0.012,42000,0.012
2016-03-18,0.012,0.012,0.012,0.012,000,0.012
2016-03-17,0.012,0.012,0.012,0.012,000,0.012
2016-03-16,0.012,0.012,0.012,0.012,000,0.012
2016-03-15,0.012,0.012,0.012,0.012,36000,0.012
2016-03-14,0.013,0.013,0.013,0.013,000,0.013
2016-03-11,0.013,0.013,0.013,0.013,000,0.013
2016-03-10,0.013,0.013,0.013,0.013,000,0.013
2016-03-09,0.013,0.013,0.013,0.013,125000,0.013
2016-03-08,0.013,0.013,0.013,0.013,000,0.013
2016-03-07,0.013,0.013,0.013,0.013,000,0.013
2016-03-04,0.013,0.013,0.013,0.013,1000000,0.013
2016-03-03,0.013,0.013,0.013,0.013,979700,0.013
2016-03-02,0.013,0.013,0.013,0.013,1000000,0.013
2016-03-01,0.013,0.014,0.013,0.014,1000000,0.014
2016-02-29,0.015,0.017,0.015,0.017,68000,0.017
2016-02-26,0.012,0.017,0.012,0.017,250000,0.017
2016-02-25,0.012,0.012,0.012,0.012,500000,0.012
2016-02-24,0.011,0.012,0.011,0.012,616000,0.012
2016-02-23,0.01,0.01,0.01,0.01,000,0.01
2016-02-22,0.01,0.01,0.01,0.01,20000,0.01
2016-02-19,0.012,0.012,0.012,0.012,000,0.012
2016-02-18,0.012,0.012,0.012,0.012,100000,0.012
2016-02-17,0.012,0.012,0.012,0.012,000,0.012
2016-02-16,0.012,0.012,0.012,0.012,4100,0.012
2016-02-15,0.011,0.012,0.011,0.012,575000,0.012
2016-02-12,0.011,0.011,0.011,0.011,175000,0.011
2016-02-11,0.01,0.011,0.01,0.011,131700,0.011
2016-02-10,0.011,0.012,0.011,0.012,522400,0.012
2016-02-09,0.014,0.014,0.01,0.011,817700,0.011
2016-02-08,0.013,0.014,0.013,0.014,913000,0.014
2016-02-05,0.016,0.016,0.016,0.016,150000,0.016
2016-02-04,0.015,0.015,0.015,0.015,241000,0.015
2016-02-03,0.013,0.014,0.013,0.014,828400,0.014
2016-02-02,0.011,0.012,0.011,0.012,1132000,0.012
2016-02-01,0.011,0.011,0.011,0.011,821000,0.011
2016-01-29,0.01,0.012,0.01,0.012,2456800,0.012
2016-01-28,0.01,0.01,0.01,0.01,630000,0.01
2016-01-27,0.011,0.011,0.011,0.011,000,0.011
2016-01-26,0.011,0.011,0.011,0.011,000,0.011
2016-01-25,0.011,0.011,0.011,0.011,000,0.011
2016-01-22,0.011,0.011,0.011,0.011,819000,0.011
2016-01-21,0.014,0.014,0.014,0.014,40000,0.014
2016-01-20,0.014,0.014,0.014,0.014,000,0.014
2016-01-19,0.014,0.014,0.014,0.014,000,0.014
2016-01-18,0.014,0.014,0.014,0.014,000,0.014
2016-01-15,0.013,0.014,0.013,0.014,57500,0.014
2016-01-14,0.013,0.013,0.013,0.013,78400,0.013
2016-01-13,0.014,0.014,0.014,0.014,200000,0.014
2016-01-12,0.013,0.013,0.013,0.013,000,0.013
2016-01-11,0.013,0.013,0.013,0.013,000,0.013
2016-01-08,0.014,0.014,0.013,0.013,1420000,0.013
2016-01-07,0.01,0.01,0.01,0.01,000,0.01
2016-01-06,0.01,0.01,0.01,0.01,000,0.01
2016-01-05,0.01,0.01,0.01,0.01,000,0.01
2016-01-04,0.01,0.01,0.01,0.01,000,0.01
2016-01-01,0.01,0.01,0.01,0.01,000,0.01
2015-12-31,0.01,0.01,0.01,0.01,000,0.01
2015-12-30,0.01,0.01,0.01,0.01,000,0.01
2015-12-29,0.01,0.01,0.01,0.01,000,0.01
2015-12-28,0.01,0.01,0.01,0.01,000,0.01
2015-12-25,0.01,0.01,0.01,0.01,000,0.01
2015-12-24,0.01,0.01,0.01,0.01,41000,0.01
2015-12-23,0.01,0.01,0.01,0.01,42000,0.01
2015-12-22,0.012,0.012,0.01,0.01,350000,0.01
2015-12-21,0.011,0.011,0.011,0.011,500000,0.011
2015-12-18,0.01,0.01,0.01,0.01,600000,0.01
2015-12-17,0.009,0.009,0.009,0.009,000,0.009
2015-12-16,0.009,0.009,0.009,0.009,000,0.009
2015-12-15,0.009,0.009,0.009,0.009,123000,0.009
2015-12-14,0.009,0.009,0.007,0.007,286100,0.007
2015-12-11,0.01,0.01,0.01,0.01,930000,0.01
2015-12-10,0.009,0.009,0.009,0.009,235000,0.009
2015-12-09,0.009,0.01,0.009,0.01,400000,0.01
2015-12-08,0.008,0.008,0.008,0.008,000,0.008
2015-12-07,0.009,0.009,0.008,0.008,107100,0.008
2015-12-04,0.01,0.01,0.01,0.01,120000,0.01
2015-12-03,0.009,0.009,0.009,0.009,000,0.009
2015-12-02,0.009,0.009,0.009,0.009,1000000,0.009
2015-12-01,0.009,0.009,0.009,0.009,000,0.009
2015-11-30,0.009,0.009,0.009,0.009,000,0.009
2015-11-27,0.009,0.009,0.009,0.009,000,0.009
2015-11-26,0.009,0.009,0.009,0.009,000,0.009
2015-11-25,0.009,0.009,0.009,0.009,000,0.009
2015-11-24,0.009,0.009,0.009,0.009,000,0.009
2015-11-23,0.009,0.009,0.009,0.009,000,0.009
2015-11-20,0.009,0.009,0.009,0.009,500000,0.009
2015-11-19,0.01,0.01,0.01,0.01,000,0.01
2015-11-18,0.01,0.01,0.01,0.01,000,0.01
2015-11-17,0.01,0.01,0.01,0.01,000,0.01
2015-11-16,0.01,0.01,0.01,0.01,000,0.01
2015-11-13,0.01,0.01,0.01,0.01,000,0.01
2015-11-12,0.01,0.01,0.01,0.01,000,0.01
2015-11-11,0.01,0.01,0.01,0.01,000,0.01
2015-11-10,0.01,0.01,0.01,0.01,000,0.01
2015-11-09,0.01,0.01,0.01,0.01,000,0.01
2015-11-06,0.01,0.01,0.01,0.01,60000,0.01
2015-11-05,0.009,0.009,0.009,0.009,000,0.009
2015-11-04,0.009,0.009,0.009,0.009,000,0.009
2015-11-03,0.009,0.009,0.009,0.009,000,0.009
2015-11-02,0.009,0.009,0.009,0.009,000,0.009
2015-10-30,0.009,0.009,0.009,0.009,000,0.009
2015-10-29,0.009,0.009,0.009,0.009,000,0.009
2015-10-28,0.009,0.009,0.009,0.009,000,0.009
2015-10-27,0.009,0.009,0.009,0.009,125000,0.009
2015-10-26,0.009,0.009,0.009,0.009,000,0.009
2015-10-23,0.009,0.009,0.009,0.009,000,0.009
2015-10-22,0.009,0.009,0.009,0.009,585000,0.009
2015-10-21,0.012,0.012,0.012,0.012,000,0.012
2015-10-20,0.012,0.012,0.012,0.012,000,0.012
2015-10-19,0.012,0.012,0.012,0.012,000,0.012
2015-10-16,0.012,0.012,0.012,0.012,000,0.012
2015-10-15,0.012,0.012,0.012,0.012,000,0.012
2015-10-14,0.012,0.012,0.012,0.012,000,0.012
2015-10-13,0.012,0.012,0.012,0.012,000,0.012
2015-10-12,0.012,0.012,0.012,0.012,200000,0.012
2015-10-09,0.011,0.011,0.011,0.011,200000,0.011
2015-10-08,0.012,0.012,0.012,0.012,85000,0.012
2015-10-07,0.01,0.01,0.01,0.01,40000,0.01
2015-10-06,0.01,0.01,0.01,0.01,000,0.01
2015-10-05,0.01,0.01,0.01,0.01,000,0.01
2015-10-02,0.01,0.01,0.01,0.01,000,0.01
2015-10-01,0.01,0.01,0.01,0.01,000,0.01
2015-09-30,0.01,0.01,0.01,0.01,000,0.01
2015-09-29,0.01,0.01,0.01,0.01,50000,0.01
2015-09-28,0.009,0.01,0.009,0.01,285000,0.01
2015-09-25,0.009,0.009,0.009,0.009,65000,0.009
2015-09-24,0.009,0.009,0.009,0.009,000,0.009
2015-09-23,0.009,0.009,0.009,0.009,000,0.009
2015-09-22,0.009,0.009,0.009,0.009,000,0.009
2015-09-21,0.009,0.009,0.009,0.009,000,0.009
2015-09-18,0.009,0.009,0.009,0.009,000,0.009
2015-09-17,0.009,0.009,0.009,0.009,000,0.009
2015-09-16,0.009,0.009,0.009,0.009,000,0.009
2015-09-15,0.009,0.009,0.009,0.009,000,0.009
2015-09-14,0.009,0.009,0.009,0.009,000,0.009
2015-09-11,0.009,0.009,0.009,0.009,225000,0.009
2015-09-10,0.009,0.009,0.009,0.009,000,0.009
2015-09-09,0.009,0.009,0.009,0.009,000,0.009
2015-09-08,0.009,0.009,0.009,0.009,000,0.009
2015-09-07,0.009,0.009,0.009,0.009,000,0.009
2015-09-04,0.009,0.009,0.009,0.009,73500,0.009
2015-09-03,0.01,0.01,0.01,0.01,000,0.01
2015-09-02,0.01,0.01,0.01,0.01,000,0.01
2015-09-01,0.01,0.01,0.01,0.01,80000,0.01
2015-08-31,0.009,0.01,0.009,0.01,437000,0.01
2015-08-28,0.009,0.009,0.009,0.009,000,0.009
2015-08-27,0.009,0.009,0.009,0.009,000,0.009
2015-08-26,0.009,0.009,0.009,0.009,000,0.009
2015-08-25,0.009,0.009,0.009,0.009,000,0.009
2015-08-24,0.009,0.009,0.009,0.009,000,0.009
2015-08-21,0.009,0.009,0.009,0.009,14000,0.009
2015-08-20,0.01,0.01,0.009,0.009,840000,0.009
2015-08-19,0.008,0.01,0.008,0.009,2523300,0.009
2015-08-18,0.008,0.008,0.008,0.008,65000,0.008
2015-08-17,0.008,0.008,0.008,0.008,000,0.008
2015-08-14,0.008,0.008,0.008,0.008,000,0.008
2015-08-13,0.008,0.008,0.008,0.008,000,0.008
2015-08-12,0.008,0.008,0.008,0.008,000,0.008
2015-08-11,0.008,0.008,0.008,0.008,000,0.008
2015-08-10,0.008,0.008,0.008,0.008,150000,0.008
2015-08-07,0.009,0.009,0.009,0.009,000,0.009
2015-08-06,0.009,0.009,0.009,0.009,299100,0.009
2015-08-05,0.009,0.009,0.009,0.009,000,0.009
2015-08-04,0.009,0.009,0.009,0.009,000,0.009
2015-08-03,0.009,0.009,0.009,0.009,000,0.009
2015-07-31,0.009,0.009,0.009,0.009,000,0.009
2015-07-30,0.009,0.009,0.009,0.009,000,0.009
2015-07-29,0.009,0.009,0.009,0.009,000,0.009
2015-07-28,0.009,0.009,0.009,0.009,000,0.009
2015-07-27,0.01,0.01,0.009,0.009,683300,0.009
2015-07-24,0.009,0.009,0.009,0.009,000,0.009
2015-07-23,0.009,0.009,0.009,0.009,000,0.009
2015-07-22,0.009,0.009,0.009,0.009,601200,0.009
2015-07-21,0.009,0.009,0.009,0.009,000,0.009
2015-07-20,0.009,0.009,0.009,0.009,000,0.009
2015-07-17,0.009,0.009,0.009,0.009,000,0.009
2015-07-16,0.009,0.009,0.009,0.009,000,0.009
2015-07-15,0.01,0.01,0.009,0.009,172600,0.009
2015-07-14,0.009,0.009,0.009,0.009,599700,0.009
2015-07-13,0.009,0.009,0.009,0.009,000,0.009
2015-07-10,0.009,0.009,0.009,0.009,000,0.009
2015-07-09,0.009,0.009,0.009,0.009,000,0.009
2015-07-08,0.009,0.009,0.009,0.009,600000,0.009
2015-07-07,0.01,0.01,0.01,0.01,000,0.01
2015-07-06,0.01,0.01,0.01,0.01,000,0.01
2015-07-03,0.01,0.01,0.01,0.01,370000,0.01
2015-07-02,0.008,0.008,0.008,0.008,281700,0.008
2015-07-01,0.008,0.008,0.008,0.008,000,0.008
2015-06-30,0.008,0.008,0.008,0.008,789000,0.008
2015-06-29,0.009,0.009,0.009,0.009,500000,0.009
2015-06-26,0.009,0.009,0.009,0.009,74300,0.009
2015-06-25,0.01,0.01,0.009,0.009,500000,0.009
2015-06-24,0.01,0.01,0.01,0.01,226500,0.01
2015-06-23,0.011,0.011,0.009,0.009,559900,0.009
2015-06-22,0.011,0.011,0.011,0.011,000,0.011
2015-06-19,0.011,0.011,0.011,0.011,450000,0.011
2015-06-18,0.009,0.01,0.009,0.01,100000,0.01
2015-06-17,0.009,0.009,0.009,0.009,000,0.009
2015-06-16,0.009,0.009,0.009,0.009,000,0.009
2015-06-15,0.009,0.009,0.009,0.009,000,0.009
2015-06-12,0.009,0.009,0.009,0.009,54200,0.009
2015-06-11,0.009,0.009,0.009,0.009,300000,0.009
2015-06-10,0.009,0.009,0.009,0.009,200000,0.009
2015-06-09,0.01,0.01,0.01,0.01,380000,0.01
2015-06-08,0.01,0.01,0.01,0.01,000,0.01
2015-06-05,0.01,0.01,0.01,0.01,000,0.01
2015-06-04,0.01,0.01,0.01,0.01,000,0.01
2015-06-03,0.008,0.01,0.008,0.01,953000,0.01
2015-06-02,0.008,0.008,0.008,0.008,100000,0.008
2015-06-01,0.009,0.009,0.009,0.009,52000,0.009
2015-05-29,0.009,0.009,0.008,0.008,573200,0.008
2015-05-28,0.012,0.012,0.009,0.009,2916500,0.009
2015-05-27,0.012,0.012,0.012,0.012,680000,0.012
2015-05-26,0.012,0.012,0.011,0.011,135700,0.011
2015-05-25,0.012,0.012,0.012,0.012,000,0.012
2015-05-22,0.012,0.012,0.012,0.012,650000,0.012
2015-05-21,0.012,0.012,0.012,0.012,600000,0.012
2015-05-20,0.012,0.012,0.012,0.012,600000,0.012
2015-05-19,0.013,0.013,0.013,0.013,000,0.013
2015-05-18,0.013,0.013,0.013,0.013,000,0.013
2015-05-15,0.013,0.013,0.013,0.013,000,0.013
2015-05-14,0.013,0.013,0.013,0.013,000,0.013
2015-05-13,0.013,0.013,0.013,0.013,000,0.013
2015-05-12,0.013,0.013,0.013,0.013,000,0.013
2015-05-11,0.013,0.013,0.013,0.013,000,0.013
2015-05-08,0.013,0.013,0.013,0.013,000,0.013
2015-05-07,0.013,0.013,0.013,0.013,000,0.013
2015-05-06,0.013,0.013,0.013,0.013,000,0.013
2015-05-05,0.013,0.013,0.013,0.013,000,0.013
2015-05-04,0.013,0.013,0.013,0.013,000,0.013
2015-05-01,0.013,0.013,0.013,0.013,779500,0.013
2015-04-30,0.014,0.014,0.014,0.014,000,0.014
2015-04-29,0.015,0.015,0.014,0.014,250000,0.014
2015-04-28,0.015,0.015,0.015,0.015,700000,0.015
2015-04-27,0.015,0.015,0.015,0.015,250000,0.015
2015-04-24,0.017,0.017,0.017,0.017,000,0.017
2015-04-23,0.017,0.017,0.017,0.017,236000,0.017
2015-04-22,0.017,0.017,0.017,0.017,64000,0.017
2015-04-21,0.018,0.018,0.018,0.018,222000,0.018
2015-04-20,0.02,0.02,0.02,0.02,000,0.02
2015-04-17,0.018,0.02,0.018,0.02,1079500,0.02
2015-04-16,0.017,0.017,0.017,0.017,250000,0.017
2015-04-15,0.017,0.017,0.017,0.017,400000,0.017
2015-04-14,0.02,0.02,0.02,0.02,000,0.02
2015-04-13,0.02,0.02,0.02,0.02,000,0.02
2015-04-10,0.02,0.02,0.02,0.02,000,0.02
2015-04-09,0.02,0.02,0.02,0.02,167200,0.02
2015-04-08,0.017,0.018,0.017,0.018,455000,0.018
2015-04-07,0.017,0.017,0.017,0.017,109000,0.017
2015-04-06,0.017,0.017,0.017,0.017,000,0.017
2015-04-03,0.017,0.017,0.017,0.017,000,0.017
2015-04-02,0.018,0.018,0.017,0.017,356000,0.017
2015-04-01,0.018,0.02,0.018,0.02,732700,0.02
2015-03-31,0.018,0.018,0.018,0.018,38000,0.018
2015-03-30,0.02,0.02,0.02,0.02,000,0.02
2015-03-27,0.021,0.021,0.02,0.02,522200,0.02
2015-03-26,0.021,0.021,0.02,0.02,318000,0.02
2015-03-25,0.022,0.022,0.021,0.021,300000,0.021
2015-03-24,0.022,0.023,0.022,0.023,939000,0.023
2015-03-23,0.021,0.022,0.021,0.021,1090000,0.021
2015-03-20,0.025,0.025,0.025,0.025,000,0.025
2015-03-19,0.025,0.027,0.025,0.025,366200,0.025
2015-03-18,0.03,0.03,0.03,0.03,000,0.03
2015-03-17,0.03,0.03,0.03,0.03,000,0.03
2015-03-16,0.03,0.03,0.03,0.03,000,0.03
2015-03-13,0.03,0.03,0.03,0.03,000,0.03
2015-03-12,0.03,0.03,0.03,0.03,000,0.03
2015-03-11,0.03,0.03,0.03,0.03,000,0.03
2015-03-10,0.027,0.03,0.027,0.03,467600,0.03
2015-03-09,0.027,0.027,0.027,0.027,000,0.027
2015-03-06,0.028,0.028,0.025,0.027,510200,0.027
2015-03-05,0.028,0.029,0.028,0.029,70000,0.029
2015-03-04,0.032,0.032,0.031,0.031,22300,0.031
2015-03-03,0.03,0.031,0.03,0.031,32000,0.031
2015-03-02,0.028,0.029,0.028,0.029,126100,0.029
2015-02-27,0.029,0.029,0.029,0.029,000,0.029
2015-02-26,0.031,0.031,0.029,0.029,100000,0.029
2015-02-25,0.03,0.03,0.03,0.03,000,0.03
2015-02-24,0.03,0.03,0.03,0.03,000,0.03
2015-02-23,0.031,0.031,0.03,0.03,180000,0.03
2015-02-20,0.032,0.032,0.03,0.03,66000,0.03
2015-02-19,0.03,0.031,0.03,0.031,117600,0.031
2015-02-18,0.03,0.03,0.03,0.03,135000,0.03
2015-02-17,0.03,0.033,0.03,0.032,349700,0.032
2015-02-16,0.037,0.037,0.027,0.03,1172100,0.03
2015-02-13,0.04,0.04,0.039,0.039,42500,0.039
2015-02-12,0.038,0.04,0.038,0.04,63600,0.04
2015-02-11,0.036,0.038,0.036,0.038,173400,0.038
2015-02-10,0.041,0.041,0.041,0.041,000,0.041
2015-02-09,0.041,0.041,0.041,0.041,000,0.041
2015-02-06,0.04,0.041,0.04,0.041,90000,0.041
2015-02-05,0.044,0.044,0.044,0.044,000,0.044
2015-02-04,0.044,0.044,0.044,0.044,217400,0.044
2015-02-03,0.035,0.043,0.035,0.043,614400,0.043
2015-02-02,0.039,0.039,0.034,0.034,400000,0.034
2015-01-30,0.052,0.052,0.04,0.04,4411500,0.04
2015-01-29,0.091,0.091,0.037,0.045,7576300,0.045
2015-01-28,0.185,0.185,0.185,0.185,000,0.185
2015-01-27,0.185,0.185,0.185,0.185,000,0.185
2015-01-26,0.185,0.185,0.185,0.185,000,0.185
2015-01-23,0.185,0.185,0.185,0.185,000,0.185
2015-01-22,0.185,0.185,0.185,0.185,000,0.185
2015-01-21,0.185,0.185,0.185,0.185,000,0.185
2015-01-20,0.185,0.185,0.185,0.185,000,0.185
2015-01-19,0.185,0.185,0.185,0.185,000,0.185
2015-01-16,0.185,0.185,0.185,0.185,000,0.185
2015-01-15,0.185,0.185,0.185,0.185,000,0.185
2015-01-14,0.185,0.185,0.185,0.185,000,0.185
2015-01-13,0.185,0.185,0.185,0.185,000,0.185
2015-01-12,0.185,0.185,0.185,0.185,000,0.185
2015-01-09,0.185,0.185,0.185,0.185,000,0.185
2015-01-08,0.185,0.185,0.185,0.185,000,0.185
2015-01-07,0.185,0.185,0.185,0.185,000,0.185
2015-01-06,0.185,0.185,0.185,0.185,000,0.185
2015-01-05,0.185,0.185,0.185,0.185,000,0.185
2015-01-02,0.185,0.185,0.185,0.185,000,0.185
2015-01-01,0.185,0.185,0.185,0.185,000,0.185
2014-12-31,0.185,0.185,0.185,0.185,000,0.185
2014-12-30,0.185,0.185,0.185,0.185,000,0.185
2014-12-29,0.185,0.185,0.185,0.185,000,0.185
2014-12-26,0.185,0.185,0.185,0.185,000,0.185
2014-12-25,0.185,0.185,0.185,0.185,000,0.185
2014-12-24,0.185,0.185,0.185,0.185,000,0.185
2014-12-23,0.185,0.185,0.185,0.185,000,0.185
2014-12-22,0.185,0.185,0.185,0.185,000,0.185
2014-12-19,0.185,0.185,0.185,0.185,000,0.185
2014-12-18,0.185,0.185,0.185,0.185,000,0.185
2014-12-17,0.185,0.185,0.185,0.185,000,0.185
2014-12-16,0.185,0.185,0.185,0.185,000,0.185
2014-12-15,0.185,0.185,0.185,0.185,000,0.185
2014-12-12,0.185,0.185,0.185,0.185,000,0.185
2014-12-11,0.185,0.185,0.185,0.185,000,0.185
2014-12-10,0.185,0.185,0.185,0.185,000,0.185
2014-12-09,0.185,0.185,0.185,0.185,000,0.185
2014-12-08,0.185,0.185,0.185,0.185,000,0.185
2014-12-05,0.185,0.185,0.185,0.185,000,0.185
2014-12-04,0.185,0.185,0.185,0.185,000,0.185
2014-12-03,0.185,0.185,0.185,0.185,000,0.185
2014-12-02,0.185,0.185,0.185,0.185,000,0.185
2014-12-01,0.185,0.185,0.185,0.185,000,0.185
2014-11-28,0.185,0.185,0.185,0.185,000,0.185
2014-11-27,0.185,0.185,0.185,0.185,000,0.185
2014-11-26,0.185,0.185,0.185,0.185,000,0.185
2014-11-25,0.185,0.185,0.185,0.185,000,0.185
2014-11-24,0.185,0.185,0.185,0.185,000,0.185
2014-11-21,0.185,0.185,0.185,0.185,000,0.185
2014-11-20,0.185,0.185,0.185,0.185,000,0.185
2014-11-19,0.185,0.185,0.185,0.185,000,0.185
2014-11-18,0.185,0.185,0.185,0.185,000,0.185
2014-11-17,0.185,0.185,0.185,0.185,000,0.185
2014-11-14,0.185,0.185,0.185,0.185,000,0.185
2014-11-13,0.185,0.185,0.185,0.185,000,0.185
2014-11-12,0.185,0.185,0.18,0.185,653400,0.185
2014-11-11,0.195,0.195,0.195,0.195,000,0.195
2014-11-10,0.195,0.195,0.195,0.195,50000,0.195
2014-11-07,0.195,0.20,0.195,0.20,789400,0.20
2014-11-06,0.195,0.20,0.19,0.20,420000,0.20
2014-11-05,0.20,0.20,0.20,0.20,200000,0.20
2014-11-04,0.20,0.20,0.20,0.20,10000,0.20
2014-11-03,0.20,0.20,0.20,0.20,150000,0.20
2014-10-31,0.20,0.20,0.20,0.20,000,0.20
2014-10-30,0.20,0.20,0.20,0.20,300000,0.20
2014-10-29,0.20,0.20,0.20,0.20,200000,0.20
2014-10-28,0.20,0.20,0.20,0.20,100000,0.20
2014-10-27,0.20,0.20,0.20,0.20,250000,0.20
2014-10-24,0.20,0.20,0.20,0.20,115000,0.20
2014-10-23,0.20,0.20,0.20,0.20,400000,0.20
2014-10-22,0.195,0.20,0.195,0.20,490000,0.20
2014-10-21,0.20,0.20,0.20,0.20,000,0.20
2014-10-20,0.20,0.20,0.20,0.20,000,0.20
2014-10-17,0.20,0.20,0.20,0.20,000,0.20
2014-10-16,0.20,0.20,0.20,0.20,000,0.20
2014-10-15,0.20,0.20,0.20,0.20,110000,0.20
2014-10-14,0.20,0.20,0.20,0.20,200000,0.20
2014-10-13,0.20,0.20,0.20,0.20,000,0.20
2014-10-10,0.20,0.20,0.20,0.20,000,0.20
2014-10-09,0.20,0.20,0.20,0.20,900000,0.20
2014-10-08,0.20,0.20,0.20,0.20,000,0.20
2014-10-07,0.20,0.20,0.20,0.20,200000,0.20
2014-10-06,0.20,0.20,0.20,0.20,50000,0.20
2014-10-03,0.20,0.20,0.20,0.20,1542200,0.20
2014-10-02,0.20,0.20,0.20,0.20,677700,0.20
2014-10-01,0.20,0.20,0.20,0.20,000,0.20
2014-09-30,0.20,0.20,0.20,0.20,250000,0.20
2014-09-29,0.195,0.20,0.195,0.20,646000,0.20
2014-09-26,0.20,0.20,0.19,0.20,465000,0.20
2014-09-25,0.205,0.205,0.20,0.20,125000,0.20
2014-09-24,0.205,0.21,0.205,0.205,56900,0.205
2014-09-23,0.205,0.21,0.205,0.21,55400,0.21
2014-09-22,0.205,0.22,0.205,0.22,100000,0.22
2014-09-19,0.21,0.21,0.21,0.21,10000,0.21
2014-09-18,0.21,0.215,0.21,0.215,550000,0.215
2014-09-17,0.205,0.205,0.205,0.205,000,0.205
2014-09-16,0.20,0.205,0.20,0.205,392000,0.205
2014-09-15,0.20,0.20,0.20,0.20,000,0.20
2014-09-12,0.20,0.20,0.20,0.20,400000,0.20
2014-09-11,0.20,0.20,0.20,0.20,000,0.20
2014-09-10,0.20,0.20,0.20,0.20,615000,0.20
2014-09-09,0.205,0.205,0.205,0.205,000,0.205
2014-09-08,0.205,0.205,0.205,0.205,350000,0.205
2014-09-05,0.20,0.20,0.20,0.20,000,0.20
2014-09-04,0.20,0.20,0.20,0.20,000,0.20
2014-09-03,0.20,0.20,0.20,0.20,50000,0.20
2014-09-02,0.205,0.205,0.205,0.205,45000,0.205
2014-09-01,0.205,0.205,0.205,0.205,000,0.205
2014-08-29,0.20,0.205,0.20,0.205,250000,0.205
2014-08-28,0.20,0.205,0.20,0.205,20000,0.205
2014-08-27,0.20,0.21,0.20,0.20,1293100,0.20
2014-08-26,0.175,0.175,0.175,0.175,000,0.175
2014-08-25,0.175,0.175,0.175,0.175,000,0.175
2014-08-22,0.175,0.175,0.175,0.175,12700,0.175
2014-08-21,0.175,0.175,0.17,0.17,161500,0.17
2014-08-20,0.175,0.175,0.175,0.175,000,0.175
2014-08-19,0.175,0.175,0.175,0.175,105300,0.175
2014-08-18,0.175,0.175,0.17,0.17,48400,0.17
2014-08-15,0.17,0.17,0.17,0.17,000,0.17
2014-08-14,0.175,0.175,0.17,0.17,147500,0.17
2014-08-13,0.175,0.175,0.175,0.175,6000,0.175
2014-08-12,0.18,0.18,0.18,0.18,105300,0.18
2014-08-11,0.175,0.175,0.175,0.175,11400,0.175
2014-08-08,0.175,0.175,0.175,0.175,60000,0.175
2014-08-07,0.17,0.175,0.17,0.175,58000,0.175
2014-08-06,0.175,0.175,0.175,0.175,000,0.175
2014-08-05,0.175,0.175,0.175,0.175,10000,0.175
2014-08-04,0.18,0.18,0.18,0.18,000,0.18
2014-08-01,0.18,0.18,0.18,0.18,000,0.18
2014-07-31,0.18,0.18,0.175,0.18,632000,0.18
2014-07-30,0.18,0.18,0.18,0.18,35000,0.18
2014-07-29,0.175,0.18,0.17,0.18,2664900,0.18
2014-07-28,0.17,0.17,0.17,0.17,10000,0.17
2014-07-25,0.18,0.18,0.18,0.18,000,0.18
2014-07-24,0.18,0.18,0.18,0.18,000,0.18
2014-07-23,0.18,0.18,0.18,0.18,175000,0.18
2014-07-22,0.175,0.175,0.175,0.175,70400,0.175
2014-07-21,0.18,0.18,0.18,0.18,150000,0.18
2014-07-18,0.18,0.18,0.18,0.18,000,0.18
2014-07-17,0.18,0.18,0.18,0.18,000,0.18
2014-07-16,0.18,0.18,0.18,0.18,165000,0.18
2014-07-15,0.18,0.18,0.18,0.18,30000,0.18
2014-07-14,0.18,0.18,0.18,0.18,75000,0.18
2014-07-11,0.18,0.18,0.18,0.18,000,0.18
2014-07-10,0.18,0.18,0.18,0.18,50000,0.18
2014-07-09,0.185,0.185,0.18,0.18,60000,0.18
2014-07-08,0.18,0.18,0.18,0.18,000,0.18
2014-07-07,0.18,0.18,0.18,0.18,45000,0.18
2014-07-04,0.18,0.18,0.18,0.18,20000,0.18
2014-07-03,0.185,0.185,0.185,0.185,50000,0.185
2014-07-02,0.185,0.185,0.185,0.185,35000,0.185
2014-07-01,0.185,0.185,0.185,0.185,10000,0.185
2014-06-30,0.18,0.195,0.18,0.195,350000,0.195
2014-06-27,0.185,0.185,0.185,0.185,000,0.185
2014-06-26,0.185,0.185,0.185,0.185,000,0.185
2014-06-25,0.185,0.185,0.185,0.185,115000,0.185
2014-06-24,0.185,0.185,0.185,0.185,285000,0.185
2014-06-23,0.19,0.19,0.185,0.185,170000,0.185
2014-06-20,0.185,0.185,0.185,0.185,235000,0.185
2014-06-19,0.185,0.185,0.185,0.185,665100,0.185
2014-06-18,0.185,0.185,0.185,0.185,130000,0.185
2014-06-17,0.185,0.19,0.185,0.19,346000,0.19
2014-06-16,0.19,0.19,0.19,0.19,891000,0.19
2014-06-13,0.19,0.195,0.19,0.19,553000,0.19
2014-06-12,0.20,0.20,0.20,0.20,559000,0.20
2014-06-11,0.195,0.20,0.19,0.20,1060000,0.20
2014-06-10,0.185,0.21,0.185,0.21,890000,0.21
2014-06-09,0.17,0.17,0.17,0.17,000,0.17
2014-06-06,0.17,0.17,0.17,0.17,30000,0.17
2014-06-05,0.17,0.17,0.17,0.17,000,0.17
2014-06-04,0.17,0.17,0.17,0.17,150000,0.17
2014-06-03,0.17,0.17,0.17,0.17,30000,0.17
2014-06-02,0.18,0.18,0.18,0.18,000,0.18
2014-05-30,0.18,0.18,0.18,0.18,000,0.18
2014-05-29,0.18,0.18,0.18,0.18,000,0.18
2014-05-28,0.18,0.18,0.18,0.18,000,0.18
2014-05-27,0.18,0.18,0.18,0.18,000,0.18
2014-05-26,0.18,0.18,0.18,0.18,000,0.18
2014-05-23,0.18,0.18,0.18,0.18,000,0.18
2014-05-22,0.18,0.18,0.18,0.18,000,0.18
2014-05-21,0.18,0.18,0.18,0.18,000,0.18
2014-05-20,0.18,0.18,0.17,0.18,100000,0.18
2014-05-19,0.18,0.18,0.18,0.18,000,0.18
2014-05-16,0.18,0.18,0.18,0.18,000,0.18
2014-05-15,0.18,0.18,0.18,0.18,000,0.18
2014-05-14,0.18,0.18,0.18,0.18,000,0.18
2014-05-13,0.18,0.18,0.18,0.18,000,0.18
2014-05-12,0.18,0.18,0.18,0.18,000,0.18
2014-05-09,0.18,0.18,0.18,0.18,309100,0.18
2014-05-08,0.18,0.18,0.18,0.18,10000,0.18
2014-05-07,0.18,0.18,0.18,0.18,000,0.18
2014-05-06,0.18,0.18,0.18,0.18,3200,0.18
2014-05-05,0.18,0.18,0.18,0.18,000,0.18
2014-05-02,0.18,0.18,0.18,0.18,000,0.18
2014-05-01,0.19,0.19,0.18,0.18,121200,0.18
2014-04-30,0.19,0.19,0.19,0.19,20000,0.19
2014-04-29,0.19,0.19,0.19,0.19,000,0.19
2014-04-28,0.19,0.19,0.19,0.19,000,0.19
2014-04-25,0.19,0.19,0.19,0.19,000,0.19
2014-04-24,0.19,0.19,0.19,0.19,000,0.19
2014-04-23,0.18,0.19,0.18,0.19,73000,0.19
2014-04-22,0.19,0.19,0.19,0.19,000,0.19
2014-04-21,0.19,0.19,0.19,0.19,000,0.19
2014-04-18,0.19,0.19,0.19,0.19,000,0.19
2014-04-17,0.19,0.19,0.19,0.19,2000000,0.19
2014-04-16,0.19,0.19,0.19,0.19,000,0.19
2014-04-15,0.19,0.19,0.19,0.19,000,0.19
2014-04-14,0.19,0.19,0.19,0.19,000,0.19
2014-04-11,0.19,0.19,0.19,0.19,000,0.19
2014-04-10,0.19,0.19,0.19,0.19,000,0.19
2014-04-09,0.19,0.19,0.19,0.19,50000,0.19
2014-04-08,0.19,0.195,0.19,0.19,470000,0.19
2014-04-07,0.19,0.20,0.19,0.195,757500,0.195
2014-04-04,0.19,0.19,0.19,0.19,1063400,0.19
2014-04-03,0.205,0.205,0.205,0.205,000,0.205
2014-04-02,0.205,0.205,0.205,0.205,000,0.205
2014-04-01,0.205,0.205,0.205,0.205,000,0.205
2014-03-31,0.195,0.205,0.19,0.205,110500,0.205
2014-03-28,0.195,0.195,0.195,0.195,000,0.195
2014-03-27,0.195,0.195,0.195,0.195,000,0.195
2014-03-26,0.195,0.195,0.195,0.195,000,0.195
2014-03-25,0.195,0.195,0.195,0.195,342000,0.195
2014-03-24,0.195,0.195,0.195,0.195,53000,0.195
2014-03-21,0.195,0.195,0.195,0.195,344300,0.195
2014-03-20,0.195,0.195,0.195,0.195,424300,0.195
2014-03-19,0.195,0.195,0.195,0.195,310000,0.195
2014-03-18,0.195,0.195,0.195,0.195,200000,0.195
2014-03-17,0.195,0.195,0.195,0.195,783000,0.195
2014-03-14,0.19,0.19,0.19,0.19,000,0.19
2014-03-13,0.19,0.19,0.19,0.19,000,0.19
2014-03-12,0.19,0.19,0.19,0.19,17000,0.19
2014-03-11,0.195,0.195,0.195,0.195,000,0.195
2014-03-10,0.195,0.195,0.195,0.195,000,0.195
2014-03-07,0.195,0.195,0.195,0.195,000,0.195
2014-03-06,0.195,0.195,0.195,0.195,000,0.195
2014-03-05,0.195,0.195,0.195,0.195,369200,0.195
2014-03-04,0.20,0.20,0.20,0.20,308000,0.20
2014-03-03,0.21,0.21,0.205,0.205,2365000,0.205
2014-02-28,0.205,0.21,0.205,0.21,386000,0.21
2014-02-27,0.20,0.20,0.20,0.20,239300,0.20
2014-02-26,0.21,0.21,0.21,0.21,000,0.21
2014-02-25,0.21,0.21,0.21,0.21,000,0.21
2014-02-24,0.21,0.21,0.21,0.21,10000,0.21
2014-02-21,0.22,0.22,0.21,0.21,1877200,0.21
2014-02-20,0.225,0.225,0.22,0.22,4058900,0.22
2014-02-19,0.225,0.225,0.225,0.225,000,0.225
2014-02-18,0.225,0.23,0.225,0.225,977000,0.225
2014-02-17,0.225,0.225,0.225,0.225,359600,0.225
2014-02-14,0.22,0.22,0.22,0.22,38400,0.22
2014-02-13,0.22,0.22,0.22,0.22,587000,0.22
2014-02-12,0.22,0.22,0.22,0.22,000,0.22
2014-02-11,0.22,0.22,0.22,0.22,25000,0.22
2014-02-10,0.22,0.22,0.22,0.22,59700,0.22
2014-02-07,0.22,0.22,0.22,0.22,000,0.22
2014-02-06,0.225,0.225,0.22,0.22,132300,0.22
2014-02-05,0.22,0.22,0.215,0.22,1106600,0.22
2014-02-04,0.22,0.22,0.22,0.22,000,0.22
2014-02-03,0.225,0.225,0.22,0.22,50000,0.22
2014-01-31,0.225,0.225,0.225,0.225,349800,0.225
2014-01-30,0.22,0.225,0.22,0.225,111800,0.225
2014-01-29,0.225,0.225,0.225,0.225,000,0.225
2014-01-28,0.22,0.225,0.22,0.225,1741800,0.225
2014-01-27,0.215,0.215,0.215,0.215,000,0.215
2014-01-24,0.215,0.215,0.215,0.215,286500,0.215
2014-01-23,0.21,0.215,0.21,0.21,307000,0.21
2014-01-22,0.21,0.21,0.21,0.21,1046800,0.21
2014-01-21,0.21,0.21,0.21,0.21,920000,0.21
2014-01-20,0.21,0.21,0.205,0.205,280000,0.205
2014-01-17,0.21,0.21,0.21,0.21,484200,0.21
2014-01-16,0.21,0.21,0.21,0.21,495500,0.21
2014-01-15,0.21,0.21,0.21,0.21,828000,0.21
2014-01-14,0.21,0.215,0.21,0.21,411200,0.21
2014-01-13,0.21,0.215,0.21,0.215,375000,0.215
2014-01-10,0.21,0.215,0.205,0.215,350000,0.215
2014-01-09,0.21,0.21,0.21,0.21,75000,0.21
2014-01-08,0.21,0.215,0.21,0.21,411500,0.21
2014-01-07,0.205,0.21,0.205,0.21,725500,0.21
2014-01-06,0.20,0.20,0.20,0.20,32400,0.20
2014-01-03,0.20,0.20,0.20,0.20,408000,0.20
2014-01-02,0.20,0.20,0.20,0.20,740000,0.20
2014-01-01,0.205,0.205,0.205,0.205,000,0.205
2013-12-31,0.20,0.205,0.20,0.205,778000,0.205
2013-12-30,0.20,0.205,0.20,0.20,514200,0.20
2013-12-27,0.20,0.20,0.20,0.20,655600,0.20
2013-12-26,0.20,0.20,0.20,0.20,000,0.20
2013-12-25,0.20,0.20,0.20,0.20,000,0.20
2013-12-24,0.20,0.20,0.20,0.20,50000,0.20
2013-12-23,0.205,0.205,0.195,0.20,393700,0.20
2013-12-20,0.195,0.20,0.195,0.20,352700,0.20
2013-12-19,0.21,0.21,0.20,0.20,324600,0.20
2013-12-18,0.21,0.21,0.21,0.21,115500,0.21
2013-12-17,0.215,0.215,0.21,0.215,76700,0.215
2013-12-16,0.21,0.21,0.21,0.21,750000,0.21
2013-12-13,0.21,0.215,0.21,0.21,441900,0.21
2013-12-12,0.21,0.21,0.21,0.21,147000,0.21
2013-12-11,0.21,0.21,0.21,0.21,513100,0.21
2013-12-10,0.205,0.205,0.205,0.205,84000,0.205
2013-12-09,0.205,0.21,0.205,0.21,220000,0.21
2013-12-06,0.205,0.21,0.205,0.21,341300,0.21
2013-12-05,0.20,0.205,0.20,0.205,746700,0.205
2013-12-04,0.20,0.20,0.195,0.20,674700,0.20
2013-12-03,0.195,0.20,0.195,0.20,297800,0.20
2013-12-02,0.20,0.205,0.20,0.20,827500,0.20
2013-11-29,0.20,0.205,0.20,0.205,803800,0.205
2013-11-28,0.20,0.20,0.195,0.20,566200,0.20
2013-11-27,0.195,0.20,0.195,0.20,684400,0.20
2013-11-26,0.20,0.20,0.187,0.20,3252800,0.20
2013-11-25,0.20,0.21,0.20,0.20,2987600,0.20
2013-11-22,0.20,0.21,0.16,0.20,13377100,0.20
2013-11-21,0.13,0.13,0.13,0.13,000,0.13
2013-11-20,0.13,0.13,0.13,0.13,25000,0.13
2013-11-19,0.125,0.125,0.125,0.125,225000,0.125
2013-11-18,0.12,0.12,0.12,0.12,10000,0.12
2013-11-15,0.12,0.12,0.12,0.12,000,0.12
2013-11-14,0.12,0.12,0.12,0.12,350000,0.12
2013-11-13,0.125,0.125,0.125,0.125,100000,0.125
2013-11-12,0.135,0.135,0.135,0.135,100000,0.135
2013-11-11,0.135,0.135,0.135,0.135,000,0.135
2013-11-08,0.125,0.145,0.125,0.135,660000,0.135
2013-11-07,0.12,0.12,0.12,0.12,100000,0.12
2013-11-06,0.125,0.125,0.12,0.12,615900,0.12
2013-11-05,0.125,0.125,0.125,0.125,000,0.125
2013-11-04,0.125,0.125,0.125,0.125,50000,0.125
2013-11-01,0.14,0.14,0.14,0.14,000,0.14
2013-10-31,0.14,0.14,0.14,0.14,000,0.14
2013-10-30,0.14,0.14,0.14,0.14,200000,0.14
2013-10-29,0.14,0.14,0.14,0.14,8000,0.14
2013-10-28,0.14,0.14,0.14,0.14,000,0.14
2013-10-25,0.14,0.14,0.14,0.14,000,0.14
2013-10-24,0.14,0.14,0.14,0.14,000,0.14
2013-10-23,0.14,0.14,0.14,0.14,000,0.14
2013-10-22,0.13,0.14,0.13,0.14,227600,0.14
2013-10-21,0.135,0.135,0.135,0.135,287400,0.135
2013-10-18,0.14,0.14,0.135,0.135,88000,0.135
2013-10-17,0.14,0.14,0.14,0.14,150000,0.14
2013-10-16,0.14,0.14,0.14,0.14,45000,0.14
2013-10-15,0.14,0.15,0.14,0.15,148600,0.15
2013-10-14,0.135,0.135,0.135,0.135,000,0.135
2013-10-11,0.135,0.135,0.13,0.135,163300,0.135
2013-10-10,0.14,0.14,0.14,0.14,000,0.14
2013-10-09,0.14,0.14,0.14,0.14,17000,0.14
2013-10-08,0.14,0.14,0.14,0.14,100000,0.14
2013-10-07,0.14,0.14,0.14,0.14,50000,0.14
2013-10-04,0.14,0.14,0.14,0.14,000,0.14
2013-10-03,0.14,0.14,0.14,0.14,290000,0.14
2013-10-02,0.145,0.145,0.145,0.145,100000,0.145
2013-10-01,0.155,0.155,0.145,0.145,192000,0.145
2013-09-30,0.155,0.155,0.155,0.155,000,0.155
2013-09-27,0.155,0.155,0.15,0.155,125300,0.155
2013-09-26,0.155,0.155,0.145,0.145,420300,0.145
2013-09-25,0.165,0.165,0.165,0.165,000,0.165
2013-09-24,0.165,0.165,0.165,0.165,10000,0.165
2013-09-23,0.16,0.18,0.16,0.17,508500,0.17
2013-09-20,0.155,0.155,0.155,0.155,101000,0.155
2013-09-19,0.155,0.155,0.155,0.155,250000,0.155
2013-09-18,0.15,0.155,0.15,0.15,237100,0.15
2013-09-17,0.14,0.145,0.14,0.145,104800,0.145
2013-09-16,0.145,0.145,0.14,0.14,122000,0.14
2013-09-13,0.16,0.165,0.15,0.15,1096000,0.15
2013-09-12,0.13,0.15,0.13,0.15,615000,0.15
2013-09-11,0.125,0.125,0.12,0.12,90000,0.12
2013-09-10,0.13,0.13,0.13,0.13,182000,0.13
2013-09-09,0.13,0.13,0.12,0.13,123000,0.13
2013-09-06,0.12,0.12,0.12,0.12,115000,0.12
2013-09-05,0.12,0.12,0.12,0.12,000,0.12
2013-09-04,0.125,0.125,0.12,0.12,51100,0.12
2013-09-03,0.12,0.125,0.12,0.125,56000,0.125
2013-09-02,0.125,0.125,0.125,0.125,50000,0.125
2013-08-30,0.13,0.13,0.13,0.13,000,0.13
2013-08-29,0.13,0.13,0.13,0.13,10700,0.13
2013-08-28,0.135,0.135,0.13,0.13,64200,0.13
2013-08-27,0.135,0.135,0.135,0.135,30000,0.135
2013-08-26,0.135,0.135,0.13,0.13,50000,0.13
2013-08-23,0.13,0.13,0.13,0.13,2000,0.13
2013-08-22,0.13,0.13,0.13,0.13,000,0.13
2013-08-21,0.13,0.13,0.13,0.13,98000,0.13
2013-08-20,0.125,0.14,0.125,0.14,90000,0.14
2013-08-19,0.12,0.12,0.115,0.115,40000,0.115
2013-08-16,0.12,0.12,0.12,0.12,000,0.12
2013-08-15,0.12,0.12,0.12,0.12,30000,0.12
2013-08-14,0.12,0.12,0.12,0.12,20000,0.12
2013-08-13,0.125,0.125,0.115,0.115,60000,0.115
2013-08-12,0.13,0.13,0.13,0.13,95000,0.13
2013-08-09,0.12,0.13,0.12,0.13,62800,0.13
2013-08-08,0.125,0.125,0.12,0.12,172100,0.12
2013-08-07,0.115,0.115,0.115,0.115,000,0.115
2013-08-06,0.115,0.115,0.115,0.115,000,0.115
2013-08-05,0.115,0.115,0.115,0.115,317700,0.115
2013-08-02,0.12,0.12,0.12,0.12,100000,0.12
2013-08-01,0.125,0.125,0.12,0.12,43000,0.12
2013-07-31,0.125,0.125,0.125,0.125,000,0.125
2013-07-30,0.125,0.125,0.125,0.125,000,0.125
2013-07-29,0.125,0.125,0.125,0.125,000,0.125
2013-07-26,0.125,0.125,0.125,0.125,000,0.125
2013-07-25,0.125,0.125,0.125,0.125,000,0.125
2013-07-24,0.125,0.125,0.125,0.125,000,0.125
2013-07-23,0.12,0.125,0.12,0.125,111800,0.125
2013-07-22,0.12,0.12,0.12,0.12,100000,0.12
2013-07-19,0.125,0.125,0.125,0.125,64000,0.125
2013-07-18,0.115,0.125,0.115,0.125,160500,0.125
2013-07-17,0.125,0.125,0.125,0.125,100000,0.125
2013-07-16,0.125,0.125,0.125,0.125,100000,0.125
2013-07-15,0.13,0.13,0.13,0.13,100000,0.13
2013-07-12,0.13,0.13,0.13,0.13,58100,0.13
2013-07-11,0.13,0.13,0.13,0.13,10000,0.13
2013-07-10,0.135,0.135,0.135,0.135,150000,0.135
2013-07-09,0.135,0.14,0.135,0.14,210000,0.14
2013-07-08,0.13,0.135,0.13,0.135,270000,0.135
2013-07-05,0.115,0.12,0.115,0.12,109500,0.12
2013-07-04,0.115,0.115,0.115,0.115,000,0.115
2013-07-03,0.115,0.115,0.115,0.115,10000,0.115
2013-07-02,0.115,0.115,0.115,0.115,000,0.115
2013-07-01,0.115,0.115,0.115,0.115,30000,0.115
2013-06-28,0.12,0.12,0.12,0.12,170000,0.12
2013-06-27,0.12,0.12,0.12,0.12,10000,0.12
2013-06-26,0.115,0.115,0.115,0.115,4300,0.115
2013-06-25,0.12,0.13,0.12,0.13,663000,0.13
2013-06-24,0.115,0.115,0.115,0.115,173500,0.115
2013-06-21,0.12,0.12,0.115,0.12,111400,0.12
2013-06-20,0.125,0.125,0.125,0.125,3100,0.125
2013-06-19,0.125,0.125,0.12,0.12,74000,0.12
2013-06-18,0.125,0.13,0.125,0.13,495000,0.13
2013-06-17,0.12,0.12,0.12,0.12,000,0.12
2013-06-14,0.12,0.12,0.12,0.12,290300,0.12
2013-06-13,0.125,0.125,0.125,0.125,000,0.125
2013-06-12,0.125,0.125,0.125,0.125,100000,0.125
2013-06-11,0.125,0.13,0.125,0.13,160000,0.13
2013-06-10,0.13,0.13,0.13,0.13,000,0.13
2013-06-07,0.12,0.13,0.12,0.13,34600,0.13
2013-06-06,0.115,0.115,0.115,0.115,100000,0.115
2013-06-05,0.12,0.12,0.12,0.12,30300,0.12
2013-06-04,0.125,0.125,0.12,0.12,350000,0.12
2013-06-03,0.125,0.125,0.125,0.125,77000,0.125
2013-05-31,0.12,0.125,0.115,0.12,926000,0.12
2013-05-30,0.10,0.10,0.10,0.10,43000,0.10
2013-05-29,0.10,0.10,0.10,0.10,100000,0.10
2013-05-28,0.10,0.10,0.10,0.10,150000,0.10
2013-05-27,0.095,0.095,0.091,0.091,95100,0.091
2013-05-24,0.095,0.095,0.095,0.095,50000,0.095
2013-05-23,0.105,0.105,0.105,0.105,4800,0.105
2013-05-22,0.105,0.105,0.105,0.105,000,0.105
2013-05-21,0.115,0.115,0.105,0.105,314400,0.105
2013-05-20,0.125,0.125,0.12,0.12,511300,0.12
2013-05-17,0.13,0.13,0.13,0.13,150000,0.13
2013-05-16,0.13,0.13,0.13,0.13,245700,0.13
2013-05-15,0.135,0.135,0.13,0.13,376100,0.13
2013-05-14,0.135,0.14,0.13,0.14,552500,0.14
2013-05-13,0.14,0.14,0.135,0.14,263100,0.14
2013-05-10,0.14,0.14,0.14,0.14,355500,0.14
2013-05-09,0.145,0.15,0.13,0.135,864100,0.135
2013-05-08,0.14,0.14,0.12,0.14,2366400,0.14
2013-05-07,0.091,0.15,0.091,0.14,7297800,0.14
2013-05-06,0.08,0.08,0.08,0.08,000,0.08
2013-05-03,0.08,0.08,0.08,0.08,50000,0.08
2013-05-02,0.08,0.08,0.08,0.08,5500,0.08
2013-05-01,0.08,0.08,0.08,0.08,71700,0.08
2013-04-30,0.08,0.08,0.08,0.08,000,0.08
2013-04-29,0.08,0.08,0.08,0.08,100000,0.08
2013-04-26,0.08,0.08,0.08,0.08,174600,0.08
2013-04-25,0.08,0.08,0.08,0.08,000,0.08
2013-04-24,0.08,0.08,0.08,0.08,62000,0.08
2013-04-23,0.08,0.08,0.08,0.08,130000,0.08
2013-04-22,0.07,0.07,0.07,0.07,000,0.07
2013-04-19,0.07,0.07,0.07,0.07,000,0.07
2013-04-18,0.07,0.07,0.07,0.07,000,0.07
2013-04-17,0.07,0.07,0.07,0.07,200000,0.07
2013-04-16,0.091,0.091,0.09,0.09,6300,0.09
2013-04-15,0.095,0.095,0.094,0.094,317700,0.094
2013-04-12,0.094,0.095,0.094,0.095,151000,0.095
2013-04-11,0.094,0.094,0.094,0.094,10000,0.094
2013-04-10,0.093,0.094,0.093,0.094,106000,0.094
2013-04-09,0.094,0.094,0.094,0.094,38900,0.094
2013-04-08,0.096,0.096,0.091,0.095,2462000,0.095
2013-04-05,0.094,0.096,0.094,0.094,320400,0.094
2013-04-04,0.097,0.098,0.097,0.097,87500,0.097
2013-04-03,0.097,0.097,0.097,0.097,44000,0.097
2013-04-02,0.094,0.094,0.094,0.094,9000,0.094
2013-04-01,0.096,0.096,0.096,0.096,000,0.096
2013-03-29,0.096,0.096,0.096,0.096,000,0.096
2013-03-28,0.096,0.096,0.096,0.096,000,0.096
2013-03-27,0.096,0.096,0.096,0.096,10000,0.096
2013-03-26,0.099,0.099,0.099,0.099,000,0.099
2013-03-25,0.099,0.099,0.099,0.099,000,0.099
2013-03-22,0.099,0.099,0.099,0.099,000,0.099
2013-03-21,0.099,0.099,0.099,0.099,10000,0.099
2013-03-20,0.099,0.099,0.099,0.099,000,0.099
2013-03-19,0.099,0.099,0.099,0.099,000,0.099
2013-03-18,0.099,0.099,0.099,0.099,10000,0.099
2013-03-15,0.098,0.098,0.098,0.098,89000,0.098
2013-03-14,0.095,0.095,0.095,0.095,000,0.095
2013-03-13,0.095,0.095,0.095,0.095,000,0.095
2013-03-12,0.098,0.098,0.095,0.095,350000,0.095
2013-03-11,0.10,0.10,0.099,0.099,29000,0.099
2013-03-08,0.10,0.10,0.10,0.10,35000,0.10
2013-03-07,0.105,0.105,0.105,0.105,50000,0.105
2013-03-06,0.105,0.105,0.105,0.105,30000,0.105
2013-03-05,0.095,0.095,0.095,0.095,000,0.095
2013-03-04,0.095,0.095,0.095,0.095,000,0.095
2013-03-01,0.095,0.095,0.095,0.095,32000,0.095
2013-02-28,0.11,0.11,0.09,0.09,75000,0.09
2013-02-27,0.11,0.11,0.11,0.11,20000,0.11
2013-02-26,0.115,0.115,0.115,0.115,000,0.115
2013-02-25,0.115,0.115,0.115,0.115,000,0.115
2013-02-22,0.115,0.115,0.115,0.115,52100,0.115
2013-02-21,0.125,0.125,0.125,0.125,138000,0.125
2013-02-20,0.125,0.125,0.125,0.125,000,0.125
2013-02-19,0.125,0.125,0.125,0.125,70000,0.125
2013-02-18,0.125,0.13,0.125,0.13,75000,0.13
2013-02-15,0.13,0.13,0.13,0.13,000,0.13
2013-02-14,0.13,0.13,0.13,0.13,000,0.13
2013-02-13,0.13,0.13,0.13,0.13,000,0.13
2013-02-12,0.13,0.13,0.13,0.13,000,0.13
2013-02-11,0.13,0.13,0.13,0.13,15000,0.13
2013-02-08,0.13,0.13,0.13,0.13,000,0.13
2013-02-07,0.13,0.13,0.13,0.13,000,0.13
2013-02-06,0.13,0.13,0.13,0.13,15000,0.13
2013-02-05,0.13,0.13,0.13,0.13,50000,0.13
2013-02-04,0.115,0.115,0.115,0.115,50000,0.115
2013-02-01,0.13,0.13,0.13,0.13,000,0.13
2013-01-31,0.125,0.13,0.125,0.13,25000,0.13
2013-01-30,0.125,0.125,0.125,0.125,000,0.125
2013-01-29,0.12,0.125,0.12,0.125,40000,0.125
2013-01-28,0.12,0.12,0.12,0.12,000,0.12
2013-01-25,0.12,0.12,0.12,0.12,000,0.12
2013-01-24,0.12,0.12,0.12,0.12,000,0.12
2013-01-22,0.12,0.12,0.12,0.12,000,0.12
2013-01-21,0.12,0.12,0.12,0.12,50000,0.12
2013-01-18,0.115,0.115,0.115,0.115,000,0.115
2013-01-17,0.115,0.115,0.115,0.115,000,0.115
2013-01-16,0.11,0.115,0.11,0.115,61000,0.115
2013-01-15,0.11,0.11,0.11,0.11,000,0.11
2013-01-14,0.11,0.11,0.11,0.11,000,0.11
2013-01-11,0.11,0.11,0.11,0.11,000,0.11
2013-01-10,0.11,0.11,0.11,0.11,000,0.11
2013-01-09,0.11,0.11,0.11,0.11,000,0.11
2013-01-08,0.11,0.11,0.11,0.11,000,0.11
2013-01-07,0.12,0.12,0.11,0.11,7500,0.11
2013-01-04,0.12,0.12,0.12,0.12,000,0.12
2013-01-03,0.12,0.12,0.12,0.12,000,0.12
2013-01-02,0.12,0.12,0.12,0.12,000,0.12
2013-01-01,0.12,0.12,0.12,0.12,000,0.12
2012-12-31,0.12,0.12,0.12,0.12,000,0.12
2012-12-28,0.12,0.12,0.12,0.12,40000,0.12
2012-12-27,0.135,0.135,0.135,0.135,000,0.135
2012-12-26,0.135,0.135,0.135,0.135,000,0.135
2012-12-25,0.135,0.135,0.135,0.135,000,0.135
2012-12-24,0.135,0.135,0.135,0.135,000,0.135
2012-12-21,0.135,0.135,0.135,0.135,37000,0.135
2012-12-20,0.13,0.13,0.13,0.13,000,0.13
2012-12-19,0.135,0.135,0.13,0.13,210000,0.13
2012-12-18,0.14,0.14,0.135,0.135,20300,0.135
2012-12-17,0.14,0.14,0.14,0.14,000,0.14
2012-12-14,0.15,0.15,0.14,0.14,135400,0.14
2012-12-13,0.15,0.15,0.15,0.15,83000,0.15
2012-12-12,0.155,0.155,0.15,0.15,107300,0.15
2012-12-11,0.15,0.15,0.15,0.15,60700,0.15
2012-12-10,0.15,0.155,0.15,0.155,220400,0.155
2012-12-07,0.14,0.15,0.14,0.15,1554100,0.15
2012-12-06,0.145,0.145,0.145,0.145,000,0.145
2012-12-05,0.14,0.145,0.135,0.145,757000,0.145
2012-12-04,0.15,0.15,0.14,0.14,1072100,0.14
2012-12-03,0.17,0.17,0.165,0.165,87000,0.165
2012-11-30,0.195,0.195,0.16,0.17,49800,0.17
2012-11-29,0.17,0.17,0.17,0.17,000,0.17
2012-11-28,0.17,0.17,0.17,0.17,000,0.17
2012-11-27,0.17,0.17,0.17,0.17,000,0.17
2012-11-26,0.17,0.17,0.17,0.17,000,0.17
2012-11-23,0.17,0.17,0.17,0.17,000,0.17
2012-11-22,0.17,0.17,0.17,0.17,000,0.17
2012-11-21,0.17,0.17,0.17,0.17,000,0.17
2012-11-20,0.17,0.17,0.17,0.17,000,0.17
2012-11-19,0.17,0.17,0.17,0.17,000,0.17
2012-11-16,0.17,0.17,0.17,0.17,000,0.17
2012-11-15,0.17,0.17,0.17,0.17,000,0.17
2012-11-14,0.17,0.17,0.17,0.17,000,0.17
2012-11-13,0.17,0.17,0.17,0.17,000,0.17
2012-11-12,0.17,0.17,0.17,0.17,000,0.17
2012-11-09,0.17,0.17,0.17,0.17,000,0.17
2012-11-08,0.17,0.17,0.17,0.17,000,0.17
2012-11-07,0.17,0.17,0.17,0.17,000,0.17
2012-11-06,0.17,0.17,0.17,0.17,000,0.17
2012-11-05,0.17,0.17,0.17,0.17,000,0.17
2012-11-02,0.17,0.17,0.17,0.17,000,0.17
2012-11-01,0.17,0.17,0.17,0.17,000,0.17
2012-10-31,0.17,0.17,0.17,0.17,000,0.17
2012-10-30,0.17,0.17,0.17,0.17,000,0.17
2012-10-29,0.17,0.17,0.17,0.17,000,0.17
2012-10-26,0.17,0.17,0.17,0.17,000,0.17
2012-10-25,0.17,0.17,0.17,0.17,000,0.17
2012-10-24,0.17,0.17,0.17,0.17,000,0.17
2012-10-23,0.17,0.17,0.17,0.17,000,0.17
2012-10-22,0.17,0.17,0.17,0.17,000,0.17
2012-10-19,0.17,0.17,0.17,0.17,000,0.17
2012-10-18,0.17,0.17,0.17,0.17,000,0.17
2012-10-17,0.17,0.17,0.17,0.17,000,0.17
2012-10-16,0.17,0.17,0.17,0.17,000,0.17
2012-10-15,0.17,0.17,0.17,0.17,000,0.17
2012-10-12,0.17,0.17,0.17,0.17,000,0.17
2012-10-11,0.17,0.17,0.17,0.17,000,0.17
2012-10-10,0.17,0.17,0.17,0.17,000,0.17
2012-10-09,0.17,0.17,0.17,0.17,000,0.17
2012-10-08,0.17,0.17,0.17,0.17,000,0.17
2012-10-05,0.17,0.17,0.17,0.17,000,0.17
2012-10-04,0.17,0.17,0.17,0.17,000,0.17
2012-10-03,0.17,0.17,0.17,0.17,000,0.17
2012-10-02,0.17,0.17,0.17,0.17,000,0.17
2012-10-01,0.17,0.17,0.17,0.17,000,0.17
2012-09-28,0.175,0.175,0.17,0.17,82400,0.17
2012-09-27,0.175,0.175,0.175,0.175,189400,0.175
2012-09-26,0.175,0.175,0.175,0.175,100000,0.175
2012-09-25,0.175,0.18,0.175,0.18,1300900,0.18
2012-09-24,0.15,0.18,0.15,0.18,68100,0.18
2012-09-21,0.16,0.18,0.16,0.18,95800,0.18
2012-09-20,0.16,0.18,0.16,0.17,209100,0.17
2012-09-19,0.14,0.16,0.14,0.16,146400,0.16
2012-09-18,0.15,0.15,0.15,0.15,000,0.15
2012-09-17,0.15,0.15,0.13,0.15,80000,0.15
2012-09-14,0.15,0.15,0.15,0.15,000,0.15
2012-09-13,0.15,0.15,0.15,0.15,000,0.15
2012-09-12,0.15,0.15,0.15,0.15,000,0.15
2012-09-11,0.15,0.15,0.15,0.15,000,0.15
2012-09-10,0.15,0.15,0.15,0.15,000,0.15
2012-09-07,0.15,0.15,0.15,0.15,000,0.15
2012-09-06,0.15,0.15,0.15,0.15,000,0.15
2012-09-05,0.15,0.15,0.15,0.15,000,0.15
2012-09-04,0.15,0.15,0.15,0.15,000,0.15
2012-09-03,0.15,0.15,0.15,0.15,000,0.15
2012-08-31,0.15,0.15,0.15,0.15,30000,0.15
2012-08-30,0.15,0.15,0.15,0.15,30000,0.15
2012-08-29,0.15,0.15,0.15,0.15,000,0.15
2012-08-28,0.15,0.155,0.145,0.15,346000,0.15
2012-08-27,0.15,0.15,0.15,0.15,100000,0.15
2012-08-24,0.15,0.15,0.15,0.15,000,0.15
2012-08-23,0.15,0.15,0.15,0.15,000,0.15
2012-08-22,0.14,0.15,0.14,0.15,150900,0.15
2012-08-21,0.145,0.15,0.145,0.15,28000,0.15
2012-08-20,0.14,0.15,0.14,0.15,99000,0.15
2012-08-17,0.14,0.15,0.14,0.15,13100,0.15
2012-08-16,0.14,0.14,0.14,0.14,000,0.14
2012-08-15,0.14,0.14,0.14,0.14,25000,0.14
2012-08-14,0.145,0.145,0.14,0.145,108000,0.145
2012-08-13,0.145,0.145,0.145,0.145,35000,0.145
2012-08-10,0.15,0.15,0.145,0.145,52500,0.145
2012-08-09,0.155,0.155,0.145,0.15,210000,0.15
2012-08-08,0.15,0.155,0.15,0.155,98300,0.155
2012-08-07,0.14,0.15,0.14,0.15,118000,0.15
2012-08-06,0.16,0.16,0.16,0.16,000,0.16
2012-08-03,0.16,0.16,0.16,0.16,000,0.16
2012-08-02,0.15,0.16,0.15,0.16,89900,0.16
2012-08-01,0.155,0.16,0.155,0.16,181000,0.16
2012-07-31,0.16,0.16,0.16,0.16,30800,0.16
2012-07-30,0.15,0.16,0.15,0.16,96600,0.16
2012-07-27,0.15,0.165,0.15,0.165,224000,0.165
2012-07-26,0.17,0.17,0.17,0.17,000,0.17
2012-07-25,0.17,0.17,0.17,0.17,000,0.17
2012-07-24,0.165,0.17,0.16,0.17,451200,0.17
2012-07-23,0.16,0.16,0.155,0.16,290000,0.16
2012-07-20,0.17,0.17,0.17,0.17,000,0.17
2012-07-19,0.155,0.17,0.14,0.17,373100,0.17
2012-07-18,0.17,0.17,0.17,0.17,000,0.17
2012-07-17,0.155,0.17,0.155,0.17,242000,0.17
2012-07-16,0.17,0.17,0.17,0.17,000,0.17
2012-07-13,0.16,0.17,0.16,0.17,569000,0.17
2012-07-12,0.15,0.155,0.15,0.155,137000,0.155
2012-07-11,0.155,0.155,0.155,0.155,000,0.155
2012-07-10,0.155,0.155,0.155,0.155,000,0.155
2012-07-09,0.15,0.155,0.15,0.155,109000,0.155
2012-07-06,0.135,0.15,0.13,0.15,747100,0.15
2012-07-05,0.135,0.135,0.135,0.135,000,0.135
2012-07-04,0.135,0.135,0.135,0.135,000,0.135
2012-07-03,0.135,0.135,0.135,0.135,000,0.135
2012-07-02,0.135,0.135,0.135,0.135,000,0.135
2012-06-29,0.135,0.135,0.135,0.135,000,0.135
2012-06-28,0.135,0.135,0.135,0.135,000,0.135
2012-06-27,0.135,0.135,0.135,0.135,000,0.135
2012-06-26,0.135,0.135,0.135,0.135,000,0.135
2012-06-25,0.135,0.135,0.135,0.135,000,0.135
2012-06-22,0.135,0.135,0.135,0.135,104500,0.135
2012-06-21,0.135,0.135,0.135,0.135,000,0.135
2012-06-20,0.135,0.135,0.135,0.135,000,0.135
2012-06-19,0.125,0.135,0.125,0.135,250000,0.135
2012-06-18,0.125,0.13,0.125,0.13,203300,0.13
2012-06-15,0.14,0.14,0.14,0.14,000,0.14
2012-06-14,0.14,0.14,0.14,0.14,000,0.14
2012-06-13,0.135,0.14,0.135,0.14,550000,0.14
2012-06-12,0.14,0.14,0.135,0.135,180000,0.135
2012-06-11,0.12,0.12,0.12,0.12,000,0.12
2012-06-08,0.12,0.12,0.12,0.12,000,0.12
2012-06-07,0.12,0.12,0.12,0.12,000,0.12
2012-06-06,0.105,0.12,0.105,0.12,15000,0.12
2012-06-05,0.12,0.12,0.12,0.12,000,0.12
2012-06-04,0.10,0.12,0.10,0.12,135000,0.12
2012-06-01,0.12,0.12,0.12,0.12,000,0.12
2012-05-31,0.10,0.12,0.10,0.12,200000,0.12
2012-05-30,0.09,0.098,0.09,0.098,269900,0.098
2012-05-29,0.086,0.086,0.086,0.086,000,0.086
2012-05-28,0.086,0.086,0.086,0.086,100000,0.086
2012-05-25,0.085,0.085,0.085,0.085,000,0.085
2012-05-24,0.085,0.085,0.085,0.085,000,0.085
2012-05-23,0.085,0.085,0.085,0.085,000,0.085
2012-05-22,0.085,0.085,0.085,0.085,50000,0.085
2012-05-21,0.086,0.086,0.085,0.085,100000,0.085
2012-05-18,0.091,0.091,0.091,0.091,000,0.091
2012-05-17,0.091,0.091,0.091,0.091,000,0.091
2012-05-16,0.092,0.092,0.091,0.091,52100,0.091
2012-05-15,0.095,0.095,0.091,0.091,50000,0.091
2012-05-14,0.095,0.095,0.095,0.095,274400,0.095
2012-05-11,0.095,0.095,0.095,0.095,100000,0.095
2012-05-10,0.09,0.09,0.09,0.09,000,0.09
2012-05-09,0.097,0.097,0.09,0.09,700000,0.09
2012-05-08,0.095,0.095,0.095,0.095,000,0.095
2012-05-07,0.095,0.095,0.095,0.095,300200,0.095
2012-05-04,0.085,0.095,0.08,0.095,112800,0.095
2012-05-03,0.08,0.085,0.08,0.085,730000,0.085
2012-05-02,0.08,0.085,0.08,0.085,660000,0.085
2012-05-01,0.10,0.105,0.095,0.105,150100,0.105
2012-04-30,0.10,0.10,0.10,0.10,000,0.10
2012-04-27,0.10,0.10,0.10,0.10,49800,0.10
2012-04-26,0.105,0.105,0.105,0.105,000,0.105
2012-04-25,0.11,0.11,0.11,0.11,000,0.11
2012-04-24,0.11,0.11,0.11,0.11,000,0.11
2012-04-23,0.11,0.11,0.11,0.11,000,0.11
2012-04-20,0.11,0.11,0.11,0.11,86400,0.11
2012-04-19,0.10,0.11,0.10,0.11,46300,0.11
2012-04-18,0.10,0.10,0.10,0.10,75000,0.10
2012-04-17,0.10,0.10,0.10,0.10,35000,0.10
2012-04-16,0.095,0.10,0.095,0.10,514700,0.10
2012-04-13,0.078,0.08,0.078,0.08,243300,0.08
2012-04-12,0.075,0.075,0.075,0.075,217700,0.075
2012-04-11,0.078,0.078,0.075,0.075,20000,0.075
2012-04-10,0.07,0.07,0.07,0.07,50000,0.07
2012-04-09,0.06,0.06,0.06,0.06,000,0.06
2012-04-06,0.06,0.06,0.06,0.06,000,0.06
2012-04-05,0.06,0.06,0.06,0.06,20000,0.06
2012-04-04,0.06,0.06,0.06,0.06,315000,0.06
2012-04-03,0.055,0.055,0.055,0.055,000,0.055
2012-04-02,0.055,0.055,0.055,0.055,50000,0.055
2012-03-30,0.055,0.055,0.055,0.055,80000,0.055
2012-03-29,0.06,0.06,0.06,0.06,000,0.06
2012-03-28,0.06,0.06,0.06,0.06,000,0.06
2012-03-27,0.06,0.06,0.06,0.06,000,0.06
2012-03-26,0.06,0.06,0.06,0.06,000,0.06
2012-03-23,0.06,0.06,0.06,0.06,000,0.06
2012-03-22,0.06,0.06,0.06,0.06,000,0.06
2012-03-21,0.06,0.06,0.06,0.06,000,0.06
2012-03-20,0.06,0.06,0.06,0.06,000,0.06
2012-03-19,0.06,0.06,0.06,0.06,000,0.06
2012-03-16,0.06,0.06,0.06,0.06,000,0.06
2012-03-15,0.06,0.06,0.06,0.06,000,0.06
2012-03-14,0.06,0.06,0.06,0.06,33300,0.06
2012-03-13,0.06,0.06,0.06,0.06,000,0.06
2012-03-12,0.06,0.06,0.06,0.06,000,0.06
2012-03-09,0.055,0.06,0.055,0.06,150000,0.06
2012-03-08,0.045,0.05,0.045,0.05,560000,0.05
2012-03-07,0.045,0.045,0.045,0.045,500000,0.045
2012-03-06,0.05,0.05,0.045,0.045,540000,0.045
2012-03-05,0.045,0.045,0.045,0.045,457100,0.045
2012-03-02,0.05,0.05,0.05,0.05,152800,0.05
2012-03-01,0.05,0.05,0.05,0.05,000,0.05
2012-02-29,0.05,0.05,0.05,0.05,100000,0.05
2012-02-28,0.05,0.05,0.05,0.05,000,0.05
2012-02-27,0.055,0.055,0.05,0.05,1959100,0.05
2012-02-24,0.06,0.06,0.06,0.06,273700,0.06
2012-02-23,0.07,0.07,0.07,0.07,000,0.07
2012-02-22,0.07,0.07,0.07,0.07,000,0.07
2012-02-21,0.08,0.08,0.07,0.07,210000,0.07
2012-02-20,0.08,0.08,0.08,0.08,000,0.08
2012-02-17,0.08,0.08,0.08,0.08,100000,0.08
2012-02-16,0.085,0.085,0.085,0.085,1500,0.085
2012-02-15,0.09,0.09,0.085,0.085,50000,0.085
2012-02-14,0.09,0.09,0.09,0.09,000,0.09
2012-02-13,0.09,0.09,0.09,0.09,14400,0.09
2012-02-10,0.09,0.09,0.09,0.09,000,0.09
2012-02-09,0.09,0.09,0.09,0.09,000,0.09
2012-02-08,0.09,0.09,0.09,0.09,30000,0.09
2012-02-07,0.09,0.09,0.09,0.09,50000,0.09
2012-02-06,0.09,0.09,0.09,0.09,000,0.09
2012-02-03,0.09,0.09,0.09,0.09,000,0.09
2012-02-02,0.09,0.09,0.09,0.09,000,0.09
2012-02-01,0.09,0.09,0.09,0.09,000,0.09
2012-01-31,0.09,0.09,0.09,0.09,30000,0.09
2012-01-27,0.10,0.10,0.10,0.10,120000,0.10
2012-01-26,0.12,0.12,0.12,0.12,000,0.12
2012-01-25,0.12,0.12,0.12,0.12,000,0.12
2012-01-24,0.10,0.12,0.10,0.12,110000,0.12
2012-01-23,0.10,0.12,0.10,0.12,119500,0.12
2012-01-20,0.075,0.075,0.075,0.075,000,0.075
2012-01-19,0.075,0.075,0.075,0.075,000,0.075
2012-01-18,0.075,0.075,0.075,0.075,000,0.075
2012-01-17,0.075,0.075,0.075,0.075,000,0.075
2012-01-16,0.075,0.075,0.075,0.075,000,0.075
2012-01-13,0.08,0.08,0.075,0.075,98000,0.075
2012-01-12,0.085,0.085,0.085,0.085,000,0.085
2012-01-11,0.085,0.085,0.085,0.085,000,0.085
2012-01-10,0.085,0.085,0.085,0.085,000,0.085
2012-01-09,0.085,0.085,0.085,0.085,000,0.085
2012-01-06,0.085,0.085,0.085,0.085,000,0.085
2012-01-05,0.085,0.085,0.085,0.085,000,0.085
2012-01-04,0.085,0.085,0.085,0.085,000,0.085
2012-01-03,0.085,0.085,0.085,0.085,000,0.085
2012-01-02,0.085,0.085,0.085,0.085,000,0.085
2011-12-30,0.085,0.085,0.085,0.085,000,0.085
2011-12-29,0.085,0.085,0.085,0.085,000,0.085
2011-12-28,0.085,0.085,0.085,0.085,000,0.085
2011-12-27,0.085,0.085,0.085,0.085,000,0.085
2011-12-26,0.085,0.085,0.085,0.085,000,0.085
2011-12-23,0.085,0.085,0.085,0.085,000,0.085
2011-12-22,0.085,0.085,0.085,0.085,4900,0.085
2011-12-21,0.085,0.085,0.085,0.085,95000,0.085
2011-12-20,0.085,0.085,0.085,0.085,000,0.085
2011-12-19,0.085,0.085,0.085,0.085,000,0.085
2011-12-16,0.085,0.085,0.085,0.085,100000,0.085
2011-12-15,0.088,0.088,0.088,0.088,000,0.088
2011-12-14,0.088,0.088,0.088,0.088,000,0.088
2011-12-13,0.088,0.088,0.088,0.088,000,0.088
2011-12-12,0.088,0.088,0.088,0.088,9900,0.088
2011-12-09,0.078,0.078,0.078,0.078,000,0.078
2011-12-08,0.078,0.078,0.078,0.078,000,0.078
2011-12-07,0.081,0.081,0.078,0.078,210000,0.078
2011-12-06,0.08,0.08,0.08,0.08,000,0.08
2011-12-05,0.08,0.08,0.08,0.08,100000,0.08
2011-12-02,0.075,0.075,0.075,0.075,000,0.075
2011-12-01,0.075,0.075,0.075,0.075,000,0.075
2011-11-30,0.075,0.075,0.075,0.075,12500,0.075
2011-11-29,0.075,0.075,0.075,0.075,000,0.075
2011-11-28,0.075,0.075,0.075,0.075,000,0.075
2011-11-25,0.075,0.075,0.075,0.075,000,0.075
2011-11-24,0.075,0.075,0.075,0.075,000,0.075
2011-11-23,0.075,0.075,0.075,0.075,000,0.075
2011-11-22,0.075,0.075,0.075,0.075,000,0.075
2011-11-21,0.075,0.075,0.075,0.075,000,0.075
2011-11-18,0.075,0.075,0.075,0.075,000,0.075
2011-11-17,0.075,0.075,0.075,0.075,000,0.075
2011-11-03,0.075,0.075,0.075,0.075,96500,0.075
2011-09-30,0.07,0.07,0.07,0.07,6500,0.07
2011-09-28,0.09,0.09,0.09,0.09,20000,0.09
2011-09-23,0.10,0.10,0.10,0.10,100000,0.10
2011-09-22,0.10,0.11,0.10,0.11,47000,0.11
2011-09-21,0.12,0.12,0.10,0.10,55000,0.10
2011-09-19,0.13,0.13,0.12,0.12,90000,0.12
2011-09-15,0.15,0.15,0.15,0.15,7000,0.15
2011-09-14,0.15,0.15,0.15,0.15,7500,0.15
2011-09-13,0.125,0.125,0.125,0.125,32000,0.125
2011-09-12,0.10,0.10,0.10,0.10,30000,0.10
2011-09-05,0.10,0.10,0.10,0.10,6900,0.10
2011-09-01,0.10,0.10,0.10,0.10,43000,0.10
2011-08-25,0.105,0.105,0.105,0.105,47900,0.105
2011-08-24,0.12,0.12,0.105,0.105,8000,0.105
2011-08-19,0.10,0.10,0.10,0.10,8900,0.10
2011-08-11,0.10,0.10,0.10,0.10,8000,0.10
2011-08-04,0.14,0.14,0.105,0.125,119100,0.125
2011-07-29,0.125,0.14,0.125,0.14,152800,0.14
2011-07-28,0.125,0.125,0.125,0.125,40000,0.125
2011-07-20,0.145,0.145,0.14,0.14,102100,0.14
2011-07-18,0.155,0.155,0.145,0.145,20000,0.145
2011-07-15,0.15,0.15,0.145,0.145,75000,0.145
2011-07-13,0.14,0.14,0.14,0.14,5000,0.14
2011-07-11,0.14,0.14,0.14,0.14,25000,0.14
2011-07-08,0.14,0.14,0.13,0.14,205000,0.14
2011-07-06,0.14,0.14,0.14,0.14,50000,0.14
2011-06-28,0.13,0.135,0.125,0.125,133000,0.125
2011-06-27,0.13,0.13,0.125,0.125,64300,0.125
2011-06-24,0.125,0.16,0.125,0.16,155000,0.16
2011-06-21,0.125,0.125,0.125,0.125,179500,0.125
2011-06-20,0.125,0.14,0.125,0.14,633700,0.14
2011-06-17,0.16,0.16,0.16,0.16,3000,0.16
2011-06-16,0.16,0.16,0.16,0.16,2600,0.16
2011-06-14,0.15,0.15,0.15,0.15,10000,0.15
2011-06-08,0.15,0.15,0.15,0.15,1000,0.15
2011-06-06,0.15,0.15,0.15,0.15,20000,0.15
2011-06-03,0.19,0.19,0.15,0.185,596700,0.185
2011-06-01,0.17,0.20,0.17,0.20,770000,0.20
2011-05-31,0.19,0.19,0.19,0.19,36900,0.19
2011-05-30,0.20,0.20,0.20,0.20,60000,0.20
2011-05-26,0.20,0.20,0.20,0.20,50000,0.20
2011-05-20,0.205,0.205,0.205,0.205,10000,0.205
2011-05-19,0.21,0.21,0.21,0.21,10000,0.21
2011-05-18,0.22,0.23,0.22,0.23,75000,0.23
2011-05-17,0.235,0.235,0.235,0.235,1500,0.235
2011-05-13,0.24,0.24,0.24,0.24,52000,0.24
2011-05-12,0.25,0.26,0.235,0.235,173000,0.235
2011-05-10,0.25,0.25,0.24,0.24,14000,0.24
2011-05-09,0.25,0.25,0.24,0.25,115700,0.25
2011-05-06,0.26,0.27,0.25,0.25,164900,0.25
2011-05-05,0.275,0.275,0.25,0.26,278000,0.26
2011-05-04,0.29,0.29,0.29,0.29,27800,0.29
2011-05-02,0.30,0.30,0.275,0.30,399500,0.30
2011-04-29,0.305,0.32,0.29,0.29,329400,0.29
2011-04-28,0.315,0.315,0.285,0.315,766900,0.315
2011-04-27,0.315,0.335,0.315,0.32,531000,0.32
2011-04-21,0.305,0.32,0.305,0.31,388000,0.31
2011-04-20,0.31,0.31,0.29,0.30,653000,0.30
2011-04-19,0.24,0.31,0.23,0.305,1724700,0.305
2011-04-18,0.24,0.245,0.235,0.245,121200,0.245
2011-04-15,0.235,0.24,0.235,0.235,94000,0.235
2011-04-14,0.23,0.23,0.23,0.23,125000,0.23
2011-04-13,0.23,0.24,0.23,0.24,40000,0.24
2011-04-12,0.22,0.24,0.22,0.24,134400,0.24
2011-04-11,0.235,0.235,0.22,0.22,182500,0.22
2011-04-08,0.225,0.25,0.225,0.235,547000,0.235
2011-04-07,0.23,0.30,0.23,0.235,1629500,0.235
