Date,Open,High,Low,Close,Volume,Adj Close
2017-01-10,0.051,0.051,0.05,0.05,19800,0.05
2017-01-09,0.049,0.049,0.049,0.049,000,0.049
2017-01-06,0.05,0.05,0.049,0.049,448500,0.049
2017-01-05,0.05,0.05,0.05,0.05,400000,0.05
2017-01-04,0.051,0.051,0.05,0.05,370000,0.05
2017-01-03,0.051,0.051,0.051,0.051,192600,0.051
2017-01-02,0.05,0.05,0.05,0.05,000,0.05
2016-12-30,0.05,0.05,0.05,0.05,000,0.05
2016-12-29,0.05,0.05,0.05,0.05,76300,0.05
2016-12-28,0.05,0.051,0.049,0.051,375500,0.051
2016-12-27,0.051,0.051,0.051,0.051,000,0.051
2016-12-26,0.051,0.051,0.051,0.051,000,0.051
2016-12-23,0.05,0.051,0.05,0.051,346300,0.051
2016-12-22,0.05,0.05,0.05,0.05,000,0.05
2016-12-21,0.05,0.05,0.05,0.05,1106000,0.05
2016-12-20,0.047,0.047,0.047,0.047,108300,0.047
2016-12-19,0.05,0.051,0.048,0.048,941500,0.048
2016-12-16,0.05,0.05,0.047,0.047,356900,0.047
2016-12-15,0.048,0.05,0.048,0.05,280000,0.05
2016-12-14,0.049,0.049,0.048,0.048,147200,0.048
2016-12-13,0.049,0.049,0.049,0.049,000,0.049
2016-12-12,0.05,0.05,0.049,0.049,144900,0.049
2016-12-09,0.053,0.053,0.05,0.05,259400,0.05
2016-12-08,0.051,0.051,0.05,0.05,494000,0.05
2016-12-07,0.054,0.054,0.051,0.051,704600,0.051
2016-12-06,0.055,0.055,0.055,0.055,329000,0.055
2016-12-05,0.06,0.06,0.058,0.059,40500,0.059
2016-12-02,0.05,0.055,0.05,0.055,512900,0.055
2016-12-01,0.049,0.05,0.049,0.049,45900,0.049
2016-11-30,0.048,0.049,0.048,0.049,85400,0.049
2016-11-29,0.049,0.049,0.046,0.047,166900,0.047
2016-11-28,0.05,0.05,0.05,0.05,000,0.05
2016-11-25,0.048,0.05,0.048,0.05,344500,0.05
2016-11-24,0.049,0.049,0.049,0.049,000,0.049
2016-11-23,0.049,0.049,0.049,0.049,000,0.049
2016-11-22,0.052,0.052,0.049,0.049,1060600,0.049
2016-11-21,0.056,0.057,0.052,0.052,452500,0.052
2016-11-18,0.06,0.06,0.056,0.056,451900,0.056
2016-11-17,0.059,0.06,0.056,0.057,359600,0.057
2016-11-16,0.057,0.057,0.057,0.057,366300,0.057
2016-11-15,0.05,0.055,0.05,0.055,339500,0.055
2016-11-14,0.054,0.055,0.05,0.05,1679500,0.05
2016-11-11,0.055,0.055,0.054,0.054,156800,0.054
2016-11-10,0.055,0.055,0.051,0.051,873300,0.051
2016-11-09,0.054,0.055,0.054,0.055,582200,0.055
2016-11-08,0.049,0.051,0.049,0.05,1216700,0.05
2016-11-07,0.051,0.051,0.047,0.048,982300,0.048
2016-11-04,0.053,0.054,0.05,0.05,740300,0.05
2016-11-03,0.052,0.054,0.051,0.052,661100,0.052
2016-11-02,0.048,0.052,0.048,0.051,1592500,0.051
2016-11-01,0.046,0.047,0.046,0.046,151100,0.046
2016-10-31,0.049,0.05,0.04,0.04,3894400,0.04
2016-10-28,0.048,0.049,0.048,0.048,1232900,0.048
2016-10-27,0.052,0.052,0.045,0.048,2226700,0.048
2016-10-26,0.064,0.064,0.052,0.052,658200,0.052
2016-10-25,0.072,0.073,0.06,0.06,773400,0.06
2016-10-24,0.073,0.073,0.073,0.073,000,0.073
2016-10-21,0.073,0.073,0.071,0.073,332900,0.073
2016-10-20,0.072,0.072,0.072,0.072,8200,0.072
2016-10-19,0.075,0.075,0.072,0.072,410800,0.072
2016-10-18,0.078,0.078,0.071,0.072,935900,0.072
2016-10-17,0.074,0.079,0.074,0.078,116800,0.078
2016-10-14,0.085,0.085,0.085,0.085,42100,0.085
2016-10-13,0.085,0.086,0.085,0.086,46400,0.086
2016-10-12,0.085,0.085,0.085,0.085,35100,0.085
2016-10-11,0.09,0.09,0.09,0.09,157400,0.09
2016-10-10,0.081,0.082,0.081,0.082,183800,0.082
2016-10-07,0.08,0.081,0.08,0.081,149200,0.081
2016-10-06,0.075,0.08,0.075,0.08,90000,0.08
2016-10-05,0.073,0.073,0.07,0.073,357200,0.073
2016-10-04,0.08,0.08,0.076,0.076,291700,0.076
2016-10-03,0.081,0.081,0.078,0.078,75000,0.078
2016-09-30,0.084,0.084,0.084,0.084,85000,0.084
2016-09-29,0.081,0.081,0.078,0.078,222100,0.078
2016-09-28,0.085,0.085,0.08,0.081,325700,0.081
2016-09-27,0.086,0.086,0.085,0.085,119700,0.085
2016-09-26,0.089,0.093,0.086,0.086,276300,0.086
2016-09-23,0.083,0.083,0.083,0.083,162700,0.083
2016-09-22,0.09,0.09,0.082,0.082,509800,0.082
2016-09-21,0.09,0.095,0.09,0.095,238800,0.095
2016-09-20,0.09,0.09,0.09,0.09,35000,0.09
2016-09-19,0.088,0.088,0.08,0.084,251700,0.084
2016-09-16,0.105,0.105,0.088,0.088,65200,0.088
2016-09-15,0.098,0.10,0.081,0.10,152600,0.10
2016-09-14,0.096,0.105,0.096,0.098,1000100,0.098
2016-09-13,0.09,0.095,0.09,0.095,561100,0.095
2016-09-12,0.09,0.091,0.087,0.09,990400,0.09
2016-09-09,0.085,0.09,0.085,0.087,349500,0.087
2016-09-08,0.084,0.085,0.084,0.085,70000,0.085
2016-09-07,0.067,0.067,0.067,0.067,000,0.067
2016-09-06,0.067,0.067,0.065,0.067,254500,0.067
2016-09-05,0.066,0.066,0.065,0.065,115100,0.065
2016-09-02,0.069,0.069,0.066,0.066,240000,0.066
2016-09-01,0.069,0.069,0.069,0.069,178500,0.069
2016-08-31,0.073,0.073,0.068,0.069,795800,0.069
2016-08-30,0.073,0.074,0.073,0.073,111400,0.073
2016-08-29,0.074,0.075,0.073,0.075,172500,0.075
2016-08-26,0.077,0.077,0.074,0.074,120000,0.074
2016-08-25,0.077,0.078,0.077,0.077,91000,0.077
2016-08-24,0.08,0.08,0.077,0.077,199400,0.077
2016-08-23,0.084,0.084,0.08,0.08,79900,0.08
2016-08-22,0.085,0.085,0.085,0.085,3000,0.085
2016-08-19,0.084,0.088,0.081,0.087,262800,0.087
2016-08-18,0.081,0.083,0.08,0.081,213100,0.081
2016-08-17,0.093,0.093,0.077,0.082,1486800,0.082
2016-08-16,0.098,0.10,0.095,0.10,36100,0.10
2016-08-15,0.105,0.105,0.098,0.098,208100,0.098
2016-08-12,0.105,0.105,0.10,0.10,300500,0.10
2016-08-11,0.099,0.105,0.099,0.105,438700,0.105
2016-08-10,0.095,0.10,0.095,0.095,456400,0.095
2016-08-09,0.096,0.096,0.096,0.096,6100,0.096
2016-08-08,0.10,0.10,0.099,0.099,305000,0.099
2016-08-05,0.092,0.098,0.092,0.098,140800,0.098
2016-08-04,0.09,0.091,0.09,0.091,57800,0.091
2016-08-03,0.091,0.091,0.09,0.09,78100,0.09
2016-08-02,0.098,0.098,0.09,0.091,298700,0.091
2016-08-01,0.10,0.10,0.098,0.098,451000,0.098
2016-07-29,0.105,0.105,0.09,0.099,1292500,0.099
2016-07-28,0.096,0.11,0.096,0.11,918400,0.11
2016-07-27,0.09,0.098,0.09,0.098,209900,0.098
2016-07-26,0.08,0.089,0.08,0.089,470000,0.089
2016-07-25,0.08,0.083,0.079,0.079,200700,0.079
2016-07-22,0.071,0.075,0.071,0.075,347100,0.075
2016-07-21,0.068,0.068,0.068,0.068,772100,0.068
2016-07-20,0.069,0.071,0.068,0.068,494000,0.068
2016-07-19,0.07,0.07,0.068,0.07,469100,0.07
2016-07-18,0.071,0.071,0.062,0.068,2517200,0.068
2016-07-15,0.08,0.08,0.075,0.075,404300,0.075
2016-07-14,0.08,0.08,0.076,0.077,404500,0.077
2016-07-13,0.085,0.085,0.08,0.08,796200,0.08
2016-07-12,0.088,0.088,0.085,0.085,243100,0.085
2016-07-11,0.085,0.088,0.085,0.088,129000,0.088
2016-07-08,0.089,0.09,0.085,0.085,164600,0.085
2016-07-07,0.089,0.089,0.085,0.087,598800,0.087
2016-07-06,0.096,0.096,0.089,0.089,1017900,0.089
2016-07-05,0.097,0.097,0.096,0.096,377800,0.096
2016-07-04,0.089,0.098,0.089,0.098,1977900,0.098
2016-07-01,0.084,0.09,0.084,0.089,1123000,0.089
2016-06-30,0.093,0.093,0.08,0.081,2047800,0.081
2016-06-29,0.105,0.105,0.09,0.09,1597300,0.09
2016-06-28,0.11,0.12,0.098,0.099,2029800,0.099
2016-06-27,0.15,0.15,0.10,0.105,8019100,0.105
2016-06-24,0.17,0.17,0.17,0.17,000,0.17
2016-06-23,0.17,0.17,0.17,0.17,000,0.17
2016-06-22,0.17,0.17,0.17,0.17,000,0.17
2016-06-21,0.17,0.17,0.17,0.17,000,0.17
2016-06-20,0.17,0.17,0.17,0.17,000,0.17
2016-06-17,0.17,0.17,0.17,0.17,000,0.17
2016-06-16,0.135,0.175,0.135,0.17,2302400,0.17
2016-06-15,0.13,0.14,0.125,0.135,596700,0.135
2016-06-14,0.145,0.145,0.13,0.13,598000,0.13
2016-06-13,0.135,0.135,0.135,0.135,000,0.135
2016-06-10,0.14,0.14,0.13,0.135,535500,0.135
2016-06-09,0.145,0.145,0.14,0.14,485700,0.14
2016-06-08,0.14,0.145,0.14,0.14,337800,0.14
2016-06-07,0.145,0.145,0.135,0.135,234500,0.135
2016-06-06,0.145,0.145,0.14,0.145,309600,0.145
2016-06-03,0.145,0.15,0.135,0.14,1055100,0.14
2016-06-02,0.14,0.14,0.13,0.135,804900,0.135
2016-06-01,0.12,0.135,0.12,0.135,850100,0.135
2016-05-31,0.14,0.145,0.115,0.115,2168800,0.115
2016-05-30,0.135,0.15,0.135,0.14,1597800,0.14
2016-05-27,0.12,0.135,0.12,0.13,424200,0.13
2016-05-26,0.105,0.12,0.105,0.12,234500,0.12
2016-05-25,0.115,0.115,0.10,0.105,961100,0.105
2016-05-24,0.12,0.12,0.11,0.115,353800,0.115
2016-05-23,0.125,0.125,0.12,0.12,27100,0.12
2016-05-20,0.125,0.125,0.12,0.12,731200,0.12
2016-05-19,0.13,0.13,0.12,0.12,326300,0.12
2016-05-18,0.127,0.13,0.127,0.13,247300,0.13
2016-05-17,0.13,0.135,0.127,0.13,340700,0.13
2016-05-16,0.12,0.13,0.12,0.125,300100,0.125
2016-05-13,0.115,0.12,0.11,0.12,522700,0.12
2016-05-12,0.125,0.125,0.11,0.11,841700,0.11
2016-05-11,0.135,0.135,0.11,0.125,1201300,0.125
2016-05-10,0.14,0.14,0.13,0.13,853100,0.13
2016-05-09,0.14,0.15,0.135,0.135,775100,0.135
2016-05-06,0.14,0.14,0.135,0.135,447300,0.135
2016-05-05,0.135,0.145,0.135,0.145,1272400,0.145
2016-05-04,0.14,0.14,0.13,0.13,1604000,0.13
2016-05-03,0.14,0.145,0.13,0.145,872500,0.145
2016-05-02,0.125,0.15,0.125,0.14,1806000,0.14
2016-04-29,0.115,0.125,0.115,0.125,958800,0.125
2016-04-28,0.11,0.115,0.11,0.115,447100,0.115
2016-04-27,0.115,0.115,0.11,0.11,1309900,0.11
2016-04-26,0.12,0.125,0.11,0.11,656700,0.11
2016-04-25,0.115,0.115,0.115,0.115,000,0.115
2016-04-22,0.13,0.13,0.105,0.115,637900,0.115
2016-04-21,0.115,0.125,0.11,0.125,446300,0.125
2016-04-20,0.11,0.12,0.11,0.11,1385600,0.11
2016-04-19,0.11,0.11,0.105,0.105,735400,0.105
2016-04-18,0.097,0.11,0.097,0.105,1122600,0.105
2016-04-15,0.097,0.097,0.091,0.095,682800,0.095
2016-04-14,0.094,0.096,0.094,0.095,1449100,0.095
2016-04-13,0.093,0.098,0.092,0.098,1546900,0.098
2016-04-12,0.091,0.10,0.091,0.097,1120200,0.097
2016-04-11,0.09,0.09,0.09,0.09,927300,0.09
2016-04-08,0.095,0.096,0.089,0.09,438200,0.09
2016-04-07,0.09,0.095,0.09,0.095,277100,0.095
2016-04-06,0.087,0.09,0.086,0.09,227900,0.09
2016-04-05,0.087,0.087,0.085,0.086,566300,0.086
2016-04-04,0.09,0.09,0.087,0.089,579500,0.089
2016-04-01,0.09,0.09,0.086,0.089,1346300,0.089
2016-03-31,0.092,0.095,0.09,0.09,717300,0.09
2016-03-30,0.10,0.10,0.09,0.09,1707700,0.09
2016-03-29,0.091,0.10,0.091,0.10,818200,0.10
2016-03-28,0.091,0.091,0.091,0.091,000,0.091
2016-03-25,0.091,0.091,0.091,0.091,000,0.091
2016-03-24,0.095,0.095,0.091,0.091,172200,0.091
2016-03-23,0.09,0.095,0.09,0.095,675200,0.095
2016-03-22,0.088,0.09,0.086,0.089,493200,0.089
2016-03-21,0.087,0.087,0.085,0.085,461200,0.085
2016-03-18,0.09,0.094,0.085,0.085,790600,0.085
2016-03-17,0.084,0.091,0.084,0.087,670000,0.087
2016-03-16,0.09,0.09,0.084,0.084,498200,0.084
2016-03-15,0.09,0.094,0.089,0.089,408000,0.089
2016-03-14,0.092,0.095,0.09,0.09,644200,0.09
2016-03-11,0.09,0.091,0.088,0.089,388400,0.089
2016-03-10,0.088,0.088,0.086,0.088,442900,0.088
2016-03-09,0.09,0.091,0.087,0.088,428500,0.088
2016-03-08,0.10,0.10,0.088,0.093,671900,0.093
2016-03-07,0.105,0.11,0.10,0.105,1193500,0.105
2016-03-04,0.105,0.11,0.10,0.11,2427300,0.11
2016-03-03,0.125,0.125,0.105,0.105,780100,0.105
2016-03-02,0.097,0.115,0.097,0.11,654300,0.11
2016-03-01,0.095,0.10,0.094,0.097,1523500,0.097
2016-02-29,0.095,0.095,0.093,0.095,355600,0.095
2016-02-26,0.099,0.099,0.093,0.095,1135100,0.095
2016-02-25,0.087,0.10,0.087,0.096,1783300,0.096
2016-02-24,0.08072,0.09129,0.08072,0.09033,356900,0.09033
2016-02-23,0.09226,0.09226,0.07784,0.07976,1958000,0.07976
2016-02-22,0.09514,0.09514,0.09129,0.09129,1049900,0.09129
2016-02-19,0.09514,0.09514,0.08649,0.09129,433100,0.09129
2016-02-18,0.09033,0.09514,0.09033,0.09129,597200,0.09129
2016-02-17,0.08745,0.09129,0.08745,0.09033,397500,0.09033
2016-02-16,0.0961,0.0961,0.08457,0.08553,1810000,0.08553
2016-02-15,0.08649,0.1009,0.08457,0.09226,2879200,0.09226
2016-02-12,0.07111,0.0961,0.07111,0.08553,3504800,0.08553
2016-02-11,0.05862,0.06439,0.05862,0.06439,484400,0.06439
2016-02-10,0.06343,0.06343,0.0567,0.05766,1332500,0.05766
2016-02-09,0.05766,0.06727,0.05766,0.06054,2718000,0.06054
2016-02-08,0.05574,0.0615,0.05478,0.05574,1254300,0.05574
2016-02-05,0.05189,0.05189,0.05189,0.05189,000,0.05189
2016-02-04,0.05189,0.05189,0.05189,0.05189,000,0.05189
2016-02-03,0.0567,0.0567,0.05093,0.05189,1925000,0.05189
2016-02-02,0.05766,0.05862,0.05574,0.0567,1749200,0.0567
2016-02-01,0.05478,0.0615,0.05478,0.05958,3003400,0.05958
2016-01-29,0.05478,0.05478,0.05189,0.05189,1123500,0.05189
2016-01-28,0.05574,0.0567,0.05382,0.05478,1986000,0.05478
2016-01-27,0.05574,0.0567,0.05285,0.05574,923700,0.05574
2016-01-26,0.05574,0.05574,0.05574,0.05574,000,0.05574
2016-01-25,0.05766,0.0615,0.05189,0.05574,1221200,0.05574
2016-01-22,0.05285,0.06246,0.04805,0.05285,2371200,0.05285
2016-01-21,0.05285,0.05574,0.05093,0.05093,1410200,0.05093
2016-01-20,0.05574,0.05574,0.04421,0.04901,9907100,0.04901
2016-01-19,0.0394,0.07688,0.03556,0.05478,44000600,0.05478
2016-01-18,0.01538,0.01538,0.01538,0.01538,000,0.01538
2016-01-15,0.01538,0.01538,0.01538,0.01538,000,0.01538
2016-01-14,0.01249,0.01538,0.01249,0.01538,432800,0.01538
2016-01-13,0.01249,0.01249,0.01249,0.01249,000,0.01249
2016-01-12,0.01249,0.01249,0.01249,0.01249,000,0.01249
2016-01-11,0.01345,0.01345,0.01249,0.01249,301700,0.01249
2016-01-08,0.01057,0.01057,0.01057,0.01057,000,0.01057
2016-01-07,0.01057,0.01057,0.01057,0.01057,000,0.01057
2016-01-06,0.01057,0.01057,0.01057,0.01057,000,0.01057
2016-01-05,0.01057,0.01057,0.01057,0.01057,000,0.01057
2016-01-04,0.01057,0.01057,0.01057,0.01057,000,0.01057
2016-01-01,0.01057,0.01057,0.01057,0.01057,000,0.01057
2015-12-31,0.01057,0.01057,0.01057,0.01057,000,0.01057
2015-12-30,0.01057,0.01057,0.01057,0.01057,000,0.01057
2015-12-29,0.01057,0.01057,0.01057,0.01057,000,0.01057
2015-12-28,0.01057,0.01057,0.01057,0.01057,000,0.01057
2015-12-25,0.01057,0.01057,0.01057,0.01057,000,0.01057
2015-12-24,0.01057,0.01057,0.01057,0.01057,000,0.01057
2015-12-23,0.01057,0.01057,0.01057,0.01057,000,0.01057
2015-12-22,0.01057,0.01057,0.01057,0.01057,000,0.01057
2015-12-21,0.01057,0.01057,0.01057,0.01057,842800,0.01057
2015-12-18,0.01057,0.01057,0.01057,0.01057,000,0.01057
2015-12-17,0.01057,0.01057,0.01057,0.01057,000,0.01057
2015-12-16,0.01057,0.01057,0.01057,0.01057,000,0.01057
2015-12-15,0.01345,0.01345,0.01057,0.01057,312100,0.01057
2015-12-14,0.01441,0.01441,0.01441,0.01441,000,0.01441
2015-12-11,0.01441,0.01441,0.01441,0.01441,52000,0.01441
2015-12-10,0.01634,0.01634,0.01634,0.01634,000,0.01634
2015-12-09,0.01634,0.01634,0.01634,0.01634,000,0.01634
2015-12-08,0.01634,0.01634,0.01634,0.01634,000,0.01634
2015-12-07,0.01634,0.01634,0.01634,0.01634,000,0.01634
2015-12-04,0.01634,0.01634,0.01634,0.01634,63000,0.01634
2015-12-03,0.01538,0.01538,0.01538,0.01538,000,0.01538
2015-12-02,0.01538,0.01538,0.01538,0.01538,000,0.01538
2015-12-01,0.01538,0.01538,0.01538,0.01538,000,0.01538
2015-11-30,0.01538,0.01538,0.01538,0.01538,000,0.01538
2015-11-27,0.01538,0.01538,0.01538,0.01538,000,0.01538
2015-11-26,0.01538,0.01538,0.01538,0.01538,000,0.01538
2015-11-25,0.01538,0.01538,0.01538,0.01538,000,0.01538
2015-11-24,0.01634,0.01634,0.01538,0.01538,104000,0.01538
2015-11-23,0.01634,0.01634,0.01634,0.01634,000,0.01634
2015-11-20,0.01634,0.01634,0.01634,0.01634,000,0.01634
2015-11-19,0.01634,0.01634,0.01634,0.01634,000,0.01634
2015-11-18,0.01634,0.01634,0.01634,0.01634,000,0.01634
2015-11-17,0.01634,0.01634,0.01634,0.01634,000,0.01634
2015-11-16,0.01634,0.01634,0.01634,0.01634,000,0.01634
2015-11-13,0.01634,0.01634,0.01634,0.01634,000,0.01634
2015-11-12,0.01634,0.01634,0.01634,0.01634,000,0.01634
2015-11-11,0.01634,0.01634,0.01634,0.01634,208100,0.01634
2015-11-10,0.0173,0.0173,0.0173,0.0173,000,0.0173
2015-11-09,0.0173,0.0173,0.0173,0.0173,000,0.0173
2015-11-06,0.0173,0.0173,0.0173,0.0173,000,0.0173
2015-11-05,0.0173,0.0173,0.0173,0.0173,78000,0.0173
2015-11-04,0.0221,0.0221,0.0221,0.0221,000,0.0221
2015-11-03,0.0221,0.0221,0.0221,0.0221,000,0.0221
2015-11-02,0.0221,0.0221,0.0221,0.0221,000,0.0221
2015-10-30,0.0221,0.0221,0.0221,0.0221,000,0.0221
2015-10-29,0.0221,0.0221,0.0221,0.0221,000,0.0221
2015-10-28,0.0221,0.0221,0.0221,0.0221,26000,0.0221
2015-10-27,0.02691,0.02691,0.02691,0.02691,000,0.02691
2015-10-26,0.02691,0.02691,0.02691,0.02691,000,0.02691
2015-10-23,0.02691,0.02691,0.02691,0.02691,000,0.02691
2015-10-22,0.02691,0.02691,0.02691,0.02691,000,0.02691
2015-10-21,0.02691,0.02691,0.02691,0.02691,000,0.02691
2015-10-20,0.02691,0.02691,0.02691,0.02691,000,0.02691
2015-10-19,0.02691,0.02691,0.02691,0.02691,000,0.02691
2015-10-16,0.02595,0.02691,0.02595,0.02691,77000,0.02691
2015-10-15,0.02595,0.02595,0.02595,0.02595,000,0.02595
2015-10-14,0.02595,0.02595,0.02595,0.02595,000,0.02595
2015-10-13,0.02595,0.02595,0.02595,0.02595,000,0.02595
2015-10-12,0.02595,0.02595,0.02595,0.02595,93600,0.02595
2015-10-09,0.0221,0.02402,0.0221,0.02402,509900,0.02402
2015-10-08,0.02306,0.02306,0.02306,0.02306,98800,0.02306
2015-10-07,0.01922,0.01922,0.01922,0.01922,000,0.01922
2015-10-06,0.01922,0.01922,0.01922,0.01922,000,0.01922
2015-10-05,0.01922,0.01922,0.01922,0.01922,000,0.01922
2015-10-02,0.01922,0.01922,0.01922,0.01922,000,0.01922
2015-10-01,0.02499,0.02499,0.01922,0.01922,10300,0.01922
2015-09-30,0.0173,0.0173,0.0173,0.0173,000,0.0173
2015-09-29,0.01922,0.01922,0.0173,0.0173,102700,0.0173
2015-09-28,0.02114,0.02114,0.02114,0.02114,000,0.02114
2015-09-25,0.02114,0.02114,0.02114,0.02114,156000,0.02114
2015-09-24,0.02402,0.02402,0.02402,0.02402,15600,0.02402
2015-09-23,0.02402,0.02402,0.02402,0.02402,000,0.02402
2015-09-22,0.02402,0.02402,0.02402,0.02402,000,0.02402
2015-09-21,0.02402,0.02402,0.02402,0.02402,155700,0.02402
2015-09-18,0.02691,0.02691,0.02691,0.02691,104000,0.02691
2015-09-17,0.02691,0.02787,0.02691,0.02787,364200,0.02787
2015-09-16,0.02787,0.02787,0.02691,0.02691,194600,0.02691
2015-09-15,0.02691,0.02691,0.02691,0.02691,67400,0.02691
2015-09-14,0.02691,0.02691,0.02691,0.02691,000,0.02691
2015-09-11,0.02691,0.02691,0.02691,0.02691,36600,0.02691
2015-09-10,0.02691,0.02691,0.02691,0.02691,156000,0.02691
2015-09-09,0.02402,0.02402,0.02402,0.02402,000,0.02402
2015-09-08,0.02402,0.02402,0.02402,0.02402,000,0.02402
2015-09-07,0.02595,0.02691,0.02402,0.02402,706800,0.02402
2015-09-04,0.02595,0.02595,0.02402,0.02402,301700,0.02402
2015-09-03,0.02499,0.02499,0.02499,0.02499,41600,0.02499
2015-09-02,0.02595,0.02595,0.02595,0.02595,000,0.02595
2015-09-01,0.02595,0.02595,0.02595,0.02595,244900,0.02595
2015-08-31,0.02595,0.02595,0.02499,0.02595,99900,0.02595
2015-08-28,0.02499,0.02595,0.02306,0.02595,349500,0.02595
2015-08-27,0.02018,0.02018,0.02018,0.02018,000,0.02018
2015-08-26,0.02018,0.02018,0.02018,0.02018,000,0.02018
2015-08-25,0.02018,0.02018,0.02018,0.02018,93600,0.02018
2015-08-24,0.01922,0.0221,0.01922,0.02018,340600,0.02018
2015-08-21,0.01922,0.01922,0.01922,0.01922,104000,0.01922
2015-08-20,0.01922,0.01922,0.01922,0.01922,000,0.01922
2015-08-19,0.01922,0.01922,0.01922,0.01922,000,0.01922
2015-08-18,0.01922,0.01922,0.01922,0.01922,000,0.01922
2015-08-17,0.01922,0.01922,0.01922,0.01922,156000,0.01922
2015-08-14,0.02114,0.02114,0.02114,0.02114,52000,0.02114
2015-08-13,0.02018,0.02018,0.02018,0.02018,172600,0.02018
2015-08-12,0.01922,0.01922,0.01922,0.01922,000,0.01922
2015-08-11,0.01922,0.01922,0.01922,0.01922,000,0.01922
2015-08-10,0.01922,0.01922,0.01922,0.01922,000,0.01922
2015-08-07,0.01922,0.01922,0.01922,0.01922,156000,0.01922
2015-08-06,0.01922,0.01922,0.01922,0.01922,104000,0.01922
2015-08-05,0.02018,0.02018,0.02018,0.02018,30100,0.02018
2015-08-04,0.02018,0.02018,0.02018,0.02018,411800,0.02018
2015-08-03,0.02595,0.02595,0.02595,0.02595,000,0.02595
2015-07-31,0.02595,0.02595,0.02595,0.02595,4300,0.02595
2015-07-30,0.02691,0.02691,0.02691,0.02691,800,0.02691
2015-07-29,0.02691,0.02691,0.02691,0.02691,19700,0.02691
2015-07-28,0.02691,0.02691,0.02595,0.02691,101900,0.02691
2015-07-27,0.02979,0.02979,0.02979,0.02979,104000,0.02979
2015-07-24,0.03075,0.03171,0.03075,0.03171,111800,0.03171
2015-07-23,0.03363,0.03363,0.03075,0.03075,434300,0.03075
2015-07-22,0.02402,0.02883,0.02402,0.02883,1491600,0.02883
2015-07-21,0.02499,0.02499,0.02402,0.02402,355000,0.02402
2015-07-20,0.02595,0.02595,0.02595,0.02595,104000,0.02595
2015-07-17,0.02499,0.02595,0.02499,0.02499,1009300,0.02499
2015-07-16,0.02691,0.02691,0.02691,0.02691,136800,0.02691
2015-07-15,0.02306,0.02691,0.02306,0.02691,359800,0.02691
2015-07-14,0.01922,0.02114,0.01922,0.02114,130000,0.02114
2015-07-13,0.01922,0.01922,0.01922,0.01922,411000,0.01922
2015-07-10,0.01826,0.01826,0.01826,0.01826,36400,0.01826
2015-07-09,0.01826,0.01826,0.01826,0.01826,000,0.01826
2015-07-08,0.01826,0.01826,0.01826,0.01826,000,0.01826
2015-07-07,0.01826,0.01826,0.01826,0.01826,312100,0.01826
2015-07-06,0.0173,0.0173,0.0173,0.0173,000,0.0173
2015-07-03,0.0173,0.0173,0.0173,0.0173,000,0.0173
2015-07-02,0.0173,0.0173,0.0173,0.0173,000,0.0173
2015-07-01,0.0173,0.0173,0.0173,0.0173,62400,0.0173
2015-06-30,0.01826,0.01826,0.01826,0.01826,171600,0.01826
2015-06-29,0.0173,0.0173,0.0173,0.0173,44700,0.0173
2015-06-26,0.0173,0.0173,0.0173,0.0173,000,0.0173
2015-06-25,0.0173,0.0173,0.0173,0.0173,109200,0.0173
2015-06-24,0.01826,0.01922,0.0173,0.0173,283200,0.0173
2015-06-23,0.01634,0.01634,0.01634,0.01634,000,0.01634
2015-06-22,0.01634,0.01634,0.01634,0.01634,000,0.01634
2015-06-19,0.01634,0.01634,0.01634,0.01634,000,0.01634
2015-06-18,0.01634,0.01634,0.01634,0.01634,239800,0.01634
2015-06-17,0.0173,0.0173,0.0173,0.0173,149800,0.0173
2015-06-16,0.0173,0.0173,0.01634,0.01634,223900,0.01634
2015-06-15,0.01922,0.01922,0.01922,0.01922,83000,0.01922
2015-06-12,0.02306,0.02306,0.02306,0.02306,93400,0.02306
2015-06-11,0.02691,0.02691,0.02691,0.02691,40800,0.02691
2015-06-10,0.02691,0.02691,0.02691,0.02691,000,0.02691
2015-06-09,0.02691,0.02691,0.02691,0.02691,100300,0.02691
2015-06-08,0.02691,0.02691,0.02691,0.02691,000,0.02691
2015-06-05,0.02691,0.02691,0.02691,0.02691,46800,0.02691
2015-06-04,0.02402,0.02595,0.02402,0.02595,208100,0.02595
2015-06-03,0.0221,0.02306,0.0221,0.02306,59500,0.02306
2015-06-02,0.02306,0.02306,0.02306,0.02306,312100,0.02306
2015-06-01,0.02306,0.02306,0.02306,0.02306,000,0.02306
2015-05-29,0.02306,0.02306,0.02306,0.02306,000,0.02306
2015-05-28,0.02306,0.02306,0.02306,0.02306,000,0.02306
2015-05-27,0.02114,0.02306,0.02114,0.02306,359900,0.02306
2015-05-26,0.01922,0.01922,0.01922,0.01922,000,0.01922
2015-05-25,0.01922,0.01922,0.01922,0.01922,104000,0.01922
2015-05-22,0.01922,0.01922,0.01922,0.01922,000,0.01922
2015-05-21,0.01922,0.01922,0.01922,0.01922,277000,0.01922
2015-05-20,0.01826,0.01826,0.01826,0.01826,000,0.01826
2015-05-19,0.01826,0.01826,0.01826,0.01826,000,0.01826
2015-05-18,0.01826,0.01826,0.01826,0.01826,000,0.01826
2015-05-15,0.01826,0.01826,0.01826,0.01826,000,0.01826
2015-05-14,0.01826,0.01826,0.01826,0.01826,000,0.01826
2015-05-13,0.02018,0.02018,0.01826,0.01826,56200,0.01826
2015-05-12,0.0173,0.0173,0.0173,0.0173,000,0.0173
2015-05-11,0.0173,0.0173,0.0173,0.0173,000,0.0173
2015-05-08,0.02018,0.02018,0.0173,0.0173,87400,0.0173
2015-05-07,0.01922,0.01922,0.01922,0.01922,41600,0.01922
2015-05-06,0.0221,0.0221,0.01922,0.01922,74900,0.01922
2015-05-05,0.0221,0.0221,0.0221,0.0221,22600,0.0221
2015-05-04,0.0221,0.0221,0.0221,0.0221,000,0.0221
2015-05-01,0.0221,0.0221,0.0221,0.0221,000,0.0221
2015-04-30,0.0221,0.0221,0.0221,0.0221,41600,0.0221
2015-04-29,0.02402,0.02402,0.02402,0.02402,000,0.02402
2015-04-28,0.02402,0.02402,0.02402,0.02402,000,0.02402
2015-04-27,0.02402,0.02402,0.02402,0.02402,000,0.02402
2015-04-24,0.02402,0.02402,0.02402,0.02402,000,0.02402
2015-04-23,0.02402,0.02402,0.02402,0.02402,000,0.02402
2015-04-22,0.02402,0.02402,0.02402,0.02402,103900,0.02402
2015-04-21,0.02595,0.02595,0.02402,0.02402,76800,0.02402
2015-04-20,0.02402,0.02402,0.02402,0.02402,235300,0.02402
2015-04-17,0.02691,0.02691,0.02499,0.02499,102400,0.02499
2015-04-16,0.02402,0.02402,0.02402,0.02402,104000,0.02402
2015-04-15,0.02595,0.02595,0.02595,0.02595,000,0.02595
2015-04-14,0.02114,0.02595,0.02114,0.02595,613900,0.02595
2015-04-13,0.01826,0.02018,0.01826,0.02018,877400,0.02018
2015-04-10,0.01922,0.01922,0.01922,0.01922,000,0.01922
2015-04-09,0.01922,0.01922,0.01922,0.01922,000,0.01922
2015-04-08,0.01922,0.01922,0.01922,0.01922,145600,0.01922
2015-04-07,0.02402,0.02402,0.02402,0.02402,104000,0.02402
2015-04-06,0.02402,0.02402,0.02402,0.02402,000,0.02402
2015-04-03,0.02402,0.02402,0.02402,0.02402,000,0.02402
2015-04-02,0.02402,0.02402,0.02402,0.02402,79400,0.02402
2015-04-01,0.02691,0.02691,0.02691,0.02691,000,0.02691
2015-03-31,0.02499,0.02691,0.02499,0.02691,156000,0.02691
2015-03-30,0.02499,0.02499,0.02499,0.02499,104000,0.02499
2015-03-27,0.01922,0.01922,0.01922,0.01922,000,0.01922
2015-03-26,0.01922,0.01922,0.01922,0.01922,000,0.01922
2015-03-25,0.01922,0.01922,0.01922,0.01922,000,0.01922
2015-03-24,0.01922,0.01922,0.01922,0.01922,000,0.01922
2015-03-23,0.01922,0.01922,0.01922,0.01922,000,0.01922
2015-03-20,0.01922,0.01922,0.01922,0.01922,000,0.01922
2015-03-19,0.01922,0.01922,0.01922,0.01922,72800,0.01922
2015-03-18,0.02499,0.02499,0.02499,0.02499,000,0.02499
2015-03-17,0.02499,0.02499,0.02499,0.02499,000,0.02499
2015-03-16,0.02499,0.02499,0.02499,0.02499,000,0.02499
2015-03-13,0.02499,0.02499,0.02499,0.02499,000,0.02499
2015-03-12,0.02499,0.02499,0.02499,0.02499,000,0.02499
2015-03-11,0.02499,0.02499,0.02499,0.02499,000,0.02499
2015-03-10,0.02499,0.02499,0.02499,0.02499,000,0.02499
2015-03-09,0.02499,0.02499,0.02499,0.02499,000,0.02499
2015-03-06,0.02499,0.02499,0.02499,0.02499,000,0.02499
2015-03-05,0.02499,0.02499,0.02499,0.02499,000,0.02499
2015-03-04,0.02499,0.02499,0.02499,0.02499,000,0.02499
2015-03-03,0.02499,0.02499,0.02499,0.02499,000,0.02499
2015-03-02,0.02499,0.02499,0.02499,0.02499,000,0.02499
2015-02-27,0.02499,0.02499,0.02499,0.02499,000,0.02499
2015-02-26,0.02499,0.02499,0.02499,0.02499,000,0.02499
2015-02-25,0.02499,0.02499,0.02499,0.02499,36400,0.02499
2015-02-24,0.02499,0.02499,0.02499,0.02499,000,0.02499
2015-02-23,0.02883,0.02883,0.02499,0.02499,213300,0.02499
2015-02-20,0.02883,0.02883,0.02883,0.02883,104000,0.02883
2015-02-19,0.03075,0.03075,0.03075,0.03075,104000,0.03075
2015-02-18,0.02499,0.02499,0.02499,0.02499,10400,0.02499
2015-02-17,0.02883,0.02883,0.02883,0.02883,000,0.02883
2015-02-16,0.02883,0.02883,0.02883,0.02883,000,0.02883
2015-02-13,0.02883,0.02883,0.02883,0.02883,000,0.02883
2015-02-12,0.02883,0.02883,0.02883,0.02883,000,0.02883
2015-02-11,0.02883,0.02883,0.02883,0.02883,000,0.02883
2015-02-10,0.02883,0.02883,0.02883,0.02883,000,0.02883
2015-02-09,0.02883,0.02883,0.02883,0.02883,000,0.02883
2015-02-06,0.02883,0.02883,0.02883,0.02883,57200,0.02883
2015-02-05,0.03556,0.03556,0.03556,0.03556,000,0.03556
2015-02-04,0.03556,0.03556,0.03556,0.03556,000,0.03556
2015-02-03,0.03556,0.03556,0.03556,0.03556,71400,0.03556
2015-02-02,0.03652,0.03652,0.03652,0.03652,000,0.03652
2015-01-30,0.03556,0.03652,0.03556,0.03652,291600,0.03652
2015-01-29,0.03556,0.03556,0.03556,0.03556,72500,0.03556
2015-01-28,0.03844,0.03844,0.0346,0.0346,441900,0.0346
2015-01-27,0.02595,0.03363,0.02595,0.03363,516800,0.03363
2015-01-26,0.02402,0.02402,0.02402,0.02402,000,0.02402
2015-01-23,0.02402,0.02595,0.02402,0.02402,1087400,0.02402
2015-01-22,0.02018,0.02018,0.02018,0.02018,000,0.02018
2015-01-21,0.02018,0.02018,0.02018,0.02018,72800,0.02018
2015-01-20,0.02018,0.02114,0.02018,0.02114,455700,0.02114
2015-01-19,0.02018,0.02018,0.02018,0.02018,27700,0.02018
2015-01-16,0.02306,0.02306,0.02306,0.02306,000,0.02306
2015-01-15,0.02306,0.02306,0.02306,0.02306,000,0.02306
2015-01-14,0.02306,0.02306,0.02306,0.02306,000,0.02306
2015-01-13,0.02306,0.02306,0.02306,0.02306,000,0.02306
2015-01-12,0.02306,0.02306,0.02306,0.02306,000,0.02306
2015-01-09,0.02306,0.02306,0.02306,0.02306,000,0.02306
2015-01-08,0.02306,0.02306,0.02306,0.02306,000,0.02306
2015-01-07,0.02306,0.02306,0.02306,0.02306,000,0.02306
2015-01-06,0.02306,0.02306,0.02306,0.02306,90500,0.02306
2015-01-05,0.02402,0.02402,0.02402,0.02402,000,0.02402
2015-01-02,0.02402,0.02402,0.02402,0.02402,104000,0.02402
2015-01-01,0.02402,0.02402,0.02402,0.02402,000,0.02402
2014-12-31,0.02402,0.02402,0.02402,0.02402,000,0.02402
2014-12-30,0.02402,0.02402,0.02402,0.02402,000,0.02402
2014-12-29,0.02402,0.02402,0.02402,0.02402,000,0.02402
2014-12-26,0.02402,0.02402,0.02402,0.02402,000,0.02402
2014-12-25,0.02402,0.02402,0.02402,0.02402,000,0.02402
2014-12-24,0.02402,0.02402,0.02402,0.02402,000,0.02402
2014-12-23,0.02402,0.02402,0.02402,0.02402,000,0.02402
2014-12-22,0.02402,0.02402,0.02402,0.02402,000,0.02402
2014-12-19,0.02402,0.02402,0.02402,0.02402,104000,0.02402
2014-12-18,0.02499,0.02499,0.02499,0.02499,000,0.02499
2014-12-17,0.02402,0.02499,0.02402,0.02499,340600,0.02499
2014-12-16,0.02018,0.02018,0.02018,0.02018,000,0.02018
2014-12-15,0.02018,0.02018,0.02018,0.02018,000,0.02018
2014-12-12,0.02018,0.02018,0.02018,0.02018,000,0.02018
2014-12-11,0.02402,0.02402,0.02018,0.02018,260100,0.02018
2014-12-10,0.01922,0.01922,0.01922,0.01922,122400,0.01922
2014-12-09,0.01922,0.01922,0.01922,0.01922,31200,0.01922
2014-12-08,0.02402,0.02499,0.02114,0.02114,77200,0.02114
2014-12-05,0.02402,0.02499,0.02402,0.02499,161200,0.02499
2014-12-04,0.02306,0.02306,0.02306,0.02306,20800,0.02306
2014-12-03,0.02114,0.02114,0.02114,0.02114,000,0.02114
2014-12-02,0.02114,0.02114,0.02114,0.02114,000,0.02114
2014-12-01,0.02114,0.02114,0.02114,0.02114,21600,0.02114
2014-11-28,0.02114,0.02114,0.02114,0.02114,000,0.02114
2014-11-27,0.02114,0.02114,0.02114,0.02114,52000,0.02114
2014-11-26,0.0221,0.0221,0.0221,0.0221,000,0.0221
2014-11-25,0.0221,0.0221,0.0221,0.0221,260100,0.0221
2014-11-24,0.02018,0.02018,0.02018,0.02018,90500,0.02018
2014-11-21,0.01922,0.02018,0.01922,0.02018,291300,0.02018
2014-11-20,0.02114,0.02114,0.02114,0.02114,000,0.02114
2014-11-19,0.01922,0.02114,0.01922,0.02114,338100,0.02114
2014-11-18,0.02114,0.02114,0.02114,0.02114,000,0.02114
2014-11-17,0.02114,0.02114,0.02114,0.02114,187300,0.02114
2014-11-14,0.0221,0.0221,0.0221,0.0221,208100,0.0221
2014-11-13,0.02114,0.02114,0.02114,0.02114,000,0.02114
2014-11-12,0.02018,0.02114,0.02018,0.02114,359000,0.02114
2014-11-11,0.0221,0.0221,0.0221,0.0221,000,0.0221
2014-11-10,0.0221,0.0221,0.02018,0.0221,134300,0.0221
2014-11-07,0.0221,0.0221,0.0221,0.0221,83200,0.0221
2014-11-06,0.02402,0.02402,0.02402,0.02402,11700,0.02402
2014-11-05,0.02499,0.02499,0.02499,0.02499,104000,0.02499
2014-11-04,0.02595,0.02595,0.02595,0.02595,000,0.02595
2014-11-03,0.02595,0.02595,0.02595,0.02595,000,0.02595
2014-10-31,0.02499,0.02595,0.02499,0.02595,142100,0.02595
2014-10-30,0.02499,0.02499,0.02499,0.02499,000,0.02499
2014-10-29,0.02499,0.02499,0.02499,0.02499,312100,0.02499
2014-10-28,0.02499,0.02499,0.02499,0.02499,000,0.02499
2014-10-27,0.02499,0.02499,0.02499,0.02499,252200,0.02499
2014-10-24,0.02499,0.02499,0.02499,0.02499,208100,0.02499
2014-10-23,0.02499,0.02499,0.02499,0.02499,452100,0.02499
2014-10-22,0.02402,0.02402,0.02402,0.02402,154700,0.02402
2014-10-21,0.02306,0.02306,0.02306,0.02306,104000,0.02306
2014-10-20,0.02402,0.02402,0.02402,0.02402,99800,0.02402
2014-10-17,0.02499,0.02595,0.02499,0.02499,507800,0.02499
2014-10-16,0.02499,0.02595,0.02499,0.02595,593100,0.02595
2014-10-15,0.0221,0.02691,0.0221,0.02691,310900,0.02691
2014-10-14,0.02114,0.02114,0.02114,0.02114,104000,0.02114
2014-10-13,0.02114,0.02114,0.02114,0.02114,520200,0.02114
2014-10-10,0.02402,0.02402,0.02402,0.02402,000,0.02402
2014-10-09,0.02499,0.02499,0.02402,0.02402,135200,0.02402
2014-10-08,0.02883,0.02883,0.02883,0.02883,000,0.02883
2014-10-07,0.02883,0.02883,0.02883,0.02883,000,0.02883
2014-10-06,0.02691,0.02979,0.02691,0.02883,1101100,0.02883
2014-10-03,0.0221,0.0221,0.0221,0.0221,000,0.0221
2014-10-02,0.0221,0.0221,0.0221,0.0221,000,0.0221
2014-10-01,0.0221,0.0221,0.0221,0.0221,000,0.0221
2014-09-30,0.0221,0.0221,0.0221,0.0221,31200,0.0221
2014-09-29,0.0221,0.0221,0.0221,0.0221,218500,0.0221
2014-09-26,0.02306,0.02306,0.02306,0.02306,000,0.02306
2014-09-25,0.02499,0.02499,0.02306,0.02306,180100,0.02306
2014-09-24,0.02306,0.02499,0.02306,0.02499,223700,0.02499
2014-09-23,0.02114,0.02114,0.01826,0.01826,226800,0.01826
2014-09-22,0.0173,0.0173,0.0173,0.0173,000,0.0173
2014-09-19,0.0173,0.0173,0.0173,0.0173,10400,0.0173
2014-09-18,0.02499,0.02499,0.02306,0.02306,289200,0.02306
2014-09-17,0.02595,0.02595,0.02595,0.02595,228900,0.02595
2014-09-16,0.02787,0.02787,0.02787,0.02787,37900,0.02787
2014-09-15,0.02787,0.02883,0.02787,0.02883,468200,0.02883
2014-09-12,0.02595,0.02787,0.02595,0.02787,447400,0.02787
2014-09-11,0.02306,0.02691,0.02306,0.02691,554100,0.02691
2014-09-10,0.02402,0.02402,0.02402,0.02402,79000,0.02402
2014-09-09,0.02402,0.02402,0.02402,0.02402,588600,0.02402
2014-09-08,0.02691,0.02787,0.02691,0.02787,260100,0.02787
2014-09-05,0.02595,0.02595,0.0221,0.0221,295800,0.0221
2014-09-04,0.02595,0.02595,0.02595,0.02595,20800,0.02595
2014-09-03,0.02595,0.02595,0.02499,0.02499,20800,0.02499
2014-09-02,0.02402,0.02402,0.02402,0.02402,208100,0.02402
2014-09-01,0.02018,0.0221,0.02018,0.0221,426600,0.0221
2014-08-29,0.02018,0.02018,0.02018,0.02018,208100,0.02018
2014-08-28,0.02402,0.02402,0.02402,0.02402,000,0.02402
2014-08-27,0.0221,0.02402,0.0221,0.02402,312100,0.02402
2014-08-26,0.02018,0.02018,0.02018,0.02018,208100,0.02018
2014-08-25,0.02114,0.02114,0.02114,0.02114,468200,0.02114
2014-08-22,0.02018,0.02114,0.02018,0.02114,291300,0.02114
2014-08-21,0.02114,0.02114,0.02114,0.02114,000,0.02114
2014-08-20,0.02306,0.02306,0.02114,0.02114,221600,0.02114
2014-08-19,0.02306,0.02306,0.02306,0.02306,126100,0.02306
2014-08-18,0.02306,0.02306,0.02306,0.02306,37400,0.02306
2014-08-15,0.0221,0.02306,0.0221,0.02306,208100,0.02306
2014-08-14,0.0221,0.0221,0.0221,0.0221,124800,0.0221
2014-08-13,0.0221,0.02306,0.0221,0.02306,600800,0.02306
2014-08-12,0.02114,0.02114,0.02114,0.02114,117300,0.02114
2014-08-11,0.01922,0.01922,0.01922,0.01922,141700,0.01922
2014-08-08,0.01922,0.01922,0.01922,0.01922,52000,0.01922
2014-08-07,0.02114,0.02114,0.02114,0.02114,119600,0.02114
2014-08-06,0.02306,0.02306,0.02114,0.02114,496900,0.02114
2014-08-05,0.02306,0.02306,0.02306,0.02306,26000,0.02306
2014-08-04,0.02499,0.02499,0.02306,0.02306,541100,0.02306
2014-08-01,0.02402,0.02787,0.02306,0.02691,1145000,0.02691
2014-07-31,0.01538,0.02306,0.01538,0.02306,927400,0.02306
2014-07-30,0.01249,0.01249,0.01249,0.01249,520200,0.01249
2014-07-29,0.00961,0.00961,0.00961,0.00961,000,0.00961
2014-07-28,0.00961,0.00961,0.00961,0.00961,000,0.00961
2014-07-25,0.00961,0.00961,0.00961,0.00961,78000,0.00961
2014-07-24,0.00961,0.00961,0.00961,0.00961,000,0.00961
2014-07-23,0.00961,0.00961,0.00961,0.00961,520200,0.00961
2014-07-22,0.00769,0.00769,0.00769,0.00769,000,0.00769
2014-07-21,0.00769,0.00769,0.00769,0.00769,000,0.00769
2014-07-18,0.00769,0.00769,0.00769,0.00769,000,0.00769
2014-07-17,0.00769,0.00769,0.00769,0.00769,33800,0.00769
2014-07-16,0.00961,0.00961,0.00961,0.00961,28000,0.00961
2014-07-15,0.01249,0.01249,0.01249,0.01249,20800,0.01249
2014-07-14,0.01153,0.01153,0.01153,0.01153,000,0.01153
2014-07-11,0.01153,0.01153,0.01153,0.01153,000,0.01153
2014-07-10,0.01153,0.01153,0.01153,0.01153,000,0.01153
2014-07-09,0.01153,0.01153,0.01153,0.01153,000,0.01153
2014-07-08,0.01153,0.01153,0.01153,0.01153,000,0.01153
2014-07-07,0.01153,0.01153,0.01153,0.01153,000,0.01153
2014-07-04,0.01153,0.01153,0.01153,0.01153,000,0.01153
2014-07-03,0.01153,0.01153,0.01153,0.01153,000,0.01153
2014-07-02,0.01153,0.01153,0.01153,0.01153,20800,0.01153
2014-07-01,0.00961,0.00961,0.00961,0.00961,95600,0.00961
2014-06-30,0.01057,0.01057,0.00961,0.00961,395400,0.00961
2014-06-27,0.00961,0.00961,0.00961,0.00961,000,0.00961
2014-06-26,0.00961,0.00961,0.00961,0.00961,135200,0.00961
2014-06-25,0.00961,0.00961,0.00961,0.00961,379800,0.00961
2014-06-24,0.01057,0.01057,0.01057,0.01057,000,0.01057
2014-06-23,0.00961,0.01057,0.00961,0.01057,109200,0.01057
2014-06-20,0.00961,0.00961,0.00961,0.00961,383300,0.00961
2014-06-19,0.00961,0.00961,0.00961,0.00961,000,0.00961
2014-06-18,0.00961,0.00961,0.00961,0.00961,000,0.00961
2014-06-17,0.00961,0.00961,0.00961,0.00961,000,0.00961
2014-06-16,0.00961,0.00961,0.00961,0.00961,000,0.00961
2014-06-13,0.00961,0.00961,0.00961,0.00961,000,0.00961
2014-06-12,0.00961,0.00961,0.00961,0.00961,17600,0.00961
2014-06-11,0.00961,0.00961,0.00961,0.00961,195300,0.00961
2014-06-10,0.00961,0.01057,0.00961,0.01057,863600,0.01057
2014-06-09,0.00865,0.00865,0.00865,0.00865,000,0.00865
2014-06-06,0.00865,0.00865,0.00865,0.00865,5200,0.00865
2014-06-05,0.00865,0.00865,0.00865,0.00865,98800,0.00865
2014-06-04,0.00769,0.00769,0.00769,0.00769,20800,0.00769
2014-06-03,0.00673,0.00673,0.00673,0.00673,000,0.00673
2014-06-02,0.00865,0.00865,0.00673,0.00673,546300,0.00673
2014-05-30,0.00769,0.00961,0.00769,0.00769,463000,0.00769
2014-05-29,0.00865,0.00961,0.00769,0.00961,603500,0.00961
2014-05-28,0.00865,0.00865,0.00865,0.00865,104000,0.00865
2014-05-27,0.00961,0.00961,0.00961,0.00961,104000,0.00961
2014-05-26,0.00961,0.00961,0.00961,0.00961,104000,0.00961
2014-05-23,0.01057,0.01057,0.01057,0.01057,000,0.01057
2014-05-22,0.00961,0.01057,0.00961,0.01057,325700,0.01057
2014-05-21,0.01441,0.01441,0.01441,0.01441,000,0.01441
2014-05-20,0.01441,0.01441,0.01441,0.01441,000,0.01441
2014-05-19,0.01441,0.01441,0.01441,0.01441,000,0.01441
2014-05-16,0.01441,0.01441,0.01441,0.01441,000,0.01441
2014-05-15,0.01441,0.01441,0.01441,0.01441,000,0.01441
2014-05-14,0.01441,0.01441,0.01441,0.01441,000,0.01441
2014-05-13,0.01345,0.01441,0.01345,0.01441,10400,0.01441
2014-05-12,0.01441,0.01441,0.01345,0.01345,15200,0.01345
2014-05-09,0.01441,0.01441,0.01441,0.01441,57200,0.01441
2014-05-08,0.01345,0.01345,0.01345,0.01345,10800,0.01345
2014-05-07,0.01249,0.01249,0.01249,0.01249,10400,0.01249
2014-05-06,0.01153,0.01153,0.01153,0.01153,000,0.01153
2014-05-05,0.01153,0.01153,0.01153,0.01153,104000,0.01153
2014-05-02,0.01153,0.01153,0.01153,0.01153,26000,0.01153
2014-05-01,0.01153,0.01153,0.01153,0.01153,26000,0.01153
2014-04-30,0.01057,0.01057,0.01057,0.01057,000,0.01057
2014-04-29,0.01057,0.01057,0.01057,0.01057,000,0.01057
2014-04-28,0.01057,0.01057,0.01057,0.01057,104000,0.01057
2014-04-25,0.01057,0.01057,0.01057,0.01057,000,0.01057
2014-04-24,0.01057,0.01057,0.01057,0.01057,104000,0.01057
2014-04-23,0.01025,0.01025,0.01025,0.01025,214600,0.01025
2014-04-22,0.01211,0.01211,0.01025,0.01025,135900,0.01025
2014-04-21,0.01398,0.01398,0.01398,0.01398,000,0.01398
2014-04-18,0.01398,0.01398,0.01398,0.01398,000,0.01398
2014-04-17,0.01398,0.01398,0.01398,0.01398,000,0.01398
2014-04-16,0.01398,0.01398,0.01398,0.01398,000,0.01398
2014-04-15,0.01398,0.01398,0.01398,0.01398,000,0.01398
2014-04-14,0.01398,0.01398,0.01398,0.01398,000,0.01398
2014-04-11,0.01398,0.01398,0.01398,0.01398,000,0.01398
2014-04-10,0.01398,0.01398,0.01398,0.01398,71900,0.01398
2014-04-09,0.01491,0.01491,0.01491,0.01491,000,0.01491
2014-04-08,0.01491,0.01491,0.01491,0.01491,000,0.01491
2014-04-07,0.01584,0.01584,0.01491,0.01491,228400,0.01491
2014-04-04,0.01677,0.01677,0.01677,0.01677,000,0.01677
2014-04-03,0.01677,0.01677,0.01677,0.01677,252100,0.01677
2014-04-02,0.01584,0.01677,0.01584,0.01677,125100,0.01677
2014-04-01,0.01771,0.01771,0.01771,0.01771,85800,0.01771
2014-03-31,0.01677,0.01677,0.01677,0.01677,21400,0.01677
2014-03-28,0.01771,0.01771,0.01771,0.01771,214600,0.01771
2014-03-27,0.01584,0.01677,0.01584,0.01584,407700,0.01584
2014-03-26,0.01491,0.01491,0.01398,0.01491,179300,0.01491
2014-03-25,0.01491,0.01491,0.01491,0.01491,000,0.01491
2014-03-24,0.01491,0.01491,0.01491,0.01491,000,0.01491
2014-03-21,0.01491,0.01491,0.01491,0.01491,000,0.01491
2014-03-20,0.01491,0.01491,0.01491,0.01491,000,0.01491
2014-03-19,0.01491,0.01491,0.01491,0.01491,000,0.01491
2014-03-18,0.01491,0.01491,0.01491,0.01491,000,0.01491
2014-03-17,0.01491,0.01491,0.01491,0.01491,000,0.01491
2014-03-14,0.01491,0.01491,0.01491,0.01491,000,0.01491
2014-03-13,0.01491,0.01491,0.01491,0.01491,21400,0.01491
2014-03-12,0.01491,0.01491,0.01491,0.01491,21400,0.01491
2014-03-11,0.01491,0.01491,0.01491,0.01491,21400,0.01491
2014-03-10,0.01398,0.01398,0.01398,0.01398,000,0.01398
2014-03-07,0.01398,0.01398,0.01398,0.01398,000,0.01398
2014-03-06,0.01398,0.01398,0.01398,0.01398,000,0.01398
2014-03-05,0.01398,0.01398,0.01398,0.01398,139500,0.01398
2014-03-04,0.01305,0.01398,0.01305,0.01398,70400,0.01398
2014-03-03,0.01584,0.01584,0.01584,0.01584,000,0.01584
2014-02-28,0.01584,0.01584,0.01584,0.01584,21400,0.01584
2014-02-27,0.01491,0.01491,0.01491,0.01491,000,0.01491
2014-02-26,0.01491,0.01491,0.01491,0.01491,000,0.01491
2014-02-25,0.01491,0.01491,0.01491,0.01491,000,0.01491
2014-02-24,0.01491,0.01491,0.01491,0.01491,96500,0.01491
2014-02-21,0.01771,0.01771,0.01771,0.01771,000,0.01771
2014-02-20,0.01771,0.01771,0.01771,0.01771,000,0.01771
2014-02-19,0.01771,0.01771,0.01771,0.01771,000,0.01771
2014-02-18,0.01771,0.01771,0.01771,0.01771,000,0.01771
2014-02-17,0.01771,0.01771,0.01771,0.01771,000,0.01771
2014-02-14,0.01771,0.01771,0.01771,0.01771,000,0.01771
2014-02-13,0.01771,0.01771,0.01771,0.01771,000,0.01771
2014-02-12,0.01677,0.01771,0.01677,0.01771,214600,0.01771
2014-02-11,0.01491,0.01491,0.01491,0.01491,19300,0.01491
2014-02-10,0.01677,0.01677,0.01677,0.01677,000,0.01677
2014-02-07,0.01677,0.01677,0.01677,0.01677,000,0.01677
2014-02-06,0.01677,0.01677,0.01677,0.01677,000,0.01677
2014-02-05,0.01677,0.01677,0.01677,0.01677,000,0.01677
2014-02-04,0.01677,0.01677,0.01677,0.01677,000,0.01677
2014-02-03,0.01864,0.0205,0.01677,0.01677,214600,0.01677
2014-01-31,0.0205,0.0205,0.0205,0.0205,000,0.0205
2014-01-30,0.0205,0.0205,0.0205,0.0205,000,0.0205
2014-01-29,0.0205,0.0205,0.0205,0.0205,000,0.0205
2014-01-28,0.0205,0.0205,0.0205,0.0205,000,0.0205
2014-01-27,0.0205,0.0205,0.0205,0.0205,000,0.0205
2014-01-24,0.0205,0.0205,0.0205,0.0205,000,0.0205
2014-01-23,0.0205,0.0205,0.0205,0.0205,000,0.0205
2014-01-22,0.0205,0.0205,0.0205,0.0205,000,0.0205
2014-01-21,0.0205,0.0205,0.0205,0.0205,000,0.0205
2014-01-20,0.0205,0.0205,0.0205,0.0205,000,0.0205
2014-01-17,0.0205,0.0205,0.0205,0.0205,000,0.0205
2014-01-16,0.0205,0.0205,0.0205,0.0205,000,0.0205
2014-01-15,0.0205,0.0205,0.0205,0.0205,000,0.0205
2014-01-14,0.0205,0.0205,0.0205,0.0205,000,0.0205
2014-01-13,0.0205,0.0205,0.0205,0.0205,000,0.0205
2014-01-10,0.0205,0.0205,0.0205,0.0205,85800,0.0205
2014-01-09,0.02143,0.02143,0.0205,0.0205,155600,0.0205
2014-01-08,0.01957,0.0233,0.01864,0.0233,281400,0.0233
2014-01-07,0.01957,0.01957,0.01957,0.01957,53600,0.01957
2014-01-06,0.02143,0.02143,0.02143,0.02143,000,0.02143
2014-01-03,0.02143,0.02143,0.02143,0.02143,000,0.02143
2014-01-02,0.0205,0.02143,0.0205,0.02143,37500,0.02143
2014-01-01,0.0233,0.0233,0.0233,0.0233,000,0.0233
2013-12-31,0.02236,0.0233,0.02236,0.0233,118000,0.0233
2013-12-30,0.01864,0.01864,0.01864,0.01864,2800,0.01864
2013-12-27,0.01864,0.01864,0.01864,0.01864,000,0.01864
2013-12-26,0.01864,0.01864,0.01864,0.01864,000,0.01864
2013-12-25,0.01864,0.01864,0.01864,0.01864,000,0.01864
2013-12-24,0.01864,0.01864,0.01864,0.01864,000,0.01864
2013-12-23,0.01864,0.01864,0.01864,0.01864,000,0.01864
2013-12-20,0.01864,0.01864,0.01864,0.01864,000,0.01864
2013-12-19,0.01864,0.01864,0.01864,0.01864,10700,0.01864
2013-12-18,0.01864,0.01864,0.01864,0.01864,000,0.01864
2013-12-17,0.01864,0.01864,0.01864,0.01864,000,0.01864
2013-12-16,0.01864,0.01864,0.01864,0.01864,000,0.01864
2013-12-13,0.01864,0.01864,0.01864,0.01864,000,0.01864
2013-12-12,0.01864,0.01864,0.01864,0.01864,000,0.01864
2013-12-11,0.01864,0.01864,0.01864,0.01864,000,0.01864
2013-12-10,0.01864,0.01864,0.01864,0.01864,000,0.01864
2013-12-09,0.01864,0.01864,0.01864,0.01864,000,0.01864
2013-12-06,0.01864,0.01864,0.01864,0.01864,000,0.01864
2013-12-05,0.01864,0.01864,0.01864,0.01864,000,0.01864
2013-12-04,0.01864,0.01864,0.01864,0.01864,000,0.01864
2013-12-03,0.01677,0.01864,0.01677,0.01864,155600,0.01864
2013-12-02,0.01864,0.01864,0.01864,0.01864,000,0.01864
2013-11-29,0.01864,0.01864,0.01864,0.01864,000,0.01864
2013-11-28,0.01864,0.01864,0.01864,0.01864,000,0.01864
2013-11-27,0.01864,0.01864,0.01864,0.01864,000,0.01864
2013-11-26,0.01864,0.01864,0.01864,0.01864,000,0.01864
2013-11-25,0.01864,0.01864,0.01864,0.01864,000,0.01864
2013-11-22,0.01864,0.01864,0.01864,0.01864,000,0.01864
2013-11-21,0.01864,0.01864,0.01864,0.01864,000,0.01864
2013-11-20,0.01864,0.01864,0.01864,0.01864,000,0.01864
2013-11-19,0.01864,0.01864,0.01864,0.01864,000,0.01864
2013-11-18,0.01864,0.01864,0.01864,0.01864,40300,0.01864
2013-11-15,0.01864,0.01864,0.01864,0.01864,000,0.01864
2013-11-14,0.01864,0.01864,0.01864,0.01864,32000,0.01864
2013-11-13,0.01864,0.01864,0.01864,0.01864,000,0.01864
2013-11-12,0.01864,0.01864,0.01864,0.01864,107300,0.01864
2013-11-11,0.01491,0.01491,0.01491,0.01491,000,0.01491
2013-11-08,0.01491,0.01491,0.01491,0.01491,000,0.01491
2013-11-07,0.01491,0.01491,0.01491,0.01491,000,0.01491
2013-11-06,0.01491,0.01491,0.01491,0.01491,000,0.01491
2013-11-05,0.01491,0.01491,0.01491,0.01491,000,0.01491
2013-11-04,0.01491,0.01491,0.01491,0.01491,000,0.01491
2013-11-01,0.01491,0.01491,0.01491,0.01491,000,0.01491
2013-10-31,0.01491,0.01491,0.01491,0.01491,000,0.01491
2013-10-30,0.01491,0.01491,0.01491,0.01491,000,0.01491
2013-10-29,0.01491,0.01491,0.01491,0.01491,000,0.01491
2013-10-28,0.01491,0.01491,0.01491,0.01491,000,0.01491
2013-10-25,0.01491,0.01491,0.01491,0.01491,10700,0.01491
2013-10-24,0.01398,0.01398,0.01398,0.01398,000,0.01398
2013-10-23,0.01398,0.01398,0.01398,0.01398,56200,0.01398
2013-10-22,0.01584,0.01584,0.01584,0.01584,000,0.01584
2013-10-21,0.01211,0.01584,0.01211,0.01584,68400,0.01584
2013-10-18,0.01211,0.01211,0.01211,0.01211,000,0.01211
2013-10-17,0.01211,0.01211,0.01211,0.01211,87900,0.01211
2013-10-16,0.00839,0.00839,0.00839,0.00839,000,0.00839
2013-10-15,0.00839,0.00839,0.00839,0.00839,000,0.00839
2013-10-14,0.00839,0.00839,0.00839,0.00839,000,0.00839
2013-10-11,0.00839,0.00839,0.00839,0.00839,000,0.00839
2013-10-10,0.00839,0.00839,0.00839,0.00839,000,0.00839
2013-10-09,0.00839,0.00839,0.00839,0.00839,000,0.00839
2013-10-08,0.00839,0.00839,0.00839,0.00839,000,0.00839
2013-10-07,0.00839,0.00839,0.00839,0.00839,000,0.00839
2013-10-04,0.00839,0.00839,0.00839,0.00839,000,0.00839
2013-10-03,0.00839,0.00839,0.00839,0.00839,000,0.00839
2013-10-02,0.00839,0.00839,0.00839,0.00839,000,0.00839
2013-10-01,0.00839,0.00839,0.00839,0.00839,000,0.00839
2013-09-30,0.00839,0.00839,0.00839,0.00839,000,0.00839
2013-09-27,0.00932,0.00932,0.00839,0.00839,64300,0.00839
2013-09-26,0.00839,0.00839,0.00839,0.00839,000,0.00839
2013-09-25,0.00745,0.00839,0.00745,0.00839,141600,0.00839
2013-09-24,0.01118,0.01118,0.01118,0.01118,000,0.01118
2013-09-23,0.01118,0.01118,0.01118,0.01118,000,0.01118
2013-09-20,0.01118,0.01118,0.01118,0.01118,000,0.01118
2013-09-19,0.01118,0.01118,0.01118,0.01118,000,0.01118
2013-09-18,0.01118,0.01118,0.01118,0.01118,000,0.01118
2013-09-17,0.01118,0.01118,0.01118,0.01118,000,0.01118
2013-09-16,0.01118,0.01118,0.01118,0.01118,000,0.01118
2013-09-13,0.01118,0.01118,0.01118,0.01118,000,0.01118
2013-09-12,0.01118,0.01118,0.01118,0.01118,000,0.01118
2013-09-11,0.01118,0.01118,0.01118,0.01118,000,0.01118
2013-09-10,0.01118,0.01118,0.01118,0.01118,000,0.01118
2013-09-09,0.01118,0.01118,0.01118,0.01118,000,0.01118
2013-09-06,0.01118,0.01118,0.01118,0.01118,8500,0.01118
2013-09-05,0.01118,0.01118,0.01118,0.01118,5300,0.01118
2013-09-04,0.01211,0.01211,0.01211,0.01211,000,0.01211
2013-09-03,0.01211,0.01211,0.01211,0.01211,000,0.01211
2013-09-02,0.01211,0.01211,0.01211,0.01211,000,0.01211
2013-08-30,0.01211,0.01211,0.01211,0.01211,000,0.01211
2013-08-29,0.01211,0.01211,0.01211,0.01211,000,0.01211
2013-08-28,0.01211,0.01211,0.01211,0.01211,000,0.01211
2013-08-27,0.01211,0.01211,0.01211,0.01211,000,0.01211
2013-08-26,0.01211,0.01211,0.01211,0.01211,000,0.01211
2013-08-23,0.01211,0.01211,0.01211,0.01211,000,0.01211
2013-08-22,0.01211,0.01211,0.01211,0.01211,000,0.01211
2013-08-21,0.01211,0.01211,0.01211,0.01211,42900,0.01211
2013-08-20,0.01118,0.01118,0.01118,0.01118,000,0.01118
2013-08-19,0.01118,0.01118,0.01118,0.01118,000,0.01118
2013-08-16,0.01118,0.01118,0.01118,0.01118,000,0.01118
2013-08-15,0.01118,0.01118,0.01118,0.01118,000,0.01118
2013-08-14,0.01118,0.01118,0.01118,0.01118,000,0.01118
2013-08-13,0.01118,0.01118,0.01118,0.01118,000,0.01118
2013-08-12,0.01118,0.01118,0.01118,0.01118,000,0.01118
2013-08-09,0.01118,0.01118,0.01118,0.01118,000,0.01118
2013-08-08,0.01118,0.01118,0.01118,0.01118,000,0.01118
2013-08-07,0.01118,0.01118,0.01118,0.01118,000,0.01118
2013-08-06,0.01118,0.01118,0.01118,0.01118,000,0.01118
2013-08-05,0.01118,0.01118,0.01118,0.01118,000,0.01118
2013-08-02,0.01118,0.01118,0.01118,0.01118,000,0.01118
2013-08-01,0.01118,0.01118,0.01118,0.01118,000,0.01118
2013-07-31,0.01118,0.01118,0.01118,0.01118,000,0.01118
2013-07-30,0.01118,0.01118,0.01118,0.01118,10700,0.01118
2013-07-29,0.01305,0.01305,0.01305,0.01305,000,0.01305
2013-07-26,0.01305,0.01305,0.01305,0.01305,000,0.01305
2013-07-25,0.01305,0.01305,0.01305,0.01305,000,0.01305
2013-07-24,0.01305,0.01305,0.01305,0.01305,53600,0.01305
2013-07-23,0.01118,0.01118,0.01118,0.01118,000,0.01118
2013-07-22,0.01118,0.01118,0.01118,0.01118,000,0.01118
2013-07-19,0.01118,0.01118,0.01118,0.01118,000,0.01118
2013-07-18,0.01118,0.01118,0.01118,0.01118,64300,0.01118
2013-07-17,0.01491,0.01491,0.01491,0.01491,000,0.01491
2013-07-16,0.01491,0.01491,0.01491,0.01491,000,0.01491
2013-07-15,0.01491,0.01491,0.01491,0.01491,000,0.01491
2013-07-12,0.01491,0.01491,0.01491,0.01491,000,0.01491
2013-07-11,0.01491,0.01491,0.01491,0.01491,000,0.01491
2013-07-10,0.01491,0.01491,0.01491,0.01491,000,0.01491
2013-07-09,0.01491,0.01491,0.01491,0.01491,000,0.01491
2013-07-08,0.01491,0.01491,0.01491,0.01491,000,0.01491
2013-07-05,0.01491,0.01491,0.01491,0.01491,000,0.01491
2013-07-04,0.01491,0.01491,0.01491,0.01491,000,0.01491
2013-07-03,0.01491,0.01491,0.01491,0.01491,18200,0.01491
2013-07-02,0.01491,0.01491,0.01491,0.01491,000,0.01491
2013-07-01,0.01491,0.01491,0.01491,0.01491,000,0.01491
2013-06-28,0.01491,0.01491,0.01491,0.01491,40700,0.01491
2013-06-27,0.01491,0.01491,0.01491,0.01491,21400,0.01491
2013-06-26,0.01491,0.01491,0.01491,0.01491,16000,0.01491
2013-06-25,0.01491,0.01491,0.01491,0.01491,134100,0.01491
2013-06-24,0.01491,0.01491,0.01491,0.01491,000,0.01491
2013-06-21,0.01491,0.01491,0.01491,0.01491,107300,0.01491
2013-06-20,0.01491,0.01491,0.01491,0.01491,000,0.01491
2013-06-19,0.01118,0.01491,0.00932,0.01491,184500,0.01491
2013-06-18,0.01491,0.01491,0.01118,0.01118,73500,0.01118
2013-06-17,0.01118,0.01118,0.01118,0.01118,56900,0.01118
2013-06-14,0.01118,0.01118,0.01118,0.01118,26800,0.01118
2013-06-13,0.01118,0.01118,0.01118,0.01118,000,0.01118
2013-06-12,0.01118,0.01118,0.01118,0.01118,000,0.01118
2013-06-11,0.01211,0.01211,0.01118,0.01118,160900,0.01118
2013-06-10,0.0233,0.0233,0.0233,0.0233,000,0.0233
2013-06-07,0.0233,0.0233,0.0233,0.0233,000,0.0233
2013-06-06,0.0233,0.0233,0.0233,0.0233,000,0.0233
2013-06-05,0.0233,0.0233,0.0233,0.0233,000,0.0233
2013-06-04,0.0233,0.0233,0.0233,0.0233,000,0.0233
2013-06-03,0.0233,0.0233,0.0233,0.0233,000,0.0233
2013-05-31,0.0233,0.0233,0.0233,0.0233,000,0.0233
2013-05-30,0.0233,0.0233,0.0233,0.0233,000,0.0233
2013-05-29,0.0233,0.0233,0.0233,0.0233,000,0.0233
2013-05-28,0.0233,0.0233,0.0233,0.0233,000,0.0233
2013-05-27,0.0233,0.0233,0.0233,0.0233,000,0.0233
2013-05-24,0.0233,0.0233,0.0233,0.0233,000,0.0233
2013-05-23,0.0233,0.0233,0.0233,0.0233,000,0.0233
2013-05-22,0.02516,0.02516,0.0233,0.0233,102500,0.0233
2013-05-21,0.02609,0.02609,0.02609,0.02609,000,0.02609
2013-05-20,0.02609,0.02609,0.02609,0.02609,000,0.02609
2013-05-17,0.02609,0.02609,0.02609,0.02609,000,0.02609
2013-05-16,0.02609,0.02609,0.02609,0.02609,000,0.02609
2013-05-15,0.02609,0.02609,0.02609,0.02609,32100,0.02609
2013-05-14,0.02609,0.02609,0.02609,0.02609,60000,0.02609
2013-05-13,0.02796,0.02796,0.02796,0.02796,000,0.02796
2013-05-10,0.02796,0.02796,0.02796,0.02796,000,0.02796
2013-05-09,0.02796,0.02796,0.02796,0.02796,000,0.02796
2013-05-08,0.02796,0.02796,0.02796,0.02796,146600,0.02796
2013-05-07,0.02796,0.02796,0.02796,0.02796,32100,0.02796
2013-05-06,0.02796,0.02796,0.02796,0.02796,107300,0.02796
2013-05-03,0.03075,0.03075,0.03075,0.03075,35400,0.03075
2013-05-02,0.03075,0.03075,0.03075,0.03075,000,0.03075
2013-05-01,0.03075,0.03075,0.03075,0.03075,000,0.03075
2013-04-30,0.03075,0.03075,0.03075,0.03075,000,0.03075
2013-04-29,0.03075,0.03075,0.03075,0.03075,000,0.03075
2013-04-26,0.03075,0.03075,0.03075,0.03075,000,0.03075
2013-04-25,0.03075,0.03075,0.03075,0.03075,000,0.03075
2013-04-24,0.03075,0.03075,0.03075,0.03075,000,0.03075
2013-04-23,0.03075,0.03075,0.03075,0.03075,000,0.03075
2013-04-22,0.03075,0.03075,0.03075,0.03075,000,0.03075
2013-04-19,0.03075,0.03075,0.03075,0.03075,000,0.03075
2013-04-18,0.03075,0.03075,0.03075,0.03075,000,0.03075
2013-04-17,0.03075,0.03075,0.03075,0.03075,000,0.03075
2013-04-16,0.03075,0.03075,0.03075,0.03075,000,0.03075
2013-04-15,0.03075,0.03075,0.03075,0.03075,000,0.03075
2013-04-12,0.03075,0.03075,0.03075,0.03075,10500,0.03075
2013-04-11,0.03168,0.03168,0.03168,0.03168,69700,0.03168
2013-04-10,0.03727,0.03727,0.03727,0.03727,000,0.03727
2013-04-09,0.03727,0.03727,0.03727,0.03727,000,0.03727
2013-04-08,0.03727,0.03727,0.03727,0.03727,000,0.03727
2013-04-05,0.03727,0.03727,0.03727,0.03727,000,0.03727
2013-04-04,0.03727,0.03727,0.03727,0.03727,000,0.03727
2013-04-03,0.03727,0.03727,0.03727,0.03727,000,0.03727
2013-04-02,0.03727,0.03727,0.03727,0.03727,64500,0.03727
2013-04-01,0.03727,0.03727,0.03727,0.03727,000,0.03727
2013-03-29,0.03727,0.03727,0.03727,0.03727,000,0.03727
2013-03-28,0.03727,0.03727,0.03727,0.03727,000,0.03727
2013-03-27,0.03727,0.03727,0.03727,0.03727,000,0.03727
2013-03-26,0.03727,0.03727,0.03727,0.03727,000,0.03727
2013-03-25,0.03727,0.03727,0.03727,0.03727,11600,0.03727
2013-03-22,0.03727,0.03727,0.03727,0.03727,000,0.03727
2013-03-21,0.03727,0.03727,0.03727,0.03727,000,0.03727
2013-03-20,0.03727,0.03727,0.03727,0.03727,38400,0.03727
2013-03-19,0.03727,0.03727,0.03727,0.03727,000,0.03727
2013-03-18,0.03727,0.03727,0.03727,0.03727,000,0.03727
2013-03-15,0.04007,0.04007,0.03727,0.03727,60200,0.03727
2013-03-14,0.04007,0.04007,0.04007,0.04007,000,0.04007
2013-03-13,0.04007,0.04007,0.04007,0.04007,000,0.04007
2013-03-12,0.04007,0.04007,0.04007,0.04007,8500,0.04007
2013-03-11,0.04007,0.04007,0.04007,0.04007,33100,0.04007
2013-03-08,0.04007,0.04007,0.04007,0.04007,101000,0.04007
2013-03-07,0.04193,0.04193,0.04193,0.04193,000,0.04193
2013-03-06,0.04193,0.04193,0.04193,0.04193,000,0.04193
2013-03-05,0.04193,0.04193,0.04193,0.04193,8500,0.04193
2013-03-04,0.04193,0.04193,0.04193,0.04193,000,0.04193
2013-03-01,0.04193,0.04193,0.04193,0.04193,000,0.04193
2013-02-28,0.04193,0.04193,0.04193,0.04193,000,0.04193
2013-02-27,0.04193,0.04193,0.04193,0.04193,000,0.04193
2013-02-26,0.04193,0.04193,0.04193,0.04193,10700,0.04193
2013-02-25,0.0438,0.0438,0.0438,0.0438,000,0.0438
2013-02-22,0.04659,0.04659,0.0438,0.0438,25400,0.0438
2013-02-21,0.04659,0.04659,0.04659,0.04659,000,0.04659
2013-02-20,0.04659,0.04659,0.04659,0.04659,000,0.04659
2013-02-19,0.04753,0.04753,0.04659,0.04659,1900,0.04659
2013-02-18,0.05125,0.05125,0.05125,0.05125,19500,0.05125
2013-02-15,0.04753,0.04753,0.04753,0.04753,000,0.04753
2013-02-14,0.04753,0.04753,0.04753,0.04753,000,0.04753
2013-02-13,0.04753,0.04753,0.04753,0.04753,107300,0.04753
2013-02-12,0.06523,0.06523,0.06523,0.06523,000,0.06523
2013-02-11,0.06523,0.06523,0.06523,0.06523,000,0.06523
2013-02-08,0.06523,0.06523,0.06523,0.06523,000,0.06523
2013-02-07,0.06523,0.06523,0.06523,0.06523,000,0.06523
2013-02-06,0.06523,0.06523,0.06523,0.06523,000,0.06523
2013-02-05,0.06523,0.06523,0.06523,0.06523,000,0.06523
2013-02-04,0.06523,0.06523,0.06523,0.06523,000,0.06523
2013-02-01,0.06523,0.06523,0.06523,0.06523,000,0.06523
2013-01-31,0.06523,0.06523,0.06523,0.06523,000,0.06523
2013-01-30,0.06523,0.06523,0.06523,0.06523,000,0.06523
2013-01-29,0.06523,0.06523,0.06523,0.06523,000,0.06523
2013-01-28,0.06523,0.06523,0.06523,0.06523,000,0.06523
2013-01-25,0.06523,0.06523,0.06523,0.06523,8500,0.06523
2013-01-24,0.06523,0.07455,0.05778,0.05778,43900,0.05778
2013-01-23,0.05218,0.05405,0.05218,0.05405,59300,0.05405
2013-01-22,0.05405,0.05405,0.05405,0.05405,55100,0.05405
2013-01-21,0.06523,0.06523,0.06523,0.06523,000,0.06523
2013-01-18,0.06523,0.06523,0.06523,0.06523,000,0.06523
2013-01-17,0.06989,0.06989,0.06523,0.06523,20000,0.06523
2013-01-16,0.05405,0.06523,0.05405,0.06523,72700,0.06523
2013-01-15,0.04566,0.05405,0.04566,0.05405,128500,0.05405
2013-01-14,0.05125,0.05125,0.05125,0.05125,2100,0.05125
2013-01-11,0.05591,0.05591,0.05591,0.05591,000,0.05591
2013-01-10,0.05591,0.05591,0.05591,0.05591,000,0.05591
2013-01-09,0.05591,0.05591,0.05591,0.05591,000,0.05591
2013-01-08,0.05591,0.05591,0.05591,0.05591,000,0.05591
2013-01-07,0.05591,0.05591,0.05591,0.05591,000,0.05591
2013-01-04,0.05591,0.05591,0.05591,0.05591,000,0.05591
2013-01-03,0.05591,0.05591,0.05591,0.05591,000,0.05591
2013-01-02,0.05591,0.05591,0.05591,0.05591,000,0.05591
2013-01-01,0.05591,0.05591,0.05591,0.05591,000,0.05591
2012-12-31,0.05591,0.05591,0.05591,0.05591,000,0.05591
2012-12-28,0.05591,0.05591,0.05591,0.05591,000,0.05591
2012-12-27,0.05591,0.05591,0.05591,0.05591,000,0.05591
2012-12-26,0.05591,0.05591,0.05591,0.05591,000,0.05591
2012-12-25,0.05591,0.05591,0.05591,0.05591,000,0.05591
2012-12-24,0.05591,0.05591,0.05591,0.05591,000,0.05591
2012-12-21,0.05591,0.05591,0.05591,0.05591,000,0.05591
2012-12-20,0.05591,0.05591,0.05591,0.05591,000,0.05591
2012-12-19,0.05591,0.05591,0.05591,0.05591,000,0.05591
2012-12-18,0.05591,0.05591,0.05591,0.05591,000,0.05591
2012-12-17,0.05591,0.05591,0.05591,0.05591,000,0.05591
2012-12-14,0.05591,0.05591,0.05591,0.05591,000,0.05591
2012-12-13,0.05591,0.05591,0.05591,0.05591,000,0.05591
2012-12-12,0.05591,0.05591,0.05591,0.05591,000,0.05591
2012-12-11,0.05591,0.05591,0.05591,0.05591,85800,0.05591
2012-12-10,0.05125,0.05125,0.05125,0.05125,000,0.05125
2012-12-07,0.05125,0.05125,0.05125,0.05125,000,0.05125
2012-12-06,0.05125,0.05125,0.05125,0.05125,000,0.05125
2012-12-05,0.05125,0.05125,0.05125,0.05125,000,0.05125
2012-12-04,0.05125,0.05125,0.05125,0.05125,000,0.05125
2012-12-03,0.05125,0.05125,0.05125,0.05125,000,0.05125
2012-11-30,0.05125,0.05125,0.05125,0.05125,000,0.05125
2012-11-29,0.05125,0.05125,0.05125,0.05125,000,0.05125
2012-11-28,0.05125,0.05125,0.05125,0.05125,000,0.05125
2012-11-27,0.05125,0.05125,0.05125,0.05125,000,0.05125
2012-11-26,0.05125,0.05125,0.05125,0.05125,000,0.05125
2012-11-23,0.05125,0.05125,0.05125,0.05125,000,0.05125
2012-11-22,0.05125,0.05125,0.05125,0.05125,000,0.05125
2012-11-21,0.05125,0.05125,0.05125,0.05125,91200,0.05125
2012-11-20,0.05125,0.05125,0.05125,0.05125,000,0.05125
2012-11-19,0.05218,0.05218,0.05125,0.05125,40500,0.05125
2012-11-16,0.05684,0.05684,0.05125,0.05125,27600,0.05125
2012-11-15,0.05591,0.05591,0.05591,0.05591,000,0.05591
2012-11-14,0.05591,0.05591,0.05591,0.05591,000,0.05591
2012-11-13,0.05591,0.05591,0.05591,0.05591,000,0.05591
2012-11-12,0.05591,0.05591,0.05591,0.05591,18700,0.05591
2012-11-09,0.06057,0.06057,0.06057,0.06057,000,0.06057
2012-11-08,0.06057,0.06057,0.06057,0.06057,000,0.06057
2012-11-07,0.06057,0.06057,0.06057,0.06057,000,0.06057
2012-11-06,0.05778,0.0643,0.05778,0.06057,27900,0.06057
2012-11-05,0.06057,0.06057,0.06057,0.06057,000,0.06057
2012-11-02,0.06523,0.06616,0.05778,0.06057,73000,0.06057
2012-11-01,0.05591,0.05591,0.05591,0.05591,10700,0.05591
2012-10-31,0.05591,0.05591,0.05591,0.05591,000,0.05591
2012-10-30,0.05591,0.05591,0.05591,0.05591,000,0.05591
2012-10-29,0.05591,0.05591,0.05591,0.05591,000,0.05591
2012-10-26,0.05591,0.05591,0.05591,0.05591,21400,0.05591
2012-10-25,0.05591,0.05591,0.05591,0.05591,110200,0.05591
2012-10-24,0.05778,0.05778,0.05778,0.05778,000,0.05778
2012-10-23,0.05778,0.05778,0.05778,0.05778,000,0.05778
2012-10-22,0.05778,0.05778,0.05778,0.05778,000,0.05778
2012-10-19,0.05778,0.05778,0.05778,0.05778,000,0.05778
2012-10-18,0.05778,0.05778,0.05778,0.05778,000,0.05778
2012-10-17,0.05778,0.05778,0.05778,0.05778,000,0.05778
2012-10-16,0.05778,0.05778,0.05778,0.05778,000,0.05778
2012-10-15,0.05778,0.05778,0.05778,0.05778,000,0.05778
2012-10-12,0.05778,0.05778,0.05778,0.05778,000,0.05778
2012-10-11,0.05778,0.05778,0.05778,0.05778,10700,0.05778
2012-10-10,0.05498,0.05498,0.05498,0.05498,000,0.05498
2012-10-09,0.05498,0.05498,0.05498,0.05498,000,0.05498
2012-10-08,0.05498,0.05498,0.05498,0.05498,000,0.05498
2012-10-05,0.05498,0.05498,0.05498,0.05498,000,0.05498
2012-10-04,0.05498,0.05498,0.05498,0.05498,000,0.05498
2012-10-03,0.05498,0.05498,0.05498,0.05498,000,0.05498
2012-10-02,0.05498,0.05498,0.05498,0.05498,000,0.05498
2012-10-01,0.05498,0.05498,0.05498,0.05498,2400,0.05498
2012-09-28,0.05778,0.05778,0.05778,0.05778,10700,0.05778
2012-09-27,0.05591,0.05591,0.05591,0.05591,000,0.05591
2012-09-26,0.05591,0.05591,0.05591,0.05591,000,0.05591
2012-09-25,0.05591,0.05591,0.05591,0.05591,000,0.05591
2012-09-24,0.05591,0.05591,0.05591,0.05591,000,0.05591
2012-09-21,0.05591,0.05591,0.05591,0.05591,000,0.05591
2012-09-20,0.05591,0.05591,0.05591,0.05591,000,0.05591
2012-09-19,0.05591,0.05591,0.05591,0.05591,3200,0.05591
2012-09-18,0.05591,0.05591,0.05591,0.05591,000,0.05591
2012-09-17,0.05591,0.05591,0.05591,0.05591,18200,0.05591
2012-09-14,0.05032,0.05591,0.05032,0.05591,22900,0.05591
2012-09-13,0.04659,0.04659,0.04659,0.04659,372700,0.04659
2012-09-12,0.06989,0.06989,0.06989,0.06989,000,0.06989
2012-09-11,0.06989,0.06989,0.06989,0.06989,200,0.06989
2012-09-10,0.07455,0.07455,0.07455,0.07455,000,0.07455
2012-09-07,0.07455,0.07455,0.07455,0.07455,000,0.07455
2012-09-06,0.07455,0.07455,0.07455,0.07455,000,0.07455
2012-09-05,0.07455,0.07455,0.07455,0.07455,000,0.07455
2012-09-04,0.07455,0.07455,0.07455,0.07455,000,0.07455
2012-09-03,0.07455,0.07455,0.07455,0.07455,000,0.07455
2012-08-31,0.07455,0.07455,0.07455,0.07455,122800,0.07455
2012-08-30,0.07548,0.07548,0.07548,0.07548,17500,0.07548
2012-08-29,0.07828,0.07828,0.07455,0.07548,43500,0.07548
2012-08-28,0.08014,0.08014,0.08014,0.08014,3200,0.08014
2012-08-27,0.07641,0.07641,0.07641,0.07641,000,0.07641
2012-08-24,0.07641,0.07641,0.07641,0.07641,21400,0.07641
2012-08-23,0.08014,0.08014,0.08014,0.08014,000,0.08014
2012-08-22,0.08014,0.08014,0.08014,0.08014,000,0.08014
2012-08-21,0.08014,0.08014,0.08014,0.08014,000,0.08014
2012-08-20,0.08014,0.08014,0.08014,0.08014,4400,0.08014
2012-08-17,0.07455,0.07455,0.07455,0.07455,16000,0.07455
2012-08-16,0.07455,0.07455,0.07455,0.07455,000,0.07455
2012-08-15,0.07455,0.07455,0.07455,0.07455,000,0.07455
2012-08-14,0.07455,0.07455,0.07455,0.07455,10700,0.07455
2012-08-13,0.06989,0.06989,0.06989,0.06989,000,0.06989
2012-08-10,0.06989,0.06989,0.06989,0.06989,000,0.06989
2012-08-09,0.06989,0.06989,0.06989,0.06989,000,0.06989
2012-08-08,0.06989,0.06989,0.06989,0.06989,000,0.06989
2012-08-07,0.06989,0.06989,0.06989,0.06989,000,0.06989
2012-08-06,0.06989,0.06989,0.06989,0.06989,000,0.06989
2012-08-03,0.06989,0.06989,0.06989,0.06989,000,0.06989
2012-08-02,0.06989,0.06989,0.06989,0.06989,000,0.06989
2012-08-01,0.06989,0.06989,0.06989,0.06989,48200,0.06989
2012-07-31,0.07175,0.07175,0.07175,0.07175,000,0.07175
2012-07-30,0.07175,0.07175,0.07175,0.07175,1700,0.07175
2012-07-27,0.06989,0.06989,0.06989,0.06989,39700,0.06989
2012-07-26,0.07362,0.07362,0.07362,0.07362,9400,0.07362
2012-07-25,0.07362,0.07362,0.07362,0.07362,000,0.07362
2012-07-24,0.07362,0.07362,0.07362,0.07362,64300,0.07362
2012-07-23,0.07362,0.07362,0.07362,0.07362,000,0.07362
2012-07-20,0.07362,0.07362,0.07362,0.07362,3500,0.07362
2012-07-19,0.06989,0.06989,0.06989,0.06989,19000,0.06989
2012-07-18,0.07175,0.07175,0.07175,0.07175,77500,0.07175
2012-07-17,0.06803,0.06803,0.06803,0.06803,000,0.06803
2012-07-16,0.06803,0.06803,0.06803,0.06803,000,0.06803
2012-07-13,0.06803,0.06803,0.06803,0.06803,55100,0.06803
2012-07-12,0.07362,0.07455,0.07362,0.07455,43300,0.07455
2012-07-11,0.07455,0.07455,0.07455,0.07455,000,0.07455
2012-07-10,0.07455,0.07455,0.07455,0.07455,000,0.07455
2012-07-09,0.07455,0.07455,0.07455,0.07455,000,0.07455
2012-07-06,0.07455,0.07455,0.07455,0.07455,000,0.07455
2012-07-05,0.07455,0.07455,0.07455,0.07455,000,0.07455
2012-07-04,0.07455,0.07455,0.07455,0.07455,26800,0.07455
2012-07-03,0.07548,0.07548,0.07455,0.07455,42900,0.07455
2012-07-02,0.07921,0.08014,0.07921,0.08014,10700,0.08014
2012-06-29,0.08014,0.08014,0.07921,0.07921,103400,0.07921
2012-06-28,0.08014,0.08014,0.07921,0.07921,16600,0.07921
2012-06-27,0.08014,0.08014,0.08014,0.08014,4000,0.08014
2012-06-26,0.08014,0.08014,0.07921,0.07921,42900,0.07921
2012-06-25,0.08666,0.08666,0.08666,0.08666,000,0.08666
2012-06-22,0.08666,0.08666,0.08666,0.08666,000,0.08666
2012-06-21,0.08666,0.08666,0.08666,0.08666,000,0.08666
2012-06-20,0.08666,0.08666,0.08666,0.08666,000,0.08666
2012-06-19,0.08666,0.08666,0.08666,0.08666,000,0.08666
2012-06-18,0.09785,0.09785,0.08666,0.08666,10700,0.08666
2012-06-15,0.08853,0.08853,0.08853,0.08853,000,0.08853
2012-06-14,0.08853,0.08853,0.08853,0.08853,000,0.08853
2012-06-13,0.08853,0.08853,0.08853,0.08853,2100,0.08853
2012-06-12,0.09039,0.09039,0.08666,0.08666,47200,0.08666
2012-06-11,0.10717,0.10717,0.10717,0.10717,000,0.10717
2012-06-08,0.10717,0.10717,0.10717,0.10717,000,0.10717
2012-06-07,0.10717,0.10717,0.10717,0.10717,000,0.10717
2012-06-06,0.10251,0.10717,0.10251,0.10717,7900,0.10717
2012-06-05,0.09319,0.09319,0.09319,0.09319,15100,0.09319
2012-06-04,0.09785,0.09785,0.09319,0.09319,100300,0.09319
2012-06-01,0.11182,0.12114,0.09785,0.12114,113600,0.12114
2012-05-31,0.12114,0.12114,0.10717,0.11182,164700,0.11182
2012-05-30,0.14444,0.14444,0.14444,0.14444,000,0.14444
2012-05-29,0.14444,0.14444,0.14444,0.14444,000,0.14444
2012-05-28,0.14444,0.14444,0.14444,0.14444,000,0.14444
2012-05-25,0.14444,0.14444,0.14444,0.14444,000,0.14444
2012-05-24,0.14444,0.14444,0.14444,0.14444,000,0.14444
2012-05-23,0.14444,0.14444,0.14444,0.14444,000,0.14444
2012-05-22,0.14444,0.14444,0.14444,0.14444,000,0.14444
2012-05-21,0.14444,0.14444,0.14444,0.14444,000,0.14444
2012-05-18,0.14444,0.14444,0.14444,0.14444,000,0.14444
2012-05-17,0.13978,0.14444,0.13978,0.14444,43700,0.14444
2012-05-16,0.13512,0.13512,0.13046,0.13512,97400,0.13512
2012-05-15,0.13046,0.13512,0.12114,0.13512,321300,0.13512
2012-05-14,0.13046,0.13046,0.13046,0.13046,10700,0.13046
2012-05-11,0.09785,0.09785,0.09785,0.09785,000,0.09785
2012-05-10,0.09785,0.09785,0.09785,0.09785,30000,0.09785
2012-05-09,0.11182,0.11182,0.10251,0.10251,80400,0.10251
2012-05-08,0.11648,0.11648,0.11648,0.11648,000,0.11648
2012-05-07,0.11648,0.11648,0.11648,0.11648,107300,0.11648
2012-05-04,0.13046,0.13978,0.13046,0.13978,632800,0.13978
2012-05-03,0.13512,0.13512,0.13512,0.13512,75900,0.13512
2012-05-02,0.13046,0.13046,0.13046,0.13046,107300,0.13046
2012-05-01,0.12114,0.1258,0.12114,0.1258,107300,0.1258
2012-04-30,0.13512,0.13512,0.1258,0.1258,107300,0.1258
2012-04-27,0.13512,0.13512,0.13046,0.13046,106700,0.13046
2012-04-26,0.12114,0.13046,0.12114,0.13046,680100,0.13046
2012-04-25,0.13978,0.13978,0.13978,0.13978,000,0.13978
2012-04-24,0.13512,0.13978,0.13512,0.13978,48300,0.13978
2012-04-23,0.10251,0.13046,0.10251,0.13046,423500,0.13046
2012-04-20,0.10251,0.11648,0.10251,0.10251,213300,0.10251
2012-04-19,0.09785,0.09785,0.09785,0.09785,226300,0.09785
2012-04-18,0.10717,0.10717,0.10717,0.10717,87900,0.10717
2012-04-17,0.09319,0.10717,0.09319,0.10251,939900,0.10251
2012-04-16,0.10717,0.10717,0.09785,0.09785,145700,0.09785
2012-04-13,0.09785,0.11648,0.09785,0.10717,264300,0.10717
2012-04-12,0.07921,0.09785,0.07921,0.09785,193400,0.09785
2012-04-11,0.08294,0.08387,0.07921,0.07921,214600,0.07921
2012-04-10,0.0848,0.0848,0.08387,0.08387,114500,0.08387
2012-04-09,0.09785,0.09785,0.09785,0.09785,000,0.09785
2012-04-06,0.09785,0.09785,0.09785,0.09785,000,0.09785
2012-04-05,0.09785,0.09785,0.09785,0.09785,000,0.09785
2012-04-04,0.0848,0.09785,0.08387,0.09785,84900,0.09785
2012-04-03,0.08387,0.08387,0.08387,0.08387,5300,0.08387
2012-04-02,0.08387,0.08387,0.08387,0.08387,42900,0.08387
2012-03-30,0.08387,0.08387,0.08387,0.08387,000,0.08387
2012-03-29,0.0848,0.0848,0.08387,0.08387,128700,0.08387
2012-03-28,0.08387,0.08387,0.08387,0.08387,128700,0.08387
2012-03-27,0.07921,0.07921,0.07921,0.07921,000,0.07921
2012-03-26,0.07921,0.07921,0.07921,0.07921,000,0.07921
2012-03-23,0.07921,0.07921,0.07921,0.07921,000,0.07921
2012-03-22,0.08387,0.08387,0.07921,0.07921,193900,0.07921
2012-03-21,0.07455,0.07455,0.07455,0.07455,000,0.07455
2012-03-20,0.07455,0.07455,0.07455,0.07455,000,0.07455
2012-03-19,0.07455,0.07455,0.07455,0.07455,000,0.07455
2012-03-16,0.08387,0.08387,0.07455,0.07455,122200,0.07455
2012-03-15,0.08946,0.08946,0.08946,0.08946,13400,0.08946
2012-03-14,0.12114,0.12114,0.12114,0.12114,000,0.12114
2012-03-13,0.12114,0.12114,0.12114,0.12114,000,0.12114
2012-03-12,0.12114,0.12114,0.12114,0.12114,000,0.12114
2012-03-09,0.12114,0.12114,0.12114,0.12114,000,0.12114
2012-03-08,0.12114,0.12114,0.12114,0.12114,000,0.12114
2012-03-07,0.12114,0.12114,0.12114,0.12114,000,0.12114
2012-03-06,0.10717,0.10717,0.08387,0.08387,37500,0.08387
2012-03-05,0.12114,0.12114,0.12114,0.12114,000,0.12114
2012-03-02,0.09319,0.12114,0.09319,0.12114,169500,0.12114
2012-03-01,0.10251,0.10251,0.10251,0.10251,000,0.10251
2012-02-29,0.09319,0.10251,0.09319,0.10251,294000,0.10251
2012-02-28,0.07735,0.07735,0.07735,0.07735,000,0.07735
2012-02-27,0.07735,0.07735,0.07735,0.07735,42900,0.07735
2012-02-24,0.06989,0.07269,0.06989,0.07269,105500,0.07269
2012-02-23,0.07269,0.07455,0.07269,0.07269,181800,0.07269
2012-02-22,0.07269,0.07269,0.07269,0.07269,32100,0.07269
2012-02-21,0.07455,0.07455,0.07269,0.07269,37500,0.07269
2012-02-20,0.07455,0.07455,0.07455,0.07455,180200,0.07455
2012-02-17,0.07548,0.07548,0.07548,0.07548,000,0.07548
2012-02-16,0.07548,0.07548,0.07548,0.07548,000,0.07548
2012-02-15,0.07548,0.07548,0.07548,0.07548,000,0.07548
2012-02-14,0.07548,0.07548,0.07548,0.07548,000,0.07548
2012-02-13,0.07548,0.07548,0.07548,0.07548,000,0.07548
2012-02-10,0.07548,0.07548,0.07548,0.07548,26800,0.07548
2012-02-09,0.07455,0.07455,0.07455,0.07455,000,0.07455
2012-02-08,0.07455,0.07455,0.07455,0.07455,000,0.07455
2012-02-07,0.08107,0.08107,0.07455,0.07455,155600,0.07455
2012-02-06,0.07921,0.07921,0.07921,0.07921,000,0.07921
2012-02-03,0.07921,0.07921,0.07921,0.07921,000,0.07921
2012-02-02,0.08387,0.08387,0.07641,0.07921,299300,0.07921
2012-02-01,0.09039,0.09039,0.09039,0.09039,000,0.09039
2012-01-31,0.09039,0.09039,0.09039,0.09039,42100,0.09039
2012-01-27,0.09319,0.09319,0.09319,0.09319,000,0.09319
2012-01-26,0.09319,0.09319,0.09319,0.09319,000,0.09319
2012-01-25,0.09319,0.09319,0.09319,0.09319,000,0.09319
2012-01-24,0.08853,0.09319,0.08853,0.09319,38600,0.09319
2012-01-23,0.09319,0.09319,0.09319,0.09319,000,0.09319
2012-01-20,0.09319,0.09319,0.09319,0.09319,32100,0.09319
2012-01-19,0.09132,0.09132,0.09132,0.09132,000,0.09132
2012-01-18,0.08387,0.09132,0.08387,0.09132,96500,0.09132
2012-01-17,0.07921,0.07921,0.07921,0.07921,21400,0.07921
2012-01-16,0.09319,0.10251,0.09319,0.10251,64300,0.10251
2012-01-13,0.09785,0.09785,0.09785,0.09785,000,0.09785
2012-01-12,0.09785,0.09785,0.09785,0.09785,000,0.09785
2012-01-11,0.09785,0.09785,0.09785,0.09785,000,0.09785
2012-01-10,0.09785,0.09785,0.09785,0.09785,000,0.09785
2012-01-09,0.09785,0.09785,0.09785,0.09785,000,0.09785
2012-01-06,0.09785,0.09785,0.09785,0.09785,000,0.09785
2012-01-05,0.09785,0.09785,0.09785,0.09785,000,0.09785
2012-01-04,0.09785,0.09785,0.09785,0.09785,000,0.09785
2012-01-03,0.09785,0.09785,0.09785,0.09785,000,0.09785
2012-01-02,0.09785,0.09785,0.09785,0.09785,000,0.09785
2011-12-30,0.09785,0.09785,0.09785,0.09785,000,0.09785
2011-12-29,0.09785,0.09785,0.09785,0.09785,000,0.09785
2011-12-28,0.09785,0.09785,0.09785,0.09785,000,0.09785
2011-12-27,0.09785,0.09785,0.09785,0.09785,000,0.09785
2011-12-26,0.09785,0.09785,0.09785,0.09785,000,0.09785
2011-12-23,0.09785,0.09785,0.09785,0.09785,000,0.09785
2011-12-22,0.09785,0.09785,0.09785,0.09785,000,0.09785
2011-12-21,0.09785,0.09785,0.09785,0.09785,000,0.09785
2011-12-20,0.09785,0.09785,0.09785,0.09785,000,0.09785
2011-12-19,0.08387,0.09785,0.08387,0.09785,53600,0.09785
2011-12-16,0.11182,0.11182,0.11182,0.11182,000,0.11182
2011-12-15,0.11182,0.11182,0.11182,0.11182,000,0.11182
2011-12-14,0.11182,0.11182,0.11182,0.11182,000,0.11182
2011-12-13,0.11182,0.11182,0.11182,0.11182,000,0.11182
2011-12-12,0.11182,0.11182,0.11182,0.11182,000,0.11182
2011-12-09,0.11182,0.11182,0.11182,0.11182,000,0.11182
2011-12-08,0.11182,0.11182,0.11182,0.11182,000,0.11182
2011-12-07,0.11182,0.11182,0.11182,0.11182,000,0.11182
2011-12-06,0.11182,0.11182,0.11182,0.11182,000,0.11182
2011-12-05,0.11182,0.11182,0.11182,0.11182,75100,0.11182
2011-12-02,0.10717,0.10717,0.10717,0.10717,49700,0.10717
2011-12-01,0.10717,0.10717,0.10717,0.10717,000,0.10717
2011-11-30,0.09319,0.09319,0.09319,0.09319,000,0.09319
2011-11-29,0.09319,0.09319,0.09319,0.09319,10700,0.09319
2011-11-28,0.10717,0.10717,0.10717,0.10717,000,0.10717
2011-11-25,0.09319,0.10717,0.08387,0.10717,55500,0.10717
2011-11-24,0.10251,0.10717,0.10251,0.10251,65100,0.10251
2011-11-23,0.10251,0.10717,0.10251,0.10251,122200,0.10251
2011-11-22,0.10251,0.10251,0.10251,0.10251,107300,0.10251
2011-11-21,0.10251,0.10251,0.10251,0.10251,21400,0.10251
2011-11-18,0.10717,0.10717,0.10251,0.10251,85800,0.10251
2011-11-17,0.11648,0.11648,0.11182,0.11182,78300,0.11182
2011-11-14,0.11182,0.11182,0.11182,0.11182,2600,0.11182
2011-11-07,0.12114,0.12114,0.12114,0.12114,000,0.12114
2011-11-04,0.12114,0.12114,0.12114,0.12114,4800,0.12114
2011-11-01,0.12114,0.12114,0.12114,0.12114,21400,0.12114
2011-10-28,0.12114,0.12114,0.11182,0.11182,32100,0.11182
2011-10-24,0.11182,0.11182,0.10251,0.10251,40100,0.10251
2011-10-20,0.11182,0.11182,0.11182,0.11182,4200,0.11182
2011-10-19,0.11182,0.11182,0.11182,0.11182,67300,0.11182
2011-10-18,0.11182,0.11182,0.09785,0.11182,90300,0.11182
2011-10-17,0.12114,0.12114,0.11182,0.11182,28700,0.11182
2011-10-14,0.12114,0.12114,0.12114,0.12114,32100,0.12114
2011-10-13,0.13978,0.13978,0.11182,0.11182,118000,0.11182
2011-10-12,0.13978,0.13978,0.13978,0.13978,42900,0.13978
2011-10-11,0.13046,0.13046,0.13046,0.13046,4200,0.13046
2011-10-10,0.1258,0.1258,0.12114,0.12114,115500,0.12114
2011-10-07,0.12114,0.12114,0.12114,0.12114,5000,0.12114
2011-09-29,0.14444,0.14444,0.12114,0.12114,118100,0.12114
2011-09-28,0.13978,0.13978,0.13978,0.13978,4000,0.13978
2011-09-26,0.14444,0.14444,0.11182,0.11182,21400,0.11182
2011-09-23,0.1491,0.1491,0.14444,0.14444,12700,0.14444
2011-09-22,0.15376,0.15376,0.15376,0.15376,53600,0.15376
2011-09-20,0.15842,0.15842,0.1491,0.15842,514500,0.15842
2011-09-19,0.15842,0.16308,0.15842,0.15842,291800,0.15842
2011-09-16,0.16308,0.16308,0.1491,0.1491,264100,0.1491
2011-09-15,0.13978,0.18172,0.13978,0.15376,1819000,0.15376
2011-09-13,0.12114,0.13046,0.12114,0.13046,96000,0.13046
2011-09-12,0.10717,0.12114,0.10717,0.12114,118500,0.12114
2011-09-09,0.11182,0.11182,0.10717,0.10717,55500,0.10717
2011-09-07,0.11182,0.11182,0.11182,0.11182,3000,0.11182
2011-09-06,0.11182,0.11648,0.11182,0.11182,370300,0.11182
2011-09-05,0.11182,0.11182,0.11182,0.11182,13700,0.11182
2011-09-02,0.11182,0.11182,0.11182,0.11182,176300,0.11182
2011-09-01,0.11648,0.11648,0.11182,0.11182,353600,0.11182
2011-08-31,0.11182,0.12114,0.11182,0.12114,79500,0.12114
2011-08-30,0.11182,0.11182,0.11182,0.11182,8400,0.11182
2011-08-25,0.12114,0.12114,0.11648,0.11648,32100,0.11648
2011-08-24,0.11648,0.11648,0.11648,0.11648,10700,0.11648
2011-08-18,0.13046,0.13046,0.13046,0.13046,28900,0.13046
2011-08-16,0.13046,0.13978,0.13046,0.13046,91900,0.13046
2011-08-15,0.13978,0.13978,0.13046,0.13046,94400,0.13046
2011-08-12,0.14444,0.14444,0.13978,0.13978,236000,0.13978
2011-08-09,0.1258,0.1258,0.1258,0.1258,10700,0.1258
2011-08-08,0.1258,0.1258,0.11182,0.11648,186300,0.11648
2011-08-05,0.13512,0.13978,0.1258,0.1258,227000,0.1258
2011-08-04,0.16774,0.16774,0.1491,0.1491,92500,0.1491
2011-08-03,0.15376,0.15376,0.15376,0.15376,21900,0.15376
2011-07-28,0.1491,0.16774,0.1491,0.16774,105900,0.16774
2011-07-27,0.15376,0.15376,0.1491,0.15376,39700,0.15376
2011-07-26,0.15842,0.15842,0.15842,0.15842,33600,0.15842
2011-07-25,0.13978,0.1491,0.13978,0.1491,73600,0.1491
2011-07-22,0.13978,0.13978,0.13978,0.13978,15300,0.13978
2011-07-20,0.13978,0.13978,0.13978,0.13978,61800,0.13978
2011-07-19,0.13046,0.13046,0.1258,0.1258,64300,0.1258
2011-07-18,0.1258,0.13512,0.1258,0.13046,118100,0.13046
2011-07-15,0.13512,0.13512,0.13512,0.13512,6600,0.13512
2011-07-14,0.14444,0.14444,0.13978,0.13978,107300,0.13978
2011-07-13,0.14444,0.14444,0.14444,0.14444,13800,0.14444
2011-07-12,0.1491,0.1491,0.14444,0.14444,149300,0.14444
2011-07-08,0.1491,0.1491,0.14444,0.14444,156700,0.14444
2011-07-07,0.15842,0.15842,0.15376,0.15376,107300,0.15376
2011-07-06,0.15376,0.15376,0.15376,0.15376,5300,0.15376
2011-07-04,0.16308,0.16308,0.16308,0.16308,3500,0.16308
2011-07-01,0.15376,0.16774,0.15376,0.16308,143400,0.16308
2011-06-30,0.1491,0.16774,0.13978,0.1491,387600,0.1491
2011-06-28,0.17706,0.17706,0.17706,0.17706,16500,0.17706
2011-06-24,0.18637,0.18637,0.18637,0.18637,39000,0.18637
2011-06-23,0.21433,0.21433,0.18637,0.18637,113400,0.18637
2011-06-22,0.21433,0.21433,0.21433,0.21433,23000,0.21433
2011-06-21,0.21433,0.21433,0.21433,0.21433,59000,0.21433
2011-06-17,0.21433,0.21433,0.21433,0.21433,61700,0.21433
2011-06-16,0.21899,0.21899,0.21899,0.21899,50200,0.21899
2011-06-15,0.22365,0.22365,0.21899,0.21899,108300,0.21899
2011-06-14,0.22365,0.22365,0.22365,0.22365,61100,0.22365
2011-06-10,0.22365,0.24695,0.22365,0.24229,280000,0.24229
2011-06-09,0.21899,0.21899,0.21899,0.21899,64300,0.21899
2011-06-08,0.23297,0.23297,0.23297,0.23297,3200,0.23297
2011-06-06,0.21899,0.22365,0.21899,0.22365,59000,0.22365
2011-06-03,0.21899,0.21899,0.21899,0.21899,2100,0.21899
2011-06-02,0.21899,0.22365,0.21899,0.22365,16000,0.22365
2011-05-31,0.24229,0.24229,0.23297,0.23297,22500,0.23297
2011-05-30,0.24229,0.24229,0.24229,0.24229,9600,0.24229
2011-05-27,0.22365,0.23297,0.22365,0.23297,129800,0.23297
2011-05-26,0.22365,0.22831,0.21899,0.21899,25800,0.21899
2011-05-23,0.23297,0.23297,0.23297,0.23297,3000,0.23297
2011-05-20,0.23297,0.23297,0.21899,0.22365,125500,0.22365
2011-05-19,0.22831,0.23763,0.22831,0.22831,56100,0.22831
2011-05-18,0.23297,0.23297,0.21899,0.21899,101100,0.21899
2011-05-17,0.22365,0.22831,0.22365,0.22365,133700,0.22365
2011-05-16,0.24229,0.24695,0.24229,0.24695,214600,0.24695
2011-05-12,0.25161,0.25161,0.25161,0.25161,107700,0.25161
2011-05-11,0.24229,0.25627,0.24229,0.25627,139500,0.25627
2011-05-10,0.23297,0.23763,0.23297,0.23297,181100,0.23297
2011-05-09,0.22365,0.23297,0.22365,0.22831,158800,0.22831
2011-05-06,0.22365,0.22365,0.22365,0.22365,25800,0.22365
2011-05-05,0.21433,0.21899,0.21433,0.21899,44300,0.21899
2011-05-04,0.21433,0.21433,0.20967,0.21433,137400,0.21433
2011-05-03,0.22365,0.22365,0.21433,0.21433,122900,0.21433
2011-05-02,0.22365,0.23297,0.21899,0.23297,154600,0.23297
2011-04-29,0.23297,0.23297,0.21433,0.22365,222900,0.22365
2011-04-27,0.22365,0.25161,0.22365,0.23763,204500,0.23763
2011-04-21,0.21899,0.22365,0.21899,0.22365,102300,0.22365
2011-04-20,0.22831,0.22831,0.22365,0.22365,213200,0.22365
2011-04-19,0.23297,0.23297,0.22365,0.23297,222000,0.23297
2011-04-18,0.23763,0.23763,0.23297,0.23297,141700,0.23297
2011-04-15,0.23763,0.23763,0.22365,0.23763,211400,0.23763
2011-04-14,0.23763,0.23763,0.23297,0.23297,233100,0.23297
2011-04-13,0.23297,0.23763,0.23297,0.23297,299300,0.23297
2011-04-12,0.23763,0.23763,0.23297,0.23297,265000,0.23297
2011-04-11,0.23763,0.24229,0.23763,0.23763,229600,0.23763
2011-04-08,0.23763,0.23763,0.23763,0.23763,203600,0.23763
2011-04-07,0.24229,0.24695,0.23763,0.23763,371500,0.23763
2011-04-06,0.24229,0.24695,0.23763,0.24229,280200,0.24229
2011-04-05,0.24695,0.24695,0.24229,0.24695,181300,0.24695
2011-04-04,0.25161,0.25627,0.25161,0.25627,25200,0.25627
2011-04-01,0.25627,0.25627,0.24695,0.25161,90600,0.25161
2011-03-31,0.26092,0.26092,0.24695,0.24695,151300,0.24695
2011-03-30,0.27024,0.27024,0.26092,0.27024,110600,0.27024
2011-03-29,0.25627,0.27956,0.25627,0.27024,302100,0.27024
2011-03-28,0.25161,0.25161,0.24229,0.24229,198500,0.24229
2011-03-25,0.27024,0.2749,0.27024,0.2749,136200,0.2749
2011-03-24,0.25627,0.27956,0.25627,0.2749,323200,0.2749
2011-03-23,0.25161,0.26558,0.25161,0.25161,136100,0.25161
2011-03-22,0.26092,0.26092,0.24229,0.24695,159300,0.24695
2011-03-21,0.27024,0.27024,0.25161,0.25161,131800,0.25161
2011-03-18,0.2749,0.27956,0.26558,0.27024,169400,0.27024
2011-03-17,0.25627,0.27024,0.25627,0.27024,140400,0.27024
2011-03-16,0.24695,0.26558,0.24229,0.26092,247600,0.26092
2011-03-15,0.28422,0.28422,0.23297,0.26092,593500,0.26092
2011-03-14,0.31684,0.33547,0.27024,0.28422,743700,0.28422
2011-03-11,0.2982,0.34945,0.25627,0.31218,1645700,0.31218
2011-03-10,0.23297,0.2982,0.23297,0.27956,2925600,0.27956
2011-03-09,0.21899,0.24229,0.21433,0.22365,4269200,0.22365
