Date,Open,High,Low,Close,Volume,Adj Close
2017-01-10,0.041,0.041,0.041,0.041,107700,0.041
2017-01-09,0.04,0.04,0.04,0.04,000,0.04
2017-01-06,0.04,0.04,0.04,0.04,000,0.04
2017-01-05,0.04,0.04,0.04,0.04,000,0.04
2017-01-04,0.04,0.04,0.04,0.04,000,0.04
2017-01-03,0.04,0.04,0.04,0.04,100000,0.04
2017-01-02,0.038,0.038,0.038,0.038,000,0.038
2016-12-30,0.038,0.038,0.038,0.038,000,0.038
2016-12-29,0.038,0.038,0.038,0.038,000,0.038
2016-12-28,0.038,0.038,0.038,0.038,000,0.038
2016-12-27,0.038,0.038,0.038,0.038,000,0.038
2016-12-26,0.038,0.038,0.038,0.038,000,0.038
2016-12-23,0.038,0.038,0.038,0.038,000,0.038
2016-12-22,0.038,0.038,0.038,0.038,000,0.038
2016-12-21,0.038,0.038,0.038,0.038,000,0.038
2016-12-20,0.036,0.038,0.036,0.038,164300,0.038
2016-12-19,0.035,0.035,0.035,0.035,1700,0.035
2016-12-16,0.035,0.035,0.035,0.035,87300,0.035
2016-12-15,0.037,0.037,0.037,0.037,000,0.037
2016-12-14,0.037,0.037,0.037,0.037,000,0.037
2016-12-13,0.037,0.037,0.037,0.037,000,0.037
2016-12-12,0.037,0.037,0.037,0.037,234800,0.037
2016-12-09,0.033,0.033,0.033,0.033,000,0.033
2016-12-08,0.033,0.033,0.033,0.033,000,0.033
2016-12-07,0.033,0.033,0.033,0.033,000,0.033
2016-12-06,0.033,0.033,0.033,0.033,000,0.033
2016-12-05,0.033,0.033,0.033,0.033,000,0.033
2016-12-02,0.033,0.033,0.033,0.033,12000,0.033
2016-12-01,0.032,0.032,0.032,0.032,000,0.032
2016-11-30,0.032,0.032,0.032,0.032,10100,0.032
2016-11-29,0.031,0.032,0.03,0.03,1183200,0.03
2016-11-28,0.035,0.035,0.035,0.035,000,0.035
2016-11-25,0.035,0.035,0.035,0.035,000,0.035
2016-11-24,0.035,0.035,0.035,0.035,000,0.035
2016-11-23,0.035,0.035,0.035,0.035,594900,0.035
2016-11-22,0.035,0.035,0.035,0.035,194900,0.035
2016-11-21,0.035,0.035,0.035,0.035,000,0.035
2016-11-18,0.035,0.035,0.035,0.035,56100,0.035
2016-11-17,0.035,0.035,0.035,0.035,000,0.035
2016-11-16,0.035,0.035,0.035,0.035,000,0.035
2016-11-15,0.035,0.035,0.035,0.035,000,0.035
2016-11-14,0.035,0.035,0.035,0.035,000,0.035
2016-11-11,0.035,0.035,0.035,0.035,000,0.035
2016-11-10,0.035,0.035,0.035,0.035,000,0.035
2016-11-09,0.035,0.035,0.035,0.035,000,0.035
2016-11-08,0.035,0.035,0.035,0.035,000,0.035
2016-11-07,0.035,0.035,0.035,0.035,000,0.035
2016-11-04,0.035,0.035,0.035,0.035,31800,0.035
2016-11-03,0.03,0.03,0.03,0.03,000,0.03
2016-11-02,0.03,0.03,0.03,0.03,000,0.03
2016-11-01,0.03,0.03,0.03,0.03,000,0.03
2016-10-31,0.03,0.03,0.03,0.03,000,0.03
2016-10-28,0.03,0.03,0.03,0.03,000,0.03
2016-10-27,0.03,0.03,0.03,0.03,000,0.03
2016-10-26,0.03,0.03,0.03,0.03,000,0.03
2016-10-25,0.03,0.03,0.03,0.03,154600,0.03
2016-10-24,0.03,0.03,0.03,0.03,000,0.03
2016-10-21,0.03,0.03,0.03,0.03,000,0.03
2016-10-20,0.03,0.03,0.03,0.03,215500,0.03
2016-10-19,0.03,0.03,0.03,0.03,616200,0.03
2016-10-18,0.03,0.03,0.03,0.03,6300,0.03
2016-10-17,0.03,0.03,0.03,0.03,000,0.03
2016-10-14,0.03,0.03,0.03,0.03,000,0.03
2016-10-13,0.03,0.03,0.03,0.03,2000,0.03
2016-10-12,0.03,0.03,0.03,0.03,282500,0.03
2016-10-11,0.029,0.03,0.029,0.03,333000,0.03
2016-10-10,0.028,0.028,0.028,0.028,000,0.028
2016-10-07,0.028,0.028,0.028,0.028,17700,0.028
2016-10-06,0.028,0.028,0.028,0.028,200000,0.028
2016-10-05,0.03,0.03,0.028,0.028,244800,0.028
2016-10-04,0.03,0.03,0.03,0.03,000,0.03
2016-10-03,0.03,0.03,0.03,0.03,000,0.03
2016-09-30,0.03,0.03,0.03,0.03,000,0.03
2016-09-29,0.03,0.03,0.03,0.03,000,0.03
2016-09-28,0.03,0.03,0.03,0.03,28800,0.03
2016-09-27,0.03,0.03,0.03,0.03,000,0.03
2016-09-26,0.03,0.03,0.03,0.03,000,0.03
2016-09-23,0.03,0.03,0.03,0.03,39000,0.03
2016-09-22,0.03,0.03,0.03,0.03,000,0.03
2016-09-21,0.03,0.03,0.03,0.03,50500,0.03
2016-09-20,0.03,0.03,0.03,0.03,16100,0.03
2016-09-19,0.03,0.03,0.03,0.03,000,0.03
2016-09-16,0.03,0.03,0.03,0.03,212400,0.03
2016-09-15,0.03,0.03,0.03,0.03,000,0.03
2016-09-14,0.03,0.03,0.03,0.03,8700,0.03
2016-09-13,0.03,0.03,0.03,0.03,38000,0.03
2016-09-12,0.038,0.038,0.038,0.038,000,0.038
2016-09-09,0.038,0.038,0.038,0.038,000,0.038
2016-09-08,0.038,0.038,0.038,0.038,40000,0.038
2016-09-07,0.034,0.038,0.034,0.038,85100,0.038
2016-09-06,0.032,0.032,0.032,0.032,379900,0.032
2016-09-05,0.029,0.029,0.029,0.029,000,0.029
2016-09-02,0.03,0.03,0.029,0.029,436800,0.029
2016-09-01,0.03,0.03,0.03,0.03,37500,0.03
2016-08-31,0.03,0.03,0.03,0.03,200000,0.03
2016-08-30,0.03,0.03,0.03,0.03,000,0.03
2016-08-29,0.03,0.03,0.03,0.03,000,0.03
2016-08-26,0.03,0.03,0.03,0.03,000,0.03
2016-08-25,0.03,0.03,0.03,0.03,000,0.03
2016-08-24,0.031,0.031,0.03,0.03,150000,0.03
2016-08-23,0.034,0.034,0.034,0.034,000,0.034
2016-08-22,0.034,0.034,0.034,0.034,20000,0.034
2016-08-19,0.034,0.034,0.034,0.034,28800,0.034
2016-08-18,0.03,0.03,0.03,0.03,000,0.03
2016-08-17,0.03,0.03,0.03,0.03,000,0.03
2016-08-16,0.031,0.031,0.03,0.03,313000,0.03
2016-08-15,0.03,0.03,0.03,0.03,000,0.03
2016-08-12,0.03,0.03,0.03,0.03,000,0.03
2016-08-11,0.03,0.03,0.03,0.03,000,0.03
2016-08-10,0.03,0.03,0.03,0.03,000,0.03
2016-08-09,0.03,0.03,0.03,0.03,000,0.03
2016-08-08,0.03,0.03,0.03,0.03,795900,0.03
2016-08-05,0.027,0.027,0.027,0.027,135000,0.027
2016-08-04,0.03,0.03,0.03,0.03,000,0.03
2016-08-03,0.03,0.03,0.03,0.03,19500,0.03
2016-08-02,0.029,0.03,0.029,0.03,780000,0.03
2016-08-01,0.027,0.027,0.027,0.027,300000,0.027
2016-07-29,0.025,0.026,0.025,0.026,1747800,0.026
2016-07-28,0.025,0.025,0.025,0.025,52000,0.025
2016-07-27,0.025,0.025,0.025,0.025,000,0.025
2016-07-26,0.025,0.025,0.025,0.025,000,0.025
2016-07-25,0.025,0.025,0.025,0.025,000,0.025
2016-07-22,0.025,0.025,0.025,0.025,000,0.025
2016-07-21,0.025,0.025,0.025,0.025,150000,0.025
2016-07-20,0.024,0.024,0.024,0.024,000,0.024
2016-07-19,0.024,0.024,0.024,0.024,000,0.024
2016-07-18,0.024,0.024,0.024,0.024,19500,0.024
2016-07-15,0.025,0.025,0.025,0.025,000,0.025
2016-07-14,0.025,0.025,0.025,0.025,207500,0.025
2016-07-13,0.025,0.025,0.025,0.025,277000,0.025
2016-07-12,0.024,0.024,0.024,0.024,000,0.024
2016-07-11,0.025,0.025,0.024,0.024,580700,0.024
2016-07-08,0.024,0.024,0.024,0.024,22500,0.024
2016-07-07,0.023,0.024,0.023,0.024,625000,0.024
2016-07-06,0.023,0.023,0.023,0.023,000,0.023
2016-07-05,0.023,0.023,0.023,0.023,000,0.023
2016-07-04,0.023,0.023,0.023,0.023,000,0.023
2016-07-01,0.023,0.023,0.023,0.023,1140000,0.023
2016-06-30,0.023,0.023,0.023,0.023,124100,0.023
2016-06-29,0.022,0.024,0.022,0.024,1093200,0.024
2016-06-28,0.022,0.022,0.022,0.022,615000,0.022
2016-06-27,0.023,0.023,0.023,0.023,000,0.023
2016-06-24,0.023,0.023,0.022,0.023,3753200,0.023
2016-06-23,0.023,0.023,0.023,0.023,110500,0.023
2016-06-22,0.023,0.023,0.023,0.023,000,0.023
2016-06-21,0.023,0.023,0.023,0.023,255800,0.023
2016-06-20,0.024,0.024,0.024,0.024,400000,0.024
2016-06-17,0.024,0.024,0.024,0.024,000,0.024
2016-06-16,0.024,0.024,0.024,0.024,000,0.024
2016-06-15,0.024,0.024,0.024,0.024,7400,0.024
2016-06-14,0.025,0.025,0.025,0.025,000,0.025
2016-06-13,0.025,0.025,0.025,0.025,000,0.025
2016-06-10,0.025,0.025,0.025,0.025,231000,0.025
2016-06-09,0.025,0.025,0.025,0.025,000,0.025
2016-06-08,0.025,0.025,0.025,0.025,100000,0.025
2016-06-07,0.024,0.024,0.024,0.024,375000,0.024
2016-06-06,0.026,0.026,0.026,0.026,23000,0.026
2016-06-03,0.026,0.026,0.026,0.026,000,0.026
2016-06-02,0.026,0.026,0.026,0.026,000,0.026
2016-06-01,0.026,0.026,0.026,0.026,000,0.026
2016-05-31,0.026,0.026,0.026,0.026,000,0.026
2016-05-30,0.026,0.026,0.026,0.026,20000,0.026
2016-05-27,0.024,0.024,0.024,0.024,000,0.024
2016-05-26,0.024,0.024,0.024,0.024,161000,0.024
2016-05-25,0.024,0.024,0.024,0.024,18500,0.024
2016-05-24,0.025,0.026,0.025,0.026,434500,0.026
2016-05-23,0.026,0.026,0.026,0.026,000,0.026
2016-05-20,0.026,0.026,0.026,0.026,000,0.026
2016-05-19,0.026,0.026,0.026,0.026,300000,0.026
2016-05-18,0.027,0.027,0.026,0.027,399800,0.027
2016-05-17,0.025,0.027,0.024,0.027,831000,0.027
2016-05-16,0.03,0.03,0.026,0.028,1007500,0.028
2016-05-13,0.025,0.03,0.025,0.027,3025000,0.027
2016-05-12,0.023,0.023,0.023,0.023,000,0.023
2016-05-11,0.023,0.023,0.023,0.023,000,0.023
2016-05-10,0.023,0.023,0.023,0.023,250000,0.023
2016-05-09,0.026,0.026,0.026,0.026,28900,0.026
2016-05-06,0.024,0.024,0.024,0.024,000,0.024
2016-05-05,0.024,0.024,0.024,0.024,000,0.024
2016-05-04,0.024,0.024,0.024,0.024,000,0.024
2016-05-03,0.024,0.024,0.024,0.024,384600,0.024
2016-05-02,0.025,0.025,0.025,0.025,29800,0.025
2016-04-29,0.025,0.025,0.025,0.025,000,0.025
2016-04-28,0.025,0.025,0.025,0.025,000,0.025
2016-04-27,0.025,0.025,0.024,0.025,398000,0.025
2016-04-26,0.025,0.025,0.023,0.024,220800,0.024
2016-04-25,0.027,0.027,0.027,0.027,000,0.027
2016-04-22,0.027,0.027,0.027,0.027,000,0.027
2016-04-21,0.027,0.027,0.027,0.027,000,0.027
2016-04-20,0.023,0.027,0.023,0.027,987700,0.027
2016-04-19,0.023,0.023,0.023,0.023,6000,0.023
2016-04-18,0.027,0.027,0.027,0.027,000,0.027
2016-04-15,0.027,0.027,0.027,0.027,000,0.027
2016-04-14,0.023,0.027,0.023,0.027,216500,0.027
2016-04-13,0.023,0.023,0.023,0.023,000,0.023
2016-04-12,0.023,0.023,0.023,0.023,000,0.023
2016-04-11,0.023,0.023,0.023,0.023,132000,0.023
2016-04-08,0.023,0.023,0.023,0.023,000,0.023
2016-04-07,0.023,0.023,0.023,0.023,000,0.023
2016-04-06,0.023,0.023,0.023,0.023,000,0.023
2016-04-05,0.023,0.023,0.023,0.023,000,0.023
2016-04-04,0.023,0.023,0.023,0.023,000,0.023
2016-04-01,0.023,0.023,0.023,0.023,000,0.023
2016-03-31,0.023,0.023,0.023,0.023,000,0.023
2016-03-30,0.023,0.023,0.023,0.023,000,0.023
2016-03-29,0.023,0.023,0.023,0.023,170000,0.023
2016-03-28,0.023,0.023,0.023,0.023,000,0.023
2016-03-25,0.023,0.023,0.023,0.023,000,0.023
2016-03-24,0.023,0.023,0.023,0.023,199500,0.023
2016-03-23,0.023,0.023,0.023,0.023,000,0.023
2016-03-22,0.024,0.024,0.023,0.023,244000,0.023
2016-03-21,0.023,0.023,0.023,0.023,000,0.023
2016-03-18,0.023,0.023,0.023,0.023,32500,0.023
2016-03-17,0.024,0.024,0.024,0.024,115000,0.024
2016-03-16,0.021,0.021,0.021,0.021,000,0.021
2016-03-15,0.021,0.021,0.021,0.021,000,0.021
2016-03-14,0.021,0.021,0.021,0.021,000,0.021
2016-03-11,0.022,0.025,0.021,0.021,1548700,0.021
2016-03-10,0.022,0.022,0.022,0.022,000,0.022
2016-03-09,0.022,0.022,0.022,0.022,000,0.022
2016-03-08,0.022,0.022,0.022,0.022,000,0.022
2016-03-07,0.022,0.022,0.022,0.022,112500,0.022
2016-03-04,0.023,0.023,0.023,0.023,000,0.023
2016-03-03,0.023,0.023,0.023,0.023,000,0.023
2016-03-02,0.023,0.023,0.023,0.023,000,0.023
2016-03-01,0.022,0.023,0.022,0.023,60000,0.023
2016-02-29,0.022,0.022,0.022,0.022,227500,0.022
2016-02-26,0.024,0.024,0.024,0.024,000,0.024
2016-02-25,0.024,0.024,0.024,0.024,286100,0.024
2016-02-24,0.021,0.021,0.021,0.021,000,0.021
2016-02-23,0.021,0.021,0.021,0.021,000,0.021
2016-02-22,0.021,0.021,0.021,0.021,000,0.021
2016-02-19,0.021,0.021,0.021,0.021,130000,0.021
2016-02-18,0.021,0.021,0.021,0.021,000,0.021
2016-02-17,0.021,0.021,0.021,0.021,000,0.021
2016-02-16,0.021,0.021,0.021,0.021,000,0.021
2016-02-15,0.021,0.021,0.021,0.021,000,0.021
2016-02-12,0.022,0.022,0.021,0.021,230700,0.021
2016-02-11,0.02,0.02,0.02,0.02,2100,0.02
2016-02-10,0.02,0.02,0.02,0.02,000,0.02
2016-02-09,0.02,0.02,0.02,0.02,502400,0.02
2016-02-08,0.021,0.021,0.021,0.021,000,0.021
2016-02-05,0.021,0.021,0.021,0.021,000,0.021
2016-02-04,0.021,0.021,0.021,0.021,000,0.021
2016-02-03,0.021,0.021,0.021,0.021,000,0.021
2016-02-02,0.02,0.021,0.02,0.021,265000,0.021
2016-02-01,0.02,0.02,0.02,0.02,000,0.02
2016-01-29,0.02,0.02,0.02,0.02,000,0.02
2016-01-28,0.02,0.02,0.02,0.02,000,0.02
2016-01-27,0.02,0.02,0.02,0.02,000,0.02
2016-01-26,0.02,0.02,0.02,0.02,000,0.02
2016-01-25,0.02,0.02,0.02,0.02,000,0.02
2016-01-22,0.02,0.02,0.02,0.02,51500,0.02
2016-01-21,0.02,0.02,0.02,0.02,000,0.02
2016-01-20,0.02,0.02,0.02,0.02,300000,0.02
2016-01-19,0.023,0.023,0.023,0.023,000,0.023
2016-01-18,0.023,0.023,0.023,0.023,000,0.023
2016-01-15,0.023,0.023,0.023,0.023,000,0.023
2016-01-14,0.023,0.023,0.023,0.023,130000,0.023
2016-01-13,0.022,0.022,0.022,0.022,000,0.022
2016-01-12,0.022,0.022,0.022,0.022,000,0.022
2016-01-11,0.022,0.022,0.022,0.022,000,0.022
2016-01-08,0.022,0.022,0.022,0.022,000,0.022
2016-01-07,0.022,0.022,0.022,0.022,100000,0.022
2016-01-06,0.023,0.023,0.023,0.023,000,0.023
2016-01-05,0.023,0.023,0.023,0.023,000,0.023
2016-01-04,0.023,0.023,0.023,0.023,000,0.023
2016-01-01,0.023,0.023,0.023,0.023,000,0.023
2015-12-31,0.023,0.023,0.023,0.023,000,0.023
2015-12-30,0.023,0.023,0.023,0.023,36300,0.023
2015-12-29,0.021,0.021,0.021,0.021,000,0.021
2015-12-28,0.021,0.021,0.021,0.021,000,0.021
2015-12-25,0.021,0.021,0.021,0.021,000,0.021
2015-12-24,0.021,0.021,0.021,0.021,000,0.021
2015-12-23,0.021,0.021,0.021,0.021,000,0.021
2015-12-22,0.021,0.021,0.021,0.021,119800,0.021
2015-12-21,0.021,0.021,0.021,0.021,100000,0.021
2015-12-18,0.021,0.021,0.021,0.021,5000,0.021
2015-12-17,0.021,0.021,0.021,0.021,42000,0.021
2015-12-16,0.021,0.021,0.021,0.021,000,0.021
2015-12-15,0.021,0.021,0.021,0.021,000,0.021
2015-12-14,0.021,0.021,0.021,0.021,000,0.021
2015-12-11,0.021,0.021,0.021,0.021,000,0.021
2015-12-10,0.021,0.021,0.021,0.021,10000,0.021
2015-12-09,0.024,0.024,0.024,0.024,000,0.024
2015-12-08,0.024,0.024,0.024,0.024,000,0.024
2015-12-07,0.022,0.024,0.022,0.024,152500,0.024
2015-12-04,0.022,0.022,0.022,0.022,369800,0.022
2015-12-03,0.022,0.022,0.022,0.022,130000,0.022
2015-12-02,0.021,0.021,0.021,0.021,000,0.021
2015-12-01,0.021,0.021,0.021,0.021,000,0.021
2015-11-30,0.021,0.021,0.021,0.021,000,0.021
2015-11-27,0.021,0.021,0.021,0.021,210000,0.021
2015-11-26,0.021,0.021,0.021,0.021,000,0.021
2015-11-25,0.021,0.021,0.021,0.021,21500,0.021
2015-11-24,0.024,0.024,0.024,0.024,000,0.024
2015-11-23,0.024,0.024,0.024,0.024,000,0.024
2015-11-20,0.024,0.024,0.024,0.024,000,0.024
2015-11-19,0.021,0.024,0.021,0.024,122000,0.024
2015-11-18,0.02,0.02,0.02,0.02,000,0.02
2015-11-17,0.02,0.02,0.02,0.02,000,0.02
2015-11-16,0.02,0.02,0.02,0.02,000,0.02
2015-11-13,0.02,0.02,0.02,0.02,000,0.02
2015-11-12,0.022,0.022,0.02,0.02,400800,0.02
2015-11-11,0.022,0.022,0.022,0.022,000,0.022
2015-11-10,0.022,0.022,0.022,0.022,000,0.022
2015-11-09,0.022,0.022,0.022,0.022,000,0.022
2015-11-06,0.022,0.022,0.022,0.022,38900,0.022
2015-11-05,0.025,0.025,0.025,0.025,000,0.025
2015-11-04,0.025,0.025,0.025,0.025,000,0.025
2015-11-03,0.025,0.025,0.025,0.025,000,0.025
2015-11-02,0.025,0.025,0.025,0.025,000,0.025
2015-10-30,0.025,0.025,0.025,0.025,000,0.025
2015-10-29,0.025,0.025,0.025,0.025,000,0.025
2015-10-28,0.025,0.025,0.025,0.025,000,0.025
2015-10-27,0.025,0.025,0.025,0.025,000,0.025
2015-10-26,0.025,0.025,0.025,0.025,000,0.025
2015-10-23,0.021,0.025,0.021,0.025,268000,0.025
2015-10-22,0.021,0.021,0.021,0.021,50000,0.021
2015-10-21,0.025,0.025,0.025,0.025,150000,0.025
2015-10-20,0.024,0.024,0.024,0.024,000,0.024
2015-10-19,0.024,0.024,0.024,0.024,000,0.024
2015-10-16,0.022,0.024,0.022,0.024,195000,0.024
2015-10-15,0.022,0.022,0.02,0.02,340000,0.02
2015-10-14,0.022,0.022,0.022,0.022,000,0.022
2015-10-13,0.022,0.022,0.022,0.022,000,0.022
2015-10-12,0.022,0.022,0.022,0.022,000,0.022
2015-10-09,0.022,0.022,0.022,0.022,8500,0.022
2015-10-08,0.025,0.025,0.025,0.025,000,0.025
2015-10-07,0.025,0.025,0.025,0.025,000,0.025
2015-10-06,0.025,0.025,0.025,0.025,000,0.025
2015-10-05,0.025,0.025,0.025,0.025,35000,0.025
2015-10-02,0.027,0.027,0.027,0.027,000,0.027
2015-10-01,0.023,0.027,0.023,0.027,928000,0.027
2015-09-30,0.022,0.022,0.022,0.022,000,0.022
2015-09-29,0.023,0.023,0.022,0.022,55000,0.022
2015-09-28,0.024,0.024,0.024,0.024,000,0.024
2015-09-25,0.024,0.024,0.024,0.024,000,0.024
2015-09-24,0.024,0.024,0.024,0.024,140500,0.024
2015-09-23,0.025,0.025,0.025,0.025,000,0.025
2015-09-22,0.025,0.025,0.025,0.025,112500,0.025
2015-09-21,0.025,0.025,0.025,0.025,000,0.025
2015-09-18,0.025,0.025,0.025,0.025,000,0.025
2015-09-17,0.025,0.025,0.025,0.025,000,0.025
2015-09-16,0.025,0.025,0.025,0.025,000,0.025
2015-09-15,0.025,0.025,0.025,0.025,000,0.025
2015-09-14,0.021,0.025,0.021,0.025,51400,0.025
2015-09-11,0.025,0.025,0.025,0.025,000,0.025
2015-09-10,0.025,0.025,0.025,0.025,100000,0.025
2015-09-09,0.021,0.024,0.021,0.024,377900,0.024
2015-09-08,0.023,0.023,0.021,0.021,68000,0.021
2015-09-07,0.022,0.023,0.022,0.023,259400,0.023
2015-09-04,0.022,0.022,0.022,0.022,10000,0.022
2015-09-03,0.022,0.022,0.022,0.022,10000,0.022
2015-09-02,0.022,0.022,0.022,0.022,100000,0.022
2015-09-01,0.023,0.023,0.022,0.022,100000,0.022
2015-08-31,0.023,0.023,0.023,0.023,122900,0.023
2015-08-28,0.023,0.023,0.023,0.023,000,0.023
2015-08-27,0.023,0.023,0.023,0.023,143300,0.023
2015-08-26,0.023,0.023,0.023,0.023,200000,0.023
2015-08-25,0.024,0.024,0.023,0.023,355500,0.023
2015-08-24,0.024,0.024,0.024,0.024,40000,0.024
2015-08-21,0.026,0.026,0.025,0.025,130600,0.025
2015-08-20,0.025,0.026,0.025,0.026,895800,0.026
2015-08-19,0.024,0.027,0.024,0.027,328300,0.027
2015-08-18,0.02,0.025,0.02,0.025,319200,0.025
2015-08-17,0.076,0.076,0.07,0.071,913800,0.071
2015-08-14,0.076,0.08,0.074,0.08,351000,0.08
2015-08-13,0.074,0.074,0.072,0.072,30000,0.072
2015-08-12,0.072,0.072,0.072,0.072,000,0.072
2015-08-11,0.073,0.073,0.072,0.072,489000,0.072
2015-08-10,0.073,0.073,0.072,0.072,120000,0.072
2015-08-07,0.07,0.072,0.07,0.072,134100,0.072
2015-08-06,0.07,0.071,0.07,0.07,643100,0.07
2015-08-05,0.07,0.071,0.07,0.071,106700,0.071
2015-08-04,0.07,0.07,0.07,0.07,000,0.07
2015-08-03,0.07,0.07,0.07,0.07,000,0.07
2015-07-31,0.07,0.07,0.07,0.07,000,0.07
2015-07-30,0.07,0.07,0.07,0.07,50000,0.07
2015-07-29,0.069,0.069,0.069,0.069,200000,0.069
2015-07-28,0.071,0.071,0.07,0.07,357200,0.07
2015-07-27,0.071,0.071,0.071,0.071,000,0.071
2015-07-24,0.071,0.071,0.07,0.071,280000,0.071
2015-07-23,0.072,0.072,0.072,0.072,23500,0.072
2015-07-22,0.072,0.072,0.071,0.072,301200,0.072
2015-07-21,0.073,0.073,0.072,0.072,2048700,0.072
2015-07-20,0.075,0.075,0.072,0.073,416800,0.073
2015-07-17,0.074,0.074,0.073,0.074,79900,0.074
2015-07-16,0.072,0.072,0.072,0.072,427100,0.072
2015-07-15,0.068,0.079,0.068,0.074,1448800,0.074
2015-07-14,0.068,0.068,0.068,0.068,63000,0.068
2015-07-13,0.072,0.072,0.072,0.072,000,0.072
2015-07-10,0.072,0.072,0.072,0.072,000,0.072
2015-07-09,0.072,0.072,0.072,0.072,000,0.072
2015-07-08,0.072,0.072,0.072,0.072,000,0.072
2015-07-07,0.072,0.072,0.072,0.072,000,0.072
2015-07-06,0.068,0.072,0.068,0.072,138900,0.072
2015-07-03,0.071,0.071,0.071,0.071,000,0.071
2015-07-02,0.072,0.072,0.071,0.071,223000,0.071
2015-07-01,0.071,0.071,0.071,0.071,000,0.071
2015-06-30,0.071,0.071,0.071,0.071,000,0.071
2015-06-29,0.071,0.071,0.071,0.071,10000,0.071
2015-06-26,0.071,0.071,0.07,0.07,42900,0.07
2015-06-25,0.071,0.071,0.071,0.071,000,0.071
2015-06-24,0.071,0.071,0.071,0.071,000,0.071
2015-06-23,0.071,0.071,0.071,0.071,10000,0.071
2015-06-22,0.073,0.073,0.073,0.073,4000,0.073
2015-06-19,0.074,0.074,0.07,0.07,100000,0.07
2015-06-18,0.074,0.074,0.074,0.074,000,0.074
2015-06-17,0.072,0.074,0.072,0.074,184200,0.074
2015-06-16,0.074,0.074,0.074,0.074,000,0.074
2015-06-15,0.074,0.074,0.074,0.074,000,0.074
2015-06-12,0.074,0.074,0.074,0.074,000,0.074
2015-06-11,0.072,0.074,0.072,0.074,73400,0.074
2015-06-10,0.072,0.072,0.072,0.072,000,0.072
2015-06-09,0.072,0.072,0.072,0.072,000,0.072
2015-06-08,0.072,0.072,0.072,0.072,000,0.072
2015-06-05,0.072,0.072,0.072,0.072,000,0.072
2015-06-04,0.072,0.072,0.072,0.072,120000,0.072
2015-06-03,0.07,0.07,0.07,0.07,63400,0.07
2015-06-02,0.07,0.07,0.07,0.07,2000,0.07
2015-06-01,0.07,0.07,0.07,0.07,000,0.07
2015-05-29,0.07,0.07,0.07,0.07,000,0.07
2015-05-28,0.07,0.07,0.07,0.07,700,0.07
2015-05-27,0.068,0.068,0.068,0.068,000,0.068
2015-05-26,0.068,0.068,0.068,0.068,000,0.068
2015-05-25,0.068,0.068,0.068,0.068,000,0.068
2015-05-22,0.071,0.071,0.067,0.068,600500,0.068
2015-05-21,0.07,0.07,0.07,0.07,000,0.07
2015-05-20,0.07,0.07,0.07,0.07,000,0.07
2015-05-19,0.07,0.07,0.07,0.07,35000,0.07
2015-05-18,0.07,0.07,0.07,0.07,000,0.07
2015-05-15,0.07,0.07,0.07,0.07,130000,0.07
2015-05-14,0.069,0.069,0.069,0.069,000,0.069
2015-05-13,0.07,0.07,0.069,0.069,619400,0.069
2015-05-12,0.07,0.07,0.07,0.07,000,0.07
2015-05-11,0.07,0.07,0.07,0.07,100000,0.07
2015-05-08,0.07,0.073,0.07,0.073,134500,0.073
2015-05-07,0.072,0.072,0.072,0.072,000,0.072
2015-05-06,0.072,0.072,0.072,0.072,000,0.072
2015-05-05,0.072,0.072,0.07,0.072,75100,0.072
2015-05-04,0.07,0.072,0.07,0.072,280000,0.072
2015-05-01,0.07,0.07,0.07,0.07,000,0.07
2015-04-30,0.07,0.07,0.07,0.07,000,0.07
2015-04-29,0.07,0.07,0.07,0.07,000,0.07
2015-04-28,0.07,0.07,0.07,0.07,000,0.07
2015-04-27,0.07,0.07,0.07,0.07,000,0.07
2015-04-24,0.07,0.07,0.07,0.07,000,0.07
2015-04-23,0.07,0.07,0.07,0.07,14000,0.07
2015-04-22,0.07,0.07,0.07,0.07,513100,0.07
2015-04-21,0.073,0.073,0.073,0.073,000,0.073
2015-04-20,0.07,0.073,0.07,0.073,107100,0.073
2015-04-17,0.071,0.071,0.071,0.071,196400,0.071
2015-04-16,0.073,0.073,0.073,0.073,000,0.073
2015-04-15,0.073,0.073,0.073,0.073,20000,0.073
2015-04-14,0.071,0.071,0.071,0.071,13500,0.071
2015-04-13,0.07,0.07,0.07,0.07,350000,0.07
2015-04-10,0.07,0.07,0.07,0.07,000,0.07
2015-04-09,0.07,0.07,0.07,0.07,468200,0.07
2015-04-08,0.071,0.071,0.071,0.071,160000,0.071
2015-04-07,0.075,0.075,0.075,0.075,000,0.075
2015-04-06,0.075,0.075,0.075,0.075,000,0.075
2015-04-03,0.075,0.075,0.075,0.075,000,0.075
2015-04-02,0.075,0.075,0.075,0.075,000,0.075
2015-04-01,0.075,0.075,0.075,0.075,132400,0.075
2015-03-31,0.073,0.073,0.073,0.073,000,0.073
2015-03-30,0.073,0.073,0.073,0.073,356900,0.073
2015-03-27,0.073,0.073,0.073,0.073,000,0.073
2015-03-26,0.073,0.073,0.073,0.073,10000,0.073
2015-03-25,0.075,0.075,0.075,0.075,000,0.075
2015-03-24,0.075,0.075,0.075,0.075,000,0.075
2015-03-23,0.075,0.075,0.075,0.075,000,0.075
2015-03-20,0.075,0.075,0.075,0.075,000,0.075
2015-03-19,0.075,0.075,0.075,0.075,000,0.075
2015-03-18,0.075,0.075,0.075,0.075,000,0.075
2015-03-17,0.075,0.075,0.075,0.075,000,0.075
2015-03-16,0.075,0.075,0.075,0.075,000,0.075
2015-03-13,0.074,0.075,0.074,0.075,99500,0.075
2015-03-12,0.073,0.073,0.073,0.073,79500,0.073
2015-03-11,0.074,0.074,0.074,0.074,64400,0.074
2015-03-10,0.074,0.074,0.074,0.074,000,0.074
2015-03-09,0.075,0.075,0.074,0.074,84000,0.074
2015-03-06,0.072,0.072,0.072,0.072,000,0.072
2015-03-05,0.075,0.075,0.072,0.072,154500,0.072
2015-03-04,0.079,0.079,0.075,0.075,94200,0.075
2015-03-03,0.079,0.079,0.079,0.079,87700,0.079
2015-03-02,0.078,0.079,0.077,0.079,107300,0.079
2015-02-27,0.078,0.084,0.078,0.083,455200,0.083
2015-02-26,0.076,0.085,0.076,0.08,687400,0.08
2015-02-25,0.071,0.071,0.071,0.071,50000,0.071
2015-02-24,0.071,0.071,0.071,0.071,000,0.071
2015-02-23,0.072,0.072,0.071,0.071,123400,0.071
2015-02-20,0.072,0.072,0.072,0.072,000,0.072
2015-02-19,0.071,0.072,0.071,0.072,50000,0.072
2015-02-18,0.073,0.073,0.073,0.073,000,0.073
2015-02-17,0.073,0.073,0.073,0.073,000,0.073
2015-02-16,0.07,0.073,0.07,0.073,74400,0.073
2015-02-13,0.075,0.075,0.075,0.075,60000,0.075
2015-02-12,0.072,0.072,0.072,0.072,40000,0.072
2015-02-11,0.072,0.072,0.07,0.07,261600,0.07
2015-02-10,0.072,0.072,0.072,0.072,000,0.072
2015-02-09,0.073,0.073,0.072,0.072,42100,0.072
2015-02-06,0.072,0.072,0.072,0.072,000,0.072
2015-02-05,0.072,0.072,0.072,0.072,70000,0.072
2015-02-04,0.07,0.07,0.07,0.07,97100,0.07
2015-02-03,0.07,0.07,0.07,0.07,000,0.07
2015-02-02,0.07,0.07,0.07,0.07,112800,0.07
2015-01-30,0.073,0.073,0.073,0.073,65400,0.073
2015-01-29,0.073,0.073,0.073,0.073,145000,0.073
2015-01-28,0.073,0.073,0.073,0.073,000,0.073
2015-01-27,0.073,0.073,0.073,0.073,000,0.073
2015-01-26,0.073,0.073,0.073,0.073,000,0.073
2015-01-23,0.073,0.073,0.073,0.073,000,0.073
2015-01-22,0.073,0.073,0.073,0.073,000,0.073
2015-01-21,0.075,0.075,0.073,0.073,150000,0.073
2015-01-20,0.077,0.077,0.075,0.075,110000,0.075
2015-01-19,0.078,0.078,0.078,0.078,000,0.078
2015-01-16,0.078,0.078,0.078,0.078,000,0.078
2015-01-15,0.078,0.078,0.078,0.078,000,0.078
2015-01-14,0.078,0.078,0.078,0.078,000,0.078
2015-01-13,0.078,0.078,0.078,0.078,147000,0.078
2015-01-12,0.08,0.08,0.08,0.08,68000,0.08
2015-01-09,0.085,0.085,0.085,0.085,000,0.085
2015-01-08,0.08,0.085,0.08,0.085,200000,0.085
2015-01-07,0.076,0.076,0.076,0.076,000,0.076
2015-01-06,0.076,0.076,0.076,0.076,000,0.076
2015-01-05,0.076,0.076,0.076,0.076,000,0.076
2015-01-02,0.076,0.076,0.076,0.076,000,0.076
2015-01-01,0.076,0.076,0.076,0.076,000,0.076
2014-12-31,0.076,0.076,0.076,0.076,000,0.076
2014-12-30,0.076,0.076,0.076,0.076,4200,0.076
2014-12-29,0.076,0.076,0.076,0.076,000,0.076
2014-12-26,0.076,0.076,0.076,0.076,000,0.076
2014-12-25,0.076,0.076,0.076,0.076,000,0.076
2014-12-24,0.074,0.076,0.074,0.076,50000,0.076
2014-12-23,0.073,0.073,0.073,0.073,000,0.073
2014-12-22,0.073,0.073,0.073,0.073,20000,0.073
2014-12-19,0.073,0.073,0.073,0.073,000,0.073
2014-12-18,0.072,0.073,0.072,0.073,119000,0.073
2014-12-17,0.071,0.073,0.071,0.073,52100,0.073
2014-12-16,0.068,0.073,0.068,0.073,179800,0.073
2014-12-15,0.068,0.068,0.068,0.068,68000,0.068
2014-12-12,0.067,0.067,0.067,0.067,000,0.067
2014-12-11,0.067,0.067,0.067,0.067,000,0.067
2014-12-10,0.067,0.067,0.067,0.067,000,0.067
2014-12-09,0.067,0.067,0.067,0.067,000,0.067
2014-12-08,0.067,0.067,0.067,0.067,000,0.067
2014-12-05,0.067,0.067,0.067,0.067,000,0.067
2014-12-04,0.067,0.067,0.067,0.067,000,0.067
2014-12-03,0.067,0.067,0.067,0.067,000,0.067
2014-12-02,0.069,0.069,0.067,0.067,90900,0.067
2014-12-01,0.067,0.067,0.067,0.067,000,0.067
2014-11-28,0.067,0.067,0.067,0.067,000,0.067
2014-11-27,0.07,0.07,0.067,0.067,112000,0.067
2014-11-26,0.07,0.07,0.07,0.07,000,0.07
2014-11-25,0.07,0.07,0.07,0.07,000,0.07
2014-11-24,0.076,0.076,0.07,0.07,500000,0.07
2014-11-21,0.073,0.073,0.073,0.073,000,0.073
2014-11-20,0.073,0.073,0.073,0.073,90000,0.073
2014-11-19,0.073,0.073,0.073,0.073,5000,0.073
2014-11-18,0.075,0.075,0.075,0.075,000,0.075
2014-11-17,0.075,0.076,0.075,0.075,119800,0.075
2014-11-14,0.074,0.074,0.072,0.072,376000,0.072
2014-11-13,0.075,0.078,0.075,0.077,465000,0.077
2014-11-12,0.07,0.08,0.07,0.08,165000,0.08
2014-11-11,0.067,0.067,0.067,0.067,100000,0.067
2014-11-10,0.072,0.073,0.066,0.066,64400,0.066
2014-11-07,0.065,0.065,0.065,0.065,000,0.065
2014-11-06,0.065,0.065,0.065,0.065,7300,0.065
2014-11-05,0.063,0.063,0.063,0.063,000,0.063
2014-11-04,0.063,0.063,0.063,0.063,60000,0.063
2014-11-03,0.066,0.066,0.061,0.061,123700,0.061
2014-10-31,0.07,0.07,0.07,0.07,000,0.07
2014-10-30,0.07,0.07,0.067,0.07,97500,0.07
2014-10-29,0.063,0.068,0.063,0.068,329800,0.068
2014-10-28,0.065,0.065,0.061,0.061,86200,0.061
2014-10-27,0.07,0.07,0.07,0.07,8500,0.07
2014-10-24,0.068,0.068,0.068,0.068,000,0.068
2014-10-23,0.067,0.068,0.067,0.068,30000,0.068
2014-10-22,0.06,0.06,0.06,0.06,000,0.06
2014-10-21,0.06,0.06,0.06,0.06,21100,0.06
2014-10-20,0.061,0.061,0.06,0.06,245000,0.06
2014-10-17,0.06,0.06,0.06,0.06,256000,0.06
2014-10-16,0.06,0.06,0.058,0.058,71400,0.058
2014-10-15,0.058,0.058,0.057,0.057,85000,0.057
2014-10-14,0.058,0.058,0.058,0.058,000,0.058
2014-10-13,0.058,0.058,0.058,0.058,140000,0.058
2014-10-10,0.056,0.056,0.056,0.056,000,0.056
2014-10-09,0.056,0.056,0.056,0.056,186600,0.056
2014-10-08,0.055,0.055,0.055,0.055,000,0.055
2014-10-07,0.055,0.055,0.055,0.055,000,0.055
2014-10-06,0.055,0.055,0.055,0.055,000,0.055
2014-10-03,0.055,0.055,0.055,0.055,000,0.055
2014-10-02,0.055,0.055,0.055,0.055,12400,0.055
2014-10-01,0.055,0.055,0.055,0.055,92800,0.055
2014-09-30,0.055,0.055,0.055,0.055,20000,0.055
2014-09-29,0.055,0.055,0.055,0.055,000,0.055
2014-09-26,0.055,0.055,0.055,0.055,000,0.055
2014-09-25,0.06,0.06,0.055,0.055,91200,0.055
2014-09-24,0.06,0.06,0.06,0.06,000,0.06
2014-09-23,0.06,0.06,0.06,0.06,77300,0.06
2014-09-22,0.06,0.06,0.055,0.055,151100,0.055
2014-09-19,0.06,0.06,0.06,0.06,000,0.06
2014-09-18,0.062,0.062,0.06,0.06,238500,0.06
2014-09-17,0.062,0.062,0.062,0.062,1400,0.062
2014-09-16,0.065,0.065,0.065,0.065,000,0.065
2014-09-15,0.072,0.072,0.065,0.065,294500,0.065
2014-09-12,0.065,0.077,0.065,0.072,1995300,0.072
2014-09-11,0.06,0.063,0.06,0.063,422500,0.063
2014-09-10,0.07,0.07,0.065,0.066,240400,0.066
2014-09-09,0.071,0.071,0.071,0.071,000,0.071
2014-09-08,0.071,0.071,0.071,0.071,000,0.071
2014-09-05,0.071,0.071,0.071,0.071,169300,0.071
2014-09-04,0.07,0.07,0.07,0.07,000,0.07
2014-09-03,0.071,0.071,0.07,0.07,30300,0.07
2014-09-02,0.074,0.074,0.074,0.074,100,0.074
2014-09-01,0.07,0.07,0.07,0.07,000,0.07
2014-08-29,0.07,0.07,0.07,0.07,30300,0.07
2014-08-28,0.071,0.071,0.067,0.067,100800,0.067
2014-08-27,0.071,0.071,0.067,0.067,50100,0.067
2014-08-26,0.072,0.072,0.072,0.072,000,0.072
2014-08-25,0.07,0.072,0.07,0.072,27200,0.072
2014-08-22,0.068,0.072,0.068,0.07,316700,0.07
2014-08-21,0.068,0.068,0.068,0.068,50000,0.068
2014-08-20,0.068,0.068,0.068,0.068,000,0.068
2014-08-19,0.068,0.068,0.068,0.068,100000,0.068
2014-08-18,0.065,0.072,0.065,0.069,147700,0.069
2014-08-15,0.065,0.065,0.065,0.065,210000,0.065
2014-08-14,0.06,0.06,0.06,0.06,000,0.06
2014-08-13,0.06,0.06,0.06,0.06,000,0.06
2014-08-12,0.06,0.06,0.06,0.06,50500,0.06
2014-08-11,0.06,0.06,0.06,0.06,000,0.06
2014-08-08,0.06,0.06,0.06,0.06,000,0.06
2014-08-07,0.06,0.06,0.06,0.06,18300,0.06
2014-08-06,0.06,0.06,0.06,0.06,000,0.06
2014-08-05,0.062,0.062,0.055,0.06,463500,0.06
2014-08-04,0.06,0.06,0.06,0.06,46000,0.06
2014-08-01,0.064,0.064,0.064,0.064,000,0.064
2014-07-31,0.064,0.064,0.064,0.064,000,0.064
2014-07-30,0.064,0.064,0.064,0.064,95500,0.064
2014-07-29,0.065,0.065,0.065,0.065,20000,0.065
2014-07-28,0.065,0.065,0.065,0.065,90000,0.065
2014-07-25,0.07,0.07,0.065,0.065,425500,0.065
2014-07-24,0.07,0.075,0.07,0.07,305100,0.07
2014-07-23,0.065,0.065,0.065,0.065,418100,0.065
2014-07-22,0.061,0.061,0.061,0.061,000,0.061
2014-07-21,0.061,0.061,0.061,0.061,100000,0.061
2014-07-18,0.056,0.06,0.056,0.06,280900,0.06
2014-07-17,0.054,0.054,0.054,0.054,100000,0.054
2014-07-16,0.056,0.056,0.056,0.056,10000,0.056
2014-07-15,0.054,0.054,0.054,0.054,64800,0.054
2014-07-14,0.052,0.052,0.052,0.052,59000,0.052
2014-07-11,0.049,0.05,0.049,0.05,823600,0.05
2014-07-10,0.049,0.049,0.049,0.049,000,0.049
2014-07-09,0.049,0.049,0.049,0.049,000,0.049
2014-07-08,0.049,0.049,0.049,0.049,000,0.049
2014-07-07,0.049,0.049,0.049,0.049,000,0.049
2014-07-04,0.049,0.049,0.049,0.049,000,0.049
2014-07-03,0.051,0.051,0.049,0.049,99800,0.049
2014-07-02,0.053,0.053,0.053,0.053,165300,0.053
2014-07-01,0.049,0.049,0.049,0.049,000,0.049
2014-06-30,0.05,0.05,0.049,0.049,160000,0.049
2014-06-27,0.052,0.052,0.05,0.05,43000,0.05
2014-06-26,0.048,0.05,0.048,0.05,116000,0.05
2014-06-25,0.048,0.05,0.048,0.05,25000,0.05
2014-06-24,0.047,0.048,0.047,0.048,25000,0.048
2014-06-23,0.051,0.051,0.047,0.048,662000,0.048
2014-06-20,0.05,0.05,0.05,0.05,000,0.05
2014-06-19,0.05,0.05,0.05,0.05,230000,0.05
2014-06-18,0.046,0.051,0.046,0.05,665000,0.05
2014-06-17,0.048,0.048,0.048,0.048,227200,0.048
2014-06-16,0.05,0.05,0.049,0.049,375000,0.049
2014-06-13,0.049,0.053,0.049,0.053,149000,0.053
2014-06-12,0.047,0.047,0.047,0.047,000,0.047
2014-06-11,0.047,0.047,0.047,0.047,000,0.047
2014-06-10,0.051,0.051,0.047,0.047,318200,0.047
2014-06-09,0.051,0.051,0.051,0.051,000,0.051
2014-06-06,0.051,0.051,0.051,0.051,78000,0.051
2014-06-05,0.05,0.053,0.05,0.053,270000,0.053
2014-06-04,0.053,0.053,0.053,0.053,000,0.053
2014-06-03,0.052,0.053,0.052,0.053,300000,0.053
2014-06-02,0.049,0.049,0.048,0.048,276000,0.048
2014-05-30,0.049,0.049,0.049,0.049,1000,0.049
2014-05-29,0.05,0.05,0.05,0.05,000,0.05
2014-05-28,0.05,0.05,0.049,0.05,978000,0.05
2014-05-27,0.05,0.05,0.05,0.05,000,0.05
2014-05-26,0.05,0.05,0.05,0.05,52000,0.05
2014-05-23,0.05,0.05,0.05,0.05,34000,0.05
2014-05-22,0.05,0.05,0.05,0.05,000,0.05
2014-05-21,0.05,0.05,0.05,0.05,155000,0.05
2014-05-20,0.05,0.05,0.05,0.05,40000,0.05
2014-05-19,0.052,0.052,0.052,0.052,000,0.052
2014-05-16,0.052,0.052,0.052,0.052,40000,0.052
2014-05-15,0.05,0.052,0.048,0.052,453100,0.052
2014-05-14,0.049,0.049,0.049,0.049,10000,0.049
2014-05-13,0.05,0.052,0.05,0.05,90300,0.05
2014-05-12,0.052,0.052,0.05,0.05,109800,0.05
2014-05-09,0.054,0.054,0.052,0.052,248500,0.052
2014-05-08,0.056,0.056,0.056,0.056,72000,0.056
2014-05-07,0.054,0.054,0.054,0.054,50000,0.054
2014-05-06,0.054,0.054,0.054,0.054,000,0.054
2014-05-05,0.057,0.057,0.054,0.054,91100,0.054
2014-05-02,0.057,0.06,0.057,0.06,111600,0.06
2014-05-01,0.056,0.056,0.056,0.056,5000,0.056
2014-04-30,0.058,0.06,0.055,0.055,280000,0.055
2014-04-29,0.066,0.066,0.066,0.066,000,0.066
2014-04-28,0.066,0.066,0.066,0.066,000,0.066
2014-04-25,0.066,0.066,0.066,0.066,000,0.066
2014-04-24,0.065,0.066,0.065,0.066,30000,0.066
2014-04-23,0.066,0.066,0.066,0.066,000,0.066
2014-04-22,0.066,0.066,0.066,0.066,000,0.066
2014-04-21,0.066,0.066,0.066,0.066,000,0.066
2014-04-18,0.066,0.066,0.066,0.066,000,0.066
2014-04-17,0.066,0.066,0.066,0.066,000,0.066
2014-04-16,0.066,0.066,0.066,0.066,000,0.066
2014-04-15,0.066,0.066,0.066,0.066,000,0.066
2014-04-14,0.063,0.066,0.063,0.066,201100,0.066
2014-04-11,0.063,0.063,0.063,0.063,000,0.063
2014-04-10,0.062,0.063,0.062,0.063,87700,0.063
2014-04-09,0.062,0.062,0.062,0.062,30000,0.062
2014-04-08,0.062,0.062,0.062,0.062,000,0.062
2014-04-07,0.062,0.062,0.062,0.062,000,0.062
2014-04-04,0.062,0.062,0.062,0.062,50000,0.062
2014-04-03,0.064,0.064,0.064,0.064,000,0.064
2014-04-02,0.064,0.066,0.064,0.064,110000,0.064
2014-04-01,0.065,0.065,0.065,0.065,29800,0.065
2014-03-31,0.066,0.066,0.066,0.066,30300,0.066
2014-03-28,0.064,0.067,0.064,0.067,40000,0.067
2014-03-27,0.063,0.063,0.063,0.063,000,0.063
2014-03-26,0.063,0.063,0.063,0.063,30000,0.063
2014-03-25,0.062,0.062,0.062,0.062,000,0.062
2014-03-24,0.062,0.062,0.062,0.062,150000,0.062
2014-03-21,0.063,0.063,0.062,0.062,22000,0.062
2014-03-20,0.062,0.062,0.062,0.062,27800,0.062
2014-03-19,0.065,0.065,0.065,0.065,000,0.065
2014-03-18,0.065,0.065,0.065,0.065,000,0.065
2014-03-17,0.07,0.07,0.065,0.065,230000,0.065
2014-03-14,0.07,0.07,0.07,0.07,100000,0.07
2014-03-13,0.071,0.071,0.071,0.071,1003000,0.071
2014-03-12,0.075,0.075,0.071,0.071,152000,0.071
2014-03-11,0.072,0.076,0.072,0.076,230000,0.076
2014-03-10,0.068,0.07,0.068,0.07,111200,0.07
2014-03-07,0.069,0.07,0.069,0.07,20000,0.07
2014-03-06,0.067,0.069,0.067,0.068,208200,0.068
2014-03-05,0.066,0.066,0.066,0.066,10000,0.066
2014-03-04,0.068,0.068,0.068,0.068,000,0.068
2014-03-03,0.065,0.068,0.065,0.068,106700,0.068
2014-02-28,0.065,0.065,0.065,0.065,8200,0.065
2014-02-27,0.06,0.063,0.06,0.063,117900,0.063
2014-02-26,0.058,0.062,0.058,0.062,142000,0.062
2014-02-25,0.061,0.061,0.059,0.059,60000,0.059
2014-02-24,0.06,0.06,0.06,0.06,000,0.06
2014-02-21,0.059,0.061,0.059,0.06,267700,0.06
2014-02-20,0.061,0.061,0.061,0.061,000,0.061
2014-02-19,0.061,0.061,0.061,0.061,15400,0.061
2014-02-18,0.06,0.06,0.06,0.06,000,0.06
2014-02-17,0.058,0.061,0.058,0.06,195000,0.06
2014-02-14,0.058,0.063,0.058,0.058,189100,0.058
2014-02-13,0.061,0.061,0.061,0.061,15000,0.061
2014-02-12,0.058,0.058,0.058,0.058,30000,0.058
2014-02-11,0.061,0.061,0.061,0.061,000,0.061
2014-02-10,0.061,0.061,0.059,0.061,86500,0.061
2014-02-07,0.061,0.063,0.061,0.061,58400,0.061
2014-02-06,0.059,0.059,0.058,0.058,17200,0.058
2014-02-05,0.058,0.061,0.058,0.058,395500,0.058
2014-02-04,0.058,0.058,0.058,0.058,000,0.058
2014-02-03,0.058,0.058,0.058,0.058,105000,0.058
2014-01-31,0.06,0.062,0.06,0.062,175000,0.062
2014-01-30,0.062,0.064,0.057,0.057,458500,0.057
2014-01-29,0.064,0.064,0.064,0.064,80000,0.064
2014-01-28,0.071,0.072,0.065,0.066,529400,0.066
2014-01-27,0.073,0.073,0.073,0.073,000,0.073
2014-01-24,0.076,0.076,0.073,0.073,162700,0.073
2014-01-23,0.074,0.08,0.073,0.078,257100,0.078
2014-01-22,0.076,0.076,0.076,0.076,72300,0.076
2014-01-21,0.075,0.076,0.073,0.074,293400,0.074
2014-01-20,0.083,0.083,0.075,0.075,389000,0.075
2014-01-17,0.098,0.098,0.084,0.084,1880600,0.084
2014-01-16,0.089,0.091,0.089,0.09,178200,0.09
2014-01-15,0.085,0.092,0.085,0.092,731500,0.092
2014-01-14,0.085,0.085,0.085,0.085,000,0.085
2014-01-13,0.082,0.086,0.081,0.085,590600,0.085
2014-01-10,0.081,0.085,0.08,0.08,486100,0.08
2014-01-09,0.075,0.086,0.075,0.086,732400,0.086
2014-01-08,0.077,0.078,0.077,0.078,82500,0.078
2014-01-07,0.065,0.075,0.065,0.075,122000,0.075
2014-01-06,0.066,0.068,0.063,0.063,114000,0.063
2014-01-03,0.067,0.067,0.067,0.067,000,0.067
2014-01-02,0.067,0.067,0.067,0.067,000,0.067
2014-01-01,0.067,0.067,0.067,0.067,000,0.067
2013-12-31,0.067,0.067,0.067,0.067,000,0.067
2013-12-30,0.069,0.07,0.067,0.067,188500,0.067
2013-12-27,0.067,0.068,0.067,0.068,80000,0.068
2013-12-26,0.069,0.069,0.069,0.069,000,0.069
2013-12-25,0.069,0.069,0.069,0.069,000,0.069
2013-12-24,0.069,0.069,0.069,0.069,27000,0.069
2013-12-23,0.07,0.08,0.07,0.075,141000,0.075
2013-12-20,0.06,0.07,0.06,0.07,370000,0.07
2013-12-19,0.057,0.06,0.055,0.059,104000,0.059
2013-12-18,0.063,0.067,0.063,0.065,259300,0.065
2013-12-17,0.058,0.062,0.058,0.062,150000,0.062
2013-12-16,0.054,0.056,0.054,0.056,54100,0.056
2013-12-13,0.053,0.053,0.053,0.053,000,0.053
2013-12-12,0.054,0.054,0.05,0.053,283200,0.053
2013-12-11,0.055,0.055,0.055,0.055,45000,0.055
2013-12-10,0.056,0.056,0.056,0.056,59000,0.056
2013-12-09,0.052,0.055,0.052,0.055,62000,0.055
2013-12-06,0.054,0.054,0.054,0.054,49000,0.054
2013-12-05,0.059,0.059,0.058,0.058,89600,0.058
2013-12-04,0.056,0.059,0.056,0.059,39000,0.059
2013-12-03,0.059,0.059,0.059,0.059,25000,0.059
2013-12-02,0.058,0.058,0.058,0.058,000,0.058
2013-11-29,0.06,0.063,0.057,0.058,441500,0.058
2013-11-28,0.052,0.063,0.052,0.062,984700,0.062
2013-11-27,0.053,0.053,0.05,0.05,221100,0.05
2013-11-26,0.049,0.052,0.049,0.05,408000,0.05
2013-11-25,0.05,0.05,0.05,0.05,000,0.05
2013-11-22,0.05,0.05,0.05,0.05,000,0.05
2013-11-21,0.05,0.05,0.05,0.05,1000,0.05
2013-11-20,0.05,0.05,0.05,0.05,000,0.05
2013-11-19,0.05,0.05,0.05,0.05,000,0.05
2013-11-18,0.05,0.05,0.05,0.05,14000,0.05
2013-11-15,0.046,0.05,0.046,0.049,41500,0.049
2013-11-14,0.046,0.047,0.046,0.047,56400,0.047
2013-11-13,0.053,0.053,0.047,0.048,242500,0.048
2013-11-12,0.05,0.05,0.05,0.05,50000,0.05
2013-11-11,0.051,0.051,0.051,0.051,000,0.051
2013-11-08,0.051,0.051,0.051,0.051,24000,0.051
2013-11-07,0.058,0.058,0.058,0.058,000,0.058
2013-11-06,0.058,0.058,0.058,0.058,000,0.058
2013-11-05,0.065,0.068,0.055,0.058,160000,0.058
2013-11-04,0.05,0.05,0.05,0.05,000,0.05
2013-11-01,0.05,0.05,0.05,0.05,000,0.05
2013-10-31,0.05,0.05,0.05,0.05,000,0.05
2013-10-30,0.05,0.05,0.05,0.05,000,0.05
2013-10-29,0.05,0.05,0.05,0.05,000,0.05
2013-10-28,0.05,0.05,0.05,0.05,000,0.05
2013-10-25,0.05,0.05,0.05,0.05,000,0.05
2013-10-24,0.051,0.052,0.05,0.05,190000,0.05
2013-10-23,0.052,0.062,0.052,0.055,365000,0.055
2013-10-22,0.052,0.052,0.052,0.052,220000,0.052
2013-10-21,0.05,0.054,0.05,0.054,50900,0.054
2013-10-18,0.054,0.054,0.054,0.054,000,0.054
2013-10-17,0.052,0.055,0.05,0.054,378000,0.054
2013-10-16,0.05,0.055,0.048,0.055,188100,0.055
2013-10-15,0.05,0.05,0.05,0.05,000,0.05
2013-10-14,0.05,0.05,0.05,0.05,000,0.05
2013-10-11,0.049,0.055,0.048,0.05,115800,0.05
2013-10-10,0.046,0.05,0.046,0.046,168600,0.046
2013-10-09,0.045,0.0455,0.044,0.044,40000,0.044
2013-10-08,0.046,0.046,0.046,0.046,000,0.046
2013-10-07,0.046,0.046,0.046,0.046,000,0.046
2013-10-04,0.046,0.046,0.046,0.046,50000,0.046
2013-10-03,0.05,0.05,0.05,0.05,000,0.05
2013-10-02,0.05,0.05,0.05,0.05,000,0.05
2013-10-01,0.05,0.05,0.05,0.05,000,0.05
2013-09-30,0.05,0.05,0.05,0.05,15000,0.05
2013-09-27,0.047,0.05,0.046,0.05,194100,0.05
2013-09-26,0.049,0.049,0.049,0.049,000,0.049
2013-09-25,0.049,0.049,0.049,0.049,000,0.049
2013-09-24,0.049,0.049,0.049,0.049,000,0.049
2013-09-23,0.049,0.049,0.049,0.049,100000,0.049
2013-09-20,0.051,0.054,0.051,0.054,50000,0.054
2013-09-19,0.047,0.047,0.046,0.046,60000,0.046
2013-09-18,0.05,0.05,0.048,0.048,108800,0.048
2013-09-17,0.05,0.05,0.05,0.05,000,0.05
2013-09-16,0.05,0.05,0.05,0.05,000,0.05
2013-09-13,0.05,0.05,0.05,0.05,16000,0.05
2013-09-12,0.052,0.052,0.052,0.052,000,0.052
2013-09-11,0.053,0.053,0.052,0.052,70000,0.052
2013-09-10,0.059,0.059,0.059,0.059,000,0.059
2013-09-09,0.059,0.059,0.059,0.059,000,0.059
2013-09-06,0.056,0.068,0.052,0.059,1209800,0.059
2013-09-05,0.051,0.051,0.051,0.051,000,0.051
2013-09-04,0.051,0.051,0.051,0.051,000,0.051
2013-09-03,0.051,0.051,0.051,0.051,110000,0.051
2013-09-02,0.049,0.049,0.049,0.049,000,0.049
2013-08-30,0.049,0.049,0.049,0.049,000,0.049
2013-08-29,0.049,0.049,0.049,0.049,000,0.049
2013-08-28,0.049,0.049,0.049,0.049,000,0.049
2013-08-27,0.049,0.049,0.049,0.049,000,0.049
2013-08-26,0.05,0.05,0.049,0.049,14000,0.049
2013-08-23,0.05,0.05,0.05,0.05,15000,0.05
2013-08-22,0.05,0.05,0.05,0.05,43200,0.05
2013-08-21,0.05,0.05,0.05,0.05,45000,0.05
2013-08-20,0.05,0.05,0.05,0.05,5000,0.05
2013-08-19,0.052,0.052,0.052,0.052,100000,0.052
2013-08-16,0.05,0.05,0.05,0.05,4000,0.05
2013-08-15,0.049,0.049,0.049,0.049,000,0.049
2013-08-14,0.049,0.049,0.049,0.049,35000,0.049
2013-08-13,0.052,0.052,0.052,0.052,24200,0.052
2013-08-12,0.052,0.052,0.052,0.052,21200,0.052
2013-08-09,0.049,0.049,0.049,0.049,000,0.049
2013-08-08,0.049,0.049,0.049,0.049,000,0.049
2013-08-07,0.052,0.052,0.049,0.049,297000,0.049
2013-08-06,0.052,0.052,0.052,0.052,000,0.052
2013-08-05,0.054,0.054,0.052,0.052,203000,0.052
2013-08-02,0.059,0.059,0.059,0.059,000,0.059
2013-08-01,0.059,0.059,0.059,0.059,000,0.059
2013-07-31,0.059,0.059,0.059,0.059,000,0.059
2013-07-30,0.059,0.059,0.059,0.059,000,0.059
2013-07-29,0.059,0.059,0.059,0.059,40000,0.059
2013-07-26,0.06,0.06,0.06,0.06,100000,0.06
2013-07-25,0.055,0.055,0.055,0.055,100000,0.055
2013-07-24,0.051,0.051,0.051,0.051,000,0.051
2013-07-23,0.051,0.051,0.051,0.051,000,0.051
2013-07-22,0.051,0.051,0.051,0.051,000,0.051
2013-07-19,0.051,0.051,0.051,0.051,000,0.051
2013-07-18,0.051,0.051,0.051,0.051,000,0.051
2013-07-17,0.048,0.051,0.045,0.051,459100,0.051
2013-07-16,0.051,0.051,0.051,0.051,49000,0.051
2013-07-15,0.051,0.051,0.051,0.051,000,0.051
2013-07-12,0.05,0.051,0.05,0.051,30000,0.051
2013-07-11,0.057,0.057,0.057,0.057,000,0.057
2013-07-10,0.057,0.057,0.057,0.057,000,0.057
2013-07-09,0.057,0.057,0.057,0.057,000,0.057
2013-07-08,0.057,0.057,0.057,0.057,000,0.057
2013-07-05,0.057,0.057,0.057,0.057,000,0.057
2013-07-04,0.057,0.057,0.057,0.057,000,0.057
2013-07-03,0.057,0.057,0.057,0.057,000,0.057
2013-07-02,0.057,0.057,0.057,0.057,000,0.057
2013-07-01,0.057,0.057,0.057,0.057,000,0.057
2013-06-28,0.057,0.057,0.057,0.057,000,0.057
2013-06-27,0.057,0.057,0.057,0.057,000,0.057
2013-06-26,0.056,0.057,0.056,0.057,19000,0.057
2013-06-25,0.059,0.059,0.059,0.059,000,0.059
2013-06-24,0.059,0.059,0.059,0.059,000,0.059
2013-06-21,0.059,0.059,0.059,0.059,000,0.059
2013-06-20,0.059,0.059,0.059,0.059,000,0.059
2013-06-19,0.059,0.059,0.059,0.059,000,0.059
2013-06-18,0.059,0.059,0.059,0.059,000,0.059
2013-06-17,0.059,0.059,0.059,0.059,000,0.059
2013-06-14,0.059,0.059,0.059,0.059,000,0.059
2013-06-13,0.059,0.059,0.059,0.059,000,0.059
2013-06-12,0.059,0.059,0.059,0.059,000,0.059
2013-06-11,0.06,0.065,0.059,0.059,107500,0.059
2013-06-10,0.063,0.063,0.063,0.063,000,0.063
2013-06-07,0.063,0.063,0.063,0.063,4000,0.063
2013-06-06,0.063,0.063,0.06,0.06,194300,0.06
2013-06-05,0.065,0.065,0.065,0.065,000,0.065
2013-06-04,0.065,0.065,0.065,0.065,18900,0.065
2013-06-03,0.065,0.065,0.065,0.065,6000,0.065
2013-05-31,0.071,0.071,0.065,0.065,110000,0.065
2013-05-30,0.071,0.071,0.071,0.071,000,0.071
2013-05-29,0.071,0.071,0.071,0.071,6300,0.071
2013-05-28,0.07,0.07,0.063,0.07,243700,0.07
2013-05-27,0.07,0.073,0.07,0.07,310600,0.07
2013-05-24,0.059,0.059,0.059,0.059,45800,0.059
2013-05-23,0.059,0.059,0.059,0.059,17100,0.059
2013-05-22,0.067,0.067,0.067,0.067,000,0.067
2013-05-21,0.067,0.067,0.067,0.067,230000,0.067
2013-05-20,0.073,0.073,0.073,0.073,000,0.073
2013-05-17,0.073,0.073,0.073,0.073,000,0.073
2013-05-16,0.07,0.073,0.07,0.073,71500,0.073
2013-05-15,0.07,0.07,0.07,0.07,29900,0.07
2013-05-14,0.073,0.073,0.073,0.073,10000,0.073
2013-05-13,0.073,0.075,0.073,0.075,30000,0.075
2013-05-10,0.08,0.08,0.08,0.08,000,0.08
2013-05-09,0.08,0.08,0.08,0.08,19900,0.08
2013-05-08,0.082,0.082,0.082,0.082,000,0.082
2013-05-07,0.073,0.091,0.073,0.082,417100,0.082
2013-05-06,0.073,0.073,0.07,0.07,50100,0.07
2013-05-03,0.073,0.073,0.073,0.073,20000,0.073
2013-05-02,0.07,0.07,0.07,0.07,70000,0.07
2013-05-01,0.069,0.069,0.069,0.069,000,0.069
2013-04-30,0.069,0.069,0.069,0.069,000,0.069
2013-04-29,0.069,0.069,0.069,0.069,000,0.069
2013-04-26,0.069,0.069,0.069,0.069,000,0.069
2013-04-25,0.069,0.069,0.069,0.069,000,0.069
2013-04-24,0.069,0.069,0.069,0.069,15000,0.069
2013-04-23,0.065,0.069,0.065,0.069,290900,0.069
2013-04-22,0.064,0.064,0.057,0.057,209900,0.057
2013-04-19,0.072,0.072,0.072,0.072,000,0.072
2013-04-18,0.072,0.072,0.072,0.072,62000,0.072
2013-04-17,0.071,0.074,0.071,0.074,41300,0.074
2013-04-16,0.071,0.071,0.071,0.071,000,0.071
2013-04-15,0.072,0.072,0.071,0.071,222000,0.071
2013-04-12,0.073,0.073,0.073,0.073,000,0.073
2013-04-11,0.073,0.073,0.073,0.073,000,0.073
2013-04-10,0.073,0.073,0.073,0.073,65000,0.073
2013-04-09,0.074,0.076,0.074,0.076,23000,0.076
2013-04-08,0.076,0.076,0.075,0.076,91200,0.076
2013-04-05,0.079,0.079,0.079,0.079,000,0.079
2013-04-04,0.079,0.079,0.079,0.079,000,0.079
2013-04-03,0.077,0.079,0.077,0.079,136000,0.079
2013-04-02,0.082,0.082,0.076,0.076,327000,0.076
2013-04-01,0.082,0.082,0.082,0.082,000,0.082
2013-03-29,0.082,0.082,0.082,0.082,000,0.082
2013-03-28,0.082,0.082,0.081,0.082,91800,0.082
2013-03-27,0.084,0.087,0.082,0.082,150800,0.082
2013-03-26,0.081,0.09,0.081,0.09,590300,0.09
2013-03-25,0.087,0.087,0.087,0.087,000,0.087
2013-03-22,0.087,0.087,0.087,0.087,000,0.087
2013-03-21,0.072,0.10,0.072,0.087,796300,0.087
2013-03-20,0.075,0.075,0.075,0.075,000,0.075
2013-03-19,0.075,0.075,0.075,0.075,000,0.075
2013-03-18,0.077,0.077,0.075,0.075,106700,0.075
2013-03-15,0.077,0.077,0.077,0.077,000,0.077
2013-03-14,0.078,0.078,0.075,0.077,69500,0.077
2013-03-13,0.078,0.078,0.078,0.078,118000,0.078
2013-03-12,0.078,0.083,0.078,0.083,36000,0.083
2013-03-11,0.078,0.078,0.078,0.078,000,0.078
2013-03-08,0.079,0.085,0.078,0.078,264000,0.078
2013-03-07,0.085,0.085,0.077,0.077,180000,0.077
2013-03-06,0.094,0.094,0.094,0.094,000,0.094
2013-03-05,0.092,0.094,0.092,0.094,138400,0.094
2013-03-04,0.093,0.093,0.093,0.093,000,0.093
2013-03-01,0.087,0.094,0.087,0.093,345900,0.093
2013-02-28,0.087,0.09,0.087,0.09,14000,0.09
2013-02-27,0.094,0.094,0.094,0.094,000,0.094
2013-02-26,0.092,0.094,0.092,0.094,97100,0.094
2013-02-25,0.093,0.095,0.092,0.095,327700,0.095
2013-02-22,0.095,0.10,0.095,0.10,175000,0.10
2013-02-21,0.098,0.098,0.098,0.098,000,0.098
2013-02-20,0.098,0.098,0.098,0.098,000,0.098
2013-02-19,0.098,0.098,0.098,0.098,000,0.098
2013-02-18,0.099,0.099,0.098,0.098,7700,0.098
2013-02-15,0.095,0.10,0.095,0.10,200000,0.10
2013-02-14,0.10,0.10,0.10,0.10,000,0.10
2013-02-13,0.10,0.10,0.098,0.10,156000,0.10
2013-02-12,0.10,0.11,0.10,0.11,74000,0.11
2013-02-11,0.10,0.10,0.10,0.10,21000,0.10
2013-02-08,0.10,0.10,0.10,0.10,000,0.10
2013-02-07,0.105,0.11,0.10,0.10,140000,0.10
2013-02-06,0.10,0.10,0.10,0.10,000,0.10
2013-02-05,0.10,0.10,0.10,0.10,000,0.10
2013-02-04,0.105,0.105,0.10,0.10,134000,0.10
2013-02-01,0.11,0.11,0.11,0.11,000,0.11
2013-01-31,0.105,0.11,0.10,0.11,424600,0.11
2013-01-30,0.105,0.11,0.105,0.11,222000,0.11
2013-01-29,0.11,0.11,0.10,0.105,800700,0.105
2013-01-28,0.11,0.11,0.11,0.11,000,0.11
2013-01-25,0.11,0.11,0.105,0.11,141200,0.11
2013-01-24,0.11,0.115,0.105,0.105,513800,0.105
2013-01-23,0.12,0.13,0.10,0.11,2954100,0.11
2013-01-22,0.078,0.078,0.078,0.078,000,0.078
2013-01-21,0.078,0.078,0.078,0.078,000,0.078
2013-01-18,0.078,0.078,0.078,0.078,000,0.078
2013-01-17,0.073,0.078,0.073,0.078,245900,0.078
2013-01-16,0.067,0.067,0.067,0.067,000,0.067
2013-01-15,0.067,0.067,0.067,0.067,000,0.067
2013-01-14,0.067,0.067,0.067,0.067,000,0.067
2013-01-11,0.067,0.067,0.067,0.067,57700,0.067
2013-01-10,0.067,0.067,0.067,0.067,000,0.067
2013-01-09,0.067,0.067,0.067,0.067,20000,0.067
2013-01-08,0.067,0.067,0.066,0.066,82000,0.066
2013-01-07,0.077,0.077,0.077,0.077,000,0.077
2013-01-04,0.077,0.077,0.077,0.077,000,0.077
2013-01-03,0.077,0.077,0.077,0.077,000,0.077
2013-01-02,0.074,0.077,0.074,0.077,124500,0.077
2013-01-01,0.074,0.074,0.074,0.074,000,0.074
2012-12-31,0.075,0.075,0.074,0.074,25400,0.074
2012-12-28,0.065,0.065,0.065,0.065,000,0.065
2012-12-27,0.065,0.065,0.065,0.065,000,0.065
2012-12-26,0.065,0.065,0.065,0.065,000,0.065
2012-12-25,0.065,0.065,0.065,0.065,000,0.065
2012-12-24,0.068,0.068,0.065,0.065,40000,0.065
2012-12-21,0.08,0.08,0.08,0.08,000,0.08
2012-12-20,0.08,0.08,0.08,0.08,000,0.08
2012-12-19,0.08,0.08,0.08,0.08,000,0.08
2012-12-18,0.08,0.08,0.08,0.08,000,0.08
2012-12-17,0.08,0.08,0.08,0.08,000,0.08
2012-12-14,0.08,0.08,0.08,0.08,000,0.08
2012-12-13,0.08,0.08,0.08,0.08,000,0.08
2012-12-12,0.08,0.08,0.08,0.08,000,0.08
2012-12-11,0.08,0.08,0.08,0.08,000,0.08
2012-12-10,0.08,0.08,0.08,0.08,000,0.08
2012-12-07,0.08,0.08,0.08,0.08,10000,0.08
2012-12-06,0.082,0.082,0.082,0.082,000,0.082
2012-12-05,0.082,0.082,0.082,0.082,000,0.082
2012-12-04,0.082,0.082,0.082,0.082,000,0.082
2012-12-03,0.084,0.084,0.082,0.082,13800,0.082
2012-11-30,0.084,0.084,0.084,0.084,10000,0.084
2012-11-29,0.086,0.086,0.086,0.086,000,0.086
2012-11-28,0.086,0.086,0.086,0.086,000,0.086
2012-11-27,0.086,0.086,0.086,0.086,000,0.086
2012-11-26,0.086,0.086,0.086,0.086,000,0.086
2012-11-23,0.086,0.086,0.086,0.086,50000,0.086
2012-11-22,0.082,0.082,0.082,0.082,000,0.082
2012-11-21,0.082,0.082,0.082,0.082,000,0.082
2012-11-20,0.082,0.082,0.082,0.082,000,0.082
2012-11-19,0.082,0.082,0.082,0.082,000,0.082
2012-11-16,0.085,0.085,0.082,0.082,25000,0.082
2012-11-15,0.095,0.095,0.085,0.085,152200,0.085
2012-11-14,0.091,0.091,0.091,0.091,000,0.091
2012-11-13,0.091,0.091,0.091,0.091,000,0.091
2012-11-12,0.091,0.091,0.091,0.091,000,0.091
2012-11-09,0.093,0.093,0.091,0.091,92500,0.091
2012-11-08,0.091,0.091,0.091,0.091,10000,0.091
2012-11-07,0.093,0.093,0.093,0.093,000,0.093
2012-11-06,0.093,0.093,0.093,0.093,18000,0.093
2012-11-05,0.093,0.093,0.093,0.093,12000,0.093
2012-11-02,0.095,0.10,0.095,0.10,55000,0.10
2012-11-01,0.093,0.095,0.093,0.095,74000,0.095
2012-10-31,0.093,0.093,0.093,0.093,11900,0.093
2012-10-30,0.093,0.093,0.093,0.093,53000,0.093
2012-10-29,0.095,0.097,0.09,0.093,110800,0.093
2012-10-26,0.095,0.095,0.095,0.095,40000,0.095
2012-10-25,0.096,0.096,0.096,0.096,45000,0.096
2012-10-24,0.095,0.105,0.095,0.105,50000,0.105
2012-10-23,0.088,0.091,0.088,0.091,22800,0.091
2012-10-22,0.085,0.088,0.085,0.088,74000,0.088
2012-10-19,0.087,0.087,0.085,0.086,72000,0.086
2012-10-18,0.088,0.088,0.087,0.087,29000,0.087
2012-10-17,0.087,0.087,0.087,0.087,40000,0.087
2012-10-16,0.091,0.091,0.087,0.088,52700,0.088
2012-10-15,0.091,0.091,0.088,0.091,35500,0.091
2012-10-12,0.086,0.086,0.085,0.085,10000,0.085
2012-10-11,0.09,0.09,0.09,0.09,000,0.09
2012-10-10,0.09,0.09,0.09,0.09,000,0.09
2012-10-09,0.09,0.09,0.09,0.09,000,0.09
2012-10-08,0.09,0.09,0.09,0.09,6000,0.09
2012-10-05,0.087,0.087,0.087,0.087,000,0.087
2012-10-04,0.087,0.087,0.087,0.087,000,0.087
2012-10-03,0.087,0.087,0.087,0.087,000,0.087
2012-10-02,0.087,0.087,0.087,0.087,1000,0.087
2012-10-01,0.092,0.092,0.092,0.092,000,0.092
2012-09-28,0.092,0.092,0.092,0.092,000,0.092
2012-09-27,0.095,0.095,0.092,0.092,23400,0.092
2012-09-26,0.095,0.095,0.095,0.095,000,0.095
2012-09-25,0.095,0.095,0.095,0.095,000,0.095
2012-09-24,0.095,0.095,0.095,0.095,17300,0.095
2012-09-21,0.095,0.095,0.095,0.095,23000,0.095
2012-09-20,0.095,0.095,0.095,0.095,000,0.095
2012-09-19,0.095,0.095,0.095,0.095,35500,0.095
2012-09-18,0.10,0.10,0.10,0.10,000,0.10
2012-09-17,0.10,0.10,0.10,0.10,000,0.10
2012-09-14,0.10,0.10,0.10,0.10,000,0.10
2012-09-13,0.10,0.10,0.10,0.10,000,0.10
2012-09-12,0.099,0.10,0.099,0.10,20000,0.10
2012-09-11,0.10,0.10,0.10,0.10,32500,0.10
2012-09-10,0.096,0.096,0.096,0.096,38500,0.096
2012-09-07,0.115,0.115,0.094,0.095,70300,0.095
2012-09-06,0.115,0.115,0.115,0.115,10000,0.115
2012-09-05,0.125,0.125,0.11,0.11,20500,0.11
2012-09-04,0.125,0.125,0.125,0.125,000,0.125
2012-09-03,0.125,0.125,0.125,0.125,59500,0.125
2012-08-31,0.12,0.12,0.115,0.115,53300,0.115
2012-08-30,0.125,0.125,0.125,0.125,14300,0.125
2012-08-29,0.125,0.125,0.125,0.125,65600,0.125
2012-08-28,0.14,0.14,0.12,0.13,95000,0.13
2012-08-27,0.15,0.15,0.15,0.15,116600,0.15
2012-08-24,0.15,0.15,0.15,0.15,10000,0.15
2012-08-23,0.15,0.15,0.15,0.15,8600,0.15
2012-08-22,0.16,0.16,0.15,0.15,130000,0.15
2012-08-21,0.15,0.18,0.14,0.16,373600,0.16
2012-08-20,0.10,0.17,0.10,0.15,445100,0.15
2012-08-17,0.09,0.09,0.09,0.09,16000,0.09
2012-08-16,0.10,0.10,0.093,0.093,93900,0.093
2012-08-15,0.10,0.10,0.10,0.10,000,0.10
2012-08-14,0.10,0.10,0.10,0.10,000,0.10
2012-08-13,0.10,0.10,0.10,0.10,15500,0.10
2012-08-10,0.10,0.10,0.10,0.10,100000,0.10
2012-08-09,0.093,0.093,0.093,0.093,000,0.093
2012-08-08,0.093,0.093,0.093,0.093,000,0.093
2012-08-07,0.105,0.105,0.093,0.093,137100,0.093
2012-08-06,0.105,0.105,0.105,0.105,10800,0.105
2012-08-03,0.10,0.10,0.10,0.10,17500,0.10
2012-08-02,0.12,0.12,0.12,0.12,000,0.12
2012-08-01,0.12,0.12,0.12,0.12,000,0.12
2012-07-31,0.13,0.13,0.12,0.12,17600,0.12
2012-07-30,0.115,0.13,0.115,0.13,76800,0.13
2012-07-27,0.092,0.092,0.092,0.092,000,0.092
2012-07-26,0.092,0.092,0.092,0.092,000,0.092
2012-07-25,0.092,0.092,0.092,0.092,5500,0.092
2012-07-24,0.09,0.09,0.088,0.088,19600,0.088
2012-07-23,0.10,0.10,0.10,0.10,000,0.10
2012-07-20,0.10,0.10,0.10,0.10,22000,0.10
2012-07-19,0.11,0.11,0.11,0.11,000,0.11
2012-07-18,0.11,0.11,0.11,0.11,000,0.11
2012-07-17,0.11,0.11,0.11,0.11,000,0.11
2012-07-16,0.11,0.11,0.11,0.11,25000,0.11
2012-07-13,0.115,0.115,0.115,0.115,4000,0.115
2012-07-12,0.115,0.115,0.115,0.115,1000,0.115
2012-07-11,0.115,0.115,0.115,0.115,60000,0.115
2012-07-10,0.10,0.10,0.10,0.10,000,0.10
2012-07-09,0.10,0.10,0.10,0.10,000,0.10
2012-07-06,0.10,0.10,0.10,0.10,20000,0.10
2012-07-05,0.105,0.105,0.105,0.105,31000,0.105
2012-07-04,0.10,0.10,0.10,0.10,000,0.10
2012-07-03,0.09,0.10,0.09,0.10,25500,0.10
2012-07-02,0.077,0.077,0.077,0.077,000,0.077
2012-06-29,0.07,0.077,0.07,0.077,15000,0.077
2012-06-28,0.06,0.06,0.06,0.06,000,0.06
2012-06-27,0.06,0.06,0.06,0.06,12400,0.06
2012-06-26,0.06,0.06,0.06,0.06,25500,0.06
2012-06-25,0.065,0.065,0.065,0.065,2900,0.065
2012-06-22,0.066,0.066,0.06,0.065,21800,0.065
2012-06-21,0.07,0.07,0.066,0.069,86000,0.069
2012-06-20,0.07,0.07,0.07,0.07,20000,0.07
2012-06-19,0.072,0.072,0.071,0.071,15000,0.071
2012-06-18,0.074,0.074,0.074,0.074,133300,0.074
2012-06-15,0.083,0.083,0.083,0.083,000,0.083
2012-06-14,0.082,0.083,0.082,0.083,61200,0.083
2012-06-13,0.08,0.08,0.08,0.08,37000,0.08
2012-06-12,0.085,0.085,0.085,0.085,78800,0.085
2012-06-11,0.09,0.09,0.09,0.09,000,0.09
2012-06-08,0.09,0.09,0.09,0.09,75000,0.09
2012-06-07,0.09,0.09,0.09,0.09,000,0.09
2012-06-06,0.093,0.093,0.09,0.09,100000,0.09
2012-06-05,0.11,0.11,0.11,0.11,5000,0.11
2012-06-04,0.11,0.11,0.11,0.11,000,0.11
2012-06-01,0.11,0.11,0.11,0.11,20000,0.11
2012-05-31,0.10,0.10,0.10,0.10,000,0.10
2012-05-30,0.10,0.10,0.10,0.10,000,0.10
2012-05-29,0.098,0.10,0.098,0.10,30700,0.10
2012-05-28,0.095,0.095,0.095,0.095,000,0.095
2012-05-25,0.08,0.095,0.08,0.095,218500,0.095
2012-05-24,0.085,0.085,0.08,0.08,11400,0.08
2012-05-23,0.09,0.09,0.09,0.09,23800,0.09
2012-05-22,0.089,0.09,0.089,0.09,61400,0.09
2012-05-21,0.09,0.09,0.09,0.09,000,0.09
2012-05-18,0.085,0.09,0.085,0.09,140700,0.09
2012-05-17,0.10,0.10,0.082,0.084,215700,0.084
2012-05-16,0.095,0.095,0.095,0.095,000,0.095
2012-05-15,0.10,0.10,0.095,0.095,25000,0.095
2012-05-14,0.115,0.115,0.105,0.105,478100,0.105
2012-05-11,0.12,0.12,0.12,0.12,000,0.12
2012-05-10,0.12,0.12,0.12,0.12,000,0.12
2012-05-09,0.13,0.14,0.12,0.12,107000,0.12
2012-05-08,0.13,0.13,0.13,0.13,000,0.13
2012-05-07,0.11,0.13,0.11,0.13,109500,0.13
2012-05-04,0.12,0.12,0.12,0.12,135400,0.12
2012-05-03,0.11,0.12,0.11,0.11,279300,0.11
2012-05-02,0.10,0.10,0.10,0.10,32500,0.10
2012-05-01,0.10,0.10,0.10,0.10,16400,0.10
2012-04-30,0.10,0.11,0.10,0.11,26500,0.11
2012-04-27,0.105,0.11,0.105,0.11,68400,0.11
2012-04-26,0.089,0.115,0.089,0.11,110500,0.11
2012-04-25,0.09,0.09,0.09,0.09,000,0.09
2012-04-24,0.09,0.09,0.09,0.09,11500,0.09
2012-04-23,0.091,0.091,0.09,0.09,101000,0.09
2012-04-20,0.11,0.11,0.09,0.09,112000,0.09
2012-04-19,0.12,0.12,0.11,0.11,63800,0.11
2012-04-18,0.12,0.12,0.105,0.12,50000,0.12
2012-04-17,0.12,0.12,0.12,0.12,000,0.12
2012-04-16,0.12,0.12,0.12,0.12,40000,0.12
2012-04-13,0.10,0.12,0.10,0.12,265400,0.12
2012-04-12,0.105,0.105,0.105,0.105,000,0.105
2012-04-11,0.10,0.105,0.10,0.105,58900,0.105
2012-04-10,0.11,0.11,0.11,0.11,48000,0.11
2012-04-09,0.11,0.11,0.11,0.11,000,0.11
2012-04-06,0.11,0.11,0.11,0.11,000,0.11
2012-04-05,0.11,0.11,0.11,0.11,000,0.11
2012-04-04,0.11,0.11,0.11,0.11,19800,0.11
2012-04-03,0.12,0.12,0.12,0.12,15000,0.12
2012-04-02,0.14,0.14,0.14,0.14,40100,0.14
2012-03-30,0.15,0.15,0.15,0.15,8000,0.15
2012-03-29,0.15,0.15,0.15,0.15,000,0.15
2012-03-28,0.15,0.15,0.15,0.15,6600,0.15
2012-03-27,0.15,0.15,0.15,0.15,000,0.15
2012-03-26,0.15,0.15,0.15,0.15,65500,0.15
2012-03-23,0.12,0.12,0.12,0.12,000,0.12
2012-03-22,0.12,0.12,0.12,0.12,20000,0.12
2012-03-21,0.115,0.115,0.11,0.11,24000,0.11
2012-03-20,0.12,0.12,0.12,0.12,000,0.12
2012-03-19,0.12,0.12,0.12,0.12,10100,0.12
2012-03-16,0.13,0.13,0.13,0.13,000,0.13
2012-03-15,0.13,0.13,0.13,0.13,000,0.13
2012-03-14,0.12,0.13,0.12,0.13,21000,0.13
2012-03-13,0.12,0.12,0.12,0.12,45000,0.12
2012-03-12,0.115,0.115,0.11,0.115,72800,0.115
2012-03-09,0.115,0.115,0.115,0.115,17000,0.115
2012-03-08,0.115,0.115,0.115,0.115,15000,0.115
2012-03-07,0.115,0.115,0.115,0.115,000,0.115
2012-03-06,0.115,0.115,0.115,0.115,000,0.115
2012-03-05,0.115,0.115,0.11,0.115,44000,0.115
2012-03-02,0.12,0.12,0.115,0.115,24100,0.115
2012-03-01,0.125,0.125,0.125,0.125,000,0.125
2012-02-29,0.125,0.125,0.125,0.125,000,0.125
2012-02-28,0.11,0.125,0.11,0.125,78000,0.125
2012-02-27,0.13,0.13,0.13,0.13,000,0.13
2012-02-24,0.13,0.13,0.13,0.13,25000,0.13
2012-02-23,0.11,0.11,0.11,0.11,000,0.11
2012-02-22,0.11,0.11,0.11,0.11,000,0.11
2012-02-21,0.11,0.11,0.11,0.11,000,0.11
2012-02-20,0.11,0.11,0.11,0.11,35000,0.11
2012-02-17,0.11,0.13,0.11,0.13,25000,0.13
2012-02-16,0.115,0.115,0.115,0.115,000,0.115
2012-02-15,0.115,0.115,0.115,0.115,000,0.115
2012-02-14,0.115,0.115,0.115,0.115,000,0.115
2012-02-13,0.115,0.115,0.115,0.115,000,0.115
2012-02-10,0.115,0.115,0.115,0.115,000,0.115
2012-02-09,0.115,0.115,0.115,0.115,000,0.115
2012-02-08,0.11,0.115,0.11,0.115,34400,0.115
2012-02-07,0.12,0.12,0.11,0.12,103100,0.12
2012-02-06,0.13,0.13,0.13,0.13,000,0.13
2012-02-03,0.15,0.15,0.13,0.13,30000,0.13
2012-02-02,0.135,0.135,0.125,0.125,16000,0.125
2012-02-01,0.135,0.135,0.135,0.135,4000,0.135
2012-01-31,0.145,0.145,0.145,0.145,000,0.145
2012-01-30,0.16,0.16,0.145,0.145,22900,0.145
2012-01-27,0.145,0.145,0.145,0.145,000,0.145
2012-01-26,0.145,0.145,0.145,0.145,000,0.145
2012-01-25,0.145,0.145,0.145,0.145,000,0.145
2012-01-24,0.145,0.145,0.145,0.145,000,0.145
2012-01-23,0.14,0.145,0.14,0.145,16000,0.145
2012-01-20,0.145,0.145,0.145,0.145,000,0.145
2012-01-19,0.145,0.145,0.145,0.145,3900,0.145
2012-01-18,0.145,0.145,0.145,0.145,000,0.145
2012-01-17,0.14,0.145,0.14,0.145,20000,0.145
2012-01-16,0.14,0.14,0.14,0.14,38600,0.14
2012-01-13,0.15,0.15,0.15,0.15,10000,0.15
2012-01-12,0.14,0.15,0.14,0.15,50000,0.15
2012-01-11,0.11,0.13,0.11,0.115,21000,0.115
2012-01-10,0.10,0.11,0.10,0.11,34100,0.11
2012-01-09,0.12,0.12,0.12,0.12,15000,0.12
2012-01-06,0.125,0.125,0.125,0.125,000,0.125
2012-01-05,0.125,0.125,0.125,0.125,20000,0.125
2012-01-04,0.13,0.13,0.13,0.13,000,0.13
2012-01-03,0.13,0.13,0.13,0.13,000,0.13
2012-01-02,0.13,0.13,0.13,0.13,000,0.13
2011-12-30,0.13,0.13,0.13,0.13,000,0.13
2011-12-29,0.13,0.13,0.13,0.13,000,0.13
2011-12-28,0.13,0.13,0.13,0.13,10000,0.13
2011-12-27,0.145,0.145,0.145,0.145,000,0.145
2011-12-26,0.145,0.145,0.145,0.145,000,0.145
2011-12-23,0.15,0.15,0.14,0.14,32300,0.14
2011-12-22,0.145,0.145,0.145,0.145,000,0.145
2011-12-21,0.145,0.145,0.145,0.145,000,0.145
2011-12-20,0.145,0.145,0.145,0.145,000,0.145
2011-12-19,0.145,0.145,0.145,0.145,8000,0.145
2011-12-16,0.15,0.15,0.15,0.15,5000,0.15
2011-12-15,0.15,0.15,0.15,0.15,42700,0.15
2011-12-14,0.145,0.145,0.145,0.145,4000,0.145
2011-12-13,0.15,0.15,0.15,0.15,25000,0.15
2011-12-12,0.14,0.15,0.14,0.15,150600,0.15
2011-12-09,0.125,0.14,0.125,0.14,57500,0.14
2011-12-08,0.14,0.14,0.14,0.14,000,0.14
2011-12-07,0.14,0.14,0.14,0.14,000,0.14
2011-12-06,0.14,0.14,0.14,0.14,000,0.14
2011-12-05,0.14,0.14,0.14,0.14,000,0.14
2011-12-02,0.15,0.15,0.14,0.14,74000,0.14
2011-12-01,0.14,0.14,0.125,0.14,38700,0.14
2011-11-30,0.14,0.14,0.14,0.14,000,0.14
2011-11-29,0.15,0.15,0.14,0.14,91500,0.14
2011-11-28,0.15,0.15,0.15,0.15,8300,0.15
2011-11-25,0.17,0.17,0.17,0.17,000,0.17
2011-11-24,0.17,0.17,0.17,0.17,000,0.17
2011-11-23,0.17,0.17,0.17,0.17,000,0.17
2011-11-22,0.17,0.17,0.15,0.17,30000,0.17
2011-11-21,0.17,0.17,0.17,0.17,19300,0.17
2011-11-18,0.17,0.17,0.17,0.17,60000,0.17
2011-11-17,0.165,0.17,0.165,0.17,14200,0.17
2011-11-16,0.165,0.165,0.165,0.165,5800,0.165
2011-11-14,0.155,0.155,0.155,0.155,19000,0.155
2011-11-11,0.16,0.16,0.155,0.155,37000,0.155
2011-11-09,0.16,0.175,0.16,0.175,20500,0.175
2011-11-08,0.16,0.16,0.16,0.16,10900,0.16
2011-11-07,0.16,0.16,0.155,0.16,28900,0.16
2011-10-31,0.17,0.17,0.165,0.165,6700,0.165
2011-10-28,0.175,0.175,0.17,0.17,16500,0.17
2011-10-25,0.175,0.175,0.175,0.175,12000,0.175
2011-10-20,0.17,0.17,0.17,0.17,59900,0.17
2011-10-19,0.175,0.175,0.17,0.17,15000,0.17
2011-10-18,0.175,0.175,0.175,0.175,8500,0.175
2011-10-17,0.19,0.19,0.19,0.19,10000,0.19
2011-10-13,0.17,0.18,0.17,0.18,36000,0.18
2011-10-12,0.21,0.21,0.21,0.21,2300,0.21
2011-09-28,0.20,0.20,0.20,0.20,8000,0.20
2011-09-27,0.18,0.20,0.18,0.20,97900,0.20
2011-09-26,0.18,0.18,0.18,0.18,15000,0.18
2011-09-21,0.19,0.21,0.19,0.21,88200,0.21
2011-09-19,0.19,0.19,0.19,0.19,2000,0.19
2011-09-16,0.19,0.19,0.19,0.19,29300,0.19
2011-09-15,0.19,0.19,0.19,0.19,25000,0.19
2011-09-14,0.20,0.20,0.19,0.19,75000,0.19
2011-09-08,0.21,0.21,0.21,0.21,6500,0.21
2011-09-07,0.215,0.225,0.215,0.225,56600,0.225
2011-09-01,0.19,0.21,0.18,0.20,230000,0.20
2011-08-31,0.20,0.20,0.20,0.20,4100,0.20
2011-08-26,0.22,0.22,0.20,0.20,49600,0.20
2011-08-25,0.20,0.205,0.20,0.205,7600,0.205
2011-08-24,0.205,0.205,0.20,0.20,35000,0.20
2011-08-22,0.225,0.225,0.22,0.22,17400,0.22
2011-08-19,0.235,0.235,0.225,0.225,54900,0.225
2011-08-17,0.23,0.23,0.23,0.23,8100,0.23
2011-08-15,0.235,0.235,0.235,0.235,62000,0.235
2011-08-12,0.215,0.235,0.215,0.23,37100,0.23
2011-08-11,0.205,0.205,0.205,0.205,90000,0.205
2011-08-09,0.20,0.20,0.20,0.20,92300,0.20
2011-08-08,0.21,0.215,0.20,0.20,122400,0.20
2011-08-05,0.24,0.24,0.21,0.21,149700,0.21
2011-08-04,0.26,0.26,0.26,0.26,10000,0.26
2011-08-02,0.24,0.24,0.24,0.24,3000,0.24
2011-08-01,0.26,0.26,0.26,0.26,2200,0.26
2011-07-29,0.235,0.26,0.235,0.26,18600,0.26
2011-07-28,0.25,0.25,0.25,0.25,3000,0.25
2011-07-27,0.25,0.25,0.25,0.25,17000,0.25
2011-07-26,0.25,0.25,0.23,0.23,21000,0.23
2011-07-22,0.23,0.255,0.23,0.255,11000,0.255
2011-07-20,0.25,0.255,0.25,0.255,10000,0.255
2011-07-18,0.245,0.245,0.22,0.22,27400,0.22
2011-07-15,0.22,0.22,0.22,0.22,35000,0.22
2011-07-14,0.22,0.22,0.22,0.22,50000,0.22
2011-07-13,0.21,0.22,0.21,0.22,20000,0.22
2011-07-12,0.22,0.22,0.22,0.22,18500,0.22
2011-07-11,0.235,0.245,0.235,0.245,35000,0.245
2011-07-07,0.24,0.24,0.22,0.22,29700,0.22
2011-07-06,0.24,0.24,0.24,0.24,10000,0.24
2011-07-01,0.23,0.245,0.23,0.245,177000,0.245
2011-06-29,0.205,0.205,0.205,0.205,21500,0.205
2011-06-28,0.215,0.225,0.205,0.225,104500,0.225
2011-06-27,0.25,0.25,0.215,0.215,143100,0.215
2011-06-23,0.25,0.25,0.25,0.25,5300,0.25
2011-06-22,0.26,0.26,0.25,0.25,120900,0.25
2011-06-21,0.24,0.255,0.22,0.25,99800,0.25
2011-06-20,0.215,0.22,0.21,0.22,122500,0.22
2011-06-17,0.22,0.22,0.22,0.22,2500,0.22
2011-06-16,0.205,0.215,0.205,0.215,65000,0.215
2011-06-15,0.21,0.21,0.205,0.205,17000,0.205
2011-06-10,0.22,0.22,0.205,0.205,45300,0.205
2011-06-08,0.21,0.23,0.21,0.23,115000,0.23
2011-06-07,0.22,0.22,0.21,0.22,50300,0.22
2011-06-06,0.24,0.24,0.23,0.23,62200,0.23
2011-06-03,0.25,0.255,0.235,0.255,210000,0.255
2011-06-02,0.22,0.27,0.22,0.255,126200,0.255
2011-06-01,0.22,0.22,0.215,0.215,66100,0.215
2011-05-31,0.215,0.22,0.21,0.22,51200,0.22
2011-05-26,0.23,0.25,0.23,0.25,53100,0.25
2011-05-25,0.225,0.23,0.22,0.23,31500,0.23
2011-05-24,0.23,0.23,0.225,0.225,50000,0.225
2011-05-23,0.25,0.25,0.22,0.23,121700,0.23
2011-05-20,0.26,0.26,0.26,0.26,7000,0.26
2011-05-19,0.27,0.27,0.25,0.25,10500,0.25
2011-05-18,0.26,0.27,0.26,0.27,15200,0.27
2011-05-17,0.26,0.26,0.26,0.26,3000,0.26
2011-05-16,0.265,0.265,0.265,0.265,49000,0.265
2011-05-12,0.265,0.265,0.265,0.265,4000,0.265
2011-05-10,0.275,0.275,0.27,0.27,20700,0.27
2011-05-09,0.27,0.27,0.27,0.27,1500,0.27
2011-05-06,0.265,0.265,0.26,0.26,257000,0.26
2011-05-05,0.26,0.26,0.26,0.26,21400,0.26
2011-05-04,0.28,0.28,0.26,0.26,75000,0.26
2011-05-03,0.28,0.285,0.28,0.285,68600,0.285
2011-04-29,0.285,0.295,0.27,0.28,111200,0.28
2011-04-28,0.285,0.285,0.285,0.285,28500,0.285
2011-04-27,0.265,0.265,0.265,0.265,28000,0.265
2011-04-21,0.275,0.29,0.275,0.285,189000,0.285
2011-04-20,0.265,0.265,0.26,0.26,58900,0.26
2011-04-19,0.28,0.28,0.265,0.265,225400,0.265
2011-04-18,0.28,0.28,0.28,0.28,11000,0.28
2011-04-15,0.28,0.29,0.27,0.29,33000,0.29
2011-04-14,0.275,0.275,0.27,0.27,5000,0.27
2011-04-13,0.26,0.26,0.26,0.26,3000,0.26
2011-04-12,0.285,0.29,0.26,0.26,76900,0.26
2011-04-11,0.285,0.285,0.255,0.28,196700,0.28
2011-04-08,0.295,0.295,0.285,0.285,50000,0.285
2011-04-07,0.285,0.30,0.285,0.285,262300,0.285
2011-04-06,0.33,0.33,0.285,0.285,908200,0.285
2011-04-05,0.21,0.40,0.21,0.32,2322100,0.32
2011-04-04,0.21,0.21,0.205,0.21,110200,0.21
2011-04-01,0.235,0.235,0.20,0.22,86500,0.22
2011-03-29,0.24,0.24,0.24,0.24,8000,0.24
2011-03-25,0.22,0.24,0.22,0.24,130000,0.24
2011-03-24,0.215,0.215,0.21,0.21,40000,0.21
2011-03-23,0.21,0.22,0.205,0.22,202500,0.22
2011-03-22,0.22,0.22,0.21,0.21,76000,0.21
2011-03-21,0.22,0.22,0.22,0.22,70000,0.22
2011-03-18,0.20,0.21,0.20,0.21,114700,0.21
2011-03-17,0.20,0.205,0.20,0.20,65200,0.20
2011-03-16,0.18,0.20,0.18,0.20,102200,0.20
2011-03-15,0.19,0.19,0.18,0.18,84000,0.18
2011-03-14,0.20,0.20,0.195,0.195,62600,0.195
2011-03-11,0.20,0.205,0.195,0.20,176600,0.20
2011-03-10,0.20,0.21,0.20,0.20,225200,0.20
2011-03-09,0.205,0.205,0.19,0.20,85000,0.20
2011-03-08,0.22,0.22,0.205,0.205,137900,0.205
2011-03-07,0.215,0.22,0.215,0.22,103100,0.22
2011-03-04,0.225,0.225,0.215,0.215,222500,0.215
2011-03-03,0.225,0.23,0.22,0.22,169400,0.22
2011-03-01,0.235,0.235,0.215,0.23,242800,0.23
2011-02-28,0.24,0.24,0.235,0.235,472900,0.235
2011-02-23,0.23,0.235,0.23,0.235,46600,0.235
2011-02-22,0.25,0.25,0.23,0.23,78900,0.23
2011-02-21,0.26,0.26,0.26,0.26,59000,0.26
2011-02-18,0.255,0.26,0.255,0.26,167000,0.26
2011-02-17,0.25,0.26,0.24,0.26,365000,0.26
2011-02-16,0.24,0.25,0.24,0.25,45000,0.25
2011-02-14,0.245,0.245,0.245,0.245,20000,0.245
2011-02-10,0.25,0.25,0.245,0.245,59200,0.245
2011-02-08,0.25,0.25,0.25,0.25,220000,0.25
2011-02-07,0.25,0.265,0.25,0.25,702000,0.25
2011-01-31,0.23,0.23,0.23,0.23,10000,0.23
2011-01-27,0.24,0.24,0.24,0.24,7500,0.24
2011-01-25,0.23,0.23,0.23,0.23,40000,0.23
2011-01-21,0.24,0.24,0.24,0.24,176200,0.24
2011-01-20,0.24,0.24,0.225,0.225,54000,0.225
2011-01-19,0.24,0.24,0.24,0.24,95000,0.24
2011-01-18,0.25,0.25,0.24,0.24,176500,0.24
2011-01-14,0.24,0.24,0.24,0.24,8400,0.24
2011-01-13,0.26,0.26,0.24,0.25,17200,0.25
2011-01-12,0.26,0.265,0.26,0.265,53000,0.265
2011-01-10,0.255,0.265,0.255,0.265,192100,0.265
2011-01-07,0.24,0.24,0.24,0.24,2400,0.24
2011-01-06,0.24,0.24,0.24,0.24,50000,0.24
2011-01-05,0.24,0.25,0.24,0.25,130000,0.25
2011-01-04,0.225,0.25,0.225,0.25,50000,0.25
2010-12-31,0.24,0.24,0.22,0.22,40000,0.22
2010-12-30,0.23,0.235,0.23,0.235,42300,0.235
2010-12-24,0.22,0.23,0.22,0.23,217000,0.23
2010-12-23,0.23,0.23,0.23,0.23,96000,0.23
2010-12-21,0.24,0.24,0.22,0.22,78000,0.22
2010-12-20,0.24,0.24,0.24,0.24,65000,0.24
2010-12-17,0.255,0.255,0.25,0.25,150000,0.25
2010-12-16,0.255,0.255,0.255,0.255,12600,0.255
2010-12-15,0.245,0.26,0.22,0.245,248700,0.245
2010-12-14,0.245,0.25,0.245,0.245,156100,0.245
2010-12-13,0.23,0.24,0.23,0.24,61800,0.24
2010-12-10,0.22,0.22,0.22,0.22,27800,0.22
2010-12-09,0.22,0.22,0.21,0.21,61000,0.21
2010-12-08,0.24,0.24,0.21,0.21,62600,0.21
2010-12-07,0.24,0.275,0.24,0.24,115700,0.24
2010-12-03,0.23,0.23,0.23,0.23,25500,0.23
2010-11-30,0.25,0.26,0.25,0.26,78600,0.26
2010-11-29,0.24,0.25,0.24,0.25,25000,0.25
2010-11-26,0.225,0.225,0.22,0.22,50000,0.22
2010-11-24,0.22,0.22,0.22,0.22,150000,0.22
2010-11-22,0.25,0.25,0.22,0.23,89300,0.23
2010-11-19,0.22,0.25,0.22,0.23,115000,0.23
2010-11-18,0.23,0.235,0.21,0.21,61800,0.21
2010-11-17,0.24,0.24,0.23,0.23,64600,0.23
2010-11-16,0.24,0.24,0.24,0.24,20100,0.24
2010-11-15,0.255,0.255,0.23,0.235,96500,0.235
2010-11-12,0.26,0.26,0.24,0.255,88700,0.255
2010-11-11,0.26,0.26,0.26,0.26,9500,0.26
2010-11-10,0.255,0.255,0.25,0.25,42500,0.25
2010-11-09,0.285,0.285,0.26,0.26,155000,0.26
2010-11-08,0.26,0.285,0.26,0.285,200000,0.285
2010-11-05,0.27,0.30,0.27,0.29,277200,0.29
2010-11-04,0.265,0.27,0.25,0.27,185000,0.27
2010-11-02,0.27,0.27,0.235,0.27,162000,0.27
2010-10-29,0.28,0.28,0.27,0.27,108300,0.27
2010-10-26,0.28,0.28,0.27,0.28,53000,0.28
2010-10-25,0.30,0.30,0.29,0.29,118800,0.29
2010-10-22,0.275,0.275,0.275,0.275,100000,0.275
2010-10-21,0.28,0.28,0.27,0.27,39000,0.27
2010-10-20,0.30,0.30,0.30,0.30,12000,0.30
2010-10-19,0.28,0.28,0.28,0.28,17000,0.28
2010-10-18,0.29,0.29,0.28,0.28,5500,0.28
2010-10-12,0.29,0.30,0.29,0.30,38000,0.30
2010-10-11,0.29,0.30,0.28,0.28,70000,0.28
2010-10-07,0.30,0.30,0.30,0.30,95300,0.30
2010-10-06,0.30,0.30,0.30,0.30,24700,0.30
2010-10-05,0.30,0.30,0.30,0.30,45300,0.30
2010-10-01,0.30,0.305,0.30,0.305,57000,0.305
2010-09-30,0.30,0.30,0.30,0.30,2700,0.30
2010-09-29,0.30,0.30,0.30,0.30,25000,0.30
2010-09-28,0.30,0.30,0.30,0.30,35000,0.30
2010-09-27,0.30,0.30,0.30,0.30,50000,0.30
2010-09-24,0.30,0.30,0.30,0.30,10000,0.30
2010-09-21,0.335,0.335,0.335,0.335,4000,0.335
2010-09-20,0.31,0.31,0.31,0.31,2000,0.31
2010-09-17,0.305,0.305,0.29,0.29,20000,0.29
2010-09-16,0.32,0.32,0.29,0.305,135000,0.305
2010-09-15,0.32,0.32,0.32,0.32,10000,0.32
2010-09-13,0.33,0.35,0.32,0.35,216700,0.35
2010-09-10,0.33,0.33,0.325,0.325,7400,0.325
2010-09-08,0.33,0.345,0.33,0.345,28000,0.345
2010-09-07,0.33,0.35,0.33,0.35,75000,0.35
2010-09-06,0.325,0.35,0.325,0.35,74800,0.35
2010-09-03,0.30,0.30,0.30,0.30,50000,0.30
2010-09-02,0.295,0.30,0.295,0.30,88000,0.30
2010-08-26,0.30,0.30,0.30,0.30,25000,0.30
2010-08-25,0.30,0.30,0.30,0.30,7000,0.30
2010-08-24,0.30,0.31,0.30,0.30,45500,0.30
2010-08-23,0.30,0.30,0.30,0.30,6500,0.30
2010-08-18,0.30,0.30,0.30,0.30,130000,0.30
2010-08-17,0.285,0.30,0.285,0.30,33000,0.30
2010-08-13,0.275,0.275,0.275,0.275,15000,0.275
2010-08-10,0.27,0.27,0.27,0.27,16000,0.27
2010-08-04,0.27,0.31,0.27,0.30,39500,0.30
2010-08-03,0.24,0.25,0.235,0.25,23000,0.25
2010-08-02,0.26,0.265,0.24,0.24,36000,0.24
2010-07-29,0.28,0.28,0.28,0.28,17500,0.28
2010-07-28,0.28,0.28,0.28,0.28,900,0.28
2010-07-27,0.28,0.28,0.28,0.28,50000,0.28
2010-07-26,0.28,0.28,0.28,0.28,89300,0.28
2010-07-23,0.25,0.27,0.25,0.27,124300,0.27
2010-07-22,0.265,0.265,0.26,0.26,50200,0.26
2010-07-21,0.27,0.27,0.27,0.27,35200,0.27
2010-07-20,0.275,0.275,0.27,0.27,51600,0.27
2010-07-16,0.29,0.29,0.28,0.28,87000,0.28
2010-07-15,0.295,0.295,0.285,0.285,95000,0.285
2010-07-13,0.28,0.28,0.28,0.28,30000,0.28
2010-07-09,0.30,0.30,0.28,0.28,57800,0.28
2010-07-07,0.30,0.30,0.30,0.30,10000,0.30
2010-07-05,0.315,0.315,0.315,0.315,2100,0.315
2010-07-02,0.26,0.29,0.26,0.29,3100,0.29
2010-07-01,0.32,0.32,0.32,0.32,15100,0.32
2010-06-30,0.32,0.32,0.30,0.31,13500,0.31
2010-06-29,0.32,0.32,0.265,0.32,125200,0.32
2010-06-28,0.34,0.35,0.31,0.34,43500,0.34
2010-06-25,0.35,0.35,0.34,0.34,000,0.34
2010-06-24,0.34,0.34,0.34,0.34,65000,0.34
2010-06-23,0.35,0.35,0.33,0.33,000,0.33
2010-06-22,0.35,0.35,0.35,0.35,5000,0.35
2010-06-21,0.355,0.355,0.33,0.33,000,0.33
2010-06-18,0.355,0.355,0.33,0.33,000,0.33
2010-06-17,0.36,0.36,0.36,0.36,10000,0.36
2010-06-16,0.34,0.34,0.33,0.33,93100,0.33
2010-06-15,0.34,0.34,0.34,0.34,20100,0.34
2010-06-11,0.35,0.36,0.35,0.36,26000,0.36
2010-06-10,0.32,0.32,0.31,0.31,22000,0.31
2010-06-09,0.30,0.30,0.30,0.30,96600,0.30
2010-06-08,0.30,0.30,0.25,0.30,170100,0.30
2010-06-07,0.32,0.32,0.30,0.30,102300,0.30
2010-06-04,0.36,0.36,0.33,0.33,120000,0.33
2010-06-03,0.40,0.40,0.36,0.36,000,0.36
2010-06-02,0.40,0.40,0.36,0.36,000,0.36
2010-06-01,0.40,0.40,0.36,0.36,000,0.36
2010-05-31,0.42,0.42,0.40,0.40,64100,0.40
2010-05-28,0.38,0.415,0.38,0.415,13000,0.415
2010-05-27,0.37,0.37,0.37,0.37,50000,0.37
2010-05-26,0.35,0.37,0.34,0.37,48000,0.37
2010-05-25,0.35,0.35,0.35,0.35,3000,0.35
2010-05-24,0.36,0.38,0.36,0.38,52000,0.38
2010-05-21,0.35,0.38,0.33,0.38,63000,0.38
2010-05-20,0.39,0.39,0.35,0.35,000,0.35
2010-05-19,0.37,0.38,0.34,0.38,131300,0.38
2010-05-18,0.38,0.38,0.36,0.37,37400,0.37
2010-05-17,0.38,0.39,0.38,0.38,81300,0.38
2010-05-14,0.38,0.38,0.38,0.38,11300,0.38
2010-05-13,0.39,0.39,0.38,0.38,65000,0.38
2010-05-12,0.39,0.39,0.39,0.39,14100,0.39
2010-05-11,0.385,0.39,0.385,0.385,68300,0.385
2010-05-10,0.385,0.39,0.385,0.385,41000,0.385
2010-05-07,0.40,0.40,0.38,0.385,127700,0.385
2010-05-06,0.43,0.43,0.405,0.405,000,0.405
2010-05-05,0.43,0.43,0.43,0.43,50000,0.43
2010-05-04,0.45,0.45,0.445,0.445,141100,0.445
2010-05-03,0.45,0.45,0.45,0.45,10000,0.45
2010-04-30,0.45,0.45,0.45,0.45,20000,0.45
2010-04-29,0.47,0.47,0.45,0.45,101000,0.45
2010-04-28,0.46,0.47,0.45,0.47,44200,0.47
2010-04-27,0.47,0.48,0.47,0.47,53000,0.47
2010-04-23,0.48,0.48,0.46,0.48,132600,0.48
2010-04-22,0.48,0.485,0.46,0.48,168100,0.48
2010-04-21,0.48,0.48,0.47,0.48,82200,0.48
2010-04-20,0.46,0.48,0.46,0.48,93300,0.48
2010-04-19,0.45,0.45,0.45,0.45,20200,0.45
2010-04-16,0.45,0.45,0.445,0.45,167800,0.45
2010-04-15,0.44,0.48,0.42,0.42,362100,0.42
2010-04-14,0.395,0.40,0.395,0.40,50000,0.40
2010-04-13,0.41,0.41,0.375,0.40,199400,0.40
2010-04-12,0.43,0.43,0.41,0.41,25500,0.41
2010-04-09,0.44,0.44,0.44,0.44,1300,0.44
2010-04-08,0.43,0.44,0.425,0.44,140400,0.44
2010-04-07,0.405,0.43,0.405,0.43,15000,0.43
2010-04-06,0.425,0.425,0.405,0.405,33100,0.405
2010-04-01,0.425,0.425,0.425,0.425,12600,0.425
2010-03-31,0.425,0.43,0.425,0.43,6100,0.43
2010-03-30,0.425,0.425,0.425,0.425,44400,0.425
2010-03-29,0.43,0.44,0.42,0.42,21100,0.42
2010-03-26,0.43,0.43,0.43,0.43,26500,0.43
2010-03-25,0.44,0.45,0.43,0.43,70200,0.43
2010-03-24,0.42,0.42,0.42,0.42,3100,0.42
2010-03-23,0.42,0.42,0.41,0.42,142800,0.42
2010-03-22,0.45,0.465,0.42,0.42,115600,0.42
2010-03-19,0.44,0.44,0.42,0.42,119300,0.42
2010-03-18,0.43,0.45,0.43,0.45,73000,0.45
2010-03-17,0.45,0.45,0.43,0.44,64600,0.44
2010-03-16,0.45,0.45,0.45,0.45,11100,0.45
2010-03-15,0.49,0.49,0.445,0.465,245200,0.465
2010-03-12,0.425,0.50,0.42,0.495,225500,0.495
2010-03-11,0.38,0.42,0.38,0.42,252200,0.42
2010-03-10,0.39,0.46,0.385,0.385,1621900,0.385
2010-03-09,0.39,0.39,0.37,0.37,000,0.37
2010-03-08,0.38,0.39,0.38,0.38,90000,0.38
2010-03-05,0.38,0.38,0.37,0.37,000,0.37
2010-03-04,0.38,0.38,0.37,0.37,000,0.37
2010-03-03,0.38,0.38,0.37,0.37,000,0.37
2010-03-02,0.39,0.39,0.37,0.37,000,0.37
2010-03-01,0.39,0.39,0.37,0.37,000,0.37
2010-02-26,0.39,0.39,0.37,0.37,000,0.37
2010-02-25,0.39,0.39,0.37,0.37,000,0.37
2010-02-24,0.39,0.39,0.37,0.37,000,0.37
2010-02-23,0.395,0.395,0.37,0.37,000,0.37
2010-02-22,0.39,0.39,0.39,0.39,6300,0.39
2010-02-19,0.39,0.39,0.39,0.39,43300,0.39
2010-02-18,0.37,0.375,0.37,0.375,33000,0.375
2010-02-17,0.39,0.39,0.36,0.36,34700,0.36
2010-02-16,0.40,0.40,0.40,0.40,20000,0.40
2010-02-15,0.40,0.40,0.39,0.39,000,0.39
2010-02-12,0.39,0.40,0.39,0.40,277600,0.40
2010-02-11,0.38,0.39,0.38,0.39,58300,0.39
2010-02-10,0.37,0.37,0.37,0.37,2000,0.37
2010-02-08,0.395,0.395,0.395,0.395,28600,0.395
2010-02-05,0.38,0.395,0.38,0.395,21400,0.395
2010-02-04,0.38,0.40,0.38,0.40,53300,0.40
2010-02-02,0.365,0.38,0.365,0.38,90500,0.38
2010-02-01,0.37,0.37,0.365,0.365,11500,0.365
2010-01-29,0.38,0.38,0.38,0.38,48200,0.38
2010-01-28,0.38,0.39,0.38,0.39,31800,0.39
2010-01-27,0.37,0.38,0.37,0.38,31200,0.38
2010-01-25,0.365,0.40,0.365,0.40,26000,0.40
2010-01-21,0.39,0.39,0.37,0.39,37000,0.39
2010-01-20,0.41,0.41,0.39,0.39,000,0.39
2010-01-19,0.40,0.42,0.40,0.40,160000,0.40
2010-01-18,0.39,0.40,0.39,0.40,3900,0.40
2010-01-15,0.40,0.40,0.40,0.40,80700,0.40
2010-01-14,0.42,0.42,0.41,0.41,53400,0.41
2010-01-13,0.40,0.44,0.40,0.42,307800,0.42
2010-01-12,0.38,0.41,0.38,0.41,147300,0.41
2010-01-11,0.38,0.38,0.37,0.38,20000,0.38
2010-01-08,0.40,0.40,0.36,0.36,22600,0.36
2010-01-07,0.40,0.40,0.38,0.40,90500,0.40
2010-01-06,0.395,0.395,0.395,0.395,83100,0.395
2010-01-05,0.38,0.38,0.37,0.37,32300,0.37
2010-01-04,0.395,0.40,0.395,0.395,32800,0.395
2009-12-31,0.37,0.395,0.37,0.395,17200,0.395
2009-12-30,0.37,0.37,0.37,0.37,10000,0.37
2009-12-24,0.35,0.35,0.35,0.35,10000,0.35
2009-12-23,0.36,0.37,0.35,0.37,72800,0.37
2009-12-22,0.36,0.36,0.35,0.36,61500,0.36
2009-12-18,0.37,0.37,0.34,0.34,000,0.34
2009-12-17,0.36,0.39,0.36,0.37,173000,0.37
2009-12-16,0.36,0.36,0.32,0.35,88800,0.35
2009-12-15,0.39,0.39,0.36,0.36,000,0.36
2009-12-14,0.40,0.40,0.36,0.36,000,0.36
2009-12-11,0.37,0.40,0.36,0.40,51100,0.40
2009-12-10,0.37,0.37,0.37,0.37,27500,0.37
2009-12-09,0.35,0.35,0.35,0.35,2200,0.35
2009-12-08,0.37,0.37,0.35,0.35,000,0.35
2009-12-07,0.35,0.35,0.35,0.35,14000,0.35
2009-12-04,0.38,0.38,0.38,0.38,17500,0.38
2009-12-03,0.39,0.39,0.38,0.38,000,0.38
2009-12-02,0.38,0.38,0.38,0.38,3000,0.38
2009-12-01,0.39,0.39,0.34,0.34,000,0.34
2009-11-30,0.39,0.39,0.34,0.34,000,0.34
2009-11-27,0.34,0.34,0.34,0.34,3000,0.34
2009-11-26,0.40,0.40,0.34,0.34,000,0.34
2009-11-25,0.40,0.41,0.40,0.41,29100,0.41
2009-11-24,0.37,0.41,0.37,0.41,47000,0.41
2009-11-23,0.36,0.36,0.36,0.36,16400,0.36
2009-11-19,0.37,0.38,0.34,0.36,69700,0.36
2009-11-18,0.40,0.40,0.40,0.40,6000,0.40
2009-11-17,0.40,0.40,0.38,0.38,000,0.38
2009-11-16,0.40,0.40,0.39,0.39,55000,0.39
2009-11-12,0.37,0.40,0.37,0.40,57200,0.40
2009-11-11,0.36,0.38,0.34,0.38,36000,0.38
2009-11-10,0.38,0.38,0.36,0.36,000,0.36
2009-11-09,0.38,0.38,0.36,0.36,000,0.36
2009-11-06,0.36,0.40,0.36,0.40,60000,0.40
2009-11-05,0.36,0.36,0.36,0.36,000,0.36
2009-11-04,0.37,0.37,0.36,0.36,41800,0.36
2009-11-03,0.415,0.415,0.36,0.36,39100,0.36
2009-11-02,0.40,0.41,0.40,0.41,9800,0.41
2009-10-30,0.36,0.40,0.36,0.40,85000,0.40
2009-10-29,0.36,0.36,0.35,0.35,76300,0.35
2009-10-28,0.35,0.36,0.35,0.36,30000,0.36
2009-10-27,0.38,0.38,0.34,0.34,354100,0.34
2009-10-26,0.40,0.40,0.40,0.40,000,0.40
2009-10-23,0.40,0.40,0.40,0.40,2000,0.40
2009-10-22,0.39,0.40,0.38,0.40,75700,0.40
2009-10-21,0.40,0.40,0.40,0.40,000,0.40
2009-10-20,0.43,0.43,0.40,0.40,44200,0.40
2009-10-19,0.43,0.43,0.41,0.43,23100,0.43
2009-10-16,0.40,0.41,0.40,0.41,4900,0.41
2009-10-15,0.41,0.41,0.41,0.41,7400,0.41
2009-10-14,0.41,0.41,0.41,0.41,2000,0.41
2009-10-13,0.42,0.42,0.42,0.42,12000,0.42
2009-10-12,0.43,0.44,0.43,0.44,19400,0.44
2009-10-09,0.42,0.42,0.41,0.42,27000,0.42
2009-10-08,0.42,0.42,0.42,0.42,19900,0.42
2009-10-07,0.43,0.43,0.41,0.41,15000,0.41
2009-10-06,0.44,0.47,0.42,0.42,113400,0.42
2009-10-05,0.40,0.40,0.40,0.40,000,0.40
2009-10-02,0.40,0.40,0.40,0.40,2000,0.40
2009-10-01,0.41,0.41,0.39,0.39,18500,0.39
2009-09-30,0.44,0.44,0.44,0.44,10000,0.44
2009-09-29,0.465,0.465,0.465,0.465,000,0.465
2009-09-28,0.45,0.465,0.45,0.465,32500,0.465
2009-09-25,0.45,0.45,0.44,0.45,20500,0.45
2009-09-24,0.45,0.45,0.45,0.45,20000,0.45
2009-09-23,0.45,0.50,0.45,0.45,38500,0.45
2009-09-22,0.39,0.47,0.39,0.47,249400,0.47
2009-09-21,0.36,0.40,0.35,0.40,263200,0.40
2009-09-18,0.365,0.365,0.355,0.365,32500,0.365
2009-09-17,0.35,0.37,0.33,0.37,83400,0.37
2009-09-16,0.35,0.35,0.35,0.35,000,0.35
2009-09-15,0.33,0.36,0.33,0.35,18000,0.35
2009-09-14,0.35,0.35,0.35,0.35,000,0.35
2009-09-11,0.35,0.35,0.35,0.35,000,0.35
2009-09-10,0.35,0.35,0.35,0.35,30000,0.35
2009-09-09,0.38,0.38,0.34,0.34,2600,0.34
2009-09-08,0.38,0.38,0.38,0.38,3200,0.38
2009-09-07,0.35,0.38,0.35,0.38,99800,0.38
2009-09-04,0.35,0.35,0.35,0.35,5000,0.35
2009-09-03,0.35,0.35,0.35,0.35,000,0.35
2009-09-02,0.35,0.35,0.35,0.35,32000,0.35
2009-09-01,0.36,0.36,0.34,0.36,54800,0.36
2009-08-31,0.38,0.38,0.38,0.38,000,0.38
2009-08-28,0.38,0.38,0.38,0.38,10000,0.38
2009-08-27,0.36,0.38,0.36,0.38,34000,0.38
2009-08-26,0.37,0.37,0.37,0.37,2700,0.37
2009-08-25,0.38,0.38,0.35,0.35,68200,0.35
2009-08-24,0.365,0.365,0.365,0.365,000,0.365
2009-08-21,0.355,0.365,0.35,0.365,34000,0.365
2009-08-20,0.395,0.40,0.36,0.36,20500,0.36
2009-08-19,0.395,0.395,0.395,0.395,5000,0.395
2009-08-18,0.37,0.37,0.37,0.37,000,0.37
2009-08-17,0.37,0.37,0.37,0.37,1000,0.37
2009-08-14,0.39,0.39,0.36,0.36,8000,0.36
2009-08-13,0.41,0.41,0.41,0.41,5000,0.41
2009-08-12,0.41,0.41,0.41,0.41,12400,0.41
2009-08-11,0.41,0.41,0.41,0.41,2000,0.41
2009-08-10,0.415,0.425,0.415,0.42,69500,0.42
2009-08-07,0.425,0.425,0.425,0.425,2000,0.425
2009-08-06,0.42,0.425,0.42,0.425,65600,0.425
2009-08-05,0.42,0.45,0.41,0.425,109100,0.425
2009-08-04,0.41,0.43,0.41,0.41,30200,0.41
2009-08-03,0.39,0.40,0.39,0.40,229100,0.40
2009-07-31,0.38,0.385,0.38,0.38,52800,0.38
2009-07-30,0.38,0.38,0.38,0.38,000,0.38
2009-07-29,0.38,0.39,0.37,0.38,108300,0.38
2009-07-28,0.365,0.365,0.365,0.365,10000,0.365
2009-07-27,0.375,0.375,0.375,0.375,29400,0.375
2009-07-24,0.38,0.38,0.375,0.375,60000,0.375
2009-07-23,0.375,0.375,0.375,0.375,66700,0.375
2009-07-22,0.38,0.38,0.37,0.37,100000,0.37
2009-07-21,0.37,0.37,0.37,0.37,116000,0.37
2009-07-20,0.35,0.39,0.35,0.39,60200,0.39
2009-07-17,0.35,0.35,0.35,0.35,6000,0.35
2009-07-16,0.34,0.34,0.34,0.34,49100,0.34
2009-07-15,0.34,0.34,0.34,0.34,2800,0.34
2009-07-14,0.35,0.35,0.35,0.35,2500,0.35
2009-07-13,0.34,0.34,0.34,0.34,20100,0.34
2009-07-10,0.34,0.34,0.34,0.34,000,0.34
2009-07-09,0.34,0.34,0.34,0.34,1500,0.34
2009-07-08,0.34,0.34,0.34,0.34,000,0.34
2009-07-07,0.335,0.34,0.30,0.34,32800,0.34
2009-07-06,0.335,0.335,0.335,0.335,19000,0.335
2009-07-03,0.335,0.335,0.335,0.335,3000,0.335
2009-07-02,0.30,0.30,0.30,0.30,21000,0.30
2009-07-01,0.34,0.34,0.34,0.34,8800,0.34
2009-06-30,0.32,0.34,0.32,0.34,25000,0.34
2009-06-29,0.34,0.34,0.34,0.34,000,0.34
2009-06-26,0.32,0.34,0.315,0.34,75500,0.34
2009-06-25,0.34,0.34,0.34,0.34,000,0.34
2009-06-24,0.34,0.34,0.34,0.34,1200,0.34
2009-06-23,0.34,0.34,0.34,0.34,500,0.34
2009-06-22,0.36,0.36,0.36,0.36,000,0.36
2009-06-19,0.36,0.36,0.36,0.36,4100,0.36
2009-06-18,0.36,0.36,0.34,0.34,000,0.34
2009-06-17,0.36,0.36,0.34,0.34,000,0.34
2009-06-16,0.36,0.36,0.34,0.35,133000,0.35
2009-06-15,0.345,0.36,0.345,0.36,28000,0.36
2009-06-12,0.34,0.36,0.34,0.36,208500,0.36
2009-06-11,0.35,0.35,0.33,0.35,75000,0.35
2009-06-10,0.35,0.35,0.35,0.35,9000,0.35
2009-06-09,0.35,0.35,0.33,0.35,50800,0.35
2009-06-05,0.35,0.35,0.35,0.35,000,0.35
2009-06-04,0.35,0.35,0.35,0.35,60000,0.35
2009-06-03,0.35,0.35,0.35,0.35,81800,0.35
2009-06-02,0.35,0.37,0.35,0.35,124600,0.35
2009-06-01,0.35,0.35,0.31,0.35,66700,0.35
2009-05-29,0.31,0.35,0.31,0.35,172200,0.35
2009-05-28,0.32,0.35,0.30,0.31,288500,0.31
2009-05-27,0.32,0.32,0.30,0.30,15200,0.30
2009-05-26,0.28,0.32,0.28,0.32,45800,0.32
2009-05-25,0.33,0.33,0.33,0.33,000,0.33
2009-05-22,0.33,0.33,0.33,0.33,000,0.33
2009-05-21,0.30,0.33,0.30,0.33,41000,0.33
2009-05-20,0.31,0.31,0.30,0.30,15800,0.30
2009-05-19,0.27,0.31,0.27,0.31,11000,0.31
2009-05-18,0.30,0.30,0.26,0.26,52400,0.26
2009-05-15,0.33,0.33,0.33,0.33,000,0.33
2009-05-14,0.33,0.33,0.33,0.33,000,0.33
2009-05-13,0.33,0.33,0.33,0.33,4300,0.33
2009-05-12,0.34,0.34,0.34,0.34,000,0.34
2009-05-11,0.34,0.34,0.34,0.34,000,0.34
2009-05-08,0.34,0.34,0.34,0.34,000,0.34
2009-05-07,0.265,0.34,0.26,0.34,24500,0.34
2009-05-06,0.32,0.32,0.32,0.32,5000,0.32
2009-05-05,0.33,0.33,0.33,0.33,000,0.33
2009-05-04,0.33,0.33,0.33,0.33,000,0.33
2009-05-01,0.33,0.33,0.33,0.33,000,0.33
2009-04-30,0.33,0.33,0.33,0.33,000,0.33
2009-04-29,0.33,0.33,0.33,0.33,000,0.33
2009-04-28,0.33,0.33,0.33,0.33,7600,0.33
2009-04-27,0.35,0.35,0.35,0.35,000,0.35
2009-04-24,0.35,0.35,0.35,0.35,50000,0.35
2009-04-23,0.35,0.35,0.35,0.35,36000,0.35
2009-04-22,0.35,0.36,0.35,0.35,93000,0.35
2009-04-21,0.35,0.38,0.35,0.35,97000,0.35
2009-04-20,0.35,0.38,0.35,0.38,100500,0.38
2009-04-17,0.38,0.38,0.38,0.38,000,0.38
2009-04-16,0.38,0.38,0.38,0.38,800,0.38
2009-04-15,0.38,0.38,0.38,0.38,13100,0.38
2009-04-14,0.39,0.39,0.38,0.38,3200,0.38
2009-04-09,0.38,0.38,0.38,0.38,7300,0.38
2009-04-08,0.38,0.38,0.33,0.33,000,0.33
2009-04-07,0.39,0.39,0.33,0.33,47000,0.33
2009-04-06,0.335,0.38,0.335,0.375,14300,0.375
2009-04-03,0.32,0.32,0.32,0.32,40000,0.32
2009-04-02,0.23,0.25,0.23,0.25,35000,0.25
2009-04-01,0.22,0.23,0.22,0.23,72500,0.23
2009-03-31,0.19,0.22,0.19,0.22,7200,0.22
2009-03-30,0.225,0.225,0.225,0.225,000,0.225
2009-03-27,0.225,0.225,0.225,0.225,000,0.225
2009-03-26,0.19,0.225,0.19,0.225,20000,0.225
2009-03-25,0.20,0.225,0.20,0.225,7200,0.225
2009-03-24,0.23,0.23,0.23,0.23,000,0.23
2009-03-23,0.23,0.23,0.23,0.23,000,0.23
2009-03-20,0.23,0.23,0.23,0.23,000,0.23
2009-03-19,0.23,0.23,0.23,0.23,000,0.23
2009-03-18,0.23,0.23,0.23,0.23,000,0.23
2009-03-17,0.23,0.23,0.23,0.23,000,0.23
2009-03-16,0.23,0.23,0.23,0.23,000,0.23
2009-03-13,0.23,0.23,0.23,0.23,000,0.23
2009-03-12,0.23,0.23,0.23,0.23,000,0.23
2009-03-11,0.23,0.23,0.23,0.23,000,0.23
2009-03-10,0.23,0.23,0.23,0.23,000,0.23
2009-03-09,0.23,0.23,0.23,0.23,000,0.23
2009-03-06,0.23,0.23,0.23,0.23,000,0.23
2009-03-05,0.23,0.23,0.23,0.23,20000,0.23
2009-03-04,0.24,0.24,0.24,0.24,000,0.24
2009-03-03,0.24,0.24,0.24,0.24,000,0.24
2009-03-02,0.24,0.24,0.24,0.24,000,0.24
2009-02-27,0.24,0.24,0.24,0.24,000,0.24
2009-02-26,0.24,0.24,0.24,0.24,000,0.24
2009-02-25,0.24,0.24,0.24,0.24,000,0.24
2009-02-24,0.24,0.24,0.24,0.24,000,0.24
2009-02-23,0.24,0.24,0.24,0.24,000,0.24
2009-02-20,0.24,0.24,0.24,0.24,000,0.24
2009-02-19,0.24,0.24,0.24,0.24,000,0.24
2009-02-18,0.24,0.24,0.24,0.24,000,0.24
2009-02-17,0.24,0.24,0.24,0.24,000,0.24
2009-02-16,0.24,0.24,0.24,0.24,1200,0.24
2009-02-13,0.24,0.24,0.24,0.24,000,0.24
2009-02-12,0.24,0.24,0.24,0.24,000,0.24
2009-02-11,0.24,0.24,0.24,0.24,000,0.24
2009-02-10,0.11,0.24,0.10,0.24,68000,0.24
2009-02-09,0.20,0.20,0.20,0.20,000,0.20
2009-02-06,0.20,0.20,0.20,0.20,000,0.20
2009-02-05,0.20,0.20,0.20,0.20,000,0.20
2009-02-04,0.20,0.20,0.20,0.20,000,0.20
2009-02-03,0.20,0.20,0.20,0.20,000,0.20
2009-02-02,0.20,0.20,0.20,0.20,000,0.20
2009-01-30,0.20,0.20,0.20,0.20,000,0.20
2009-01-29,0.20,0.20,0.20,0.20,000,0.20
2009-01-28,0.20,0.20,0.20,0.20,45000,0.20
2009-01-27,0.20,0.20,0.20,0.20,10000,0.20
2009-01-23,0.255,0.255,0.255,0.255,000,0.255
2009-01-22,0.255,0.255,0.255,0.255,000,0.255
2009-01-21,0.255,0.255,0.255,0.255,000,0.255
2009-01-20,0.255,0.255,0.255,0.255,000,0.255
2009-01-19,0.255,0.255,0.255,0.255,000,0.255
2009-01-16,0.255,0.255,0.255,0.255,000,0.255
2009-01-15,0.255,0.255,0.255,0.255,000,0.255
2009-01-14,0.255,0.255,0.255,0.255,000,0.255
2009-01-13,0.255,0.255,0.255,0.255,000,0.255
2009-01-12,0.255,0.255,0.255,0.255,000,0.255
2009-01-09,0.255,0.255,0.255,0.255,000,0.255
2009-01-08,0.255,0.255,0.255,0.255,000,0.255
2009-01-07,0.255,0.255,0.255,0.255,000,0.255
2009-01-06,0.255,0.255,0.255,0.255,000,0.255
2009-01-05,0.255,0.255,0.255,0.255,000,0.255
2009-01-02,0.255,0.255,0.255,0.255,000,0.255
2008-12-31,0.255,0.255,0.255,0.255,000,0.255
2008-12-30,0.255,0.255,0.255,0.255,000,0.255
2008-12-29,0.255,0.255,0.255,0.255,000,0.255
2008-12-24,0.255,0.255,0.255,0.255,000,0.255
2008-12-23,0.255,0.255,0.255,0.255,000,0.255
2008-12-22,0.255,0.255,0.255,0.255,000,0.255
2008-12-19,0.255,0.255,0.255,0.255,000,0.255
2008-12-18,0.255,0.255,0.255,0.255,000,0.255
2008-12-17,0.255,0.255,0.255,0.255,000,0.255
2008-12-16,0.255,0.255,0.25,0.255,148500,0.255
2008-12-15,0.20,0.26,0.20,0.26,17500,0.26
2008-12-12,0.225,0.225,0.225,0.225,000,0.225
2008-12-11,0.225,0.225,0.225,0.225,000,0.225
2008-12-10,0.225,0.225,0.225,0.225,000,0.225
2008-12-09,0.225,0.225,0.225,0.225,000,0.225
2008-12-08,0.22,0.27,0.22,0.225,201000,0.225
2008-12-05,0.27,0.27,0.27,0.27,50000,0.27
2008-12-04,0.27,0.27,0.27,0.27,000,0.27
2008-12-03,0.27,0.27,0.27,0.27,10000,0.27
2008-12-02,0.275,0.275,0.275,0.275,000,0.275
2008-12-01,0.25,0.275,0.25,0.275,66600,0.275
2008-11-28,0.25,0.25,0.25,0.25,14000,0.25
2008-11-27,0.28,0.28,0.28,0.28,000,0.28
2008-11-26,0.28,0.28,0.28,0.28,000,0.28
2008-11-25,0.28,0.28,0.28,0.28,300,0.28
2008-11-24,0.30,0.30,0.30,0.30,000,0.30
2008-11-21,0.30,0.30,0.30,0.30,000,0.30
2008-11-20,0.30,0.30,0.30,0.30,000,0.30
2008-11-19,0.30,0.30,0.30,0.30,000,0.30
2008-11-18,0.30,0.30,0.30,0.30,000,0.30
2008-11-17,0.30,0.30,0.30,0.30,000,0.30
2008-11-14,0.30,0.30,0.30,0.30,000,0.30
2008-11-13,0.30,0.30,0.30,0.30,10000,0.30
2008-11-12,0.28,0.28,0.28,0.28,000,0.28
2008-11-11,0.28,0.28,0.28,0.28,000,0.28
2008-11-10,0.28,0.28,0.28,0.28,000,0.28
2008-11-07,0.28,0.28,0.28,0.28,1700,0.28
2008-11-06,0.29,0.29,0.29,0.29,10000,0.29
2008-11-05,0.28,0.30,0.28,0.30,10000,0.30
2008-11-04,0.28,0.28,0.28,0.28,000,0.28
2008-11-03,0.28,0.28,0.28,0.28,000,0.28
2008-10-31,0.28,0.28,0.28,0.28,5000,0.28
2008-10-30,0.30,0.30,0.30,0.30,000,0.30
2008-10-29,0.30,0.30,0.30,0.30,000,0.30
2008-10-28,0.28,0.30,0.28,0.30,20000,0.30
2008-10-27,0.30,0.30,0.30,0.30,000,0.30
2008-10-24,0.30,0.30,0.30,0.30,000,0.30
2008-10-23,0.30,0.30,0.30,0.30,10000,0.30
2008-10-22,0.33,0.33,0.33,0.33,000,0.33
2008-10-21,0.33,0.33,0.33,0.33,000,0.33
2008-10-20,0.33,0.33,0.33,0.33,000,0.33
2008-10-17,0.325,0.33,0.32,0.33,139900,0.33
2008-10-16,0.33,0.35,0.30,0.35,45100,0.35
2008-10-15,0.34,0.38,0.33,0.38,52000,0.38
2008-10-14,0.32,0.37,0.32,0.37,43000,0.37
2008-10-13,0.30,0.30,0.30,0.30,52700,0.30
2008-10-10,0.30,0.30,0.30,0.30,41900,0.30
2008-10-09,0.38,0.38,0.30,0.30,5600,0.30
2008-10-08,0.395,0.395,0.395,0.395,000,0.395
2008-10-07,0.395,0.395,0.395,0.395,000,0.395
2008-10-06,0.35,0.395,0.30,0.395,71300,0.395
2008-10-03,0.39,0.40,0.36,0.40,29300,0.40
2008-10-02,0.41,0.41,0.41,0.41,500,0.41
2008-10-01,0.41,0.41,0.41,0.41,17800,0.41
2008-09-30,0.39,0.41,0.36,0.41,91900,0.41
2008-09-29,0.425,0.425,0.425,0.425,7300,0.425
2008-09-26,0.41,0.425,0.41,0.425,8500,0.425
2008-09-25,0.42,0.43,0.37,0.385,21400,0.385
2008-09-24,0.39,0.42,0.39,0.42,105000,0.42
2008-09-23,0.40,0.40,0.40,0.40,000,0.40
2008-09-22,0.42,0.42,0.40,0.40,17900,0.40
2008-09-19,0.42,0.42,0.42,0.42,5000,0.42
2008-09-18,0.43,0.43,0.43,0.43,2200,0.43
2008-09-17,0.46,0.46,0.46,0.46,1000,0.46
2008-09-16,0.46,0.46,0.43,0.43,000,0.43
2008-09-15,0.46,0.46,0.43,0.44,25500,0.44
2008-09-12,0.46,0.49,0.46,0.49,12700,0.49
2008-09-11,0.46,0.46,0.46,0.46,1200,0.46
2008-09-10,0.44,0.44,0.44,0.44,10000,0.44
2008-09-09,0.495,0.495,0.495,0.495,000,0.495
2008-09-08,0.495,0.495,0.495,0.495,1000,0.495
2008-09-05,0.50,0.50,0.495,0.495,000,0.495
2008-09-04,0.50,0.50,0.50,0.50,8400,0.50
2008-09-03,0.50,0.50,0.50,0.50,2000,0.50
2008-09-02,0.50,0.50,0.495,0.495,000,0.495
2008-09-01,0.495,0.495,0.495,0.495,2000,0.495
2008-08-29,0.48,0.495,0.475,0.495,48600,0.495
2008-08-28,0.48,0.48,0.46,0.48,75000,0.48
2008-08-27,0.47,0.48,0.47,0.48,23000,0.48
2008-08-26,0.47,0.47,0.465,0.47,60000,0.47
2008-08-25,0.46,0.49,0.45,0.49,73000,0.49
2008-08-22,0.43,0.475,0.43,0.445,193900,0.445
2008-08-21,0.40,0.43,0.40,0.43,4300,0.43
2008-08-20,0.40,0.43,0.38,0.43,41700,0.43
2008-08-19,0.43,0.43,0.43,0.43,5000,0.43
2008-08-18,0.425,0.50,0.41,0.43,148200,0.43
2008-08-15,0.425,0.425,0.40,0.40,000,0.40
2008-08-14,0.40,0.40,0.40,0.40,2000,0.40
2008-08-13,0.425,0.425,0.425,0.425,700,0.425
2008-08-12,0.41,0.425,0.40,0.425,39400,0.425
2008-08-11,0.45,0.45,0.425,0.425,11900,0.425
2008-08-08,0.49,0.49,0.45,0.45,38300,0.45
2008-08-07,0.45,0.50,0.45,0.50,100500,0.50
2008-08-06,0.50,0.50,0.50,0.50,000,0.50
2008-08-05,0.50,0.50,0.50,0.50,5000,0.50
2008-08-04,0.53,0.53,0.50,0.50,6900,0.50
2008-08-01,0.54,0.54,0.51,0.51,000,0.51
2008-07-31,0.53,0.53,0.53,0.53,39200,0.53
2008-07-30,0.50,0.53,0.50,0.53,27000,0.53
2008-07-29,0.55,0.55,0.50,0.50,54600,0.50
2008-07-28,0.52,0.55,0.50,0.525,118100,0.525
2008-07-25,0.53,0.59,0.53,0.59,27800,0.59
2008-07-24,0.55,0.56,0.54,0.55,83900,0.55
2008-07-23,0.55,0.55,0.55,0.55,18400,0.55
2008-07-22,0.58,0.60,0.55,0.60,17300,0.60
2008-07-21,0.60,0.60,0.60,0.60,33500,0.60
2008-07-18,0.60,0.61,0.60,0.60,83300,0.60
2008-07-17,0.55,0.59,0.51,0.59,47300,0.59
2008-07-16,0.545,0.56,0.51,0.56,35600,0.56
2008-07-15,0.56,0.56,0.51,0.55,11300,0.55
2008-07-14,0.555,0.56,0.50,0.56,149700,0.56
2008-07-11,0.56,0.56,0.53,0.56,25300,0.56
2008-07-10,0.60,0.60,0.56,0.59,46600,0.59
2008-07-09,0.595,0.63,0.595,0.62,109600,0.62
2008-07-08,0.61,0.62,0.58,0.595,81400,0.595
2008-07-07,0.65,0.655,0.63,0.65,54900,0.65
2008-07-04,0.65,0.66,0.65,0.66,52800,0.66
2008-07-03,0.695,0.695,0.62,0.665,148600,0.665
2008-07-02,0.665,0.70,0.665,0.70,218100,0.70
2008-07-01,0.67,0.67,0.67,0.67,3100,0.67
2008-06-30,0.60,0.67,0.59,0.67,98000,0.67
2008-06-27,0.55,0.595,0.53,0.595,36600,0.595
2008-06-26,0.52,0.55,0.52,0.55,38200,0.55
2008-06-25,0.525,0.525,0.495,0.52,53300,0.52
2008-06-24,0.54,0.54,0.495,0.54,199800,0.54
2008-06-23,0.51,0.54,0.51,0.54,137600,0.54
2008-06-20,0.52,0.54,0.515,0.515,34900,0.515
2008-06-19,0.54,0.54,0.51,0.53,47700,0.53
2008-06-18,0.51,0.535,0.49,0.535,248000,0.535
2008-06-17,0.595,0.595,0.50,0.54,58000,0.54
2008-06-16,0.565,0.595,0.56,0.595,214400,0.595
2008-06-13,0.63,0.63,0.57,0.595,68500,0.595
2008-06-12,0.63,0.65,0.57,0.63,189300,0.63
2008-06-11,0.675,0.675,0.60,0.65,42500,0.65
2008-06-10,0.70,0.70,0.61,0.675,218300,0.675
2008-06-06,0.69,0.765,0.69,0.70,520400,0.70
2008-06-05,0.63,0.73,0.61,0.65,514500,0.65
2008-06-04,0.57,0.64,0.57,0.58,162400,0.58
2008-06-03,0.58,0.58,0.55,0.565,86900,0.565
2008-06-02,0.495,0.58,0.49,0.58,303500,0.58
2008-05-30,0.48,0.495,0.48,0.49,23500,0.49
2008-05-29,0.50,0.50,0.45,0.50,250400,0.50
2008-05-28,0.42,0.50,0.42,0.50,542300,0.50
2008-05-27,0.42,0.42,0.41,0.42,125300,0.42
2008-05-26,0.40,0.42,0.39,0.42,63800,0.42
2008-05-23,0.38,0.42,0.38,0.42,201400,0.42
2008-05-22,0.40,0.40,0.375,0.40,99500,0.40
2008-05-21,0.40,0.42,0.40,0.40,237500,0.40
2008-05-20,0.40,0.41,0.39,0.40,333200,0.40
2008-05-19,0.40,0.40,0.375,0.40,175500,0.40
2008-05-16,0.37,0.43,0.37,0.42,338900,0.42
2008-05-15,0.35,0.37,0.35,0.37,70500,0.37
2008-05-14,0.365,0.365,0.345,0.35,152000,0.35
2008-05-13,0.37,0.39,0.36,0.37,73600,0.37
2008-05-12,0.405,0.43,0.365,0.395,272300,0.395
2008-05-09,0.40,0.405,0.385,0.40,508900,0.40
2008-05-08,0.415,0.435,0.39,0.405,272300,0.405
2008-05-07,0.37,0.435,0.365,0.435,474800,0.435
2008-05-06,0.35,0.45,0.34,0.37,813600,0.37
2008-05-05,0.26,0.35,0.26,0.35,498000,0.35
2008-05-02,0.25,0.26,0.23,0.26,23800,0.26
2008-05-01,0.26,0.26,0.245,0.25,218500,0.25
2008-04-30,0.25,0.26,0.22,0.26,97500,0.26
2008-04-29,0.265,0.27,0.24,0.27,96600,0.27
2008-04-28,0.275,0.275,0.255,0.265,135200,0.265
2008-04-24,0.27,0.275,0.25,0.275,295900,0.275
2008-04-23,0.25,0.275,0.25,0.275,155100,0.275
2008-04-22,0.21,0.23,0.20,0.23,140300,0.23
2008-04-21,0.205,0.21,0.205,0.21,60700,0.21
2008-04-18,0.20,0.20,0.20,0.20,000,0.20
2008-04-17,0.20,0.20,0.20,0.20,000,0.20
2008-04-16,0.195,0.20,0.19,0.20,25800,0.20
2008-04-15,0.20,0.20,0.20,0.20,000,0.20
2008-04-14,0.20,0.20,0.20,0.20,000,0.20
2008-04-11,0.20,0.20,0.20,0.20,5000,0.20
2008-04-10,0.17,0.17,0.17,0.17,000,0.17
2008-04-09,0.20,0.20,0.16,0.17,24500,0.17
2008-04-08,0.17,0.17,0.17,0.17,000,0.17
2008-04-07,0.17,0.17,0.17,0.17,000,0.17
2008-04-04,0.15,0.17,0.15,0.17,83300,0.17
2008-04-03,0.15,0.15,0.15,0.15,000,0.15
2008-04-02,0.16,0.16,0.15,0.15,28500,0.15
2008-04-01,0.15,0.15,0.15,0.15,000,0.15
2008-03-31,0.15,0.15,0.15,0.15,000,0.15
2008-03-28,0.15,0.15,0.15,0.15,000,0.15
2008-03-27,0.15,0.15,0.15,0.15,33300,0.15
2008-03-26,0.15,0.15,0.15,0.15,6000,0.15
2008-03-25,0.15,0.15,0.15,0.15,000,0.15
2008-03-20,0.15,0.15,0.15,0.15,000,0.15
2008-03-19,0.15,0.15,0.15,0.15,125000,0.15
2008-03-18,0.13,0.15,0.125,0.15,65000,0.15
2008-03-17,0.15,0.15,0.15,0.15,000,0.15
2008-03-14,0.15,0.15,0.15,0.15,24100,0.15
2008-03-13,0.15,0.15,0.15,0.15,5000,0.15
2008-03-12,0.15,0.15,0.15,0.15,000,0.15
2008-03-11,0.14,0.15,0.135,0.15,58200,0.15
2008-03-10,0.15,0.15,0.15,0.15,8000,0.15
2008-03-07,0.135,0.15,0.12,0.15,62000,0.15
2008-03-06,0.135,0.135,0.135,0.135,25000,0.135
2008-03-05,0.13,0.15,0.13,0.15,158300,0.15
2008-03-04,0.15,0.15,0.15,0.15,000,0.15
2008-03-03,0.15,0.15,0.15,0.15,000,0.15
2008-02-29,0.15,0.15,0.15,0.15,13000,0.15
2008-02-28,0.15,0.16,0.15,0.16,19300,0.16
2008-02-27,0.15,0.15,0.15,0.15,16600,0.15
2008-02-26,0.15,0.15,0.15,0.15,13300,0.15
2008-02-25,0.165,0.165,0.165,0.165,8300,0.165
2008-02-22,0.14,0.15,0.14,0.145,39000,0.145
2008-02-21,0.16,0.16,0.16,0.16,000,0.16
2008-02-20,0.17,0.17,0.16,0.16,40000,0.16
2008-02-19,0.15,0.15,0.15,0.15,17800,0.15
2008-02-18,0.155,0.155,0.155,0.155,000,0.155
2008-02-15,0.155,0.155,0.155,0.155,000,0.155
2008-02-14,0.165,0.165,0.155,0.155,19000,0.155
2008-02-13,0.14,0.15,0.13,0.15,13000,0.15
2008-02-12,0.18,0.18,0.14,0.14,000,0.14
2008-02-11,0.14,0.14,0.14,0.14,000,0.14
2008-02-08,0.155,0.155,0.135,0.14,90000,0.14
2008-02-07,0.14,0.14,0.14,0.14,20000,0.14
2008-02-06,0.14,0.14,0.14,0.14,25000,0.14
2008-02-05,0.17,0.17,0.17,0.17,000,0.17
2008-02-04,0.17,0.17,0.17,0.17,000,0.17
2008-02-01,0.15,0.17,0.15,0.17,7000,0.17
2008-01-31,0.15,0.15,0.15,0.15,60000,0.15
2008-01-30,0.17,0.17,0.17,0.17,000,0.17
2008-01-29,0.145,0.17,0.145,0.17,65000,0.17
2008-01-25,0.145,0.15,0.145,0.15,60000,0.15
2008-01-24,0.15,0.16,0.15,0.15,175200,0.15
2008-01-23,0.15,0.15,0.15,0.15,6200,0.15
2008-01-22,0.14,0.16,0.14,0.16,76900,0.16
2008-01-21,0.20,0.20,0.20,0.20,000,0.20
2008-01-18,0.20,0.20,0.20,0.20,000,0.20
2008-01-17,0.20,0.20,0.20,0.20,11000,0.20
2008-01-16,0.23,0.23,0.23,0.23,000,0.23
2008-01-15,0.23,0.23,0.23,0.23,000,0.23
2008-01-14,0.23,0.23,0.23,0.23,600,0.23
2008-01-11,0.235,0.235,0.23,0.23,000,0.23
2008-01-10,0.23,0.24,0.23,0.24,6000,0.24
2008-01-09,0.23,0.23,0.23,0.23,7400,0.23
2008-01-08,0.20,0.23,0.20,0.23,5500,0.23
2008-01-07,0.23,0.23,0.23,0.23,1100,0.23
2008-01-04,0.26,0.26,0.26,0.26,000,0.26
2008-01-03,0.26,0.26,0.26,0.26,000,0.26
2008-01-02,0.26,0.26,0.26,0.26,000,0.26
2007-12-31,0.26,0.26,0.26,0.26,000,0.26
2007-12-28,0.26,0.26,0.26,0.26,000,0.26
2007-12-27,0.26,0.26,0.26,0.26,000,0.26
2007-12-24,0.23,0.26,0.23,0.26,7000,0.26
2007-12-21,0.265,0.265,0.25,0.26,21400,0.26
2007-12-20,0.26,0.265,0.26,0.265,10000,0.265
2007-12-19,0.26,0.26,0.26,0.26,2000,0.26
2007-12-18,0.23,0.23,0.23,0.23,3000,0.23
2007-12-17,0.25,0.265,0.25,0.265,55000,0.265
2007-12-14,0.27,0.27,0.27,0.27,101500,0.27
2007-12-13,0.23,0.27,0.23,0.23,28500,0.23
2007-12-12,0.24,0.24,0.23,0.23,22500,0.23
2007-12-11,0.25,0.27,0.25,0.27,7000,0.27
2007-12-10,0.28,0.28,0.28,0.28,10000,0.28
2007-12-07,0.28,0.28,0.28,0.28,000,0.28
2007-12-06,0.275,0.28,0.275,0.28,104000,0.28
2007-12-05,0.27,0.28,0.27,0.28,13000,0.28
2007-12-04,0.27,0.27,0.26,0.27,98300,0.27
2007-12-03,0.265,0.27,0.265,0.27,8000,0.27
2007-11-30,0.265,0.265,0.26,0.26,24000,0.26
2007-11-29,0.26,0.26,0.26,0.26,110000,0.26
2007-11-28,0.26,0.26,0.26,0.26,27000,0.26
2007-11-27,0.25,0.26,0.24,0.26,62000,0.26
2007-11-26,0.25,0.25,0.25,0.25,5000,0.25
2007-11-23,0.255,0.27,0.255,0.27,47000,0.27
2007-11-22,0.28,0.285,0.27,0.27,127700,0.27
2007-11-21,0.25,0.28,0.25,0.28,250000,0.28
2007-11-20,0.27,0.27,0.25,0.25,166100,0.25
2007-11-19,0.27,0.275,0.265,0.275,94700,0.275
2007-11-16,0.27,0.29,0.26,0.265,272100,0.265
2007-11-15,0.30,0.30,0.25,0.28,286300,0.28
