Date,Open,High,Low,Close,Volume,Adj Close
2017-01-10,2.04,2.08,2.04,2.08,75900,2.08
2017-01-09,2.05,2.05,2.05,2.05,000,2.05
2017-01-06,2.04,2.05,2.04,2.05,54100,2.05
2017-01-05,2.02,2.02,2.02,2.02,000,2.02
2017-01-04,2.02,2.02,2.02,2.02,900,2.02
2017-01-03,2.07,2.07,2.07,2.07,000,2.07
2017-01-02,2.07,2.07,2.07,2.07,000,2.07
2016-12-30,2.07,2.07,2.07,2.07,000,2.07
2016-12-29,2.07,2.07,2.07,2.07,000,2.07
2016-12-28,2.07,2.07,2.07,2.07,000,2.02
2016-12-27,2.07,2.07,2.07,2.07,000,2.02
2016-12-26,2.07,2.07,2.07,2.07,000,2.02
2016-12-23,2.07,2.07,2.07,2.07,000,2.02
2016-12-22,2.07,2.07,2.07,2.07,17500,2.02
2016-12-21,2.06,2.06,2.06,2.06,300,2.01024
2016-12-20,2.08,2.08,2.08,2.08,000,2.02976
2016-12-19,2.05,2.08,2.05,2.08,35300,2.02976
2016-12-16,2.05,2.05,2.05,2.05,91600,2.00048
2016-12-15,2.04,2.05,2.04,2.05,50000,2.00048
2016-12-14,2.04,2.04,2.04,2.04,113100,1.99072
2016-12-13,2.04,2.05,2.04,2.04,54800,1.99072
2016-12-12,2.04,2.04,2.04,2.04,84700,1.99072
2016-12-09,2.03,2.03,2.03,2.03,100,1.98097
2016-12-08,2.03,2.03,2.03,2.03,17200,1.98097
2016-12-07,2.02,2.02,2.02,2.02,7400,1.97121
2016-12-06,2.04,2.04,2.02,2.02,5000,1.97121
2016-12-05,2.02,2.02,2.02,2.02,29200,1.97121
2016-12-02,2.02,2.02,2.02,2.02,37500,1.97121
2016-12-01,2.02,2.02,2.02,2.02,16100,1.97121
2016-11-30,2.02,2.04,2.02,2.02,144900,1.97121
2016-11-29,2.03,2.03,2.02,2.02,47100,1.97121
2016-11-28,2.02,2.02,2.02,2.02,56800,1.97121
2016-11-25,2.02,2.03,2.02,2.02,68400,1.97121
2016-11-24,2.02,2.02,2.02,2.02,91500,1.97121
2016-11-23,2.02,2.02,2.02,2.02,87600,1.97121
2016-11-22,2.02,2.02,2.02,2.02,73600,1.97121
2016-11-21,2.05,2.05,2.02,2.02,47300,1.97121
2016-11-18,2.02,2.07,2.02,2.07,9800,2.02
2016-11-17,2.02,2.07,2.02,2.02,67600,1.97121
2016-11-16,2.02,2.05,2.02,2.05,48500,2.00048
2016-11-15,2.03,2.03,2.03,2.03,000,1.98097
2016-11-14,2.03,2.03,2.03,2.03,000,1.98097
2016-11-11,2.03,2.03,2.03,2.03,37400,1.98097
2016-11-10,2.03,2.03,2.03,2.03,7200,1.98097
2016-11-09,2.03,2.03,2.01,2.02,287800,1.97121
2016-11-08,2.02,2.03,2.02,2.03,7000,1.98097
2016-11-07,2.03,2.03,2.02,2.02,49700,1.97121
2016-11-04,2.02,2.02,2.02,2.02,135500,1.97121
2016-11-03,2.02,2.02,2.02,2.02,2900,1.97121
2016-11-02,2.02,2.03,2.02,2.02,78500,1.97121
2016-11-01,2.02,2.03,2.02,2.03,3200,1.98097
2016-10-31,2.02,2.02,2.02,2.02,64700,1.97121
2016-10-28,2.02,2.02,2.02,2.02,7400,1.97121
2016-10-27,2.02,2.02,2.02,2.02,11200,1.97121
2016-10-26,2.02,2.02,2.02,2.02,11300,1.97121
2016-10-25,2.02,2.02,2.02,2.02,77200,1.97121
2016-10-24,2.01,2.01,2.01,2.01,8000,1.96145
2016-10-21,2.01,2.05,2.01,2.05,14600,2.00048
2016-10-20,2.00,2.00,2.00,2.00,108800,1.95169
2016-10-19,2.00,2.00,2.00,2.00,47900,1.95169
2016-10-18,1.99,1.995,1.99,1.99,10800,1.94193
2016-10-17,2.00,2.00,1.98,1.98,20300,1.93217
2016-10-14,2.00,2.00,2.00,2.00,24300,1.95169
2016-10-13,1.98,2.01,1.98,2.01,21200,1.96145
2016-10-12,1.97,1.98,1.97,1.97,55600,1.92242
2016-10-11,1.96,1.96,1.96,1.96,000,1.91266
2016-10-10,1.96,1.96,1.96,1.96,63400,1.91266
2016-10-07,1.96,1.96,1.96,1.96,000,1.91266
2016-10-06,1.96,1.96,1.96,1.96,16100,1.91266
2016-10-05,1.96,1.96,1.96,1.96,36100,1.91266
2016-10-04,1.95,1.95,1.95,1.95,12200,1.9029
2016-10-03,1.94,1.95,1.94,1.95,60000,1.9029
2016-09-30,1.94,1.94,1.94,1.94,61000,1.89314
2016-09-29,1.94,1.94,1.94,1.94,16700,1.89314
2016-09-28,1.94,1.95,1.94,1.95,23800,1.9029
2016-09-27,1.95,1.95,1.95,1.95,20500,1.9029
2016-09-26,1.94,1.945,1.92,1.94,112300,1.89314
2016-09-23,1.90,1.94,1.87,1.94,59600,1.89314
2016-09-22,1.94,1.94,1.90,1.90,27200,1.85411
2016-09-21,1.93,1.94,1.90,1.94,105200,1.89314
2016-09-20,1.94,1.95,1.93,1.93,24400,1.88338
2016-09-19,1.95,1.95,1.95,1.95,15500,1.9029
2016-09-16,1.91,1.91,1.90,1.90,31500,1.85411
2016-09-15,1.90,1.90,1.90,1.90,000,1.85411
2016-09-14,1.925,1.925,1.90,1.90,27400,1.85411
2016-09-13,1.935,1.98,1.935,1.98,25500,1.93217
2016-09-12,2.00,2.00,1.95,1.95,8500,1.9029
2016-09-09,1.95,1.95,1.95,1.95,22500,1.9029
2016-09-08,1.95,1.95,1.95,1.95,000,1.9029
2016-09-07,1.925,1.95,1.925,1.95,26100,1.9029
2016-09-06,1.95,1.95,1.92,1.925,43500,1.8785
2016-09-05,1.93,1.93,1.93,1.93,600,1.88338
2016-09-02,1.95,1.95,1.95,1.95,000,1.9029
2016-09-01,1.95,1.95,1.93,1.95,80200,1.9029
2016-08-31,1.965,1.965,1.92,1.95,83100,1.9029
2016-08-30,1.99,1.99,1.99,1.99,4300,1.94193
2016-08-29,1.99,1.99,1.99,1.99,4500,1.94193
2016-08-26,1.99,2.00,1.99,1.99,14400,1.94193
2016-08-25,2.00,2.05,1.99,2.05,25100,2.00048
2016-08-24,1.99,2.00,1.99,2.00,19500,1.95169
2016-08-23,2.00,2.00,1.99,1.99,16000,1.94193
2016-08-22,2.04,2.04,1.99,2.00,65600,1.95169
2016-08-19,2.08,2.08,2.07,2.07,62000,2.02
2016-08-18,2.08,2.09,2.08,2.09,39200,2.03952
2016-08-17,2.08,2.08,2.08,2.08,9800,2.02976
2016-08-16,2.09,2.09,2.07,2.08,10800,2.02976
2016-08-15,2.09,2.09,2.09,2.09,19200,2.03952
2016-08-12,2.11,2.11,2.09,2.09,25400,2.03952
2016-08-11,2.11,2.11,2.11,2.11,000,2.05903
2016-08-10,2.11,2.11,2.11,2.11,000,2.05903
2016-08-09,2.11,2.11,2.11,2.11,38000,2.05903
2016-08-08,2.12,2.13,2.12,2.12,129000,2.06879
2016-08-05,2.12,2.13,2.12,2.13,38500,2.07855
2016-08-04,2.11,2.11,2.11,2.11,194900,2.05903
2016-08-03,2.05,2.10,2.04,2.10,63000,2.04928
2016-08-02,2.06,2.06,2.06,2.06,26900,2.01024
2016-08-01,2.06,2.07,2.05,2.07,3500,2.02
2016-07-29,2.07,2.07,2.07,2.07,65900,2.02
2016-07-28,2.07,2.08,2.07,2.07,269300,2.02
2016-07-27,2.08,2.08,2.08,2.08,000,2.02976
2016-07-26,2.06,2.08,2.06,2.08,24300,2.02976
2016-07-25,2.05,2.05,2.05,2.05,000,2.00048
2016-07-22,2.06,2.06,2.05,2.05,8500,2.00048
2016-07-21,2.06,2.08,2.06,2.07,90600,2.02
2016-07-20,2.07,2.10,2.05,2.10,22100,2.04928
2016-07-19,2.07,2.09,2.07,2.07,19200,2.02
2016-07-18,2.11,2.11,2.11,2.11,000,2.05903
2016-07-15,2.07,2.11,2.07,2.11,51500,2.05903
2016-07-14,2.07,2.12,2.07,2.12,500,2.06879
2016-07-13,2.05,2.07,2.05,2.07,9500,2.02
2016-07-12,2.06,2.14,2.06,2.14,20100,2.08831
2016-07-11,2.05,2.05,2.05,2.05,19500,2.00048
2016-07-08,2.07,2.07,2.07,2.07,94400,2.02
2016-07-07,2.07,2.13,2.06,2.06,114600,2.01024
2016-07-06,2.10,2.10,2.10,2.10,57200,2.04928
2016-07-05,2.08,2.08,2.07,2.07,198100,2.02
2016-07-04,2.20,2.21,2.09,2.13,71800,2.07855
2016-07-01,2.10,2.11,2.10,2.11,26600,2.05903
2016-06-30,2.12,2.12,2.10,2.10,26700,2.04928
2016-06-29,2.12,2.12,2.12,2.12,46600,2.06879
2016-06-28,2.20,2.21,2.20,2.20,100000,2.09807
2016-06-27,2.17,2.18,2.17,2.17,35600,2.06946
2016-06-24,2.11,2.16,2.11,2.16,8100,2.05992
2016-06-23,2.19,2.22,2.14,2.14,28800,2.04085
2016-06-22,2.20,2.22,2.20,2.22,17100,2.11714
2016-06-21,2.17,2.20,2.17,2.20,180000,2.09807
2016-06-20,2.20,2.20,2.20,2.20,7400,2.09807
2016-06-17,2.19,2.22,2.19,2.20,18200,2.09807
2016-06-16,2.18,2.18,2.18,2.18,43500,2.07899
2016-06-15,2.22,2.25,2.19,2.19,27000,2.08853
2016-06-14,2.17,2.17,2.17,2.17,000,2.06946
2016-06-13,2.17,2.17,2.17,2.17,000,2.06946
2016-06-10,2.17,2.25,2.17,2.17,43400,2.06946
2016-06-09,2.18,2.18,2.17,2.17,10500,2.06946
2016-06-08,2.19,2.19,2.19,2.19,3200,2.08853
2016-06-07,2.22,2.29,2.22,2.29,10400,2.1839
2016-06-06,2.29,2.29,2.29,2.29,2000,2.1839
2016-06-03,2.26,2.26,2.26,2.26,44200,2.15529
2016-06-02,2.26,2.26,2.26,2.26,54500,2.15529
2016-06-01,2.28,2.28,2.28,2.28,000,2.17436
2016-05-31,2.28,2.28,2.28,2.28,19700,2.17436
2016-05-30,2.28,2.29,2.28,2.29,35200,2.1839
2016-05-27,2.27,2.28,2.27,2.27,165900,2.16482
2016-05-26,2.27,2.27,2.27,2.27,53300,2.16482
2016-05-25,2.27,2.28,2.27,2.27,80200,2.16482
2016-05-24,2.26,2.26,2.26,2.26,46800,2.15529
2016-05-23,2.26,2.26,2.26,2.26,142700,2.15529
2016-05-20,2.25,2.25,2.25,2.25,63400,2.14575
2016-05-19,2.24,2.25,2.24,2.25,77200,2.14575
2016-05-18,2.22,2.22,2.22,2.22,117600,2.11714
2016-05-17,2.23,2.23,2.23,2.23,98600,2.12668
2016-05-16,2.24,2.25,2.24,2.24,241500,2.13621
2016-05-13,2.22,2.24,2.22,2.22,285600,2.11714
2016-05-12,2.21,2.21,2.21,2.21,68000,2.1076
2016-05-11,2.20,2.20,2.20,2.20,31800,2.09807
2016-05-10,2.22,2.22,2.22,2.22,83400,2.11714
2016-05-09,2.20,2.20,2.20,2.20,247100,2.09807
2016-05-06,2.18,2.18,2.18,2.18,000,2.07899
2016-05-05,2.18,2.19,2.18,2.18,273200,2.07899
2016-05-04,2.15,2.16,2.15,2.15,78300,2.05038
2016-05-03,2.10,2.10,2.10,2.10,11900,2.0027
2016-05-02,2.12,2.12,2.12,2.12,165800,2.02177
2016-04-29,2.12,2.12,2.11,2.11,18600,2.01224
2016-04-28,2.12,2.12,2.12,2.12,46400,2.02177
2016-04-27,2.09,2.10,2.09,2.10,46000,2.0027
2016-04-26,2.12,2.14,2.09,2.14,41800,2.04085
2016-04-25,2.12,2.12,2.12,2.12,000,2.02177
2016-04-22,2.10,2.12,2.10,2.12,13900,2.02177
2016-04-21,2.08,2.09,2.08,2.09,6600,1.99316
2016-04-20,2.08,2.08,2.08,2.08,12200,1.98363
2016-04-19,2.11,2.11,2.09,2.09,39800,1.99316
2016-04-18,2.12,2.14,2.12,2.12,24100,2.02177
2016-04-15,2.12,2.12,2.12,2.12,000,2.02177
2016-04-14,2.14,2.14,2.12,2.12,121900,2.02177
2016-04-13,2.16,2.17,2.16,2.17,13700,2.06946
2016-04-12,2.16,2.16,2.16,2.16,23000,2.05992
2016-04-11,2.14,2.17,2.14,2.17,2500,2.06946
2016-04-08,2.15,2.15,2.15,2.15,4600,2.05038
2016-04-07,2.18,2.18,2.18,2.18,000,2.07899
2016-04-06,2.18,2.19,2.18,2.18,88000,2.07899
2016-04-05,2.16,2.16,2.16,2.16,35000,2.05992
2016-04-04,2.15,2.15,2.14,2.14,32700,2.04085
2016-04-01,2.15,2.16,2.15,2.15,72600,2.05038
2016-03-31,2.14,2.15,2.14,2.15,67800,2.05038
2016-03-30,2.14,2.15,2.14,2.15,4300,2.05038
2016-03-29,2.14,2.14,2.14,2.14,83300,2.04085
2016-03-28,2.15,2.15,2.15,2.15,000,2.05038
2016-03-25,2.15,2.15,2.15,2.15,000,2.05038
2016-03-24,2.14,2.15,2.14,2.15,22000,2.05038
2016-03-23,2.14,2.14,2.14,2.14,149000,2.04085
2016-03-22,2.14,2.14,2.14,2.14,32600,2.04085
2016-03-21,2.14,2.14,2.14,2.14,23900,2.04085
2016-03-18,2.15,2.15,2.14,2.14,23700,2.04085
2016-03-17,2.14,2.14,2.14,2.14,46000,2.04085
2016-03-16,2.14,2.14,2.14,2.14,6500,2.04085
2016-03-15,2.14,2.15,2.14,2.14,45300,2.04085
2016-03-14,2.14,2.18,2.14,2.18,172700,2.07899
2016-03-11,2.14,2.14,2.14,2.14,000,2.04085
2016-03-10,2.14,2.14,2.14,2.14,000,2.04085
2016-03-09,2.14,2.14,2.14,2.14,43800,2.04085
2016-03-08,2.14,2.14,2.14,2.14,23700,2.04085
2016-03-07,2.14,2.14,2.14,2.14,36500,2.04085
2016-03-04,2.14,2.14,2.14,2.14,000,2.04085
2016-03-03,2.14,2.14,2.14,2.14,69900,2.04085
2016-03-02,2.14,2.14,2.14,2.14,81800,2.04085
2016-03-01,2.14,2.14,2.14,2.14,000,2.04085
2016-02-29,2.14,2.14,2.14,2.14,000,2.04085
2016-02-26,2.14,2.14,2.14,2.14,60700,2.04085
2016-02-25,2.14,2.14,2.14,2.14,74700,2.04085
2016-02-24,2.14,2.15,2.14,2.14,123500,2.04085
2016-02-23,2.14,2.14,2.14,2.14,72000,2.04085
2016-02-22,2.15,2.15,2.14,2.14,93100,2.04085
2016-02-19,2.15,2.16,2.15,2.16,600,2.05992
2016-02-18,2.17,2.17,2.17,2.17,31200,2.06946
2016-02-17,2.14,2.17,2.14,2.17,2900,2.06946
2016-02-16,2.14,2.14,2.14,2.14,76300,2.04085
2016-02-15,2.15,2.15,2.15,2.15,000,2.05038
2016-02-12,2.13,2.15,2.11,2.15,10500,2.05038
2016-02-11,2.11,2.11,2.11,2.11,26400,2.01224
2016-02-10,2.13,2.13,2.13,2.13,119200,2.03131
2016-02-09,2.12,2.13,2.12,2.13,4000,2.03131
2016-02-08,2.11,2.13,2.11,2.13,29400,2.03131
2016-02-05,2.10,2.10,2.10,2.10,3300,2.0027
2016-02-04,2.08,2.08,2.08,2.08,17000,1.98363
2016-02-03,2.08,2.08,2.08,2.08,000,1.98363
2016-02-02,2.11,2.11,2.08,2.08,24900,1.98363
2016-02-01,2.10,2.15,2.10,2.13,64800,2.03131
2016-01-29,2.15,2.15,2.14,2.14,83600,2.04085
2016-01-28,2.15,2.15,2.15,2.15,42900,2.05038
2016-01-27,2.15,2.15,2.15,2.15,9600,2.05038
2016-01-26,2.12,2.12,2.12,2.12,000,2.02177
2016-01-25,2.12,2.12,2.12,2.12,14100,2.02177
2016-01-22,2.12,2.12,2.12,2.12,13600,2.02177
2016-01-21,2.10,2.10,2.10,2.10,19600,2.0027
2016-01-20,2.10,2.11,2.10,2.10,55100,2.0027
2016-01-19,2.07,2.10,2.07,2.10,122500,2.0027
2016-01-18,2.05,2.09,2.05,2.07,124100,1.97409
2016-01-15,2.05,2.05,2.05,2.05,1300,1.95502
2016-01-14,2.08,2.08,2.05,2.05,45600,1.95502
2016-01-13,2.08,2.10,2.07,2.09,36200,1.99316
2016-01-12,2.05,2.07,2.05,2.07,14600,1.97409
2016-01-11,2.05,2.05,2.05,2.05,36300,1.95502
2016-01-08,2.08,2.08,2.00,2.01,42600,1.91687
2016-01-07,2.05,2.08,2.04,2.08,207900,1.98363
2016-01-06,2.05,2.07,2.01,2.07,29500,1.97409
2016-01-05,2.06,2.06,2.04,2.04,12400,1.94548
2016-01-04,2.05,2.06,2.05,2.06,1800,1.96455
2016-01-01,2.10,2.10,2.10,2.10,000,2.0027
2015-12-31,2.10,2.10,2.10,2.10,000,2.0027
2015-12-30,2.10,2.10,2.10,2.10,000,2.0027
2015-12-29,2.10,2.10,2.10,2.10,000,2.0027
2015-12-28,2.10,2.10,2.10,2.10,000,1.95502
2015-12-25,2.10,2.10,2.10,2.10,000,1.95502
2015-12-24,2.10,2.10,2.10,2.10,000,1.95502
2015-12-23,2.08,2.13,2.08,2.10,100600,1.95502
2015-12-22,2.08,2.08,2.08,2.08,000,1.9364
2015-12-21,2.07,2.08,1.99,2.08,126800,1.9364
2015-12-18,2.06,2.06,2.06,2.06,000,1.91778
2015-12-17,2.06,2.06,2.05,2.06,95700,1.91778
2015-12-16,2.13,2.13,2.05,2.06,144000,1.91778
2015-12-15,2.15,2.17,2.13,2.13,200400,1.98295
2015-12-14,2.16,2.22,2.13,2.13,110000,1.98295
2015-12-11,2.16,2.17,2.16,2.16,34300,2.01088
2015-12-10,2.20,2.20,2.20,2.20,195900,2.04811
2015-12-09,2.20,2.20,2.17,2.20,93200,2.04811
2015-12-08,2.22,2.22,2.22,2.22,000,2.06673
2015-12-07,2.22,2.22,2.22,2.22,18000,2.06673
2015-12-04,2.22,2.22,2.22,2.22,63000,2.06673
2015-12-03,2.22,2.24,2.22,2.24,87400,2.08535
2015-12-02,2.20,2.22,2.20,2.22,45200,2.06673
2015-12-01,2.20,2.20,2.17,2.17,8500,2.02018
2015-11-30,2.17,2.17,2.17,2.17,000,2.02018
2015-11-27,2.17,2.17,2.17,2.17,9200,2.02018
2015-11-26,2.17,2.17,2.17,2.17,27000,2.02018
2015-11-25,2.20,2.20,2.20,2.20,67600,2.04811
2015-11-24,2.22,2.22,2.20,2.20,39700,2.04811
2015-11-23,2.17,2.17,2.17,2.17,000,2.02018
2015-11-20,2.23,2.23,2.17,2.17,23100,2.02018
2015-11-19,2.23,2.23,2.23,2.23,67200,2.07604
2015-11-18,2.23,2.25,2.23,2.25,28200,2.09466
2015-11-17,2.23,2.26,2.23,2.23,27000,2.07604
2015-11-16,2.25,2.26,2.17,2.23,48400,2.07604
2015-11-13,2.16,2.23,2.15,2.23,131900,2.07604
2015-11-12,2.24,2.24,2.15,2.15,46200,2.00157
2015-11-11,2.24,2.24,2.24,2.24,000,2.08535
2015-11-10,2.20,2.24,2.20,2.24,17800,2.08535
2015-11-09,2.17,2.18,2.17,2.17,21100,2.02018
2015-11-06,2.20,2.24,2.17,2.17,85700,2.02018
2015-11-05,2.17,2.18,2.17,2.17,41100,2.02018
2015-11-04,2.20,2.20,2.20,2.20,18300,2.04811
2015-11-03,2.25,2.25,2.25,2.25,000,2.09466
2015-11-02,2.25,2.25,2.25,2.25,000,2.09466
2015-10-30,2.25,2.25,2.25,2.25,000,2.09466
2015-10-29,2.24,2.25,2.24,2.25,33700,2.09466
2015-10-28,2.13,2.20,2.13,2.20,54100,2.04811
2015-10-27,2.25,2.25,2.12,2.13,16800,1.98295
2015-10-26,2.26,2.26,2.25,2.25,100500,2.09466
2015-10-23,2.25,2.26,2.25,2.25,46200,2.09466
2015-10-22,2.12,2.25,2.12,2.25,30700,2.09466
2015-10-21,2.12,2.12,2.12,2.12,17500,1.97364
2015-10-20,2.20,2.20,2.12,2.20,58500,2.04811
2015-10-19,2.15,2.24,2.15,2.20,68500,2.04811
2015-10-16,2.17,2.17,2.15,2.15,8000,2.00157
2015-10-15,2.24,2.24,2.24,2.24,81300,2.08535
2015-10-14,2.20,2.24,2.20,2.24,99400,2.08535
2015-10-13,2.23,2.23,2.20,2.20,29500,2.04811
2015-10-12,2.20,2.24,2.20,2.23,46400,2.07604
2015-10-09,2.20,2.20,2.20,2.20,000,2.04811
2015-10-08,2.20,2.20,2.20,2.20,5600,2.04811
2015-10-07,2.26,2.26,2.20,2.20,23700,2.04811
2015-10-06,2.26,2.26,2.26,2.26,000,2.10397
2015-10-05,2.26,2.26,2.26,2.26,23000,2.10397
2015-10-02,2.25,2.25,2.25,2.25,000,2.09466
2015-10-01,2.25,2.25,2.25,2.25,47600,2.09466
2015-09-30,2.24,2.26,2.24,2.24,37800,2.08535
2015-09-29,2.24,2.25,2.24,2.24,57800,2.08535
2015-09-28,2.24,2.24,2.24,2.24,000,2.08535
2015-09-25,2.25,2.25,2.24,2.24,39800,2.08535
2015-09-24,2.24,2.24,2.24,2.24,1000,2.08535
2015-09-23,2.18,2.24,2.18,2.24,56800,2.08535
2015-09-22,2.25,2.25,2.20,2.20,70300,2.04811
2015-09-21,2.17,2.20,2.17,2.20,66500,2.04811
2015-09-18,2.19,2.19,2.19,2.19,10000,2.0388
2015-09-17,2.18,2.20,2.18,2.20,9300,2.04811
2015-09-16,2.21,2.21,2.20,2.20,22300,2.04811
2015-09-15,2.27,2.27,2.27,2.27,45800,2.11328
2015-09-14,2.29,2.29,2.27,2.27,6900,2.11328
2015-09-11,2.33,2.33,2.30,2.30,8800,2.14121
2015-09-10,2.35,2.35,2.28,2.33,96000,2.16914
2015-09-09,2.20,2.28,2.20,2.28,94200,2.12259
2015-09-08,2.18,2.22,2.18,2.20,158800,2.04811
2015-09-07,2.17,2.18,2.17,2.18,39600,2.02949
2015-09-04,2.17,2.17,2.17,2.17,000,2.02018
2015-09-03,2.16,2.17,2.16,2.17,25300,2.02018
2015-09-02,2.16,2.16,2.16,2.16,9800,2.01088
2015-09-01,2.17,2.17,2.17,2.17,108200,2.02018
2015-08-31,2.17,2.17,2.17,2.17,000,2.02018
2015-08-28,2.16,2.17,2.15,2.17,148100,2.02018
2015-08-27,2.18,2.18,2.17,2.17,147200,2.02018
2015-08-26,2.12,2.16,2.12,2.16,63800,2.01088
2015-08-25,2.07,2.12,2.07,2.12,49600,1.97364
2015-08-24,2.15,2.15,2.00,2.00,124100,1.86192
2015-08-21,2.13,2.14,2.05,2.14,82300,1.99226
2015-08-20,2.13,2.13,2.13,2.13,61000,1.98295
2015-08-19,2.09,2.13,2.03,2.13,59800,1.98295
2015-08-18,2.03,2.03,2.03,2.03,500,1.88985
2015-08-17,2.13,2.13,2.02,2.02,58900,1.88054
2015-08-14,2.10,2.11,2.10,2.11,79500,1.96433
2015-08-13,2.04,2.04,2.03,2.03,7500,1.88985
2015-08-12,2.10,2.15,2.10,2.15,49700,2.00157
2015-08-11,2.03,2.13,1.99,2.13,122200,1.98295
2015-08-10,2.12,2.14,2.03,2.03,56800,1.88985
2015-08-07,2.05,2.14,2.03,2.13,45900,1.98295
2015-08-06,2.11,2.15,2.05,2.05,84900,1.90847
2015-08-05,2.09,2.11,2.05,2.11,138200,1.96433
2015-08-04,2.09,2.10,2.05,2.05,112800,1.90847
2015-08-03,2.05,2.11,2.05,2.09,314300,1.94571
2015-07-31,2.05,2.06,2.05,2.05,322200,1.90847
2015-07-30,2.05,2.06,2.05,2.05,32700,1.90847
2015-07-29,2.05,2.07,2.05,2.05,65300,1.90847
2015-07-28,2.05,2.07,2.05,2.05,161800,1.90847
2015-07-27,2.05,2.07,2.05,2.07,227000,1.92709
2015-07-24,2.06,2.06,2.03,2.05,118700,1.90847
2015-07-23,2.05,2.07,2.05,2.06,89500,1.91778
2015-07-22,2.06,2.06,2.05,2.05,33800,1.90847
2015-07-21,2.05,2.06,2.05,2.06,11400,1.91778
2015-07-20,2.07,2.07,2.00,2.05,34600,1.90847
2015-07-17,2.19,2.20,2.09,2.09,17400,1.94571
2015-07-14,2.11,2.19,2.09,2.09,22900,1.94571
2015-07-13,2.15,2.21,2.11,2.11,150600,1.96433
2015-07-10,2.11,2.11,2.11,2.11,3000,1.96433
2015-07-09,2.20,2.20,2.20,2.20,18100,2.04811
2015-07-08,2.17,2.20,2.17,2.20,93500,2.04811
2015-07-07,2.15,2.19,2.08,2.19,128400,2.0388
2015-07-06,2.13,2.15,2.08,2.15,93100,2.00157
2015-07-03,2.14,2.14,2.14,2.14,27900,1.99226
2015-07-02,2.15,2.15,2.15,2.15,33300,2.00157
2015-07-01,2.13,2.13,2.13,2.13,176000,1.98295
2015-06-29,2.10,2.16,2.10,2.16,9500,2.01088
2015-06-26,2.12,2.12,2.11,2.11,21200,1.96433
2015-06-25,2.15,2.18,2.15,2.18,99800,1.98295
2015-06-24,2.16,2.17,2.15,2.15,46800,1.95566
2015-06-22,2.15,2.16,2.15,2.16,26200,1.96475
2015-06-19,2.15,2.15,2.10,2.15,50000,1.95566
2015-06-18,2.17,2.17,2.17,2.17,47900,1.97385
2015-06-17,2.17,2.17,2.17,2.17,157100,1.97385
2015-06-16,2.17,2.17,2.16,2.16,62100,1.96475
2015-06-15,2.17,2.17,2.17,2.17,67000,1.97385
2015-06-12,2.17,2.17,2.15,2.17,52500,1.97385
2015-06-11,2.17,2.17,2.16,2.17,23000,1.97385
2015-06-09,2.18,2.18,2.15,2.18,33800,1.98295
2015-06-05,2.19,2.19,2.16,2.19,63900,1.99204
2015-06-04,2.16,2.16,2.16,2.16,9200,1.96475
2015-06-03,2.16,2.16,2.07,2.16,20100,1.96475
2015-06-02,2.20,2.21,2.20,2.21,58800,2.01023
2015-06-01,2.20,2.20,2.20,2.20,83800,2.00114
2015-05-29,2.19,2.20,2.19,2.19,82100,1.99204
2015-05-28,2.18,2.18,2.17,2.17,92500,1.97385
2015-05-27,2.17,2.18,2.17,2.17,91700,1.97385
2015-05-26,2.15,2.17,2.15,2.15,127000,1.95566
2015-05-25,2.16,2.17,2.15,2.15,34000,1.95566
2015-05-22,2.13,2.17,2.13,2.17,141000,1.97385
2015-05-21,2.14,2.14,2.14,2.14,80900,1.94656
2015-05-20,2.12,2.12,2.12,2.12,28300,1.92837
2015-05-19,2.10,2.10,2.10,2.10,47600,1.91018
2015-05-18,2.09,2.09,2.09,2.09,21500,1.90108
2015-05-15,2.17,2.17,2.08,2.08,69700,1.89199
2015-05-14,2.11,2.13,2.07,2.13,20400,1.93747
2015-05-13,2.13,2.13,2.13,2.13,7400,1.93747
2015-05-12,2.13,2.13,2.13,2.13,23900,1.93747
2015-05-11,2.13,2.15,2.12,2.12,152000,1.92837
2015-05-08,2.14,2.14,2.13,2.13,22600,1.93747
2015-05-07,2.15,2.19,2.11,2.15,60200,1.95566
2015-05-06,2.17,2.17,2.12,2.12,44600,1.92837
2015-05-05,2.15,2.17,2.15,2.17,10800,1.97385
2015-05-04,2.19,2.19,2.14,2.14,78200,1.94656
2015-05-01,2.13,2.20,2.13,2.19,29700,1.99204
2015-04-30,2.15,2.15,2.10,2.11,46600,1.91927
2015-04-29,2.20,2.20,2.20,2.20,6300,2.00114
2015-04-28,2.15,2.21,2.15,2.21,10500,2.01023
2015-04-27,2.15,2.21,2.15,2.21,45000,2.01023
2015-04-24,2.16,2.16,2.16,2.16,108800,1.96475
2015-04-23,2.18,2.18,2.17,2.17,89000,1.97385
2015-04-22,2.19,2.19,2.18,2.18,5400,1.98295
2015-04-21,2.18,2.18,2.18,2.18,68500,1.98295
2015-04-20,2.18,2.18,2.15,2.18,107100,1.98295
2015-04-17,2.24,2.24,2.19,2.24,19800,2.03752
2015-04-16,2.19,2.21,2.19,2.19,137000,1.99204
2015-04-15,2.21,2.21,2.20,2.20,77900,2.00114
2015-04-14,2.22,2.23,2.22,2.22,42600,2.01933
2015-04-13,2.19,2.20,2.19,2.19,262700,1.99204
2015-04-10,2.19,2.20,2.18,2.20,166800,2.00114
2015-04-09,2.19,2.19,2.19,2.19,20500,1.99204
2015-04-08,2.20,2.20,2.20,2.20,29500,2.00114
2015-04-07,2.21,2.22,2.21,2.21,86800,2.01023
2015-04-02,2.22,2.22,2.21,2.21,32800,2.01023
2015-04-01,2.21,2.22,2.21,2.22,169800,2.01933
2015-03-31,2.20,2.21,2.20,2.20,138200,2.00114
2015-03-30,2.17,2.17,2.17,2.17,20700,1.97385
2015-03-27,2.16,2.16,2.16,2.16,37000,1.96475
2015-03-25,2.18,2.20,2.16,2.20,19400,2.00114
2015-03-24,2.18,2.18,2.16,2.16,19700,1.96475
2015-03-23,2.20,2.20,2.16,2.16,16300,1.96475
2015-03-20,2.20,2.20,2.20,2.20,4500,2.00114
2015-03-19,2.16,2.16,2.16,2.16,131700,1.96475
2015-03-17,2.20,2.20,2.20,2.20,95300,2.00114
2015-03-16,2.23,2.23,2.21,2.21,45400,2.01023
2015-03-13,2.18,2.18,2.18,2.18,28800,1.98295
2015-03-12,2.22,2.22,2.22,2.22,2700,2.01933
2015-03-11,2.21,2.24,2.21,2.24,287100,2.03752
2015-03-10,2.19,2.19,2.19,2.19,1000,1.99204
2015-03-09,2.17,2.19,2.17,2.19,34100,1.99204
2015-03-05,2.17,2.17,2.16,2.17,26600,1.97385
2015-03-04,2.15,2.17,2.15,2.17,21200,1.97385
2015-03-03,2.16,2.17,2.16,2.16,26500,1.96475
2015-03-02,2.15,2.15,2.15,2.15,111800,1.95566
2015-02-27,2.16,2.17,2.16,2.16,18300,1.96475
2015-02-26,2.15,2.17,2.14,2.14,23700,1.94656
2015-02-25,2.15,2.15,2.15,2.15,31400,1.95566
2015-02-24,2.16,2.16,2.16,2.16,124300,1.96475
2015-02-23,2.14,2.14,2.14,2.14,194400,1.94656
2015-02-20,2.16,2.16,2.16,2.16,2700,1.96475
2015-02-19,2.15,2.15,2.15,2.15,66000,1.95566
2015-02-18,2.15,2.18,2.15,2.18,100900,1.98295
2015-02-17,2.17,2.17,2.16,2.17,13300,1.97385
2015-02-16,2.18,2.18,2.16,2.16,19700,1.96475
2015-02-13,2.17,2.17,2.17,2.17,47300,1.97385
2015-02-12,2.18,2.19,2.18,2.19,76600,1.99204
2015-02-11,2.16,2.19,2.16,2.17,7700,1.97385
2015-02-10,2.15,2.15,2.15,2.15,50600,1.95566
2015-02-09,2.17,2.18,2.17,2.18,117300,1.98295
2015-02-06,2.18,2.18,2.15,2.18,41300,1.98295
2015-02-05,2.17,2.17,2.17,2.17,66000,1.97385
2015-02-04,2.19,2.19,2.15,2.15,22300,1.95566
2015-02-03,2.19,2.19,2.19,2.19,2000,1.99204
2015-02-02,2.16,2.19,2.16,2.17,54200,1.97385
2015-01-30,2.17,2.17,2.17,2.17,65100,1.97385
2015-01-28,2.13,2.13,2.13,2.13,900,1.93747
2015-01-27,2.12,2.23,2.12,2.22,49300,2.01933
2015-01-23,2.10,2.10,2.10,2.10,7100,1.91018
2015-01-22,2.07,2.07,2.07,2.07,96300,1.88289
2015-01-21,2.06,2.06,2.05,2.05,4900,1.8647
2015-01-20,2.10,2.10,2.10,2.10,7100,1.91018
2015-01-19,2.10,2.10,2.10,2.10,1600,1.91018
2015-01-16,2.10,2.10,2.10,2.10,300,1.91018
2015-01-15,2.07,2.07,2.06,2.06,88500,1.87379
2015-01-14,2.06,2.06,2.06,2.06,112000,1.87379
2015-01-13,2.06,2.06,2.06,2.06,22100,1.87379
2015-01-12,2.10,2.12,2.05,2.05,37800,1.8647
2015-01-09,2.15,2.15,2.07,2.07,36400,1.88289
2015-01-08,2.25,2.25,2.12,2.12,53200,1.92837
2015-01-07,2.24,2.24,2.24,2.24,11700,2.03752
2015-01-06,2.25,2.25,2.25,2.25,2500,2.04662
2015-01-05,2.20,2.24,2.20,2.24,22700,2.03752
2015-01-02,2.24,2.24,2.20,2.20,6400,2.00114
2014-12-31,2.23,2.23,2.18,2.20,16500,2.00114
2014-12-30,2.28,2.28,2.22,2.23,31400,2.02843
2014-12-29,2.25,2.28,2.18,2.28,26500,2.07391
2014-12-23,2.16,2.19,2.16,2.19,15400,1.94656
2014-12-22,2.19,2.19,2.19,2.19,3300,1.94656
2014-12-19,2.13,2.14,2.13,2.14,5300,1.90212
2014-12-17,2.10,2.10,2.09,2.09,35000,1.85768
2014-12-16,2.09,2.10,2.09,2.10,269300,1.86657
2014-12-15,2.09,2.09,2.08,2.08,281900,1.84879
2014-12-12,2.08,2.09,2.08,2.08,269500,1.84879
2014-12-11,2.08,2.08,2.07,2.07,140000,1.8399
2014-12-10,2.09,2.10,2.07,2.10,321000,1.86657
2014-12-09,2.11,2.11,2.09,2.10,27800,1.86657
2014-12-08,2.14,2.14,2.11,2.11,47100,1.87545
2014-12-05,2.06,2.22,2.06,2.14,29100,1.90212
2014-12-04,2.05,2.06,2.05,2.06,159700,1.83101
2014-12-03,2.04,2.04,2.04,2.04,49900,1.81324
2014-12-02,2.02,2.03,2.02,2.02,46800,1.79546
2014-12-01,2.03,2.04,2.03,2.03,45900,1.80435
2014-11-28,2.01,2.01,2.01,2.01,40000,1.78657
2014-11-27,2.01,2.01,2.01,2.01,10800,1.78657
2014-11-26,2.02,2.04,1.97,2.02,122500,1.79546
2014-11-25,2.00,2.00,2.00,2.00,73300,1.77768
2014-11-21,1.99,1.99,1.99,1.99,32700,1.76879
2014-11-20,2.00,2.00,2.00,2.00,14200,1.77768
2014-11-19,1.97,1.98,1.97,1.97,42000,1.75102
2014-11-18,1.97,1.97,1.97,1.97,1000,1.75102
2014-11-17,1.97,1.97,1.96,1.96,50600,1.74213
2014-11-14,1.97,1.97,1.97,1.97,35300,1.75102
2014-11-13,1.97,2.00,1.97,1.98,58200,1.75991
2014-11-12,1.98,1.98,1.98,1.98,10900,1.75991
2014-11-11,1.99,1.99,1.99,1.99,11600,1.76879
2014-11-10,2.00,2.00,1.99,1.99,32500,1.76879
2014-11-07,2.01,2.01,2.01,2.01,40700,1.78657
2014-11-06,2.00,2.01,2.00,2.00,143200,1.77768
2014-11-04,1.98,1.99,1.98,1.99,7700,1.76879
2014-11-03,1.97,1.97,1.97,1.97,4000,1.75102
2014-10-31,1.95,1.98,1.95,1.98,75900,1.75991
2014-10-30,1.97,1.97,1.97,1.97,9600,1.75102
2014-10-29,1.94,1.95,1.94,1.95,62200,1.73324
2014-10-28,1.95,1.98,1.95,1.98,6700,1.75991
2014-10-27,1.95,1.95,1.95,1.95,40400,1.73324
2014-10-24,1.97,1.97,1.96,1.96,55000,1.74213
2014-10-23,1.96,1.96,1.96,1.96,2800,1.74213
2014-10-22,1.96,1.96,1.96,1.96,400,1.74213
2014-10-21,1.96,1.96,1.96,1.96,43000,1.74213
2014-10-20,1.99,1.99,1.96,1.96,78500,1.74213
2014-10-17,1.96,1.98,1.96,1.98,69000,1.75991
2014-10-16,1.96,1.98,1.96,1.98,24100,1.75991
2014-10-14,1.98,1.98,1.98,1.98,1000,1.75991
2014-10-13,1.98,1.995,1.98,1.98,26400,1.75991
2014-10-10,1.96,1.98,1.96,1.96,34100,1.74213
2014-10-09,1.95,1.95,1.95,1.95,10700,1.73324
2014-10-08,1.99,1.99,1.96,1.96,78600,1.74213
2014-10-07,1.995,1.995,1.99,1.995,20200,1.77324
2014-10-03,1.99,2.01,1.99,2.01,22700,1.78657
2014-10-02,2.00,2.00,2.00,2.00,7200,1.77768
2014-10-01,2.00,2.05,1.98,2.05,42900,1.82212
2014-09-30,1.97,1.98,1.97,1.98,227700,1.75991
2014-09-29,1.97,1.97,1.96,1.97,26000,1.75102
2014-09-26,1.96,1.98,1.96,1.97,53500,1.75102
2014-09-24,1.96,1.96,1.94,1.94,167900,1.72435
2014-09-23,1.94,1.96,1.94,1.96,98500,1.74213
2014-09-18,1.92,1.92,1.92,1.92,139200,1.70657
2014-09-17,1.90,1.90,1.89,1.89,6000,1.67991
2014-09-16,1.915,1.915,1.90,1.90,50400,1.6888
2014-09-15,1.91,1.92,1.91,1.92,79800,1.70657
2014-09-12,1.89,1.90,1.89,1.90,3500,1.6888
2014-09-11,1.88,1.88,1.88,1.88,16600,1.67102
2014-09-10,1.86,1.86,1.86,1.86,123100,1.65324
2014-09-09,1.85,1.85,1.85,1.85,118300,1.64436
2014-09-08,1.84,1.84,1.84,1.84,3100,1.63547
2014-09-05,1.86,1.86,1.84,1.84,26900,1.63547
2014-09-04,1.855,1.86,1.855,1.86,26900,1.65324
2014-09-03,1.85,1.85,1.85,1.85,63300,1.64436
2014-09-02,1.85,1.855,1.85,1.855,42000,1.6488
2014-09-01,1.82,1.86,1.82,1.85,436800,1.64436
2014-08-27,1.82,1.82,1.82,1.82,36600,1.61769
2014-08-26,1.82,1.82,1.82,1.82,200,1.61769
2014-08-25,1.82,1.82,1.82,1.82,9300,1.61769
2014-08-22,1.82,1.82,1.82,1.82,44500,1.61769
2014-08-20,1.83,1.83,1.82,1.82,6500,1.61769
2014-08-19,1.82,1.83,1.82,1.83,28700,1.62658
2014-08-18,1.82,1.82,1.82,1.82,61700,1.61769
2014-08-14,1.82,1.82,1.82,1.82,29700,1.61769
2014-08-13,1.83,1.84,1.83,1.83,195000,1.62658
2014-08-11,1.83,1.83,1.83,1.83,90800,1.62658
2014-08-08,1.83,1.83,1.80,1.83,173300,1.62658
2014-08-07,1.81,1.81,1.81,1.81,376800,1.6088
2014-08-06,1.82,1.82,1.82,1.82,28700,1.61769
2014-08-05,1.81,1.81,1.81,1.81,50100,1.6088
2014-08-04,1.82,1.82,1.82,1.82,5600,1.61769
2014-08-01,1.82,1.83,1.82,1.82,154400,1.61769
2014-07-31,1.82,1.82,1.81,1.82,395500,1.61769
2014-07-30,1.81,1.81,1.81,1.81,37600,1.6088
2014-07-29,1.80,1.80,1.80,1.80,11000,1.59991
2014-07-28,1.80,1.80,1.80,1.80,31500,1.59991
2014-07-25,1.80,1.80,1.80,1.80,27100,1.59991
2014-07-24,1.81,1.81,1.80,1.80,59800,1.59991
2014-07-23,1.81,1.81,1.775,1.80,144300,1.59991
2014-07-22,1.80,1.80,1.80,1.80,117900,1.59991
2014-07-21,1.80,1.80,1.80,1.80,3300,1.59991
2014-07-18,1.80,1.80,1.80,1.80,64500,1.59991
2014-07-17,1.80,1.80,1.80,1.80,45000,1.59991
2014-07-16,1.81,1.81,1.80,1.80,7700,1.59991
2014-07-15,1.80,1.80,1.79,1.80,134100,1.59991
2014-07-14,1.80,1.81,1.80,1.81,5200,1.6088
2014-07-09,1.80,1.81,1.80,1.80,129100,1.59991
2014-07-08,1.80,1.80,1.80,1.80,49000,1.59991
2014-07-04,1.80,1.80,1.80,1.80,800,1.59991
2014-07-03,1.80,1.80,1.80,1.80,55300,1.59991
2014-07-02,1.80,1.80,1.80,1.80,21000,1.59991
2014-07-01,1.80,1.81,1.795,1.795,86900,1.59547
2014-06-30,1.77,1.795,1.77,1.795,45200,1.59547
2014-06-27,1.77,1.77,1.77,1.77,1300,1.57325
2014-06-26,1.77,1.77,1.77,1.77,51100,1.57325
2014-06-24,1.825,1.825,1.81,1.81,63000,1.56436
2014-06-23,1.82,1.84,1.82,1.82,56200,1.573
2014-06-20,1.83,1.84,1.83,1.84,50000,1.59029
2014-06-18,1.83,1.835,1.83,1.83,34300,1.58165
2014-06-17,1.825,1.83,1.82,1.83,15300,1.58165
2014-06-16,1.83,1.83,1.82,1.82,5500,1.573
2014-06-13,1.81,1.81,1.81,1.81,30600,1.56436
2014-06-12,1.82,1.82,1.82,1.82,000,1.573
2014-06-11,1.82,1.82,1.82,1.82,17100,1.573
2014-06-10,1.82,1.82,1.82,1.82,92500,1.573
2014-06-06,1.82,1.835,1.81,1.83,155400,1.58165
2014-06-05,1.84,1.84,1.84,1.84,39300,1.59029
2014-06-04,1.84,1.84,1.84,1.84,5400,1.59029
2014-06-03,1.84,1.84,1.84,1.84,7300,1.59029
2014-06-02,1.83,1.835,1.83,1.83,94300,1.58165
2014-05-30,1.825,1.835,1.81,1.835,57900,1.58597
2014-05-29,1.825,1.84,1.81,1.83,88000,1.58165
2014-05-28,1.83,1.84,1.825,1.835,116500,1.58597
2014-05-26,1.825,1.825,1.825,1.825,000,1.57732
2014-05-23,1.84,1.84,1.825,1.825,72600,1.57732
2014-05-22,1.85,1.86,1.845,1.85,2800,1.59893
2014-05-21,1.84,1.85,1.84,1.85,132100,1.59893
2014-05-19,1.825,1.835,1.825,1.835,66500,1.58597
2014-05-16,1.82,1.84,1.82,1.825,109800,1.57732
2014-05-15,1.83,1.83,1.82,1.82,32800,1.573
2014-05-14,1.83,1.83,1.83,1.83,000,1.58165
2014-05-13,1.835,1.84,1.82,1.82,34300,1.573
2014-05-12,1.83,1.835,1.83,1.83,77500,1.58165
2014-05-09,1.82,1.82,1.82,1.82,000,1.573
2014-05-08,1.83,1.83,1.81,1.81,338100,1.56436
2014-05-07,1.83,1.83,1.81,1.83,120900,1.58165
2014-05-06,1.82,1.847,1.81,1.81,241300,1.56436
2014-05-05,1.82,1.82,1.82,1.82,35300,1.573
2014-05-02,1.84,1.84,1.81,1.81,219100,1.56436
2014-05-01,1.83,1.83,1.83,1.83,42200,1.58165
2014-04-30,1.84,1.84,1.81,1.81,51300,1.56436
2014-04-29,1.81,1.84,1.81,1.81,40700,1.56436
2014-04-28,1.85,1.85,1.84,1.84,485800,1.59029
2014-04-24,1.83,1.835,1.83,1.835,65600,1.58597
2014-04-23,1.82,1.82,1.82,1.82,000,1.573
2014-04-22,1.83,1.83,1.83,1.83,54600,1.58165
2014-04-17,1.82,1.82,1.82,1.82,000,1.573
2014-04-16,1.84,1.84,1.84,1.84,000,1.59029
2014-04-15,1.825,1.84,1.82,1.82,39400,1.573
2014-04-14,1.84,1.84,1.84,1.84,500,1.59029
2014-04-11,1.825,1.84,1.825,1.84,50400,1.59029
2014-04-10,1.825,1.835,1.825,1.835,2200,1.58597
2014-04-09,1.83,1.835,1.825,1.835,72200,1.58597
2014-04-08,1.825,1.84,1.825,1.835,58700,1.58597
2014-04-07,1.84,1.84,1.84,1.84,5200,1.59029
2014-04-04,1.84,1.84,1.825,1.84,133500,1.59029
2014-04-03,1.84,1.84,1.825,1.825,9700,1.57732
2014-04-02,1.835,1.84,1.83,1.84,117500,1.59029
2014-04-01,1.84,1.84,1.815,1.815,84800,1.56868
2014-03-31,1.82,1.84,1.80,1.80,74200,1.55572
2014-03-28,1.82,1.835,1.81,1.835,117100,1.58597
2014-03-27,1.805,1.81,1.77,1.81,50500,1.56436
2014-03-26,1.83,1.84,1.82,1.82,98100,1.573
2014-03-25,1.80,1.80,1.80,1.80,12000,1.55572
2014-03-24,1.83,1.83,1.80,1.80,19400,1.55572
2014-03-21,1.80,1.80,1.80,1.80,18700,1.55572
2014-03-20,1.805,1.85,1.78,1.85,294300,1.59893
2014-03-19,1.795,1.81,1.795,1.81,34500,1.56436
2014-03-18,1.81,1.81,1.78,1.785,25800,1.54275
2014-03-17,1.82,1.82,1.81,1.81,88500,1.56436
2014-03-14,1.83,1.83,1.80,1.80,42000,1.55572
2014-03-13,1.82,1.84,1.81,1.81,38600,1.56436
2014-03-12,1.82,1.82,1.77,1.80,197400,1.55572
2014-03-11,1.84,1.84,1.80,1.80,103800,1.55572
2014-03-10,1.81,1.85,1.80,1.85,30500,1.59893
2014-03-07,1.85,1.86,1.81,1.81,43800,1.56436
2014-03-06,1.86,1.88,1.86,1.86,42300,1.60757
2014-03-05,1.82,1.87,1.795,1.86,324400,1.60757
2014-03-04,1.835,1.835,1.835,1.835,000,1.58597
2014-03-03,1.85,1.85,1.82,1.85,18700,1.59893
2014-02-28,1.855,1.855,1.855,1.855,000,1.60325
2014-02-27,1.86,1.86,1.85,1.85,12500,1.59893
2014-02-26,1.86,1.86,1.85,1.86,111200,1.60757
2014-02-25,1.835,1.87,1.835,1.86,44100,1.60757
2014-02-24,1.84,1.88,1.82,1.88,99100,1.62486
2014-02-21,1.85,1.85,1.82,1.82,10900,1.573
2014-02-20,1.86,1.88,1.85,1.87,154400,1.61622
2014-02-19,1.86,1.87,1.85,1.85,214300,1.59893
2014-02-18,1.85,1.865,1.85,1.865,34000,1.6119
2014-02-17,1.85,1.87,1.85,1.865,24600,1.6119
2014-02-14,1.87,1.88,1.865,1.865,75700,1.6119
2014-02-13,1.87,1.87,1.85,1.87,181200,1.61622
2014-02-12,1.87,1.87,1.85,1.85,141400,1.59893
2014-02-11,1.88,1.88,1.865,1.865,86100,1.6119
2014-02-10,1.855,1.88,1.85,1.88,58900,1.62486
2014-02-07,1.88,1.88,1.85,1.87,51100,1.61622
2014-02-06,1.89,1.89,1.885,1.885,37100,1.62918
2014-02-05,1.89,1.89,1.85,1.85,168300,1.59893
2014-02-04,1.90,1.90,1.88,1.88,43900,1.62486
2014-02-03,1.90,1.91,1.90,1.905,34200,1.64647
2014-01-31,1.94,1.94,1.895,1.91,236900,1.65079
2014-01-30,1.92,1.92,1.90041,1.92,1769300,1.65943
2014-01-29,1.90041,1.9102,1.90041,1.9102,1411000,1.65096
2014-01-28,1.9102,1.92,1.9102,1.92,1618300,1.65943
2014-01-24,1.86123,1.9102,1.86123,1.9102,1703400,1.65096
2014-01-23,1.89061,1.89061,1.88082,1.89061,1449800,1.63403
2014-01-22,1.90041,1.9102,1.89061,1.90041,4751200,1.6425
2014-01-21,1.90041,1.92,1.90041,1.90041,78800,1.6425
2014-01-20,1.9102,1.94449,1.9102,1.9298,86300,1.6679
2014-01-17,1.90041,1.90041,1.89551,1.90041,156800,1.6425
2014-01-16,1.88082,1.88082,1.88082,1.88082,29600,1.62557
2014-01-15,1.87102,1.90041,1.87102,1.87102,68500,1.6171
2014-01-14,1.83674,1.86123,1.80735,1.85143,246300,1.60017
2014-01-13,1.86123,1.87592,1.83184,1.87592,24100,1.62133
2014-01-10,1.86612,1.86612,1.86123,1.86123,26700,1.60864
2014-01-09,1.85143,1.86612,1.85143,1.86612,15300,1.61286
2014-01-07,1.9102,1.9249,1.9102,1.9249,12500,1.66367
2014-01-06,1.90531,1.9102,1.90531,1.9102,6200,1.65096
2014-01-02,1.9102,1.9102,1.89551,1.9102,15600,1.65096
2013-12-30,1.89061,1.89551,1.89061,1.89551,2700,1.63827
2013-12-24,1.83184,1.90041,1.82204,1.90041,39500,1.6425
2013-12-23,1.85143,1.85143,1.85143,1.85143,4000,1.60017
2013-12-20,1.88082,1.89061,1.88082,1.89061,15300,1.59082
2013-12-18,1.88082,1.88082,1.88082,1.88082,1100,1.58258
2013-12-13,1.85143,1.86123,1.85143,1.85143,59900,1.55785
2013-12-12,1.83184,1.84163,1.77796,1.83184,91500,1.54137
2013-12-11,1.81225,1.84163,1.81225,1.84163,9800,1.5496
2013-12-10,1.82204,1.82204,1.82204,1.82204,200,1.53312
2013-12-09,1.82204,1.82204,1.81225,1.81225,35900,1.52488
2013-12-06,1.82204,1.82204,1.82204,1.82204,5000,1.53312
2013-12-04,1.81225,1.81225,1.81225,1.81225,44900,1.52488
2013-12-03,1.82204,1.83184,1.81225,1.83184,161800,1.54137
2013-12-02,1.82694,1.82694,1.81225,1.81225,6500,1.52488
2013-11-29,1.82204,1.82204,1.82204,1.82204,37300,1.53312
2013-11-28,1.82204,1.83184,1.82204,1.82204,73000,1.53312
2013-11-27,1.82204,1.83184,1.81225,1.81225,67700,1.52488
2013-11-26,1.80245,1.81714,1.80245,1.81714,2000,1.529
2013-11-25,1.80245,1.82204,1.80245,1.82204,14800,1.53312
2013-11-22,1.79265,1.80245,1.79265,1.80245,15100,1.51664
2013-11-21,1.78776,1.79265,1.77306,1.77306,48300,1.49191
2013-11-19,1.76327,1.76327,1.76327,1.76327,68000,1.48367
2013-11-18,1.76327,1.76327,1.76327,1.76327,23900,1.48367
2013-11-15,1.77306,1.77306,1.76327,1.76327,25500,1.48367
2013-11-13,1.78286,1.78286,1.78286,1.78286,65300,1.50015
2013-11-12,1.78286,1.78286,1.77306,1.77306,36000,1.49191
2013-11-11,1.76327,1.76327,1.76327,1.76327,24400,1.48367
2013-11-07,1.74367,1.74367,1.73388,1.74367,36000,1.46718
2013-11-06,1.75347,1.75347,1.74367,1.74367,53300,1.46718
2013-11-01,1.75347,1.79265,1.75347,1.79265,11700,1.50839
2013-10-31,1.76327,1.76327,1.76327,1.76327,12200,1.48367
2013-10-30,1.79265,1.79265,1.79265,1.79265,28000,1.50839
2013-10-29,1.76327,1.76327,1.76327,1.76327,6200,1.48367
2013-10-28,1.74367,1.76327,1.74367,1.76327,22300,1.48367
2013-10-25,1.78286,1.78286,1.74367,1.75837,24200,1.47955
2013-10-24,1.79265,1.79265,1.79265,1.79265,5100,1.50839
2013-10-22,1.75347,1.75347,1.74367,1.74367,27700,1.46718
2013-10-21,1.75837,1.75837,1.75347,1.75347,17100,1.47542
2013-10-18,1.76327,1.76327,1.75837,1.75837,4300,1.47955
2013-10-17,1.74367,1.74367,1.74367,1.74367,500,1.46718
2013-10-16,1.77306,1.77306,1.75347,1.76327,122000,1.48367
2013-10-15,1.81225,1.81225,1.81225,1.81225,500,1.52488
2013-10-11,1.81225,1.81225,1.81225,1.81225,2200,1.52488
2013-10-10,1.81225,1.81225,1.81225,1.81225,2700,1.52488
2013-10-09,1.81225,1.81225,1.81225,1.81225,37100,1.52488
2013-10-08,1.81225,1.83184,1.81225,1.81225,66400,1.52488
2013-10-07,1.81714,1.81714,1.81714,1.81714,5800,1.529
2013-10-04,1.81225,1.81225,1.81225,1.81225,200,1.52488
2013-10-03,1.81225,1.83184,1.81225,1.83184,17000,1.54137
2013-10-02,1.83184,1.83184,1.81225,1.81225,90700,1.52488
2013-10-01,1.85143,1.85143,1.83184,1.83184,60400,1.54137
2013-09-27,1.82204,1.82204,1.81225,1.81225,5500,1.52488
2013-09-26,1.82204,1.82204,1.82204,1.82204,10100,1.53312
2013-09-25,1.82204,1.85143,1.82204,1.82204,30900,1.53312
2013-09-24,1.84163,1.84163,1.81225,1.81225,9100,1.52488
2013-09-23,1.80245,1.81225,1.79265,1.80245,32500,1.51664
2013-09-19,1.79265,1.79265,1.79265,1.79265,16500,1.50839
2013-09-17,1.78286,1.78286,1.77306,1.77306,11200,1.49191
2013-09-16,1.78286,1.78286,1.76327,1.76327,19000,1.48367
2013-09-13,1.79265,1.79265,1.78286,1.78286,87000,1.50015
2013-09-12,1.81225,1.85143,1.77306,1.77306,86900,1.49191
2013-09-11,1.81225,1.81225,1.81225,1.81225,500,1.52488
2013-09-09,1.80735,1.81225,1.80735,1.81225,24400,1.52488
2013-09-06,1.85143,1.85143,1.82204,1.82204,19000,1.53312
2013-09-05,1.80245,1.80245,1.80245,1.80245,27100,1.51664
2013-09-04,1.84163,1.84163,1.83184,1.83184,23100,1.54137
2013-09-03,1.84163,1.85143,1.84163,1.85143,26600,1.55785
2013-09-02,1.85143,1.85143,1.85143,1.85143,143700,1.55785
2013-08-30,1.88082,1.88082,1.81225,1.85143,116200,1.55785
2013-08-29,1.86123,1.88571,1.85143,1.85143,71900,1.55785
2013-08-28,1.84163,1.84163,1.84163,1.84163,40600,1.5496
2013-08-27,1.83184,1.83184,1.83184,1.83184,49300,1.54137
2013-08-26,1.83184,1.83184,1.83184,1.83184,64500,1.54137
2013-08-23,1.83184,1.83184,1.83184,1.83184,13600,1.54137
2013-08-22,1.81225,1.84163,1.81225,1.84163,113100,1.5496
2013-08-20,1.77306,1.77306,1.77306,1.77306,6700,1.49191
2013-08-19,1.78776,1.78776,1.74367,1.74367,38500,1.46718
2013-08-16,1.78776,1.83184,1.78776,1.78776,14700,1.50428
2013-08-14,1.76327,1.76327,1.76327,1.76327,5600,1.48367
2013-08-13,1.78286,1.78286,1.76327,1.76327,39200,1.48367
2013-08-12,1.83184,1.83184,1.78286,1.78286,41100,1.50015
2013-08-09,1.80245,1.83184,1.80245,1.83184,14200,1.54137
2013-08-08,1.82204,1.82204,1.80245,1.80245,19300,1.51664
2013-08-07,1.82204,1.82204,1.82204,1.82204,100,1.53312
2013-08-06,1.81225,1.82204,1.81225,1.82204,3500,1.53312
2013-08-02,1.81225,1.81225,1.81225,1.81225,10900,1.52488
2013-08-01,1.82204,1.82204,1.81225,1.81225,31700,1.52488
2013-07-31,1.81225,1.82204,1.81225,1.82204,3600,1.53312
2013-07-30,1.82204,1.82204,1.80245,1.81225,13100,1.52488
2013-07-26,1.83184,1.83184,1.81225,1.81225,26100,1.52488
2013-07-25,1.80245,1.80245,1.80245,1.80245,3000,1.51664
2013-07-24,1.79265,1.79265,1.78286,1.79265,37000,1.50839
2013-07-23,1.80245,1.80245,1.78286,1.78286,7600,1.50015
2013-07-22,1.80245,1.80245,1.80245,1.80245,400,1.51664
2013-07-18,1.80245,1.80245,1.76327,1.78286,39700,1.50015
2013-07-17,1.86123,1.87102,1.86123,1.87102,13700,1.57433
2013-07-16,1.82204,1.82204,1.79265,1.79265,17000,1.50839
2013-07-15,1.84163,1.84163,1.84163,1.84163,18000,1.5496
2013-07-12,1.84163,1.84163,1.84163,1.84163,900,1.5496
2013-07-10,1.84163,1.84163,1.84163,1.84163,500,1.5496
2013-07-09,1.84163,1.86123,1.84163,1.86123,6600,1.5661
2013-07-08,1.86123,1.86123,1.84163,1.84163,16700,1.5496
2013-07-04,1.82204,1.82204,1.77306,1.81225,57000,1.52488
2013-07-03,1.86123,1.86123,1.86123,1.86123,5100,1.5661
2013-07-02,1.81225,1.82204,1.81225,1.82204,1200,1.53312
2013-06-28,1.84163,1.84163,1.81225,1.81225,9800,1.52488
2013-06-27,1.86123,1.86123,1.81225,1.84163,25900,1.5496
2013-06-26,1.86123,1.86123,1.86123,1.86123,9700,1.5661
2013-06-24,1.81225,1.81225,1.79265,1.80245,9700,1.51664
2013-06-21,1.83184,1.86123,1.83184,1.86123,34300,1.52402
2013-06-20,1.77306,1.79265,1.77306,1.78286,12000,1.45985
2013-06-19,1.78776,1.78776,1.78776,1.78776,4500,1.46386
2013-06-18,1.78776,1.80245,1.78776,1.78776,18900,1.46386
2013-06-17,1.82204,1.82204,1.78286,1.78776,13300,1.46386
2013-06-14,1.75347,1.82204,1.75347,1.82204,43500,1.49193
2013-06-13,1.76327,1.76327,1.76327,1.76327,44200,1.44381
2013-06-12,1.77306,1.77306,1.74367,1.74367,21800,1.42776
2013-06-11,1.76327,1.77306,1.76327,1.77306,39100,1.45183
2013-06-07,1.76327,1.77306,1.76327,1.76327,71200,1.44381
2013-06-06,1.76327,1.76327,1.76327,1.76327,3000,1.44381
2013-06-05,1.75347,1.75347,1.73388,1.73388,76600,1.41975
2013-06-04,1.73878,1.75347,1.73388,1.74367,98600,1.42776
2013-06-03,1.75347,1.75347,1.74367,1.74367,15700,1.42776
2013-05-31,1.77306,1.77306,1.73388,1.73388,53200,1.41975
2013-05-30,1.76327,1.81225,1.73388,1.73388,115100,1.41975
2013-05-29,1.76327,1.76327,1.76327,1.76327,62700,1.44381
2013-05-28,1.73388,1.76327,1.73388,1.76327,99200,1.44381
2013-05-27,1.74367,1.74367,1.73878,1.73878,20300,1.42376
2013-05-24,1.73388,1.73388,1.73388,1.73388,100300,1.41975
2013-05-23,1.81225,1.81225,1.74367,1.74367,48700,1.42776
2013-05-22,1.77306,1.81225,1.77306,1.81225,9100,1.48392
2013-05-21,1.73878,1.76327,1.73878,1.76327,19100,1.44381
2013-05-20,1.76327,1.76327,1.73388,1.73388,11400,1.41975
2013-05-17,1.73388,1.73388,1.71429,1.71918,107300,1.40771
2013-05-16,1.74857,1.75347,1.72408,1.73388,66400,1.41975
2013-05-15,1.77306,1.77306,1.74367,1.74367,24800,1.42776
2013-05-14,1.77306,1.77306,1.72408,1.76327,63100,1.44381
2013-05-13,1.81225,1.81225,1.73878,1.76327,12100,1.44381
2013-05-10,1.72408,1.73388,1.72408,1.72408,44200,1.41172
2013-05-08,1.76327,1.76327,1.76327,1.76327,8700,1.44381
2013-05-06,1.76327,1.76327,1.71429,1.71429,21900,1.40371
2013-05-03,1.76327,1.76327,1.76327,1.76327,11300,1.44381
2013-05-02,1.72408,1.72408,1.71429,1.71429,12000,1.40371
2013-05-01,1.72408,1.72408,1.72408,1.72408,7100,1.41172
2013-04-30,1.71429,1.71429,1.71429,1.71429,12100,1.40371
2013-04-29,1.71429,1.71429,1.71429,1.71429,18500,1.40371
2013-04-26,1.72408,1.72408,1.71429,1.71429,24500,1.40371
2013-04-22,1.71429,1.76327,1.71429,1.71429,45600,1.40371
2013-04-19,1.72408,1.72408,1.71429,1.71429,42500,1.40371
2013-04-18,1.72408,1.72408,1.71429,1.72408,17600,1.41172
2013-04-17,1.76327,1.76327,1.72408,1.75347,16600,1.43579
2013-04-16,1.71429,1.76327,1.71429,1.71429,32300,1.40371
2013-04-15,1.71429,1.71429,1.71429,1.71429,110800,1.40371
2013-04-12,1.72408,1.72408,1.71429,1.71429,43800,1.40371
2013-04-11,1.71918,1.71918,1.71918,1.71918,5800,1.40771
2013-04-10,1.73388,1.73388,1.73388,1.73388,600,1.41975
2013-04-09,1.71918,1.76327,1.71918,1.71918,25700,1.40771
2013-04-08,1.73388,1.74367,1.73388,1.73388,45500,1.41975
2013-04-05,1.74367,1.74367,1.72408,1.72408,22900,1.41172
2013-04-04,1.76327,1.76327,1.74367,1.74367,24000,1.42776
2013-04-02,1.76327,1.76327,1.74367,1.74367,36000,1.42776
2013-03-27,1.72408,1.76327,1.72408,1.76327,36100,1.44381
2013-03-26,1.74857,1.74857,1.74367,1.74367,21400,1.42776
2013-03-25,1.74367,1.76327,1.74367,1.74367,35400,1.42776
2013-03-21,1.75347,1.75347,1.74367,1.74367,60800,1.42776
2013-03-20,1.76327,1.76327,1.74367,1.75347,13900,1.43579
2013-03-19,1.76327,1.76327,1.74367,1.74367,16000,1.42776
2013-03-14,1.76327,1.77306,1.74367,1.77306,25600,1.45183
2013-03-13,1.75347,1.80245,1.74367,1.74857,68300,1.43177
2013-03-12,1.80245,1.80245,1.75347,1.75347,16800,1.43579
2013-03-08,1.83184,1.83184,1.83184,1.83184,1300,1.49996
2013-03-06,1.77306,1.77306,1.76327,1.76327,9900,1.44381
2013-03-04,1.83184,1.83184,1.75347,1.83184,25200,1.49996
2013-03-01,1.85143,1.85143,1.83184,1.83184,5600,1.49996
2013-02-28,1.83184,1.85143,1.83184,1.85143,32800,1.516
2013-02-26,1.76327,1.76327,1.74367,1.74367,19400,1.42776
2013-02-20,1.73388,1.73388,1.72408,1.72408,11200,1.41172
2013-02-15,1.77306,1.81225,1.72408,1.72408,77200,1.41172
2013-02-14,1.78286,1.78286,1.77306,1.77306,8300,1.45183
2013-02-13,1.78286,1.78286,1.78286,1.78286,5600,1.45985
2013-02-12,1.83184,1.83184,1.83184,1.83184,4500,1.49996
2013-02-08,1.84163,1.84163,1.83184,1.83184,19500,1.49996
2013-02-06,1.80245,1.80245,1.80245,1.80245,1200,1.47589
2013-02-01,1.75347,1.75347,1.73878,1.73878,8700,1.42376
2013-01-31,1.76327,1.86123,1.72898,1.72898,60700,1.41573
2013-01-30,1.79265,1.79265,1.76327,1.77796,39400,1.45584
2013-01-25,1.86123,1.86612,1.86123,1.86612,13200,1.52803
2013-01-17,1.80245,1.80245,1.76327,1.76327,19800,1.44381
2013-01-14,1.76327,1.76327,1.76327,1.76327,4900,1.44381
2013-01-11,1.76327,1.86123,1.76327,1.86123,17600,1.52402
2013-01-10,1.76327,1.76327,1.72898,1.72898,22700,1.41573
2013-01-04,1.71429,1.71429,1.70449,1.70449,2700,1.39568
2013-01-03,1.80245,1.80245,1.70449,1.70449,73900,1.39568
2012-12-20,1.73388,1.73388,1.71429,1.71429,31700,1.38009
2012-12-19,1.83184,1.84653,1.83184,1.84653,7800,1.48654
2012-12-18,1.72408,1.72408,1.71429,1.71429,8600,1.38009
2012-12-14,1.84163,1.84163,1.70449,1.70449,16100,1.3722
2012-12-13,1.86123,1.86612,1.85143,1.86123,23600,1.49838
2012-12-12,1.6849,1.76327,1.6849,1.76327,10300,1.41952
2012-12-10,1.63592,1.66531,1.63592,1.66531,13400,1.34065
2012-12-07,1.58694,1.59674,1.57225,1.59674,28000,1.28545
2012-12-06,1.58204,1.58694,1.58204,1.58694,9400,1.27756
2012-12-04,1.57714,1.58204,1.57714,1.58204,11400,1.27362
2012-11-30,1.56735,1.56735,1.55265,1.55265,24800,1.24996
2012-11-29,1.55755,1.55755,1.55755,1.55755,8500,1.2539
2012-11-28,1.56245,1.56245,1.55755,1.55755,11300,1.2539
2012-11-27,1.56735,1.56735,1.56245,1.56245,22100,1.25785
2012-11-26,1.57225,1.57225,1.56735,1.56735,4300,1.26179
2012-11-22,1.57714,1.57714,1.55265,1.55265,47700,1.24996
2012-11-21,1.57714,1.57714,1.57714,1.57714,700,1.26967
2012-11-20,1.54776,1.57714,1.54776,1.57714,20000,1.26967
2012-11-16,1.53796,1.54776,1.53796,1.54776,23200,1.24602
2012-11-15,1.53796,1.53796,1.53796,1.53796,4800,1.23813
2012-11-14,1.57714,1.57714,1.52816,1.52816,15200,1.23024
2012-11-13,1.52816,1.52816,1.52816,1.52816,6600,1.23024
2012-11-06,1.53796,1.53796,1.52816,1.52816,4500,1.23024
2012-11-02,1.54776,1.57714,1.54776,1.57714,19500,1.26967
2012-10-30,1.51837,1.51837,1.49878,1.49878,3400,1.20659
2012-10-25,1.51837,1.53796,1.51837,1.53796,10100,1.23813
2012-10-24,1.52816,1.52816,1.51837,1.51837,21300,1.22236
2012-10-23,1.53796,1.53796,1.52816,1.52816,32500,1.23024
2012-10-22,1.54776,1.54776,1.54776,1.54776,1000,1.24602
2012-10-19,1.53796,1.53796,1.53796,1.53796,73500,1.23813
2012-10-18,1.57714,1.57714,1.57714,1.57714,1000,1.26967
2012-10-16,1.54776,1.54776,1.54776,1.54776,6600,1.24602
2012-10-12,1.54776,1.54776,1.54776,1.54776,46100,1.24602
2012-10-11,1.54776,1.54776,1.54776,1.54776,2000,1.24602
2012-10-05,1.57714,1.57714,1.57714,1.57714,13200,1.26967
2012-10-04,1.57714,1.57714,1.57714,1.57714,7100,1.26967
2012-10-02,1.53796,1.53796,1.51347,1.51837,27600,1.22236
2012-09-28,1.56735,1.56735,1.52816,1.52816,3600,1.23024
2012-09-27,1.53796,1.53796,1.53796,1.53796,1600,1.23813
2012-09-24,1.62123,1.62123,1.52816,1.52816,3100,1.23024
2012-09-20,1.53796,1.53796,1.52816,1.52816,9700,1.23024
2012-09-19,1.52816,1.52816,1.52816,1.52816,6500,1.23024
2012-09-18,1.54776,1.54776,1.54776,1.54776,8100,1.24602
2012-09-10,1.52327,1.52327,1.50857,1.50857,22200,1.21447
2012-09-07,1.52327,1.52327,1.52327,1.52327,6500,1.2263
2012-09-05,1.52327,1.52327,1.52327,1.52327,3300,1.2263
2012-08-31,1.53796,1.53796,1.49878,1.49878,8900,1.20659
2012-08-28,1.50857,1.50857,1.50857,1.50857,10200,1.21447
2012-08-22,1.47918,1.47918,1.47918,1.47918,3400,1.19081
2012-08-20,1.49878,1.49878,1.49878,1.49878,3400,1.20659
2012-08-17,1.49878,1.50857,1.49878,1.49878,51600,1.20659
2012-08-16,1.50367,1.50367,1.50367,1.50367,5700,1.21053
2012-08-15,1.50367,1.50367,1.50367,1.50367,9300,1.21053
2012-08-10,1.51347,1.51347,1.49878,1.50857,36400,1.21447
2012-08-07,1.50857,1.50857,1.50857,1.50857,1600,1.21447
2012-08-06,1.51837,1.51837,1.49878,1.49878,20500,1.20659
2012-08-03,1.53796,1.53796,1.51837,1.51837,12700,1.22236
2012-07-30,1.53796,1.53796,1.51837,1.53796,89600,1.23813
2012-07-27,1.53796,1.53796,1.53796,1.53796,152100,1.23813
2012-07-26,1.53796,1.53796,1.53796,1.53796,166200,1.23813
2012-07-25,1.53796,1.53796,1.53796,1.53796,172100,1.23813
2012-07-24,1.53796,1.53796,1.49878,1.53796,129400,1.23813
2012-07-23,1.53796,1.53796,1.53796,1.53796,1212700,1.23813
