Date,Open,High,Low,Close,Volume,Adj Close
2017-01-10,1.38,1.38,1.38,1.38,000,1.38
2017-01-09,1.38,1.38,1.38,1.38,4500,1.38
2017-01-06,1.38,1.40,1.38,1.40,16200,1.40
2017-01-05,1.39,1.39,1.39,1.39,000,1.39
2017-01-04,1.37,1.39,1.37,1.385,18800,1.385
2017-01-03,1.28,1.37,1.28,1.37,20000,1.37
2017-01-02,1.295,1.295,1.295,1.295,000,1.295
2016-12-30,1.295,1.295,1.295,1.295,300,1.295
2016-12-29,1.26,1.26,1.26,1.26,000,1.26
2016-12-28,1.26,1.26,1.26,1.26,000,1.26
2016-12-27,1.26,1.26,1.26,1.26,000,1.26
2016-12-26,1.26,1.26,1.26,1.26,000,1.26
2016-12-23,1.26,1.26,1.26,1.26,000,1.26
2016-12-22,1.30,1.30,1.26,1.26,30000,1.26
2016-12-21,1.27,1.27,1.27,1.27,400,1.27
2016-12-20,1.235,1.235,1.235,1.235,000,1.235
2016-12-19,1.235,1.235,1.235,1.235,3000,1.235
2016-12-16,1.29,1.29,1.23,1.23,51300,1.23
2016-12-15,1.29,1.29,1.29,1.29,000,1.29
2016-12-14,1.29,1.29,1.29,1.29,1000,1.29
2016-12-13,1.31,1.31,1.30,1.30,11500,1.30
2016-12-12,1.29,1.30,1.29,1.30,3800,1.30
2016-12-09,1.23,1.23,1.23,1.23,000,1.23
2016-12-08,1.23,1.23,1.23,1.23,000,1.23
2016-12-07,1.235,1.235,1.23,1.23,3300,1.23
2016-12-06,1.23,1.23,1.23,1.23,100,1.23
2016-12-05,1.30,1.30,1.23,1.245,12900,1.245
2016-12-02,1.25,1.26,1.25,1.26,4900,1.26
2016-12-01,1.26,1.26,1.25,1.25,6500,1.25
2016-11-30,1.32,1.32,1.32,1.32,900,1.32
2016-11-29,1.32,1.32,1.32,1.32,000,1.32
2016-11-28,1.32,1.32,1.32,1.32,000,1.32
2016-11-25,1.315,1.32,1.31,1.32,14900,1.32
2016-11-24,1.30,1.30,1.30,1.30,4500,1.30
2016-11-23,1.30,1.30,1.30,1.30,12500,1.30
2016-11-22,1.355,1.355,1.355,1.355,400,1.355
2016-11-21,1.35,1.35,1.35,1.35,000,1.35
2016-11-18,1.35,1.35,1.35,1.35,000,1.35
2016-11-17,1.35,1.35,1.35,1.35,28000,1.35
2016-11-16,1.35,1.35,1.33,1.35,35200,1.35
2016-11-15,1.35,1.35,1.34,1.34,57000,1.34
2016-11-14,1.38,1.38,1.38,1.38,000,1.38
2016-11-11,1.35,1.38,1.35,1.38,2100,1.38
2016-11-10,1.38,1.38,1.35,1.38,55700,1.38
2016-11-09,1.38,1.40,1.36,1.38,14000,1.38
2016-11-08,1.40,1.40,1.38,1.38,4000,1.38
2016-11-07,1.41,1.41,1.38,1.38,38200,1.38
2016-11-04,1.40,1.405,1.39,1.39,41400,1.39
2016-11-03,1.40,1.40,1.39,1.39,67300,1.39
2016-11-02,1.40,1.40,1.40,1.40,92700,1.40
2016-11-01,1.50,1.50,1.50,1.50,000,1.50
2016-10-31,1.50,1.50,1.50,1.50,000,1.50
2016-10-28,1.50,1.50,1.50,1.50,000,1.50
2016-10-27,1.50,1.50,1.50,1.50,000,1.50
2016-10-26,1.50,1.50,1.50,1.50,138200,1.50
2016-10-25,1.50,1.50,1.50,1.50,40000,1.50
2016-10-24,1.45,1.45,1.45,1.45,2500,1.45
2016-10-21,1.50,1.50,1.50,1.50,000,1.50
2016-10-20,1.47,1.50,1.40,1.50,7100,1.50
2016-10-19,1.40,1.50,1.40,1.485,6500,1.485
2016-10-18,1.45,1.45,1.45,1.45,7900,1.45
2016-10-17,1.40,1.45,1.40,1.45,5700,1.45
2016-10-14,1.40,1.40,1.40,1.40,000,1.40
2016-10-13,1.40,1.40,1.40,1.40,000,1.40
2016-10-12,1.40,1.40,1.40,1.40,100,1.40
2016-10-11,1.54,1.54,1.40,1.40,34700,1.40
2016-10-10,1.51,1.56,1.51,1.54,1100,1.54
2016-10-07,1.51,1.51,1.51,1.51,000,1.51
2016-10-06,1.51,1.51,1.51,1.51,000,1.51
2016-10-05,1.51,1.51,1.51,1.51,10700,1.51
2016-10-04,1.55,1.55,1.55,1.55,000,1.55
2016-10-03,1.555,1.555,1.55,1.55,30000,1.55
2016-09-30,1.57,1.57,1.53,1.53,6800,1.53
2016-09-29,1.53,1.62,1.53,1.62,206600,1.62
2016-09-28,1.46,1.52,1.46,1.52,32700,1.52
2016-09-27,1.46,1.47,1.46,1.47,12400,1.47
2016-09-26,1.42,1.46,1.42,1.425,5600,1.425
2016-09-23,1.45,1.45,1.45,1.45,37000,1.45
2016-09-22,1.45,1.45,1.45,1.45,2500,1.45
2016-09-21,1.42,1.45,1.42,1.45,12500,1.45
2016-09-20,1.38,1.43,1.38,1.42,37300,1.405
2016-09-19,1.39,1.39,1.39,1.39,000,1.375
2016-09-16,1.39,1.39,1.39,1.39,18100,1.375
2016-09-15,1.39,1.40,1.39,1.39,43100,1.375
2016-09-14,1.39,1.39,1.39,1.39,4000,1.375
2016-09-13,1.41,1.41,1.40,1.40,100,1.385
2016-09-12,1.40,1.415,1.39,1.39,9500,1.375
2016-09-09,1.38,1.42,1.38,1.40,70200,1.385
2016-09-08,1.42,1.42,1.40,1.42,47400,1.405
2016-09-07,1.36,1.40,1.36,1.40,11300,1.385
2016-09-06,1.355,1.41,1.35,1.39,63500,1.375
2016-09-05,1.26,1.30,1.26,1.30,60700,1.286
2016-09-02,1.20,1.20,1.20,1.20,700,1.187
2016-09-01,1.245,1.245,1.245,1.245,000,1.232
2016-08-31,1.09,1.245,1.09,1.245,24300,1.232
2016-08-30,1.29,1.29,1.285,1.285,200,1.271
2016-08-29,1.29,1.295,1.29,1.29,5700,1.276
2016-08-26,1.34,1.34,1.30,1.30,15000,1.286
2016-08-25,1.35,1.38,1.32,1.38,8300,1.365
2016-08-24,1.35,1.35,1.35,1.35,8900,1.336
2016-08-23,1.33,1.35,1.31,1.35,80200,1.336
2016-08-22,1.35,1.40,1.35,1.40,6000,1.385
2016-08-19,1.35,1.35,1.35,1.35,000,1.336
2016-08-18,1.36,1.36,1.35,1.35,8800,1.336
2016-08-17,1.40,1.43,1.35,1.35,16100,1.336
2016-08-16,1.40,1.40,1.40,1.40,000,1.385
2016-08-15,1.39,1.43,1.37,1.40,11100,1.385
2016-08-12,1.36,1.36,1.36,1.36,000,1.346
2016-08-11,1.36,1.36,1.36,1.36,3300,1.346
2016-08-10,1.35,1.35,1.35,1.35,36000,1.336
2016-08-09,1.37,1.37,1.37,1.37,000,1.356
2016-08-08,1.40,1.44,1.37,1.37,29900,1.356
2016-08-05,1.44,1.44,1.43,1.44,3000,1.425
2016-08-04,1.35,1.44,1.35,1.44,37100,1.425
2016-08-03,1.30,1.30,1.30,1.30,57500,1.286
2016-08-02,1.32,1.32,1.27,1.27,73800,1.257
2016-08-01,1.32,1.35,1.32,1.34,31400,1.326
2016-07-29,1.32,1.32,1.32,1.32,17500,1.306
2016-07-28,1.30,1.32,1.295,1.32,11400,1.306
2016-07-27,1.30,1.30,1.285,1.295,48900,1.281
2016-07-26,1.285,1.34,1.285,1.32,63200,1.306
2016-07-25,1.32,1.32,1.295,1.30,23900,1.286
2016-07-22,1.34,1.34,1.34,1.34,500,1.326
2016-07-21,1.29,1.29,1.265,1.265,9400,1.252
2016-07-20,1.27,1.29,1.265,1.29,13900,1.276
2016-07-19,1.30,1.30,1.26,1.26,17700,1.247
2016-07-18,1.25,1.26,1.25,1.26,41200,1.247
2016-07-15,1.26,1.26,1.235,1.25,18800,1.237
2016-07-14,1.23,1.23,1.23,1.23,5000,1.217
2016-07-13,1.23,1.23,1.23,1.23,10000,1.217
2016-07-12,1.30,1.30,1.23,1.23,25300,1.217
2016-07-11,1.27,1.34,1.26,1.34,36200,1.326
2016-07-08,1.23,1.28,1.23,1.28,32300,1.266
2016-07-07,1.25,1.25,1.23,1.23,38100,1.217
2016-07-06,1.26,1.26,1.25,1.25,70700,1.237
2016-07-05,1.32,1.32,1.26,1.26,26300,1.247
2016-07-04,1.34,1.34,1.32,1.32,22000,1.306
2016-07-01,1.36,1.36,1.355,1.36,3900,1.346
2016-06-30,1.32,1.34,1.32,1.34,226200,1.326
2016-06-29,1.32,1.34,1.32,1.34,10600,1.326
2016-06-28,1.34,1.35,1.28,1.35,13200,1.336
2016-06-27,1.38,1.38,1.35,1.35,26000,1.336
2016-06-24,1.28,1.39,1.265,1.39,44600,1.375
2016-06-23,1.29,1.29,1.29,1.29,11200,1.276
2016-06-22,1.30,1.30,1.20,1.24,80000,1.227
2016-06-21,1.28,1.28,1.28,1.28,000,1.266
2016-06-20,1.30,1.30,1.28,1.28,8400,1.266
2016-06-17,1.40,1.40,1.28,1.30,38800,1.286
2016-06-16,1.34,1.41,1.34,1.40,34800,1.385
2016-06-15,1.35,1.40,1.35,1.39,55700,1.375
2016-06-14,1.35,1.39,1.35,1.36,57400,1.346
2016-06-13,1.39,1.39,1.39,1.39,000,1.375
2016-06-10,1.385,1.39,1.385,1.39,10300,1.375
2016-06-09,1.37,1.395,1.35,1.395,3800,1.38
2016-06-08,1.395,1.395,1.395,1.395,1400,1.38
2016-06-07,1.395,1.40,1.37,1.395,91400,1.38
2016-06-06,1.395,1.40,1.395,1.395,42200,1.38
2016-06-03,1.415,1.42,1.395,1.395,70300,1.38
2016-06-02,1.42,1.42,1.41,1.42,3900,1.405
2016-06-01,1.395,1.445,1.395,1.42,64800,1.405
2016-05-31,1.40,1.40,1.395,1.395,37700,1.38
2016-05-30,1.41,1.42,1.40,1.42,33500,1.405
2016-05-27,1.42,1.42,1.395,1.41,32500,1.395
2016-05-26,1.42,1.45,1.41,1.42,27300,1.405
2016-05-25,1.50,1.50,1.42,1.42,46300,1.405
2016-05-24,1.52,1.52,1.495,1.50,20200,1.484
2016-05-23,1.57,1.57,1.50,1.50,21400,1.484
2016-05-20,1.55,1.58,1.55,1.57,500,1.553
2016-05-19,1.50,1.50,1.50,1.50,1500,1.484
2016-05-18,1.50,1.52,1.48,1.48,35000,1.464
2016-05-17,1.55,1.58,1.54,1.55,14300,1.534
2016-05-16,1.48,1.55,1.48,1.545,16500,1.529
2016-05-13,1.51,1.51,1.50,1.50,4300,1.484
2016-05-12,1.52,1.52,1.51,1.51,900,1.494
2016-05-11,1.50,1.52,1.50,1.52,12000,1.504
2016-05-10,1.50,1.50,1.50,1.50,1000,1.484
2016-05-09,1.52,1.56,1.50,1.51,1900,1.494
2016-05-06,1.55,1.55,1.52,1.535,1100,1.519
2016-05-05,1.51,1.56,1.51,1.56,40400,1.544
2016-05-04,1.52,1.56,1.51,1.51,24900,1.494
2016-05-03,1.55,1.58,1.52,1.52,47100,1.504
2016-05-02,1.515,1.52,1.515,1.52,10700,1.504
2016-04-29,1.51,1.55,1.51,1.53,87500,1.514
2016-04-28,1.48,1.485,1.48,1.485,37600,1.469
2016-04-27,1.47,1.47,1.45,1.45,12800,1.435
2016-04-26,1.44,1.48,1.44,1.47,40600,1.454
2016-04-25,1.45,1.45,1.45,1.45,000,1.435
2016-04-22,1.52,1.52,1.40,1.45,57900,1.435
2016-04-21,1.55,1.55,1.52,1.52,600,1.504
2016-04-20,1.55,1.55,1.55,1.55,31400,1.534
2016-04-19,1.52,1.55,1.52,1.55,19500,1.534
2016-04-18,1.585,1.595,1.52,1.52,31400,1.504
2016-04-15,1.63,1.64,1.63,1.64,10600,1.623
2016-04-14,1.66,1.68,1.585,1.63,86600,1.613
2016-04-13,1.68,1.68,1.68,1.68,1700,1.662
2016-04-12,1.70,1.70,1.68,1.68,2700,1.662
2016-04-11,1.75,1.75,1.74,1.74,3100,1.722
2016-04-08,1.73,1.73,1.67,1.73,20600,1.712
2016-04-07,1.75,1.75,1.75,1.75,2800,1.732
2016-04-06,1.71,1.75,1.71,1.75,12900,1.732
2016-04-05,1.75,1.75,1.70,1.70,245300,1.682
2016-04-04,1.79,1.80,1.77,1.77,23600,1.751
2016-04-01,1.79,1.80,1.78,1.80,38700,1.781
2016-03-31,1.795,1.80,1.77,1.79,37300,1.771
2016-03-30,1.75,1.80,1.75,1.80,14700,1.781
2016-03-29,1.83,1.84,1.75,1.75,50700,1.732
2016-03-28,1.83,1.83,1.83,1.83,000,1.811
2016-03-25,1.83,1.83,1.83,1.83,000,1.811
2016-03-24,1.80,1.84,1.80,1.83,30700,1.811
2016-03-23,1.80,1.82,1.80,1.80,157500,1.781
2016-03-22,1.71,1.85,1.70,1.80,120800,1.781
2016-03-21,1.60,1.71,1.585,1.71,2157500,1.692
2016-03-18,1.59,1.60,1.565,1.60,89500,1.583
2016-03-17,1.59,1.60,1.55,1.60,29400,1.583
2016-03-16,1.50,1.605,1.50,1.60,32400,1.561
2016-03-15,1.60,1.60,1.495,1.50,11000,1.463
2016-03-14,1.59,1.60,1.535,1.60,29200,1.561
2016-03-11,1.505,1.65,1.50,1.59,142900,1.551
2016-03-10,1.45,1.52,1.45,1.50,123200,1.463
2016-03-09,1.43,1.48,1.43,1.43,99500,1.395
2016-03-08,1.47,1.47,1.44,1.45,107700,1.415
2016-03-07,1.515,1.52,1.40,1.40,4100,1.366
2016-03-04,1.56,1.56,1.56,1.56,1900,1.522
2016-03-03,1.555,1.555,1.535,1.535,5100,1.497
2016-03-02,1.57,1.57,1.50,1.56,72900,1.522
2016-03-01,1.475,1.55,1.45,1.55,441300,1.512
2016-02-29,1.47,1.475,1.46,1.475,34600,1.439
2016-02-26,1.43,1.48,1.39,1.47,531600,1.434
2016-02-25,1.36,1.40,1.36,1.40,41400,1.366
2016-02-24,1.365,1.365,1.31,1.31,13800,1.278
2016-02-23,1.44,1.44,1.44,1.44,000,1.405
2016-02-22,1.47,1.47,1.435,1.44,18300,1.405
2016-02-19,1.35,1.475,1.35,1.475,71400,1.439
2016-02-18,1.38,1.38,1.38,1.38,4000,1.346
2016-02-17,1.45,1.45,1.45,1.45,000,1.415
2016-02-16,1.45,1.45,1.40,1.45,69100,1.415
2016-02-15,1.44,1.45,1.44,1.45,3000,1.415
2016-02-12,1.45,1.45,1.45,1.45,000,1.415
2016-02-11,1.45,1.45,1.45,1.45,1200,1.415
2016-02-10,1.45,1.45,1.31,1.38,23100,1.346
2016-02-09,1.45,1.45,1.45,1.45,4400,1.415
2016-02-08,1.56,1.56,1.455,1.52,14500,1.483
2016-02-05,1.57,1.57,1.57,1.57,300,1.532
2016-02-04,1.58,1.58,1.58,1.58,000,1.541
2016-02-03,1.55,1.63,1.50,1.58,23900,1.541
2016-02-02,1.61,1.61,1.57,1.61,23400,1.571
2016-02-01,1.63,1.63,1.62,1.62,16400,1.58
2016-01-29,1.68,1.68,1.65,1.65,3900,1.61
2016-01-28,1.65,1.70,1.65,1.70,15900,1.658
2016-01-27,1.65,1.65,1.65,1.65,000,1.61
2016-01-26,1.65,1.65,1.65,1.65,000,1.61
2016-01-25,1.65,1.65,1.62,1.65,44300,1.61
2016-01-22,1.60,1.65,1.60,1.65,173400,1.61
2016-01-21,1.63,1.63,1.63,1.63,2000,1.59
2016-01-20,1.605,1.645,1.60,1.635,29200,1.595
2016-01-19,1.60,1.60,1.55,1.60,869800,1.561
2016-01-18,1.63,1.63,1.45,1.595,78600,1.556
2016-01-15,1.68,1.69,1.63,1.63,335100,1.59
2016-01-14,1.68,1.68,1.64,1.64,187500,1.60
2016-01-13,1.61,1.675,1.60,1.675,565600,1.634
2016-01-12,1.65,1.65,1.58,1.58,42600,1.541
2016-01-11,1.65,1.65,1.60,1.65,87500,1.61
2016-01-08,1.70,1.70,1.60,1.70,22300,1.658
2016-01-07,1.62,1.90,1.62,1.73,128000,1.688
2016-01-06,1.59,1.62,1.567,1.62,64800,1.58
2016-01-05,1.465,1.565,1.465,1.565,52300,1.527
2016-01-04,1.45,1.50,1.45,1.50,24900,1.463
2016-01-01,1.39,1.39,1.39,1.39,000,1.356
2015-12-31,1.40,1.405,1.39,1.39,10000,1.356
2015-12-30,1.36,1.40,1.36,1.395,23200,1.361
2015-12-29,1.40,1.45,1.36,1.38,86600,1.346
2015-12-28,1.38,1.38,1.38,1.38,000,1.346
2015-12-25,1.38,1.38,1.38,1.38,000,1.346
2015-12-24,1.37,1.40,1.37,1.38,50200,1.346
2015-12-23,1.38,1.38,1.38,1.38,7800,1.346
2015-12-22,1.315,1.38,1.315,1.38,84000,1.346
2015-12-21,1.285,1.32,1.24,1.315,59800,1.283
2015-12-18,1.20,1.30,1.19,1.30,95200,1.268
2015-12-17,1.19,1.25,1.18,1.18,103600,1.151
2015-12-16,1.145,1.145,1.145,1.145,000,1.117
2015-12-15,1.145,1.145,1.145,1.145,000,1.117
2015-12-14,1.13,1.145,1.13,1.145,1100,1.117
2015-12-11,1.15,1.15,1.145,1.145,47600,1.117
2015-12-10,1.15,1.15,1.14,1.14,12500,1.112
2015-12-09,1.14,1.15,1.14,1.15,12100,1.122
2015-12-08,1.14,1.14,1.14,1.14,2973400,1.112
2015-12-07,1.14,1.15,1.12,1.15,32200,1.122
2015-12-04,1.15,1.15,1.15,1.15,2000,1.122
2015-12-03,1.11,1.12,1.11,1.12,12300,1.093
2015-12-02,1.11,1.11,1.11,1.11,100,1.083
2015-12-01,1.11,1.11,1.11,1.11,2400,1.083
2015-11-30,1.11,1.11,1.10,1.11,17400,1.083
2015-11-27,1.14,1.14,1.10,1.11,17100,1.083
2015-11-26,1.18,1.18,1.12,1.14,28900,1.112
2015-11-25,1.19,1.19,1.19,1.19,1000,1.161
2015-11-24,1.19,1.19,1.19,1.19,000,1.161
2015-11-23,1.19,1.20,1.19,1.19,18800,1.161
2015-11-20,1.19,1.19,1.19,1.19,2900,1.161
2015-11-19,1.11,1.11,1.10,1.10,5300,1.073
2015-11-18,1.11,1.19,1.11,1.19,17100,1.161
2015-11-17,1.12,1.20,1.12,1.20,1500,1.171
2015-11-16,1.12,1.12,1.11,1.11,16000,1.083
2015-11-13,1.17,1.17,1.12,1.12,2700,1.093
2015-11-12,1.24,1.24,1.17,1.17,15600,1.141
2015-11-11,1.13,1.24,1.13,1.24,27600,1.21
2015-11-10,1.115,1.135,1.115,1.135,5000,1.107
2015-11-09,1.06,1.115,1.06,1.115,707200,1.088
2015-11-06,1.07,1.07,1.07,1.07,6500,1.044
2015-11-05,1.10,1.10,1.07,1.07,27700,1.044
2015-11-04,1.06,1.06,1.06,1.06,600,1.034
2015-11-03,1.06,1.06,1.06,1.06,15900,1.034
2015-11-02,1.10,1.11,1.08,1.08,69200,1.054
2015-10-30,1.10,1.13,1.09,1.10,139800,1.073
2015-10-29,0.99,1.06,0.99,1.06,32100,1.034
2015-10-28,0.93,0.93,0.93,0.93,1000,0.907
2015-10-27,0.93,0.94,0.93,0.93,13900,0.907
2015-10-26,0.96,0.96,0.94,0.94,17200,0.917
2015-10-23,0.92,0.92,0.92,0.92,000,0.897
2015-10-22,0.99,0.99,0.92,0.92,1800,0.897
2015-10-21,0.92,0.94,0.92,0.92,000,0.897
2015-10-20,0.95,0.95,0.95,0.95,1425300,0.927
2015-10-19,0.915,0.915,0.91,0.91,3100,0.888
2015-10-16,0.945,0.945,0.90,0.90,14000,0.878
2015-10-15,0.92,0.92,0.92,0.92,000,0.897
2015-10-14,0.925,0.925,0.92,0.92,5800,0.897
2015-10-13,0.95,0.95,0.92,0.92,48700,0.897
2015-10-12,0.985,0.985,0.95,0.95,53300,0.927
2015-10-09,0.96,0.96,0.96,0.96,000,0.937
2015-10-08,1.005,1.005,0.96,0.96,23100,0.937
2015-10-07,1.00,1.00,1.00,1.00,000,0.976
2015-10-06,1.05,1.06,1.00,1.00,19100,0.976
2015-10-05,1.03,1.04,1.03,1.04,6900,1.015
2015-10-02,1.02,1.04,1.02,1.02,8500,0.995
2015-10-01,1.02,1.02,1.02,1.02,30000,0.995
2015-09-30,1.01,1.01,1.01,1.01,1000,0.985
2015-09-29,0.96,1.02,0.96,1.02,13700,0.995
2015-09-28,0.98,0.98,0.935,0.935,80400,0.912
2015-09-25,1.015,1.015,0.98,0.98,64900,0.956
2015-09-24,1.13,1.13,1.00,1.00,35800,0.976
2015-09-23,1.085,1.13,1.085,1.13,2200,1.102
2015-09-22,1.04,1.14,1.04,1.06,21400,1.034
2015-09-21,0.975,1.04,0.97,1.04,56000,1.015
2015-09-18,0.95,0.95,0.93,0.95,157100,0.927
2015-09-17,0.95,0.95,0.95,0.95,54600,0.927
2015-09-16,0.95,0.95,0.95,0.95,000,0.927
2015-09-15,0.95,0.95,0.90,0.95,7000,0.927
2015-09-14,0.935,0.95,0.935,0.95,8700,0.912
2015-09-11,0.90,0.90,0.90,0.90,000,0.864
2015-09-10,0.92,0.92,0.90,0.90,102600,0.864
2015-09-09,0.97,0.985,0.905,0.905,51400,0.869
2015-09-08,0.86,0.985,0.86,0.985,87100,0.946
2015-09-07,0.86,0.86,0.86,0.86,100,0.826
2015-09-04,0.86,0.86,0.86,0.86,9000,0.826
2015-09-03,0.86,0.86,0.86,0.86,34200,0.826
2015-09-02,0.85,0.86,0.85,0.86,23800,0.826
2015-09-01,0.81,0.86,0.81,0.86,56100,0.826
2015-08-31,0.785,0.81,0.785,0.81,45700,0.778
2015-08-28,0.785,0.80,0.78,0.80,24300,0.768
2015-08-27,0.80,0.81,0.80,0.81,7300,0.778
2015-08-26,0.76,0.81,0.76,0.80,34000,0.768
2015-08-25,0.78,0.78,0.75,0.76,52500,0.73
2015-08-24,0.80,0.80,0.78,0.79,99800,0.758
2015-08-21,0.80,0.81,0.78,0.80,321200,0.768
2015-08-20,0.80,0.80,0.80,0.80,89400,0.768
2015-08-19,0.81,0.81,0.79,0.79,45100,0.758
2015-08-18,0.81,0.81,0.80,0.81,144500,0.778
2015-08-17,0.805,0.81,0.805,0.805,61100,0.773
2015-08-14,0.81,0.81,0.80,0.805,38600,0.773
2015-08-13,0.82,0.82,0.80,0.81,700200,0.778
2015-08-12,0.81,0.815,0.80,0.815,45300,0.782
2015-08-11,0.81,0.815,0.81,0.81,217500,0.778
2015-08-10,0.83,0.83,0.80,0.82,233800,0.787
2015-08-07,0.86,0.86,0.76,0.83,330600,0.797
2015-08-06,1.04,1.06,0.89,0.90,1773400,0.864
2015-08-05,1.22,1.24,1.20,1.21,106200,1.162
2015-08-04,1.24,1.24,1.18,1.18,26900,1.133
2015-08-03,1.25,1.25,1.25,1.25,10100,1.20
2015-07-31,1.28,1.28,1.25,1.25,6900,1.20
2015-07-30,1.28,1.28,1.28,1.28,3200,1.229
2015-07-29,1.30,1.30,1.30,1.30,58800,1.248
2015-07-28,1.29,1.30,1.285,1.29,33200,1.239
2015-07-27,1.29,1.29,1.285,1.285,20800,1.234
2015-07-24,1.29,1.29,1.29,1.29,2500,1.239
2015-07-23,1.30,1.30,1.30,1.30,2200,1.248
2015-07-22,1.28,1.28,1.28,1.28,8800,1.229
2015-07-21,1.32,1.32,1.30,1.30,7300,1.248
2015-07-20,1.32,1.32,1.30,1.30,41500,1.248
2015-07-17,1.30,1.30,1.30,1.30,000,1.248
2015-07-16,1.32,1.32,1.30,1.30,8000,1.248
2015-07-15,1.30,1.36,1.27,1.36,36500,1.306
2015-07-14,1.35,1.35,1.32,1.32,12400,1.267
2015-07-13,1.32,1.32,1.32,1.32,1300,1.267
2015-07-10,1.31,1.32,1.31,1.31,50500,1.258
2015-07-09,1.32,1.32,1.30,1.30,34500,1.248
2015-07-08,1.32,1.345,1.32,1.345,47400,1.291
2015-07-07,1.35,1.35,1.345,1.35,136000,1.296
2015-07-06,1.35,1.355,1.33,1.35,107200,1.296
2015-07-03,1.35,1.35,1.35,1.35,10100,1.296
2015-07-02,1.35,1.35,1.35,1.35,12100,1.296
2015-07-01,1.36,1.36,1.35,1.35,67500,1.296
2015-06-30,1.375,1.375,1.35,1.35,60000,1.296
2015-06-29,1.38,1.38,1.375,1.375,11400,1.32
2015-06-26,1.395,1.395,1.37,1.395,27100,1.339
2015-06-25,1.40,1.40,1.40,1.40,000,1.344
2015-06-24,1.40,1.40,1.40,1.40,5000,1.344
2015-06-23,1.39,1.39,1.36,1.36,25600,1.306
2015-06-22,1.405,1.405,1.38,1.38,56300,1.325
2015-06-19,1.405,1.405,1.405,1.405,30200,1.349
2015-06-18,1.395,1.405,1.385,1.405,76200,1.349
2015-06-17,1.39,1.39,1.37,1.37,22700,1.315
2015-06-16,1.41,1.42,1.395,1.415,37600,1.359
2015-06-15,1.43,1.43,1.39,1.39,9800,1.335
2015-06-12,1.425,1.425,1.425,1.425,1800,1.368
2015-06-11,1.43,1.43,1.43,1.43,7200,1.373
2015-06-10,1.425,1.425,1.425,1.425,5000,1.368
2015-06-09,1.41,1.41,1.41,1.41,20000,1.354
2015-06-08,1.43,1.43,1.43,1.43,000,1.373
2015-06-05,1.43,1.43,1.43,1.43,16500,1.373
2015-06-04,1.435,1.435,1.435,1.435,13900,1.378
2015-06-03,1.44,1.44,1.41,1.44,30200,1.383
2015-06-02,1.44,1.445,1.41,1.445,38000,1.387
2015-06-01,1.42,1.45,1.42,1.43,54600,1.373
2015-05-29,1.41,1.44,1.39,1.40,122000,1.344
2015-05-28,1.33,1.41,1.32,1.38,57500,1.325
2015-05-27,1.35,1.35,1.32,1.325,64300,1.272
2015-05-26,1.41,1.41,1.355,1.365,66900,1.311
2015-05-25,1.435,1.435,1.40,1.41,46300,1.354
2015-05-22,1.45,1.45,1.45,1.45,000,1.392
2015-05-21,1.45,1.45,1.45,1.45,5700,1.392
2015-05-20,1.45,1.45,1.45,1.45,6800,1.392
2015-05-19,1.42,1.45,1.41,1.45,20500,1.392
2015-05-18,1.40,1.43,1.40,1.43,12000,1.373
2015-05-15,1.40,1.405,1.36,1.36,12200,1.306
2015-05-14,1.40,1.40,1.40,1.40,38300,1.344
2015-05-13,1.43,1.43,1.43,1.43,2000,1.373
2015-05-12,1.40,1.40,1.40,1.40,000,1.344
2015-05-11,1.40,1.40,1.32,1.40,36200,1.344
2015-05-08,1.45,1.45,1.40,1.40,91500,1.344
2015-05-07,1.48,1.48,1.45,1.45,6400,1.392
2015-05-06,1.49,1.49,1.49,1.49,1300,1.431
2015-05-05,1.50,1.50,1.50,1.50,000,1.44
2015-05-04,1.50,1.50,1.50,1.50,1300,1.44
2015-05-01,1.47,1.50,1.47,1.50,6900,1.44
2015-04-30,1.47,1.47,1.47,1.47,3600,1.411
2015-04-29,1.50,1.50,1.50,1.50,4200,1.44
2015-04-28,1.51,1.51,1.50,1.51,17200,1.45
2015-04-27,1.52,1.52,1.51,1.51,10000,1.45
2015-04-24,1.505,1.525,1.505,1.525,15000,1.464
2015-04-23,1.44,1.50,1.42,1.50,61600,1.44
2015-04-22,1.44,1.44,1.44,1.44,000,1.383
2015-04-21,1.44,1.44,1.44,1.44,3000,1.383
2015-04-20,1.47,1.485,1.41,1.41,18400,1.354
2015-04-17,1.48,1.485,1.46,1.46,13600,1.402
2015-04-16,1.435,1.435,1.435,1.435,000,1.378
2015-04-15,1.44,1.44,1.435,1.435,3800,1.378
2015-04-14,1.46,1.46,1.435,1.435,35200,1.378
2015-04-13,1.48,1.48,1.47,1.47,27200,1.411
2015-04-10,1.475,1.48,1.475,1.48,23700,1.421
2015-04-09,1.48,1.48,1.47,1.47,2700,1.411
2015-04-08,1.495,1.495,1.495,1.495,000,1.435
2015-04-07,1.48,1.50,1.45,1.495,34800,1.435
2015-04-06,1.47,1.47,1.47,1.47,000,1.411
2015-04-03,1.47,1.47,1.47,1.47,000,1.411
2015-04-02,1.47,1.47,1.47,1.47,000,1.411
2015-04-01,1.47,1.47,1.47,1.47,2000,1.411
2015-03-31,1.47,1.47,1.435,1.435,18900,1.378
2015-03-30,1.45,1.45,1.44,1.44,5600,1.383
2015-03-27,1.47,1.50,1.45,1.45,25800,1.392
2015-03-26,1.475,1.475,1.475,1.475,000,1.416
2015-03-25,1.47,1.475,1.47,1.475,1700,1.416
2015-03-24,1.46,1.47,1.46,1.46,8200,1.402
2015-03-23,1.46,1.46,1.45,1.45,5200,1.392
2015-03-20,1.45,1.46,1.45,1.46,11500,1.402
2015-03-19,1.45,1.45,1.45,1.45,46500,1.392
2015-03-18,1.50,1.50,1.50,1.50,000,1.44
2015-03-17,1.50,1.55,1.50,1.50,14600,1.44
2015-03-16,1.50,1.52,1.50,1.51,19700,1.431
2015-03-13,1.50,1.50,1.50,1.50,3300,1.421
2015-03-12,1.50,1.52,1.50,1.50,51300,1.421
2015-03-11,1.53,1.53,1.50,1.52,27000,1.44
2015-03-10,1.51,1.53,1.51,1.53,26300,1.45
2015-03-09,1.50,1.51,1.50,1.51,13500,1.431
2015-03-06,1.495,1.51,1.495,1.51,14500,1.431
2015-03-05,1.48,1.48,1.48,1.48,21600,1.402
2015-03-04,1.50,1.50,1.46,1.46,19800,1.383
2015-03-03,1.52,1.52,1.48,1.52,7500,1.44
2015-03-02,1.54,1.55,1.52,1.52,57400,1.44
2015-02-27,1.55,1.55,1.49,1.54,20900,1.459
2015-02-26,1.48,1.55,1.46,1.55,31400,1.468
2015-02-25,1.465,1.48,1.45,1.48,42500,1.402
2015-02-24,1.41,1.41,1.40,1.40,2286000,1.326
2015-02-23,1.49,1.49,1.49,1.49,000,1.412
2015-02-20,1.57,1.57,1.49,1.49,95400,1.412
2015-02-19,1.57,1.57,1.57,1.57,5000,1.487
2015-02-18,1.535,1.54,1.53,1.54,9300,1.459
2015-02-17,1.515,1.525,1.50,1.525,19300,1.445
2015-02-16,1.515,1.52,1.515,1.52,173000,1.44
2015-02-13,1.50,1.51,1.50,1.51,42300,1.431
2015-02-12,1.50,1.51,1.50,1.50,9300,1.421
2015-02-11,1.50,1.50,1.49,1.49,11900,1.412
2015-02-10,1.50,1.505,1.49,1.49,54500,1.412
2015-02-09,1.50,1.50,1.50,1.50,16800,1.421
2015-02-06,1.49,1.50,1.475,1.50,7300,1.421
2015-02-05,1.49,1.49,1.49,1.49,2500,1.412
2015-02-04,1.50,1.50,1.50,1.50,000,1.421
2015-02-03,1.49,1.50,1.49,1.50,2300,1.421
2015-02-02,1.50,1.50,1.49,1.49,32300,1.412
2015-01-30,1.475,1.50,1.475,1.50,34700,1.421
2015-01-29,1.405,1.435,1.405,1.435,15500,1.36
2015-01-28,1.39,1.39,1.39,1.39,000,1.317
2015-01-27,1.38,1.40,1.38,1.39,48100,1.317
2015-01-26,1.39,1.39,1.39,1.39,000,1.317
2015-01-23,1.38,1.39,1.38,1.39,10200,1.317
2015-01-22,1.39,1.40,1.38,1.38,50400,1.307
2015-01-21,1.40,1.445,1.40,1.40,34000,1.326
2015-01-20,1.45,1.45,1.39,1.40,32800,1.326
2015-01-19,1.48,1.48,1.45,1.475,19300,1.397
2015-01-16,1.455,1.455,1.455,1.455,000,1.378
2015-01-15,1.455,1.455,1.455,1.455,000,1.378
2015-01-14,1.455,1.455,1.455,1.455,2700,1.378
2015-01-13,1.48,1.48,1.45,1.45,4400,1.374
2015-01-12,1.48,1.48,1.48,1.48,3300,1.402
2015-01-09,1.475,1.475,1.47,1.475,10100,1.397
2015-01-08,1.475,1.475,1.47,1.475,28100,1.397
2015-01-07,1.475,1.475,1.475,1.475,700,1.397
2015-01-06,1.475,1.475,1.475,1.475,900,1.397
2015-01-05,1.46,1.46,1.46,1.46,12100,1.383
2015-01-02,1.47,1.47,1.46,1.46,3200,1.383
2015-01-01,1.48,1.48,1.48,1.48,000,1.402
2014-12-31,1.48,1.48,1.48,1.48,1500,1.402
2014-12-30,1.485,1.485,1.485,1.485,000,1.407
2014-12-29,1.485,1.485,1.485,1.485,3000,1.407
2014-12-26,1.485,1.485,1.485,1.485,000,1.407
2014-12-25,1.485,1.485,1.485,1.485,000,1.407
2014-12-24,1.44,1.485,1.44,1.485,20000,1.407
2014-12-23,1.45,1.45,1.45,1.45,000,1.374
2014-12-22,1.45,1.45,1.45,1.45,17500,1.374
2014-12-19,1.405,1.405,1.40,1.40,29700,1.326
2014-12-18,1.405,1.405,1.405,1.405,5600,1.331
2014-12-17,1.405,1.405,1.40,1.40,30000,1.326
2014-12-16,1.405,1.405,1.40,1.40,49900,1.326
2014-12-15,1.445,1.445,1.40,1.40,3500,1.326
2014-12-12,1.42,1.42,1.40,1.40,8000,1.326
2014-12-11,1.42,1.45,1.42,1.45,3800,1.374
2014-12-10,1.46,1.46,1.40,1.445,16900,1.369
2014-12-09,1.47,1.47,1.47,1.47,21600,1.393
2014-12-08,1.47,1.47,1.47,1.47,6000,1.393
2014-12-05,1.46,1.46,1.46,1.46,000,1.383
2014-12-04,1.46,1.46,1.46,1.46,000,1.383
2014-12-03,1.49,1.49,1.46,1.46,10100,1.383
2014-12-02,1.49,1.49,1.49,1.49,45200,1.412
2014-12-01,1.49,1.505,1.49,1.49,24900,1.412
2014-11-28,1.50,1.50,1.495,1.50,48300,1.421
2014-11-27,1.53,1.53,1.495,1.50,75400,1.421
2014-11-26,1.54,1.54,1.525,1.525,29000,1.445
2014-11-25,1.52,1.52,1.52,1.52,2400,1.44
2014-11-24,1.545,1.545,1.545,1.545,400,1.464
2014-11-21,1.565,1.575,1.565,1.575,10000,1.492
2014-11-20,1.52,1.52,1.52,1.52,000,1.44
2014-11-19,1.53,1.53,1.52,1.52,711000,1.44
2014-11-18,1.53,1.53,1.53,1.53,19500,1.45
2014-11-17,1.52,1.53,1.52,1.53,23000,1.45
2014-11-14,1.52,1.52,1.51,1.51,252900,1.431
2014-11-13,1.53,1.53,1.53,1.53,000,1.45
2014-11-12,1.53,1.53,1.53,1.53,1300,1.45
2014-11-11,1.58,1.58,1.575,1.575,3900,1.492
2014-11-10,1.52,1.575,1.52,1.575,3500,1.492
2014-11-07,1.53,1.53,1.53,1.53,000,1.45
2014-11-06,1.53,1.53,1.53,1.53,000,1.45
2014-11-05,1.53,1.53,1.53,1.53,4400,1.45
2014-11-04,1.52,1.52,1.52,1.52,2100,1.44
2014-11-03,1.51,1.525,1.49,1.50,16800,1.421
2014-10-31,1.50,1.50,1.50,1.50,000,1.421
2014-10-30,1.50,1.50,1.50,1.50,000,1.421
2014-10-29,1.49,1.50,1.49,1.50,8100,1.421
2014-10-28,1.49,1.49,1.49,1.49,000,1.412
2014-10-27,1.48,1.49,1.48,1.49,27200,1.412
2014-10-24,1.50,1.50,1.50,1.50,000,1.421
2014-10-23,1.50,1.50,1.50,1.50,000,1.421
2014-10-22,1.51,1.51,1.50,1.50,18300,1.421
2014-10-21,1.50,1.50,1.50,1.50,900,1.421
2014-10-20,1.50,1.50,1.50,1.50,6600,1.421
2014-10-17,1.48,1.49,1.48,1.49,18600,1.412
2014-10-16,1.49,1.49,1.45,1.48,47900,1.402
2014-10-15,1.53,1.53,1.49,1.49,34000,1.412
2014-10-14,1.56,1.56,1.56,1.56,000,1.478
2014-10-13,1.56,1.56,1.56,1.56,000,1.478
2014-10-10,1.56,1.575,1.56,1.56,2300,1.478
2014-10-09,1.565,1.565,1.565,1.565,000,1.483
2014-10-08,1.565,1.565,1.565,1.565,000,1.483
2014-10-07,1.54,1.565,1.54,1.565,13900,1.483
2014-10-06,1.52,1.52,1.52,1.52,6000,1.44
2014-10-03,1.52,1.52,1.52,1.52,000,1.44
2014-10-02,1.52,1.52,1.50,1.52,62000,1.44
2014-10-01,1.575,1.575,1.575,1.575,000,1.492
2014-09-30,1.575,1.575,1.575,1.575,000,1.492
2014-09-29,1.57,1.575,1.57,1.575,24800,1.492
2014-09-26,1.50,1.50,1.50,1.50,000,1.421
2014-09-25,1.50,1.50,1.50,1.50,000,1.421
2014-09-24,1.52,1.52,1.50,1.50,35600,1.421
2014-09-23,1.60,1.60,1.60,1.60,000,1.516
2014-09-22,1.60,1.60,1.60,1.60,000,1.516
2014-09-19,1.60,1.60,1.60,1.60,1500,1.516
2014-09-18,1.60,1.60,1.60,1.60,233700,1.516
2014-09-17,1.60,1.60,1.60,1.60,77100,1.516
2014-09-16,1.60,1.615,1.56,1.56,3800,1.478
2014-09-15,1.645,1.645,1.645,1.645,700,1.544
2014-09-12,1.58,1.58,1.58,1.58,2600,1.483
2014-09-11,1.60,1.60,1.59,1.59,11600,1.493
2014-09-10,1.60,1.60,1.60,1.60,100,1.502
2014-09-09,1.65,1.65,1.62,1.62,26500,1.521
2014-09-08,1.64,1.65,1.64,1.65,5000,1.549
2014-09-05,1.635,1.65,1.635,1.65,17000,1.549
2014-09-04,1.57,1.60,1.57,1.60,24100,1.502
2014-09-03,1.56,1.61,1.56,1.57,59600,1.474
2014-09-02,1.585,1.59,1.55,1.56,44400,1.464
2014-09-01,1.59,1.59,1.59,1.59,18100,1.493
2014-08-29,1.625,1.625,1.625,1.625,24100,1.525
2014-08-28,1.60,1.625,1.60,1.625,7500,1.525
2014-08-27,1.65,1.65,1.61,1.61,26700,1.511
2014-08-26,1.65,1.65,1.65,1.65,8800,1.549
2014-08-25,1.65,1.65,1.64,1.65,27400,1.549
2014-08-22,1.65,1.65,1.61,1.61,10000,1.511
2014-08-21,1.63,1.65,1.60,1.65,25000,1.549
2014-08-20,1.60,1.65,1.60,1.64,47400,1.54
2014-08-19,1.60,1.60,1.60,1.60,379200,1.502
2014-08-18,1.54,1.60,1.49,1.60,145700,1.502
2014-08-15,1.66,1.67,1.66,1.67,9700,1.568
2014-08-14,1.66,1.67,1.66,1.67,23100,1.568
2014-08-13,1.665,1.665,1.66,1.66,9900,1.558
2014-08-12,1.665,1.665,1.665,1.665,8000,1.563
2014-08-11,1.66,1.66,1.66,1.66,6000,1.558
2014-08-08,1.71,1.71,1.63,1.63,3300,1.53
2014-08-07,1.71,1.71,1.71,1.71,11300,1.605
2014-08-06,1.70,1.70,1.70,1.70,000,1.596
2014-08-05,1.675,1.70,1.675,1.70,10400,1.596
2014-08-04,1.63,1.68,1.63,1.675,7000,1.572
2014-08-01,1.61,1.63,1.61,1.63,41400,1.53
2014-07-31,1.60,1.60,1.60,1.60,3100,1.502
2014-07-30,1.55,1.60,1.55,1.60,32600,1.502
2014-07-29,1.54,1.54,1.54,1.54,3600,1.446
2014-07-28,1.54,1.54,1.53,1.53,20600,1.436
2014-07-25,1.54,1.54,1.54,1.54,1700,1.446
2014-07-24,1.56,1.60,1.54,1.57,24000,1.474
2014-07-23,1.56,1.56,1.56,1.56,100000,1.464
2014-07-22,1.53,1.53,1.53,1.53,000,1.436
2014-07-21,1.53,1.53,1.53,1.53,15000,1.436
2014-07-18,1.58,1.58,1.50,1.50,17400,1.408
2014-07-17,1.55,1.58,1.55,1.58,15600,1.483
2014-07-16,1.55,1.55,1.55,1.55,000,1.455
2014-07-15,1.54,1.55,1.52,1.55,30900,1.455
2014-07-14,1.54,1.54,1.54,1.54,4400,1.446
2014-07-11,1.56,1.56,1.54,1.54,12600,1.446
2014-07-10,1.54,1.54,1.54,1.54,000,1.446
2014-07-09,1.54,1.54,1.54,1.54,600,1.446
2014-07-08,1.53,1.53,1.50,1.52,1250400,1.427
2014-07-07,1.56,1.56,1.53,1.53,16000,1.436
2014-07-04,1.57,1.595,1.55,1.55,92000,1.455
2014-07-03,1.56,1.56,1.56,1.56,1100,1.464
2014-07-02,1.565,1.565,1.56,1.56,4900,1.464
2014-07-01,1.55,1.55,1.55,1.55,000,1.455
2014-06-30,1.55,1.55,1.55,1.55,7200,1.455
2014-06-27,1.55,1.55,1.55,1.55,000,1.455
2014-06-26,1.56,1.56,1.55,1.55,8000,1.455
2014-06-25,1.535,1.54,1.535,1.54,11600,1.446
2014-06-24,1.54,1.54,1.54,1.54,000,1.446
2014-06-23,1.55,1.55,1.54,1.54,16200,1.446
2014-06-20,1.645,1.645,1.555,1.555,8000,1.46
2014-06-19,1.58,1.58,1.58,1.58,000,1.483
2014-06-18,1.58,1.58,1.58,1.58,1000,1.483
2014-06-17,1.60,1.60,1.60,1.60,305000,1.502
2014-06-16,1.58,1.58,1.58,1.58,1600,1.483
2014-06-13,1.58,1.58,1.58,1.58,000,1.483
2014-06-12,1.55,1.58,1.55,1.58,7600,1.483
2014-06-11,1.55,1.55,1.55,1.55,000,1.455
2014-06-10,1.55,1.55,1.55,1.55,5300,1.455
2014-06-09,1.55,1.55,1.55,1.55,000,1.455
2014-06-06,1.55,1.55,1.55,1.55,3800,1.455
2014-06-05,1.555,1.60,1.555,1.60,4000,1.502
2014-06-04,1.54,1.57,1.54,1.57,33700,1.474
2014-06-03,1.54,1.56,1.53,1.56,23300,1.464
2014-06-02,1.565,1.565,1.56,1.56,5400,1.464
2014-05-30,1.525,1.585,1.51,1.585,22500,1.488
2014-05-29,1.52,1.52,1.52,1.52,000,1.427
2014-05-28,1.52,1.52,1.51,1.52,5700,1.427
2014-05-27,1.53,1.53,1.52,1.52,3700,1.427
2014-05-26,1.56,1.56,1.53,1.53,11800,1.436
2014-05-23,1.60,1.60,1.60,1.60,000,1.502
2014-05-22,1.605,1.605,1.60,1.60,13700,1.502
2014-05-21,1.61,1.61,1.60,1.60,6200,1.502
2014-05-20,1.61,1.61,1.61,1.61,000,1.511
2014-05-19,1.65,1.65,1.61,1.61,3300,1.511
2014-05-16,1.64,1.65,1.635,1.635,19300,1.535
2014-05-15,1.65,1.70,1.65,1.70,11400,1.596
2014-05-14,1.63,1.65,1.63,1.65,1500,1.549
2014-05-13,1.54,1.60,1.54,1.60,25200,1.502
2014-05-12,1.55,1.55,1.54,1.55,6500,1.455
2014-05-09,1.50,1.54,1.49,1.54,9500,1.446
2014-05-08,1.50,1.51,1.50,1.50,34000,1.408
2014-05-07,1.50,1.515,1.48,1.48,57600,1.389
2014-05-06,1.63,1.63,1.53,1.54,44300,1.446
2014-05-05,1.65,1.65,1.64,1.64,27300,1.54
2014-05-02,1.68,1.68,1.66,1.66,68900,1.558
2014-05-01,1.685,1.685,1.68,1.68,7200,1.577
2014-04-30,1.685,1.685,1.685,1.685,000,1.582
2014-04-29,1.685,1.685,1.685,1.685,4200,1.582
2014-04-28,1.685,1.685,1.685,1.685,19500,1.582
2014-04-25,1.75,1.75,1.75,1.75,000,1.643
2014-04-24,1.75,1.75,1.75,1.75,8500,1.643
2014-04-23,1.72,1.72,1.72,1.72,8000,1.615
2014-04-22,1.71,1.71,1.71,1.71,16300,1.605
2014-04-21,1.745,1.745,1.745,1.745,000,1.638
2014-04-18,1.745,1.745,1.745,1.745,000,1.638
2014-04-17,1.745,1.745,1.745,1.745,1000,1.638
2014-04-16,1.74,1.745,1.70,1.70,21700,1.596
2014-04-15,1.72,1.745,1.72,1.745,28700,1.638
2014-04-14,1.70,1.70,1.69,1.69,18200,1.587
2014-04-11,1.72,1.72,1.72,1.72,2900,1.615
2014-04-10,1.71,1.71,1.70,1.70,27800,1.596
2014-04-09,1.70,1.73,1.70,1.71,12900,1.605
2014-04-08,1.74,1.74,1.70,1.70,22700,1.596
2014-04-07,1.77,1.77,1.74,1.74,18800,1.633
2014-04-04,1.76,1.76,1.76,1.76,50400,1.652
2014-04-03,1.76,1.76,1.76,1.76,251300,1.652
2014-04-02,1.79,1.79,1.775,1.775,507400,1.666
2014-04-01,1.775,1.775,1.775,1.775,000,1.666
2014-03-31,1.75,1.775,1.75,1.775,15700,1.666
2014-03-28,1.72,1.72,1.72,1.72,000,1.615
2014-03-27,1.72,1.72,1.72,1.72,3400,1.615
2014-03-26,1.75,1.75,1.72,1.72,28100,1.615
2014-03-25,1.75,1.75,1.75,1.75,2800,1.643
2014-03-24,1.78,1.78,1.78,1.78,1700,1.671
2014-03-21,1.74,1.78,1.72,1.78,34200,1.671
2014-03-20,1.73,1.775,1.73,1.74,24400,1.633
2014-03-19,1.725,1.74,1.725,1.74,13200,1.633
2014-03-18,1.74,1.74,1.68,1.68,8700,1.577
2014-03-17,1.70,1.73,1.70,1.73,25000,1.624
2014-03-14,1.75,1.75,1.745,1.75,37700,1.624
2014-03-13,1.75,1.78,1.745,1.75,56000,1.624
2014-03-12,1.75,1.78,1.75,1.78,44500,1.652
2014-03-11,1.78,1.78,1.75,1.75,43200,1.624
2014-03-10,1.76,1.80,1.755,1.77,52600,1.643
2014-03-07,1.78,1.78,1.76,1.76,7800,1.633
2014-03-06,1.755,1.785,1.75,1.78,40300,1.652
2014-03-05,1.755,1.80,1.755,1.785,68400,1.657
2014-03-04,1.76,1.76,1.75,1.75,35000,1.624
2014-03-03,1.765,1.78,1.76,1.76,31200,1.633
2014-02-28,1.755,1.78,1.75,1.75,10300,1.624
2014-02-27,1.75,1.75,1.75,1.75,46300,1.624
2014-02-26,1.77,1.79,1.75,1.75,41500,1.624
2014-02-25,1.81,1.84,1.80,1.80,46400,1.67
2014-02-24,1.84,1.84,1.80,1.81,80500,1.68
2014-02-21,1.77,1.83,1.77,1.80,112400,1.67
2014-02-20,1.78,1.78,1.71,1.77,69500,1.643
2014-02-19,1.725,1.85,1.71,1.775,2288200,1.647
2014-02-18,1.69,1.755,1.66,1.69,145900,1.568
2014-02-17,1.56,1.56,1.56,1.56,1900,1.448
2014-02-14,1.56,1.57,1.55,1.57,27100,1.457
2014-02-13,1.55,1.59,1.55,1.59,14600,1.476
2014-02-12,1.53,1.55,1.53,1.55,17000,1.438
2014-02-11,1.48,1.51,1.48,1.51,33600,1.401
2014-02-10,1.445,1.45,1.445,1.45,10600,1.346
2014-02-07,1.43,1.43,1.43,1.43,000,1.327
2014-02-06,1.43,1.43,1.43,1.43,000,1.327
2014-02-05,1.43,1.43,1.43,1.43,000,1.327
2014-02-04,1.43,1.43,1.43,1.43,000,1.327
2014-02-03,1.43,1.43,1.43,1.43,000,1.327
2014-01-31,1.50,1.51,1.42,1.43,11200,1.327
2014-01-30,1.50,1.50,1.50,1.50,2800,1.392
2014-01-29,1.50,1.50,1.50,1.50,000,1.392
2014-01-28,1.50,1.50,1.50,1.50,000,1.392
2014-01-27,1.50,1.50,1.50,1.50,000,1.392
2014-01-24,1.50,1.50,1.50,1.50,000,1.392
2014-01-23,1.50,1.50,1.50,1.50,000,1.392
2014-01-22,1.50,1.50,1.50,1.50,000,1.392
2014-01-21,1.50,1.50,1.50,1.50,12200,1.392
2014-01-20,1.53,1.53,1.50,1.50,3300,1.392
2014-01-17,1.48,1.50,1.48,1.50,10900,1.392
2014-01-16,1.42,1.425,1.42,1.42,3300,1.318
2014-01-15,1.375,1.38,1.375,1.38,5200,1.281
2014-01-14,1.375,1.38,1.37,1.37,25800,1.271
2014-01-13,1.36,1.37,1.35,1.37,73600,1.271
2014-01-10,1.40,1.40,1.365,1.365,61000,1.267
2014-01-09,1.47,1.47,1.38,1.40,80300,1.299
2014-01-08,1.47,1.47,1.47,1.47,12700,1.364
2014-01-07,1.45,1.45,1.45,1.45,2300,1.346
2014-01-06,1.50,1.50,1.45,1.45,19400,1.346
2014-01-03,1.57,1.57,1.50,1.50,12400,1.392
2014-01-02,1.58,1.58,1.58,1.58,000,1.466
2014-01-01,1.58,1.58,1.58,1.58,000,1.466
2013-12-31,1.58,1.585,1.58,1.58,17900,1.466
2013-12-30,1.59,1.59,1.58,1.58,20600,1.466
2013-12-27,1.55,1.58,1.55,1.58,18900,1.466
2013-12-26,1.53,1.53,1.53,1.53,000,1.42
2013-12-25,1.53,1.53,1.53,1.53,000,1.42
2013-12-24,1.50,1.53,1.50,1.53,9200,1.42
2013-12-23,1.49,1.49,1.46,1.46,8600,1.355
2013-12-20,1.445,1.45,1.445,1.45,24900,1.346
2013-12-19,1.40,1.40,1.38,1.40,36600,1.299
2013-12-18,1.375,1.375,1.375,1.375,000,1.276
2013-12-17,1.375,1.375,1.37,1.375,160200,1.276
2013-12-16,1.37,1.375,1.37,1.375,6400,1.276
2013-12-13,1.34,1.375,1.34,1.375,5700,1.276
2013-12-12,1.30,1.30,1.30,1.30,000,1.206
2013-12-11,1.35,1.35,1.25,1.30,78600,1.206
2013-12-10,1.31,1.35,1.31,1.35,7700,1.253
2013-12-09,1.445,1.45,1.27,1.27,120300,1.179
2013-12-06,1.48,1.48,1.40,1.45,99000,1.346
2013-12-05,1.50,1.50,1.48,1.48,6400,1.373
2013-12-04,1.515,1.515,1.515,1.515,000,1.406
2013-12-03,1.50,1.515,1.50,1.515,6700,1.406
2013-12-02,1.55,1.55,1.48,1.48,50600,1.373
2013-11-29,1.53,1.53,1.53,1.53,1200,1.42
2013-11-28,1.505,1.51,1.505,1.51,7600,1.401
2013-11-27,1.50,1.50,1.50,1.50,000,1.392
2013-11-26,1.50,1.51,1.50,1.50,26000,1.392
2013-11-25,1.54,1.54,1.50,1.50,10000,1.392
2013-11-22,1.54,1.54,1.54,1.54,5200,1.429
2013-11-21,1.54,1.55,1.54,1.54,28700,1.429
2013-11-20,1.54,1.55,1.54,1.54,24800,1.429
2013-11-19,1.52,1.52,1.52,1.52,10000,1.411
2013-11-18,1.535,1.535,1.52,1.52,1010100,1.411
2013-11-15,1.58,1.59,1.58,1.585,7900,1.471
2013-11-14,1.59,1.59,1.56,1.58,19800,1.466
2013-11-13,1.54,1.54,1.53,1.53,8900,1.42
2013-11-12,1.52,1.52,1.52,1.52,000,1.411
2013-11-11,1.53,1.53,1.52,1.52,57100,1.411
2013-11-08,1.525,1.53,1.50,1.53,11400,1.42
2013-11-07,1.53,1.53,1.52,1.52,16900,1.411
2013-11-06,1.53,1.53,1.52,1.52,63300,1.411
2013-11-05,1.53,1.53,1.53,1.53,000,1.42
2013-11-04,1.51,1.53,1.51,1.53,14700,1.42
2013-11-01,1.53,1.53,1.53,1.53,2200,1.42
2013-10-31,1.535,1.55,1.535,1.55,10000,1.438
2013-10-30,1.55,1.55,1.515,1.515,10700,1.406
2013-10-29,1.54,1.59,1.54,1.59,18900,1.476
2013-10-28,1.585,1.585,1.505,1.505,32800,1.397
2013-10-25,1.59,1.60,1.59,1.59,10000,1.476
2013-10-24,1.585,1.60,1.58,1.58,62500,1.466
2013-10-23,1.49,1.63,1.49,1.585,132100,1.471
2013-10-22,1.47,1.485,1.47,1.485,1202400,1.378
2013-10-21,1.50,1.54,1.46,1.49,125200,1.383
2013-10-18,1.485,1.50,1.46,1.47,36700,1.364
2013-10-17,1.475,1.475,1.35,1.47,115100,1.364
2013-10-16,1.495,1.50,1.475,1.50,46500,1.392
2013-10-15,1.50,1.50,1.495,1.495,31200,1.387
2013-10-14,1.50,1.50,1.50,1.50,4800,1.392
2013-10-11,1.55,1.55,1.51,1.51,21200,1.401
2013-10-10,1.50,1.55,1.50,1.55,52800,1.438
2013-10-09,1.52,1.52,1.46,1.52,49600,1.411
2013-10-08,1.495,1.55,1.49,1.50,119300,1.392
2013-10-07,1.47,1.49,1.46,1.49,20600,1.383
2013-10-04,1.495,1.495,1.495,1.495,3300,1.387
2013-10-03,1.495,1.52,1.495,1.495,61900,1.387
2013-10-02,1.475,1.475,1.465,1.475,18000,1.369
2013-10-01,1.465,1.465,1.465,1.465,501100,1.36
2013-09-30,1.50,1.50,1.485,1.485,3200,1.378
2013-09-27,1.50,1.50,1.50,1.50,6600,1.392
2013-09-26,1.50,1.50,1.45,1.50,21100,1.392
2013-09-25,1.51,1.51,1.50,1.50,32100,1.392
2013-09-24,1.555,1.56,1.51,1.51,37800,1.401
2013-09-23,1.50,1.555,1.50,1.50,87100,1.392
2013-09-20,1.50,1.50,1.50,1.50,66700,1.392
2013-09-19,1.45,1.50,1.445,1.50,90200,1.392
2013-09-18,1.48,1.48,1.42,1.43,51500,1.327
2013-09-17,1.525,1.525,1.47,1.48,158700,1.373
2013-09-16,1.57,1.57,1.50,1.565,37200,1.452
2013-09-13,1.60,1.60,1.56,1.595,22500,1.469
2013-09-12,1.70,1.70,1.60,1.60,54600,1.474
2013-09-11,1.75,1.75,1.645,1.685,55100,1.552
2013-09-10,1.85,1.85,1.675,1.675,109700,1.543
2013-09-09,1.64,1.89,1.64,1.89,37300,1.741
2013-09-06,1.57,1.60,1.57,1.60,191500,1.474
2013-09-05,1.53,1.60,1.53,1.59,39200,1.465
2013-09-04,1.55,1.55,1.50,1.54,61100,1.419
2013-09-03,1.38,1.52,1.38,1.52,438000,1.40
2013-09-02,1.31,1.31,1.31,1.31,000,1.207
2013-08-30,1.35,1.35,1.305,1.31,7300,1.207
2013-08-29,1.40,1.40,1.35,1.35,1200,1.244
2013-08-28,1.40,1.40,1.40,1.40,1400,1.29
2013-08-27,1.31,1.35,1.31,1.35,430500,1.244
2013-08-26,1.305,1.31,1.305,1.31,1500,1.207
2013-08-23,1.28,1.28,1.28,1.28,000,1.179
2013-08-22,1.28,1.28,1.28,1.28,000,1.179
2013-08-21,1.28,1.28,1.28,1.28,000,1.179
2013-08-20,1.25,1.28,1.25,1.28,9200,1.179
2013-08-19,1.26,1.27,1.25,1.25,27300,1.151
2013-08-16,1.25,1.25,1.25,1.25,5800,1.151
2013-08-15,1.24,1.25,1.22,1.22,7600,1.124
2013-08-14,1.22,1.22,1.22,1.22,000,1.124
2013-08-13,1.22,1.22,1.22,1.22,11600,1.124
2013-08-12,1.17,1.22,1.17,1.22,46700,1.124
2013-08-09,1.16,1.16,1.16,1.16,40000,1.069
2013-08-08,1.17,1.17,1.16,1.16,12000,1.069
2013-08-07,1.155,1.16,1.155,1.16,42900,1.069
2013-08-06,1.16,1.17,1.155,1.16,38100,1.069
2013-08-05,1.19,1.19,1.16,1.17,75000,1.078
2013-08-02,1.20,1.20,1.20,1.20,2050000,1.105
2013-08-01,1.22,1.245,1.20,1.20,16300,1.105
2013-07-31,1.21,1.22,1.21,1.22,39000,1.124
2013-07-30,1.05,1.21,1.05,1.20,131100,1.105
2013-07-29,1.03,1.03,1.03,1.03,000,0.949
2013-07-26,1.03,1.03,1.03,1.03,9000,0.949
2013-07-25,1.01,1.01,1.01,1.01,21200,0.93
2013-07-24,1.03,1.03,1.03,1.03,000,0.949
2013-07-23,1.03,1.03,1.03,1.03,1000,0.949
2013-07-22,1.02,1.02,1.02,1.02,3000,0.94
2013-07-19,1.03,1.03,1.03,1.03,000,0.949
2013-07-18,1.03,1.03,1.02,1.02,4700,0.94
2013-07-17,1.00,1.00,1.00,1.00,000,0.921
2013-07-16,1.00,1.00,1.00,1.00,000,0.921
2013-07-15,1.00,1.00,1.00,1.00,000,0.921
2013-07-12,1.00,1.00,1.00,1.00,000,0.921
2013-07-11,1.00,1.00,1.00,1.00,000,0.921
2013-07-10,1.00,1.00,1.00,1.00,000,0.921
2013-07-09,1.00,1.00,1.00,1.00,500,0.921
2013-07-08,1.01,1.01,1.00,1.01,75000,0.93
2013-07-05,1.01,1.01,1.01,1.01,5000,0.93
2013-07-04,1.01,1.01,1.01,1.01,000,0.93
2013-07-03,1.01,1.01,1.01,1.01,000,0.93
2013-07-02,1.01,1.01,1.01,1.01,000,0.93
2013-07-01,1.01,1.01,1.01,1.01,000,0.93
2013-06-28,1.01,1.01,1.01,1.01,000,0.93
2013-06-27,1.01,1.01,1.01,1.01,6000,0.93
2013-06-26,1.01,1.01,1.01,1.01,000,0.93
2013-06-25,1.01,1.01,1.01,1.01,000,0.93
2013-06-24,1.01,1.01,1.01,1.01,1600,0.93
2013-06-21,1.05,1.05,1.03,1.03,10000,0.949
2013-06-20,1.05,1.05,1.05,1.05,40000,0.967
2013-06-19,1.06,1.06,1.05,1.05,13100,0.967
2013-06-18,1.05,1.05,1.05,1.05,10500,0.967
2013-06-17,1.05,1.075,1.05,1.05,85800,0.967
2013-06-14,1.05,1.05,1.05,1.05,000,0.967
2013-06-13,1.05,1.05,1.05,1.05,000,0.967
2013-06-12,1.05,1.05,1.05,1.05,000,0.967
2013-06-11,1.05,1.05,1.05,1.05,000,0.967
2013-06-10,1.05,1.05,1.05,1.05,000,0.967
2013-06-07,1.09,1.09,1.05,1.05,7200,0.967
2013-06-06,1.09,1.09,1.09,1.09,000,1.004
2013-06-05,1.09,1.09,1.09,1.09,000,1.004
2013-06-04,1.09,1.09,1.09,1.09,4000,1.004
2013-06-03,1.09,1.09,1.09,1.09,501500,1.004
2013-05-31,1.10,1.10,1.10,1.10,12400,1.013
2013-05-30,1.10,1.10,1.10,1.10,000,1.013
2013-05-29,1.10,1.10,1.10,1.10,13800,1.013
2013-05-28,1.04,1.04,1.04,1.04,5000,0.958
2013-05-27,1.03,1.03,1.03,1.03,300,0.949
2013-05-24,1.01,1.01,1.01,1.01,000,0.93
2013-05-23,1.01,1.01,1.01,1.01,000,0.93
2013-05-22,1.01,1.01,1.01,1.01,129300,0.93
2013-05-21,1.02,1.02,1.02,1.02,000,0.94
2013-05-20,1.02,1.02,1.02,1.02,165000,0.94
2013-05-17,1.02,1.02,1.02,1.02,230000,0.94
2013-05-16,1.02,1.02,1.02,1.02,346800,0.94
2013-05-15,1.02,1.02,1.02,1.02,200000,0.94
2013-05-14,1.01,1.01,1.005,1.005,115000,0.926
2013-05-13,1.01,1.01,1.01,1.01,000,0.93
2013-05-10,1.01,1.01,1.01,1.01,000,0.93
2013-05-09,1.01,1.01,1.01,1.01,5000,0.93
2013-05-08,1.01,1.01,1.01,1.01,000,0.93
2013-05-07,1.02,1.02,1.01,1.01,15000,0.93
2013-05-06,1.10,1.10,1.10,1.10,1300,1.013
2013-05-03,1.00,1.00,1.00,1.00,000,0.921
2013-05-02,1.00,1.00,1.00,1.00,000,0.921
2013-05-01,1.00,1.00,1.00,1.00,17500,0.921
2013-04-30,1.00,1.00,1.00,1.00,000,0.921
2013-04-29,1.02,1.02,1.00,1.00,17000,0.921
2013-04-26,1.03,1.03,1.01,1.015,37000,0.935
2013-04-25,1.03,1.03,1.03,1.03,000,0.949
2013-04-24,1.05,1.05,1.03,1.03,2600,0.949
2013-04-23,0.99,1.07,0.99,1.07,18900,0.986
2013-04-22,0.96,0.96,0.96,0.96,000,0.884
2013-04-19,0.96,0.96,0.96,0.96,000,0.884
2013-04-18,0.96,0.96,0.96,0.96,400,0.884
2013-04-17,1.00,1.00,0.95,0.95,80400,0.875
2013-04-16,1.00,1.00,1.00,1.00,25000,0.921
2013-04-15,1.05,1.05,1.00,1.00,53600,0.921
2013-04-12,1.05,1.07,1.045,1.07,17300,0.986
2013-04-11,1.045,1.045,1.045,1.045,1000,0.963
2013-04-10,1.04,1.045,1.04,1.045,9400,0.963
2013-04-09,1.11,1.11,1.11,1.11,000,1.023
2013-04-08,1.11,1.11,1.11,1.11,500,1.023
2013-04-05,1.065,1.095,1.00,1.095,42000,1.009
2013-04-04,1.25,1.25,1.25,1.25,000,1.151
2013-04-03,1.25,1.25,1.25,1.25,500,1.151
2013-04-02,1.40,1.50,1.35,1.35,38700,1.244
2013-04-01,1.40,1.40,1.40,1.40,000,1.29
2013-03-29,1.40,1.40,1.40,1.40,000,1.29
2013-03-28,1.30,1.45,1.30,1.40,54900,1.29
2013-03-27,1.20,1.25,1.20,1.25,22200,1.151
2013-03-26,1.20,1.20,1.20,1.20,31000,1.105
2013-03-25,1.04,1.19,1.04,1.18,28800,1.087
2013-03-22,1.03,1.04,1.03,1.04,4600,0.958
2013-03-21,1.00,1.00,1.00,1.00,3400,0.921
2013-03-20,1.00,1.00,1.00,1.00,000,0.921
2013-03-19,1.00,1.00,1.00,1.00,1500,0.921
2013-03-18,0.95,0.95,0.95,0.95,000,0.875
2013-03-15,0.90,0.95,0.90,0.95,7600,0.875
2013-03-14,0.82,0.82,0.82,0.82,000,0.755
2013-03-13,0.82,0.82,0.82,0.82,000,0.755
2013-03-12,0.82,0.82,0.82,0.82,000,0.755
2013-03-11,0.82,0.82,0.82,0.82,000,0.755
2013-03-08,0.82,0.82,0.82,0.82,000,0.755
2013-03-07,0.82,0.82,0.82,0.82,700,0.749
2013-03-06,0.77,0.77,0.77,0.77,000,0.703
2013-03-05,0.77,0.77,0.77,0.77,000,0.703
2013-03-04,0.77,0.77,0.77,0.77,000,0.703
2013-03-01,0.77,0.77,0.77,0.77,000,0.703
2013-02-28,0.77,0.77,0.77,0.77,000,0.703
2013-02-27,0.77,0.77,0.77,0.77,000,0.703
2013-02-26,0.77,0.77,0.77,0.77,2500,0.703
2013-02-25,0.75,0.75,0.75,0.75,000,0.685
2013-02-22,0.75,0.75,0.75,0.75,000,0.685
2013-02-21,0.80,0.80,0.75,0.75,9000,0.685
2013-02-20,0.80,0.80,0.80,0.80,000,0.731
2013-02-19,0.80,0.80,0.80,0.80,6800,0.731
2013-02-18,0.81,0.81,0.81,0.81,000,0.74
2013-02-15,0.735,0.81,0.73,0.81,18700,0.74
2013-02-14,0.80,0.80,0.80,0.80,000,0.731
2013-02-13,0.80,0.80,0.80,0.80,000,0.731
2013-02-12,0.80,0.80,0.80,0.80,000,0.731
2013-02-11,0.80,0.80,0.80,0.80,000,0.731
2013-02-08,0.80,0.80,0.80,0.80,000,0.731
2013-02-07,0.80,0.80,0.80,0.80,000,0.731
2013-02-06,0.80,0.80,0.80,0.80,700,0.731
2013-02-05,0.80,0.80,0.80,0.80,000,0.731
2013-02-04,0.76,0.80,0.755,0.80,17700,0.731
2013-02-01,0.725,0.725,0.725,0.725,200,0.662
2013-01-31,0.70,0.70,0.70,0.70,000,0.639
2013-01-30,0.70,0.70,0.70,0.70,000,0.639
2013-01-29,0.70,0.70,0.70,0.70,27000,0.639
2013-01-28,0.57,0.57,0.57,0.57,000,0.521
2013-01-25,0.57,0.57,0.57,0.57,000,0.521
2013-01-24,0.57,0.57,0.57,0.57,000,0.521
2013-01-22,0.57,0.57,0.57,0.57,000,0.521
2013-01-21,0.57,0.57,0.57,0.57,000,0.521
2013-01-18,0.57,0.57,0.57,0.57,000,0.521
2013-01-17,0.57,0.57,0.57,0.57,000,0.521
2013-01-16,0.57,0.57,0.57,0.57,000,0.521
2013-01-15,0.57,0.57,0.57,0.57,000,0.521
2013-01-14,0.57,0.57,0.57,0.57,000,0.521
2013-01-11,0.57,0.57,0.57,0.57,000,0.521
2013-01-10,0.57,0.57,0.57,0.57,000,0.521
2013-01-09,0.57,0.57,0.57,0.57,000,0.521
2013-01-08,0.57,0.57,0.57,0.57,000,0.521
2013-01-07,0.57,0.57,0.57,0.57,000,0.521
2013-01-04,0.57,0.57,0.57,0.57,000,0.521
2013-01-03,0.57,0.57,0.57,0.57,000,0.521
2013-01-02,0.57,0.57,0.57,0.57,000,0.521
2013-01-01,0.57,0.57,0.57,0.57,000,0.521
2012-12-31,0.57,0.57,0.57,0.57,000,0.521
2012-12-28,0.57,0.57,0.57,0.57,000,0.521
2012-12-27,0.57,0.57,0.57,0.57,000,0.521
2012-12-26,0.57,0.57,0.57,0.57,000,0.521
2012-12-25,0.57,0.57,0.57,0.57,000,0.521
2012-12-24,0.57,0.57,0.57,0.57,000,0.521
2012-12-21,0.57,0.57,0.57,0.57,000,0.521
2012-12-20,0.57,0.57,0.57,0.57,000,0.521
2012-12-19,0.57,0.57,0.57,0.57,000,0.521
2012-12-18,0.57,0.57,0.57,0.57,000,0.521
2012-12-17,0.57,0.57,0.57,0.57,000,0.521
2012-12-14,0.57,0.57,0.57,0.57,000,0.521
2012-12-13,0.57,0.57,0.57,0.57,000,0.521
2012-12-12,0.57,0.57,0.57,0.57,000,0.521
2012-12-11,0.57,0.57,0.57,0.57,000,0.521
2012-12-10,0.57,0.57,0.57,0.57,50600,0.521
2012-12-07,0.57,0.57,0.57,0.57,200,0.521
2012-12-06,0.60,0.60,0.60,0.60,000,0.548
2012-12-05,0.60,0.60,0.60,0.60,15000,0.548
2012-12-04,0.60,0.60,0.60,0.60,000,0.548
2012-12-03,0.60,0.60,0.60,0.60,11000,0.548
2012-11-30,0.55,0.55,0.55,0.55,000,0.502
2012-11-29,0.55,0.55,0.55,0.55,000,0.502
2012-11-28,0.55,0.55,0.55,0.55,000,0.502
2012-11-27,0.55,0.55,0.55,0.55,000,0.502
2012-11-26,0.55,0.55,0.55,0.55,000,0.502
2012-11-23,0.55,0.55,0.55,0.55,000,0.502
2012-11-22,0.55,0.55,0.55,0.55,000,0.502
2012-11-21,0.55,0.55,0.55,0.55,6200,0.502
2012-11-20,0.55,0.55,0.55,0.55,7100,0.502
2012-11-19,0.55,0.55,0.55,0.55,17200,0.502
2012-11-16,0.55,0.55,0.55,0.55,1700,0.502
2012-11-15,0.495,0.495,0.495,0.495,000,0.452
2012-11-14,0.495,0.495,0.495,0.495,000,0.452
2012-11-13,0.495,0.495,0.495,0.495,000,0.452
2012-11-12,0.495,0.495,0.495,0.495,000,0.452
2012-11-09,0.495,0.495,0.495,0.495,000,0.452
2012-11-08,0.495,0.495,0.495,0.495,000,0.452
2012-11-07,0.495,0.495,0.495,0.495,000,0.452
2012-11-06,0.495,0.495,0.495,0.495,45600,0.452
2012-11-05,0.475,0.475,0.475,0.475,000,0.434
2012-11-02,0.475,0.475,0.475,0.475,000,0.434
2012-11-01,0.475,0.475,0.475,0.475,000,0.434
2012-10-31,0.475,0.475,0.475,0.475,000,0.434
2012-10-30,0.475,0.475,0.475,0.475,000,0.434
2012-10-29,0.475,0.475,0.475,0.475,000,0.434
2012-10-26,0.475,0.475,0.475,0.475,000,0.434
2012-10-25,0.475,0.475,0.475,0.475,21700,0.434
2012-10-24,0.49,0.49,0.49,0.49,2000,0.447
2012-10-23,0.49,0.49,0.49,0.49,000,0.447
2012-10-22,0.49,0.49,0.49,0.49,000,0.447
2012-10-19,0.49,0.49,0.49,0.49,000,0.447
2012-10-18,0.49,0.49,0.49,0.49,3100,0.447
2012-10-17,0.49,0.49,0.49,0.49,62400,0.447
2012-10-16,0.49,0.49,0.49,0.49,106600,0.447
2012-10-15,0.50,0.50,0.50,0.50,9000,0.457
2012-10-12,0.475,0.475,0.475,0.475,000,0.434
2012-10-11,0.475,0.475,0.475,0.475,000,0.434
2012-10-10,0.47,0.475,0.47,0.475,31200,0.434
2012-10-09,0.465,0.465,0.465,0.465,000,0.425
2012-10-08,0.465,0.465,0.465,0.465,000,0.425
2012-10-05,0.465,0.465,0.465,0.465,000,0.425
2012-10-04,0.465,0.465,0.465,0.465,000,0.425
2012-10-03,0.465,0.465,0.465,0.465,23000,0.425
2012-10-02,0.465,0.465,0.465,0.465,000,0.425
2012-10-01,0.45,0.465,0.45,0.465,39500,0.425
2012-09-28,0.425,0.425,0.425,0.425,000,0.388
2012-09-27,0.425,0.425,0.425,0.425,3200,0.388
2012-09-26,0.425,0.425,0.425,0.425,000,0.388
2012-09-25,0.425,0.425,0.425,0.425,000,0.388
2012-09-24,0.425,0.425,0.425,0.425,000,0.388
2012-09-21,0.425,0.425,0.425,0.425,000,0.388
2012-09-20,0.425,0.425,0.425,0.425,000,0.388
2012-09-19,0.425,0.425,0.425,0.425,1900,0.388
2012-09-18,0.40,0.40,0.40,0.40,000,0.365
2012-09-17,0.40,0.40,0.40,0.40,000,0.365
2012-09-14,0.40,0.40,0.40,0.40,000,0.365
2012-09-13,0.40,0.40,0.40,0.40,000,0.365
2012-09-12,0.40,0.40,0.40,0.40,000,0.365
2012-09-11,0.40,0.40,0.40,0.40,000,0.365
2012-09-10,0.40,0.40,0.40,0.40,000,0.365
2012-09-07,0.40,0.40,0.40,0.40,000,0.359
2012-09-06,0.40,0.40,0.40,0.40,000,0.359
2012-09-05,0.40,0.40,0.40,0.40,000,0.359
2012-09-04,0.40,0.40,0.40,0.40,000,0.359
2012-09-03,0.40,0.40,0.40,0.40,000,0.359
2012-08-31,0.40,0.40,0.40,0.40,000,0.359
2012-08-30,0.40,0.40,0.40,0.40,000,0.359
2012-08-29,0.40,0.40,0.40,0.40,000,0.359
2012-08-28,0.40,0.40,0.40,0.40,21400,0.359
2012-08-27,0.40,0.40,0.40,0.40,000,0.359
2012-08-24,0.40,0.40,0.40,0.40,000,0.359
2012-08-23,0.40,0.40,0.40,0.40,000,0.359
2012-08-22,0.40,0.40,0.40,0.40,000,0.359
2012-08-21,0.40,0.40,0.40,0.40,000,0.359
2012-08-20,0.40,0.40,0.40,0.40,2500,0.359
2012-08-17,0.39,0.39,0.39,0.39,4300,0.35
2012-08-16,0.39,0.39,0.39,0.39,000,0.35
2012-08-15,0.39,0.39,0.39,0.39,000,0.35
2012-08-14,0.39,0.39,0.39,0.39,6200,0.35
2012-08-13,0.39,0.39,0.39,0.39,4500,0.35
2012-08-10,0.39,0.39,0.39,0.39,000,0.35
2012-08-09,0.39,0.39,0.39,0.39,000,0.35
2012-08-08,0.39,0.39,0.39,0.39,500,0.35
2012-08-07,0.39,0.39,0.39,0.39,2500,0.35
2012-08-06,0.405,0.405,0.405,0.405,14100,0.363
2012-08-03,0.405,0.405,0.40,0.40,14700,0.359
2012-08-02,0.40,0.40,0.40,0.40,000,0.359
2012-08-01,0.40,0.40,0.40,0.40,000,0.359
2012-07-31,0.40,0.40,0.40,0.40,000,0.359
2012-07-30,0.40,0.40,0.40,0.40,000,0.359
2012-07-27,0.40,0.40,0.40,0.40,000,0.359
2012-07-26,0.40,0.40,0.40,0.40,000,0.359
2012-07-25,0.40,0.40,0.40,0.40,000,0.359
2012-07-24,0.40,0.40,0.40,0.40,000,0.359
2012-07-23,0.40,0.40,0.40,0.40,000,0.359
2012-07-20,0.40,0.40,0.40,0.40,000,0.359
2012-07-19,0.40,0.40,0.40,0.40,000,0.359
2012-07-18,0.40,0.40,0.40,0.40,000,0.359
2012-07-17,0.40,0.40,0.40,0.40,000,0.359
2012-07-16,0.40,0.40,0.40,0.40,000,0.359
2012-07-13,0.40,0.40,0.40,0.40,000,0.359
2012-07-12,0.40,0.40,0.40,0.40,000,0.359
2012-07-11,0.40,0.40,0.40,0.40,000,0.359
2012-07-10,0.40,0.40,0.40,0.40,000,0.359
2012-07-09,0.40,0.40,0.40,0.40,27000,0.359
2012-07-06,0.39,0.39,0.385,0.385,3700,0.345
2012-07-05,0.385,0.385,0.385,0.385,1200,0.345
2012-07-04,0.37,0.37,0.37,0.37,000,0.332
2012-07-03,0.37,0.37,0.37,0.37,10000,0.332
2012-07-02,0.375,0.375,0.375,0.375,000,0.336
2012-06-29,0.37,0.375,0.37,0.375,20000,0.336
2012-06-28,0.37,0.37,0.37,0.37,15000,0.332
2012-06-27,0.375,0.375,0.375,0.375,25000,0.336
2012-06-26,0.37,0.37,0.37,0.37,35000,0.332
2012-06-25,0.375,0.375,0.375,0.375,000,0.336
2012-06-22,0.375,0.375,0.375,0.375,000,0.336
2012-06-21,0.375,0.375,0.375,0.375,20000,0.336
2012-06-20,0.375,0.375,0.375,0.375,10000,0.336
2012-06-19,0.375,0.375,0.37,0.37,15000,0.332
2012-06-18,0.37,0.37,0.37,0.37,000,0.332
2012-06-15,0.37,0.37,0.37,0.37,12300,0.332
2012-06-14,0.39,0.39,0.39,0.39,18400,0.35
2012-06-13,0.37,0.37,0.37,0.37,000,0.332
2012-06-12,0.37,0.37,0.37,0.37,000,0.332
2012-06-11,0.37,0.37,0.37,0.37,000,0.332
2012-06-08,0.37,0.37,0.37,0.37,000,0.332
2012-06-07,0.37,0.37,0.37,0.37,7100,0.332
2012-06-06,0.36,0.36,0.36,0.36,000,0.323
2012-06-05,0.36,0.36,0.36,0.36,000,0.323
2012-06-04,0.36,0.36,0.36,0.36,000,0.323
2012-06-01,0.36,0.36,0.36,0.36,000,0.323
2012-05-31,0.36,0.36,0.36,0.36,000,0.323
2012-05-30,0.36,0.36,0.36,0.36,000,0.323
2012-05-29,0.36,0.36,0.36,0.36,000,0.323
2012-05-28,0.36,0.36,0.36,0.36,000,0.323
2012-05-25,0.36,0.36,0.36,0.36,000,0.323
2012-05-24,0.36,0.36,0.36,0.36,13300,0.323
2012-05-23,0.335,0.335,0.335,0.335,000,0.30
2012-05-22,0.335,0.335,0.335,0.335,2800,0.30
2012-05-21,0.33,0.33,0.33,0.33,3300,0.296
2012-05-18,0.345,0.345,0.345,0.345,14200,0.309
2012-05-17,0.32,0.32,0.32,0.32,000,0.287
2012-05-16,0.32,0.32,0.32,0.32,000,0.287
2012-05-15,0.32,0.32,0.32,0.32,000,0.287
2012-05-14,0.32,0.32,0.32,0.32,31800,0.287
2012-05-11,0.32,0.32,0.32,0.32,6800,0.287
2012-05-10,0.32,0.32,0.32,0.32,000,0.287
2012-05-09,0.32,0.32,0.32,0.32,3100,0.287
2012-05-08,0.32,0.32,0.31,0.32,12600,0.287
2012-05-07,0.32,0.32,0.32,0.32,41100,0.287
2012-05-04,0.32,0.32,0.32,0.32,30000,0.287
2012-05-03,0.32,0.32,0.32,0.32,20000,0.287
2012-05-02,0.32,0.32,0.32,0.32,000,0.287
2012-05-01,0.32,0.32,0.32,0.32,000,0.287
2012-04-30,0.32,0.32,0.32,0.32,000,0.287
2012-04-27,0.32,0.32,0.32,0.32,000,0.287
2012-04-26,0.32,0.32,0.32,0.32,000,0.287
2012-04-25,0.32,0.32,0.32,0.32,000,0.287
2012-04-24,0.32,0.32,0.32,0.32,8800,0.287
2012-04-23,0.32,0.32,0.32,0.32,000,0.287
2012-04-20,0.32,0.32,0.32,0.32,2500,0.287
2012-04-19,0.32,0.32,0.32,0.32,000,0.287
2012-04-18,0.32,0.32,0.32,0.32,000,0.287
2012-04-17,0.32,0.32,0.32,0.32,000,0.287
2012-04-16,0.32,0.32,0.32,0.32,000,0.287
2012-04-13,0.32,0.32,0.32,0.32,10800,0.287
2012-04-12,0.32,0.32,0.32,0.32,15000,0.287
2012-04-11,0.32,0.32,0.32,0.32,18400,0.287
2012-04-10,0.32,0.32,0.32,0.32,000,0.287
2012-04-09,0.32,0.32,0.32,0.32,000,0.287
2012-04-06,0.32,0.32,0.32,0.32,000,0.287
2012-04-05,0.32,0.32,0.32,0.32,000,0.287
2012-04-04,0.32,0.32,0.32,0.32,000,0.287
2012-04-03,0.32,0.32,0.32,0.32,000,0.287
2012-04-02,0.32,0.32,0.32,0.32,000,0.287
2012-03-30,0.32,0.32,0.32,0.32,000,0.287
2012-03-29,0.32,0.32,0.32,0.32,000,0.287
2012-03-28,0.32,0.32,0.32,0.32,11500,0.287
2012-03-27,0.315,0.315,0.315,0.315,000,0.283
2012-03-26,0.315,0.315,0.315,0.315,000,0.283
2012-03-23,0.315,0.315,0.315,0.315,000,0.276
2012-03-22,0.315,0.315,0.315,0.315,8800,0.276
2012-03-21,0.315,0.315,0.315,0.315,000,0.276
2012-03-20,0.315,0.315,0.315,0.315,000,0.276
2012-03-19,0.315,0.315,0.315,0.315,000,0.276
2012-03-16,0.315,0.315,0.315,0.315,1700,0.276
2012-03-15,0.315,0.315,0.315,0.315,000,0.276
2012-03-14,0.315,0.315,0.315,0.315,000,0.276
2012-03-13,0.315,0.315,0.315,0.315,000,0.276
2012-03-12,0.315,0.315,0.315,0.315,000,0.276
2012-03-09,0.315,0.315,0.315,0.315,41900,0.276
2012-03-08,0.31,0.31,0.31,0.31,000,0.272
2012-03-07,0.31,0.31,0.31,0.31,000,0.272
2012-03-06,0.31,0.31,0.31,0.31,000,0.272
2012-03-05,0.31,0.31,0.31,0.31,000,0.272
2012-03-02,0.31,0.31,0.31,0.31,000,0.272
2012-03-01,0.31,0.31,0.31,0.31,000,0.272
2012-02-29,0.31,0.31,0.31,0.31,000,0.272
2012-02-28,0.31,0.31,0.31,0.31,000,0.272
2012-02-27,0.31,0.31,0.31,0.31,000,0.272
2012-02-24,0.31,0.31,0.31,0.31,000,0.272
2012-02-23,0.31,0.31,0.31,0.31,000,0.272
2012-02-22,0.31,0.31,0.31,0.31,000,0.272
2012-02-21,0.31,0.31,0.31,0.31,000,0.272
2012-02-20,0.31,0.31,0.31,0.31,000,0.272
2012-02-17,0.31,0.31,0.31,0.31,000,0.272
2012-02-16,0.31,0.31,0.31,0.31,000,0.272
2012-02-15,0.31,0.31,0.31,0.31,000,0.272
2012-02-14,0.31,0.31,0.31,0.31,000,0.272
2012-02-13,0.31,0.31,0.31,0.31,000,0.272
2012-02-10,0.31,0.31,0.31,0.31,000,0.272
2012-02-09,0.31,0.31,0.31,0.31,400,0.272
2012-02-08,0.31,0.31,0.31,0.31,000,0.272
2012-02-07,0.31,0.31,0.31,0.31,000,0.272
2012-02-06,0.31,0.31,0.31,0.31,000,0.272
2012-02-03,0.31,0.31,0.31,0.31,000,0.272
2012-02-02,0.31,0.31,0.31,0.31,000,0.272
2012-02-01,0.305,0.31,0.305,0.31,21100,0.272
2012-01-31,0.305,0.305,0.305,0.305,000,0.267
2012-01-27,0.305,0.305,0.305,0.305,6200,0.267
2012-01-26,0.305,0.305,0.305,0.305,000,0.267
2012-01-25,0.305,0.305,0.305,0.305,000,0.267
2012-01-24,0.305,0.305,0.305,0.305,8300,0.267
2012-01-23,0.31,0.31,0.31,0.31,000,0.272
2012-01-20,0.31,0.31,0.31,0.31,000,0.272
2012-01-19,0.31,0.31,0.31,0.31,000,0.272
2012-01-18,0.31,0.31,0.31,0.31,000,0.272
2012-01-17,0.31,0.31,0.31,0.31,000,0.272
2012-01-16,0.31,0.31,0.31,0.31,000,0.272
2012-01-13,0.31,0.31,0.31,0.31,000,0.272
2012-01-12,0.31,0.31,0.31,0.31,000,0.272
2012-01-11,0.31,0.31,0.31,0.31,000,0.272
2012-01-10,0.31,0.31,0.31,0.31,21600,0.272
2012-01-09,0.30,0.30,0.30,0.30,000,0.263
2012-01-06,0.30,0.30,0.30,0.30,000,0.263
2012-01-05,0.30,0.30,0.30,0.30,000,0.263
2012-01-04,0.30,0.30,0.30,0.30,000,0.263
2012-01-03,0.30,0.30,0.30,0.30,000,0.263
2012-01-02,0.30,0.30,0.30,0.30,000,0.263
2011-12-30,0.30,0.30,0.30,0.30,000,0.263
2011-12-29,0.30,0.30,0.30,0.30,6700,0.263
2011-12-28,0.30,0.30,0.30,0.30,000,0.263
2011-12-27,0.30,0.30,0.30,0.30,000,0.263
2011-12-26,0.30,0.30,0.30,0.30,000,0.263
2011-12-23,0.30,0.30,0.30,0.30,000,0.263
2011-12-22,0.30,0.30,0.30,0.30,3300,0.263
2011-12-21,0.30,0.30,0.30,0.30,2500,0.263
2011-12-20,0.30,0.30,0.30,0.30,000,0.263
2011-12-19,0.30,0.30,0.30,0.30,000,0.263
2011-12-16,0.30,0.30,0.30,0.30,000,0.263
2011-12-15,0.30,0.30,0.30,0.30,000,0.263
2011-12-14,0.30,0.30,0.30,0.30,2900,0.263
2011-12-13,0.285,0.30,0.285,0.30,6500,0.263
2011-12-12,0.30,0.30,0.30,0.30,000,0.263
2011-12-09,0.30,0.30,0.30,0.30,000,0.263
2011-12-08,0.30,0.30,0.30,0.30,000,0.263
2011-12-07,0.30,0.30,0.30,0.30,000,0.263
2011-12-06,0.30,0.30,0.30,0.30,2200,0.263
2011-12-05,0.30,0.30,0.30,0.30,000,0.263
2011-12-02,0.30,0.30,0.30,0.30,000,0.263
2011-12-01,0.29,0.30,0.29,0.30,9200,0.263
2011-11-30,0.30,0.30,0.30,0.30,000,0.263
2011-11-29,0.30,0.30,0.30,0.30,7900,0.263
2011-11-28,0.29,0.29,0.29,0.29,000,0.254
2011-11-25,0.29,0.29,0.29,0.29,000,0.254
2011-11-24,0.29,0.29,0.29,0.29,000,0.254
2011-11-23,0.29,0.29,0.29,0.29,000,0.254
2011-11-22,0.29,0.29,0.29,0.29,000,0.254
2011-11-21,0.29,0.29,0.29,0.29,6500,0.254
2011-11-18,0.285,0.285,0.285,0.285,000,0.25
2011-11-17,0.285,0.285,0.285,0.285,000,0.25
2011-11-11,0.295,0.30,0.28,0.285,52400,0.25
2011-11-10,0.285,0.285,0.285,0.285,6000,0.25
2011-11-08,0.285,0.285,0.285,0.285,15200,0.25
2011-11-07,0.285,0.285,0.285,0.285,3000,0.25
2011-10-28,0.29,0.29,0.29,0.29,45000,0.254
2011-10-25,0.28,0.28,0.28,0.28,39300,0.245
2011-10-19,0.28,0.28,0.28,0.28,5600,0.245
2011-10-18,0.285,0.285,0.285,0.285,4000,0.25
2011-10-17,0.285,0.285,0.285,0.285,11000,0.25
2011-10-13,0.28,0.28,0.28,0.28,3500,0.245
2011-10-12,0.28,0.28,0.28,0.28,11600,0.245
2011-10-05,0.275,0.275,0.275,0.275,8300,0.241
2011-10-04,0.275,0.275,0.275,0.275,10000,0.241
2011-09-28,0.28,0.28,0.28,0.28,10000,0.245
2011-09-23,0.28,0.28,0.28,0.28,25000,0.245
2011-09-22,0.29,0.29,0.29,0.29,22800,0.254
2011-09-21,0.30,0.30,0.30,0.30,10000,0.263
2011-09-16,0.29,0.29,0.29,0.29,9100,0.254
2011-09-14,0.29,0.29,0.28,0.28,30400,0.245
2011-09-09,0.29,0.29,0.29,0.29,10100,0.254
2011-09-07,0.29,0.29,0.29,0.29,15000,0.254
2011-09-06,0.30,0.30,0.30,0.30,7900,0.263
2011-09-05,0.30,0.30,0.30,0.30,7000,0.263
2011-09-02,0.30,0.32,0.30,0.30,42000,0.263
2011-08-30,0.28,0.28,0.28,0.28,10000,0.245
2011-08-29,0.28,0.28,0.28,0.28,3800,0.245
2011-08-22,0.29,0.29,0.275,0.275,37700,0.241
2011-08-17,0.32,0.32,0.32,0.32,2000,0.28
2011-08-15,0.31,0.31,0.30,0.30,16600,0.263
2011-08-10,0.28,0.28,0.28,0.28,10000,0.245
2011-08-09,0.28,0.28,0.28,0.28,9200,0.245
2011-08-08,0.285,0.285,0.285,0.285,20000,0.25
2011-07-14,0.37,0.37,0.37,0.37,4400,0.324
2011-07-06,0.265,0.265,0.265,0.265,2500,0.232
2011-07-04,0.265,0.265,0.265,0.265,15800,0.232
2011-06-30,0.28,0.28,0.265,0.265,35900,0.232
2011-06-29,0.28,0.28,0.28,0.28,97300,0.245
2011-06-27,0.27,0.295,0.27,0.27,33700,0.237
2011-06-24,0.265,0.265,0.18,0.23,21700,0.202
2011-06-22,0.27,0.27,0.27,0.27,37500,0.237
2011-06-17,0.27,0.27,0.27,0.27,2500,0.237
2011-06-16,0.30,0.30,0.30,0.30,10000,0.263
2011-06-14,0.27,0.30,0.27,0.30,23700,0.263
2011-06-09,0.265,0.265,0.265,0.265,9000,0.232
2011-06-08,0.265,0.265,0.265,0.265,10100,0.232
2011-06-07,0.265,0.265,0.265,0.265,9800,0.232
2011-06-02,0.265,0.265,0.265,0.265,100,0.232
2011-05-30,0.27,0.27,0.27,0.27,6200,0.237
2011-05-26,0.265,0.27,0.265,0.27,23700,0.237
2011-05-13,0.27,0.27,0.27,0.27,5600,0.237
2011-05-11,0.27,0.27,0.27,0.27,62600,0.237
2011-05-10,0.27,0.27,0.27,0.27,30000,0.237
2011-05-09,0.27,0.27,0.27,0.27,4300,0.237
2011-05-05,0.27,0.27,0.27,0.27,13600,0.237
2011-04-29,0.27,0.27,0.27,0.27,10000,0.237
2011-04-15,0.27,0.27,0.27,0.27,2500,0.237
2011-04-13,0.27,0.27,0.27,0.27,3900,0.237
2011-04-08,0.27,0.27,0.27,0.27,19800,0.237
2011-04-06,0.28,0.28,0.27,0.27,5200,0.237
2011-04-05,0.27,0.27,0.27,0.27,60500,0.237
2011-04-04,0.27,0.28,0.27,0.28,57700,0.245
2011-04-01,0.27,0.27,0.27,0.27,3400,0.237
2011-03-29,0.28,0.28,0.28,0.28,7000,0.245
2011-03-22,0.28,0.28,0.28,0.28,25000,0.245
2011-03-21,0.28,0.28,0.27,0.27,3300,0.23
2011-03-17,0.28,0.28,0.28,0.28,3900,0.239
2011-03-15,0.28,0.28,0.28,0.28,2500,0.239
2011-02-24,0.29,0.30,0.29,0.29,74200,0.247
2011-02-23,0.29,0.29,0.29,0.29,126000,0.247
2011-02-21,0.30,0.30,0.30,0.30,7000,0.256
2011-02-09,0.29,0.29,0.29,0.29,5500,0.247
2011-02-08,0.29,0.29,0.29,0.29,12500,0.247
2011-02-07,0.29,0.29,0.29,0.29,5200,0.247
2011-02-04,0.29,0.29,0.29,0.29,000,0.247
2011-02-03,0.29,0.29,0.29,0.29,000,0.247
2011-02-02,0.29,0.29,0.29,0.29,000,0.247
2011-02-01,0.28,0.28,0.28,0.28,000,0.239
2011-01-28,0.285,0.285,0.28,0.28,68000,0.239
2011-01-27,0.275,0.275,0.275,0.275,000,0.235
2011-01-25,0.27,0.28,0.27,0.27,256500,0.23
2011-01-21,0.26,0.26,0.26,0.26,67100,0.222
2011-01-20,0.26,0.26,0.26,0.26,000,0.222
2011-01-13,0.25,0.25,0.25,0.25,5500,0.213
2011-01-11,0.24,0.24,0.24,0.24,000,0.205
2011-01-07,0.24,0.24,0.24,0.24,000,0.205
2011-01-06,0.25,0.25,0.25,0.25,000,0.213
2011-01-05,0.25,0.25,0.25,0.25,000,0.213
2011-01-04,0.25,0.25,0.25,0.25,000,0.213
2010-12-30,0.25,0.25,0.25,0.25,000,0.213
2010-12-21,0.24,0.24,0.24,0.24,30000,0.205
2010-12-17,0.215,0.22,0.215,0.22,105900,0.188
2010-12-13,0.20,0.20,0.195,0.195,6300,0.166
2010-12-08,0.22,0.22,0.22,0.22,4600,0.188
2010-11-24,0.22,0.22,0.22,0.22,37700,0.188
2010-11-22,0.19,0.19,0.19,0.19,10000,0.162
2010-11-08,0.19,0.19,0.19,0.19,15500,0.162
2010-11-05,0.19,0.19,0.19,0.19,5000,0.162
2010-11-01,0.19,0.19,0.19,0.19,3000,0.162
2010-10-26,0.19,0.19,0.19,0.19,1700,0.162
2010-10-19,0.19,0.19,0.19,0.19,600,0.162
2010-10-18,0.19,0.19,0.19,0.19,4000,0.162
2010-10-15,0.19,0.19,0.19,0.19,2300,0.162
2010-10-08,0.19,0.19,0.19,0.19,5700,0.162
2010-10-07,0.19,0.19,0.19,0.19,26900,0.162
2010-10-06,0.19,0.19,0.19,0.19,10000,0.162
2010-10-04,0.19,0.19,0.19,0.19,2500,0.162
2010-10-01,0.19,0.19,0.19,0.19,3500,0.162
2010-09-30,0.19,0.19,0.19,0.19,2500,0.162
2010-09-28,0.19,0.19,0.19,0.19,2500,0.162
2010-09-08,0.22,0.22,0.22,0.22,5000,0.188
2010-09-06,0.225,0.225,0.225,0.225,10000,0.192
2010-09-03,0.225,0.225,0.225,0.225,2000,0.192
2010-08-30,0.225,0.225,0.225,0.225,000,0.192
2010-08-27,0.23,0.23,0.225,0.23,108000,0.196
2010-08-26,0.23,0.23,0.23,0.23,10000,0.196
2010-08-25,0.23,0.23,0.23,0.23,000,0.196
2010-08-24,0.23,0.23,0.23,0.23,000,0.196
2010-08-23,0.23,0.23,0.23,0.23,000,0.196
2010-08-20,0.23,0.23,0.23,0.23,000,0.196
2010-08-19,0.23,0.23,0.23,0.23,000,0.196
2010-08-18,0.23,0.23,0.23,0.23,000,0.196
2010-08-17,0.23,0.23,0.23,0.23,000,0.196
2010-08-16,0.23,0.23,0.23,0.23,000,0.196
2010-08-13,0.23,0.23,0.23,0.23,76200,0.196
2010-08-12,0.23,0.23,0.23,0.23,50000,0.196
2010-08-11,0.23,0.23,0.23,0.23,000,0.196
2010-08-10,0.23,0.23,0.23,0.23,000,0.196
2010-08-09,0.23,0.23,0.23,0.23,1700,0.196
2010-08-06,0.23,0.23,0.23,0.23,000,0.196
2010-08-05,0.23,0.23,0.23,0.23,4900,0.196
2010-08-04,0.23,0.23,0.23,0.23,000,0.196
2010-08-03,0.23,0.23,0.23,0.23,000,0.196
2010-08-02,0.23,0.23,0.23,0.23,000,0.196
2010-07-30,0.23,0.23,0.23,0.23,000,0.196
2010-07-29,0.23,0.23,0.23,0.23,000,0.196
2010-07-28,0.23,0.23,0.23,0.23,000,0.196
2010-07-27,0.23,0.23,0.23,0.23,000,0.196
2010-07-26,0.23,0.23,0.23,0.23,000,0.196
2010-07-23,0.23,0.23,0.23,0.23,000,0.196
2010-07-21,0.23,0.23,0.23,0.23,000,0.196
2010-07-20,0.23,0.23,0.23,0.23,000,0.196
2010-07-19,0.23,0.23,0.23,0.23,2500,0.196
2010-07-16,0.23,0.23,0.23,0.23,000,0.196
2010-07-15,0.23,0.23,0.23,0.23,000,0.196
2010-07-14,0.23,0.23,0.23,0.23,000,0.196
2010-07-13,0.23,0.23,0.23,0.23,000,0.196
2010-07-12,0.23,0.23,0.23,0.23,000,0.196
2010-07-09,0.23,0.23,0.23,0.23,10000,0.196
2010-06-30,0.23,0.23,0.23,0.23,10000,0.196
2010-06-29,0.23,0.23,0.23,0.23,000,0.196
2010-06-28,0.23,0.23,0.23,0.23,3000,0.196
2010-06-25,0.23,0.23,0.23,0.23,000,0.196
2010-06-24,0.23,0.23,0.23,0.23,000,0.196
2010-06-23,0.24,0.24,0.23,0.23,000,0.196
2010-06-22,0.23,0.23,0.23,0.23,000,0.196
2010-06-21,0.23,0.23,0.23,0.23,100,0.196
2010-06-18,0.23,0.23,0.23,0.23,000,0.196
2010-06-17,0.23,0.23,0.23,0.23,10000,0.196
2010-06-16,0.23,0.23,0.23,0.23,3000,0.196
2010-06-15,0.23,0.23,0.23,0.23,000,0.196
2010-06-11,0.235,0.24,0.23,0.23,15200,0.196
2010-06-10,0.235,0.235,0.23,0.23,000,0.196
2010-06-09,0.235,0.235,0.23,0.23,000,0.196
2010-06-08,0.235,0.235,0.23,0.23,000,0.196
2010-06-07,0.235,0.235,0.23,0.23,000,0.196
2010-06-04,0.23,0.23,0.23,0.23,700,0.196
2010-06-03,0.23,0.23,0.23,0.23,34300,0.196
2010-06-02,0.235,0.235,0.23,0.23,000,0.196
2010-06-01,0.235,0.235,0.23,0.23,000,0.196
2010-05-31,0.235,0.235,0.235,0.235,9100,0.201
2010-05-28,0.24,0.24,0.235,0.235,000,0.201
2010-05-27,0.23,0.23,0.23,0.23,000,0.196
2010-05-26,0.23,0.23,0.23,0.23,3700,0.196
2010-05-25,0.26,0.26,0.23,0.23,000,0.196
2010-05-24,0.26,0.26,0.23,0.23,000,0.196
2010-05-21,0.26,0.26,0.23,0.23,000,0.196
2010-05-20,0.26,0.26,0.235,0.235,000,0.201
2010-05-19,0.26,0.26,0.23,0.23,000,0.196
2010-05-18,0.23,0.23,0.23,0.23,5000,0.196
2010-05-17,0.26,0.26,0.23,0.23,000,0.196
2010-05-14,0.26,0.26,0.23,0.23,000,0.196
2010-05-13,0.23,0.23,0.175,0.175,2500,0.149
2010-05-12,0.23,0.23,0.23,0.23,8000,0.196
2010-05-11,0.23,0.23,0.23,0.23,91300,0.196
2010-05-10,0.21,0.21,0.21,0.21,000,0.179
2010-05-07,0.21,0.21,0.21,0.21,000,0.179
2010-05-06,0.23,0.23,0.23,0.23,10000,0.196
2010-05-05,0.23,0.23,0.22,0.22,000,0.188
2010-05-04,0.22,0.22,0.22,0.22,2500,0.188
2010-05-03,0.22,0.22,0.22,0.22,5300,0.188
2010-04-30,0.25,0.25,0.22,0.22,000,0.188
2010-04-29,0.26,0.26,0.215,0.215,000,0.183
2010-04-28,0.215,0.215,0.215,0.215,600,0.183
2010-04-27,0.26,0.26,0.215,0.215,000,0.183
2010-04-23,0.17,0.225,0.17,0.21,237800,0.179
2010-04-22,0.20,0.20,0.15,0.15,000,0.128
2010-04-21,0.20,0.20,0.15,0.15,000,0.128
2010-04-20,0.20,0.20,0.15,0.15,000,0.128
2010-04-19,0.20,0.20,0.15,0.15,000,0.128
2010-04-16,0.20,0.20,0.15,0.15,000,0.128
2010-04-15,0.22,0.22,0.10,0.10,000,0.085
2010-04-14,0.22,0.22,0.10,0.10,000,0.085
2010-04-13,0.10,0.10,0.10,0.10,2500,0.085
2010-04-12,0.22,0.22,0.10,0.10,000,0.085
2010-04-09,0.24,0.24,0.10,0.10,000,0.085
2010-04-08,0.24,0.24,0.24,0.24,7600,0.205
2010-04-07,0.24,0.24,0.24,0.24,2900,0.205
2010-04-06,0.26,0.26,0.24,0.24,000,0.205
2010-04-01,0.26,0.26,0.24,0.24,000,0.205
2010-03-31,0.24,0.24,0.24,0.24,11900,0.205
2010-03-30,0.26,0.26,0.24,0.24,000,0.205
2010-03-29,0.24,0.24,0.24,0.24,8700,0.205
2010-03-26,0.26,0.26,0.24,0.24,000,0.205
2010-03-25,0.24,0.24,0.24,0.24,7600,0.205
2010-03-24,0.24,0.24,0.24,0.24,000,0.205
2010-03-23,0.24,0.24,0.24,0.24,000,0.205
2010-03-22,0.24,0.24,0.24,0.24,000,0.205
2010-03-19,0.27,0.27,0.24,0.24,000,0.205
2010-03-18,0.27,0.27,0.24,0.24,000,0.205
2010-03-17,0.27,0.27,0.24,0.24,000,0.205
2010-03-16,0.27,0.27,0.24,0.24,000,0.205
2010-03-15,0.27,0.27,0.24,0.24,000,0.205
2010-03-12,0.27,0.27,0.24,0.24,000,0.205
2010-03-11,0.27,0.27,0.24,0.24,000,0.205
2010-03-10,0.24,0.24,0.24,0.24,50200,0.205
2010-03-09,0.27,0.27,0.24,0.24,000,0.205
2010-03-08,0.27,0.27,0.23,0.23,000,0.196
2010-03-04,0.27,0.27,0.23,0.23,000,0.196
2010-03-03,0.27,0.27,0.23,0.23,000,0.196
2010-03-01,0.23,0.23,0.23,0.23,4400,0.196
2010-02-26,0.22,0.22,0.22,0.22,12300,0.188
2010-02-25,0.23,0.23,0.22,0.22,000,0.188
2010-02-24,0.22,0.22,0.22,0.22,50000,0.188
2010-02-23,0.22,0.22,0.22,0.22,14200,0.188
2010-02-22,0.23,0.23,0.23,0.23,85000,0.196
2010-02-19,0.22,0.22,0.22,0.22,3100,0.188
2010-02-18,0.22,0.22,0.22,0.22,53100,0.188
2010-02-17,0.23,0.23,0.22,0.22,000,0.188
2010-02-16,0.23,0.23,0.21,0.21,000,0.179
2010-02-12,0.21,0.21,0.21,0.21,50000,0.179
2010-02-11,0.23,0.23,0.21,0.21,000,0.179
2010-02-10,0.23,0.23,0.21,0.21,000,0.179
2010-02-09,0.23,0.23,0.21,0.21,000,0.179
2010-02-08,0.23,0.23,0.21,0.21,000,0.179
2010-02-05,0.21,0.21,0.21,0.21,8100,0.179
2010-02-02,0.21,0.21,0.21,0.21,2500,0.179
2010-01-21,0.21,0.21,0.21,0.21,28200,0.179
2010-01-20,0.22,0.22,0.21,0.21,000,0.179
2010-01-19,0.23,0.23,0.21,0.21,000,0.179
2010-01-18,0.22,0.22,0.22,0.22,5500,0.188
2010-01-15,0.21,0.21,0.21,0.21,14300,0.179
2010-01-14,0.23,0.23,0.21,0.21,000,0.179
2010-01-13,0.23,0.23,0.21,0.21,000,0.179
2010-01-12,0.24,0.24,0.21,0.21,000,0.179
2010-01-11,0.24,0.24,0.21,0.21,000,0.179
2010-01-08,0.25,0.25,0.21,0.21,000,0.179
2010-01-07,0.25,0.25,0.21,0.21,000,0.179
2010-01-06,0.24,0.24,0.24,0.24,3100,0.205
2010-01-05,0.24,0.24,0.21,0.21,000,0.179
2010-01-04,0.23,0.23,0.21,0.21,000,0.179
2009-12-31,0.23,0.23,0.21,0.21,000,0.179
2009-12-30,0.23,0.23,0.21,0.21,000,0.179
2009-12-24,0.23,0.23,0.21,0.21,000,0.179
2009-12-23,0.23,0.23,0.21,0.21,000,0.179
2009-12-22,0.23,0.23,0.21,0.21,000,0.179
2009-12-21,0.22,0.22,0.22,0.22,4000,0.188
2009-12-18,0.22,0.22,0.21,0.21,000,0.179
2009-12-17,0.22,0.22,0.21,0.21,000,0.179
2009-12-16,0.22,0.22,0.22,0.22,5900,0.188
2009-12-15,0.22,0.22,0.21,0.21,000,0.179
2009-12-14,0.21,0.21,0.21,0.21,50100,0.179
2009-12-11,0.22,0.22,0.21,0.21,000,0.179
2009-12-10,0.21,0.21,0.21,0.21,50000,0.179
2009-12-08,0.19,0.20,0.19,0.20,13400,0.171
2009-12-07,0.22,0.22,0.20,0.20,000,0.171
2009-12-04,0.22,0.22,0.20,0.20,000,0.171
2009-12-03,0.22,0.22,0.20,0.20,000,0.171
2009-12-01,0.24,0.24,0.20,0.20,000,0.171
2009-11-30,0.24,0.24,0.20,0.20,000,0.171
2009-11-27,0.24,0.24,0.20,0.20,000,0.171
2009-11-26,0.24,0.24,0.20,0.20,000,0.171
2009-11-25,0.24,0.24,0.20,0.20,000,0.171
2009-11-24,0.24,0.24,0.19,0.19,000,0.162
2009-11-23,0.24,0.24,0.19,0.19,000,0.162
2009-11-20,0.24,0.24,0.19,0.19,000,0.162
2009-11-19,0.24,0.24,0.19,0.19,000,0.162
2009-11-18,0.24,0.24,0.19,0.19,000,0.162
2009-11-16,0.26,0.26,0.19,0.19,000,0.162
2009-11-12,0.26,0.26,0.19,0.19,000,0.162
2009-11-11,0.26,0.26,0.19,0.19,000,0.162
2009-11-10,0.26,0.26,0.18,0.18,000,0.154
2009-11-09,0.26,0.26,0.18,0.18,000,0.154
2009-11-06,0.26,0.26,0.18,0.18,000,0.154
2009-11-05,0.20,0.20,0.18,0.18,9800,0.154
2009-11-04,0.18,0.18,0.18,0.18,000,0.154
2009-11-03,0.18,0.18,0.18,0.18,000,0.154
2009-11-02,0.18,0.18,0.18,0.18,124800,0.154
2009-10-30,0.18,0.18,0.18,0.18,000,0.154
2009-10-29,0.18,0.18,0.18,0.18,000,0.154
2009-10-28,0.18,0.18,0.18,0.18,000,0.154
2009-10-27,0.18,0.18,0.18,0.18,000,0.154
2009-10-26,0.18,0.18,0.18,0.18,000,0.154
2009-10-23,0.18,0.18,0.18,0.18,000,0.154
2009-10-22,0.185,0.185,0.18,0.18,71500,0.154
2009-10-21,0.185,0.185,0.185,0.185,000,0.158
2009-10-20,0.185,0.185,0.185,0.185,000,0.158
2009-10-19,0.185,0.185,0.185,0.185,000,0.158
2009-10-16,0.185,0.185,0.185,0.185,000,0.158
2009-10-15,0.185,0.185,0.185,0.185,26000,0.158
2009-10-14,0.185,0.185,0.185,0.185,260000,0.158
2009-10-13,0.18,0.18,0.18,0.18,000,0.154
2009-10-12,0.18,0.18,0.18,0.18,10000,0.154
2009-10-09,0.18,0.18,0.18,0.18,000,0.154
2009-10-08,0.18,0.18,0.18,0.18,1000,0.154
2009-10-07,0.18,0.18,0.18,0.18,5000,0.154
2009-10-06,0.18,0.18,0.18,0.18,000,0.154
2009-10-05,0.18,0.18,0.18,0.18,000,0.154
2009-10-02,0.18,0.18,0.18,0.18,000,0.154
2009-10-01,0.18,0.18,0.18,0.18,564900,0.154
2009-09-30,0.18,0.18,0.18,0.18,200000,0.154
2009-09-29,0.18,0.18,0.18,0.18,252100,0.154
2009-09-28,0.18,0.18,0.18,0.18,000,0.154
2009-09-25,0.18,0.18,0.18,0.18,000,0.154
2009-09-24,0.18,0.18,0.18,0.18,000,0.154
2009-09-23,0.18,0.18,0.18,0.18,000,0.154
2009-09-22,0.18,0.18,0.18,0.18,900,0.154
2009-09-21,0.18,0.18,0.18,0.18,000,0.154
2009-09-18,0.18,0.18,0.18,0.18,000,0.154
2009-09-17,0.18,0.18,0.18,0.18,000,0.154
2009-09-16,0.18,0.18,0.18,0.18,193000,0.154
2009-09-15,0.18,0.18,0.18,0.18,000,0.154
2009-09-14,0.18,0.18,0.18,0.18,000,0.154
2009-09-11,0.18,0.18,0.18,0.18,7000,0.154
2009-09-10,0.18,0.18,0.18,0.18,000,0.154
2009-09-09,0.185,0.185,0.18,0.18,45700,0.154
2009-09-08,0.185,0.185,0.185,0.185,000,0.158
2009-09-07,0.185,0.185,0.185,0.185,1500,0.158
2009-09-04,0.185,0.185,0.185,0.185,15300,0.158
2009-09-03,0.185,0.185,0.185,0.185,5200,0.158
2009-09-02,0.18,0.18,0.18,0.18,000,0.154
2009-09-01,0.18,0.18,0.18,0.18,11800,0.154
2009-08-31,0.18,0.18,0.18,0.18,3100,0.154
2009-08-28,0.18,0.18,0.18,0.18,000,0.154
2009-08-27,0.18,0.18,0.18,0.18,000,0.154
2009-08-26,0.18,0.18,0.18,0.18,000,0.154
2009-08-25,0.18,0.18,0.18,0.18,000,0.154
2009-08-24,0.18,0.18,0.18,0.18,000,0.154
2009-08-21,0.18,0.18,0.18,0.18,000,0.154
2009-08-20,0.18,0.18,0.18,0.18,000,0.154
2009-08-19,0.18,0.18,0.18,0.18,000,0.154
2009-08-18,0.18,0.18,0.18,0.18,28800,0.154
2009-08-17,0.18,0.18,0.18,0.18,200,0.154
2009-08-14,0.18,0.18,0.18,0.18,000,0.154
2009-08-13,0.18,0.18,0.18,0.18,600,0.154
2009-08-12,0.19,0.19,0.19,0.19,000,0.162
2009-08-11,0.18,0.19,0.18,0.19,5600,0.162
2009-08-10,0.19,0.19,0.19,0.19,000,0.162
2009-08-07,0.19,0.19,0.19,0.19,4700,0.162
2009-08-06,0.19,0.19,0.19,0.19,219500,0.162
2009-08-05,0.19,0.19,0.19,0.19,2500,0.162
2009-08-04,0.19,0.19,0.19,0.19,000,0.162
2009-08-03,0.19,0.19,0.19,0.19,000,0.162
2009-07-31,0.19,0.19,0.19,0.19,000,0.162
2009-07-30,0.19,0.19,0.19,0.19,000,0.162
2009-07-29,0.19,0.19,0.19,0.19,000,0.162
2009-07-28,0.19,0.19,0.19,0.19,82700,0.162
2009-07-27,0.17,0.19,0.17,0.18,11700,0.154
2009-07-24,0.20,0.20,0.16,0.17,37300,0.145
2009-07-23,0.20,0.20,0.20,0.20,6000,0.171
2009-07-22,0.21,0.21,0.20,0.20,77700,0.171
2009-07-21,0.20,0.21,0.15,0.15,103100,0.128
2009-07-20,0.20,0.20,0.20,0.20,7100,0.171
2009-07-17,0.20,0.20,0.20,0.20,000,0.171
2009-07-16,0.20,0.20,0.20,0.20,000,0.171
2009-07-15,0.20,0.20,0.20,0.20,12700,0.171
2009-07-14,0.20,0.20,0.20,0.20,000,0.171
2009-07-13,0.20,0.20,0.20,0.20,000,0.171
2009-07-10,0.20,0.20,0.20,0.20,000,0.171
2009-07-09,0.20,0.20,0.20,0.20,000,0.171
2009-07-08,0.20,0.20,0.20,0.20,4200,0.171
2009-07-07,0.20,0.20,0.20,0.20,1200,0.171
2009-07-06,0.21,0.21,0.20,0.20,000,0.171
2009-07-03,0.20,0.20,0.20,0.20,18000,0.171
2009-07-02,0.20,0.20,0.20,0.20,000,0.171
2009-07-01,0.20,0.20,0.20,0.20,000,0.171
2009-06-30,0.21,0.21,0.20,0.20,000,0.171
2009-06-29,0.20,0.20,0.20,0.20,2900,0.171
2009-06-26,0.20,0.20,0.20,0.20,23000,0.171
2009-06-25,0.25,0.25,0.20,0.20,000,0.171
2009-06-24,0.20,0.20,0.20,0.20,17500,0.171
2009-06-23,0.21,0.21,0.195,0.20,49400,0.171
2009-06-22,0.21,0.21,0.21,0.21,10500,0.179
2009-06-19,0.21,0.21,0.21,0.21,12900,0.179
2009-06-18,0.21,0.21,0.21,0.21,56900,0.179
2009-06-17,0.25,0.25,0.21,0.21,000,0.179
2009-06-16,0.25,0.25,0.21,0.21,000,0.179
2009-06-15,0.25,0.25,0.21,0.21,000,0.179
2009-06-12,0.21,0.21,0.21,0.21,45000,0.179
2009-06-11,0.20,0.20,0.20,0.20,2500,0.171
2009-06-10,0.20,0.20,0.20,0.20,5400,0.171
2009-06-09,0.20,0.20,0.20,0.20,67600,0.171
2009-06-05,0.20,0.20,0.20,0.20,55800,0.171
2009-06-04,0.18,0.18,0.18,0.18,000,0.154
2009-06-03,0.18,0.18,0.18,0.18,000,0.154
2009-06-02,0.18,0.18,0.18,0.18,000,0.154
2009-06-01,0.18,0.18,0.18,0.18,000,0.154
2009-05-29,0.18,0.18,0.18,0.18,400,0.154
2009-05-28,0.20,0.20,0.18,0.18,000,0.154
2009-05-27,0.18,0.18,0.18,0.18,5600,0.154
2009-05-26,0.20,0.20,0.18,0.18,000,0.154
2009-05-25,0.20,0.20,0.18,0.18,000,0.154
2009-05-22,0.18,0.18,0.18,0.18,2000,0.154
2009-05-21,0.18,0.18,0.18,0.18,52000,0.154
2009-05-20,0.18,0.18,0.175,0.175,000,0.149
2009-05-19,0.175,0.18,0.175,0.175,63700,0.149
2009-05-18,0.17,0.17,0.17,0.17,10000,0.145
2009-05-15,0.17,0.17,0.17,0.17,1800,0.145
2009-05-14,0.18,0.18,0.165,0.165,000,0.141
2009-05-13,0.18,0.18,0.165,0.165,000,0.141
2009-05-12,0.18,0.18,0.165,0.165,000,0.141
2009-05-11,0.165,0.165,0.165,0.165,800,0.141
2009-05-08,0.18,0.18,0.165,0.165,000,0.141
2009-05-07,0.165,0.165,0.165,0.165,1200,0.141
2009-05-06,0.18,0.18,0.165,0.165,000,0.141
2009-05-05,0.165,0.165,0.165,0.165,6200,0.141
2009-05-04,0.13,0.13,0.13,0.13,000,0.111
2009-05-01,0.13,0.13,0.13,0.13,000,0.111
2009-04-30,0.13,0.13,0.13,0.13,000,0.111
2009-04-29,0.13,0.13,0.13,0.13,000,0.111
2009-04-28,0.13,0.13,0.13,0.13,000,0.111
2009-04-27,0.135,0.135,0.13,0.13,11000,0.111
2009-04-24,0.115,0.115,0.115,0.115,000,0.098
2009-04-23,0.115,0.115,0.115,0.115,000,0.098
2009-04-22,0.115,0.115,0.115,0.115,000,0.098
2009-04-21,0.115,0.115,0.115,0.115,000,0.098
2009-04-20,0.115,0.115,0.115,0.115,000,0.098
2009-04-17,0.115,0.115,0.115,0.115,400,0.098
2009-04-16,0.18,0.18,0.115,0.115,000,0.098
2009-04-15,0.115,0.115,0.115,0.115,5100,0.098
2009-04-14,0.10,0.10,0.10,0.10,000,0.085
2009-04-09,0.10,0.10,0.10,0.10,000,0.085
2009-04-08,0.10,0.10,0.10,0.10,000,0.085
2009-04-07,0.10,0.10,0.10,0.10,000,0.085
2009-04-06,0.10,0.10,0.10,0.10,000,0.085
2009-04-03,0.10,0.10,0.10,0.10,6700,0.085
2009-04-02,0.10,0.10,0.082,0.082,000,0.07
2009-04-01,0.10,0.10,0.08,0.08,000,0.068
2009-03-31,0.10,0.10,0.08,0.08,000,0.068
2009-03-30,0.10,0.10,0.08,0.08,000,0.068
2009-03-27,0.08,0.08,0.08,0.08,300,0.068
2009-03-26,0.06,0.06,0.06,0.06,000,0.051
2009-03-25,0.06,0.06,0.06,0.06,000,0.051
2009-03-24,0.06,0.06,0.06,0.06,000,0.051
2009-03-23,0.06,0.06,0.06,0.06,000,0.051
2009-03-20,0.06,0.06,0.06,0.06,000,0.051
2009-03-19,0.06,0.06,0.06,0.06,000,0.051
2009-03-18,0.10,0.10,0.06,0.06,000,0.051
2009-03-17,0.10,0.10,0.06,0.06,000,0.051
2009-03-16,0.10,0.10,0.06,0.06,000,0.051
2009-03-13,0.10,0.10,0.06,0.06,000,0.051
2009-03-12,0.18,0.18,0.06,0.06,000,0.051
2009-03-11,0.10,0.10,0.06,0.06,000,0.051
2009-03-10,0.06,0.06,0.06,0.06,1500,0.051
2009-03-09,0.10,0.10,0.06,0.06,000,0.051
2009-03-06,0.10,0.10,0.06,0.06,000,0.051
2009-03-05,0.10,0.10,0.06,0.06,000,0.051
2009-03-04,0.06,0.06,0.06,0.06,900,0.051
2009-03-03,0.10,0.10,0.06,0.06,000,0.051
2009-03-02,0.10,0.10,0.06,0.06,000,0.051
2009-02-27,0.10,0.10,0.06,0.06,000,0.051
2009-02-26,0.06,0.06,0.06,0.06,600,0.051
2009-02-25,0.10,0.10,0.06,0.06,000,0.051
2009-02-24,0.06,0.06,0.06,0.06,1900,0.051
2009-02-23,0.10,0.10,0.055,0.055,000,0.047
2009-02-20,0.10,0.10,0.055,0.055,000,0.047
2009-02-19,0.10,0.10,0.055,0.055,000,0.047
2009-02-18,0.055,0.055,0.055,0.055,600,0.047
2009-02-17,0.05,0.05,0.05,0.05,000,0.043
2009-02-16,0.05,0.05,0.05,0.05,000,0.043
2009-02-13,0.05,0.05,0.05,0.05,000,0.043
2009-02-12,0.05,0.05,0.05,0.05,000,0.043
2009-02-11,0.05,0.05,0.05,0.05,000,0.043
2009-02-10,0.05,0.05,0.05,0.05,000,0.043
2009-02-09,0.05,0.05,0.05,0.05,000,0.043
2009-02-06,0.05,0.05,0.05,0.05,000,0.043
2009-02-05,0.05,0.05,0.05,0.05,000,0.043
2009-02-04,0.05,0.05,0.05,0.05,000,0.043
2009-02-03,0.10,0.10,0.052,0.052,000,0.044
2009-02-02,0.07,0.07,0.051,0.051,000,0.044
2009-01-30,0.07,0.07,0.051,0.051,000,0.044
2009-01-29,0.07,0.07,0.051,0.051,000,0.044
2009-01-28,0.07,0.07,0.051,0.051,000,0.044
2009-01-27,0.07,0.07,0.051,0.051,000,0.044
2009-01-23,0.07,0.07,0.051,0.051,000,0.044
2009-01-22,0.07,0.07,0.051,0.051,000,0.044
2009-01-21,0.07,0.07,0.051,0.051,000,0.044
2009-01-20,0.07,0.07,0.051,0.051,000,0.044
2009-01-19,0.07,0.07,0.051,0.051,000,0.044
2009-01-16,0.07,0.07,0.052,0.052,000,0.044
2009-01-15,0.05,0.05,0.05,0.05,2500,0.043
2009-01-14,0.07,0.07,0.05,0.05,000,0.043
2009-01-13,0.07,0.07,0.05,0.05,000,0.043
2009-01-12,0.07,0.07,0.05,0.05,000,0.043
2009-01-09,0.07,0.07,0.05,0.05,000,0.043
2009-01-08,0.07,0.07,0.05,0.05,000,0.043
2009-01-07,0.07,0.07,0.05,0.05,000,0.043
2009-01-06,0.07,0.07,0.05,0.05,000,0.043
2009-01-05,0.07,0.07,0.05,0.05,000,0.043
2009-01-02,0.10,0.10,0.05,0.05,000,0.043
2008-12-31,0.05,0.05,0.05,0.05,4700,0.043
2008-12-30,0.05,0.05,0.05,0.05,000,0.043
2008-12-29,0.05,0.05,0.05,0.05,000,0.043
2008-12-24,0.05,0.05,0.05,0.05,000,0.043
2008-12-23,0.05,0.05,0.05,0.05,000,0.043
2008-12-22,0.05,0.05,0.05,0.05,000,0.043
2008-12-19,0.05,0.05,0.05,0.05,000,0.043
2008-12-18,0.099,0.099,0.05,0.05,000,0.043
2008-12-17,0.05,0.05,0.05,0.05,600,0.043
2008-12-16,0.15,0.15,0.15,0.15,000,0.128
2008-12-15,0.15,0.15,0.15,0.15,000,0.128
2008-12-12,0.15,0.15,0.15,0.15,000,0.128
2008-12-11,0.15,0.15,0.15,0.15,000,0.128
2008-12-10,0.15,0.15,0.15,0.15,000,0.128
2008-12-09,0.15,0.15,0.15,0.15,000,0.128
2008-12-08,0.15,0.15,0.15,0.15,000,0.128
2008-12-05,0.15,0.15,0.15,0.15,000,0.128
2008-12-04,0.15,0.15,0.15,0.15,000,0.128
2008-12-03,0.15,0.15,0.15,0.15,7700,0.128
2008-12-02,0.18,0.18,0.15,0.15,000,0.128
2008-12-01,0.18,0.18,0.15,0.15,000,0.128
2008-11-28,0.18,0.18,0.15,0.15,000,0.128
2008-11-27,0.18,0.18,0.15,0.15,000,0.128
2008-11-26,0.18,0.18,0.15,0.15,000,0.128
2008-11-25,0.15,0.15,0.15,0.15,8100,0.128
2008-11-24,0.18,0.18,0.15,0.15,000,0.128
2008-11-21,0.18,0.18,0.15,0.15,000,0.128
2008-11-20,0.18,0.18,0.15,0.15,000,0.128
2008-11-19,0.18,0.18,0.15,0.15,000,0.128
2008-11-18,0.18,0.18,0.15,0.15,000,0.128
2008-11-17,0.18,0.18,0.15,0.15,000,0.128
2008-11-14,0.15,0.15,0.15,0.15,600,0.128
2008-11-13,0.18,0.18,0.15,0.15,000,0.128
2008-11-12,0.18,0.18,0.15,0.15,000,0.128
2008-11-11,0.18,0.18,0.15,0.15,000,0.128
2008-11-10,0.18,0.18,0.15,0.15,000,0.128
2008-11-07,0.18,0.18,0.15,0.15,000,0.128
2008-11-06,0.18,0.18,0.15,0.15,000,0.128
2008-11-05,0.18,0.18,0.15,0.15,000,0.128
2008-11-04,0.18,0.18,0.15,0.15,000,0.128
2008-11-03,0.18,0.18,0.15,0.15,000,0.128
2008-10-31,0.18,0.18,0.15,0.15,000,0.128
2008-10-30,0.18,0.18,0.15,0.15,000,0.128
2008-10-29,0.18,0.18,0.15,0.15,000,0.128
2008-10-28,0.18,0.18,0.15,0.15,000,0.128
2008-10-27,0.18,0.18,0.15,0.15,000,0.128
2008-10-24,0.15,0.15,0.15,0.15,300,0.128
2008-10-23,0.15,0.15,0.15,0.15,112500,0.128
2008-10-22,0.16,0.16,0.15,0.15,000,0.128
2008-10-21,0.16,0.16,0.15,0.15,000,0.128
2008-10-20,0.16,0.16,0.15,0.15,000,0.128
2008-10-17,0.18,0.18,0.15,0.15,000,0.128
2008-10-16,0.15,0.15,0.15,0.15,56000,0.128
2008-10-15,0.15,0.15,0.15,0.15,3700,0.128
2008-10-14,0.18,0.18,0.15,0.15,000,0.128
2008-10-13,0.18,0.18,0.15,0.15,000,0.128
2008-10-10,0.15,0.15,0.15,0.15,000,0.128
2008-10-09,0.15,0.15,0.15,0.15,11500,0.128
2008-10-08,0.14,0.15,0.14,0.15,78300,0.128
2008-10-07,0.15,0.15,0.15,0.15,000,0.128
2008-10-06,0.15,0.15,0.15,0.15,000,0.128
2008-10-03,0.15,0.15,0.15,0.15,000,0.128
2008-10-02,0.15,0.15,0.15,0.15,000,0.128
2008-10-01,0.15,0.15,0.15,0.15,000,0.128
2008-09-30,0.18,0.18,0.15,0.15,000,0.128
2008-09-29,0.15,0.15,0.15,0.15,600,0.128
2008-09-26,0.18,0.18,0.15,0.15,000,0.128
2008-09-25,0.18,0.18,0.15,0.15,000,0.128
2008-09-24,0.18,0.18,0.15,0.15,000,0.128
2008-09-23,0.18,0.18,0.15,0.15,000,0.128
2008-09-22,0.18,0.18,0.15,0.15,000,0.128
2008-09-19,0.18,0.18,0.15,0.15,000,0.128
2008-09-18,0.18,0.18,0.15,0.15,000,0.128
2008-09-17,0.18,0.18,0.15,0.15,000,0.128
2008-09-16,0.18,0.18,0.15,0.15,000,0.128
2008-09-15,0.18,0.18,0.15,0.15,000,0.128
2008-09-12,0.15,0.15,0.15,0.15,1200,0.128
2008-09-11,0.18,0.18,0.15,0.15,000,0.128
2008-09-10,0.18,0.18,0.15,0.15,000,0.128
2008-09-09,0.18,0.18,0.15,0.15,000,0.128
2008-09-08,0.18,0.18,0.15,0.15,000,0.128
2008-09-05,0.15,0.15,0.15,0.15,1100,0.128
2008-09-04,0.18,0.18,0.15,0.15,000,0.128
2008-09-03,0.15,0.15,0.15,0.15,3000,0.128
2008-09-02,0.15,0.15,0.15,0.15,300,0.128
2008-09-01,0.18,0.18,0.15,0.15,000,0.128
2008-08-29,0.18,0.18,0.15,0.15,000,0.128
2008-08-28,0.15,0.15,0.15,0.15,1200,0.128
2008-08-27,0.18,0.18,0.15,0.15,000,0.128
2008-08-26,0.15,0.15,0.15,0.15,100,0.128
2008-08-25,0.175,0.175,0.175,0.175,000,0.149
2008-08-22,0.175,0.175,0.175,0.175,000,0.149
2008-08-21,0.175,0.175,0.175,0.175,000,0.149
2008-08-20,0.175,0.175,0.175,0.175,000,0.149
2008-08-19,0.18,0.18,0.175,0.175,87300,0.149
2008-08-18,0.19,0.19,0.18,0.18,000,0.154
2008-08-15,0.19,0.19,0.18,0.18,000,0.154
2008-08-14,0.19,0.19,0.18,0.18,000,0.154
2008-08-13,0.19,0.19,0.18,0.18,000,0.154
2008-08-12,0.19,0.19,0.18,0.18,000,0.154
2008-08-11,0.18,0.18,0.18,0.18,200,0.154
2008-08-08,0.18,0.18,0.18,0.18,39200,0.154
2008-08-07,0.19,0.19,0.18,0.18,000,0.154
2008-08-06,0.19,0.19,0.18,0.18,000,0.154
2008-08-05,0.18,0.18,0.18,0.18,10000,0.154
2008-08-04,0.19,0.19,0.18,0.18,000,0.154
2008-08-01,0.19,0.19,0.18,0.18,000,0.154
2008-07-31,0.18,0.18,0.18,0.18,67500,0.154
2008-07-30,0.19,0.19,0.185,0.185,000,0.158
2008-07-29,0.20,0.20,0.185,0.185,000,0.158
2008-07-28,0.20,0.20,0.185,0.185,000,0.158
2008-07-25,0.20,0.20,0.185,0.185,000,0.158
2008-07-24,0.20,0.20,0.185,0.185,000,0.158
2008-07-23,0.20,0.20,0.185,0.185,000,0.158
2008-07-22,0.20,0.20,0.185,0.185,000,0.158
2008-07-21,0.20,0.20,0.185,0.185,000,0.158
2008-07-18,0.20,0.20,0.185,0.185,000,0.158
2008-07-17,0.185,0.185,0.185,0.185,000,0.158
2008-07-16,0.185,0.185,0.185,0.185,33100,0.158
2008-07-15,0.185,0.185,0.185,0.185,1000,0.158
2008-07-14,0.185,0.185,0.185,0.185,30000,0.158
2008-07-11,0.20,0.20,0.20,0.20,000,0.171
2008-07-10,0.20,0.20,0.20,0.20,000,0.171
2008-07-09,0.20,0.20,0.20,0.20,56600,0.171
2008-07-08,0.20,0.20,0.20,0.20,72500,0.171
2008-07-07,0.20,0.20,0.20,0.20,8300,0.171
2008-07-04,0.20,0.20,0.185,0.20,103000,0.171
2008-07-03,0.21,0.21,0.20,0.20,000,0.171
2008-07-02,0.20,0.20,0.20,0.20,7200,0.171
2008-07-01,0.23,0.23,0.20,0.20,000,0.171
2008-06-30,0.20,0.20,0.20,0.20,3300,0.171
2008-06-27,0.23,0.23,0.20,0.20,000,0.171
2008-06-26,0.20,0.20,0.20,0.20,6300,0.171
2008-06-25,0.20,0.20,0.20,0.20,26500,0.171
2008-06-24,0.20,0.20,0.20,0.20,2700,0.171
2008-06-23,0.185,0.20,0.185,0.20,111800,0.171
2008-06-20,0.18,0.20,0.18,0.20,103400,0.171
2008-06-19,0.195,0.195,0.18,0.18,000,0.154
2008-06-18,0.18,0.18,0.18,0.18,2500,0.154
2008-06-17,0.18,0.18,0.18,0.18,500,0.154
2008-06-16,0.18,0.18,0.18,0.18,5600,0.154
2008-06-13,0.18,0.18,0.18,0.18,1200,0.154
2008-06-12,0.20,0.20,0.18,0.18,000,0.154
2008-06-11,0.18,0.18,0.18,0.18,700,0.154
2008-06-10,0.20,0.20,0.18,0.18,000,0.154
2008-06-06,0.18,0.18,0.18,0.18,15000,0.154
2008-06-05,0.18,0.18,0.18,0.18,40000,0.154
2008-06-04,0.20,0.20,0.18,0.18,000,0.154
2008-06-03,0.185,0.185,0.18,0.18,25000,0.154
2008-06-02,0.185,0.185,0.185,0.185,1200,0.158
2008-05-30,0.185,0.185,0.185,0.185,1200,0.158
2008-05-29,0.185,0.185,0.185,0.185,1500,0.158
2008-05-28,0.25,0.25,0.185,0.185,000,0.158
2008-05-27,0.185,0.185,0.185,0.185,7100,0.158
2008-05-26,0.18,0.185,0.18,0.18,81700,0.154
2008-05-23,0.17,0.17,0.17,0.17,6100,0.145
2008-05-22,0.17,0.17,0.17,0.17,21400,0.145
2008-05-21,0.17,0.17,0.17,0.17,300,0.145
2008-05-20,0.16,0.16,0.16,0.16,10000,0.137
2008-05-19,0.16,0.16,0.16,0.16,93700,0.137
2008-05-16,0.185,0.185,0.16,0.16,000,0.137
2008-05-15,0.185,0.185,0.16,0.16,000,0.137
2008-05-14,0.16,0.16,0.16,0.16,11200,0.137
2008-05-13,0.185,0.185,0.16,0.16,000,0.137
2008-05-12,0.185,0.185,0.16,0.16,000,0.137
2008-05-09,0.16,0.16,0.16,0.16,21500,0.137
2008-05-08,0.16,0.16,0.16,0.16,18800,0.137
2008-05-07,0.16,0.16,0.16,0.16,15600,0.137
2008-05-06,0.16,0.16,0.16,0.16,52800,0.137
2008-05-05,0.16,0.16,0.16,0.16,4100,0.137
2008-05-02,0.17,0.17,0.16,0.16,000,0.137
2008-05-01,0.16,0.16,0.16,0.16,15000,0.137
2008-04-30,0.16,0.16,0.16,0.16,2000,0.137
2008-04-29,0.16,0.16,0.16,0.16,151400,0.137
2008-04-28,0.17,0.17,0.16,0.16,000,0.137
2008-04-24,0.17,0.17,0.16,0.16,000,0.137
2008-04-23,0.16,0.16,0.16,0.16,1200,0.137
2008-04-22,0.17,0.17,0.17,0.17,000,0.145
2008-04-21,0.17,0.17,0.17,0.17,000,0.145
2008-04-18,0.17,0.17,0.17,0.17,5800,0.145
2008-04-17,0.17,0.17,0.16,0.16,000,0.137
2008-04-16,0.17,0.17,0.16,0.16,000,0.137
2008-04-15,0.16,0.16,0.16,0.16,500,0.137
2008-04-14,0.16,0.16,0.16,0.16,10000,0.137
2008-04-11,0.15,0.15,0.15,0.15,000,0.128
2008-04-10,0.185,0.185,0.15,0.15,000,0.128
2008-04-09,0.15,0.15,0.15,0.15,4200,0.128
2008-04-08,0.175,0.175,0.175,0.175,1500,0.149
2008-04-07,0.185,0.185,0.175,0.175,000,0.149
2008-04-04,0.185,0.185,0.175,0.175,000,0.149
2008-04-03,0.175,0.175,0.175,0.175,3500,0.149
2008-04-02,0.185,0.185,0.175,0.175,000,0.149
2008-04-01,0.175,0.175,0.175,0.175,16500,0.149
2008-03-31,0.175,0.175,0.175,0.175,30000,0.149
2008-03-28,0.175,0.175,0.175,0.175,3700,0.149
2008-03-27,0.175,0.175,0.175,0.175,31000,0.149
2008-03-26,0.175,0.175,0.175,0.175,35000,0.149
2008-03-25,0.175,0.175,0.175,0.175,2500,0.149
2008-03-20,0.175,0.175,0.175,0.175,11400,0.149
2008-03-19,0.18,0.18,0.175,0.175,11500,0.149
2008-03-18,0.185,0.185,0.18,0.18,000,0.154
2008-03-17,0.175,0.175,0.175,0.175,000,0.149
2008-03-14,0.185,0.185,0.175,0.175,000,0.149
2008-03-13,0.175,0.175,0.175,0.175,13000,0.149
2008-03-12,0.175,0.175,0.175,0.175,6500,0.149
2008-03-11,0.175,0.175,0.175,0.175,4000,0.149
2008-03-10,0.175,0.175,0.175,0.175,2700,0.149
2008-03-07,0.185,0.185,0.175,0.175,000,0.149
2008-03-06,0.185,0.185,0.175,0.175,000,0.149
2008-03-05,0.18,0.18,0.175,0.175,27500,0.149
2008-03-04,0.175,0.175,0.175,0.175,20000,0.149
2008-03-03,0.175,0.175,0.175,0.175,3000,0.149
2008-02-29,0.17,0.175,0.17,0.175,15200,0.149
2008-02-28,0.17,0.17,0.17,0.17,2000,0.145
2008-02-27,0.17,0.17,0.17,0.17,9400,0.145
2008-02-26,0.16,0.165,0.16,0.165,16600,0.141
2008-02-25,0.16,0.16,0.15,0.15,000,0.128
2008-02-22,0.14,0.15,0.14,0.15,64000,0.128
2008-02-21,0.15,0.15,0.14,0.14,000,0.119
2008-02-20,0.15,0.15,0.14,0.14,000,0.119
2008-02-19,0.14,0.14,0.14,0.14,7300,0.119
2008-02-18,0.15,0.15,0.14,0.14,000,0.119
2008-02-15,0.15,0.15,0.14,0.14,000,0.119
2008-02-14,0.14,0.14,0.14,0.14,1700,0.119
2008-02-13,0.15,0.15,0.14,0.14,000,0.119
2008-02-12,0.15,0.15,0.14,0.14,000,0.119
2008-02-11,0.15,0.15,0.14,0.14,000,0.119
2008-02-08,0.15,0.15,0.14,0.14,000,0.119
2008-02-07,0.15,0.15,0.14,0.14,000,0.119
2008-02-06,0.14,0.14,0.14,0.14,7500,0.119
2008-02-05,0.15,0.15,0.14,0.14,000,0.119
2008-02-04,0.14,0.14,0.14,0.14,3700,0.119
2008-02-01,0.14,0.14,0.14,0.14,600,0.119
2008-01-31,0.14,0.14,0.14,0.14,900,0.119
2008-01-30,0.14,0.14,0.14,0.14,000,0.119
2008-01-29,0.15,0.15,0.14,0.14,000,0.119
2008-01-25,0.14,0.14,0.14,0.14,10100,0.119
2008-01-24,0.14,0.14,0.14,0.14,000,0.119
2008-01-23,0.14,0.14,0.14,0.14,1700,0.119
2008-01-22,0.155,0.155,0.14,0.14,000,0.119
2008-01-21,0.15,0.15,0.14,0.14,52100,0.119
2008-01-18,0.15,0.15,0.15,0.15,50000,0.128
2008-01-17,0.155,0.155,0.15,0.15,19000,0.128
2008-01-16,0.155,0.155,0.155,0.155,31500,0.132
2008-01-15,0.155,0.155,0.155,0.155,51000,0.132
2008-01-14,0.15,0.155,0.15,0.155,23400,0.132
2008-01-11,0.15,0.15,0.15,0.15,3000,0.128
2008-01-10,0.15,0.15,0.15,0.15,27200,0.128
2008-01-09,0.15,0.15,0.15,0.15,3300,0.128
2008-01-08,0.15,0.15,0.15,0.15,49500,0.128
2008-01-07,0.155,0.155,0.15,0.15,10200,0.128
2008-01-04,0.16,0.16,0.15,0.15,000,0.128
2008-01-03,0.16,0.16,0.15,0.15,000,0.128
2008-01-02,0.15,0.15,0.15,0.15,500,0.128
2007-12-31,0.14,0.14,0.14,0.14,000,0.119
2007-12-28,0.14,0.14,0.14,0.14,000,0.119
2007-12-27,0.14,0.14,0.14,0.14,000,0.119
2007-12-24,0.14,0.14,0.14,0.14,000,0.119
2007-12-21,0.14,0.14,0.14,0.14,000,0.119
2007-12-20,0.14,0.14,0.14,0.14,000,0.119
2007-12-19,0.14,0.14,0.14,0.14,000,0.119
2007-12-18,0.155,0.155,0.14,0.14,49600,0.119
2007-12-17,0.155,0.155,0.155,0.155,11200,0.132
2007-12-14,0.155,0.155,0.155,0.155,115800,0.132
2007-12-13,0.155,0.155,0.155,0.155,10200,0.132
2007-12-12,0.155,0.155,0.155,0.155,1400,0.132
2007-12-11,0.16,0.16,0.155,0.155,000,0.132
2007-12-10,0.155,0.155,0.155,0.155,13400,0.132
2007-12-07,0.16,0.16,0.155,0.155,000,0.132
2007-12-06,0.16,0.16,0.155,0.155,000,0.132
2007-12-05,0.16,0.16,0.155,0.155,000,0.132
2007-12-04,0.155,0.155,0.155,0.155,4200,0.132
2007-12-03,0.155,0.155,0.15,0.15,25600,0.128
2007-11-30,0.155,0.155,0.155,0.155,20000,0.132
2007-11-29,0.17,0.17,0.155,0.155,000,0.132
2007-11-28,0.155,0.155,0.155,0.155,25000,0.132
2007-11-27,0.19,0.19,0.155,0.155,000,0.132
2007-11-26,0.155,0.155,0.155,0.155,32500,0.132
2007-11-23,0.155,0.155,0.155,0.155,300,0.132
2007-11-22,0.155,0.155,0.155,0.155,1200,0.132
2007-11-21,0.19,0.19,0.155,0.155,000,0.132
2007-11-20,0.155,0.155,0.155,0.155,30000,0.132
2007-11-19,0.19,0.19,0.155,0.155,000,0.132
2007-11-16,0.19,0.19,0.155,0.155,000,0.132
2007-11-15,0.19,0.19,0.155,0.155,000,0.132
2007-11-14,0.155,0.155,0.155,0.155,2500,0.132
2007-11-13,0.155,0.155,0.155,0.155,55000,0.132
2007-11-12,0.155,0.155,0.155,0.155,200,0.132
2007-11-09,0.19,0.19,0.155,0.155,000,0.132
2007-11-08,0.20,0.20,0.155,0.155,000,0.132
2007-11-07,0.20,0.20,0.155,0.155,000,0.132
2007-11-06,0.20,0.20,0.155,0.155,000,0.132
2007-11-05,0.155,0.155,0.155,0.155,3500,0.132
2007-11-02,0.20,0.20,0.155,0.155,000,0.132
2007-11-01,0.155,0.155,0.155,0.155,39700,0.132
2007-10-31,0.175,0.175,0.175,0.175,000,0.149
2007-10-30,0.195,0.20,0.175,0.175,14300,0.149
2007-10-29,0.175,0.20,0.175,0.20,17300,0.171
2007-10-26,0.155,0.17,0.155,0.17,23800,0.145
2007-10-25,0.155,0.155,0.155,0.155,35200,0.132
2007-10-24,0.16,0.16,0.155,0.155,000,0.132
2007-10-23,0.155,0.155,0.155,0.155,12000,0.132
2007-10-22,0.155,0.155,0.155,0.155,4300,0.132
2007-10-19,0.165,0.165,0.165,0.165,1000,0.141
2007-10-18,0.165,0.165,0.165,0.165,6200,0.141
2007-10-17,0.165,0.165,0.165,0.165,48200,0.141
2007-10-16,0.165,0.165,0.165,0.165,34400,0.141
2007-10-15,0.165,0.165,0.165,0.165,10000,0.141
2007-10-12,0.155,0.155,0.155,0.155,600,0.132
2007-10-11,0.15,0.155,0.15,0.155,20500,0.132
2007-10-10,0.15,0.165,0.15,0.16,9500,0.137
2007-10-09,0.165,0.165,0.15,0.15,26800,0.128
2007-10-08,0.165,0.165,0.165,0.165,2000,0.141
2007-10-05,0.17,0.17,0.165,0.165,000,0.141
2007-10-04,0.17,0.17,0.165,0.165,000,0.141
2007-10-03,0.165,0.165,0.165,0.165,2400,0.141
2007-10-02,0.17,0.17,0.165,0.165,000,0.141
2007-10-01,0.165,0.165,0.165,0.165,1300,0.141
2007-09-28,0.17,0.175,0.17,0.17,31700,0.145
2007-09-27,0.17,0.17,0.165,0.165,7600,0.141
2007-09-26,0.18,0.18,0.165,0.165,16100,0.141
2007-09-25,0.18,0.18,0.18,0.18,18800,0.154
2007-09-24,0.18,0.18,0.18,0.18,46300,0.154
2007-09-21,0.18,0.18,0.18,0.18,200,0.154
2007-09-20,0.19,0.19,0.18,0.18,000,0.154
2007-09-19,0.18,0.18,0.18,0.18,17300,0.154
2007-09-18,0.18,0.18,0.17,0.18,13000,0.154
2007-09-17,0.18,0.18,0.18,0.18,3100,0.154
2007-09-14,0.18,0.18,0.18,0.18,7700,0.154
2007-09-13,0.185,0.19,0.18,0.19,31100,0.162
2007-09-12,0.18,0.185,0.18,0.185,24600,0.158
2007-09-11,0.185,0.185,0.18,0.18,000,0.154
2007-09-10,0.185,0.185,0.185,0.185,34000,0.158
2007-09-07,0.18,0.18,0.18,0.18,20000,0.154
2007-09-06,0.175,0.18,0.175,0.18,43000,0.154
2007-09-05,0.185,0.185,0.175,0.175,11800,0.149
2007-09-04,0.185,0.185,0.185,0.185,5000,0.158
2007-09-03,0.175,0.175,0.175,0.175,4000,0.149
2007-08-31,0.18,0.185,0.17,0.175,65500,0.149
2007-08-30,0.18,0.18,0.18,0.18,14600,0.154
2007-08-29,0.19,0.19,0.17,0.19,56200,0.162
2007-08-28,0.175,0.18,0.175,0.18,54100,0.154
2007-08-27,0.16,0.17,0.16,0.17,35900,0.145
2007-08-24,0.17,0.17,0.15,0.16,80400,0.137
2007-08-23,0.205,0.205,0.17,0.17,138200,0.145
