Date,Open,High,Low,Close,Volume,Adj Close
2016-11-08,0.063,0.063,0.063,0.063,000,0.063
2016-11-07,0.063,0.063,0.063,0.063,000,0.063
2016-11-04,0.063,0.063,0.063,0.063,000,0.063
2016-11-03,0.063,0.063,0.063,0.063,000,0.063
2016-11-02,0.063,0.063,0.063,0.063,000,0.063
2016-11-01,0.063,0.063,0.063,0.063,000,0.063
2016-10-31,0.063,0.063,0.063,0.063,000,0.063
2016-10-28,0.063,0.063,0.063,0.063,000,0.063
2016-10-27,0.063,0.063,0.063,0.063,000,0.063
2016-10-26,0.063,0.063,0.063,0.063,000,0.063
2016-10-25,0.063,0.063,0.063,0.063,000,0.063
2016-10-24,0.063,0.063,0.063,0.063,000,0.063
2016-10-21,0.063,0.063,0.063,0.063,000,0.063
2016-10-20,0.063,0.063,0.063,0.063,000,0.063
2016-10-19,0.063,0.063,0.063,0.063,000,0.063
2016-10-18,0.063,0.063,0.063,0.063,000,0.063
2016-10-17,0.063,0.063,0.063,0.063,000,0.063
2016-10-14,0.063,0.063,0.063,0.063,000,0.063
2016-10-13,0.063,0.063,0.063,0.063,000,0.063
2016-10-12,0.063,0.063,0.063,0.063,000,0.063
2016-10-11,0.063,0.063,0.063,0.063,000,0.063
2016-10-10,0.063,0.063,0.063,0.063,000,0.063
2016-10-07,0.063,0.063,0.063,0.063,000,0.063
2016-10-06,0.063,0.063,0.063,0.063,000,0.063
2016-10-05,0.063,0.063,0.063,0.063,000,0.063
2016-10-04,0.063,0.063,0.063,0.063,000,0.063
2016-10-03,0.063,0.063,0.063,0.063,000,0.063
2016-09-30,0.063,0.063,0.063,0.063,000,0.063
2016-09-29,0.063,0.063,0.063,0.063,000,0.063
2016-09-28,0.063,0.063,0.063,0.063,000,0.063
2016-09-27,0.063,0.063,0.063,0.063,000,0.063
2016-09-26,0.065,0.07,0.063,0.063,102800,0.063
2016-09-23,0.06,0.06,0.06,0.06,140000,0.06
2016-09-22,0.053,0.053,0.053,0.053,44000,0.053
2016-09-21,0.05,0.05,0.05,0.05,120000,0.05
2016-09-20,0.049,0.055,0.049,0.055,35700,0.055
2016-09-19,0.067,0.067,0.067,0.067,000,0.067
2016-09-16,0.067,0.067,0.067,0.067,000,0.067
2016-09-15,0.067,0.067,0.067,0.067,000,0.067
2016-09-14,0.067,0.067,0.067,0.067,22600,0.067
2016-09-13,0.065,0.065,0.065,0.065,000,0.065
2016-09-12,0.065,0.065,0.065,0.065,000,0.065
2016-09-09,0.065,0.065,0.065,0.065,000,0.065
2016-09-08,0.065,0.065,0.065,0.065,000,0.065
2016-09-07,0.065,0.065,0.065,0.065,000,0.065
2016-09-06,0.065,0.065,0.065,0.065,000,0.065
2016-09-05,0.065,0.065,0.065,0.065,000,0.065
2016-09-02,0.065,0.065,0.065,0.065,000,0.065
2016-09-01,0.065,0.065,0.065,0.065,000,0.065
2016-08-31,0.065,0.065,0.065,0.065,000,0.065
2016-08-30,0.065,0.065,0.065,0.065,000,0.065
2016-08-29,0.065,0.065,0.065,0.065,000,0.065
2016-08-26,0.065,0.065,0.065,0.065,000,0.065
2016-08-25,0.065,0.065,0.065,0.065,000,0.065
2016-08-24,0.065,0.065,0.065,0.065,70000,0.065
2016-08-23,0.062,0.062,0.062,0.062,000,0.062
2016-08-22,0.062,0.062,0.062,0.062,000,0.062
2016-08-19,0.062,0.062,0.062,0.062,000,0.062
2016-08-18,0.062,0.062,0.062,0.062,000,0.062
2016-08-17,0.062,0.062,0.062,0.062,000,0.062
2016-08-16,0.062,0.062,0.062,0.062,000,0.062
2016-08-15,0.062,0.062,0.062,0.062,000,0.062
2016-08-12,0.062,0.062,0.062,0.062,000,0.062
2016-08-11,0.062,0.062,0.062,0.062,000,0.062
2016-08-10,0.062,0.062,0.062,0.062,000,0.062
2016-08-09,0.062,0.062,0.062,0.062,000,0.062
2016-08-08,0.062,0.062,0.062,0.062,000,0.062
2016-08-05,0.062,0.062,0.062,0.062,000,0.062
2016-08-04,0.062,0.062,0.062,0.062,000,0.062
2016-08-03,0.062,0.062,0.062,0.062,000,0.062
2016-08-02,0.062,0.062,0.062,0.062,000,0.062
2016-08-01,0.062,0.062,0.062,0.062,000,0.062
2016-07-29,0.062,0.062,0.062,0.062,75000,0.062
2016-07-28,0.05,0.05,0.05,0.05,000,0.05
2016-07-27,0.05,0.05,0.05,0.05,5800,0.05
2016-07-26,0.05,0.05,0.05,0.05,000,0.05
2016-07-25,0.05,0.05,0.05,0.05,000,0.05
2016-07-22,0.05,0.05,0.05,0.05,150000,0.05
2016-07-21,0.051,0.051,0.051,0.051,000,0.051
2016-07-20,0.051,0.051,0.051,0.051,000,0.051
2016-07-19,0.051,0.051,0.051,0.051,000,0.051
2016-07-18,0.051,0.051,0.051,0.051,000,0.051
2016-07-15,0.051,0.051,0.051,0.051,000,0.051
2016-07-14,0.051,0.051,0.051,0.051,000,0.051
2016-07-13,0.051,0.051,0.051,0.051,000,0.051
2016-07-12,0.051,0.051,0.051,0.051,000,0.051
2016-07-11,0.051,0.051,0.051,0.051,000,0.051
2016-07-08,0.051,0.051,0.051,0.051,000,0.051
2016-07-07,0.051,0.051,0.051,0.051,25600,0.051
2016-07-06,0.05,0.05,0.05,0.05,50000,0.05
2016-07-05,0.046,0.046,0.046,0.046,000,0.046
2016-07-04,0.046,0.046,0.046,0.046,000,0.046
2016-07-01,0.051,0.051,0.046,0.046,100000,0.046
2016-06-30,0.05,0.05,0.05,0.05,000,0.05
2016-06-29,0.05,0.05,0.05,0.05,000,0.05
2016-06-28,0.05,0.05,0.05,0.05,000,0.05
2016-06-27,0.05,0.05,0.05,0.05,2700,0.05
2016-06-24,0.053,0.053,0.05,0.05,60000,0.05
2016-06-23,0.055,0.055,0.055,0.055,000,0.055
2016-06-22,0.055,0.055,0.055,0.055,000,0.055
2016-06-21,0.058,0.058,0.055,0.055,235400,0.055
2016-06-20,0.058,0.058,0.058,0.058,000,0.058
2016-06-17,0.058,0.058,0.058,0.058,000,0.058
2016-06-16,0.058,0.058,0.058,0.058,000,0.058
2016-06-15,0.058,0.058,0.058,0.058,000,0.058
2016-06-14,0.058,0.058,0.058,0.058,10000,0.058
2016-06-13,0.057,0.057,0.057,0.057,000,0.057
2016-06-10,0.057,0.057,0.057,0.057,000,0.057
2016-06-09,0.057,0.057,0.057,0.057,000,0.057
2016-06-08,0.057,0.057,0.057,0.057,000,0.057
2016-06-07,0.057,0.057,0.057,0.057,000,0.057
2016-06-06,0.057,0.057,0.057,0.057,50000,0.057
2016-06-03,0.056,0.056,0.056,0.056,000,0.056
2016-06-02,0.056,0.056,0.056,0.056,000,0.056
2016-06-01,0.056,0.056,0.056,0.056,000,0.056
2016-05-31,0.056,0.056,0.056,0.056,25000,0.056
2016-05-30,0.055,0.055,0.055,0.055,000,0.055
2016-05-27,0.055,0.055,0.055,0.055,000,0.055
2016-05-26,0.055,0.055,0.055,0.055,000,0.055
2016-05-25,0.055,0.055,0.055,0.055,000,0.055
2016-05-24,0.055,0.055,0.055,0.055,000,0.055
2016-05-23,0.056,0.056,0.055,0.055,35200,0.055
2016-05-20,0.052,0.052,0.052,0.052,000,0.052
2016-05-19,0.052,0.052,0.052,0.052,000,0.052
2016-05-18,0.052,0.052,0.052,0.052,000,0.052
2016-05-17,0.052,0.052,0.052,0.052,000,0.052
2016-05-16,0.052,0.052,0.052,0.052,000,0.052
2016-05-13,0.052,0.052,0.052,0.052,15000,0.052
2016-05-12,0.06,0.06,0.06,0.06,000,0.06
2016-05-11,0.06,0.06,0.06,0.06,000,0.06
2016-05-10,0.06,0.06,0.06,0.06,000,0.06
2016-05-09,0.06,0.06,0.06,0.06,000,0.06
2016-05-06,0.06,0.06,0.06,0.06,000,0.06
2016-05-05,0.06,0.06,0.06,0.06,50000,0.06
2016-05-04,0.065,0.065,0.065,0.065,000,0.065
2016-05-03,0.065,0.065,0.065,0.065,000,0.065
2016-05-02,0.065,0.065,0.065,0.065,000,0.065
2016-04-29,0.065,0.065,0.065,0.065,000,0.065
2016-04-28,0.065,0.065,0.065,0.065,000,0.065
2016-04-27,0.065,0.065,0.065,0.065,000,0.065
2016-04-26,0.065,0.065,0.065,0.065,000,0.065
2016-04-25,0.065,0.065,0.065,0.065,000,0.065
2016-04-22,0.065,0.065,0.065,0.065,000,0.065
2016-04-21,0.065,0.065,0.065,0.065,50000,0.065
2016-04-20,0.07,0.07,0.07,0.07,50000,0.07
2016-04-19,0.07,0.07,0.07,0.07,50000,0.07
2016-04-18,0.07,0.07,0.07,0.07,100000,0.07
2016-04-15,0.06,0.06,0.06,0.06,000,0.06
2016-04-14,0.06,0.06,0.06,0.06,000,0.06
2016-04-13,0.06,0.06,0.06,0.06,000,0.06
2016-04-12,0.06,0.06,0.06,0.06,000,0.06
2016-04-11,0.06,0.06,0.06,0.06,000,0.06
2016-04-08,0.06,0.06,0.06,0.06,000,0.06
2016-04-07,0.06,0.06,0.06,0.06,20000,0.06
2016-04-06,0.06,0.06,0.06,0.06,000,0.06
2016-04-05,0.06,0.06,0.06,0.06,000,0.06
2016-04-04,0.06,0.06,0.06,0.06,000,0.06
2016-04-01,0.06,0.06,0.06,0.06,000,0.06
2016-03-31,0.06,0.06,0.06,0.06,99900,0.06
2016-03-30,0.06,0.06,0.06,0.06,86000,0.06
2016-03-29,0.06,0.06,0.06,0.06,000,0.06
2016-03-28,0.06,0.06,0.06,0.06,000,0.06
2016-03-25,0.06,0.06,0.06,0.06,000,0.06
2016-03-24,0.06,0.06,0.06,0.06,25000,0.06
2016-03-23,0.051,0.051,0.051,0.051,000,0.051
2016-03-22,0.051,0.051,0.051,0.051,000,0.051
2016-03-21,0.051,0.051,0.051,0.051,000,0.051
2016-03-18,0.051,0.051,0.051,0.051,000,0.051
2016-03-17,0.051,0.051,0.051,0.051,000,0.051
2016-03-16,0.051,0.051,0.051,0.051,000,0.051
2016-03-15,0.051,0.051,0.051,0.051,000,0.051
2016-03-14,0.051,0.051,0.051,0.051,000,0.051
2016-03-11,0.051,0.051,0.051,0.051,000,0.051
2016-03-10,0.051,0.051,0.051,0.051,000,0.051
2016-03-09,0.051,0.051,0.051,0.051,000,0.051
2016-03-08,0.051,0.051,0.051,0.051,000,0.051
2016-03-07,0.051,0.051,0.051,0.051,000,0.051
2016-03-04,0.051,0.051,0.051,0.051,000,0.051
2016-03-03,0.051,0.051,0.051,0.051,000,0.051
2016-03-02,0.051,0.051,0.051,0.051,000,0.051
2016-03-01,0.051,0.051,0.051,0.051,10000,0.051
2016-02-29,0.07,0.07,0.07,0.07,000,0.07
2016-02-26,0.07,0.07,0.07,0.07,000,0.07
2016-02-25,0.07,0.07,0.07,0.07,000,0.07
2016-02-24,0.07,0.07,0.07,0.07,000,0.07
2016-02-23,0.07,0.07,0.07,0.07,000,0.07
2016-02-22,0.07,0.07,0.07,0.07,000,0.07
2016-02-19,0.07,0.07,0.07,0.07,000,0.07
2016-02-18,0.07,0.07,0.07,0.07,000,0.07
2016-02-17,0.07,0.07,0.07,0.07,000,0.07
2016-02-16,0.07,0.07,0.07,0.07,000,0.07
2016-02-15,0.07,0.07,0.07,0.07,000,0.07
2016-02-12,0.07,0.07,0.07,0.07,000,0.07
2016-02-11,0.07,0.07,0.07,0.07,000,0.07
2016-02-10,0.07,0.07,0.07,0.07,000,0.07
2016-02-09,0.07,0.07,0.07,0.07,000,0.07
2016-02-08,0.07,0.07,0.07,0.07,000,0.07
2016-02-05,0.07,0.07,0.07,0.07,000,0.07
2016-02-04,0.07,0.07,0.07,0.07,000,0.07
2016-02-03,0.07,0.07,0.07,0.07,000,0.07
2016-02-02,0.07,0.07,0.07,0.07,239000,0.07
2016-02-01,0.07,0.07,0.07,0.07,3700,0.07
2016-01-29,0.07,0.07,0.07,0.07,000,0.07
2016-01-28,0.07,0.07,0.07,0.07,000,0.07
2016-01-27,0.07,0.07,0.07,0.07,000,0.07
2016-01-26,0.07,0.07,0.07,0.07,000,0.07
2016-01-25,0.07,0.07,0.07,0.07,000,0.07
2016-01-22,0.07,0.07,0.07,0.07,000,0.07
2016-01-21,0.07,0.07,0.07,0.07,000,0.07
2016-01-20,0.07,0.07,0.07,0.07,000,0.07
2016-01-19,0.07,0.07,0.07,0.07,000,0.07
2016-01-18,0.07,0.07,0.07,0.07,000,0.07
2016-01-15,0.07,0.07,0.07,0.07,10000,0.07
2016-01-14,0.07,0.07,0.07,0.07,000,0.07
2016-01-13,0.07,0.07,0.07,0.07,000,0.07
2016-01-12,0.07,0.07,0.07,0.07,000,0.07
2016-01-11,0.07,0.07,0.07,0.07,000,0.07
2016-01-08,0.07,0.07,0.07,0.07,000,0.07
2016-01-07,0.07,0.07,0.07,0.07,000,0.07
2016-01-06,0.07,0.07,0.07,0.07,000,0.07
2016-01-05,0.07,0.07,0.07,0.07,000,0.07
2016-01-04,0.07,0.07,0.07,0.07,000,0.07
2016-01-01,0.07,0.07,0.07,0.07,000,0.07
2015-12-31,0.07,0.07,0.07,0.07,000,0.07
2015-12-30,0.07,0.07,0.07,0.07,000,0.07
2015-12-29,0.07,0.07,0.07,0.07,000,0.07
2015-12-28,0.07,0.07,0.07,0.07,000,0.07
2015-12-25,0.07,0.07,0.07,0.07,000,0.07
2015-12-24,0.07,0.07,0.07,0.07,000,0.07
2015-12-23,0.07,0.07,0.07,0.07,000,0.07
2015-12-22,0.07,0.07,0.07,0.07,000,0.07
2015-12-21,0.07,0.07,0.07,0.07,000,0.07
2015-12-18,0.07,0.07,0.07,0.07,000,0.07
2015-12-17,0.07,0.07,0.07,0.07,000,0.07
2015-12-16,0.07,0.07,0.07,0.07,000,0.07
2015-12-15,0.07,0.07,0.07,0.07,4000,0.07
2015-12-14,0.07,0.07,0.07,0.07,000,0.07
2015-12-11,0.07,0.07,0.07,0.07,000,0.07
2015-12-10,0.07,0.07,0.07,0.07,100000,0.07
2015-12-09,0.07,0.07,0.07,0.07,20000,0.07
2015-12-08,0.07,0.07,0.07,0.07,000,0.07
2015-12-07,0.07,0.07,0.07,0.07,000,0.07
2015-12-04,0.07,0.07,0.07,0.07,50000,0.07
2015-12-03,0.062,0.062,0.062,0.062,000,0.062
2015-12-02,0.062,0.062,0.062,0.062,000,0.062
2015-12-01,0.062,0.062,0.062,0.062,000,0.062
2015-11-30,0.062,0.062,0.062,0.062,000,0.062
2015-11-27,0.062,0.062,0.062,0.062,000,0.062
2015-11-26,0.062,0.062,0.062,0.062,000,0.062
2015-11-25,0.062,0.062,0.062,0.062,000,0.062
2015-11-24,0.062,0.062,0.062,0.062,000,0.062
2015-11-23,0.062,0.062,0.062,0.062,000,0.062
2015-11-20,0.062,0.062,0.062,0.062,000,0.062
2015-11-19,0.062,0.062,0.062,0.062,000,0.062
2015-11-18,0.062,0.062,0.062,0.062,000,0.062
2015-11-17,0.062,0.062,0.062,0.062,000,0.062
2015-11-16,0.062,0.062,0.062,0.062,000,0.062
2015-11-13,0.062,0.062,0.062,0.062,000,0.062
2015-11-12,0.062,0.062,0.062,0.062,000,0.062
2015-11-11,0.062,0.062,0.062,0.062,000,0.062
2015-11-10,0.062,0.062,0.062,0.062,000,0.062
2015-11-09,0.062,0.062,0.062,0.062,000,0.062
2015-11-06,0.062,0.062,0.062,0.062,000,0.062
2015-11-05,0.062,0.062,0.062,0.062,000,0.062
2015-11-04,0.062,0.062,0.062,0.062,000,0.062
2015-11-03,0.062,0.062,0.062,0.062,000,0.062
2015-11-02,0.062,0.062,0.062,0.062,000,0.062
2015-10-30,0.062,0.062,0.062,0.062,000,0.062
2015-10-29,0.062,0.062,0.062,0.062,000,0.062
2015-10-28,0.062,0.062,0.062,0.062,000,0.062
2015-10-27,0.062,0.062,0.062,0.062,000,0.062
2015-10-26,0.062,0.062,0.062,0.062,000,0.062
2015-10-23,0.062,0.062,0.062,0.062,000,0.062
2015-10-22,0.062,0.062,0.062,0.062,000,0.062
2015-10-21,0.062,0.062,0.062,0.062,20000,0.062
2015-10-20,0.06,0.06,0.06,0.06,000,0.06
2015-10-19,0.06,0.06,0.06,0.06,000,0.06
2015-10-16,0.06,0.06,0.06,0.06,000,0.06
2015-10-15,0.06,0.06,0.06,0.06,000,0.06
2015-10-14,0.06,0.06,0.06,0.06,000,0.06
2015-10-13,0.06,0.06,0.06,0.06,000,0.06
2015-10-12,0.06,0.06,0.06,0.06,000,0.06
2015-10-09,0.06,0.06,0.06,0.06,000,0.06
2015-10-08,0.06,0.06,0.06,0.06,000,0.06
2015-10-07,0.06,0.06,0.06,0.06,000,0.06
2015-10-06,0.06,0.06,0.06,0.06,000,0.06
2015-10-05,0.06,0.06,0.06,0.06,100000,0.06
2015-10-02,0.052,0.052,0.052,0.052,000,0.052
2015-10-01,0.052,0.052,0.052,0.052,000,0.052
2015-09-30,0.052,0.052,0.052,0.052,000,0.052
2015-09-29,0.052,0.052,0.052,0.052,000,0.052
2015-09-28,0.052,0.052,0.052,0.052,000,0.052
2015-09-25,0.052,0.052,0.052,0.052,000,0.052
2015-09-24,0.052,0.052,0.052,0.052,000,0.052
2015-09-23,0.052,0.052,0.052,0.052,000,0.052
2015-09-22,0.052,0.052,0.052,0.052,000,0.052
2015-09-21,0.052,0.052,0.052,0.052,180000,0.052
2015-09-18,0.05,0.05,0.05,0.05,000,0.05
2015-09-17,0.05,0.05,0.05,0.05,000,0.05
2015-09-16,0.05,0.05,0.05,0.05,000,0.05
2015-09-15,0.05,0.05,0.05,0.05,000,0.05
2015-09-14,0.05,0.05,0.05,0.05,000,0.05
2015-09-11,0.05,0.05,0.05,0.05,000,0.05
2015-09-10,0.05,0.05,0.05,0.05,000,0.05
2015-09-09,0.05,0.05,0.05,0.05,000,0.05
2015-09-08,0.05,0.05,0.05,0.05,000,0.05
2015-09-07,0.05,0.05,0.05,0.05,000,0.05
2015-09-04,0.05,0.05,0.05,0.05,000,0.05
2015-09-03,0.05,0.05,0.05,0.05,500000,0.05
2015-09-02,0.044,0.044,0.044,0.044,000,0.044
2015-09-01,0.044,0.044,0.044,0.044,000,0.044
2015-08-31,0.044,0.044,0.044,0.044,000,0.044
2015-08-28,0.044,0.044,0.044,0.044,000,0.044
2015-08-27,0.044,0.044,0.044,0.044,000,0.044
2015-08-26,0.044,0.044,0.044,0.044,25000,0.044
2015-08-25,0.043,0.043,0.043,0.043,000,0.043
2015-08-24,0.043,0.043,0.043,0.043,000,0.043
2015-08-20,0.043,0.043,0.043,0.043,000,0.043
2015-08-19,0.043,0.043,0.043,0.043,000,0.043
2015-08-18,0.043,0.043,0.043,0.043,000,0.043
2015-08-17,0.044,0.044,0.043,0.043,88100,0.043
2015-08-14,0.044,0.044,0.044,0.044,000,0.044
2015-08-13,0.044,0.044,0.044,0.044,000,0.044
2015-08-12,0.044,0.044,0.044,0.044,000,0.044
2015-08-11,0.044,0.044,0.044,0.044,000,0.044
2015-08-10,0.044,0.044,0.044,0.044,000,0.044
2015-08-07,0.044,0.044,0.044,0.044,6800,0.044
2015-08-06,0.043,0.043,0.043,0.043,000,0.043
2015-08-05,0.043,0.043,0.043,0.043,000,0.043
2015-08-04,0.043,0.043,0.043,0.043,15000,0.043
2015-08-03,0.045,0.045,0.045,0.045,000,0.045
2015-07-31,0.045,0.045,0.045,0.045,500000,0.045
2015-07-30,0.044,0.044,0.044,0.044,000,0.044
2015-07-29,0.044,0.044,0.044,0.044,000,0.044
2015-07-28,0.044,0.044,0.044,0.044,000,0.044
2015-07-27,0.044,0.044,0.044,0.044,000,0.044
2015-07-24,0.044,0.044,0.044,0.044,000,0.044
2015-07-23,0.044,0.044,0.044,0.044,000,0.044
2015-07-22,0.044,0.044,0.044,0.044,000,0.044
2015-07-21,0.044,0.044,0.044,0.044,000,0.044
2015-07-20,0.044,0.044,0.044,0.044,000,0.044
2015-07-17,0.044,0.044,0.044,0.044,000,0.044
2015-07-16,0.044,0.044,0.044,0.044,000,0.044
2015-07-15,0.044,0.044,0.044,0.044,000,0.044
2015-07-14,0.044,0.044,0.044,0.044,000,0.044
2015-07-13,0.044,0.044,0.044,0.044,000,0.044
2015-07-10,0.044,0.044,0.044,0.044,000,0.044
2015-07-09,0.044,0.044,0.044,0.044,000,0.044
2015-07-08,0.044,0.044,0.044,0.044,000,0.044
2015-07-07,0.044,0.044,0.044,0.044,000,0.044
2015-07-06,0.044,0.044,0.044,0.044,000,0.044
2015-07-03,0.044,0.044,0.044,0.044,000,0.044
2015-07-02,0.044,0.044,0.044,0.044,000,0.044
2015-07-01,0.044,0.044,0.044,0.044,000,0.044
2015-06-30,0.044,0.044,0.044,0.044,000,0.044
2015-06-29,0.044,0.044,0.044,0.044,000,0.044
2015-06-26,0.044,0.044,0.044,0.044,000,0.044
2015-06-25,0.044,0.044,0.044,0.044,28100,0.044
2015-06-24,0.044,0.044,0.044,0.044,2700,0.044
2015-06-23,0.044,0.044,0.044,0.044,50000,0.044
2015-06-22,0.044,0.044,0.044,0.044,000,0.044
2015-06-19,0.044,0.044,0.044,0.044,40400,0.044
2015-06-18,0.045,0.045,0.045,0.045,000,0.045
2015-06-17,0.045,0.045,0.045,0.045,000,0.045
2015-06-16,0.045,0.045,0.045,0.045,000,0.045
2015-06-15,0.045,0.045,0.045,0.045,000,0.045
2015-06-12,0.045,0.045,0.045,0.045,000,0.045
2015-06-11,0.045,0.045,0.045,0.045,000,0.045
2015-06-10,0.045,0.045,0.045,0.045,000,0.045
2015-06-09,0.045,0.045,0.045,0.045,000,0.045
2015-06-08,0.045,0.045,0.045,0.045,000,0.045
2015-06-05,0.045,0.045,0.045,0.045,36200,0.045
2015-06-04,0.045,0.045,0.045,0.045,50000,0.045
2015-06-03,0.046,0.046,0.046,0.046,000,0.046
2015-06-02,0.046,0.046,0.046,0.046,000,0.046
2015-06-01,0.046,0.046,0.046,0.046,000,0.046
2015-05-29,0.046,0.046,0.046,0.046,000,0.046
2015-05-28,0.046,0.046,0.046,0.046,000,0.046
2015-05-27,0.046,0.046,0.046,0.046,000,0.046
2015-05-26,0.046,0.046,0.046,0.046,000,0.046
2015-05-25,0.046,0.046,0.046,0.046,000,0.046
2015-05-22,0.046,0.046,0.046,0.046,000,0.046
2015-05-21,0.046,0.046,0.046,0.046,000,0.046
2015-05-20,0.046,0.046,0.046,0.046,000,0.046
2015-05-19,0.046,0.046,0.046,0.046,000,0.046
2015-05-18,0.046,0.046,0.046,0.046,000,0.046
2015-05-15,0.046,0.046,0.046,0.046,000,0.046
2015-05-14,0.046,0.046,0.046,0.046,100000,0.046
2015-05-13,0.045,0.045,0.045,0.045,000,0.045
2015-05-12,0.045,0.045,0.045,0.045,000,0.045
2015-05-11,0.045,0.045,0.045,0.045,000,0.045
2015-05-08,0.045,0.045,0.045,0.045,000,0.045
2015-05-07,0.045,0.045,0.045,0.045,000,0.045
2015-05-06,0.045,0.045,0.045,0.045,000,0.045
2015-05-05,0.045,0.045,0.045,0.045,000,0.045
2015-05-04,0.045,0.045,0.045,0.045,20000,0.045
2015-05-01,0.045,0.045,0.045,0.045,000,0.045
2015-04-30,0.045,0.045,0.045,0.045,000,0.045
2015-04-29,0.045,0.045,0.045,0.045,000,0.045
2015-04-28,0.045,0.045,0.045,0.045,000,0.045
2015-04-27,0.045,0.045,0.045,0.045,000,0.045
2015-04-24,0.045,0.045,0.045,0.045,000,0.045
2015-04-23,0.045,0.045,0.045,0.045,000,0.045
2015-04-22,0.045,0.045,0.045,0.045,000,0.045
2015-04-21,0.045,0.045,0.045,0.045,000,0.045
2015-04-20,0.045,0.045,0.045,0.045,000,0.045
2015-04-17,0.045,0.045,0.045,0.045,4200,0.045
2015-04-16,0.044,0.044,0.044,0.044,000,0.044
2015-04-15,0.044,0.044,0.044,0.044,000,0.044
2015-04-14,0.044,0.044,0.044,0.044,000,0.044
2015-04-13,0.044,0.044,0.044,0.044,000,0.044
2015-04-10,0.044,0.044,0.044,0.044,000,0.044
2015-04-09,0.044,0.044,0.044,0.044,000,0.044
2015-04-08,0.044,0.044,0.044,0.044,2700,0.044
2015-04-07,0.044,0.044,0.044,0.044,000,0.044
2015-04-06,0.044,0.044,0.044,0.044,000,0.044
2015-04-03,0.044,0.044,0.044,0.044,000,0.044
2015-04-02,0.044,0.044,0.044,0.044,000,0.044
2015-04-01,0.044,0.044,0.044,0.044,000,0.044
2015-03-31,0.044,0.044,0.044,0.044,000,0.044
2015-03-30,0.044,0.044,0.044,0.044,000,0.044
2015-03-27,0.044,0.044,0.044,0.044,000,0.044
2015-03-26,0.044,0.044,0.044,0.044,000,0.044
2015-03-25,0.044,0.044,0.044,0.044,000,0.044
2015-03-24,0.044,0.044,0.044,0.044,000,0.044
2015-03-23,0.044,0.044,0.044,0.044,000,0.044
2015-03-20,0.044,0.044,0.044,0.044,000,0.044
2015-03-19,0.044,0.044,0.044,0.044,000,0.044
2015-03-18,0.044,0.044,0.044,0.044,100000,0.044
2015-03-17,0.044,0.044,0.044,0.044,000,0.044
2015-03-16,0.044,0.044,0.044,0.044,000,0.044
2015-03-13,0.044,0.044,0.044,0.044,265000,0.044
2015-03-12,0.042,0.042,0.042,0.042,000,0.042
2015-03-11,0.042,0.042,0.042,0.042,000,0.042
2015-03-10,0.042,0.042,0.042,0.042,000,0.042
2015-03-09,0.042,0.042,0.042,0.042,000,0.042
2015-03-06,0.042,0.042,0.042,0.042,000,0.042
2015-03-05,0.042,0.042,0.042,0.042,000,0.042
2015-03-04,0.042,0.042,0.042,0.042,000,0.042
2015-03-03,0.042,0.042,0.042,0.042,000,0.042
2015-03-02,0.042,0.042,0.042,0.042,120000,0.042
2015-02-27,0.041,0.041,0.041,0.041,000,0.041
2015-02-26,0.041,0.041,0.041,0.041,000,0.041
2015-02-25,0.041,0.041,0.041,0.041,786400,0.041
2015-02-24,0.041,0.041,0.041,0.041,1168500,0.041
2015-02-23,0.049,0.049,0.049,0.049,000,0.049
2015-02-20,0.049,0.049,0.049,0.049,000,0.049
2015-02-19,0.049,0.049,0.049,0.049,000,0.049
2015-02-18,0.049,0.049,0.049,0.049,000,0.049
2015-02-17,0.049,0.049,0.049,0.049,000,0.049
2015-02-16,0.049,0.049,0.049,0.049,000,0.049
2015-02-13,0.049,0.049,0.049,0.049,000,0.049
2015-02-12,0.049,0.049,0.049,0.049,000,0.049
2015-02-11,0.049,0.049,0.049,0.049,000,0.049
2015-02-10,0.049,0.049,0.049,0.049,000,0.049
2015-02-09,0.049,0.049,0.049,0.049,000,0.049
2015-02-06,0.049,0.049,0.049,0.049,000,0.049
2015-02-05,0.049,0.049,0.049,0.049,000,0.049
2015-02-04,0.049,0.049,0.049,0.049,000,0.049
2015-02-03,0.049,0.049,0.049,0.049,000,0.049
2015-02-02,0.049,0.049,0.049,0.049,000,0.049
2015-01-30,0.049,0.049,0.049,0.049,000,0.049
2015-01-29,0.049,0.049,0.049,0.049,000,0.049
2015-01-28,0.049,0.049,0.049,0.049,000,0.049
2015-01-27,0.049,0.049,0.049,0.049,000,0.049
2015-01-26,0.049,0.049,0.049,0.049,000,0.049
2015-01-23,0.049,0.049,0.049,0.049,000,0.049
2015-01-22,0.049,0.049,0.049,0.049,000,0.049
2015-01-21,0.049,0.049,0.049,0.049,000,0.049
2015-01-20,0.049,0.049,0.049,0.049,000,0.049
2015-01-19,0.049,0.049,0.049,0.049,000,0.049
2015-01-16,0.049,0.049,0.049,0.049,000,0.049
2015-01-15,0.049,0.049,0.049,0.049,000,0.049
2015-01-14,0.047,0.049,0.047,0.049,262100,0.049
2015-01-13,0.041,0.041,0.041,0.041,000,0.041
2015-01-12,0.041,0.041,0.041,0.041,000,0.041
2015-01-09,0.041,0.041,0.041,0.041,000,0.041
2015-01-08,0.041,0.041,0.041,0.041,000,0.041
2015-01-07,0.041,0.041,0.041,0.041,000,0.041
2015-01-06,0.041,0.041,0.041,0.041,000,0.041
2015-01-05,0.041,0.041,0.041,0.041,000,0.041
2015-01-02,0.041,0.041,0.041,0.041,000,0.041
2015-01-01,0.041,0.041,0.041,0.041,000,0.041
2014-12-31,0.041,0.041,0.041,0.041,000,0.041
2014-12-30,0.041,0.041,0.041,0.041,000,0.041
2014-12-29,0.041,0.041,0.041,0.041,000,0.041
2014-12-26,0.041,0.041,0.041,0.041,000,0.041
2014-12-25,0.041,0.041,0.041,0.041,000,0.041
2014-12-24,0.041,0.041,0.041,0.041,000,0.041
2014-12-23,0.041,0.041,0.041,0.041,000,0.041
2014-12-22,0.041,0.041,0.041,0.041,000,0.041
2014-12-19,0.041,0.041,0.041,0.041,000,0.041
2014-12-18,0.041,0.041,0.041,0.041,000,0.041
2014-12-17,0.041,0.041,0.041,0.041,150000,0.041
2014-12-16,0.045,0.045,0.045,0.045,000,0.045
2014-12-15,0.045,0.045,0.045,0.045,000,0.045
2014-12-12,0.045,0.045,0.045,0.045,000,0.045
2014-12-11,0.045,0.045,0.045,0.045,000,0.045
2014-12-10,0.045,0.045,0.045,0.045,000,0.045
2014-12-09,0.045,0.045,0.045,0.045,000,0.045
2014-12-08,0.045,0.045,0.045,0.045,000,0.045
2014-12-05,0.045,0.045,0.045,0.045,000,0.045
2014-12-04,0.045,0.045,0.045,0.045,000,0.045
2014-12-03,0.045,0.045,0.045,0.045,000,0.045
2014-12-02,0.045,0.045,0.045,0.045,000,0.045
2014-12-01,0.045,0.045,0.045,0.045,000,0.045
2014-11-28,0.045,0.045,0.045,0.045,000,0.045
2014-11-27,0.045,0.045,0.045,0.045,000,0.045
2014-11-26,0.045,0.045,0.045,0.045,000,0.045
2014-11-25,0.045,0.045,0.045,0.045,000,0.045
2014-11-24,0.045,0.045,0.045,0.045,000,0.045
2014-11-21,0.045,0.045,0.045,0.045,000,0.045
2014-11-20,0.045,0.045,0.045,0.045,000,0.045
2014-11-19,0.045,0.045,0.045,0.045,000,0.045
2014-11-18,0.045,0.045,0.045,0.045,000,0.045
2014-11-17,0.045,0.045,0.045,0.045,6200,0.045
2014-11-14,0.045,0.045,0.045,0.045,000,0.045
2014-11-13,0.045,0.045,0.045,0.045,30000,0.045
2014-11-12,0.045,0.045,0.045,0.045,000,0.045
2014-11-11,0.045,0.045,0.045,0.045,000,0.045
2014-11-10,0.045,0.045,0.045,0.045,000,0.045
2014-11-07,0.045,0.045,0.045,0.045,000,0.045
2014-11-06,0.045,0.045,0.045,0.045,000,0.045
2014-11-05,0.045,0.045,0.045,0.045,2600,0.045
2014-11-04,0.044,0.044,0.044,0.044,000,0.044
2014-11-03,0.044,0.044,0.044,0.044,000,0.044
2014-10-31,0.044,0.044,0.044,0.044,000,0.044
2014-10-30,0.044,0.044,0.044,0.044,000,0.044
2014-10-29,0.044,0.044,0.044,0.044,000,0.044
2014-10-28,0.044,0.044,0.044,0.044,000,0.044
2014-10-27,0.045,0.045,0.044,0.044,200000,0.044
2014-10-24,0.045,0.045,0.045,0.045,000,0.045
2014-10-23,0.045,0.045,0.045,0.045,000,0.045
2014-10-22,0.045,0.045,0.045,0.045,000,0.045
2014-10-21,0.045,0.045,0.045,0.045,000,0.045
2014-10-20,0.045,0.045,0.045,0.045,91000,0.045
2014-10-17,0.045,0.045,0.045,0.045,000,0.045
2014-10-16,0.045,0.045,0.045,0.045,110700,0.045
2014-10-15,0.045,0.045,0.043,0.045,503000,0.045
2014-10-14,0.045,0.045,0.045,0.045,600000,0.045
2014-10-13,0.045,0.045,0.045,0.045,000,0.045
2014-10-10,0.045,0.045,0.045,0.045,000,0.045
2014-10-09,0.045,0.045,0.045,0.045,000,0.045
2014-10-08,0.045,0.045,0.045,0.045,000,0.045
2014-10-07,0.045,0.045,0.045,0.045,000,0.045
2014-10-06,0.045,0.045,0.045,0.045,000,0.045
2014-10-03,0.045,0.045,0.045,0.045,000,0.045
2014-10-02,0.045,0.045,0.045,0.045,000,0.045
2014-10-01,0.045,0.045,0.045,0.045,000,0.045
2014-09-30,0.045,0.045,0.045,0.045,000,0.045
2014-09-29,0.045,0.045,0.045,0.045,120000,0.045
2014-09-26,0.045,0.045,0.045,0.045,000,0.045
2014-09-25,0.045,0.045,0.045,0.045,000,0.045
2014-09-24,0.045,0.045,0.045,0.045,000,0.045
2014-09-23,0.045,0.045,0.045,0.045,000,0.045
2014-09-22,0.045,0.045,0.045,0.045,000,0.045
2014-09-19,0.045,0.045,0.045,0.045,30100,0.045
2014-09-18,0.043,0.043,0.043,0.043,000,0.043
2014-09-17,0.043,0.043,0.043,0.043,100000,0.043
2014-09-16,0.042,0.042,0.042,0.042,000,0.042
2014-09-15,0.042,0.042,0.042,0.042,000,0.042
2014-09-12,0.042,0.042,0.042,0.042,700,0.042
2014-09-11,0.042,0.042,0.042,0.042,000,0.042
2014-09-10,0.042,0.042,0.042,0.042,000,0.042
2014-09-09,0.042,0.042,0.042,0.042,000,0.042
2014-09-08,0.042,0.042,0.042,0.042,000,0.042
2014-09-05,0.042,0.042,0.042,0.042,000,0.042
2014-09-04,0.042,0.042,0.042,0.042,000,0.042
2014-09-03,0.042,0.042,0.042,0.042,180000,0.042
2014-09-02,0.042,0.042,0.042,0.042,000,0.042
2014-09-01,0.042,0.042,0.042,0.042,000,0.042
2014-08-29,0.042,0.042,0.042,0.042,000,0.042
2014-08-28,0.042,0.042,0.042,0.042,000,0.042
2014-08-27,0.042,0.042,0.042,0.042,6800,0.042
2014-08-26,0.04,0.04,0.04,0.04,000,0.04
2014-08-25,0.04,0.04,0.04,0.04,500000,0.04
2014-08-22,0.044,0.044,0.044,0.044,000,0.044
2014-08-21,0.044,0.044,0.044,0.044,25000,0.044
2014-08-20,0.045,0.045,0.045,0.045,000,0.045
2014-08-19,0.045,0.045,0.045,0.045,000,0.045
2014-08-18,0.045,0.045,0.045,0.045,000,0.045
2014-08-15,0.045,0.045,0.045,0.045,124000,0.045
2014-08-14,0.045,0.045,0.045,0.045,000,0.045
2014-08-13,0.045,0.045,0.045,0.045,000,0.045
2014-08-12,0.045,0.045,0.045,0.045,000,0.045
2014-08-11,0.045,0.045,0.045,0.045,000,0.045
2014-08-08,0.045,0.045,0.045,0.045,000,0.045
2014-08-07,0.045,0.045,0.045,0.045,000,0.045
2014-08-06,0.045,0.045,0.045,0.045,000,0.045
2014-08-05,0.045,0.045,0.045,0.045,000,0.045
2014-08-04,0.045,0.045,0.045,0.045,000,0.045
2014-08-01,0.045,0.045,0.045,0.045,000,0.045
2014-07-31,0.045,0.045,0.045,0.045,000,0.045
2014-07-30,0.045,0.045,0.045,0.045,000,0.045
2014-07-29,0.045,0.045,0.045,0.045,125000,0.045
2014-07-28,0.04,0.04,0.04,0.04,000,0.04
2014-07-25,0.04,0.04,0.04,0.04,6600,0.04
2014-07-24,0.04,0.04,0.04,0.04,4400,0.04
2014-07-23,0.04,0.04,0.04,0.04,000,0.04
2014-07-22,0.036,0.04,0.035,0.04,153300,0.04
2014-07-21,0.04,0.04,0.04,0.04,119500,0.04
2014-07-18,0.047,0.047,0.047,0.047,000,0.047
2014-07-17,0.047,0.047,0.047,0.047,000,0.047
2014-07-16,0.047,0.047,0.047,0.047,000,0.047
2014-07-15,0.047,0.047,0.047,0.047,000,0.047
2014-07-14,0.047,0.047,0.047,0.047,000,0.047
2014-07-11,0.047,0.047,0.047,0.047,000,0.047
2014-07-10,0.047,0.047,0.047,0.047,20000,0.047
2014-07-09,0.049,0.049,0.049,0.049,40000,0.049
2014-07-08,0.047,0.047,0.047,0.047,000,0.047
2014-07-07,0.047,0.047,0.047,0.047,20000,0.047
2014-07-04,0.045,0.045,0.045,0.045,22400,0.045
2014-07-03,0.04,0.04,0.04,0.04,000,0.04
2014-07-02,0.04,0.04,0.04,0.04,000,0.04
2014-07-01,0.04,0.04,0.04,0.04,000,0.04
2014-06-30,0.04,0.04,0.04,0.04,000,0.04
2014-06-27,0.04,0.04,0.04,0.04,000,0.04
2014-06-26,0.04,0.04,0.04,0.04,000,0.04
2014-06-25,0.04,0.04,0.04,0.04,000,0.04
2014-06-24,0.04,0.04,0.04,0.04,000,0.04
2014-06-23,0.04,0.04,0.04,0.04,000,0.04
2014-06-20,0.04,0.04,0.04,0.04,000,0.04
2014-06-19,0.04,0.04,0.04,0.04,000,0.04
2014-06-18,0.04,0.04,0.04,0.04,000,0.04
2014-06-17,0.04,0.04,0.04,0.04,000,0.04
2014-06-16,0.04,0.04,0.04,0.04,000,0.04
2014-06-13,0.04,0.04,0.04,0.04,000,0.04
2014-06-12,0.04,0.04,0.04,0.04,000,0.04
2014-06-11,0.041,0.041,0.04,0.04,27300,0.04
2014-06-10,0.04,0.04,0.04,0.04,22500,0.04
2014-06-09,0.045,0.045,0.045,0.045,000,0.045
2014-06-06,0.045,0.045,0.045,0.045,000,0.045
2014-06-05,0.045,0.045,0.045,0.045,20000,0.045
2014-06-04,0.045,0.045,0.045,0.045,000,0.045
2014-06-03,0.045,0.045,0.045,0.045,000,0.045
2014-06-02,0.045,0.045,0.045,0.045,37500,0.045
2014-05-30,0.045,0.045,0.045,0.045,000,0.045
2014-05-29,0.045,0.045,0.045,0.045,000,0.045
2014-05-28,0.045,0.045,0.045,0.045,000,0.045
2014-05-27,0.045,0.045,0.045,0.045,000,0.045
2014-05-26,0.045,0.045,0.045,0.045,000,0.045
2014-05-23,0.045,0.045,0.045,0.045,220000,0.045
2014-05-22,0.045,0.045,0.045,0.045,160000,0.045
2014-05-21,0.045,0.045,0.045,0.045,45000,0.045
2014-05-20,0.06,0.06,0.06,0.06,000,0.06
2014-05-19,0.06,0.06,0.06,0.06,000,0.06
2014-05-16,0.06,0.06,0.06,0.06,000,0.06
2014-05-15,0.06,0.06,0.06,0.06,000,0.06
2014-05-14,0.06,0.06,0.06,0.06,000,0.06
2014-05-13,0.06,0.06,0.06,0.06,000,0.06
2014-05-12,0.06,0.06,0.06,0.06,000,0.06
2014-05-09,0.06,0.06,0.06,0.06,2700,0.06
2014-05-08,0.06,0.06,0.06,0.06,40000,0.06
2014-05-07,0.065,0.065,0.065,0.065,000,0.065
2014-05-06,0.065,0.065,0.065,0.065,000,0.065
2014-05-05,0.065,0.065,0.065,0.065,000,0.065
2014-05-02,0.065,0.065,0.065,0.065,000,0.065
2014-05-01,0.065,0.065,0.065,0.065,000,0.065
2014-04-30,0.065,0.065,0.065,0.065,000,0.065
2014-04-29,0.065,0.065,0.065,0.065,000,0.065
2014-04-28,0.065,0.065,0.065,0.065,000,0.065
2014-04-25,0.065,0.065,0.065,0.065,000,0.065
2014-04-24,0.065,0.065,0.065,0.065,000,0.065
2014-04-23,0.065,0.065,0.065,0.065,000,0.065
2014-04-22,0.065,0.065,0.065,0.065,000,0.065
2014-04-21,0.065,0.065,0.065,0.065,000,0.065
2014-04-18,0.065,0.065,0.065,0.065,000,0.065
2014-04-17,0.065,0.065,0.065,0.065,000,0.065
2014-04-16,0.065,0.065,0.065,0.065,000,0.065
2014-04-15,0.065,0.065,0.065,0.065,000,0.065
2014-04-14,0.065,0.065,0.065,0.065,000,0.065
2014-04-11,0.065,0.065,0.065,0.065,000,0.065
2014-04-10,0.065,0.065,0.065,0.065,000,0.065
2014-04-09,0.065,0.065,0.065,0.065,7800,0.065
2014-04-08,0.08,0.08,0.08,0.08,000,0.08
2014-04-07,0.08,0.08,0.08,0.08,000,0.08
2014-04-04,0.08,0.08,0.08,0.08,000,0.08
2014-04-03,0.08,0.08,0.08,0.08,000,0.08
2014-04-02,0.08,0.08,0.08,0.08,000,0.08
2014-04-01,0.08,0.08,0.08,0.08,000,0.08
2014-03-31,0.08,0.08,0.08,0.08,000,0.08
2014-03-28,0.08,0.08,0.08,0.08,000,0.08
2014-03-27,0.08,0.08,0.08,0.08,000,0.08
2014-03-26,0.08,0.08,0.08,0.08,000,0.08
2014-03-25,0.08,0.08,0.08,0.08,000,0.08
2014-03-24,0.08,0.08,0.08,0.08,000,0.08
2014-03-21,0.08,0.08,0.08,0.08,000,0.08
2014-03-20,0.08,0.08,0.08,0.08,000,0.08
2014-03-19,0.08,0.08,0.08,0.08,000,0.08
2014-03-18,0.08,0.08,0.08,0.08,000,0.08
2014-03-17,0.08,0.08,0.08,0.08,000,0.08
2014-03-14,0.08,0.08,0.08,0.08,000,0.08
2014-03-13,0.08,0.08,0.08,0.08,000,0.08
2014-03-12,0.08,0.08,0.08,0.08,000,0.08
2014-03-11,0.08,0.08,0.08,0.08,000,0.08
2014-03-10,0.08,0.08,0.08,0.08,000,0.08
2014-03-07,0.08,0.08,0.08,0.08,000,0.08
2014-03-06,0.08,0.08,0.08,0.08,000,0.08
2014-03-05,0.08,0.08,0.08,0.08,000,0.08
2014-03-04,0.08,0.08,0.08,0.08,000,0.08
2014-03-03,0.08,0.08,0.08,0.08,000,0.08
2014-02-28,0.08,0.08,0.08,0.08,000,0.08
2014-02-27,0.08,0.08,0.08,0.08,000,0.08
2014-02-26,0.08,0.08,0.08,0.08,000,0.08
2014-02-25,0.08,0.08,0.08,0.08,000,0.08
2014-02-24,0.08,0.08,0.08,0.08,000,0.08
2014-02-21,0.08,0.08,0.08,0.08,000,0.08
2014-02-20,0.08,0.08,0.08,0.08,000,0.08
2014-02-19,0.08,0.08,0.08,0.08,000,0.08
2014-02-18,0.08,0.08,0.08,0.08,000,0.08
2014-02-17,0.08,0.08,0.08,0.08,000,0.08
2014-02-14,0.08,0.08,0.08,0.08,000,0.08
2014-02-13,0.08,0.08,0.08,0.08,000,0.08
2014-02-12,0.08,0.08,0.08,0.08,000,0.08
2014-02-11,0.08,0.08,0.08,0.08,6600,0.08
2014-02-10,0.08,0.08,0.08,0.08,000,0.08
2014-02-07,0.08,0.08,0.08,0.08,000,0.08
2014-02-06,0.08,0.08,0.08,0.08,000,0.08
2014-02-05,0.08,0.08,0.08,0.08,50000,0.08
2014-02-04,0.115,0.115,0.115,0.115,000,0.115
2014-02-03,0.115,0.115,0.115,0.115,000,0.115
2014-01-31,0.115,0.115,0.115,0.115,000,0.115
2014-01-30,0.115,0.115,0.115,0.115,000,0.115
2014-01-29,0.115,0.115,0.115,0.115,000,0.115
2014-01-28,0.115,0.115,0.115,0.115,000,0.115
2014-01-27,0.115,0.115,0.115,0.115,000,0.115
2014-01-24,0.115,0.115,0.115,0.115,000,0.115
2014-01-23,0.115,0.115,0.115,0.115,000,0.115
2014-01-22,0.115,0.115,0.115,0.115,000,0.115
2014-01-21,0.115,0.115,0.115,0.115,000,0.115
2014-01-20,0.115,0.115,0.115,0.115,000,0.115
2014-01-17,0.115,0.115,0.115,0.115,000,0.115
2014-01-16,0.115,0.115,0.115,0.115,000,0.115
2014-01-15,0.115,0.115,0.115,0.115,000,0.115
2014-01-14,0.115,0.115,0.115,0.115,000,0.115
2014-01-13,0.115,0.115,0.115,0.115,000,0.115
2014-01-10,0.115,0.115,0.115,0.115,000,0.115
2014-01-09,0.115,0.115,0.115,0.115,000,0.115
2014-01-08,0.115,0.115,0.115,0.115,000,0.115
2014-01-07,0.115,0.115,0.115,0.115,000,0.115
2014-01-06,0.115,0.115,0.115,0.115,000,0.115
2014-01-03,0.115,0.115,0.115,0.115,000,0.115
2014-01-02,0.115,0.115,0.115,0.115,000,0.115
2014-01-01,0.115,0.115,0.115,0.115,000,0.115
2013-12-31,0.115,0.115,0.115,0.115,000,0.115
2013-12-30,0.115,0.115,0.115,0.115,000,0.115
2013-12-27,0.115,0.115,0.115,0.115,000,0.115
2013-12-26,0.115,0.115,0.115,0.115,000,0.115
2013-12-25,0.115,0.115,0.115,0.115,000,0.115
2013-12-24,0.115,0.115,0.115,0.115,000,0.115
2013-12-23,0.115,0.115,0.115,0.115,000,0.115
2013-12-20,0.08,0.115,0.08,0.115,21400,0.115
2013-12-19,0.10,0.10,0.10,0.10,000,0.10
2013-12-18,0.10,0.10,0.10,0.10,000,0.10
2013-12-17,0.10,0.10,0.10,0.10,000,0.10
2013-12-16,0.10,0.10,0.10,0.10,000,0.10
2013-12-13,0.10,0.10,0.10,0.10,000,0.10
2013-12-12,0.10,0.10,0.10,0.10,000,0.10
2013-12-11,0.10,0.10,0.10,0.10,000,0.10
2013-12-10,0.10,0.10,0.10,0.10,000,0.10
2013-12-09,0.10,0.10,0.10,0.10,000,0.10
2013-12-06,0.10,0.10,0.10,0.10,000,0.10
2013-12-05,0.10,0.10,0.10,0.10,000,0.10
2013-12-04,0.10,0.10,0.10,0.10,000,0.10
2013-12-03,0.10,0.10,0.10,0.10,000,0.10
2013-12-02,0.10,0.10,0.10,0.10,000,0.10
2013-11-29,0.10,0.10,0.10,0.10,000,0.10
2013-11-28,0.10,0.10,0.10,0.10,000,0.10
2013-11-27,0.10,0.10,0.10,0.10,000,0.10
2013-11-26,0.10,0.10,0.10,0.10,000,0.10
2013-11-25,0.10,0.10,0.10,0.10,000,0.10
2013-11-22,0.10,0.10,0.10,0.10,000,0.10
2013-11-21,0.10,0.10,0.10,0.10,000,0.10
2013-11-20,0.10,0.10,0.10,0.10,000,0.10
2013-11-19,0.10,0.10,0.10,0.10,000,0.10
2013-11-18,0.10,0.10,0.10,0.10,000,0.10
2013-11-15,0.10,0.10,0.10,0.10,000,0.10
2013-11-14,0.10,0.10,0.10,0.10,000,0.10
2013-11-13,0.10,0.10,0.10,0.10,000,0.10
2013-11-12,0.10,0.10,0.10,0.10,000,0.10
2013-11-11,0.10,0.10,0.10,0.10,000,0.10
2013-11-08,0.10,0.10,0.10,0.10,000,0.10
2013-11-07,0.10,0.10,0.10,0.10,000,0.10
2013-11-06,0.10,0.10,0.10,0.10,000,0.10
2013-11-05,0.10,0.10,0.10,0.10,000,0.10
2013-11-04,0.10,0.10,0.10,0.10,000,0.10
2013-11-01,0.10,0.10,0.10,0.10,000,0.10
2013-10-31,0.10,0.10,0.10,0.10,000,0.10
2013-10-30,0.10,0.10,0.10,0.10,45000,0.10
2013-10-29,0.105,0.105,0.105,0.105,000,0.105
2013-10-28,0.105,0.105,0.105,0.105,000,0.105
2013-10-25,0.105,0.105,0.105,0.105,000,0.105
2013-10-24,0.105,0.105,0.105,0.105,000,0.105
2013-10-23,0.105,0.105,0.105,0.105,000,0.105
2013-10-22,0.105,0.105,0.105,0.105,000,0.105
2013-10-21,0.105,0.105,0.105,0.105,000,0.105
2013-10-18,0.105,0.105,0.105,0.105,000,0.105
2013-10-17,0.105,0.105,0.105,0.105,30000,0.105
2013-10-16,0.12,0.12,0.12,0.12,000,0.12
2013-10-15,0.12,0.12,0.12,0.12,000,0.12
2013-10-14,0.12,0.12,0.12,0.12,7800,0.12
2013-10-11,0.12,0.12,0.12,0.12,000,0.12
2013-10-10,0.12,0.12,0.12,0.12,000,0.12
2013-10-09,0.12,0.12,0.12,0.12,000,0.12
2013-10-08,0.12,0.12,0.12,0.12,000,0.12
2013-10-07,0.12,0.12,0.12,0.12,000,0.12
2013-10-04,0.12,0.12,0.12,0.12,000,0.12
2013-10-03,0.12,0.12,0.12,0.12,000,0.12
2013-10-02,0.12,0.12,0.12,0.12,000,0.12
2013-10-01,0.12,0.12,0.12,0.12,000,0.12
2013-09-30,0.12,0.12,0.12,0.12,000,0.12
2013-09-27,0.12,0.12,0.12,0.12,000,0.12
2013-09-26,0.12,0.12,0.12,0.12,9200,0.12
2013-09-25,0.12,0.12,0.12,0.12,000,0.12
2013-09-24,0.12,0.12,0.12,0.12,000,0.12
2013-09-23,0.12,0.12,0.12,0.12,000,0.12
2013-09-20,0.14,0.14,0.12,0.12,21000,0.12
2013-09-19,0.14,0.14,0.14,0.14,10000,0.14
2013-09-18,0.14,0.14,0.14,0.14,000,0.14
2013-09-17,0.14,0.14,0.14,0.14,000,0.14
2013-09-16,0.14,0.14,0.14,0.14,3000,0.14
2013-09-13,0.125,0.125,0.125,0.125,1000,0.125
2013-09-12,0.15,0.15,0.15,0.15,000,0.15
2013-09-11,0.15,0.15,0.15,0.15,000,0.15
2013-09-10,0.145,0.15,0.145,0.15,13000,0.15
2013-09-09,0.16,0.16,0.16,0.16,000,0.16
2013-09-06,0.16,0.16,0.16,0.16,000,0.16
2013-09-05,0.16,0.16,0.16,0.16,5000,0.16
2013-09-04,0.155,0.155,0.155,0.155,000,0.155
2013-09-03,0.155,0.155,0.155,0.155,000,0.155
2013-09-02,0.155,0.155,0.155,0.155,000,0.155
2013-08-30,0.155,0.155,0.155,0.155,000,0.155
2013-08-29,0.155,0.155,0.155,0.155,000,0.155
2013-08-28,0.155,0.155,0.155,0.155,000,0.155
2013-08-27,0.155,0.155,0.155,0.155,000,0.155
2013-08-26,0.155,0.155,0.155,0.155,000,0.155
2013-08-23,0.155,0.155,0.155,0.155,000,0.155
2013-08-22,0.155,0.155,0.155,0.155,000,0.155
2013-08-21,0.155,0.155,0.155,0.155,000,0.155
2013-08-20,0.155,0.155,0.155,0.155,19300,0.155
2013-08-19,0.16,0.16,0.16,0.16,000,0.16
2013-08-16,0.16,0.16,0.16,0.16,000,0.16
2013-08-15,0.16,0.16,0.16,0.16,000,0.16
2013-08-14,0.16,0.16,0.16,0.16,000,0.16
2013-08-13,0.16,0.16,0.16,0.16,000,0.16
2013-08-12,0.16,0.16,0.16,0.16,000,0.16
2013-08-09,0.15,0.16,0.15,0.16,5400,0.16
2013-08-08,0.15,0.15,0.15,0.15,000,0.15
2013-08-07,0.15,0.15,0.15,0.15,000,0.15
2013-08-06,0.15,0.15,0.15,0.15,000,0.15
2013-08-05,0.15,0.15,0.15,0.15,000,0.15
2013-08-02,0.15,0.15,0.15,0.15,000,0.15
2013-08-01,0.15,0.15,0.15,0.15,000,0.15
2013-07-31,0.13,0.15,0.115,0.15,5200,0.15
2013-07-30,0.13,0.13,0.13,0.13,000,0.13
2013-07-29,0.13,0.13,0.13,0.13,000,0.13
2013-07-26,0.13,0.13,0.13,0.13,000,0.13
2013-07-25,0.13,0.13,0.13,0.13,000,0.13
2013-07-24,0.13,0.13,0.13,0.13,3900,0.13
2013-07-23,0.13,0.13,0.13,0.13,000,0.13
2013-07-22,0.13,0.13,0.13,0.13,000,0.13
2013-07-19,0.13,0.13,0.13,0.13,000,0.13
2013-07-18,0.13,0.13,0.13,0.13,000,0.13
2013-07-17,0.13,0.13,0.13,0.13,6000,0.13
2013-07-16,0.14,0.14,0.14,0.14,000,0.14
2013-07-15,0.14,0.14,0.14,0.14,000,0.14
2013-07-12,0.14,0.14,0.14,0.14,000,0.14
2013-07-11,0.14,0.14,0.14,0.14,000,0.14
2013-07-10,0.14,0.14,0.14,0.14,000,0.14
2013-07-09,0.14,0.14,0.14,0.14,000,0.14
2013-07-08,0.14,0.14,0.14,0.14,000,0.14
2013-07-05,0.14,0.14,0.14,0.14,000,0.14
2013-07-04,0.14,0.14,0.14,0.14,000,0.14
2013-07-03,0.14,0.14,0.14,0.14,000,0.14
2013-07-02,0.14,0.14,0.14,0.14,000,0.14
2013-07-01,0.14,0.14,0.14,0.14,000,0.14
2013-06-28,0.14,0.14,0.14,0.14,000,0.14
2013-06-27,0.14,0.14,0.14,0.14,58700,0.14
2013-06-26,0.14,0.14,0.14,0.14,20000,0.14
2013-06-25,0.14,0.14,0.14,0.14,000,0.14
2013-06-24,0.14,0.14,0.14,0.14,5000,0.14
2013-06-21,0.14,0.14,0.14,0.14,95000,0.14
2013-06-20,0.145,0.145,0.145,0.145,000,0.145
2013-06-19,0.145,0.145,0.145,0.145,000,0.145
2013-06-18,0.145,0.145,0.145,0.145,000,0.145
2013-06-17,0.145,0.145,0.145,0.145,15000,0.145
2013-06-14,0.135,0.135,0.135,0.135,12400,0.135
2013-06-13,0.145,0.145,0.145,0.145,29000,0.145
2013-06-12,0.15,0.15,0.15,0.15,000,0.15
2013-06-11,0.15,0.15,0.15,0.15,35000,0.15
2013-06-10,0.15,0.15,0.15,0.15,000,0.15
2013-06-07,0.15,0.15,0.15,0.15,000,0.15
2013-06-06,0.15,0.15,0.15,0.15,000,0.15
2013-06-05,0.15,0.15,0.15,0.15,000,0.15
2013-06-04,0.15,0.15,0.15,0.15,000,0.15
2013-06-03,0.15,0.15,0.15,0.15,000,0.15
2013-05-31,0.15,0.15,0.15,0.15,000,0.15
2013-05-30,0.15,0.15,0.15,0.15,000,0.15
2013-05-29,0.15,0.15,0.15,0.15,000,0.15
2013-05-28,0.15,0.15,0.15,0.15,000,0.15
2013-05-27,0.15,0.15,0.15,0.15,000,0.15
2013-05-24,0.15,0.15,0.15,0.15,000,0.15
2013-05-23,0.15,0.15,0.15,0.15,000,0.15
2013-05-22,0.15,0.15,0.15,0.15,000,0.15
2013-05-21,0.15,0.15,0.15,0.15,000,0.15
2013-05-20,0.15,0.15,0.15,0.15,000,0.15
2013-05-17,0.15,0.15,0.15,0.15,000,0.15
2013-05-16,0.15,0.15,0.15,0.15,000,0.15
2013-05-15,0.15,0.15,0.15,0.15,000,0.15
2013-05-14,0.15,0.15,0.15,0.15,000,0.15
2013-05-13,0.15,0.15,0.15,0.15,000,0.15
2013-05-10,0.15,0.15,0.15,0.15,000,0.15
2013-05-09,0.15,0.15,0.15,0.15,000,0.15
2013-05-08,0.15,0.15,0.15,0.15,000,0.15
2013-05-07,0.15,0.15,0.15,0.15,000,0.15
2013-05-06,0.15,0.15,0.15,0.15,000,0.15
2013-05-03,0.15,0.15,0.15,0.15,000,0.15
2013-05-02,0.15,0.15,0.15,0.15,000,0.15
2013-05-01,0.15,0.15,0.15,0.15,000,0.15
2013-04-30,0.15,0.15,0.15,0.15,000,0.15
2013-04-29,0.15,0.15,0.15,0.15,2800,0.15
2013-04-26,0.16,0.16,0.16,0.16,50000,0.16
2013-04-25,0.17,0.17,0.17,0.17,000,0.17
2013-04-24,0.17,0.17,0.17,0.17,000,0.17
2013-04-23,0.17,0.17,0.17,0.17,000,0.17
2013-04-22,0.17,0.17,0.17,0.17,000,0.17
2013-04-19,0.17,0.17,0.17,0.17,6500,0.17
2013-04-18,0.175,0.175,0.17,0.17,8000,0.17
2013-04-17,0.175,0.175,0.175,0.175,2800,0.175
2013-04-16,0.17,0.17,0.17,0.17,000,0.17
2013-04-15,0.17,0.17,0.17,0.17,000,0.17
2013-04-12,0.17,0.17,0.17,0.17,000,0.17
2013-04-11,0.17,0.17,0.17,0.17,000,0.17
2013-04-10,0.17,0.17,0.17,0.17,5500,0.17
2013-04-09,0.18,0.18,0.18,0.18,000,0.18
2013-04-08,0.18,0.18,0.18,0.18,000,0.18
2013-04-05,0.18,0.18,0.18,0.18,000,0.18
2013-04-04,0.18,0.18,0.18,0.18,000,0.18
2013-04-03,0.18,0.18,0.18,0.18,000,0.18
2013-04-02,0.18,0.18,0.18,0.18,000,0.18
2013-04-01,0.18,0.18,0.18,0.18,000,0.18
2013-03-29,0.18,0.18,0.18,0.18,000,0.18
2013-03-28,0.18,0.18,0.18,0.18,000,0.18
2013-03-27,0.18,0.18,0.18,0.18,000,0.18
2013-03-26,0.18,0.18,0.18,0.18,000,0.18
2013-03-25,0.18,0.18,0.18,0.18,000,0.18
2013-03-22,0.18,0.18,0.18,0.18,000,0.18
2013-03-21,0.18,0.18,0.18,0.18,000,0.18
2013-03-20,0.18,0.18,0.18,0.18,000,0.18
2013-03-19,0.18,0.18,0.18,0.18,000,0.18
2013-03-18,0.18,0.18,0.18,0.18,000,0.18
2013-03-15,0.18,0.18,0.18,0.18,000,0.18
2013-03-14,0.18,0.18,0.18,0.18,000,0.18
2013-03-13,0.18,0.18,0.18,0.18,000,0.18
2013-03-12,0.18,0.18,0.18,0.18,000,0.18
2013-03-11,0.18,0.18,0.18,0.18,000,0.18
2013-03-08,0.18,0.18,0.18,0.18,000,0.18
2013-03-07,0.18,0.18,0.18,0.18,000,0.18
2013-03-06,0.18,0.18,0.18,0.18,000,0.18
2013-03-05,0.18,0.18,0.18,0.18,50000,0.18
2013-03-04,0.19,0.19,0.19,0.19,000,0.19
2013-03-01,0.19,0.19,0.19,0.19,000,0.19
2013-02-28,0.19,0.19,0.19,0.19,000,0.19
2013-02-27,0.19,0.19,0.19,0.19,000,0.19
2013-02-26,0.19,0.19,0.19,0.19,000,0.19
2013-02-25,0.19,0.19,0.19,0.19,000,0.19
2013-02-22,0.19,0.19,0.19,0.19,10000,0.19
2013-02-21,0.19,0.19,0.19,0.19,000,0.19
2013-02-20,0.19,0.19,0.19,0.19,000,0.19
2013-02-19,0.19,0.19,0.19,0.19,5600,0.19
2013-02-18,0.185,0.185,0.185,0.185,000,0.185
2013-02-15,0.185,0.185,0.185,0.185,000,0.185
2013-02-14,0.185,0.185,0.185,0.185,600000,0.185
2013-02-13,0.19,0.20,0.19,0.20,33300,0.20
2013-02-12,0.19,0.19,0.185,0.185,120100,0.185
2013-02-11,0.20,0.20,0.20,0.20,000,0.20
2013-02-08,0.20,0.20,0.20,0.20,000,0.20
2013-02-07,0.20,0.20,0.20,0.20,000,0.20
2013-02-06,0.20,0.20,0.20,0.20,000,0.20
2013-02-05,0.20,0.20,0.20,0.20,45000,0.20
2013-02-04,0.20,0.20,0.20,0.20,000,0.20
2013-02-01,0.20,0.20,0.20,0.20,000,0.20
2013-01-31,0.20,0.20,0.20,0.20,000,0.20
2013-01-30,0.20,0.20,0.20,0.20,000,0.20
2013-01-29,0.20,0.20,0.20,0.20,000,0.20
2013-01-28,0.20,0.20,0.20,0.20,000,0.20
2013-01-25,0.20,0.20,0.20,0.20,000,0.20
2013-01-24,0.20,0.20,0.20,0.20,000,0.20
2013-01-22,0.20,0.20,0.20,0.20,000,0.20
2013-01-21,0.20,0.20,0.20,0.20,000,0.20
2013-01-18,0.20,0.20,0.20,0.20,000,0.20
2013-01-17,0.20,0.20,0.20,0.20,000,0.20
2013-01-16,0.20,0.20,0.20,0.20,000,0.20
2013-01-15,0.20,0.20,0.20,0.20,000,0.20
2013-01-14,0.20,0.20,0.20,0.20,19600,0.20
2013-01-11,0.20,0.20,0.20,0.20,000,0.20
2013-01-10,0.20,0.20,0.20,0.20,000,0.20
2013-01-09,0.20,0.20,0.20,0.20,000,0.20
2013-01-08,0.21,0.21,0.195,0.20,897600,0.20
2013-01-07,0.19,0.19,0.19,0.19,000,0.19
2013-01-04,0.19,0.19,0.19,0.19,000,0.19
2013-01-03,0.19,0.19,0.19,0.19,000,0.19
2013-01-02,0.19,0.19,0.19,0.19,000,0.19
2013-01-01,0.19,0.19,0.19,0.19,000,0.19
2012-12-31,0.19,0.19,0.19,0.19,000,0.19
2012-12-28,0.20,0.20,0.19,0.19,50000,0.19
2012-12-27,0.19,0.19,0.19,0.19,000,0.19
2012-12-26,0.19,0.19,0.19,0.19,000,0.19
2012-12-25,0.19,0.19,0.19,0.19,000,0.19
2012-12-24,0.19,0.19,0.19,0.19,000,0.19
2012-12-21,0.19,0.19,0.19,0.19,000,0.19
2012-12-20,0.19,0.19,0.19,0.19,000,0.19
2012-12-19,0.19,0.19,0.19,0.19,000,0.19
2012-12-18,0.19,0.19,0.19,0.19,000,0.19
2012-12-17,0.19,0.19,0.19,0.19,000,0.19
2012-12-14,0.19,0.19,0.19,0.19,000,0.19
2012-12-13,0.18,0.19,0.18,0.19,17700,0.19
2012-12-12,0.18,0.18,0.18,0.18,000,0.18
2012-12-11,0.18,0.18,0.18,0.18,1900,0.18
2012-12-10,0.20,0.20,0.20,0.20,000,0.20
2012-12-07,0.20,0.20,0.20,0.20,000,0.20
2012-12-06,0.20,0.20,0.20,0.20,10000,0.20
2012-12-05,0.18,0.18,0.18,0.18,000,0.18
2012-12-04,0.18,0.18,0.18,0.18,25000,0.18
2012-12-03,0.20,0.20,0.20,0.20,000,0.20
2012-11-30,0.20,0.20,0.20,0.20,3000,0.20
2012-11-29,0.20,0.20,0.20,0.20,000,0.20
2012-11-28,0.185,0.20,0.185,0.20,42500,0.20
2012-11-27,0.20,0.20,0.20,0.20,000,0.20
2012-11-26,0.20,0.20,0.20,0.20,000,0.20
2012-11-23,0.20,0.20,0.20,0.20,000,0.20
2012-11-22,0.20,0.20,0.20,0.20,000,0.20
2012-11-21,0.20,0.20,0.20,0.20,000,0.20
2012-11-20,0.20,0.20,0.20,0.20,21800,0.20
2012-11-19,0.20,0.20,0.19,0.20,120400,0.20
2012-11-16,0.19,0.19,0.19,0.19,000,0.19
2012-11-15,0.19,0.19,0.19,0.19,000,0.19
2012-11-14,0.19,0.19,0.19,0.19,000,0.19
2012-11-13,0.19,0.19,0.19,0.19,127400,0.19
2012-11-12,0.20,0.20,0.20,0.20,000,0.20
2012-11-09,0.20,0.20,0.20,0.20,000,0.20
2012-11-08,0.20,0.20,0.20,0.20,000,0.20
2012-11-07,0.20,0.20,0.20,0.20,000,0.20
2012-11-06,0.20,0.20,0.20,0.20,000,0.20
2012-11-05,0.20,0.20,0.20,0.20,000,0.20
2012-11-02,0.20,0.20,0.20,0.20,000,0.20
2012-11-01,0.20,0.20,0.20,0.20,000,0.20
2012-10-31,0.20,0.20,0.20,0.20,000,0.20
2012-10-30,0.20,0.20,0.20,0.20,292300,0.20
2012-10-29,0.20,0.20,0.20,0.20,26400,0.20
2012-10-26,0.20,0.20,0.20,0.20,133200,0.20
2012-10-25,0.185,0.185,0.185,0.185,000,0.185
2012-10-24,0.185,0.185,0.185,0.185,000,0.185
2012-10-23,0.185,0.185,0.185,0.185,22500,0.185
2012-10-22,0.20,0.20,0.20,0.20,460000,0.20
2012-10-19,0.20,0.20,0.20,0.20,5200,0.20
2012-10-18,0.20,0.20,0.20,0.20,000,0.20
2012-10-17,0.19,0.20,0.19,0.20,58100,0.20
2012-10-16,0.19,0.19,0.19,0.19,11800,0.19
2012-10-15,0.21,0.21,0.19,0.19,26400,0.19
2012-10-12,0.195,0.21,0.195,0.21,99200,0.21
2012-10-11,0.19,0.19,0.19,0.19,000,0.19
2012-10-10,0.19,0.19,0.19,0.19,000,0.19
2012-10-09,0.20,0.20,0.19,0.19,6200,0.19
2012-10-08,0.20,0.20,0.20,0.20,000,0.20
2012-10-05,0.20,0.20,0.20,0.20,46200,0.20
2012-10-04,0.22,0.22,0.22,0.22,000,0.22
2012-10-03,0.22,0.22,0.22,0.22,000,0.22
2012-10-02,0.22,0.22,0.22,0.22,000,0.22
2012-10-01,0.22,0.22,0.22,0.22,000,0.22
2012-09-28,0.22,0.22,0.22,0.22,000,0.22
2012-09-27,0.22,0.22,0.22,0.22,000,0.22
2012-09-26,0.22,0.22,0.22,0.22,000,0.22
2012-09-25,0.22,0.22,0.22,0.22,000,0.22
2012-09-24,0.20,0.22,0.20,0.22,5000,0.22
2012-09-21,0.22,0.22,0.22,0.22,000,0.22
2012-09-20,0.195,0.22,0.195,0.22,97000,0.22
2012-09-19,0.22,0.22,0.22,0.22,000,0.22
2012-09-18,0.22,0.22,0.22,0.22,000,0.22
2012-09-17,0.22,0.22,0.22,0.22,15000,0.22
2012-09-14,0.205,0.205,0.20,0.20,29800,0.20
2012-09-13,0.205,0.205,0.205,0.205,128000,0.205
2012-09-12,0.20,0.205,0.20,0.205,114600,0.205
2012-09-11,0.205,0.205,0.205,0.205,000,0.205
2012-09-10,0.205,0.205,0.205,0.205,000,0.205
2012-09-07,0.205,0.205,0.205,0.205,000,0.205
2012-09-06,0.205,0.205,0.205,0.205,000,0.205
2012-09-05,0.205,0.205,0.205,0.205,3000,0.205
2012-09-04,0.205,0.205,0.205,0.205,4000,0.205
2012-09-03,0.20,0.20,0.20,0.20,000,0.20
2012-08-31,0.20,0.20,0.20,0.20,2500,0.20
2012-08-30,0.21,0.21,0.21,0.21,000,0.21
2012-08-29,0.21,0.21,0.21,0.21,000,0.21
2012-08-28,0.21,0.21,0.21,0.21,000,0.21
2012-08-27,0.21,0.21,0.21,0.21,000,0.21
2012-08-24,0.21,0.21,0.21,0.21,20000,0.21
2012-08-23,0.18,0.18,0.18,0.18,000,0.18
2012-08-22,0.18,0.18,0.18,0.18,000,0.18
2012-08-21,0.18,0.18,0.18,0.18,6500,0.18
2012-08-20,0.15,0.15,0.15,0.15,7500,0.15
2012-08-17,0.19,0.19,0.19,0.19,000,0.19
2012-08-16,0.19,0.19,0.19,0.19,5000,0.19
2012-08-15,0.215,0.215,0.215,0.215,000,0.215
2012-08-14,0.215,0.215,0.215,0.215,2500,0.215
2012-08-13,0.215,0.215,0.215,0.215,000,0.215
2012-08-10,0.215,0.215,0.215,0.215,000,0.215
2012-08-09,0.215,0.215,0.215,0.215,000,0.215
2012-08-08,0.215,0.215,0.215,0.215,12500,0.215
2012-08-07,0.22,0.22,0.22,0.22,10000,0.22
2012-08-06,0.22,0.22,0.22,0.22,20000,0.22
2012-08-03,0.24,0.24,0.24,0.24,000,0.24
2012-08-02,0.24,0.24,0.24,0.24,000,0.24
2012-08-01,0.24,0.24,0.24,0.24,000,0.24
2012-07-31,0.24,0.24,0.24,0.24,000,0.24
2012-07-30,0.24,0.24,0.24,0.24,000,0.24
2012-07-27,0.24,0.24,0.24,0.24,000,0.24
2012-07-26,0.24,0.24,0.24,0.24,000,0.24
2012-07-25,0.24,0.24,0.24,0.24,000,0.24
2012-07-24,0.24,0.24,0.24,0.24,5000,0.24
2012-07-23,0.25,0.25,0.25,0.25,000,0.25
2012-07-20,0.25,0.25,0.25,0.25,000,0.25
2012-07-19,0.25,0.25,0.25,0.25,000,0.25
2012-07-18,0.25,0.25,0.25,0.25,000,0.25
2012-07-17,0.25,0.25,0.25,0.25,000,0.25
2012-07-16,0.25,0.25,0.25,0.25,000,0.25
2012-07-13,0.25,0.25,0.25,0.25,000,0.25
2012-07-12,0.25,0.25,0.25,0.25,000,0.25
2012-07-11,0.25,0.25,0.25,0.25,000,0.25
2012-07-10,0.25,0.25,0.25,0.25,000,0.25
2012-07-09,0.25,0.25,0.25,0.25,000,0.25
2012-07-06,0.25,0.25,0.25,0.25,000,0.25
2012-07-05,0.25,0.25,0.25,0.25,000,0.25
2012-07-04,0.25,0.25,0.25,0.25,000,0.25
2012-07-03,0.25,0.25,0.25,0.25,000,0.25
2012-07-02,0.25,0.25,0.25,0.25,000,0.25
2012-06-29,0.25,0.25,0.25,0.25,000,0.25
2012-06-28,0.25,0.25,0.25,0.25,000,0.25
2012-06-27,0.25,0.25,0.25,0.25,000,0.25
2012-06-26,0.25,0.25,0.25,0.25,000,0.25
2012-06-25,0.25,0.25,0.25,0.25,000,0.25
2012-06-22,0.25,0.25,0.25,0.25,000,0.25
2012-06-21,0.25,0.25,0.25,0.25,000,0.25
2012-06-20,0.25,0.25,0.25,0.25,000,0.25
2012-06-19,0.25,0.25,0.25,0.25,000,0.25
2012-06-18,0.25,0.25,0.25,0.25,000,0.25
2012-06-15,0.25,0.25,0.25,0.25,000,0.25
2012-06-14,0.25,0.25,0.25,0.25,000,0.25
2012-06-13,0.25,0.25,0.25,0.25,000,0.25
2012-06-12,0.25,0.25,0.25,0.25,000,0.25
2012-06-11,0.25,0.25,0.25,0.25,000,0.25
2012-06-08,0.25,0.25,0.25,0.25,000,0.25
2012-06-07,0.25,0.25,0.25,0.25,000,0.25
2012-06-06,0.21,0.25,0.21,0.25,10100,0.25
2012-06-05,0.21,0.21,0.21,0.21,000,0.21
2012-06-04,0.21,0.21,0.21,0.21,39400,0.21
2012-06-01,0.20,0.20,0.20,0.20,31400,0.20
2012-05-31,0.20,0.20,0.20,0.20,000,0.20
2012-05-30,0.19,0.20,0.19,0.20,60000,0.20
2012-05-29,0.19,0.19,0.19,0.19,000,0.19
2012-05-28,0.19,0.19,0.19,0.19,000,0.19
2012-05-25,0.19,0.19,0.19,0.19,5100,0.19
2012-05-24,0.19,0.19,0.19,0.19,000,0.19
2012-05-23,0.19,0.19,0.19,0.19,000,0.19
2012-05-22,0.19,0.19,0.19,0.19,000,0.19
2012-05-21,0.19,0.19,0.19,0.19,000,0.19
2012-05-18,0.19,0.19,0.19,0.19,000,0.19
2012-05-17,0.19,0.19,0.19,0.19,16800,0.19
2012-05-16,0.195,0.195,0.19,0.19,67900,0.19
2012-05-15,0.21,0.21,0.20,0.20,60000,0.20
2012-05-14,0.23,0.23,0.23,0.23,000,0.23
2012-05-11,0.23,0.23,0.23,0.23,000,0.23
2012-05-10,0.23,0.23,0.23,0.23,000,0.23
2012-05-09,0.23,0.23,0.23,0.23,000,0.23
2012-05-08,0.23,0.23,0.23,0.23,000,0.23
2012-05-07,0.23,0.23,0.23,0.23,000,0.23
2012-05-04,0.23,0.23,0.23,0.23,000,0.23
2012-05-03,0.23,0.23,0.23,0.23,000,0.23
2012-05-02,0.23,0.23,0.23,0.23,000,0.23
2012-05-01,0.23,0.23,0.23,0.23,000,0.23
2012-04-30,0.23,0.23,0.23,0.23,000,0.23
2012-04-27,0.23,0.23,0.23,0.23,000,0.23
2012-04-26,0.23,0.23,0.23,0.23,000,0.23
2012-04-25,0.24,0.24,0.24,0.24,000,0.24
2012-04-24,0.24,0.24,0.24,0.24,000,0.24
2012-04-23,0.24,0.24,0.24,0.24,000,0.24
2012-04-20,0.24,0.24,0.24,0.24,15500,0.24
2012-04-19,0.24,0.24,0.24,0.24,000,0.24
2012-04-18,0.24,0.24,0.24,0.24,000,0.24
2012-04-17,0.24,0.24,0.24,0.24,000,0.24
2012-04-16,0.24,0.24,0.24,0.24,000,0.24
2012-04-13,0.24,0.24,0.24,0.24,000,0.24
2012-04-12,0.24,0.24,0.24,0.24,000,0.24
2012-04-11,0.24,0.24,0.24,0.24,4400,0.24
2012-04-10,0.24,0.24,0.24,0.24,000,0.24
2012-04-09,0.24,0.24,0.24,0.24,000,0.24
2012-04-06,0.24,0.24,0.24,0.24,000,0.24
2012-04-05,0.24,0.24,0.24,0.24,50500,0.24
2012-04-04,0.205,0.205,0.205,0.205,5500,0.205
2012-04-03,0.205,0.205,0.205,0.205,000,0.205
2012-04-02,0.205,0.205,0.205,0.205,12000,0.205
2012-03-30,0.23,0.23,0.23,0.23,000,0.23
2012-03-29,0.23,0.23,0.23,0.23,350000,0.23
2012-03-28,0.22,0.22,0.22,0.22,40000,0.22
2012-03-27,0.23,0.23,0.23,0.23,50000,0.23
2012-03-26,0.25,0.25,0.25,0.25,000,0.25
2012-03-23,0.25,0.25,0.25,0.25,000,0.25
2012-03-22,0.25,0.25,0.25,0.25,000,0.25
2012-03-21,0.25,0.25,0.25,0.25,000,0.25
2012-03-20,0.25,0.25,0.25,0.25,000,0.25
2012-03-19,0.25,0.25,0.25,0.25,20000,0.25
2012-03-16,0.28,0.28,0.28,0.28,000,0.28
2012-03-15,0.28,0.28,0.28,0.28,000,0.28
2012-03-14,0.28,0.28,0.28,0.28,000,0.28
2012-03-13,0.27,0.28,0.27,0.28,63000,0.28
2012-03-12,0.26,0.26,0.26,0.26,000,0.26
2012-03-09,0.26,0.26,0.26,0.26,000,0.26
2012-03-08,0.26,0.26,0.26,0.26,2500,0.26
2012-03-07,0.285,0.285,0.285,0.285,000,0.285
2012-03-06,0.285,0.285,0.285,0.285,000,0.285
2012-03-05,0.285,0.285,0.285,0.285,000,0.285
2012-03-02,0.285,0.285,0.285,0.285,000,0.285
2012-03-01,0.285,0.285,0.285,0.285,000,0.285
2012-02-29,0.285,0.285,0.285,0.285,000,0.285
2012-02-28,0.285,0.285,0.285,0.285,000,0.285
2012-02-27,0.285,0.285,0.285,0.285,000,0.285
2012-02-24,0.285,0.285,0.285,0.285,5500,0.285
2012-02-23,0.285,0.285,0.285,0.285,000,0.285
2012-02-22,0.285,0.285,0.285,0.285,000,0.285
2012-02-21,0.285,0.285,0.285,0.285,000,0.285
2012-02-20,0.285,0.285,0.285,0.285,000,0.285
2012-02-17,0.28,0.285,0.28,0.285,50000,0.285
2012-02-16,0.285,0.285,0.285,0.285,50000,0.285
2012-02-15,0.24,0.24,0.24,0.24,000,0.24
2012-02-14,0.24,0.24,0.24,0.24,000,0.24
2012-02-13,0.24,0.24,0.24,0.24,25000,0.24
2012-02-10,0.27,0.27,0.27,0.27,000,0.27
2012-02-09,0.27,0.27,0.27,0.27,000,0.27
2012-02-08,0.27,0.27,0.27,0.27,000,0.27
2012-02-07,0.27,0.27,0.27,0.27,000,0.27
2012-02-06,0.27,0.27,0.27,0.27,000,0.27
2012-02-03,0.26,0.27,0.26,0.27,93400,0.27
2012-02-02,0.24,0.24,0.24,0.24,000,0.24
2012-02-01,0.24,0.24,0.24,0.24,000,0.24
2012-01-31,0.24,0.24,0.24,0.24,000,0.24
2012-01-27,0.24,0.24,0.24,0.24,000,0.24
2012-01-26,0.24,0.24,0.24,0.24,000,0.24
2012-01-25,0.24,0.24,0.24,0.24,000,0.24
2012-01-24,0.24,0.24,0.24,0.24,000,0.24
2012-01-23,0.24,0.24,0.24,0.24,000,0.24
2012-01-20,0.24,0.24,0.24,0.24,000,0.24
2012-01-19,0.24,0.24,0.24,0.24,000,0.24
2012-01-18,0.24,0.24,0.24,0.24,000,0.24
2012-01-17,0.24,0.24,0.24,0.24,000,0.24
2012-01-16,0.24,0.24,0.24,0.24,000,0.24
2012-01-13,0.24,0.24,0.24,0.24,000,0.24
2012-01-12,0.24,0.24,0.24,0.24,000,0.24
2012-01-11,0.24,0.24,0.24,0.24,000,0.24
2012-01-10,0.24,0.24,0.24,0.24,000,0.24
2012-01-09,0.24,0.24,0.24,0.24,000,0.24
2012-01-06,0.24,0.24,0.24,0.24,000,0.24
2012-01-05,0.24,0.24,0.24,0.24,000,0.24
2012-01-04,0.24,0.24,0.24,0.24,000,0.24
2012-01-03,0.24,0.24,0.24,0.24,000,0.24
2012-01-02,0.24,0.24,0.24,0.24,000,0.24
2011-12-30,0.24,0.24,0.24,0.24,000,0.24
2011-12-29,0.24,0.24,0.24,0.24,000,0.24
2011-12-28,0.24,0.24,0.24,0.24,9800,0.24
2011-12-27,0.24,0.24,0.24,0.24,000,0.24
2011-12-26,0.24,0.24,0.24,0.24,000,0.24
2011-12-23,0.24,0.24,0.24,0.24,000,0.24
2011-12-22,0.24,0.24,0.24,0.24,000,0.24
2011-12-21,0.24,0.24,0.24,0.24,000,0.24
2011-12-20,0.24,0.24,0.24,0.24,000,0.24
2011-12-19,0.24,0.24,0.24,0.24,000,0.24
2011-12-16,0.24,0.24,0.24,0.24,000,0.24
2011-12-15,0.245,0.245,0.24,0.24,101000,0.24
2011-12-14,0.30,0.30,0.30,0.30,000,0.30
2011-12-13,0.30,0.30,0.30,0.30,000,0.30
2011-12-12,0.30,0.30,0.30,0.30,000,0.30
2011-12-09,0.30,0.30,0.30,0.30,000,0.30
2011-12-08,0.30,0.30,0.30,0.30,000,0.30
2011-12-07,0.30,0.30,0.30,0.30,000,0.30
2011-12-06,0.30,0.30,0.30,0.30,2800,0.30
2011-12-05,0.31,0.31,0.30,0.30,101500,0.30
2011-12-02,0.30,0.30,0.30,0.30,000,0.30
2011-12-01,0.27,0.30,0.27,0.30,170000,0.30
2011-11-30,0.25,0.27,0.25,0.27,90500,0.27
2011-11-29,0.23,0.23,0.23,0.23,000,0.23
2011-11-28,0.23,0.23,0.23,0.23,26300,0.23
2011-11-25,0.25,0.25,0.23,0.23,210000,0.23
2011-11-24,0.25,0.25,0.25,0.25,000,0.25
2011-11-23,0.25,0.25,0.25,0.25,000,0.25
2011-11-22,0.25,0.25,0.25,0.25,84500,0.25
2011-11-21,0.25,0.25,0.25,0.25,5600,0.25
2011-11-18,0.27,0.27,0.27,0.27,13400,0.27
2011-11-17,0.26,0.26,0.26,0.26,000,0.26
2011-11-10,0.25,0.26,0.25,0.26,40000,0.26
2011-11-08,0.24,0.24,0.24,0.24,25000,0.24
2011-11-04,0.23,0.23,0.23,0.23,100000,0.23
2011-10-31,0.195,0.195,0.195,0.195,25000,0.195
2011-10-28,0.20,0.20,0.195,0.195,190000,0.195
2011-10-27,0.195,0.20,0.195,0.20,120000,0.20
2011-10-10,0.18,0.18,0.18,0.18,2400,0.18
2011-10-05,0.18,0.18,0.18,0.18,2800,0.18
2011-10-04,0.18,0.18,0.18,0.18,50000,0.18
2011-09-21,0.18,0.18,0.18,0.18,4200,0.18
2011-09-14,0.18,0.18,0.18,0.18,2200,0.18
2011-09-07,0.18,0.18,0.18,0.18,30000,0.18
2011-09-02,0.18,0.18,0.18,0.18,700,0.18
2011-08-29,0.18,0.18,0.18,0.18,4700,0.18
2011-08-18,0.18,0.18,0.18,0.18,56400,0.18
2011-08-05,0.18,0.18,0.18,0.18,3100,0.18
2011-08-02,0.20,0.20,0.20,0.20,25000,0.20
2011-07-27,0.185,0.185,0.18,0.18,90000,0.18
2011-07-19,0.18,0.18,0.18,0.18,25000,0.18
2011-07-14,0.18,0.18,0.18,0.18,87500,0.18
2011-07-12,0.18,0.18,0.18,0.18,143000,0.18
2011-07-11,0.18,0.18,0.18,0.18,20000,0.18
2011-07-08,0.18,0.18,0.18,0.18,858900,0.18
2011-07-06,0.175,0.175,0.16,0.16,112100,0.16
2011-06-30,0.18,0.18,0.18,0.18,50000,0.18
2011-06-29,0.175,0.175,0.175,0.175,100000,0.175
2011-06-28,0.175,0.175,0.175,0.175,20000,0.175
2011-06-21,0.18,0.18,0.18,0.18,18800,0.18
2011-06-20,0.18,0.18,0.18,0.18,25000,0.18
2011-06-09,0.18,0.18,0.18,0.18,2400,0.18
2011-06-08,0.18,0.18,0.18,0.18,56400,0.18
2011-06-02,0.18,0.18,0.175,0.175,39100,0.175
2011-06-01,0.18,0.18,0.18,0.18,189000,0.18
2011-05-26,0.18,0.18,0.18,0.18,122800,0.18
2011-05-24,0.18,0.18,0.175,0.175,163400,0.175
2011-05-23,0.18,0.18,0.18,0.18,10000,0.18
2011-05-20,0.18,0.18,0.18,0.18,81800,0.18
2011-05-19,0.18,0.18,0.18,0.18,662000,0.18
2011-04-29,0.175,0.175,0.175,0.175,1600,0.175
2011-04-18,0.15,0.15,0.15,0.15,12600,0.15
2011-04-14,0.15,0.15,0.15,0.15,10000,0.15
2011-04-06,0.16,0.16,0.16,0.16,72100,0.16
2011-03-15,0.18,0.18,0.18,0.18,20000,0.18
2011-03-03,0.18,0.18,0.18,0.18,50000,0.18
2011-03-02,0.185,0.185,0.185,0.185,75000,0.185
2011-02-28,0.17,0.17,0.17,0.17,75000,0.17
2011-02-21,0.18,0.19,0.18,0.19,40000,0.19
2011-02-18,0.17,0.18,0.17,0.18,198800,0.18
2011-02-01,0.18,0.18,0.18,0.18,80000,0.18
2011-01-31,0.19,0.19,0.19,0.19,2600,0.19
2011-01-07,0.18,0.18,0.18,0.18,40000,0.18
2010-12-23,0.18,0.18,0.18,0.18,2100,0.18
2010-12-15,0.18,0.19,0.18,0.19,14200,0.19
2010-12-13,0.18,0.18,0.18,0.18,1200,0.18
2010-12-06,0.18,0.18,0.18,0.18,25000,0.18
2010-11-29,0.18,0.18,0.18,0.18,33100,0.18
2010-11-18,0.18,0.18,0.18,0.18,115000,0.18
2010-11-16,0.19,0.19,0.18,0.18,20000,0.18
2010-11-11,0.19,0.19,0.19,0.19,13900,0.19
2010-11-05,0.19,0.19,0.19,0.19,25000,0.19
2010-10-28,0.19,0.19,0.19,0.19,22500,0.19
2010-10-26,0.195,0.195,0.195,0.195,46800,0.195
2010-10-25,0.195,0.195,0.195,0.195,3100,0.195
2010-10-22,0.195,0.195,0.195,0.195,2800,0.195
2010-10-19,0.195,0.195,0.195,0.195,43900,0.195
2010-10-13,0.20,0.20,0.195,0.195,75800,0.195
2010-10-12,0.195,0.24,0.19,0.24,148000,0.24
2010-10-01,0.18,0.19,0.18,0.19,315200,0.19
2010-09-30,0.17,0.18,0.17,0.18,143900,0.18
2010-09-29,0.15,0.15,0.15,0.15,22800,0.15
2010-09-23,0.18,0.18,0.18,0.18,21900,0.18
2010-09-22,0.18,0.18,0.18,0.18,75000,0.18
2010-09-15,0.17,0.17,0.17,0.17,12500,0.17
2010-08-20,0.15,0.15,0.15,0.15,10000,0.15
2010-07-23,0.18,0.18,0.18,0.18,10000,0.18
2010-06-25,0.19,0.19,0.15,0.15,000,0.15
2010-06-24,0.19,0.19,0.15,0.15,000,0.15
2010-06-23,0.19,0.19,0.15,0.15,000,0.15
2010-06-22,0.19,0.19,0.15,0.15,000,0.15
2010-06-21,0.19,0.19,0.16,0.16,000,0.16
2010-06-18,0.19,0.19,0.16,0.16,000,0.16
2010-06-17,0.19,0.19,0.14,0.14,000,0.14
2010-06-16,0.19,0.19,0.14,0.14,000,0.14
2010-06-15,0.19,0.19,0.14,0.14,000,0.14
2010-06-11,0.19,0.19,0.14,0.14,000,0.14
2010-06-10,0.19,0.19,0.14,0.14,000,0.14
2010-06-09,0.19,0.19,0.14,0.14,000,0.14
2010-06-08,0.19,0.19,0.14,0.14,000,0.14
2010-06-07,0.19,0.19,0.14,0.14,000,0.14
2010-06-04,0.18,0.18,0.18,0.18,100000,0.18
2010-06-03,0.19,0.19,0.12,0.12,000,0.12
2010-06-02,0.19,0.19,0.12,0.12,000,0.12
2010-06-01,0.19,0.19,0.12,0.12,000,0.12
2010-05-31,0.19,0.19,0.12,0.12,000,0.12
2010-05-28,0.19,0.19,0.12,0.12,000,0.12
2010-05-27,0.19,0.19,0.12,0.12,000,0.12
2010-05-26,0.19,0.19,0.12,0.12,000,0.12
2010-05-25,0.19,0.19,0.12,0.12,000,0.12
2010-05-24,0.17,0.19,0.17,0.19,50600,0.19
2010-05-21,0.12,0.17,0.12,0.17,22500,0.17
2010-05-20,0.17,0.17,0.14,0.14,000,0.14
2010-05-19,0.17,0.17,0.14,0.14,000,0.14
2010-05-18,0.17,0.17,0.14,0.14,000,0.14
2010-05-17,0.17,0.17,0.14,0.14,000,0.14
2010-05-14,0.17,0.17,0.14,0.14,000,0.14
2010-05-13,0.17,0.17,0.14,0.14,000,0.14
2010-05-12,0.19,0.19,0.14,0.14,000,0.14
2010-05-11,0.19,0.19,0.12,0.12,000,0.12
2010-05-07,0.19,0.19,0.12,0.12,000,0.12
2010-05-06,0.19,0.19,0.14,0.14,000,0.14
2010-05-05,0.19,0.19,0.14,0.14,000,0.14
2010-05-04,0.16,0.16,0.15,0.15,60000,0.15
2010-05-03,0.19,0.19,0.16,0.16,000,0.16
2010-04-30,0.19,0.19,0.16,0.16,000,0.16
2010-04-29,0.19,0.19,0.16,0.16,000,0.16
2010-04-28,0.16,0.16,0.16,0.16,50000,0.16
2010-04-27,0.19,0.19,0.16,0.16,000,0.16
2010-04-23,0.19,0.19,0.16,0.16,000,0.16
2010-04-22,0.19,0.19,0.16,0.16,000,0.16
2010-04-21,0.19,0.19,0.16,0.16,000,0.16
2010-04-20,0.16,0.16,0.16,0.16,20000,0.16
2010-04-19,0.19,0.19,0.16,0.16,000,0.16
2010-04-16,0.16,0.16,0.16,0.16,15500,0.16
2010-04-15,0.17,0.17,0.16,0.16,88900,0.16
2010-04-14,0.17,0.17,0.17,0.17,20000,0.17
2010-04-13,0.19,0.19,0.17,0.17,000,0.17
2010-04-12,0.19,0.19,0.17,0.17,000,0.17
2010-04-09,0.19,0.19,0.17,0.17,000,0.17
2010-04-08,0.19,0.19,0.17,0.17,000,0.17
2010-04-07,0.19,0.19,0.17,0.17,000,0.17
2010-04-06,0.19,0.19,0.17,0.17,000,0.17
2010-04-01,0.19,0.19,0.17,0.17,000,0.17
2010-03-31,0.19,0.19,0.17,0.17,000,0.17
2010-03-30,0.19,0.19,0.17,0.17,000,0.17
2010-03-29,0.19,0.19,0.17,0.17,000,0.17
2010-03-26,0.18,0.18,0.18,0.18,20000,0.18
2010-03-25,0.19,0.19,0.18,0.18,000,0.18
2010-03-24,0.19,0.19,0.18,0.18,000,0.18
2010-03-23,0.20,0.20,0.18,0.18,000,0.18
2010-03-22,0.18,0.18,0.18,0.18,7000,0.18
2010-03-19,0.20,0.20,0.18,0.18,000,0.18
2010-03-18,0.20,0.20,0.18,0.18,000,0.18
2010-03-17,0.18,0.18,0.18,0.18,100000,0.18
2010-03-16,0.18,0.18,0.18,0.18,41900,0.18
2010-03-15,0.18,0.18,0.16,0.16,000,0.16
2010-03-12,0.18,0.18,0.16,0.16,000,0.16
2010-03-11,0.18,0.18,0.18,0.18,20000,0.18
2010-03-10,0.18,0.18,0.18,0.18,10000,0.18
2010-03-09,0.18,0.18,0.16,0.16,000,0.16
2010-03-08,0.18,0.18,0.16,0.16,000,0.16
2010-03-05,0.18,0.18,0.16,0.16,000,0.16
2010-03-04,0.18,0.18,0.16,0.16,000,0.16
2010-03-03,0.18,0.18,0.16,0.16,000,0.16
2010-03-02,0.18,0.18,0.16,0.16,000,0.16
2010-03-01,0.18,0.18,0.16,0.16,000,0.16
2010-02-26,0.20,0.20,0.16,0.16,000,0.16
2010-02-25,0.20,0.20,0.20,0.20,000,0.20
2010-02-24,0.20,0.20,0.20,0.20,000,0.20
2010-02-23,0.20,0.20,0.20,0.20,000,0.20
2010-02-22,0.20,0.20,0.20,0.20,000,0.20
2010-02-19,0.20,0.20,0.14,0.14,000,0.14
2010-02-18,0.20,0.20,0.14,0.14,000,0.14
2010-02-17,0.20,0.20,0.14,0.14,000,0.14
2010-02-16,0.20,0.20,0.14,0.14,000,0.14
2010-02-15,0.20,0.20,0.14,0.14,000,0.14
2010-02-12,0.19,0.19,0.14,0.14,000,0.14
2010-02-11,0.19,0.19,0.14,0.14,000,0.14
2010-02-10,0.19,0.19,0.14,0.14,000,0.14
2010-02-09,0.19,0.19,0.14,0.14,000,0.14
2010-02-08,0.19,0.19,0.15,0.15,000,0.15
2010-02-05,0.19,0.19,0.15,0.15,000,0.15
2010-02-04,0.18,0.18,0.18,0.18,50000,0.18
2010-02-03,0.18,0.18,0.15,0.15,000,0.15
2010-02-01,0.18,0.18,0.15,0.15,000,0.15
2010-01-29,0.19,0.19,0.16,0.16,000,0.16
2010-01-28,0.19,0.19,0.16,0.16,000,0.16
2010-01-27,0.19,0.19,0.17,0.17,000,0.17
2010-01-25,0.19,0.19,0.17,0.17,000,0.17
2010-01-22,0.19,0.19,0.19,0.19,16000,0.19
2010-01-21,0.20,0.20,0.19,0.19,000,0.19
2010-01-20,0.19,0.19,0.19,0.19,34000,0.19
2010-01-19,0.19,0.19,0.16,0.16,000,0.16
2010-01-18,0.19,0.19,0.15,0.15,000,0.15
2010-01-15,0.18,0.18,0.15,0.15,180000,0.15
2010-01-13,0.20,0.20,0.18,0.18,000,0.18
2010-01-12,0.18,0.18,0.18,0.18,54000,0.18
2010-01-11,0.20,0.20,0.18,0.18,000,0.18
2010-01-08,0.18,0.18,0.18,0.18,27300,0.18
2010-01-07,0.21,0.21,0.18,0.18,000,0.18
2010-01-06,0.21,0.21,0.15,0.15,000,0.15
2010-01-05,0.21,0.21,0.15,0.15,000,0.15
2010-01-04,0.21,0.21,0.15,0.15,000,0.15
2009-12-30,0.20,0.20,0.17,0.17,000,0.17
2009-12-24,0.20,0.20,0.20,0.20,000,0.20
2009-12-23,0.20,0.20,0.17,0.17,000,0.17
2009-12-22,0.20,0.20,0.20,0.20,000,0.20
2009-12-21,0.20,0.20,0.20,0.20,000,0.20
2009-12-18,0.20,0.20,0.20,0.20,000,0.20
2009-12-17,0.20,0.20,0.20,0.20,000,0.20
2009-12-16,0.20,0.20,0.20,0.20,000,0.20
2009-12-15,0.20,0.20,0.20,0.20,000,0.20
2009-12-14,0.20,0.20,0.20,0.20,000,0.20
2009-12-11,0.20,0.20,0.14,0.14,000,0.14
2009-12-10,0.20,0.20,0.14,0.14,000,0.14
2009-12-09,0.20,0.20,0.14,0.14,000,0.14
2009-12-08,0.20,0.20,0.16,0.16,000,0.16
2009-12-07,0.20,0.20,0.16,0.16,000,0.16
2009-12-04,0.20,0.20,0.16,0.16,000,0.16
2009-12-03,0.20,0.20,0.16,0.16,000,0.16
2009-12-02,0.20,0.20,0.16,0.16,000,0.16
2009-12-01,0.20,0.20,0.16,0.16,000,0.16
2009-11-30,0.20,0.20,0.16,0.16,000,0.16
2009-11-27,0.20,0.20,0.16,0.16,000,0.16
2009-11-26,0.20,0.20,0.16,0.16,000,0.16
2009-11-25,0.20,0.20,0.16,0.16,000,0.16
2009-11-24,0.20,0.20,0.16,0.16,000,0.16
2009-11-20,0.20,0.20,0.17,0.17,000,0.17
2009-11-19,0.20,0.20,0.17,0.17,000,0.17
2009-11-18,0.20,0.20,0.17,0.17,000,0.17
2009-11-17,0.20,0.20,0.17,0.17,000,0.17
2009-11-16,0.19,0.19,0.18,0.18,37000,0.18
2009-11-13,0.20,0.20,0.19,0.19,000,0.19
2009-11-12,0.19,0.19,0.19,0.19,46000,0.19
2009-11-11,0.18,0.18,0.18,0.18,50000,0.18
2009-11-10,0.22,0.22,0.18,0.18,000,0.18
2009-11-09,0.22,0.22,0.18,0.18,000,0.18
2009-11-06,0.25,0.25,0.18,0.18,000,0.18
2009-11-05,0.18,0.18,0.18,0.18,000,0.18
2009-11-04,0.18,0.18,0.18,0.18,000,0.18
2009-11-03,0.18,0.18,0.18,0.18,000,0.18
2009-11-02,0.20,0.20,0.18,0.18,43600,0.18
2009-10-30,0.20,0.20,0.20,0.20,000,0.20
2009-10-29,0.21,0.21,0.20,0.20,30000,0.20
2009-10-28,0.21,0.21,0.21,0.21,13800,0.21
2009-10-27,0.22,0.22,0.22,0.22,1100,0.22
2009-10-26,0.22,0.22,0.22,0.22,20000,0.22
2009-10-23,0.22,0.22,0.22,0.22,000,0.22
2009-10-22,0.22,0.22,0.22,0.22,85000,0.22
2009-10-21,0.25,0.25,0.25,0.25,000,0.25
2009-10-20,0.25,0.25,0.25,0.25,000,0.25
2009-10-19,0.25,0.25,0.25,0.25,000,0.25
2009-10-16,0.25,0.25,0.25,0.25,000,0.25
2009-10-15,0.25,0.25,0.25,0.25,000,0.25
2009-10-14,0.25,0.25,0.25,0.25,000,0.25
2009-10-13,0.25,0.25,0.25,0.25,000,0.25
2009-10-12,0.25,0.25,0.25,0.25,000,0.25
2009-10-09,0.25,0.25,0.25,0.25,000,0.25
2009-10-08,0.25,0.25,0.25,0.25,000,0.25
2009-10-07,0.25,0.25,0.25,0.25,000,0.25
2009-10-06,0.25,0.25,0.25,0.25,000,0.25
2009-10-05,0.25,0.25,0.25,0.25,000,0.25
2009-10-02,0.25,0.25,0.25,0.25,000,0.25
2009-10-01,0.25,0.25,0.25,0.25,000,0.25
2009-09-30,0.25,0.25,0.25,0.25,15000,0.25
2009-09-29,0.21,0.21,0.21,0.21,000,0.21
2009-09-28,0.21,0.21,0.21,0.21,000,0.21
2009-09-25,0.21,0.21,0.21,0.21,000,0.21
2009-09-24,0.21,0.21,0.21,0.21,000,0.21
2009-09-23,0.21,0.21,0.21,0.21,4100,0.21
2009-09-22,0.25,0.25,0.25,0.25,000,0.25
2009-09-21,0.25,0.25,0.25,0.25,18000,0.25
2009-09-18,0.26,0.26,0.26,0.26,000,0.26
2009-09-17,0.245,0.26,0.245,0.26,90000,0.26
2009-09-16,0.25,0.25,0.24,0.24,12500,0.24
2009-09-15,0.24,0.24,0.24,0.24,000,0.24
2009-09-14,0.24,0.245,0.24,0.24,44500,0.24
2009-09-11,0.24,0.24,0.24,0.24,7800,0.24
2009-09-10,0.22,0.22,0.22,0.22,000,0.22
2009-09-09,0.22,0.22,0.22,0.22,000,0.22
2009-09-08,0.22,0.22,0.22,0.22,7200,0.22
2009-09-07,0.20,0.20,0.20,0.20,22000,0.20
2009-09-04,0.20,0.20,0.20,0.20,000,0.20
2009-09-03,0.20,0.20,0.20,0.20,10000,0.20
2009-09-02,0.18,0.18,0.18,0.18,000,0.18
2009-09-01,0.18,0.18,0.18,0.18,000,0.18
2009-08-31,0.18,0.18,0.18,0.18,000,0.18
2009-08-28,0.18,0.18,0.18,0.18,000,0.18
2009-08-27,0.18,0.18,0.18,0.18,000,0.18
2009-08-26,0.18,0.18,0.18,0.18,000,0.18
2009-08-25,0.18,0.18,0.18,0.18,000,0.18
2009-08-24,0.18,0.18,0.18,0.18,000,0.18
2009-08-21,0.18,0.18,0.18,0.18,12000,0.18
2009-08-20,0.18,0.18,0.18,0.18,000,0.18
2009-08-19,0.18,0.18,0.18,0.18,000,0.18
2009-08-18,0.18,0.18,0.18,0.18,000,0.18
2009-08-17,0.18,0.18,0.18,0.18,000,0.18
2009-08-14,0.18,0.18,0.18,0.18,000,0.18
2009-08-13,0.18,0.18,0.18,0.18,3500,0.18
2009-08-12,0.17,0.18,0.17,0.18,155300,0.18
2009-08-11,0.17,0.17,0.17,0.17,000,0.17
2009-08-10,0.17,0.17,0.17,0.17,60000,0.17
2009-08-07,0.18,0.18,0.18,0.18,000,0.18
2009-08-06,0.18,0.18,0.18,0.18,000,0.18
2009-08-05,0.18,0.18,0.18,0.18,000,0.18
2009-08-04,0.18,0.18,0.18,0.18,000,0.18
2009-08-03,0.18,0.18,0.18,0.18,000,0.18
2009-07-31,0.18,0.18,0.18,0.18,000,0.18
2009-07-30,0.18,0.18,0.18,0.18,000,0.18
2009-07-29,0.18,0.18,0.18,0.18,000,0.18
2009-07-28,0.18,0.18,0.18,0.18,000,0.18
2009-07-27,0.18,0.18,0.18,0.18,11100,0.18
2009-07-24,0.18,0.18,0.18,0.18,000,0.18
2009-07-23,0.18,0.18,0.18,0.18,000,0.18
2009-07-22,0.18,0.18,0.18,0.18,000,0.18
2009-07-21,0.18,0.18,0.18,0.18,000,0.18
2009-07-20,0.18,0.18,0.18,0.18,000,0.18
2009-07-17,0.18,0.18,0.18,0.18,000,0.18
2009-07-16,0.18,0.18,0.18,0.18,000,0.18
2009-07-15,0.18,0.18,0.18,0.18,000,0.18
2009-07-14,0.18,0.18,0.18,0.18,000,0.18
2009-07-13,0.18,0.18,0.18,0.18,6000,0.18
2009-07-10,0.18,0.18,0.18,0.18,000,0.18
2009-07-09,0.18,0.18,0.18,0.18,000,0.18
2009-07-08,0.18,0.18,0.18,0.18,000,0.18
2009-07-07,0.18,0.18,0.18,0.18,67000,0.18
2009-07-06,0.19,0.19,0.19,0.19,000,0.19
2009-07-03,0.19,0.19,0.19,0.19,000,0.19
2009-07-02,0.19,0.19,0.19,0.19,000,0.19
2009-07-01,0.19,0.19,0.19,0.19,000,0.19
2009-06-30,0.19,0.19,0.19,0.19,10000,0.19
2009-06-29,0.19,0.19,0.18,0.18,000,0.18
2009-06-26,0.19,0.19,0.18,0.18,000,0.18
2009-06-25,0.19,0.19,0.18,0.18,000,0.18
2009-06-24,0.19,0.19,0.18,0.18,000,0.18
2009-06-23,0.18,0.18,0.18,0.18,10000,0.18
2009-06-22,0.18,0.18,0.18,0.18,15000,0.18
2009-06-19,0.18,0.18,0.18,0.18,12500,0.18
2009-06-18,0.20,0.20,0.18,0.18,000,0.18
2009-06-17,0.18,0.18,0.18,0.18,43700,0.18
2009-06-16,0.20,0.20,0.18,0.18,000,0.18
2009-06-15,0.185,0.185,0.185,0.185,10000,0.185
2009-06-12,0.18,0.18,0.18,0.18,10000,0.18
2009-06-11,0.18,0.18,0.18,0.18,15600,0.18
2009-06-10,0.20,0.20,0.18,0.18,000,0.18
2009-06-09,0.18,0.18,0.18,0.18,15000,0.18
2009-06-05,0.185,0.185,0.18,0.18,000,0.18
2009-06-04,0.185,0.185,0.18,0.18,000,0.18
2009-06-03,0.18,0.18,0.18,0.18,7800,0.18
2009-06-02,0.185,0.185,0.18,0.18,000,0.18
2009-06-01,0.185,0.185,0.18,0.18,000,0.18
2009-05-29,0.185,0.185,0.18,0.18,000,0.18
2009-05-28,0.17,0.18,0.17,0.18,127700,0.18
2009-05-27,0.17,0.17,0.12,0.12,000,0.12
2009-05-26,0.125,0.125,0.125,0.125,24000,0.125
2009-05-25,0.185,0.185,0.185,0.185,000,0.185
2009-05-22,0.185,0.185,0.185,0.185,000,0.185
2009-05-21,0.185,0.185,0.185,0.185,000,0.185
2009-05-20,0.185,0.185,0.185,0.185,000,0.185
2009-05-19,0.185,0.185,0.185,0.185,000,0.185
2009-05-18,0.185,0.185,0.185,0.185,000,0.185
2009-05-15,0.185,0.185,0.185,0.185,000,0.185
2009-05-14,0.185,0.185,0.185,0.185,000,0.185
2009-05-13,0.185,0.185,0.185,0.185,000,0.185
2009-05-12,0.185,0.185,0.185,0.185,000,0.185
2009-05-11,0.185,0.185,0.185,0.185,000,0.185
2009-05-08,0.185,0.185,0.185,0.185,000,0.185
2009-05-07,0.185,0.185,0.185,0.185,000,0.185
2009-05-06,0.185,0.185,0.185,0.185,000,0.185
2009-05-05,0.185,0.185,0.185,0.185,000,0.185
2009-05-04,0.185,0.185,0.185,0.185,000,0.185
2009-05-01,0.185,0.185,0.185,0.185,000,0.185
2009-04-30,0.185,0.185,0.185,0.185,000,0.185
2009-04-29,0.185,0.185,0.185,0.185,000,0.185
2009-04-28,0.185,0.185,0.185,0.185,000,0.185
2009-04-27,0.185,0.185,0.185,0.185,000,0.185
2009-04-24,0.185,0.185,0.185,0.185,000,0.185
2009-04-23,0.185,0.185,0.185,0.185,000,0.185
2009-04-22,0.185,0.185,0.185,0.185,000,0.185
2009-04-21,0.185,0.185,0.185,0.185,000,0.185
2009-04-20,0.185,0.185,0.185,0.185,000,0.185
2009-04-17,0.185,0.185,0.185,0.185,000,0.185
2009-04-16,0.185,0.185,0.185,0.185,000,0.185
2009-04-15,0.185,0.185,0.185,0.185,000,0.185
2009-04-14,0.185,0.185,0.185,0.185,000,0.185
2009-04-09,0.185,0.185,0.185,0.185,000,0.185
2009-04-08,0.185,0.185,0.185,0.185,000,0.185
2009-04-07,0.185,0.185,0.185,0.185,000,0.185
2009-04-06,0.185,0.185,0.185,0.185,000,0.185
2009-04-03,0.185,0.185,0.185,0.185,000,0.185
2009-04-02,0.185,0.185,0.185,0.185,000,0.185
2009-04-01,0.185,0.185,0.185,0.185,000,0.185
2009-03-31,0.185,0.185,0.185,0.185,000,0.185
2009-03-30,0.185,0.185,0.185,0.185,000,0.185
2009-03-27,0.185,0.185,0.185,0.185,000,0.185
2009-03-26,0.185,0.185,0.185,0.185,000,0.185
2009-03-25,0.185,0.185,0.185,0.185,000,0.185
2009-03-24,0.185,0.185,0.185,0.185,000,0.185
2009-03-23,0.185,0.185,0.185,0.185,000,0.185
2009-03-20,0.185,0.185,0.185,0.185,000,0.185
2009-03-19,0.185,0.185,0.185,0.185,000,0.185
2009-03-18,0.185,0.185,0.185,0.185,2800,0.185
2009-03-17,0.185,0.185,0.185,0.185,000,0.185
2009-03-16,0.185,0.185,0.185,0.185,000,0.185
2009-03-13,0.185,0.185,0.185,0.185,000,0.185
2009-03-12,0.185,0.185,0.185,0.185,000,0.185
2009-03-11,0.185,0.185,0.185,0.185,000,0.185
2009-03-10,0.185,0.185,0.185,0.185,000,0.185
2009-03-09,0.185,0.185,0.185,0.185,4300,0.185
2009-03-06,0.20,0.20,0.185,0.185,000,0.185
2009-03-05,0.20,0.20,0.185,0.185,000,0.185
2009-03-04,0.20,0.20,0.185,0.185,000,0.185
2009-03-03,0.20,0.20,0.185,0.185,000,0.185
2009-03-02,0.20,0.20,0.185,0.185,000,0.185
2009-02-27,0.185,0.185,0.185,0.185,12500,0.185
2009-02-26,0.185,0.185,0.185,0.185,10000,0.185
2009-02-25,0.20,0.20,0.18,0.18,000,0.18
2009-02-24,0.20,0.20,0.18,0.18,000,0.18
2009-02-23,0.20,0.20,0.18,0.18,000,0.18
2009-02-20,0.20,0.20,0.17,0.17,000,0.17
2009-02-19,0.175,0.175,0.175,0.175,000,0.175
2009-02-18,0.175,0.175,0.175,0.175,000,0.175
2009-02-17,0.175,0.175,0.175,0.175,136500,0.175
2009-02-16,0.175,0.175,0.175,0.175,000,0.175
2009-02-13,0.175,0.175,0.175,0.175,13600,0.175
2009-02-12,0.15,0.15,0.15,0.15,33800,0.15
2009-02-11,0.15,0.15,0.15,0.15,000,0.15
2009-02-10,0.15,0.15,0.15,0.15,000,0.15
2009-02-09,0.15,0.15,0.15,0.15,000,0.15
2009-02-06,0.15,0.15,0.15,0.15,000,0.15
2009-02-05,0.15,0.15,0.15,0.15,50000,0.15
2009-02-04,0.15,0.15,0.15,0.15,16100,0.15
2009-02-03,0.16,0.16,0.15,0.15,106000,0.15
2009-02-02,0.15,0.15,0.15,0.15,000,0.15
2009-01-30,0.15,0.15,0.15,0.15,000,0.15
2009-01-29,0.15,0.15,0.15,0.15,000,0.15
2009-01-28,0.15,0.15,0.15,0.15,000,0.15
2009-01-27,0.15,0.15,0.15,0.15,22000,0.15
2009-01-23,0.175,0.175,0.175,0.175,000,0.175
2009-01-22,0.175,0.175,0.175,0.175,000,0.175
2009-01-21,0.175,0.175,0.175,0.175,000,0.175
2009-01-20,0.17,0.175,0.17,0.175,5000,0.175
2009-01-19,0.17,0.17,0.17,0.17,000,0.17
2009-01-16,0.17,0.17,0.17,0.17,000,0.17
2009-01-15,0.18,0.18,0.17,0.17,72800,0.17
2009-01-14,0.17,0.17,0.17,0.17,000,0.17
2009-01-13,0.16,0.17,0.16,0.17,72200,0.17
2009-01-12,0.20,0.20,0.16,0.16,000,0.16
2009-01-09,0.20,0.20,0.16,0.16,000,0.16
2009-01-08,0.20,0.20,0.16,0.16,000,0.16
2009-01-07,0.16,0.16,0.16,0.16,15000,0.16
2009-01-06,0.16,0.16,0.16,0.16,20000,0.16
2009-01-05,0.20,0.20,0.20,0.20,000,0.20
2009-01-02,0.20,0.20,0.20,0.20,000,0.20
2008-12-31,0.18,0.20,0.18,0.20,25000,0.20
2008-12-30,0.16,0.16,0.16,0.16,000,0.16
2008-12-29,0.16,0.16,0.16,0.16,400,0.16
2008-12-24,0.13,0.16,0.13,0.16,185000,0.16
2008-12-23,0.16,0.16,0.16,0.16,000,0.16
2008-12-22,0.16,0.16,0.16,0.16,000,0.16
2008-12-19,0.16,0.16,0.16,0.16,000,0.16
2008-12-18,0.16,0.16,0.16,0.16,000,0.16
2008-12-17,0.16,0.16,0.16,0.16,000,0.16
2008-12-16,0.16,0.16,0.16,0.16,000,0.16
2008-12-15,0.16,0.16,0.16,0.16,000,0.16
2008-12-12,0.16,0.16,0.16,0.16,000,0.16
2008-12-11,0.16,0.16,0.16,0.16,000,0.16
2008-12-10,0.16,0.16,0.16,0.16,000,0.16
2008-12-09,0.16,0.16,0.16,0.16,000,0.16
2008-12-08,0.16,0.16,0.16,0.16,000,0.16
2008-12-05,0.16,0.16,0.16,0.16,000,0.16
2008-12-04,0.16,0.16,0.16,0.16,000,0.16
2008-12-03,0.16,0.16,0.16,0.16,000,0.16
2008-12-02,0.16,0.16,0.16,0.16,000,0.16
2008-12-01,0.16,0.16,0.16,0.16,000,0.16
2008-11-28,0.16,0.16,0.16,0.16,000,0.16
2008-11-27,0.16,0.16,0.16,0.16,000,0.16
2008-11-26,0.16,0.16,0.16,0.16,000,0.16
2008-11-25,0.16,0.16,0.16,0.16,000,0.16
2008-11-24,0.16,0.16,0.16,0.16,000,0.16
2008-11-21,0.16,0.16,0.16,0.16,000,0.16
2008-11-20,0.16,0.16,0.16,0.16,000,0.16
2008-11-19,0.16,0.16,0.16,0.16,000,0.16
2008-11-18,0.16,0.16,0.16,0.16,000,0.16
2008-11-17,0.16,0.16,0.16,0.16,000,0.16
2008-11-14,0.16,0.16,0.16,0.16,000,0.16
2008-11-13,0.16,0.16,0.16,0.16,000,0.16
2008-11-12,0.16,0.16,0.16,0.16,000,0.16
2008-11-11,0.16,0.16,0.16,0.16,000,0.16
2008-11-10,0.16,0.16,0.16,0.16,000,0.16
2008-11-07,0.16,0.16,0.16,0.16,000,0.16
2008-11-06,0.16,0.16,0.16,0.16,000,0.16
2008-11-05,0.16,0.16,0.16,0.16,000,0.16
2008-11-04,0.16,0.16,0.16,0.16,000,0.16
2008-11-03,0.16,0.16,0.16,0.16,000,0.16
2008-10-31,0.16,0.16,0.16,0.16,000,0.16
2008-10-30,0.16,0.16,0.16,0.16,000,0.16
2008-10-29,0.16,0.16,0.16,0.16,000,0.16
2008-10-28,0.16,0.16,0.16,0.16,000,0.16
2008-10-27,0.16,0.16,0.16,0.16,000,0.16
2008-10-24,0.16,0.16,0.16,0.16,000,0.16
2008-10-23,0.16,0.16,0.16,0.16,000,0.16
2008-10-22,0.16,0.16,0.16,0.16,000,0.16
2008-10-21,0.16,0.16,0.16,0.16,000,0.16
2008-10-20,0.16,0.16,0.16,0.16,000,0.16
2008-10-17,0.16,0.16,0.16,0.16,000,0.16
2008-10-16,0.16,0.16,0.16,0.16,000,0.16
2008-10-15,0.16,0.16,0.16,0.16,000,0.16
2008-10-14,0.16,0.16,0.16,0.16,000,0.16
2008-10-13,0.16,0.16,0.16,0.16,000,0.16
2008-10-10,0.16,0.16,0.16,0.16,000,0.16
2008-10-09,0.16,0.16,0.16,0.16,000,0.16
2008-10-08,0.16,0.16,0.16,0.16,000,0.16
2008-10-07,0.16,0.16,0.16,0.16,000,0.16
2008-10-06,0.16,0.16,0.16,0.16,000,0.16
2008-10-03,0.16,0.16,0.16,0.16,000,0.16
2008-10-02,0.16,0.16,0.16,0.16,000,0.16
2008-10-01,0.16,0.16,0.16,0.16,17800,0.16
2008-09-30,0.15,0.16,0.15,0.16,59700,0.16
2008-09-29,0.15,0.15,0.12,0.12,000,0.12
2008-09-26,0.12,0.12,0.12,0.12,35000,0.12
2008-09-25,0.15,0.15,0.12,0.12,000,0.12
2008-09-24,0.15,0.15,0.12,0.12,000,0.12
2008-09-23,0.15,0.15,0.12,0.12,000,0.12
2008-09-22,0.15,0.15,0.12,0.12,000,0.12
2008-09-19,0.15,0.15,0.12,0.12,000,0.12
2008-09-18,0.12,0.12,0.12,0.12,7500,0.12
2008-09-17,0.15,0.15,0.15,0.15,000,0.15
2008-09-16,0.15,0.15,0.15,0.15,000,0.15
2008-09-15,0.15,0.15,0.15,0.15,19300,0.15
2008-09-12,0.15,0.15,0.15,0.15,000,0.15
2008-09-11,0.15,0.15,0.15,0.15,30600,0.15
2008-09-10,0.16,0.16,0.16,0.16,19700,0.16
2008-09-09,0.16,0.16,0.16,0.16,15000,0.16
2008-09-08,0.18,0.18,0.16,0.16,000,0.16
2008-09-05,0.18,0.18,0.16,0.16,000,0.16
2008-09-04,0.18,0.18,0.16,0.16,000,0.16
2008-09-03,0.18,0.18,0.16,0.16,000,0.16
2008-09-02,0.16,0.16,0.16,0.16,24000,0.16
2008-09-01,0.18,0.18,0.18,0.18,000,0.18
2008-08-29,0.18,0.18,0.18,0.18,000,0.18
2008-08-28,0.18,0.18,0.18,0.18,000,0.18
2008-08-27,0.18,0.18,0.18,0.18,000,0.18
2008-08-26,0.18,0.18,0.18,0.18,000,0.18
2008-08-25,0.18,0.18,0.18,0.18,000,0.18
2008-08-22,0.18,0.18,0.18,0.18,000,0.18
2008-08-21,0.18,0.18,0.18,0.18,62500,0.18
2008-08-20,0.16,0.16,0.16,0.16,000,0.16
2008-08-19,0.16,0.16,0.16,0.16,000,0.16
2008-08-18,0.16,0.16,0.16,0.16,000,0.16
2008-08-15,0.16,0.16,0.16,0.16,000,0.16
2008-08-14,0.16,0.16,0.16,0.16,96300,0.16
2008-08-13,0.16,0.16,0.16,0.16,000,0.16
2008-08-12,0.16,0.16,0.16,0.16,000,0.16
2008-08-11,0.17,0.17,0.16,0.16,58200,0.16
2008-08-08,0.17,0.17,0.17,0.17,15000,0.17
2008-08-07,0.15,0.15,0.15,0.15,50000,0.15
2008-08-06,0.15,0.15,0.15,0.15,53500,0.15
2008-08-05,0.15,0.15,0.15,0.15,23300,0.15
2008-08-04,0.18,0.18,0.18,0.18,000,0.18
2008-08-01,0.18,0.18,0.18,0.18,000,0.18
2008-07-31,0.18,0.18,0.18,0.18,50000,0.18
2008-07-30,0.18,0.18,0.18,0.18,000,0.18
2008-07-29,0.18,0.18,0.18,0.18,000,0.18
2008-07-28,0.18,0.18,0.18,0.18,000,0.18
2008-07-25,0.18,0.18,0.18,0.18,000,0.18
2008-07-24,0.18,0.18,0.18,0.18,000,0.18
2008-07-23,0.18,0.18,0.18,0.18,000,0.18
2008-07-22,0.18,0.18,0.18,0.18,000,0.18
2008-07-21,0.18,0.18,0.18,0.18,5000,0.18
2008-07-18,0.15,0.15,0.15,0.15,000,0.15
2008-07-17,0.15,0.15,0.15,0.15,21700,0.15
2008-07-16,0.15,0.15,0.15,0.15,37500,0.15
2008-07-15,0.16,0.16,0.15,0.15,43300,0.15
2008-07-14,0.185,0.185,0.185,0.185,000,0.185
2008-07-11,0.185,0.185,0.185,0.185,11500,0.185
2008-07-10,0.19,0.19,0.185,0.185,93000,0.185
2008-07-09,0.23,0.23,0.23,0.23,000,0.23
2008-07-08,0.23,0.23,0.23,0.23,000,0.23
2008-07-07,0.23,0.23,0.23,0.23,000,0.23
2008-07-04,0.23,0.23,0.23,0.23,000,0.23
2008-07-03,0.23,0.23,0.23,0.23,000,0.23
2008-07-02,0.23,0.23,0.23,0.23,000,0.23
2008-07-01,0.23,0.23,0.23,0.23,000,0.23
2008-06-30,0.19,0.23,0.18,0.23,61000,0.23
2008-06-27,0.23,0.23,0.23,0.23,20000,0.23
2008-06-26,0.27,0.27,0.23,0.23,000,0.23
2008-06-25,0.22,0.22,0.22,0.22,000,0.22
2008-06-24,0.22,0.22,0.22,0.22,000,0.22
2008-06-23,0.22,0.22,0.22,0.22,000,0.22
2008-06-20,0.27,0.27,0.22,0.22,000,0.22
2008-06-19,0.275,0.275,0.22,0.22,000,0.22
2008-06-18,0.275,0.275,0.22,0.22,000,0.22
2008-06-17,0.22,0.22,0.22,0.22,45000,0.22
2008-06-16,0.275,0.275,0.22,0.22,000,0.22
2008-06-13,0.275,0.275,0.22,0.22,000,0.22
2008-06-12,0.28,0.28,0.22,0.22,000,0.22
2008-06-11,0.22,0.22,0.22,0.22,7300,0.22
2008-06-10,0.26,0.26,0.26,0.26,000,0.26
2008-06-06,0.26,0.26,0.26,0.26,000,0.26
2008-06-05,0.26,0.26,0.26,0.26,000,0.26
2008-06-04,0.26,0.26,0.26,0.26,12600,0.26
2008-06-03,0.26,0.26,0.26,0.26,3700,0.26
2008-06-02,0.26,0.26,0.26,0.26,42000,0.26
2008-05-30,0.26,0.26,0.26,0.26,30000,0.26
2008-05-29,0.23,0.23,0.23,0.23,000,0.23
2008-05-28,0.23,0.23,0.23,0.23,000,0.23
2008-05-27,0.23,0.23,0.23,0.23,3700,0.23
2008-05-26,0.22,0.22,0.22,0.22,12500,0.22
2008-05-23,0.23,0.23,0.22,0.22,000,0.22
2008-05-22,0.23,0.23,0.22,0.22,000,0.22
2008-05-21,0.22,0.22,0.22,0.22,10000,0.22
2008-05-20,0.23,0.23,0.23,0.23,71200,0.23
2008-05-19,0.225,0.23,0.225,0.23,28700,0.23
2008-05-16,0.22,0.22,0.22,0.22,20500,0.22
2008-05-15,0.225,0.225,0.21,0.21,000,0.21
2008-05-14,0.225,0.225,0.21,0.21,000,0.21
2008-05-13,0.21,0.21,0.20,0.21,102000,0.21
2008-05-12,0.225,0.225,0.21,0.21,000,0.21
2008-05-09,0.225,0.225,0.21,0.21,000,0.21
2008-05-08,0.21,0.21,0.21,0.21,15000,0.21
2008-05-07,0.225,0.225,0.21,0.21,000,0.21
2008-05-06,0.225,0.225,0.21,0.21,000,0.21
2008-05-05,0.21,0.21,0.21,0.21,5800,0.21
2008-05-02,0.225,0.225,0.21,0.21,25100,0.21
2008-05-01,0.225,0.225,0.225,0.225,3500,0.225
2008-04-30,0.22,0.22,0.22,0.22,22400,0.22
2008-04-29,0.21,0.21,0.21,0.21,197600,0.21
2008-04-28,0.21,0.21,0.21,0.21,000,0.21
2008-04-24,0.21,0.21,0.21,0.21,110000,0.21
2008-04-23,0.22,0.22,0.22,0.22,000,0.22
2008-04-22,0.22,0.22,0.22,0.22,000,0.22
2008-04-21,0.22,0.22,0.22,0.22,000,0.22
2008-04-18,0.20,0.22,0.20,0.22,155000,0.22
2008-04-17,0.20,0.20,0.20,0.20,000,0.20
2008-04-16,0.20,0.20,0.20,0.20,000,0.20
2008-04-15,0.20,0.20,0.20,0.20,000,0.20
2008-04-14,0.20,0.20,0.20,0.20,000,0.20
2008-04-11,0.20,0.20,0.20,0.20,000,0.20
2008-04-10,0.20,0.20,0.20,0.20,000,0.20
2008-04-09,0.20,0.20,0.20,0.20,000,0.20
2008-04-08,0.20,0.20,0.20,0.20,000,0.20
2008-04-07,0.20,0.20,0.20,0.20,25000,0.20
2008-04-04,0.20,0.20,0.20,0.20,000,0.20
2008-04-03,0.20,0.20,0.20,0.20,000,0.20
2008-04-02,0.20,0.20,0.20,0.20,20000,0.20
2008-04-01,0.20,0.20,0.20,0.20,000,0.20
2008-03-31,0.20,0.20,0.20,0.20,75000,0.20
2008-03-28,0.20,0.20,0.19,0.19,000,0.19
2008-03-27,0.19,0.19,0.19,0.19,25000,0.19
2008-03-26,0.20,0.20,0.20,0.20,65600,0.20
2008-03-25,0.20,0.20,0.18,0.18,000,0.18
2008-03-20,0.20,0.20,0.18,0.18,000,0.18
2008-03-19,0.20,0.20,0.18,0.18,000,0.18
2008-03-18,0.18,0.18,0.18,0.18,12500,0.18
2008-03-17,0.21,0.21,0.21,0.21,000,0.21
2008-03-14,0.21,0.21,0.21,0.21,000,0.21
2008-03-13,0.21,0.21,0.21,0.21,000,0.21
2008-03-12,0.21,0.21,0.21,0.21,000,0.21
2008-03-11,0.21,0.21,0.21,0.21,000,0.21
2008-03-10,0.21,0.21,0.21,0.21,000,0.21
2008-03-07,0.21,0.21,0.21,0.21,6100,0.21
2008-03-06,0.24,0.24,0.21,0.21,000,0.21
2008-03-05,0.24,0.24,0.21,0.21,000,0.21
2008-03-04,0.24,0.24,0.21,0.21,43800,0.21
2008-03-03,0.24,0.24,0.24,0.24,170000,0.24
2008-02-29,0.26,0.26,0.26,0.26,2000,0.26
2008-02-28,0.25,0.25,0.25,0.25,000,0.25
2008-02-27,0.25,0.25,0.25,0.25,10000,0.25
2008-02-26,0.23,0.23,0.23,0.23,10100,0.23
2008-02-25,0.22,0.22,0.22,0.22,47000,0.22
2008-02-22,0.23,0.23,0.23,0.23,000,0.23
2008-02-21,0.23,0.23,0.23,0.23,120000,0.23
2008-02-20,0.21,0.23,0.21,0.23,69800,0.23
2008-02-19,0.195,0.21,0.195,0.205,247500,0.205
2008-02-18,0.22,0.22,0.18,0.19,933000,0.19
2008-02-15,0.22,0.22,0.22,0.22,45000,0.22
2008-02-14,0.21,0.21,0.21,0.21,31200,0.21
2008-02-13,0.20,0.20,0.20,0.20,105200,0.20
2008-02-12,0.20,0.20,0.20,0.20,35000,0.20
2008-02-11,0.20,0.20,0.20,0.20,132800,0.20
2008-02-08,0.20,0.20,0.20,0.20,131900,0.20
2008-02-07,0.18,0.18,0.18,0.18,402700,0.18
2008-02-06,0.16,0.18,0.16,0.18,158500,0.18
2008-02-05,0.16,0.16,0.16,0.16,20000,0.16
2008-02-04,0.18,0.18,0.18,0.18,11000,0.18
2008-02-01,0.20,0.20,0.20,0.20,000,0.20
2008-01-31,0.20,0.20,0.20,0.20,000,0.20
2008-01-30,0.18,0.20,0.18,0.20,90000,0.20
2008-01-29,0.20,0.20,0.20,0.20,000,0.20
2008-01-25,0.20,0.20,0.20,0.20,000,0.20
2008-01-24,0.20,0.20,0.20,0.20,000,0.20
2008-01-23,0.20,0.20,0.20,0.20,000,0.20
2008-01-22,0.20,0.20,0.20,0.20,30000,0.20
2008-01-21,0.21,0.21,0.20,0.20,96800,0.20
2008-01-18,0.21,0.21,0.21,0.21,16500,0.21
2008-01-17,0.21,0.21,0.21,0.21,12500,0.21
2008-01-16,0.21,0.21,0.21,0.21,26300,0.21
2008-01-15,0.24,0.24,0.21,0.21,000,0.21
2008-01-14,0.25,0.25,0.21,0.21,000,0.21
2008-01-11,0.25,0.25,0.21,0.21,000,0.21
2008-01-10,0.25,0.25,0.21,0.21,000,0.21
2008-01-09,0.24,0.24,0.21,0.21,12500,0.21
2008-01-08,0.265,0.265,0.265,0.265,000,0.265
2008-01-07,0.265,0.265,0.265,0.265,200,0.265
2008-01-04,0.27,0.27,0.24,0.24,000,0.24
2008-01-03,0.27,0.27,0.24,0.24,000,0.24
2008-01-02,0.27,0.27,0.24,0.24,000,0.24
2007-12-31,0.27,0.27,0.24,0.24,000,0.24
2007-12-28,0.24,0.24,0.24,0.24,9900,0.24
2007-12-27,0.24,0.24,0.20,0.20,000,0.20
2007-12-24,0.24,0.24,0.20,0.20,000,0.20
2007-12-21,0.24,0.24,0.20,0.20,000,0.20
2007-12-20,0.24,0.24,0.20,0.20,000,0.20
2007-12-19,0.24,0.24,0.20,0.20,000,0.20
2007-12-18,0.205,0.205,0.20,0.20,25000,0.20
2007-12-17,0.20,0.20,0.20,0.20,20000,0.20
2007-12-14,0.24,0.24,0.20,0.20,000,0.20
2007-12-13,0.24,0.24,0.21,0.21,000,0.21
2007-12-12,0.26,0.26,0.21,0.21,000,0.21
2007-12-11,0.23,0.23,0.205,0.205,213500,0.205
2007-12-10,0.26,0.26,0.225,0.225,000,0.225
2007-12-07,0.23,0.235,0.22,0.22,78000,0.22
2007-12-06,0.24,0.24,0.23,0.23,30000,0.23
2007-12-05,0.26,0.26,0.26,0.26,000,0.26
2007-12-04,0.26,0.26,0.26,0.26,80000,0.26
2007-12-03,0.26,0.26,0.24,0.24,000,0.24
2007-11-30,0.25,0.25,0.24,0.24,72500,0.24
2007-11-29,0.24,0.26,0.24,0.26,75000,0.26
2007-11-28,0.245,0.245,0.24,0.24,000,0.24
2007-11-27,0.25,0.25,0.25,0.25,27300,0.25
2007-11-26,0.25,0.26,0.25,0.26,100000,0.26
2007-11-23,0.25,0.25,0.24,0.24,50000,0.24
2007-11-22,0.25,0.25,0.25,0.25,42000,0.25
2007-11-21,0.26,0.26,0.25,0.26,76300,0.26
2007-11-20,0.27,0.27,0.26,0.26,70000,0.26
2007-11-19,0.27,0.27,0.26,0.26,26200,0.26
2007-11-16,0.265,0.27,0.265,0.27,96700,0.27
2007-11-15,0.265,0.265,0.265,0.265,2500,0.265
2007-11-14,0.26,0.26,0.255,0.255,30000,0.255
2007-11-13,0.26,0.26,0.26,0.26,15000,0.26
2007-11-12,0.265,0.265,0.25,0.26,177100,0.26
2007-11-09,0.26,0.26,0.26,0.26,27100,0.26
2007-11-08,0.26,0.26,0.26,0.26,17000,0.26
2007-11-07,0.28,0.28,0.27,0.27,154800,0.27
2007-11-06,0.29,0.295,0.28,0.28,86300,0.28
2007-11-05,0.33,0.345,0.29,0.29,307700,0.29
2007-11-02,0.30,0.39,0.30,0.32,391500,0.32
2007-11-01,0.26,0.30,0.26,0.29,339000,0.29
2007-10-31,0.25,0.255,0.225,0.255,607000,0.255
