Date,Open,High,Low,Close,Volume,Adj Close
2017-01-10,7.29,7.29,7.29,7.29,100,7.29
2017-01-09,6.92,7.04,6.92,7.03,1482700,7.03
2017-01-06,7.16,7.16,6.88,7.04,51300,7.04
2017-01-05,6.96,6.96,6.96,6.96,000,6.96
2017-01-04,6.91,7.05,6.86,6.96,3117700,6.96
2017-01-03,7.00,7.00,7.00,7.00,200,7.00
2017-01-02,7.15,7.15,7.15,7.15,000,7.15
2016-12-30,7.26,7.26,6.90,7.15,1200,7.15
2016-12-29,6.72,6.72,6.72,6.72,000,6.72
2016-12-28,6.72,6.72,6.72,6.72,000,6.72
2016-12-27,6.72,6.72,6.72,6.72,000,6.72
2016-12-26,6.72,6.72,6.72,6.72,000,6.72
2016-12-23,6.72,6.72,6.72,6.72,000,6.72
2016-12-22,6.80,6.80,6.68,6.72,5801800,6.72
2016-12-21,6.73,6.73,6.70,6.73,101800,6.73
2016-12-20,6.72,6.75,6.70,6.73,7500,6.73
2016-12-19,7.00,7.00,6.68,6.70,38800,6.70
2016-12-16,6.80,6.80,6.65,6.70,140000,6.70
2016-12-15,7.00,7.00,6.63,6.63,2900,6.63
2016-12-14,7.01,7.01,6.97,6.97,372400,6.97
2016-12-13,7.03,7.03,7.00,7.00,1500,7.00
2016-12-12,7.41,7.41,7.41,7.41,000,7.41
2016-12-09,7.41,7.41,7.41,7.41,000,7.41
2016-12-08,6.89,7.41,6.89,7.41,22700,7.41
2016-12-07,6.85,6.90,6.82,6.82,8500,6.82
2016-12-06,6.80,6.85,6.80,6.85,400,6.85
2016-12-05,6.79,6.79,6.79,6.79,000,6.79
2016-12-02,6.79,6.79,6.79,6.79,000,6.79
2016-12-01,6.79,6.79,6.79,6.79,100,6.79
2016-11-30,6.63,6.63,6.63,6.63,000,6.63
2016-11-29,6.66,6.66,6.63,6.63,27200,6.63
2016-11-28,6.67,6.70,6.66,6.67,269300,6.67
2016-11-25,6.70,6.70,6.67,6.67,2600,6.67
2016-11-24,6.71,6.71,6.64,6.64,30800,6.64
2016-11-23,6.87,6.87,6.81,6.81,6100,6.721
2016-11-22,7.01,7.03,6.74,6.96,256400,6.869
2016-11-21,6.73,6.73,6.73,6.73,000,6.642
2016-11-18,6.73,6.73,6.73,6.73,000,6.642
2016-11-17,6.99,6.99,6.72,6.73,7700,6.642
2016-11-16,6.90,6.90,6.90,6.90,000,6.81
2016-11-15,6.90,6.90,6.90,6.90,000,6.81
2016-11-14,6.90,6.90,6.85,6.90,5200,6.81
2016-11-11,7.25,7.25,7.25,7.25,000,7.155
2016-11-10,7.25,7.25,7.25,7.25,000,7.155
2016-11-09,7.25,7.25,7.25,7.25,000,7.155
2016-11-08,7.25,7.25,7.25,7.25,000,7.155
2016-11-07,7.10,7.27,7.10,7.25,2100,7.155
2016-11-04,7.20,7.21,7.13,7.13,18000,7.037
2016-11-03,7.26,7.29,7.19,7.19,60600,7.096
2016-11-02,7.28,7.28,7.28,7.28,1300,7.185
2016-11-01,7.60,7.60,7.60,7.60,000,7.501
2016-10-31,7.60,7.60,7.60,7.60,000,7.501
2016-10-28,7.60,7.60,7.60,7.60,000,7.501
2016-10-27,7.60,7.60,7.60,7.60,100,7.501
2016-10-26,7.25,7.25,7.01,7.23,8700,7.136
2016-10-25,7.52,7.52,7.42,7.43,1700,7.333
2016-10-24,7.55,7.55,7.55,7.55,500,7.452
2016-10-21,7.58,7.58,7.58,7.58,000,7.481
2016-10-20,7.53,7.58,7.53,7.58,1400,7.481
2016-10-19,7.40,7.53,7.40,7.53,6500,7.432
2016-10-18,7.20,7.29,7.20,7.26,9400,7.165
2016-10-17,7.09,7.20,7.08,7.20,5100,7.106
2016-10-14,7.34,7.35,7.28,7.28,20800,7.185
2016-10-13,7.42,7.42,7.42,7.42,000,7.323
2016-10-12,7.39,7.42,7.39,7.42,3900,7.323
2016-10-11,7.55,7.55,7.55,7.55,000,7.452
2016-10-10,7.55,7.55,7.55,7.55,700,7.452
2016-10-07,7.52,7.52,7.52,7.52,000,7.422
2016-10-06,7.62,7.63,7.52,7.52,3000,7.422
2016-10-05,7.82,7.82,7.73,7.73,6000,7.629
2016-10-04,7.95,7.95,7.84,7.84,12300,7.738
2016-10-03,8.00,8.01,7.91,7.91,3300,7.807
2016-09-30,7.90,7.95,7.87,7.88,7200,7.777
2016-09-29,7.88,7.88,7.87,7.87,52700,7.767
2016-09-28,7.91,7.91,7.83,7.83,4100,7.728
2016-09-27,7.92,7.92,7.87,7.87,172200,7.767
2016-09-26,7.85,7.85,7.85,7.85,000,7.748
2016-09-23,7.89,7.89,7.81,7.85,14400,7.748
2016-09-22,7.85,7.85,7.85,7.85,313000,7.748
2016-09-21,8.06,8.06,8.03,8.03,000,7.925
2016-09-20,8.05,8.05,8.02,8.02,4000,7.915
2016-09-19,7.98,7.98,7.98,7.98,000,7.876
2016-09-16,8.10,8.10,7.98,7.98,2900,7.876
2016-09-15,8.08,8.08,8.03,8.08,2500,7.975
2016-09-14,7.96,8.24,7.94,8.24,17300,8.133
2016-09-13,8.25,8.25,8.14,8.20,800,8.093
2016-09-12,8.31,8.31,8.09,8.20,700,8.093
2016-09-09,8.30,8.31,8.30,8.31,7700,8.202
2016-09-08,8.11,8.11,8.11,8.11,000,8.004
2016-09-07,8.03,8.05,8.03,8.05,3800,7.945
2016-09-06,8.00,8.00,8.00,8.00,1300,7.896
2016-09-05,8.02,8.02,8.02,8.02,125300,7.915
2016-09-02,8.07,8.07,8.07,8.07,562200,7.965
2016-09-01,8.15,8.15,8.15,8.15,1200,8.044
2016-08-31,8.19,8.19,8.19,8.19,700,8.083
2016-08-30,8.32,8.32,8.32,8.32,000,8.211
2016-08-29,8.32,8.32,8.32,8.32,000,8.211
2016-08-26,8.38,8.38,8.00,8.32,3500,8.211
2016-08-25,8.40,8.44,8.40,8.41,32900,8.30
2016-08-24,8.58,8.58,8.20,8.20,39400,8.093
2016-08-23,8.25,8.28,8.25,8.28,100,8.172
2016-08-22,8.28,8.31,8.28,8.31,300,8.202
2016-08-19,8.16,8.23,8.16,8.23,290200,8.123
2016-08-18,8.05,8.05,8.05,8.05,000,7.945
2016-08-17,8.05,8.05,8.05,8.05,88700,7.945
2016-08-16,8.02,8.07,7.99,7.99,4300,7.886
2016-08-15,8.05,8.05,7.65,7.65,9000,7.55
2016-08-12,8.06,8.06,8.06,8.06,2600,7.955
2016-08-11,7.98,8.11,7.97,8.10,25400,7.994
2016-08-10,7.90,8.06,7.90,7.97,1900,7.866
2016-08-09,7.95,7.95,7.92,7.93,6000,7.827
2016-08-08,8.02,8.02,7.79,7.85,7400,7.748
2016-08-05,8.03,8.08,7.64,8.04,7000,7.935
2016-08-04,8.10,8.10,8.00,8.04,2700,7.935
2016-08-03,8.12,8.16,8.10,8.10,2700,7.994
2016-08-02,8.17,8.23,8.17,8.21,24000,8.103
2016-08-01,8.01,8.33,8.01,8.18,71800,8.073
2016-07-29,8.06,8.15,8.06,8.10,120800,7.994
2016-07-28,8.11,8.34,8.05,8.06,93500,7.955
2016-07-27,8.13,8.20,8.08,8.11,5800,8.004
2016-07-26,7.89,8.21,7.89,8.21,1700,8.103
2016-07-25,7.90,7.95,7.89,7.95,27200,7.846
2016-07-22,7.90,7.90,7.90,7.90,900,7.797
2016-07-21,7.88,7.90,7.88,7.90,12100,7.797
2016-07-20,7.89,7.90,7.84,7.90,12200,7.797
2016-07-19,7.90,7.90,7.90,7.90,24500,7.797
2016-07-18,7.70,7.70,7.69,7.69,151000,7.59
2016-07-15,7.60,7.66,7.60,7.66,100,7.56
2016-07-14,7.90,7.90,7.84,7.85,7200,7.748
2016-07-13,7.87,7.87,7.79,7.86,1600,7.757
2016-07-12,7.73,7.82,7.73,7.82,513300,7.718
2016-07-11,7.80,7.80,7.68,7.74,205700,7.639
2016-07-08,7.73,7.75,7.73,7.74,000,7.639
2016-07-07,7.68,7.685,7.655,7.68,408300,7.58
2016-07-06,7.70,7.72,7.61,7.72,683700,7.619
2016-07-05,7.73,7.73,7.73,7.73,200,7.629
2016-07-04,7.80,7.80,7.69,7.69,100,7.59
2016-07-01,7.80,7.80,7.80,7.80,6700,7.698
2016-06-30,7.74,7.74,7.60,7.72,205600,7.619
2016-06-29,7.71,7.71,7.60,7.60,2800,7.501
2016-06-28,7.76,7.76,7.60,7.65,2600,7.55
2016-06-27,7.68,7.74,7.62,7.72,1700,7.619
2016-06-24,7.73,7.73,7.60,7.63,3900,7.53
2016-06-23,7.77,7.80,7.74,7.79,26600,7.688
2016-06-22,7.87,8.02,7.63,8.02,4700,7.915
2016-06-21,7.66,7.81,7.66,7.80,100,7.698
2016-06-20,7.84,7.87,7.84,7.85,308900,7.748
2016-06-17,7.82,7.82,7.82,7.82,000,7.718
2016-06-16,7.76,7.80,7.76,7.78,600,7.679
2016-06-15,7.62,7.65,7.62,7.65,200,7.55
2016-06-14,7.74,7.74,7.67,7.67,500,7.57
2016-06-13,7.86,7.86,7.86,7.86,000,7.757
2016-06-10,7.86,7.86,7.86,7.86,000,7.757
2016-06-09,7.86,7.87,7.86,7.86,300,7.757
2016-06-08,7.81,7.84,7.70,7.77,6300,7.669
2016-06-07,7.95,7.95,7.78,7.79,232500,7.688
2016-06-06,8.30,8.30,7.87,7.87,10500,7.767
2016-06-03,7.88,7.91,7.86,7.91,700,7.807
2016-06-02,7.86,7.89,7.86,7.89,400,7.787
2016-06-01,7.70,7.70,7.58,7.58,1700,7.481
2016-05-31,7.62,7.78,7.62,7.78,4500,7.679
2016-05-30,7.51,7.66,7.51,7.65,17000,7.55
2016-05-27,7.53,7.58,7.53,7.53,1000,7.432
2016-05-26,7.53,7.68,7.50,7.52,3200,7.422
2016-05-25,7.20,7.66,7.20,7.66,100,7.393
2016-05-24,7.72,7.74,7.22,7.22,164000,6.537
2016-05-23,7.70,7.89,7.70,7.70,400,6.972
2016-05-20,7.70,7.70,7.70,7.70,200,6.972
2016-05-19,7.64,7.79,7.64,7.78,700,7.044
2016-05-18,7.59,7.59,7.59,7.59,3365900,6.872
2016-05-17,7.69,7.69,7.69,7.69,000,6.963
2016-05-16,7.70,7.70,7.69,7.69,1700,6.963
2016-05-13,7.59,7.76,7.59,7.76,1300,7.026
2016-05-12,7.82,7.82,7.82,7.82,000,7.08
2016-05-11,7.82,7.82,7.82,7.82,000,7.08
2016-05-10,7.31,7.82,7.22,7.82,19500,7.08
2016-05-09,7.40,7.56,7.40,7.56,600,6.845
2016-05-06,7.37,7.60,7.30,7.30,1200,6.61
2016-05-05,7.30,7.30,7.30,7.30,000,6.61
2016-05-04,7.30,7.31,7.29,7.30,3000,6.61
2016-05-03,7.50,7.50,7.22,7.30,30100,6.61
2016-05-02,7.15,7.62,7.15,7.62,193400,6.899
2016-04-29,7.21,7.26,7.10,7.11,1130300,6.438
2016-04-28,6.50,6.50,6.50,6.50,200,5.885
2016-04-27,6.44,6.44,6.41,6.44,1300,5.831
2016-04-26,6.42,6.42,6.37,6.42,500,5.813
2016-04-25,6.43,6.43,6.43,6.43,000,5.822
2016-04-22,6.42,6.45,6.41,6.43,1600,5.822
2016-04-21,6.44,6.44,6.44,6.44,000,5.831
2016-04-20,6.21,6.25,6.21,6.25,000,5.659
2016-04-19,6.20,6.22,6.20,6.22,2300,5.632
2016-04-18,6.18,6.18,6.18,6.18,000,5.596
2016-04-15,6.18,6.18,6.18,6.18,000,5.596
2016-04-14,6.35,6.36,6.18,6.18,2800,5.596
2016-04-13,6.30,6.36,6.30,6.36,200,5.759
2016-04-12,6.14,6.14,6.14,6.14,000,5.559
2016-04-11,6.14,6.14,6.14,6.14,000,5.559
2016-04-08,6.11,6.14,6.11,6.14,1200,5.559
2016-04-07,6.20,6.20,6.12,6.20,300,5.614
2016-04-06,6.15,6.17,6.15,6.17,500,5.587
2016-04-05,6.18,6.18,6.18,6.18,1500,5.596
2016-04-04,6.16,6.16,6.16,6.16,000,5.577
2016-04-01,6.13,6.16,6.09,6.16,28200,5.577
2016-03-31,6.08,6.14,6.08,6.14,3100,5.559
2016-03-30,6.07,6.07,6.05,6.05,100,5.478
2016-03-29,5.92,5.92,5.92,5.92,200,5.36
2016-03-28,5.82,5.82,5.82,5.82,000,5.27
2016-03-25,5.82,5.82,5.82,5.82,000,5.27
2016-03-24,5.84,5.84,5.81,5.82,1500,5.27
2016-03-23,5.85,5.85,5.78,5.78,4300,5.233
2016-03-22,5.91,5.92,5.71,5.86,29300,5.306
2016-03-21,6.07,6.07,6.07,6.07,000,5.496
2016-03-18,6.04,6.07,6.04,6.07,400,5.496
2016-03-17,6.05,6.05,6.02,6.04,1500,5.469
2016-03-16,5.82,5.82,5.82,5.82,000,5.27
2016-03-15,5.82,5.82,5.82,5.82,000,5.27
2016-03-14,5.82,5.82,5.82,5.82,100,5.27
2016-03-11,5.87,5.87,5.75,5.80,7700,5.252
2016-03-10,5.89,5.89,5.89,5.89,000,5.333
2016-03-09,5.96,5.97,5.81,5.89,1000,5.333
2016-03-08,6.02,6.02,6.00,6.00,1500,5.433
2016-03-07,5.91,5.91,5.91,5.91,000,5.351
2016-03-04,5.91,5.91,5.91,5.91,000,5.351
2016-03-03,6.07,6.07,5.91,5.91,6400,5.351
2016-03-02,5.98,6.00,5.96,5.98,200,5.414
2016-03-01,5.91,5.99,5.91,5.99,1200,5.424
2016-02-29,5.80,5.81,5.75,5.79,1100,5.242
2016-02-26,5.75,5.89,5.75,5.79,1000,5.242
2016-02-25,5.77,5.77,5.74,5.74,4100,5.197
2016-02-24,5.74,5.74,5.74,5.74,000,5.197
2016-02-23,5.78,5.79,5.72,5.72,3600,5.179
2016-02-22,5.72,5.72,5.72,5.72,000,5.179
2016-02-19,5.77,5.77,5.77,5.77,000,5.224
2016-02-18,5.76,5.77,5.75,5.77,4300,5.224
2016-02-17,6.10,6.10,6.10,6.10,000,5.523
2016-02-16,6.10,6.10,6.10,6.10,6600,5.523
2016-02-15,5.90,5.90,5.90,5.90,000,5.342
2016-02-12,5.90,5.90,5.90,5.90,000,5.342
2016-02-11,5.90,5.90,5.90,5.90,000,5.342
2016-02-10,5.90,5.90,5.90,5.90,000,5.342
2016-02-09,5.99,6.02,5.90,5.90,24600,5.342
2016-02-08,6.21,6.21,6.00,6.06,16100,5.487
2016-02-05,6.21,6.21,6.21,6.21,600,5.623
2016-02-04,6.02,6.09,5.91,6.09,8500,5.514
2016-02-03,6.18,6.18,6.18,6.18,000,5.596
2016-02-02,6.15,6.18,6.14,6.18,900,5.596
2016-02-01,6.09,6.10,6.09,6.09,88000,5.514
2016-01-29,5.90,6.10,5.90,6.10,7000,5.523
2016-01-28,5.99,6.00,5.91,5.91,2200,5.351
2016-01-27,5.90,5.90,5.90,5.90,000,5.342
2016-01-26,5.90,5.90,5.90,5.90,000,5.342
2016-01-25,5.90,5.90,5.90,5.90,000,5.342
2016-01-22,5.93,5.93,5.90,5.90,300,5.342
2016-01-21,5.95,5.95,5.95,5.95,000,5.387
2016-01-20,6.07,6.07,5.88,5.95,5100,5.387
2016-01-19,5.95,5.95,5.95,5.95,000,5.387
2016-01-18,5.95,5.95,5.95,5.95,000,5.387
2016-01-15,5.92,5.95,5.92,5.95,300,5.387
2016-01-14,5.85,5.99,5.85,5.90,12000,5.342
2016-01-13,6.00,6.05,5.97,6.05,47100,5.478
2016-01-12,6.10,6.10,5.95,6.01,3300,5.442
2016-01-11,6.00,6.04,6.00,6.00,6200,5.433
2016-01-08,5.97,5.99,5.97,5.99,2200,5.424
2016-01-07,6.01,6.01,5.96,5.98,40000,5.414
2016-01-06,6.05,6.05,6.05,6.05,8600,5.478
2016-01-05,6.10,6.11,6.07,6.07,7300,5.496
2016-01-04,6.10,6.10,6.10,6.10,1000,5.523
2016-01-01,6.16,6.16,6.16,6.16,000,5.577
2015-12-31,6.10,6.16,6.10,6.16,1600,5.577
2015-12-30,6.50,6.50,6.40,6.41,8000,5.804
2015-12-29,6.10,6.10,6.10,6.10,000,5.523
2015-12-28,6.10,6.10,6.10,6.10,000,5.523
2015-12-25,6.10,6.10,6.10,6.10,000,5.523
2015-12-24,6.20,6.20,6.08,6.10,6300,5.523
2015-12-23,6.10,6.10,5.90,6.10,202400,5.523
2015-12-22,6.14,6.14,6.05,6.08,4300,5.505
2015-12-21,6.03,6.22,6.03,6.15,45100,5.568
2015-12-18,6.10,6.23,6.10,6.12,28200,5.541
2015-12-17,5.87,6.20,5.86,5.90,23100,5.342
2015-12-16,6.19,6.21,5.90,5.90,29300,5.342
2015-12-15,6.21,6.34,6.21,6.22,355100,5.632
2015-12-14,6.24,6.24,6.24,6.24,2700,5.65
2015-12-11,6.17,6.28,6.17,6.25,132200,5.659
2015-12-10,6.17,6.17,6.17,6.17,1400,5.587
2015-12-09,6.14,6.14,6.13,6.13,2600,5.55
2015-12-08,6.17,6.21,6.14,6.15,5700,5.568
2015-12-07,6.00,6.20,6.00,6.20,4500,5.614
2015-12-04,5.87,6.35,5.86,6.15,27900,5.568
2015-12-03,6.07,6.07,5.87,5.93,7000,5.369
2015-12-02,6.12,6.18,6.04,6.07,1300,5.496
2015-12-01,6.20,6.20,6.05,6.20,800,5.614
2015-11-30,6.10,6.33,6.05,6.19,3200,5.605
2015-11-27,6.04,6.17,6.01,6.12,43700,5.541
2015-11-26,6.00,6.08,5.99,6.00,5100,5.433
2015-11-25,5.97,6.03,5.97,6.01,2300,5.442
2015-11-24,5.96,6.02,5.90,5.99,180200,5.424
2015-11-23,5.90,6.03,5.86,6.03,35600,5.46
2015-11-20,5.99,5.99,5.85,5.99,8800,5.424
2015-11-19,5.82,5.82,5.79,5.79,2700,5.242
2015-11-18,5.83,5.83,5.80,5.82,11800,5.13
2015-11-17,6.00,6.00,5.82,5.90,17200,5.131
2015-11-16,6.06,6.06,5.73,5.82,1200,5.062
2015-11-13,6.11,6.11,6.05,6.06,2500,5.271
2015-11-12,6.10,6.10,6.09,6.09,702100,5.297
2015-11-11,6.25,6.25,5.95,6.07,2447800,5.279
2015-11-10,6.17,6.21,6.00,6.19,736400,5.384
2015-11-09,6.22,6.31,6.22,6.25,2455600,5.436
2015-11-06,6.21,6.21,6.21,6.21,224200,5.401
2015-11-05,6.22,6.22,6.18,6.19,244900,5.384
2015-11-04,6.24,6.24,6.15,6.19,1700,5.384
2015-11-03,6.35,6.35,6.11,6.23,6900,5.418
2015-11-02,6.35,6.46,6.33,6.35,31900,5.523
2015-10-30,6.37,6.42,6.33,6.42,8900,5.584
2015-10-29,6.25,6.29,6.12,6.29,4300,5.471
2015-10-28,6.19,6.22,6.08,6.22,11200,5.41
2015-10-27,6.03,6.11,5.96,6.06,77900,5.271
2015-10-26,5.90,6.09,5.90,6.09,5800,5.297
2015-10-23,6.19,6.25,6.00,6.15,4100,5.349
2015-10-22,6.19,6.19,6.06,6.08,931800,5.288
2015-10-21,5.93,6.16,5.81,6.02,1013400,5.236
2015-10-20,5.99,6.19,5.90,6.14,15600,5.34
2015-10-19,5.99,6.03,5.97,5.99,4300,5.21
2015-10-16,5.80,5.99,5.80,5.99,1950200,5.21
2015-10-15,5.68,5.92,5.68,5.90,12700,5.131
2015-10-14,5.80,5.90,5.80,5.80,17700,5.044
2015-10-13,5.81,5.93,5.73,5.80,77400,5.044
2015-10-12,5.68,5.89,5.68,5.80,442800,5.044
2015-10-09,5.81,5.81,5.72,5.72,000,4.975
2015-10-08,5.58,5.70,5.58,5.70,3702700,4.957
2015-10-07,5.51,5.57,5.51,5.57,48300,4.844
2015-10-06,5.54,5.56,5.51,5.52,3800,4.801
2015-10-05,5.46,5.48,5.41,5.46,866600,4.749
2015-10-02,5.40,5.43,5.38,5.40,8300,4.697
2015-10-01,5.78,5.78,5.28,5.33,2053200,4.636
2015-09-30,6.05,6.05,6.05,6.05,000,5.262
2015-09-29,6.00,6.05,6.00,6.05,540100,5.262
2015-09-28,5.90,6.10,5.86,5.95,10100,5.175
2015-09-25,5.78,5.86,5.78,5.78,15100,5.027
2015-09-24,5.65,5.65,5.65,5.65,000,4.914
2015-09-23,5.63,5.66,5.62,5.65,63400,4.914
2015-09-22,5.39,5.39,5.39,5.39,000,4.688
2015-09-21,5.38,5.39,5.38,5.39,150100,4.688
2015-09-18,5.21,5.21,5.21,5.21,200,4.531
2015-09-17,5.36,5.36,5.33,5.33,100300,4.636
2015-09-16,5.30,5.30,5.30,5.30,101500,4.61
2015-09-15,5.29,5.29,5.03,5.03,100700,4.375
2015-09-14,5.33,5.34,5.31,5.31,180500,4.618
2015-09-11,5.49,5.49,5.49,5.49,2100,4.775
2015-09-10,5.48,5.48,5.48,5.48,000,4.766
2015-09-09,5.48,5.48,5.48,5.48,000,4.766
2015-09-08,5.48,5.48,5.48,5.48,100,4.766
2015-09-07,5.34,5.34,5.34,5.34,000,4.644
2015-09-04,5.28,5.34,5.28,5.34,206500,4.644
2015-09-03,5.20,5.26,5.20,5.24,2000,4.557
2015-09-02,5.07,5.11,5.07,5.11,100600,4.444
2015-09-01,5.12,5.13,5.12,5.13,151200,4.462
2015-08-31,5.13,5.17,5.03,5.17,68600,4.496
2015-08-28,5.17,5.32,5.17,5.32,600,4.627
2015-08-27,5.03,5.03,5.03,5.03,000,4.375
2015-08-26,5.02,5.03,5.02,5.03,110300,4.375
2015-08-25,5.15,5.15,5.07,5.12,293800,4.453
2015-08-24,5.17,5.24,5.14,5.14,68800,4.47
2015-08-21,5.18,5.18,5.18,5.18,127300,4.505
2015-08-20,5.18,5.18,5.18,5.18,1300,4.505
2015-08-19,5.17,5.18,5.17,5.17,103000,4.496
2015-08-18,5.05,5.17,5.05,5.17,440400,4.496
2015-08-17,5.15,5.15,5.01,5.11,7100,4.444
2015-08-14,5.28,5.28,5.28,5.28,000,4.592
2015-08-13,5.28,5.28,5.28,5.28,000,4.592
2015-08-12,5.28,5.28,5.28,5.28,000,4.592
2015-08-11,5.25,5.28,5.25,5.28,3400,4.592
2015-08-10,5.25,5.25,5.25,5.25,1000,4.566
2015-08-07,5.23,5.23,5.23,5.23,1112400,4.549
2015-08-06,5.10,5.10,5.10,5.10,63100,4.436
2015-08-05,5.13,5.13,5.13,5.13,700,4.462
2015-08-04,5.24,5.24,5.24,5.24,100,4.557
2015-08-03,5.24,5.24,5.24,5.24,000,4.557
2015-07-31,5.24,5.24,5.24,5.24,000,4.557
2015-07-30,5.24,5.24,5.24,5.24,000,4.557
2015-07-29,5.24,5.24,5.24,5.24,000,4.557
2015-07-28,5.24,5.24,5.24,5.24,1500,4.557
2015-07-27,5.16,5.16,5.16,5.16,200,4.488
2015-07-24,5.20,5.20,5.20,5.20,000,4.523
2015-07-23,5.20,5.20,5.20,5.20,200,4.523
2015-07-22,5.10,5.10,5.10,5.10,5200,4.436
2015-07-21,5.08,5.08,5.07,5.07,11600,4.41
2015-07-20,5.02,5.02,5.02,5.02,000,4.366
2015-07-17,5.02,5.02,5.01,5.02,19100,4.366
2015-07-16,5.18,5.18,5.15,5.15,1000,4.479
2015-07-15,5.25,5.25,5.21,5.21,4500,4.531
2015-07-14,5.32,5.32,5.32,5.32,000,4.627
2015-07-13,5.32,5.32,5.32,5.32,000,4.627
2015-07-10,5.33,5.33,5.32,5.32,121800,4.627
2015-07-09,5.31,5.31,5.29,5.30,5500,4.61
2015-07-08,5.32,5.32,5.32,5.32,50800,4.627
2015-07-07,5.26,5.26,5.26,5.26,2000,4.575
2015-07-06,5.20,5.20,5.20,5.20,000,4.523
2015-07-03,5.15,5.23,5.15,5.20,19600,4.523
2015-07-02,5.15,5.15,5.15,5.15,000,4.479
2015-07-01,5.10,5.20,5.10,5.15,83200,4.479
2015-06-30,5.20,5.21,5.18,5.19,25400,4.514
2015-06-29,5.24,5.24,5.24,5.24,400,4.557
2015-06-26,5.23,5.30,5.19,5.26,44900,4.575
2015-06-25,5.22,5.24,5.22,5.23,83300,4.549
2015-06-24,5.21,5.21,5.21,5.21,000,4.531
2015-06-23,5.20,5.22,5.20,5.21,3200,4.531
2015-06-22,5.20,5.25,5.20,5.25,8100,4.566
2015-06-19,5.25,5.45,5.20,5.20,138000,4.523
2015-06-18,5.60,5.60,5.51,5.51,6300,4.792
2015-06-17,5.43,5.43,5.43,5.43,000,4.723
2015-06-16,5.43,5.43,5.43,5.43,000,4.723
2015-06-15,5.50,5.50,5.43,5.43,4700,4.723
2015-06-12,5.76,5.76,5.76,5.76,200,5.01
2015-06-11,5.64,5.64,5.45,5.53,13200,4.81
2015-06-10,5.78,5.78,5.58,5.58,311700,4.853
2015-06-09,5.53,5.53,5.49,5.49,200200,4.775
2015-06-08,5.53,5.53,5.53,5.53,000,4.81
2015-06-05,5.56,5.56,5.53,5.53,1038400,4.81
2015-06-04,5.58,5.58,5.58,5.58,142100,4.853
2015-06-03,5.60,5.60,5.53,5.57,565100,4.844
2015-06-02,5.56,5.84,5.56,5.84,384500,5.079
2015-06-01,4.73,4.73,4.73,4.73,000,4.114
2015-05-29,4.73,4.73,4.73,4.73,000,4.114
2015-05-28,4.72,4.73,4.72,4.73,2000,4.114
2015-05-27,4.70,4.72,4.70,4.72,800,4.105
2015-05-26,4.70,4.70,4.70,4.70,700,4.088
2015-05-25,4.72,4.72,4.69,4.71,1400,4.096
2015-05-22,4.70,4.70,4.69,4.69,1500,4.079
2015-05-21,4.70,4.70,4.70,4.70,000,4.088
2015-05-20,4.70,4.70,4.61,4.70,309500,4.088
2015-05-19,4.74,4.74,4.73,4.74,261300,3.988
2015-05-18,4.73,4.73,4.73,4.73,000,3.98
2015-05-15,4.73,4.73,4.73,4.73,3900,3.98
2015-05-14,4.69,4.69,4.67,4.67,246100,3.93
2015-05-13,4.73,4.73,4.73,4.73,26400,3.98
2015-05-12,4.61,4.70,4.61,4.70,73200,3.955
2015-05-11,4.70,4.70,4.70,4.70,600,3.955
2015-05-08,4.69,4.69,4.69,4.69,000,3.946
2015-05-07,4.69,4.71,4.68,4.69,300100,3.946
2015-05-06,4.70,4.74,4.68,4.74,939900,3.988
2015-05-05,4.74,4.74,4.74,4.74,20000,3.988
2015-05-04,4.77,4.77,4.77,4.77,000,4.014
2015-05-01,4.62,4.81,4.62,4.77,4300,4.014
2015-04-30,4.57,4.57,4.54,4.56,122900,3.837
2015-04-29,4.82,4.82,4.82,4.82,000,4.056
2015-04-28,4.84,4.84,4.82,4.82,2700,4.056
2015-04-27,4.77,4.77,4.77,4.77,000,4.014
2015-04-24,4.76,4.77,4.76,4.77,17800,4.014
2015-04-23,4.82,4.82,4.82,4.82,219700,4.056
2015-04-22,4.95,4.95,4.95,4.95,000,4.165
2015-04-21,4.90,4.95,4.87,4.95,15800,4.165
2015-04-20,5.02,5.02,5.02,5.02,100,4.224
2015-04-17,5.10,5.10,5.10,5.10,000,4.291
2015-04-16,5.22,5.22,5.15,5.15,29500,4.333
2015-04-15,5.23,5.29,5.21,5.21,9200,4.384
2015-04-14,5.06,5.12,5.06,5.12,700,4.308
2015-04-13,5.03,5.04,5.03,5.03,10900,4.233
2015-04-10,4.93,4.93,4.93,4.93,000,4.148
2015-04-09,5.02,5.02,4.90,4.93,9700,4.148
2015-04-08,5.05,5.08,5.00,5.08,18600,4.275
2015-04-07,5.00,5.00,5.00,5.00,000,4.207
2015-04-06,5.00,5.00,5.00,5.00,000,4.207
2015-04-03,5.00,5.00,5.00,5.00,000,4.207
2015-04-02,5.00,5.00,5.00,5.00,194300,4.207
2015-04-01,5.02,5.05,5.00,5.00,11000,4.207
2015-03-31,5.01,5.03,4.97,5.02,34700,4.224
2015-03-30,4.90,4.90,4.90,4.90,000,4.123
2015-03-27,4.90,4.90,4.90,4.90,000,4.123
2015-03-26,4.90,4.90,4.90,4.90,000,4.123
2015-03-25,4.90,4.90,4.90,4.90,000,4.123
2015-03-24,4.90,4.90,4.90,4.90,500,4.123
2015-03-23,4.83,4.85,4.83,4.85,7000,4.081
2015-03-20,4.66,4.66,4.66,4.66,000,3.921
2015-03-19,4.82,4.82,4.63,4.66,12600,3.921
2015-03-18,4.70,4.70,4.70,4.70,000,3.955
2015-03-17,4.70,4.70,4.70,4.70,000,3.955
2015-03-16,4.70,4.70,4.70,4.70,1100,3.955
2015-03-13,4.70,4.70,4.70,4.70,000,3.955
2015-03-12,4.60,4.70,4.60,4.70,246800,3.955
2015-03-11,4.60,4.60,4.42,4.60,344000,3.871
2015-03-10,4.51,4.51,4.51,4.51,000,3.795
2015-03-09,4.51,4.51,4.51,4.51,000,3.795
2015-03-06,4.51,4.51,4.51,4.51,000,3.795
2015-03-05,4.51,4.51,4.51,4.51,000,3.795
2015-03-04,4.51,4.51,4.51,4.51,000,3.795
2015-03-03,4.51,4.51,4.51,4.51,000,3.795
2015-03-02,4.47,4.51,4.47,4.51,600900,3.795
2015-02-27,4.41,4.73,4.41,4.50,500,3.787
2015-02-26,4.62,4.62,4.40,4.40,2500,3.702
2015-02-25,4.62,4.62,4.62,4.62,000,3.888
2015-02-24,4.37,4.62,4.28,4.62,8700,3.888
2015-02-23,4.40,4.40,4.36,4.37,600,3.677
2015-02-20,4.40,4.54,4.40,4.54,3000,3.82
2015-02-19,4.49,4.49,4.49,4.49,200,3.778
2015-02-18,4.44,4.50,4.44,4.50,4500,3.787
2015-02-17,4.50,4.50,4.49,4.49,200,3.778
2015-02-16,4.61,4.61,4.47,4.49,3200,3.778
2015-02-13,4.70,4.70,4.70,4.70,000,3.955
2015-02-12,4.70,4.70,4.70,4.70,000,3.955
2015-02-11,4.70,4.70,4.70,4.70,000,3.955
2015-02-10,4.70,4.70,4.70,4.70,000,3.955
2015-02-09,4.70,4.70,4.70,4.70,000,3.955
2015-02-06,4.70,4.70,4.70,4.70,000,3.955
2015-02-05,4.68,4.68,4.56,4.62,54300,3.888
2015-02-04,4.64,4.80,4.59,4.80,49600,4.039
2015-02-03,4.70,4.80,4.67,4.70,6300,3.955
2015-02-02,4.70,4.75,4.66,4.72,157900,3.972
2015-01-30,4.60,4.80,4.60,4.75,46400,3.997
2015-01-29,4.60,4.61,4.56,4.59,102400,3.862
2015-01-28,4.90,4.90,4.57,4.57,33700,3.845
2015-01-27,4.59,4.72,4.59,4.72,1000,3.972
2015-01-26,4.60,4.60,4.60,4.60,000,3.871
2015-01-23,4.60,4.60,4.60,4.60,68100,3.871
2015-01-22,4.45,4.45,4.45,4.45,000,3.744
2015-01-21,4.49,4.49,4.45,4.45,132000,3.744
2015-01-20,4.50,4.50,4.45,4.45,402000,3.744
2015-01-19,4.45,4.45,4.45,4.45,000,3.744
2015-01-16,4.45,4.45,4.45,4.45,000,3.744
2015-01-15,4.45,4.45,4.45,4.45,000,3.744
2015-01-14,4.45,4.45,4.45,4.45,000,3.744
2015-01-13,4.45,4.45,4.45,4.45,6000,3.744
2015-01-12,4.39,4.39,4.39,4.39,000,3.694
2015-01-09,4.39,4.39,4.39,4.39,000,3.694
2015-01-08,4.39,4.39,4.39,4.39,000,3.694
2015-01-07,4.39,4.39,4.39,4.39,000,3.694
2015-01-06,4.40,4.40,4.37,4.39,700,3.694
2015-01-05,4.50,4.50,4.40,4.40,30800,3.702
2015-01-02,4.50,4.50,4.50,4.50,000,3.787
2015-01-01,4.50,4.50,4.50,4.50,000,3.787
2014-12-31,4.50,4.50,4.50,4.50,200,3.787
2014-12-30,4.25,4.25,4.25,4.25,000,3.576
2014-12-29,4.60,4.60,4.25,4.25,1200,3.576
2014-12-26,4.50,4.50,4.50,4.50,000,3.787
2014-12-25,4.50,4.50,4.50,4.50,000,3.787
2014-12-24,4.50,4.50,4.50,4.50,700,3.787
2014-12-23,4.46,4.46,4.46,4.46,000,3.753
2014-12-22,4.28,4.46,4.28,4.46,154200,3.753
2014-12-19,4.24,4.24,4.24,4.24,000,3.568
2014-12-18,4.25,4.25,4.24,4.24,10300,3.568
2014-12-17,4.20,4.20,4.20,4.20,2000,3.534
2014-12-16,4.15,4.15,4.15,4.15,000,3.492
2014-12-15,4.15,4.15,4.10,4.15,1009100,3.492
2014-12-12,4.10,4.15,4.10,4.15,1005500,3.492
2014-12-11,4.00,4.00,4.00,4.00,000,3.366
2014-12-10,4.00,4.00,4.00,4.00,116100,3.366
2014-12-09,3.98,3.98,3.98,3.98,000,3.349
2014-12-08,3.98,3.98,3.98,3.98,000,3.349
2014-12-05,3.98,3.98,3.98,3.98,1215500,3.349
2014-12-04,3.90,3.90,3.90,3.90,000,3.282
2014-12-03,3.90,3.90,3.90,3.90,000,3.282
2014-12-02,3.90,3.91,3.90,3.90,13000,3.282
2014-12-01,3.80,3.80,3.80,3.80,000,3.198
2014-11-28,3.80,3.80,3.77,3.80,43300,3.198
2014-11-27,3.86,3.86,3.76,3.77,3300,3.172
2014-11-26,3.90,3.90,3.75,3.75,1500,3.155
2014-11-25,3.86,3.86,3.86,3.86,3300,3.248
2014-11-24,3.78,3.85,3.78,3.85,1500,3.24
2014-11-21,3.85,3.85,3.85,3.85,000,3.24
2014-11-20,3.90,3.90,3.85,3.85,1500,3.24
2014-11-19,3.88,3.88,3.88,3.88,000,3.265
2014-11-18,3.99,3.99,3.88,3.88,16400,3.20
2014-11-17,3.87,3.96,3.87,3.96,6000,3.266
2014-11-14,3.85,3.85,3.85,3.85,8000,3.175
2014-11-13,3.84,3.84,3.84,3.84,000,3.167
2014-11-12,3.84,3.84,3.84,3.84,400,3.167
2014-11-11,3.75,3.75,3.75,3.75,000,3.093
2014-11-10,3.75,3.75,3.75,3.75,000,3.093
2014-11-07,3.75,3.75,3.75,3.75,000,3.093
2014-11-06,3.75,3.75,3.75,3.75,000,3.093
2014-11-05,3.75,3.75,3.75,3.75,000,3.093
2014-11-04,3.75,3.75,3.75,3.75,000,3.093
2014-11-03,3.75,3.75,3.75,3.75,000,3.093
2014-10-31,3.75,3.75,3.75,3.75,000,3.093
2014-10-30,3.75,3.75,3.75,3.75,000,3.093
2014-10-29,3.75,3.75,3.75,3.75,800,3.093
2014-10-28,3.72,3.75,3.71,3.75,118500,3.093
2014-10-27,3.65,3.65,3.58,3.65,4300,3.01
2014-10-24,3.58,3.61,3.58,3.61,7300,2.977
2014-10-23,3.55,3.55,3.55,3.55,000,2.928
2014-10-22,3.55,3.55,3.55,3.55,000,2.928
2014-10-21,3.55,3.55,3.55,3.55,000,2.928
2014-10-20,3.55,3.55,3.55,3.55,000,2.928
2014-10-17,3.55,3.55,3.55,3.55,869400,2.928
2014-10-16,3.55,3.55,3.55,3.55,17200,2.928
2014-10-15,3.55,3.70,3.55,3.70,1800,3.052
2014-10-14,3.57,3.57,3.57,3.57,000,2.944
2014-10-13,3.57,3.57,3.57,3.57,000,2.944
2014-10-10,3.57,3.57,3.57,3.57,000,2.944
2014-10-09,3.57,3.57,3.57,3.57,10000,2.944
2014-10-08,3.50,3.50,3.50,3.50,000,2.887
2014-10-07,3.50,3.50,3.50,3.50,000,2.887
2014-10-06,3.50,3.50,3.50,3.50,000,2.887
2014-10-03,3.45,3.45,3.45,3.45,000,2.845
2014-10-02,3.45,3.45,3.45,3.45,000,2.845
2014-10-01,3.45,3.45,3.45,3.45,000,2.845
2014-09-30,3.54,3.54,3.45,3.54,11500,2.92
2014-09-29,3.60,3.60,3.59,3.59,600,2.961
2014-09-26,3.60,3.60,3.60,3.60,2800,2.969
2014-09-25,3.60,3.60,3.60,3.60,000,2.969
2014-09-24,3.64,3.64,3.64,3.64,000,3.002
2014-09-23,3.62,3.62,3.62,3.62,000,2.986
2014-09-22,3.62,3.62,3.62,3.62,100000,2.986
2014-09-19,3.60,3.61,3.60,3.61,29200,2.977
2014-09-18,3.60,3.60,3.46,3.60,6100,2.969
2014-09-17,3.65,3.65,3.65,3.65,000,3.01
2014-09-16,3.42,3.42,3.42,3.42,000,2.821
2014-09-15,3.33,3.33,3.33,3.33,000,2.746
2014-09-12,3.65,3.65,3.50,3.50,400,2.887
2014-09-11,3.53,3.53,3.49,3.49,1200,2.878
2014-09-10,3.53,3.53,3.53,3.53,250000,2.911
2014-09-09,3.57,3.57,3.57,3.57,000,2.944
2014-09-08,3.55,3.59,3.55,3.57,27600,2.944
2014-09-05,3.55,3.55,3.38,3.38,2500,2.788
2014-09-04,3.61,3.69,3.61,3.69,200,3.043
2014-09-03,3.60,3.70,3.60,3.70,147700,3.052
2014-09-02,3.60,3.60,3.60,3.60,100000,2.969
2014-09-01,3.59,3.59,3.59,3.59,000,2.961
2014-08-29,3.60,3.60,3.59,3.60,700,2.969
2014-08-28,3.60,3.60,3.60,3.60,3100,2.969
2014-08-27,3.60,3.70,3.60,3.70,201600,3.052
2014-08-26,3.69,3.69,3.69,3.69,000,3.043
2014-08-25,3.575,3.575,3.575,3.575,45300,2.948
2014-08-22,3.70,3.70,3.70,3.70,500,3.052
2014-08-21,3.64,3.64,3.62,3.63,639900,2.994
2014-08-20,3.65,3.65,3.63,3.63,4000,2.994
2014-08-19,3.40,3.69,3.40,3.69,280900,3.043
2014-08-18,3.49,3.49,3.49,3.49,000,2.878
2014-08-15,3.49,3.49,3.49,3.49,000,2.878
2014-08-14,3.49,3.49,3.49,3.49,000,2.878
2014-08-13,3.49,3.49,3.45,3.47,81000,2.862
2014-08-12,3.46,3.47,3.44,3.44,15000,2.837
2014-08-11,3.42,3.42,3.40,3.40,5000,2.804
2014-08-08,3.42,3.42,3.42,3.42,000,2.821
2014-08-07,3.40,3.40,3.40,3.40,000,2.804
2014-08-06,3.46,3.46,3.46,3.46,000,2.854
2014-08-05,3.46,3.46,3.40,3.46,85000,2.854
2014-08-04,3.50,3.50,3.50,3.50,140000,2.887
2014-08-01,3.46,3.50,3.46,3.50,100,2.887
2014-07-31,3.50,3.50,3.50,3.50,2300,2.887
2014-07-30,3.50,3.50,3.50,3.50,100000,2.887
2014-07-29,3.51,3.51,3.51,3.51,226300,2.895
2014-07-28,3.59,3.59,3.59,3.59,000,2.961
2014-07-25,3.58,3.58,3.58,3.58,2412300,2.953
2014-07-24,3.59,3.59,3.59,3.59,000,2.961
2014-07-23,3.52,3.59,3.52,3.59,3000,2.961
2014-07-22,3.52,3.52,3.52,3.52,10000,2.903
2014-07-21,3.60,3.60,3.60,3.60,000,2.969
2014-07-18,3.60,3.60,3.60,3.60,000,2.969
2014-07-17,3.60,3.60,3.60,3.60,000,2.969
2014-07-16,3.60,3.60,3.60,3.60,1400,2.969
2014-07-15,3.66,3.66,3.60,3.60,9600,2.969
2014-07-14,3.66,3.66,3.66,3.66,000,3.019
2014-07-11,3.66,3.66,3.66,3.66,000,3.019
2014-07-10,3.65,3.70,3.65,3.66,12100,3.019
2014-07-09,3.64,3.65,3.64,3.65,13000,3.01
2014-07-08,3.67,3.67,3.67,3.67,000,3.027
2014-07-07,3.67,3.67,3.67,3.67,000,3.027
2014-07-04,3.67,3.67,3.67,3.67,000,3.027
2014-07-03,3.67,3.67,3.67,3.67,000,3.027
2014-07-02,3.67,3.67,3.67,3.67,000,3.027
2014-07-01,3.67,3.67,3.67,3.67,3800,3.027
2014-06-30,3.68,3.68,3.68,3.68,000,3.035
2014-06-27,3.68,3.68,3.68,3.68,2486700,3.035
2014-06-26,3.60,3.60,3.60,3.60,000,2.969
2014-06-25,3.60,3.60,3.60,3.60,000,2.969
2014-06-24,3.60,3.60,3.60,3.60,000,2.969
2014-06-23,3.60,3.60,3.60,3.60,5600,2.969
2014-06-20,3.65,3.65,3.65,3.65,000,3.01
2014-06-19,3.65,3.65,3.65,3.65,000,3.01
2014-06-18,3.65,3.65,3.65,3.65,2000,3.01
2014-06-17,3.60,3.60,3.60,3.60,000,2.969
2014-06-16,3.60,3.61,3.60,3.60,6200,2.969
2014-06-13,3.60,3.60,3.60,3.60,2700,2.969
2014-06-12,3.50,3.50,3.50,3.50,000,2.887
2014-06-11,3.50,3.50,3.50,3.50,000,2.887
2014-06-10,3.50,3.50,3.50,3.50,000,2.887
2014-06-09,3.50,3.50,3.50,3.50,000,2.887
2014-06-06,3.50,3.50,3.50,3.50,000,2.887
2014-06-05,3.50,3.50,3.50,3.50,000,2.887
2014-06-04,3.50,3.50,3.50,3.50,000,2.887
2014-06-03,3.50,3.50,3.50,3.50,000,2.887
2014-06-02,3.50,3.50,3.50,3.50,31700,2.887
2014-05-30,3.50,3.50,3.50,3.50,000,2.887
2014-05-29,3.50,3.50,3.50,3.50,000,2.887
2014-05-28,3.50,3.50,3.50,3.50,000,2.887
2014-05-27,3.50,3.50,3.50,3.50,000,2.887
2014-05-26,3.50,3.50,3.50,3.50,400,2.887
2014-05-23,3.60,3.60,3.60,3.60,2800,2.969
2014-05-22,3.60,3.60,3.60,3.60,000,2.969
2014-05-21,3.60,3.60,3.60,3.60,000,2.969
2014-05-20,3.55,3.70,3.54,3.60,18500,2.851
2014-05-19,3.55,3.55,3.55,3.55,000,2.812
2014-05-16,3.55,3.55,3.55,3.55,600,2.812
2014-05-15,3.64,3.64,3.64,3.64,000,2.883
2014-05-14,3.64,3.64,3.64,3.64,1000,2.883
2014-05-13,3.70,3.70,3.70,3.70,2000,2.93
2014-05-12,3.60,3.64,3.60,3.64,500,2.883
2014-05-09,3.70,3.70,3.70,3.70,000,2.93
2014-05-08,3.70,3.70,3.70,3.70,000,2.93
2014-05-07,3.70,3.70,3.70,3.70,000,2.93
2014-05-06,3.70,3.70,3.70,3.70,000,2.93
2014-05-05,3.70,3.70,3.70,3.70,000,2.93
2014-05-02,3.70,3.70,3.70,3.70,000,2.93
2014-05-01,3.70,3.70,3.70,3.70,000,2.93
2014-04-30,3.70,3.70,3.70,3.70,300,2.93
2014-04-29,3.77,3.77,3.77,3.77,000,2.986
2014-04-28,3.77,3.77,3.77,3.77,000,2.986
2014-04-25,3.77,3.77,3.77,3.77,000,2.986
2014-04-24,3.77,3.77,3.77,3.77,000,2.986
2014-04-23,3.77,3.77,3.77,3.77,000,2.986
2014-04-22,3.77,3.77,3.77,3.77,000,2.986
2014-04-21,3.77,3.77,3.77,3.77,000,2.986
2014-04-18,3.77,3.77,3.77,3.77,000,2.986
2014-04-17,3.77,3.77,3.77,3.77,000,2.986
2014-04-16,3.60,3.77,3.60,3.77,5700,2.986
2014-04-15,3.60,3.60,3.60,3.60,000,2.851
2014-04-14,3.60,3.60,3.60,3.60,000,2.851
2014-04-11,3.60,3.60,3.60,3.60,000,2.851
2014-04-10,3.60,3.60,3.60,3.60,000,2.851
2014-04-09,3.60,3.60,3.60,3.60,16000,2.851
2014-04-08,3.55,3.55,3.55,3.55,1400,2.812
2014-04-07,3.63,3.63,3.63,3.63,000,2.875
2014-04-04,3.63,3.63,3.63,3.63,000,2.875
2014-04-03,3.63,3.63,3.63,3.63,10000,2.875
2014-04-02,3.59,3.59,3.59,3.59,000,2.843
2014-04-01,3.59,3.59,3.59,3.59,300,2.843
2014-03-31,3.62,3.62,3.62,3.62,18000,2.867
2014-03-28,3.64,3.64,3.64,3.64,000,2.883
2014-03-27,3.64,3.64,3.64,3.64,000,2.883
2014-03-26,3.64,3.64,3.64,3.64,000,2.883
2014-03-25,3.64,3.64,3.64,3.64,000,2.883
2014-03-24,3.64,3.64,3.64,3.64,16400,2.883
2014-03-21,3.78,3.78,3.78,3.78,000,2.994
2014-03-20,3.78,3.78,3.78,3.78,700,2.994
2014-03-19,3.70,3.70,3.70,3.70,000,2.93
2014-03-18,3.70,3.70,3.70,3.70,000,2.93
2014-03-17,3.69,3.70,3.69,3.70,8300,2.93
2014-03-14,3.64,3.69,3.64,3.69,12000,2.922
2014-03-13,3.68,3.68,3.68,3.68,000,2.915
2014-03-12,3.61,3.68,3.61,3.68,7000,2.915
2014-03-11,3.61,3.61,3.61,3.61,62500,2.859
2014-03-10,3.57,3.57,3.57,3.57,000,2.827
2014-03-07,3.57,3.57,3.57,3.57,000,2.827
2014-03-06,3.57,3.57,3.57,3.57,000,2.827
2014-03-05,3.57,3.57,3.57,3.57,000,2.827
2014-03-04,3.56,3.57,3.56,3.57,400,2.827
2014-03-03,3.57,3.57,3.57,3.57,38500,2.827
2014-02-28,3.55,3.68,3.55,3.68,1200,2.915
2014-02-27,3.53,3.55,3.53,3.54,500,2.804
2014-02-26,3.55,3.55,3.55,3.55,65800,2.812
2014-02-25,3.48,3.48,3.48,3.48,000,2.756
2014-02-24,3.48,3.48,3.48,3.48,000,2.756
2014-02-21,3.44,3.48,3.44,3.48,8000,2.756
2014-02-20,3.40,3.40,3.40,3.40,000,2.693
2014-02-19,3.40,3.40,3.40,3.40,000,2.693
2014-02-18,3.40,3.40,3.40,3.40,000,2.693
2014-02-17,3.45,3.45,3.40,3.40,27900,2.693
2014-02-14,3.46,3.46,3.46,3.46,000,2.74
2014-02-13,3.46,3.46,3.46,3.46,000,2.74
2014-02-12,3.46,3.46,3.46,3.46,000,2.74
2014-02-11,3.46,3.46,3.46,3.46,800,2.74
2014-02-10,3.40,3.40,3.40,3.40,14000,2.693
2014-02-07,3.40,3.40,3.40,3.40,000,2.693
2014-02-06,3.40,3.40,3.40,3.40,000,2.693
2014-02-05,3.40,3.40,3.40,3.40,000,2.693
2014-02-04,3.40,3.40,3.40,3.40,000,2.693
2014-02-03,3.35,3.40,3.35,3.40,20500,2.693
2014-01-31,3.40,3.40,3.30,3.40,38200,2.693
2014-01-30,3.58,3.58,3.58,3.58,000,2.835
2014-01-29,3.58,3.58,3.58,3.58,000,2.835
2014-01-28,3.61,3.61,3.57,3.58,000,2.835
2014-01-27,3.55,3.55,3.55,3.55,000,2.812
2014-01-24,3.55,3.55,3.55,3.55,000,2.812
2014-01-23,3.55,3.55,3.55,3.55,000,2.812
2014-01-22,3.55,3.55,3.55,3.55,000,2.812
2014-01-21,3.55,3.55,3.55,3.55,000,2.812
2014-01-20,3.55,3.55,3.55,3.55,000,2.812
2014-01-17,3.60,3.60,3.55,3.55,2000,2.812
2014-01-16,3.59,3.59,3.59,3.59,10000,2.843
2014-01-15,3.52,3.52,3.52,3.52,11700,2.788
2014-01-14,3.52,3.52,3.52,3.52,000,2.788
2014-01-13,3.52,3.52,3.52,3.52,000,2.788
2014-01-10,3.60,3.60,3.52,3.52,6700,2.788
2014-01-09,3.55,3.55,3.55,3.55,5300,2.812
2014-01-08,3.45,3.53,3.45,3.53,10300,2.796
2014-01-07,3.45,3.45,3.45,3.45,000,2.732
2014-01-06,3.45,3.45,3.45,3.45,000,2.732
2014-01-03,3.45,3.45,3.45,3.45,2600,2.732
2014-01-02,3.50,3.50,3.50,3.50,000,2.772
2014-01-01,3.50,3.50,3.50,3.50,000,2.772
2013-12-31,3.50,3.50,3.50,3.50,000,2.772
2013-12-30,3.35,3.50,3.35,3.50,600,2.772
2013-12-27,3.28,3.35,3.28,3.30,80400,2.614
2013-12-26,3.28,3.28,3.28,3.28,000,2.598
2013-12-25,3.28,3.28,3.28,3.28,000,2.598
2013-12-24,3.28,3.28,3.28,3.28,25000,2.598
2013-12-23,3.27,3.33,3.00,3.28,181800,2.598
2013-12-20,3.31,3.35,3.25,3.25,66600,2.574
2013-12-19,3.40,3.40,3.30,3.30,21300,2.614
2013-12-18,3.36,3.36,3.25,3.25,6200,2.574
2013-12-17,3.25,3.45,3.25,3.45,7000,2.732
2013-12-16,3.16,3.25,3.16,3.25,3100,2.574
2013-12-13,3.19,3.19,3.15,3.15,3100,2.495
2013-12-12,3.19,3.19,3.18,3.19,600,2.526
2013-12-11,3.16,3.19,3.12,3.15,225800,2.495
2013-12-10,3.18,3.23,3.10,3.19,46300,2.526
2013-12-09,3.24,3.24,3.22,3.23,1500,2.558
2013-12-06,3.26,3.26,3.23,3.24,100700,2.566
2013-12-05,3.26,3.29,3.24,3.25,7300,2.574
2013-12-04,3.29,3.29,3.26,3.27,42500,2.59
2013-12-03,3.35,3.35,3.28,3.29,209700,2.606
2013-12-02,3.30,3.32,3.19,3.30,35000,2.614
2013-11-29,3.37,3.37,3.28,3.31,9600,2.621
2013-11-28,3.40,3.40,3.37,3.37,157300,2.669
2013-11-27,3.40,3.40,3.39,3.40,13600,2.693
2013-11-26,3.35,3.40,3.34,3.40,16700,2.693
2013-11-25,3.37,3.37,3.33,3.35,30900,2.653
2013-11-22,3.36,3.36,3.36,3.36,900,2.661
2013-11-21,3.295,3.295,3.29,3.29,304000,2.606
2013-11-20,3.30,3.37,3.28,3.28,510300,2.598
2013-11-19,3.29,3.30,3.29,3.30,500,2.614
2013-11-18,3.40,3.40,3.28,3.31,18700,2.621
2013-11-15,3.50,3.50,3.36,3.38,22200,2.616
2013-11-14,3.37,3.37,3.37,3.37,150600,2.608
2013-11-13,3.33,3.38,3.30,3.35,50700,2.593
2013-11-12,3.33,3.33,3.31,3.32,36200,2.57
2013-11-11,3.40,3.40,3.35,3.35,8200,2.593
2013-11-08,3.37,3.40,3.36,3.40,35900,2.631
2013-11-07,3.40,3.40,3.35,3.35,29700,2.593
2013-11-06,3.35,3.35,3.35,3.35,000,2.593
2013-11-05,3.35,3.35,3.35,3.35,000,2.593
2013-11-04,3.37,3.38,3.35,3.36,165600,2.60
2013-11-01,3.37,3.37,3.35,3.35,26800,2.593
2013-10-31,3.35,3.38,3.31,3.37,2500,2.608
2013-10-30,3.28,3.28,3.28,3.28,1100400,2.539
2013-10-29,3.38,3.38,3.35,3.36,729800,2.60
2013-10-28,3.26,3.34,3.26,3.34,2600,2.585
2013-10-25,3.38,3.38,3.34,3.34,343600,2.585
2013-10-24,3.39,3.44,3.38,3.39,550900,2.624
2013-10-23,3.43,3.43,3.41,3.41,456400,2.639
2013-10-22,3.50,3.50,3.47,3.47,59300,2.686
2013-10-21,3.58,3.58,3.52,3.56,8700,2.755
2013-10-18,3.55,3.55,3.53,3.53,606100,2.732
2013-10-17,3.55,3.59,3.55,3.59,8000,2.778
2013-10-16,3.55,3.55,3.51,3.51,192200,2.717
2013-10-15,3.51,3.51,3.51,3.51,000,2.717
2013-10-14,3.56,3.56,3.55,3.55,31700,2.748
2013-10-11,3.55,3.55,3.55,3.55,000,2.748
2013-10-10,3.55,3.55,3.53,3.55,2900,2.748
2013-10-09,3.50,3.51,3.46,3.51,13500,2.717
2013-10-08,3.52,3.52,3.48,3.51,300,2.717
2013-10-07,3.54,3.54,3.51,3.51,600,2.717
2013-10-04,3.48,3.54,3.48,3.49,20800,2.701
2013-10-03,3.51,3.55,3.49,3.49,1005300,2.701
2013-10-02,3.47,3.50,3.47,3.49,1427500,2.701
2013-10-01,3.42,3.48,3.42,3.42,163300,2.647
2013-09-30,3.41,3.45,3.41,3.42,699900,2.647
2013-09-27,3.39,3.47,3.39,3.42,340200,2.647
2013-09-26,3.30,3.35,3.30,3.35,2374900,2.593
2013-09-25,3.35,3.35,3.27,3.28,80200,2.539
2013-09-24,3.35,3.39,3.32,3.35,274800,2.593
2013-09-23,3.37,3.39,3.36,3.36,927200,2.60
2013-09-20,3.37,3.40,3.37,3.37,281400,2.608
2013-09-19,3.30,3.33,3.29,3.33,905700,2.577
2013-09-18,3.275,3.28,3.27,3.27,445200,2.531
2013-09-17,3.28,3.28,3.25,3.26,73800,2.523
2013-09-16,3.27,3.28,3.27,3.27,19700,2.531
2013-09-13,3.28,3.28,3.25,3.25,21400,2.515
2013-09-12,3.24,3.30,3.24,3.28,1998500,2.539
2013-09-11,3.23,3.24,3.22,3.23,269400,2.50
2013-09-10,3.22,3.225,3.22,3.22,50400,2.492
2013-09-09,3.22,3.22,3.20,3.22,619500,2.492
2013-09-06,3.19,3.22,3.19,3.22,576200,2.492
2013-09-05,3.20,3.22,3.16,3.19,228900,2.469
2013-09-04,3.20,3.21,3.15,3.18,914600,2.461
2013-09-03,3.13,3.14,3.13,3.14,2303500,2.43
2013-09-02,3.16,3.16,3.13,3.15,46100,2.438
2013-08-30,3.14,3.17,3.14,3.15,91000,2.438
2013-08-29,3.15,3.17,3.15,3.15,1003400,2.438
2013-08-28,3.18,3.22,3.15,3.15,840100,2.438
2013-08-27,3.23,3.24,3.20,3.21,804200,2.484
2013-08-26,3.27,3.27,3.21,3.23,224900,2.50
2013-08-23,3.30,3.31,3.25,3.25,411300,2.515
2013-08-22,3.33,3.34,3.26,3.29,4745900,2.546
2013-08-21,3.30,3.35,3.29,3.31,5538500,2.562
2013-08-20,3.28,3.32,3.28,3.28,6732800,2.539
2013-08-19,3.26,3.26,3.215,3.23,11680400,2.50
