Date,Open,High,Low,Close,Volume,Adj Close
2017-05-08,5606.200195,5673.700195,5606.200195,5666.50,000,5666.50
2017-05-05,5629.899902,5632.100098,5599.700195,5606.200195,000,5606.200195
2017-05-04,5612.100098,5629.899902,5589.899902,5629.899902,000,5629.899902
2017-05-03,5595.399902,5644.00,5588.799805,5612.100098,000,5612.100098
2017-05-02,5579.399902,5595.399902,5541.799805,5595.399902,000,5595.399902
2017-05-01,5515.50,5579.399902,5503.399902,5579.399902,000,5579.399902
2017-04-28,5459.100098,5515.50,5452.200195,5515.50,000,5515.50
2017-04-27,5418.200195,5468.00,5417.200195,5459.100098,000,5459.100098
2017-04-26,5393.799805,5424.50,5391.700195,5418.200195,000,5418.200195
2017-04-24,5367.399902,5406.50,5366.50,5393.799805,000,5393.799805
2017-04-21,5390.00,5399.600098,5357.399902,5367.399902,000,5367.399902
2017-04-20,5389.100098,5393.50,5368.299805,5390.00,000,5390.00
2017-04-19,5368.600098,5403.200195,5368.600098,5389.100098,000,5389.100098
2017-04-18,5368.580078,5368.580078,5368.580078,5368.580078,000,5368.580078
2017-04-13,5378.399902,5378.399902,5345.50,5366.799805,000,5366.799805
2017-04-12,5355.600098,5387.899902,5344.399902,5378.399902,000,5378.399902
2017-04-11,5338.299805,5388.299805,5332.399902,5355.600098,000,5355.600098
2017-04-10,5319.100098,5357.50,5319.100098,5338.299805,000,5338.299805
2017-04-07,5301.100098,5343.299805,5275.100098,5319.100098,000,5319.100098
2017-04-06,5283.200195,5311.200195,5277.399902,5301.100098,000,5301.100098
2017-04-05,5267.799805,5293.100098,5258.600098,5283.200195,000,5283.200195
2017-04-04,5273.200195,5283.100098,5256.100098,5267.799805,000,5267.799805
2017-04-03,5284.50,5304.799805,5257.299805,5273.200195,000,5273.200195
2017-03-31,5320.600098,5323.00,5284.50,5284.50,000,5284.50
2017-03-30,5347.600098,5361.700195,5301.00,5320.600098,000,5320.600098
2017-03-29,5276.50,5352.399902,5276.50,5347.600098,000,5347.600098
2017-03-28,5205.700195,5278.200195,5205.299805,5276.50,000,5276.50
2017-03-27,5192.399902,5214.00,5165.899902,5205.700195,000,5205.700195
2017-03-24,5225.799805,5248.200195,5178.700195,5192.399902,000,5192.399902
2017-03-23,5177.399902,5228.899902,5176.899902,5225.799805,000,5225.799805
2017-03-22,5199.299805,5199.299805,5168.00,5177.399902,000,5177.399902
2017-03-21,5156.100098,5213.799805,5136.399902,5199.299805,000,5199.299805
2017-03-20,5154.100098,5156.399902,5131.600098,5156.100098,000,5156.100098
2017-03-17,5126.700195,5167.200195,5121.399902,5154.100098,000,5154.100098
2017-03-16,5092.299805,5126.700195,5092.299805,5126.700195,000,5126.700195
2017-03-15,5083.100098,5094.700195,5033.200195,5092.299805,000,5092.299805
2017-03-14,5091.00,5112.399902,5076.299805,5083.100098,000,5083.100098
2017-03-13,5109.700195,5112.399902,5078.799805,5091.00,000,5091.00
2017-03-10,5103.299805,5123.700195,5096.00,5109.700195,000,5109.700195
2017-03-09,5094.799805,5116.200195,5091.399902,5103.299805,000,5103.299805
2017-03-08,5092.200195,5101.200195,5062.700195,5094.799805,000,5094.799805
2017-03-07,5072.399902,5113.299805,5054.600098,5092.200195,000,5092.200195
2017-03-06,5076.299805,5082.399902,5056.399902,5072.399902,000,5072.399902
2017-03-03,5116.399902,5116.399902,5061.799805,5076.299805,000,5076.299805
2017-03-02,5098.399902,5138.600098,5095.899902,5116.399902,000,5116.399902
2017-03-01,5087.799805,5098.399902,5064.899902,5098.399902,000,5098.399902
2017-02-28,5103.299805,5127.200195,5087.799805,5087.799805,000,5087.799805
2017-02-27,5135.899902,5135.899902,5093.600098,5103.299805,000,5103.299805
2017-02-24,5168.899902,5174.399902,5124.100098,5135.899902,000,5135.899902
2017-02-23,5146.299805,5173.200195,5132.200195,5168.899902,000,5168.899902
2017-02-22,5082.200195,5146.299805,5076.700195,5146.299805,000,5146.299805
2017-02-21,5075.100098,5082.200195,5041.00,5082.200195,000,5082.200195
2017-02-20,5169.600098,5169.600098,5042.200195,5075.100098,000,5075.100098
2017-02-17,5166.399902,5195.50,5158.700195,5169.600098,000,5169.600098
2017-02-16,5176.50,5197.200195,5138.899902,5166.399902,000,5166.399902
2017-02-15,5170.600098,5202.399902,5170.600098,5176.50,000,5176.50
2017-02-14,5172.50,5194.600098,5166.100098,5170.600098,000,5170.600098
2017-02-13,5145.899902,5195.899902,5145.899902,5172.50,000,5172.50
2017-02-10,5117.899902,5145.899902,5108.899902,5145.899902,000,5145.899902
2017-02-09,5078.399902,5126.299805,5078.399902,5117.899902,000,5117.899902
2017-02-08,5053.600098,5086.50,5053.600098,5078.399902,000,5078.399902
2017-02-07,4947.700195,5053.600098,4935.100098,5053.600098,000,5053.600098
2017-02-06,4973.700195,5005.200195,4935.200195,4947.700195,000,4947.700195
2017-02-03,4945.700195,4986.799805,4938.00,4973.700195,000,4973.700195
2017-02-02,4945.50,4977.200195,4930.100098,4945.700195,000,4945.700195
2017-02-01,4932.399902,4953.799805,4926.100098,4945.50,000,4945.50
2017-01-31,4963.100098,4972.50,4931.200195,4932.399902,000,4932.399902
2017-01-30,5014.399902,5016.600098,4962.600098,4963.100098,000,4963.100098
2017-01-27,5008.50,5023.799805,4996.799805,5014.399902,000,5014.399902
2017-01-25,5000.700195,5029.299805,5000.700195,5008.50,000,5008.50
2017-01-24,4953.399902,5019.299805,4953.399902,5000.700195,000,5000.700195
2017-01-23,5158.200195,5158.200195,4923.600098,4953.399902,000,4953.399902
2017-01-20,5158.399902,5171.200195,5132.700195,5158.200195,000,5158.200195
2017-01-19,5168.399902,5199.799805,5152.799805,5158.399902,000,5158.399902
2017-01-18,5192.299805,5192.299805,5134.700195,5168.399902,000,5168.399902
2017-01-17,5241.600098,5241.600098,5189.399902,5192.299805,000,5192.299805
2017-01-16,5240.899902,5281.200195,5226.200195,5241.600098,000,5241.600098
2017-01-13,5274.50,5290.799805,5233.899902,5240.899902,000,5240.899902
2017-01-12,5252.50,5296.299805,5252.50,5274.50,000,5274.50
2017-01-11,5225.399902,5270.899902,5225.399902,5252.50,000,5252.50
2017-01-10,5275.399902,5275.399902,5217.00,5225.399902,000,5225.399902
2017-01-09,5226.600098,5299.200195,5226.600098,5275.399902,000,5275.399902
2017-01-06,5195.399902,5238.50,5195.399902,5226.600098,000,5226.600098
2017-01-05,5207.600098,5221.00,5183.600098,5195.399902,000,5195.399902
2017-01-04,5257.299805,5266.600098,5199.399902,5207.600098,000,5207.600098
2017-01-03,5188.600098,5257.299805,5188.600098,5257.299805,000,5257.299805
2016-12-30,5192.00,5203.299805,5176.799805,5176.799805,000,5176.799805
2016-12-29,5215.100098,5215.100098,5155.100098,5192.00,000,5192.00
2016-12-28,5178.700195,5217.799805,5172.200195,5215.100098,000,5215.100098
2016-12-23,5172.899902,5204.100098,5172.899902,5178.700195,000,5178.700195
2016-12-22,5154.100098,5191.00,5144.899902,5172.899902,000,5172.899902
2016-12-21,5185.50,5185.50,5125.200195,5154.100098,000,5154.100098
2016-12-20,5198.00,5232.200195,5177.00,5185.50,000,5185.50
2016-12-19,5135.799805,5223.50,5133.600098,5198.00,000,5198.00
2016-12-16,5112.799805,5152.299805,5104.600098,5135.799805,000,5135.799805
2016-12-15,5143.700195,5143.700195,5063.100098,5112.799805,000,5112.799805
2016-12-14,5104.600098,5156.00,5104.600098,5143.700195,000,5143.700195
2016-12-13,5113.799805,5134.200195,5087.899902,5104.600098,000,5104.600098
2016-12-12,5126.700195,5135.799805,5098.50,5113.700195,000,5113.700195
2016-12-09,5102.700195,5150.399902,5101.00,5126.700195,000,5126.700195
2016-12-08,5048.600098,5107.600098,5048.600098,5102.700195,000,5102.700195
2016-12-07,5019.799805,5056.00,5004.600098,5048.600098,000,5048.600098
2016-12-06,4961.50,5026.299805,4949.00,5019.799805,000,5019.799805
2016-12-05,5027.600098,5027.600098,4959.399902,4961.50,000,4961.50
2016-12-02,5068.00,5077.799805,5024.200195,5027.600098,000,5027.600098
2016-12-01,5106.700195,5118.299805,5037.700195,5068.00,000,5068.00
2016-11-30,5107.299805,5125.899902,5092.50,5106.700195,000,5106.700195
2016-11-29,5139.200195,5141.799805,5095.00,5107.299805,000,5107.299805
2016-11-28,5147.200195,5166.899902,5139.200195,5139.200195,000,5139.200195
2016-11-25,5131.600098,5164.399902,5120.399902,5147.200195,000,5147.200195
2016-11-24,5128.50,5167.100098,5112.700195,5131.600098,000,5131.600098
2016-11-23,5016.600098,5128.50,5009.600098,5128.50,000,5128.50
2016-11-22,4941.399902,5036.299805,4941.399902,5016.600098,000,5016.600098
2016-11-21,4960.00,4960.00,4928.100098,4941.399902,000,4941.399902
2016-11-18,4951.600098,4978.700195,4930.399902,4960.00,000,4960.00
2016-11-17,4931.899902,4955.899902,4889.700195,4951.600098,000,4951.600098
2016-11-16,4943.200195,4948.00,4919.299805,4931.899902,000,4931.899902
2016-11-15,4949.100098,4949.100098,4904.200195,4943.200195,000,4943.200195
2016-11-14,4914.200195,4950.700195,4905.50,4949.100098,000,4949.100098
2016-11-11,4953.200195,4955.700195,4863.399902,4914.200195,000,4914.200195
2016-11-10,4868.200195,4953.200195,4858.799805,4953.200195,000,4953.200195
2016-11-09,4927.700195,4983.299805,4766.50,4868.200195,000,4868.200195
2016-11-08,4931.600098,4971.799805,4918.100098,4927.700195,000,4927.700195
2016-11-07,4893.700195,4942.200195,4884.200195,4931.600098,000,4931.600098
2016-11-04,4934.00,4934.00,4883.00,4893.700195,000,4893.700195
2016-11-03,4947.399902,4949.399902,4916.899902,4934.00,000,4934.00
2016-11-02,5024.200195,5024.200195,4931.299805,4947.399902,000,4947.399902
2016-11-01,5031.799805,5035.600098,4972.899902,5024.200195,000,5024.200195
2016-10-31,4953.00,5033.399902,4931.700195,5031.799805,000,5031.799805
2016-10-28,5003.399902,5023.399902,4924.899902,4953.00,000,4953.00
2016-10-27,5079.00,5094.700195,5003.399902,5003.399902,000,5003.399902
2016-10-26,5202.700195,5202.700195,5056.00,5079.00,000,5079.00
2016-10-25,5160.899902,5225.50,5160.899902,5202.700195,000,5202.700195
2016-10-24,5175.00,5175.00,5097.600098,5160.899902,000,5160.899902
2016-10-21,5209.100098,5209.100098,5148.799805,5175.00,000,5175.00
2016-10-20,5156.00,5216.200195,5155.00,5209.100098,000,5209.100098
2016-10-19,5108.200195,5166.50,5108.200195,5156.00,000,5156.00
2016-10-18,5125.899902,5138.00,5106.799805,5108.200195,000,5108.200195
2016-10-17,5179.00,5186.200195,5125.899902,5125.899902,000,5125.899902
2016-10-14,5144.100098,5212.799805,5144.100098,5179.00,000,5179.00
2016-10-13,5130.399902,5151.200195,5116.399902,5144.100098,000,5144.100098
2016-10-12,5132.100098,5135.200195,5095.799805,5130.399902,000,5130.399902
2016-10-11,5149.700195,5162.799805,5126.200195,5132.100098,000,5132.100098
2016-10-10,5172.100098,5191.200195,5137.600098,5149.700195,000,5149.700195
2016-10-07,5196.200195,5210.200195,5163.200195,5172.100098,000,5172.100098
2016-10-06,5157.299805,5199.899902,5157.299805,5196.200195,000,5196.200195
2016-10-05,5234.799805,5234.799805,5145.799805,5157.299805,000,5157.299805
2016-10-04,5248.299805,5250.200195,5197.50,5234.799805,000,5234.799805
2016-10-03,5252.899902,5287.700195,5243.299805,5248.299805,000,5248.299805
2016-09-30,5283.100098,5283.100098,5207.200195,5252.899902,000,5252.899902
2016-09-29,5223.100098,5283.100098,5223.100098,5283.100098,000,5283.100098
2016-09-28,5198.00,5230.799805,5193.799805,5223.100098,000,5223.100098
2016-09-27,5218.799805,5218.799805,5156.600098,5198.00,000,5198.00
2016-09-26,5227.700195,5227.700195,5202.899902,5218.799805,000,5218.799805
2016-09-23,5154.200195,5230.200195,5144.299805,5227.700195,000,5227.700195
2016-09-22,5113.00,5169.799805,5113.00,5154.200195,000,5154.200195
2016-09-21,5047.799805,5124.799805,5047.799805,5113.00,000,5113.00
2016-09-20,5033.299805,5065.799805,5019.899902,5047.799805,000,5047.799805
2016-09-19,5044.600098,5052.299805,5012.200195,5033.299805,000,5033.299805
2016-09-16,4984.50,5044.600098,4981.200195,5044.600098,000,5044.600098
2016-09-15,5024.799805,5024.799805,4953.799805,4984.50,000,4984.50
2016-09-14,5013.899902,5030.399902,4991.100098,5024.799805,000,5024.799805
2016-09-13,4986.00,5047.100098,4985.299805,5013.899902,000,5013.899902
2016-09-12,5140.899902,5140.899902,4985.299805,4986.00,000,4986.00
2016-09-09,5212.700195,5212.700195,5139.600098,5140.899902,000,5140.899902
2016-09-08,5226.600098,5226.600098,5185.799805,5212.700195,000,5212.700195
2016-09-07,5208.600098,5226.600098,5175.600098,5226.600098,000,5226.600098
2016-09-06,5227.899902,5233.700195,5194.799805,5208.600098,000,5208.600098
2016-09-05,5238.299805,5253.799805,5215.50,5227.899902,000,5227.899902
2016-09-02,5297.100098,5310.100098,5236.200195,5238.299805,000,5238.299805
2016-09-01,5301.100098,5318.399902,5282.50,5297.100098,000,5297.100098
2016-08-31,5326.799805,5339.50,5279.299805,5301.100098,000,5301.100098
2016-08-30,5358.399902,5388.600098,5326.799805,5326.799805,000,5326.799805
2016-08-29,5406.399902,5406.399902,5333.799805,5358.399902,000,5358.399902
2016-08-26,5463.100098,5465.700195,5406.399902,5406.399902,000,5406.399902
2016-08-25,5506.299805,5506.299805,5457.399902,5463.100098,000,5463.100098
2016-08-24,5509.399902,5521.600098,5481.600098,5506.299805,000,5506.299805
2016-08-23,5500.799805,5561.00,5498.299805,5509.399902,000,5509.399902
2016-08-22,5465.899902,5533.399902,5465.899902,5500.799805,000,5500.799805
2016-08-19,5457.299805,5485.200195,5444.00,5465.899902,000,5465.899902
2016-08-18,5485.899902,5508.700195,5432.899902,5457.299805,000,5457.299805
2016-08-17,5490.899902,5499.799805,5474.899902,5485.899902,000,5485.899902
2016-08-16,5508.00,5511.799805,5485.700195,5490.899902,000,5490.899902
2016-08-15,5517.600098,5517.600098,5481.200195,5508.00,000,5508.00
2016-08-12,5486.600098,5548.899902,5486.600098,5517.600098,000,5517.600098
2016-08-11,5472.899902,5486.700195,5454.50,5486.600098,000,5486.600098
2016-08-10,5471.899902,5476.399902,5439.50,5472.899902,000,5472.899902
2016-08-09,5503.399902,5532.899902,5461.200195,5471.899902,000,5471.899902
2016-08-08,5468.200195,5513.399902,5468.200195,5503.399902,000,5503.399902
2016-08-05,5449.700195,5486.00,5449.700195,5468.200195,000,5468.200195
2016-08-04,5442.700195,5496.799805,5442.700195,5449.700195,000,5449.700195
2016-08-03,5517.100098,5517.100098,5442.700195,5442.700195,000,5442.700195
2016-08-02,5585.100098,5594.600098,5517.100098,5517.100098,000,5517.100098
2016-08-01,5574.600098,5610.100098,5566.600098,5585.100098,000,5585.100098
2016-07-29,5534.100098,5577.00,5531.00,5573.700195,000,5573.700195
2016-07-28,5518.799805,5537.600098,5514.399902,5534.100098,000,5534.100098
2016-07-27,5522.799805,5537.700195,5495.200195,5518.799805,000,5518.799805
2016-07-26,5520.100098,5529.200195,5494.899902,5522.799805,000,5522.799805
2016-07-25,5483.299805,5520.100098,5478.799805,5520.100098,000,5520.100098
2016-07-22,5483.899902,5487.399902,5461.00,5483.299805,000,5483.299805
2016-07-21,5435.700195,5530.799805,5435.700195,5483.899902,000,5483.899902
2016-07-20,5403.100098,5440.899902,5360.899902,5435.700195,000,5435.700195
2016-07-19,5402.200195,5441.399902,5389.600098,5403.100098,000,5403.100098
2016-07-18,5371.299805,5412.700195,5363.399902,5402.200195,000,5402.200195
2016-07-15,5323.600098,5383.00,5320.899902,5371.299805,000,5371.299805
2016-07-14,5305.00,5328.299805,5299.899902,5323.600098,000,5323.600098
2016-07-13,5311.299805,5329.50,5290.299805,5305.00,000,5305.00
2016-07-12,5313.799805,5353.100098,5311.299805,5311.299805,000,5311.299805
2016-07-11,5262.399902,5331.799805,5262.399902,5313.799805,000,5313.799805
2016-07-08,5258.399902,5273.799805,5255.600098,5262.399902,000,5262.399902
2016-07-07,5247.799805,5285.600098,5239.50,5258.399902,000,5258.399902
2016-07-06,5258.799805,5280.700195,5219.50,5247.799805,000,5247.799805
2016-07-05,5281.799805,5282.200195,5221.50,5258.799805,000,5258.799805
2016-07-04,5214.100098,5284.50,5179.299805,5281.799805,000,5281.799805
2016-07-01,5214.200195,5238.799805,5194.399902,5214.100098,000,5214.100098
2016-06-30,5107.50,5220.100098,5107.50,5214.200195,000,5214.200195
2016-06-29,5099.799805,5130.50,5066.600098,5107.50,000,5107.50
2016-06-28,5171.200195,5171.200195,5079.399902,5099.799805,000,5099.799805
2016-06-27,5146.00,5189.50,5125.700195,5171.200195,000,5171.200195
2016-06-24,5259.50,5312.00,5107.00,5146.00,000,5146.00
2016-06-23,5283.100098,5304.399902,5253.100098,5259.50,000,5259.50
2016-06-22,5290.00,5311.600098,5272.100098,5283.100098,000,5283.100098
2016-06-21,5230.200195,5300.100098,5224.799805,5290.00,000,5290.00
2016-06-20,5204.00,5254.200195,5203.00,5230.200195,000,5230.200195
2016-06-17,5172.600098,5204.700195,5172.600098,5204.00,000,5204.00
2016-06-16,5171.200195,5232.399902,5168.100098,5172.600098,000,5172.600098
2016-06-15,5197.00,5206.399902,5161.399902,5171.200195,000,5171.200195
2016-06-14,5268.700195,5268.700195,5197.00,5197.00,000,5197.00
2016-06-10,5278.299805,5278.299805,5239.899902,5268.700195,000,5268.700195
2016-06-09,5294.200195,5298.700195,5258.600098,5278.299805,000,5278.299805
2016-06-08,5295.00,5315.00,5281.399902,5294.200195,000,5294.200195
2016-06-07,5295.899902,5309.600098,5279.200195,5295.00,000,5295.00
2016-06-06,5288.399902,5318.50,5273.299805,5295.899902,000,5295.899902
2016-06-03,5259.200195,5313.700195,5259.200195,5288.399902,000,5288.399902
2016-06-02,5267.399902,5290.899902,5221.600098,5259.200195,000,5259.200195
2016-06-01,5292.50,5292.50,5237.899902,5267.399902,000,5267.399902
2016-05-31,5308.200195,5310.899902,5259.200195,5292.50,000,5292.50
2016-05-30,5304.600098,5340.299805,5300.600098,5308.200195,000,5308.200195
2016-05-27,5308.799805,5357.50,5304.600098,5304.600098,000,5304.600098
2016-05-26,5307.399902,5343.899902,5306.299805,5308.799805,000,5308.799805
2016-05-25,5239.50,5344.399902,5239.50,5307.399902,000,5307.399902
2016-05-24,5279.600098,5291.50,5239.50,5239.50,000,5239.50
2016-05-23,5316.899902,5337.700195,5279.600098,5279.600098,000,5279.600098
2016-05-20,5303.899902,5354.200195,5303.899902,5316.899902,000,5316.899902
2016-05-19,5336.600098,5356.299805,5296.00,5303.899902,000,5303.899902
2016-05-18,5397.600098,5397.600098,5336.100098,5336.600098,000,5336.600098
2016-05-17,5365.600098,5398.100098,5360.50,5397.600098,000,5397.600098
2016-05-16,5352.50,5388.50,5344.399902,5365.600098,000,5365.600098
2016-05-13,5373.200195,5386.899902,5345.50,5352.50,000,5352.50
2016-05-12,5420.600098,5422.00,5361.399902,5373.200195,000,5373.200195
2016-05-11,5396.899902,5471.299805,5396.899902,5420.600098,000,5420.600098
2016-05-10,5396.700195,5398.00,5355.399902,5396.899902,000,5396.899902
2016-05-09,5373.700195,5396.700195,5336.50,5396.700195,000,5396.700195
2016-05-06,5325.299805,5373.700195,5262.700195,5373.700195,000,5373.700195
2016-05-05,5279.799805,5325.299805,5274.600098,5325.299805,000,5325.299805
2016-05-04,5319.399902,5338.200195,5275.50,5279.799805,000,5279.799805
2016-05-03,5207.200195,5327.50,5207.200195,5319.399902,000,5319.399902
2016-05-02,5167.100098,5207.200195,5133.799805,5207.200195,000,5207.200195
2016-04-29,5157.200195,5170.100098,5150.600098,5167.100098,000,5167.100098
2016-04-28,5116.600098,5176.700195,5113.100098,5157.200195,000,5157.200195
2016-04-27,5106.899902,5172.00,5104.200195,5116.600098,000,5116.600098
2016-04-26,5120.299805,5154.399902,5103.799805,5106.899902,000,5106.899902
2016-04-22,5182.00,5182.00,5117.700195,5120.299805,000,5120.299805
2016-04-21,5148.100098,5201.399902,5148.100098,5182.00,000,5182.00
2016-04-20,5088.899902,5152.100098,5088.899902,5148.100098,000,5148.100098
2016-04-19,5116.899902,5149.299805,5078.600098,5088.899902,000,5088.899902
2016-04-18,5103.899902,5124.399902,5072.200195,5116.899902,000,5116.899902
2016-04-15,5063.100098,5105.299805,5055.600098,5103.899902,000,5103.899902
2016-04-14,5041.299805,5063.100098,5009.00,5063.100098,000,5063.100098
2016-04-13,5017.399902,5041.600098,5017.399902,5041.299805,000,5041.299805
2016-04-12,5026.600098,5031.100098,4991.00,5017.399902,000,5017.399902
2016-04-11,5019.00,5034.399902,4998.200195,5026.600098,000,5026.600098
2016-04-08,5045.600098,5045.600098,4994.299805,5019.00,000,5019.00
2016-04-07,5038.399902,5078.399902,5035.50,5045.600098,000,5045.600098
2016-04-06,4988.299805,5048.399902,4982.600098,5038.399902,000,5038.399902
2016-04-05,5065.100098,5067.200195,4973.399902,4988.299805,000,4988.299805
2016-04-04,5066.899902,5126.200195,5062.600098,5065.100098,000,5065.100098
2016-04-01,5091.600098,5091.600098,5043.299805,5066.899902,000,5066.899902
2016-03-31,5043.200195,5106.600098,5043.200195,5091.600098,000,5091.600098
2016-03-30,5010.299805,5070.200195,5010.299805,5043.200195,000,5043.200195
2016-03-29,5079.799805,5106.399902,5010.299805,5010.299805,000,5010.299805
2016-03-24,5046.00,5085.799805,5032.899902,5079.799805,000,5079.799805
2016-03-23,5055.50,5058.100098,5010.899902,5046.00,000,5046.00
2016-03-22,5029.600098,5065.399902,5028.700195,5055.50,000,5055.50
2016-03-21,5009.399902,5051.600098,5008.899902,5029.600098,000,5029.600098
2016-03-18,5015.899902,5048.799805,5009.100098,5009.399902,000,5009.399902
2016-03-17,5014.899902,5048.200195,5000.399902,5015.899902,000,5015.899902
2016-03-16,5028.50,5028.50,5002.50,5014.899902,000,5014.899902
2016-03-15,5090.600098,5090.600098,5025.50,5028.50,000,5028.50
2016-03-14,5073.299805,5110.700195,5069.799805,5090.600098,000,5090.600098
2016-03-11,5056.799805,5073.899902,5036.200195,5073.299805,000,5073.299805
2016-03-10,5071.600098,5090.00,5037.700195,5056.799805,000,5056.799805
2016-03-09,5003.700195,5071.600098,5002.700195,5071.600098,000,5071.600098
2016-03-08,4998.100098,5025.50,4989.700195,5003.700195,000,5003.700195
2016-03-07,5006.100098,5026.200195,4995.00,4998.100098,000,4998.100098
2016-03-04,5045.200195,5045.200195,4982.299805,5006.100098,000,5006.100098
2016-03-03,5032.50,5045.200195,5004.899902,5045.200195,000,5045.200195
2016-03-02,5047.00,5081.600098,5027.100098,5032.50,000,5032.50
2016-03-01,5007.50,5066.100098,4995.50,5047.00,000,5047.00
2016-02-29,4968.100098,5034.700195,4954.299805,5007.50,000,5007.50
2016-02-26,4946.100098,4971.100098,4909.600098,4968.100098,000,4968.100098
2016-02-25,4893.100098,4962.00,4893.100098,4946.100098,000,4946.100098
2016-02-24,4885.299805,4930.00,4864.600098,4893.100098,000,4893.100098
2016-02-23,4884.100098,4915.899902,4868.299805,4885.299805,000,4885.299805
2016-02-22,4777.899902,4896.600098,4777.899902,4884.100098,000,4884.100098
2016-02-19,4771.799805,4795.899902,4769.399902,4777.899902,000,4777.899902
2016-02-18,4685.200195,4777.50,4685.200195,4771.799805,000,4771.799805
2016-02-17,4679.50,4706.299805,4665.600098,4685.200195,000,4685.200195
2016-02-16,4595.700195,4679.50,4595.700195,4679.50,000,4679.50
2016-02-15,4572.399902,4616.399902,4566.799805,4595.700195,000,4595.700195
2016-02-12,4627.899902,4627.899902,4562.600098,4572.399902,000,4572.399902
2016-02-11,4584.600098,4634.399902,4584.600098,4627.700195,000,4627.700195
2016-02-10,4630.700195,4637.50,4553.200195,4584.600098,000,4584.600098
2016-02-09,4703.299805,4703.299805,4592.799805,4630.700195,000,4630.700195
2016-02-08,4688.100098,4713.50,4672.899902,4703.299805,000,4703.299805
2016-02-05,4686.50,4688.100098,4641.600098,4688.100098,000,4688.100098
2016-02-04,4669.200195,4690.50,4654.200195,4686.50,000,4686.50
2016-02-03,4750.00,4750.00,4665.50,4669.200195,000,4669.200195
2016-02-02,4811.200195,4811.200195,4726.600098,4750.00,000,4750.00
2016-02-01,4735.100098,4834.100098,4735.100098,4811.200195,000,4811.200195
2016-01-29,4739.600098,4751.799805,4702.299805,4735.100098,000,4735.100098
2016-01-28,4692.600098,4755.399902,4667.700195,4739.600098,000,4739.600098
2016-01-27,4730.600098,4730.600098,4687.399902,4692.600098,000,4692.600098
2016-01-25,4679.600098,4741.899902,4679.600098,4730.600098,000,4730.600098
2016-01-22,4661.899902,4694.399902,4650.399902,4679.600098,000,4679.600098
2016-01-21,4619.299805,4693.50,4619.299805,4650.399902,000,4650.399902
2016-01-20,4606.899902,4644.00,4585.200195,4619.299805,000,4619.299805
2016-01-19,4551.299805,4606.899902,4546.899902,4606.899902,000,4606.899902
2016-01-18,4543.799805,4571.799805,4502.200195,4558.50,000,4558.50
2016-01-15,4577.00,4622.700195,4557.200195,4571.799805,000,4571.799805
2016-01-14,4633.700195,4633.700195,4519.899902,4557.700195,000,4557.700195
2016-01-13,4627.100098,4647.00,4619.299805,4633.700195,000,4633.700195
2016-01-12,4611.00,4644.899902,4604.600098,4627.100098,000,4627.100098
2016-01-11,4654.00,4654.00,4538.600098,4611.00,000,4611.00
2016-01-08,4669.600098,4693.700195,4624.899902,4654.00,000,4654.00
2016-01-07,4737.899902,4747.799805,4661.799805,4669.600098,000,4669.600098
2016-01-06,4766.899902,4766.899902,4703.50,4737.899902,000,4737.899902
2016-01-05,4833.899902,4834.00,4759.600098,4766.899902,000,4766.899902
2016-01-04,4861.299805,4885.600098,4826.299805,4833.899902,000,4833.899902
2015-12-31,4859.00,4890.100098,4852.799805,4861.299805,000,4861.299805
2015-12-30,4805.299805,4860.700195,4805.299805,4859.00,000,4859.00
2015-12-29,4770.899902,4805.299805,4744.700195,4805.299805,000,4805.299805
2015-12-24,4776.399902,4798.799805,4755.899902,4770.899902,000,4770.899902
2015-12-23,4816.00,4845.799805,4753.50,4776.399902,000,4776.399902
2015-12-22,4764.200195,4831.399902,4764.200195,4816.00,000,4816.00
2015-12-21,4778.299805,4804.00,4753.00,4764.200195,000,4764.200195
2015-12-18,4764.00,4796.200195,4703.00,4778.299805,000,4778.299805
2015-12-17,4709.799805,4781.299805,4709.799805,4764.00,000,4764.00
2015-12-16,4643.299805,4729.200195,4643.299805,4709.799805,000,4709.799805
2015-12-15,4643.600098,4721.200195,4643.299805,4643.299805,000,4643.299805
2015-12-14,4718.799805,4720.600098,4640.600098,4643.600098,000,4643.600098
2015-12-11,4764.399902,4778.600098,4710.899902,4718.799805,000,4718.799805
2015-12-10,4770.600098,4773.200195,4730.299805,4764.399902,000,4764.399902
2015-12-09,4815.200195,4815.200195,4770.200195,4770.600098,000,4770.600098
2015-12-08,4782.399902,4828.299805,4767.50,4815.200195,000,4815.200195
2015-12-07,4779.700195,4846.200195,4767.50,4782.399902,000,4782.399902
2015-12-04,4849.50,4849.50,4745.200195,4779.700195,000,4779.700195
2015-12-03,4872.200195,4872.200195,4821.200195,4849.50,000,4849.50
2015-12-02,4963.00,4963.00,4852.399902,4872.200195,000,4872.200195
2015-12-01,4921.899902,4980.600098,4911.00,4963.00,000,4963.00
2015-11-30,4964.700195,4964.700195,4906.299805,4921.899902,000,4921.899902
2015-11-27,4957.50,5031.50,4946.600098,4964.700195,000,4964.700195
2015-11-26,4916.600098,4982.799805,4907.50,4957.50,000,4957.50
2015-11-25,4943.200195,4964.799805,4916.600098,4916.600098,000,4916.600098
2015-11-24,5004.600098,5004.600098,4943.200195,4943.200195,000,4943.200195
2015-11-23,4979.200195,5009.200195,4965.200195,5004.600098,000,5004.600098
2015-11-20,4961.100098,4985.50,4945.100098,4979.200195,000,4979.200195
2015-11-19,4874.399902,4961.100098,4874.399902,4961.100098,000,4961.100098
2015-11-18,4836.600098,4880.299805,4829.899902,4874.399902,000,4874.399902
2015-11-17,4733.600098,4836.600098,4733.600098,4836.600098,000,4836.600098
2015-11-16,4797.899902,4797.899902,4718.700195,4733.600098,000,4733.600098
2015-11-13,4839.00,4839.00,4748.399902,4797.899902,000,4797.899902
2015-11-12,4824.799805,4862.100098,4801.100098,4839.00,000,4839.00
2015-11-11,4792.00,4826.100098,4778.899902,4824.799805,000,4824.799805
2015-11-10,4826.100098,4826.100098,4756.799805,4792.00,000,4792.00
2015-11-09,4907.399902,4907.399902,4813.200195,4826.100098,000,4826.100098
2015-11-06,4847.100098,4907.399902,4840.100098,4907.399902,000,4907.399902
2015-11-05,4882.200195,4884.200195,4822.00,4847.100098,000,4847.100098
2015-11-04,4884.200195,4926.299805,4866.00,4882.200195,000,4882.200195
2015-11-03,4840.50,4884.200195,4840.50,4884.200195,000,4884.200195
2015-11-02,4870.700195,4902.899902,4837.200195,4840.50,000,4840.50
2015-10-30,4809.200195,4880.299805,4786.299805,4870.700195,000,4870.700195
2015-10-29,4821.200195,4852.50,4798.600098,4809.200195,000,4809.200195
2015-10-28,4803.399902,4839.399902,4792.00,4821.200195,000,4821.200195
2015-10-27,4792.00,4811.00,4781.899902,4803.399902,000,4803.399902
2015-10-26,4826.100098,4841.799805,4784.399902,4792.00,000,4792.00
2015-10-23,4751.700195,4842.50,4751.700195,4826.100098,000,4826.100098
2015-10-22,4777.399902,4777.399902,4714.700195,4751.700195,000,4751.700195
2015-10-21,4791.50,4791.50,4745.399902,4777.399902,000,4777.399902
2015-10-20,4777.00,4815.00,4771.799805,4791.50,000,4791.50
2015-10-19,4788.00,4803.299805,4764.600098,4777.00,000,4777.00
2015-10-16,4750.200195,4806.50,4750.200195,4788.00,000,4788.00
2015-10-15,4770.200195,4770.200195,4704.799805,4750.200195,000,4750.200195
2015-10-14,4758.299805,4783.600098,4741.799805,4770.200195,000,4770.200195
2015-10-13,4724.00,4769.799805,4711.600098,4758.299805,000,4758.299805
2015-10-12,4749.700195,4760.399902,4720.00,4724.00,000,4724.00
2015-10-09,4693.299805,4760.399902,4693.299805,4749.700195,000,4749.700195
2015-10-08,4738.299805,4788.399902,4692.200195,4693.299805,000,4693.299805
2015-10-07,4771.799805,4781.399902,4723.399902,4738.299805,000,4738.299805
2015-10-06,4786.299805,4817.899902,4764.100098,4771.799805,000,4771.799805
2015-10-05,4694.50,4786.299805,4694.50,4786.299805,000,4786.299805
2015-10-02,4726.899902,4745.700195,4687.600098,4694.50,000,4694.50
2015-10-01,4635.799805,4730.50,4635.799805,4726.899902,000,4726.899902
2015-09-30,4593.50,4641.50,4586.100098,4635.799805,000,4635.799805
2015-09-29,4747.100098,4747.100098,4593.50,4593.50,000,4593.50
2015-09-28,4669.799805,4747.100098,4664.600098,4747.100098,000,4747.100098
2015-09-25,4692.50,4731.299805,4663.399902,4669.799805,000,4669.799805
2015-09-24,4610.100098,4693.100098,4610.100098,4692.50,000,4692.50
2015-09-23,4635.50,4640.200195,4586.50,4610.100098,000,4610.100098
2015-09-22,4564.100098,4635.50,4564.100098,4635.50,000,4635.50
2015-09-21,4633.50,4633.50,4536.399902,4564.100098,000,4564.100098
2015-09-18,4578.399902,4662.899902,4562.50,4633.50,000,4633.50
2015-09-17,4549.899902,4625.50,4549.899902,4578.399902,000,4578.399902
2015-09-16,4493.700195,4549.899902,4480.799805,4549.899902,000,4549.899902
2015-09-15,4547.200195,4553.600098,4489.50,4493.700195,000,4493.700195
2015-09-14,4523.700195,4575.200195,4523.700195,4547.200195,000,4547.200195
2015-09-11,4527.399902,4545.700195,4511.299805,4523.700195,000,4523.700195
2015-09-10,4597.799805,4597.799805,4503.600098,4527.399902,000,4527.399902
2015-09-09,4552.899902,4621.399902,4550.700195,4597.799805,000,4597.799805
2015-09-08,4530.200195,4571.899902,4515.299805,4552.899902,000,4552.899902
2015-09-07,4520.600098,4532.899902,4493.399902,4530.200195,000,4530.200195
2015-09-04,4493.399902,4539.50,4467.399902,4520.600098,116660400,4520.600098
2015-09-03,4552.00,4592.600098,4491.200195,4491.200195,000,4491.200195
2015-09-02,4534.50,4552.00,4466.799805,4552.00,000,4552.00
2015-09-01,4570.799805,4576.00,4528.299805,4534.50,000,4534.50
2015-08-31,4577.299805,4577.299805,4525.50,4570.799805,000,4570.799805
2015-08-28,4590.700195,4616.600098,4560.00,4577.299805,000,4577.299805
2015-08-27,4548.700195,4617.600098,4548.700195,4590.700195,000,4590.700195
2015-08-26,4546.899902,4559.700195,4475.700195,4548.700195,000,4548.700195
2015-08-25,4442.700195,4576.00,4389.700195,4546.899902,000,4546.899902
2015-08-24,4591.100098,4591.100098,4428.600098,4442.700195,000,4442.700195
2015-08-21,4625.799805,4625.799805,4555.899902,4591.100098,000,4591.100098
2015-08-20,4675.700195,4675.700195,4617.00,4625.799805,000,4625.799805
2015-08-19,4662.700195,4676.799805,4638.600098,4675.700195,000,4675.700195
2015-08-18,4663.50,4728.200195,4654.899902,4662.700195,000,4662.700195
2015-08-17,4639.200195,4704.399902,4639.200195,4663.50,000,4663.50
2015-08-14,4641.00,4681.200195,4637.299805,4639.200195,000,4639.200195
2015-08-13,4659.100098,4687.00,4639.00,4641.00,000,4641.00
2015-08-12,4706.600098,4734.299805,4651.50,4659.100098,000,4659.100098
2015-08-11,4779.100098,4803.799805,4692.100098,4706.600098,000,4706.600098
2015-08-10,4730.399902,4779.100098,4724.600098,4779.100098,000,4779.100098
2015-08-07,4790.600098,4790.600098,4730.399902,4730.399902,000,4730.399902
2015-08-06,4852.00,4852.00,4781.299805,4790.600098,000,4790.600098
2015-08-05,4862.899902,4871.100098,4827.399902,4852.00,000,4852.00
2015-08-04,4822.799805,4892.600098,4821.899902,4862.899902,000,4862.899902
2015-08-03,4824.00,4847.100098,4817.100098,4822.799805,000,4822.799805
2015-07-31,4803.00,4833.700195,4803.00,4824.00,000,4824.00
2015-07-30,4799.399902,4816.200195,4788.200195,4803.00,000,4803.00
2015-07-29,4754.700195,4816.600098,4754.700195,4799.399902,000,4799.399902
2015-07-28,4786.100098,4786.100098,4731.299805,4754.700195,000,4754.700195
2015-07-27,4790.00,4790.00,4750.799805,4786.100098,000,4786.100098
2015-07-24,4804.100098,4810.100098,4757.600098,4790.00,000,4790.00
2015-07-23,4798.00,4819.799805,4785.100098,4804.100098,000,4804.100098
2015-07-22,4851.700195,4851.700195,4797.700195,4798.00,000,4798.00
2015-07-21,4852.100098,4891.600098,4851.700195,4851.700195,000,4851.700195
2015-07-20,4834.299805,4863.700195,4823.600098,4852.100098,000,4852.100098
2015-07-17,4816.799805,4837.799805,4816.799805,4834.299805,000,4834.299805
2015-07-16,4792.899902,4838.299805,4792.899902,4816.799805,000,4816.799805
2015-07-15,4744.600098,4795.00,4744.600098,4792.899902,000,4792.899902
2015-07-14,4680.799805,4763.899902,4680.799805,4744.600098,000,4744.600098
2015-07-13,4688.600098,4741.299805,4650.700195,4680.799805,000,4680.799805
2015-07-10,4692.00,4739.899902,4685.799805,4688.600098,000,4688.600098
2015-07-09,4678.200195,4705.200195,4617.200195,4692.00,000,4692.00
2015-07-08,4781.200195,4781.200195,4678.200195,4678.200195,000,4678.200195
2015-07-07,4680.00,4795.399902,4680.00,4781.200195,000,4781.200195
2015-07-06,4744.200195,4744.200195,4649.100098,4680.00,000,4680.00
2015-07-03,4781.50,4782.700195,4683.00,4744.200195,000,4744.200195
2015-07-02,4713.299805,4792.100098,4713.299805,4781.50,000,4781.50
2015-07-01,4528.600098,4714.299805,4520.399902,4713.299805,000,4713.299805
2015-06-30,4459.00,4528.600098,4439.50,4528.600098,000,4528.600098
2015-06-29,4536.299805,4536.299805,4414.100098,4459.00,000,4459.00
2015-06-26,4664.50,4664.50,4529.100098,4536.299805,000,4536.299805
2015-06-25,4741.600098,4741.600098,4664.50,4664.50,000,4664.50
2015-06-24,4765.100098,4765.600098,4734.00,4741.600098,000,4741.600098
2015-06-23,4710.899902,4775.799805,4710.899902,4765.100098,000,4765.100098
2015-06-22,4747.399902,4753.100098,4697.399902,4710.899902,000,4710.899902
2015-06-19,4667.899902,4769.600098,4667.899902,4747.399902,000,4747.399902
2015-06-18,4736.899902,4736.899902,4657.50,4667.899902,000,4667.899902
2015-06-17,4731.399902,4751.899902,4724.100098,4736.899902,000,4736.899902
2015-06-16,4767.600098,4790.50,4726.399902,4731.399902,000,4731.399902
2015-06-15,4756.399902,4773.299805,4724.100098,4767.600098,000,4767.600098
2015-06-12,4765.700195,4774.00,4745.50,4756.399902,000,4756.399902
2015-06-11,4735.700195,4771.899902,4722.799805,4765.700195,000,4765.700195
2015-06-10,4746.299805,4756.200195,4721.799805,4735.700195,000,4735.700195
2015-06-09,4750.50,4785.200195,4738.399902,4746.299805,000,4746.299805
2015-06-05,4725.200195,4771.899902,4715.50,4750.50,000,4750.50
2015-06-04,4791.799805,4806.700195,4725.200195,4725.200195,000,4725.200195
2015-06-03,4814.399902,4814.399902,4754.600098,4791.799805,000,4791.799805
2015-06-02,4911.200195,4950.50,4804.899902,4814.399902,000,4814.399902
2015-06-01,4959.00,4959.00,4867.700195,4911.200195,000,4911.200195
2015-05-29,4925.50,4991.50,4925.00,4959.00,000,4959.00
2015-05-28,4950.200195,4961.200195,4915.100098,4925.50,000,4925.50
2015-05-27,4968.200195,4972.100098,4938.299805,4950.200195,000,4950.200195
2015-05-26,4952.299805,4984.899902,4947.299805,4968.200195,000,4968.200195
2015-05-25,4884.200195,4965.200195,4884.200195,4952.299805,000,4952.299805
2015-05-22,4856.899902,4894.399902,4856.899902,4884.200195,000,4884.200195
2015-05-21,4806.100098,4865.00,4806.100098,4856.899902,000,4856.899902
2015-05-20,4753.200195,4810.600098,4741.799805,4806.100098,000,4806.100098
2015-05-19,4790.899902,4798.799805,4741.899902,4753.200195,000,4753.200195
2015-05-18,4819.600098,4853.00,4789.100098,4790.899902,000,4790.899902
2015-05-15,4770.399902,4831.100098,4770.399902,4819.600098,000,4819.600098
2015-05-14,4771.200195,4771.200195,4708.200195,4770.399902,000,4770.399902
2015-05-13,4723.700195,4772.799805,4723.700195,4771.200195,000,4771.200195
2015-05-12,4674.399902,4732.799805,4667.399902,4723.700195,000,4723.700195
2015-05-11,4668.399902,4729.799805,4668.399902,4674.399902,000,4674.399902
2015-05-08,4638.700195,4693.700195,4638.700195,4668.399902,000,4668.399902
2015-05-07,4694.600098,4694.600098,4626.799805,4638.700195,000,4638.700195
2015-05-06,4768.799805,4768.799805,4688.299805,4694.600098,000,4694.600098
2015-05-05,4764.899902,4808.200195,4752.299805,4768.799805,000,4768.799805
2015-05-04,4734.899902,4785.50,4734.899902,4764.899902,000,4764.899902
2015-05-01,4695.700195,4734.899902,4671.100098,4734.899902,000,4734.899902
2015-04-30,4680.399902,4695.700195,4629.50,4695.700195,000,4695.700195
2015-04-29,4727.200195,4742.700195,4680.399902,4680.399902,000,4680.399902
2015-04-28,4754.899902,4766.299805,4726.100098,4727.200195,000,4727.200195
2015-04-27,4743.799805,4761.200195,4738.899902,4754.899902,000,4754.899902
2015-04-24,4680.299805,4753.299805,4680.299805,4743.799805,000,4743.799805
2015-04-23,4684.600098,4688.100098,4661.600098,4680.299805,000,4680.299805
2015-04-22,4663.200195,4686.50,4649.700195,4684.600098,000,4684.600098
2015-04-21,4644.50,4675.399902,4634.399902,4663.200195,000,4663.200195
2015-04-20,4708.200195,4708.200195,4633.799805,4644.50,000,4644.50
2015-04-17,4761.00,4761.200195,4705.899902,4708.200195,000,4708.200195
2015-04-16,4764.50,4793.50,4745.200195,4761.00,000,4761.00
2015-04-15,4771.00,4772.799805,4738.299805,4764.50,000,4764.50
2015-04-14,4741.100098,4771.00,4724.100098,4771.00,000,4771.00
2015-04-13,4768.50,4782.600098,4731.299805,4741.100098,000,4741.100098
2015-04-10,4739.600098,4768.50,4739.600098,4768.50,000,4768.50
2015-04-09,4759.299805,4767.399902,4730.700195,4739.600098,000,4739.600098
2015-04-08,4726.200195,4773.899902,4726.200195,4759.299805,000,4759.299805
2015-04-07,4689.100098,4773.50,4689.100098,4726.200195,000,4726.200195
2015-04-02,4662.100098,4712.100098,4662.100098,4689.100098,000,4689.100098
2015-04-01,4667.899902,4690.600098,4658.700195,4662.100098,000,4662.100098
2015-03-31,4663.100098,4729.600098,4663.100098,4667.899902,000,4667.899902
2015-03-30,4700.00,4700.00,4630.00,4663.100098,000,4663.100098
2015-03-27,4652.299805,4700.00,4646.899902,4700.00,000,4700.00
2015-03-26,4731.399902,4731.399902,4650.399902,4652.299805,000,4652.299805
2015-03-25,4738.200195,4762.899902,4718.700195,4731.399902,000,4731.399902
2015-03-24,4729.50,4746.00,4709.899902,4738.200195,000,4738.200195
2015-03-23,4750.50,4753.299805,4710.799805,4729.50,000,4729.50
2015-03-20,4728.50,4760.200195,4725.50,4750.50,000,4750.50
2015-03-19,4664.100098,4758.799805,4664.100098,4728.50,000,4728.50
2015-03-18,4644.399902,4664.600098,4612.299805,4664.100098,000,4664.100098
2015-03-17,4631.00,4671.799805,4631.00,4644.399902,000,4644.399902
2015-03-16,4648.399902,4648.399902,4600.100098,4631.00,000,4631.00
2015-03-13,4652.200195,4665.00,4627.600098,4648.399902,000,4648.399902
2015-03-12,4588.299805,4655.00,4588.299805,4652.200195,000,4652.200195
2015-03-11,4589.200195,4599.299805,4552.299805,4588.299805,000,4588.299805
2015-03-10,4571.600098,4599.899902,4571.600098,4589.200195,000,4589.200195
2015-03-09,4648.399902,4648.399902,4561.799805,4571.600098,000,4571.600098
2015-03-06,4648.50,4668.200195,4633.100098,4648.399902,000,4648.399902
2015-03-05,4634.50,4649.700195,4622.700195,4648.50,000,4648.50
2015-03-04,4617.600098,4643.799805,4613.899902,4634.50,000,4634.50
2015-03-03,4595.899902,4643.600098,4592.50,4617.600098,000,4617.600098
2015-03-02,4609.700195,4630.399902,4584.600098,4595.899902,000,4595.899902
2015-02-27,4557.200195,4619.799805,4547.799805,4609.700195,000,4609.700195
2015-02-26,4609.799805,4615.200195,4550.399902,4557.200195,000,4557.200195
2015-02-25,4579.399902,4613.799805,4579.399902,4609.799805,000,4609.799805
2015-02-24,4597.00,4597.700195,4566.899902,4579.399902,000,4579.399902
2015-02-23,4578.600098,4599.600098,4539.799805,4597.00,000,4597.00
2015-02-20,4599.299805,4611.299805,4571.700195,4578.600098,000,4578.600098
2015-02-19,4613.299805,4639.00,4590.399902,4599.299805,000,4599.299805
2015-02-18,4453.899902,4615.100098,4453.899902,4613.299805,000,4613.299805
2015-02-17,4486.600098,4486.600098,4420.399902,4453.899902,000,4453.899902
2015-02-16,4493.100098,4509.299805,4470.399902,4486.600098,000,4486.600098
2015-02-13,4387.600098,4511.799805,4387.600098,4493.100098,000,4493.100098
2015-02-12,4431.50,4466.399902,4387.600098,4387.600098,000,4387.600098
2015-02-11,4435.899902,4500.50,4430.899902,4431.50,000,4431.50
2015-02-10,4437.899902,4450.50,4425.00,4435.899902,000,4435.899902
2015-02-09,4441.100098,4448.00,4425.299805,4437.899902,000,4437.899902
2015-02-06,4439.50,4459.600098,4422.200195,4441.100098,000,4441.100098
2015-02-05,4423.399902,4452.100098,4423.399902,4439.50,000,4439.50
2015-02-04,4379.700195,4425.200195,4379.700195,4423.399902,000,4423.399902
2015-02-03,4367.799805,4389.600098,4337.50,4379.700195,000,4379.700195
2015-02-02,4378.200195,4391.100098,4350.00,4367.799805,000,4367.799805
2015-01-30,4376.00,4409.799805,4376.00,4378.200195,000,4378.200195
2015-01-29,4377.700195,4391.399902,4353.200195,4376.00,000,4376.00
2015-01-28,4376.700195,4385.200195,4355.50,4377.700195,000,4377.700195
2015-01-27,4349.600098,4389.700195,4349.600098,4376.700195,000,4376.700195
2015-01-26,4305.700195,4349.600098,4305.700195,4349.600098,000,4349.600098
2015-01-23,4305.700195,4349.600098,4305.700195,4349.600098,000,4349.600098
2015-01-22,4322.799805,4339.600098,4292.899902,4305.700195,000,4305.700195
2015-01-21,4244.700195,4322.799805,4244.700195,4322.799805,000,4322.799805
2015-01-20,4235.799805,4245.399902,4214.100098,4244.700195,000,4244.700195
2015-01-19,4233.200195,4280.399902,4227.399902,4235.799805,000,4235.799805
2015-01-16,4279.600098,4279.600098,4211.399902,4233.200195,000,4233.200195
2015-01-15,4294.899902,4294.899902,4248.100098,4279.600098,000,4279.600098
2015-01-14,4329.00,4337.399902,4284.700195,4294.899902,000,4294.899902
2015-01-13,4333.700195,4341.700195,4292.200195,4329.00,000,4329.00
2015-01-12,4364.00,4368.50,4333.700195,4333.700195,000,4333.700195
2015-01-09,4327.899902,4374.700195,4327.899902,4364.00,000,4364.00
2015-01-08,4305.100098,4339.00,4299.00,4327.899902,000,4327.899902
2015-01-07,4348.100098,4348.100098,4285.399902,4305.100098,000,4305.100098
2015-01-06,4392.200195,4392.200195,4322.50,4348.100098,000,4348.100098
2015-01-05,4358.799805,4395.50,4358.799805,4392.200195,000,4392.200195
2015-01-02,4321.799805,4361.399902,4314.100098,4358.799805,000,4358.799805
2014-12-31,4322.799805,4348.700195,4313.700195,4321.799805,000,4321.799805
2014-12-30,4388.299805,4394.399902,4321.399902,4322.799805,000,4322.799805
2014-12-29,4340.799805,4389.899902,4316.700195,4388.299805,000,4388.299805
2014-12-24,4318.50,4353.399902,4298.100098,4340.799805,000,4340.799805
2014-12-23,4376.200195,4380.799805,4318.50,4318.50,000,4318.50
2014-12-22,4310.700195,4376.200195,4310.700195,4376.200195,000,4376.200195
2014-12-19,4171.799805,4310.700195,4171.799805,4310.700195,000,4310.700195
2014-12-18,4140.50,4236.299805,4140.50,4171.799805,000,4171.799805
2014-12-17,4129.100098,4151.100098,4116.299805,4140.50,000,4140.50
2014-12-16,4155.399902,4158.899902,4123.00,4129.100098,000,4129.100098
2014-12-15,4169.700195,4183.00,4106.100098,4155.399902,000,4155.399902
2014-12-12,4159.200195,4188.200195,4150.600098,4169.700195,000,4169.700195
2014-12-11,4182.399902,4182.399902,4127.399902,4159.200195,000,4159.200195
2014-12-10,4201.600098,4204.100098,4141.299805,4182.399902,000,4182.399902
2014-12-09,4267.50,4267.899902,4194.299805,4201.640137,129097300,4201.640137
2014-12-08,4267.50,4267.899902,4242.600098,4258.00,8644300,4258.00
2014-12-05,4179.700195,4234.200195,4179.700195,4209.680176,80019100,4209.680176
2014-12-04,4138.899902,4193.600098,4138.899902,4179.689941,71883000,4179.689941
2014-12-03,4093.899902,4142.50,4091.100098,4138.879883,98828900,4138.879883
2014-12-02,4043.100098,4106.50,4030.699951,4093.929932,101489800,4093.929932
2014-12-01,4104.899902,4119.100098,4043.060059,4043.060059,98391500,4043.060059
2014-11-28,4139.299805,4142.399902,4104.700195,4104.850098,88100800,4104.850098
2014-11-27,4136.700195,4164.399902,4134.600098,4139.339844,58029800,4139.339844
2014-11-26,4086.100098,4137.50,4086.100098,4136.689941,65631500,4136.689941
2014-11-25,4109.700195,4109.700195,4048.600098,4086.139893,154792100,4086.139893
2014-11-24,4067.600098,4113.399902,4067.600098,4109.740234,59113300,4109.740234
2014-11-21,4102.399902,4105.399902,4059.300049,4067.560059,67480600,4067.560059
2014-11-20,4123.200195,4137.100098,4102.399902,4102.430176,80781400,4102.430176
2014-11-19,4133.200195,4152.00,4123.160156,4123.160156,63216900,4123.160156
2014-11-18,4140.200195,4154.299805,4120.50,4133.200195,64506500,4133.200195
2014-11-17,4166.899902,4174.700195,4135.799805,4140.220215,62875500,4140.220215
2014-11-14,4164.00,4170.899902,4148.00,4166.910156,65213400,4166.910156
2014-11-13,4168.299805,4188.700195,4154.50,4163.97998,86297500,4163.97998
2014-11-12,4184.700195,4204.799805,4164.600098,4168.290039,75670800,4168.290039
2014-11-11,4168.100098,4194.200195,4168.100098,4184.669922,74159800,4184.669922
2014-11-10,4172.399902,4180.100098,4155.399902,4168.089844,68535500,4168.089844
2014-11-07,4160.100098,4182.50,4158.200195,4172.350098,88144200,4172.350098
2014-11-06,4172.299805,4211.799805,4152.200195,4160.049805,69797200,4160.049805
2014-11-05,4171.200195,4189.00,4155.799805,4172.279785,72888100,4172.279785
2014-11-04,4144.200195,4177.200195,4138.899902,4171.220215,55423700,4171.220215
2014-11-03,4157.50,4177.899902,4138.100098,4144.149902,66163000,4144.149902
2014-10-31,4102.399902,4164.299805,4102.399902,4157.529785,79616700,4157.529785
2014-10-30,4104.50,4127.100098,4091.600098,4102.410156,162780400,4102.410156
2014-10-29,4085.800049,4131.00,4085.800049,4104.47998,186031000,4104.47998
2014-10-28,4088.399902,4092.50,4076.50,4085.790039,77604600,4085.790039
2014-10-27,4059.699951,4107.799805,4059.699951,4088.439941,90233100,4088.439941
2014-10-24,4022.800049,4073.600098,4022.800049,4059.72998,96284000,4059.72998
2014-10-23,4037.699951,4060.600098,4014.899902,4022.820068,90042600,4022.820068
2014-10-22,3983.399902,4039.00,3983.399902,4037.719971,96465600,4037.719971
2014-10-21,3974.399902,3987.800049,3974.399902,3983.409912,93386100,3983.409912
2014-10-20,3931.899902,3990.100098,3931.899902,3974.360107,66052500,3974.360107
2014-10-17,3906.50,3950.600098,3906.50,3931.929932,92828500,3931.929932
2014-10-16,3919.800049,3919.800049,3850.899902,3906.469971,84547900,3906.469971
2014-10-15,3885.50,3925.100098,3877.100098,3919.76001,89116900,3919.76001
2014-10-14,3856.699951,3887.899902,3828.399902,3885.530029,125187000,3885.530029
2014-10-13,3908.699951,3908.699951,3842.399902,3856.72998,89684400,3856.72998
2014-10-10,3994.199951,3994.199951,3908.699951,3908.709961,99326300,3908.709961
2014-10-09,3973.899902,4027.699951,3973.899902,3994.179932,80534700,3994.179932
2014-10-08,4001.100098,4001.100098,3951.100098,3973.939941,71410900,3973.939941
2014-10-07,4015.00,4024.399902,3953.399902,4001.060059,85407300,4001.060059
2014-10-06,4023.600098,4032.300049,3999.800049,4015.01001,25143400,4015.01001
2014-10-03,4018.399902,4025.600098,3997.100098,4023.590088,51055000,4023.590088
2014-10-02,4059.600098,4059.600098,4010.399902,4018.389893,58385800,4018.389893
2014-10-01,4009.300049,4059.629883,3981.100098,4059.629883,75353400,4059.629883
2014-09-30,3999.899902,4009.600098,3983.300049,4009.290039,76113200,4009.290039
2014-09-29,4032.199951,4032.199951,3993.199951,3999.929932,51061200,3999.929932
2014-09-26,4078.100098,4078.100098,4024.899902,4032.219971,66771500,4032.219971
2014-09-25,4081.600098,4101.899902,4066.50,4078.050049,74126400,4078.050049
2014-09-24,4111.700195,4111.700195,4068.899902,4081.600098,80303000,4081.600098
2014-09-23,4075.600098,4111.709961,4066.699951,4111.709961,75700400,4111.709961
2014-09-22,4129.100098,4129.100098,4068.199951,4075.629883,65866100,4075.629883
2014-09-19,4119.200195,4137.100098,4112.600098,4129.140137,141341900,4129.140137
2014-09-18,4106.399902,4129.299805,4093.699951,4119.209961,89944900,4119.209961
2014-09-17,4128.899902,4140.100098,4104.600098,4106.439941,93133900,4106.439941
2014-09-16,4137.899902,4149.600098,4122.100098,4128.919922,82888800,4128.919922
2014-09-15,4203.399902,4203.399902,4143.899902,4145.560059,76275700,4145.560059
2014-09-12,4212.00,4212.700195,4175.399902,4203.399902,67540200,4203.399902
2014-09-11,4214.299805,4235.50,4211.899902,4212.02002,74189900,4212.02002
2014-09-10,4250.799805,4250.799805,4194.50,4214.310059,84835900,4214.310059
2014-09-09,4256.299805,4256.299805,4232.00,4250.799805,70502600,4250.799805
2014-09-08,4257.299805,4263.100098,4246.00,4256.339844,50932900,4256.339844
2014-09-05,4292.600098,4294.299805,4252.600098,4257.319824,59147600,4257.319824
2014-09-04,4299.799805,4310.200195,4286.200195,4292.629883,78556900,4292.629883
2014-09-03,4276.200195,4313.50,4276.200195,4299.819824,104398700,4299.819824
2014-09-02,4259.899902,4276.240234,4242.899902,4276.240234,94034700,4276.240234
2014-09-01,4252.200195,4279.799805,4252.200195,4259.910156,80181000,4259.910156
2014-08-29,4222.200195,4258.200195,4212.50,4252.169922,122197400,4252.169922
2014-08-28,4230.50,4238.299805,4216.00,4222.189941,394432400,4222.189941
2014-08-27,4216.899902,4251.399902,4216.899902,4230.540039,93477700,4230.540039
2014-08-26,4220.700195,4239.399902,4209.600098,4216.870117,78355000,4216.870117
2014-08-25,4213.899902,4224.299805,4204.899902,4220.700195,73212600,4220.700195
2014-08-22,4184.399902,4229.799805,4184.399902,4213.939941,105684000,4213.939941
2014-08-21,4193.799805,4240.00,4179.100098,4184.370117,99993800,4184.370117
2014-08-20,4207.799805,4208.200195,4174.600098,4193.839844,144157500,4193.839844
2014-08-19,4148.00,4210.00,4148.00,4207.799805,104119500,4207.799805
2014-08-18,4140.299805,4149.100098,4125.399902,4147.990234,43132300,4147.990234
2014-08-15,4136.200195,4165.200195,4136.200195,4140.290039,44131800,4140.290039
2014-08-14,4116.399902,4154.200195,4116.399902,4136.189941,59465000,4136.189941
2014-08-13,4151.299805,4151.299805,4111.00,4116.439941,50742300,4116.439941
2014-08-12,4079.199951,4151.299805,4079.199951,4151.259766,66521200,4151.259766
2014-08-11,4067.300049,4105.600098,4067.300049,4079.189941,52455200,4079.189941
2014-08-08,4098.399902,4107.299805,4051.399902,4067.330078,78362200,4067.330078
2014-08-07,4095.300049,4115.799805,4094.699951,4098.399902,84588200,4098.399902
2014-08-06,4081.50,4106.700195,4076.50,4095.290039,66286800,4095.290039
2014-08-05,4114.399902,4123.50,4081.50,4081.51001,55045900,4081.51001
2014-08-04,4121.799805,4127.700195,4100.799805,4114.379883,36610400,4114.379883
2014-08-01,4183.600098,4183.600098,4121.600098,4123.720215,87479300,4123.720215
2014-07-31,4193.50,4194.100098,4172.600098,4183.629883,65451300,4183.629883
2014-07-30,4152.100098,4193.799805,4149.200195,4193.459961,67575000,4193.459961
2014-07-29,4161.700195,4163.899902,4138.00,4152.129883,51083300,4152.129883
2014-07-28,4167.399902,4168.50,4144.799805,4161.669922,52957000,4161.669922
2014-07-25,4168.50,4175.200195,4152.00,4167.370117,63765200,4167.370117
2014-07-24,4172.399902,4186.600098,4164.799805,4168.450195,51666100,4168.450195
2014-07-23,4148.50,4187.700195,4147.700195,4172.379883,68248300,4172.379883
2014-07-22,4146.00,4151.299805,4134.100098,4148.52002,52160400,4148.52002
2014-07-21,4131.700195,4161.100098,4129.899902,4146.02002,50919600,4146.02002
2014-07-18,4118.200195,4138.299805,4100.299805,4131.689941,68062600,4131.689941
2014-07-17,4115.899902,4151.100098,4115.899902,4118.189941,61735500,4118.189941
2014-07-16,4118.200195,4128.00,4109.600098,4115.910156,42438900,4115.910156
2014-07-15,4130.50,4147.600098,4105.399902,4118.189941,43475400,4118.189941
2014-07-14,4125.799805,4143.700195,4121.399902,4130.490234,46317100,4130.490234
2014-07-11,4095.800049,4130.799805,4076.00,4125.77002,56253300,4125.77002
2014-07-10,4083.50,4099.200195,4077.600098,4095.840088,56830000,4095.840088
2014-07-09,4148.399902,4148.399902,4075.699951,4083.459961,55799800,4083.459961
2014-07-08,4135.399902,4153.899902,4122.50,4148.399902,52866600,4148.399902
2014-07-07,4153.700195,4157.399902,4132.899902,4135.430176,41996600,4135.430176
2014-07-04,4147.399902,4162.799805,4143.399902,4153.72998,50788100,4153.72998
2014-07-03,4135.100098,4162.299805,4130.100098,4148.359863,76203100,4148.359863
2014-07-02,4065.600098,4130.399902,4065.600098,4129.529785,66923500,4129.529785
2014-07-01,4028.600098,4073.899902,4026.800049,4065.629883,81629700,4065.629883
2014-06-30,4070.399902,4070.399902,4028.560059,4028.560059,64917500,4028.560059
2014-06-27,4098.100098,4107.200195,4064.800049,4070.429932,134918700,4070.429932
2014-06-26,4070.300049,4098.100098,4064.399902,4098.080078,63570000,4098.080078
2014-06-25,4072.100098,4075.100098,4025.300049,4070.320068,75999100,4070.320068
2014-06-24,4074.800049,4078.899902,4051.899902,4072.110107,77866600,4072.110107
2014-06-23,4064.50,4102.899902,4064.50,4074.850098,79260200,4074.850098
2014-06-20,4088.00,4089.100098,4058.50,4064.50,115792000,4064.50
2014-06-19,4013.300049,4092.199951,4013.300049,4088.060059,108930800,4088.060059
2014-06-18,4019.899902,4025.100098,4002.300049,4013.320068,80690200,4013.320068
2014-06-17,4028.899902,4031.899902,4004.300049,4019.860107,68422200,4019.860107
2014-06-16,4042.50,4042.50,4004.50,4028.870117,74919000,4028.870117
2014-06-13,4066.699951,4066.699951,4004.199951,4042.459961,111614700,4042.459961
2014-06-12,4086.800049,4086.800049,4062.00,4066.699951,80994300,4066.699951
2014-06-11,4146.50,4146.50,4081.100098,4086.790039,73609900,4086.790039
2014-06-10,4141.299805,4171.299805,4141.00,4146.529785,66073000,4146.529785
2014-06-06,4127.200195,4153.700195,4127.200195,4141.350098,72878700,4141.350098
2014-06-05,4124.799805,4134.700195,4112.399902,4127.22998,72834600,4127.22998
2014-06-04,4157.399902,4158.700195,4119.899902,4124.779785,66542000,4124.779785
2014-06-03,4199.00,4206.399902,4156.100098,4157.450195,89982700,4157.450195
2014-06-02,4167.799805,4202.00,4161.50,4199.040039,67058600,4199.040039
2014-05-30,4184.700195,4196.299805,4167.799805,4167.819824,123004700,4167.819824
2014-05-29,4170.799805,4189.00,4163.899902,4184.680176,62490200,4184.680176
2014-05-28,4151.700195,4188.899902,4151.700195,4170.759766,63769600,4170.759766
2014-05-27,4146.50,4168.799805,4133.799805,4151.680176,55373200,4151.680176
2014-05-26,4117.299805,4147.799805,4117.00,4146.529785,58507800,4146.529785
2014-05-23,4112.200195,4132.200195,4109.600098,4117.27002,77778600,4117.27002
2014-05-22,4076.399902,4129.50,4076.399902,4112.200195,66376200,4112.200195
2014-05-21,4087.800049,4087.800049,4035.00,4076.360107,68276200,4076.360107
2014-05-20,4093.00,4103.100098,4050.699951,4087.810059,54505700,4087.810059
2014-05-19,4163.200195,4166.799805,4091.899902,4093.030029,82630900,4093.030029
2014-05-16,4177.899902,4181.50,4152.100098,4163.180176,53026900,4163.180176
2014-05-15,4175.00,4177.899902,4147.799805,4177.899902,61142300,4177.899902
2014-05-14,4147.399902,4173.899902,4147.399902,4169.700195,65127500,4169.700195
2014-05-13,4121.899902,4166.399902,4121.899902,4147.399902,53727900,4147.399902
2014-05-12,4105.799805,4127.600098,4091.800049,4121.859863,43348600,4121.859863
2014-05-09,4106.00,4110.299805,4075.699951,4105.830078,47982300,4105.830078
2014-05-08,4079.399902,4115.100098,4079.399902,4106.040039,67107800,4106.040039
2014-05-07,4089.899902,4089.899902,4050.399902,4079.370117,61879200,4079.370117
2014-05-06,4078.699951,4112.00,4078.699951,4089.889893,47981000,4089.889893
2014-05-05,4087.100098,4109.899902,4065.899902,4078.73999,67801200,4078.73999
2014-05-02,4057.50,4091.300049,4050.399902,4087.070068,83913100,4087.070068
2014-05-01,4064.699951,4075.300049,4043.300049,4057.48999,65514000,4057.48999
2014-04-30,4062.699951,4074.800049,4044.100098,4064.709961,56904700,4064.709961
2014-04-29,4098.00,4124.100098,4048.899902,4062.719971,65414500,4062.719971
2014-04-28,4104.700195,4116.200195,4088.00,4098.02002,38564800,4098.02002
2014-04-24,4085.100098,4112.50,4085.100098,4104.72998,61524900,4104.72998
2014-04-23,4068.699951,4095.00,4068.699951,4085.070068,52710000,4085.070068
2014-04-22,4054.399902,4083.699951,4054.399902,4068.679932,37126200,4068.679932
2014-04-17,4039.899902,4070.399902,4035.800049,4054.379883,57665300,4054.379883
2014-04-16,3996.199951,4044.399902,3996.199951,4039.899902,47038400,4039.899902
2014-04-15,3974.00,4014.600098,3974.00,3996.25,52172400,3996.25
2014-04-14,4024.600098,4024.600098,3971.870117,3971.870117,56717900,3971.870117
2014-04-11,4080.199951,4080.199951,4020.100098,4024.590088,50904100,4024.590088
2014-04-10,4063.00,4122.00,4063.00,4080.209961,57864200,4080.209961
2014-04-09,4015.100098,4072.199951,4015.100098,4063.030029,74383800,4063.030029
2014-04-08,4052.100098,4054.899902,4015.060059,4015.060059,51673300,4015.060059
2014-04-07,4074.300049,4074.300049,4043.00,4052.100098,46208200,4052.100098
2014-04-04,4063.600098,4081.399902,4054.199951,4076.48999,63957700,4076.48999
2014-04-03,4054.800049,4066.399902,4050.800049,4063.590088,51205000,4063.590088
2014-04-02,4040.600098,4061.00,4040.600098,4054.76001,64709000,4054.76001
2014-04-01,4053.600098,4057.600098,4008.199951,4040.159912,68386100,4040.159912
2014-03-31,4043.50,4072.300049,4043.50,4053.649902,63173300,4053.649902
2014-03-28,4039.899902,4051.100098,4024.399902,4043.469971,77688600,4043.469971
2014-03-27,4062.199951,4062.199951,4014.899902,4039.909912,61584700,4039.909912
2014-03-26,4029.100098,4071.00,4029.100098,4062.199951,75918100,4062.199951
2014-03-25,4043.899902,4043.899902,3993.699951,4029.110107,76053800,4029.110107
2014-03-24,4060.199951,4060.199951,4006.100098,4043.919922,69293200,4043.919922
2014-03-21,4019.800049,4060.219971,4017.00,4060.219971,191647900,4060.219971
2014-03-20,4092.50,4092.50,4013.100098,4019.77002,123898100,4019.77002
2014-03-19,4068.50,4092.51001,4053.699951,4092.51001,107231000,4092.51001
2014-03-18,4039.50,4069.399902,4039.50,4068.530029,80002100,4068.530029
2014-03-17,4039.00,4045.199951,4016.300049,4039.449951,62194900,4039.449951
2014-03-14,4102.50,4102.50,4035.100098,4039.050049,63326100,4039.050049
2014-03-13,4078.50,4126.899902,4078.50,4102.47998,82576800,4102.47998
2014-03-12,4120.299805,4120.299805,4046.00,4078.530029,81656800,4078.530029
2014-03-11,4158.399902,4167.00,4115.00,4120.27002,87768300,4120.27002
2014-03-10,4150.299805,4175.200195,4132.399902,4158.399902,76434600,4158.399902
2014-03-07,4120.00,4163.50,4114.299805,4150.25,76554400,4150.25
2014-03-06,4093.00,4123.799805,4080.699951,4119.990234,81251300,4119.990234
2014-03-05,4057.300049,4107.399902,4057.300049,4092.959961,93713800,4092.959961
2014-03-04,4044.899902,4060.699951,4035.399902,4055.070068,84992900,4055.070068
2014-03-03,4032.800049,4044.899902,3999.899902,4044.889893,85925600,4044.889893
2014-02-28,4044.699951,4058.800049,4023.50,4032.820068,108690900,4032.820068
2014-02-27,4101.50,4101.50,4028.199951,4044.669922,119709100,4044.669922
2014-02-26,4063.100098,4109.299805,4063.100098,4101.470215,84717700,4101.470215
2014-02-25,4052.50,4083.50,4052.50,4063.070068,71604900,4063.070068
2014-02-24,4030.00,4061.100098,4025.800049,4052.50,87681900,4052.50
2014-02-21,4004.00,4037.50,4004.00,4029.969971,86944900,4029.969971
2014-02-20,3991.50,4033.300049,3984.399902,4003.959961,102310000,4003.959961
2014-02-19,3969.399902,4004.00,3963.600098,3991.530029,91542600,3991.530029
2014-02-18,3967.699951,3984.00,3937.399902,3950.389893,67528000,3950.389893
2014-02-17,3936.300049,3974.300049,3936.300049,3967.719971,67918900,3967.719971
2014-02-14,3904.199951,3937.300049,3904.199951,3936.969971,83628600,3936.969971
2014-02-13,3891.50,3909.399902,3884.50,3904.169922,73833700,3904.169922
2014-02-12,3845.399902,3895.00,3845.399902,3894.98999,80460500,3894.98999
2014-02-11,3844.50,3850.00,3827.899902,3845.370117,52324500,3845.370117
2014-02-10,3815.100098,3847.600098,3811.699951,3844.51001,61715600,3844.51001
2014-02-07,3791.800049,3815.129883,3775.600098,3815.129883,73982900,3815.129883
2014-02-06,3771.199951,3796.800049,3766.800049,3791.76001,67019500,3791.76001
2014-02-05,3808.00,3831.50,3766.300049,3771.22998,80532700,3771.22998
2014-02-04,3881.600098,3881.600098,3800.699951,3808.00,90173900,3808.00
2014-02-03,3886.899902,3897.50,3871.199951,3881.600098,58503300,3881.600098
2014-01-31,3880.199951,3905.699951,3872.50,3886.889893,61762000,3886.889893
2014-01-30,3934.899902,3934.899902,3862.00,3880.23999,67863300,3880.23999
2014-01-29,3895.199951,3936.300049,3895.199951,3934.929932,55097900,3934.929932
2014-01-28,3914.600098,3923.800049,3858.300049,3895.199951,78312900,3895.199951
2014-01-24,3913.300049,3939.100098,3908.399902,3914.620117,66852800,3914.620117
2014-01-23,3944.699951,3952.50,3900.50,3913.25,70744700,3913.25
2014-01-22,3946.199951,3946.300049,3915.300049,3944.649902,47609500,3944.649902
2014-01-21,3902.899902,3951.399902,3898.600098,3946.199951,45654700,3946.199951
2014-01-20,3900.600098,3909.899902,3870.800049,3902.939941,53858900,3902.939941
2014-01-17,3913.199951,3913.199951,3887.300049,3900.629883,46100100,3900.629883
2014-01-16,3856.699951,3913.23999,3856.699951,3913.23999,63679900,3913.23999
2014-01-15,3842.00,3889.399902,3842.00,3856.709961,59033900,3856.709961
2014-01-14,3908.300049,3908.300049,3836.899902,3841.98999,75428300,3841.98999
2014-01-13,3922.00,3924.199951,3899.399902,3908.310059,42888800,3908.310059
2014-01-10,3930.399902,3932.100098,3902.800049,3922.01001,38260000,3922.01001
2014-01-09,3912.199951,3930.409912,3885.899902,3930.409912,65198700,3930.409912
2014-01-08,3916.00,3945.300049,3893.399902,3912.219971,55245200,3912.219971
2014-01-07,3921.50,3948.899902,3912.699951,3916.040039,46544600,3916.040039
2014-01-06,3951.699951,3958.600098,3913.00,3921.51001,32950500,3921.51001
2014-01-03,3973.399902,3973.399902,3923.00,3951.75,36480500,3951.75
2014-01-02,3968.899902,3988.50,3963.800049,3973.429932,46732200,3973.429932
2013-12-31,3965.199951,3984.800049,3946.800049,3968.899902,44096400,3968.899902
2013-12-30,3944.600098,3972.199951,3944.600098,3965.169922,74328500,3965.169922
2013-12-27,3955.800049,3980.300049,3944.600098,3944.629883,48046700,3944.629883
2013-12-24,3905.300049,3956.300049,3905.300049,3955.800049,50198100,3955.800049
2013-12-23,3908.800049,3922.800049,3883.699951,3905.280029,75822900,3905.280029
2013-12-20,3866.800049,3915.100098,3853.50,3908.77002,192857900,3908.77002
2013-12-19,3776.50,3866.800049,3776.50,3866.75,109338200,3866.75
2013-12-18,3819.50,3828.399902,3765.100098,3776.550049,97449300,3776.550049
2013-12-17,3792.699951,3832.899902,3792.699951,3819.540039,106220700,3819.540039
2013-12-16,3763.00,3793.199951,3744.100098,3792.709961,86139900,3792.709961
2013-12-13,3722.50,3765.399902,3710.800049,3762.959961,102148200,3762.959961
2013-12-12,3766.199951,3787.00,3707.399902,3722.48999,114028800,3722.48999
2013-12-11,3798.699951,3806.199951,3762.800049,3766.189941,65970600,3766.189941
2013-12-10,3772.699951,3820.00,3772.699951,3798.719971,111262400,3798.719971
2013-12-09,3789.199951,3812.899902,3768.00,3772.699951,73391500,3772.699951
2013-12-06,3816.800049,3816.800049,3785.300049,3789.23999,79097800,3789.23999
2013-12-05,3874.699951,3874.699951,3816.00,3816.850098,192148900,3816.850098
2013-12-04,3860.300049,3881.50,3838.199951,3874.72998,85616800,3874.72998
2013-12-03,3859.300049,3890.699951,3856.300049,3860.27002,161631000,3860.27002
2013-12-02,3895.50,3903.899902,3847.699951,3859.25,77844900,3859.25
2013-11-29,3925.00,3926.399902,3891.899902,3895.550049,108531100,3895.550049
2013-11-28,3941.100098,3961.399902,3908.899902,3924.969971,189879300,3924.969971
2013-11-27,3971.800049,3978.100098,3938.199951,3941.120117,56488700,3941.120117
2013-11-26,3990.600098,3998.100098,3971.800049,3971.820068,181073000,3971.820068
2013-11-25,3963.00,4008.199951,3963.00,3990.610107,67387900,3990.610107
2013-11-22,3898.00,3979.100098,3898.00,3962.959961,62551500,3962.959961
2013-11-21,3915.899902,3923.199951,3879.600098,3898.01001,67780100,3898.01001
2013-11-20,3944.199951,3946.800049,3903.899902,3915.939941,79201800,3915.939941
2013-11-19,3988.100098,3988.100098,3942.399902,3944.23999,70592200,3944.23999
2013-11-18,3994.399902,3994.399902,3948.800049,3988.090088,59599000,3988.090088
2013-11-15,3945.699951,3997.800049,3934.899902,3994.389893,75863900,3994.389893
2013-11-14,3931.399902,3977.00,3931.399902,3945.689941,60513200,3945.689941
2013-11-13,3979.199951,3988.399902,3919.699951,3931.429932,81743500,3931.429932
2013-11-12,3961.399902,3999.800049,3961.399902,3979.23999,73377400,3979.23999
2013-11-11,3976.399902,4014.300049,3949.600098,3961.409912,58290600,3961.409912
2013-11-08,3975.00,3990.899902,3962.50,3976.419922,69000500,3976.419922
2013-11-07,3963.699951,3983.399902,3955.300049,3974.97998,113482000,3974.97998
2013-11-06,3998.699951,4001.00,3956.800049,3967.840088,76127200,3967.840088
2013-11-05,3956.600098,4008.899902,3956.600098,3998.679932,51691200,3998.679932
2013-11-04,3984.300049,4003.50,3956.600098,3956.649902,66214900,3956.649902
2013-11-01,4039.600098,4053.399902,3984.27002,3984.27002,76094700,3984.27002
2013-10-31,4025.00,4050.300049,4019.00,4039.610107,76814100,4039.610107
2013-10-30,4019.00,4053.899902,4018.699951,4024.97998,90995200,4024.97998
2013-10-29,4079.600098,4079.600098,4016.50,4018.949951,68166500,4018.949951
2013-10-28,4066.300049,4103.200195,4066.300049,4079.629883,104520300,4079.629883
2013-10-25,4079.399902,4094.100098,4059.00,4066.290039,91854600,4066.290039
2013-10-24,4059.899902,4097.700195,4059.899902,4079.370117,86886300,4079.370117
2013-10-23,4073.899902,4104.799805,4058.300049,4059.879883,108409200,4059.879883
2013-10-22,4057.199951,4076.199951,4050.800049,4073.919922,90472500,4073.919922
2013-10-21,4033.399902,4066.100098,4033.399902,4057.219971,65070600,4057.219971
2013-10-18,4019.300049,4047.50,4017.600098,4033.399902,76428900,4033.399902
2013-10-17,4013.199951,4046.600098,4013.199951,4019.27002,67089100,4019.27002
2013-10-16,4008.399902,4019.600098,3972.699951,4013.199951,55959300,4013.199951
2013-10-15,3953.399902,4008.800049,3953.399902,4008.370117,55424500,4008.370117
2013-10-14,3990.100098,3990.100098,3937.00,3953.360107,41299800,3953.360107
2013-10-11,3909.300049,3993.800049,3909.300049,3990.139893,66315300,3990.139893
2013-10-10,3893.800049,3913.00,3870.800049,3909.330078,96350800,3909.330078
2013-10-09,3872.00,3897.100098,3859.600098,3893.830078,69071400,3893.830078
2013-10-08,3890.699951,3893.300049,3858.300049,3879.25,135400200,3879.25
2013-10-07,3922.00,3952.00,3885.50,3890.719971,000,3890.719971
2013-10-04,3952.199951,3952.199951,3919.50,3922.02002,55125400,3922.02002
2013-10-03,3980.399902,3984.199951,3948.100098,3952.22998,82544200,3952.22998
2013-10-02,3990.199951,4011.399902,3979.399902,3980.360107,137952400,3980.360107
2013-10-01,3967.899902,4004.199951,3967.899902,3990.149902,64358400,3990.149902
2013-09-30,4015.50,4015.50,3960.600098,3967.909912,67704200,3967.909912
2013-09-27,3996.199951,4020.699951,3996.199951,4015.48999,63909700,4015.48999
2013-09-26,3990.50,3997.00,3957.399902,3996.199951,81689100,3996.199951
2013-09-25,3948.00,3994.50,3948.00,3990.52002,69683400,3990.52002
2013-09-24,3952.50,3953.600098,3930.600098,3948.01001,68614400,3948.01001
2013-09-23,3982.800049,3982.800049,3933.100098,3952.50,61435600,3952.50
2013-09-20,4000.300049,4000.300049,3972.100098,3982.840088,148637800,3982.840088
2013-09-19,3945.199951,4013.50,3945.199951,4000.290039,201279700,4000.290039
2013-09-18,3956.800049,3961.50,3937.699951,3945.209961,88473500,3945.209961
2013-09-17,3964.600098,3968.899902,3944.800049,3956.830078,85441100,3956.830078
2013-09-16,3934.899902,3979.800049,3934.899902,3964.610107,83167900,3964.610107
2013-09-13,3952.100098,3952.100098,3930.100098,3934.879883,129600700,3934.879883
2013-09-12,3922.800049,3965.600098,3922.800049,3952.090088,180995300,3952.090088
2013-09-11,3884.100098,3922.800049,3884.100098,3922.800049,89905700,3922.800049
2013-09-10,3881.800049,3911.199951,3881.800049,3884.060059,87298800,3884.060059
2013-09-09,3877.00,3888.00,3853.800049,3881.76001,96844600,3881.76001
2013-09-06,3882.399902,3897.100098,3844.600098,3876.97998,100931100,3876.97998
2013-09-05,3864.600098,3893.899902,3860.899902,3882.370117,117850200,3882.370117
2013-09-04,3852.100098,3875.600098,3828.199951,3864.649902,119816800,3864.649902
2013-09-03,3836.699951,3859.199951,3831.199951,3852.090088,111824500,3852.090088
2013-09-02,3791.300049,3851.699951,3791.300049,3836.73999,000,3836.73999
2013-08-30,3747.600098,3791.300049,3745.100098,3791.27002,127236800,3791.27002
2013-08-29,3717.300049,3753.600098,3717.300049,3747.560059,155536300,3747.560059
2013-08-28,3761.300049,3761.300049,3706.800049,3717.280029,99377400,3717.280029
2013-08-27,3771.300049,3771.300049,3737.399902,3761.26001,86236600,3761.26001
2013-08-26,3795.00,3800.899902,3748.199951,3771.320068,82141400,3771.320068
2013-08-23,3749.00,3804.100098,3749.00,3794.949951,118104100,3794.949951
2013-08-22,3763.600098,3763.600098,3685.00,3742.379883,136186600,3742.379883
2013-08-21,3727.899902,3768.899902,3727.899902,3763.639893,74359100,3763.639893
2013-08-20,3761.300049,3761.300049,3719.399902,3727.899902,65775500,3727.899902
2013-08-19,3740.800049,3778.800049,3740.800049,3761.300049,70076300,3761.300049
2013-08-16,3741.699951,3743.800049,3721.300049,3740.820068,91594200,3740.820068
2013-08-15,3749.199951,3762.00,3735.399902,3741.699951,217203800,3741.699951
2013-08-14,3760.899902,3778.800049,3733.100098,3749.219971,87839000,3749.219971
2013-08-13,3692.800049,3760.949951,3688.50,3760.949951,100180400,3760.949951
2013-08-12,3631.300049,3692.899902,3624.100098,3692.780029,70565700,3692.780029
2013-08-09,3666.699951,3666.699951,3618.50,3631.26001,70049000,3631.26001
2013-08-08,3643.00,3677.50,3636.800049,3666.719971,80314800,3666.719971
2013-08-07,3720.399902,3720.399902,3636.199951,3643.02002,97566700,3643.02002
2013-08-06,3711.600098,3736.399902,3709.300049,3720.409912,84222400,3720.409912
2013-08-05,3712.699951,3716.699951,3699.699951,3711.580078,54915100,3711.580078
2013-08-02,3677.800049,3715.600098,3677.800049,3712.699951,68401200,3712.699951
2013-08-01,3637.899902,3691.399902,3637.899902,3677.820068,85673100,3677.820068
2013-07-31,3628.50,3665.800049,3628.50,3637.850098,73162400,3637.850098
2013-07-30,3645.100098,3654.199951,3608.600098,3628.48999,154646200,3628.48999
2013-07-29,3661.50,3661.50,3638.899902,3645.080078,000,3645.080078
2013-07-26,3646.199951,3674.699951,3646.199951,3661.48999,000,3661.48999
2013-07-19,3725.100098,3731.899902,3683.300049,3696.879883,000,3696.879883
2013-07-12,3702.899902,3745.199951,3702.899902,3718.030029,000,3718.030029
2013-07-05,3577.199951,3622.399902,3577.199951,3606.929932,000,3606.929932
2013-06-28,3597.100098,3615.100098,3581.699951,3584.649902,000,3584.649902
2013-06-21,3518.199951,3545.00,3473.100098,3537.100098,000,3537.100098
2013-06-14,3489.699951,3557.25,3489.699951,3557.25,000,3557.25
2013-06-07,3570.100098,3575.699951,3510.899902,3534.439941,000,3534.439941
2013-05-31,3722.50,3749.800049,3703.50,3705.72998,000,3705.72998
2013-05-24,3730.699951,3745.800049,3661.699951,3678.550049,000,3678.550049
2013-05-17,3809.600098,3825.899902,3783.300049,3810.689941,000,3810.689941
2013-05-10,3887.199951,3932.399902,3887.199951,3904.76001,000,3904.76001
2013-05-03,3788.100098,3815.100098,3767.899902,3776.209961,000,3776.209961
2013-04-26,3860.899902,3871.899902,3837.699951,3844.280029,000,3844.280029
2013-04-24,3802.199951,3862.00,3802.199951,3862.00,000,3862.00
2013-04-19,3664.300049,3721.699951,3664.300049,3718.550049,98635900,3718.550049
2013-04-18,3739.50,3742.50,3657.199951,3664.340088,161083900,3664.340088
2013-04-17,3721.100098,3769.899902,3721.100098,3754.840088,126599700,3754.840088
2013-04-16,3755.100098,3755.100098,3690.199951,3721.090088,132778300,3721.090088
2013-04-15,3810.899902,3811.600098,3720.300049,3755.060059,88854700,3755.060059
2013-04-12,3869.199951,3873.199951,3813.399902,3818.149902,000,3818.149902
2013-04-11,3848.300049,3897.600098,3848.300049,3865.060059,92157800,3865.060059
2013-04-10,3828.100098,3848.310059,3818.699951,3848.310059,92447100,3848.310059
2013-04-09,3784.399902,3836.50,3784.399902,3834.080078,107182300,3834.080078
2013-04-08,3788.100098,3801.100098,3764.600098,3784.439941,82042300,3784.439941
2013-04-05,3764.199951,3801.00,3764.199951,3788.080078,000,3788.080078
2013-03-28,3859.699951,3878.800049,3848.800049,3866.77002,000,3866.77002
2013-03-22,3810.100098,3812.100098,3788.50,3794.48999,000,3794.48999
2013-03-15,3862.699951,3927.649902,3862.699951,3927.649902,000,3927.649902
2013-03-08,3909.00,3920.800049,3886.199951,3912.939941,000,3912.939941
2013-03-07,3926.50,3940.50,3902.50,3908.97998,108706000,3908.97998
2013-03-06,3884.899902,3923.600098,3884.899902,3915.75,115257200,3915.75
2013-03-05,3872.300049,3928.00,3872.300049,3884.860107,104623400,3884.860107
2013-03-04,3944.899902,3944.899902,3868.100098,3872.340088,84314900,3872.340088
